<?xml version="1.0" encoding="UTF-8" standalone="no"?>
<!-- Created with CurveBenchmark -->
<svg
	xmlns:dc="http://purl.org/dc/elements/1.1/"
	xmlns:cc="http://creativecommons.org/ns#"
	xmlns:rdf="http://www.w3.org/1999/02/22-rdf-syntax-ns#"
	xmlns:svg="http://www.w3.org/2000/svg"
	xmlns="http://www.w3.org/2000/svg"
	xmlns:sodipodi="http://sodipodi.sourceforge.net/DTD/sodipodi-0.dtd"
	xmlns:inkscape="http://www.inkscape.org/namespaces/inkscape"
	width="1000"
	height="1000"
	id="svg2"
	version="1.1"
	sodipodi:docname="manifold/gathang-guitar185.png.txt">
<defs
	id="defs4" />
<metadata
	id="metadata7">
	<rdf:RDF>
		<cc:Work
			rdf:about="">
			<dc:format>image/svg+xml</dc:format>
			<dc:type
				rdf:resource="http://purl.org/dc/dcmitype/StillImage" />
			<dc:title></dc:title>
		</cc:Work>
	</rdf:RDF>
</metadata>
<g
	inkscape:label="Layer 1"
	inkscape:groupmode="layer"
	id="layer1">
	<path style="fill:none;stroke:red;stroke-width:1px;stroke-linecap:butt;stroke-linejoin:miter;stroke-opacity:1" d="M 152.27,28.7117 152.27,64.0142 z" id="boundary" inkscape:connector-curvature="0" />
	<path style="fill:none;stroke:red;stroke-width:1px;stroke-linecap:butt;stroke-linejoin:miter;stroke-opacity:1" d="M 173.452,127.559 152.27,99.3167 z" id="boundary" inkscape:connector-curvature="0" />
	<path style="fill:none;stroke:red;stroke-width:1px;stroke-linecap:butt;stroke-linejoin:miter;stroke-opacity:1" d="M 173.452,198.164 166.391,261.708 z" id="boundary" inkscape:connector-curvature="0" />
	<path style="fill:none;stroke:red;stroke-width:1px;stroke-linecap:butt;stroke-linejoin:miter;stroke-opacity:1" d="M 152.27,28.7117 180.512,7.53025 z" id="boundary" inkscape:connector-curvature="0" />
	<path style="fill:none;stroke:red;stroke-width:1px;stroke-linecap:butt;stroke-linejoin:miter;stroke-opacity:1" d="M 152.27,64.0142 152.27,99.3167 z" id="boundary" inkscape:connector-curvature="0" />
	<path style="fill:none;stroke:red;stroke-width:1px;stroke-linecap:butt;stroke-linejoin:miter;stroke-opacity:1" d="M 95.7865,572.37 74.605,544.128 z" id="boundary" inkscape:connector-curvature="0" />
	<path style="fill:none;stroke:red;stroke-width:1px;stroke-linecap:butt;stroke-linejoin:miter;stroke-opacity:1" d="M 166.391,508.826 159.331,544.128 z" id="boundary" inkscape:connector-curvature="0" />
	<path style="fill:none;stroke:red;stroke-width:1px;stroke-linecap:butt;stroke-linejoin:miter;stroke-opacity:1" d="M 166.391,297.011 166.391,332.313 z" id="boundary" inkscape:connector-curvature="0" />
	<path style="fill:none;stroke:red;stroke-width:1px;stroke-linecap:butt;stroke-linejoin:miter;stroke-opacity:1" d="M 166.391,261.708 166.391,297.011 z" id="boundary" inkscape:connector-curvature="0" />
	<path style="fill:none;stroke:red;stroke-width:1px;stroke-linecap:butt;stroke-linejoin:miter;stroke-opacity:1" d="M 166.391,332.313 166.391,367.616 z" id="boundary" inkscape:connector-curvature="0" />
	<path style="fill:none;stroke:red;stroke-width:1px;stroke-linecap:butt;stroke-linejoin:miter;stroke-opacity:1" d="M 74.605,544.128 46.363,565.31 z" id="boundary" inkscape:connector-curvature="0" />
	<path style="fill:none;stroke:red;stroke-width:1px;stroke-linecap:butt;stroke-linejoin:miter;stroke-opacity:1" d="M 173.452,162.861 173.452,198.164 z" id="boundary" inkscape:connector-curvature="0" />
	<path style="fill:none;stroke:red;stroke-width:1px;stroke-linecap:butt;stroke-linejoin:miter;stroke-opacity:1" d="M 173.452,162.861 173.452,127.559 z" id="boundary" inkscape:connector-curvature="0" />
	<path style="fill:none;stroke:red;stroke-width:1px;stroke-linecap:butt;stroke-linejoin:miter;stroke-opacity:1" d="M 166.391,367.616 166.391,402.918 z" id="boundary" inkscape:connector-curvature="0" />
	<path style="fill:none;stroke:red;stroke-width:1px;stroke-linecap:butt;stroke-linejoin:miter;stroke-opacity:1" d="M 166.391,438.221 166.391,473.523 z" id="boundary" inkscape:connector-curvature="0" />
	<path style="fill:none;stroke:red;stroke-width:1px;stroke-linecap:butt;stroke-linejoin:miter;stroke-opacity:1" d="M 166.391,508.826 166.391,473.523 z" id="boundary" inkscape:connector-curvature="0" />
	<path style="fill:none;stroke:red;stroke-width:1px;stroke-linecap:butt;stroke-linejoin:miter;stroke-opacity:1" d="M 166.391,438.221 166.391,402.918 z" id="boundary" inkscape:connector-curvature="0" />
	<path style="fill:none;stroke:red;stroke-width:1px;stroke-linecap:butt;stroke-linejoin:miter;stroke-opacity:1" d="M 131.089,579.431 159.331,544.128 z" id="boundary" inkscape:connector-curvature="0" />
	<path style="fill:none;stroke:red;stroke-width:1px;stroke-linecap:butt;stroke-linejoin:miter;stroke-opacity:1" d="M 56.9537,946.577 32.242,918.335 z" id="boundary" inkscape:connector-curvature="0" />
	<path style="fill:none;stroke:red;stroke-width:1px;stroke-linecap:butt;stroke-linejoin:miter;stroke-opacity:1" d="M 35.7722,745.352 18.121,777.125 z" id="boundary" inkscape:connector-curvature="0" />
	<path style="fill:none;stroke:red;stroke-width:1px;stroke-linecap:butt;stroke-linejoin:miter;stroke-opacity:1" d="M 46.363,565.31 46.363,600.612 z" id="boundary" inkscape:connector-curvature="0" />
	<path style="fill:none;stroke:red;stroke-width:1px;stroke-linecap:butt;stroke-linejoin:miter;stroke-opacity:1" d="M 18.121,777.125 4,819.488 z" id="boundary" inkscape:connector-curvature="0" />
	<path style="fill:none;stroke:red;stroke-width:1px;stroke-linecap:butt;stroke-linejoin:miter;stroke-opacity:1" d="M 4,854.79 4,819.488 z" id="boundary" inkscape:connector-curvature="0" />
	<path style="fill:none;stroke:red;stroke-width:1px;stroke-linecap:butt;stroke-linejoin:miter;stroke-opacity:1" d="M 32.242,918.335 11.0605,890.093 z" id="boundary" inkscape:connector-curvature="0" />
	<path style="fill:none;stroke:red;stroke-width:1px;stroke-linecap:butt;stroke-linejoin:miter;stroke-opacity:1" d="M 11.0605,890.093 4,854.79 z" id="boundary" inkscape:connector-curvature="0" />
	<path style="fill:none;stroke:red;stroke-width:1px;stroke-linecap:butt;stroke-linejoin:miter;stroke-opacity:1" d="M 56.9537,717.11 35.7722,745.352 z" id="boundary" inkscape:connector-curvature="0" />
	<path style="fill:none;stroke:red;stroke-width:1px;stroke-linecap:butt;stroke-linejoin:miter;stroke-opacity:1" d="M 64.0142,632.384 71.0747,681.808 z" id="boundary" inkscape:connector-curvature="0" />
	<path style="fill:none;stroke:red;stroke-width:1px;stroke-linecap:butt;stroke-linejoin:miter;stroke-opacity:1" d="M 71.0747,681.808 56.9537,717.11 z" id="boundary" inkscape:connector-curvature="0" />
	<path style="fill:none;stroke:red;stroke-width:1px;stroke-linecap:butt;stroke-linejoin:miter;stroke-opacity:1" d="M 95.7865,572.37 131.089,579.431 z" id="boundary" inkscape:connector-curvature="0" />
	<path style="fill:none;stroke:red;stroke-width:1px;stroke-linecap:butt;stroke-linejoin:miter;stroke-opacity:1" d="M 64.0142,632.384 46.363,600.612 z" id="boundary" inkscape:connector-curvature="0" />
	<path style="fill:none;stroke:red;stroke-width:1px;stroke-linecap:butt;stroke-linejoin:miter;stroke-opacity:1" d="M 152.27,988.94 116.968,985.409 z" id="boundary" inkscape:connector-curvature="0" />
	<path style="fill:none;stroke:red;stroke-width:1px;stroke-linecap:butt;stroke-linejoin:miter;stroke-opacity:1" d="M 116.968,985.409 85.1957,967.758 z" id="boundary" inkscape:connector-curvature="0" />
	<path style="fill:none;stroke:red;stroke-width:1px;stroke-linecap:butt;stroke-linejoin:miter;stroke-opacity:1" d="M 85.1957,967.758 56.9537,946.577 z" id="boundary" inkscape:connector-curvature="0" />
	<path style="fill:none;stroke:red;stroke-width:1px;stroke-linecap:butt;stroke-linejoin:miter;stroke-opacity:1" d="M 152.27,988.94 187.573,996 z" id="boundary" inkscape:connector-curvature="0" />
	<path style="fill:none;stroke:red;stroke-width:1px;stroke-linecap:butt;stroke-linejoin:miter;stroke-opacity:1" d="M 219.345,127.559 219.345,162.861 z" id="boundary" inkscape:connector-curvature="0" />
	<path style="fill:none;stroke:red;stroke-width:1px;stroke-linecap:butt;stroke-linejoin:miter;stroke-opacity:1" d="M 219.345,198.164 219.345,162.861 z" id="boundary" inkscape:connector-curvature="0" />
	<path style="fill:none;stroke:red;stroke-width:1px;stroke-linecap:butt;stroke-linejoin:miter;stroke-opacity:1" d="M 219.345,127.559 247.587,106.377 z" id="boundary" inkscape:connector-curvature="0" />
	<path style="fill:none;stroke:red;stroke-width:1px;stroke-linecap:butt;stroke-linejoin:miter;stroke-opacity:1" d="M 233.466,42.8327 226.406,78.1352 z" id="boundary" inkscape:connector-curvature="0" />
	<path style="fill:none;stroke:red;stroke-width:1px;stroke-linecap:butt;stroke-linejoin:miter;stroke-opacity:1" d="M 219.345,198.164 219.345,233.466 z" id="boundary" inkscape:connector-curvature="0" />
	<path style="fill:none;stroke:red;stroke-width:1px;stroke-linecap:butt;stroke-linejoin:miter;stroke-opacity:1" d="M 226.406,268.769 219.345,233.466 z" id="boundary" inkscape:connector-curvature="0" />
	<path style="fill:none;stroke:red;stroke-width:1px;stroke-linecap:butt;stroke-linejoin:miter;stroke-opacity:1" d="M 226.406,268.769 226.406,304.071 z" id="boundary" inkscape:connector-curvature="0" />
	<path style="fill:none;stroke:red;stroke-width:1px;stroke-linecap:butt;stroke-linejoin:miter;stroke-opacity:1" d="M 226.406,339.374 226.406,304.071 z" id="boundary" inkscape:connector-curvature="0" />
	<path style="fill:none;stroke:red;stroke-width:1px;stroke-linecap:butt;stroke-linejoin:miter;stroke-opacity:1" d="M 226.406,78.1352 247.587,106.377 z" id="boundary" inkscape:connector-curvature="0" />
	<path style="fill:none;stroke:red;stroke-width:1px;stroke-linecap:butt;stroke-linejoin:miter;stroke-opacity:1" d="M 226.406,339.374 226.406,374.676 z" id="boundary" inkscape:connector-curvature="0" />
	<path style="fill:none;stroke:red;stroke-width:1px;stroke-linecap:butt;stroke-linejoin:miter;stroke-opacity:1" d="M 325.253,526.477 293.48,508.826 z" id="boundary" inkscape:connector-curvature="0" />
	<path style="fill:none;stroke:red;stroke-width:1px;stroke-linecap:butt;stroke-linejoin:miter;stroke-opacity:1" d="M 226.406,409.979 226.406,445.281 z" id="boundary" inkscape:connector-curvature="0" />
	<path style="fill:none;stroke:red;stroke-width:1px;stroke-linecap:butt;stroke-linejoin:miter;stroke-opacity:1" d="M 258.178,501.765 229.936,480.584 z" id="boundary" inkscape:connector-curvature="0" />
	<path style="fill:none;stroke:red;stroke-width:1px;stroke-linecap:butt;stroke-linejoin:miter;stroke-opacity:1" d="M 229.936,480.584 226.406,445.281 z" id="boundary" inkscape:connector-curvature="0" />
	<path style="fill:none;stroke:red;stroke-width:1px;stroke-linecap:butt;stroke-linejoin:miter;stroke-opacity:1" d="M 293.48,508.826 258.178,501.765 z" id="boundary" inkscape:connector-curvature="0" />
	<path style="fill:none;stroke:red;stroke-width:1px;stroke-linecap:butt;stroke-linejoin:miter;stroke-opacity:1" d="M 226.406,409.979 226.406,374.676 z" id="boundary" inkscape:connector-curvature="0" />
	<path style="fill:none;stroke:red;stroke-width:1px;stroke-linecap:butt;stroke-linejoin:miter;stroke-opacity:1" d="M 325.253,960.698 293.48,978.349 z" id="boundary" inkscape:connector-curvature="0" />
	<path style="fill:none;stroke:red;stroke-width:1px;stroke-linecap:butt;stroke-linejoin:miter;stroke-opacity:1" d="M 332.313,678.278 342.904,713.58 z" id="boundary" inkscape:connector-curvature="0" />
	<path style="fill:none;stroke:red;stroke-width:1px;stroke-linecap:butt;stroke-linejoin:miter;stroke-opacity:1" d="M 332.313,642.975 332.313,678.278 z" id="boundary" inkscape:connector-curvature="0" />
	<path style="fill:none;stroke:red;stroke-width:1px;stroke-linecap:butt;stroke-linejoin:miter;stroke-opacity:1" d="M 332.313,642.975 346.434,607.673 z" id="boundary" inkscape:connector-curvature="0" />
	<path style="fill:none;stroke:red;stroke-width:1px;stroke-linecap:butt;stroke-linejoin:miter;stroke-opacity:1" d="M 187.573,996 222.875,992.47 z" id="boundary" inkscape:connector-curvature="0" />
	<path style="fill:none;stroke:red;stroke-width:1px;stroke-linecap:butt;stroke-linejoin:miter;stroke-opacity:1" d="M 222.875,992.47 258.178,992.47 z" id="boundary" inkscape:connector-curvature="0" />
	<path style="fill:none;stroke:red;stroke-width:1px;stroke-linecap:butt;stroke-linejoin:miter;stroke-opacity:1" d="M 293.48,978.349 258.178,992.47 z" id="boundary" inkscape:connector-curvature="0" />
	<path style="fill:none;stroke:red;stroke-width:1px;stroke-linecap:butt;stroke-linejoin:miter;stroke-opacity:1" d="M 325.253,526.477 346.434,554.719 z" id="boundary" inkscape:connector-curvature="0" />
	<path style="fill:none;stroke:red;stroke-width:1px;stroke-linecap:butt;stroke-linejoin:miter;stroke-opacity:1" d="M 346.434,554.719 346.434,607.673 z" id="boundary" inkscape:connector-curvature="0" />
	<path style="fill:none;stroke:red;stroke-width:1px;stroke-linecap:butt;stroke-linejoin:miter;stroke-opacity:1" d="M 364.085,741.822 342.904,713.58 z" id="boundary" inkscape:connector-curvature="0" />
	<path style="fill:none;stroke:red;stroke-width:1px;stroke-linecap:butt;stroke-linejoin:miter;stroke-opacity:1" d="M 381.737,773.594 364.085,741.822 z" id="boundary" inkscape:connector-curvature="0" />
	<path style="fill:none;stroke:red;stroke-width:1px;stroke-linecap:butt;stroke-linejoin:miter;stroke-opacity:1" d="M 357.025,943.046 325.253,960.698 z" id="boundary" inkscape:connector-curvature="0" />
	<path style="fill:none;stroke:red;stroke-width:1px;stroke-linecap:butt;stroke-linejoin:miter;stroke-opacity:1" d="M 378.206,914.804 357.025,943.046 z" id="boundary" inkscape:connector-curvature="0" />
	<path style="fill:none;stroke:red;stroke-width:1px;stroke-linecap:butt;stroke-linejoin:miter;stroke-opacity:1" d="M 395.858,808.897 395.858,875.972 z" id="boundary" inkscape:connector-curvature="0" />
	<path style="fill:none;stroke:red;stroke-width:1px;stroke-linecap:butt;stroke-linejoin:miter;stroke-opacity:1" d="M 395.858,875.972 378.206,914.804 z" id="boundary" inkscape:connector-curvature="0" />
	<path style="fill:none;stroke:red;stroke-width:1px;stroke-linecap:butt;stroke-linejoin:miter;stroke-opacity:1" d="M 395.858,808.897 381.737,773.594 z" id="boundary" inkscape:connector-curvature="0" />
	<path style="fill:none;stroke:red;stroke-width:1px;stroke-linecap:butt;stroke-linejoin:miter;stroke-opacity:1" d="M 215.815,4 233.466,42.8327 z" id="boundary" inkscape:connector-curvature="0" />
	<path style="fill:none;stroke:red;stroke-width:1px;stroke-linecap:butt;stroke-linejoin:miter;stroke-opacity:1" d="M 180.512,7.53025 215.815,4 z" id="boundary" inkscape:connector-curvature="0" />
	<circle cx="4" cy="819.488" r="4" fill="#0" id="circle0"/>
	<circle cx="4" cy="854.79" r="4" fill="#0" id="circle1"/>
	<circle cx="11.0605" cy="890.093" r="4" fill="#0" id="circle2"/>
	<circle cx="18.121" cy="777.125" r="4" fill="#0" id="circle3"/>
	<circle cx="32.242" cy="918.335" r="4" fill="#0" id="circle4"/>
	<circle cx="35.7722" cy="745.352" r="4" fill="#0" id="circle5"/>
	<circle cx="46.363" cy="565.31" r="4" fill="#0" id="circle6"/>
	<circle cx="46.363" cy="600.612" r="4" fill="#0" id="circle7"/>
	<circle cx="56.9537" cy="717.11" r="4" fill="#0" id="circle8"/>
	<circle cx="56.9537" cy="946.577" r="4" fill="#0" id="circle9"/>
	<circle cx="64.0142" cy="632.384" r="4" fill="#0" id="circle10"/>
	<circle cx="71.0747" cy="681.808" r="4" fill="#0" id="circle11"/>
	<circle cx="74.605" cy="544.128" r="4" fill="#0" id="circle12"/>
	<circle cx="85.1957" cy="967.758" r="4" fill="#0" id="circle13"/>
	<circle cx="95.7865" cy="572.37" r="4" fill="#0" id="circle14"/>
	<circle cx="116.968" cy="985.409" r="4" fill="#0" id="circle15"/>
	<circle cx="131.089" cy="579.431" r="4" fill="#0" id="circle16"/>
	<circle cx="152.27" cy="28.7117" r="4" fill="#0" id="circle17"/>
	<circle cx="152.27" cy="64.0142" r="4" fill="#0" id="circle18"/>
	<circle cx="152.27" cy="99.3167" r="4" fill="#0" id="circle19"/>
	<circle cx="152.27" cy="988.94" r="4" fill="#0" id="circle20"/>
	<circle cx="159.331" cy="544.128" r="4" fill="#0" id="circle21"/>
	<circle cx="166.391" cy="261.708" r="4" fill="#0" id="circle22"/>
	<circle cx="166.391" cy="297.011" r="4" fill="#0" id="circle23"/>
	<circle cx="166.391" cy="332.313" r="4" fill="#0" id="circle24"/>
	<circle cx="166.391" cy="367.616" r="4" fill="#0" id="circle25"/>
	<circle cx="166.391" cy="402.918" r="4" fill="#0" id="circle26"/>
	<circle cx="166.391" cy="438.221" r="4" fill="#0" id="circle27"/>
	<circle cx="166.391" cy="473.523" r="4" fill="#0" id="circle28"/>
	<circle cx="166.391" cy="508.826" r="4" fill="#0" id="circle29"/>
	<circle cx="173.452" cy="127.559" r="4" fill="#0" id="circle30"/>
	<circle cx="173.452" cy="162.861" r="4" fill="#0" id="circle31"/>
	<circle cx="173.452" cy="198.164" r="4" fill="#0" id="circle32"/>
	<circle cx="180.512" cy="7.53025" r="4" fill="#0" id="circle33"/>
	<circle cx="187.573" cy="996" r="4" fill="#0" id="circle34"/>
	<circle cx="215.815" cy="4" r="4" fill="#0" id="circle35"/>
	<circle cx="219.345" cy="127.559" r="4" fill="#0" id="circle36"/>
	<circle cx="219.345" cy="162.861" r="4" fill="#0" id="circle37"/>
	<circle cx="219.345" cy="198.164" r="4" fill="#0" id="circle38"/>
	<circle cx="219.345" cy="233.466" r="4" fill="#0" id="circle39"/>
	<circle cx="222.875" cy="992.47" r="4" fill="#0" id="circle40"/>
	<circle cx="226.406" cy="78.1352" r="4" fill="#0" id="circle41"/>
	<circle cx="226.406" cy="268.769" r="4" fill="#0" id="circle42"/>
	<circle cx="226.406" cy="304.071" r="4" fill="#0" id="circle43"/>
	<circle cx="226.406" cy="339.374" r="4" fill="#0" id="circle44"/>
	<circle cx="226.406" cy="374.676" r="4" fill="#0" id="circle45"/>
	<circle cx="226.406" cy="409.979" r="4" fill="#0" id="circle46"/>
	<circle cx="226.406" cy="445.281" r="4" fill="#0" id="circle47"/>
	<circle cx="229.936" cy="480.584" r="4" fill="#0" id="circle48"/>
	<circle cx="233.466" cy="42.8327" r="4" fill="#0" id="circle49"/>
	<circle cx="247.587" cy="106.377" r="4" fill="#0" id="circle50"/>
	<circle cx="258.178" cy="501.765" r="4" fill="#0" id="circle51"/>
	<circle cx="258.178" cy="992.47" r="4" fill="#0" id="circle52"/>
	<circle cx="293.48" cy="508.826" r="4" fill="#0" id="circle53"/>
	<circle cx="293.48" cy="978.349" r="4" fill="#0" id="circle54"/>
	<circle cx="325.253" cy="526.477" r="4" fill="#0" id="circle55"/>
	<circle cx="325.253" cy="960.698" r="4" fill="#0" id="circle56"/>
	<circle cx="332.313" cy="642.975" r="4" fill="#0" id="circle57"/>
	<circle cx="332.313" cy="678.278" r="4" fill="#0" id="circle58"/>
	<circle cx="342.904" cy="713.58" r="4" fill="#0" id="circle59"/>
	<circle cx="346.434" cy="554.719" r="4" fill="#0" id="circle60"/>
	<circle cx="346.434" cy="607.673" r="4" fill="#0" id="circle61"/>
	<circle cx="357.025" cy="943.046" r="4" fill="#0" id="circle62"/>
	<circle cx="364.085" cy="741.822" r="4" fill="#0" id="circle63"/>
	<circle cx="378.206" cy="914.804" r="4" fill="#0" id="circle64"/>
	<circle cx="381.737" cy="773.594" r="4" fill="#0" id="circle65"/>
	<circle cx="395.858" cy="808.897" r="4" fill="#0" id="circle66"/>
	<circle cx="395.858" cy="875.972" r="4" fill="#0" id="circle67"/>
	</g>
</svg>