<?xml version="1.0" encoding="UTF-8" standalone="no"?>
<!-- Created with CurveBenchmark -->
<svg
	xmlns:dc="http://purl.org/dc/elements/1.1/"
	xmlns:cc="http://creativecommons.org/ns#"
	xmlns:rdf="http://www.w3.org/1999/02/22-rdf-syntax-ns#"
	xmlns:svg="http://www.w3.org/2000/svg"
	xmlns="http://www.w3.org/2000/svg"
	xmlns:sodipodi="http://sodipodi.sourceforge.net/DTD/sodipodi-0.dtd"
	xmlns:inkscape="http://www.inkscape.org/namespaces/inkscape"
	width="1000"
	height="1000"
	id="svg2"
	version="1.1"
	sodipodi:docname="manifold/gathan1-woodenspoonbinary21.png.txt">
<defs
	id="defs4" />
<metadata
	id="metadata7">
	<rdf:RDF>
		<cc:Work
			rdf:about="">
			<dc:format>image/svg+xml</dc:format>
			<dc:type
				rdf:resource="http://purl.org/dc/dcmitype/StillImage" />
			<dc:title></dc:title>
		</cc:Work>
	</rdf:RDF>
</metadata>
<g
	inkscape:label="Layer 1"
	inkscape:groupmode="layer"
	id="layer1">
	<path style="fill:none;stroke:red;stroke-width:1px;stroke-linecap:butt;stroke-linejoin:miter;stroke-opacity:1" d="M 94.0549,66.1309 87.0739,66.829 z" id="boundary" inkscape:connector-curvature="0" />
	<path style="fill:none;stroke:red;stroke-width:1px;stroke-linecap:butt;stroke-linejoin:miter;stroke-opacity:1" d="M 87.0739,66.829 80.0929,66.1309 z" id="boundary" inkscape:connector-curvature="0" />
	<path style="fill:none;stroke:red;stroke-width:1px;stroke-linecap:butt;stroke-linejoin:miter;stroke-opacity:1" d="M 94.0549,66.1309 101.036,66.1309 z" id="boundary" inkscape:connector-curvature="0" />
	<path style="fill:none;stroke:red;stroke-width:1px;stroke-linecap:butt;stroke-linejoin:miter;stroke-opacity:1" d="M 108.017,66.1309 101.036,66.1309 z" id="boundary" inkscape:connector-curvature="0" />
	<path style="fill:none;stroke:red;stroke-width:1px;stroke-linecap:butt;stroke-linejoin:miter;stroke-opacity:1" d="M 114.998,65.4328 108.017,66.1309 z" id="boundary" inkscape:connector-curvature="0" />
	<path style="fill:none;stroke:red;stroke-width:1px;stroke-linecap:butt;stroke-linejoin:miter;stroke-opacity:1" d="M 45.1879,67.5271 52.1689,66.829 z" id="boundary" inkscape:connector-curvature="0" />
	<path style="fill:none;stroke:red;stroke-width:1px;stroke-linecap:butt;stroke-linejoin:miter;stroke-opacity:1" d="M 59.1499,66.829 52.1689,66.829 z" id="boundary" inkscape:connector-curvature="0" />
	<path style="fill:none;stroke:red;stroke-width:1px;stroke-linecap:butt;stroke-linejoin:miter;stroke-opacity:1" d="M 59.1499,66.829 66.1309,66.829 z" id="boundary" inkscape:connector-curvature="0" />
	<path style="fill:none;stroke:red;stroke-width:1px;stroke-linecap:butt;stroke-linejoin:miter;stroke-opacity:1" d="M 73.1119,66.829 66.1309,66.829 z" id="boundary" inkscape:connector-curvature="0" />
	<path style="fill:none;stroke:red;stroke-width:1px;stroke-linecap:butt;stroke-linejoin:miter;stroke-opacity:1" d="M 80.0929,66.1309 73.1119,66.829 z" id="boundary" inkscape:connector-curvature="0" />
	<path style="fill:none;stroke:red;stroke-width:1px;stroke-linecap:butt;stroke-linejoin:miter;stroke-opacity:1" d="M 121.979,64.7347 128.96,67.5271 z" id="boundary" inkscape:connector-curvature="0" />
	<path style="fill:none;stroke:red;stroke-width:1px;stroke-linecap:butt;stroke-linejoin:miter;stroke-opacity:1" d="M 114.998,65.4328 121.979,64.7347 z" id="boundary" inkscape:connector-curvature="0" />
	<path style="fill:none;stroke:red;stroke-width:1px;stroke-linecap:butt;stroke-linejoin:miter;stroke-opacity:1" d="M 149.903,64.7347 142.922,66.1309 z" id="boundary" inkscape:connector-curvature="0" />
	<path style="fill:none;stroke:red;stroke-width:1px;stroke-linecap:butt;stroke-linejoin:miter;stroke-opacity:1" d="M 156.884,65.4328 149.903,64.7347 z" id="boundary" inkscape:connector-curvature="0" />
	<path style="fill:none;stroke:red;stroke-width:1px;stroke-linecap:butt;stroke-linejoin:miter;stroke-opacity:1" d="M 163.865,65.4328 156.884,65.4328 z" id="boundary" inkscape:connector-curvature="0" />
	<path style="fill:none;stroke:red;stroke-width:1px;stroke-linecap:butt;stroke-linejoin:miter;stroke-opacity:1" d="M 135.941,68.2252 142.922,66.1309 z" id="boundary" inkscape:connector-curvature="0" />
	<path style="fill:none;stroke:red;stroke-width:1px;stroke-linecap:butt;stroke-linejoin:miter;stroke-opacity:1" d="M 170.846,65.4328 177.827,65.4328 z" id="boundary" inkscape:connector-curvature="0" />
	<path style="fill:none;stroke:red;stroke-width:1px;stroke-linecap:butt;stroke-linejoin:miter;stroke-opacity:1" d="M 184.808,66.1309 177.827,65.4328 z" id="boundary" inkscape:connector-curvature="0" />
	<path style="fill:none;stroke:red;stroke-width:1px;stroke-linecap:butt;stroke-linejoin:miter;stroke-opacity:1" d="M 163.865,65.4328 170.846,65.4328 z" id="boundary" inkscape:connector-curvature="0" />
	<path style="fill:none;stroke:red;stroke-width:1px;stroke-linecap:butt;stroke-linejoin:miter;stroke-opacity:1" d="M 24.2449,68.2252 31.2259,67.5271 z" id="boundary" inkscape:connector-curvature="0" />
	<path style="fill:none;stroke:red;stroke-width:1px;stroke-linecap:butt;stroke-linejoin:miter;stroke-opacity:1" d="M 38.2069,67.5271 31.2259,67.5271 z" id="boundary" inkscape:connector-curvature="0" />
	<path style="fill:none;stroke:red;stroke-width:1px;stroke-linecap:butt;stroke-linejoin:miter;stroke-opacity:1" d="M 38.2069,67.5271 45.1879,67.5271 z" id="boundary" inkscape:connector-curvature="0" />
	<path style="fill:none;stroke:red;stroke-width:1px;stroke-linecap:butt;stroke-linejoin:miter;stroke-opacity:1" d="M 6.0943,76.6024 10.2829,70.3195 z" id="boundary" inkscape:connector-curvature="0" />
	<path style="fill:none;stroke:red;stroke-width:1px;stroke-linecap:butt;stroke-linejoin:miter;stroke-opacity:1" d="M 10.2829,70.3195 17.2639,68.2252 z" id="boundary" inkscape:connector-curvature="0" />
	<path style="fill:none;stroke:red;stroke-width:1px;stroke-linecap:butt;stroke-linejoin:miter;stroke-opacity:1" d="M 24.2449,68.2252 17.2639,68.2252 z" id="boundary" inkscape:connector-curvature="0" />
	<path style="fill:none;stroke:red;stroke-width:1px;stroke-linecap:butt;stroke-linejoin:miter;stroke-opacity:1" d="M 128.96,67.5271 135.941,68.2252 z" id="boundary" inkscape:connector-curvature="0" />
	<path style="fill:none;stroke:red;stroke-width:1px;stroke-linecap:butt;stroke-linejoin:miter;stroke-opacity:1" d="M 191.789,67.5271 198.77,67.5271 z" id="boundary" inkscape:connector-curvature="0" />
	<path style="fill:none;stroke:red;stroke-width:1px;stroke-linecap:butt;stroke-linejoin:miter;stroke-opacity:1" d="M 191.789,67.5271 184.808,66.1309 z" id="boundary" inkscape:connector-curvature="0" />
	<path style="fill:none;stroke:red;stroke-width:1px;stroke-linecap:butt;stroke-linejoin:miter;stroke-opacity:1" d="M 233.675,67.5271 226.694,68.9233 z" id="boundary" inkscape:connector-curvature="0" />
	<path style="fill:none;stroke:red;stroke-width:1px;stroke-linecap:butt;stroke-linejoin:miter;stroke-opacity:1" d="M 198.77,67.5271 205.751,67.5271 z" id="boundary" inkscape:connector-curvature="0" />
	<path style="fill:none;stroke:red;stroke-width:1px;stroke-linecap:butt;stroke-linejoin:miter;stroke-opacity:1" d="M 212.732,69.6214 205.751,67.5271 z" id="boundary" inkscape:connector-curvature="0" />
	<path style="fill:none;stroke:red;stroke-width:1px;stroke-linecap:butt;stroke-linejoin:miter;stroke-opacity:1" d="M 226.694,68.9233 219.713,71.7157 z" id="boundary" inkscape:connector-curvature="0" />
	<path style="fill:none;stroke:red;stroke-width:1px;stroke-linecap:butt;stroke-linejoin:miter;stroke-opacity:1" d="M 219.713,71.7157 212.732,69.6214 z" id="boundary" inkscape:connector-curvature="0" />
	<path style="fill:none;stroke:red;stroke-width:1px;stroke-linecap:butt;stroke-linejoin:miter;stroke-opacity:1" d="M 233.675,67.5271 240.656,68.9233 z" id="boundary" inkscape:connector-curvature="0" />
	<path style="fill:none;stroke:red;stroke-width:1px;stroke-linecap:butt;stroke-linejoin:miter;stroke-opacity:1" d="M 247.637,68.9233 240.656,68.9233 z" id="boundary" inkscape:connector-curvature="0" />
	<path style="fill:none;stroke:red;stroke-width:1px;stroke-linecap:butt;stroke-linejoin:miter;stroke-opacity:1" d="M 254.618,68.9233 247.637,68.9233 z" id="boundary" inkscape:connector-curvature="0" />
	<path style="fill:none;stroke:red;stroke-width:1px;stroke-linecap:butt;stroke-linejoin:miter;stroke-opacity:1" d="M 261.599,68.9233 254.618,68.9233 z" id="boundary" inkscape:connector-curvature="0" />
	<path style="fill:none;stroke:red;stroke-width:1px;stroke-linecap:butt;stroke-linejoin:miter;stroke-opacity:1" d="M 268.58,69.6214 261.599,68.9233 z" id="boundary" inkscape:connector-curvature="0" />
	<path style="fill:none;stroke:red;stroke-width:1px;stroke-linecap:butt;stroke-linejoin:miter;stroke-opacity:1" d="M 275.561,69.6214 268.58,69.6214 z" id="boundary" inkscape:connector-curvature="0" />
	<path style="fill:none;stroke:red;stroke-width:1px;stroke-linecap:butt;stroke-linejoin:miter;stroke-opacity:1" d="M 275.561,69.6214 282.542,69.6214 z" id="boundary" inkscape:connector-curvature="0" />
	<path style="fill:none;stroke:red;stroke-width:1px;stroke-linecap:butt;stroke-linejoin:miter;stroke-opacity:1" d="M 289.523,69.6214 282.542,69.6214 z" id="boundary" inkscape:connector-curvature="0" />
	<path style="fill:none;stroke:red;stroke-width:1px;stroke-linecap:butt;stroke-linejoin:miter;stroke-opacity:1" d="M 296.504,70.3195 289.523,69.6214 z" id="boundary" inkscape:connector-curvature="0" />
	<path style="fill:none;stroke:red;stroke-width:1px;stroke-linecap:butt;stroke-linejoin:miter;stroke-opacity:1" d="M 303.485,70.3195 296.504,70.3195 z" id="boundary" inkscape:connector-curvature="0" />
	<path style="fill:none;stroke:red;stroke-width:1px;stroke-linecap:butt;stroke-linejoin:miter;stroke-opacity:1" d="M 317.447,71.0176 310.466,71.0176 z" id="boundary" inkscape:connector-curvature="0" />
	<path style="fill:none;stroke:red;stroke-width:1px;stroke-linecap:butt;stroke-linejoin:miter;stroke-opacity:1" d="M 310.466,71.0176 303.485,70.3195 z" id="boundary" inkscape:connector-curvature="0" />
	<path style="fill:none;stroke:red;stroke-width:1px;stroke-linecap:butt;stroke-linejoin:miter;stroke-opacity:1" d="M 324.428,71.0176 317.447,71.0176 z" id="boundary" inkscape:connector-curvature="0" />
	<path style="fill:none;stroke:red;stroke-width:1px;stroke-linecap:butt;stroke-linejoin:miter;stroke-opacity:1" d="M 324.428,71.0176 331.409,71.0176 z" id="boundary" inkscape:connector-curvature="0" />
	<path style="fill:none;stroke:red;stroke-width:1px;stroke-linecap:butt;stroke-linejoin:miter;stroke-opacity:1" d="M 338.39,71.7157 345.371,71.7157 z" id="boundary" inkscape:connector-curvature="0" />
	<path style="fill:none;stroke:red;stroke-width:1px;stroke-linecap:butt;stroke-linejoin:miter;stroke-opacity:1" d="M 338.39,71.7157 331.409,71.0176 z" id="boundary" inkscape:connector-curvature="0" />
	<path style="fill:none;stroke:red;stroke-width:1px;stroke-linecap:butt;stroke-linejoin:miter;stroke-opacity:1" d="M 352.352,71.7157 345.371,71.7157 z" id="boundary" inkscape:connector-curvature="0" />
	<path style="fill:none;stroke:red;stroke-width:1px;stroke-linecap:butt;stroke-linejoin:miter;stroke-opacity:1" d="M 359.333,72.4138 366.314,72.4138 z" id="boundary" inkscape:connector-curvature="0" />
	<path style="fill:none;stroke:red;stroke-width:1px;stroke-linecap:butt;stroke-linejoin:miter;stroke-opacity:1" d="M 359.333,72.4138 352.352,71.7157 z" id="boundary" inkscape:connector-curvature="0" />
	<path style="fill:none;stroke:red;stroke-width:1px;stroke-linecap:butt;stroke-linejoin:miter;stroke-opacity:1" d="M 387.257,73.1119 380.276,73.1119 z" id="boundary" inkscape:connector-curvature="0" />
	<path style="fill:none;stroke:red;stroke-width:1px;stroke-linecap:butt;stroke-linejoin:miter;stroke-opacity:1" d="M 380.276,73.1119 373.295,72.4138 z" id="boundary" inkscape:connector-curvature="0" />
	<path style="fill:none;stroke:red;stroke-width:1px;stroke-linecap:butt;stroke-linejoin:miter;stroke-opacity:1" d="M 394.238,73.1119 387.257,73.1119 z" id="boundary" inkscape:connector-curvature="0" />
	<path style="fill:none;stroke:red;stroke-width:1px;stroke-linecap:butt;stroke-linejoin:miter;stroke-opacity:1" d="M 366.314,72.4138 373.295,72.4138 z" id="boundary" inkscape:connector-curvature="0" />
	<path style="fill:none;stroke:red;stroke-width:1px;stroke-linecap:butt;stroke-linejoin:miter;stroke-opacity:1" d="M 394.238,73.1119 401.219,73.1119 z" id="boundary" inkscape:connector-curvature="0" />
	<path style="fill:none;stroke:red;stroke-width:1px;stroke-linecap:butt;stroke-linejoin:miter;stroke-opacity:1" d="M 401.219,73.1119 408.2,73.1119 z" id="boundary" inkscape:connector-curvature="0" />
	<path style="fill:none;stroke:red;stroke-width:1px;stroke-linecap:butt;stroke-linejoin:miter;stroke-opacity:1" d="M 415.181,73.81 408.2,73.1119 z" id="boundary" inkscape:connector-curvature="0" />
	<path style="fill:none;stroke:red;stroke-width:1px;stroke-linecap:butt;stroke-linejoin:miter;stroke-opacity:1" d="M 422.162,73.81 415.181,73.81 z" id="boundary" inkscape:connector-curvature="0" />
	<path style="fill:none;stroke:red;stroke-width:1px;stroke-linecap:butt;stroke-linejoin:miter;stroke-opacity:1" d="M 429.143,74.5081 422.162,73.81 z" id="boundary" inkscape:connector-curvature="0" />
	<path style="fill:none;stroke:red;stroke-width:1px;stroke-linecap:butt;stroke-linejoin:miter;stroke-opacity:1" d="M 436.124,74.5081 429.143,74.5081 z" id="boundary" inkscape:connector-curvature="0" />
	<path style="fill:none;stroke:red;stroke-width:1px;stroke-linecap:butt;stroke-linejoin:miter;stroke-opacity:1" d="M 436.124,74.5081 443.105,74.5081 z" id="boundary" inkscape:connector-curvature="0" />
	<path style="fill:none;stroke:red;stroke-width:1px;stroke-linecap:butt;stroke-linejoin:miter;stroke-opacity:1" d="M 450.086,75.2062 443.105,74.5081 z" id="boundary" inkscape:connector-curvature="0" />
	<path style="fill:none;stroke:red;stroke-width:1px;stroke-linecap:butt;stroke-linejoin:miter;stroke-opacity:1" d="M 457.067,75.2062 450.086,75.2062 z" id="boundary" inkscape:connector-curvature="0" />
	<path style="fill:none;stroke:red;stroke-width:1px;stroke-linecap:butt;stroke-linejoin:miter;stroke-opacity:1" d="M 464.048,75.9043 457.067,75.2062 z" id="boundary" inkscape:connector-curvature="0" />
	<path style="fill:none;stroke:red;stroke-width:1px;stroke-linecap:butt;stroke-linejoin:miter;stroke-opacity:1" d="M 471.029,75.9043 464.048,75.9043 z" id="boundary" inkscape:connector-curvature="0" />
	<path style="fill:none;stroke:red;stroke-width:1px;stroke-linecap:butt;stroke-linejoin:miter;stroke-opacity:1" d="M 471.029,75.9043 478.01,75.9043 z" id="boundary" inkscape:connector-curvature="0" />
	<path style="fill:none;stroke:red;stroke-width:1px;stroke-linecap:butt;stroke-linejoin:miter;stroke-opacity:1" d="M 484.991,76.6024 478.01,75.9043 z" id="boundary" inkscape:connector-curvature="0" />
	<path style="fill:none;stroke:red;stroke-width:1px;stroke-linecap:butt;stroke-linejoin:miter;stroke-opacity:1" d="M 491.972,76.6024 484.991,76.6024 z" id="boundary" inkscape:connector-curvature="0" />
	<path style="fill:none;stroke:red;stroke-width:1px;stroke-linecap:butt;stroke-linejoin:miter;stroke-opacity:1" d="M 491.972,76.6024 498.953,76.6024 z" id="boundary" inkscape:connector-curvature="0" />
	<path style="fill:none;stroke:red;stroke-width:1px;stroke-linecap:butt;stroke-linejoin:miter;stroke-opacity:1" d="M 519.896,77.3005 512.915,77.3005 z" id="boundary" inkscape:connector-curvature="0" />
	<path style="fill:none;stroke:red;stroke-width:1px;stroke-linecap:butt;stroke-linejoin:miter;stroke-opacity:1" d="M 512.915,77.3005 505.934,76.6024 z" id="boundary" inkscape:connector-curvature="0" />
	<path style="fill:none;stroke:red;stroke-width:1px;stroke-linecap:butt;stroke-linejoin:miter;stroke-opacity:1" d="M 526.877,77.3005 519.896,77.3005 z" id="boundary" inkscape:connector-curvature="0" />
	<path style="fill:none;stroke:red;stroke-width:1px;stroke-linecap:butt;stroke-linejoin:miter;stroke-opacity:1" d="M 498.953,76.6024 505.934,76.6024 z" id="boundary" inkscape:connector-curvature="0" />
	<path style="fill:none;stroke:red;stroke-width:1px;stroke-linecap:butt;stroke-linejoin:miter;stroke-opacity:1" d="M 4.6981,91.9606 4,84.9796 z" id="boundary" inkscape:connector-curvature="0" />
	<path style="fill:none;stroke:red;stroke-width:1px;stroke-linecap:butt;stroke-linejoin:miter;stroke-opacity:1" d="M 103.828,98.2435 110.809,96.8473 z" id="boundary" inkscape:connector-curvature="0" />
	<path style="fill:none;stroke:red;stroke-width:1px;stroke-linecap:butt;stroke-linejoin:miter;stroke-opacity:1" d="M 69.6214,99.6397 62.6404,100.338 z" id="boundary" inkscape:connector-curvature="0" />
	<path style="fill:none;stroke:red;stroke-width:1px;stroke-linecap:butt;stroke-linejoin:miter;stroke-opacity:1" d="M 103.828,98.2435 96.8473,99.6397 z" id="boundary" inkscape:connector-curvature="0" />
	<path style="fill:none;stroke:red;stroke-width:1px;stroke-linecap:butt;stroke-linejoin:miter;stroke-opacity:1" d="M 6.7924,98.9416 13.7734,99.6397 z" id="boundary" inkscape:connector-curvature="0" />
	<path style="fill:none;stroke:red;stroke-width:1px;stroke-linecap:butt;stroke-linejoin:miter;stroke-opacity:1" d="M 6.7924,98.9416 4.6981,91.9606 z" id="boundary" inkscape:connector-curvature="0" />
	<path style="fill:none;stroke:red;stroke-width:1px;stroke-linecap:butt;stroke-linejoin:miter;stroke-opacity:1" d="M 4,84.9796 6.0943,76.6024 z" id="boundary" inkscape:connector-curvature="0" />
	<path style="fill:none;stroke:red;stroke-width:1px;stroke-linecap:butt;stroke-linejoin:miter;stroke-opacity:1" d="M 27.7354,99.6397 20.7544,98.9416 z" id="boundary" inkscape:connector-curvature="0" />
	<path style="fill:none;stroke:red;stroke-width:1px;stroke-linecap:butt;stroke-linejoin:miter;stroke-opacity:1" d="M 62.6404,100.338 55.6594,101.036 z" id="boundary" inkscape:connector-curvature="0" />
	<path style="fill:none;stroke:red;stroke-width:1px;stroke-linecap:butt;stroke-linejoin:miter;stroke-opacity:1" d="M 13.7734,99.6397 20.7544,98.9416 z" id="boundary" inkscape:connector-curvature="0" />
	<path style="fill:none;stroke:red;stroke-width:1px;stroke-linecap:butt;stroke-linejoin:miter;stroke-opacity:1" d="M 27.7354,99.6397 34.7164,101.734 z" id="boundary" inkscape:connector-curvature="0" />
	<path style="fill:none;stroke:red;stroke-width:1px;stroke-linecap:butt;stroke-linejoin:miter;stroke-opacity:1" d="M 117.79,96.1492 124.771,97.5454 z" id="boundary" inkscape:connector-curvature="0" />
	<path style="fill:none;stroke:red;stroke-width:1px;stroke-linecap:butt;stroke-linejoin:miter;stroke-opacity:1" d="M 110.809,96.8473 117.79,96.1492 z" id="boundary" inkscape:connector-curvature="0" />
	<path style="fill:none;stroke:red;stroke-width:1px;stroke-linecap:butt;stroke-linejoin:miter;stroke-opacity:1" d="M 138.733,96.8473 131.752,98.2435 z" id="boundary" inkscape:connector-curvature="0" />
	<path style="fill:none;stroke:red;stroke-width:1px;stroke-linecap:butt;stroke-linejoin:miter;stroke-opacity:1" d="M 173.638,98.9416 166.657,97.5454 z" id="boundary" inkscape:connector-curvature="0" />
	<path style="fill:none;stroke:red;stroke-width:1px;stroke-linecap:butt;stroke-linejoin:miter;stroke-opacity:1" d="M 131.752,98.2435 124.771,97.5454 z" id="boundary" inkscape:connector-curvature="0" />
	<path style="fill:none;stroke:red;stroke-width:1px;stroke-linecap:butt;stroke-linejoin:miter;stroke-opacity:1" d="M 166.657,97.5454 159.676,98.9416 z" id="boundary" inkscape:connector-curvature="0" />
	<path style="fill:none;stroke:red;stroke-width:1px;stroke-linecap:butt;stroke-linejoin:miter;stroke-opacity:1" d="M 145.714,98.2435 138.733,96.8473 z" id="boundary" inkscape:connector-curvature="0" />
	<path style="fill:none;stroke:red;stroke-width:1px;stroke-linecap:butt;stroke-linejoin:miter;stroke-opacity:1" d="M 145.714,98.2435 152.695,98.9416 z" id="boundary" inkscape:connector-curvature="0" />
	<path style="fill:none;stroke:red;stroke-width:1px;stroke-linecap:butt;stroke-linejoin:miter;stroke-opacity:1" d="M 159.676,98.9416 152.695,98.9416 z" id="boundary" inkscape:connector-curvature="0" />
	<path style="fill:none;stroke:red;stroke-width:1px;stroke-linecap:butt;stroke-linejoin:miter;stroke-opacity:1" d="M 180.619,100.338 173.638,98.9416 z" id="boundary" inkscape:connector-curvature="0" />
	<path style="fill:none;stroke:red;stroke-width:1px;stroke-linecap:butt;stroke-linejoin:miter;stroke-opacity:1" d="M 48.6784,101.036 55.6594,101.036 z" id="boundary" inkscape:connector-curvature="0" />
	<path style="fill:none;stroke:red;stroke-width:1px;stroke-linecap:butt;stroke-linejoin:miter;stroke-opacity:1" d="M 41.6974,101.734 48.6784,101.036 z" id="boundary" inkscape:connector-curvature="0" />
	<path style="fill:none;stroke:red;stroke-width:1px;stroke-linecap:butt;stroke-linejoin:miter;stroke-opacity:1" d="M 76.6024,101.734 69.6214,99.6397 z" id="boundary" inkscape:connector-curvature="0" />
	<path style="fill:none;stroke:red;stroke-width:1px;stroke-linecap:butt;stroke-linejoin:miter;stroke-opacity:1" d="M 34.7164,101.734 41.6974,101.734 z" id="boundary" inkscape:connector-curvature="0" />
	<path style="fill:none;stroke:red;stroke-width:1px;stroke-linecap:butt;stroke-linejoin:miter;stroke-opacity:1" d="M 83.5834,103.13 76.6024,101.734 z" id="boundary" inkscape:connector-curvature="0" />
	<path style="fill:none;stroke:red;stroke-width:1px;stroke-linecap:butt;stroke-linejoin:miter;stroke-opacity:1" d="M 96.8473,99.6397 90.5644,103.13 z" id="boundary" inkscape:connector-curvature="0" />
	<path style="fill:none;stroke:red;stroke-width:1px;stroke-linecap:butt;stroke-linejoin:miter;stroke-opacity:1" d="M 90.5644,103.13 83.5834,103.13 z" id="boundary" inkscape:connector-curvature="0" />
	<path style="fill:none;stroke:red;stroke-width:1px;stroke-linecap:butt;stroke-linejoin:miter;stroke-opacity:1" d="M 187.6,101.734 180.619,100.338 z" id="boundary" inkscape:connector-curvature="0" />
	<path style="fill:none;stroke:red;stroke-width:1px;stroke-linecap:butt;stroke-linejoin:miter;stroke-opacity:1" d="M 201.562,103.13 194.581,102.432 z" id="boundary" inkscape:connector-curvature="0" />
	<path style="fill:none;stroke:red;stroke-width:1px;stroke-linecap:butt;stroke-linejoin:miter;stroke-opacity:1" d="M 194.581,102.432 187.6,101.734 z" id="boundary" inkscape:connector-curvature="0" />
	<path style="fill:none;stroke:red;stroke-width:1px;stroke-linecap:butt;stroke-linejoin:miter;stroke-opacity:1" d="M 229.486,103.13 222.505,103.828 z" id="boundary" inkscape:connector-curvature="0" />
	<path style="fill:none;stroke:red;stroke-width:1px;stroke-linecap:butt;stroke-linejoin:miter;stroke-opacity:1" d="M 249.033,96.1492 243.448,101.036 z" id="boundary" inkscape:connector-curvature="0" />
	<path style="fill:none;stroke:red;stroke-width:1px;stroke-linecap:butt;stroke-linejoin:miter;stroke-opacity:1" d="M 243.448,101.036 236.467,103.13 z" id="boundary" inkscape:connector-curvature="0" />
	<path style="fill:none;stroke:red;stroke-width:1px;stroke-linecap:butt;stroke-linejoin:miter;stroke-opacity:1" d="M 208.543,103.828 215.524,104.526 z" id="boundary" inkscape:connector-curvature="0" />
	<path style="fill:none;stroke:red;stroke-width:1px;stroke-linecap:butt;stroke-linejoin:miter;stroke-opacity:1" d="M 229.486,103.13 236.467,103.13 z" id="boundary" inkscape:connector-curvature="0" />
	<path style="fill:none;stroke:red;stroke-width:1px;stroke-linecap:butt;stroke-linejoin:miter;stroke-opacity:1" d="M 222.505,103.828 215.524,104.526 z" id="boundary" inkscape:connector-curvature="0" />
	<path style="fill:none;stroke:red;stroke-width:1px;stroke-linecap:butt;stroke-linejoin:miter;stroke-opacity:1" d="M 208.543,103.828 201.562,103.13 z" id="boundary" inkscape:connector-curvature="0" />
	<path style="fill:none;stroke:red;stroke-width:1px;stroke-linecap:butt;stroke-linejoin:miter;stroke-opacity:1" d="M 249.033,96.1492 255.316,99.6397 z" id="boundary" inkscape:connector-curvature="0" />
	<path style="fill:none;stroke:red;stroke-width:1px;stroke-linecap:butt;stroke-linejoin:miter;stroke-opacity:1" d="M 262.297,102.432 268.58,105.923 z" id="boundary" inkscape:connector-curvature="0" />
	<path style="fill:none;stroke:red;stroke-width:1px;stroke-linecap:butt;stroke-linejoin:miter;stroke-opacity:1" d="M 268.58,105.923 275.561,105.923 z" id="boundary" inkscape:connector-curvature="0" />
	<path style="fill:none;stroke:red;stroke-width:1px;stroke-linecap:butt;stroke-linejoin:miter;stroke-opacity:1" d="M 255.316,99.6397 262.297,102.432 z" id="boundary" inkscape:connector-curvature="0" />
	<path style="fill:none;stroke:red;stroke-width:1px;stroke-linecap:butt;stroke-linejoin:miter;stroke-opacity:1" d="M 282.542,105.923 289.523,107.319 z" id="boundary" inkscape:connector-curvature="0" />
	<path style="fill:none;stroke:red;stroke-width:1px;stroke-linecap:butt;stroke-linejoin:miter;stroke-opacity:1" d="M 275.561,105.923 282.542,105.923 z" id="boundary" inkscape:connector-curvature="0" />
	<path style="fill:none;stroke:red;stroke-width:1px;stroke-linecap:butt;stroke-linejoin:miter;stroke-opacity:1" d="M 303.485,109.413 296.504,108.715 z" id="boundary" inkscape:connector-curvature="0" />
	<path style="fill:none;stroke:red;stroke-width:1px;stroke-linecap:butt;stroke-linejoin:miter;stroke-opacity:1" d="M 296.504,108.715 289.523,107.319 z" id="boundary" inkscape:connector-curvature="0" />
	<path style="fill:none;stroke:red;stroke-width:1px;stroke-linecap:butt;stroke-linejoin:miter;stroke-opacity:1" d="M 303.485,109.413 310.466,108.017 z" id="boundary" inkscape:connector-curvature="0" />
	<path style="fill:none;stroke:red;stroke-width:1px;stroke-linecap:butt;stroke-linejoin:miter;stroke-opacity:1" d="M 310.466,108.017 317.447,109.413 z" id="boundary" inkscape:connector-curvature="0" />
	<path style="fill:none;stroke:red;stroke-width:1px;stroke-linecap:butt;stroke-linejoin:miter;stroke-opacity:1" d="M 373.295,114.3 366.314,114.3 z" id="boundary" inkscape:connector-curvature="0" />
	<path style="fill:none;stroke:red;stroke-width:1px;stroke-linecap:butt;stroke-linejoin:miter;stroke-opacity:1" d="M 317.447,109.413 324.428,111.507 z" id="boundary" inkscape:connector-curvature="0" />
	<path style="fill:none;stroke:red;stroke-width:1px;stroke-linecap:butt;stroke-linejoin:miter;stroke-opacity:1" d="M 338.39,112.904 331.409,112.205 z" id="boundary" inkscape:connector-curvature="0" />
	<path style="fill:none;stroke:red;stroke-width:1px;stroke-linecap:butt;stroke-linejoin:miter;stroke-opacity:1" d="M 331.409,112.205 324.428,111.507 z" id="boundary" inkscape:connector-curvature="0" />
	<path style="fill:none;stroke:red;stroke-width:1px;stroke-linecap:butt;stroke-linejoin:miter;stroke-opacity:1" d="M 338.39,112.904 345.371,112.904 z" id="boundary" inkscape:connector-curvature="0" />
	<path style="fill:none;stroke:red;stroke-width:1px;stroke-linecap:butt;stroke-linejoin:miter;stroke-opacity:1" d="M 345.371,112.904 352.352,113.602 z" id="boundary" inkscape:connector-curvature="0" />
	<path style="fill:none;stroke:red;stroke-width:1px;stroke-linecap:butt;stroke-linejoin:miter;stroke-opacity:1" d="M 352.352,113.602 359.333,114.998 z" id="boundary" inkscape:connector-curvature="0" />
	<path style="fill:none;stroke:red;stroke-width:1px;stroke-linecap:butt;stroke-linejoin:miter;stroke-opacity:1" d="M 373.295,114.3 380.276,114.998 z" id="boundary" inkscape:connector-curvature="0" />
	<path style="fill:none;stroke:red;stroke-width:1px;stroke-linecap:butt;stroke-linejoin:miter;stroke-opacity:1" d="M 366.314,114.3 359.333,114.998 z" id="boundary" inkscape:connector-curvature="0" />
	<path style="fill:none;stroke:red;stroke-width:1px;stroke-linecap:butt;stroke-linejoin:miter;stroke-opacity:1" d="M 387.257,114.998 394.238,114.998 z" id="boundary" inkscape:connector-curvature="0" />
	<path style="fill:none;stroke:red;stroke-width:1px;stroke-linecap:butt;stroke-linejoin:miter;stroke-opacity:1" d="M 394.238,114.998 401.219,115.696 z" id="boundary" inkscape:connector-curvature="0" />
	<path style="fill:none;stroke:red;stroke-width:1px;stroke-linecap:butt;stroke-linejoin:miter;stroke-opacity:1" d="M 387.257,114.998 380.276,114.998 z" id="boundary" inkscape:connector-curvature="0" />
	<path style="fill:none;stroke:red;stroke-width:1px;stroke-linecap:butt;stroke-linejoin:miter;stroke-opacity:1" d="M 401.219,115.696 408.2,116.394 z" id="boundary" inkscape:connector-curvature="0" />
	<path style="fill:none;stroke:red;stroke-width:1px;stroke-linecap:butt;stroke-linejoin:miter;stroke-opacity:1" d="M 415.181,116.394 422.162,117.092 z" id="boundary" inkscape:connector-curvature="0" />
	<path style="fill:none;stroke:red;stroke-width:1px;stroke-linecap:butt;stroke-linejoin:miter;stroke-opacity:1" d="M 408.2,116.394 415.181,116.394 z" id="boundary" inkscape:connector-curvature="0" />
	<path style="fill:none;stroke:red;stroke-width:1px;stroke-linecap:butt;stroke-linejoin:miter;stroke-opacity:1" d="M 429.143,117.092 436.124,117.092 z" id="boundary" inkscape:connector-curvature="0" />
	<path style="fill:none;stroke:red;stroke-width:1px;stroke-linecap:butt;stroke-linejoin:miter;stroke-opacity:1" d="M 429.143,117.092 422.162,117.092 z" id="boundary" inkscape:connector-curvature="0" />
	<path style="fill:none;stroke:red;stroke-width:1px;stroke-linecap:butt;stroke-linejoin:miter;stroke-opacity:1" d="M 436.124,117.092 443.105,117.092 z" id="boundary" inkscape:connector-curvature="0" />
	<path style="fill:none;stroke:red;stroke-width:1px;stroke-linecap:butt;stroke-linejoin:miter;stroke-opacity:1" d="M 450.086,117.092 457.067,117.79 z" id="boundary" inkscape:connector-curvature="0" />
	<path style="fill:none;stroke:red;stroke-width:1px;stroke-linecap:butt;stroke-linejoin:miter;stroke-opacity:1" d="M 443.105,117.092 450.086,117.092 z" id="boundary" inkscape:connector-curvature="0" />
	<path style="fill:none;stroke:red;stroke-width:1px;stroke-linecap:butt;stroke-linejoin:miter;stroke-opacity:1" d="M 464.048,118.488 457.067,117.79 z" id="boundary" inkscape:connector-curvature="0" />
	<path style="fill:none;stroke:red;stroke-width:1px;stroke-linecap:butt;stroke-linejoin:miter;stroke-opacity:1" d="M 471.029,119.186 464.048,118.488 z" id="boundary" inkscape:connector-curvature="0" />
	<path style="fill:none;stroke:red;stroke-width:1px;stroke-linecap:butt;stroke-linejoin:miter;stroke-opacity:1" d="M 478.01,119.186 471.029,119.186 z" id="boundary" inkscape:connector-curvature="0" />
	<path style="fill:none;stroke:red;stroke-width:1px;stroke-linecap:butt;stroke-linejoin:miter;stroke-opacity:1" d="M 484.991,119.186 491.972,119.186 z" id="boundary" inkscape:connector-curvature="0" />
	<path style="fill:none;stroke:red;stroke-width:1px;stroke-linecap:butt;stroke-linejoin:miter;stroke-opacity:1" d="M 484.991,119.186 478.01,119.186 z" id="boundary" inkscape:connector-curvature="0" />
	<path style="fill:none;stroke:red;stroke-width:1px;stroke-linecap:butt;stroke-linejoin:miter;stroke-opacity:1" d="M 505.934,119.885 498.953,119.186 z" id="boundary" inkscape:connector-curvature="0" />
	<path style="fill:none;stroke:red;stroke-width:1px;stroke-linecap:butt;stroke-linejoin:miter;stroke-opacity:1" d="M 505.934,119.885 512.915,119.885 z" id="boundary" inkscape:connector-curvature="0" />
	<path style="fill:none;stroke:red;stroke-width:1px;stroke-linecap:butt;stroke-linejoin:miter;stroke-opacity:1" d="M 512.915,119.885 519.896,120.583 z" id="boundary" inkscape:connector-curvature="0" />
	<path style="fill:none;stroke:red;stroke-width:1px;stroke-linecap:butt;stroke-linejoin:miter;stroke-opacity:1" d="M 491.972,119.186 498.953,119.186 z" id="boundary" inkscape:connector-curvature="0" />
	<path style="fill:none;stroke:red;stroke-width:1px;stroke-linecap:butt;stroke-linejoin:miter;stroke-opacity:1" d="M 694.421,62.6404 701.402,59.848 z" id="boundary" inkscape:connector-curvature="0" />
	<path style="fill:none;stroke:red;stroke-width:1px;stroke-linecap:butt;stroke-linejoin:miter;stroke-opacity:1" d="M 708.383,56.3575 701.402,59.848 z" id="boundary" inkscape:connector-curvature="0" />
	<path style="fill:none;stroke:red;stroke-width:1px;stroke-linecap:butt;stroke-linejoin:miter;stroke-opacity:1" d="M 708.383,56.3575 715.364,52.867 z" id="boundary" inkscape:connector-curvature="0" />
	<path style="fill:none;stroke:red;stroke-width:1px;stroke-linecap:butt;stroke-linejoin:miter;stroke-opacity:1" d="M 659.516,73.1119 666.497,71.7157 z" id="boundary" inkscape:connector-curvature="0" />
	<path style="fill:none;stroke:red;stroke-width:1px;stroke-linecap:butt;stroke-linejoin:miter;stroke-opacity:1" d="M 673.478,69.6214 666.497,71.7157 z" id="boundary" inkscape:connector-curvature="0" />
	<path style="fill:none;stroke:red;stroke-width:1px;stroke-linecap:butt;stroke-linejoin:miter;stroke-opacity:1" d="M 673.478,69.6214 680.459,67.5271 z" id="boundary" inkscape:connector-curvature="0" />
	<path style="fill:none;stroke:red;stroke-width:1px;stroke-linecap:butt;stroke-linejoin:miter;stroke-opacity:1" d="M 680.459,67.5271 687.44,65.4328 z" id="boundary" inkscape:connector-curvature="0" />
	<path style="fill:none;stroke:red;stroke-width:1px;stroke-linecap:butt;stroke-linejoin:miter;stroke-opacity:1" d="M 694.421,62.6404 687.44,65.4328 z" id="boundary" inkscape:connector-curvature="0" />
	<path style="fill:none;stroke:red;stroke-width:1px;stroke-linecap:butt;stroke-linejoin:miter;stroke-opacity:1" d="M 722.345,49.3765 715.364,52.867 z" id="boundary" inkscape:connector-curvature="0" />
	<path style="fill:none;stroke:red;stroke-width:1px;stroke-linecap:butt;stroke-linejoin:miter;stroke-opacity:1" d="M 748.873,36.1126 755.156,32.6221 z" id="boundary" inkscape:connector-curvature="0" />
	<path style="fill:none;stroke:red;stroke-width:1px;stroke-linecap:butt;stroke-linejoin:miter;stroke-opacity:1" d="M 762.137,29.1316 755.156,32.6221 z" id="boundary" inkscape:connector-curvature="0" />
	<path style="fill:none;stroke:red;stroke-width:1px;stroke-linecap:butt;stroke-linejoin:miter;stroke-opacity:1" d="M 768.419,25.6411 762.137,29.1316 z" id="boundary" inkscape:connector-curvature="0" />
	<path style="fill:none;stroke:red;stroke-width:1px;stroke-linecap:butt;stroke-linejoin:miter;stroke-opacity:1" d="M 768.419,25.6411 775.4,22.1506 z" id="boundary" inkscape:connector-curvature="0" />
	<path style="fill:none;stroke:red;stroke-width:1px;stroke-linecap:butt;stroke-linejoin:miter;stroke-opacity:1" d="M 729.326,46.5841 722.345,49.3765 z" id="boundary" inkscape:connector-curvature="0" />
	<path style="fill:none;stroke:red;stroke-width:1px;stroke-linecap:butt;stroke-linejoin:miter;stroke-opacity:1" d="M 736.307,43.0936 729.326,46.5841 z" id="boundary" inkscape:connector-curvature="0" />
	<path style="fill:none;stroke:red;stroke-width:1px;stroke-linecap:butt;stroke-linejoin:miter;stroke-opacity:1" d="M 736.307,43.0936 742.59,39.6031 z" id="boundary" inkscape:connector-curvature="0" />
	<path style="fill:none;stroke:red;stroke-width:1px;stroke-linecap:butt;stroke-linejoin:miter;stroke-opacity:1" d="M 748.873,36.1126 742.59,39.6031 z" id="boundary" inkscape:connector-curvature="0" />
	<path style="fill:none;stroke:red;stroke-width:1px;stroke-linecap:butt;stroke-linejoin:miter;stroke-opacity:1" d="M 775.4,22.1506 782.381,19.3582 z" id="boundary" inkscape:connector-curvature="0" />
	<path style="fill:none;stroke:red;stroke-width:1px;stroke-linecap:butt;stroke-linejoin:miter;stroke-opacity:1" d="M 526.877,77.3005 533.858,77.3005 z" id="boundary" inkscape:connector-curvature="0" />
	<path style="fill:none;stroke:red;stroke-width:1px;stroke-linecap:butt;stroke-linejoin:miter;stroke-opacity:1" d="M 533.858,77.3005 540.839,77.3005 z" id="boundary" inkscape:connector-curvature="0" />
	<path style="fill:none;stroke:red;stroke-width:1px;stroke-linecap:butt;stroke-linejoin:miter;stroke-opacity:1" d="M 547.82,77.9986 540.839,77.3005 z" id="boundary" inkscape:connector-curvature="0" />
	<path style="fill:none;stroke:red;stroke-width:1px;stroke-linecap:butt;stroke-linejoin:miter;stroke-opacity:1" d="M 554.801,77.9986 547.82,77.9986 z" id="boundary" inkscape:connector-curvature="0" />
	<path style="fill:none;stroke:red;stroke-width:1px;stroke-linecap:butt;stroke-linejoin:miter;stroke-opacity:1" d="M 554.801,77.9986 561.782,77.9986 z" id="boundary" inkscape:connector-curvature="0" />
	<path style="fill:none;stroke:red;stroke-width:1px;stroke-linecap:butt;stroke-linejoin:miter;stroke-opacity:1" d="M 582.725,78.6967 575.744,78.6967 z" id="boundary" inkscape:connector-curvature="0" />
	<path style="fill:none;stroke:red;stroke-width:1px;stroke-linecap:butt;stroke-linejoin:miter;stroke-opacity:1" d="M 575.744,78.6967 568.763,77.9986 z" id="boundary" inkscape:connector-curvature="0" />
	<path style="fill:none;stroke:red;stroke-width:1px;stroke-linecap:butt;stroke-linejoin:miter;stroke-opacity:1" d="M 589.706,78.6967 582.725,78.6967 z" id="boundary" inkscape:connector-curvature="0" />
	<path style="fill:none;stroke:red;stroke-width:1px;stroke-linecap:butt;stroke-linejoin:miter;stroke-opacity:1" d="M 561.782,77.9986 568.763,77.9986 z" id="boundary" inkscape:connector-curvature="0" />
	<path style="fill:none;stroke:red;stroke-width:1px;stroke-linecap:butt;stroke-linejoin:miter;stroke-opacity:1" d="M 638.573,76.6024 631.592,77.9986 z" id="boundary" inkscape:connector-curvature="0" />
	<path style="fill:none;stroke:red;stroke-width:1px;stroke-linecap:butt;stroke-linejoin:miter;stroke-opacity:1" d="M 652.535,74.5081 645.554,75.9043 z" id="boundary" inkscape:connector-curvature="0" />
	<path style="fill:none;stroke:red;stroke-width:1px;stroke-linecap:butt;stroke-linejoin:miter;stroke-opacity:1" d="M 645.554,75.9043 638.573,76.6024 z" id="boundary" inkscape:connector-curvature="0" />
	<path style="fill:none;stroke:red;stroke-width:1px;stroke-linecap:butt;stroke-linejoin:miter;stroke-opacity:1" d="M 596.687,78.6967 589.706,78.6967 z" id="boundary" inkscape:connector-curvature="0" />
	<path style="fill:none;stroke:red;stroke-width:1px;stroke-linecap:butt;stroke-linejoin:miter;stroke-opacity:1" d="M 596.687,78.6967 603.668,78.6967 z" id="boundary" inkscape:connector-curvature="0" />
	<path style="fill:none;stroke:red;stroke-width:1px;stroke-linecap:butt;stroke-linejoin:miter;stroke-opacity:1" d="M 610.649,78.6967 617.63,78.6967 z" id="boundary" inkscape:connector-curvature="0" />
	<path style="fill:none;stroke:red;stroke-width:1px;stroke-linecap:butt;stroke-linejoin:miter;stroke-opacity:1" d="M 624.611,78.6967 617.63,78.6967 z" id="boundary" inkscape:connector-curvature="0" />
	<path style="fill:none;stroke:red;stroke-width:1px;stroke-linecap:butt;stroke-linejoin:miter;stroke-opacity:1" d="M 631.592,77.9986 624.611,78.6967 z" id="boundary" inkscape:connector-curvature="0" />
	<path style="fill:none;stroke:red;stroke-width:1px;stroke-linecap:butt;stroke-linejoin:miter;stroke-opacity:1" d="M 610.649,78.6967 603.668,78.6967 z" id="boundary" inkscape:connector-curvature="0" />
	<path style="fill:none;stroke:red;stroke-width:1px;stroke-linecap:butt;stroke-linejoin:miter;stroke-opacity:1" d="M 659.516,73.1119 652.535,74.5081 z" id="boundary" inkscape:connector-curvature="0" />
	<path style="fill:none;stroke:red;stroke-width:1px;stroke-linecap:butt;stroke-linejoin:miter;stroke-opacity:1" d="M 831.248,5.3962 838.229,4.6981 z" id="boundary" inkscape:connector-curvature="0" />
	<path style="fill:none;stroke:red;stroke-width:1px;stroke-linecap:butt;stroke-linejoin:miter;stroke-opacity:1" d="M 838.229,4.6981 845.21,4.6981 z" id="boundary" inkscape:connector-curvature="0" />
	<path style="fill:none;stroke:red;stroke-width:1px;stroke-linecap:butt;stroke-linejoin:miter;stroke-opacity:1" d="M 852.191,4 845.21,4.6981 z" id="boundary" inkscape:connector-curvature="0" />
	<path style="fill:none;stroke:red;stroke-width:1px;stroke-linecap:butt;stroke-linejoin:miter;stroke-opacity:1" d="M 824.267,6.7924 831.248,5.3962 z" id="boundary" inkscape:connector-curvature="0" />
	<path style="fill:none;stroke:red;stroke-width:1px;stroke-linecap:butt;stroke-linejoin:miter;stroke-opacity:1" d="M 796.343,13.7734 803.324,10.981 z" id="boundary" inkscape:connector-curvature="0" />
	<path style="fill:none;stroke:red;stroke-width:1px;stroke-linecap:butt;stroke-linejoin:miter;stroke-opacity:1" d="M 803.324,10.981 810.305,9.5848 z" id="boundary" inkscape:connector-curvature="0" />
	<path style="fill:none;stroke:red;stroke-width:1px;stroke-linecap:butt;stroke-linejoin:miter;stroke-opacity:1" d="M 796.343,13.7734 789.362,16.5658 z" id="boundary" inkscape:connector-curvature="0" />
	<path style="fill:none;stroke:red;stroke-width:1px;stroke-linecap:butt;stroke-linejoin:miter;stroke-opacity:1" d="M 810.305,9.5848 817.286,7.4905 z" id="boundary" inkscape:connector-curvature="0" />
	<path style="fill:none;stroke:red;stroke-width:1px;stroke-linecap:butt;stroke-linejoin:miter;stroke-opacity:1" d="M 817.286,7.4905 824.267,6.7924 z" id="boundary" inkscape:connector-curvature="0" />
	<path style="fill:none;stroke:red;stroke-width:1px;stroke-linecap:butt;stroke-linejoin:miter;stroke-opacity:1" d="M 852.191,4 859.172,4 z" id="boundary" inkscape:connector-curvature="0" />
	<path style="fill:none;stroke:red;stroke-width:1px;stroke-linecap:butt;stroke-linejoin:miter;stroke-opacity:1" d="M 859.172,4 866.153,4 z" id="boundary" inkscape:connector-curvature="0" />
	<path style="fill:none;stroke:red;stroke-width:1px;stroke-linecap:butt;stroke-linejoin:miter;stroke-opacity:1" d="M 866.153,4 873.134,4.6981 z" id="boundary" inkscape:connector-curvature="0" />
	<path style="fill:none;stroke:red;stroke-width:1px;stroke-linecap:butt;stroke-linejoin:miter;stroke-opacity:1" d="M 873.134,4.6981 880.115,5.3962 z" id="boundary" inkscape:connector-curvature="0" />
	<path style="fill:none;stroke:red;stroke-width:1px;stroke-linecap:butt;stroke-linejoin:miter;stroke-opacity:1" d="M 880.115,5.3962 887.096,6.0943 z" id="boundary" inkscape:connector-curvature="0" />
	<path style="fill:none;stroke:red;stroke-width:1px;stroke-linecap:butt;stroke-linejoin:miter;stroke-opacity:1" d="M 887.096,6.0943 894.077,7.4905 z" id="boundary" inkscape:connector-curvature="0" />
	<path style="fill:none;stroke:red;stroke-width:1px;stroke-linecap:butt;stroke-linejoin:miter;stroke-opacity:1" d="M 894.077,7.4905 901.058,8.1886 z" id="boundary" inkscape:connector-curvature="0" />
	<path style="fill:none;stroke:red;stroke-width:1px;stroke-linecap:butt;stroke-linejoin:miter;stroke-opacity:1" d="M 901.058,8.1886 908.039,9.5848 z" id="boundary" inkscape:connector-curvature="0" />
	<path style="fill:none;stroke:red;stroke-width:1px;stroke-linecap:butt;stroke-linejoin:miter;stroke-opacity:1" d="M 908.039,9.5848 915.02,11.6791 z" id="boundary" inkscape:connector-curvature="0" />
	<path style="fill:none;stroke:red;stroke-width:1px;stroke-linecap:butt;stroke-linejoin:miter;stroke-opacity:1" d="M 922.001,13.7734 928.284,17.2639 z" id="boundary" inkscape:connector-curvature="0" />
	<path style="fill:none;stroke:red;stroke-width:1px;stroke-linecap:butt;stroke-linejoin:miter;stroke-opacity:1" d="M 915.02,11.6791 922.001,13.7734 z" id="boundary" inkscape:connector-curvature="0" />
	<path style="fill:none;stroke:red;stroke-width:1px;stroke-linecap:butt;stroke-linejoin:miter;stroke-opacity:1" d="M 935.265,19.3582 941.548,22.8487 z" id="boundary" inkscape:connector-curvature="0" />
	<path style="fill:none;stroke:red;stroke-width:1px;stroke-linecap:butt;stroke-linejoin:miter;stroke-opacity:1" d="M 928.284,17.2639 935.265,19.3582 z" id="boundary" inkscape:connector-curvature="0" />
	<path style="fill:none;stroke:red;stroke-width:1px;stroke-linecap:butt;stroke-linejoin:miter;stroke-opacity:1" d="M 948.529,25.6411 941.548,22.8487 z" id="boundary" inkscape:connector-curvature="0" />
	<path style="fill:none;stroke:red;stroke-width:1px;stroke-linecap:butt;stroke-linejoin:miter;stroke-opacity:1" d="M 948.529,25.6411 954.812,29.1316 z" id="boundary" inkscape:connector-curvature="0" />
	<path style="fill:none;stroke:red;stroke-width:1px;stroke-linecap:butt;stroke-linejoin:miter;stroke-opacity:1" d="M 965.284,38.905 969.472,44.4898 z" id="boundary" inkscape:connector-curvature="0" />
	<path style="fill:none;stroke:red;stroke-width:1px;stroke-linecap:butt;stroke-linejoin:miter;stroke-opacity:1" d="M 954.812,29.1316 960.397,33.3202 z" id="boundary" inkscape:connector-curvature="0" />
	<path style="fill:none;stroke:red;stroke-width:1px;stroke-linecap:butt;stroke-linejoin:miter;stroke-opacity:1" d="M 960.397,33.3202 965.284,38.905 z" id="boundary" inkscape:connector-curvature="0" />
	<path style="fill:none;stroke:red;stroke-width:1px;stroke-linecap:butt;stroke-linejoin:miter;stroke-opacity:1" d="M 969.472,44.4898 973.661,50.0746 z" id="boundary" inkscape:connector-curvature="0" />
	<path style="fill:none;stroke:red;stroke-width:1px;stroke-linecap:butt;stroke-linejoin:miter;stroke-opacity:1" d="M 973.661,50.0746 977.849,55.6594 z" id="boundary" inkscape:connector-curvature="0" />
	<path style="fill:none;stroke:red;stroke-width:1px;stroke-linecap:butt;stroke-linejoin:miter;stroke-opacity:1" d="M 977.849,55.6594 981.34,61.9423 z" id="boundary" inkscape:connector-curvature="0" />
	<path style="fill:none;stroke:red;stroke-width:1px;stroke-linecap:butt;stroke-linejoin:miter;stroke-opacity:1" d="M 981.34,61.9423 984.83,68.2252 z" id="boundary" inkscape:connector-curvature="0" />
	<path style="fill:none;stroke:red;stroke-width:1px;stroke-linecap:butt;stroke-linejoin:miter;stroke-opacity:1" d="M 984.83,68.2252 987.623,75.2062 z" id="boundary" inkscape:connector-curvature="0" />
	<path style="fill:none;stroke:red;stroke-width:1px;stroke-linecap:butt;stroke-linejoin:miter;stroke-opacity:1" d="M 991.811,89.1682 990.415,82.1872 z" id="boundary" inkscape:connector-curvature="0" />
	<path style="fill:none;stroke:red;stroke-width:1px;stroke-linecap:butt;stroke-linejoin:miter;stroke-opacity:1" d="M 993.906,96.1492 991.811,89.1682 z" id="boundary" inkscape:connector-curvature="0" />
	<path style="fill:none;stroke:red;stroke-width:1px;stroke-linecap:butt;stroke-linejoin:miter;stroke-opacity:1" d="M 994.604,110.111 993.906,103.13 z" id="boundary" inkscape:connector-curvature="0" />
	<path style="fill:none;stroke:red;stroke-width:1px;stroke-linecap:butt;stroke-linejoin:miter;stroke-opacity:1" d="M 993.906,103.13 993.906,96.1492 z" id="boundary" inkscape:connector-curvature="0" />
	<path style="fill:none;stroke:red;stroke-width:1px;stroke-linecap:butt;stroke-linejoin:miter;stroke-opacity:1" d="M 995.302,117.092 994.604,110.111 z" id="boundary" inkscape:connector-curvature="0" />
	<path style="fill:none;stroke:red;stroke-width:1px;stroke-linecap:butt;stroke-linejoin:miter;stroke-opacity:1" d="M 987.623,75.2062 990.415,82.1872 z" id="boundary" inkscape:connector-curvature="0" />
	<path style="fill:none;stroke:red;stroke-width:1px;stroke-linecap:butt;stroke-linejoin:miter;stroke-opacity:1" d="M 782.381,19.3582 789.362,16.5658 z" id="boundary" inkscape:connector-curvature="0" />
	<path style="fill:none;stroke:red;stroke-width:1px;stroke-linecap:butt;stroke-linejoin:miter;stroke-opacity:1" d="M 519.896,120.583 526.877,120.583 z" id="boundary" inkscape:connector-curvature="0" />
	<path style="fill:none;stroke:red;stroke-width:1px;stroke-linecap:butt;stroke-linejoin:miter;stroke-opacity:1" d="M 533.858,120.583 540.839,120.583 z" id="boundary" inkscape:connector-curvature="0" />
	<path style="fill:none;stroke:red;stroke-width:1px;stroke-linecap:butt;stroke-linejoin:miter;stroke-opacity:1" d="M 540.839,120.583 547.82,121.281 z" id="boundary" inkscape:connector-curvature="0" />
	<path style="fill:none;stroke:red;stroke-width:1px;stroke-linecap:butt;stroke-linejoin:miter;stroke-opacity:1" d="M 533.858,120.583 526.877,120.583 z" id="boundary" inkscape:connector-curvature="0" />
	<path style="fill:none;stroke:red;stroke-width:1px;stroke-linecap:butt;stroke-linejoin:miter;stroke-opacity:1" d="M 547.82,121.281 554.801,121.281 z" id="boundary" inkscape:connector-curvature="0" />
	<path style="fill:none;stroke:red;stroke-width:1px;stroke-linecap:butt;stroke-linejoin:miter;stroke-opacity:1" d="M 561.782,121.281 568.763,121.281 z" id="boundary" inkscape:connector-curvature="0" />
	<path style="fill:none;stroke:red;stroke-width:1px;stroke-linecap:butt;stroke-linejoin:miter;stroke-opacity:1" d="M 568.763,121.281 575.744,121.979 z" id="boundary" inkscape:connector-curvature="0" />
	<path style="fill:none;stroke:red;stroke-width:1px;stroke-linecap:butt;stroke-linejoin:miter;stroke-opacity:1" d="M 561.782,121.281 554.801,121.281 z" id="boundary" inkscape:connector-curvature="0" />
	<path style="fill:none;stroke:red;stroke-width:1px;stroke-linecap:butt;stroke-linejoin:miter;stroke-opacity:1" d="M 582.725,121.979 589.706,122.677 z" id="boundary" inkscape:connector-curvature="0" />
	<path style="fill:none;stroke:red;stroke-width:1px;stroke-linecap:butt;stroke-linejoin:miter;stroke-opacity:1" d="M 575.744,121.979 582.725,121.979 z" id="boundary" inkscape:connector-curvature="0" />
	<path style="fill:none;stroke:red;stroke-width:1px;stroke-linecap:butt;stroke-linejoin:miter;stroke-opacity:1" d="M 596.687,122.677 603.668,122.677 z" id="boundary" inkscape:connector-curvature="0" />
	<path style="fill:none;stroke:red;stroke-width:1px;stroke-linecap:butt;stroke-linejoin:miter;stroke-opacity:1" d="M 603.668,122.677 610.649,123.375 z" id="boundary" inkscape:connector-curvature="0" />
	<path style="fill:none;stroke:red;stroke-width:1px;stroke-linecap:butt;stroke-linejoin:miter;stroke-opacity:1" d="M 596.687,122.677 589.706,122.677 z" id="boundary" inkscape:connector-curvature="0" />
	<path style="fill:none;stroke:red;stroke-width:1px;stroke-linecap:butt;stroke-linejoin:miter;stroke-opacity:1" d="M 610.649,123.375 617.63,124.073 z" id="boundary" inkscape:connector-curvature="0" />
	<path style="fill:none;stroke:red;stroke-width:1px;stroke-linecap:butt;stroke-linejoin:miter;stroke-opacity:1" d="M 617.63,124.073 624.611,124.771 z" id="boundary" inkscape:connector-curvature="0" />
	<path style="fill:none;stroke:red;stroke-width:1px;stroke-linecap:butt;stroke-linejoin:miter;stroke-opacity:1" d="M 631.592,125.469 638.573,126.866 z" id="boundary" inkscape:connector-curvature="0" />
	<path style="fill:none;stroke:red;stroke-width:1px;stroke-linecap:butt;stroke-linejoin:miter;stroke-opacity:1" d="M 624.611,124.771 631.592,125.469 z" id="boundary" inkscape:connector-curvature="0" />
	<path style="fill:none;stroke:red;stroke-width:1px;stroke-linecap:butt;stroke-linejoin:miter;stroke-opacity:1" d="M 645.554,128.262 638.573,126.866 z" id="boundary" inkscape:connector-curvature="0" />
	<path style="fill:none;stroke:red;stroke-width:1px;stroke-linecap:butt;stroke-linejoin:miter;stroke-opacity:1" d="M 687.44,138.733 680.459,137.337 z" id="boundary" inkscape:connector-curvature="0" />
	<path style="fill:none;stroke:red;stroke-width:1px;stroke-linecap:butt;stroke-linejoin:miter;stroke-opacity:1" d="M 666.497,133.148 673.478,135.941 z" id="boundary" inkscape:connector-curvature="0" />
	<path style="fill:none;stroke:red;stroke-width:1px;stroke-linecap:butt;stroke-linejoin:miter;stroke-opacity:1" d="M 659.516,131.054 666.497,133.148 z" id="boundary" inkscape:connector-curvature="0" />
	<path style="fill:none;stroke:red;stroke-width:1px;stroke-linecap:butt;stroke-linejoin:miter;stroke-opacity:1" d="M 687.44,138.733 693.025,142.922 z" id="boundary" inkscape:connector-curvature="0" />
	<path style="fill:none;stroke:red;stroke-width:1px;stroke-linecap:butt;stroke-linejoin:miter;stroke-opacity:1" d="M 680.459,137.337 673.478,135.941 z" id="boundary" inkscape:connector-curvature="0" />
	<path style="fill:none;stroke:red;stroke-width:1px;stroke-linecap:butt;stroke-linejoin:miter;stroke-opacity:1" d="M 700.006,145.714 693.025,142.922 z" id="boundary" inkscape:connector-curvature="0" />
	<path style="fill:none;stroke:red;stroke-width:1px;stroke-linecap:butt;stroke-linejoin:miter;stroke-opacity:1" d="M 706.987,148.507 700.006,145.714 z" id="boundary" inkscape:connector-curvature="0" />
	<path style="fill:none;stroke:red;stroke-width:1px;stroke-linecap:butt;stroke-linejoin:miter;stroke-opacity:1" d="M 659.516,131.054 652.535,128.96 z" id="boundary" inkscape:connector-curvature="0" />
	<path style="fill:none;stroke:red;stroke-width:1px;stroke-linecap:butt;stroke-linejoin:miter;stroke-opacity:1" d="M 706.987,148.507 712.571,152.695 z" id="boundary" inkscape:connector-curvature="0" />
	<path style="fill:none;stroke:red;stroke-width:1px;stroke-linecap:butt;stroke-linejoin:miter;stroke-opacity:1" d="M 712.571,152.695 718.156,156.884 z" id="boundary" inkscape:connector-curvature="0" />
	<path style="fill:none;stroke:red;stroke-width:1px;stroke-linecap:butt;stroke-linejoin:miter;stroke-opacity:1" d="M 725.137,158.28 718.156,156.884 z" id="boundary" inkscape:connector-curvature="0" />
	<path style="fill:none;stroke:red;stroke-width:1px;stroke-linecap:butt;stroke-linejoin:miter;stroke-opacity:1" d="M 725.137,158.28 731.42,161.771 z" id="boundary" inkscape:connector-curvature="0" />
	<path style="fill:none;stroke:red;stroke-width:1px;stroke-linecap:butt;stroke-linejoin:miter;stroke-opacity:1" d="M 737.703,165.261 731.42,161.771 z" id="boundary" inkscape:connector-curvature="0" />
	<path style="fill:none;stroke:red;stroke-width:1px;stroke-linecap:butt;stroke-linejoin:miter;stroke-opacity:1" d="M 737.703,165.261 743.288,169.45 z" id="boundary" inkscape:connector-curvature="0" />
	<path style="fill:none;stroke:red;stroke-width:1px;stroke-linecap:butt;stroke-linejoin:miter;stroke-opacity:1" d="M 743.288,169.45 749.571,172.94 z" id="boundary" inkscape:connector-curvature="0" />
	<path style="fill:none;stroke:red;stroke-width:1px;stroke-linecap:butt;stroke-linejoin:miter;stroke-opacity:1" d="M 768.419,183.412 762.137,179.921 z" id="boundary" inkscape:connector-curvature="0" />
	<path style="fill:none;stroke:red;stroke-width:1px;stroke-linecap:butt;stroke-linejoin:miter;stroke-opacity:1" d="M 762.137,179.921 756.552,175.733 z" id="boundary" inkscape:connector-curvature="0" />
	<path style="fill:none;stroke:red;stroke-width:1px;stroke-linecap:butt;stroke-linejoin:miter;stroke-opacity:1" d="M 749.571,172.94 756.552,175.733 z" id="boundary" inkscape:connector-curvature="0" />
	<path style="fill:none;stroke:red;stroke-width:1px;stroke-linecap:butt;stroke-linejoin:miter;stroke-opacity:1" d="M 645.554,128.262 652.535,128.96 z" id="boundary" inkscape:connector-curvature="0" />
	<path style="fill:none;stroke:red;stroke-width:1px;stroke-linecap:butt;stroke-linejoin:miter;stroke-opacity:1" d="M 768.419,183.412 774.702,186.902 z" id="boundary" inkscape:connector-curvature="0" />
	<path style="fill:none;stroke:red;stroke-width:1px;stroke-linecap:butt;stroke-linejoin:miter;stroke-opacity:1" d="M 774.702,186.902 781.683,189.695 z" id="boundary" inkscape:connector-curvature="0" />
	<path style="fill:none;stroke:red;stroke-width:1px;stroke-linecap:butt;stroke-linejoin:miter;stroke-opacity:1" d="M 954.114,188.298 961.095,185.506 z" id="boundary" inkscape:connector-curvature="0" />
	<path style="fill:none;stroke:red;stroke-width:1px;stroke-linecap:butt;stroke-linejoin:miter;stroke-opacity:1" d="M 947.831,191.789 954.114,188.298 z" id="boundary" inkscape:connector-curvature="0" />
	<path style="fill:none;stroke:red;stroke-width:1px;stroke-linecap:butt;stroke-linejoin:miter;stroke-opacity:1" d="M 966.68,180.619 961.095,185.506 z" id="boundary" inkscape:connector-curvature="0" />
	<path style="fill:none;stroke:red;stroke-width:1px;stroke-linecap:butt;stroke-linejoin:miter;stroke-opacity:1" d="M 788.664,192.487 795.645,195.279 z" id="boundary" inkscape:connector-curvature="0" />
	<path style="fill:none;stroke:red;stroke-width:1px;stroke-linecap:butt;stroke-linejoin:miter;stroke-opacity:1" d="M 802.626,197.374 795.645,195.279 z" id="boundary" inkscape:connector-curvature="0" />
	<path style="fill:none;stroke:red;stroke-width:1px;stroke-linecap:butt;stroke-linejoin:miter;stroke-opacity:1" d="M 941.548,195.279 947.831,191.789 z" id="boundary" inkscape:connector-curvature="0" />
	<path style="fill:none;stroke:red;stroke-width:1px;stroke-linecap:butt;stroke-linejoin:miter;stroke-opacity:1" d="M 941.548,195.279 934.567,197.374 z" id="boundary" inkscape:connector-curvature="0" />
	<path style="fill:none;stroke:red;stroke-width:1px;stroke-linecap:butt;stroke-linejoin:miter;stroke-opacity:1" d="M 802.626,197.374 809.607,200.166 z" id="boundary" inkscape:connector-curvature="0" />
	<path style="fill:none;stroke:red;stroke-width:1px;stroke-linecap:butt;stroke-linejoin:miter;stroke-opacity:1" d="M 781.683,189.695 788.664,192.487 z" id="boundary" inkscape:connector-curvature="0" />
	<path style="fill:none;stroke:red;stroke-width:1px;stroke-linecap:butt;stroke-linejoin:miter;stroke-opacity:1" d="M 996,131.054 994.604,142.922 z" id="boundary" inkscape:connector-curvature="0" />
	<path style="fill:none;stroke:red;stroke-width:1px;stroke-linecap:butt;stroke-linejoin:miter;stroke-opacity:1" d="M 995.302,117.092 996,124.073 z" id="boundary" inkscape:connector-curvature="0" />
	<path style="fill:none;stroke:red;stroke-width:1px;stroke-linecap:butt;stroke-linejoin:miter;stroke-opacity:1" d="M 996,124.073 996,131.054 z" id="boundary" inkscape:connector-curvature="0" />
	<path style="fill:none;stroke:red;stroke-width:1px;stroke-linecap:butt;stroke-linejoin:miter;stroke-opacity:1" d="M 994.604,142.922 991.811,153.393 z" id="boundary" inkscape:connector-curvature="0" />
	<path style="fill:none;stroke:red;stroke-width:1px;stroke-linecap:butt;stroke-linejoin:miter;stroke-opacity:1" d="M 991.811,153.393 987.623,160.374 z" id="boundary" inkscape:connector-curvature="0" />
	<path style="fill:none;stroke:red;stroke-width:1px;stroke-linecap:butt;stroke-linejoin:miter;stroke-opacity:1" d="M 966.68,180.619 972.265,175.733 z" id="boundary" inkscape:connector-curvature="0" />
	<path style="fill:none;stroke:red;stroke-width:1px;stroke-linecap:butt;stroke-linejoin:miter;stroke-opacity:1" d="M 972.265,175.733 978.548,171.544 z" id="boundary" inkscape:connector-curvature="0" />
	<path style="fill:none;stroke:red;stroke-width:1px;stroke-linecap:butt;stroke-linejoin:miter;stroke-opacity:1" d="M 987.623,160.374 984.132,166.657 z" id="boundary" inkscape:connector-curvature="0" />
	<path style="fill:none;stroke:red;stroke-width:1px;stroke-linecap:butt;stroke-linejoin:miter;stroke-opacity:1" d="M 984.132,166.657 978.548,171.544 z" id="boundary" inkscape:connector-curvature="0" />
	<path style="fill:none;stroke:red;stroke-width:1px;stroke-linecap:butt;stroke-linejoin:miter;stroke-opacity:1" d="M 809.607,200.166 816.588,202.26 z" id="boundary" inkscape:connector-curvature="0" />
	<path style="fill:none;stroke:red;stroke-width:1px;stroke-linecap:butt;stroke-linejoin:miter;stroke-opacity:1" d="M 823.569,202.958 816.588,202.26 z" id="boundary" inkscape:connector-curvature="0" />
	<path style="fill:none;stroke:red;stroke-width:1px;stroke-linecap:butt;stroke-linejoin:miter;stroke-opacity:1" d="M 823.569,202.958 830.55,204.355 z" id="boundary" inkscape:connector-curvature="0" />
	<path style="fill:none;stroke:red;stroke-width:1px;stroke-linecap:butt;stroke-linejoin:miter;stroke-opacity:1" d="M 830.55,204.355 837.531,205.751 z" id="boundary" inkscape:connector-curvature="0" />
	<path style="fill:none;stroke:red;stroke-width:1px;stroke-linecap:butt;stroke-linejoin:miter;stroke-opacity:1" d="M 837.531,205.751 844.512,206.449 z" id="boundary" inkscape:connector-curvature="0" />
	<path style="fill:none;stroke:red;stroke-width:1px;stroke-linecap:butt;stroke-linejoin:miter;stroke-opacity:1" d="M 865.455,209.241 858.474,208.543 z" id="boundary" inkscape:connector-curvature="0" />
	<path style="fill:none;stroke:red;stroke-width:1px;stroke-linecap:butt;stroke-linejoin:miter;stroke-opacity:1" d="M 858.474,208.543 851.493,207.147 z" id="boundary" inkscape:connector-curvature="0" />
	<path style="fill:none;stroke:red;stroke-width:1px;stroke-linecap:butt;stroke-linejoin:miter;stroke-opacity:1" d="M 844.512,206.449 851.493,207.147 z" id="boundary" inkscape:connector-curvature="0" />
	<path style="fill:none;stroke:red;stroke-width:1px;stroke-linecap:butt;stroke-linejoin:miter;stroke-opacity:1" d="M 907.341,205.751 914.322,205.053 z" id="boundary" inkscape:connector-curvature="0" />
	<path style="fill:none;stroke:red;stroke-width:1px;stroke-linecap:butt;stroke-linejoin:miter;stroke-opacity:1" d="M 900.36,207.147 907.341,205.751 z" id="boundary" inkscape:connector-curvature="0" />
	<path style="fill:none;stroke:red;stroke-width:1px;stroke-linecap:butt;stroke-linejoin:miter;stroke-opacity:1" d="M 921.303,202.958 914.322,205.053 z" id="boundary" inkscape:connector-curvature="0" />
	<path style="fill:none;stroke:red;stroke-width:1px;stroke-linecap:butt;stroke-linejoin:miter;stroke-opacity:1" d="M 934.567,197.374 928.284,200.864 z" id="boundary" inkscape:connector-curvature="0" />
	<path style="fill:none;stroke:red;stroke-width:1px;stroke-linecap:butt;stroke-linejoin:miter;stroke-opacity:1" d="M 928.284,200.864 921.303,202.958 z" id="boundary" inkscape:connector-curvature="0" />
	<path style="fill:none;stroke:red;stroke-width:1px;stroke-linecap:butt;stroke-linejoin:miter;stroke-opacity:1" d="M 879.417,209.939 872.436,209.939 z" id="boundary" inkscape:connector-curvature="0" />
	<path style="fill:none;stroke:red;stroke-width:1px;stroke-linecap:butt;stroke-linejoin:miter;stroke-opacity:1" d="M 886.398,209.241 879.417,209.939 z" id="boundary" inkscape:connector-curvature="0" />
	<path style="fill:none;stroke:red;stroke-width:1px;stroke-linecap:butt;stroke-linejoin:miter;stroke-opacity:1" d="M 900.36,207.147 893.379,208.543 z" id="boundary" inkscape:connector-curvature="0" />
	<path style="fill:none;stroke:red;stroke-width:1px;stroke-linecap:butt;stroke-linejoin:miter;stroke-opacity:1" d="M 893.379,208.543 886.398,209.241 z" id="boundary" inkscape:connector-curvature="0" />
	<path style="fill:none;stroke:red;stroke-width:1px;stroke-linecap:butt;stroke-linejoin:miter;stroke-opacity:1" d="M 872.436,209.939 865.455,209.241 z" id="boundary" inkscape:connector-curvature="0" />
	<circle cx="4" cy="84.9796" r="4" fill="#0" id="circle0"/>
	<circle cx="4.6981" cy="91.9606" r="4" fill="#0" id="circle1"/>
	<circle cx="6.0943" cy="76.6024" r="4" fill="#0" id="circle2"/>
	<circle cx="6.7924" cy="98.9416" r="4" fill="#0" id="circle3"/>
	<circle cx="10.2829" cy="70.3195" r="4" fill="#0" id="circle4"/>
	<circle cx="13.7734" cy="99.6397" r="4" fill="#0" id="circle5"/>
	<circle cx="17.2639" cy="68.2252" r="4" fill="#0" id="circle6"/>
	<circle cx="20.7544" cy="98.9416" r="4" fill="#0" id="circle7"/>
	<circle cx="24.2449" cy="68.2252" r="4" fill="#0" id="circle8"/>
	<circle cx="27.7354" cy="99.6397" r="4" fill="#0" id="circle9"/>
	<circle cx="31.2259" cy="67.5271" r="4" fill="#0" id="circle10"/>
	<circle cx="34.7164" cy="101.734" r="4" fill="#0" id="circle11"/>
	<circle cx="38.2069" cy="67.5271" r="4" fill="#0" id="circle12"/>
	<circle cx="41.6974" cy="101.734" r="4" fill="#0" id="circle13"/>
	<circle cx="45.1879" cy="67.5271" r="4" fill="#0" id="circle14"/>
	<circle cx="48.6784" cy="101.036" r="4" fill="#0" id="circle15"/>
	<circle cx="52.1689" cy="66.829" r="4" fill="#0" id="circle16"/>
	<circle cx="55.6594" cy="101.036" r="4" fill="#0" id="circle17"/>
	<circle cx="59.1499" cy="66.829" r="4" fill="#0" id="circle18"/>
	<circle cx="62.6404" cy="100.338" r="4" fill="#0" id="circle19"/>
	<circle cx="66.1309" cy="66.829" r="4" fill="#0" id="circle20"/>
	<circle cx="69.6214" cy="99.6397" r="4" fill="#0" id="circle21"/>
	<circle cx="73.1119" cy="66.829" r="4" fill="#0" id="circle22"/>
	<circle cx="76.6024" cy="101.734" r="4" fill="#0" id="circle23"/>
	<circle cx="80.0929" cy="66.1309" r="4" fill="#0" id="circle24"/>
	<circle cx="83.5834" cy="103.13" r="4" fill="#0" id="circle25"/>
	<circle cx="87.0739" cy="66.829" r="4" fill="#0" id="circle26"/>
	<circle cx="90.5644" cy="103.13" r="4" fill="#0" id="circle27"/>
	<circle cx="94.0549" cy="66.1309" r="4" fill="#0" id="circle28"/>
	<circle cx="96.8473" cy="99.6397" r="4" fill="#0" id="circle29"/>
	<circle cx="101.036" cy="66.1309" r="4" fill="#0" id="circle30"/>
	<circle cx="103.828" cy="98.2435" r="4" fill="#0" id="circle31"/>
	<circle cx="108.017" cy="66.1309" r="4" fill="#0" id="circle32"/>
	<circle cx="110.809" cy="96.8473" r="4" fill="#0" id="circle33"/>
	<circle cx="114.998" cy="65.4328" r="4" fill="#0" id="circle34"/>
	<circle cx="117.79" cy="96.1492" r="4" fill="#0" id="circle35"/>
	<circle cx="121.979" cy="64.7347" r="4" fill="#0" id="circle36"/>
	<circle cx="124.771" cy="97.5454" r="4" fill="#0" id="circle37"/>
	<circle cx="128.96" cy="67.5271" r="4" fill="#0" id="circle38"/>
	<circle cx="131.752" cy="98.2435" r="4" fill="#0" id="circle39"/>
	<circle cx="135.941" cy="68.2252" r="4" fill="#0" id="circle40"/>
	<circle cx="138.733" cy="96.8473" r="4" fill="#0" id="circle41"/>
	<circle cx="142.922" cy="66.1309" r="4" fill="#0" id="circle42"/>
	<circle cx="145.714" cy="98.2435" r="4" fill="#0" id="circle43"/>
	<circle cx="149.903" cy="64.7347" r="4" fill="#0" id="circle44"/>
	<circle cx="152.695" cy="98.9416" r="4" fill="#0" id="circle45"/>
	<circle cx="156.884" cy="65.4328" r="4" fill="#0" id="circle46"/>
	<circle cx="159.676" cy="98.9416" r="4" fill="#0" id="circle47"/>
	<circle cx="163.865" cy="65.4328" r="4" fill="#0" id="circle48"/>
	<circle cx="166.657" cy="97.5454" r="4" fill="#0" id="circle49"/>
	<circle cx="170.846" cy="65.4328" r="4" fill="#0" id="circle50"/>
	<circle cx="173.638" cy="98.9416" r="4" fill="#0" id="circle51"/>
	<circle cx="177.827" cy="65.4328" r="4" fill="#0" id="circle52"/>
	<circle cx="180.619" cy="100.338" r="4" fill="#0" id="circle53"/>
	<circle cx="184.808" cy="66.1309" r="4" fill="#0" id="circle54"/>
	<circle cx="187.6" cy="101.734" r="4" fill="#0" id="circle55"/>
	<circle cx="191.789" cy="67.5271" r="4" fill="#0" id="circle56"/>
	<circle cx="194.581" cy="102.432" r="4" fill="#0" id="circle57"/>
	<circle cx="198.77" cy="67.5271" r="4" fill="#0" id="circle58"/>
	<circle cx="201.562" cy="103.13" r="4" fill="#0" id="circle59"/>
	<circle cx="205.751" cy="67.5271" r="4" fill="#0" id="circle60"/>
	<circle cx="208.543" cy="103.828" r="4" fill="#0" id="circle61"/>
	<circle cx="212.732" cy="69.6214" r="4" fill="#0" id="circle62"/>
	<circle cx="215.524" cy="104.526" r="4" fill="#0" id="circle63"/>
	<circle cx="219.713" cy="71.7157" r="4" fill="#0" id="circle64"/>
	<circle cx="222.505" cy="103.828" r="4" fill="#0" id="circle65"/>
	<circle cx="226.694" cy="68.9233" r="4" fill="#0" id="circle66"/>
	<circle cx="229.486" cy="103.13" r="4" fill="#0" id="circle67"/>
	<circle cx="233.675" cy="67.5271" r="4" fill="#0" id="circle68"/>
	<circle cx="236.467" cy="103.13" r="4" fill="#0" id="circle69"/>
	<circle cx="240.656" cy="68.9233" r="4" fill="#0" id="circle70"/>
	<circle cx="243.448" cy="101.036" r="4" fill="#0" id="circle71"/>
	<circle cx="247.637" cy="68.9233" r="4" fill="#0" id="circle72"/>
	<circle cx="249.033" cy="96.1492" r="4" fill="#0" id="circle73"/>
	<circle cx="254.618" cy="68.9233" r="4" fill="#0" id="circle74"/>
	<circle cx="255.316" cy="99.6397" r="4" fill="#0" id="circle75"/>
	<circle cx="261.599" cy="68.9233" r="4" fill="#0" id="circle76"/>
	<circle cx="262.297" cy="102.432" r="4" fill="#0" id="circle77"/>
	<circle cx="268.58" cy="69.6214" r="4" fill="#0" id="circle78"/>
	<circle cx="268.58" cy="105.923" r="4" fill="#0" id="circle79"/>
	<circle cx="275.561" cy="69.6214" r="4" fill="#0" id="circle80"/>
	<circle cx="275.561" cy="105.923" r="4" fill="#0" id="circle81"/>
	<circle cx="282.542" cy="69.6214" r="4" fill="#0" id="circle82"/>
	<circle cx="282.542" cy="105.923" r="4" fill="#0" id="circle83"/>
	<circle cx="289.523" cy="69.6214" r="4" fill="#0" id="circle84"/>
	<circle cx="289.523" cy="107.319" r="4" fill="#0" id="circle85"/>
	<circle cx="296.504" cy="70.3195" r="4" fill="#0" id="circle86"/>
	<circle cx="296.504" cy="108.715" r="4" fill="#0" id="circle87"/>
	<circle cx="303.485" cy="70.3195" r="4" fill="#0" id="circle88"/>
	<circle cx="303.485" cy="109.413" r="4" fill="#0" id="circle89"/>
	<circle cx="310.466" cy="71.0176" r="4" fill="#0" id="circle90"/>
	<circle cx="310.466" cy="108.017" r="4" fill="#0" id="circle91"/>
	<circle cx="317.447" cy="71.0176" r="4" fill="#0" id="circle92"/>
	<circle cx="317.447" cy="109.413" r="4" fill="#0" id="circle93"/>
	<circle cx="324.428" cy="71.0176" r="4" fill="#0" id="circle94"/>
	<circle cx="324.428" cy="111.507" r="4" fill="#0" id="circle95"/>
	<circle cx="331.409" cy="71.0176" r="4" fill="#0" id="circle96"/>
	<circle cx="331.409" cy="112.205" r="4" fill="#0" id="circle97"/>
	<circle cx="338.39" cy="71.7157" r="4" fill="#0" id="circle98"/>
	<circle cx="338.39" cy="112.904" r="4" fill="#0" id="circle99"/>
	<circle cx="345.371" cy="71.7157" r="4" fill="#0" id="circle100"/>
	<circle cx="345.371" cy="112.904" r="4" fill="#0" id="circle101"/>
	<circle cx="352.352" cy="71.7157" r="4" fill="#0" id="circle102"/>
	<circle cx="352.352" cy="113.602" r="4" fill="#0" id="circle103"/>
	<circle cx="359.333" cy="72.4138" r="4" fill="#0" id="circle104"/>
	<circle cx="359.333" cy="114.998" r="4" fill="#0" id="circle105"/>
	<circle cx="366.314" cy="72.4138" r="4" fill="#0" id="circle106"/>
	<circle cx="366.314" cy="114.3" r="4" fill="#0" id="circle107"/>
	<circle cx="373.295" cy="72.4138" r="4" fill="#0" id="circle108"/>
	<circle cx="373.295" cy="114.3" r="4" fill="#0" id="circle109"/>
	<circle cx="380.276" cy="73.1119" r="4" fill="#0" id="circle110"/>
	<circle cx="380.276" cy="114.998" r="4" fill="#0" id="circle111"/>
	<circle cx="387.257" cy="73.1119" r="4" fill="#0" id="circle112"/>
	<circle cx="387.257" cy="114.998" r="4" fill="#0" id="circle113"/>
	<circle cx="394.238" cy="73.1119" r="4" fill="#0" id="circle114"/>
	<circle cx="394.238" cy="114.998" r="4" fill="#0" id="circle115"/>
	<circle cx="401.219" cy="73.1119" r="4" fill="#0" id="circle116"/>
	<circle cx="401.219" cy="115.696" r="4" fill="#0" id="circle117"/>
	<circle cx="408.2" cy="73.1119" r="4" fill="#0" id="circle118"/>
	<circle cx="408.2" cy="116.394" r="4" fill="#0" id="circle119"/>
	<circle cx="415.181" cy="73.81" r="4" fill="#0" id="circle120"/>
	<circle cx="415.181" cy="116.394" r="4" fill="#0" id="circle121"/>
	<circle cx="422.162" cy="73.81" r="4" fill="#0" id="circle122"/>
	<circle cx="422.162" cy="117.092" r="4" fill="#0" id="circle123"/>
	<circle cx="429.143" cy="74.5081" r="4" fill="#0" id="circle124"/>
	<circle cx="429.143" cy="117.092" r="4" fill="#0" id="circle125"/>
	<circle cx="436.124" cy="74.5081" r="4" fill="#0" id="circle126"/>
	<circle cx="436.124" cy="117.092" r="4" fill="#0" id="circle127"/>
	<circle cx="443.105" cy="74.5081" r="4" fill="#0" id="circle128"/>
	<circle cx="443.105" cy="117.092" r="4" fill="#0" id="circle129"/>
	<circle cx="450.086" cy="75.2062" r="4" fill="#0" id="circle130"/>
	<circle cx="450.086" cy="117.092" r="4" fill="#0" id="circle131"/>
	<circle cx="457.067" cy="75.2062" r="4" fill="#0" id="circle132"/>
	<circle cx="457.067" cy="117.79" r="4" fill="#0" id="circle133"/>
	<circle cx="464.048" cy="75.9043" r="4" fill="#0" id="circle134"/>
	<circle cx="464.048" cy="118.488" r="4" fill="#0" id="circle135"/>
	<circle cx="471.029" cy="75.9043" r="4" fill="#0" id="circle136"/>
	<circle cx="471.029" cy="119.186" r="4" fill="#0" id="circle137"/>
	<circle cx="478.01" cy="75.9043" r="4" fill="#0" id="circle138"/>
	<circle cx="478.01" cy="119.186" r="4" fill="#0" id="circle139"/>
	<circle cx="484.991" cy="76.6024" r="4" fill="#0" id="circle140"/>
	<circle cx="484.991" cy="119.186" r="4" fill="#0" id="circle141"/>
	<circle cx="491.972" cy="76.6024" r="4" fill="#0" id="circle142"/>
	<circle cx="491.972" cy="119.186" r="4" fill="#0" id="circle143"/>
	<circle cx="498.953" cy="76.6024" r="4" fill="#0" id="circle144"/>
	<circle cx="498.953" cy="119.186" r="4" fill="#0" id="circle145"/>
	<circle cx="505.934" cy="76.6024" r="4" fill="#0" id="circle146"/>
	<circle cx="505.934" cy="119.885" r="4" fill="#0" id="circle147"/>
	<circle cx="512.915" cy="77.3005" r="4" fill="#0" id="circle148"/>
	<circle cx="512.915" cy="119.885" r="4" fill="#0" id="circle149"/>
	<circle cx="519.896" cy="77.3005" r="4" fill="#0" id="circle150"/>
	<circle cx="519.896" cy="120.583" r="4" fill="#0" id="circle151"/>
	<circle cx="526.877" cy="77.3005" r="4" fill="#0" id="circle152"/>
	<circle cx="526.877" cy="120.583" r="4" fill="#0" id="circle153"/>
	<circle cx="533.858" cy="77.3005" r="4" fill="#0" id="circle154"/>
	<circle cx="533.858" cy="120.583" r="4" fill="#0" id="circle155"/>
	<circle cx="540.839" cy="77.3005" r="4" fill="#0" id="circle156"/>
	<circle cx="540.839" cy="120.583" r="4" fill="#0" id="circle157"/>
	<circle cx="547.82" cy="77.9986" r="4" fill="#0" id="circle158"/>
	<circle cx="547.82" cy="121.281" r="4" fill="#0" id="circle159"/>
	<circle cx="554.801" cy="77.9986" r="4" fill="#0" id="circle160"/>
	<circle cx="554.801" cy="121.281" r="4" fill="#0" id="circle161"/>
	<circle cx="561.782" cy="77.9986" r="4" fill="#0" id="circle162"/>
	<circle cx="561.782" cy="121.281" r="4" fill="#0" id="circle163"/>
	<circle cx="568.763" cy="77.9986" r="4" fill="#0" id="circle164"/>
	<circle cx="568.763" cy="121.281" r="4" fill="#0" id="circle165"/>
	<circle cx="575.744" cy="78.6967" r="4" fill="#0" id="circle166"/>
	<circle cx="575.744" cy="121.979" r="4" fill="#0" id="circle167"/>
	<circle cx="582.725" cy="78.6967" r="4" fill="#0" id="circle168"/>
	<circle cx="582.725" cy="121.979" r="4" fill="#0" id="circle169"/>
	<circle cx="589.706" cy="78.6967" r="4" fill="#0" id="circle170"/>
	<circle cx="589.706" cy="122.677" r="4" fill="#0" id="circle171"/>
	<circle cx="596.687" cy="78.6967" r="4" fill="#0" id="circle172"/>
	<circle cx="596.687" cy="122.677" r="4" fill="#0" id="circle173"/>
	<circle cx="603.668" cy="78.6967" r="4" fill="#0" id="circle174"/>
	<circle cx="603.668" cy="122.677" r="4" fill="#0" id="circle175"/>
	<circle cx="610.649" cy="78.6967" r="4" fill="#0" id="circle176"/>
	<circle cx="610.649" cy="123.375" r="4" fill="#0" id="circle177"/>
	<circle cx="617.63" cy="78.6967" r="4" fill="#0" id="circle178"/>
	<circle cx="617.63" cy="124.073" r="4" fill="#0" id="circle179"/>
	<circle cx="624.611" cy="78.6967" r="4" fill="#0" id="circle180"/>
	<circle cx="624.611" cy="124.771" r="4" fill="#0" id="circle181"/>
	<circle cx="631.592" cy="77.9986" r="4" fill="#0" id="circle182"/>
	<circle cx="631.592" cy="125.469" r="4" fill="#0" id="circle183"/>
	<circle cx="638.573" cy="76.6024" r="4" fill="#0" id="circle184"/>
	<circle cx="638.573" cy="126.866" r="4" fill="#0" id="circle185"/>
	<circle cx="645.554" cy="75.9043" r="4" fill="#0" id="circle186"/>
	<circle cx="645.554" cy="128.262" r="4" fill="#0" id="circle187"/>
	<circle cx="652.535" cy="74.5081" r="4" fill="#0" id="circle188"/>
	<circle cx="652.535" cy="128.96" r="4" fill="#0" id="circle189"/>
	<circle cx="659.516" cy="73.1119" r="4" fill="#0" id="circle190"/>
	<circle cx="659.516" cy="131.054" r="4" fill="#0" id="circle191"/>
	<circle cx="666.497" cy="71.7157" r="4" fill="#0" id="circle192"/>
	<circle cx="666.497" cy="133.148" r="4" fill="#0" id="circle193"/>
	<circle cx="673.478" cy="69.6214" r="4" fill="#0" id="circle194"/>
	<circle cx="673.478" cy="135.941" r="4" fill="#0" id="circle195"/>
	<circle cx="680.459" cy="67.5271" r="4" fill="#0" id="circle196"/>
	<circle cx="680.459" cy="137.337" r="4" fill="#0" id="circle197"/>
	<circle cx="687.44" cy="65.4328" r="4" fill="#0" id="circle198"/>
	<circle cx="687.44" cy="138.733" r="4" fill="#0" id="circle199"/>
	<circle cx="693.025" cy="142.922" r="4" fill="#0" id="circle200"/>
	<circle cx="694.421" cy="62.6404" r="4" fill="#0" id="circle201"/>
	<circle cx="700.006" cy="145.714" r="4" fill="#0" id="circle202"/>
	<circle cx="701.402" cy="59.848" r="4" fill="#0" id="circle203"/>
	<circle cx="706.987" cy="148.507" r="4" fill="#0" id="circle204"/>
	<circle cx="708.383" cy="56.3575" r="4" fill="#0" id="circle205"/>
	<circle cx="712.571" cy="152.695" r="4" fill="#0" id="circle206"/>
	<circle cx="715.364" cy="52.867" r="4" fill="#0" id="circle207"/>
	<circle cx="718.156" cy="156.884" r="4" fill="#0" id="circle208"/>
	<circle cx="722.345" cy="49.3765" r="4" fill="#0" id="circle209"/>
	<circle cx="725.137" cy="158.28" r="4" fill="#0" id="circle210"/>
	<circle cx="729.326" cy="46.5841" r="4" fill="#0" id="circle211"/>
	<circle cx="731.42" cy="161.771" r="4" fill="#0" id="circle212"/>
	<circle cx="736.307" cy="43.0936" r="4" fill="#0" id="circle213"/>
	<circle cx="737.703" cy="165.261" r="4" fill="#0" id="circle214"/>
	<circle cx="742.59" cy="39.6031" r="4" fill="#0" id="circle215"/>
	<circle cx="743.288" cy="169.45" r="4" fill="#0" id="circle216"/>
	<circle cx="748.873" cy="36.1126" r="4" fill="#0" id="circle217"/>
	<circle cx="749.571" cy="172.94" r="4" fill="#0" id="circle218"/>
	<circle cx="755.156" cy="32.6221" r="4" fill="#0" id="circle219"/>
	<circle cx="756.552" cy="175.733" r="4" fill="#0" id="circle220"/>
	<circle cx="762.137" cy="29.1316" r="4" fill="#0" id="circle221"/>
	<circle cx="762.137" cy="179.921" r="4" fill="#0" id="circle222"/>
	<circle cx="768.419" cy="25.6411" r="4" fill="#0" id="circle223"/>
	<circle cx="768.419" cy="183.412" r="4" fill="#0" id="circle224"/>
	<circle cx="774.702" cy="186.902" r="4" fill="#0" id="circle225"/>
	<circle cx="775.4" cy="22.1506" r="4" fill="#0" id="circle226"/>
	<circle cx="781.683" cy="189.695" r="4" fill="#0" id="circle227"/>
	<circle cx="782.381" cy="19.3582" r="4" fill="#0" id="circle228"/>
	<circle cx="788.664" cy="192.487" r="4" fill="#0" id="circle229"/>
	<circle cx="789.362" cy="16.5658" r="4" fill="#0" id="circle230"/>
	<circle cx="795.645" cy="195.279" r="4" fill="#0" id="circle231"/>
	<circle cx="796.343" cy="13.7734" r="4" fill="#0" id="circle232"/>
	<circle cx="802.626" cy="197.374" r="4" fill="#0" id="circle233"/>
	<circle cx="803.324" cy="10.981" r="4" fill="#0" id="circle234"/>
	<circle cx="809.607" cy="200.166" r="4" fill="#0" id="circle235"/>
	<circle cx="810.305" cy="9.5848" r="4" fill="#0" id="circle236"/>
	<circle cx="816.588" cy="202.26" r="4" fill="#0" id="circle237"/>
	<circle cx="817.286" cy="7.4905" r="4" fill="#0" id="circle238"/>
	<circle cx="823.569" cy="202.958" r="4" fill="#0" id="circle239"/>
	<circle cx="824.267" cy="6.7924" r="4" fill="#0" id="circle240"/>
	<circle cx="830.55" cy="204.355" r="4" fill="#0" id="circle241"/>
	<circle cx="831.248" cy="5.3962" r="4" fill="#0" id="circle242"/>
	<circle cx="837.531" cy="205.751" r="4" fill="#0" id="circle243"/>
	<circle cx="838.229" cy="4.6981" r="4" fill="#0" id="circle244"/>
	<circle cx="844.512" cy="206.449" r="4" fill="#0" id="circle245"/>
	<circle cx="845.21" cy="4.6981" r="4" fill="#0" id="circle246"/>
	<circle cx="851.493" cy="207.147" r="4" fill="#0" id="circle247"/>
	<circle cx="852.191" cy="4" r="4" fill="#0" id="circle248"/>
	<circle cx="858.474" cy="208.543" r="4" fill="#0" id="circle249"/>
	<circle cx="859.172" cy="4" r="4" fill="#0" id="circle250"/>
	<circle cx="865.455" cy="209.241" r="4" fill="#0" id="circle251"/>
	<circle cx="866.153" cy="4" r="4" fill="#0" id="circle252"/>
	<circle cx="872.436" cy="209.939" r="4" fill="#0" id="circle253"/>
	<circle cx="873.134" cy="4.6981" r="4" fill="#0" id="circle254"/>
	<circle cx="879.417" cy="209.939" r="4" fill="#0" id="circle255"/>
	<circle cx="880.115" cy="5.3962" r="4" fill="#0" id="circle256"/>
	<circle cx="886.398" cy="209.241" r="4" fill="#0" id="circle257"/>
	<circle cx="887.096" cy="6.0943" r="4" fill="#0" id="circle258"/>
	<circle cx="893.379" cy="208.543" r="4" fill="#0" id="circle259"/>
	<circle cx="894.077" cy="7.4905" r="4" fill="#0" id="circle260"/>
	<circle cx="900.36" cy="207.147" r="4" fill="#0" id="circle261"/>
	<circle cx="901.058" cy="8.1886" r="4" fill="#0" id="circle262"/>
	<circle cx="907.341" cy="205.751" r="4" fill="#0" id="circle263"/>
	<circle cx="908.039" cy="9.5848" r="4" fill="#0" id="circle264"/>
	<circle cx="914.322" cy="205.053" r="4" fill="#0" id="circle265"/>
	<circle cx="915.02" cy="11.6791" r="4" fill="#0" id="circle266"/>
	<circle cx="921.303" cy="202.958" r="4" fill="#0" id="circle267"/>
	<circle cx="922.001" cy="13.7734" r="4" fill="#0" id="circle268"/>
	<circle cx="928.284" cy="17.2639" r="4" fill="#0" id="circle269"/>
	<circle cx="928.284" cy="200.864" r="4" fill="#0" id="circle270"/>
	<circle cx="934.567" cy="197.374" r="4" fill="#0" id="circle271"/>
	<circle cx="935.265" cy="19.3582" r="4" fill="#0" id="circle272"/>
	<circle cx="941.548" cy="22.8487" r="4" fill="#0" id="circle273"/>
	<circle cx="941.548" cy="195.279" r="4" fill="#0" id="circle274"/>
	<circle cx="947.831" cy="191.789" r="4" fill="#0" id="circle275"/>
	<circle cx="948.529" cy="25.6411" r="4" fill="#0" id="circle276"/>
	<circle cx="954.114" cy="188.298" r="4" fill="#0" id="circle277"/>
	<circle cx="954.812" cy="29.1316" r="4" fill="#0" id="circle278"/>
	<circle cx="960.397" cy="33.3202" r="4" fill="#0" id="circle279"/>
	<circle cx="961.095" cy="185.506" r="4" fill="#0" id="circle280"/>
	<circle cx="965.284" cy="38.905" r="4" fill="#0" id="circle281"/>
	<circle cx="966.68" cy="180.619" r="4" fill="#0" id="circle282"/>
	<circle cx="969.472" cy="44.4898" r="4" fill="#0" id="circle283"/>
	<circle cx="972.265" cy="175.733" r="4" fill="#0" id="circle284"/>
	<circle cx="973.661" cy="50.0746" r="4" fill="#0" id="circle285"/>
	<circle cx="977.849" cy="55.6594" r="4" fill="#0" id="circle286"/>
	<circle cx="978.548" cy="171.544" r="4" fill="#0" id="circle287"/>
	<circle cx="981.34" cy="61.9423" r="4" fill="#0" id="circle288"/>
	<circle cx="984.132" cy="166.657" r="4" fill="#0" id="circle289"/>
	<circle cx="984.83" cy="68.2252" r="4" fill="#0" id="circle290"/>
	<circle cx="987.623" cy="75.2062" r="4" fill="#0" id="circle291"/>
	<circle cx="987.623" cy="160.374" r="4" fill="#0" id="circle292"/>
	<circle cx="990.415" cy="82.1872" r="4" fill="#0" id="circle293"/>
	<circle cx="991.811" cy="89.1682" r="4" fill="#0" id="circle294"/>
	<circle cx="991.811" cy="153.393" r="4" fill="#0" id="circle295"/>
	<circle cx="993.906" cy="96.1492" r="4" fill="#0" id="circle296"/>
	<circle cx="993.906" cy="103.13" r="4" fill="#0" id="circle297"/>
	<circle cx="994.604" cy="110.111" r="4" fill="#0" id="circle298"/>
	<circle cx="994.604" cy="142.922" r="4" fill="#0" id="circle299"/>
	<circle cx="995.302" cy="117.092" r="4" fill="#0" id="circle300"/>
	<circle cx="996" cy="124.073" r="4" fill="#0" id="circle301"/>
	<circle cx="996" cy="131.054" r="4" fill="#0" id="circle302"/>
	</g>
</svg>