<?xml version="1.0" encoding="UTF-8" standalone="no"?>
<!-- Created with CurveBenchmark -->
<svg
	xmlns:dc="http://purl.org/dc/elements/1.1/"
	xmlns:cc="http://creativecommons.org/ns#"
	xmlns:rdf="http://www.w3.org/1999/02/22-rdf-syntax-ns#"
	xmlns:svg="http://www.w3.org/2000/svg"
	xmlns="http://www.w3.org/2000/svg"
	xmlns:sodipodi="http://sodipodi.sourceforge.net/DTD/sodipodi-0.dtd"
	xmlns:inkscape="http://www.inkscape.org/namespaces/inkscape"
	width="1000"
	height="1000"
	id="svg2"
	version="1.1"
	sodipodi:docname="manifold/gathan1-car-04.png.txt">
<defs
	id="defs4" />
<metadata
	id="metadata7">
	<rdf:RDF>
		<cc:Work
			rdf:about="">
			<dc:format>image/svg+xml</dc:format>
			<dc:type
				rdf:resource="http://purl.org/dc/dcmitype/StillImage" />
			<dc:title></dc:title>
		</cc:Work>
	</rdf:RDF>
</metadata>
<g
	inkscape:label="Layer 1"
	inkscape:groupmode="layer"
	id="layer1">
	<path style="fill:none;stroke:red;stroke-width:1px;stroke-linecap:butt;stroke-linejoin:miter;stroke-opacity:1" d="M 77.4383,184.682 87.9295,178.853 z" id="boundary" inkscape:connector-curvature="0" />
	<path style="fill:none;stroke:red;stroke-width:1px;stroke-linecap:butt;stroke-linejoin:miter;stroke-opacity:1" d="M 122.9,173.025 111.243,173.025 z" id="boundary" inkscape:connector-curvature="0" />
	<path style="fill:none;stroke:red;stroke-width:1px;stroke-linecap:butt;stroke-linejoin:miter;stroke-opacity:1" d="M 134.557,173.025 122.9,173.025 z" id="boundary" inkscape:connector-curvature="0" />
	<path style="fill:none;stroke:red;stroke-width:1px;stroke-linecap:butt;stroke-linejoin:miter;stroke-opacity:1" d="M 99.5864,174.19 111.243,173.025 z" id="boundary" inkscape:connector-curvature="0" />
	<path style="fill:none;stroke:red;stroke-width:1px;stroke-linecap:butt;stroke-linejoin:miter;stroke-opacity:1" d="M 87.9295,178.853 99.5864,174.19 z" id="boundary" inkscape:connector-curvature="0" />
	<path style="fill:none;stroke:red;stroke-width:1px;stroke-linecap:butt;stroke-linejoin:miter;stroke-opacity:1" d="M 157.871,168.362 146.214,173.025 z" id="boundary" inkscape:connector-curvature="0" />
	<path style="fill:none;stroke:red;stroke-width:1px;stroke-linecap:butt;stroke-linejoin:miter;stroke-opacity:1" d="M 146.214,173.025 134.557,173.025 z" id="boundary" inkscape:connector-curvature="0" />
	<path style="fill:none;stroke:red;stroke-width:1px;stroke-linecap:butt;stroke-linejoin:miter;stroke-opacity:1" d="M 204.498,161.368 216.155,161.368 z" id="boundary" inkscape:connector-curvature="0" />
	<path style="fill:none;stroke:red;stroke-width:1px;stroke-linecap:butt;stroke-linejoin:miter;stroke-opacity:1" d="M 227.812,161.368 216.155,161.368 z" id="boundary" inkscape:connector-curvature="0" />
	<path style="fill:none;stroke:red;stroke-width:1px;stroke-linecap:butt;stroke-linejoin:miter;stroke-opacity:1" d="M 169.528,167.196 181.184,167.196 z" id="boundary" inkscape:connector-curvature="0" />
	<path style="fill:none;stroke:red;stroke-width:1px;stroke-linecap:butt;stroke-linejoin:miter;stroke-opacity:1" d="M 169.528,167.196 157.871,168.362 z" id="boundary" inkscape:connector-curvature="0" />
	<path style="fill:none;stroke:red;stroke-width:1px;stroke-linecap:butt;stroke-linejoin:miter;stroke-opacity:1" d="M 181.184,167.196 192.841,162.533 z" id="boundary" inkscape:connector-curvature="0" />
	<path style="fill:none;stroke:red;stroke-width:1px;stroke-linecap:butt;stroke-linejoin:miter;stroke-opacity:1" d="M 192.841,162.533 204.498,161.368 z" id="boundary" inkscape:connector-curvature="0" />
	<path style="fill:none;stroke:red;stroke-width:1px;stroke-linecap:butt;stroke-linejoin:miter;stroke-opacity:1" d="M 4,246.463 9.82844,234.806 z" id="boundary" inkscape:connector-curvature="0" />
	<path style="fill:none;stroke:red;stroke-width:1px;stroke-linecap:butt;stroke-linejoin:miter;stroke-opacity:1" d="M 31.9765,279.102 21.4853,273.274 z" id="boundary" inkscape:connector-curvature="0" />
	<path style="fill:none;stroke:red;stroke-width:1px;stroke-linecap:butt;stroke-linejoin:miter;stroke-opacity:1" d="M 21.4853,273.274 9.82844,268.611 z" id="boundary" inkscape:connector-curvature="0" />
	<path style="fill:none;stroke:red;stroke-width:1px;stroke-linecap:butt;stroke-linejoin:miter;stroke-opacity:1" d="M 9.82844,268.611 4,258.12 z" id="boundary" inkscape:connector-curvature="0" />
	<path style="fill:none;stroke:red;stroke-width:1px;stroke-linecap:butt;stroke-linejoin:miter;stroke-opacity:1" d="M 4,258.12 4,246.463 z" id="boundary" inkscape:connector-curvature="0" />
	<path style="fill:none;stroke:red;stroke-width:1px;stroke-linecap:butt;stroke-linejoin:miter;stroke-opacity:1" d="M 9.82844,234.806 15.6569,223.149 z" id="boundary" inkscape:connector-curvature="0" />
	<path style="fill:none;stroke:red;stroke-width:1px;stroke-linecap:butt;stroke-linejoin:miter;stroke-opacity:1" d="M 54.1246,190.51 65.7814,184.682 z" id="boundary" inkscape:connector-curvature="0" />
	<path style="fill:none;stroke:red;stroke-width:1px;stroke-linecap:butt;stroke-linejoin:miter;stroke-opacity:1" d="M 65.7814,184.682 77.4383,184.682 z" id="boundary" inkscape:connector-curvature="0" />
	<path style="fill:none;stroke:red;stroke-width:1px;stroke-linecap:butt;stroke-linejoin:miter;stroke-opacity:1" d="M 15.6569,223.149 24.9824,213.824 z" id="boundary" inkscape:connector-curvature="0" />
	<path style="fill:none;stroke:red;stroke-width:1px;stroke-linecap:butt;stroke-linejoin:miter;stroke-opacity:1" d="M 24.9824,213.824 34.3079,204.498 z" id="boundary" inkscape:connector-curvature="0" />
	<path style="fill:none;stroke:red;stroke-width:1px;stroke-linecap:butt;stroke-linejoin:miter;stroke-opacity:1" d="M 34.3079,204.498 43.6334,196.338 z" id="boundary" inkscape:connector-curvature="0" />
	<path style="fill:none;stroke:red;stroke-width:1px;stroke-linecap:butt;stroke-linejoin:miter;stroke-opacity:1" d="M 43.6334,196.338 54.1246,190.51 z" id="boundary" inkscape:connector-curvature="0" />
	<path style="fill:none;stroke:red;stroke-width:1px;stroke-linecap:butt;stroke-linejoin:miter;stroke-opacity:1" d="M 38.9706,288.428 31.9765,279.102 z" id="boundary" inkscape:connector-curvature="0" />
	<path style="fill:none;stroke:red;stroke-width:1px;stroke-linecap:butt;stroke-linejoin:miter;stroke-opacity:1" d="M 499.417,19.1539 487.76,24.9824 z" id="boundary" inkscape:connector-curvature="0" />
	<path style="fill:none;stroke:red;stroke-width:1px;stroke-linecap:butt;stroke-linejoin:miter;stroke-opacity:1" d="M 446.961,71.6099 441.133,83.2667 z" id="boundary" inkscape:connector-curvature="0" />
	<path style="fill:none;stroke:red;stroke-width:1px;stroke-linecap:butt;stroke-linejoin:miter;stroke-opacity:1" d="M 393.34,98.4207 381.683,97.255 z" id="boundary" inkscape:connector-curvature="0" />
	<path style="fill:none;stroke:red;stroke-width:1px;stroke-linecap:butt;stroke-linejoin:miter;stroke-opacity:1" d="M 403.831,104.249 393.34,98.4207 z" id="boundary" inkscape:connector-curvature="0" />
	<path style="fill:none;stroke:red;stroke-width:1px;stroke-linecap:butt;stroke-linejoin:miter;stroke-opacity:1" d="M 371.192,103.083 381.683,97.255 z" id="boundary" inkscape:connector-curvature="0" />
	<path style="fill:none;stroke:red;stroke-width:1px;stroke-linecap:butt;stroke-linejoin:miter;stroke-opacity:1" d="M 359.535,106.58 371.192,103.083 z" id="boundary" inkscape:connector-curvature="0" />
	<path style="fill:none;stroke:red;stroke-width:1px;stroke-linecap:butt;stroke-linejoin:miter;stroke-opacity:1" d="M 403.831,104.249 415.488,108.912 z" id="boundary" inkscape:connector-curvature="0" />
	<path style="fill:none;stroke:red;stroke-width:1px;stroke-linecap:butt;stroke-linejoin:miter;stroke-opacity:1" d="M 464.447,36.6392 476.103,30.8108 z" id="boundary" inkscape:connector-curvature="0" />
	<path style="fill:none;stroke:red;stroke-width:1px;stroke-linecap:butt;stroke-linejoin:miter;stroke-opacity:1" d="M 458.618,48.2961 464.447,36.6392 z" id="boundary" inkscape:connector-curvature="0" />
	<path style="fill:none;stroke:red;stroke-width:1px;stroke-linecap:butt;stroke-linejoin:miter;stroke-opacity:1" d="M 487.76,24.9824 476.103,30.8108 z" id="boundary" inkscape:connector-curvature="0" />
	<path style="fill:none;stroke:red;stroke-width:1px;stroke-linecap:butt;stroke-linejoin:miter;stroke-opacity:1" d="M 446.961,71.6099 452.79,59.953 z" id="boundary" inkscape:connector-curvature="0" />
	<path style="fill:none;stroke:red;stroke-width:1px;stroke-linecap:butt;stroke-linejoin:miter;stroke-opacity:1" d="M 441.133,94.9236 441.133,83.2667 z" id="boundary" inkscape:connector-curvature="0" />
	<path style="fill:none;stroke:red;stroke-width:1px;stroke-linecap:butt;stroke-linejoin:miter;stroke-opacity:1" d="M 452.79,59.953 458.618,48.2961 z" id="boundary" inkscape:connector-curvature="0" />
	<path style="fill:none;stroke:red;stroke-width:1px;stroke-linecap:butt;stroke-linejoin:miter;stroke-opacity:1" d="M 438.801,108.912 441.133,94.9236 z" id="boundary" inkscape:connector-curvature="0" />
	<path style="fill:none;stroke:red;stroke-width:1px;stroke-linecap:butt;stroke-linejoin:miter;stroke-opacity:1" d="M 281.434,138.054 291.925,132.226 z" id="boundary" inkscape:connector-curvature="0" />
	<path style="fill:none;stroke:red;stroke-width:1px;stroke-linecap:butt;stroke-linejoin:miter;stroke-opacity:1" d="M 291.925,132.226 303.582,132.226 z" id="boundary" inkscape:connector-curvature="0" />
	<path style="fill:none;stroke:red;stroke-width:1px;stroke-linecap:butt;stroke-linejoin:miter;stroke-opacity:1" d="M 272.108,147.38 281.434,138.054 z" id="boundary" inkscape:connector-curvature="0" />
	<path style="fill:none;stroke:red;stroke-width:1px;stroke-linecap:butt;stroke-linejoin:miter;stroke-opacity:1" d="M 227.812,161.368 239.469,161.368 z" id="boundary" inkscape:connector-curvature="0" />
	<path style="fill:none;stroke:red;stroke-width:1px;stroke-linecap:butt;stroke-linejoin:miter;stroke-opacity:1" d="M 251.126,161.368 239.469,161.368 z" id="boundary" inkscape:connector-curvature="0" />
	<path style="fill:none;stroke:red;stroke-width:1px;stroke-linecap:butt;stroke-linejoin:miter;stroke-opacity:1" d="M 262.783,161.368 272.108,147.38 z" id="boundary" inkscape:connector-curvature="0" />
	<path style="fill:none;stroke:red;stroke-width:1px;stroke-linecap:butt;stroke-linejoin:miter;stroke-opacity:1" d="M 262.783,161.368 251.126,161.368 z" id="boundary" inkscape:connector-curvature="0" />
	<path style="fill:none;stroke:red;stroke-width:1px;stroke-linecap:butt;stroke-linejoin:miter;stroke-opacity:1" d="M 303.582,132.226 315.239,132.226 z" id="boundary" inkscape:connector-curvature="0" />
	<path style="fill:none;stroke:red;stroke-width:1px;stroke-linecap:butt;stroke-linejoin:miter;stroke-opacity:1" d="M 427.145,108.912 415.488,108.912 z" id="boundary" inkscape:connector-curvature="0" />
	<path style="fill:none;stroke:red;stroke-width:1px;stroke-linecap:butt;stroke-linejoin:miter;stroke-opacity:1" d="M 438.801,108.912 427.145,108.912 z" id="boundary" inkscape:connector-curvature="0" />
	<path style="fill:none;stroke:red;stroke-width:1px;stroke-linecap:butt;stroke-linejoin:miter;stroke-opacity:1" d="M 315.239,132.226 326.895,127.563 z" id="boundary" inkscape:connector-curvature="0" />
	<path style="fill:none;stroke:red;stroke-width:1px;stroke-linecap:butt;stroke-linejoin:miter;stroke-opacity:1" d="M 336.221,118.237 326.895,127.563 z" id="boundary" inkscape:connector-curvature="0" />
	<path style="fill:none;stroke:red;stroke-width:1px;stroke-linecap:butt;stroke-linejoin:miter;stroke-opacity:1" d="M 336.221,118.237 347.878,112.409 z" id="boundary" inkscape:connector-curvature="0" />
	<path style="fill:none;stroke:red;stroke-width:1px;stroke-linecap:butt;stroke-linejoin:miter;stroke-opacity:1" d="M 347.878,112.409 359.535,106.58 z" id="boundary" inkscape:connector-curvature="0" />
	<path style="fill:none;stroke:red;stroke-width:1px;stroke-linecap:butt;stroke-linejoin:miter;stroke-opacity:1" d="M 38.9706,288.428 44.7991,298.919 z" id="boundary" inkscape:connector-curvature="0" />
	<path style="fill:none;stroke:red;stroke-width:1px;stroke-linecap:butt;stroke-linejoin:miter;stroke-opacity:1" d="M 44.7991,298.919 44.7991,310.576 z" id="boundary" inkscape:connector-curvature="0" />
	<path style="fill:none;stroke:red;stroke-width:1px;stroke-linecap:butt;stroke-linejoin:miter;stroke-opacity:1" d="M 168.362,424.813 156.705,424.813 z" id="boundary" inkscape:connector-curvature="0" />
	<path style="fill:none;stroke:red;stroke-width:1px;stroke-linecap:butt;stroke-linejoin:miter;stroke-opacity:1" d="M 44.7991,310.576 38.9706,328.061 z" id="boundary" inkscape:connector-curvature="0" />
	<path style="fill:none;stroke:red;stroke-width:1px;stroke-linecap:butt;stroke-linejoin:miter;stroke-opacity:1" d="M 38.9706,328.061 44.7991,338.552 z" id="boundary" inkscape:connector-curvature="0" />
	<path style="fill:none;stroke:red;stroke-width:1px;stroke-linecap:butt;stroke-linejoin:miter;stroke-opacity:1" d="M 44.7991,338.552 44.7991,350.209 z" id="boundary" inkscape:connector-curvature="0" />
	<path style="fill:none;stroke:red;stroke-width:1px;stroke-linecap:butt;stroke-linejoin:miter;stroke-opacity:1" d="M 44.7991,350.209 44.7991,361.866 z" id="boundary" inkscape:connector-curvature="0" />
	<path style="fill:none;stroke:red;stroke-width:1px;stroke-linecap:butt;stroke-linejoin:miter;stroke-opacity:1" d="M 44.7991,361.866 44.7991,373.523 z" id="boundary" inkscape:connector-curvature="0" />
	<path style="fill:none;stroke:red;stroke-width:1px;stroke-linecap:butt;stroke-linejoin:miter;stroke-opacity:1" d="M 44.7991,385.18 44.7991,373.523 z" id="boundary" inkscape:connector-curvature="0" />
	<path style="fill:none;stroke:red;stroke-width:1px;stroke-linecap:butt;stroke-linejoin:miter;stroke-opacity:1" d="M 50.6275,395.671 44.7991,385.18 z" id="boundary" inkscape:connector-curvature="0" />
	<path style="fill:none;stroke:red;stroke-width:1px;stroke-linecap:butt;stroke-linejoin:miter;stroke-opacity:1" d="M 50.6275,395.671 50.6275,407.328 z" id="boundary" inkscape:connector-curvature="0" />
	<path style="fill:none;stroke:red;stroke-width:1px;stroke-linecap:butt;stroke-linejoin:miter;stroke-opacity:1" d="M 56.4559,429.476 50.6275,418.985 z" id="boundary" inkscape:connector-curvature="0" />
	<path style="fill:none;stroke:red;stroke-width:1px;stroke-linecap:butt;stroke-linejoin:miter;stroke-opacity:1" d="M 50.6275,418.985 50.6275,407.328 z" id="boundary" inkscape:connector-curvature="0" />
	<path style="fill:none;stroke:red;stroke-width:1px;stroke-linecap:butt;stroke-linejoin:miter;stroke-opacity:1" d="M 191.676,424.813 180.019,424.813 z" id="boundary" inkscape:connector-curvature="0" />
	<path style="fill:none;stroke:red;stroke-width:1px;stroke-linecap:butt;stroke-linejoin:miter;stroke-opacity:1" d="M 56.4559,429.476 63.4501,438.801 z" id="boundary" inkscape:connector-curvature="0" />
	<path style="fill:none;stroke:red;stroke-width:1px;stroke-linecap:butt;stroke-linejoin:miter;stroke-opacity:1" d="M 63.4501,438.801 68.1128,450.458 z" id="boundary" inkscape:connector-curvature="0" />
	<path style="fill:none;stroke:red;stroke-width:1px;stroke-linecap:butt;stroke-linejoin:miter;stroke-opacity:1" d="M 77.4383,458.618 68.1128,450.458 z" id="boundary" inkscape:connector-curvature="0" />
	<path style="fill:none;stroke:red;stroke-width:1px;stroke-linecap:butt;stroke-linejoin:miter;stroke-opacity:1" d="M 87.9295,464.447 77.4383,458.618 z" id="boundary" inkscape:connector-curvature="0" />
	<path style="fill:none;stroke:red;stroke-width:1px;stroke-linecap:butt;stroke-linejoin:miter;stroke-opacity:1" d="M 99.5864,465.612 87.9295,464.447 z" id="boundary" inkscape:connector-curvature="0" />
	<path style="fill:none;stroke:red;stroke-width:1px;stroke-linecap:butt;stroke-linejoin:miter;stroke-opacity:1" d="M 99.5864,465.612 111.243,465.612 z" id="boundary" inkscape:connector-curvature="0" />
	<path style="fill:none;stroke:red;stroke-width:1px;stroke-linecap:butt;stroke-linejoin:miter;stroke-opacity:1" d="M 168.362,424.813 180.019,424.813 z" id="boundary" inkscape:connector-curvature="0" />
	<path style="fill:none;stroke:red;stroke-width:1px;stroke-linecap:butt;stroke-linejoin:miter;stroke-opacity:1" d="M 122.9,465.612 134.557,465.612 z" id="boundary" inkscape:connector-curvature="0" />
	<path style="fill:none;stroke:red;stroke-width:1px;stroke-linecap:butt;stroke-linejoin:miter;stroke-opacity:1" d="M 145.048,453.955 134.557,465.612 z" id="boundary" inkscape:connector-curvature="0" />
	<path style="fill:none;stroke:red;stroke-width:1px;stroke-linecap:butt;stroke-linejoin:miter;stroke-opacity:1" d="M 145.048,453.955 150.877,436.47 z" id="boundary" inkscape:connector-curvature="0" />
	<path style="fill:none;stroke:red;stroke-width:1px;stroke-linecap:butt;stroke-linejoin:miter;stroke-opacity:1" d="M 122.9,465.612 111.243,465.612 z" id="boundary" inkscape:connector-curvature="0" />
	<path style="fill:none;stroke:red;stroke-width:1px;stroke-linecap:butt;stroke-linejoin:miter;stroke-opacity:1" d="M 191.676,424.813 203.333,424.813 z" id="boundary" inkscape:connector-curvature="0" />
	<path style="fill:none;stroke:red;stroke-width:1px;stroke-linecap:butt;stroke-linejoin:miter;stroke-opacity:1" d="M 156.705,424.813 150.877,436.47 z" id="boundary" inkscape:connector-curvature="0" />
	<path style="fill:none;stroke:red;stroke-width:1px;stroke-linecap:butt;stroke-linejoin:miter;stroke-opacity:1" d="M 214.989,424.813 226.646,424.813 z" id="boundary" inkscape:connector-curvature="0" />
	<path style="fill:none;stroke:red;stroke-width:1px;stroke-linecap:butt;stroke-linejoin:miter;stroke-opacity:1" d="M 214.989,424.813 203.333,424.813 z" id="boundary" inkscape:connector-curvature="0" />
	<path style="fill:none;stroke:red;stroke-width:1px;stroke-linecap:butt;stroke-linejoin:miter;stroke-opacity:1" d="M 249.96,427.145 261.617,430.642 z" id="boundary" inkscape:connector-curvature="0" />
	<path style="fill:none;stroke:red;stroke-width:1px;stroke-linecap:butt;stroke-linejoin:miter;stroke-opacity:1" d="M 238.303,424.813 226.646,424.813 z" id="boundary" inkscape:connector-curvature="0" />
	<path style="fill:none;stroke:red;stroke-width:1px;stroke-linecap:butt;stroke-linejoin:miter;stroke-opacity:1" d="M 273.274,430.642 261.617,430.642 z" id="boundary" inkscape:connector-curvature="0" />
	<path style="fill:none;stroke:red;stroke-width:1px;stroke-linecap:butt;stroke-linejoin:miter;stroke-opacity:1" d="M 238.303,424.813 249.96,427.145 z" id="boundary" inkscape:connector-curvature="0" />
	<path style="fill:none;stroke:red;stroke-width:1px;stroke-linecap:butt;stroke-linejoin:miter;stroke-opacity:1" d="M 295.422,436.47 283.765,436.47 z" id="boundary" inkscape:connector-curvature="0" />
	<path style="fill:none;stroke:red;stroke-width:1px;stroke-linecap:butt;stroke-linejoin:miter;stroke-opacity:1" d="M 283.765,436.47 273.274,430.642 z" id="boundary" inkscape:connector-curvature="0" />
	<path style="fill:none;stroke:red;stroke-width:1px;stroke-linecap:butt;stroke-linejoin:miter;stroke-opacity:1" d="M 307.079,436.47 295.422,436.47 z" id="boundary" inkscape:connector-curvature="0" />
	<path style="fill:none;stroke:red;stroke-width:1px;stroke-linecap:butt;stroke-linejoin:miter;stroke-opacity:1" d="M 307.079,436.47 317.57,442.298 z" id="boundary" inkscape:connector-curvature="0" />
	<path style="fill:none;stroke:red;stroke-width:1px;stroke-linecap:butt;stroke-linejoin:miter;stroke-opacity:1" d="M 385.18,442.298 396.837,442.298 z" id="boundary" inkscape:connector-curvature="0" />
	<path style="fill:none;stroke:red;stroke-width:1px;stroke-linecap:butt;stroke-linejoin:miter;stroke-opacity:1" d="M 374.689,448.127 385.18,442.298 z" id="boundary" inkscape:connector-curvature="0" />
	<path style="fill:none;stroke:red;stroke-width:1px;stroke-linecap:butt;stroke-linejoin:miter;stroke-opacity:1" d="M 317.57,442.298 328.061,448.127 z" id="boundary" inkscape:connector-curvature="0" />
	<path style="fill:none;stroke:red;stroke-width:1px;stroke-linecap:butt;stroke-linejoin:miter;stroke-opacity:1" d="M 339.718,448.127 328.061,448.127 z" id="boundary" inkscape:connector-curvature="0" />
	<path style="fill:none;stroke:red;stroke-width:1px;stroke-linecap:butt;stroke-linejoin:miter;stroke-opacity:1" d="M 396.837,442.298 408.494,442.298 z" id="boundary" inkscape:connector-curvature="0" />
	<path style="fill:none;stroke:red;stroke-width:1px;stroke-linecap:butt;stroke-linejoin:miter;stroke-opacity:1" d="M 339.718,448.127 351.375,448.127 z" id="boundary" inkscape:connector-curvature="0" />
	<path style="fill:none;stroke:red;stroke-width:1px;stroke-linecap:butt;stroke-linejoin:miter;stroke-opacity:1" d="M 363.032,448.127 374.689,448.127 z" id="boundary" inkscape:connector-curvature="0" />
	<path style="fill:none;stroke:red;stroke-width:1px;stroke-linecap:butt;stroke-linejoin:miter;stroke-opacity:1" d="M 363.032,448.127 351.375,448.127 z" id="boundary" inkscape:connector-curvature="0" />
	<path style="fill:none;stroke:red;stroke-width:1px;stroke-linecap:butt;stroke-linejoin:miter;stroke-opacity:1" d="M 408.494,442.298 420.15,442.298 z" id="boundary" inkscape:connector-curvature="0" />
	<path style="fill:none;stroke:red;stroke-width:1px;stroke-linecap:butt;stroke-linejoin:miter;stroke-opacity:1" d="M 441.133,449.293 446.961,459.784 z" id="boundary" inkscape:connector-curvature="0" />
	<path style="fill:none;stroke:red;stroke-width:1px;stroke-linecap:butt;stroke-linejoin:miter;stroke-opacity:1" d="M 441.133,449.293 431.807,442.298 z" id="boundary" inkscape:connector-curvature="0" />
	<path style="fill:none;stroke:red;stroke-width:1px;stroke-linecap:butt;stroke-linejoin:miter;stroke-opacity:1" d="M 446.961,459.784 452.79,470.275 z" id="boundary" inkscape:connector-curvature="0" />
	<path style="fill:none;stroke:red;stroke-width:1px;stroke-linecap:butt;stroke-linejoin:miter;stroke-opacity:1" d="M 452.79,470.275 462.115,477.269 z" id="boundary" inkscape:connector-curvature="0" />
	<path style="fill:none;stroke:red;stroke-width:1px;stroke-linecap:butt;stroke-linejoin:miter;stroke-opacity:1" d="M 484.263,483.098 472.606,483.098 z" id="boundary" inkscape:connector-curvature="0" />
	<path style="fill:none;stroke:red;stroke-width:1px;stroke-linecap:butt;stroke-linejoin:miter;stroke-opacity:1" d="M 472.606,483.098 462.115,477.269 z" id="boundary" inkscape:connector-curvature="0" />
	<path style="fill:none;stroke:red;stroke-width:1px;stroke-linecap:butt;stroke-linejoin:miter;stroke-opacity:1" d="M 494.754,477.269 484.263,483.098 z" id="boundary" inkscape:connector-curvature="0" />
	<path style="fill:none;stroke:red;stroke-width:1px;stroke-linecap:butt;stroke-linejoin:miter;stroke-opacity:1" d="M 420.15,442.298 431.807,442.298 z" id="boundary" inkscape:connector-curvature="0" />
	<path style="fill:none;stroke:red;stroke-width:1px;stroke-linecap:butt;stroke-linejoin:miter;stroke-opacity:1" d="M 532.056,4 543.713,4 z" id="boundary" inkscape:connector-curvature="0" />
	<path style="fill:none;stroke:red;stroke-width:1px;stroke-linecap:butt;stroke-linejoin:miter;stroke-opacity:1" d="M 521.565,9.82844 532.056,4 z" id="boundary" inkscape:connector-curvature="0" />
	<path style="fill:none;stroke:red;stroke-width:1px;stroke-linecap:butt;stroke-linejoin:miter;stroke-opacity:1" d="M 543.713,4 555.37,4 z" id="boundary" inkscape:connector-curvature="0" />
	<path style="fill:none;stroke:red;stroke-width:1px;stroke-linecap:butt;stroke-linejoin:miter;stroke-opacity:1" d="M 555.37,4 567.027,4 z" id="boundary" inkscape:connector-curvature="0" />
	<path style="fill:none;stroke:red;stroke-width:1px;stroke-linecap:butt;stroke-linejoin:miter;stroke-opacity:1" d="M 511.074,15.6569 521.565,9.82844 z" id="boundary" inkscape:connector-curvature="0" />
	<path style="fill:none;stroke:red;stroke-width:1px;stroke-linecap:butt;stroke-linejoin:miter;stroke-opacity:1" d="M 567.027,4 578.684,4 z" id="boundary" inkscape:connector-curvature="0" />
	<path style="fill:none;stroke:red;stroke-width:1px;stroke-linecap:butt;stroke-linejoin:miter;stroke-opacity:1" d="M 601.998,4 613.655,4 z" id="boundary" inkscape:connector-curvature="0" />
	<path style="fill:none;stroke:red;stroke-width:1px;stroke-linecap:butt;stroke-linejoin:miter;stroke-opacity:1" d="M 625.311,4 636.968,4 z" id="boundary" inkscape:connector-curvature="0" />
	<path style="fill:none;stroke:red;stroke-width:1px;stroke-linecap:butt;stroke-linejoin:miter;stroke-opacity:1" d="M 648.625,4 659.116,9.82844 z" id="boundary" inkscape:connector-curvature="0" />
	<path style="fill:none;stroke:red;stroke-width:1px;stroke-linecap:butt;stroke-linejoin:miter;stroke-opacity:1" d="M 636.968,4 648.625,4 z" id="boundary" inkscape:connector-curvature="0" />
	<path style="fill:none;stroke:red;stroke-width:1px;stroke-linecap:butt;stroke-linejoin:miter;stroke-opacity:1" d="M 670.773,9.82844 659.116,9.82844 z" id="boundary" inkscape:connector-curvature="0" />
	<path style="fill:none;stroke:red;stroke-width:1px;stroke-linecap:butt;stroke-linejoin:miter;stroke-opacity:1" d="M 613.655,4 625.311,4 z" id="boundary" inkscape:connector-curvature="0" />
	<path style="fill:none;stroke:red;stroke-width:1px;stroke-linecap:butt;stroke-linejoin:miter;stroke-opacity:1" d="M 578.684,4 590.341,4 z" id="boundary" inkscape:connector-curvature="0" />
	<path style="fill:none;stroke:red;stroke-width:1px;stroke-linecap:butt;stroke-linejoin:miter;stroke-opacity:1" d="M 590.341,4 601.998,4 z" id="boundary" inkscape:connector-curvature="0" />
	<path style="fill:none;stroke:red;stroke-width:1px;stroke-linecap:butt;stroke-linejoin:miter;stroke-opacity:1" d="M 682.43,9.82844 670.773,9.82844 z" id="boundary" inkscape:connector-curvature="0" />
	<path style="fill:none;stroke:red;stroke-width:1px;stroke-linecap:butt;stroke-linejoin:miter;stroke-opacity:1" d="M 694.087,9.82844 682.43,9.82844 z" id="boundary" inkscape:connector-curvature="0" />
	<path style="fill:none;stroke:red;stroke-width:1px;stroke-linecap:butt;stroke-linejoin:miter;stroke-opacity:1" d="M 511.074,15.6569 499.417,19.1539 z" id="boundary" inkscape:connector-curvature="0" />
	<path style="fill:none;stroke:red;stroke-width:1px;stroke-linecap:butt;stroke-linejoin:miter;stroke-opacity:1" d="M 694.087,9.82844 705.744,9.82844 z" id="boundary" inkscape:connector-curvature="0" />
	<path style="fill:none;stroke:red;stroke-width:1px;stroke-linecap:butt;stroke-linejoin:miter;stroke-opacity:1" d="M 717.401,9.82844 705.744,9.82844 z" id="boundary" inkscape:connector-curvature="0" />
	<path style="fill:none;stroke:red;stroke-width:1px;stroke-linecap:butt;stroke-linejoin:miter;stroke-opacity:1" d="M 717.401,9.82844 727.892,15.6569 z" id="boundary" inkscape:connector-curvature="0" />
	<path style="fill:none;stroke:red;stroke-width:1px;stroke-linecap:butt;stroke-linejoin:miter;stroke-opacity:1" d="M 727.892,15.6569 739.549,19.1539 z" id="boundary" inkscape:connector-curvature="0" />
	<path style="fill:none;stroke:red;stroke-width:1px;stroke-linecap:butt;stroke-linejoin:miter;stroke-opacity:1" d="M 739.549,19.1539 747.709,28.4794 z" id="boundary" inkscape:connector-curvature="0" />
	<path style="fill:none;stroke:red;stroke-width:1px;stroke-linecap:butt;stroke-linejoin:miter;stroke-opacity:1" d="M 759.365,33.1422 747.709,28.4794 z" id="boundary" inkscape:connector-curvature="0" />
	<path style="fill:none;stroke:red;stroke-width:1px;stroke-linecap:butt;stroke-linejoin:miter;stroke-opacity:1" d="M 762.863,44.7991 759.365,33.1422 z" id="boundary" inkscape:connector-curvature="0" />
	<path style="fill:none;stroke:red;stroke-width:1px;stroke-linecap:butt;stroke-linejoin:miter;stroke-opacity:1" d="M 768.691,55.2902 762.863,44.7991 z" id="boundary" inkscape:connector-curvature="0" />
	<path style="fill:none;stroke:red;stroke-width:1px;stroke-linecap:butt;stroke-linejoin:miter;stroke-opacity:1" d="M 768.691,55.2902 768.691,66.9471 z" id="boundary" inkscape:connector-curvature="0" />
	<path style="fill:none;stroke:red;stroke-width:1px;stroke-linecap:butt;stroke-linejoin:miter;stroke-opacity:1" d="M 768.691,66.9471 768.691,78.604 z" id="boundary" inkscape:connector-curvature="0" />
	<path style="fill:none;stroke:red;stroke-width:1px;stroke-linecap:butt;stroke-linejoin:miter;stroke-opacity:1" d="M 774.519,100.752 768.691,90.2609 z" id="boundary" inkscape:connector-curvature="0" />
	<path style="fill:none;stroke:red;stroke-width:1px;stroke-linecap:butt;stroke-linejoin:miter;stroke-opacity:1" d="M 768.691,90.2609 768.691,78.604 z" id="boundary" inkscape:connector-curvature="0" />
	<path style="fill:none;stroke:red;stroke-width:1px;stroke-linecap:butt;stroke-linejoin:miter;stroke-opacity:1" d="M 786.176,121.734 780.348,111.243 z" id="boundary" inkscape:connector-curvature="0" />
	<path style="fill:none;stroke:red;stroke-width:1px;stroke-linecap:butt;stroke-linejoin:miter;stroke-opacity:1" d="M 792.005,132.226 786.176,121.734 z" id="boundary" inkscape:connector-curvature="0" />
	<path style="fill:none;stroke:red;stroke-width:1px;stroke-linecap:butt;stroke-linejoin:miter;stroke-opacity:1" d="M 780.348,111.243 774.519,100.752 z" id="boundary" inkscape:connector-curvature="0" />
	<path style="fill:none;stroke:red;stroke-width:1px;stroke-linecap:butt;stroke-linejoin:miter;stroke-opacity:1" d="M 797.833,142.717 809.49,143.882 z" id="boundary" inkscape:connector-curvature="0" />
	<path style="fill:none;stroke:red;stroke-width:1px;stroke-linecap:butt;stroke-linejoin:miter;stroke-opacity:1" d="M 809.49,143.882 821.147,147.38 z" id="boundary" inkscape:connector-curvature="0" />
	<path style="fill:none;stroke:red;stroke-width:1px;stroke-linecap:butt;stroke-linejoin:miter;stroke-opacity:1" d="M 797.833,142.717 792.005,132.226 z" id="boundary" inkscape:connector-curvature="0" />
	<path style="fill:none;stroke:red;stroke-width:1px;stroke-linecap:butt;stroke-linejoin:miter;stroke-opacity:1" d="M 832.804,149.711 843.295,155.539 z" id="boundary" inkscape:connector-curvature="0" />
	<path style="fill:none;stroke:red;stroke-width:1px;stroke-linecap:butt;stroke-linejoin:miter;stroke-opacity:1" d="M 821.147,147.38 832.804,149.711 z" id="boundary" inkscape:connector-curvature="0" />
	<path style="fill:none;stroke:red;stroke-width:1px;stroke-linecap:butt;stroke-linejoin:miter;stroke-opacity:1" d="M 853.786,161.368 865.443,162.533 z" id="boundary" inkscape:connector-curvature="0" />
	<path style="fill:none;stroke:red;stroke-width:1px;stroke-linecap:butt;stroke-linejoin:miter;stroke-opacity:1" d="M 865.443,162.533 877.1,167.196 z" id="boundary" inkscape:connector-curvature="0" />
	<path style="fill:none;stroke:red;stroke-width:1px;stroke-linecap:butt;stroke-linejoin:miter;stroke-opacity:1" d="M 853.786,161.368 843.295,155.539 z" id="boundary" inkscape:connector-curvature="0" />
	<path style="fill:none;stroke:red;stroke-width:1px;stroke-linecap:butt;stroke-linejoin:miter;stroke-opacity:1" d="M 877.1,167.196 888.757,167.196 z" id="boundary" inkscape:connector-curvature="0" />
	<path style="fill:none;stroke:red;stroke-width:1px;stroke-linecap:butt;stroke-linejoin:miter;stroke-opacity:1" d="M 888.757,167.196 899.248,173.025 z" id="boundary" inkscape:connector-curvature="0" />
	<path style="fill:none;stroke:red;stroke-width:1px;stroke-linecap:butt;stroke-linejoin:miter;stroke-opacity:1" d="M 910.905,173.025 899.248,173.025 z" id="boundary" inkscape:connector-curvature="0" />
	<path style="fill:none;stroke:red;stroke-width:1px;stroke-linecap:butt;stroke-linejoin:miter;stroke-opacity:1" d="M 910.905,173.025 922.562,173.025 z" id="boundary" inkscape:connector-curvature="0" />
	<path style="fill:none;stroke:red;stroke-width:1px;stroke-linecap:butt;stroke-linejoin:miter;stroke-opacity:1" d="M 934.219,173.025 945.875,173.025 z" id="boundary" inkscape:connector-curvature="0" />
	<path style="fill:none;stroke:red;stroke-width:1px;stroke-linecap:butt;stroke-linejoin:miter;stroke-opacity:1" d="M 934.219,173.025 922.562,173.025 z" id="boundary" inkscape:connector-curvature="0" />
	<path style="fill:none;stroke:red;stroke-width:1px;stroke-linecap:butt;stroke-linejoin:miter;stroke-opacity:1" d="M 957.532,173.025 969.189,173.025 z" id="boundary" inkscape:connector-curvature="0" />
	<path style="fill:none;stroke:red;stroke-width:1px;stroke-linecap:butt;stroke-linejoin:miter;stroke-opacity:1" d="M 957.532,173.025 945.875,173.025 z" id="boundary" inkscape:connector-curvature="0" />
	<path style="fill:none;stroke:red;stroke-width:1px;stroke-linecap:butt;stroke-linejoin:miter;stroke-opacity:1" d="M 969.189,173.025 980.846,173.025 z" id="boundary" inkscape:connector-curvature="0" />
	<path style="fill:none;stroke:red;stroke-width:1px;stroke-linecap:butt;stroke-linejoin:miter;stroke-opacity:1" d="M 980.846,173.025 989.006,182.35 z" id="boundary" inkscape:connector-curvature="0" />
	<path style="fill:none;stroke:red;stroke-width:1px;stroke-linecap:butt;stroke-linejoin:miter;stroke-opacity:1" d="M 989.006,182.35 996,191.676 z" id="boundary" inkscape:connector-curvature="0" />
	<path style="fill:none;stroke:red;stroke-width:1px;stroke-linecap:butt;stroke-linejoin:miter;stroke-opacity:1" d="M 996,191.676 996,203.333 z" id="boundary" inkscape:connector-curvature="0" />
	<path style="fill:none;stroke:red;stroke-width:1px;stroke-linecap:butt;stroke-linejoin:miter;stroke-opacity:1" d="M 996,203.333 996,214.989 z" id="boundary" inkscape:connector-curvature="0" />
	<path style="fill:none;stroke:red;stroke-width:1px;stroke-linecap:butt;stroke-linejoin:miter;stroke-opacity:1" d="M 996,214.989 990.172,226.646 z" id="boundary" inkscape:connector-curvature="0" />
	<path style="fill:none;stroke:red;stroke-width:1px;stroke-linecap:butt;stroke-linejoin:miter;stroke-opacity:1" d="M 561.199,401.499 572.855,401.499 z" id="boundary" inkscape:connector-curvature="0" />
	<path style="fill:none;stroke:red;stroke-width:1px;stroke-linecap:butt;stroke-linejoin:miter;stroke-opacity:1" d="M 550.707,407.328 561.199,401.499 z" id="boundary" inkscape:connector-curvature="0" />
	<path style="fill:none;stroke:red;stroke-width:1px;stroke-linecap:butt;stroke-linejoin:miter;stroke-opacity:1" d="M 584.512,401.499 572.855,401.499 z" id="boundary" inkscape:connector-curvature="0" />
	<path style="fill:none;stroke:red;stroke-width:1px;stroke-linecap:butt;stroke-linejoin:miter;stroke-opacity:1" d="M 596.169,401.499 607.826,401.499 z" id="boundary" inkscape:connector-curvature="0" />
	<path style="fill:none;stroke:red;stroke-width:1px;stroke-linecap:butt;stroke-linejoin:miter;stroke-opacity:1" d="M 619.483,401.499 607.826,401.499 z" id="boundary" inkscape:connector-curvature="0" />
	<path style="fill:none;stroke:red;stroke-width:1px;stroke-linecap:butt;stroke-linejoin:miter;stroke-opacity:1" d="M 596.169,401.499 584.512,401.499 z" id="boundary" inkscape:connector-curvature="0" />
	<path style="fill:none;stroke:red;stroke-width:1px;stroke-linecap:butt;stroke-linejoin:miter;stroke-opacity:1" d="M 631.14,401.499 642.797,401.499 z" id="boundary" inkscape:connector-curvature="0" />
	<path style="fill:none;stroke:red;stroke-width:1px;stroke-linecap:butt;stroke-linejoin:miter;stroke-opacity:1" d="M 654.454,401.499 642.797,401.499 z" id="boundary" inkscape:connector-curvature="0" />
	<path style="fill:none;stroke:red;stroke-width:1px;stroke-linecap:butt;stroke-linejoin:miter;stroke-opacity:1" d="M 666.11,401.499 677.767,401.499 z" id="boundary" inkscape:connector-curvature="0" />
	<path style="fill:none;stroke:red;stroke-width:1px;stroke-linecap:butt;stroke-linejoin:miter;stroke-opacity:1" d="M 689.424,401.499 701.081,401.499 z" id="boundary" inkscape:connector-curvature="0" />
	<path style="fill:none;stroke:red;stroke-width:1px;stroke-linecap:butt;stroke-linejoin:miter;stroke-opacity:1" d="M 689.424,401.499 677.767,401.499 z" id="boundary" inkscape:connector-curvature="0" />
	<path style="fill:none;stroke:red;stroke-width:1px;stroke-linecap:butt;stroke-linejoin:miter;stroke-opacity:1" d="M 666.11,401.499 654.454,401.499 z" id="boundary" inkscape:connector-curvature="0" />
	<path style="fill:none;stroke:red;stroke-width:1px;stroke-linecap:butt;stroke-linejoin:miter;stroke-opacity:1" d="M 631.14,401.499 619.483,401.499 z" id="boundary" inkscape:connector-curvature="0" />
	<path style="fill:none;stroke:red;stroke-width:1px;stroke-linecap:butt;stroke-linejoin:miter;stroke-opacity:1" d="M 523.897,430.642 529.725,418.985 z" id="boundary" inkscape:connector-curvature="0" />
	<path style="fill:none;stroke:red;stroke-width:1px;stroke-linecap:butt;stroke-linejoin:miter;stroke-opacity:1" d="M 523.897,430.642 518.068,448.127 z" id="boundary" inkscape:connector-curvature="0" />
	<path style="fill:none;stroke:red;stroke-width:1px;stroke-linecap:butt;stroke-linejoin:miter;stroke-opacity:1" d="M 539.051,410.825 529.725,418.985 z" id="boundary" inkscape:connector-curvature="0" />
	<path style="fill:none;stroke:red;stroke-width:1px;stroke-linecap:butt;stroke-linejoin:miter;stroke-opacity:1" d="M 494.754,477.269 505.246,471.441 z" id="boundary" inkscape:connector-curvature="0" />
	<path style="fill:none;stroke:red;stroke-width:1px;stroke-linecap:butt;stroke-linejoin:miter;stroke-opacity:1" d="M 512.24,459.784 505.246,471.441 z" id="boundary" inkscape:connector-curvature="0" />
	<path style="fill:none;stroke:red;stroke-width:1px;stroke-linecap:butt;stroke-linejoin:miter;stroke-opacity:1" d="M 512.24,459.784 518.068,448.127 z" id="boundary" inkscape:connector-curvature="0" />
	<path style="fill:none;stroke:red;stroke-width:1px;stroke-linecap:butt;stroke-linejoin:miter;stroke-opacity:1" d="M 539.051,410.825 550.707,407.328 z" id="boundary" inkscape:connector-curvature="0" />
	<path style="fill:none;stroke:red;stroke-width:1px;stroke-linecap:butt;stroke-linejoin:miter;stroke-opacity:1" d="M 724.395,401.499 712.738,401.499 z" id="boundary" inkscape:connector-curvature="0" />
	<path style="fill:none;stroke:red;stroke-width:1px;stroke-linecap:butt;stroke-linejoin:miter;stroke-opacity:1" d="M 736.052,401.499 724.395,401.499 z" id="boundary" inkscape:connector-curvature="0" />
	<path style="fill:none;stroke:red;stroke-width:1px;stroke-linecap:butt;stroke-linejoin:miter;stroke-opacity:1" d="M 736.052,401.499 747.709,401.499 z" id="boundary" inkscape:connector-curvature="0" />
	<path style="fill:none;stroke:red;stroke-width:1px;stroke-linecap:butt;stroke-linejoin:miter;stroke-opacity:1" d="M 747.709,401.499 759.365,401.499 z" id="boundary" inkscape:connector-curvature="0" />
	<path style="fill:none;stroke:red;stroke-width:1px;stroke-linecap:butt;stroke-linejoin:miter;stroke-opacity:1" d="M 771.022,401.499 759.365,401.499 z" id="boundary" inkscape:connector-curvature="0" />
	<path style="fill:none;stroke:red;stroke-width:1px;stroke-linecap:butt;stroke-linejoin:miter;stroke-opacity:1" d="M 701.081,401.499 712.738,401.499 z" id="boundary" inkscape:connector-curvature="0" />
	<path style="fill:none;stroke:red;stroke-width:1px;stroke-linecap:butt;stroke-linejoin:miter;stroke-opacity:1" d="M 961.029,325.73 955.201,337.387 z" id="boundary" inkscape:connector-curvature="0" />
	<path style="fill:none;stroke:red;stroke-width:1px;stroke-linecap:butt;stroke-linejoin:miter;stroke-opacity:1" d="M 955.201,337.387 943.544,343.215 z" id="boundary" inkscape:connector-curvature="0" />
	<path style="fill:none;stroke:red;stroke-width:1px;stroke-linecap:butt;stroke-linejoin:miter;stroke-opacity:1" d="M 966.858,308.244 961.029,325.73 z" id="boundary" inkscape:connector-curvature="0" />
	<path style="fill:none;stroke:red;stroke-width:1px;stroke-linecap:butt;stroke-linejoin:miter;stroke-opacity:1" d="M 931.887,349.043 943.544,343.215 z" id="boundary" inkscape:connector-curvature="0" />
	<path style="fill:none;stroke:red;stroke-width:1px;stroke-linecap:butt;stroke-linejoin:miter;stroke-opacity:1" d="M 914.402,366.529 920.23,354.872 z" id="boundary" inkscape:connector-curvature="0" />
	<path style="fill:none;stroke:red;stroke-width:1px;stroke-linecap:butt;stroke-linejoin:miter;stroke-opacity:1" d="M 920.23,354.872 931.887,349.043 z" id="boundary" inkscape:connector-curvature="0" />
	<path style="fill:none;stroke:red;stroke-width:1px;stroke-linecap:butt;stroke-linejoin:miter;stroke-opacity:1" d="M 914.402,378.186 914.402,366.529 z" id="boundary" inkscape:connector-curvature="0" />
	<path style="fill:none;stroke:red;stroke-width:1px;stroke-linecap:butt;stroke-linejoin:miter;stroke-opacity:1" d="M 990.172,226.646 990.172,238.303 z" id="boundary" inkscape:connector-curvature="0" />
	<path style="fill:none;stroke:red;stroke-width:1px;stroke-linecap:butt;stroke-linejoin:miter;stroke-opacity:1" d="M 990.172,238.303 984.343,249.96 z" id="boundary" inkscape:connector-curvature="0" />
	<path style="fill:none;stroke:red;stroke-width:1px;stroke-linecap:butt;stroke-linejoin:miter;stroke-opacity:1" d="M 984.343,249.96 978.515,261.617 z" id="boundary" inkscape:connector-curvature="0" />
	<path style="fill:none;stroke:red;stroke-width:1px;stroke-linecap:butt;stroke-linejoin:miter;stroke-opacity:1" d="M 972.686,290.759 966.858,308.244 z" id="boundary" inkscape:connector-curvature="0" />
	<path style="fill:none;stroke:red;stroke-width:1px;stroke-linecap:butt;stroke-linejoin:miter;stroke-opacity:1" d="M 978.515,261.617 978.515,273.274 z" id="boundary" inkscape:connector-curvature="0" />
	<path style="fill:none;stroke:red;stroke-width:1px;stroke-linecap:butt;stroke-linejoin:miter;stroke-opacity:1" d="M 978.515,273.274 972.686,290.759 z" id="boundary" inkscape:connector-curvature="0" />
	<path style="fill:none;stroke:red;stroke-width:1px;stroke-linecap:butt;stroke-linejoin:miter;stroke-opacity:1" d="M 782.679,401.499 771.022,401.499 z" id="boundary" inkscape:connector-curvature="0" />
	<path style="fill:none;stroke:red;stroke-width:1px;stroke-linecap:butt;stroke-linejoin:miter;stroke-opacity:1" d="M 804.827,410.825 793.17,407.328 z" id="boundary" inkscape:connector-curvature="0" />
	<path style="fill:none;stroke:red;stroke-width:1px;stroke-linecap:butt;stroke-linejoin:miter;stroke-opacity:1" d="M 793.17,407.328 782.679,401.499 z" id="boundary" inkscape:connector-curvature="0" />
	<path style="fill:none;stroke:red;stroke-width:1px;stroke-linecap:butt;stroke-linejoin:miter;stroke-opacity:1" d="M 804.827,410.825 814.153,418.985 z" id="boundary" inkscape:connector-curvature="0" />
	<path style="fill:none;stroke:red;stroke-width:1px;stroke-linecap:butt;stroke-linejoin:miter;stroke-opacity:1" d="M 814.153,418.985 825.81,418.985 z" id="boundary" inkscape:connector-curvature="0" />
	<path style="fill:none;stroke:red;stroke-width:1px;stroke-linecap:butt;stroke-linejoin:miter;stroke-opacity:1" d="M 825.81,418.985 836.301,424.813 z" id="boundary" inkscape:connector-curvature="0" />
	<path style="fill:none;stroke:red;stroke-width:1px;stroke-linecap:butt;stroke-linejoin:miter;stroke-opacity:1" d="M 836.301,424.813 847.958,424.813 z" id="boundary" inkscape:connector-curvature="0" />
	<path style="fill:none;stroke:red;stroke-width:1px;stroke-linecap:butt;stroke-linejoin:miter;stroke-opacity:1" d="M 914.402,378.186 910.905,394.505 z" id="boundary" inkscape:connector-curvature="0" />
	<path style="fill:none;stroke:red;stroke-width:1px;stroke-linecap:butt;stroke-linejoin:miter;stroke-opacity:1" d="M 910.905,394.505 905.076,406.162 z" id="boundary" inkscape:connector-curvature="0" />
	<path style="fill:none;stroke:red;stroke-width:1px;stroke-linecap:butt;stroke-linejoin:miter;stroke-opacity:1" d="M 905.076,406.162 893.42,411.991 z" id="boundary" inkscape:connector-curvature="0" />
	<path style="fill:none;stroke:red;stroke-width:1px;stroke-linecap:butt;stroke-linejoin:miter;stroke-opacity:1" d="M 859.615,424.813 870.106,418.985 z" id="boundary" inkscape:connector-curvature="0" />
	<path style="fill:none;stroke:red;stroke-width:1px;stroke-linecap:butt;stroke-linejoin:miter;stroke-opacity:1" d="M 870.106,418.985 881.763,417.819 z" id="boundary" inkscape:connector-curvature="0" />
	<path style="fill:none;stroke:red;stroke-width:1px;stroke-linecap:butt;stroke-linejoin:miter;stroke-opacity:1" d="M 859.615,424.813 847.958,424.813 z" id="boundary" inkscape:connector-curvature="0" />
	<path style="fill:none;stroke:red;stroke-width:1px;stroke-linecap:butt;stroke-linejoin:miter;stroke-opacity:1" d="M 893.42,411.991 881.763,417.819 z" id="boundary" inkscape:connector-curvature="0" />
	<circle cx="4" cy="246.463" r="4" fill="#0" id="circle0"/>
	<circle cx="4" cy="258.12" r="4" fill="#0" id="circle1"/>
	<circle cx="9.82844" cy="234.806" r="4" fill="#0" id="circle2"/>
	<circle cx="9.82844" cy="268.611" r="4" fill="#0" id="circle3"/>
	<circle cx="15.6569" cy="223.149" r="4" fill="#0" id="circle4"/>
	<circle cx="21.4853" cy="273.274" r="4" fill="#0" id="circle5"/>
	<circle cx="24.9824" cy="213.824" r="4" fill="#0" id="circle6"/>
	<circle cx="31.9765" cy="279.102" r="4" fill="#0" id="circle7"/>
	<circle cx="34.3079" cy="204.498" r="4" fill="#0" id="circle8"/>
	<circle cx="38.9706" cy="288.428" r="4" fill="#0" id="circle9"/>
	<circle cx="38.9706" cy="328.061" r="4" fill="#0" id="circle10"/>
	<circle cx="43.6334" cy="196.338" r="4" fill="#0" id="circle11"/>
	<circle cx="44.7991" cy="298.919" r="4" fill="#0" id="circle12"/>
	<circle cx="44.7991" cy="310.576" r="4" fill="#0" id="circle13"/>
	<circle cx="44.7991" cy="338.552" r="4" fill="#0" id="circle14"/>
	<circle cx="44.7991" cy="350.209" r="4" fill="#0" id="circle15"/>
	<circle cx="44.7991" cy="361.866" r="4" fill="#0" id="circle16"/>
	<circle cx="44.7991" cy="373.523" r="4" fill="#0" id="circle17"/>
	<circle cx="44.7991" cy="385.18" r="4" fill="#0" id="circle18"/>
	<circle cx="50.6275" cy="395.671" r="4" fill="#0" id="circle19"/>
	<circle cx="50.6275" cy="407.328" r="4" fill="#0" id="circle20"/>
	<circle cx="50.6275" cy="418.985" r="4" fill="#0" id="circle21"/>
	<circle cx="54.1246" cy="190.51" r="4" fill="#0" id="circle22"/>
	<circle cx="56.4559" cy="429.476" r="4" fill="#0" id="circle23"/>
	<circle cx="63.4501" cy="438.801" r="4" fill="#0" id="circle24"/>
	<circle cx="65.7814" cy="184.682" r="4" fill="#0" id="circle25"/>
	<circle cx="68.1128" cy="450.458" r="4" fill="#0" id="circle26"/>
	<circle cx="77.4383" cy="184.682" r="4" fill="#0" id="circle27"/>
	<circle cx="77.4383" cy="458.618" r="4" fill="#0" id="circle28"/>
	<circle cx="87.9295" cy="178.853" r="4" fill="#0" id="circle29"/>
	<circle cx="87.9295" cy="464.447" r="4" fill="#0" id="circle30"/>
	<circle cx="99.5864" cy="174.19" r="4" fill="#0" id="circle31"/>
	<circle cx="99.5864" cy="465.612" r="4" fill="#0" id="circle32"/>
	<circle cx="111.243" cy="173.025" r="4" fill="#0" id="circle33"/>
	<circle cx="111.243" cy="465.612" r="4" fill="#0" id="circle34"/>
	<circle cx="122.9" cy="173.025" r="4" fill="#0" id="circle35"/>
	<circle cx="122.9" cy="465.612" r="4" fill="#0" id="circle36"/>
	<circle cx="134.557" cy="173.025" r="4" fill="#0" id="circle37"/>
	<circle cx="134.557" cy="465.612" r="4" fill="#0" id="circle38"/>
	<circle cx="145.048" cy="453.955" r="4" fill="#0" id="circle39"/>
	<circle cx="146.214" cy="173.025" r="4" fill="#0" id="circle40"/>
	<circle cx="150.877" cy="436.47" r="4" fill="#0" id="circle41"/>
	<circle cx="156.705" cy="424.813" r="4" fill="#0" id="circle42"/>
	<circle cx="157.871" cy="168.362" r="4" fill="#0" id="circle43"/>
	<circle cx="168.362" cy="424.813" r="4" fill="#0" id="circle44"/>
	<circle cx="169.528" cy="167.196" r="4" fill="#0" id="circle45"/>
	<circle cx="180.019" cy="424.813" r="4" fill="#0" id="circle46"/>
	<circle cx="181.184" cy="167.196" r="4" fill="#0" id="circle47"/>
	<circle cx="191.676" cy="424.813" r="4" fill="#0" id="circle48"/>
	<circle cx="192.841" cy="162.533" r="4" fill="#0" id="circle49"/>
	<circle cx="203.333" cy="424.813" r="4" fill="#0" id="circle50"/>
	<circle cx="204.498" cy="161.368" r="4" fill="#0" id="circle51"/>
	<circle cx="214.989" cy="424.813" r="4" fill="#0" id="circle52"/>
	<circle cx="216.155" cy="161.368" r="4" fill="#0" id="circle53"/>
	<circle cx="226.646" cy="424.813" r="4" fill="#0" id="circle54"/>
	<circle cx="227.812" cy="161.368" r="4" fill="#0" id="circle55"/>
	<circle cx="238.303" cy="424.813" r="4" fill="#0" id="circle56"/>
	<circle cx="239.469" cy="161.368" r="4" fill="#0" id="circle57"/>
	<circle cx="249.96" cy="427.145" r="4" fill="#0" id="circle58"/>
	<circle cx="251.126" cy="161.368" r="4" fill="#0" id="circle59"/>
	<circle cx="261.617" cy="430.642" r="4" fill="#0" id="circle60"/>
	<circle cx="262.783" cy="161.368" r="4" fill="#0" id="circle61"/>
	<circle cx="272.108" cy="147.38" r="4" fill="#0" id="circle62"/>
	<circle cx="273.274" cy="430.642" r="4" fill="#0" id="circle63"/>
	<circle cx="281.434" cy="138.054" r="4" fill="#0" id="circle64"/>
	<circle cx="283.765" cy="436.47" r="4" fill="#0" id="circle65"/>
	<circle cx="291.925" cy="132.226" r="4" fill="#0" id="circle66"/>
	<circle cx="295.422" cy="436.47" r="4" fill="#0" id="circle67"/>
	<circle cx="303.582" cy="132.226" r="4" fill="#0" id="circle68"/>
	<circle cx="307.079" cy="436.47" r="4" fill="#0" id="circle69"/>
	<circle cx="315.239" cy="132.226" r="4" fill="#0" id="circle70"/>
	<circle cx="317.57" cy="442.298" r="4" fill="#0" id="circle71"/>
	<circle cx="326.895" cy="127.563" r="4" fill="#0" id="circle72"/>
	<circle cx="328.061" cy="448.127" r="4" fill="#0" id="circle73"/>
	<circle cx="336.221" cy="118.237" r="4" fill="#0" id="circle74"/>
	<circle cx="339.718" cy="448.127" r="4" fill="#0" id="circle75"/>
	<circle cx="347.878" cy="112.409" r="4" fill="#0" id="circle76"/>
	<circle cx="351.375" cy="448.127" r="4" fill="#0" id="circle77"/>
	<circle cx="359.535" cy="106.58" r="4" fill="#0" id="circle78"/>
	<circle cx="363.032" cy="448.127" r="4" fill="#0" id="circle79"/>
	<circle cx="371.192" cy="103.083" r="4" fill="#0" id="circle80"/>
	<circle cx="374.689" cy="448.127" r="4" fill="#0" id="circle81"/>
	<circle cx="381.683" cy="97.255" r="4" fill="#0" id="circle82"/>
	<circle cx="385.18" cy="442.298" r="4" fill="#0" id="circle83"/>
	<circle cx="393.34" cy="98.4207" r="4" fill="#0" id="circle84"/>
	<circle cx="396.837" cy="442.298" r="4" fill="#0" id="circle85"/>
	<circle cx="403.831" cy="104.249" r="4" fill="#0" id="circle86"/>
	<circle cx="408.494" cy="442.298" r="4" fill="#0" id="circle87"/>
	<circle cx="415.488" cy="108.912" r="4" fill="#0" id="circle88"/>
	<circle cx="420.15" cy="442.298" r="4" fill="#0" id="circle89"/>
	<circle cx="427.145" cy="108.912" r="4" fill="#0" id="circle90"/>
	<circle cx="431.807" cy="442.298" r="4" fill="#0" id="circle91"/>
	<circle cx="438.801" cy="108.912" r="4" fill="#0" id="circle92"/>
	<circle cx="441.133" cy="83.2667" r="4" fill="#0" id="circle93"/>
	<circle cx="441.133" cy="94.9236" r="4" fill="#0" id="circle94"/>
	<circle cx="441.133" cy="449.293" r="4" fill="#0" id="circle95"/>
	<circle cx="446.961" cy="71.6099" r="4" fill="#0" id="circle96"/>
	<circle cx="446.961" cy="459.784" r="4" fill="#0" id="circle97"/>
	<circle cx="452.79" cy="59.953" r="4" fill="#0" id="circle98"/>
	<circle cx="452.79" cy="470.275" r="4" fill="#0" id="circle99"/>
	<circle cx="458.618" cy="48.2961" r="4" fill="#0" id="circle100"/>
	<circle cx="462.115" cy="477.269" r="4" fill="#0" id="circle101"/>
	<circle cx="464.447" cy="36.6392" r="4" fill="#0" id="circle102"/>
	<circle cx="472.606" cy="483.098" r="4" fill="#0" id="circle103"/>
	<circle cx="476.103" cy="30.8108" r="4" fill="#0" id="circle104"/>
	<circle cx="484.263" cy="483.098" r="4" fill="#0" id="circle105"/>
	<circle cx="487.76" cy="24.9824" r="4" fill="#0" id="circle106"/>
	<circle cx="494.754" cy="477.269" r="4" fill="#0" id="circle107"/>
	<circle cx="499.417" cy="19.1539" r="4" fill="#0" id="circle108"/>
	<circle cx="505.246" cy="471.441" r="4" fill="#0" id="circle109"/>
	<circle cx="511.074" cy="15.6569" r="4" fill="#0" id="circle110"/>
	<circle cx="512.24" cy="459.784" r="4" fill="#0" id="circle111"/>
	<circle cx="518.068" cy="448.127" r="4" fill="#0" id="circle112"/>
	<circle cx="521.565" cy="9.82844" r="4" fill="#0" id="circle113"/>
	<circle cx="523.897" cy="430.642" r="4" fill="#0" id="circle114"/>
	<circle cx="529.725" cy="418.985" r="4" fill="#0" id="circle115"/>
	<circle cx="532.056" cy="4" r="4" fill="#0" id="circle116"/>
	<circle cx="539.051" cy="410.825" r="4" fill="#0" id="circle117"/>
	<circle cx="543.713" cy="4" r="4" fill="#0" id="circle118"/>
	<circle cx="550.707" cy="407.328" r="4" fill="#0" id="circle119"/>
	<circle cx="555.37" cy="4" r="4" fill="#0" id="circle120"/>
	<circle cx="561.199" cy="401.499" r="4" fill="#0" id="circle121"/>
	<circle cx="567.027" cy="4" r="4" fill="#0" id="circle122"/>
	<circle cx="572.855" cy="401.499" r="4" fill="#0" id="circle123"/>
	<circle cx="578.684" cy="4" r="4" fill="#0" id="circle124"/>
	<circle cx="584.512" cy="401.499" r="4" fill="#0" id="circle125"/>
	<circle cx="590.341" cy="4" r="4" fill="#0" id="circle126"/>
	<circle cx="596.169" cy="401.499" r="4" fill="#0" id="circle127"/>
	<circle cx="601.998" cy="4" r="4" fill="#0" id="circle128"/>
	<circle cx="607.826" cy="401.499" r="4" fill="#0" id="circle129"/>
	<circle cx="613.655" cy="4" r="4" fill="#0" id="circle130"/>
	<circle cx="619.483" cy="401.499" r="4" fill="#0" id="circle131"/>
	<circle cx="625.311" cy="4" r="4" fill="#0" id="circle132"/>
	<circle cx="631.14" cy="401.499" r="4" fill="#0" id="circle133"/>
	<circle cx="636.968" cy="4" r="4" fill="#0" id="circle134"/>
	<circle cx="642.797" cy="401.499" r="4" fill="#0" id="circle135"/>
	<circle cx="648.625" cy="4" r="4" fill="#0" id="circle136"/>
	<circle cx="654.454" cy="401.499" r="4" fill="#0" id="circle137"/>
	<circle cx="659.116" cy="9.82844" r="4" fill="#0" id="circle138"/>
	<circle cx="666.11" cy="401.499" r="4" fill="#0" id="circle139"/>
	<circle cx="670.773" cy="9.82844" r="4" fill="#0" id="circle140"/>
	<circle cx="677.767" cy="401.499" r="4" fill="#0" id="circle141"/>
	<circle cx="682.43" cy="9.82844" r="4" fill="#0" id="circle142"/>
	<circle cx="689.424" cy="401.499" r="4" fill="#0" id="circle143"/>
	<circle cx="694.087" cy="9.82844" r="4" fill="#0" id="circle144"/>
	<circle cx="701.081" cy="401.499" r="4" fill="#0" id="circle145"/>
	<circle cx="705.744" cy="9.82844" r="4" fill="#0" id="circle146"/>
	<circle cx="712.738" cy="401.499" r="4" fill="#0" id="circle147"/>
	<circle cx="717.401" cy="9.82844" r="4" fill="#0" id="circle148"/>
	<circle cx="724.395" cy="401.499" r="4" fill="#0" id="circle149"/>
	<circle cx="727.892" cy="15.6569" r="4" fill="#0" id="circle150"/>
	<circle cx="736.052" cy="401.499" r="4" fill="#0" id="circle151"/>
	<circle cx="739.549" cy="19.1539" r="4" fill="#0" id="circle152"/>
	<circle cx="747.709" cy="28.4794" r="4" fill="#0" id="circle153"/>
	<circle cx="747.709" cy="401.499" r="4" fill="#0" id="circle154"/>
	<circle cx="759.365" cy="33.1422" r="4" fill="#0" id="circle155"/>
	<circle cx="759.365" cy="401.499" r="4" fill="#0" id="circle156"/>
	<circle cx="762.863" cy="44.7991" r="4" fill="#0" id="circle157"/>
	<circle cx="768.691" cy="55.2902" r="4" fill="#0" id="circle158"/>
	<circle cx="768.691" cy="66.9471" r="4" fill="#0" id="circle159"/>
	<circle cx="768.691" cy="78.604" r="4" fill="#0" id="circle160"/>
	<circle cx="768.691" cy="90.2609" r="4" fill="#0" id="circle161"/>
	<circle cx="771.022" cy="401.499" r="4" fill="#0" id="circle162"/>
	<circle cx="774.519" cy="100.752" r="4" fill="#0" id="circle163"/>
	<circle cx="780.348" cy="111.243" r="4" fill="#0" id="circle164"/>
	<circle cx="782.679" cy="401.499" r="4" fill="#0" id="circle165"/>
	<circle cx="786.176" cy="121.734" r="4" fill="#0" id="circle166"/>
	<circle cx="792.005" cy="132.226" r="4" fill="#0" id="circle167"/>
	<circle cx="793.17" cy="407.328" r="4" fill="#0" id="circle168"/>
	<circle cx="797.833" cy="142.717" r="4" fill="#0" id="circle169"/>
	<circle cx="804.827" cy="410.825" r="4" fill="#0" id="circle170"/>
	<circle cx="809.49" cy="143.882" r="4" fill="#0" id="circle171"/>
	<circle cx="814.153" cy="418.985" r="4" fill="#0" id="circle172"/>
	<circle cx="821.147" cy="147.38" r="4" fill="#0" id="circle173"/>
	<circle cx="825.81" cy="418.985" r="4" fill="#0" id="circle174"/>
	<circle cx="832.804" cy="149.711" r="4" fill="#0" id="circle175"/>
	<circle cx="836.301" cy="424.813" r="4" fill="#0" id="circle176"/>
	<circle cx="843.295" cy="155.539" r="4" fill="#0" id="circle177"/>
	<circle cx="847.958" cy="424.813" r="4" fill="#0" id="circle178"/>
	<circle cx="853.786" cy="161.368" r="4" fill="#0" id="circle179"/>
	<circle cx="859.615" cy="424.813" r="4" fill="#0" id="circle180"/>
	<circle cx="865.443" cy="162.533" r="4" fill="#0" id="circle181"/>
	<circle cx="870.106" cy="418.985" r="4" fill="#0" id="circle182"/>
	<circle cx="877.1" cy="167.196" r="4" fill="#0" id="circle183"/>
	<circle cx="881.763" cy="417.819" r="4" fill="#0" id="circle184"/>
	<circle cx="888.757" cy="167.196" r="4" fill="#0" id="circle185"/>
	<circle cx="893.42" cy="411.991" r="4" fill="#0" id="circle186"/>
	<circle cx="899.248" cy="173.025" r="4" fill="#0" id="circle187"/>
	<circle cx="905.076" cy="406.162" r="4" fill="#0" id="circle188"/>
	<circle cx="910.905" cy="173.025" r="4" fill="#0" id="circle189"/>
	<circle cx="910.905" cy="394.505" r="4" fill="#0" id="circle190"/>
	<circle cx="914.402" cy="366.529" r="4" fill="#0" id="circle191"/>
	<circle cx="914.402" cy="378.186" r="4" fill="#0" id="circle192"/>
	<circle cx="920.23" cy="354.872" r="4" fill="#0" id="circle193"/>
	<circle cx="922.562" cy="173.025" r="4" fill="#0" id="circle194"/>
	<circle cx="931.887" cy="349.043" r="4" fill="#0" id="circle195"/>
	<circle cx="934.219" cy="173.025" r="4" fill="#0" id="circle196"/>
	<circle cx="943.544" cy="343.215" r="4" fill="#0" id="circle197"/>
	<circle cx="945.875" cy="173.025" r="4" fill="#0" id="circle198"/>
	<circle cx="955.201" cy="337.387" r="4" fill="#0" id="circle199"/>
	<circle cx="957.532" cy="173.025" r="4" fill="#0" id="circle200"/>
	<circle cx="961.029" cy="325.73" r="4" fill="#0" id="circle201"/>
	<circle cx="966.858" cy="308.244" r="4" fill="#0" id="circle202"/>
	<circle cx="969.189" cy="173.025" r="4" fill="#0" id="circle203"/>
	<circle cx="972.686" cy="290.759" r="4" fill="#0" id="circle204"/>
	<circle cx="978.515" cy="261.617" r="4" fill="#0" id="circle205"/>
	<circle cx="978.515" cy="273.274" r="4" fill="#0" id="circle206"/>
	<circle cx="980.846" cy="173.025" r="4" fill="#0" id="circle207"/>
	<circle cx="984.343" cy="249.96" r="4" fill="#0" id="circle208"/>
	<circle cx="989.006" cy="182.35" r="4" fill="#0" id="circle209"/>
	<circle cx="990.172" cy="226.646" r="4" fill="#0" id="circle210"/>
	<circle cx="990.172" cy="238.303" r="4" fill="#0" id="circle211"/>
	<circle cx="996" cy="191.676" r="4" fill="#0" id="circle212"/>
	<circle cx="996" cy="203.333" r="4" fill="#0" id="circle213"/>
	<circle cx="996" cy="214.989" r="4" fill="#0" id="circle214"/>
	</g>
</svg>