<?xml version="1.0" encoding="UTF-8" standalone="no"?>
<!-- Created with CurveBenchmark -->
<svg
	xmlns:dc="http://purl.org/dc/elements/1.1/"
	xmlns:cc="http://creativecommons.org/ns#"
	xmlns:rdf="http://www.w3.org/1999/02/22-rdf-syntax-ns#"
	xmlns:svg="http://www.w3.org/2000/svg"
	xmlns="http://www.w3.org/2000/svg"
	xmlns:sodipodi="http://sodipodi.sourceforge.net/DTD/sodipodi-0.dtd"
	xmlns:inkscape="http://www.inkscape.org/namespaces/inkscape"
	width="1000"
	height="1000"
	id="svg2"
	version="1.1"
	sodipodi:docname="manifold/gathang-bird57.png.txt">
<defs
	id="defs4" />
<metadata
	id="metadata7">
	<rdf:RDF>
		<cc:Work
			rdf:about="">
			<dc:format>image/svg+xml</dc:format>
			<dc:type
				rdf:resource="http://purl.org/dc/dcmitype/StillImage" />
			<dc:title></dc:title>
		</cc:Work>
	</rdf:RDF>
</metadata>
<g
	inkscape:label="Layer 1"
	inkscape:groupmode="layer"
	id="layer1">
	<path style="fill:none;stroke:red;stroke-width:1px;stroke-linecap:butt;stroke-linejoin:miter;stroke-opacity:1" d="M 128.187,108.736 143.149,101.255 z" id="boundary" inkscape:connector-curvature="0" />
	<path style="fill:none;stroke:red;stroke-width:1px;stroke-linecap:butt;stroke-linejoin:miter;stroke-opacity:1" d="M 158.112,101.255 143.149,101.255 z" id="boundary" inkscape:connector-curvature="0" />
	<path style="fill:none;stroke:red;stroke-width:1px;stroke-linecap:butt;stroke-linejoin:miter;stroke-opacity:1" d="M 170.081,89.2851 158.112,101.255 z" id="boundary" inkscape:connector-curvature="0" />
	<path style="fill:none;stroke:red;stroke-width:1px;stroke-linecap:butt;stroke-linejoin:miter;stroke-opacity:1" d="M 101.255,128.187 116.217,120.706 z" id="boundary" inkscape:connector-curvature="0" />
	<path style="fill:none;stroke:red;stroke-width:1px;stroke-linecap:butt;stroke-linejoin:miter;stroke-opacity:1" d="M 128.187,108.736 116.217,120.706 z" id="boundary" inkscape:connector-curvature="0" />
	<path style="fill:none;stroke:red;stroke-width:1px;stroke-linecap:butt;stroke-linejoin:miter;stroke-opacity:1" d="M 137.164,129.683 152.127,122.202 z" id="boundary" inkscape:connector-curvature="0" />
	<path style="fill:none;stroke:red;stroke-width:1px;stroke-linecap:butt;stroke-linejoin:miter;stroke-opacity:1" d="M 167.089,117.713 152.127,122.202 z" id="boundary" inkscape:connector-curvature="0" />
	<path style="fill:none;stroke:red;stroke-width:1px;stroke-linecap:butt;stroke-linejoin:miter;stroke-opacity:1" d="M 180.555,110.232 167.089,117.713 z" id="boundary" inkscape:connector-curvature="0" />
	<path style="fill:none;stroke:red;stroke-width:1px;stroke-linecap:butt;stroke-linejoin:miter;stroke-opacity:1" d="M 185.044,81.8039 200.006,78.8115 z" id="boundary" inkscape:connector-curvature="0" />
	<path style="fill:none;stroke:red;stroke-width:1px;stroke-linecap:butt;stroke-linejoin:miter;stroke-opacity:1" d="M 213.472,53.3756 213.472,68.3379 z" id="boundary" inkscape:connector-curvature="0" />
	<path style="fill:none;stroke:red;stroke-width:1px;stroke-linecap:butt;stroke-linejoin:miter;stroke-opacity:1" d="M 213.472,68.3379 200.006,78.8115 z" id="boundary" inkscape:connector-curvature="0" />
	<path style="fill:none;stroke:red;stroke-width:1px;stroke-linecap:butt;stroke-linejoin:miter;stroke-opacity:1" d="M 220.953,30.9321 213.472,53.3756 z" id="boundary" inkscape:connector-curvature="0" />
	<path style="fill:none;stroke:red;stroke-width:1px;stroke-linecap:butt;stroke-linejoin:miter;stroke-opacity:1" d="M 170.081,89.2851 185.044,81.8039 z" id="boundary" inkscape:connector-curvature="0" />
	<path style="fill:none;stroke:red;stroke-width:1px;stroke-linecap:butt;stroke-linejoin:miter;stroke-opacity:1" d="M 195.517,108.736 180.555,110.232 z" id="boundary" inkscape:connector-curvature="0" />
	<path style="fill:none;stroke:red;stroke-width:1px;stroke-linecap:butt;stroke-linejoin:miter;stroke-opacity:1" d="M 210.48,102.751 195.517,108.736 z" id="boundary" inkscape:connector-curvature="0" />
	<path style="fill:none;stroke:red;stroke-width:1px;stroke-linecap:butt;stroke-linejoin:miter;stroke-opacity:1" d="M 225.442,102.751 210.48,102.751 z" id="boundary" inkscape:connector-curvature="0" />
	<path style="fill:none;stroke:red;stroke-width:1px;stroke-linecap:butt;stroke-linejoin:miter;stroke-opacity:1" d="M 60.8567,153.623 48.8869,165.593 z" id="boundary" inkscape:connector-curvature="0" />
	<path style="fill:none;stroke:red;stroke-width:1px;stroke-linecap:butt;stroke-linejoin:miter;stroke-opacity:1" d="M 48.8869,165.593 36.917,176.066 z" id="boundary" inkscape:connector-curvature="0" />
	<path style="fill:none;stroke:red;stroke-width:1px;stroke-linecap:butt;stroke-linejoin:miter;stroke-opacity:1" d="M 36.917,176.066 23.451,183.548 z" id="boundary" inkscape:connector-curvature="0" />
	<path style="fill:none;stroke:red;stroke-width:1px;stroke-linecap:butt;stroke-linejoin:miter;stroke-opacity:1" d="M 68.3379,170.081 60.8567,183.548 z" id="boundary" inkscape:connector-curvature="0" />
	<path style="fill:none;stroke:red;stroke-width:1px;stroke-linecap:butt;stroke-linejoin:miter;stroke-opacity:1" d="M 11.4811,195.517 23.451,183.548 z" id="boundary" inkscape:connector-curvature="0" />
	<path style="fill:none;stroke:red;stroke-width:1px;stroke-linecap:butt;stroke-linejoin:miter;stroke-opacity:1" d="M 60.8567,183.548 48.8869,192.525 z" id="boundary" inkscape:connector-curvature="0" />
	<path style="fill:none;stroke:red;stroke-width:1px;stroke-linecap:butt;stroke-linejoin:miter;stroke-opacity:1" d="M 48.8869,192.525 39.9095,204.495 z" id="boundary" inkscape:connector-curvature="0" />
	<path style="fill:none;stroke:red;stroke-width:1px;stroke-linecap:butt;stroke-linejoin:miter;stroke-opacity:1" d="M 107.24,144.646 95.27,155.119 z" id="boundary" inkscape:connector-curvature="0" />
	<path style="fill:none;stroke:red;stroke-width:1px;stroke-linecap:butt;stroke-linejoin:miter;stroke-opacity:1" d="M 87.7888,138.661 101.255,128.187 z" id="boundary" inkscape:connector-curvature="0" />
	<path style="fill:none;stroke:red;stroke-width:1px;stroke-linecap:butt;stroke-linejoin:miter;stroke-opacity:1" d="M 122.202,137.164 107.24,144.646 z" id="boundary" inkscape:connector-curvature="0" />
	<path style="fill:none;stroke:red;stroke-width:1px;stroke-linecap:butt;stroke-linejoin:miter;stroke-opacity:1" d="M 137.164,129.683 122.202,137.164 z" id="boundary" inkscape:connector-curvature="0" />
	<path style="fill:none;stroke:red;stroke-width:1px;stroke-linecap:butt;stroke-linejoin:miter;stroke-opacity:1" d="M 81.8039,162.6 68.3379,170.081 z" id="boundary" inkscape:connector-curvature="0" />
	<path style="fill:none;stroke:red;stroke-width:1px;stroke-linecap:butt;stroke-linejoin:miter;stroke-opacity:1" d="M 60.8567,153.623 74.3228,146.142 z" id="boundary" inkscape:connector-curvature="0" />
	<path style="fill:none;stroke:red;stroke-width:1px;stroke-linecap:butt;stroke-linejoin:miter;stroke-opacity:1" d="M 81.8039,162.6 95.27,155.119 z" id="boundary" inkscape:connector-curvature="0" />
	<path style="fill:none;stroke:red;stroke-width:1px;stroke-linecap:butt;stroke-linejoin:miter;stroke-opacity:1" d="M 74.3228,146.142 87.7888,138.661 z" id="boundary" inkscape:connector-curvature="0" />
	<path style="fill:none;stroke:red;stroke-width:1px;stroke-linecap:butt;stroke-linejoin:miter;stroke-opacity:1" d="M 259.855,4 274.817,4 z" id="boundary" inkscape:connector-curvature="0" />
	<path style="fill:none;stroke:red;stroke-width:1px;stroke-linecap:butt;stroke-linejoin:miter;stroke-opacity:1" d="M 220.953,30.9321 232.923,18.9623 z" id="boundary" inkscape:connector-curvature="0" />
	<path style="fill:none;stroke:red;stroke-width:1px;stroke-linecap:butt;stroke-linejoin:miter;stroke-opacity:1" d="M 238.908,110.232 225.442,102.751 z" id="boundary" inkscape:connector-curvature="0" />
	<path style="fill:none;stroke:red;stroke-width:1px;stroke-linecap:butt;stroke-linejoin:miter;stroke-opacity:1" d="M 244.893,6.99246 259.855,4 z" id="boundary" inkscape:connector-curvature="0" />
	<path style="fill:none;stroke:red;stroke-width:1px;stroke-linecap:butt;stroke-linejoin:miter;stroke-opacity:1" d="M 232.923,18.9623 244.893,6.99246 z" id="boundary" inkscape:connector-curvature="0" />
	<path style="fill:none;stroke:red;stroke-width:1px;stroke-linecap:butt;stroke-linejoin:miter;stroke-opacity:1" d="M 274.817,4 289.78,4 z" id="boundary" inkscape:connector-curvature="0" />
	<path style="fill:none;stroke:red;stroke-width:1px;stroke-linecap:butt;stroke-linejoin:miter;stroke-opacity:1" d="M 289.78,4 304.742,8.48869 z" id="boundary" inkscape:connector-curvature="0" />
	<path style="fill:none;stroke:red;stroke-width:1px;stroke-linecap:butt;stroke-linejoin:miter;stroke-opacity:1" d="M 304.742,8.48869 318.208,15.9698 z" id="boundary" inkscape:connector-curvature="0" />
	<path style="fill:none;stroke:red;stroke-width:1px;stroke-linecap:butt;stroke-linejoin:miter;stroke-opacity:1" d="M 318.208,15.9698 330.178,26.4434 z" id="boundary" inkscape:connector-curvature="0" />
	<path style="fill:none;stroke:red;stroke-width:1px;stroke-linecap:butt;stroke-linejoin:miter;stroke-opacity:1" d="M 330.178,26.4434 340.652,38.4133 z" id="boundary" inkscape:connector-curvature="0" />
	<path style="fill:none;stroke:red;stroke-width:1px;stroke-linecap:butt;stroke-linejoin:miter;stroke-opacity:1" d="M 340.652,38.4133 342.148,53.3756 z" id="boundary" inkscape:connector-curvature="0" />
	<path style="fill:none;stroke:red;stroke-width:1px;stroke-linecap:butt;stroke-linejoin:miter;stroke-opacity:1" d="M 342.148,53.3756 349.629,66.8416 z" id="boundary" inkscape:connector-curvature="0" />
	<path style="fill:none;stroke:red;stroke-width:1px;stroke-linecap:butt;stroke-linejoin:miter;stroke-opacity:1" d="M 349.629,66.8416 349.629,81.8039 z" id="boundary" inkscape:connector-curvature="0" />
	<path style="fill:none;stroke:red;stroke-width:1px;stroke-linecap:butt;stroke-linejoin:miter;stroke-opacity:1" d="M 357.11,95.27 349.629,81.8039 z" id="boundary" inkscape:connector-curvature="0" />
	<path style="fill:none;stroke:red;stroke-width:1px;stroke-linecap:butt;stroke-linejoin:miter;stroke-opacity:1" d="M 357.11,95.27 357.11,110.232 z" id="boundary" inkscape:connector-curvature="0" />
	<path style="fill:none;stroke:red;stroke-width:1px;stroke-linecap:butt;stroke-linejoin:miter;stroke-opacity:1" d="M 238.908,110.232 253.87,114.721 z" id="boundary" inkscape:connector-curvature="0" />
	<path style="fill:none;stroke:red;stroke-width:1px;stroke-linecap:butt;stroke-linejoin:miter;stroke-opacity:1" d="M 265.84,125.195 253.87,114.721 z" id="boundary" inkscape:connector-curvature="0" />
	<path style="fill:none;stroke:red;stroke-width:1px;stroke-linecap:butt;stroke-linejoin:miter;stroke-opacity:1" d="M 265.84,125.195 265.84,140.157 z" id="boundary" inkscape:connector-curvature="0" />
	<path style="fill:none;stroke:red;stroke-width:1px;stroke-linecap:butt;stroke-linejoin:miter;stroke-opacity:1" d="M 258.359,180.555 258.359,195.517 z" id="boundary" inkscape:connector-curvature="0" />
	<path style="fill:none;stroke:red;stroke-width:1px;stroke-linecap:butt;stroke-linejoin:miter;stroke-opacity:1" d="M 265.84,208.983 258.359,195.517 z" id="boundary" inkscape:connector-curvature="0" />
	<path style="fill:none;stroke:red;stroke-width:1px;stroke-linecap:butt;stroke-linejoin:miter;stroke-opacity:1" d="M 265.84,155.119 258.359,180.555 z" id="boundary" inkscape:connector-curvature="0" />
	<path style="fill:none;stroke:red;stroke-width:1px;stroke-linecap:butt;stroke-linejoin:miter;stroke-opacity:1" d="M 265.84,155.119 265.84,140.157 z" id="boundary" inkscape:connector-curvature="0" />
	<path style="fill:none;stroke:red;stroke-width:1px;stroke-linecap:butt;stroke-linejoin:miter;stroke-opacity:1" d="M 357.11,110.232 360.103,125.195 z" id="boundary" inkscape:connector-curvature="0" />
	<path style="fill:none;stroke:red;stroke-width:1px;stroke-linecap:butt;stroke-linejoin:miter;stroke-opacity:1" d="M 364.591,140.157 372.072,153.623 z" id="boundary" inkscape:connector-curvature="0" />
	<path style="fill:none;stroke:red;stroke-width:1px;stroke-linecap:butt;stroke-linejoin:miter;stroke-opacity:1" d="M 372.072,153.623 372.072,168.585 z" id="boundary" inkscape:connector-curvature="0" />
	<path style="fill:none;stroke:red;stroke-width:1px;stroke-linecap:butt;stroke-linejoin:miter;stroke-opacity:1" d="M 364.591,140.157 360.103,125.195 z" id="boundary" inkscape:connector-curvature="0" />
	<path style="fill:none;stroke:red;stroke-width:1px;stroke-linecap:butt;stroke-linejoin:miter;stroke-opacity:1" d="M 379.554,182.051 372.072,168.585 z" id="boundary" inkscape:connector-curvature="0" />
	<path style="fill:none;stroke:red;stroke-width:1px;stroke-linecap:butt;stroke-linejoin:miter;stroke-opacity:1" d="M 394.516,188.036 379.554,182.051 z" id="boundary" inkscape:connector-curvature="0" />
	<path style="fill:none;stroke:red;stroke-width:1px;stroke-linecap:butt;stroke-linejoin:miter;stroke-opacity:1" d="M 422.944,198.51 407.982,195.517 z" id="boundary" inkscape:connector-curvature="0" />
	<path style="fill:none;stroke:red;stroke-width:1px;stroke-linecap:butt;stroke-linejoin:miter;stroke-opacity:1" d="M 407.982,195.517 394.516,188.036 z" id="boundary" inkscape:connector-curvature="0" />
	<path style="fill:none;stroke:red;stroke-width:1px;stroke-linecap:butt;stroke-linejoin:miter;stroke-opacity:1" d="M 542.643,205.991 527.68,205.991 z" id="boundary" inkscape:connector-curvature="0" />
	<path style="fill:none;stroke:red;stroke-width:1px;stroke-linecap:butt;stroke-linejoin:miter;stroke-opacity:1" d="M 15.9698,228.434 27.9397,214.968 z" id="boundary" inkscape:connector-curvature="0" />
	<path style="fill:none;stroke:red;stroke-width:1px;stroke-linecap:butt;stroke-linejoin:miter;stroke-opacity:1" d="M 27.9397,214.968 39.9095,204.495 z" id="boundary" inkscape:connector-curvature="0" />
	<path style="fill:none;stroke:red;stroke-width:1px;stroke-linecap:butt;stroke-linejoin:miter;stroke-opacity:1" d="M 4,217.961 11.4811,195.517 z" id="boundary" inkscape:connector-curvature="0" />
	<path style="fill:none;stroke:red;stroke-width:1px;stroke-linecap:butt;stroke-linejoin:miter;stroke-opacity:1" d="M 265.84,208.983 265.84,223.946 z" id="boundary" inkscape:connector-curvature="0" />
	<path style="fill:none;stroke:red;stroke-width:1px;stroke-linecap:butt;stroke-linejoin:miter;stroke-opacity:1" d="M 265.84,223.946 265.84,238.908 z" id="boundary" inkscape:connector-curvature="0" />
	<path style="fill:none;stroke:red;stroke-width:1px;stroke-linecap:butt;stroke-linejoin:miter;stroke-opacity:1" d="M 4,217.961 15.9698,228.434 z" id="boundary" inkscape:connector-curvature="0" />
	<path style="fill:none;stroke:red;stroke-width:1px;stroke-linecap:butt;stroke-linejoin:miter;stroke-opacity:1" d="M 273.321,252.374 265.84,238.908 z" id="boundary" inkscape:connector-curvature="0" />
	<path style="fill:none;stroke:red;stroke-width:1px;stroke-linecap:butt;stroke-linejoin:miter;stroke-opacity:1" d="M 280.802,265.84 273.321,252.374 z" id="boundary" inkscape:connector-curvature="0" />
	<path style="fill:none;stroke:red;stroke-width:1px;stroke-linecap:butt;stroke-linejoin:miter;stroke-opacity:1" d="M 303.246,322.697 295.765,309.231 z" id="boundary" inkscape:connector-curvature="0" />
	<path style="fill:none;stroke:red;stroke-width:1px;stroke-linecap:butt;stroke-linejoin:miter;stroke-opacity:1" d="M 452.869,205.991 437.906,201.502 z" id="boundary" inkscape:connector-curvature="0" />
	<path style="fill:none;stroke:red;stroke-width:1px;stroke-linecap:butt;stroke-linejoin:miter;stroke-opacity:1" d="M 467.831,205.991 452.869,205.991 z" id="boundary" inkscape:connector-curvature="0" />
	<path style="fill:none;stroke:red;stroke-width:1px;stroke-linecap:butt;stroke-linejoin:miter;stroke-opacity:1" d="M 437.906,201.502 422.944,198.51 z" id="boundary" inkscape:connector-curvature="0" />
	<path style="fill:none;stroke:red;stroke-width:1px;stroke-linecap:butt;stroke-linejoin:miter;stroke-opacity:1" d="M 280.802,265.84 283.795,280.802 z" id="boundary" inkscape:connector-curvature="0" />
	<path style="fill:none;stroke:red;stroke-width:1px;stroke-linecap:butt;stroke-linejoin:miter;stroke-opacity:1" d="M 288.284,295.765 295.765,309.231 z" id="boundary" inkscape:connector-curvature="0" />
	<path style="fill:none;stroke:red;stroke-width:1px;stroke-linecap:butt;stroke-linejoin:miter;stroke-opacity:1" d="M 288.284,295.765 283.795,280.802 z" id="boundary" inkscape:connector-curvature="0" />
	<path style="fill:none;stroke:red;stroke-width:1px;stroke-linecap:butt;stroke-linejoin:miter;stroke-opacity:1" d="M 310.727,336.163 318.208,349.629 z" id="boundary" inkscape:connector-curvature="0" />
	<path style="fill:none;stroke:red;stroke-width:1px;stroke-linecap:butt;stroke-linejoin:miter;stroke-opacity:1" d="M 310.727,336.163 303.246,322.697 z" id="boundary" inkscape:connector-curvature="0" />
	<path style="fill:none;stroke:red;stroke-width:1px;stroke-linecap:butt;stroke-linejoin:miter;stroke-opacity:1" d="M 327.186,361.599 334.667,375.065 z" id="boundary" inkscape:connector-curvature="0" />
	<path style="fill:none;stroke:red;stroke-width:1px;stroke-linecap:butt;stroke-linejoin:miter;stroke-opacity:1" d="M 318.208,349.629 327.186,361.599 z" id="boundary" inkscape:connector-curvature="0" />
	<path style="fill:none;stroke:red;stroke-width:1px;stroke-linecap:butt;stroke-linejoin:miter;stroke-opacity:1" d="M 348.133,382.546 334.667,375.065 z" id="boundary" inkscape:connector-curvature="0" />
	<path style="fill:none;stroke:red;stroke-width:1px;stroke-linecap:butt;stroke-linejoin:miter;stroke-opacity:1" d="M 348.133,382.546 355.614,396.012 z" id="boundary" inkscape:connector-curvature="0" />
	<path style="fill:none;stroke:red;stroke-width:1px;stroke-linecap:butt;stroke-linejoin:miter;stroke-opacity:1" d="M 366.087,407.982 355.614,396.012 z" id="boundary" inkscape:connector-curvature="0" />
	<path style="fill:none;stroke:red;stroke-width:1px;stroke-linecap:butt;stroke-linejoin:miter;stroke-opacity:1" d="M 366.087,407.982 378.057,416.959 z" id="boundary" inkscape:connector-curvature="0" />
	<path style="fill:none;stroke:red;stroke-width:1px;stroke-linecap:butt;stroke-linejoin:miter;stroke-opacity:1" d="M 378.057,416.959 387.035,428.929 z" id="boundary" inkscape:connector-curvature="0" />
	<path style="fill:none;stroke:red;stroke-width:1px;stroke-linecap:butt;stroke-linejoin:miter;stroke-opacity:1" d="M 387.035,428.929 401.997,434.914 z" id="boundary" inkscape:connector-curvature="0" />
	<path style="fill:none;stroke:red;stroke-width:1px;stroke-linecap:butt;stroke-linejoin:miter;stroke-opacity:1" d="M 401.997,434.914 412.471,446.884 z" id="boundary" inkscape:connector-curvature="0" />
	<path style="fill:none;stroke:red;stroke-width:1px;stroke-linecap:butt;stroke-linejoin:miter;stroke-opacity:1" d="M 412.471,446.884 427.433,452.869 z" id="boundary" inkscape:connector-curvature="0" />
	<path style="fill:none;stroke:red;stroke-width:1px;stroke-linecap:butt;stroke-linejoin:miter;stroke-opacity:1" d="M 427.433,452.869 437.906,464.839 z" id="boundary" inkscape:connector-curvature="0" />
	<path style="fill:none;stroke:red;stroke-width:1px;stroke-linecap:butt;stroke-linejoin:miter;stroke-opacity:1" d="M 452.869,469.327 437.906,464.839 z" id="boundary" inkscape:connector-curvature="0" />
	<path style="fill:none;stroke:red;stroke-width:1px;stroke-linecap:butt;stroke-linejoin:miter;stroke-opacity:1" d="M 445.388,779.047 454.365,791.017 z" id="boundary" inkscape:connector-curvature="0" />
	<path style="fill:none;stroke:red;stroke-width:1px;stroke-linecap:butt;stroke-linejoin:miter;stroke-opacity:1" d="M 482.793,205.991 497.756,205.991 z" id="boundary" inkscape:connector-curvature="0" />
	<path style="fill:none;stroke:red;stroke-width:1px;stroke-linecap:butt;stroke-linejoin:miter;stroke-opacity:1" d="M 482.793,205.991 467.831,205.991 z" id="boundary" inkscape:connector-curvature="0" />
	<path style="fill:none;stroke:red;stroke-width:1px;stroke-linecap:butt;stroke-linejoin:miter;stroke-opacity:1" d="M 497.756,205.991 512.718,205.991 z" id="boundary" inkscape:connector-curvature="0" />
	<path style="fill:none;stroke:red;stroke-width:1px;stroke-linecap:butt;stroke-linejoin:miter;stroke-opacity:1" d="M 466.335,476.808 452.869,469.327 z" id="boundary" inkscape:connector-curvature="0" />
	<path style="fill:none;stroke:red;stroke-width:1px;stroke-linecap:butt;stroke-linejoin:miter;stroke-opacity:1" d="M 479.801,484.29 494.763,490.275 z" id="boundary" inkscape:connector-curvature="0" />
	<path style="fill:none;stroke:red;stroke-width:1px;stroke-linecap:butt;stroke-linejoin:miter;stroke-opacity:1" d="M 494.763,490.275 500.748,505.237 z" id="boundary" inkscape:connector-curvature="0" />
	<path style="fill:none;stroke:red;stroke-width:1px;stroke-linecap:butt;stroke-linejoin:miter;stroke-opacity:1" d="M 479.801,484.29 466.335,476.808 z" id="boundary" inkscape:connector-curvature="0" />
	<path style="fill:none;stroke:red;stroke-width:1px;stroke-linecap:butt;stroke-linejoin:miter;stroke-opacity:1" d="M 544.139,499.252 529.176,506.733 z" id="boundary" inkscape:connector-curvature="0" />
	<path style="fill:none;stroke:red;stroke-width:1px;stroke-linecap:butt;stroke-linejoin:miter;stroke-opacity:1" d="M 512.718,205.991 527.68,205.991 z" id="boundary" inkscape:connector-curvature="0" />
	<path style="fill:none;stroke:red;stroke-width:1px;stroke-linecap:butt;stroke-linejoin:miter;stroke-opacity:1" d="M 508.229,518.703 500.748,505.237 z" id="boundary" inkscape:connector-curvature="0" />
	<path style="fill:none;stroke:red;stroke-width:1px;stroke-linecap:butt;stroke-linejoin:miter;stroke-opacity:1" d="M 508.229,518.703 520.199,529.176 z" id="boundary" inkscape:connector-curvature="0" />
	<path style="fill:none;stroke:red;stroke-width:1px;stroke-linecap:butt;stroke-linejoin:miter;stroke-opacity:1" d="M 520.199,529.176 527.68,542.643 z" id="boundary" inkscape:connector-curvature="0" />
	<path style="fill:none;stroke:red;stroke-width:1px;stroke-linecap:butt;stroke-linejoin:miter;stroke-opacity:1" d="M 527.68,542.643 530.673,557.605 z" id="boundary" inkscape:connector-curvature="0" />
	<path style="fill:none;stroke:red;stroke-width:1px;stroke-linecap:butt;stroke-linejoin:miter;stroke-opacity:1" d="M 527.68,644.386 527.68,629.424 z" id="boundary" inkscape:connector-curvature="0" />
	<path style="fill:none;stroke:red;stroke-width:1px;stroke-linecap:butt;stroke-linejoin:miter;stroke-opacity:1" d="M 460.35,774.558 473.816,767.077 z" id="boundary" inkscape:connector-curvature="0" />
	<path style="fill:none;stroke:red;stroke-width:1px;stroke-linecap:butt;stroke-linejoin:miter;stroke-opacity:1" d="M 484.29,755.107 473.816,767.077 z" id="boundary" inkscape:connector-curvature="0" />
	<path style="fill:none;stroke:red;stroke-width:1px;stroke-linecap:butt;stroke-linejoin:miter;stroke-opacity:1" d="M 499.252,747.626 484.29,755.107 z" id="boundary" inkscape:connector-curvature="0" />
	<path style="fill:none;stroke:red;stroke-width:1px;stroke-linecap:butt;stroke-linejoin:miter;stroke-opacity:1" d="M 505.237,726.679 499.252,747.626 z" id="boundary" inkscape:connector-curvature="0" />
	<path style="fill:none;stroke:red;stroke-width:1px;stroke-linecap:butt;stroke-linejoin:miter;stroke-opacity:1" d="M 460.35,774.558 445.388,779.047 z" id="boundary" inkscape:connector-curvature="0" />
	<path style="fill:none;stroke:red;stroke-width:1px;stroke-linecap:butt;stroke-linejoin:miter;stroke-opacity:1" d="M 511.222,773.062 499.252,783.535 z" id="boundary" inkscape:connector-curvature="0" />
	<path style="fill:none;stroke:red;stroke-width:1px;stroke-linecap:butt;stroke-linejoin:miter;stroke-opacity:1" d="M 469.327,794.009 454.365,791.017 z" id="boundary" inkscape:connector-curvature="0" />
	<path style="fill:none;stroke:red;stroke-width:1px;stroke-linecap:butt;stroke-linejoin:miter;stroke-opacity:1" d="M 484.29,791.017 499.252,783.535 z" id="boundary" inkscape:connector-curvature="0" />
	<path style="fill:none;stroke:red;stroke-width:1px;stroke-linecap:butt;stroke-linejoin:miter;stroke-opacity:1" d="M 484.29,791.017 469.327,794.009 z" id="boundary" inkscape:connector-curvature="0" />
	<path style="fill:none;stroke:red;stroke-width:1px;stroke-linecap:butt;stroke-linejoin:miter;stroke-opacity:1" d="M 520.199,674.311 520.199,689.273 z" id="boundary" inkscape:connector-curvature="0" />
	<path style="fill:none;stroke:red;stroke-width:1px;stroke-linecap:butt;stroke-linejoin:miter;stroke-opacity:1" d="M 527.68,644.386 527.68,659.348 z" id="boundary" inkscape:connector-curvature="0" />
	<path style="fill:none;stroke:red;stroke-width:1px;stroke-linecap:butt;stroke-linejoin:miter;stroke-opacity:1" d="M 527.68,659.348 520.199,674.311 z" id="boundary" inkscape:connector-curvature="0" />
	<path style="fill:none;stroke:red;stroke-width:1px;stroke-linecap:butt;stroke-linejoin:miter;stroke-opacity:1" d="M 517.207,714.709 520.199,689.273 z" id="boundary" inkscape:connector-curvature="0" />
	<path style="fill:none;stroke:red;stroke-width:1px;stroke-linecap:butt;stroke-linejoin:miter;stroke-opacity:1" d="M 529.176,738.649 518.703,758.1 z" id="boundary" inkscape:connector-curvature="0" />
	<path style="fill:none;stroke:red;stroke-width:1px;stroke-linecap:butt;stroke-linejoin:miter;stroke-opacity:1" d="M 518.703,758.1 511.222,773.062 z" id="boundary" inkscape:connector-curvature="0" />
	<path style="fill:none;stroke:red;stroke-width:1px;stroke-linecap:butt;stroke-linejoin:miter;stroke-opacity:1" d="M 505.237,726.679 517.207,714.709 z" id="boundary" inkscape:connector-curvature="0" />
	<path style="fill:none;stroke:red;stroke-width:1px;stroke-linecap:butt;stroke-linejoin:miter;stroke-opacity:1" d="M 529.176,506.733 536.658,520.199 z" id="boundary" inkscape:connector-curvature="0" />
	<path style="fill:none;stroke:red;stroke-width:1px;stroke-linecap:butt;stroke-linejoin:miter;stroke-opacity:1" d="M 542.643,205.991 557.605,205.991 z" id="boundary" inkscape:connector-curvature="0" />
	<path style="fill:none;stroke:red;stroke-width:1px;stroke-linecap:butt;stroke-linejoin:miter;stroke-opacity:1" d="M 557.605,205.991 571.071,213.472 z" id="boundary" inkscape:connector-curvature="0" />
	<path style="fill:none;stroke:red;stroke-width:1px;stroke-linecap:butt;stroke-linejoin:miter;stroke-opacity:1" d="M 586.033,214.968 571.071,213.472 z" id="boundary" inkscape:connector-curvature="0" />
	<path style="fill:none;stroke:red;stroke-width:1px;stroke-linecap:butt;stroke-linejoin:miter;stroke-opacity:1" d="M 586.033,214.968 600.995,220.953 z" id="boundary" inkscape:connector-curvature="0" />
	<path style="fill:none;stroke:red;stroke-width:1px;stroke-linecap:butt;stroke-linejoin:miter;stroke-opacity:1" d="M 615.958,220.953 600.995,220.953 z" id="boundary" inkscape:connector-curvature="0" />
	<path style="fill:none;stroke:red;stroke-width:1px;stroke-linecap:butt;stroke-linejoin:miter;stroke-opacity:1" d="M 615.958,220.953 630.92,220.953 z" id="boundary" inkscape:connector-curvature="0" />
	<path style="fill:none;stroke:red;stroke-width:1px;stroke-linecap:butt;stroke-linejoin:miter;stroke-opacity:1" d="M 630.92,220.953 644.386,228.434 z" id="boundary" inkscape:connector-curvature="0" />
	<path style="fill:none;stroke:red;stroke-width:1px;stroke-linecap:butt;stroke-linejoin:miter;stroke-opacity:1" d="M 644.386,228.434 659.348,228.434 z" id="boundary" inkscape:connector-curvature="0" />
	<path style="fill:none;stroke:red;stroke-width:1px;stroke-linecap:butt;stroke-linejoin:miter;stroke-opacity:1" d="M 659.348,228.434 672.814,235.916 z" id="boundary" inkscape:connector-curvature="0" />
	<path style="fill:none;stroke:red;stroke-width:1px;stroke-linecap:butt;stroke-linejoin:miter;stroke-opacity:1" d="M 672.814,235.916 684.784,246.389 z" id="boundary" inkscape:connector-curvature="0" />
	<path style="fill:none;stroke:red;stroke-width:1px;stroke-linecap:butt;stroke-linejoin:miter;stroke-opacity:1" d="M 699.747,250.878 684.784,246.389 z" id="boundary" inkscape:connector-curvature="0" />
	<path style="fill:none;stroke:red;stroke-width:1px;stroke-linecap:butt;stroke-linejoin:miter;stroke-opacity:1" d="M 699.747,250.878 713.213,258.359 z" id="boundary" inkscape:connector-curvature="0" />
	<path style="fill:none;stroke:red;stroke-width:1px;stroke-linecap:butt;stroke-linejoin:miter;stroke-opacity:1" d="M 726.679,265.84 741.641,265.84 z" id="boundary" inkscape:connector-curvature="0" />
	<path style="fill:none;stroke:red;stroke-width:1px;stroke-linecap:butt;stroke-linejoin:miter;stroke-opacity:1" d="M 741.641,265.84 755.107,273.321 z" id="boundary" inkscape:connector-curvature="0" />
	<path style="fill:none;stroke:red;stroke-width:1px;stroke-linecap:butt;stroke-linejoin:miter;stroke-opacity:1" d="M 726.679,265.84 713.213,258.359 z" id="boundary" inkscape:connector-curvature="0" />
	<path style="fill:none;stroke:red;stroke-width:1px;stroke-linecap:butt;stroke-linejoin:miter;stroke-opacity:1" d="M 603.988,506.733 589.026,506.733 z" id="boundary" inkscape:connector-curvature="0" />
	<path style="fill:none;stroke:red;stroke-width:1px;stroke-linecap:butt;stroke-linejoin:miter;stroke-opacity:1" d="M 559.101,502.244 544.139,499.252 z" id="boundary" inkscape:connector-curvature="0" />
	<path style="fill:none;stroke:red;stroke-width:1px;stroke-linecap:butt;stroke-linejoin:miter;stroke-opacity:1" d="M 693.762,499.252 705.732,488.778 z" id="boundary" inkscape:connector-curvature="0" />
	<path style="fill:none;stroke:red;stroke-width:1px;stroke-linecap:butt;stroke-linejoin:miter;stroke-opacity:1" d="M 716.205,476.808 705.732,488.778 z" id="boundary" inkscape:connector-curvature="0" />
	<path style="fill:none;stroke:red;stroke-width:1px;stroke-linecap:butt;stroke-linejoin:miter;stroke-opacity:1" d="M 574.063,506.733 559.101,502.244 z" id="boundary" inkscape:connector-curvature="0" />
	<path style="fill:none;stroke:red;stroke-width:1px;stroke-linecap:butt;stroke-linejoin:miter;stroke-opacity:1" d="M 589.026,506.733 574.063,506.733 z" id="boundary" inkscape:connector-curvature="0" />
	<path style="fill:none;stroke:red;stroke-width:1px;stroke-linecap:butt;stroke-linejoin:miter;stroke-opacity:1" d="M 693.762,499.252 678.799,506.733 z" id="boundary" inkscape:connector-curvature="0" />
	<path style="fill:none;stroke:red;stroke-width:1px;stroke-linecap:butt;stroke-linejoin:miter;stroke-opacity:1" d="M 768.573,280.802 755.107,273.321 z" id="boundary" inkscape:connector-curvature="0" />
	<path style="fill:none;stroke:red;stroke-width:1px;stroke-linecap:butt;stroke-linejoin:miter;stroke-opacity:1" d="M 789.52,442.395 774.558,449.876 z" id="boundary" inkscape:connector-curvature="0" />
	<path style="fill:none;stroke:red;stroke-width:1px;stroke-linecap:butt;stroke-linejoin:miter;stroke-opacity:1" d="M 768.573,280.802 782.039,288.284 z" id="boundary" inkscape:connector-curvature="0" />
	<path style="fill:none;stroke:red;stroke-width:1px;stroke-linecap:butt;stroke-linejoin:miter;stroke-opacity:1" d="M 731.167,469.327 716.205,476.808 z" id="boundary" inkscape:connector-curvature="0" />
	<path style="fill:none;stroke:red;stroke-width:1px;stroke-linecap:butt;stroke-linejoin:miter;stroke-opacity:1" d="M 744.633,461.846 759.596,457.357 z" id="boundary" inkscape:connector-curvature="0" />
	<path style="fill:none;stroke:red;stroke-width:1px;stroke-linecap:butt;stroke-linejoin:miter;stroke-opacity:1" d="M 731.167,469.327 744.633,461.846 z" id="boundary" inkscape:connector-curvature="0" />
	<path style="fill:none;stroke:red;stroke-width:1px;stroke-linecap:butt;stroke-linejoin:miter;stroke-opacity:1" d="M 774.558,449.876 759.596,457.357 z" id="boundary" inkscape:connector-curvature="0" />
	<path style="fill:none;stroke:red;stroke-width:1px;stroke-linecap:butt;stroke-linejoin:miter;stroke-opacity:1" d="M 618.95,506.733 603.988,506.733 z" id="boundary" inkscape:connector-curvature="0" />
	<path style="fill:none;stroke:red;stroke-width:1px;stroke-linecap:butt;stroke-linejoin:miter;stroke-opacity:1" d="M 795.505,295.765 810.468,297.261 z" id="boundary" inkscape:connector-curvature="0" />
	<path style="fill:none;stroke:red;stroke-width:1px;stroke-linecap:butt;stroke-linejoin:miter;stroke-opacity:1" d="M 810.468,297.261 820.941,309.231 z" id="boundary" inkscape:connector-curvature="0" />
	<path style="fill:none;stroke:red;stroke-width:1px;stroke-linecap:butt;stroke-linejoin:miter;stroke-opacity:1" d="M 795.505,295.765 782.039,288.284 z" id="boundary" inkscape:connector-curvature="0" />
	<path style="fill:none;stroke:red;stroke-width:1px;stroke-linecap:butt;stroke-linejoin:miter;stroke-opacity:1" d="M 835.903,310.727 820.941,309.231 z" id="boundary" inkscape:connector-curvature="0" />
	<path style="fill:none;stroke:red;stroke-width:1px;stroke-linecap:butt;stroke-linejoin:miter;stroke-opacity:1" d="M 835.903,310.727 849.37,318.208 z" id="boundary" inkscape:connector-curvature="0" />
	<path style="fill:none;stroke:red;stroke-width:1px;stroke-linecap:butt;stroke-linejoin:miter;stroke-opacity:1" d="M 864.332,318.208 849.37,318.208 z" id="boundary" inkscape:connector-curvature="0" />
	<path style="fill:none;stroke:red;stroke-width:1px;stroke-linecap:butt;stroke-linejoin:miter;stroke-opacity:1" d="M 864.332,318.208 877.798,325.689 z" id="boundary" inkscape:connector-curvature="0" />
	<path style="fill:none;stroke:red;stroke-width:1px;stroke-linecap:butt;stroke-linejoin:miter;stroke-opacity:1" d="M 892.76,325.689 877.798,325.689 z" id="boundary" inkscape:connector-curvature="0" />
	<path style="fill:none;stroke:red;stroke-width:1px;stroke-linecap:butt;stroke-linejoin:miter;stroke-opacity:1" d="M 892.76,325.689 906.226,333.17 z" id="boundary" inkscape:connector-curvature="0" />
	<path style="fill:none;stroke:red;stroke-width:1px;stroke-linecap:butt;stroke-linejoin:miter;stroke-opacity:1" d="M 921.189,333.17 906.226,333.17 z" id="boundary" inkscape:connector-curvature="0" />
	<path style="fill:none;stroke:red;stroke-width:1px;stroke-linecap:butt;stroke-linejoin:miter;stroke-opacity:1" d="M 921.189,333.17 936.151,333.17 z" id="boundary" inkscape:connector-curvature="0" />
	<path style="fill:none;stroke:red;stroke-width:1px;stroke-linecap:butt;stroke-linejoin:miter;stroke-opacity:1" d="M 951.113,333.17 936.151,333.17 z" id="boundary" inkscape:connector-curvature="0" />
	<path style="fill:none;stroke:red;stroke-width:1px;stroke-linecap:butt;stroke-linejoin:miter;stroke-opacity:1" d="M 951.113,333.17 966.075,333.17 z" id="boundary" inkscape:connector-curvature="0" />
	<path style="fill:none;stroke:red;stroke-width:1px;stroke-linecap:butt;stroke-linejoin:miter;stroke-opacity:1" d="M 981.038,333.17 996,333.17 z" id="boundary" inkscape:connector-curvature="0" />
	<path style="fill:none;stroke:red;stroke-width:1px;stroke-linecap:butt;stroke-linejoin:miter;stroke-opacity:1" d="M 996,333.17 993.008,357.11 z" id="boundary" inkscape:connector-curvature="0" />
	<path style="fill:none;stroke:red;stroke-width:1px;stroke-linecap:butt;stroke-linejoin:miter;stroke-opacity:1" d="M 981.038,333.17 966.075,333.17 z" id="boundary" inkscape:connector-curvature="0" />
	<path style="fill:none;stroke:red;stroke-width:1px;stroke-linecap:butt;stroke-linejoin:miter;stroke-opacity:1" d="M 849.37,427.433 864.332,424.44 z" id="boundary" inkscape:connector-curvature="0" />
	<path style="fill:none;stroke:red;stroke-width:1px;stroke-linecap:butt;stroke-linejoin:miter;stroke-opacity:1" d="M 834.407,431.922 849.37,427.433 z" id="boundary" inkscape:connector-curvature="0" />
	<path style="fill:none;stroke:red;stroke-width:1px;stroke-linecap:butt;stroke-linejoin:miter;stroke-opacity:1" d="M 877.798,416.959 864.332,424.44 z" id="boundary" inkscape:connector-curvature="0" />
	<path style="fill:none;stroke:red;stroke-width:1px;stroke-linecap:butt;stroke-linejoin:miter;stroke-opacity:1" d="M 877.798,416.959 892.76,413.967 z" id="boundary" inkscape:connector-curvature="0" />
	<path style="fill:none;stroke:red;stroke-width:1px;stroke-linecap:butt;stroke-linejoin:miter;stroke-opacity:1" d="M 789.52,442.395 804.483,439.403 z" id="boundary" inkscape:connector-curvature="0" />
	<path style="fill:none;stroke:red;stroke-width:1px;stroke-linecap:butt;stroke-linejoin:miter;stroke-opacity:1" d="M 804.483,439.403 819.445,434.914 z" id="boundary" inkscape:connector-curvature="0" />
	<path style="fill:none;stroke:red;stroke-width:1px;stroke-linecap:butt;stroke-linejoin:miter;stroke-opacity:1" d="M 834.407,431.922 819.445,434.914 z" id="boundary" inkscape:connector-curvature="0" />
	<path style="fill:none;stroke:red;stroke-width:1px;stroke-linecap:butt;stroke-linejoin:miter;stroke-opacity:1" d="M 948.121,387.035 963.083,387.035 z" id="boundary" inkscape:connector-curvature="0" />
	<path style="fill:none;stroke:red;stroke-width:1px;stroke-linecap:butt;stroke-linejoin:miter;stroke-opacity:1" d="M 937.647,399.005 948.121,387.035 z" id="boundary" inkscape:connector-curvature="0" />
	<path style="fill:none;stroke:red;stroke-width:1px;stroke-linecap:butt;stroke-linejoin:miter;stroke-opacity:1" d="M 993.008,357.11 990.015,376.561 z" id="boundary" inkscape:connector-curvature="0" />
	<path style="fill:none;stroke:red;stroke-width:1px;stroke-linecap:butt;stroke-linejoin:miter;stroke-opacity:1" d="M 907.722,406.486 892.76,413.967 z" id="boundary" inkscape:connector-curvature="0" />
	<path style="fill:none;stroke:red;stroke-width:1px;stroke-linecap:butt;stroke-linejoin:miter;stroke-opacity:1" d="M 990.015,376.561 978.045,387.035 z" id="boundary" inkscape:connector-curvature="0" />
	<path style="fill:none;stroke:red;stroke-width:1px;stroke-linecap:butt;stroke-linejoin:miter;stroke-opacity:1" d="M 978.045,387.035 963.083,387.035 z" id="boundary" inkscape:connector-curvature="0" />
	<path style="fill:none;stroke:red;stroke-width:1px;stroke-linecap:butt;stroke-linejoin:miter;stroke-opacity:1" d="M 922.685,401.997 937.647,399.005 z" id="boundary" inkscape:connector-curvature="0" />
	<path style="fill:none;stroke:red;stroke-width:1px;stroke-linecap:butt;stroke-linejoin:miter;stroke-opacity:1" d="M 922.685,401.997 907.722,406.486 z" id="boundary" inkscape:connector-curvature="0" />
	<path style="fill:none;stroke:red;stroke-width:1px;stroke-linecap:butt;stroke-linejoin:miter;stroke-opacity:1" d="M 550.124,553.116 542.643,538.154 z" id="boundary" inkscape:connector-curvature="0" />
	<path style="fill:none;stroke:red;stroke-width:1px;stroke-linecap:butt;stroke-linejoin:miter;stroke-opacity:1" d="M 557.605,568.078 550.124,553.116 z" id="boundary" inkscape:connector-curvature="0" />
	<path style="fill:none;stroke:red;stroke-width:1px;stroke-linecap:butt;stroke-linejoin:miter;stroke-opacity:1" d="M 530.673,557.605 542.643,566.582 z" id="boundary" inkscape:connector-curvature="0" />
	<path style="fill:none;stroke:red;stroke-width:1px;stroke-linecap:butt;stroke-linejoin:miter;stroke-opacity:1" d="M 542.643,566.582 542.643,581.544 z" id="boundary" inkscape:connector-curvature="0" />
	<path style="fill:none;stroke:red;stroke-width:1px;stroke-linecap:butt;stroke-linejoin:miter;stroke-opacity:1" d="M 557.605,568.078 559.101,583.041 z" id="boundary" inkscape:connector-curvature="0" />
	<path style="fill:none;stroke:red;stroke-width:1px;stroke-linecap:butt;stroke-linejoin:miter;stroke-opacity:1" d="M 542.643,581.544 535.161,606.98 z" id="boundary" inkscape:connector-curvature="0" />
	<path style="fill:none;stroke:red;stroke-width:1px;stroke-linecap:butt;stroke-linejoin:miter;stroke-opacity:1" d="M 542.643,538.154 536.658,520.199 z" id="boundary" inkscape:connector-curvature="0" />
	<path style="fill:none;stroke:red;stroke-width:1px;stroke-linecap:butt;stroke-linejoin:miter;stroke-opacity:1" d="M 618.95,506.733 633.913,506.733 z" id="boundary" inkscape:connector-curvature="0" />
	<path style="fill:none;stroke:red;stroke-width:1px;stroke-linecap:butt;stroke-linejoin:miter;stroke-opacity:1" d="M 633.913,506.733 647.379,514.214 z" id="boundary" inkscape:connector-curvature="0" />
	<path style="fill:none;stroke:red;stroke-width:1px;stroke-linecap:butt;stroke-linejoin:miter;stroke-opacity:1" d="M 660.845,521.695 647.379,514.214 z" id="boundary" inkscape:connector-curvature="0" />
	<path style="fill:none;stroke:red;stroke-width:1px;stroke-linecap:butt;stroke-linejoin:miter;stroke-opacity:1" d="M 566.582,596.507 559.101,583.041 z" id="boundary" inkscape:connector-curvature="0" />
	<path style="fill:none;stroke:red;stroke-width:1px;stroke-linecap:butt;stroke-linejoin:miter;stroke-opacity:1" d="M 660.845,521.695 671.318,533.665 z" id="boundary" inkscape:connector-curvature="0" />
	<path style="fill:none;stroke:red;stroke-width:1px;stroke-linecap:butt;stroke-linejoin:miter;stroke-opacity:1" d="M 677.303,548.627 677.303,563.59 z" id="boundary" inkscape:connector-curvature="0" />
	<path style="fill:none;stroke:red;stroke-width:1px;stroke-linecap:butt;stroke-linejoin:miter;stroke-opacity:1" d="M 671.318,533.665 677.303,548.627 z" id="boundary" inkscape:connector-curvature="0" />
	<path style="fill:none;stroke:red;stroke-width:1px;stroke-linecap:butt;stroke-linejoin:miter;stroke-opacity:1" d="M 544.139,648.875 544.139,663.837 z" id="boundary" inkscape:connector-curvature="0" />
	<path style="fill:none;stroke:red;stroke-width:1px;stroke-linecap:butt;stroke-linejoin:miter;stroke-opacity:1" d="M 551.62,633.913 544.139,648.875 z" id="boundary" inkscape:connector-curvature="0" />
	<path style="fill:none;stroke:red;stroke-width:1px;stroke-linecap:butt;stroke-linejoin:miter;stroke-opacity:1" d="M 544.139,663.837 536.658,686.281 z" id="boundary" inkscape:connector-curvature="0" />
	<path style="fill:none;stroke:red;stroke-width:1px;stroke-linecap:butt;stroke-linejoin:miter;stroke-opacity:1" d="M 529.176,723.686 529.176,738.649 z" id="boundary" inkscape:connector-curvature="0" />
	<path style="fill:none;stroke:red;stroke-width:1px;stroke-linecap:butt;stroke-linejoin:miter;stroke-opacity:1" d="M 529.176,723.686 536.658,701.243 z" id="boundary" inkscape:connector-curvature="0" />
	<path style="fill:none;stroke:red;stroke-width:1px;stroke-linecap:butt;stroke-linejoin:miter;stroke-opacity:1" d="M 536.658,701.243 536.658,686.281 z" id="boundary" inkscape:connector-curvature="0" />
	<path style="fill:none;stroke:red;stroke-width:1px;stroke-linecap:butt;stroke-linejoin:miter;stroke-opacity:1" d="M 527.68,629.424 535.161,606.98 z" id="boundary" inkscape:connector-curvature="0" />
	<path style="fill:none;stroke:red;stroke-width:1px;stroke-linecap:butt;stroke-linejoin:miter;stroke-opacity:1" d="M 551.62,633.913 559.101,611.469 z" id="boundary" inkscape:connector-curvature="0" />
	<path style="fill:none;stroke:red;stroke-width:1px;stroke-linecap:butt;stroke-linejoin:miter;stroke-opacity:1" d="M 559.101,611.469 566.582,596.507 z" id="boundary" inkscape:connector-curvature="0" />
	<path style="fill:none;stroke:red;stroke-width:1px;stroke-linecap:butt;stroke-linejoin:miter;stroke-opacity:1" d="M 671.318,755.107 659.348,767.077 z" id="boundary" inkscape:connector-curvature="0" />
	<path style="fill:none;stroke:red;stroke-width:1px;stroke-linecap:butt;stroke-linejoin:miter;stroke-opacity:1" d="M 647.379,779.047 659.348,767.077 z" id="boundary" inkscape:connector-curvature="0" />
	<path style="fill:none;stroke:red;stroke-width:1px;stroke-linecap:butt;stroke-linejoin:miter;stroke-opacity:1" d="M 662.341,783.535 647.379,779.047 z" id="boundary" inkscape:connector-curvature="0" />
	<path style="fill:none;stroke:red;stroke-width:1px;stroke-linecap:butt;stroke-linejoin:miter;stroke-opacity:1" d="M 662.341,783.535 675.807,791.017 z" id="boundary" inkscape:connector-curvature="0" />
	<path style="fill:none;stroke:red;stroke-width:1px;stroke-linecap:butt;stroke-linejoin:miter;stroke-opacity:1" d="M 690.769,788.024 675.807,791.017 z" id="boundary" inkscape:connector-curvature="0" />
	<path style="fill:none;stroke:red;stroke-width:1px;stroke-linecap:butt;stroke-linejoin:miter;stroke-opacity:1" d="M 677.303,563.59 677.303,578.552 z" id="boundary" inkscape:connector-curvature="0" />
	<path style="fill:none;stroke:red;stroke-width:1px;stroke-linecap:butt;stroke-linejoin:miter;stroke-opacity:1" d="M 686.281,520.199 698.25,529.176 z" id="boundary" inkscape:connector-curvature="0" />
	<path style="fill:none;stroke:red;stroke-width:1px;stroke-linecap:butt;stroke-linejoin:miter;stroke-opacity:1" d="M 678.799,506.733 686.281,520.199 z" id="boundary" inkscape:connector-curvature="0" />
	<path style="fill:none;stroke:red;stroke-width:1px;stroke-linecap:butt;stroke-linejoin:miter;stroke-opacity:1" d="M 677.303,593.514 677.303,578.552 z" id="boundary" inkscape:connector-curvature="0" />
	<path style="fill:none;stroke:red;stroke-width:1px;stroke-linecap:butt;stroke-linejoin:miter;stroke-opacity:1" d="M 677.303,593.514 677.303,608.477 z" id="boundary" inkscape:connector-curvature="0" />
	<path style="fill:none;stroke:red;stroke-width:1px;stroke-linecap:butt;stroke-linejoin:miter;stroke-opacity:1" d="M 684.784,621.943 677.303,608.477 z" id="boundary" inkscape:connector-curvature="0" />
	<path style="fill:none;stroke:red;stroke-width:1px;stroke-linecap:butt;stroke-linejoin:miter;stroke-opacity:1" d="M 684.784,621.943 684.784,636.905 z" id="boundary" inkscape:connector-curvature="0" />
	<path style="fill:none;stroke:red;stroke-width:1px;stroke-linecap:butt;stroke-linejoin:miter;stroke-opacity:1" d="M 684.784,636.905 684.784,651.867 z" id="boundary" inkscape:connector-curvature="0" />
	<path style="fill:none;stroke:red;stroke-width:1px;stroke-linecap:butt;stroke-linejoin:miter;stroke-opacity:1" d="M 693.762,551.62 693.762,566.582 z" id="boundary" inkscape:connector-curvature="0" />
	<path style="fill:none;stroke:red;stroke-width:1px;stroke-linecap:butt;stroke-linejoin:miter;stroke-opacity:1" d="M 693.762,551.62 698.25,529.176 z" id="boundary" inkscape:connector-curvature="0" />
	<path style="fill:none;stroke:red;stroke-width:1px;stroke-linecap:butt;stroke-linejoin:miter;stroke-opacity:1" d="M 701.243,595.011 693.762,581.544 z" id="boundary" inkscape:connector-curvature="0" />
	<path style="fill:none;stroke:red;stroke-width:1px;stroke-linecap:butt;stroke-linejoin:miter;stroke-opacity:1" d="M 693.762,581.544 693.762,566.582 z" id="boundary" inkscape:connector-curvature="0" />
	<path style="fill:none;stroke:red;stroke-width:1px;stroke-linecap:butt;stroke-linejoin:miter;stroke-opacity:1" d="M 701.243,595.011 701.243,609.973 z" id="boundary" inkscape:connector-curvature="0" />
	<path style="fill:none;stroke:red;stroke-width:1px;stroke-linecap:butt;stroke-linejoin:miter;stroke-opacity:1" d="M 701.243,624.935 701.243,639.897 z" id="boundary" inkscape:connector-curvature="0" />
	<path style="fill:none;stroke:red;stroke-width:1px;stroke-linecap:butt;stroke-linejoin:miter;stroke-opacity:1" d="M 708.724,653.363 701.243,639.897 z" id="boundary" inkscape:connector-curvature="0" />
	<path style="fill:none;stroke:red;stroke-width:1px;stroke-linecap:butt;stroke-linejoin:miter;stroke-opacity:1" d="M 701.243,624.935 701.243,609.973 z" id="boundary" inkscape:connector-curvature="0" />
	<path style="fill:none;stroke:red;stroke-width:1px;stroke-linecap:butt;stroke-linejoin:miter;stroke-opacity:1" d="M 692.265,680.296 684.784,666.83 z" id="boundary" inkscape:connector-curvature="0" />
	<path style="fill:none;stroke:red;stroke-width:1px;stroke-linecap:butt;stroke-linejoin:miter;stroke-opacity:1" d="M 692.265,680.296 692.265,695.258 z" id="boundary" inkscape:connector-curvature="0" />
	<path style="fill:none;stroke:red;stroke-width:1px;stroke-linecap:butt;stroke-linejoin:miter;stroke-opacity:1" d="M 684.784,666.83 684.784,651.867 z" id="boundary" inkscape:connector-curvature="0" />
	<path style="fill:none;stroke:red;stroke-width:1px;stroke-linecap:butt;stroke-linejoin:miter;stroke-opacity:1" d="M 692.265,695.258 692.265,710.22 z" id="boundary" inkscape:connector-curvature="0" />
	<path style="fill:none;stroke:red;stroke-width:1px;stroke-linecap:butt;stroke-linejoin:miter;stroke-opacity:1" d="M 671.318,755.107 683.288,744.633 z" id="boundary" inkscape:connector-curvature="0" />
	<path style="fill:none;stroke:red;stroke-width:1px;stroke-linecap:butt;stroke-linejoin:miter;stroke-opacity:1" d="M 701.243,768.573 690.769,788.024 z" id="boundary" inkscape:connector-curvature="0" />
	<path style="fill:none;stroke:red;stroke-width:1px;stroke-linecap:butt;stroke-linejoin:miter;stroke-opacity:1" d="M 692.265,710.22 692.265,725.183 z" id="boundary" inkscape:connector-curvature="0" />
	<path style="fill:none;stroke:red;stroke-width:1px;stroke-linecap:butt;stroke-linejoin:miter;stroke-opacity:1" d="M 692.265,725.183 683.288,744.633 z" id="boundary" inkscape:connector-curvature="0" />
	<path style="fill:none;stroke:red;stroke-width:1px;stroke-linecap:butt;stroke-linejoin:miter;stroke-opacity:1" d="M 708.724,668.326 708.724,683.288 z" id="boundary" inkscape:connector-curvature="0" />
	<path style="fill:none;stroke:red;stroke-width:1px;stroke-linecap:butt;stroke-linejoin:miter;stroke-opacity:1" d="M 708.724,668.326 708.724,653.363 z" id="boundary" inkscape:connector-curvature="0" />
	<path style="fill:none;stroke:red;stroke-width:1px;stroke-linecap:butt;stroke-linejoin:miter;stroke-opacity:1" d="M 716.205,696.754 716.205,711.716 z" id="boundary" inkscape:connector-curvature="0" />
	<path style="fill:none;stroke:red;stroke-width:1px;stroke-linecap:butt;stroke-linejoin:miter;stroke-opacity:1" d="M 716.205,696.754 708.724,683.288 z" id="boundary" inkscape:connector-curvature="0" />
	<path style="fill:none;stroke:red;stroke-width:1px;stroke-linecap:butt;stroke-linejoin:miter;stroke-opacity:1" d="M 701.243,768.573 708.724,753.611 z" id="boundary" inkscape:connector-curvature="0" />
	<path style="fill:none;stroke:red;stroke-width:1px;stroke-linecap:butt;stroke-linejoin:miter;stroke-opacity:1" d="M 716.205,726.679 708.724,753.611 z" id="boundary" inkscape:connector-curvature="0" />
	<path style="fill:none;stroke:red;stroke-width:1px;stroke-linecap:butt;stroke-linejoin:miter;stroke-opacity:1" d="M 716.205,726.679 716.205,711.716 z" id="boundary" inkscape:connector-curvature="0" />
	<circle cx="4" cy="217.961" r="4" fill="#0" id="circle0"/>
	<circle cx="11.4811" cy="195.517" r="4" fill="#0" id="circle1"/>
	<circle cx="15.9698" cy="228.434" r="4" fill="#0" id="circle2"/>
	<circle cx="23.451" cy="183.548" r="4" fill="#0" id="circle3"/>
	<circle cx="27.9397" cy="214.968" r="4" fill="#0" id="circle4"/>
	<circle cx="36.917" cy="176.066" r="4" fill="#0" id="circle5"/>
	<circle cx="39.9095" cy="204.495" r="4" fill="#0" id="circle6"/>
	<circle cx="48.8869" cy="165.593" r="4" fill="#0" id="circle7"/>
	<circle cx="48.8869" cy="192.525" r="4" fill="#0" id="circle8"/>
	<circle cx="60.8567" cy="153.623" r="4" fill="#0" id="circle9"/>
	<circle cx="60.8567" cy="183.548" r="4" fill="#0" id="circle10"/>
	<circle cx="68.3379" cy="170.081" r="4" fill="#0" id="circle11"/>
	<circle cx="74.3228" cy="146.142" r="4" fill="#0" id="circle12"/>
	<circle cx="81.8039" cy="162.6" r="4" fill="#0" id="circle13"/>
	<circle cx="87.7888" cy="138.661" r="4" fill="#0" id="circle14"/>
	<circle cx="95.27" cy="155.119" r="4" fill="#0" id="circle15"/>
	<circle cx="101.255" cy="128.187" r="4" fill="#0" id="circle16"/>
	<circle cx="107.24" cy="144.646" r="4" fill="#0" id="circle17"/>
	<circle cx="116.217" cy="120.706" r="4" fill="#0" id="circle18"/>
	<circle cx="122.202" cy="137.164" r="4" fill="#0" id="circle19"/>
	<circle cx="128.187" cy="108.736" r="4" fill="#0" id="circle20"/>
	<circle cx="137.164" cy="129.683" r="4" fill="#0" id="circle21"/>
	<circle cx="143.149" cy="101.255" r="4" fill="#0" id="circle22"/>
	<circle cx="152.127" cy="122.202" r="4" fill="#0" id="circle23"/>
	<circle cx="158.112" cy="101.255" r="4" fill="#0" id="circle24"/>
	<circle cx="167.089" cy="117.713" r="4" fill="#0" id="circle25"/>
	<circle cx="170.081" cy="89.2851" r="4" fill="#0" id="circle26"/>
	<circle cx="180.555" cy="110.232" r="4" fill="#0" id="circle27"/>
	<circle cx="185.044" cy="81.8039" r="4" fill="#0" id="circle28"/>
	<circle cx="195.517" cy="108.736" r="4" fill="#0" id="circle29"/>
	<circle cx="200.006" cy="78.8115" r="4" fill="#0" id="circle30"/>
	<circle cx="210.48" cy="102.751" r="4" fill="#0" id="circle31"/>
	<circle cx="213.472" cy="53.3756" r="4" fill="#0" id="circle32"/>
	<circle cx="213.472" cy="68.3379" r="4" fill="#0" id="circle33"/>
	<circle cx="220.953" cy="30.9321" r="4" fill="#0" id="circle34"/>
	<circle cx="225.442" cy="102.751" r="4" fill="#0" id="circle35"/>
	<circle cx="232.923" cy="18.9623" r="4" fill="#0" id="circle36"/>
	<circle cx="238.908" cy="110.232" r="4" fill="#0" id="circle37"/>
	<circle cx="244.893" cy="6.99246" r="4" fill="#0" id="circle38"/>
	<circle cx="253.87" cy="114.721" r="4" fill="#0" id="circle39"/>
	<circle cx="258.359" cy="180.555" r="4" fill="#0" id="circle40"/>
	<circle cx="258.359" cy="195.517" r="4" fill="#0" id="circle41"/>
	<circle cx="259.855" cy="4" r="4" fill="#0" id="circle42"/>
	<circle cx="265.84" cy="125.195" r="4" fill="#0" id="circle43"/>
	<circle cx="265.84" cy="140.157" r="4" fill="#0" id="circle44"/>
	<circle cx="265.84" cy="155.119" r="4" fill="#0" id="circle45"/>
	<circle cx="265.84" cy="208.983" r="4" fill="#0" id="circle46"/>
	<circle cx="265.84" cy="223.946" r="4" fill="#0" id="circle47"/>
	<circle cx="265.84" cy="238.908" r="4" fill="#0" id="circle48"/>
	<circle cx="273.321" cy="252.374" r="4" fill="#0" id="circle49"/>
	<circle cx="274.817" cy="4" r="4" fill="#0" id="circle50"/>
	<circle cx="280.802" cy="265.84" r="4" fill="#0" id="circle51"/>
	<circle cx="283.795" cy="280.802" r="4" fill="#0" id="circle52"/>
	<circle cx="288.284" cy="295.765" r="4" fill="#0" id="circle53"/>
	<circle cx="289.78" cy="4" r="4" fill="#0" id="circle54"/>
	<circle cx="295.765" cy="309.231" r="4" fill="#0" id="circle55"/>
	<circle cx="303.246" cy="322.697" r="4" fill="#0" id="circle56"/>
	<circle cx="304.742" cy="8.48869" r="4" fill="#0" id="circle57"/>
	<circle cx="310.727" cy="336.163" r="4" fill="#0" id="circle58"/>
	<circle cx="318.208" cy="15.9698" r="4" fill="#0" id="circle59"/>
	<circle cx="318.208" cy="349.629" r="4" fill="#0" id="circle60"/>
	<circle cx="327.186" cy="361.599" r="4" fill="#0" id="circle61"/>
	<circle cx="330.178" cy="26.4434" r="4" fill="#0" id="circle62"/>
	<circle cx="334.667" cy="375.065" r="4" fill="#0" id="circle63"/>
	<circle cx="340.652" cy="38.4133" r="4" fill="#0" id="circle64"/>
	<circle cx="342.148" cy="53.3756" r="4" fill="#0" id="circle65"/>
	<circle cx="348.133" cy="382.546" r="4" fill="#0" id="circle66"/>
	<circle cx="349.629" cy="66.8416" r="4" fill="#0" id="circle67"/>
	<circle cx="349.629" cy="81.8039" r="4" fill="#0" id="circle68"/>
	<circle cx="355.614" cy="396.012" r="4" fill="#0" id="circle69"/>
	<circle cx="357.11" cy="95.27" r="4" fill="#0" id="circle70"/>
	<circle cx="357.11" cy="110.232" r="4" fill="#0" id="circle71"/>
	<circle cx="360.103" cy="125.195" r="4" fill="#0" id="circle72"/>
	<circle cx="364.591" cy="140.157" r="4" fill="#0" id="circle73"/>
	<circle cx="366.087" cy="407.982" r="4" fill="#0" id="circle74"/>
	<circle cx="372.072" cy="153.623" r="4" fill="#0" id="circle75"/>
	<circle cx="372.072" cy="168.585" r="4" fill="#0" id="circle76"/>
	<circle cx="378.057" cy="416.959" r="4" fill="#0" id="circle77"/>
	<circle cx="379.554" cy="182.051" r="4" fill="#0" id="circle78"/>
	<circle cx="387.035" cy="428.929" r="4" fill="#0" id="circle79"/>
	<circle cx="394.516" cy="188.036" r="4" fill="#0" id="circle80"/>
	<circle cx="401.997" cy="434.914" r="4" fill="#0" id="circle81"/>
	<circle cx="407.982" cy="195.517" r="4" fill="#0" id="circle82"/>
	<circle cx="412.471" cy="446.884" r="4" fill="#0" id="circle83"/>
	<circle cx="422.944" cy="198.51" r="4" fill="#0" id="circle84"/>
	<circle cx="427.433" cy="452.869" r="4" fill="#0" id="circle85"/>
	<circle cx="437.906" cy="201.502" r="4" fill="#0" id="circle86"/>
	<circle cx="437.906" cy="464.839" r="4" fill="#0" id="circle87"/>
	<circle cx="445.388" cy="779.047" r="4" fill="#0" id="circle88"/>
	<circle cx="452.869" cy="205.991" r="4" fill="#0" id="circle89"/>
	<circle cx="452.869" cy="469.327" r="4" fill="#0" id="circle90"/>
	<circle cx="454.365" cy="791.017" r="4" fill="#0" id="circle91"/>
	<circle cx="460.35" cy="774.558" r="4" fill="#0" id="circle92"/>
	<circle cx="466.335" cy="476.808" r="4" fill="#0" id="circle93"/>
	<circle cx="467.831" cy="205.991" r="4" fill="#0" id="circle94"/>
	<circle cx="469.327" cy="794.009" r="4" fill="#0" id="circle95"/>
	<circle cx="473.816" cy="767.077" r="4" fill="#0" id="circle96"/>
	<circle cx="479.801" cy="484.29" r="4" fill="#0" id="circle97"/>
	<circle cx="482.793" cy="205.991" r="4" fill="#0" id="circle98"/>
	<circle cx="484.29" cy="755.107" r="4" fill="#0" id="circle99"/>
	<circle cx="484.29" cy="791.017" r="4" fill="#0" id="circle100"/>
	<circle cx="494.763" cy="490.275" r="4" fill="#0" id="circle101"/>
	<circle cx="497.756" cy="205.991" r="4" fill="#0" id="circle102"/>
	<circle cx="499.252" cy="747.626" r="4" fill="#0" id="circle103"/>
	<circle cx="499.252" cy="783.535" r="4" fill="#0" id="circle104"/>
	<circle cx="500.748" cy="505.237" r="4" fill="#0" id="circle105"/>
	<circle cx="505.237" cy="726.679" r="4" fill="#0" id="circle106"/>
	<circle cx="508.229" cy="518.703" r="4" fill="#0" id="circle107"/>
	<circle cx="511.222" cy="773.062" r="4" fill="#0" id="circle108"/>
	<circle cx="512.718" cy="205.991" r="4" fill="#0" id="circle109"/>
	<circle cx="517.207" cy="714.709" r="4" fill="#0" id="circle110"/>
	<circle cx="518.703" cy="758.1" r="4" fill="#0" id="circle111"/>
	<circle cx="520.199" cy="529.176" r="4" fill="#0" id="circle112"/>
	<circle cx="520.199" cy="674.311" r="4" fill="#0" id="circle113"/>
	<circle cx="520.199" cy="689.273" r="4" fill="#0" id="circle114"/>
	<circle cx="527.68" cy="205.991" r="4" fill="#0" id="circle115"/>
	<circle cx="527.68" cy="542.643" r="4" fill="#0" id="circle116"/>
	<circle cx="527.68" cy="629.424" r="4" fill="#0" id="circle117"/>
	<circle cx="527.68" cy="644.386" r="4" fill="#0" id="circle118"/>
	<circle cx="527.68" cy="659.348" r="4" fill="#0" id="circle119"/>
	<circle cx="529.176" cy="506.733" r="4" fill="#0" id="circle120"/>
	<circle cx="529.176" cy="723.686" r="4" fill="#0" id="circle121"/>
	<circle cx="529.176" cy="738.649" r="4" fill="#0" id="circle122"/>
	<circle cx="530.673" cy="557.605" r="4" fill="#0" id="circle123"/>
	<circle cx="535.161" cy="606.98" r="4" fill="#0" id="circle124"/>
	<circle cx="536.658" cy="520.199" r="4" fill="#0" id="circle125"/>
	<circle cx="536.658" cy="686.281" r="4" fill="#0" id="circle126"/>
	<circle cx="536.658" cy="701.243" r="4" fill="#0" id="circle127"/>
	<circle cx="542.643" cy="205.991" r="4" fill="#0" id="circle128"/>
	<circle cx="542.643" cy="538.154" r="4" fill="#0" id="circle129"/>
	<circle cx="542.643" cy="566.582" r="4" fill="#0" id="circle130"/>
	<circle cx="542.643" cy="581.544" r="4" fill="#0" id="circle131"/>
	<circle cx="544.139" cy="499.252" r="4" fill="#0" id="circle132"/>
	<circle cx="544.139" cy="648.875" r="4" fill="#0" id="circle133"/>
	<circle cx="544.139" cy="663.837" r="4" fill="#0" id="circle134"/>
	<circle cx="550.124" cy="553.116" r="4" fill="#0" id="circle135"/>
	<circle cx="551.62" cy="633.913" r="4" fill="#0" id="circle136"/>
	<circle cx="557.605" cy="205.991" r="4" fill="#0" id="circle137"/>
	<circle cx="557.605" cy="568.078" r="4" fill="#0" id="circle138"/>
	<circle cx="559.101" cy="502.244" r="4" fill="#0" id="circle139"/>
	<circle cx="559.101" cy="583.041" r="4" fill="#0" id="circle140"/>
	<circle cx="559.101" cy="611.469" r="4" fill="#0" id="circle141"/>
	<circle cx="566.582" cy="596.507" r="4" fill="#0" id="circle142"/>
	<circle cx="571.071" cy="213.472" r="4" fill="#0" id="circle143"/>
	<circle cx="574.063" cy="506.733" r="4" fill="#0" id="circle144"/>
	<circle cx="586.033" cy="214.968" r="4" fill="#0" id="circle145"/>
	<circle cx="589.026" cy="506.733" r="4" fill="#0" id="circle146"/>
	<circle cx="600.995" cy="220.953" r="4" fill="#0" id="circle147"/>
	<circle cx="603.988" cy="506.733" r="4" fill="#0" id="circle148"/>
	<circle cx="615.958" cy="220.953" r="4" fill="#0" id="circle149"/>
	<circle cx="618.95" cy="506.733" r="4" fill="#0" id="circle150"/>
	<circle cx="630.92" cy="220.953" r="4" fill="#0" id="circle151"/>
	<circle cx="633.913" cy="506.733" r="4" fill="#0" id="circle152"/>
	<circle cx="644.386" cy="228.434" r="4" fill="#0" id="circle153"/>
	<circle cx="647.379" cy="514.214" r="4" fill="#0" id="circle154"/>
	<circle cx="647.379" cy="779.047" r="4" fill="#0" id="circle155"/>
	<circle cx="659.348" cy="228.434" r="4" fill="#0" id="circle156"/>
	<circle cx="659.348" cy="767.077" r="4" fill="#0" id="circle157"/>
	<circle cx="660.845" cy="521.695" r="4" fill="#0" id="circle158"/>
	<circle cx="662.341" cy="783.535" r="4" fill="#0" id="circle159"/>
	<circle cx="671.318" cy="533.665" r="4" fill="#0" id="circle160"/>
	<circle cx="671.318" cy="755.107" r="4" fill="#0" id="circle161"/>
	<circle cx="672.814" cy="235.916" r="4" fill="#0" id="circle162"/>
	<circle cx="675.807" cy="791.017" r="4" fill="#0" id="circle163"/>
	<circle cx="677.303" cy="548.627" r="4" fill="#0" id="circle164"/>
	<circle cx="677.303" cy="563.59" r="4" fill="#0" id="circle165"/>
	<circle cx="677.303" cy="578.552" r="4" fill="#0" id="circle166"/>
	<circle cx="677.303" cy="593.514" r="4" fill="#0" id="circle167"/>
	<circle cx="677.303" cy="608.477" r="4" fill="#0" id="circle168"/>
	<circle cx="678.799" cy="506.733" r="4" fill="#0" id="circle169"/>
	<circle cx="683.288" cy="744.633" r="4" fill="#0" id="circle170"/>
	<circle cx="684.784" cy="246.389" r="4" fill="#0" id="circle171"/>
	<circle cx="684.784" cy="621.943" r="4" fill="#0" id="circle172"/>
	<circle cx="684.784" cy="636.905" r="4" fill="#0" id="circle173"/>
	<circle cx="684.784" cy="651.867" r="4" fill="#0" id="circle174"/>
	<circle cx="684.784" cy="666.83" r="4" fill="#0" id="circle175"/>
	<circle cx="686.281" cy="520.199" r="4" fill="#0" id="circle176"/>
	<circle cx="690.769" cy="788.024" r="4" fill="#0" id="circle177"/>
	<circle cx="692.265" cy="680.296" r="4" fill="#0" id="circle178"/>
	<circle cx="692.265" cy="695.258" r="4" fill="#0" id="circle179"/>
	<circle cx="692.265" cy="710.22" r="4" fill="#0" id="circle180"/>
	<circle cx="692.265" cy="725.183" r="4" fill="#0" id="circle181"/>
	<circle cx="693.762" cy="499.252" r="4" fill="#0" id="circle182"/>
	<circle cx="693.762" cy="551.62" r="4" fill="#0" id="circle183"/>
	<circle cx="693.762" cy="566.582" r="4" fill="#0" id="circle184"/>
	<circle cx="693.762" cy="581.544" r="4" fill="#0" id="circle185"/>
	<circle cx="698.25" cy="529.176" r="4" fill="#0" id="circle186"/>
	<circle cx="699.747" cy="250.878" r="4" fill="#0" id="circle187"/>
	<circle cx="701.243" cy="595.011" r="4" fill="#0" id="circle188"/>
	<circle cx="701.243" cy="609.973" r="4" fill="#0" id="circle189"/>
	<circle cx="701.243" cy="624.935" r="4" fill="#0" id="circle190"/>
	<circle cx="701.243" cy="639.897" r="4" fill="#0" id="circle191"/>
	<circle cx="701.243" cy="768.573" r="4" fill="#0" id="circle192"/>
	<circle cx="705.732" cy="488.778" r="4" fill="#0" id="circle193"/>
	<circle cx="708.724" cy="653.363" r="4" fill="#0" id="circle194"/>
	<circle cx="708.724" cy="668.326" r="4" fill="#0" id="circle195"/>
	<circle cx="708.724" cy="683.288" r="4" fill="#0" id="circle196"/>
	<circle cx="708.724" cy="753.611" r="4" fill="#0" id="circle197"/>
	<circle cx="713.213" cy="258.359" r="4" fill="#0" id="circle198"/>
	<circle cx="716.205" cy="476.808" r="4" fill="#0" id="circle199"/>
	<circle cx="716.205" cy="696.754" r="4" fill="#0" id="circle200"/>
	<circle cx="716.205" cy="711.716" r="4" fill="#0" id="circle201"/>
	<circle cx="716.205" cy="726.679" r="4" fill="#0" id="circle202"/>
	<circle cx="726.679" cy="265.84" r="4" fill="#0" id="circle203"/>
	<circle cx="731.167" cy="469.327" r="4" fill="#0" id="circle204"/>
	<circle cx="741.641" cy="265.84" r="4" fill="#0" id="circle205"/>
	<circle cx="744.633" cy="461.846" r="4" fill="#0" id="circle206"/>
	<circle cx="755.107" cy="273.321" r="4" fill="#0" id="circle207"/>
	<circle cx="759.596" cy="457.357" r="4" fill="#0" id="circle208"/>
	<circle cx="768.573" cy="280.802" r="4" fill="#0" id="circle209"/>
	<circle cx="774.558" cy="449.876" r="4" fill="#0" id="circle210"/>
	<circle cx="782.039" cy="288.284" r="4" fill="#0" id="circle211"/>
	<circle cx="789.52" cy="442.395" r="4" fill="#0" id="circle212"/>
	<circle cx="795.505" cy="295.765" r="4" fill="#0" id="circle213"/>
	<circle cx="804.483" cy="439.403" r="4" fill="#0" id="circle214"/>
	<circle cx="810.468" cy="297.261" r="4" fill="#0" id="circle215"/>
	<circle cx="819.445" cy="434.914" r="4" fill="#0" id="circle216"/>
	<circle cx="820.941" cy="309.231" r="4" fill="#0" id="circle217"/>
	<circle cx="834.407" cy="431.922" r="4" fill="#0" id="circle218"/>
	<circle cx="835.903" cy="310.727" r="4" fill="#0" id="circle219"/>
	<circle cx="849.37" cy="318.208" r="4" fill="#0" id="circle220"/>
	<circle cx="849.37" cy="427.433" r="4" fill="#0" id="circle221"/>
	<circle cx="864.332" cy="318.208" r="4" fill="#0" id="circle222"/>
	<circle cx="864.332" cy="424.44" r="4" fill="#0" id="circle223"/>
	<circle cx="877.798" cy="325.689" r="4" fill="#0" id="circle224"/>
	<circle cx="877.798" cy="416.959" r="4" fill="#0" id="circle225"/>
	<circle cx="892.76" cy="325.689" r="4" fill="#0" id="circle226"/>
	<circle cx="892.76" cy="413.967" r="4" fill="#0" id="circle227"/>
	<circle cx="906.226" cy="333.17" r="4" fill="#0" id="circle228"/>
	<circle cx="907.722" cy="406.486" r="4" fill="#0" id="circle229"/>
	<circle cx="921.189" cy="333.17" r="4" fill="#0" id="circle230"/>
	<circle cx="922.685" cy="401.997" r="4" fill="#0" id="circle231"/>
	<circle cx="936.151" cy="333.17" r="4" fill="#0" id="circle232"/>
	<circle cx="937.647" cy="399.005" r="4" fill="#0" id="circle233"/>
	<circle cx="948.121" cy="387.035" r="4" fill="#0" id="circle234"/>
	<circle cx="951.113" cy="333.17" r="4" fill="#0" id="circle235"/>
	<circle cx="963.083" cy="387.035" r="4" fill="#0" id="circle236"/>
	<circle cx="966.075" cy="333.17" r="4" fill="#0" id="circle237"/>
	<circle cx="978.045" cy="387.035" r="4" fill="#0" id="circle238"/>
	<circle cx="981.038" cy="333.17" r="4" fill="#0" id="circle239"/>
	<circle cx="990.015" cy="376.561" r="4" fill="#0" id="circle240"/>
	<circle cx="993.008" cy="357.11" r="4" fill="#0" id="circle241"/>
	<circle cx="996" cy="333.17" r="4" fill="#0" id="circle242"/>
	</g>
</svg>