<?xml version="1.0" encoding="UTF-8" standalone="no"?>
<!-- Created with CurveBenchmark -->
<svg
	xmlns:dc="http://purl.org/dc/elements/1.1/"
	xmlns:cc="http://creativecommons.org/ns#"
	xmlns:rdf="http://www.w3.org/1999/02/22-rdf-syntax-ns#"
	xmlns:svg="http://www.w3.org/2000/svg"
	xmlns="http://www.w3.org/2000/svg"
	xmlns:sodipodi="http://sodipodi.sourceforge.net/DTD/sodipodi-0.dtd"
	xmlns:inkscape="http://www.inkscape.org/namespaces/inkscape"
	width="1000"
	height="1000"
	id="svg2"
	version="1.1"
	sodipodi:docname="manifold/gathan1-fish-14.png.txt">
<defs
	id="defs4" />
<metadata
	id="metadata7">
	<rdf:RDF>
		<cc:Work
			rdf:about="">
			<dc:format>image/svg+xml</dc:format>
			<dc:type
				rdf:resource="http://purl.org/dc/dcmitype/StillImage" />
			<dc:title></dc:title>
		</cc:Work>
	</rdf:RDF>
</metadata>
<g
	inkscape:label="Layer 1"
	inkscape:groupmode="layer"
	id="layer1">
	<path style="fill:none;stroke:red;stroke-width:1px;stroke-linecap:butt;stroke-linejoin:miter;stroke-opacity:1" d="M 52.5547,95.0401 45.811,95.0401 z" id="boundary" inkscape:connector-curvature="0" />
	<path style="fill:none;stroke:red;stroke-width:1px;stroke-linecap:butt;stroke-linejoin:miter;stroke-opacity:1" d="M 58.6241,91.6683 52.5547,95.0401 z" id="boundary" inkscape:connector-curvature="0" />
	<path style="fill:none;stroke:red;stroke-width:1px;stroke-linecap:butt;stroke-linejoin:miter;stroke-opacity:1" d="M 65.3678,91.6683 72.1115,91.6683 z" id="boundary" inkscape:connector-curvature="0" />
	<path style="fill:none;stroke:red;stroke-width:1px;stroke-linecap:butt;stroke-linejoin:miter;stroke-opacity:1" d="M 72.1115,91.6683 78.8552,93.6914 z" id="boundary" inkscape:connector-curvature="0" />
	<path style="fill:none;stroke:red;stroke-width:1px;stroke-linecap:butt;stroke-linejoin:miter;stroke-opacity:1" d="M 58.6241,91.6683 65.3678,91.6683 z" id="boundary" inkscape:connector-curvature="0" />
	<path style="fill:none;stroke:red;stroke-width:1px;stroke-linecap:butt;stroke-linejoin:miter;stroke-opacity:1" d="M 27.603,107.179 32.998,101.784 z" id="boundary" inkscape:connector-curvature="0" />
	<path style="fill:none;stroke:red;stroke-width:1px;stroke-linecap:butt;stroke-linejoin:miter;stroke-opacity:1" d="M 32.998,101.784 39.7417,98.412 z" id="boundary" inkscape:connector-curvature="0" />
	<path style="fill:none;stroke:red;stroke-width:1px;stroke-linecap:butt;stroke-linejoin:miter;stroke-opacity:1" d="M 45.811,95.0401 39.7417,98.412 z" id="boundary" inkscape:connector-curvature="0" />
	<path style="fill:none;stroke:red;stroke-width:1px;stroke-linecap:butt;stroke-linejoin:miter;stroke-opacity:1" d="M 78.8552,93.6914 85.5989,95.0401 z" id="boundary" inkscape:connector-curvature="0" />
	<path style="fill:none;stroke:red;stroke-width:1px;stroke-linecap:butt;stroke-linejoin:miter;stroke-opacity:1" d="M 92.3426,95.0401 85.5989,95.0401 z" id="boundary" inkscape:connector-curvature="0" />
	<path style="fill:none;stroke:red;stroke-width:1px;stroke-linecap:butt;stroke-linejoin:miter;stroke-opacity:1" d="M 99.0863,95.0401 92.3426,95.0401 z" id="boundary" inkscape:connector-curvature="0" />
	<path style="fill:none;stroke:red;stroke-width:1px;stroke-linecap:butt;stroke-linejoin:miter;stroke-opacity:1" d="M 99.0863,95.0401 105.83,97.0632 z" id="boundary" inkscape:connector-curvature="0" />
	<path style="fill:none;stroke:red;stroke-width:1px;stroke-linecap:butt;stroke-linejoin:miter;stroke-opacity:1" d="M 176.639,88.2964 182.708,84.9245 z" id="boundary" inkscape:connector-curvature="0" />
	<path style="fill:none;stroke:red;stroke-width:1px;stroke-linecap:butt;stroke-linejoin:miter;stroke-opacity:1" d="M 182.708,84.9245 189.452,84.9245 z" id="boundary" inkscape:connector-curvature="0" />
	<path style="fill:none;stroke:red;stroke-width:1px;stroke-linecap:butt;stroke-linejoin:miter;stroke-opacity:1" d="M 189.452,84.9245 195.521,81.5527 z" id="boundary" inkscape:connector-curvature="0" />
	<path style="fill:none;stroke:red;stroke-width:1px;stroke-linecap:butt;stroke-linejoin:miter;stroke-opacity:1" d="M 195.521,81.5527 202.265,81.5527 z" id="boundary" inkscape:connector-curvature="0" />
	<path style="fill:none;stroke:red;stroke-width:1px;stroke-linecap:butt;stroke-linejoin:miter;stroke-opacity:1" d="M 208.334,78.1808 202.265,81.5527 z" id="boundary" inkscape:connector-curvature="0" />
	<path style="fill:none;stroke:red;stroke-width:1px;stroke-linecap:butt;stroke-linejoin:miter;stroke-opacity:1" d="M 170.57,91.6683 176.639,88.2964 z" id="boundary" inkscape:connector-curvature="0" />
	<path style="fill:none;stroke:red;stroke-width:1px;stroke-linecap:butt;stroke-linejoin:miter;stroke-opacity:1" d="M 105.83,97.0632 112.574,98.412 z" id="boundary" inkscape:connector-curvature="0" />
	<path style="fill:none;stroke:red;stroke-width:1px;stroke-linecap:butt;stroke-linejoin:miter;stroke-opacity:1" d="M 112.574,98.412 118.643,101.784 z" id="boundary" inkscape:connector-curvature="0" />
	<path style="fill:none;stroke:red;stroke-width:1px;stroke-linecap:butt;stroke-linejoin:miter;stroke-opacity:1" d="M 125.387,103.133 118.643,101.784 z" id="boundary" inkscape:connector-curvature="0" />
	<path style="fill:none;stroke:red;stroke-width:1px;stroke-linecap:butt;stroke-linejoin:miter;stroke-opacity:1" d="M 159.105,107.179 159.105,100.435 z" id="boundary" inkscape:connector-curvature="0" />
	<path style="fill:none;stroke:red;stroke-width:1px;stroke-linecap:butt;stroke-linejoin:miter;stroke-opacity:1" d="M 159.105,100.435 164.5,95.0401 z" id="boundary" inkscape:connector-curvature="0" />
	<path style="fill:none;stroke:red;stroke-width:1px;stroke-linecap:butt;stroke-linejoin:miter;stroke-opacity:1" d="M 170.57,91.6683 164.5,95.0401 z" id="boundary" inkscape:connector-curvature="0" />
	<path style="fill:none;stroke:red;stroke-width:1px;stroke-linecap:butt;stroke-linejoin:miter;stroke-opacity:1" d="M 4,140.897 4,134.154 z" id="boundary" inkscape:connector-curvature="0" />
	<path style="fill:none;stroke:red;stroke-width:1px;stroke-linecap:butt;stroke-linejoin:miter;stroke-opacity:1" d="M 4,134.154 7.37186,127.41 z" id="boundary" inkscape:connector-curvature="0" />
	<path style="fill:none;stroke:red;stroke-width:1px;stroke-linecap:butt;stroke-linejoin:miter;stroke-opacity:1" d="M 4,154.385 4,147.641 z" id="boundary" inkscape:connector-curvature="0" />
	<path style="fill:none;stroke:red;stroke-width:1px;stroke-linecap:butt;stroke-linejoin:miter;stroke-opacity:1" d="M 4,147.641 4,140.897 z" id="boundary" inkscape:connector-curvature="0" />
	<path style="fill:none;stroke:red;stroke-width:1px;stroke-linecap:butt;stroke-linejoin:miter;stroke-opacity:1" d="M 4,167.872 4,161.128 z" id="boundary" inkscape:connector-curvature="0" />
	<path style="fill:none;stroke:red;stroke-width:1px;stroke-linecap:butt;stroke-linejoin:miter;stroke-opacity:1" d="M 4,174.616 4,167.872 z" id="boundary" inkscape:connector-curvature="0" />
	<path style="fill:none;stroke:red;stroke-width:1px;stroke-linecap:butt;stroke-linejoin:miter;stroke-opacity:1" d="M 7.37186,180.685 4,174.616 z" id="boundary" inkscape:connector-curvature="0" />
	<path style="fill:none;stroke:red;stroke-width:1px;stroke-linecap:butt;stroke-linejoin:miter;stroke-opacity:1" d="M 7.37186,180.685 7.37186,187.429 z" id="boundary" inkscape:connector-curvature="0" />
	<path style="fill:none;stroke:red;stroke-width:1px;stroke-linecap:butt;stroke-linejoin:miter;stroke-opacity:1" d="M 7.37186,194.173 7.37186,187.429 z" id="boundary" inkscape:connector-curvature="0" />
	<path style="fill:none;stroke:red;stroke-width:1px;stroke-linecap:butt;stroke-linejoin:miter;stroke-opacity:1" d="M 4,161.128 4,154.385 z" id="boundary" inkscape:connector-curvature="0" />
	<path style="fill:none;stroke:red;stroke-width:1px;stroke-linecap:butt;stroke-linejoin:miter;stroke-opacity:1" d="M 7.37186,194.173 7.37186,200.916 z" id="boundary" inkscape:connector-curvature="0" />
	<path style="fill:none;stroke:red;stroke-width:1px;stroke-linecap:butt;stroke-linejoin:miter;stroke-opacity:1" d="M 125.387,103.133 129.433,108.528 z" id="boundary" inkscape:connector-curvature="0" />
	<path style="fill:none;stroke:red;stroke-width:1px;stroke-linecap:butt;stroke-linejoin:miter;stroke-opacity:1" d="M 136.177,108.528 129.433,108.528 z" id="boundary" inkscape:connector-curvature="0" />
	<path style="fill:none;stroke:red;stroke-width:1px;stroke-linecap:butt;stroke-linejoin:miter;stroke-opacity:1" d="M 142.246,111.899 136.177,108.528 z" id="boundary" inkscape:connector-curvature="0" />
	<path style="fill:none;stroke:red;stroke-width:1px;stroke-linecap:butt;stroke-linejoin:miter;stroke-opacity:1" d="M 20.8593,110.551 17.4874,117.294 z" id="boundary" inkscape:connector-curvature="0" />
	<path style="fill:none;stroke:red;stroke-width:1px;stroke-linecap:butt;stroke-linejoin:miter;stroke-opacity:1" d="M 17.4874,117.294 10.7437,120.666 z" id="boundary" inkscape:connector-curvature="0" />
	<path style="fill:none;stroke:red;stroke-width:1px;stroke-linecap:butt;stroke-linejoin:miter;stroke-opacity:1" d="M 20.8593,110.551 27.603,107.179 z" id="boundary" inkscape:connector-curvature="0" />
	<path style="fill:none;stroke:red;stroke-width:1px;stroke-linecap:butt;stroke-linejoin:miter;stroke-opacity:1" d="M 148.315,115.271 142.246,111.899 z" id="boundary" inkscape:connector-curvature="0" />
	<path style="fill:none;stroke:red;stroke-width:1px;stroke-linecap:butt;stroke-linejoin:miter;stroke-opacity:1" d="M 154.385,118.643 148.315,115.271 z" id="boundary" inkscape:connector-curvature="0" />
	<path style="fill:none;stroke:red;stroke-width:1px;stroke-linecap:butt;stroke-linejoin:miter;stroke-opacity:1" d="M 159.105,107.179 154.385,118.643 z" id="boundary" inkscape:connector-curvature="0" />
	<path style="fill:none;stroke:red;stroke-width:1px;stroke-linecap:butt;stroke-linejoin:miter;stroke-opacity:1" d="M 7.37186,127.41 10.7437,120.666 z" id="boundary" inkscape:connector-curvature="0" />
	<path style="fill:none;stroke:red;stroke-width:1px;stroke-linecap:butt;stroke-linejoin:miter;stroke-opacity:1" d="M 378.95,37.7186 385.694,37.7186 z" id="boundary" inkscape:connector-curvature="0" />
	<path style="fill:none;stroke:red;stroke-width:1px;stroke-linecap:butt;stroke-linejoin:miter;stroke-opacity:1" d="M 372.207,39.0673 378.95,37.7186 z" id="boundary" inkscape:connector-curvature="0" />
	<path style="fill:none;stroke:red;stroke-width:1px;stroke-linecap:butt;stroke-linejoin:miter;stroke-opacity:1" d="M 398.507,34.3467 392.438,37.7186 z" id="boundary" inkscape:connector-curvature="0" />
	<path style="fill:none;stroke:red;stroke-width:1px;stroke-linecap:butt;stroke-linejoin:miter;stroke-opacity:1" d="M 392.438,37.7186 385.694,37.7186 z" id="boundary" inkscape:connector-curvature="0" />
	<path style="fill:none;stroke:red;stroke-width:1px;stroke-linecap:butt;stroke-linejoin:miter;stroke-opacity:1" d="M 405.251,34.3467 398.507,34.3467 z" id="boundary" inkscape:connector-curvature="0" />
	<path style="fill:none;stroke:red;stroke-width:1px;stroke-linecap:butt;stroke-linejoin:miter;stroke-opacity:1" d="M 411.995,34.3467 405.251,34.3467 z" id="boundary" inkscape:connector-curvature="0" />
	<path style="fill:none;stroke:red;stroke-width:1px;stroke-linecap:butt;stroke-linejoin:miter;stroke-opacity:1" d="M 345.906,47.8341 352.65,45.1366 z" id="boundary" inkscape:connector-curvature="0" />
	<path style="fill:none;stroke:red;stroke-width:1px;stroke-linecap:butt;stroke-linejoin:miter;stroke-opacity:1" d="M 352.65,45.1366 359.394,44.4623 z" id="boundary" inkscape:connector-curvature="0" />
	<path style="fill:none;stroke:red;stroke-width:1px;stroke-linecap:butt;stroke-linejoin:miter;stroke-opacity:1" d="M 365.463,41.0904 359.394,44.4623 z" id="boundary" inkscape:connector-curvature="0" />
	<path style="fill:none;stroke:red;stroke-width:1px;stroke-linecap:butt;stroke-linejoin:miter;stroke-opacity:1" d="M 339.837,51.206 345.906,47.8341 z" id="boundary" inkscape:connector-curvature="0" />
	<path style="fill:none;stroke:red;stroke-width:1px;stroke-linecap:butt;stroke-linejoin:miter;stroke-opacity:1" d="M 372.207,39.0673 365.463,41.0904 z" id="boundary" inkscape:connector-curvature="0" />
	<path style="fill:none;stroke:red;stroke-width:1px;stroke-linecap:butt;stroke-linejoin:miter;stroke-opacity:1" d="M 411.995,34.3467 418.738,34.3467 z" id="boundary" inkscape:connector-curvature="0" />
	<path style="fill:none;stroke:red;stroke-width:1px;stroke-linecap:butt;stroke-linejoin:miter;stroke-opacity:1" d="M 418.738,34.3467 425.482,34.3467 z" id="boundary" inkscape:connector-curvature="0" />
	<path style="fill:none;stroke:red;stroke-width:1px;stroke-linecap:butt;stroke-linejoin:miter;stroke-opacity:1" d="M 432.226,34.3467 438.969,34.3467 z" id="boundary" inkscape:connector-curvature="0" />
	<path style="fill:none;stroke:red;stroke-width:1px;stroke-linecap:butt;stroke-linejoin:miter;stroke-opacity:1" d="M 445.713,34.3467 438.969,34.3467 z" id="boundary" inkscape:connector-curvature="0" />
	<path style="fill:none;stroke:red;stroke-width:1px;stroke-linecap:butt;stroke-linejoin:miter;stroke-opacity:1" d="M 432.226,34.3467 425.482,34.3467 z" id="boundary" inkscape:connector-curvature="0" />
	<path style="fill:none;stroke:red;stroke-width:1px;stroke-linecap:butt;stroke-linejoin:miter;stroke-opacity:1" d="M 452.457,34.3467 459.201,34.3467 z" id="boundary" inkscape:connector-curvature="0" />
	<path style="fill:none;stroke:red;stroke-width:1px;stroke-linecap:butt;stroke-linejoin:miter;stroke-opacity:1" d="M 459.201,34.3467 465.27,37.7186 z" id="boundary" inkscape:connector-curvature="0" />
	<path style="fill:none;stroke:red;stroke-width:1px;stroke-linecap:butt;stroke-linejoin:miter;stroke-opacity:1" d="M 471.339,41.0904 465.27,37.7186 z" id="boundary" inkscape:connector-curvature="0" />
	<path style="fill:none;stroke:red;stroke-width:1px;stroke-linecap:butt;stroke-linejoin:miter;stroke-opacity:1" d="M 471.339,41.0904 477.409,44.4623 z" id="boundary" inkscape:connector-curvature="0" />
	<path style="fill:none;stroke:red;stroke-width:1px;stroke-linecap:butt;stroke-linejoin:miter;stroke-opacity:1" d="M 483.478,47.8341 477.409,44.4623 z" id="boundary" inkscape:connector-curvature="0" />
	<path style="fill:none;stroke:red;stroke-width:1px;stroke-linecap:butt;stroke-linejoin:miter;stroke-opacity:1" d="M 490.222,49.8572 483.478,47.8341 z" id="boundary" inkscape:connector-curvature="0" />
	<path style="fill:none;stroke:red;stroke-width:1px;stroke-linecap:butt;stroke-linejoin:miter;stroke-opacity:1" d="M 445.713,34.3467 452.457,34.3467 z" id="boundary" inkscape:connector-curvature="0" />
	<path style="fill:none;stroke:red;stroke-width:1px;stroke-linecap:butt;stroke-linejoin:miter;stroke-opacity:1" d="M 248.122,71.4371 254.192,68.0653 z" id="boundary" inkscape:connector-curvature="0" />
	<path style="fill:none;stroke:red;stroke-width:1px;stroke-linecap:butt;stroke-linejoin:miter;stroke-opacity:1" d="M 254.192,68.0653 260.935,68.0653 z" id="boundary" inkscape:connector-curvature="0" />
	<path style="fill:none;stroke:red;stroke-width:1px;stroke-linecap:butt;stroke-linejoin:miter;stroke-opacity:1" d="M 248.122,71.4371 241.379,72.1115 z" id="boundary" inkscape:connector-curvature="0" />
	<path style="fill:none;stroke:red;stroke-width:1px;stroke-linecap:butt;stroke-linejoin:miter;stroke-opacity:1" d="M 260.935,68.0653 267.005,64.6934 z" id="boundary" inkscape:connector-curvature="0" />
	<path style="fill:none;stroke:red;stroke-width:1px;stroke-linecap:butt;stroke-linejoin:miter;stroke-opacity:1" d="M 267.005,64.6934 273.748,64.6934 z" id="boundary" inkscape:connector-curvature="0" />
	<path style="fill:none;stroke:red;stroke-width:1px;stroke-linecap:butt;stroke-linejoin:miter;stroke-opacity:1" d="M 279.818,61.3215 273.748,64.6934 z" id="boundary" inkscape:connector-curvature="0" />
	<path style="fill:none;stroke:red;stroke-width:1px;stroke-linecap:butt;stroke-linejoin:miter;stroke-opacity:1" d="M 221.148,74.809 215.078,78.1808 z" id="boundary" inkscape:connector-curvature="0" />
	<path style="fill:none;stroke:red;stroke-width:1px;stroke-linecap:butt;stroke-linejoin:miter;stroke-opacity:1" d="M 215.078,78.1808 208.334,78.1808 z" id="boundary" inkscape:connector-curvature="0" />
	<path style="fill:none;stroke:red;stroke-width:1px;stroke-linecap:butt;stroke-linejoin:miter;stroke-opacity:1" d="M 221.148,74.809 227.891,74.809 z" id="boundary" inkscape:connector-curvature="0" />
	<path style="fill:none;stroke:red;stroke-width:1px;stroke-linecap:butt;stroke-linejoin:miter;stroke-opacity:1" d="M 241.379,72.1115 234.635,74.809 z" id="boundary" inkscape:connector-curvature="0" />
	<path style="fill:none;stroke:red;stroke-width:1px;stroke-linecap:butt;stroke-linejoin:miter;stroke-opacity:1" d="M 234.635,74.809 227.891,74.809 z" id="boundary" inkscape:connector-curvature="0" />
	<path style="fill:none;stroke:red;stroke-width:1px;stroke-linecap:butt;stroke-linejoin:miter;stroke-opacity:1" d="M 312.862,54.5778 319.606,54.5778 z" id="boundary" inkscape:connector-curvature="0" />
	<path style="fill:none;stroke:red;stroke-width:1px;stroke-linecap:butt;stroke-linejoin:miter;stroke-opacity:1" d="M 306.118,57.9497 312.862,54.5778 z" id="boundary" inkscape:connector-curvature="0" />
	<path style="fill:none;stroke:red;stroke-width:1px;stroke-linecap:butt;stroke-linejoin:miter;stroke-opacity:1" d="M 339.837,51.206 333.093,51.206 z" id="boundary" inkscape:connector-curvature="0" />
	<path style="fill:none;stroke:red;stroke-width:1px;stroke-linecap:butt;stroke-linejoin:miter;stroke-opacity:1" d="M 326.349,54.5778 333.093,51.206 z" id="boundary" inkscape:connector-curvature="0" />
	<path style="fill:none;stroke:red;stroke-width:1px;stroke-linecap:butt;stroke-linejoin:miter;stroke-opacity:1" d="M 326.349,54.5778 319.606,54.5778 z" id="boundary" inkscape:connector-curvature="0" />
	<path style="fill:none;stroke:red;stroke-width:1px;stroke-linecap:butt;stroke-linejoin:miter;stroke-opacity:1" d="M 279.818,61.3215 286.562,61.3215 z" id="boundary" inkscape:connector-curvature="0" />
	<path style="fill:none;stroke:red;stroke-width:1px;stroke-linecap:butt;stroke-linejoin:miter;stroke-opacity:1" d="M 293.305,61.3215 286.562,61.3215 z" id="boundary" inkscape:connector-curvature="0" />
	<path style="fill:none;stroke:red;stroke-width:1px;stroke-linecap:butt;stroke-linejoin:miter;stroke-opacity:1" d="M 299.375,57.9497 293.305,61.3215 z" id="boundary" inkscape:connector-curvature="0" />
	<path style="fill:none;stroke:red;stroke-width:1px;stroke-linecap:butt;stroke-linejoin:miter;stroke-opacity:1" d="M 306.118,57.9497 299.375,57.9497 z" id="boundary" inkscape:connector-curvature="0" />
	<path style="fill:none;stroke:red;stroke-width:1px;stroke-linecap:butt;stroke-linejoin:miter;stroke-opacity:1" d="M 7.37186,200.916 7.37186,207.66 z" id="boundary" inkscape:connector-curvature="0" />
	<path style="fill:none;stroke:red;stroke-width:1px;stroke-linecap:butt;stroke-linejoin:miter;stroke-opacity:1" d="M 10.7437,213.729 7.37186,207.66 z" id="boundary" inkscape:connector-curvature="0" />
	<path style="fill:none;stroke:red;stroke-width:1px;stroke-linecap:butt;stroke-linejoin:miter;stroke-opacity:1" d="M 12.7668,227.217 10.7437,220.473 z" id="boundary" inkscape:connector-curvature="0" />
	<path style="fill:none;stroke:red;stroke-width:1px;stroke-linecap:butt;stroke-linejoin:miter;stroke-opacity:1" d="M 10.7437,220.473 10.7437,213.729 z" id="boundary" inkscape:connector-curvature="0" />
	<path style="fill:none;stroke:red;stroke-width:1px;stroke-linecap:butt;stroke-linejoin:miter;stroke-opacity:1" d="M 16.1387,233.286 12.7668,227.217 z" id="boundary" inkscape:connector-curvature="0" />
	<path style="fill:none;stroke:red;stroke-width:1px;stroke-linecap:butt;stroke-linejoin:miter;stroke-opacity:1" d="M 16.1387,233.286 20.8593,238.681 z" id="boundary" inkscape:connector-curvature="0" />
	<path style="fill:none;stroke:red;stroke-width:1px;stroke-linecap:butt;stroke-linejoin:miter;stroke-opacity:1" d="M 20.8593,238.681 24.2311,244.751 z" id="boundary" inkscape:connector-curvature="0" />
	<path style="fill:none;stroke:red;stroke-width:1px;stroke-linecap:butt;stroke-linejoin:miter;stroke-opacity:1" d="M 28.9517,250.145 35.6954,252.843 z" id="boundary" inkscape:connector-curvature="0" />
	<path style="fill:none;stroke:red;stroke-width:1px;stroke-linecap:butt;stroke-linejoin:miter;stroke-opacity:1" d="M 35.6954,252.843 41.0904,257.564 z" id="boundary" inkscape:connector-curvature="0" />
	<path style="fill:none;stroke:red;stroke-width:1px;stroke-linecap:butt;stroke-linejoin:miter;stroke-opacity:1" d="M 28.9517,250.145 24.2311,244.751 z" id="boundary" inkscape:connector-curvature="0" />
	<path style="fill:none;stroke:red;stroke-width:1px;stroke-linecap:butt;stroke-linejoin:miter;stroke-opacity:1" d="M 41.0904,257.564 45.1366,262.959 z" id="boundary" inkscape:connector-curvature="0" />
	<path style="fill:none;stroke:red;stroke-width:1px;stroke-linecap:butt;stroke-linejoin:miter;stroke-opacity:1" d="M 58.6241,265.656 51.8804,264.307 z" id="boundary" inkscape:connector-curvature="0" />
	<path style="fill:none;stroke:red;stroke-width:1px;stroke-linecap:butt;stroke-linejoin:miter;stroke-opacity:1" d="M 186.755,260.935 180.011,262.284 z" id="boundary" inkscape:connector-curvature="0" />
	<path style="fill:none;stroke:red;stroke-width:1px;stroke-linecap:butt;stroke-linejoin:miter;stroke-opacity:1" d="M 180.011,262.284 173.267,260.935 z" id="boundary" inkscape:connector-curvature="0" />
	<path style="fill:none;stroke:red;stroke-width:1px;stroke-linecap:butt;stroke-linejoin:miter;stroke-opacity:1" d="M 193.498,260.935 200.242,260.935 z" id="boundary" inkscape:connector-curvature="0" />
	<path style="fill:none;stroke:red;stroke-width:1px;stroke-linecap:butt;stroke-linejoin:miter;stroke-opacity:1" d="M 193.498,260.935 186.755,260.935 z" id="boundary" inkscape:connector-curvature="0" />
	<path style="fill:none;stroke:red;stroke-width:1px;stroke-linecap:butt;stroke-linejoin:miter;stroke-opacity:1" d="M 200.242,260.935 206.986,260.935 z" id="boundary" inkscape:connector-curvature="0" />
	<path style="fill:none;stroke:red;stroke-width:1px;stroke-linecap:butt;stroke-linejoin:miter;stroke-opacity:1" d="M 51.8804,264.307 45.1366,262.959 z" id="boundary" inkscape:connector-curvature="0" />
	<path style="fill:none;stroke:red;stroke-width:1px;stroke-linecap:butt;stroke-linejoin:miter;stroke-opacity:1" d="M 166.523,264.307 173.267,260.935 z" id="boundary" inkscape:connector-curvature="0" />
	<path style="fill:none;stroke:red;stroke-width:1px;stroke-linecap:butt;stroke-linejoin:miter;stroke-opacity:1" d="M 206.986,260.935 213.729,262.284 z" id="boundary" inkscape:connector-curvature="0" />
	<path style="fill:none;stroke:red;stroke-width:1px;stroke-linecap:butt;stroke-linejoin:miter;stroke-opacity:1" d="M 139.549,264.307 132.805,264.307 z" id="boundary" inkscape:connector-curvature="0" />
	<path style="fill:none;stroke:red;stroke-width:1px;stroke-linecap:butt;stroke-linejoin:miter;stroke-opacity:1" d="M 126.061,264.307 132.805,264.307 z" id="boundary" inkscape:connector-curvature="0" />
	<path style="fill:none;stroke:red;stroke-width:1px;stroke-linecap:butt;stroke-linejoin:miter;stroke-opacity:1" d="M 119.317,267.679 126.061,264.307 z" id="boundary" inkscape:connector-curvature="0" />
	<path style="fill:none;stroke:red;stroke-width:1px;stroke-linecap:butt;stroke-linejoin:miter;stroke-opacity:1" d="M 58.6241,265.656 65.3678,267.679 z" id="boundary" inkscape:connector-curvature="0" />
	<path style="fill:none;stroke:red;stroke-width:1px;stroke-linecap:butt;stroke-linejoin:miter;stroke-opacity:1" d="M 72.1115,267.679 65.3678,267.679 z" id="boundary" inkscape:connector-curvature="0" />
	<path style="fill:none;stroke:red;stroke-width:1px;stroke-linecap:butt;stroke-linejoin:miter;stroke-opacity:1" d="M 112.574,267.679 105.83,267.679 z" id="boundary" inkscape:connector-curvature="0" />
	<path style="fill:none;stroke:red;stroke-width:1px;stroke-linecap:butt;stroke-linejoin:miter;stroke-opacity:1" d="M 78.8552,269.028 72.1115,267.679 z" id="boundary" inkscape:connector-curvature="0" />
	<path style="fill:none;stroke:red;stroke-width:1px;stroke-linecap:butt;stroke-linejoin:miter;stroke-opacity:1" d="M 92.3426,271.051 85.5989,271.051 z" id="boundary" inkscape:connector-curvature="0" />
	<path style="fill:none;stroke:red;stroke-width:1px;stroke-linecap:butt;stroke-linejoin:miter;stroke-opacity:1" d="M 85.5989,271.051 78.8552,269.028 z" id="boundary" inkscape:connector-curvature="0" />
	<path style="fill:none;stroke:red;stroke-width:1px;stroke-linecap:butt;stroke-linejoin:miter;stroke-opacity:1" d="M 112.574,267.679 119.317,267.679 z" id="boundary" inkscape:connector-curvature="0" />
	<path style="fill:none;stroke:red;stroke-width:1px;stroke-linecap:butt;stroke-linejoin:miter;stroke-opacity:1" d="M 99.0863,271.051 92.3426,271.051 z" id="boundary" inkscape:connector-curvature="0" />
	<path style="fill:none;stroke:red;stroke-width:1px;stroke-linecap:butt;stroke-linejoin:miter;stroke-opacity:1" d="M 105.83,267.679 99.0863,271.051 z" id="boundary" inkscape:connector-curvature="0" />
	<path style="fill:none;stroke:red;stroke-width:1px;stroke-linecap:butt;stroke-linejoin:miter;stroke-opacity:1" d="M 139.549,264.307 146.292,264.307 z" id="boundary" inkscape:connector-curvature="0" />
	<path style="fill:none;stroke:red;stroke-width:1px;stroke-linecap:butt;stroke-linejoin:miter;stroke-opacity:1" d="M 146.292,264.307 153.036,264.307 z" id="boundary" inkscape:connector-curvature="0" />
	<path style="fill:none;stroke:red;stroke-width:1px;stroke-linecap:butt;stroke-linejoin:miter;stroke-opacity:1" d="M 159.78,264.307 166.523,264.307 z" id="boundary" inkscape:connector-curvature="0" />
	<path style="fill:none;stroke:red;stroke-width:1px;stroke-linecap:butt;stroke-linejoin:miter;stroke-opacity:1" d="M 213.729,262.284 220.473,264.307 z" id="boundary" inkscape:connector-curvature="0" />
	<path style="fill:none;stroke:red;stroke-width:1px;stroke-linecap:butt;stroke-linejoin:miter;stroke-opacity:1" d="M 216.427,282.515 216.427,289.259 z" id="boundary" inkscape:connector-curvature="0" />
	<path style="fill:none;stroke:red;stroke-width:1px;stroke-linecap:butt;stroke-linejoin:miter;stroke-opacity:1" d="M 159.78,264.307 153.036,264.307 z" id="boundary" inkscape:connector-curvature="0" />
	<path style="fill:none;stroke:red;stroke-width:1px;stroke-linecap:butt;stroke-linejoin:miter;stroke-opacity:1" d="M 219.799,295.328 216.427,289.259 z" id="boundary" inkscape:connector-curvature="0" />
	<path style="fill:none;stroke:red;stroke-width:1px;stroke-linecap:butt;stroke-linejoin:miter;stroke-opacity:1" d="M 216.427,282.515 221.822,277.12 z" id="boundary" inkscape:connector-curvature="0" />
	<path style="fill:none;stroke:red;stroke-width:1px;stroke-linecap:butt;stroke-linejoin:miter;stroke-opacity:1" d="M 221.822,277.12 225.194,270.377 z" id="boundary" inkscape:connector-curvature="0" />
	<path style="fill:none;stroke:red;stroke-width:1px;stroke-linecap:butt;stroke-linejoin:miter;stroke-opacity:1" d="M 223.171,301.398 219.799,295.328 z" id="boundary" inkscape:connector-curvature="0" />
	<path style="fill:none;stroke:red;stroke-width:1px;stroke-linecap:butt;stroke-linejoin:miter;stroke-opacity:1" d="M 220.473,264.307 228.566,264.307 z" id="boundary" inkscape:connector-curvature="0" />
	<path style="fill:none;stroke:red;stroke-width:1px;stroke-linecap:butt;stroke-linejoin:miter;stroke-opacity:1" d="M 228.566,264.307 225.194,270.377 z" id="boundary" inkscape:connector-curvature="0" />
	<path style="fill:none;stroke:red;stroke-width:1px;stroke-linecap:butt;stroke-linejoin:miter;stroke-opacity:1" d="M 223.171,301.398 227.217,306.793 z" id="boundary" inkscape:connector-curvature="0" />
	<path style="fill:none;stroke:red;stroke-width:1px;stroke-linecap:butt;stroke-linejoin:miter;stroke-opacity:1" d="M 233.961,309.49 227.217,306.793 z" id="boundary" inkscape:connector-curvature="0" />
	<path style="fill:none;stroke:red;stroke-width:1px;stroke-linecap:butt;stroke-linejoin:miter;stroke-opacity:1" d="M 233.961,309.49 240.704,311.513 z" id="boundary" inkscape:connector-curvature="0" />
	<path style="fill:none;stroke:red;stroke-width:1px;stroke-linecap:butt;stroke-linejoin:miter;stroke-opacity:1" d="M 240.704,311.513 246.774,314.885 z" id="boundary" inkscape:connector-curvature="0" />
	<path style="fill:none;stroke:red;stroke-width:1px;stroke-linecap:butt;stroke-linejoin:miter;stroke-opacity:1" d="M 252.843,318.257 246.774,314.885 z" id="boundary" inkscape:connector-curvature="0" />
	<path style="fill:none;stroke:red;stroke-width:1px;stroke-linecap:butt;stroke-linejoin:miter;stroke-opacity:1" d="M 272.4,325.001 265.656,324.326 z" id="boundary" inkscape:connector-curvature="0" />
	<path style="fill:none;stroke:red;stroke-width:1px;stroke-linecap:butt;stroke-linejoin:miter;stroke-opacity:1" d="M 265.656,324.326 258.912,321.629 z" id="boundary" inkscape:connector-curvature="0" />
	<path style="fill:none;stroke:red;stroke-width:1px;stroke-linecap:butt;stroke-linejoin:miter;stroke-opacity:1" d="M 258.912,321.629 252.843,318.257 z" id="boundary" inkscape:connector-curvature="0" />
	<path style="fill:none;stroke:red;stroke-width:1px;stroke-linecap:butt;stroke-linejoin:miter;stroke-opacity:1" d="M 272.4,325.001 279.143,325.001 z" id="boundary" inkscape:connector-curvature="0" />
	<path style="fill:none;stroke:red;stroke-width:1px;stroke-linecap:butt;stroke-linejoin:miter;stroke-opacity:1" d="M 279.143,325.001 285.213,328.373 z" id="boundary" inkscape:connector-curvature="0" />
	<path style="fill:none;stroke:red;stroke-width:1px;stroke-linecap:butt;stroke-linejoin:miter;stroke-opacity:1" d="M 438.295,321.629 432.226,325.001 z" id="boundary" inkscape:connector-curvature="0" />
	<path style="fill:none;stroke:red;stroke-width:1px;stroke-linecap:butt;stroke-linejoin:miter;stroke-opacity:1" d="M 432.226,325.001 425.482,326.349 z" id="boundary" inkscape:connector-curvature="0" />
	<path style="fill:none;stroke:red;stroke-width:1px;stroke-linecap:butt;stroke-linejoin:miter;stroke-opacity:1" d="M 465.27,300.049 469.99,291.282 z" id="boundary" inkscape:connector-curvature="0" />
	<path style="fill:none;stroke:red;stroke-width:1px;stroke-linecap:butt;stroke-linejoin:miter;stroke-opacity:1" d="M 469.99,291.282 475.385,286.562 z" id="boundary" inkscape:connector-curvature="0" />
	<path style="fill:none;stroke:red;stroke-width:1px;stroke-linecap:butt;stroke-linejoin:miter;stroke-opacity:1" d="M 478.757,279.818 475.385,286.562 z" id="boundary" inkscape:connector-curvature="0" />
	<path style="fill:none;stroke:red;stroke-width:1px;stroke-linecap:butt;stroke-linejoin:miter;stroke-opacity:1" d="M 478.757,279.818 485.501,277.795 z" id="boundary" inkscape:connector-curvature="0" />
	<path style="fill:none;stroke:red;stroke-width:1px;stroke-linecap:butt;stroke-linejoin:miter;stroke-opacity:1" d="M 485.501,277.795 491.57,281.167 z" id="boundary" inkscape:connector-curvature="0" />
	<path style="fill:none;stroke:red;stroke-width:1px;stroke-linecap:butt;stroke-linejoin:miter;stroke-opacity:1" d="M 498.314,281.167 491.57,281.167 z" id="boundary" inkscape:connector-curvature="0" />
	<path style="fill:none;stroke:red;stroke-width:1px;stroke-linecap:butt;stroke-linejoin:miter;stroke-opacity:1" d="M 449.759,314.885 445.039,320.28 z" id="boundary" inkscape:connector-curvature="0" />
	<path style="fill:none;stroke:red;stroke-width:1px;stroke-linecap:butt;stroke-linejoin:miter;stroke-opacity:1" d="M 445.039,320.28 438.295,321.629 z" id="boundary" inkscape:connector-curvature="0" />
	<path style="fill:none;stroke:red;stroke-width:1px;stroke-linecap:butt;stroke-linejoin:miter;stroke-opacity:1" d="M 453.131,308.141 449.759,314.885 z" id="boundary" inkscape:connector-curvature="0" />
	<path style="fill:none;stroke:red;stroke-width:1px;stroke-linecap:butt;stroke-linejoin:miter;stroke-opacity:1" d="M 459.875,304.77 453.131,308.141 z" id="boundary" inkscape:connector-curvature="0" />
	<path style="fill:none;stroke:red;stroke-width:1px;stroke-linecap:butt;stroke-linejoin:miter;stroke-opacity:1" d="M 465.27,300.049 459.875,304.77 z" id="boundary" inkscape:connector-curvature="0" />
	<path style="fill:none;stroke:red;stroke-width:1px;stroke-linecap:butt;stroke-linejoin:miter;stroke-opacity:1" d="M 285.213,328.373 291.956,328.373 z" id="boundary" inkscape:connector-curvature="0" />
	<path style="fill:none;stroke:red;stroke-width:1px;stroke-linecap:butt;stroke-linejoin:miter;stroke-opacity:1" d="M 311.513,331.744 304.77,331.744 z" id="boundary" inkscape:connector-curvature="0" />
	<path style="fill:none;stroke:red;stroke-width:1px;stroke-linecap:butt;stroke-linejoin:miter;stroke-opacity:1" d="M 304.77,331.744 298.7,328.373 z" id="boundary" inkscape:connector-curvature="0" />
	<path style="fill:none;stroke:red;stroke-width:1px;stroke-linecap:butt;stroke-linejoin:miter;stroke-opacity:1" d="M 318.257,331.744 311.513,331.744 z" id="boundary" inkscape:connector-curvature="0" />
	<path style="fill:none;stroke:red;stroke-width:1px;stroke-linecap:butt;stroke-linejoin:miter;stroke-opacity:1" d="M 291.956,328.373 298.7,328.373 z" id="boundary" inkscape:connector-curvature="0" />
	<path style="fill:none;stroke:red;stroke-width:1px;stroke-linecap:butt;stroke-linejoin:miter;stroke-opacity:1" d="M 325.001,331.744 318.257,331.744 z" id="boundary" inkscape:connector-curvature="0" />
	<path style="fill:none;stroke:red;stroke-width:1px;stroke-linecap:butt;stroke-linejoin:miter;stroke-opacity:1" d="M 338.488,331.744 331.744,331.744 z" id="boundary" inkscape:connector-curvature="0" />
	<path style="fill:none;stroke:red;stroke-width:1px;stroke-linecap:butt;stroke-linejoin:miter;stroke-opacity:1" d="M 331.744,331.744 325.001,331.744 z" id="boundary" inkscape:connector-curvature="0" />
	<path style="fill:none;stroke:red;stroke-width:1px;stroke-linecap:butt;stroke-linejoin:miter;stroke-opacity:1" d="M 345.232,331.744 338.488,331.744 z" id="boundary" inkscape:connector-curvature="0" />
	<path style="fill:none;stroke:red;stroke-width:1px;stroke-linecap:butt;stroke-linejoin:miter;stroke-opacity:1" d="M 385.02,328.373 391.763,328.373 z" id="boundary" inkscape:connector-curvature="0" />
	<path style="fill:none;stroke:red;stroke-width:1px;stroke-linecap:butt;stroke-linejoin:miter;stroke-opacity:1" d="M 378.95,331.744 385.02,328.373 z" id="boundary" inkscape:connector-curvature="0" />
	<path style="fill:none;stroke:red;stroke-width:1px;stroke-linecap:butt;stroke-linejoin:miter;stroke-opacity:1" d="M 405.251,328.373 398.507,328.373 z" id="boundary" inkscape:connector-curvature="0" />
	<path style="fill:none;stroke:red;stroke-width:1px;stroke-linecap:butt;stroke-linejoin:miter;stroke-opacity:1" d="M 398.507,328.373 391.763,328.373 z" id="boundary" inkscape:connector-curvature="0" />
	<path style="fill:none;stroke:red;stroke-width:1px;stroke-linecap:butt;stroke-linejoin:miter;stroke-opacity:1" d="M 411.995,328.373 405.251,328.373 z" id="boundary" inkscape:connector-curvature="0" />
	<path style="fill:none;stroke:red;stroke-width:1px;stroke-linecap:butt;stroke-linejoin:miter;stroke-opacity:1" d="M 351.976,331.744 345.232,331.744 z" id="boundary" inkscape:connector-curvature="0" />
	<path style="fill:none;stroke:red;stroke-width:1px;stroke-linecap:butt;stroke-linejoin:miter;stroke-opacity:1" d="M 365.463,331.744 358.719,331.744 z" id="boundary" inkscape:connector-curvature="0" />
	<path style="fill:none;stroke:red;stroke-width:1px;stroke-linecap:butt;stroke-linejoin:miter;stroke-opacity:1" d="M 372.207,331.744 365.463,331.744 z" id="boundary" inkscape:connector-curvature="0" />
	<path style="fill:none;stroke:red;stroke-width:1px;stroke-linecap:butt;stroke-linejoin:miter;stroke-opacity:1" d="M 411.995,328.373 418.738,328.373 z" id="boundary" inkscape:connector-curvature="0" />
	<path style="fill:none;stroke:red;stroke-width:1px;stroke-linecap:butt;stroke-linejoin:miter;stroke-opacity:1" d="M 378.95,331.744 372.207,331.744 z" id="boundary" inkscape:connector-curvature="0" />
	<path style="fill:none;stroke:red;stroke-width:1px;stroke-linecap:butt;stroke-linejoin:miter;stroke-opacity:1" d="M 425.482,326.349 418.738,328.373 z" id="boundary" inkscape:connector-curvature="0" />
	<path style="fill:none;stroke:red;stroke-width:1px;stroke-linecap:butt;stroke-linejoin:miter;stroke-opacity:1" d="M 358.719,331.744 351.976,331.744 z" id="boundary" inkscape:connector-curvature="0" />
	<path style="fill:none;stroke:red;stroke-width:1px;stroke-linecap:butt;stroke-linejoin:miter;stroke-opacity:1" d="M 490.222,49.8572 496.291,53.2291 z" id="boundary" inkscape:connector-curvature="0" />
	<path style="fill:none;stroke:red;stroke-width:1px;stroke-linecap:butt;stroke-linejoin:miter;stroke-opacity:1" d="M 579.239,7.37186 572.495,7.37186 z" id="boundary" inkscape:connector-curvature="0" />
	<path style="fill:none;stroke:red;stroke-width:1px;stroke-linecap:butt;stroke-linejoin:miter;stroke-opacity:1" d="M 585.308,4 579.239,7.37186 z" id="boundary" inkscape:connector-curvature="0" />
	<path style="fill:none;stroke:red;stroke-width:1px;stroke-linecap:butt;stroke-linejoin:miter;stroke-opacity:1" d="M 585.308,4 592.052,4 z" id="boundary" inkscape:connector-curvature="0" />
	<path style="fill:none;stroke:red;stroke-width:1px;stroke-linecap:butt;stroke-linejoin:miter;stroke-opacity:1" d="M 592.052,4 598.795,4 z" id="boundary" inkscape:connector-curvature="0" />
	<path style="fill:none;stroke:red;stroke-width:1px;stroke-linecap:butt;stroke-linejoin:miter;stroke-opacity:1" d="M 553.613,19.5105 548.218,24.2311 z" id="boundary" inkscape:connector-curvature="0" />
	<path style="fill:none;stroke:red;stroke-width:1px;stroke-linecap:butt;stroke-linejoin:miter;stroke-opacity:1" d="M 548.218,24.2311 542.148,27.603 z" id="boundary" inkscape:connector-curvature="0" />
	<path style="fill:none;stroke:red;stroke-width:1px;stroke-linecap:butt;stroke-linejoin:miter;stroke-opacity:1" d="M 559.007,14.1156 553.613,19.5105 z" id="boundary" inkscape:connector-curvature="0" />
	<path style="fill:none;stroke:red;stroke-width:1px;stroke-linecap:butt;stroke-linejoin:miter;stroke-opacity:1" d="M 565.751,10.7437 559.007,14.1156 z" id="boundary" inkscape:connector-curvature="0" />
	<path style="fill:none;stroke:red;stroke-width:1px;stroke-linecap:butt;stroke-linejoin:miter;stroke-opacity:1" d="M 565.751,10.7437 572.495,7.37186 z" id="boundary" inkscape:connector-curvature="0" />
	<path style="fill:none;stroke:red;stroke-width:1px;stroke-linecap:butt;stroke-linejoin:miter;stroke-opacity:1" d="M 542.148,27.603 536.753,32.998 z" id="boundary" inkscape:connector-curvature="0" />
	<path style="fill:none;stroke:red;stroke-width:1px;stroke-linecap:butt;stroke-linejoin:miter;stroke-opacity:1" d="M 598.795,4 605.539,4 z" id="boundary" inkscape:connector-curvature="0" />
	<path style="fill:none;stroke:red;stroke-width:1px;stroke-linecap:butt;stroke-linejoin:miter;stroke-opacity:1" d="M 612.283,4 619.027,4 z" id="boundary" inkscape:connector-curvature="0" />
	<path style="fill:none;stroke:red;stroke-width:1px;stroke-linecap:butt;stroke-linejoin:miter;stroke-opacity:1" d="M 619.027,4 625.096,7.37186 z" id="boundary" inkscape:connector-curvature="0" />
	<path style="fill:none;stroke:red;stroke-width:1px;stroke-linecap:butt;stroke-linejoin:miter;stroke-opacity:1" d="M 625.096,7.37186 631.84,7.37186 z" id="boundary" inkscape:connector-curvature="0" />
	<path style="fill:none;stroke:red;stroke-width:1px;stroke-linecap:butt;stroke-linejoin:miter;stroke-opacity:1" d="M 631.84,7.37186 638.583,9.39497 z" id="boundary" inkscape:connector-curvature="0" />
	<path style="fill:none;stroke:red;stroke-width:1px;stroke-linecap:butt;stroke-linejoin:miter;stroke-opacity:1" d="M 645.327,10.7437 638.583,9.39497 z" id="boundary" inkscape:connector-curvature="0" />
	<path style="fill:none;stroke:red;stroke-width:1px;stroke-linecap:butt;stroke-linejoin:miter;stroke-opacity:1" d="M 651.396,14.1156 656.791,18.1618 z" id="boundary" inkscape:connector-curvature="0" />
	<path style="fill:none;stroke:red;stroke-width:1px;stroke-linecap:butt;stroke-linejoin:miter;stroke-opacity:1" d="M 651.396,14.1156 645.327,10.7437 z" id="boundary" inkscape:connector-curvature="0" />
	<path style="fill:none;stroke:red;stroke-width:1px;stroke-linecap:butt;stroke-linejoin:miter;stroke-opacity:1" d="M 656.791,18.1618 662.186,22.8824 z" id="boundary" inkscape:connector-curvature="0" />
	<path style="fill:none;stroke:red;stroke-width:1px;stroke-linecap:butt;stroke-linejoin:miter;stroke-opacity:1" d="M 662.186,22.8824 668.256,26.2542 z" id="boundary" inkscape:connector-curvature="0" />
	<path style="fill:none;stroke:red;stroke-width:1px;stroke-linecap:butt;stroke-linejoin:miter;stroke-opacity:1" d="M 668.256,26.2542 672.302,31.6492 z" id="boundary" inkscape:connector-curvature="0" />
	<path style="fill:none;stroke:red;stroke-width:1px;stroke-linecap:butt;stroke-linejoin:miter;stroke-opacity:1" d="M 605.539,4 612.283,4 z" id="boundary" inkscape:connector-curvature="0" />
	<path style="fill:none;stroke:red;stroke-width:1px;stroke-linecap:butt;stroke-linejoin:miter;stroke-opacity:1" d="M 672.302,31.6492 675.674,37.7186 z" id="boundary" inkscape:connector-curvature="0" />
	<path style="fill:none;stroke:red;stroke-width:1px;stroke-linecap:butt;stroke-linejoin:miter;stroke-opacity:1" d="M 496.291,53.2291 503.035,55.9266 z" id="boundary" inkscape:connector-curvature="0" />
	<path style="fill:none;stroke:red;stroke-width:1px;stroke-linecap:butt;stroke-linejoin:miter;stroke-opacity:1" d="M 503.035,55.9266 507.081,61.3215 z" id="boundary" inkscape:connector-curvature="0" />
	<path style="fill:none;stroke:red;stroke-width:1px;stroke-linecap:butt;stroke-linejoin:miter;stroke-opacity:1" d="M 536.753,32.998 533.381,43.1135 z" id="boundary" inkscape:connector-curvature="0" />
	<path style="fill:none;stroke:red;stroke-width:1px;stroke-linecap:butt;stroke-linejoin:miter;stroke-opacity:1" d="M 528.661,51.206 523.266,56.601 z" id="boundary" inkscape:connector-curvature="0" />
	<path style="fill:none;stroke:red;stroke-width:1px;stroke-linecap:butt;stroke-linejoin:miter;stroke-opacity:1" d="M 533.381,43.1135 528.661,51.206 z" id="boundary" inkscape:connector-curvature="0" />
	<path style="fill:none;stroke:red;stroke-width:1px;stroke-linecap:butt;stroke-linejoin:miter;stroke-opacity:1" d="M 507.081,61.3215 513.825,61.3215 z" id="boundary" inkscape:connector-curvature="0" />
	<path style="fill:none;stroke:red;stroke-width:1px;stroke-linecap:butt;stroke-linejoin:miter;stroke-opacity:1" d="M 513.825,61.3215 519.22,65.3678 z" id="boundary" inkscape:connector-curvature="0" />
	<path style="fill:none;stroke:red;stroke-width:1px;stroke-linecap:butt;stroke-linejoin:miter;stroke-opacity:1" d="M 519.22,65.3678 521.917,72.1115 z" id="boundary" inkscape:connector-curvature="0" />
	<path style="fill:none;stroke:red;stroke-width:1px;stroke-linecap:butt;stroke-linejoin:miter;stroke-opacity:1" d="M 526.638,62.6703 528.661,74.809 z" id="boundary" inkscape:connector-curvature="0" />
	<path style="fill:none;stroke:red;stroke-width:1px;stroke-linecap:butt;stroke-linejoin:miter;stroke-opacity:1" d="M 528.661,74.809 521.917,72.1115 z" id="boundary" inkscape:connector-curvature="0" />
	<path style="fill:none;stroke:red;stroke-width:1px;stroke-linecap:butt;stroke-linejoin:miter;stroke-opacity:1" d="M 695.905,56.601 690.51,51.8804 z" id="boundary" inkscape:connector-curvature="0" />
	<path style="fill:none;stroke:red;stroke-width:1px;stroke-linecap:butt;stroke-linejoin:miter;stroke-opacity:1" d="M 690.51,51.8804 685.789,46.4854 z" id="boundary" inkscape:connector-curvature="0" />
	<path style="fill:none;stroke:red;stroke-width:1px;stroke-linecap:butt;stroke-linejoin:miter;stroke-opacity:1" d="M 681.743,41.0904 685.789,46.4854 z" id="boundary" inkscape:connector-curvature="0" />
	<path style="fill:none;stroke:red;stroke-width:1px;stroke-linecap:butt;stroke-linejoin:miter;stroke-opacity:1" d="M 675.674,37.7186 681.743,41.0904 z" id="boundary" inkscape:connector-curvature="0" />
	<path style="fill:none;stroke:red;stroke-width:1px;stroke-linecap:butt;stroke-linejoin:miter;stroke-opacity:1" d="M 695.905,56.601 700.625,61.9959 z" id="boundary" inkscape:connector-curvature="0" />
	<path style="fill:none;stroke:red;stroke-width:1px;stroke-linecap:butt;stroke-linejoin:miter;stroke-opacity:1" d="M 700.625,61.9959 703.997,68.0653 z" id="boundary" inkscape:connector-curvature="0" />
	<path style="fill:none;stroke:red;stroke-width:1px;stroke-linecap:butt;stroke-linejoin:miter;stroke-opacity:1" d="M 710.067,71.4371 703.997,68.0653 z" id="boundary" inkscape:connector-curvature="0" />
	<path style="fill:none;stroke:red;stroke-width:1px;stroke-linecap:butt;stroke-linejoin:miter;stroke-opacity:1" d="M 716.81,71.4371 710.067,71.4371 z" id="boundary" inkscape:connector-curvature="0" />
	<path style="fill:none;stroke:red;stroke-width:1px;stroke-linecap:butt;stroke-linejoin:miter;stroke-opacity:1" d="M 723.554,71.4371 716.81,71.4371 z" id="boundary" inkscape:connector-curvature="0" />
	<path style="fill:none;stroke:red;stroke-width:1px;stroke-linecap:butt;stroke-linejoin:miter;stroke-opacity:1" d="M 730.298,71.4371 723.554,71.4371 z" id="boundary" inkscape:connector-curvature="0" />
	<path style="fill:none;stroke:red;stroke-width:1px;stroke-linecap:butt;stroke-linejoin:miter;stroke-opacity:1" d="M 730.298,71.4371 737.041,71.4371 z" id="boundary" inkscape:connector-curvature="0" />
	<path style="fill:none;stroke:red;stroke-width:1px;stroke-linecap:butt;stroke-linejoin:miter;stroke-opacity:1" d="M 756.598,74.809 749.855,74.809 z" id="boundary" inkscape:connector-curvature="0" />
	<path style="fill:none;stroke:red;stroke-width:1px;stroke-linecap:butt;stroke-linejoin:miter;stroke-opacity:1" d="M 749.855,74.809 743.785,71.4371 z" id="boundary" inkscape:connector-curvature="0" />
	<path style="fill:none;stroke:red;stroke-width:1px;stroke-linecap:butt;stroke-linejoin:miter;stroke-opacity:1" d="M 763.342,74.809 756.598,74.809 z" id="boundary" inkscape:connector-curvature="0" />
	<path style="fill:none;stroke:red;stroke-width:1px;stroke-linecap:butt;stroke-linejoin:miter;stroke-opacity:1" d="M 737.041,71.4371 743.785,71.4371 z" id="boundary" inkscape:connector-curvature="0" />
	<path style="fill:none;stroke:red;stroke-width:1px;stroke-linecap:butt;stroke-linejoin:miter;stroke-opacity:1" d="M 763.342,74.809 770.086,74.809 z" id="boundary" inkscape:connector-curvature="0" />
	<path style="fill:none;stroke:red;stroke-width:1px;stroke-linecap:butt;stroke-linejoin:miter;stroke-opacity:1" d="M 776.829,74.809 770.086,74.809 z" id="boundary" inkscape:connector-curvature="0" />
	<path style="fill:none;stroke:red;stroke-width:1px;stroke-linecap:butt;stroke-linejoin:miter;stroke-opacity:1" d="M 783.573,74.809 790.317,74.809 z" id="boundary" inkscape:connector-curvature="0" />
	<path style="fill:none;stroke:red;stroke-width:1px;stroke-linecap:butt;stroke-linejoin:miter;stroke-opacity:1" d="M 790.317,74.809 796.386,78.1808 z" id="boundary" inkscape:connector-curvature="0" />
	<path style="fill:none;stroke:red;stroke-width:1px;stroke-linecap:butt;stroke-linejoin:miter;stroke-opacity:1" d="M 783.573,74.809 776.829,74.809 z" id="boundary" inkscape:connector-curvature="0" />
	<path style="fill:none;stroke:red;stroke-width:1px;stroke-linecap:butt;stroke-linejoin:miter;stroke-opacity:1" d="M 803.13,78.1808 796.386,78.1808 z" id="boundary" inkscape:connector-curvature="0" />
	<path style="fill:none;stroke:red;stroke-width:1px;stroke-linecap:butt;stroke-linejoin:miter;stroke-opacity:1" d="M 803.13,78.1808 809.874,78.1808 z" id="boundary" inkscape:connector-curvature="0" />
	<path style="fill:none;stroke:red;stroke-width:1px;stroke-linecap:butt;stroke-linejoin:miter;stroke-opacity:1" d="M 809.874,78.1808 816.617,79.5296 z" id="boundary" inkscape:connector-curvature="0" />
	<path style="fill:none;stroke:red;stroke-width:1px;stroke-linecap:butt;stroke-linejoin:miter;stroke-opacity:1" d="M 830.105,81.5527 823.361,81.5527 z" id="boundary" inkscape:connector-curvature="0" />
	<path style="fill:none;stroke:red;stroke-width:1px;stroke-linecap:butt;stroke-linejoin:miter;stroke-opacity:1" d="M 823.361,81.5527 816.617,79.5296 z" id="boundary" inkscape:connector-curvature="0" />
	<path style="fill:none;stroke:red;stroke-width:1px;stroke-linecap:butt;stroke-linejoin:miter;stroke-opacity:1" d="M 836.848,81.5527 830.105,81.5527 z" id="boundary" inkscape:connector-curvature="0" />
	<path style="fill:none;stroke:red;stroke-width:1px;stroke-linecap:butt;stroke-linejoin:miter;stroke-opacity:1" d="M 849.661,84.9245 842.918,84.9245 z" id="boundary" inkscape:connector-curvature="0" />
	<path style="fill:none;stroke:red;stroke-width:1px;stroke-linecap:butt;stroke-linejoin:miter;stroke-opacity:1" d="M 842.918,84.9245 836.848,81.5527 z" id="boundary" inkscape:connector-curvature="0" />
	<path style="fill:none;stroke:red;stroke-width:1px;stroke-linecap:butt;stroke-linejoin:miter;stroke-opacity:1" d="M 856.405,85.5989 849.661,84.9245 z" id="boundary" inkscape:connector-curvature="0" />
	<path style="fill:none;stroke:red;stroke-width:1px;stroke-linecap:butt;stroke-linejoin:miter;stroke-opacity:1" d="M 875.962,91.6683 869.218,91.6683 z" id="boundary" inkscape:connector-curvature="0" />
	<path style="fill:none;stroke:red;stroke-width:1px;stroke-linecap:butt;stroke-linejoin:miter;stroke-opacity:1" d="M 869.218,91.6683 862.475,88.9708 z" id="boundary" inkscape:connector-curvature="0" />
	<path style="fill:none;stroke:red;stroke-width:1px;stroke-linecap:butt;stroke-linejoin:miter;stroke-opacity:1" d="M 862.475,88.9708 856.405,85.5989 z" id="boundary" inkscape:connector-curvature="0" />
	<path style="fill:none;stroke:red;stroke-width:1px;stroke-linecap:butt;stroke-linejoin:miter;stroke-opacity:1" d="M 882.031,95.0401 875.962,91.6683 z" id="boundary" inkscape:connector-curvature="0" />
	<path style="fill:none;stroke:red;stroke-width:1px;stroke-linecap:butt;stroke-linejoin:miter;stroke-opacity:1" d="M 888.775,95.0401 882.031,95.0401 z" id="boundary" inkscape:connector-curvature="0" />
	<path style="fill:none;stroke:red;stroke-width:1px;stroke-linecap:butt;stroke-linejoin:miter;stroke-opacity:1" d="M 901.588,100.435 894.844,98.412 z" id="boundary" inkscape:connector-curvature="0" />
	<path style="fill:none;stroke:red;stroke-width:1px;stroke-linecap:butt;stroke-linejoin:miter;stroke-opacity:1" d="M 894.844,98.412 888.775,95.0401 z" id="boundary" inkscape:connector-curvature="0" />
	<path style="fill:none;stroke:red;stroke-width:1px;stroke-linecap:butt;stroke-linejoin:miter;stroke-opacity:1" d="M 908.332,101.784 915.075,101.784 z" id="boundary" inkscape:connector-curvature="0" />
	<path style="fill:none;stroke:red;stroke-width:1px;stroke-linecap:butt;stroke-linejoin:miter;stroke-opacity:1" d="M 908.332,101.784 901.588,100.435 z" id="boundary" inkscape:connector-curvature="0" />
	<path style="fill:none;stroke:red;stroke-width:1px;stroke-linecap:butt;stroke-linejoin:miter;stroke-opacity:1" d="M 921.819,101.784 915.075,101.784 z" id="boundary" inkscape:connector-curvature="0" />
	<path style="fill:none;stroke:red;stroke-width:1px;stroke-linecap:butt;stroke-linejoin:miter;stroke-opacity:1" d="M 921.819,101.784 928.563,103.807 z" id="boundary" inkscape:connector-curvature="0" />
	<path style="fill:none;stroke:red;stroke-width:1px;stroke-linecap:butt;stroke-linejoin:miter;stroke-opacity:1" d="M 941.376,109.876 934.632,107.179 z" id="boundary" inkscape:connector-curvature="0" />
	<path style="fill:none;stroke:red;stroke-width:1px;stroke-linecap:butt;stroke-linejoin:miter;stroke-opacity:1" d="M 934.632,107.179 928.563,103.807 z" id="boundary" inkscape:connector-curvature="0" />
	<path style="fill:none;stroke:red;stroke-width:1px;stroke-linecap:butt;stroke-linejoin:miter;stroke-opacity:1" d="M 941.376,109.876 945.422,115.271 z" id="boundary" inkscape:connector-curvature="0" />
	<path style="fill:none;stroke:red;stroke-width:1px;stroke-linecap:butt;stroke-linejoin:miter;stroke-opacity:1" d="M 945.422,115.271 951.492,118.643 z" id="boundary" inkscape:connector-curvature="0" />
	<path style="fill:none;stroke:red;stroke-width:1px;stroke-linecap:butt;stroke-linejoin:miter;stroke-opacity:1" d="M 967.676,129.433 962.281,125.387 z" id="boundary" inkscape:connector-curvature="0" />
	<path style="fill:none;stroke:red;stroke-width:1px;stroke-linecap:butt;stroke-linejoin:miter;stroke-opacity:1" d="M 962.281,125.387 958.235,119.992 z" id="boundary" inkscape:connector-curvature="0" />
	<path style="fill:none;stroke:red;stroke-width:1px;stroke-linecap:butt;stroke-linejoin:miter;stroke-opacity:1" d="M 951.492,118.643 958.235,119.992 z" id="boundary" inkscape:connector-curvature="0" />
	<path style="fill:none;stroke:red;stroke-width:1px;stroke-linecap:butt;stroke-linejoin:miter;stroke-opacity:1" d="M 967.676,129.433 972.397,134.828 z" id="boundary" inkscape:connector-curvature="0" />
	<path style="fill:none;stroke:red;stroke-width:1px;stroke-linecap:butt;stroke-linejoin:miter;stroke-opacity:1" d="M 972.397,134.828 977.792,139.549 z" id="boundary" inkscape:connector-curvature="0" />
	<path style="fill:none;stroke:red;stroke-width:1px;stroke-linecap:butt;stroke-linejoin:miter;stroke-opacity:1" d="M 977.792,139.549 980.489,146.292 z" id="boundary" inkscape:connector-curvature="0" />
	<path style="fill:none;stroke:red;stroke-width:1px;stroke-linecap:butt;stroke-linejoin:miter;stroke-opacity:1" d="M 983.861,152.362 988.582,157.757 z" id="boundary" inkscape:connector-curvature="0" />
	<path style="fill:none;stroke:red;stroke-width:1px;stroke-linecap:butt;stroke-linejoin:miter;stroke-opacity:1" d="M 983.861,152.362 980.489,146.292 z" id="boundary" inkscape:connector-curvature="0" />
	<path style="fill:none;stroke:red;stroke-width:1px;stroke-linecap:butt;stroke-linejoin:miter;stroke-opacity:1" d="M 992.628,163.152 988.582,157.757 z" id="boundary" inkscape:connector-curvature="0" />
	<path style="fill:none;stroke:red;stroke-width:1px;stroke-linecap:butt;stroke-linejoin:miter;stroke-opacity:1" d="M 992.628,163.152 992.628,169.895 z" id="boundary" inkscape:connector-curvature="0" />
	<path style="fill:none;stroke:red;stroke-width:1px;stroke-linecap:butt;stroke-linejoin:miter;stroke-opacity:1" d="M 498.314,281.167 505.058,281.167 z" id="boundary" inkscape:connector-curvature="0" />
	<path style="fill:none;stroke:red;stroke-width:1px;stroke-linecap:butt;stroke-linejoin:miter;stroke-opacity:1" d="M 505.058,281.167 511.127,284.538 z" id="boundary" inkscape:connector-curvature="0" />
	<path style="fill:none;stroke:red;stroke-width:1px;stroke-linecap:butt;stroke-linejoin:miter;stroke-opacity:1" d="M 530.01,291.282 523.266,291.282 z" id="boundary" inkscape:connector-curvature="0" />
	<path style="fill:none;stroke:red;stroke-width:1px;stroke-linecap:butt;stroke-linejoin:miter;stroke-opacity:1" d="M 523.266,291.282 516.522,288.585 z" id="boundary" inkscape:connector-curvature="0" />
	<path style="fill:none;stroke:red;stroke-width:1px;stroke-linecap:butt;stroke-linejoin:miter;stroke-opacity:1" d="M 516.522,288.585 511.127,284.538 z" id="boundary" inkscape:connector-curvature="0" />
	<path style="fill:none;stroke:red;stroke-width:1px;stroke-linecap:butt;stroke-linejoin:miter;stroke-opacity:1" d="M 530.01,291.282 536.753,291.282 z" id="boundary" inkscape:connector-curvature="0" />
	<path style="fill:none;stroke:red;stroke-width:1px;stroke-linecap:butt;stroke-linejoin:miter;stroke-opacity:1" d="M 543.497,291.282 536.753,291.282 z" id="boundary" inkscape:connector-curvature="0" />
	<path style="fill:none;stroke:red;stroke-width:1px;stroke-linecap:butt;stroke-linejoin:miter;stroke-opacity:1" d="M 543.497,291.282 549.566,294.654 z" id="boundary" inkscape:connector-curvature="0" />
	<path style="fill:none;stroke:red;stroke-width:1px;stroke-linecap:butt;stroke-linejoin:miter;stroke-opacity:1" d="M 549.566,294.654 556.31,294.654 z" id="boundary" inkscape:connector-curvature="0" />
	<path style="fill:none;stroke:red;stroke-width:1px;stroke-linecap:butt;stroke-linejoin:miter;stroke-opacity:1" d="M 563.054,294.654 556.31,294.654 z" id="boundary" inkscape:connector-curvature="0" />
	<path style="fill:none;stroke:red;stroke-width:1px;stroke-linecap:butt;stroke-linejoin:miter;stroke-opacity:1" d="M 569.797,294.654 563.054,294.654 z" id="boundary" inkscape:connector-curvature="0" />
	<path style="fill:none;stroke:red;stroke-width:1px;stroke-linecap:butt;stroke-linejoin:miter;stroke-opacity:1" d="M 603.516,291.282 609.585,287.91 z" id="boundary" inkscape:connector-curvature="0" />
	<path style="fill:none;stroke:red;stroke-width:1px;stroke-linecap:butt;stroke-linejoin:miter;stroke-opacity:1" d="M 616.329,287.91 609.585,287.91 z" id="boundary" inkscape:connector-curvature="0" />
	<path style="fill:none;stroke:red;stroke-width:1px;stroke-linecap:butt;stroke-linejoin:miter;stroke-opacity:1" d="M 623.073,287.91 629.816,287.91 z" id="boundary" inkscape:connector-curvature="0" />
	<path style="fill:none;stroke:red;stroke-width:1px;stroke-linecap:butt;stroke-linejoin:miter;stroke-opacity:1" d="M 636.56,287.91 629.816,287.91 z" id="boundary" inkscape:connector-curvature="0" />
	<path style="fill:none;stroke:red;stroke-width:1px;stroke-linecap:butt;stroke-linejoin:miter;stroke-opacity:1" d="M 623.073,287.91 616.329,287.91 z" id="boundary" inkscape:connector-curvature="0" />
	<path style="fill:none;stroke:red;stroke-width:1px;stroke-linecap:butt;stroke-linejoin:miter;stroke-opacity:1" d="M 590.029,291.282 583.285,293.305 z" id="boundary" inkscape:connector-curvature="0" />
	<path style="fill:none;stroke:red;stroke-width:1px;stroke-linecap:butt;stroke-linejoin:miter;stroke-opacity:1" d="M 590.029,291.282 596.772,291.282 z" id="boundary" inkscape:connector-curvature="0" />
	<path style="fill:none;stroke:red;stroke-width:1px;stroke-linecap:butt;stroke-linejoin:miter;stroke-opacity:1" d="M 576.541,294.654 569.797,294.654 z" id="boundary" inkscape:connector-curvature="0" />
	<path style="fill:none;stroke:red;stroke-width:1px;stroke-linecap:butt;stroke-linejoin:miter;stroke-opacity:1" d="M 583.285,293.305 576.541,294.654 z" id="boundary" inkscape:connector-curvature="0" />
	<path style="fill:none;stroke:red;stroke-width:1px;stroke-linecap:butt;stroke-linejoin:miter;stroke-opacity:1" d="M 596.772,291.282 603.516,291.282 z" id="boundary" inkscape:connector-curvature="0" />
	<path style="fill:none;stroke:red;stroke-width:1px;stroke-linecap:butt;stroke-linejoin:miter;stroke-opacity:1" d="M 621.05,299.375 621.05,306.118 z" id="boundary" inkscape:connector-curvature="0" />
	<path style="fill:none;stroke:red;stroke-width:1px;stroke-linecap:butt;stroke-linejoin:miter;stroke-opacity:1" d="M 627.793,308.141 621.05,306.118 z" id="boundary" inkscape:connector-curvature="0" />
	<path style="fill:none;stroke:red;stroke-width:1px;stroke-linecap:butt;stroke-linejoin:miter;stroke-opacity:1" d="M 654.094,310.165 647.35,311.513 z" id="boundary" inkscape:connector-curvature="0" />
	<path style="fill:none;stroke:red;stroke-width:1px;stroke-linecap:butt;stroke-linejoin:miter;stroke-opacity:1" d="M 660.838,308.141 654.094,310.165 z" id="boundary" inkscape:connector-curvature="0" />
	<path style="fill:none;stroke:red;stroke-width:1px;stroke-linecap:butt;stroke-linejoin:miter;stroke-opacity:1" d="M 627.793,308.141 633.863,311.513 z" id="boundary" inkscape:connector-curvature="0" />
	<path style="fill:none;stroke:red;stroke-width:1px;stroke-linecap:butt;stroke-linejoin:miter;stroke-opacity:1" d="M 633.863,311.513 640.606,311.513 z" id="boundary" inkscape:connector-curvature="0" />
	<path style="fill:none;stroke:red;stroke-width:1px;stroke-linecap:butt;stroke-linejoin:miter;stroke-opacity:1" d="M 640.606,311.513 647.35,311.513 z" id="boundary" inkscape:connector-curvature="0" />
	<path style="fill:none;stroke:red;stroke-width:1px;stroke-linecap:butt;stroke-linejoin:miter;stroke-opacity:1" d="M 667.581,308.141 674.325,308.141 z" id="boundary" inkscape:connector-curvature="0" />
	<path style="fill:none;stroke:red;stroke-width:1px;stroke-linecap:butt;stroke-linejoin:miter;stroke-opacity:1" d="M 667.581,308.141 660.838,308.141 z" id="boundary" inkscape:connector-curvature="0" />
	<path style="fill:none;stroke:red;stroke-width:1px;stroke-linecap:butt;stroke-linejoin:miter;stroke-opacity:1" d="M 674.325,308.141 681.069,308.141 z" id="boundary" inkscape:connector-curvature="0" />
	<path style="fill:none;stroke:red;stroke-width:1px;stroke-linecap:butt;stroke-linejoin:miter;stroke-opacity:1" d="M 708.044,304.77 714.787,304.77 z" id="boundary" inkscape:connector-curvature="0" />
	<path style="fill:none;stroke:red;stroke-width:1px;stroke-linecap:butt;stroke-linejoin:miter;stroke-opacity:1" d="M 701.3,306.793 708.044,304.77 z" id="boundary" inkscape:connector-curvature="0" />
	<path style="fill:none;stroke:red;stroke-width:1px;stroke-linecap:butt;stroke-linejoin:miter;stroke-opacity:1" d="M 746.483,301.398 740.413,304.77 z" id="boundary" inkscape:connector-curvature="0" />
	<path style="fill:none;stroke:red;stroke-width:1px;stroke-linecap:butt;stroke-linejoin:miter;stroke-opacity:1" d="M 740.413,304.77 734.344,308.141 z" id="boundary" inkscape:connector-curvature="0" />
	<path style="fill:none;stroke:red;stroke-width:1px;stroke-linecap:butt;stroke-linejoin:miter;stroke-opacity:1" d="M 714.787,304.77 721.531,304.77 z" id="boundary" inkscape:connector-curvature="0" />
	<path style="fill:none;stroke:red;stroke-width:1px;stroke-linecap:butt;stroke-linejoin:miter;stroke-opacity:1" d="M 721.531,304.77 727.6,308.141 z" id="boundary" inkscape:connector-curvature="0" />
	<path style="fill:none;stroke:red;stroke-width:1px;stroke-linecap:butt;stroke-linejoin:miter;stroke-opacity:1" d="M 681.069,308.141 687.812,308.141 z" id="boundary" inkscape:connector-curvature="0" />
	<path style="fill:none;stroke:red;stroke-width:1px;stroke-linecap:butt;stroke-linejoin:miter;stroke-opacity:1" d="M 694.556,308.141 687.812,308.141 z" id="boundary" inkscape:connector-curvature="0" />
	<path style="fill:none;stroke:red;stroke-width:1px;stroke-linecap:butt;stroke-linejoin:miter;stroke-opacity:1" d="M 701.3,306.793 694.556,308.141 z" id="boundary" inkscape:connector-curvature="0" />
	<path style="fill:none;stroke:red;stroke-width:1px;stroke-linecap:butt;stroke-linejoin:miter;stroke-opacity:1" d="M 734.344,308.141 727.6,308.141 z" id="boundary" inkscape:connector-curvature="0" />
	<path style="fill:none;stroke:red;stroke-width:1px;stroke-linecap:butt;stroke-linejoin:miter;stroke-opacity:1" d="M 948.794,244.076 942.725,247.448 z" id="boundary" inkscape:connector-curvature="0" />
	<path style="fill:none;stroke:red;stroke-width:1px;stroke-linecap:butt;stroke-linejoin:miter;stroke-opacity:1" d="M 962.281,240.704 955.538,244.076 z" id="boundary" inkscape:connector-curvature="0" />
	<path style="fill:none;stroke:red;stroke-width:1px;stroke-linecap:butt;stroke-linejoin:miter;stroke-opacity:1" d="M 955.538,244.076 948.794,244.076 z" id="boundary" inkscape:connector-curvature="0" />
	<path style="fill:none;stroke:red;stroke-width:1px;stroke-linecap:butt;stroke-linejoin:miter;stroke-opacity:1" d="M 967.676,235.984 962.281,240.704 z" id="boundary" inkscape:connector-curvature="0" />
	<path style="fill:none;stroke:red;stroke-width:1px;stroke-linecap:butt;stroke-linejoin:miter;stroke-opacity:1" d="M 916.424,250.82 909.68,250.82 z" id="boundary" inkscape:connector-curvature="0" />
	<path style="fill:none;stroke:red;stroke-width:1px;stroke-linecap:butt;stroke-linejoin:miter;stroke-opacity:1" d="M 936.655,250.82 942.725,247.448 z" id="boundary" inkscape:connector-curvature="0" />
	<path style="fill:none;stroke:red;stroke-width:1px;stroke-linecap:butt;stroke-linejoin:miter;stroke-opacity:1" d="M 890.124,254.192 883.38,254.192 z" id="boundary" inkscape:connector-curvature="0" />
	<path style="fill:none;stroke:red;stroke-width:1px;stroke-linecap:butt;stroke-linejoin:miter;stroke-opacity:1" d="M 896.867,254.192 890.124,254.192 z" id="boundary" inkscape:connector-curvature="0" />
	<path style="fill:none;stroke:red;stroke-width:1px;stroke-linecap:butt;stroke-linejoin:miter;stroke-opacity:1" d="M 903.611,254.192 909.68,250.82 z" id="boundary" inkscape:connector-curvature="0" />
	<path style="fill:none;stroke:red;stroke-width:1px;stroke-linecap:butt;stroke-linejoin:miter;stroke-opacity:1" d="M 877.311,257.564 883.38,254.192 z" id="boundary" inkscape:connector-curvature="0" />
	<path style="fill:none;stroke:red;stroke-width:1px;stroke-linecap:butt;stroke-linejoin:miter;stroke-opacity:1" d="M 916.424,250.82 923.168,250.82 z" id="boundary" inkscape:connector-curvature="0" />
	<path style="fill:none;stroke:red;stroke-width:1px;stroke-linecap:butt;stroke-linejoin:miter;stroke-opacity:1" d="M 929.912,250.82 923.168,250.82 z" id="boundary" inkscape:connector-curvature="0" />
	<path style="fill:none;stroke:red;stroke-width:1px;stroke-linecap:butt;stroke-linejoin:miter;stroke-opacity:1" d="M 936.655,250.82 929.912,250.82 z" id="boundary" inkscape:connector-curvature="0" />
	<path style="fill:none;stroke:red;stroke-width:1px;stroke-linecap:butt;stroke-linejoin:miter;stroke-opacity:1" d="M 992.628,169.895 993.977,176.639 z" id="boundary" inkscape:connector-curvature="0" />
	<path style="fill:none;stroke:red;stroke-width:1px;stroke-linecap:butt;stroke-linejoin:miter;stroke-opacity:1" d="M 996,183.383 996,190.126 z" id="boundary" inkscape:connector-curvature="0" />
	<path style="fill:none;stroke:red;stroke-width:1px;stroke-linecap:butt;stroke-linejoin:miter;stroke-opacity:1" d="M 996,190.126 992.628,196.87 z" id="boundary" inkscape:connector-curvature="0" />
	<path style="fill:none;stroke:red;stroke-width:1px;stroke-linecap:butt;stroke-linejoin:miter;stroke-opacity:1" d="M 993.977,176.639 996,183.383 z" id="boundary" inkscape:connector-curvature="0" />
	<path style="fill:none;stroke:red;stroke-width:1px;stroke-linecap:butt;stroke-linejoin:miter;stroke-opacity:1" d="M 989.256,206.986 992.628,196.87 z" id="boundary" inkscape:connector-curvature="0" />
	<path style="fill:none;stroke:red;stroke-width:1px;stroke-linecap:butt;stroke-linejoin:miter;stroke-opacity:1" d="M 977.792,225.868 974.42,232.612 z" id="boundary" inkscape:connector-curvature="0" />
	<path style="fill:none;stroke:red;stroke-width:1px;stroke-linecap:butt;stroke-linejoin:miter;stroke-opacity:1" d="M 974.42,232.612 967.676,235.984 z" id="boundary" inkscape:connector-curvature="0" />
	<path style="fill:none;stroke:red;stroke-width:1px;stroke-linecap:butt;stroke-linejoin:miter;stroke-opacity:1" d="M 981.164,219.124 977.792,225.868 z" id="boundary" inkscape:connector-curvature="0" />
	<path style="fill:none;stroke:red;stroke-width:1px;stroke-linecap:butt;stroke-linejoin:miter;stroke-opacity:1" d="M 981.164,219.124 984.536,212.381 z" id="boundary" inkscape:connector-curvature="0" />
	<path style="fill:none;stroke:red;stroke-width:1px;stroke-linecap:butt;stroke-linejoin:miter;stroke-opacity:1" d="M 984.536,212.381 989.256,206.986 z" id="boundary" inkscape:connector-curvature="0" />
	<path style="fill:none;stroke:red;stroke-width:1px;stroke-linecap:butt;stroke-linejoin:miter;stroke-opacity:1" d="M 784.922,267.679 790.991,264.307 z" id="boundary" inkscape:connector-curvature="0" />
	<path style="fill:none;stroke:red;stroke-width:1px;stroke-linecap:butt;stroke-linejoin:miter;stroke-opacity:1" d="M 790.991,264.307 797.735,264.307 z" id="boundary" inkscape:connector-curvature="0" />
	<path style="fill:none;stroke:red;stroke-width:1px;stroke-linecap:butt;stroke-linejoin:miter;stroke-opacity:1" d="M 784.922,267.679 778.178,270.377 z" id="boundary" inkscape:connector-curvature="0" />
	<path style="fill:none;stroke:red;stroke-width:1px;stroke-linecap:butt;stroke-linejoin:miter;stroke-opacity:1" d="M 797.735,264.307 804.479,264.307 z" id="boundary" inkscape:connector-curvature="0" />
	<path style="fill:none;stroke:red;stroke-width:1px;stroke-linecap:butt;stroke-linejoin:miter;stroke-opacity:1" d="M 811.222,264.307 804.479,264.307 z" id="boundary" inkscape:connector-curvature="0" />
	<path style="fill:none;stroke:red;stroke-width:1px;stroke-linecap:butt;stroke-linejoin:miter;stroke-opacity:1" d="M 751.878,296.677 756.598,287.91 z" id="boundary" inkscape:connector-curvature="0" />
	<path style="fill:none;stroke:red;stroke-width:1px;stroke-linecap:butt;stroke-linejoin:miter;stroke-opacity:1" d="M 756.598,287.91 761.993,283.19 z" id="boundary" inkscape:connector-curvature="0" />
	<path style="fill:none;stroke:red;stroke-width:1px;stroke-linecap:butt;stroke-linejoin:miter;stroke-opacity:1" d="M 751.878,296.677 746.483,301.398 z" id="boundary" inkscape:connector-curvature="0" />
	<path style="fill:none;stroke:red;stroke-width:1px;stroke-linecap:butt;stroke-linejoin:miter;stroke-opacity:1" d="M 761.993,283.19 768.737,279.818 z" id="boundary" inkscape:connector-curvature="0" />
	<path style="fill:none;stroke:red;stroke-width:1px;stroke-linecap:butt;stroke-linejoin:miter;stroke-opacity:1" d="M 768.737,279.818 772.783,274.423 z" id="boundary" inkscape:connector-curvature="0" />
	<path style="fill:none;stroke:red;stroke-width:1px;stroke-linecap:butt;stroke-linejoin:miter;stroke-opacity:1" d="M 772.783,274.423 778.178,270.377 z" id="boundary" inkscape:connector-curvature="0" />
	<path style="fill:none;stroke:red;stroke-width:1px;stroke-linecap:butt;stroke-linejoin:miter;stroke-opacity:1" d="M 811.222,264.307 817.966,264.307 z" id="boundary" inkscape:connector-curvature="0" />
	<path style="fill:none;stroke:red;stroke-width:1px;stroke-linecap:butt;stroke-linejoin:miter;stroke-opacity:1" d="M 850.336,257.564 857.08,257.564 z" id="boundary" inkscape:connector-curvature="0" />
	<path style="fill:none;stroke:red;stroke-width:1px;stroke-linecap:butt;stroke-linejoin:miter;stroke-opacity:1" d="M 844.266,260.935 850.336,257.564 z" id="boundary" inkscape:connector-curvature="0" />
	<path style="fill:none;stroke:red;stroke-width:1px;stroke-linecap:butt;stroke-linejoin:miter;stroke-opacity:1" d="M 863.823,257.564 857.08,257.564 z" id="boundary" inkscape:connector-curvature="0" />
	<path style="fill:none;stroke:red;stroke-width:1px;stroke-linecap:butt;stroke-linejoin:miter;stroke-opacity:1" d="M 877.311,257.564 870.567,257.564 z" id="boundary" inkscape:connector-curvature="0" />
	<path style="fill:none;stroke:red;stroke-width:1px;stroke-linecap:butt;stroke-linejoin:miter;stroke-opacity:1" d="M 870.567,257.564 863.823,257.564 z" id="boundary" inkscape:connector-curvature="0" />
	<path style="fill:none;stroke:red;stroke-width:1px;stroke-linecap:butt;stroke-linejoin:miter;stroke-opacity:1" d="M 903.611,254.192 896.867,254.192 z" id="boundary" inkscape:connector-curvature="0" />
	<path style="fill:none;stroke:red;stroke-width:1px;stroke-linecap:butt;stroke-linejoin:miter;stroke-opacity:1" d="M 817.966,264.307 824.035,260.935 z" id="boundary" inkscape:connector-curvature="0" />
	<path style="fill:none;stroke:red;stroke-width:1px;stroke-linecap:butt;stroke-linejoin:miter;stroke-opacity:1" d="M 824.035,260.935 830.779,260.935 z" id="boundary" inkscape:connector-curvature="0" />
	<path style="fill:none;stroke:red;stroke-width:1px;stroke-linecap:butt;stroke-linejoin:miter;stroke-opacity:1" d="M 830.779,260.935 837.523,260.935 z" id="boundary" inkscape:connector-curvature="0" />
	<path style="fill:none;stroke:red;stroke-width:1px;stroke-linecap:butt;stroke-linejoin:miter;stroke-opacity:1" d="M 844.266,260.935 837.523,260.935 z" id="boundary" inkscape:connector-curvature="0" />
	<circle cx="4" cy="134.154" r="4" fill="#0" id="circle0"/>
	<circle cx="4" cy="140.897" r="4" fill="#0" id="circle1"/>
	<circle cx="4" cy="147.641" r="4" fill="#0" id="circle2"/>
	<circle cx="4" cy="154.385" r="4" fill="#0" id="circle3"/>
	<circle cx="4" cy="161.128" r="4" fill="#0" id="circle4"/>
	<circle cx="4" cy="167.872" r="4" fill="#0" id="circle5"/>
	<circle cx="4" cy="174.616" r="4" fill="#0" id="circle6"/>
	<circle cx="7.37186" cy="127.41" r="4" fill="#0" id="circle7"/>
	<circle cx="7.37186" cy="180.685" r="4" fill="#0" id="circle8"/>
	<circle cx="7.37186" cy="187.429" r="4" fill="#0" id="circle9"/>
	<circle cx="7.37186" cy="194.173" r="4" fill="#0" id="circle10"/>
	<circle cx="7.37186" cy="200.916" r="4" fill="#0" id="circle11"/>
	<circle cx="7.37186" cy="207.66" r="4" fill="#0" id="circle12"/>
	<circle cx="10.7437" cy="120.666" r="4" fill="#0" id="circle13"/>
	<circle cx="10.7437" cy="213.729" r="4" fill="#0" id="circle14"/>
	<circle cx="10.7437" cy="220.473" r="4" fill="#0" id="circle15"/>
	<circle cx="12.7668" cy="227.217" r="4" fill="#0" id="circle16"/>
	<circle cx="16.1387" cy="233.286" r="4" fill="#0" id="circle17"/>
	<circle cx="17.4874" cy="117.294" r="4" fill="#0" id="circle18"/>
	<circle cx="20.8593" cy="110.551" r="4" fill="#0" id="circle19"/>
	<circle cx="20.8593" cy="238.681" r="4" fill="#0" id="circle20"/>
	<circle cx="24.2311" cy="244.751" r="4" fill="#0" id="circle21"/>
	<circle cx="27.603" cy="107.179" r="4" fill="#0" id="circle22"/>
	<circle cx="28.9517" cy="250.145" r="4" fill="#0" id="circle23"/>
	<circle cx="32.998" cy="101.784" r="4" fill="#0" id="circle24"/>
	<circle cx="35.6954" cy="252.843" r="4" fill="#0" id="circle25"/>
	<circle cx="39.7417" cy="98.412" r="4" fill="#0" id="circle26"/>
	<circle cx="41.0904" cy="257.564" r="4" fill="#0" id="circle27"/>
	<circle cx="45.1366" cy="262.959" r="4" fill="#0" id="circle28"/>
	<circle cx="45.811" cy="95.0401" r="4" fill="#0" id="circle29"/>
	<circle cx="51.8804" cy="264.307" r="4" fill="#0" id="circle30"/>
	<circle cx="52.5547" cy="95.0401" r="4" fill="#0" id="circle31"/>
	<circle cx="58.6241" cy="91.6683" r="4" fill="#0" id="circle32"/>
	<circle cx="58.6241" cy="265.656" r="4" fill="#0" id="circle33"/>
	<circle cx="65.3678" cy="91.6683" r="4" fill="#0" id="circle34"/>
	<circle cx="65.3678" cy="267.679" r="4" fill="#0" id="circle35"/>
	<circle cx="72.1115" cy="91.6683" r="4" fill="#0" id="circle36"/>
	<circle cx="72.1115" cy="267.679" r="4" fill="#0" id="circle37"/>
	<circle cx="78.8552" cy="93.6914" r="4" fill="#0" id="circle38"/>
	<circle cx="78.8552" cy="269.028" r="4" fill="#0" id="circle39"/>
	<circle cx="85.5989" cy="95.0401" r="4" fill="#0" id="circle40"/>
	<circle cx="85.5989" cy="271.051" r="4" fill="#0" id="circle41"/>
	<circle cx="92.3426" cy="95.0401" r="4" fill="#0" id="circle42"/>
	<circle cx="92.3426" cy="271.051" r="4" fill="#0" id="circle43"/>
	<circle cx="99.0863" cy="95.0401" r="4" fill="#0" id="circle44"/>
	<circle cx="99.0863" cy="271.051" r="4" fill="#0" id="circle45"/>
	<circle cx="105.83" cy="97.0632" r="4" fill="#0" id="circle46"/>
	<circle cx="105.83" cy="267.679" r="4" fill="#0" id="circle47"/>
	<circle cx="112.574" cy="98.412" r="4" fill="#0" id="circle48"/>
	<circle cx="112.574" cy="267.679" r="4" fill="#0" id="circle49"/>
	<circle cx="118.643" cy="101.784" r="4" fill="#0" id="circle50"/>
	<circle cx="119.317" cy="267.679" r="4" fill="#0" id="circle51"/>
	<circle cx="125.387" cy="103.133" r="4" fill="#0" id="circle52"/>
	<circle cx="126.061" cy="264.307" r="4" fill="#0" id="circle53"/>
	<circle cx="129.433" cy="108.528" r="4" fill="#0" id="circle54"/>
	<circle cx="132.805" cy="264.307" r="4" fill="#0" id="circle55"/>
	<circle cx="136.177" cy="108.528" r="4" fill="#0" id="circle56"/>
	<circle cx="139.549" cy="264.307" r="4" fill="#0" id="circle57"/>
	<circle cx="142.246" cy="111.899" r="4" fill="#0" id="circle58"/>
	<circle cx="146.292" cy="264.307" r="4" fill="#0" id="circle59"/>
	<circle cx="148.315" cy="115.271" r="4" fill="#0" id="circle60"/>
	<circle cx="153.036" cy="264.307" r="4" fill="#0" id="circle61"/>
	<circle cx="154.385" cy="118.643" r="4" fill="#0" id="circle62"/>
	<circle cx="159.105" cy="100.435" r="4" fill="#0" id="circle63"/>
	<circle cx="159.105" cy="107.179" r="4" fill="#0" id="circle64"/>
	<circle cx="159.78" cy="264.307" r="4" fill="#0" id="circle65"/>
	<circle cx="164.5" cy="95.0401" r="4" fill="#0" id="circle66"/>
	<circle cx="166.523" cy="264.307" r="4" fill="#0" id="circle67"/>
	<circle cx="170.57" cy="91.6683" r="4" fill="#0" id="circle68"/>
	<circle cx="173.267" cy="260.935" r="4" fill="#0" id="circle69"/>
	<circle cx="176.639" cy="88.2964" r="4" fill="#0" id="circle70"/>
	<circle cx="180.011" cy="262.284" r="4" fill="#0" id="circle71"/>
	<circle cx="182.708" cy="84.9245" r="4" fill="#0" id="circle72"/>
	<circle cx="186.755" cy="260.935" r="4" fill="#0" id="circle73"/>
	<circle cx="189.452" cy="84.9245" r="4" fill="#0" id="circle74"/>
	<circle cx="193.498" cy="260.935" r="4" fill="#0" id="circle75"/>
	<circle cx="195.521" cy="81.5527" r="4" fill="#0" id="circle76"/>
	<circle cx="200.242" cy="260.935" r="4" fill="#0" id="circle77"/>
	<circle cx="202.265" cy="81.5527" r="4" fill="#0" id="circle78"/>
	<circle cx="206.986" cy="260.935" r="4" fill="#0" id="circle79"/>
	<circle cx="208.334" cy="78.1808" r="4" fill="#0" id="circle80"/>
	<circle cx="213.729" cy="262.284" r="4" fill="#0" id="circle81"/>
	<circle cx="215.078" cy="78.1808" r="4" fill="#0" id="circle82"/>
	<circle cx="216.427" cy="282.515" r="4" fill="#0" id="circle83"/>
	<circle cx="216.427" cy="289.259" r="4" fill="#0" id="circle84"/>
	<circle cx="219.799" cy="295.328" r="4" fill="#0" id="circle85"/>
	<circle cx="220.473" cy="264.307" r="4" fill="#0" id="circle86"/>
	<circle cx="221.148" cy="74.809" r="4" fill="#0" id="circle87"/>
	<circle cx="221.822" cy="277.12" r="4" fill="#0" id="circle88"/>
	<circle cx="223.171" cy="301.398" r="4" fill="#0" id="circle89"/>
	<circle cx="225.194" cy="270.377" r="4" fill="#0" id="circle90"/>
	<circle cx="227.217" cy="306.793" r="4" fill="#0" id="circle91"/>
	<circle cx="227.891" cy="74.809" r="4" fill="#0" id="circle92"/>
	<circle cx="228.566" cy="264.307" r="4" fill="#0" id="circle93"/>
	<circle cx="233.961" cy="309.49" r="4" fill="#0" id="circle94"/>
	<circle cx="234.635" cy="74.809" r="4" fill="#0" id="circle95"/>
	<circle cx="240.704" cy="311.513" r="4" fill="#0" id="circle96"/>
	<circle cx="241.379" cy="72.1115" r="4" fill="#0" id="circle97"/>
	<circle cx="246.774" cy="314.885" r="4" fill="#0" id="circle98"/>
	<circle cx="248.122" cy="71.4371" r="4" fill="#0" id="circle99"/>
	<circle cx="252.843" cy="318.257" r="4" fill="#0" id="circle100"/>
	<circle cx="254.192" cy="68.0653" r="4" fill="#0" id="circle101"/>
	<circle cx="258.912" cy="321.629" r="4" fill="#0" id="circle102"/>
	<circle cx="260.935" cy="68.0653" r="4" fill="#0" id="circle103"/>
	<circle cx="265.656" cy="324.326" r="4" fill="#0" id="circle104"/>
	<circle cx="267.005" cy="64.6934" r="4" fill="#0" id="circle105"/>
	<circle cx="272.4" cy="325.001" r="4" fill="#0" id="circle106"/>
	<circle cx="273.748" cy="64.6934" r="4" fill="#0" id="circle107"/>
	<circle cx="279.143" cy="325.001" r="4" fill="#0" id="circle108"/>
	<circle cx="279.818" cy="61.3215" r="4" fill="#0" id="circle109"/>
	<circle cx="285.213" cy="328.373" r="4" fill="#0" id="circle110"/>
	<circle cx="286.562" cy="61.3215" r="4" fill="#0" id="circle111"/>
	<circle cx="291.956" cy="328.373" r="4" fill="#0" id="circle112"/>
	<circle cx="293.305" cy="61.3215" r="4" fill="#0" id="circle113"/>
	<circle cx="298.7" cy="328.373" r="4" fill="#0" id="circle114"/>
	<circle cx="299.375" cy="57.9497" r="4" fill="#0" id="circle115"/>
	<circle cx="304.77" cy="331.744" r="4" fill="#0" id="circle116"/>
	<circle cx="306.118" cy="57.9497" r="4" fill="#0" id="circle117"/>
	<circle cx="311.513" cy="331.744" r="4" fill="#0" id="circle118"/>
	<circle cx="312.862" cy="54.5778" r="4" fill="#0" id="circle119"/>
	<circle cx="318.257" cy="331.744" r="4" fill="#0" id="circle120"/>
	<circle cx="319.606" cy="54.5778" r="4" fill="#0" id="circle121"/>
	<circle cx="325.001" cy="331.744" r="4" fill="#0" id="circle122"/>
	<circle cx="326.349" cy="54.5778" r="4" fill="#0" id="circle123"/>
	<circle cx="331.744" cy="331.744" r="4" fill="#0" id="circle124"/>
	<circle cx="333.093" cy="51.206" r="4" fill="#0" id="circle125"/>
	<circle cx="338.488" cy="331.744" r="4" fill="#0" id="circle126"/>
	<circle cx="339.837" cy="51.206" r="4" fill="#0" id="circle127"/>
	<circle cx="345.232" cy="331.744" r="4" fill="#0" id="circle128"/>
	<circle cx="345.906" cy="47.8341" r="4" fill="#0" id="circle129"/>
	<circle cx="351.976" cy="331.744" r="4" fill="#0" id="circle130"/>
	<circle cx="352.65" cy="45.1366" r="4" fill="#0" id="circle131"/>
	<circle cx="358.719" cy="331.744" r="4" fill="#0" id="circle132"/>
	<circle cx="359.394" cy="44.4623" r="4" fill="#0" id="circle133"/>
	<circle cx="365.463" cy="41.0904" r="4" fill="#0" id="circle134"/>
	<circle cx="365.463" cy="331.744" r="4" fill="#0" id="circle135"/>
	<circle cx="372.207" cy="39.0673" r="4" fill="#0" id="circle136"/>
	<circle cx="372.207" cy="331.744" r="4" fill="#0" id="circle137"/>
	<circle cx="378.95" cy="37.7186" r="4" fill="#0" id="circle138"/>
	<circle cx="378.95" cy="331.744" r="4" fill="#0" id="circle139"/>
	<circle cx="385.02" cy="328.373" r="4" fill="#0" id="circle140"/>
	<circle cx="385.694" cy="37.7186" r="4" fill="#0" id="circle141"/>
	<circle cx="391.763" cy="328.373" r="4" fill="#0" id="circle142"/>
	<circle cx="392.438" cy="37.7186" r="4" fill="#0" id="circle143"/>
	<circle cx="398.507" cy="34.3467" r="4" fill="#0" id="circle144"/>
	<circle cx="398.507" cy="328.373" r="4" fill="#0" id="circle145"/>
	<circle cx="405.251" cy="34.3467" r="4" fill="#0" id="circle146"/>
	<circle cx="405.251" cy="328.373" r="4" fill="#0" id="circle147"/>
	<circle cx="411.995" cy="34.3467" r="4" fill="#0" id="circle148"/>
	<circle cx="411.995" cy="328.373" r="4" fill="#0" id="circle149"/>
	<circle cx="418.738" cy="34.3467" r="4" fill="#0" id="circle150"/>
	<circle cx="418.738" cy="328.373" r="4" fill="#0" id="circle151"/>
	<circle cx="425.482" cy="34.3467" r="4" fill="#0" id="circle152"/>
	<circle cx="425.482" cy="326.349" r="4" fill="#0" id="circle153"/>
	<circle cx="432.226" cy="34.3467" r="4" fill="#0" id="circle154"/>
	<circle cx="432.226" cy="325.001" r="4" fill="#0" id="circle155"/>
	<circle cx="438.295" cy="321.629" r="4" fill="#0" id="circle156"/>
	<circle cx="438.969" cy="34.3467" r="4" fill="#0" id="circle157"/>
	<circle cx="445.039" cy="320.28" r="4" fill="#0" id="circle158"/>
	<circle cx="445.713" cy="34.3467" r="4" fill="#0" id="circle159"/>
	<circle cx="449.759" cy="314.885" r="4" fill="#0" id="circle160"/>
	<circle cx="452.457" cy="34.3467" r="4" fill="#0" id="circle161"/>
	<circle cx="453.131" cy="308.141" r="4" fill="#0" id="circle162"/>
	<circle cx="459.201" cy="34.3467" r="4" fill="#0" id="circle163"/>
	<circle cx="459.875" cy="304.77" r="4" fill="#0" id="circle164"/>
	<circle cx="465.27" cy="37.7186" r="4" fill="#0" id="circle165"/>
	<circle cx="465.27" cy="300.049" r="4" fill="#0" id="circle166"/>
	<circle cx="469.99" cy="291.282" r="4" fill="#0" id="circle167"/>
	<circle cx="471.339" cy="41.0904" r="4" fill="#0" id="circle168"/>
	<circle cx="475.385" cy="286.562" r="4" fill="#0" id="circle169"/>
	<circle cx="477.409" cy="44.4623" r="4" fill="#0" id="circle170"/>
	<circle cx="478.757" cy="279.818" r="4" fill="#0" id="circle171"/>
	<circle cx="483.478" cy="47.8341" r="4" fill="#0" id="circle172"/>
	<circle cx="485.501" cy="277.795" r="4" fill="#0" id="circle173"/>
	<circle cx="490.222" cy="49.8572" r="4" fill="#0" id="circle174"/>
	<circle cx="491.57" cy="281.167" r="4" fill="#0" id="circle175"/>
	<circle cx="496.291" cy="53.2291" r="4" fill="#0" id="circle176"/>
	<circle cx="498.314" cy="281.167" r="4" fill="#0" id="circle177"/>
	<circle cx="503.035" cy="55.9266" r="4" fill="#0" id="circle178"/>
	<circle cx="505.058" cy="281.167" r="4" fill="#0" id="circle179"/>
	<circle cx="507.081" cy="61.3215" r="4" fill="#0" id="circle180"/>
	<circle cx="511.127" cy="284.538" r="4" fill="#0" id="circle181"/>
	<circle cx="513.825" cy="61.3215" r="4" fill="#0" id="circle182"/>
	<circle cx="516.522" cy="288.585" r="4" fill="#0" id="circle183"/>
	<circle cx="519.22" cy="65.3678" r="4" fill="#0" id="circle184"/>
	<circle cx="521.917" cy="72.1115" r="4" fill="#0" id="circle185"/>
	<circle cx="523.266" cy="56.601" r="4" fill="#0" id="circle186"/>
	<circle cx="523.266" cy="291.282" r="4" fill="#0" id="circle187"/>
	<circle cx="526.638" cy="62.6703" r="4" fill="#0" id="circle188"/>
	<circle cx="528.661" cy="51.206" r="4" fill="#0" id="circle189"/>
	<circle cx="528.661" cy="74.809" r="4" fill="#0" id="circle190"/>
	<circle cx="530.01" cy="291.282" r="4" fill="#0" id="circle191"/>
	<circle cx="533.381" cy="43.1135" r="4" fill="#0" id="circle192"/>
	<circle cx="536.753" cy="32.998" r="4" fill="#0" id="circle193"/>
	<circle cx="536.753" cy="291.282" r="4" fill="#0" id="circle194"/>
	<circle cx="542.148" cy="27.603" r="4" fill="#0" id="circle195"/>
	<circle cx="543.497" cy="291.282" r="4" fill="#0" id="circle196"/>
	<circle cx="548.218" cy="24.2311" r="4" fill="#0" id="circle197"/>
	<circle cx="549.566" cy="294.654" r="4" fill="#0" id="circle198"/>
	<circle cx="553.613" cy="19.5105" r="4" fill="#0" id="circle199"/>
	<circle cx="556.31" cy="294.654" r="4" fill="#0" id="circle200"/>
	<circle cx="559.007" cy="14.1156" r="4" fill="#0" id="circle201"/>
	<circle cx="563.054" cy="294.654" r="4" fill="#0" id="circle202"/>
	<circle cx="565.751" cy="10.7437" r="4" fill="#0" id="circle203"/>
	<circle cx="569.797" cy="294.654" r="4" fill="#0" id="circle204"/>
	<circle cx="572.495" cy="7.37186" r="4" fill="#0" id="circle205"/>
	<circle cx="576.541" cy="294.654" r="4" fill="#0" id="circle206"/>
	<circle cx="579.239" cy="7.37186" r="4" fill="#0" id="circle207"/>
	<circle cx="583.285" cy="293.305" r="4" fill="#0" id="circle208"/>
	<circle cx="585.308" cy="4" r="4" fill="#0" id="circle209"/>
	<circle cx="590.029" cy="291.282" r="4" fill="#0" id="circle210"/>
	<circle cx="592.052" cy="4" r="4" fill="#0" id="circle211"/>
	<circle cx="596.772" cy="291.282" r="4" fill="#0" id="circle212"/>
	<circle cx="598.795" cy="4" r="4" fill="#0" id="circle213"/>
	<circle cx="603.516" cy="291.282" r="4" fill="#0" id="circle214"/>
	<circle cx="605.539" cy="4" r="4" fill="#0" id="circle215"/>
	<circle cx="609.585" cy="287.91" r="4" fill="#0" id="circle216"/>
	<circle cx="612.283" cy="4" r="4" fill="#0" id="circle217"/>
	<circle cx="616.329" cy="287.91" r="4" fill="#0" id="circle218"/>
	<circle cx="619.027" cy="4" r="4" fill="#0" id="circle219"/>
	<circle cx="621.05" cy="299.375" r="4" fill="#0" id="circle220"/>
	<circle cx="621.05" cy="306.118" r="4" fill="#0" id="circle221"/>
	<circle cx="623.073" cy="287.91" r="4" fill="#0" id="circle222"/>
	<circle cx="625.096" cy="7.37186" r="4" fill="#0" id="circle223"/>
	<circle cx="626.445" cy="293.98" r="4" fill="#0" id="circle224"/>
	<circle cx="627.793" cy="308.141" r="4" fill="#0" id="circle225"/>
	<circle cx="629.816" cy="287.91" r="4" fill="#0" id="circle226"/>
	<circle cx="631.84" cy="7.37186" r="4" fill="#0" id="circle227"/>
	<circle cx="633.863" cy="311.513" r="4" fill="#0" id="circle228"/>
	<circle cx="636.56" cy="287.91" r="4" fill="#0" id="circle229"/>
	<circle cx="638.583" cy="9.39497" r="4" fill="#0" id="circle230"/>
	<circle cx="640.606" cy="311.513" r="4" fill="#0" id="circle231"/>
	<circle cx="645.327" cy="10.7437" r="4" fill="#0" id="circle232"/>
	<circle cx="647.35" cy="311.513" r="4" fill="#0" id="circle233"/>
	<circle cx="651.396" cy="14.1156" r="4" fill="#0" id="circle234"/>
	<circle cx="654.094" cy="310.165" r="4" fill="#0" id="circle235"/>
	<circle cx="656.791" cy="18.1618" r="4" fill="#0" id="circle236"/>
	<circle cx="660.838" cy="308.141" r="4" fill="#0" id="circle237"/>
	<circle cx="662.186" cy="22.8824" r="4" fill="#0" id="circle238"/>
	<circle cx="667.581" cy="308.141" r="4" fill="#0" id="circle239"/>
	<circle cx="668.256" cy="26.2542" r="4" fill="#0" id="circle240"/>
	<circle cx="672.302" cy="31.6492" r="4" fill="#0" id="circle241"/>
	<circle cx="674.325" cy="308.141" r="4" fill="#0" id="circle242"/>
	<circle cx="675.674" cy="37.7186" r="4" fill="#0" id="circle243"/>
	<circle cx="681.069" cy="308.141" r="4" fill="#0" id="circle244"/>
	<circle cx="681.743" cy="41.0904" r="4" fill="#0" id="circle245"/>
	<circle cx="685.789" cy="46.4854" r="4" fill="#0" id="circle246"/>
	<circle cx="687.812" cy="308.141" r="4" fill="#0" id="circle247"/>
	<circle cx="690.51" cy="51.8804" r="4" fill="#0" id="circle248"/>
	<circle cx="694.556" cy="308.141" r="4" fill="#0" id="circle249"/>
	<circle cx="695.905" cy="56.601" r="4" fill="#0" id="circle250"/>
	<circle cx="700.625" cy="61.9959" r="4" fill="#0" id="circle251"/>
	<circle cx="701.3" cy="306.793" r="4" fill="#0" id="circle252"/>
	<circle cx="703.997" cy="68.0653" r="4" fill="#0" id="circle253"/>
	<circle cx="708.044" cy="304.77" r="4" fill="#0" id="circle254"/>
	<circle cx="710.067" cy="71.4371" r="4" fill="#0" id="circle255"/>
	<circle cx="714.787" cy="304.77" r="4" fill="#0" id="circle256"/>
	<circle cx="716.81" cy="71.4371" r="4" fill="#0" id="circle257"/>
	<circle cx="721.531" cy="304.77" r="4" fill="#0" id="circle258"/>
	<circle cx="723.554" cy="71.4371" r="4" fill="#0" id="circle259"/>
	<circle cx="727.6" cy="308.141" r="4" fill="#0" id="circle260"/>
	<circle cx="730.298" cy="71.4371" r="4" fill="#0" id="circle261"/>
	<circle cx="734.344" cy="308.141" r="4" fill="#0" id="circle262"/>
	<circle cx="737.041" cy="71.4371" r="4" fill="#0" id="circle263"/>
	<circle cx="740.413" cy="304.77" r="4" fill="#0" id="circle264"/>
	<circle cx="743.785" cy="71.4371" r="4" fill="#0" id="circle265"/>
	<circle cx="746.483" cy="301.398" r="4" fill="#0" id="circle266"/>
	<circle cx="749.855" cy="74.809" r="4" fill="#0" id="circle267"/>
	<circle cx="751.878" cy="296.677" r="4" fill="#0" id="circle268"/>
	<circle cx="756.598" cy="74.809" r="4" fill="#0" id="circle269"/>
	<circle cx="756.598" cy="287.91" r="4" fill="#0" id="circle270"/>
	<circle cx="761.993" cy="283.19" r="4" fill="#0" id="circle271"/>
	<circle cx="763.342" cy="74.809" r="4" fill="#0" id="circle272"/>
	<circle cx="768.737" cy="279.818" r="4" fill="#0" id="circle273"/>
	<circle cx="770.086" cy="74.809" r="4" fill="#0" id="circle274"/>
	<circle cx="772.783" cy="274.423" r="4" fill="#0" id="circle275"/>
	<circle cx="776.829" cy="74.809" r="4" fill="#0" id="circle276"/>
	<circle cx="778.178" cy="270.377" r="4" fill="#0" id="circle277"/>
	<circle cx="783.573" cy="74.809" r="4" fill="#0" id="circle278"/>
	<circle cx="784.922" cy="267.679" r="4" fill="#0" id="circle279"/>
	<circle cx="790.317" cy="74.809" r="4" fill="#0" id="circle280"/>
	<circle cx="790.991" cy="264.307" r="4" fill="#0" id="circle281"/>
	<circle cx="796.386" cy="78.1808" r="4" fill="#0" id="circle282"/>
	<circle cx="797.735" cy="264.307" r="4" fill="#0" id="circle283"/>
	<circle cx="803.13" cy="78.1808" r="4" fill="#0" id="circle284"/>
	<circle cx="804.479" cy="264.307" r="4" fill="#0" id="circle285"/>
	<circle cx="809.874" cy="78.1808" r="4" fill="#0" id="circle286"/>
	<circle cx="811.222" cy="264.307" r="4" fill="#0" id="circle287"/>
	<circle cx="816.617" cy="79.5296" r="4" fill="#0" id="circle288"/>
	<circle cx="817.966" cy="264.307" r="4" fill="#0" id="circle289"/>
	<circle cx="823.361" cy="81.5527" r="4" fill="#0" id="circle290"/>
	<circle cx="824.035" cy="260.935" r="4" fill="#0" id="circle291"/>
	<circle cx="830.105" cy="81.5527" r="4" fill="#0" id="circle292"/>
	<circle cx="830.779" cy="260.935" r="4" fill="#0" id="circle293"/>
	<circle cx="836.848" cy="81.5527" r="4" fill="#0" id="circle294"/>
	<circle cx="837.523" cy="260.935" r="4" fill="#0" id="circle295"/>
	<circle cx="842.918" cy="84.9245" r="4" fill="#0" id="circle296"/>
	<circle cx="844.266" cy="260.935" r="4" fill="#0" id="circle297"/>
	<circle cx="849.661" cy="84.9245" r="4" fill="#0" id="circle298"/>
	<circle cx="850.336" cy="257.564" r="4" fill="#0" id="circle299"/>
	<circle cx="856.405" cy="85.5989" r="4" fill="#0" id="circle300"/>
	<circle cx="857.08" cy="257.564" r="4" fill="#0" id="circle301"/>
	<circle cx="862.475" cy="88.9708" r="4" fill="#0" id="circle302"/>
	<circle cx="863.823" cy="257.564" r="4" fill="#0" id="circle303"/>
	<circle cx="869.218" cy="91.6683" r="4" fill="#0" id="circle304"/>
	<circle cx="870.567" cy="257.564" r="4" fill="#0" id="circle305"/>
	<circle cx="875.962" cy="91.6683" r="4" fill="#0" id="circle306"/>
	<circle cx="877.311" cy="257.564" r="4" fill="#0" id="circle307"/>
	<circle cx="882.031" cy="95.0401" r="4" fill="#0" id="circle308"/>
	<circle cx="883.38" cy="254.192" r="4" fill="#0" id="circle309"/>
	<circle cx="888.775" cy="95.0401" r="4" fill="#0" id="circle310"/>
	<circle cx="890.124" cy="254.192" r="4" fill="#0" id="circle311"/>
	<circle cx="894.844" cy="98.412" r="4" fill="#0" id="circle312"/>
	<circle cx="896.867" cy="254.192" r="4" fill="#0" id="circle313"/>
	<circle cx="901.588" cy="100.435" r="4" fill="#0" id="circle314"/>
	<circle cx="903.611" cy="254.192" r="4" fill="#0" id="circle315"/>
	<circle cx="908.332" cy="101.784" r="4" fill="#0" id="circle316"/>
	<circle cx="909.68" cy="250.82" r="4" fill="#0" id="circle317"/>
	<circle cx="915.075" cy="101.784" r="4" fill="#0" id="circle318"/>
	<circle cx="916.424" cy="250.82" r="4" fill="#0" id="circle319"/>
	<circle cx="921.819" cy="101.784" r="4" fill="#0" id="circle320"/>
	<circle cx="923.168" cy="250.82" r="4" fill="#0" id="circle321"/>
	<circle cx="928.563" cy="103.807" r="4" fill="#0" id="circle322"/>
	<circle cx="929.912" cy="250.82" r="4" fill="#0" id="circle323"/>
	<circle cx="934.632" cy="107.179" r="4" fill="#0" id="circle324"/>
	<circle cx="936.655" cy="250.82" r="4" fill="#0" id="circle325"/>
	<circle cx="941.376" cy="109.876" r="4" fill="#0" id="circle326"/>
	<circle cx="942.725" cy="247.448" r="4" fill="#0" id="circle327"/>
	<circle cx="945.422" cy="115.271" r="4" fill="#0" id="circle328"/>
	<circle cx="948.794" cy="244.076" r="4" fill="#0" id="circle329"/>
	<circle cx="951.492" cy="118.643" r="4" fill="#0" id="circle330"/>
	<circle cx="955.538" cy="244.076" r="4" fill="#0" id="circle331"/>
	<circle cx="958.235" cy="119.992" r="4" fill="#0" id="circle332"/>
	<circle cx="962.281" cy="125.387" r="4" fill="#0" id="circle333"/>
	<circle cx="962.281" cy="240.704" r="4" fill="#0" id="circle334"/>
	<circle cx="967.676" cy="129.433" r="4" fill="#0" id="circle335"/>
	<circle cx="967.676" cy="235.984" r="4" fill="#0" id="circle336"/>
	<circle cx="972.397" cy="134.828" r="4" fill="#0" id="circle337"/>
	<circle cx="974.42" cy="232.612" r="4" fill="#0" id="circle338"/>
	<circle cx="977.792" cy="139.549" r="4" fill="#0" id="circle339"/>
	<circle cx="977.792" cy="225.868" r="4" fill="#0" id="circle340"/>
	<circle cx="980.489" cy="146.292" r="4" fill="#0" id="circle341"/>
	<circle cx="981.164" cy="219.124" r="4" fill="#0" id="circle342"/>
	<circle cx="983.861" cy="152.362" r="4" fill="#0" id="circle343"/>
	<circle cx="984.536" cy="212.381" r="4" fill="#0" id="circle344"/>
	<circle cx="988.582" cy="157.757" r="4" fill="#0" id="circle345"/>
	<circle cx="989.256" cy="206.986" r="4" fill="#0" id="circle346"/>
	<circle cx="992.628" cy="163.152" r="4" fill="#0" id="circle347"/>
	<circle cx="992.628" cy="169.895" r="4" fill="#0" id="circle348"/>
	<circle cx="992.628" cy="196.87" r="4" fill="#0" id="circle349"/>
	<circle cx="993.977" cy="176.639" r="4" fill="#0" id="circle350"/>
	<circle cx="996" cy="183.383" r="4" fill="#0" id="circle351"/>
	<circle cx="996" cy="190.126" r="4" fill="#0" id="circle352"/>
	</g>
</svg>