<?xml version="1.0" encoding="UTF-8" standalone="no"?>
<!-- Created with CurveBenchmark -->
<svg
	xmlns:dc="http://purl.org/dc/elements/1.1/"
	xmlns:cc="http://creativecommons.org/ns#"
	xmlns:rdf="http://www.w3.org/1999/02/22-rdf-syntax-ns#"
	xmlns:svg="http://www.w3.org/2000/svg"
	xmlns="http://www.w3.org/2000/svg"
	xmlns:sodipodi="http://sodipodi.sourceforge.net/DTD/sodipodi-0.dtd"
	xmlns:inkscape="http://www.inkscape.org/namespaces/inkscape"
	width="1000"
	height="1000"
	id="svg2"
	version="1.1"
	sodipodi:docname="manifold/gathang-hammer23.png.txt">
<defs
	id="defs4" />
<metadata
	id="metadata7">
	<rdf:RDF>
		<cc:Work
			rdf:about="">
			<dc:format>image/svg+xml</dc:format>
			<dc:type
				rdf:resource="http://purl.org/dc/dcmitype/StillImage" />
			<dc:title></dc:title>
		</cc:Work>
	</rdf:RDF>
</metadata>
<g
	inkscape:label="Layer 1"
	inkscape:groupmode="layer"
	id="layer1">
	<path style="fill:none;stroke:red;stroke-width:1px;stroke-linecap:butt;stroke-linejoin:miter;stroke-opacity:1" d="M 140.06,60.8978 125.217,90.5835 z" id="boundary" inkscape:connector-curvature="0" />
	<path style="fill:none;stroke:red;stroke-width:1px;stroke-linecap:butt;stroke-linejoin:miter;stroke-opacity:1" d="M 125.217,90.5835 105.426,107.9 z" id="boundary" inkscape:connector-curvature="0" />
	<path style="fill:none;stroke:red;stroke-width:1px;stroke-linecap:butt;stroke-linejoin:miter;stroke-opacity:1" d="M 105.426,107.9 85.6359,127.691 z" id="boundary" inkscape:connector-curvature="0" />
	<path style="fill:none;stroke:red;stroke-width:1px;stroke-linecap:butt;stroke-linejoin:miter;stroke-opacity:1" d="M 140.06,60.8978 159.85,41.1072 z" id="boundary" inkscape:connector-curvature="0" />
	<path style="fill:none;stroke:red;stroke-width:1px;stroke-linecap:butt;stroke-linejoin:miter;stroke-opacity:1" d="M 159.85,41.1072 179.641,21.3167 z" id="boundary" inkscape:connector-curvature="0" />
	<path style="fill:none;stroke:red;stroke-width:1px;stroke-linecap:butt;stroke-linejoin:miter;stroke-opacity:1" d="M 41.1072,234.065 16.3691,246.434 z" id="boundary" inkscape:connector-curvature="0" />
	<path style="fill:none;stroke:red;stroke-width:1px;stroke-linecap:butt;stroke-linejoin:miter;stroke-opacity:1" d="M 53.4763,196.958 41.1072,234.065 z" id="boundary" inkscape:connector-curvature="0" />
	<path style="fill:none;stroke:red;stroke-width:1px;stroke-linecap:butt;stroke-linejoin:miter;stroke-opacity:1" d="M 53.4763,172.219 53.4763,196.958 z" id="boundary" inkscape:connector-curvature="0" />
	<path style="fill:none;stroke:red;stroke-width:1px;stroke-linecap:butt;stroke-linejoin:miter;stroke-opacity:1" d="M 4,271.172 16.3691,246.434 z" id="boundary" inkscape:connector-curvature="0" />
	<path style="fill:none;stroke:red;stroke-width:1px;stroke-linecap:butt;stroke-linejoin:miter;stroke-opacity:1" d="M 65.8454,147.481 85.6359,127.691 z" id="boundary" inkscape:connector-curvature="0" />
	<path style="fill:none;stroke:red;stroke-width:1px;stroke-linecap:butt;stroke-linejoin:miter;stroke-opacity:1" d="M 53.4763,172.219 65.8454,147.481 z" id="boundary" inkscape:connector-curvature="0" />
	<path style="fill:none;stroke:red;stroke-width:1px;stroke-linecap:butt;stroke-linejoin:miter;stroke-opacity:1" d="M 162.324,253.855 140.06,266.224 z" id="boundary" inkscape:connector-curvature="0" />
	<path style="fill:none;stroke:red;stroke-width:1px;stroke-linecap:butt;stroke-linejoin:miter;stroke-opacity:1" d="M 179.641,21.3167 199.431,4 z" id="boundary" inkscape:connector-curvature="0" />
	<path style="fill:none;stroke:red;stroke-width:1px;stroke-linecap:butt;stroke-linejoin:miter;stroke-opacity:1" d="M 199.431,4 224.17,4 z" id="boundary" inkscape:connector-curvature="0" />
	<path style="fill:none;stroke:red;stroke-width:1px;stroke-linecap:butt;stroke-linejoin:miter;stroke-opacity:1" d="M 273.646,100.479 261.277,125.217 z" id="boundary" inkscape:connector-curvature="0" />
	<path style="fill:none;stroke:red;stroke-width:1px;stroke-linecap:butt;stroke-linejoin:miter;stroke-opacity:1" d="M 268.698,28.7382 288.489,46.0549 z" id="boundary" inkscape:connector-curvature="0" />
	<path style="fill:none;stroke:red;stroke-width:1px;stroke-linecap:butt;stroke-linejoin:miter;stroke-opacity:1" d="M 288.489,46.0549 290.963,70.793 z" id="boundary" inkscape:connector-curvature="0" />
	<path style="fill:none;stroke:red;stroke-width:1px;stroke-linecap:butt;stroke-linejoin:miter;stroke-opacity:1" d="M 290.963,70.793 273.646,100.479 z" id="boundary" inkscape:connector-curvature="0" />
	<path style="fill:none;stroke:red;stroke-width:1px;stroke-linecap:butt;stroke-linejoin:miter;stroke-opacity:1" d="M 246.434,16.3691 268.698,28.7382 z" id="boundary" inkscape:connector-curvature="0" />
	<path style="fill:none;stroke:red;stroke-width:1px;stroke-linecap:butt;stroke-linejoin:miter;stroke-opacity:1" d="M 229.117,167.272 248.908,149.955 z" id="boundary" inkscape:connector-curvature="0" />
	<path style="fill:none;stroke:red;stroke-width:1px;stroke-linecap:butt;stroke-linejoin:miter;stroke-opacity:1" d="M 241.486,189.536 229.117,167.272 z" id="boundary" inkscape:connector-curvature="0" />
	<path style="fill:none;stroke:red;stroke-width:1px;stroke-linecap:butt;stroke-linejoin:miter;stroke-opacity:1" d="M 261.277,125.217 248.908,149.955 z" id="boundary" inkscape:connector-curvature="0" />
	<path style="fill:none;stroke:red;stroke-width:1px;stroke-linecap:butt;stroke-linejoin:miter;stroke-opacity:1" d="M 263.751,201.905 241.486,189.536 z" id="boundary" inkscape:connector-curvature="0" />
	<path style="fill:none;stroke:red;stroke-width:1px;stroke-linecap:butt;stroke-linejoin:miter;stroke-opacity:1" d="M 263.751,201.905 283.541,216.748 z" id="boundary" inkscape:connector-curvature="0" />
	<path style="fill:none;stroke:red;stroke-width:1px;stroke-linecap:butt;stroke-linejoin:miter;stroke-opacity:1" d="M 283.541,216.748 303.332,234.065 z" id="boundary" inkscape:connector-curvature="0" />
	<path style="fill:none;stroke:red;stroke-width:1px;stroke-linecap:butt;stroke-linejoin:miter;stroke-opacity:1" d="M 345.387,263.751 320.648,253.855 z" id="boundary" inkscape:connector-curvature="0" />
	<path style="fill:none;stroke:red;stroke-width:1px;stroke-linecap:butt;stroke-linejoin:miter;stroke-opacity:1" d="M 320.648,253.855 303.332,234.065 z" id="boundary" inkscape:connector-curvature="0" />
	<path style="fill:none;stroke:red;stroke-width:1px;stroke-linecap:butt;stroke-linejoin:miter;stroke-opacity:1" d="M 179.641,273.646 162.324,253.855 z" id="boundary" inkscape:connector-curvature="0" />
	<path style="fill:none;stroke:red;stroke-width:1px;stroke-linecap:butt;stroke-linejoin:miter;stroke-opacity:1" d="M 224.17,4 246.434,16.3691 z" id="boundary" inkscape:connector-curvature="0" />
	<path style="fill:none;stroke:red;stroke-width:1px;stroke-linecap:butt;stroke-linejoin:miter;stroke-opacity:1" d="M 4,295.91 4,271.172 z" id="boundary" inkscape:connector-curvature="0" />
	<path style="fill:none;stroke:red;stroke-width:1px;stroke-linecap:butt;stroke-linejoin:miter;stroke-opacity:1" d="M 16.3691,318.175 4,295.91 z" id="boundary" inkscape:connector-curvature="0" />
	<path style="fill:none;stroke:red;stroke-width:1px;stroke-linecap:butt;stroke-linejoin:miter;stroke-opacity:1" d="M 117.796,278.594 102.953,320.648 z" id="boundary" inkscape:connector-curvature="0" />
	<path style="fill:none;stroke:red;stroke-width:1px;stroke-linecap:butt;stroke-linejoin:miter;stroke-opacity:1" d="M 221.696,303.332 199.431,290.963 z" id="boundary" inkscape:connector-curvature="0" />
	<path style="fill:none;stroke:red;stroke-width:1px;stroke-linecap:butt;stroke-linejoin:miter;stroke-opacity:1" d="M 117.796,278.594 140.06,266.224 z" id="boundary" inkscape:connector-curvature="0" />
	<path style="fill:none;stroke:red;stroke-width:1px;stroke-linecap:butt;stroke-linejoin:miter;stroke-opacity:1" d="M 179.641,273.646 199.431,290.963 z" id="boundary" inkscape:connector-curvature="0" />
	<path style="fill:none;stroke:red;stroke-width:1px;stroke-linecap:butt;stroke-linejoin:miter;stroke-opacity:1" d="M 58.4239,340.439 33.6858,337.965 z" id="boundary" inkscape:connector-curvature="0" />
	<path style="fill:none;stroke:red;stroke-width:1px;stroke-linecap:butt;stroke-linejoin:miter;stroke-opacity:1" d="M 33.6858,337.965 16.3691,318.175 z" id="boundary" inkscape:connector-curvature="0" />
	<path style="fill:none;stroke:red;stroke-width:1px;stroke-linecap:butt;stroke-linejoin:miter;stroke-opacity:1" d="M 221.696,303.332 241.486,320.648 z" id="boundary" inkscape:connector-curvature="0" />
	<path style="fill:none;stroke:red;stroke-width:1px;stroke-linecap:butt;stroke-linejoin:miter;stroke-opacity:1" d="M 241.486,320.648 263.751,333.017 z" id="boundary" inkscape:connector-curvature="0" />
	<path style="fill:none;stroke:red;stroke-width:1px;stroke-linecap:butt;stroke-linejoin:miter;stroke-opacity:1" d="M 83.1621,340.439 102.953,320.648 z" id="boundary" inkscape:connector-curvature="0" />
	<path style="fill:none;stroke:red;stroke-width:1px;stroke-linecap:butt;stroke-linejoin:miter;stroke-opacity:1" d="M 83.1621,340.439 58.4239,340.439 z" id="boundary" inkscape:connector-curvature="0" />
	<path style="fill:none;stroke:red;stroke-width:1px;stroke-linecap:butt;stroke-linejoin:miter;stroke-opacity:1" d="M 288.489,340.439 263.751,333.017 z" id="boundary" inkscape:connector-curvature="0" />
	<path style="fill:none;stroke:red;stroke-width:1px;stroke-linecap:butt;stroke-linejoin:miter;stroke-opacity:1" d="M 345.387,263.751 362.703,283.541 z" id="boundary" inkscape:connector-curvature="0" />
	<path style="fill:none;stroke:red;stroke-width:1px;stroke-linecap:butt;stroke-linejoin:miter;stroke-opacity:1" d="M 288.489,340.439 303.332,360.229 z" id="boundary" inkscape:connector-curvature="0" />
	<path style="fill:none;stroke:red;stroke-width:1px;stroke-linecap:butt;stroke-linejoin:miter;stroke-opacity:1" d="M 362.703,283.541 387.441,293.436 z" id="boundary" inkscape:connector-curvature="0" />
	<path style="fill:none;stroke:red;stroke-width:1px;stroke-linecap:butt;stroke-linejoin:miter;stroke-opacity:1" d="M 387.441,293.436 409.706,305.805 z" id="boundary" inkscape:connector-curvature="0" />
	<path style="fill:none;stroke:red;stroke-width:1px;stroke-linecap:butt;stroke-linejoin:miter;stroke-opacity:1" d="M 451.761,333.017 427.022,325.596 z" id="boundary" inkscape:connector-curvature="0" />
	<path style="fill:none;stroke:red;stroke-width:1px;stroke-linecap:butt;stroke-linejoin:miter;stroke-opacity:1" d="M 427.022,325.596 409.706,305.805 z" id="boundary" inkscape:connector-curvature="0" />
	<path style="fill:none;stroke:red;stroke-width:1px;stroke-linecap:butt;stroke-linejoin:miter;stroke-opacity:1" d="M 303.332,360.229 323.122,377.546 z" id="boundary" inkscape:connector-curvature="0" />
	<path style="fill:none;stroke:red;stroke-width:1px;stroke-linecap:butt;stroke-linejoin:miter;stroke-opacity:1" d="M 323.122,377.546 340.439,397.337 z" id="boundary" inkscape:connector-curvature="0" />
	<path style="fill:none;stroke:red;stroke-width:1px;stroke-linecap:butt;stroke-linejoin:miter;stroke-opacity:1" d="M 365.177,407.232 340.439,397.337 z" id="boundary" inkscape:connector-curvature="0" />
	<path style="fill:none;stroke:red;stroke-width:1px;stroke-linecap:butt;stroke-linejoin:miter;stroke-opacity:1" d="M 365.177,407.232 382.494,427.022 z" id="boundary" inkscape:connector-curvature="0" />
	<path style="fill:none;stroke:red;stroke-width:1px;stroke-linecap:butt;stroke-linejoin:miter;stroke-opacity:1" d="M 382.494,427.022 404.758,439.392 z" id="boundary" inkscape:connector-curvature="0" />
	<path style="fill:none;stroke:red;stroke-width:1px;stroke-linecap:butt;stroke-linejoin:miter;stroke-opacity:1" d="M 424.549,454.234 404.758,439.392 z" id="boundary" inkscape:connector-curvature="0" />
	<path style="fill:none;stroke:red;stroke-width:1px;stroke-linecap:butt;stroke-linejoin:miter;stroke-opacity:1" d="M 424.549,454.234 441.865,474.025 z" id="boundary" inkscape:connector-curvature="0" />
	<path style="fill:none;stroke:red;stroke-width:1px;stroke-linecap:butt;stroke-linejoin:miter;stroke-opacity:1" d="M 474.025,345.387 493.815,362.703 z" id="boundary" inkscape:connector-curvature="0" />
	<path style="fill:none;stroke:red;stroke-width:1px;stroke-linecap:butt;stroke-linejoin:miter;stroke-opacity:1" d="M 474.025,345.387 451.761,333.017 z" id="boundary" inkscape:connector-curvature="0" />
	<path style="fill:none;stroke:red;stroke-width:1px;stroke-linecap:butt;stroke-linejoin:miter;stroke-opacity:1" d="M 516.08,375.072 493.815,362.703 z" id="boundary" inkscape:connector-curvature="0" />
	<path style="fill:none;stroke:red;stroke-width:1px;stroke-linecap:butt;stroke-linejoin:miter;stroke-opacity:1" d="M 516.08,375.072 538.344,387.441 z" id="boundary" inkscape:connector-curvature="0" />
	<path style="fill:none;stroke:red;stroke-width:1px;stroke-linecap:butt;stroke-linejoin:miter;stroke-opacity:1" d="M 558.135,402.284 538.344,387.441 z" id="boundary" inkscape:connector-curvature="0" />
	<path style="fill:none;stroke:red;stroke-width:1px;stroke-linecap:butt;stroke-linejoin:miter;stroke-opacity:1" d="M 580.399,414.653 558.135,402.284 z" id="boundary" inkscape:connector-curvature="0" />
	<path style="fill:none;stroke:red;stroke-width:1px;stroke-linecap:butt;stroke-linejoin:miter;stroke-opacity:1" d="M 461.656,488.868 441.865,474.025 z" id="boundary" inkscape:connector-curvature="0" />
	<path style="fill:none;stroke:red;stroke-width:1px;stroke-linecap:butt;stroke-linejoin:miter;stroke-opacity:1" d="M 483.92,501.237 461.656,488.868 z" id="boundary" inkscape:connector-curvature="0" />
	<path style="fill:none;stroke:red;stroke-width:1px;stroke-linecap:butt;stroke-linejoin:miter;stroke-opacity:1" d="M 506.185,513.606 525.975,530.923 z" id="boundary" inkscape:connector-curvature="0" />
	<path style="fill:none;stroke:red;stroke-width:1px;stroke-linecap:butt;stroke-linejoin:miter;stroke-opacity:1" d="M 483.92,501.237 506.185,513.606 z" id="boundary" inkscape:connector-curvature="0" />
	<path style="fill:none;stroke:red;stroke-width:1px;stroke-linecap:butt;stroke-linejoin:miter;stroke-opacity:1" d="M 548.239,543.292 572.978,550.713 z" id="boundary" inkscape:connector-curvature="0" />
	<path style="fill:none;stroke:red;stroke-width:1px;stroke-linecap:butt;stroke-linejoin:miter;stroke-opacity:1" d="M 548.239,543.292 525.975,530.923 z" id="boundary" inkscape:connector-curvature="0" />
	<path style="fill:none;stroke:red;stroke-width:1px;stroke-linecap:butt;stroke-linejoin:miter;stroke-opacity:1" d="M 622.454,444.339 600.19,431.97 z" id="boundary" inkscape:connector-curvature="0" />
	<path style="fill:none;stroke:red;stroke-width:1px;stroke-linecap:butt;stroke-linejoin:miter;stroke-opacity:1" d="M 600.19,431.97 580.399,414.653 z" id="boundary" inkscape:connector-curvature="0" />
	<path style="fill:none;stroke:red;stroke-width:1px;stroke-linecap:butt;stroke-linejoin:miter;stroke-opacity:1" d="M 622.454,444.339 642.244,461.656 z" id="boundary" inkscape:connector-curvature="0" />
	<path style="fill:none;stroke:red;stroke-width:1px;stroke-linecap:butt;stroke-linejoin:miter;stroke-opacity:1" d="M 642.244,461.656 664.509,474.025 z" id="boundary" inkscape:connector-curvature="0" />
	<path style="fill:none;stroke:red;stroke-width:1px;stroke-linecap:butt;stroke-linejoin:miter;stroke-opacity:1" d="M 664.509,474.025 686.773,486.394 z" id="boundary" inkscape:connector-curvature="0" />
	<path style="fill:none;stroke:red;stroke-width:1px;stroke-linecap:butt;stroke-linejoin:miter;stroke-opacity:1" d="M 706.564,501.237 686.773,486.394 z" id="boundary" inkscape:connector-curvature="0" />
	<path style="fill:none;stroke:red;stroke-width:1px;stroke-linecap:butt;stroke-linejoin:miter;stroke-opacity:1" d="M 728.828,513.606 706.564,501.237 z" id="boundary" inkscape:connector-curvature="0" />
	<path style="fill:none;stroke:red;stroke-width:1px;stroke-linecap:butt;stroke-linejoin:miter;stroke-opacity:1" d="M 595.242,563.082 572.978,550.713 z" id="boundary" inkscape:connector-curvature="0" />
	<path style="fill:none;stroke:red;stroke-width:1px;stroke-linecap:butt;stroke-linejoin:miter;stroke-opacity:1" d="M 637.297,592.768 612.559,582.873 z" id="boundary" inkscape:connector-curvature="0" />
	<path style="fill:none;stroke:red;stroke-width:1px;stroke-linecap:butt;stroke-linejoin:miter;stroke-opacity:1" d="M 612.559,582.873 595.242,563.082 z" id="boundary" inkscape:connector-curvature="0" />
	<path style="fill:none;stroke:red;stroke-width:1px;stroke-linecap:butt;stroke-linejoin:miter;stroke-opacity:1" d="M 748.618,530.923 770.883,543.292 z" id="boundary" inkscape:connector-curvature="0" />
	<path style="fill:none;stroke:red;stroke-width:1px;stroke-linecap:butt;stroke-linejoin:miter;stroke-opacity:1" d="M 748.618,530.923 728.828,513.606 z" id="boundary" inkscape:connector-curvature="0" />
	<path style="fill:none;stroke:red;stroke-width:1px;stroke-linecap:butt;stroke-linejoin:miter;stroke-opacity:1" d="M 770.883,543.292 790.673,560.608 z" id="boundary" inkscape:connector-curvature="0" />
	<path style="fill:none;stroke:red;stroke-width:1px;stroke-linecap:butt;stroke-linejoin:miter;stroke-opacity:1" d="M 812.938,572.978 790.673,560.608 z" id="boundary" inkscape:connector-curvature="0" />
	<path style="fill:none;stroke:red;stroke-width:1px;stroke-linecap:butt;stroke-linejoin:miter;stroke-opacity:1" d="M 835.202,585.347 812.938,572.978 z" id="boundary" inkscape:connector-curvature="0" />
	<path style="fill:none;stroke:red;stroke-width:1px;stroke-linecap:butt;stroke-linejoin:miter;stroke-opacity:1" d="M 679.352,622.454 654.613,612.559 z" id="boundary" inkscape:connector-curvature="0" />
	<path style="fill:none;stroke:red;stroke-width:1px;stroke-linecap:butt;stroke-linejoin:miter;stroke-opacity:1" d="M 654.613,612.559 637.297,592.768 z" id="boundary" inkscape:connector-curvature="0" />
	<path style="fill:none;stroke:red;stroke-width:1px;stroke-linecap:butt;stroke-linejoin:miter;stroke-opacity:1" d="M 679.352,622.454 699.142,637.297 z" id="boundary" inkscape:connector-curvature="0" />
	<path style="fill:none;stroke:red;stroke-width:1px;stroke-linecap:butt;stroke-linejoin:miter;stroke-opacity:1" d="M 721.406,649.666 699.142,637.297 z" id="boundary" inkscape:connector-curvature="0" />
	<path style="fill:none;stroke:red;stroke-width:1px;stroke-linecap:butt;stroke-linejoin:miter;stroke-opacity:1" d="M 857.466,597.716 835.202,585.347 z" id="boundary" inkscape:connector-curvature="0" />
	<path style="fill:none;stroke:red;stroke-width:1px;stroke-linecap:butt;stroke-linejoin:miter;stroke-opacity:1" d="M 721.406,649.666 743.671,662.035 z" id="boundary" inkscape:connector-curvature="0" />
	<path style="fill:none;stroke:red;stroke-width:1px;stroke-linecap:butt;stroke-linejoin:miter;stroke-opacity:1" d="M 765.935,674.404 743.671,662.035 z" id="boundary" inkscape:connector-curvature="0" />
	<path style="fill:none;stroke:red;stroke-width:1px;stroke-linecap:butt;stroke-linejoin:miter;stroke-opacity:1" d="M 765.935,674.404 785.726,691.721 z" id="boundary" inkscape:connector-curvature="0" />
	<path style="fill:none;stroke:red;stroke-width:1px;stroke-linecap:butt;stroke-linejoin:miter;stroke-opacity:1" d="M 785.726,691.721 807.99,704.09 z" id="boundary" inkscape:connector-curvature="0" />
	<path style="fill:none;stroke:red;stroke-width:1px;stroke-linecap:butt;stroke-linejoin:miter;stroke-opacity:1" d="M 832.728,711.511 847.571,731.302 z" id="boundary" inkscape:connector-curvature="0" />
	<path style="fill:none;stroke:red;stroke-width:1px;stroke-linecap:butt;stroke-linejoin:miter;stroke-opacity:1" d="M 807.99,704.09 832.728,711.511 z" id="boundary" inkscape:connector-curvature="0" />
	<path style="fill:none;stroke:red;stroke-width:1px;stroke-linecap:butt;stroke-linejoin:miter;stroke-opacity:1" d="M 872.309,741.197 847.571,731.302 z" id="boundary" inkscape:connector-curvature="0" />
	<path style="fill:none;stroke:red;stroke-width:1px;stroke-linecap:butt;stroke-linejoin:miter;stroke-opacity:1" d="M 857.466,597.716 877.257,612.559 z" id="boundary" inkscape:connector-curvature="0" />
	<path style="fill:none;stroke:red;stroke-width:1px;stroke-linecap:butt;stroke-linejoin:miter;stroke-opacity:1" d="M 901.995,622.454 919.312,642.244 z" id="boundary" inkscape:connector-curvature="0" />
	<path style="fill:none;stroke:red;stroke-width:1px;stroke-linecap:butt;stroke-linejoin:miter;stroke-opacity:1" d="M 901.995,622.454 877.257,612.559 z" id="boundary" inkscape:connector-curvature="0" />
	<path style="fill:none;stroke:red;stroke-width:1px;stroke-linecap:butt;stroke-linejoin:miter;stroke-opacity:1" d="M 944.05,652.14 919.312,642.244 z" id="boundary" inkscape:connector-curvature="0" />
	<path style="fill:none;stroke:red;stroke-width:1px;stroke-linecap:butt;stroke-linejoin:miter;stroke-opacity:1" d="M 944.05,652.14 966.314,664.509 z" id="boundary" inkscape:connector-curvature="0" />
	<path style="fill:none;stroke:red;stroke-width:1px;stroke-linecap:butt;stroke-linejoin:miter;stroke-opacity:1" d="M 966.314,664.509 983.631,684.299 z" id="boundary" inkscape:connector-curvature="0" />
	<path style="fill:none;stroke:red;stroke-width:1px;stroke-linecap:butt;stroke-linejoin:miter;stroke-opacity:1" d="M 983.631,684.299 996,706.564 z" id="boundary" inkscape:connector-curvature="0" />
	<path style="fill:none;stroke:red;stroke-width:1px;stroke-linecap:butt;stroke-linejoin:miter;stroke-opacity:1" d="M 996,706.564 996,736.249 z" id="boundary" inkscape:connector-curvature="0" />
	<path style="fill:none;stroke:red;stroke-width:1px;stroke-linecap:butt;stroke-linejoin:miter;stroke-opacity:1" d="M 914.364,770.883 889.626,760.988 z" id="boundary" inkscape:connector-curvature="0" />
	<path style="fill:none;stroke:red;stroke-width:1px;stroke-linecap:butt;stroke-linejoin:miter;stroke-opacity:1" d="M 889.626,760.988 872.309,741.197 z" id="boundary" inkscape:connector-curvature="0" />
	<path style="fill:none;stroke:red;stroke-width:1px;stroke-linecap:butt;stroke-linejoin:miter;stroke-opacity:1" d="M 914.364,770.883 934.155,785.726 z" id="boundary" inkscape:connector-curvature="0" />
	<path style="fill:none;stroke:red;stroke-width:1px;stroke-linecap:butt;stroke-linejoin:miter;stroke-opacity:1" d="M 958.893,785.726 934.155,785.726 z" id="boundary" inkscape:connector-curvature="0" />
	<path style="fill:none;stroke:red;stroke-width:1px;stroke-linecap:butt;stroke-linejoin:miter;stroke-opacity:1" d="M 978.683,768.409 958.893,785.726 z" id="boundary" inkscape:connector-curvature="0" />
	<path style="fill:none;stroke:red;stroke-width:1px;stroke-linecap:butt;stroke-linejoin:miter;stroke-opacity:1" d="M 996,736.249 978.683,768.409 z" id="boundary" inkscape:connector-curvature="0" />
	<circle cx="4" cy="271.172" r="4" fill="#0" id="circle0"/>
	<circle cx="4" cy="295.91" r="4" fill="#0" id="circle1"/>
	<circle cx="16.3691" cy="246.434" r="4" fill="#0" id="circle2"/>
	<circle cx="16.3691" cy="318.175" r="4" fill="#0" id="circle3"/>
	<circle cx="33.6858" cy="337.965" r="4" fill="#0" id="circle4"/>
	<circle cx="41.1072" cy="234.065" r="4" fill="#0" id="circle5"/>
	<circle cx="53.4763" cy="172.219" r="4" fill="#0" id="circle6"/>
	<circle cx="53.4763" cy="196.958" r="4" fill="#0" id="circle7"/>
	<circle cx="58.4239" cy="340.439" r="4" fill="#0" id="circle8"/>
	<circle cx="65.8454" cy="147.481" r="4" fill="#0" id="circle9"/>
	<circle cx="83.1621" cy="340.439" r="4" fill="#0" id="circle10"/>
	<circle cx="85.6359" cy="127.691" r="4" fill="#0" id="circle11"/>
	<circle cx="102.953" cy="320.648" r="4" fill="#0" id="circle12"/>
	<circle cx="105.426" cy="107.9" r="4" fill="#0" id="circle13"/>
	<circle cx="117.796" cy="278.594" r="4" fill="#0" id="circle14"/>
	<circle cx="125.217" cy="90.5835" r="4" fill="#0" id="circle15"/>
	<circle cx="140.06" cy="60.8978" r="4" fill="#0" id="circle16"/>
	<circle cx="140.06" cy="266.224" r="4" fill="#0" id="circle17"/>
	<circle cx="159.85" cy="41.1072" r="4" fill="#0" id="circle18"/>
	<circle cx="162.324" cy="253.855" r="4" fill="#0" id="circle19"/>
	<circle cx="179.641" cy="21.3167" r="4" fill="#0" id="circle20"/>
	<circle cx="179.641" cy="273.646" r="4" fill="#0" id="circle21"/>
	<circle cx="199.431" cy="4" r="4" fill="#0" id="circle22"/>
	<circle cx="199.431" cy="290.963" r="4" fill="#0" id="circle23"/>
	<circle cx="221.696" cy="303.332" r="4" fill="#0" id="circle24"/>
	<circle cx="224.17" cy="4" r="4" fill="#0" id="circle25"/>
	<circle cx="229.117" cy="167.272" r="4" fill="#0" id="circle26"/>
	<circle cx="241.486" cy="189.536" r="4" fill="#0" id="circle27"/>
	<circle cx="241.486" cy="320.648" r="4" fill="#0" id="circle28"/>
	<circle cx="246.434" cy="16.3691" r="4" fill="#0" id="circle29"/>
	<circle cx="248.908" cy="149.955" r="4" fill="#0" id="circle30"/>
	<circle cx="261.277" cy="125.217" r="4" fill="#0" id="circle31"/>
	<circle cx="263.751" cy="201.905" r="4" fill="#0" id="circle32"/>
	<circle cx="263.751" cy="333.017" r="4" fill="#0" id="circle33"/>
	<circle cx="268.698" cy="28.7382" r="4" fill="#0" id="circle34"/>
	<circle cx="273.646" cy="100.479" r="4" fill="#0" id="circle35"/>
	<circle cx="283.541" cy="216.748" r="4" fill="#0" id="circle36"/>
	<circle cx="288.489" cy="46.0549" r="4" fill="#0" id="circle37"/>
	<circle cx="288.489" cy="340.439" r="4" fill="#0" id="circle38"/>
	<circle cx="290.963" cy="70.793" r="4" fill="#0" id="circle39"/>
	<circle cx="303.332" cy="234.065" r="4" fill="#0" id="circle40"/>
	<circle cx="303.332" cy="360.229" r="4" fill="#0" id="circle41"/>
	<circle cx="320.648" cy="253.855" r="4" fill="#0" id="circle42"/>
	<circle cx="323.122" cy="377.546" r="4" fill="#0" id="circle43"/>
	<circle cx="340.439" cy="397.337" r="4" fill="#0" id="circle44"/>
	<circle cx="345.387" cy="263.751" r="4" fill="#0" id="circle45"/>
	<circle cx="362.703" cy="283.541" r="4" fill="#0" id="circle46"/>
	<circle cx="365.177" cy="407.232" r="4" fill="#0" id="circle47"/>
	<circle cx="382.494" cy="427.022" r="4" fill="#0" id="circle48"/>
	<circle cx="387.441" cy="293.436" r="4" fill="#0" id="circle49"/>
	<circle cx="404.758" cy="439.392" r="4" fill="#0" id="circle50"/>
	<circle cx="409.706" cy="305.805" r="4" fill="#0" id="circle51"/>
	<circle cx="424.549" cy="454.234" r="4" fill="#0" id="circle52"/>
	<circle cx="427.022" cy="325.596" r="4" fill="#0" id="circle53"/>
	<circle cx="441.865" cy="474.025" r="4" fill="#0" id="circle54"/>
	<circle cx="451.761" cy="333.017" r="4" fill="#0" id="circle55"/>
	<circle cx="461.656" cy="488.868" r="4" fill="#0" id="circle56"/>
	<circle cx="474.025" cy="345.387" r="4" fill="#0" id="circle57"/>
	<circle cx="483.92" cy="501.237" r="4" fill="#0" id="circle58"/>
	<circle cx="493.815" cy="362.703" r="4" fill="#0" id="circle59"/>
	<circle cx="506.185" cy="513.606" r="4" fill="#0" id="circle60"/>
	<circle cx="516.08" cy="375.072" r="4" fill="#0" id="circle61"/>
	<circle cx="525.975" cy="530.923" r="4" fill="#0" id="circle62"/>
	<circle cx="538.344" cy="387.441" r="4" fill="#0" id="circle63"/>
	<circle cx="548.239" cy="543.292" r="4" fill="#0" id="circle64"/>
	<circle cx="558.135" cy="402.284" r="4" fill="#0" id="circle65"/>
	<circle cx="572.978" cy="550.713" r="4" fill="#0" id="circle66"/>
	<circle cx="580.399" cy="414.653" r="4" fill="#0" id="circle67"/>
	<circle cx="595.242" cy="563.082" r="4" fill="#0" id="circle68"/>
	<circle cx="600.19" cy="431.97" r="4" fill="#0" id="circle69"/>
	<circle cx="612.559" cy="582.873" r="4" fill="#0" id="circle70"/>
	<circle cx="622.454" cy="444.339" r="4" fill="#0" id="circle71"/>
	<circle cx="637.297" cy="592.768" r="4" fill="#0" id="circle72"/>
	<circle cx="642.244" cy="461.656" r="4" fill="#0" id="circle73"/>
	<circle cx="654.613" cy="612.559" r="4" fill="#0" id="circle74"/>
	<circle cx="664.509" cy="474.025" r="4" fill="#0" id="circle75"/>
	<circle cx="679.352" cy="622.454" r="4" fill="#0" id="circle76"/>
	<circle cx="686.773" cy="486.394" r="4" fill="#0" id="circle77"/>
	<circle cx="699.142" cy="637.297" r="4" fill="#0" id="circle78"/>
	<circle cx="706.564" cy="501.237" r="4" fill="#0" id="circle79"/>
	<circle cx="721.406" cy="649.666" r="4" fill="#0" id="circle80"/>
	<circle cx="728.828" cy="513.606" r="4" fill="#0" id="circle81"/>
	<circle cx="743.671" cy="662.035" r="4" fill="#0" id="circle82"/>
	<circle cx="748.618" cy="530.923" r="4" fill="#0" id="circle83"/>
	<circle cx="765.935" cy="674.404" r="4" fill="#0" id="circle84"/>
	<circle cx="770.883" cy="543.292" r="4" fill="#0" id="circle85"/>
	<circle cx="785.726" cy="691.721" r="4" fill="#0" id="circle86"/>
	<circle cx="790.673" cy="560.608" r="4" fill="#0" id="circle87"/>
	<circle cx="807.99" cy="704.09" r="4" fill="#0" id="circle88"/>
	<circle cx="812.938" cy="572.978" r="4" fill="#0" id="circle89"/>
	<circle cx="832.728" cy="711.511" r="4" fill="#0" id="circle90"/>
	<circle cx="835.202" cy="585.347" r="4" fill="#0" id="circle91"/>
	<circle cx="847.571" cy="731.302" r="4" fill="#0" id="circle92"/>
	<circle cx="857.466" cy="597.716" r="4" fill="#0" id="circle93"/>
	<circle cx="872.309" cy="741.197" r="4" fill="#0" id="circle94"/>
	<circle cx="877.257" cy="612.559" r="4" fill="#0" id="circle95"/>
	<circle cx="889.626" cy="760.988" r="4" fill="#0" id="circle96"/>
	<circle cx="901.995" cy="622.454" r="4" fill="#0" id="circle97"/>
	<circle cx="914.364" cy="770.883" r="4" fill="#0" id="circle98"/>
	<circle cx="919.312" cy="642.244" r="4" fill="#0" id="circle99"/>
	<circle cx="934.155" cy="785.726" r="4" fill="#0" id="circle100"/>
	<circle cx="944.05" cy="652.14" r="4" fill="#0" id="circle101"/>
	<circle cx="958.893" cy="785.726" r="4" fill="#0" id="circle102"/>
	<circle cx="966.314" cy="664.509" r="4" fill="#0" id="circle103"/>
	<circle cx="978.683" cy="768.409" r="4" fill="#0" id="circle104"/>
	<circle cx="983.631" cy="684.299" r="4" fill="#0" id="circle105"/>
	<circle cx="996" cy="706.564" r="4" fill="#0" id="circle106"/>
	<circle cx="996" cy="736.249" r="4" fill="#0" id="circle107"/>
	</g>
</svg>