<?xml version="1.0" encoding="UTF-8" standalone="no"?>
<!-- Created with CurveBenchmark -->
<svg
	xmlns:dc="http://purl.org/dc/elements/1.1/"
	xmlns:cc="http://creativecommons.org/ns#"
	xmlns:rdf="http://www.w3.org/1999/02/22-rdf-syntax-ns#"
	xmlns:svg="http://www.w3.org/2000/svg"
	xmlns="http://www.w3.org/2000/svg"
	xmlns:sodipodi="http://sodipodi.sourceforge.net/DTD/sodipodi-0.dtd"
	xmlns:inkscape="http://www.inkscape.org/namespaces/inkscape"
	width="1000"
	height="1000"
	id="svg2"
	version="1.1"
	sodipodi:docname="manifold/gathang-truck-06.png.txt">
<defs
	id="defs4" />
<metadata
	id="metadata7">
	<rdf:RDF>
		<cc:Work
			rdf:about="">
			<dc:format>image/svg+xml</dc:format>
			<dc:type
				rdf:resource="http://purl.org/dc/dcmitype/StillImage" />
			<dc:title></dc:title>
		</cc:Work>
	</rdf:RDF>
</metadata>
<g
	inkscape:label="Layer 1"
	inkscape:groupmode="layer"
	id="layer1">
	<path style="fill:none;stroke:red;stroke-width:1px;stroke-linecap:butt;stroke-linejoin:miter;stroke-opacity:1" d="M 74.9906,162.795 93.6723,153.454 z" id="boundary" inkscape:connector-curvature="0" />
	<path style="fill:none;stroke:red;stroke-width:1px;stroke-linecap:butt;stroke-linejoin:miter;stroke-opacity:1" d="M 93.6723,153.454 112.354,153.454 z" id="boundary" inkscape:connector-curvature="0" />
	<path style="fill:none;stroke:red;stroke-width:1px;stroke-linecap:butt;stroke-linejoin:miter;stroke-opacity:1" d="M 37.6271,181.476 56.3089,172.136 z" id="boundary" inkscape:connector-curvature="0" />
	<path style="fill:none;stroke:red;stroke-width:1px;stroke-linecap:butt;stroke-linejoin:miter;stroke-opacity:1" d="M 56.3089,172.136 74.9906,162.795 z" id="boundary" inkscape:connector-curvature="0" />
	<path style="fill:none;stroke:red;stroke-width:1px;stroke-linecap:butt;stroke-linejoin:miter;stroke-opacity:1" d="M 168.399,144.113 187.081,144.113 z" id="boundary" inkscape:connector-curvature="0" />
	<path style="fill:none;stroke:red;stroke-width:1px;stroke-linecap:butt;stroke-linejoin:miter;stroke-opacity:1" d="M 149.718,153.454 168.399,144.113 z" id="boundary" inkscape:connector-curvature="0" />
	<path style="fill:none;stroke:red;stroke-width:1px;stroke-linecap:butt;stroke-linejoin:miter;stroke-opacity:1" d="M 114.222,276.753 95.5405,276.753 z" id="boundary" inkscape:connector-curvature="0" />
	<path style="fill:none;stroke:red;stroke-width:1px;stroke-linecap:butt;stroke-linejoin:miter;stroke-opacity:1" d="M 131.036,153.454 112.354,153.454 z" id="boundary" inkscape:connector-curvature="0" />
	<path style="fill:none;stroke:red;stroke-width:1px;stroke-linecap:butt;stroke-linejoin:miter;stroke-opacity:1" d="M 149.718,153.454 131.036,153.454 z" id="boundary" inkscape:connector-curvature="0" />
	<path style="fill:none;stroke:red;stroke-width:1px;stroke-linecap:butt;stroke-linejoin:miter;stroke-opacity:1" d="M 4,233.785 13.3409,250.599 z" id="boundary" inkscape:connector-curvature="0" />
	<path style="fill:none;stroke:red;stroke-width:1px;stroke-linecap:butt;stroke-linejoin:miter;stroke-opacity:1" d="M 4,233.785 13.3409,215.104 z" id="boundary" inkscape:connector-curvature="0" />
	<path style="fill:none;stroke:red;stroke-width:1px;stroke-linecap:butt;stroke-linejoin:miter;stroke-opacity:1" d="M 13.3409,215.104 22.6817,196.422 z" id="boundary" inkscape:connector-curvature="0" />
	<path style="fill:none;stroke:red;stroke-width:1px;stroke-linecap:butt;stroke-linejoin:miter;stroke-opacity:1" d="M 22.6817,267.412 39.4953,276.753 z" id="boundary" inkscape:connector-curvature="0" />
	<path style="fill:none;stroke:red;stroke-width:1px;stroke-linecap:butt;stroke-linejoin:miter;stroke-opacity:1" d="M 22.6817,267.412 13.3409,250.599 z" id="boundary" inkscape:connector-curvature="0" />
	<path style="fill:none;stroke:red;stroke-width:1px;stroke-linecap:butt;stroke-linejoin:miter;stroke-opacity:1" d="M 58.177,276.753 76.8588,276.753 z" id="boundary" inkscape:connector-curvature="0" />
	<path style="fill:none;stroke:red;stroke-width:1px;stroke-linecap:butt;stroke-linejoin:miter;stroke-opacity:1" d="M 58.177,276.753 39.4953,276.753 z" id="boundary" inkscape:connector-curvature="0" />
	<path style="fill:none;stroke:red;stroke-width:1px;stroke-linecap:butt;stroke-linejoin:miter;stroke-opacity:1" d="M 22.6817,196.422 37.6271,181.476 z" id="boundary" inkscape:connector-curvature="0" />
	<path style="fill:none;stroke:red;stroke-width:1px;stroke-linecap:butt;stroke-linejoin:miter;stroke-opacity:1" d="M 76.8588,276.753 95.5405,276.753 z" id="boundary" inkscape:connector-curvature="0" />
	<path style="fill:none;stroke:red;stroke-width:1px;stroke-linecap:butt;stroke-linejoin:miter;stroke-opacity:1" d="M 405.657,101.145 386.976,106.75 z" id="boundary" inkscape:connector-curvature="0" />
	<path style="fill:none;stroke:red;stroke-width:1px;stroke-linecap:butt;stroke-linejoin:miter;stroke-opacity:1" d="M 386.976,106.75 368.294,106.75 z" id="boundary" inkscape:connector-curvature="0" />
	<path style="fill:none;stroke:red;stroke-width:1px;stroke-linecap:butt;stroke-linejoin:miter;stroke-opacity:1" d="M 405.657,101.145 424.339,106.75 z" id="boundary" inkscape:connector-curvature="0" />
	<path style="fill:none;stroke:red;stroke-width:1px;stroke-linecap:butt;stroke-linejoin:miter;stroke-opacity:1" d="M 435.548,91.8041 424.339,106.75 z" id="boundary" inkscape:connector-curvature="0" />
	<path style="fill:none;stroke:red;stroke-width:1px;stroke-linecap:butt;stroke-linejoin:miter;stroke-opacity:1" d="M 351.48,116.09 368.294,106.75 z" id="boundary" inkscape:connector-curvature="0" />
	<path style="fill:none;stroke:red;stroke-width:1px;stroke-linecap:butt;stroke-linejoin:miter;stroke-opacity:1" d="M 452.362,28.2863 467.307,13.3409 z" id="boundary" inkscape:connector-curvature="0" />
	<path style="fill:none;stroke:red;stroke-width:1px;stroke-linecap:butt;stroke-linejoin:miter;stroke-opacity:1" d="M 452.362,46.968 452.362,28.2863 z" id="boundary" inkscape:connector-curvature="0" />
	<path style="fill:none;stroke:red;stroke-width:1px;stroke-linecap:butt;stroke-linejoin:miter;stroke-opacity:1" d="M 444.889,73.1224 435.548,91.8041 z" id="boundary" inkscape:connector-curvature="0" />
	<path style="fill:none;stroke:red;stroke-width:1px;stroke-linecap:butt;stroke-linejoin:miter;stroke-opacity:1" d="M 452.362,46.968 444.889,73.1224 z" id="boundary" inkscape:connector-curvature="0" />
	<path style="fill:none;stroke:red;stroke-width:1px;stroke-linecap:butt;stroke-linejoin:miter;stroke-opacity:1" d="M 224.444,134.772 243.126,134.772 z" id="boundary" inkscape:connector-curvature="0" />
	<path style="fill:none;stroke:red;stroke-width:1px;stroke-linecap:butt;stroke-linejoin:miter;stroke-opacity:1" d="M 205.763,144.113 224.444,134.772 z" id="boundary" inkscape:connector-curvature="0" />
	<path style="fill:none;stroke:red;stroke-width:1px;stroke-linecap:butt;stroke-linejoin:miter;stroke-opacity:1" d="M 243.126,134.772 261.808,134.772 z" id="boundary" inkscape:connector-curvature="0" />
	<path style="fill:none;stroke:red;stroke-width:1px;stroke-linecap:butt;stroke-linejoin:miter;stroke-opacity:1" d="M 205.763,144.113 187.081,144.113 z" id="boundary" inkscape:connector-curvature="0" />
	<path style="fill:none;stroke:red;stroke-width:1px;stroke-linecap:butt;stroke-linejoin:miter;stroke-opacity:1" d="M 351.48,116.09 334.667,125.431 z" id="boundary" inkscape:connector-curvature="0" />
	<path style="fill:none;stroke:red;stroke-width:1px;stroke-linecap:butt;stroke-linejoin:miter;stroke-opacity:1" d="M 334.667,125.431 315.985,125.431 z" id="boundary" inkscape:connector-curvature="0" />
	<path style="fill:none;stroke:red;stroke-width:1px;stroke-linecap:butt;stroke-linejoin:miter;stroke-opacity:1" d="M 315.985,125.431 299.171,134.772 z" id="boundary" inkscape:connector-curvature="0" />
	<path style="fill:none;stroke:red;stroke-width:1px;stroke-linecap:butt;stroke-linejoin:miter;stroke-opacity:1" d="M 299.171,134.772 280.49,134.772 z" id="boundary" inkscape:connector-curvature="0" />
	<path style="fill:none;stroke:red;stroke-width:1px;stroke-linecap:butt;stroke-linejoin:miter;stroke-opacity:1" d="M 261.808,134.772 280.49,134.772 z" id="boundary" inkscape:connector-curvature="0" />
	<path style="fill:none;stroke:red;stroke-width:1px;stroke-linecap:butt;stroke-linejoin:miter;stroke-opacity:1" d="M 484.121,4 467.307,13.3409 z" id="boundary" inkscape:connector-curvature="0" />
	<path style="fill:none;stroke:red;stroke-width:1px;stroke-linecap:butt;stroke-linejoin:miter;stroke-opacity:1" d="M 116.09,345.876 106.75,364.557 z" id="boundary" inkscape:connector-curvature="0" />
	<path style="fill:none;stroke:red;stroke-width:1px;stroke-linecap:butt;stroke-linejoin:miter;stroke-opacity:1" d="M 131.036,330.93 116.09,345.876 z" id="boundary" inkscape:connector-curvature="0" />
	<path style="fill:none;stroke:red;stroke-width:1px;stroke-linecap:butt;stroke-linejoin:miter;stroke-opacity:1" d="M 97.4087,383.239 106.75,364.557 z" id="boundary" inkscape:connector-curvature="0" />
	<path style="fill:none;stroke:red;stroke-width:1px;stroke-linecap:butt;stroke-linejoin:miter;stroke-opacity:1" d="M 97.4087,383.239 88.0678,411.262 z" id="boundary" inkscape:connector-curvature="0" />
	<path style="fill:none;stroke:red;stroke-width:1px;stroke-linecap:butt;stroke-linejoin:miter;stroke-opacity:1" d="M 132.904,276.753 151.586,276.753 z" id="boundary" inkscape:connector-curvature="0" />
	<path style="fill:none;stroke:red;stroke-width:1px;stroke-linecap:butt;stroke-linejoin:miter;stroke-opacity:1" d="M 151.586,276.753 162.795,291.699 z" id="boundary" inkscape:connector-curvature="0" />
	<path style="fill:none;stroke:red;stroke-width:1px;stroke-linecap:butt;stroke-linejoin:miter;stroke-opacity:1" d="M 149.718,321.589 131.036,330.93 z" id="boundary" inkscape:connector-curvature="0" />
	<path style="fill:none;stroke:red;stroke-width:1px;stroke-linecap:butt;stroke-linejoin:miter;stroke-opacity:1" d="M 162.795,291.699 149.718,321.589 z" id="boundary" inkscape:connector-curvature="0" />
	<path style="fill:none;stroke:red;stroke-width:1px;stroke-linecap:butt;stroke-linejoin:miter;stroke-opacity:1" d="M 114.222,276.753 132.904,276.753 z" id="boundary" inkscape:connector-curvature="0" />
	<path style="fill:none;stroke:red;stroke-width:1px;stroke-linecap:butt;stroke-linejoin:miter;stroke-opacity:1" d="M 78.7269,457.966 78.7269,439.284 z" id="boundary" inkscape:connector-curvature="0" />
	<path style="fill:none;stroke:red;stroke-width:1px;stroke-linecap:butt;stroke-linejoin:miter;stroke-opacity:1" d="M 88.0678,411.262 78.7269,439.284 z" id="boundary" inkscape:connector-curvature="0" />
	<path style="fill:none;stroke:red;stroke-width:1px;stroke-linecap:butt;stroke-linejoin:miter;stroke-opacity:1" d="M 78.7269,457.966 78.7269,476.648 z" id="boundary" inkscape:connector-curvature="0" />
	<path style="fill:none;stroke:red;stroke-width:1px;stroke-linecap:butt;stroke-linejoin:miter;stroke-opacity:1" d="M 93.6723,489.725 78.7269,476.648 z" id="boundary" inkscape:connector-curvature="0" />
	<path style="fill:none;stroke:red;stroke-width:1px;stroke-linecap:butt;stroke-linejoin:miter;stroke-opacity:1" d="M 127.299,500.934 142.245,487.857 z" id="boundary" inkscape:connector-curvature="0" />
	<path style="fill:none;stroke:red;stroke-width:1px;stroke-linecap:butt;stroke-linejoin:miter;stroke-opacity:1" d="M 108.618,500.934 93.6723,489.725 z" id="boundary" inkscape:connector-curvature="0" />
	<path style="fill:none;stroke:red;stroke-width:1px;stroke-linecap:butt;stroke-linejoin:miter;stroke-opacity:1" d="M 127.299,500.934 108.618,500.934 z" id="boundary" inkscape:connector-curvature="0" />
	<path style="fill:none;stroke:red;stroke-width:1px;stroke-linecap:butt;stroke-linejoin:miter;stroke-opacity:1" d="M 142.245,487.857 160.927,482.252 z" id="boundary" inkscape:connector-curvature="0" />
	<path style="fill:none;stroke:red;stroke-width:1px;stroke-linecap:butt;stroke-linejoin:miter;stroke-opacity:1" d="M 160.927,482.252 174.004,497.198 z" id="boundary" inkscape:connector-curvature="0" />
	<path style="fill:none;stroke:red;stroke-width:1px;stroke-linecap:butt;stroke-linejoin:miter;stroke-opacity:1" d="M 342.139,463.571 323.458,463.571 z" id="boundary" inkscape:connector-curvature="0" />
	<path style="fill:none;stroke:red;stroke-width:1px;stroke-linecap:butt;stroke-linejoin:miter;stroke-opacity:1" d="M 342.139,463.571 360.821,463.571 z" id="boundary" inkscape:connector-curvature="0" />
	<path style="fill:none;stroke:red;stroke-width:1px;stroke-linecap:butt;stroke-linejoin:miter;stroke-opacity:1" d="M 379.503,454.23 360.821,463.571 z" id="boundary" inkscape:connector-curvature="0" />
	<path style="fill:none;stroke:red;stroke-width:1px;stroke-linecap:butt;stroke-linejoin:miter;stroke-opacity:1" d="M 379.503,454.23 398.185,454.23 z" id="boundary" inkscape:connector-curvature="0" />
	<path style="fill:none;stroke:red;stroke-width:1px;stroke-linecap:butt;stroke-linejoin:miter;stroke-opacity:1" d="M 304.776,472.911 323.458,463.571 z" id="boundary" inkscape:connector-curvature="0" />
	<path style="fill:none;stroke:red;stroke-width:1px;stroke-linecap:butt;stroke-linejoin:miter;stroke-opacity:1" d="M 398.185,454.23 416.866,454.23 z" id="boundary" inkscape:connector-curvature="0" />
	<path style="fill:none;stroke:red;stroke-width:1px;stroke-linecap:butt;stroke-linejoin:miter;stroke-opacity:1" d="M 416.866,454.23 435.548,454.23 z" id="boundary" inkscape:connector-curvature="0" />
	<path style="fill:none;stroke:red;stroke-width:1px;stroke-linecap:butt;stroke-linejoin:miter;stroke-opacity:1" d="M 454.23,454.23 435.548,454.23 z" id="boundary" inkscape:connector-curvature="0" />
	<path style="fill:none;stroke:red;stroke-width:1px;stroke-linecap:butt;stroke-linejoin:miter;stroke-opacity:1" d="M 174.004,497.198 188.949,510.275 z" id="boundary" inkscape:connector-curvature="0" />
	<path style="fill:none;stroke:red;stroke-width:1px;stroke-linecap:butt;stroke-linejoin:miter;stroke-opacity:1" d="M 241.258,510.275 224.444,519.616 z" id="boundary" inkscape:connector-curvature="0" />
	<path style="fill:none;stroke:red;stroke-width:1px;stroke-linecap:butt;stroke-linejoin:miter;stroke-opacity:1" d="M 224.444,519.616 205.763,519.616 z" id="boundary" inkscape:connector-curvature="0" />
	<path style="fill:none;stroke:red;stroke-width:1px;stroke-linecap:butt;stroke-linejoin:miter;stroke-opacity:1" d="M 205.763,519.616 188.949,510.275 z" id="boundary" inkscape:connector-curvature="0" />
	<path style="fill:none;stroke:red;stroke-width:1px;stroke-linecap:butt;stroke-linejoin:miter;stroke-opacity:1" d="M 267.412,472.911 286.094,472.911 z" id="boundary" inkscape:connector-curvature="0" />
	<path style="fill:none;stroke:red;stroke-width:1px;stroke-linecap:butt;stroke-linejoin:miter;stroke-opacity:1" d="M 258.072,491.593 267.412,472.911 z" id="boundary" inkscape:connector-curvature="0" />
	<path style="fill:none;stroke:red;stroke-width:1px;stroke-linecap:butt;stroke-linejoin:miter;stroke-opacity:1" d="M 241.258,510.275 258.072,491.593 z" id="boundary" inkscape:connector-curvature="0" />
	<path style="fill:none;stroke:red;stroke-width:1px;stroke-linecap:butt;stroke-linejoin:miter;stroke-opacity:1" d="M 286.094,472.911 304.776,472.911 z" id="boundary" inkscape:connector-curvature="0" />
	<path style="fill:none;stroke:red;stroke-width:1px;stroke-linecap:butt;stroke-linejoin:miter;stroke-opacity:1" d="M 454.23,454.23 472.911,454.23 z" id="boundary" inkscape:connector-curvature="0" />
	<path style="fill:none;stroke:red;stroke-width:1px;stroke-linecap:butt;stroke-linejoin:miter;stroke-opacity:1" d="M 472.911,454.23 489.725,463.571 z" id="boundary" inkscape:connector-curvature="0" />
	<path style="fill:none;stroke:red;stroke-width:1px;stroke-linecap:butt;stroke-linejoin:miter;stroke-opacity:1" d="M 502.802,4 521.484,4 z" id="boundary" inkscape:connector-curvature="0" />
	<path style="fill:none;stroke:red;stroke-width:1px;stroke-linecap:butt;stroke-linejoin:miter;stroke-opacity:1" d="M 540.166,4 558.847,4 z" id="boundary" inkscape:connector-curvature="0" />
	<path style="fill:none;stroke:red;stroke-width:1px;stroke-linecap:butt;stroke-linejoin:miter;stroke-opacity:1" d="M 521.484,4 540.166,4 z" id="boundary" inkscape:connector-curvature="0" />
	<path style="fill:none;stroke:red;stroke-width:1px;stroke-linecap:butt;stroke-linejoin:miter;stroke-opacity:1" d="M 596.211,4 614.893,4 z" id="boundary" inkscape:connector-curvature="0" />
	<path style="fill:none;stroke:red;stroke-width:1px;stroke-linecap:butt;stroke-linejoin:miter;stroke-opacity:1" d="M 614.893,4 633.574,4 z" id="boundary" inkscape:connector-curvature="0" />
	<path style="fill:none;stroke:red;stroke-width:1px;stroke-linecap:butt;stroke-linejoin:miter;stroke-opacity:1" d="M 577.529,4 596.211,4 z" id="boundary" inkscape:connector-curvature="0" />
	<path style="fill:none;stroke:red;stroke-width:1px;stroke-linecap:butt;stroke-linejoin:miter;stroke-opacity:1" d="M 558.847,4 577.529,4 z" id="boundary" inkscape:connector-curvature="0" />
	<path style="fill:none;stroke:red;stroke-width:1px;stroke-linecap:butt;stroke-linejoin:miter;stroke-opacity:1" d="M 652.256,4 670.938,4 z" id="boundary" inkscape:connector-curvature="0" />
	<path style="fill:none;stroke:red;stroke-width:1px;stroke-linecap:butt;stroke-linejoin:miter;stroke-opacity:1" d="M 689.62,4 708.301,4 z" id="boundary" inkscape:connector-curvature="0" />
	<path style="fill:none;stroke:red;stroke-width:1px;stroke-linecap:butt;stroke-linejoin:miter;stroke-opacity:1" d="M 708.301,4 725.115,13.3409 z" id="boundary" inkscape:connector-curvature="0" />
	<path style="fill:none;stroke:red;stroke-width:1px;stroke-linecap:butt;stroke-linejoin:miter;stroke-opacity:1" d="M 670.938,4 689.62,4 z" id="boundary" inkscape:connector-curvature="0" />
	<path style="fill:none;stroke:red;stroke-width:1px;stroke-linecap:butt;stroke-linejoin:miter;stroke-opacity:1" d="M 725.115,13.3409 740.06,24.5499 z" id="boundary" inkscape:connector-curvature="0" />
	<path style="fill:none;stroke:red;stroke-width:1px;stroke-linecap:butt;stroke-linejoin:miter;stroke-opacity:1" d="M 740.06,24.5499 743.797,43.2316 z" id="boundary" inkscape:connector-curvature="0" />
	<path style="fill:none;stroke:red;stroke-width:1px;stroke-linecap:butt;stroke-linejoin:miter;stroke-opacity:1" d="M 743.797,43.2316 743.797,61.9134 z" id="boundary" inkscape:connector-curvature="0" />
	<path style="fill:none;stroke:red;stroke-width:1px;stroke-linecap:butt;stroke-linejoin:miter;stroke-opacity:1" d="M 743.797,80.5951 743.797,61.9134 z" id="boundary" inkscape:connector-curvature="0" />
	<path style="fill:none;stroke:red;stroke-width:1px;stroke-linecap:butt;stroke-linejoin:miter;stroke-opacity:1" d="M 633.574,4 652.256,4 z" id="boundary" inkscape:connector-curvature="0" />
	<path style="fill:none;stroke:red;stroke-width:1px;stroke-linecap:butt;stroke-linejoin:miter;stroke-opacity:1" d="M 743.797,80.5951 743.797,99.2768 z" id="boundary" inkscape:connector-curvature="0" />
	<path style="fill:none;stroke:red;stroke-width:1px;stroke-linecap:butt;stroke-linejoin:miter;stroke-opacity:1" d="M 743.797,99.2768 743.797,117.959 z" id="boundary" inkscape:connector-curvature="0" />
	<path style="fill:none;stroke:red;stroke-width:1px;stroke-linecap:butt;stroke-linejoin:miter;stroke-opacity:1" d="M 781.16,144.113 762.478,144.113 z" id="boundary" inkscape:connector-curvature="0" />
	<path style="fill:none;stroke:red;stroke-width:1px;stroke-linecap:butt;stroke-linejoin:miter;stroke-opacity:1" d="M 743.797,136.64 762.478,144.113 z" id="boundary" inkscape:connector-curvature="0" />
	<path style="fill:none;stroke:red;stroke-width:1px;stroke-linecap:butt;stroke-linejoin:miter;stroke-opacity:1" d="M 743.797,136.64 743.797,117.959 z" id="boundary" inkscape:connector-curvature="0" />
	<path style="fill:none;stroke:red;stroke-width:1px;stroke-linecap:butt;stroke-linejoin:miter;stroke-opacity:1" d="M 781.16,144.113 799.842,144.113 z" id="boundary" inkscape:connector-curvature="0" />
	<path style="fill:none;stroke:red;stroke-width:1px;stroke-linecap:butt;stroke-linejoin:miter;stroke-opacity:1" d="M 799.842,144.113 816.655,153.454 z" id="boundary" inkscape:connector-curvature="0" />
	<path style="fill:none;stroke:red;stroke-width:1px;stroke-linecap:butt;stroke-linejoin:miter;stroke-opacity:1" d="M 837.205,185.213 827.864,168.399 z" id="boundary" inkscape:connector-curvature="0" />
	<path style="fill:none;stroke:red;stroke-width:1px;stroke-linecap:butt;stroke-linejoin:miter;stroke-opacity:1" d="M 956.768,284.226 938.087,284.226 z" id="boundary" inkscape:connector-curvature="0" />
	<path style="fill:none;stroke:red;stroke-width:1px;stroke-linecap:butt;stroke-linejoin:miter;stroke-opacity:1" d="M 816.655,153.454 827.864,168.399 z" id="boundary" inkscape:connector-curvature="0" />
	<path style="fill:none;stroke:red;stroke-width:1px;stroke-linecap:butt;stroke-linejoin:miter;stroke-opacity:1" d="M 837.205,185.213 837.205,203.895 z" id="boundary" inkscape:connector-curvature="0" />
	<path style="fill:none;stroke:red;stroke-width:1px;stroke-linecap:butt;stroke-linejoin:miter;stroke-opacity:1" d="M 837.205,203.895 846.546,220.708 z" id="boundary" inkscape:connector-curvature="0" />
	<path style="fill:none;stroke:red;stroke-width:1px;stroke-linecap:butt;stroke-linejoin:miter;stroke-opacity:1" d="M 846.546,220.708 850.282,239.39 z" id="boundary" inkscape:connector-curvature="0" />
	<path style="fill:none;stroke:red;stroke-width:1px;stroke-linecap:butt;stroke-linejoin:miter;stroke-opacity:1" d="M 850.282,239.39 859.623,256.203 z" id="boundary" inkscape:connector-curvature="0" />
	<path style="fill:none;stroke:red;stroke-width:1px;stroke-linecap:butt;stroke-linejoin:miter;stroke-opacity:1" d="M 859.623,256.203 865.228,274.885 z" id="boundary" inkscape:connector-curvature="0" />
	<path style="fill:none;stroke:red;stroke-width:1px;stroke-linecap:butt;stroke-linejoin:miter;stroke-opacity:1" d="M 865.228,274.885 882.041,284.226 z" id="boundary" inkscape:connector-curvature="0" />
	<path style="fill:none;stroke:red;stroke-width:1px;stroke-linecap:butt;stroke-linejoin:miter;stroke-opacity:1" d="M 900.723,284.226 919.405,284.226 z" id="boundary" inkscape:connector-curvature="0" />
	<path style="fill:none;stroke:red;stroke-width:1px;stroke-linecap:butt;stroke-linejoin:miter;stroke-opacity:1" d="M 900.723,284.226 882.041,284.226 z" id="boundary" inkscape:connector-curvature="0" />
	<path style="fill:none;stroke:red;stroke-width:1px;stroke-linecap:butt;stroke-linejoin:miter;stroke-opacity:1" d="M 919.405,284.226 938.087,284.226 z" id="boundary" inkscape:connector-curvature="0" />
	<path style="fill:none;stroke:red;stroke-width:1px;stroke-linecap:butt;stroke-linejoin:miter;stroke-opacity:1" d="M 506.539,472.911 489.725,463.571 z" id="boundary" inkscape:connector-curvature="0" />
	<path style="fill:none;stroke:red;stroke-width:1px;stroke-linecap:butt;stroke-linejoin:miter;stroke-opacity:1" d="M 573.793,476.648 588.738,463.571 z" id="boundary" inkscape:connector-curvature="0" />
	<path style="fill:none;stroke:red;stroke-width:1px;stroke-linecap:butt;stroke-linejoin:miter;stroke-opacity:1" d="M 588.738,463.571 607.42,463.571 z" id="boundary" inkscape:connector-curvature="0" />
	<path style="fill:none;stroke:red;stroke-width:1px;stroke-linecap:butt;stroke-linejoin:miter;stroke-opacity:1" d="M 607.42,463.571 626.102,463.571 z" id="boundary" inkscape:connector-curvature="0" />
	<path style="fill:none;stroke:red;stroke-width:1px;stroke-linecap:butt;stroke-linejoin:miter;stroke-opacity:1" d="M 644.783,463.571 626.102,463.571 z" id="boundary" inkscape:connector-curvature="0" />
	<path style="fill:none;stroke:red;stroke-width:1px;stroke-linecap:butt;stroke-linejoin:miter;stroke-opacity:1" d="M 644.783,463.571 663.465,463.571 z" id="boundary" inkscape:connector-curvature="0" />
	<path style="fill:none;stroke:red;stroke-width:1px;stroke-linecap:butt;stroke-linejoin:miter;stroke-opacity:1" d="M 682.147,463.571 663.465,463.571 z" id="boundary" inkscape:connector-curvature="0" />
	<path style="fill:none;stroke:red;stroke-width:1px;stroke-linecap:butt;stroke-linejoin:miter;stroke-opacity:1" d="M 700.829,463.571 682.147,463.571 z" id="boundary" inkscape:connector-curvature="0" />
	<path style="fill:none;stroke:red;stroke-width:1px;stroke-linecap:butt;stroke-linejoin:miter;stroke-opacity:1" d="M 700.829,463.571 717.642,472.911 z" id="boundary" inkscape:connector-curvature="0" />
	<path style="fill:none;stroke:red;stroke-width:1px;stroke-linecap:butt;stroke-linejoin:miter;stroke-opacity:1" d="M 540.166,491.593 523.352,482.252 z" id="boundary" inkscape:connector-curvature="0" />
	<path style="fill:none;stroke:red;stroke-width:1px;stroke-linecap:butt;stroke-linejoin:miter;stroke-opacity:1" d="M 523.352,482.252 506.539,472.911 z" id="boundary" inkscape:connector-curvature="0" />
	<path style="fill:none;stroke:red;stroke-width:1px;stroke-linecap:butt;stroke-linejoin:miter;stroke-opacity:1" d="M 540.166,491.593 558.847,491.593 z" id="boundary" inkscape:connector-curvature="0" />
	<path style="fill:none;stroke:red;stroke-width:1px;stroke-linecap:butt;stroke-linejoin:miter;stroke-opacity:1" d="M 573.793,476.648 558.847,491.593 z" id="boundary" inkscape:connector-curvature="0" />
	<path style="fill:none;stroke:red;stroke-width:1px;stroke-linecap:butt;stroke-linejoin:miter;stroke-opacity:1" d="M 717.642,472.911 736.324,472.911 z" id="boundary" inkscape:connector-curvature="0" />
	<path style="fill:none;stroke:red;stroke-width:1px;stroke-linecap:butt;stroke-linejoin:miter;stroke-opacity:1" d="M 736.324,472.911 755.006,478.516 z" id="boundary" inkscape:connector-curvature="0" />
	<path style="fill:none;stroke:red;stroke-width:1px;stroke-linecap:butt;stroke-linejoin:miter;stroke-opacity:1" d="M 792.369,482.252 773.687,482.252 z" id="boundary" inkscape:connector-curvature="0" />
	<path style="fill:none;stroke:red;stroke-width:1px;stroke-linecap:butt;stroke-linejoin:miter;stroke-opacity:1" d="M 773.687,482.252 755.006,478.516 z" id="boundary" inkscape:connector-curvature="0" />
	<path style="fill:none;stroke:red;stroke-width:1px;stroke-linecap:butt;stroke-linejoin:miter;stroke-opacity:1" d="M 977.318,360.821 958.637,379.503 z" id="boundary" inkscape:connector-curvature="0" />
	<path style="fill:none;stroke:red;stroke-width:1px;stroke-linecap:butt;stroke-linejoin:miter;stroke-opacity:1" d="M 921.273,388.844 939.955,388.844 z" id="boundary" inkscape:connector-curvature="0" />
	<path style="fill:none;stroke:red;stroke-width:1px;stroke-linecap:butt;stroke-linejoin:miter;stroke-opacity:1" d="M 921.273,407.525 921.273,388.844 z" id="boundary" inkscape:connector-curvature="0" />
	<path style="fill:none;stroke:red;stroke-width:1px;stroke-linecap:butt;stroke-linejoin:miter;stroke-opacity:1" d="M 958.637,379.503 939.955,388.844 z" id="boundary" inkscape:connector-curvature="0" />
	<path style="fill:none;stroke:red;stroke-width:1px;stroke-linecap:butt;stroke-linejoin:miter;stroke-opacity:1" d="M 811.051,482.252 792.369,482.252 z" id="boundary" inkscape:connector-curvature="0" />
	<path style="fill:none;stroke:red;stroke-width:1px;stroke-linecap:butt;stroke-linejoin:miter;stroke-opacity:1" d="M 986.659,342.139 977.318,360.821 z" id="boundary" inkscape:connector-curvature="0" />
	<path style="fill:none;stroke:red;stroke-width:1px;stroke-linecap:butt;stroke-linejoin:miter;stroke-opacity:1" d="M 986.659,302.908 996,319.721 z" id="boundary" inkscape:connector-curvature="0" />
	<path style="fill:none;stroke:red;stroke-width:1px;stroke-linecap:butt;stroke-linejoin:miter;stroke-opacity:1" d="M 996,319.721 986.659,342.139 z" id="boundary" inkscape:connector-curvature="0" />
	<path style="fill:none;stroke:red;stroke-width:1px;stroke-linecap:butt;stroke-linejoin:miter;stroke-opacity:1" d="M 956.768,284.226 975.45,287.962 z" id="boundary" inkscape:connector-curvature="0" />
	<path style="fill:none;stroke:red;stroke-width:1px;stroke-linecap:butt;stroke-linejoin:miter;stroke-opacity:1" d="M 975.45,287.962 986.659,302.908 z" id="boundary" inkscape:connector-curvature="0" />
	<path style="fill:none;stroke:red;stroke-width:1px;stroke-linecap:butt;stroke-linejoin:miter;stroke-opacity:1" d="M 811.051,482.252 829.733,482.252 z" id="boundary" inkscape:connector-curvature="0" />
	<path style="fill:none;stroke:red;stroke-width:1px;stroke-linecap:butt;stroke-linejoin:miter;stroke-opacity:1" d="M 829.733,482.252 846.546,491.593 z" id="boundary" inkscape:connector-curvature="0" />
	<path style="fill:none;stroke:red;stroke-width:1px;stroke-linecap:butt;stroke-linejoin:miter;stroke-opacity:1" d="M 846.546,491.593 865.228,491.593 z" id="boundary" inkscape:connector-curvature="0" />
	<path style="fill:none;stroke:red;stroke-width:1px;stroke-linecap:butt;stroke-linejoin:miter;stroke-opacity:1" d="M 902.591,482.252 883.91,491.593 z" id="boundary" inkscape:connector-curvature="0" />
	<path style="fill:none;stroke:red;stroke-width:1px;stroke-linecap:butt;stroke-linejoin:miter;stroke-opacity:1" d="M 883.91,491.593 865.228,491.593 z" id="boundary" inkscape:connector-curvature="0" />
	<path style="fill:none;stroke:red;stroke-width:1px;stroke-linecap:butt;stroke-linejoin:miter;stroke-opacity:1" d="M 921.273,426.207 921.273,444.889 z" id="boundary" inkscape:connector-curvature="0" />
	<path style="fill:none;stroke:red;stroke-width:1px;stroke-linecap:butt;stroke-linejoin:miter;stroke-opacity:1" d="M 921.273,426.207 921.273,407.525 z" id="boundary" inkscape:connector-curvature="0" />
	<path style="fill:none;stroke:red;stroke-width:1px;stroke-linecap:butt;stroke-linejoin:miter;stroke-opacity:1" d="M 921.273,444.889 917.537,469.175 z" id="boundary" inkscape:connector-curvature="0" />
	<path style="fill:none;stroke:red;stroke-width:1px;stroke-linecap:butt;stroke-linejoin:miter;stroke-opacity:1" d="M 917.537,469.175 902.591,482.252 z" id="boundary" inkscape:connector-curvature="0" />
	<path style="fill:none;stroke:red;stroke-width:1px;stroke-linecap:butt;stroke-linejoin:miter;stroke-opacity:1" d="M 484.121,4 502.802,4 z" id="boundary" inkscape:connector-curvature="0" />
	<circle cx="4" cy="233.785" r="4" fill="#0" id="circle0"/>
	<circle cx="13.3409" cy="215.104" r="4" fill="#0" id="circle1"/>
	<circle cx="13.3409" cy="250.599" r="4" fill="#0" id="circle2"/>
	<circle cx="22.6817" cy="196.422" r="4" fill="#0" id="circle3"/>
	<circle cx="22.6817" cy="267.412" r="4" fill="#0" id="circle4"/>
	<circle cx="37.6271" cy="181.476" r="4" fill="#0" id="circle5"/>
	<circle cx="39.4953" cy="276.753" r="4" fill="#0" id="circle6"/>
	<circle cx="56.3089" cy="172.136" r="4" fill="#0" id="circle7"/>
	<circle cx="58.177" cy="276.753" r="4" fill="#0" id="circle8"/>
	<circle cx="74.9906" cy="162.795" r="4" fill="#0" id="circle9"/>
	<circle cx="76.8588" cy="276.753" r="4" fill="#0" id="circle10"/>
	<circle cx="78.7269" cy="439.284" r="4" fill="#0" id="circle11"/>
	<circle cx="78.7269" cy="457.966" r="4" fill="#0" id="circle12"/>
	<circle cx="78.7269" cy="476.648" r="4" fill="#0" id="circle13"/>
	<circle cx="88.0678" cy="411.262" r="4" fill="#0" id="circle14"/>
	<circle cx="93.6723" cy="153.454" r="4" fill="#0" id="circle15"/>
	<circle cx="93.6723" cy="489.725" r="4" fill="#0" id="circle16"/>
	<circle cx="95.5405" cy="276.753" r="4" fill="#0" id="circle17"/>
	<circle cx="97.4087" cy="383.239" r="4" fill="#0" id="circle18"/>
	<circle cx="106.75" cy="364.557" r="4" fill="#0" id="circle19"/>
	<circle cx="108.618" cy="500.934" r="4" fill="#0" id="circle20"/>
	<circle cx="112.354" cy="153.454" r="4" fill="#0" id="circle21"/>
	<circle cx="114.222" cy="276.753" r="4" fill="#0" id="circle22"/>
	<circle cx="116.09" cy="345.876" r="4" fill="#0" id="circle23"/>
	<circle cx="127.299" cy="500.934" r="4" fill="#0" id="circle24"/>
	<circle cx="131.036" cy="153.454" r="4" fill="#0" id="circle25"/>
	<circle cx="131.036" cy="330.93" r="4" fill="#0" id="circle26"/>
	<circle cx="132.904" cy="276.753" r="4" fill="#0" id="circle27"/>
	<circle cx="142.245" cy="487.857" r="4" fill="#0" id="circle28"/>
	<circle cx="149.718" cy="153.454" r="4" fill="#0" id="circle29"/>
	<circle cx="149.718" cy="321.589" r="4" fill="#0" id="circle30"/>
	<circle cx="151.586" cy="276.753" r="4" fill="#0" id="circle31"/>
	<circle cx="160.927" cy="482.252" r="4" fill="#0" id="circle32"/>
	<circle cx="162.795" cy="291.699" r="4" fill="#0" id="circle33"/>
	<circle cx="168.399" cy="144.113" r="4" fill="#0" id="circle34"/>
	<circle cx="174.004" cy="497.198" r="4" fill="#0" id="circle35"/>
	<circle cx="187.081" cy="144.113" r="4" fill="#0" id="circle36"/>
	<circle cx="188.949" cy="510.275" r="4" fill="#0" id="circle37"/>
	<circle cx="205.763" cy="144.113" r="4" fill="#0" id="circle38"/>
	<circle cx="205.763" cy="519.616" r="4" fill="#0" id="circle39"/>
	<circle cx="224.444" cy="134.772" r="4" fill="#0" id="circle40"/>
	<circle cx="224.444" cy="519.616" r="4" fill="#0" id="circle41"/>
	<circle cx="241.258" cy="510.275" r="4" fill="#0" id="circle42"/>
	<circle cx="243.126" cy="134.772" r="4" fill="#0" id="circle43"/>
	<circle cx="258.072" cy="491.593" r="4" fill="#0" id="circle44"/>
	<circle cx="261.808" cy="134.772" r="4" fill="#0" id="circle45"/>
	<circle cx="267.412" cy="472.911" r="4" fill="#0" id="circle46"/>
	<circle cx="280.49" cy="134.772" r="4" fill="#0" id="circle47"/>
	<circle cx="286.094" cy="472.911" r="4" fill="#0" id="circle48"/>
	<circle cx="299.171" cy="134.772" r="4" fill="#0" id="circle49"/>
	<circle cx="304.776" cy="472.911" r="4" fill="#0" id="circle50"/>
	<circle cx="315.985" cy="125.431" r="4" fill="#0" id="circle51"/>
	<circle cx="323.458" cy="463.571" r="4" fill="#0" id="circle52"/>
	<circle cx="334.667" cy="125.431" r="4" fill="#0" id="circle53"/>
	<circle cx="342.139" cy="463.571" r="4" fill="#0" id="circle54"/>
	<circle cx="351.48" cy="116.09" r="4" fill="#0" id="circle55"/>
	<circle cx="360.821" cy="463.571" r="4" fill="#0" id="circle56"/>
	<circle cx="368.294" cy="106.75" r="4" fill="#0" id="circle57"/>
	<circle cx="379.503" cy="454.23" r="4" fill="#0" id="circle58"/>
	<circle cx="386.976" cy="106.75" r="4" fill="#0" id="circle59"/>
	<circle cx="398.185" cy="454.23" r="4" fill="#0" id="circle60"/>
	<circle cx="405.657" cy="101.145" r="4" fill="#0" id="circle61"/>
	<circle cx="416.866" cy="454.23" r="4" fill="#0" id="circle62"/>
	<circle cx="424.339" cy="106.75" r="4" fill="#0" id="circle63"/>
	<circle cx="435.548" cy="91.8041" r="4" fill="#0" id="circle64"/>
	<circle cx="435.548" cy="454.23" r="4" fill="#0" id="circle65"/>
	<circle cx="444.889" cy="73.1224" r="4" fill="#0" id="circle66"/>
	<circle cx="452.362" cy="28.2863" r="4" fill="#0" id="circle67"/>
	<circle cx="452.362" cy="46.968" r="4" fill="#0" id="circle68"/>
	<circle cx="454.23" cy="454.23" r="4" fill="#0" id="circle69"/>
	<circle cx="467.307" cy="13.3409" r="4" fill="#0" id="circle70"/>
	<circle cx="472.911" cy="454.23" r="4" fill="#0" id="circle71"/>
	<circle cx="484.121" cy="4" r="4" fill="#0" id="circle72"/>
	<circle cx="489.725" cy="463.571" r="4" fill="#0" id="circle73"/>
	<circle cx="502.802" cy="4" r="4" fill="#0" id="circle74"/>
	<circle cx="506.539" cy="472.911" r="4" fill="#0" id="circle75"/>
	<circle cx="521.484" cy="4" r="4" fill="#0" id="circle76"/>
	<circle cx="523.352" cy="482.252" r="4" fill="#0" id="circle77"/>
	<circle cx="540.166" cy="4" r="4" fill="#0" id="circle78"/>
	<circle cx="540.166" cy="491.593" r="4" fill="#0" id="circle79"/>
	<circle cx="558.847" cy="4" r="4" fill="#0" id="circle80"/>
	<circle cx="558.847" cy="491.593" r="4" fill="#0" id="circle81"/>
	<circle cx="573.793" cy="476.648" r="4" fill="#0" id="circle82"/>
	<circle cx="577.529" cy="4" r="4" fill="#0" id="circle83"/>
	<circle cx="588.738" cy="463.571" r="4" fill="#0" id="circle84"/>
	<circle cx="596.211" cy="4" r="4" fill="#0" id="circle85"/>
	<circle cx="607.42" cy="463.571" r="4" fill="#0" id="circle86"/>
	<circle cx="614.893" cy="4" r="4" fill="#0" id="circle87"/>
	<circle cx="626.102" cy="463.571" r="4" fill="#0" id="circle88"/>
	<circle cx="633.574" cy="4" r="4" fill="#0" id="circle89"/>
	<circle cx="644.783" cy="463.571" r="4" fill="#0" id="circle90"/>
	<circle cx="652.256" cy="4" r="4" fill="#0" id="circle91"/>
	<circle cx="663.465" cy="463.571" r="4" fill="#0" id="circle92"/>
	<circle cx="670.938" cy="4" r="4" fill="#0" id="circle93"/>
	<circle cx="682.147" cy="463.571" r="4" fill="#0" id="circle94"/>
	<circle cx="689.62" cy="4" r="4" fill="#0" id="circle95"/>
	<circle cx="700.829" cy="463.571" r="4" fill="#0" id="circle96"/>
	<circle cx="708.301" cy="4" r="4" fill="#0" id="circle97"/>
	<circle cx="717.642" cy="472.911" r="4" fill="#0" id="circle98"/>
	<circle cx="725.115" cy="13.3409" r="4" fill="#0" id="circle99"/>
	<circle cx="736.324" cy="472.911" r="4" fill="#0" id="circle100"/>
	<circle cx="740.06" cy="24.5499" r="4" fill="#0" id="circle101"/>
	<circle cx="743.797" cy="43.2316" r="4" fill="#0" id="circle102"/>
	<circle cx="743.797" cy="61.9134" r="4" fill="#0" id="circle103"/>
	<circle cx="743.797" cy="80.5951" r="4" fill="#0" id="circle104"/>
	<circle cx="743.797" cy="99.2768" r="4" fill="#0" id="circle105"/>
	<circle cx="743.797" cy="117.959" r="4" fill="#0" id="circle106"/>
	<circle cx="743.797" cy="136.64" r="4" fill="#0" id="circle107"/>
	<circle cx="755.006" cy="478.516" r="4" fill="#0" id="circle108"/>
	<circle cx="762.478" cy="144.113" r="4" fill="#0" id="circle109"/>
	<circle cx="773.687" cy="482.252" r="4" fill="#0" id="circle110"/>
	<circle cx="781.16" cy="144.113" r="4" fill="#0" id="circle111"/>
	<circle cx="792.369" cy="482.252" r="4" fill="#0" id="circle112"/>
	<circle cx="799.842" cy="144.113" r="4" fill="#0" id="circle113"/>
	<circle cx="811.051" cy="482.252" r="4" fill="#0" id="circle114"/>
	<circle cx="816.655" cy="153.454" r="4" fill="#0" id="circle115"/>
	<circle cx="827.864" cy="168.399" r="4" fill="#0" id="circle116"/>
	<circle cx="829.733" cy="482.252" r="4" fill="#0" id="circle117"/>
	<circle cx="837.205" cy="185.213" r="4" fill="#0" id="circle118"/>
	<circle cx="837.205" cy="203.895" r="4" fill="#0" id="circle119"/>
	<circle cx="846.546" cy="220.708" r="4" fill="#0" id="circle120"/>
	<circle cx="846.546" cy="491.593" r="4" fill="#0" id="circle121"/>
	<circle cx="850.282" cy="239.39" r="4" fill="#0" id="circle122"/>
	<circle cx="859.623" cy="256.203" r="4" fill="#0" id="circle123"/>
	<circle cx="865.228" cy="274.885" r="4" fill="#0" id="circle124"/>
	<circle cx="865.228" cy="491.593" r="4" fill="#0" id="circle125"/>
	<circle cx="882.041" cy="284.226" r="4" fill="#0" id="circle126"/>
	<circle cx="883.91" cy="491.593" r="4" fill="#0" id="circle127"/>
	<circle cx="900.723" cy="284.226" r="4" fill="#0" id="circle128"/>
	<circle cx="902.591" cy="482.252" r="4" fill="#0" id="circle129"/>
	<circle cx="917.537" cy="469.175" r="4" fill="#0" id="circle130"/>
	<circle cx="919.405" cy="284.226" r="4" fill="#0" id="circle131"/>
	<circle cx="921.273" cy="388.844" r="4" fill="#0" id="circle132"/>
	<circle cx="921.273" cy="407.525" r="4" fill="#0" id="circle133"/>
	<circle cx="921.273" cy="426.207" r="4" fill="#0" id="circle134"/>
	<circle cx="921.273" cy="444.889" r="4" fill="#0" id="circle135"/>
	<circle cx="938.087" cy="284.226" r="4" fill="#0" id="circle136"/>
	<circle cx="939.955" cy="388.844" r="4" fill="#0" id="circle137"/>
	<circle cx="956.768" cy="284.226" r="4" fill="#0" id="circle138"/>
	<circle cx="958.637" cy="379.503" r="4" fill="#0" id="circle139"/>
	<circle cx="975.45" cy="287.962" r="4" fill="#0" id="circle140"/>
	<circle cx="977.318" cy="360.821" r="4" fill="#0" id="circle141"/>
	<circle cx="986.659" cy="302.908" r="4" fill="#0" id="circle142"/>
	<circle cx="986.659" cy="342.139" r="4" fill="#0" id="circle143"/>
	<circle cx="996" cy="319.721" r="4" fill="#0" id="circle144"/>
	</g>
</svg>