<?xml version="1.0" encoding="UTF-8" standalone="no"?>
<!-- Created with CurveBenchmark -->
<svg
	xmlns:dc="http://purl.org/dc/elements/1.1/"
	xmlns:cc="http://creativecommons.org/ns#"
	xmlns:rdf="http://www.w3.org/1999/02/22-rdf-syntax-ns#"
	xmlns:svg="http://www.w3.org/2000/svg"
	xmlns="http://www.w3.org/2000/svg"
	xmlns:sodipodi="http://sodipodi.sourceforge.net/DTD/sodipodi-0.dtd"
	xmlns:inkscape="http://www.inkscape.org/namespaces/inkscape"
	width="1000"
	height="1000"
	id="svg2"
	version="1.1"
	sodipodi:docname="manifold/gathang-bird090.png.txt">
<defs
	id="defs4" />
<metadata
	id="metadata7">
	<rdf:RDF>
		<cc:Work
			rdf:about="">
			<dc:format>image/svg+xml</dc:format>
			<dc:type
				rdf:resource="http://purl.org/dc/dcmitype/StillImage" />
			<dc:title></dc:title>
		</cc:Work>
	</rdf:RDF>
</metadata>
<g
	inkscape:label="Layer 1"
	inkscape:groupmode="layer"
	id="layer1">
	<path style="fill:none;stroke:red;stroke-width:1px;stroke-linecap:butt;stroke-linejoin:miter;stroke-opacity:1" d="M 4,167.388 4,128.486 z" id="boundary" inkscape:connector-curvature="0" />
	<path style="fill:none;stroke:red;stroke-width:1px;stroke-linecap:butt;stroke-linejoin:miter;stroke-opacity:1" d="M 11.7804,245.192 4,206.29 z" id="boundary" inkscape:connector-curvature="0" />
	<path style="fill:none;stroke:red;stroke-width:1px;stroke-linecap:butt;stroke-linejoin:miter;stroke-opacity:1" d="M 4,128.486 11.7804,74.0235 z" id="boundary" inkscape:connector-curvature="0" />
	<path style="fill:none;stroke:red;stroke-width:1px;stroke-linecap:butt;stroke-linejoin:miter;stroke-opacity:1" d="M 11.7804,74.0235 42.902,42.902 z" id="boundary" inkscape:connector-curvature="0" />
	<path style="fill:none;stroke:red;stroke-width:1px;stroke-linecap:butt;stroke-linejoin:miter;stroke-opacity:1" d="M 4,206.29 4,167.388 z" id="boundary" inkscape:connector-curvature="0" />
	<path style="fill:none;stroke:red;stroke-width:1px;stroke-linecap:butt;stroke-linejoin:miter;stroke-opacity:1" d="M 11.7804,245.192 11.7804,284.094 z" id="boundary" inkscape:connector-curvature="0" />
	<path style="fill:none;stroke:red;stroke-width:1px;stroke-linecap:butt;stroke-linejoin:miter;stroke-opacity:1" d="M 27.3412,322.996 11.7804,284.094 z" id="boundary" inkscape:connector-curvature="0" />
	<path style="fill:none;stroke:red;stroke-width:1px;stroke-linecap:butt;stroke-linejoin:miter;stroke-opacity:1" d="M 27.3412,322.996 46.7922,358.008 z" id="boundary" inkscape:connector-curvature="0" />
	<path style="fill:none;stroke:red;stroke-width:1px;stroke-linecap:butt;stroke-linejoin:miter;stroke-opacity:1" d="M 46.7922,358.008 50.6824,396.91 z" id="boundary" inkscape:connector-curvature="0" />
	<path style="fill:none;stroke:red;stroke-width:1px;stroke-linecap:butt;stroke-linejoin:miter;stroke-opacity:1" d="M 155.718,431.922 116.816,431.922 z" id="boundary" inkscape:connector-curvature="0" />
	<path style="fill:none;stroke:red;stroke-width:1px;stroke-linecap:butt;stroke-linejoin:miter;stroke-opacity:1" d="M 50.6824,396.91 50.6824,435.812 z" id="boundary" inkscape:connector-curvature="0" />
	<path style="fill:none;stroke:red;stroke-width:1px;stroke-linecap:butt;stroke-linejoin:miter;stroke-opacity:1" d="M 42.902,42.902 74.0235,19.5608 z" id="boundary" inkscape:connector-curvature="0" />
	<path style="fill:none;stroke:red;stroke-width:1px;stroke-linecap:butt;stroke-linejoin:miter;stroke-opacity:1" d="M 74.0235,19.5608 112.925,11.7804 z" id="boundary" inkscape:connector-curvature="0" />
	<path style="fill:none;stroke:red;stroke-width:1px;stroke-linecap:butt;stroke-linejoin:miter;stroke-opacity:1" d="M 58.4627,474.714 50.6824,435.812 z" id="boundary" inkscape:connector-curvature="0" />
	<path style="fill:none;stroke:red;stroke-width:1px;stroke-linecap:butt;stroke-linejoin:miter;stroke-opacity:1" d="M 116.816,470.824 116.816,431.922 z" id="boundary" inkscape:connector-curvature="0" />
	<path style="fill:none;stroke:red;stroke-width:1px;stroke-linecap:butt;stroke-linejoin:miter;stroke-opacity:1" d="M 58.4627,474.714 58.4627,513.616 z" id="boundary" inkscape:connector-curvature="0" />
	<path style="fill:none;stroke:red;stroke-width:1px;stroke-linecap:butt;stroke-linejoin:miter;stroke-opacity:1" d="M 116.816,509.725 116.816,548.627 z" id="boundary" inkscape:connector-curvature="0" />
	<path style="fill:none;stroke:red;stroke-width:1px;stroke-linecap:butt;stroke-linejoin:miter;stroke-opacity:1" d="M 66.2431,552.518 58.4627,513.616 z" id="boundary" inkscape:connector-curvature="0" />
	<path style="fill:none;stroke:red;stroke-width:1px;stroke-linecap:butt;stroke-linejoin:miter;stroke-opacity:1" d="M 116.816,548.627 116.816,587.529 z" id="boundary" inkscape:connector-curvature="0" />
	<path style="fill:none;stroke:red;stroke-width:1px;stroke-linecap:butt;stroke-linejoin:miter;stroke-opacity:1" d="M 116.816,470.824 116.816,509.725 z" id="boundary" inkscape:connector-curvature="0" />
	<path style="fill:none;stroke:red;stroke-width:1px;stroke-linecap:butt;stroke-linejoin:miter;stroke-opacity:1" d="M 66.2431,552.518 66.2431,591.42 z" id="boundary" inkscape:connector-curvature="0" />
	<path style="fill:none;stroke:red;stroke-width:1px;stroke-linecap:butt;stroke-linejoin:miter;stroke-opacity:1" d="M 66.2431,591.42 74.0235,630.322 z" id="boundary" inkscape:connector-curvature="0" />
	<path style="fill:none;stroke:red;stroke-width:1px;stroke-linecap:butt;stroke-linejoin:miter;stroke-opacity:1" d="M 74.0235,630.322 74.0235,669.224 z" id="boundary" inkscape:connector-curvature="0" />
	<path style="fill:none;stroke:red;stroke-width:1px;stroke-linecap:butt;stroke-linejoin:miter;stroke-opacity:1" d="M 74.0235,669.224 74.0235,708.125 z" id="boundary" inkscape:connector-curvature="0" />
	<path style="fill:none;stroke:red;stroke-width:1px;stroke-linecap:butt;stroke-linejoin:miter;stroke-opacity:1" d="M 74.0235,747.027 74.0235,708.125 z" id="boundary" inkscape:connector-curvature="0" />
	<path style="fill:none;stroke:red;stroke-width:1px;stroke-linecap:butt;stroke-linejoin:miter;stroke-opacity:1" d="M 74.0235,785.929 74.0235,824.831 z" id="boundary" inkscape:connector-curvature="0" />
	<path style="fill:none;stroke:red;stroke-width:1px;stroke-linecap:butt;stroke-linejoin:miter;stroke-opacity:1" d="M 74.0235,747.027 74.0235,785.929 z" id="boundary" inkscape:connector-curvature="0" />
	<path style="fill:none;stroke:red;stroke-width:1px;stroke-linecap:butt;stroke-linejoin:miter;stroke-opacity:1" d="M 74.0235,824.831 74.0235,863.733 z" id="boundary" inkscape:connector-curvature="0" />
	<path style="fill:none;stroke:red;stroke-width:1px;stroke-linecap:butt;stroke-linejoin:miter;stroke-opacity:1" d="M 74.0235,902.635 74.0235,863.733 z" id="boundary" inkscape:connector-curvature="0" />
	<path style="fill:none;stroke:red;stroke-width:1px;stroke-linecap:butt;stroke-linejoin:miter;stroke-opacity:1" d="M 74.0235,902.635 74.0235,941.537 z" id="boundary" inkscape:connector-curvature="0" />
	<path style="fill:none;stroke:red;stroke-width:1px;stroke-linecap:butt;stroke-linejoin:miter;stroke-opacity:1" d="M 74.0235,941.537 42.902,968.769 z" id="boundary" inkscape:connector-curvature="0" />
	<path style="fill:none;stroke:red;stroke-width:1px;stroke-linecap:butt;stroke-linejoin:miter;stroke-opacity:1" d="M 116.816,626.431 116.816,665.333 z" id="boundary" inkscape:connector-curvature="0" />
	<path style="fill:none;stroke:red;stroke-width:1px;stroke-linecap:butt;stroke-linejoin:miter;stroke-opacity:1" d="M 116.816,626.431 116.816,587.529 z" id="boundary" inkscape:connector-curvature="0" />
	<path style="fill:none;stroke:red;stroke-width:1px;stroke-linecap:butt;stroke-linejoin:miter;stroke-opacity:1" d="M 116.816,704.235 116.816,743.137 z" id="boundary" inkscape:connector-curvature="0" />
	<path style="fill:none;stroke:red;stroke-width:1px;stroke-linecap:butt;stroke-linejoin:miter;stroke-opacity:1" d="M 116.816,704.235 116.816,665.333 z" id="boundary" inkscape:connector-curvature="0" />
	<path style="fill:none;stroke:red;stroke-width:1px;stroke-linecap:butt;stroke-linejoin:miter;stroke-opacity:1" d="M 116.816,743.137 116.816,782.039 z" id="boundary" inkscape:connector-curvature="0" />
	<path style="fill:none;stroke:red;stroke-width:1px;stroke-linecap:butt;stroke-linejoin:miter;stroke-opacity:1" d="M 112.925,988.22 74.0235,996 z" id="boundary" inkscape:connector-curvature="0" />
	<path style="fill:none;stroke:red;stroke-width:1px;stroke-linecap:butt;stroke-linejoin:miter;stroke-opacity:1" d="M 112.925,988.22 186.839,996 z" id="boundary" inkscape:connector-curvature="0" />
	<path style="fill:none;stroke:red;stroke-width:1px;stroke-linecap:butt;stroke-linejoin:miter;stroke-opacity:1" d="M 74.0235,996 42.902,968.769 z" id="boundary" inkscape:connector-curvature="0" />
	<path style="fill:none;stroke:red;stroke-width:1px;stroke-linecap:butt;stroke-linejoin:miter;stroke-opacity:1" d="M 116.816,820.941 116.816,859.843 z" id="boundary" inkscape:connector-curvature="0" />
	<path style="fill:none;stroke:red;stroke-width:1px;stroke-linecap:butt;stroke-linejoin:miter;stroke-opacity:1" d="M 116.816,820.941 116.816,782.039 z" id="boundary" inkscape:connector-curvature="0" />
	<path style="fill:none;stroke:red;stroke-width:1px;stroke-linecap:butt;stroke-linejoin:miter;stroke-opacity:1" d="M 116.816,859.843 116.816,898.745 z" id="boundary" inkscape:connector-curvature="0" />
	<path style="fill:none;stroke:red;stroke-width:1px;stroke-linecap:butt;stroke-linejoin:miter;stroke-opacity:1" d="M 155.718,431.922 175.169,466.933 z" id="boundary" inkscape:connector-curvature="0" />
	<path style="fill:none;stroke:red;stroke-width:1px;stroke-linecap:butt;stroke-linejoin:miter;stroke-opacity:1" d="M 272.424,268.533 260.753,326.886 z" id="boundary" inkscape:connector-curvature="0" />
	<path style="fill:none;stroke:red;stroke-width:1px;stroke-linecap:butt;stroke-linejoin:miter;stroke-opacity:1" d="M 233.522,439.702 225.741,501.945 z" id="boundary" inkscape:connector-curvature="0" />
	<path style="fill:none;stroke:red;stroke-width:1px;stroke-linecap:butt;stroke-linejoin:miter;stroke-opacity:1" d="M 190.729,11.7804 225.741,31.2314 z" id="boundary" inkscape:connector-curvature="0" />
	<path style="fill:none;stroke:red;stroke-width:1px;stroke-linecap:butt;stroke-linejoin:miter;stroke-opacity:1" d="M 175.169,466.933 175.169,505.835 z" id="boundary" inkscape:connector-curvature="0" />
	<path style="fill:none;stroke:red;stroke-width:1px;stroke-linecap:butt;stroke-linejoin:miter;stroke-opacity:1" d="M 175.169,505.835 175.169,544.737 z" id="boundary" inkscape:connector-curvature="0" />
	<path style="fill:none;stroke:red;stroke-width:1px;stroke-linecap:butt;stroke-linejoin:miter;stroke-opacity:1" d="M 175.169,583.639 175.169,544.737 z" id="boundary" inkscape:connector-curvature="0" />
	<path style="fill:none;stroke:red;stroke-width:1px;stroke-linecap:butt;stroke-linejoin:miter;stroke-opacity:1" d="M 225.741,540.847 217.961,587.529 z" id="boundary" inkscape:connector-curvature="0" />
	<path style="fill:none;stroke:red;stroke-width:1px;stroke-linecap:butt;stroke-linejoin:miter;stroke-opacity:1" d="M 225.741,501.945 225.741,540.847 z" id="boundary" inkscape:connector-curvature="0" />
	<path style="fill:none;stroke:red;stroke-width:1px;stroke-linecap:butt;stroke-linejoin:miter;stroke-opacity:1" d="M 217.961,587.529 217.961,626.431 z" id="boundary" inkscape:connector-curvature="0" />
	<path style="fill:none;stroke:red;stroke-width:1px;stroke-linecap:butt;stroke-linejoin:miter;stroke-opacity:1" d="M 175.169,583.639 167.388,657.553 z" id="boundary" inkscape:connector-curvature="0" />
	<path style="fill:none;stroke:red;stroke-width:1px;stroke-linecap:butt;stroke-linejoin:miter;stroke-opacity:1" d="M 272.424,93.4745 280.204,132.376 z" id="boundary" inkscape:connector-curvature="0" />
	<path style="fill:none;stroke:red;stroke-width:1px;stroke-linecap:butt;stroke-linejoin:miter;stroke-opacity:1" d="M 280.204,132.376 280.204,171.278 z" id="boundary" inkscape:connector-curvature="0" />
	<path style="fill:none;stroke:red;stroke-width:1px;stroke-linecap:butt;stroke-linejoin:miter;stroke-opacity:1" d="M 280.204,171.278 280.204,210.18 z" id="boundary" inkscape:connector-curvature="0" />
	<path style="fill:none;stroke:red;stroke-width:1px;stroke-linecap:butt;stroke-linejoin:miter;stroke-opacity:1" d="M 280.204,210.18 272.424,268.533 z" id="boundary" inkscape:connector-curvature="0" />
	<path style="fill:none;stroke:red;stroke-width:1px;stroke-linecap:butt;stroke-linejoin:miter;stroke-opacity:1" d="M 233.522,400.8 233.522,439.702 z" id="boundary" inkscape:connector-curvature="0" />
	<path style="fill:none;stroke:red;stroke-width:1px;stroke-linecap:butt;stroke-linejoin:miter;stroke-opacity:1" d="M 260.753,326.886 241.302,361.898 z" id="boundary" inkscape:connector-curvature="0" />
	<path style="fill:none;stroke:red;stroke-width:1px;stroke-linecap:butt;stroke-linejoin:miter;stroke-opacity:1" d="M 233.522,400.8 241.302,361.898 z" id="boundary" inkscape:connector-curvature="0" />
	<path style="fill:none;stroke:red;stroke-width:1px;stroke-linecap:butt;stroke-linejoin:miter;stroke-opacity:1" d="M 225.741,31.2314 256.863,54.5725 z" id="boundary" inkscape:connector-curvature="0" />
	<path style="fill:none;stroke:red;stroke-width:1px;stroke-linecap:butt;stroke-linejoin:miter;stroke-opacity:1" d="M 256.863,54.5725 272.424,93.4745 z" id="boundary" inkscape:connector-curvature="0" />
	<path style="fill:none;stroke:red;stroke-width:1px;stroke-linecap:butt;stroke-linejoin:miter;stroke-opacity:1" d="M 175.169,696.455 175.169,735.357 z" id="boundary" inkscape:connector-curvature="0" />
	<path style="fill:none;stroke:red;stroke-width:1px;stroke-linecap:butt;stroke-linejoin:miter;stroke-opacity:1" d="M 175.169,696.455 167.388,657.553 z" id="boundary" inkscape:connector-curvature="0" />
	<path style="fill:none;stroke:red;stroke-width:1px;stroke-linecap:butt;stroke-linejoin:miter;stroke-opacity:1" d="M 175.169,735.357 175.169,774.259 z" id="boundary" inkscape:connector-curvature="0" />
	<path style="fill:none;stroke:red;stroke-width:1px;stroke-linecap:butt;stroke-linejoin:miter;stroke-opacity:1" d="M 175.169,813.161 175.169,774.259 z" id="boundary" inkscape:connector-curvature="0" />
	<path style="fill:none;stroke:red;stroke-width:1px;stroke-linecap:butt;stroke-linejoin:miter;stroke-opacity:1" d="M 175.169,813.161 175.169,852.063 z" id="boundary" inkscape:connector-curvature="0" />
	<path style="fill:none;stroke:red;stroke-width:1px;stroke-linecap:butt;stroke-linejoin:miter;stroke-opacity:1" d="M 116.816,898.745 116.816,937.647 z" id="boundary" inkscape:connector-curvature="0" />
	<path style="fill:none;stroke:red;stroke-width:1px;stroke-linecap:butt;stroke-linejoin:miter;stroke-opacity:1" d="M 175.169,890.965 167.388,960.988 z" id="boundary" inkscape:connector-curvature="0" />
	<path style="fill:none;stroke:red;stroke-width:1px;stroke-linecap:butt;stroke-linejoin:miter;stroke-opacity:1" d="M 175.169,890.965 175.169,852.063 z" id="boundary" inkscape:connector-curvature="0" />
	<path style="fill:none;stroke:red;stroke-width:1px;stroke-linecap:butt;stroke-linejoin:miter;stroke-opacity:1" d="M 217.961,665.333 217.961,704.235 z" id="boundary" inkscape:connector-curvature="0" />
	<path style="fill:none;stroke:red;stroke-width:1px;stroke-linecap:butt;stroke-linejoin:miter;stroke-opacity:1" d="M 217.961,665.333 217.961,626.431 z" id="boundary" inkscape:connector-curvature="0" />
	<path style="fill:none;stroke:red;stroke-width:1px;stroke-linecap:butt;stroke-linejoin:miter;stroke-opacity:1" d="M 217.961,743.137 217.961,782.039 z" id="boundary" inkscape:connector-curvature="0" />
	<path style="fill:none;stroke:red;stroke-width:1px;stroke-linecap:butt;stroke-linejoin:miter;stroke-opacity:1" d="M 217.961,743.137 217.961,704.235 z" id="boundary" inkscape:connector-curvature="0" />
	<path style="fill:none;stroke:red;stroke-width:1px;stroke-linecap:butt;stroke-linejoin:miter;stroke-opacity:1" d="M 217.961,782.039 217.961,820.941 z" id="boundary" inkscape:connector-curvature="0" />
	<path style="fill:none;stroke:red;stroke-width:1px;stroke-linecap:butt;stroke-linejoin:miter;stroke-opacity:1" d="M 217.961,859.843 217.961,898.745 z" id="boundary" inkscape:connector-curvature="0" />
	<path style="fill:none;stroke:red;stroke-width:1px;stroke-linecap:butt;stroke-linejoin:miter;stroke-opacity:1" d="M 217.961,820.941 217.961,859.843 z" id="boundary" inkscape:connector-curvature="0" />
	<path style="fill:none;stroke:red;stroke-width:1px;stroke-linecap:butt;stroke-linejoin:miter;stroke-opacity:1" d="M 217.961,898.745 217.961,937.647 z" id="boundary" inkscape:connector-curvature="0" />
	<path style="fill:none;stroke:red;stroke-width:1px;stroke-linecap:butt;stroke-linejoin:miter;stroke-opacity:1" d="M 225.741,992.11 217.961,937.647 z" id="boundary" inkscape:connector-curvature="0" />
	<path style="fill:none;stroke:red;stroke-width:1px;stroke-linecap:butt;stroke-linejoin:miter;stroke-opacity:1" d="M 225.741,992.11 186.839,996 z" id="boundary" inkscape:connector-curvature="0" />
	<path style="fill:none;stroke:red;stroke-width:1px;stroke-linecap:butt;stroke-linejoin:miter;stroke-opacity:1" d="M 112.925,11.7804 151.827,4 z" id="boundary" inkscape:connector-curvature="0" />
	<path style="fill:none;stroke:red;stroke-width:1px;stroke-linecap:butt;stroke-linejoin:miter;stroke-opacity:1" d="M 151.827,4 190.729,11.7804 z" id="boundary" inkscape:connector-curvature="0" />
	<circle cx="4" cy="128.486" r="4" fill="#0" id="circle0"/>
	<circle cx="4" cy="167.388" r="4" fill="#0" id="circle1"/>
	<circle cx="4" cy="206.29" r="4" fill="#0" id="circle2"/>
	<circle cx="11.7804" cy="74.0235" r="4" fill="#0" id="circle3"/>
	<circle cx="11.7804" cy="245.192" r="4" fill="#0" id="circle4"/>
	<circle cx="11.7804" cy="284.094" r="4" fill="#0" id="circle5"/>
	<circle cx="27.3412" cy="322.996" r="4" fill="#0" id="circle6"/>
	<circle cx="42.902" cy="42.902" r="4" fill="#0" id="circle7"/>
	<circle cx="42.902" cy="968.769" r="4" fill="#0" id="circle8"/>
	<circle cx="46.7922" cy="358.008" r="4" fill="#0" id="circle9"/>
	<circle cx="50.6824" cy="396.91" r="4" fill="#0" id="circle10"/>
	<circle cx="50.6824" cy="435.812" r="4" fill="#0" id="circle11"/>
	<circle cx="58.4627" cy="474.714" r="4" fill="#0" id="circle12"/>
	<circle cx="58.4627" cy="513.616" r="4" fill="#0" id="circle13"/>
	<circle cx="66.2431" cy="552.518" r="4" fill="#0" id="circle14"/>
	<circle cx="66.2431" cy="591.42" r="4" fill="#0" id="circle15"/>
	<circle cx="74.0235" cy="19.5608" r="4" fill="#0" id="circle16"/>
	<circle cx="74.0235" cy="630.322" r="4" fill="#0" id="circle17"/>
	<circle cx="74.0235" cy="669.224" r="4" fill="#0" id="circle18"/>
	<circle cx="74.0235" cy="708.125" r="4" fill="#0" id="circle19"/>
	<circle cx="74.0235" cy="747.027" r="4" fill="#0" id="circle20"/>
	<circle cx="74.0235" cy="785.929" r="4" fill="#0" id="circle21"/>
	<circle cx="74.0235" cy="824.831" r="4" fill="#0" id="circle22"/>
	<circle cx="74.0235" cy="863.733" r="4" fill="#0" id="circle23"/>
	<circle cx="74.0235" cy="902.635" r="4" fill="#0" id="circle24"/>
	<circle cx="74.0235" cy="941.537" r="4" fill="#0" id="circle25"/>
	<circle cx="74.0235" cy="996" r="4" fill="#0" id="circle26"/>
	<circle cx="112.925" cy="11.7804" r="4" fill="#0" id="circle27"/>
	<circle cx="112.925" cy="988.22" r="4" fill="#0" id="circle28"/>
	<circle cx="116.816" cy="431.922" r="4" fill="#0" id="circle29"/>
	<circle cx="116.816" cy="470.824" r="4" fill="#0" id="circle30"/>
	<circle cx="116.816" cy="509.725" r="4" fill="#0" id="circle31"/>
	<circle cx="116.816" cy="548.627" r="4" fill="#0" id="circle32"/>
	<circle cx="116.816" cy="587.529" r="4" fill="#0" id="circle33"/>
	<circle cx="116.816" cy="626.431" r="4" fill="#0" id="circle34"/>
	<circle cx="116.816" cy="665.333" r="4" fill="#0" id="circle35"/>
	<circle cx="116.816" cy="704.235" r="4" fill="#0" id="circle36"/>
	<circle cx="116.816" cy="743.137" r="4" fill="#0" id="circle37"/>
	<circle cx="116.816" cy="782.039" r="4" fill="#0" id="circle38"/>
	<circle cx="116.816" cy="820.941" r="4" fill="#0" id="circle39"/>
	<circle cx="116.816" cy="859.843" r="4" fill="#0" id="circle40"/>
	<circle cx="116.816" cy="898.745" r="4" fill="#0" id="circle41"/>
	<circle cx="116.816" cy="937.647" r="4" fill="#0" id="circle42"/>
	<circle cx="151.827" cy="4" r="4" fill="#0" id="circle43"/>
	<circle cx="155.718" cy="431.922" r="4" fill="#0" id="circle44"/>
	<circle cx="167.388" cy="657.553" r="4" fill="#0" id="circle45"/>
	<circle cx="167.388" cy="960.988" r="4" fill="#0" id="circle46"/>
	<circle cx="175.169" cy="466.933" r="4" fill="#0" id="circle47"/>
	<circle cx="175.169" cy="505.835" r="4" fill="#0" id="circle48"/>
	<circle cx="175.169" cy="544.737" r="4" fill="#0" id="circle49"/>
	<circle cx="175.169" cy="583.639" r="4" fill="#0" id="circle50"/>
	<circle cx="175.169" cy="696.455" r="4" fill="#0" id="circle51"/>
	<circle cx="175.169" cy="735.357" r="4" fill="#0" id="circle52"/>
	<circle cx="175.169" cy="774.259" r="4" fill="#0" id="circle53"/>
	<circle cx="175.169" cy="813.161" r="4" fill="#0" id="circle54"/>
	<circle cx="175.169" cy="852.063" r="4" fill="#0" id="circle55"/>
	<circle cx="175.169" cy="890.965" r="4" fill="#0" id="circle56"/>
	<circle cx="186.839" cy="996" r="4" fill="#0" id="circle57"/>
	<circle cx="190.729" cy="11.7804" r="4" fill="#0" id="circle58"/>
	<circle cx="217.961" cy="587.529" r="4" fill="#0" id="circle59"/>
	<circle cx="217.961" cy="626.431" r="4" fill="#0" id="circle60"/>
	<circle cx="217.961" cy="665.333" r="4" fill="#0" id="circle61"/>
	<circle cx="217.961" cy="704.235" r="4" fill="#0" id="circle62"/>
	<circle cx="217.961" cy="743.137" r="4" fill="#0" id="circle63"/>
	<circle cx="217.961" cy="782.039" r="4" fill="#0" id="circle64"/>
	<circle cx="217.961" cy="820.941" r="4" fill="#0" id="circle65"/>
	<circle cx="217.961" cy="859.843" r="4" fill="#0" id="circle66"/>
	<circle cx="217.961" cy="898.745" r="4" fill="#0" id="circle67"/>
	<circle cx="217.961" cy="937.647" r="4" fill="#0" id="circle68"/>
	<circle cx="225.741" cy="31.2314" r="4" fill="#0" id="circle69"/>
	<circle cx="225.741" cy="501.945" r="4" fill="#0" id="circle70"/>
	<circle cx="225.741" cy="540.847" r="4" fill="#0" id="circle71"/>
	<circle cx="225.741" cy="992.11" r="4" fill="#0" id="circle72"/>
	<circle cx="233.522" cy="400.8" r="4" fill="#0" id="circle73"/>
	<circle cx="233.522" cy="439.702" r="4" fill="#0" id="circle74"/>
	<circle cx="241.302" cy="361.898" r="4" fill="#0" id="circle75"/>
	<circle cx="256.863" cy="54.5725" r="4" fill="#0" id="circle76"/>
	<circle cx="260.753" cy="326.886" r="4" fill="#0" id="circle77"/>
	<circle cx="272.424" cy="93.4745" r="4" fill="#0" id="circle78"/>
	<circle cx="272.424" cy="268.533" r="4" fill="#0" id="circle79"/>
	<circle cx="280.204" cy="132.376" r="4" fill="#0" id="circle80"/>
	<circle cx="280.204" cy="171.278" r="4" fill="#0" id="circle81"/>
	<circle cx="280.204" cy="210.18" r="4" fill="#0" id="circle82"/>
	</g>
</svg>