<?xml version="1.0" encoding="UTF-8" standalone="no"?>
<!-- Created with CurveBenchmark -->
<svg
	xmlns:dc="http://purl.org/dc/elements/1.1/"
	xmlns:cc="http://creativecommons.org/ns#"
	xmlns:rdf="http://www.w3.org/1999/02/22-rdf-syntax-ns#"
	xmlns:svg="http://www.w3.org/2000/svg"
	xmlns="http://www.w3.org/2000/svg"
	xmlns:sodipodi="http://sodipodi.sourceforge.net/DTD/sodipodi-0.dtd"
	xmlns:inkscape="http://www.inkscape.org/namespaces/inkscape"
	width="1000"
	height="1000"
	id="svg2"
	version="1.1"
	sodipodi:docname="manifold/gathang-teddy060.png.txt">
<defs
	id="defs4" />
<metadata
	id="metadata7">
	<rdf:RDF>
		<cc:Work
			rdf:about="">
			<dc:format>image/svg+xml</dc:format>
			<dc:type
				rdf:resource="http://purl.org/dc/dcmitype/StillImage" />
			<dc:title></dc:title>
		</cc:Work>
	</rdf:RDF>
</metadata>
<g
	inkscape:label="Layer 1"
	inkscape:groupmode="layer"
	id="layer1">
	<path style="fill:none;stroke:red;stroke-width:1px;stroke-linecap:butt;stroke-linejoin:miter;stroke-opacity:1" d="M 100.091,60.5242 117.048,37.9145 z" id="boundary" inkscape:connector-curvature="0" />
	<path style="fill:none;stroke:red;stroke-width:1px;stroke-linecap:butt;stroke-linejoin:miter;stroke-opacity:1" d="M 100.091,88.7863 100.091,60.5242 z" id="boundary" inkscape:connector-curvature="0" />
	<path style="fill:none;stroke:red;stroke-width:1px;stroke-linecap:butt;stroke-linejoin:miter;stroke-opacity:1" d="M 100.091,88.7863 105.744,117.048 z" id="boundary" inkscape:connector-curvature="0" />
	<path style="fill:none;stroke:red;stroke-width:1px;stroke-linecap:butt;stroke-linejoin:miter;stroke-opacity:1" d="M 117.048,37.9145 139.658,20.9573 z" id="boundary" inkscape:connector-curvature="0" />
	<path style="fill:none;stroke:red;stroke-width:1px;stroke-linecap:butt;stroke-linejoin:miter;stroke-opacity:1" d="M 131.179,170.746 117.048,145.311 z" id="boundary" inkscape:connector-curvature="0" />
	<path style="fill:none;stroke:red;stroke-width:1px;stroke-linecap:butt;stroke-linejoin:miter;stroke-opacity:1" d="M 117.048,145.311 105.744,117.048 z" id="boundary" inkscape:connector-curvature="0" />
	<path style="fill:none;stroke:red;stroke-width:1px;stroke-linecap:butt;stroke-linejoin:miter;stroke-opacity:1" d="M 131.179,170.746 139.658,199.009 z" id="boundary" inkscape:connector-curvature="0" />
	<path style="fill:none;stroke:red;stroke-width:1px;stroke-linecap:butt;stroke-linejoin:miter;stroke-opacity:1" d="M 145.311,227.271 139.658,199.009 z" id="boundary" inkscape:connector-curvature="0" />
	<path style="fill:none;stroke:red;stroke-width:1px;stroke-linecap:butt;stroke-linejoin:miter;stroke-opacity:1" d="M 37.9145,456.194 54.8718,433.584 z" id="boundary" inkscape:connector-curvature="0" />
	<path style="fill:none;stroke:red;stroke-width:1px;stroke-linecap:butt;stroke-linejoin:miter;stroke-opacity:1" d="M 77.4815,410.974 54.8718,433.584 z" id="boundary" inkscape:connector-curvature="0" />
	<path style="fill:none;stroke:red;stroke-width:1px;stroke-linecap:butt;stroke-linejoin:miter;stroke-opacity:1" d="M 4,518.37 15.3048,478.803 z" id="boundary" inkscape:connector-curvature="0" />
	<path style="fill:none;stroke:red;stroke-width:1px;stroke-linecap:butt;stroke-linejoin:miter;stroke-opacity:1" d="M 15.3048,478.803 37.9145,456.194 z" id="boundary" inkscape:connector-curvature="0" />
	<path style="fill:none;stroke:red;stroke-width:1px;stroke-linecap:butt;stroke-linejoin:miter;stroke-opacity:1" d="M 77.4815,410.974 102.917,396.843 z" id="boundary" inkscape:connector-curvature="0" />
	<path style="fill:none;stroke:red;stroke-width:1px;stroke-linecap:butt;stroke-linejoin:miter;stroke-opacity:1" d="M 145.311,255.533 145.311,227.271 z" id="boundary" inkscape:connector-curvature="0" />
	<path style="fill:none;stroke:red;stroke-width:1px;stroke-linecap:butt;stroke-linejoin:miter;stroke-opacity:1" d="M 131.179,385.538 102.917,396.843 z" id="boundary" inkscape:connector-curvature="0" />
	<path style="fill:none;stroke:red;stroke-width:1px;stroke-linecap:butt;stroke-linejoin:miter;stroke-opacity:1" d="M 145.311,255.533 145.311,283.795 z" id="boundary" inkscape:connector-curvature="0" />
	<path style="fill:none;stroke:red;stroke-width:1px;stroke-linecap:butt;stroke-linejoin:miter;stroke-opacity:1" d="M 131.179,385.538 159.442,382.712 z" id="boundary" inkscape:connector-curvature="0" />
	<path style="fill:none;stroke:red;stroke-width:1px;stroke-linecap:butt;stroke-linejoin:miter;stroke-opacity:1" d="M 139.658,20.9573 167.92,9.65242 z" id="boundary" inkscape:connector-curvature="0" />
	<path style="fill:none;stroke:red;stroke-width:1px;stroke-linecap:butt;stroke-linejoin:miter;stroke-opacity:1" d="M 167.92,9.65242 196.182,4 z" id="boundary" inkscape:connector-curvature="0" />
	<path style="fill:none;stroke:red;stroke-width:1px;stroke-linecap:butt;stroke-linejoin:miter;stroke-opacity:1" d="M 196.182,4 224.444,9.65242 z" id="boundary" inkscape:connector-curvature="0" />
	<path style="fill:none;stroke:red;stroke-width:1px;stroke-linecap:butt;stroke-linejoin:miter;stroke-opacity:1" d="M 252.707,15.3048 224.444,9.65242 z" id="boundary" inkscape:connector-curvature="0" />
	<path style="fill:none;stroke:red;stroke-width:1px;stroke-linecap:butt;stroke-linejoin:miter;stroke-opacity:1" d="M 252.707,15.3048 278.142,29.4359 z" id="boundary" inkscape:connector-curvature="0" />
	<path style="fill:none;stroke:red;stroke-width:1px;stroke-linecap:butt;stroke-linejoin:miter;stroke-opacity:1" d="M 416.627,43.567 444.889,37.9145 z" id="boundary" inkscape:connector-curvature="0" />
	<path style="fill:none;stroke:red;stroke-width:1px;stroke-linecap:butt;stroke-linejoin:miter;stroke-opacity:1" d="M 495.761,9.65242 470.325,23.7835 z" id="boundary" inkscape:connector-curvature="0" />
	<path style="fill:none;stroke:red;stroke-width:1px;stroke-linecap:butt;stroke-linejoin:miter;stroke-opacity:1" d="M 470.325,23.7835 444.889,37.9145 z" id="boundary" inkscape:connector-curvature="0" />
	<path style="fill:none;stroke:red;stroke-width:1px;stroke-linecap:butt;stroke-linejoin:miter;stroke-opacity:1" d="M 524.023,4 495.761,9.65242 z" id="boundary" inkscape:connector-curvature="0" />
	<path style="fill:none;stroke:red;stroke-width:1px;stroke-linecap:butt;stroke-linejoin:miter;stroke-opacity:1" d="M 278.142,29.4359 303.578,43.567 z" id="boundary" inkscape:connector-curvature="0" />
	<path style="fill:none;stroke:red;stroke-width:1px;stroke-linecap:butt;stroke-linejoin:miter;stroke-opacity:1" d="M 150.963,312.057 162.268,340.319 z" id="boundary" inkscape:connector-curvature="0" />
	<path style="fill:none;stroke:red;stroke-width:1px;stroke-linecap:butt;stroke-linejoin:miter;stroke-opacity:1" d="M 150.963,312.057 145.311,283.795 z" id="boundary" inkscape:connector-curvature="0" />
	<path style="fill:none;stroke:red;stroke-width:1px;stroke-linecap:butt;stroke-linejoin:miter;stroke-opacity:1" d="M 159.442,382.712 162.268,340.319 z" id="boundary" inkscape:connector-curvature="0" />
	<path style="fill:none;stroke:red;stroke-width:1px;stroke-linecap:butt;stroke-linejoin:miter;stroke-opacity:1" d="M 331.84,43.567 303.578,43.567 z" id="boundary" inkscape:connector-curvature="0" />
	<path style="fill:none;stroke:red;stroke-width:1px;stroke-linecap:butt;stroke-linejoin:miter;stroke-opacity:1" d="M 416.627,43.567 388.365,37.9145 z" id="boundary" inkscape:connector-curvature="0" />
	<path style="fill:none;stroke:red;stroke-width:1px;stroke-linecap:butt;stroke-linejoin:miter;stroke-opacity:1" d="M 388.365,37.9145 360.103,43.567 z" id="boundary" inkscape:connector-curvature="0" />
	<path style="fill:none;stroke:red;stroke-width:1px;stroke-linecap:butt;stroke-linejoin:miter;stroke-opacity:1" d="M 360.103,43.567 331.84,43.567 z" id="boundary" inkscape:connector-curvature="0" />
	<path style="fill:none;stroke:red;stroke-width:1px;stroke-linecap:butt;stroke-linejoin:miter;stroke-opacity:1" d="M 4,518.37 9.65242,546.632 z" id="boundary" inkscape:connector-curvature="0" />
	<path style="fill:none;stroke:red;stroke-width:1px;stroke-linecap:butt;stroke-linejoin:miter;stroke-opacity:1" d="M 15.3048,574.895 35.0883,597.504 z" id="boundary" inkscape:connector-curvature="0" />
	<path style="fill:none;stroke:red;stroke-width:1px;stroke-linecap:butt;stroke-linejoin:miter;stroke-opacity:1" d="M 15.3048,574.895 9.65242,546.632 z" id="boundary" inkscape:connector-curvature="0" />
	<path style="fill:none;stroke:red;stroke-width:1px;stroke-linecap:butt;stroke-linejoin:miter;stroke-opacity:1" d="M 57.698,617.288 80.3077,634.245 z" id="boundary" inkscape:connector-curvature="0" />
	<path style="fill:none;stroke:red;stroke-width:1px;stroke-linecap:butt;stroke-linejoin:miter;stroke-opacity:1" d="M 57.698,617.288 35.0883,597.504 z" id="boundary" inkscape:connector-curvature="0" />
	<path style="fill:none;stroke:red;stroke-width:1px;stroke-linecap:butt;stroke-linejoin:miter;stroke-opacity:1" d="M 80.3077,634.245 105.744,648.376 z" id="boundary" inkscape:connector-curvature="0" />
	<path style="fill:none;stroke:red;stroke-width:1px;stroke-linecap:butt;stroke-linejoin:miter;stroke-opacity:1" d="M 105.744,648.376 131.179,662.507 z" id="boundary" inkscape:connector-curvature="0" />
	<path style="fill:none;stroke:red;stroke-width:1px;stroke-linecap:butt;stroke-linejoin:miter;stroke-opacity:1" d="M 117.048,750.12 94.4387,772.729 z" id="boundary" inkscape:connector-curvature="0" />
	<path style="fill:none;stroke:red;stroke-width:1px;stroke-linecap:butt;stroke-linejoin:miter;stroke-opacity:1" d="M 71.8291,846.211 71.8291,874.473 z" id="boundary" inkscape:connector-curvature="0" />
	<path style="fill:none;stroke:red;stroke-width:1px;stroke-linecap:butt;stroke-linejoin:miter;stroke-opacity:1" d="M 71.8291,846.211 83.1339,806.644 z" id="boundary" inkscape:connector-curvature="0" />
	<path style="fill:none;stroke:red;stroke-width:1px;stroke-linecap:butt;stroke-linejoin:miter;stroke-opacity:1" d="M 71.8291,902.735 71.8291,930.997 z" id="boundary" inkscape:connector-curvature="0" />
	<path style="fill:none;stroke:red;stroke-width:1px;stroke-linecap:butt;stroke-linejoin:miter;stroke-opacity:1" d="M 71.8291,874.473 71.8291,902.735 z" id="boundary" inkscape:connector-curvature="0" />
	<path style="fill:none;stroke:red;stroke-width:1px;stroke-linecap:butt;stroke-linejoin:miter;stroke-opacity:1" d="M 83.1339,806.644 94.4387,772.729 z" id="boundary" inkscape:connector-curvature="0" />
	<path style="fill:none;stroke:red;stroke-width:1px;stroke-linecap:butt;stroke-linejoin:miter;stroke-opacity:1" d="M 77.4815,959.259 71.8291,930.997 z" id="boundary" inkscape:connector-curvature="0" />
	<path style="fill:none;stroke:red;stroke-width:1px;stroke-linecap:butt;stroke-linejoin:miter;stroke-opacity:1" d="M 100.091,976.217 77.4815,959.259 z" id="boundary" inkscape:connector-curvature="0" />
	<path style="fill:none;stroke:red;stroke-width:1px;stroke-linecap:butt;stroke-linejoin:miter;stroke-opacity:1" d="M 122.701,993.174 100.091,976.217 z" id="boundary" inkscape:connector-curvature="0" />
	<path style="fill:none;stroke:red;stroke-width:1px;stroke-linecap:butt;stroke-linejoin:miter;stroke-opacity:1" d="M 150.963,996 122.701,993.174 z" id="boundary" inkscape:connector-curvature="0" />
	<path style="fill:none;stroke:red;stroke-width:1px;stroke-linecap:butt;stroke-linejoin:miter;stroke-opacity:1" d="M 117.048,750.12 139.658,733.162 z" id="boundary" inkscape:connector-curvature="0" />
	<path style="fill:none;stroke:red;stroke-width:1px;stroke-linecap:butt;stroke-linejoin:miter;stroke-opacity:1" d="M 131.179,662.507 159.442,668.16 z" id="boundary" inkscape:connector-curvature="0" />
	<path style="fill:none;stroke:red;stroke-width:1px;stroke-linecap:butt;stroke-linejoin:miter;stroke-opacity:1" d="M 159.442,668.16 167.92,710.553 z" id="boundary" inkscape:connector-curvature="0" />
	<path style="fill:none;stroke:red;stroke-width:1px;stroke-linecap:butt;stroke-linejoin:miter;stroke-opacity:1" d="M 139.658,733.162 167.92,710.553 z" id="boundary" inkscape:connector-curvature="0" />
	<path style="fill:none;stroke:red;stroke-width:1px;stroke-linecap:butt;stroke-linejoin:miter;stroke-opacity:1" d="M 292.274,993.174 264.011,990.348 z" id="boundary" inkscape:connector-curvature="0" />
	<path style="fill:none;stroke:red;stroke-width:1px;stroke-linecap:butt;stroke-linejoin:miter;stroke-opacity:1" d="M 433.584,990.348 461.846,990.348 z" id="boundary" inkscape:connector-curvature="0" />
	<path style="fill:none;stroke:red;stroke-width:1px;stroke-linecap:butt;stroke-linejoin:miter;stroke-opacity:1" d="M 405.322,996 433.584,990.348 z" id="boundary" inkscape:connector-curvature="0" />
	<path style="fill:none;stroke:red;stroke-width:1px;stroke-linecap:butt;stroke-linejoin:miter;stroke-opacity:1" d="M 490.108,984.695 461.846,990.348 z" id="boundary" inkscape:connector-curvature="0" />
	<path style="fill:none;stroke:red;stroke-width:1px;stroke-linecap:butt;stroke-linejoin:miter;stroke-opacity:1" d="M 264.011,990.348 235.749,996 z" id="boundary" inkscape:connector-curvature="0" />
	<path style="fill:none;stroke:red;stroke-width:1px;stroke-linecap:butt;stroke-linejoin:miter;stroke-opacity:1" d="M 179.225,996 150.963,996 z" id="boundary" inkscape:connector-curvature="0" />
	<path style="fill:none;stroke:red;stroke-width:1px;stroke-linecap:butt;stroke-linejoin:miter;stroke-opacity:1" d="M 235.749,996 207.487,996 z" id="boundary" inkscape:connector-curvature="0" />
	<path style="fill:none;stroke:red;stroke-width:1px;stroke-linecap:butt;stroke-linejoin:miter;stroke-opacity:1" d="M 207.487,996 179.225,996 z" id="boundary" inkscape:connector-curvature="0" />
	<path style="fill:none;stroke:red;stroke-width:1px;stroke-linecap:butt;stroke-linejoin:miter;stroke-opacity:1" d="M 292.274,993.174 320.536,996 z" id="boundary" inkscape:connector-curvature="0" />
	<path style="fill:none;stroke:red;stroke-width:1px;stroke-linecap:butt;stroke-linejoin:miter;stroke-opacity:1" d="M 348.798,996 320.536,996 z" id="boundary" inkscape:connector-curvature="0" />
	<path style="fill:none;stroke:red;stroke-width:1px;stroke-linecap:butt;stroke-linejoin:miter;stroke-opacity:1" d="M 377.06,996 348.798,996 z" id="boundary" inkscape:connector-curvature="0" />
	<path style="fill:none;stroke:red;stroke-width:1px;stroke-linecap:butt;stroke-linejoin:miter;stroke-opacity:1" d="M 405.322,996 377.06,996 z" id="boundary" inkscape:connector-curvature="0" />
	<path style="fill:none;stroke:red;stroke-width:1px;stroke-linecap:butt;stroke-linejoin:miter;stroke-opacity:1" d="M 524.023,4 552.285,4 z" id="boundary" inkscape:connector-curvature="0" />
	<path style="fill:none;stroke:red;stroke-width:1px;stroke-linecap:butt;stroke-linejoin:miter;stroke-opacity:1" d="M 552.285,4 580.547,15.3048 z" id="boundary" inkscape:connector-curvature="0" />
	<path style="fill:none;stroke:red;stroke-width:1px;stroke-linecap:butt;stroke-linejoin:miter;stroke-opacity:1" d="M 580.547,15.3048 605.983,29.4359 z" id="boundary" inkscape:connector-curvature="0" />
	<path style="fill:none;stroke:red;stroke-width:1px;stroke-linecap:butt;stroke-linejoin:miter;stroke-opacity:1" d="M 634.245,77.4815 628.593,111.396 z" id="boundary" inkscape:connector-curvature="0" />
	<path style="fill:none;stroke:red;stroke-width:1px;stroke-linecap:butt;stroke-linejoin:miter;stroke-opacity:1" d="M 634.245,77.4815 628.593,49.2194 z" id="boundary" inkscape:connector-curvature="0" />
	<path style="fill:none;stroke:red;stroke-width:1px;stroke-linecap:butt;stroke-linejoin:miter;stroke-opacity:1" d="M 617.288,145.311 628.593,111.396 z" id="boundary" inkscape:connector-curvature="0" />
	<path style="fill:none;stroke:red;stroke-width:1px;stroke-linecap:butt;stroke-linejoin:miter;stroke-opacity:1" d="M 605.983,29.4359 628.593,49.2194 z" id="boundary" inkscape:connector-curvature="0" />
	<path style="fill:none;stroke:red;stroke-width:1px;stroke-linecap:butt;stroke-linejoin:miter;stroke-opacity:1" d="M 617.288,145.311 605.983,173.573 z" id="boundary" inkscape:connector-curvature="0" />
	<path style="fill:none;stroke:red;stroke-width:1px;stroke-linecap:butt;stroke-linejoin:miter;stroke-opacity:1" d="M 605.983,201.835 605.983,173.573 z" id="boundary" inkscape:connector-curvature="0" />
	<path style="fill:none;stroke:red;stroke-width:1px;stroke-linecap:butt;stroke-linejoin:miter;stroke-opacity:1" d="M 580.547,368.581 594.678,343.145 z" id="boundary" inkscape:connector-curvature="0" />
	<path style="fill:none;stroke:red;stroke-width:1px;stroke-linecap:butt;stroke-linejoin:miter;stroke-opacity:1" d="M 605.983,382.712 580.547,368.581 z" id="boundary" inkscape:connector-curvature="0" />
	<path style="fill:none;stroke:red;stroke-width:1px;stroke-linecap:butt;stroke-linejoin:miter;stroke-opacity:1" d="M 605.983,309.231 594.678,343.145 z" id="boundary" inkscape:connector-curvature="0" />
	<path style="fill:none;stroke:red;stroke-width:1px;stroke-linecap:butt;stroke-linejoin:miter;stroke-opacity:1" d="M 611.635,275.316 605.983,309.231 z" id="boundary" inkscape:connector-curvature="0" />
	<path style="fill:none;stroke:red;stroke-width:1px;stroke-linecap:butt;stroke-linejoin:miter;stroke-opacity:1" d="M 611.635,275.316 611.635,230.097 z" id="boundary" inkscape:connector-curvature="0" />
	<path style="fill:none;stroke:red;stroke-width:1px;stroke-linecap:butt;stroke-linejoin:miter;stroke-opacity:1" d="M 634.245,382.712 605.983,382.712 z" id="boundary" inkscape:connector-curvature="0" />
	<path style="fill:none;stroke:red;stroke-width:1px;stroke-linecap:butt;stroke-linejoin:miter;stroke-opacity:1" d="M 605.983,201.835 611.635,230.097 z" id="boundary" inkscape:connector-curvature="0" />
	<path style="fill:none;stroke:red;stroke-width:1px;stroke-linecap:butt;stroke-linejoin:miter;stroke-opacity:1" d="M 662.507,394.017 634.245,382.712 z" id="boundary" inkscape:connector-curvature="0" />
	<path style="fill:none;stroke:red;stroke-width:1px;stroke-linecap:butt;stroke-linejoin:miter;stroke-opacity:1" d="M 690.769,405.322 707.726,427.932 z" id="boundary" inkscape:connector-curvature="0" />
	<path style="fill:none;stroke:red;stroke-width:1px;stroke-linecap:butt;stroke-linejoin:miter;stroke-opacity:1" d="M 662.507,394.017 690.769,405.322 z" id="boundary" inkscape:connector-curvature="0" />
	<path style="fill:none;stroke:red;stroke-width:1px;stroke-linecap:butt;stroke-linejoin:miter;stroke-opacity:1" d="M 735.989,433.584 707.726,427.932 z" id="boundary" inkscape:connector-curvature="0" />
	<path style="fill:none;stroke:red;stroke-width:1px;stroke-linecap:butt;stroke-linejoin:miter;stroke-opacity:1" d="M 735.989,433.584 764.251,433.584 z" id="boundary" inkscape:connector-curvature="0" />
	<path style="fill:none;stroke:red;stroke-width:1px;stroke-linecap:butt;stroke-linejoin:miter;stroke-opacity:1" d="M 764.251,433.584 792.513,439.236 z" id="boundary" inkscape:connector-curvature="0" />
	<path style="fill:none;stroke:red;stroke-width:1px;stroke-linecap:butt;stroke-linejoin:miter;stroke-opacity:1" d="M 820.775,450.541 792.513,439.236 z" id="boundary" inkscape:connector-curvature="0" />
	<path style="fill:none;stroke:red;stroke-width:1px;stroke-linecap:butt;stroke-linejoin:miter;stroke-opacity:1" d="M 806.644,617.288 832.08,603.157 z" id="boundary" inkscape:connector-curvature="0" />
	<path style="fill:none;stroke:red;stroke-width:1px;stroke-linecap:butt;stroke-linejoin:miter;stroke-opacity:1" d="M 849.037,580.547 832.08,603.157 z" id="boundary" inkscape:connector-curvature="0" />
	<path style="fill:none;stroke:red;stroke-width:1px;stroke-linecap:butt;stroke-linejoin:miter;stroke-opacity:1" d="M 752.946,642.724 781.208,631.419 z" id="boundary" inkscape:connector-curvature="0" />
	<path style="fill:none;stroke:red;stroke-width:1px;stroke-linecap:butt;stroke-linejoin:miter;stroke-opacity:1" d="M 806.644,617.288 781.208,631.419 z" id="boundary" inkscape:connector-curvature="0" />
	<path style="fill:none;stroke:red;stroke-width:1px;stroke-linecap:butt;stroke-linejoin:miter;stroke-opacity:1" d="M 863.168,487.282 865.994,515.544 z" id="boundary" inkscape:connector-curvature="0" />
	<path style="fill:none;stroke:red;stroke-width:1px;stroke-linecap:butt;stroke-linejoin:miter;stroke-opacity:1" d="M 863.168,487.282 849.037,461.846 z" id="boundary" inkscape:connector-curvature="0" />
	<path style="fill:none;stroke:red;stroke-width:1px;stroke-linecap:butt;stroke-linejoin:miter;stroke-opacity:1" d="M 865.994,515.544 863.168,555.111 z" id="boundary" inkscape:connector-curvature="0" />
	<path style="fill:none;stroke:red;stroke-width:1px;stroke-linecap:butt;stroke-linejoin:miter;stroke-opacity:1" d="M 863.168,555.111 849.037,580.547 z" id="boundary" inkscape:connector-curvature="0" />
	<path style="fill:none;stroke:red;stroke-width:1px;stroke-linecap:butt;stroke-linejoin:miter;stroke-opacity:1" d="M 820.775,450.541 849.037,461.846 z" id="boundary" inkscape:connector-curvature="0" />
	<path style="fill:none;stroke:red;stroke-width:1px;stroke-linecap:butt;stroke-linejoin:miter;stroke-opacity:1" d="M 752.946,642.724 724.684,651.202 z" id="boundary" inkscape:connector-curvature="0" />
	<path style="fill:none;stroke:red;stroke-width:1px;stroke-linecap:butt;stroke-linejoin:miter;stroke-opacity:1" d="M 611.635,670.986 639.897,668.16 z" id="boundary" inkscape:connector-curvature="0" />
	<path style="fill:none;stroke:red;stroke-width:1px;stroke-linecap:butt;stroke-linejoin:miter;stroke-opacity:1" d="M 617.288,699.248 611.635,670.986 z" id="boundary" inkscape:connector-curvature="0" />
	<path style="fill:none;stroke:red;stroke-width:1px;stroke-linecap:butt;stroke-linejoin:miter;stroke-opacity:1" d="M 668.16,656.855 639.897,668.16 z" id="boundary" inkscape:connector-curvature="0" />
	<path style="fill:none;stroke:red;stroke-width:1px;stroke-linecap:butt;stroke-linejoin:miter;stroke-opacity:1" d="M 617.288,699.248 639.897,716.205 z" id="boundary" inkscape:connector-curvature="0" />
	<path style="fill:none;stroke:red;stroke-width:1px;stroke-linecap:butt;stroke-linejoin:miter;stroke-opacity:1" d="M 668.16,721.858 639.897,716.205 z" id="boundary" inkscape:connector-curvature="0" />
	<path style="fill:none;stroke:red;stroke-width:1px;stroke-linecap:butt;stroke-linejoin:miter;stroke-opacity:1" d="M 518.37,979.043 490.108,984.695 z" id="boundary" inkscape:connector-curvature="0" />
	<path style="fill:none;stroke:red;stroke-width:1px;stroke-linecap:butt;stroke-linejoin:miter;stroke-opacity:1" d="M 724.684,651.202 696.422,662.507 z" id="boundary" inkscape:connector-curvature="0" />
	<path style="fill:none;stroke:red;stroke-width:1px;stroke-linecap:butt;stroke-linejoin:miter;stroke-opacity:1" d="M 696.422,662.507 668.16,656.855 z" id="boundary" inkscape:connector-curvature="0" />
	<path style="fill:none;stroke:red;stroke-width:1px;stroke-linecap:butt;stroke-linejoin:miter;stroke-opacity:1" d="M 696.422,733.162 668.16,721.858 z" id="boundary" inkscape:connector-curvature="0" />
	<path style="fill:none;stroke:red;stroke-width:1px;stroke-linecap:butt;stroke-linejoin:miter;stroke-opacity:1" d="M 724.684,727.51 696.422,733.162 z" id="boundary" inkscape:connector-curvature="0" />
	<path style="fill:none;stroke:red;stroke-width:1px;stroke-linecap:butt;stroke-linejoin:miter;stroke-opacity:1" d="M 574.895,973.39 603.157,967.738 z" id="boundary" inkscape:connector-curvature="0" />
	<path style="fill:none;stroke:red;stroke-width:1px;stroke-linecap:butt;stroke-linejoin:miter;stroke-opacity:1" d="M 603.157,967.738 631.419,973.39 z" id="boundary" inkscape:connector-curvature="0" />
	<path style="fill:none;stroke:red;stroke-width:1px;stroke-linecap:butt;stroke-linejoin:miter;stroke-opacity:1" d="M 546.632,979.043 518.37,979.043 z" id="boundary" inkscape:connector-curvature="0" />
	<path style="fill:none;stroke:red;stroke-width:1px;stroke-linecap:butt;stroke-linejoin:miter;stroke-opacity:1" d="M 574.895,973.39 546.632,979.043 z" id="boundary" inkscape:connector-curvature="0" />
	<path style="fill:none;stroke:red;stroke-width:1px;stroke-linecap:butt;stroke-linejoin:miter;stroke-opacity:1" d="M 659.681,984.695 631.419,973.39 z" id="boundary" inkscape:connector-curvature="0" />
	<path style="fill:none;stroke:red;stroke-width:1px;stroke-linecap:butt;stroke-linejoin:miter;stroke-opacity:1" d="M 716.205,996 687.943,996 z" id="boundary" inkscape:connector-curvature="0" />
	<path style="fill:none;stroke:red;stroke-width:1px;stroke-linecap:butt;stroke-linejoin:miter;stroke-opacity:1" d="M 687.943,996 659.681,984.695 z" id="boundary" inkscape:connector-curvature="0" />
	<path style="fill:none;stroke:red;stroke-width:1px;stroke-linecap:butt;stroke-linejoin:miter;stroke-opacity:1" d="M 744.467,996 716.205,996 z" id="boundary" inkscape:connector-curvature="0" />
	<path style="fill:none;stroke:red;stroke-width:1px;stroke-linecap:butt;stroke-linejoin:miter;stroke-opacity:1" d="M 724.684,727.51 752.946,727.51 z" id="boundary" inkscape:connector-curvature="0" />
	<path style="fill:none;stroke:red;stroke-width:1px;stroke-linecap:butt;stroke-linejoin:miter;stroke-opacity:1" d="M 781.208,727.51 809.47,727.51 z" id="boundary" inkscape:connector-curvature="0" />
	<path style="fill:none;stroke:red;stroke-width:1px;stroke-linecap:butt;stroke-linejoin:miter;stroke-opacity:1" d="M 809.47,727.51 832.08,744.467 z" id="boundary" inkscape:connector-curvature="0" />
	<path style="fill:none;stroke:red;stroke-width:1px;stroke-linecap:butt;stroke-linejoin:miter;stroke-opacity:1" d="M 781.208,727.51 752.946,727.51 z" id="boundary" inkscape:connector-curvature="0" />
	<path style="fill:none;stroke:red;stroke-width:1px;stroke-linecap:butt;stroke-linejoin:miter;stroke-opacity:1" d="M 832.08,744.467 854.689,761.425 z" id="boundary" inkscape:connector-curvature="0" />
	<path style="fill:none;stroke:red;stroke-width:1px;stroke-linecap:butt;stroke-linejoin:miter;stroke-opacity:1" d="M 854.689,761.425 865.994,789.687 z" id="boundary" inkscape:connector-curvature="0" />
	<path style="fill:none;stroke:red;stroke-width:1px;stroke-linecap:butt;stroke-linejoin:miter;stroke-opacity:1" d="M 865.994,789.687 874.473,817.949 z" id="boundary" inkscape:connector-curvature="0" />
	<path style="fill:none;stroke:red;stroke-width:1px;stroke-linecap:butt;stroke-linejoin:miter;stroke-opacity:1" d="M 829.254,979.043 800.991,990.348 z" id="boundary" inkscape:connector-curvature="0" />
	<path style="fill:none;stroke:red;stroke-width:1px;stroke-linecap:butt;stroke-linejoin:miter;stroke-opacity:1" d="M 800.991,990.348 772.729,996 z" id="boundary" inkscape:connector-curvature="0" />
	<path style="fill:none;stroke:red;stroke-width:1px;stroke-linecap:butt;stroke-linejoin:miter;stroke-opacity:1" d="M 772.729,996 744.467,996 z" id="boundary" inkscape:connector-curvature="0" />
	<path style="fill:none;stroke:red;stroke-width:1px;stroke-linecap:butt;stroke-linejoin:miter;stroke-opacity:1" d="M 882.952,874.473 880.125,911.214 z" id="boundary" inkscape:connector-curvature="0" />
	<path style="fill:none;stroke:red;stroke-width:1px;stroke-linecap:butt;stroke-linejoin:miter;stroke-opacity:1" d="M 880.125,911.214 874.473,939.476 z" id="boundary" inkscape:connector-curvature="0" />
	<path style="fill:none;stroke:red;stroke-width:1px;stroke-linecap:butt;stroke-linejoin:miter;stroke-opacity:1" d="M 874.473,939.476 851.863,962.085 z" id="boundary" inkscape:connector-curvature="0" />
	<path style="fill:none;stroke:red;stroke-width:1px;stroke-linecap:butt;stroke-linejoin:miter;stroke-opacity:1" d="M 851.863,962.085 829.254,979.043 z" id="boundary" inkscape:connector-curvature="0" />
	<path style="fill:none;stroke:red;stroke-width:1px;stroke-linecap:butt;stroke-linejoin:miter;stroke-opacity:1" d="M 874.473,817.949 882.952,846.211 z" id="boundary" inkscape:connector-curvature="0" />
	<path style="fill:none;stroke:red;stroke-width:1px;stroke-linecap:butt;stroke-linejoin:miter;stroke-opacity:1" d="M 882.952,846.211 882.952,874.473 z" id="boundary" inkscape:connector-curvature="0" />
	<circle cx="4" cy="518.37" r="4" fill="#0" id="circle0"/>
	<circle cx="9.65242" cy="546.632" r="4" fill="#0" id="circle1"/>
	<circle cx="15.3048" cy="478.803" r="4" fill="#0" id="circle2"/>
	<circle cx="15.3048" cy="574.895" r="4" fill="#0" id="circle3"/>
	<circle cx="35.0883" cy="597.504" r="4" fill="#0" id="circle4"/>
	<circle cx="37.9145" cy="456.194" r="4" fill="#0" id="circle5"/>
	<circle cx="54.8718" cy="433.584" r="4" fill="#0" id="circle6"/>
	<circle cx="57.698" cy="617.288" r="4" fill="#0" id="circle7"/>
	<circle cx="71.8291" cy="846.211" r="4" fill="#0" id="circle8"/>
	<circle cx="71.8291" cy="874.473" r="4" fill="#0" id="circle9"/>
	<circle cx="71.8291" cy="902.735" r="4" fill="#0" id="circle10"/>
	<circle cx="71.8291" cy="930.997" r="4" fill="#0" id="circle11"/>
	<circle cx="77.4815" cy="410.974" r="4" fill="#0" id="circle12"/>
	<circle cx="77.4815" cy="959.259" r="4" fill="#0" id="circle13"/>
	<circle cx="80.3077" cy="634.245" r="4" fill="#0" id="circle14"/>
	<circle cx="83.1339" cy="806.644" r="4" fill="#0" id="circle15"/>
	<circle cx="94.4387" cy="772.729" r="4" fill="#0" id="circle16"/>
	<circle cx="100.091" cy="60.5242" r="4" fill="#0" id="circle17"/>
	<circle cx="100.091" cy="88.7863" r="4" fill="#0" id="circle18"/>
	<circle cx="100.091" cy="976.217" r="4" fill="#0" id="circle19"/>
	<circle cx="102.917" cy="396.843" r="4" fill="#0" id="circle20"/>
	<circle cx="105.744" cy="117.048" r="4" fill="#0" id="circle21"/>
	<circle cx="105.744" cy="648.376" r="4" fill="#0" id="circle22"/>
	<circle cx="117.048" cy="37.9145" r="4" fill="#0" id="circle23"/>
	<circle cx="117.048" cy="145.311" r="4" fill="#0" id="circle24"/>
	<circle cx="117.048" cy="750.12" r="4" fill="#0" id="circle25"/>
	<circle cx="122.701" cy="993.174" r="4" fill="#0" id="circle26"/>
	<circle cx="131.179" cy="170.746" r="4" fill="#0" id="circle27"/>
	<circle cx="131.179" cy="385.538" r="4" fill="#0" id="circle28"/>
	<circle cx="131.179" cy="662.507" r="4" fill="#0" id="circle29"/>
	<circle cx="139.658" cy="20.9573" r="4" fill="#0" id="circle30"/>
	<circle cx="139.658" cy="199.009" r="4" fill="#0" id="circle31"/>
	<circle cx="139.658" cy="733.162" r="4" fill="#0" id="circle32"/>
	<circle cx="145.311" cy="227.271" r="4" fill="#0" id="circle33"/>
	<circle cx="145.311" cy="255.533" r="4" fill="#0" id="circle34"/>
	<circle cx="145.311" cy="283.795" r="4" fill="#0" id="circle35"/>
	<circle cx="150.963" cy="312.057" r="4" fill="#0" id="circle36"/>
	<circle cx="150.963" cy="996" r="4" fill="#0" id="circle37"/>
	<circle cx="159.442" cy="382.712" r="4" fill="#0" id="circle38"/>
	<circle cx="159.442" cy="668.16" r="4" fill="#0" id="circle39"/>
	<circle cx="162.268" cy="340.319" r="4" fill="#0" id="circle40"/>
	<circle cx="167.92" cy="9.65242" r="4" fill="#0" id="circle41"/>
	<circle cx="167.92" cy="710.553" r="4" fill="#0" id="circle42"/>
	<circle cx="179.225" cy="996" r="4" fill="#0" id="circle43"/>
	<circle cx="196.182" cy="4" r="4" fill="#0" id="circle44"/>
	<circle cx="207.487" cy="996" r="4" fill="#0" id="circle45"/>
	<circle cx="224.444" cy="9.65242" r="4" fill="#0" id="circle46"/>
	<circle cx="235.749" cy="996" r="4" fill="#0" id="circle47"/>
	<circle cx="252.707" cy="15.3048" r="4" fill="#0" id="circle48"/>
	<circle cx="264.011" cy="990.348" r="4" fill="#0" id="circle49"/>
	<circle cx="278.142" cy="29.4359" r="4" fill="#0" id="circle50"/>
	<circle cx="292.274" cy="993.174" r="4" fill="#0" id="circle51"/>
	<circle cx="303.578" cy="43.567" r="4" fill="#0" id="circle52"/>
	<circle cx="320.536" cy="996" r="4" fill="#0" id="circle53"/>
	<circle cx="331.84" cy="43.567" r="4" fill="#0" id="circle54"/>
	<circle cx="348.798" cy="996" r="4" fill="#0" id="circle55"/>
	<circle cx="360.103" cy="43.567" r="4" fill="#0" id="circle56"/>
	<circle cx="377.06" cy="996" r="4" fill="#0" id="circle57"/>
	<circle cx="388.365" cy="37.9145" r="4" fill="#0" id="circle58"/>
	<circle cx="405.322" cy="996" r="4" fill="#0" id="circle59"/>
	<circle cx="416.627" cy="43.567" r="4" fill="#0" id="circle60"/>
	<circle cx="433.584" cy="990.348" r="4" fill="#0" id="circle61"/>
	<circle cx="444.889" cy="37.9145" r="4" fill="#0" id="circle62"/>
	<circle cx="461.846" cy="990.348" r="4" fill="#0" id="circle63"/>
	<circle cx="470.325" cy="23.7835" r="4" fill="#0" id="circle64"/>
	<circle cx="490.108" cy="984.695" r="4" fill="#0" id="circle65"/>
	<circle cx="495.761" cy="9.65242" r="4" fill="#0" id="circle66"/>
	<circle cx="518.37" cy="979.043" r="4" fill="#0" id="circle67"/>
	<circle cx="524.023" cy="4" r="4" fill="#0" id="circle68"/>
	<circle cx="546.632" cy="979.043" r="4" fill="#0" id="circle69"/>
	<circle cx="552.285" cy="4" r="4" fill="#0" id="circle70"/>
	<circle cx="574.895" cy="973.39" r="4" fill="#0" id="circle71"/>
	<circle cx="580.547" cy="15.3048" r="4" fill="#0" id="circle72"/>
	<circle cx="580.547" cy="368.581" r="4" fill="#0" id="circle73"/>
	<circle cx="594.678" cy="343.145" r="4" fill="#0" id="circle74"/>
	<circle cx="603.157" cy="967.738" r="4" fill="#0" id="circle75"/>
	<circle cx="605.983" cy="29.4359" r="4" fill="#0" id="circle76"/>
	<circle cx="605.983" cy="173.573" r="4" fill="#0" id="circle77"/>
	<circle cx="605.983" cy="201.835" r="4" fill="#0" id="circle78"/>
	<circle cx="605.983" cy="309.231" r="4" fill="#0" id="circle79"/>
	<circle cx="605.983" cy="382.712" r="4" fill="#0" id="circle80"/>
	<circle cx="611.635" cy="230.097" r="4" fill="#0" id="circle81"/>
	<circle cx="611.635" cy="275.316" r="4" fill="#0" id="circle82"/>
	<circle cx="611.635" cy="670.986" r="4" fill="#0" id="circle83"/>
	<circle cx="617.288" cy="145.311" r="4" fill="#0" id="circle84"/>
	<circle cx="617.288" cy="699.248" r="4" fill="#0" id="circle85"/>
	<circle cx="628.593" cy="49.2194" r="4" fill="#0" id="circle86"/>
	<circle cx="628.593" cy="111.396" r="4" fill="#0" id="circle87"/>
	<circle cx="631.419" cy="973.39" r="4" fill="#0" id="circle88"/>
	<circle cx="634.245" cy="77.4815" r="4" fill="#0" id="circle89"/>
	<circle cx="634.245" cy="382.712" r="4" fill="#0" id="circle90"/>
	<circle cx="639.897" cy="668.16" r="4" fill="#0" id="circle91"/>
	<circle cx="639.897" cy="716.205" r="4" fill="#0" id="circle92"/>
	<circle cx="659.681" cy="984.695" r="4" fill="#0" id="circle93"/>
	<circle cx="662.507" cy="394.017" r="4" fill="#0" id="circle94"/>
	<circle cx="668.16" cy="656.855" r="4" fill="#0" id="circle95"/>
	<circle cx="668.16" cy="721.858" r="4" fill="#0" id="circle96"/>
	<circle cx="687.943" cy="996" r="4" fill="#0" id="circle97"/>
	<circle cx="690.769" cy="405.322" r="4" fill="#0" id="circle98"/>
	<circle cx="696.422" cy="662.507" r="4" fill="#0" id="circle99"/>
	<circle cx="696.422" cy="733.162" r="4" fill="#0" id="circle100"/>
	<circle cx="707.726" cy="427.932" r="4" fill="#0" id="circle101"/>
	<circle cx="716.205" cy="996" r="4" fill="#0" id="circle102"/>
	<circle cx="724.684" cy="651.202" r="4" fill="#0" id="circle103"/>
	<circle cx="724.684" cy="727.51" r="4" fill="#0" id="circle104"/>
	<circle cx="735.989" cy="433.584" r="4" fill="#0" id="circle105"/>
	<circle cx="744.467" cy="996" r="4" fill="#0" id="circle106"/>
	<circle cx="752.946" cy="642.724" r="4" fill="#0" id="circle107"/>
	<circle cx="752.946" cy="727.51" r="4" fill="#0" id="circle108"/>
	<circle cx="764.251" cy="433.584" r="4" fill="#0" id="circle109"/>
	<circle cx="772.729" cy="996" r="4" fill="#0" id="circle110"/>
	<circle cx="781.208" cy="631.419" r="4" fill="#0" id="circle111"/>
	<circle cx="781.208" cy="727.51" r="4" fill="#0" id="circle112"/>
	<circle cx="792.513" cy="439.236" r="4" fill="#0" id="circle113"/>
	<circle cx="800.991" cy="990.348" r="4" fill="#0" id="circle114"/>
	<circle cx="806.644" cy="617.288" r="4" fill="#0" id="circle115"/>
	<circle cx="809.47" cy="727.51" r="4" fill="#0" id="circle116"/>
	<circle cx="820.775" cy="450.541" r="4" fill="#0" id="circle117"/>
	<circle cx="829.254" cy="979.043" r="4" fill="#0" id="circle118"/>
	<circle cx="832.08" cy="603.157" r="4" fill="#0" id="circle119"/>
	<circle cx="832.08" cy="744.467" r="4" fill="#0" id="circle120"/>
	<circle cx="849.037" cy="461.846" r="4" fill="#0" id="circle121"/>
	<circle cx="849.037" cy="580.547" r="4" fill="#0" id="circle122"/>
	<circle cx="851.863" cy="962.085" r="4" fill="#0" id="circle123"/>
	<circle cx="854.689" cy="761.425" r="4" fill="#0" id="circle124"/>
	<circle cx="863.168" cy="487.282" r="4" fill="#0" id="circle125"/>
	<circle cx="863.168" cy="555.111" r="4" fill="#0" id="circle126"/>
	<circle cx="865.994" cy="515.544" r="4" fill="#0" id="circle127"/>
	<circle cx="865.994" cy="789.687" r="4" fill="#0" id="circle128"/>
	<circle cx="874.473" cy="817.949" r="4" fill="#0" id="circle129"/>
	<circle cx="874.473" cy="939.476" r="4" fill="#0" id="circle130"/>
	<circle cx="880.125" cy="911.214" r="4" fill="#0" id="circle131"/>
	<circle cx="882.952" cy="846.211" r="4" fill="#0" id="circle132"/>
	<circle cx="882.952" cy="874.473" r="4" fill="#0" id="circle133"/>
	</g>
</svg>