<?xml version="1.0" encoding="UTF-8" standalone="no"?>
<!-- Created with CurveBenchmark -->
<svg
	xmlns:dc="http://purl.org/dc/elements/1.1/"
	xmlns:cc="http://creativecommons.org/ns#"
	xmlns:rdf="http://www.w3.org/1999/02/22-rdf-syntax-ns#"
	xmlns:svg="http://www.w3.org/2000/svg"
	xmlns="http://www.w3.org/2000/svg"
	xmlns:sodipodi="http://sodipodi.sourceforge.net/DTD/sodipodi-0.dtd"
	xmlns:inkscape="http://www.inkscape.org/namespaces/inkscape"
	width="1000"
	height="1000"
	id="svg2"
	version="1.1"
	sodipodi:docname="manifold/gathang-swordfishesaff1.png.txt">
<defs
	id="defs4" />
<metadata
	id="metadata7">
	<rdf:RDF>
		<cc:Work
			rdf:about="">
			<dc:format>image/svg+xml</dc:format>
			<dc:type
				rdf:resource="http://purl.org/dc/dcmitype/StillImage" />
			<dc:title></dc:title>
		</cc:Work>
	</rdf:RDF>
</metadata>
<g
	inkscape:label="Layer 1"
	inkscape:groupmode="layer"
	id="layer1">
	<path style="fill:none;stroke:red;stroke-width:1px;stroke-linecap:butt;stroke-linejoin:miter;stroke-opacity:1" d="M 4,5.94129 23.4129,4 z" id="boundary" inkscape:connector-curvature="0" />
	<path style="fill:none;stroke:red;stroke-width:1px;stroke-linecap:butt;stroke-linejoin:miter;stroke-opacity:1" d="M 13.7065,23.4129 4,5.94129 z" id="boundary" inkscape:connector-curvature="0" />
	<path style="fill:none;stroke:red;stroke-width:1px;stroke-linecap:butt;stroke-linejoin:miter;stroke-opacity:1" d="M 13.7065,23.4129 27.2955,38.9432 z" id="boundary" inkscape:connector-curvature="0" />
	<path style="fill:none;stroke:red;stroke-width:1px;stroke-linecap:butt;stroke-linejoin:miter;stroke-opacity:1" d="M 23.4129,4 35.0607,19.5303 z" id="boundary" inkscape:connector-curvature="0" />
	<path style="fill:none;stroke:red;stroke-width:1px;stroke-linecap:butt;stroke-linejoin:miter;stroke-opacity:1" d="M 42.8258,50.591 27.2955,38.9432 z" id="boundary" inkscape:connector-curvature="0" />
	<path style="fill:none;stroke:red;stroke-width:1px;stroke-linecap:butt;stroke-linejoin:miter;stroke-opacity:1" d="M 54.4736,25.3542 35.0607,19.5303 z" id="boundary" inkscape:connector-curvature="0" />
	<path style="fill:none;stroke:red;stroke-width:1px;stroke-linecap:butt;stroke-linejoin:miter;stroke-opacity:1" d="M 54.4736,66.1213 42.8258,50.591 z" id="boundary" inkscape:connector-curvature="0" />
	<path style="fill:none;stroke:red;stroke-width:1px;stroke-linecap:butt;stroke-linejoin:miter;stroke-opacity:1" d="M 54.4736,25.3542 68.0626,40.8845 z" id="boundary" inkscape:connector-curvature="0" />
	<path style="fill:none;stroke:red;stroke-width:1px;stroke-linecap:butt;stroke-linejoin:miter;stroke-opacity:1" d="M 83.593,54.4736 68.0626,40.8845 z" id="boundary" inkscape:connector-curvature="0" />
	<path style="fill:none;stroke:red;stroke-width:1px;stroke-linecap:butt;stroke-linejoin:miter;stroke-opacity:1" d="M 70.0039,79.7104 54.4736,66.1213 z" id="boundary" inkscape:connector-curvature="0" />
	<path style="fill:none;stroke:red;stroke-width:1px;stroke-linecap:butt;stroke-linejoin:miter;stroke-opacity:1" d="M 83.593,54.4736 97.182,70.0039 z" id="boundary" inkscape:connector-curvature="0" />
	<path style="fill:none;stroke:red;stroke-width:1px;stroke-linecap:butt;stroke-linejoin:miter;stroke-opacity:1" d="M 83.593,95.2407 70.0039,79.7104 z" id="boundary" inkscape:connector-curvature="0" />
	<path style="fill:none;stroke:red;stroke-width:1px;stroke-linecap:butt;stroke-linejoin:miter;stroke-opacity:1" d="M 99.1233,108.83 83.593,95.2407 z" id="boundary" inkscape:connector-curvature="0" />
	<path style="fill:none;stroke:red;stroke-width:1px;stroke-linecap:butt;stroke-linejoin:miter;stroke-opacity:1" d="M 99.1233,108.83 112.712,124.36 z" id="boundary" inkscape:connector-curvature="0" />
	<path style="fill:none;stroke:red;stroke-width:1px;stroke-linecap:butt;stroke-linejoin:miter;stroke-opacity:1" d="M 97.182,70.0039 112.712,83.593 z" id="boundary" inkscape:connector-curvature="0" />
	<path style="fill:none;stroke:red;stroke-width:1px;stroke-linecap:butt;stroke-linejoin:miter;stroke-opacity:1" d="M 130.184,93.2994 112.712,83.593 z" id="boundary" inkscape:connector-curvature="0" />
	<path style="fill:none;stroke:red;stroke-width:1px;stroke-linecap:butt;stroke-linejoin:miter;stroke-opacity:1" d="M 112.712,124.36 128.243,137.949 z" id="boundary" inkscape:connector-curvature="0" />
	<path style="fill:none;stroke:red;stroke-width:1px;stroke-linecap:butt;stroke-linejoin:miter;stroke-opacity:1" d="M 128.243,137.949 141.832,153.479 z" id="boundary" inkscape:connector-curvature="0" />
	<path style="fill:none;stroke:red;stroke-width:1px;stroke-linecap:butt;stroke-linejoin:miter;stroke-opacity:1" d="M 130.184,93.2994 145.714,106.888 z" id="boundary" inkscape:connector-curvature="0" />
	<path style="fill:none;stroke:red;stroke-width:1px;stroke-linecap:butt;stroke-linejoin:miter;stroke-opacity:1" d="M 159.303,122.419 178.716,130.184 z" id="boundary" inkscape:connector-curvature="0" />
	<path style="fill:none;stroke:red;stroke-width:1px;stroke-linecap:butt;stroke-linejoin:miter;stroke-opacity:1" d="M 159.303,122.419 145.714,106.888 z" id="boundary" inkscape:connector-curvature="0" />
	<path style="fill:none;stroke:red;stroke-width:1px;stroke-linecap:butt;stroke-linejoin:miter;stroke-opacity:1" d="M 169.01,182.599 178.716,200.07 z" id="boundary" inkscape:connector-curvature="0" />
	<path style="fill:none;stroke:red;stroke-width:1px;stroke-linecap:butt;stroke-linejoin:miter;stroke-opacity:1" d="M 169.01,182.599 157.362,167.068 z" id="boundary" inkscape:connector-curvature="0" />
	<path style="fill:none;stroke:red;stroke-width:1px;stroke-linecap:butt;stroke-linejoin:miter;stroke-opacity:1" d="M 157.362,167.068 141.832,153.479 z" id="boundary" inkscape:connector-curvature="0" />
	<path style="fill:none;stroke:red;stroke-width:1px;stroke-linecap:butt;stroke-linejoin:miter;stroke-opacity:1" d="M 178.716,130.184 190.364,145.714 z" id="boundary" inkscape:connector-curvature="0" />
	<path style="fill:none;stroke:red;stroke-width:1px;stroke-linecap:butt;stroke-linejoin:miter;stroke-opacity:1" d="M 209.777,151.538 190.364,145.714 z" id="boundary" inkscape:connector-curvature="0" />
	<path style="fill:none;stroke:red;stroke-width:1px;stroke-linecap:butt;stroke-linejoin:miter;stroke-opacity:1" d="M 242.779,174.834 225.307,165.127 z" id="boundary" inkscape:connector-curvature="0" />
	<path style="fill:none;stroke:red;stroke-width:1px;stroke-linecap:butt;stroke-linejoin:miter;stroke-opacity:1" d="M 225.307,165.127 209.777,151.538 z" id="boundary" inkscape:connector-curvature="0" />
	<path style="fill:none;stroke:red;stroke-width:1px;stroke-linecap:butt;stroke-linejoin:miter;stroke-opacity:1" d="M 242.779,174.834 260.25,184.54 z" id="boundary" inkscape:connector-curvature="0" />
	<path style="fill:none;stroke:red;stroke-width:1px;stroke-linecap:butt;stroke-linejoin:miter;stroke-opacity:1" d="M 277.722,194.247 260.25,184.54 z" id="boundary" inkscape:connector-curvature="0" />
	<path style="fill:none;stroke:red;stroke-width:1px;stroke-linecap:butt;stroke-linejoin:miter;stroke-opacity:1" d="M 297.135,194.247 277.722,194.247 z" id="boundary" inkscape:connector-curvature="0" />
	<path style="fill:none;stroke:red;stroke-width:1px;stroke-linecap:butt;stroke-linejoin:miter;stroke-opacity:1" d="M 188.423,217.542 178.716,200.07 z" id="boundary" inkscape:connector-curvature="0" />
	<path style="fill:none;stroke:red;stroke-width:1px;stroke-linecap:butt;stroke-linejoin:miter;stroke-opacity:1" d="M 202.012,233.072 188.423,217.542 z" id="boundary" inkscape:connector-curvature="0" />
	<path style="fill:none;stroke:red;stroke-width:1px;stroke-linecap:butt;stroke-linejoin:miter;stroke-opacity:1" d="M 217.542,244.72 202.012,233.072 z" id="boundary" inkscape:connector-curvature="0" />
	<path style="fill:none;stroke:red;stroke-width:1px;stroke-linecap:butt;stroke-linejoin:miter;stroke-opacity:1" d="M 297.135,194.247 312.665,205.894 z" id="boundary" inkscape:connector-curvature="0" />
	<path style="fill:none;stroke:red;stroke-width:1px;stroke-linecap:butt;stroke-linejoin:miter;stroke-opacity:1" d="M 332.078,213.659 312.665,205.894 z" id="boundary" inkscape:connector-curvature="0" />
	<path style="fill:none;stroke:red;stroke-width:1px;stroke-linecap:butt;stroke-linejoin:miter;stroke-opacity:1" d="M 349.55,223.366 332.078,213.659 z" id="boundary" inkscape:connector-curvature="0" />
	<path style="fill:none;stroke:red;stroke-width:1px;stroke-linecap:butt;stroke-linejoin:miter;stroke-opacity:1" d="M 349.55,223.366 367.022,233.072 z" id="boundary" inkscape:connector-curvature="0" />
	<path style="fill:none;stroke:red;stroke-width:1px;stroke-linecap:butt;stroke-linejoin:miter;stroke-opacity:1" d="M 217.542,244.72 223.366,264.133 z" id="boundary" inkscape:connector-curvature="0" />
	<path style="fill:none;stroke:red;stroke-width:1px;stroke-linecap:butt;stroke-linejoin:miter;stroke-opacity:1" d="M 238.896,277.722 223.366,264.133 z" id="boundary" inkscape:connector-curvature="0" />
	<path style="fill:none;stroke:red;stroke-width:1px;stroke-linecap:butt;stroke-linejoin:miter;stroke-opacity:1" d="M 252.485,293.252 238.896,277.722 z" id="boundary" inkscape:connector-curvature="0" />
	<path style="fill:none;stroke:red;stroke-width:1px;stroke-linecap:butt;stroke-linejoin:miter;stroke-opacity:1" d="M 266.074,330.137 262.192,310.724 z" id="boundary" inkscape:connector-curvature="0" />
	<path style="fill:none;stroke:red;stroke-width:1px;stroke-linecap:butt;stroke-linejoin:miter;stroke-opacity:1" d="M 262.192,310.724 252.485,293.252 z" id="boundary" inkscape:connector-curvature="0" />
	<path style="fill:none;stroke:red;stroke-width:1px;stroke-linecap:butt;stroke-linejoin:miter;stroke-opacity:1" d="M 266.074,330.137 266.074,349.55 z" id="boundary" inkscape:connector-curvature="0" />
	<path style="fill:none;stroke:red;stroke-width:1px;stroke-linecap:butt;stroke-linejoin:miter;stroke-opacity:1" d="M 266.074,368.963 266.074,349.55 z" id="boundary" inkscape:connector-curvature="0" />
	<path style="fill:none;stroke:red;stroke-width:1px;stroke-linecap:butt;stroke-linejoin:miter;stroke-opacity:1" d="M 367.022,233.072 384.493,242.779 z" id="boundary" inkscape:connector-curvature="0" />
	<path style="fill:none;stroke:red;stroke-width:1px;stroke-linecap:butt;stroke-linejoin:miter;stroke-opacity:1" d="M 266.074,368.963 269.957,388.376 z" id="boundary" inkscape:connector-curvature="0" />
	<path style="fill:none;stroke:red;stroke-width:1px;stroke-linecap:butt;stroke-linejoin:miter;stroke-opacity:1" d="M 279.663,405.847 269.957,388.376 z" id="boundary" inkscape:connector-curvature="0" />
	<path style="fill:none;stroke:red;stroke-width:1px;stroke-linecap:butt;stroke-linejoin:miter;stroke-opacity:1" d="M 310.724,407.789 295.194,419.436 z" id="boundary" inkscape:connector-curvature="0" />
	<path style="fill:none;stroke:red;stroke-width:1px;stroke-linecap:butt;stroke-linejoin:miter;stroke-opacity:1" d="M 295.194,419.436 279.663,405.847 z" id="boundary" inkscape:connector-curvature="0" />
	<path style="fill:none;stroke:red;stroke-width:1px;stroke-linecap:butt;stroke-linejoin:miter;stroke-opacity:1" d="M 316.548,380.611 335.961,384.493 z" id="boundary" inkscape:connector-curvature="0" />
	<path style="fill:none;stroke:red;stroke-width:1px;stroke-linecap:butt;stroke-linejoin:miter;stroke-opacity:1" d="M 335.961,384.493 349.55,400.023 z" id="boundary" inkscape:connector-curvature="0" />
	<path style="fill:none;stroke:red;stroke-width:1px;stroke-linecap:butt;stroke-linejoin:miter;stroke-opacity:1" d="M 396.141,438.849 378.669,429.143 z" id="boundary" inkscape:connector-curvature="0" />
	<path style="fill:none;stroke:red;stroke-width:1px;stroke-linecap:butt;stroke-linejoin:miter;stroke-opacity:1" d="M 378.669,429.143 365.08,413.613 z" id="boundary" inkscape:connector-curvature="0" />
	<path style="fill:none;stroke:red;stroke-width:1px;stroke-linecap:butt;stroke-linejoin:miter;stroke-opacity:1" d="M 365.08,413.613 349.55,400.023 z" id="boundary" inkscape:connector-curvature="0" />
	<path style="fill:none;stroke:red;stroke-width:1px;stroke-linecap:butt;stroke-linejoin:miter;stroke-opacity:1" d="M 384.493,242.779 403.906,242.779 z" id="boundary" inkscape:connector-curvature="0" />
	<path style="fill:none;stroke:red;stroke-width:1px;stroke-linecap:butt;stroke-linejoin:miter;stroke-opacity:1" d="M 403.906,242.779 423.319,242.779 z" id="boundary" inkscape:connector-curvature="0" />
	<path style="fill:none;stroke:red;stroke-width:1px;stroke-linecap:butt;stroke-linejoin:miter;stroke-opacity:1" d="M 423.319,242.779 440.791,252.485 z" id="boundary" inkscape:connector-curvature="0" />
	<path style="fill:none;stroke:red;stroke-width:1px;stroke-linecap:butt;stroke-linejoin:miter;stroke-opacity:1" d="M 440.791,252.485 460.204,252.485 z" id="boundary" inkscape:connector-curvature="0" />
	<path style="fill:none;stroke:red;stroke-width:1px;stroke-linecap:butt;stroke-linejoin:miter;stroke-opacity:1" d="M 479.616,252.485 460.204,252.485 z" id="boundary" inkscape:connector-curvature="0" />
	<path style="fill:none;stroke:red;stroke-width:1px;stroke-linecap:butt;stroke-linejoin:miter;stroke-opacity:1" d="M 499.029,256.368 518.442,262.192 z" id="boundary" inkscape:connector-curvature="0" />
	<path style="fill:none;stroke:red;stroke-width:1px;stroke-linecap:butt;stroke-linejoin:miter;stroke-opacity:1" d="M 537.855,266.074 518.442,262.192 z" id="boundary" inkscape:connector-curvature="0" />
	<path style="fill:none;stroke:red;stroke-width:1px;stroke-linecap:butt;stroke-linejoin:miter;stroke-opacity:1" d="M 524.266,359.256 514.56,341.785 z" id="boundary" inkscape:connector-curvature="0" />
	<path style="fill:none;stroke:red;stroke-width:1px;stroke-linecap:butt;stroke-linejoin:miter;stroke-opacity:1" d="M 510.677,322.372 528.149,312.665 z" id="boundary" inkscape:connector-curvature="0" />
	<path style="fill:none;stroke:red;stroke-width:1px;stroke-linecap:butt;stroke-linejoin:miter;stroke-opacity:1" d="M 514.56,341.785 510.677,322.372 z" id="boundary" inkscape:connector-curvature="0" />
	<path style="fill:none;stroke:red;stroke-width:1px;stroke-linecap:butt;stroke-linejoin:miter;stroke-opacity:1" d="M 411.671,450.497 396.141,438.849 z" id="boundary" inkscape:connector-curvature="0" />
	<path style="fill:none;stroke:red;stroke-width:1px;stroke-linecap:butt;stroke-linejoin:miter;stroke-opacity:1" d="M 479.616,252.485 499.029,256.368 z" id="boundary" inkscape:connector-curvature="0" />
	<path style="fill:none;stroke:red;stroke-width:1px;stroke-linecap:butt;stroke-linejoin:miter;stroke-opacity:1" d="M 425.26,466.027 411.671,450.497 z" id="boundary" inkscape:connector-curvature="0" />
	<path style="fill:none;stroke:red;stroke-width:1px;stroke-linecap:butt;stroke-linejoin:miter;stroke-opacity:1" d="M 467.969,506.795 452.438,493.205 z" id="boundary" inkscape:connector-curvature="0" />
	<path style="fill:none;stroke:red;stroke-width:1px;stroke-linecap:butt;stroke-linejoin:miter;stroke-opacity:1" d="M 452.438,493.205 440.791,477.675 z" id="boundary" inkscape:connector-curvature="0" />
	<path style="fill:none;stroke:red;stroke-width:1px;stroke-linecap:butt;stroke-linejoin:miter;stroke-opacity:1" d="M 425.26,466.027 440.791,477.675 z" id="boundary" inkscape:connector-curvature="0" />
	<path style="fill:none;stroke:red;stroke-width:1px;stroke-linecap:butt;stroke-linejoin:miter;stroke-opacity:1" d="M 485.44,516.501 500.971,530.09 z" id="boundary" inkscape:connector-curvature="0" />
	<path style="fill:none;stroke:red;stroke-width:1px;stroke-linecap:butt;stroke-linejoin:miter;stroke-opacity:1" d="M 485.44,516.501 467.969,506.795 z" id="boundary" inkscape:connector-curvature="0" />
	<path style="fill:none;stroke:red;stroke-width:1px;stroke-linecap:butt;stroke-linejoin:miter;stroke-opacity:1" d="M 524.266,584.446 518.442,565.033 z" id="boundary" inkscape:connector-curvature="0" />
	<path style="fill:none;stroke:red;stroke-width:1px;stroke-linecap:butt;stroke-linejoin:miter;stroke-opacity:1" d="M 518.442,565.033 514.56,545.62 z" id="boundary" inkscape:connector-curvature="0" />
	<path style="fill:none;stroke:red;stroke-width:1px;stroke-linecap:butt;stroke-linejoin:miter;stroke-opacity:1" d="M 500.971,530.09 514.56,545.62 z" id="boundary" inkscape:connector-curvature="0" />
	<path style="fill:none;stroke:red;stroke-width:1px;stroke-linecap:butt;stroke-linejoin:miter;stroke-opacity:1" d="M 524.266,359.256 537.855,374.787 z" id="boundary" inkscape:connector-curvature="0" />
	<path style="fill:none;stroke:red;stroke-width:1px;stroke-linecap:butt;stroke-linejoin:miter;stroke-opacity:1" d="M 545.62,302.959 528.149,312.665 z" id="boundary" inkscape:connector-curvature="0" />
	<path style="fill:none;stroke:red;stroke-width:1px;stroke-linecap:butt;stroke-linejoin:miter;stroke-opacity:1" d="M 537.855,266.074 557.268,271.898 z" id="boundary" inkscape:connector-curvature="0" />
	<path style="fill:none;stroke:red;stroke-width:1px;stroke-linecap:butt;stroke-linejoin:miter;stroke-opacity:1" d="M 537.855,374.787 547.562,392.258 z" id="boundary" inkscape:connector-curvature="0" />
	<path style="fill:none;stroke:red;stroke-width:1px;stroke-linecap:butt;stroke-linejoin:miter;stroke-opacity:1" d="M 545.62,302.959 565.033,302.959 z" id="boundary" inkscape:connector-curvature="0" />
	<path style="fill:none;stroke:red;stroke-width:1px;stroke-linecap:butt;stroke-linejoin:miter;stroke-opacity:1" d="M 557.268,271.898 572.798,283.546 z" id="boundary" inkscape:connector-curvature="0" />
	<path style="fill:none;stroke:red;stroke-width:1px;stroke-linecap:butt;stroke-linejoin:miter;stroke-opacity:1" d="M 572.798,283.546 565.033,302.959 z" id="boundary" inkscape:connector-curvature="0" />
	<path style="fill:none;stroke:red;stroke-width:1px;stroke-linecap:butt;stroke-linejoin:miter;stroke-opacity:1" d="M 559.209,407.789 547.562,392.258 z" id="boundary" inkscape:connector-curvature="0" />
	<path style="fill:none;stroke:red;stroke-width:1px;stroke-linecap:butt;stroke-linejoin:miter;stroke-opacity:1" d="M 574.74,419.436 559.209,407.789 z" id="boundary" inkscape:connector-curvature="0" />
	<path style="fill:none;stroke:red;stroke-width:1px;stroke-linecap:butt;stroke-linejoin:miter;stroke-opacity:1" d="M 533.973,601.918 524.266,584.446 z" id="boundary" inkscape:connector-curvature="0" />
	<path style="fill:none;stroke:red;stroke-width:1px;stroke-linecap:butt;stroke-linejoin:miter;stroke-opacity:1" d="M 574.74,419.436 588.329,434.967 z" id="boundary" inkscape:connector-curvature="0" />
	<path style="fill:none;stroke:red;stroke-width:1px;stroke-linecap:butt;stroke-linejoin:miter;stroke-opacity:1" d="M 561.151,623.272 541.738,621.331 z" id="boundary" inkscape:connector-curvature="0" />
	<path style="fill:none;stroke:red;stroke-width:1px;stroke-linecap:butt;stroke-linejoin:miter;stroke-opacity:1" d="M 541.738,621.331 533.973,601.918 z" id="boundary" inkscape:connector-curvature="0" />
	<path style="fill:none;stroke:red;stroke-width:1px;stroke-linecap:butt;stroke-linejoin:miter;stroke-opacity:1" d="M 576.681,607.742 561.151,623.272 z" id="boundary" inkscape:connector-curvature="0" />
	<path style="fill:none;stroke:red;stroke-width:1px;stroke-linecap:butt;stroke-linejoin:miter;stroke-opacity:1" d="M 588.329,434.967 603.859,448.556 z" id="boundary" inkscape:connector-curvature="0" />
	<path style="fill:none;stroke:red;stroke-width:1px;stroke-linecap:butt;stroke-linejoin:miter;stroke-opacity:1" d="M 617.448,464.086 627.155,481.558 z" id="boundary" inkscape:connector-curvature="0" />
	<path style="fill:none;stroke:red;stroke-width:1px;stroke-linecap:butt;stroke-linejoin:miter;stroke-opacity:1" d="M 611.624,594.153 592.211,594.153 z" id="boundary" inkscape:connector-curvature="0" />
	<path style="fill:none;stroke:red;stroke-width:1px;stroke-linecap:butt;stroke-linejoin:miter;stroke-opacity:1" d="M 592.211,594.153 576.681,607.742 z" id="boundary" inkscape:connector-curvature="0" />
	<path style="fill:none;stroke:red;stroke-width:1px;stroke-linecap:butt;stroke-linejoin:miter;stroke-opacity:1" d="M 617.448,464.086 603.859,448.556 z" id="boundary" inkscape:connector-curvature="0" />
	<path style="fill:none;stroke:red;stroke-width:1px;stroke-linecap:butt;stroke-linejoin:miter;stroke-opacity:1" d="M 611.624,594.153 629.096,603.859 z" id="boundary" inkscape:connector-curvature="0" />
	<path style="fill:none;stroke:red;stroke-width:1px;stroke-linecap:butt;stroke-linejoin:miter;stroke-opacity:1" d="M 640.744,497.088 627.155,481.558 z" id="boundary" inkscape:connector-curvature="0" />
	<path style="fill:none;stroke:red;stroke-width:1px;stroke-linecap:butt;stroke-linejoin:miter;stroke-opacity:1" d="M 656.274,510.677 664.039,530.09 z" id="boundary" inkscape:connector-curvature="0" />
	<path style="fill:none;stroke:red;stroke-width:1px;stroke-linecap:butt;stroke-linejoin:miter;stroke-opacity:1" d="M 640.744,497.088 656.274,510.677 z" id="boundary" inkscape:connector-curvature="0" />
	<path style="fill:none;stroke:red;stroke-width:1px;stroke-linecap:butt;stroke-linejoin:miter;stroke-opacity:1" d="M 679.569,543.679 664.039,530.09 z" id="boundary" inkscape:connector-curvature="0" />
	<path style="fill:none;stroke:red;stroke-width:1px;stroke-linecap:butt;stroke-linejoin:miter;stroke-opacity:1" d="M 693.159,559.209 679.569,543.679 z" id="boundary" inkscape:connector-curvature="0" />
	<path style="fill:none;stroke:red;stroke-width:1px;stroke-linecap:butt;stroke-linejoin:miter;stroke-opacity:1" d="M 708.689,572.798 726.16,582.505 z" id="boundary" inkscape:connector-curvature="0" />
	<path style="fill:none;stroke:red;stroke-width:1px;stroke-linecap:butt;stroke-linejoin:miter;stroke-opacity:1" d="M 708.689,572.798 693.159,559.209 z" id="boundary" inkscape:connector-curvature="0" />
	<path style="fill:none;stroke:red;stroke-width:1px;stroke-linecap:butt;stroke-linejoin:miter;stroke-opacity:1" d="M 726.16,582.505 741.691,596.094 z" id="boundary" inkscape:connector-curvature="0" />
	<path style="fill:none;stroke:red;stroke-width:1px;stroke-linecap:butt;stroke-linejoin:miter;stroke-opacity:1" d="M 629.096,603.859 646.568,613.566 z" id="boundary" inkscape:connector-curvature="0" />
	<path style="fill:none;stroke:red;stroke-width:1px;stroke-linecap:butt;stroke-linejoin:miter;stroke-opacity:1" d="M 646.568,613.566 658.215,629.096 z" id="boundary" inkscape:connector-curvature="0" />
	<path style="fill:none;stroke:red;stroke-width:1px;stroke-linecap:butt;stroke-linejoin:miter;stroke-opacity:1" d="M 658.215,629.096 675.687,638.802 z" id="boundary" inkscape:connector-curvature="0" />
	<path style="fill:none;stroke:red;stroke-width:1px;stroke-linecap:butt;stroke-linejoin:miter;stroke-opacity:1" d="M 675.687,638.802 691.217,652.391 z" id="boundary" inkscape:connector-curvature="0" />
	<path style="fill:none;stroke:red;stroke-width:1px;stroke-linecap:butt;stroke-linejoin:miter;stroke-opacity:1" d="M 728.102,669.863 708.689,662.098 z" id="boundary" inkscape:connector-curvature="0" />
	<path style="fill:none;stroke:red;stroke-width:1px;stroke-linecap:butt;stroke-linejoin:miter;stroke-opacity:1" d="M 763.045,631.037 749.456,615.507 z" id="boundary" inkscape:connector-curvature="0" />
	<path style="fill:none;stroke:red;stroke-width:1px;stroke-linecap:butt;stroke-linejoin:miter;stroke-opacity:1" d="M 749.456,615.507 741.691,596.094 z" id="boundary" inkscape:connector-curvature="0" />
	<path style="fill:none;stroke:red;stroke-width:1px;stroke-linecap:butt;stroke-linejoin:miter;stroke-opacity:1" d="M 763.045,631.037 772.751,648.509 z" id="boundary" inkscape:connector-curvature="0" />
	<path style="fill:none;stroke:red;stroke-width:1px;stroke-linecap:butt;stroke-linejoin:miter;stroke-opacity:1" d="M 788.282,660.157 772.751,648.509 z" id="boundary" inkscape:connector-curvature="0" />
	<path style="fill:none;stroke:red;stroke-width:1px;stroke-linecap:butt;stroke-linejoin:miter;stroke-opacity:1" d="M 708.689,662.098 691.217,652.391 z" id="boundary" inkscape:connector-curvature="0" />
	<path style="fill:none;stroke:red;stroke-width:1px;stroke-linecap:butt;stroke-linejoin:miter;stroke-opacity:1" d="M 728.102,669.863 745.573,679.569 z" id="boundary" inkscape:connector-curvature="0" />
	<path style="fill:none;stroke:red;stroke-width:1px;stroke-linecap:butt;stroke-linejoin:miter;stroke-opacity:1" d="M 761.104,691.217 766.928,710.63 z" id="boundary" inkscape:connector-curvature="0" />
	<path style="fill:none;stroke:red;stroke-width:1px;stroke-linecap:butt;stroke-linejoin:miter;stroke-opacity:1" d="M 745.573,679.569 761.104,691.217 z" id="boundary" inkscape:connector-curvature="0" />
	<path style="fill:none;stroke:red;stroke-width:1px;stroke-linecap:butt;stroke-linejoin:miter;stroke-opacity:1" d="M 766.928,710.63 770.81,730.043 z" id="boundary" inkscape:connector-curvature="0" />
	<path style="fill:none;stroke:red;stroke-width:1px;stroke-linecap:butt;stroke-linejoin:miter;stroke-opacity:1" d="M 770.81,749.456 770.81,730.043 z" id="boundary" inkscape:connector-curvature="0" />
	<path style="fill:none;stroke:red;stroke-width:1px;stroke-linecap:butt;stroke-linejoin:miter;stroke-opacity:1" d="M 770.81,768.869 770.81,749.456 z" id="boundary" inkscape:connector-curvature="0" />
	<path style="fill:none;stroke:red;stroke-width:1px;stroke-linecap:butt;stroke-linejoin:miter;stroke-opacity:1" d="M 830.99,759.162 821.284,778.575 z" id="boundary" inkscape:connector-curvature="0" />
	<path style="fill:none;stroke:red;stroke-width:1px;stroke-linecap:butt;stroke-linejoin:miter;stroke-opacity:1" d="M 770.81,788.282 770.81,768.869 z" id="boundary" inkscape:connector-curvature="0" />
	<path style="fill:none;stroke:red;stroke-width:1px;stroke-linecap:butt;stroke-linejoin:miter;stroke-opacity:1" d="M 788.282,660.157 805.753,669.863 z" id="boundary" inkscape:connector-curvature="0" />
	<path style="fill:none;stroke:red;stroke-width:1px;stroke-linecap:butt;stroke-linejoin:miter;stroke-opacity:1" d="M 770.81,788.282 776.634,807.695 z" id="boundary" inkscape:connector-curvature="0" />
	<path style="fill:none;stroke:red;stroke-width:1px;stroke-linecap:butt;stroke-linejoin:miter;stroke-opacity:1" d="M 776.634,807.695 780.517,827.108 z" id="boundary" inkscape:connector-curvature="0" />
	<path style="fill:none;stroke:red;stroke-width:1px;stroke-linecap:butt;stroke-linejoin:miter;stroke-opacity:1" d="M 796.047,863.992 786.341,846.521 z" id="boundary" inkscape:connector-curvature="0" />
	<path style="fill:none;stroke:red;stroke-width:1px;stroke-linecap:butt;stroke-linejoin:miter;stroke-opacity:1" d="M 786.341,846.521 780.517,827.108 z" id="boundary" inkscape:connector-curvature="0" />
	<path style="fill:none;stroke:red;stroke-width:1px;stroke-linecap:butt;stroke-linejoin:miter;stroke-opacity:1" d="M 821.284,817.401 821.284,836.814 z" id="boundary" inkscape:connector-curvature="0" />
	<path style="fill:none;stroke:red;stroke-width:1px;stroke-linecap:butt;stroke-linejoin:miter;stroke-opacity:1" d="M 821.284,817.401 821.284,797.988 z" id="boundary" inkscape:connector-curvature="0" />
	<path style="fill:none;stroke:red;stroke-width:1px;stroke-linecap:butt;stroke-linejoin:miter;stroke-opacity:1" d="M 821.284,856.227 811.577,875.64 z" id="boundary" inkscape:connector-curvature="0" />
	<path style="fill:none;stroke:red;stroke-width:1px;stroke-linecap:butt;stroke-linejoin:miter;stroke-opacity:1" d="M 811.577,875.64 796.047,863.992 z" id="boundary" inkscape:connector-curvature="0" />
	<path style="fill:none;stroke:red;stroke-width:1px;stroke-linecap:butt;stroke-linejoin:miter;stroke-opacity:1" d="M 821.284,836.814 821.284,856.227 z" id="boundary" inkscape:connector-curvature="0" />
	<path style="fill:none;stroke:red;stroke-width:1px;stroke-linecap:butt;stroke-linejoin:miter;stroke-opacity:1" d="M 821.284,778.575 821.284,797.988 z" id="boundary" inkscape:connector-curvature="0" />
	<path style="fill:none;stroke:red;stroke-width:1px;stroke-linecap:butt;stroke-linejoin:miter;stroke-opacity:1" d="M 825.166,669.863 844.579,669.863 z" id="boundary" inkscape:connector-curvature="0" />
	<path style="fill:none;stroke:red;stroke-width:1px;stroke-linecap:butt;stroke-linejoin:miter;stroke-opacity:1" d="M 863.992,669.863 883.405,669.863 z" id="boundary" inkscape:connector-curvature="0" />
	<path style="fill:none;stroke:red;stroke-width:1px;stroke-linecap:butt;stroke-linejoin:miter;stroke-opacity:1" d="M 900.877,679.569 883.405,669.863 z" id="boundary" inkscape:connector-curvature="0" />
	<path style="fill:none;stroke:red;stroke-width:1px;stroke-linecap:butt;stroke-linejoin:miter;stroke-opacity:1" d="M 920.29,679.569 900.877,679.569 z" id="boundary" inkscape:connector-curvature="0" />
	<path style="fill:none;stroke:red;stroke-width:1px;stroke-linecap:butt;stroke-linejoin:miter;stroke-opacity:1" d="M 844.579,669.863 863.992,669.863 z" id="boundary" inkscape:connector-curvature="0" />
	<path style="fill:none;stroke:red;stroke-width:1px;stroke-linecap:butt;stroke-linejoin:miter;stroke-opacity:1" d="M 937.761,689.276 920.29,679.569 z" id="boundary" inkscape:connector-curvature="0" />
	<path style="fill:none;stroke:red;stroke-width:1px;stroke-linecap:butt;stroke-linejoin:miter;stroke-opacity:1" d="M 957.174,689.276 937.761,689.276 z" id="boundary" inkscape:connector-curvature="0" />
	<path style="fill:none;stroke:red;stroke-width:1px;stroke-linecap:butt;stroke-linejoin:miter;stroke-opacity:1" d="M 957.174,689.276 976.587,689.276 z" id="boundary" inkscape:connector-curvature="0" />
	<path style="fill:none;stroke:red;stroke-width:1px;stroke-linecap:butt;stroke-linejoin:miter;stroke-opacity:1" d="M 994.059,698.982 976.587,689.276 z" id="boundary" inkscape:connector-curvature="0" />
	<path style="fill:none;stroke:red;stroke-width:1px;stroke-linecap:butt;stroke-linejoin:miter;stroke-opacity:1" d="M 879.523,720.337 898.935,720.337 z" id="boundary" inkscape:connector-curvature="0" />
	<path style="fill:none;stroke:red;stroke-width:1px;stroke-linecap:butt;stroke-linejoin:miter;stroke-opacity:1" d="M 860.11,730.043 879.523,720.337 z" id="boundary" inkscape:connector-curvature="0" />
	<path style="fill:none;stroke:red;stroke-width:1px;stroke-linecap:butt;stroke-linejoin:miter;stroke-opacity:1" d="M 846.521,745.573 830.99,759.162 z" id="boundary" inkscape:connector-curvature="0" />
	<path style="fill:none;stroke:red;stroke-width:1px;stroke-linecap:butt;stroke-linejoin:miter;stroke-opacity:1" d="M 860.11,730.043 846.521,745.573 z" id="boundary" inkscape:connector-curvature="0" />
	<path style="fill:none;stroke:red;stroke-width:1px;stroke-linecap:butt;stroke-linejoin:miter;stroke-opacity:1" d="M 898.935,720.337 918.348,720.337 z" id="boundary" inkscape:connector-curvature="0" />
	<path style="fill:none;stroke:red;stroke-width:1px;stroke-linecap:butt;stroke-linejoin:miter;stroke-opacity:1" d="M 918.348,720.337 937.761,720.337 z" id="boundary" inkscape:connector-curvature="0" />
	<path style="fill:none;stroke:red;stroke-width:1px;stroke-linecap:butt;stroke-linejoin:miter;stroke-opacity:1" d="M 957.174,720.337 976.587,720.337 z" id="boundary" inkscape:connector-curvature="0" />
	<path style="fill:none;stroke:red;stroke-width:1px;stroke-linecap:butt;stroke-linejoin:miter;stroke-opacity:1" d="M 996,720.337 976.587,720.337 z" id="boundary" inkscape:connector-curvature="0" />
	<path style="fill:none;stroke:red;stroke-width:1px;stroke-linecap:butt;stroke-linejoin:miter;stroke-opacity:1" d="M 994.059,698.982 996,720.337 z" id="boundary" inkscape:connector-curvature="0" />
	<path style="fill:none;stroke:red;stroke-width:1px;stroke-linecap:butt;stroke-linejoin:miter;stroke-opacity:1" d="M 957.174,720.337 937.761,720.337 z" id="boundary" inkscape:connector-curvature="0" />
	<path style="fill:none;stroke:red;stroke-width:1px;stroke-linecap:butt;stroke-linejoin:miter;stroke-opacity:1" d="M 805.753,669.863 825.166,669.863 z" id="boundary" inkscape:connector-curvature="0" />
	<circle cx="4" cy="5.94129" r="4" fill="#0" id="circle0"/>
	<circle cx="13.7065" cy="23.4129" r="4" fill="#0" id="circle1"/>
	<circle cx="23.4129" cy="4" r="4" fill="#0" id="circle2"/>
	<circle cx="27.2955" cy="38.9432" r="4" fill="#0" id="circle3"/>
	<circle cx="35.0607" cy="19.5303" r="4" fill="#0" id="circle4"/>
	<circle cx="42.8258" cy="50.591" r="4" fill="#0" id="circle5"/>
	<circle cx="54.4736" cy="25.3542" r="4" fill="#0" id="circle6"/>
	<circle cx="54.4736" cy="66.1213" r="4" fill="#0" id="circle7"/>
	<circle cx="68.0626" cy="40.8845" r="4" fill="#0" id="circle8"/>
	<circle cx="70.0039" cy="79.7104" r="4" fill="#0" id="circle9"/>
	<circle cx="83.593" cy="54.4736" r="4" fill="#0" id="circle10"/>
	<circle cx="83.593" cy="95.2407" r="4" fill="#0" id="circle11"/>
	<circle cx="97.182" cy="70.0039" r="4" fill="#0" id="circle12"/>
	<circle cx="99.1233" cy="108.83" r="4" fill="#0" id="circle13"/>
	<circle cx="112.712" cy="83.593" r="4" fill="#0" id="circle14"/>
	<circle cx="112.712" cy="124.36" r="4" fill="#0" id="circle15"/>
	<circle cx="128.243" cy="137.949" r="4" fill="#0" id="circle16"/>
	<circle cx="130.184" cy="93.2994" r="4" fill="#0" id="circle17"/>
	<circle cx="141.832" cy="153.479" r="4" fill="#0" id="circle18"/>
	<circle cx="145.714" cy="106.888" r="4" fill="#0" id="circle19"/>
	<circle cx="157.362" cy="167.068" r="4" fill="#0" id="circle20"/>
	<circle cx="159.303" cy="122.419" r="4" fill="#0" id="circle21"/>
	<circle cx="169.01" cy="182.599" r="4" fill="#0" id="circle22"/>
	<circle cx="178.716" cy="130.184" r="4" fill="#0" id="circle23"/>
	<circle cx="178.716" cy="200.07" r="4" fill="#0" id="circle24"/>
	<circle cx="188.423" cy="217.542" r="4" fill="#0" id="circle25"/>
	<circle cx="190.364" cy="145.714" r="4" fill="#0" id="circle26"/>
	<circle cx="202.012" cy="233.072" r="4" fill="#0" id="circle27"/>
	<circle cx="209.777" cy="151.538" r="4" fill="#0" id="circle28"/>
	<circle cx="217.542" cy="244.72" r="4" fill="#0" id="circle29"/>
	<circle cx="223.366" cy="264.133" r="4" fill="#0" id="circle30"/>
	<circle cx="225.307" cy="165.127" r="4" fill="#0" id="circle31"/>
	<circle cx="238.896" cy="277.722" r="4" fill="#0" id="circle32"/>
	<circle cx="242.779" cy="174.834" r="4" fill="#0" id="circle33"/>
	<circle cx="252.485" cy="293.252" r="4" fill="#0" id="circle34"/>
	<circle cx="260.25" cy="184.54" r="4" fill="#0" id="circle35"/>
	<circle cx="262.192" cy="310.724" r="4" fill="#0" id="circle36"/>
	<circle cx="266.074" cy="330.137" r="4" fill="#0" id="circle37"/>
	<circle cx="266.074" cy="349.55" r="4" fill="#0" id="circle38"/>
	<circle cx="266.074" cy="368.963" r="4" fill="#0" id="circle39"/>
	<circle cx="269.957" cy="388.376" r="4" fill="#0" id="circle40"/>
	<circle cx="277.722" cy="194.247" r="4" fill="#0" id="circle41"/>
	<circle cx="279.663" cy="405.847" r="4" fill="#0" id="circle42"/>
	<circle cx="295.194" cy="419.436" r="4" fill="#0" id="circle43"/>
	<circle cx="297.135" cy="194.247" r="4" fill="#0" id="circle44"/>
	<circle cx="310.724" cy="407.789" r="4" fill="#0" id="circle45"/>
	<circle cx="312.665" cy="205.894" r="4" fill="#0" id="circle46"/>
	<circle cx="316.548" cy="380.611" r="4" fill="#0" id="circle47"/>
	<circle cx="332.078" cy="213.659" r="4" fill="#0" id="circle48"/>
	<circle cx="335.961" cy="384.493" r="4" fill="#0" id="circle49"/>
	<circle cx="349.55" cy="223.366" r="4" fill="#0" id="circle50"/>
	<circle cx="349.55" cy="400.023" r="4" fill="#0" id="circle51"/>
	<circle cx="365.08" cy="413.613" r="4" fill="#0" id="circle52"/>
	<circle cx="367.022" cy="233.072" r="4" fill="#0" id="circle53"/>
	<circle cx="378.669" cy="429.143" r="4" fill="#0" id="circle54"/>
	<circle cx="384.493" cy="242.779" r="4" fill="#0" id="circle55"/>
	<circle cx="396.141" cy="438.849" r="4" fill="#0" id="circle56"/>
	<circle cx="403.906" cy="242.779" r="4" fill="#0" id="circle57"/>
	<circle cx="411.671" cy="450.497" r="4" fill="#0" id="circle58"/>
	<circle cx="423.319" cy="242.779" r="4" fill="#0" id="circle59"/>
	<circle cx="425.26" cy="466.027" r="4" fill="#0" id="circle60"/>
	<circle cx="440.791" cy="252.485" r="4" fill="#0" id="circle61"/>
	<circle cx="440.791" cy="477.675" r="4" fill="#0" id="circle62"/>
	<circle cx="452.438" cy="493.205" r="4" fill="#0" id="circle63"/>
	<circle cx="460.204" cy="252.485" r="4" fill="#0" id="circle64"/>
	<circle cx="467.969" cy="506.795" r="4" fill="#0" id="circle65"/>
	<circle cx="479.616" cy="252.485" r="4" fill="#0" id="circle66"/>
	<circle cx="485.44" cy="516.501" r="4" fill="#0" id="circle67"/>
	<circle cx="499.029" cy="256.368" r="4" fill="#0" id="circle68"/>
	<circle cx="500.971" cy="530.09" r="4" fill="#0" id="circle69"/>
	<circle cx="510.677" cy="322.372" r="4" fill="#0" id="circle70"/>
	<circle cx="514.56" cy="341.785" r="4" fill="#0" id="circle71"/>
	<circle cx="514.56" cy="545.62" r="4" fill="#0" id="circle72"/>
	<circle cx="518.442" cy="262.192" r="4" fill="#0" id="circle73"/>
	<circle cx="518.442" cy="565.033" r="4" fill="#0" id="circle74"/>
	<circle cx="524.266" cy="359.256" r="4" fill="#0" id="circle75"/>
	<circle cx="524.266" cy="584.446" r="4" fill="#0" id="circle76"/>
	<circle cx="528.149" cy="312.665" r="4" fill="#0" id="circle77"/>
	<circle cx="533.973" cy="601.918" r="4" fill="#0" id="circle78"/>
	<circle cx="537.855" cy="266.074" r="4" fill="#0" id="circle79"/>
	<circle cx="537.855" cy="374.787" r="4" fill="#0" id="circle80"/>
	<circle cx="541.738" cy="621.331" r="4" fill="#0" id="circle81"/>
	<circle cx="545.62" cy="302.959" r="4" fill="#0" id="circle82"/>
	<circle cx="547.562" cy="392.258" r="4" fill="#0" id="circle83"/>
	<circle cx="557.268" cy="271.898" r="4" fill="#0" id="circle84"/>
	<circle cx="559.209" cy="407.789" r="4" fill="#0" id="circle85"/>
	<circle cx="561.151" cy="623.272" r="4" fill="#0" id="circle86"/>
	<circle cx="565.033" cy="302.959" r="4" fill="#0" id="circle87"/>
	<circle cx="572.798" cy="283.546" r="4" fill="#0" id="circle88"/>
	<circle cx="574.74" cy="419.436" r="4" fill="#0" id="circle89"/>
	<circle cx="576.681" cy="607.742" r="4" fill="#0" id="circle90"/>
	<circle cx="588.329" cy="434.967" r="4" fill="#0" id="circle91"/>
	<circle cx="592.211" cy="594.153" r="4" fill="#0" id="circle92"/>
	<circle cx="603.859" cy="448.556" r="4" fill="#0" id="circle93"/>
	<circle cx="611.624" cy="594.153" r="4" fill="#0" id="circle94"/>
	<circle cx="617.448" cy="464.086" r="4" fill="#0" id="circle95"/>
	<circle cx="627.155" cy="481.558" r="4" fill="#0" id="circle96"/>
	<circle cx="629.096" cy="603.859" r="4" fill="#0" id="circle97"/>
	<circle cx="640.744" cy="497.088" r="4" fill="#0" id="circle98"/>
	<circle cx="646.568" cy="613.566" r="4" fill="#0" id="circle99"/>
	<circle cx="656.274" cy="510.677" r="4" fill="#0" id="circle100"/>
	<circle cx="658.215" cy="629.096" r="4" fill="#0" id="circle101"/>
	<circle cx="664.039" cy="530.09" r="4" fill="#0" id="circle102"/>
	<circle cx="675.687" cy="638.802" r="4" fill="#0" id="circle103"/>
	<circle cx="679.569" cy="543.679" r="4" fill="#0" id="circle104"/>
	<circle cx="691.217" cy="652.391" r="4" fill="#0" id="circle105"/>
	<circle cx="693.159" cy="559.209" r="4" fill="#0" id="circle106"/>
	<circle cx="708.689" cy="572.798" r="4" fill="#0" id="circle107"/>
	<circle cx="708.689" cy="662.098" r="4" fill="#0" id="circle108"/>
	<circle cx="726.16" cy="582.505" r="4" fill="#0" id="circle109"/>
	<circle cx="728.102" cy="669.863" r="4" fill="#0" id="circle110"/>
	<circle cx="741.691" cy="596.094" r="4" fill="#0" id="circle111"/>
	<circle cx="745.573" cy="679.569" r="4" fill="#0" id="circle112"/>
	<circle cx="749.456" cy="615.507" r="4" fill="#0" id="circle113"/>
	<circle cx="761.104" cy="691.217" r="4" fill="#0" id="circle114"/>
	<circle cx="763.045" cy="631.037" r="4" fill="#0" id="circle115"/>
	<circle cx="766.928" cy="710.63" r="4" fill="#0" id="circle116"/>
	<circle cx="770.81" cy="730.043" r="4" fill="#0" id="circle117"/>
	<circle cx="770.81" cy="749.456" r="4" fill="#0" id="circle118"/>
	<circle cx="770.81" cy="768.869" r="4" fill="#0" id="circle119"/>
	<circle cx="770.81" cy="788.282" r="4" fill="#0" id="circle120"/>
	<circle cx="772.751" cy="648.509" r="4" fill="#0" id="circle121"/>
	<circle cx="776.634" cy="807.695" r="4" fill="#0" id="circle122"/>
	<circle cx="780.517" cy="827.108" r="4" fill="#0" id="circle123"/>
	<circle cx="786.341" cy="846.521" r="4" fill="#0" id="circle124"/>
	<circle cx="788.282" cy="660.157" r="4" fill="#0" id="circle125"/>
	<circle cx="796.047" cy="863.992" r="4" fill="#0" id="circle126"/>
	<circle cx="805.753" cy="669.863" r="4" fill="#0" id="circle127"/>
	<circle cx="811.577" cy="875.64" r="4" fill="#0" id="circle128"/>
	<circle cx="821.284" cy="778.575" r="4" fill="#0" id="circle129"/>
	<circle cx="821.284" cy="797.988" r="4" fill="#0" id="circle130"/>
	<circle cx="821.284" cy="817.401" r="4" fill="#0" id="circle131"/>
	<circle cx="821.284" cy="836.814" r="4" fill="#0" id="circle132"/>
	<circle cx="821.284" cy="856.227" r="4" fill="#0" id="circle133"/>
	<circle cx="825.166" cy="669.863" r="4" fill="#0" id="circle134"/>
	<circle cx="830.99" cy="759.162" r="4" fill="#0" id="circle135"/>
	<circle cx="844.579" cy="669.863" r="4" fill="#0" id="circle136"/>
	<circle cx="846.521" cy="745.573" r="4" fill="#0" id="circle137"/>
	<circle cx="860.11" cy="730.043" r="4" fill="#0" id="circle138"/>
	<circle cx="863.992" cy="669.863" r="4" fill="#0" id="circle139"/>
	<circle cx="879.523" cy="720.337" r="4" fill="#0" id="circle140"/>
	<circle cx="883.405" cy="669.863" r="4" fill="#0" id="circle141"/>
	<circle cx="898.935" cy="720.337" r="4" fill="#0" id="circle142"/>
	<circle cx="900.877" cy="679.569" r="4" fill="#0" id="circle143"/>
	<circle cx="918.348" cy="720.337" r="4" fill="#0" id="circle144"/>
	<circle cx="920.29" cy="679.569" r="4" fill="#0" id="circle145"/>
	<circle cx="937.761" cy="689.276" r="4" fill="#0" id="circle146"/>
	<circle cx="937.761" cy="720.337" r="4" fill="#0" id="circle147"/>
	<circle cx="957.174" cy="689.276" r="4" fill="#0" id="circle148"/>
	<circle cx="957.174" cy="720.337" r="4" fill="#0" id="circle149"/>
	<circle cx="976.587" cy="689.276" r="4" fill="#0" id="circle150"/>
	<circle cx="976.587" cy="720.337" r="4" fill="#0" id="circle151"/>
	<circle cx="994.059" cy="698.982" r="4" fill="#0" id="circle152"/>
	<circle cx="996" cy="720.337" r="4" fill="#0" id="circle153"/>
	</g>
</svg>