<?xml version="1.0" encoding="UTF-8" standalone="no"?>
<!-- Created with CurveBenchmark -->
<svg
	xmlns:dc="http://purl.org/dc/elements/1.1/"
	xmlns:cc="http://creativecommons.org/ns#"
	xmlns:rdf="http://www.w3.org/1999/02/22-rdf-syntax-ns#"
	xmlns:svg="http://www.w3.org/2000/svg"
	xmlns="http://www.w3.org/2000/svg"
	xmlns:sodipodi="http://sodipodi.sourceforge.net/DTD/sodipodi-0.dtd"
	xmlns:inkscape="http://www.inkscape.org/namespaces/inkscape"
	width="1000"
	height="1000"
	id="svg2"
	version="1.1"
	sodipodi:docname="manifold/gathan1-hammer-7.png.txt">
<defs
	id="defs4" />
<metadata
	id="metadata7">
	<rdf:RDF>
		<cc:Work
			rdf:about="">
			<dc:format>image/svg+xml</dc:format>
			<dc:type
				rdf:resource="http://purl.org/dc/dcmitype/StillImage" />
			<dc:title></dc:title>
		</cc:Work>
	</rdf:RDF>
</metadata>
<g
	inkscape:label="Layer 1"
	inkscape:groupmode="layer"
	id="layer1">
	<path style="fill:none;stroke:red;stroke-width:1px;stroke-linecap:butt;stroke-linejoin:miter;stroke-opacity:1" d="M 40.7068,148.992 45.2951,135.227 z" id="boundary" inkscape:connector-curvature="0" />
	<path style="fill:none;stroke:red;stroke-width:1px;stroke-linecap:butt;stroke-linejoin:miter;stroke-opacity:1" d="M 45.2951,135.227 52.6364,127.885 z" id="boundary" inkscape:connector-curvature="0" />
	<path style="fill:none;stroke:red;stroke-width:1px;stroke-linecap:butt;stroke-linejoin:miter;stroke-opacity:1" d="M 40.7068,148.992 34.2831,160.004 z" id="boundary" inkscape:connector-curvature="0" />
	<path style="fill:none;stroke:red;stroke-width:1px;stroke-linecap:butt;stroke-linejoin:miter;stroke-opacity:1" d="M 59.0601,116.873 52.6364,127.885 z" id="boundary" inkscape:connector-curvature="0" />
	<path style="fill:none;stroke:red;stroke-width:1px;stroke-linecap:butt;stroke-linejoin:miter;stroke-opacity:1" d="M 13.1767,199.463 17.765,190.287 z" id="boundary" inkscape:connector-curvature="0" />
	<path style="fill:none;stroke:red;stroke-width:1px;stroke-linecap:butt;stroke-linejoin:miter;stroke-opacity:1" d="M 22.3534,176.522 17.765,190.287 z" id="boundary" inkscape:connector-curvature="0" />
	<path style="fill:none;stroke:red;stroke-width:1px;stroke-linecap:butt;stroke-linejoin:miter;stroke-opacity:1" d="M 34.2831,160.004 29.6947,169.18 z" id="boundary" inkscape:connector-curvature="0" />
	<path style="fill:none;stroke:red;stroke-width:1px;stroke-linecap:butt;stroke-linejoin:miter;stroke-opacity:1" d="M 29.6947,169.18 22.3534,176.522 z" id="boundary" inkscape:connector-curvature="0" />
	<path style="fill:none;stroke:red;stroke-width:1px;stroke-linecap:butt;stroke-linejoin:miter;stroke-opacity:1" d="M 59.0601,116.873 66.4015,109.532 z" id="boundary" inkscape:connector-curvature="0" />
	<path style="fill:none;stroke:red;stroke-width:1px;stroke-linecap:butt;stroke-linejoin:miter;stroke-opacity:1" d="M 115.038,74.6605 105.861,79.2488 z" id="boundary" inkscape:connector-curvature="0" />
	<path style="fill:none;stroke:red;stroke-width:1px;stroke-linecap:butt;stroke-linejoin:miter;stroke-opacity:1" d="M 122.379,68.2368 115.038,74.6605 z" id="boundary" inkscape:connector-curvature="0" />
	<path style="fill:none;stroke:red;stroke-width:1px;stroke-linecap:butt;stroke-linejoin:miter;stroke-opacity:1" d="M 122.379,68.2368 130.638,63.6485 z" id="boundary" inkscape:connector-curvature="0" />
	<path style="fill:none;stroke:red;stroke-width:1px;stroke-linecap:butt;stroke-linejoin:miter;stroke-opacity:1" d="M 138.897,59.0601 130.638,63.6485 z" id="boundary" inkscape:connector-curvature="0" />
	<path style="fill:none;stroke:red;stroke-width:1px;stroke-linecap:butt;stroke-linejoin:miter;stroke-opacity:1" d="M 146.239,52.6364 138.897,59.0601 z" id="boundary" inkscape:connector-curvature="0" />
	<path style="fill:none;stroke:red;stroke-width:1px;stroke-linecap:butt;stroke-linejoin:miter;stroke-opacity:1" d="M 105.861,79.2488 96.6846,83.8372 z" id="boundary" inkscape:connector-curvature="0" />
	<path style="fill:none;stroke:red;stroke-width:1px;stroke-linecap:butt;stroke-linejoin:miter;stroke-opacity:1" d="M 66.4015,109.532 73.7428,102.191 z" id="boundary" inkscape:connector-curvature="0" />
	<path style="fill:none;stroke:red;stroke-width:1px;stroke-linecap:butt;stroke-linejoin:miter;stroke-opacity:1" d="M 96.6846,83.8372 89.3432,91.1785 z" id="boundary" inkscape:connector-curvature="0" />
	<path style="fill:none;stroke:red;stroke-width:1px;stroke-linecap:butt;stroke-linejoin:miter;stroke-opacity:1" d="M 89.3432,91.1785 81.0842,95.7669 z" id="boundary" inkscape:connector-curvature="0" />
	<path style="fill:none;stroke:red;stroke-width:1px;stroke-linecap:butt;stroke-linejoin:miter;stroke-opacity:1" d="M 73.7428,102.191 81.0842,95.7669 z" id="boundary" inkscape:connector-curvature="0" />
	<path style="fill:none;stroke:red;stroke-width:1px;stroke-linecap:butt;stroke-linejoin:miter;stroke-opacity:1" d="M 4,226.994 8.58834,213.228 z" id="boundary" inkscape:connector-curvature="0" />
	<path style="fill:none;stroke:red;stroke-width:1px;stroke-linecap:butt;stroke-linejoin:miter;stroke-opacity:1" d="M 8.58834,213.228 13.1767,199.463 z" id="boundary" inkscape:connector-curvature="0" />
	<path style="fill:none;stroke:red;stroke-width:1px;stroke-linecap:butt;stroke-linejoin:miter;stroke-opacity:1" d="M 64.5661,220.57 56.3071,225.158 z" id="boundary" inkscape:connector-curvature="0" />
	<path style="fill:none;stroke:red;stroke-width:1px;stroke-linecap:butt;stroke-linejoin:miter;stroke-opacity:1" d="M 56.3071,225.158 47.1304,225.158 z" id="boundary" inkscape:connector-curvature="0" />
	<path style="fill:none;stroke:red;stroke-width:1px;stroke-linecap:butt;stroke-linejoin:miter;stroke-opacity:1" d="M 38.8714,229.747 47.1304,225.158 z" id="boundary" inkscape:connector-curvature="0" />
	<path style="fill:none;stroke:red;stroke-width:1px;stroke-linecap:butt;stroke-linejoin:miter;stroke-opacity:1" d="M 4,236.17 13.1767,238.923 z" id="boundary" inkscape:connector-curvature="0" />
	<path style="fill:none;stroke:red;stroke-width:1px;stroke-linecap:butt;stroke-linejoin:miter;stroke-opacity:1" d="M 4,236.17 4,226.994 z" id="boundary" inkscape:connector-curvature="0" />
	<path style="fill:none;stroke:red;stroke-width:1px;stroke-linecap:butt;stroke-linejoin:miter;stroke-opacity:1" d="M 21.4357,234.335 29.6947,229.747 z" id="boundary" inkscape:connector-curvature="0" />
	<path style="fill:none;stroke:red;stroke-width:1px;stroke-linecap:butt;stroke-linejoin:miter;stroke-opacity:1" d="M 29.6947,229.747 38.8714,229.747 z" id="boundary" inkscape:connector-curvature="0" />
	<path style="fill:none;stroke:red;stroke-width:1px;stroke-linecap:butt;stroke-linejoin:miter;stroke-opacity:1" d="M 21.4357,234.335 13.1767,238.923 z" id="boundary" inkscape:connector-curvature="0" />
	<path style="fill:none;stroke:red;stroke-width:1px;stroke-linecap:butt;stroke-linejoin:miter;stroke-opacity:1" d="M 108.614,211.393 117.791,211.393 z" id="boundary" inkscape:connector-curvature="0" />
	<path style="fill:none;stroke:red;stroke-width:1px;stroke-linecap:butt;stroke-linejoin:miter;stroke-opacity:1" d="M 100.355,215.981 108.614,211.393 z" id="boundary" inkscape:connector-curvature="0" />
	<path style="fill:none;stroke:red;stroke-width:1px;stroke-linecap:butt;stroke-linejoin:miter;stroke-opacity:1" d="M 126.968,211.393 135.227,206.805 z" id="boundary" inkscape:connector-curvature="0" />
	<path style="fill:none;stroke:red;stroke-width:1px;stroke-linecap:butt;stroke-linejoin:miter;stroke-opacity:1" d="M 135.227,206.805 144.403,206.805 z" id="boundary" inkscape:connector-curvature="0" />
	<path style="fill:none;stroke:red;stroke-width:1px;stroke-linecap:butt;stroke-linejoin:miter;stroke-opacity:1" d="M 126.968,211.393 117.791,211.393 z" id="boundary" inkscape:connector-curvature="0" />
	<path style="fill:none;stroke:red;stroke-width:1px;stroke-linecap:butt;stroke-linejoin:miter;stroke-opacity:1" d="M 144.403,206.805 153.58,206.805 z" id="boundary" inkscape:connector-curvature="0" />
	<path style="fill:none;stroke:red;stroke-width:1px;stroke-linecap:butt;stroke-linejoin:miter;stroke-opacity:1" d="M 64.5661,220.57 73.7428,220.57 z" id="boundary" inkscape:connector-curvature="0" />
	<path style="fill:none;stroke:red;stroke-width:1px;stroke-linecap:butt;stroke-linejoin:miter;stroke-opacity:1" d="M 82.9195,220.57 91.1785,215.981 z" id="boundary" inkscape:connector-curvature="0" />
	<path style="fill:none;stroke:red;stroke-width:1px;stroke-linecap:butt;stroke-linejoin:miter;stroke-opacity:1" d="M 91.1785,215.981 100.355,215.981 z" id="boundary" inkscape:connector-curvature="0" />
	<path style="fill:none;stroke:red;stroke-width:1px;stroke-linecap:butt;stroke-linejoin:miter;stroke-opacity:1" d="M 82.9195,220.57 73.7428,220.57 z" id="boundary" inkscape:connector-curvature="0" />
	<path style="fill:none;stroke:red;stroke-width:1px;stroke-linecap:butt;stroke-linejoin:miter;stroke-opacity:1" d="M 162.757,40.7068 171.933,40.7068 z" id="boundary" inkscape:connector-curvature="0" />
	<path style="fill:none;stroke:red;stroke-width:1px;stroke-linecap:butt;stroke-linejoin:miter;stroke-opacity:1" d="M 155.415,48.0481 162.757,40.7068 z" id="boundary" inkscape:connector-curvature="0" />
	<path style="fill:none;stroke:red;stroke-width:1px;stroke-linecap:butt;stroke-linejoin:miter;stroke-opacity:1" d="M 181.11,36.1184 171.933,40.7068 z" id="boundary" inkscape:connector-curvature="0" />
	<path style="fill:none;stroke:red;stroke-width:1px;stroke-linecap:butt;stroke-linejoin:miter;stroke-opacity:1" d="M 207.722,202.216 198.546,202.216 z" id="boundary" inkscape:connector-curvature="0" />
	<path style="fill:none;stroke:red;stroke-width:1px;stroke-linecap:butt;stroke-linejoin:miter;stroke-opacity:1" d="M 190.287,31.5301 181.11,36.1184 z" id="boundary" inkscape:connector-curvature="0" />
	<path style="fill:none;stroke:red;stroke-width:1px;stroke-linecap:butt;stroke-linejoin:miter;stroke-opacity:1" d="M 199.463,26.9417 190.287,31.5301 z" id="boundary" inkscape:connector-curvature="0" />
	<path style="fill:none;stroke:red;stroke-width:1px;stroke-linecap:butt;stroke-linejoin:miter;stroke-opacity:1" d="M 155.415,48.0481 146.239,52.6364 z" id="boundary" inkscape:connector-curvature="0" />
	<path style="fill:none;stroke:red;stroke-width:1px;stroke-linecap:butt;stroke-linejoin:miter;stroke-opacity:1" d="M 171.016,202.216 180.192,202.216 z" id="boundary" inkscape:connector-curvature="0" />
	<path style="fill:none;stroke:red;stroke-width:1px;stroke-linecap:butt;stroke-linejoin:miter;stroke-opacity:1" d="M 162.757,206.805 171.016,202.216 z" id="boundary" inkscape:connector-curvature="0" />
	<path style="fill:none;stroke:red;stroke-width:1px;stroke-linecap:butt;stroke-linejoin:miter;stroke-opacity:1" d="M 189.369,202.216 180.192,202.216 z" id="boundary" inkscape:connector-curvature="0" />
	<path style="fill:none;stroke:red;stroke-width:1px;stroke-linecap:butt;stroke-linejoin:miter;stroke-opacity:1" d="M 198.546,202.216 189.369,202.216 z" id="boundary" inkscape:connector-curvature="0" />
	<path style="fill:none;stroke:red;stroke-width:1px;stroke-linecap:butt;stroke-linejoin:miter;stroke-opacity:1" d="M 226.076,22.3534 235.253,22.3534 z" id="boundary" inkscape:connector-curvature="0" />
	<path style="fill:none;stroke:red;stroke-width:1px;stroke-linecap:butt;stroke-linejoin:miter;stroke-opacity:1" d="M 217.817,26.9417 226.076,22.3534 z" id="boundary" inkscape:connector-curvature="0" />
	<path style="fill:none;stroke:red;stroke-width:1px;stroke-linecap:butt;stroke-linejoin:miter;stroke-opacity:1" d="M 253.606,22.3534 244.429,22.3534 z" id="boundary" inkscape:connector-curvature="0" />
	<path style="fill:none;stroke:red;stroke-width:1px;stroke-linecap:butt;stroke-linejoin:miter;stroke-opacity:1" d="M 262.783,22.3534 253.606,22.3534 z" id="boundary" inkscape:connector-curvature="0" />
	<path style="fill:none;stroke:red;stroke-width:1px;stroke-linecap:butt;stroke-linejoin:miter;stroke-opacity:1" d="M 244.429,22.3534 235.253,22.3534 z" id="boundary" inkscape:connector-curvature="0" />
	<path style="fill:none;stroke:red;stroke-width:1px;stroke-linecap:butt;stroke-linejoin:miter;stroke-opacity:1" d="M 208.64,26.9417 217.817,26.9417 z" id="boundary" inkscape:connector-curvature="0" />
	<path style="fill:none;stroke:red;stroke-width:1px;stroke-linecap:butt;stroke-linejoin:miter;stroke-opacity:1" d="M 199.463,26.9417 208.64,26.9417 z" id="boundary" inkscape:connector-curvature="0" />
	<path style="fill:none;stroke:red;stroke-width:1px;stroke-linecap:butt;stroke-linejoin:miter;stroke-opacity:1" d="M 262.783,22.3534 271.959,22.3534 z" id="boundary" inkscape:connector-curvature="0" />
	<path style="fill:none;stroke:red;stroke-width:1px;stroke-linecap:butt;stroke-linejoin:miter;stroke-opacity:1" d="M 153.58,206.805 162.757,206.805 z" id="boundary" inkscape:connector-curvature="0" />
	<path style="fill:none;stroke:red;stroke-width:1px;stroke-linecap:butt;stroke-linejoin:miter;stroke-opacity:1" d="M 215.064,226.076 215.064,235.253 z" id="boundary" inkscape:connector-curvature="0" />
	<path style="fill:none;stroke:red;stroke-width:1px;stroke-linecap:butt;stroke-linejoin:miter;stroke-opacity:1" d="M 215.064,207.722 207.722,202.216 z" id="boundary" inkscape:connector-curvature="0" />
	<path style="fill:none;stroke:red;stroke-width:1px;stroke-linecap:butt;stroke-linejoin:miter;stroke-opacity:1" d="M 215.064,207.722 215.064,216.899 z" id="boundary" inkscape:connector-curvature="0" />
	<path style="fill:none;stroke:red;stroke-width:1px;stroke-linecap:butt;stroke-linejoin:miter;stroke-opacity:1" d="M 215.064,216.899 215.064,226.076 z" id="boundary" inkscape:connector-curvature="0" />
	<path style="fill:none;stroke:red;stroke-width:1px;stroke-linecap:butt;stroke-linejoin:miter;stroke-opacity:1" d="M 215.064,235.253 215.064,244.429 z" id="boundary" inkscape:connector-curvature="0" />
	<path style="fill:none;stroke:red;stroke-width:1px;stroke-linecap:butt;stroke-linejoin:miter;stroke-opacity:1" d="M 215.064,253.606 215.064,244.429 z" id="boundary" inkscape:connector-curvature="0" />
	<path style="fill:none;stroke:red;stroke-width:1px;stroke-linecap:butt;stroke-linejoin:miter;stroke-opacity:1" d="M 215.064,253.606 215.064,262.783 z" id="boundary" inkscape:connector-curvature="0" />
	<path style="fill:none;stroke:red;stroke-width:1px;stroke-linecap:butt;stroke-linejoin:miter;stroke-opacity:1" d="M 215.064,262.783 215.064,271.959 z" id="boundary" inkscape:connector-curvature="0" />
	<path style="fill:none;stroke:red;stroke-width:1px;stroke-linecap:butt;stroke-linejoin:miter;stroke-opacity:1" d="M 215.064,281.136 215.064,290.313 z" id="boundary" inkscape:connector-curvature="0" />
	<path style="fill:none;stroke:red;stroke-width:1px;stroke-linecap:butt;stroke-linejoin:miter;stroke-opacity:1" d="M 215.064,299.489 215.064,290.313 z" id="boundary" inkscape:connector-curvature="0" />
	<path style="fill:none;stroke:red;stroke-width:1px;stroke-linecap:butt;stroke-linejoin:miter;stroke-opacity:1" d="M 215.064,281.136 215.064,271.959 z" id="boundary" inkscape:connector-curvature="0" />
	<path style="fill:none;stroke:red;stroke-width:1px;stroke-linecap:butt;stroke-linejoin:miter;stroke-opacity:1" d="M 215.064,308.666 215.064,317.843 z" id="boundary" inkscape:connector-curvature="0" />
	<path style="fill:none;stroke:red;stroke-width:1px;stroke-linecap:butt;stroke-linejoin:miter;stroke-opacity:1" d="M 215.064,327.019 215.064,336.196 z" id="boundary" inkscape:connector-curvature="0" />
	<path style="fill:none;stroke:red;stroke-width:1px;stroke-linecap:butt;stroke-linejoin:miter;stroke-opacity:1" d="M 215.064,345.373 215.064,336.196 z" id="boundary" inkscape:connector-curvature="0" />
	<path style="fill:none;stroke:red;stroke-width:1px;stroke-linecap:butt;stroke-linejoin:miter;stroke-opacity:1" d="M 215.064,327.019 215.064,317.843 z" id="boundary" inkscape:connector-curvature="0" />
	<path style="fill:none;stroke:red;stroke-width:1px;stroke-linecap:butt;stroke-linejoin:miter;stroke-opacity:1" d="M 215.064,308.666 215.064,299.489 z" id="boundary" inkscape:connector-curvature="0" />
	<path style="fill:none;stroke:red;stroke-width:1px;stroke-linecap:butt;stroke-linejoin:miter;stroke-opacity:1" d="M 215.064,354.549 215.064,345.373 z" id="boundary" inkscape:connector-curvature="0" />
	<path style="fill:none;stroke:red;stroke-width:1px;stroke-linecap:butt;stroke-linejoin:miter;stroke-opacity:1" d="M 215.064,354.549 215.064,363.726 z" id="boundary" inkscape:connector-curvature="0" />
	<path style="fill:none;stroke:red;stroke-width:1px;stroke-linecap:butt;stroke-linejoin:miter;stroke-opacity:1" d="M 215.064,372.903 215.064,382.08 z" id="boundary" inkscape:connector-curvature="0" />
	<path style="fill:none;stroke:red;stroke-width:1px;stroke-linecap:butt;stroke-linejoin:miter;stroke-opacity:1" d="M 215.064,372.903 215.064,363.726 z" id="boundary" inkscape:connector-curvature="0" />
	<path style="fill:none;stroke:red;stroke-width:1px;stroke-linecap:butt;stroke-linejoin:miter;stroke-opacity:1" d="M 215.064,391.256 215.064,400.433 z" id="boundary" inkscape:connector-curvature="0" />
	<path style="fill:none;stroke:red;stroke-width:1px;stroke-linecap:butt;stroke-linejoin:miter;stroke-opacity:1" d="M 215.064,409.61 215.064,418.786 z" id="boundary" inkscape:connector-curvature="0" />
	<path style="fill:none;stroke:red;stroke-width:1px;stroke-linecap:butt;stroke-linejoin:miter;stroke-opacity:1" d="M 215.064,427.963 215.064,418.786 z" id="boundary" inkscape:connector-curvature="0" />
	<path style="fill:none;stroke:red;stroke-width:1px;stroke-linecap:butt;stroke-linejoin:miter;stroke-opacity:1" d="M 215.064,409.61 215.064,400.433 z" id="boundary" inkscape:connector-curvature="0" />
	<path style="fill:none;stroke:red;stroke-width:1px;stroke-linecap:butt;stroke-linejoin:miter;stroke-opacity:1" d="M 215.064,391.256 215.064,382.08 z" id="boundary" inkscape:connector-curvature="0" />
	<path style="fill:none;stroke:red;stroke-width:1px;stroke-linecap:butt;stroke-linejoin:miter;stroke-opacity:1" d="M 215.064,437.14 215.064,446.316 z" id="boundary" inkscape:connector-curvature="0" />
	<path style="fill:none;stroke:red;stroke-width:1px;stroke-linecap:butt;stroke-linejoin:miter;stroke-opacity:1" d="M 215.064,455.493 215.064,464.67 z" id="boundary" inkscape:connector-curvature="0" />
	<path style="fill:none;stroke:red;stroke-width:1px;stroke-linecap:butt;stroke-linejoin:miter;stroke-opacity:1" d="M 215.064,473.846 215.064,464.67 z" id="boundary" inkscape:connector-curvature="0" />
	<path style="fill:none;stroke:red;stroke-width:1px;stroke-linecap:butt;stroke-linejoin:miter;stroke-opacity:1" d="M 215.064,455.493 215.064,446.316 z" id="boundary" inkscape:connector-curvature="0" />
	<path style="fill:none;stroke:red;stroke-width:1px;stroke-linecap:butt;stroke-linejoin:miter;stroke-opacity:1" d="M 215.064,483.023 215.064,492.2 z" id="boundary" inkscape:connector-curvature="0" />
	<path style="fill:none;stroke:red;stroke-width:1px;stroke-linecap:butt;stroke-linejoin:miter;stroke-opacity:1" d="M 215.064,501.377 215.064,510.553 z" id="boundary" inkscape:connector-curvature="0" />
	<path style="fill:none;stroke:red;stroke-width:1px;stroke-linecap:butt;stroke-linejoin:miter;stroke-opacity:1" d="M 215.064,519.73 215.064,510.553 z" id="boundary" inkscape:connector-curvature="0" />
	<path style="fill:none;stroke:red;stroke-width:1px;stroke-linecap:butt;stroke-linejoin:miter;stroke-opacity:1" d="M 215.064,501.377 215.064,492.2 z" id="boundary" inkscape:connector-curvature="0" />
	<path style="fill:none;stroke:red;stroke-width:1px;stroke-linecap:butt;stroke-linejoin:miter;stroke-opacity:1" d="M 215.064,483.023 215.064,473.846 z" id="boundary" inkscape:connector-curvature="0" />
	<path style="fill:none;stroke:red;stroke-width:1px;stroke-linecap:butt;stroke-linejoin:miter;stroke-opacity:1" d="M 215.064,437.14 215.064,427.963 z" id="boundary" inkscape:connector-curvature="0" />
	<path style="fill:none;stroke:red;stroke-width:1px;stroke-linecap:butt;stroke-linejoin:miter;stroke-opacity:1" d="M 215.064,528.907 215.064,538.083 z" id="boundary" inkscape:connector-curvature="0" />
	<path style="fill:none;stroke:red;stroke-width:1px;stroke-linecap:butt;stroke-linejoin:miter;stroke-opacity:1" d="M 215.064,547.26 215.064,538.083 z" id="boundary" inkscape:connector-curvature="0" />
	<path style="fill:none;stroke:red;stroke-width:1px;stroke-linecap:butt;stroke-linejoin:miter;stroke-opacity:1" d="M 215.064,547.26 215.064,556.437 z" id="boundary" inkscape:connector-curvature="0" />
	<path style="fill:none;stroke:red;stroke-width:1px;stroke-linecap:butt;stroke-linejoin:miter;stroke-opacity:1" d="M 215.064,565.613 215.064,556.437 z" id="boundary" inkscape:connector-curvature="0" />
	<path style="fill:none;stroke:red;stroke-width:1px;stroke-linecap:butt;stroke-linejoin:miter;stroke-opacity:1" d="M 215.064,565.613 215.064,574.79 z" id="boundary" inkscape:connector-curvature="0" />
	<path style="fill:none;stroke:red;stroke-width:1px;stroke-linecap:butt;stroke-linejoin:miter;stroke-opacity:1" d="M 215.064,583.967 215.064,574.79 z" id="boundary" inkscape:connector-curvature="0" />
	<path style="fill:none;stroke:red;stroke-width:1px;stroke-linecap:butt;stroke-linejoin:miter;stroke-opacity:1" d="M 215.064,583.967 215.064,593.143 z" id="boundary" inkscape:connector-curvature="0" />
	<path style="fill:none;stroke:red;stroke-width:1px;stroke-linecap:butt;stroke-linejoin:miter;stroke-opacity:1" d="M 215.064,602.32 215.064,593.143 z" id="boundary" inkscape:connector-curvature="0" />
	<path style="fill:none;stroke:red;stroke-width:1px;stroke-linecap:butt;stroke-linejoin:miter;stroke-opacity:1" d="M 215.064,611.497 215.064,602.32 z" id="boundary" inkscape:connector-curvature="0" />
	<path style="fill:none;stroke:red;stroke-width:1px;stroke-linecap:butt;stroke-linejoin:miter;stroke-opacity:1" d="M 215.064,611.497 215.064,620.673 z" id="boundary" inkscape:connector-curvature="0" />
	<path style="fill:none;stroke:red;stroke-width:1px;stroke-linecap:butt;stroke-linejoin:miter;stroke-opacity:1" d="M 215.064,629.85 215.064,620.673 z" id="boundary" inkscape:connector-curvature="0" />
	<path style="fill:none;stroke:red;stroke-width:1px;stroke-linecap:butt;stroke-linejoin:miter;stroke-opacity:1" d="M 215.064,629.85 215.064,639.027 z" id="boundary" inkscape:connector-curvature="0" />
	<path style="fill:none;stroke:red;stroke-width:1px;stroke-linecap:butt;stroke-linejoin:miter;stroke-opacity:1" d="M 215.064,648.204 215.064,639.027 z" id="boundary" inkscape:connector-curvature="0" />
	<path style="fill:none;stroke:red;stroke-width:1px;stroke-linecap:butt;stroke-linejoin:miter;stroke-opacity:1" d="M 215.064,657.38 215.064,648.204 z" id="boundary" inkscape:connector-curvature="0" />
	<path style="fill:none;stroke:red;stroke-width:1px;stroke-linecap:butt;stroke-linejoin:miter;stroke-opacity:1" d="M 215.064,657.38 215.064,666.557 z" id="boundary" inkscape:connector-curvature="0" />
	<path style="fill:none;stroke:red;stroke-width:1px;stroke-linecap:butt;stroke-linejoin:miter;stroke-opacity:1" d="M 215.064,675.734 215.064,666.557 z" id="boundary" inkscape:connector-curvature="0" />
	<path style="fill:none;stroke:red;stroke-width:1px;stroke-linecap:butt;stroke-linejoin:miter;stroke-opacity:1" d="M 215.064,675.734 215.064,684.91 z" id="boundary" inkscape:connector-curvature="0" />
	<path style="fill:none;stroke:red;stroke-width:1px;stroke-linecap:butt;stroke-linejoin:miter;stroke-opacity:1" d="M 215.064,694.087 215.064,684.91 z" id="boundary" inkscape:connector-curvature="0" />
	<path style="fill:none;stroke:red;stroke-width:1px;stroke-linecap:butt;stroke-linejoin:miter;stroke-opacity:1" d="M 215.064,703.264 215.064,694.087 z" id="boundary" inkscape:connector-curvature="0" />
	<path style="fill:none;stroke:red;stroke-width:1px;stroke-linecap:butt;stroke-linejoin:miter;stroke-opacity:1" d="M 215.064,519.73 215.064,528.907 z" id="boundary" inkscape:connector-curvature="0" />
	<path style="fill:none;stroke:red;stroke-width:1px;stroke-linecap:butt;stroke-linejoin:miter;stroke-opacity:1" d="M 215.064,703.264 215.064,712.44 z" id="boundary" inkscape:connector-curvature="0" />
	<path style="fill:none;stroke:red;stroke-width:1px;stroke-linecap:butt;stroke-linejoin:miter;stroke-opacity:1" d="M 215.064,721.617 215.064,712.44 z" id="boundary" inkscape:connector-curvature="0" />
	<path style="fill:none;stroke:red;stroke-width:1px;stroke-linecap:butt;stroke-linejoin:miter;stroke-opacity:1" d="M 215.064,721.617 215.064,730.794 z" id="boundary" inkscape:connector-curvature="0" />
	<path style="fill:none;stroke:red;stroke-width:1px;stroke-linecap:butt;stroke-linejoin:miter;stroke-opacity:1" d="M 215.064,739.97 215.064,730.794 z" id="boundary" inkscape:connector-curvature="0" />
	<path style="fill:none;stroke:red;stroke-width:1px;stroke-linecap:butt;stroke-linejoin:miter;stroke-opacity:1" d="M 215.064,739.97 215.064,749.147 z" id="boundary" inkscape:connector-curvature="0" />
	<path style="fill:none;stroke:red;stroke-width:1px;stroke-linecap:butt;stroke-linejoin:miter;stroke-opacity:1" d="M 215.064,758.324 215.064,749.147 z" id="boundary" inkscape:connector-curvature="0" />
	<path style="fill:none;stroke:red;stroke-width:1px;stroke-linecap:butt;stroke-linejoin:miter;stroke-opacity:1" d="M 215.064,758.324 215.064,767.5 z" id="boundary" inkscape:connector-curvature="0" />
	<path style="fill:none;stroke:red;stroke-width:1px;stroke-linecap:butt;stroke-linejoin:miter;stroke-opacity:1" d="M 215.064,776.677 215.064,767.5 z" id="boundary" inkscape:connector-curvature="0" />
	<path style="fill:none;stroke:red;stroke-width:1px;stroke-linecap:butt;stroke-linejoin:miter;stroke-opacity:1" d="M 215.064,785.854 215.064,776.677 z" id="boundary" inkscape:connector-curvature="0" />
	<path style="fill:none;stroke:red;stroke-width:1px;stroke-linecap:butt;stroke-linejoin:miter;stroke-opacity:1" d="M 215.064,785.854 215.064,795.031 z" id="boundary" inkscape:connector-curvature="0" />
	<path style="fill:none;stroke:red;stroke-width:1px;stroke-linecap:butt;stroke-linejoin:miter;stroke-opacity:1" d="M 215.064,804.207 215.064,795.031 z" id="boundary" inkscape:connector-curvature="0" />
	<path style="fill:none;stroke:red;stroke-width:1px;stroke-linecap:butt;stroke-linejoin:miter;stroke-opacity:1" d="M 215.064,804.207 215.064,813.384 z" id="boundary" inkscape:connector-curvature="0" />
	<path style="fill:none;stroke:red;stroke-width:1px;stroke-linecap:butt;stroke-linejoin:miter;stroke-opacity:1" d="M 215.064,822.561 215.064,813.384 z" id="boundary" inkscape:connector-curvature="0" />
	<path style="fill:none;stroke:red;stroke-width:1px;stroke-linecap:butt;stroke-linejoin:miter;stroke-opacity:1" d="M 215.064,831.737 215.064,822.561 z" id="boundary" inkscape:connector-curvature="0" />
	<path style="fill:none;stroke:red;stroke-width:1px;stroke-linecap:butt;stroke-linejoin:miter;stroke-opacity:1" d="M 215.064,831.737 215.064,840.914 z" id="boundary" inkscape:connector-curvature="0" />
	<path style="fill:none;stroke:red;stroke-width:1px;stroke-linecap:butt;stroke-linejoin:miter;stroke-opacity:1" d="M 215.064,850.091 215.064,840.914 z" id="boundary" inkscape:connector-curvature="0" />
	<path style="fill:none;stroke:red;stroke-width:1px;stroke-linecap:butt;stroke-linejoin:miter;stroke-opacity:1" d="M 215.064,850.091 215.064,859.267 z" id="boundary" inkscape:connector-curvature="0" />
	<path style="fill:none;stroke:red;stroke-width:1px;stroke-linecap:butt;stroke-linejoin:miter;stroke-opacity:1" d="M 215.064,868.444 215.064,859.267 z" id="boundary" inkscape:connector-curvature="0" />
	<path style="fill:none;stroke:red;stroke-width:1px;stroke-linecap:butt;stroke-linejoin:miter;stroke-opacity:1" d="M 215.064,877.621 215.064,868.444 z" id="boundary" inkscape:connector-curvature="0" />
	<path style="fill:none;stroke:red;stroke-width:1px;stroke-linecap:butt;stroke-linejoin:miter;stroke-opacity:1" d="M 215.064,877.621 215.064,886.797 z" id="boundary" inkscape:connector-curvature="0" />
	<path style="fill:none;stroke:red;stroke-width:1px;stroke-linecap:butt;stroke-linejoin:miter;stroke-opacity:1" d="M 215.064,895.974 215.064,886.797 z" id="boundary" inkscape:connector-curvature="0" />
	<path style="fill:none;stroke:red;stroke-width:1px;stroke-linecap:butt;stroke-linejoin:miter;stroke-opacity:1" d="M 215.064,895.974 215.064,905.151 z" id="boundary" inkscape:connector-curvature="0" />
	<path style="fill:none;stroke:red;stroke-width:1px;stroke-linecap:butt;stroke-linejoin:miter;stroke-opacity:1" d="M 215.064,914.327 215.064,905.151 z" id="boundary" inkscape:connector-curvature="0" />
	<path style="fill:none;stroke:red;stroke-width:1px;stroke-linecap:butt;stroke-linejoin:miter;stroke-opacity:1" d="M 215.064,914.327 215.064,923.504 z" id="boundary" inkscape:connector-curvature="0" />
	<path style="fill:none;stroke:red;stroke-width:1px;stroke-linecap:butt;stroke-linejoin:miter;stroke-opacity:1" d="M 215.064,932.681 215.064,923.504 z" id="boundary" inkscape:connector-curvature="0" />
	<path style="fill:none;stroke:red;stroke-width:1px;stroke-linecap:butt;stroke-linejoin:miter;stroke-opacity:1" d="M 215.064,932.681 215.064,941.858 z" id="boundary" inkscape:connector-curvature="0" />
	<path style="fill:none;stroke:red;stroke-width:1px;stroke-linecap:butt;stroke-linejoin:miter;stroke-opacity:1" d="M 274.712,996 265.536,996 z" id="boundary" inkscape:connector-curvature="0" />
	<path style="fill:none;stroke:red;stroke-width:1px;stroke-linecap:butt;stroke-linejoin:miter;stroke-opacity:1" d="M 215.064,951.034 215.064,941.858 z" id="boundary" inkscape:connector-curvature="0" />
	<path style="fill:none;stroke:red;stroke-width:1px;stroke-linecap:butt;stroke-linejoin:miter;stroke-opacity:1" d="M 215.064,960.211 215.064,969.388 z" id="boundary" inkscape:connector-curvature="0" />
	<path style="fill:none;stroke:red;stroke-width:1px;stroke-linecap:butt;stroke-linejoin:miter;stroke-opacity:1" d="M 215.064,978.564 215.064,969.388 z" id="boundary" inkscape:connector-curvature="0" />
	<path style="fill:none;stroke:red;stroke-width:1px;stroke-linecap:butt;stroke-linejoin:miter;stroke-opacity:1" d="M 228.829,996 219.652,996 z" id="boundary" inkscape:connector-curvature="0" />
	<path style="fill:none;stroke:red;stroke-width:1px;stroke-linecap:butt;stroke-linejoin:miter;stroke-opacity:1" d="M 219.652,996 215.064,987.741 z" id="boundary" inkscape:connector-curvature="0" />
	<path style="fill:none;stroke:red;stroke-width:1px;stroke-linecap:butt;stroke-linejoin:miter;stroke-opacity:1" d="M 215.064,987.741 215.064,978.564 z" id="boundary" inkscape:connector-curvature="0" />
	<path style="fill:none;stroke:red;stroke-width:1px;stroke-linecap:butt;stroke-linejoin:miter;stroke-opacity:1" d="M 238.006,996 228.829,996 z" id="boundary" inkscape:connector-curvature="0" />
	<path style="fill:none;stroke:red;stroke-width:1px;stroke-linecap:butt;stroke-linejoin:miter;stroke-opacity:1" d="M 256.359,996 247.182,996 z" id="boundary" inkscape:connector-curvature="0" />
	<path style="fill:none;stroke:red;stroke-width:1px;stroke-linecap:butt;stroke-linejoin:miter;stroke-opacity:1" d="M 215.064,960.211 215.064,951.034 z" id="boundary" inkscape:connector-curvature="0" />
	<path style="fill:none;stroke:red;stroke-width:1px;stroke-linecap:butt;stroke-linejoin:miter;stroke-opacity:1" d="M 247.182,996 238.006,996 z" id="boundary" inkscape:connector-curvature="0" />
	<path style="fill:none;stroke:red;stroke-width:1px;stroke-linecap:butt;stroke-linejoin:miter;stroke-opacity:1" d="M 265.536,996 256.359,996 z" id="boundary" inkscape:connector-curvature="0" />
	<path style="fill:none;stroke:red;stroke-width:1px;stroke-linecap:butt;stroke-linejoin:miter;stroke-opacity:1" d="M 281.136,22.3534 290.313,22.3534 z" id="boundary" inkscape:connector-curvature="0" />
	<path style="fill:none;stroke:red;stroke-width:1px;stroke-linecap:butt;stroke-linejoin:miter;stroke-opacity:1" d="M 299.489,22.3534 308.666,22.3534 z" id="boundary" inkscape:connector-curvature="0" />
	<path style="fill:none;stroke:red;stroke-width:1px;stroke-linecap:butt;stroke-linejoin:miter;stroke-opacity:1" d="M 299.489,22.3534 290.313,22.3534 z" id="boundary" inkscape:connector-curvature="0" />
	<path style="fill:none;stroke:red;stroke-width:1px;stroke-linecap:butt;stroke-linejoin:miter;stroke-opacity:1" d="M 326.102,206.805 326.102,215.981 z" id="boundary" inkscape:connector-curvature="0" />
	<path style="fill:none;stroke:red;stroke-width:1px;stroke-linecap:butt;stroke-linejoin:miter;stroke-opacity:1" d="M 317.843,22.3534 327.019,22.3534 z" id="boundary" inkscape:connector-curvature="0" />
	<path style="fill:none;stroke:red;stroke-width:1px;stroke-linecap:butt;stroke-linejoin:miter;stroke-opacity:1" d="M 326.102,206.805 335.278,206.805 z" id="boundary" inkscape:connector-curvature="0" />
	<path style="fill:none;stroke:red;stroke-width:1px;stroke-linecap:butt;stroke-linejoin:miter;stroke-opacity:1" d="M 327.019,22.3534 336.196,22.3534 z" id="boundary" inkscape:connector-curvature="0" />
	<path style="fill:none;stroke:red;stroke-width:1px;stroke-linecap:butt;stroke-linejoin:miter;stroke-opacity:1" d="M 308.666,22.3534 317.843,22.3534 z" id="boundary" inkscape:connector-curvature="0" />
	<path style="fill:none;stroke:red;stroke-width:1px;stroke-linecap:butt;stroke-linejoin:miter;stroke-opacity:1" d="M 326.102,215.981 326.102,225.158 z" id="boundary" inkscape:connector-curvature="0" />
	<path style="fill:none;stroke:red;stroke-width:1px;stroke-linecap:butt;stroke-linejoin:miter;stroke-opacity:1" d="M 357.302,4 366.479,4 z" id="boundary" inkscape:connector-curvature="0" />
	<path style="fill:none;stroke:red;stroke-width:1px;stroke-linecap:butt;stroke-linejoin:miter;stroke-opacity:1" d="M 375.656,4 384.833,4 z" id="boundary" inkscape:connector-curvature="0" />
	<path style="fill:none;stroke:red;stroke-width:1px;stroke-linecap:butt;stroke-linejoin:miter;stroke-opacity:1" d="M 384.833,4 394.009,4 z" id="boundary" inkscape:connector-curvature="0" />
	<path style="fill:none;stroke:red;stroke-width:1px;stroke-linecap:butt;stroke-linejoin:miter;stroke-opacity:1" d="M 366.479,4 375.656,4 z" id="boundary" inkscape:connector-curvature="0" />
	<path style="fill:none;stroke:red;stroke-width:1px;stroke-linecap:butt;stroke-linejoin:miter;stroke-opacity:1" d="M 344.455,206.805 335.278,206.805 z" id="boundary" inkscape:connector-curvature="0" />
	<path style="fill:none;stroke:red;stroke-width:1px;stroke-linecap:butt;stroke-linejoin:miter;stroke-opacity:1" d="M 336.196,22.3534 345.373,22.3534 z" id="boundary" inkscape:connector-curvature="0" />
	<path style="fill:none;stroke:red;stroke-width:1px;stroke-linecap:butt;stroke-linejoin:miter;stroke-opacity:1" d="M 348.126,6.75301 357.302,4 z" id="boundary" inkscape:connector-curvature="0" />
	<path style="fill:none;stroke:red;stroke-width:1px;stroke-linecap:butt;stroke-linejoin:miter;stroke-opacity:1" d="M 348.126,215.981 344.455,206.805 z" id="boundary" inkscape:connector-curvature="0" />
	<path style="fill:none;stroke:red;stroke-width:1px;stroke-linecap:butt;stroke-linejoin:miter;stroke-opacity:1" d="M 281.136,22.3534 271.959,22.3534 z" id="boundary" inkscape:connector-curvature="0" />
	<path style="fill:none;stroke:red;stroke-width:1px;stroke-linecap:butt;stroke-linejoin:miter;stroke-opacity:1" d="M 326.102,225.158 326.102,234.335 z" id="boundary" inkscape:connector-curvature="0" />
	<path style="fill:none;stroke:red;stroke-width:1px;stroke-linecap:butt;stroke-linejoin:miter;stroke-opacity:1" d="M 326.102,243.512 326.102,252.688 z" id="boundary" inkscape:connector-curvature="0" />
	<path style="fill:none;stroke:red;stroke-width:1px;stroke-linecap:butt;stroke-linejoin:miter;stroke-opacity:1" d="M 326.102,243.512 326.102,234.335 z" id="boundary" inkscape:connector-curvature="0" />
	<path style="fill:none;stroke:red;stroke-width:1px;stroke-linecap:butt;stroke-linejoin:miter;stroke-opacity:1" d="M 326.102,261.865 326.102,271.042 z" id="boundary" inkscape:connector-curvature="0" />
	<path style="fill:none;stroke:red;stroke-width:1px;stroke-linecap:butt;stroke-linejoin:miter;stroke-opacity:1" d="M 326.102,280.218 326.102,289.395 z" id="boundary" inkscape:connector-curvature="0" />
	<path style="fill:none;stroke:red;stroke-width:1px;stroke-linecap:butt;stroke-linejoin:miter;stroke-opacity:1" d="M 326.102,298.572 326.102,289.395 z" id="boundary" inkscape:connector-curvature="0" />
	<path style="fill:none;stroke:red;stroke-width:1px;stroke-linecap:butt;stroke-linejoin:miter;stroke-opacity:1" d="M 326.102,280.218 326.102,271.042 z" id="boundary" inkscape:connector-curvature="0" />
	<path style="fill:none;stroke:red;stroke-width:1px;stroke-linecap:butt;stroke-linejoin:miter;stroke-opacity:1" d="M 326.102,261.865 326.102,252.688 z" id="boundary" inkscape:connector-curvature="0" />
	<path style="fill:none;stroke:red;stroke-width:1px;stroke-linecap:butt;stroke-linejoin:miter;stroke-opacity:1" d="M 360.056,225.158 369.232,225.158 z" id="boundary" inkscape:connector-curvature="0" />
	<path style="fill:none;stroke:red;stroke-width:1px;stroke-linecap:butt;stroke-linejoin:miter;stroke-opacity:1" d="M 360.056,225.158 350.879,225.158 z" id="boundary" inkscape:connector-curvature="0" />
	<path style="fill:none;stroke:red;stroke-width:1px;stroke-linecap:butt;stroke-linejoin:miter;stroke-opacity:1" d="M 350.879,225.158 348.126,215.981 z" id="boundary" inkscape:connector-curvature="0" />
	<path style="fill:none;stroke:red;stroke-width:1px;stroke-linecap:butt;stroke-linejoin:miter;stroke-opacity:1" d="M 378.409,225.158 387.586,225.158 z" id="boundary" inkscape:connector-curvature="0" />
	<path style="fill:none;stroke:red;stroke-width:1px;stroke-linecap:butt;stroke-linejoin:miter;stroke-opacity:1" d="M 378.409,225.158 369.232,225.158 z" id="boundary" inkscape:connector-curvature="0" />
	<path style="fill:none;stroke:red;stroke-width:1px;stroke-linecap:butt;stroke-linejoin:miter;stroke-opacity:1" d="M 387.586,225.158 396.762,225.158 z" id="boundary" inkscape:connector-curvature="0" />
	<path style="fill:none;stroke:red;stroke-width:1px;stroke-linecap:butt;stroke-linejoin:miter;stroke-opacity:1" d="M 326.102,307.748 326.102,316.925 z" id="boundary" inkscape:connector-curvature="0" />
	<path style="fill:none;stroke:red;stroke-width:1px;stroke-linecap:butt;stroke-linejoin:miter;stroke-opacity:1" d="M 326.102,335.278 326.102,326.102 z" id="boundary" inkscape:connector-curvature="0" />
	<path style="fill:none;stroke:red;stroke-width:1px;stroke-linecap:butt;stroke-linejoin:miter;stroke-opacity:1" d="M 326.102,326.102 326.102,316.925 z" id="boundary" inkscape:connector-curvature="0" />
	<path style="fill:none;stroke:red;stroke-width:1px;stroke-linecap:butt;stroke-linejoin:miter;stroke-opacity:1" d="M 396.762,225.158 405.939,225.158 z" id="boundary" inkscape:connector-curvature="0" />
	<path style="fill:none;stroke:red;stroke-width:1px;stroke-linecap:butt;stroke-linejoin:miter;stroke-opacity:1" d="M 326.102,307.748 326.102,298.572 z" id="boundary" inkscape:connector-curvature="0" />
	<path style="fill:none;stroke:red;stroke-width:1px;stroke-linecap:butt;stroke-linejoin:miter;stroke-opacity:1" d="M 326.102,335.278 326.102,344.455 z" id="boundary" inkscape:connector-curvature="0" />
	<path style="fill:none;stroke:red;stroke-width:1px;stroke-linecap:butt;stroke-linejoin:miter;stroke-opacity:1" d="M 403.186,4 412.363,4 z" id="boundary" inkscape:connector-curvature="0" />
	<path style="fill:none;stroke:red;stroke-width:1px;stroke-linecap:butt;stroke-linejoin:miter;stroke-opacity:1" d="M 421.539,4 430.716,4 z" id="boundary" inkscape:connector-curvature="0" />
	<path style="fill:none;stroke:red;stroke-width:1px;stroke-linecap:butt;stroke-linejoin:miter;stroke-opacity:1" d="M 412.363,4 421.539,4 z" id="boundary" inkscape:connector-curvature="0" />
	<path style="fill:none;stroke:red;stroke-width:1px;stroke-linecap:butt;stroke-linejoin:miter;stroke-opacity:1" d="M 439.893,4 449.069,4 z" id="boundary" inkscape:connector-curvature="0" />
	<path style="fill:none;stroke:red;stroke-width:1px;stroke-linecap:butt;stroke-linejoin:miter;stroke-opacity:1" d="M 458.246,4 467.423,5.83534 z" id="boundary" inkscape:connector-curvature="0" />
	<path style="fill:none;stroke:red;stroke-width:1px;stroke-linecap:butt;stroke-linejoin:miter;stroke-opacity:1" d="M 467.423,5.83534 468.34,15.012 z" id="boundary" inkscape:connector-curvature="0" />
	<path style="fill:none;stroke:red;stroke-width:1px;stroke-linecap:butt;stroke-linejoin:miter;stroke-opacity:1" d="M 449.069,4 458.246,4 z" id="boundary" inkscape:connector-curvature="0" />
	<path style="fill:none;stroke:red;stroke-width:1px;stroke-linecap:butt;stroke-linejoin:miter;stroke-opacity:1" d="M 430.716,4 439.893,4 z" id="boundary" inkscape:connector-curvature="0" />
	<path style="fill:none;stroke:red;stroke-width:1px;stroke-linecap:butt;stroke-linejoin:miter;stroke-opacity:1" d="M 468.34,15.012 468.34,24.1887 z" id="boundary" inkscape:connector-curvature="0" />
	<path style="fill:none;stroke:red;stroke-width:1px;stroke-linecap:butt;stroke-linejoin:miter;stroke-opacity:1" d="M 468.34,24.1887 468.34,33.3654 z" id="boundary" inkscape:connector-curvature="0" />
	<path style="fill:none;stroke:red;stroke-width:1px;stroke-linecap:butt;stroke-linejoin:miter;stroke-opacity:1" d="M 468.34,42.5421 468.34,51.7188 z" id="boundary" inkscape:connector-curvature="0" />
	<path style="fill:none;stroke:red;stroke-width:1px;stroke-linecap:butt;stroke-linejoin:miter;stroke-opacity:1" d="M 468.34,51.7188 468.34,60.8955 z" id="boundary" inkscape:connector-curvature="0" />
	<path style="fill:none;stroke:red;stroke-width:1px;stroke-linecap:butt;stroke-linejoin:miter;stroke-opacity:1" d="M 468.34,33.3654 468.34,42.5421 z" id="boundary" inkscape:connector-curvature="0" />
	<path style="fill:none;stroke:red;stroke-width:1px;stroke-linecap:butt;stroke-linejoin:miter;stroke-opacity:1" d="M 468.34,70.0722 468.34,79.2488 z" id="boundary" inkscape:connector-curvature="0" />
	<path style="fill:none;stroke:red;stroke-width:1px;stroke-linecap:butt;stroke-linejoin:miter;stroke-opacity:1" d="M 468.34,88.4255 468.34,97.6022 z" id="boundary" inkscape:connector-curvature="0" />
	<path style="fill:none;stroke:red;stroke-width:1px;stroke-linecap:butt;stroke-linejoin:miter;stroke-opacity:1" d="M 468.34,97.6022 468.34,106.779 z" id="boundary" inkscape:connector-curvature="0" />
	<path style="fill:none;stroke:red;stroke-width:1px;stroke-linecap:butt;stroke-linejoin:miter;stroke-opacity:1" d="M 468.34,79.2488 468.34,88.4255 z" id="boundary" inkscape:connector-curvature="0" />
	<path style="fill:none;stroke:red;stroke-width:1px;stroke-linecap:butt;stroke-linejoin:miter;stroke-opacity:1" d="M 468.34,60.8955 468.34,70.0722 z" id="boundary" inkscape:connector-curvature="0" />
	<path style="fill:none;stroke:red;stroke-width:1px;stroke-linecap:butt;stroke-linejoin:miter;stroke-opacity:1" d="M 468.34,106.779 468.34,115.956 z" id="boundary" inkscape:connector-curvature="0" />
	<path style="fill:none;stroke:red;stroke-width:1px;stroke-linecap:butt;stroke-linejoin:miter;stroke-opacity:1" d="M 405.939,225.158 415.116,225.158 z" id="boundary" inkscape:connector-curvature="0" />
	<path style="fill:none;stroke:red;stroke-width:1px;stroke-linecap:butt;stroke-linejoin:miter;stroke-opacity:1" d="M 468.34,125.132 468.34,134.309 z" id="boundary" inkscape:connector-curvature="0" />
	<path style="fill:none;stroke:red;stroke-width:1px;stroke-linecap:butt;stroke-linejoin:miter;stroke-opacity:1" d="M 468.34,115.956 468.34,125.132 z" id="boundary" inkscape:connector-curvature="0" />
	<path style="fill:none;stroke:red;stroke-width:1px;stroke-linecap:butt;stroke-linejoin:miter;stroke-opacity:1" d="M 424.292,225.158 415.116,225.158 z" id="boundary" inkscape:connector-curvature="0" />
	<path style="fill:none;stroke:red;stroke-width:1px;stroke-linecap:butt;stroke-linejoin:miter;stroke-opacity:1" d="M 424.292,225.158 433.469,225.158 z" id="boundary" inkscape:connector-curvature="0" />
	<path style="fill:none;stroke:red;stroke-width:1px;stroke-linecap:butt;stroke-linejoin:miter;stroke-opacity:1" d="M 451.822,225.158 442.646,225.158 z" id="boundary" inkscape:connector-curvature="0" />
	<path style="fill:none;stroke:red;stroke-width:1px;stroke-linecap:butt;stroke-linejoin:miter;stroke-opacity:1" d="M 468.34,216.899 460.999,225.158 z" id="boundary" inkscape:connector-curvature="0" />
	<path style="fill:none;stroke:red;stroke-width:1px;stroke-linecap:butt;stroke-linejoin:miter;stroke-opacity:1" d="M 460.999,225.158 451.822,225.158 z" id="boundary" inkscape:connector-curvature="0" />
	<path style="fill:none;stroke:red;stroke-width:1px;stroke-linecap:butt;stroke-linejoin:miter;stroke-opacity:1" d="M 442.646,225.158 433.469,225.158 z" id="boundary" inkscape:connector-curvature="0" />
	<path style="fill:none;stroke:red;stroke-width:1px;stroke-linecap:butt;stroke-linejoin:miter;stroke-opacity:1" d="M 468.34,134.309 468.34,143.486 z" id="boundary" inkscape:connector-curvature="0" />
	<path style="fill:none;stroke:red;stroke-width:1px;stroke-linecap:butt;stroke-linejoin:miter;stroke-opacity:1" d="M 468.34,143.486 468.34,152.662 z" id="boundary" inkscape:connector-curvature="0" />
	<path style="fill:none;stroke:red;stroke-width:1px;stroke-linecap:butt;stroke-linejoin:miter;stroke-opacity:1" d="M 468.34,161.839 468.34,171.016 z" id="boundary" inkscape:connector-curvature="0" />
	<path style="fill:none;stroke:red;stroke-width:1px;stroke-linecap:butt;stroke-linejoin:miter;stroke-opacity:1" d="M 468.34,152.662 468.34,161.839 z" id="boundary" inkscape:connector-curvature="0" />
	<path style="fill:none;stroke:red;stroke-width:1px;stroke-linecap:butt;stroke-linejoin:miter;stroke-opacity:1" d="M 468.34,180.192 468.34,189.369 z" id="boundary" inkscape:connector-curvature="0" />
	<path style="fill:none;stroke:red;stroke-width:1px;stroke-linecap:butt;stroke-linejoin:miter;stroke-opacity:1" d="M 468.34,198.546 468.34,207.722 z" id="boundary" inkscape:connector-curvature="0" />
	<path style="fill:none;stroke:red;stroke-width:1px;stroke-linecap:butt;stroke-linejoin:miter;stroke-opacity:1" d="M 468.34,207.722 468.34,216.899 z" id="boundary" inkscape:connector-curvature="0" />
	<path style="fill:none;stroke:red;stroke-width:1px;stroke-linecap:butt;stroke-linejoin:miter;stroke-opacity:1" d="M 468.34,189.369 468.34,198.546 z" id="boundary" inkscape:connector-curvature="0" />
	<path style="fill:none;stroke:red;stroke-width:1px;stroke-linecap:butt;stroke-linejoin:miter;stroke-opacity:1" d="M 468.34,171.016 468.34,180.192 z" id="boundary" inkscape:connector-curvature="0" />
	<path style="fill:none;stroke:red;stroke-width:1px;stroke-linecap:butt;stroke-linejoin:miter;stroke-opacity:1" d="M 394.009,4 403.186,4 z" id="boundary" inkscape:connector-curvature="0" />
	<path style="fill:none;stroke:red;stroke-width:1px;stroke-linecap:butt;stroke-linejoin:miter;stroke-opacity:1" d="M 326.102,353.632 326.102,362.809 z" id="boundary" inkscape:connector-curvature="0" />
	<path style="fill:none;stroke:red;stroke-width:1px;stroke-linecap:butt;stroke-linejoin:miter;stroke-opacity:1" d="M 326.102,353.632 326.102,344.455 z" id="boundary" inkscape:connector-curvature="0" />
	<path style="fill:none;stroke:red;stroke-width:1px;stroke-linecap:butt;stroke-linejoin:miter;stroke-opacity:1" d="M 326.102,371.985 326.102,381.162 z" id="boundary" inkscape:connector-curvature="0" />
	<path style="fill:none;stroke:red;stroke-width:1px;stroke-linecap:butt;stroke-linejoin:miter;stroke-opacity:1" d="M 326.102,371.985 326.102,362.809 z" id="boundary" inkscape:connector-curvature="0" />
	<path style="fill:none;stroke:red;stroke-width:1px;stroke-linecap:butt;stroke-linejoin:miter;stroke-opacity:1" d="M 326.102,390.339 326.102,399.515 z" id="boundary" inkscape:connector-curvature="0" />
	<path style="fill:none;stroke:red;stroke-width:1px;stroke-linecap:butt;stroke-linejoin:miter;stroke-opacity:1" d="M 326.102,390.339 326.102,381.162 z" id="boundary" inkscape:connector-curvature="0" />
	<path style="fill:none;stroke:red;stroke-width:1px;stroke-linecap:butt;stroke-linejoin:miter;stroke-opacity:1" d="M 326.102,408.692 326.102,417.869 z" id="boundary" inkscape:connector-curvature="0" />
	<path style="fill:none;stroke:red;stroke-width:1px;stroke-linecap:butt;stroke-linejoin:miter;stroke-opacity:1" d="M 326.102,408.692 326.102,399.515 z" id="boundary" inkscape:connector-curvature="0" />
	<path style="fill:none;stroke:red;stroke-width:1px;stroke-linecap:butt;stroke-linejoin:miter;stroke-opacity:1" d="M 326.102,417.869 326.102,427.045 z" id="boundary" inkscape:connector-curvature="0" />
	<path style="fill:none;stroke:red;stroke-width:1px;stroke-linecap:butt;stroke-linejoin:miter;stroke-opacity:1" d="M 326.102,436.222 326.102,445.399 z" id="boundary" inkscape:connector-curvature="0" />
	<path style="fill:none;stroke:red;stroke-width:1px;stroke-linecap:butt;stroke-linejoin:miter;stroke-opacity:1" d="M 326.102,436.222 326.102,427.045 z" id="boundary" inkscape:connector-curvature="0" />
	<path style="fill:none;stroke:red;stroke-width:1px;stroke-linecap:butt;stroke-linejoin:miter;stroke-opacity:1" d="M 326.102,454.575 326.102,463.752 z" id="boundary" inkscape:connector-curvature="0" />
	<path style="fill:none;stroke:red;stroke-width:1px;stroke-linecap:butt;stroke-linejoin:miter;stroke-opacity:1" d="M 326.102,454.575 326.102,445.399 z" id="boundary" inkscape:connector-curvature="0" />
	<path style="fill:none;stroke:red;stroke-width:1px;stroke-linecap:butt;stroke-linejoin:miter;stroke-opacity:1" d="M 326.102,463.752 326.102,472.929 z" id="boundary" inkscape:connector-curvature="0" />
	<path style="fill:none;stroke:red;stroke-width:1px;stroke-linecap:butt;stroke-linejoin:miter;stroke-opacity:1" d="M 326.102,482.105 326.102,491.282 z" id="boundary" inkscape:connector-curvature="0" />
	<path style="fill:none;stroke:red;stroke-width:1px;stroke-linecap:butt;stroke-linejoin:miter;stroke-opacity:1" d="M 326.102,482.105 326.102,472.929 z" id="boundary" inkscape:connector-curvature="0" />
	<path style="fill:none;stroke:red;stroke-width:1px;stroke-linecap:butt;stroke-linejoin:miter;stroke-opacity:1" d="M 326.102,500.459 326.102,509.636 z" id="boundary" inkscape:connector-curvature="0" />
	<path style="fill:none;stroke:red;stroke-width:1px;stroke-linecap:butt;stroke-linejoin:miter;stroke-opacity:1" d="M 326.102,500.459 326.102,491.282 z" id="boundary" inkscape:connector-curvature="0" />
	<path style="fill:none;stroke:red;stroke-width:1px;stroke-linecap:butt;stroke-linejoin:miter;stroke-opacity:1" d="M 326.102,509.636 326.102,518.812 z" id="boundary" inkscape:connector-curvature="0" />
	<path style="fill:none;stroke:red;stroke-width:1px;stroke-linecap:butt;stroke-linejoin:miter;stroke-opacity:1" d="M 326.102,527.989 326.102,537.166 z" id="boundary" inkscape:connector-curvature="0" />
	<path style="fill:none;stroke:red;stroke-width:1px;stroke-linecap:butt;stroke-linejoin:miter;stroke-opacity:1" d="M 326.102,518.812 326.102,527.989 z" id="boundary" inkscape:connector-curvature="0" />
	<path style="fill:none;stroke:red;stroke-width:1px;stroke-linecap:butt;stroke-linejoin:miter;stroke-opacity:1" d="M 326.102,537.166 326.102,546.342 z" id="boundary" inkscape:connector-curvature="0" />
	<path style="fill:none;stroke:red;stroke-width:1px;stroke-linecap:butt;stroke-linejoin:miter;stroke-opacity:1" d="M 283.889,996 274.712,996 z" id="boundary" inkscape:connector-curvature="0" />
	<path style="fill:none;stroke:red;stroke-width:1px;stroke-linecap:butt;stroke-linejoin:miter;stroke-opacity:1" d="M 293.066,996 283.889,996 z" id="boundary" inkscape:connector-curvature="0" />
	<path style="fill:none;stroke:red;stroke-width:1px;stroke-linecap:butt;stroke-linejoin:miter;stroke-opacity:1" d="M 311.419,996 302.242,996 z" id="boundary" inkscape:connector-curvature="0" />
	<path style="fill:none;stroke:red;stroke-width:1px;stroke-linecap:butt;stroke-linejoin:miter;stroke-opacity:1" d="M 326.102,986.823 320.596,996 z" id="boundary" inkscape:connector-curvature="0" />
	<path style="fill:none;stroke:red;stroke-width:1px;stroke-linecap:butt;stroke-linejoin:miter;stroke-opacity:1" d="M 320.596,996 311.419,996 z" id="boundary" inkscape:connector-curvature="0" />
	<path style="fill:none;stroke:red;stroke-width:1px;stroke-linecap:butt;stroke-linejoin:miter;stroke-opacity:1" d="M 302.242,996 293.066,996 z" id="boundary" inkscape:connector-curvature="0" />
	<path style="fill:none;stroke:red;stroke-width:1px;stroke-linecap:butt;stroke-linejoin:miter;stroke-opacity:1" d="M 326.102,546.342 326.102,555.519 z" id="boundary" inkscape:connector-curvature="0" />
	<path style="fill:none;stroke:red;stroke-width:1px;stroke-linecap:butt;stroke-linejoin:miter;stroke-opacity:1" d="M 326.102,555.519 326.102,564.696 z" id="boundary" inkscape:connector-curvature="0" />
	<path style="fill:none;stroke:red;stroke-width:1px;stroke-linecap:butt;stroke-linejoin:miter;stroke-opacity:1" d="M 326.102,573.872 326.102,583.049 z" id="boundary" inkscape:connector-curvature="0" />
	<path style="fill:none;stroke:red;stroke-width:1px;stroke-linecap:butt;stroke-linejoin:miter;stroke-opacity:1" d="M 326.102,573.872 326.102,564.696 z" id="boundary" inkscape:connector-curvature="0" />
	<path style="fill:none;stroke:red;stroke-width:1px;stroke-linecap:butt;stroke-linejoin:miter;stroke-opacity:1" d="M 326.102,583.049 326.102,592.226 z" id="boundary" inkscape:connector-curvature="0" />
	<path style="fill:none;stroke:red;stroke-width:1px;stroke-linecap:butt;stroke-linejoin:miter;stroke-opacity:1" d="M 326.102,601.402 326.102,610.579 z" id="boundary" inkscape:connector-curvature="0" />
	<path style="fill:none;stroke:red;stroke-width:1px;stroke-linecap:butt;stroke-linejoin:miter;stroke-opacity:1" d="M 326.102,601.402 326.102,592.226 z" id="boundary" inkscape:connector-curvature="0" />
	<path style="fill:none;stroke:red;stroke-width:1px;stroke-linecap:butt;stroke-linejoin:miter;stroke-opacity:1" d="M 326.102,619.756 326.102,628.932 z" id="boundary" inkscape:connector-curvature="0" />
	<path style="fill:none;stroke:red;stroke-width:1px;stroke-linecap:butt;stroke-linejoin:miter;stroke-opacity:1" d="M 326.102,619.756 326.102,610.579 z" id="boundary" inkscape:connector-curvature="0" />
	<path style="fill:none;stroke:red;stroke-width:1px;stroke-linecap:butt;stroke-linejoin:miter;stroke-opacity:1" d="M 326.102,628.932 326.102,638.109 z" id="boundary" inkscape:connector-curvature="0" />
	<path style="fill:none;stroke:red;stroke-width:1px;stroke-linecap:butt;stroke-linejoin:miter;stroke-opacity:1" d="M 326.102,638.109 326.102,647.286 z" id="boundary" inkscape:connector-curvature="0" />
	<path style="fill:none;stroke:red;stroke-width:1px;stroke-linecap:butt;stroke-linejoin:miter;stroke-opacity:1" d="M 326.102,647.286 326.102,656.463 z" id="boundary" inkscape:connector-curvature="0" />
	<path style="fill:none;stroke:red;stroke-width:1px;stroke-linecap:butt;stroke-linejoin:miter;stroke-opacity:1" d="M 326.102,665.639 326.102,674.816 z" id="boundary" inkscape:connector-curvature="0" />
	<path style="fill:none;stroke:red;stroke-width:1px;stroke-linecap:butt;stroke-linejoin:miter;stroke-opacity:1" d="M 326.102,665.639 326.102,656.463 z" id="boundary" inkscape:connector-curvature="0" />
	<path style="fill:none;stroke:red;stroke-width:1px;stroke-linecap:butt;stroke-linejoin:miter;stroke-opacity:1" d="M 326.102,683.993 326.102,693.169 z" id="boundary" inkscape:connector-curvature="0" />
	<path style="fill:none;stroke:red;stroke-width:1px;stroke-linecap:butt;stroke-linejoin:miter;stroke-opacity:1" d="M 326.102,683.993 326.102,674.816 z" id="boundary" inkscape:connector-curvature="0" />
	<path style="fill:none;stroke:red;stroke-width:1px;stroke-linecap:butt;stroke-linejoin:miter;stroke-opacity:1" d="M 326.102,702.346 326.102,711.523 z" id="boundary" inkscape:connector-curvature="0" />
	<path style="fill:none;stroke:red;stroke-width:1px;stroke-linecap:butt;stroke-linejoin:miter;stroke-opacity:1" d="M 326.102,702.346 326.102,693.169 z" id="boundary" inkscape:connector-curvature="0" />
	<path style="fill:none;stroke:red;stroke-width:1px;stroke-linecap:butt;stroke-linejoin:miter;stroke-opacity:1" d="M 326.102,711.523 326.102,720.699 z" id="boundary" inkscape:connector-curvature="0" />
	<path style="fill:none;stroke:red;stroke-width:1px;stroke-linecap:butt;stroke-linejoin:miter;stroke-opacity:1" d="M 326.102,729.876 326.102,739.053 z" id="boundary" inkscape:connector-curvature="0" />
	<path style="fill:none;stroke:red;stroke-width:1px;stroke-linecap:butt;stroke-linejoin:miter;stroke-opacity:1" d="M 326.102,729.876 326.102,720.699 z" id="boundary" inkscape:connector-curvature="0" />
	<path style="fill:none;stroke:red;stroke-width:1px;stroke-linecap:butt;stroke-linejoin:miter;stroke-opacity:1" d="M 326.102,748.229 326.102,757.406 z" id="boundary" inkscape:connector-curvature="0" />
	<path style="fill:none;stroke:red;stroke-width:1px;stroke-linecap:butt;stroke-linejoin:miter;stroke-opacity:1" d="M 326.102,748.229 326.102,739.053 z" id="boundary" inkscape:connector-curvature="0" />
	<path style="fill:none;stroke:red;stroke-width:1px;stroke-linecap:butt;stroke-linejoin:miter;stroke-opacity:1" d="M 326.102,757.406 326.102,766.583 z" id="boundary" inkscape:connector-curvature="0" />
	<path style="fill:none;stroke:red;stroke-width:1px;stroke-linecap:butt;stroke-linejoin:miter;stroke-opacity:1" d="M 326.102,775.759 326.102,784.936 z" id="boundary" inkscape:connector-curvature="0" />
	<path style="fill:none;stroke:red;stroke-width:1px;stroke-linecap:butt;stroke-linejoin:miter;stroke-opacity:1" d="M 326.102,775.759 326.102,766.583 z" id="boundary" inkscape:connector-curvature="0" />
	<path style="fill:none;stroke:red;stroke-width:1px;stroke-linecap:butt;stroke-linejoin:miter;stroke-opacity:1" d="M 326.102,794.113 326.102,803.29 z" id="boundary" inkscape:connector-curvature="0" />
	<path style="fill:none;stroke:red;stroke-width:1px;stroke-linecap:butt;stroke-linejoin:miter;stroke-opacity:1" d="M 326.102,794.113 326.102,784.936 z" id="boundary" inkscape:connector-curvature="0" />
	<path style="fill:none;stroke:red;stroke-width:1px;stroke-linecap:butt;stroke-linejoin:miter;stroke-opacity:1" d="M 326.102,803.29 326.102,812.466 z" id="boundary" inkscape:connector-curvature="0" />
	<path style="fill:none;stroke:red;stroke-width:1px;stroke-linecap:butt;stroke-linejoin:miter;stroke-opacity:1" d="M 326.102,821.643 326.102,830.82 z" id="boundary" inkscape:connector-curvature="0" />
	<path style="fill:none;stroke:red;stroke-width:1px;stroke-linecap:butt;stroke-linejoin:miter;stroke-opacity:1" d="M 326.102,821.643 326.102,812.466 z" id="boundary" inkscape:connector-curvature="0" />
	<path style="fill:none;stroke:red;stroke-width:1px;stroke-linecap:butt;stroke-linejoin:miter;stroke-opacity:1" d="M 326.102,839.996 326.102,849.173 z" id="boundary" inkscape:connector-curvature="0" />
	<path style="fill:none;stroke:red;stroke-width:1px;stroke-linecap:butt;stroke-linejoin:miter;stroke-opacity:1" d="M 326.102,839.996 326.102,830.82 z" id="boundary" inkscape:connector-curvature="0" />
	<path style="fill:none;stroke:red;stroke-width:1px;stroke-linecap:butt;stroke-linejoin:miter;stroke-opacity:1" d="M 326.102,849.173 326.102,858.35 z" id="boundary" inkscape:connector-curvature="0" />
	<path style="fill:none;stroke:red;stroke-width:1px;stroke-linecap:butt;stroke-linejoin:miter;stroke-opacity:1" d="M 326.102,867.526 326.102,876.703 z" id="boundary" inkscape:connector-curvature="0" />
	<path style="fill:none;stroke:red;stroke-width:1px;stroke-linecap:butt;stroke-linejoin:miter;stroke-opacity:1" d="M 326.102,867.526 326.102,858.35 z" id="boundary" inkscape:connector-curvature="0" />
	<path style="fill:none;stroke:red;stroke-width:1px;stroke-linecap:butt;stroke-linejoin:miter;stroke-opacity:1" d="M 326.102,885.88 326.102,895.056 z" id="boundary" inkscape:connector-curvature="0" />
	<path style="fill:none;stroke:red;stroke-width:1px;stroke-linecap:butt;stroke-linejoin:miter;stroke-opacity:1" d="M 326.102,885.88 326.102,876.703 z" id="boundary" inkscape:connector-curvature="0" />
	<path style="fill:none;stroke:red;stroke-width:1px;stroke-linecap:butt;stroke-linejoin:miter;stroke-opacity:1" d="M 326.102,895.056 326.102,904.233 z" id="boundary" inkscape:connector-curvature="0" />
	<path style="fill:none;stroke:red;stroke-width:1px;stroke-linecap:butt;stroke-linejoin:miter;stroke-opacity:1" d="M 326.102,913.41 326.102,922.586 z" id="boundary" inkscape:connector-curvature="0" />
	<path style="fill:none;stroke:red;stroke-width:1px;stroke-linecap:butt;stroke-linejoin:miter;stroke-opacity:1" d="M 326.102,913.41 326.102,904.233 z" id="boundary" inkscape:connector-curvature="0" />
	<path style="fill:none;stroke:red;stroke-width:1px;stroke-linecap:butt;stroke-linejoin:miter;stroke-opacity:1" d="M 326.102,931.763 326.102,940.94 z" id="boundary" inkscape:connector-curvature="0" />
	<path style="fill:none;stroke:red;stroke-width:1px;stroke-linecap:butt;stroke-linejoin:miter;stroke-opacity:1" d="M 326.102,931.763 326.102,922.586 z" id="boundary" inkscape:connector-curvature="0" />
	<path style="fill:none;stroke:red;stroke-width:1px;stroke-linecap:butt;stroke-linejoin:miter;stroke-opacity:1" d="M 326.102,950.117 326.102,959.293 z" id="boundary" inkscape:connector-curvature="0" />
	<path style="fill:none;stroke:red;stroke-width:1px;stroke-linecap:butt;stroke-linejoin:miter;stroke-opacity:1" d="M 326.102,968.47 326.102,977.647 z" id="boundary" inkscape:connector-curvature="0" />
	<path style="fill:none;stroke:red;stroke-width:1px;stroke-linecap:butt;stroke-linejoin:miter;stroke-opacity:1" d="M 326.102,986.823 326.102,977.647 z" id="boundary" inkscape:connector-curvature="0" />
	<path style="fill:none;stroke:red;stroke-width:1px;stroke-linecap:butt;stroke-linejoin:miter;stroke-opacity:1" d="M 326.102,968.47 326.102,959.293 z" id="boundary" inkscape:connector-curvature="0" />
	<path style="fill:none;stroke:red;stroke-width:1px;stroke-linecap:butt;stroke-linejoin:miter;stroke-opacity:1" d="M 326.102,950.117 326.102,940.94 z" id="boundary" inkscape:connector-curvature="0" />
	<circle cx="4" cy="226.994" r="4" fill="#0" id="circle0"/>
	<circle cx="4" cy="236.17" r="4" fill="#0" id="circle1"/>
	<circle cx="8.58834" cy="213.228" r="4" fill="#0" id="circle2"/>
	<circle cx="13.1767" cy="199.463" r="4" fill="#0" id="circle3"/>
	<circle cx="13.1767" cy="238.923" r="4" fill="#0" id="circle4"/>
	<circle cx="17.765" cy="190.287" r="4" fill="#0" id="circle5"/>
	<circle cx="21.4357" cy="234.335" r="4" fill="#0" id="circle6"/>
	<circle cx="22.3534" cy="176.522" r="4" fill="#0" id="circle7"/>
	<circle cx="29.6947" cy="169.18" r="4" fill="#0" id="circle8"/>
	<circle cx="29.6947" cy="229.747" r="4" fill="#0" id="circle9"/>
	<circle cx="34.2831" cy="160.004" r="4" fill="#0" id="circle10"/>
	<circle cx="38.8714" cy="229.747" r="4" fill="#0" id="circle11"/>
	<circle cx="40.7068" cy="148.992" r="4" fill="#0" id="circle12"/>
	<circle cx="45.2951" cy="135.227" r="4" fill="#0" id="circle13"/>
	<circle cx="47.1304" cy="225.158" r="4" fill="#0" id="circle14"/>
	<circle cx="52.6364" cy="127.885" r="4" fill="#0" id="circle15"/>
	<circle cx="56.3071" cy="225.158" r="4" fill="#0" id="circle16"/>
	<circle cx="59.0601" cy="116.873" r="4" fill="#0" id="circle17"/>
	<circle cx="64.5661" cy="220.57" r="4" fill="#0" id="circle18"/>
	<circle cx="66.4015" cy="109.532" r="4" fill="#0" id="circle19"/>
	<circle cx="73.7428" cy="102.191" r="4" fill="#0" id="circle20"/>
	<circle cx="73.7428" cy="220.57" r="4" fill="#0" id="circle21"/>
	<circle cx="81.0842" cy="95.7669" r="4" fill="#0" id="circle22"/>
	<circle cx="82.9195" cy="220.57" r="4" fill="#0" id="circle23"/>
	<circle cx="89.3432" cy="91.1785" r="4" fill="#0" id="circle24"/>
	<circle cx="91.1785" cy="215.981" r="4" fill="#0" id="circle25"/>
	<circle cx="96.6846" cy="83.8372" r="4" fill="#0" id="circle26"/>
	<circle cx="100.355" cy="215.981" r="4" fill="#0" id="circle27"/>
	<circle cx="105.861" cy="79.2488" r="4" fill="#0" id="circle28"/>
	<circle cx="108.614" cy="211.393" r="4" fill="#0" id="circle29"/>
	<circle cx="115.038" cy="74.6605" r="4" fill="#0" id="circle30"/>
	<circle cx="117.791" cy="211.393" r="4" fill="#0" id="circle31"/>
	<circle cx="122.379" cy="68.2368" r="4" fill="#0" id="circle32"/>
	<circle cx="126.968" cy="211.393" r="4" fill="#0" id="circle33"/>
	<circle cx="130.638" cy="63.6485" r="4" fill="#0" id="circle34"/>
	<circle cx="135.227" cy="206.805" r="4" fill="#0" id="circle35"/>
	<circle cx="138.897" cy="59.0601" r="4" fill="#0" id="circle36"/>
	<circle cx="144.403" cy="206.805" r="4" fill="#0" id="circle37"/>
	<circle cx="146.239" cy="52.6364" r="4" fill="#0" id="circle38"/>
	<circle cx="153.58" cy="206.805" r="4" fill="#0" id="circle39"/>
	<circle cx="155.415" cy="48.0481" r="4" fill="#0" id="circle40"/>
	<circle cx="162.757" cy="40.7068" r="4" fill="#0" id="circle41"/>
	<circle cx="162.757" cy="206.805" r="4" fill="#0" id="circle42"/>
	<circle cx="171.016" cy="202.216" r="4" fill="#0" id="circle43"/>
	<circle cx="171.933" cy="40.7068" r="4" fill="#0" id="circle44"/>
	<circle cx="180.192" cy="202.216" r="4" fill="#0" id="circle45"/>
	<circle cx="181.11" cy="36.1184" r="4" fill="#0" id="circle46"/>
	<circle cx="189.369" cy="202.216" r="4" fill="#0" id="circle47"/>
	<circle cx="190.287" cy="31.5301" r="4" fill="#0" id="circle48"/>
	<circle cx="198.546" cy="202.216" r="4" fill="#0" id="circle49"/>
	<circle cx="199.463" cy="26.9417" r="4" fill="#0" id="circle50"/>
	<circle cx="207.722" cy="202.216" r="4" fill="#0" id="circle51"/>
	<circle cx="208.64" cy="26.9417" r="4" fill="#0" id="circle52"/>
	<circle cx="215.064" cy="207.722" r="4" fill="#0" id="circle53"/>
	<circle cx="215.064" cy="216.899" r="4" fill="#0" id="circle54"/>
	<circle cx="215.064" cy="226.076" r="4" fill="#0" id="circle55"/>
	<circle cx="215.064" cy="235.253" r="4" fill="#0" id="circle56"/>
	<circle cx="215.064" cy="244.429" r="4" fill="#0" id="circle57"/>
	<circle cx="215.064" cy="253.606" r="4" fill="#0" id="circle58"/>
	<circle cx="215.064" cy="262.783" r="4" fill="#0" id="circle59"/>
	<circle cx="215.064" cy="271.959" r="4" fill="#0" id="circle60"/>
	<circle cx="215.064" cy="281.136" r="4" fill="#0" id="circle61"/>
	<circle cx="215.064" cy="290.313" r="4" fill="#0" id="circle62"/>
	<circle cx="215.064" cy="299.489" r="4" fill="#0" id="circle63"/>
	<circle cx="215.064" cy="308.666" r="4" fill="#0" id="circle64"/>
	<circle cx="215.064" cy="317.843" r="4" fill="#0" id="circle65"/>
	<circle cx="215.064" cy="327.019" r="4" fill="#0" id="circle66"/>
	<circle cx="215.064" cy="336.196" r="4" fill="#0" id="circle67"/>
	<circle cx="215.064" cy="345.373" r="4" fill="#0" id="circle68"/>
	<circle cx="215.064" cy="354.549" r="4" fill="#0" id="circle69"/>
	<circle cx="215.064" cy="363.726" r="4" fill="#0" id="circle70"/>
	<circle cx="215.064" cy="372.903" r="4" fill="#0" id="circle71"/>
	<circle cx="215.064" cy="382.08" r="4" fill="#0" id="circle72"/>
	<circle cx="215.064" cy="391.256" r="4" fill="#0" id="circle73"/>
	<circle cx="215.064" cy="400.433" r="4" fill="#0" id="circle74"/>
	<circle cx="215.064" cy="409.61" r="4" fill="#0" id="circle75"/>
	<circle cx="215.064" cy="418.786" r="4" fill="#0" id="circle76"/>
	<circle cx="215.064" cy="427.963" r="4" fill="#0" id="circle77"/>
	<circle cx="215.064" cy="437.14" r="4" fill="#0" id="circle78"/>
	<circle cx="215.064" cy="446.316" r="4" fill="#0" id="circle79"/>
	<circle cx="215.064" cy="455.493" r="4" fill="#0" id="circle80"/>
	<circle cx="215.064" cy="464.67" r="4" fill="#0" id="circle81"/>
	<circle cx="215.064" cy="473.846" r="4" fill="#0" id="circle82"/>
	<circle cx="215.064" cy="483.023" r="4" fill="#0" id="circle83"/>
	<circle cx="215.064" cy="492.2" r="4" fill="#0" id="circle84"/>
	<circle cx="215.064" cy="501.377" r="4" fill="#0" id="circle85"/>
	<circle cx="215.064" cy="510.553" r="4" fill="#0" id="circle86"/>
	<circle cx="215.064" cy="519.73" r="4" fill="#0" id="circle87"/>
	<circle cx="215.064" cy="528.907" r="4" fill="#0" id="circle88"/>
	<circle cx="215.064" cy="538.083" r="4" fill="#0" id="circle89"/>
	<circle cx="215.064" cy="547.26" r="4" fill="#0" id="circle90"/>
	<circle cx="215.064" cy="556.437" r="4" fill="#0" id="circle91"/>
	<circle cx="215.064" cy="565.613" r="4" fill="#0" id="circle92"/>
	<circle cx="215.064" cy="574.79" r="4" fill="#0" id="circle93"/>
	<circle cx="215.064" cy="583.967" r="4" fill="#0" id="circle94"/>
	<circle cx="215.064" cy="593.143" r="4" fill="#0" id="circle95"/>
	<circle cx="215.064" cy="602.32" r="4" fill="#0" id="circle96"/>
	<circle cx="215.064" cy="611.497" r="4" fill="#0" id="circle97"/>
	<circle cx="215.064" cy="620.673" r="4" fill="#0" id="circle98"/>
	<circle cx="215.064" cy="629.85" r="4" fill="#0" id="circle99"/>
	<circle cx="215.064" cy="639.027" r="4" fill="#0" id="circle100"/>
	<circle cx="215.064" cy="648.204" r="4" fill="#0" id="circle101"/>
	<circle cx="215.064" cy="657.38" r="4" fill="#0" id="circle102"/>
	<circle cx="215.064" cy="666.557" r="4" fill="#0" id="circle103"/>
	<circle cx="215.064" cy="675.734" r="4" fill="#0" id="circle104"/>
	<circle cx="215.064" cy="684.91" r="4" fill="#0" id="circle105"/>
	<circle cx="215.064" cy="694.087" r="4" fill="#0" id="circle106"/>
	<circle cx="215.064" cy="703.264" r="4" fill="#0" id="circle107"/>
	<circle cx="215.064" cy="712.44" r="4" fill="#0" id="circle108"/>
	<circle cx="215.064" cy="721.617" r="4" fill="#0" id="circle109"/>
	<circle cx="215.064" cy="730.794" r="4" fill="#0" id="circle110"/>
	<circle cx="215.064" cy="739.97" r="4" fill="#0" id="circle111"/>
	<circle cx="215.064" cy="749.147" r="4" fill="#0" id="circle112"/>
	<circle cx="215.064" cy="758.324" r="4" fill="#0" id="circle113"/>
	<circle cx="215.064" cy="767.5" r="4" fill="#0" id="circle114"/>
	<circle cx="215.064" cy="776.677" r="4" fill="#0" id="circle115"/>
	<circle cx="215.064" cy="785.854" r="4" fill="#0" id="circle116"/>
	<circle cx="215.064" cy="795.031" r="4" fill="#0" id="circle117"/>
	<circle cx="215.064" cy="804.207" r="4" fill="#0" id="circle118"/>
	<circle cx="215.064" cy="813.384" r="4" fill="#0" id="circle119"/>
	<circle cx="215.064" cy="822.561" r="4" fill="#0" id="circle120"/>
	<circle cx="215.064" cy="831.737" r="4" fill="#0" id="circle121"/>
	<circle cx="215.064" cy="840.914" r="4" fill="#0" id="circle122"/>
	<circle cx="215.064" cy="850.091" r="4" fill="#0" id="circle123"/>
	<circle cx="215.064" cy="859.267" r="4" fill="#0" id="circle124"/>
	<circle cx="215.064" cy="868.444" r="4" fill="#0" id="circle125"/>
	<circle cx="215.064" cy="877.621" r="4" fill="#0" id="circle126"/>
	<circle cx="215.064" cy="886.797" r="4" fill="#0" id="circle127"/>
	<circle cx="215.064" cy="895.974" r="4" fill="#0" id="circle128"/>
	<circle cx="215.064" cy="905.151" r="4" fill="#0" id="circle129"/>
	<circle cx="215.064" cy="914.327" r="4" fill="#0" id="circle130"/>
	<circle cx="215.064" cy="923.504" r="4" fill="#0" id="circle131"/>
	<circle cx="215.064" cy="932.681" r="4" fill="#0" id="circle132"/>
	<circle cx="215.064" cy="941.858" r="4" fill="#0" id="circle133"/>
	<circle cx="215.064" cy="951.034" r="4" fill="#0" id="circle134"/>
	<circle cx="215.064" cy="960.211" r="4" fill="#0" id="circle135"/>
	<circle cx="215.064" cy="969.388" r="4" fill="#0" id="circle136"/>
	<circle cx="215.064" cy="978.564" r="4" fill="#0" id="circle137"/>
	<circle cx="215.064" cy="987.741" r="4" fill="#0" id="circle138"/>
	<circle cx="217.817" cy="26.9417" r="4" fill="#0" id="circle139"/>
	<circle cx="219.652" cy="996" r="4" fill="#0" id="circle140"/>
	<circle cx="226.076" cy="22.3534" r="4" fill="#0" id="circle141"/>
	<circle cx="228.829" cy="996" r="4" fill="#0" id="circle142"/>
	<circle cx="235.253" cy="22.3534" r="4" fill="#0" id="circle143"/>
	<circle cx="238.006" cy="996" r="4" fill="#0" id="circle144"/>
	<circle cx="244.429" cy="22.3534" r="4" fill="#0" id="circle145"/>
	<circle cx="247.182" cy="996" r="4" fill="#0" id="circle146"/>
	<circle cx="253.606" cy="22.3534" r="4" fill="#0" id="circle147"/>
	<circle cx="256.359" cy="996" r="4" fill="#0" id="circle148"/>
	<circle cx="262.783" cy="22.3534" r="4" fill="#0" id="circle149"/>
	<circle cx="265.536" cy="996" r="4" fill="#0" id="circle150"/>
	<circle cx="271.959" cy="22.3534" r="4" fill="#0" id="circle151"/>
	<circle cx="274.712" cy="996" r="4" fill="#0" id="circle152"/>
	<circle cx="281.136" cy="22.3534" r="4" fill="#0" id="circle153"/>
	<circle cx="283.889" cy="996" r="4" fill="#0" id="circle154"/>
	<circle cx="290.313" cy="22.3534" r="4" fill="#0" id="circle155"/>
	<circle cx="293.066" cy="996" r="4" fill="#0" id="circle156"/>
	<circle cx="299.489" cy="22.3534" r="4" fill="#0" id="circle157"/>
	<circle cx="302.242" cy="996" r="4" fill="#0" id="circle158"/>
	<circle cx="308.666" cy="22.3534" r="4" fill="#0" id="circle159"/>
	<circle cx="311.419" cy="996" r="4" fill="#0" id="circle160"/>
	<circle cx="317.843" cy="22.3534" r="4" fill="#0" id="circle161"/>
	<circle cx="320.596" cy="996" r="4" fill="#0" id="circle162"/>
	<circle cx="326.102" cy="206.805" r="4" fill="#0" id="circle163"/>
	<circle cx="326.102" cy="215.981" r="4" fill="#0" id="circle164"/>
	<circle cx="326.102" cy="225.158" r="4" fill="#0" id="circle165"/>
	<circle cx="326.102" cy="234.335" r="4" fill="#0" id="circle166"/>
	<circle cx="326.102" cy="243.512" r="4" fill="#0" id="circle167"/>
	<circle cx="326.102" cy="252.688" r="4" fill="#0" id="circle168"/>
	<circle cx="326.102" cy="261.865" r="4" fill="#0" id="circle169"/>
	<circle cx="326.102" cy="271.042" r="4" fill="#0" id="circle170"/>
	<circle cx="326.102" cy="280.218" r="4" fill="#0" id="circle171"/>
	<circle cx="326.102" cy="289.395" r="4" fill="#0" id="circle172"/>
	<circle cx="326.102" cy="298.572" r="4" fill="#0" id="circle173"/>
	<circle cx="326.102" cy="307.748" r="4" fill="#0" id="circle174"/>
	<circle cx="326.102" cy="316.925" r="4" fill="#0" id="circle175"/>
	<circle cx="326.102" cy="326.102" r="4" fill="#0" id="circle176"/>
	<circle cx="326.102" cy="335.278" r="4" fill="#0" id="circle177"/>
	<circle cx="326.102" cy="344.455" r="4" fill="#0" id="circle178"/>
	<circle cx="326.102" cy="353.632" r="4" fill="#0" id="circle179"/>
	<circle cx="326.102" cy="362.809" r="4" fill="#0" id="circle180"/>
	<circle cx="326.102" cy="371.985" r="4" fill="#0" id="circle181"/>
	<circle cx="326.102" cy="381.162" r="4" fill="#0" id="circle182"/>
	<circle cx="326.102" cy="390.339" r="4" fill="#0" id="circle183"/>
	<circle cx="326.102" cy="399.515" r="4" fill="#0" id="circle184"/>
	<circle cx="326.102" cy="408.692" r="4" fill="#0" id="circle185"/>
	<circle cx="326.102" cy="417.869" r="4" fill="#0" id="circle186"/>
	<circle cx="326.102" cy="427.045" r="4" fill="#0" id="circle187"/>
	<circle cx="326.102" cy="436.222" r="4" fill="#0" id="circle188"/>
	<circle cx="326.102" cy="445.399" r="4" fill="#0" id="circle189"/>
	<circle cx="326.102" cy="454.575" r="4" fill="#0" id="circle190"/>
	<circle cx="326.102" cy="463.752" r="4" fill="#0" id="circle191"/>
	<circle cx="326.102" cy="472.929" r="4" fill="#0" id="circle192"/>
	<circle cx="326.102" cy="482.105" r="4" fill="#0" id="circle193"/>
	<circle cx="326.102" cy="491.282" r="4" fill="#0" id="circle194"/>
	<circle cx="326.102" cy="500.459" r="4" fill="#0" id="circle195"/>
	<circle cx="326.102" cy="509.636" r="4" fill="#0" id="circle196"/>
	<circle cx="326.102" cy="518.812" r="4" fill="#0" id="circle197"/>
	<circle cx="326.102" cy="527.989" r="4" fill="#0" id="circle198"/>
	<circle cx="326.102" cy="537.166" r="4" fill="#0" id="circle199"/>
	<circle cx="326.102" cy="546.342" r="4" fill="#0" id="circle200"/>
	<circle cx="326.102" cy="555.519" r="4" fill="#0" id="circle201"/>
	<circle cx="326.102" cy="564.696" r="4" fill="#0" id="circle202"/>
	<circle cx="326.102" cy="573.872" r="4" fill="#0" id="circle203"/>
	<circle cx="326.102" cy="583.049" r="4" fill="#0" id="circle204"/>
	<circle cx="326.102" cy="592.226" r="4" fill="#0" id="circle205"/>
	<circle cx="326.102" cy="601.402" r="4" fill="#0" id="circle206"/>
	<circle cx="326.102" cy="610.579" r="4" fill="#0" id="circle207"/>
	<circle cx="326.102" cy="619.756" r="4" fill="#0" id="circle208"/>
	<circle cx="326.102" cy="628.932" r="4" fill="#0" id="circle209"/>
	<circle cx="326.102" cy="638.109" r="4" fill="#0" id="circle210"/>
	<circle cx="326.102" cy="647.286" r="4" fill="#0" id="circle211"/>
	<circle cx="326.102" cy="656.463" r="4" fill="#0" id="circle212"/>
	<circle cx="326.102" cy="665.639" r="4" fill="#0" id="circle213"/>
	<circle cx="326.102" cy="674.816" r="4" fill="#0" id="circle214"/>
	<circle cx="326.102" cy="683.993" r="4" fill="#0" id="circle215"/>
	<circle cx="326.102" cy="693.169" r="4" fill="#0" id="circle216"/>
	<circle cx="326.102" cy="702.346" r="4" fill="#0" id="circle217"/>
	<circle cx="326.102" cy="711.523" r="4" fill="#0" id="circle218"/>
	<circle cx="326.102" cy="720.699" r="4" fill="#0" id="circle219"/>
	<circle cx="326.102" cy="729.876" r="4" fill="#0" id="circle220"/>
	<circle cx="326.102" cy="739.053" r="4" fill="#0" id="circle221"/>
	<circle cx="326.102" cy="748.229" r="4" fill="#0" id="circle222"/>
	<circle cx="326.102" cy="757.406" r="4" fill="#0" id="circle223"/>
	<circle cx="326.102" cy="766.583" r="4" fill="#0" id="circle224"/>
	<circle cx="326.102" cy="775.759" r="4" fill="#0" id="circle225"/>
	<circle cx="326.102" cy="784.936" r="4" fill="#0" id="circle226"/>
	<circle cx="326.102" cy="794.113" r="4" fill="#0" id="circle227"/>
	<circle cx="326.102" cy="803.29" r="4" fill="#0" id="circle228"/>
	<circle cx="326.102" cy="812.466" r="4" fill="#0" id="circle229"/>
	<circle cx="326.102" cy="821.643" r="4" fill="#0" id="circle230"/>
	<circle cx="326.102" cy="830.82" r="4" fill="#0" id="circle231"/>
	<circle cx="326.102" cy="839.996" r="4" fill="#0" id="circle232"/>
	<circle cx="326.102" cy="849.173" r="4" fill="#0" id="circle233"/>
	<circle cx="326.102" cy="858.35" r="4" fill="#0" id="circle234"/>
	<circle cx="326.102" cy="867.526" r="4" fill="#0" id="circle235"/>
	<circle cx="326.102" cy="876.703" r="4" fill="#0" id="circle236"/>
	<circle cx="326.102" cy="885.88" r="4" fill="#0" id="circle237"/>
	<circle cx="326.102" cy="895.056" r="4" fill="#0" id="circle238"/>
	<circle cx="326.102" cy="904.233" r="4" fill="#0" id="circle239"/>
	<circle cx="326.102" cy="913.41" r="4" fill="#0" id="circle240"/>
	<circle cx="326.102" cy="922.586" r="4" fill="#0" id="circle241"/>
	<circle cx="326.102" cy="931.763" r="4" fill="#0" id="circle242"/>
	<circle cx="326.102" cy="940.94" r="4" fill="#0" id="circle243"/>
	<circle cx="326.102" cy="950.117" r="4" fill="#0" id="circle244"/>
	<circle cx="326.102" cy="959.293" r="4" fill="#0" id="circle245"/>
	<circle cx="326.102" cy="968.47" r="4" fill="#0" id="circle246"/>
	<circle cx="326.102" cy="977.647" r="4" fill="#0" id="circle247"/>
	<circle cx="326.102" cy="986.823" r="4" fill="#0" id="circle248"/>
	<circle cx="327.019" cy="22.3534" r="4" fill="#0" id="circle249"/>
	<circle cx="335.278" cy="206.805" r="4" fill="#0" id="circle250"/>
	<circle cx="336.196" cy="22.3534" r="4" fill="#0" id="circle251"/>
	<circle cx="344.455" cy="206.805" r="4" fill="#0" id="circle252"/>
	<circle cx="345.373" cy="22.3534" r="4" fill="#0" id="circle253"/>
	<circle cx="348.126" cy="6.75301" r="4" fill="#0" id="circle254"/>
	<circle cx="348.126" cy="215.981" r="4" fill="#0" id="circle255"/>
	<circle cx="350.879" cy="225.158" r="4" fill="#0" id="circle256"/>
	<circle cx="357.302" cy="4" r="4" fill="#0" id="circle257"/>
	<circle cx="360.056" cy="225.158" r="4" fill="#0" id="circle258"/>
	<circle cx="366.479" cy="4" r="4" fill="#0" id="circle259"/>
	<circle cx="369.232" cy="225.158" r="4" fill="#0" id="circle260"/>
	<circle cx="375.656" cy="4" r="4" fill="#0" id="circle261"/>
	<circle cx="378.409" cy="225.158" r="4" fill="#0" id="circle262"/>
	<circle cx="384.833" cy="4" r="4" fill="#0" id="circle263"/>
	<circle cx="387.586" cy="225.158" r="4" fill="#0" id="circle264"/>
	<circle cx="394.009" cy="4" r="4" fill="#0" id="circle265"/>
	<circle cx="396.762" cy="225.158" r="4" fill="#0" id="circle266"/>
	<circle cx="403.186" cy="4" r="4" fill="#0" id="circle267"/>
	<circle cx="405.939" cy="225.158" r="4" fill="#0" id="circle268"/>
	<circle cx="412.363" cy="4" r="4" fill="#0" id="circle269"/>
	<circle cx="415.116" cy="225.158" r="4" fill="#0" id="circle270"/>
	<circle cx="421.539" cy="4" r="4" fill="#0" id="circle271"/>
	<circle cx="424.292" cy="225.158" r="4" fill="#0" id="circle272"/>
	<circle cx="430.716" cy="4" r="4" fill="#0" id="circle273"/>
	<circle cx="433.469" cy="225.158" r="4" fill="#0" id="circle274"/>
	<circle cx="439.893" cy="4" r="4" fill="#0" id="circle275"/>
	<circle cx="442.646" cy="225.158" r="4" fill="#0" id="circle276"/>
	<circle cx="449.069" cy="4" r="4" fill="#0" id="circle277"/>
	<circle cx="451.822" cy="225.158" r="4" fill="#0" id="circle278"/>
	<circle cx="458.246" cy="4" r="4" fill="#0" id="circle279"/>
	<circle cx="460.999" cy="225.158" r="4" fill="#0" id="circle280"/>
	<circle cx="467.423" cy="5.83534" r="4" fill="#0" id="circle281"/>
	<circle cx="468.34" cy="15.012" r="4" fill="#0" id="circle282"/>
	<circle cx="468.34" cy="24.1887" r="4" fill="#0" id="circle283"/>
	<circle cx="468.34" cy="33.3654" r="4" fill="#0" id="circle284"/>
	<circle cx="468.34" cy="42.5421" r="4" fill="#0" id="circle285"/>
	<circle cx="468.34" cy="51.7188" r="4" fill="#0" id="circle286"/>
	<circle cx="468.34" cy="60.8955" r="4" fill="#0" id="circle287"/>
	<circle cx="468.34" cy="70.0722" r="4" fill="#0" id="circle288"/>
	<circle cx="468.34" cy="79.2488" r="4" fill="#0" id="circle289"/>
	<circle cx="468.34" cy="88.4255" r="4" fill="#0" id="circle290"/>
	<circle cx="468.34" cy="97.6022" r="4" fill="#0" id="circle291"/>
	<circle cx="468.34" cy="106.779" r="4" fill="#0" id="circle292"/>
	<circle cx="468.34" cy="115.956" r="4" fill="#0" id="circle293"/>
	<circle cx="468.34" cy="125.132" r="4" fill="#0" id="circle294"/>
	<circle cx="468.34" cy="134.309" r="4" fill="#0" id="circle295"/>
	<circle cx="468.34" cy="143.486" r="4" fill="#0" id="circle296"/>
	<circle cx="468.34" cy="152.662" r="4" fill="#0" id="circle297"/>
	<circle cx="468.34" cy="161.839" r="4" fill="#0" id="circle298"/>
	<circle cx="468.34" cy="171.016" r="4" fill="#0" id="circle299"/>
	<circle cx="468.34" cy="180.192" r="4" fill="#0" id="circle300"/>
	<circle cx="468.34" cy="189.369" r="4" fill="#0" id="circle301"/>
	<circle cx="468.34" cy="198.546" r="4" fill="#0" id="circle302"/>
	<circle cx="468.34" cy="207.722" r="4" fill="#0" id="circle303"/>
	<circle cx="468.34" cy="216.899" r="4" fill="#0" id="circle304"/>
	</g>
</svg>