<?xml version="1.0" encoding="UTF-8" standalone="no"?>
<!-- Created with CurveBenchmark -->
<svg
	xmlns:dc="http://purl.org/dc/elements/1.1/"
	xmlns:cc="http://creativecommons.org/ns#"
	xmlns:rdf="http://www.w3.org/1999/02/22-rdf-syntax-ns#"
	xmlns:svg="http://www.w3.org/2000/svg"
	xmlns="http://www.w3.org/2000/svg"
	xmlns:sodipodi="http://sodipodi.sourceforge.net/DTD/sodipodi-0.dtd"
	xmlns:inkscape="http://www.inkscape.org/namespaces/inkscape"
	width="1000"
	height="1000"
	id="svg2"
	version="1.1"
	sodipodi:docname="manifold/gathang-classic12.png.txt">
<defs
	id="defs4" />
<metadata
	id="metadata7">
	<rdf:RDF>
		<cc:Work
			rdf:about="">
			<dc:format>image/svg+xml</dc:format>
			<dc:type
				rdf:resource="http://purl.org/dc/dcmitype/StillImage" />
			<dc:title></dc:title>
		</cc:Work>
	</rdf:RDF>
</metadata>
<g
	inkscape:label="Layer 1"
	inkscape:groupmode="layer"
	id="layer1">
	<path style="fill:none;stroke:red;stroke-width:1px;stroke-linecap:butt;stroke-linejoin:miter;stroke-opacity:1" d="M 147.024,114.018 165.36,114.018 z" id="boundary" inkscape:connector-curvature="0" />
	<path style="fill:none;stroke:red;stroke-width:1px;stroke-linecap:butt;stroke-linejoin:miter;stroke-opacity:1" d="M 132.355,128.688 147.024,114.018 z" id="boundary" inkscape:connector-curvature="0" />
	<path style="fill:none;stroke:red;stroke-width:1px;stroke-linecap:butt;stroke-linejoin:miter;stroke-opacity:1" d="M 165.36,114.018 183.697,114.018 z" id="boundary" inkscape:connector-curvature="0" />
	<path style="fill:none;stroke:red;stroke-width:1px;stroke-linecap:butt;stroke-linejoin:miter;stroke-opacity:1" d="M 123.187,147.024 132.355,128.688 z" id="boundary" inkscape:connector-curvature="0" />
	<path style="fill:none;stroke:red;stroke-width:1px;stroke-linecap:butt;stroke-linejoin:miter;stroke-opacity:1" d="M 200.2,104.85 183.697,114.018 z" id="boundary" inkscape:connector-curvature="0" />
	<path style="fill:none;stroke:red;stroke-width:1px;stroke-linecap:butt;stroke-linejoin:miter;stroke-opacity:1" d="M 200.2,104.85 218.536,104.85 z" id="boundary" inkscape:connector-curvature="0" />
	<path style="fill:none;stroke:red;stroke-width:1px;stroke-linecap:butt;stroke-linejoin:miter;stroke-opacity:1" d="M 218.536,104.85 235.039,114.018 z" id="boundary" inkscape:connector-curvature="0" />
	<path style="fill:none;stroke:red;stroke-width:1px;stroke-linecap:butt;stroke-linejoin:miter;stroke-opacity:1" d="M 235.039,114.018 251.542,104.85 z" id="boundary" inkscape:connector-curvature="0" />
	<path style="fill:none;stroke:red;stroke-width:1px;stroke-linecap:butt;stroke-linejoin:miter;stroke-opacity:1" d="M 251.542,104.85 269.878,104.85 z" id="boundary" inkscape:connector-curvature="0" />
	<path style="fill:none;stroke:red;stroke-width:1px;stroke-linecap:butt;stroke-linejoin:miter;stroke-opacity:1" d="M 33.3383,209.368 51.6747,214.869 z" id="boundary" inkscape:connector-curvature="0" />
	<path style="fill:none;stroke:red;stroke-width:1px;stroke-linecap:butt;stroke-linejoin:miter;stroke-opacity:1" d="M 18.6691,224.037 33.3383,209.368 z" id="boundary" inkscape:connector-curvature="0" />
	<path style="fill:none;stroke:red;stroke-width:1px;stroke-linecap:butt;stroke-linejoin:miter;stroke-opacity:1" d="M 68.1774,205.701 51.6747,214.869 z" id="boundary" inkscape:connector-curvature="0" />
	<path style="fill:none;stroke:red;stroke-width:1px;stroke-linecap:butt;stroke-linejoin:miter;stroke-opacity:1" d="M 13.1682,255.209 4,238.706 z" id="boundary" inkscape:connector-curvature="0" />
	<path style="fill:none;stroke:red;stroke-width:1px;stroke-linecap:butt;stroke-linejoin:miter;stroke-opacity:1" d="M 4,238.706 18.6691,224.037 z" id="boundary" inkscape:connector-curvature="0" />
	<path style="fill:none;stroke:red;stroke-width:1px;stroke-linecap:butt;stroke-linejoin:miter;stroke-opacity:1" d="M 123.187,147.024 112.185,178.196 z" id="boundary" inkscape:connector-curvature="0" />
	<path style="fill:none;stroke:red;stroke-width:1px;stroke-linecap:butt;stroke-linejoin:miter;stroke-opacity:1" d="M 112.185,178.196 93.8484,178.196 z" id="boundary" inkscape:connector-curvature="0" />
	<path style="fill:none;stroke:red;stroke-width:1px;stroke-linecap:butt;stroke-linejoin:miter;stroke-opacity:1" d="M 93.8484,178.196 79.1793,191.031 z" id="boundary" inkscape:connector-curvature="0" />
	<path style="fill:none;stroke:red;stroke-width:1px;stroke-linecap:butt;stroke-linejoin:miter;stroke-opacity:1" d="M 68.1774,205.701 79.1793,191.031 z" id="boundary" inkscape:connector-curvature="0" />
	<path style="fill:none;stroke:red;stroke-width:1px;stroke-linecap:butt;stroke-linejoin:miter;stroke-opacity:1" d="M 389.065,73.6784 389.065,46.1738 z" id="boundary" inkscape:connector-curvature="0" />
	<path style="fill:none;stroke:red;stroke-width:1px;stroke-linecap:butt;stroke-linejoin:miter;stroke-opacity:1" d="M 423.904,13.1682 407.401,22.3364 z" id="boundary" inkscape:connector-curvature="0" />
	<path style="fill:none;stroke:red;stroke-width:1px;stroke-linecap:butt;stroke-linejoin:miter;stroke-opacity:1" d="M 407.401,22.3364 389.065,27.8373 z" id="boundary" inkscape:connector-curvature="0" />
	<path style="fill:none;stroke:red;stroke-width:1px;stroke-linecap:butt;stroke-linejoin:miter;stroke-opacity:1" d="M 389.065,27.8373 389.065,46.1738 z" id="boundary" inkscape:connector-curvature="0" />
	<path style="fill:none;stroke:red;stroke-width:1px;stroke-linecap:butt;stroke-linejoin:miter;stroke-opacity:1" d="M 423.904,13.1682 442.24,13.1682 z" id="boundary" inkscape:connector-curvature="0" />
	<path style="fill:none;stroke:red;stroke-width:1px;stroke-linecap:butt;stroke-linejoin:miter;stroke-opacity:1" d="M 460.577,13.1682 442.24,13.1682 z" id="boundary" inkscape:connector-curvature="0" />
	<path style="fill:none;stroke:red;stroke-width:1px;stroke-linecap:butt;stroke-linejoin:miter;stroke-opacity:1" d="M 478.913,13.1682 460.577,13.1682 z" id="boundary" inkscape:connector-curvature="0" />
	<path style="fill:none;stroke:red;stroke-width:1px;stroke-linecap:butt;stroke-linejoin:miter;stroke-opacity:1" d="M 495.416,4 478.913,13.1682 z" id="boundary" inkscape:connector-curvature="0" />
	<path style="fill:none;stroke:red;stroke-width:1px;stroke-linecap:butt;stroke-linejoin:miter;stroke-opacity:1" d="M 526.588,345.057 508.251,345.057 z" id="boundary" inkscape:connector-curvature="0" />
	<path style="fill:none;stroke:red;stroke-width:1px;stroke-linecap:butt;stroke-linejoin:miter;stroke-opacity:1" d="M 321.22,104.85 304.717,114.018 z" id="boundary" inkscape:connector-curvature="0" />
	<path style="fill:none;stroke:red;stroke-width:1px;stroke-linecap:butt;stroke-linejoin:miter;stroke-opacity:1" d="M 304.717,114.018 286.381,114.018 z" id="boundary" inkscape:connector-curvature="0" />
	<path style="fill:none;stroke:red;stroke-width:1px;stroke-linecap:butt;stroke-linejoin:miter;stroke-opacity:1" d="M 286.381,114.018 269.878,104.85 z" id="boundary" inkscape:connector-curvature="0" />
	<path style="fill:none;stroke:red;stroke-width:1px;stroke-linecap:butt;stroke-linejoin:miter;stroke-opacity:1" d="M 321.22,104.85 339.556,104.85 z" id="boundary" inkscape:connector-curvature="0" />
	<path style="fill:none;stroke:red;stroke-width:1px;stroke-linecap:butt;stroke-linejoin:miter;stroke-opacity:1" d="M 389.065,73.6784 389.065,101.183 z" id="boundary" inkscape:connector-curvature="0" />
	<path style="fill:none;stroke:red;stroke-width:1px;stroke-linecap:butt;stroke-linejoin:miter;stroke-opacity:1" d="M 356.059,114.018 339.556,104.85 z" id="boundary" inkscape:connector-curvature="0" />
	<path style="fill:none;stroke:red;stroke-width:1px;stroke-linecap:butt;stroke-linejoin:miter;stroke-opacity:1" d="M 389.065,101.183 374.396,114.018 z" id="boundary" inkscape:connector-curvature="0" />
	<path style="fill:none;stroke:red;stroke-width:1px;stroke-linecap:butt;stroke-linejoin:miter;stroke-opacity:1" d="M 374.396,114.018 356.059,114.018 z" id="boundary" inkscape:connector-curvature="0" />
	<path style="fill:none;stroke:red;stroke-width:1px;stroke-linecap:butt;stroke-linejoin:miter;stroke-opacity:1" d="M 13.1682,255.209 22.3364,284.547 z" id="boundary" inkscape:connector-curvature="0" />
	<path style="fill:none;stroke:red;stroke-width:1px;stroke-linecap:butt;stroke-linejoin:miter;stroke-opacity:1" d="M 22.3364,284.547 22.3364,302.884 z" id="boundary" inkscape:connector-curvature="0" />
	<path style="fill:none;stroke:red;stroke-width:1px;stroke-linecap:butt;stroke-linejoin:miter;stroke-opacity:1" d="M 22.3364,302.884 22.3364,321.22 z" id="boundary" inkscape:connector-curvature="0" />
	<path style="fill:none;stroke:red;stroke-width:1px;stroke-linecap:butt;stroke-linejoin:miter;stroke-opacity:1" d="M 37.0055,334.055 22.3364,321.22 z" id="boundary" inkscape:connector-curvature="0" />
	<path style="fill:none;stroke:red;stroke-width:1px;stroke-linecap:butt;stroke-linejoin:miter;stroke-opacity:1" d="M 37.0055,334.055 44.3401,352.392 z" id="boundary" inkscape:connector-curvature="0" />
	<path style="fill:none;stroke:red;stroke-width:1px;stroke-linecap:butt;stroke-linejoin:miter;stroke-opacity:1" d="M 62.6765,359.726 44.3401,352.392 z" id="boundary" inkscape:connector-curvature="0" />
	<path style="fill:none;stroke:red;stroke-width:1px;stroke-linecap:butt;stroke-linejoin:miter;stroke-opacity:1" d="M 62.6765,359.726 81.0129,363.394 z" id="boundary" inkscape:connector-curvature="0" />
	<path style="fill:none;stroke:red;stroke-width:1px;stroke-linecap:butt;stroke-linejoin:miter;stroke-opacity:1" d="M 81.0129,363.394 97.5157,372.562 z" id="boundary" inkscape:connector-curvature="0" />
	<path style="fill:none;stroke:red;stroke-width:1px;stroke-linecap:butt;stroke-linejoin:miter;stroke-opacity:1" d="M 114.018,363.394 132.355,363.394 z" id="boundary" inkscape:connector-curvature="0" />
	<path style="fill:none;stroke:red;stroke-width:1px;stroke-linecap:butt;stroke-linejoin:miter;stroke-opacity:1" d="M 132.355,363.394 137.856,381.73 z" id="boundary" inkscape:connector-curvature="0" />
	<path style="fill:none;stroke:red;stroke-width:1px;stroke-linecap:butt;stroke-linejoin:miter;stroke-opacity:1" d="M 137.856,381.73 154.359,390.898 z" id="boundary" inkscape:connector-curvature="0" />
	<path style="fill:none;stroke:red;stroke-width:1px;stroke-linecap:butt;stroke-linejoin:miter;stroke-opacity:1" d="M 97.5157,372.562 114.018,363.394 z" id="boundary" inkscape:connector-curvature="0" />
	<path style="fill:none;stroke:red;stroke-width:1px;stroke-linecap:butt;stroke-linejoin:miter;stroke-opacity:1" d="M 154.359,390.898 170.861,400.067 z" id="boundary" inkscape:connector-curvature="0" />
	<path style="fill:none;stroke:red;stroke-width:1px;stroke-linecap:butt;stroke-linejoin:miter;stroke-opacity:1" d="M 189.198,400.067 170.861,400.067 z" id="boundary" inkscape:connector-curvature="0" />
	<path style="fill:none;stroke:red;stroke-width:1px;stroke-linecap:butt;stroke-linejoin:miter;stroke-opacity:1" d="M 207.534,400.067 189.198,400.067 z" id="boundary" inkscape:connector-curvature="0" />
	<path style="fill:none;stroke:red;stroke-width:1px;stroke-linecap:butt;stroke-linejoin:miter;stroke-opacity:1" d="M 240.54,387.231 225.871,400.067 z" id="boundary" inkscape:connector-curvature="0" />
	<path style="fill:none;stroke:red;stroke-width:1px;stroke-linecap:butt;stroke-linejoin:miter;stroke-opacity:1" d="M 225.871,400.067 207.534,400.067 z" id="boundary" inkscape:connector-curvature="0" />
	<path style="fill:none;stroke:red;stroke-width:1px;stroke-linecap:butt;stroke-linejoin:miter;stroke-opacity:1" d="M 271.712,354.226 271.712,335.889 z" id="boundary" inkscape:connector-curvature="0" />
	<path style="fill:none;stroke:red;stroke-width:1px;stroke-linecap:butt;stroke-linejoin:miter;stroke-opacity:1" d="M 271.712,335.889 290.048,335.889 z" id="boundary" inkscape:connector-curvature="0" />
	<path style="fill:none;stroke:red;stroke-width:1px;stroke-linecap:butt;stroke-linejoin:miter;stroke-opacity:1" d="M 308.384,339.556 326.721,339.556 z" id="boundary" inkscape:connector-curvature="0" />
	<path style="fill:none;stroke:red;stroke-width:1px;stroke-linecap:butt;stroke-linejoin:miter;stroke-opacity:1" d="M 308.384,339.556 290.048,335.889 z" id="boundary" inkscape:connector-curvature="0" />
	<path style="fill:none;stroke:red;stroke-width:1px;stroke-linecap:butt;stroke-linejoin:miter;stroke-opacity:1" d="M 363.394,335.889 345.057,339.556 z" id="boundary" inkscape:connector-curvature="0" />
	<path style="fill:none;stroke:red;stroke-width:1px;stroke-linecap:butt;stroke-linejoin:miter;stroke-opacity:1" d="M 345.057,339.556 326.721,339.556 z" id="boundary" inkscape:connector-curvature="0" />
	<path style="fill:none;stroke:red;stroke-width:1px;stroke-linecap:butt;stroke-linejoin:miter;stroke-opacity:1" d="M 381.73,335.889 400.067,335.889 z" id="boundary" inkscape:connector-curvature="0" />
	<path style="fill:none;stroke:red;stroke-width:1px;stroke-linecap:butt;stroke-linejoin:miter;stroke-opacity:1" d="M 381.73,335.889 363.394,335.889 z" id="boundary" inkscape:connector-curvature="0" />
	<path style="fill:none;stroke:red;stroke-width:1px;stroke-linecap:butt;stroke-linejoin:miter;stroke-opacity:1" d="M 400.067,335.889 418.403,335.889 z" id="boundary" inkscape:connector-curvature="0" />
	<path style="fill:none;stroke:red;stroke-width:1px;stroke-linecap:butt;stroke-linejoin:miter;stroke-opacity:1" d="M 418.403,335.889 434.906,345.057 z" id="boundary" inkscape:connector-curvature="0" />
	<path style="fill:none;stroke:red;stroke-width:1px;stroke-linecap:butt;stroke-linejoin:miter;stroke-opacity:1" d="M 258.876,378.063 271.712,354.226 z" id="boundary" inkscape:connector-curvature="0" />
	<path style="fill:none;stroke:red;stroke-width:1px;stroke-linecap:butt;stroke-linejoin:miter;stroke-opacity:1" d="M 258.876,378.063 240.54,387.231 z" id="boundary" inkscape:connector-curvature="0" />
	<path style="fill:none;stroke:red;stroke-width:1px;stroke-linecap:butt;stroke-linejoin:miter;stroke-opacity:1" d="M 434.906,345.057 453.242,345.057 z" id="boundary" inkscape:connector-curvature="0" />
	<path style="fill:none;stroke:red;stroke-width:1px;stroke-linecap:butt;stroke-linejoin:miter;stroke-opacity:1" d="M 471.579,345.057 489.915,345.057 z" id="boundary" inkscape:connector-curvature="0" />
	<path style="fill:none;stroke:red;stroke-width:1px;stroke-linecap:butt;stroke-linejoin:miter;stroke-opacity:1" d="M 471.579,345.057 453.242,345.057 z" id="boundary" inkscape:connector-curvature="0" />
	<path style="fill:none;stroke:red;stroke-width:1px;stroke-linecap:butt;stroke-linejoin:miter;stroke-opacity:1" d="M 489.915,345.057 508.251,345.057 z" id="boundary" inkscape:connector-curvature="0" />
	<path style="fill:none;stroke:red;stroke-width:1px;stroke-linecap:butt;stroke-linejoin:miter;stroke-opacity:1" d="M 495.416,4 513.752,4 z" id="boundary" inkscape:connector-curvature="0" />
	<path style="fill:none;stroke:red;stroke-width:1px;stroke-linecap:butt;stroke-linejoin:miter;stroke-opacity:1" d="M 532.089,4 550.425,4 z" id="boundary" inkscape:connector-curvature="0" />
	<path style="fill:none;stroke:red;stroke-width:1px;stroke-linecap:butt;stroke-linejoin:miter;stroke-opacity:1" d="M 550.425,4 568.762,4 z" id="boundary" inkscape:connector-curvature="0" />
	<path style="fill:none;stroke:red;stroke-width:1px;stroke-linecap:butt;stroke-linejoin:miter;stroke-opacity:1" d="M 587.098,4 605.434,4 z" id="boundary" inkscape:connector-curvature="0" />
	<path style="fill:none;stroke:red;stroke-width:1px;stroke-linecap:butt;stroke-linejoin:miter;stroke-opacity:1" d="M 623.771,4 642.107,4 z" id="boundary" inkscape:connector-curvature="0" />
	<path style="fill:none;stroke:red;stroke-width:1px;stroke-linecap:butt;stroke-linejoin:miter;stroke-opacity:1" d="M 605.434,4 623.771,4 z" id="boundary" inkscape:connector-curvature="0" />
	<path style="fill:none;stroke:red;stroke-width:1px;stroke-linecap:butt;stroke-linejoin:miter;stroke-opacity:1" d="M 568.762,4 587.098,4 z" id="boundary" inkscape:connector-curvature="0" />
	<path style="fill:none;stroke:red;stroke-width:1px;stroke-linecap:butt;stroke-linejoin:miter;stroke-opacity:1" d="M 660.444,4 678.78,4 z" id="boundary" inkscape:connector-curvature="0" />
	<path style="fill:none;stroke:red;stroke-width:1px;stroke-linecap:butt;stroke-linejoin:miter;stroke-opacity:1" d="M 697.116,4 715.453,4 z" id="boundary" inkscape:connector-curvature="0" />
	<path style="fill:none;stroke:red;stroke-width:1px;stroke-linecap:butt;stroke-linejoin:miter;stroke-opacity:1" d="M 678.78,4 697.116,4 z" id="boundary" inkscape:connector-curvature="0" />
	<path style="fill:none;stroke:red;stroke-width:1px;stroke-linecap:butt;stroke-linejoin:miter;stroke-opacity:1" d="M 733.789,4 752.126,4 z" id="boundary" inkscape:connector-curvature="0" />
	<path style="fill:none;stroke:red;stroke-width:1px;stroke-linecap:butt;stroke-linejoin:miter;stroke-opacity:1" d="M 770.462,4 788.799,4 z" id="boundary" inkscape:connector-curvature="0" />
	<path style="fill:none;stroke:red;stroke-width:1px;stroke-linecap:butt;stroke-linejoin:miter;stroke-opacity:1" d="M 788.799,4 807.135,4 z" id="boundary" inkscape:connector-curvature="0" />
	<path style="fill:none;stroke:red;stroke-width:1px;stroke-linecap:butt;stroke-linejoin:miter;stroke-opacity:1" d="M 752.126,4 770.462,4 z" id="boundary" inkscape:connector-curvature="0" />
	<path style="fill:none;stroke:red;stroke-width:1px;stroke-linecap:butt;stroke-linejoin:miter;stroke-opacity:1" d="M 715.453,4 733.789,4 z" id="boundary" inkscape:connector-curvature="0" />
	<path style="fill:none;stroke:red;stroke-width:1px;stroke-linecap:butt;stroke-linejoin:miter;stroke-opacity:1" d="M 642.107,4 660.444,4 z" id="boundary" inkscape:connector-curvature="0" />
	<path style="fill:none;stroke:red;stroke-width:1px;stroke-linecap:butt;stroke-linejoin:miter;stroke-opacity:1" d="M 825.471,4 843.808,4 z" id="boundary" inkscape:connector-curvature="0" />
	<path style="fill:none;stroke:red;stroke-width:1px;stroke-linecap:butt;stroke-linejoin:miter;stroke-opacity:1" d="M 862.144,4 880.481,4 z" id="boundary" inkscape:connector-curvature="0" />
	<path style="fill:none;stroke:red;stroke-width:1px;stroke-linecap:butt;stroke-linejoin:miter;stroke-opacity:1" d="M 880.481,4 893.316,18.6691 z" id="boundary" inkscape:connector-curvature="0" />
	<path style="fill:none;stroke:red;stroke-width:1px;stroke-linecap:butt;stroke-linejoin:miter;stroke-opacity:1" d="M 843.808,4 862.144,4 z" id="boundary" inkscape:connector-curvature="0" />
	<path style="fill:none;stroke:red;stroke-width:1px;stroke-linecap:butt;stroke-linejoin:miter;stroke-opacity:1" d="M 893.316,18.6691 895.15,42.5065 z" id="boundary" inkscape:connector-curvature="0" />
	<path style="fill:none;stroke:red;stroke-width:1px;stroke-linecap:butt;stroke-linejoin:miter;stroke-opacity:1" d="M 904.318,59.0092 895.15,42.5065 z" id="boundary" inkscape:connector-curvature="0" />
	<path style="fill:none;stroke:red;stroke-width:1px;stroke-linecap:butt;stroke-linejoin:miter;stroke-opacity:1" d="M 904.318,59.0092 904.318,77.3457 z" id="boundary" inkscape:connector-curvature="0" />
	<path style="fill:none;stroke:red;stroke-width:1px;stroke-linecap:butt;stroke-linejoin:miter;stroke-opacity:1" d="M 904.318,77.3457 904.318,95.6821 z" id="boundary" inkscape:connector-curvature="0" />
	<path style="fill:none;stroke:red;stroke-width:1px;stroke-linecap:butt;stroke-linejoin:miter;stroke-opacity:1" d="M 904.318,95.6821 904.318,114.018 z" id="boundary" inkscape:connector-curvature="0" />
	<path style="fill:none;stroke:red;stroke-width:1px;stroke-linecap:butt;stroke-linejoin:miter;stroke-opacity:1" d="M 904.318,132.355 904.318,150.691 z" id="boundary" inkscape:connector-curvature="0" />
	<path style="fill:none;stroke:red;stroke-width:1px;stroke-linecap:butt;stroke-linejoin:miter;stroke-opacity:1" d="M 922.654,156.192 904.318,150.691 z" id="boundary" inkscape:connector-curvature="0" />
	<path style="fill:none;stroke:red;stroke-width:1px;stroke-linecap:butt;stroke-linejoin:miter;stroke-opacity:1" d="M 904.318,132.355 904.318,114.018 z" id="boundary" inkscape:connector-curvature="0" />
	<path style="fill:none;stroke:red;stroke-width:1px;stroke-linecap:butt;stroke-linejoin:miter;stroke-opacity:1" d="M 922.654,156.192 940.991,159.86 z" id="boundary" inkscape:connector-curvature="0" />
	<path style="fill:none;stroke:red;stroke-width:1px;stroke-linecap:butt;stroke-linejoin:miter;stroke-opacity:1" d="M 972.163,180.03 981.331,196.532 z" id="boundary" inkscape:connector-curvature="0" />
	<path style="fill:none;stroke:red;stroke-width:1px;stroke-linecap:butt;stroke-linejoin:miter;stroke-opacity:1" d="M 940.991,159.86 959.327,165.36 z" id="boundary" inkscape:connector-curvature="0" />
	<path style="fill:none;stroke:red;stroke-width:1px;stroke-linecap:butt;stroke-linejoin:miter;stroke-opacity:1" d="M 959.327,165.36 972.163,180.03 z" id="boundary" inkscape:connector-curvature="0" />
	<path style="fill:none;stroke:red;stroke-width:1px;stroke-linecap:butt;stroke-linejoin:miter;stroke-opacity:1" d="M 807.135,4 825.471,4 z" id="boundary" inkscape:connector-curvature="0" />
	<path style="fill:none;stroke:red;stroke-width:1px;stroke-linecap:butt;stroke-linejoin:miter;stroke-opacity:1" d="M 981.331,196.532 986.832,214.869 z" id="boundary" inkscape:connector-curvature="0" />
	<path style="fill:none;stroke:red;stroke-width:1px;stroke-linecap:butt;stroke-linejoin:miter;stroke-opacity:1" d="M 544.924,345.057 563.261,345.057 z" id="boundary" inkscape:connector-curvature="0" />
	<path style="fill:none;stroke:red;stroke-width:1px;stroke-linecap:butt;stroke-linejoin:miter;stroke-opacity:1" d="M 563.261,345.057 581.597,345.057 z" id="boundary" inkscape:connector-curvature="0" />
	<path style="fill:none;stroke:red;stroke-width:1px;stroke-linecap:butt;stroke-linejoin:miter;stroke-opacity:1" d="M 599.933,345.057 581.597,345.057 z" id="boundary" inkscape:connector-curvature="0" />
	<path style="fill:none;stroke:red;stroke-width:1px;stroke-linecap:butt;stroke-linejoin:miter;stroke-opacity:1" d="M 709.952,345.057 691.616,339.556 z" id="boundary" inkscape:connector-curvature="0" />
	<path style="fill:none;stroke:red;stroke-width:1px;stroke-linecap:butt;stroke-linejoin:miter;stroke-opacity:1" d="M 796.133,335.889 777.797,335.889 z" id="boundary" inkscape:connector-curvature="0" />
	<path style="fill:none;stroke:red;stroke-width:1px;stroke-linecap:butt;stroke-linejoin:miter;stroke-opacity:1" d="M 618.27,345.057 599.933,345.057 z" id="boundary" inkscape:connector-curvature="0" />
	<path style="fill:none;stroke:red;stroke-width:1px;stroke-linecap:butt;stroke-linejoin:miter;stroke-opacity:1" d="M 796.133,335.889 810.802,346.891 z" id="boundary" inkscape:connector-curvature="0" />
	<path style="fill:none;stroke:red;stroke-width:1px;stroke-linecap:butt;stroke-linejoin:miter;stroke-opacity:1" d="M 544.924,345.057 526.588,345.057 z" id="boundary" inkscape:connector-curvature="0" />
	<path style="fill:none;stroke:red;stroke-width:1px;stroke-linecap:butt;stroke-linejoin:miter;stroke-opacity:1" d="M 618.27,345.057 636.606,345.057 z" id="boundary" inkscape:connector-curvature="0" />
	<path style="fill:none;stroke:red;stroke-width:1px;stroke-linecap:butt;stroke-linejoin:miter;stroke-opacity:1" d="M 654.943,345.057 673.279,345.057 z" id="boundary" inkscape:connector-curvature="0" />
	<path style="fill:none;stroke:red;stroke-width:1px;stroke-linecap:butt;stroke-linejoin:miter;stroke-opacity:1" d="M 691.616,339.556 673.279,345.057 z" id="boundary" inkscape:connector-curvature="0" />
	<path style="fill:none;stroke:red;stroke-width:1px;stroke-linecap:butt;stroke-linejoin:miter;stroke-opacity:1" d="M 654.943,345.057 636.606,345.057 z" id="boundary" inkscape:connector-curvature="0" />
	<path style="fill:none;stroke:red;stroke-width:1px;stroke-linecap:butt;stroke-linejoin:miter;stroke-opacity:1" d="M 761.294,345.057 744.791,354.226 z" id="boundary" inkscape:connector-curvature="0" />
	<path style="fill:none;stroke:red;stroke-width:1px;stroke-linecap:butt;stroke-linejoin:miter;stroke-opacity:1" d="M 777.797,335.889 761.294,345.057 z" id="boundary" inkscape:connector-curvature="0" />
	<path style="fill:none;stroke:red;stroke-width:1px;stroke-linecap:butt;stroke-linejoin:miter;stroke-opacity:1" d="M 744.791,354.226 726.455,354.226 z" id="boundary" inkscape:connector-curvature="0" />
	<path style="fill:none;stroke:red;stroke-width:1px;stroke-linecap:butt;stroke-linejoin:miter;stroke-opacity:1" d="M 726.455,354.226 709.952,345.057 z" id="boundary" inkscape:connector-curvature="0" />
	<path style="fill:none;stroke:red;stroke-width:1px;stroke-linecap:butt;stroke-linejoin:miter;stroke-opacity:1" d="M 810.802,346.891 823.638,361.56 z" id="boundary" inkscape:connector-curvature="0" />
	<path style="fill:none;stroke:red;stroke-width:1px;stroke-linecap:butt;stroke-linejoin:miter;stroke-opacity:1" d="M 992.333,308.384 973.996,308.384 z" id="boundary" inkscape:connector-curvature="0" />
	<path style="fill:none;stroke:red;stroke-width:1px;stroke-linecap:butt;stroke-linejoin:miter;stroke-opacity:1" d="M 996,290.048 992.333,308.384 z" id="boundary" inkscape:connector-curvature="0" />
	<path style="fill:none;stroke:red;stroke-width:1px;stroke-linecap:butt;stroke-linejoin:miter;stroke-opacity:1" d="M 973.996,308.384 955.66,313.885 z" id="boundary" inkscape:connector-curvature="0" />
	<path style="fill:none;stroke:red;stroke-width:1px;stroke-linecap:butt;stroke-linejoin:miter;stroke-opacity:1" d="M 955.66,313.885 940.991,326.721 z" id="boundary" inkscape:connector-curvature="0" />
	<path style="fill:none;stroke:red;stroke-width:1px;stroke-linecap:butt;stroke-linejoin:miter;stroke-opacity:1" d="M 996,231.372 996,249.708 z" id="boundary" inkscape:connector-curvature="0" />
	<path style="fill:none;stroke:red;stroke-width:1px;stroke-linecap:butt;stroke-linejoin:miter;stroke-opacity:1" d="M 986.832,214.869 996,231.372 z" id="boundary" inkscape:connector-curvature="0" />
	<path style="fill:none;stroke:red;stroke-width:1px;stroke-linecap:butt;stroke-linejoin:miter;stroke-opacity:1" d="M 996,268.044 996,290.048 z" id="boundary" inkscape:connector-curvature="0" />
	<path style="fill:none;stroke:red;stroke-width:1px;stroke-linecap:butt;stroke-linejoin:miter;stroke-opacity:1" d="M 996,249.708 996,268.044 z" id="boundary" inkscape:connector-curvature="0" />
	<path style="fill:none;stroke:red;stroke-width:1px;stroke-linecap:butt;stroke-linejoin:miter;stroke-opacity:1" d="M 823.638,361.56 838.307,372.562 z" id="boundary" inkscape:connector-curvature="0" />
	<path style="fill:none;stroke:red;stroke-width:1px;stroke-linecap:butt;stroke-linejoin:miter;stroke-opacity:1" d="M 854.81,381.73 873.146,381.73 z" id="boundary" inkscape:connector-curvature="0" />
	<path style="fill:none;stroke:red;stroke-width:1px;stroke-linecap:butt;stroke-linejoin:miter;stroke-opacity:1" d="M 854.81,381.73 838.307,372.562 z" id="boundary" inkscape:connector-curvature="0" />
	<path style="fill:none;stroke:red;stroke-width:1px;stroke-linecap:butt;stroke-linejoin:miter;stroke-opacity:1" d="M 937.323,350.558 940.991,326.721 z" id="boundary" inkscape:connector-curvature="0" />
	<path style="fill:none;stroke:red;stroke-width:1px;stroke-linecap:butt;stroke-linejoin:miter;stroke-opacity:1" d="M 937.323,350.558 922.654,363.394 z" id="boundary" inkscape:connector-curvature="0" />
	<path style="fill:none;stroke:red;stroke-width:1px;stroke-linecap:butt;stroke-linejoin:miter;stroke-opacity:1" d="M 922.654,363.394 909.819,378.063 z" id="boundary" inkscape:connector-curvature="0" />
	<path style="fill:none;stroke:red;stroke-width:1px;stroke-linecap:butt;stroke-linejoin:miter;stroke-opacity:1" d="M 909.819,378.063 891.482,381.73 z" id="boundary" inkscape:connector-curvature="0" />
	<path style="fill:none;stroke:red;stroke-width:1px;stroke-linecap:butt;stroke-linejoin:miter;stroke-opacity:1" d="M 891.482,381.73 873.146,381.73 z" id="boundary" inkscape:connector-curvature="0" />
	<path style="fill:none;stroke:red;stroke-width:1px;stroke-linecap:butt;stroke-linejoin:miter;stroke-opacity:1" d="M 513.752,4 532.089,4 z" id="boundary" inkscape:connector-curvature="0" />
	<circle cx="4" cy="238.706" r="4" fill="#0" id="circle0"/>
	<circle cx="13.1682" cy="255.209" r="4" fill="#0" id="circle1"/>
	<circle cx="18.6691" cy="224.037" r="4" fill="#0" id="circle2"/>
	<circle cx="22.3364" cy="284.547" r="4" fill="#0" id="circle3"/>
	<circle cx="22.3364" cy="302.884" r="4" fill="#0" id="circle4"/>
	<circle cx="22.3364" cy="321.22" r="4" fill="#0" id="circle5"/>
	<circle cx="33.3383" cy="209.368" r="4" fill="#0" id="circle6"/>
	<circle cx="37.0055" cy="334.055" r="4" fill="#0" id="circle7"/>
	<circle cx="44.3401" cy="352.392" r="4" fill="#0" id="circle8"/>
	<circle cx="51.6747" cy="214.869" r="4" fill="#0" id="circle9"/>
	<circle cx="62.6765" cy="359.726" r="4" fill="#0" id="circle10"/>
	<circle cx="68.1774" cy="205.701" r="4" fill="#0" id="circle11"/>
	<circle cx="79.1793" cy="191.031" r="4" fill="#0" id="circle12"/>
	<circle cx="81.0129" cy="363.394" r="4" fill="#0" id="circle13"/>
	<circle cx="93.8484" cy="178.196" r="4" fill="#0" id="circle14"/>
	<circle cx="97.5157" cy="372.562" r="4" fill="#0" id="circle15"/>
	<circle cx="112.185" cy="178.196" r="4" fill="#0" id="circle16"/>
	<circle cx="114.018" cy="363.394" r="4" fill="#0" id="circle17"/>
	<circle cx="123.187" cy="147.024" r="4" fill="#0" id="circle18"/>
	<circle cx="132.355" cy="128.688" r="4" fill="#0" id="circle19"/>
	<circle cx="132.355" cy="363.394" r="4" fill="#0" id="circle20"/>
	<circle cx="137.856" cy="381.73" r="4" fill="#0" id="circle21"/>
	<circle cx="147.024" cy="114.018" r="4" fill="#0" id="circle22"/>
	<circle cx="154.359" cy="390.898" r="4" fill="#0" id="circle23"/>
	<circle cx="165.36" cy="114.018" r="4" fill="#0" id="circle24"/>
	<circle cx="170.861" cy="400.067" r="4" fill="#0" id="circle25"/>
	<circle cx="183.697" cy="114.018" r="4" fill="#0" id="circle26"/>
	<circle cx="189.198" cy="400.067" r="4" fill="#0" id="circle27"/>
	<circle cx="200.2" cy="104.85" r="4" fill="#0" id="circle28"/>
	<circle cx="207.534" cy="400.067" r="4" fill="#0" id="circle29"/>
	<circle cx="218.536" cy="104.85" r="4" fill="#0" id="circle30"/>
	<circle cx="225.871" cy="400.067" r="4" fill="#0" id="circle31"/>
	<circle cx="235.039" cy="114.018" r="4" fill="#0" id="circle32"/>
	<circle cx="240.54" cy="387.231" r="4" fill="#0" id="circle33"/>
	<circle cx="251.542" cy="104.85" r="4" fill="#0" id="circle34"/>
	<circle cx="258.876" cy="378.063" r="4" fill="#0" id="circle35"/>
	<circle cx="269.878" cy="104.85" r="4" fill="#0" id="circle36"/>
	<circle cx="271.712" cy="335.889" r="4" fill="#0" id="circle37"/>
	<circle cx="271.712" cy="354.226" r="4" fill="#0" id="circle38"/>
	<circle cx="286.381" cy="114.018" r="4" fill="#0" id="circle39"/>
	<circle cx="290.048" cy="335.889" r="4" fill="#0" id="circle40"/>
	<circle cx="304.717" cy="114.018" r="4" fill="#0" id="circle41"/>
	<circle cx="308.384" cy="339.556" r="4" fill="#0" id="circle42"/>
	<circle cx="321.22" cy="104.85" r="4" fill="#0" id="circle43"/>
	<circle cx="326.721" cy="339.556" r="4" fill="#0" id="circle44"/>
	<circle cx="339.556" cy="104.85" r="4" fill="#0" id="circle45"/>
	<circle cx="345.057" cy="339.556" r="4" fill="#0" id="circle46"/>
	<circle cx="356.059" cy="114.018" r="4" fill="#0" id="circle47"/>
	<circle cx="363.394" cy="335.889" r="4" fill="#0" id="circle48"/>
	<circle cx="374.396" cy="114.018" r="4" fill="#0" id="circle49"/>
	<circle cx="381.73" cy="335.889" r="4" fill="#0" id="circle50"/>
	<circle cx="389.065" cy="27.8373" r="4" fill="#0" id="circle51"/>
	<circle cx="389.065" cy="46.1738" r="4" fill="#0" id="circle52"/>
	<circle cx="389.065" cy="73.6784" r="4" fill="#0" id="circle53"/>
	<circle cx="389.065" cy="101.183" r="4" fill="#0" id="circle54"/>
	<circle cx="400.067" cy="335.889" r="4" fill="#0" id="circle55"/>
	<circle cx="407.401" cy="22.3364" r="4" fill="#0" id="circle56"/>
	<circle cx="418.403" cy="335.889" r="4" fill="#0" id="circle57"/>
	<circle cx="423.904" cy="13.1682" r="4" fill="#0" id="circle58"/>
	<circle cx="434.906" cy="345.057" r="4" fill="#0" id="circle59"/>
	<circle cx="442.24" cy="13.1682" r="4" fill="#0" id="circle60"/>
	<circle cx="453.242" cy="345.057" r="4" fill="#0" id="circle61"/>
	<circle cx="460.577" cy="13.1682" r="4" fill="#0" id="circle62"/>
	<circle cx="471.579" cy="345.057" r="4" fill="#0" id="circle63"/>
	<circle cx="478.913" cy="13.1682" r="4" fill="#0" id="circle64"/>
	<circle cx="489.915" cy="345.057" r="4" fill="#0" id="circle65"/>
	<circle cx="495.416" cy="4" r="4" fill="#0" id="circle66"/>
	<circle cx="508.251" cy="345.057" r="4" fill="#0" id="circle67"/>
	<circle cx="513.752" cy="4" r="4" fill="#0" id="circle68"/>
	<circle cx="526.588" cy="345.057" r="4" fill="#0" id="circle69"/>
	<circle cx="532.089" cy="4" r="4" fill="#0" id="circle70"/>
	<circle cx="544.924" cy="345.057" r="4" fill="#0" id="circle71"/>
	<circle cx="550.425" cy="4" r="4" fill="#0" id="circle72"/>
	<circle cx="563.261" cy="345.057" r="4" fill="#0" id="circle73"/>
	<circle cx="568.762" cy="4" r="4" fill="#0" id="circle74"/>
	<circle cx="581.597" cy="345.057" r="4" fill="#0" id="circle75"/>
	<circle cx="587.098" cy="4" r="4" fill="#0" id="circle76"/>
	<circle cx="599.933" cy="345.057" r="4" fill="#0" id="circle77"/>
	<circle cx="605.434" cy="4" r="4" fill="#0" id="circle78"/>
	<circle cx="618.27" cy="345.057" r="4" fill="#0" id="circle79"/>
	<circle cx="623.771" cy="4" r="4" fill="#0" id="circle80"/>
	<circle cx="636.606" cy="345.057" r="4" fill="#0" id="circle81"/>
	<circle cx="642.107" cy="4" r="4" fill="#0" id="circle82"/>
	<circle cx="654.943" cy="345.057" r="4" fill="#0" id="circle83"/>
	<circle cx="660.444" cy="4" r="4" fill="#0" id="circle84"/>
	<circle cx="673.279" cy="345.057" r="4" fill="#0" id="circle85"/>
	<circle cx="678.78" cy="4" r="4" fill="#0" id="circle86"/>
	<circle cx="691.616" cy="339.556" r="4" fill="#0" id="circle87"/>
	<circle cx="697.116" cy="4" r="4" fill="#0" id="circle88"/>
	<circle cx="709.952" cy="345.057" r="4" fill="#0" id="circle89"/>
	<circle cx="715.453" cy="4" r="4" fill="#0" id="circle90"/>
	<circle cx="726.455" cy="354.226" r="4" fill="#0" id="circle91"/>
	<circle cx="733.789" cy="4" r="4" fill="#0" id="circle92"/>
	<circle cx="744.791" cy="354.226" r="4" fill="#0" id="circle93"/>
	<circle cx="752.126" cy="4" r="4" fill="#0" id="circle94"/>
	<circle cx="761.294" cy="345.057" r="4" fill="#0" id="circle95"/>
	<circle cx="770.462" cy="4" r="4" fill="#0" id="circle96"/>
	<circle cx="777.797" cy="335.889" r="4" fill="#0" id="circle97"/>
	<circle cx="788.799" cy="4" r="4" fill="#0" id="circle98"/>
	<circle cx="796.133" cy="335.889" r="4" fill="#0" id="circle99"/>
	<circle cx="807.135" cy="4" r="4" fill="#0" id="circle100"/>
	<circle cx="810.802" cy="346.891" r="4" fill="#0" id="circle101"/>
	<circle cx="823.638" cy="361.56" r="4" fill="#0" id="circle102"/>
	<circle cx="825.471" cy="4" r="4" fill="#0" id="circle103"/>
	<circle cx="838.307" cy="372.562" r="4" fill="#0" id="circle104"/>
	<circle cx="843.808" cy="4" r="4" fill="#0" id="circle105"/>
	<circle cx="854.81" cy="381.73" r="4" fill="#0" id="circle106"/>
	<circle cx="862.144" cy="4" r="4" fill="#0" id="circle107"/>
	<circle cx="873.146" cy="381.73" r="4" fill="#0" id="circle108"/>
	<circle cx="880.481" cy="4" r="4" fill="#0" id="circle109"/>
	<circle cx="891.482" cy="381.73" r="4" fill="#0" id="circle110"/>
	<circle cx="893.316" cy="18.6691" r="4" fill="#0" id="circle111"/>
	<circle cx="895.15" cy="42.5065" r="4" fill="#0" id="circle112"/>
	<circle cx="904.318" cy="59.0092" r="4" fill="#0" id="circle113"/>
	<circle cx="904.318" cy="77.3457" r="4" fill="#0" id="circle114"/>
	<circle cx="904.318" cy="95.6821" r="4" fill="#0" id="circle115"/>
	<circle cx="904.318" cy="114.018" r="4" fill="#0" id="circle116"/>
	<circle cx="904.318" cy="132.355" r="4" fill="#0" id="circle117"/>
	<circle cx="904.318" cy="150.691" r="4" fill="#0" id="circle118"/>
	<circle cx="909.819" cy="378.063" r="4" fill="#0" id="circle119"/>
	<circle cx="922.654" cy="156.192" r="4" fill="#0" id="circle120"/>
	<circle cx="922.654" cy="363.394" r="4" fill="#0" id="circle121"/>
	<circle cx="937.323" cy="350.558" r="4" fill="#0" id="circle122"/>
	<circle cx="940.991" cy="159.86" r="4" fill="#0" id="circle123"/>
	<circle cx="940.991" cy="326.721" r="4" fill="#0" id="circle124"/>
	<circle cx="955.66" cy="313.885" r="4" fill="#0" id="circle125"/>
	<circle cx="959.327" cy="165.36" r="4" fill="#0" id="circle126"/>
	<circle cx="972.163" cy="180.03" r="4" fill="#0" id="circle127"/>
	<circle cx="973.996" cy="308.384" r="4" fill="#0" id="circle128"/>
	<circle cx="981.331" cy="196.532" r="4" fill="#0" id="circle129"/>
	<circle cx="986.832" cy="214.869" r="4" fill="#0" id="circle130"/>
	<circle cx="992.333" cy="308.384" r="4" fill="#0" id="circle131"/>
	<circle cx="996" cy="231.372" r="4" fill="#0" id="circle132"/>
	<circle cx="996" cy="249.708" r="4" fill="#0" id="circle133"/>
	<circle cx="996" cy="268.044" r="4" fill="#0" id="circle134"/>
	<circle cx="996" cy="290.048" r="4" fill="#0" id="circle135"/>
	</g>
</svg>