<?xml version="1.0" encoding="UTF-8" standalone="no"?>
<!-- Created with CurveBenchmark -->
<svg
	xmlns:dc="http://purl.org/dc/elements/1.1/"
	xmlns:cc="http://creativecommons.org/ns#"
	xmlns:rdf="http://www.w3.org/1999/02/22-rdf-syntax-ns#"
	xmlns:svg="http://www.w3.org/2000/svg"
	xmlns="http://www.w3.org/2000/svg"
	xmlns:sodipodi="http://sodipodi.sourceforge.net/DTD/sodipodi-0.dtd"
	xmlns:inkscape="http://www.inkscape.org/namespaces/inkscape"
	width="1000"
	height="1000"
	id="svg2"
	version="1.1"
	sodipodi:docname="manifold/gathang-sink220.png.txt">
<defs
	id="defs4" />
<metadata
	id="metadata7">
	<rdf:RDF>
		<cc:Work
			rdf:about="">
			<dc:format>image/svg+xml</dc:format>
			<dc:type
				rdf:resource="http://purl.org/dc/dcmitype/StillImage" />
			<dc:title></dc:title>
		</cc:Work>
	</rdf:RDF>
</metadata>
<g
	inkscape:label="Layer 1"
	inkscape:groupmode="layer"
	id="layer1">
	<path style="fill:none;stroke:red;stroke-width:1px;stroke-linecap:butt;stroke-linejoin:miter;stroke-opacity:1" d="M 4,294.341 42.7122,265.307 z" id="boundary" inkscape:connector-curvature="0" />
	<path style="fill:none;stroke:red;stroke-width:1px;stroke-linecap:butt;stroke-linejoin:miter;stroke-opacity:1" d="M 313.698,52.3902 284.663,168.527 z" id="boundary" inkscape:connector-curvature="0" />
	<path style="fill:none;stroke:red;stroke-width:1px;stroke-linecap:butt;stroke-linejoin:miter;stroke-opacity:1" d="M 42.7122,265.307 91.1024,265.307 z" id="boundary" inkscape:connector-curvature="0" />
	<path style="fill:none;stroke:red;stroke-width:1px;stroke-linecap:butt;stroke-linejoin:miter;stroke-opacity:1" d="M 95.9415,318.537 120.137,362.088 z" id="boundary" inkscape:connector-curvature="0" />
	<path style="fill:none;stroke:red;stroke-width:1px;stroke-linecap:butt;stroke-linejoin:miter;stroke-opacity:1" d="M 120.137,362.088 134.654,410.478 z" id="boundary" inkscape:connector-curvature="0" />
	<path style="fill:none;stroke:red;stroke-width:1px;stroke-linecap:butt;stroke-linejoin:miter;stroke-opacity:1" d="M 91.1024,265.307 139.493,265.307 z" id="boundary" inkscape:connector-curvature="0" />
	<path style="fill:none;stroke:red;stroke-width:1px;stroke-linecap:butt;stroke-linejoin:miter;stroke-opacity:1" d="M 134.654,410.478 139.493,458.868 z" id="boundary" inkscape:connector-curvature="0" />
	<path style="fill:none;stroke:red;stroke-width:1px;stroke-linecap:butt;stroke-linejoin:miter;stroke-opacity:1" d="M 265.307,216.917 236.273,255.629 z" id="boundary" inkscape:connector-curvature="0" />
	<path style="fill:none;stroke:red;stroke-width:1px;stroke-linecap:butt;stroke-linejoin:miter;stroke-opacity:1" d="M 236.273,255.629 187.883,265.307 z" id="boundary" inkscape:connector-curvature="0" />
	<path style="fill:none;stroke:red;stroke-width:1px;stroke-linecap:butt;stroke-linejoin:miter;stroke-opacity:1" d="M 187.883,265.307 139.493,265.307 z" id="boundary" inkscape:connector-curvature="0" />
	<path style="fill:none;stroke:red;stroke-width:1px;stroke-linecap:butt;stroke-linejoin:miter;stroke-opacity:1" d="M 357.249,454.029 308.859,468.546 z" id="boundary" inkscape:connector-curvature="0" />
	<path style="fill:none;stroke:red;stroke-width:1px;stroke-linecap:butt;stroke-linejoin:miter;stroke-opacity:1" d="M 139.493,458.868 139.493,507.259 z" id="boundary" inkscape:connector-curvature="0" />
	<path style="fill:none;stroke:red;stroke-width:1px;stroke-linecap:butt;stroke-linejoin:miter;stroke-opacity:1" d="M 308.859,468.546 308.859,516.937 z" id="boundary" inkscape:connector-curvature="0" />
	<path style="fill:none;stroke:red;stroke-width:1px;stroke-linecap:butt;stroke-linejoin:miter;stroke-opacity:1" d="M 333.054,168.527 265.307,216.917 z" id="boundary" inkscape:connector-curvature="0" />
	<path style="fill:none;stroke:red;stroke-width:1px;stroke-linecap:butt;stroke-linejoin:miter;stroke-opacity:1" d="M 139.493,507.259 139.493,555.649 z" id="boundary" inkscape:connector-curvature="0" />
	<path style="fill:none;stroke:red;stroke-width:1px;stroke-linecap:butt;stroke-linejoin:miter;stroke-opacity:1" d="M 139.493,604.039 139.493,652.429 z" id="boundary" inkscape:connector-curvature="0" />
	<path style="fill:none;stroke:red;stroke-width:1px;stroke-linecap:butt;stroke-linejoin:miter;stroke-opacity:1" d="M 139.493,604.039 139.493,555.649 z" id="boundary" inkscape:connector-curvature="0" />
	<path style="fill:none;stroke:red;stroke-width:1px;stroke-linecap:butt;stroke-linejoin:miter;stroke-opacity:1" d="M 139.493,700.82 139.493,652.429 z" id="boundary" inkscape:connector-curvature="0" />
	<path style="fill:none;stroke:red;stroke-width:1px;stroke-linecap:butt;stroke-linejoin:miter;stroke-opacity:1" d="M 163.688,996 115.298,996 z" id="boundary" inkscape:connector-curvature="0" />
	<path style="fill:none;stroke:red;stroke-width:1px;stroke-linecap:butt;stroke-linejoin:miter;stroke-opacity:1" d="M 115.298,996 91.1024,952.449 z" id="boundary" inkscape:connector-curvature="0" />
	<path style="fill:none;stroke:red;stroke-width:1px;stroke-linecap:butt;stroke-linejoin:miter;stroke-opacity:1" d="M 91.1024,952.449 120.137,894.38 z" id="boundary" inkscape:connector-curvature="0" />
	<path style="fill:none;stroke:red;stroke-width:1px;stroke-linecap:butt;stroke-linejoin:miter;stroke-opacity:1" d="M 139.493,700.82 139.493,749.21 z" id="boundary" inkscape:connector-curvature="0" />
	<path style="fill:none;stroke:red;stroke-width:1px;stroke-linecap:butt;stroke-linejoin:miter;stroke-opacity:1" d="M 139.493,749.21 139.493,797.6 z" id="boundary" inkscape:connector-curvature="0" />
	<path style="fill:none;stroke:red;stroke-width:1px;stroke-linecap:butt;stroke-linejoin:miter;stroke-opacity:1" d="M 308.859,565.327 308.859,613.717 z" id="boundary" inkscape:connector-curvature="0" />
	<path style="fill:none;stroke:red;stroke-width:1px;stroke-linecap:butt;stroke-linejoin:miter;stroke-opacity:1" d="M 308.859,516.937 308.859,565.327 z" id="boundary" inkscape:connector-curvature="0" />
	<path style="fill:none;stroke:red;stroke-width:1px;stroke-linecap:butt;stroke-linejoin:miter;stroke-opacity:1" d="M 139.493,845.99 139.493,797.6 z" id="boundary" inkscape:connector-curvature="0" />
	<path style="fill:none;stroke:red;stroke-width:1px;stroke-linecap:butt;stroke-linejoin:miter;stroke-opacity:1" d="M 120.137,894.38 139.493,845.99 z" id="boundary" inkscape:connector-curvature="0" />
	<path style="fill:none;stroke:red;stroke-width:1px;stroke-linecap:butt;stroke-linejoin:miter;stroke-opacity:1" d="M 212.078,996 163.688,996 z" id="boundary" inkscape:connector-curvature="0" />
	<path style="fill:none;stroke:red;stroke-width:1px;stroke-linecap:butt;stroke-linejoin:miter;stroke-opacity:1" d="M 260.468,996 212.078,996 z" id="boundary" inkscape:connector-curvature="0" />
	<path style="fill:none;stroke:red;stroke-width:1px;stroke-linecap:butt;stroke-linejoin:miter;stroke-opacity:1" d="M 308.859,613.717 308.859,662.107 z" id="boundary" inkscape:connector-curvature="0" />
	<path style="fill:none;stroke:red;stroke-width:1px;stroke-linecap:butt;stroke-linejoin:miter;stroke-opacity:1" d="M 395.961,37.8732 352.41,13.678 z" id="boundary" inkscape:connector-curvature="0" />
	<path style="fill:none;stroke:red;stroke-width:1px;stroke-linecap:butt;stroke-linejoin:miter;stroke-opacity:1" d="M 313.698,52.3902 352.41,13.678 z" id="boundary" inkscape:connector-curvature="0" />
	<path style="fill:none;stroke:red;stroke-width:1px;stroke-linecap:butt;stroke-linejoin:miter;stroke-opacity:1" d="M 333.054,168.527 381.444,168.527 z" id="boundary" inkscape:connector-curvature="0" />
	<path style="fill:none;stroke:red;stroke-width:1px;stroke-linecap:butt;stroke-linejoin:miter;stroke-opacity:1" d="M 381.444,168.527 429.834,168.527 z" id="boundary" inkscape:connector-curvature="0" />
	<path style="fill:none;stroke:red;stroke-width:1px;stroke-linecap:butt;stroke-linejoin:miter;stroke-opacity:1" d="M 444.351,52.3902 395.961,37.8732 z" id="boundary" inkscape:connector-curvature="0" />
	<path style="fill:none;stroke:red;stroke-width:1px;stroke-linecap:butt;stroke-linejoin:miter;stroke-opacity:1" d="M 444.351,52.3902 468.546,95.9415 z" id="boundary" inkscape:connector-curvature="0" />
	<path style="fill:none;stroke:red;stroke-width:1px;stroke-linecap:butt;stroke-linejoin:miter;stroke-opacity:1" d="M 502.42,134.654 468.546,95.9415 z" id="boundary" inkscape:connector-curvature="0" />
	<path style="fill:none;stroke:red;stroke-width:1px;stroke-linecap:butt;stroke-linejoin:miter;stroke-opacity:1" d="M 541.132,168.527 589.522,168.527 z" id="boundary" inkscape:connector-curvature="0" />
	<path style="fill:none;stroke:red;stroke-width:1px;stroke-linecap:butt;stroke-linejoin:miter;stroke-opacity:1" d="M 589.522,168.527 618.556,207.239 z" id="boundary" inkscape:connector-curvature="0" />
	<path style="fill:none;stroke:red;stroke-width:1px;stroke-linecap:butt;stroke-linejoin:miter;stroke-opacity:1" d="M 541.132,168.527 502.42,134.654 z" id="boundary" inkscape:connector-curvature="0" />
	<path style="fill:none;stroke:red;stroke-width:1px;stroke-linecap:butt;stroke-linejoin:miter;stroke-opacity:1" d="M 618.556,207.239 618.556,255.629 z" id="boundary" inkscape:connector-curvature="0" />
	<path style="fill:none;stroke:red;stroke-width:1px;stroke-linecap:butt;stroke-linejoin:miter;stroke-opacity:1" d="M 308.859,662.107 308.859,710.498 z" id="boundary" inkscape:connector-curvature="0" />
	<path style="fill:none;stroke:red;stroke-width:1px;stroke-linecap:butt;stroke-linejoin:miter;stroke-opacity:1" d="M 308.859,758.888 308.859,710.498 z" id="boundary" inkscape:connector-curvature="0" />
	<path style="fill:none;stroke:red;stroke-width:1px;stroke-linecap:butt;stroke-linejoin:miter;stroke-opacity:1" d="M 308.859,758.888 308.859,807.278 z" id="boundary" inkscape:connector-curvature="0" />
	<path style="fill:none;stroke:red;stroke-width:1px;stroke-linecap:butt;stroke-linejoin:miter;stroke-opacity:1" d="M 308.859,855.668 323.376,904.059 z" id="boundary" inkscape:connector-curvature="0" />
	<path style="fill:none;stroke:red;stroke-width:1px;stroke-linecap:butt;stroke-linejoin:miter;stroke-opacity:1" d="M 308.859,996 260.468,996 z" id="boundary" inkscape:connector-curvature="0" />
	<path style="fill:none;stroke:red;stroke-width:1px;stroke-linecap:butt;stroke-linejoin:miter;stroke-opacity:1" d="M 323.376,904.059 347.571,947.61 z" id="boundary" inkscape:connector-curvature="0" />
	<path style="fill:none;stroke:red;stroke-width:1px;stroke-linecap:butt;stroke-linejoin:miter;stroke-opacity:1" d="M 308.859,855.668 308.859,807.278 z" id="boundary" inkscape:connector-curvature="0" />
	<path style="fill:none;stroke:red;stroke-width:1px;stroke-linecap:butt;stroke-linejoin:miter;stroke-opacity:1" d="M 347.571,947.61 357.249,996 z" id="boundary" inkscape:connector-curvature="0" />
	<path style="fill:none;stroke:red;stroke-width:1px;stroke-linecap:butt;stroke-linejoin:miter;stroke-opacity:1" d="M 357.249,996 308.859,996 z" id="boundary" inkscape:connector-curvature="0" />
	<path style="fill:none;stroke:red;stroke-width:1px;stroke-linecap:butt;stroke-linejoin:miter;stroke-opacity:1" d="M 444.351,410.478 463.707,333.054 z" id="boundary" inkscape:connector-curvature="0" />
	<path style="fill:none;stroke:red;stroke-width:1px;stroke-linecap:butt;stroke-linejoin:miter;stroke-opacity:1" d="M 463.707,333.054 512.098,318.537 z" id="boundary" inkscape:connector-curvature="0" />
	<path style="fill:none;stroke:red;stroke-width:1px;stroke-linecap:butt;stroke-linejoin:miter;stroke-opacity:1" d="M 512.098,318.537 560.488,318.537 z" id="boundary" inkscape:connector-curvature="0" />
	<path style="fill:none;stroke:red;stroke-width:1px;stroke-linecap:butt;stroke-linejoin:miter;stroke-opacity:1" d="M 608.878,318.537 560.488,318.537 z" id="boundary" inkscape:connector-curvature="0" />
	<path style="fill:none;stroke:red;stroke-width:1px;stroke-linecap:butt;stroke-linejoin:miter;stroke-opacity:1" d="M 618.556,255.629 608.878,318.537 z" id="boundary" inkscape:connector-curvature="0" />
	<path style="fill:none;stroke:red;stroke-width:1px;stroke-linecap:butt;stroke-linejoin:miter;stroke-opacity:1" d="M 405.639,444.351 444.351,410.478 z" id="boundary" inkscape:connector-curvature="0" />
	<path style="fill:none;stroke:red;stroke-width:1px;stroke-linecap:butt;stroke-linejoin:miter;stroke-opacity:1" d="M 405.639,444.351 357.249,454.029 z" id="boundary" inkscape:connector-curvature="0" />
	<circle cx="4" cy="294.341" r="4" fill="#0" id="circle0"/>
	<circle cx="42.7122" cy="265.307" r="4" fill="#0" id="circle1"/>
	<circle cx="47.5512" cy="318.537" r="4" fill="#0" id="circle2"/>
	<circle cx="91.1024" cy="265.307" r="4" fill="#0" id="circle3"/>
	<circle cx="91.1024" cy="952.449" r="4" fill="#0" id="circle4"/>
	<circle cx="95.9415" cy="318.537" r="4" fill="#0" id="circle5"/>
	<circle cx="115.298" cy="996" r="4" fill="#0" id="circle6"/>
	<circle cx="120.137" cy="362.088" r="4" fill="#0" id="circle7"/>
	<circle cx="120.137" cy="894.38" r="4" fill="#0" id="circle8"/>
	<circle cx="134.654" cy="410.478" r="4" fill="#0" id="circle9"/>
	<circle cx="139.493" cy="265.307" r="4" fill="#0" id="circle10"/>
	<circle cx="139.493" cy="458.868" r="4" fill="#0" id="circle11"/>
	<circle cx="139.493" cy="507.259" r="4" fill="#0" id="circle12"/>
	<circle cx="139.493" cy="555.649" r="4" fill="#0" id="circle13"/>
	<circle cx="139.493" cy="604.039" r="4" fill="#0" id="circle14"/>
	<circle cx="139.493" cy="652.429" r="4" fill="#0" id="circle15"/>
	<circle cx="139.493" cy="700.82" r="4" fill="#0" id="circle16"/>
	<circle cx="139.493" cy="749.21" r="4" fill="#0" id="circle17"/>
	<circle cx="139.493" cy="797.6" r="4" fill="#0" id="circle18"/>
	<circle cx="139.493" cy="845.99" r="4" fill="#0" id="circle19"/>
	<circle cx="163.688" cy="996" r="4" fill="#0" id="circle20"/>
	<circle cx="187.883" cy="265.307" r="4" fill="#0" id="circle21"/>
	<circle cx="212.078" cy="996" r="4" fill="#0" id="circle22"/>
	<circle cx="236.273" cy="255.629" r="4" fill="#0" id="circle23"/>
	<circle cx="260.468" cy="996" r="4" fill="#0" id="circle24"/>
	<circle cx="265.307" cy="216.917" r="4" fill="#0" id="circle25"/>
	<circle cx="284.663" cy="168.527" r="4" fill="#0" id="circle26"/>
	<circle cx="308.859" cy="468.546" r="4" fill="#0" id="circle27"/>
	<circle cx="308.859" cy="516.937" r="4" fill="#0" id="circle28"/>
	<circle cx="308.859" cy="565.327" r="4" fill="#0" id="circle29"/>
	<circle cx="308.859" cy="613.717" r="4" fill="#0" id="circle30"/>
	<circle cx="308.859" cy="662.107" r="4" fill="#0" id="circle31"/>
	<circle cx="308.859" cy="710.498" r="4" fill="#0" id="circle32"/>
	<circle cx="308.859" cy="758.888" r="4" fill="#0" id="circle33"/>
	<circle cx="308.859" cy="807.278" r="4" fill="#0" id="circle34"/>
	<circle cx="308.859" cy="855.668" r="4" fill="#0" id="circle35"/>
	<circle cx="308.859" cy="996" r="4" fill="#0" id="circle36"/>
	<circle cx="313.698" cy="52.3902" r="4" fill="#0" id="circle37"/>
	<circle cx="323.376" cy="904.059" r="4" fill="#0" id="circle38"/>
	<circle cx="333.054" cy="168.527" r="4" fill="#0" id="circle39"/>
	<circle cx="347.571" cy="947.61" r="4" fill="#0" id="circle40"/>
	<circle cx="352.41" cy="13.678" r="4" fill="#0" id="circle41"/>
	<circle cx="357.249" cy="454.029" r="4" fill="#0" id="circle42"/>
	<circle cx="357.249" cy="996" r="4" fill="#0" id="circle43"/>
	<circle cx="381.444" cy="168.527" r="4" fill="#0" id="circle44"/>
	<circle cx="395.961" cy="37.8732" r="4" fill="#0" id="circle45"/>
	<circle cx="405.639" cy="444.351" r="4" fill="#0" id="circle46"/>
	<circle cx="429.834" cy="168.527" r="4" fill="#0" id="circle47"/>
	<circle cx="434.673" cy="4" r="4" fill="#0" id="circle48"/>
	<circle cx="444.351" cy="52.3902" r="4" fill="#0" id="circle49"/>
	<circle cx="444.351" cy="410.478" r="4" fill="#0" id="circle50"/>
	<circle cx="463.707" cy="333.054" r="4" fill="#0" id="circle51"/>
	<circle cx="468.546" cy="95.9415" r="4" fill="#0" id="circle52"/>
	<circle cx="492.741" cy="52.3902" r="4" fill="#0" id="circle53"/>
	<circle cx="502.42" cy="134.654" r="4" fill="#0" id="circle54"/>
	<circle cx="512.098" cy="318.537" r="4" fill="#0" id="circle55"/>
	<circle cx="541.132" cy="168.527" r="4" fill="#0" id="circle56"/>
	<circle cx="560.488" cy="318.537" r="4" fill="#0" id="circle57"/>
	<circle cx="589.522" cy="168.527" r="4" fill="#0" id="circle58"/>
	<circle cx="608.878" cy="318.537" r="4" fill="#0" id="circle59"/>
	<circle cx="618.556" cy="207.239" r="4" fill="#0" id="circle60"/>
	<circle cx="618.556" cy="255.629" r="4" fill="#0" id="circle61"/>
	</g>
</svg>