<?xml version="1.0" encoding="UTF-8" standalone="no"?>
<!-- Created with CurveBenchmark -->
<svg
	xmlns:dc="http://purl.org/dc/elements/1.1/"
	xmlns:cc="http://creativecommons.org/ns#"
	xmlns:rdf="http://www.w3.org/1999/02/22-rdf-syntax-ns#"
	xmlns:svg="http://www.w3.org/2000/svg"
	xmlns="http://www.w3.org/2000/svg"
	xmlns:sodipodi="http://sodipodi.sourceforge.net/DTD/sodipodi-0.dtd"
	xmlns:inkscape="http://www.inkscape.org/namespaces/inkscape"
	width="1000"
	height="1000"
	id="svg2"
	version="1.1"
	sodipodi:docname="manifold/gathan1-fish-15.png.txt">
<defs
	id="defs4" />
<metadata
	id="metadata7">
	<rdf:RDF>
		<cc:Work
			rdf:about="">
			<dc:format>image/svg+xml</dc:format>
			<dc:type
				rdf:resource="http://purl.org/dc/dcmitype/StillImage" />
			<dc:title></dc:title>
		</cc:Work>
	</rdf:RDF>
</metadata>
<g
	inkscape:label="Layer 1"
	inkscape:groupmode="layer"
	id="layer1">
	<path style="fill:none;stroke:red;stroke-width:1px;stroke-linecap:butt;stroke-linejoin:miter;stroke-opacity:1" d="M 96.8432,96.0067 105.207,96.0067 z" id="boundary" inkscape:connector-curvature="0" />
	<path style="fill:none;stroke:red;stroke-width:1px;stroke-linecap:butt;stroke-linejoin:miter;stroke-opacity:1" d="M 88.4789,97.6796 96.8432,96.0067 z" id="boundary" inkscape:connector-curvature="0" />
	<path style="fill:none;stroke:red;stroke-width:1px;stroke-linecap:butt;stroke-linejoin:miter;stroke-opacity:1" d="M 105.207,96.0067 113.572,96.0067 z" id="boundary" inkscape:connector-curvature="0" />
	<path style="fill:none;stroke:red;stroke-width:1px;stroke-linecap:butt;stroke-linejoin:miter;stroke-opacity:1" d="M 121.936,96.0067 113.572,96.0067 z" id="boundary" inkscape:connector-curvature="0" />
	<path style="fill:none;stroke:red;stroke-width:1px;stroke-linecap:butt;stroke-linejoin:miter;stroke-opacity:1" d="M 121.936,96.0067 130.3,96.0067 z" id="boundary" inkscape:connector-curvature="0" />
	<path style="fill:none;stroke:red;stroke-width:1px;stroke-linecap:butt;stroke-linejoin:miter;stroke-opacity:1" d="M 138.664,96.0067 130.3,96.0067 z" id="boundary" inkscape:connector-curvature="0" />
	<path style="fill:none;stroke:red;stroke-width:1px;stroke-linecap:butt;stroke-linejoin:miter;stroke-opacity:1" d="M 138.664,96.0067 147.029,96.0067 z" id="boundary" inkscape:connector-curvature="0" />
	<path style="fill:none;stroke:red;stroke-width:1px;stroke-linecap:butt;stroke-linejoin:miter;stroke-opacity:1" d="M 155.393,96.0067 147.029,96.0067 z" id="boundary" inkscape:connector-curvature="0" />
	<path style="fill:none;stroke:red;stroke-width:1px;stroke-linecap:butt;stroke-linejoin:miter;stroke-opacity:1" d="M 197.214,96.0067 188.85,96.0067 z" id="boundary" inkscape:connector-curvature="0" />
	<path style="fill:none;stroke:red;stroke-width:1px;stroke-linecap:butt;stroke-linejoin:miter;stroke-opacity:1" d="M 221.47,77.6054 221.47,69.2411 z" id="boundary" inkscape:connector-curvature="0" />
	<path style="fill:none;stroke:red;stroke-width:1px;stroke-linecap:butt;stroke-linejoin:miter;stroke-opacity:1" d="M 228.162,83.4604 221.47,77.6054 z" id="boundary" inkscape:connector-curvature="0" />
	<path style="fill:none;stroke:red;stroke-width:1px;stroke-linecap:butt;stroke-linejoin:miter;stroke-opacity:1" d="M 221.47,69.2411 228.162,62.5497 z" id="boundary" inkscape:connector-curvature="0" />
	<path style="fill:none;stroke:red;stroke-width:1px;stroke-linecap:butt;stroke-linejoin:miter;stroke-opacity:1" d="M 235.69,87.6425 228.162,83.4604 z" id="boundary" inkscape:connector-curvature="0" />
	<path style="fill:none;stroke:red;stroke-width:1px;stroke-linecap:butt;stroke-linejoin:miter;stroke-opacity:1" d="M 163.757,96.0067 155.393,96.0067 z" id="boundary" inkscape:connector-curvature="0" />
	<path style="fill:none;stroke:red;stroke-width:1px;stroke-linecap:butt;stroke-linejoin:miter;stroke-opacity:1" d="M 172.121,96.0067 163.757,96.0067 z" id="boundary" inkscape:connector-curvature="0" />
	<path style="fill:none;stroke:red;stroke-width:1px;stroke-linecap:butt;stroke-linejoin:miter;stroke-opacity:1" d="M 188.85,96.0067 180.486,96.0067 z" id="boundary" inkscape:connector-curvature="0" />
	<path style="fill:none;stroke:red;stroke-width:1px;stroke-linecap:butt;stroke-linejoin:miter;stroke-opacity:1" d="M 180.486,96.0067 172.121,96.0067 z" id="boundary" inkscape:connector-curvature="0" />
	<path style="fill:none;stroke:red;stroke-width:1px;stroke-linecap:butt;stroke-linejoin:miter;stroke-opacity:1" d="M 228.162,62.5497 236.526,58.3676 z" id="boundary" inkscape:connector-curvature="0" />
	<path style="fill:none;stroke:red;stroke-width:1px;stroke-linecap:butt;stroke-linejoin:miter;stroke-opacity:1" d="M 30.7656,116.917 38.2934,112.735 z" id="boundary" inkscape:connector-curvature="0" />
	<path style="fill:none;stroke:red;stroke-width:1px;stroke-linecap:butt;stroke-linejoin:miter;stroke-opacity:1" d="M 38.2934,112.735 46.6577,110.226 z" id="boundary" inkscape:connector-curvature="0" />
	<path style="fill:none;stroke:red;stroke-width:1px;stroke-linecap:butt;stroke-linejoin:miter;stroke-opacity:1" d="M 55.0219,108.553 46.6577,110.226 z" id="boundary" inkscape:connector-curvature="0" />
	<path style="fill:none;stroke:red;stroke-width:1px;stroke-linecap:butt;stroke-linejoin:miter;stroke-opacity:1" d="M 23.2378,121.099 30.7656,116.917 z" id="boundary" inkscape:connector-curvature="0" />
	<path style="fill:none;stroke:red;stroke-width:1px;stroke-linecap:butt;stroke-linejoin:miter;stroke-opacity:1" d="M 4,148.702 4,140.337 z" id="boundary" inkscape:connector-curvature="0" />
	<path style="fill:none;stroke:red;stroke-width:1px;stroke-linecap:butt;stroke-linejoin:miter;stroke-opacity:1" d="M 4,140.337 10.6914,133.646 z" id="boundary" inkscape:connector-curvature="0" />
	<path style="fill:none;stroke:red;stroke-width:1px;stroke-linecap:butt;stroke-linejoin:miter;stroke-opacity:1" d="M 14.8735,125.282 10.6914,133.646 z" id="boundary" inkscape:connector-curvature="0" />
	<path style="fill:none;stroke:red;stroke-width:1px;stroke-linecap:butt;stroke-linejoin:miter;stroke-opacity:1" d="M 14.8735,125.282 23.2378,121.099 z" id="boundary" inkscape:connector-curvature="0" />
	<path style="fill:none;stroke:red;stroke-width:1px;stroke-linecap:butt;stroke-linejoin:miter;stroke-opacity:1" d="M 80.1147,100.189 88.4789,97.6796 z" id="boundary" inkscape:connector-curvature="0" />
	<path style="fill:none;stroke:red;stroke-width:1px;stroke-linecap:butt;stroke-linejoin:miter;stroke-opacity:1" d="M 205.578,96.0067 213.943,98.516 z" id="boundary" inkscape:connector-curvature="0" />
	<path style="fill:none;stroke:red;stroke-width:1px;stroke-linecap:butt;stroke-linejoin:miter;stroke-opacity:1" d="M 197.214,96.0067 205.578,96.0067 z" id="boundary" inkscape:connector-curvature="0" />
	<path style="fill:none;stroke:red;stroke-width:1px;stroke-linecap:butt;stroke-linejoin:miter;stroke-opacity:1" d="M 63.3862,106.044 71.7504,101.862 z" id="boundary" inkscape:connector-curvature="0" />
	<path style="fill:none;stroke:red;stroke-width:1px;stroke-linecap:butt;stroke-linejoin:miter;stroke-opacity:1" d="M 71.7504,101.862 80.1147,100.189 z" id="boundary" inkscape:connector-curvature="0" />
	<path style="fill:none;stroke:red;stroke-width:1px;stroke-linecap:butt;stroke-linejoin:miter;stroke-opacity:1" d="M 63.3862,106.044 55.0219,108.553 z" id="boundary" inkscape:connector-curvature="0" />
	<path style="fill:none;stroke:red;stroke-width:1px;stroke-linecap:butt;stroke-linejoin:miter;stroke-opacity:1" d="M 222.307,100.189 213.943,98.516 z" id="boundary" inkscape:connector-curvature="0" />
	<path style="fill:none;stroke:red;stroke-width:1px;stroke-linecap:butt;stroke-linejoin:miter;stroke-opacity:1" d="M 230.671,100.189 222.307,100.189 z" id="boundary" inkscape:connector-curvature="0" />
	<path style="fill:none;stroke:red;stroke-width:1px;stroke-linecap:butt;stroke-linejoin:miter;stroke-opacity:1" d="M 239.035,100.189 230.671,100.189 z" id="boundary" inkscape:connector-curvature="0" />
	<path style="fill:none;stroke:red;stroke-width:1px;stroke-linecap:butt;stroke-linejoin:miter;stroke-opacity:1" d="M 376.209,37.457 384.573,37.457 z" id="boundary" inkscape:connector-curvature="0" />
	<path style="fill:none;stroke:red;stroke-width:1px;stroke-linecap:butt;stroke-linejoin:miter;stroke-opacity:1" d="M 368.681,41.6391 376.209,37.457 z" id="boundary" inkscape:connector-curvature="0" />
	<path style="fill:none;stroke:red;stroke-width:1px;stroke-linecap:butt;stroke-linejoin:miter;stroke-opacity:1" d="M 401.302,37.457 392.938,37.457 z" id="boundary" inkscape:connector-curvature="0" />
	<path style="fill:none;stroke:red;stroke-width:1px;stroke-linecap:butt;stroke-linejoin:miter;stroke-opacity:1" d="M 392.938,37.457 384.573,37.457 z" id="boundary" inkscape:connector-curvature="0" />
	<path style="fill:none;stroke:red;stroke-width:1px;stroke-linecap:butt;stroke-linejoin:miter;stroke-opacity:1" d="M 343.589,41.6391 351.953,41.6391 z" id="boundary" inkscape:connector-curvature="0" />
	<path style="fill:none;stroke:red;stroke-width:1px;stroke-linecap:butt;stroke-linejoin:miter;stroke-opacity:1" d="M 336.061,45.8212 343.589,41.6391 z" id="boundary" inkscape:connector-curvature="0" />
	<path style="fill:none;stroke:red;stroke-width:1px;stroke-linecap:butt;stroke-linejoin:miter;stroke-opacity:1" d="M 368.681,41.6391 360.317,41.6391 z" id="boundary" inkscape:connector-curvature="0" />
	<path style="fill:none;stroke:red;stroke-width:1px;stroke-linecap:butt;stroke-linejoin:miter;stroke-opacity:1" d="M 360.317,41.6391 351.953,41.6391 z" id="boundary" inkscape:connector-curvature="0" />
	<path style="fill:none;stroke:red;stroke-width:1px;stroke-linecap:butt;stroke-linejoin:miter;stroke-opacity:1" d="M 401.302,37.457 409.666,37.457 z" id="boundary" inkscape:connector-curvature="0" />
	<path style="fill:none;stroke:red;stroke-width:1px;stroke-linecap:butt;stroke-linejoin:miter;stroke-opacity:1" d="M 418.03,37.457 409.666,37.457 z" id="boundary" inkscape:connector-curvature="0" />
	<path style="fill:none;stroke:red;stroke-width:1px;stroke-linecap:butt;stroke-linejoin:miter;stroke-opacity:1" d="M 426.395,37.457 434.759,37.457 z" id="boundary" inkscape:connector-curvature="0" />
	<path style="fill:none;stroke:red;stroke-width:1px;stroke-linecap:butt;stroke-linejoin:miter;stroke-opacity:1" d="M 426.395,37.457 418.03,37.457 z" id="boundary" inkscape:connector-curvature="0" />
	<path style="fill:none;stroke:red;stroke-width:1px;stroke-linecap:butt;stroke-linejoin:miter;stroke-opacity:1" d="M 434.759,37.457 443.123,37.457 z" id="boundary" inkscape:connector-curvature="0" />
	<path style="fill:none;stroke:red;stroke-width:1px;stroke-linecap:butt;stroke-linejoin:miter;stroke-opacity:1" d="M 451.487,37.457 443.123,37.457 z" id="boundary" inkscape:connector-curvature="0" />
	<path style="fill:none;stroke:red;stroke-width:1px;stroke-linecap:butt;stroke-linejoin:miter;stroke-opacity:1" d="M 459.852,37.457 468.216,37.457 z" id="boundary" inkscape:connector-curvature="0" />
	<path style="fill:none;stroke:red;stroke-width:1px;stroke-linecap:butt;stroke-linejoin:miter;stroke-opacity:1" d="M 468.216,37.457 475.744,41.6391 z" id="boundary" inkscape:connector-curvature="0" />
	<path style="fill:none;stroke:red;stroke-width:1px;stroke-linecap:butt;stroke-linejoin:miter;stroke-opacity:1" d="M 451.487,37.457 459.852,37.457 z" id="boundary" inkscape:connector-curvature="0" />
	<path style="fill:none;stroke:red;stroke-width:1px;stroke-linecap:butt;stroke-linejoin:miter;stroke-opacity:1" d="M 244.054,90.9882 235.69,87.6425 z" id="boundary" inkscape:connector-curvature="0" />
	<path style="fill:none;stroke:red;stroke-width:1px;stroke-linecap:butt;stroke-linejoin:miter;stroke-opacity:1" d="M 244.89,58.3676 236.526,58.3676 z" id="boundary" inkscape:connector-curvature="0" />
	<path style="fill:none;stroke:red;stroke-width:1px;stroke-linecap:butt;stroke-linejoin:miter;stroke-opacity:1" d="M 261.619,54.1855 253.255,58.3676 z" id="boundary" inkscape:connector-curvature="0" />
	<path style="fill:none;stroke:red;stroke-width:1px;stroke-linecap:butt;stroke-linejoin:miter;stroke-opacity:1" d="M 253.255,58.3676 244.89,58.3676 z" id="boundary" inkscape:connector-curvature="0" />
	<path style="fill:none;stroke:red;stroke-width:1px;stroke-linecap:butt;stroke-linejoin:miter;stroke-opacity:1" d="M 247.4,100.189 239.035,100.189 z" id="boundary" inkscape:connector-curvature="0" />
	<path style="fill:none;stroke:red;stroke-width:1px;stroke-linecap:butt;stroke-linejoin:miter;stroke-opacity:1" d="M 247.4,100.189 255.764,96.8432 z" id="boundary" inkscape:connector-curvature="0" />
	<path style="fill:none;stroke:red;stroke-width:1px;stroke-linecap:butt;stroke-linejoin:miter;stroke-opacity:1" d="M 261.619,54.1855 269.983,54.1855 z" id="boundary" inkscape:connector-curvature="0" />
	<path style="fill:none;stroke:red;stroke-width:1px;stroke-linecap:butt;stroke-linejoin:miter;stroke-opacity:1" d="M 310.968,45.8212 319.332,45.8212 z" id="boundary" inkscape:connector-curvature="0" />
	<path style="fill:none;stroke:red;stroke-width:1px;stroke-linecap:butt;stroke-linejoin:miter;stroke-opacity:1" d="M 303.44,50.0034 310.968,45.8212 z" id="boundary" inkscape:connector-curvature="0" />
	<path style="fill:none;stroke:red;stroke-width:1px;stroke-linecap:butt;stroke-linejoin:miter;stroke-opacity:1" d="M 336.061,45.8212 327.696,45.8212 z" id="boundary" inkscape:connector-curvature="0" />
	<path style="fill:none;stroke:red;stroke-width:1px;stroke-linecap:butt;stroke-linejoin:miter;stroke-opacity:1" d="M 327.696,45.8212 319.332,45.8212 z" id="boundary" inkscape:connector-curvature="0" />
	<path style="fill:none;stroke:red;stroke-width:1px;stroke-linecap:butt;stroke-linejoin:miter;stroke-opacity:1" d="M 269.983,54.1855 278.347,50.0034 z" id="boundary" inkscape:connector-curvature="0" />
	<path style="fill:none;stroke:red;stroke-width:1px;stroke-linecap:butt;stroke-linejoin:miter;stroke-opacity:1" d="M 278.347,50.0034 286.712,50.0034 z" id="boundary" inkscape:connector-curvature="0" />
	<path style="fill:none;stroke:red;stroke-width:1px;stroke-linecap:butt;stroke-linejoin:miter;stroke-opacity:1" d="M 286.712,50.0034 295.076,50.0034 z" id="boundary" inkscape:connector-curvature="0" />
	<path style="fill:none;stroke:red;stroke-width:1px;stroke-linecap:butt;stroke-linejoin:miter;stroke-opacity:1" d="M 303.44,50.0034 295.076,50.0034 z" id="boundary" inkscape:connector-curvature="0" />
	<path style="fill:none;stroke:red;stroke-width:1px;stroke-linecap:butt;stroke-linejoin:miter;stroke-opacity:1" d="M 8.18212,172.958 4,165.43 z" id="boundary" inkscape:connector-curvature="0" />
	<path style="fill:none;stroke:red;stroke-width:1px;stroke-linecap:butt;stroke-linejoin:miter;stroke-opacity:1" d="M 4,165.43 4,157.066 z" id="boundary" inkscape:connector-curvature="0" />
	<path style="fill:none;stroke:red;stroke-width:1px;stroke-linecap:butt;stroke-linejoin:miter;stroke-opacity:1" d="M 4,157.066 4,148.702 z" id="boundary" inkscape:connector-curvature="0" />
	<path style="fill:none;stroke:red;stroke-width:1px;stroke-linecap:butt;stroke-linejoin:miter;stroke-opacity:1" d="M 12.3642,180.486 19.8921,184.668 z" id="boundary" inkscape:connector-curvature="0" />
	<path style="fill:none;stroke:red;stroke-width:1px;stroke-linecap:butt;stroke-linejoin:miter;stroke-opacity:1" d="M 19.8921,184.668 25.747,191.359 z" id="boundary" inkscape:connector-curvature="0" />
	<path style="fill:none;stroke:red;stroke-width:1px;stroke-linecap:butt;stroke-linejoin:miter;stroke-opacity:1" d="M 12.3642,180.486 8.18212,172.958 z" id="boundary" inkscape:connector-curvature="0" />
	<path style="fill:none;stroke:red;stroke-width:1px;stroke-linecap:butt;stroke-linejoin:miter;stroke-opacity:1" d="M 25.747,191.359 34.1113,194.705 z" id="boundary" inkscape:connector-curvature="0" />
	<path style="fill:none;stroke:red;stroke-width:1px;stroke-linecap:butt;stroke-linejoin:miter;stroke-opacity:1" d="M 34.1113,194.705 41.6391,198.887 z" id="boundary" inkscape:connector-curvature="0" />
	<path style="fill:none;stroke:red;stroke-width:1px;stroke-linecap:butt;stroke-linejoin:miter;stroke-opacity:1" d="M 222.307,188.85 230.671,188.85 z" id="boundary" inkscape:connector-curvature="0" />
	<path style="fill:none;stroke:red;stroke-width:1px;stroke-linecap:butt;stroke-linejoin:miter;stroke-opacity:1" d="M 214.779,193.032 222.307,188.85 z" id="boundary" inkscape:connector-curvature="0" />
	<path style="fill:none;stroke:red;stroke-width:1px;stroke-linecap:butt;stroke-linejoin:miter;stroke-opacity:1" d="M 247.4,188.85 239.035,188.85 z" id="boundary" inkscape:connector-curvature="0" />
	<path style="fill:none;stroke:red;stroke-width:1px;stroke-linecap:butt;stroke-linejoin:miter;stroke-opacity:1" d="M 239.035,188.85 230.671,188.85 z" id="boundary" inkscape:connector-curvature="0" />
	<path style="fill:none;stroke:red;stroke-width:1px;stroke-linecap:butt;stroke-linejoin:miter;stroke-opacity:1" d="M 182.159,197.214 190.523,197.214 z" id="boundary" inkscape:connector-curvature="0" />
	<path style="fill:none;stroke:red;stroke-width:1px;stroke-linecap:butt;stroke-linejoin:miter;stroke-opacity:1" d="M 174.631,201.396 182.159,197.214 z" id="boundary" inkscape:connector-curvature="0" />
	<path style="fill:none;stroke:red;stroke-width:1px;stroke-linecap:butt;stroke-linejoin:miter;stroke-opacity:1" d="M 198.051,193.032 190.523,197.214 z" id="boundary" inkscape:connector-curvature="0" />
	<path style="fill:none;stroke:red;stroke-width:1px;stroke-linecap:butt;stroke-linejoin:miter;stroke-opacity:1" d="M 198.051,193.032 206.415,193.032 z" id="boundary" inkscape:connector-curvature="0" />
	<path style="fill:none;stroke:red;stroke-width:1px;stroke-linecap:butt;stroke-linejoin:miter;stroke-opacity:1" d="M 214.779,193.032 206.415,193.032 z" id="boundary" inkscape:connector-curvature="0" />
	<path style="fill:none;stroke:red;stroke-width:1px;stroke-linecap:butt;stroke-linejoin:miter;stroke-opacity:1" d="M 157.902,201.396 149.538,203.906 z" id="boundary" inkscape:connector-curvature="0" />
	<path style="fill:none;stroke:red;stroke-width:1px;stroke-linecap:butt;stroke-linejoin:miter;stroke-opacity:1" d="M 41.6391,198.887 50.0034,201.396 z" id="boundary" inkscape:connector-curvature="0" />
	<path style="fill:none;stroke:red;stroke-width:1px;stroke-linecap:butt;stroke-linejoin:miter;stroke-opacity:1" d="M 50.0034,201.396 57.5312,205.578 z" id="boundary" inkscape:connector-curvature="0" />
	<path style="fill:none;stroke:red;stroke-width:1px;stroke-linecap:butt;stroke-linejoin:miter;stroke-opacity:1" d="M 74.2597,205.578 65.8954,205.578 z" id="boundary" inkscape:connector-curvature="0" />
	<path style="fill:none;stroke:red;stroke-width:1px;stroke-linecap:butt;stroke-linejoin:miter;stroke-opacity:1" d="M 57.5312,205.578 65.8954,205.578 z" id="boundary" inkscape:connector-curvature="0" />
	<path style="fill:none;stroke:red;stroke-width:1px;stroke-linecap:butt;stroke-linejoin:miter;stroke-opacity:1" d="M 74.2597,205.578 82.6239,205.578 z" id="boundary" inkscape:connector-curvature="0" />
	<path style="fill:none;stroke:red;stroke-width:1px;stroke-linecap:butt;stroke-linejoin:miter;stroke-opacity:1" d="M 90.9882,205.578 99.3524,205.578 z" id="boundary" inkscape:connector-curvature="0" />
	<path style="fill:none;stroke:red;stroke-width:1px;stroke-linecap:butt;stroke-linejoin:miter;stroke-opacity:1" d="M 82.6239,205.578 90.9882,205.578 z" id="boundary" inkscape:connector-curvature="0" />
	<path style="fill:none;stroke:red;stroke-width:1px;stroke-linecap:butt;stroke-linejoin:miter;stroke-opacity:1" d="M 157.902,201.396 166.266,201.396 z" id="boundary" inkscape:connector-curvature="0" />
	<path style="fill:none;stroke:red;stroke-width:1px;stroke-linecap:butt;stroke-linejoin:miter;stroke-opacity:1" d="M 166.266,201.396 174.631,201.396 z" id="boundary" inkscape:connector-curvature="0" />
	<path style="fill:none;stroke:red;stroke-width:1px;stroke-linecap:butt;stroke-linejoin:miter;stroke-opacity:1" d="M 124.445,205.578 116.081,205.578 z" id="boundary" inkscape:connector-curvature="0" />
	<path style="fill:none;stroke:red;stroke-width:1px;stroke-linecap:butt;stroke-linejoin:miter;stroke-opacity:1" d="M 141.174,205.578 149.538,203.906 z" id="boundary" inkscape:connector-curvature="0" />
	<path style="fill:none;stroke:red;stroke-width:1px;stroke-linecap:butt;stroke-linejoin:miter;stroke-opacity:1" d="M 107.717,205.578 116.081,205.578 z" id="boundary" inkscape:connector-curvature="0" />
	<path style="fill:none;stroke:red;stroke-width:1px;stroke-linecap:butt;stroke-linejoin:miter;stroke-opacity:1" d="M 107.717,205.578 99.3524,205.578 z" id="boundary" inkscape:connector-curvature="0" />
	<path style="fill:none;stroke:red;stroke-width:1px;stroke-linecap:butt;stroke-linejoin:miter;stroke-opacity:1" d="M 124.445,205.578 132.809,205.578 z" id="boundary" inkscape:connector-curvature="0" />
	<path style="fill:none;stroke:red;stroke-width:1px;stroke-linecap:butt;stroke-linejoin:miter;stroke-opacity:1" d="M 141.174,205.578 132.809,205.578 z" id="boundary" inkscape:connector-curvature="0" />
	<path style="fill:none;stroke:red;stroke-width:1px;stroke-linecap:butt;stroke-linejoin:miter;stroke-opacity:1" d="M 272.492,184.668 280.857,184.668 z" id="boundary" inkscape:connector-curvature="0" />
	<path style="fill:none;stroke:red;stroke-width:1px;stroke-linecap:butt;stroke-linejoin:miter;stroke-opacity:1" d="M 289.221,184.668 297.585,184.668 z" id="boundary" inkscape:connector-curvature="0" />
	<path style="fill:none;stroke:red;stroke-width:1px;stroke-linecap:butt;stroke-linejoin:miter;stroke-opacity:1" d="M 289.221,184.668 280.857,184.668 z" id="boundary" inkscape:connector-curvature="0" />
	<path style="fill:none;stroke:red;stroke-width:1px;stroke-linecap:butt;stroke-linejoin:miter;stroke-opacity:1" d="M 255.764,188.85 264.128,188.85 z" id="boundary" inkscape:connector-curvature="0" />
	<path style="fill:none;stroke:red;stroke-width:1px;stroke-linecap:butt;stroke-linejoin:miter;stroke-opacity:1" d="M 272.492,184.668 264.128,188.85 z" id="boundary" inkscape:connector-curvature="0" />
	<path style="fill:none;stroke:red;stroke-width:1px;stroke-linecap:butt;stroke-linejoin:miter;stroke-opacity:1" d="M 292.567,207.251 299.258,200.56 z" id="boundary" inkscape:connector-curvature="0" />
	<path style="fill:none;stroke:red;stroke-width:1px;stroke-linecap:butt;stroke-linejoin:miter;stroke-opacity:1" d="M 292.567,207.251 288.384,219.798 z" id="boundary" inkscape:connector-curvature="0" />
	<path style="fill:none;stroke:red;stroke-width:1px;stroke-linecap:butt;stroke-linejoin:miter;stroke-opacity:1" d="M 306.786,196.378 299.258,200.56 z" id="boundary" inkscape:connector-curvature="0" />
	<path style="fill:none;stroke:red;stroke-width:1px;stroke-linecap:butt;stroke-linejoin:miter;stroke-opacity:1" d="M 255.764,188.85 247.4,188.85 z" id="boundary" inkscape:connector-curvature="0" />
	<path style="fill:none;stroke:red;stroke-width:1px;stroke-linecap:butt;stroke-linejoin:miter;stroke-opacity:1" d="M 297.585,184.668 305.949,184.668 z" id="boundary" inkscape:connector-curvature="0" />
	<path style="fill:none;stroke:red;stroke-width:1px;stroke-linecap:butt;stroke-linejoin:miter;stroke-opacity:1" d="M 305.949,184.668 314.314,184.668 z" id="boundary" inkscape:connector-curvature="0" />
	<path style="fill:none;stroke:red;stroke-width:1px;stroke-linecap:butt;stroke-linejoin:miter;stroke-opacity:1" d="M 314.314,184.668 306.786,196.378 z" id="boundary" inkscape:connector-curvature="0" />
	<path style="fill:none;stroke:red;stroke-width:1px;stroke-linecap:butt;stroke-linejoin:miter;stroke-opacity:1" d="M 471.562,203.906 463.197,208.088 z" id="boundary" inkscape:connector-curvature="0" />
	<path style="fill:none;stroke:red;stroke-width:1px;stroke-linecap:butt;stroke-linejoin:miter;stroke-opacity:1" d="M 432.25,218.125 440.614,218.125 z" id="boundary" inkscape:connector-curvature="0" />
	<path style="fill:none;stroke:red;stroke-width:1px;stroke-linecap:butt;stroke-linejoin:miter;stroke-opacity:1" d="M 424.722,222.307 432.25,218.125 z" id="boundary" inkscape:connector-curvature="0" />
	<path style="fill:none;stroke:red;stroke-width:1px;stroke-linecap:butt;stroke-linejoin:miter;stroke-opacity:1" d="M 456.506,213.943 448.978,218.125 z" id="boundary" inkscape:connector-curvature="0" />
	<path style="fill:none;stroke:red;stroke-width:1px;stroke-linecap:butt;stroke-linejoin:miter;stroke-opacity:1" d="M 448.978,218.125 440.614,218.125 z" id="boundary" inkscape:connector-curvature="0" />
	<path style="fill:none;stroke:red;stroke-width:1px;stroke-linecap:butt;stroke-linejoin:miter;stroke-opacity:1" d="M 463.197,208.088 456.506,213.943 z" id="boundary" inkscape:connector-curvature="0" />
	<path style="fill:none;stroke:red;stroke-width:1px;stroke-linecap:butt;stroke-linejoin:miter;stroke-opacity:1" d="M 288.384,219.798 292.567,227.325 z" id="boundary" inkscape:connector-curvature="0" />
	<path style="fill:none;stroke:red;stroke-width:1px;stroke-linecap:butt;stroke-linejoin:miter;stroke-opacity:1" d="M 300.931,230.671 292.567,227.325 z" id="boundary" inkscape:connector-curvature="0" />
	<path style="fill:none;stroke:red;stroke-width:1px;stroke-linecap:butt;stroke-linejoin:miter;stroke-opacity:1" d="M 309.295,230.671 300.931,230.671 z" id="boundary" inkscape:connector-curvature="0" />
	<path style="fill:none;stroke:red;stroke-width:1px;stroke-linecap:butt;stroke-linejoin:miter;stroke-opacity:1" d="M 317.659,230.671 309.295,230.671 z" id="boundary" inkscape:connector-curvature="0" />
	<path style="fill:none;stroke:red;stroke-width:1px;stroke-linecap:butt;stroke-linejoin:miter;stroke-opacity:1" d="M 342.752,230.671 334.388,230.671 z" id="boundary" inkscape:connector-curvature="0" />
	<path style="fill:none;stroke:red;stroke-width:1px;stroke-linecap:butt;stroke-linejoin:miter;stroke-opacity:1" d="M 351.116,230.671 342.752,230.671 z" id="boundary" inkscape:connector-curvature="0" />
	<path style="fill:none;stroke:red;stroke-width:1px;stroke-linecap:butt;stroke-linejoin:miter;stroke-opacity:1" d="M 326.024,230.671 317.659,230.671 z" id="boundary" inkscape:connector-curvature="0" />
	<path style="fill:none;stroke:red;stroke-width:1px;stroke-linecap:butt;stroke-linejoin:miter;stroke-opacity:1" d="M 334.388,230.671 326.024,230.671 z" id="boundary" inkscape:connector-curvature="0" />
	<path style="fill:none;stroke:red;stroke-width:1px;stroke-linecap:butt;stroke-linejoin:miter;stroke-opacity:1" d="M 375.373,226.489 367.008,226.489 z" id="boundary" inkscape:connector-curvature="0" />
	<path style="fill:none;stroke:red;stroke-width:1px;stroke-linecap:butt;stroke-linejoin:miter;stroke-opacity:1" d="M 400.465,226.489 407.993,222.307 z" id="boundary" inkscape:connector-curvature="0" />
	<path style="fill:none;stroke:red;stroke-width:1px;stroke-linecap:butt;stroke-linejoin:miter;stroke-opacity:1" d="M 407.993,222.307 416.358,222.307 z" id="boundary" inkscape:connector-curvature="0" />
	<path style="fill:none;stroke:red;stroke-width:1px;stroke-linecap:butt;stroke-linejoin:miter;stroke-opacity:1" d="M 416.358,222.307 424.722,222.307 z" id="boundary" inkscape:connector-curvature="0" />
	<path style="fill:none;stroke:red;stroke-width:1px;stroke-linecap:butt;stroke-linejoin:miter;stroke-opacity:1" d="M 375.373,226.489 383.737,226.489 z" id="boundary" inkscape:connector-curvature="0" />
	<path style="fill:none;stroke:red;stroke-width:1px;stroke-linecap:butt;stroke-linejoin:miter;stroke-opacity:1" d="M 359.481,230.671 367.008,226.489 z" id="boundary" inkscape:connector-curvature="0" />
	<path style="fill:none;stroke:red;stroke-width:1px;stroke-linecap:butt;stroke-linejoin:miter;stroke-opacity:1" d="M 383.737,226.489 392.101,226.489 z" id="boundary" inkscape:connector-curvature="0" />
	<path style="fill:none;stroke:red;stroke-width:1px;stroke-linecap:butt;stroke-linejoin:miter;stroke-opacity:1" d="M 400.465,226.489 392.101,226.489 z" id="boundary" inkscape:connector-curvature="0" />
	<path style="fill:none;stroke:red;stroke-width:1px;stroke-linecap:butt;stroke-linejoin:miter;stroke-opacity:1" d="M 359.481,230.671 351.116,230.671 z" id="boundary" inkscape:connector-curvature="0" />
	<path style="fill:none;stroke:red;stroke-width:1px;stroke-linecap:butt;stroke-linejoin:miter;stroke-opacity:1" d="M 475.744,41.6391 483.272,45.8212 z" id="boundary" inkscape:connector-curvature="0" />
	<path style="fill:none;stroke:red;stroke-width:1px;stroke-linecap:butt;stroke-linejoin:miter;stroke-opacity:1" d="M 627.973,22.4013 634.664,16.5464 z" id="boundary" inkscape:connector-curvature="0" />
	<path style="fill:none;stroke:red;stroke-width:1px;stroke-linecap:butt;stroke-linejoin:miter;stroke-opacity:1" d="M 634.664,16.5464 642.192,12.3642 z" id="boundary" inkscape:connector-curvature="0" />
	<path style="fill:none;stroke:red;stroke-width:1px;stroke-linecap:butt;stroke-linejoin:miter;stroke-opacity:1" d="M 650.556,8.18212 658.921,8.18212 z" id="boundary" inkscape:connector-curvature="0" />
	<path style="fill:none;stroke:red;stroke-width:1px;stroke-linecap:butt;stroke-linejoin:miter;stroke-opacity:1" d="M 642.192,12.3642 650.556,8.18212 z" id="boundary" inkscape:connector-curvature="0" />
	<path style="fill:none;stroke:red;stroke-width:1px;stroke-linecap:butt;stroke-linejoin:miter;stroke-opacity:1" d="M 666.449,4 658.921,8.18212 z" id="boundary" inkscape:connector-curvature="0" />
	<path style="fill:none;stroke:red;stroke-width:1px;stroke-linecap:butt;stroke-linejoin:miter;stroke-opacity:1" d="M 615.427,34.9477 622.118,29.0927 z" id="boundary" inkscape:connector-curvature="0" />
	<path style="fill:none;stroke:red;stroke-width:1px;stroke-linecap:butt;stroke-linejoin:miter;stroke-opacity:1" d="M 615.427,34.9477 608.735,41.6391 z" id="boundary" inkscape:connector-curvature="0" />
	<path style="fill:none;stroke:red;stroke-width:1px;stroke-linecap:butt;stroke-linejoin:miter;stroke-opacity:1" d="M 608.735,41.6391 601.207,45.8212 z" id="boundary" inkscape:connector-curvature="0" />
	<path style="fill:none;stroke:red;stroke-width:1px;stroke-linecap:butt;stroke-linejoin:miter;stroke-opacity:1" d="M 622.118,29.0927 627.973,22.4013 z" id="boundary" inkscape:connector-curvature="0" />
	<path style="fill:none;stroke:red;stroke-width:1px;stroke-linecap:butt;stroke-linejoin:miter;stroke-opacity:1" d="M 673.976,8.18212 666.449,4 z" id="boundary" inkscape:connector-curvature="0" />
	<path style="fill:none;stroke:red;stroke-width:1px;stroke-linecap:butt;stroke-linejoin:miter;stroke-opacity:1" d="M 682.341,8.18212 673.976,8.18212 z" id="boundary" inkscape:connector-curvature="0" />
	<path style="fill:none;stroke:red;stroke-width:1px;stroke-linecap:butt;stroke-linejoin:miter;stroke-opacity:1" d="M 682.341,8.18212 689.032,13.2007 z" id="boundary" inkscape:connector-curvature="0" />
	<path style="fill:none;stroke:red;stroke-width:1px;stroke-linecap:butt;stroke-linejoin:miter;stroke-opacity:1" d="M 689.032,13.2007 694.887,19.8921 z" id="boundary" inkscape:connector-curvature="0" />
	<path style="fill:none;stroke:red;stroke-width:1px;stroke-linecap:butt;stroke-linejoin:miter;stroke-opacity:1" d="M 694.887,19.8921 701.578,25.747 z" id="boundary" inkscape:connector-curvature="0" />
	<path style="fill:none;stroke:red;stroke-width:1px;stroke-linecap:butt;stroke-linejoin:miter;stroke-opacity:1" d="M 701.578,25.747 705.761,33.2749 z" id="boundary" inkscape:connector-curvature="0" />
	<path style="fill:none;stroke:red;stroke-width:1px;stroke-linecap:butt;stroke-linejoin:miter;stroke-opacity:1" d="M 719.143,44.1484 711.616,39.9663 z" id="boundary" inkscape:connector-curvature="0" />
	<path style="fill:none;stroke:red;stroke-width:1px;stroke-linecap:butt;stroke-linejoin:miter;stroke-opacity:1" d="M 711.616,39.9663 705.761,33.2749 z" id="boundary" inkscape:connector-curvature="0" />
	<path style="fill:none;stroke:red;stroke-width:1px;stroke-linecap:butt;stroke-linejoin:miter;stroke-opacity:1" d="M 719.143,44.1484 723.325,51.6762 z" id="boundary" inkscape:connector-curvature="0" />
	<path style="fill:none;stroke:red;stroke-width:1px;stroke-linecap:butt;stroke-linejoin:miter;stroke-opacity:1" d="M 483.272,45.8212 491.636,45.8212 z" id="boundary" inkscape:connector-curvature="0" />
	<path style="fill:none;stroke:red;stroke-width:1px;stroke-linecap:butt;stroke-linejoin:miter;stroke-opacity:1" d="M 491.636,45.8212 499.164,50.0034 z" id="boundary" inkscape:connector-curvature="0" />
	<path style="fill:none;stroke:red;stroke-width:1px;stroke-linecap:butt;stroke-linejoin:miter;stroke-opacity:1" d="M 499.164,50.0034 506.691,54.1855 z" id="boundary" inkscape:connector-curvature="0" />
	<path style="fill:none;stroke:red;stroke-width:1px;stroke-linecap:butt;stroke-linejoin:miter;stroke-opacity:1" d="M 515.056,56.6948 506.691,54.1855 z" id="boundary" inkscape:connector-curvature="0" />
	<path style="fill:none;stroke:red;stroke-width:1px;stroke-linecap:butt;stroke-linejoin:miter;stroke-opacity:1" d="M 515.056,56.6948 522.583,60.8769 z" id="boundary" inkscape:connector-curvature="0" />
	<path style="fill:none;stroke:red;stroke-width:1px;stroke-linecap:butt;stroke-linejoin:miter;stroke-opacity:1" d="M 530.948,62.5497 522.583,60.8769 z" id="boundary" inkscape:connector-curvature="0" />
	<path style="fill:none;stroke:red;stroke-width:1px;stroke-linecap:butt;stroke-linejoin:miter;stroke-opacity:1" d="M 530.948,62.5497 539.312,64.2226 z" id="boundary" inkscape:connector-curvature="0" />
	<path style="fill:none;stroke:red;stroke-width:1px;stroke-linecap:butt;stroke-linejoin:miter;stroke-opacity:1" d="M 547.676,62.5497 539.312,64.2226 z" id="boundary" inkscape:connector-curvature="0" />
	<path style="fill:none;stroke:red;stroke-width:1px;stroke-linecap:butt;stroke-linejoin:miter;stroke-opacity:1" d="M 594.516,51.6762 601.207,45.8212 z" id="boundary" inkscape:connector-curvature="0" />
	<path style="fill:none;stroke:red;stroke-width:1px;stroke-linecap:butt;stroke-linejoin:miter;stroke-opacity:1" d="M 594.516,51.6762 588.661,58.3676 z" id="boundary" inkscape:connector-curvature="0" />
	<path style="fill:none;stroke:red;stroke-width:1px;stroke-linecap:butt;stroke-linejoin:miter;stroke-opacity:1" d="M 581.133,62.5497 588.661,58.3676 z" id="boundary" inkscape:connector-curvature="0" />
	<path style="fill:none;stroke:red;stroke-width:1px;stroke-linecap:butt;stroke-linejoin:miter;stroke-opacity:1" d="M 547.676,62.5497 556.04,62.5497 z" id="boundary" inkscape:connector-curvature="0" />
	<path style="fill:none;stroke:red;stroke-width:1px;stroke-linecap:butt;stroke-linejoin:miter;stroke-opacity:1" d="M 556.04,62.5497 564.405,62.5497 z" id="boundary" inkscape:connector-curvature="0" />
	<path style="fill:none;stroke:red;stroke-width:1px;stroke-linecap:butt;stroke-linejoin:miter;stroke-opacity:1" d="M 572.769,62.5497 564.405,62.5497 z" id="boundary" inkscape:connector-curvature="0" />
	<path style="fill:none;stroke:red;stroke-width:1px;stroke-linecap:butt;stroke-linejoin:miter;stroke-opacity:1" d="M 581.133,62.5497 572.769,62.5497 z" id="boundary" inkscape:connector-curvature="0" />
	<path style="fill:none;stroke:red;stroke-width:1px;stroke-linecap:butt;stroke-linejoin:miter;stroke-opacity:1" d="M 730.853,55.8583 723.325,51.6762 z" id="boundary" inkscape:connector-curvature="0" />
	<path style="fill:none;stroke:red;stroke-width:1px;stroke-linecap:butt;stroke-linejoin:miter;stroke-opacity:1" d="M 730.853,55.8583 739.218,58.3676 z" id="boundary" inkscape:connector-curvature="0" />
	<path style="fill:none;stroke:red;stroke-width:1px;stroke-linecap:butt;stroke-linejoin:miter;stroke-opacity:1" d="M 747.582,58.3676 755.11,62.5497 z" id="boundary" inkscape:connector-curvature="0" />
	<path style="fill:none;stroke:red;stroke-width:1px;stroke-linecap:butt;stroke-linejoin:miter;stroke-opacity:1" d="M 739.218,58.3676 747.582,58.3676 z" id="boundary" inkscape:connector-curvature="0" />
	<path style="fill:none;stroke:red;stroke-width:1px;stroke-linecap:butt;stroke-linejoin:miter;stroke-opacity:1" d="M 763.474,62.5497 755.11,62.5497 z" id="boundary" inkscape:connector-curvature="0" />
	<path style="fill:none;stroke:red;stroke-width:1px;stroke-linecap:butt;stroke-linejoin:miter;stroke-opacity:1" d="M 763.474,62.5497 771.002,66.7319 z" id="boundary" inkscape:connector-curvature="0" />
	<path style="fill:none;stroke:red;stroke-width:1px;stroke-linecap:butt;stroke-linejoin:miter;stroke-opacity:1" d="M 795.258,70.914 786.894,70.914 z" id="boundary" inkscape:connector-curvature="0" />
	<path style="fill:none;stroke:red;stroke-width:1px;stroke-linecap:butt;stroke-linejoin:miter;stroke-opacity:1" d="M 778.53,70.914 786.894,70.914 z" id="boundary" inkscape:connector-curvature="0" />
	<path style="fill:none;stroke:red;stroke-width:1px;stroke-linecap:butt;stroke-linejoin:miter;stroke-opacity:1" d="M 778.53,70.914 771.002,66.7319 z" id="boundary" inkscape:connector-curvature="0" />
	<path style="fill:none;stroke:red;stroke-width:1px;stroke-linecap:butt;stroke-linejoin:miter;stroke-opacity:1" d="M 795.258,70.914 802.786,75.0961 z" id="boundary" inkscape:connector-curvature="0" />
	<path style="fill:none;stroke:red;stroke-width:1px;stroke-linecap:butt;stroke-linejoin:miter;stroke-opacity:1" d="M 811.15,75.0961 802.786,75.0961 z" id="boundary" inkscape:connector-curvature="0" />
	<path style="fill:none;stroke:red;stroke-width:1px;stroke-linecap:butt;stroke-linejoin:miter;stroke-opacity:1" d="M 811.15,75.0961 819.514,76.769 z" id="boundary" inkscape:connector-curvature="0" />
	<path style="fill:none;stroke:red;stroke-width:1px;stroke-linecap:butt;stroke-linejoin:miter;stroke-opacity:1" d="M 827.879,79.2782 836.243,79.2782 z" id="boundary" inkscape:connector-curvature="0" />
	<path style="fill:none;stroke:red;stroke-width:1px;stroke-linecap:butt;stroke-linejoin:miter;stroke-opacity:1" d="M 836.243,79.2782 843.771,83.4604 z" id="boundary" inkscape:connector-curvature="0" />
	<path style="fill:none;stroke:red;stroke-width:1px;stroke-linecap:butt;stroke-linejoin:miter;stroke-opacity:1" d="M 827.879,79.2782 819.514,76.769 z" id="boundary" inkscape:connector-curvature="0" />
	<path style="fill:none;stroke:red;stroke-width:1px;stroke-linecap:butt;stroke-linejoin:miter;stroke-opacity:1" d="M 843.771,83.4604 852.135,83.4604 z" id="boundary" inkscape:connector-curvature="0" />
	<path style="fill:none;stroke:red;stroke-width:1px;stroke-linecap:butt;stroke-linejoin:miter;stroke-opacity:1" d="M 860.499,84.2968 852.135,83.4604 z" id="boundary" inkscape:connector-curvature="0" />
	<path style="fill:none;stroke:red;stroke-width:1px;stroke-linecap:butt;stroke-linejoin:miter;stroke-opacity:1" d="M 860.499,84.2968 868.863,87.6425 z" id="boundary" inkscape:connector-curvature="0" />
	<path style="fill:none;stroke:red;stroke-width:1px;stroke-linecap:butt;stroke-linejoin:miter;stroke-opacity:1" d="M 868.863,87.6425 877.228,88.4789 z" id="boundary" inkscape:connector-curvature="0" />
	<path style="fill:none;stroke:red;stroke-width:1px;stroke-linecap:butt;stroke-linejoin:miter;stroke-opacity:1" d="M 877.228,88.4789 885.592,91.8246 z" id="boundary" inkscape:connector-curvature="0" />
	<path style="fill:none;stroke:red;stroke-width:1px;stroke-linecap:butt;stroke-linejoin:miter;stroke-opacity:1" d="M 885.592,91.8246 893.956,92.661 z" id="boundary" inkscape:connector-curvature="0" />
	<path style="fill:none;stroke:red;stroke-width:1px;stroke-linecap:butt;stroke-linejoin:miter;stroke-opacity:1" d="M 893.956,92.661 902.32,96.0067 z" id="boundary" inkscape:connector-curvature="0" />
	<path style="fill:none;stroke:red;stroke-width:1px;stroke-linecap:butt;stroke-linejoin:miter;stroke-opacity:1" d="M 902.32,96.0067 910.685,96.8432 z" id="boundary" inkscape:connector-curvature="0" />
	<path style="fill:none;stroke:red;stroke-width:1px;stroke-linecap:butt;stroke-linejoin:miter;stroke-opacity:1" d="M 910.685,96.8432 918.212,101.025 z" id="boundary" inkscape:connector-curvature="0" />
	<path style="fill:none;stroke:red;stroke-width:1px;stroke-linecap:butt;stroke-linejoin:miter;stroke-opacity:1" d="M 926.577,104.371 918.212,101.025 z" id="boundary" inkscape:connector-curvature="0" />
	<path style="fill:none;stroke:red;stroke-width:1px;stroke-linecap:butt;stroke-linejoin:miter;stroke-opacity:1" d="M 934.105,108.553 942.469,108.553 z" id="boundary" inkscape:connector-curvature="0" />
	<path style="fill:none;stroke:red;stroke-width:1px;stroke-linecap:butt;stroke-linejoin:miter;stroke-opacity:1" d="M 942.469,108.553 949.997,112.735 z" id="boundary" inkscape:connector-curvature="0" />
	<path style="fill:none;stroke:red;stroke-width:1px;stroke-linecap:butt;stroke-linejoin:miter;stroke-opacity:1" d="M 934.105,108.553 926.577,104.371 z" id="boundary" inkscape:connector-curvature="0" />
	<path style="fill:none;stroke:red;stroke-width:1px;stroke-linecap:butt;stroke-linejoin:miter;stroke-opacity:1" d="M 958.361,115.245 949.997,112.735 z" id="boundary" inkscape:connector-curvature="0" />
	<path style="fill:none;stroke:red;stroke-width:1px;stroke-linecap:butt;stroke-linejoin:miter;stroke-opacity:1" d="M 958.361,115.245 965.052,121.099 z" id="boundary" inkscape:connector-curvature="0" />
	<path style="fill:none;stroke:red;stroke-width:1px;stroke-linecap:butt;stroke-linejoin:miter;stroke-opacity:1" d="M 965.052,121.099 972.58,125.282 z" id="boundary" inkscape:connector-curvature="0" />
	<path style="fill:none;stroke:red;stroke-width:1px;stroke-linecap:butt;stroke-linejoin:miter;stroke-opacity:1" d="M 980.108,129.464 987.636,133.646 z" id="boundary" inkscape:connector-curvature="0" />
	<path style="fill:none;stroke:red;stroke-width:1px;stroke-linecap:butt;stroke-linejoin:miter;stroke-opacity:1" d="M 987.636,133.646 991.818,141.174 z" id="boundary" inkscape:connector-curvature="0" />
	<path style="fill:none;stroke:red;stroke-width:1px;stroke-linecap:butt;stroke-linejoin:miter;stroke-opacity:1" d="M 972.58,125.282 980.108,129.464 z" id="boundary" inkscape:connector-curvature="0" />
	<path style="fill:none;stroke:red;stroke-width:1px;stroke-linecap:butt;stroke-linejoin:miter;stroke-opacity:1" d="M 488.29,195.541 494.145,188.85 z" id="boundary" inkscape:connector-curvature="0" />
	<path style="fill:none;stroke:red;stroke-width:1px;stroke-linecap:butt;stroke-linejoin:miter;stroke-opacity:1" d="M 494.145,188.85 502.509,188.85 z" id="boundary" inkscape:connector-curvature="0" />
	<path style="fill:none;stroke:red;stroke-width:1px;stroke-linecap:butt;stroke-linejoin:miter;stroke-opacity:1" d="M 502.509,188.85 510.874,188.85 z" id="boundary" inkscape:connector-curvature="0" />
	<path style="fill:none;stroke:red;stroke-width:1px;stroke-linecap:butt;stroke-linejoin:miter;stroke-opacity:1" d="M 544.331,193.032 535.966,193.032 z" id="boundary" inkscape:connector-curvature="0" />
	<path style="fill:none;stroke:red;stroke-width:1px;stroke-linecap:butt;stroke-linejoin:miter;stroke-opacity:1" d="M 510.874,188.85 519.238,190.523 z" id="boundary" inkscape:connector-curvature="0" />
	<path style="fill:none;stroke:red;stroke-width:1px;stroke-linecap:butt;stroke-linejoin:miter;stroke-opacity:1" d="M 479.926,199.723 488.29,195.541 z" id="boundary" inkscape:connector-curvature="0" />
	<path style="fill:none;stroke:red;stroke-width:1px;stroke-linecap:butt;stroke-linejoin:miter;stroke-opacity:1" d="M 519.238,190.523 527.602,193.032 z" id="boundary" inkscape:connector-curvature="0" />
	<path style="fill:none;stroke:red;stroke-width:1px;stroke-linecap:butt;stroke-linejoin:miter;stroke-opacity:1" d="M 527.602,193.032 535.966,193.032 z" id="boundary" inkscape:connector-curvature="0" />
	<path style="fill:none;stroke:red;stroke-width:1px;stroke-linecap:butt;stroke-linejoin:miter;stroke-opacity:1" d="M 544.331,193.032 552.695,193.032 z" id="boundary" inkscape:connector-curvature="0" />
	<path style="fill:none;stroke:red;stroke-width:1px;stroke-linecap:butt;stroke-linejoin:miter;stroke-opacity:1" d="M 561.059,193.032 569.423,193.032 z" id="boundary" inkscape:connector-curvature="0" />
	<path style="fill:none;stroke:red;stroke-width:1px;stroke-linecap:butt;stroke-linejoin:miter;stroke-opacity:1" d="M 561.059,193.032 552.695,193.032 z" id="boundary" inkscape:connector-curvature="0" />
	<path style="fill:none;stroke:red;stroke-width:1px;stroke-linecap:butt;stroke-linejoin:miter;stroke-opacity:1" d="M 577.788,193.032 586.152,193.032 z" id="boundary" inkscape:connector-curvature="0" />
	<path style="fill:none;stroke:red;stroke-width:1px;stroke-linecap:butt;stroke-linejoin:miter;stroke-opacity:1" d="M 594.516,193.032 602.88,193.032 z" id="boundary" inkscape:connector-curvature="0" />
	<path style="fill:none;stroke:red;stroke-width:1px;stroke-linecap:butt;stroke-linejoin:miter;stroke-opacity:1" d="M 617.099,193.032 610.408,198.887 z" id="boundary" inkscape:connector-curvature="0" />
	<path style="fill:none;stroke:red;stroke-width:1px;stroke-linecap:butt;stroke-linejoin:miter;stroke-opacity:1" d="M 594.516,193.032 586.152,193.032 z" id="boundary" inkscape:connector-curvature="0" />
	<path style="fill:none;stroke:red;stroke-width:1px;stroke-linecap:butt;stroke-linejoin:miter;stroke-opacity:1" d="M 577.788,193.032 569.423,193.032 z" id="boundary" inkscape:connector-curvature="0" />
	<path style="fill:none;stroke:red;stroke-width:1px;stroke-linecap:butt;stroke-linejoin:miter;stroke-opacity:1" d="M 625.464,193.032 617.099,193.032 z" id="boundary" inkscape:connector-curvature="0" />
	<path style="fill:none;stroke:red;stroke-width:1px;stroke-linecap:butt;stroke-linejoin:miter;stroke-opacity:1" d="M 606.226,210.597 612.081,217.288 z" id="boundary" inkscape:connector-curvature="0" />
	<path style="fill:none;stroke:red;stroke-width:1px;stroke-linecap:butt;stroke-linejoin:miter;stroke-opacity:1" d="M 602.044,203.069 606.226,210.597 z" id="boundary" inkscape:connector-curvature="0" />
	<path style="fill:none;stroke:red;stroke-width:1px;stroke-linecap:butt;stroke-linejoin:miter;stroke-opacity:1" d="M 612.081,217.288 620.445,218.125 z" id="boundary" inkscape:connector-curvature="0" />
	<path style="fill:none;stroke:red;stroke-width:1px;stroke-linecap:butt;stroke-linejoin:miter;stroke-opacity:1" d="M 628.809,218.125 637.174,220.634 z" id="boundary" inkscape:connector-curvature="0" />
	<path style="fill:none;stroke:red;stroke-width:1px;stroke-linecap:butt;stroke-linejoin:miter;stroke-opacity:1" d="M 620.445,218.125 628.809,218.125 z" id="boundary" inkscape:connector-curvature="0" />
	<path style="fill:none;stroke:red;stroke-width:1px;stroke-linecap:butt;stroke-linejoin:miter;stroke-opacity:1" d="M 637.174,220.634 645.538,222.307 z" id="boundary" inkscape:connector-curvature="0" />
	<path style="fill:none;stroke:red;stroke-width:1px;stroke-linecap:butt;stroke-linejoin:miter;stroke-opacity:1" d="M 686.523,218.125 694.887,218.125 z" id="boundary" inkscape:connector-curvature="0" />
	<path style="fill:none;stroke:red;stroke-width:1px;stroke-linecap:butt;stroke-linejoin:miter;stroke-opacity:1" d="M 678.995,222.307 686.523,218.125 z" id="boundary" inkscape:connector-curvature="0" />
	<path style="fill:none;stroke:red;stroke-width:1px;stroke-linecap:butt;stroke-linejoin:miter;stroke-opacity:1" d="M 703.251,213.943 694.887,218.125 z" id="boundary" inkscape:connector-curvature="0" />
	<path style="fill:none;stroke:red;stroke-width:1px;stroke-linecap:butt;stroke-linejoin:miter;stroke-opacity:1" d="M 703.251,213.943 711.616,213.943 z" id="boundary" inkscape:connector-curvature="0" />
	<path style="fill:none;stroke:red;stroke-width:1px;stroke-linecap:butt;stroke-linejoin:miter;stroke-opacity:1" d="M 662.266,222.307 653.902,222.307 z" id="boundary" inkscape:connector-curvature="0" />
	<path style="fill:none;stroke:red;stroke-width:1px;stroke-linecap:butt;stroke-linejoin:miter;stroke-opacity:1" d="M 645.538,222.307 653.902,222.307 z" id="boundary" inkscape:connector-curvature="0" />
	<path style="fill:none;stroke:red;stroke-width:1px;stroke-linecap:butt;stroke-linejoin:miter;stroke-opacity:1" d="M 662.266,222.307 670.631,222.307 z" id="boundary" inkscape:connector-curvature="0" />
	<path style="fill:none;stroke:red;stroke-width:1px;stroke-linecap:butt;stroke-linejoin:miter;stroke-opacity:1" d="M 678.995,222.307 670.631,222.307 z" id="boundary" inkscape:connector-curvature="0" />
	<path style="fill:none;stroke:red;stroke-width:1px;stroke-linecap:butt;stroke-linejoin:miter;stroke-opacity:1" d="M 719.143,209.761 711.616,213.943 z" id="boundary" inkscape:connector-curvature="0" />
	<path style="fill:none;stroke:red;stroke-width:1px;stroke-linecap:butt;stroke-linejoin:miter;stroke-opacity:1" d="M 471.562,203.906 479.926,199.723 z" id="boundary" inkscape:connector-curvature="0" />
	<path style="fill:none;stroke:red;stroke-width:1px;stroke-linecap:butt;stroke-linejoin:miter;stroke-opacity:1" d="M 890.61,184.668 882.246,184.668 z" id="boundary" inkscape:connector-curvature="0" />
	<path style="fill:none;stroke:red;stroke-width:1px;stroke-linecap:butt;stroke-linejoin:miter;stroke-opacity:1" d="M 914.867,180.486 923.231,178.813 z" id="boundary" inkscape:connector-curvature="0" />
	<path style="fill:none;stroke:red;stroke-width:1px;stroke-linecap:butt;stroke-linejoin:miter;stroke-opacity:1" d="M 914.867,180.486 906.503,180.486 z" id="boundary" inkscape:connector-curvature="0" />
	<path style="fill:none;stroke:red;stroke-width:1px;stroke-linecap:butt;stroke-linejoin:miter;stroke-opacity:1" d="M 898.975,184.668 906.503,180.486 z" id="boundary" inkscape:connector-curvature="0" />
	<path style="fill:none;stroke:red;stroke-width:1px;stroke-linecap:butt;stroke-linejoin:miter;stroke-opacity:1" d="M 774.347,188.85 782.712,188.85 z" id="boundary" inkscape:connector-curvature="0" />
	<path style="fill:none;stroke:red;stroke-width:1px;stroke-linecap:butt;stroke-linejoin:miter;stroke-opacity:1" d="M 765.983,193.032 774.347,188.85 z" id="boundary" inkscape:connector-curvature="0" />
	<path style="fill:none;stroke:red;stroke-width:1px;stroke-linecap:butt;stroke-linejoin:miter;stroke-opacity:1" d="M 791.076,188.85 782.712,188.85 z" id="boundary" inkscape:connector-curvature="0" />
	<path style="fill:none;stroke:red;stroke-width:1px;stroke-linecap:butt;stroke-linejoin:miter;stroke-opacity:1" d="M 874.718,188.85 882.246,184.668 z" id="boundary" inkscape:connector-curvature="0" />
	<path style="fill:none;stroke:red;stroke-width:1px;stroke-linecap:butt;stroke-linejoin:miter;stroke-opacity:1" d="M 898.975,184.668 890.61,184.668 z" id="boundary" inkscape:connector-curvature="0" />
	<path style="fill:none;stroke:red;stroke-width:1px;stroke-linecap:butt;stroke-linejoin:miter;stroke-opacity:1" d="M 972.58,163.757 980.944,162.921 z" id="boundary" inkscape:connector-curvature="0" />
	<path style="fill:none;stroke:red;stroke-width:1px;stroke-linecap:butt;stroke-linejoin:miter;stroke-opacity:1" d="M 964.216,167.103 972.58,163.757 z" id="boundary" inkscape:connector-curvature="0" />
	<path style="fill:none;stroke:red;stroke-width:1px;stroke-linecap:butt;stroke-linejoin:miter;stroke-opacity:1" d="M 989.309,158.739 980.944,162.921 z" id="boundary" inkscape:connector-curvature="0" />
	<path style="fill:none;stroke:red;stroke-width:1px;stroke-linecap:butt;stroke-linejoin:miter;stroke-opacity:1" d="M 931.595,176.304 939.96,174.631 z" id="boundary" inkscape:connector-curvature="0" />
	<path style="fill:none;stroke:red;stroke-width:1px;stroke-linecap:butt;stroke-linejoin:miter;stroke-opacity:1" d="M 923.231,178.813 931.595,176.304 z" id="boundary" inkscape:connector-curvature="0" />
	<path style="fill:none;stroke:red;stroke-width:1px;stroke-linecap:butt;stroke-linejoin:miter;stroke-opacity:1" d="M 948.324,172.121 955.852,167.939 z" id="boundary" inkscape:connector-curvature="0" />
	<path style="fill:none;stroke:red;stroke-width:1px;stroke-linecap:butt;stroke-linejoin:miter;stroke-opacity:1" d="M 955.852,167.939 964.216,167.103 z" id="boundary" inkscape:connector-curvature="0" />
	<path style="fill:none;stroke:red;stroke-width:1px;stroke-linecap:butt;stroke-linejoin:miter;stroke-opacity:1" d="M 948.324,172.121 939.96,174.631 z" id="boundary" inkscape:connector-curvature="0" />
	<path style="fill:none;stroke:red;stroke-width:1px;stroke-linecap:butt;stroke-linejoin:miter;stroke-opacity:1" d="M 757.619,193.032 765.983,193.032 z" id="boundary" inkscape:connector-curvature="0" />
	<path style="fill:none;stroke:red;stroke-width:1px;stroke-linecap:butt;stroke-linejoin:miter;stroke-opacity:1" d="M 750.091,197.214 757.619,193.032 z" id="boundary" inkscape:connector-curvature="0" />
	<path style="fill:none;stroke:red;stroke-width:1px;stroke-linecap:butt;stroke-linejoin:miter;stroke-opacity:1" d="M 791.076,188.85 799.44,188.85 z" id="boundary" inkscape:connector-curvature="0" />
	<path style="fill:none;stroke:red;stroke-width:1px;stroke-linecap:butt;stroke-linejoin:miter;stroke-opacity:1" d="M 719.143,209.761 726.671,205.578 z" id="boundary" inkscape:connector-curvature="0" />
	<path style="fill:none;stroke:red;stroke-width:1px;stroke-linecap:butt;stroke-linejoin:miter;stroke-opacity:1" d="M 726.671,205.578 735.035,205.578 z" id="boundary" inkscape:connector-curvature="0" />
	<path style="fill:none;stroke:red;stroke-width:1px;stroke-linecap:butt;stroke-linejoin:miter;stroke-opacity:1" d="M 735.035,205.578 742.563,201.396 z" id="boundary" inkscape:connector-curvature="0" />
	<path style="fill:none;stroke:red;stroke-width:1px;stroke-linecap:butt;stroke-linejoin:miter;stroke-opacity:1" d="M 750.091,197.214 742.563,201.396 z" id="boundary" inkscape:connector-curvature="0" />
	<path style="fill:none;stroke:red;stroke-width:1px;stroke-linecap:butt;stroke-linejoin:miter;stroke-opacity:1" d="M 799.44,188.85 807.804,188.85 z" id="boundary" inkscape:connector-curvature="0" />
	<path style="fill:none;stroke:red;stroke-width:1px;stroke-linecap:butt;stroke-linejoin:miter;stroke-opacity:1" d="M 807.804,188.85 816.169,188.85 z" id="boundary" inkscape:connector-curvature="0" />
	<path style="fill:none;stroke:red;stroke-width:1px;stroke-linecap:butt;stroke-linejoin:miter;stroke-opacity:1" d="M 824.533,188.85 832.897,188.85 z" id="boundary" inkscape:connector-curvature="0" />
	<path style="fill:none;stroke:red;stroke-width:1px;stroke-linecap:butt;stroke-linejoin:miter;stroke-opacity:1" d="M 824.533,188.85 816.169,188.85 z" id="boundary" inkscape:connector-curvature="0" />
	<path style="fill:none;stroke:red;stroke-width:1px;stroke-linecap:butt;stroke-linejoin:miter;stroke-opacity:1" d="M 841.261,188.85 849.626,188.85 z" id="boundary" inkscape:connector-curvature="0" />
	<path style="fill:none;stroke:red;stroke-width:1px;stroke-linecap:butt;stroke-linejoin:miter;stroke-opacity:1" d="M 857.99,188.85 866.354,188.85 z" id="boundary" inkscape:connector-curvature="0" />
	<path style="fill:none;stroke:red;stroke-width:1px;stroke-linecap:butt;stroke-linejoin:miter;stroke-opacity:1" d="M 874.718,188.85 866.354,188.85 z" id="boundary" inkscape:connector-curvature="0" />
	<path style="fill:none;stroke:red;stroke-width:1px;stroke-linecap:butt;stroke-linejoin:miter;stroke-opacity:1" d="M 857.99,188.85 849.626,188.85 z" id="boundary" inkscape:connector-curvature="0" />
	<path style="fill:none;stroke:red;stroke-width:1px;stroke-linecap:butt;stroke-linejoin:miter;stroke-opacity:1" d="M 841.261,188.85 832.897,188.85 z" id="boundary" inkscape:connector-curvature="0" />
	<path style="fill:none;stroke:red;stroke-width:1px;stroke-linecap:butt;stroke-linejoin:miter;stroke-opacity:1" d="M 991.818,141.174 996,148.702 z" id="boundary" inkscape:connector-curvature="0" />
	<path style="fill:none;stroke:red;stroke-width:1px;stroke-linecap:butt;stroke-linejoin:miter;stroke-opacity:1" d="M 996,148.702 989.309,158.739 z" id="boundary" inkscape:connector-curvature="0" />
	<circle cx="4" cy="140.337" r="4" fill="#0" id="circle0"/>
	<circle cx="4" cy="148.702" r="4" fill="#0" id="circle1"/>
	<circle cx="4" cy="157.066" r="4" fill="#0" id="circle2"/>
	<circle cx="4" cy="165.43" r="4" fill="#0" id="circle3"/>
	<circle cx="8.18212" cy="172.958" r="4" fill="#0" id="circle4"/>
	<circle cx="10.6914" cy="133.646" r="4" fill="#0" id="circle5"/>
	<circle cx="12.3642" cy="180.486" r="4" fill="#0" id="circle6"/>
	<circle cx="14.8735" cy="125.282" r="4" fill="#0" id="circle7"/>
	<circle cx="19.8921" cy="184.668" r="4" fill="#0" id="circle8"/>
	<circle cx="23.2378" cy="121.099" r="4" fill="#0" id="circle9"/>
	<circle cx="25.747" cy="191.359" r="4" fill="#0" id="circle10"/>
	<circle cx="30.7656" cy="116.917" r="4" fill="#0" id="circle11"/>
	<circle cx="34.1113" cy="194.705" r="4" fill="#0" id="circle12"/>
	<circle cx="38.2934" cy="112.735" r="4" fill="#0" id="circle13"/>
	<circle cx="41.6391" cy="198.887" r="4" fill="#0" id="circle14"/>
	<circle cx="46.6577" cy="110.226" r="4" fill="#0" id="circle15"/>
	<circle cx="50.0034" cy="201.396" r="4" fill="#0" id="circle16"/>
	<circle cx="55.0219" cy="108.553" r="4" fill="#0" id="circle17"/>
	<circle cx="57.5312" cy="205.578" r="4" fill="#0" id="circle18"/>
	<circle cx="63.3862" cy="106.044" r="4" fill="#0" id="circle19"/>
	<circle cx="65.8954" cy="205.578" r="4" fill="#0" id="circle20"/>
	<circle cx="71.7504" cy="101.862" r="4" fill="#0" id="circle21"/>
	<circle cx="74.2597" cy="205.578" r="4" fill="#0" id="circle22"/>
	<circle cx="80.1147" cy="100.189" r="4" fill="#0" id="circle23"/>
	<circle cx="82.6239" cy="205.578" r="4" fill="#0" id="circle24"/>
	<circle cx="88.4789" cy="97.6796" r="4" fill="#0" id="circle25"/>
	<circle cx="90.9882" cy="205.578" r="4" fill="#0" id="circle26"/>
	<circle cx="96.8432" cy="96.0067" r="4" fill="#0" id="circle27"/>
	<circle cx="99.3524" cy="205.578" r="4" fill="#0" id="circle28"/>
	<circle cx="105.207" cy="96.0067" r="4" fill="#0" id="circle29"/>
	<circle cx="107.717" cy="205.578" r="4" fill="#0" id="circle30"/>
	<circle cx="113.572" cy="96.0067" r="4" fill="#0" id="circle31"/>
	<circle cx="116.081" cy="205.578" r="4" fill="#0" id="circle32"/>
	<circle cx="121.936" cy="96.0067" r="4" fill="#0" id="circle33"/>
	<circle cx="124.445" cy="205.578" r="4" fill="#0" id="circle34"/>
	<circle cx="130.3" cy="96.0067" r="4" fill="#0" id="circle35"/>
	<circle cx="132.809" cy="205.578" r="4" fill="#0" id="circle36"/>
	<circle cx="138.664" cy="96.0067" r="4" fill="#0" id="circle37"/>
	<circle cx="141.174" cy="205.578" r="4" fill="#0" id="circle38"/>
	<circle cx="147.029" cy="96.0067" r="4" fill="#0" id="circle39"/>
	<circle cx="149.538" cy="203.906" r="4" fill="#0" id="circle40"/>
	<circle cx="155.393" cy="96.0067" r="4" fill="#0" id="circle41"/>
	<circle cx="157.902" cy="201.396" r="4" fill="#0" id="circle42"/>
	<circle cx="163.757" cy="96.0067" r="4" fill="#0" id="circle43"/>
	<circle cx="166.266" cy="201.396" r="4" fill="#0" id="circle44"/>
	<circle cx="172.121" cy="96.0067" r="4" fill="#0" id="circle45"/>
	<circle cx="174.631" cy="201.396" r="4" fill="#0" id="circle46"/>
	<circle cx="180.486" cy="96.0067" r="4" fill="#0" id="circle47"/>
	<circle cx="182.159" cy="197.214" r="4" fill="#0" id="circle48"/>
	<circle cx="188.85" cy="96.0067" r="4" fill="#0" id="circle49"/>
	<circle cx="190.523" cy="197.214" r="4" fill="#0" id="circle50"/>
	<circle cx="197.214" cy="96.0067" r="4" fill="#0" id="circle51"/>
	<circle cx="198.051" cy="193.032" r="4" fill="#0" id="circle52"/>
	<circle cx="205.578" cy="96.0067" r="4" fill="#0" id="circle53"/>
	<circle cx="206.415" cy="193.032" r="4" fill="#0" id="circle54"/>
	<circle cx="213.943" cy="98.516" r="4" fill="#0" id="circle55"/>
	<circle cx="214.779" cy="193.032" r="4" fill="#0" id="circle56"/>
	<circle cx="221.47" cy="69.2411" r="4" fill="#0" id="circle57"/>
	<circle cx="221.47" cy="77.6054" r="4" fill="#0" id="circle58"/>
	<circle cx="222.307" cy="100.189" r="4" fill="#0" id="circle59"/>
	<circle cx="222.307" cy="188.85" r="4" fill="#0" id="circle60"/>
	<circle cx="228.162" cy="62.5497" r="4" fill="#0" id="circle61"/>
	<circle cx="228.162" cy="83.4604" r="4" fill="#0" id="circle62"/>
	<circle cx="230.671" cy="100.189" r="4" fill="#0" id="circle63"/>
	<circle cx="230.671" cy="188.85" r="4" fill="#0" id="circle64"/>
	<circle cx="235.69" cy="87.6425" r="4" fill="#0" id="circle65"/>
	<circle cx="236.526" cy="58.3676" r="4" fill="#0" id="circle66"/>
	<circle cx="239.035" cy="100.189" r="4" fill="#0" id="circle67"/>
	<circle cx="239.035" cy="188.85" r="4" fill="#0" id="circle68"/>
	<circle cx="244.054" cy="90.9882" r="4" fill="#0" id="circle69"/>
	<circle cx="244.89" cy="58.3676" r="4" fill="#0" id="circle70"/>
	<circle cx="247.4" cy="100.189" r="4" fill="#0" id="circle71"/>
	<circle cx="247.4" cy="188.85" r="4" fill="#0" id="circle72"/>
	<circle cx="253.255" cy="58.3676" r="4" fill="#0" id="circle73"/>
	<circle cx="255.764" cy="96.8432" r="4" fill="#0" id="circle74"/>
	<circle cx="255.764" cy="188.85" r="4" fill="#0" id="circle75"/>
	<circle cx="261.619" cy="54.1855" r="4" fill="#0" id="circle76"/>
	<circle cx="264.128" cy="188.85" r="4" fill="#0" id="circle77"/>
	<circle cx="269.983" cy="54.1855" r="4" fill="#0" id="circle78"/>
	<circle cx="272.492" cy="184.668" r="4" fill="#0" id="circle79"/>
	<circle cx="278.347" cy="50.0034" r="4" fill="#0" id="circle80"/>
	<circle cx="280.857" cy="184.668" r="4" fill="#0" id="circle81"/>
	<circle cx="286.712" cy="50.0034" r="4" fill="#0" id="circle82"/>
	<circle cx="288.384" cy="219.798" r="4" fill="#0" id="circle83"/>
	<circle cx="289.221" cy="184.668" r="4" fill="#0" id="circle84"/>
	<circle cx="292.567" cy="207.251" r="4" fill="#0" id="circle85"/>
	<circle cx="292.567" cy="227.325" r="4" fill="#0" id="circle86"/>
	<circle cx="295.076" cy="50.0034" r="4" fill="#0" id="circle87"/>
	<circle cx="297.585" cy="184.668" r="4" fill="#0" id="circle88"/>
	<circle cx="299.258" cy="200.56" r="4" fill="#0" id="circle89"/>
	<circle cx="300.931" cy="230.671" r="4" fill="#0" id="circle90"/>
	<circle cx="303.44" cy="50.0034" r="4" fill="#0" id="circle91"/>
	<circle cx="305.949" cy="184.668" r="4" fill="#0" id="circle92"/>
	<circle cx="306.786" cy="196.378" r="4" fill="#0" id="circle93"/>
	<circle cx="309.295" cy="230.671" r="4" fill="#0" id="circle94"/>
	<circle cx="310.968" cy="45.8212" r="4" fill="#0" id="circle95"/>
	<circle cx="314.314" cy="184.668" r="4" fill="#0" id="circle96"/>
	<circle cx="317.659" cy="230.671" r="4" fill="#0" id="circle97"/>
	<circle cx="319.332" cy="45.8212" r="4" fill="#0" id="circle98"/>
	<circle cx="326.024" cy="230.671" r="4" fill="#0" id="circle99"/>
	<circle cx="327.696" cy="45.8212" r="4" fill="#0" id="circle100"/>
	<circle cx="334.388" cy="230.671" r="4" fill="#0" id="circle101"/>
	<circle cx="336.061" cy="45.8212" r="4" fill="#0" id="circle102"/>
	<circle cx="342.752" cy="230.671" r="4" fill="#0" id="circle103"/>
	<circle cx="343.589" cy="41.6391" r="4" fill="#0" id="circle104"/>
	<circle cx="351.116" cy="230.671" r="4" fill="#0" id="circle105"/>
	<circle cx="351.953" cy="41.6391" r="4" fill="#0" id="circle106"/>
	<circle cx="359.481" cy="230.671" r="4" fill="#0" id="circle107"/>
	<circle cx="360.317" cy="41.6391" r="4" fill="#0" id="circle108"/>
	<circle cx="367.008" cy="226.489" r="4" fill="#0" id="circle109"/>
	<circle cx="368.681" cy="41.6391" r="4" fill="#0" id="circle110"/>
	<circle cx="375.373" cy="226.489" r="4" fill="#0" id="circle111"/>
	<circle cx="376.209" cy="37.457" r="4" fill="#0" id="circle112"/>
	<circle cx="383.737" cy="226.489" r="4" fill="#0" id="circle113"/>
	<circle cx="384.573" cy="37.457" r="4" fill="#0" id="circle114"/>
	<circle cx="392.101" cy="226.489" r="4" fill="#0" id="circle115"/>
	<circle cx="392.938" cy="37.457" r="4" fill="#0" id="circle116"/>
	<circle cx="400.465" cy="226.489" r="4" fill="#0" id="circle117"/>
	<circle cx="401.302" cy="37.457" r="4" fill="#0" id="circle118"/>
	<circle cx="407.993" cy="222.307" r="4" fill="#0" id="circle119"/>
	<circle cx="409.666" cy="37.457" r="4" fill="#0" id="circle120"/>
	<circle cx="416.358" cy="222.307" r="4" fill="#0" id="circle121"/>
	<circle cx="418.03" cy="37.457" r="4" fill="#0" id="circle122"/>
	<circle cx="424.722" cy="222.307" r="4" fill="#0" id="circle123"/>
	<circle cx="426.395" cy="37.457" r="4" fill="#0" id="circle124"/>
	<circle cx="432.25" cy="218.125" r="4" fill="#0" id="circle125"/>
	<circle cx="434.759" cy="37.457" r="4" fill="#0" id="circle126"/>
	<circle cx="440.614" cy="218.125" r="4" fill="#0" id="circle127"/>
	<circle cx="443.123" cy="37.457" r="4" fill="#0" id="circle128"/>
	<circle cx="448.978" cy="218.125" r="4" fill="#0" id="circle129"/>
	<circle cx="451.487" cy="37.457" r="4" fill="#0" id="circle130"/>
	<circle cx="456.506" cy="213.943" r="4" fill="#0" id="circle131"/>
	<circle cx="459.852" cy="37.457" r="4" fill="#0" id="circle132"/>
	<circle cx="463.197" cy="208.088" r="4" fill="#0" id="circle133"/>
	<circle cx="468.216" cy="37.457" r="4" fill="#0" id="circle134"/>
	<circle cx="471.562" cy="203.906" r="4" fill="#0" id="circle135"/>
	<circle cx="475.744" cy="41.6391" r="4" fill="#0" id="circle136"/>
	<circle cx="479.926" cy="199.723" r="4" fill="#0" id="circle137"/>
	<circle cx="483.272" cy="45.8212" r="4" fill="#0" id="circle138"/>
	<circle cx="488.29" cy="195.541" r="4" fill="#0" id="circle139"/>
	<circle cx="491.636" cy="45.8212" r="4" fill="#0" id="circle140"/>
	<circle cx="494.145" cy="188.85" r="4" fill="#0" id="circle141"/>
	<circle cx="499.164" cy="50.0034" r="4" fill="#0" id="circle142"/>
	<circle cx="502.509" cy="188.85" r="4" fill="#0" id="circle143"/>
	<circle cx="506.691" cy="54.1855" r="4" fill="#0" id="circle144"/>
	<circle cx="510.874" cy="188.85" r="4" fill="#0" id="circle145"/>
	<circle cx="515.056" cy="56.6948" r="4" fill="#0" id="circle146"/>
	<circle cx="519.238" cy="190.523" r="4" fill="#0" id="circle147"/>
	<circle cx="522.583" cy="60.8769" r="4" fill="#0" id="circle148"/>
	<circle cx="527.602" cy="193.032" r="4" fill="#0" id="circle149"/>
	<circle cx="530.948" cy="62.5497" r="4" fill="#0" id="circle150"/>
	<circle cx="535.966" cy="193.032" r="4" fill="#0" id="circle151"/>
	<circle cx="539.312" cy="64.2226" r="4" fill="#0" id="circle152"/>
	<circle cx="544.331" cy="193.032" r="4" fill="#0" id="circle153"/>
	<circle cx="547.676" cy="62.5497" r="4" fill="#0" id="circle154"/>
	<circle cx="552.695" cy="193.032" r="4" fill="#0" id="circle155"/>
	<circle cx="556.04" cy="62.5497" r="4" fill="#0" id="circle156"/>
	<circle cx="561.059" cy="193.032" r="4" fill="#0" id="circle157"/>
	<circle cx="564.405" cy="62.5497" r="4" fill="#0" id="circle158"/>
	<circle cx="569.423" cy="193.032" r="4" fill="#0" id="circle159"/>
	<circle cx="572.769" cy="62.5497" r="4" fill="#0" id="circle160"/>
	<circle cx="577.788" cy="193.032" r="4" fill="#0" id="circle161"/>
	<circle cx="581.133" cy="62.5497" r="4" fill="#0" id="circle162"/>
	<circle cx="586.152" cy="193.032" r="4" fill="#0" id="circle163"/>
	<circle cx="588.661" cy="58.3676" r="4" fill="#0" id="circle164"/>
	<circle cx="594.516" cy="51.6762" r="4" fill="#0" id="circle165"/>
	<circle cx="594.516" cy="193.032" r="4" fill="#0" id="circle166"/>
	<circle cx="601.207" cy="45.8212" r="4" fill="#0" id="circle167"/>
	<circle cx="602.044" cy="203.069" r="4" fill="#0" id="circle168"/>
	<circle cx="602.88" cy="193.032" r="4" fill="#0" id="circle169"/>
	<circle cx="606.226" cy="210.597" r="4" fill="#0" id="circle170"/>
	<circle cx="608.735" cy="41.6391" r="4" fill="#0" id="circle171"/>
	<circle cx="610.408" cy="198.887" r="4" fill="#0" id="circle172"/>
	<circle cx="612.081" cy="217.288" r="4" fill="#0" id="circle173"/>
	<circle cx="615.427" cy="34.9477" r="4" fill="#0" id="circle174"/>
	<circle cx="617.099" cy="193.032" r="4" fill="#0" id="circle175"/>
	<circle cx="620.445" cy="218.125" r="4" fill="#0" id="circle176"/>
	<circle cx="622.118" cy="29.0927" r="4" fill="#0" id="circle177"/>
	<circle cx="625.464" cy="193.032" r="4" fill="#0" id="circle178"/>
	<circle cx="627.973" cy="22.4013" r="4" fill="#0" id="circle179"/>
	<circle cx="628.809" cy="218.125" r="4" fill="#0" id="circle180"/>
	<circle cx="634.664" cy="16.5464" r="4" fill="#0" id="circle181"/>
	<circle cx="637.174" cy="220.634" r="4" fill="#0" id="circle182"/>
	<circle cx="642.192" cy="12.3642" r="4" fill="#0" id="circle183"/>
	<circle cx="645.538" cy="222.307" r="4" fill="#0" id="circle184"/>
	<circle cx="650.556" cy="8.18212" r="4" fill="#0" id="circle185"/>
	<circle cx="653.902" cy="222.307" r="4" fill="#0" id="circle186"/>
	<circle cx="658.921" cy="8.18212" r="4" fill="#0" id="circle187"/>
	<circle cx="662.266" cy="222.307" r="4" fill="#0" id="circle188"/>
	<circle cx="666.449" cy="4" r="4" fill="#0" id="circle189"/>
	<circle cx="670.631" cy="222.307" r="4" fill="#0" id="circle190"/>
	<circle cx="673.976" cy="8.18212" r="4" fill="#0" id="circle191"/>
	<circle cx="678.995" cy="222.307" r="4" fill="#0" id="circle192"/>
	<circle cx="682.341" cy="8.18212" r="4" fill="#0" id="circle193"/>
	<circle cx="686.523" cy="218.125" r="4" fill="#0" id="circle194"/>
	<circle cx="689.032" cy="13.2007" r="4" fill="#0" id="circle195"/>
	<circle cx="694.887" cy="19.8921" r="4" fill="#0" id="circle196"/>
	<circle cx="694.887" cy="218.125" r="4" fill="#0" id="circle197"/>
	<circle cx="701.578" cy="25.747" r="4" fill="#0" id="circle198"/>
	<circle cx="703.251" cy="213.943" r="4" fill="#0" id="circle199"/>
	<circle cx="705.761" cy="33.2749" r="4" fill="#0" id="circle200"/>
	<circle cx="711.616" cy="39.9663" r="4" fill="#0" id="circle201"/>
	<circle cx="711.616" cy="213.943" r="4" fill="#0" id="circle202"/>
	<circle cx="719.143" cy="44.1484" r="4" fill="#0" id="circle203"/>
	<circle cx="719.143" cy="209.761" r="4" fill="#0" id="circle204"/>
	<circle cx="723.325" cy="51.6762" r="4" fill="#0" id="circle205"/>
	<circle cx="726.671" cy="205.578" r="4" fill="#0" id="circle206"/>
	<circle cx="730.853" cy="55.8583" r="4" fill="#0" id="circle207"/>
	<circle cx="735.035" cy="205.578" r="4" fill="#0" id="circle208"/>
	<circle cx="739.218" cy="58.3676" r="4" fill="#0" id="circle209"/>
	<circle cx="742.563" cy="201.396" r="4" fill="#0" id="circle210"/>
	<circle cx="747.582" cy="58.3676" r="4" fill="#0" id="circle211"/>
	<circle cx="750.091" cy="197.214" r="4" fill="#0" id="circle212"/>
	<circle cx="755.11" cy="62.5497" r="4" fill="#0" id="circle213"/>
	<circle cx="757.619" cy="193.032" r="4" fill="#0" id="circle214"/>
	<circle cx="763.474" cy="62.5497" r="4" fill="#0" id="circle215"/>
	<circle cx="765.983" cy="193.032" r="4" fill="#0" id="circle216"/>
	<circle cx="771.002" cy="66.7319" r="4" fill="#0" id="circle217"/>
	<circle cx="774.347" cy="188.85" r="4" fill="#0" id="circle218"/>
	<circle cx="778.53" cy="70.914" r="4" fill="#0" id="circle219"/>
	<circle cx="782.712" cy="188.85" r="4" fill="#0" id="circle220"/>
	<circle cx="786.894" cy="70.914" r="4" fill="#0" id="circle221"/>
	<circle cx="791.076" cy="188.85" r="4" fill="#0" id="circle222"/>
	<circle cx="795.258" cy="70.914" r="4" fill="#0" id="circle223"/>
	<circle cx="799.44" cy="188.85" r="4" fill="#0" id="circle224"/>
	<circle cx="802.786" cy="75.0961" r="4" fill="#0" id="circle225"/>
	<circle cx="807.804" cy="188.85" r="4" fill="#0" id="circle226"/>
	<circle cx="811.15" cy="75.0961" r="4" fill="#0" id="circle227"/>
	<circle cx="816.169" cy="188.85" r="4" fill="#0" id="circle228"/>
	<circle cx="819.514" cy="76.769" r="4" fill="#0" id="circle229"/>
	<circle cx="824.533" cy="188.85" r="4" fill="#0" id="circle230"/>
	<circle cx="827.879" cy="79.2782" r="4" fill="#0" id="circle231"/>
	<circle cx="832.897" cy="188.85" r="4" fill="#0" id="circle232"/>
	<circle cx="836.243" cy="79.2782" r="4" fill="#0" id="circle233"/>
	<circle cx="841.261" cy="188.85" r="4" fill="#0" id="circle234"/>
	<circle cx="843.771" cy="83.4604" r="4" fill="#0" id="circle235"/>
	<circle cx="849.626" cy="188.85" r="4" fill="#0" id="circle236"/>
	<circle cx="852.135" cy="83.4604" r="4" fill="#0" id="circle237"/>
	<circle cx="857.99" cy="188.85" r="4" fill="#0" id="circle238"/>
	<circle cx="860.499" cy="84.2968" r="4" fill="#0" id="circle239"/>
	<circle cx="866.354" cy="188.85" r="4" fill="#0" id="circle240"/>
	<circle cx="868.863" cy="87.6425" r="4" fill="#0" id="circle241"/>
	<circle cx="874.718" cy="188.85" r="4" fill="#0" id="circle242"/>
	<circle cx="877.228" cy="88.4789" r="4" fill="#0" id="circle243"/>
	<circle cx="882.246" cy="184.668" r="4" fill="#0" id="circle244"/>
	<circle cx="885.592" cy="91.8246" r="4" fill="#0" id="circle245"/>
	<circle cx="890.61" cy="184.668" r="4" fill="#0" id="circle246"/>
	<circle cx="893.956" cy="92.661" r="4" fill="#0" id="circle247"/>
	<circle cx="898.975" cy="184.668" r="4" fill="#0" id="circle248"/>
	<circle cx="902.32" cy="96.0067" r="4" fill="#0" id="circle249"/>
	<circle cx="906.503" cy="180.486" r="4" fill="#0" id="circle250"/>
	<circle cx="910.685" cy="96.8432" r="4" fill="#0" id="circle251"/>
	<circle cx="914.867" cy="180.486" r="4" fill="#0" id="circle252"/>
	<circle cx="918.212" cy="101.025" r="4" fill="#0" id="circle253"/>
	<circle cx="923.231" cy="178.813" r="4" fill="#0" id="circle254"/>
	<circle cx="926.577" cy="104.371" r="4" fill="#0" id="circle255"/>
	<circle cx="931.595" cy="176.304" r="4" fill="#0" id="circle256"/>
	<circle cx="934.105" cy="108.553" r="4" fill="#0" id="circle257"/>
	<circle cx="939.96" cy="174.631" r="4" fill="#0" id="circle258"/>
	<circle cx="942.469" cy="108.553" r="4" fill="#0" id="circle259"/>
	<circle cx="948.324" cy="172.121" r="4" fill="#0" id="circle260"/>
	<circle cx="949.997" cy="112.735" r="4" fill="#0" id="circle261"/>
	<circle cx="955.852" cy="167.939" r="4" fill="#0" id="circle262"/>
	<circle cx="958.361" cy="115.245" r="4" fill="#0" id="circle263"/>
	<circle cx="964.216" cy="167.103" r="4" fill="#0" id="circle264"/>
	<circle cx="965.052" cy="121.099" r="4" fill="#0" id="circle265"/>
	<circle cx="972.58" cy="125.282" r="4" fill="#0" id="circle266"/>
	<circle cx="972.58" cy="163.757" r="4" fill="#0" id="circle267"/>
	<circle cx="980.108" cy="129.464" r="4" fill="#0" id="circle268"/>
	<circle cx="980.944" cy="162.921" r="4" fill="#0" id="circle269"/>
	<circle cx="987.636" cy="133.646" r="4" fill="#0" id="circle270"/>
	<circle cx="989.309" cy="158.739" r="4" fill="#0" id="circle271"/>
	<circle cx="991.818" cy="141.174" r="4" fill="#0" id="circle272"/>
	<circle cx="996" cy="148.702" r="4" fill="#0" id="circle273"/>
	</g>
</svg>