<?xml version="1.0" encoding="UTF-8" standalone="no"?>
<!-- Created with CurveBenchmark -->
<svg
	xmlns:dc="http://purl.org/dc/elements/1.1/"
	xmlns:cc="http://creativecommons.org/ns#"
	xmlns:rdf="http://www.w3.org/1999/02/22-rdf-syntax-ns#"
	xmlns:svg="http://www.w3.org/2000/svg"
	xmlns="http://www.w3.org/2000/svg"
	xmlns:sodipodi="http://sodipodi.sourceforge.net/DTD/sodipodi-0.dtd"
	xmlns:inkscape="http://www.inkscape.org/namespaces/inkscape"
	width="1000"
	height="1000"
	id="svg2"
	version="1.1"
	sodipodi:docname="manifold/gathang-dude8occ4.png.txt">
<defs
	id="defs4" />
<metadata
	id="metadata7">
	<rdf:RDF>
		<cc:Work
			rdf:about="">
			<dc:format>image/svg+xml</dc:format>
			<dc:type
				rdf:resource="http://purl.org/dc/dcmitype/StillImage" />
			<dc:title></dc:title>
		</cc:Work>
	</rdf:RDF>
</metadata>
<g
	inkscape:label="Layer 1"
	inkscape:groupmode="layer"
	id="layer1">
	<path style="fill:none;stroke:red;stroke-width:1px;stroke-linecap:butt;stroke-linejoin:miter;stroke-opacity:1" d="M 66.7848,201.324 66.7848,219.262 z" id="boundary" inkscape:connector-curvature="0" />
	<path style="fill:none;stroke:red;stroke-width:1px;stroke-linecap:butt;stroke-linejoin:miter;stroke-opacity:1" d="M 66.7848,237.201 66.7848,219.262 z" id="boundary" inkscape:connector-curvature="0" />
	<path style="fill:none;stroke:red;stroke-width:1px;stroke-linecap:butt;stroke-linejoin:miter;stroke-opacity:1" d="M 66.7848,255.139 66.7848,237.201 z" id="boundary" inkscape:connector-curvature="0" />
	<path style="fill:none;stroke:red;stroke-width:1px;stroke-linecap:butt;stroke-linejoin:miter;stroke-opacity:1" d="M 66.7848,255.139 66.7848,273.078 z" id="boundary" inkscape:connector-curvature="0" />
	<path style="fill:none;stroke:red;stroke-width:1px;stroke-linecap:butt;stroke-linejoin:miter;stroke-opacity:1" d="M 66.7848,291.016 77.5479,305.367 z" id="boundary" inkscape:connector-curvature="0" />
	<path style="fill:none;stroke:red;stroke-width:1px;stroke-linecap:butt;stroke-linejoin:miter;stroke-opacity:1" d="M 66.7848,291.016 66.7848,273.078 z" id="boundary" inkscape:connector-curvature="0" />
	<path style="fill:none;stroke:red;stroke-width:1px;stroke-linecap:butt;stroke-linejoin:miter;stroke-opacity:1" d="M 66.7848,201.324 84.7233,195.942 z" id="boundary" inkscape:connector-curvature="0" />
	<path style="fill:none;stroke:red;stroke-width:1px;stroke-linecap:butt;stroke-linejoin:miter;stroke-opacity:1" d="M 102.662,195.942 120.6,195.942 z" id="boundary" inkscape:connector-curvature="0" />
	<path style="fill:none;stroke:red;stroke-width:1px;stroke-linecap:butt;stroke-linejoin:miter;stroke-opacity:1" d="M 102.662,195.942 84.7233,195.942 z" id="boundary" inkscape:connector-curvature="0" />
	<path style="fill:none;stroke:red;stroke-width:1px;stroke-linecap:butt;stroke-linejoin:miter;stroke-opacity:1" d="M 120.6,195.942 138.539,195.942 z" id="boundary" inkscape:connector-curvature="0" />
	<path style="fill:none;stroke:red;stroke-width:1px;stroke-linecap:butt;stroke-linejoin:miter;stroke-opacity:1" d="M 138.539,195.942 156.477,195.942 z" id="boundary" inkscape:connector-curvature="0" />
	<path style="fill:none;stroke:red;stroke-width:1px;stroke-linecap:butt;stroke-linejoin:miter;stroke-opacity:1" d="M 192.354,305.367 176.21,314.336 z" id="boundary" inkscape:connector-curvature="0" />
	<path style="fill:none;stroke:red;stroke-width:1px;stroke-linecap:butt;stroke-linejoin:miter;stroke-opacity:1" d="M 156.477,195.942 174.416,195.942 z" id="boundary" inkscape:connector-curvature="0" />
	<path style="fill:none;stroke:red;stroke-width:1px;stroke-linecap:butt;stroke-linejoin:miter;stroke-opacity:1" d="M 190.561,186.973 174.416,195.942 z" id="boundary" inkscape:connector-curvature="0" />
	<path style="fill:none;stroke:red;stroke-width:1px;stroke-linecap:butt;stroke-linejoin:miter;stroke-opacity:1" d="M 176.21,314.336 163.653,328.687 z" id="boundary" inkscape:connector-curvature="0" />
	<path style="fill:none;stroke:red;stroke-width:1px;stroke-linecap:butt;stroke-linejoin:miter;stroke-opacity:1" d="M 63.1971,357.389 48.8463,371.74 z" id="boundary" inkscape:connector-curvature="0" />
	<path style="fill:none;stroke:red;stroke-width:1px;stroke-linecap:butt;stroke-linejoin:miter;stroke-opacity:1" d="M 72.1664,339.45 63.1971,357.389 z" id="boundary" inkscape:connector-curvature="0" />
	<path style="fill:none;stroke:red;stroke-width:1px;stroke-linecap:butt;stroke-linejoin:miter;stroke-opacity:1" d="M 39.877,389.678 48.8463,371.74 z" id="boundary" inkscape:connector-curvature="0" />
	<path style="fill:none;stroke:red;stroke-width:1px;stroke-linecap:butt;stroke-linejoin:miter;stroke-opacity:1" d="M 30.9078,407.617 39.877,389.678 z" id="boundary" inkscape:connector-curvature="0" />
	<path style="fill:none;stroke:red;stroke-width:1px;stroke-linecap:butt;stroke-linejoin:miter;stroke-opacity:1" d="M 39.877,423.761 30.9078,407.617 z" id="boundary" inkscape:connector-curvature="0" />
	<path style="fill:none;stroke:red;stroke-width:1px;stroke-linecap:butt;stroke-linejoin:miter;stroke-opacity:1" d="M 70.3725,430.937 52.434,438.112 z" id="boundary" inkscape:connector-curvature="0" />
	<path style="fill:none;stroke:red;stroke-width:1px;stroke-linecap:butt;stroke-linejoin:miter;stroke-opacity:1" d="M 52.434,438.112 39.877,423.761 z" id="boundary" inkscape:connector-curvature="0" />
	<path style="fill:none;stroke:red;stroke-width:1px;stroke-linecap:butt;stroke-linejoin:miter;stroke-opacity:1" d="M 84.7233,416.586 70.3725,430.937 z" id="boundary" inkscape:connector-curvature="0" />
	<path style="fill:none;stroke:red;stroke-width:1px;stroke-linecap:butt;stroke-linejoin:miter;stroke-opacity:1" d="M 140.333,359.183 127.776,373.533 z" id="boundary" inkscape:connector-curvature="0" />
	<path style="fill:none;stroke:red;stroke-width:1px;stroke-linecap:butt;stroke-linejoin:miter;stroke-opacity:1" d="M 154.684,346.626 140.333,359.183 z" id="boundary" inkscape:connector-curvature="0" />
	<path style="fill:none;stroke:red;stroke-width:1px;stroke-linecap:butt;stroke-linejoin:miter;stroke-opacity:1" d="M 154.684,346.626 163.653,328.687 z" id="boundary" inkscape:connector-curvature="0" />
	<path style="fill:none;stroke:red;stroke-width:1px;stroke-linecap:butt;stroke-linejoin:miter;stroke-opacity:1" d="M 84.7233,323.306 77.5479,305.367 z" id="boundary" inkscape:connector-curvature="0" />
	<path style="fill:none;stroke:red;stroke-width:1px;stroke-linecap:butt;stroke-linejoin:miter;stroke-opacity:1" d="M 99.0741,404.029 84.7233,416.586 z" id="boundary" inkscape:connector-curvature="0" />
	<path style="fill:none;stroke:red;stroke-width:1px;stroke-linecap:butt;stroke-linejoin:miter;stroke-opacity:1" d="M 99.0741,404.029 113.425,386.09 z" id="boundary" inkscape:connector-curvature="0" />
	<path style="fill:none;stroke:red;stroke-width:1px;stroke-linecap:butt;stroke-linejoin:miter;stroke-opacity:1" d="M 127.776,373.533 113.425,386.09 z" id="boundary" inkscape:connector-curvature="0" />
	<path style="fill:none;stroke:red;stroke-width:1px;stroke-linecap:butt;stroke-linejoin:miter;stroke-opacity:1" d="M 72.1664,339.45 84.7233,323.306 z" id="boundary" inkscape:connector-curvature="0" />
	<path style="fill:none;stroke:red;stroke-width:1px;stroke-linecap:butt;stroke-linejoin:miter;stroke-opacity:1" d="M 273.078,75.7541 282.047,57.8156 z" id="boundary" inkscape:connector-curvature="0" />
	<path style="fill:none;stroke:red;stroke-width:1px;stroke-linecap:butt;stroke-linejoin:miter;stroke-opacity:1" d="M 296.398,43.4647 282.047,57.8156 z" id="boundary" inkscape:connector-curvature="0" />
	<path style="fill:none;stroke:red;stroke-width:1px;stroke-linecap:butt;stroke-linejoin:miter;stroke-opacity:1" d="M 305.367,25.5262 296.398,43.4647 z" id="boundary" inkscape:connector-curvature="0" />
	<path style="fill:none;stroke:red;stroke-width:1px;stroke-linecap:butt;stroke-linejoin:miter;stroke-opacity:1" d="M 282.047,127.776 278.459,160.065 z" id="boundary" inkscape:connector-curvature="0" />
	<path style="fill:none;stroke:red;stroke-width:1px;stroke-linecap:butt;stroke-linejoin:miter;stroke-opacity:1" d="M 278.459,160.065 260.521,169.034 z" id="boundary" inkscape:connector-curvature="0" />
	<path style="fill:none;stroke:red;stroke-width:1px;stroke-linecap:butt;stroke-linejoin:miter;stroke-opacity:1" d="M 282.047,109.837 282.047,127.776 z" id="boundary" inkscape:connector-curvature="0" />
	<path style="fill:none;stroke:red;stroke-width:1px;stroke-linecap:butt;stroke-linejoin:miter;stroke-opacity:1" d="M 273.078,93.6926 282.047,109.837 z" id="boundary" inkscape:connector-curvature="0" />
	<path style="fill:none;stroke:red;stroke-width:1px;stroke-linecap:butt;stroke-linejoin:miter;stroke-opacity:1" d="M 273.078,93.6926 273.078,75.7541 z" id="boundary" inkscape:connector-curvature="0" />
	<path style="fill:none;stroke:red;stroke-width:1px;stroke-linecap:butt;stroke-linejoin:miter;stroke-opacity:1" d="M 321.512,16.557 337.656,7.5877 z" id="boundary" inkscape:connector-curvature="0" />
	<path style="fill:none;stroke:red;stroke-width:1px;stroke-linecap:butt;stroke-linejoin:miter;stroke-opacity:1" d="M 337.656,7.5877 355.595,4 z" id="boundary" inkscape:connector-curvature="0" />
	<path style="fill:none;stroke:red;stroke-width:1px;stroke-linecap:butt;stroke-linejoin:miter;stroke-opacity:1" d="M 373.533,7.5877 387.884,18.3508 z" id="boundary" inkscape:connector-curvature="0" />
	<path style="fill:none;stroke:red;stroke-width:1px;stroke-linecap:butt;stroke-linejoin:miter;stroke-opacity:1" d="M 355.595,4 373.533,7.5877 z" id="boundary" inkscape:connector-curvature="0" />
	<path style="fill:none;stroke:red;stroke-width:1px;stroke-linecap:butt;stroke-linejoin:miter;stroke-opacity:1" d="M 400.441,32.7016 409.41,48.8463 z" id="boundary" inkscape:connector-curvature="0" />
	<path style="fill:none;stroke:red;stroke-width:1px;stroke-linecap:butt;stroke-linejoin:miter;stroke-opacity:1" d="M 387.884,18.3508 400.441,32.7016 z" id="boundary" inkscape:connector-curvature="0" />
	<path style="fill:none;stroke:red;stroke-width:1px;stroke-linecap:butt;stroke-linejoin:miter;stroke-opacity:1" d="M 305.367,25.5262 321.512,16.557 z" id="boundary" inkscape:connector-curvature="0" />
	<path style="fill:none;stroke:red;stroke-width:1px;stroke-linecap:butt;stroke-linejoin:miter;stroke-opacity:1" d="M 190.561,186.973 206.705,178.004 z" id="boundary" inkscape:connector-curvature="0" />
	<path style="fill:none;stroke:red;stroke-width:1px;stroke-linecap:butt;stroke-linejoin:miter;stroke-opacity:1" d="M 224.644,169.034 206.705,178.004 z" id="boundary" inkscape:connector-curvature="0" />
	<path style="fill:none;stroke:red;stroke-width:1px;stroke-linecap:butt;stroke-linejoin:miter;stroke-opacity:1" d="M 210.293,305.367 192.354,305.367 z" id="boundary" inkscape:connector-curvature="0" />
	<path style="fill:none;stroke:red;stroke-width:1px;stroke-linecap:butt;stroke-linejoin:miter;stroke-opacity:1" d="M 228.231,305.367 238.995,319.718 z" id="boundary" inkscape:connector-curvature="0" />
	<path style="fill:none;stroke:red;stroke-width:1px;stroke-linecap:butt;stroke-linejoin:miter;stroke-opacity:1" d="M 210.293,305.367 228.231,305.367 z" id="boundary" inkscape:connector-curvature="0" />
	<path style="fill:none;stroke:red;stroke-width:1px;stroke-linecap:butt;stroke-linejoin:miter;stroke-opacity:1" d="M 238.995,319.718 246.17,337.656 z" id="boundary" inkscape:connector-curvature="0" />
	<path style="fill:none;stroke:red;stroke-width:1px;stroke-linecap:butt;stroke-linejoin:miter;stroke-opacity:1" d="M 224.644,169.034 242.582,169.034 z" id="boundary" inkscape:connector-curvature="0" />
	<path style="fill:none;stroke:red;stroke-width:1px;stroke-linecap:butt;stroke-linejoin:miter;stroke-opacity:1" d="M 242.582,169.034 260.521,169.034 z" id="boundary" inkscape:connector-curvature="0" />
	<path style="fill:none;stroke:red;stroke-width:1px;stroke-linecap:butt;stroke-linejoin:miter;stroke-opacity:1" d="M 255.139,353.801 246.17,337.656 z" id="boundary" inkscape:connector-curvature="0" />
	<path style="fill:none;stroke:red;stroke-width:1px;stroke-linecap:butt;stroke-linejoin:miter;stroke-opacity:1" d="M 264.108,369.946 264.108,387.884 z" id="boundary" inkscape:connector-curvature="0" />
	<path style="fill:none;stroke:red;stroke-width:1px;stroke-linecap:butt;stroke-linejoin:miter;stroke-opacity:1" d="M 255.139,353.801 264.108,369.946 z" id="boundary" inkscape:connector-curvature="0" />
	<path style="fill:none;stroke:red;stroke-width:1px;stroke-linecap:butt;stroke-linejoin:miter;stroke-opacity:1" d="M 273.078,404.029 264.108,387.884 z" id="boundary" inkscape:connector-curvature="0" />
	<path style="fill:none;stroke:red;stroke-width:1px;stroke-linecap:butt;stroke-linejoin:miter;stroke-opacity:1" d="M 273.078,404.029 278.459,421.967 z" id="boundary" inkscape:connector-curvature="0" />
	<path style="fill:none;stroke:red;stroke-width:1px;stroke-linecap:butt;stroke-linejoin:miter;stroke-opacity:1" d="M 287.429,438.112 278.459,421.967 z" id="boundary" inkscape:connector-curvature="0" />
	<path style="fill:none;stroke:red;stroke-width:1px;stroke-linecap:butt;stroke-linejoin:miter;stroke-opacity:1" d="M 86.5172,782.532 100.868,769.975 z" id="boundary" inkscape:connector-curvature="0" />
	<path style="fill:none;stroke:red;stroke-width:1px;stroke-linecap:butt;stroke-linejoin:miter;stroke-opacity:1" d="M 113.425,755.624 100.868,769.975 z" id="boundary" inkscape:connector-curvature="0" />
	<path style="fill:none;stroke:red;stroke-width:1px;stroke-linecap:butt;stroke-linejoin:miter;stroke-opacity:1" d="M 50.6401,827.378 64.991,814.821 z" id="boundary" inkscape:connector-curvature="0" />
	<path style="fill:none;stroke:red;stroke-width:1px;stroke-linecap:butt;stroke-linejoin:miter;stroke-opacity:1" d="M 72.1664,796.882 64.991,814.821 z" id="boundary" inkscape:connector-curvature="0" />
	<path style="fill:none;stroke:red;stroke-width:1px;stroke-linecap:butt;stroke-linejoin:miter;stroke-opacity:1" d="M 86.5172,782.532 72.1664,796.882 z" id="boundary" inkscape:connector-curvature="0" />
	<path style="fill:none;stroke:red;stroke-width:1px;stroke-linecap:butt;stroke-linejoin:miter;stroke-opacity:1" d="M 50.6401,827.378 36.2893,841.729 z" id="boundary" inkscape:connector-curvature="0" />
	<path style="fill:none;stroke:red;stroke-width:1px;stroke-linecap:butt;stroke-linejoin:miter;stroke-opacity:1" d="M 185.179,665.931 176.21,683.87 z" id="boundary" inkscape:connector-curvature="0" />
	<path style="fill:none;stroke:red;stroke-width:1px;stroke-linecap:butt;stroke-linejoin:miter;stroke-opacity:1" d="M 176.21,683.87 163.653,698.221 z" id="boundary" inkscape:connector-curvature="0" />
	<path style="fill:none;stroke:red;stroke-width:1px;stroke-linecap:butt;stroke-linejoin:miter;stroke-opacity:1" d="M 163.653,698.221 149.302,710.778 z" id="boundary" inkscape:connector-curvature="0" />
	<path style="fill:none;stroke:red;stroke-width:1px;stroke-linecap:butt;stroke-linejoin:miter;stroke-opacity:1" d="M 140.333,728.716 149.302,710.778 z" id="boundary" inkscape:connector-curvature="0" />
	<path style="fill:none;stroke:red;stroke-width:1px;stroke-linecap:butt;stroke-linejoin:miter;stroke-opacity:1" d="M 194.148,798.676 181.591,813.027 z" id="boundary" inkscape:connector-curvature="0" />
	<path style="fill:none;stroke:red;stroke-width:1px;stroke-linecap:butt;stroke-linejoin:miter;stroke-opacity:1" d="M 140.333,728.716 127.776,743.067 z" id="boundary" inkscape:connector-curvature="0" />
	<path style="fill:none;stroke:red;stroke-width:1px;stroke-linecap:butt;stroke-linejoin:miter;stroke-opacity:1" d="M 181.591,813.027 167.241,825.584 z" id="boundary" inkscape:connector-curvature="0" />
	<path style="fill:none;stroke:red;stroke-width:1px;stroke-linecap:butt;stroke-linejoin:miter;stroke-opacity:1" d="M 113.425,755.624 127.776,743.067 z" id="boundary" inkscape:connector-curvature="0" />
	<path style="fill:none;stroke:red;stroke-width:1px;stroke-linecap:butt;stroke-linejoin:miter;stroke-opacity:1" d="M 167.241,825.584 149.302,834.553 z" id="boundary" inkscape:connector-curvature="0" />
	<path style="fill:none;stroke:red;stroke-width:1px;stroke-linecap:butt;stroke-linejoin:miter;stroke-opacity:1" d="M 36.2893,841.729 27.3201,859.667 z" id="boundary" inkscape:connector-curvature="0" />
	<path style="fill:none;stroke:red;stroke-width:1px;stroke-linecap:butt;stroke-linejoin:miter;stroke-opacity:1" d="M 27.3201,859.667 12.9693,874.018 z" id="boundary" inkscape:connector-curvature="0" />
	<path style="fill:none;stroke:red;stroke-width:1px;stroke-linecap:butt;stroke-linejoin:miter;stroke-opacity:1" d="M 4,891.957 12.9693,874.018 z" id="boundary" inkscape:connector-curvature="0" />
	<path style="fill:none;stroke:red;stroke-width:1px;stroke-linecap:butt;stroke-linejoin:miter;stroke-opacity:1" d="M 12.9693,926.04 4,909.895 z" id="boundary" inkscape:connector-curvature="0" />
	<path style="fill:none;stroke:red;stroke-width:1px;stroke-linecap:butt;stroke-linejoin:miter;stroke-opacity:1" d="M 47.0524,924.246 30.9078,933.215 z" id="boundary" inkscape:connector-curvature="0" />
	<path style="fill:none;stroke:red;stroke-width:1px;stroke-linecap:butt;stroke-linejoin:miter;stroke-opacity:1" d="M 30.9078,933.215 12.9693,926.04 z" id="boundary" inkscape:connector-curvature="0" />
	<path style="fill:none;stroke:red;stroke-width:1px;stroke-linecap:butt;stroke-linejoin:miter;stroke-opacity:1" d="M 4,909.895 4,891.957 z" id="boundary" inkscape:connector-curvature="0" />
	<path style="fill:none;stroke:red;stroke-width:1px;stroke-linecap:butt;stroke-linejoin:miter;stroke-opacity:1" d="M 108.043,877.606 125.982,868.637 z" id="boundary" inkscape:connector-curvature="0" />
	<path style="fill:none;stroke:red;stroke-width:1px;stroke-linecap:butt;stroke-linejoin:miter;stroke-opacity:1" d="M 93.6926,891.957 108.043,877.606 z" id="boundary" inkscape:connector-curvature="0" />
	<path style="fill:none;stroke:red;stroke-width:1px;stroke-linecap:butt;stroke-linejoin:miter;stroke-opacity:1" d="M 140.333,852.492 149.302,834.553 z" id="boundary" inkscape:connector-curvature="0" />
	<path style="fill:none;stroke:red;stroke-width:1px;stroke-linecap:butt;stroke-linejoin:miter;stroke-opacity:1" d="M 125.982,868.637 140.333,852.492 z" id="boundary" inkscape:connector-curvature="0" />
	<path style="fill:none;stroke:red;stroke-width:1px;stroke-linecap:butt;stroke-linejoin:miter;stroke-opacity:1" d="M 47.0524,924.246 63.1971,915.277 z" id="boundary" inkscape:connector-curvature="0" />
	<path style="fill:none;stroke:red;stroke-width:1px;stroke-linecap:butt;stroke-linejoin:miter;stroke-opacity:1" d="M 79.3418,906.307 93.6926,891.957 z" id="boundary" inkscape:connector-curvature="0" />
	<path style="fill:none;stroke:red;stroke-width:1px;stroke-linecap:butt;stroke-linejoin:miter;stroke-opacity:1" d="M 79.3418,906.307 63.1971,915.277 z" id="boundary" inkscape:connector-curvature="0" />
	<path style="fill:none;stroke:red;stroke-width:1px;stroke-linecap:butt;stroke-linejoin:miter;stroke-opacity:1" d="M 282.047,542.156 278.459,563.682 z" id="boundary" inkscape:connector-curvature="0" />
	<path style="fill:none;stroke:red;stroke-width:1px;stroke-linecap:butt;stroke-linejoin:miter;stroke-opacity:1" d="M 278.459,563.682 264.108,578.033 z" id="boundary" inkscape:connector-curvature="0" />
	<path style="fill:none;stroke:red;stroke-width:1px;stroke-linecap:butt;stroke-linejoin:miter;stroke-opacity:1" d="M 253.345,599.559 264.108,578.033 z" id="boundary" inkscape:connector-curvature="0" />
	<path style="fill:none;stroke:red;stroke-width:1px;stroke-linecap:butt;stroke-linejoin:miter;stroke-opacity:1" d="M 212.087,639.024 226.438,626.467 z" id="boundary" inkscape:connector-curvature="0" />
	<path style="fill:none;stroke:red;stroke-width:1px;stroke-linecap:butt;stroke-linejoin:miter;stroke-opacity:1" d="M 226.438,626.467 238.995,612.116 z" id="boundary" inkscape:connector-curvature="0" />
	<path style="fill:none;stroke:red;stroke-width:1px;stroke-linecap:butt;stroke-linejoin:miter;stroke-opacity:1" d="M 253.345,599.559 238.995,612.116 z" id="boundary" inkscape:connector-curvature="0" />
	<path style="fill:none;stroke:red;stroke-width:1px;stroke-linecap:butt;stroke-linejoin:miter;stroke-opacity:1" d="M 291.016,524.217 282.047,542.156 z" id="boundary" inkscape:connector-curvature="0" />
	<path style="fill:none;stroke:red;stroke-width:1px;stroke-linecap:butt;stroke-linejoin:miter;stroke-opacity:1" d="M 291.016,456.051 287.429,438.112 z" id="boundary" inkscape:connector-curvature="0" />
	<path style="fill:none;stroke:red;stroke-width:1px;stroke-linecap:butt;stroke-linejoin:miter;stroke-opacity:1" d="M 299.986,472.195 291.016,456.051 z" id="boundary" inkscape:connector-curvature="0" />
	<path style="fill:none;stroke:red;stroke-width:1px;stroke-linecap:butt;stroke-linejoin:miter;stroke-opacity:1" d="M 299.986,472.195 299.986,490.134 z" id="boundary" inkscape:connector-curvature="0" />
	<path style="fill:none;stroke:red;stroke-width:1px;stroke-linecap:butt;stroke-linejoin:miter;stroke-opacity:1" d="M 299.986,508.072 299.986,490.134 z" id="boundary" inkscape:connector-curvature="0" />
	<path style="fill:none;stroke:red;stroke-width:1px;stroke-linecap:butt;stroke-linejoin:miter;stroke-opacity:1" d="M 291.016,524.217 299.986,508.072 z" id="boundary" inkscape:connector-curvature="0" />
	<path style="fill:none;stroke:red;stroke-width:1px;stroke-linecap:butt;stroke-linejoin:miter;stroke-opacity:1" d="M 391.472,628.26 373.533,628.26 z" id="boundary" inkscape:connector-curvature="0" />
	<path style="fill:none;stroke:red;stroke-width:1px;stroke-linecap:butt;stroke-linejoin:miter;stroke-opacity:1" d="M 212.087,639.024 199.53,653.374 z" id="boundary" inkscape:connector-curvature="0" />
	<path style="fill:none;stroke:red;stroke-width:1px;stroke-linecap:butt;stroke-linejoin:miter;stroke-opacity:1" d="M 360.976,642.611 373.533,628.26 z" id="boundary" inkscape:connector-curvature="0" />
	<path style="fill:none;stroke:red;stroke-width:1px;stroke-linecap:butt;stroke-linejoin:miter;stroke-opacity:1" d="M 262.315,732.304 247.964,744.861 z" id="boundary" inkscape:connector-curvature="0" />
	<path style="fill:none;stroke:red;stroke-width:1px;stroke-linecap:butt;stroke-linejoin:miter;stroke-opacity:1" d="M 199.53,653.374 185.179,665.931 z" id="boundary" inkscape:connector-curvature="0" />
	<path style="fill:none;stroke:red;stroke-width:1px;stroke-linecap:butt;stroke-linejoin:miter;stroke-opacity:1" d="M 247.964,744.861 235.407,759.212 z" id="boundary" inkscape:connector-curvature="0" />
	<path style="fill:none;stroke:red;stroke-width:1px;stroke-linecap:butt;stroke-linejoin:miter;stroke-opacity:1" d="M 208.499,786.119 194.148,798.676 z" id="boundary" inkscape:connector-curvature="0" />
	<path style="fill:none;stroke:red;stroke-width:1px;stroke-linecap:butt;stroke-linejoin:miter;stroke-opacity:1" d="M 221.056,771.769 235.407,759.212 z" id="boundary" inkscape:connector-curvature="0" />
	<path style="fill:none;stroke:red;stroke-width:1px;stroke-linecap:butt;stroke-linejoin:miter;stroke-opacity:1" d="M 208.499,786.119 221.056,771.769 z" id="boundary" inkscape:connector-curvature="0" />
	<path style="fill:none;stroke:red;stroke-width:1px;stroke-linecap:butt;stroke-linejoin:miter;stroke-opacity:1" d="M 316.13,678.488 328.687,664.137 z" id="boundary" inkscape:connector-curvature="0" />
	<path style="fill:none;stroke:red;stroke-width:1px;stroke-linecap:butt;stroke-linejoin:miter;stroke-opacity:1" d="M 301.779,691.045 289.222,705.396 z" id="boundary" inkscape:connector-curvature="0" />
	<path style="fill:none;stroke:red;stroke-width:1px;stroke-linecap:butt;stroke-linejoin:miter;stroke-opacity:1" d="M 343.038,651.58 360.976,642.611 z" id="boundary" inkscape:connector-curvature="0" />
	<path style="fill:none;stroke:red;stroke-width:1px;stroke-linecap:butt;stroke-linejoin:miter;stroke-opacity:1" d="M 328.687,664.137 343.038,651.58 z" id="boundary" inkscape:connector-curvature="0" />
	<path style="fill:none;stroke:red;stroke-width:1px;stroke-linecap:butt;stroke-linejoin:miter;stroke-opacity:1" d="M 262.315,732.304 274.872,717.953 z" id="boundary" inkscape:connector-curvature="0" />
	<path style="fill:none;stroke:red;stroke-width:1px;stroke-linecap:butt;stroke-linejoin:miter;stroke-opacity:1" d="M 274.872,717.953 289.222,705.396 z" id="boundary" inkscape:connector-curvature="0" />
	<path style="fill:none;stroke:red;stroke-width:1px;stroke-linecap:butt;stroke-linejoin:miter;stroke-opacity:1" d="M 301.779,691.045 316.13,678.488 z" id="boundary" inkscape:connector-curvature="0" />
	<path style="fill:none;stroke:red;stroke-width:1px;stroke-linecap:butt;stroke-linejoin:miter;stroke-opacity:1" d="M 409.41,48.8463 418.38,64.991 z" id="boundary" inkscape:connector-curvature="0" />
	<path style="fill:none;stroke:red;stroke-width:1px;stroke-linecap:butt;stroke-linejoin:miter;stroke-opacity:1" d="M 418.38,64.991 427.349,81.1356 z" id="boundary" inkscape:connector-curvature="0" />
	<path style="fill:none;stroke:red;stroke-width:1px;stroke-linecap:butt;stroke-linejoin:miter;stroke-opacity:1" d="M 427.349,81.1356 427.349,99.0741 z" id="boundary" inkscape:connector-curvature="0" />
	<path style="fill:none;stroke:red;stroke-width:1px;stroke-linecap:butt;stroke-linejoin:miter;stroke-opacity:1" d="M 427.349,117.013 427.349,99.0741 z" id="boundary" inkscape:connector-curvature="0" />
	<path style="fill:none;stroke:red;stroke-width:1px;stroke-linecap:butt;stroke-linejoin:miter;stroke-opacity:1" d="M 430.937,134.951 439.906,151.096 z" id="boundary" inkscape:connector-curvature="0" />
	<path style="fill:none;stroke:red;stroke-width:1px;stroke-linecap:butt;stroke-linejoin:miter;stroke-opacity:1" d="M 473.989,160.065 456.051,160.065 z" id="boundary" inkscape:connector-curvature="0" />
	<path style="fill:none;stroke:red;stroke-width:1px;stroke-linecap:butt;stroke-linejoin:miter;stroke-opacity:1" d="M 439.906,151.096 456.051,160.065 z" id="boundary" inkscape:connector-curvature="0" />
	<path style="fill:none;stroke:red;stroke-width:1px;stroke-linecap:butt;stroke-linejoin:miter;stroke-opacity:1" d="M 430.937,134.951 427.349,117.013 z" id="boundary" inkscape:connector-curvature="0" />
	<path style="fill:none;stroke:red;stroke-width:1px;stroke-linecap:butt;stroke-linejoin:miter;stroke-opacity:1" d="M 473.989,160.065 491.928,160.065 z" id="boundary" inkscape:connector-curvature="0" />
	<path style="fill:none;stroke:red;stroke-width:1px;stroke-linecap:butt;stroke-linejoin:miter;stroke-opacity:1" d="M 509.866,160.065 491.928,160.065 z" id="boundary" inkscape:connector-curvature="0" />
	<path style="fill:none;stroke:red;stroke-width:1px;stroke-linecap:butt;stroke-linejoin:miter;stroke-opacity:1" d="M 509.866,160.065 526.011,169.034 z" id="boundary" inkscape:connector-curvature="0" />
	<path style="fill:none;stroke:red;stroke-width:1px;stroke-linecap:butt;stroke-linejoin:miter;stroke-opacity:1" d="M 526.011,169.034 543.949,174.416 z" id="boundary" inkscape:connector-curvature="0" />
	<path style="fill:none;stroke:red;stroke-width:1px;stroke-linecap:butt;stroke-linejoin:miter;stroke-opacity:1" d="M 543.949,174.416 558.3,186.973 z" id="boundary" inkscape:connector-curvature="0" />
	<path style="fill:none;stroke:red;stroke-width:1px;stroke-linecap:butt;stroke-linejoin:miter;stroke-opacity:1" d="M 592.383,195.942 574.445,195.942 z" id="boundary" inkscape:connector-curvature="0" />
	<path style="fill:none;stroke:red;stroke-width:1px;stroke-linecap:butt;stroke-linejoin:miter;stroke-opacity:1" d="M 574.445,195.942 558.3,186.973 z" id="boundary" inkscape:connector-curvature="0" />
	<path style="fill:none;stroke:red;stroke-width:1px;stroke-linecap:butt;stroke-linejoin:miter;stroke-opacity:1" d="M 472.195,395.06 472.195,377.121 z" id="boundary" inkscape:connector-curvature="0" />
	<path style="fill:none;stroke:red;stroke-width:1px;stroke-linecap:butt;stroke-linejoin:miter;stroke-opacity:1" d="M 472.195,377.121 481.165,350.213 z" id="boundary" inkscape:connector-curvature="0" />
	<path style="fill:none;stroke:red;stroke-width:1px;stroke-linecap:butt;stroke-linejoin:miter;stroke-opacity:1" d="M 472.195,412.998 472.195,395.06 z" id="boundary" inkscape:connector-curvature="0" />
	<path style="fill:none;stroke:red;stroke-width:1px;stroke-linecap:butt;stroke-linejoin:miter;stroke-opacity:1" d="M 472.195,412.998 463.226,430.937 z" id="boundary" inkscape:connector-curvature="0" />
	<path style="fill:none;stroke:red;stroke-width:1px;stroke-linecap:butt;stroke-linejoin:miter;stroke-opacity:1" d="M 463.226,430.937 463.226,448.875 z" id="boundary" inkscape:connector-curvature="0" />
	<path style="fill:none;stroke:red;stroke-width:1px;stroke-linecap:butt;stroke-linejoin:miter;stroke-opacity:1" d="M 463.226,466.814 463.226,484.752 z" id="boundary" inkscape:connector-curvature="0" />
	<path style="fill:none;stroke:red;stroke-width:1px;stroke-linecap:butt;stroke-linejoin:miter;stroke-opacity:1" d="M 463.226,466.814 463.226,448.875 z" id="boundary" inkscape:connector-curvature="0" />
	<path style="fill:none;stroke:red;stroke-width:1px;stroke-linecap:butt;stroke-linejoin:miter;stroke-opacity:1" d="M 497.309,305.367 515.248,305.367 z" id="boundary" inkscape:connector-curvature="0" />
	<path style="fill:none;stroke:red;stroke-width:1px;stroke-linecap:butt;stroke-linejoin:miter;stroke-opacity:1" d="M 551.125,305.367 533.186,305.367 z" id="boundary" inkscape:connector-curvature="0" />
	<path style="fill:none;stroke:red;stroke-width:1px;stroke-linecap:butt;stroke-linejoin:miter;stroke-opacity:1" d="M 533.186,305.367 515.248,305.367 z" id="boundary" inkscape:connector-curvature="0" />
	<path style="fill:none;stroke:red;stroke-width:1px;stroke-linecap:butt;stroke-linejoin:miter;stroke-opacity:1" d="M 481.165,314.336 497.309,305.367 z" id="boundary" inkscape:connector-curvature="0" />
	<path style="fill:none;stroke:red;stroke-width:1px;stroke-linecap:butt;stroke-linejoin:miter;stroke-opacity:1" d="M 481.165,332.275 481.165,314.336 z" id="boundary" inkscape:connector-curvature="0" />
	<path style="fill:none;stroke:red;stroke-width:1px;stroke-linecap:butt;stroke-linejoin:miter;stroke-opacity:1" d="M 481.165,350.213 481.165,332.275 z" id="boundary" inkscape:connector-curvature="0" />
	<path style="fill:none;stroke:red;stroke-width:1px;stroke-linecap:butt;stroke-linejoin:miter;stroke-opacity:1" d="M 569.063,305.367 551.125,305.367 z" id="boundary" inkscape:connector-curvature="0" />
	<path style="fill:none;stroke:red;stroke-width:1px;stroke-linecap:butt;stroke-linejoin:miter;stroke-opacity:1" d="M 569.063,305.367 579.826,319.718 z" id="boundary" inkscape:connector-curvature="0" />
	<path style="fill:none;stroke:red;stroke-width:1px;stroke-linecap:butt;stroke-linejoin:miter;stroke-opacity:1" d="M 463.226,484.752 463.226,502.691 z" id="boundary" inkscape:connector-curvature="0" />
	<path style="fill:none;stroke:red;stroke-width:1px;stroke-linecap:butt;stroke-linejoin:miter;stroke-opacity:1" d="M 610.322,195.942 592.383,195.942 z" id="boundary" inkscape:connector-curvature="0" />
	<path style="fill:none;stroke:red;stroke-width:1px;stroke-linecap:butt;stroke-linejoin:miter;stroke-opacity:1" d="M 628.26,195.942 610.322,195.942 z" id="boundary" inkscape:connector-curvature="0" />
	<path style="fill:none;stroke:red;stroke-width:1px;stroke-linecap:butt;stroke-linejoin:miter;stroke-opacity:1" d="M 628.26,195.942 646.199,195.942 z" id="boundary" inkscape:connector-curvature="0" />
	<path style="fill:none;stroke:red;stroke-width:1px;stroke-linecap:butt;stroke-linejoin:miter;stroke-opacity:1" d="M 646.199,195.942 664.137,195.942 z" id="boundary" inkscape:connector-curvature="0" />
	<path style="fill:none;stroke:red;stroke-width:1px;stroke-linecap:butt;stroke-linejoin:miter;stroke-opacity:1" d="M 594.177,332.275 579.826,319.718 z" id="boundary" inkscape:connector-curvature="0" />
	<path style="fill:none;stroke:red;stroke-width:1px;stroke-linecap:butt;stroke-linejoin:miter;stroke-opacity:1" d="M 682.076,195.942 700.014,195.942 z" id="boundary" inkscape:connector-curvature="0" />
	<path style="fill:none;stroke:red;stroke-width:1px;stroke-linecap:butt;stroke-linejoin:miter;stroke-opacity:1" d="M 700.014,195.942 705.396,213.881 z" id="boundary" inkscape:connector-curvature="0" />
	<path style="fill:none;stroke:red;stroke-width:1px;stroke-linecap:butt;stroke-linejoin:miter;stroke-opacity:1" d="M 682.076,195.942 664.137,195.942 z" id="boundary" inkscape:connector-curvature="0" />
	<path style="fill:none;stroke:red;stroke-width:1px;stroke-linecap:butt;stroke-linejoin:miter;stroke-opacity:1" d="M 705.396,213.881 705.396,231.819 z" id="boundary" inkscape:connector-curvature="0" />
	<path style="fill:none;stroke:red;stroke-width:1px;stroke-linecap:butt;stroke-linejoin:miter;stroke-opacity:1" d="M 705.396,231.819 705.396,249.758 z" id="boundary" inkscape:connector-curvature="0" />
	<path style="fill:none;stroke:red;stroke-width:1px;stroke-linecap:butt;stroke-linejoin:miter;stroke-opacity:1" d="M 705.396,267.696 705.396,285.635 z" id="boundary" inkscape:connector-curvature="0" />
	<path style="fill:none;stroke:red;stroke-width:1px;stroke-linecap:butt;stroke-linejoin:miter;stroke-opacity:1" d="M 705.396,249.758 705.396,267.696 z" id="boundary" inkscape:connector-curvature="0" />
	<path style="fill:none;stroke:red;stroke-width:1px;stroke-linecap:butt;stroke-linejoin:miter;stroke-opacity:1" d="M 705.396,285.635 687.458,305.367 z" id="boundary" inkscape:connector-curvature="0" />
	<path style="fill:none;stroke:red;stroke-width:1px;stroke-linecap:butt;stroke-linejoin:miter;stroke-opacity:1" d="M 678.488,321.512 669.519,305.367 z" id="boundary" inkscape:connector-curvature="0" />
	<path style="fill:none;stroke:red;stroke-width:1px;stroke-linecap:butt;stroke-linejoin:miter;stroke-opacity:1" d="M 606.734,346.626 594.177,332.275 z" id="boundary" inkscape:connector-curvature="0" />
	<path style="fill:none;stroke:red;stroke-width:1px;stroke-linecap:butt;stroke-linejoin:miter;stroke-opacity:1" d="M 621.085,359.183 606.734,346.626 z" id="boundary" inkscape:connector-curvature="0" />
	<path style="fill:none;stroke:red;stroke-width:1px;stroke-linecap:butt;stroke-linejoin:miter;stroke-opacity:1" d="M 621.085,359.183 633.642,373.533 z" id="boundary" inkscape:connector-curvature="0" />
	<path style="fill:none;stroke:red;stroke-width:1px;stroke-linecap:butt;stroke-linejoin:miter;stroke-opacity:1" d="M 647.993,386.09 660.55,400.441 z" id="boundary" inkscape:connector-curvature="0" />
	<path style="fill:none;stroke:red;stroke-width:1px;stroke-linecap:butt;stroke-linejoin:miter;stroke-opacity:1" d="M 647.993,386.09 633.642,373.533 z" id="boundary" inkscape:connector-curvature="0" />
	<path style="fill:none;stroke:red;stroke-width:1px;stroke-linecap:butt;stroke-linejoin:miter;stroke-opacity:1" d="M 678.488,321.512 687.458,337.656 z" id="boundary" inkscape:connector-curvature="0" />
	<path style="fill:none;stroke:red;stroke-width:1px;stroke-linecap:butt;stroke-linejoin:miter;stroke-opacity:1" d="M 678.488,407.617 660.55,400.441 z" id="boundary" inkscape:connector-curvature="0" />
	<path style="fill:none;stroke:red;stroke-width:1px;stroke-linecap:butt;stroke-linejoin:miter;stroke-opacity:1" d="M 701.808,350.213 714.365,364.564 z" id="boundary" inkscape:connector-curvature="0" />
	<path style="fill:none;stroke:red;stroke-width:1px;stroke-linecap:butt;stroke-linejoin:miter;stroke-opacity:1" d="M 723.335,380.709 714.365,364.564 z" id="boundary" inkscape:connector-curvature="0" />
	<path style="fill:none;stroke:red;stroke-width:1px;stroke-linecap:butt;stroke-linejoin:miter;stroke-opacity:1" d="M 701.808,350.213 687.458,337.656 z" id="boundary" inkscape:connector-curvature="0" />
	<path style="fill:none;stroke:red;stroke-width:1px;stroke-linecap:butt;stroke-linejoin:miter;stroke-opacity:1" d="M 694.633,416.586 678.488,407.617 z" id="boundary" inkscape:connector-curvature="0" />
	<path style="fill:none;stroke:red;stroke-width:1px;stroke-linecap:butt;stroke-linejoin:miter;stroke-opacity:1" d="M 712.571,421.967 726.922,411.204 z" id="boundary" inkscape:connector-curvature="0" />
	<path style="fill:none;stroke:red;stroke-width:1px;stroke-linecap:butt;stroke-linejoin:miter;stroke-opacity:1" d="M 712.571,421.967 694.633,416.586 z" id="boundary" inkscape:connector-curvature="0" />
	<path style="fill:none;stroke:red;stroke-width:1px;stroke-linecap:butt;stroke-linejoin:miter;stroke-opacity:1" d="M 723.335,380.709 726.922,411.204 z" id="boundary" inkscape:connector-curvature="0" />
	<path style="fill:none;stroke:red;stroke-width:1px;stroke-linecap:butt;stroke-linejoin:miter;stroke-opacity:1" d="M 409.41,628.26 391.472,628.26 z" id="boundary" inkscape:connector-curvature="0" />
	<path style="fill:none;stroke:red;stroke-width:1px;stroke-linecap:butt;stroke-linejoin:miter;stroke-opacity:1" d="M 472.195,518.835 463.226,502.691 z" id="boundary" inkscape:connector-curvature="0" />
	<path style="fill:none;stroke:red;stroke-width:1px;stroke-linecap:butt;stroke-linejoin:miter;stroke-opacity:1" d="M 481.165,534.98 472.195,518.835 z" id="boundary" inkscape:connector-curvature="0" />
	<path style="fill:none;stroke:red;stroke-width:1px;stroke-linecap:butt;stroke-linejoin:miter;stroke-opacity:1" d="M 495.515,547.537 481.165,534.98 z" id="boundary" inkscape:connector-curvature="0" />
	<path style="fill:none;stroke:red;stroke-width:1px;stroke-linecap:butt;stroke-linejoin:miter;stroke-opacity:1" d="M 425.555,637.23 441.7,646.199 z" id="boundary" inkscape:connector-curvature="0" />
	<path style="fill:none;stroke:red;stroke-width:1px;stroke-linecap:butt;stroke-linejoin:miter;stroke-opacity:1" d="M 425.555,637.23 409.41,628.26 z" id="boundary" inkscape:connector-curvature="0" />
	<path style="fill:none;stroke:red;stroke-width:1px;stroke-linecap:butt;stroke-linejoin:miter;stroke-opacity:1" d="M 495.515,547.537 508.072,561.888 z" id="boundary" inkscape:connector-curvature="0" />
	<path style="fill:none;stroke:red;stroke-width:1px;stroke-linecap:butt;stroke-linejoin:miter;stroke-opacity:1" d="M 441.7,646.199 457.844,655.168 z" id="boundary" inkscape:connector-curvature="0" />
	<path style="fill:none;stroke:red;stroke-width:1px;stroke-linecap:butt;stroke-linejoin:miter;stroke-opacity:1" d="M 508.072,561.888 522.423,574.445 z" id="boundary" inkscape:connector-curvature="0" />
	<path style="fill:none;stroke:red;stroke-width:1px;stroke-linecap:butt;stroke-linejoin:miter;stroke-opacity:1" d="M 534.98,588.796 549.331,601.353 z" id="boundary" inkscape:connector-curvature="0" />
	<path style="fill:none;stroke:red;stroke-width:1px;stroke-linecap:butt;stroke-linejoin:miter;stroke-opacity:1" d="M 534.98,588.796 522.423,574.445 z" id="boundary" inkscape:connector-curvature="0" />
	<path style="fill:none;stroke:red;stroke-width:1px;stroke-linecap:butt;stroke-linejoin:miter;stroke-opacity:1" d="M 561.888,615.703 576.239,628.26 z" id="boundary" inkscape:connector-curvature="0" />
	<path style="fill:none;stroke:red;stroke-width:1px;stroke-linecap:butt;stroke-linejoin:miter;stroke-opacity:1" d="M 561.888,615.703 549.331,601.353 z" id="boundary" inkscape:connector-curvature="0" />
	<path style="fill:none;stroke:red;stroke-width:1px;stroke-linecap:butt;stroke-linejoin:miter;stroke-opacity:1" d="M 576.239,628.26 588.796,642.611 z" id="boundary" inkscape:connector-curvature="0" />
	<path style="fill:none;stroke:red;stroke-width:1px;stroke-linecap:butt;stroke-linejoin:miter;stroke-opacity:1" d="M 603.146,653.374 588.796,642.611 z" id="boundary" inkscape:connector-curvature="0" />
	<path style="fill:none;stroke:red;stroke-width:1px;stroke-linecap:butt;stroke-linejoin:miter;stroke-opacity:1" d="M 619.291,662.344 603.146,653.374 z" id="boundary" inkscape:connector-curvature="0" />
	<path style="fill:none;stroke:red;stroke-width:1px;stroke-linecap:butt;stroke-linejoin:miter;stroke-opacity:1" d="M 457.844,655.168 473.989,664.137 z" id="boundary" inkscape:connector-curvature="0" />
	<path style="fill:none;stroke:red;stroke-width:1px;stroke-linecap:butt;stroke-linejoin:miter;stroke-opacity:1" d="M 488.34,674.901 473.989,664.137 z" id="boundary" inkscape:connector-curvature="0" />
	<path style="fill:none;stroke:red;stroke-width:1px;stroke-linecap:butt;stroke-linejoin:miter;stroke-opacity:1" d="M 488.34,674.901 500.897,689.251 z" id="boundary" inkscape:connector-curvature="0" />
	<path style="fill:none;stroke:red;stroke-width:1px;stroke-linecap:butt;stroke-linejoin:miter;stroke-opacity:1" d="M 515.248,700.014 500.897,689.251 z" id="boundary" inkscape:connector-curvature="0" />
	<path style="fill:none;stroke:red;stroke-width:1px;stroke-linecap:butt;stroke-linejoin:miter;stroke-opacity:1" d="M 531.392,708.984 543.949,723.335 z" id="boundary" inkscape:connector-curvature="0" />
	<path style="fill:none;stroke:red;stroke-width:1px;stroke-linecap:butt;stroke-linejoin:miter;stroke-opacity:1" d="M 515.248,700.014 531.392,708.984 z" id="boundary" inkscape:connector-curvature="0" />
	<path style="fill:none;stroke:red;stroke-width:1px;stroke-linecap:butt;stroke-linejoin:miter;stroke-opacity:1" d="M 543.949,723.335 558.3,735.892 z" id="boundary" inkscape:connector-curvature="0" />
	<path style="fill:none;stroke:red;stroke-width:1px;stroke-linecap:butt;stroke-linejoin:miter;stroke-opacity:1" d="M 558.3,735.892 574.445,744.861 z" id="boundary" inkscape:connector-curvature="0" />
	<path style="fill:none;stroke:red;stroke-width:1px;stroke-linecap:butt;stroke-linejoin:miter;stroke-opacity:1" d="M 619.291,662.344 631.848,676.694 z" id="boundary" inkscape:connector-curvature="0" />
	<path style="fill:none;stroke:red;stroke-width:1px;stroke-linecap:butt;stroke-linejoin:miter;stroke-opacity:1" d="M 646.199,689.251 631.848,676.694 z" id="boundary" inkscape:connector-curvature="0" />
	<path style="fill:none;stroke:red;stroke-width:1px;stroke-linecap:butt;stroke-linejoin:miter;stroke-opacity:1" d="M 588.796,757.418 574.445,744.861 z" id="boundary" inkscape:connector-curvature="0" />
	<path style="fill:none;stroke:red;stroke-width:1px;stroke-linecap:butt;stroke-linejoin:miter;stroke-opacity:1" d="M 588.796,757.418 595.971,775.356 z" id="boundary" inkscape:connector-curvature="0" />
	<path style="fill:none;stroke:red;stroke-width:1px;stroke-linecap:butt;stroke-linejoin:miter;stroke-opacity:1" d="M 610.322,787.913 595.971,775.356 z" id="boundary" inkscape:connector-curvature="0" />
	<path style="fill:none;stroke:red;stroke-width:1px;stroke-linecap:butt;stroke-linejoin:miter;stroke-opacity:1" d="M 622.879,802.264 610.322,787.913 z" id="boundary" inkscape:connector-curvature="0" />
	<path style="fill:none;stroke:red;stroke-width:1px;stroke-linecap:butt;stroke-linejoin:miter;stroke-opacity:1" d="M 622.879,802.264 631.848,818.409 z" id="boundary" inkscape:connector-curvature="0" />
	<path style="fill:none;stroke:red;stroke-width:1px;stroke-linecap:butt;stroke-linejoin:miter;stroke-opacity:1" d="M 665.931,717.953 651.58,707.19 z" id="boundary" inkscape:connector-curvature="0" />
	<path style="fill:none;stroke:red;stroke-width:1px;stroke-linecap:butt;stroke-linejoin:miter;stroke-opacity:1" d="M 651.58,707.19 646.199,689.251 z" id="boundary" inkscape:connector-curvature="0" />
	<path style="fill:none;stroke:red;stroke-width:1px;stroke-linecap:butt;stroke-linejoin:miter;stroke-opacity:1" d="M 665.931,717.953 678.488,732.304 z" id="boundary" inkscape:connector-curvature="0" />
	<path style="fill:none;stroke:red;stroke-width:1px;stroke-linecap:butt;stroke-linejoin:miter;stroke-opacity:1" d="M 631.848,818.409 640.817,834.553 z" id="boundary" inkscape:connector-curvature="0" />
	<path style="fill:none;stroke:red;stroke-width:1px;stroke-linecap:butt;stroke-linejoin:miter;stroke-opacity:1" d="M 687.458,748.448 694.633,766.387 z" id="boundary" inkscape:connector-curvature="0" />
	<path style="fill:none;stroke:red;stroke-width:1px;stroke-linecap:butt;stroke-linejoin:miter;stroke-opacity:1" d="M 649.787,850.698 640.817,834.553 z" id="boundary" inkscape:connector-curvature="0" />
	<path style="fill:none;stroke:red;stroke-width:1px;stroke-linecap:butt;stroke-linejoin:miter;stroke-opacity:1" d="M 678.488,732.304 687.458,748.448 z" id="boundary" inkscape:connector-curvature="0" />
	<path style="fill:none;stroke:red;stroke-width:1px;stroke-linecap:butt;stroke-linejoin:miter;stroke-opacity:1" d="M 649.787,850.698 653.374,868.637 z" id="boundary" inkscape:connector-curvature="0" />
	<path style="fill:none;stroke:red;stroke-width:1px;stroke-linecap:butt;stroke-linejoin:miter;stroke-opacity:1" d="M 705.396,780.738 694.633,766.387 z" id="boundary" inkscape:connector-curvature="0" />
	<path style="fill:none;stroke:red;stroke-width:1px;stroke-linecap:butt;stroke-linejoin:miter;stroke-opacity:1" d="M 705.396,780.738 714.365,796.882 z" id="boundary" inkscape:connector-curvature="0" />
	<path style="fill:none;stroke:red;stroke-width:1px;stroke-linecap:butt;stroke-linejoin:miter;stroke-opacity:1" d="M 714.365,796.882 723.335,813.027 z" id="boundary" inkscape:connector-curvature="0" />
	<path style="fill:none;stroke:red;stroke-width:1px;stroke-linecap:butt;stroke-linejoin:miter;stroke-opacity:1" d="M 723.335,813.027 732.304,829.172 z" id="boundary" inkscape:connector-curvature="0" />
	<path style="fill:none;stroke:red;stroke-width:1px;stroke-linecap:butt;stroke-linejoin:miter;stroke-opacity:1" d="M 732.304,829.172 732.304,847.11 z" id="boundary" inkscape:connector-curvature="0" />
	<path style="fill:none;stroke:red;stroke-width:1px;stroke-linecap:butt;stroke-linejoin:miter;stroke-opacity:1" d="M 739.479,865.049 732.304,847.11 z" id="boundary" inkscape:connector-curvature="0" />
	<path style="fill:none;stroke:red;stroke-width:1px;stroke-linecap:butt;stroke-linejoin:miter;stroke-opacity:1" d="M 653.374,868.637 662.344,884.781 z" id="boundary" inkscape:connector-curvature="0" />
	<path style="fill:none;stroke:red;stroke-width:1px;stroke-linecap:butt;stroke-linejoin:miter;stroke-opacity:1" d="M 662.344,884.781 667.725,902.72 z" id="boundary" inkscape:connector-curvature="0" />
	<path style="fill:none;stroke:red;stroke-width:1px;stroke-linecap:butt;stroke-linejoin:miter;stroke-opacity:1" d="M 676.694,918.864 667.725,902.72 z" id="boundary" inkscape:connector-curvature="0" />
	<path style="fill:none;stroke:red;stroke-width:1px;stroke-linecap:butt;stroke-linejoin:miter;stroke-opacity:1" d="M 676.694,918.864 676.694,936.803 z" id="boundary" inkscape:connector-curvature="0" />
	<path style="fill:none;stroke:red;stroke-width:1px;stroke-linecap:butt;stroke-linejoin:miter;stroke-opacity:1" d="M 676.694,954.741 676.694,936.803 z" id="boundary" inkscape:connector-curvature="0" />
	<path style="fill:none;stroke:red;stroke-width:1px;stroke-linecap:butt;stroke-linejoin:miter;stroke-opacity:1" d="M 676.694,954.741 685.664,970.886 z" id="boundary" inkscape:connector-curvature="0" />
	<path style="fill:none;stroke:red;stroke-width:1px;stroke-linecap:butt;stroke-linejoin:miter;stroke-opacity:1" d="M 741.273,900.926 741.273,918.864 z" id="boundary" inkscape:connector-curvature="0" />
	<path style="fill:none;stroke:red;stroke-width:1px;stroke-linecap:butt;stroke-linejoin:miter;stroke-opacity:1" d="M 741.273,936.803 732.304,969.092 z" id="boundary" inkscape:connector-curvature="0" />
	<path style="fill:none;stroke:red;stroke-width:1px;stroke-linecap:butt;stroke-linejoin:miter;stroke-opacity:1" d="M 741.273,918.864 741.273,936.803 z" id="boundary" inkscape:connector-curvature="0" />
	<path style="fill:none;stroke:red;stroke-width:1px;stroke-linecap:butt;stroke-linejoin:miter;stroke-opacity:1" d="M 694.633,987.031 710.778,996 z" id="boundary" inkscape:connector-curvature="0" />
	<path style="fill:none;stroke:red;stroke-width:1px;stroke-linecap:butt;stroke-linejoin:miter;stroke-opacity:1" d="M 728.716,992.412 732.304,969.092 z" id="boundary" inkscape:connector-curvature="0" />
	<path style="fill:none;stroke:red;stroke-width:1px;stroke-linecap:butt;stroke-linejoin:miter;stroke-opacity:1" d="M 728.716,992.412 710.778,996 z" id="boundary" inkscape:connector-curvature="0" />
	<path style="fill:none;stroke:red;stroke-width:1px;stroke-linecap:butt;stroke-linejoin:miter;stroke-opacity:1" d="M 694.633,987.031 685.664,970.886 z" id="boundary" inkscape:connector-curvature="0" />
	<path style="fill:none;stroke:red;stroke-width:1px;stroke-linecap:butt;stroke-linejoin:miter;stroke-opacity:1" d="M 741.273,882.987 741.273,900.926 z" id="boundary" inkscape:connector-curvature="0" />
	<path style="fill:none;stroke:red;stroke-width:1px;stroke-linecap:butt;stroke-linejoin:miter;stroke-opacity:1" d="M 739.479,865.049 741.273,882.987 z" id="boundary" inkscape:connector-curvature="0" />
	<circle cx="4" cy="891.957" r="4" fill="#0" id="circle0"/>
	<circle cx="4" cy="909.895" r="4" fill="#0" id="circle1"/>
	<circle cx="12.9693" cy="874.018" r="4" fill="#0" id="circle2"/>
	<circle cx="12.9693" cy="926.04" r="4" fill="#0" id="circle3"/>
	<circle cx="27.3201" cy="859.667" r="4" fill="#0" id="circle4"/>
	<circle cx="30.9078" cy="407.617" r="4" fill="#0" id="circle5"/>
	<circle cx="30.9078" cy="933.215" r="4" fill="#0" id="circle6"/>
	<circle cx="36.2893" cy="841.729" r="4" fill="#0" id="circle7"/>
	<circle cx="39.877" cy="389.678" r="4" fill="#0" id="circle8"/>
	<circle cx="39.877" cy="423.761" r="4" fill="#0" id="circle9"/>
	<circle cx="47.0524" cy="924.246" r="4" fill="#0" id="circle10"/>
	<circle cx="48.8463" cy="371.74" r="4" fill="#0" id="circle11"/>
	<circle cx="50.6401" cy="827.378" r="4" fill="#0" id="circle12"/>
	<circle cx="52.434" cy="438.112" r="4" fill="#0" id="circle13"/>
	<circle cx="63.1971" cy="357.389" r="4" fill="#0" id="circle14"/>
	<circle cx="63.1971" cy="915.277" r="4" fill="#0" id="circle15"/>
	<circle cx="64.991" cy="814.821" r="4" fill="#0" id="circle16"/>
	<circle cx="66.7848" cy="201.324" r="4" fill="#0" id="circle17"/>
	<circle cx="66.7848" cy="219.262" r="4" fill="#0" id="circle18"/>
	<circle cx="66.7848" cy="237.201" r="4" fill="#0" id="circle19"/>
	<circle cx="66.7848" cy="255.139" r="4" fill="#0" id="circle20"/>
	<circle cx="66.7848" cy="273.078" r="4" fill="#0" id="circle21"/>
	<circle cx="66.7848" cy="291.016" r="4" fill="#0" id="circle22"/>
	<circle cx="70.3725" cy="430.937" r="4" fill="#0" id="circle23"/>
	<circle cx="72.1664" cy="339.45" r="4" fill="#0" id="circle24"/>
	<circle cx="72.1664" cy="796.882" r="4" fill="#0" id="circle25"/>
	<circle cx="77.5479" cy="305.367" r="4" fill="#0" id="circle26"/>
	<circle cx="79.3418" cy="906.307" r="4" fill="#0" id="circle27"/>
	<circle cx="84.7233" cy="195.942" r="4" fill="#0" id="circle28"/>
	<circle cx="84.7233" cy="323.306" r="4" fill="#0" id="circle29"/>
	<circle cx="84.7233" cy="416.586" r="4" fill="#0" id="circle30"/>
	<circle cx="86.5172" cy="782.532" r="4" fill="#0" id="circle31"/>
	<circle cx="93.6926" cy="891.957" r="4" fill="#0" id="circle32"/>
	<circle cx="99.0741" cy="404.029" r="4" fill="#0" id="circle33"/>
	<circle cx="100.868" cy="769.975" r="4" fill="#0" id="circle34"/>
	<circle cx="102.662" cy="195.942" r="4" fill="#0" id="circle35"/>
	<circle cx="108.043" cy="877.606" r="4" fill="#0" id="circle36"/>
	<circle cx="113.425" cy="386.09" r="4" fill="#0" id="circle37"/>
	<circle cx="113.425" cy="755.624" r="4" fill="#0" id="circle38"/>
	<circle cx="120.6" cy="195.942" r="4" fill="#0" id="circle39"/>
	<circle cx="125.982" cy="868.637" r="4" fill="#0" id="circle40"/>
	<circle cx="127.776" cy="373.533" r="4" fill="#0" id="circle41"/>
	<circle cx="127.776" cy="743.067" r="4" fill="#0" id="circle42"/>
	<circle cx="138.539" cy="195.942" r="4" fill="#0" id="circle43"/>
	<circle cx="140.333" cy="359.183" r="4" fill="#0" id="circle44"/>
	<circle cx="140.333" cy="728.716" r="4" fill="#0" id="circle45"/>
	<circle cx="140.333" cy="852.492" r="4" fill="#0" id="circle46"/>
	<circle cx="149.302" cy="710.778" r="4" fill="#0" id="circle47"/>
	<circle cx="149.302" cy="834.553" r="4" fill="#0" id="circle48"/>
	<circle cx="154.684" cy="346.626" r="4" fill="#0" id="circle49"/>
	<circle cx="156.477" cy="195.942" r="4" fill="#0" id="circle50"/>
	<circle cx="163.653" cy="328.687" r="4" fill="#0" id="circle51"/>
	<circle cx="163.653" cy="698.221" r="4" fill="#0" id="circle52"/>
	<circle cx="167.241" cy="825.584" r="4" fill="#0" id="circle53"/>
	<circle cx="174.416" cy="195.942" r="4" fill="#0" id="circle54"/>
	<circle cx="176.21" cy="314.336" r="4" fill="#0" id="circle55"/>
	<circle cx="176.21" cy="683.87" r="4" fill="#0" id="circle56"/>
	<circle cx="181.591" cy="813.027" r="4" fill="#0" id="circle57"/>
	<circle cx="185.179" cy="665.931" r="4" fill="#0" id="circle58"/>
	<circle cx="190.561" cy="186.973" r="4" fill="#0" id="circle59"/>
	<circle cx="192.354" cy="305.367" r="4" fill="#0" id="circle60"/>
	<circle cx="194.148" cy="798.676" r="4" fill="#0" id="circle61"/>
	<circle cx="199.53" cy="653.374" r="4" fill="#0" id="circle62"/>
	<circle cx="206.705" cy="178.004" r="4" fill="#0" id="circle63"/>
	<circle cx="208.499" cy="786.119" r="4" fill="#0" id="circle64"/>
	<circle cx="210.293" cy="305.367" r="4" fill="#0" id="circle65"/>
	<circle cx="212.087" cy="639.024" r="4" fill="#0" id="circle66"/>
	<circle cx="221.056" cy="771.769" r="4" fill="#0" id="circle67"/>
	<circle cx="224.644" cy="169.034" r="4" fill="#0" id="circle68"/>
	<circle cx="226.438" cy="626.467" r="4" fill="#0" id="circle69"/>
	<circle cx="228.231" cy="305.367" r="4" fill="#0" id="circle70"/>
	<circle cx="235.407" cy="759.212" r="4" fill="#0" id="circle71"/>
	<circle cx="238.995" cy="319.718" r="4" fill="#0" id="circle72"/>
	<circle cx="238.995" cy="612.116" r="4" fill="#0" id="circle73"/>
	<circle cx="242.582" cy="169.034" r="4" fill="#0" id="circle74"/>
	<circle cx="246.17" cy="337.656" r="4" fill="#0" id="circle75"/>
	<circle cx="247.964" cy="744.861" r="4" fill="#0" id="circle76"/>
	<circle cx="253.345" cy="599.559" r="4" fill="#0" id="circle77"/>
	<circle cx="255.139" cy="353.801" r="4" fill="#0" id="circle78"/>
	<circle cx="260.521" cy="169.034" r="4" fill="#0" id="circle79"/>
	<circle cx="262.315" cy="732.304" r="4" fill="#0" id="circle80"/>
	<circle cx="264.108" cy="369.946" r="4" fill="#0" id="circle81"/>
	<circle cx="264.108" cy="387.884" r="4" fill="#0" id="circle82"/>
	<circle cx="264.108" cy="578.033" r="4" fill="#0" id="circle83"/>
	<circle cx="273.078" cy="75.7541" r="4" fill="#0" id="circle84"/>
	<circle cx="273.078" cy="93.6926" r="4" fill="#0" id="circle85"/>
	<circle cx="273.078" cy="404.029" r="4" fill="#0" id="circle86"/>
	<circle cx="274.872" cy="717.953" r="4" fill="#0" id="circle87"/>
	<circle cx="278.459" cy="160.065" r="4" fill="#0" id="circle88"/>
	<circle cx="278.459" cy="421.967" r="4" fill="#0" id="circle89"/>
	<circle cx="278.459" cy="563.682" r="4" fill="#0" id="circle90"/>
	<circle cx="282.047" cy="57.8156" r="4" fill="#0" id="circle91"/>
	<circle cx="282.047" cy="109.837" r="4" fill="#0" id="circle92"/>
	<circle cx="282.047" cy="127.776" r="4" fill="#0" id="circle93"/>
	<circle cx="282.047" cy="542.156" r="4" fill="#0" id="circle94"/>
	<circle cx="287.429" cy="438.112" r="4" fill="#0" id="circle95"/>
	<circle cx="289.222" cy="705.396" r="4" fill="#0" id="circle96"/>
	<circle cx="291.016" cy="456.051" r="4" fill="#0" id="circle97"/>
	<circle cx="291.016" cy="524.217" r="4" fill="#0" id="circle98"/>
	<circle cx="296.398" cy="43.4647" r="4" fill="#0" id="circle99"/>
	<circle cx="299.986" cy="472.195" r="4" fill="#0" id="circle100"/>
	<circle cx="299.986" cy="490.134" r="4" fill="#0" id="circle101"/>
	<circle cx="299.986" cy="508.072" r="4" fill="#0" id="circle102"/>
	<circle cx="301.779" cy="691.045" r="4" fill="#0" id="circle103"/>
	<circle cx="305.367" cy="25.5262" r="4" fill="#0" id="circle104"/>
	<circle cx="316.13" cy="678.488" r="4" fill="#0" id="circle105"/>
	<circle cx="321.512" cy="16.557" r="4" fill="#0" id="circle106"/>
	<circle cx="328.687" cy="664.137" r="4" fill="#0" id="circle107"/>
	<circle cx="337.656" cy="7.5877" r="4" fill="#0" id="circle108"/>
	<circle cx="343.038" cy="651.58" r="4" fill="#0" id="circle109"/>
	<circle cx="355.595" cy="4" r="4" fill="#0" id="circle110"/>
	<circle cx="360.976" cy="642.611" r="4" fill="#0" id="circle111"/>
	<circle cx="373.533" cy="7.5877" r="4" fill="#0" id="circle112"/>
	<circle cx="373.533" cy="628.26" r="4" fill="#0" id="circle113"/>
	<circle cx="387.884" cy="18.3508" r="4" fill="#0" id="circle114"/>
	<circle cx="391.472" cy="628.26" r="4" fill="#0" id="circle115"/>
	<circle cx="400.441" cy="32.7016" r="4" fill="#0" id="circle116"/>
	<circle cx="409.41" cy="48.8463" r="4" fill="#0" id="circle117"/>
	<circle cx="409.41" cy="628.26" r="4" fill="#0" id="circle118"/>
	<circle cx="418.38" cy="64.991" r="4" fill="#0" id="circle119"/>
	<circle cx="425.555" cy="637.23" r="4" fill="#0" id="circle120"/>
	<circle cx="427.349" cy="81.1356" r="4" fill="#0" id="circle121"/>
	<circle cx="427.349" cy="99.0741" r="4" fill="#0" id="circle122"/>
	<circle cx="427.349" cy="117.013" r="4" fill="#0" id="circle123"/>
	<circle cx="430.937" cy="134.951" r="4" fill="#0" id="circle124"/>
	<circle cx="439.906" cy="151.096" r="4" fill="#0" id="circle125"/>
	<circle cx="441.7" cy="646.199" r="4" fill="#0" id="circle126"/>
	<circle cx="456.051" cy="160.065" r="4" fill="#0" id="circle127"/>
	<circle cx="457.844" cy="655.168" r="4" fill="#0" id="circle128"/>
	<circle cx="463.226" cy="430.937" r="4" fill="#0" id="circle129"/>
	<circle cx="463.226" cy="448.875" r="4" fill="#0" id="circle130"/>
	<circle cx="463.226" cy="466.814" r="4" fill="#0" id="circle131"/>
	<circle cx="463.226" cy="484.752" r="4" fill="#0" id="circle132"/>
	<circle cx="463.226" cy="502.691" r="4" fill="#0" id="circle133"/>
	<circle cx="472.195" cy="377.121" r="4" fill="#0" id="circle134"/>
	<circle cx="472.195" cy="395.06" r="4" fill="#0" id="circle135"/>
	<circle cx="472.195" cy="412.998" r="4" fill="#0" id="circle136"/>
	<circle cx="472.195" cy="518.835" r="4" fill="#0" id="circle137"/>
	<circle cx="473.989" cy="160.065" r="4" fill="#0" id="circle138"/>
	<circle cx="473.989" cy="664.137" r="4" fill="#0" id="circle139"/>
	<circle cx="481.165" cy="314.336" r="4" fill="#0" id="circle140"/>
	<circle cx="481.165" cy="332.275" r="4" fill="#0" id="circle141"/>
	<circle cx="481.165" cy="350.213" r="4" fill="#0" id="circle142"/>
	<circle cx="481.165" cy="534.98" r="4" fill="#0" id="circle143"/>
	<circle cx="488.34" cy="674.901" r="4" fill="#0" id="circle144"/>
	<circle cx="491.928" cy="160.065" r="4" fill="#0" id="circle145"/>
	<circle cx="495.515" cy="547.537" r="4" fill="#0" id="circle146"/>
	<circle cx="497.309" cy="305.367" r="4" fill="#0" id="circle147"/>
	<circle cx="500.897" cy="689.251" r="4" fill="#0" id="circle148"/>
	<circle cx="508.072" cy="561.888" r="4" fill="#0" id="circle149"/>
	<circle cx="509.866" cy="160.065" r="4" fill="#0" id="circle150"/>
	<circle cx="515.248" cy="305.367" r="4" fill="#0" id="circle151"/>
	<circle cx="515.248" cy="700.014" r="4" fill="#0" id="circle152"/>
	<circle cx="522.423" cy="574.445" r="4" fill="#0" id="circle153"/>
	<circle cx="526.011" cy="169.034" r="4" fill="#0" id="circle154"/>
	<circle cx="531.392" cy="708.984" r="4" fill="#0" id="circle155"/>
	<circle cx="533.186" cy="305.367" r="4" fill="#0" id="circle156"/>
	<circle cx="534.98" cy="588.796" r="4" fill="#0" id="circle157"/>
	<circle cx="543.949" cy="174.416" r="4" fill="#0" id="circle158"/>
	<circle cx="543.949" cy="723.335" r="4" fill="#0" id="circle159"/>
	<circle cx="549.331" cy="601.353" r="4" fill="#0" id="circle160"/>
	<circle cx="551.125" cy="305.367" r="4" fill="#0" id="circle161"/>
	<circle cx="558.3" cy="186.973" r="4" fill="#0" id="circle162"/>
	<circle cx="558.3" cy="735.892" r="4" fill="#0" id="circle163"/>
	<circle cx="561.888" cy="615.703" r="4" fill="#0" id="circle164"/>
	<circle cx="569.063" cy="305.367" r="4" fill="#0" id="circle165"/>
	<circle cx="574.445" cy="195.942" r="4" fill="#0" id="circle166"/>
	<circle cx="574.445" cy="744.861" r="4" fill="#0" id="circle167"/>
	<circle cx="576.239" cy="628.26" r="4" fill="#0" id="circle168"/>
	<circle cx="579.826" cy="319.718" r="4" fill="#0" id="circle169"/>
	<circle cx="588.796" cy="642.611" r="4" fill="#0" id="circle170"/>
	<circle cx="588.796" cy="757.418" r="4" fill="#0" id="circle171"/>
	<circle cx="592.383" cy="195.942" r="4" fill="#0" id="circle172"/>
	<circle cx="594.177" cy="332.275" r="4" fill="#0" id="circle173"/>
	<circle cx="595.971" cy="775.356" r="4" fill="#0" id="circle174"/>
	<circle cx="603.146" cy="653.374" r="4" fill="#0" id="circle175"/>
	<circle cx="606.734" cy="346.626" r="4" fill="#0" id="circle176"/>
	<circle cx="610.322" cy="195.942" r="4" fill="#0" id="circle177"/>
	<circle cx="610.322" cy="787.913" r="4" fill="#0" id="circle178"/>
	<circle cx="619.291" cy="662.344" r="4" fill="#0" id="circle179"/>
	<circle cx="621.085" cy="359.183" r="4" fill="#0" id="circle180"/>
	<circle cx="622.879" cy="802.264" r="4" fill="#0" id="circle181"/>
	<circle cx="628.26" cy="195.942" r="4" fill="#0" id="circle182"/>
	<circle cx="631.848" cy="676.694" r="4" fill="#0" id="circle183"/>
	<circle cx="631.848" cy="818.409" r="4" fill="#0" id="circle184"/>
	<circle cx="633.642" cy="373.533" r="4" fill="#0" id="circle185"/>
	<circle cx="640.817" cy="834.553" r="4" fill="#0" id="circle186"/>
	<circle cx="646.199" cy="195.942" r="4" fill="#0" id="circle187"/>
	<circle cx="646.199" cy="689.251" r="4" fill="#0" id="circle188"/>
	<circle cx="647.993" cy="386.09" r="4" fill="#0" id="circle189"/>
	<circle cx="649.787" cy="850.698" r="4" fill="#0" id="circle190"/>
	<circle cx="651.58" cy="707.19" r="4" fill="#0" id="circle191"/>
	<circle cx="653.374" cy="868.637" r="4" fill="#0" id="circle192"/>
	<circle cx="660.55" cy="400.441" r="4" fill="#0" id="circle193"/>
	<circle cx="662.344" cy="884.781" r="4" fill="#0" id="circle194"/>
	<circle cx="664.137" cy="195.942" r="4" fill="#0" id="circle195"/>
	<circle cx="665.931" cy="717.953" r="4" fill="#0" id="circle196"/>
	<circle cx="667.725" cy="902.72" r="4" fill="#0" id="circle197"/>
	<circle cx="669.519" cy="305.367" r="4" fill="#0" id="circle198"/>
	<circle cx="676.694" cy="918.864" r="4" fill="#0" id="circle199"/>
	<circle cx="676.694" cy="936.803" r="4" fill="#0" id="circle200"/>
	<circle cx="676.694" cy="954.741" r="4" fill="#0" id="circle201"/>
	<circle cx="678.488" cy="321.512" r="4" fill="#0" id="circle202"/>
	<circle cx="678.488" cy="407.617" r="4" fill="#0" id="circle203"/>
	<circle cx="678.488" cy="732.304" r="4" fill="#0" id="circle204"/>
	<circle cx="682.076" cy="195.942" r="4" fill="#0" id="circle205"/>
	<circle cx="685.664" cy="970.886" r="4" fill="#0" id="circle206"/>
	<circle cx="687.458" cy="305.367" r="4" fill="#0" id="circle207"/>
	<circle cx="687.458" cy="337.656" r="4" fill="#0" id="circle208"/>
	<circle cx="687.458" cy="748.448" r="4" fill="#0" id="circle209"/>
	<circle cx="694.633" cy="416.586" r="4" fill="#0" id="circle210"/>
	<circle cx="694.633" cy="766.387" r="4" fill="#0" id="circle211"/>
	<circle cx="694.633" cy="987.031" r="4" fill="#0" id="circle212"/>
	<circle cx="700.014" cy="195.942" r="4" fill="#0" id="circle213"/>
	<circle cx="701.808" cy="350.213" r="4" fill="#0" id="circle214"/>
	<circle cx="705.396" cy="213.881" r="4" fill="#0" id="circle215"/>
	<circle cx="705.396" cy="231.819" r="4" fill="#0" id="circle216"/>
	<circle cx="705.396" cy="249.758" r="4" fill="#0" id="circle217"/>
	<circle cx="705.396" cy="267.696" r="4" fill="#0" id="circle218"/>
	<circle cx="705.396" cy="285.635" r="4" fill="#0" id="circle219"/>
	<circle cx="705.396" cy="780.738" r="4" fill="#0" id="circle220"/>
	<circle cx="710.778" cy="996" r="4" fill="#0" id="circle221"/>
	<circle cx="712.571" cy="421.967" r="4" fill="#0" id="circle222"/>
	<circle cx="714.365" cy="364.564" r="4" fill="#0" id="circle223"/>
	<circle cx="714.365" cy="796.882" r="4" fill="#0" id="circle224"/>
	<circle cx="723.335" cy="380.709" r="4" fill="#0" id="circle225"/>
	<circle cx="723.335" cy="813.027" r="4" fill="#0" id="circle226"/>
	<circle cx="726.922" cy="411.204" r="4" fill="#0" id="circle227"/>
	<circle cx="728.716" cy="992.412" r="4" fill="#0" id="circle228"/>
	<circle cx="732.304" cy="829.172" r="4" fill="#0" id="circle229"/>
	<circle cx="732.304" cy="847.11" r="4" fill="#0" id="circle230"/>
	<circle cx="732.304" cy="969.092" r="4" fill="#0" id="circle231"/>
	<circle cx="739.479" cy="865.049" r="4" fill="#0" id="circle232"/>
	<circle cx="741.273" cy="882.987" r="4" fill="#0" id="circle233"/>
	<circle cx="741.273" cy="900.926" r="4" fill="#0" id="circle234"/>
	<circle cx="741.273" cy="918.864" r="4" fill="#0" id="circle235"/>
	<circle cx="741.273" cy="936.803" r="4" fill="#0" id="circle236"/>
	</g>
</svg>