<?xml version="1.0" encoding="UTF-8" standalone="no"?>
<!-- Created with CurveBenchmark -->
<svg
	xmlns:dc="http://purl.org/dc/elements/1.1/"
	xmlns:cc="http://creativecommons.org/ns#"
	xmlns:rdf="http://www.w3.org/1999/02/22-rdf-syntax-ns#"
	xmlns:svg="http://www.w3.org/2000/svg"
	xmlns="http://www.w3.org/2000/svg"
	xmlns:sodipodi="http://sodipodi.sourceforge.net/DTD/sodipodi-0.dtd"
	xmlns:inkscape="http://www.inkscape.org/namespaces/inkscape"
	width="1000"
	height="1000"
	id="svg2"
	version="1.1"
	sodipodi:docname="manifold/gathang-guitar200.png.txt">
<defs
	id="defs4" />
<metadata
	id="metadata7">
	<rdf:RDF>
		<cc:Work
			rdf:about="">
			<dc:format>image/svg+xml</dc:format>
			<dc:type
				rdf:resource="http://purl.org/dc/dcmitype/StillImage" />
			<dc:title></dc:title>
		</cc:Work>
	</rdf:RDF>
</metadata>
<g
	inkscape:label="Layer 1"
	inkscape:groupmode="layer"
	id="layer1">
	<path style="fill:none;stroke:red;stroke-width:1px;stroke-linecap:butt;stroke-linejoin:miter;stroke-opacity:1" d="M 144.212,67.0954 144.212,102.148 z" id="boundary" inkscape:connector-curvature="0" />
	<path style="fill:none;stroke:red;stroke-width:1px;stroke-linecap:butt;stroke-linejoin:miter;stroke-opacity:1" d="M 158.233,137.201 144.212,102.148 z" id="boundary" inkscape:connector-curvature="0" />
	<path style="fill:none;stroke:red;stroke-width:1px;stroke-linecap:butt;stroke-linejoin:miter;stroke-opacity:1" d="M 144.212,67.0954 151.223,32.0424 z" id="boundary" inkscape:connector-curvature="0" />
	<path style="fill:none;stroke:red;stroke-width:1px;stroke-linecap:butt;stroke-linejoin:miter;stroke-opacity:1" d="M 60.0848,543.816 95.1378,547.322 z" id="boundary" inkscape:connector-curvature="0" />
	<path style="fill:none;stroke:red;stroke-width:1px;stroke-linecap:butt;stroke-linejoin:miter;stroke-opacity:1" d="M 39.053,571.859 60.0848,543.816 z" id="boundary" inkscape:connector-curvature="0" />
	<path style="fill:none;stroke:red;stroke-width:1px;stroke-linecap:butt;stroke-linejoin:miter;stroke-opacity:1" d="M 151.223,368.551 151.223,403.604 z" id="boundary" inkscape:connector-curvature="0" />
	<path style="fill:none;stroke:red;stroke-width:1px;stroke-linecap:butt;stroke-linejoin:miter;stroke-opacity:1" d="M 151.223,333.498 151.223,368.551 z" id="boundary" inkscape:connector-curvature="0" />
	<path style="fill:none;stroke:red;stroke-width:1px;stroke-linecap:butt;stroke-linejoin:miter;stroke-opacity:1" d="M 151.223,403.604 151.223,438.657 z" id="boundary" inkscape:connector-curvature="0" />
	<path style="fill:none;stroke:red;stroke-width:1px;stroke-linecap:butt;stroke-linejoin:miter;stroke-opacity:1" d="M 158.233,172.254 158.233,207.307 z" id="boundary" inkscape:connector-curvature="0" />
	<path style="fill:none;stroke:red;stroke-width:1px;stroke-linecap:butt;stroke-linejoin:miter;stroke-opacity:1" d="M 158.233,172.254 158.233,137.201 z" id="boundary" inkscape:connector-curvature="0" />
	<path style="fill:none;stroke:red;stroke-width:1px;stroke-linecap:butt;stroke-linejoin:miter;stroke-opacity:1" d="M 158.233,242.36 158.233,207.307 z" id="boundary" inkscape:connector-curvature="0" />
	<path style="fill:none;stroke:red;stroke-width:1px;stroke-linecap:butt;stroke-linejoin:miter;stroke-opacity:1" d="M 151.223,438.657 151.223,473.71 z" id="boundary" inkscape:connector-curvature="0" />
	<path style="fill:none;stroke:red;stroke-width:1px;stroke-linecap:butt;stroke-linejoin:miter;stroke-opacity:1" d="M 151.223,508.763 151.223,473.71 z" id="boundary" inkscape:connector-curvature="0" />
	<path style="fill:none;stroke:red;stroke-width:1px;stroke-linecap:butt;stroke-linejoin:miter;stroke-opacity:1" d="M 158.233,277.413 158.233,242.36 z" id="boundary" inkscape:connector-curvature="0" />
	<path style="fill:none;stroke:red;stroke-width:1px;stroke-linecap:butt;stroke-linejoin:miter;stroke-opacity:1" d="M 151.223,333.498 158.233,277.413 z" id="boundary" inkscape:connector-curvature="0" />
	<path style="fill:none;stroke:red;stroke-width:1px;stroke-linecap:butt;stroke-linejoin:miter;stroke-opacity:1" d="M 147.717,547.322 151.223,508.763 z" id="boundary" inkscape:connector-curvature="0" />
	<path style="fill:none;stroke:red;stroke-width:1px;stroke-linecap:butt;stroke-linejoin:miter;stroke-opacity:1" d="M 4,796.198 21.5265,764.65 z" id="boundary" inkscape:connector-curvature="0" />
	<path style="fill:none;stroke:red;stroke-width:1px;stroke-linecap:butt;stroke-linejoin:miter;stroke-opacity:1" d="M 4,831.251 4,796.198 z" id="boundary" inkscape:connector-curvature="0" />
	<path style="fill:none;stroke:red;stroke-width:1px;stroke-linecap:butt;stroke-linejoin:miter;stroke-opacity:1" d="M 39.053,733.102 21.5265,764.65 z" id="boundary" inkscape:connector-curvature="0" />
	<path style="fill:none;stroke:red;stroke-width:1px;stroke-linecap:butt;stroke-linejoin:miter;stroke-opacity:1" d="M 39.053,571.859 46.0636,606.912 z" id="boundary" inkscape:connector-curvature="0" />
	<path style="fill:none;stroke:red;stroke-width:1px;stroke-linecap:butt;stroke-linejoin:miter;stroke-opacity:1" d="M 4,866.304 4,831.251 z" id="boundary" inkscape:connector-curvature="0" />
	<path style="fill:none;stroke:red;stroke-width:1px;stroke-linecap:butt;stroke-linejoin:miter;stroke-opacity:1" d="M 35.5477,929.399 14.5159,901.357 z" id="boundary" inkscape:connector-curvature="0" />
	<path style="fill:none;stroke:red;stroke-width:1px;stroke-linecap:butt;stroke-linejoin:miter;stroke-opacity:1" d="M 14.5159,901.357 4,866.304 z" id="boundary" inkscape:connector-curvature="0" />
	<path style="fill:none;stroke:red;stroke-width:1px;stroke-linecap:butt;stroke-linejoin:miter;stroke-opacity:1" d="M 63.5901,953.936 35.5477,929.399 z" id="boundary" inkscape:connector-curvature="0" />
	<path style="fill:none;stroke:red;stroke-width:1px;stroke-linecap:butt;stroke-linejoin:miter;stroke-opacity:1" d="M 60.0848,641.965 56.5795,701.555 z" id="boundary" inkscape:connector-curvature="0" />
	<path style="fill:none;stroke:red;stroke-width:1px;stroke-linecap:butt;stroke-linejoin:miter;stroke-opacity:1" d="M 56.5795,701.555 39.053,733.102 z" id="boundary" inkscape:connector-curvature="0" />
	<path style="fill:none;stroke:red;stroke-width:1px;stroke-linecap:butt;stroke-linejoin:miter;stroke-opacity:1" d="M 119.675,575.364 60.0848,641.965 z" id="boundary" inkscape:connector-curvature="0" />
	<path style="fill:none;stroke:red;stroke-width:1px;stroke-linecap:butt;stroke-linejoin:miter;stroke-opacity:1" d="M 126.686,981.979 91.6325,974.968 z" id="boundary" inkscape:connector-curvature="0" />
	<path style="fill:none;stroke:red;stroke-width:1px;stroke-linecap:butt;stroke-linejoin:miter;stroke-opacity:1" d="M 91.6325,974.968 63.5901,953.936 z" id="boundary" inkscape:connector-curvature="0" />
	<path style="fill:none;stroke:red;stroke-width:1px;stroke-linecap:butt;stroke-linejoin:miter;stroke-opacity:1" d="M 161.739,988.989 126.686,981.979 z" id="boundary" inkscape:connector-curvature="0" />
	<path style="fill:none;stroke:red;stroke-width:1px;stroke-linecap:butt;stroke-linejoin:miter;stroke-opacity:1" d="M 119.675,575.364 147.717,547.322 z" id="boundary" inkscape:connector-curvature="0" />
	<path style="fill:none;stroke:red;stroke-width:1px;stroke-linecap:butt;stroke-linejoin:miter;stroke-opacity:1" d="M 151.223,32.0424 179.265,4 z" id="boundary" inkscape:connector-curvature="0" />
	<path style="fill:none;stroke:red;stroke-width:1px;stroke-linecap:butt;stroke-linejoin:miter;stroke-opacity:1" d="M 203.802,165.244 203.802,200.297 z" id="boundary" inkscape:connector-curvature="0" />
	<path style="fill:none;stroke:red;stroke-width:1px;stroke-linecap:butt;stroke-linejoin:miter;stroke-opacity:1" d="M 203.802,235.35 210.813,270.403 z" id="boundary" inkscape:connector-curvature="0" />
	<path style="fill:none;stroke:red;stroke-width:1px;stroke-linecap:butt;stroke-linejoin:miter;stroke-opacity:1" d="M 203.802,235.35 203.802,200.297 z" id="boundary" inkscape:connector-curvature="0" />
	<path style="fill:none;stroke:red;stroke-width:1px;stroke-linecap:butt;stroke-linejoin:miter;stroke-opacity:1" d="M 210.813,270.403 210.813,305.456 z" id="boundary" inkscape:connector-curvature="0" />
	<path style="fill:none;stroke:red;stroke-width:1px;stroke-linecap:butt;stroke-linejoin:miter;stroke-opacity:1" d="M 210.813,340.509 210.813,375.562 z" id="boundary" inkscape:connector-curvature="0" />
	<path style="fill:none;stroke:red;stroke-width:1px;stroke-linecap:butt;stroke-linejoin:miter;stroke-opacity:1" d="M 210.813,340.509 210.813,305.456 z" id="boundary" inkscape:connector-curvature="0" />
	<path style="fill:none;stroke:red;stroke-width:1px;stroke-linecap:butt;stroke-linejoin:miter;stroke-opacity:1" d="M 203.802,165.244 203.802,130.191 z" id="boundary" inkscape:connector-curvature="0" />
	<path style="fill:none;stroke:red;stroke-width:1px;stroke-linecap:butt;stroke-linejoin:miter;stroke-opacity:1" d="M 203.802,130.191 217.823,81.1166 z" id="boundary" inkscape:connector-curvature="0" />
	<path style="fill:none;stroke:red;stroke-width:1px;stroke-linecap:butt;stroke-linejoin:miter;stroke-opacity:1" d="M 210.813,375.562 210.813,410.615 z" id="boundary" inkscape:connector-curvature="0" />
	<path style="fill:none;stroke:red;stroke-width:1px;stroke-linecap:butt;stroke-linejoin:miter;stroke-opacity:1" d="M 319.477,515.774 284.424,505.258 z" id="boundary" inkscape:connector-curvature="0" />
	<path style="fill:none;stroke:red;stroke-width:1px;stroke-linecap:butt;stroke-linejoin:miter;stroke-opacity:1" d="M 224.834,46.0636 217.823,81.1166 z" id="boundary" inkscape:connector-curvature="0" />
	<path style="fill:none;stroke:red;stroke-width:1px;stroke-linecap:butt;stroke-linejoin:miter;stroke-opacity:1" d="M 221.329,480.721 249.371,501.753 z" id="boundary" inkscape:connector-curvature="0" />
	<path style="fill:none;stroke:red;stroke-width:1px;stroke-linecap:butt;stroke-linejoin:miter;stroke-opacity:1" d="M 221.329,480.721 210.813,445.668 z" id="boundary" inkscape:connector-curvature="0" />
	<path style="fill:none;stroke:red;stroke-width:1px;stroke-linecap:butt;stroke-linejoin:miter;stroke-opacity:1" d="M 249.371,501.753 284.424,505.258 z" id="boundary" inkscape:connector-curvature="0" />
	<path style="fill:none;stroke:red;stroke-width:1px;stroke-linecap:butt;stroke-linejoin:miter;stroke-opacity:1" d="M 210.813,445.668 210.813,410.615 z" id="boundary" inkscape:connector-curvature="0" />
	<path style="fill:none;stroke:red;stroke-width:1px;stroke-linecap:butt;stroke-linejoin:miter;stroke-opacity:1" d="M 319.477,515.774 340.509,543.816 z" id="boundary" inkscape:connector-curvature="0" />
	<path style="fill:none;stroke:red;stroke-width:1px;stroke-linecap:butt;stroke-linejoin:miter;stroke-opacity:1" d="M 214.318,11.0106 224.834,46.0636 z" id="boundary" inkscape:connector-curvature="0" />
	<path style="fill:none;stroke:red;stroke-width:1px;stroke-linecap:butt;stroke-linejoin:miter;stroke-opacity:1" d="M 179.265,4 214.318,11.0106 z" id="boundary" inkscape:connector-curvature="0" />
	<path style="fill:none;stroke:red;stroke-width:1px;stroke-linecap:butt;stroke-linejoin:miter;stroke-opacity:1" d="M 329.993,684.028 347.519,715.576 z" id="boundary" inkscape:connector-curvature="0" />
	<path style="fill:none;stroke:red;stroke-width:1px;stroke-linecap:butt;stroke-linejoin:miter;stroke-opacity:1" d="M 329.993,684.028 329.993,648.975 z" id="boundary" inkscape:connector-curvature="0" />
	<path style="fill:none;stroke:red;stroke-width:1px;stroke-linecap:butt;stroke-linejoin:miter;stroke-opacity:1" d="M 344.014,613.922 329.993,648.975 z" id="boundary" inkscape:connector-curvature="0" />
	<path style="fill:none;stroke:red;stroke-width:1px;stroke-linecap:butt;stroke-linejoin:miter;stroke-opacity:1" d="M 266.898,985.484 231.845,988.989 z" id="boundary" inkscape:connector-curvature="0" />
	<path style="fill:none;stroke:red;stroke-width:1px;stroke-linecap:butt;stroke-linejoin:miter;stroke-opacity:1" d="M 196.792,996 231.845,988.989 z" id="boundary" inkscape:connector-curvature="0" />
	<path style="fill:none;stroke:red;stroke-width:1px;stroke-linecap:butt;stroke-linejoin:miter;stroke-opacity:1" d="M 196.792,996 161.739,988.989 z" id="boundary" inkscape:connector-curvature="0" />
	<path style="fill:none;stroke:red;stroke-width:1px;stroke-linecap:butt;stroke-linejoin:miter;stroke-opacity:1" d="M 333.498,953.936 301.951,974.968 z" id="boundary" inkscape:connector-curvature="0" />
	<path style="fill:none;stroke:red;stroke-width:1px;stroke-linecap:butt;stroke-linejoin:miter;stroke-opacity:1" d="M 301.951,974.968 266.898,985.484 z" id="boundary" inkscape:connector-curvature="0" />
	<path style="fill:none;stroke:red;stroke-width:1px;stroke-linecap:butt;stroke-linejoin:miter;stroke-opacity:1" d="M 368.551,743.618 347.519,715.576 z" id="boundary" inkscape:connector-curvature="0" />
	<path style="fill:none;stroke:red;stroke-width:1px;stroke-linecap:butt;stroke-linejoin:miter;stroke-opacity:1" d="M 344.014,613.922 351.025,578.869 z" id="boundary" inkscape:connector-curvature="0" />
	<path style="fill:none;stroke:red;stroke-width:1px;stroke-linecap:butt;stroke-linejoin:miter;stroke-opacity:1" d="M 386.078,775.166 368.551,743.618 z" id="boundary" inkscape:connector-curvature="0" />
	<path style="fill:none;stroke:red;stroke-width:1px;stroke-linecap:butt;stroke-linejoin:miter;stroke-opacity:1" d="M 340.509,543.816 351.025,578.869 z" id="boundary" inkscape:connector-curvature="0" />
	<path style="fill:none;stroke:red;stroke-width:1px;stroke-linecap:butt;stroke-linejoin:miter;stroke-opacity:1" d="M 361.541,932.905 333.498,953.936 z" id="boundary" inkscape:connector-curvature="0" />
	<path style="fill:none;stroke:red;stroke-width:1px;stroke-linecap:butt;stroke-linejoin:miter;stroke-opacity:1" d="M 382.572,904.862 361.541,932.905 z" id="boundary" inkscape:connector-curvature="0" />
	<path style="fill:none;stroke:red;stroke-width:1px;stroke-linecap:butt;stroke-linejoin:miter;stroke-opacity:1" d="M 393.088,810.219 396.594,869.809 z" id="boundary" inkscape:connector-curvature="0" />
	<path style="fill:none;stroke:red;stroke-width:1px;stroke-linecap:butt;stroke-linejoin:miter;stroke-opacity:1" d="M 396.594,869.809 382.572,904.862 z" id="boundary" inkscape:connector-curvature="0" />
	<path style="fill:none;stroke:red;stroke-width:1px;stroke-linecap:butt;stroke-linejoin:miter;stroke-opacity:1" d="M 393.088,810.219 386.078,775.166 z" id="boundary" inkscape:connector-curvature="0" />
	<circle cx="4" cy="796.198" r="4" fill="#0" id="circle0"/>
	<circle cx="4" cy="831.251" r="4" fill="#0" id="circle1"/>
	<circle cx="4" cy="866.304" r="4" fill="#0" id="circle2"/>
	<circle cx="14.5159" cy="901.357" r="4" fill="#0" id="circle3"/>
	<circle cx="21.5265" cy="764.65" r="4" fill="#0" id="circle4"/>
	<circle cx="35.5477" cy="929.399" r="4" fill="#0" id="circle5"/>
	<circle cx="39.053" cy="571.859" r="4" fill="#0" id="circle6"/>
	<circle cx="39.053" cy="733.102" r="4" fill="#0" id="circle7"/>
	<circle cx="46.0636" cy="606.912" r="4" fill="#0" id="circle8"/>
	<circle cx="56.5795" cy="701.555" r="4" fill="#0" id="circle9"/>
	<circle cx="60.0848" cy="543.816" r="4" fill="#0" id="circle10"/>
	<circle cx="60.0848" cy="641.965" r="4" fill="#0" id="circle11"/>
	<circle cx="63.5901" cy="953.936" r="4" fill="#0" id="circle12"/>
	<circle cx="91.6325" cy="974.968" r="4" fill="#0" id="circle13"/>
	<circle cx="95.1378" cy="547.322" r="4" fill="#0" id="circle14"/>
	<circle cx="119.675" cy="575.364" r="4" fill="#0" id="circle15"/>
	<circle cx="126.686" cy="981.979" r="4" fill="#0" id="circle16"/>
	<circle cx="144.212" cy="67.0954" r="4" fill="#0" id="circle17"/>
	<circle cx="144.212" cy="102.148" r="4" fill="#0" id="circle18"/>
	<circle cx="147.717" cy="547.322" r="4" fill="#0" id="circle19"/>
	<circle cx="151.223" cy="32.0424" r="4" fill="#0" id="circle20"/>
	<circle cx="151.223" cy="333.498" r="4" fill="#0" id="circle21"/>
	<circle cx="151.223" cy="368.551" r="4" fill="#0" id="circle22"/>
	<circle cx="151.223" cy="403.604" r="4" fill="#0" id="circle23"/>
	<circle cx="151.223" cy="438.657" r="4" fill="#0" id="circle24"/>
	<circle cx="151.223" cy="473.71" r="4" fill="#0" id="circle25"/>
	<circle cx="151.223" cy="508.763" r="4" fill="#0" id="circle26"/>
	<circle cx="158.233" cy="137.201" r="4" fill="#0" id="circle27"/>
	<circle cx="158.233" cy="172.254" r="4" fill="#0" id="circle28"/>
	<circle cx="158.233" cy="207.307" r="4" fill="#0" id="circle29"/>
	<circle cx="158.233" cy="242.36" r="4" fill="#0" id="circle30"/>
	<circle cx="158.233" cy="277.413" r="4" fill="#0" id="circle31"/>
	<circle cx="161.739" cy="988.989" r="4" fill="#0" id="circle32"/>
	<circle cx="179.265" cy="4" r="4" fill="#0" id="circle33"/>
	<circle cx="196.792" cy="996" r="4" fill="#0" id="circle34"/>
	<circle cx="203.802" cy="130.191" r="4" fill="#0" id="circle35"/>
	<circle cx="203.802" cy="165.244" r="4" fill="#0" id="circle36"/>
	<circle cx="203.802" cy="200.297" r="4" fill="#0" id="circle37"/>
	<circle cx="203.802" cy="235.35" r="4" fill="#0" id="circle38"/>
	<circle cx="210.813" cy="270.403" r="4" fill="#0" id="circle39"/>
	<circle cx="210.813" cy="305.456" r="4" fill="#0" id="circle40"/>
	<circle cx="210.813" cy="340.509" r="4" fill="#0" id="circle41"/>
	<circle cx="210.813" cy="375.562" r="4" fill="#0" id="circle42"/>
	<circle cx="210.813" cy="410.615" r="4" fill="#0" id="circle43"/>
	<circle cx="210.813" cy="445.668" r="4" fill="#0" id="circle44"/>
	<circle cx="214.318" cy="11.0106" r="4" fill="#0" id="circle45"/>
	<circle cx="217.823" cy="81.1166" r="4" fill="#0" id="circle46"/>
	<circle cx="221.329" cy="480.721" r="4" fill="#0" id="circle47"/>
	<circle cx="224.834" cy="46.0636" r="4" fill="#0" id="circle48"/>
	<circle cx="231.845" cy="988.989" r="4" fill="#0" id="circle49"/>
	<circle cx="249.371" cy="501.753" r="4" fill="#0" id="circle50"/>
	<circle cx="266.898" cy="985.484" r="4" fill="#0" id="circle51"/>
	<circle cx="284.424" cy="505.258" r="4" fill="#0" id="circle52"/>
	<circle cx="301.951" cy="974.968" r="4" fill="#0" id="circle53"/>
	<circle cx="319.477" cy="515.774" r="4" fill="#0" id="circle54"/>
	<circle cx="329.993" cy="648.975" r="4" fill="#0" id="circle55"/>
	<circle cx="329.993" cy="684.028" r="4" fill="#0" id="circle56"/>
	<circle cx="333.498" cy="953.936" r="4" fill="#0" id="circle57"/>
	<circle cx="340.509" cy="543.816" r="4" fill="#0" id="circle58"/>
	<circle cx="344.014" cy="613.922" r="4" fill="#0" id="circle59"/>
	<circle cx="347.519" cy="715.576" r="4" fill="#0" id="circle60"/>
	<circle cx="351.025" cy="578.869" r="4" fill="#0" id="circle61"/>
	<circle cx="361.541" cy="932.905" r="4" fill="#0" id="circle62"/>
	<circle cx="368.551" cy="743.618" r="4" fill="#0" id="circle63"/>
	<circle cx="382.572" cy="904.862" r="4" fill="#0" id="circle64"/>
	<circle cx="386.078" cy="775.166" r="4" fill="#0" id="circle65"/>
	<circle cx="393.088" cy="810.219" r="4" fill="#0" id="circle66"/>
	<circle cx="396.594" cy="869.809" r="4" fill="#0" id="circle67"/>
	</g>
</svg>