<?xml version="1.0" encoding="UTF-8" standalone="no"?>
<!-- Created with CurveBenchmark -->
<svg
	xmlns:dc="http://purl.org/dc/elements/1.1/"
	xmlns:cc="http://creativecommons.org/ns#"
	xmlns:rdf="http://www.w3.org/1999/02/22-rdf-syntax-ns#"
	xmlns:svg="http://www.w3.org/2000/svg"
	xmlns="http://www.w3.org/2000/svg"
	xmlns:sodipodi="http://sodipodi.sourceforge.net/DTD/sodipodi-0.dtd"
	xmlns:inkscape="http://www.inkscape.org/namespaces/inkscape"
	width="1000"
	height="1000"
	id="svg2"
	version="1.1"
	sodipodi:docname="manifold/gathang-hand90.png.txt">
<defs
	id="defs4" />
<metadata
	id="metadata7">
	<rdf:RDF>
		<cc:Work
			rdf:about="">
			<dc:format>image/svg+xml</dc:format>
			<dc:type
				rdf:resource="http://purl.org/dc/dcmitype/StillImage" />
			<dc:title></dc:title>
		</cc:Work>
	</rdf:RDF>
</metadata>
<g
	inkscape:label="Layer 1"
	inkscape:groupmode="layer"
	id="layer1">
	<path style="fill:none;stroke:red;stroke-width:1px;stroke-linecap:butt;stroke-linejoin:miter;stroke-opacity:1" d="M 4,135.426 4,117.423 z" id="boundary" inkscape:connector-curvature="0" />
	<path style="fill:none;stroke:red;stroke-width:1px;stroke-linecap:butt;stroke-linejoin:miter;stroke-opacity:1" d="M 4,117.423 22.0036,112.022 z" id="boundary" inkscape:connector-curvature="0" />
	<path style="fill:none;stroke:red;stroke-width:1px;stroke-linecap:butt;stroke-linejoin:miter;stroke-opacity:1" d="M 4,153.43 4,135.426 z" id="boundary" inkscape:connector-curvature="0" />
	<path style="fill:none;stroke:red;stroke-width:1px;stroke-linecap:butt;stroke-linejoin:miter;stroke-opacity:1" d="M 56.2105,122.824 38.2069,121.024 z" id="boundary" inkscape:connector-curvature="0" />
	<path style="fill:none;stroke:red;stroke-width:1px;stroke-linecap:butt;stroke-linejoin:miter;stroke-opacity:1" d="M 38.2069,121.024 22.0036,112.022 z" id="boundary" inkscape:connector-curvature="0" />
	<path style="fill:none;stroke:red;stroke-width:1px;stroke-linecap:butt;stroke-linejoin:miter;stroke-opacity:1" d="M 56.2105,122.824 74.2142,130.025 z" id="boundary" inkscape:connector-curvature="0" />
	<path style="fill:none;stroke:red;stroke-width:1px;stroke-linecap:butt;stroke-linejoin:miter;stroke-opacity:1" d="M 92.2178,131.826 110.221,139.027 z" id="boundary" inkscape:connector-curvature="0" />
	<path style="fill:none;stroke:red;stroke-width:1px;stroke-linecap:butt;stroke-linejoin:miter;stroke-opacity:1" d="M 74.2142,130.025 92.2178,131.826 z" id="boundary" inkscape:connector-curvature="0" />
	<path style="fill:none;stroke:red;stroke-width:1px;stroke-linecap:butt;stroke-linejoin:miter;stroke-opacity:1" d="M 128.225,139.027 110.221,139.027 z" id="boundary" inkscape:connector-curvature="0" />
	<path style="fill:none;stroke:red;stroke-width:1px;stroke-linecap:butt;stroke-linejoin:miter;stroke-opacity:1" d="M 232.646,112.022 250.65,104.82 z" id="boundary" inkscape:connector-curvature="0" />
	<path style="fill:none;stroke:red;stroke-width:1px;stroke-linecap:butt;stroke-linejoin:miter;stroke-opacity:1" d="M 250.65,104.82 268.653,103.02 z" id="boundary" inkscape:connector-curvature="0" />
	<path style="fill:none;stroke:red;stroke-width:1px;stroke-linecap:butt;stroke-linejoin:miter;stroke-opacity:1" d="M 232.646,112.022 214.642,113.822 z" id="boundary" inkscape:connector-curvature="0" />
	<path style="fill:none;stroke:red;stroke-width:1px;stroke-linecap:butt;stroke-linejoin:miter;stroke-opacity:1" d="M 268.653,103.02 286.657,103.02 z" id="boundary" inkscape:connector-curvature="0" />
	<path style="fill:none;stroke:red;stroke-width:1px;stroke-linecap:butt;stroke-linejoin:miter;stroke-opacity:1" d="M 302.86,94.0181 286.657,103.02 z" id="boundary" inkscape:connector-curvature="0" />
	<path style="fill:none;stroke:red;stroke-width:1px;stroke-linecap:butt;stroke-linejoin:miter;stroke-opacity:1" d="M 146.229,139.027 128.225,139.027 z" id="boundary" inkscape:connector-curvature="0" />
	<path style="fill:none;stroke:red;stroke-width:1px;stroke-linecap:butt;stroke-linejoin:miter;stroke-opacity:1" d="M 162.432,130.025 146.229,139.027 z" id="boundary" inkscape:connector-curvature="0" />
	<path style="fill:none;stroke:red;stroke-width:1px;stroke-linecap:butt;stroke-linejoin:miter;stroke-opacity:1" d="M 196.639,121.024 214.642,113.822 z" id="boundary" inkscape:connector-curvature="0" />
	<path style="fill:none;stroke:red;stroke-width:1px;stroke-linecap:butt;stroke-linejoin:miter;stroke-opacity:1" d="M 196.639,121.024 180.436,130.025 z" id="boundary" inkscape:connector-curvature="0" />
	<path style="fill:none;stroke:red;stroke-width:1px;stroke-linecap:butt;stroke-linejoin:miter;stroke-opacity:1" d="M 180.436,130.025 162.432,130.025 z" id="boundary" inkscape:connector-curvature="0" />
	<path style="fill:none;stroke:red;stroke-width:1px;stroke-linecap:butt;stroke-linejoin:miter;stroke-opacity:1" d="M 4,171.434 4,153.43 z" id="boundary" inkscape:connector-curvature="0" />
	<path style="fill:none;stroke:red;stroke-width:1px;stroke-linecap:butt;stroke-linejoin:miter;stroke-opacity:1" d="M 4,207.441 4,189.437 z" id="boundary" inkscape:connector-curvature="0" />
	<path style="fill:none;stroke:red;stroke-width:1px;stroke-linecap:butt;stroke-linejoin:miter;stroke-opacity:1" d="M 4,189.437 4,171.434 z" id="boundary" inkscape:connector-curvature="0" />
	<path style="fill:none;stroke:red;stroke-width:1px;stroke-linecap:butt;stroke-linejoin:miter;stroke-opacity:1" d="M 4,243.448 4,225.445 z" id="boundary" inkscape:connector-curvature="0" />
	<path style="fill:none;stroke:red;stroke-width:1px;stroke-linecap:butt;stroke-linejoin:miter;stroke-opacity:1" d="M 4,279.456 4,261.452 z" id="boundary" inkscape:connector-curvature="0" />
	<path style="fill:none;stroke:red;stroke-width:1px;stroke-linecap:butt;stroke-linejoin:miter;stroke-opacity:1" d="M 4,261.452 4,243.448 z" id="boundary" inkscape:connector-curvature="0" />
	<path style="fill:none;stroke:red;stroke-width:1px;stroke-linecap:butt;stroke-linejoin:miter;stroke-opacity:1" d="M 4,225.445 4,207.441 z" id="boundary" inkscape:connector-curvature="0" />
	<path style="fill:none;stroke:red;stroke-width:1px;stroke-linecap:butt;stroke-linejoin:miter;stroke-opacity:1" d="M 4,315.463 4,297.459 z" id="boundary" inkscape:connector-curvature="0" />
	<path style="fill:none;stroke:red;stroke-width:1px;stroke-linecap:butt;stroke-linejoin:miter;stroke-opacity:1" d="M 4,333.466 4,315.463 z" id="boundary" inkscape:connector-curvature="0" />
	<path style="fill:none;stroke:red;stroke-width:1px;stroke-linecap:butt;stroke-linejoin:miter;stroke-opacity:1" d="M 4,297.459 4,279.456 z" id="boundary" inkscape:connector-curvature="0" />
	<path style="fill:none;stroke:red;stroke-width:1px;stroke-linecap:butt;stroke-linejoin:miter;stroke-opacity:1" d="M 4,351.47 4,333.466 z" id="boundary" inkscape:connector-curvature="0" />
	<path style="fill:none;stroke:red;stroke-width:1px;stroke-linecap:butt;stroke-linejoin:miter;stroke-opacity:1" d="M 4,387.477 4,369.474 z" id="boundary" inkscape:connector-curvature="0" />
	<path style="fill:none;stroke:red;stroke-width:1px;stroke-linecap:butt;stroke-linejoin:miter;stroke-opacity:1" d="M 4,405.481 4,387.477 z" id="boundary" inkscape:connector-curvature="0" />
	<path style="fill:none;stroke:red;stroke-width:1px;stroke-linecap:butt;stroke-linejoin:miter;stroke-opacity:1" d="M 4,369.474 4,351.47 z" id="boundary" inkscape:connector-curvature="0" />
	<path style="fill:none;stroke:red;stroke-width:1px;stroke-linecap:butt;stroke-linejoin:miter;stroke-opacity:1" d="M 4,423.485 4,405.481 z" id="boundary" inkscape:connector-curvature="0" />
	<path style="fill:none;stroke:red;stroke-width:1px;stroke-linecap:butt;stroke-linejoin:miter;stroke-opacity:1" d="M 320.864,94.0181 338.868,94.0181 z" id="boundary" inkscape:connector-curvature="0" />
	<path style="fill:none;stroke:red;stroke-width:1px;stroke-linecap:butt;stroke-linejoin:miter;stroke-opacity:1" d="M 374.875,94.0181 356.871,94.0181 z" id="boundary" inkscape:connector-curvature="0" />
	<path style="fill:none;stroke:red;stroke-width:1px;stroke-linecap:butt;stroke-linejoin:miter;stroke-opacity:1" d="M 356.871,94.0181 338.868,94.0181 z" id="boundary" inkscape:connector-curvature="0" />
	<path style="fill:none;stroke:red;stroke-width:1px;stroke-linecap:butt;stroke-linejoin:miter;stroke-opacity:1" d="M 320.864,94.0181 302.86,94.0181 z" id="boundary" inkscape:connector-curvature="0" />
	<path style="fill:none;stroke:red;stroke-width:1px;stroke-linecap:butt;stroke-linejoin:miter;stroke-opacity:1" d="M 392.878,94.0181 374.875,94.0181 z" id="boundary" inkscape:connector-curvature="0" />
	<path style="fill:none;stroke:red;stroke-width:1px;stroke-linecap:butt;stroke-linejoin:miter;stroke-opacity:1" d="M 392.878,94.0181 410.882,94.0181 z" id="boundary" inkscape:connector-curvature="0" />
	<path style="fill:none;stroke:red;stroke-width:1px;stroke-linecap:butt;stroke-linejoin:miter;stroke-opacity:1" d="M 428.886,94.0181 410.882,94.0181 z" id="boundary" inkscape:connector-curvature="0" />
	<path style="fill:none;stroke:red;stroke-width:1px;stroke-linecap:butt;stroke-linejoin:miter;stroke-opacity:1" d="M 554.911,52.6098 572.915,43.608 z" id="boundary" inkscape:connector-curvature="0" />
	<path style="fill:none;stroke:red;stroke-width:1px;stroke-linecap:butt;stroke-linejoin:miter;stroke-opacity:1" d="M 590.918,40.0073 572.915,43.608 z" id="boundary" inkscape:connector-curvature="0" />
	<path style="fill:none;stroke:red;stroke-width:1px;stroke-linecap:butt;stroke-linejoin:miter;stroke-opacity:1" d="M 608.922,34.6062 590.918,40.0073 z" id="boundary" inkscape:connector-curvature="0" />
	<path style="fill:none;stroke:red;stroke-width:1px;stroke-linecap:butt;stroke-linejoin:miter;stroke-opacity:1" d="M 482.897,85.0163 500.9,79.6152 z" id="boundary" inkscape:connector-curvature="0" />
	<path style="fill:none;stroke:red;stroke-width:1px;stroke-linecap:butt;stroke-linejoin:miter;stroke-opacity:1" d="M 518.904,70.6134 500.9,79.6152 z" id="boundary" inkscape:connector-curvature="0" />
	<path style="fill:none;stroke:red;stroke-width:1px;stroke-linecap:butt;stroke-linejoin:miter;stroke-opacity:1" d="M 518.904,70.6134 536.907,61.6116 z" id="boundary" inkscape:connector-curvature="0" />
	<path style="fill:none;stroke:red;stroke-width:1px;stroke-linecap:butt;stroke-linejoin:miter;stroke-opacity:1" d="M 482.897,85.0163 464.893,88.6171 z" id="boundary" inkscape:connector-curvature="0" />
	<path style="fill:none;stroke:red;stroke-width:1px;stroke-linecap:butt;stroke-linejoin:miter;stroke-opacity:1" d="M 536.907,61.6116 554.911,52.6098 z" id="boundary" inkscape:connector-curvature="0" />
	<path style="fill:none;stroke:red;stroke-width:1px;stroke-linecap:butt;stroke-linejoin:miter;stroke-opacity:1" d="M 643.129,22.0036 626.926,31.0054 z" id="boundary" inkscape:connector-curvature="0" />
	<path style="fill:none;stroke:red;stroke-width:1px;stroke-linecap:butt;stroke-linejoin:miter;stroke-opacity:1" d="M 626.926,31.0054 608.922,34.6062 z" id="boundary" inkscape:connector-curvature="0" />
	<path style="fill:none;stroke:red;stroke-width:1px;stroke-linecap:butt;stroke-linejoin:miter;stroke-opacity:1" d="M 428.886,94.0181 446.889,94.0181 z" id="boundary" inkscape:connector-curvature="0" />
	<path style="fill:none;stroke:red;stroke-width:1px;stroke-linecap:butt;stroke-linejoin:miter;stroke-opacity:1" d="M 464.893,88.6171 446.889,94.0181 z" id="boundary" inkscape:connector-curvature="0" />
	<path style="fill:none;stroke:red;stroke-width:1px;stroke-linecap:butt;stroke-linejoin:miter;stroke-opacity:1" d="M 560.312,155.23 578.316,146.229 z" id="boundary" inkscape:connector-curvature="0" />
	<path style="fill:none;stroke:red;stroke-width:1px;stroke-linecap:butt;stroke-linejoin:miter;stroke-opacity:1" d="M 560.312,155.23 545.909,167.833 z" id="boundary" inkscape:connector-curvature="0" />
	<path style="fill:none;stroke:red;stroke-width:1px;stroke-linecap:butt;stroke-linejoin:miter;stroke-opacity:1" d="M 545.909,167.833 554.911,184.036 z" id="boundary" inkscape:connector-curvature="0" />
	<path style="fill:none;stroke:red;stroke-width:1px;stroke-linecap:butt;stroke-linejoin:miter;stroke-opacity:1" d="M 572.915,184.036 590.918,184.036 z" id="boundary" inkscape:connector-curvature="0" />
	<path style="fill:none;stroke:red;stroke-width:1px;stroke-linecap:butt;stroke-linejoin:miter;stroke-opacity:1" d="M 572.915,184.036 554.911,184.036 z" id="boundary" inkscape:connector-curvature="0" />
	<path style="fill:none;stroke:red;stroke-width:1px;stroke-linecap:butt;stroke-linejoin:miter;stroke-opacity:1" d="M 607.122,175.034 590.918,184.036 z" id="boundary" inkscape:connector-curvature="0" />
	<path style="fill:none;stroke:red;stroke-width:1px;stroke-linecap:butt;stroke-linejoin:miter;stroke-opacity:1" d="M 607.122,175.034 625.125,175.034 z" id="boundary" inkscape:connector-curvature="0" />
	<path style="fill:none;stroke:red;stroke-width:1px;stroke-linecap:butt;stroke-linejoin:miter;stroke-opacity:1" d="M 596.319,137.227 614.323,131.826 z" id="boundary" inkscape:connector-curvature="0" />
	<path style="fill:none;stroke:red;stroke-width:1px;stroke-linecap:butt;stroke-linejoin:miter;stroke-opacity:1" d="M 614.323,131.826 632.327,128.225 z" id="boundary" inkscape:connector-curvature="0" />
	<path style="fill:none;stroke:red;stroke-width:1px;stroke-linecap:butt;stroke-linejoin:miter;stroke-opacity:1" d="M 596.319,137.227 578.316,146.229 z" id="boundary" inkscape:connector-curvature="0" />
	<path style="fill:none;stroke:red;stroke-width:1px;stroke-linecap:butt;stroke-linejoin:miter;stroke-opacity:1" d="M 612.523,428.886 608.922,410.882 z" id="boundary" inkscape:connector-curvature="0" />
	<path style="fill:none;stroke:red;stroke-width:1px;stroke-linecap:butt;stroke-linejoin:miter;stroke-opacity:1" d="M 608.922,410.882 626.926,410.882 z" id="boundary" inkscape:connector-curvature="0" />
	<path style="fill:none;stroke:red;stroke-width:1px;stroke-linecap:butt;stroke-linejoin:miter;stroke-opacity:1" d="M 626.926,410.882 644.929,410.882 z" id="boundary" inkscape:connector-curvature="0" />
	<path style="fill:none;stroke:red;stroke-width:1px;stroke-linecap:butt;stroke-linejoin:miter;stroke-opacity:1" d="M 630.526,436.087 612.523,428.886 z" id="boundary" inkscape:connector-curvature="0" />
	<path style="fill:none;stroke:red;stroke-width:1px;stroke-linecap:butt;stroke-linejoin:miter;stroke-opacity:1" d="M 626.926,284.857 635.927,301.06 z" id="boundary" inkscape:connector-curvature="0" />
	<path style="fill:none;stroke:red;stroke-width:1px;stroke-linecap:butt;stroke-linejoin:miter;stroke-opacity:1" d="M 14.8022,437.887 32.8058,441.488 z" id="boundary" inkscape:connector-curvature="0" />
	<path style="fill:none;stroke:red;stroke-width:1px;stroke-linecap:butt;stroke-linejoin:miter;stroke-opacity:1" d="M 32.8058,441.488 49.0091,450.49 z" id="boundary" inkscape:connector-curvature="0" />
	<path style="fill:none;stroke:red;stroke-width:1px;stroke-linecap:butt;stroke-linejoin:miter;stroke-opacity:1" d="M 14.8022,437.887 4,423.485 z" id="boundary" inkscape:connector-curvature="0" />
	<path style="fill:none;stroke:red;stroke-width:1px;stroke-linecap:butt;stroke-linejoin:miter;stroke-opacity:1" d="M 49.0091,450.49 63.412,463.093 z" id="boundary" inkscape:connector-curvature="0" />
	<path style="fill:none;stroke:red;stroke-width:1px;stroke-linecap:butt;stroke-linejoin:miter;stroke-opacity:1" d="M 76.0145,477.495 63.412,463.093 z" id="boundary" inkscape:connector-curvature="0" />
	<path style="fill:none;stroke:red;stroke-width:1px;stroke-linecap:butt;stroke-linejoin:miter;stroke-opacity:1" d="M 76.0145,477.495 85.0163,493.699 z" id="boundary" inkscape:connector-curvature="0" />
	<path style="fill:none;stroke:red;stroke-width:1px;stroke-linecap:butt;stroke-linejoin:miter;stroke-opacity:1" d="M 85.0163,493.699 85.0163,511.702 z" id="boundary" inkscape:connector-curvature="0" />
	<path style="fill:none;stroke:red;stroke-width:1px;stroke-linecap:butt;stroke-linejoin:miter;stroke-opacity:1" d="M 85.0163,511.702 97.6189,526.105 z" id="boundary" inkscape:connector-curvature="0" />
	<path style="fill:none;stroke:red;stroke-width:1px;stroke-linecap:butt;stroke-linejoin:miter;stroke-opacity:1" d="M 112.022,536.907 97.6189,526.105 z" id="boundary" inkscape:connector-curvature="0" />
	<path style="fill:none;stroke:red;stroke-width:1px;stroke-linecap:butt;stroke-linejoin:miter;stroke-opacity:1" d="M 112.022,536.907 122.824,551.31 z" id="boundary" inkscape:connector-curvature="0" />
	<path style="fill:none;stroke:red;stroke-width:1px;stroke-linecap:butt;stroke-linejoin:miter;stroke-opacity:1" d="M 137.227,563.913 122.824,551.31 z" id="boundary" inkscape:connector-curvature="0" />
	<path style="fill:none;stroke:red;stroke-width:1px;stroke-linecap:butt;stroke-linejoin:miter;stroke-opacity:1" d="M 419.884,536.907 401.88,554.911 z" id="boundary" inkscape:connector-curvature="0" />
	<path style="fill:none;stroke:red;stroke-width:1px;stroke-linecap:butt;stroke-linejoin:miter;stroke-opacity:1" d="M 401.88,554.911 383.877,563.913 z" id="boundary" inkscape:connector-curvature="0" />
	<path style="fill:none;stroke:red;stroke-width:1px;stroke-linecap:butt;stroke-linejoin:miter;stroke-opacity:1" d="M 137.227,563.913 149.829,578.316 z" id="boundary" inkscape:connector-curvature="0" />
	<path style="fill:none;stroke:red;stroke-width:1px;stroke-linecap:butt;stroke-linejoin:miter;stroke-opacity:1" d="M 149.829,578.316 164.232,590.918 z" id="boundary" inkscape:connector-curvature="0" />
	<path style="fill:none;stroke:red;stroke-width:1px;stroke-linecap:butt;stroke-linejoin:miter;stroke-opacity:1" d="M 164.232,590.918 176.835,605.321 z" id="boundary" inkscape:connector-curvature="0" />
	<path style="fill:none;stroke:red;stroke-width:1px;stroke-linecap:butt;stroke-linejoin:miter;stroke-opacity:1" d="M 383.877,581.917 383.877,563.913 z" id="boundary" inkscape:connector-curvature="0" />
	<path style="fill:none;stroke:red;stroke-width:1px;stroke-linecap:butt;stroke-linejoin:miter;stroke-opacity:1" d="M 392.878,598.12 383.877,581.917 z" id="boundary" inkscape:connector-curvature="0" />
	<path style="fill:none;stroke:red;stroke-width:1px;stroke-linecap:butt;stroke-linejoin:miter;stroke-opacity:1" d="M 407.281,608.922 392.878,598.12 z" id="boundary" inkscape:connector-curvature="0" />
	<path style="fill:none;stroke:red;stroke-width:1px;stroke-linecap:butt;stroke-linejoin:miter;stroke-opacity:1" d="M 191.238,617.924 176.835,605.321 z" id="boundary" inkscape:connector-curvature="0" />
	<path style="fill:none;stroke:red;stroke-width:1px;stroke-linecap:butt;stroke-linejoin:miter;stroke-opacity:1" d="M 207.441,626.926 191.238,617.924 z" id="boundary" inkscape:connector-curvature="0" />
	<path style="fill:none;stroke:red;stroke-width:1px;stroke-linecap:butt;stroke-linejoin:miter;stroke-opacity:1" d="M 207.441,626.926 225.445,634.127 z" id="boundary" inkscape:connector-curvature="0" />
	<path style="fill:none;stroke:red;stroke-width:1px;stroke-linecap:butt;stroke-linejoin:miter;stroke-opacity:1" d="M 225.445,634.127 238.047,648.53 z" id="boundary" inkscape:connector-curvature="0" />
	<path style="fill:none;stroke:red;stroke-width:1px;stroke-linecap:butt;stroke-linejoin:miter;stroke-opacity:1" d="M 238.047,648.53 256.051,653.931 z" id="boundary" inkscape:connector-curvature="0" />
	<path style="fill:none;stroke:red;stroke-width:1px;stroke-linecap:butt;stroke-linejoin:miter;stroke-opacity:1" d="M 256.051,653.931 266.853,668.334 z" id="boundary" inkscape:connector-curvature="0" />
	<path style="fill:none;stroke:red;stroke-width:1px;stroke-linecap:butt;stroke-linejoin:miter;stroke-opacity:1" d="M 266.853,668.334 284.857,671.935 z" id="boundary" inkscape:connector-curvature="0" />
	<path style="fill:none;stroke:red;stroke-width:1px;stroke-linecap:butt;stroke-linejoin:miter;stroke-opacity:1" d="M 284.857,671.935 301.06,680.936 z" id="boundary" inkscape:connector-curvature="0" />
	<path style="fill:none;stroke:red;stroke-width:1px;stroke-linecap:butt;stroke-linejoin:miter;stroke-opacity:1" d="M 301.06,680.936 317.263,689.938 z" id="boundary" inkscape:connector-curvature="0" />
	<path style="fill:none;stroke:red;stroke-width:1px;stroke-linecap:butt;stroke-linejoin:miter;stroke-opacity:1" d="M 317.263,689.938 329.866,704.341 z" id="boundary" inkscape:connector-curvature="0" />
	<path style="fill:none;stroke:red;stroke-width:1px;stroke-linecap:butt;stroke-linejoin:miter;stroke-opacity:1" d="M 347.869,711.543 329.866,704.341 z" id="boundary" inkscape:connector-curvature="0" />
	<path style="fill:none;stroke:red;stroke-width:1px;stroke-linecap:butt;stroke-linejoin:miter;stroke-opacity:1" d="M 347.869,711.543 360.472,725.946 z" id="boundary" inkscape:connector-curvature="0" />
	<path style="fill:none;stroke:red;stroke-width:1px;stroke-linecap:butt;stroke-linejoin:miter;stroke-opacity:1" d="M 376.675,734.947 360.472,725.946 z" id="boundary" inkscape:connector-curvature="0" />
	<path style="fill:none;stroke:red;stroke-width:1px;stroke-linecap:butt;stroke-linejoin:miter;stroke-opacity:1" d="M 409.082,752.951 391.078,745.75 z" id="boundary" inkscape:connector-curvature="0" />
	<path style="fill:none;stroke:red;stroke-width:1px;stroke-linecap:butt;stroke-linejoin:miter;stroke-opacity:1" d="M 409.082,752.951 419.884,767.354 z" id="boundary" inkscape:connector-curvature="0" />
	<path style="fill:none;stroke:red;stroke-width:1px;stroke-linecap:butt;stroke-linejoin:miter;stroke-opacity:1" d="M 376.675,734.947 391.078,745.75 z" id="boundary" inkscape:connector-curvature="0" />
	<path style="fill:none;stroke:red;stroke-width:1px;stroke-linecap:butt;stroke-linejoin:miter;stroke-opacity:1" d="M 407.281,608.922 419.884,623.325 z" id="boundary" inkscape:connector-curvature="0" />
	<path style="fill:none;stroke:red;stroke-width:1px;stroke-linecap:butt;stroke-linejoin:miter;stroke-opacity:1" d="M 437.887,536.907 419.884,536.907 z" id="boundary" inkscape:connector-curvature="0" />
	<path style="fill:none;stroke:red;stroke-width:1px;stroke-linecap:butt;stroke-linejoin:miter;stroke-opacity:1" d="M 454.091,527.906 437.887,536.907 z" id="boundary" inkscape:connector-curvature="0" />
	<path style="fill:none;stroke:red;stroke-width:1px;stroke-linecap:butt;stroke-linejoin:miter;stroke-opacity:1" d="M 454.091,527.906 472.094,527.906 z" id="boundary" inkscape:connector-curvature="0" />
	<path style="fill:none;stroke:red;stroke-width:1px;stroke-linecap:butt;stroke-linejoin:miter;stroke-opacity:1" d="M 419.884,623.325 437.887,630.526 z" id="boundary" inkscape:connector-curvature="0" />
	<path style="fill:none;stroke:red;stroke-width:1px;stroke-linecap:butt;stroke-linejoin:miter;stroke-opacity:1" d="M 437.887,630.526 450.49,644.929 z" id="boundary" inkscape:connector-curvature="0" />
	<path style="fill:none;stroke:red;stroke-width:1px;stroke-linecap:butt;stroke-linejoin:miter;stroke-opacity:1" d="M 450.49,644.929 464.893,657.532 z" id="boundary" inkscape:connector-curvature="0" />
	<path style="fill:none;stroke:red;stroke-width:1px;stroke-linecap:butt;stroke-linejoin:miter;stroke-opacity:1" d="M 464.893,657.532 477.495,671.935 z" id="boundary" inkscape:connector-curvature="0" />
	<path style="fill:none;stroke:red;stroke-width:1px;stroke-linecap:butt;stroke-linejoin:miter;stroke-opacity:1" d="M 490.098,527.906 506.301,536.907 z" id="boundary" inkscape:connector-curvature="0" />
	<path style="fill:none;stroke:red;stroke-width:1px;stroke-linecap:butt;stroke-linejoin:miter;stroke-opacity:1" d="M 472.094,527.906 490.098,527.906 z" id="boundary" inkscape:connector-curvature="0" />
	<path style="fill:none;stroke:red;stroke-width:1px;stroke-linecap:butt;stroke-linejoin:miter;stroke-opacity:1" d="M 524.305,536.907 506.301,536.907 z" id="boundary" inkscape:connector-curvature="0" />
	<path style="fill:none;stroke:red;stroke-width:1px;stroke-linecap:butt;stroke-linejoin:miter;stroke-opacity:1" d="M 524.305,536.907 542.309,536.907 z" id="boundary" inkscape:connector-curvature="0" />
	<path style="fill:none;stroke:red;stroke-width:1px;stroke-linecap:butt;stroke-linejoin:miter;stroke-opacity:1" d="M 560.312,536.907 578.316,536.907 z" id="boundary" inkscape:connector-curvature="0" />
	<path style="fill:none;stroke:red;stroke-width:1px;stroke-linecap:butt;stroke-linejoin:miter;stroke-opacity:1" d="M 560.312,536.907 542.309,536.907 z" id="boundary" inkscape:connector-curvature="0" />
	<path style="fill:none;stroke:red;stroke-width:1px;stroke-linecap:butt;stroke-linejoin:miter;stroke-opacity:1" d="M 596.319,536.907 614.323,536.907 z" id="boundary" inkscape:connector-curvature="0" />
	<path style="fill:none;stroke:red;stroke-width:1px;stroke-linecap:butt;stroke-linejoin:miter;stroke-opacity:1" d="M 614.323,536.907 630.526,545.909 z" id="boundary" inkscape:connector-curvature="0" />
	<path style="fill:none;stroke:red;stroke-width:1px;stroke-linecap:butt;stroke-linejoin:miter;stroke-opacity:1" d="M 596.319,536.907 578.316,536.907 z" id="boundary" inkscape:connector-curvature="0" />
	<path style="fill:none;stroke:red;stroke-width:1px;stroke-linecap:butt;stroke-linejoin:miter;stroke-opacity:1" d="M 648.53,545.909 630.526,545.909 z" id="boundary" inkscape:connector-curvature="0" />
	<path style="fill:none;stroke:red;stroke-width:1px;stroke-linecap:butt;stroke-linejoin:miter;stroke-opacity:1" d="M 419.884,767.354 428.886,783.557 z" id="boundary" inkscape:connector-curvature="0" />
	<path style="fill:none;stroke:red;stroke-width:1px;stroke-linecap:butt;stroke-linejoin:miter;stroke-opacity:1" d="M 445.089,792.559 428.886,783.557 z" id="boundary" inkscape:connector-curvature="0" />
	<path style="fill:none;stroke:red;stroke-width:1px;stroke-linecap:butt;stroke-linejoin:miter;stroke-opacity:1" d="M 491.898,684.537 504.501,698.94 z" id="boundary" inkscape:connector-curvature="0" />
	<path style="fill:none;stroke:red;stroke-width:1px;stroke-linecap:butt;stroke-linejoin:miter;stroke-opacity:1" d="M 491.898,684.537 477.495,671.935 z" id="boundary" inkscape:connector-curvature="0" />
	<path style="fill:none;stroke:red;stroke-width:1px;stroke-linecap:butt;stroke-linejoin:miter;stroke-opacity:1" d="M 445.089,792.559 459.492,805.162 z" id="boundary" inkscape:connector-curvature="0" />
	<path style="fill:none;stroke:red;stroke-width:1px;stroke-linecap:butt;stroke-linejoin:miter;stroke-opacity:1" d="M 459.492,805.162 466.693,823.165 z" id="boundary" inkscape:connector-curvature="0" />
	<path style="fill:none;stroke:red;stroke-width:1px;stroke-linecap:butt;stroke-linejoin:miter;stroke-opacity:1" d="M 466.693,823.165 481.096,833.967 z" id="boundary" inkscape:connector-curvature="0" />
	<path style="fill:none;stroke:red;stroke-width:1px;stroke-linecap:butt;stroke-linejoin:miter;stroke-opacity:1" d="M 499.1,833.967 481.096,833.967 z" id="boundary" inkscape:connector-curvature="0" />
	<path style="fill:none;stroke:red;stroke-width:1px;stroke-linecap:butt;stroke-linejoin:miter;stroke-opacity:1" d="M 513.503,715.143 518.904,733.147 z" id="boundary" inkscape:connector-curvature="0" />
	<path style="fill:none;stroke:red;stroke-width:1px;stroke-linecap:butt;stroke-linejoin:miter;stroke-opacity:1" d="M 513.503,715.143 504.501,698.94 z" id="boundary" inkscape:connector-curvature="0" />
	<path style="fill:none;stroke:red;stroke-width:1px;stroke-linecap:butt;stroke-linejoin:miter;stroke-opacity:1" d="M 527.906,749.35 518.904,733.147 z" id="boundary" inkscape:connector-curvature="0" />
	<path style="fill:none;stroke:red;stroke-width:1px;stroke-linecap:butt;stroke-linejoin:miter;stroke-opacity:1" d="M 517.103,828.566 499.1,833.967 z" id="boundary" inkscape:connector-curvature="0" />
	<path style="fill:none;stroke:red;stroke-width:1px;stroke-linecap:butt;stroke-linejoin:miter;stroke-opacity:1" d="M 527.906,806.962 517.103,828.566 z" id="boundary" inkscape:connector-curvature="0" />
	<path style="fill:none;stroke:red;stroke-width:1px;stroke-linecap:butt;stroke-linejoin:miter;stroke-opacity:1" d="M 536.907,783.557 527.906,806.962 z" id="boundary" inkscape:connector-curvature="0" />
	<path style="fill:none;stroke:red;stroke-width:1px;stroke-linecap:butt;stroke-linejoin:miter;stroke-opacity:1" d="M 536.907,783.557 536.907,765.554 z" id="boundary" inkscape:connector-curvature="0" />
	<path style="fill:none;stroke:red;stroke-width:1px;stroke-linecap:butt;stroke-linejoin:miter;stroke-opacity:1" d="M 527.906,749.35 536.907,765.554 z" id="boundary" inkscape:connector-curvature="0" />
	<path style="fill:none;stroke:red;stroke-width:1px;stroke-linecap:butt;stroke-linejoin:miter;stroke-opacity:1" d="M 643.129,22.0036 659.332,13.0018 z" id="boundary" inkscape:connector-curvature="0" />
	<path style="fill:none;stroke:red;stroke-width:1px;stroke-linecap:butt;stroke-linejoin:miter;stroke-opacity:1" d="M 659.332,13.0018 677.336,13.0018 z" id="boundary" inkscape:connector-curvature="0" />
	<path style="fill:none;stroke:red;stroke-width:1px;stroke-linecap:butt;stroke-linejoin:miter;stroke-opacity:1" d="M 697.14,104.82 679.136,104.82 z" id="boundary" inkscape:connector-curvature="0" />
	<path style="fill:none;stroke:red;stroke-width:1px;stroke-linecap:butt;stroke-linejoin:miter;stroke-opacity:1" d="M 693.539,4 677.336,13.0018 z" id="boundary" inkscape:connector-curvature="0" />
	<path style="fill:none;stroke:red;stroke-width:1px;stroke-linecap:butt;stroke-linejoin:miter;stroke-opacity:1" d="M 632.327,128.225 644.929,113.822 z" id="boundary" inkscape:connector-curvature="0" />
	<path style="fill:none;stroke:red;stroke-width:1px;stroke-linecap:butt;stroke-linejoin:miter;stroke-opacity:1" d="M 644.929,113.822 662.933,113.822 z" id="boundary" inkscape:connector-curvature="0" />
	<path style="fill:none;stroke:red;stroke-width:1px;stroke-linecap:butt;stroke-linejoin:miter;stroke-opacity:1" d="M 679.136,166.033 661.132,166.033 z" id="boundary" inkscape:connector-curvature="0" />
	<path style="fill:none;stroke:red;stroke-width:1px;stroke-linecap:butt;stroke-linejoin:miter;stroke-opacity:1" d="M 679.136,104.82 662.933,113.822 z" id="boundary" inkscape:connector-curvature="0" />
	<path style="fill:none;stroke:red;stroke-width:1px;stroke-linecap:butt;stroke-linejoin:miter;stroke-opacity:1" d="M 661.132,166.033 643.129,171.434 z" id="boundary" inkscape:connector-curvature="0" />
	<path style="fill:none;stroke:red;stroke-width:1px;stroke-linecap:butt;stroke-linejoin:miter;stroke-opacity:1" d="M 751.151,90.4174 733.147,95.8185 z" id="boundary" inkscape:connector-curvature="0" />
	<path style="fill:none;stroke:red;stroke-width:1px;stroke-linecap:butt;stroke-linejoin:miter;stroke-opacity:1" d="M 711.543,4 729.546,4 z" id="boundary" inkscape:connector-curvature="0" />
	<path style="fill:none;stroke:red;stroke-width:1px;stroke-linecap:butt;stroke-linejoin:miter;stroke-opacity:1" d="M 697.14,166.033 679.136,166.033 z" id="boundary" inkscape:connector-curvature="0" />
	<path style="fill:none;stroke:red;stroke-width:1px;stroke-linecap:butt;stroke-linejoin:miter;stroke-opacity:1" d="M 697.14,104.82 715.143,99.4192 z" id="boundary" inkscape:connector-curvature="0" />
	<path style="fill:none;stroke:red;stroke-width:1px;stroke-linecap:butt;stroke-linejoin:miter;stroke-opacity:1" d="M 715.143,166.033 697.14,166.033 z" id="boundary" inkscape:connector-curvature="0" />
	<path style="fill:none;stroke:red;stroke-width:1px;stroke-linecap:butt;stroke-linejoin:miter;stroke-opacity:1" d="M 733.147,95.8185 715.143,99.4192 z" id="boundary" inkscape:connector-curvature="0" />
	<path style="fill:none;stroke:red;stroke-width:1px;stroke-linecap:butt;stroke-linejoin:miter;stroke-opacity:1" d="M 751.151,166.033 733.147,166.033 z" id="boundary" inkscape:connector-curvature="0" />
	<path style="fill:none;stroke:red;stroke-width:1px;stroke-linecap:butt;stroke-linejoin:miter;stroke-opacity:1" d="M 693.539,4 711.543,4 z" id="boundary" inkscape:connector-curvature="0" />
	<path style="fill:none;stroke:red;stroke-width:1px;stroke-linecap:butt;stroke-linejoin:miter;stroke-opacity:1" d="M 626.926,284.857 644.929,284.857 z" id="boundary" inkscape:connector-curvature="0" />
	<path style="fill:none;stroke:red;stroke-width:1px;stroke-linecap:butt;stroke-linejoin:miter;stroke-opacity:1" d="M 662.933,275.855 644.929,284.857 z" id="boundary" inkscape:connector-curvature="0" />
	<path style="fill:none;stroke:red;stroke-width:1px;stroke-linecap:butt;stroke-linejoin:miter;stroke-opacity:1" d="M 680.936,275.855 662.933,275.855 z" id="boundary" inkscape:connector-curvature="0" />
	<path style="fill:none;stroke:red;stroke-width:1px;stroke-linecap:butt;stroke-linejoin:miter;stroke-opacity:1" d="M 635.927,301.06 653.931,301.06 z" id="boundary" inkscape:connector-curvature="0" />
	<path style="fill:none;stroke:red;stroke-width:1px;stroke-linecap:butt;stroke-linejoin:miter;stroke-opacity:1" d="M 671.935,301.06 689.938,301.06 z" id="boundary" inkscape:connector-curvature="0" />
	<path style="fill:none;stroke:red;stroke-width:1px;stroke-linecap:butt;stroke-linejoin:miter;stroke-opacity:1" d="M 671.935,301.06 653.931,301.06 z" id="boundary" inkscape:connector-curvature="0" />
	<path style="fill:none;stroke:red;stroke-width:1px;stroke-linecap:butt;stroke-linejoin:miter;stroke-opacity:1" d="M 680.936,275.855 698.94,275.855 z" id="boundary" inkscape:connector-curvature="0" />
	<path style="fill:none;stroke:red;stroke-width:1px;stroke-linecap:butt;stroke-linejoin:miter;stroke-opacity:1" d="M 625.125,175.034 643.129,171.434 z" id="boundary" inkscape:connector-curvature="0" />
	<path style="fill:none;stroke:red;stroke-width:1px;stroke-linecap:butt;stroke-linejoin:miter;stroke-opacity:1" d="M 715.143,266.853 698.94,275.855 z" id="boundary" inkscape:connector-curvature="0" />
	<path style="fill:none;stroke:red;stroke-width:1px;stroke-linecap:butt;stroke-linejoin:miter;stroke-opacity:1" d="M 715.143,166.033 733.147,166.033 z" id="boundary" inkscape:connector-curvature="0" />
	<path style="fill:none;stroke:red;stroke-width:1px;stroke-linecap:butt;stroke-linejoin:miter;stroke-opacity:1" d="M 749.35,257.851 733.147,266.853 z" id="boundary" inkscape:connector-curvature="0" />
	<path style="fill:none;stroke:red;stroke-width:1px;stroke-linecap:butt;stroke-linejoin:miter;stroke-opacity:1" d="M 733.147,266.853 715.143,266.853 z" id="boundary" inkscape:connector-curvature="0" />
	<path style="fill:none;stroke:red;stroke-width:1px;stroke-linecap:butt;stroke-linejoin:miter;stroke-opacity:1" d="M 707.942,301.06 689.938,301.06 z" id="boundary" inkscape:connector-curvature="0" />
	<path style="fill:none;stroke:red;stroke-width:1px;stroke-linecap:butt;stroke-linejoin:miter;stroke-opacity:1" d="M 743.949,301.06 725.946,301.06 z" id="boundary" inkscape:connector-curvature="0" />
	<path style="fill:none;stroke:red;stroke-width:1px;stroke-linecap:butt;stroke-linejoin:miter;stroke-opacity:1" d="M 725.946,301.06 707.942,301.06 z" id="boundary" inkscape:connector-curvature="0" />
	<path style="fill:none;stroke:red;stroke-width:1px;stroke-linecap:butt;stroke-linejoin:miter;stroke-opacity:1" d="M 761.953,301.06 743.949,301.06 z" id="boundary" inkscape:connector-curvature="0" />
	<path style="fill:none;stroke:red;stroke-width:1px;stroke-linecap:butt;stroke-linejoin:miter;stroke-opacity:1" d="M 729.546,4 747.55,4 z" id="boundary" inkscape:connector-curvature="0" />
	<path style="fill:none;stroke:red;stroke-width:1px;stroke-linecap:butt;stroke-linejoin:miter;stroke-opacity:1" d="M 765.554,4 781.757,13.0018 z" id="boundary" inkscape:connector-curvature="0" />
	<path style="fill:none;stroke:red;stroke-width:1px;stroke-linecap:butt;stroke-linejoin:miter;stroke-opacity:1" d="M 781.757,13.0018 788.958,31.0054 z" id="boundary" inkscape:connector-curvature="0" />
	<path style="fill:none;stroke:red;stroke-width:1px;stroke-linecap:butt;stroke-linejoin:miter;stroke-opacity:1" d="M 769.154,81.4156 783.557,67.0127 z" id="boundary" inkscape:connector-curvature="0" />
	<path style="fill:none;stroke:red;stroke-width:1px;stroke-linecap:butt;stroke-linejoin:miter;stroke-opacity:1" d="M 788.958,49.0091 783.557,67.0127 z" id="boundary" inkscape:connector-curvature="0" />
	<path style="fill:none;stroke:red;stroke-width:1px;stroke-linecap:butt;stroke-linejoin:miter;stroke-opacity:1" d="M 767.354,157.031 751.151,166.033 z" id="boundary" inkscape:connector-curvature="0" />
	<path style="fill:none;stroke:red;stroke-width:1px;stroke-linecap:butt;stroke-linejoin:miter;stroke-opacity:1" d="M 785.358,157.031 767.354,157.031 z" id="boundary" inkscape:connector-curvature="0" />
	<path style="fill:none;stroke:red;stroke-width:1px;stroke-linecap:butt;stroke-linejoin:miter;stroke-opacity:1" d="M 801.561,148.029 785.358,157.031 z" id="boundary" inkscape:connector-curvature="0" />
	<path style="fill:none;stroke:red;stroke-width:1px;stroke-linecap:butt;stroke-linejoin:miter;stroke-opacity:1" d="M 751.151,90.4174 769.154,81.4156 z" id="boundary" inkscape:connector-curvature="0" />
	<path style="fill:none;stroke:red;stroke-width:1px;stroke-linecap:butt;stroke-linejoin:miter;stroke-opacity:1" d="M 788.958,31.0054 788.958,49.0091 z" id="boundary" inkscape:connector-curvature="0" />
	<path style="fill:none;stroke:red;stroke-width:1px;stroke-linecap:butt;stroke-linejoin:miter;stroke-opacity:1" d="M 747.55,4 765.554,4 z" id="boundary" inkscape:connector-curvature="0" />
	<path style="fill:none;stroke:red;stroke-width:1px;stroke-linecap:butt;stroke-linejoin:miter;stroke-opacity:1" d="M 819.564,148.029 801.561,148.029 z" id="boundary" inkscape:connector-curvature="0" />
	<path style="fill:none;stroke:red;stroke-width:1px;stroke-linecap:butt;stroke-linejoin:miter;stroke-opacity:1" d="M 819.564,148.029 837.568,148.029 z" id="boundary" inkscape:connector-curvature="0" />
	<path style="fill:none;stroke:red;stroke-width:1px;stroke-linecap:butt;stroke-linejoin:miter;stroke-opacity:1" d="M 855.572,148.029 837.568,148.029 z" id="boundary" inkscape:connector-curvature="0" />
	<path style="fill:none;stroke:red;stroke-width:1px;stroke-linecap:butt;stroke-linejoin:miter;stroke-opacity:1" d="M 855.572,148.029 873.575,148.029 z" id="boundary" inkscape:connector-curvature="0" />
	<path style="fill:none;stroke:red;stroke-width:1px;stroke-linecap:butt;stroke-linejoin:miter;stroke-opacity:1" d="M 891.579,148.029 909.583,148.029 z" id="boundary" inkscape:connector-curvature="0" />
	<path style="fill:none;stroke:red;stroke-width:1px;stroke-linecap:butt;stroke-linejoin:miter;stroke-opacity:1" d="M 909.583,148.029 925.786,157.031 z" id="boundary" inkscape:connector-curvature="0" />
	<path style="fill:none;stroke:red;stroke-width:1px;stroke-linecap:butt;stroke-linejoin:miter;stroke-opacity:1" d="M 873.575,148.029 891.579,148.029 z" id="boundary" inkscape:connector-curvature="0" />
	<path style="fill:none;stroke:red;stroke-width:1px;stroke-linecap:butt;stroke-linejoin:miter;stroke-opacity:1" d="M 940.189,169.633 925.786,157.031 z" id="boundary" inkscape:connector-curvature="0" />
	<path style="fill:none;stroke:red;stroke-width:1px;stroke-linecap:butt;stroke-linejoin:miter;stroke-opacity:1" d="M 749.35,257.851 767.354,257.851 z" id="boundary" inkscape:connector-curvature="0" />
	<path style="fill:none;stroke:red;stroke-width:1px;stroke-linecap:butt;stroke-linejoin:miter;stroke-opacity:1" d="M 785.358,257.851 767.354,257.851 z" id="boundary" inkscape:connector-curvature="0" />
	<path style="fill:none;stroke:red;stroke-width:1px;stroke-linecap:butt;stroke-linejoin:miter;stroke-opacity:1" d="M 819.564,248.849 803.361,257.851 z" id="boundary" inkscape:connector-curvature="0" />
	<path style="fill:none;stroke:red;stroke-width:1px;stroke-linecap:butt;stroke-linejoin:miter;stroke-opacity:1" d="M 803.361,257.851 785.358,257.851 z" id="boundary" inkscape:connector-curvature="0" />
	<path style="fill:none;stroke:red;stroke-width:1px;stroke-linecap:butt;stroke-linejoin:miter;stroke-opacity:1" d="M 761.953,301.06 779.956,301.06 z" id="boundary" inkscape:connector-curvature="0" />
	<path style="fill:none;stroke:red;stroke-width:1px;stroke-linecap:butt;stroke-linejoin:miter;stroke-opacity:1" d="M 815.964,301.06 797.96,301.06 z" id="boundary" inkscape:connector-curvature="0" />
	<path style="fill:none;stroke:red;stroke-width:1px;stroke-linecap:butt;stroke-linejoin:miter;stroke-opacity:1" d="M 797.96,301.06 779.956,301.06 z" id="boundary" inkscape:connector-curvature="0" />
	<path style="fill:none;stroke:red;stroke-width:1px;stroke-linecap:butt;stroke-linejoin:miter;stroke-opacity:1" d="M 923.985,230.846 938.388,218.243 z" id="boundary" inkscape:connector-curvature="0" />
	<path style="fill:none;stroke:red;stroke-width:1px;stroke-linecap:butt;stroke-linejoin:miter;stroke-opacity:1" d="M 941.989,187.637 938.388,218.243 z" id="boundary" inkscape:connector-curvature="0" />
	<path style="fill:none;stroke:red;stroke-width:1px;stroke-linecap:butt;stroke-linejoin:miter;stroke-opacity:1" d="M 941.989,187.637 940.189,169.633 z" id="boundary" inkscape:connector-curvature="0" />
	<path style="fill:none;stroke:red;stroke-width:1px;stroke-linecap:butt;stroke-linejoin:miter;stroke-opacity:1" d="M 923.985,230.846 907.782,239.848 z" id="boundary" inkscape:connector-curvature="0" />
	<path style="fill:none;stroke:red;stroke-width:1px;stroke-linecap:butt;stroke-linejoin:miter;stroke-opacity:1" d="M 819.564,248.849 837.568,248.849 z" id="boundary" inkscape:connector-curvature="0" />
	<path style="fill:none;stroke:red;stroke-width:1px;stroke-linecap:butt;stroke-linejoin:miter;stroke-opacity:1" d="M 855.572,248.849 837.568,248.849 z" id="boundary" inkscape:connector-curvature="0" />
	<path style="fill:none;stroke:red;stroke-width:1px;stroke-linecap:butt;stroke-linejoin:miter;stroke-opacity:1" d="M 907.782,239.848 891.579,248.849 z" id="boundary" inkscape:connector-curvature="0" />
	<path style="fill:none;stroke:red;stroke-width:1px;stroke-linecap:butt;stroke-linejoin:miter;stroke-opacity:1" d="M 891.579,248.849 873.575,248.849 z" id="boundary" inkscape:connector-curvature="0" />
	<path style="fill:none;stroke:red;stroke-width:1px;stroke-linecap:butt;stroke-linejoin:miter;stroke-opacity:1" d="M 873.575,248.849 855.572,248.849 z" id="boundary" inkscape:connector-curvature="0" />
	<path style="fill:none;stroke:red;stroke-width:1px;stroke-linecap:butt;stroke-linejoin:miter;stroke-opacity:1" d="M 644.929,410.882 662.933,410.882 z" id="boundary" inkscape:connector-curvature="0" />
	<path style="fill:none;stroke:red;stroke-width:1px;stroke-linecap:butt;stroke-linejoin:miter;stroke-opacity:1" d="M 680.936,410.882 698.94,410.882 z" id="boundary" inkscape:connector-curvature="0" />
	<path style="fill:none;stroke:red;stroke-width:1px;stroke-linecap:butt;stroke-linejoin:miter;stroke-opacity:1" d="M 680.936,410.882 662.933,410.882 z" id="boundary" inkscape:connector-curvature="0" />
	<path style="fill:none;stroke:red;stroke-width:1px;stroke-linecap:butt;stroke-linejoin:miter;stroke-opacity:1" d="M 664.733,445.089 648.53,436.087 z" id="boundary" inkscape:connector-curvature="0" />
	<path style="fill:none;stroke:red;stroke-width:1px;stroke-linecap:butt;stroke-linejoin:miter;stroke-opacity:1" d="M 682.737,445.089 698.94,454.091 z" id="boundary" inkscape:connector-curvature="0" />
	<path style="fill:none;stroke:red;stroke-width:1px;stroke-linecap:butt;stroke-linejoin:miter;stroke-opacity:1" d="M 664.733,445.089 682.737,445.089 z" id="boundary" inkscape:connector-curvature="0" />
	<path style="fill:none;stroke:red;stroke-width:1px;stroke-linecap:butt;stroke-linejoin:miter;stroke-opacity:1" d="M 698.94,410.882 716.944,410.882 z" id="boundary" inkscape:connector-curvature="0" />
	<path style="fill:none;stroke:red;stroke-width:1px;stroke-linecap:butt;stroke-linejoin:miter;stroke-opacity:1" d="M 630.526,436.087 648.53,436.087 z" id="boundary" inkscape:connector-curvature="0" />
	<path style="fill:none;stroke:red;stroke-width:1px;stroke-linecap:butt;stroke-linejoin:miter;stroke-opacity:1" d="M 734.947,410.882 716.944,410.882 z" id="boundary" inkscape:connector-curvature="0" />
	<path style="fill:none;stroke:red;stroke-width:1px;stroke-linecap:butt;stroke-linejoin:miter;stroke-opacity:1" d="M 823.165,410.882 806.962,401.88 z" id="boundary" inkscape:connector-curvature="0" />
	<path style="fill:none;stroke:red;stroke-width:1px;stroke-linecap:butt;stroke-linejoin:miter;stroke-opacity:1" d="M 841.169,410.882 823.165,410.882 z" id="boundary" inkscape:connector-curvature="0" />
	<path style="fill:none;stroke:red;stroke-width:1px;stroke-linecap:butt;stroke-linejoin:miter;stroke-opacity:1" d="M 806.962,401.88 788.958,401.88 z" id="boundary" inkscape:connector-curvature="0" />
	<path style="fill:none;stroke:red;stroke-width:1px;stroke-linecap:butt;stroke-linejoin:miter;stroke-opacity:1" d="M 734.947,459.492 716.944,454.091 z" id="boundary" inkscape:connector-curvature="0" />
	<path style="fill:none;stroke:red;stroke-width:1px;stroke-linecap:butt;stroke-linejoin:miter;stroke-opacity:1" d="M 734.947,410.882 752.951,410.882 z" id="boundary" inkscape:connector-curvature="0" />
	<path style="fill:none;stroke:red;stroke-width:1px;stroke-linecap:butt;stroke-linejoin:miter;stroke-opacity:1" d="M 770.955,410.882 752.951,410.882 z" id="boundary" inkscape:connector-curvature="0" />
	<path style="fill:none;stroke:red;stroke-width:1px;stroke-linecap:butt;stroke-linejoin:miter;stroke-opacity:1" d="M 788.958,401.88 770.955,410.882 z" id="boundary" inkscape:connector-curvature="0" />
	<path style="fill:none;stroke:red;stroke-width:1px;stroke-linecap:butt;stroke-linejoin:miter;stroke-opacity:1" d="M 815.964,301.06 833.967,301.06 z" id="boundary" inkscape:connector-curvature="0" />
	<path style="fill:none;stroke:red;stroke-width:1px;stroke-linecap:butt;stroke-linejoin:miter;stroke-opacity:1" d="M 716.944,454.091 698.94,454.091 z" id="boundary" inkscape:connector-curvature="0" />
	<path style="fill:none;stroke:red;stroke-width:1px;stroke-linecap:butt;stroke-linejoin:miter;stroke-opacity:1" d="M 648.53,545.909 666.534,553.111 z" id="boundary" inkscape:connector-curvature="0" />
	<path style="fill:none;stroke:red;stroke-width:1px;stroke-linecap:butt;stroke-linejoin:miter;stroke-opacity:1" d="M 684.537,554.911 666.534,553.111 z" id="boundary" inkscape:connector-curvature="0" />
	<path style="fill:none;stroke:red;stroke-width:1px;stroke-linecap:butt;stroke-linejoin:miter;stroke-opacity:1" d="M 752.951,463.093 734.947,459.492 z" id="boundary" inkscape:connector-curvature="0" />
	<path style="fill:none;stroke:red;stroke-width:1px;stroke-linecap:butt;stroke-linejoin:miter;stroke-opacity:1" d="M 702.541,554.911 720.544,554.911 z" id="boundary" inkscape:connector-curvature="0" />
	<path style="fill:none;stroke:red;stroke-width:1px;stroke-linecap:butt;stroke-linejoin:miter;stroke-opacity:1" d="M 702.541,554.911 684.537,554.911 z" id="boundary" inkscape:connector-curvature="0" />
	<path style="fill:none;stroke:red;stroke-width:1px;stroke-linecap:butt;stroke-linejoin:miter;stroke-opacity:1" d="M 720.544,554.911 738.548,554.911 z" id="boundary" inkscape:connector-curvature="0" />
	<path style="fill:none;stroke:red;stroke-width:1px;stroke-linecap:butt;stroke-linejoin:miter;stroke-opacity:1" d="M 756.552,554.911 738.548,554.911 z" id="boundary" inkscape:connector-curvature="0" />
	<path style="fill:none;stroke:red;stroke-width:1px;stroke-linecap:butt;stroke-linejoin:miter;stroke-opacity:1" d="M 770.955,463.093 788.958,463.093 z" id="boundary" inkscape:connector-curvature="0" />
	<path style="fill:none;stroke:red;stroke-width:1px;stroke-linecap:butt;stroke-linejoin:miter;stroke-opacity:1" d="M 770.955,463.093 752.951,463.093 z" id="boundary" inkscape:connector-curvature="0" />
	<path style="fill:none;stroke:red;stroke-width:1px;stroke-linecap:butt;stroke-linejoin:miter;stroke-opacity:1" d="M 806.962,463.093 824.966,463.093 z" id="boundary" inkscape:connector-curvature="0" />
	<path style="fill:none;stroke:red;stroke-width:1px;stroke-linecap:butt;stroke-linejoin:miter;stroke-opacity:1" d="M 806.962,463.093 788.958,463.093 z" id="boundary" inkscape:connector-curvature="0" />
	<path style="fill:none;stroke:red;stroke-width:1px;stroke-linecap:butt;stroke-linejoin:miter;stroke-opacity:1" d="M 756.552,554.911 772.755,563.913 z" id="boundary" inkscape:connector-curvature="0" />
	<path style="fill:none;stroke:red;stroke-width:1px;stroke-linecap:butt;stroke-linejoin:miter;stroke-opacity:1" d="M 790.759,563.913 772.755,563.913 z" id="boundary" inkscape:connector-curvature="0" />
	<path style="fill:none;stroke:red;stroke-width:1px;stroke-linecap:butt;stroke-linejoin:miter;stroke-opacity:1" d="M 790.759,563.913 808.762,563.913 z" id="boundary" inkscape:connector-curvature="0" />
	<path style="fill:none;stroke:red;stroke-width:1px;stroke-linecap:butt;stroke-linejoin:miter;stroke-opacity:1" d="M 808.762,563.913 826.766,563.913 z" id="boundary" inkscape:connector-curvature="0" />
	<path style="fill:none;stroke:red;stroke-width:1px;stroke-linecap:butt;stroke-linejoin:miter;stroke-opacity:1" d="M 824.966,463.093 842.969,463.093 z" id="boundary" inkscape:connector-curvature="0" />
	<path style="fill:none;stroke:red;stroke-width:1px;stroke-linecap:butt;stroke-linejoin:miter;stroke-opacity:1" d="M 833.967,301.06 851.971,301.06 z" id="boundary" inkscape:connector-curvature="0" />
	<path style="fill:none;stroke:red;stroke-width:1px;stroke-linecap:butt;stroke-linejoin:miter;stroke-opacity:1" d="M 877.176,410.882 859.172,410.882 z" id="boundary" inkscape:connector-curvature="0" />
	<path style="fill:none;stroke:red;stroke-width:1px;stroke-linecap:butt;stroke-linejoin:miter;stroke-opacity:1" d="M 887.978,301.06 869.975,301.06 z" id="boundary" inkscape:connector-curvature="0" />
	<path style="fill:none;stroke:red;stroke-width:1px;stroke-linecap:butt;stroke-linejoin:miter;stroke-opacity:1" d="M 869.975,301.06 851.971,301.06 z" id="boundary" inkscape:connector-curvature="0" />
	<path style="fill:none;stroke:red;stroke-width:1px;stroke-linecap:butt;stroke-linejoin:miter;stroke-opacity:1" d="M 841.169,410.882 859.172,410.882 z" id="boundary" inkscape:connector-curvature="0" />
	<path style="fill:none;stroke:red;stroke-width:1px;stroke-linecap:butt;stroke-linejoin:miter;stroke-opacity:1" d="M 887.978,301.06 905.982,301.06 z" id="boundary" inkscape:connector-curvature="0" />
	<path style="fill:none;stroke:red;stroke-width:1px;stroke-linecap:butt;stroke-linejoin:miter;stroke-opacity:1" d="M 923.985,301.06 905.982,301.06 z" id="boundary" inkscape:connector-curvature="0" />
	<path style="fill:none;stroke:red;stroke-width:1px;stroke-linecap:butt;stroke-linejoin:miter;stroke-opacity:1" d="M 941.989,301.06 959.993,306.461 z" id="boundary" inkscape:connector-curvature="0" />
	<path style="fill:none;stroke:red;stroke-width:1px;stroke-linecap:butt;stroke-linejoin:miter;stroke-opacity:1" d="M 959.993,306.461 977.996,310.062 z" id="boundary" inkscape:connector-curvature="0" />
	<path style="fill:none;stroke:red;stroke-width:1px;stroke-linecap:butt;stroke-linejoin:miter;stroke-opacity:1" d="M 992.399,320.864 977.996,310.062 z" id="boundary" inkscape:connector-curvature="0" />
	<path style="fill:none;stroke:red;stroke-width:1px;stroke-linecap:butt;stroke-linejoin:miter;stroke-opacity:1" d="M 992.399,320.864 996,338.868 z" id="boundary" inkscape:connector-curvature="0" />
	<path style="fill:none;stroke:red;stroke-width:1px;stroke-linecap:butt;stroke-linejoin:miter;stroke-opacity:1" d="M 965.394,401.88 981.597,391.078 z" id="boundary" inkscape:connector-curvature="0" />
	<path style="fill:none;stroke:red;stroke-width:1px;stroke-linecap:butt;stroke-linejoin:miter;stroke-opacity:1" d="M 996,356.871 996,374.875 z" id="boundary" inkscape:connector-curvature="0" />
	<path style="fill:none;stroke:red;stroke-width:1px;stroke-linecap:butt;stroke-linejoin:miter;stroke-opacity:1" d="M 996,374.875 981.597,391.078 z" id="boundary" inkscape:connector-curvature="0" />
	<path style="fill:none;stroke:red;stroke-width:1px;stroke-linecap:butt;stroke-linejoin:miter;stroke-opacity:1" d="M 996,338.868 996,356.871 z" id="boundary" inkscape:connector-curvature="0" />
	<path style="fill:none;stroke:red;stroke-width:1px;stroke-linecap:butt;stroke-linejoin:miter;stroke-opacity:1" d="M 923.985,301.06 941.989,301.06 z" id="boundary" inkscape:connector-curvature="0" />
	<path style="fill:none;stroke:red;stroke-width:1px;stroke-linecap:butt;stroke-linejoin:miter;stroke-opacity:1" d="M 842.969,463.093 860.973,463.093 z" id="boundary" inkscape:connector-curvature="0" />
	<path style="fill:none;stroke:red;stroke-width:1px;stroke-linecap:butt;stroke-linejoin:miter;stroke-opacity:1" d="M 878.976,463.093 860.973,463.093 z" id="boundary" inkscape:connector-curvature="0" />
	<path style="fill:none;stroke:red;stroke-width:1px;stroke-linecap:butt;stroke-linejoin:miter;stroke-opacity:1" d="M 895.18,410.882 877.176,410.882 z" id="boundary" inkscape:connector-curvature="0" />
	<path style="fill:none;stroke:red;stroke-width:1px;stroke-linecap:butt;stroke-linejoin:miter;stroke-opacity:1" d="M 844.77,563.913 862.773,563.913 z" id="boundary" inkscape:connector-curvature="0" />
	<path style="fill:none;stroke:red;stroke-width:1px;stroke-linecap:butt;stroke-linejoin:miter;stroke-opacity:1" d="M 896.98,554.911 880.777,563.913 z" id="boundary" inkscape:connector-curvature="0" />
	<path style="fill:none;stroke:red;stroke-width:1px;stroke-linecap:butt;stroke-linejoin:miter;stroke-opacity:1" d="M 880.777,563.913 862.773,563.913 z" id="boundary" inkscape:connector-curvature="0" />
	<path style="fill:none;stroke:red;stroke-width:1px;stroke-linecap:butt;stroke-linejoin:miter;stroke-opacity:1" d="M 895.18,472.094 878.976,463.093 z" id="boundary" inkscape:connector-curvature="0" />
	<path style="fill:none;stroke:red;stroke-width:1px;stroke-linecap:butt;stroke-linejoin:miter;stroke-opacity:1" d="M 895.18,410.882 913.183,410.882 z" id="boundary" inkscape:connector-curvature="0" />
	<path style="fill:none;stroke:red;stroke-width:1px;stroke-linecap:butt;stroke-linejoin:miter;stroke-opacity:1" d="M 844.77,563.913 826.766,563.913 z" id="boundary" inkscape:connector-curvature="0" />
	<path style="fill:none;stroke:red;stroke-width:1px;stroke-linecap:butt;stroke-linejoin:miter;stroke-opacity:1" d="M 895.18,472.094 913.183,475.695 z" id="boundary" inkscape:connector-curvature="0" />
	<path style="fill:none;stroke:red;stroke-width:1px;stroke-linecap:butt;stroke-linejoin:miter;stroke-opacity:1" d="M 913.183,475.695 923.985,490.098 z" id="boundary" inkscape:connector-curvature="0" />
	<path style="fill:none;stroke:red;stroke-width:1px;stroke-linecap:butt;stroke-linejoin:miter;stroke-opacity:1" d="M 913.183,410.882 931.187,410.882 z" id="boundary" inkscape:connector-curvature="0" />
	<path style="fill:none;stroke:red;stroke-width:1px;stroke-linecap:butt;stroke-linejoin:miter;stroke-opacity:1" d="M 931.187,410.882 949.191,410.882 z" id="boundary" inkscape:connector-curvature="0" />
	<path style="fill:none;stroke:red;stroke-width:1px;stroke-linecap:butt;stroke-linejoin:miter;stroke-opacity:1" d="M 965.394,401.88 949.191,410.882 z" id="boundary" inkscape:connector-curvature="0" />
	<path style="fill:none;stroke:red;stroke-width:1px;stroke-linecap:butt;stroke-linejoin:miter;stroke-opacity:1" d="M 896.98,554.911 914.984,545.909 z" id="boundary" inkscape:connector-curvature="0" />
	<path style="fill:none;stroke:red;stroke-width:1px;stroke-linecap:butt;stroke-linejoin:miter;stroke-opacity:1" d="M 932.987,506.301 929.387,533.307 z" id="boundary" inkscape:connector-curvature="0" />
	<path style="fill:none;stroke:red;stroke-width:1px;stroke-linecap:butt;stroke-linejoin:miter;stroke-opacity:1" d="M 929.387,533.307 914.984,545.909 z" id="boundary" inkscape:connector-curvature="0" />
	<path style="fill:none;stroke:red;stroke-width:1px;stroke-linecap:butt;stroke-linejoin:miter;stroke-opacity:1" d="M 932.987,506.301 923.985,490.098 z" id="boundary" inkscape:connector-curvature="0" />
	<circle cx="4" cy="117.423" r="4" fill="#0" id="circle0"/>
	<circle cx="4" cy="135.426" r="4" fill="#0" id="circle1"/>
	<circle cx="4" cy="153.43" r="4" fill="#0" id="circle2"/>
	<circle cx="4" cy="171.434" r="4" fill="#0" id="circle3"/>
	<circle cx="4" cy="189.437" r="4" fill="#0" id="circle4"/>
	<circle cx="4" cy="207.441" r="4" fill="#0" id="circle5"/>
	<circle cx="4" cy="225.445" r="4" fill="#0" id="circle6"/>
	<circle cx="4" cy="243.448" r="4" fill="#0" id="circle7"/>
	<circle cx="4" cy="261.452" r="4" fill="#0" id="circle8"/>
	<circle cx="4" cy="279.456" r="4" fill="#0" id="circle9"/>
	<circle cx="4" cy="297.459" r="4" fill="#0" id="circle10"/>
	<circle cx="4" cy="315.463" r="4" fill="#0" id="circle11"/>
	<circle cx="4" cy="333.466" r="4" fill="#0" id="circle12"/>
	<circle cx="4" cy="351.47" r="4" fill="#0" id="circle13"/>
	<circle cx="4" cy="369.474" r="4" fill="#0" id="circle14"/>
	<circle cx="4" cy="387.477" r="4" fill="#0" id="circle15"/>
	<circle cx="4" cy="405.481" r="4" fill="#0" id="circle16"/>
	<circle cx="4" cy="423.485" r="4" fill="#0" id="circle17"/>
	<circle cx="14.8022" cy="437.887" r="4" fill="#0" id="circle18"/>
	<circle cx="22.0036" cy="112.022" r="4" fill="#0" id="circle19"/>
	<circle cx="32.8058" cy="441.488" r="4" fill="#0" id="circle20"/>
	<circle cx="38.2069" cy="121.024" r="4" fill="#0" id="circle21"/>
	<circle cx="49.0091" cy="450.49" r="4" fill="#0" id="circle22"/>
	<circle cx="56.2105" cy="122.824" r="4" fill="#0" id="circle23"/>
	<circle cx="63.412" cy="463.093" r="4" fill="#0" id="circle24"/>
	<circle cx="74.2142" cy="130.025" r="4" fill="#0" id="circle25"/>
	<circle cx="76.0145" cy="477.495" r="4" fill="#0" id="circle26"/>
	<circle cx="85.0163" cy="493.699" r="4" fill="#0" id="circle27"/>
	<circle cx="85.0163" cy="511.702" r="4" fill="#0" id="circle28"/>
	<circle cx="92.2178" cy="131.826" r="4" fill="#0" id="circle29"/>
	<circle cx="97.6189" cy="526.105" r="4" fill="#0" id="circle30"/>
	<circle cx="110.221" cy="139.027" r="4" fill="#0" id="circle31"/>
	<circle cx="112.022" cy="536.907" r="4" fill="#0" id="circle32"/>
	<circle cx="122.824" cy="551.31" r="4" fill="#0" id="circle33"/>
	<circle cx="128.225" cy="139.027" r="4" fill="#0" id="circle34"/>
	<circle cx="137.227" cy="563.913" r="4" fill="#0" id="circle35"/>
	<circle cx="146.229" cy="139.027" r="4" fill="#0" id="circle36"/>
	<circle cx="149.829" cy="578.316" r="4" fill="#0" id="circle37"/>
	<circle cx="162.432" cy="130.025" r="4" fill="#0" id="circle38"/>
	<circle cx="164.232" cy="590.918" r="4" fill="#0" id="circle39"/>
	<circle cx="176.835" cy="605.321" r="4" fill="#0" id="circle40"/>
	<circle cx="180.436" cy="130.025" r="4" fill="#0" id="circle41"/>
	<circle cx="191.238" cy="617.924" r="4" fill="#0" id="circle42"/>
	<circle cx="196.639" cy="121.024" r="4" fill="#0" id="circle43"/>
	<circle cx="207.441" cy="626.926" r="4" fill="#0" id="circle44"/>
	<circle cx="214.642" cy="113.822" r="4" fill="#0" id="circle45"/>
	<circle cx="225.445" cy="634.127" r="4" fill="#0" id="circle46"/>
	<circle cx="232.646" cy="112.022" r="4" fill="#0" id="circle47"/>
	<circle cx="238.047" cy="648.53" r="4" fill="#0" id="circle48"/>
	<circle cx="250.65" cy="104.82" r="4" fill="#0" id="circle49"/>
	<circle cx="256.051" cy="653.931" r="4" fill="#0" id="circle50"/>
	<circle cx="266.853" cy="668.334" r="4" fill="#0" id="circle51"/>
	<circle cx="268.653" cy="103.02" r="4" fill="#0" id="circle52"/>
	<circle cx="284.857" cy="671.935" r="4" fill="#0" id="circle53"/>
	<circle cx="286.657" cy="103.02" r="4" fill="#0" id="circle54"/>
	<circle cx="301.06" cy="680.936" r="4" fill="#0" id="circle55"/>
	<circle cx="302.86" cy="94.0181" r="4" fill="#0" id="circle56"/>
	<circle cx="317.263" cy="689.938" r="4" fill="#0" id="circle57"/>
	<circle cx="320.864" cy="94.0181" r="4" fill="#0" id="circle58"/>
	<circle cx="329.866" cy="704.341" r="4" fill="#0" id="circle59"/>
	<circle cx="338.868" cy="94.0181" r="4" fill="#0" id="circle60"/>
	<circle cx="347.869" cy="711.543" r="4" fill="#0" id="circle61"/>
	<circle cx="356.871" cy="94.0181" r="4" fill="#0" id="circle62"/>
	<circle cx="360.472" cy="725.946" r="4" fill="#0" id="circle63"/>
	<circle cx="374.875" cy="94.0181" r="4" fill="#0" id="circle64"/>
	<circle cx="376.675" cy="734.947" r="4" fill="#0" id="circle65"/>
	<circle cx="383.877" cy="563.913" r="4" fill="#0" id="circle66"/>
	<circle cx="383.877" cy="581.917" r="4" fill="#0" id="circle67"/>
	<circle cx="391.078" cy="745.75" r="4" fill="#0" id="circle68"/>
	<circle cx="392.878" cy="94.0181" r="4" fill="#0" id="circle69"/>
	<circle cx="392.878" cy="598.12" r="4" fill="#0" id="circle70"/>
	<circle cx="401.88" cy="554.911" r="4" fill="#0" id="circle71"/>
	<circle cx="407.281" cy="608.922" r="4" fill="#0" id="circle72"/>
	<circle cx="409.082" cy="752.951" r="4" fill="#0" id="circle73"/>
	<circle cx="410.882" cy="94.0181" r="4" fill="#0" id="circle74"/>
	<circle cx="419.884" cy="536.907" r="4" fill="#0" id="circle75"/>
	<circle cx="419.884" cy="623.325" r="4" fill="#0" id="circle76"/>
	<circle cx="419.884" cy="767.354" r="4" fill="#0" id="circle77"/>
	<circle cx="428.886" cy="94.0181" r="4" fill="#0" id="circle78"/>
	<circle cx="428.886" cy="783.557" r="4" fill="#0" id="circle79"/>
	<circle cx="437.887" cy="536.907" r="4" fill="#0" id="circle80"/>
	<circle cx="437.887" cy="630.526" r="4" fill="#0" id="circle81"/>
	<circle cx="445.089" cy="792.559" r="4" fill="#0" id="circle82"/>
	<circle cx="446.889" cy="94.0181" r="4" fill="#0" id="circle83"/>
	<circle cx="450.49" cy="644.929" r="4" fill="#0" id="circle84"/>
	<circle cx="454.091" cy="527.906" r="4" fill="#0" id="circle85"/>
	<circle cx="459.492" cy="805.162" r="4" fill="#0" id="circle86"/>
	<circle cx="464.893" cy="88.6171" r="4" fill="#0" id="circle87"/>
	<circle cx="464.893" cy="657.532" r="4" fill="#0" id="circle88"/>
	<circle cx="466.693" cy="823.165" r="4" fill="#0" id="circle89"/>
	<circle cx="472.094" cy="527.906" r="4" fill="#0" id="circle90"/>
	<circle cx="477.495" cy="671.935" r="4" fill="#0" id="circle91"/>
	<circle cx="481.096" cy="833.967" r="4" fill="#0" id="circle92"/>
	<circle cx="482.897" cy="85.0163" r="4" fill="#0" id="circle93"/>
	<circle cx="490.098" cy="527.906" r="4" fill="#0" id="circle94"/>
	<circle cx="491.898" cy="684.537" r="4" fill="#0" id="circle95"/>
	<circle cx="499.1" cy="833.967" r="4" fill="#0" id="circle96"/>
	<circle cx="500.9" cy="79.6152" r="4" fill="#0" id="circle97"/>
	<circle cx="504.501" cy="698.94" r="4" fill="#0" id="circle98"/>
	<circle cx="506.301" cy="536.907" r="4" fill="#0" id="circle99"/>
	<circle cx="513.503" cy="715.143" r="4" fill="#0" id="circle100"/>
	<circle cx="517.103" cy="828.566" r="4" fill="#0" id="circle101"/>
	<circle cx="518.904" cy="70.6134" r="4" fill="#0" id="circle102"/>
	<circle cx="518.904" cy="733.147" r="4" fill="#0" id="circle103"/>
	<circle cx="524.305" cy="536.907" r="4" fill="#0" id="circle104"/>
	<circle cx="527.906" cy="749.35" r="4" fill="#0" id="circle105"/>
	<circle cx="527.906" cy="806.962" r="4" fill="#0" id="circle106"/>
	<circle cx="536.907" cy="61.6116" r="4" fill="#0" id="circle107"/>
	<circle cx="536.907" cy="765.554" r="4" fill="#0" id="circle108"/>
	<circle cx="536.907" cy="783.557" r="4" fill="#0" id="circle109"/>
	<circle cx="542.309" cy="536.907" r="4" fill="#0" id="circle110"/>
	<circle cx="545.909" cy="167.833" r="4" fill="#0" id="circle111"/>
	<circle cx="554.911" cy="52.6098" r="4" fill="#0" id="circle112"/>
	<circle cx="554.911" cy="184.036" r="4" fill="#0" id="circle113"/>
	<circle cx="560.312" cy="155.23" r="4" fill="#0" id="circle114"/>
	<circle cx="560.312" cy="536.907" r="4" fill="#0" id="circle115"/>
	<circle cx="572.915" cy="43.608" r="4" fill="#0" id="circle116"/>
	<circle cx="572.915" cy="184.036" r="4" fill="#0" id="circle117"/>
	<circle cx="578.316" cy="146.229" r="4" fill="#0" id="circle118"/>
	<circle cx="578.316" cy="536.907" r="4" fill="#0" id="circle119"/>
	<circle cx="590.918" cy="40.0073" r="4" fill="#0" id="circle120"/>
	<circle cx="590.918" cy="184.036" r="4" fill="#0" id="circle121"/>
	<circle cx="596.319" cy="137.227" r="4" fill="#0" id="circle122"/>
	<circle cx="596.319" cy="536.907" r="4" fill="#0" id="circle123"/>
	<circle cx="607.122" cy="175.034" r="4" fill="#0" id="circle124"/>
	<circle cx="608.922" cy="34.6062" r="4" fill="#0" id="circle125"/>
	<circle cx="608.922" cy="410.882" r="4" fill="#0" id="circle126"/>
	<circle cx="612.523" cy="428.886" r="4" fill="#0" id="circle127"/>
	<circle cx="614.323" cy="131.826" r="4" fill="#0" id="circle128"/>
	<circle cx="614.323" cy="536.907" r="4" fill="#0" id="circle129"/>
	<circle cx="625.125" cy="175.034" r="4" fill="#0" id="circle130"/>
	<circle cx="626.926" cy="31.0054" r="4" fill="#0" id="circle131"/>
	<circle cx="626.926" cy="284.857" r="4" fill="#0" id="circle132"/>
	<circle cx="626.926" cy="410.882" r="4" fill="#0" id="circle133"/>
	<circle cx="630.526" cy="436.087" r="4" fill="#0" id="circle134"/>
	<circle cx="630.526" cy="545.909" r="4" fill="#0" id="circle135"/>
	<circle cx="632.327" cy="128.225" r="4" fill="#0" id="circle136"/>
	<circle cx="635.927" cy="301.06" r="4" fill="#0" id="circle137"/>
	<circle cx="643.129" cy="22.0036" r="4" fill="#0" id="circle138"/>
	<circle cx="643.129" cy="171.434" r="4" fill="#0" id="circle139"/>
	<circle cx="644.929" cy="113.822" r="4" fill="#0" id="circle140"/>
	<circle cx="644.929" cy="284.857" r="4" fill="#0" id="circle141"/>
	<circle cx="644.929" cy="410.882" r="4" fill="#0" id="circle142"/>
	<circle cx="648.53" cy="436.087" r="4" fill="#0" id="circle143"/>
	<circle cx="648.53" cy="545.909" r="4" fill="#0" id="circle144"/>
	<circle cx="653.931" cy="301.06" r="4" fill="#0" id="circle145"/>
	<circle cx="659.332" cy="13.0018" r="4" fill="#0" id="circle146"/>
	<circle cx="661.132" cy="166.033" r="4" fill="#0" id="circle147"/>
	<circle cx="662.933" cy="113.822" r="4" fill="#0" id="circle148"/>
	<circle cx="662.933" cy="275.855" r="4" fill="#0" id="circle149"/>
	<circle cx="662.933" cy="410.882" r="4" fill="#0" id="circle150"/>
	<circle cx="664.733" cy="445.089" r="4" fill="#0" id="circle151"/>
	<circle cx="666.534" cy="553.111" r="4" fill="#0" id="circle152"/>
	<circle cx="671.935" cy="301.06" r="4" fill="#0" id="circle153"/>
	<circle cx="677.336" cy="13.0018" r="4" fill="#0" id="circle154"/>
	<circle cx="679.136" cy="104.82" r="4" fill="#0" id="circle155"/>
	<circle cx="679.136" cy="166.033" r="4" fill="#0" id="circle156"/>
	<circle cx="680.936" cy="275.855" r="4" fill="#0" id="circle157"/>
	<circle cx="680.936" cy="410.882" r="4" fill="#0" id="circle158"/>
	<circle cx="682.737" cy="445.089" r="4" fill="#0" id="circle159"/>
	<circle cx="684.537" cy="554.911" r="4" fill="#0" id="circle160"/>
	<circle cx="689.938" cy="301.06" r="4" fill="#0" id="circle161"/>
	<circle cx="693.539" cy="4" r="4" fill="#0" id="circle162"/>
	<circle cx="697.14" cy="104.82" r="4" fill="#0" id="circle163"/>
	<circle cx="697.14" cy="166.033" r="4" fill="#0" id="circle164"/>
	<circle cx="698.94" cy="275.855" r="4" fill="#0" id="circle165"/>
	<circle cx="698.94" cy="410.882" r="4" fill="#0" id="circle166"/>
	<circle cx="698.94" cy="454.091" r="4" fill="#0" id="circle167"/>
	<circle cx="702.541" cy="554.911" r="4" fill="#0" id="circle168"/>
	<circle cx="707.942" cy="301.06" r="4" fill="#0" id="circle169"/>
	<circle cx="711.543" cy="4" r="4" fill="#0" id="circle170"/>
	<circle cx="715.143" cy="99.4192" r="4" fill="#0" id="circle171"/>
	<circle cx="715.143" cy="166.033" r="4" fill="#0" id="circle172"/>
	<circle cx="715.143" cy="266.853" r="4" fill="#0" id="circle173"/>
	<circle cx="716.944" cy="410.882" r="4" fill="#0" id="circle174"/>
	<circle cx="716.944" cy="454.091" r="4" fill="#0" id="circle175"/>
	<circle cx="720.544" cy="554.911" r="4" fill="#0" id="circle176"/>
	<circle cx="725.946" cy="301.06" r="4" fill="#0" id="circle177"/>
	<circle cx="729.546" cy="4" r="4" fill="#0" id="circle178"/>
	<circle cx="733.147" cy="95.8185" r="4" fill="#0" id="circle179"/>
	<circle cx="733.147" cy="166.033" r="4" fill="#0" id="circle180"/>
	<circle cx="733.147" cy="266.853" r="4" fill="#0" id="circle181"/>
	<circle cx="734.947" cy="410.882" r="4" fill="#0" id="circle182"/>
	<circle cx="734.947" cy="459.492" r="4" fill="#0" id="circle183"/>
	<circle cx="738.548" cy="554.911" r="4" fill="#0" id="circle184"/>
	<circle cx="743.949" cy="301.06" r="4" fill="#0" id="circle185"/>
	<circle cx="747.55" cy="4" r="4" fill="#0" id="circle186"/>
	<circle cx="749.35" cy="257.851" r="4" fill="#0" id="circle187"/>
	<circle cx="751.151" cy="90.4174" r="4" fill="#0" id="circle188"/>
	<circle cx="751.151" cy="166.033" r="4" fill="#0" id="circle189"/>
	<circle cx="752.951" cy="410.882" r="4" fill="#0" id="circle190"/>
	<circle cx="752.951" cy="463.093" r="4" fill="#0" id="circle191"/>
	<circle cx="756.552" cy="554.911" r="4" fill="#0" id="circle192"/>
	<circle cx="761.953" cy="301.06" r="4" fill="#0" id="circle193"/>
	<circle cx="765.554" cy="4" r="4" fill="#0" id="circle194"/>
	<circle cx="767.354" cy="157.031" r="4" fill="#0" id="circle195"/>
	<circle cx="767.354" cy="257.851" r="4" fill="#0" id="circle196"/>
	<circle cx="769.154" cy="81.4156" r="4" fill="#0" id="circle197"/>
	<circle cx="770.955" cy="410.882" r="4" fill="#0" id="circle198"/>
	<circle cx="770.955" cy="463.093" r="4" fill="#0" id="circle199"/>
	<circle cx="772.755" cy="563.913" r="4" fill="#0" id="circle200"/>
	<circle cx="779.956" cy="301.06" r="4" fill="#0" id="circle201"/>
	<circle cx="781.757" cy="13.0018" r="4" fill="#0" id="circle202"/>
	<circle cx="783.557" cy="67.0127" r="4" fill="#0" id="circle203"/>
	<circle cx="785.358" cy="157.031" r="4" fill="#0" id="circle204"/>
	<circle cx="785.358" cy="257.851" r="4" fill="#0" id="circle205"/>
	<circle cx="788.958" cy="31.0054" r="4" fill="#0" id="circle206"/>
	<circle cx="788.958" cy="49.0091" r="4" fill="#0" id="circle207"/>
	<circle cx="788.958" cy="401.88" r="4" fill="#0" id="circle208"/>
	<circle cx="788.958" cy="463.093" r="4" fill="#0" id="circle209"/>
	<circle cx="790.759" cy="563.913" r="4" fill="#0" id="circle210"/>
	<circle cx="797.96" cy="301.06" r="4" fill="#0" id="circle211"/>
	<circle cx="801.561" cy="148.029" r="4" fill="#0" id="circle212"/>
	<circle cx="803.361" cy="257.851" r="4" fill="#0" id="circle213"/>
	<circle cx="806.962" cy="401.88" r="4" fill="#0" id="circle214"/>
	<circle cx="806.962" cy="463.093" r="4" fill="#0" id="circle215"/>
	<circle cx="808.762" cy="563.913" r="4" fill="#0" id="circle216"/>
	<circle cx="815.964" cy="301.06" r="4" fill="#0" id="circle217"/>
	<circle cx="819.564" cy="148.029" r="4" fill="#0" id="circle218"/>
	<circle cx="819.564" cy="248.849" r="4" fill="#0" id="circle219"/>
	<circle cx="823.165" cy="410.882" r="4" fill="#0" id="circle220"/>
	<circle cx="824.966" cy="463.093" r="4" fill="#0" id="circle221"/>
	<circle cx="826.766" cy="563.913" r="4" fill="#0" id="circle222"/>
	<circle cx="833.967" cy="301.06" r="4" fill="#0" id="circle223"/>
	<circle cx="837.568" cy="148.029" r="4" fill="#0" id="circle224"/>
	<circle cx="837.568" cy="248.849" r="4" fill="#0" id="circle225"/>
	<circle cx="841.169" cy="410.882" r="4" fill="#0" id="circle226"/>
	<circle cx="842.969" cy="463.093" r="4" fill="#0" id="circle227"/>
	<circle cx="844.77" cy="563.913" r="4" fill="#0" id="circle228"/>
	<circle cx="851.971" cy="301.06" r="4" fill="#0" id="circle229"/>
	<circle cx="855.572" cy="148.029" r="4" fill="#0" id="circle230"/>
	<circle cx="855.572" cy="248.849" r="4" fill="#0" id="circle231"/>
	<circle cx="859.172" cy="410.882" r="4" fill="#0" id="circle232"/>
	<circle cx="860.973" cy="463.093" r="4" fill="#0" id="circle233"/>
	<circle cx="862.773" cy="563.913" r="4" fill="#0" id="circle234"/>
	<circle cx="869.975" cy="301.06" r="4" fill="#0" id="circle235"/>
	<circle cx="873.575" cy="148.029" r="4" fill="#0" id="circle236"/>
	<circle cx="873.575" cy="248.849" r="4" fill="#0" id="circle237"/>
	<circle cx="877.176" cy="410.882" r="4" fill="#0" id="circle238"/>
	<circle cx="878.976" cy="463.093" r="4" fill="#0" id="circle239"/>
	<circle cx="880.777" cy="563.913" r="4" fill="#0" id="circle240"/>
	<circle cx="887.978" cy="301.06" r="4" fill="#0" id="circle241"/>
	<circle cx="891.579" cy="148.029" r="4" fill="#0" id="circle242"/>
	<circle cx="891.579" cy="248.849" r="4" fill="#0" id="circle243"/>
	<circle cx="895.18" cy="410.882" r="4" fill="#0" id="circle244"/>
	<circle cx="895.18" cy="472.094" r="4" fill="#0" id="circle245"/>
	<circle cx="896.98" cy="554.911" r="4" fill="#0" id="circle246"/>
	<circle cx="905.982" cy="301.06" r="4" fill="#0" id="circle247"/>
	<circle cx="907.782" cy="239.848" r="4" fill="#0" id="circle248"/>
	<circle cx="909.583" cy="148.029" r="4" fill="#0" id="circle249"/>
	<circle cx="913.183" cy="410.882" r="4" fill="#0" id="circle250"/>
	<circle cx="913.183" cy="475.695" r="4" fill="#0" id="circle251"/>
	<circle cx="914.984" cy="545.909" r="4" fill="#0" id="circle252"/>
	<circle cx="923.985" cy="230.846" r="4" fill="#0" id="circle253"/>
	<circle cx="923.985" cy="301.06" r="4" fill="#0" id="circle254"/>
	<circle cx="923.985" cy="490.098" r="4" fill="#0" id="circle255"/>
	<circle cx="925.786" cy="157.031" r="4" fill="#0" id="circle256"/>
	<circle cx="929.387" cy="533.307" r="4" fill="#0" id="circle257"/>
	<circle cx="931.187" cy="410.882" r="4" fill="#0" id="circle258"/>
	<circle cx="932.987" cy="506.301" r="4" fill="#0" id="circle259"/>
	<circle cx="938.388" cy="218.243" r="4" fill="#0" id="circle260"/>
	<circle cx="940.189" cy="169.633" r="4" fill="#0" id="circle261"/>
	<circle cx="941.989" cy="187.637" r="4" fill="#0" id="circle262"/>
	<circle cx="941.989" cy="301.06" r="4" fill="#0" id="circle263"/>
	<circle cx="949.191" cy="410.882" r="4" fill="#0" id="circle264"/>
	<circle cx="959.993" cy="306.461" r="4" fill="#0" id="circle265"/>
	<circle cx="965.394" cy="401.88" r="4" fill="#0" id="circle266"/>
	<circle cx="977.996" cy="310.062" r="4" fill="#0" id="circle267"/>
	<circle cx="981.597" cy="391.078" r="4" fill="#0" id="circle268"/>
	<circle cx="992.399" cy="320.864" r="4" fill="#0" id="circle269"/>
	<circle cx="996" cy="338.868" r="4" fill="#0" id="circle270"/>
	<circle cx="996" cy="356.871" r="4" fill="#0" id="circle271"/>
	<circle cx="996" cy="374.875" r="4" fill="#0" id="circle272"/>
	</g>
</svg>