<?xml version="1.0" encoding="UTF-8" standalone="no"?>
<!-- Created with CurveBenchmark -->
<svg
	xmlns:dc="http://purl.org/dc/elements/1.1/"
	xmlns:cc="http://creativecommons.org/ns#"
	xmlns:rdf="http://www.w3.org/1999/02/22-rdf-syntax-ns#"
	xmlns:svg="http://www.w3.org/2000/svg"
	xmlns="http://www.w3.org/2000/svg"
	xmlns:sodipodi="http://sodipodi.sourceforge.net/DTD/sodipodi-0.dtd"
	xmlns:inkscape="http://www.inkscape.org/namespaces/inkscape"
	width="1000"
	height="1000"
	id="svg2"
	version="1.1"
	sodipodi:docname="manifold/gathan1-tool24.png.txt">
<defs
	id="defs4" />
<metadata
	id="metadata7">
	<rdf:RDF>
		<cc:Work
			rdf:about="">
			<dc:format>image/svg+xml</dc:format>
			<dc:type
				rdf:resource="http://purl.org/dc/dcmitype/StillImage" />
			<dc:title></dc:title>
		</cc:Work>
	</rdf:RDF>
</metadata>
<g
	inkscape:label="Layer 1"
	inkscape:groupmode="layer"
	id="layer1">
	<path style="fill:none;stroke:red;stroke-width:1px;stroke-linecap:butt;stroke-linejoin:miter;stroke-opacity:1" d="M 90.7133,14.4056 108.056,45.6224 z" id="boundary" inkscape:connector-curvature="0" />
	<path style="fill:none;stroke:red;stroke-width:1px;stroke-linecap:butt;stroke-linejoin:miter;stroke-opacity:1" d="M 38.6853,149.678 4,153.147 z" id="boundary" inkscape:connector-curvature="0" />
	<path style="fill:none;stroke:red;stroke-width:1px;stroke-linecap:butt;stroke-linejoin:miter;stroke-opacity:1" d="M 132.336,73.3706 108.056,45.6224 z" id="boundary" inkscape:connector-curvature="0" />
	<path style="fill:none;stroke:red;stroke-width:1px;stroke-linecap:butt;stroke-linejoin:miter;stroke-opacity:1" d="M 90.7133,14.4056 125.399,4 z" id="boundary" inkscape:connector-curvature="0" />
	<path style="fill:none;stroke:red;stroke-width:1px;stroke-linecap:butt;stroke-linejoin:miter;stroke-opacity:1" d="M 125.399,4 160.084,4 z" id="boundary" inkscape:connector-curvature="0" />
	<path style="fill:none;stroke:red;stroke-width:1px;stroke-linecap:butt;stroke-linejoin:miter;stroke-opacity:1" d="M 69.9021,167.021 38.6853,149.678 z" id="boundary" inkscape:connector-curvature="0" />
	<path style="fill:none;stroke:red;stroke-width:1px;stroke-linecap:butt;stroke-linejoin:miter;stroke-opacity:1" d="M 21.3427,219.049 4,187.832 z" id="boundary" inkscape:connector-curvature="0" />
	<path style="fill:none;stroke:red;stroke-width:1px;stroke-linecap:butt;stroke-linejoin:miter;stroke-opacity:1" d="M 4,187.832 4,153.147 z" id="boundary" inkscape:connector-curvature="0" />
	<path style="fill:none;stroke:red;stroke-width:1px;stroke-linecap:butt;stroke-linejoin:miter;stroke-opacity:1" d="M 104.587,177.427 69.9021,167.021 z" id="boundary" inkscape:connector-curvature="0" />
	<path style="fill:none;stroke:red;stroke-width:1px;stroke-linecap:butt;stroke-linejoin:miter;stroke-opacity:1" d="M 38.6853,250.266 21.3427,219.049 z" id="boundary" inkscape:connector-curvature="0" />
	<path style="fill:none;stroke:red;stroke-width:1px;stroke-linecap:butt;stroke-linejoin:miter;stroke-opacity:1" d="M 163.552,149.678 139.273,177.427 z" id="boundary" inkscape:connector-curvature="0" />
	<path style="fill:none;stroke:red;stroke-width:1px;stroke-linecap:butt;stroke-linejoin:miter;stroke-opacity:1" d="M 139.273,177.427 104.587,177.427 z" id="boundary" inkscape:connector-curvature="0" />
	<path style="fill:none;stroke:red;stroke-width:1px;stroke-linecap:butt;stroke-linejoin:miter;stroke-opacity:1" d="M 160.084,4 194.769,4 z" id="boundary" inkscape:connector-curvature="0" />
	<path style="fill:none;stroke:red;stroke-width:1px;stroke-linecap:butt;stroke-linejoin:miter;stroke-opacity:1" d="M 222.517,24.8112 250.266,49.0909 z" id="boundary" inkscape:connector-curvature="0" />
	<path style="fill:none;stroke:red;stroke-width:1px;stroke-linecap:butt;stroke-linejoin:miter;stroke-opacity:1" d="M 274.545,76.8392 250.266,49.0909 z" id="boundary" inkscape:connector-curvature="0" />
	<path style="fill:none;stroke:red;stroke-width:1px;stroke-linecap:butt;stroke-linejoin:miter;stroke-opacity:1" d="M 194.769,4 222.517,24.8112 z" id="boundary" inkscape:connector-curvature="0" />
	<path style="fill:none;stroke:red;stroke-width:1px;stroke-linecap:butt;stroke-linejoin:miter;stroke-opacity:1" d="M 132.336,73.3706 167.021,87.2448 z" id="boundary" inkscape:connector-curvature="0" />
	<path style="fill:none;stroke:red;stroke-width:1px;stroke-linecap:butt;stroke-linejoin:miter;stroke-opacity:1" d="M 274.545,76.8392 284.951,111.524 z" id="boundary" inkscape:connector-curvature="0" />
	<path style="fill:none;stroke:red;stroke-width:1px;stroke-linecap:butt;stroke-linejoin:miter;stroke-opacity:1" d="M 284.951,111.524 284.951,146.21 z" id="boundary" inkscape:connector-curvature="0" />
	<path style="fill:none;stroke:red;stroke-width:1px;stroke-linecap:butt;stroke-linejoin:miter;stroke-opacity:1" d="M 302.294,212.112 284.951,180.895 z" id="boundary" inkscape:connector-curvature="0" />
	<path style="fill:none;stroke:red;stroke-width:1px;stroke-linecap:butt;stroke-linejoin:miter;stroke-opacity:1" d="M 284.951,180.895 284.951,146.21 z" id="boundary" inkscape:connector-curvature="0" />
	<path style="fill:none;stroke:red;stroke-width:1px;stroke-linecap:butt;stroke-linejoin:miter;stroke-opacity:1" d="M 330.042,232.923 302.294,212.112 z" id="boundary" inkscape:connector-curvature="0" />
	<path style="fill:none;stroke:red;stroke-width:1px;stroke-linecap:butt;stroke-linejoin:miter;stroke-opacity:1" d="M 59.4965,278.014 38.6853,250.266 z" id="boundary" inkscape:connector-curvature="0" />
	<path style="fill:none;stroke:red;stroke-width:1px;stroke-linecap:butt;stroke-linejoin:miter;stroke-opacity:1" d="M 94.1818,284.951 59.4965,278.014 z" id="boundary" inkscape:connector-curvature="0" />
	<path style="fill:none;stroke:red;stroke-width:1px;stroke-linecap:butt;stroke-linejoin:miter;stroke-opacity:1" d="M 125.399,302.294 94.1818,284.951 z" id="boundary" inkscape:connector-curvature="0" />
	<path style="fill:none;stroke:red;stroke-width:1px;stroke-linecap:butt;stroke-linejoin:miter;stroke-opacity:1" d="M 194.769,302.294 160.084,302.294 z" id="boundary" inkscape:connector-curvature="0" />
	<path style="fill:none;stroke:red;stroke-width:1px;stroke-linecap:butt;stroke-linejoin:miter;stroke-opacity:1" d="M 194.769,302.294 225.986,319.636 z" id="boundary" inkscape:connector-curvature="0" />
	<path style="fill:none;stroke:red;stroke-width:1px;stroke-linecap:butt;stroke-linejoin:miter;stroke-opacity:1" d="M 160.084,302.294 125.399,302.294 z" id="boundary" inkscape:connector-curvature="0" />
	<path style="fill:none;stroke:red;stroke-width:1px;stroke-linecap:butt;stroke-linejoin:miter;stroke-opacity:1" d="M 225.986,319.636 250.266,347.385 z" id="boundary" inkscape:connector-curvature="0" />
	<path style="fill:none;stroke:red;stroke-width:1px;stroke-linecap:butt;stroke-linejoin:miter;stroke-opacity:1" d="M 250.266,347.385 284.951,361.259 z" id="boundary" inkscape:connector-curvature="0" />
	<path style="fill:none;stroke:red;stroke-width:1px;stroke-linecap:butt;stroke-linejoin:miter;stroke-opacity:1" d="M 284.951,361.259 309.231,389.007 z" id="boundary" inkscape:connector-curvature="0" />
	<path style="fill:none;stroke:red;stroke-width:1px;stroke-linecap:butt;stroke-linejoin:miter;stroke-opacity:1" d="M 330.042,232.923 354.322,260.671 z" id="boundary" inkscape:connector-curvature="0" />
	<path style="fill:none;stroke:red;stroke-width:1px;stroke-linecap:butt;stroke-linejoin:miter;stroke-opacity:1" d="M 382.07,284.951 406.35,312.699 z" id="boundary" inkscape:connector-curvature="0" />
	<path style="fill:none;stroke:red;stroke-width:1px;stroke-linecap:butt;stroke-linejoin:miter;stroke-opacity:1" d="M 406.35,312.699 434.098,336.979 z" id="boundary" inkscape:connector-curvature="0" />
	<path style="fill:none;stroke:red;stroke-width:1px;stroke-linecap:butt;stroke-linejoin:miter;stroke-opacity:1" d="M 486.126,389.007 458.378,364.727 z" id="boundary" inkscape:connector-curvature="0" />
	<path style="fill:none;stroke:red;stroke-width:1px;stroke-linecap:butt;stroke-linejoin:miter;stroke-opacity:1" d="M 458.378,364.727 434.098,336.979 z" id="boundary" inkscape:connector-curvature="0" />
	<path style="fill:none;stroke:red;stroke-width:1px;stroke-linecap:butt;stroke-linejoin:miter;stroke-opacity:1" d="M 336.979,413.287 309.231,389.007 z" id="boundary" inkscape:connector-curvature="0" />
	<path style="fill:none;stroke:red;stroke-width:1px;stroke-linecap:butt;stroke-linejoin:miter;stroke-opacity:1" d="M 361.259,441.035 336.979,413.287 z" id="boundary" inkscape:connector-curvature="0" />
	<path style="fill:none;stroke:red;stroke-width:1px;stroke-linecap:butt;stroke-linejoin:miter;stroke-opacity:1" d="M 389.007,465.315 361.259,441.035 z" id="boundary" inkscape:connector-curvature="0" />
	<path style="fill:none;stroke:red;stroke-width:1px;stroke-linecap:butt;stroke-linejoin:miter;stroke-opacity:1" d="M 389.007,465.315 413.287,493.063 z" id="boundary" inkscape:connector-curvature="0" />
	<path style="fill:none;stroke:red;stroke-width:1px;stroke-linecap:butt;stroke-linejoin:miter;stroke-opacity:1" d="M 413.287,493.063 441.035,517.343 z" id="boundary" inkscape:connector-curvature="0" />
	<path style="fill:none;stroke:red;stroke-width:1px;stroke-linecap:butt;stroke-linejoin:miter;stroke-opacity:1" d="M 441.035,517.343 465.315,545.091 z" id="boundary" inkscape:connector-curvature="0" />
	<path style="fill:none;stroke:red;stroke-width:1px;stroke-linecap:butt;stroke-linejoin:miter;stroke-opacity:1" d="M 354.322,260.671 382.07,284.951 z" id="boundary" inkscape:connector-curvature="0" />
	<path style="fill:none;stroke:red;stroke-width:1px;stroke-linecap:butt;stroke-linejoin:miter;stroke-opacity:1" d="M 465.315,545.091 493.063,569.371 z" id="boundary" inkscape:connector-curvature="0" />
	<path style="fill:none;stroke:red;stroke-width:1px;stroke-linecap:butt;stroke-linejoin:miter;stroke-opacity:1" d="M 510.406,416.755 538.154,441.035 z" id="boundary" inkscape:connector-curvature="0" />
	<path style="fill:none;stroke:red;stroke-width:1px;stroke-linecap:butt;stroke-linejoin:miter;stroke-opacity:1" d="M 510.406,416.755 486.126,389.007 z" id="boundary" inkscape:connector-curvature="0" />
	<path style="fill:none;stroke:red;stroke-width:1px;stroke-linecap:butt;stroke-linejoin:miter;stroke-opacity:1" d="M 569.371,458.378 538.154,441.035 z" id="boundary" inkscape:connector-curvature="0" />
	<path style="fill:none;stroke:red;stroke-width:1px;stroke-linecap:butt;stroke-linejoin:miter;stroke-opacity:1" d="M 597.119,482.657 569.371,458.378 z" id="boundary" inkscape:connector-curvature="0" />
	<path style="fill:none;stroke:red;stroke-width:1px;stroke-linecap:butt;stroke-linejoin:miter;stroke-opacity:1" d="M 493.063,569.371 524.28,586.713 z" id="boundary" inkscape:connector-curvature="0" />
	<path style="fill:none;stroke:red;stroke-width:1px;stroke-linecap:butt;stroke-linejoin:miter;stroke-opacity:1" d="M 524.28,586.713 552.028,610.993 z" id="boundary" inkscape:connector-curvature="0" />
	<path style="fill:none;stroke:red;stroke-width:1px;stroke-linecap:butt;stroke-linejoin:miter;stroke-opacity:1" d="M 552.028,610.993 576.308,638.741 z" id="boundary" inkscape:connector-curvature="0" />
	<path style="fill:none;stroke:red;stroke-width:1px;stroke-linecap:butt;stroke-linejoin:miter;stroke-opacity:1" d="M 604.056,663.021 576.308,638.741 z" id="boundary" inkscape:connector-curvature="0" />
	<path style="fill:none;stroke:red;stroke-width:1px;stroke-linecap:butt;stroke-linejoin:miter;stroke-opacity:1" d="M 621.399,510.406 649.147,534.685 z" id="boundary" inkscape:connector-curvature="0" />
	<path style="fill:none;stroke:red;stroke-width:1px;stroke-linecap:butt;stroke-linejoin:miter;stroke-opacity:1" d="M 597.119,482.657 621.399,510.406 z" id="boundary" inkscape:connector-curvature="0" />
	<path style="fill:none;stroke:red;stroke-width:1px;stroke-linecap:butt;stroke-linejoin:miter;stroke-opacity:1" d="M 635.273,680.364 604.056,663.021 z" id="boundary" inkscape:connector-curvature="0" />
	<path style="fill:none;stroke:red;stroke-width:1px;stroke-linecap:butt;stroke-linejoin:miter;stroke-opacity:1" d="M 676.895,558.965 649.147,534.685 z" id="boundary" inkscape:connector-curvature="0" />
	<path style="fill:none;stroke:red;stroke-width:1px;stroke-linecap:butt;stroke-linejoin:miter;stroke-opacity:1" d="M 708.112,576.308 676.895,558.965 z" id="boundary" inkscape:connector-curvature="0" />
	<path style="fill:none;stroke:red;stroke-width:1px;stroke-linecap:butt;stroke-linejoin:miter;stroke-opacity:1" d="M 791.357,645.678 760.14,628.336 z" id="boundary" inkscape:connector-curvature="0" />
	<path style="fill:none;stroke:red;stroke-width:1px;stroke-linecap:butt;stroke-linejoin:miter;stroke-opacity:1" d="M 760.14,628.336 732.392,604.056 z" id="boundary" inkscape:connector-curvature="0" />
	<path style="fill:none;stroke:red;stroke-width:1px;stroke-linecap:butt;stroke-linejoin:miter;stroke-opacity:1" d="M 732.392,604.056 708.112,576.308 z" id="boundary" inkscape:connector-curvature="0" />
	<path style="fill:none;stroke:red;stroke-width:1px;stroke-linecap:butt;stroke-linejoin:miter;stroke-opacity:1" d="M 663.021,701.175 635.273,680.364 z" id="boundary" inkscape:connector-curvature="0" />
	<path style="fill:none;stroke:red;stroke-width:1px;stroke-linecap:butt;stroke-linejoin:miter;stroke-opacity:1" d="M 822.573,663.021 791.357,645.678 z" id="boundary" inkscape:connector-curvature="0" />
	<path style="fill:none;stroke:red;stroke-width:1px;stroke-linecap:butt;stroke-linejoin:miter;stroke-opacity:1" d="M 857.259,663.021 822.573,663.021 z" id="boundary" inkscape:connector-curvature="0" />
	<path style="fill:none;stroke:red;stroke-width:1px;stroke-linecap:butt;stroke-linejoin:miter;stroke-opacity:1" d="M 926.629,680.364 891.944,673.427 z" id="boundary" inkscape:connector-curvature="0" />
	<path style="fill:none;stroke:red;stroke-width:1px;stroke-linecap:butt;stroke-linejoin:miter;stroke-opacity:1" d="M 891.944,673.427 857.259,663.021 z" id="boundary" inkscape:connector-curvature="0" />
	<path style="fill:none;stroke:red;stroke-width:1px;stroke-linecap:butt;stroke-linejoin:miter;stroke-opacity:1" d="M 663.021,701.175 683.832,728.923 z" id="boundary" inkscape:connector-curvature="0" />
	<path style="fill:none;stroke:red;stroke-width:1px;stroke-linecap:butt;stroke-linejoin:miter;stroke-opacity:1" d="M 732.392,777.483 718.517,742.797 z" id="boundary" inkscape:connector-curvature="0" />
	<path style="fill:none;stroke:red;stroke-width:1px;stroke-linecap:butt;stroke-linejoin:miter;stroke-opacity:1" d="M 749.734,808.699 732.392,777.483 z" id="boundary" inkscape:connector-curvature="0" />
	<path style="fill:none;stroke:red;stroke-width:1px;stroke-linecap:butt;stroke-linejoin:miter;stroke-opacity:1" d="M 683.832,728.923 718.517,742.797 z" id="boundary" inkscape:connector-curvature="0" />
	<path style="fill:none;stroke:red;stroke-width:1px;stroke-linecap:butt;stroke-linejoin:miter;stroke-opacity:1" d="M 787.888,867.664 767.077,839.916 z" id="boundary" inkscape:connector-curvature="0" />
	<path style="fill:none;stroke:red;stroke-width:1px;stroke-linecap:butt;stroke-linejoin:miter;stroke-opacity:1" d="M 767.077,839.916 749.734,808.699 z" id="boundary" inkscape:connector-curvature="0" />
	<path style="fill:none;stroke:red;stroke-width:1px;stroke-linecap:butt;stroke-linejoin:miter;stroke-opacity:1" d="M 846.853,909.287 815.636,891.944 z" id="boundary" inkscape:connector-curvature="0" />
	<path style="fill:none;stroke:red;stroke-width:1px;stroke-linecap:butt;stroke-linejoin:miter;stroke-opacity:1" d="M 815.636,891.944 787.888,867.664 z" id="boundary" inkscape:connector-curvature="0" />
	<path style="fill:none;stroke:red;stroke-width:1px;stroke-linecap:butt;stroke-linejoin:miter;stroke-opacity:1" d="M 881.538,909.287 846.853,909.287 z" id="boundary" inkscape:connector-curvature="0" />
	<path style="fill:none;stroke:red;stroke-width:1px;stroke-linecap:butt;stroke-linejoin:miter;stroke-opacity:1" d="M 839.916,805.231 867.664,826.042 z" id="boundary" inkscape:connector-curvature="0" />
	<path style="fill:none;stroke:red;stroke-width:1px;stroke-linecap:butt;stroke-linejoin:miter;stroke-opacity:1" d="M 839.916,805.231 871.133,787.888 z" id="boundary" inkscape:connector-curvature="0" />
	<path style="fill:none;stroke:red;stroke-width:1px;stroke-linecap:butt;stroke-linejoin:miter;stroke-opacity:1" d="M 905.818,787.888 871.133,787.888 z" id="boundary" inkscape:connector-curvature="0" />
	<path style="fill:none;stroke:red;stroke-width:1px;stroke-linecap:butt;stroke-linejoin:miter;stroke-opacity:1" d="M 957.846,697.706 978.657,725.455 z" id="boundary" inkscape:connector-curvature="0" />
	<path style="fill:none;stroke:red;stroke-width:1px;stroke-linecap:butt;stroke-linejoin:miter;stroke-opacity:1" d="M 902.35,839.916 867.664,826.042 z" id="boundary" inkscape:connector-curvature="0" />
	<path style="fill:none;stroke:red;stroke-width:1px;stroke-linecap:butt;stroke-linejoin:miter;stroke-opacity:1" d="M 996,791.357 978.657,760.14 z" id="boundary" inkscape:connector-curvature="0" />
	<path style="fill:none;stroke:red;stroke-width:1px;stroke-linecap:butt;stroke-linejoin:miter;stroke-opacity:1" d="M 978.657,760.14 978.657,725.455 z" id="boundary" inkscape:connector-curvature="0" />
	<path style="fill:none;stroke:red;stroke-width:1px;stroke-linecap:butt;stroke-linejoin:miter;stroke-opacity:1" d="M 937.035,805.231 905.818,787.888 z" id="boundary" inkscape:connector-curvature="0" />
	<path style="fill:none;stroke:red;stroke-width:1px;stroke-linecap:butt;stroke-linejoin:miter;stroke-opacity:1" d="M 916.224,905.818 881.538,909.287 z" id="boundary" inkscape:connector-curvature="0" />
	<path style="fill:none;stroke:red;stroke-width:1px;stroke-linecap:butt;stroke-linejoin:miter;stroke-opacity:1" d="M 926.629,867.664 916.224,905.818 z" id="boundary" inkscape:connector-curvature="0" />
	<path style="fill:none;stroke:red;stroke-width:1px;stroke-linecap:butt;stroke-linejoin:miter;stroke-opacity:1" d="M 902.35,839.916 926.629,867.664 z" id="boundary" inkscape:connector-curvature="0" />
	<path style="fill:none;stroke:red;stroke-width:1px;stroke-linecap:butt;stroke-linejoin:miter;stroke-opacity:1" d="M 996,791.357 968.252,822.573 z" id="boundary" inkscape:connector-curvature="0" />
	<path style="fill:none;stroke:red;stroke-width:1px;stroke-linecap:butt;stroke-linejoin:miter;stroke-opacity:1" d="M 926.629,680.364 957.846,697.706 z" id="boundary" inkscape:connector-curvature="0" />
	<circle cx="4" cy="153.147" r="4" fill="#0" id="circle0"/>
	<circle cx="4" cy="187.832" r="4" fill="#0" id="circle1"/>
	<circle cx="21.3427" cy="219.049" r="4" fill="#0" id="circle2"/>
	<circle cx="38.6853" cy="149.678" r="4" fill="#0" id="circle3"/>
	<circle cx="38.6853" cy="250.266" r="4" fill="#0" id="circle4"/>
	<circle cx="59.4965" cy="278.014" r="4" fill="#0" id="circle5"/>
	<circle cx="69.9021" cy="167.021" r="4" fill="#0" id="circle6"/>
	<circle cx="90.7133" cy="14.4056" r="4" fill="#0" id="circle7"/>
	<circle cx="94.1818" cy="284.951" r="4" fill="#0" id="circle8"/>
	<circle cx="104.587" cy="177.427" r="4" fill="#0" id="circle9"/>
	<circle cx="108.056" cy="45.6224" r="4" fill="#0" id="circle10"/>
	<circle cx="125.399" cy="4" r="4" fill="#0" id="circle11"/>
	<circle cx="125.399" cy="302.294" r="4" fill="#0" id="circle12"/>
	<circle cx="132.336" cy="73.3706" r="4" fill="#0" id="circle13"/>
	<circle cx="139.273" cy="177.427" r="4" fill="#0" id="circle14"/>
	<circle cx="160.084" cy="4" r="4" fill="#0" id="circle15"/>
	<circle cx="160.084" cy="302.294" r="4" fill="#0" id="circle16"/>
	<circle cx="163.552" cy="149.678" r="4" fill="#0" id="circle17"/>
	<circle cx="167.021" cy="87.2448" r="4" fill="#0" id="circle18"/>
	<circle cx="194.769" cy="4" r="4" fill="#0" id="circle19"/>
	<circle cx="194.769" cy="302.294" r="4" fill="#0" id="circle20"/>
	<circle cx="222.517" cy="24.8112" r="4" fill="#0" id="circle21"/>
	<circle cx="225.986" cy="319.636" r="4" fill="#0" id="circle22"/>
	<circle cx="250.266" cy="49.0909" r="4" fill="#0" id="circle23"/>
	<circle cx="250.266" cy="347.385" r="4" fill="#0" id="circle24"/>
	<circle cx="274.545" cy="76.8392" r="4" fill="#0" id="circle25"/>
	<circle cx="284.951" cy="111.524" r="4" fill="#0" id="circle26"/>
	<circle cx="284.951" cy="146.21" r="4" fill="#0" id="circle27"/>
	<circle cx="284.951" cy="180.895" r="4" fill="#0" id="circle28"/>
	<circle cx="284.951" cy="361.259" r="4" fill="#0" id="circle29"/>
	<circle cx="302.294" cy="212.112" r="4" fill="#0" id="circle30"/>
	<circle cx="309.231" cy="389.007" r="4" fill="#0" id="circle31"/>
	<circle cx="330.042" cy="232.923" r="4" fill="#0" id="circle32"/>
	<circle cx="336.979" cy="413.287" r="4" fill="#0" id="circle33"/>
	<circle cx="354.322" cy="260.671" r="4" fill="#0" id="circle34"/>
	<circle cx="361.259" cy="441.035" r="4" fill="#0" id="circle35"/>
	<circle cx="382.07" cy="284.951" r="4" fill="#0" id="circle36"/>
	<circle cx="389.007" cy="465.315" r="4" fill="#0" id="circle37"/>
	<circle cx="406.35" cy="312.699" r="4" fill="#0" id="circle38"/>
	<circle cx="413.287" cy="493.063" r="4" fill="#0" id="circle39"/>
	<circle cx="434.098" cy="336.979" r="4" fill="#0" id="circle40"/>
	<circle cx="441.035" cy="517.343" r="4" fill="#0" id="circle41"/>
	<circle cx="458.378" cy="364.727" r="4" fill="#0" id="circle42"/>
	<circle cx="465.315" cy="545.091" r="4" fill="#0" id="circle43"/>
	<circle cx="486.126" cy="389.007" r="4" fill="#0" id="circle44"/>
	<circle cx="493.063" cy="569.371" r="4" fill="#0" id="circle45"/>
	<circle cx="510.406" cy="416.755" r="4" fill="#0" id="circle46"/>
	<circle cx="524.28" cy="586.713" r="4" fill="#0" id="circle47"/>
	<circle cx="538.154" cy="441.035" r="4" fill="#0" id="circle48"/>
	<circle cx="552.028" cy="610.993" r="4" fill="#0" id="circle49"/>
	<circle cx="569.371" cy="458.378" r="4" fill="#0" id="circle50"/>
	<circle cx="576.308" cy="638.741" r="4" fill="#0" id="circle51"/>
	<circle cx="597.119" cy="482.657" r="4" fill="#0" id="circle52"/>
	<circle cx="604.056" cy="663.021" r="4" fill="#0" id="circle53"/>
	<circle cx="621.399" cy="510.406" r="4" fill="#0" id="circle54"/>
	<circle cx="635.273" cy="680.364" r="4" fill="#0" id="circle55"/>
	<circle cx="649.147" cy="534.685" r="4" fill="#0" id="circle56"/>
	<circle cx="663.021" cy="701.175" r="4" fill="#0" id="circle57"/>
	<circle cx="676.895" cy="558.965" r="4" fill="#0" id="circle58"/>
	<circle cx="683.832" cy="728.923" r="4" fill="#0" id="circle59"/>
	<circle cx="708.112" cy="576.308" r="4" fill="#0" id="circle60"/>
	<circle cx="718.517" cy="742.797" r="4" fill="#0" id="circle61"/>
	<circle cx="732.392" cy="604.056" r="4" fill="#0" id="circle62"/>
	<circle cx="732.392" cy="777.483" r="4" fill="#0" id="circle63"/>
	<circle cx="749.734" cy="808.699" r="4" fill="#0" id="circle64"/>
	<circle cx="760.14" cy="628.336" r="4" fill="#0" id="circle65"/>
	<circle cx="767.077" cy="839.916" r="4" fill="#0" id="circle66"/>
	<circle cx="787.888" cy="867.664" r="4" fill="#0" id="circle67"/>
	<circle cx="791.357" cy="645.678" r="4" fill="#0" id="circle68"/>
	<circle cx="815.636" cy="891.944" r="4" fill="#0" id="circle69"/>
	<circle cx="822.573" cy="663.021" r="4" fill="#0" id="circle70"/>
	<circle cx="839.916" cy="805.231" r="4" fill="#0" id="circle71"/>
	<circle cx="846.853" cy="909.287" r="4" fill="#0" id="circle72"/>
	<circle cx="857.259" cy="663.021" r="4" fill="#0" id="circle73"/>
	<circle cx="867.664" cy="826.042" r="4" fill="#0" id="circle74"/>
	<circle cx="871.133" cy="787.888" r="4" fill="#0" id="circle75"/>
	<circle cx="881.538" cy="909.287" r="4" fill="#0" id="circle76"/>
	<circle cx="891.944" cy="673.427" r="4" fill="#0" id="circle77"/>
	<circle cx="902.35" cy="839.916" r="4" fill="#0" id="circle78"/>
	<circle cx="905.818" cy="787.888" r="4" fill="#0" id="circle79"/>
	<circle cx="916.224" cy="905.818" r="4" fill="#0" id="circle80"/>
	<circle cx="926.629" cy="680.364" r="4" fill="#0" id="circle81"/>
	<circle cx="926.629" cy="867.664" r="4" fill="#0" id="circle82"/>
	<circle cx="937.035" cy="805.231" r="4" fill="#0" id="circle83"/>
	<circle cx="957.846" cy="697.706" r="4" fill="#0" id="circle84"/>
	<circle cx="968.252" cy="822.573" r="4" fill="#0" id="circle85"/>
	<circle cx="978.657" cy="725.455" r="4" fill="#0" id="circle86"/>
	<circle cx="978.657" cy="760.14" r="4" fill="#0" id="circle87"/>
	<circle cx="996" cy="791.357" r="4" fill="#0" id="circle88"/>
	</g>
</svg>