<?xml version="1.0" encoding="UTF-8" standalone="no"?>
<!-- Created with CurveBenchmark -->
<svg
	xmlns:dc="http://purl.org/dc/elements/1.1/"
	xmlns:cc="http://creativecommons.org/ns#"
	xmlns:rdf="http://www.w3.org/1999/02/22-rdf-syntax-ns#"
	xmlns:svg="http://www.w3.org/2000/svg"
	xmlns="http://www.w3.org/2000/svg"
	xmlns:sodipodi="http://sodipodi.sourceforge.net/DTD/sodipodi-0.dtd"
	xmlns:inkscape="http://www.inkscape.org/namespaces/inkscape"
	width="1000"
	height="1000"
	id="svg2"
	version="1.1"
	sodipodi:docname="manifold/gathang-elephant24.png.txt">
<defs
	id="defs4" />
<metadata
	id="metadata7">
	<rdf:RDF>
		<cc:Work
			rdf:about="">
			<dc:format>image/svg+xml</dc:format>
			<dc:type
				rdf:resource="http://purl.org/dc/dcmitype/StillImage" />
			<dc:title></dc:title>
		</cc:Work>
	</rdf:RDF>
</metadata>
<g
	inkscape:label="Layer 1"
	inkscape:groupmode="layer"
	id="layer1">
	<path style="fill:none;stroke:red;stroke-width:1px;stroke-linecap:butt;stroke-linejoin:miter;stroke-opacity:1" d="M 126.686,219.576 135.449,202.049 z" id="boundary" inkscape:connector-curvature="0" />
	<path style="fill:none;stroke:red;stroke-width:1px;stroke-linecap:butt;stroke-linejoin:miter;stroke-opacity:1" d="M 126.686,237.102 126.686,219.576 z" id="boundary" inkscape:connector-curvature="0" />
	<path style="fill:none;stroke:red;stroke-width:1px;stroke-linecap:butt;stroke-linejoin:miter;stroke-opacity:1" d="M 144.212,175.76 135.449,202.049 z" id="boundary" inkscape:connector-curvature="0" />
	<path style="fill:none;stroke:red;stroke-width:1px;stroke-linecap:butt;stroke-linejoin:miter;stroke-opacity:1" d="M 247.618,326.488 230.092,335.251 z" id="boundary" inkscape:connector-curvature="0" />
	<path style="fill:none;stroke:red;stroke-width:1px;stroke-linecap:butt;stroke-linejoin:miter;stroke-opacity:1" d="M 109.159,289.682 109.159,307.208 z" id="boundary" inkscape:connector-curvature="0" />
	<path style="fill:none;stroke:red;stroke-width:1px;stroke-linecap:butt;stroke-linejoin:miter;stroke-opacity:1" d="M 109.159,307.208 100.396,333.498 z" id="boundary" inkscape:connector-curvature="0" />
	<path style="fill:none;stroke:red;stroke-width:1px;stroke-linecap:butt;stroke-linejoin:miter;stroke-opacity:1" d="M 100.396,333.498 91.6325,359.788 z" id="boundary" inkscape:connector-curvature="0" />
	<path style="fill:none;stroke:red;stroke-width:1px;stroke-linecap:butt;stroke-linejoin:miter;stroke-opacity:1" d="M 109.159,289.682 117.922,263.392 z" id="boundary" inkscape:connector-curvature="0" />
	<path style="fill:none;stroke:red;stroke-width:1px;stroke-linecap:butt;stroke-linejoin:miter;stroke-opacity:1" d="M 126.686,237.102 117.922,263.392 z" id="boundary" inkscape:connector-curvature="0" />
	<path style="fill:none;stroke:red;stroke-width:1px;stroke-linecap:butt;stroke-linejoin:miter;stroke-opacity:1" d="M 175.76,126.686 184.523,109.159 z" id="boundary" inkscape:connector-curvature="0" />
	<path style="fill:none;stroke:red;stroke-width:1px;stroke-linecap:butt;stroke-linejoin:miter;stroke-opacity:1" d="M 184.523,109.159 202.049,100.396 z" id="boundary" inkscape:connector-curvature="0" />
	<path style="fill:none;stroke:red;stroke-width:1px;stroke-linecap:butt;stroke-linejoin:miter;stroke-opacity:1" d="M 219.576,91.6325 237.102,91.6325 z" id="boundary" inkscape:connector-curvature="0" />
	<path style="fill:none;stroke:red;stroke-width:1px;stroke-linecap:butt;stroke-linejoin:miter;stroke-opacity:1" d="M 202.049,100.396 219.576,91.6325 z" id="boundary" inkscape:connector-curvature="0" />
	<path style="fill:none;stroke:red;stroke-width:1px;stroke-linecap:butt;stroke-linejoin:miter;stroke-opacity:1" d="M 252.876,82.8693 237.102,91.6325 z" id="boundary" inkscape:connector-curvature="0" />
	<path style="fill:none;stroke:red;stroke-width:1px;stroke-linecap:butt;stroke-linejoin:miter;stroke-opacity:1" d="M 144.212,175.76 152.975,158.233 z" id="boundary" inkscape:connector-curvature="0" />
	<path style="fill:none;stroke:red;stroke-width:1px;stroke-linecap:butt;stroke-linejoin:miter;stroke-opacity:1" d="M 175.76,126.686 161.739,140.707 z" id="boundary" inkscape:connector-curvature="0" />
	<path style="fill:none;stroke:red;stroke-width:1px;stroke-linecap:butt;stroke-linejoin:miter;stroke-opacity:1" d="M 230.092,335.251 212.565,344.014 z" id="boundary" inkscape:connector-curvature="0" />
	<path style="fill:none;stroke:red;stroke-width:1px;stroke-linecap:butt;stroke-linejoin:miter;stroke-opacity:1" d="M 212.565,344.014 195.039,347.519 z" id="boundary" inkscape:connector-curvature="0" />
	<path style="fill:none;stroke:red;stroke-width:1px;stroke-linecap:butt;stroke-linejoin:miter;stroke-opacity:1" d="M 152.975,158.233 161.739,140.707 z" id="boundary" inkscape:connector-curvature="0" />
	<path style="fill:none;stroke:red;stroke-width:1px;stroke-linecap:butt;stroke-linejoin:miter;stroke-opacity:1" d="M 195.039,347.519 177.512,352.777 z" id="boundary" inkscape:connector-curvature="0" />
	<path style="fill:none;stroke:red;stroke-width:1px;stroke-linecap:butt;stroke-linejoin:miter;stroke-opacity:1" d="M 82.8693,386.078 82.8693,403.604 z" id="boundary" inkscape:connector-curvature="0" />
	<path style="fill:none;stroke:red;stroke-width:1px;stroke-linecap:butt;stroke-linejoin:miter;stroke-opacity:1" d="M 82.8693,403.604 74.106,421.131 z" id="boundary" inkscape:connector-curvature="0" />
	<path style="fill:none;stroke:red;stroke-width:1px;stroke-linecap:butt;stroke-linejoin:miter;stroke-opacity:1" d="M 91.6325,359.788 82.8693,386.078 z" id="boundary" inkscape:connector-curvature="0" />
	<path style="fill:none;stroke:red;stroke-width:1px;stroke-linecap:butt;stroke-linejoin:miter;stroke-opacity:1" d="M 74.106,438.657 74.106,421.131 z" id="boundary" inkscape:connector-curvature="0" />
	<path style="fill:none;stroke:red;stroke-width:1px;stroke-linecap:butt;stroke-linejoin:miter;stroke-opacity:1" d="M 74.106,438.657 74.106,456.184 z" id="boundary" inkscape:connector-curvature="0" />
	<path style="fill:none;stroke:red;stroke-width:1px;stroke-linecap:butt;stroke-linejoin:miter;stroke-opacity:1" d="M 74.106,473.71 74.106,456.184 z" id="boundary" inkscape:connector-curvature="0" />
	<path style="fill:none;stroke:red;stroke-width:1px;stroke-linecap:butt;stroke-linejoin:miter;stroke-opacity:1" d="M 74.106,491.237 74.106,473.71 z" id="boundary" inkscape:connector-curvature="0" />
	<path style="fill:none;stroke:red;stroke-width:1px;stroke-linecap:butt;stroke-linejoin:miter;stroke-opacity:1" d="M 128.438,470.205 119.675,487.731 z" id="boundary" inkscape:connector-curvature="0" />
	<path style="fill:none;stroke:red;stroke-width:1px;stroke-linecap:butt;stroke-linejoin:miter;stroke-opacity:1" d="M 119.675,487.731 119.675,505.258 z" id="boundary" inkscape:connector-curvature="0" />
	<path style="fill:none;stroke:red;stroke-width:1px;stroke-linecap:butt;stroke-linejoin:miter;stroke-opacity:1" d="M 137.201,400.099 145.965,373.809 z" id="boundary" inkscape:connector-curvature="0" />
	<path style="fill:none;stroke:red;stroke-width:1px;stroke-linecap:butt;stroke-linejoin:miter;stroke-opacity:1" d="M 145.965,373.809 159.986,361.541 z" id="boundary" inkscape:connector-curvature="0" />
	<path style="fill:none;stroke:red;stroke-width:1px;stroke-linecap:butt;stroke-linejoin:miter;stroke-opacity:1" d="M 137.201,400.099 128.438,417.625 z" id="boundary" inkscape:connector-curvature="0" />
	<path style="fill:none;stroke:red;stroke-width:1px;stroke-linecap:butt;stroke-linejoin:miter;stroke-opacity:1" d="M 159.986,361.541 177.512,352.777 z" id="boundary" inkscape:connector-curvature="0" />
	<path style="fill:none;stroke:red;stroke-width:1px;stroke-linecap:butt;stroke-linejoin:miter;stroke-opacity:1" d="M 128.438,435.152 128.438,452.678 z" id="boundary" inkscape:connector-curvature="0" />
	<path style="fill:none;stroke:red;stroke-width:1px;stroke-linecap:butt;stroke-linejoin:miter;stroke-opacity:1" d="M 128.438,417.625 128.438,435.152 z" id="boundary" inkscape:connector-curvature="0" />
	<path style="fill:none;stroke:red;stroke-width:1px;stroke-linecap:butt;stroke-linejoin:miter;stroke-opacity:1" d="M 128.438,452.678 128.438,470.205 z" id="boundary" inkscape:connector-curvature="0" />
	<path style="fill:none;stroke:red;stroke-width:1px;stroke-linecap:butt;stroke-linejoin:miter;stroke-opacity:1" d="M 119.675,522.784 119.675,505.258 z" id="boundary" inkscape:connector-curvature="0" />
	<path style="fill:none;stroke:red;stroke-width:1px;stroke-linecap:butt;stroke-linejoin:miter;stroke-opacity:1" d="M 74.106,508.763 74.106,491.237 z" id="boundary" inkscape:connector-curvature="0" />
	<path style="fill:none;stroke:red;stroke-width:1px;stroke-linecap:butt;stroke-linejoin:miter;stroke-opacity:1" d="M 345.767,39.053 361.541,30.2898 z" id="boundary" inkscape:connector-curvature="0" />
	<path style="fill:none;stroke:red;stroke-width:1px;stroke-linecap:butt;stroke-linejoin:miter;stroke-opacity:1" d="M 345.767,39.053 328.24,44.311 z" id="boundary" inkscape:connector-curvature="0" />
	<path style="fill:none;stroke:red;stroke-width:1px;stroke-linecap:butt;stroke-linejoin:miter;stroke-opacity:1" d="M 377.314,21.5265 394.841,21.5265 z" id="boundary" inkscape:connector-curvature="0" />
	<path style="fill:none;stroke:red;stroke-width:1px;stroke-linecap:butt;stroke-linejoin:miter;stroke-opacity:1" d="M 361.541,30.2898 377.314,21.5265 z" id="boundary" inkscape:connector-curvature="0" />
	<path style="fill:none;stroke:red;stroke-width:1px;stroke-linecap:butt;stroke-linejoin:miter;stroke-opacity:1" d="M 284.424,79.364 268.65,91.6325 z" id="boundary" inkscape:connector-curvature="0" />
	<path style="fill:none;stroke:red;stroke-width:1px;stroke-linecap:butt;stroke-linejoin:miter;stroke-opacity:1" d="M 268.65,91.6325 252.876,82.8693 z" id="boundary" inkscape:connector-curvature="0" />
	<path style="fill:none;stroke:red;stroke-width:1px;stroke-linecap:butt;stroke-linejoin:miter;stroke-opacity:1" d="M 298.445,65.3428 284.424,79.364 z" id="boundary" inkscape:connector-curvature="0" />
	<path style="fill:none;stroke:red;stroke-width:1px;stroke-linecap:butt;stroke-linejoin:miter;stroke-opacity:1" d="M 328.24,44.311 314.219,56.5795 z" id="boundary" inkscape:connector-curvature="0" />
	<path style="fill:none;stroke:red;stroke-width:1px;stroke-linecap:butt;stroke-linejoin:miter;stroke-opacity:1" d="M 314.219,56.5795 298.445,65.3428 z" id="boundary" inkscape:connector-curvature="0" />
	<path style="fill:none;stroke:red;stroke-width:1px;stroke-linecap:butt;stroke-linejoin:miter;stroke-opacity:1" d="M 394.841,21.5265 412.367,21.5265 z" id="boundary" inkscape:connector-curvature="0" />
	<path style="fill:none;stroke:red;stroke-width:1px;stroke-linecap:butt;stroke-linejoin:miter;stroke-opacity:1" d="M 412.367,21.5265 429.894,21.5265 z" id="boundary" inkscape:connector-curvature="0" />
	<path style="fill:none;stroke:red;stroke-width:1px;stroke-linecap:butt;stroke-linejoin:miter;stroke-opacity:1" d="M 447.42,21.5265 463.194,30.2898 z" id="boundary" inkscape:connector-curvature="0" />
	<path style="fill:none;stroke:red;stroke-width:1px;stroke-linecap:butt;stroke-linejoin:miter;stroke-opacity:1" d="M 429.894,21.5265 447.42,21.5265 z" id="boundary" inkscape:connector-curvature="0" />
	<path style="fill:none;stroke:red;stroke-width:1px;stroke-linecap:butt;stroke-linejoin:miter;stroke-opacity:1" d="M 480.721,30.2898 463.194,30.2898 z" id="boundary" inkscape:connector-curvature="0" />
	<path style="fill:none;stroke:red;stroke-width:1px;stroke-linecap:butt;stroke-linejoin:miter;stroke-opacity:1" d="M 480.721,30.2898 498.247,30.2898 z" id="boundary" inkscape:connector-curvature="0" />
	<path style="fill:none;stroke:red;stroke-width:1px;stroke-linecap:butt;stroke-linejoin:miter;stroke-opacity:1" d="M 498.247,30.2898 514.021,39.053 z" id="boundary" inkscape:connector-curvature="0" />
	<path style="fill:none;stroke:red;stroke-width:1px;stroke-linecap:butt;stroke-linejoin:miter;stroke-opacity:1" d="M 531.548,39.053 514.021,39.053 z" id="boundary" inkscape:connector-curvature="0" />
	<path style="fill:none;stroke:red;stroke-width:1px;stroke-linecap:butt;stroke-linejoin:miter;stroke-opacity:1" d="M 549.074,39.053 531.548,39.053 z" id="boundary" inkscape:connector-curvature="0" />
	<path style="fill:none;stroke:red;stroke-width:1px;stroke-linecap:butt;stroke-linejoin:miter;stroke-opacity:1" d="M 566.601,39.053 549.074,39.053 z" id="boundary" inkscape:connector-curvature="0" />
	<path style="fill:none;stroke:red;stroke-width:1px;stroke-linecap:butt;stroke-linejoin:miter;stroke-opacity:1" d="M 258.134,340.509 266.898,356.283 z" id="boundary" inkscape:connector-curvature="0" />
	<path style="fill:none;stroke:red;stroke-width:1px;stroke-linecap:butt;stroke-linejoin:miter;stroke-opacity:1" d="M 352.777,365.046 335.251,370.304 z" id="boundary" inkscape:connector-curvature="0" />
	<path style="fill:none;stroke:red;stroke-width:1px;stroke-linecap:butt;stroke-linejoin:miter;stroke-opacity:1" d="M 258.134,340.509 247.618,326.488 z" id="boundary" inkscape:connector-curvature="0" />
	<path style="fill:none;stroke:red;stroke-width:1px;stroke-linecap:butt;stroke-linejoin:miter;stroke-opacity:1" d="M 266.898,356.283 266.898,373.809 z" id="boundary" inkscape:connector-curvature="0" />
	<path style="fill:none;stroke:red;stroke-width:1px;stroke-linecap:butt;stroke-linejoin:miter;stroke-opacity:1" d="M 282.671,382.572 266.898,373.809 z" id="boundary" inkscape:connector-curvature="0" />
	<path style="fill:none;stroke:red;stroke-width:1px;stroke-linecap:butt;stroke-linejoin:miter;stroke-opacity:1" d="M 300.198,382.572 282.671,382.572 z" id="boundary" inkscape:connector-curvature="0" />
	<path style="fill:none;stroke:red;stroke-width:1px;stroke-linecap:butt;stroke-linejoin:miter;stroke-opacity:1" d="M 317.724,379.067 300.198,382.572 z" id="boundary" inkscape:connector-curvature="0" />
	<path style="fill:none;stroke:red;stroke-width:1px;stroke-linecap:butt;stroke-linejoin:miter;stroke-opacity:1" d="M 317.724,379.067 335.251,370.304 z" id="boundary" inkscape:connector-curvature="0" />
	<path style="fill:none;stroke:red;stroke-width:1px;stroke-linecap:butt;stroke-linejoin:miter;stroke-opacity:1" d="M 337.004,403.604 337.004,421.131 z" id="boundary" inkscape:connector-curvature="0" />
	<path style="fill:none;stroke:red;stroke-width:1px;stroke-linecap:butt;stroke-linejoin:miter;stroke-opacity:1" d="M 337.004,403.604 345.767,384.325 z" id="boundary" inkscape:connector-curvature="0" />
	<path style="fill:none;stroke:red;stroke-width:1px;stroke-linecap:butt;stroke-linejoin:miter;stroke-opacity:1" d="M 352.777,365.046 345.767,384.325 z" id="boundary" inkscape:connector-curvature="0" />
	<path style="fill:none;stroke:red;stroke-width:1px;stroke-linecap:butt;stroke-linejoin:miter;stroke-opacity:1" d="M 337.004,438.657 337.004,456.184 z" id="boundary" inkscape:connector-curvature="0" />
	<path style="fill:none;stroke:red;stroke-width:1px;stroke-linecap:butt;stroke-linejoin:miter;stroke-opacity:1" d="M 345.767,471.958 337.004,456.184 z" id="boundary" inkscape:connector-curvature="0" />
	<path style="fill:none;stroke:red;stroke-width:1px;stroke-linecap:butt;stroke-linejoin:miter;stroke-opacity:1" d="M 354.53,487.731 345.767,471.958 z" id="boundary" inkscape:connector-curvature="0" />
	<path style="fill:none;stroke:red;stroke-width:1px;stroke-linecap:butt;stroke-linejoin:miter;stroke-opacity:1" d="M 354.53,487.731 354.53,505.258 z" id="boundary" inkscape:connector-curvature="0" />
	<path style="fill:none;stroke:red;stroke-width:1px;stroke-linecap:butt;stroke-linejoin:miter;stroke-opacity:1" d="M 337.004,438.657 337.004,421.131 z" id="boundary" inkscape:connector-curvature="0" />
	<path style="fill:none;stroke:red;stroke-width:1px;stroke-linecap:butt;stroke-linejoin:miter;stroke-opacity:1" d="M 459.689,514.021 443.915,487.731 z" id="boundary" inkscape:connector-curvature="0" />
	<path style="fill:none;stroke:red;stroke-width:1px;stroke-linecap:butt;stroke-linejoin:miter;stroke-opacity:1" d="M 443.915,487.731 443.915,505.258 z" id="boundary" inkscape:connector-curvature="0" />
	<path style="fill:none;stroke:red;stroke-width:1px;stroke-linecap:butt;stroke-linejoin:miter;stroke-opacity:1" d="M 74.106,508.763 74.106,526.29 z" id="boundary" inkscape:connector-curvature="0" />
	<path style="fill:none;stroke:red;stroke-width:1px;stroke-linecap:butt;stroke-linejoin:miter;stroke-opacity:1" d="M 74.106,543.816 74.106,526.29 z" id="boundary" inkscape:connector-curvature="0" />
	<path style="fill:none;stroke:red;stroke-width:1px;stroke-linecap:butt;stroke-linejoin:miter;stroke-opacity:1" d="M 65.3428,570.106 74.106,543.816 z" id="boundary" inkscape:connector-curvature="0" />
	<path style="fill:none;stroke:red;stroke-width:1px;stroke-linecap:butt;stroke-linejoin:miter;stroke-opacity:1" d="M 119.675,540.311 110.912,557.837 z" id="boundary" inkscape:connector-curvature="0" />
	<path style="fill:none;stroke:red;stroke-width:1px;stroke-linecap:butt;stroke-linejoin:miter;stroke-opacity:1" d="M 65.3428,570.106 65.3428,587.633 z" id="boundary" inkscape:connector-curvature="0" />
	<path style="fill:none;stroke:red;stroke-width:1px;stroke-linecap:butt;stroke-linejoin:miter;stroke-opacity:1" d="M 65.3428,587.633 56.5795,613.922 z" id="boundary" inkscape:connector-curvature="0" />
	<path style="fill:none;stroke:red;stroke-width:1px;stroke-linecap:butt;stroke-linejoin:miter;stroke-opacity:1" d="M 102.148,610.417 93.3852,627.943 z" id="boundary" inkscape:connector-curvature="0" />
	<path style="fill:none;stroke:red;stroke-width:1px;stroke-linecap:butt;stroke-linejoin:miter;stroke-opacity:1" d="M 89.8799,650.728 93.3852,627.943 z" id="boundary" inkscape:connector-curvature="0" />
	<path style="fill:none;stroke:red;stroke-width:1px;stroke-linecap:butt;stroke-linejoin:miter;stroke-opacity:1" d="M 110.912,592.89 102.148,610.417 z" id="boundary" inkscape:connector-curvature="0" />
	<path style="fill:none;stroke:red;stroke-width:1px;stroke-linecap:butt;stroke-linejoin:miter;stroke-opacity:1" d="M 53.0742,643.717 56.5795,613.922 z" id="boundary" inkscape:connector-curvature="0" />
	<path style="fill:none;stroke:red;stroke-width:1px;stroke-linecap:butt;stroke-linejoin:miter;stroke-opacity:1" d="M 110.912,557.837 110.912,575.364 z" id="boundary" inkscape:connector-curvature="0" />
	<path style="fill:none;stroke:red;stroke-width:1px;stroke-linecap:butt;stroke-linejoin:miter;stroke-opacity:1" d="M 119.675,540.311 119.675,522.784 z" id="boundary" inkscape:connector-curvature="0" />
	<path style="fill:none;stroke:red;stroke-width:1px;stroke-linecap:butt;stroke-linejoin:miter;stroke-opacity:1" d="M 354.53,522.784 354.53,505.258 z" id="boundary" inkscape:connector-curvature="0" />
	<path style="fill:none;stroke:red;stroke-width:1px;stroke-linecap:butt;stroke-linejoin:miter;stroke-opacity:1" d="M 354.53,522.784 354.53,540.311 z" id="boundary" inkscape:connector-curvature="0" />
	<path style="fill:none;stroke:red;stroke-width:1px;stroke-linecap:butt;stroke-linejoin:miter;stroke-opacity:1" d="M 110.912,575.364 110.912,592.89 z" id="boundary" inkscape:connector-curvature="0" />
	<path style="fill:none;stroke:red;stroke-width:1px;stroke-linecap:butt;stroke-linejoin:miter;stroke-opacity:1" d="M 354.53,557.837 354.53,575.364 z" id="boundary" inkscape:connector-curvature="0" />
	<path style="fill:none;stroke:red;stroke-width:1px;stroke-linecap:butt;stroke-linejoin:miter;stroke-opacity:1" d="M 354.53,557.837 354.53,540.311 z" id="boundary" inkscape:connector-curvature="0" />
	<path style="fill:none;stroke:red;stroke-width:1px;stroke-linecap:butt;stroke-linejoin:miter;stroke-opacity:1" d="M 12.7633,710.318 21.5265,692.792 z" id="boundary" inkscape:connector-curvature="0" />
	<path style="fill:none;stroke:red;stroke-width:1px;stroke-linecap:butt;stroke-linejoin:miter;stroke-opacity:1" d="M 63.5901,703.307 49.5689,715.576 z" id="boundary" inkscape:connector-curvature="0" />
	<path style="fill:none;stroke:red;stroke-width:1px;stroke-linecap:butt;stroke-linejoin:miter;stroke-opacity:1" d="M 44.311,661.244 35.5477,678.77 z" id="boundary" inkscape:connector-curvature="0" />
	<path style="fill:none;stroke:red;stroke-width:1px;stroke-linecap:butt;stroke-linejoin:miter;stroke-opacity:1" d="M 35.5477,678.77 21.5265,692.792 z" id="boundary" inkscape:connector-curvature="0" />
	<path style="fill:none;stroke:red;stroke-width:1px;stroke-linecap:butt;stroke-linejoin:miter;stroke-opacity:1" d="M 4,727.845 12.7633,710.318 z" id="boundary" inkscape:connector-curvature="0" />
	<path style="fill:none;stroke:red;stroke-width:1px;stroke-linecap:butt;stroke-linejoin:miter;stroke-opacity:1" d="M 14.5159,741.866 4,727.845 z" id="boundary" inkscape:connector-curvature="0" />
	<path style="fill:none;stroke:red;stroke-width:1px;stroke-linecap:butt;stroke-linejoin:miter;stroke-opacity:1" d="M 40.8057,733.102 30.2898,750.629 z" id="boundary" inkscape:connector-curvature="0" />
	<path style="fill:none;stroke:red;stroke-width:1px;stroke-linecap:butt;stroke-linejoin:miter;stroke-opacity:1" d="M 30.2898,750.629 14.5159,741.866 z" id="boundary" inkscape:connector-curvature="0" />
	<path style="fill:none;stroke:red;stroke-width:1px;stroke-linecap:butt;stroke-linejoin:miter;stroke-opacity:1" d="M 40.8057,733.102 49.5689,715.576 z" id="boundary" inkscape:connector-curvature="0" />
	<path style="fill:none;stroke:red;stroke-width:1px;stroke-linecap:butt;stroke-linejoin:miter;stroke-opacity:1" d="M 89.8799,650.728 81.1166,668.254 z" id="boundary" inkscape:connector-curvature="0" />
	<path style="fill:none;stroke:red;stroke-width:1px;stroke-linecap:butt;stroke-linejoin:miter;stroke-opacity:1" d="M 337.004,684.028 337.004,666.502 z" id="boundary" inkscape:connector-curvature="0" />
	<path style="fill:none;stroke:red;stroke-width:1px;stroke-linecap:butt;stroke-linejoin:miter;stroke-opacity:1" d="M 345.767,648.975 337.004,666.502 z" id="boundary" inkscape:connector-curvature="0" />
	<path style="fill:none;stroke:red;stroke-width:1px;stroke-linecap:butt;stroke-linejoin:miter;stroke-opacity:1" d="M 63.5901,703.307 72.3534,685.781 z" id="boundary" inkscape:connector-curvature="0" />
	<path style="fill:none;stroke:red;stroke-width:1px;stroke-linecap:butt;stroke-linejoin:miter;stroke-opacity:1" d="M 337.004,684.028 337.004,701.555 z" id="boundary" inkscape:connector-curvature="0" />
	<path style="fill:none;stroke:red;stroke-width:1px;stroke-linecap:butt;stroke-linejoin:miter;stroke-opacity:1" d="M 354.53,706.813 337.004,701.555 z" id="boundary" inkscape:connector-curvature="0" />
	<path style="fill:none;stroke:red;stroke-width:1px;stroke-linecap:butt;stroke-linejoin:miter;stroke-opacity:1" d="M 72.3534,685.781 81.1166,668.254 z" id="boundary" inkscape:connector-curvature="0" />
	<path style="fill:none;stroke:red;stroke-width:1px;stroke-linecap:butt;stroke-linejoin:miter;stroke-opacity:1" d="M 44.311,661.244 53.0742,643.717 z" id="boundary" inkscape:connector-curvature="0" />
	<path style="fill:none;stroke:red;stroke-width:1px;stroke-linecap:butt;stroke-linejoin:miter;stroke-opacity:1" d="M 354.53,575.364 354.53,592.89 z" id="boundary" inkscape:connector-curvature="0" />
	<path style="fill:none;stroke:red;stroke-width:1px;stroke-linecap:butt;stroke-linejoin:miter;stroke-opacity:1" d="M 435.152,549.074 435.152,566.601 z" id="boundary" inkscape:connector-curvature="0" />
	<path style="fill:none;stroke:red;stroke-width:1px;stroke-linecap:butt;stroke-linejoin:miter;stroke-opacity:1" d="M 435.152,549.074 435.152,531.548 z" id="boundary" inkscape:connector-curvature="0" />
	<path style="fill:none;stroke:red;stroke-width:1px;stroke-linecap:butt;stroke-linejoin:miter;stroke-opacity:1" d="M 435.152,584.127 435.152,566.601 z" id="boundary" inkscape:connector-curvature="0" />
	<path style="fill:none;stroke:red;stroke-width:1px;stroke-linecap:butt;stroke-linejoin:miter;stroke-opacity:1" d="M 354.53,592.89 354.53,610.417 z" id="boundary" inkscape:connector-curvature="0" />
	<path style="fill:none;stroke:red;stroke-width:1px;stroke-linecap:butt;stroke-linejoin:miter;stroke-opacity:1" d="M 426.389,619.18 426.389,601.654 z" id="boundary" inkscape:connector-curvature="0" />
	<path style="fill:none;stroke:red;stroke-width:1px;stroke-linecap:butt;stroke-linejoin:miter;stroke-opacity:1" d="M 426.389,601.654 435.152,584.127 z" id="boundary" inkscape:connector-curvature="0" />
	<path style="fill:none;stroke:red;stroke-width:1px;stroke-linecap:butt;stroke-linejoin:miter;stroke-opacity:1" d="M 354.53,627.943 354.53,610.417 z" id="boundary" inkscape:connector-curvature="0" />
	<path style="fill:none;stroke:red;stroke-width:1px;stroke-linecap:butt;stroke-linejoin:miter;stroke-opacity:1" d="M 435.152,531.548 443.915,505.258 z" id="boundary" inkscape:connector-curvature="0" />
	<path style="fill:none;stroke:red;stroke-width:1px;stroke-linecap:butt;stroke-linejoin:miter;stroke-opacity:1" d="M 470.205,528.042 477.216,545.569 z" id="boundary" inkscape:connector-curvature="0" />
	<path style="fill:none;stroke:red;stroke-width:1px;stroke-linecap:butt;stroke-linejoin:miter;stroke-opacity:1" d="M 470.205,528.042 459.689,514.021 z" id="boundary" inkscape:connector-curvature="0" />
	<path style="fill:none;stroke:red;stroke-width:1px;stroke-linecap:butt;stroke-linejoin:miter;stroke-opacity:1" d="M 552.58,531.548 549.074,514.021 z" id="boundary" inkscape:connector-curvature="0" />
	<path style="fill:none;stroke:red;stroke-width:1px;stroke-linecap:butt;stroke-linejoin:miter;stroke-opacity:1" d="M 485.979,561.343 494.742,577.117 z" id="boundary" inkscape:connector-curvature="0" />
	<path style="fill:none;stroke:red;stroke-width:1px;stroke-linecap:butt;stroke-linejoin:miter;stroke-opacity:1" d="M 485.979,561.343 477.216,545.569 z" id="boundary" inkscape:connector-curvature="0" />
	<path style="fill:none;stroke:red;stroke-width:1px;stroke-linecap:butt;stroke-linejoin:miter;stroke-opacity:1" d="M 494.742,577.117 494.742,594.643 z" id="boundary" inkscape:connector-curvature="0" />
	<path style="fill:none;stroke:red;stroke-width:1px;stroke-linecap:butt;stroke-linejoin:miter;stroke-opacity:1" d="M 494.742,612.17 494.742,594.643 z" id="boundary" inkscape:connector-curvature="0" />
	<path style="fill:none;stroke:red;stroke-width:1px;stroke-linecap:butt;stroke-linejoin:miter;stroke-opacity:1" d="M 494.742,640.212 494.742,612.17 z" id="boundary" inkscape:connector-curvature="0" />
	<path style="fill:none;stroke:red;stroke-width:1px;stroke-linecap:butt;stroke-linejoin:miter;stroke-opacity:1" d="M 557.837,487.731 549.074,514.021 z" id="boundary" inkscape:connector-curvature="0" />
	<path style="fill:none;stroke:red;stroke-width:1px;stroke-linecap:butt;stroke-linejoin:miter;stroke-opacity:1" d="M 426.389,636.707 426.389,654.233 z" id="boundary" inkscape:connector-curvature="0" />
	<path style="fill:none;stroke:red;stroke-width:1px;stroke-linecap:butt;stroke-linejoin:miter;stroke-opacity:1" d="M 426.389,619.18 426.389,636.707 z" id="boundary" inkscape:connector-curvature="0" />
	<path style="fill:none;stroke:red;stroke-width:1px;stroke-linecap:butt;stroke-linejoin:miter;stroke-opacity:1" d="M 429.894,671.76 426.389,654.233 z" id="boundary" inkscape:connector-curvature="0" />
	<path style="fill:none;stroke:red;stroke-width:1px;stroke-linecap:butt;stroke-linejoin:miter;stroke-opacity:1" d="M 354.53,706.813 372.057,706.813 z" id="boundary" inkscape:connector-curvature="0" />
	<path style="fill:none;stroke:red;stroke-width:1px;stroke-linecap:butt;stroke-linejoin:miter;stroke-opacity:1" d="M 407.11,706.813 389.583,706.813 z" id="boundary" inkscape:connector-curvature="0" />
	<path style="fill:none;stroke:red;stroke-width:1px;stroke-linecap:butt;stroke-linejoin:miter;stroke-opacity:1" d="M 389.583,706.813 372.057,706.813 z" id="boundary" inkscape:connector-curvature="0" />
	<path style="fill:none;stroke:red;stroke-width:1px;stroke-linecap:butt;stroke-linejoin:miter;stroke-opacity:1" d="M 407.11,706.813 424.636,701.555 z" id="boundary" inkscape:connector-curvature="0" />
	<path style="fill:none;stroke:red;stroke-width:1px;stroke-linecap:butt;stroke-linejoin:miter;stroke-opacity:1" d="M 468.452,692.792 424.636,701.555 z" id="boundary" inkscape:connector-curvature="0" />
	<path style="fill:none;stroke:red;stroke-width:1px;stroke-linecap:butt;stroke-linejoin:miter;stroke-opacity:1" d="M 345.767,648.975 354.53,627.943 z" id="boundary" inkscape:connector-curvature="0" />
	<path style="fill:none;stroke:red;stroke-width:1px;stroke-linecap:butt;stroke-linejoin:miter;stroke-opacity:1" d="M 485.979,698.049 468.452,692.792 z" id="boundary" inkscape:connector-curvature="0" />
	<path style="fill:none;stroke:red;stroke-width:1px;stroke-linecap:butt;stroke-linejoin:miter;stroke-opacity:1" d="M 485.979,657.739 494.742,640.212 z" id="boundary" inkscape:connector-curvature="0" />
	<path style="fill:none;stroke:red;stroke-width:1px;stroke-linecap:butt;stroke-linejoin:miter;stroke-opacity:1" d="M 485.979,657.739 477.216,675.265 z" id="boundary" inkscape:connector-curvature="0" />
	<path style="fill:none;stroke:red;stroke-width:1px;stroke-linecap:butt;stroke-linejoin:miter;stroke-opacity:1" d="M 485.979,698.049 503.505,698.049 z" id="boundary" inkscape:connector-curvature="0" />
	<path style="fill:none;stroke:red;stroke-width:1px;stroke-linecap:butt;stroke-linejoin:miter;stroke-opacity:1" d="M 521.032,698.049 538.558,698.049 z" id="boundary" inkscape:connector-curvature="0" />
	<path style="fill:none;stroke:red;stroke-width:1px;stroke-linecap:butt;stroke-linejoin:miter;stroke-opacity:1" d="M 556.085,698.049 538.558,698.049 z" id="boundary" inkscape:connector-curvature="0" />
	<path style="fill:none;stroke:red;stroke-width:1px;stroke-linecap:butt;stroke-linejoin:miter;stroke-opacity:1" d="M 521.032,698.049 503.505,698.049 z" id="boundary" inkscape:connector-curvature="0" />
	<path style="fill:none;stroke:red;stroke-width:1px;stroke-linecap:butt;stroke-linejoin:miter;stroke-opacity:1" d="M 552.58,531.548 557.837,549.074 z" id="boundary" inkscape:connector-curvature="0" />
	<path style="fill:none;stroke:red;stroke-width:1px;stroke-linecap:butt;stroke-linejoin:miter;stroke-opacity:1" d="M 689.286,25.0318 671.76,33.7951 z" id="boundary" inkscape:connector-curvature="0" />
	<path style="fill:none;stroke:red;stroke-width:1px;stroke-linecap:butt;stroke-linejoin:miter;stroke-opacity:1" d="M 706.813,16.2686 689.286,25.0318 z" id="boundary" inkscape:connector-curvature="0" />
	<path style="fill:none;stroke:red;stroke-width:1px;stroke-linecap:butt;stroke-linejoin:miter;stroke-opacity:1" d="M 601.654,39.053 584.127,39.053 z" id="boundary" inkscape:connector-curvature="0" />
	<path style="fill:none;stroke:red;stroke-width:1px;stroke-linecap:butt;stroke-linejoin:miter;stroke-opacity:1" d="M 584.127,39.053 566.601,39.053 z" id="boundary" inkscape:connector-curvature="0" />
	<path style="fill:none;stroke:red;stroke-width:1px;stroke-linecap:butt;stroke-linejoin:miter;stroke-opacity:1" d="M 724.339,7.5053 706.813,16.2686 z" id="boundary" inkscape:connector-curvature="0" />
	<path style="fill:none;stroke:red;stroke-width:1px;stroke-linecap:butt;stroke-linejoin:miter;stroke-opacity:1" d="M 619.18,39.053 636.707,39.053 z" id="boundary" inkscape:connector-curvature="0" />
	<path style="fill:none;stroke:red;stroke-width:1px;stroke-linecap:butt;stroke-linejoin:miter;stroke-opacity:1" d="M 654.233,39.053 636.707,39.053 z" id="boundary" inkscape:connector-curvature="0" />
	<path style="fill:none;stroke:red;stroke-width:1px;stroke-linecap:butt;stroke-linejoin:miter;stroke-opacity:1" d="M 671.76,33.7951 654.233,39.053 z" id="boundary" inkscape:connector-curvature="0" />
	<path style="fill:none;stroke:red;stroke-width:1px;stroke-linecap:butt;stroke-linejoin:miter;stroke-opacity:1" d="M 619.18,39.053 601.654,39.053 z" id="boundary" inkscape:connector-curvature="0" />
	<path style="fill:none;stroke:red;stroke-width:1px;stroke-linecap:butt;stroke-linejoin:miter;stroke-opacity:1" d="M 741.866,4 759.392,4 z" id="boundary" inkscape:connector-curvature="0" />
	<path style="fill:none;stroke:red;stroke-width:1px;stroke-linecap:butt;stroke-linejoin:miter;stroke-opacity:1" d="M 741.866,4 724.339,7.5053 z" id="boundary" inkscape:connector-curvature="0" />
	<path style="fill:none;stroke:red;stroke-width:1px;stroke-linecap:butt;stroke-linejoin:miter;stroke-opacity:1" d="M 759.392,4 776.919,4 z" id="boundary" inkscape:connector-curvature="0" />
	<path style="fill:none;stroke:red;stroke-width:1px;stroke-linecap:butt;stroke-linejoin:miter;stroke-opacity:1" d="M 776.919,4 792.693,12.7633 z" id="boundary" inkscape:connector-curvature="0" />
	<path style="fill:none;stroke:red;stroke-width:1px;stroke-linecap:butt;stroke-linejoin:miter;stroke-opacity:1" d="M 792.693,12.7633 808.466,21.5265 z" id="boundary" inkscape:connector-curvature="0" />
	<path style="fill:none;stroke:red;stroke-width:1px;stroke-linecap:butt;stroke-linejoin:miter;stroke-opacity:1" d="M 825.993,23.2792 808.466,21.5265 z" id="boundary" inkscape:connector-curvature="0" />
	<path style="fill:none;stroke:red;stroke-width:1px;stroke-linecap:butt;stroke-linejoin:miter;stroke-opacity:1" d="M 855.788,44.311 838.261,37.3004 z" id="boundary" inkscape:connector-curvature="0" />
	<path style="fill:none;stroke:red;stroke-width:1px;stroke-linecap:butt;stroke-linejoin:miter;stroke-opacity:1" d="M 838.261,37.3004 825.993,23.2792 z" id="boundary" inkscape:connector-curvature="0" />
	<path style="fill:none;stroke:red;stroke-width:1px;stroke-linecap:butt;stroke-linejoin:miter;stroke-opacity:1" d="M 855.788,44.311 868.057,58.3322 z" id="boundary" inkscape:connector-curvature="0" />
	<path style="fill:none;stroke:red;stroke-width:1px;stroke-linecap:butt;stroke-linejoin:miter;stroke-opacity:1" d="M 575.364,443.915 584.127,426.389 z" id="boundary" inkscape:connector-curvature="0" />
	<path style="fill:none;stroke:red;stroke-width:1px;stroke-linecap:butt;stroke-linejoin:miter;stroke-opacity:1" d="M 584.127,426.389 599.901,435.152 z" id="boundary" inkscape:connector-curvature="0" />
	<path style="fill:none;stroke:red;stroke-width:1px;stroke-linecap:butt;stroke-linejoin:miter;stroke-opacity:1" d="M 571.859,475.463 575.364,443.915 z" id="boundary" inkscape:connector-curvature="0" />
	<path style="fill:none;stroke:red;stroke-width:1px;stroke-linecap:butt;stroke-linejoin:miter;stroke-opacity:1" d="M 617.428,435.152 599.901,435.152 z" id="boundary" inkscape:connector-curvature="0" />
	<path style="fill:none;stroke:red;stroke-width:1px;stroke-linecap:butt;stroke-linejoin:miter;stroke-opacity:1" d="M 617.428,435.152 633.201,443.915 z" id="boundary" inkscape:connector-curvature="0" />
	<path style="fill:none;stroke:red;stroke-width:1px;stroke-linecap:butt;stroke-linejoin:miter;stroke-opacity:1" d="M 633.201,443.915 650.728,443.915 z" id="boundary" inkscape:connector-curvature="0" />
	<path style="fill:none;stroke:red;stroke-width:1px;stroke-linecap:butt;stroke-linejoin:miter;stroke-opacity:1" d="M 668.254,443.915 685.781,443.915 z" id="boundary" inkscape:connector-curvature="0" />
	<path style="fill:none;stroke:red;stroke-width:1px;stroke-linecap:butt;stroke-linejoin:miter;stroke-opacity:1" d="M 703.307,443.915 685.781,443.915 z" id="boundary" inkscape:connector-curvature="0" />
	<path style="fill:none;stroke:red;stroke-width:1px;stroke-linecap:butt;stroke-linejoin:miter;stroke-opacity:1" d="M 703.307,443.915 713.823,457.936 z" id="boundary" inkscape:connector-curvature="0" />
	<path style="fill:none;stroke:red;stroke-width:1px;stroke-linecap:butt;stroke-linejoin:miter;stroke-opacity:1" d="M 668.254,443.915 650.728,443.915 z" id="boundary" inkscape:connector-curvature="0" />
	<path style="fill:none;stroke:red;stroke-width:1px;stroke-linecap:butt;stroke-linejoin:miter;stroke-opacity:1" d="M 868.057,58.3322 882.078,70.6007 z" id="boundary" inkscape:connector-curvature="0" />
	<path style="fill:none;stroke:red;stroke-width:1px;stroke-linecap:butt;stroke-linejoin:miter;stroke-opacity:1" d="M 882.078,70.6007 894.346,84.6219 z" id="boundary" inkscape:connector-curvature="0" />
	<path style="fill:none;stroke:red;stroke-width:1px;stroke-linecap:butt;stroke-linejoin:miter;stroke-opacity:1" d="M 894.346,84.6219 908.367,96.8905 z" id="boundary" inkscape:connector-curvature="0" />
	<path style="fill:none;stroke:red;stroke-width:1px;stroke-linecap:butt;stroke-linejoin:miter;stroke-opacity:1" d="M 713.823,457.936 705.06,482.473 z" id="boundary" inkscape:connector-curvature="0" />
	<path style="fill:none;stroke:red;stroke-width:1px;stroke-linecap:butt;stroke-linejoin:miter;stroke-opacity:1" d="M 925.894,400.099 925.894,417.625 z" id="boundary" inkscape:connector-curvature="0" />
	<path style="fill:none;stroke:red;stroke-width:1px;stroke-linecap:butt;stroke-linejoin:miter;stroke-opacity:1" d="M 908.367,96.8905 920.636,110.912 z" id="boundary" inkscape:connector-curvature="0" />
	<path style="fill:none;stroke:red;stroke-width:1px;stroke-linecap:butt;stroke-linejoin:miter;stroke-opacity:1" d="M 920.636,110.912 929.399,126.686 z" id="boundary" inkscape:connector-curvature="0" />
	<path style="fill:none;stroke:red;stroke-width:1px;stroke-linecap:butt;stroke-linejoin:miter;stroke-opacity:1" d="M 925.894,417.625 925.894,435.152 z" id="boundary" inkscape:connector-curvature="0" />
	<path style="fill:none;stroke:red;stroke-width:1px;stroke-linecap:butt;stroke-linejoin:miter;stroke-opacity:1" d="M 827.746,470.205 817.23,484.226 z" id="boundary" inkscape:connector-curvature="0" />
	<path style="fill:none;stroke:red;stroke-width:1px;stroke-linecap:butt;stroke-linejoin:miter;stroke-opacity:1" d="M 929.399,126.686 941.668,140.707 z" id="boundary" inkscape:connector-curvature="0" />
	<path style="fill:none;stroke:red;stroke-width:1px;stroke-linecap:butt;stroke-linejoin:miter;stroke-opacity:1" d="M 941.668,140.707 950.431,156.481 z" id="boundary" inkscape:connector-curvature="0" />
	<path style="fill:none;stroke:red;stroke-width:1px;stroke-linecap:butt;stroke-linejoin:miter;stroke-opacity:1" d="M 950.431,156.481 960.947,170.502 z" id="boundary" inkscape:connector-curvature="0" />
	<path style="fill:none;stroke:red;stroke-width:1px;stroke-linecap:butt;stroke-linejoin:miter;stroke-opacity:1" d="M 960.947,170.502 960.947,188.028 z" id="boundary" inkscape:connector-curvature="0" />
	<path style="fill:none;stroke:red;stroke-width:1px;stroke-linecap:butt;stroke-linejoin:miter;stroke-opacity:1" d="M 943.42,329.993 943.42,312.466 z" id="boundary" inkscape:connector-curvature="0" />
	<path style="fill:none;stroke:red;stroke-width:1px;stroke-linecap:butt;stroke-linejoin:miter;stroke-opacity:1" d="M 967.958,303.703 952.184,294.94 z" id="boundary" inkscape:connector-curvature="0" />
	<path style="fill:none;stroke:red;stroke-width:1px;stroke-linecap:butt;stroke-linejoin:miter;stroke-opacity:1" d="M 952.184,294.94 943.42,312.466 z" id="boundary" inkscape:connector-curvature="0" />
	<path style="fill:none;stroke:red;stroke-width:1px;stroke-linecap:butt;stroke-linejoin:miter;stroke-opacity:1" d="M 967.958,303.703 967.958,321.23 z" id="boundary" inkscape:connector-curvature="0" />
	<path style="fill:none;stroke:red;stroke-width:1px;stroke-linecap:butt;stroke-linejoin:miter;stroke-opacity:1" d="M 974.968,198.544 960.947,188.028 z" id="boundary" inkscape:connector-curvature="0" />
	<path style="fill:none;stroke:red;stroke-width:1px;stroke-linecap:butt;stroke-linejoin:miter;stroke-opacity:1" d="M 943.42,329.993 934.657,356.283 z" id="boundary" inkscape:connector-curvature="0" />
	<path style="fill:none;stroke:red;stroke-width:1px;stroke-linecap:butt;stroke-linejoin:miter;stroke-opacity:1" d="M 978.473,216.071 974.968,198.544 z" id="boundary" inkscape:connector-curvature="0" />
	<path style="fill:none;stroke:red;stroke-width:1px;stroke-linecap:butt;stroke-linejoin:miter;stroke-opacity:1" d="M 987.237,231.845 978.473,216.071 z" id="boundary" inkscape:connector-curvature="0" />
	<path style="fill:none;stroke:red;stroke-width:1px;stroke-linecap:butt;stroke-linejoin:miter;stroke-opacity:1" d="M 987.237,231.845 987.237,249.371 z" id="boundary" inkscape:connector-curvature="0" />
	<path style="fill:none;stroke:red;stroke-width:1px;stroke-linecap:butt;stroke-linejoin:miter;stroke-opacity:1" d="M 987.237,249.371 987.237,266.898 z" id="boundary" inkscape:connector-curvature="0" />
	<path style="fill:none;stroke:red;stroke-width:1px;stroke-linecap:butt;stroke-linejoin:miter;stroke-opacity:1" d="M 987.237,284.424 996,300.198 z" id="boundary" inkscape:connector-curvature="0" />
	<path style="fill:none;stroke:red;stroke-width:1px;stroke-linecap:butt;stroke-linejoin:miter;stroke-opacity:1" d="M 987.237,266.898 987.237,284.424 z" id="boundary" inkscape:connector-curvature="0" />
	<path style="fill:none;stroke:red;stroke-width:1px;stroke-linecap:butt;stroke-linejoin:miter;stroke-opacity:1" d="M 987.237,321.23 996,300.198 z" id="boundary" inkscape:connector-curvature="0" />
	<path style="fill:none;stroke:red;stroke-width:1px;stroke-linecap:butt;stroke-linejoin:miter;stroke-opacity:1" d="M 987.237,338.756 987.237,321.23 z" id="boundary" inkscape:connector-curvature="0" />
	<path style="fill:none;stroke:red;stroke-width:1px;stroke-linecap:butt;stroke-linejoin:miter;stroke-opacity:1" d="M 967.958,321.23 959.194,351.025 z" id="boundary" inkscape:connector-curvature="0" />
	<path style="fill:none;stroke:red;stroke-width:1px;stroke-linecap:butt;stroke-linejoin:miter;stroke-opacity:1" d="M 925.894,400.099 934.657,373.809 z" id="boundary" inkscape:connector-curvature="0" />
	<path style="fill:none;stroke:red;stroke-width:1px;stroke-linecap:butt;stroke-linejoin:miter;stroke-opacity:1" d="M 934.657,373.809 934.657,356.283 z" id="boundary" inkscape:connector-curvature="0" />
	<path style="fill:none;stroke:red;stroke-width:1px;stroke-linecap:butt;stroke-linejoin:miter;stroke-opacity:1" d="M 959.194,351.025 959.194,368.551 z" id="boundary" inkscape:connector-curvature="0" />
	<path style="fill:none;stroke:red;stroke-width:1px;stroke-linecap:butt;stroke-linejoin:miter;stroke-opacity:1" d="M 959.194,368.551 959.194,386.078 z" id="boundary" inkscape:connector-curvature="0" />
	<path style="fill:none;stroke:red;stroke-width:1px;stroke-linecap:butt;stroke-linejoin:miter;stroke-opacity:1" d="M 925.894,435.152 925.894,452.678 z" id="boundary" inkscape:connector-curvature="0" />
	<path style="fill:none;stroke:red;stroke-width:1px;stroke-linecap:butt;stroke-linejoin:miter;stroke-opacity:1" d="M 959.194,403.604 959.194,421.131 z" id="boundary" inkscape:connector-curvature="0" />
	<path style="fill:none;stroke:red;stroke-width:1px;stroke-linecap:butt;stroke-linejoin:miter;stroke-opacity:1" d="M 959.194,403.604 959.194,386.078 z" id="boundary" inkscape:connector-curvature="0" />
	<path style="fill:none;stroke:red;stroke-width:1px;stroke-linecap:butt;stroke-linejoin:miter;stroke-opacity:1" d="M 959.194,421.131 959.194,438.657 z" id="boundary" inkscape:connector-curvature="0" />
	<path style="fill:none;stroke:red;stroke-width:1px;stroke-linecap:butt;stroke-linejoin:miter;stroke-opacity:1" d="M 987.237,356.283 987.237,373.809 z" id="boundary" inkscape:connector-curvature="0" />
	<path style="fill:none;stroke:red;stroke-width:1px;stroke-linecap:butt;stroke-linejoin:miter;stroke-opacity:1" d="M 978.473,400.099 978.473,417.625 z" id="boundary" inkscape:connector-curvature="0" />
	<path style="fill:none;stroke:red;stroke-width:1px;stroke-linecap:butt;stroke-linejoin:miter;stroke-opacity:1" d="M 987.237,373.809 978.473,400.099 z" id="boundary" inkscape:connector-curvature="0" />
	<path style="fill:none;stroke:red;stroke-width:1px;stroke-linecap:butt;stroke-linejoin:miter;stroke-opacity:1" d="M 987.237,356.283 987.237,338.756 z" id="boundary" inkscape:connector-curvature="0" />
	<path style="fill:none;stroke:red;stroke-width:1px;stroke-linecap:butt;stroke-linejoin:miter;stroke-opacity:1" d="M 959.194,438.657 959.194,456.184 z" id="boundary" inkscape:connector-curvature="0" />
	<path style="fill:none;stroke:red;stroke-width:1px;stroke-linecap:butt;stroke-linejoin:miter;stroke-opacity:1" d="M 978.473,435.152 973.216,468.452 z" id="boundary" inkscape:connector-curvature="0" />
	<path style="fill:none;stroke:red;stroke-width:1px;stroke-linecap:butt;stroke-linejoin:miter;stroke-opacity:1" d="M 973.216,468.452 959.194,456.184 z" id="boundary" inkscape:connector-curvature="0" />
	<path style="fill:none;stroke:red;stroke-width:1px;stroke-linecap:butt;stroke-linejoin:miter;stroke-opacity:1" d="M 978.473,435.152 978.473,417.625 z" id="boundary" inkscape:connector-curvature="0" />
	<path style="fill:none;stroke:red;stroke-width:1px;stroke-linecap:butt;stroke-linejoin:miter;stroke-opacity:1" d="M 917.131,478.968 925.894,452.678 z" id="boundary" inkscape:connector-curvature="0" />
	<path style="fill:none;stroke:red;stroke-width:1px;stroke-linecap:butt;stroke-linejoin:miter;stroke-opacity:1" d="M 571.859,475.463 557.837,487.731 z" id="boundary" inkscape:connector-curvature="0" />
	<path style="fill:none;stroke:red;stroke-width:1px;stroke-linecap:butt;stroke-linejoin:miter;stroke-opacity:1" d="M 705.06,500 705.06,482.473 z" id="boundary" inkscape:connector-curvature="0" />
	<path style="fill:none;stroke:red;stroke-width:1px;stroke-linecap:butt;stroke-linejoin:miter;stroke-opacity:1" d="M 713.823,515.774 705.06,500 z" id="boundary" inkscape:connector-curvature="0" />
	<path style="fill:none;stroke:red;stroke-width:1px;stroke-linecap:butt;stroke-linejoin:miter;stroke-opacity:1" d="M 557.837,549.074 557.837,566.601 z" id="boundary" inkscape:connector-curvature="0" />
	<path style="fill:none;stroke:red;stroke-width:1px;stroke-linecap:butt;stroke-linejoin:miter;stroke-opacity:1" d="M 561.343,619.18 557.837,601.654 z" id="boundary" inkscape:connector-curvature="0" />
	<path style="fill:none;stroke:red;stroke-width:1px;stroke-linecap:butt;stroke-linejoin:miter;stroke-opacity:1" d="M 557.837,584.127 557.837,566.601 z" id="boundary" inkscape:connector-curvature="0" />
	<path style="fill:none;stroke:red;stroke-width:1px;stroke-linecap:butt;stroke-linejoin:miter;stroke-opacity:1" d="M 561.343,619.18 566.601,636.707 z" id="boundary" inkscape:connector-curvature="0" />
	<path style="fill:none;stroke:red;stroke-width:1px;stroke-linecap:butt;stroke-linejoin:miter;stroke-opacity:1" d="M 557.837,584.127 557.837,601.654 z" id="boundary" inkscape:connector-curvature="0" />
	<path style="fill:none;stroke:red;stroke-width:1px;stroke-linecap:butt;stroke-linejoin:miter;stroke-opacity:1" d="M 713.823,533.3 713.823,550.827 z" id="boundary" inkscape:connector-curvature="0" />
	<path style="fill:none;stroke:red;stroke-width:1px;stroke-linecap:butt;stroke-linejoin:miter;stroke-opacity:1" d="M 785.682,549.074 776.919,566.601 z" id="boundary" inkscape:connector-curvature="0" />
	<path style="fill:none;stroke:red;stroke-width:1px;stroke-linecap:butt;stroke-linejoin:miter;stroke-opacity:1" d="M 713.823,568.353 713.823,550.827 z" id="boundary" inkscape:connector-curvature="0" />
	<path style="fill:none;stroke:red;stroke-width:1px;stroke-linecap:butt;stroke-linejoin:miter;stroke-opacity:1" d="M 713.823,533.3 713.823,515.774 z" id="boundary" inkscape:connector-curvature="0" />
	<path style="fill:none;stroke:red;stroke-width:1px;stroke-linecap:butt;stroke-linejoin:miter;stroke-opacity:1" d="M 713.823,568.353 713.823,585.88 z" id="boundary" inkscape:connector-curvature="0" />
	<path style="fill:none;stroke:red;stroke-width:1px;stroke-linecap:butt;stroke-linejoin:miter;stroke-opacity:1" d="M 713.823,603.406 713.823,585.88 z" id="boundary" inkscape:connector-curvature="0" />
	<path style="fill:none;stroke:red;stroke-width:1px;stroke-linecap:butt;stroke-linejoin:miter;stroke-opacity:1" d="M 710.318,626.191 713.823,603.406 z" id="boundary" inkscape:connector-curvature="0" />
	<path style="fill:none;stroke:red;stroke-width:1px;stroke-linecap:butt;stroke-linejoin:miter;stroke-opacity:1" d="M 776.919,566.601 776.919,584.127 z" id="boundary" inkscape:connector-curvature="0" />
	<path style="fill:none;stroke:red;stroke-width:1px;stroke-linecap:butt;stroke-linejoin:miter;stroke-opacity:1" d="M 776.919,619.18 768.155,636.707 z" id="boundary" inkscape:connector-curvature="0" />
	<path style="fill:none;stroke:red;stroke-width:1px;stroke-linecap:butt;stroke-linejoin:miter;stroke-opacity:1" d="M 710.318,626.191 696.297,640.212 z" id="boundary" inkscape:connector-curvature="0" />
	<path style="fill:none;stroke:red;stroke-width:1px;stroke-linecap:butt;stroke-linejoin:miter;stroke-opacity:1" d="M 566.601,636.707 575.364,652.481 z" id="boundary" inkscape:connector-curvature="0" />
	<path style="fill:none;stroke:red;stroke-width:1px;stroke-linecap:butt;stroke-linejoin:miter;stroke-opacity:1" d="M 575.364,652.481 575.364,670.007 z" id="boundary" inkscape:connector-curvature="0" />
	<path style="fill:none;stroke:red;stroke-width:1px;stroke-linecap:butt;stroke-linejoin:miter;stroke-opacity:1" d="M 680.523,655.986 670.007,670.007 z" id="boundary" inkscape:connector-curvature="0" />
	<path style="fill:none;stroke:red;stroke-width:1px;stroke-linecap:butt;stroke-linejoin:miter;stroke-opacity:1" d="M 670.007,670.007 652.481,675.265 z" id="boundary" inkscape:connector-curvature="0" />
	<path style="fill:none;stroke:red;stroke-width:1px;stroke-linecap:butt;stroke-linejoin:miter;stroke-opacity:1" d="M 575.364,670.007 573.611,692.792 z" id="boundary" inkscape:connector-curvature="0" />
	<path style="fill:none;stroke:red;stroke-width:1px;stroke-linecap:butt;stroke-linejoin:miter;stroke-opacity:1" d="M 573.611,692.792 556.085,698.049 z" id="boundary" inkscape:connector-curvature="0" />
	<path style="fill:none;stroke:red;stroke-width:1px;stroke-linecap:butt;stroke-linejoin:miter;stroke-opacity:1" d="M 643.717,692.792 661.244,698.049 z" id="boundary" inkscape:connector-curvature="0" />
	<path style="fill:none;stroke:red;stroke-width:1px;stroke-linecap:butt;stroke-linejoin:miter;stroke-opacity:1" d="M 678.77,698.049 661.244,698.049 z" id="boundary" inkscape:connector-curvature="0" />
	<path style="fill:none;stroke:red;stroke-width:1px;stroke-linecap:butt;stroke-linejoin:miter;stroke-opacity:1" d="M 643.717,692.792 652.481,675.265 z" id="boundary" inkscape:connector-curvature="0" />
	<path style="fill:none;stroke:red;stroke-width:1px;stroke-linecap:butt;stroke-linejoin:miter;stroke-opacity:1" d="M 696.297,698.049 678.77,698.049 z" id="boundary" inkscape:connector-curvature="0" />
	<path style="fill:none;stroke:red;stroke-width:1px;stroke-linecap:butt;stroke-linejoin:miter;stroke-opacity:1" d="M 680.523,655.986 696.297,640.212 z" id="boundary" inkscape:connector-curvature="0" />
	<path style="fill:none;stroke:red;stroke-width:1px;stroke-linecap:butt;stroke-linejoin:miter;stroke-opacity:1" d="M 768.155,654.233 759.392,671.76 z" id="boundary" inkscape:connector-curvature="0" />
	<path style="fill:none;stroke:red;stroke-width:1px;stroke-linecap:butt;stroke-linejoin:miter;stroke-opacity:1" d="M 768.155,654.233 768.155,636.707 z" id="boundary" inkscape:connector-curvature="0" />
	<path style="fill:none;stroke:red;stroke-width:1px;stroke-linecap:butt;stroke-linejoin:miter;stroke-opacity:1" d="M 696.297,698.049 713.823,698.049 z" id="boundary" inkscape:connector-curvature="0" />
	<path style="fill:none;stroke:red;stroke-width:1px;stroke-linecap:butt;stroke-linejoin:miter;stroke-opacity:1" d="M 745.371,687.534 731.35,698.049 z" id="boundary" inkscape:connector-curvature="0" />
	<path style="fill:none;stroke:red;stroke-width:1px;stroke-linecap:butt;stroke-linejoin:miter;stroke-opacity:1" d="M 731.35,698.049 713.823,698.049 z" id="boundary" inkscape:connector-curvature="0" />
	<path style="fill:none;stroke:red;stroke-width:1px;stroke-linecap:butt;stroke-linejoin:miter;stroke-opacity:1" d="M 745.371,687.534 759.392,671.76 z" id="boundary" inkscape:connector-curvature="0" />
	<path style="fill:none;stroke:red;stroke-width:1px;stroke-linecap:butt;stroke-linejoin:miter;stroke-opacity:1" d="M 776.919,584.127 776.919,601.654 z" id="boundary" inkscape:connector-curvature="0" />
	<path style="fill:none;stroke:red;stroke-width:1px;stroke-linecap:butt;stroke-linejoin:miter;stroke-opacity:1" d="M 803.208,496.495 817.23,484.226 z" id="boundary" inkscape:connector-curvature="0" />
	<path style="fill:none;stroke:red;stroke-width:1px;stroke-linecap:butt;stroke-linejoin:miter;stroke-opacity:1" d="M 803.208,496.495 794.445,514.021 z" id="boundary" inkscape:connector-curvature="0" />
	<path style="fill:none;stroke:red;stroke-width:1px;stroke-linecap:butt;stroke-linejoin:miter;stroke-opacity:1" d="M 836.509,485.979 836.509,503.505 z" id="boundary" inkscape:connector-curvature="0" />
	<path style="fill:none;stroke:red;stroke-width:1px;stroke-linecap:butt;stroke-linejoin:miter;stroke-opacity:1" d="M 827.746,470.205 836.509,485.979 z" id="boundary" inkscape:connector-curvature="0" />
	<path style="fill:none;stroke:red;stroke-width:1px;stroke-linecap:butt;stroke-linejoin:miter;stroke-opacity:1" d="M 836.509,503.505 836.509,521.032 z" id="boundary" inkscape:connector-curvature="0" />
	<path style="fill:none;stroke:red;stroke-width:1px;stroke-linecap:butt;stroke-linejoin:miter;stroke-opacity:1" d="M 785.682,549.074 785.682,531.548 z" id="boundary" inkscape:connector-curvature="0" />
	<path style="fill:none;stroke:red;stroke-width:1px;stroke-linecap:butt;stroke-linejoin:miter;stroke-opacity:1" d="M 836.509,521.032 836.509,538.558 z" id="boundary" inkscape:connector-curvature="0" />
	<path style="fill:none;stroke:red;stroke-width:1px;stroke-linecap:butt;stroke-linejoin:miter;stroke-opacity:1" d="M 785.682,531.548 794.445,514.021 z" id="boundary" inkscape:connector-curvature="0" />
	<path style="fill:none;stroke:red;stroke-width:1px;stroke-linecap:butt;stroke-linejoin:miter;stroke-opacity:1" d="M 836.509,538.558 836.509,556.085 z" id="boundary" inkscape:connector-curvature="0" />
	<path style="fill:none;stroke:red;stroke-width:1px;stroke-linecap:butt;stroke-linejoin:miter;stroke-opacity:1" d="M 908.367,531.548 908.367,549.074 z" id="boundary" inkscape:connector-curvature="0" />
	<path style="fill:none;stroke:red;stroke-width:1px;stroke-linecap:butt;stroke-linejoin:miter;stroke-opacity:1" d="M 917.131,496.495 917.131,514.021 z" id="boundary" inkscape:connector-curvature="0" />
	<path style="fill:none;stroke:red;stroke-width:1px;stroke-linecap:butt;stroke-linejoin:miter;stroke-opacity:1" d="M 917.131,514.021 908.367,531.548 z" id="boundary" inkscape:connector-curvature="0" />
	<path style="fill:none;stroke:red;stroke-width:1px;stroke-linecap:butt;stroke-linejoin:miter;stroke-opacity:1" d="M 917.131,496.495 917.131,478.968 z" id="boundary" inkscape:connector-curvature="0" />
	<path style="fill:none;stroke:red;stroke-width:1px;stroke-linecap:butt;stroke-linejoin:miter;stroke-opacity:1" d="M 836.509,556.085 836.509,573.611 z" id="boundary" inkscape:connector-curvature="0" />
	<path style="fill:none;stroke:red;stroke-width:1px;stroke-linecap:butt;stroke-linejoin:miter;stroke-opacity:1" d="M 899.604,566.601 908.367,549.074 z" id="boundary" inkscape:connector-curvature="0" />
	<path style="fill:none;stroke:red;stroke-width:1px;stroke-linecap:butt;stroke-linejoin:miter;stroke-opacity:1" d="M 903.11,584.127 899.604,566.601 z" id="boundary" inkscape:connector-curvature="0" />
	<path style="fill:none;stroke:red;stroke-width:1px;stroke-linecap:butt;stroke-linejoin:miter;stroke-opacity:1" d="M 903.11,584.127 899.604,601.654 z" id="boundary" inkscape:connector-curvature="0" />
	<path style="fill:none;stroke:red;stroke-width:1px;stroke-linecap:butt;stroke-linejoin:miter;stroke-opacity:1" d="M 836.509,573.611 827.746,605.159 z" id="boundary" inkscape:connector-curvature="0" />
	<path style="fill:none;stroke:red;stroke-width:1px;stroke-linecap:butt;stroke-linejoin:miter;stroke-opacity:1" d="M 776.919,601.654 776.919,619.18 z" id="boundary" inkscape:connector-curvature="0" />
	<path style="fill:none;stroke:red;stroke-width:1px;stroke-linecap:butt;stroke-linejoin:miter;stroke-opacity:1" d="M 806.714,652.481 818.982,622.686 z" id="boundary" inkscape:connector-curvature="0" />
	<path style="fill:none;stroke:red;stroke-width:1px;stroke-linecap:butt;stroke-linejoin:miter;stroke-opacity:1" d="M 827.746,605.159 818.982,622.686 z" id="boundary" inkscape:connector-curvature="0" />
	<path style="fill:none;stroke:red;stroke-width:1px;stroke-linecap:butt;stroke-linejoin:miter;stroke-opacity:1" d="M 783.929,684.028 792.693,666.502 z" id="boundary" inkscape:connector-curvature="0" />
	<path style="fill:none;stroke:red;stroke-width:1px;stroke-linecap:butt;stroke-linejoin:miter;stroke-opacity:1" d="M 794.445,698.049 783.929,684.028 z" id="boundary" inkscape:connector-curvature="0" />
	<path style="fill:none;stroke:red;stroke-width:1px;stroke-linecap:butt;stroke-linejoin:miter;stroke-opacity:1" d="M 811.972,698.049 794.445,698.049 z" id="boundary" inkscape:connector-curvature="0" />
	<path style="fill:none;stroke:red;stroke-width:1px;stroke-linecap:butt;stroke-linejoin:miter;stroke-opacity:1" d="M 792.693,666.502 806.714,652.481 z" id="boundary" inkscape:connector-curvature="0" />
	<path style="fill:none;stroke:red;stroke-width:1px;stroke-linecap:butt;stroke-linejoin:miter;stroke-opacity:1" d="M 829.498,698.049 811.972,698.049 z" id="boundary" inkscape:connector-curvature="0" />
	<path style="fill:none;stroke:red;stroke-width:1px;stroke-linecap:butt;stroke-linejoin:miter;stroke-opacity:1" d="M 899.604,619.18 903.11,636.707 z" id="boundary" inkscape:connector-curvature="0" />
	<path style="fill:none;stroke:red;stroke-width:1px;stroke-linecap:butt;stroke-linejoin:miter;stroke-opacity:1" d="M 899.604,619.18 899.604,601.654 z" id="boundary" inkscape:connector-curvature="0" />
	<path style="fill:none;stroke:red;stroke-width:1px;stroke-linecap:butt;stroke-linejoin:miter;stroke-opacity:1" d="M 903.11,636.707 904.862,668.254 z" id="boundary" inkscape:connector-curvature="0" />
	<path style="fill:none;stroke:red;stroke-width:1px;stroke-linecap:butt;stroke-linejoin:miter;stroke-opacity:1" d="M 829.498,698.049 847.025,698.049 z" id="boundary" inkscape:connector-curvature="0" />
	<path style="fill:none;stroke:red;stroke-width:1px;stroke-linecap:butt;stroke-linejoin:miter;stroke-opacity:1" d="M 896.099,685.781 882.078,698.049 z" id="boundary" inkscape:connector-curvature="0" />
	<path style="fill:none;stroke:red;stroke-width:1px;stroke-linecap:butt;stroke-linejoin:miter;stroke-opacity:1" d="M 882.078,698.049 864.551,698.049 z" id="boundary" inkscape:connector-curvature="0" />
	<path style="fill:none;stroke:red;stroke-width:1px;stroke-linecap:butt;stroke-linejoin:miter;stroke-opacity:1" d="M 864.551,698.049 847.025,698.049 z" id="boundary" inkscape:connector-curvature="0" />
	<path style="fill:none;stroke:red;stroke-width:1px;stroke-linecap:butt;stroke-linejoin:miter;stroke-opacity:1" d="M 904.862,668.254 896.099,685.781 z" id="boundary" inkscape:connector-curvature="0" />
	<circle cx="4" cy="727.845" r="4" fill="#0" id="circle0"/>
	<circle cx="12.7633" cy="710.318" r="4" fill="#0" id="circle1"/>
	<circle cx="14.5159" cy="741.866" r="4" fill="#0" id="circle2"/>
	<circle cx="21.5265" cy="692.792" r="4" fill="#0" id="circle3"/>
	<circle cx="30.2898" cy="750.629" r="4" fill="#0" id="circle4"/>
	<circle cx="35.5477" cy="678.77" r="4" fill="#0" id="circle5"/>
	<circle cx="40.8057" cy="733.102" r="4" fill="#0" id="circle6"/>
	<circle cx="44.311" cy="661.244" r="4" fill="#0" id="circle7"/>
	<circle cx="49.5689" cy="715.576" r="4" fill="#0" id="circle8"/>
	<circle cx="53.0742" cy="643.717" r="4" fill="#0" id="circle9"/>
	<circle cx="56.5795" cy="613.922" r="4" fill="#0" id="circle10"/>
	<circle cx="63.5901" cy="703.307" r="4" fill="#0" id="circle11"/>
	<circle cx="65.3428" cy="570.106" r="4" fill="#0" id="circle12"/>
	<circle cx="65.3428" cy="587.633" r="4" fill="#0" id="circle13"/>
	<circle cx="72.3534" cy="685.781" r="4" fill="#0" id="circle14"/>
	<circle cx="74.106" cy="421.131" r="4" fill="#0" id="circle15"/>
	<circle cx="74.106" cy="438.657" r="4" fill="#0" id="circle16"/>
	<circle cx="74.106" cy="456.184" r="4" fill="#0" id="circle17"/>
	<circle cx="74.106" cy="473.71" r="4" fill="#0" id="circle18"/>
	<circle cx="74.106" cy="491.237" r="4" fill="#0" id="circle19"/>
	<circle cx="74.106" cy="508.763" r="4" fill="#0" id="circle20"/>
	<circle cx="74.106" cy="526.29" r="4" fill="#0" id="circle21"/>
	<circle cx="74.106" cy="543.816" r="4" fill="#0" id="circle22"/>
	<circle cx="81.1166" cy="668.254" r="4" fill="#0" id="circle23"/>
	<circle cx="82.8693" cy="386.078" r="4" fill="#0" id="circle24"/>
	<circle cx="82.8693" cy="403.604" r="4" fill="#0" id="circle25"/>
	<circle cx="89.8799" cy="650.728" r="4" fill="#0" id="circle26"/>
	<circle cx="91.6325" cy="359.788" r="4" fill="#0" id="circle27"/>
	<circle cx="93.3852" cy="627.943" r="4" fill="#0" id="circle28"/>
	<circle cx="100.396" cy="333.498" r="4" fill="#0" id="circle29"/>
	<circle cx="102.148" cy="610.417" r="4" fill="#0" id="circle30"/>
	<circle cx="109.159" cy="289.682" r="4" fill="#0" id="circle31"/>
	<circle cx="109.159" cy="307.208" r="4" fill="#0" id="circle32"/>
	<circle cx="110.912" cy="557.837" r="4" fill="#0" id="circle33"/>
	<circle cx="110.912" cy="575.364" r="4" fill="#0" id="circle34"/>
	<circle cx="110.912" cy="592.89" r="4" fill="#0" id="circle35"/>
	<circle cx="117.922" cy="263.392" r="4" fill="#0" id="circle36"/>
	<circle cx="119.675" cy="487.731" r="4" fill="#0" id="circle37"/>
	<circle cx="119.675" cy="505.258" r="4" fill="#0" id="circle38"/>
	<circle cx="119.675" cy="522.784" r="4" fill="#0" id="circle39"/>
	<circle cx="119.675" cy="540.311" r="4" fill="#0" id="circle40"/>
	<circle cx="126.686" cy="219.576" r="4" fill="#0" id="circle41"/>
	<circle cx="126.686" cy="237.102" r="4" fill="#0" id="circle42"/>
	<circle cx="128.438" cy="417.625" r="4" fill="#0" id="circle43"/>
	<circle cx="128.438" cy="435.152" r="4" fill="#0" id="circle44"/>
	<circle cx="128.438" cy="452.678" r="4" fill="#0" id="circle45"/>
	<circle cx="128.438" cy="470.205" r="4" fill="#0" id="circle46"/>
	<circle cx="135.449" cy="202.049" r="4" fill="#0" id="circle47"/>
	<circle cx="137.201" cy="400.099" r="4" fill="#0" id="circle48"/>
	<circle cx="144.212" cy="175.76" r="4" fill="#0" id="circle49"/>
	<circle cx="145.965" cy="373.809" r="4" fill="#0" id="circle50"/>
	<circle cx="152.975" cy="158.233" r="4" fill="#0" id="circle51"/>
	<circle cx="159.986" cy="361.541" r="4" fill="#0" id="circle52"/>
	<circle cx="161.739" cy="140.707" r="4" fill="#0" id="circle53"/>
	<circle cx="175.76" cy="126.686" r="4" fill="#0" id="circle54"/>
	<circle cx="177.512" cy="352.777" r="4" fill="#0" id="circle55"/>
	<circle cx="184.523" cy="109.159" r="4" fill="#0" id="circle56"/>
	<circle cx="195.039" cy="347.519" r="4" fill="#0" id="circle57"/>
	<circle cx="202.049" cy="100.396" r="4" fill="#0" id="circle58"/>
	<circle cx="212.565" cy="344.014" r="4" fill="#0" id="circle59"/>
	<circle cx="219.576" cy="91.6325" r="4" fill="#0" id="circle60"/>
	<circle cx="230.092" cy="335.251" r="4" fill="#0" id="circle61"/>
	<circle cx="237.102" cy="91.6325" r="4" fill="#0" id="circle62"/>
	<circle cx="247.618" cy="326.488" r="4" fill="#0" id="circle63"/>
	<circle cx="252.876" cy="82.8693" r="4" fill="#0" id="circle64"/>
	<circle cx="258.134" cy="340.509" r="4" fill="#0" id="circle65"/>
	<circle cx="266.898" cy="356.283" r="4" fill="#0" id="circle66"/>
	<circle cx="266.898" cy="373.809" r="4" fill="#0" id="circle67"/>
	<circle cx="268.65" cy="91.6325" r="4" fill="#0" id="circle68"/>
	<circle cx="282.671" cy="382.572" r="4" fill="#0" id="circle69"/>
	<circle cx="284.424" cy="79.364" r="4" fill="#0" id="circle70"/>
	<circle cx="298.445" cy="65.3428" r="4" fill="#0" id="circle71"/>
	<circle cx="300.198" cy="382.572" r="4" fill="#0" id="circle72"/>
	<circle cx="314.219" cy="56.5795" r="4" fill="#0" id="circle73"/>
	<circle cx="317.724" cy="379.067" r="4" fill="#0" id="circle74"/>
	<circle cx="328.24" cy="44.311" r="4" fill="#0" id="circle75"/>
	<circle cx="335.251" cy="370.304" r="4" fill="#0" id="circle76"/>
	<circle cx="337.004" cy="403.604" r="4" fill="#0" id="circle77"/>
	<circle cx="337.004" cy="421.131" r="4" fill="#0" id="circle78"/>
	<circle cx="337.004" cy="438.657" r="4" fill="#0" id="circle79"/>
	<circle cx="337.004" cy="456.184" r="4" fill="#0" id="circle80"/>
	<circle cx="337.004" cy="666.502" r="4" fill="#0" id="circle81"/>
	<circle cx="337.004" cy="684.028" r="4" fill="#0" id="circle82"/>
	<circle cx="337.004" cy="701.555" r="4" fill="#0" id="circle83"/>
	<circle cx="345.767" cy="39.053" r="4" fill="#0" id="circle84"/>
	<circle cx="345.767" cy="384.325" r="4" fill="#0" id="circle85"/>
	<circle cx="345.767" cy="471.958" r="4" fill="#0" id="circle86"/>
	<circle cx="345.767" cy="648.975" r="4" fill="#0" id="circle87"/>
	<circle cx="352.777" cy="365.046" r="4" fill="#0" id="circle88"/>
	<circle cx="354.53" cy="487.731" r="4" fill="#0" id="circle89"/>
	<circle cx="354.53" cy="505.258" r="4" fill="#0" id="circle90"/>
	<circle cx="354.53" cy="522.784" r="4" fill="#0" id="circle91"/>
	<circle cx="354.53" cy="540.311" r="4" fill="#0" id="circle92"/>
	<circle cx="354.53" cy="557.837" r="4" fill="#0" id="circle93"/>
	<circle cx="354.53" cy="575.364" r="4" fill="#0" id="circle94"/>
	<circle cx="354.53" cy="592.89" r="4" fill="#0" id="circle95"/>
	<circle cx="354.53" cy="610.417" r="4" fill="#0" id="circle96"/>
	<circle cx="354.53" cy="627.943" r="4" fill="#0" id="circle97"/>
	<circle cx="354.53" cy="706.813" r="4" fill="#0" id="circle98"/>
	<circle cx="361.541" cy="30.2898" r="4" fill="#0" id="circle99"/>
	<circle cx="372.057" cy="706.813" r="4" fill="#0" id="circle100"/>
	<circle cx="377.314" cy="21.5265" r="4" fill="#0" id="circle101"/>
	<circle cx="389.583" cy="706.813" r="4" fill="#0" id="circle102"/>
	<circle cx="394.841" cy="21.5265" r="4" fill="#0" id="circle103"/>
	<circle cx="407.11" cy="706.813" r="4" fill="#0" id="circle104"/>
	<circle cx="412.367" cy="21.5265" r="4" fill="#0" id="circle105"/>
	<circle cx="424.636" cy="701.555" r="4" fill="#0" id="circle106"/>
	<circle cx="426.389" cy="601.654" r="4" fill="#0" id="circle107"/>
	<circle cx="426.389" cy="619.18" r="4" fill="#0" id="circle108"/>
	<circle cx="426.389" cy="636.707" r="4" fill="#0" id="circle109"/>
	<circle cx="426.389" cy="654.233" r="4" fill="#0" id="circle110"/>
	<circle cx="429.894" cy="21.5265" r="4" fill="#0" id="circle111"/>
	<circle cx="429.894" cy="671.76" r="4" fill="#0" id="circle112"/>
	<circle cx="435.152" cy="531.548" r="4" fill="#0" id="circle113"/>
	<circle cx="435.152" cy="549.074" r="4" fill="#0" id="circle114"/>
	<circle cx="435.152" cy="566.601" r="4" fill="#0" id="circle115"/>
	<circle cx="435.152" cy="584.127" r="4" fill="#0" id="circle116"/>
	<circle cx="443.915" cy="487.731" r="4" fill="#0" id="circle117"/>
	<circle cx="443.915" cy="505.258" r="4" fill="#0" id="circle118"/>
	<circle cx="447.42" cy="21.5265" r="4" fill="#0" id="circle119"/>
	<circle cx="459.689" cy="514.021" r="4" fill="#0" id="circle120"/>
	<circle cx="463.194" cy="30.2898" r="4" fill="#0" id="circle121"/>
	<circle cx="468.452" cy="692.792" r="4" fill="#0" id="circle122"/>
	<circle cx="470.205" cy="528.042" r="4" fill="#0" id="circle123"/>
	<circle cx="477.216" cy="545.569" r="4" fill="#0" id="circle124"/>
	<circle cx="477.216" cy="675.265" r="4" fill="#0" id="circle125"/>
	<circle cx="480.721" cy="30.2898" r="4" fill="#0" id="circle126"/>
	<circle cx="485.979" cy="561.343" r="4" fill="#0" id="circle127"/>
	<circle cx="485.979" cy="657.739" r="4" fill="#0" id="circle128"/>
	<circle cx="485.979" cy="698.049" r="4" fill="#0" id="circle129"/>
	<circle cx="494.742" cy="577.117" r="4" fill="#0" id="circle130"/>
	<circle cx="494.742" cy="594.643" r="4" fill="#0" id="circle131"/>
	<circle cx="494.742" cy="612.17" r="4" fill="#0" id="circle132"/>
	<circle cx="494.742" cy="640.212" r="4" fill="#0" id="circle133"/>
	<circle cx="498.247" cy="30.2898" r="4" fill="#0" id="circle134"/>
	<circle cx="503.505" cy="698.049" r="4" fill="#0" id="circle135"/>
	<circle cx="514.021" cy="39.053" r="4" fill="#0" id="circle136"/>
	<circle cx="521.032" cy="698.049" r="4" fill="#0" id="circle137"/>
	<circle cx="531.548" cy="39.053" r="4" fill="#0" id="circle138"/>
	<circle cx="538.558" cy="698.049" r="4" fill="#0" id="circle139"/>
	<circle cx="549.074" cy="39.053" r="4" fill="#0" id="circle140"/>
	<circle cx="549.074" cy="514.021" r="4" fill="#0" id="circle141"/>
	<circle cx="552.58" cy="531.548" r="4" fill="#0" id="circle142"/>
	<circle cx="556.085" cy="698.049" r="4" fill="#0" id="circle143"/>
	<circle cx="557.837" cy="487.731" r="4" fill="#0" id="circle144"/>
	<circle cx="557.837" cy="549.074" r="4" fill="#0" id="circle145"/>
	<circle cx="557.837" cy="566.601" r="4" fill="#0" id="circle146"/>
	<circle cx="557.837" cy="584.127" r="4" fill="#0" id="circle147"/>
	<circle cx="557.837" cy="601.654" r="4" fill="#0" id="circle148"/>
	<circle cx="561.343" cy="619.18" r="4" fill="#0" id="circle149"/>
	<circle cx="566.601" cy="39.053" r="4" fill="#0" id="circle150"/>
	<circle cx="566.601" cy="636.707" r="4" fill="#0" id="circle151"/>
	<circle cx="571.859" cy="475.463" r="4" fill="#0" id="circle152"/>
	<circle cx="573.611" cy="692.792" r="4" fill="#0" id="circle153"/>
	<circle cx="575.364" cy="443.915" r="4" fill="#0" id="circle154"/>
	<circle cx="575.364" cy="652.481" r="4" fill="#0" id="circle155"/>
	<circle cx="575.364" cy="670.007" r="4" fill="#0" id="circle156"/>
	<circle cx="584.127" cy="39.053" r="4" fill="#0" id="circle157"/>
	<circle cx="584.127" cy="426.389" r="4" fill="#0" id="circle158"/>
	<circle cx="599.901" cy="435.152" r="4" fill="#0" id="circle159"/>
	<circle cx="601.654" cy="39.053" r="4" fill="#0" id="circle160"/>
	<circle cx="617.428" cy="435.152" r="4" fill="#0" id="circle161"/>
	<circle cx="619.18" cy="39.053" r="4" fill="#0" id="circle162"/>
	<circle cx="633.201" cy="443.915" r="4" fill="#0" id="circle163"/>
	<circle cx="636.707" cy="39.053" r="4" fill="#0" id="circle164"/>
	<circle cx="643.717" cy="692.792" r="4" fill="#0" id="circle165"/>
	<circle cx="650.728" cy="443.915" r="4" fill="#0" id="circle166"/>
	<circle cx="652.481" cy="675.265" r="4" fill="#0" id="circle167"/>
	<circle cx="654.233" cy="39.053" r="4" fill="#0" id="circle168"/>
	<circle cx="661.244" cy="698.049" r="4" fill="#0" id="circle169"/>
	<circle cx="668.254" cy="443.915" r="4" fill="#0" id="circle170"/>
	<circle cx="670.007" cy="670.007" r="4" fill="#0" id="circle171"/>
	<circle cx="671.76" cy="33.7951" r="4" fill="#0" id="circle172"/>
	<circle cx="678.77" cy="698.049" r="4" fill="#0" id="circle173"/>
	<circle cx="680.523" cy="655.986" r="4" fill="#0" id="circle174"/>
	<circle cx="685.781" cy="443.915" r="4" fill="#0" id="circle175"/>
	<circle cx="689.286" cy="25.0318" r="4" fill="#0" id="circle176"/>
	<circle cx="696.297" cy="640.212" r="4" fill="#0" id="circle177"/>
	<circle cx="696.297" cy="698.049" r="4" fill="#0" id="circle178"/>
	<circle cx="703.307" cy="443.915" r="4" fill="#0" id="circle179"/>
	<circle cx="705.06" cy="482.473" r="4" fill="#0" id="circle180"/>
	<circle cx="705.06" cy="500" r="4" fill="#0" id="circle181"/>
	<circle cx="706.813" cy="16.2686" r="4" fill="#0" id="circle182"/>
	<circle cx="710.318" cy="626.191" r="4" fill="#0" id="circle183"/>
	<circle cx="713.823" cy="457.936" r="4" fill="#0" id="circle184"/>
	<circle cx="713.823" cy="515.774" r="4" fill="#0" id="circle185"/>
	<circle cx="713.823" cy="533.3" r="4" fill="#0" id="circle186"/>
	<circle cx="713.823" cy="550.827" r="4" fill="#0" id="circle187"/>
	<circle cx="713.823" cy="568.353" r="4" fill="#0" id="circle188"/>
	<circle cx="713.823" cy="585.88" r="4" fill="#0" id="circle189"/>
	<circle cx="713.823" cy="603.406" r="4" fill="#0" id="circle190"/>
	<circle cx="713.823" cy="698.049" r="4" fill="#0" id="circle191"/>
	<circle cx="724.339" cy="7.5053" r="4" fill="#0" id="circle192"/>
	<circle cx="731.35" cy="698.049" r="4" fill="#0" id="circle193"/>
	<circle cx="741.866" cy="4" r="4" fill="#0" id="circle194"/>
	<circle cx="745.371" cy="687.534" r="4" fill="#0" id="circle195"/>
	<circle cx="759.392" cy="4" r="4" fill="#0" id="circle196"/>
	<circle cx="759.392" cy="671.76" r="4" fill="#0" id="circle197"/>
	<circle cx="768.155" cy="636.707" r="4" fill="#0" id="circle198"/>
	<circle cx="768.155" cy="654.233" r="4" fill="#0" id="circle199"/>
	<circle cx="776.919" cy="4" r="4" fill="#0" id="circle200"/>
	<circle cx="776.919" cy="566.601" r="4" fill="#0" id="circle201"/>
	<circle cx="776.919" cy="584.127" r="4" fill="#0" id="circle202"/>
	<circle cx="776.919" cy="601.654" r="4" fill="#0" id="circle203"/>
	<circle cx="776.919" cy="619.18" r="4" fill="#0" id="circle204"/>
	<circle cx="783.929" cy="684.028" r="4" fill="#0" id="circle205"/>
	<circle cx="785.682" cy="531.548" r="4" fill="#0" id="circle206"/>
	<circle cx="785.682" cy="549.074" r="4" fill="#0" id="circle207"/>
	<circle cx="792.693" cy="12.7633" r="4" fill="#0" id="circle208"/>
	<circle cx="792.693" cy="666.502" r="4" fill="#0" id="circle209"/>
	<circle cx="794.445" cy="514.021" r="4" fill="#0" id="circle210"/>
	<circle cx="794.445" cy="698.049" r="4" fill="#0" id="circle211"/>
	<circle cx="803.208" cy="496.495" r="4" fill="#0" id="circle212"/>
	<circle cx="806.714" cy="652.481" r="4" fill="#0" id="circle213"/>
	<circle cx="808.466" cy="21.5265" r="4" fill="#0" id="circle214"/>
	<circle cx="811.972" cy="698.049" r="4" fill="#0" id="circle215"/>
	<circle cx="817.23" cy="484.226" r="4" fill="#0" id="circle216"/>
	<circle cx="818.982" cy="622.686" r="4" fill="#0" id="circle217"/>
	<circle cx="825.993" cy="23.2792" r="4" fill="#0" id="circle218"/>
	<circle cx="827.746" cy="470.205" r="4" fill="#0" id="circle219"/>
	<circle cx="827.746" cy="605.159" r="4" fill="#0" id="circle220"/>
	<circle cx="829.498" cy="698.049" r="4" fill="#0" id="circle221"/>
	<circle cx="836.509" cy="485.979" r="4" fill="#0" id="circle222"/>
	<circle cx="836.509" cy="503.505" r="4" fill="#0" id="circle223"/>
	<circle cx="836.509" cy="521.032" r="4" fill="#0" id="circle224"/>
	<circle cx="836.509" cy="538.558" r="4" fill="#0" id="circle225"/>
	<circle cx="836.509" cy="556.085" r="4" fill="#0" id="circle226"/>
	<circle cx="836.509" cy="573.611" r="4" fill="#0" id="circle227"/>
	<circle cx="838.261" cy="37.3004" r="4" fill="#0" id="circle228"/>
	<circle cx="847.025" cy="698.049" r="4" fill="#0" id="circle229"/>
	<circle cx="855.788" cy="44.311" r="4" fill="#0" id="circle230"/>
	<circle cx="864.551" cy="698.049" r="4" fill="#0" id="circle231"/>
	<circle cx="868.057" cy="58.3322" r="4" fill="#0" id="circle232"/>
	<circle cx="882.078" cy="70.6007" r="4" fill="#0" id="circle233"/>
	<circle cx="882.078" cy="698.049" r="4" fill="#0" id="circle234"/>
	<circle cx="894.346" cy="84.6219" r="4" fill="#0" id="circle235"/>
	<circle cx="896.099" cy="685.781" r="4" fill="#0" id="circle236"/>
	<circle cx="899.604" cy="566.601" r="4" fill="#0" id="circle237"/>
	<circle cx="899.604" cy="601.654" r="4" fill="#0" id="circle238"/>
	<circle cx="899.604" cy="619.18" r="4" fill="#0" id="circle239"/>
	<circle cx="903.11" cy="584.127" r="4" fill="#0" id="circle240"/>
	<circle cx="903.11" cy="636.707" r="4" fill="#0" id="circle241"/>
	<circle cx="904.862" cy="668.254" r="4" fill="#0" id="circle242"/>
	<circle cx="908.367" cy="96.8905" r="4" fill="#0" id="circle243"/>
	<circle cx="908.367" cy="531.548" r="4" fill="#0" id="circle244"/>
	<circle cx="908.367" cy="549.074" r="4" fill="#0" id="circle245"/>
	<circle cx="917.131" cy="478.968" r="4" fill="#0" id="circle246"/>
	<circle cx="917.131" cy="496.495" r="4" fill="#0" id="circle247"/>
	<circle cx="917.131" cy="514.021" r="4" fill="#0" id="circle248"/>
	<circle cx="920.636" cy="110.912" r="4" fill="#0" id="circle249"/>
	<circle cx="925.894" cy="400.099" r="4" fill="#0" id="circle250"/>
	<circle cx="925.894" cy="417.625" r="4" fill="#0" id="circle251"/>
	<circle cx="925.894" cy="435.152" r="4" fill="#0" id="circle252"/>
	<circle cx="925.894" cy="452.678" r="4" fill="#0" id="circle253"/>
	<circle cx="929.399" cy="126.686" r="4" fill="#0" id="circle254"/>
	<circle cx="934.657" cy="356.283" r="4" fill="#0" id="circle255"/>
	<circle cx="934.657" cy="373.809" r="4" fill="#0" id="circle256"/>
	<circle cx="941.668" cy="140.707" r="4" fill="#0" id="circle257"/>
	<circle cx="943.42" cy="312.466" r="4" fill="#0" id="circle258"/>
	<circle cx="943.42" cy="329.993" r="4" fill="#0" id="circle259"/>
	<circle cx="950.431" cy="156.481" r="4" fill="#0" id="circle260"/>
	<circle cx="952.184" cy="294.94" r="4" fill="#0" id="circle261"/>
	<circle cx="959.194" cy="351.025" r="4" fill="#0" id="circle262"/>
	<circle cx="959.194" cy="368.551" r="4" fill="#0" id="circle263"/>
	<circle cx="959.194" cy="386.078" r="4" fill="#0" id="circle264"/>
	<circle cx="959.194" cy="403.604" r="4" fill="#0" id="circle265"/>
	<circle cx="959.194" cy="421.131" r="4" fill="#0" id="circle266"/>
	<circle cx="959.194" cy="438.657" r="4" fill="#0" id="circle267"/>
	<circle cx="959.194" cy="456.184" r="4" fill="#0" id="circle268"/>
	<circle cx="960.947" cy="170.502" r="4" fill="#0" id="circle269"/>
	<circle cx="960.947" cy="188.028" r="4" fill="#0" id="circle270"/>
	<circle cx="967.958" cy="303.703" r="4" fill="#0" id="circle271"/>
	<circle cx="967.958" cy="321.23" r="4" fill="#0" id="circle272"/>
	<circle cx="973.216" cy="468.452" r="4" fill="#0" id="circle273"/>
	<circle cx="974.968" cy="198.544" r="4" fill="#0" id="circle274"/>
	<circle cx="978.473" cy="216.071" r="4" fill="#0" id="circle275"/>
	<circle cx="978.473" cy="400.099" r="4" fill="#0" id="circle276"/>
	<circle cx="978.473" cy="417.625" r="4" fill="#0" id="circle277"/>
	<circle cx="978.473" cy="435.152" r="4" fill="#0" id="circle278"/>
	<circle cx="987.237" cy="231.845" r="4" fill="#0" id="circle279"/>
	<circle cx="987.237" cy="249.371" r="4" fill="#0" id="circle280"/>
	<circle cx="987.237" cy="266.898" r="4" fill="#0" id="circle281"/>
	<circle cx="987.237" cy="284.424" r="4" fill="#0" id="circle282"/>
	<circle cx="987.237" cy="321.23" r="4" fill="#0" id="circle283"/>
	<circle cx="987.237" cy="338.756" r="4" fill="#0" id="circle284"/>
	<circle cx="987.237" cy="356.283" r="4" fill="#0" id="circle285"/>
	<circle cx="987.237" cy="373.809" r="4" fill="#0" id="circle286"/>
	<circle cx="996" cy="300.198" r="4" fill="#0" id="circle287"/>
	</g>
</svg>