<?xml version="1.0" encoding="UTF-8" standalone="no"?>
<!-- Created with CurveBenchmark -->
<svg
	xmlns:dc="http://purl.org/dc/elements/1.1/"
	xmlns:cc="http://creativecommons.org/ns#"
	xmlns:rdf="http://www.w3.org/1999/02/22-rdf-syntax-ns#"
	xmlns:svg="http://www.w3.org/2000/svg"
	xmlns="http://www.w3.org/2000/svg"
	xmlns:sodipodi="http://sodipodi.sourceforge.net/DTD/sodipodi-0.dtd"
	xmlns:inkscape="http://www.inkscape.org/namespaces/inkscape"
	width="1000"
	height="1000"
	id="svg2"
	version="1.1"
	sodipodi:docname="manifold/gathan1-fish0706.png.txt">
<defs
	id="defs4" />
<metadata
	id="metadata7">
	<rdf:RDF>
		<cc:Work
			rdf:about="">
			<dc:format>image/svg+xml</dc:format>
			<dc:type
				rdf:resource="http://purl.org/dc/dcmitype/StillImage" />
			<dc:title></dc:title>
		</cc:Work>
	</rdf:RDF>
</metadata>
<g
	inkscape:label="Layer 1"
	inkscape:groupmode="layer"
	id="layer1">
	<path style="fill:none;stroke:red;stroke-width:1px;stroke-linecap:butt;stroke-linejoin:miter;stroke-opacity:1" d="M 152.945,97.9942 167.405,97.9942 z" id="boundary" inkscape:connector-curvature="0" />
	<path style="fill:none;stroke:red;stroke-width:1px;stroke-linecap:butt;stroke-linejoin:miter;stroke-opacity:1" d="M 139.93,105.224 152.945,97.9942 z" id="boundary" inkscape:connector-curvature="0" />
	<path style="fill:none;stroke:red;stroke-width:1px;stroke-linecap:butt;stroke-linejoin:miter;stroke-opacity:1" d="M 180.42,90.7638 167.405,97.9942 z" id="boundary" inkscape:connector-curvature="0" />
	<path style="fill:none;stroke:red;stroke-width:1px;stroke-linecap:butt;stroke-linejoin:miter;stroke-opacity:1" d="M 112.455,112.455 125.469,105.224 z" id="boundary" inkscape:connector-curvature="0" />
	<path style="fill:none;stroke:red;stroke-width:1px;stroke-linecap:butt;stroke-linejoin:miter;stroke-opacity:1" d="M 125.469,105.224 139.93,105.224 z" id="boundary" inkscape:connector-curvature="0" />
	<path style="fill:none;stroke:red;stroke-width:1px;stroke-linecap:butt;stroke-linejoin:miter;stroke-opacity:1" d="M 112.455,112.455 97.9942,116.793 z" id="boundary" inkscape:connector-curvature="0" />
	<path style="fill:none;stroke:red;stroke-width:1px;stroke-linecap:butt;stroke-linejoin:miter;stroke-opacity:1" d="M 222.356,83.5335 236.816,83.5335 z" id="boundary" inkscape:connector-curvature="0" />
	<path style="fill:none;stroke:red;stroke-width:1px;stroke-linecap:butt;stroke-linejoin:miter;stroke-opacity:1" d="M 209.341,90.7638 222.356,83.5335 z" id="boundary" inkscape:connector-curvature="0" />
	<path style="fill:none;stroke:red;stroke-width:1px;stroke-linecap:butt;stroke-linejoin:miter;stroke-opacity:1" d="M 180.42,90.7638 194.88,90.7638 z" id="boundary" inkscape:connector-curvature="0" />
	<path style="fill:none;stroke:red;stroke-width:1px;stroke-linecap:butt;stroke-linejoin:miter;stroke-opacity:1" d="M 209.341,90.7638 194.88,90.7638 z" id="boundary" inkscape:connector-curvature="0" />
	<path style="fill:none;stroke:red;stroke-width:1px;stroke-linecap:butt;stroke-linejoin:miter;stroke-opacity:1" d="M 15.5685,148.606 30.0292,148.606 z" id="boundary" inkscape:connector-curvature="0" />
	<path style="fill:none;stroke:red;stroke-width:1px;stroke-linecap:butt;stroke-linejoin:miter;stroke-opacity:1" d="M 43.0437,141.376 30.0292,148.606 z" id="boundary" inkscape:connector-curvature="0" />
	<path style="fill:none;stroke:red;stroke-width:1px;stroke-linecap:butt;stroke-linejoin:miter;stroke-opacity:1" d="M 11.2303,173.19 4,160.175 z" id="boundary" inkscape:connector-curvature="0" />
	<path style="fill:none;stroke:red;stroke-width:1px;stroke-linecap:butt;stroke-linejoin:miter;stroke-opacity:1" d="M 4,160.175 15.5685,148.606 z" id="boundary" inkscape:connector-curvature="0" />
	<path style="fill:none;stroke:red;stroke-width:1px;stroke-linecap:butt;stroke-linejoin:miter;stroke-opacity:1" d="M 25.691,178.974 11.2303,173.19 z" id="boundary" inkscape:connector-curvature="0" />
	<path style="fill:none;stroke:red;stroke-width:1px;stroke-linecap:butt;stroke-linejoin:miter;stroke-opacity:1" d="M 25.691,178.974 38.7055,186.204 z" id="boundary" inkscape:connector-curvature="0" />
	<path style="fill:none;stroke:red;stroke-width:1px;stroke-linecap:butt;stroke-linejoin:miter;stroke-opacity:1" d="M 97.9942,116.793 83.5335,124.023 z" id="boundary" inkscape:connector-curvature="0" />
	<path style="fill:none;stroke:red;stroke-width:1px;stroke-linecap:butt;stroke-linejoin:miter;stroke-opacity:1" d="M 83.5335,124.023 69.0729,126.915 z" id="boundary" inkscape:connector-curvature="0" />
	<path style="fill:none;stroke:red;stroke-width:1px;stroke-linecap:butt;stroke-linejoin:miter;stroke-opacity:1" d="M 56.0583,134.146 69.0729,126.915 z" id="boundary" inkscape:connector-curvature="0" />
	<path style="fill:none;stroke:red;stroke-width:1px;stroke-linecap:butt;stroke-linejoin:miter;stroke-opacity:1" d="M 51.7201,193.434 38.7055,186.204 z" id="boundary" inkscape:connector-curvature="0" />
	<path style="fill:none;stroke:red;stroke-width:1px;stroke-linecap:butt;stroke-linejoin:miter;stroke-opacity:1" d="M 56.0583,134.146 43.0437,141.376 z" id="boundary" inkscape:connector-curvature="0" />
	<path style="fill:none;stroke:red;stroke-width:1px;stroke-linecap:butt;stroke-linejoin:miter;stroke-opacity:1" d="M 414.682,32.9213 424.805,21.3528 z" id="boundary" inkscape:connector-curvature="0" />
	<path style="fill:none;stroke:red;stroke-width:1px;stroke-linecap:butt;stroke-linejoin:miter;stroke-opacity:1" d="M 436.373,11.2303 424.805,21.3528 z" id="boundary" inkscape:connector-curvature="0" />
	<path style="fill:none;stroke:red;stroke-width:1px;stroke-linecap:butt;stroke-linejoin:miter;stroke-opacity:1" d="M 391.545,54.6122 403.114,43.0437 z" id="boundary" inkscape:connector-curvature="0" />
	<path style="fill:none;stroke:red;stroke-width:1px;stroke-linecap:butt;stroke-linejoin:miter;stroke-opacity:1" d="M 414.682,32.9213 403.114,43.0437 z" id="boundary" inkscape:connector-curvature="0" />
	<path style="fill:none;stroke:red;stroke-width:1px;stroke-linecap:butt;stroke-linejoin:miter;stroke-opacity:1" d="M 449.388,4 463.848,4 z" id="boundary" inkscape:connector-curvature="0" />
	<path style="fill:none;stroke:red;stroke-width:1px;stroke-linecap:butt;stroke-linejoin:miter;stroke-opacity:1" d="M 463.848,4 468.187,18.4606 z" id="boundary" inkscape:connector-curvature="0" />
	<path style="fill:none;stroke:red;stroke-width:1px;stroke-linecap:butt;stroke-linejoin:miter;stroke-opacity:1" d="M 468.187,18.4606 468.187,32.9213 z" id="boundary" inkscape:connector-curvature="0" />
	<path style="fill:none;stroke:red;stroke-width:1px;stroke-linecap:butt;stroke-linejoin:miter;stroke-opacity:1" d="M 468.187,32.9213 468.187,47.3819 z" id="boundary" inkscape:connector-curvature="0" />
	<path style="fill:none;stroke:red;stroke-width:1px;stroke-linecap:butt;stroke-linejoin:miter;stroke-opacity:1" d="M 486.985,83.5335 475.417,74.8571 z" id="boundary" inkscape:connector-curvature="0" />
	<path style="fill:none;stroke:red;stroke-width:1px;stroke-linecap:butt;stroke-linejoin:miter;stroke-opacity:1" d="M 468.187,61.8426 468.187,47.3819 z" id="boundary" inkscape:connector-curvature="0" />
	<path style="fill:none;stroke:red;stroke-width:1px;stroke-linecap:butt;stroke-linejoin:miter;stroke-opacity:1" d="M 475.417,74.8571 468.187,61.8426 z" id="boundary" inkscape:connector-curvature="0" />
	<path style="fill:none;stroke:red;stroke-width:1px;stroke-linecap:butt;stroke-linejoin:miter;stroke-opacity:1" d="M 436.373,11.2303 449.388,4 z" id="boundary" inkscape:connector-curvature="0" />
	<path style="fill:none;stroke:red;stroke-width:1px;stroke-linecap:butt;stroke-linejoin:miter;stroke-opacity:1" d="M 294.659,76.3032 309.12,76.3032 z" id="boundary" inkscape:connector-curvature="0" />
	<path style="fill:none;stroke:red;stroke-width:1px;stroke-linecap:butt;stroke-linejoin:miter;stroke-opacity:1" d="M 280.198,79.1953 294.659,76.3032 z" id="boundary" inkscape:connector-curvature="0" />
	<path style="fill:none;stroke:red;stroke-width:1px;stroke-linecap:butt;stroke-linejoin:miter;stroke-opacity:1" d="M 280.198,79.1953 265.738,83.5335 z" id="boundary" inkscape:connector-curvature="0" />
	<path style="fill:none;stroke:red;stroke-width:1px;stroke-linecap:butt;stroke-linejoin:miter;stroke-opacity:1" d="M 265.738,83.5335 251.277,83.5335 z" id="boundary" inkscape:connector-curvature="0" />
	<path style="fill:none;stroke:red;stroke-width:1px;stroke-linecap:butt;stroke-linejoin:miter;stroke-opacity:1" d="M 251.277,83.5335 236.816,83.5335 z" id="boundary" inkscape:connector-curvature="0" />
	<path style="fill:none;stroke:red;stroke-width:1px;stroke-linecap:butt;stroke-linejoin:miter;stroke-opacity:1" d="M 338.041,76.3032 323.58,76.3032 z" id="boundary" inkscape:connector-curvature="0" />
	<path style="fill:none;stroke:red;stroke-width:1px;stroke-linecap:butt;stroke-linejoin:miter;stroke-opacity:1" d="M 323.58,76.3032 309.12,76.3032 z" id="boundary" inkscape:connector-curvature="0" />
	<path style="fill:none;stroke:red;stroke-width:1px;stroke-linecap:butt;stroke-linejoin:miter;stroke-opacity:1" d="M 379.977,66.1808 391.545,54.6122 z" id="boundary" inkscape:connector-curvature="0" />
	<path style="fill:none;stroke:red;stroke-width:1px;stroke-linecap:butt;stroke-linejoin:miter;stroke-opacity:1" d="M 366.962,76.3032 379.977,66.1808 z" id="boundary" inkscape:connector-curvature="0" />
	<path style="fill:none;stroke:red;stroke-width:1px;stroke-linecap:butt;stroke-linejoin:miter;stroke-opacity:1" d="M 352.501,76.3032 338.041,76.3032 z" id="boundary" inkscape:connector-curvature="0" />
	<path style="fill:none;stroke:red;stroke-width:1px;stroke-linecap:butt;stroke-linejoin:miter;stroke-opacity:1" d="M 366.962,76.3032 352.501,76.3032 z" id="boundary" inkscape:connector-curvature="0" />
	<path style="fill:none;stroke:red;stroke-width:1px;stroke-linecap:butt;stroke-linejoin:miter;stroke-opacity:1" d="M 51.7201,193.434 66.1808,193.434 z" id="boundary" inkscape:connector-curvature="0" />
	<path style="fill:none;stroke:red;stroke-width:1px;stroke-linecap:butt;stroke-linejoin:miter;stroke-opacity:1" d="M 66.1808,193.434 79.1953,200.665 z" id="boundary" inkscape:connector-curvature="0" />
	<path style="fill:none;stroke:red;stroke-width:1px;stroke-linecap:butt;stroke-linejoin:miter;stroke-opacity:1" d="M 79.1953,200.665 93.656,200.665 z" id="boundary" inkscape:connector-curvature="0" />
	<path style="fill:none;stroke:red;stroke-width:1px;stroke-linecap:butt;stroke-linejoin:miter;stroke-opacity:1" d="M 93.656,200.665 108.117,200.665 z" id="boundary" inkscape:connector-curvature="0" />
	<path style="fill:none;stroke:red;stroke-width:1px;stroke-linecap:butt;stroke-linejoin:miter;stroke-opacity:1" d="M 108.117,200.665 121.131,207.895 z" id="boundary" inkscape:connector-curvature="0" />
	<path style="fill:none;stroke:red;stroke-width:1px;stroke-linecap:butt;stroke-linejoin:miter;stroke-opacity:1" d="M 121.131,207.895 135.592,207.895 z" id="boundary" inkscape:connector-curvature="0" />
	<path style="fill:none;stroke:red;stroke-width:1px;stroke-linecap:butt;stroke-linejoin:miter;stroke-opacity:1" d="M 135.592,207.895 150.052,210.787 z" id="boundary" inkscape:connector-curvature="0" />
	<path style="fill:none;stroke:red;stroke-width:1px;stroke-linecap:butt;stroke-linejoin:miter;stroke-opacity:1" d="M 178.974,215.125 164.513,215.125 z" id="boundary" inkscape:connector-curvature="0" />
	<path style="fill:none;stroke:red;stroke-width:1px;stroke-linecap:butt;stroke-linejoin:miter;stroke-opacity:1" d="M 164.513,215.125 150.052,210.787 z" id="boundary" inkscape:connector-curvature="0" />
	<path style="fill:none;stroke:red;stroke-width:1px;stroke-linecap:butt;stroke-linejoin:miter;stroke-opacity:1" d="M 193.434,215.125 207.895,215.125 z" id="boundary" inkscape:connector-curvature="0" />
	<path style="fill:none;stroke:red;stroke-width:1px;stroke-linecap:butt;stroke-linejoin:miter;stroke-opacity:1" d="M 193.434,215.125 178.974,215.125 z" id="boundary" inkscape:connector-curvature="0" />
	<path style="fill:none;stroke:red;stroke-width:1px;stroke-linecap:butt;stroke-linejoin:miter;stroke-opacity:1" d="M 222.356,215.125 236.816,218.017 z" id="boundary" inkscape:connector-curvature="0" />
	<path style="fill:none;stroke:red;stroke-width:1px;stroke-linecap:butt;stroke-linejoin:miter;stroke-opacity:1" d="M 249.831,225.248 236.816,218.017 z" id="boundary" inkscape:connector-curvature="0" />
	<path style="fill:none;stroke:red;stroke-width:1px;stroke-linecap:butt;stroke-linejoin:miter;stroke-opacity:1" d="M 207.895,215.125 222.356,215.125 z" id="boundary" inkscape:connector-curvature="0" />
	<path style="fill:none;stroke:red;stroke-width:1px;stroke-linecap:butt;stroke-linejoin:miter;stroke-opacity:1" d="M 249.831,225.248 257.061,238.262 z" id="boundary" inkscape:connector-curvature="0" />
	<path style="fill:none;stroke:red;stroke-width:1px;stroke-linecap:butt;stroke-linejoin:miter;stroke-opacity:1" d="M 257.061,238.262 264.292,251.277 z" id="boundary" inkscape:connector-curvature="0" />
	<path style="fill:none;stroke:red;stroke-width:1px;stroke-linecap:butt;stroke-linejoin:miter;stroke-opacity:1" d="M 264.292,251.277 264.292,265.738 z" id="boundary" inkscape:connector-curvature="0" />
	<path style="fill:none;stroke:red;stroke-width:1px;stroke-linecap:butt;stroke-linejoin:miter;stroke-opacity:1" d="M 268.63,280.198 264.292,265.738 z" id="boundary" inkscape:connector-curvature="0" />
	<path style="fill:none;stroke:red;stroke-width:1px;stroke-linecap:butt;stroke-linejoin:miter;stroke-opacity:1" d="M 275.86,309.12 271.522,294.659 z" id="boundary" inkscape:connector-curvature="0" />
	<path style="fill:none;stroke:red;stroke-width:1px;stroke-linecap:butt;stroke-linejoin:miter;stroke-opacity:1" d="M 271.522,294.659 268.63,280.198 z" id="boundary" inkscape:connector-curvature="0" />
	<path style="fill:none;stroke:red;stroke-width:1px;stroke-linecap:butt;stroke-linejoin:miter;stroke-opacity:1" d="M 372.746,232.478 387.207,229.586 z" id="boundary" inkscape:connector-curvature="0" />
	<path style="fill:none;stroke:red;stroke-width:1px;stroke-linecap:butt;stroke-linejoin:miter;stroke-opacity:1" d="M 372.746,232.478 358.286,236.816 z" id="boundary" inkscape:connector-curvature="0" />
	<path style="fill:none;stroke:red;stroke-width:1px;stroke-linecap:butt;stroke-linejoin:miter;stroke-opacity:1" d="M 349.609,248.385 338.041,258.507 z" id="boundary" inkscape:connector-curvature="0" />
	<path style="fill:none;stroke:red;stroke-width:1px;stroke-linecap:butt;stroke-linejoin:miter;stroke-opacity:1" d="M 358.286,236.816 349.609,248.385 z" id="boundary" inkscape:connector-curvature="0" />
	<path style="fill:none;stroke:red;stroke-width:1px;stroke-linecap:butt;stroke-linejoin:miter;stroke-opacity:1" d="M 387.207,229.586 401.668,229.586 z" id="boundary" inkscape:connector-curvature="0" />
	<path style="fill:none;stroke:red;stroke-width:1px;stroke-linecap:butt;stroke-linejoin:miter;stroke-opacity:1" d="M 416.128,229.586 401.668,229.586 z" id="boundary" inkscape:connector-curvature="0" />
	<path style="fill:none;stroke:red;stroke-width:1px;stroke-linecap:butt;stroke-linejoin:miter;stroke-opacity:1" d="M 430.589,229.586 445.05,229.586 z" id="boundary" inkscape:connector-curvature="0" />
	<path style="fill:none;stroke:red;stroke-width:1px;stroke-linecap:butt;stroke-linejoin:miter;stroke-opacity:1" d="M 459.51,229.586 445.05,229.586 z" id="boundary" inkscape:connector-curvature="0" />
	<path style="fill:none;stroke:red;stroke-width:1px;stroke-linecap:butt;stroke-linejoin:miter;stroke-opacity:1" d="M 430.589,229.586 416.128,229.586 z" id="boundary" inkscape:connector-curvature="0" />
	<path style="fill:none;stroke:red;stroke-width:1px;stroke-linecap:butt;stroke-linejoin:miter;stroke-opacity:1" d="M 459.51,229.586 473.971,229.586 z" id="boundary" inkscape:connector-curvature="0" />
	<path style="fill:none;stroke:red;stroke-width:1px;stroke-linecap:butt;stroke-linejoin:miter;stroke-opacity:1" d="M 283.09,322.134 285.983,336.595 z" id="boundary" inkscape:connector-curvature="0" />
	<path style="fill:none;stroke:red;stroke-width:1px;stroke-linecap:butt;stroke-linejoin:miter;stroke-opacity:1" d="M 275.86,309.12 283.09,322.134 z" id="boundary" inkscape:connector-curvature="0" />
	<path style="fill:none;stroke:red;stroke-width:1px;stroke-linecap:butt;stroke-linejoin:miter;stroke-opacity:1" d="M 294.659,348.163 285.983,336.595 z" id="boundary" inkscape:connector-curvature="0" />
	<path style="fill:none;stroke:red;stroke-width:1px;stroke-linecap:butt;stroke-linejoin:miter;stroke-opacity:1" d="M 323.58,352.501 317.796,366.962 z" id="boundary" inkscape:connector-curvature="0" />
	<path style="fill:none;stroke:red;stroke-width:1px;stroke-linecap:butt;stroke-linejoin:miter;stroke-opacity:1" d="M 317.796,366.962 304.781,359.732 z" id="boundary" inkscape:connector-curvature="0" />
	<path style="fill:none;stroke:red;stroke-width:1px;stroke-linecap:butt;stroke-linejoin:miter;stroke-opacity:1" d="M 304.781,359.732 294.659,348.163 z" id="boundary" inkscape:connector-curvature="0" />
	<path style="fill:none;stroke:red;stroke-width:1px;stroke-linecap:butt;stroke-linejoin:miter;stroke-opacity:1" d="M 330.81,287.429 330.81,272.968 z" id="boundary" inkscape:connector-curvature="0" />
	<path style="fill:none;stroke:red;stroke-width:1px;stroke-linecap:butt;stroke-linejoin:miter;stroke-opacity:1" d="M 330.81,272.968 338.041,258.507 z" id="boundary" inkscape:connector-curvature="0" />
	<path style="fill:none;stroke:red;stroke-width:1px;stroke-linecap:butt;stroke-linejoin:miter;stroke-opacity:1" d="M 330.81,301.889 330.81,287.429 z" id="boundary" inkscape:connector-curvature="0" />
	<path style="fill:none;stroke:red;stroke-width:1px;stroke-linecap:butt;stroke-linejoin:miter;stroke-opacity:1" d="M 330.81,301.889 330.81,316.35 z" id="boundary" inkscape:connector-curvature="0" />
	<path style="fill:none;stroke:red;stroke-width:1px;stroke-linecap:butt;stroke-linejoin:miter;stroke-opacity:1" d="M 330.81,330.81 323.58,352.501 z" id="boundary" inkscape:connector-curvature="0" />
	<path style="fill:none;stroke:red;stroke-width:1px;stroke-linecap:butt;stroke-linejoin:miter;stroke-opacity:1" d="M 330.81,316.35 330.81,330.81 z" id="boundary" inkscape:connector-curvature="0" />
	<path style="fill:none;stroke:red;stroke-width:1px;stroke-linecap:butt;stroke-linejoin:miter;stroke-opacity:1" d="M 473.971,229.586 488.431,229.586 z" id="boundary" inkscape:connector-curvature="0" />
	<path style="fill:none;stroke:red;stroke-width:1px;stroke-linecap:butt;stroke-linejoin:miter;stroke-opacity:1" d="M 500,90.7638 486.985,83.5335 z" id="boundary" inkscape:connector-curvature="0" />
	<path style="fill:none;stroke:red;stroke-width:1px;stroke-linecap:butt;stroke-linejoin:miter;stroke-opacity:1" d="M 514.461,90.7638 500,90.7638 z" id="boundary" inkscape:connector-curvature="0" />
	<path style="fill:none;stroke:red;stroke-width:1px;stroke-linecap:butt;stroke-linejoin:miter;stroke-opacity:1" d="M 514.461,90.7638 528.921,90.7638 z" id="boundary" inkscape:connector-curvature="0" />
	<path style="fill:none;stroke:red;stroke-width:1px;stroke-linecap:butt;stroke-linejoin:miter;stroke-opacity:1" d="M 528.921,90.7638 543.382,90.7638 z" id="boundary" inkscape:connector-curvature="0" />
	<path style="fill:none;stroke:red;stroke-width:1px;stroke-linecap:butt;stroke-linejoin:miter;stroke-opacity:1" d="M 543.382,90.7638 556.397,97.9942 z" id="boundary" inkscape:connector-curvature="0" />
	<path style="fill:none;stroke:red;stroke-width:1px;stroke-linecap:butt;stroke-linejoin:miter;stroke-opacity:1" d="M 556.397,97.9942 570.857,97.9942 z" id="boundary" inkscape:connector-curvature="0" />
	<path style="fill:none;stroke:red;stroke-width:1px;stroke-linecap:butt;stroke-linejoin:miter;stroke-opacity:1" d="M 570.857,97.9942 583.872,105.224 z" id="boundary" inkscape:connector-curvature="0" />
	<path style="fill:none;stroke:red;stroke-width:1px;stroke-linecap:butt;stroke-linejoin:miter;stroke-opacity:1" d="M 583.872,105.224 598.332,105.224 z" id="boundary" inkscape:connector-curvature="0" />
	<path style="fill:none;stroke:red;stroke-width:1px;stroke-linecap:butt;stroke-linejoin:miter;stroke-opacity:1" d="M 598.332,105.224 612.793,109.563 z" id="boundary" inkscape:connector-curvature="0" />
	<path style="fill:none;stroke:red;stroke-width:1px;stroke-linecap:butt;stroke-linejoin:miter;stroke-opacity:1" d="M 627.254,112.455 612.793,109.563 z" id="boundary" inkscape:connector-curvature="0" />
	<path style="fill:none;stroke:red;stroke-width:1px;stroke-linecap:butt;stroke-linejoin:miter;stroke-opacity:1" d="M 627.254,112.455 641.714,116.793 z" id="boundary" inkscape:connector-curvature="0" />
	<path style="fill:none;stroke:red;stroke-width:1px;stroke-linecap:butt;stroke-linejoin:miter;stroke-opacity:1" d="M 656.175,119.685 641.714,116.793 z" id="boundary" inkscape:connector-curvature="0" />
	<path style="fill:none;stroke:red;stroke-width:1px;stroke-linecap:butt;stroke-linejoin:miter;stroke-opacity:1" d="M 683.65,126.915 669.19,126.915 z" id="boundary" inkscape:connector-curvature="0" />
	<path style="fill:none;stroke:red;stroke-width:1px;stroke-linecap:butt;stroke-linejoin:miter;stroke-opacity:1" d="M 669.19,126.915 656.175,119.685 z" id="boundary" inkscape:connector-curvature="0" />
	<path style="fill:none;stroke:red;stroke-width:1px;stroke-linecap:butt;stroke-linejoin:miter;stroke-opacity:1" d="M 698.111,126.915 683.65,126.915 z" id="boundary" inkscape:connector-curvature="0" />
	<path style="fill:none;stroke:red;stroke-width:1px;stroke-linecap:butt;stroke-linejoin:miter;stroke-opacity:1" d="M 698.111,126.915 712.571,129.808 z" id="boundary" inkscape:connector-curvature="0" />
	<path style="fill:none;stroke:red;stroke-width:1px;stroke-linecap:butt;stroke-linejoin:miter;stroke-opacity:1" d="M 725.586,137.038 712.571,129.808 z" id="boundary" inkscape:connector-curvature="0" />
	<path style="fill:none;stroke:red;stroke-width:1px;stroke-linecap:butt;stroke-linejoin:miter;stroke-opacity:1" d="M 740.047,142.822 725.586,137.038 z" id="boundary" inkscape:connector-curvature="0" />
	<path style="fill:none;stroke:red;stroke-width:1px;stroke-linecap:butt;stroke-linejoin:miter;stroke-opacity:1" d="M 768.968,150.052 754.507,148.606 z" id="boundary" inkscape:connector-curvature="0" />
	<path style="fill:none;stroke:red;stroke-width:1px;stroke-linecap:butt;stroke-linejoin:miter;stroke-opacity:1" d="M 754.507,148.606 740.047,142.822 z" id="boundary" inkscape:connector-curvature="0" />
	<path style="fill:none;stroke:red;stroke-width:1px;stroke-linecap:butt;stroke-linejoin:miter;stroke-opacity:1" d="M 926.589,83.5335 941.05,76.3032 z" id="boundary" inkscape:connector-curvature="0" />
	<path style="fill:none;stroke:red;stroke-width:1px;stroke-linecap:butt;stroke-linejoin:miter;stroke-opacity:1" d="M 954.064,69.0729 941.05,76.3032 z" id="boundary" inkscape:connector-curvature="0" />
	<path style="fill:none;stroke:red;stroke-width:1px;stroke-linecap:butt;stroke-linejoin:miter;stroke-opacity:1" d="M 902.006,100.886 913.574,90.7638 z" id="boundary" inkscape:connector-curvature="0" />
	<path style="fill:none;stroke:red;stroke-width:1px;stroke-linecap:butt;stroke-linejoin:miter;stroke-opacity:1" d="M 902.006,100.886 887.545,108.117 z" id="boundary" inkscape:connector-curvature="0" />
	<path style="fill:none;stroke:red;stroke-width:1px;stroke-linecap:butt;stroke-linejoin:miter;stroke-opacity:1" d="M 913.574,90.7638 926.589,83.5335 z" id="boundary" inkscape:connector-curvature="0" />
	<path style="fill:none;stroke:red;stroke-width:1px;stroke-linecap:butt;stroke-linejoin:miter;stroke-opacity:1" d="M 967.079,61.8426 981.539,61.8426 z" id="boundary" inkscape:connector-curvature="0" />
	<path style="fill:none;stroke:red;stroke-width:1px;stroke-linecap:butt;stroke-linejoin:miter;stroke-opacity:1" d="M 981.539,61.8426 996,66.1808 z" id="boundary" inkscape:connector-curvature="0" />
	<path style="fill:none;stroke:red;stroke-width:1px;stroke-linecap:butt;stroke-linejoin:miter;stroke-opacity:1" d="M 996,66.1808 985.878,82.0875 z" id="boundary" inkscape:connector-curvature="0" />
	<path style="fill:none;stroke:red;stroke-width:1px;stroke-linecap:butt;stroke-linejoin:miter;stroke-opacity:1" d="M 974.309,92.2099 959.848,99.4402 z" id="boundary" inkscape:connector-curvature="0" />
	<path style="fill:none;stroke:red;stroke-width:1px;stroke-linecap:butt;stroke-linejoin:miter;stroke-opacity:1" d="M 985.878,82.0875 974.309,92.2099 z" id="boundary" inkscape:connector-curvature="0" />
	<path style="fill:none;stroke:red;stroke-width:1px;stroke-linecap:butt;stroke-linejoin:miter;stroke-opacity:1" d="M 949.726,111.009 959.848,99.4402 z" id="boundary" inkscape:connector-curvature="0" />
	<path style="fill:none;stroke:red;stroke-width:1px;stroke-linecap:butt;stroke-linejoin:miter;stroke-opacity:1" d="M 954.064,69.0729 967.079,61.8426 z" id="boundary" inkscape:connector-curvature="0" />
	<path style="fill:none;stroke:red;stroke-width:1px;stroke-linecap:butt;stroke-linejoin:miter;stroke-opacity:1" d="M 839.825,148.606 851.394,137.038 z" id="boundary" inkscape:connector-curvature="0" />
	<path style="fill:none;stroke:red;stroke-width:1px;stroke-linecap:butt;stroke-linejoin:miter;stroke-opacity:1" d="M 877.423,119.685 865.854,129.808 z" id="boundary" inkscape:connector-curvature="0" />
	<path style="fill:none;stroke:red;stroke-width:1px;stroke-linecap:butt;stroke-linejoin:miter;stroke-opacity:1" d="M 865.854,129.808 851.394,137.038 z" id="boundary" inkscape:connector-curvature="0" />
	<path style="fill:none;stroke:red;stroke-width:1px;stroke-linecap:butt;stroke-linejoin:miter;stroke-opacity:1" d="M 797.889,155.837 783.429,155.837 z" id="boundary" inkscape:connector-curvature="0" />
	<path style="fill:none;stroke:red;stroke-width:1px;stroke-linecap:butt;stroke-linejoin:miter;stroke-opacity:1" d="M 783.429,155.837 768.968,150.052 z" id="boundary" inkscape:connector-curvature="0" />
	<path style="fill:none;stroke:red;stroke-width:1px;stroke-linecap:butt;stroke-linejoin:miter;stroke-opacity:1" d="M 839.825,148.606 825.364,155.837 z" id="boundary" inkscape:connector-curvature="0" />
	<path style="fill:none;stroke:red;stroke-width:1px;stroke-linecap:butt;stroke-linejoin:miter;stroke-opacity:1" d="M 877.423,119.685 887.545,108.117 z" id="boundary" inkscape:connector-curvature="0" />
	<path style="fill:none;stroke:red;stroke-width:1px;stroke-linecap:butt;stroke-linejoin:miter;stroke-opacity:1" d="M 949.726,111.009 938.157,121.131 z" id="boundary" inkscape:connector-curvature="0" />
	<path style="fill:none;stroke:red;stroke-width:1px;stroke-linecap:butt;stroke-linejoin:miter;stroke-opacity:1" d="M 938.157,121.131 930.927,135.592 z" id="boundary" inkscape:connector-curvature="0" />
	<path style="fill:none;stroke:red;stroke-width:1px;stroke-linecap:butt;stroke-linejoin:miter;stroke-opacity:1" d="M 930.927,135.592 920.805,147.16 z" id="boundary" inkscape:connector-curvature="0" />
	<path style="fill:none;stroke:red;stroke-width:1px;stroke-linecap:butt;stroke-linejoin:miter;stroke-opacity:1" d="M 913.574,161.621 920.805,147.16 z" id="boundary" inkscape:connector-curvature="0" />
	<path style="fill:none;stroke:red;stroke-width:1px;stroke-linecap:butt;stroke-linejoin:miter;stroke-opacity:1" d="M 641.714,222.356 627.254,222.356 z" id="boundary" inkscape:connector-curvature="0" />
	<path style="fill:none;stroke:red;stroke-width:1px;stroke-linecap:butt;stroke-linejoin:miter;stroke-opacity:1" d="M 641.714,222.356 656.175,222.356 z" id="boundary" inkscape:connector-curvature="0" />
	<path style="fill:none;stroke:red;stroke-width:1px;stroke-linecap:butt;stroke-linejoin:miter;stroke-opacity:1" d="M 670.636,222.356 656.175,222.356 z" id="boundary" inkscape:connector-curvature="0" />
	<path style="fill:none;stroke:red;stroke-width:1px;stroke-linecap:butt;stroke-linejoin:miter;stroke-opacity:1" d="M 683.65,215.125 670.636,222.356 z" id="boundary" inkscape:connector-curvature="0" />
	<path style="fill:none;stroke:red;stroke-width:1px;stroke-linecap:butt;stroke-linejoin:miter;stroke-opacity:1" d="M 683.65,215.125 696.665,222.356 z" id="boundary" inkscape:connector-curvature="0" />
	<path style="fill:none;stroke:red;stroke-width:1px;stroke-linecap:butt;stroke-linejoin:miter;stroke-opacity:1" d="M 612.793,229.586 627.254,222.356 z" id="boundary" inkscape:connector-curvature="0" />
	<path style="fill:none;stroke:red;stroke-width:1px;stroke-linecap:butt;stroke-linejoin:miter;stroke-opacity:1" d="M 753.061,207.895 767.522,207.895 z" id="boundary" inkscape:connector-curvature="0" />
	<path style="fill:none;stroke:red;stroke-width:1px;stroke-linecap:butt;stroke-linejoin:miter;stroke-opacity:1" d="M 740.047,215.125 753.061,207.895 z" id="boundary" inkscape:connector-curvature="0" />
	<path style="fill:none;stroke:red;stroke-width:1px;stroke-linecap:butt;stroke-linejoin:miter;stroke-opacity:1" d="M 781.983,207.895 767.522,207.895 z" id="boundary" inkscape:connector-curvature="0" />
	<path style="fill:none;stroke:red;stroke-width:1px;stroke-linecap:butt;stroke-linejoin:miter;stroke-opacity:1" d="M 711.125,222.356 696.665,222.356 z" id="boundary" inkscape:connector-curvature="0" />
	<path style="fill:none;stroke:red;stroke-width:1px;stroke-linecap:butt;stroke-linejoin:miter;stroke-opacity:1" d="M 740.047,215.125 725.586,219.464 z" id="boundary" inkscape:connector-curvature="0" />
	<path style="fill:none;stroke:red;stroke-width:1px;stroke-linecap:butt;stroke-linejoin:miter;stroke-opacity:1" d="M 711.125,222.356 725.586,219.464 z" id="boundary" inkscape:connector-curvature="0" />
	<path style="fill:none;stroke:red;stroke-width:1px;stroke-linecap:butt;stroke-linejoin:miter;stroke-opacity:1" d="M 488.431,229.586 502.892,229.586 z" id="boundary" inkscape:connector-curvature="0" />
	<path style="fill:none;stroke:red;stroke-width:1px;stroke-linecap:butt;stroke-linejoin:miter;stroke-opacity:1" d="M 517.353,229.586 502.892,229.586 z" id="boundary" inkscape:connector-curvature="0" />
	<path style="fill:none;stroke:red;stroke-width:1px;stroke-linecap:butt;stroke-linejoin:miter;stroke-opacity:1" d="M 517.353,229.586 531.813,229.586 z" id="boundary" inkscape:connector-curvature="0" />
	<path style="fill:none;stroke:red;stroke-width:1px;stroke-linecap:butt;stroke-linejoin:miter;stroke-opacity:1" d="M 531.813,229.586 544.828,236.816 z" id="boundary" inkscape:connector-curvature="0" />
	<path style="fill:none;stroke:red;stroke-width:1px;stroke-linecap:butt;stroke-linejoin:miter;stroke-opacity:1" d="M 544.828,236.816 557.843,244.047 z" id="boundary" inkscape:connector-curvature="0" />
	<path style="fill:none;stroke:red;stroke-width:1px;stroke-linecap:butt;stroke-linejoin:miter;stroke-opacity:1" d="M 612.793,229.586 598.332,244.047 z" id="boundary" inkscape:connector-curvature="0" />
	<path style="fill:none;stroke:red;stroke-width:1px;stroke-linecap:butt;stroke-linejoin:miter;stroke-opacity:1" d="M 598.332,244.047 585.318,251.277 z" id="boundary" inkscape:connector-curvature="0" />
	<path style="fill:none;stroke:red;stroke-width:1px;stroke-linecap:butt;stroke-linejoin:miter;stroke-opacity:1" d="M 585.318,251.277 570.857,251.277 z" id="boundary" inkscape:connector-curvature="0" />
	<path style="fill:none;stroke:red;stroke-width:1px;stroke-linecap:butt;stroke-linejoin:miter;stroke-opacity:1" d="M 570.857,251.277 557.843,244.047 z" id="boundary" inkscape:connector-curvature="0" />
	<path style="fill:none;stroke:red;stroke-width:1px;stroke-linecap:butt;stroke-linejoin:miter;stroke-opacity:1" d="M 810.904,163.067 825.364,155.837 z" id="boundary" inkscape:connector-curvature="0" />
	<path style="fill:none;stroke:red;stroke-width:1px;stroke-linecap:butt;stroke-linejoin:miter;stroke-opacity:1" d="M 797.889,155.837 810.904,163.067 z" id="boundary" inkscape:connector-curvature="0" />
	<path style="fill:none;stroke:red;stroke-width:1px;stroke-linecap:butt;stroke-linejoin:miter;stroke-opacity:1" d="M 796.443,207.895 810.904,207.895 z" id="boundary" inkscape:connector-curvature="0" />
	<path style="fill:none;stroke:red;stroke-width:1px;stroke-linecap:butt;stroke-linejoin:miter;stroke-opacity:1" d="M 825.364,213.679 810.904,207.895 z" id="boundary" inkscape:connector-curvature="0" />
	<path style="fill:none;stroke:red;stroke-width:1px;stroke-linecap:butt;stroke-linejoin:miter;stroke-opacity:1" d="M 825.364,213.679 835.487,225.248 z" id="boundary" inkscape:connector-curvature="0" />
	<path style="fill:none;stroke:red;stroke-width:1px;stroke-linecap:butt;stroke-linejoin:miter;stroke-opacity:1" d="M 796.443,207.895 781.983,207.895 z" id="boundary" inkscape:connector-curvature="0" />
	<path style="fill:none;stroke:red;stroke-width:1px;stroke-linecap:butt;stroke-linejoin:miter;stroke-opacity:1" d="M 902.006,171.743 913.574,161.621 z" id="boundary" inkscape:connector-curvature="0" />
	<path style="fill:none;stroke:red;stroke-width:1px;stroke-linecap:butt;stroke-linejoin:miter;stroke-opacity:1" d="M 902.006,186.204 902.006,171.743 z" id="boundary" inkscape:connector-curvature="0" />
	<path style="fill:none;stroke:red;stroke-width:1px;stroke-linecap:butt;stroke-linejoin:miter;stroke-opacity:1" d="M 902.006,200.665 902.006,186.204 z" id="boundary" inkscape:connector-curvature="0" />
	<path style="fill:none;stroke:red;stroke-width:1px;stroke-linecap:butt;stroke-linejoin:miter;stroke-opacity:1" d="M 847.055,235.37 835.487,225.248 z" id="boundary" inkscape:connector-curvature="0" />
	<path style="fill:none;stroke:red;stroke-width:1px;stroke-linecap:butt;stroke-linejoin:miter;stroke-opacity:1" d="M 902.006,215.125 902.006,200.665 z" id="boundary" inkscape:connector-curvature="0" />
	<path style="fill:none;stroke:red;stroke-width:1px;stroke-linecap:butt;stroke-linejoin:miter;stroke-opacity:1" d="M 847.055,235.37 852.84,249.831 z" id="boundary" inkscape:connector-curvature="0" />
	<path style="fill:none;stroke:red;stroke-width:1px;stroke-linecap:butt;stroke-linejoin:miter;stroke-opacity:1" d="M 864.408,258.507 852.84,249.831 z" id="boundary" inkscape:connector-curvature="0" />
	<path style="fill:none;stroke:red;stroke-width:1px;stroke-linecap:butt;stroke-linejoin:miter;stroke-opacity:1" d="M 883.207,280.198 871.638,271.522 z" id="boundary" inkscape:connector-curvature="0" />
	<path style="fill:none;stroke:red;stroke-width:1px;stroke-linecap:butt;stroke-linejoin:miter;stroke-opacity:1" d="M 871.638,271.522 864.408,258.507 z" id="boundary" inkscape:connector-curvature="0" />
	<path style="fill:none;stroke:red;stroke-width:1px;stroke-linecap:butt;stroke-linejoin:miter;stroke-opacity:1" d="M 883.207,280.198 894.776,290.321 z" id="boundary" inkscape:connector-curvature="0" />
	<path style="fill:none;stroke:red;stroke-width:1px;stroke-linecap:butt;stroke-linejoin:miter;stroke-opacity:1" d="M 909.236,257.061 902.006,244.047 z" id="boundary" inkscape:connector-curvature="0" />
	<path style="fill:none;stroke:red;stroke-width:1px;stroke-linecap:butt;stroke-linejoin:miter;stroke-opacity:1" d="M 902.006,244.047 902.006,229.586 z" id="boundary" inkscape:connector-curvature="0" />
	<path style="fill:none;stroke:red;stroke-width:1px;stroke-linecap:butt;stroke-linejoin:miter;stroke-opacity:1" d="M 902.006,229.586 902.006,215.125 z" id="boundary" inkscape:connector-curvature="0" />
	<path style="fill:none;stroke:red;stroke-width:1px;stroke-linecap:butt;stroke-linejoin:miter;stroke-opacity:1" d="M 909.236,257.061 909.236,271.522 z" id="boundary" inkscape:connector-curvature="0" />
	<path style="fill:none;stroke:red;stroke-width:1px;stroke-linecap:butt;stroke-linejoin:miter;stroke-opacity:1" d="M 909.236,271.522 909.236,294.659 z" id="boundary" inkscape:connector-curvature="0" />
	<path style="fill:none;stroke:red;stroke-width:1px;stroke-linecap:butt;stroke-linejoin:miter;stroke-opacity:1" d="M 909.236,294.659 894.776,290.321 z" id="boundary" inkscape:connector-curvature="0" />
	<circle cx="4" cy="160.175" r="4" fill="#0" id="circle0"/>
	<circle cx="11.2303" cy="173.19" r="4" fill="#0" id="circle1"/>
	<circle cx="15.5685" cy="148.606" r="4" fill="#0" id="circle2"/>
	<circle cx="25.691" cy="178.974" r="4" fill="#0" id="circle3"/>
	<circle cx="30.0292" cy="148.606" r="4" fill="#0" id="circle4"/>
	<circle cx="38.7055" cy="186.204" r="4" fill="#0" id="circle5"/>
	<circle cx="43.0437" cy="141.376" r="4" fill="#0" id="circle6"/>
	<circle cx="51.7201" cy="193.434" r="4" fill="#0" id="circle7"/>
	<circle cx="56.0583" cy="134.146" r="4" fill="#0" id="circle8"/>
	<circle cx="66.1808" cy="193.434" r="4" fill="#0" id="circle9"/>
	<circle cx="69.0729" cy="126.915" r="4" fill="#0" id="circle10"/>
	<circle cx="79.1953" cy="200.665" r="4" fill="#0" id="circle11"/>
	<circle cx="83.5335" cy="124.023" r="4" fill="#0" id="circle12"/>
	<circle cx="93.656" cy="200.665" r="4" fill="#0" id="circle13"/>
	<circle cx="97.9942" cy="116.793" r="4" fill="#0" id="circle14"/>
	<circle cx="108.117" cy="200.665" r="4" fill="#0" id="circle15"/>
	<circle cx="112.455" cy="112.455" r="4" fill="#0" id="circle16"/>
	<circle cx="121.131" cy="207.895" r="4" fill="#0" id="circle17"/>
	<circle cx="125.469" cy="105.224" r="4" fill="#0" id="circle18"/>
	<circle cx="135.592" cy="207.895" r="4" fill="#0" id="circle19"/>
	<circle cx="139.93" cy="105.224" r="4" fill="#0" id="circle20"/>
	<circle cx="150.052" cy="210.787" r="4" fill="#0" id="circle21"/>
	<circle cx="152.945" cy="97.9942" r="4" fill="#0" id="circle22"/>
	<circle cx="164.513" cy="215.125" r="4" fill="#0" id="circle23"/>
	<circle cx="167.405" cy="97.9942" r="4" fill="#0" id="circle24"/>
	<circle cx="178.974" cy="215.125" r="4" fill="#0" id="circle25"/>
	<circle cx="180.42" cy="90.7638" r="4" fill="#0" id="circle26"/>
	<circle cx="193.434" cy="215.125" r="4" fill="#0" id="circle27"/>
	<circle cx="194.88" cy="90.7638" r="4" fill="#0" id="circle28"/>
	<circle cx="207.895" cy="215.125" r="4" fill="#0" id="circle29"/>
	<circle cx="209.341" cy="90.7638" r="4" fill="#0" id="circle30"/>
	<circle cx="222.356" cy="83.5335" r="4" fill="#0" id="circle31"/>
	<circle cx="222.356" cy="215.125" r="4" fill="#0" id="circle32"/>
	<circle cx="236.816" cy="83.5335" r="4" fill="#0" id="circle33"/>
	<circle cx="236.816" cy="218.017" r="4" fill="#0" id="circle34"/>
	<circle cx="249.831" cy="225.248" r="4" fill="#0" id="circle35"/>
	<circle cx="251.277" cy="83.5335" r="4" fill="#0" id="circle36"/>
	<circle cx="257.061" cy="238.262" r="4" fill="#0" id="circle37"/>
	<circle cx="264.292" cy="251.277" r="4" fill="#0" id="circle38"/>
	<circle cx="264.292" cy="265.738" r="4" fill="#0" id="circle39"/>
	<circle cx="265.738" cy="83.5335" r="4" fill="#0" id="circle40"/>
	<circle cx="268.63" cy="280.198" r="4" fill="#0" id="circle41"/>
	<circle cx="271.522" cy="294.659" r="4" fill="#0" id="circle42"/>
	<circle cx="275.86" cy="309.12" r="4" fill="#0" id="circle43"/>
	<circle cx="280.198" cy="79.1953" r="4" fill="#0" id="circle44"/>
	<circle cx="283.09" cy="322.134" r="4" fill="#0" id="circle45"/>
	<circle cx="285.983" cy="336.595" r="4" fill="#0" id="circle46"/>
	<circle cx="294.659" cy="76.3032" r="4" fill="#0" id="circle47"/>
	<circle cx="294.659" cy="348.163" r="4" fill="#0" id="circle48"/>
	<circle cx="304.781" cy="359.732" r="4" fill="#0" id="circle49"/>
	<circle cx="309.12" cy="76.3032" r="4" fill="#0" id="circle50"/>
	<circle cx="317.796" cy="366.962" r="4" fill="#0" id="circle51"/>
	<circle cx="323.58" cy="76.3032" r="4" fill="#0" id="circle52"/>
	<circle cx="323.58" cy="352.501" r="4" fill="#0" id="circle53"/>
	<circle cx="330.81" cy="272.968" r="4" fill="#0" id="circle54"/>
	<circle cx="330.81" cy="287.429" r="4" fill="#0" id="circle55"/>
	<circle cx="330.81" cy="301.889" r="4" fill="#0" id="circle56"/>
	<circle cx="330.81" cy="316.35" r="4" fill="#0" id="circle57"/>
	<circle cx="330.81" cy="330.81" r="4" fill="#0" id="circle58"/>
	<circle cx="338.041" cy="76.3032" r="4" fill="#0" id="circle59"/>
	<circle cx="338.041" cy="258.507" r="4" fill="#0" id="circle60"/>
	<circle cx="349.609" cy="248.385" r="4" fill="#0" id="circle61"/>
	<circle cx="352.501" cy="76.3032" r="4" fill="#0" id="circle62"/>
	<circle cx="358.286" cy="236.816" r="4" fill="#0" id="circle63"/>
	<circle cx="366.962" cy="76.3032" r="4" fill="#0" id="circle64"/>
	<circle cx="372.746" cy="232.478" r="4" fill="#0" id="circle65"/>
	<circle cx="379.977" cy="66.1808" r="4" fill="#0" id="circle66"/>
	<circle cx="387.207" cy="229.586" r="4" fill="#0" id="circle67"/>
	<circle cx="391.545" cy="54.6122" r="4" fill="#0" id="circle68"/>
	<circle cx="401.668" cy="229.586" r="4" fill="#0" id="circle69"/>
	<circle cx="403.114" cy="43.0437" r="4" fill="#0" id="circle70"/>
	<circle cx="414.682" cy="32.9213" r="4" fill="#0" id="circle71"/>
	<circle cx="416.128" cy="229.586" r="4" fill="#0" id="circle72"/>
	<circle cx="424.805" cy="21.3528" r="4" fill="#0" id="circle73"/>
	<circle cx="430.589" cy="229.586" r="4" fill="#0" id="circle74"/>
	<circle cx="436.373" cy="11.2303" r="4" fill="#0" id="circle75"/>
	<circle cx="445.05" cy="229.586" r="4" fill="#0" id="circle76"/>
	<circle cx="449.388" cy="4" r="4" fill="#0" id="circle77"/>
	<circle cx="459.51" cy="229.586" r="4" fill="#0" id="circle78"/>
	<circle cx="463.848" cy="4" r="4" fill="#0" id="circle79"/>
	<circle cx="468.187" cy="18.4606" r="4" fill="#0" id="circle80"/>
	<circle cx="468.187" cy="32.9213" r="4" fill="#0" id="circle81"/>
	<circle cx="468.187" cy="47.3819" r="4" fill="#0" id="circle82"/>
	<circle cx="468.187" cy="61.8426" r="4" fill="#0" id="circle83"/>
	<circle cx="473.971" cy="229.586" r="4" fill="#0" id="circle84"/>
	<circle cx="475.417" cy="74.8571" r="4" fill="#0" id="circle85"/>
	<circle cx="486.985" cy="83.5335" r="4" fill="#0" id="circle86"/>
	<circle cx="488.431" cy="229.586" r="4" fill="#0" id="circle87"/>
	<circle cx="500" cy="90.7638" r="4" fill="#0" id="circle88"/>
	<circle cx="502.892" cy="229.586" r="4" fill="#0" id="circle89"/>
	<circle cx="514.461" cy="90.7638" r="4" fill="#0" id="circle90"/>
	<circle cx="517.353" cy="229.586" r="4" fill="#0" id="circle91"/>
	<circle cx="528.921" cy="90.7638" r="4" fill="#0" id="circle92"/>
	<circle cx="531.813" cy="229.586" r="4" fill="#0" id="circle93"/>
	<circle cx="543.382" cy="90.7638" r="4" fill="#0" id="circle94"/>
	<circle cx="544.828" cy="236.816" r="4" fill="#0" id="circle95"/>
	<circle cx="556.397" cy="97.9942" r="4" fill="#0" id="circle96"/>
	<circle cx="557.843" cy="244.047" r="4" fill="#0" id="circle97"/>
	<circle cx="570.857" cy="97.9942" r="4" fill="#0" id="circle98"/>
	<circle cx="570.857" cy="251.277" r="4" fill="#0" id="circle99"/>
	<circle cx="583.872" cy="105.224" r="4" fill="#0" id="circle100"/>
	<circle cx="585.318" cy="251.277" r="4" fill="#0" id="circle101"/>
	<circle cx="598.332" cy="105.224" r="4" fill="#0" id="circle102"/>
	<circle cx="598.332" cy="244.047" r="4" fill="#0" id="circle103"/>
	<circle cx="612.793" cy="109.563" r="4" fill="#0" id="circle104"/>
	<circle cx="612.793" cy="229.586" r="4" fill="#0" id="circle105"/>
	<circle cx="627.254" cy="112.455" r="4" fill="#0" id="circle106"/>
	<circle cx="627.254" cy="222.356" r="4" fill="#0" id="circle107"/>
	<circle cx="641.714" cy="116.793" r="4" fill="#0" id="circle108"/>
	<circle cx="641.714" cy="222.356" r="4" fill="#0" id="circle109"/>
	<circle cx="656.175" cy="119.685" r="4" fill="#0" id="circle110"/>
	<circle cx="656.175" cy="222.356" r="4" fill="#0" id="circle111"/>
	<circle cx="669.19" cy="126.915" r="4" fill="#0" id="circle112"/>
	<circle cx="670.636" cy="222.356" r="4" fill="#0" id="circle113"/>
	<circle cx="683.65" cy="126.915" r="4" fill="#0" id="circle114"/>
	<circle cx="683.65" cy="215.125" r="4" fill="#0" id="circle115"/>
	<circle cx="696.665" cy="222.356" r="4" fill="#0" id="circle116"/>
	<circle cx="698.111" cy="126.915" r="4" fill="#0" id="circle117"/>
	<circle cx="711.125" cy="222.356" r="4" fill="#0" id="circle118"/>
	<circle cx="712.571" cy="129.808" r="4" fill="#0" id="circle119"/>
	<circle cx="725.586" cy="137.038" r="4" fill="#0" id="circle120"/>
	<circle cx="725.586" cy="219.464" r="4" fill="#0" id="circle121"/>
	<circle cx="740.047" cy="142.822" r="4" fill="#0" id="circle122"/>
	<circle cx="740.047" cy="215.125" r="4" fill="#0" id="circle123"/>
	<circle cx="753.061" cy="207.895" r="4" fill="#0" id="circle124"/>
	<circle cx="754.507" cy="148.606" r="4" fill="#0" id="circle125"/>
	<circle cx="767.522" cy="207.895" r="4" fill="#0" id="circle126"/>
	<circle cx="768.968" cy="150.052" r="4" fill="#0" id="circle127"/>
	<circle cx="781.983" cy="207.895" r="4" fill="#0" id="circle128"/>
	<circle cx="783.429" cy="155.837" r="4" fill="#0" id="circle129"/>
	<circle cx="796.443" cy="207.895" r="4" fill="#0" id="circle130"/>
	<circle cx="797.889" cy="155.837" r="4" fill="#0" id="circle131"/>
	<circle cx="810.904" cy="163.067" r="4" fill="#0" id="circle132"/>
	<circle cx="810.904" cy="207.895" r="4" fill="#0" id="circle133"/>
	<circle cx="825.364" cy="155.837" r="4" fill="#0" id="circle134"/>
	<circle cx="825.364" cy="213.679" r="4" fill="#0" id="circle135"/>
	<circle cx="835.487" cy="225.248" r="4" fill="#0" id="circle136"/>
	<circle cx="839.825" cy="148.606" r="4" fill="#0" id="circle137"/>
	<circle cx="847.055" cy="235.37" r="4" fill="#0" id="circle138"/>
	<circle cx="851.394" cy="137.038" r="4" fill="#0" id="circle139"/>
	<circle cx="852.84" cy="249.831" r="4" fill="#0" id="circle140"/>
	<circle cx="864.408" cy="258.507" r="4" fill="#0" id="circle141"/>
	<circle cx="865.854" cy="129.808" r="4" fill="#0" id="circle142"/>
	<circle cx="871.638" cy="271.522" r="4" fill="#0" id="circle143"/>
	<circle cx="877.423" cy="119.685" r="4" fill="#0" id="circle144"/>
	<circle cx="883.207" cy="280.198" r="4" fill="#0" id="circle145"/>
	<circle cx="887.545" cy="108.117" r="4" fill="#0" id="circle146"/>
	<circle cx="894.776" cy="290.321" r="4" fill="#0" id="circle147"/>
	<circle cx="902.006" cy="100.886" r="4" fill="#0" id="circle148"/>
	<circle cx="902.006" cy="171.743" r="4" fill="#0" id="circle149"/>
	<circle cx="902.006" cy="186.204" r="4" fill="#0" id="circle150"/>
	<circle cx="902.006" cy="200.665" r="4" fill="#0" id="circle151"/>
	<circle cx="902.006" cy="215.125" r="4" fill="#0" id="circle152"/>
	<circle cx="902.006" cy="229.586" r="4" fill="#0" id="circle153"/>
	<circle cx="902.006" cy="244.047" r="4" fill="#0" id="circle154"/>
	<circle cx="909.236" cy="257.061" r="4" fill="#0" id="circle155"/>
	<circle cx="909.236" cy="271.522" r="4" fill="#0" id="circle156"/>
	<circle cx="909.236" cy="294.659" r="4" fill="#0" id="circle157"/>
	<circle cx="913.574" cy="90.7638" r="4" fill="#0" id="circle158"/>
	<circle cx="913.574" cy="161.621" r="4" fill="#0" id="circle159"/>
	<circle cx="920.805" cy="147.16" r="4" fill="#0" id="circle160"/>
	<circle cx="926.589" cy="83.5335" r="4" fill="#0" id="circle161"/>
	<circle cx="930.927" cy="135.592" r="4" fill="#0" id="circle162"/>
	<circle cx="938.157" cy="121.131" r="4" fill="#0" id="circle163"/>
	<circle cx="941.05" cy="76.3032" r="4" fill="#0" id="circle164"/>
	<circle cx="949.726" cy="111.009" r="4" fill="#0" id="circle165"/>
	<circle cx="954.064" cy="69.0729" r="4" fill="#0" id="circle166"/>
	<circle cx="959.848" cy="99.4402" r="4" fill="#0" id="circle167"/>
	<circle cx="967.079" cy="61.8426" r="4" fill="#0" id="circle168"/>
	<circle cx="974.309" cy="92.2099" r="4" fill="#0" id="circle169"/>
	<circle cx="981.539" cy="61.8426" r="4" fill="#0" id="circle170"/>
	<circle cx="985.878" cy="82.0875" r="4" fill="#0" id="circle171"/>
	<circle cx="996" cy="66.1808" r="4" fill="#0" id="circle172"/>
	</g>
</svg>