<?xml version="1.0" encoding="UTF-8" standalone="no"?>
<!-- Created with CurveBenchmark -->
<svg
	xmlns:dc="http://purl.org/dc/elements/1.1/"
	xmlns:cc="http://creativecommons.org/ns#"
	xmlns:rdf="http://www.w3.org/1999/02/22-rdf-syntax-ns#"
	xmlns:svg="http://www.w3.org/2000/svg"
	xmlns="http://www.w3.org/2000/svg"
	xmlns:sodipodi="http://sodipodi.sourceforge.net/DTD/sodipodi-0.dtd"
	xmlns:inkscape="http://www.inkscape.org/namespaces/inkscape"
	width="1000"
	height="1000"
	id="svg2"
	version="1.1"
	sodipodi:docname="manifold/gathang-bomber.png.txt">
<defs
	id="defs4" />
<metadata
	id="metadata7">
	<rdf:RDF>
		<cc:Work
			rdf:about="">
			<dc:format>image/svg+xml</dc:format>
			<dc:type
				rdf:resource="http://purl.org/dc/dcmitype/StillImage" />
			<dc:title></dc:title>
		</cc:Work>
	</rdf:RDF>
</metadata>
<g
	inkscape:label="Layer 1"
	inkscape:groupmode="layer"
	id="layer1">
	<path style="fill:none;stroke:red;stroke-width:1px;stroke-linecap:butt;stroke-linejoin:miter;stroke-opacity:1" d="M 225.962,324.991 225.962,342.065 z" id="boundary" inkscape:connector-curvature="0" />
	<path style="fill:none;stroke:red;stroke-width:1px;stroke-linecap:butt;stroke-linejoin:miter;stroke-opacity:1" d="M 215.718,388.165 202.059,400.117 z" id="boundary" inkscape:connector-curvature="0" />
	<path style="fill:none;stroke:red;stroke-width:1px;stroke-linecap:butt;stroke-linejoin:miter;stroke-opacity:1" d="M 225.962,359.139 215.718,388.165 z" id="boundary" inkscape:connector-curvature="0" />
	<path style="fill:none;stroke:red;stroke-width:1px;stroke-linecap:butt;stroke-linejoin:miter;stroke-opacity:1" d="M 225.962,324.991 243.036,319.869 z" id="boundary" inkscape:connector-curvature="0" />
	<path style="fill:none;stroke:red;stroke-width:1px;stroke-linecap:butt;stroke-linejoin:miter;stroke-opacity:1" d="M 225.962,342.065 225.962,359.139 z" id="boundary" inkscape:connector-curvature="0" />
	<path style="fill:none;stroke:red;stroke-width:1px;stroke-linecap:butt;stroke-linejoin:miter;stroke-opacity:1" d="M 114.981,435.972 114.981,418.898 z" id="boundary" inkscape:connector-curvature="0" />
	<path style="fill:none;stroke:red;stroke-width:1px;stroke-linecap:butt;stroke-linejoin:miter;stroke-opacity:1" d="M 114.981,418.898 132.055,417.191 z" id="boundary" inkscape:connector-curvature="0" />
	<path style="fill:none;stroke:red;stroke-width:1px;stroke-linecap:butt;stroke-linejoin:miter;stroke-opacity:1" d="M 179.862,430.85 188.399,413.776 z" id="boundary" inkscape:connector-curvature="0" />
	<path style="fill:none;stroke:red;stroke-width:1px;stroke-linecap:butt;stroke-linejoin:miter;stroke-opacity:1" d="M 188.399,413.776 202.059,400.117 z" id="boundary" inkscape:connector-curvature="0" />
	<path style="fill:none;stroke:red;stroke-width:1px;stroke-linecap:butt;stroke-linejoin:miter;stroke-opacity:1" d="M 316.454,319.869 299.38,328.406 z" id="boundary" inkscape:connector-curvature="0" />
	<path style="fill:none;stroke:red;stroke-width:1px;stroke-linecap:butt;stroke-linejoin:miter;stroke-opacity:1" d="M 265.232,345.48 282.306,336.943 z" id="boundary" inkscape:connector-curvature="0" />
	<path style="fill:none;stroke:red;stroke-width:1px;stroke-linecap:butt;stroke-linejoin:miter;stroke-opacity:1" d="M 256.695,330.114 243.036,319.869 z" id="boundary" inkscape:connector-curvature="0" />
	<path style="fill:none;stroke:red;stroke-width:1px;stroke-linecap:butt;stroke-linejoin:miter;stroke-opacity:1" d="M 256.695,330.114 265.232,345.48 z" id="boundary" inkscape:connector-curvature="0" />
	<path style="fill:none;stroke:red;stroke-width:1px;stroke-linecap:butt;stroke-linejoin:miter;stroke-opacity:1" d="M 299.38,328.406 282.306,336.943 z" id="boundary" inkscape:connector-curvature="0" />
	<path style="fill:none;stroke:red;stroke-width:1px;stroke-linecap:butt;stroke-linejoin:miter;stroke-opacity:1" d="M 106.444,453.046 97.9071,482.072 z" id="boundary" inkscape:connector-curvature="0" />
	<path style="fill:none;stroke:red;stroke-width:1px;stroke-linecap:butt;stroke-linejoin:miter;stroke-opacity:1" d="M 97.9071,482.072 80.833,487.194 z" id="boundary" inkscape:connector-curvature="0" />
	<path style="fill:none;stroke:red;stroke-width:1px;stroke-linecap:butt;stroke-linejoin:miter;stroke-opacity:1" d="M 68.8812,507.683 80.833,487.194 z" id="boundary" inkscape:connector-curvature="0" />
	<path style="fill:none;stroke:red;stroke-width:1px;stroke-linecap:butt;stroke-linejoin:miter;stroke-opacity:1" d="M 21.074,529.88 38.148,524.757 z" id="boundary" inkscape:connector-curvature="0" />
	<path style="fill:none;stroke:red;stroke-width:1px;stroke-linecap:butt;stroke-linejoin:miter;stroke-opacity:1" d="M 55.222,521.343 68.8812,507.683 z" id="boundary" inkscape:connector-curvature="0" />
	<path style="fill:none;stroke:red;stroke-width:1px;stroke-linecap:butt;stroke-linejoin:miter;stroke-opacity:1" d="M 55.222,521.343 38.148,524.757 z" id="boundary" inkscape:connector-curvature="0" />
	<path style="fill:none;stroke:red;stroke-width:1px;stroke-linecap:butt;stroke-linejoin:miter;stroke-opacity:1" d="M 132.055,417.191 138.885,434.265 z" id="boundary" inkscape:connector-curvature="0" />
	<path style="fill:none;stroke:red;stroke-width:1px;stroke-linecap:butt;stroke-linejoin:miter;stroke-opacity:1" d="M 179.862,430.85 164.496,439.387 z" id="boundary" inkscape:connector-curvature="0" />
	<path style="fill:none;stroke:red;stroke-width:1px;stroke-linecap:butt;stroke-linejoin:miter;stroke-opacity:1" d="M 138.885,434.265 149.129,447.924 z" id="boundary" inkscape:connector-curvature="0" />
	<path style="fill:none;stroke:red;stroke-width:1px;stroke-linecap:butt;stroke-linejoin:miter;stroke-opacity:1" d="M 149.129,447.924 164.496,439.387 z" id="boundary" inkscape:connector-curvature="0" />
	<path style="fill:none;stroke:red;stroke-width:1px;stroke-linecap:butt;stroke-linejoin:miter;stroke-opacity:1" d="M 302.795,543.539 319.869,543.539 z" id="boundary" inkscape:connector-curvature="0" />
	<path style="fill:none;stroke:red;stroke-width:1px;stroke-linecap:butt;stroke-linejoin:miter;stroke-opacity:1" d="M 292.551,557.198 302.795,543.539 z" id="boundary" inkscape:connector-curvature="0" />
	<path style="fill:none;stroke:red;stroke-width:1px;stroke-linecap:butt;stroke-linejoin:miter;stroke-opacity:1" d="M 335.236,535.002 319.869,543.539 z" id="boundary" inkscape:connector-curvature="0" />
	<path style="fill:none;stroke:red;stroke-width:1px;stroke-linecap:butt;stroke-linejoin:miter;stroke-opacity:1" d="M 106.444,453.046 114.981,435.972 z" id="boundary" inkscape:connector-curvature="0" />
	<path style="fill:none;stroke:red;stroke-width:1px;stroke-linecap:butt;stroke-linejoin:miter;stroke-opacity:1" d="M 21.074,529.88 4,546.954 z" id="boundary" inkscape:connector-curvature="0" />
	<path style="fill:none;stroke:red;stroke-width:1px;stroke-linecap:butt;stroke-linejoin:miter;stroke-opacity:1" d="M 456.461,103.029 456.461,120.103 z" id="boundary" inkscape:connector-curvature="0" />
	<path style="fill:none;stroke:red;stroke-width:1px;stroke-linecap:butt;stroke-linejoin:miter;stroke-opacity:1" d="M 456.461,103.029 470.12,89.3701 z" id="boundary" inkscape:connector-curvature="0" />
	<path style="fill:none;stroke:red;stroke-width:1px;stroke-linecap:butt;stroke-linejoin:miter;stroke-opacity:1" d="M 456.461,137.177 456.461,120.103 z" id="boundary" inkscape:connector-curvature="0" />
	<path style="fill:none;stroke:red;stroke-width:1px;stroke-linecap:butt;stroke-linejoin:miter;stroke-opacity:1" d="M 430.85,205.473 447.924,188.399 z" id="boundary" inkscape:connector-curvature="0" />
	<path style="fill:none;stroke:red;stroke-width:1px;stroke-linecap:butt;stroke-linejoin:miter;stroke-opacity:1" d="M 456.461,154.251 456.461,171.325 z" id="boundary" inkscape:connector-curvature="0" />
	<path style="fill:none;stroke:red;stroke-width:1px;stroke-linecap:butt;stroke-linejoin:miter;stroke-opacity:1" d="M 456.461,171.325 447.924,188.399 z" id="boundary" inkscape:connector-curvature="0" />
	<path style="fill:none;stroke:red;stroke-width:1px;stroke-linecap:butt;stroke-linejoin:miter;stroke-opacity:1" d="M 456.461,137.177 456.461,154.251 z" id="boundary" inkscape:connector-curvature="0" />
	<path style="fill:none;stroke:red;stroke-width:1px;stroke-linecap:butt;stroke-linejoin:miter;stroke-opacity:1" d="M 490.609,26.1962 490.609,9.1222 z" id="boundary" inkscape:connector-curvature="0" />
	<path style="fill:none;stroke:red;stroke-width:1px;stroke-linecap:butt;stroke-linejoin:miter;stroke-opacity:1" d="M 490.609,9.1222 507.683,4 z" id="boundary" inkscape:connector-curvature="0" />
	<path style="fill:none;stroke:red;stroke-width:1px;stroke-linecap:butt;stroke-linejoin:miter;stroke-opacity:1" d="M 470.12,89.3701 473.535,60.3442 z" id="boundary" inkscape:connector-curvature="0" />
	<path style="fill:none;stroke:red;stroke-width:1px;stroke-linecap:butt;stroke-linejoin:miter;stroke-opacity:1" d="M 482.072,43.2702 490.609,26.1962 z" id="boundary" inkscape:connector-curvature="0" />
	<path style="fill:none;stroke:red;stroke-width:1px;stroke-linecap:butt;stroke-linejoin:miter;stroke-opacity:1" d="M 482.072,43.2702 473.535,60.3442 z" id="boundary" inkscape:connector-curvature="0" />
	<path style="fill:none;stroke:red;stroke-width:1px;stroke-linecap:butt;stroke-linejoin:miter;stroke-opacity:1" d="M 430.85,548.661 430.85,531.587 z" id="boundary" inkscape:connector-curvature="0" />
	<path style="fill:none;stroke:red;stroke-width:1px;stroke-linecap:butt;stroke-linejoin:miter;stroke-opacity:1" d="M 342.065,294.258 354.017,273.769 z" id="boundary" inkscape:connector-curvature="0" />
	<path style="fill:none;stroke:red;stroke-width:1px;stroke-linecap:butt;stroke-linejoin:miter;stroke-opacity:1" d="M 354.017,273.769 371.091,268.647 z" id="boundary" inkscape:connector-curvature="0" />
	<path style="fill:none;stroke:red;stroke-width:1px;stroke-linecap:butt;stroke-linejoin:miter;stroke-opacity:1" d="M 386.458,260.11 371.091,268.647 z" id="boundary" inkscape:connector-curvature="0" />
	<path style="fill:none;stroke:red;stroke-width:1px;stroke-linecap:butt;stroke-linejoin:miter;stroke-opacity:1" d="M 333.528,311.332 342.065,294.258 z" id="boundary" inkscape:connector-curvature="0" />
	<path style="fill:none;stroke:red;stroke-width:1px;stroke-linecap:butt;stroke-linejoin:miter;stroke-opacity:1" d="M 316.454,319.869 333.528,311.332 z" id="boundary" inkscape:connector-curvature="0" />
	<path style="fill:none;stroke:red;stroke-width:1px;stroke-linecap:butt;stroke-linejoin:miter;stroke-opacity:1" d="M 352.31,535.002 367.676,526.465 z" id="boundary" inkscape:connector-curvature="0" />
	<path style="fill:none;stroke:red;stroke-width:1px;stroke-linecap:butt;stroke-linejoin:miter;stroke-opacity:1" d="M 367.676,526.465 384.75,524.757 z" id="boundary" inkscape:connector-curvature="0" />
	<path style="fill:none;stroke:red;stroke-width:1px;stroke-linecap:butt;stroke-linejoin:miter;stroke-opacity:1" d="M 352.31,535.002 335.236,535.002 z" id="boundary" inkscape:connector-curvature="0" />
	<path style="fill:none;stroke:red;stroke-width:1px;stroke-linecap:butt;stroke-linejoin:miter;stroke-opacity:1" d="M 386.458,260.11 401.824,251.573 z" id="boundary" inkscape:connector-curvature="0" />
	<path style="fill:none;stroke:red;stroke-width:1px;stroke-linecap:butt;stroke-linejoin:miter;stroke-opacity:1" d="M 413.776,231.084 401.824,251.573 z" id="boundary" inkscape:connector-curvature="0" />
	<path style="fill:none;stroke:red;stroke-width:1px;stroke-linecap:butt;stroke-linejoin:miter;stroke-opacity:1" d="M 384.75,524.757 401.824,517.928 z" id="boundary" inkscape:connector-curvature="0" />
	<path style="fill:none;stroke:red;stroke-width:1px;stroke-linecap:butt;stroke-linejoin:miter;stroke-opacity:1" d="M 418.898,517.928 430.85,531.587 z" id="boundary" inkscape:connector-curvature="0" />
	<path style="fill:none;stroke:red;stroke-width:1px;stroke-linecap:butt;stroke-linejoin:miter;stroke-opacity:1" d="M 401.824,517.928 418.898,517.928 z" id="boundary" inkscape:connector-curvature="0" />
	<path style="fill:none;stroke:red;stroke-width:1px;stroke-linecap:butt;stroke-linejoin:miter;stroke-opacity:1" d="M 4,564.028 4,546.954 z" id="boundary" inkscape:connector-curvature="0" />
	<path style="fill:none;stroke:red;stroke-width:1px;stroke-linecap:butt;stroke-linejoin:miter;stroke-opacity:1" d="M 4,581.102 4,564.028 z" id="boundary" inkscape:connector-curvature="0" />
	<path style="fill:none;stroke:red;stroke-width:1px;stroke-linecap:butt;stroke-linejoin:miter;stroke-opacity:1" d="M 4,598.176 4,581.102 z" id="boundary" inkscape:connector-curvature="0" />
	<path style="fill:none;stroke:red;stroke-width:1px;stroke-linecap:butt;stroke-linejoin:miter;stroke-opacity:1" d="M 125.225,603.298 142.299,594.761 z" id="boundary" inkscape:connector-curvature="0" />
	<path style="fill:none;stroke:red;stroke-width:1px;stroke-linecap:butt;stroke-linejoin:miter;stroke-opacity:1" d="M 142.299,594.761 159.373,594.761 z" id="boundary" inkscape:connector-curvature="0" />
	<path style="fill:none;stroke:red;stroke-width:1px;stroke-linecap:butt;stroke-linejoin:miter;stroke-opacity:1" d="M 191.814,586.224 176.448,594.761 z" id="boundary" inkscape:connector-curvature="0" />
	<path style="fill:none;stroke:red;stroke-width:1px;stroke-linecap:butt;stroke-linejoin:miter;stroke-opacity:1" d="M 176.448,594.761 159.373,594.761 z" id="boundary" inkscape:connector-curvature="0" />
	<path style="fill:none;stroke:red;stroke-width:1px;stroke-linecap:butt;stroke-linejoin:miter;stroke-opacity:1" d="M 241.329,574.272 258.403,565.735 z" id="boundary" inkscape:connector-curvature="0" />
	<path style="fill:none;stroke:red;stroke-width:1px;stroke-linecap:butt;stroke-linejoin:miter;stroke-opacity:1" d="M 258.403,565.735 275.477,560.613 z" id="boundary" inkscape:connector-curvature="0" />
	<path style="fill:none;stroke:red;stroke-width:1px;stroke-linecap:butt;stroke-linejoin:miter;stroke-opacity:1" d="M 207.181,577.687 191.814,586.224 z" id="boundary" inkscape:connector-curvature="0" />
	<path style="fill:none;stroke:red;stroke-width:1px;stroke-linecap:butt;stroke-linejoin:miter;stroke-opacity:1" d="M 207.181,577.687 224.255,577.687 z" id="boundary" inkscape:connector-curvature="0" />
	<path style="fill:none;stroke:red;stroke-width:1px;stroke-linecap:butt;stroke-linejoin:miter;stroke-opacity:1" d="M 241.329,574.272 224.255,577.687 z" id="boundary" inkscape:connector-curvature="0" />
	<path style="fill:none;stroke:red;stroke-width:1px;stroke-linecap:butt;stroke-linejoin:miter;stroke-opacity:1" d="M 405.239,871.36 388.165,888.434 z" id="boundary" inkscape:connector-curvature="0" />
	<path style="fill:none;stroke:red;stroke-width:1px;stroke-linecap:butt;stroke-linejoin:miter;stroke-opacity:1" d="M 292.551,557.198 275.477,560.613 z" id="boundary" inkscape:connector-curvature="0" />
	<path style="fill:none;stroke:red;stroke-width:1px;stroke-linecap:butt;stroke-linejoin:miter;stroke-opacity:1" d="M 4,632.324 4,615.25 z" id="boundary" inkscape:connector-curvature="0" />
	<path style="fill:none;stroke:red;stroke-width:1px;stroke-linecap:butt;stroke-linejoin:miter;stroke-opacity:1" d="M 4,615.25 4,598.176 z" id="boundary" inkscape:connector-curvature="0" />
	<path style="fill:none;stroke:red;stroke-width:1px;stroke-linecap:butt;stroke-linejoin:miter;stroke-opacity:1" d="M 91.0775,611.835 79.1256,628.909 z" id="boundary" inkscape:connector-curvature="0" />
	<path style="fill:none;stroke:red;stroke-width:1px;stroke-linecap:butt;stroke-linejoin:miter;stroke-opacity:1" d="M 14.2444,645.983 31.3184,645.983 z" id="boundary" inkscape:connector-curvature="0" />
	<path style="fill:none;stroke:red;stroke-width:1px;stroke-linecap:butt;stroke-linejoin:miter;stroke-opacity:1" d="M 14.2444,645.983 4,632.324 z" id="boundary" inkscape:connector-curvature="0" />
	<path style="fill:none;stroke:red;stroke-width:1px;stroke-linecap:butt;stroke-linejoin:miter;stroke-opacity:1" d="M 46.685,637.446 63.759,637.446 z" id="boundary" inkscape:connector-curvature="0" />
	<path style="fill:none;stroke:red;stroke-width:1px;stroke-linecap:butt;stroke-linejoin:miter;stroke-opacity:1" d="M 31.3184,645.983 46.685,637.446 z" id="boundary" inkscape:connector-curvature="0" />
	<path style="fill:none;stroke:red;stroke-width:1px;stroke-linecap:butt;stroke-linejoin:miter;stroke-opacity:1" d="M 79.1256,628.909 63.759,637.446 z" id="boundary" inkscape:connector-curvature="0" />
	<path style="fill:none;stroke:red;stroke-width:1px;stroke-linecap:butt;stroke-linejoin:miter;stroke-opacity:1" d="M 108.151,611.835 91.0775,611.835 z" id="boundary" inkscape:connector-curvature="0" />
	<path style="fill:none;stroke:red;stroke-width:1px;stroke-linecap:butt;stroke-linejoin:miter;stroke-opacity:1" d="M 125.225,603.298 108.151,611.835 z" id="boundary" inkscape:connector-curvature="0" />
	<path style="fill:none;stroke:red;stroke-width:1px;stroke-linecap:butt;stroke-linejoin:miter;stroke-opacity:1" d="M 388.165,888.434 388.165,905.508 z" id="boundary" inkscape:connector-curvature="0" />
	<path style="fill:none;stroke:red;stroke-width:1px;stroke-linecap:butt;stroke-linejoin:miter;stroke-opacity:1" d="M 388.165,905.508 388.165,922.582 z" id="boundary" inkscape:connector-curvature="0" />
	<path style="fill:none;stroke:red;stroke-width:1px;stroke-linecap:butt;stroke-linejoin:miter;stroke-opacity:1" d="M 388.165,939.656 388.165,922.582 z" id="boundary" inkscape:connector-curvature="0" />
	<path style="fill:none;stroke:red;stroke-width:1px;stroke-linecap:butt;stroke-linejoin:miter;stroke-opacity:1" d="M 388.165,939.656 398.41,953.315 z" id="boundary" inkscape:connector-curvature="0" />
	<path style="fill:none;stroke:red;stroke-width:1px;stroke-linecap:butt;stroke-linejoin:miter;stroke-opacity:1" d="M 412.069,941.363 398.41,953.315 z" id="boundary" inkscape:connector-curvature="0" />
	<path style="fill:none;stroke:red;stroke-width:1px;stroke-linecap:butt;stroke-linejoin:miter;stroke-opacity:1" d="M 430.85,565.735 430.85,548.661 z" id="boundary" inkscape:connector-curvature="0" />
	<path style="fill:none;stroke:red;stroke-width:1px;stroke-linecap:butt;stroke-linejoin:miter;stroke-opacity:1" d="M 430.85,582.809 430.85,565.735 z" id="boundary" inkscape:connector-curvature="0" />
	<path style="fill:none;stroke:red;stroke-width:1px;stroke-linecap:butt;stroke-linejoin:miter;stroke-opacity:1" d="M 444.509,594.761 430.85,582.809 z" id="boundary" inkscape:connector-curvature="0" />
	<path style="fill:none;stroke:red;stroke-width:1px;stroke-linecap:butt;stroke-linejoin:miter;stroke-opacity:1" d="M 447.924,611.835 447.924,628.909 z" id="boundary" inkscape:connector-curvature="0" />
	<path style="fill:none;stroke:red;stroke-width:1px;stroke-linecap:butt;stroke-linejoin:miter;stroke-opacity:1" d="M 447.924,611.835 444.509,594.761 z" id="boundary" inkscape:connector-curvature="0" />
	<path style="fill:none;stroke:red;stroke-width:1px;stroke-linecap:butt;stroke-linejoin:miter;stroke-opacity:1" d="M 447.924,628.909 447.924,645.983 z" id="boundary" inkscape:connector-curvature="0" />
	<path style="fill:none;stroke:red;stroke-width:1px;stroke-linecap:butt;stroke-linejoin:miter;stroke-opacity:1" d="M 447.924,663.057 447.924,645.983 z" id="boundary" inkscape:connector-curvature="0" />
	<path style="fill:none;stroke:red;stroke-width:1px;stroke-linecap:butt;stroke-linejoin:miter;stroke-opacity:1" d="M 447.924,663.057 453.046,680.131 z" id="boundary" inkscape:connector-curvature="0" />
	<path style="fill:none;stroke:red;stroke-width:1px;stroke-linecap:butt;stroke-linejoin:miter;stroke-opacity:1" d="M 456.461,697.205 453.046,680.131 z" id="boundary" inkscape:connector-curvature="0" />
	<path style="fill:none;stroke:red;stroke-width:1px;stroke-linecap:butt;stroke-linejoin:miter;stroke-opacity:1" d="M 456.461,697.205 456.461,714.279 z" id="boundary" inkscape:connector-curvature="0" />
	<path style="fill:none;stroke:red;stroke-width:1px;stroke-linecap:butt;stroke-linejoin:miter;stroke-opacity:1" d="M 456.461,714.279 456.461,731.353 z" id="boundary" inkscape:connector-curvature="0" />
	<path style="fill:none;stroke:red;stroke-width:1px;stroke-linecap:butt;stroke-linejoin:miter;stroke-opacity:1" d="M 461.583,748.427 456.461,731.353 z" id="boundary" inkscape:connector-curvature="0" />
	<path style="fill:none;stroke:red;stroke-width:1px;stroke-linecap:butt;stroke-linejoin:miter;stroke-opacity:1" d="M 464.998,782.575 464.998,765.501 z" id="boundary" inkscape:connector-curvature="0" />
	<path style="fill:none;stroke:red;stroke-width:1px;stroke-linecap:butt;stroke-linejoin:miter;stroke-opacity:1" d="M 461.583,748.427 464.998,765.501 z" id="boundary" inkscape:connector-curvature="0" />
	<path style="fill:none;stroke:red;stroke-width:1px;stroke-linecap:butt;stroke-linejoin:miter;stroke-opacity:1" d="M 405.239,871.36 422.313,854.286 z" id="boundary" inkscape:connector-curvature="0" />
	<path style="fill:none;stroke:red;stroke-width:1px;stroke-linecap:butt;stroke-linejoin:miter;stroke-opacity:1" d="M 435.972,840.627 422.313,854.286 z" id="boundary" inkscape:connector-curvature="0" />
	<path style="fill:none;stroke:red;stroke-width:1px;stroke-linecap:butt;stroke-linejoin:miter;stroke-opacity:1" d="M 453.046,832.09 435.972,840.627 z" id="boundary" inkscape:connector-curvature="0" />
	<path style="fill:none;stroke:red;stroke-width:1px;stroke-linecap:butt;stroke-linejoin:miter;stroke-opacity:1" d="M 461.583,815.015 453.046,832.09 z" id="boundary" inkscape:connector-curvature="0" />
	<path style="fill:none;stroke:red;stroke-width:1px;stroke-linecap:butt;stroke-linejoin:miter;stroke-opacity:1" d="M 429.143,932.826 412.069,941.363 z" id="boundary" inkscape:connector-curvature="0" />
	<path style="fill:none;stroke:red;stroke-width:1px;stroke-linecap:butt;stroke-linejoin:miter;stroke-opacity:1" d="M 429.143,932.826 446.217,927.704 z" id="boundary" inkscape:connector-curvature="0" />
	<path style="fill:none;stroke:red;stroke-width:1px;stroke-linecap:butt;stroke-linejoin:miter;stroke-opacity:1" d="M 461.583,919.167 446.217,927.704 z" id="boundary" inkscape:connector-curvature="0" />
	<path style="fill:none;stroke:red;stroke-width:1px;stroke-linecap:butt;stroke-linejoin:miter;stroke-opacity:1" d="M 464.998,782.575 461.583,815.015 z" id="boundary" inkscape:connector-curvature="0" />
	<path style="fill:none;stroke:red;stroke-width:1px;stroke-linecap:butt;stroke-linejoin:miter;stroke-opacity:1" d="M 494.024,915.752 476.95,910.63 z" id="boundary" inkscape:connector-curvature="0" />
	<path style="fill:none;stroke:red;stroke-width:1px;stroke-linecap:butt;stroke-linejoin:miter;stroke-opacity:1" d="M 476.95,910.63 461.583,919.167 z" id="boundary" inkscape:connector-curvature="0" />
	<path style="fill:none;stroke:red;stroke-width:1px;stroke-linecap:butt;stroke-linejoin:miter;stroke-opacity:1" d="M 494.024,915.752 507.683,927.704 z" id="boundary" inkscape:connector-curvature="0" />
	<path style="fill:none;stroke:red;stroke-width:1px;stroke-linecap:butt;stroke-linejoin:miter;stroke-opacity:1" d="M 507.683,4 524.757,4 z" id="boundary" inkscape:connector-curvature="0" />
	<path style="fill:none;stroke:red;stroke-width:1px;stroke-linecap:butt;stroke-linejoin:miter;stroke-opacity:1" d="M 524.757,4 535.002,17.6592 z" id="boundary" inkscape:connector-curvature="0" />
	<path style="fill:none;stroke:red;stroke-width:1px;stroke-linecap:butt;stroke-linejoin:miter;stroke-opacity:1" d="M 543.539,50.0998 535.002,34.7332 z" id="boundary" inkscape:connector-curvature="0" />
	<path style="fill:none;stroke:red;stroke-width:1px;stroke-linecap:butt;stroke-linejoin:miter;stroke-opacity:1" d="M 535.002,34.7332 535.002,17.6592 z" id="boundary" inkscape:connector-curvature="0" />
	<path style="fill:none;stroke:red;stroke-width:1px;stroke-linecap:butt;stroke-linejoin:miter;stroke-opacity:1" d="M 552.076,65.4664 543.539,50.0998 z" id="boundary" inkscape:connector-curvature="0" />
	<path style="fill:none;stroke:red;stroke-width:1px;stroke-linecap:butt;stroke-linejoin:miter;stroke-opacity:1" d="M 552.076,65.4664 552.076,82.5404 z" id="boundary" inkscape:connector-curvature="0" />
	<path style="fill:none;stroke:red;stroke-width:1px;stroke-linecap:butt;stroke-linejoin:miter;stroke-opacity:1" d="M 560.613,97.9071 552.076,82.5404 z" id="boundary" inkscape:connector-curvature="0" />
	<path style="fill:none;stroke:red;stroke-width:1px;stroke-linecap:butt;stroke-linejoin:miter;stroke-opacity:1" d="M 560.613,97.9071 560.613,114.981 z" id="boundary" inkscape:connector-curvature="0" />
	<path style="fill:none;stroke:red;stroke-width:1px;stroke-linecap:butt;stroke-linejoin:miter;stroke-opacity:1" d="M 569.15,130.348 560.613,114.981 z" id="boundary" inkscape:connector-curvature="0" />
	<path style="fill:none;stroke:red;stroke-width:1px;stroke-linecap:butt;stroke-linejoin:miter;stroke-opacity:1" d="M 569.15,130.348 569.15,147.422 z" id="boundary" inkscape:connector-curvature="0" />
	<path style="fill:none;stroke:red;stroke-width:1px;stroke-linecap:butt;stroke-linejoin:miter;stroke-opacity:1" d="M 569.15,164.496 569.15,147.422 z" id="boundary" inkscape:connector-curvature="0" />
	<path style="fill:none;stroke:red;stroke-width:1px;stroke-linecap:butt;stroke-linejoin:miter;stroke-opacity:1" d="M 569.15,181.57 569.15,198.644 z" id="boundary" inkscape:connector-curvature="0" />
	<path style="fill:none;stroke:red;stroke-width:1px;stroke-linecap:butt;stroke-linejoin:miter;stroke-opacity:1" d="M 586.224,205.473 569.15,198.644 z" id="boundary" inkscape:connector-curvature="0" />
	<path style="fill:none;stroke:red;stroke-width:1px;stroke-linecap:butt;stroke-linejoin:miter;stroke-opacity:1" d="M 586.224,205.473 594.761,220.84 z" id="boundary" inkscape:connector-curvature="0" />
	<path style="fill:none;stroke:red;stroke-width:1px;stroke-linecap:butt;stroke-linejoin:miter;stroke-opacity:1" d="M 569.15,181.57 569.15,164.496 z" id="boundary" inkscape:connector-curvature="0" />
	<path style="fill:none;stroke:red;stroke-width:1px;stroke-linecap:butt;stroke-linejoin:miter;stroke-opacity:1" d="M 594.761,220.84 605.005,234.499 z" id="boundary" inkscape:connector-curvature="0" />
	<path style="fill:none;stroke:red;stroke-width:1px;stroke-linecap:butt;stroke-linejoin:miter;stroke-opacity:1" d="M 605.005,234.499 618.664,246.451 z" id="boundary" inkscape:connector-curvature="0" />
	<path style="fill:none;stroke:red;stroke-width:1px;stroke-linecap:butt;stroke-linejoin:miter;stroke-opacity:1" d="M 618.664,246.451 628.909,260.11 z" id="boundary" inkscape:connector-curvature="0" />
	<path style="fill:none;stroke:red;stroke-width:1px;stroke-linecap:butt;stroke-linejoin:miter;stroke-opacity:1" d="M 645.983,260.11 628.909,260.11 z" id="boundary" inkscape:connector-curvature="0" />
	<path style="fill:none;stroke:red;stroke-width:1px;stroke-linecap:butt;stroke-linejoin:miter;stroke-opacity:1" d="M 586.224,509.391 586.224,526.465 z" id="boundary" inkscape:connector-curvature="0" />
	<path style="fill:none;stroke:red;stroke-width:1px;stroke-linecap:butt;stroke-linejoin:miter;stroke-opacity:1" d="M 586.224,509.391 603.298,509.391 z" id="boundary" inkscape:connector-curvature="0" />
	<path style="fill:none;stroke:red;stroke-width:1px;stroke-linecap:butt;stroke-linejoin:miter;stroke-opacity:1" d="M 603.298,509.391 618.664,517.928 z" id="boundary" inkscape:connector-curvature="0" />
	<path style="fill:none;stroke:red;stroke-width:1px;stroke-linecap:butt;stroke-linejoin:miter;stroke-opacity:1" d="M 586.224,543.539 586.224,526.465 z" id="boundary" inkscape:connector-curvature="0" />
	<path style="fill:none;stroke:red;stroke-width:1px;stroke-linecap:butt;stroke-linejoin:miter;stroke-opacity:1" d="M 659.642,270.355 668.179,285.721 z" id="boundary" inkscape:connector-curvature="0" />
	<path style="fill:none;stroke:red;stroke-width:1px;stroke-linecap:butt;stroke-linejoin:miter;stroke-opacity:1" d="M 659.642,270.355 645.983,260.11 z" id="boundary" inkscape:connector-curvature="0" />
	<path style="fill:none;stroke:red;stroke-width:1px;stroke-linecap:butt;stroke-linejoin:miter;stroke-opacity:1" d="M 668.179,285.721 683.546,294.258 z" id="boundary" inkscape:connector-curvature="0" />
	<path style="fill:none;stroke:red;stroke-width:1px;stroke-linecap:butt;stroke-linejoin:miter;stroke-opacity:1" d="M 697.205,304.503 683.546,294.258 z" id="boundary" inkscape:connector-curvature="0" />
	<path style="fill:none;stroke:red;stroke-width:1px;stroke-linecap:butt;stroke-linejoin:miter;stroke-opacity:1" d="M 634.031,526.465 651.105,526.465 z" id="boundary" inkscape:connector-curvature="0" />
	<path style="fill:none;stroke:red;stroke-width:1px;stroke-linecap:butt;stroke-linejoin:miter;stroke-opacity:1" d="M 634.031,526.465 618.664,517.928 z" id="boundary" inkscape:connector-curvature="0" />
	<path style="fill:none;stroke:red;stroke-width:1px;stroke-linecap:butt;stroke-linejoin:miter;stroke-opacity:1" d="M 697.205,304.503 705.742,319.869 z" id="boundary" inkscape:connector-curvature="0" />
	<path style="fill:none;stroke:red;stroke-width:1px;stroke-linecap:butt;stroke-linejoin:miter;stroke-opacity:1" d="M 668.179,526.465 651.105,526.465 z" id="boundary" inkscape:connector-curvature="0" />
	<path style="fill:none;stroke:red;stroke-width:1px;stroke-linecap:butt;stroke-linejoin:miter;stroke-opacity:1" d="M 668.179,526.465 683.546,535.002 z" id="boundary" inkscape:connector-curvature="0" />
	<path style="fill:none;stroke:red;stroke-width:1px;stroke-linecap:butt;stroke-linejoin:miter;stroke-opacity:1" d="M 722.816,324.991 705.742,319.869 z" id="boundary" inkscape:connector-curvature="0" />
	<path style="fill:none;stroke:red;stroke-width:1px;stroke-linecap:butt;stroke-linejoin:miter;stroke-opacity:1" d="M 785.99,311.332 768.916,311.332 z" id="boundary" inkscape:connector-curvature="0" />
	<path style="fill:none;stroke:red;stroke-width:1px;stroke-linecap:butt;stroke-linejoin:miter;stroke-opacity:1" d="M 760.379,328.406 768.916,311.332 z" id="boundary" inkscape:connector-curvature="0" />
	<path style="fill:none;stroke:red;stroke-width:1px;stroke-linecap:butt;stroke-linejoin:miter;stroke-opacity:1" d="M 722.816,324.991 734.768,338.651 z" id="boundary" inkscape:connector-curvature="0" />
	<path style="fill:none;stroke:red;stroke-width:1px;stroke-linecap:butt;stroke-linejoin:miter;stroke-opacity:1" d="M 751.842,345.48 760.379,328.406 z" id="boundary" inkscape:connector-curvature="0" />
	<path style="fill:none;stroke:red;stroke-width:1px;stroke-linecap:butt;stroke-linejoin:miter;stroke-opacity:1" d="M 751.842,345.48 734.768,338.651 z" id="boundary" inkscape:connector-curvature="0" />
	<path style="fill:none;stroke:red;stroke-width:1px;stroke-linecap:butt;stroke-linejoin:miter;stroke-opacity:1" d="M 785.99,311.332 797.941,324.991 z" id="boundary" inkscape:connector-curvature="0" />
	<path style="fill:none;stroke:red;stroke-width:1px;stroke-linecap:butt;stroke-linejoin:miter;stroke-opacity:1" d="M 799.649,342.065 799.649,359.139 z" id="boundary" inkscape:connector-curvature="0" />
	<path style="fill:none;stroke:red;stroke-width:1px;stroke-linecap:butt;stroke-linejoin:miter;stroke-opacity:1" d="M 799.649,342.065 797.941,324.991 z" id="boundary" inkscape:connector-curvature="0" />
	<path style="fill:none;stroke:red;stroke-width:1px;stroke-linecap:butt;stroke-linejoin:miter;stroke-opacity:1" d="M 799.649,359.139 799.649,376.213 z" id="boundary" inkscape:connector-curvature="0" />
	<path style="fill:none;stroke:red;stroke-width:1px;stroke-linecap:butt;stroke-linejoin:miter;stroke-opacity:1" d="M 799.649,376.213 806.478,393.287 z" id="boundary" inkscape:connector-curvature="0" />
	<path style="fill:none;stroke:red;stroke-width:1px;stroke-linecap:butt;stroke-linejoin:miter;stroke-opacity:1" d="M 820.138,405.239 806.478,393.287 z" id="boundary" inkscape:connector-curvature="0" />
	<path style="fill:none;stroke:red;stroke-width:1px;stroke-linecap:butt;stroke-linejoin:miter;stroke-opacity:1" d="M 900.386,408.654 883.312,410.361 z" id="boundary" inkscape:connector-curvature="0" />
	<path style="fill:none;stroke:red;stroke-width:1px;stroke-linecap:butt;stroke-linejoin:miter;stroke-opacity:1" d="M 845.749,430.85 832.09,418.898 z" id="boundary" inkscape:connector-curvature="0" />
	<path style="fill:none;stroke:red;stroke-width:1px;stroke-linecap:butt;stroke-linejoin:miter;stroke-opacity:1" d="M 832.09,418.898 820.138,405.239 z" id="boundary" inkscape:connector-curvature="0" />
	<path style="fill:none;stroke:red;stroke-width:1px;stroke-linecap:butt;stroke-linejoin:miter;stroke-opacity:1" d="M 900.386,408.654 910.63,422.313 z" id="boundary" inkscape:connector-curvature="0" />
	<path style="fill:none;stroke:red;stroke-width:1px;stroke-linecap:butt;stroke-linejoin:miter;stroke-opacity:1" d="M 845.749,430.85 861.115,439.387 z" id="boundary" inkscape:connector-curvature="0" />
	<path style="fill:none;stroke:red;stroke-width:1px;stroke-linecap:butt;stroke-linejoin:miter;stroke-opacity:1" d="M 878.189,432.558 861.115,439.387 z" id="boundary" inkscape:connector-curvature="0" />
	<path style="fill:none;stroke:red;stroke-width:1px;stroke-linecap:butt;stroke-linejoin:miter;stroke-opacity:1" d="M 910.63,422.313 910.63,439.387 z" id="boundary" inkscape:connector-curvature="0" />
	<path style="fill:none;stroke:red;stroke-width:1px;stroke-linecap:butt;stroke-linejoin:miter;stroke-opacity:1" d="M 910.63,439.387 910.63,456.461 z" id="boundary" inkscape:connector-curvature="0" />
	<path style="fill:none;stroke:red;stroke-width:1px;stroke-linecap:butt;stroke-linejoin:miter;stroke-opacity:1" d="M 910.63,456.461 910.63,473.535 z" id="boundary" inkscape:connector-curvature="0" />
	<path style="fill:none;stroke:red;stroke-width:1px;stroke-linecap:butt;stroke-linejoin:miter;stroke-opacity:1" d="M 924.289,483.78 910.63,473.535 z" id="boundary" inkscape:connector-curvature="0" />
	<path style="fill:none;stroke:red;stroke-width:1px;stroke-linecap:butt;stroke-linejoin:miter;stroke-opacity:1" d="M 924.289,483.78 927.704,500.854 z" id="boundary" inkscape:connector-curvature="0" />
	<path style="fill:none;stroke:red;stroke-width:1px;stroke-linecap:butt;stroke-linejoin:miter;stroke-opacity:1" d="M 941.363,511.098 927.704,500.854 z" id="boundary" inkscape:connector-curvature="0" />
	<path style="fill:none;stroke:red;stroke-width:1px;stroke-linecap:butt;stroke-linejoin:miter;stroke-opacity:1" d="M 941.363,511.098 958.437,517.928 z" id="boundary" inkscape:connector-curvature="0" />
	<path style="fill:none;stroke:red;stroke-width:1px;stroke-linecap:butt;stroke-linejoin:miter;stroke-opacity:1" d="M 958.437,517.928 973.804,526.465 z" id="boundary" inkscape:connector-curvature="0" />
	<path style="fill:none;stroke:red;stroke-width:1px;stroke-linecap:butt;stroke-linejoin:miter;stroke-opacity:1" d="M 990.878,533.294 973.804,526.465 z" id="boundary" inkscape:connector-curvature="0" />
	<path style="fill:none;stroke:red;stroke-width:1px;stroke-linecap:butt;stroke-linejoin:miter;stroke-opacity:1" d="M 990.878,533.294 996,550.368 z" id="boundary" inkscape:connector-curvature="0" />
	<path style="fill:none;stroke:red;stroke-width:1px;stroke-linecap:butt;stroke-linejoin:miter;stroke-opacity:1" d="M 560.613,688.668 560.613,671.594 z" id="boundary" inkscape:connector-curvature="0" />
	<path style="fill:none;stroke:red;stroke-width:1px;stroke-linecap:butt;stroke-linejoin:miter;stroke-opacity:1" d="M 560.613,671.594 569.15,654.52 z" id="boundary" inkscape:connector-curvature="0" />
	<path style="fill:none;stroke:red;stroke-width:1px;stroke-linecap:butt;stroke-linejoin:miter;stroke-opacity:1" d="M 560.613,705.742 560.613,688.668 z" id="boundary" inkscape:connector-curvature="0" />
	<path style="fill:none;stroke:red;stroke-width:1px;stroke-linecap:butt;stroke-linejoin:miter;stroke-opacity:1" d="M 552.076,756.964 552.076,774.038 z" id="boundary" inkscape:connector-curvature="0" />
	<path style="fill:none;stroke:red;stroke-width:1px;stroke-linecap:butt;stroke-linejoin:miter;stroke-opacity:1" d="M 552.076,756.964 552.076,739.89 z" id="boundary" inkscape:connector-curvature="0" />
	<path style="fill:none;stroke:red;stroke-width:1px;stroke-linecap:butt;stroke-linejoin:miter;stroke-opacity:1" d="M 552.076,739.89 560.613,722.816 z" id="boundary" inkscape:connector-curvature="0" />
	<path style="fill:none;stroke:red;stroke-width:1px;stroke-linecap:butt;stroke-linejoin:miter;stroke-opacity:1" d="M 560.613,705.742 560.613,722.816 z" id="boundary" inkscape:connector-curvature="0" />
	<path style="fill:none;stroke:red;stroke-width:1px;stroke-linecap:butt;stroke-linejoin:miter;stroke-opacity:1" d="M 569.15,603.298 569.15,620.372 z" id="boundary" inkscape:connector-curvature="0" />
	<path style="fill:none;stroke:red;stroke-width:1px;stroke-linecap:butt;stroke-linejoin:miter;stroke-opacity:1" d="M 586.224,560.613 586.224,577.687 z" id="boundary" inkscape:connector-curvature="0" />
	<path style="fill:none;stroke:red;stroke-width:1px;stroke-linecap:butt;stroke-linejoin:miter;stroke-opacity:1" d="M 569.15,603.298 569.15,586.224 z" id="boundary" inkscape:connector-curvature="0" />
	<path style="fill:none;stroke:red;stroke-width:1px;stroke-linecap:butt;stroke-linejoin:miter;stroke-opacity:1" d="M 569.15,620.372 569.15,637.446 z" id="boundary" inkscape:connector-curvature="0" />
	<path style="fill:none;stroke:red;stroke-width:1px;stroke-linecap:butt;stroke-linejoin:miter;stroke-opacity:1" d="M 569.15,637.446 569.15,654.52 z" id="boundary" inkscape:connector-curvature="0" />
	<path style="fill:none;stroke:red;stroke-width:1px;stroke-linecap:butt;stroke-linejoin:miter;stroke-opacity:1" d="M 586.224,543.539 586.224,560.613 z" id="boundary" inkscape:connector-curvature="0" />
	<path style="fill:none;stroke:red;stroke-width:1px;stroke-linecap:butt;stroke-linejoin:miter;stroke-opacity:1" d="M 552.076,791.112 552.076,808.186 z" id="boundary" inkscape:connector-curvature="0" />
	<path style="fill:none;stroke:red;stroke-width:1px;stroke-linecap:butt;stroke-linejoin:miter;stroke-opacity:1" d="M 577.687,840.627 560.613,823.552 z" id="boundary" inkscape:connector-curvature="0" />
	<path style="fill:none;stroke:red;stroke-width:1px;stroke-linecap:butt;stroke-linejoin:miter;stroke-opacity:1" d="M 560.613,823.552 552.076,808.186 z" id="boundary" inkscape:connector-curvature="0" />
	<path style="fill:none;stroke:red;stroke-width:1px;stroke-linecap:butt;stroke-linejoin:miter;stroke-opacity:1" d="M 533.294,902.093 548.661,910.63 z" id="boundary" inkscape:connector-curvature="0" />
	<path style="fill:none;stroke:red;stroke-width:1px;stroke-linecap:butt;stroke-linejoin:miter;stroke-opacity:1" d="M 552.076,791.112 552.076,774.038 z" id="boundary" inkscape:connector-curvature="0" />
	<path style="fill:none;stroke:red;stroke-width:1px;stroke-linecap:butt;stroke-linejoin:miter;stroke-opacity:1" d="M 586.224,855.993 599.883,867.945 z" id="boundary" inkscape:connector-curvature="0" />
	<path style="fill:none;stroke:red;stroke-width:1px;stroke-linecap:butt;stroke-linejoin:miter;stroke-opacity:1" d="M 586.224,855.993 577.687,840.627 z" id="boundary" inkscape:connector-curvature="0" />
	<path style="fill:none;stroke:red;stroke-width:1px;stroke-linecap:butt;stroke-linejoin:miter;stroke-opacity:1" d="M 564.028,919.167 548.661,910.63 z" id="boundary" inkscape:connector-curvature="0" />
	<path style="fill:none;stroke:red;stroke-width:1px;stroke-linecap:butt;stroke-linejoin:miter;stroke-opacity:1" d="M 615.25,900.386 606.713,885.019 z" id="boundary" inkscape:connector-curvature="0" />
	<path style="fill:none;stroke:red;stroke-width:1px;stroke-linecap:butt;stroke-linejoin:miter;stroke-opacity:1" d="M 606.713,885.019 599.883,867.945 z" id="boundary" inkscape:connector-curvature="0" />
	<path style="fill:none;stroke:red;stroke-width:1px;stroke-linecap:butt;stroke-linejoin:miter;stroke-opacity:1" d="M 564.028,919.167 579.394,927.704 z" id="boundary" inkscape:connector-curvature="0" />
	<path style="fill:none;stroke:red;stroke-width:1px;stroke-linecap:butt;stroke-linejoin:miter;stroke-opacity:1" d="M 596.468,932.826 610.127,944.778 z" id="boundary" inkscape:connector-curvature="0" />
	<path style="fill:none;stroke:red;stroke-width:1px;stroke-linecap:butt;stroke-linejoin:miter;stroke-opacity:1" d="M 579.394,927.704 596.468,932.826 z" id="boundary" inkscape:connector-curvature="0" />
	<path style="fill:none;stroke:red;stroke-width:1px;stroke-linecap:butt;stroke-linejoin:miter;stroke-opacity:1" d="M 623.787,934.534 610.127,944.778 z" id="boundary" inkscape:connector-curvature="0" />
	<path style="fill:none;stroke:red;stroke-width:1px;stroke-linecap:butt;stroke-linejoin:miter;stroke-opacity:1" d="M 717.694,543.539 700.62,541.831 z" id="boundary" inkscape:connector-curvature="0" />
	<path style="fill:none;stroke:red;stroke-width:1px;stroke-linecap:butt;stroke-linejoin:miter;stroke-opacity:1" d="M 700.62,541.831 683.546,535.002 z" id="boundary" inkscape:connector-curvature="0" />
	<path style="fill:none;stroke:red;stroke-width:1px;stroke-linecap:butt;stroke-linejoin:miter;stroke-opacity:1" d="M 734.768,543.539 743.305,558.905 z" id="boundary" inkscape:connector-curvature="0" />
	<path style="fill:none;stroke:red;stroke-width:1px;stroke-linecap:butt;stroke-linejoin:miter;stroke-opacity:1" d="M 717.694,543.539 734.768,543.539 z" id="boundary" inkscape:connector-curvature="0" />
	<path style="fill:none;stroke:red;stroke-width:1px;stroke-linecap:butt;stroke-linejoin:miter;stroke-opacity:1" d="M 758.671,567.442 743.305,558.905 z" id="boundary" inkscape:connector-curvature="0" />
	<path style="fill:none;stroke:red;stroke-width:1px;stroke-linecap:butt;stroke-linejoin:miter;stroke-opacity:1" d="M 758.671,567.442 775.745,569.15 z" id="boundary" inkscape:connector-curvature="0" />
	<path style="fill:none;stroke:red;stroke-width:1px;stroke-linecap:butt;stroke-linejoin:miter;stroke-opacity:1" d="M 792.819,569.15 775.745,569.15 z" id="boundary" inkscape:connector-curvature="0" />
	<path style="fill:none;stroke:red;stroke-width:1px;stroke-linecap:butt;stroke-linejoin:miter;stroke-opacity:1" d="M 808.186,577.687 792.819,569.15 z" id="boundary" inkscape:connector-curvature="0" />
	<path style="fill:none;stroke:red;stroke-width:1px;stroke-linecap:butt;stroke-linejoin:miter;stroke-opacity:1" d="M 857.701,586.224 840.627,586.224 z" id="boundary" inkscape:connector-curvature="0" />
	<path style="fill:none;stroke:red;stroke-width:1px;stroke-linecap:butt;stroke-linejoin:miter;stroke-opacity:1" d="M 808.186,577.687 823.552,586.224 z" id="boundary" inkscape:connector-curvature="0" />
	<path style="fill:none;stroke:red;stroke-width:1px;stroke-linecap:butt;stroke-linejoin:miter;stroke-opacity:1" d="M 840.627,586.224 823.552,586.224 z" id="boundary" inkscape:connector-curvature="0" />
	<path style="fill:none;stroke:red;stroke-width:1px;stroke-linecap:butt;stroke-linejoin:miter;stroke-opacity:1" d="M 996,567.442 996,584.516 z" id="boundary" inkscape:connector-curvature="0" />
	<path style="fill:none;stroke:red;stroke-width:1px;stroke-linecap:butt;stroke-linejoin:miter;stroke-opacity:1" d="M 996,550.368 996,567.442 z" id="boundary" inkscape:connector-curvature="0" />
	<path style="fill:none;stroke:red;stroke-width:1px;stroke-linecap:butt;stroke-linejoin:miter;stroke-opacity:1" d="M 873.067,594.761 888.434,603.298 z" id="boundary" inkscape:connector-curvature="0" />
	<path style="fill:none;stroke:red;stroke-width:1px;stroke-linecap:butt;stroke-linejoin:miter;stroke-opacity:1" d="M 873.067,594.761 857.701,586.224 z" id="boundary" inkscape:connector-curvature="0" />
	<path style="fill:none;stroke:red;stroke-width:1px;stroke-linecap:butt;stroke-linejoin:miter;stroke-opacity:1" d="M 905.508,603.298 888.434,603.298 z" id="boundary" inkscape:connector-curvature="0" />
	<path style="fill:none;stroke:red;stroke-width:1px;stroke-linecap:butt;stroke-linejoin:miter;stroke-opacity:1" d="M 620.372,917.46 623.787,934.534 z" id="boundary" inkscape:connector-curvature="0" />
	<path style="fill:none;stroke:red;stroke-width:1px;stroke-linecap:butt;stroke-linejoin:miter;stroke-opacity:1" d="M 620.372,917.46 615.25,900.386 z" id="boundary" inkscape:connector-curvature="0" />
	<path style="fill:none;stroke:red;stroke-width:1px;stroke-linecap:butt;stroke-linejoin:miter;stroke-opacity:1" d="M 905.508,603.298 920.874,611.835 z" id="boundary" inkscape:connector-curvature="0" />
	<path style="fill:none;stroke:red;stroke-width:1px;stroke-linecap:butt;stroke-linejoin:miter;stroke-opacity:1" d="M 920.874,611.835 934.534,622.079 z" id="boundary" inkscape:connector-curvature="0" />
	<path style="fill:none;stroke:red;stroke-width:1px;stroke-linecap:butt;stroke-linejoin:miter;stroke-opacity:1" d="M 951.608,628.909 934.534,622.079 z" id="boundary" inkscape:connector-curvature="0" />
	<path style="fill:none;stroke:red;stroke-width:1px;stroke-linecap:butt;stroke-linejoin:miter;stroke-opacity:1" d="M 996,601.59 996,618.664 z" id="boundary" inkscape:connector-curvature="0" />
	<path style="fill:none;stroke:red;stroke-width:1px;stroke-linecap:butt;stroke-linejoin:miter;stroke-opacity:1" d="M 951.608,628.909 968.682,628.909 z" id="boundary" inkscape:connector-curvature="0" />
	<path style="fill:none;stroke:red;stroke-width:1px;stroke-linecap:butt;stroke-linejoin:miter;stroke-opacity:1" d="M 968.682,628.909 978.926,642.568 z" id="boundary" inkscape:connector-curvature="0" />
	<path style="fill:none;stroke:red;stroke-width:1px;stroke-linecap:butt;stroke-linejoin:miter;stroke-opacity:1" d="M 978.926,642.568 996,635.738 z" id="boundary" inkscape:connector-curvature="0" />
	<path style="fill:none;stroke:red;stroke-width:1px;stroke-linecap:butt;stroke-linejoin:miter;stroke-opacity:1" d="M 996,618.664 996,635.738 z" id="boundary" inkscape:connector-curvature="0" />
	<path style="fill:none;stroke:red;stroke-width:1px;stroke-linecap:butt;stroke-linejoin:miter;stroke-opacity:1" d="M 996,584.516 996,601.59 z" id="boundary" inkscape:connector-curvature="0" />
	<circle cx="4" cy="546.954" r="4" fill="#0" id="circle0"/>
	<circle cx="4" cy="564.028" r="4" fill="#0" id="circle1"/>
	<circle cx="4" cy="581.102" r="4" fill="#0" id="circle2"/>
	<circle cx="4" cy="598.176" r="4" fill="#0" id="circle3"/>
	<circle cx="4" cy="615.25" r="4" fill="#0" id="circle4"/>
	<circle cx="4" cy="632.324" r="4" fill="#0" id="circle5"/>
	<circle cx="14.2444" cy="645.983" r="4" fill="#0" id="circle6"/>
	<circle cx="21.074" cy="529.88" r="4" fill="#0" id="circle7"/>
	<circle cx="31.3184" cy="645.983" r="4" fill="#0" id="circle8"/>
	<circle cx="38.148" cy="524.757" r="4" fill="#0" id="circle9"/>
	<circle cx="46.685" cy="637.446" r="4" fill="#0" id="circle10"/>
	<circle cx="55.222" cy="521.343" r="4" fill="#0" id="circle11"/>
	<circle cx="63.759" cy="637.446" r="4" fill="#0" id="circle12"/>
	<circle cx="68.8812" cy="507.683" r="4" fill="#0" id="circle13"/>
	<circle cx="79.1256" cy="628.909" r="4" fill="#0" id="circle14"/>
	<circle cx="80.833" cy="487.194" r="4" fill="#0" id="circle15"/>
	<circle cx="91.0775" cy="611.835" r="4" fill="#0" id="circle16"/>
	<circle cx="97.9071" cy="482.072" r="4" fill="#0" id="circle17"/>
	<circle cx="106.444" cy="453.046" r="4" fill="#0" id="circle18"/>
	<circle cx="108.151" cy="611.835" r="4" fill="#0" id="circle19"/>
	<circle cx="114.981" cy="418.898" r="4" fill="#0" id="circle20"/>
	<circle cx="114.981" cy="435.972" r="4" fill="#0" id="circle21"/>
	<circle cx="125.225" cy="603.298" r="4" fill="#0" id="circle22"/>
	<circle cx="132.055" cy="417.191" r="4" fill="#0" id="circle23"/>
	<circle cx="138.885" cy="434.265" r="4" fill="#0" id="circle24"/>
	<circle cx="142.299" cy="594.761" r="4" fill="#0" id="circle25"/>
	<circle cx="149.129" cy="447.924" r="4" fill="#0" id="circle26"/>
	<circle cx="159.373" cy="594.761" r="4" fill="#0" id="circle27"/>
	<circle cx="164.496" cy="439.387" r="4" fill="#0" id="circle28"/>
	<circle cx="176.448" cy="594.761" r="4" fill="#0" id="circle29"/>
	<circle cx="179.862" cy="430.85" r="4" fill="#0" id="circle30"/>
	<circle cx="188.399" cy="413.776" r="4" fill="#0" id="circle31"/>
	<circle cx="191.814" cy="586.224" r="4" fill="#0" id="circle32"/>
	<circle cx="202.059" cy="400.117" r="4" fill="#0" id="circle33"/>
	<circle cx="207.181" cy="577.687" r="4" fill="#0" id="circle34"/>
	<circle cx="215.718" cy="388.165" r="4" fill="#0" id="circle35"/>
	<circle cx="224.255" cy="577.687" r="4" fill="#0" id="circle36"/>
	<circle cx="225.962" cy="324.991" r="4" fill="#0" id="circle37"/>
	<circle cx="225.962" cy="342.065" r="4" fill="#0" id="circle38"/>
	<circle cx="225.962" cy="359.139" r="4" fill="#0" id="circle39"/>
	<circle cx="241.329" cy="574.272" r="4" fill="#0" id="circle40"/>
	<circle cx="243.036" cy="319.869" r="4" fill="#0" id="circle41"/>
	<circle cx="256.695" cy="330.114" r="4" fill="#0" id="circle42"/>
	<circle cx="258.403" cy="565.735" r="4" fill="#0" id="circle43"/>
	<circle cx="265.232" cy="345.48" r="4" fill="#0" id="circle44"/>
	<circle cx="275.477" cy="560.613" r="4" fill="#0" id="circle45"/>
	<circle cx="282.306" cy="336.943" r="4" fill="#0" id="circle46"/>
	<circle cx="292.551" cy="557.198" r="4" fill="#0" id="circle47"/>
	<circle cx="299.38" cy="328.406" r="4" fill="#0" id="circle48"/>
	<circle cx="302.795" cy="543.539" r="4" fill="#0" id="circle49"/>
	<circle cx="316.454" cy="319.869" r="4" fill="#0" id="circle50"/>
	<circle cx="319.869" cy="543.539" r="4" fill="#0" id="circle51"/>
	<circle cx="333.528" cy="311.332" r="4" fill="#0" id="circle52"/>
	<circle cx="335.236" cy="535.002" r="4" fill="#0" id="circle53"/>
	<circle cx="342.065" cy="294.258" r="4" fill="#0" id="circle54"/>
	<circle cx="352.31" cy="535.002" r="4" fill="#0" id="circle55"/>
	<circle cx="354.017" cy="273.769" r="4" fill="#0" id="circle56"/>
	<circle cx="367.676" cy="526.465" r="4" fill="#0" id="circle57"/>
	<circle cx="371.091" cy="268.647" r="4" fill="#0" id="circle58"/>
	<circle cx="384.75" cy="524.757" r="4" fill="#0" id="circle59"/>
	<circle cx="386.458" cy="260.11" r="4" fill="#0" id="circle60"/>
	<circle cx="388.165" cy="888.434" r="4" fill="#0" id="circle61"/>
	<circle cx="388.165" cy="905.508" r="4" fill="#0" id="circle62"/>
	<circle cx="388.165" cy="922.582" r="4" fill="#0" id="circle63"/>
	<circle cx="388.165" cy="939.656" r="4" fill="#0" id="circle64"/>
	<circle cx="398.41" cy="953.315" r="4" fill="#0" id="circle65"/>
	<circle cx="401.824" cy="251.573" r="4" fill="#0" id="circle66"/>
	<circle cx="401.824" cy="517.928" r="4" fill="#0" id="circle67"/>
	<circle cx="405.239" cy="871.36" r="4" fill="#0" id="circle68"/>
	<circle cx="412.069" cy="941.363" r="4" fill="#0" id="circle69"/>
	<circle cx="413.776" cy="231.084" r="4" fill="#0" id="circle70"/>
	<circle cx="418.898" cy="517.928" r="4" fill="#0" id="circle71"/>
	<circle cx="422.313" cy="854.286" r="4" fill="#0" id="circle72"/>
	<circle cx="429.143" cy="932.826" r="4" fill="#0" id="circle73"/>
	<circle cx="430.85" cy="205.473" r="4" fill="#0" id="circle74"/>
	<circle cx="430.85" cy="222.547" r="4" fill="#0" id="circle75"/>
	<circle cx="430.85" cy="531.587" r="4" fill="#0" id="circle76"/>
	<circle cx="430.85" cy="548.661" r="4" fill="#0" id="circle77"/>
	<circle cx="430.85" cy="565.735" r="4" fill="#0" id="circle78"/>
	<circle cx="430.85" cy="582.809" r="4" fill="#0" id="circle79"/>
	<circle cx="435.972" cy="840.627" r="4" fill="#0" id="circle80"/>
	<circle cx="444.509" cy="594.761" r="4" fill="#0" id="circle81"/>
	<circle cx="446.217" cy="927.704" r="4" fill="#0" id="circle82"/>
	<circle cx="447.924" cy="188.399" r="4" fill="#0" id="circle83"/>
	<circle cx="447.924" cy="611.835" r="4" fill="#0" id="circle84"/>
	<circle cx="447.924" cy="628.909" r="4" fill="#0" id="circle85"/>
	<circle cx="447.924" cy="645.983" r="4" fill="#0" id="circle86"/>
	<circle cx="447.924" cy="663.057" r="4" fill="#0" id="circle87"/>
	<circle cx="453.046" cy="680.131" r="4" fill="#0" id="circle88"/>
	<circle cx="453.046" cy="832.09" r="4" fill="#0" id="circle89"/>
	<circle cx="456.461" cy="103.029" r="4" fill="#0" id="circle90"/>
	<circle cx="456.461" cy="120.103" r="4" fill="#0" id="circle91"/>
	<circle cx="456.461" cy="137.177" r="4" fill="#0" id="circle92"/>
	<circle cx="456.461" cy="154.251" r="4" fill="#0" id="circle93"/>
	<circle cx="456.461" cy="171.325" r="4" fill="#0" id="circle94"/>
	<circle cx="456.461" cy="697.205" r="4" fill="#0" id="circle95"/>
	<circle cx="456.461" cy="714.279" r="4" fill="#0" id="circle96"/>
	<circle cx="456.461" cy="731.353" r="4" fill="#0" id="circle97"/>
	<circle cx="461.583" cy="748.427" r="4" fill="#0" id="circle98"/>
	<circle cx="461.583" cy="815.015" r="4" fill="#0" id="circle99"/>
	<circle cx="461.583" cy="919.167" r="4" fill="#0" id="circle100"/>
	<circle cx="464.998" cy="765.501" r="4" fill="#0" id="circle101"/>
	<circle cx="464.998" cy="782.575" r="4" fill="#0" id="circle102"/>
	<circle cx="470.12" cy="89.3701" r="4" fill="#0" id="circle103"/>
	<circle cx="473.535" cy="60.3442" r="4" fill="#0" id="circle104"/>
	<circle cx="476.95" cy="910.63" r="4" fill="#0" id="circle105"/>
	<circle cx="482.072" cy="43.2702" r="4" fill="#0" id="circle106"/>
	<circle cx="490.609" cy="9.1222" r="4" fill="#0" id="circle107"/>
	<circle cx="490.609" cy="26.1962" r="4" fill="#0" id="circle108"/>
	<circle cx="494.024" cy="915.752" r="4" fill="#0" id="circle109"/>
	<circle cx="507.683" cy="4" r="4" fill="#0" id="circle110"/>
	<circle cx="507.683" cy="927.704" r="4" fill="#0" id="circle111"/>
	<circle cx="517.928" cy="910.63" r="4" fill="#0" id="circle112"/>
	<circle cx="524.757" cy="4" r="4" fill="#0" id="circle113"/>
	<circle cx="526.465" cy="885.019" r="4" fill="#0" id="circle114"/>
	<circle cx="533.294" cy="902.093" r="4" fill="#0" id="circle115"/>
	<circle cx="535.002" cy="17.6592" r="4" fill="#0" id="circle116"/>
	<circle cx="535.002" cy="34.7332" r="4" fill="#0" id="circle117"/>
	<circle cx="543.539" cy="50.0998" r="4" fill="#0" id="circle118"/>
	<circle cx="548.661" cy="910.63" r="4" fill="#0" id="circle119"/>
	<circle cx="552.076" cy="65.4664" r="4" fill="#0" id="circle120"/>
	<circle cx="552.076" cy="82.5404" r="4" fill="#0" id="circle121"/>
	<circle cx="552.076" cy="739.89" r="4" fill="#0" id="circle122"/>
	<circle cx="552.076" cy="756.964" r="4" fill="#0" id="circle123"/>
	<circle cx="552.076" cy="774.038" r="4" fill="#0" id="circle124"/>
	<circle cx="552.076" cy="791.112" r="4" fill="#0" id="circle125"/>
	<circle cx="552.076" cy="808.186" r="4" fill="#0" id="circle126"/>
	<circle cx="560.613" cy="97.9071" r="4" fill="#0" id="circle127"/>
	<circle cx="560.613" cy="114.981" r="4" fill="#0" id="circle128"/>
	<circle cx="560.613" cy="671.594" r="4" fill="#0" id="circle129"/>
	<circle cx="560.613" cy="688.668" r="4" fill="#0" id="circle130"/>
	<circle cx="560.613" cy="705.742" r="4" fill="#0" id="circle131"/>
	<circle cx="560.613" cy="722.816" r="4" fill="#0" id="circle132"/>
	<circle cx="560.613" cy="823.552" r="4" fill="#0" id="circle133"/>
	<circle cx="560.613" cy="840.627" r="4" fill="#0" id="circle134"/>
	<circle cx="564.028" cy="919.167" r="4" fill="#0" id="circle135"/>
	<circle cx="569.15" cy="130.348" r="4" fill="#0" id="circle136"/>
	<circle cx="569.15" cy="147.422" r="4" fill="#0" id="circle137"/>
	<circle cx="569.15" cy="164.496" r="4" fill="#0" id="circle138"/>
	<circle cx="569.15" cy="181.57" r="4" fill="#0" id="circle139"/>
	<circle cx="569.15" cy="198.644" r="4" fill="#0" id="circle140"/>
	<circle cx="569.15" cy="586.224" r="4" fill="#0" id="circle141"/>
	<circle cx="569.15" cy="603.298" r="4" fill="#0" id="circle142"/>
	<circle cx="569.15" cy="620.372" r="4" fill="#0" id="circle143"/>
	<circle cx="569.15" cy="637.446" r="4" fill="#0" id="circle144"/>
	<circle cx="569.15" cy="654.52" r="4" fill="#0" id="circle145"/>
	<circle cx="577.687" cy="840.627" r="4" fill="#0" id="circle146"/>
	<circle cx="579.394" cy="927.704" r="4" fill="#0" id="circle147"/>
	<circle cx="586.224" cy="205.473" r="4" fill="#0" id="circle148"/>
	<circle cx="586.224" cy="509.391" r="4" fill="#0" id="circle149"/>
	<circle cx="586.224" cy="526.465" r="4" fill="#0" id="circle150"/>
	<circle cx="586.224" cy="543.539" r="4" fill="#0" id="circle151"/>
	<circle cx="586.224" cy="560.613" r="4" fill="#0" id="circle152"/>
	<circle cx="586.224" cy="577.687" r="4" fill="#0" id="circle153"/>
	<circle cx="586.224" cy="855.993" r="4" fill="#0" id="circle154"/>
	<circle cx="594.761" cy="220.84" r="4" fill="#0" id="circle155"/>
	<circle cx="596.468" cy="932.826" r="4" fill="#0" id="circle156"/>
	<circle cx="599.883" cy="867.945" r="4" fill="#0" id="circle157"/>
	<circle cx="603.298" cy="509.391" r="4" fill="#0" id="circle158"/>
	<circle cx="605.005" cy="234.499" r="4" fill="#0" id="circle159"/>
	<circle cx="606.713" cy="885.019" r="4" fill="#0" id="circle160"/>
	<circle cx="610.127" cy="944.778" r="4" fill="#0" id="circle161"/>
	<circle cx="615.25" cy="900.386" r="4" fill="#0" id="circle162"/>
	<circle cx="618.664" cy="246.451" r="4" fill="#0" id="circle163"/>
	<circle cx="618.664" cy="517.928" r="4" fill="#0" id="circle164"/>
	<circle cx="620.372" cy="917.46" r="4" fill="#0" id="circle165"/>
	<circle cx="623.787" cy="934.534" r="4" fill="#0" id="circle166"/>
	<circle cx="628.909" cy="260.11" r="4" fill="#0" id="circle167"/>
	<circle cx="634.031" cy="526.465" r="4" fill="#0" id="circle168"/>
	<circle cx="645.983" cy="260.11" r="4" fill="#0" id="circle169"/>
	<circle cx="651.105" cy="526.465" r="4" fill="#0" id="circle170"/>
	<circle cx="659.642" cy="270.355" r="4" fill="#0" id="circle171"/>
	<circle cx="668.179" cy="285.721" r="4" fill="#0" id="circle172"/>
	<circle cx="668.179" cy="526.465" r="4" fill="#0" id="circle173"/>
	<circle cx="683.546" cy="294.258" r="4" fill="#0" id="circle174"/>
	<circle cx="683.546" cy="535.002" r="4" fill="#0" id="circle175"/>
	<circle cx="697.205" cy="304.503" r="4" fill="#0" id="circle176"/>
	<circle cx="700.62" cy="541.831" r="4" fill="#0" id="circle177"/>
	<circle cx="705.742" cy="319.869" r="4" fill="#0" id="circle178"/>
	<circle cx="717.694" cy="543.539" r="4" fill="#0" id="circle179"/>
	<circle cx="722.816" cy="324.991" r="4" fill="#0" id="circle180"/>
	<circle cx="734.768" cy="338.651" r="4" fill="#0" id="circle181"/>
	<circle cx="734.768" cy="543.539" r="4" fill="#0" id="circle182"/>
	<circle cx="743.305" cy="558.905" r="4" fill="#0" id="circle183"/>
	<circle cx="751.842" cy="345.48" r="4" fill="#0" id="circle184"/>
	<circle cx="758.671" cy="567.442" r="4" fill="#0" id="circle185"/>
	<circle cx="760.379" cy="328.406" r="4" fill="#0" id="circle186"/>
	<circle cx="768.916" cy="311.332" r="4" fill="#0" id="circle187"/>
	<circle cx="775.745" cy="569.15" r="4" fill="#0" id="circle188"/>
	<circle cx="785.99" cy="311.332" r="4" fill="#0" id="circle189"/>
	<circle cx="792.819" cy="569.15" r="4" fill="#0" id="circle190"/>
	<circle cx="797.941" cy="324.991" r="4" fill="#0" id="circle191"/>
	<circle cx="799.649" cy="342.065" r="4" fill="#0" id="circle192"/>
	<circle cx="799.649" cy="359.139" r="4" fill="#0" id="circle193"/>
	<circle cx="799.649" cy="376.213" r="4" fill="#0" id="circle194"/>
	<circle cx="806.478" cy="393.287" r="4" fill="#0" id="circle195"/>
	<circle cx="808.186" cy="577.687" r="4" fill="#0" id="circle196"/>
	<circle cx="820.138" cy="405.239" r="4" fill="#0" id="circle197"/>
	<circle cx="823.552" cy="586.224" r="4" fill="#0" id="circle198"/>
	<circle cx="832.09" cy="418.898" r="4" fill="#0" id="circle199"/>
	<circle cx="840.627" cy="586.224" r="4" fill="#0" id="circle200"/>
	<circle cx="845.749" cy="430.85" r="4" fill="#0" id="circle201"/>
	<circle cx="857.701" cy="586.224" r="4" fill="#0" id="circle202"/>
	<circle cx="861.115" cy="439.387" r="4" fill="#0" id="circle203"/>
	<circle cx="873.067" cy="594.761" r="4" fill="#0" id="circle204"/>
	<circle cx="878.189" cy="432.558" r="4" fill="#0" id="circle205"/>
	<circle cx="883.312" cy="410.361" r="4" fill="#0" id="circle206"/>
	<circle cx="888.434" cy="603.298" r="4" fill="#0" id="circle207"/>
	<circle cx="900.386" cy="408.654" r="4" fill="#0" id="circle208"/>
	<circle cx="905.508" cy="603.298" r="4" fill="#0" id="circle209"/>
	<circle cx="910.63" cy="422.313" r="4" fill="#0" id="circle210"/>
	<circle cx="910.63" cy="439.387" r="4" fill="#0" id="circle211"/>
	<circle cx="910.63" cy="456.461" r="4" fill="#0" id="circle212"/>
	<circle cx="910.63" cy="473.535" r="4" fill="#0" id="circle213"/>
	<circle cx="920.874" cy="611.835" r="4" fill="#0" id="circle214"/>
	<circle cx="924.289" cy="483.78" r="4" fill="#0" id="circle215"/>
	<circle cx="927.704" cy="500.854" r="4" fill="#0" id="circle216"/>
	<circle cx="934.534" cy="622.079" r="4" fill="#0" id="circle217"/>
	<circle cx="941.363" cy="511.098" r="4" fill="#0" id="circle218"/>
	<circle cx="951.608" cy="628.909" r="4" fill="#0" id="circle219"/>
	<circle cx="958.437" cy="517.928" r="4" fill="#0" id="circle220"/>
	<circle cx="968.682" cy="628.909" r="4" fill="#0" id="circle221"/>
	<circle cx="973.804" cy="526.465" r="4" fill="#0" id="circle222"/>
	<circle cx="978.926" cy="642.568" r="4" fill="#0" id="circle223"/>
	<circle cx="990.878" cy="533.294" r="4" fill="#0" id="circle224"/>
	<circle cx="996" cy="550.368" r="4" fill="#0" id="circle225"/>
	<circle cx="996" cy="567.442" r="4" fill="#0" id="circle226"/>
	<circle cx="996" cy="584.516" r="4" fill="#0" id="circle227"/>
	<circle cx="996" cy="601.59" r="4" fill="#0" id="circle228"/>
	<circle cx="996" cy="618.664" r="4" fill="#0" id="circle229"/>
	<circle cx="996" cy="635.738" r="4" fill="#0" id="circle230"/>
	</g>
</svg>