<?xml version="1.0" encoding="UTF-8" standalone="no"?>
<!-- Created with CurveBenchmark -->
<svg
	xmlns:dc="http://purl.org/dc/elements/1.1/"
	xmlns:cc="http://creativecommons.org/ns#"
	xmlns:rdf="http://www.w3.org/1999/02/22-rdf-syntax-ns#"
	xmlns:svg="http://www.w3.org/2000/svg"
	xmlns="http://www.w3.org/2000/svg"
	xmlns:sodipodi="http://sodipodi.sourceforge.net/DTD/sodipodi-0.dtd"
	xmlns:inkscape="http://www.inkscape.org/namespaces/inkscape"
	width="1000"
	height="1000"
	id="svg2"
	version="1.1"
	sodipodi:docname="manifold/gathan1-hammer-12.png.txt">
<defs
	id="defs4" />
<metadata
	id="metadata7">
	<rdf:RDF>
		<cc:Work
			rdf:about="">
			<dc:format>image/svg+xml</dc:format>
			<dc:type
				rdf:resource="http://purl.org/dc/dcmitype/StillImage" />
			<dc:title></dc:title>
		</cc:Work>
	</rdf:RDF>
</metadata>
<g
	inkscape:label="Layer 1"
	inkscape:groupmode="layer"
	id="layer1">
	<path style="fill:none;stroke:red;stroke-width:1px;stroke-linecap:butt;stroke-linejoin:miter;stroke-opacity:1" d="M 4,21.6416 4,8.07114 z" id="boundary" inkscape:connector-curvature="0" />
	<path style="fill:none;stroke:red;stroke-width:1px;stroke-linecap:butt;stroke-linejoin:miter;stroke-opacity:1" d="M 4,8.07114 17.5705,4 z" id="boundary" inkscape:connector-curvature="0" />
	<path style="fill:none;stroke:red;stroke-width:1px;stroke-linecap:butt;stroke-linejoin:miter;stroke-opacity:1" d="M 4,35.212 4,21.6416 z" id="boundary" inkscape:connector-curvature="0" />
	<path style="fill:none;stroke:red;stroke-width:1px;stroke-linecap:butt;stroke-linejoin:miter;stroke-opacity:1" d="M 4,62.3529 4,48.7825 z" id="boundary" inkscape:connector-curvature="0" />
	<path style="fill:none;stroke:red;stroke-width:1px;stroke-linecap:butt;stroke-linejoin:miter;stroke-opacity:1" d="M 4,89.4938 4,75.9234 z" id="boundary" inkscape:connector-curvature="0" />
	<path style="fill:none;stroke:red;stroke-width:1px;stroke-linecap:butt;stroke-linejoin:miter;stroke-opacity:1" d="M 4,75.9234 4,62.3529 z" id="boundary" inkscape:connector-curvature="0" />
	<path style="fill:none;stroke:red;stroke-width:1px;stroke-linecap:butt;stroke-linejoin:miter;stroke-opacity:1" d="M 4,48.7825 4,35.212 z" id="boundary" inkscape:connector-curvature="0" />
	<path style="fill:none;stroke:red;stroke-width:1px;stroke-linecap:butt;stroke-linejoin:miter;stroke-opacity:1" d="M 4,103.064 4,89.4938 z" id="boundary" inkscape:connector-curvature="0" />
	<path style="fill:none;stroke:red;stroke-width:1px;stroke-linecap:butt;stroke-linejoin:miter;stroke-opacity:1" d="M 17.5705,4 31.1409,4 z" id="boundary" inkscape:connector-curvature="0" />
	<path style="fill:none;stroke:red;stroke-width:1px;stroke-linecap:butt;stroke-linejoin:miter;stroke-opacity:1" d="M 4,116.635 4,103.064 z" id="boundary" inkscape:connector-curvature="0" />
	<path style="fill:none;stroke:red;stroke-width:1px;stroke-linecap:butt;stroke-linejoin:miter;stroke-opacity:1" d="M 4,130.205 4,116.635 z" id="boundary" inkscape:connector-curvature="0" />
	<path style="fill:none;stroke:red;stroke-width:1px;stroke-linecap:butt;stroke-linejoin:miter;stroke-opacity:1" d="M 4,157.346 4,143.776 z" id="boundary" inkscape:connector-curvature="0" />
	<path style="fill:none;stroke:red;stroke-width:1px;stroke-linecap:butt;stroke-linejoin:miter;stroke-opacity:1" d="M 4,143.776 4,130.205 z" id="boundary" inkscape:connector-curvature="0" />
	<path style="fill:none;stroke:red;stroke-width:1px;stroke-linecap:butt;stroke-linejoin:miter;stroke-opacity:1" d="M 4,170.917 4,157.346 z" id="boundary" inkscape:connector-curvature="0" />
	<path style="fill:none;stroke:red;stroke-width:1px;stroke-linecap:butt;stroke-linejoin:miter;stroke-opacity:1" d="M 4,198.057 4,184.487 z" id="boundary" inkscape:connector-curvature="0" />
	<path style="fill:none;stroke:red;stroke-width:1px;stroke-linecap:butt;stroke-linejoin:miter;stroke-opacity:1" d="M 4,211.628 4,198.057 z" id="boundary" inkscape:connector-curvature="0" />
	<path style="fill:none;stroke:red;stroke-width:1px;stroke-linecap:butt;stroke-linejoin:miter;stroke-opacity:1" d="M 4,238.769 4,225.198 z" id="boundary" inkscape:connector-curvature="0" />
	<path style="fill:none;stroke:red;stroke-width:1px;stroke-linecap:butt;stroke-linejoin:miter;stroke-opacity:1" d="M 4,265.91 4,252.339 z" id="boundary" inkscape:connector-curvature="0" />
	<path style="fill:none;stroke:red;stroke-width:1px;stroke-linecap:butt;stroke-linejoin:miter;stroke-opacity:1" d="M 4,252.339 4,238.769 z" id="boundary" inkscape:connector-curvature="0" />
	<path style="fill:none;stroke:red;stroke-width:1px;stroke-linecap:butt;stroke-linejoin:miter;stroke-opacity:1" d="M 4,225.198 4,211.628 z" id="boundary" inkscape:connector-curvature="0" />
	<path style="fill:none;stroke:red;stroke-width:1px;stroke-linecap:butt;stroke-linejoin:miter;stroke-opacity:1" d="M 4,293.051 4,279.48 z" id="boundary" inkscape:connector-curvature="0" />
	<path style="fill:none;stroke:red;stroke-width:1px;stroke-linecap:butt;stroke-linejoin:miter;stroke-opacity:1" d="M 4,306.621 4,293.051 z" id="boundary" inkscape:connector-curvature="0" />
	<path style="fill:none;stroke:red;stroke-width:1px;stroke-linecap:butt;stroke-linejoin:miter;stroke-opacity:1" d="M 52.8536,331.048 39.2832,331.048 z" id="boundary" inkscape:connector-curvature="0" />
	<path style="fill:none;stroke:red;stroke-width:1px;stroke-linecap:butt;stroke-linejoin:miter;stroke-opacity:1" d="M 4,320.192 12.1423,331.048 z" id="boundary" inkscape:connector-curvature="0" />
	<path style="fill:none;stroke:red;stroke-width:1px;stroke-linecap:butt;stroke-linejoin:miter;stroke-opacity:1" d="M 25.7127,331.048 12.1423,331.048 z" id="boundary" inkscape:connector-curvature="0" />
	<path style="fill:none;stroke:red;stroke-width:1px;stroke-linecap:butt;stroke-linejoin:miter;stroke-opacity:1" d="M 25.7127,331.048 39.2832,331.048 z" id="boundary" inkscape:connector-curvature="0" />
	<path style="fill:none;stroke:red;stroke-width:1px;stroke-linecap:butt;stroke-linejoin:miter;stroke-opacity:1" d="M 4,320.192 4,306.621 z" id="boundary" inkscape:connector-curvature="0" />
	<path style="fill:none;stroke:red;stroke-width:1px;stroke-linecap:butt;stroke-linejoin:miter;stroke-opacity:1" d="M 4,279.48 4,265.91 z" id="boundary" inkscape:connector-curvature="0" />
	<path style="fill:none;stroke:red;stroke-width:1px;stroke-linecap:butt;stroke-linejoin:miter;stroke-opacity:1" d="M 4,184.487 4,170.917 z" id="boundary" inkscape:connector-curvature="0" />
	<path style="fill:none;stroke:red;stroke-width:1px;stroke-linecap:butt;stroke-linejoin:miter;stroke-opacity:1" d="M 31.1409,4 44.7114,4 z" id="boundary" inkscape:connector-curvature="0" />
	<path style="fill:none;stroke:red;stroke-width:1px;stroke-linecap:butt;stroke-linejoin:miter;stroke-opacity:1" d="M 58.2818,4 71.8523,4 z" id="boundary" inkscape:connector-curvature="0" />
	<path style="fill:none;stroke:red;stroke-width:1px;stroke-linecap:butt;stroke-linejoin:miter;stroke-opacity:1" d="M 71.8523,4 85.4227,4 z" id="boundary" inkscape:connector-curvature="0" />
	<path style="fill:none;stroke:red;stroke-width:1px;stroke-linecap:butt;stroke-linejoin:miter;stroke-opacity:1" d="M 98.9932,4 112.564,4 z" id="boundary" inkscape:connector-curvature="0" />
	<path style="fill:none;stroke:red;stroke-width:1px;stroke-linecap:butt;stroke-linejoin:miter;stroke-opacity:1" d="M 112.564,4 126.134,4 z" id="boundary" inkscape:connector-curvature="0" />
	<path style="fill:none;stroke:red;stroke-width:1px;stroke-linecap:butt;stroke-linejoin:miter;stroke-opacity:1" d="M 85.4227,4 98.9932,4 z" id="boundary" inkscape:connector-curvature="0" />
	<path style="fill:none;stroke:red;stroke-width:1px;stroke-linecap:butt;stroke-linejoin:miter;stroke-opacity:1" d="M 139.705,4 153.275,4 z" id="boundary" inkscape:connector-curvature="0" />
	<path style="fill:none;stroke:red;stroke-width:1px;stroke-linecap:butt;stroke-linejoin:miter;stroke-opacity:1" d="M 153.275,4 166.845,4 z" id="boundary" inkscape:connector-curvature="0" />
	<path style="fill:none;stroke:red;stroke-width:1px;stroke-linecap:butt;stroke-linejoin:miter;stroke-opacity:1" d="M 180.416,6.71409 166.845,4 z" id="boundary" inkscape:connector-curvature="0" />
	<path style="fill:none;stroke:red;stroke-width:1px;stroke-linecap:butt;stroke-linejoin:miter;stroke-opacity:1" d="M 180.416,6.71409 181.773,20.2845 z" id="boundary" inkscape:connector-curvature="0" />
	<path style="fill:none;stroke:red;stroke-width:1px;stroke-linecap:butt;stroke-linejoin:miter;stroke-opacity:1" d="M 181.773,20.2845 189.915,31.1409 z" id="boundary" inkscape:connector-curvature="0" />
	<path style="fill:none;stroke:red;stroke-width:1px;stroke-linecap:butt;stroke-linejoin:miter;stroke-opacity:1" d="M 203.486,31.1409 189.915,31.1409 z" id="boundary" inkscape:connector-curvature="0" />
	<path style="fill:none;stroke:red;stroke-width:1px;stroke-linecap:butt;stroke-linejoin:miter;stroke-opacity:1" d="M 203.486,31.1409 217.056,31.1409 z" id="boundary" inkscape:connector-curvature="0" />
	<path style="fill:none;stroke:red;stroke-width:1px;stroke-linecap:butt;stroke-linejoin:miter;stroke-opacity:1" d="M 230.627,31.1409 217.056,31.1409 z" id="boundary" inkscape:connector-curvature="0" />
	<path style="fill:none;stroke:red;stroke-width:1px;stroke-linecap:butt;stroke-linejoin:miter;stroke-opacity:1" d="M 126.134,4 139.705,4 z" id="boundary" inkscape:connector-curvature="0" />
	<path style="fill:none;stroke:red;stroke-width:1px;stroke-linecap:butt;stroke-linejoin:miter;stroke-opacity:1" d="M 79.9945,331.048 66.4241,331.048 z" id="boundary" inkscape:connector-curvature="0" />
	<path style="fill:none;stroke:red;stroke-width:1px;stroke-linecap:butt;stroke-linejoin:miter;stroke-opacity:1" d="M 66.4241,331.048 52.8536,331.048 z" id="boundary" inkscape:connector-curvature="0" />
	<path style="fill:none;stroke:red;stroke-width:1px;stroke-linecap:butt;stroke-linejoin:miter;stroke-opacity:1" d="M 181.773,317.477 181.773,303.907 z" id="boundary" inkscape:connector-curvature="0" />
	<path style="fill:none;stroke:red;stroke-width:1px;stroke-linecap:butt;stroke-linejoin:miter;stroke-opacity:1" d="M 181.773,303.907 195.343,303.907 z" id="boundary" inkscape:connector-curvature="0" />
	<path style="fill:none;stroke:red;stroke-width:1px;stroke-linecap:butt;stroke-linejoin:miter;stroke-opacity:1" d="M 120.706,331.048 107.135,331.048 z" id="boundary" inkscape:connector-curvature="0" />
	<path style="fill:none;stroke:red;stroke-width:1px;stroke-linecap:butt;stroke-linejoin:miter;stroke-opacity:1" d="M 93.565,331.048 107.135,331.048 z" id="boundary" inkscape:connector-curvature="0" />
	<path style="fill:none;stroke:red;stroke-width:1px;stroke-linecap:butt;stroke-linejoin:miter;stroke-opacity:1" d="M 93.565,331.048 79.9945,331.048 z" id="boundary" inkscape:connector-curvature="0" />
	<path style="fill:none;stroke:red;stroke-width:1px;stroke-linecap:butt;stroke-linejoin:miter;stroke-opacity:1" d="M 230.627,31.1409 244.197,31.1409 z" id="boundary" inkscape:connector-curvature="0" />
	<path style="fill:none;stroke:red;stroke-width:1px;stroke-linecap:butt;stroke-linejoin:miter;stroke-opacity:1" d="M 257.767,31.1409 271.338,31.1409 z" id="boundary" inkscape:connector-curvature="0" />
	<path style="fill:none;stroke:red;stroke-width:1px;stroke-linecap:butt;stroke-linejoin:miter;stroke-opacity:1" d="M 257.767,31.1409 244.197,31.1409 z" id="boundary" inkscape:connector-curvature="0" />
	<path style="fill:none;stroke:red;stroke-width:1px;stroke-linecap:butt;stroke-linejoin:miter;stroke-opacity:1" d="M 195.343,303.907 208.914,303.907 z" id="boundary" inkscape:connector-curvature="0" />
	<path style="fill:none;stroke:red;stroke-width:1px;stroke-linecap:butt;stroke-linejoin:miter;stroke-opacity:1" d="M 208.914,303.907 214.342,317.477 z" id="boundary" inkscape:connector-curvature="0" />
	<path style="fill:none;stroke:red;stroke-width:1px;stroke-linecap:butt;stroke-linejoin:miter;stroke-opacity:1" d="M 214.342,331.048 214.342,317.477 z" id="boundary" inkscape:connector-curvature="0" />
	<path style="fill:none;stroke:red;stroke-width:1px;stroke-linecap:butt;stroke-linejoin:miter;stroke-opacity:1" d="M 271.338,31.1409 284.908,31.1409 z" id="boundary" inkscape:connector-curvature="0" />
	<path style="fill:none;stroke:red;stroke-width:1px;stroke-linecap:butt;stroke-linejoin:miter;stroke-opacity:1" d="M 298.479,31.1409 284.908,31.1409 z" id="boundary" inkscape:connector-curvature="0" />
	<path style="fill:none;stroke:red;stroke-width:1px;stroke-linecap:butt;stroke-linejoin:miter;stroke-opacity:1" d="M 44.7114,4 58.2818,4 z" id="boundary" inkscape:connector-curvature="0" />
	<path style="fill:none;stroke:red;stroke-width:1px;stroke-linecap:butt;stroke-linejoin:miter;stroke-opacity:1" d="M 120.706,331.048 134.276,331.048 z" id="boundary" inkscape:connector-curvature="0" />
	<path style="fill:none;stroke:red;stroke-width:1px;stroke-linecap:butt;stroke-linejoin:miter;stroke-opacity:1" d="M 147.847,331.048 134.276,331.048 z" id="boundary" inkscape:connector-curvature="0" />
	<path style="fill:none;stroke:red;stroke-width:1px;stroke-linecap:butt;stroke-linejoin:miter;stroke-opacity:1" d="M 161.417,331.048 174.988,331.048 z" id="boundary" inkscape:connector-curvature="0" />
	<path style="fill:none;stroke:red;stroke-width:1px;stroke-linecap:butt;stroke-linejoin:miter;stroke-opacity:1" d="M 181.773,317.477 174.988,331.048 z" id="boundary" inkscape:connector-curvature="0" />
	<path style="fill:none;stroke:red;stroke-width:1px;stroke-linecap:butt;stroke-linejoin:miter;stroke-opacity:1" d="M 214.342,331.048 214.342,344.618 z" id="boundary" inkscape:connector-curvature="0" />
	<path style="fill:none;stroke:red;stroke-width:1px;stroke-linecap:butt;stroke-linejoin:miter;stroke-opacity:1" d="M 147.847,331.048 161.417,331.048 z" id="boundary" inkscape:connector-curvature="0" />
	<path style="fill:none;stroke:red;stroke-width:1px;stroke-linecap:butt;stroke-linejoin:miter;stroke-opacity:1" d="M 214.342,344.618 214.342,358.189 z" id="boundary" inkscape:connector-curvature="0" />
	<path style="fill:none;stroke:red;stroke-width:1px;stroke-linecap:butt;stroke-linejoin:miter;stroke-opacity:1" d="M 214.342,358.189 214.342,371.759 z" id="boundary" inkscape:connector-curvature="0" />
	<path style="fill:none;stroke:red;stroke-width:1px;stroke-linecap:butt;stroke-linejoin:miter;stroke-opacity:1" d="M 214.342,385.33 214.342,398.9 z" id="boundary" inkscape:connector-curvature="0" />
	<path style="fill:none;stroke:red;stroke-width:1px;stroke-linecap:butt;stroke-linejoin:miter;stroke-opacity:1" d="M 214.342,385.33 214.342,371.759 z" id="boundary" inkscape:connector-curvature="0" />
	<path style="fill:none;stroke:red;stroke-width:1px;stroke-linecap:butt;stroke-linejoin:miter;stroke-opacity:1" d="M 214.342,412.471 214.342,426.041 z" id="boundary" inkscape:connector-curvature="0" />
	<path style="fill:none;stroke:red;stroke-width:1px;stroke-linecap:butt;stroke-linejoin:miter;stroke-opacity:1" d="M 214.342,439.611 214.342,453.182 z" id="boundary" inkscape:connector-curvature="0" />
	<path style="fill:none;stroke:red;stroke-width:1px;stroke-linecap:butt;stroke-linejoin:miter;stroke-opacity:1" d="M 214.342,439.611 214.342,426.041 z" id="boundary" inkscape:connector-curvature="0" />
	<path style="fill:none;stroke:red;stroke-width:1px;stroke-linecap:butt;stroke-linejoin:miter;stroke-opacity:1" d="M 214.342,412.471 214.342,398.9 z" id="boundary" inkscape:connector-curvature="0" />
	<path style="fill:none;stroke:red;stroke-width:1px;stroke-linecap:butt;stroke-linejoin:miter;stroke-opacity:1" d="M 214.342,453.182 214.342,466.752 z" id="boundary" inkscape:connector-curvature="0" />
	<path style="fill:none;stroke:red;stroke-width:1px;stroke-linecap:butt;stroke-linejoin:miter;stroke-opacity:1" d="M 214.342,466.752 214.342,480.323 z" id="boundary" inkscape:connector-curvature="0" />
	<path style="fill:none;stroke:red;stroke-width:1px;stroke-linecap:butt;stroke-linejoin:miter;stroke-opacity:1" d="M 214.342,493.893 214.342,480.323 z" id="boundary" inkscape:connector-curvature="0" />
	<path style="fill:none;stroke:red;stroke-width:1px;stroke-linecap:butt;stroke-linejoin:miter;stroke-opacity:1" d="M 214.342,507.464 214.342,521.034 z" id="boundary" inkscape:connector-curvature="0" />
	<path style="fill:none;stroke:red;stroke-width:1px;stroke-linecap:butt;stroke-linejoin:miter;stroke-opacity:1" d="M 214.342,534.605 214.342,521.034 z" id="boundary" inkscape:connector-curvature="0" />
	<path style="fill:none;stroke:red;stroke-width:1px;stroke-linecap:butt;stroke-linejoin:miter;stroke-opacity:1" d="M 214.342,534.605 214.342,548.175 z" id="boundary" inkscape:connector-curvature="0" />
	<path style="fill:none;stroke:red;stroke-width:1px;stroke-linecap:butt;stroke-linejoin:miter;stroke-opacity:1" d="M 214.342,561.746 214.342,548.175 z" id="boundary" inkscape:connector-curvature="0" />
	<path style="fill:none;stroke:red;stroke-width:1px;stroke-linecap:butt;stroke-linejoin:miter;stroke-opacity:1" d="M 214.342,507.464 214.342,493.893 z" id="boundary" inkscape:connector-curvature="0" />
	<path style="fill:none;stroke:red;stroke-width:1px;stroke-linecap:butt;stroke-linejoin:miter;stroke-opacity:1" d="M 214.342,561.746 214.342,575.316 z" id="boundary" inkscape:connector-curvature="0" />
	<path style="fill:none;stroke:red;stroke-width:1px;stroke-linecap:butt;stroke-linejoin:miter;stroke-opacity:1" d="M 214.342,588.886 214.342,575.316 z" id="boundary" inkscape:connector-curvature="0" />
	<path style="fill:none;stroke:red;stroke-width:1px;stroke-linecap:butt;stroke-linejoin:miter;stroke-opacity:1" d="M 214.342,588.886 214.342,602.457 z" id="boundary" inkscape:connector-curvature="0" />
	<path style="fill:none;stroke:red;stroke-width:1px;stroke-linecap:butt;stroke-linejoin:miter;stroke-opacity:1" d="M 214.342,616.027 214.342,602.457 z" id="boundary" inkscape:connector-curvature="0" />
	<path style="fill:none;stroke:red;stroke-width:1px;stroke-linecap:butt;stroke-linejoin:miter;stroke-opacity:1" d="M 214.342,616.027 214.342,629.598 z" id="boundary" inkscape:connector-curvature="0" />
	<path style="fill:none;stroke:red;stroke-width:1px;stroke-linecap:butt;stroke-linejoin:miter;stroke-opacity:1" d="M 214.342,643.168 214.342,629.598 z" id="boundary" inkscape:connector-curvature="0" />
	<path style="fill:none;stroke:red;stroke-width:1px;stroke-linecap:butt;stroke-linejoin:miter;stroke-opacity:1" d="M 214.342,643.168 214.342,656.739 z" id="boundary" inkscape:connector-curvature="0" />
	<path style="fill:none;stroke:red;stroke-width:1px;stroke-linecap:butt;stroke-linejoin:miter;stroke-opacity:1" d="M 214.342,670.309 214.342,656.739 z" id="boundary" inkscape:connector-curvature="0" />
	<path style="fill:none;stroke:red;stroke-width:1px;stroke-linecap:butt;stroke-linejoin:miter;stroke-opacity:1" d="M 214.342,670.309 214.342,683.88 z" id="boundary" inkscape:connector-curvature="0" />
	<path style="fill:none;stroke:red;stroke-width:1px;stroke-linecap:butt;stroke-linejoin:miter;stroke-opacity:1" d="M 214.342,697.45 214.342,683.88 z" id="boundary" inkscape:connector-curvature="0" />
	<path style="fill:none;stroke:red;stroke-width:1px;stroke-linecap:butt;stroke-linejoin:miter;stroke-opacity:1" d="M 214.342,711.021 214.342,697.45 z" id="boundary" inkscape:connector-curvature="0" />
	<path style="fill:none;stroke:red;stroke-width:1px;stroke-linecap:butt;stroke-linejoin:miter;stroke-opacity:1" d="M 214.342,711.021 214.342,724.591 z" id="boundary" inkscape:connector-curvature="0" />
	<path style="fill:none;stroke:red;stroke-width:1px;stroke-linecap:butt;stroke-linejoin:miter;stroke-opacity:1" d="M 214.342,738.161 214.342,724.591 z" id="boundary" inkscape:connector-curvature="0" />
	<path style="fill:none;stroke:red;stroke-width:1px;stroke-linecap:butt;stroke-linejoin:miter;stroke-opacity:1" d="M 214.342,738.161 214.342,751.732 z" id="boundary" inkscape:connector-curvature="0" />
	<path style="fill:none;stroke:red;stroke-width:1px;stroke-linecap:butt;stroke-linejoin:miter;stroke-opacity:1" d="M 214.342,765.302 214.342,751.732 z" id="boundary" inkscape:connector-curvature="0" />
	<path style="fill:none;stroke:red;stroke-width:1px;stroke-linecap:butt;stroke-linejoin:miter;stroke-opacity:1" d="M 214.342,765.302 214.342,778.873 z" id="boundary" inkscape:connector-curvature="0" />
	<path style="fill:none;stroke:red;stroke-width:1px;stroke-linecap:butt;stroke-linejoin:miter;stroke-opacity:1" d="M 214.342,792.443 214.342,778.873 z" id="boundary" inkscape:connector-curvature="0" />
	<path style="fill:none;stroke:red;stroke-width:1px;stroke-linecap:butt;stroke-linejoin:miter;stroke-opacity:1" d="M 214.342,792.443 214.342,806.014 z" id="boundary" inkscape:connector-curvature="0" />
	<path style="fill:none;stroke:red;stroke-width:1px;stroke-linecap:butt;stroke-linejoin:miter;stroke-opacity:1" d="M 214.342,819.584 214.342,806.014 z" id="boundary" inkscape:connector-curvature="0" />
	<path style="fill:none;stroke:red;stroke-width:1px;stroke-linecap:butt;stroke-linejoin:miter;stroke-opacity:1" d="M 214.342,819.584 214.342,833.155 z" id="boundary" inkscape:connector-curvature="0" />
	<path style="fill:none;stroke:red;stroke-width:1px;stroke-linecap:butt;stroke-linejoin:miter;stroke-opacity:1" d="M 214.342,846.725 214.342,833.155 z" id="boundary" inkscape:connector-curvature="0" />
	<path style="fill:none;stroke:red;stroke-width:1px;stroke-linecap:butt;stroke-linejoin:miter;stroke-opacity:1" d="M 214.342,846.725 214.342,860.295 z" id="boundary" inkscape:connector-curvature="0" />
	<path style="fill:none;stroke:red;stroke-width:1px;stroke-linecap:butt;stroke-linejoin:miter;stroke-opacity:1" d="M 214.342,873.866 214.342,860.295 z" id="boundary" inkscape:connector-curvature="0" />
	<path style="fill:none;stroke:red;stroke-width:1px;stroke-linecap:butt;stroke-linejoin:miter;stroke-opacity:1" d="M 214.342,873.866 214.342,887.436 z" id="boundary" inkscape:connector-curvature="0" />
	<path style="fill:none;stroke:red;stroke-width:1px;stroke-linecap:butt;stroke-linejoin:miter;stroke-opacity:1" d="M 214.342,901.007 214.342,887.436 z" id="boundary" inkscape:connector-curvature="0" />
	<path style="fill:none;stroke:red;stroke-width:1px;stroke-linecap:butt;stroke-linejoin:miter;stroke-opacity:1" d="M 214.342,914.577 214.342,901.007 z" id="boundary" inkscape:connector-curvature="0" />
	<path style="fill:none;stroke:red;stroke-width:1px;stroke-linecap:butt;stroke-linejoin:miter;stroke-opacity:1" d="M 214.342,914.577 214.342,928.148 z" id="boundary" inkscape:connector-curvature="0" />
	<path style="fill:none;stroke:red;stroke-width:1px;stroke-linecap:butt;stroke-linejoin:miter;stroke-opacity:1" d="M 214.342,941.718 214.342,955.289 z" id="boundary" inkscape:connector-curvature="0" />
	<path style="fill:none;stroke:red;stroke-width:1px;stroke-linecap:butt;stroke-linejoin:miter;stroke-opacity:1" d="M 214.342,941.718 214.342,928.148 z" id="boundary" inkscape:connector-curvature="0" />
	<path style="fill:none;stroke:red;stroke-width:1px;stroke-linecap:butt;stroke-linejoin:miter;stroke-opacity:1" d="M 299.836,996 286.265,996 z" id="boundary" inkscape:connector-curvature="0" />
	<path style="fill:none;stroke:red;stroke-width:1px;stroke-linecap:butt;stroke-linejoin:miter;stroke-opacity:1" d="M 214.342,968.859 214.342,982.43 z" id="boundary" inkscape:connector-curvature="0" />
	<path style="fill:none;stroke:red;stroke-width:1px;stroke-linecap:butt;stroke-linejoin:miter;stroke-opacity:1" d="M 231.984,996 218.413,996 z" id="boundary" inkscape:connector-curvature="0" />
	<path style="fill:none;stroke:red;stroke-width:1px;stroke-linecap:butt;stroke-linejoin:miter;stroke-opacity:1" d="M 218.413,996 214.342,982.43 z" id="boundary" inkscape:connector-curvature="0" />
	<path style="fill:none;stroke:red;stroke-width:1px;stroke-linecap:butt;stroke-linejoin:miter;stroke-opacity:1" d="M 245.554,996 231.984,996 z" id="boundary" inkscape:connector-curvature="0" />
	<path style="fill:none;stroke:red;stroke-width:1px;stroke-linecap:butt;stroke-linejoin:miter;stroke-opacity:1" d="M 214.342,968.859 214.342,955.289 z" id="boundary" inkscape:connector-curvature="0" />
	<path style="fill:none;stroke:red;stroke-width:1px;stroke-linecap:butt;stroke-linejoin:miter;stroke-opacity:1" d="M 272.695,996 259.124,996 z" id="boundary" inkscape:connector-curvature="0" />
	<path style="fill:none;stroke:red;stroke-width:1px;stroke-linecap:butt;stroke-linejoin:miter;stroke-opacity:1" d="M 259.124,996 245.554,996 z" id="boundary" inkscape:connector-curvature="0" />
	<path style="fill:none;stroke:red;stroke-width:1px;stroke-linecap:butt;stroke-linejoin:miter;stroke-opacity:1" d="M 286.265,996 272.695,996 z" id="boundary" inkscape:connector-curvature="0" />
	<path style="fill:none;stroke:red;stroke-width:1px;stroke-linecap:butt;stroke-linejoin:miter;stroke-opacity:1" d="M 298.479,31.1409 312.049,31.1409 z" id="boundary" inkscape:connector-curvature="0" />
	<path style="fill:none;stroke:red;stroke-width:1px;stroke-linecap:butt;stroke-linejoin:miter;stroke-opacity:1" d="M 325.62,31.1409 312.049,31.1409 z" id="boundary" inkscape:connector-curvature="0" />
	<path style="fill:none;stroke:red;stroke-width:1px;stroke-linecap:butt;stroke-linejoin:miter;stroke-opacity:1" d="M 339.19,31.1409 352.761,31.1409 z" id="boundary" inkscape:connector-curvature="0" />
	<path style="fill:none;stroke:red;stroke-width:1px;stroke-linecap:butt;stroke-linejoin:miter;stroke-opacity:1" d="M 366.331,31.1409 378.544,37.9261 z" id="boundary" inkscape:connector-curvature="0" />
	<path style="fill:none;stroke:red;stroke-width:1px;stroke-linecap:butt;stroke-linejoin:miter;stroke-opacity:1" d="M 352.761,31.1409 366.331,31.1409 z" id="boundary" inkscape:connector-curvature="0" />
	<path style="fill:none;stroke:red;stroke-width:1px;stroke-linecap:butt;stroke-linejoin:miter;stroke-opacity:1" d="M 392.115,37.9261 378.544,37.9261 z" id="boundary" inkscape:connector-curvature="0" />
	<path style="fill:none;stroke:red;stroke-width:1px;stroke-linecap:butt;stroke-linejoin:miter;stroke-opacity:1" d="M 325.62,31.1409 339.19,31.1409 z" id="boundary" inkscape:connector-curvature="0" />
	<path style="fill:none;stroke:red;stroke-width:1px;stroke-linecap:butt;stroke-linejoin:miter;stroke-opacity:1" d="M 405.685,41.9973 417.899,48.7825 z" id="boundary" inkscape:connector-curvature="0" />
	<path style="fill:none;stroke:red;stroke-width:1px;stroke-linecap:butt;stroke-linejoin:miter;stroke-opacity:1" d="M 417.899,48.7825 431.469,54.2107 z" id="boundary" inkscape:connector-curvature="0" />
	<path style="fill:none;stroke:red;stroke-width:1px;stroke-linecap:butt;stroke-linejoin:miter;stroke-opacity:1" d="M 445.04,58.2818 431.469,54.2107 z" id="boundary" inkscape:connector-curvature="0" />
	<path style="fill:none;stroke:red;stroke-width:1px;stroke-linecap:butt;stroke-linejoin:miter;stroke-opacity:1" d="M 445.04,58.2818 458.61,60.9959 z" id="boundary" inkscape:connector-curvature="0" />
	<path style="fill:none;stroke:red;stroke-width:1px;stroke-linecap:butt;stroke-linejoin:miter;stroke-opacity:1" d="M 458.61,60.9959 466.752,71.8523 z" id="boundary" inkscape:connector-curvature="0" />
	<path style="fill:none;stroke:red;stroke-width:1px;stroke-linecap:butt;stroke-linejoin:miter;stroke-opacity:1" d="M 480.323,75.9234 466.752,71.8523 z" id="boundary" inkscape:connector-curvature="0" />
	<path style="fill:none;stroke:red;stroke-width:1px;stroke-linecap:butt;stroke-linejoin:miter;stroke-opacity:1" d="M 392.115,37.9261 405.685,41.9973 z" id="boundary" inkscape:connector-curvature="0" />
	<path style="fill:none;stroke:red;stroke-width:1px;stroke-linecap:butt;stroke-linejoin:miter;stroke-opacity:1" d="M 480.323,75.9234 491.179,85.4227 z" id="boundary" inkscape:connector-curvature="0" />
	<path style="fill:none;stroke:red;stroke-width:1px;stroke-linecap:butt;stroke-linejoin:miter;stroke-opacity:1" d="M 378.544,297.122 392.115,297.122 z" id="boundary" inkscape:connector-curvature="0" />
	<path style="fill:none;stroke:red;stroke-width:1px;stroke-linecap:butt;stroke-linejoin:miter;stroke-opacity:1" d="M 378.544,310.692 378.544,297.122 z" id="boundary" inkscape:connector-curvature="0" />
	<path style="fill:none;stroke:red;stroke-width:1px;stroke-linecap:butt;stroke-linejoin:miter;stroke-opacity:1" d="M 405.685,297.122 392.115,297.122 z" id="boundary" inkscape:connector-curvature="0" />
	<path style="fill:none;stroke:red;stroke-width:1px;stroke-linecap:butt;stroke-linejoin:miter;stroke-opacity:1" d="M 378.544,310.692 378.544,324.263 z" id="boundary" inkscape:connector-curvature="0" />
	<path style="fill:none;stroke:red;stroke-width:1px;stroke-linecap:butt;stroke-linejoin:miter;stroke-opacity:1" d="M 378.544,337.833 378.544,324.263 z" id="boundary" inkscape:connector-curvature="0" />
	<path style="fill:none;stroke:red;stroke-width:1px;stroke-linecap:butt;stroke-linejoin:miter;stroke-opacity:1" d="M 432.826,297.122 419.256,297.122 z" id="boundary" inkscape:connector-curvature="0" />
	<path style="fill:none;stroke:red;stroke-width:1px;stroke-linecap:butt;stroke-linejoin:miter;stroke-opacity:1" d="M 405.685,297.122 419.256,297.122 z" id="boundary" inkscape:connector-curvature="0" />
	<path style="fill:none;stroke:red;stroke-width:1px;stroke-linecap:butt;stroke-linejoin:miter;stroke-opacity:1" d="M 432.826,297.122 446.397,299.836 z" id="boundary" inkscape:connector-curvature="0" />
	<path style="fill:none;stroke:red;stroke-width:1px;stroke-linecap:butt;stroke-linejoin:miter;stroke-opacity:1" d="M 473.538,303.907 459.967,303.907 z" id="boundary" inkscape:connector-curvature="0" />
	<path style="fill:none;stroke:red;stroke-width:1px;stroke-linecap:butt;stroke-linejoin:miter;stroke-opacity:1" d="M 459.967,303.907 446.397,299.836 z" id="boundary" inkscape:connector-curvature="0" />
	<path style="fill:none;stroke:red;stroke-width:1px;stroke-linecap:butt;stroke-linejoin:miter;stroke-opacity:1" d="M 503.393,92.2079 491.179,85.4227 z" id="boundary" inkscape:connector-curvature="0" />
	<path style="fill:none;stroke:red;stroke-width:1px;stroke-linecap:butt;stroke-linejoin:miter;stroke-opacity:1" d="M 473.538,303.907 487.108,303.907 z" id="boundary" inkscape:connector-curvature="0" />
	<path style="fill:none;stroke:red;stroke-width:1px;stroke-linecap:butt;stroke-linejoin:miter;stroke-opacity:1" d="M 487.108,303.907 500.679,306.621 z" id="boundary" inkscape:connector-curvature="0" />
	<path style="fill:none;stroke:red;stroke-width:1px;stroke-linecap:butt;stroke-linejoin:miter;stroke-opacity:1" d="M 527.819,310.692 514.249,310.692 z" id="boundary" inkscape:connector-curvature="0" />
	<path style="fill:none;stroke:red;stroke-width:1px;stroke-linecap:butt;stroke-linejoin:miter;stroke-opacity:1" d="M 514.249,310.692 500.679,306.621 z" id="boundary" inkscape:connector-curvature="0" />
	<path style="fill:none;stroke:red;stroke-width:1px;stroke-linecap:butt;stroke-linejoin:miter;stroke-opacity:1" d="M 515.606,98.9932 503.393,92.2079 z" id="boundary" inkscape:connector-curvature="0" />
	<path style="fill:none;stroke:red;stroke-width:1px;stroke-linecap:butt;stroke-linejoin:miter;stroke-opacity:1" d="M 538.676,115.278 526.462,108.492 z" id="boundary" inkscape:connector-curvature="0" />
	<path style="fill:none;stroke:red;stroke-width:1px;stroke-linecap:butt;stroke-linejoin:miter;stroke-opacity:1" d="M 526.462,108.492 515.606,98.9932 z" id="boundary" inkscape:connector-curvature="0" />
	<path style="fill:none;stroke:red;stroke-width:1px;stroke-linecap:butt;stroke-linejoin:miter;stroke-opacity:1" d="M 552.246,120.706 538.676,115.278 z" id="boundary" inkscape:connector-curvature="0" />
	<path style="fill:none;stroke:red;stroke-width:1px;stroke-linecap:butt;stroke-linejoin:miter;stroke-opacity:1" d="M 552.246,120.706 561.746,131.562 z" id="boundary" inkscape:connector-curvature="0" />
	<path style="fill:none;stroke:red;stroke-width:1px;stroke-linecap:butt;stroke-linejoin:miter;stroke-opacity:1" d="M 575.316,136.99 561.746,131.562 z" id="boundary" inkscape:connector-curvature="0" />
	<path style="fill:none;stroke:red;stroke-width:1px;stroke-linecap:butt;stroke-linejoin:miter;stroke-opacity:1" d="M 575.316,136.99 584.815,147.847 z" id="boundary" inkscape:connector-curvature="0" />
	<path style="fill:none;stroke:red;stroke-width:1px;stroke-linecap:butt;stroke-linejoin:miter;stroke-opacity:1" d="M 595.672,157.346 584.815,147.847 z" id="boundary" inkscape:connector-curvature="0" />
	<path style="fill:none;stroke:red;stroke-width:1px;stroke-linecap:butt;stroke-linejoin:miter;stroke-opacity:1" d="M 595.672,157.346 605.171,168.202 z" id="boundary" inkscape:connector-curvature="0" />
	<path style="fill:none;stroke:red;stroke-width:1px;stroke-linecap:butt;stroke-linejoin:miter;stroke-opacity:1" d="M 605.171,168.202 611.956,180.416 z" id="boundary" inkscape:connector-curvature="0" />
	<path style="fill:none;stroke:red;stroke-width:1px;stroke-linecap:butt;stroke-linejoin:miter;stroke-opacity:1" d="M 611.956,180.416 621.456,191.272 z" id="boundary" inkscape:connector-curvature="0" />
	<path style="fill:none;stroke:red;stroke-width:1px;stroke-linecap:butt;stroke-linejoin:miter;stroke-opacity:1" d="M 629.598,202.129 621.456,191.272 z" id="boundary" inkscape:connector-curvature="0" />
	<path style="fill:none;stroke:red;stroke-width:1px;stroke-linecap:butt;stroke-linejoin:miter;stroke-opacity:1" d="M 629.598,202.129 632.312,215.699 z" id="boundary" inkscape:connector-curvature="0" />
	<path style="fill:none;stroke:red;stroke-width:1px;stroke-linecap:butt;stroke-linejoin:miter;stroke-opacity:1" d="M 639.097,227.912 632.312,215.699 z" id="boundary" inkscape:connector-curvature="0" />
	<path style="fill:none;stroke:red;stroke-width:1px;stroke-linecap:butt;stroke-linejoin:miter;stroke-opacity:1" d="M 648.596,238.769 639.097,227.912 z" id="boundary" inkscape:connector-curvature="0" />
	<path style="fill:none;stroke:red;stroke-width:1px;stroke-linecap:butt;stroke-linejoin:miter;stroke-opacity:1" d="M 541.39,313.406 554.96,317.477 z" id="boundary" inkscape:connector-curvature="0" />
	<path style="fill:none;stroke:red;stroke-width:1px;stroke-linecap:butt;stroke-linejoin:miter;stroke-opacity:1" d="M 541.39,313.406 527.819,310.692 z" id="boundary" inkscape:connector-curvature="0" />
	<path style="fill:none;stroke:red;stroke-width:1px;stroke-linecap:butt;stroke-linejoin:miter;stroke-opacity:1" d="M 568.531,320.192 554.96,317.477 z" id="boundary" inkscape:connector-curvature="0" />
	<path style="fill:none;stroke:red;stroke-width:1px;stroke-linecap:butt;stroke-linejoin:miter;stroke-opacity:1" d="M 568.531,320.192 582.101,324.263 z" id="boundary" inkscape:connector-curvature="0" />
	<path style="fill:none;stroke:red;stroke-width:1px;stroke-linecap:butt;stroke-linejoin:miter;stroke-opacity:1" d="M 595.672,324.263 582.101,324.263 z" id="boundary" inkscape:connector-curvature="0" />
	<path style="fill:none;stroke:red;stroke-width:1px;stroke-linecap:butt;stroke-linejoin:miter;stroke-opacity:1" d="M 595.672,324.263 609.242,326.977 z" id="boundary" inkscape:connector-curvature="0" />
	<path style="fill:none;stroke:red;stroke-width:1px;stroke-linecap:butt;stroke-linejoin:miter;stroke-opacity:1" d="M 655.382,250.982 663.524,261.839 z" id="boundary" inkscape:connector-curvature="0" />
	<path style="fill:none;stroke:red;stroke-width:1px;stroke-linecap:butt;stroke-linejoin:miter;stroke-opacity:1" d="M 663.524,261.839 663.524,275.409 z" id="boundary" inkscape:connector-curvature="0" />
	<path style="fill:none;stroke:red;stroke-width:1px;stroke-linecap:butt;stroke-linejoin:miter;stroke-opacity:1" d="M 655.382,250.982 648.596,238.769 z" id="boundary" inkscape:connector-curvature="0" />
	<path style="fill:none;stroke:red;stroke-width:1px;stroke-linecap:butt;stroke-linejoin:miter;stroke-opacity:1" d="M 663.524,275.409 670.309,287.622 z" id="boundary" inkscape:connector-curvature="0" />
	<path style="fill:none;stroke:red;stroke-width:1px;stroke-linecap:butt;stroke-linejoin:miter;stroke-opacity:1" d="M 677.094,299.836 670.309,287.622 z" id="boundary" inkscape:connector-curvature="0" />
	<path style="fill:none;stroke:red;stroke-width:1px;stroke-linecap:butt;stroke-linejoin:miter;stroke-opacity:1" d="M 622.813,331.048 609.242,326.977 z" id="boundary" inkscape:connector-curvature="0" />
	<path style="fill:none;stroke:red;stroke-width:1px;stroke-linecap:butt;stroke-linejoin:miter;stroke-opacity:1" d="M 677.094,299.836 682.523,313.406 z" id="boundary" inkscape:connector-curvature="0" />
	<path style="fill:none;stroke:red;stroke-width:1px;stroke-linecap:butt;stroke-linejoin:miter;stroke-opacity:1" d="M 683.88,326.977 682.523,313.406 z" id="boundary" inkscape:connector-curvature="0" />
	<path style="fill:none;stroke:red;stroke-width:1px;stroke-linecap:butt;stroke-linejoin:miter;stroke-opacity:1" d="M 690.665,339.19 683.88,326.977 z" id="boundary" inkscape:connector-curvature="0" />
	<path style="fill:none;stroke:red;stroke-width:1px;stroke-linecap:butt;stroke-linejoin:miter;stroke-opacity:1" d="M 622.813,331.048 635.026,337.833 z" id="boundary" inkscape:connector-curvature="0" />
	<path style="fill:none;stroke:red;stroke-width:1px;stroke-linecap:butt;stroke-linejoin:miter;stroke-opacity:1" d="M 378.544,351.404 378.544,364.974 z" id="boundary" inkscape:connector-curvature="0" />
	<path style="fill:none;stroke:red;stroke-width:1px;stroke-linecap:butt;stroke-linejoin:miter;stroke-opacity:1" d="M 378.544,351.404 378.544,337.833 z" id="boundary" inkscape:connector-curvature="0" />
	<path style="fill:none;stroke:red;stroke-width:1px;stroke-linecap:butt;stroke-linejoin:miter;stroke-opacity:1" d="M 378.544,364.974 378.544,378.544 z" id="boundary" inkscape:connector-curvature="0" />
	<path style="fill:none;stroke:red;stroke-width:1px;stroke-linecap:butt;stroke-linejoin:miter;stroke-opacity:1" d="M 378.544,392.115 378.544,405.685 z" id="boundary" inkscape:connector-curvature="0" />
	<path style="fill:none;stroke:red;stroke-width:1px;stroke-linecap:butt;stroke-linejoin:miter;stroke-opacity:1" d="M 378.544,392.115 378.544,378.544 z" id="boundary" inkscape:connector-curvature="0" />
	<path style="fill:none;stroke:red;stroke-width:1px;stroke-linecap:butt;stroke-linejoin:miter;stroke-opacity:1" d="M 378.544,419.256 378.544,432.826 z" id="boundary" inkscape:connector-curvature="0" />
	<path style="fill:none;stroke:red;stroke-width:1px;stroke-linecap:butt;stroke-linejoin:miter;stroke-opacity:1" d="M 378.544,419.256 378.544,405.685 z" id="boundary" inkscape:connector-curvature="0" />
	<path style="fill:none;stroke:red;stroke-width:1px;stroke-linecap:butt;stroke-linejoin:miter;stroke-opacity:1" d="M 378.544,446.397 378.544,459.967 z" id="boundary" inkscape:connector-curvature="0" />
	<path style="fill:none;stroke:red;stroke-width:1px;stroke-linecap:butt;stroke-linejoin:miter;stroke-opacity:1" d="M 378.544,446.397 378.544,432.826 z" id="boundary" inkscape:connector-curvature="0" />
	<path style="fill:none;stroke:red;stroke-width:1px;stroke-linecap:butt;stroke-linejoin:miter;stroke-opacity:1" d="M 378.544,473.538 378.544,487.108 z" id="boundary" inkscape:connector-curvature="0" />
	<path style="fill:none;stroke:red;stroke-width:1px;stroke-linecap:butt;stroke-linejoin:miter;stroke-opacity:1" d="M 378.544,473.538 378.544,459.967 z" id="boundary" inkscape:connector-curvature="0" />
	<path style="fill:none;stroke:red;stroke-width:1px;stroke-linecap:butt;stroke-linejoin:miter;stroke-opacity:1" d="M 378.544,500.679 378.544,514.249 z" id="boundary" inkscape:connector-curvature="0" />
	<path style="fill:none;stroke:red;stroke-width:1px;stroke-linecap:butt;stroke-linejoin:miter;stroke-opacity:1" d="M 378.544,500.679 378.544,487.108 z" id="boundary" inkscape:connector-curvature="0" />
	<path style="fill:none;stroke:red;stroke-width:1px;stroke-linecap:butt;stroke-linejoin:miter;stroke-opacity:1" d="M 378.544,527.819 378.544,541.39 z" id="boundary" inkscape:connector-curvature="0" />
	<path style="fill:none;stroke:red;stroke-width:1px;stroke-linecap:butt;stroke-linejoin:miter;stroke-opacity:1" d="M 378.544,527.819 378.544,514.249 z" id="boundary" inkscape:connector-curvature="0" />
	<path style="fill:none;stroke:red;stroke-width:1px;stroke-linecap:butt;stroke-linejoin:miter;stroke-opacity:1" d="M 313.406,996 299.836,996 z" id="boundary" inkscape:connector-curvature="0" />
	<path style="fill:none;stroke:red;stroke-width:1px;stroke-linecap:butt;stroke-linejoin:miter;stroke-opacity:1" d="M 378.544,541.39 378.544,554.96 z" id="boundary" inkscape:connector-curvature="0" />
	<path style="fill:none;stroke:red;stroke-width:1px;stroke-linecap:butt;stroke-linejoin:miter;stroke-opacity:1" d="M 326.977,996 313.406,996 z" id="boundary" inkscape:connector-curvature="0" />
	<path style="fill:none;stroke:red;stroke-width:1px;stroke-linecap:butt;stroke-linejoin:miter;stroke-opacity:1" d="M 340.547,996 326.977,996 z" id="boundary" inkscape:connector-curvature="0" />
	<path style="fill:none;stroke:red;stroke-width:1px;stroke-linecap:butt;stroke-linejoin:miter;stroke-opacity:1" d="M 378.544,975.644 367.688,996 z" id="boundary" inkscape:connector-curvature="0" />
	<path style="fill:none;stroke:red;stroke-width:1px;stroke-linecap:butt;stroke-linejoin:miter;stroke-opacity:1" d="M 367.688,996 354.118,996 z" id="boundary" inkscape:connector-curvature="0" />
	<path style="fill:none;stroke:red;stroke-width:1px;stroke-linecap:butt;stroke-linejoin:miter;stroke-opacity:1" d="M 354.118,996 340.547,996 z" id="boundary" inkscape:connector-curvature="0" />
	<path style="fill:none;stroke:red;stroke-width:1px;stroke-linecap:butt;stroke-linejoin:miter;stroke-opacity:1" d="M 378.544,554.96 378.544,568.531 z" id="boundary" inkscape:connector-curvature="0" />
	<path style="fill:none;stroke:red;stroke-width:1px;stroke-linecap:butt;stroke-linejoin:miter;stroke-opacity:1" d="M 378.544,568.531 378.544,582.101 z" id="boundary" inkscape:connector-curvature="0" />
	<path style="fill:none;stroke:red;stroke-width:1px;stroke-linecap:butt;stroke-linejoin:miter;stroke-opacity:1" d="M 378.544,595.672 378.544,609.242 z" id="boundary" inkscape:connector-curvature="0" />
	<path style="fill:none;stroke:red;stroke-width:1px;stroke-linecap:butt;stroke-linejoin:miter;stroke-opacity:1" d="M 378.544,595.672 378.544,582.101 z" id="boundary" inkscape:connector-curvature="0" />
	<path style="fill:none;stroke:red;stroke-width:1px;stroke-linecap:butt;stroke-linejoin:miter;stroke-opacity:1" d="M 378.544,622.813 378.544,636.383 z" id="boundary" inkscape:connector-curvature="0" />
	<path style="fill:none;stroke:red;stroke-width:1px;stroke-linecap:butt;stroke-linejoin:miter;stroke-opacity:1" d="M 378.544,622.813 378.544,609.242 z" id="boundary" inkscape:connector-curvature="0" />
	<path style="fill:none;stroke:red;stroke-width:1px;stroke-linecap:butt;stroke-linejoin:miter;stroke-opacity:1" d="M 378.544,649.953 378.544,663.524 z" id="boundary" inkscape:connector-curvature="0" />
	<path style="fill:none;stroke:red;stroke-width:1px;stroke-linecap:butt;stroke-linejoin:miter;stroke-opacity:1" d="M 378.544,649.953 378.544,636.383 z" id="boundary" inkscape:connector-curvature="0" />
	<path style="fill:none;stroke:red;stroke-width:1px;stroke-linecap:butt;stroke-linejoin:miter;stroke-opacity:1" d="M 378.544,663.524 378.544,677.094 z" id="boundary" inkscape:connector-curvature="0" />
	<path style="fill:none;stroke:red;stroke-width:1px;stroke-linecap:butt;stroke-linejoin:miter;stroke-opacity:1" d="M 378.544,677.094 378.544,690.665 z" id="boundary" inkscape:connector-curvature="0" />
	<path style="fill:none;stroke:red;stroke-width:1px;stroke-linecap:butt;stroke-linejoin:miter;stroke-opacity:1" d="M 378.544,690.665 378.544,704.235 z" id="boundary" inkscape:connector-curvature="0" />
	<path style="fill:none;stroke:red;stroke-width:1px;stroke-linecap:butt;stroke-linejoin:miter;stroke-opacity:1" d="M 378.544,717.806 378.544,731.376 z" id="boundary" inkscape:connector-curvature="0" />
	<path style="fill:none;stroke:red;stroke-width:1px;stroke-linecap:butt;stroke-linejoin:miter;stroke-opacity:1" d="M 378.544,717.806 378.544,704.235 z" id="boundary" inkscape:connector-curvature="0" />
	<path style="fill:none;stroke:red;stroke-width:1px;stroke-linecap:butt;stroke-linejoin:miter;stroke-opacity:1" d="M 378.544,744.947 378.544,758.517 z" id="boundary" inkscape:connector-curvature="0" />
	<path style="fill:none;stroke:red;stroke-width:1px;stroke-linecap:butt;stroke-linejoin:miter;stroke-opacity:1" d="M 378.544,744.947 378.544,731.376 z" id="boundary" inkscape:connector-curvature="0" />
	<path style="fill:none;stroke:red;stroke-width:1px;stroke-linecap:butt;stroke-linejoin:miter;stroke-opacity:1" d="M 635.026,337.833 648.596,337.833 z" id="boundary" inkscape:connector-curvature="0" />
	<path style="fill:none;stroke:red;stroke-width:1px;stroke-linecap:butt;stroke-linejoin:miter;stroke-opacity:1" d="M 648.596,337.833 660.81,344.618 z" id="boundary" inkscape:connector-curvature="0" />
	<path style="fill:none;stroke:red;stroke-width:1px;stroke-linecap:butt;stroke-linejoin:miter;stroke-opacity:1" d="M 673.023,351.404 660.81,344.618 z" id="boundary" inkscape:connector-curvature="0" />
	<path style="fill:none;stroke:red;stroke-width:1px;stroke-linecap:butt;stroke-linejoin:miter;stroke-opacity:1" d="M 378.544,772.088 378.544,785.658 z" id="boundary" inkscape:connector-curvature="0" />
	<path style="fill:none;stroke:red;stroke-width:1px;stroke-linecap:butt;stroke-linejoin:miter;stroke-opacity:1" d="M 378.544,772.088 378.544,758.517 z" id="boundary" inkscape:connector-curvature="0" />
	<path style="fill:none;stroke:red;stroke-width:1px;stroke-linecap:butt;stroke-linejoin:miter;stroke-opacity:1" d="M 686.594,356.832 673.023,351.404 z" id="boundary" inkscape:connector-curvature="0" />
	<path style="fill:none;stroke:red;stroke-width:1px;stroke-linecap:butt;stroke-linejoin:miter;stroke-opacity:1" d="M 690.665,339.19 686.594,356.832 z" id="boundary" inkscape:connector-curvature="0" />
	<path style="fill:none;stroke:red;stroke-width:1px;stroke-linecap:butt;stroke-linejoin:miter;stroke-opacity:1" d="M 378.544,799.228 378.544,812.799 z" id="boundary" inkscape:connector-curvature="0" />
	<path style="fill:none;stroke:red;stroke-width:1px;stroke-linecap:butt;stroke-linejoin:miter;stroke-opacity:1" d="M 378.544,799.228 378.544,785.658 z" id="boundary" inkscape:connector-curvature="0" />
	<path style="fill:none;stroke:red;stroke-width:1px;stroke-linecap:butt;stroke-linejoin:miter;stroke-opacity:1" d="M 378.544,812.799 378.544,826.369 z" id="boundary" inkscape:connector-curvature="0" />
	<path style="fill:none;stroke:red;stroke-width:1px;stroke-linecap:butt;stroke-linejoin:miter;stroke-opacity:1" d="M 378.544,839.94 378.544,853.51 z" id="boundary" inkscape:connector-curvature="0" />
	<path style="fill:none;stroke:red;stroke-width:1px;stroke-linecap:butt;stroke-linejoin:miter;stroke-opacity:1" d="M 378.544,839.94 378.544,826.369 z" id="boundary" inkscape:connector-curvature="0" />
	<path style="fill:none;stroke:red;stroke-width:1px;stroke-linecap:butt;stroke-linejoin:miter;stroke-opacity:1" d="M 378.544,867.081 378.544,880.651 z" id="boundary" inkscape:connector-curvature="0" />
	<path style="fill:none;stroke:red;stroke-width:1px;stroke-linecap:butt;stroke-linejoin:miter;stroke-opacity:1" d="M 378.544,867.081 378.544,853.51 z" id="boundary" inkscape:connector-curvature="0" />
	<path style="fill:none;stroke:red;stroke-width:1px;stroke-linecap:butt;stroke-linejoin:miter;stroke-opacity:1" d="M 378.544,894.222 378.544,907.792 z" id="boundary" inkscape:connector-curvature="0" />
	<path style="fill:none;stroke:red;stroke-width:1px;stroke-linecap:butt;stroke-linejoin:miter;stroke-opacity:1" d="M 378.544,894.222 378.544,880.651 z" id="boundary" inkscape:connector-curvature="0" />
	<path style="fill:none;stroke:red;stroke-width:1px;stroke-linecap:butt;stroke-linejoin:miter;stroke-opacity:1" d="M 378.544,907.792 378.544,921.363 z" id="boundary" inkscape:connector-curvature="0" />
	<path style="fill:none;stroke:red;stroke-width:1px;stroke-linecap:butt;stroke-linejoin:miter;stroke-opacity:1" d="M 378.544,934.933 378.544,948.503 z" id="boundary" inkscape:connector-curvature="0" />
	<path style="fill:none;stroke:red;stroke-width:1px;stroke-linecap:butt;stroke-linejoin:miter;stroke-opacity:1" d="M 378.544,962.074 378.544,975.644 z" id="boundary" inkscape:connector-curvature="0" />
	<path style="fill:none;stroke:red;stroke-width:1px;stroke-linecap:butt;stroke-linejoin:miter;stroke-opacity:1" d="M 378.544,962.074 378.544,948.503 z" id="boundary" inkscape:connector-curvature="0" />
	<path style="fill:none;stroke:red;stroke-width:1px;stroke-linecap:butt;stroke-linejoin:miter;stroke-opacity:1" d="M 378.544,934.933 378.544,921.363 z" id="boundary" inkscape:connector-curvature="0" />
	<circle cx="4" cy="8.07114" r="4" fill="#0" id="circle0"/>
	<circle cx="4" cy="21.6416" r="4" fill="#0" id="circle1"/>
	<circle cx="4" cy="35.212" r="4" fill="#0" id="circle2"/>
	<circle cx="4" cy="48.7825" r="4" fill="#0" id="circle3"/>
	<circle cx="4" cy="62.3529" r="4" fill="#0" id="circle4"/>
	<circle cx="4" cy="75.9234" r="4" fill="#0" id="circle5"/>
	<circle cx="4" cy="89.4938" r="4" fill="#0" id="circle6"/>
	<circle cx="4" cy="103.064" r="4" fill="#0" id="circle7"/>
	<circle cx="4" cy="116.635" r="4" fill="#0" id="circle8"/>
	<circle cx="4" cy="130.205" r="4" fill="#0" id="circle9"/>
	<circle cx="4" cy="143.776" r="4" fill="#0" id="circle10"/>
	<circle cx="4" cy="157.346" r="4" fill="#0" id="circle11"/>
	<circle cx="4" cy="170.917" r="4" fill="#0" id="circle12"/>
	<circle cx="4" cy="184.487" r="4" fill="#0" id="circle13"/>
	<circle cx="4" cy="198.057" r="4" fill="#0" id="circle14"/>
	<circle cx="4" cy="211.628" r="4" fill="#0" id="circle15"/>
	<circle cx="4" cy="225.198" r="4" fill="#0" id="circle16"/>
	<circle cx="4" cy="238.769" r="4" fill="#0" id="circle17"/>
	<circle cx="4" cy="252.339" r="4" fill="#0" id="circle18"/>
	<circle cx="4" cy="265.91" r="4" fill="#0" id="circle19"/>
	<circle cx="4" cy="279.48" r="4" fill="#0" id="circle20"/>
	<circle cx="4" cy="293.051" r="4" fill="#0" id="circle21"/>
	<circle cx="4" cy="306.621" r="4" fill="#0" id="circle22"/>
	<circle cx="4" cy="320.192" r="4" fill="#0" id="circle23"/>
	<circle cx="12.1423" cy="331.048" r="4" fill="#0" id="circle24"/>
	<circle cx="17.5705" cy="4" r="4" fill="#0" id="circle25"/>
	<circle cx="25.7127" cy="331.048" r="4" fill="#0" id="circle26"/>
	<circle cx="31.1409" cy="4" r="4" fill="#0" id="circle27"/>
	<circle cx="39.2832" cy="331.048" r="4" fill="#0" id="circle28"/>
	<circle cx="44.7114" cy="4" r="4" fill="#0" id="circle29"/>
	<circle cx="52.8536" cy="331.048" r="4" fill="#0" id="circle30"/>
	<circle cx="58.2818" cy="4" r="4" fill="#0" id="circle31"/>
	<circle cx="66.4241" cy="331.048" r="4" fill="#0" id="circle32"/>
	<circle cx="71.8523" cy="4" r="4" fill="#0" id="circle33"/>
	<circle cx="79.9945" cy="331.048" r="4" fill="#0" id="circle34"/>
	<circle cx="85.4227" cy="4" r="4" fill="#0" id="circle35"/>
	<circle cx="93.565" cy="331.048" r="4" fill="#0" id="circle36"/>
	<circle cx="98.9932" cy="4" r="4" fill="#0" id="circle37"/>
	<circle cx="107.135" cy="331.048" r="4" fill="#0" id="circle38"/>
	<circle cx="112.564" cy="4" r="4" fill="#0" id="circle39"/>
	<circle cx="120.706" cy="331.048" r="4" fill="#0" id="circle40"/>
	<circle cx="126.134" cy="4" r="4" fill="#0" id="circle41"/>
	<circle cx="134.276" cy="331.048" r="4" fill="#0" id="circle42"/>
	<circle cx="139.705" cy="4" r="4" fill="#0" id="circle43"/>
	<circle cx="147.847" cy="331.048" r="4" fill="#0" id="circle44"/>
	<circle cx="153.275" cy="4" r="4" fill="#0" id="circle45"/>
	<circle cx="161.417" cy="331.048" r="4" fill="#0" id="circle46"/>
	<circle cx="166.845" cy="4" r="4" fill="#0" id="circle47"/>
	<circle cx="174.988" cy="331.048" r="4" fill="#0" id="circle48"/>
	<circle cx="180.416" cy="6.71409" r="4" fill="#0" id="circle49"/>
	<circle cx="181.773" cy="20.2845" r="4" fill="#0" id="circle50"/>
	<circle cx="181.773" cy="303.907" r="4" fill="#0" id="circle51"/>
	<circle cx="181.773" cy="317.477" r="4" fill="#0" id="circle52"/>
	<circle cx="189.915" cy="31.1409" r="4" fill="#0" id="circle53"/>
	<circle cx="195.343" cy="303.907" r="4" fill="#0" id="circle54"/>
	<circle cx="203.486" cy="31.1409" r="4" fill="#0" id="circle55"/>
	<circle cx="208.914" cy="303.907" r="4" fill="#0" id="circle56"/>
	<circle cx="214.342" cy="317.477" r="4" fill="#0" id="circle57"/>
	<circle cx="214.342" cy="331.048" r="4" fill="#0" id="circle58"/>
	<circle cx="214.342" cy="344.618" r="4" fill="#0" id="circle59"/>
	<circle cx="214.342" cy="358.189" r="4" fill="#0" id="circle60"/>
	<circle cx="214.342" cy="371.759" r="4" fill="#0" id="circle61"/>
	<circle cx="214.342" cy="385.33" r="4" fill="#0" id="circle62"/>
	<circle cx="214.342" cy="398.9" r="4" fill="#0" id="circle63"/>
	<circle cx="214.342" cy="412.471" r="4" fill="#0" id="circle64"/>
	<circle cx="214.342" cy="426.041" r="4" fill="#0" id="circle65"/>
	<circle cx="214.342" cy="439.611" r="4" fill="#0" id="circle66"/>
	<circle cx="214.342" cy="453.182" r="4" fill="#0" id="circle67"/>
	<circle cx="214.342" cy="466.752" r="4" fill="#0" id="circle68"/>
	<circle cx="214.342" cy="480.323" r="4" fill="#0" id="circle69"/>
	<circle cx="214.342" cy="493.893" r="4" fill="#0" id="circle70"/>
	<circle cx="214.342" cy="507.464" r="4" fill="#0" id="circle71"/>
	<circle cx="214.342" cy="521.034" r="4" fill="#0" id="circle72"/>
	<circle cx="214.342" cy="534.605" r="4" fill="#0" id="circle73"/>
	<circle cx="214.342" cy="548.175" r="4" fill="#0" id="circle74"/>
	<circle cx="214.342" cy="561.746" r="4" fill="#0" id="circle75"/>
	<circle cx="214.342" cy="575.316" r="4" fill="#0" id="circle76"/>
	<circle cx="214.342" cy="588.886" r="4" fill="#0" id="circle77"/>
	<circle cx="214.342" cy="602.457" r="4" fill="#0" id="circle78"/>
	<circle cx="214.342" cy="616.027" r="4" fill="#0" id="circle79"/>
	<circle cx="214.342" cy="629.598" r="4" fill="#0" id="circle80"/>
	<circle cx="214.342" cy="643.168" r="4" fill="#0" id="circle81"/>
	<circle cx="214.342" cy="656.739" r="4" fill="#0" id="circle82"/>
	<circle cx="214.342" cy="670.309" r="4" fill="#0" id="circle83"/>
	<circle cx="214.342" cy="683.88" r="4" fill="#0" id="circle84"/>
	<circle cx="214.342" cy="697.45" r="4" fill="#0" id="circle85"/>
	<circle cx="214.342" cy="711.021" r="4" fill="#0" id="circle86"/>
	<circle cx="214.342" cy="724.591" r="4" fill="#0" id="circle87"/>
	<circle cx="214.342" cy="738.161" r="4" fill="#0" id="circle88"/>
	<circle cx="214.342" cy="751.732" r="4" fill="#0" id="circle89"/>
	<circle cx="214.342" cy="765.302" r="4" fill="#0" id="circle90"/>
	<circle cx="214.342" cy="778.873" r="4" fill="#0" id="circle91"/>
	<circle cx="214.342" cy="792.443" r="4" fill="#0" id="circle92"/>
	<circle cx="214.342" cy="806.014" r="4" fill="#0" id="circle93"/>
	<circle cx="214.342" cy="819.584" r="4" fill="#0" id="circle94"/>
	<circle cx="214.342" cy="833.155" r="4" fill="#0" id="circle95"/>
	<circle cx="214.342" cy="846.725" r="4" fill="#0" id="circle96"/>
	<circle cx="214.342" cy="860.295" r="4" fill="#0" id="circle97"/>
	<circle cx="214.342" cy="873.866" r="4" fill="#0" id="circle98"/>
	<circle cx="214.342" cy="887.436" r="4" fill="#0" id="circle99"/>
	<circle cx="214.342" cy="901.007" r="4" fill="#0" id="circle100"/>
	<circle cx="214.342" cy="914.577" r="4" fill="#0" id="circle101"/>
	<circle cx="214.342" cy="928.148" r="4" fill="#0" id="circle102"/>
	<circle cx="214.342" cy="941.718" r="4" fill="#0" id="circle103"/>
	<circle cx="214.342" cy="955.289" r="4" fill="#0" id="circle104"/>
	<circle cx="214.342" cy="968.859" r="4" fill="#0" id="circle105"/>
	<circle cx="214.342" cy="982.43" r="4" fill="#0" id="circle106"/>
	<circle cx="217.056" cy="31.1409" r="4" fill="#0" id="circle107"/>
	<circle cx="218.413" cy="996" r="4" fill="#0" id="circle108"/>
	<circle cx="230.627" cy="31.1409" r="4" fill="#0" id="circle109"/>
	<circle cx="231.984" cy="996" r="4" fill="#0" id="circle110"/>
	<circle cx="244.197" cy="31.1409" r="4" fill="#0" id="circle111"/>
	<circle cx="245.554" cy="996" r="4" fill="#0" id="circle112"/>
	<circle cx="257.767" cy="31.1409" r="4" fill="#0" id="circle113"/>
	<circle cx="259.124" cy="996" r="4" fill="#0" id="circle114"/>
	<circle cx="271.338" cy="31.1409" r="4" fill="#0" id="circle115"/>
	<circle cx="272.695" cy="996" r="4" fill="#0" id="circle116"/>
	<circle cx="284.908" cy="31.1409" r="4" fill="#0" id="circle117"/>
	<circle cx="286.265" cy="996" r="4" fill="#0" id="circle118"/>
	<circle cx="298.479" cy="31.1409" r="4" fill="#0" id="circle119"/>
	<circle cx="299.836" cy="996" r="4" fill="#0" id="circle120"/>
	<circle cx="312.049" cy="31.1409" r="4" fill="#0" id="circle121"/>
	<circle cx="313.406" cy="996" r="4" fill="#0" id="circle122"/>
	<circle cx="325.62" cy="31.1409" r="4" fill="#0" id="circle123"/>
	<circle cx="326.977" cy="996" r="4" fill="#0" id="circle124"/>
	<circle cx="339.19" cy="31.1409" r="4" fill="#0" id="circle125"/>
	<circle cx="340.547" cy="996" r="4" fill="#0" id="circle126"/>
	<circle cx="352.761" cy="31.1409" r="4" fill="#0" id="circle127"/>
	<circle cx="354.118" cy="996" r="4" fill="#0" id="circle128"/>
	<circle cx="366.331" cy="31.1409" r="4" fill="#0" id="circle129"/>
	<circle cx="367.688" cy="996" r="4" fill="#0" id="circle130"/>
	<circle cx="378.544" cy="37.9261" r="4" fill="#0" id="circle131"/>
	<circle cx="378.544" cy="297.122" r="4" fill="#0" id="circle132"/>
	<circle cx="378.544" cy="310.692" r="4" fill="#0" id="circle133"/>
	<circle cx="378.544" cy="324.263" r="4" fill="#0" id="circle134"/>
	<circle cx="378.544" cy="337.833" r="4" fill="#0" id="circle135"/>
	<circle cx="378.544" cy="351.404" r="4" fill="#0" id="circle136"/>
	<circle cx="378.544" cy="364.974" r="4" fill="#0" id="circle137"/>
	<circle cx="378.544" cy="378.544" r="4" fill="#0" id="circle138"/>
	<circle cx="378.544" cy="392.115" r="4" fill="#0" id="circle139"/>
	<circle cx="378.544" cy="405.685" r="4" fill="#0" id="circle140"/>
	<circle cx="378.544" cy="419.256" r="4" fill="#0" id="circle141"/>
	<circle cx="378.544" cy="432.826" r="4" fill="#0" id="circle142"/>
	<circle cx="378.544" cy="446.397" r="4" fill="#0" id="circle143"/>
	<circle cx="378.544" cy="459.967" r="4" fill="#0" id="circle144"/>
	<circle cx="378.544" cy="473.538" r="4" fill="#0" id="circle145"/>
	<circle cx="378.544" cy="487.108" r="4" fill="#0" id="circle146"/>
	<circle cx="378.544" cy="500.679" r="4" fill="#0" id="circle147"/>
	<circle cx="378.544" cy="514.249" r="4" fill="#0" id="circle148"/>
	<circle cx="378.544" cy="527.819" r="4" fill="#0" id="circle149"/>
	<circle cx="378.544" cy="541.39" r="4" fill="#0" id="circle150"/>
	<circle cx="378.544" cy="554.96" r="4" fill="#0" id="circle151"/>
	<circle cx="378.544" cy="568.531" r="4" fill="#0" id="circle152"/>
	<circle cx="378.544" cy="582.101" r="4" fill="#0" id="circle153"/>
	<circle cx="378.544" cy="595.672" r="4" fill="#0" id="circle154"/>
	<circle cx="378.544" cy="609.242" r="4" fill="#0" id="circle155"/>
	<circle cx="378.544" cy="622.813" r="4" fill="#0" id="circle156"/>
	<circle cx="378.544" cy="636.383" r="4" fill="#0" id="circle157"/>
	<circle cx="378.544" cy="649.953" r="4" fill="#0" id="circle158"/>
	<circle cx="378.544" cy="663.524" r="4" fill="#0" id="circle159"/>
	<circle cx="378.544" cy="677.094" r="4" fill="#0" id="circle160"/>
	<circle cx="378.544" cy="690.665" r="4" fill="#0" id="circle161"/>
	<circle cx="378.544" cy="704.235" r="4" fill="#0" id="circle162"/>
	<circle cx="378.544" cy="717.806" r="4" fill="#0" id="circle163"/>
	<circle cx="378.544" cy="731.376" r="4" fill="#0" id="circle164"/>
	<circle cx="378.544" cy="744.947" r="4" fill="#0" id="circle165"/>
	<circle cx="378.544" cy="758.517" r="4" fill="#0" id="circle166"/>
	<circle cx="378.544" cy="772.088" r="4" fill="#0" id="circle167"/>
	<circle cx="378.544" cy="785.658" r="4" fill="#0" id="circle168"/>
	<circle cx="378.544" cy="799.228" r="4" fill="#0" id="circle169"/>
	<circle cx="378.544" cy="812.799" r="4" fill="#0" id="circle170"/>
	<circle cx="378.544" cy="826.369" r="4" fill="#0" id="circle171"/>
	<circle cx="378.544" cy="839.94" r="4" fill="#0" id="circle172"/>
	<circle cx="378.544" cy="853.51" r="4" fill="#0" id="circle173"/>
	<circle cx="378.544" cy="867.081" r="4" fill="#0" id="circle174"/>
	<circle cx="378.544" cy="880.651" r="4" fill="#0" id="circle175"/>
	<circle cx="378.544" cy="894.222" r="4" fill="#0" id="circle176"/>
	<circle cx="378.544" cy="907.792" r="4" fill="#0" id="circle177"/>
	<circle cx="378.544" cy="921.363" r="4" fill="#0" id="circle178"/>
	<circle cx="378.544" cy="934.933" r="4" fill="#0" id="circle179"/>
	<circle cx="378.544" cy="948.503" r="4" fill="#0" id="circle180"/>
	<circle cx="378.544" cy="962.074" r="4" fill="#0" id="circle181"/>
	<circle cx="378.544" cy="975.644" r="4" fill="#0" id="circle182"/>
	<circle cx="392.115" cy="37.9261" r="4" fill="#0" id="circle183"/>
	<circle cx="392.115" cy="297.122" r="4" fill="#0" id="circle184"/>
	<circle cx="405.685" cy="41.9973" r="4" fill="#0" id="circle185"/>
	<circle cx="405.685" cy="297.122" r="4" fill="#0" id="circle186"/>
	<circle cx="417.899" cy="48.7825" r="4" fill="#0" id="circle187"/>
	<circle cx="419.256" cy="297.122" r="4" fill="#0" id="circle188"/>
	<circle cx="431.469" cy="54.2107" r="4" fill="#0" id="circle189"/>
	<circle cx="432.826" cy="297.122" r="4" fill="#0" id="circle190"/>
	<circle cx="445.04" cy="58.2818" r="4" fill="#0" id="circle191"/>
	<circle cx="446.397" cy="299.836" r="4" fill="#0" id="circle192"/>
	<circle cx="458.61" cy="60.9959" r="4" fill="#0" id="circle193"/>
	<circle cx="459.967" cy="303.907" r="4" fill="#0" id="circle194"/>
	<circle cx="466.752" cy="71.8523" r="4" fill="#0" id="circle195"/>
	<circle cx="473.538" cy="303.907" r="4" fill="#0" id="circle196"/>
	<circle cx="480.323" cy="75.9234" r="4" fill="#0" id="circle197"/>
	<circle cx="487.108" cy="303.907" r="4" fill="#0" id="circle198"/>
	<circle cx="491.179" cy="85.4227" r="4" fill="#0" id="circle199"/>
	<circle cx="500.679" cy="306.621" r="4" fill="#0" id="circle200"/>
	<circle cx="503.393" cy="92.2079" r="4" fill="#0" id="circle201"/>
	<circle cx="514.249" cy="310.692" r="4" fill="#0" id="circle202"/>
	<circle cx="515.606" cy="98.9932" r="4" fill="#0" id="circle203"/>
	<circle cx="526.462" cy="108.492" r="4" fill="#0" id="circle204"/>
	<circle cx="527.819" cy="310.692" r="4" fill="#0" id="circle205"/>
	<circle cx="538.676" cy="115.278" r="4" fill="#0" id="circle206"/>
	<circle cx="541.39" cy="313.406" r="4" fill="#0" id="circle207"/>
	<circle cx="552.246" cy="120.706" r="4" fill="#0" id="circle208"/>
	<circle cx="554.96" cy="317.477" r="4" fill="#0" id="circle209"/>
	<circle cx="561.746" cy="131.562" r="4" fill="#0" id="circle210"/>
	<circle cx="568.531" cy="320.192" r="4" fill="#0" id="circle211"/>
	<circle cx="575.316" cy="136.99" r="4" fill="#0" id="circle212"/>
	<circle cx="582.101" cy="324.263" r="4" fill="#0" id="circle213"/>
	<circle cx="584.815" cy="147.847" r="4" fill="#0" id="circle214"/>
	<circle cx="595.672" cy="157.346" r="4" fill="#0" id="circle215"/>
	<circle cx="595.672" cy="324.263" r="4" fill="#0" id="circle216"/>
	<circle cx="605.171" cy="168.202" r="4" fill="#0" id="circle217"/>
	<circle cx="609.242" cy="326.977" r="4" fill="#0" id="circle218"/>
	<circle cx="611.956" cy="180.416" r="4" fill="#0" id="circle219"/>
	<circle cx="621.456" cy="191.272" r="4" fill="#0" id="circle220"/>
	<circle cx="622.813" cy="331.048" r="4" fill="#0" id="circle221"/>
	<circle cx="629.598" cy="202.129" r="4" fill="#0" id="circle222"/>
	<circle cx="632.312" cy="215.699" r="4" fill="#0" id="circle223"/>
	<circle cx="635.026" cy="337.833" r="4" fill="#0" id="circle224"/>
	<circle cx="639.097" cy="227.912" r="4" fill="#0" id="circle225"/>
	<circle cx="648.596" cy="238.769" r="4" fill="#0" id="circle226"/>
	<circle cx="648.596" cy="337.833" r="4" fill="#0" id="circle227"/>
	<circle cx="655.382" cy="250.982" r="4" fill="#0" id="circle228"/>
	<circle cx="660.81" cy="344.618" r="4" fill="#0" id="circle229"/>
	<circle cx="663.524" cy="261.839" r="4" fill="#0" id="circle230"/>
	<circle cx="663.524" cy="275.409" r="4" fill="#0" id="circle231"/>
	<circle cx="670.309" cy="287.622" r="4" fill="#0" id="circle232"/>
	<circle cx="673.023" cy="351.404" r="4" fill="#0" id="circle233"/>
	<circle cx="677.094" cy="299.836" r="4" fill="#0" id="circle234"/>
	<circle cx="682.523" cy="313.406" r="4" fill="#0" id="circle235"/>
	<circle cx="683.88" cy="326.977" r="4" fill="#0" id="circle236"/>
	<circle cx="686.594" cy="356.832" r="4" fill="#0" id="circle237"/>
	<circle cx="690.665" cy="339.19" r="4" fill="#0" id="circle238"/>
	</g>
</svg>