<?xml version="1.0" encoding="UTF-8" standalone="no"?>
<!-- Created with CurveBenchmark -->
<svg
	xmlns:dc="http://purl.org/dc/elements/1.1/"
	xmlns:cc="http://creativecommons.org/ns#"
	xmlns:rdf="http://www.w3.org/1999/02/22-rdf-syntax-ns#"
	xmlns:svg="http://www.w3.org/2000/svg"
	xmlns="http://www.w3.org/2000/svg"
	xmlns:sodipodi="http://sodipodi.sourceforge.net/DTD/sodipodi-0.dtd"
	xmlns:inkscape="http://www.inkscape.org/namespaces/inkscape"
	width="1000"
	height="1000"
	id="svg2"
	version="1.1"
	sodipodi:docname="manifold/gathan1-ray20.png.txt">
<defs
	id="defs4" />
<metadata
	id="metadata7">
	<rdf:RDF>
		<cc:Work
			rdf:about="">
			<dc:format>image/svg+xml</dc:format>
			<dc:type
				rdf:resource="http://purl.org/dc/dcmitype/StillImage" />
			<dc:title></dc:title>
		</cc:Work>
	</rdf:RDF>
</metadata>
<g
	inkscape:label="Layer 1"
	inkscape:groupmode="layer"
	id="layer1">
	<path style="fill:none;stroke:red;stroke-width:1px;stroke-linecap:butt;stroke-linejoin:miter;stroke-opacity:1" d="M 18.5668,336.123 25.8502,321.557 z" id="boundary" inkscape:connector-curvature="0" />
	<path style="fill:none;stroke:red;stroke-width:1px;stroke-linecap:butt;stroke-linejoin:miter;stroke-opacity:1" d="M 33.1336,306.99 44.7871,295.336 z" id="boundary" inkscape:connector-curvature="0" />
	<path style="fill:none;stroke:red;stroke-width:1px;stroke-linecap:butt;stroke-linejoin:miter;stroke-opacity:1" d="M 25.8502,321.557 33.1336,306.99 z" id="boundary" inkscape:connector-curvature="0" />
	<path style="fill:none;stroke:red;stroke-width:1px;stroke-linecap:butt;stroke-linejoin:miter;stroke-opacity:1" d="M 52.0705,280.769 44.7871,295.336 z" id="boundary" inkscape:connector-curvature="0" />
	<path style="fill:none;stroke:red;stroke-width:1px;stroke-linecap:butt;stroke-linejoin:miter;stroke-opacity:1" d="M 18.5668,350.69 25.8502,363.8 z" id="boundary" inkscape:connector-curvature="0" />
	<path style="fill:none;stroke:red;stroke-width:1px;stroke-linecap:butt;stroke-linejoin:miter;stroke-opacity:1" d="M 18.5668,350.69 18.5668,336.123 z" id="boundary" inkscape:connector-curvature="0" />
	<path style="fill:none;stroke:red;stroke-width:1px;stroke-linecap:butt;stroke-linejoin:miter;stroke-opacity:1" d="M 33.1336,376.91 37.5037,391.477 z" id="boundary" inkscape:connector-curvature="0" />
	<path style="fill:none;stroke:red;stroke-width:1px;stroke-linecap:butt;stroke-linejoin:miter;stroke-opacity:1" d="M 25.8502,363.8 33.1336,376.91 z" id="boundary" inkscape:connector-curvature="0" />
	<path style="fill:none;stroke:red;stroke-width:1px;stroke-linecap:butt;stroke-linejoin:miter;stroke-opacity:1" d="M 47.7004,403.131 37.5037,391.477 z" id="boundary" inkscape:connector-curvature="0" />
	<path style="fill:none;stroke:red;stroke-width:1px;stroke-linecap:butt;stroke-linejoin:miter;stroke-opacity:1" d="M 54.9838,416.241 47.7004,403.131 z" id="boundary" inkscape:connector-curvature="0" />
	<path style="fill:none;stroke:red;stroke-width:1px;stroke-linecap:butt;stroke-linejoin:miter;stroke-opacity:1" d="M 59.3539,266.203 71.0073,254.549 z" id="boundary" inkscape:connector-curvature="0" />
	<path style="fill:none;stroke:red;stroke-width:1px;stroke-linecap:butt;stroke-linejoin:miter;stroke-opacity:1" d="M 52.0705,280.769 59.3539,266.203 z" id="boundary" inkscape:connector-curvature="0" />
	<path style="fill:none;stroke:red;stroke-width:1px;stroke-linecap:butt;stroke-linejoin:miter;stroke-opacity:1" d="M 62.2673,429.351 54.9838,416.241 z" id="boundary" inkscape:connector-curvature="0" />
	<path style="fill:none;stroke:red;stroke-width:1px;stroke-linecap:butt;stroke-linejoin:miter;stroke-opacity:1" d="M 72.464,441.004 62.2673,429.351 z" id="boundary" inkscape:connector-curvature="0" />
	<path style="fill:none;stroke:red;stroke-width:1px;stroke-linecap:butt;stroke-linejoin:miter;stroke-opacity:1" d="M 79.7474,454.115 72.464,441.004 z" id="boundary" inkscape:connector-curvature="0" />
	<path style="fill:none;stroke:red;stroke-width:1px;stroke-linecap:butt;stroke-linejoin:miter;stroke-opacity:1" d="M 71.0073,254.549 82.6608,244.352 z" id="boundary" inkscape:connector-curvature="0" />
	<path style="fill:none;stroke:red;stroke-width:1px;stroke-linecap:butt;stroke-linejoin:miter;stroke-opacity:1" d="M 4,569.192 11.2834,554.626 z" id="boundary" inkscape:connector-curvature="0" />
	<path style="fill:none;stroke:red;stroke-width:1px;stroke-linecap:butt;stroke-linejoin:miter;stroke-opacity:1" d="M 11.2834,554.626 25.8502,547.342 z" id="boundary" inkscape:connector-curvature="0" />
	<path style="fill:none;stroke:red;stroke-width:1px;stroke-linecap:butt;stroke-linejoin:miter;stroke-opacity:1" d="M 40.417,566.279 27.3069,573.562 z" id="boundary" inkscape:connector-curvature="0" />
	<path style="fill:none;stroke:red;stroke-width:1px;stroke-linecap:butt;stroke-linejoin:miter;stroke-opacity:1" d="M 27.3069,573.562 20.0235,588.129 z" id="boundary" inkscape:connector-curvature="0" />
	<path style="fill:none;stroke:red;stroke-width:1px;stroke-linecap:butt;stroke-linejoin:miter;stroke-opacity:1" d="M 4,598.326 4,583.759 z" id="boundary" inkscape:connector-curvature="0" />
	<path style="fill:none;stroke:red;stroke-width:1px;stroke-linecap:butt;stroke-linejoin:miter;stroke-opacity:1" d="M 20.0235,588.129 27.3069,601.239 z" id="boundary" inkscape:connector-curvature="0" />
	<path style="fill:none;stroke:red;stroke-width:1px;stroke-linecap:butt;stroke-linejoin:miter;stroke-opacity:1" d="M 11.2834,611.436 4,598.326 z" id="boundary" inkscape:connector-curvature="0" />
	<path style="fill:none;stroke:red;stroke-width:1px;stroke-linecap:butt;stroke-linejoin:miter;stroke-opacity:1" d="M 4,583.759 4,569.192 z" id="boundary" inkscape:connector-curvature="0" />
	<path style="fill:none;stroke:red;stroke-width:1px;stroke-linecap:butt;stroke-linejoin:miter;stroke-opacity:1" d="M 40.417,542.972 54.9838,542.972 z" id="boundary" inkscape:connector-curvature="0" />
	<path style="fill:none;stroke:red;stroke-width:1px;stroke-linecap:butt;stroke-linejoin:miter;stroke-opacity:1" d="M 54.9838,566.279 40.417,566.279 z" id="boundary" inkscape:connector-curvature="0" />
	<path style="fill:none;stroke:red;stroke-width:1px;stroke-linecap:butt;stroke-linejoin:miter;stroke-opacity:1" d="M 69.5507,545.885 54.9838,542.972 z" id="boundary" inkscape:connector-curvature="0" />
	<path style="fill:none;stroke:red;stroke-width:1px;stroke-linecap:butt;stroke-linejoin:miter;stroke-opacity:1" d="M 54.9838,566.279 68.094,573.562 z" id="boundary" inkscape:connector-curvature="0" />
	<path style="fill:none;stroke:red;stroke-width:1px;stroke-linecap:butt;stroke-linejoin:miter;stroke-opacity:1" d="M 68.094,573.562 81.2041,580.846 z" id="boundary" inkscape:connector-curvature="0" />
	<path style="fill:none;stroke:red;stroke-width:1px;stroke-linecap:butt;stroke-linejoin:miter;stroke-opacity:1" d="M 21.4802,623.09 11.2834,611.436 z" id="boundary" inkscape:connector-curvature="0" />
	<path style="fill:none;stroke:red;stroke-width:1px;stroke-linecap:butt;stroke-linejoin:miter;stroke-opacity:1" d="M 27.3069,601.239 21.4802,623.09 z" id="boundary" inkscape:connector-curvature="0" />
	<path style="fill:none;stroke:red;stroke-width:1px;stroke-linecap:butt;stroke-linejoin:miter;stroke-opacity:1" d="M 69.5507,545.885 82.6608,553.169 z" id="boundary" inkscape:connector-curvature="0" />
	<path style="fill:none;stroke:red;stroke-width:1px;stroke-linecap:butt;stroke-linejoin:miter;stroke-opacity:1" d="M 25.8502,547.342 40.417,542.972 z" id="boundary" inkscape:connector-curvature="0" />
	<path style="fill:none;stroke:red;stroke-width:1px;stroke-linecap:butt;stroke-linejoin:miter;stroke-opacity:1" d="M 79.7474,454.115 85.5742,468.681 z" id="boundary" inkscape:connector-curvature="0" />
	<path style="fill:none;stroke:red;stroke-width:1px;stroke-linecap:butt;stroke-linejoin:miter;stroke-opacity:1" d="M 92.8576,232.699 104.511,222.502 z" id="boundary" inkscape:connector-curvature="0" />
	<path style="fill:none;stroke:red;stroke-width:1px;stroke-linecap:butt;stroke-linejoin:miter;stroke-opacity:1" d="M 82.6608,244.352 92.8576,232.699 z" id="boundary" inkscape:connector-curvature="0" />
	<path style="fill:none;stroke:red;stroke-width:1px;stroke-linecap:butt;stroke-linejoin:miter;stroke-opacity:1" d="M 114.708,210.849 104.511,222.502 z" id="boundary" inkscape:connector-curvature="0" />
	<path style="fill:none;stroke:red;stroke-width:1px;stroke-linecap:butt;stroke-linejoin:miter;stroke-opacity:1" d="M 154.038,186.085 168.605,178.802 z" id="boundary" inkscape:connector-curvature="0" />
	<path style="fill:none;stroke:red;stroke-width:1px;stroke-linecap:butt;stroke-linejoin:miter;stroke-opacity:1" d="M 85.5742,468.681 92.8576,481.791 z" id="boundary" inkscape:connector-curvature="0" />
	<path style="fill:none;stroke:red;stroke-width:1px;stroke-linecap:butt;stroke-linejoin:miter;stroke-opacity:1" d="M 103.054,493.445 113.251,505.098 z" id="boundary" inkscape:connector-curvature="0" />
	<path style="fill:none;stroke:red;stroke-width:1px;stroke-linecap:butt;stroke-linejoin:miter;stroke-opacity:1" d="M 103.054,493.445 92.8576,481.791 z" id="boundary" inkscape:connector-curvature="0" />
	<path style="fill:none;stroke:red;stroke-width:1px;stroke-linecap:butt;stroke-linejoin:miter;stroke-opacity:1" d="M 126.361,200.652 139.471,193.369 z" id="boundary" inkscape:connector-curvature="0" />
	<path style="fill:none;stroke:red;stroke-width:1px;stroke-linecap:butt;stroke-linejoin:miter;stroke-opacity:1" d="M 114.708,210.849 126.361,200.652 z" id="boundary" inkscape:connector-curvature="0" />
	<path style="fill:none;stroke:red;stroke-width:1px;stroke-linecap:butt;stroke-linejoin:miter;stroke-opacity:1" d="M 183.172,171.518 197.739,164.235 z" id="boundary" inkscape:connector-curvature="0" />
	<path style="fill:none;stroke:red;stroke-width:1px;stroke-linecap:butt;stroke-linejoin:miter;stroke-opacity:1" d="M 248.722,127.818 237.069,139.471 z" id="boundary" inkscape:connector-curvature="0" />
	<path style="fill:none;stroke:red;stroke-width:1px;stroke-linecap:butt;stroke-linejoin:miter;stroke-opacity:1" d="M 210.849,156.952 223.959,149.668 z" id="boundary" inkscape:connector-curvature="0" />
	<path style="fill:none;stroke:red;stroke-width:1px;stroke-linecap:butt;stroke-linejoin:miter;stroke-opacity:1" d="M 237.069,139.471 223.959,149.668 z" id="boundary" inkscape:connector-curvature="0" />
	<path style="fill:none;stroke:red;stroke-width:1px;stroke-linecap:butt;stroke-linejoin:miter;stroke-opacity:1" d="M 210.849,156.952 197.739,164.235 z" id="boundary" inkscape:connector-curvature="0" />
	<path style="fill:none;stroke:red;stroke-width:1px;stroke-linecap:butt;stroke-linejoin:miter;stroke-opacity:1" d="M 139.471,193.369 154.038,186.085 z" id="boundary" inkscape:connector-curvature="0" />
	<path style="fill:none;stroke:red;stroke-width:1px;stroke-linecap:butt;stroke-linejoin:miter;stroke-opacity:1" d="M 183.172,171.518 168.605,178.802 z" id="boundary" inkscape:connector-curvature="0" />
	<path style="fill:none;stroke:red;stroke-width:1px;stroke-linecap:butt;stroke-linejoin:miter;stroke-opacity:1" d="M 97.2276,558.996 107.424,570.649 z" id="boundary" inkscape:connector-curvature="0" />
	<path style="fill:none;stroke:red;stroke-width:1px;stroke-linecap:butt;stroke-linejoin:miter;stroke-opacity:1" d="M 97.2276,558.996 82.6608,553.169 z" id="boundary" inkscape:connector-curvature="0" />
	<path style="fill:none;stroke:red;stroke-width:1px;stroke-linecap:butt;stroke-linejoin:miter;stroke-opacity:1" d="M 113.251,505.098 120.535,518.209 z" id="boundary" inkscape:connector-curvature="0" />
	<path style="fill:none;stroke:red;stroke-width:1px;stroke-linecap:butt;stroke-linejoin:miter;stroke-opacity:1" d="M 92.8576,591.043 98.6843,605.609 z" id="boundary" inkscape:connector-curvature="0" />
	<path style="fill:none;stroke:red;stroke-width:1px;stroke-linecap:butt;stroke-linejoin:miter;stroke-opacity:1" d="M 81.2041,580.846 92.8576,591.043 z" id="boundary" inkscape:connector-curvature="0" />
	<path style="fill:none;stroke:red;stroke-width:1px;stroke-linecap:butt;stroke-linejoin:miter;stroke-opacity:1" d="M 107.424,570.649 114.708,583.759 z" id="boundary" inkscape:connector-curvature="0" />
	<path style="fill:none;stroke:red;stroke-width:1px;stroke-linecap:butt;stroke-linejoin:miter;stroke-opacity:1" d="M 114.708,583.759 121.991,596.869 z" id="boundary" inkscape:connector-curvature="0" />
	<path style="fill:none;stroke:red;stroke-width:1px;stroke-linecap:butt;stroke-linejoin:miter;stroke-opacity:1" d="M 120.535,518.209 127.818,531.319 z" id="boundary" inkscape:connector-curvature="0" />
	<path style="fill:none;stroke:red;stroke-width:1px;stroke-linecap:butt;stroke-linejoin:miter;stroke-opacity:1" d="M 135.101,544.429 143.841,556.082 z" id="boundary" inkscape:connector-curvature="0" />
	<path style="fill:none;stroke:red;stroke-width:1px;stroke-linecap:butt;stroke-linejoin:miter;stroke-opacity:1" d="M 135.101,544.429 127.818,531.319 z" id="boundary" inkscape:connector-curvature="0" />
	<path style="fill:none;stroke:red;stroke-width:1px;stroke-linecap:butt;stroke-linejoin:miter;stroke-opacity:1" d="M 155.495,566.279 143.841,556.082 z" id="boundary" inkscape:connector-curvature="0" />
	<path style="fill:none;stroke:red;stroke-width:1px;stroke-linecap:butt;stroke-linejoin:miter;stroke-opacity:1" d="M 164.235,577.932 171.518,591.043 z" id="boundary" inkscape:connector-curvature="0" />
	<path style="fill:none;stroke:red;stroke-width:1px;stroke-linecap:butt;stroke-linejoin:miter;stroke-opacity:1" d="M 155.495,566.279 164.235,577.932 z" id="boundary" inkscape:connector-curvature="0" />
	<path style="fill:none;stroke:red;stroke-width:1px;stroke-linecap:butt;stroke-linejoin:miter;stroke-opacity:1" d="M 193.369,609.979 178.802,604.153 z" id="boundary" inkscape:connector-curvature="0" />
	<path style="fill:none;stroke:red;stroke-width:1px;stroke-linecap:butt;stroke-linejoin:miter;stroke-opacity:1" d="M 178.802,604.153 171.518,591.043 z" id="boundary" inkscape:connector-curvature="0" />
	<path style="fill:none;stroke:red;stroke-width:1px;stroke-linecap:butt;stroke-linejoin:miter;stroke-opacity:1" d="M 126.361,611.436 121.991,596.869 z" id="boundary" inkscape:connector-curvature="0" />
	<path style="fill:none;stroke:red;stroke-width:1px;stroke-linecap:butt;stroke-linejoin:miter;stroke-opacity:1" d="M 105.968,618.72 98.6843,605.609 z" id="boundary" inkscape:connector-curvature="0" />
	<path style="fill:none;stroke:red;stroke-width:1px;stroke-linecap:butt;stroke-linejoin:miter;stroke-opacity:1" d="M 193.369,609.979 202.109,621.633 z" id="boundary" inkscape:connector-curvature="0" />
	<path style="fill:none;stroke:red;stroke-width:1px;stroke-linecap:butt;stroke-linejoin:miter;stroke-opacity:1" d="M 76.8341,729.427 69.5507,743.994 z" id="boundary" inkscape:connector-curvature="0" />
	<path style="fill:none;stroke:red;stroke-width:1px;stroke-linecap:butt;stroke-linejoin:miter;stroke-opacity:1" d="M 84.1175,707.577 76.8341,729.427 z" id="boundary" inkscape:connector-curvature="0" />
	<path style="fill:none;stroke:red;stroke-width:1px;stroke-linecap:butt;stroke-linejoin:miter;stroke-opacity:1" d="M 91.4009,685.727 84.1175,707.577 z" id="boundary" inkscape:connector-curvature="0" />
	<path style="fill:none;stroke:red;stroke-width:1px;stroke-linecap:butt;stroke-linejoin:miter;stroke-opacity:1" d="M 98.6843,663.877 91.4009,685.727 z" id="boundary" inkscape:connector-curvature="0" />
	<path style="fill:none;stroke:red;stroke-width:1px;stroke-linecap:butt;stroke-linejoin:miter;stroke-opacity:1" d="M 62.2673,780.411 62.2673,765.844 z" id="boundary" inkscape:connector-curvature="0" />
	<path style="fill:none;stroke:red;stroke-width:1px;stroke-linecap:butt;stroke-linejoin:miter;stroke-opacity:1" d="M 62.2673,765.844 69.5507,743.994 z" id="boundary" inkscape:connector-curvature="0" />
	<path style="fill:none;stroke:red;stroke-width:1px;stroke-linecap:butt;stroke-linejoin:miter;stroke-opacity:1" d="M 100.141,748.364 92.8576,770.214 z" id="boundary" inkscape:connector-curvature="0" />
	<path style="fill:none;stroke:red;stroke-width:1px;stroke-linecap:butt;stroke-linejoin:miter;stroke-opacity:1" d="M 92.8576,770.214 92.8576,784.781 z" id="boundary" inkscape:connector-curvature="0" />
	<path style="fill:none;stroke:red;stroke-width:1px;stroke-linecap:butt;stroke-linejoin:miter;stroke-opacity:1" d="M 105.968,633.286 105.968,647.853 z" id="boundary" inkscape:connector-curvature="0" />
	<path style="fill:none;stroke:red;stroke-width:1px;stroke-linecap:butt;stroke-linejoin:miter;stroke-opacity:1" d="M 105.968,647.853 98.6843,663.877 z" id="boundary" inkscape:connector-curvature="0" />
	<path style="fill:none;stroke:red;stroke-width:1px;stroke-linecap:butt;stroke-linejoin:miter;stroke-opacity:1" d="M 114.708,704.664 107.424,726.514 z" id="boundary" inkscape:connector-curvature="0" />
	<path style="fill:none;stroke:red;stroke-width:1px;stroke-linecap:butt;stroke-linejoin:miter;stroke-opacity:1" d="M 107.424,726.514 100.141,748.364 z" id="boundary" inkscape:connector-curvature="0" />
	<path style="fill:none;stroke:red;stroke-width:1px;stroke-linecap:butt;stroke-linejoin:miter;stroke-opacity:1" d="M 105.968,633.286 105.968,618.72 z" id="boundary" inkscape:connector-curvature="0" />
	<path style="fill:none;stroke:red;stroke-width:1px;stroke-linecap:butt;stroke-linejoin:miter;stroke-opacity:1" d="M 121.991,682.814 114.708,704.664 z" id="boundary" inkscape:connector-curvature="0" />
	<path style="fill:none;stroke:red;stroke-width:1px;stroke-linecap:butt;stroke-linejoin:miter;stroke-opacity:1" d="M 62.2673,794.978 62.2673,780.411 z" id="boundary" inkscape:connector-curvature="0" />
	<path style="fill:none;stroke:red;stroke-width:1px;stroke-linecap:butt;stroke-linejoin:miter;stroke-opacity:1" d="M 54.9838,809.545 62.2673,794.978 z" id="boundary" inkscape:connector-curvature="0" />
	<path style="fill:none;stroke:red;stroke-width:1px;stroke-linecap:butt;stroke-linejoin:miter;stroke-opacity:1" d="M 62.2673,822.655 54.9838,809.545 z" id="boundary" inkscape:connector-curvature="0" />
	<path style="fill:none;stroke:red;stroke-width:1px;stroke-linecap:butt;stroke-linejoin:miter;stroke-opacity:1" d="M 62.2673,822.655 62.2673,837.222 z" id="boundary" inkscape:connector-curvature="0" />
	<path style="fill:none;stroke:red;stroke-width:1px;stroke-linecap:butt;stroke-linejoin:miter;stroke-opacity:1" d="M 62.2673,851.789 62.2673,837.222 z" id="boundary" inkscape:connector-curvature="0" />
	<path style="fill:none;stroke:red;stroke-width:1px;stroke-linecap:butt;stroke-linejoin:miter;stroke-opacity:1" d="M 62.2673,851.789 69.5507,864.899 z" id="boundary" inkscape:connector-curvature="0" />
	<path style="fill:none;stroke:red;stroke-width:1px;stroke-linecap:butt;stroke-linejoin:miter;stroke-opacity:1" d="M 78.2907,876.552 85.5742,889.662 z" id="boundary" inkscape:connector-curvature="0" />
	<path style="fill:none;stroke:red;stroke-width:1px;stroke-linecap:butt;stroke-linejoin:miter;stroke-opacity:1" d="M 69.5507,864.899 78.2907,876.552 z" id="boundary" inkscape:connector-curvature="0" />
	<path style="fill:none;stroke:red;stroke-width:1px;stroke-linecap:butt;stroke-linejoin:miter;stroke-opacity:1" d="M 100.141,812.458 100.141,827.025 z" id="boundary" inkscape:connector-curvature="0" />
	<path style="fill:none;stroke:red;stroke-width:1px;stroke-linecap:butt;stroke-linejoin:miter;stroke-opacity:1" d="M 100.141,812.458 92.8576,799.348 z" id="boundary" inkscape:connector-curvature="0" />
	<path style="fill:none;stroke:red;stroke-width:1px;stroke-linecap:butt;stroke-linejoin:miter;stroke-opacity:1" d="M 92.8576,799.348 92.8576,784.781 z" id="boundary" inkscape:connector-curvature="0" />
	<path style="fill:none;stroke:red;stroke-width:1px;stroke-linecap:butt;stroke-linejoin:miter;stroke-opacity:1" d="M 100.141,827.025 100.141,841.592 z" id="boundary" inkscape:connector-curvature="0" />
	<path style="fill:none;stroke:red;stroke-width:1px;stroke-linecap:butt;stroke-linejoin:miter;stroke-opacity:1" d="M 107.424,854.702 100.141,841.592 z" id="boundary" inkscape:connector-curvature="0" />
	<path style="fill:none;stroke:red;stroke-width:1px;stroke-linecap:butt;stroke-linejoin:miter;stroke-opacity:1" d="M 95.7709,901.316 85.5742,889.662 z" id="boundary" inkscape:connector-curvature="0" />
	<path style="fill:none;stroke:red;stroke-width:1px;stroke-linecap:butt;stroke-linejoin:miter;stroke-opacity:1" d="M 107.424,854.702 119.078,864.899 z" id="boundary" inkscape:connector-curvature="0" />
	<path style="fill:none;stroke:red;stroke-width:1px;stroke-linecap:butt;stroke-linejoin:miter;stroke-opacity:1" d="M 119.078,864.899 129.275,876.552 z" id="boundary" inkscape:connector-curvature="0" />
	<path style="fill:none;stroke:red;stroke-width:1px;stroke-linecap:butt;stroke-linejoin:miter;stroke-opacity:1" d="M 110.338,907.142 95.7709,901.316 z" id="boundary" inkscape:connector-curvature="0" />
	<path style="fill:none;stroke:red;stroke-width:1px;stroke-linecap:butt;stroke-linejoin:miter;stroke-opacity:1" d="M 110.338,907.142 120.535,918.796 z" id="boundary" inkscape:connector-curvature="0" />
	<path style="fill:none;stroke:red;stroke-width:1px;stroke-linecap:butt;stroke-linejoin:miter;stroke-opacity:1" d="M 129.275,626.003 129.275,640.57 z" id="boundary" inkscape:connector-curvature="0" />
	<path style="fill:none;stroke:red;stroke-width:1px;stroke-linecap:butt;stroke-linejoin:miter;stroke-opacity:1" d="M 129.275,626.003 126.361,611.436 z" id="boundary" inkscape:connector-curvature="0" />
	<path style="fill:none;stroke:red;stroke-width:1px;stroke-linecap:butt;stroke-linejoin:miter;stroke-opacity:1" d="M 129.275,640.57 129.275,655.137 z" id="boundary" inkscape:connector-curvature="0" />
	<path style="fill:none;stroke:red;stroke-width:1px;stroke-linecap:butt;stroke-linejoin:miter;stroke-opacity:1" d="M 129.275,669.703 129.275,655.137 z" id="boundary" inkscape:connector-curvature="0" />
	<path style="fill:none;stroke:red;stroke-width:1px;stroke-linecap:butt;stroke-linejoin:miter;stroke-opacity:1" d="M 168.605,899.859 154.038,894.032 z" id="boundary" inkscape:connector-curvature="0" />
	<path style="fill:none;stroke:red;stroke-width:1px;stroke-linecap:butt;stroke-linejoin:miter;stroke-opacity:1" d="M 129.275,669.703 121.991,682.814 z" id="boundary" inkscape:connector-curvature="0" />
	<path style="fill:none;stroke:red;stroke-width:1px;stroke-linecap:butt;stroke-linejoin:miter;stroke-opacity:1" d="M 154.038,894.032 140.928,886.749 z" id="boundary" inkscape:connector-curvature="0" />
	<path style="fill:none;stroke:red;stroke-width:1px;stroke-linecap:butt;stroke-linejoin:miter;stroke-opacity:1" d="M 140.928,886.749 129.275,876.552 z" id="boundary" inkscape:connector-curvature="0" />
	<path style="fill:none;stroke:red;stroke-width:1px;stroke-linecap:butt;stroke-linejoin:miter;stroke-opacity:1" d="M 213.762,631.83 226.872,639.113 z" id="boundary" inkscape:connector-curvature="0" />
	<path style="fill:none;stroke:red;stroke-width:1px;stroke-linecap:butt;stroke-linejoin:miter;stroke-opacity:1" d="M 213.762,631.83 202.109,621.633 z" id="boundary" inkscape:connector-curvature="0" />
	<path style="fill:none;stroke:red;stroke-width:1px;stroke-linecap:butt;stroke-linejoin:miter;stroke-opacity:1" d="M 239.982,646.396 226.872,639.113 z" id="boundary" inkscape:connector-curvature="0" />
	<path style="fill:none;stroke:red;stroke-width:1px;stroke-linecap:butt;stroke-linejoin:miter;stroke-opacity:1" d="M 181.715,907.142 196.282,907.142 z" id="boundary" inkscape:connector-curvature="0" />
	<path style="fill:none;stroke:red;stroke-width:1px;stroke-linecap:butt;stroke-linejoin:miter;stroke-opacity:1" d="M 181.715,907.142 168.605,899.859 z" id="boundary" inkscape:connector-curvature="0" />
	<path style="fill:none;stroke:red;stroke-width:1px;stroke-linecap:butt;stroke-linejoin:miter;stroke-opacity:1" d="M 210.849,907.142 196.282,907.142 z" id="boundary" inkscape:connector-curvature="0" />
	<path style="fill:none;stroke:red;stroke-width:1px;stroke-linecap:butt;stroke-linejoin:miter;stroke-opacity:1" d="M 120.535,918.796 132.188,928.993 z" id="boundary" inkscape:connector-curvature="0" />
	<path style="fill:none;stroke:red;stroke-width:1px;stroke-linecap:butt;stroke-linejoin:miter;stroke-opacity:1" d="M 145.298,936.276 132.188,928.993 z" id="boundary" inkscape:connector-curvature="0" />
	<path style="fill:none;stroke:red;stroke-width:1px;stroke-linecap:butt;stroke-linejoin:miter;stroke-opacity:1" d="M 145.298,936.276 146.755,958.126 z" id="boundary" inkscape:connector-curvature="0" />
	<path style="fill:none;stroke:red;stroke-width:1px;stroke-linecap:butt;stroke-linejoin:miter;stroke-opacity:1" d="M 146.755,958.126 135.101,969.78 z" id="boundary" inkscape:connector-curvature="0" />
	<path style="fill:none;stroke:red;stroke-width:1px;stroke-linecap:butt;stroke-linejoin:miter;stroke-opacity:1" d="M 120.535,977.063 120.535,991.63 z" id="boundary" inkscape:connector-curvature="0" />
	<path style="fill:none;stroke:red;stroke-width:1px;stroke-linecap:butt;stroke-linejoin:miter;stroke-opacity:1" d="M 135.101,996 120.535,991.63 z" id="boundary" inkscape:connector-curvature="0" />
	<path style="fill:none;stroke:red;stroke-width:1px;stroke-linecap:butt;stroke-linejoin:miter;stroke-opacity:1" d="M 120.535,977.063 135.101,969.78 z" id="boundary" inkscape:connector-curvature="0" />
	<path style="fill:none;stroke:red;stroke-width:1px;stroke-linecap:butt;stroke-linejoin:miter;stroke-opacity:1" d="M 149.668,991.63 135.101,996 z" id="boundary" inkscape:connector-curvature="0" />
	<path style="fill:none;stroke:red;stroke-width:1px;stroke-linecap:butt;stroke-linejoin:miter;stroke-opacity:1" d="M 221.046,959.583 207.935,966.866 z" id="boundary" inkscape:connector-curvature="0" />
	<path style="fill:none;stroke:red;stroke-width:1px;stroke-linecap:butt;stroke-linejoin:miter;stroke-opacity:1" d="M 210.849,907.142 225.416,907.142 z" id="boundary" inkscape:connector-curvature="0" />
	<path style="fill:none;stroke:red;stroke-width:1px;stroke-linecap:butt;stroke-linejoin:miter;stroke-opacity:1" d="M 235.612,956.67 221.046,959.583 z" id="boundary" inkscape:connector-curvature="0" />
	<path style="fill:none;stroke:red;stroke-width:1px;stroke-linecap:butt;stroke-linejoin:miter;stroke-opacity:1" d="M 225.416,907.142 239.982,907.142 z" id="boundary" inkscape:connector-curvature="0" />
	<path style="fill:none;stroke:red;stroke-width:1px;stroke-linecap:butt;stroke-linejoin:miter;stroke-opacity:1" d="M 149.668,991.63 164.235,984.347 z" id="boundary" inkscape:connector-curvature="0" />
	<path style="fill:none;stroke:red;stroke-width:1px;stroke-linecap:butt;stroke-linejoin:miter;stroke-opacity:1" d="M 178.802,977.063 193.369,969.78 z" id="boundary" inkscape:connector-curvature="0" />
	<path style="fill:none;stroke:red;stroke-width:1px;stroke-linecap:butt;stroke-linejoin:miter;stroke-opacity:1" d="M 193.369,969.78 207.935,966.866 z" id="boundary" inkscape:connector-curvature="0" />
	<path style="fill:none;stroke:red;stroke-width:1px;stroke-linecap:butt;stroke-linejoin:miter;stroke-opacity:1" d="M 164.235,984.347 178.802,977.063 z" id="boundary" inkscape:connector-curvature="0" />
	<path style="fill:none;stroke:red;stroke-width:1px;stroke-linecap:butt;stroke-linejoin:miter;stroke-opacity:1" d="M 376.91,36.047 388.564,25.8502 z" id="boundary" inkscape:connector-curvature="0" />
	<path style="fill:none;stroke:red;stroke-width:1px;stroke-linecap:butt;stroke-linejoin:miter;stroke-opacity:1" d="M 394.391,11.2834 388.564,25.8502 z" id="boundary" inkscape:connector-curvature="0" />
	<path style="fill:none;stroke:red;stroke-width:1px;stroke-linecap:butt;stroke-linejoin:miter;stroke-opacity:1" d="M 376.91,36.047 362.344,43.3304 z" id="boundary" inkscape:connector-curvature="0" />
	<path style="fill:none;stroke:red;stroke-width:1px;stroke-linecap:butt;stroke-linejoin:miter;stroke-opacity:1" d="M 394.391,11.2834 408.957,4 z" id="boundary" inkscape:connector-curvature="0" />
	<path style="fill:none;stroke:red;stroke-width:1px;stroke-linecap:butt;stroke-linejoin:miter;stroke-opacity:1" d="M 408.957,4 422.068,11.2834 z" id="boundary" inkscape:connector-curvature="0" />
	<path style="fill:none;stroke:red;stroke-width:1px;stroke-linecap:butt;stroke-linejoin:miter;stroke-opacity:1" d="M 325.927,72.464 337.58,62.2673 z" id="boundary" inkscape:connector-curvature="0" />
	<path style="fill:none;stroke:red;stroke-width:1px;stroke-linecap:butt;stroke-linejoin:miter;stroke-opacity:1" d="M 337.58,62.2673 350.69,54.9838 z" id="boundary" inkscape:connector-curvature="0" />
	<path style="fill:none;stroke:red;stroke-width:1px;stroke-linecap:butt;stroke-linejoin:miter;stroke-opacity:1" d="M 350.69,54.9838 362.344,43.3304 z" id="boundary" inkscape:connector-curvature="0" />
	<path style="fill:none;stroke:red;stroke-width:1px;stroke-linecap:butt;stroke-linejoin:miter;stroke-opacity:1" d="M 325.927,72.464 311.36,79.7474 z" id="boundary" inkscape:connector-curvature="0" />
	<path style="fill:none;stroke:red;stroke-width:1px;stroke-linecap:butt;stroke-linejoin:miter;stroke-opacity:1" d="M 435.178,18.5668 422.068,11.2834 z" id="boundary" inkscape:connector-curvature="0" />
	<path style="fill:none;stroke:red;stroke-width:1px;stroke-linecap:butt;stroke-linejoin:miter;stroke-opacity:1" d="M 449.744,22.9369 435.178,18.5668 z" id="boundary" inkscape:connector-curvature="0" />
	<path style="fill:none;stroke:red;stroke-width:1px;stroke-linecap:butt;stroke-linejoin:miter;stroke-opacity:1" d="M 449.744,22.9369 459.941,34.5903 z" id="boundary" inkscape:connector-curvature="0" />
	<path style="fill:none;stroke:red;stroke-width:1px;stroke-linecap:butt;stroke-linejoin:miter;stroke-opacity:1" d="M 471.595,44.7871 459.941,34.5903 z" id="boundary" inkscape:connector-curvature="0" />
	<path style="fill:none;stroke:red;stroke-width:1px;stroke-linecap:butt;stroke-linejoin:miter;stroke-opacity:1" d="M 471.595,44.7871 483.248,54.9838 z" id="boundary" inkscape:connector-curvature="0" />
	<path style="fill:none;stroke:red;stroke-width:1px;stroke-linecap:butt;stroke-linejoin:miter;stroke-opacity:1" d="M 496.358,62.2673 483.248,54.9838 z" id="boundary" inkscape:connector-curvature="0" />
	<path style="fill:none;stroke:red;stroke-width:1px;stroke-linecap:butt;stroke-linejoin:miter;stroke-opacity:1" d="M 496.358,62.2673 509.468,69.5507 z" id="boundary" inkscape:connector-curvature="0" />
	<path style="fill:none;stroke:red;stroke-width:1px;stroke-linecap:butt;stroke-linejoin:miter;stroke-opacity:1" d="M 522.579,76.8341 509.468,69.5507 z" id="boundary" inkscape:connector-curvature="0" />
	<path style="fill:none;stroke:red;stroke-width:1px;stroke-linecap:butt;stroke-linejoin:miter;stroke-opacity:1" d="M 286.596,98.6843 296.793,87.0308 z" id="boundary" inkscape:connector-curvature="0" />
	<path style="fill:none;stroke:red;stroke-width:1px;stroke-linecap:butt;stroke-linejoin:miter;stroke-opacity:1" d="M 296.793,87.0308 311.36,79.7474 z" id="boundary" inkscape:connector-curvature="0" />
	<path style="fill:none;stroke:red;stroke-width:1px;stroke-linecap:butt;stroke-linejoin:miter;stroke-opacity:1" d="M 535.689,84.1175 522.579,76.8341 z" id="boundary" inkscape:connector-curvature="0" />
	<path style="fill:none;stroke:red;stroke-width:1px;stroke-linecap:butt;stroke-linejoin:miter;stroke-opacity:1" d="M 263.289,120.535 248.722,127.818 z" id="boundary" inkscape:connector-curvature="0" />
	<path style="fill:none;stroke:red;stroke-width:1px;stroke-linecap:butt;stroke-linejoin:miter;stroke-opacity:1" d="M 274.943,108.881 263.289,120.535 z" id="boundary" inkscape:connector-curvature="0" />
	<path style="fill:none;stroke:red;stroke-width:1px;stroke-linecap:butt;stroke-linejoin:miter;stroke-opacity:1" d="M 274.943,108.881 286.596,98.6843 z" id="boundary" inkscape:connector-curvature="0" />
	<path style="fill:none;stroke:red;stroke-width:1px;stroke-linecap:butt;stroke-linejoin:miter;stroke-opacity:1" d="M 548.799,91.4009 561.909,98.6843 z" id="boundary" inkscape:connector-curvature="0" />
	<path style="fill:none;stroke:red;stroke-width:1px;stroke-linecap:butt;stroke-linejoin:miter;stroke-opacity:1" d="M 561.909,98.6843 572.106,110.338 z" id="boundary" inkscape:connector-curvature="0" />
	<path style="fill:none;stroke:red;stroke-width:1px;stroke-linecap:butt;stroke-linejoin:miter;stroke-opacity:1" d="M 572.106,110.338 586.673,116.164 z" id="boundary" inkscape:connector-curvature="0" />
	<path style="fill:none;stroke:red;stroke-width:1px;stroke-linecap:butt;stroke-linejoin:miter;stroke-opacity:1" d="M 599.783,123.448 586.673,116.164 z" id="boundary" inkscape:connector-curvature="0" />
	<path style="fill:none;stroke:red;stroke-width:1px;stroke-linecap:butt;stroke-linejoin:miter;stroke-opacity:1" d="M 535.689,84.1175 548.799,91.4009 z" id="boundary" inkscape:connector-curvature="0" />
	<path style="fill:none;stroke:red;stroke-width:1px;stroke-linecap:butt;stroke-linejoin:miter;stroke-opacity:1" d="M 599.783,123.448 609.979,135.101 z" id="boundary" inkscape:connector-curvature="0" />
	<path style="fill:none;stroke:red;stroke-width:1px;stroke-linecap:butt;stroke-linejoin:miter;stroke-opacity:1" d="M 623.09,142.385 609.979,135.101 z" id="boundary" inkscape:connector-curvature="0" />
	<path style="fill:none;stroke:red;stroke-width:1px;stroke-linecap:butt;stroke-linejoin:miter;stroke-opacity:1" d="M 623.09,142.385 634.743,151.125 z" id="boundary" inkscape:connector-curvature="0" />
	<path style="fill:none;stroke:red;stroke-width:1px;stroke-linecap:butt;stroke-linejoin:miter;stroke-opacity:1" d="M 634.743,151.125 646.396,161.322 z" id="boundary" inkscape:connector-curvature="0" />
	<path style="fill:none;stroke:red;stroke-width:1px;stroke-linecap:butt;stroke-linejoin:miter;stroke-opacity:1" d="M 646.396,161.322 659.507,168.605 z" id="boundary" inkscape:connector-curvature="0" />
	<path style="fill:none;stroke:red;stroke-width:1px;stroke-linecap:butt;stroke-linejoin:miter;stroke-opacity:1" d="M 659.507,168.605 674.073,174.432 z" id="boundary" inkscape:connector-curvature="0" />
	<path style="fill:none;stroke:red;stroke-width:1px;stroke-linecap:butt;stroke-linejoin:miter;stroke-opacity:1" d="M 687.184,181.715 674.073,174.432 z" id="boundary" inkscape:connector-curvature="0" />
	<path style="fill:none;stroke:red;stroke-width:1px;stroke-linecap:butt;stroke-linejoin:miter;stroke-opacity:1" d="M 687.184,181.715 697.38,193.369 z" id="boundary" inkscape:connector-curvature="0" />
	<path style="fill:none;stroke:red;stroke-width:1px;stroke-linecap:butt;stroke-linejoin:miter;stroke-opacity:1" d="M 697.38,193.369 711.947,197.739 z" id="boundary" inkscape:connector-curvature="0" />
	<path style="fill:none;stroke:red;stroke-width:1px;stroke-linecap:butt;stroke-linejoin:miter;stroke-opacity:1" d="M 711.947,197.739 725.057,205.022 z" id="boundary" inkscape:connector-curvature="0" />
	<path style="fill:none;stroke:red;stroke-width:1px;stroke-linecap:butt;stroke-linejoin:miter;stroke-opacity:1" d="M 725.057,205.022 736.711,215.219 z" id="boundary" inkscape:connector-curvature="0" />
	<path style="fill:none;stroke:red;stroke-width:1px;stroke-linecap:butt;stroke-linejoin:miter;stroke-opacity:1" d="M 749.821,222.502 736.711,215.219 z" id="boundary" inkscape:connector-curvature="0" />
	<path style="fill:none;stroke:red;stroke-width:1px;stroke-linecap:butt;stroke-linejoin:miter;stroke-opacity:1" d="M 761.474,232.699 770.214,244.352 z" id="boundary" inkscape:connector-curvature="0" />
	<path style="fill:none;stroke:red;stroke-width:1px;stroke-linecap:butt;stroke-linejoin:miter;stroke-opacity:1" d="M 770.214,244.352 781.868,253.093 z" id="boundary" inkscape:connector-curvature="0" />
	<path style="fill:none;stroke:red;stroke-width:1px;stroke-linecap:butt;stroke-linejoin:miter;stroke-opacity:1" d="M 792.065,264.746 799.348,277.856 z" id="boundary" inkscape:connector-curvature="0" />
	<path style="fill:none;stroke:red;stroke-width:1px;stroke-linecap:butt;stroke-linejoin:miter;stroke-opacity:1" d="M 781.868,253.093 792.065,264.746 z" id="boundary" inkscape:connector-curvature="0" />
	<path style="fill:none;stroke:red;stroke-width:1px;stroke-linecap:butt;stroke-linejoin:miter;stroke-opacity:1" d="M 809.545,289.51 799.348,277.856 z" id="boundary" inkscape:connector-curvature="0" />
	<path style="fill:none;stroke:red;stroke-width:1px;stroke-linecap:butt;stroke-linejoin:miter;stroke-opacity:1" d="M 809.545,289.51 813.915,304.076 z" id="boundary" inkscape:connector-curvature="0" />
	<path style="fill:none;stroke:red;stroke-width:1px;stroke-linecap:butt;stroke-linejoin:miter;stroke-opacity:1" d="M 749.821,222.502 761.474,232.699 z" id="boundary" inkscape:connector-curvature="0" />
	<path style="fill:none;stroke:red;stroke-width:1px;stroke-linecap:butt;stroke-linejoin:miter;stroke-opacity:1" d="M 813.915,304.076 813.915,318.643 z" id="boundary" inkscape:connector-curvature="0" />
	<path style="fill:none;stroke:red;stroke-width:1px;stroke-linecap:butt;stroke-linejoin:miter;stroke-opacity:1" d="M 719.231,500.728 730.884,490.532 z" id="boundary" inkscape:connector-curvature="0" />
	<path style="fill:none;stroke:red;stroke-width:1px;stroke-linecap:butt;stroke-linejoin:miter;stroke-opacity:1" d="M 711.947,515.295 719.231,500.728 z" id="boundary" inkscape:connector-curvature="0" />
	<path style="fill:none;stroke:red;stroke-width:1px;stroke-linecap:butt;stroke-linejoin:miter;stroke-opacity:1" d="M 741.081,471.595 730.884,490.532 z" id="boundary" inkscape:connector-curvature="0" />
	<path style="fill:none;stroke:red;stroke-width:1px;stroke-linecap:butt;stroke-linejoin:miter;stroke-opacity:1" d="M 741.081,471.595 752.734,461.398 z" id="boundary" inkscape:connector-curvature="0" />
	<path style="fill:none;stroke:red;stroke-width:1px;stroke-linecap:butt;stroke-linejoin:miter;stroke-opacity:1" d="M 760.018,446.831 752.734,461.398 z" id="boundary" inkscape:connector-curvature="0" />
	<path style="fill:none;stroke:red;stroke-width:1px;stroke-linecap:butt;stroke-linejoin:miter;stroke-opacity:1" d="M 690.097,558.996 701.75,548.799 z" id="boundary" inkscape:connector-curvature="0" />
	<path style="fill:none;stroke:red;stroke-width:1px;stroke-linecap:butt;stroke-linejoin:miter;stroke-opacity:1" d="M 679.9,570.649 690.097,558.996 z" id="boundary" inkscape:connector-curvature="0" />
	<path style="fill:none;stroke:red;stroke-width:1px;stroke-linecap:butt;stroke-linejoin:miter;stroke-opacity:1" d="M 709.034,534.232 701.75,548.799 z" id="boundary" inkscape:connector-curvature="0" />
	<path style="fill:none;stroke:red;stroke-width:1px;stroke-linecap:butt;stroke-linejoin:miter;stroke-opacity:1" d="M 709.034,534.232 711.947,515.295 z" id="boundary" inkscape:connector-curvature="0" />
	<path style="fill:none;stroke:red;stroke-width:1px;stroke-linecap:butt;stroke-linejoin:miter;stroke-opacity:1" d="M 799.348,369.627 806.631,355.06 z" id="boundary" inkscape:connector-curvature="0" />
	<path style="fill:none;stroke:red;stroke-width:1px;stroke-linecap:butt;stroke-linejoin:miter;stroke-opacity:1" d="M 813.915,318.643 813.915,333.21 z" id="boundary" inkscape:connector-curvature="0" />
	<path style="fill:none;stroke:red;stroke-width:1px;stroke-linecap:butt;stroke-linejoin:miter;stroke-opacity:1" d="M 813.915,333.21 806.631,355.06 z" id="boundary" inkscape:connector-curvature="0" />
	<path style="fill:none;stroke:red;stroke-width:1px;stroke-linecap:butt;stroke-linejoin:miter;stroke-opacity:1" d="M 799.348,369.627 792.065,384.194 z" id="boundary" inkscape:connector-curvature="0" />
	<path style="fill:none;stroke:red;stroke-width:1px;stroke-linecap:butt;stroke-linejoin:miter;stroke-opacity:1" d="M 760.018,446.831 767.301,432.264 z" id="boundary" inkscape:connector-curvature="0" />
	<path style="fill:none;stroke:red;stroke-width:1px;stroke-linecap:butt;stroke-linejoin:miter;stroke-opacity:1" d="M 792.065,384.194 789.151,403.131 z" id="boundary" inkscape:connector-curvature="0" />
	<path style="fill:none;stroke:red;stroke-width:1px;stroke-linecap:butt;stroke-linejoin:miter;stroke-opacity:1" d="M 789.151,403.131 777.498,413.327 z" id="boundary" inkscape:connector-curvature="0" />
	<path style="fill:none;stroke:red;stroke-width:1px;stroke-linecap:butt;stroke-linejoin:miter;stroke-opacity:1" d="M 767.301,432.264 777.498,413.327 z" id="boundary" inkscape:connector-curvature="0" />
	<path style="fill:none;stroke:red;stroke-width:1px;stroke-linecap:butt;stroke-linejoin:miter;stroke-opacity:1" d="M 251.636,655.137 266.203,660.963 z" id="boundary" inkscape:connector-curvature="0" />
	<path style="fill:none;stroke:red;stroke-width:1px;stroke-linecap:butt;stroke-linejoin:miter;stroke-opacity:1" d="M 266.203,660.963 274.943,672.617 z" id="boundary" inkscape:connector-curvature="0" />
	<path style="fill:none;stroke:red;stroke-width:1px;stroke-linecap:butt;stroke-linejoin:miter;stroke-opacity:1" d="M 251.636,655.137 239.982,646.396 z" id="boundary" inkscape:connector-curvature="0" />
	<path style="fill:none;stroke:red;stroke-width:1px;stroke-linecap:butt;stroke-linejoin:miter;stroke-opacity:1" d="M 280.769,687.184 274.943,672.617 z" id="boundary" inkscape:connector-curvature="0" />
	<path style="fill:none;stroke:red;stroke-width:1px;stroke-linecap:butt;stroke-linejoin:miter;stroke-opacity:1" d="M 273.486,714.86 280.769,701.75 z" id="boundary" inkscape:connector-curvature="0" />
	<path style="fill:none;stroke:red;stroke-width:1px;stroke-linecap:butt;stroke-linejoin:miter;stroke-opacity:1" d="M 280.769,727.971 273.486,714.86 z" id="boundary" inkscape:connector-curvature="0" />
	<path style="fill:none;stroke:red;stroke-width:1px;stroke-linecap:butt;stroke-linejoin:miter;stroke-opacity:1" d="M 280.769,687.184 280.769,701.75 z" id="boundary" inkscape:connector-curvature="0" />
	<path style="fill:none;stroke:red;stroke-width:1px;stroke-linecap:butt;stroke-linejoin:miter;stroke-opacity:1" d="M 290.966,739.624 280.769,727.971 z" id="boundary" inkscape:connector-curvature="0" />
	<path style="fill:none;stroke:red;stroke-width:1px;stroke-linecap:butt;stroke-linejoin:miter;stroke-opacity:1" d="M 305.533,745.451 290.966,739.624 z" id="boundary" inkscape:connector-curvature="0" />
	<path style="fill:none;stroke:red;stroke-width:1px;stroke-linecap:butt;stroke-linejoin:miter;stroke-opacity:1" d="M 305.533,745.451 320.1,748.364 z" id="boundary" inkscape:connector-curvature="0" />
	<path style="fill:none;stroke:red;stroke-width:1px;stroke-linecap:butt;stroke-linejoin:miter;stroke-opacity:1" d="M 334.667,752.734 349.233,755.648 z" id="boundary" inkscape:connector-curvature="0" />
	<path style="fill:none;stroke:red;stroke-width:1px;stroke-linecap:butt;stroke-linejoin:miter;stroke-opacity:1" d="M 334.667,752.734 320.1,748.364 z" id="boundary" inkscape:connector-curvature="0" />
	<path style="fill:none;stroke:red;stroke-width:1px;stroke-linecap:butt;stroke-linejoin:miter;stroke-opacity:1" d="M 346.32,816.828 353.604,794.978 z" id="boundary" inkscape:connector-curvature="0" />
	<path style="fill:none;stroke:red;stroke-width:1px;stroke-linecap:butt;stroke-linejoin:miter;stroke-opacity:1" d="M 360.887,778.954 353.604,794.978 z" id="boundary" inkscape:connector-curvature="0" />
	<path style="fill:none;stroke:red;stroke-width:1px;stroke-linecap:butt;stroke-linejoin:miter;stroke-opacity:1" d="M 360.887,778.954 360.887,764.388 z" id="boundary" inkscape:connector-curvature="0" />
	<path style="fill:none;stroke:red;stroke-width:1px;stroke-linecap:butt;stroke-linejoin:miter;stroke-opacity:1" d="M 349.233,755.648 360.887,764.388 z" id="boundary" inkscape:connector-curvature="0" />
	<path style="fill:none;stroke:red;stroke-width:1px;stroke-linecap:butt;stroke-linejoin:miter;stroke-opacity:1" d="M 339.037,831.395 346.32,816.828 z" id="boundary" inkscape:connector-curvature="0" />
	<path style="fill:none;stroke:red;stroke-width:1px;stroke-linecap:butt;stroke-linejoin:miter;stroke-opacity:1" d="M 253.093,899.859 267.659,895.489 z" id="boundary" inkscape:connector-curvature="0" />
	<path style="fill:none;stroke:red;stroke-width:1px;stroke-linecap:butt;stroke-linejoin:miter;stroke-opacity:1" d="M 267.659,895.489 282.226,888.206 z" id="boundary" inkscape:connector-curvature="0" />
	<path style="fill:none;stroke:red;stroke-width:1px;stroke-linecap:butt;stroke-linejoin:miter;stroke-opacity:1" d="M 293.88,878.009 282.226,888.206 z" id="boundary" inkscape:connector-curvature="0" />
	<path style="fill:none;stroke:red;stroke-width:1px;stroke-linecap:butt;stroke-linejoin:miter;stroke-opacity:1" d="M 293.88,945.016 279.313,949.386 z" id="boundary" inkscape:connector-curvature="0" />
	<path style="fill:none;stroke:red;stroke-width:1px;stroke-linecap:butt;stroke-linejoin:miter;stroke-opacity:1" d="M 250.179,952.3 235.612,956.67 z" id="boundary" inkscape:connector-curvature="0" />
	<path style="fill:none;stroke:red;stroke-width:1px;stroke-linecap:butt;stroke-linejoin:miter;stroke-opacity:1" d="M 264.746,952.3 250.179,952.3 z" id="boundary" inkscape:connector-curvature="0" />
	<path style="fill:none;stroke:red;stroke-width:1px;stroke-linecap:butt;stroke-linejoin:miter;stroke-opacity:1" d="M 264.746,952.3 279.313,949.386 z" id="boundary" inkscape:connector-curvature="0" />
	<path style="fill:none;stroke:red;stroke-width:1px;stroke-linecap:butt;stroke-linejoin:miter;stroke-opacity:1" d="M 239.982,907.142 253.093,899.859 z" id="boundary" inkscape:connector-curvature="0" />
	<path style="fill:none;stroke:red;stroke-width:1px;stroke-linecap:butt;stroke-linejoin:miter;stroke-opacity:1" d="M 306.99,870.725 318.643,859.072 z" id="boundary" inkscape:connector-curvature="0" />
	<path style="fill:none;stroke:red;stroke-width:1px;stroke-linecap:butt;stroke-linejoin:miter;stroke-opacity:1" d="M 306.99,870.725 293.88,878.009 z" id="boundary" inkscape:connector-curvature="0" />
	<path style="fill:none;stroke:red;stroke-width:1px;stroke-linecap:butt;stroke-linejoin:miter;stroke-opacity:1" d="M 318.643,859.072 330.297,848.875 z" id="boundary" inkscape:connector-curvature="0" />
	<path style="fill:none;stroke:red;stroke-width:1px;stroke-linecap:butt;stroke-linejoin:miter;stroke-opacity:1" d="M 339.037,831.395 330.297,848.875 z" id="boundary" inkscape:connector-curvature="0" />
	<path style="fill:none;stroke:red;stroke-width:1px;stroke-linecap:butt;stroke-linejoin:miter;stroke-opacity:1" d="M 362.344,915.883 347.777,923.166 z" id="boundary" inkscape:connector-curvature="0" />
	<path style="fill:none;stroke:red;stroke-width:1px;stroke-linecap:butt;stroke-linejoin:miter;stroke-opacity:1" d="M 293.88,945.016 308.446,945.016 z" id="boundary" inkscape:connector-curvature="0" />
	<path style="fill:none;stroke:red;stroke-width:1px;stroke-linecap:butt;stroke-linejoin:miter;stroke-opacity:1" d="M 321.557,937.733 308.446,945.016 z" id="boundary" inkscape:connector-curvature="0" />
	<path style="fill:none;stroke:red;stroke-width:1px;stroke-linecap:butt;stroke-linejoin:miter;stroke-opacity:1" d="M 321.557,937.733 334.667,930.449 z" id="boundary" inkscape:connector-curvature="0" />
	<path style="fill:none;stroke:red;stroke-width:1px;stroke-linecap:butt;stroke-linejoin:miter;stroke-opacity:1" d="M 334.667,930.449 347.777,923.166 z" id="boundary" inkscape:connector-curvature="0" />
	<path style="fill:none;stroke:red;stroke-width:1px;stroke-linecap:butt;stroke-linejoin:miter;stroke-opacity:1" d="M 558.996,675.53 566.279,688.64 z" id="boundary" inkscape:connector-curvature="0" />
	<path style="fill:none;stroke:red;stroke-width:1px;stroke-linecap:butt;stroke-linejoin:miter;stroke-opacity:1" d="M 566.279,688.64 566.279,703.207 z" id="boundary" inkscape:connector-curvature="0" />
	<path style="fill:none;stroke:red;stroke-width:1px;stroke-linecap:butt;stroke-linejoin:miter;stroke-opacity:1" d="M 558.996,675.53 573.562,668.247 z" id="boundary" inkscape:connector-curvature="0" />
	<path style="fill:none;stroke:red;stroke-width:1px;stroke-linecap:butt;stroke-linejoin:miter;stroke-opacity:1" d="M 573.562,668.247 588.129,660.963 z" id="boundary" inkscape:connector-curvature="0" />
	<path style="fill:none;stroke:red;stroke-width:1px;stroke-linecap:butt;stroke-linejoin:miter;stroke-opacity:1" d="M 599.783,650.767 588.129,660.963 z" id="boundary" inkscape:connector-curvature="0" />
	<path style="fill:none;stroke:red;stroke-width:1px;stroke-linecap:butt;stroke-linejoin:miter;stroke-opacity:1" d="M 566.279,703.207 573.562,716.317 z" id="boundary" inkscape:connector-curvature="0" />
	<path style="fill:none;stroke:red;stroke-width:1px;stroke-linecap:butt;stroke-linejoin:miter;stroke-opacity:1" d="M 573.562,716.317 561.909,739.624 z" id="boundary" inkscape:connector-curvature="0" />
	<path style="fill:none;stroke:red;stroke-width:1px;stroke-linecap:butt;stroke-linejoin:miter;stroke-opacity:1" d="M 519.665,748.364 505.098,748.364 z" id="boundary" inkscape:connector-curvature="0" />
	<path style="fill:none;stroke:red;stroke-width:1px;stroke-linecap:butt;stroke-linejoin:miter;stroke-opacity:1" d="M 505.098,748.364 490.532,752.734 z" id="boundary" inkscape:connector-curvature="0" />
	<path style="fill:none;stroke:red;stroke-width:1px;stroke-linecap:butt;stroke-linejoin:miter;stroke-opacity:1" d="M 646.396,609.979 658.05,599.783 z" id="boundary" inkscape:connector-curvature="0" />
	<path style="fill:none;stroke:red;stroke-width:1px;stroke-linecap:butt;stroke-linejoin:miter;stroke-opacity:1" d="M 636.2,621.633 646.396,609.979 z" id="boundary" inkscape:connector-curvature="0" />
	<path style="fill:none;stroke:red;stroke-width:1px;stroke-linecap:butt;stroke-linejoin:miter;stroke-opacity:1" d="M 668.247,580.846 658.05,599.783 z" id="boundary" inkscape:connector-curvature="0" />
	<path style="fill:none;stroke:red;stroke-width:1px;stroke-linecap:butt;stroke-linejoin:miter;stroke-opacity:1" d="M 668.247,580.846 679.9,570.649 z" id="boundary" inkscape:connector-curvature="0" />
	<path style="fill:none;stroke:red;stroke-width:1px;stroke-linecap:butt;stroke-linejoin:miter;stroke-opacity:1" d="M 599.783,650.767 614.349,643.483 z" id="boundary" inkscape:connector-curvature="0" />
	<path style="fill:none;stroke:red;stroke-width:1px;stroke-linecap:butt;stroke-linejoin:miter;stroke-opacity:1" d="M 624.546,631.83 614.349,643.483 z" id="boundary" inkscape:connector-curvature="0" />
	<path style="fill:none;stroke:red;stroke-width:1px;stroke-linecap:butt;stroke-linejoin:miter;stroke-opacity:1" d="M 624.546,631.83 636.2,621.633 z" id="boundary" inkscape:connector-curvature="0" />
	<path style="fill:none;stroke:red;stroke-width:1px;stroke-linecap:butt;stroke-linejoin:miter;stroke-opacity:1" d="M 410.414,876.552 420.611,857.615 z" id="boundary" inkscape:connector-curvature="0" />
	<path style="fill:none;stroke:red;stroke-width:1px;stroke-linecap:butt;stroke-linejoin:miter;stroke-opacity:1" d="M 420.611,857.615 432.264,847.419 z" id="boundary" inkscape:connector-curvature="0" />
	<path style="fill:none;stroke:red;stroke-width:1px;stroke-linecap:butt;stroke-linejoin:miter;stroke-opacity:1" d="M 410.414,876.552 398.761,886.749 z" id="boundary" inkscape:connector-curvature="0" />
	<path style="fill:none;stroke:red;stroke-width:1px;stroke-linecap:butt;stroke-linejoin:miter;stroke-opacity:1" d="M 432.264,847.419 439.548,832.852 z" id="boundary" inkscape:connector-curvature="0" />
	<path style="fill:none;stroke:red;stroke-width:1px;stroke-linecap:butt;stroke-linejoin:miter;stroke-opacity:1" d="M 439.548,832.852 449.744,821.198 z" id="boundary" inkscape:connector-curvature="0" />
	<path style="fill:none;stroke:red;stroke-width:1px;stroke-linecap:butt;stroke-linejoin:miter;stroke-opacity:1" d="M 362.344,915.883 376.91,908.599 z" id="boundary" inkscape:connector-curvature="0" />
	<path style="fill:none;stroke:red;stroke-width:1px;stroke-linecap:butt;stroke-linejoin:miter;stroke-opacity:1" d="M 388.564,898.402 398.761,886.749 z" id="boundary" inkscape:connector-curvature="0" />
	<path style="fill:none;stroke:red;stroke-width:1px;stroke-linecap:butt;stroke-linejoin:miter;stroke-opacity:1" d="M 388.564,898.402 376.91,908.599 z" id="boundary" inkscape:connector-curvature="0" />
	<path style="fill:none;stroke:red;stroke-width:1px;stroke-linecap:butt;stroke-linejoin:miter;stroke-opacity:1" d="M 548.799,748.364 561.909,739.624 z" id="boundary" inkscape:connector-curvature="0" />
	<path style="fill:none;stroke:red;stroke-width:1px;stroke-linecap:butt;stroke-linejoin:miter;stroke-opacity:1" d="M 519.665,748.364 534.232,748.364 z" id="boundary" inkscape:connector-curvature="0" />
	<path style="fill:none;stroke:red;stroke-width:1px;stroke-linecap:butt;stroke-linejoin:miter;stroke-opacity:1" d="M 548.799,748.364 534.232,748.364 z" id="boundary" inkscape:connector-curvature="0" />
	<path style="fill:none;stroke:red;stroke-width:1px;stroke-linecap:butt;stroke-linejoin:miter;stroke-opacity:1" d="M 449.744,806.631 449.744,821.198 z" id="boundary" inkscape:connector-curvature="0" />
	<path style="fill:none;stroke:red;stroke-width:1px;stroke-linecap:butt;stroke-linejoin:miter;stroke-opacity:1" d="M 449.744,806.631 457.028,784.781 z" id="boundary" inkscape:connector-curvature="0" />
	<path style="fill:none;stroke:red;stroke-width:1px;stroke-linecap:butt;stroke-linejoin:miter;stroke-opacity:1" d="M 457.028,784.781 464.311,770.214 z" id="boundary" inkscape:connector-curvature="0" />
	<path style="fill:none;stroke:red;stroke-width:1px;stroke-linecap:butt;stroke-linejoin:miter;stroke-opacity:1" d="M 464.311,770.214 475.965,760.018 z" id="boundary" inkscape:connector-curvature="0" />
	<path style="fill:none;stroke:red;stroke-width:1px;stroke-linecap:butt;stroke-linejoin:miter;stroke-opacity:1" d="M 475.965,760.018 490.532,752.734 z" id="boundary" inkscape:connector-curvature="0" />
	<circle cx="4" cy="569.192" r="4" fill="#0" id="circle0"/>
	<circle cx="4" cy="583.759" r="4" fill="#0" id="circle1"/>
	<circle cx="4" cy="598.326" r="4" fill="#0" id="circle2"/>
	<circle cx="11.2834" cy="554.626" r="4" fill="#0" id="circle3"/>
	<circle cx="11.2834" cy="611.436" r="4" fill="#0" id="circle4"/>
	<circle cx="18.5668" cy="336.123" r="4" fill="#0" id="circle5"/>
	<circle cx="18.5668" cy="350.69" r="4" fill="#0" id="circle6"/>
	<circle cx="20.0235" cy="588.129" r="4" fill="#0" id="circle7"/>
	<circle cx="21.4802" cy="623.09" r="4" fill="#0" id="circle8"/>
	<circle cx="25.8502" cy="321.557" r="4" fill="#0" id="circle9"/>
	<circle cx="25.8502" cy="363.8" r="4" fill="#0" id="circle10"/>
	<circle cx="25.8502" cy="547.342" r="4" fill="#0" id="circle11"/>
	<circle cx="27.3069" cy="573.562" r="4" fill="#0" id="circle12"/>
	<circle cx="27.3069" cy="601.239" r="4" fill="#0" id="circle13"/>
	<circle cx="33.1336" cy="306.99" r="4" fill="#0" id="circle14"/>
	<circle cx="33.1336" cy="376.91" r="4" fill="#0" id="circle15"/>
	<circle cx="37.5037" cy="391.477" r="4" fill="#0" id="circle16"/>
	<circle cx="40.417" cy="542.972" r="4" fill="#0" id="circle17"/>
	<circle cx="40.417" cy="566.279" r="4" fill="#0" id="circle18"/>
	<circle cx="44.7871" cy="295.336" r="4" fill="#0" id="circle19"/>
	<circle cx="47.7004" cy="403.131" r="4" fill="#0" id="circle20"/>
	<circle cx="52.0705" cy="280.769" r="4" fill="#0" id="circle21"/>
	<circle cx="54.9838" cy="416.241" r="4" fill="#0" id="circle22"/>
	<circle cx="54.9838" cy="542.972" r="4" fill="#0" id="circle23"/>
	<circle cx="54.9838" cy="566.279" r="4" fill="#0" id="circle24"/>
	<circle cx="54.9838" cy="809.545" r="4" fill="#0" id="circle25"/>
	<circle cx="59.3539" cy="266.203" r="4" fill="#0" id="circle26"/>
	<circle cx="62.2673" cy="429.351" r="4" fill="#0" id="circle27"/>
	<circle cx="62.2673" cy="765.844" r="4" fill="#0" id="circle28"/>
	<circle cx="62.2673" cy="780.411" r="4" fill="#0" id="circle29"/>
	<circle cx="62.2673" cy="794.978" r="4" fill="#0" id="circle30"/>
	<circle cx="62.2673" cy="822.655" r="4" fill="#0" id="circle31"/>
	<circle cx="62.2673" cy="837.222" r="4" fill="#0" id="circle32"/>
	<circle cx="62.2673" cy="851.789" r="4" fill="#0" id="circle33"/>
	<circle cx="68.094" cy="573.562" r="4" fill="#0" id="circle34"/>
	<circle cx="69.5507" cy="545.885" r="4" fill="#0" id="circle35"/>
	<circle cx="69.5507" cy="743.994" r="4" fill="#0" id="circle36"/>
	<circle cx="69.5507" cy="864.899" r="4" fill="#0" id="circle37"/>
	<circle cx="71.0073" cy="254.549" r="4" fill="#0" id="circle38"/>
	<circle cx="72.464" cy="441.004" r="4" fill="#0" id="circle39"/>
	<circle cx="76.8341" cy="729.427" r="4" fill="#0" id="circle40"/>
	<circle cx="78.2907" cy="876.552" r="4" fill="#0" id="circle41"/>
	<circle cx="79.7474" cy="454.115" r="4" fill="#0" id="circle42"/>
	<circle cx="81.2041" cy="580.846" r="4" fill="#0" id="circle43"/>
	<circle cx="82.6608" cy="244.352" r="4" fill="#0" id="circle44"/>
	<circle cx="82.6608" cy="553.169" r="4" fill="#0" id="circle45"/>
	<circle cx="84.1175" cy="707.577" r="4" fill="#0" id="circle46"/>
	<circle cx="85.5742" cy="468.681" r="4" fill="#0" id="circle47"/>
	<circle cx="85.5742" cy="889.662" r="4" fill="#0" id="circle48"/>
	<circle cx="91.4009" cy="685.727" r="4" fill="#0" id="circle49"/>
	<circle cx="92.8576" cy="232.699" r="4" fill="#0" id="circle50"/>
	<circle cx="92.8576" cy="481.791" r="4" fill="#0" id="circle51"/>
	<circle cx="92.8576" cy="591.043" r="4" fill="#0" id="circle52"/>
	<circle cx="92.8576" cy="770.214" r="4" fill="#0" id="circle53"/>
	<circle cx="92.8576" cy="784.781" r="4" fill="#0" id="circle54"/>
	<circle cx="92.8576" cy="799.348" r="4" fill="#0" id="circle55"/>
	<circle cx="95.7709" cy="901.316" r="4" fill="#0" id="circle56"/>
	<circle cx="97.2276" cy="558.996" r="4" fill="#0" id="circle57"/>
	<circle cx="98.6843" cy="605.609" r="4" fill="#0" id="circle58"/>
	<circle cx="98.6843" cy="663.877" r="4" fill="#0" id="circle59"/>
	<circle cx="100.141" cy="748.364" r="4" fill="#0" id="circle60"/>
	<circle cx="100.141" cy="812.458" r="4" fill="#0" id="circle61"/>
	<circle cx="100.141" cy="827.025" r="4" fill="#0" id="circle62"/>
	<circle cx="100.141" cy="841.592" r="4" fill="#0" id="circle63"/>
	<circle cx="103.054" cy="493.445" r="4" fill="#0" id="circle64"/>
	<circle cx="104.511" cy="222.502" r="4" fill="#0" id="circle65"/>
	<circle cx="105.968" cy="618.72" r="4" fill="#0" id="circle66"/>
	<circle cx="105.968" cy="633.286" r="4" fill="#0" id="circle67"/>
	<circle cx="105.968" cy="647.853" r="4" fill="#0" id="circle68"/>
	<circle cx="107.424" cy="570.649" r="4" fill="#0" id="circle69"/>
	<circle cx="107.424" cy="726.514" r="4" fill="#0" id="circle70"/>
	<circle cx="107.424" cy="854.702" r="4" fill="#0" id="circle71"/>
	<circle cx="110.338" cy="907.142" r="4" fill="#0" id="circle72"/>
	<circle cx="113.251" cy="505.098" r="4" fill="#0" id="circle73"/>
	<circle cx="114.708" cy="210.849" r="4" fill="#0" id="circle74"/>
	<circle cx="114.708" cy="583.759" r="4" fill="#0" id="circle75"/>
	<circle cx="114.708" cy="704.664" r="4" fill="#0" id="circle76"/>
	<circle cx="119.078" cy="864.899" r="4" fill="#0" id="circle77"/>
	<circle cx="120.535" cy="518.209" r="4" fill="#0" id="circle78"/>
	<circle cx="120.535" cy="918.796" r="4" fill="#0" id="circle79"/>
	<circle cx="120.535" cy="977.063" r="4" fill="#0" id="circle80"/>
	<circle cx="120.535" cy="991.63" r="4" fill="#0" id="circle81"/>
	<circle cx="121.991" cy="596.869" r="4" fill="#0" id="circle82"/>
	<circle cx="121.991" cy="682.814" r="4" fill="#0" id="circle83"/>
	<circle cx="126.361" cy="200.652" r="4" fill="#0" id="circle84"/>
	<circle cx="126.361" cy="611.436" r="4" fill="#0" id="circle85"/>
	<circle cx="127.818" cy="531.319" r="4" fill="#0" id="circle86"/>
	<circle cx="129.275" cy="626.003" r="4" fill="#0" id="circle87"/>
	<circle cx="129.275" cy="640.57" r="4" fill="#0" id="circle88"/>
	<circle cx="129.275" cy="655.137" r="4" fill="#0" id="circle89"/>
	<circle cx="129.275" cy="669.703" r="4" fill="#0" id="circle90"/>
	<circle cx="129.275" cy="876.552" r="4" fill="#0" id="circle91"/>
	<circle cx="132.188" cy="928.993" r="4" fill="#0" id="circle92"/>
	<circle cx="135.101" cy="544.429" r="4" fill="#0" id="circle93"/>
	<circle cx="135.101" cy="969.78" r="4" fill="#0" id="circle94"/>
	<circle cx="135.101" cy="996" r="4" fill="#0" id="circle95"/>
	<circle cx="139.471" cy="193.369" r="4" fill="#0" id="circle96"/>
	<circle cx="140.928" cy="886.749" r="4" fill="#0" id="circle97"/>
	<circle cx="143.841" cy="556.082" r="4" fill="#0" id="circle98"/>
	<circle cx="145.298" cy="936.276" r="4" fill="#0" id="circle99"/>
	<circle cx="146.755" cy="958.126" r="4" fill="#0" id="circle100"/>
	<circle cx="149.668" cy="991.63" r="4" fill="#0" id="circle101"/>
	<circle cx="154.038" cy="186.085" r="4" fill="#0" id="circle102"/>
	<circle cx="154.038" cy="894.032" r="4" fill="#0" id="circle103"/>
	<circle cx="155.495" cy="566.279" r="4" fill="#0" id="circle104"/>
	<circle cx="164.235" cy="577.932" r="4" fill="#0" id="circle105"/>
	<circle cx="164.235" cy="984.347" r="4" fill="#0" id="circle106"/>
	<circle cx="168.605" cy="178.802" r="4" fill="#0" id="circle107"/>
	<circle cx="168.605" cy="899.859" r="4" fill="#0" id="circle108"/>
	<circle cx="171.518" cy="591.043" r="4" fill="#0" id="circle109"/>
	<circle cx="178.802" cy="604.153" r="4" fill="#0" id="circle110"/>
	<circle cx="178.802" cy="977.063" r="4" fill="#0" id="circle111"/>
	<circle cx="181.715" cy="907.142" r="4" fill="#0" id="circle112"/>
	<circle cx="183.172" cy="171.518" r="4" fill="#0" id="circle113"/>
	<circle cx="193.369" cy="609.979" r="4" fill="#0" id="circle114"/>
	<circle cx="193.369" cy="969.78" r="4" fill="#0" id="circle115"/>
	<circle cx="196.282" cy="907.142" r="4" fill="#0" id="circle116"/>
	<circle cx="197.739" cy="164.235" r="4" fill="#0" id="circle117"/>
	<circle cx="202.109" cy="621.633" r="4" fill="#0" id="circle118"/>
	<circle cx="207.935" cy="966.866" r="4" fill="#0" id="circle119"/>
	<circle cx="210.849" cy="156.952" r="4" fill="#0" id="circle120"/>
	<circle cx="210.849" cy="907.142" r="4" fill="#0" id="circle121"/>
	<circle cx="213.762" cy="631.83" r="4" fill="#0" id="circle122"/>
	<circle cx="221.046" cy="959.583" r="4" fill="#0" id="circle123"/>
	<circle cx="223.959" cy="149.668" r="4" fill="#0" id="circle124"/>
	<circle cx="225.416" cy="907.142" r="4" fill="#0" id="circle125"/>
	<circle cx="226.872" cy="639.113" r="4" fill="#0" id="circle126"/>
	<circle cx="235.612" cy="956.67" r="4" fill="#0" id="circle127"/>
	<circle cx="237.069" cy="139.471" r="4" fill="#0" id="circle128"/>
	<circle cx="239.982" cy="646.396" r="4" fill="#0" id="circle129"/>
	<circle cx="239.982" cy="907.142" r="4" fill="#0" id="circle130"/>
	<circle cx="248.722" cy="127.818" r="4" fill="#0" id="circle131"/>
	<circle cx="250.179" cy="952.3" r="4" fill="#0" id="circle132"/>
	<circle cx="251.636" cy="655.137" r="4" fill="#0" id="circle133"/>
	<circle cx="253.093" cy="899.859" r="4" fill="#0" id="circle134"/>
	<circle cx="263.289" cy="120.535" r="4" fill="#0" id="circle135"/>
	<circle cx="264.746" cy="952.3" r="4" fill="#0" id="circle136"/>
	<circle cx="266.203" cy="660.963" r="4" fill="#0" id="circle137"/>
	<circle cx="267.659" cy="895.489" r="4" fill="#0" id="circle138"/>
	<circle cx="273.486" cy="714.86" r="4" fill="#0" id="circle139"/>
	<circle cx="274.943" cy="108.881" r="4" fill="#0" id="circle140"/>
	<circle cx="274.943" cy="672.617" r="4" fill="#0" id="circle141"/>
	<circle cx="279.313" cy="949.386" r="4" fill="#0" id="circle142"/>
	<circle cx="280.769" cy="687.184" r="4" fill="#0" id="circle143"/>
	<circle cx="280.769" cy="701.75" r="4" fill="#0" id="circle144"/>
	<circle cx="280.769" cy="727.971" r="4" fill="#0" id="circle145"/>
	<circle cx="282.226" cy="888.206" r="4" fill="#0" id="circle146"/>
	<circle cx="286.596" cy="98.6843" r="4" fill="#0" id="circle147"/>
	<circle cx="290.966" cy="739.624" r="4" fill="#0" id="circle148"/>
	<circle cx="293.88" cy="878.009" r="4" fill="#0" id="circle149"/>
	<circle cx="293.88" cy="945.016" r="4" fill="#0" id="circle150"/>
	<circle cx="296.793" cy="87.0308" r="4" fill="#0" id="circle151"/>
	<circle cx="305.533" cy="745.451" r="4" fill="#0" id="circle152"/>
	<circle cx="306.99" cy="870.725" r="4" fill="#0" id="circle153"/>
	<circle cx="308.446" cy="945.016" r="4" fill="#0" id="circle154"/>
	<circle cx="311.36" cy="79.7474" r="4" fill="#0" id="circle155"/>
	<circle cx="318.643" cy="859.072" r="4" fill="#0" id="circle156"/>
	<circle cx="320.1" cy="748.364" r="4" fill="#0" id="circle157"/>
	<circle cx="321.557" cy="937.733" r="4" fill="#0" id="circle158"/>
	<circle cx="325.927" cy="72.464" r="4" fill="#0" id="circle159"/>
	<circle cx="330.297" cy="848.875" r="4" fill="#0" id="circle160"/>
	<circle cx="334.667" cy="752.734" r="4" fill="#0" id="circle161"/>
	<circle cx="334.667" cy="930.449" r="4" fill="#0" id="circle162"/>
	<circle cx="337.58" cy="62.2673" r="4" fill="#0" id="circle163"/>
	<circle cx="339.037" cy="831.395" r="4" fill="#0" id="circle164"/>
	<circle cx="346.32" cy="816.828" r="4" fill="#0" id="circle165"/>
	<circle cx="347.777" cy="923.166" r="4" fill="#0" id="circle166"/>
	<circle cx="349.233" cy="755.648" r="4" fill="#0" id="circle167"/>
	<circle cx="350.69" cy="54.9838" r="4" fill="#0" id="circle168"/>
	<circle cx="353.604" cy="794.978" r="4" fill="#0" id="circle169"/>
	<circle cx="360.887" cy="764.388" r="4" fill="#0" id="circle170"/>
	<circle cx="360.887" cy="778.954" r="4" fill="#0" id="circle171"/>
	<circle cx="362.344" cy="43.3304" r="4" fill="#0" id="circle172"/>
	<circle cx="362.344" cy="915.883" r="4" fill="#0" id="circle173"/>
	<circle cx="376.91" cy="36.047" r="4" fill="#0" id="circle174"/>
	<circle cx="376.91" cy="908.599" r="4" fill="#0" id="circle175"/>
	<circle cx="388.564" cy="25.8502" r="4" fill="#0" id="circle176"/>
	<circle cx="388.564" cy="898.402" r="4" fill="#0" id="circle177"/>
	<circle cx="394.391" cy="11.2834" r="4" fill="#0" id="circle178"/>
	<circle cx="398.761" cy="886.749" r="4" fill="#0" id="circle179"/>
	<circle cx="408.957" cy="4" r="4" fill="#0" id="circle180"/>
	<circle cx="410.414" cy="876.552" r="4" fill="#0" id="circle181"/>
	<circle cx="420.611" cy="857.615" r="4" fill="#0" id="circle182"/>
	<circle cx="422.068" cy="11.2834" r="4" fill="#0" id="circle183"/>
	<circle cx="432.264" cy="847.419" r="4" fill="#0" id="circle184"/>
	<circle cx="435.178" cy="18.5668" r="4" fill="#0" id="circle185"/>
	<circle cx="439.548" cy="832.852" r="4" fill="#0" id="circle186"/>
	<circle cx="449.744" cy="22.9369" r="4" fill="#0" id="circle187"/>
	<circle cx="449.744" cy="806.631" r="4" fill="#0" id="circle188"/>
	<circle cx="449.744" cy="821.198" r="4" fill="#0" id="circle189"/>
	<circle cx="457.028" cy="784.781" r="4" fill="#0" id="circle190"/>
	<circle cx="459.941" cy="34.5903" r="4" fill="#0" id="circle191"/>
	<circle cx="464.311" cy="770.214" r="4" fill="#0" id="circle192"/>
	<circle cx="471.595" cy="44.7871" r="4" fill="#0" id="circle193"/>
	<circle cx="475.965" cy="760.018" r="4" fill="#0" id="circle194"/>
	<circle cx="483.248" cy="54.9838" r="4" fill="#0" id="circle195"/>
	<circle cx="490.532" cy="752.734" r="4" fill="#0" id="circle196"/>
	<circle cx="496.358" cy="62.2673" r="4" fill="#0" id="circle197"/>
	<circle cx="505.098" cy="748.364" r="4" fill="#0" id="circle198"/>
	<circle cx="509.468" cy="69.5507" r="4" fill="#0" id="circle199"/>
	<circle cx="519.665" cy="748.364" r="4" fill="#0" id="circle200"/>
	<circle cx="522.579" cy="76.8341" r="4" fill="#0" id="circle201"/>
	<circle cx="534.232" cy="748.364" r="4" fill="#0" id="circle202"/>
	<circle cx="535.689" cy="84.1175" r="4" fill="#0" id="circle203"/>
	<circle cx="548.799" cy="91.4009" r="4" fill="#0" id="circle204"/>
	<circle cx="548.799" cy="748.364" r="4" fill="#0" id="circle205"/>
	<circle cx="558.996" cy="675.53" r="4" fill="#0" id="circle206"/>
	<circle cx="561.909" cy="98.6843" r="4" fill="#0" id="circle207"/>
	<circle cx="561.909" cy="739.624" r="4" fill="#0" id="circle208"/>
	<circle cx="566.279" cy="688.64" r="4" fill="#0" id="circle209"/>
	<circle cx="566.279" cy="703.207" r="4" fill="#0" id="circle210"/>
	<circle cx="572.106" cy="110.338" r="4" fill="#0" id="circle211"/>
	<circle cx="573.562" cy="668.247" r="4" fill="#0" id="circle212"/>
	<circle cx="573.562" cy="716.317" r="4" fill="#0" id="circle213"/>
	<circle cx="586.673" cy="116.164" r="4" fill="#0" id="circle214"/>
	<circle cx="588.129" cy="660.963" r="4" fill="#0" id="circle215"/>
	<circle cx="599.783" cy="123.448" r="4" fill="#0" id="circle216"/>
	<circle cx="599.783" cy="650.767" r="4" fill="#0" id="circle217"/>
	<circle cx="609.979" cy="135.101" r="4" fill="#0" id="circle218"/>
	<circle cx="614.349" cy="643.483" r="4" fill="#0" id="circle219"/>
	<circle cx="623.09" cy="142.385" r="4" fill="#0" id="circle220"/>
	<circle cx="624.546" cy="631.83" r="4" fill="#0" id="circle221"/>
	<circle cx="634.743" cy="151.125" r="4" fill="#0" id="circle222"/>
	<circle cx="636.2" cy="621.633" r="4" fill="#0" id="circle223"/>
	<circle cx="646.396" cy="161.322" r="4" fill="#0" id="circle224"/>
	<circle cx="646.396" cy="609.979" r="4" fill="#0" id="circle225"/>
	<circle cx="658.05" cy="599.783" r="4" fill="#0" id="circle226"/>
	<circle cx="659.507" cy="168.605" r="4" fill="#0" id="circle227"/>
	<circle cx="668.247" cy="580.846" r="4" fill="#0" id="circle228"/>
	<circle cx="674.073" cy="174.432" r="4" fill="#0" id="circle229"/>
	<circle cx="679.9" cy="570.649" r="4" fill="#0" id="circle230"/>
	<circle cx="687.184" cy="181.715" r="4" fill="#0" id="circle231"/>
	<circle cx="690.097" cy="558.996" r="4" fill="#0" id="circle232"/>
	<circle cx="697.38" cy="193.369" r="4" fill="#0" id="circle233"/>
	<circle cx="701.75" cy="548.799" r="4" fill="#0" id="circle234"/>
	<circle cx="709.034" cy="534.232" r="4" fill="#0" id="circle235"/>
	<circle cx="711.947" cy="197.739" r="4" fill="#0" id="circle236"/>
	<circle cx="711.947" cy="515.295" r="4" fill="#0" id="circle237"/>
	<circle cx="719.231" cy="500.728" r="4" fill="#0" id="circle238"/>
	<circle cx="725.057" cy="205.022" r="4" fill="#0" id="circle239"/>
	<circle cx="730.884" cy="490.532" r="4" fill="#0" id="circle240"/>
	<circle cx="736.711" cy="215.219" r="4" fill="#0" id="circle241"/>
	<circle cx="741.081" cy="471.595" r="4" fill="#0" id="circle242"/>
	<circle cx="749.821" cy="222.502" r="4" fill="#0" id="circle243"/>
	<circle cx="752.734" cy="461.398" r="4" fill="#0" id="circle244"/>
	<circle cx="760.018" cy="446.831" r="4" fill="#0" id="circle245"/>
	<circle cx="761.474" cy="232.699" r="4" fill="#0" id="circle246"/>
	<circle cx="767.301" cy="432.264" r="4" fill="#0" id="circle247"/>
	<circle cx="770.214" cy="244.352" r="4" fill="#0" id="circle248"/>
	<circle cx="777.498" cy="413.327" r="4" fill="#0" id="circle249"/>
	<circle cx="781.868" cy="253.093" r="4" fill="#0" id="circle250"/>
	<circle cx="789.151" cy="403.131" r="4" fill="#0" id="circle251"/>
	<circle cx="792.065" cy="264.746" r="4" fill="#0" id="circle252"/>
	<circle cx="792.065" cy="384.194" r="4" fill="#0" id="circle253"/>
	<circle cx="799.348" cy="277.856" r="4" fill="#0" id="circle254"/>
	<circle cx="799.348" cy="369.627" r="4" fill="#0" id="circle255"/>
	<circle cx="806.631" cy="355.06" r="4" fill="#0" id="circle256"/>
	<circle cx="809.545" cy="289.51" r="4" fill="#0" id="circle257"/>
	<circle cx="813.915" cy="304.076" r="4" fill="#0" id="circle258"/>
	<circle cx="813.915" cy="318.643" r="4" fill="#0" id="circle259"/>
	<circle cx="813.915" cy="333.21" r="4" fill="#0" id="circle260"/>
	</g>
</svg>