<?xml version="1.0" encoding="UTF-8" standalone="no"?>
<!-- Created with CurveBenchmark -->
<svg
	xmlns:dc="http://purl.org/dc/elements/1.1/"
	xmlns:cc="http://creativecommons.org/ns#"
	xmlns:rdf="http://www.w3.org/1999/02/22-rdf-syntax-ns#"
	xmlns:svg="http://www.w3.org/2000/svg"
	xmlns="http://www.w3.org/2000/svg"
	xmlns:sodipodi="http://sodipodi.sourceforge.net/DTD/sodipodi-0.dtd"
	xmlns:inkscape="http://www.inkscape.org/namespaces/inkscape"
	width="1000"
	height="1000"
	id="svg2"
	version="1.1"
	sodipodi:docname="manifold/gathan1-hammer050.png.txt">
<defs
	id="defs4" />
<metadata
	id="metadata7">
	<rdf:RDF>
		<cc:Work
			rdf:about="">
			<dc:format>image/svg+xml</dc:format>
			<dc:type
				rdf:resource="http://purl.org/dc/dcmitype/StillImage" />
			<dc:title></dc:title>
		</cc:Work>
	</rdf:RDF>
</metadata>
<g
	inkscape:label="Layer 1"
	inkscape:groupmode="layer"
	id="layer1">
	<path style="fill:none;stroke:red;stroke-width:1px;stroke-linecap:butt;stroke-linejoin:miter;stroke-opacity:1" d="M 35.629,81.6348 50.0058,55.7565 z" id="boundary" inkscape:connector-curvature="0" />
	<path style="fill:none;stroke:red;stroke-width:1px;stroke-linecap:butt;stroke-linejoin:miter;stroke-opacity:1" d="M 21.2522,107.513 35.629,81.6348 z" id="boundary" inkscape:connector-curvature="0" />
	<path style="fill:none;stroke:red;stroke-width:1px;stroke-linecap:butt;stroke-linejoin:miter;stroke-opacity:1" d="M 50.0058,55.7565 73.0087,27.0029 z" id="boundary" inkscape:connector-curvature="0" />
	<path style="fill:none;stroke:red;stroke-width:1px;stroke-linecap:butt;stroke-linejoin:miter;stroke-opacity:1" d="M 4,170.771 9.75072,142.017 z" id="boundary" inkscape:connector-curvature="0" />
	<path style="fill:none;stroke:red;stroke-width:1px;stroke-linecap:butt;stroke-linejoin:miter;stroke-opacity:1" d="M 32.7536,179.397 4,170.771 z" id="boundary" inkscape:connector-curvature="0" />
	<path style="fill:none;stroke:red;stroke-width:1px;stroke-linecap:butt;stroke-linejoin:miter;stroke-opacity:1" d="M 61.5072,179.397 32.7536,179.397 z" id="boundary" inkscape:connector-curvature="0" />
	<path style="fill:none;stroke:red;stroke-width:1px;stroke-linecap:butt;stroke-linejoin:miter;stroke-opacity:1" d="M 9.75072,142.017 21.2522,107.513 z" id="boundary" inkscape:connector-curvature="0" />
	<path style="fill:none;stroke:red;stroke-width:1px;stroke-linecap:butt;stroke-linejoin:miter;stroke-opacity:1" d="M 61.5072,179.397 90.2609,173.646 z" id="boundary" inkscape:connector-curvature="0" />
	<path style="fill:none;stroke:red;stroke-width:1px;stroke-linecap:butt;stroke-linejoin:miter;stroke-opacity:1" d="M 73.0087,27.0029 96.0116,9.75072 z" id="boundary" inkscape:connector-curvature="0" />
	<path style="fill:none;stroke:red;stroke-width:1px;stroke-linecap:butt;stroke-linejoin:miter;stroke-opacity:1" d="M 96.0116,9.75072 124.765,4 z" id="boundary" inkscape:connector-curvature="0" />
	<path style="fill:none;stroke:red;stroke-width:1px;stroke-linecap:butt;stroke-linejoin:miter;stroke-opacity:1" d="M 119.014,165.02 124.765,193.774 z" id="boundary" inkscape:connector-curvature="0" />
	<path style="fill:none;stroke:red;stroke-width:1px;stroke-linecap:butt;stroke-linejoin:miter;stroke-opacity:1" d="M 119.014,165.02 98.887,142.017 z" id="boundary" inkscape:connector-curvature="0" />
	<path style="fill:none;stroke:red;stroke-width:1px;stroke-linecap:butt;stroke-linejoin:miter;stroke-opacity:1" d="M 130.516,222.528 124.765,193.774 z" id="boundary" inkscape:connector-curvature="0" />
	<path style="fill:none;stroke:red;stroke-width:1px;stroke-linecap:butt;stroke-linejoin:miter;stroke-opacity:1" d="M 124.765,4 153.519,4 z" id="boundary" inkscape:connector-curvature="0" />
	<path style="fill:none;stroke:red;stroke-width:1px;stroke-linecap:butt;stroke-linejoin:miter;stroke-opacity:1" d="M 133.391,251.281 136.267,280.035 z" id="boundary" inkscape:connector-curvature="0" />
	<path style="fill:none;stroke:red;stroke-width:1px;stroke-linecap:butt;stroke-linejoin:miter;stroke-opacity:1" d="M 133.391,251.281 130.516,222.528 z" id="boundary" inkscape:connector-curvature="0" />
	<path style="fill:none;stroke:red;stroke-width:1px;stroke-linecap:butt;stroke-linejoin:miter;stroke-opacity:1" d="M 136.267,280.035 136.267,308.788 z" id="boundary" inkscape:connector-curvature="0" />
	<path style="fill:none;stroke:red;stroke-width:1px;stroke-linecap:butt;stroke-linejoin:miter;stroke-opacity:1" d="M 136.267,308.788 136.267,337.542 z" id="boundary" inkscape:connector-curvature="0" />
	<path style="fill:none;stroke:red;stroke-width:1px;stroke-linecap:butt;stroke-linejoin:miter;stroke-opacity:1" d="M 136.267,366.296 136.267,337.542 z" id="boundary" inkscape:connector-curvature="0" />
	<path style="fill:none;stroke:red;stroke-width:1px;stroke-linecap:butt;stroke-linejoin:miter;stroke-opacity:1" d="M 136.267,395.049 136.267,366.296 z" id="boundary" inkscape:connector-curvature="0" />
	<path style="fill:none;stroke:red;stroke-width:1px;stroke-linecap:butt;stroke-linejoin:miter;stroke-opacity:1" d="M 107.513,538.817 107.513,567.571 z" id="boundary" inkscape:connector-curvature="0" />
	<path style="fill:none;stroke:red;stroke-width:1px;stroke-linecap:butt;stroke-linejoin:miter;stroke-opacity:1" d="M 107.513,538.817 107.513,510.064 z" id="boundary" inkscape:connector-curvature="0" />
	<path style="fill:none;stroke:red;stroke-width:1px;stroke-linecap:butt;stroke-linejoin:miter;stroke-opacity:1" d="M 107.513,596.325 107.513,625.078 z" id="boundary" inkscape:connector-curvature="0" />
	<path style="fill:none;stroke:red;stroke-width:1px;stroke-linecap:butt;stroke-linejoin:miter;stroke-opacity:1" d="M 107.513,596.325 107.513,567.571 z" id="boundary" inkscape:connector-curvature="0" />
	<path style="fill:none;stroke:red;stroke-width:1px;stroke-linecap:butt;stroke-linejoin:miter;stroke-opacity:1" d="M 107.513,625.078 107.513,653.832 z" id="boundary" inkscape:connector-curvature="0" />
	<path style="fill:none;stroke:red;stroke-width:1px;stroke-linecap:butt;stroke-linejoin:miter;stroke-opacity:1" d="M 101.762,964.371 101.762,993.125 z" id="boundary" inkscape:connector-curvature="0" />
	<path style="fill:none;stroke:red;stroke-width:1px;stroke-linecap:butt;stroke-linejoin:miter;stroke-opacity:1" d="M 130.516,996 101.762,993.125 z" id="boundary" inkscape:connector-curvature="0" />
	<path style="fill:none;stroke:red;stroke-width:1px;stroke-linecap:butt;stroke-linejoin:miter;stroke-opacity:1" d="M 107.513,682.586 107.513,711.339 z" id="boundary" inkscape:connector-curvature="0" />
	<path style="fill:none;stroke:red;stroke-width:1px;stroke-linecap:butt;stroke-linejoin:miter;stroke-opacity:1" d="M 107.513,682.586 107.513,653.832 z" id="boundary" inkscape:connector-curvature="0" />
	<path style="fill:none;stroke:red;stroke-width:1px;stroke-linecap:butt;stroke-linejoin:miter;stroke-opacity:1" d="M 107.513,711.339 107.513,740.093 z" id="boundary" inkscape:connector-curvature="0" />
	<path style="fill:none;stroke:red;stroke-width:1px;stroke-linecap:butt;stroke-linejoin:miter;stroke-opacity:1" d="M 107.513,740.093 107.513,768.846 z" id="boundary" inkscape:connector-curvature="0" />
	<path style="fill:none;stroke:red;stroke-width:1px;stroke-linecap:butt;stroke-linejoin:miter;stroke-opacity:1" d="M 107.513,768.846 107.513,797.6 z" id="boundary" inkscape:connector-curvature="0" />
	<path style="fill:none;stroke:red;stroke-width:1px;stroke-linecap:butt;stroke-linejoin:miter;stroke-opacity:1" d="M 124.765,441.055 113.264,469.809 z" id="boundary" inkscape:connector-curvature="0" />
	<path style="fill:none;stroke:red;stroke-width:1px;stroke-linecap:butt;stroke-linejoin:miter;stroke-opacity:1" d="M 136.267,395.049 124.765,441.055 z" id="boundary" inkscape:connector-curvature="0" />
	<path style="fill:none;stroke:red;stroke-width:1px;stroke-linecap:butt;stroke-linejoin:miter;stroke-opacity:1" d="M 107.513,510.064 113.264,469.809 z" id="boundary" inkscape:connector-curvature="0" />
	<path style="fill:none;stroke:red;stroke-width:1px;stroke-linecap:butt;stroke-linejoin:miter;stroke-opacity:1" d="M 107.513,797.6 107.513,826.354 z" id="boundary" inkscape:connector-curvature="0" />
	<path style="fill:none;stroke:red;stroke-width:1px;stroke-linecap:butt;stroke-linejoin:miter;stroke-opacity:1" d="M 107.513,855.107 107.513,826.354 z" id="boundary" inkscape:connector-curvature="0" />
	<path style="fill:none;stroke:red;stroke-width:1px;stroke-linecap:butt;stroke-linejoin:miter;stroke-opacity:1" d="M 107.513,883.861 107.513,855.107 z" id="boundary" inkscape:connector-curvature="0" />
	<path style="fill:none;stroke:red;stroke-width:1px;stroke-linecap:butt;stroke-linejoin:miter;stroke-opacity:1" d="M 101.762,964.371 107.513,912.614 z" id="boundary" inkscape:connector-curvature="0" />
	<path style="fill:none;stroke:red;stroke-width:1px;stroke-linecap:butt;stroke-linejoin:miter;stroke-opacity:1" d="M 107.513,912.614 107.513,883.861 z" id="boundary" inkscape:connector-curvature="0" />
	<path style="fill:none;stroke:red;stroke-width:1px;stroke-linecap:butt;stroke-linejoin:miter;stroke-opacity:1" d="M 159.27,996 130.516,996 z" id="boundary" inkscape:connector-curvature="0" />
	<path style="fill:none;stroke:red;stroke-width:1px;stroke-linecap:butt;stroke-linejoin:miter;stroke-opacity:1" d="M 225.403,165.02 213.901,211.026 z" id="boundary" inkscape:connector-curvature="0" />
	<path style="fill:none;stroke:red;stroke-width:1px;stroke-linecap:butt;stroke-linejoin:miter;stroke-opacity:1" d="M 213.901,211.026 213.901,239.78 z" id="boundary" inkscape:connector-curvature="0" />
	<path style="fill:none;stroke:red;stroke-width:1px;stroke-linecap:butt;stroke-linejoin:miter;stroke-opacity:1" d="M 213.901,268.533 213.901,239.78 z" id="boundary" inkscape:connector-curvature="0" />
	<path style="fill:none;stroke:red;stroke-width:1px;stroke-linecap:butt;stroke-linejoin:miter;stroke-opacity:1" d="M 182.272,4 211.026,4 z" id="boundary" inkscape:connector-curvature="0" />
	<path style="fill:none;stroke:red;stroke-width:1px;stroke-linecap:butt;stroke-linejoin:miter;stroke-opacity:1" d="M 213.901,268.533 208.151,297.287 z" id="boundary" inkscape:connector-curvature="0" />
	<path style="fill:none;stroke:red;stroke-width:1px;stroke-linecap:butt;stroke-linejoin:miter;stroke-opacity:1" d="M 208.151,297.287 208.151,326.041 z" id="boundary" inkscape:connector-curvature="0" />
	<path style="fill:none;stroke:red;stroke-width:1px;stroke-linecap:butt;stroke-linejoin:miter;stroke-opacity:1" d="M 211.026,383.548 213.901,412.301 z" id="boundary" inkscape:connector-curvature="0" />
	<path style="fill:none;stroke:red;stroke-width:1px;stroke-linecap:butt;stroke-linejoin:miter;stroke-opacity:1" d="M 211.026,383.548 208.151,354.794 z" id="boundary" inkscape:connector-curvature="0" />
	<path style="fill:none;stroke:red;stroke-width:1px;stroke-linecap:butt;stroke-linejoin:miter;stroke-opacity:1" d="M 208.151,354.794 208.151,326.041 z" id="boundary" inkscape:connector-curvature="0" />
	<path style="fill:none;stroke:red;stroke-width:1px;stroke-linecap:butt;stroke-linejoin:miter;stroke-opacity:1" d="M 213.901,412.301 219.652,441.055 z" id="boundary" inkscape:connector-curvature="0" />
	<path style="fill:none;stroke:red;stroke-width:1px;stroke-linecap:butt;stroke-linejoin:miter;stroke-opacity:1" d="M 239.78,12.6261 268.533,4 z" id="boundary" inkscape:connector-curvature="0" />
	<path style="fill:none;stroke:red;stroke-width:1px;stroke-linecap:butt;stroke-linejoin:miter;stroke-opacity:1" d="M 239.78,12.6261 211.026,4 z" id="boundary" inkscape:connector-curvature="0" />
	<path style="fill:none;stroke:red;stroke-width:1px;stroke-linecap:butt;stroke-linejoin:miter;stroke-opacity:1" d="M 268.533,4 297.287,4 z" id="boundary" inkscape:connector-curvature="0" />
	<path style="fill:none;stroke:red;stroke-width:1px;stroke-linecap:butt;stroke-linejoin:miter;stroke-opacity:1" d="M 297.287,4 317.414,27.0029 z" id="boundary" inkscape:connector-curvature="0" />
	<path style="fill:none;stroke:red;stroke-width:1px;stroke-linecap:butt;stroke-linejoin:miter;stroke-opacity:1" d="M 320.29,64.3826 300.162,87.3855 z" id="boundary" inkscape:connector-curvature="0" />
	<path style="fill:none;stroke:red;stroke-width:1px;stroke-linecap:butt;stroke-linejoin:miter;stroke-opacity:1" d="M 317.414,27.0029 320.29,64.3826 z" id="boundary" inkscape:connector-curvature="0" />
	<path style="fill:none;stroke:red;stroke-width:1px;stroke-linecap:butt;stroke-linejoin:miter;stroke-opacity:1" d="M 236.904,124.765 225.403,165.02 z" id="boundary" inkscape:connector-curvature="0" />
	<path style="fill:none;stroke:red;stroke-width:1px;stroke-linecap:butt;stroke-linejoin:miter;stroke-opacity:1" d="M 271.409,93.1362 242.655,84.5101 z" id="boundary" inkscape:connector-curvature="0" />
	<path style="fill:none;stroke:red;stroke-width:1px;stroke-linecap:butt;stroke-linejoin:miter;stroke-opacity:1" d="M 300.162,87.3855 271.409,93.1362 z" id="boundary" inkscape:connector-curvature="0" />
	<path style="fill:none;stroke:red;stroke-width:1px;stroke-linecap:butt;stroke-linejoin:miter;stroke-opacity:1" d="M 236.904,124.765 242.655,84.5101 z" id="boundary" inkscape:connector-curvature="0" />
	<path style="fill:none;stroke:red;stroke-width:1px;stroke-linecap:butt;stroke-linejoin:miter;stroke-opacity:1" d="M 228.278,469.809 219.652,441.055 z" id="boundary" inkscape:connector-curvature="0" />
	<path style="fill:none;stroke:red;stroke-width:1px;stroke-linecap:butt;stroke-linejoin:miter;stroke-opacity:1" d="M 236.904,498.562 236.904,527.316 z" id="boundary" inkscape:connector-curvature="0" />
	<path style="fill:none;stroke:red;stroke-width:1px;stroke-linecap:butt;stroke-linejoin:miter;stroke-opacity:1" d="M 236.904,498.562 228.278,469.809 z" id="boundary" inkscape:connector-curvature="0" />
	<path style="fill:none;stroke:red;stroke-width:1px;stroke-linecap:butt;stroke-linejoin:miter;stroke-opacity:1" d="M 236.904,527.316 236.904,556.07 z" id="boundary" inkscape:connector-curvature="0" />
	<path style="fill:none;stroke:red;stroke-width:1px;stroke-linecap:butt;stroke-linejoin:miter;stroke-opacity:1" d="M 236.904,584.823 236.904,556.07 z" id="boundary" inkscape:connector-curvature="0" />
	<path style="fill:none;stroke:red;stroke-width:1px;stroke-linecap:butt;stroke-linejoin:miter;stroke-opacity:1" d="M 236.904,584.823 236.904,613.577 z" id="boundary" inkscape:connector-curvature="0" />
	<path style="fill:none;stroke:red;stroke-width:1px;stroke-linecap:butt;stroke-linejoin:miter;stroke-opacity:1" d="M 188.023,996 159.27,996 z" id="boundary" inkscape:connector-curvature="0" />
	<path style="fill:none;stroke:red;stroke-width:1px;stroke-linecap:butt;stroke-linejoin:miter;stroke-opacity:1" d="M 216.777,996 188.023,996 z" id="boundary" inkscape:connector-curvature="0" />
	<path style="fill:none;stroke:red;stroke-width:1px;stroke-linecap:butt;stroke-linejoin:miter;stroke-opacity:1" d="M 236.904,642.33 236.904,671.084 z" id="boundary" inkscape:connector-curvature="0" />
	<path style="fill:none;stroke:red;stroke-width:1px;stroke-linecap:butt;stroke-linejoin:miter;stroke-opacity:1" d="M 236.904,642.33 236.904,613.577 z" id="boundary" inkscape:connector-curvature="0" />
	<path style="fill:none;stroke:red;stroke-width:1px;stroke-linecap:butt;stroke-linejoin:miter;stroke-opacity:1" d="M 236.904,671.084 236.904,699.838 z" id="boundary" inkscape:connector-curvature="0" />
	<path style="fill:none;stroke:red;stroke-width:1px;stroke-linecap:butt;stroke-linejoin:miter;stroke-opacity:1" d="M 236.904,699.838 236.904,728.591 z" id="boundary" inkscape:connector-curvature="0" />
	<path style="fill:none;stroke:red;stroke-width:1px;stroke-linecap:butt;stroke-linejoin:miter;stroke-opacity:1" d="M 236.904,728.591 236.904,757.345 z" id="boundary" inkscape:connector-curvature="0" />
	<path style="fill:none;stroke:red;stroke-width:1px;stroke-linecap:butt;stroke-linejoin:miter;stroke-opacity:1" d="M 236.904,786.099 236.904,814.852 z" id="boundary" inkscape:connector-curvature="0" />
	<path style="fill:none;stroke:red;stroke-width:1px;stroke-linecap:butt;stroke-linejoin:miter;stroke-opacity:1" d="M 236.904,786.099 236.904,757.345 z" id="boundary" inkscape:connector-curvature="0" />
	<path style="fill:none;stroke:red;stroke-width:1px;stroke-linecap:butt;stroke-linejoin:miter;stroke-opacity:1" d="M 236.904,814.852 236.904,843.606 z" id="boundary" inkscape:connector-curvature="0" />
	<path style="fill:none;stroke:red;stroke-width:1px;stroke-linecap:butt;stroke-linejoin:miter;stroke-opacity:1" d="M 236.904,872.359 236.904,901.113 z" id="boundary" inkscape:connector-curvature="0" />
	<path style="fill:none;stroke:red;stroke-width:1px;stroke-linecap:butt;stroke-linejoin:miter;stroke-opacity:1" d="M 236.904,872.359 236.904,843.606 z" id="boundary" inkscape:connector-curvature="0" />
	<path style="fill:none;stroke:red;stroke-width:1px;stroke-linecap:butt;stroke-linejoin:miter;stroke-opacity:1" d="M 236.904,901.113 236.904,929.867 z" id="boundary" inkscape:connector-curvature="0" />
	<path style="fill:none;stroke:red;stroke-width:1px;stroke-linecap:butt;stroke-linejoin:miter;stroke-opacity:1" d="M 242.655,958.62 245.53,987.374 z" id="boundary" inkscape:connector-curvature="0" />
	<path style="fill:none;stroke:red;stroke-width:1px;stroke-linecap:butt;stroke-linejoin:miter;stroke-opacity:1" d="M 245.53,987.374 216.777,996 z" id="boundary" inkscape:connector-curvature="0" />
	<path style="fill:none;stroke:red;stroke-width:1px;stroke-linecap:butt;stroke-linejoin:miter;stroke-opacity:1" d="M 242.655,958.62 236.904,929.867 z" id="boundary" inkscape:connector-curvature="0" />
	<path style="fill:none;stroke:red;stroke-width:1px;stroke-linecap:butt;stroke-linejoin:miter;stroke-opacity:1" d="M 153.519,4 182.272,4 z" id="boundary" inkscape:connector-curvature="0" />
	<circle cx="4" cy="170.771" r="4" fill="#0" id="circle0"/>
	<circle cx="9.75072" cy="142.017" r="4" fill="#0" id="circle1"/>
	<circle cx="21.2522" cy="107.513" r="4" fill="#0" id="circle2"/>
	<circle cx="32.7536" cy="179.397" r="4" fill="#0" id="circle3"/>
	<circle cx="35.629" cy="81.6348" r="4" fill="#0" id="circle4"/>
	<circle cx="50.0058" cy="55.7565" r="4" fill="#0" id="circle5"/>
	<circle cx="61.5072" cy="179.397" r="4" fill="#0" id="circle6"/>
	<circle cx="73.0087" cy="27.0029" r="4" fill="#0" id="circle7"/>
	<circle cx="90.2609" cy="173.646" r="4" fill="#0" id="circle8"/>
	<circle cx="96.0116" cy="9.75072" r="4" fill="#0" id="circle9"/>
	<circle cx="98.887" cy="142.017" r="4" fill="#0" id="circle10"/>
	<circle cx="101.762" cy="964.371" r="4" fill="#0" id="circle11"/>
	<circle cx="101.762" cy="993.125" r="4" fill="#0" id="circle12"/>
	<circle cx="107.513" cy="510.064" r="4" fill="#0" id="circle13"/>
	<circle cx="107.513" cy="538.817" r="4" fill="#0" id="circle14"/>
	<circle cx="107.513" cy="567.571" r="4" fill="#0" id="circle15"/>
	<circle cx="107.513" cy="596.325" r="4" fill="#0" id="circle16"/>
	<circle cx="107.513" cy="625.078" r="4" fill="#0" id="circle17"/>
	<circle cx="107.513" cy="653.832" r="4" fill="#0" id="circle18"/>
	<circle cx="107.513" cy="682.586" r="4" fill="#0" id="circle19"/>
	<circle cx="107.513" cy="711.339" r="4" fill="#0" id="circle20"/>
	<circle cx="107.513" cy="740.093" r="4" fill="#0" id="circle21"/>
	<circle cx="107.513" cy="768.846" r="4" fill="#0" id="circle22"/>
	<circle cx="107.513" cy="797.6" r="4" fill="#0" id="circle23"/>
	<circle cx="107.513" cy="826.354" r="4" fill="#0" id="circle24"/>
	<circle cx="107.513" cy="855.107" r="4" fill="#0" id="circle25"/>
	<circle cx="107.513" cy="883.861" r="4" fill="#0" id="circle26"/>
	<circle cx="107.513" cy="912.614" r="4" fill="#0" id="circle27"/>
	<circle cx="113.264" cy="469.809" r="4" fill="#0" id="circle28"/>
	<circle cx="119.014" cy="165.02" r="4" fill="#0" id="circle29"/>
	<circle cx="124.765" cy="4" r="4" fill="#0" id="circle30"/>
	<circle cx="124.765" cy="193.774" r="4" fill="#0" id="circle31"/>
	<circle cx="124.765" cy="441.055" r="4" fill="#0" id="circle32"/>
	<circle cx="130.516" cy="222.528" r="4" fill="#0" id="circle33"/>
	<circle cx="130.516" cy="996" r="4" fill="#0" id="circle34"/>
	<circle cx="133.391" cy="251.281" r="4" fill="#0" id="circle35"/>
	<circle cx="136.267" cy="280.035" r="4" fill="#0" id="circle36"/>
	<circle cx="136.267" cy="308.788" r="4" fill="#0" id="circle37"/>
	<circle cx="136.267" cy="337.542" r="4" fill="#0" id="circle38"/>
	<circle cx="136.267" cy="366.296" r="4" fill="#0" id="circle39"/>
	<circle cx="136.267" cy="395.049" r="4" fill="#0" id="circle40"/>
	<circle cx="153.519" cy="4" r="4" fill="#0" id="circle41"/>
	<circle cx="159.27" cy="996" r="4" fill="#0" id="circle42"/>
	<circle cx="182.272" cy="4" r="4" fill="#0" id="circle43"/>
	<circle cx="188.023" cy="996" r="4" fill="#0" id="circle44"/>
	<circle cx="208.151" cy="297.287" r="4" fill="#0" id="circle45"/>
	<circle cx="208.151" cy="326.041" r="4" fill="#0" id="circle46"/>
	<circle cx="208.151" cy="354.794" r="4" fill="#0" id="circle47"/>
	<circle cx="211.026" cy="4" r="4" fill="#0" id="circle48"/>
	<circle cx="211.026" cy="383.548" r="4" fill="#0" id="circle49"/>
	<circle cx="213.901" cy="211.026" r="4" fill="#0" id="circle50"/>
	<circle cx="213.901" cy="239.78" r="4" fill="#0" id="circle51"/>
	<circle cx="213.901" cy="268.533" r="4" fill="#0" id="circle52"/>
	<circle cx="213.901" cy="412.301" r="4" fill="#0" id="circle53"/>
	<circle cx="216.777" cy="996" r="4" fill="#0" id="circle54"/>
	<circle cx="219.652" cy="441.055" r="4" fill="#0" id="circle55"/>
	<circle cx="225.403" cy="165.02" r="4" fill="#0" id="circle56"/>
	<circle cx="228.278" cy="469.809" r="4" fill="#0" id="circle57"/>
	<circle cx="236.904" cy="124.765" r="4" fill="#0" id="circle58"/>
	<circle cx="236.904" cy="498.562" r="4" fill="#0" id="circle59"/>
	<circle cx="236.904" cy="527.316" r="4" fill="#0" id="circle60"/>
	<circle cx="236.904" cy="556.07" r="4" fill="#0" id="circle61"/>
	<circle cx="236.904" cy="584.823" r="4" fill="#0" id="circle62"/>
	<circle cx="236.904" cy="613.577" r="4" fill="#0" id="circle63"/>
	<circle cx="236.904" cy="642.33" r="4" fill="#0" id="circle64"/>
	<circle cx="236.904" cy="671.084" r="4" fill="#0" id="circle65"/>
	<circle cx="236.904" cy="699.838" r="4" fill="#0" id="circle66"/>
	<circle cx="236.904" cy="728.591" r="4" fill="#0" id="circle67"/>
	<circle cx="236.904" cy="757.345" r="4" fill="#0" id="circle68"/>
	<circle cx="236.904" cy="786.099" r="4" fill="#0" id="circle69"/>
	<circle cx="236.904" cy="814.852" r="4" fill="#0" id="circle70"/>
	<circle cx="236.904" cy="843.606" r="4" fill="#0" id="circle71"/>
	<circle cx="236.904" cy="872.359" r="4" fill="#0" id="circle72"/>
	<circle cx="236.904" cy="901.113" r="4" fill="#0" id="circle73"/>
	<circle cx="236.904" cy="929.867" r="4" fill="#0" id="circle74"/>
	<circle cx="239.78" cy="12.6261" r="4" fill="#0" id="circle75"/>
	<circle cx="242.655" cy="84.5101" r="4" fill="#0" id="circle76"/>
	<circle cx="242.655" cy="958.62" r="4" fill="#0" id="circle77"/>
	<circle cx="245.53" cy="987.374" r="4" fill="#0" id="circle78"/>
	<circle cx="268.533" cy="4" r="4" fill="#0" id="circle79"/>
	<circle cx="271.409" cy="93.1362" r="4" fill="#0" id="circle80"/>
	<circle cx="297.287" cy="4" r="4" fill="#0" id="circle81"/>
	<circle cx="300.162" cy="87.3855" r="4" fill="#0" id="circle82"/>
	<circle cx="317.414" cy="27.0029" r="4" fill="#0" id="circle83"/>
	<circle cx="320.29" cy="64.3826" r="4" fill="#0" id="circle84"/>
	</g>
</svg>