<?xml version="1.0" encoding="UTF-8" standalone="no"?>
<!-- Created with CurveBenchmark -->
<svg
	xmlns:dc="http://purl.org/dc/elements/1.1/"
	xmlns:cc="http://creativecommons.org/ns#"
	xmlns:rdf="http://www.w3.org/1999/02/22-rdf-syntax-ns#"
	xmlns:svg="http://www.w3.org/2000/svg"
	xmlns="http://www.w3.org/2000/svg"
	xmlns:sodipodi="http://sodipodi.sourceforge.net/DTD/sodipodi-0.dtd"
	xmlns:inkscape="http://www.inkscape.org/namespaces/inkscape"
	width="1000"
	height="1000"
	id="svg2"
	version="1.1"
	sodipodi:docname="manifold/gathang-bed255.png.txt">
<defs
	id="defs4" />
<metadata
	id="metadata7">
	<rdf:RDF>
		<cc:Work
			rdf:about="">
			<dc:format>image/svg+xml</dc:format>
			<dc:type
				rdf:resource="http://purl.org/dc/dcmitype/StillImage" />
			<dc:title></dc:title>
		</cc:Work>
	</rdf:RDF>
</metadata>
<g
	inkscape:label="Layer 1"
	inkscape:groupmode="layer"
	id="layer1">
	<path style="fill:none;stroke:red;stroke-width:1px;stroke-linecap:butt;stroke-linejoin:miter;stroke-opacity:1" d="M 83.9159,250.697 90.8651,233.324 z" id="boundary" inkscape:connector-curvature="0" />
	<path style="fill:none;stroke:red;stroke-width:1px;stroke-linecap:butt;stroke-linejoin:miter;stroke-opacity:1" d="M 90.8651,233.324 108.238,238.536 z" id="boundary" inkscape:connector-curvature="0" />
	<path style="fill:none;stroke:red;stroke-width:1px;stroke-linecap:butt;stroke-linejoin:miter;stroke-opacity:1" d="M 83.9159,250.697 73.4921,264.595 z" id="boundary" inkscape:connector-curvature="0" />
	<path style="fill:none;stroke:red;stroke-width:1px;stroke-linecap:butt;stroke-linejoin:miter;stroke-opacity:1" d="M 73.4921,264.595 59.5937,281.968 z" id="boundary" inkscape:connector-curvature="0" />
	<path style="fill:none;stroke:red;stroke-width:1px;stroke-linecap:butt;stroke-linejoin:miter;stroke-opacity:1" d="M 59.5937,281.968 42.2207,285.443 z" id="boundary" inkscape:connector-curvature="0" />
	<path style="fill:none;stroke:red;stroke-width:1px;stroke-linecap:butt;stroke-linejoin:miter;stroke-opacity:1" d="M 28.3222,299.342 42.2207,285.443 z" id="boundary" inkscape:connector-curvature="0" />
	<path style="fill:none;stroke:red;stroke-width:1px;stroke-linecap:butt;stroke-linejoin:miter;stroke-opacity:1" d="M 108.238,238.536 116.925,254.172 z" id="boundary" inkscape:connector-curvature="0" />
	<path style="fill:none;stroke:red;stroke-width:1px;stroke-linecap:butt;stroke-linejoin:miter;stroke-opacity:1" d="M 125.611,269.807 116.925,254.172 z" id="boundary" inkscape:connector-curvature="0" />
	<path style="fill:none;stroke:red;stroke-width:1px;stroke-linecap:butt;stroke-linejoin:miter;stroke-opacity:1" d="M 141.247,278.494 125.611,269.807 z" id="boundary" inkscape:connector-curvature="0" />
	<path style="fill:none;stroke:red;stroke-width:1px;stroke-linecap:butt;stroke-linejoin:miter;stroke-opacity:1" d="M 141.247,278.494 158.62,285.443 z" id="boundary" inkscape:connector-curvature="0" />
	<path style="fill:none;stroke:red;stroke-width:1px;stroke-linecap:butt;stroke-linejoin:miter;stroke-opacity:1" d="M 158.62,285.443 172.518,295.867 z" id="boundary" inkscape:connector-curvature="0" />
	<path style="fill:none;stroke:red;stroke-width:1px;stroke-linecap:butt;stroke-linejoin:miter;stroke-opacity:1" d="M 186.417,306.291 172.518,295.867 z" id="boundary" inkscape:connector-curvature="0" />
	<path style="fill:none;stroke:red;stroke-width:1px;stroke-linecap:butt;stroke-linejoin:miter;stroke-opacity:1" d="M 5.7373,358.41 4,341.037 z" id="boundary" inkscape:connector-curvature="0" />
	<path style="fill:none;stroke:red;stroke-width:1px;stroke-linecap:butt;stroke-linejoin:miter;stroke-opacity:1" d="M 5.7373,358.41 10.9492,375.783 z" id="boundary" inkscape:connector-curvature="0" />
	<path style="fill:none;stroke:red;stroke-width:1px;stroke-linecap:butt;stroke-linejoin:miter;stroke-opacity:1" d="M 10.9492,375.783 10.9492,393.156 z" id="boundary" inkscape:connector-curvature="0" />
	<path style="fill:none;stroke:red;stroke-width:1px;stroke-linecap:butt;stroke-linejoin:miter;stroke-opacity:1" d="M 10.9492,393.156 10.9492,410.529 z" id="boundary" inkscape:connector-curvature="0" />
	<path style="fill:none;stroke:red;stroke-width:1px;stroke-linecap:butt;stroke-linejoin:miter;stroke-opacity:1" d="M 4,341.037 4,323.664 z" id="boundary" inkscape:connector-curvature="0" />
	<path style="fill:none;stroke:red;stroke-width:1px;stroke-linecap:butt;stroke-linejoin:miter;stroke-opacity:1" d="M 4,323.664 14.4238,309.765 z" id="boundary" inkscape:connector-curvature="0" />
	<path style="fill:none;stroke:red;stroke-width:1px;stroke-linecap:butt;stroke-linejoin:miter;stroke-opacity:1" d="M 28.3222,299.342 14.4238,309.765 z" id="boundary" inkscape:connector-curvature="0" />
	<path style="fill:none;stroke:red;stroke-width:1px;stroke-linecap:butt;stroke-linejoin:miter;stroke-opacity:1" d="M 10.9492,410.529 10.9492,427.902 z" id="boundary" inkscape:connector-curvature="0" />
	<path style="fill:none;stroke:red;stroke-width:1px;stroke-linecap:butt;stroke-linejoin:miter;stroke-opacity:1" d="M 10.9492,455.699 10.9492,427.902 z" id="boundary" inkscape:connector-curvature="0" />
	<path style="fill:none;stroke:red;stroke-width:1px;stroke-linecap:butt;stroke-linejoin:miter;stroke-opacity:1" d="M 252.434,316.715 269.807,313.24 z" id="boundary" inkscape:connector-curvature="0" />
	<path style="fill:none;stroke:red;stroke-width:1px;stroke-linecap:butt;stroke-linejoin:miter;stroke-opacity:1" d="M 287.18,313.24 269.807,313.24 z" id="boundary" inkscape:connector-curvature="0" />
	<path style="fill:none;stroke:red;stroke-width:1px;stroke-linecap:butt;stroke-linejoin:miter;stroke-opacity:1" d="M 287.18,313.24 304.553,313.24 z" id="boundary" inkscape:connector-curvature="0" />
	<path style="fill:none;stroke:red;stroke-width:1px;stroke-linecap:butt;stroke-linejoin:miter;stroke-opacity:1" d="M 321.926,313.24 304.553,313.24 z" id="boundary" inkscape:connector-curvature="0" />
	<path style="fill:none;stroke:red;stroke-width:1px;stroke-linecap:butt;stroke-linejoin:miter;stroke-opacity:1" d="M 339.299,313.24 321.926,313.24 z" id="boundary" inkscape:connector-curvature="0" />
	<path style="fill:none;stroke:red;stroke-width:1px;stroke-linecap:butt;stroke-linejoin:miter;stroke-opacity:1" d="M 374.046,313.24 356.673,313.24 z" id="boundary" inkscape:connector-curvature="0" />
	<path style="fill:none;stroke:red;stroke-width:1px;stroke-linecap:butt;stroke-linejoin:miter;stroke-opacity:1" d="M 356.673,313.24 339.299,313.24 z" id="boundary" inkscape:connector-curvature="0" />
	<path style="fill:none;stroke:red;stroke-width:1px;stroke-linecap:butt;stroke-linejoin:miter;stroke-opacity:1" d="M 575.573,464.385 558.2,464.385 z" id="boundary" inkscape:connector-curvature="0" />
	<path style="fill:none;stroke:red;stroke-width:1px;stroke-linecap:butt;stroke-linejoin:miter;stroke-opacity:1" d="M 443.538,313.24 426.165,313.24 z" id="boundary" inkscape:connector-curvature="0" />
	<path style="fill:none;stroke:red;stroke-width:1px;stroke-linecap:butt;stroke-linejoin:miter;stroke-opacity:1" d="M 391.419,313.24 374.046,313.24 z" id="boundary" inkscape:connector-curvature="0" />
	<path style="fill:none;stroke:red;stroke-width:1px;stroke-linecap:butt;stroke-linejoin:miter;stroke-opacity:1" d="M 408.792,313.24 391.419,313.24 z" id="boundary" inkscape:connector-curvature="0" />
	<path style="fill:none;stroke:red;stroke-width:1px;stroke-linecap:butt;stroke-linejoin:miter;stroke-opacity:1" d="M 563.412,295.867 547.776,309.765 z" id="boundary" inkscape:connector-curvature="0" />
	<path style="fill:none;stroke:red;stroke-width:1px;stroke-linecap:butt;stroke-linejoin:miter;stroke-opacity:1" d="M 547.776,309.765 530.403,313.24 z" id="boundary" inkscape:connector-curvature="0" />
	<path style="fill:none;stroke:red;stroke-width:1px;stroke-linecap:butt;stroke-linejoin:miter;stroke-opacity:1" d="M 217.688,316.715 200.315,316.715 z" id="boundary" inkscape:connector-curvature="0" />
	<path style="fill:none;stroke:red;stroke-width:1px;stroke-linecap:butt;stroke-linejoin:miter;stroke-opacity:1" d="M 200.315,316.715 186.417,306.291 z" id="boundary" inkscape:connector-curvature="0" />
	<path style="fill:none;stroke:red;stroke-width:1px;stroke-linecap:butt;stroke-linejoin:miter;stroke-opacity:1" d="M 235.061,316.715 217.688,316.715 z" id="boundary" inkscape:connector-curvature="0" />
	<path style="fill:none;stroke:red;stroke-width:1px;stroke-linecap:butt;stroke-linejoin:miter;stroke-opacity:1" d="M 252.434,316.715 235.061,316.715 z" id="boundary" inkscape:connector-curvature="0" />
	<path style="fill:none;stroke:red;stroke-width:1px;stroke-linecap:butt;stroke-linejoin:miter;stroke-opacity:1" d="M 408.792,313.24 426.165,313.24 z" id="boundary" inkscape:connector-curvature="0" />
	<path style="fill:none;stroke:red;stroke-width:1px;stroke-linecap:butt;stroke-linejoin:miter;stroke-opacity:1" d="M 478.284,313.24 460.911,313.24 z" id="boundary" inkscape:connector-curvature="0" />
	<path style="fill:none;stroke:red;stroke-width:1px;stroke-linecap:butt;stroke-linejoin:miter;stroke-opacity:1" d="M 495.657,313.24 478.284,313.24 z" id="boundary" inkscape:connector-curvature="0" />
	<path style="fill:none;stroke:red;stroke-width:1px;stroke-linecap:butt;stroke-linejoin:miter;stroke-opacity:1" d="M 443.538,313.24 460.911,313.24 z" id="boundary" inkscape:connector-curvature="0" />
	<path style="fill:none;stroke:red;stroke-width:1px;stroke-linecap:butt;stroke-linejoin:miter;stroke-opacity:1" d="M 577.31,278.494 563.412,295.867 z" id="boundary" inkscape:connector-curvature="0" />
	<path style="fill:none;stroke:red;stroke-width:1px;stroke-linecap:butt;stroke-linejoin:miter;stroke-opacity:1" d="M 530.403,313.24 513.03,313.24 z" id="boundary" inkscape:connector-curvature="0" />
	<path style="fill:none;stroke:red;stroke-width:1px;stroke-linecap:butt;stroke-linejoin:miter;stroke-opacity:1" d="M 495.657,313.24 513.03,313.24 z" id="boundary" inkscape:connector-curvature="0" />
	<path style="fill:none;stroke:red;stroke-width:1px;stroke-linecap:butt;stroke-linejoin:miter;stroke-opacity:1" d="M 10.9492,473.072 10.9492,455.699 z" id="boundary" inkscape:connector-curvature="0" />
	<path style="fill:none;stroke:red;stroke-width:1px;stroke-linecap:butt;stroke-linejoin:miter;stroke-opacity:1" d="M 28.3222,474.809 23.1103,493.919 z" id="boundary" inkscape:connector-curvature="0" />
	<path style="fill:none;stroke:red;stroke-width:1px;stroke-linecap:butt;stroke-linejoin:miter;stroke-opacity:1" d="M 4,490.445 10.9492,473.072 z" id="boundary" inkscape:connector-curvature="0" />
	<path style="fill:none;stroke:red;stroke-width:1px;stroke-linecap:butt;stroke-linejoin:miter;stroke-opacity:1" d="M 54.3818,473.072 70.0175,481.758 z" id="boundary" inkscape:connector-curvature="0" />
	<path style="fill:none;stroke:red;stroke-width:1px;stroke-linecap:butt;stroke-linejoin:miter;stroke-opacity:1" d="M 123.874,480.021 137.772,467.86 z" id="boundary" inkscape:connector-curvature="0" />
	<path style="fill:none;stroke:red;stroke-width:1px;stroke-linecap:butt;stroke-linejoin:miter;stroke-opacity:1" d="M 163.832,474.809 137.772,467.86 z" id="boundary" inkscape:connector-curvature="0" />
	<path style="fill:none;stroke:red;stroke-width:1px;stroke-linecap:butt;stroke-linejoin:miter;stroke-opacity:1" d="M 193.366,466.123 163.832,474.809 z" id="boundary" inkscape:connector-curvature="0" />
	<path style="fill:none;stroke:red;stroke-width:1px;stroke-linecap:butt;stroke-linejoin:miter;stroke-opacity:1" d="M 109.975,497.394 123.874,480.021 z" id="boundary" inkscape:connector-curvature="0" />
	<path style="fill:none;stroke:red;stroke-width:1px;stroke-linecap:butt;stroke-linejoin:miter;stroke-opacity:1" d="M 167.306,492.182 146.459,483.496 z" id="boundary" inkscape:connector-curvature="0" />
	<path style="fill:none;stroke:red;stroke-width:1px;stroke-linecap:butt;stroke-linejoin:miter;stroke-opacity:1" d="M 70.0175,481.758 80.4413,495.657 z" id="boundary" inkscape:connector-curvature="0" />
	<path style="fill:none;stroke:red;stroke-width:1px;stroke-linecap:butt;stroke-linejoin:miter;stroke-opacity:1" d="M 23.1103,493.919 23.1103,511.292 z" id="boundary" inkscape:connector-curvature="0" />
	<path style="fill:none;stroke:red;stroke-width:1px;stroke-linecap:butt;stroke-linejoin:miter;stroke-opacity:1" d="M 5.7373,507.818 4,490.445 z" id="boundary" inkscape:connector-curvature="0" />
	<path style="fill:none;stroke:red;stroke-width:1px;stroke-linecap:butt;stroke-linejoin:miter;stroke-opacity:1" d="M 21.373,530.403 4,532.14 z" id="boundary" inkscape:connector-curvature="0" />
	<path style="fill:none;stroke:red;stroke-width:1px;stroke-linecap:butt;stroke-linejoin:miter;stroke-opacity:1" d="M 4,532.14 5.7373,507.818 z" id="boundary" inkscape:connector-curvature="0" />
	<path style="fill:none;stroke:red;stroke-width:1px;stroke-linecap:butt;stroke-linejoin:miter;stroke-opacity:1" d="M 23.1103,511.292 21.373,530.403 z" id="boundary" inkscape:connector-curvature="0" />
	<path style="fill:none;stroke:red;stroke-width:1px;stroke-linecap:butt;stroke-linejoin:miter;stroke-opacity:1" d="M 109.975,497.394 94.3398,506.081 z" id="boundary" inkscape:connector-curvature="0" />
	<path style="fill:none;stroke:red;stroke-width:1px;stroke-linecap:butt;stroke-linejoin:miter;stroke-opacity:1" d="M 94.3398,506.081 80.4413,495.657 z" id="boundary" inkscape:connector-curvature="0" />
	<path style="fill:none;stroke:red;stroke-width:1px;stroke-linecap:butt;stroke-linejoin:miter;stroke-opacity:1" d="M 189.891,518.242 174.256,532.14 z" id="boundary" inkscape:connector-curvature="0" />
	<path style="fill:none;stroke:red;stroke-width:1px;stroke-linecap:butt;stroke-linejoin:miter;stroke-opacity:1" d="M 174.256,509.555 167.306,492.182 z" id="boundary" inkscape:connector-curvature="0" />
	<path style="fill:none;stroke:red;stroke-width:1px;stroke-linecap:butt;stroke-linejoin:miter;stroke-opacity:1" d="M 228.112,464.385 210.739,464.385 z" id="boundary" inkscape:connector-curvature="0" />
	<path style="fill:none;stroke:red;stroke-width:1px;stroke-linecap:butt;stroke-linejoin:miter;stroke-opacity:1" d="M 245.485,464.385 262.858,464.385 z" id="boundary" inkscape:connector-curvature="0" />
	<path style="fill:none;stroke:red;stroke-width:1px;stroke-linecap:butt;stroke-linejoin:miter;stroke-opacity:1" d="M 280.231,464.385 262.858,464.385 z" id="boundary" inkscape:connector-curvature="0" />
	<path style="fill:none;stroke:red;stroke-width:1px;stroke-linecap:butt;stroke-linejoin:miter;stroke-opacity:1" d="M 245.485,464.385 228.112,464.385 z" id="boundary" inkscape:connector-curvature="0" />
	<path style="fill:none;stroke:red;stroke-width:1px;stroke-linecap:butt;stroke-linejoin:miter;stroke-opacity:1" d="M 297.604,464.385 314.977,464.385 z" id="boundary" inkscape:connector-curvature="0" />
	<path style="fill:none;stroke:red;stroke-width:1px;stroke-linecap:butt;stroke-linejoin:miter;stroke-opacity:1" d="M 332.35,464.385 314.977,464.385 z" id="boundary" inkscape:connector-curvature="0" />
	<path style="fill:none;stroke:red;stroke-width:1px;stroke-linecap:butt;stroke-linejoin:miter;stroke-opacity:1" d="M 349.723,464.385 367.096,464.385 z" id="boundary" inkscape:connector-curvature="0" />
	<path style="fill:none;stroke:red;stroke-width:1px;stroke-linecap:butt;stroke-linejoin:miter;stroke-opacity:1" d="M 384.469,464.385 367.096,464.385 z" id="boundary" inkscape:connector-curvature="0" />
	<path style="fill:none;stroke:red;stroke-width:1px;stroke-linecap:butt;stroke-linejoin:miter;stroke-opacity:1" d="M 349.723,464.385 332.35,464.385 z" id="boundary" inkscape:connector-curvature="0" />
	<path style="fill:none;stroke:red;stroke-width:1px;stroke-linecap:butt;stroke-linejoin:miter;stroke-opacity:1" d="M 297.604,464.385 280.231,464.385 z" id="boundary" inkscape:connector-curvature="0" />
	<path style="fill:none;stroke:red;stroke-width:1px;stroke-linecap:butt;stroke-linejoin:miter;stroke-opacity:1" d="M 401.842,464.385 419.215,464.385 z" id="boundary" inkscape:connector-curvature="0" />
	<path style="fill:none;stroke:red;stroke-width:1px;stroke-linecap:butt;stroke-linejoin:miter;stroke-opacity:1" d="M 436.588,464.385 419.215,464.385 z" id="boundary" inkscape:connector-curvature="0" />
	<path style="fill:none;stroke:red;stroke-width:1px;stroke-linecap:butt;stroke-linejoin:miter;stroke-opacity:1" d="M 193.366,466.123 210.739,464.385 z" id="boundary" inkscape:connector-curvature="0" />
	<path style="fill:none;stroke:red;stroke-width:1px;stroke-linecap:butt;stroke-linejoin:miter;stroke-opacity:1" d="M 436.588,464.385 453.961,464.385 z" id="boundary" inkscape:connector-curvature="0" />
	<path style="fill:none;stroke:red;stroke-width:1px;stroke-linecap:butt;stroke-linejoin:miter;stroke-opacity:1" d="M 453.961,464.385 471.335,464.385 z" id="boundary" inkscape:connector-curvature="0" />
	<path style="fill:none;stroke:red;stroke-width:1px;stroke-linecap:butt;stroke-linejoin:miter;stroke-opacity:1" d="M 384.469,464.385 401.842,464.385 z" id="boundary" inkscape:connector-curvature="0" />
	<path style="fill:none;stroke:red;stroke-width:1px;stroke-linecap:butt;stroke-linejoin:miter;stroke-opacity:1" d="M 471.335,464.385 488.708,464.385 z" id="boundary" inkscape:connector-curvature="0" />
	<path style="fill:none;stroke:red;stroke-width:1px;stroke-linecap:butt;stroke-linejoin:miter;stroke-opacity:1" d="M 506.081,464.385 488.708,464.385 z" id="boundary" inkscape:connector-curvature="0" />
	<path style="fill:none;stroke:red;stroke-width:1px;stroke-linecap:butt;stroke-linejoin:miter;stroke-opacity:1" d="M 506.081,464.385 523.454,464.385 z" id="boundary" inkscape:connector-curvature="0" />
	<path style="fill:none;stroke:red;stroke-width:1px;stroke-linecap:butt;stroke-linejoin:miter;stroke-opacity:1" d="M 540.827,464.385 523.454,464.385 z" id="boundary" inkscape:connector-curvature="0" />
	<path style="fill:none;stroke:red;stroke-width:1px;stroke-linecap:butt;stroke-linejoin:miter;stroke-opacity:1" d="M 558.2,464.385 540.827,464.385 z" id="boundary" inkscape:connector-curvature="0" />
	<path style="fill:none;stroke:red;stroke-width:1px;stroke-linecap:butt;stroke-linejoin:miter;stroke-opacity:1" d="M 817.058,125.611 817.058,142.984 z" id="boundary" inkscape:connector-curvature="0" />
	<path style="fill:none;stroke:red;stroke-width:1px;stroke-linecap:butt;stroke-linejoin:miter;stroke-opacity:1" d="M 799.685,191.629 782.312,195.103 z" id="boundary" inkscape:connector-curvature="0" />
	<path style="fill:none;stroke:red;stroke-width:1px;stroke-linecap:butt;stroke-linejoin:miter;stroke-opacity:1" d="M 751.04,212.476 764.939,202.053 z" id="boundary" inkscape:connector-curvature="0" />
	<path style="fill:none;stroke:red;stroke-width:1px;stroke-linecap:butt;stroke-linejoin:miter;stroke-opacity:1" d="M 764.939,202.053 782.312,195.103 z" id="boundary" inkscape:connector-curvature="0" />
	<path style="fill:none;stroke:red;stroke-width:1px;stroke-linecap:butt;stroke-linejoin:miter;stroke-opacity:1" d="M 799.685,191.629 817.058,195.103 z" id="boundary" inkscape:connector-curvature="0" />
	<path style="fill:none;stroke:red;stroke-width:1px;stroke-linecap:butt;stroke-linejoin:miter;stroke-opacity:1" d="M 824.007,108.238 817.058,125.611 z" id="boundary" inkscape:connector-curvature="0" />
	<path style="fill:none;stroke:red;stroke-width:1px;stroke-linecap:butt;stroke-linejoin:miter;stroke-opacity:1" d="M 824.007,108.238 837.905,94.3398 z" id="boundary" inkscape:connector-curvature="0" />
	<path style="fill:none;stroke:red;stroke-width:1px;stroke-linecap:butt;stroke-linejoin:miter;stroke-opacity:1" d="M 848.329,80.4413 837.905,94.3398 z" id="boundary" inkscape:connector-curvature="0" />
	<path style="fill:none;stroke:red;stroke-width:1px;stroke-linecap:butt;stroke-linejoin:miter;stroke-opacity:1" d="M 822.27,160.357 817.058,142.984 z" id="boundary" inkscape:connector-curvature="0" />
	<path style="fill:none;stroke:red;stroke-width:1px;stroke-linecap:butt;stroke-linejoin:miter;stroke-opacity:1" d="M 824.007,177.73 817.058,195.103 z" id="boundary" inkscape:connector-curvature="0" />
	<path style="fill:none;stroke:red;stroke-width:1px;stroke-linecap:butt;stroke-linejoin:miter;stroke-opacity:1" d="M 822.27,160.357 824.007,177.73 z" id="boundary" inkscape:connector-curvature="0" />
	<path style="fill:none;stroke:red;stroke-width:1px;stroke-linecap:butt;stroke-linejoin:miter;stroke-opacity:1" d="M 735.405,222.9 751.04,212.476 z" id="boundary" inkscape:connector-curvature="0" />
	<path style="fill:none;stroke:red;stroke-width:1px;stroke-linecap:butt;stroke-linejoin:miter;stroke-opacity:1" d="M 601.632,250.697 615.531,240.273 z" id="boundary" inkscape:connector-curvature="0" />
	<path style="fill:none;stroke:red;stroke-width:1px;stroke-linecap:butt;stroke-linejoin:miter;stroke-opacity:1" d="M 587.734,264.595 601.632,250.697 z" id="boundary" inkscape:connector-curvature="0" />
	<path style="fill:none;stroke:red;stroke-width:1px;stroke-linecap:butt;stroke-linejoin:miter;stroke-opacity:1" d="M 587.734,264.595 577.31,278.494 z" id="boundary" inkscape:connector-curvature="0" />
	<path style="fill:none;stroke:red;stroke-width:1px;stroke-linecap:butt;stroke-linejoin:miter;stroke-opacity:1" d="M 631.166,231.587 648.539,226.375 z" id="boundary" inkscape:connector-curvature="0" />
	<path style="fill:none;stroke:red;stroke-width:1px;stroke-linecap:butt;stroke-linejoin:miter;stroke-opacity:1" d="M 615.531,240.273 631.166,231.587 z" id="boundary" inkscape:connector-curvature="0" />
	<path style="fill:none;stroke:red;stroke-width:1px;stroke-linecap:butt;stroke-linejoin:miter;stroke-opacity:1" d="M 665.912,219.426 683.285,215.951 z" id="boundary" inkscape:connector-curvature="0" />
	<path style="fill:none;stroke:red;stroke-width:1px;stroke-linecap:butt;stroke-linejoin:miter;stroke-opacity:1" d="M 683.285,215.951 700.658,215.951 z" id="boundary" inkscape:connector-curvature="0" />
	<path style="fill:none;stroke:red;stroke-width:1px;stroke-linecap:butt;stroke-linejoin:miter;stroke-opacity:1" d="M 700.658,215.951 718.032,219.426 z" id="boundary" inkscape:connector-curvature="0" />
	<path style="fill:none;stroke:red;stroke-width:1px;stroke-linecap:butt;stroke-linejoin:miter;stroke-opacity:1" d="M 648.539,226.375 665.912,219.426 z" id="boundary" inkscape:connector-curvature="0" />
	<path style="fill:none;stroke:red;stroke-width:1px;stroke-linecap:butt;stroke-linejoin:miter;stroke-opacity:1" d="M 735.405,222.9 718.032,219.426 z" id="boundary" inkscape:connector-curvature="0" />
	<path style="fill:none;stroke:red;stroke-width:1px;stroke-linecap:butt;stroke-linejoin:miter;stroke-opacity:1" d="M 884.813,23.1103 886.55,4 z" id="boundary" inkscape:connector-curvature="0" />
	<path style="fill:none;stroke:red;stroke-width:1px;stroke-linecap:butt;stroke-linejoin:miter;stroke-opacity:1" d="M 886.55,4 902.186,12.6865 z" id="boundary" inkscape:connector-curvature="0" />
	<path style="fill:none;stroke:red;stroke-width:1px;stroke-linecap:butt;stroke-linejoin:miter;stroke-opacity:1" d="M 884.813,23.1103 876.126,38.7461 z" id="boundary" inkscape:connector-curvature="0" />
	<path style="fill:none;stroke:red;stroke-width:1px;stroke-linecap:butt;stroke-linejoin:miter;stroke-opacity:1" d="M 862.228,70.0175 865.702,52.6445 z" id="boundary" inkscape:connector-curvature="0" />
	<path style="fill:none;stroke:red;stroke-width:1px;stroke-linecap:butt;stroke-linejoin:miter;stroke-opacity:1" d="M 862.228,70.0175 848.329,80.4413 z" id="boundary" inkscape:connector-curvature="0" />
	<path style="fill:none;stroke:red;stroke-width:1px;stroke-linecap:butt;stroke-linejoin:miter;stroke-opacity:1" d="M 876.126,38.7461 865.702,52.6445 z" id="boundary" inkscape:connector-curvature="0" />
	<path style="fill:none;stroke:red;stroke-width:1px;stroke-linecap:butt;stroke-linejoin:miter;stroke-opacity:1" d="M 912.609,26.5849 919.559,43.958 z" id="boundary" inkscape:connector-curvature="0" />
	<path style="fill:none;stroke:red;stroke-width:1px;stroke-linecap:butt;stroke-linejoin:miter;stroke-opacity:1" d="M 971.678,90.8651 957.779,78.704 z" id="boundary" inkscape:connector-curvature="0" />
	<path style="fill:none;stroke:red;stroke-width:1px;stroke-linecap:butt;stroke-linejoin:miter;stroke-opacity:1" d="M 919.559,43.958 926.508,61.331 z" id="boundary" inkscape:connector-curvature="0" />
	<path style="fill:none;stroke:red;stroke-width:1px;stroke-linecap:butt;stroke-linejoin:miter;stroke-opacity:1" d="M 926.508,61.331 942.144,70.0175 z" id="boundary" inkscape:connector-curvature="0" />
	<path style="fill:none;stroke:red;stroke-width:1px;stroke-linecap:butt;stroke-linejoin:miter;stroke-opacity:1" d="M 957.779,78.704 942.144,70.0175 z" id="boundary" inkscape:connector-curvature="0" />
	<path style="fill:none;stroke:red;stroke-width:1px;stroke-linecap:butt;stroke-linejoin:miter;stroke-opacity:1" d="M 912.609,26.5849 902.186,12.6865 z" id="boundary" inkscape:connector-curvature="0" />
	<path style="fill:none;stroke:red;stroke-width:1px;stroke-linecap:butt;stroke-linejoin:miter;stroke-opacity:1" d="M 992.525,172.518 989.051,195.103 z" id="boundary" inkscape:connector-curvature="0" />
	<path style="fill:none;stroke:red;stroke-width:1px;stroke-linecap:butt;stroke-linejoin:miter;stroke-opacity:1" d="M 989.051,195.103 989.051,212.476 z" id="boundary" inkscape:connector-curvature="0" />
	<path style="fill:none;stroke:red;stroke-width:1px;stroke-linecap:butt;stroke-linejoin:miter;stroke-opacity:1" d="M 989.051,229.849 989.051,212.476 z" id="boundary" inkscape:connector-curvature="0" />
	<path style="fill:none;stroke:red;stroke-width:1px;stroke-linecap:butt;stroke-linejoin:miter;stroke-opacity:1" d="M 971.678,90.8651 982.102,104.764 z" id="boundary" inkscape:connector-curvature="0" />
	<path style="fill:none;stroke:red;stroke-width:1px;stroke-linecap:butt;stroke-linejoin:miter;stroke-opacity:1" d="M 989.051,229.849 989.051,247.222 z" id="boundary" inkscape:connector-curvature="0" />
	<path style="fill:none;stroke:red;stroke-width:1px;stroke-linecap:butt;stroke-linejoin:miter;stroke-opacity:1" d="M 992.525,137.772 992.525,155.145 z" id="boundary" inkscape:connector-curvature="0" />
	<path style="fill:none;stroke:red;stroke-width:1px;stroke-linecap:butt;stroke-linejoin:miter;stroke-opacity:1" d="M 992.525,155.145 992.525,172.518 z" id="boundary" inkscape:connector-curvature="0" />
	<path style="fill:none;stroke:red;stroke-width:1px;stroke-linecap:butt;stroke-linejoin:miter;stroke-opacity:1" d="M 989.051,264.595 989.051,247.222 z" id="boundary" inkscape:connector-curvature="0" />
	<path style="fill:none;stroke:red;stroke-width:1px;stroke-linecap:butt;stroke-linejoin:miter;stroke-opacity:1" d="M 990.788,281.968 989.051,264.595 z" id="boundary" inkscape:connector-curvature="0" />
	<path style="fill:none;stroke:red;stroke-width:1px;stroke-linecap:butt;stroke-linejoin:miter;stroke-opacity:1" d="M 990.788,120.399 992.525,137.772 z" id="boundary" inkscape:connector-curvature="0" />
	<path style="fill:none;stroke:red;stroke-width:1px;stroke-linecap:butt;stroke-linejoin:miter;stroke-opacity:1" d="M 982.102,104.764 990.788,120.399 z" id="boundary" inkscape:connector-curvature="0" />
	<path style="fill:none;stroke:red;stroke-width:1px;stroke-linecap:butt;stroke-linejoin:miter;stroke-opacity:1" d="M 575.573,464.385 592.946,464.385 z" id="boundary" inkscape:connector-curvature="0" />
	<path style="fill:none;stroke:red;stroke-width:1px;stroke-linecap:butt;stroke-linejoin:miter;stroke-opacity:1" d="M 610.319,464.385 627.692,464.385 z" id="boundary" inkscape:connector-curvature="0" />
	<path style="fill:none;stroke:red;stroke-width:1px;stroke-linecap:butt;stroke-linejoin:miter;stroke-opacity:1" d="M 645.065,464.385 627.692,464.385 z" id="boundary" inkscape:connector-curvature="0" />
	<path style="fill:none;stroke:red;stroke-width:1px;stroke-linecap:butt;stroke-linejoin:miter;stroke-opacity:1" d="M 610.319,464.385 592.946,464.385 z" id="boundary" inkscape:connector-curvature="0" />
	<path style="fill:none;stroke:red;stroke-width:1px;stroke-linecap:butt;stroke-linejoin:miter;stroke-opacity:1" d="M 662.438,464.385 679.811,464.385 z" id="boundary" inkscape:connector-curvature="0" />
	<path style="fill:none;stroke:red;stroke-width:1px;stroke-linecap:butt;stroke-linejoin:miter;stroke-opacity:1" d="M 697.184,464.385 679.811,464.385 z" id="boundary" inkscape:connector-curvature="0" />
	<path style="fill:none;stroke:red;stroke-width:1px;stroke-linecap:butt;stroke-linejoin:miter;stroke-opacity:1" d="M 714.557,464.385 731.93,464.385 z" id="boundary" inkscape:connector-curvature="0" />
	<path style="fill:none;stroke:red;stroke-width:1px;stroke-linecap:butt;stroke-linejoin:miter;stroke-opacity:1" d="M 749.303,464.385 731.93,464.385 z" id="boundary" inkscape:connector-curvature="0" />
	<path style="fill:none;stroke:red;stroke-width:1px;stroke-linecap:butt;stroke-linejoin:miter;stroke-opacity:1" d="M 714.557,464.385 697.184,464.385 z" id="boundary" inkscape:connector-curvature="0" />
	<path style="fill:none;stroke:red;stroke-width:1px;stroke-linecap:butt;stroke-linejoin:miter;stroke-opacity:1" d="M 662.438,464.385 645.065,464.385 z" id="boundary" inkscape:connector-curvature="0" />
	<path style="fill:none;stroke:red;stroke-width:1px;stroke-linecap:butt;stroke-linejoin:miter;stroke-opacity:1" d="M 766.676,464.385 784.049,464.385 z" id="boundary" inkscape:connector-curvature="0" />
	<path style="fill:none;stroke:red;stroke-width:1px;stroke-linecap:butt;stroke-linejoin:miter;stroke-opacity:1" d="M 801.422,464.385 818.795,464.385 z" id="boundary" inkscape:connector-curvature="0" />
	<path style="fill:none;stroke:red;stroke-width:1px;stroke-linecap:butt;stroke-linejoin:miter;stroke-opacity:1" d="M 817.058,493.919 822.27,511.292 z" id="boundary" inkscape:connector-curvature="0" />
	<path style="fill:none;stroke:red;stroke-width:1px;stroke-linecap:butt;stroke-linejoin:miter;stroke-opacity:1" d="M 822.27,511.292 817.058,528.665 z" id="boundary" inkscape:connector-curvature="0" />
	<path style="fill:none;stroke:red;stroke-width:1px;stroke-linecap:butt;stroke-linejoin:miter;stroke-opacity:1" d="M 784.049,464.385 801.422,464.385 z" id="boundary" inkscape:connector-curvature="0" />
	<path style="fill:none;stroke:red;stroke-width:1px;stroke-linecap:butt;stroke-linejoin:miter;stroke-opacity:1" d="M 749.303,464.385 766.676,464.385 z" id="boundary" inkscape:connector-curvature="0" />
	<path style="fill:none;stroke:red;stroke-width:1px;stroke-linecap:butt;stroke-linejoin:miter;stroke-opacity:1" d="M 857.016,464.385 839.643,469.597 z" id="boundary" inkscape:connector-curvature="0" />
	<path style="fill:none;stroke:red;stroke-width:1px;stroke-linecap:butt;stroke-linejoin:miter;stroke-opacity:1" d="M 839.643,469.597 818.795,464.385 z" id="boundary" inkscape:connector-curvature="0" />
	<path style="fill:none;stroke:red;stroke-width:1px;stroke-linecap:butt;stroke-linejoin:miter;stroke-opacity:1" d="M 834.431,492.182 834.431,530.403 z" id="boundary" inkscape:connector-curvature="0" />
	<path style="fill:none;stroke:red;stroke-width:1px;stroke-linecap:butt;stroke-linejoin:miter;stroke-opacity:1" d="M 834.431,530.403 817.058,528.665 z" id="boundary" inkscape:connector-curvature="0" />
	<path style="fill:none;stroke:red;stroke-width:1px;stroke-linecap:butt;stroke-linejoin:miter;stroke-opacity:1" d="M 857.016,464.385 874.389,464.385 z" id="boundary" inkscape:connector-curvature="0" />
	<path style="fill:none;stroke:red;stroke-width:1px;stroke-linecap:butt;stroke-linejoin:miter;stroke-opacity:1" d="M 992.525,316.715 992.525,334.088 z" id="boundary" inkscape:connector-curvature="0" />
	<path style="fill:none;stroke:red;stroke-width:1px;stroke-linecap:butt;stroke-linejoin:miter;stroke-opacity:1" d="M 992.525,299.342 990.788,281.968 z" id="boundary" inkscape:connector-curvature="0" />
	<path style="fill:none;stroke:red;stroke-width:1px;stroke-linecap:butt;stroke-linejoin:miter;stroke-opacity:1" d="M 994.263,351.461 992.525,334.088 z" id="boundary" inkscape:connector-curvature="0" />
	<path style="fill:none;stroke:red;stroke-width:1px;stroke-linecap:butt;stroke-linejoin:miter;stroke-opacity:1" d="M 891.762,464.385 874.389,464.385 z" id="boundary" inkscape:connector-curvature="0" />
	<path style="fill:none;stroke:red;stroke-width:1px;stroke-linecap:butt;stroke-linejoin:miter;stroke-opacity:1" d="M 992.525,316.715 992.525,299.342 z" id="boundary" inkscape:connector-curvature="0" />
	<path style="fill:none;stroke:red;stroke-width:1px;stroke-linecap:butt;stroke-linejoin:miter;stroke-opacity:1" d="M 994.263,351.461 996,368.834 z" id="boundary" inkscape:connector-curvature="0" />
	<path style="fill:none;stroke:red;stroke-width:1px;stroke-linecap:butt;stroke-linejoin:miter;stroke-opacity:1" d="M 996,368.834 996,386.207 z" id="boundary" inkscape:connector-curvature="0" />
	<path style="fill:none;stroke:red;stroke-width:1px;stroke-linecap:butt;stroke-linejoin:miter;stroke-opacity:1" d="M 996,403.58 996,420.953 z" id="boundary" inkscape:connector-curvature="0" />
	<path style="fill:none;stroke:red;stroke-width:1px;stroke-linecap:butt;stroke-linejoin:miter;stroke-opacity:1" d="M 996,386.207 996,403.58 z" id="boundary" inkscape:connector-curvature="0" />
	<path style="fill:none;stroke:red;stroke-width:1px;stroke-linecap:butt;stroke-linejoin:miter;stroke-opacity:1" d="M 996,420.953 992.525,452.224 z" id="boundary" inkscape:connector-curvature="0" />
	<path style="fill:none;stroke:red;stroke-width:1px;stroke-linecap:butt;stroke-linejoin:miter;stroke-opacity:1" d="M 909.135,464.385 891.762,464.385 z" id="boundary" inkscape:connector-curvature="0" />
	<path style="fill:none;stroke:red;stroke-width:1px;stroke-linecap:butt;stroke-linejoin:miter;stroke-opacity:1" d="M 926.508,464.385 909.135,464.385 z" id="boundary" inkscape:connector-curvature="0" />
	<path style="fill:none;stroke:red;stroke-width:1px;stroke-linecap:butt;stroke-linejoin:miter;stroke-opacity:1" d="M 943.881,464.385 961.254,464.385 z" id="boundary" inkscape:connector-curvature="0" />
	<path style="fill:none;stroke:red;stroke-width:1px;stroke-linecap:butt;stroke-linejoin:miter;stroke-opacity:1" d="M 961.254,464.385 966.466,481.758 z" id="boundary" inkscape:connector-curvature="0" />
	<path style="fill:none;stroke:red;stroke-width:1px;stroke-linecap:butt;stroke-linejoin:miter;stroke-opacity:1" d="M 926.508,464.385 943.881,464.385 z" id="boundary" inkscape:connector-curvature="0" />
	<path style="fill:none;stroke:red;stroke-width:1px;stroke-linecap:butt;stroke-linejoin:miter;stroke-opacity:1" d="M 966.466,481.758 966.466,499.131 z" id="boundary" inkscape:connector-curvature="0" />
	<path style="fill:none;stroke:red;stroke-width:1px;stroke-linecap:butt;stroke-linejoin:miter;stroke-opacity:1" d="M 989.051,473.072 985.576,490.445 z" id="boundary" inkscape:connector-curvature="0" />
	<path style="fill:none;stroke:red;stroke-width:1px;stroke-linecap:butt;stroke-linejoin:miter;stroke-opacity:1" d="M 985.576,507.818 985.576,490.445 z" id="boundary" inkscape:connector-curvature="0" />
	<path style="fill:none;stroke:red;stroke-width:1px;stroke-linecap:butt;stroke-linejoin:miter;stroke-opacity:1" d="M 985.576,507.818 983.839,530.403 z" id="boundary" inkscape:connector-curvature="0" />
	<path style="fill:none;stroke:red;stroke-width:1px;stroke-linecap:butt;stroke-linejoin:miter;stroke-opacity:1" d="M 983.839,530.403 966.466,532.14 z" id="boundary" inkscape:connector-curvature="0" />
	<path style="fill:none;stroke:red;stroke-width:1px;stroke-linecap:butt;stroke-linejoin:miter;stroke-opacity:1" d="M 966.466,532.14 966.466,499.131 z" id="boundary" inkscape:connector-curvature="0" />
	<path style="fill:none;stroke:red;stroke-width:1px;stroke-linecap:butt;stroke-linejoin:miter;stroke-opacity:1" d="M 989.051,473.072 992.525,452.224 z" id="boundary" inkscape:connector-curvature="0" />
	<circle cx="4" cy="323.664" r="4" fill="#0" id="circle0"/>
	<circle cx="4" cy="341.037" r="4" fill="#0" id="circle1"/>
	<circle cx="4" cy="490.445" r="4" fill="#0" id="circle2"/>
	<circle cx="4" cy="532.14" r="4" fill="#0" id="circle3"/>
	<circle cx="5.7373" cy="358.41" r="4" fill="#0" id="circle4"/>
	<circle cx="5.7373" cy="507.818" r="4" fill="#0" id="circle5"/>
	<circle cx="10.9492" cy="375.783" r="4" fill="#0" id="circle6"/>
	<circle cx="10.9492" cy="393.156" r="4" fill="#0" id="circle7"/>
	<circle cx="10.9492" cy="410.529" r="4" fill="#0" id="circle8"/>
	<circle cx="10.9492" cy="427.902" r="4" fill="#0" id="circle9"/>
	<circle cx="10.9492" cy="455.699" r="4" fill="#0" id="circle10"/>
	<circle cx="10.9492" cy="473.072" r="4" fill="#0" id="circle11"/>
	<circle cx="14.4238" cy="309.765" r="4" fill="#0" id="circle12"/>
	<circle cx="21.373" cy="530.403" r="4" fill="#0" id="circle13"/>
	<circle cx="23.1103" cy="493.919" r="4" fill="#0" id="circle14"/>
	<circle cx="23.1103" cy="511.292" r="4" fill="#0" id="circle15"/>
	<circle cx="28.3222" cy="299.342" r="4" fill="#0" id="circle16"/>
	<circle cx="28.3222" cy="474.809" r="4" fill="#0" id="circle17"/>
	<circle cx="42.2207" cy="285.443" r="4" fill="#0" id="circle18"/>
	<circle cx="42.2207" cy="486.97" r="4" fill="#0" id="circle19"/>
	<circle cx="54.3818" cy="473.072" r="4" fill="#0" id="circle20"/>
	<circle cx="59.5937" cy="281.968" r="4" fill="#0" id="circle21"/>
	<circle cx="70.0175" cy="481.758" r="4" fill="#0" id="circle22"/>
	<circle cx="73.4921" cy="264.595" r="4" fill="#0" id="circle23"/>
	<circle cx="80.4413" cy="495.657" r="4" fill="#0" id="circle24"/>
	<circle cx="83.9159" cy="250.697" r="4" fill="#0" id="circle25"/>
	<circle cx="90.8651" cy="233.324" r="4" fill="#0" id="circle26"/>
	<circle cx="94.3398" cy="506.081" r="4" fill="#0" id="circle27"/>
	<circle cx="108.238" cy="238.536" r="4" fill="#0" id="circle28"/>
	<circle cx="109.975" cy="497.394" r="4" fill="#0" id="circle29"/>
	<circle cx="116.925" cy="254.172" r="4" fill="#0" id="circle30"/>
	<circle cx="123.874" cy="480.021" r="4" fill="#0" id="circle31"/>
	<circle cx="125.611" cy="269.807" r="4" fill="#0" id="circle32"/>
	<circle cx="137.772" cy="467.86" r="4" fill="#0" id="circle33"/>
	<circle cx="141.247" cy="278.494" r="4" fill="#0" id="circle34"/>
	<circle cx="146.459" cy="483.496" r="4" fill="#0" id="circle35"/>
	<circle cx="158.62" cy="285.443" r="4" fill="#0" id="circle36"/>
	<circle cx="163.832" cy="474.809" r="4" fill="#0" id="circle37"/>
	<circle cx="167.306" cy="492.182" r="4" fill="#0" id="circle38"/>
	<circle cx="172.518" cy="295.867" r="4" fill="#0" id="circle39"/>
	<circle cx="174.256" cy="509.555" r="4" fill="#0" id="circle40"/>
	<circle cx="174.256" cy="532.14" r="4" fill="#0" id="circle41"/>
	<circle cx="186.417" cy="306.291" r="4" fill="#0" id="circle42"/>
	<circle cx="189.891" cy="490.445" r="4" fill="#0" id="circle43"/>
	<circle cx="189.891" cy="518.242" r="4" fill="#0" id="circle44"/>
	<circle cx="193.366" cy="466.123" r="4" fill="#0" id="circle45"/>
	<circle cx="200.315" cy="316.715" r="4" fill="#0" id="circle46"/>
	<circle cx="210.739" cy="464.385" r="4" fill="#0" id="circle47"/>
	<circle cx="217.688" cy="316.715" r="4" fill="#0" id="circle48"/>
	<circle cx="228.112" cy="464.385" r="4" fill="#0" id="circle49"/>
	<circle cx="235.061" cy="316.715" r="4" fill="#0" id="circle50"/>
	<circle cx="245.485" cy="464.385" r="4" fill="#0" id="circle51"/>
	<circle cx="252.434" cy="316.715" r="4" fill="#0" id="circle52"/>
	<circle cx="262.858" cy="464.385" r="4" fill="#0" id="circle53"/>
	<circle cx="269.807" cy="313.24" r="4" fill="#0" id="circle54"/>
	<circle cx="280.231" cy="464.385" r="4" fill="#0" id="circle55"/>
	<circle cx="287.18" cy="313.24" r="4" fill="#0" id="circle56"/>
	<circle cx="297.604" cy="464.385" r="4" fill="#0" id="circle57"/>
	<circle cx="304.553" cy="313.24" r="4" fill="#0" id="circle58"/>
	<circle cx="314.977" cy="464.385" r="4" fill="#0" id="circle59"/>
	<circle cx="321.926" cy="313.24" r="4" fill="#0" id="circle60"/>
	<circle cx="332.35" cy="464.385" r="4" fill="#0" id="circle61"/>
	<circle cx="339.299" cy="313.24" r="4" fill="#0" id="circle62"/>
	<circle cx="349.723" cy="464.385" r="4" fill="#0" id="circle63"/>
	<circle cx="356.673" cy="313.24" r="4" fill="#0" id="circle64"/>
	<circle cx="367.096" cy="464.385" r="4" fill="#0" id="circle65"/>
	<circle cx="374.046" cy="313.24" r="4" fill="#0" id="circle66"/>
	<circle cx="384.469" cy="464.385" r="4" fill="#0" id="circle67"/>
	<circle cx="391.419" cy="313.24" r="4" fill="#0" id="circle68"/>
	<circle cx="401.842" cy="464.385" r="4" fill="#0" id="circle69"/>
	<circle cx="408.792" cy="313.24" r="4" fill="#0" id="circle70"/>
	<circle cx="419.215" cy="464.385" r="4" fill="#0" id="circle71"/>
	<circle cx="426.165" cy="313.24" r="4" fill="#0" id="circle72"/>
	<circle cx="436.588" cy="464.385" r="4" fill="#0" id="circle73"/>
	<circle cx="443.538" cy="313.24" r="4" fill="#0" id="circle74"/>
	<circle cx="453.961" cy="464.385" r="4" fill="#0" id="circle75"/>
	<circle cx="460.911" cy="313.24" r="4" fill="#0" id="circle76"/>
	<circle cx="471.335" cy="464.385" r="4" fill="#0" id="circle77"/>
	<circle cx="478.284" cy="313.24" r="4" fill="#0" id="circle78"/>
	<circle cx="488.708" cy="464.385" r="4" fill="#0" id="circle79"/>
	<circle cx="495.657" cy="313.24" r="4" fill="#0" id="circle80"/>
	<circle cx="506.081" cy="464.385" r="4" fill="#0" id="circle81"/>
	<circle cx="513.03" cy="313.24" r="4" fill="#0" id="circle82"/>
	<circle cx="523.454" cy="464.385" r="4" fill="#0" id="circle83"/>
	<circle cx="530.403" cy="313.24" r="4" fill="#0" id="circle84"/>
	<circle cx="540.827" cy="464.385" r="4" fill="#0" id="circle85"/>
	<circle cx="547.776" cy="309.765" r="4" fill="#0" id="circle86"/>
	<circle cx="558.2" cy="464.385" r="4" fill="#0" id="circle87"/>
	<circle cx="563.412" cy="295.867" r="4" fill="#0" id="circle88"/>
	<circle cx="575.573" cy="464.385" r="4" fill="#0" id="circle89"/>
	<circle cx="577.31" cy="278.494" r="4" fill="#0" id="circle90"/>
	<circle cx="587.734" cy="264.595" r="4" fill="#0" id="circle91"/>
	<circle cx="592.946" cy="464.385" r="4" fill="#0" id="circle92"/>
	<circle cx="601.632" cy="250.697" r="4" fill="#0" id="circle93"/>
	<circle cx="610.319" cy="464.385" r="4" fill="#0" id="circle94"/>
	<circle cx="615.531" cy="240.273" r="4" fill="#0" id="circle95"/>
	<circle cx="627.692" cy="464.385" r="4" fill="#0" id="circle96"/>
	<circle cx="631.166" cy="231.587" r="4" fill="#0" id="circle97"/>
	<circle cx="645.065" cy="464.385" r="4" fill="#0" id="circle98"/>
	<circle cx="648.539" cy="226.375" r="4" fill="#0" id="circle99"/>
	<circle cx="662.438" cy="464.385" r="4" fill="#0" id="circle100"/>
	<circle cx="665.912" cy="219.426" r="4" fill="#0" id="circle101"/>
	<circle cx="679.811" cy="464.385" r="4" fill="#0" id="circle102"/>
	<circle cx="683.285" cy="215.951" r="4" fill="#0" id="circle103"/>
	<circle cx="697.184" cy="464.385" r="4" fill="#0" id="circle104"/>
	<circle cx="700.658" cy="215.951" r="4" fill="#0" id="circle105"/>
	<circle cx="714.557" cy="464.385" r="4" fill="#0" id="circle106"/>
	<circle cx="718.032" cy="219.426" r="4" fill="#0" id="circle107"/>
	<circle cx="731.93" cy="464.385" r="4" fill="#0" id="circle108"/>
	<circle cx="735.405" cy="222.9" r="4" fill="#0" id="circle109"/>
	<circle cx="749.303" cy="464.385" r="4" fill="#0" id="circle110"/>
	<circle cx="751.04" cy="212.476" r="4" fill="#0" id="circle111"/>
	<circle cx="764.939" cy="202.053" r="4" fill="#0" id="circle112"/>
	<circle cx="766.676" cy="464.385" r="4" fill="#0" id="circle113"/>
	<circle cx="782.312" cy="195.103" r="4" fill="#0" id="circle114"/>
	<circle cx="784.049" cy="464.385" r="4" fill="#0" id="circle115"/>
	<circle cx="799.685" cy="191.629" r="4" fill="#0" id="circle116"/>
	<circle cx="801.422" cy="464.385" r="4" fill="#0" id="circle117"/>
	<circle cx="817.058" cy="125.611" r="4" fill="#0" id="circle118"/>
	<circle cx="817.058" cy="142.984" r="4" fill="#0" id="circle119"/>
	<circle cx="817.058" cy="195.103" r="4" fill="#0" id="circle120"/>
	<circle cx="817.058" cy="493.919" r="4" fill="#0" id="circle121"/>
	<circle cx="817.058" cy="528.665" r="4" fill="#0" id="circle122"/>
	<circle cx="818.795" cy="464.385" r="4" fill="#0" id="circle123"/>
	<circle cx="822.27" cy="160.357" r="4" fill="#0" id="circle124"/>
	<circle cx="822.27" cy="511.292" r="4" fill="#0" id="circle125"/>
	<circle cx="824.007" cy="108.238" r="4" fill="#0" id="circle126"/>
	<circle cx="824.007" cy="177.73" r="4" fill="#0" id="circle127"/>
	<circle cx="834.431" cy="492.182" r="4" fill="#0" id="circle128"/>
	<circle cx="834.431" cy="530.403" r="4" fill="#0" id="circle129"/>
	<circle cx="837.905" cy="94.3398" r="4" fill="#0" id="circle130"/>
	<circle cx="839.643" cy="469.597" r="4" fill="#0" id="circle131"/>
	<circle cx="848.329" cy="80.4413" r="4" fill="#0" id="circle132"/>
	<circle cx="857.016" cy="464.385" r="4" fill="#0" id="circle133"/>
	<circle cx="862.228" cy="70.0175" r="4" fill="#0" id="circle134"/>
	<circle cx="865.702" cy="52.6445" r="4" fill="#0" id="circle135"/>
	<circle cx="874.389" cy="464.385" r="4" fill="#0" id="circle136"/>
	<circle cx="876.126" cy="38.7461" r="4" fill="#0" id="circle137"/>
	<circle cx="884.813" cy="23.1103" r="4" fill="#0" id="circle138"/>
	<circle cx="886.55" cy="4" r="4" fill="#0" id="circle139"/>
	<circle cx="891.762" cy="464.385" r="4" fill="#0" id="circle140"/>
	<circle cx="902.186" cy="12.6865" r="4" fill="#0" id="circle141"/>
	<circle cx="909.135" cy="464.385" r="4" fill="#0" id="circle142"/>
	<circle cx="912.609" cy="26.5849" r="4" fill="#0" id="circle143"/>
	<circle cx="919.559" cy="43.958" r="4" fill="#0" id="circle144"/>
	<circle cx="926.508" cy="61.331" r="4" fill="#0" id="circle145"/>
	<circle cx="926.508" cy="464.385" r="4" fill="#0" id="circle146"/>
	<circle cx="942.144" cy="70.0175" r="4" fill="#0" id="circle147"/>
	<circle cx="943.881" cy="464.385" r="4" fill="#0" id="circle148"/>
	<circle cx="957.779" cy="78.704" r="4" fill="#0" id="circle149"/>
	<circle cx="961.254" cy="464.385" r="4" fill="#0" id="circle150"/>
	<circle cx="966.466" cy="481.758" r="4" fill="#0" id="circle151"/>
	<circle cx="966.466" cy="499.131" r="4" fill="#0" id="circle152"/>
	<circle cx="966.466" cy="532.14" r="4" fill="#0" id="circle153"/>
	<circle cx="971.678" cy="90.8651" r="4" fill="#0" id="circle154"/>
	<circle cx="982.102" cy="104.764" r="4" fill="#0" id="circle155"/>
	<circle cx="983.839" cy="530.403" r="4" fill="#0" id="circle156"/>
	<circle cx="985.576" cy="490.445" r="4" fill="#0" id="circle157"/>
	<circle cx="985.576" cy="507.818" r="4" fill="#0" id="circle158"/>
	<circle cx="989.051" cy="195.103" r="4" fill="#0" id="circle159"/>
	<circle cx="989.051" cy="212.476" r="4" fill="#0" id="circle160"/>
	<circle cx="989.051" cy="229.849" r="4" fill="#0" id="circle161"/>
	<circle cx="989.051" cy="247.222" r="4" fill="#0" id="circle162"/>
	<circle cx="989.051" cy="264.595" r="4" fill="#0" id="circle163"/>
	<circle cx="989.051" cy="473.072" r="4" fill="#0" id="circle164"/>
	<circle cx="990.788" cy="120.399" r="4" fill="#0" id="circle165"/>
	<circle cx="990.788" cy="281.968" r="4" fill="#0" id="circle166"/>
	<circle cx="992.525" cy="137.772" r="4" fill="#0" id="circle167"/>
	<circle cx="992.525" cy="155.145" r="4" fill="#0" id="circle168"/>
	<circle cx="992.525" cy="172.518" r="4" fill="#0" id="circle169"/>
	<circle cx="992.525" cy="299.342" r="4" fill="#0" id="circle170"/>
	<circle cx="992.525" cy="316.715" r="4" fill="#0" id="circle171"/>
	<circle cx="992.525" cy="334.088" r="4" fill="#0" id="circle172"/>
	<circle cx="992.525" cy="452.224" r="4" fill="#0" id="circle173"/>
	<circle cx="994.263" cy="351.461" r="4" fill="#0" id="circle174"/>
	<circle cx="996" cy="368.834" r="4" fill="#0" id="circle175"/>
	<circle cx="996" cy="386.207" r="4" fill="#0" id="circle176"/>
	<circle cx="996" cy="403.58" r="4" fill="#0" id="circle177"/>
	<circle cx="996" cy="420.953" r="4" fill="#0" id="circle178"/>
	</g>
</svg>