<?xml version="1.0" encoding="UTF-8" standalone="no"?>
<!-- Created with CurveBenchmark -->
<svg
	xmlns:dc="http://purl.org/dc/elements/1.1/"
	xmlns:cc="http://creativecommons.org/ns#"
	xmlns:rdf="http://www.w3.org/1999/02/22-rdf-syntax-ns#"
	xmlns:svg="http://www.w3.org/2000/svg"
	xmlns="http://www.w3.org/2000/svg"
	xmlns:sodipodi="http://sodipodi.sourceforge.net/DTD/sodipodi-0.dtd"
	xmlns:inkscape="http://www.inkscape.org/namespaces/inkscape"
	width="1000"
	height="1000"
	id="svg2"
	version="1.1"
	sodipodi:docname="manifold/gathang-fish305.png.txt">
<defs
	id="defs4" />
<metadata
	id="metadata7">
	<rdf:RDF>
		<cc:Work
			rdf:about="">
			<dc:format>image/svg+xml</dc:format>
			<dc:type
				rdf:resource="http://purl.org/dc/dcmitype/StillImage" />
			<dc:title></dc:title>
		</cc:Work>
	</rdf:RDF>
</metadata>
<g
	inkscape:label="Layer 1"
	inkscape:groupmode="layer"
	id="layer1">
	<path style="fill:none;stroke:red;stroke-width:1px;stroke-linecap:butt;stroke-linejoin:miter;stroke-opacity:1" d="M 41.6114,295.488 65.1185,253.175 z" id="boundary" inkscape:connector-curvature="0" />
	<path style="fill:none;stroke:red;stroke-width:1px;stroke-linecap:butt;stroke-linejoin:miter;stroke-opacity:1" d="M 65.1185,253.175 107.431,229.668 z" id="boundary" inkscape:connector-curvature="0" />
	<path style="fill:none;stroke:red;stroke-width:1px;stroke-linecap:butt;stroke-linejoin:miter;stroke-opacity:1" d="M 201.46,192.057 154.445,210.863 z" id="boundary" inkscape:connector-curvature="0" />
	<path style="fill:none;stroke:red;stroke-width:1px;stroke-linecap:butt;stroke-linejoin:miter;stroke-opacity:1" d="M 154.445,210.863 107.431,229.668 z" id="boundary" inkscape:connector-curvature="0" />
	<path style="fill:none;stroke:red;stroke-width:1px;stroke-linecap:butt;stroke-linejoin:miter;stroke-opacity:1" d="M 4,380.114 4,333.1 z" id="boundary" inkscape:connector-curvature="0" />
	<path style="fill:none;stroke:red;stroke-width:1px;stroke-linecap:butt;stroke-linejoin:miter;stroke-opacity:1" d="M 4,333.1 41.6114,295.488 z" id="boundary" inkscape:connector-curvature="0" />
	<path style="fill:none;stroke:red;stroke-width:1px;stroke-linecap:butt;stroke-linejoin:miter;stroke-opacity:1" d="M 46.3128,469.441 22.8057,427.128 z" id="boundary" inkscape:connector-curvature="0" />
	<path style="fill:none;stroke:red;stroke-width:1px;stroke-linecap:butt;stroke-linejoin:miter;stroke-opacity:1" d="M 22.8057,427.128 4,380.114 z" id="boundary" inkscape:connector-curvature="0" />
	<path style="fill:none;stroke:red;stroke-width:1px;stroke-linecap:butt;stroke-linejoin:miter;stroke-opacity:1" d="M 342.502,22.8057 389.517,4 z" id="boundary" inkscape:connector-curvature="0" />
	<path style="fill:none;stroke:red;stroke-width:1px;stroke-linecap:butt;stroke-linejoin:miter;stroke-opacity:1" d="M 389.517,4 436.531,22.8057 z" id="boundary" inkscape:connector-curvature="0" />
	<path style="fill:none;stroke:red;stroke-width:1px;stroke-linecap:butt;stroke-linejoin:miter;stroke-opacity:1" d="M 304.891,79.2227 342.502,22.8057 z" id="boundary" inkscape:connector-curvature="0" />
	<path style="fill:none;stroke:red;stroke-width:1px;stroke-linecap:butt;stroke-linejoin:miter;stroke-opacity:1" d="M 474.142,51.0142 436.531,22.8057 z" id="boundary" inkscape:connector-curvature="0" />
	<path style="fill:none;stroke:red;stroke-width:1px;stroke-linecap:butt;stroke-linejoin:miter;stroke-opacity:1" d="M 516.455,74.5213 474.142,51.0142 z" id="boundary" inkscape:connector-curvature="0" />
	<path style="fill:none;stroke:red;stroke-width:1px;stroke-linecap:butt;stroke-linejoin:miter;stroke-opacity:1" d="M 248.474,173.251 295.488,154.445 z" id="boundary" inkscape:connector-curvature="0" />
	<path style="fill:none;stroke:red;stroke-width:1px;stroke-linecap:butt;stroke-linejoin:miter;stroke-opacity:1" d="M 304.891,79.2227 295.488,154.445 z" id="boundary" inkscape:connector-curvature="0" />
	<path style="fill:none;stroke:red;stroke-width:1px;stroke-linecap:butt;stroke-linejoin:miter;stroke-opacity:1" d="M 248.474,173.251 201.46,192.057 z" id="boundary" inkscape:connector-curvature="0" />
	<path style="fill:none;stroke:red;stroke-width:1px;stroke-linecap:butt;stroke-linejoin:miter;stroke-opacity:1" d="M 74.5213,507.052 46.3128,469.441 z" id="boundary" inkscape:connector-curvature="0" />
	<path style="fill:none;stroke:red;stroke-width:1px;stroke-linecap:butt;stroke-linejoin:miter;stroke-opacity:1" d="M 116.834,530.559 74.5213,507.052 z" id="boundary" inkscape:connector-curvature="0" />
	<path style="fill:none;stroke:red;stroke-width:1px;stroke-linecap:butt;stroke-linejoin:miter;stroke-opacity:1" d="M 116.834,530.559 163.848,544.664 z" id="boundary" inkscape:connector-curvature="0" />
	<path style="fill:none;stroke:red;stroke-width:1px;stroke-linecap:butt;stroke-linejoin:miter;stroke-opacity:1" d="M 163.848,544.664 201.46,572.872 z" id="boundary" inkscape:connector-curvature="0" />
	<path style="fill:none;stroke:red;stroke-width:1px;stroke-linecap:butt;stroke-linejoin:miter;stroke-opacity:1" d="M 201.46,572.872 243.773,596.379 z" id="boundary" inkscape:connector-curvature="0" />
	<path style="fill:none;stroke:red;stroke-width:1px;stroke-linecap:butt;stroke-linejoin:miter;stroke-opacity:1" d="M 243.773,596.379 248.474,643.393 z" id="boundary" inkscape:connector-curvature="0" />
	<path style="fill:none;stroke:red;stroke-width:1px;stroke-linecap:butt;stroke-linejoin:miter;stroke-opacity:1" d="M 248.474,643.393 248.474,690.408 z" id="boundary" inkscape:connector-curvature="0" />
	<path style="fill:none;stroke:red;stroke-width:1px;stroke-linecap:butt;stroke-linejoin:miter;stroke-opacity:1" d="M 248.474,690.408 267.28,737.422 z" id="boundary" inkscape:connector-curvature="0" />
	<path style="fill:none;stroke:red;stroke-width:1px;stroke-linecap:butt;stroke-linejoin:miter;stroke-opacity:1" d="M 375.412,662.199 417.725,685.706 z" id="boundary" inkscape:connector-curvature="0" />
	<path style="fill:none;stroke:red;stroke-width:1px;stroke-linecap:butt;stroke-linejoin:miter;stroke-opacity:1" d="M 347.204,709.213 375.412,662.199 z" id="boundary" inkscape:connector-curvature="0" />
	<path style="fill:none;stroke:red;stroke-width:1px;stroke-linecap:butt;stroke-linejoin:miter;stroke-opacity:1" d="M 502.351,582.275 525.858,624.588 z" id="boundary" inkscape:connector-curvature="0" />
	<path style="fill:none;stroke:red;stroke-width:1px;stroke-linecap:butt;stroke-linejoin:miter;stroke-opacity:1" d="M 502.351,582.275 549.365,572.872 z" id="boundary" inkscape:connector-curvature="0" />
	<path style="fill:none;stroke:red;stroke-width:1px;stroke-linecap:butt;stroke-linejoin:miter;stroke-opacity:1" d="M 455.336,718.616 417.725,685.706 z" id="boundary" inkscape:connector-curvature="0" />
	<path style="fill:none;stroke:red;stroke-width:1px;stroke-linecap:butt;stroke-linejoin:miter;stroke-opacity:1" d="M 314.294,751.526 267.28,737.422 z" id="boundary" inkscape:connector-curvature="0" />
	<path style="fill:none;stroke:red;stroke-width:1px;stroke-linecap:butt;stroke-linejoin:miter;stroke-opacity:1" d="M 347.204,709.213 314.294,751.526 z" id="boundary" inkscape:connector-curvature="0" />
	<path style="fill:none;stroke:red;stroke-width:1px;stroke-linecap:butt;stroke-linejoin:miter;stroke-opacity:1" d="M 455.336,718.616 492.948,746.825 z" id="boundary" inkscape:connector-curvature="0" />
	<path style="fill:none;stroke:red;stroke-width:1px;stroke-linecap:butt;stroke-linejoin:miter;stroke-opacity:1" d="M 525.858,624.588 535.261,671.602 z" id="boundary" inkscape:connector-curvature="0" />
	<path style="fill:none;stroke:red;stroke-width:1px;stroke-linecap:butt;stroke-linejoin:miter;stroke-opacity:1" d="M 516.455,74.5213 554.066,107.431 z" id="boundary" inkscape:connector-curvature="0" />
	<path style="fill:none;stroke:red;stroke-width:1px;stroke-linecap:butt;stroke-linejoin:miter;stroke-opacity:1" d="M 582.275,145.043 554.066,107.431 z" id="boundary" inkscape:connector-curvature="0" />
	<path style="fill:none;stroke:red;stroke-width:1px;stroke-linecap:butt;stroke-linejoin:miter;stroke-opacity:1" d="M 629.289,135.64 582.275,145.043 z" id="boundary" inkscape:connector-curvature="0" />
	<path style="fill:none;stroke:red;stroke-width:1px;stroke-linecap:butt;stroke-linejoin:miter;stroke-opacity:1" d="M 629.289,135.64 676.303,116.834 z" id="boundary" inkscape:connector-curvature="0" />
	<path style="fill:none;stroke:red;stroke-width:1px;stroke-linecap:butt;stroke-linejoin:miter;stroke-opacity:1" d="M 676.303,116.834 713.915,145.043 z" id="boundary" inkscape:connector-curvature="0" />
	<path style="fill:none;stroke:red;stroke-width:1px;stroke-linecap:butt;stroke-linejoin:miter;stroke-opacity:1" d="M 742.123,182.654 770.332,220.265 z" id="boundary" inkscape:connector-curvature="0" />
	<path style="fill:none;stroke:red;stroke-width:1px;stroke-linecap:butt;stroke-linejoin:miter;stroke-opacity:1" d="M 742.123,182.654 713.915,145.043 z" id="boundary" inkscape:connector-curvature="0" />
	<path style="fill:none;stroke:red;stroke-width:1px;stroke-linecap:butt;stroke-linejoin:miter;stroke-opacity:1" d="M 770.332,220.265 789.137,267.28 z" id="boundary" inkscape:connector-curvature="0" />
	<path style="fill:none;stroke:red;stroke-width:1px;stroke-linecap:butt;stroke-linejoin:miter;stroke-opacity:1" d="M 836.152,271.981 789.137,267.28 z" id="boundary" inkscape:connector-curvature="0" />
	<path style="fill:none;stroke:red;stroke-width:1px;stroke-linecap:butt;stroke-linejoin:miter;stroke-opacity:1" d="M 873.763,243.773 911.374,215.564 z" id="boundary" inkscape:connector-curvature="0" />
	<path style="fill:none;stroke:red;stroke-width:1px;stroke-linecap:butt;stroke-linejoin:miter;stroke-opacity:1" d="M 911.374,215.564 953.687,192.057 z" id="boundary" inkscape:connector-curvature="0" />
	<path style="fill:none;stroke:red;stroke-width:1px;stroke-linecap:butt;stroke-linejoin:miter;stroke-opacity:1" d="M 996,215.564 986.597,267.28 z" id="boundary" inkscape:connector-curvature="0" />
	<path style="fill:none;stroke:red;stroke-width:1px;stroke-linecap:butt;stroke-linejoin:miter;stroke-opacity:1" d="M 953.687,192.057 996,215.564 z" id="boundary" inkscape:connector-curvature="0" />
	<path style="fill:none;stroke:red;stroke-width:1px;stroke-linecap:butt;stroke-linejoin:miter;stroke-opacity:1" d="M 977.194,314.294 977.194,361.308 z" id="boundary" inkscape:connector-curvature="0" />
	<path style="fill:none;stroke:red;stroke-width:1px;stroke-linecap:butt;stroke-linejoin:miter;stroke-opacity:1" d="M 836.152,271.981 873.763,243.773 z" id="boundary" inkscape:connector-curvature="0" />
	<path style="fill:none;stroke:red;stroke-width:1px;stroke-linecap:butt;stroke-linejoin:miter;stroke-opacity:1" d="M 977.194,408.322 977.194,361.308 z" id="boundary" inkscape:connector-curvature="0" />
	<path style="fill:none;stroke:red;stroke-width:1px;stroke-linecap:butt;stroke-linejoin:miter;stroke-opacity:1" d="M 986.597,455.336 977.194,408.322 z" id="boundary" inkscape:connector-curvature="0" />
	<path style="fill:none;stroke:red;stroke-width:1px;stroke-linecap:butt;stroke-linejoin:miter;stroke-opacity:1" d="M 977.194,314.294 986.597,267.28 z" id="boundary" inkscape:connector-curvature="0" />
	<path style="fill:none;stroke:red;stroke-width:1px;stroke-linecap:butt;stroke-linejoin:miter;stroke-opacity:1" d="M 643.393,577.573 596.379,572.872 z" id="boundary" inkscape:connector-curvature="0" />
	<path style="fill:none;stroke:red;stroke-width:1px;stroke-linecap:butt;stroke-linejoin:miter;stroke-opacity:1" d="M 690.408,596.379 643.393,577.573 z" id="boundary" inkscape:connector-curvature="0" />
	<path style="fill:none;stroke:red;stroke-width:1px;stroke-linecap:butt;stroke-linejoin:miter;stroke-opacity:1" d="M 789.137,502.351 770.332,558.768 z" id="boundary" inkscape:connector-curvature="0" />
	<path style="fill:none;stroke:red;stroke-width:1px;stroke-linecap:butt;stroke-linejoin:miter;stroke-opacity:1" d="M 596.379,572.872 549.365,572.872 z" id="boundary" inkscape:connector-curvature="0" />
	<path style="fill:none;stroke:red;stroke-width:1px;stroke-linecap:butt;stroke-linejoin:miter;stroke-opacity:1" d="M 535.261,671.602 539.962,742.123 z" id="boundary" inkscape:connector-curvature="0" />
	<path style="fill:none;stroke:red;stroke-width:1px;stroke-linecap:butt;stroke-linejoin:miter;stroke-opacity:1" d="M 539.962,742.123 492.948,746.825 z" id="boundary" inkscape:connector-curvature="0" />
	<path style="fill:none;stroke:red;stroke-width:1px;stroke-linecap:butt;stroke-linejoin:miter;stroke-opacity:1" d="M 690.408,596.379 737.422,601.081 z" id="boundary" inkscape:connector-curvature="0" />
	<path style="fill:none;stroke:red;stroke-width:1px;stroke-linecap:butt;stroke-linejoin:miter;stroke-opacity:1" d="M 770.332,558.768 737.422,601.081 z" id="boundary" inkscape:connector-curvature="0" />
	<path style="fill:none;stroke:red;stroke-width:1px;stroke-linecap:butt;stroke-linejoin:miter;stroke-opacity:1" d="M 789.137,455.336 789.137,502.351 z" id="boundary" inkscape:connector-curvature="0" />
	<path style="fill:none;stroke:red;stroke-width:1px;stroke-linecap:butt;stroke-linejoin:miter;stroke-opacity:1" d="M 789.137,455.336 836.152,469.441 z" id="boundary" inkscape:connector-curvature="0" />
	<path style="fill:none;stroke:red;stroke-width:1px;stroke-linecap:butt;stroke-linejoin:miter;stroke-opacity:1" d="M 836.152,469.441 864.36,507.052 z" id="boundary" inkscape:connector-curvature="0" />
	<path style="fill:none;stroke:red;stroke-width:1px;stroke-linecap:butt;stroke-linejoin:miter;stroke-opacity:1" d="M 864.36,507.052 901.972,535.261 z" id="boundary" inkscape:connector-curvature="0" />
	<path style="fill:none;stroke:red;stroke-width:1px;stroke-linecap:butt;stroke-linejoin:miter;stroke-opacity:1" d="M 991.299,502.351 996,549.365 z" id="boundary" inkscape:connector-curvature="0" />
	<path style="fill:none;stroke:red;stroke-width:1px;stroke-linecap:butt;stroke-linejoin:miter;stroke-opacity:1" d="M 996,549.365 948.986,554.066 z" id="boundary" inkscape:connector-curvature="0" />
	<path style="fill:none;stroke:red;stroke-width:1px;stroke-linecap:butt;stroke-linejoin:miter;stroke-opacity:1" d="M 948.986,554.066 901.972,535.261 z" id="boundary" inkscape:connector-curvature="0" />
	<path style="fill:none;stroke:red;stroke-width:1px;stroke-linecap:butt;stroke-linejoin:miter;stroke-opacity:1" d="M 986.597,455.336 991.299,502.351 z" id="boundary" inkscape:connector-curvature="0" />
	<circle cx="4" cy="333.1" r="4" fill="#0" id="circle0"/>
	<circle cx="4" cy="380.114" r="4" fill="#0" id="circle1"/>
	<circle cx="22.8057" cy="427.128" r="4" fill="#0" id="circle2"/>
	<circle cx="41.6114" cy="295.488" r="4" fill="#0" id="circle3"/>
	<circle cx="46.3128" cy="469.441" r="4" fill="#0" id="circle4"/>
	<circle cx="65.1185" cy="253.175" r="4" fill="#0" id="circle5"/>
	<circle cx="74.5213" cy="507.052" r="4" fill="#0" id="circle6"/>
	<circle cx="107.431" cy="229.668" r="4" fill="#0" id="circle7"/>
	<circle cx="116.834" cy="530.559" r="4" fill="#0" id="circle8"/>
	<circle cx="154.445" cy="210.863" r="4" fill="#0" id="circle9"/>
	<circle cx="163.848" cy="544.664" r="4" fill="#0" id="circle10"/>
	<circle cx="201.46" cy="192.057" r="4" fill="#0" id="circle11"/>
	<circle cx="201.46" cy="572.872" r="4" fill="#0" id="circle12"/>
	<circle cx="243.773" cy="596.379" r="4" fill="#0" id="circle13"/>
	<circle cx="248.474" cy="173.251" r="4" fill="#0" id="circle14"/>
	<circle cx="248.474" cy="643.393" r="4" fill="#0" id="circle15"/>
	<circle cx="248.474" cy="690.408" r="4" fill="#0" id="circle16"/>
	<circle cx="267.28" cy="737.422" r="4" fill="#0" id="circle17"/>
	<circle cx="295.488" cy="154.445" r="4" fill="#0" id="circle18"/>
	<circle cx="304.891" cy="79.2227" r="4" fill="#0" id="circle19"/>
	<circle cx="314.294" cy="751.526" r="4" fill="#0" id="circle20"/>
	<circle cx="342.502" cy="22.8057" r="4" fill="#0" id="circle21"/>
	<circle cx="347.204" cy="709.213" r="4" fill="#0" id="circle22"/>
	<circle cx="375.412" cy="662.199" r="4" fill="#0" id="circle23"/>
	<circle cx="389.517" cy="4" r="4" fill="#0" id="circle24"/>
	<circle cx="417.725" cy="685.706" r="4" fill="#0" id="circle25"/>
	<circle cx="436.531" cy="22.8057" r="4" fill="#0" id="circle26"/>
	<circle cx="455.336" cy="718.616" r="4" fill="#0" id="circle27"/>
	<circle cx="474.142" cy="51.0142" r="4" fill="#0" id="circle28"/>
	<circle cx="492.948" cy="746.825" r="4" fill="#0" id="circle29"/>
	<circle cx="502.351" cy="582.275" r="4" fill="#0" id="circle30"/>
	<circle cx="516.455" cy="74.5213" r="4" fill="#0" id="circle31"/>
	<circle cx="525.858" cy="624.588" r="4" fill="#0" id="circle32"/>
	<circle cx="535.261" cy="671.602" r="4" fill="#0" id="circle33"/>
	<circle cx="539.962" cy="742.123" r="4" fill="#0" id="circle34"/>
	<circle cx="549.365" cy="572.872" r="4" fill="#0" id="circle35"/>
	<circle cx="554.066" cy="107.431" r="4" fill="#0" id="circle36"/>
	<circle cx="582.275" cy="145.043" r="4" fill="#0" id="circle37"/>
	<circle cx="596.379" cy="572.872" r="4" fill="#0" id="circle38"/>
	<circle cx="629.289" cy="135.64" r="4" fill="#0" id="circle39"/>
	<circle cx="643.393" cy="577.573" r="4" fill="#0" id="circle40"/>
	<circle cx="676.303" cy="116.834" r="4" fill="#0" id="circle41"/>
	<circle cx="690.408" cy="596.379" r="4" fill="#0" id="circle42"/>
	<circle cx="713.915" cy="145.043" r="4" fill="#0" id="circle43"/>
	<circle cx="737.422" cy="601.081" r="4" fill="#0" id="circle44"/>
	<circle cx="742.123" cy="182.654" r="4" fill="#0" id="circle45"/>
	<circle cx="770.332" cy="220.265" r="4" fill="#0" id="circle46"/>
	<circle cx="770.332" cy="558.768" r="4" fill="#0" id="circle47"/>
	<circle cx="789.137" cy="267.28" r="4" fill="#0" id="circle48"/>
	<circle cx="789.137" cy="455.336" r="4" fill="#0" id="circle49"/>
	<circle cx="789.137" cy="502.351" r="4" fill="#0" id="circle50"/>
	<circle cx="836.152" cy="271.981" r="4" fill="#0" id="circle51"/>
	<circle cx="836.152" cy="469.441" r="4" fill="#0" id="circle52"/>
	<circle cx="864.36" cy="507.052" r="4" fill="#0" id="circle53"/>
	<circle cx="873.763" cy="243.773" r="4" fill="#0" id="circle54"/>
	<circle cx="901.972" cy="535.261" r="4" fill="#0" id="circle55"/>
	<circle cx="911.374" cy="215.564" r="4" fill="#0" id="circle56"/>
	<circle cx="948.986" cy="554.066" r="4" fill="#0" id="circle57"/>
	<circle cx="953.687" cy="192.057" r="4" fill="#0" id="circle58"/>
	<circle cx="977.194" cy="314.294" r="4" fill="#0" id="circle59"/>
	<circle cx="977.194" cy="361.308" r="4" fill="#0" id="circle60"/>
	<circle cx="977.194" cy="408.322" r="4" fill="#0" id="circle61"/>
	<circle cx="986.597" cy="267.28" r="4" fill="#0" id="circle62"/>
	<circle cx="986.597" cy="455.336" r="4" fill="#0" id="circle63"/>
	<circle cx="991.299" cy="502.351" r="4" fill="#0" id="circle64"/>
	<circle cx="996" cy="215.564" r="4" fill="#0" id="circle65"/>
	<circle cx="996" cy="549.365" r="4" fill="#0" id="circle66"/>
	</g>
</svg>