<?xml version="1.0" encoding="UTF-8" standalone="no"?>
<!-- Created with CurveBenchmark -->
<svg
	xmlns:dc="http://purl.org/dc/elements/1.1/"
	xmlns:cc="http://creativecommons.org/ns#"
	xmlns:rdf="http://www.w3.org/1999/02/22-rdf-syntax-ns#"
	xmlns:svg="http://www.w3.org/2000/svg"
	xmlns="http://www.w3.org/2000/svg"
	xmlns:sodipodi="http://sodipodi.sourceforge.net/DTD/sodipodi-0.dtd"
	xmlns:inkscape="http://www.inkscape.org/namespaces/inkscape"
	width="1000"
	height="1000"
	id="svg2"
	version="1.1"
	sodipodi:docname="manifold/gathang-bed350.png.txt">
<defs
	id="defs4" />
<metadata
	id="metadata7">
	<rdf:RDF>
		<cc:Work
			rdf:about="">
			<dc:format>image/svg+xml</dc:format>
			<dc:type
				rdf:resource="http://purl.org/dc/dcmitype/StillImage" />
			<dc:title></dc:title>
		</cc:Work>
	</rdf:RDF>
</metadata>
<g
	inkscape:label="Layer 1"
	inkscape:groupmode="layer"
	id="layer1">
	<path style="fill:none;stroke:red;stroke-width:1px;stroke-linecap:butt;stroke-linejoin:miter;stroke-opacity:1" d="M 167.492,361.915 189.586,357.497 z" id="boundary" inkscape:connector-curvature="0" />
	<path style="fill:none;stroke:red;stroke-width:1px;stroke-linecap:butt;stroke-linejoin:miter;stroke-opacity:1" d="M 189.586,357.497 211.679,357.497 z" id="boundary" inkscape:connector-curvature="0" />
	<path style="fill:none;stroke:red;stroke-width:1px;stroke-linecap:butt;stroke-linejoin:miter;stroke-opacity:1" d="M 28.3029,512.151 26.0935,490.058 z" id="boundary" inkscape:connector-curvature="0" />
	<path style="fill:none;stroke:red;stroke-width:1px;stroke-linecap:butt;stroke-linejoin:miter;stroke-opacity:1" d="M 145.399,366.334 123.305,370.753 z" id="boundary" inkscape:connector-curvature="0" />
	<path style="fill:none;stroke:red;stroke-width:1px;stroke-linecap:butt;stroke-linejoin:miter;stroke-opacity:1" d="M 167.492,361.915 145.399,366.334 z" id="boundary" inkscape:connector-curvature="0" />
	<path style="fill:none;stroke:red;stroke-width:1px;stroke-linecap:butt;stroke-linejoin:miter;stroke-opacity:1" d="M 238.192,176.33 247.029,154.236 z" id="boundary" inkscape:connector-curvature="0" />
	<path style="fill:none;stroke:red;stroke-width:1px;stroke-linecap:butt;stroke-linejoin:miter;stroke-opacity:1" d="M 242.61,198.423 238.192,176.33 z" id="boundary" inkscape:connector-curvature="0" />
	<path style="fill:none;stroke:red;stroke-width:1px;stroke-linecap:butt;stroke-linejoin:miter;stroke-opacity:1" d="M 233.773,353.078 211.679,357.497 z" id="boundary" inkscape:connector-curvature="0" />
	<path style="fill:none;stroke:red;stroke-width:1px;stroke-linecap:butt;stroke-linejoin:miter;stroke-opacity:1" d="M 247.029,154.236 264.704,140.98 z" id="boundary" inkscape:connector-curvature="0" />
	<path style="fill:none;stroke:red;stroke-width:1px;stroke-linecap:butt;stroke-linejoin:miter;stroke-opacity:1" d="M 123.305,370.753 101.212,375.171 z" id="boundary" inkscape:connector-curvature="0" />
	<path style="fill:none;stroke:red;stroke-width:1px;stroke-linecap:butt;stroke-linejoin:miter;stroke-opacity:1" d="M 4,428.196 15.0468,408.312 z" id="boundary" inkscape:connector-curvature="0" />
	<path style="fill:none;stroke:red;stroke-width:1px;stroke-linecap:butt;stroke-linejoin:miter;stroke-opacity:1" d="M 6.20935,450.29 4,428.196 z" id="boundary" inkscape:connector-curvature="0" />
	<path style="fill:none;stroke:red;stroke-width:1px;stroke-linecap:butt;stroke-linejoin:miter;stroke-opacity:1" d="M 6.20935,450.29 19.4655,467.964 z" id="boundary" inkscape:connector-curvature="0" />
	<path style="fill:none;stroke:red;stroke-width:1px;stroke-linecap:butt;stroke-linejoin:miter;stroke-opacity:1" d="M 19.4655,467.964 26.0935,490.058 z" id="boundary" inkscape:connector-curvature="0" />
	<path style="fill:none;stroke:red;stroke-width:1px;stroke-linecap:butt;stroke-linejoin:miter;stroke-opacity:1" d="M 15.0468,408.312 34.931,397.265 z" id="boundary" inkscape:connector-curvature="0" />
	<path style="fill:none;stroke:red;stroke-width:1px;stroke-linecap:butt;stroke-linejoin:miter;stroke-opacity:1" d="M 79.118,379.59 101.212,375.171 z" id="boundary" inkscape:connector-curvature="0" />
	<path style="fill:none;stroke:red;stroke-width:1px;stroke-linecap:butt;stroke-linejoin:miter;stroke-opacity:1" d="M 57.0245,388.428 79.118,379.59 z" id="boundary" inkscape:connector-curvature="0" />
	<path style="fill:none;stroke:red;stroke-width:1px;stroke-linecap:butt;stroke-linejoin:miter;stroke-opacity:1" d="M 34.931,397.265 57.0245,388.428 z" id="boundary" inkscape:connector-curvature="0" />
	<path style="fill:none;stroke:red;stroke-width:1px;stroke-linecap:butt;stroke-linejoin:miter;stroke-opacity:1" d="M 233.773,353.078 255.866,353.078 z" id="boundary" inkscape:connector-curvature="0" />
	<path style="fill:none;stroke:red;stroke-width:1px;stroke-linecap:butt;stroke-linejoin:miter;stroke-opacity:1" d="M 375.171,101.212 397.265,96.7929 z" id="boundary" inkscape:connector-curvature="0" />
	<path style="fill:none;stroke:red;stroke-width:1px;stroke-linecap:butt;stroke-linejoin:miter;stroke-opacity:1" d="M 353.078,110.049 375.171,101.212 z" id="boundary" inkscape:connector-curvature="0" />
	<path style="fill:none;stroke:red;stroke-width:1px;stroke-linecap:butt;stroke-linejoin:miter;stroke-opacity:1" d="M 330.984,114.468 353.078,110.049 z" id="boundary" inkscape:connector-curvature="0" />
	<path style="fill:none;stroke:red;stroke-width:1px;stroke-linecap:butt;stroke-linejoin:miter;stroke-opacity:1" d="M 255.866,353.078 264.704,326.566 z" id="boundary" inkscape:connector-curvature="0" />
	<path style="fill:none;stroke:red;stroke-width:1px;stroke-linecap:butt;stroke-linejoin:miter;stroke-opacity:1" d="M 503.314,61.4432 485.639,79.118 z" id="boundary" inkscape:connector-curvature="0" />
	<path style="fill:none;stroke:red;stroke-width:1px;stroke-linecap:butt;stroke-linejoin:miter;stroke-opacity:1" d="M 485.639,79.118 463.546,83.5367 z" id="boundary" inkscape:connector-curvature="0" />
	<path style="fill:none;stroke:red;stroke-width:1px;stroke-linecap:butt;stroke-linejoin:miter;stroke-opacity:1" d="M 397.265,96.7929 419.359,92.3742 z" id="boundary" inkscape:connector-curvature="0" />
	<path style="fill:none;stroke:red;stroke-width:1px;stroke-linecap:butt;stroke-linejoin:miter;stroke-opacity:1" d="M 441.452,87.9555 419.359,92.3742 z" id="boundary" inkscape:connector-curvature="0" />
	<path style="fill:none;stroke:red;stroke-width:1px;stroke-linecap:butt;stroke-linejoin:miter;stroke-opacity:1" d="M 463.546,83.5367 441.452,87.9555 z" id="boundary" inkscape:connector-curvature="0" />
	<path style="fill:none;stroke:red;stroke-width:1px;stroke-linecap:butt;stroke-linejoin:miter;stroke-opacity:1" d="M 308.891,123.305 330.984,114.468 z" id="boundary" inkscape:connector-curvature="0" />
	<path style="fill:none;stroke:red;stroke-width:1px;stroke-linecap:butt;stroke-linejoin:miter;stroke-opacity:1" d="M 258.076,216.098 242.61,198.423 z" id="boundary" inkscape:connector-curvature="0" />
	<path style="fill:none;stroke:red;stroke-width:1px;stroke-linecap:butt;stroke-linejoin:miter;stroke-opacity:1" d="M 260.285,260.285 264.704,282.379 z" id="boundary" inkscape:connector-curvature="0" />
	<path style="fill:none;stroke:red;stroke-width:1px;stroke-linecap:butt;stroke-linejoin:miter;stroke-opacity:1" d="M 260.285,238.192 260.285,260.285 z" id="boundary" inkscape:connector-curvature="0" />
	<path style="fill:none;stroke:red;stroke-width:1px;stroke-linecap:butt;stroke-linejoin:miter;stroke-opacity:1" d="M 264.704,304.472 264.704,326.566 z" id="boundary" inkscape:connector-curvature="0" />
	<path style="fill:none;stroke:red;stroke-width:1px;stroke-linecap:butt;stroke-linejoin:miter;stroke-opacity:1" d="M 264.704,140.98 286.797,132.143 z" id="boundary" inkscape:connector-curvature="0" />
	<path style="fill:none;stroke:red;stroke-width:1px;stroke-linecap:butt;stroke-linejoin:miter;stroke-opacity:1" d="M 258.076,216.098 260.285,238.192 z" id="boundary" inkscape:connector-curvature="0" />
	<path style="fill:none;stroke:red;stroke-width:1px;stroke-linecap:butt;stroke-linejoin:miter;stroke-opacity:1" d="M 308.891,123.305 286.797,132.143 z" id="boundary" inkscape:connector-curvature="0" />
	<path style="fill:none;stroke:red;stroke-width:1px;stroke-linecap:butt;stroke-linejoin:miter;stroke-opacity:1" d="M 264.704,282.379 264.704,304.472 z" id="boundary" inkscape:connector-curvature="0" />
	<path style="fill:none;stroke:red;stroke-width:1px;stroke-linecap:butt;stroke-linejoin:miter;stroke-opacity:1" d="M 518.78,631.457 496.686,638.085 z" id="boundary" inkscape:connector-curvature="0" />
	<path style="fill:none;stroke:red;stroke-width:1px;stroke-linecap:butt;stroke-linejoin:miter;stroke-opacity:1" d="M 30.5122,534.245 30.5122,556.339 z" id="boundary" inkscape:connector-curvature="0" />
	<path style="fill:none;stroke:red;stroke-width:1px;stroke-linecap:butt;stroke-linejoin:miter;stroke-opacity:1" d="M 30.5122,534.245 28.3029,512.151 z" id="boundary" inkscape:connector-curvature="0" />
	<path style="fill:none;stroke:red;stroke-width:1px;stroke-linecap:butt;stroke-linejoin:miter;stroke-opacity:1" d="M 30.5122,556.339 30.5122,578.432 z" id="boundary" inkscape:connector-curvature="0" />
	<path style="fill:none;stroke:red;stroke-width:1px;stroke-linecap:butt;stroke-linejoin:miter;stroke-opacity:1" d="M 30.5122,578.432 26.0935,600.526 z" id="boundary" inkscape:connector-curvature="0" />
	<path style="fill:none;stroke:red;stroke-width:1px;stroke-linecap:butt;stroke-linejoin:miter;stroke-opacity:1" d="M 26.0935,600.526 17.2561,627.038 z" id="boundary" inkscape:connector-curvature="0" />
	<path style="fill:none;stroke:red;stroke-width:1px;stroke-linecap:butt;stroke-linejoin:miter;stroke-opacity:1" d="M 87.9555,607.154 110.049,607.154 z" id="boundary" inkscape:connector-curvature="0" />
	<path style="fill:none;stroke:red;stroke-width:1px;stroke-linecap:butt;stroke-linejoin:miter;stroke-opacity:1" d="M 87.9555,607.154 65.8619,607.154 z" id="boundary" inkscape:connector-curvature="0" />
	<path style="fill:none;stroke:red;stroke-width:1px;stroke-linecap:butt;stroke-linejoin:miter;stroke-opacity:1" d="M 54.8151,627.038 65.8619,607.154 z" id="boundary" inkscape:connector-curvature="0" />
	<path style="fill:none;stroke:red;stroke-width:1px;stroke-linecap:butt;stroke-linejoin:miter;stroke-opacity:1" d="M 132.143,611.572 110.049,607.154 z" id="boundary" inkscape:connector-curvature="0" />
	<path style="fill:none;stroke:red;stroke-width:1px;stroke-linecap:butt;stroke-linejoin:miter;stroke-opacity:1" d="M 154.236,615.991 132.143,611.572 z" id="boundary" inkscape:connector-curvature="0" />
	<path style="fill:none;stroke:red;stroke-width:1px;stroke-linecap:butt;stroke-linejoin:miter;stroke-opacity:1" d="M 21.6748,666.806 17.2561,627.038 z" id="boundary" inkscape:connector-curvature="0" />
	<path style="fill:none;stroke:red;stroke-width:1px;stroke-linecap:butt;stroke-linejoin:miter;stroke-opacity:1" d="M 54.8151,671.225 32.7216,686.69 z" id="boundary" inkscape:connector-curvature="0" />
	<path style="fill:none;stroke:red;stroke-width:1px;stroke-linecap:butt;stroke-linejoin:miter;stroke-opacity:1" d="M 32.7216,686.69 21.6748,666.806 z" id="boundary" inkscape:connector-curvature="0" />
	<path style="fill:none;stroke:red;stroke-width:1px;stroke-linecap:butt;stroke-linejoin:miter;stroke-opacity:1" d="M 54.8151,627.038 54.8151,649.131 z" id="boundary" inkscape:connector-curvature="0" />
	<path style="fill:none;stroke:red;stroke-width:1px;stroke-linecap:butt;stroke-linejoin:miter;stroke-opacity:1" d="M 196.214,613.782 176.33,624.829 z" id="boundary" inkscape:connector-curvature="0" />
	<path style="fill:none;stroke:red;stroke-width:1px;stroke-linecap:butt;stroke-linejoin:miter;stroke-opacity:1" d="M 176.33,624.829 154.236,615.991 z" id="boundary" inkscape:connector-curvature="0" />
	<path style="fill:none;stroke:red;stroke-width:1px;stroke-linecap:butt;stroke-linejoin:miter;stroke-opacity:1" d="M 218.307,604.944 196.214,613.782 z" id="boundary" inkscape:connector-curvature="0" />
	<path style="fill:none;stroke:red;stroke-width:1px;stroke-linecap:butt;stroke-linejoin:miter;stroke-opacity:1" d="M 54.8151,671.225 54.8151,649.131 z" id="boundary" inkscape:connector-curvature="0" />
	<path style="fill:none;stroke:red;stroke-width:1px;stroke-linecap:butt;stroke-linejoin:miter;stroke-opacity:1" d="M 218.307,604.944 240.401,602.735 z" id="boundary" inkscape:connector-curvature="0" />
	<path style="fill:none;stroke:red;stroke-width:1px;stroke-linecap:butt;stroke-linejoin:miter;stroke-opacity:1" d="M 240.401,602.735 275.751,618.2 z" id="boundary" inkscape:connector-curvature="0" />
	<path style="fill:none;stroke:red;stroke-width:1px;stroke-linecap:butt;stroke-linejoin:miter;stroke-opacity:1" d="M 297.844,615.991 275.751,618.2 z" id="boundary" inkscape:connector-curvature="0" />
	<path style="fill:none;stroke:red;stroke-width:1px;stroke-linecap:butt;stroke-linejoin:miter;stroke-opacity:1" d="M 242.61,624.829 247.029,646.922 z" id="boundary" inkscape:connector-curvature="0" />
	<path style="fill:none;stroke:red;stroke-width:1px;stroke-linecap:butt;stroke-linejoin:miter;stroke-opacity:1" d="M 297.844,615.991 319.938,620.41 z" id="boundary" inkscape:connector-curvature="0" />
	<path style="fill:none;stroke:red;stroke-width:1px;stroke-linecap:butt;stroke-linejoin:miter;stroke-opacity:1" d="M 364.125,638.085 342.031,629.247 z" id="boundary" inkscape:connector-curvature="0" />
	<path style="fill:none;stroke:red;stroke-width:1px;stroke-linecap:butt;stroke-linejoin:miter;stroke-opacity:1" d="M 386.218,642.503 364.125,638.085 z" id="boundary" inkscape:connector-curvature="0" />
	<path style="fill:none;stroke:red;stroke-width:1px;stroke-linecap:butt;stroke-linejoin:miter;stroke-opacity:1" d="M 342.031,629.247 319.938,620.41 z" id="boundary" inkscape:connector-curvature="0" />
	<path style="fill:none;stroke:red;stroke-width:1px;stroke-linecap:butt;stroke-linejoin:miter;stroke-opacity:1" d="M 275.751,640.294 271.332,662.388 z" id="boundary" inkscape:connector-curvature="0" />
	<path style="fill:none;stroke:red;stroke-width:1px;stroke-linecap:butt;stroke-linejoin:miter;stroke-opacity:1" d="M 271.332,662.388 260.285,686.69 z" id="boundary" inkscape:connector-curvature="0" />
	<path style="fill:none;stroke:red;stroke-width:1px;stroke-linecap:butt;stroke-linejoin:miter;stroke-opacity:1" d="M 260.285,686.69 247.029,669.016 z" id="boundary" inkscape:connector-curvature="0" />
	<path style="fill:none;stroke:red;stroke-width:1px;stroke-linecap:butt;stroke-linejoin:miter;stroke-opacity:1" d="M 247.029,669.016 247.029,646.922 z" id="boundary" inkscape:connector-curvature="0" />
	<path style="fill:none;stroke:red;stroke-width:1px;stroke-linecap:butt;stroke-linejoin:miter;stroke-opacity:1" d="M 408.312,646.922 430.405,646.922 z" id="boundary" inkscape:connector-curvature="0" />
	<path style="fill:none;stroke:red;stroke-width:1px;stroke-linecap:butt;stroke-linejoin:miter;stroke-opacity:1" d="M 408.312,646.922 386.218,642.503 z" id="boundary" inkscape:connector-curvature="0" />
	<path style="fill:none;stroke:red;stroke-width:1px;stroke-linecap:butt;stroke-linejoin:miter;stroke-opacity:1" d="M 452.499,646.922 430.405,646.922 z" id="boundary" inkscape:connector-curvature="0" />
	<path style="fill:none;stroke:red;stroke-width:1px;stroke-linecap:butt;stroke-linejoin:miter;stroke-opacity:1" d="M 474.592,642.503 452.499,646.922 z" id="boundary" inkscape:connector-curvature="0" />
	<path style="fill:none;stroke:red;stroke-width:1px;stroke-linecap:butt;stroke-linejoin:miter;stroke-opacity:1" d="M 474.592,642.503 496.686,638.085 z" id="boundary" inkscape:connector-curvature="0" />
	<path style="fill:none;stroke:red;stroke-width:1px;stroke-linecap:butt;stroke-linejoin:miter;stroke-opacity:1" d="M 503.314,61.4432 525.408,52.6058 z" id="boundary" inkscape:connector-curvature="0" />
	<path style="fill:none;stroke:red;stroke-width:1px;stroke-linecap:butt;stroke-linejoin:miter;stroke-opacity:1" d="M 569.595,34.931 582.851,17.2561 z" id="boundary" inkscape:connector-curvature="0" />
	<path style="fill:none;stroke:red;stroke-width:1px;stroke-linecap:butt;stroke-linejoin:miter;stroke-opacity:1" d="M 569.595,34.931 547.501,48.1871 z" id="boundary" inkscape:connector-curvature="0" />
	<path style="fill:none;stroke:red;stroke-width:1px;stroke-linecap:butt;stroke-linejoin:miter;stroke-opacity:1" d="M 547.501,48.1871 525.408,52.6058 z" id="boundary" inkscape:connector-curvature="0" />
	<path style="fill:none;stroke:red;stroke-width:1px;stroke-linecap:butt;stroke-linejoin:miter;stroke-opacity:1" d="M 600.526,4 622.619,4 z" id="boundary" inkscape:connector-curvature="0" />
	<path style="fill:none;stroke:red;stroke-width:1px;stroke-linecap:butt;stroke-linejoin:miter;stroke-opacity:1" d="M 622.619,4 640.294,17.2561 z" id="boundary" inkscape:connector-curvature="0" />
	<path style="fill:none;stroke:red;stroke-width:1px;stroke-linecap:butt;stroke-linejoin:miter;stroke-opacity:1" d="M 675.644,45.9777 655.759,34.931 z" id="boundary" inkscape:connector-curvature="0" />
	<path style="fill:none;stroke:red;stroke-width:1px;stroke-linecap:butt;stroke-linejoin:miter;stroke-opacity:1" d="M 655.759,34.931 640.294,17.2561 z" id="boundary" inkscape:connector-curvature="0" />
	<path style="fill:none;stroke:red;stroke-width:1px;stroke-linecap:butt;stroke-linejoin:miter;stroke-opacity:1" d="M 697.737,52.6058 675.644,45.9777 z" id="boundary" inkscape:connector-curvature="0" />
	<path style="fill:none;stroke:red;stroke-width:1px;stroke-linecap:butt;stroke-linejoin:miter;stroke-opacity:1" d="M 582.851,17.2561 600.526,4 z" id="boundary" inkscape:connector-curvature="0" />
	<path style="fill:none;stroke:red;stroke-width:1px;stroke-linecap:butt;stroke-linejoin:miter;stroke-opacity:1" d="M 697.737,52.6058 719.831,61.4432 z" id="boundary" inkscape:connector-curvature="0" />
	<path style="fill:none;stroke:red;stroke-width:1px;stroke-linecap:butt;stroke-linejoin:miter;stroke-opacity:1" d="M 719.831,61.4432 733.087,79.118 z" id="boundary" inkscape:connector-curvature="0" />
	<path style="fill:none;stroke:red;stroke-width:1px;stroke-linecap:butt;stroke-linejoin:miter;stroke-opacity:1" d="M 755.18,83.5367 733.087,79.118 z" id="boundary" inkscape:connector-curvature="0" />
	<path style="fill:none;stroke:red;stroke-width:1px;stroke-linecap:butt;stroke-linejoin:miter;stroke-opacity:1" d="M 777.274,85.7461 755.18,83.5367 z" id="boundary" inkscape:connector-curvature="0" />
	<path style="fill:none;stroke:red;stroke-width:1px;stroke-linecap:butt;stroke-linejoin:miter;stroke-opacity:1" d="M 777.274,85.7461 799.367,87.9555 z" id="boundary" inkscape:connector-curvature="0" />
	<path style="fill:none;stroke:red;stroke-width:1px;stroke-linecap:butt;stroke-linejoin:miter;stroke-opacity:1" d="M 799.367,87.9555 821.461,92.3742 z" id="boundary" inkscape:connector-curvature="0" />
	<path style="fill:none;stroke:red;stroke-width:1px;stroke-linecap:butt;stroke-linejoin:miter;stroke-opacity:1" d="M 843.555,99.0022 821.461,92.3742 z" id="boundary" inkscape:connector-curvature="0" />
	<path style="fill:none;stroke:red;stroke-width:1px;stroke-linecap:butt;stroke-linejoin:miter;stroke-opacity:1" d="M 887.742,110.049 865.648,105.63 z" id="boundary" inkscape:connector-curvature="0" />
	<path style="fill:none;stroke:red;stroke-width:1px;stroke-linecap:butt;stroke-linejoin:miter;stroke-opacity:1" d="M 865.648,105.63 843.555,99.0022 z" id="boundary" inkscape:connector-curvature="0" />
	<path style="fill:none;stroke:red;stroke-width:1px;stroke-linecap:butt;stroke-linejoin:miter;stroke-opacity:1" d="M 887.742,110.049 909.835,116.677 z" id="boundary" inkscape:connector-curvature="0" />
	<path style="fill:none;stroke:red;stroke-width:1px;stroke-linecap:butt;stroke-linejoin:miter;stroke-opacity:1" d="M 909.835,116.677 931.929,123.305 z" id="boundary" inkscape:connector-curvature="0" />
	<path style="fill:none;stroke:red;stroke-width:1px;stroke-linecap:butt;stroke-linejoin:miter;stroke-opacity:1" d="M 931.929,123.305 954.022,132.143 z" id="boundary" inkscape:connector-curvature="0" />
	<path style="fill:none;stroke:red;stroke-width:1px;stroke-linecap:butt;stroke-linejoin:miter;stroke-opacity:1" d="M 973.906,143.189 991.581,158.655 z" id="boundary" inkscape:connector-curvature="0" />
	<path style="fill:none;stroke:red;stroke-width:1px;stroke-linecap:butt;stroke-linejoin:miter;stroke-opacity:1" d="M 991.581,158.655 996,180.748 z" id="boundary" inkscape:connector-curvature="0" />
	<path style="fill:none;stroke:red;stroke-width:1px;stroke-linecap:butt;stroke-linejoin:miter;stroke-opacity:1" d="M 973.906,233.773 978.325,211.679 z" id="boundary" inkscape:connector-curvature="0" />
	<path style="fill:none;stroke:red;stroke-width:1px;stroke-linecap:butt;stroke-linejoin:miter;stroke-opacity:1" d="M 978.325,211.679 996,180.748 z" id="boundary" inkscape:connector-curvature="0" />
	<path style="fill:none;stroke:red;stroke-width:1px;stroke-linecap:butt;stroke-linejoin:miter;stroke-opacity:1" d="M 973.906,255.866 973.906,233.773 z" id="boundary" inkscape:connector-curvature="0" />
	<path style="fill:none;stroke:red;stroke-width:1px;stroke-linecap:butt;stroke-linejoin:miter;stroke-opacity:1" d="M 954.022,132.143 973.906,143.189 z" id="boundary" inkscape:connector-curvature="0" />
	<path style="fill:none;stroke:red;stroke-width:1px;stroke-linecap:butt;stroke-linejoin:miter;stroke-opacity:1" d="M 973.906,255.866 973.906,277.96 z" id="boundary" inkscape:connector-curvature="0" />
	<path style="fill:none;stroke:red;stroke-width:1px;stroke-linecap:butt;stroke-linejoin:miter;stroke-opacity:1" d="M 973.906,300.053 973.906,322.147 z" id="boundary" inkscape:connector-curvature="0" />
	<path style="fill:none;stroke:red;stroke-width:1px;stroke-linecap:butt;stroke-linejoin:miter;stroke-opacity:1" d="M 973.906,344.241 973.906,322.147 z" id="boundary" inkscape:connector-curvature="0" />
	<path style="fill:none;stroke:red;stroke-width:1px;stroke-linecap:butt;stroke-linejoin:miter;stroke-opacity:1" d="M 973.906,300.053 973.906,277.96 z" id="boundary" inkscape:connector-curvature="0" />
	<path style="fill:none;stroke:red;stroke-width:1px;stroke-linecap:butt;stroke-linejoin:miter;stroke-opacity:1" d="M 973.906,366.334 978.325,388.428 z" id="boundary" inkscape:connector-curvature="0" />
	<path style="fill:none;stroke:red;stroke-width:1px;stroke-linecap:butt;stroke-linejoin:miter;stroke-opacity:1" d="M 973.906,366.334 973.906,344.241 z" id="boundary" inkscape:connector-curvature="0" />
	<path style="fill:none;stroke:red;stroke-width:1px;stroke-linecap:butt;stroke-linejoin:miter;stroke-opacity:1" d="M 987.163,454.708 982.744,432.615 z" id="boundary" inkscape:connector-curvature="0" />
	<path style="fill:none;stroke:red;stroke-width:1px;stroke-linecap:butt;stroke-linejoin:miter;stroke-opacity:1" d="M 982.744,432.615 982.744,410.521 z" id="boundary" inkscape:connector-curvature="0" />
	<path style="fill:none;stroke:red;stroke-width:1px;stroke-linecap:butt;stroke-linejoin:miter;stroke-opacity:1" d="M 978.325,388.428 982.744,410.521 z" id="boundary" inkscape:connector-curvature="0" />
	<path style="fill:none;stroke:red;stroke-width:1px;stroke-linecap:butt;stroke-linejoin:miter;stroke-opacity:1" d="M 991.581,476.802 987.163,454.708 z" id="boundary" inkscape:connector-curvature="0" />
	<path style="fill:none;stroke:red;stroke-width:1px;stroke-linecap:butt;stroke-linejoin:miter;stroke-opacity:1" d="M 585.06,607.154 607.154,602.735 z" id="boundary" inkscape:connector-curvature="0" />
	<path style="fill:none;stroke:red;stroke-width:1px;stroke-linecap:butt;stroke-linejoin:miter;stroke-opacity:1" d="M 629.247,602.735 607.154,602.735 z" id="boundary" inkscape:connector-curvature="0" />
	<path style="fill:none;stroke:red;stroke-width:1px;stroke-linecap:butt;stroke-linejoin:miter;stroke-opacity:1" d="M 562.967,615.991 585.06,607.154 z" id="boundary" inkscape:connector-curvature="0" />
	<path style="fill:none;stroke:red;stroke-width:1px;stroke-linecap:butt;stroke-linejoin:miter;stroke-opacity:1" d="M 562.967,615.991 540.873,622.619 z" id="boundary" inkscape:connector-curvature="0" />
	<path style="fill:none;stroke:red;stroke-width:1px;stroke-linecap:butt;stroke-linejoin:miter;stroke-opacity:1" d="M 759.599,607.154 737.506,611.572 z" id="boundary" inkscape:connector-curvature="0" />
	<path style="fill:none;stroke:red;stroke-width:1px;stroke-linecap:butt;stroke-linejoin:miter;stroke-opacity:1" d="M 651.341,607.154 629.247,602.735 z" id="boundary" inkscape:connector-curvature="0" />
	<path style="fill:none;stroke:red;stroke-width:1px;stroke-linecap:butt;stroke-linejoin:miter;stroke-opacity:1" d="M 759.599,607.154 781.693,607.154 z" id="boundary" inkscape:connector-curvature="0" />
	<path style="fill:none;stroke:red;stroke-width:1px;stroke-linecap:butt;stroke-linejoin:miter;stroke-opacity:1" d="M 803.786,609.363 781.693,607.154 z" id="boundary" inkscape:connector-curvature="0" />
	<path style="fill:none;stroke:red;stroke-width:1px;stroke-linecap:butt;stroke-linejoin:miter;stroke-opacity:1" d="M 845.764,600.526 803.786,609.363 z" id="boundary" inkscape:connector-curvature="0" />
	<path style="fill:none;stroke:red;stroke-width:1px;stroke-linecap:butt;stroke-linejoin:miter;stroke-opacity:1" d="M 651.341,607.154 671.225,618.2 z" id="boundary" inkscape:connector-curvature="0" />
	<path style="fill:none;stroke:red;stroke-width:1px;stroke-linecap:butt;stroke-linejoin:miter;stroke-opacity:1" d="M 737.506,611.572 715.412,615.991 z" id="boundary" inkscape:connector-curvature="0" />
	<path style="fill:none;stroke:red;stroke-width:1px;stroke-linecap:butt;stroke-linejoin:miter;stroke-opacity:1" d="M 693.318,620.41 671.225,618.2 z" id="boundary" inkscape:connector-curvature="0" />
	<path style="fill:none;stroke:red;stroke-width:1px;stroke-linecap:butt;stroke-linejoin:miter;stroke-opacity:1" d="M 518.78,631.457 540.873,622.619 z" id="boundary" inkscape:connector-curvature="0" />
	<path style="fill:none;stroke:red;stroke-width:1px;stroke-linecap:butt;stroke-linejoin:miter;stroke-opacity:1" d="M 693.318,620.41 715.412,615.991 z" id="boundary" inkscape:connector-curvature="0" />
	<path style="fill:none;stroke:red;stroke-width:1px;stroke-linecap:butt;stroke-linejoin:miter;stroke-opacity:1" d="M 812.624,653.55 817.042,675.644 z" id="boundary" inkscape:connector-curvature="0" />
	<path style="fill:none;stroke:red;stroke-width:1px;stroke-linecap:butt;stroke-linejoin:miter;stroke-opacity:1" d="M 812.624,653.55 812.624,631.457 z" id="boundary" inkscape:connector-curvature="0" />
	<path style="fill:none;stroke:red;stroke-width:1px;stroke-linecap:butt;stroke-linejoin:miter;stroke-opacity:1" d="M 843.555,660.178 836.927,686.69 z" id="boundary" inkscape:connector-curvature="0" />
	<path style="fill:none;stroke:red;stroke-width:1px;stroke-linecap:butt;stroke-linejoin:miter;stroke-opacity:1" d="M 836.927,686.69 817.042,675.644 z" id="boundary" inkscape:connector-curvature="0" />
	<path style="fill:none;stroke:red;stroke-width:1px;stroke-linecap:butt;stroke-linejoin:miter;stroke-opacity:1" d="M 850.183,622.619 843.555,660.178 z" id="boundary" inkscape:connector-curvature="0" />
	<path style="fill:none;stroke:red;stroke-width:1px;stroke-linecap:butt;stroke-linejoin:miter;stroke-opacity:1" d="M 912.045,598.316 889.951,598.316 z" id="boundary" inkscape:connector-curvature="0" />
	<path style="fill:none;stroke:red;stroke-width:1px;stroke-linecap:butt;stroke-linejoin:miter;stroke-opacity:1" d="M 889.951,598.316 867.857,598.316 z" id="boundary" inkscape:connector-curvature="0" />
	<path style="fill:none;stroke:red;stroke-width:1px;stroke-linecap:butt;stroke-linejoin:miter;stroke-opacity:1" d="M 991.581,520.989 991.581,543.082 z" id="boundary" inkscape:connector-curvature="0" />
	<path style="fill:none;stroke:red;stroke-width:1px;stroke-linecap:butt;stroke-linejoin:miter;stroke-opacity:1" d="M 991.581,543.082 987.163,565.176 z" id="boundary" inkscape:connector-curvature="0" />
	<path style="fill:none;stroke:red;stroke-width:1px;stroke-linecap:butt;stroke-linejoin:miter;stroke-opacity:1" d="M 991.581,498.895 991.581,520.989 z" id="boundary" inkscape:connector-curvature="0" />
	<path style="fill:none;stroke:red;stroke-width:1px;stroke-linecap:butt;stroke-linejoin:miter;stroke-opacity:1" d="M 991.581,498.895 991.581,476.802 z" id="boundary" inkscape:connector-curvature="0" />
	<path style="fill:none;stroke:red;stroke-width:1px;stroke-linecap:butt;stroke-linejoin:miter;stroke-opacity:1" d="M 987.163,587.269 987.163,565.176 z" id="boundary" inkscape:connector-curvature="0" />
	<path style="fill:none;stroke:red;stroke-width:1px;stroke-linecap:butt;stroke-linejoin:miter;stroke-opacity:1" d="M 934.138,598.316 912.045,598.316 z" id="boundary" inkscape:connector-curvature="0" />
	<path style="fill:none;stroke:red;stroke-width:1px;stroke-linecap:butt;stroke-linejoin:miter;stroke-opacity:1" d="M 987.163,609.363 987.163,587.269 z" id="boundary" inkscape:connector-curvature="0" />
	<path style="fill:none;stroke:red;stroke-width:1px;stroke-linecap:butt;stroke-linejoin:miter;stroke-opacity:1" d="M 867.857,598.316 845.764,600.526 z" id="boundary" inkscape:connector-curvature="0" />
	<path style="fill:none;stroke:red;stroke-width:1px;stroke-linecap:butt;stroke-linejoin:miter;stroke-opacity:1" d="M 934.138,598.316 954.022,609.363 z" id="boundary" inkscape:connector-curvature="0" />
	<path style="fill:none;stroke:red;stroke-width:1px;stroke-linecap:butt;stroke-linejoin:miter;stroke-opacity:1" d="M 954.022,609.363 958.441,631.457 z" id="boundary" inkscape:connector-curvature="0" />
	<path style="fill:none;stroke:red;stroke-width:1px;stroke-linecap:butt;stroke-linejoin:miter;stroke-opacity:1" d="M 958.441,631.457 958.441,653.55 z" id="boundary" inkscape:connector-curvature="0" />
	<path style="fill:none;stroke:red;stroke-width:1px;stroke-linecap:butt;stroke-linejoin:miter;stroke-opacity:1" d="M 987.163,640.294 987.163,609.363 z" id="boundary" inkscape:connector-curvature="0" />
	<path style="fill:none;stroke:red;stroke-width:1px;stroke-linecap:butt;stroke-linejoin:miter;stroke-opacity:1" d="M 982.744,680.062 960.65,675.644 z" id="boundary" inkscape:connector-curvature="0" />
	<path style="fill:none;stroke:red;stroke-width:1px;stroke-linecap:butt;stroke-linejoin:miter;stroke-opacity:1" d="M 960.65,675.644 958.441,653.55 z" id="boundary" inkscape:connector-curvature="0" />
	<path style="fill:none;stroke:red;stroke-width:1px;stroke-linecap:butt;stroke-linejoin:miter;stroke-opacity:1" d="M 987.163,640.294 982.744,680.062 z" id="boundary" inkscape:connector-curvature="0" />
	<circle cx="4" cy="428.196" r="4" fill="#0" id="circle0"/>
	<circle cx="6.20935" cy="450.29" r="4" fill="#0" id="circle1"/>
	<circle cx="15.0468" cy="408.312" r="4" fill="#0" id="circle2"/>
	<circle cx="17.2561" cy="627.038" r="4" fill="#0" id="circle3"/>
	<circle cx="19.4655" cy="467.964" r="4" fill="#0" id="circle4"/>
	<circle cx="21.6748" cy="666.806" r="4" fill="#0" id="circle5"/>
	<circle cx="26.0935" cy="490.058" r="4" fill="#0" id="circle6"/>
	<circle cx="26.0935" cy="600.526" r="4" fill="#0" id="circle7"/>
	<circle cx="28.3029" cy="512.151" r="4" fill="#0" id="circle8"/>
	<circle cx="30.5122" cy="534.245" r="4" fill="#0" id="circle9"/>
	<circle cx="30.5122" cy="556.339" r="4" fill="#0" id="circle10"/>
	<circle cx="30.5122" cy="578.432" r="4" fill="#0" id="circle11"/>
	<circle cx="32.7216" cy="686.69" r="4" fill="#0" id="circle12"/>
	<circle cx="34.931" cy="397.265" r="4" fill="#0" id="circle13"/>
	<circle cx="54.8151" cy="627.038" r="4" fill="#0" id="circle14"/>
	<circle cx="54.8151" cy="649.131" r="4" fill="#0" id="circle15"/>
	<circle cx="54.8151" cy="671.225" r="4" fill="#0" id="circle16"/>
	<circle cx="57.0245" cy="388.428" r="4" fill="#0" id="circle17"/>
	<circle cx="65.8619" cy="607.154" r="4" fill="#0" id="circle18"/>
	<circle cx="79.118" cy="379.59" r="4" fill="#0" id="circle19"/>
	<circle cx="87.9555" cy="607.154" r="4" fill="#0" id="circle20"/>
	<circle cx="101.212" cy="375.171" r="4" fill="#0" id="circle21"/>
	<circle cx="110.049" cy="607.154" r="4" fill="#0" id="circle22"/>
	<circle cx="123.305" cy="370.753" r="4" fill="#0" id="circle23"/>
	<circle cx="132.143" cy="611.572" r="4" fill="#0" id="circle24"/>
	<circle cx="145.399" cy="366.334" r="4" fill="#0" id="circle25"/>
	<circle cx="154.236" cy="615.991" r="4" fill="#0" id="circle26"/>
	<circle cx="167.492" cy="361.915" r="4" fill="#0" id="circle27"/>
	<circle cx="176.33" cy="624.829" r="4" fill="#0" id="circle28"/>
	<circle cx="189.586" cy="357.497" r="4" fill="#0" id="circle29"/>
	<circle cx="196.214" cy="613.782" r="4" fill="#0" id="circle30"/>
	<circle cx="211.679" cy="357.497" r="4" fill="#0" id="circle31"/>
	<circle cx="218.307" cy="604.944" r="4" fill="#0" id="circle32"/>
	<circle cx="233.773" cy="353.078" r="4" fill="#0" id="circle33"/>
	<circle cx="238.192" cy="176.33" r="4" fill="#0" id="circle34"/>
	<circle cx="240.401" cy="602.735" r="4" fill="#0" id="circle35"/>
	<circle cx="242.61" cy="198.423" r="4" fill="#0" id="circle36"/>
	<circle cx="242.61" cy="624.829" r="4" fill="#0" id="circle37"/>
	<circle cx="247.029" cy="154.236" r="4" fill="#0" id="circle38"/>
	<circle cx="247.029" cy="646.922" r="4" fill="#0" id="circle39"/>
	<circle cx="247.029" cy="669.016" r="4" fill="#0" id="circle40"/>
	<circle cx="255.866" cy="353.078" r="4" fill="#0" id="circle41"/>
	<circle cx="258.076" cy="216.098" r="4" fill="#0" id="circle42"/>
	<circle cx="260.285" cy="238.192" r="4" fill="#0" id="circle43"/>
	<circle cx="260.285" cy="260.285" r="4" fill="#0" id="circle44"/>
	<circle cx="260.285" cy="686.69" r="4" fill="#0" id="circle45"/>
	<circle cx="264.704" cy="140.98" r="4" fill="#0" id="circle46"/>
	<circle cx="264.704" cy="282.379" r="4" fill="#0" id="circle47"/>
	<circle cx="264.704" cy="304.472" r="4" fill="#0" id="circle48"/>
	<circle cx="264.704" cy="326.566" r="4" fill="#0" id="circle49"/>
	<circle cx="271.332" cy="662.388" r="4" fill="#0" id="circle50"/>
	<circle cx="275.751" cy="618.2" r="4" fill="#0" id="circle51"/>
	<circle cx="275.751" cy="640.294" r="4" fill="#0" id="circle52"/>
	<circle cx="286.797" cy="132.143" r="4" fill="#0" id="circle53"/>
	<circle cx="297.844" cy="615.991" r="4" fill="#0" id="circle54"/>
	<circle cx="308.891" cy="123.305" r="4" fill="#0" id="circle55"/>
	<circle cx="319.938" cy="620.41" r="4" fill="#0" id="circle56"/>
	<circle cx="330.984" cy="114.468" r="4" fill="#0" id="circle57"/>
	<circle cx="342.031" cy="629.247" r="4" fill="#0" id="circle58"/>
	<circle cx="353.078" cy="110.049" r="4" fill="#0" id="circle59"/>
	<circle cx="364.125" cy="638.085" r="4" fill="#0" id="circle60"/>
	<circle cx="375.171" cy="101.212" r="4" fill="#0" id="circle61"/>
	<circle cx="386.218" cy="642.503" r="4" fill="#0" id="circle62"/>
	<circle cx="397.265" cy="96.7929" r="4" fill="#0" id="circle63"/>
	<circle cx="408.312" cy="646.922" r="4" fill="#0" id="circle64"/>
	<circle cx="419.359" cy="92.3742" r="4" fill="#0" id="circle65"/>
	<circle cx="430.405" cy="646.922" r="4" fill="#0" id="circle66"/>
	<circle cx="441.452" cy="87.9555" r="4" fill="#0" id="circle67"/>
	<circle cx="452.499" cy="646.922" r="4" fill="#0" id="circle68"/>
	<circle cx="463.546" cy="83.5367" r="4" fill="#0" id="circle69"/>
	<circle cx="474.592" cy="642.503" r="4" fill="#0" id="circle70"/>
	<circle cx="485.639" cy="79.118" r="4" fill="#0" id="circle71"/>
	<circle cx="496.686" cy="638.085" r="4" fill="#0" id="circle72"/>
	<circle cx="503.314" cy="61.4432" r="4" fill="#0" id="circle73"/>
	<circle cx="518.78" cy="631.457" r="4" fill="#0" id="circle74"/>
	<circle cx="525.408" cy="52.6058" r="4" fill="#0" id="circle75"/>
	<circle cx="540.873" cy="622.619" r="4" fill="#0" id="circle76"/>
	<circle cx="547.501" cy="48.1871" r="4" fill="#0" id="circle77"/>
	<circle cx="562.967" cy="615.991" r="4" fill="#0" id="circle78"/>
	<circle cx="569.595" cy="34.931" r="4" fill="#0" id="circle79"/>
	<circle cx="582.851" cy="17.2561" r="4" fill="#0" id="circle80"/>
	<circle cx="585.06" cy="607.154" r="4" fill="#0" id="circle81"/>
	<circle cx="600.526" cy="4" r="4" fill="#0" id="circle82"/>
	<circle cx="607.154" cy="602.735" r="4" fill="#0" id="circle83"/>
	<circle cx="622.619" cy="4" r="4" fill="#0" id="circle84"/>
	<circle cx="629.247" cy="602.735" r="4" fill="#0" id="circle85"/>
	<circle cx="640.294" cy="17.2561" r="4" fill="#0" id="circle86"/>
	<circle cx="651.341" cy="607.154" r="4" fill="#0" id="circle87"/>
	<circle cx="655.759" cy="34.931" r="4" fill="#0" id="circle88"/>
	<circle cx="671.225" cy="618.2" r="4" fill="#0" id="circle89"/>
	<circle cx="675.644" cy="45.9777" r="4" fill="#0" id="circle90"/>
	<circle cx="693.318" cy="620.41" r="4" fill="#0" id="circle91"/>
	<circle cx="697.737" cy="52.6058" r="4" fill="#0" id="circle92"/>
	<circle cx="715.412" cy="615.991" r="4" fill="#0" id="circle93"/>
	<circle cx="719.831" cy="61.4432" r="4" fill="#0" id="circle94"/>
	<circle cx="733.087" cy="79.118" r="4" fill="#0" id="circle95"/>
	<circle cx="737.506" cy="611.572" r="4" fill="#0" id="circle96"/>
	<circle cx="755.18" cy="83.5367" r="4" fill="#0" id="circle97"/>
	<circle cx="759.599" cy="607.154" r="4" fill="#0" id="circle98"/>
	<circle cx="777.274" cy="85.7461" r="4" fill="#0" id="circle99"/>
	<circle cx="781.693" cy="607.154" r="4" fill="#0" id="circle100"/>
	<circle cx="799.367" cy="87.9555" r="4" fill="#0" id="circle101"/>
	<circle cx="803.786" cy="609.363" r="4" fill="#0" id="circle102"/>
	<circle cx="812.624" cy="631.457" r="4" fill="#0" id="circle103"/>
	<circle cx="812.624" cy="653.55" r="4" fill="#0" id="circle104"/>
	<circle cx="817.042" cy="675.644" r="4" fill="#0" id="circle105"/>
	<circle cx="821.461" cy="92.3742" r="4" fill="#0" id="circle106"/>
	<circle cx="836.927" cy="686.69" r="4" fill="#0" id="circle107"/>
	<circle cx="843.555" cy="99.0022" r="4" fill="#0" id="circle108"/>
	<circle cx="843.555" cy="660.178" r="4" fill="#0" id="circle109"/>
	<circle cx="845.764" cy="600.526" r="4" fill="#0" id="circle110"/>
	<circle cx="850.183" cy="622.619" r="4" fill="#0" id="circle111"/>
	<circle cx="865.648" cy="105.63" r="4" fill="#0" id="circle112"/>
	<circle cx="867.857" cy="598.316" r="4" fill="#0" id="circle113"/>
	<circle cx="887.742" cy="110.049" r="4" fill="#0" id="circle114"/>
	<circle cx="889.951" cy="598.316" r="4" fill="#0" id="circle115"/>
	<circle cx="909.835" cy="116.677" r="4" fill="#0" id="circle116"/>
	<circle cx="912.045" cy="598.316" r="4" fill="#0" id="circle117"/>
	<circle cx="931.929" cy="123.305" r="4" fill="#0" id="circle118"/>
	<circle cx="934.138" cy="598.316" r="4" fill="#0" id="circle119"/>
	<circle cx="954.022" cy="132.143" r="4" fill="#0" id="circle120"/>
	<circle cx="954.022" cy="609.363" r="4" fill="#0" id="circle121"/>
	<circle cx="958.441" cy="631.457" r="4" fill="#0" id="circle122"/>
	<circle cx="958.441" cy="653.55" r="4" fill="#0" id="circle123"/>
	<circle cx="960.65" cy="675.644" r="4" fill="#0" id="circle124"/>
	<circle cx="973.906" cy="143.189" r="4" fill="#0" id="circle125"/>
	<circle cx="973.906" cy="233.773" r="4" fill="#0" id="circle126"/>
	<circle cx="973.906" cy="255.866" r="4" fill="#0" id="circle127"/>
	<circle cx="973.906" cy="277.96" r="4" fill="#0" id="circle128"/>
	<circle cx="973.906" cy="300.053" r="4" fill="#0" id="circle129"/>
	<circle cx="973.906" cy="322.147" r="4" fill="#0" id="circle130"/>
	<circle cx="973.906" cy="344.241" r="4" fill="#0" id="circle131"/>
	<circle cx="973.906" cy="366.334" r="4" fill="#0" id="circle132"/>
	<circle cx="978.325" cy="211.679" r="4" fill="#0" id="circle133"/>
	<circle cx="978.325" cy="388.428" r="4" fill="#0" id="circle134"/>
	<circle cx="982.744" cy="410.521" r="4" fill="#0" id="circle135"/>
	<circle cx="982.744" cy="432.615" r="4" fill="#0" id="circle136"/>
	<circle cx="982.744" cy="680.062" r="4" fill="#0" id="circle137"/>
	<circle cx="987.163" cy="454.708" r="4" fill="#0" id="circle138"/>
	<circle cx="987.163" cy="565.176" r="4" fill="#0" id="circle139"/>
	<circle cx="987.163" cy="587.269" r="4" fill="#0" id="circle140"/>
	<circle cx="987.163" cy="609.363" r="4" fill="#0" id="circle141"/>
	<circle cx="987.163" cy="640.294" r="4" fill="#0" id="circle142"/>
	<circle cx="991.581" cy="158.655" r="4" fill="#0" id="circle143"/>
	<circle cx="991.581" cy="476.802" r="4" fill="#0" id="circle144"/>
	<circle cx="991.581" cy="498.895" r="4" fill="#0" id="circle145"/>
	<circle cx="991.581" cy="520.989" r="4" fill="#0" id="circle146"/>
	<circle cx="991.581" cy="543.082" r="4" fill="#0" id="circle147"/>
	<circle cx="996" cy="180.748" r="4" fill="#0" id="circle148"/>
	</g>
</svg>