<?xml version="1.0" encoding="UTF-8" standalone="no"?>
<!-- Created with CurveBenchmark -->
<svg
	xmlns:dc="http://purl.org/dc/elements/1.1/"
	xmlns:cc="http://creativecommons.org/ns#"
	xmlns:rdf="http://www.w3.org/1999/02/22-rdf-syntax-ns#"
	xmlns:svg="http://www.w3.org/2000/svg"
	xmlns="http://www.w3.org/2000/svg"
	xmlns:sodipodi="http://sodipodi.sourceforge.net/DTD/sodipodi-0.dtd"
	xmlns:inkscape="http://www.inkscape.org/namespaces/inkscape"
	width="1000"
	height="1000"
	id="svg2"
	version="1.1"
	sodipodi:docname="manifold/gathan1-hammer-3.png.txt">
<defs
	id="defs4" />
<metadata
	id="metadata7">
	<rdf:RDF>
		<cc:Work
			rdf:about="">
			<dc:format>image/svg+xml</dc:format>
			<dc:type
				rdf:resource="http://purl.org/dc/dcmitype/StillImage" />
			<dc:title></dc:title>
		</cc:Work>
	</rdf:RDF>
</metadata>
<g
	inkscape:label="Layer 1"
	inkscape:groupmode="layer"
	id="layer1">
	<path style="fill:none;stroke:red;stroke-width:1px;stroke-linecap:butt;stroke-linejoin:miter;stroke-opacity:1" d="M 72.6836,60.5118 78.7695,53.5565 z" id="boundary" inkscape:connector-curvature="0" />
	<path style="fill:none;stroke:red;stroke-width:1px;stroke-linecap:butt;stroke-linejoin:miter;stroke-opacity:1" d="M 85.7248,47.4706 78.7695,53.5565 z" id="boundary" inkscape:connector-curvature="0" />
	<path style="fill:none;stroke:red;stroke-width:1px;stroke-linecap:butt;stroke-linejoin:miter;stroke-opacity:1" d="M 91.8107,40.5153 85.7248,47.4706 z" id="boundary" inkscape:connector-curvature="0" />
	<path style="fill:none;stroke:red;stroke-width:1px;stroke-linecap:butt;stroke-linejoin:miter;stroke-opacity:1" d="M 98.766,34.4294 91.8107,40.5153 z" id="boundary" inkscape:connector-curvature="0" />
	<path style="fill:none;stroke:red;stroke-width:1px;stroke-linecap:butt;stroke-linejoin:miter;stroke-opacity:1" d="M 104.852,27.4741 98.766,34.4294 z" id="boundary" inkscape:connector-curvature="0" />
	<path style="fill:none;stroke:red;stroke-width:1px;stroke-linecap:butt;stroke-linejoin:miter;stroke-opacity:1" d="M 45.7318,86.5942 52.6871,79.6389 z" id="boundary" inkscape:connector-curvature="0" />
	<path style="fill:none;stroke:red;stroke-width:1px;stroke-linecap:butt;stroke-linejoin:miter;stroke-opacity:1" d="M 59.6424,73.553 65.7283,66.5977 z" id="boundary" inkscape:connector-curvature="0" />
	<path style="fill:none;stroke:red;stroke-width:1px;stroke-linecap:butt;stroke-linejoin:miter;stroke-opacity:1" d="M 59.6424,73.553 52.6871,79.6389 z" id="boundary" inkscape:connector-curvature="0" />
	<path style="fill:none;stroke:red;stroke-width:1px;stroke-linecap:butt;stroke-linejoin:miter;stroke-opacity:1" d="M 72.6836,60.5118 65.7283,66.5977 z" id="boundary" inkscape:connector-curvature="0" />
	<path style="fill:none;stroke:red;stroke-width:1px;stroke-linecap:butt;stroke-linejoin:miter;stroke-opacity:1" d="M 128.326,12.6941 137.02,12.6941 z" id="boundary" inkscape:connector-curvature="0" />
	<path style="fill:none;stroke:red;stroke-width:1px;stroke-linecap:butt;stroke-linejoin:miter;stroke-opacity:1" d="M 121.371,19.6494 128.326,12.6941 z" id="boundary" inkscape:connector-curvature="0" />
	<path style="fill:none;stroke:red;stroke-width:1px;stroke-linecap:butt;stroke-linejoin:miter;stroke-opacity:1" d="M 144.845,8.34706 137.02,12.6941 z" id="boundary" inkscape:connector-curvature="0" />
	<path style="fill:none;stroke:red;stroke-width:1px;stroke-linecap:butt;stroke-linejoin:miter;stroke-opacity:1" d="M 144.845,8.34706 153.539,8.34706 z" id="boundary" inkscape:connector-curvature="0" />
	<path style="fill:none;stroke:red;stroke-width:1px;stroke-linecap:butt;stroke-linejoin:miter;stroke-opacity:1" d="M 113.546,25.7353 104.852,27.4741 z" id="boundary" inkscape:connector-curvature="0" />
	<path style="fill:none;stroke:red;stroke-width:1px;stroke-linecap:butt;stroke-linejoin:miter;stroke-opacity:1" d="M 121.371,19.6494 113.546,25.7353 z" id="boundary" inkscape:connector-curvature="0" />
	<path style="fill:none;stroke:red;stroke-width:1px;stroke-linecap:butt;stroke-linejoin:miter;stroke-opacity:1" d="M 157.017,74.4224 155.278,85.7248 z" id="boundary" inkscape:connector-curvature="0" />
	<path style="fill:none;stroke:red;stroke-width:1px;stroke-linecap:butt;stroke-linejoin:miter;stroke-opacity:1" d="M 155.278,85.7248 148.323,91.8107 z" id="boundary" inkscape:connector-curvature="0" />
	<path style="fill:none;stroke:red;stroke-width:1px;stroke-linecap:butt;stroke-linejoin:miter;stroke-opacity:1" d="M 148.323,100.505 148.323,91.8107 z" id="boundary" inkscape:connector-curvature="0" />
	<path style="fill:none;stroke:red;stroke-width:1px;stroke-linecap:butt;stroke-linejoin:miter;stroke-opacity:1" d="M 30.0824,119.632 30.0824,128.326 z" id="boundary" inkscape:connector-curvature="0" />
	<path style="fill:none;stroke:red;stroke-width:1px;stroke-linecap:butt;stroke-linejoin:miter;stroke-opacity:1" d="M 30.0824,128.326 30.0824,137.02 z" id="boundary" inkscape:connector-curvature="0" />
	<path style="fill:none;stroke:red;stroke-width:1px;stroke-linecap:butt;stroke-linejoin:miter;stroke-opacity:1" d="M 30.0824,119.632 34.4294,106.591 z" id="boundary" inkscape:connector-curvature="0" />
	<path style="fill:none;stroke:red;stroke-width:1px;stroke-linecap:butt;stroke-linejoin:miter;stroke-opacity:1" d="M 25.7353,163.103 25.7353,154.408 z" id="boundary" inkscape:connector-curvature="0" />
	<path style="fill:none;stroke:red;stroke-width:1px;stroke-linecap:butt;stroke-linejoin:miter;stroke-opacity:1" d="M 25.7353,154.408 30.0824,145.714 z" id="boundary" inkscape:connector-curvature="0" />
	<path style="fill:none;stroke:red;stroke-width:1px;stroke-linecap:butt;stroke-linejoin:miter;stroke-opacity:1" d="M 25.7353,163.103 25.7353,171.797 z" id="boundary" inkscape:connector-curvature="0" />
	<path style="fill:none;stroke:red;stroke-width:1px;stroke-linecap:butt;stroke-linejoin:miter;stroke-opacity:1" d="M 25.7353,180.491 25.7353,189.185 z" id="boundary" inkscape:connector-curvature="0" />
	<path style="fill:none;stroke:red;stroke-width:1px;stroke-linecap:butt;stroke-linejoin:miter;stroke-opacity:1" d="M 25.7353,197.879 25.7353,189.185 z" id="boundary" inkscape:connector-curvature="0" />
	<path style="fill:none;stroke:red;stroke-width:1px;stroke-linecap:butt;stroke-linejoin:miter;stroke-opacity:1" d="M 25.7353,180.491 25.7353,171.797 z" id="boundary" inkscape:connector-curvature="0" />
	<path style="fill:none;stroke:red;stroke-width:1px;stroke-linecap:butt;stroke-linejoin:miter;stroke-opacity:1" d="M 30.0824,137.02 30.0824,145.714 z" id="boundary" inkscape:connector-curvature="0" />
	<path style="fill:none;stroke:red;stroke-width:1px;stroke-linecap:butt;stroke-linejoin:miter;stroke-opacity:1" d="M 34.4294,106.591 38.7765,93.5495 z" id="boundary" inkscape:connector-curvature="0" />
	<path style="fill:none;stroke:red;stroke-width:1px;stroke-linecap:butt;stroke-linejoin:miter;stroke-opacity:1" d="M 38.7765,93.5495 45.7318,86.5942 z" id="boundary" inkscape:connector-curvature="0" />
	<path style="fill:none;stroke:red;stroke-width:1px;stroke-linecap:butt;stroke-linejoin:miter;stroke-opacity:1" d="M 161.364,134.412 152.67,134.412 z" id="boundary" inkscape:connector-curvature="0" />
	<path style="fill:none;stroke:red;stroke-width:1px;stroke-linecap:butt;stroke-linejoin:miter;stroke-opacity:1" d="M 143.975,113.546 139.628,126.587 z" id="boundary" inkscape:connector-curvature="0" />
	<path style="fill:none;stroke:red;stroke-width:1px;stroke-linecap:butt;stroke-linejoin:miter;stroke-opacity:1" d="M 148.323,100.505 143.975,113.546 z" id="boundary" inkscape:connector-curvature="0" />
	<path style="fill:none;stroke:red;stroke-width:1px;stroke-linecap:butt;stroke-linejoin:miter;stroke-opacity:1" d="M 139.628,126.587 143.975,134.412 z" id="boundary" inkscape:connector-curvature="0" />
	<path style="fill:none;stroke:red;stroke-width:1px;stroke-linecap:butt;stroke-linejoin:miter;stroke-opacity:1" d="M 148.323,204.834 139.628,204.834 z" id="boundary" inkscape:connector-curvature="0" />
	<path style="fill:none;stroke:red;stroke-width:1px;stroke-linecap:butt;stroke-linejoin:miter;stroke-opacity:1" d="M 152.67,134.412 143.975,134.412 z" id="boundary" inkscape:connector-curvature="0" />
	<path style="fill:none;stroke:red;stroke-width:1px;stroke-linecap:butt;stroke-linejoin:miter;stroke-opacity:1" d="M 25.7353,206.573 25.7353,197.879 z" id="boundary" inkscape:connector-curvature="0" />
	<path style="fill:none;stroke:red;stroke-width:1px;stroke-linecap:butt;stroke-linejoin:miter;stroke-opacity:1" d="M 178.752,35.2989 172.666,46.6012 z" id="boundary" inkscape:connector-curvature="0" />
	<path style="fill:none;stroke:red;stroke-width:1px;stroke-linecap:butt;stroke-linejoin:miter;stroke-opacity:1" d="M 170.927,8.34706 162.233,8.34706 z" id="boundary" inkscape:connector-curvature="0" />
	<path style="fill:none;stroke:red;stroke-width:1px;stroke-linecap:butt;stroke-linejoin:miter;stroke-opacity:1" d="M 178.752,4 170.927,8.34706 z" id="boundary" inkscape:connector-curvature="0" />
	<path style="fill:none;stroke:red;stroke-width:1px;stroke-linecap:butt;stroke-linejoin:miter;stroke-opacity:1" d="M 222.223,134.412 213.528,134.412 z" id="boundary" inkscape:connector-curvature="0" />
	<path style="fill:none;stroke:red;stroke-width:1px;stroke-linecap:butt;stroke-linejoin:miter;stroke-opacity:1" d="M 162.233,8.34706 153.539,8.34706 z" id="boundary" inkscape:connector-curvature="0" />
	<path style="fill:none;stroke:red;stroke-width:1px;stroke-linecap:butt;stroke-linejoin:miter;stroke-opacity:1" d="M 157.017,74.4224 161.364,61.3812 z" id="boundary" inkscape:connector-curvature="0" />
	<path style="fill:none;stroke:red;stroke-width:1px;stroke-linecap:butt;stroke-linejoin:miter;stroke-opacity:1" d="M 161.364,61.3812 168.319,55.2954 z" id="boundary" inkscape:connector-curvature="0" />
	<path style="fill:none;stroke:red;stroke-width:1px;stroke-linecap:butt;stroke-linejoin:miter;stroke-opacity:1" d="M 170.058,134.412 161.364,134.412 z" id="boundary" inkscape:connector-curvature="0" />
	<path style="fill:none;stroke:red;stroke-width:1px;stroke-linecap:butt;stroke-linejoin:miter;stroke-opacity:1" d="M 178.752,134.412 170.058,134.412 z" id="boundary" inkscape:connector-curvature="0" />
	<path style="fill:none;stroke:red;stroke-width:1px;stroke-linecap:butt;stroke-linejoin:miter;stroke-opacity:1" d="M 172.666,46.6012 168.319,55.2954 z" id="boundary" inkscape:connector-curvature="0" />
	<path style="fill:none;stroke:red;stroke-width:1px;stroke-linecap:butt;stroke-linejoin:miter;stroke-opacity:1" d="M 185.707,29.213 178.752,35.2989 z" id="boundary" inkscape:connector-curvature="0" />
	<path style="fill:none;stroke:red;stroke-width:1px;stroke-linecap:butt;stroke-linejoin:miter;stroke-opacity:1" d="M 190.054,20.5188 185.707,29.213 z" id="boundary" inkscape:connector-curvature="0" />
	<path style="fill:none;stroke:red;stroke-width:1px;stroke-linecap:butt;stroke-linejoin:miter;stroke-opacity:1" d="M 187.446,6.60824 190.054,20.5188 z" id="boundary" inkscape:connector-curvature="0" />
	<path style="fill:none;stroke:red;stroke-width:1px;stroke-linecap:butt;stroke-linejoin:miter;stroke-opacity:1" d="M 178.752,4 187.446,6.60824 z" id="boundary" inkscape:connector-curvature="0" />
	<path style="fill:none;stroke:red;stroke-width:1px;stroke-linecap:butt;stroke-linejoin:miter;stroke-opacity:1" d="M 187.446,134.412 178.752,134.412 z" id="boundary" inkscape:connector-curvature="0" />
	<path style="fill:none;stroke:red;stroke-width:1px;stroke-linecap:butt;stroke-linejoin:miter;stroke-opacity:1" d="M 187.446,134.412 196.14,134.412 z" id="boundary" inkscape:connector-curvature="0" />
	<path style="fill:none;stroke:red;stroke-width:1px;stroke-linecap:butt;stroke-linejoin:miter;stroke-opacity:1" d="M 204.834,134.412 196.14,134.412 z" id="boundary" inkscape:connector-curvature="0" />
	<path style="fill:none;stroke:red;stroke-width:1px;stroke-linecap:butt;stroke-linejoin:miter;stroke-opacity:1" d="M 213.528,134.412 204.834,134.412 z" id="boundary" inkscape:connector-curvature="0" />
	<path style="fill:none;stroke:red;stroke-width:1px;stroke-linecap:butt;stroke-linejoin:miter;stroke-opacity:1" d="M 230.917,134.412 222.223,134.412 z" id="boundary" inkscape:connector-curvature="0" />
	<path style="fill:none;stroke:red;stroke-width:1px;stroke-linecap:butt;stroke-linejoin:miter;stroke-opacity:1" d="M 230.917,134.412 239.611,134.412 z" id="boundary" inkscape:connector-curvature="0" />
	<path style="fill:none;stroke:red;stroke-width:1px;stroke-linecap:butt;stroke-linejoin:miter;stroke-opacity:1" d="M 248.305,134.412 239.611,134.412 z" id="boundary" inkscape:connector-curvature="0" />
	<path style="fill:none;stroke:red;stroke-width:1px;stroke-linecap:butt;stroke-linejoin:miter;stroke-opacity:1" d="M 248.305,134.412 256.999,134.412 z" id="boundary" inkscape:connector-curvature="0" />
	<path style="fill:none;stroke:red;stroke-width:1px;stroke-linecap:butt;stroke-linejoin:miter;stroke-opacity:1" d="M 265.693,134.412 256.999,134.412 z" id="boundary" inkscape:connector-curvature="0" />
	<path style="fill:none;stroke:red;stroke-width:1px;stroke-linecap:butt;stroke-linejoin:miter;stroke-opacity:1" d="M 265.693,134.412 274.387,134.412 z" id="boundary" inkscape:connector-curvature="0" />
	<path style="fill:none;stroke:red;stroke-width:1px;stroke-linecap:butt;stroke-linejoin:miter;stroke-opacity:1" d="M 283.082,134.412 274.387,134.412 z" id="boundary" inkscape:connector-curvature="0" />
	<path style="fill:none;stroke:red;stroke-width:1px;stroke-linecap:butt;stroke-linejoin:miter;stroke-opacity:1" d="M 291.776,134.412 283.082,134.412 z" id="boundary" inkscape:connector-curvature="0" />
	<path style="fill:none;stroke:red;stroke-width:1px;stroke-linecap:butt;stroke-linejoin:miter;stroke-opacity:1" d="M 291.776,134.412 300.47,134.412 z" id="boundary" inkscape:connector-curvature="0" />
	<path style="fill:none;stroke:red;stroke-width:1px;stroke-linecap:butt;stroke-linejoin:miter;stroke-opacity:1" d="M 309.164,134.412 300.47,134.412 z" id="boundary" inkscape:connector-curvature="0" />
	<path style="fill:none;stroke:red;stroke-width:1px;stroke-linecap:butt;stroke-linejoin:miter;stroke-opacity:1" d="M 309.164,134.412 317.858,134.412 z" id="boundary" inkscape:connector-curvature="0" />
	<path style="fill:none;stroke:red;stroke-width:1px;stroke-linecap:butt;stroke-linejoin:miter;stroke-opacity:1" d="M 326.552,134.412 317.858,134.412 z" id="boundary" inkscape:connector-curvature="0" />
	<path style="fill:none;stroke:red;stroke-width:1px;stroke-linecap:butt;stroke-linejoin:miter;stroke-opacity:1" d="M 335.246,134.412 326.552,134.412 z" id="boundary" inkscape:connector-curvature="0" />
	<path style="fill:none;stroke:red;stroke-width:1px;stroke-linecap:butt;stroke-linejoin:miter;stroke-opacity:1" d="M 335.246,134.412 343.94,134.412 z" id="boundary" inkscape:connector-curvature="0" />
	<path style="fill:none;stroke:red;stroke-width:1px;stroke-linecap:butt;stroke-linejoin:miter;stroke-opacity:1" d="M 352.635,134.412 343.94,134.412 z" id="boundary" inkscape:connector-curvature="0" />
	<path style="fill:none;stroke:red;stroke-width:1px;stroke-linecap:butt;stroke-linejoin:miter;stroke-opacity:1" d="M 352.635,134.412 361.329,134.412 z" id="boundary" inkscape:connector-curvature="0" />
	<path style="fill:none;stroke:red;stroke-width:1px;stroke-linecap:butt;stroke-linejoin:miter;stroke-opacity:1" d="M 370.023,134.412 361.329,134.412 z" id="boundary" inkscape:connector-curvature="0" />
	<path style="fill:none;stroke:red;stroke-width:1px;stroke-linecap:butt;stroke-linejoin:miter;stroke-opacity:1" d="M 378.717,134.412 370.023,134.412 z" id="boundary" inkscape:connector-curvature="0" />
	<path style="fill:none;stroke:red;stroke-width:1px;stroke-linecap:butt;stroke-linejoin:miter;stroke-opacity:1" d="M 387.411,134.412 378.717,134.412 z" id="boundary" inkscape:connector-curvature="0" />
	<path style="fill:none;stroke:red;stroke-width:1px;stroke-linecap:butt;stroke-linejoin:miter;stroke-opacity:1" d="M 4,263.085 4,254.391 z" id="boundary" inkscape:connector-curvature="0" />
	<path style="fill:none;stroke:red;stroke-width:1px;stroke-linecap:butt;stroke-linejoin:miter;stroke-opacity:1" d="M 4,254.391 8.34706,245.697 z" id="boundary" inkscape:connector-curvature="0" />
	<path style="fill:none;stroke:red;stroke-width:1px;stroke-linecap:butt;stroke-linejoin:miter;stroke-opacity:1" d="M 4,280.473 4,271.779 z" id="boundary" inkscape:connector-curvature="0" />
	<path style="fill:none;stroke:red;stroke-width:1px;stroke-linecap:butt;stroke-linejoin:miter;stroke-opacity:1" d="M 4,271.779 4,263.085 z" id="boundary" inkscape:connector-curvature="0" />
	<path style="fill:none;stroke:red;stroke-width:1px;stroke-linecap:butt;stroke-linejoin:miter;stroke-opacity:1" d="M 8.34706,314.38 4,306.556 z" id="boundary" inkscape:connector-curvature="0" />
	<path style="fill:none;stroke:red;stroke-width:1px;stroke-linecap:butt;stroke-linejoin:miter;stroke-opacity:1" d="M 4,306.556 4,297.862 z" id="boundary" inkscape:connector-curvature="0" />
	<path style="fill:none;stroke:red;stroke-width:1px;stroke-linecap:butt;stroke-linejoin:miter;stroke-opacity:1" d="M 4,297.862 4,289.167 z" id="boundary" inkscape:connector-curvature="0" />
	<path style="fill:none;stroke:red;stroke-width:1px;stroke-linecap:butt;stroke-linejoin:miter;stroke-opacity:1" d="M 4,289.167 4,280.473 z" id="boundary" inkscape:connector-curvature="0" />
	<path style="fill:none;stroke:red;stroke-width:1px;stroke-linecap:butt;stroke-linejoin:miter;stroke-opacity:1" d="M 8.34706,245.697 15.3024,238.741 z" id="boundary" inkscape:connector-curvature="0" />
	<path style="fill:none;stroke:red;stroke-width:1px;stroke-linecap:butt;stroke-linejoin:miter;stroke-opacity:1" d="M 25.7353,206.573 25.7353,215.267 z" id="boundary" inkscape:connector-curvature="0" />
	<path style="fill:none;stroke:red;stroke-width:1px;stroke-linecap:butt;stroke-linejoin:miter;stroke-opacity:1" d="M 139.628,222.223 139.628,213.528 z" id="boundary" inkscape:connector-curvature="0" />
	<path style="fill:none;stroke:red;stroke-width:1px;stroke-linecap:butt;stroke-linejoin:miter;stroke-opacity:1" d="M 139.628,204.834 139.628,213.528 z" id="boundary" inkscape:connector-curvature="0" />
	<path style="fill:none;stroke:red;stroke-width:1px;stroke-linecap:butt;stroke-linejoin:miter;stroke-opacity:1" d="M 22.2577,231.786 15.3024,238.741 z" id="boundary" inkscape:connector-curvature="0" />
	<path style="fill:none;stroke:red;stroke-width:1px;stroke-linecap:butt;stroke-linejoin:miter;stroke-opacity:1" d="M 25.7353,215.267 22.2577,231.786 z" id="boundary" inkscape:connector-curvature="0" />
	<path style="fill:none;stroke:red;stroke-width:1px;stroke-linecap:butt;stroke-linejoin:miter;stroke-opacity:1" d="M 143.975,230.047 139.628,222.223 z" id="boundary" inkscape:connector-curvature="0" />
	<path style="fill:none;stroke:red;stroke-width:1px;stroke-linecap:butt;stroke-linejoin:miter;stroke-opacity:1" d="M 150.931,235.264 143.975,230.047 z" id="boundary" inkscape:connector-curvature="0" />
	<path style="fill:none;stroke:red;stroke-width:1px;stroke-linecap:butt;stroke-linejoin:miter;stroke-opacity:1" d="M 148.323,204.834 157.017,204.834 z" id="boundary" inkscape:connector-curvature="0" />
	<path style="fill:none;stroke:red;stroke-width:1px;stroke-linecap:butt;stroke-linejoin:miter;stroke-opacity:1" d="M 17.9106,329.16 12.6941,322.205 z" id="boundary" inkscape:connector-curvature="0" />
	<path style="fill:none;stroke:red;stroke-width:1px;stroke-linecap:butt;stroke-linejoin:miter;stroke-opacity:1" d="M 32.6906,339.593 24.8659,335.246 z" id="boundary" inkscape:connector-curvature="0" />
	<path style="fill:none;stroke:red;stroke-width:1px;stroke-linecap:butt;stroke-linejoin:miter;stroke-opacity:1" d="M 24.8659,335.246 17.9106,329.16 z" id="boundary" inkscape:connector-curvature="0" />
	<path style="fill:none;stroke:red;stroke-width:1px;stroke-linecap:butt;stroke-linejoin:miter;stroke-opacity:1" d="M 49.2095,343.94 40.5153,343.94 z" id="boundary" inkscape:connector-curvature="0" />
	<path style="fill:none;stroke:red;stroke-width:1px;stroke-linecap:butt;stroke-linejoin:miter;stroke-opacity:1" d="M 40.5153,343.94 32.6906,339.593 z" id="boundary" inkscape:connector-curvature="0" />
	<path style="fill:none;stroke:red;stroke-width:1px;stroke-linecap:butt;stroke-linejoin:miter;stroke-opacity:1" d="M 12.6941,322.205 8.34706,314.38 z" id="boundary" inkscape:connector-curvature="0" />
	<path style="fill:none;stroke:red;stroke-width:1px;stroke-linecap:butt;stroke-linejoin:miter;stroke-opacity:1" d="M 66.5977,343.94 57.9036,343.94 z" id="boundary" inkscape:connector-curvature="0" />
	<path style="fill:none;stroke:red;stroke-width:1px;stroke-linecap:butt;stroke-linejoin:miter;stroke-opacity:1" d="M 57.9036,343.94 49.2095,343.94 z" id="boundary" inkscape:connector-curvature="0" />
	<path style="fill:none;stroke:red;stroke-width:1px;stroke-linecap:butt;stroke-linejoin:miter;stroke-opacity:1" d="M 75.2918,343.94 66.5977,343.94 z" id="boundary" inkscape:connector-curvature="0" />
	<path style="fill:none;stroke:red;stroke-width:1px;stroke-linecap:butt;stroke-linejoin:miter;stroke-opacity:1" d="M 83.986,343.94 75.2918,343.94 z" id="boundary" inkscape:connector-curvature="0" />
	<path style="fill:none;stroke:red;stroke-width:1px;stroke-linecap:butt;stroke-linejoin:miter;stroke-opacity:1" d="M 143.975,339.593 150.931,333.507 z" id="boundary" inkscape:connector-curvature="0" />
	<path style="fill:none;stroke:red;stroke-width:1px;stroke-linecap:butt;stroke-linejoin:miter;stroke-opacity:1" d="M 101.374,343.94 92.6801,343.94 z" id="boundary" inkscape:connector-curvature="0" />
	<path style="fill:none;stroke:red;stroke-width:1px;stroke-linecap:butt;stroke-linejoin:miter;stroke-opacity:1" d="M 92.6801,343.94 83.986,343.94 z" id="boundary" inkscape:connector-curvature="0" />
	<path style="fill:none;stroke:red;stroke-width:1px;stroke-linecap:butt;stroke-linejoin:miter;stroke-opacity:1" d="M 110.068,343.94 101.374,343.94 z" id="boundary" inkscape:connector-curvature="0" />
	<path style="fill:none;stroke:red;stroke-width:1px;stroke-linecap:butt;stroke-linejoin:miter;stroke-opacity:1" d="M 136.151,343.94 127.457,343.94 z" id="boundary" inkscape:connector-curvature="0" />
	<path style="fill:none;stroke:red;stroke-width:1px;stroke-linecap:butt;stroke-linejoin:miter;stroke-opacity:1" d="M 143.975,339.593 136.151,343.94 z" id="boundary" inkscape:connector-curvature="0" />
	<path style="fill:none;stroke:red;stroke-width:1px;stroke-linecap:butt;stroke-linejoin:miter;stroke-opacity:1" d="M 118.762,343.94 110.068,343.94 z" id="boundary" inkscape:connector-curvature="0" />
	<path style="fill:none;stroke:red;stroke-width:1px;stroke-linecap:butt;stroke-linejoin:miter;stroke-opacity:1" d="M 127.457,343.94 118.762,343.94 z" id="boundary" inkscape:connector-curvature="0" />
	<path style="fill:none;stroke:red;stroke-width:1px;stroke-linecap:butt;stroke-linejoin:miter;stroke-opacity:1" d="M 157.017,242.219 150.931,235.264 z" id="boundary" inkscape:connector-curvature="0" />
	<path style="fill:none;stroke:red;stroke-width:1px;stroke-linecap:butt;stroke-linejoin:miter;stroke-opacity:1" d="M 165.711,204.834 157.017,204.834 z" id="boundary" inkscape:connector-curvature="0" />
	<path style="fill:none;stroke:red;stroke-width:1px;stroke-linecap:butt;stroke-linejoin:miter;stroke-opacity:1" d="M 174.405,204.834 183.099,204.834 z" id="boundary" inkscape:connector-curvature="0" />
	<path style="fill:none;stroke:red;stroke-width:1px;stroke-linecap:butt;stroke-linejoin:miter;stroke-opacity:1" d="M 174.405,204.834 165.711,204.834 z" id="boundary" inkscape:connector-curvature="0" />
	<path style="fill:none;stroke:red;stroke-width:1px;stroke-linecap:butt;stroke-linejoin:miter;stroke-opacity:1" d="M 191.793,204.834 200.487,204.834 z" id="boundary" inkscape:connector-curvature="0" />
	<path style="fill:none;stroke:red;stroke-width:1px;stroke-linecap:butt;stroke-linejoin:miter;stroke-opacity:1" d="M 209.181,204.834 217.876,204.834 z" id="boundary" inkscape:connector-curvature="0" />
	<path style="fill:none;stroke:red;stroke-width:1px;stroke-linecap:butt;stroke-linejoin:miter;stroke-opacity:1" d="M 226.57,204.834 217.876,204.834 z" id="boundary" inkscape:connector-curvature="0" />
	<path style="fill:none;stroke:red;stroke-width:1px;stroke-linecap:butt;stroke-linejoin:miter;stroke-opacity:1" d="M 209.181,204.834 200.487,204.834 z" id="boundary" inkscape:connector-curvature="0" />
	<path style="fill:none;stroke:red;stroke-width:1px;stroke-linecap:butt;stroke-linejoin:miter;stroke-opacity:1" d="M 191.793,204.834 183.099,204.834 z" id="boundary" inkscape:connector-curvature="0" />
	<path style="fill:none;stroke:red;stroke-width:1px;stroke-linecap:butt;stroke-linejoin:miter;stroke-opacity:1" d="M 235.264,204.834 243.958,204.834 z" id="boundary" inkscape:connector-curvature="0" />
	<path style="fill:none;stroke:red;stroke-width:1px;stroke-linecap:butt;stroke-linejoin:miter;stroke-opacity:1" d="M 252.652,204.834 261.346,204.834 z" id="boundary" inkscape:connector-curvature="0" />
	<path style="fill:none;stroke:red;stroke-width:1px;stroke-linecap:butt;stroke-linejoin:miter;stroke-opacity:1" d="M 252.652,204.834 243.958,204.834 z" id="boundary" inkscape:connector-curvature="0" />
	<path style="fill:none;stroke:red;stroke-width:1px;stroke-linecap:butt;stroke-linejoin:miter;stroke-opacity:1" d="M 270.04,204.834 278.734,204.834 z" id="boundary" inkscape:connector-curvature="0" />
	<path style="fill:none;stroke:red;stroke-width:1px;stroke-linecap:butt;stroke-linejoin:miter;stroke-opacity:1" d="M 287.429,204.834 296.123,204.834 z" id="boundary" inkscape:connector-curvature="0" />
	<path style="fill:none;stroke:red;stroke-width:1px;stroke-linecap:butt;stroke-linejoin:miter;stroke-opacity:1" d="M 304.817,204.834 296.123,204.834 z" id="boundary" inkscape:connector-curvature="0" />
	<path style="fill:none;stroke:red;stroke-width:1px;stroke-linecap:butt;stroke-linejoin:miter;stroke-opacity:1" d="M 287.429,204.834 278.734,204.834 z" id="boundary" inkscape:connector-curvature="0" />
	<path style="fill:none;stroke:red;stroke-width:1px;stroke-linecap:butt;stroke-linejoin:miter;stroke-opacity:1" d="M 270.04,204.834 261.346,204.834 z" id="boundary" inkscape:connector-curvature="0" />
	<path style="fill:none;stroke:red;stroke-width:1px;stroke-linecap:butt;stroke-linejoin:miter;stroke-opacity:1" d="M 235.264,204.834 226.57,204.834 z" id="boundary" inkscape:connector-curvature="0" />
	<path style="fill:none;stroke:red;stroke-width:1px;stroke-linecap:butt;stroke-linejoin:miter;stroke-opacity:1" d="M 161.364,250.044 157.017,242.219 z" id="boundary" inkscape:connector-curvature="0" />
	<path style="fill:none;stroke:red;stroke-width:1px;stroke-linecap:butt;stroke-linejoin:miter;stroke-opacity:1" d="M 165.711,257.869 168.319,266.563 z" id="boundary" inkscape:connector-curvature="0" />
	<path style="fill:none;stroke:red;stroke-width:1px;stroke-linecap:butt;stroke-linejoin:miter;stroke-opacity:1" d="M 161.364,250.044 165.711,257.869 z" id="boundary" inkscape:connector-curvature="0" />
	<path style="fill:none;stroke:red;stroke-width:1px;stroke-linecap:butt;stroke-linejoin:miter;stroke-opacity:1" d="M 157.017,326.552 161.364,317.858 z" id="boundary" inkscape:connector-curvature="0" />
	<path style="fill:none;stroke:red;stroke-width:1px;stroke-linecap:butt;stroke-linejoin:miter;stroke-opacity:1" d="M 157.017,326.552 150.931,333.507 z" id="boundary" inkscape:connector-curvature="0" />
	<path style="fill:none;stroke:red;stroke-width:1px;stroke-linecap:butt;stroke-linejoin:miter;stroke-opacity:1" d="M 165.711,309.164 165.711,300.47 z" id="boundary" inkscape:connector-curvature="0" />
	<path style="fill:none;stroke:red;stroke-width:1px;stroke-linecap:butt;stroke-linejoin:miter;stroke-opacity:1" d="M 165.711,300.47 170.058,292.645 z" id="boundary" inkscape:connector-curvature="0" />
	<path style="fill:none;stroke:red;stroke-width:1px;stroke-linecap:butt;stroke-linejoin:miter;stroke-opacity:1" d="M 170.058,275.257 170.058,283.951 z" id="boundary" inkscape:connector-curvature="0" />
	<path style="fill:none;stroke:red;stroke-width:1px;stroke-linecap:butt;stroke-linejoin:miter;stroke-opacity:1" d="M 168.319,266.563 170.058,275.257 z" id="boundary" inkscape:connector-curvature="0" />
	<path style="fill:none;stroke:red;stroke-width:1px;stroke-linecap:butt;stroke-linejoin:miter;stroke-opacity:1" d="M 165.711,309.164 161.364,317.858 z" id="boundary" inkscape:connector-curvature="0" />
	<path style="fill:none;stroke:red;stroke-width:1px;stroke-linecap:butt;stroke-linejoin:miter;stroke-opacity:1" d="M 313.511,204.834 322.205,204.834 z" id="boundary" inkscape:connector-curvature="0" />
	<path style="fill:none;stroke:red;stroke-width:1px;stroke-linecap:butt;stroke-linejoin:miter;stroke-opacity:1" d="M 330.899,204.834 339.593,204.834 z" id="boundary" inkscape:connector-curvature="0" />
	<path style="fill:none;stroke:red;stroke-width:1px;stroke-linecap:butt;stroke-linejoin:miter;stroke-opacity:1" d="M 348.287,204.834 339.593,204.834 z" id="boundary" inkscape:connector-curvature="0" />
	<path style="fill:none;stroke:red;stroke-width:1px;stroke-linecap:butt;stroke-linejoin:miter;stroke-opacity:1" d="M 330.899,204.834 322.205,204.834 z" id="boundary" inkscape:connector-curvature="0" />
	<path style="fill:none;stroke:red;stroke-width:1px;stroke-linecap:butt;stroke-linejoin:miter;stroke-opacity:1" d="M 170.058,283.951 170.058,292.645 z" id="boundary" inkscape:connector-curvature="0" />
	<path style="fill:none;stroke:red;stroke-width:1px;stroke-linecap:butt;stroke-linejoin:miter;stroke-opacity:1" d="M 356.982,204.834 365.676,204.834 z" id="boundary" inkscape:connector-curvature="0" />
	<path style="fill:none;stroke:red;stroke-width:1px;stroke-linecap:butt;stroke-linejoin:miter;stroke-opacity:1" d="M 374.37,204.834 365.676,204.834 z" id="boundary" inkscape:connector-curvature="0" />
	<path style="fill:none;stroke:red;stroke-width:1px;stroke-linecap:butt;stroke-linejoin:miter;stroke-opacity:1" d="M 348.287,204.834 356.982,204.834 z" id="boundary" inkscape:connector-curvature="0" />
	<path style="fill:none;stroke:red;stroke-width:1px;stroke-linecap:butt;stroke-linejoin:miter;stroke-opacity:1" d="M 304.817,204.834 313.511,204.834 z" id="boundary" inkscape:connector-curvature="0" />
	<path style="fill:none;stroke:red;stroke-width:1px;stroke-linecap:butt;stroke-linejoin:miter;stroke-opacity:1" d="M 374.37,204.834 383.064,204.834 z" id="boundary" inkscape:connector-curvature="0" />
	<path style="fill:none;stroke:red;stroke-width:1px;stroke-linecap:butt;stroke-linejoin:miter;stroke-opacity:1" d="M 387.411,134.412 396.105,134.412 z" id="boundary" inkscape:connector-curvature="0" />
	<path style="fill:none;stroke:red;stroke-width:1px;stroke-linecap:butt;stroke-linejoin:miter;stroke-opacity:1" d="M 404.799,134.412 413.493,134.412 z" id="boundary" inkscape:connector-curvature="0" />
	<path style="fill:none;stroke:red;stroke-width:1px;stroke-linecap:butt;stroke-linejoin:miter;stroke-opacity:1" d="M 404.799,134.412 396.105,134.412 z" id="boundary" inkscape:connector-curvature="0" />
	<path style="fill:none;stroke:red;stroke-width:1px;stroke-linecap:butt;stroke-linejoin:miter;stroke-opacity:1" d="M 422.188,134.412 430.882,134.412 z" id="boundary" inkscape:connector-curvature="0" />
	<path style="fill:none;stroke:red;stroke-width:1px;stroke-linecap:butt;stroke-linejoin:miter;stroke-opacity:1" d="M 439.576,134.412 448.27,134.412 z" id="boundary" inkscape:connector-curvature="0" />
	<path style="fill:none;stroke:red;stroke-width:1px;stroke-linecap:butt;stroke-linejoin:miter;stroke-opacity:1" d="M 456.964,134.412 448.27,134.412 z" id="boundary" inkscape:connector-curvature="0" />
	<path style="fill:none;stroke:red;stroke-width:1px;stroke-linecap:butt;stroke-linejoin:miter;stroke-opacity:1" d="M 439.576,134.412 430.882,134.412 z" id="boundary" inkscape:connector-curvature="0" />
	<path style="fill:none;stroke:red;stroke-width:1px;stroke-linecap:butt;stroke-linejoin:miter;stroke-opacity:1" d="M 422.188,134.412 413.493,134.412 z" id="boundary" inkscape:connector-curvature="0" />
	<path style="fill:none;stroke:red;stroke-width:1px;stroke-linecap:butt;stroke-linejoin:miter;stroke-opacity:1" d="M 465.658,134.412 474.352,134.412 z" id="boundary" inkscape:connector-curvature="0" />
	<path style="fill:none;stroke:red;stroke-width:1px;stroke-linecap:butt;stroke-linejoin:miter;stroke-opacity:1" d="M 483.046,134.412 491.741,134.412 z" id="boundary" inkscape:connector-curvature="0" />
	<path style="fill:none;stroke:red;stroke-width:1px;stroke-linecap:butt;stroke-linejoin:miter;stroke-opacity:1" d="M 483.046,134.412 474.352,134.412 z" id="boundary" inkscape:connector-curvature="0" />
	<path style="fill:none;stroke:red;stroke-width:1px;stroke-linecap:butt;stroke-linejoin:miter;stroke-opacity:1" d="M 500.435,134.412 509.129,134.412 z" id="boundary" inkscape:connector-curvature="0" />
	<path style="fill:none;stroke:red;stroke-width:1px;stroke-linecap:butt;stroke-linejoin:miter;stroke-opacity:1" d="M 517.823,134.412 526.517,134.412 z" id="boundary" inkscape:connector-curvature="0" />
	<path style="fill:none;stroke:red;stroke-width:1px;stroke-linecap:butt;stroke-linejoin:miter;stroke-opacity:1" d="M 535.211,134.412 526.517,134.412 z" id="boundary" inkscape:connector-curvature="0" />
	<path style="fill:none;stroke:red;stroke-width:1px;stroke-linecap:butt;stroke-linejoin:miter;stroke-opacity:1" d="M 517.823,134.412 509.129,134.412 z" id="boundary" inkscape:connector-curvature="0" />
	<path style="fill:none;stroke:red;stroke-width:1px;stroke-linecap:butt;stroke-linejoin:miter;stroke-opacity:1" d="M 500.435,134.412 491.741,134.412 z" id="boundary" inkscape:connector-curvature="0" />
	<path style="fill:none;stroke:red;stroke-width:1px;stroke-linecap:butt;stroke-linejoin:miter;stroke-opacity:1" d="M 465.658,134.412 456.964,134.412 z" id="boundary" inkscape:connector-curvature="0" />
	<path style="fill:none;stroke:red;stroke-width:1px;stroke-linecap:butt;stroke-linejoin:miter;stroke-opacity:1" d="M 543.905,134.412 552.599,134.412 z" id="boundary" inkscape:connector-curvature="0" />
	<path style="fill:none;stroke:red;stroke-width:1px;stroke-linecap:butt;stroke-linejoin:miter;stroke-opacity:1" d="M 561.294,134.412 569.988,134.412 z" id="boundary" inkscape:connector-curvature="0" />
	<path style="fill:none;stroke:red;stroke-width:1px;stroke-linecap:butt;stroke-linejoin:miter;stroke-opacity:1" d="M 561.294,134.412 552.599,134.412 z" id="boundary" inkscape:connector-curvature="0" />
	<path style="fill:none;stroke:red;stroke-width:1px;stroke-linecap:butt;stroke-linejoin:miter;stroke-opacity:1" d="M 578.682,134.412 587.376,134.412 z" id="boundary" inkscape:connector-curvature="0" />
	<path style="fill:none;stroke:red;stroke-width:1px;stroke-linecap:butt;stroke-linejoin:miter;stroke-opacity:1" d="M 596.07,134.412 604.764,134.412 z" id="boundary" inkscape:connector-curvature="0" />
	<path style="fill:none;stroke:red;stroke-width:1px;stroke-linecap:butt;stroke-linejoin:miter;stroke-opacity:1" d="M 613.458,134.412 604.764,134.412 z" id="boundary" inkscape:connector-curvature="0" />
	<path style="fill:none;stroke:red;stroke-width:1px;stroke-linecap:butt;stroke-linejoin:miter;stroke-opacity:1" d="M 596.07,134.412 587.376,134.412 z" id="boundary" inkscape:connector-curvature="0" />
	<path style="fill:none;stroke:red;stroke-width:1px;stroke-linecap:butt;stroke-linejoin:miter;stroke-opacity:1" d="M 578.682,134.412 569.988,134.412 z" id="boundary" inkscape:connector-curvature="0" />
	<path style="fill:none;stroke:red;stroke-width:1px;stroke-linecap:butt;stroke-linejoin:miter;stroke-opacity:1" d="M 622.152,134.412 630.847,134.412 z" id="boundary" inkscape:connector-curvature="0" />
	<path style="fill:none;stroke:red;stroke-width:1px;stroke-linecap:butt;stroke-linejoin:miter;stroke-opacity:1" d="M 639.541,134.412 648.235,134.412 z" id="boundary" inkscape:connector-curvature="0" />
	<path style="fill:none;stroke:red;stroke-width:1px;stroke-linecap:butt;stroke-linejoin:miter;stroke-opacity:1" d="M 639.541,134.412 630.847,134.412 z" id="boundary" inkscape:connector-curvature="0" />
	<path style="fill:none;stroke:red;stroke-width:1px;stroke-linecap:butt;stroke-linejoin:miter;stroke-opacity:1" d="M 656.929,134.412 665.623,134.412 z" id="boundary" inkscape:connector-curvature="0" />
	<path style="fill:none;stroke:red;stroke-width:1px;stroke-linecap:butt;stroke-linejoin:miter;stroke-opacity:1" d="M 674.317,134.412 683.011,134.412 z" id="boundary" inkscape:connector-curvature="0" />
	<path style="fill:none;stroke:red;stroke-width:1px;stroke-linecap:butt;stroke-linejoin:miter;stroke-opacity:1" d="M 691.706,134.412 683.011,134.412 z" id="boundary" inkscape:connector-curvature="0" />
	<path style="fill:none;stroke:red;stroke-width:1px;stroke-linecap:butt;stroke-linejoin:miter;stroke-opacity:1" d="M 674.317,134.412 665.623,134.412 z" id="boundary" inkscape:connector-curvature="0" />
	<path style="fill:none;stroke:red;stroke-width:1px;stroke-linecap:butt;stroke-linejoin:miter;stroke-opacity:1" d="M 656.929,134.412 648.235,134.412 z" id="boundary" inkscape:connector-curvature="0" />
	<path style="fill:none;stroke:red;stroke-width:1px;stroke-linecap:butt;stroke-linejoin:miter;stroke-opacity:1" d="M 622.152,134.412 613.458,134.412 z" id="boundary" inkscape:connector-curvature="0" />
	<path style="fill:none;stroke:red;stroke-width:1px;stroke-linecap:butt;stroke-linejoin:miter;stroke-opacity:1" d="M 543.905,134.412 535.211,134.412 z" id="boundary" inkscape:connector-curvature="0" />
	<path style="fill:none;stroke:red;stroke-width:1px;stroke-linecap:butt;stroke-linejoin:miter;stroke-opacity:1" d="M 700.4,134.412 709.094,134.412 z" id="boundary" inkscape:connector-curvature="0" />
	<path style="fill:none;stroke:red;stroke-width:1px;stroke-linecap:butt;stroke-linejoin:miter;stroke-opacity:1" d="M 717.788,134.412 726.482,134.412 z" id="boundary" inkscape:connector-curvature="0" />
	<path style="fill:none;stroke:red;stroke-width:1px;stroke-linecap:butt;stroke-linejoin:miter;stroke-opacity:1" d="M 717.788,134.412 709.094,134.412 z" id="boundary" inkscape:connector-curvature="0" />
	<path style="fill:none;stroke:red;stroke-width:1px;stroke-linecap:butt;stroke-linejoin:miter;stroke-opacity:1" d="M 735.176,134.412 743.87,134.412 z" id="boundary" inkscape:connector-curvature="0" />
	<path style="fill:none;stroke:red;stroke-width:1px;stroke-linecap:butt;stroke-linejoin:miter;stroke-opacity:1" d="M 752.564,134.412 761.259,134.412 z" id="boundary" inkscape:connector-curvature="0" />
	<path style="fill:none;stroke:red;stroke-width:1px;stroke-linecap:butt;stroke-linejoin:miter;stroke-opacity:1" d="M 769.953,134.412 761.259,134.412 z" id="boundary" inkscape:connector-curvature="0" />
	<path style="fill:none;stroke:red;stroke-width:1px;stroke-linecap:butt;stroke-linejoin:miter;stroke-opacity:1" d="M 752.564,134.412 743.87,134.412 z" id="boundary" inkscape:connector-curvature="0" />
	<path style="fill:none;stroke:red;stroke-width:1px;stroke-linecap:butt;stroke-linejoin:miter;stroke-opacity:1" d="M 735.176,134.412 726.482,134.412 z" id="boundary" inkscape:connector-curvature="0" />
	<path style="fill:none;stroke:red;stroke-width:1px;stroke-linecap:butt;stroke-linejoin:miter;stroke-opacity:1" d="M 778.647,134.412 787.341,134.412 z" id="boundary" inkscape:connector-curvature="0" />
	<path style="fill:none;stroke:red;stroke-width:1px;stroke-linecap:butt;stroke-linejoin:miter;stroke-opacity:1" d="M 796.035,134.412 804.729,134.412 z" id="boundary" inkscape:connector-curvature="0" />
	<path style="fill:none;stroke:red;stroke-width:1px;stroke-linecap:butt;stroke-linejoin:miter;stroke-opacity:1" d="M 796.035,134.412 787.341,134.412 z" id="boundary" inkscape:connector-curvature="0" />
	<path style="fill:none;stroke:red;stroke-width:1px;stroke-linecap:butt;stroke-linejoin:miter;stroke-opacity:1" d="M 813.423,134.412 822.117,134.412 z" id="boundary" inkscape:connector-curvature="0" />
	<path style="fill:none;stroke:red;stroke-width:1px;stroke-linecap:butt;stroke-linejoin:miter;stroke-opacity:1" d="M 830.812,134.412 839.506,134.412 z" id="boundary" inkscape:connector-curvature="0" />
	<path style="fill:none;stroke:red;stroke-width:1px;stroke-linecap:butt;stroke-linejoin:miter;stroke-opacity:1" d="M 848.2,134.412 839.506,134.412 z" id="boundary" inkscape:connector-curvature="0" />
	<path style="fill:none;stroke:red;stroke-width:1px;stroke-linecap:butt;stroke-linejoin:miter;stroke-opacity:1" d="M 830.812,134.412 822.117,134.412 z" id="boundary" inkscape:connector-curvature="0" />
	<path style="fill:none;stroke:red;stroke-width:1px;stroke-linecap:butt;stroke-linejoin:miter;stroke-opacity:1" d="M 813.423,134.412 804.729,134.412 z" id="boundary" inkscape:connector-curvature="0" />
	<path style="fill:none;stroke:red;stroke-width:1px;stroke-linecap:butt;stroke-linejoin:miter;stroke-opacity:1" d="M 778.647,134.412 769.953,134.412 z" id="boundary" inkscape:connector-curvature="0" />
	<path style="fill:none;stroke:red;stroke-width:1px;stroke-linecap:butt;stroke-linejoin:miter;stroke-opacity:1" d="M 856.894,134.412 865.588,134.412 z" id="boundary" inkscape:connector-curvature="0" />
	<path style="fill:none;stroke:red;stroke-width:1px;stroke-linecap:butt;stroke-linejoin:miter;stroke-opacity:1" d="M 874.282,134.412 882.976,134.412 z" id="boundary" inkscape:connector-curvature="0" />
	<path style="fill:none;stroke:red;stroke-width:1px;stroke-linecap:butt;stroke-linejoin:miter;stroke-opacity:1" d="M 874.282,134.412 865.588,134.412 z" id="boundary" inkscape:connector-curvature="0" />
	<path style="fill:none;stroke:red;stroke-width:1px;stroke-linecap:butt;stroke-linejoin:miter;stroke-opacity:1" d="M 891.67,134.412 900.365,134.412 z" id="boundary" inkscape:connector-curvature="0" />
	<path style="fill:none;stroke:red;stroke-width:1px;stroke-linecap:butt;stroke-linejoin:miter;stroke-opacity:1" d="M 909.059,134.412 917.753,134.412 z" id="boundary" inkscape:connector-curvature="0" />
	<path style="fill:none;stroke:red;stroke-width:1px;stroke-linecap:butt;stroke-linejoin:miter;stroke-opacity:1" d="M 926.447,134.412 917.753,134.412 z" id="boundary" inkscape:connector-curvature="0" />
	<path style="fill:none;stroke:red;stroke-width:1px;stroke-linecap:butt;stroke-linejoin:miter;stroke-opacity:1" d="M 909.059,134.412 900.365,134.412 z" id="boundary" inkscape:connector-curvature="0" />
	<path style="fill:none;stroke:red;stroke-width:1px;stroke-linecap:butt;stroke-linejoin:miter;stroke-opacity:1" d="M 891.67,134.412 882.976,134.412 z" id="boundary" inkscape:connector-curvature="0" />
	<path style="fill:none;stroke:red;stroke-width:1px;stroke-linecap:butt;stroke-linejoin:miter;stroke-opacity:1" d="M 935.141,134.412 943.835,134.412 z" id="boundary" inkscape:connector-curvature="0" />
	<path style="fill:none;stroke:red;stroke-width:1px;stroke-linecap:butt;stroke-linejoin:miter;stroke-opacity:1" d="M 952.529,134.412 961.223,134.412 z" id="boundary" inkscape:connector-curvature="0" />
	<path style="fill:none;stroke:red;stroke-width:1px;stroke-linecap:butt;stroke-linejoin:miter;stroke-opacity:1" d="M 969.918,134.412 961.223,134.412 z" id="boundary" inkscape:connector-curvature="0" />
	<path style="fill:none;stroke:red;stroke-width:1px;stroke-linecap:butt;stroke-linejoin:miter;stroke-opacity:1" d="M 952.529,134.412 943.835,134.412 z" id="boundary" inkscape:connector-curvature="0" />
	<path style="fill:none;stroke:red;stroke-width:1px;stroke-linecap:butt;stroke-linejoin:miter;stroke-opacity:1" d="M 985.567,139.628 991.653,146.584 z" id="boundary" inkscape:connector-curvature="0" />
	<path style="fill:none;stroke:red;stroke-width:1px;stroke-linecap:butt;stroke-linejoin:miter;stroke-opacity:1" d="M 991.653,146.584 996,154.408 z" id="boundary" inkscape:connector-curvature="0" />
	<path style="fill:none;stroke:red;stroke-width:1px;stroke-linecap:butt;stroke-linejoin:miter;stroke-opacity:1" d="M 996,154.408 996,163.103 z" id="boundary" inkscape:connector-curvature="0" />
	<path style="fill:none;stroke:red;stroke-width:1px;stroke-linecap:butt;stroke-linejoin:miter;stroke-opacity:1" d="M 969.918,134.412 978.612,134.412 z" id="boundary" inkscape:connector-curvature="0" />
	<path style="fill:none;stroke:red;stroke-width:1px;stroke-linecap:butt;stroke-linejoin:miter;stroke-opacity:1" d="M 978.612,134.412 985.567,139.628 z" id="boundary" inkscape:connector-curvature="0" />
	<path style="fill:none;stroke:red;stroke-width:1px;stroke-linecap:butt;stroke-linejoin:miter;stroke-opacity:1" d="M 926.447,134.412 935.141,134.412 z" id="boundary" inkscape:connector-curvature="0" />
	<path style="fill:none;stroke:red;stroke-width:1px;stroke-linecap:butt;stroke-linejoin:miter;stroke-opacity:1" d="M 848.2,134.412 856.894,134.412 z" id="boundary" inkscape:connector-curvature="0" />
	<path style="fill:none;stroke:red;stroke-width:1px;stroke-linecap:butt;stroke-linejoin:miter;stroke-opacity:1" d="M 691.706,134.412 700.4,134.412 z" id="boundary" inkscape:connector-curvature="0" />
	<path style="fill:none;stroke:red;stroke-width:1px;stroke-linecap:butt;stroke-linejoin:miter;stroke-opacity:1" d="M 996,163.103 996,171.797 z" id="boundary" inkscape:connector-curvature="0" />
	<path style="fill:none;stroke:red;stroke-width:1px;stroke-linecap:butt;stroke-linejoin:miter;stroke-opacity:1" d="M 383.064,204.834 391.758,204.834 z" id="boundary" inkscape:connector-curvature="0" />
	<path style="fill:none;stroke:red;stroke-width:1px;stroke-linecap:butt;stroke-linejoin:miter;stroke-opacity:1" d="M 400.452,204.834 409.146,204.834 z" id="boundary" inkscape:connector-curvature="0" />
	<path style="fill:none;stroke:red;stroke-width:1px;stroke-linecap:butt;stroke-linejoin:miter;stroke-opacity:1" d="M 400.452,204.834 391.758,204.834 z" id="boundary" inkscape:connector-curvature="0" />
	<path style="fill:none;stroke:red;stroke-width:1px;stroke-linecap:butt;stroke-linejoin:miter;stroke-opacity:1" d="M 417.84,204.834 426.535,204.834 z" id="boundary" inkscape:connector-curvature="0" />
	<path style="fill:none;stroke:red;stroke-width:1px;stroke-linecap:butt;stroke-linejoin:miter;stroke-opacity:1" d="M 435.229,204.834 443.923,204.834 z" id="boundary" inkscape:connector-curvature="0" />
	<path style="fill:none;stroke:red;stroke-width:1px;stroke-linecap:butt;stroke-linejoin:miter;stroke-opacity:1" d="M 452.617,204.834 443.923,204.834 z" id="boundary" inkscape:connector-curvature="0" />
	<path style="fill:none;stroke:red;stroke-width:1px;stroke-linecap:butt;stroke-linejoin:miter;stroke-opacity:1" d="M 435.229,204.834 426.535,204.834 z" id="boundary" inkscape:connector-curvature="0" />
	<path style="fill:none;stroke:red;stroke-width:1px;stroke-linecap:butt;stroke-linejoin:miter;stroke-opacity:1" d="M 417.84,204.834 409.146,204.834 z" id="boundary" inkscape:connector-curvature="0" />
	<path style="fill:none;stroke:red;stroke-width:1px;stroke-linecap:butt;stroke-linejoin:miter;stroke-opacity:1" d="M 461.311,204.834 470.005,204.834 z" id="boundary" inkscape:connector-curvature="0" />
	<path style="fill:none;stroke:red;stroke-width:1px;stroke-linecap:butt;stroke-linejoin:miter;stroke-opacity:1" d="M 478.699,204.834 487.394,204.834 z" id="boundary" inkscape:connector-curvature="0" />
	<path style="fill:none;stroke:red;stroke-width:1px;stroke-linecap:butt;stroke-linejoin:miter;stroke-opacity:1" d="M 478.699,204.834 470.005,204.834 z" id="boundary" inkscape:connector-curvature="0" />
	<path style="fill:none;stroke:red;stroke-width:1px;stroke-linecap:butt;stroke-linejoin:miter;stroke-opacity:1" d="M 496.088,204.834 504.782,204.834 z" id="boundary" inkscape:connector-curvature="0" />
	<path style="fill:none;stroke:red;stroke-width:1px;stroke-linecap:butt;stroke-linejoin:miter;stroke-opacity:1" d="M 513.476,204.834 522.17,204.834 z" id="boundary" inkscape:connector-curvature="0" />
	<path style="fill:none;stroke:red;stroke-width:1px;stroke-linecap:butt;stroke-linejoin:miter;stroke-opacity:1" d="M 530.864,204.834 522.17,204.834 z" id="boundary" inkscape:connector-curvature="0" />
	<path style="fill:none;stroke:red;stroke-width:1px;stroke-linecap:butt;stroke-linejoin:miter;stroke-opacity:1" d="M 513.476,204.834 504.782,204.834 z" id="boundary" inkscape:connector-curvature="0" />
	<path style="fill:none;stroke:red;stroke-width:1px;stroke-linecap:butt;stroke-linejoin:miter;stroke-opacity:1" d="M 496.088,204.834 487.394,204.834 z" id="boundary" inkscape:connector-curvature="0" />
	<path style="fill:none;stroke:red;stroke-width:1px;stroke-linecap:butt;stroke-linejoin:miter;stroke-opacity:1" d="M 461.311,204.834 452.617,204.834 z" id="boundary" inkscape:connector-curvature="0" />
	<path style="fill:none;stroke:red;stroke-width:1px;stroke-linecap:butt;stroke-linejoin:miter;stroke-opacity:1" d="M 539.558,204.834 548.252,204.834 z" id="boundary" inkscape:connector-curvature="0" />
	<path style="fill:none;stroke:red;stroke-width:1px;stroke-linecap:butt;stroke-linejoin:miter;stroke-opacity:1" d="M 556.947,204.834 565.641,204.834 z" id="boundary" inkscape:connector-curvature="0" />
	<path style="fill:none;stroke:red;stroke-width:1px;stroke-linecap:butt;stroke-linejoin:miter;stroke-opacity:1" d="M 556.947,204.834 548.252,204.834 z" id="boundary" inkscape:connector-curvature="0" />
	<path style="fill:none;stroke:red;stroke-width:1px;stroke-linecap:butt;stroke-linejoin:miter;stroke-opacity:1" d="M 574.335,204.834 583.029,204.834 z" id="boundary" inkscape:connector-curvature="0" />
	<path style="fill:none;stroke:red;stroke-width:1px;stroke-linecap:butt;stroke-linejoin:miter;stroke-opacity:1" d="M 591.723,204.834 600.417,204.834 z" id="boundary" inkscape:connector-curvature="0" />
	<path style="fill:none;stroke:red;stroke-width:1px;stroke-linecap:butt;stroke-linejoin:miter;stroke-opacity:1" d="M 609.111,204.834 600.417,204.834 z" id="boundary" inkscape:connector-curvature="0" />
	<path style="fill:none;stroke:red;stroke-width:1px;stroke-linecap:butt;stroke-linejoin:miter;stroke-opacity:1" d="M 591.723,204.834 583.029,204.834 z" id="boundary" inkscape:connector-curvature="0" />
	<path style="fill:none;stroke:red;stroke-width:1px;stroke-linecap:butt;stroke-linejoin:miter;stroke-opacity:1" d="M 574.335,204.834 565.641,204.834 z" id="boundary" inkscape:connector-curvature="0" />
	<path style="fill:none;stroke:red;stroke-width:1px;stroke-linecap:butt;stroke-linejoin:miter;stroke-opacity:1" d="M 617.805,204.834 626.5,204.834 z" id="boundary" inkscape:connector-curvature="0" />
	<path style="fill:none;stroke:red;stroke-width:1px;stroke-linecap:butt;stroke-linejoin:miter;stroke-opacity:1" d="M 635.194,204.834 643.888,204.834 z" id="boundary" inkscape:connector-curvature="0" />
	<path style="fill:none;stroke:red;stroke-width:1px;stroke-linecap:butt;stroke-linejoin:miter;stroke-opacity:1" d="M 652.582,204.834 643.888,204.834 z" id="boundary" inkscape:connector-curvature="0" />
	<path style="fill:none;stroke:red;stroke-width:1px;stroke-linecap:butt;stroke-linejoin:miter;stroke-opacity:1" d="M 635.194,204.834 626.5,204.834 z" id="boundary" inkscape:connector-curvature="0" />
	<path style="fill:none;stroke:red;stroke-width:1px;stroke-linecap:butt;stroke-linejoin:miter;stroke-opacity:1" d="M 661.276,204.834 669.97,204.834 z" id="boundary" inkscape:connector-curvature="0" />
	<path style="fill:none;stroke:red;stroke-width:1px;stroke-linecap:butt;stroke-linejoin:miter;stroke-opacity:1" d="M 678.664,204.834 687.358,204.834 z" id="boundary" inkscape:connector-curvature="0" />
	<path style="fill:none;stroke:red;stroke-width:1px;stroke-linecap:butt;stroke-linejoin:miter;stroke-opacity:1" d="M 696.053,204.834 687.358,204.834 z" id="boundary" inkscape:connector-curvature="0" />
	<path style="fill:none;stroke:red;stroke-width:1px;stroke-linecap:butt;stroke-linejoin:miter;stroke-opacity:1" d="M 678.664,204.834 669.97,204.834 z" id="boundary" inkscape:connector-curvature="0" />
	<path style="fill:none;stroke:red;stroke-width:1px;stroke-linecap:butt;stroke-linejoin:miter;stroke-opacity:1" d="M 661.276,204.834 652.582,204.834 z" id="boundary" inkscape:connector-curvature="0" />
	<path style="fill:none;stroke:red;stroke-width:1px;stroke-linecap:butt;stroke-linejoin:miter;stroke-opacity:1" d="M 617.805,204.834 609.111,204.834 z" id="boundary" inkscape:connector-curvature="0" />
	<path style="fill:none;stroke:red;stroke-width:1px;stroke-linecap:butt;stroke-linejoin:miter;stroke-opacity:1" d="M 539.558,204.834 530.864,204.834 z" id="boundary" inkscape:connector-curvature="0" />
	<path style="fill:none;stroke:red;stroke-width:1px;stroke-linecap:butt;stroke-linejoin:miter;stroke-opacity:1" d="M 704.747,204.834 713.441,204.834 z" id="boundary" inkscape:connector-curvature="0" />
	<path style="fill:none;stroke:red;stroke-width:1px;stroke-linecap:butt;stroke-linejoin:miter;stroke-opacity:1" d="M 722.135,204.834 730.829,204.834 z" id="boundary" inkscape:connector-curvature="0" />
	<path style="fill:none;stroke:red;stroke-width:1px;stroke-linecap:butt;stroke-linejoin:miter;stroke-opacity:1" d="M 722.135,204.834 713.441,204.834 z" id="boundary" inkscape:connector-curvature="0" />
	<path style="fill:none;stroke:red;stroke-width:1px;stroke-linecap:butt;stroke-linejoin:miter;stroke-opacity:1" d="M 739.523,204.834 748.217,204.834 z" id="boundary" inkscape:connector-curvature="0" />
	<path style="fill:none;stroke:red;stroke-width:1px;stroke-linecap:butt;stroke-linejoin:miter;stroke-opacity:1" d="M 756.911,204.834 765.606,204.834 z" id="boundary" inkscape:connector-curvature="0" />
	<path style="fill:none;stroke:red;stroke-width:1px;stroke-linecap:butt;stroke-linejoin:miter;stroke-opacity:1" d="M 774.3,204.834 765.606,204.834 z" id="boundary" inkscape:connector-curvature="0" />
	<path style="fill:none;stroke:red;stroke-width:1px;stroke-linecap:butt;stroke-linejoin:miter;stroke-opacity:1" d="M 756.911,204.834 748.217,204.834 z" id="boundary" inkscape:connector-curvature="0" />
	<path style="fill:none;stroke:red;stroke-width:1px;stroke-linecap:butt;stroke-linejoin:miter;stroke-opacity:1" d="M 739.523,204.834 730.829,204.834 z" id="boundary" inkscape:connector-curvature="0" />
	<path style="fill:none;stroke:red;stroke-width:1px;stroke-linecap:butt;stroke-linejoin:miter;stroke-opacity:1" d="M 996,171.797 996,180.491 z" id="boundary" inkscape:connector-curvature="0" />
	<path style="fill:none;stroke:red;stroke-width:1px;stroke-linecap:butt;stroke-linejoin:miter;stroke-opacity:1" d="M 826.465,204.834 817.77,204.834 z" id="boundary" inkscape:connector-curvature="0" />
	<path style="fill:none;stroke:red;stroke-width:1px;stroke-linecap:butt;stroke-linejoin:miter;stroke-opacity:1" d="M 996,180.491 996,189.185 z" id="boundary" inkscape:connector-curvature="0" />
	<path style="fill:none;stroke:red;stroke-width:1px;stroke-linecap:butt;stroke-linejoin:miter;stroke-opacity:1" d="M 996,189.185 989.914,198.748 z" id="boundary" inkscape:connector-curvature="0" />
	<path style="fill:none;stroke:red;stroke-width:1px;stroke-linecap:butt;stroke-linejoin:miter;stroke-opacity:1" d="M 782.994,204.834 791.688,204.834 z" id="boundary" inkscape:connector-curvature="0" />
	<path style="fill:none;stroke:red;stroke-width:1px;stroke-linecap:butt;stroke-linejoin:miter;stroke-opacity:1" d="M 800.382,204.834 809.076,204.834 z" id="boundary" inkscape:connector-curvature="0" />
	<path style="fill:none;stroke:red;stroke-width:1px;stroke-linecap:butt;stroke-linejoin:miter;stroke-opacity:1" d="M 817.77,204.834 809.076,204.834 z" id="boundary" inkscape:connector-curvature="0" />
	<path style="fill:none;stroke:red;stroke-width:1px;stroke-linecap:butt;stroke-linejoin:miter;stroke-opacity:1" d="M 800.382,204.834 791.688,204.834 z" id="boundary" inkscape:connector-curvature="0" />
	<path style="fill:none;stroke:red;stroke-width:1px;stroke-linecap:butt;stroke-linejoin:miter;stroke-opacity:1" d="M 782.994,204.834 774.3,204.834 z" id="boundary" inkscape:connector-curvature="0" />
	<path style="fill:none;stroke:red;stroke-width:1px;stroke-linecap:butt;stroke-linejoin:miter;stroke-opacity:1" d="M 704.747,204.834 696.053,204.834 z" id="boundary" inkscape:connector-curvature="0" />
	<path style="fill:none;stroke:red;stroke-width:1px;stroke-linecap:butt;stroke-linejoin:miter;stroke-opacity:1" d="M 826.465,204.834 835.159,204.834 z" id="boundary" inkscape:connector-curvature="0" />
	<path style="fill:none;stroke:red;stroke-width:1px;stroke-linecap:butt;stroke-linejoin:miter;stroke-opacity:1" d="M 843.853,204.834 852.547,204.834 z" id="boundary" inkscape:connector-curvature="0" />
	<path style="fill:none;stroke:red;stroke-width:1px;stroke-linecap:butt;stroke-linejoin:miter;stroke-opacity:1" d="M 843.853,204.834 835.159,204.834 z" id="boundary" inkscape:connector-curvature="0" />
	<path style="fill:none;stroke:red;stroke-width:1px;stroke-linecap:butt;stroke-linejoin:miter;stroke-opacity:1" d="M 861.241,204.834 869.935,204.834 z" id="boundary" inkscape:connector-curvature="0" />
	<path style="fill:none;stroke:red;stroke-width:1px;stroke-linecap:butt;stroke-linejoin:miter;stroke-opacity:1" d="M 878.629,204.834 887.323,204.834 z" id="boundary" inkscape:connector-curvature="0" />
	<path style="fill:none;stroke:red;stroke-width:1px;stroke-linecap:butt;stroke-linejoin:miter;stroke-opacity:1" d="M 896.018,204.834 887.323,204.834 z" id="boundary" inkscape:connector-curvature="0" />
	<path style="fill:none;stroke:red;stroke-width:1px;stroke-linecap:butt;stroke-linejoin:miter;stroke-opacity:1" d="M 878.629,204.834 869.935,204.834 z" id="boundary" inkscape:connector-curvature="0" />
	<path style="fill:none;stroke:red;stroke-width:1px;stroke-linecap:butt;stroke-linejoin:miter;stroke-opacity:1" d="M 861.241,204.834 852.547,204.834 z" id="boundary" inkscape:connector-curvature="0" />
	<path style="fill:none;stroke:red;stroke-width:1px;stroke-linecap:butt;stroke-linejoin:miter;stroke-opacity:1" d="M 904.712,204.834 913.406,204.834 z" id="boundary" inkscape:connector-curvature="0" />
	<path style="fill:none;stroke:red;stroke-width:1px;stroke-linecap:butt;stroke-linejoin:miter;stroke-opacity:1" d="M 922.1,204.834 930.794,204.834 z" id="boundary" inkscape:connector-curvature="0" />
	<path style="fill:none;stroke:red;stroke-width:1px;stroke-linecap:butt;stroke-linejoin:miter;stroke-opacity:1" d="M 939.488,204.834 930.794,204.834 z" id="boundary" inkscape:connector-curvature="0" />
	<path style="fill:none;stroke:red;stroke-width:1px;stroke-linecap:butt;stroke-linejoin:miter;stroke-opacity:1" d="M 922.1,204.834 913.406,204.834 z" id="boundary" inkscape:connector-curvature="0" />
	<path style="fill:none;stroke:red;stroke-width:1px;stroke-linecap:butt;stroke-linejoin:miter;stroke-opacity:1" d="M 948.182,204.834 956.876,204.834 z" id="boundary" inkscape:connector-curvature="0" />
	<path style="fill:none;stroke:red;stroke-width:1px;stroke-linecap:butt;stroke-linejoin:miter;stroke-opacity:1" d="M 965.571,204.834 974.265,204.834 z" id="boundary" inkscape:connector-curvature="0" />
	<path style="fill:none;stroke:red;stroke-width:1px;stroke-linecap:butt;stroke-linejoin:miter;stroke-opacity:1" d="M 982.959,204.834 974.265,204.834 z" id="boundary" inkscape:connector-curvature="0" />
	<path style="fill:none;stroke:red;stroke-width:1px;stroke-linecap:butt;stroke-linejoin:miter;stroke-opacity:1" d="M 989.914,198.748 982.959,204.834 z" id="boundary" inkscape:connector-curvature="0" />
	<path style="fill:none;stroke:red;stroke-width:1px;stroke-linecap:butt;stroke-linejoin:miter;stroke-opacity:1" d="M 965.571,204.834 956.876,204.834 z" id="boundary" inkscape:connector-curvature="0" />
	<path style="fill:none;stroke:red;stroke-width:1px;stroke-linecap:butt;stroke-linejoin:miter;stroke-opacity:1" d="M 948.182,204.834 939.488,204.834 z" id="boundary" inkscape:connector-curvature="0" />
	<path style="fill:none;stroke:red;stroke-width:1px;stroke-linecap:butt;stroke-linejoin:miter;stroke-opacity:1" d="M 904.712,204.834 896.018,204.834 z" id="boundary" inkscape:connector-curvature="0" />
	<circle cx="4" cy="254.391" r="4" fill="#0" id="circle0"/>
	<circle cx="4" cy="263.085" r="4" fill="#0" id="circle1"/>
	<circle cx="4" cy="271.779" r="4" fill="#0" id="circle2"/>
	<circle cx="4" cy="280.473" r="4" fill="#0" id="circle3"/>
	<circle cx="4" cy="289.167" r="4" fill="#0" id="circle4"/>
	<circle cx="4" cy="297.862" r="4" fill="#0" id="circle5"/>
	<circle cx="4" cy="306.556" r="4" fill="#0" id="circle6"/>
	<circle cx="8.34706" cy="245.697" r="4" fill="#0" id="circle7"/>
	<circle cx="8.34706" cy="314.38" r="4" fill="#0" id="circle8"/>
	<circle cx="12.6941" cy="322.205" r="4" fill="#0" id="circle9"/>
	<circle cx="15.3024" cy="238.741" r="4" fill="#0" id="circle10"/>
	<circle cx="17.9106" cy="329.16" r="4" fill="#0" id="circle11"/>
	<circle cx="22.2577" cy="231.786" r="4" fill="#0" id="circle12"/>
	<circle cx="24.8659" cy="335.246" r="4" fill="#0" id="circle13"/>
	<circle cx="25.7353" cy="154.408" r="4" fill="#0" id="circle14"/>
	<circle cx="25.7353" cy="163.103" r="4" fill="#0" id="circle15"/>
	<circle cx="25.7353" cy="171.797" r="4" fill="#0" id="circle16"/>
	<circle cx="25.7353" cy="180.491" r="4" fill="#0" id="circle17"/>
	<circle cx="25.7353" cy="189.185" r="4" fill="#0" id="circle18"/>
	<circle cx="25.7353" cy="197.879" r="4" fill="#0" id="circle19"/>
	<circle cx="25.7353" cy="206.573" r="4" fill="#0" id="circle20"/>
	<circle cx="25.7353" cy="215.267" r="4" fill="#0" id="circle21"/>
	<circle cx="30.0824" cy="119.632" r="4" fill="#0" id="circle22"/>
	<circle cx="30.0824" cy="128.326" r="4" fill="#0" id="circle23"/>
	<circle cx="30.0824" cy="137.02" r="4" fill="#0" id="circle24"/>
	<circle cx="30.0824" cy="145.714" r="4" fill="#0" id="circle25"/>
	<circle cx="32.6906" cy="339.593" r="4" fill="#0" id="circle26"/>
	<circle cx="34.4294" cy="106.591" r="4" fill="#0" id="circle27"/>
	<circle cx="38.7765" cy="93.5495" r="4" fill="#0" id="circle28"/>
	<circle cx="40.5153" cy="343.94" r="4" fill="#0" id="circle29"/>
	<circle cx="45.7318" cy="86.5942" r="4" fill="#0" id="circle30"/>
	<circle cx="49.2095" cy="343.94" r="4" fill="#0" id="circle31"/>
	<circle cx="52.6871" cy="79.6389" r="4" fill="#0" id="circle32"/>
	<circle cx="57.9036" cy="343.94" r="4" fill="#0" id="circle33"/>
	<circle cx="59.6424" cy="73.553" r="4" fill="#0" id="circle34"/>
	<circle cx="65.7283" cy="66.5977" r="4" fill="#0" id="circle35"/>
	<circle cx="66.5977" cy="343.94" r="4" fill="#0" id="circle36"/>
	<circle cx="72.6836" cy="60.5118" r="4" fill="#0" id="circle37"/>
	<circle cx="75.2918" cy="343.94" r="4" fill="#0" id="circle38"/>
	<circle cx="78.7695" cy="53.5565" r="4" fill="#0" id="circle39"/>
	<circle cx="83.986" cy="343.94" r="4" fill="#0" id="circle40"/>
	<circle cx="85.7248" cy="47.4706" r="4" fill="#0" id="circle41"/>
	<circle cx="91.8107" cy="40.5153" r="4" fill="#0" id="circle42"/>
	<circle cx="92.6801" cy="343.94" r="4" fill="#0" id="circle43"/>
	<circle cx="98.766" cy="34.4294" r="4" fill="#0" id="circle44"/>
	<circle cx="101.374" cy="343.94" r="4" fill="#0" id="circle45"/>
	<circle cx="104.852" cy="27.4741" r="4" fill="#0" id="circle46"/>
	<circle cx="110.068" cy="343.94" r="4" fill="#0" id="circle47"/>
	<circle cx="113.546" cy="25.7353" r="4" fill="#0" id="circle48"/>
	<circle cx="118.762" cy="343.94" r="4" fill="#0" id="circle49"/>
	<circle cx="121.371" cy="19.6494" r="4" fill="#0" id="circle50"/>
	<circle cx="127.457" cy="343.94" r="4" fill="#0" id="circle51"/>
	<circle cx="128.326" cy="12.6941" r="4" fill="#0" id="circle52"/>
	<circle cx="136.151" cy="343.94" r="4" fill="#0" id="circle53"/>
	<circle cx="137.02" cy="12.6941" r="4" fill="#0" id="circle54"/>
	<circle cx="139.628" cy="126.587" r="4" fill="#0" id="circle55"/>
	<circle cx="139.628" cy="204.834" r="4" fill="#0" id="circle56"/>
	<circle cx="139.628" cy="213.528" r="4" fill="#0" id="circle57"/>
	<circle cx="139.628" cy="222.223" r="4" fill="#0" id="circle58"/>
	<circle cx="143.975" cy="113.546" r="4" fill="#0" id="circle59"/>
	<circle cx="143.975" cy="134.412" r="4" fill="#0" id="circle60"/>
	<circle cx="143.975" cy="230.047" r="4" fill="#0" id="circle61"/>
	<circle cx="143.975" cy="339.593" r="4" fill="#0" id="circle62"/>
	<circle cx="144.845" cy="8.34706" r="4" fill="#0" id="circle63"/>
	<circle cx="148.323" cy="91.8107" r="4" fill="#0" id="circle64"/>
	<circle cx="148.323" cy="100.505" r="4" fill="#0" id="circle65"/>
	<circle cx="148.323" cy="204.834" r="4" fill="#0" id="circle66"/>
	<circle cx="150.931" cy="235.264" r="4" fill="#0" id="circle67"/>
	<circle cx="150.931" cy="333.507" r="4" fill="#0" id="circle68"/>
	<circle cx="152.67" cy="134.412" r="4" fill="#0" id="circle69"/>
	<circle cx="153.539" cy="8.34706" r="4" fill="#0" id="circle70"/>
	<circle cx="155.278" cy="85.7248" r="4" fill="#0" id="circle71"/>
	<circle cx="157.017" cy="74.4224" r="4" fill="#0" id="circle72"/>
	<circle cx="157.017" cy="204.834" r="4" fill="#0" id="circle73"/>
	<circle cx="157.017" cy="242.219" r="4" fill="#0" id="circle74"/>
	<circle cx="157.017" cy="326.552" r="4" fill="#0" id="circle75"/>
	<circle cx="161.364" cy="61.3812" r="4" fill="#0" id="circle76"/>
	<circle cx="161.364" cy="134.412" r="4" fill="#0" id="circle77"/>
	<circle cx="161.364" cy="250.044" r="4" fill="#0" id="circle78"/>
	<circle cx="161.364" cy="317.858" r="4" fill="#0" id="circle79"/>
	<circle cx="162.233" cy="8.34706" r="4" fill="#0" id="circle80"/>
	<circle cx="165.711" cy="204.834" r="4" fill="#0" id="circle81"/>
	<circle cx="165.711" cy="257.869" r="4" fill="#0" id="circle82"/>
	<circle cx="165.711" cy="300.47" r="4" fill="#0" id="circle83"/>
	<circle cx="165.711" cy="309.164" r="4" fill="#0" id="circle84"/>
	<circle cx="168.319" cy="55.2954" r="4" fill="#0" id="circle85"/>
	<circle cx="168.319" cy="266.563" r="4" fill="#0" id="circle86"/>
	<circle cx="170.058" cy="134.412" r="4" fill="#0" id="circle87"/>
	<circle cx="170.058" cy="275.257" r="4" fill="#0" id="circle88"/>
	<circle cx="170.058" cy="283.951" r="4" fill="#0" id="circle89"/>
	<circle cx="170.058" cy="292.645" r="4" fill="#0" id="circle90"/>
	<circle cx="170.927" cy="8.34706" r="4" fill="#0" id="circle91"/>
	<circle cx="172.666" cy="46.6012" r="4" fill="#0" id="circle92"/>
	<circle cx="174.405" cy="204.834" r="4" fill="#0" id="circle93"/>
	<circle cx="178.752" cy="4" r="4" fill="#0" id="circle94"/>
	<circle cx="178.752" cy="35.2989" r="4" fill="#0" id="circle95"/>
	<circle cx="178.752" cy="134.412" r="4" fill="#0" id="circle96"/>
	<circle cx="183.099" cy="204.834" r="4" fill="#0" id="circle97"/>
	<circle cx="185.707" cy="29.213" r="4" fill="#0" id="circle98"/>
	<circle cx="187.446" cy="6.60824" r="4" fill="#0" id="circle99"/>
	<circle cx="187.446" cy="134.412" r="4" fill="#0" id="circle100"/>
	<circle cx="190.054" cy="20.5188" r="4" fill="#0" id="circle101"/>
	<circle cx="191.793" cy="204.834" r="4" fill="#0" id="circle102"/>
	<circle cx="196.14" cy="134.412" r="4" fill="#0" id="circle103"/>
	<circle cx="200.487" cy="204.834" r="4" fill="#0" id="circle104"/>
	<circle cx="204.834" cy="134.412" r="4" fill="#0" id="circle105"/>
	<circle cx="209.181" cy="204.834" r="4" fill="#0" id="circle106"/>
	<circle cx="213.528" cy="134.412" r="4" fill="#0" id="circle107"/>
	<circle cx="217.876" cy="204.834" r="4" fill="#0" id="circle108"/>
	<circle cx="222.223" cy="134.412" r="4" fill="#0" id="circle109"/>
	<circle cx="226.57" cy="204.834" r="4" fill="#0" id="circle110"/>
	<circle cx="230.917" cy="134.412" r="4" fill="#0" id="circle111"/>
	<circle cx="235.264" cy="204.834" r="4" fill="#0" id="circle112"/>
	<circle cx="239.611" cy="134.412" r="4" fill="#0" id="circle113"/>
	<circle cx="243.958" cy="204.834" r="4" fill="#0" id="circle114"/>
	<circle cx="248.305" cy="134.412" r="4" fill="#0" id="circle115"/>
	<circle cx="252.652" cy="204.834" r="4" fill="#0" id="circle116"/>
	<circle cx="256.999" cy="134.412" r="4" fill="#0" id="circle117"/>
	<circle cx="261.346" cy="204.834" r="4" fill="#0" id="circle118"/>
	<circle cx="265.693" cy="134.412" r="4" fill="#0" id="circle119"/>
	<circle cx="270.04" cy="204.834" r="4" fill="#0" id="circle120"/>
	<circle cx="274.387" cy="134.412" r="4" fill="#0" id="circle121"/>
	<circle cx="278.734" cy="204.834" r="4" fill="#0" id="circle122"/>
	<circle cx="283.082" cy="134.412" r="4" fill="#0" id="circle123"/>
	<circle cx="287.429" cy="204.834" r="4" fill="#0" id="circle124"/>
	<circle cx="291.776" cy="134.412" r="4" fill="#0" id="circle125"/>
	<circle cx="296.123" cy="204.834" r="4" fill="#0" id="circle126"/>
	<circle cx="300.47" cy="134.412" r="4" fill="#0" id="circle127"/>
	<circle cx="304.817" cy="204.834" r="4" fill="#0" id="circle128"/>
	<circle cx="309.164" cy="134.412" r="4" fill="#0" id="circle129"/>
	<circle cx="313.511" cy="204.834" r="4" fill="#0" id="circle130"/>
	<circle cx="317.858" cy="134.412" r="4" fill="#0" id="circle131"/>
	<circle cx="322.205" cy="204.834" r="4" fill="#0" id="circle132"/>
	<circle cx="326.552" cy="134.412" r="4" fill="#0" id="circle133"/>
	<circle cx="330.899" cy="204.834" r="4" fill="#0" id="circle134"/>
	<circle cx="335.246" cy="134.412" r="4" fill="#0" id="circle135"/>
	<circle cx="339.593" cy="204.834" r="4" fill="#0" id="circle136"/>
	<circle cx="343.94" cy="134.412" r="4" fill="#0" id="circle137"/>
	<circle cx="348.287" cy="204.834" r="4" fill="#0" id="circle138"/>
	<circle cx="352.635" cy="134.412" r="4" fill="#0" id="circle139"/>
	<circle cx="356.982" cy="204.834" r="4" fill="#0" id="circle140"/>
	<circle cx="361.329" cy="134.412" r="4" fill="#0" id="circle141"/>
	<circle cx="365.676" cy="204.834" r="4" fill="#0" id="circle142"/>
	<circle cx="370.023" cy="134.412" r="4" fill="#0" id="circle143"/>
	<circle cx="374.37" cy="204.834" r="4" fill="#0" id="circle144"/>
	<circle cx="378.717" cy="134.412" r="4" fill="#0" id="circle145"/>
	<circle cx="383.064" cy="204.834" r="4" fill="#0" id="circle146"/>
	<circle cx="387.411" cy="134.412" r="4" fill="#0" id="circle147"/>
	<circle cx="391.758" cy="204.834" r="4" fill="#0" id="circle148"/>
	<circle cx="396.105" cy="134.412" r="4" fill="#0" id="circle149"/>
	<circle cx="400.452" cy="204.834" r="4" fill="#0" id="circle150"/>
	<circle cx="404.799" cy="134.412" r="4" fill="#0" id="circle151"/>
	<circle cx="409.146" cy="204.834" r="4" fill="#0" id="circle152"/>
	<circle cx="413.493" cy="134.412" r="4" fill="#0" id="circle153"/>
	<circle cx="417.84" cy="204.834" r="4" fill="#0" id="circle154"/>
	<circle cx="422.188" cy="134.412" r="4" fill="#0" id="circle155"/>
	<circle cx="426.535" cy="204.834" r="4" fill="#0" id="circle156"/>
	<circle cx="430.882" cy="134.412" r="4" fill="#0" id="circle157"/>
	<circle cx="435.229" cy="204.834" r="4" fill="#0" id="circle158"/>
	<circle cx="439.576" cy="134.412" r="4" fill="#0" id="circle159"/>
	<circle cx="443.923" cy="204.834" r="4" fill="#0" id="circle160"/>
	<circle cx="448.27" cy="134.412" r="4" fill="#0" id="circle161"/>
	<circle cx="452.617" cy="204.834" r="4" fill="#0" id="circle162"/>
	<circle cx="456.964" cy="134.412" r="4" fill="#0" id="circle163"/>
	<circle cx="461.311" cy="204.834" r="4" fill="#0" id="circle164"/>
	<circle cx="465.658" cy="134.412" r="4" fill="#0" id="circle165"/>
	<circle cx="470.005" cy="204.834" r="4" fill="#0" id="circle166"/>
	<circle cx="474.352" cy="134.412" r="4" fill="#0" id="circle167"/>
	<circle cx="478.699" cy="204.834" r="4" fill="#0" id="circle168"/>
	<circle cx="483.046" cy="134.412" r="4" fill="#0" id="circle169"/>
	<circle cx="487.394" cy="204.834" r="4" fill="#0" id="circle170"/>
	<circle cx="491.741" cy="134.412" r="4" fill="#0" id="circle171"/>
	<circle cx="496.088" cy="204.834" r="4" fill="#0" id="circle172"/>
	<circle cx="500.435" cy="134.412" r="4" fill="#0" id="circle173"/>
	<circle cx="504.782" cy="204.834" r="4" fill="#0" id="circle174"/>
	<circle cx="509.129" cy="134.412" r="4" fill="#0" id="circle175"/>
	<circle cx="513.476" cy="204.834" r="4" fill="#0" id="circle176"/>
	<circle cx="517.823" cy="134.412" r="4" fill="#0" id="circle177"/>
	<circle cx="522.17" cy="204.834" r="4" fill="#0" id="circle178"/>
	<circle cx="526.517" cy="134.412" r="4" fill="#0" id="circle179"/>
	<circle cx="530.864" cy="204.834" r="4" fill="#0" id="circle180"/>
	<circle cx="535.211" cy="134.412" r="4" fill="#0" id="circle181"/>
	<circle cx="539.558" cy="204.834" r="4" fill="#0" id="circle182"/>
	<circle cx="543.905" cy="134.412" r="4" fill="#0" id="circle183"/>
	<circle cx="548.252" cy="204.834" r="4" fill="#0" id="circle184"/>
	<circle cx="552.599" cy="134.412" r="4" fill="#0" id="circle185"/>
	<circle cx="556.947" cy="204.834" r="4" fill="#0" id="circle186"/>
	<circle cx="561.294" cy="134.412" r="4" fill="#0" id="circle187"/>
	<circle cx="565.641" cy="204.834" r="4" fill="#0" id="circle188"/>
	<circle cx="569.988" cy="134.412" r="4" fill="#0" id="circle189"/>
	<circle cx="574.335" cy="204.834" r="4" fill="#0" id="circle190"/>
	<circle cx="578.682" cy="134.412" r="4" fill="#0" id="circle191"/>
	<circle cx="583.029" cy="204.834" r="4" fill="#0" id="circle192"/>
	<circle cx="587.376" cy="134.412" r="4" fill="#0" id="circle193"/>
	<circle cx="591.723" cy="204.834" r="4" fill="#0" id="circle194"/>
	<circle cx="596.07" cy="134.412" r="4" fill="#0" id="circle195"/>
	<circle cx="600.417" cy="204.834" r="4" fill="#0" id="circle196"/>
	<circle cx="604.764" cy="134.412" r="4" fill="#0" id="circle197"/>
	<circle cx="609.111" cy="204.834" r="4" fill="#0" id="circle198"/>
	<circle cx="613.458" cy="134.412" r="4" fill="#0" id="circle199"/>
	<circle cx="617.805" cy="204.834" r="4" fill="#0" id="circle200"/>
	<circle cx="622.152" cy="134.412" r="4" fill="#0" id="circle201"/>
	<circle cx="626.5" cy="204.834" r="4" fill="#0" id="circle202"/>
	<circle cx="630.847" cy="134.412" r="4" fill="#0" id="circle203"/>
	<circle cx="635.194" cy="204.834" r="4" fill="#0" id="circle204"/>
	<circle cx="639.541" cy="134.412" r="4" fill="#0" id="circle205"/>
	<circle cx="643.888" cy="204.834" r="4" fill="#0" id="circle206"/>
	<circle cx="648.235" cy="134.412" r="4" fill="#0" id="circle207"/>
	<circle cx="652.582" cy="204.834" r="4" fill="#0" id="circle208"/>
	<circle cx="656.929" cy="134.412" r="4" fill="#0" id="circle209"/>
	<circle cx="661.276" cy="204.834" r="4" fill="#0" id="circle210"/>
	<circle cx="665.623" cy="134.412" r="4" fill="#0" id="circle211"/>
	<circle cx="669.97" cy="204.834" r="4" fill="#0" id="circle212"/>
	<circle cx="674.317" cy="134.412" r="4" fill="#0" id="circle213"/>
	<circle cx="678.664" cy="204.834" r="4" fill="#0" id="circle214"/>
	<circle cx="683.011" cy="134.412" r="4" fill="#0" id="circle215"/>
	<circle cx="687.358" cy="204.834" r="4" fill="#0" id="circle216"/>
	<circle cx="691.706" cy="134.412" r="4" fill="#0" id="circle217"/>
	<circle cx="696.053" cy="204.834" r="4" fill="#0" id="circle218"/>
	<circle cx="700.4" cy="134.412" r="4" fill="#0" id="circle219"/>
	<circle cx="704.747" cy="204.834" r="4" fill="#0" id="circle220"/>
	<circle cx="709.094" cy="134.412" r="4" fill="#0" id="circle221"/>
	<circle cx="713.441" cy="204.834" r="4" fill="#0" id="circle222"/>
	<circle cx="717.788" cy="134.412" r="4" fill="#0" id="circle223"/>
	<circle cx="722.135" cy="204.834" r="4" fill="#0" id="circle224"/>
	<circle cx="726.482" cy="134.412" r="4" fill="#0" id="circle225"/>
	<circle cx="730.829" cy="204.834" r="4" fill="#0" id="circle226"/>
	<circle cx="735.176" cy="134.412" r="4" fill="#0" id="circle227"/>
	<circle cx="739.523" cy="204.834" r="4" fill="#0" id="circle228"/>
	<circle cx="743.87" cy="134.412" r="4" fill="#0" id="circle229"/>
	<circle cx="748.217" cy="204.834" r="4" fill="#0" id="circle230"/>
	<circle cx="752.564" cy="134.412" r="4" fill="#0" id="circle231"/>
	<circle cx="756.911" cy="204.834" r="4" fill="#0" id="circle232"/>
	<circle cx="761.259" cy="134.412" r="4" fill="#0" id="circle233"/>
	<circle cx="765.606" cy="204.834" r="4" fill="#0" id="circle234"/>
	<circle cx="769.953" cy="134.412" r="4" fill="#0" id="circle235"/>
	<circle cx="774.3" cy="204.834" r="4" fill="#0" id="circle236"/>
	<circle cx="778.647" cy="134.412" r="4" fill="#0" id="circle237"/>
	<circle cx="782.994" cy="204.834" r="4" fill="#0" id="circle238"/>
	<circle cx="787.341" cy="134.412" r="4" fill="#0" id="circle239"/>
	<circle cx="791.688" cy="204.834" r="4" fill="#0" id="circle240"/>
	<circle cx="796.035" cy="134.412" r="4" fill="#0" id="circle241"/>
	<circle cx="800.382" cy="204.834" r="4" fill="#0" id="circle242"/>
	<circle cx="804.729" cy="134.412" r="4" fill="#0" id="circle243"/>
	<circle cx="809.076" cy="204.834" r="4" fill="#0" id="circle244"/>
	<circle cx="813.423" cy="134.412" r="4" fill="#0" id="circle245"/>
	<circle cx="817.77" cy="204.834" r="4" fill="#0" id="circle246"/>
	<circle cx="822.117" cy="134.412" r="4" fill="#0" id="circle247"/>
	<circle cx="826.465" cy="204.834" r="4" fill="#0" id="circle248"/>
	<circle cx="830.812" cy="134.412" r="4" fill="#0" id="circle249"/>
	<circle cx="835.159" cy="204.834" r="4" fill="#0" id="circle250"/>
	<circle cx="839.506" cy="134.412" r="4" fill="#0" id="circle251"/>
	<circle cx="843.853" cy="204.834" r="4" fill="#0" id="circle252"/>
	<circle cx="848.2" cy="134.412" r="4" fill="#0" id="circle253"/>
	<circle cx="852.547" cy="204.834" r="4" fill="#0" id="circle254"/>
	<circle cx="856.894" cy="134.412" r="4" fill="#0" id="circle255"/>
	<circle cx="861.241" cy="204.834" r="4" fill="#0" id="circle256"/>
	<circle cx="865.588" cy="134.412" r="4" fill="#0" id="circle257"/>
	<circle cx="869.935" cy="204.834" r="4" fill="#0" id="circle258"/>
	<circle cx="874.282" cy="134.412" r="4" fill="#0" id="circle259"/>
	<circle cx="878.629" cy="204.834" r="4" fill="#0" id="circle260"/>
	<circle cx="882.976" cy="134.412" r="4" fill="#0" id="circle261"/>
	<circle cx="887.323" cy="204.834" r="4" fill="#0" id="circle262"/>
	<circle cx="891.67" cy="134.412" r="4" fill="#0" id="circle263"/>
	<circle cx="896.018" cy="204.834" r="4" fill="#0" id="circle264"/>
	<circle cx="900.365" cy="134.412" r="4" fill="#0" id="circle265"/>
	<circle cx="904.712" cy="204.834" r="4" fill="#0" id="circle266"/>
	<circle cx="909.059" cy="134.412" r="4" fill="#0" id="circle267"/>
	<circle cx="913.406" cy="204.834" r="4" fill="#0" id="circle268"/>
	<circle cx="917.753" cy="134.412" r="4" fill="#0" id="circle269"/>
	<circle cx="922.1" cy="204.834" r="4" fill="#0" id="circle270"/>
	<circle cx="926.447" cy="134.412" r="4" fill="#0" id="circle271"/>
	<circle cx="930.794" cy="204.834" r="4" fill="#0" id="circle272"/>
	<circle cx="935.141" cy="134.412" r="4" fill="#0" id="circle273"/>
	<circle cx="939.488" cy="204.834" r="4" fill="#0" id="circle274"/>
	<circle cx="943.835" cy="134.412" r="4" fill="#0" id="circle275"/>
	<circle cx="948.182" cy="204.834" r="4" fill="#0" id="circle276"/>
	<circle cx="952.529" cy="134.412" r="4" fill="#0" id="circle277"/>
	<circle cx="956.876" cy="204.834" r="4" fill="#0" id="circle278"/>
	<circle cx="961.223" cy="134.412" r="4" fill="#0" id="circle279"/>
	<circle cx="965.571" cy="204.834" r="4" fill="#0" id="circle280"/>
	<circle cx="969.918" cy="134.412" r="4" fill="#0" id="circle281"/>
	<circle cx="974.265" cy="204.834" r="4" fill="#0" id="circle282"/>
	<circle cx="978.612" cy="134.412" r="4" fill="#0" id="circle283"/>
	<circle cx="982.959" cy="204.834" r="4" fill="#0" id="circle284"/>
	<circle cx="985.567" cy="139.628" r="4" fill="#0" id="circle285"/>
	<circle cx="989.914" cy="198.748" r="4" fill="#0" id="circle286"/>
	<circle cx="991.653" cy="146.584" r="4" fill="#0" id="circle287"/>
	<circle cx="996" cy="154.408" r="4" fill="#0" id="circle288"/>
	<circle cx="996" cy="163.103" r="4" fill="#0" id="circle289"/>
	<circle cx="996" cy="171.797" r="4" fill="#0" id="circle290"/>
	<circle cx="996" cy="180.491" r="4" fill="#0" id="circle291"/>
	<circle cx="996" cy="189.185" r="4" fill="#0" id="circle292"/>
	</g>
</svg>