<?xml version="1.0" encoding="UTF-8" standalone="no"?>
<!-- Created with CurveBenchmark -->
<svg
	xmlns:dc="http://purl.org/dc/elements/1.1/"
	xmlns:cc="http://creativecommons.org/ns#"
	xmlns:rdf="http://www.w3.org/1999/02/22-rdf-syntax-ns#"
	xmlns:svg="http://www.w3.org/2000/svg"
	xmlns="http://www.w3.org/2000/svg"
	xmlns:sodipodi="http://sodipodi.sourceforge.net/DTD/sodipodi-0.dtd"
	xmlns:inkscape="http://www.inkscape.org/namespaces/inkscape"
	width="1000"
	height="1000"
	id="svg2"
	version="1.1"
	sodipodi:docname="manifold/gathan1-truck-08.png.txt">
<defs
	id="defs4" />
<metadata
	id="metadata7">
	<rdf:RDF>
		<cc:Work
			rdf:about="">
			<dc:format>image/svg+xml</dc:format>
			<dc:type
				rdf:resource="http://purl.org/dc/dcmitype/StillImage" />
			<dc:title></dc:title>
		</cc:Work>
	</rdf:RDF>
</metadata>
<g
	inkscape:label="Layer 1"
	inkscape:groupmode="layer"
	id="layer1">
	<path style="fill:none;stroke:red;stroke-width:1px;stroke-linecap:butt;stroke-linejoin:miter;stroke-opacity:1" d="M 33.5825,187.412 53.3042,167.69 z" id="boundary" inkscape:connector-curvature="0" />
	<path style="fill:none;stroke:red;stroke-width:1px;stroke-linecap:butt;stroke-linejoin:miter;stroke-opacity:1" d="M 33.5825,187.412 13.8608,197.272 z" id="boundary" inkscape:connector-curvature="0" />
	<path style="fill:none;stroke:red;stroke-width:1px;stroke-linecap:butt;stroke-linejoin:miter;stroke-opacity:1" d="M 4,216.994 13.8608,197.272 z" id="boundary" inkscape:connector-curvature="0" />
	<path style="fill:none;stroke:red;stroke-width:1px;stroke-linecap:butt;stroke-linejoin:miter;stroke-opacity:1" d="M 4,236.716 4,216.994 z" id="boundary" inkscape:connector-curvature="0" />
	<path style="fill:none;stroke:red;stroke-width:1px;stroke-linecap:butt;stroke-linejoin:miter;stroke-opacity:1" d="M 69.0815,151.913 53.3042,167.69 z" id="boundary" inkscape:connector-curvature="0" />
	<path style="fill:none;stroke:red;stroke-width:1px;stroke-linecap:butt;stroke-linejoin:miter;stroke-opacity:1" d="M 126.274,134.163 106.553,142.052 z" id="boundary" inkscape:connector-curvature="0" />
	<path style="fill:none;stroke:red;stroke-width:1px;stroke-linecap:butt;stroke-linejoin:miter;stroke-opacity:1" d="M 106.553,142.052 86.831,142.052 z" id="boundary" inkscape:connector-curvature="0" />
	<path style="fill:none;stroke:red;stroke-width:1px;stroke-linecap:butt;stroke-linejoin:miter;stroke-opacity:1" d="M 69.0815,151.913 86.831,142.052 z" id="boundary" inkscape:connector-curvature="0" />
	<path style="fill:none;stroke:red;stroke-width:1px;stroke-linecap:butt;stroke-linejoin:miter;stroke-opacity:1" d="M 126.274,311.658 106.553,311.658 z" id="boundary" inkscape:connector-curvature="0" />
	<path style="fill:none;stroke:red;stroke-width:1px;stroke-linecap:butt;stroke-linejoin:miter;stroke-opacity:1" d="M 4,276.159 13.8608,293.909 z" id="boundary" inkscape:connector-curvature="0" />
	<path style="fill:none;stroke:red;stroke-width:1px;stroke-linecap:butt;stroke-linejoin:miter;stroke-opacity:1" d="M 4,276.159 4,256.437 z" id="boundary" inkscape:connector-curvature="0" />
	<path style="fill:none;stroke:red;stroke-width:1px;stroke-linecap:butt;stroke-linejoin:miter;stroke-opacity:1" d="M 4,256.437 4,236.716 z" id="boundary" inkscape:connector-curvature="0" />
	<path style="fill:none;stroke:red;stroke-width:1px;stroke-linecap:butt;stroke-linejoin:miter;stroke-opacity:1" d="M 27.666,309.686 47.3877,311.658 z" id="boundary" inkscape:connector-curvature="0" />
	<path style="fill:none;stroke:red;stroke-width:1px;stroke-linecap:butt;stroke-linejoin:miter;stroke-opacity:1" d="M 27.666,309.686 13.8608,293.909 z" id="boundary" inkscape:connector-curvature="0" />
	<path style="fill:none;stroke:red;stroke-width:1px;stroke-linecap:butt;stroke-linejoin:miter;stroke-opacity:1" d="M 67.1093,311.658 86.831,311.658 z" id="boundary" inkscape:connector-curvature="0" />
	<path style="fill:none;stroke:red;stroke-width:1px;stroke-linecap:butt;stroke-linejoin:miter;stroke-opacity:1" d="M 67.1093,311.658 47.3877,311.658 z" id="boundary" inkscape:connector-curvature="0" />
	<path style="fill:none;stroke:red;stroke-width:1px;stroke-linecap:butt;stroke-linejoin:miter;stroke-opacity:1" d="M 86.831,311.658 106.553,311.658 z" id="boundary" inkscape:connector-curvature="0" />
	<path style="fill:none;stroke:red;stroke-width:1px;stroke-linecap:butt;stroke-linejoin:miter;stroke-opacity:1" d="M 126.274,134.163 145.996,132.191 z" id="boundary" inkscape:connector-curvature="0" />
	<path style="fill:none;stroke:red;stroke-width:1px;stroke-linecap:butt;stroke-linejoin:miter;stroke-opacity:1" d="M 343.213,122.33 362.934,114.441 z" id="boundary" inkscape:connector-curvature="0" />
	<path style="fill:none;stroke:red;stroke-width:1px;stroke-linecap:butt;stroke-linejoin:miter;stroke-opacity:1" d="M 362.934,114.441 382.656,112.469 z" id="boundary" inkscape:connector-curvature="0" />
	<path style="fill:none;stroke:red;stroke-width:1px;stroke-linecap:butt;stroke-linejoin:miter;stroke-opacity:1" d="M 303.769,122.33 284.048,122.33 z" id="boundary" inkscape:connector-curvature="0" />
	<path style="fill:none;stroke:red;stroke-width:1px;stroke-linecap:butt;stroke-linejoin:miter;stroke-opacity:1" d="M 477.32,59.2207 461.543,74.998 z" id="boundary" inkscape:connector-curvature="0" />
	<path style="fill:none;stroke:red;stroke-width:1px;stroke-linecap:butt;stroke-linejoin:miter;stroke-opacity:1" d="M 284.048,122.33 264.326,122.33 z" id="boundary" inkscape:connector-curvature="0" />
	<path style="fill:none;stroke:red;stroke-width:1px;stroke-linecap:butt;stroke-linejoin:miter;stroke-opacity:1" d="M 441.821,112.469 451.682,94.7197 z" id="boundary" inkscape:connector-curvature="0" />
	<path style="fill:none;stroke:red;stroke-width:1px;stroke-linecap:butt;stroke-linejoin:miter;stroke-opacity:1" d="M 461.543,74.998 451.682,94.7197 z" id="boundary" inkscape:connector-curvature="0" />
	<path style="fill:none;stroke:red;stroke-width:1px;stroke-linecap:butt;stroke-linejoin:miter;stroke-opacity:1" d="M 382.656,112.469 402.378,112.469 z" id="boundary" inkscape:connector-curvature="0" />
	<path style="fill:none;stroke:red;stroke-width:1px;stroke-linecap:butt;stroke-linejoin:miter;stroke-opacity:1" d="M 422.099,112.469 402.378,112.469 z" id="boundary" inkscape:connector-curvature="0" />
	<path style="fill:none;stroke:red;stroke-width:1px;stroke-linecap:butt;stroke-linejoin:miter;stroke-opacity:1" d="M 441.821,112.469 422.099,112.469 z" id="boundary" inkscape:connector-curvature="0" />
	<path style="fill:none;stroke:red;stroke-width:1px;stroke-linecap:butt;stroke-linejoin:miter;stroke-opacity:1" d="M 264.326,122.33 244.604,122.33 z" id="boundary" inkscape:connector-curvature="0" />
	<path style="fill:none;stroke:red;stroke-width:1px;stroke-linecap:butt;stroke-linejoin:miter;stroke-opacity:1" d="M 165.718,132.191 145.996,132.191 z" id="boundary" inkscape:connector-curvature="0" />
	<path style="fill:none;stroke:red;stroke-width:1px;stroke-linecap:butt;stroke-linejoin:miter;stroke-opacity:1" d="M 165.718,132.191 185.439,132.191 z" id="boundary" inkscape:connector-curvature="0" />
	<path style="fill:none;stroke:red;stroke-width:1px;stroke-linecap:butt;stroke-linejoin:miter;stroke-opacity:1" d="M 205.161,132.191 185.439,132.191 z" id="boundary" inkscape:connector-curvature="0" />
	<path style="fill:none;stroke:red;stroke-width:1px;stroke-linecap:butt;stroke-linejoin:miter;stroke-opacity:1" d="M 224.883,124.302 205.161,132.191 z" id="boundary" inkscape:connector-curvature="0" />
	<path style="fill:none;stroke:red;stroke-width:1px;stroke-linecap:butt;stroke-linejoin:miter;stroke-opacity:1" d="M 303.769,122.33 323.491,122.33 z" id="boundary" inkscape:connector-curvature="0" />
	<path style="fill:none;stroke:red;stroke-width:1px;stroke-linecap:butt;stroke-linejoin:miter;stroke-opacity:1" d="M 343.213,122.33 323.491,122.33 z" id="boundary" inkscape:connector-curvature="0" />
	<path style="fill:none;stroke:red;stroke-width:1px;stroke-linecap:butt;stroke-linejoin:miter;stroke-opacity:1" d="M 224.883,124.302 244.604,122.33 z" id="boundary" inkscape:connector-curvature="0" />
	<path style="fill:none;stroke:red;stroke-width:1px;stroke-linecap:butt;stroke-linejoin:miter;stroke-opacity:1" d="M 53.3042,424.072 53.3042,404.35 z" id="boundary" inkscape:connector-curvature="0" />
	<path style="fill:none;stroke:red;stroke-width:1px;stroke-linecap:butt;stroke-linejoin:miter;stroke-opacity:1" d="M 102.608,364.907 82.8867,374.767 z" id="boundary" inkscape:connector-curvature="0" />
	<path style="fill:none;stroke:red;stroke-width:1px;stroke-linecap:butt;stroke-linejoin:miter;stroke-opacity:1" d="M 53.3042,404.35 63.165,384.628 z" id="boundary" inkscape:connector-curvature="0" />
	<path style="fill:none;stroke:red;stroke-width:1px;stroke-linecap:butt;stroke-linejoin:miter;stroke-opacity:1" d="M 63.165,384.628 82.8867,374.767 z" id="boundary" inkscape:connector-curvature="0" />
	<path style="fill:none;stroke:red;stroke-width:1px;stroke-linecap:butt;stroke-linejoin:miter;stroke-opacity:1" d="M 126.274,311.658 145.996,311.658 z" id="boundary" inkscape:connector-curvature="0" />
	<path style="fill:none;stroke:red;stroke-width:1px;stroke-linecap:butt;stroke-linejoin:miter;stroke-opacity:1" d="M 102.608,364.907 122.33,355.046 z" id="boundary" inkscape:connector-curvature="0" />
	<path style="fill:none;stroke:red;stroke-width:1px;stroke-linecap:butt;stroke-linejoin:miter;stroke-opacity:1" d="M 142.052,349.129 122.33,355.046 z" id="boundary" inkscape:connector-curvature="0" />
	<path style="fill:none;stroke:red;stroke-width:1px;stroke-linecap:butt;stroke-linejoin:miter;stroke-opacity:1" d="M 53.3042,424.072 53.3042,443.793 z" id="boundary" inkscape:connector-curvature="0" />
	<path style="fill:none;stroke:red;stroke-width:1px;stroke-linecap:butt;stroke-linejoin:miter;stroke-opacity:1" d="M 63.165,481.264 53.3042,463.515 z" id="boundary" inkscape:connector-curvature="0" />
	<path style="fill:none;stroke:red;stroke-width:1px;stroke-linecap:butt;stroke-linejoin:miter;stroke-opacity:1" d="M 53.3042,463.515 53.3042,443.793 z" id="boundary" inkscape:connector-curvature="0" />
	<path style="fill:none;stroke:red;stroke-width:1px;stroke-linecap:butt;stroke-linejoin:miter;stroke-opacity:1" d="M 84.8588,514.791 73.0258,499.014 z" id="boundary" inkscape:connector-curvature="0" />
	<path style="fill:none;stroke:red;stroke-width:1px;stroke-linecap:butt;stroke-linejoin:miter;stroke-opacity:1" d="M 104.581,518.736 84.8588,514.791 z" id="boundary" inkscape:connector-curvature="0" />
	<path style="fill:none;stroke:red;stroke-width:1px;stroke-linecap:butt;stroke-linejoin:miter;stroke-opacity:1" d="M 104.581,518.736 124.302,518.736 z" id="boundary" inkscape:connector-curvature="0" />
	<path style="fill:none;stroke:red;stroke-width:1px;stroke-linecap:butt;stroke-linejoin:miter;stroke-opacity:1" d="M 124.302,518.736 144.024,522.68 z" id="boundary" inkscape:connector-curvature="0" />
	<path style="fill:none;stroke:red;stroke-width:1px;stroke-linecap:butt;stroke-linejoin:miter;stroke-opacity:1" d="M 73.0258,499.014 63.165,481.264 z" id="boundary" inkscape:connector-curvature="0" />
	<path style="fill:none;stroke:red;stroke-width:1px;stroke-linecap:butt;stroke-linejoin:miter;stroke-opacity:1" d="M 144.024,522.68 163.746,528.596 z" id="boundary" inkscape:connector-curvature="0" />
	<path style="fill:none;stroke:red;stroke-width:1px;stroke-linecap:butt;stroke-linejoin:miter;stroke-opacity:1" d="M 145.996,311.658 161.773,323.491 z" id="boundary" inkscape:connector-curvature="0" />
	<path style="fill:none;stroke:red;stroke-width:1px;stroke-linecap:butt;stroke-linejoin:miter;stroke-opacity:1" d="M 161.773,323.491 161.773,343.213 z" id="boundary" inkscape:connector-curvature="0" />
	<path style="fill:none;stroke:red;stroke-width:1px;stroke-linecap:butt;stroke-linejoin:miter;stroke-opacity:1" d="M 161.773,343.213 142.052,349.129 z" id="boundary" inkscape:connector-curvature="0" />
	<path style="fill:none;stroke:red;stroke-width:1px;stroke-linecap:butt;stroke-linejoin:miter;stroke-opacity:1" d="M 331.38,499.014 311.658,499.014 z" id="boundary" inkscape:connector-curvature="0" />
	<path style="fill:none;stroke:red;stroke-width:1px;stroke-linecap:butt;stroke-linejoin:miter;stroke-opacity:1" d="M 291.936,499.014 311.658,499.014 z" id="boundary" inkscape:connector-curvature="0" />
	<path style="fill:none;stroke:red;stroke-width:1px;stroke-linecap:butt;stroke-linejoin:miter;stroke-opacity:1" d="M 280.103,518.736 291.936,499.014 z" id="boundary" inkscape:connector-curvature="0" />
	<path style="fill:none;stroke:red;stroke-width:1px;stroke-linecap:butt;stroke-linejoin:miter;stroke-opacity:1" d="M 331.38,499.014 351.101,499.014 z" id="boundary" inkscape:connector-curvature="0" />
	<path style="fill:none;stroke:red;stroke-width:1px;stroke-linecap:butt;stroke-linejoin:miter;stroke-opacity:1" d="M 370.823,499.014 390.545,499.014 z" id="boundary" inkscape:connector-curvature="0" />
	<path style="fill:none;stroke:red;stroke-width:1px;stroke-linecap:butt;stroke-linejoin:miter;stroke-opacity:1" d="M 370.823,499.014 351.101,499.014 z" id="boundary" inkscape:connector-curvature="0" />
	<path style="fill:none;stroke:red;stroke-width:1px;stroke-linecap:butt;stroke-linejoin:miter;stroke-opacity:1" d="M 390.545,499.014 410.266,499.014 z" id="boundary" inkscape:connector-curvature="0" />
	<path style="fill:none;stroke:red;stroke-width:1px;stroke-linecap:butt;stroke-linejoin:miter;stroke-opacity:1" d="M 183.467,528.596 163.746,528.596 z" id="boundary" inkscape:connector-curvature="0" />
	<path style="fill:none;stroke:red;stroke-width:1px;stroke-linecap:butt;stroke-linejoin:miter;stroke-opacity:1" d="M 222.911,528.596 203.189,528.596 z" id="boundary" inkscape:connector-curvature="0" />
	<path style="fill:none;stroke:red;stroke-width:1px;stroke-linecap:butt;stroke-linejoin:miter;stroke-opacity:1" d="M 203.189,528.596 183.467,528.596 z" id="boundary" inkscape:connector-curvature="0" />
	<path style="fill:none;stroke:red;stroke-width:1px;stroke-linecap:butt;stroke-linejoin:miter;stroke-opacity:1" d="M 429.988,499.014 410.266,499.014 z" id="boundary" inkscape:connector-curvature="0" />
	<path style="fill:none;stroke:red;stroke-width:1px;stroke-linecap:butt;stroke-linejoin:miter;stroke-opacity:1" d="M 280.103,518.736 262.354,528.596 z" id="boundary" inkscape:connector-curvature="0" />
	<path style="fill:none;stroke:red;stroke-width:1px;stroke-linecap:butt;stroke-linejoin:miter;stroke-opacity:1" d="M 262.354,528.596 242.632,528.596 z" id="boundary" inkscape:connector-curvature="0" />
	<path style="fill:none;stroke:red;stroke-width:1px;stroke-linecap:butt;stroke-linejoin:miter;stroke-opacity:1" d="M 242.632,528.596 222.911,528.596 z" id="boundary" inkscape:connector-curvature="0" />
	<path style="fill:none;stroke:red;stroke-width:1px;stroke-linecap:butt;stroke-linejoin:miter;stroke-opacity:1" d="M 429.988,499.014 447.738,508.875 z" id="boundary" inkscape:connector-curvature="0" />
	<path style="fill:none;stroke:red;stroke-width:1px;stroke-linecap:butt;stroke-linejoin:miter;stroke-opacity:1" d="M 467.459,508.875 447.738,508.875 z" id="boundary" inkscape:connector-curvature="0" />
	<path style="fill:none;stroke:red;stroke-width:1px;stroke-linecap:butt;stroke-linejoin:miter;stroke-opacity:1" d="M 522.68,13.8608 542.402,13.8608 z" id="boundary" inkscape:connector-curvature="0" />
	<path style="fill:none;stroke:red;stroke-width:1px;stroke-linecap:butt;stroke-linejoin:miter;stroke-opacity:1" d="M 562.123,13.8608 581.845,13.8608 z" id="boundary" inkscape:connector-curvature="0" />
	<path style="fill:none;stroke:red;stroke-width:1px;stroke-linecap:butt;stroke-linejoin:miter;stroke-opacity:1" d="M 562.123,13.8608 542.402,13.8608 z" id="boundary" inkscape:connector-curvature="0" />
	<path style="fill:none;stroke:red;stroke-width:1px;stroke-linecap:butt;stroke-linejoin:miter;stroke-opacity:1" d="M 621.288,13.8608 601.567,13.8608 z" id="boundary" inkscape:connector-curvature="0" />
	<path style="fill:none;stroke:red;stroke-width:1px;stroke-linecap:butt;stroke-linejoin:miter;stroke-opacity:1" d="M 719.897,4 739.618,4 z" id="boundary" inkscape:connector-curvature="0" />
	<path style="fill:none;stroke:red;stroke-width:1px;stroke-linecap:butt;stroke-linejoin:miter;stroke-opacity:1" d="M 739.618,4 757.368,13.8608 z" id="boundary" inkscape:connector-curvature="0" />
	<path style="fill:none;stroke:red;stroke-width:1px;stroke-linecap:butt;stroke-linejoin:miter;stroke-opacity:1" d="M 700.175,4 719.897,4 z" id="boundary" inkscape:connector-curvature="0" />
	<path style="fill:none;stroke:red;stroke-width:1px;stroke-linecap:butt;stroke-linejoin:miter;stroke-opacity:1" d="M 680.453,13.8608 700.175,4 z" id="boundary" inkscape:connector-curvature="0" />
	<path style="fill:none;stroke:red;stroke-width:1px;stroke-linecap:butt;stroke-linejoin:miter;stroke-opacity:1" d="M 601.567,13.8608 581.845,13.8608 z" id="boundary" inkscape:connector-curvature="0" />
	<path style="fill:none;stroke:red;stroke-width:1px;stroke-linecap:butt;stroke-linejoin:miter;stroke-opacity:1" d="M 493.097,43.4433 502.958,23.7217 z" id="boundary" inkscape:connector-curvature="0" />
	<path style="fill:none;stroke:red;stroke-width:1px;stroke-linecap:butt;stroke-linejoin:miter;stroke-opacity:1" d="M 502.958,23.7217 522.68,13.8608 z" id="boundary" inkscape:connector-curvature="0" />
	<path style="fill:none;stroke:red;stroke-width:1px;stroke-linecap:butt;stroke-linejoin:miter;stroke-opacity:1" d="M 477.32,59.2207 493.097,43.4433 z" id="boundary" inkscape:connector-curvature="0" />
	<path style="fill:none;stroke:red;stroke-width:1px;stroke-linecap:butt;stroke-linejoin:miter;stroke-opacity:1" d="M 641.01,13.8608 660.732,13.8608 z" id="boundary" inkscape:connector-curvature="0" />
	<path style="fill:none;stroke:red;stroke-width:1px;stroke-linecap:butt;stroke-linejoin:miter;stroke-opacity:1" d="M 660.732,13.8608 680.453,13.8608 z" id="boundary" inkscape:connector-curvature="0" />
	<path style="fill:none;stroke:red;stroke-width:1px;stroke-linecap:butt;stroke-linejoin:miter;stroke-opacity:1" d="M 621.288,13.8608 641.01,13.8608 z" id="boundary" inkscape:connector-curvature="0" />
	<path style="fill:none;stroke:red;stroke-width:1px;stroke-linecap:butt;stroke-linejoin:miter;stroke-opacity:1" d="M 757.368,13.8608 773.145,27.666 z" id="boundary" inkscape:connector-curvature="0" />
	<path style="fill:none;stroke:red;stroke-width:1px;stroke-linecap:butt;stroke-linejoin:miter;stroke-opacity:1" d="M 773.145,27.666 775.117,47.3877 z" id="boundary" inkscape:connector-curvature="0" />
	<path style="fill:none;stroke:red;stroke-width:1px;stroke-linecap:butt;stroke-linejoin:miter;stroke-opacity:1" d="M 775.117,47.3877 775.117,67.1093 z" id="boundary" inkscape:connector-curvature="0" />
	<path style="fill:none;stroke:red;stroke-width:1px;stroke-linecap:butt;stroke-linejoin:miter;stroke-opacity:1" d="M 775.117,86.831 775.117,106.553 z" id="boundary" inkscape:connector-curvature="0" />
	<path style="fill:none;stroke:red;stroke-width:1px;stroke-linecap:butt;stroke-linejoin:miter;stroke-opacity:1" d="M 775.117,86.831 775.117,67.1093 z" id="boundary" inkscape:connector-curvature="0" />
	<path style="fill:none;stroke:red;stroke-width:1px;stroke-linecap:butt;stroke-linejoin:miter;stroke-opacity:1" d="M 775.117,126.274 781.034,145.996 z" id="boundary" inkscape:connector-curvature="0" />
	<path style="fill:none;stroke:red;stroke-width:1px;stroke-linecap:butt;stroke-linejoin:miter;stroke-opacity:1" d="M 800.755,151.913 781.034,145.996 z" id="boundary" inkscape:connector-curvature="0" />
	<path style="fill:none;stroke:red;stroke-width:1px;stroke-linecap:butt;stroke-linejoin:miter;stroke-opacity:1" d="M 800.755,151.913 820.477,151.913 z" id="boundary" inkscape:connector-curvature="0" />
	<path style="fill:none;stroke:red;stroke-width:1px;stroke-linecap:butt;stroke-linejoin:miter;stroke-opacity:1" d="M 820.477,151.913 838.227,161.773 z" id="boundary" inkscape:connector-curvature="0" />
	<path style="fill:none;stroke:red;stroke-width:1px;stroke-linecap:butt;stroke-linejoin:miter;stroke-opacity:1" d="M 775.117,126.274 775.117,106.553 z" id="boundary" inkscape:connector-curvature="0" />
	<path style="fill:none;stroke:red;stroke-width:1px;stroke-linecap:butt;stroke-linejoin:miter;stroke-opacity:1" d="M 854.004,197.272 854.004,216.994 z" id="boundary" inkscape:connector-curvature="0" />
	<path style="fill:none;stroke:red;stroke-width:1px;stroke-linecap:butt;stroke-linejoin:miter;stroke-opacity:1" d="M 893.447,220.938 873.726,220.938 z" id="boundary" inkscape:connector-curvature="0" />
	<path style="fill:none;stroke:red;stroke-width:1px;stroke-linecap:butt;stroke-linejoin:miter;stroke-opacity:1" d="M 854.004,216.994 873.726,220.938 z" id="boundary" inkscape:connector-curvature="0" />
	<path style="fill:none;stroke:red;stroke-width:1px;stroke-linecap:butt;stroke-linejoin:miter;stroke-opacity:1" d="M 854.004,197.272 852.032,177.551 z" id="boundary" inkscape:connector-curvature="0" />
	<path style="fill:none;stroke:red;stroke-width:1px;stroke-linecap:butt;stroke-linejoin:miter;stroke-opacity:1" d="M 838.227,161.773 852.032,177.551 z" id="boundary" inkscape:connector-curvature="0" />
	<path style="fill:none;stroke:red;stroke-width:1px;stroke-linecap:butt;stroke-linejoin:miter;stroke-opacity:1" d="M 909.225,232.771 893.447,220.938 z" id="boundary" inkscape:connector-curvature="0" />
	<path style="fill:none;stroke:red;stroke-width:1px;stroke-linecap:butt;stroke-linejoin:miter;stroke-opacity:1" d="M 938.807,280.103 923.03,268.27 z" id="boundary" inkscape:connector-curvature="0" />
	<path style="fill:none;stroke:red;stroke-width:1px;stroke-linecap:butt;stroke-linejoin:miter;stroke-opacity:1" d="M 923.03,268.27 923.03,248.549 z" id="boundary" inkscape:connector-curvature="0" />
	<path style="fill:none;stroke:red;stroke-width:1px;stroke-linecap:butt;stroke-linejoin:miter;stroke-opacity:1" d="M 956.557,289.964 938.807,280.103 z" id="boundary" inkscape:connector-curvature="0" />
	<path style="fill:none;stroke:red;stroke-width:1px;stroke-linecap:butt;stroke-linejoin:miter;stroke-opacity:1" d="M 909.225,232.771 923.03,248.549 z" id="boundary" inkscape:connector-curvature="0" />
	<path style="fill:none;stroke:red;stroke-width:1px;stroke-linecap:butt;stroke-linejoin:miter;stroke-opacity:1" d="M 625.233,489.153 644.954,489.153 z" id="boundary" inkscape:connector-curvature="0" />
	<path style="fill:none;stroke:red;stroke-width:1px;stroke-linecap:butt;stroke-linejoin:miter;stroke-opacity:1" d="M 664.676,489.153 684.398,489.153 z" id="boundary" inkscape:connector-curvature="0" />
	<path style="fill:none;stroke:red;stroke-width:1px;stroke-linecap:butt;stroke-linejoin:miter;stroke-opacity:1" d="M 664.676,489.153 644.954,489.153 z" id="boundary" inkscape:connector-curvature="0" />
	<path style="fill:none;stroke:red;stroke-width:1px;stroke-linecap:butt;stroke-linejoin:miter;stroke-opacity:1" d="M 684.398,489.153 704.119,489.153 z" id="boundary" inkscape:connector-curvature="0" />
	<path style="fill:none;stroke:red;stroke-width:1px;stroke-linecap:butt;stroke-linejoin:miter;stroke-opacity:1" d="M 723.841,489.153 704.119,489.153 z" id="boundary" inkscape:connector-curvature="0" />
	<path style="fill:none;stroke:red;stroke-width:1px;stroke-linecap:butt;stroke-linejoin:miter;stroke-opacity:1" d="M 723.841,489.153 743.563,489.153 z" id="boundary" inkscape:connector-curvature="0" />
	<path style="fill:none;stroke:red;stroke-width:1px;stroke-linecap:butt;stroke-linejoin:miter;stroke-opacity:1" d="M 763.284,489.153 743.563,489.153 z" id="boundary" inkscape:connector-curvature="0" />
	<path style="fill:none;stroke:red;stroke-width:1px;stroke-linecap:butt;stroke-linejoin:miter;stroke-opacity:1" d="M 783.006,489.153 763.284,489.153 z" id="boundary" inkscape:connector-curvature="0" />
	<path style="fill:none;stroke:red;stroke-width:1px;stroke-linecap:butt;stroke-linejoin:miter;stroke-opacity:1" d="M 506.903,508.875 487.181,512.819 z" id="boundary" inkscape:connector-curvature="0" />
	<path style="fill:none;stroke:red;stroke-width:1px;stroke-linecap:butt;stroke-linejoin:miter;stroke-opacity:1" d="M 487.181,512.819 467.459,508.875 z" id="boundary" inkscape:connector-curvature="0" />
	<path style="fill:none;stroke:red;stroke-width:1px;stroke-linecap:butt;stroke-linejoin:miter;stroke-opacity:1" d="M 526.624,508.875 546.346,508.875 z" id="boundary" inkscape:connector-curvature="0" />
	<path style="fill:none;stroke:red;stroke-width:1px;stroke-linecap:butt;stroke-linejoin:miter;stroke-opacity:1" d="M 506.903,508.875 526.624,508.875 z" id="boundary" inkscape:connector-curvature="0" />
	<path style="fill:none;stroke:red;stroke-width:1px;stroke-linecap:butt;stroke-linejoin:miter;stroke-opacity:1" d="M 585.789,502.958 605.511,493.097 z" id="boundary" inkscape:connector-curvature="0" />
	<path style="fill:none;stroke:red;stroke-width:1px;stroke-linecap:butt;stroke-linejoin:miter;stroke-opacity:1" d="M 605.511,493.097 625.233,489.153 z" id="boundary" inkscape:connector-curvature="0" />
	<path style="fill:none;stroke:red;stroke-width:1px;stroke-linecap:butt;stroke-linejoin:miter;stroke-opacity:1" d="M 585.789,502.958 566.068,508.875 z" id="boundary" inkscape:connector-curvature="0" />
	<path style="fill:none;stroke:red;stroke-width:1px;stroke-linecap:butt;stroke-linejoin:miter;stroke-opacity:1" d="M 566.068,508.875 546.346,508.875 z" id="boundary" inkscape:connector-curvature="0" />
	<path style="fill:none;stroke:red;stroke-width:1px;stroke-linecap:butt;stroke-linejoin:miter;stroke-opacity:1" d="M 783.006,489.153 802.728,489.153 z" id="boundary" inkscape:connector-curvature="0" />
	<path style="fill:none;stroke:red;stroke-width:1px;stroke-linecap:butt;stroke-linejoin:miter;stroke-opacity:1" d="M 802.728,489.153 808.644,508.875 z" id="boundary" inkscape:connector-curvature="0" />
	<path style="fill:none;stroke:red;stroke-width:1px;stroke-linecap:butt;stroke-linejoin:miter;stroke-opacity:1" d="M 970.362,305.742 956.557,289.964 z" id="boundary" inkscape:connector-curvature="0" />
	<path style="fill:none;stroke:red;stroke-width:1px;stroke-linecap:butt;stroke-linejoin:miter;stroke-opacity:1" d="M 950.64,429.988 970.362,424.072 z" id="boundary" inkscape:connector-curvature="0" />
	<path style="fill:none;stroke:red;stroke-width:1px;stroke-linecap:butt;stroke-linejoin:miter;stroke-opacity:1" d="M 970.362,305.742 972.334,325.463 z" id="boundary" inkscape:connector-curvature="0" />
	<path style="fill:none;stroke:red;stroke-width:1px;stroke-linecap:butt;stroke-linejoin:miter;stroke-opacity:1" d="M 950.64,429.988 932.891,439.849 z" id="boundary" inkscape:connector-curvature="0" />
	<path style="fill:none;stroke:red;stroke-width:1px;stroke-linecap:butt;stroke-linejoin:miter;stroke-opacity:1" d="M 972.334,325.463 972.334,345.185 z" id="boundary" inkscape:connector-curvature="0" />
	<path style="fill:none;stroke:red;stroke-width:1px;stroke-linecap:butt;stroke-linejoin:miter;stroke-opacity:1" d="M 980.223,364.907 996,378.712 z" id="boundary" inkscape:connector-curvature="0" />
	<path style="fill:none;stroke:red;stroke-width:1px;stroke-linecap:butt;stroke-linejoin:miter;stroke-opacity:1" d="M 996,378.712 990.083,414.211 z" id="boundary" inkscape:connector-curvature="0" />
	<path style="fill:none;stroke:red;stroke-width:1px;stroke-linecap:butt;stroke-linejoin:miter;stroke-opacity:1" d="M 980.223,364.907 972.334,345.185 z" id="boundary" inkscape:connector-curvature="0" />
	<path style="fill:none;stroke:red;stroke-width:1px;stroke-linecap:butt;stroke-linejoin:miter;stroke-opacity:1" d="M 990.083,414.211 970.362,424.072 z" id="boundary" inkscape:connector-curvature="0" />
	<path style="fill:none;stroke:red;stroke-width:1px;stroke-linecap:butt;stroke-linejoin:miter;stroke-opacity:1" d="M 808.644,508.875 826.394,518.736 z" id="boundary" inkscape:connector-curvature="0" />
	<path style="fill:none;stroke:red;stroke-width:1px;stroke-linecap:butt;stroke-linejoin:miter;stroke-opacity:1" d="M 881.614,518.736 863.865,528.596 z" id="boundary" inkscape:connector-curvature="0" />
	<path style="fill:none;stroke:red;stroke-width:1px;stroke-linecap:butt;stroke-linejoin:miter;stroke-opacity:1" d="M 863.865,528.596 844.143,528.596 z" id="boundary" inkscape:connector-curvature="0" />
	<path style="fill:none;stroke:red;stroke-width:1px;stroke-linecap:butt;stroke-linejoin:miter;stroke-opacity:1" d="M 844.143,528.596 826.394,518.736 z" id="boundary" inkscape:connector-curvature="0" />
	<path style="fill:none;stroke:red;stroke-width:1px;stroke-linecap:butt;stroke-linejoin:miter;stroke-opacity:1" d="M 923.03,469.431 932.891,439.849 z" id="boundary" inkscape:connector-curvature="0" />
	<path style="fill:none;stroke:red;stroke-width:1px;stroke-linecap:butt;stroke-linejoin:miter;stroke-opacity:1" d="M 913.169,489.153 897.392,506.903 z" id="boundary" inkscape:connector-curvature="0" />
	<path style="fill:none;stroke:red;stroke-width:1px;stroke-linecap:butt;stroke-linejoin:miter;stroke-opacity:1" d="M 897.392,506.903 881.614,518.736 z" id="boundary" inkscape:connector-curvature="0" />
	<path style="fill:none;stroke:red;stroke-width:1px;stroke-linecap:butt;stroke-linejoin:miter;stroke-opacity:1" d="M 913.169,489.153 923.03,469.431 z" id="boundary" inkscape:connector-curvature="0" />
	<circle cx="4" cy="216.994" r="4" fill="#0" id="circle0"/>
	<circle cx="4" cy="236.716" r="4" fill="#0" id="circle1"/>
	<circle cx="4" cy="256.437" r="4" fill="#0" id="circle2"/>
	<circle cx="4" cy="276.159" r="4" fill="#0" id="circle3"/>
	<circle cx="13.8608" cy="197.272" r="4" fill="#0" id="circle4"/>
	<circle cx="13.8608" cy="293.909" r="4" fill="#0" id="circle5"/>
	<circle cx="27.666" cy="309.686" r="4" fill="#0" id="circle6"/>
	<circle cx="33.5825" cy="187.412" r="4" fill="#0" id="circle7"/>
	<circle cx="47.3877" cy="311.658" r="4" fill="#0" id="circle8"/>
	<circle cx="53.3042" cy="167.69" r="4" fill="#0" id="circle9"/>
	<circle cx="53.3042" cy="404.35" r="4" fill="#0" id="circle10"/>
	<circle cx="53.3042" cy="424.072" r="4" fill="#0" id="circle11"/>
	<circle cx="53.3042" cy="443.793" r="4" fill="#0" id="circle12"/>
	<circle cx="53.3042" cy="463.515" r="4" fill="#0" id="circle13"/>
	<circle cx="63.165" cy="384.628" r="4" fill="#0" id="circle14"/>
	<circle cx="63.165" cy="481.264" r="4" fill="#0" id="circle15"/>
	<circle cx="67.1093" cy="311.658" r="4" fill="#0" id="circle16"/>
	<circle cx="69.0815" cy="151.913" r="4" fill="#0" id="circle17"/>
	<circle cx="73.0258" cy="499.014" r="4" fill="#0" id="circle18"/>
	<circle cx="82.8867" cy="374.767" r="4" fill="#0" id="circle19"/>
	<circle cx="84.8588" cy="514.791" r="4" fill="#0" id="circle20"/>
	<circle cx="86.831" cy="142.052" r="4" fill="#0" id="circle21"/>
	<circle cx="86.831" cy="311.658" r="4" fill="#0" id="circle22"/>
	<circle cx="102.608" cy="364.907" r="4" fill="#0" id="circle23"/>
	<circle cx="104.581" cy="518.736" r="4" fill="#0" id="circle24"/>
	<circle cx="106.553" cy="142.052" r="4" fill="#0" id="circle25"/>
	<circle cx="106.553" cy="311.658" r="4" fill="#0" id="circle26"/>
	<circle cx="122.33" cy="355.046" r="4" fill="#0" id="circle27"/>
	<circle cx="124.302" cy="518.736" r="4" fill="#0" id="circle28"/>
	<circle cx="126.274" cy="134.163" r="4" fill="#0" id="circle29"/>
	<circle cx="126.274" cy="311.658" r="4" fill="#0" id="circle30"/>
	<circle cx="142.052" cy="349.129" r="4" fill="#0" id="circle31"/>
	<circle cx="144.024" cy="522.68" r="4" fill="#0" id="circle32"/>
	<circle cx="145.996" cy="132.191" r="4" fill="#0" id="circle33"/>
	<circle cx="145.996" cy="311.658" r="4" fill="#0" id="circle34"/>
	<circle cx="161.773" cy="323.491" r="4" fill="#0" id="circle35"/>
	<circle cx="161.773" cy="343.213" r="4" fill="#0" id="circle36"/>
	<circle cx="163.746" cy="528.596" r="4" fill="#0" id="circle37"/>
	<circle cx="165.718" cy="132.191" r="4" fill="#0" id="circle38"/>
	<circle cx="183.467" cy="528.596" r="4" fill="#0" id="circle39"/>
	<circle cx="185.439" cy="132.191" r="4" fill="#0" id="circle40"/>
	<circle cx="203.189" cy="528.596" r="4" fill="#0" id="circle41"/>
	<circle cx="205.161" cy="132.191" r="4" fill="#0" id="circle42"/>
	<circle cx="222.911" cy="528.596" r="4" fill="#0" id="circle43"/>
	<circle cx="224.883" cy="124.302" r="4" fill="#0" id="circle44"/>
	<circle cx="242.632" cy="528.596" r="4" fill="#0" id="circle45"/>
	<circle cx="244.604" cy="122.33" r="4" fill="#0" id="circle46"/>
	<circle cx="262.354" cy="528.596" r="4" fill="#0" id="circle47"/>
	<circle cx="264.326" cy="122.33" r="4" fill="#0" id="circle48"/>
	<circle cx="280.103" cy="518.736" r="4" fill="#0" id="circle49"/>
	<circle cx="284.048" cy="122.33" r="4" fill="#0" id="circle50"/>
	<circle cx="291.936" cy="499.014" r="4" fill="#0" id="circle51"/>
	<circle cx="303.769" cy="122.33" r="4" fill="#0" id="circle52"/>
	<circle cx="311.658" cy="499.014" r="4" fill="#0" id="circle53"/>
	<circle cx="323.491" cy="122.33" r="4" fill="#0" id="circle54"/>
	<circle cx="331.38" cy="499.014" r="4" fill="#0" id="circle55"/>
	<circle cx="343.213" cy="122.33" r="4" fill="#0" id="circle56"/>
	<circle cx="351.101" cy="499.014" r="4" fill="#0" id="circle57"/>
	<circle cx="362.934" cy="114.441" r="4" fill="#0" id="circle58"/>
	<circle cx="370.823" cy="499.014" r="4" fill="#0" id="circle59"/>
	<circle cx="382.656" cy="112.469" r="4" fill="#0" id="circle60"/>
	<circle cx="390.545" cy="499.014" r="4" fill="#0" id="circle61"/>
	<circle cx="402.378" cy="112.469" r="4" fill="#0" id="circle62"/>
	<circle cx="410.266" cy="499.014" r="4" fill="#0" id="circle63"/>
	<circle cx="422.099" cy="112.469" r="4" fill="#0" id="circle64"/>
	<circle cx="429.988" cy="499.014" r="4" fill="#0" id="circle65"/>
	<circle cx="441.821" cy="112.469" r="4" fill="#0" id="circle66"/>
	<circle cx="447.738" cy="508.875" r="4" fill="#0" id="circle67"/>
	<circle cx="451.682" cy="94.7197" r="4" fill="#0" id="circle68"/>
	<circle cx="461.543" cy="74.998" r="4" fill="#0" id="circle69"/>
	<circle cx="467.459" cy="508.875" r="4" fill="#0" id="circle70"/>
	<circle cx="477.32" cy="59.2207" r="4" fill="#0" id="circle71"/>
	<circle cx="487.181" cy="512.819" r="4" fill="#0" id="circle72"/>
	<circle cx="493.097" cy="43.4433" r="4" fill="#0" id="circle73"/>
	<circle cx="502.958" cy="23.7217" r="4" fill="#0" id="circle74"/>
	<circle cx="506.903" cy="508.875" r="4" fill="#0" id="circle75"/>
	<circle cx="522.68" cy="13.8608" r="4" fill="#0" id="circle76"/>
	<circle cx="526.624" cy="508.875" r="4" fill="#0" id="circle77"/>
	<circle cx="542.402" cy="13.8608" r="4" fill="#0" id="circle78"/>
	<circle cx="546.346" cy="508.875" r="4" fill="#0" id="circle79"/>
	<circle cx="562.123" cy="13.8608" r="4" fill="#0" id="circle80"/>
	<circle cx="566.068" cy="508.875" r="4" fill="#0" id="circle81"/>
	<circle cx="581.845" cy="13.8608" r="4" fill="#0" id="circle82"/>
	<circle cx="585.789" cy="502.958" r="4" fill="#0" id="circle83"/>
	<circle cx="601.567" cy="13.8608" r="4" fill="#0" id="circle84"/>
	<circle cx="605.511" cy="493.097" r="4" fill="#0" id="circle85"/>
	<circle cx="621.288" cy="13.8608" r="4" fill="#0" id="circle86"/>
	<circle cx="625.233" cy="489.153" r="4" fill="#0" id="circle87"/>
	<circle cx="641.01" cy="13.8608" r="4" fill="#0" id="circle88"/>
	<circle cx="644.954" cy="489.153" r="4" fill="#0" id="circle89"/>
	<circle cx="660.732" cy="13.8608" r="4" fill="#0" id="circle90"/>
	<circle cx="664.676" cy="489.153" r="4" fill="#0" id="circle91"/>
	<circle cx="680.453" cy="13.8608" r="4" fill="#0" id="circle92"/>
	<circle cx="684.398" cy="489.153" r="4" fill="#0" id="circle93"/>
	<circle cx="700.175" cy="4" r="4" fill="#0" id="circle94"/>
	<circle cx="704.119" cy="489.153" r="4" fill="#0" id="circle95"/>
	<circle cx="719.897" cy="4" r="4" fill="#0" id="circle96"/>
	<circle cx="723.841" cy="489.153" r="4" fill="#0" id="circle97"/>
	<circle cx="739.618" cy="4" r="4" fill="#0" id="circle98"/>
	<circle cx="743.563" cy="489.153" r="4" fill="#0" id="circle99"/>
	<circle cx="757.368" cy="13.8608" r="4" fill="#0" id="circle100"/>
	<circle cx="763.284" cy="489.153" r="4" fill="#0" id="circle101"/>
	<circle cx="773.145" cy="27.666" r="4" fill="#0" id="circle102"/>
	<circle cx="775.117" cy="47.3877" r="4" fill="#0" id="circle103"/>
	<circle cx="775.117" cy="67.1093" r="4" fill="#0" id="circle104"/>
	<circle cx="775.117" cy="86.831" r="4" fill="#0" id="circle105"/>
	<circle cx="775.117" cy="106.553" r="4" fill="#0" id="circle106"/>
	<circle cx="775.117" cy="126.274" r="4" fill="#0" id="circle107"/>
	<circle cx="781.034" cy="145.996" r="4" fill="#0" id="circle108"/>
	<circle cx="783.006" cy="489.153" r="4" fill="#0" id="circle109"/>
	<circle cx="800.755" cy="151.913" r="4" fill="#0" id="circle110"/>
	<circle cx="802.728" cy="489.153" r="4" fill="#0" id="circle111"/>
	<circle cx="808.644" cy="508.875" r="4" fill="#0" id="circle112"/>
	<circle cx="820.477" cy="151.913" r="4" fill="#0" id="circle113"/>
	<circle cx="826.394" cy="518.736" r="4" fill="#0" id="circle114"/>
	<circle cx="838.227" cy="161.773" r="4" fill="#0" id="circle115"/>
	<circle cx="844.143" cy="528.596" r="4" fill="#0" id="circle116"/>
	<circle cx="852.032" cy="177.551" r="4" fill="#0" id="circle117"/>
	<circle cx="854.004" cy="197.272" r="4" fill="#0" id="circle118"/>
	<circle cx="854.004" cy="216.994" r="4" fill="#0" id="circle119"/>
	<circle cx="863.865" cy="528.596" r="4" fill="#0" id="circle120"/>
	<circle cx="873.726" cy="220.938" r="4" fill="#0" id="circle121"/>
	<circle cx="881.614" cy="518.736" r="4" fill="#0" id="circle122"/>
	<circle cx="893.447" cy="220.938" r="4" fill="#0" id="circle123"/>
	<circle cx="897.392" cy="506.903" r="4" fill="#0" id="circle124"/>
	<circle cx="909.225" cy="232.771" r="4" fill="#0" id="circle125"/>
	<circle cx="913.169" cy="489.153" r="4" fill="#0" id="circle126"/>
	<circle cx="923.03" cy="248.549" r="4" fill="#0" id="circle127"/>
	<circle cx="923.03" cy="268.27" r="4" fill="#0" id="circle128"/>
	<circle cx="923.03" cy="469.431" r="4" fill="#0" id="circle129"/>
	<circle cx="932.891" cy="439.849" r="4" fill="#0" id="circle130"/>
	<circle cx="938.807" cy="280.103" r="4" fill="#0" id="circle131"/>
	<circle cx="950.64" cy="429.988" r="4" fill="#0" id="circle132"/>
	<circle cx="956.557" cy="289.964" r="4" fill="#0" id="circle133"/>
	<circle cx="970.362" cy="305.742" r="4" fill="#0" id="circle134"/>
	<circle cx="970.362" cy="424.072" r="4" fill="#0" id="circle135"/>
	<circle cx="972.334" cy="325.463" r="4" fill="#0" id="circle136"/>
	<circle cx="972.334" cy="345.185" r="4" fill="#0" id="circle137"/>
	<circle cx="980.223" cy="364.907" r="4" fill="#0" id="circle138"/>
	<circle cx="990.083" cy="414.211" r="4" fill="#0" id="circle139"/>
	<circle cx="996" cy="378.712" r="4" fill="#0" id="circle140"/>
	</g>
</svg>