<?xml version="1.0" encoding="UTF-8" standalone="no"?>
<!-- Created with CurveBenchmark -->
<svg
	xmlns:dc="http://purl.org/dc/elements/1.1/"
	xmlns:cc="http://creativecommons.org/ns#"
	xmlns:rdf="http://www.w3.org/1999/02/22-rdf-syntax-ns#"
	xmlns:svg="http://www.w3.org/2000/svg"
	xmlns="http://www.w3.org/2000/svg"
	xmlns:sodipodi="http://sodipodi.sourceforge.net/DTD/sodipodi-0.dtd"
	xmlns:inkscape="http://www.inkscape.org/namespaces/inkscape"
	width="1000"
	height="1000"
	id="svg2"
	version="1.1"
	sodipodi:docname="manifold/gathan1-pencil-20.png.txt">
<defs
	id="defs4" />
<metadata
	id="metadata7">
	<rdf:RDF>
		<cc:Work
			rdf:about="">
			<dc:format>image/svg+xml</dc:format>
			<dc:type
				rdf:resource="http://purl.org/dc/dcmitype/StillImage" />
			<dc:title></dc:title>
		</cc:Work>
	</rdf:RDF>
</metadata>
<g
	inkscape:label="Layer 1"
	inkscape:groupmode="layer"
	id="layer1">
	<path style="fill:none;stroke:red;stroke-width:1px;stroke-linecap:butt;stroke-linejoin:miter;stroke-opacity:1" d="M 157.83,88.8113 162.509,84.1321 z" id="boundary" inkscape:connector-curvature="0" />
	<path style="fill:none;stroke:red;stroke-width:1px;stroke-linecap:butt;stroke-linejoin:miter;stroke-opacity:1" d="M 162.509,84.1321 168.358,82.9623 z" id="boundary" inkscape:connector-curvature="0" />
	<path style="fill:none;stroke:red;stroke-width:1px;stroke-linecap:butt;stroke-linejoin:miter;stroke-opacity:1" d="M 173.623,80.0377 168.358,82.9623 z" id="boundary" inkscape:connector-curvature="0" />
	<path style="fill:none;stroke:red;stroke-width:1px;stroke-linecap:butt;stroke-linejoin:miter;stroke-opacity:1" d="M 173.623,80.0377 179.472,80.0377 z" id="boundary" inkscape:connector-curvature="0" />
	<path style="fill:none;stroke:red;stroke-width:1px;stroke-linecap:butt;stroke-linejoin:miter;stroke-opacity:1" d="M 185.321,80.0377 179.472,80.0377 z" id="boundary" inkscape:connector-curvature="0" />
	<path style="fill:none;stroke:red;stroke-width:1px;stroke-linecap:butt;stroke-linejoin:miter;stroke-opacity:1" d="M 146.717,91.7358 142.038,95.8302 z" id="boundary" inkscape:connector-curvature="0" />
	<path style="fill:none;stroke:red;stroke-width:1px;stroke-linecap:butt;stroke-linejoin:miter;stroke-opacity:1" d="M 142.038,95.8302 136.189,98.7547 z" id="boundary" inkscape:connector-curvature="0" />
	<path style="fill:none;stroke:red;stroke-width:1px;stroke-linecap:butt;stroke-linejoin:miter;stroke-opacity:1" d="M 131.509,103.434 136.189,98.7547 z" id="boundary" inkscape:connector-curvature="0" />
	<path style="fill:none;stroke:red;stroke-width:1px;stroke-linecap:butt;stroke-linejoin:miter;stroke-opacity:1" d="M 157.83,88.8113 152.566,91.7358 z" id="boundary" inkscape:connector-curvature="0" />
	<path style="fill:none;stroke:red;stroke-width:1px;stroke-linecap:butt;stroke-linejoin:miter;stroke-opacity:1" d="M 152.566,91.7358 146.717,91.7358 z" id="boundary" inkscape:connector-curvature="0" />
	<path style="fill:none;stroke:red;stroke-width:1px;stroke-linecap:butt;stroke-linejoin:miter;stroke-opacity:1" d="M 131.509,103.434 125.66,103.434 z" id="boundary" inkscape:connector-curvature="0" />
	<path style="fill:none;stroke:red;stroke-width:1px;stroke-linecap:butt;stroke-linejoin:miter;stroke-opacity:1" d="M 224.509,62.4906 229.774,59.566 z" id="boundary" inkscape:connector-curvature="0" />
	<path style="fill:none;stroke:red;stroke-width:1px;stroke-linecap:butt;stroke-linejoin:miter;stroke-opacity:1" d="M 229.774,59.566 235.623,59.566 z" id="boundary" inkscape:connector-curvature="0" />
	<path style="fill:none;stroke:red;stroke-width:1px;stroke-linecap:butt;stroke-linejoin:miter;stroke-opacity:1" d="M 235.623,59.566 241.472,59.566 z" id="boundary" inkscape:connector-curvature="0" />
	<path style="fill:none;stroke:red;stroke-width:1px;stroke-linecap:butt;stroke-linejoin:miter;stroke-opacity:1" d="M 247.321,59.566 241.472,59.566 z" id="boundary" inkscape:connector-curvature="0" />
	<path style="fill:none;stroke:red;stroke-width:1px;stroke-linecap:butt;stroke-linejoin:miter;stroke-opacity:1" d="M 253.17,57.8113 247.321,59.566 z" id="boundary" inkscape:connector-curvature="0" />
	<path style="fill:none;stroke:red;stroke-width:1px;stroke-linecap:butt;stroke-linejoin:miter;stroke-opacity:1" d="M 219.245,65.4151 224.509,62.4906 z" id="boundary" inkscape:connector-curvature="0" />
	<path style="fill:none;stroke:red;stroke-width:1px;stroke-linecap:butt;stroke-linejoin:miter;stroke-opacity:1" d="M 197.019,75.9434 202.868,73.0189 z" id="boundary" inkscape:connector-curvature="0" />
	<path style="fill:none;stroke:red;stroke-width:1px;stroke-linecap:butt;stroke-linejoin:miter;stroke-opacity:1" d="M 191.17,78.8679 185.321,80.0377 z" id="boundary" inkscape:connector-curvature="0" />
	<path style="fill:none;stroke:red;stroke-width:1px;stroke-linecap:butt;stroke-linejoin:miter;stroke-opacity:1" d="M 197.019,75.9434 191.17,78.8679 z" id="boundary" inkscape:connector-curvature="0" />
	<path style="fill:none;stroke:red;stroke-width:1px;stroke-linecap:butt;stroke-linejoin:miter;stroke-opacity:1" d="M 207.547,68.3396 202.868,73.0189 z" id="boundary" inkscape:connector-curvature="0" />
	<path style="fill:none;stroke:red;stroke-width:1px;stroke-linecap:butt;stroke-linejoin:miter;stroke-opacity:1" d="M 207.547,68.3396 213.396,65.4151 z" id="boundary" inkscape:connector-curvature="0" />
	<path style="fill:none;stroke:red;stroke-width:1px;stroke-linecap:butt;stroke-linejoin:miter;stroke-opacity:1" d="M 213.396,65.4151 219.245,65.4151 z" id="boundary" inkscape:connector-curvature="0" />
	<path style="fill:none;stroke:red;stroke-width:1px;stroke-linecap:butt;stroke-linejoin:miter;stroke-opacity:1" d="M 43.1887,144.962 49.0377,142.038 z" id="boundary" inkscape:connector-curvature="0" />
	<path style="fill:none;stroke:red;stroke-width:1px;stroke-linecap:butt;stroke-linejoin:miter;stroke-opacity:1" d="M 54.8868,139.113 59.566,135.604 z" id="boundary" inkscape:connector-curvature="0" />
	<path style="fill:none;stroke:red;stroke-width:1px;stroke-linecap:butt;stroke-linejoin:miter;stroke-opacity:1" d="M 59.566,135.604 65.4151,134.434 z" id="boundary" inkscape:connector-curvature="0" />
	<path style="fill:none;stroke:red;stroke-width:1px;stroke-linecap:butt;stroke-linejoin:miter;stroke-opacity:1" d="M 54.8868,139.113 49.0377,142.038 z" id="boundary" inkscape:connector-curvature="0" />
	<path style="fill:none;stroke:red;stroke-width:1px;stroke-linecap:butt;stroke-linejoin:miter;stroke-opacity:1" d="M 70.0943,129.755 65.4151,134.434 z" id="boundary" inkscape:connector-curvature="0" />
	<path style="fill:none;stroke:red;stroke-width:1px;stroke-linecap:butt;stroke-linejoin:miter;stroke-opacity:1" d="M 37.3396,147.887 43.1887,144.962 z" id="boundary" inkscape:connector-curvature="0" />
	<path style="fill:none;stroke:red;stroke-width:1px;stroke-linecap:butt;stroke-linejoin:miter;stroke-opacity:1" d="M 19.7925,150.226 14.5283,153.151 z" id="boundary" inkscape:connector-curvature="0" />
	<path style="fill:none;stroke:red;stroke-width:1px;stroke-linecap:butt;stroke-linejoin:miter;stroke-opacity:1" d="M 14.5283,153.151 8.67925,153.151 z" id="boundary" inkscape:connector-curvature="0" />
	<path style="fill:none;stroke:red;stroke-width:1px;stroke-linecap:butt;stroke-linejoin:miter;stroke-opacity:1" d="M 37.3396,147.887 31.4906,150.226 z" id="boundary" inkscape:connector-curvature="0" />
	<path style="fill:none;stroke:red;stroke-width:1px;stroke-linecap:butt;stroke-linejoin:miter;stroke-opacity:1" d="M 31.4906,150.226 25.6415,150.226 z" id="boundary" inkscape:connector-curvature="0" />
	<path style="fill:none;stroke:red;stroke-width:1px;stroke-linecap:butt;stroke-linejoin:miter;stroke-opacity:1" d="M 25.6415,150.226 19.7925,150.226 z" id="boundary" inkscape:connector-curvature="0" />
	<path style="fill:none;stroke:red;stroke-width:1px;stroke-linecap:butt;stroke-linejoin:miter;stroke-opacity:1" d="M 109.283,112.208 103.434,113.962 z" id="boundary" inkscape:connector-curvature="0" />
	<path style="fill:none;stroke:red;stroke-width:1px;stroke-linecap:butt;stroke-linejoin:miter;stroke-opacity:1" d="M 114.547,109.283 109.283,112.208 z" id="boundary" inkscape:connector-curvature="0" />
	<path style="fill:none;stroke:red;stroke-width:1px;stroke-linecap:butt;stroke-linejoin:miter;stroke-opacity:1" d="M 114.547,109.283 119.811,106.358 z" id="boundary" inkscape:connector-curvature="0" />
	<path style="fill:none;stroke:red;stroke-width:1px;stroke-linecap:butt;stroke-linejoin:miter;stroke-opacity:1" d="M 119.811,106.358 125.66,103.434 z" id="boundary" inkscape:connector-curvature="0" />
	<path style="fill:none;stroke:red;stroke-width:1px;stroke-linecap:butt;stroke-linejoin:miter;stroke-opacity:1" d="M 103.434,113.962 97.5849,115.132 z" id="boundary" inkscape:connector-curvature="0" />
	<path style="fill:none;stroke:red;stroke-width:1px;stroke-linecap:butt;stroke-linejoin:miter;stroke-opacity:1" d="M 75.9434,126.83 81.7925,123.906 z" id="boundary" inkscape:connector-curvature="0" />
	<path style="fill:none;stroke:red;stroke-width:1px;stroke-linecap:butt;stroke-linejoin:miter;stroke-opacity:1" d="M 75.9434,126.83 70.0943,129.755 z" id="boundary" inkscape:connector-curvature="0" />
	<path style="fill:none;stroke:red;stroke-width:1px;stroke-linecap:butt;stroke-linejoin:miter;stroke-opacity:1" d="M 87.0566,120.981 81.7925,123.906 z" id="boundary" inkscape:connector-curvature="0" />
	<path style="fill:none;stroke:red;stroke-width:1px;stroke-linecap:butt;stroke-linejoin:miter;stroke-opacity:1" d="M 87.0566,120.981 92.9057,118.642 z" id="boundary" inkscape:connector-curvature="0" />
	<path style="fill:none;stroke:red;stroke-width:1px;stroke-linecap:butt;stroke-linejoin:miter;stroke-opacity:1" d="M 97.5849,115.132 92.9057,118.642 z" id="boundary" inkscape:connector-curvature="0" />
	<path style="fill:none;stroke:red;stroke-width:1px;stroke-linecap:butt;stroke-linejoin:miter;stroke-opacity:1" d="M 315.755,47.8679 321.604,47.8679 z" id="boundary" inkscape:connector-curvature="0" />
	<path style="fill:none;stroke:red;stroke-width:1px;stroke-linecap:butt;stroke-linejoin:miter;stroke-opacity:1" d="M 321.604,47.8679 326.868,50.7925 z" id="boundary" inkscape:connector-curvature="0" />
	<path style="fill:none;stroke:red;stroke-width:1px;stroke-linecap:butt;stroke-linejoin:miter;stroke-opacity:1" d="M 338.566,48.4528 344.415,47.8679 z" id="boundary" inkscape:connector-curvature="0" />
	<path style="fill:none;stroke:red;stroke-width:1px;stroke-linecap:butt;stroke-linejoin:miter;stroke-opacity:1" d="M 332.717,50.7925 338.566,48.4528 z" id="boundary" inkscape:connector-curvature="0" />
	<path style="fill:none;stroke:red;stroke-width:1px;stroke-linecap:butt;stroke-linejoin:miter;stroke-opacity:1" d="M 350.264,47.8679 344.415,47.8679 z" id="boundary" inkscape:connector-curvature="0" />
	<path style="fill:none;stroke:red;stroke-width:1px;stroke-linecap:butt;stroke-linejoin:miter;stroke-opacity:1" d="M 304.642,50.7925 310.491,50.7925 z" id="boundary" inkscape:connector-curvature="0" />
	<path style="fill:none;stroke:red;stroke-width:1px;stroke-linecap:butt;stroke-linejoin:miter;stroke-opacity:1" d="M 299.377,53.717 304.642,50.7925 z" id="boundary" inkscape:connector-curvature="0" />
	<path style="fill:none;stroke:red;stroke-width:1px;stroke-linecap:butt;stroke-linejoin:miter;stroke-opacity:1" d="M 315.755,47.8679 310.491,50.7925 z" id="boundary" inkscape:connector-curvature="0" />
	<path style="fill:none;stroke:red;stroke-width:1px;stroke-linecap:butt;stroke-linejoin:miter;stroke-opacity:1" d="M 350.264,47.8679 355.528,50.7925 z" id="boundary" inkscape:connector-curvature="0" />
	<path style="fill:none;stroke:red;stroke-width:1px;stroke-linecap:butt;stroke-linejoin:miter;stroke-opacity:1" d="M 430.981,49.6226 436.83,47.8679 z" id="boundary" inkscape:connector-curvature="0" />
	<path style="fill:none;stroke:red;stroke-width:1px;stroke-linecap:butt;stroke-linejoin:miter;stroke-opacity:1" d="M 436.83,47.8679 442.679,47.8679 z" id="boundary" inkscape:connector-curvature="0" />
	<path style="fill:none;stroke:red;stroke-width:1px;stroke-linecap:butt;stroke-linejoin:miter;stroke-opacity:1" d="M 442.679,47.8679 448.528,47.8679 z" id="boundary" inkscape:connector-curvature="0" />
	<path style="fill:none;stroke:red;stroke-width:1px;stroke-linecap:butt;stroke-linejoin:miter;stroke-opacity:1" d="M 332.717,50.7925 326.868,50.7925 z" id="boundary" inkscape:connector-curvature="0" />
	<path style="fill:none;stroke:red;stroke-width:1px;stroke-linecap:butt;stroke-linejoin:miter;stroke-opacity:1" d="M 465.491,44.9434 471.34,44.9434 z" id="boundary" inkscape:connector-curvature="0" />
	<path style="fill:none;stroke:red;stroke-width:1px;stroke-linecap:butt;stroke-linejoin:miter;stroke-opacity:1" d="M 460.226,47.8679 465.491,44.9434 z" id="boundary" inkscape:connector-curvature="0" />
	<path style="fill:none;stroke:red;stroke-width:1px;stroke-linecap:butt;stroke-linejoin:miter;stroke-opacity:1" d="M 483.038,44.9434 477.189,44.9434 z" id="boundary" inkscape:connector-curvature="0" />
	<path style="fill:none;stroke:red;stroke-width:1px;stroke-linecap:butt;stroke-linejoin:miter;stroke-opacity:1" d="M 477.189,44.9434 471.34,44.9434 z" id="boundary" inkscape:connector-curvature="0" />
	<path style="fill:none;stroke:red;stroke-width:1px;stroke-linecap:butt;stroke-linejoin:miter;stroke-opacity:1" d="M 500,42.0189 494.151,42.0189 z" id="boundary" inkscape:connector-curvature="0" />
	<path style="fill:none;stroke:red;stroke-width:1px;stroke-linecap:butt;stroke-linejoin:miter;stroke-opacity:1" d="M 500,42.0189 505.264,44.9434 z" id="boundary" inkscape:connector-curvature="0" />
	<path style="fill:none;stroke:red;stroke-width:1px;stroke-linecap:butt;stroke-linejoin:miter;stroke-opacity:1" d="M 454.377,47.8679 448.528,47.8679 z" id="boundary" inkscape:connector-curvature="0" />
	<path style="fill:none;stroke:red;stroke-width:1px;stroke-linecap:butt;stroke-linejoin:miter;stroke-opacity:1" d="M 460.226,47.8679 454.377,47.8679 z" id="boundary" inkscape:connector-curvature="0" />
	<path style="fill:none;stroke:red;stroke-width:1px;stroke-linecap:butt;stroke-linejoin:miter;stroke-opacity:1" d="M 425.132,50.7925 430.981,49.6226 z" id="boundary" inkscape:connector-curvature="0" />
	<path style="fill:none;stroke:red;stroke-width:1px;stroke-linecap:butt;stroke-linejoin:miter;stroke-opacity:1" d="M 488.887,44.9434 483.038,44.9434 z" id="boundary" inkscape:connector-curvature="0" />
	<path style="fill:none;stroke:red;stroke-width:1px;stroke-linecap:butt;stroke-linejoin:miter;stroke-opacity:1" d="M 494.151,42.0189 488.887,44.9434 z" id="boundary" inkscape:connector-curvature="0" />
	<path style="fill:none;stroke:red;stroke-width:1px;stroke-linecap:butt;stroke-linejoin:miter;stroke-opacity:1" d="M 511.113,44.9434 505.264,44.9434 z" id="boundary" inkscape:connector-curvature="0" />
	<path style="fill:none;stroke:red;stroke-width:1px;stroke-linecap:butt;stroke-linejoin:miter;stroke-opacity:1" d="M 281.83,53.717 287.679,53.717 z" id="boundary" inkscape:connector-curvature="0" />
	<path style="fill:none;stroke:red;stroke-width:1px;stroke-linecap:butt;stroke-linejoin:miter;stroke-opacity:1" d="M 276.566,56.6415 281.83,53.717 z" id="boundary" inkscape:connector-curvature="0" />
	<path style="fill:none;stroke:red;stroke-width:1px;stroke-linecap:butt;stroke-linejoin:miter;stroke-opacity:1" d="M 299.377,53.717 293.528,53.717 z" id="boundary" inkscape:connector-curvature="0" />
	<path style="fill:none;stroke:red;stroke-width:1px;stroke-linecap:butt;stroke-linejoin:miter;stroke-opacity:1" d="M 293.528,53.717 287.679,53.717 z" id="boundary" inkscape:connector-curvature="0" />
	<path style="fill:none;stroke:red;stroke-width:1px;stroke-linecap:butt;stroke-linejoin:miter;stroke-opacity:1" d="M 253.17,57.8113 259.019,56.6415 z" id="boundary" inkscape:connector-curvature="0" />
	<path style="fill:none;stroke:red;stroke-width:1px;stroke-linecap:butt;stroke-linejoin:miter;stroke-opacity:1" d="M 259.019,56.6415 264.868,56.6415 z" id="boundary" inkscape:connector-curvature="0" />
	<path style="fill:none;stroke:red;stroke-width:1px;stroke-linecap:butt;stroke-linejoin:miter;stroke-opacity:1" d="M 264.868,56.6415 270.717,56.6415 z" id="boundary" inkscape:connector-curvature="0" />
	<path style="fill:none;stroke:red;stroke-width:1px;stroke-linecap:butt;stroke-linejoin:miter;stroke-opacity:1" d="M 276.566,56.6415 270.717,56.6415 z" id="boundary" inkscape:connector-curvature="0" />
	<path style="fill:none;stroke:red;stroke-width:1px;stroke-linecap:butt;stroke-linejoin:miter;stroke-opacity:1" d="M 355.528,50.7925 360.792,53.717 z" id="boundary" inkscape:connector-curvature="0" />
	<path style="fill:none;stroke:red;stroke-width:1px;stroke-linecap:butt;stroke-linejoin:miter;stroke-opacity:1" d="M 366.642,53.717 360.792,53.717 z" id="boundary" inkscape:connector-curvature="0" />
	<path style="fill:none;stroke:red;stroke-width:1px;stroke-linecap:butt;stroke-linejoin:miter;stroke-opacity:1" d="M 384.189,53.717 378.34,53.717 z" id="boundary" inkscape:connector-curvature="0" />
	<path style="fill:none;stroke:red;stroke-width:1px;stroke-linecap:butt;stroke-linejoin:miter;stroke-opacity:1" d="M 401.736,52.5472 407.585,50.7925 z" id="boundary" inkscape:connector-curvature="0" />
	<path style="fill:none;stroke:red;stroke-width:1px;stroke-linecap:butt;stroke-linejoin:miter;stroke-opacity:1" d="M 407.585,50.7925 413.434,50.7925 z" id="boundary" inkscape:connector-curvature="0" />
	<path style="fill:none;stroke:red;stroke-width:1px;stroke-linecap:butt;stroke-linejoin:miter;stroke-opacity:1" d="M 413.434,50.7925 419.283,50.7925 z" id="boundary" inkscape:connector-curvature="0" />
	<path style="fill:none;stroke:red;stroke-width:1px;stroke-linecap:butt;stroke-linejoin:miter;stroke-opacity:1" d="M 425.132,50.7925 419.283,50.7925 z" id="boundary" inkscape:connector-curvature="0" />
	<path style="fill:none;stroke:red;stroke-width:1px;stroke-linecap:butt;stroke-linejoin:miter;stroke-opacity:1" d="M 395.887,53.717 401.736,52.5472 z" id="boundary" inkscape:connector-curvature="0" />
	<path style="fill:none;stroke:red;stroke-width:1px;stroke-linecap:butt;stroke-linejoin:miter;stroke-opacity:1" d="M 372.491,53.717 366.642,53.717 z" id="boundary" inkscape:connector-curvature="0" />
	<path style="fill:none;stroke:red;stroke-width:1px;stroke-linecap:butt;stroke-linejoin:miter;stroke-opacity:1" d="M 390.038,53.717 384.189,53.717 z" id="boundary" inkscape:connector-curvature="0" />
	<path style="fill:none;stroke:red;stroke-width:1px;stroke-linecap:butt;stroke-linejoin:miter;stroke-opacity:1" d="M 395.887,53.717 390.038,53.717 z" id="boundary" inkscape:connector-curvature="0" />
	<path style="fill:none;stroke:red;stroke-width:1px;stroke-linecap:butt;stroke-linejoin:miter;stroke-opacity:1" d="M 378.34,53.717 372.491,53.717 z" id="boundary" inkscape:connector-curvature="0" />
	<path style="fill:none;stroke:red;stroke-width:1px;stroke-linecap:butt;stroke-linejoin:miter;stroke-opacity:1" d="M 4,157.83 8.67925,153.151 z" id="boundary" inkscape:connector-curvature="0" />
	<path style="fill:none;stroke:red;stroke-width:1px;stroke-linecap:butt;stroke-linejoin:miter;stroke-opacity:1" d="M 6.92453,163.094 4,157.83 z" id="boundary" inkscape:connector-curvature="0" />
	<path style="fill:none;stroke:red;stroke-width:1px;stroke-linecap:butt;stroke-linejoin:miter;stroke-opacity:1" d="M 12.7736,165.434 18.6226,165.434 z" id="boundary" inkscape:connector-curvature="0" />
	<path style="fill:none;stroke:red;stroke-width:1px;stroke-linecap:butt;stroke-linejoin:miter;stroke-opacity:1" d="M 12.7736,165.434 6.92453,163.094 z" id="boundary" inkscape:connector-curvature="0" />
	<path style="fill:none;stroke:red;stroke-width:1px;stroke-linecap:butt;stroke-linejoin:miter;stroke-opacity:1" d="M 18.6226,165.434 24.4717,165.434 z" id="boundary" inkscape:connector-curvature="0" />
	<path style="fill:none;stroke:red;stroke-width:1px;stroke-linecap:butt;stroke-linejoin:miter;stroke-opacity:1" d="M 30.3208,165.434 36.1698,165.434 z" id="boundary" inkscape:connector-curvature="0" />
	<path style="fill:none;stroke:red;stroke-width:1px;stroke-linecap:butt;stroke-linejoin:miter;stroke-opacity:1" d="M 30.3208,165.434 24.4717,165.434 z" id="boundary" inkscape:connector-curvature="0" />
	<path style="fill:none;stroke:red;stroke-width:1px;stroke-linecap:butt;stroke-linejoin:miter;stroke-opacity:1" d="M 36.1698,165.434 42.0189,165.434 z" id="boundary" inkscape:connector-curvature="0" />
	<path style="fill:none;stroke:red;stroke-width:1px;stroke-linecap:butt;stroke-linejoin:miter;stroke-opacity:1" d="M 58.9811,168.358 53.1321,168.358 z" id="boundary" inkscape:connector-curvature="0" />
	<path style="fill:none;stroke:red;stroke-width:1px;stroke-linecap:butt;stroke-linejoin:miter;stroke-opacity:1" d="M 53.1321,168.358 47.8679,165.434 z" id="boundary" inkscape:connector-curvature="0" />
	<path style="fill:none;stroke:red;stroke-width:1px;stroke-linecap:butt;stroke-linejoin:miter;stroke-opacity:1" d="M 42.0189,165.434 47.8679,165.434 z" id="boundary" inkscape:connector-curvature="0" />
	<path style="fill:none;stroke:red;stroke-width:1px;stroke-linecap:butt;stroke-linejoin:miter;stroke-opacity:1" d="M 64.8302,168.358 70.0943,171.283 z" id="boundary" inkscape:connector-curvature="0" />
	<path style="fill:none;stroke:red;stroke-width:1px;stroke-linecap:butt;stroke-linejoin:miter;stroke-opacity:1" d="M 58.9811,168.358 64.8302,168.358 z" id="boundary" inkscape:connector-curvature="0" />
	<path style="fill:none;stroke:red;stroke-width:1px;stroke-linecap:butt;stroke-linejoin:miter;stroke-opacity:1" d="M 75.9434,171.283 70.0943,171.283 z" id="boundary" inkscape:connector-curvature="0" />
	<path style="fill:none;stroke:red;stroke-width:1px;stroke-linecap:butt;stroke-linejoin:miter;stroke-opacity:1" d="M 87.6415,174.208 81.7925,173.623 z" id="boundary" inkscape:connector-curvature="0" />
	<path style="fill:none;stroke:red;stroke-width:1px;stroke-linecap:butt;stroke-linejoin:miter;stroke-opacity:1" d="M 81.7925,173.623 75.9434,171.283 z" id="boundary" inkscape:connector-curvature="0" />
	<path style="fill:none;stroke:red;stroke-width:1px;stroke-linecap:butt;stroke-linejoin:miter;stroke-opacity:1" d="M 87.6415,174.208 92.9057,177.132 z" id="boundary" inkscape:connector-curvature="0" />
	<path style="fill:none;stroke:red;stroke-width:1px;stroke-linecap:butt;stroke-linejoin:miter;stroke-opacity:1" d="M 92.9057,177.132 98.7547,177.132 z" id="boundary" inkscape:connector-curvature="0" />
	<path style="fill:none;stroke:red;stroke-width:1px;stroke-linecap:butt;stroke-linejoin:miter;stroke-opacity:1" d="M 98.7547,177.132 104.019,180.057 z" id="boundary" inkscape:connector-curvature="0" />
	<path style="fill:none;stroke:red;stroke-width:1px;stroke-linecap:butt;stroke-linejoin:miter;stroke-opacity:1" d="M 109.868,180.057 104.019,180.057 z" id="boundary" inkscape:connector-curvature="0" />
	<path style="fill:none;stroke:red;stroke-width:1px;stroke-linecap:butt;stroke-linejoin:miter;stroke-opacity:1" d="M 120.981,182.981 115.132,182.981 z" id="boundary" inkscape:connector-curvature="0" />
	<path style="fill:none;stroke:red;stroke-width:1px;stroke-linecap:butt;stroke-linejoin:miter;stroke-opacity:1" d="M 115.132,182.981 109.868,180.057 z" id="boundary" inkscape:connector-curvature="0" />
	<path style="fill:none;stroke:red;stroke-width:1px;stroke-linecap:butt;stroke-linejoin:miter;stroke-opacity:1" d="M 120.981,182.981 126.245,185.906 z" id="boundary" inkscape:connector-curvature="0" />
	<path style="fill:none;stroke:red;stroke-width:1px;stroke-linecap:butt;stroke-linejoin:miter;stroke-opacity:1" d="M 218.075,194.679 212.226,194.679 z" id="boundary" inkscape:connector-curvature="0" />
	<path style="fill:none;stroke:red;stroke-width:1px;stroke-linecap:butt;stroke-linejoin:miter;stroke-opacity:1" d="M 126.245,185.906 132.094,185.906 z" id="boundary" inkscape:connector-curvature="0" />
	<path style="fill:none;stroke:red;stroke-width:1px;stroke-linecap:butt;stroke-linejoin:miter;stroke-opacity:1" d="M 132.094,185.906 137.358,188.83 z" id="boundary" inkscape:connector-curvature="0" />
	<path style="fill:none;stroke:red;stroke-width:1px;stroke-linecap:butt;stroke-linejoin:miter;stroke-opacity:1" d="M 137.358,188.83 143.208,188.83 z" id="boundary" inkscape:connector-curvature="0" />
	<path style="fill:none;stroke:red;stroke-width:1px;stroke-linecap:butt;stroke-linejoin:miter;stroke-opacity:1" d="M 143.208,188.83 149.057,191.17 z" id="boundary" inkscape:connector-curvature="0" />
	<path style="fill:none;stroke:red;stroke-width:1px;stroke-linecap:butt;stroke-linejoin:miter;stroke-opacity:1" d="M 154.906,191.755 149.057,191.17 z" id="boundary" inkscape:connector-curvature="0" />
	<path style="fill:none;stroke:red;stroke-width:1px;stroke-linecap:butt;stroke-linejoin:miter;stroke-opacity:1" d="M 154.906,191.755 160.755,191.755 z" id="boundary" inkscape:connector-curvature="0" />
	<path style="fill:none;stroke:red;stroke-width:1px;stroke-linecap:butt;stroke-linejoin:miter;stroke-opacity:1" d="M 160.755,191.755 166.019,194.679 z" id="boundary" inkscape:connector-curvature="0" />
	<path style="fill:none;stroke:red;stroke-width:1px;stroke-linecap:butt;stroke-linejoin:miter;stroke-opacity:1" d="M 171.868,196.434 166.019,194.679 z" id="boundary" inkscape:connector-curvature="0" />
	<path style="fill:none;stroke:red;stroke-width:1px;stroke-linecap:butt;stroke-linejoin:miter;stroke-opacity:1" d="M 183.566,197.604 177.717,197.604 z" id="boundary" inkscape:connector-curvature="0" />
	<path style="fill:none;stroke:red;stroke-width:1px;stroke-linecap:butt;stroke-linejoin:miter;stroke-opacity:1" d="M 177.717,197.604 171.868,196.434 z" id="boundary" inkscape:connector-curvature="0" />
	<path style="fill:none;stroke:red;stroke-width:1px;stroke-linecap:butt;stroke-linejoin:miter;stroke-opacity:1" d="M 189.415,197.604 195.264,197.604 z" id="boundary" inkscape:connector-curvature="0" />
	<path style="fill:none;stroke:red;stroke-width:1px;stroke-linecap:butt;stroke-linejoin:miter;stroke-opacity:1" d="M 201.113,197.604 195.264,197.604 z" id="boundary" inkscape:connector-curvature="0" />
	<path style="fill:none;stroke:red;stroke-width:1px;stroke-linecap:butt;stroke-linejoin:miter;stroke-opacity:1" d="M 206.377,194.679 201.113,197.604 z" id="boundary" inkscape:connector-curvature="0" />
	<path style="fill:none;stroke:red;stroke-width:1px;stroke-linecap:butt;stroke-linejoin:miter;stroke-opacity:1" d="M 206.377,194.679 212.226,194.679 z" id="boundary" inkscape:connector-curvature="0" />
	<path style="fill:none;stroke:red;stroke-width:1px;stroke-linecap:butt;stroke-linejoin:miter;stroke-opacity:1" d="M 189.415,197.604 183.566,197.604 z" id="boundary" inkscape:connector-curvature="0" />
	<path style="fill:none;stroke:red;stroke-width:1px;stroke-linecap:butt;stroke-linejoin:miter;stroke-opacity:1" d="M 218.075,194.679 223.34,197.604 z" id="boundary" inkscape:connector-curvature="0" />
	<path style="fill:none;stroke:red;stroke-width:1px;stroke-linecap:butt;stroke-linejoin:miter;stroke-opacity:1" d="M 223.34,197.604 229.189,197.604 z" id="boundary" inkscape:connector-curvature="0" />
	<path style="fill:none;stroke:red;stroke-width:1px;stroke-linecap:butt;stroke-linejoin:miter;stroke-opacity:1" d="M 235.038,197.604 229.189,197.604 z" id="boundary" inkscape:connector-curvature="0" />
	<path style="fill:none;stroke:red;stroke-width:1px;stroke-linecap:butt;stroke-linejoin:miter;stroke-opacity:1" d="M 252,200.528 246.151,200.528 z" id="boundary" inkscape:connector-curvature="0" />
	<path style="fill:none;stroke:red;stroke-width:1px;stroke-linecap:butt;stroke-linejoin:miter;stroke-opacity:1" d="M 246.151,200.528 240.887,197.604 z" id="boundary" inkscape:connector-curvature="0" />
	<path style="fill:none;stroke:red;stroke-width:1px;stroke-linecap:butt;stroke-linejoin:miter;stroke-opacity:1" d="M 257.849,200.528 252,200.528 z" id="boundary" inkscape:connector-curvature="0" />
	<path style="fill:none;stroke:red;stroke-width:1px;stroke-linecap:butt;stroke-linejoin:miter;stroke-opacity:1" d="M 235.038,197.604 240.887,197.604 z" id="boundary" inkscape:connector-curvature="0" />
	<path style="fill:none;stroke:red;stroke-width:1px;stroke-linecap:butt;stroke-linejoin:miter;stroke-opacity:1" d="M 422.208,172.453 428.057,171.283 z" id="boundary" inkscape:connector-curvature="0" />
	<path style="fill:none;stroke:red;stroke-width:1px;stroke-linecap:butt;stroke-linejoin:miter;stroke-opacity:1" d="M 428.057,171.283 433.906,171.283 z" id="boundary" inkscape:connector-curvature="0" />
	<path style="fill:none;stroke:red;stroke-width:1px;stroke-linecap:butt;stroke-linejoin:miter;stroke-opacity:1" d="M 445.604,169.528 439.755,171.283 z" id="boundary" inkscape:connector-curvature="0" />
	<path style="fill:none;stroke:red;stroke-width:1px;stroke-linecap:butt;stroke-linejoin:miter;stroke-opacity:1" d="M 439.755,171.283 433.906,171.283 z" id="boundary" inkscape:connector-curvature="0" />
	<path style="fill:none;stroke:red;stroke-width:1px;stroke-linecap:butt;stroke-linejoin:miter;stroke-opacity:1" d="M 416.358,174.208 422.208,172.453 z" id="boundary" inkscape:connector-curvature="0" />
	<path style="fill:none;stroke:red;stroke-width:1px;stroke-linecap:butt;stroke-linejoin:miter;stroke-opacity:1" d="M 387.698,177.132 381.849,177.132 z" id="boundary" inkscape:connector-curvature="0" />
	<path style="fill:none;stroke:red;stroke-width:1px;stroke-linecap:butt;stroke-linejoin:miter;stroke-opacity:1" d="M 392.962,174.208 387.698,177.132 z" id="boundary" inkscape:connector-curvature="0" />
	<path style="fill:none;stroke:red;stroke-width:1px;stroke-linecap:butt;stroke-linejoin:miter;stroke-opacity:1" d="M 398.811,174.208 392.962,174.208 z" id="boundary" inkscape:connector-curvature="0" />
	<path style="fill:none;stroke:red;stroke-width:1px;stroke-linecap:butt;stroke-linejoin:miter;stroke-opacity:1" d="M 398.811,174.208 404.66,174.208 z" id="boundary" inkscape:connector-curvature="0" />
	<path style="fill:none;stroke:red;stroke-width:1px;stroke-linecap:butt;stroke-linejoin:miter;stroke-opacity:1" d="M 410.509,174.208 404.66,174.208 z" id="boundary" inkscape:connector-curvature="0" />
	<path style="fill:none;stroke:red;stroke-width:1px;stroke-linecap:butt;stroke-linejoin:miter;stroke-opacity:1" d="M 416.358,174.208 410.509,174.208 z" id="boundary" inkscape:connector-curvature="0" />
	<path style="fill:none;stroke:red;stroke-width:1px;stroke-linecap:butt;stroke-linejoin:miter;stroke-opacity:1" d="M 486.547,165.434 492.396,165.434 z" id="boundary" inkscape:connector-curvature="0" />
	<path style="fill:none;stroke:red;stroke-width:1px;stroke-linecap:butt;stroke-linejoin:miter;stroke-opacity:1" d="M 480.698,166.604 486.547,165.434 z" id="boundary" inkscape:connector-curvature="0" />
	<path style="fill:none;stroke:red;stroke-width:1px;stroke-linecap:butt;stroke-linejoin:miter;stroke-opacity:1" d="M 498.245,165.434 504.094,165.434 z" id="boundary" inkscape:connector-curvature="0" />
	<path style="fill:none;stroke:red;stroke-width:1px;stroke-linecap:butt;stroke-linejoin:miter;stroke-opacity:1" d="M 498.245,165.434 492.396,165.434 z" id="boundary" inkscape:connector-curvature="0" />
	<path style="fill:none;stroke:red;stroke-width:1px;stroke-linecap:butt;stroke-linejoin:miter;stroke-opacity:1" d="M 504.094,165.434 509.943,165.434 z" id="boundary" inkscape:connector-curvature="0" />
	<path style="fill:none;stroke:red;stroke-width:1px;stroke-linecap:butt;stroke-linejoin:miter;stroke-opacity:1" d="M 451.453,168.358 457.302,168.358 z" id="boundary" inkscape:connector-curvature="0" />
	<path style="fill:none;stroke:red;stroke-width:1px;stroke-linecap:butt;stroke-linejoin:miter;stroke-opacity:1" d="M 445.604,169.528 451.453,168.358 z" id="boundary" inkscape:connector-curvature="0" />
	<path style="fill:none;stroke:red;stroke-width:1px;stroke-linecap:butt;stroke-linejoin:miter;stroke-opacity:1" d="M 463.151,168.358 457.302,168.358 z" id="boundary" inkscape:connector-curvature="0" />
	<path style="fill:none;stroke:red;stroke-width:1px;stroke-linecap:butt;stroke-linejoin:miter;stroke-opacity:1" d="M 480.698,166.604 474.849,168.358 z" id="boundary" inkscape:connector-curvature="0" />
	<path style="fill:none;stroke:red;stroke-width:1px;stroke-linecap:butt;stroke-linejoin:miter;stroke-opacity:1" d="M 474.849,168.358 469,168.358 z" id="boundary" inkscape:connector-curvature="0" />
	<path style="fill:none;stroke:red;stroke-width:1px;stroke-linecap:butt;stroke-linejoin:miter;stroke-opacity:1" d="M 469,168.358 463.151,168.358 z" id="boundary" inkscape:connector-curvature="0" />
	<path style="fill:none;stroke:red;stroke-width:1px;stroke-linecap:butt;stroke-linejoin:miter;stroke-opacity:1" d="M 286.509,197.604 292.358,197.604 z" id="boundary" inkscape:connector-curvature="0" />
	<path style="fill:none;stroke:red;stroke-width:1px;stroke-linecap:butt;stroke-linejoin:miter;stroke-opacity:1" d="M 281.245,200.528 286.509,197.604 z" id="boundary" inkscape:connector-curvature="0" />
	<path style="fill:none;stroke:red;stroke-width:1px;stroke-linecap:butt;stroke-linejoin:miter;stroke-opacity:1" d="M 298.208,197.604 304.057,197.604 z" id="boundary" inkscape:connector-curvature="0" />
	<path style="fill:none;stroke:red;stroke-width:1px;stroke-linecap:butt;stroke-linejoin:miter;stroke-opacity:1" d="M 309.906,197.604 304.057,197.604 z" id="boundary" inkscape:connector-curvature="0" />
	<path style="fill:none;stroke:red;stroke-width:1px;stroke-linecap:butt;stroke-linejoin:miter;stroke-opacity:1" d="M 298.208,197.604 292.358,197.604 z" id="boundary" inkscape:connector-curvature="0" />
	<path style="fill:none;stroke:red;stroke-width:1px;stroke-linecap:butt;stroke-linejoin:miter;stroke-opacity:1" d="M 263.698,200.528 257.849,200.528 z" id="boundary" inkscape:connector-curvature="0" />
	<path style="fill:none;stroke:red;stroke-width:1px;stroke-linecap:butt;stroke-linejoin:miter;stroke-opacity:1" d="M 269.547,200.528 263.698,200.528 z" id="boundary" inkscape:connector-curvature="0" />
	<path style="fill:none;stroke:red;stroke-width:1px;stroke-linecap:butt;stroke-linejoin:miter;stroke-opacity:1" d="M 281.245,200.528 275.396,200.528 z" id="boundary" inkscape:connector-curvature="0" />
	<path style="fill:none;stroke:red;stroke-width:1px;stroke-linecap:butt;stroke-linejoin:miter;stroke-opacity:1" d="M 275.396,200.528 269.547,200.528 z" id="boundary" inkscape:connector-curvature="0" />
	<path style="fill:none;stroke:red;stroke-width:1px;stroke-linecap:butt;stroke-linejoin:miter;stroke-opacity:1" d="M 309.906,197.604 315.755,197.604 z" id="boundary" inkscape:connector-curvature="0" />
	<path style="fill:none;stroke:red;stroke-width:1px;stroke-linecap:butt;stroke-linejoin:miter;stroke-opacity:1" d="M 321.019,194.679 315.755,197.604 z" id="boundary" inkscape:connector-curvature="0" />
	<path style="fill:none;stroke:red;stroke-width:1px;stroke-linecap:butt;stroke-linejoin:miter;stroke-opacity:1" d="M 355.528,191.755 349.679,191.755 z" id="boundary" inkscape:connector-curvature="0" />
	<path style="fill:none;stroke:red;stroke-width:1px;stroke-linecap:butt;stroke-linejoin:miter;stroke-opacity:1" d="M 349.679,191.755 343.83,191.755 z" id="boundary" inkscape:connector-curvature="0" />
	<path style="fill:none;stroke:red;stroke-width:1px;stroke-linecap:butt;stroke-linejoin:miter;stroke-opacity:1" d="M 372.491,185.906 367.226,188.83 z" id="boundary" inkscape:connector-curvature="0" />
	<path style="fill:none;stroke:red;stroke-width:1px;stroke-linecap:butt;stroke-linejoin:miter;stroke-opacity:1" d="M 338.566,194.679 343.83,191.755 z" id="boundary" inkscape:connector-curvature="0" />
	<path style="fill:none;stroke:red;stroke-width:1px;stroke-linecap:butt;stroke-linejoin:miter;stroke-opacity:1" d="M 372.491,185.906 377.17,182.396 z" id="boundary" inkscape:connector-curvature="0" />
	<path style="fill:none;stroke:red;stroke-width:1px;stroke-linecap:butt;stroke-linejoin:miter;stroke-opacity:1" d="M 381.849,177.132 377.17,182.396 z" id="boundary" inkscape:connector-curvature="0" />
	<path style="fill:none;stroke:red;stroke-width:1px;stroke-linecap:butt;stroke-linejoin:miter;stroke-opacity:1" d="M 321.019,194.679 326.868,194.679 z" id="boundary" inkscape:connector-curvature="0" />
	<path style="fill:none;stroke:red;stroke-width:1px;stroke-linecap:butt;stroke-linejoin:miter;stroke-opacity:1" d="M 332.717,194.679 326.868,194.679 z" id="boundary" inkscape:connector-curvature="0" />
	<path style="fill:none;stroke:red;stroke-width:1px;stroke-linecap:butt;stroke-linejoin:miter;stroke-opacity:1" d="M 355.528,191.755 361.377,191.755 z" id="boundary" inkscape:connector-curvature="0" />
	<path style="fill:none;stroke:red;stroke-width:1px;stroke-linecap:butt;stroke-linejoin:miter;stroke-opacity:1" d="M 338.566,194.679 332.717,194.679 z" id="boundary" inkscape:connector-curvature="0" />
	<path style="fill:none;stroke:red;stroke-width:1px;stroke-linecap:butt;stroke-linejoin:miter;stroke-opacity:1" d="M 367.226,188.83 361.377,191.755 z" id="boundary" inkscape:connector-curvature="0" />
	<path style="fill:none;stroke:red;stroke-width:1px;stroke-linecap:butt;stroke-linejoin:miter;stroke-opacity:1" d="M 515.208,162.509 509.943,165.434 z" id="boundary" inkscape:connector-curvature="0" />
	<path style="fill:none;stroke:red;stroke-width:1px;stroke-linecap:butt;stroke-linejoin:miter;stroke-opacity:1" d="M 683.075,24.4717 677.226,25.6415 z" id="boundary" inkscape:connector-curvature="0" />
	<path style="fill:none;stroke:red;stroke-width:1px;stroke-linecap:butt;stroke-linejoin:miter;stroke-opacity:1" d="M 653.83,27.3962 647.981,27.3962 z" id="boundary" inkscape:connector-curvature="0" />
	<path style="fill:none;stroke:red;stroke-width:1px;stroke-linecap:butt;stroke-linejoin:miter;stroke-opacity:1" d="M 683.075,24.4717 688.925,24.4717 z" id="boundary" inkscape:connector-curvature="0" />
	<path style="fill:none;stroke:red;stroke-width:1px;stroke-linecap:butt;stroke-linejoin:miter;stroke-opacity:1" d="M 694.774,24.4717 688.925,24.4717 z" id="boundary" inkscape:connector-curvature="0" />
	<path style="fill:none;stroke:red;stroke-width:1px;stroke-linecap:butt;stroke-linejoin:miter;stroke-opacity:1" d="M 671.377,27.3962 677.226,25.6415 z" id="boundary" inkscape:connector-curvature="0" />
	<path style="fill:none;stroke:red;stroke-width:1px;stroke-linecap:butt;stroke-linejoin:miter;stroke-opacity:1" d="M 631.019,30.3208 625.17,30.3208 z" id="boundary" inkscape:connector-curvature="0" />
	<path style="fill:none;stroke:red;stroke-width:1px;stroke-linecap:butt;stroke-linejoin:miter;stroke-opacity:1" d="M 636.868,30.3208 631.019,30.3208 z" id="boundary" inkscape:connector-curvature="0" />
	<path style="fill:none;stroke:red;stroke-width:1px;stroke-linecap:butt;stroke-linejoin:miter;stroke-opacity:1" d="M 642.717,30.3208 647.981,27.3962 z" id="boundary" inkscape:connector-curvature="0" />
	<path style="fill:none;stroke:red;stroke-width:1px;stroke-linecap:butt;stroke-linejoin:miter;stroke-opacity:1" d="M 619.906,33.2453 625.17,30.3208 z" id="boundary" inkscape:connector-curvature="0" />
	<path style="fill:none;stroke:red;stroke-width:1px;stroke-linecap:butt;stroke-linejoin:miter;stroke-opacity:1" d="M 653.83,27.3962 659.679,27.3962 z" id="boundary" inkscape:connector-curvature="0" />
	<path style="fill:none;stroke:red;stroke-width:1px;stroke-linecap:butt;stroke-linejoin:miter;stroke-opacity:1" d="M 665.528,27.3962 659.679,27.3962 z" id="boundary" inkscape:connector-curvature="0" />
	<path style="fill:none;stroke:red;stroke-width:1px;stroke-linecap:butt;stroke-linejoin:miter;stroke-opacity:1" d="M 671.377,27.3962 665.528,27.3962 z" id="boundary" inkscape:connector-curvature="0" />
	<path style="fill:none;stroke:red;stroke-width:1px;stroke-linecap:butt;stroke-linejoin:miter;stroke-opacity:1" d="M 735.132,18.6226 740.981,18.6226 z" id="boundary" inkscape:connector-curvature="0" />
	<path style="fill:none;stroke:red;stroke-width:1px;stroke-linecap:butt;stroke-linejoin:miter;stroke-opacity:1" d="M 729.868,21.5472 735.132,18.6226 z" id="boundary" inkscape:connector-curvature="0" />
	<path style="fill:none;stroke:red;stroke-width:1px;stroke-linecap:butt;stroke-linejoin:miter;stroke-opacity:1" d="M 752.679,18.6226 746.83,18.6226 z" id="boundary" inkscape:connector-curvature="0" />
	<path style="fill:none;stroke:red;stroke-width:1px;stroke-linecap:butt;stroke-linejoin:miter;stroke-opacity:1" d="M 758.528,18.6226 752.679,18.6226 z" id="boundary" inkscape:connector-curvature="0" />
	<path style="fill:none;stroke:red;stroke-width:1px;stroke-linecap:butt;stroke-linejoin:miter;stroke-opacity:1" d="M 763.792,15.6981 758.528,18.6226 z" id="boundary" inkscape:connector-curvature="0" />
	<path style="fill:none;stroke:red;stroke-width:1px;stroke-linecap:butt;stroke-linejoin:miter;stroke-opacity:1" d="M 746.83,18.6226 740.981,18.6226 z" id="boundary" inkscape:connector-curvature="0" />
	<path style="fill:none;stroke:red;stroke-width:1px;stroke-linecap:butt;stroke-linejoin:miter;stroke-opacity:1" d="M 712.321,22.717 706.472,24.4717 z" id="boundary" inkscape:connector-curvature="0" />
	<path style="fill:none;stroke:red;stroke-width:1px;stroke-linecap:butt;stroke-linejoin:miter;stroke-opacity:1" d="M 706.472,24.4717 700.623,24.4717 z" id="boundary" inkscape:connector-curvature="0" />
	<path style="fill:none;stroke:red;stroke-width:1px;stroke-linecap:butt;stroke-linejoin:miter;stroke-opacity:1" d="M 700.623,24.4717 694.774,24.4717 z" id="boundary" inkscape:connector-curvature="0" />
	<path style="fill:none;stroke:red;stroke-width:1px;stroke-linecap:butt;stroke-linejoin:miter;stroke-opacity:1" d="M 718.17,21.5472 724.019,21.5472 z" id="boundary" inkscape:connector-curvature="0" />
	<path style="fill:none;stroke:red;stroke-width:1px;stroke-linecap:butt;stroke-linejoin:miter;stroke-opacity:1" d="M 712.321,22.717 718.17,21.5472 z" id="boundary" inkscape:connector-curvature="0" />
	<path style="fill:none;stroke:red;stroke-width:1px;stroke-linecap:butt;stroke-linejoin:miter;stroke-opacity:1" d="M 729.868,21.5472 724.019,21.5472 z" id="boundary" inkscape:connector-curvature="0" />
	<path style="fill:none;stroke:red;stroke-width:1px;stroke-linecap:butt;stroke-linejoin:miter;stroke-opacity:1" d="M 539.189,39.0943 545.038,39.0943 z" id="boundary" inkscape:connector-curvature="0" />
	<path style="fill:none;stroke:red;stroke-width:1px;stroke-linecap:butt;stroke-linejoin:miter;stroke-opacity:1" d="M 533.925,42.0189 539.189,39.0943 z" id="boundary" inkscape:connector-curvature="0" />
	<path style="fill:none;stroke:red;stroke-width:1px;stroke-linecap:butt;stroke-linejoin:miter;stroke-opacity:1" d="M 556.736,39.0943 550.887,39.0943 z" id="boundary" inkscape:connector-curvature="0" />
	<path style="fill:none;stroke:red;stroke-width:1px;stroke-linecap:butt;stroke-linejoin:miter;stroke-opacity:1" d="M 562,36.1698 556.736,39.0943 z" id="boundary" inkscape:connector-curvature="0" />
	<path style="fill:none;stroke:red;stroke-width:1px;stroke-linecap:butt;stroke-linejoin:miter;stroke-opacity:1" d="M 550.887,39.0943 545.038,39.0943 z" id="boundary" inkscape:connector-curvature="0" />
	<path style="fill:none;stroke:red;stroke-width:1px;stroke-linecap:butt;stroke-linejoin:miter;stroke-opacity:1" d="M 567.849,36.1698 562,36.1698 z" id="boundary" inkscape:connector-curvature="0" />
	<path style="fill:none;stroke:red;stroke-width:1px;stroke-linecap:butt;stroke-linejoin:miter;stroke-opacity:1" d="M 522.226,42.0189 516.962,44.9434 z" id="boundary" inkscape:connector-curvature="0" />
	<path style="fill:none;stroke:red;stroke-width:1px;stroke-linecap:butt;stroke-linejoin:miter;stroke-opacity:1" d="M 516.962,44.9434 511.113,44.9434 z" id="boundary" inkscape:connector-curvature="0" />
	<path style="fill:none;stroke:red;stroke-width:1px;stroke-linecap:butt;stroke-linejoin:miter;stroke-opacity:1" d="M 522.226,42.0189 528.075,42.0189 z" id="boundary" inkscape:connector-curvature="0" />
	<path style="fill:none;stroke:red;stroke-width:1px;stroke-linecap:butt;stroke-linejoin:miter;stroke-opacity:1" d="M 533.925,42.0189 528.075,42.0189 z" id="boundary" inkscape:connector-curvature="0" />
	<path style="fill:none;stroke:red;stroke-width:1px;stroke-linecap:butt;stroke-linejoin:miter;stroke-opacity:1" d="M 567.849,36.1698 573.698,36.1698 z" id="boundary" inkscape:connector-curvature="0" />
	<path style="fill:none;stroke:red;stroke-width:1px;stroke-linecap:butt;stroke-linejoin:miter;stroke-opacity:1" d="M 590.66,33.2453 596.509,33.2453 z" id="boundary" inkscape:connector-curvature="0" />
	<path style="fill:none;stroke:red;stroke-width:1px;stroke-linecap:butt;stroke-linejoin:miter;stroke-opacity:1" d="M 585.396,36.1698 590.66,33.2453 z" id="boundary" inkscape:connector-curvature="0" />
	<path style="fill:none;stroke:red;stroke-width:1px;stroke-linecap:butt;stroke-linejoin:miter;stroke-opacity:1" d="M 608.208,33.2453 602.358,33.2453 z" id="boundary" inkscape:connector-curvature="0" />
	<path style="fill:none;stroke:red;stroke-width:1px;stroke-linecap:butt;stroke-linejoin:miter;stroke-opacity:1" d="M 602.358,33.2453 596.509,33.2453 z" id="boundary" inkscape:connector-curvature="0" />
	<path style="fill:none;stroke:red;stroke-width:1px;stroke-linecap:butt;stroke-linejoin:miter;stroke-opacity:1" d="M 642.717,30.3208 636.868,30.3208 z" id="boundary" inkscape:connector-curvature="0" />
	<path style="fill:none;stroke:red;stroke-width:1px;stroke-linecap:butt;stroke-linejoin:miter;stroke-opacity:1" d="M 579.547,36.1698 573.698,36.1698 z" id="boundary" inkscape:connector-curvature="0" />
	<path style="fill:none;stroke:red;stroke-width:1px;stroke-linecap:butt;stroke-linejoin:miter;stroke-opacity:1" d="M 585.396,36.1698 579.547,36.1698 z" id="boundary" inkscape:connector-curvature="0" />
	<path style="fill:none;stroke:red;stroke-width:1px;stroke-linecap:butt;stroke-linejoin:miter;stroke-opacity:1" d="M 614.057,33.2453 608.208,33.2453 z" id="boundary" inkscape:connector-curvature="0" />
	<path style="fill:none;stroke:red;stroke-width:1px;stroke-linecap:butt;stroke-linejoin:miter;stroke-opacity:1" d="M 619.906,33.2453 614.057,33.2453 z" id="boundary" inkscape:connector-curvature="0" />
	<path style="fill:none;stroke:red;stroke-width:1px;stroke-linecap:butt;stroke-linejoin:miter;stroke-opacity:1" d="M 798.302,12.7736 792.453,12.7736 z" id="boundary" inkscape:connector-curvature="0" />
	<path style="fill:none;stroke:red;stroke-width:1px;stroke-linecap:butt;stroke-linejoin:miter;stroke-opacity:1" d="M 815.849,12.7736 821.113,9.84906 z" id="boundary" inkscape:connector-curvature="0" />
	<path style="fill:none;stroke:red;stroke-width:1px;stroke-linecap:butt;stroke-linejoin:miter;stroke-opacity:1" d="M 821.113,9.84906 826.962,9.84906 z" id="boundary" inkscape:connector-curvature="0" />
	<path style="fill:none;stroke:red;stroke-width:1px;stroke-linecap:butt;stroke-linejoin:miter;stroke-opacity:1" d="M 832.811,9.84906 826.962,9.84906 z" id="boundary" inkscape:connector-curvature="0" />
	<path style="fill:none;stroke:red;stroke-width:1px;stroke-linecap:butt;stroke-linejoin:miter;stroke-opacity:1" d="M 838.66,9.84906 832.811,9.84906 z" id="boundary" inkscape:connector-curvature="0" />
	<path style="fill:none;stroke:red;stroke-width:1px;stroke-linecap:butt;stroke-linejoin:miter;stroke-opacity:1" d="M 844.509,7.50943 838.66,9.84906 z" id="boundary" inkscape:connector-curvature="0" />
	<path style="fill:none;stroke:red;stroke-width:1px;stroke-linecap:butt;stroke-linejoin:miter;stroke-opacity:1" d="M 769.642,15.6981 763.792,15.6981 z" id="boundary" inkscape:connector-curvature="0" />
	<path style="fill:none;stroke:red;stroke-width:1px;stroke-linecap:butt;stroke-linejoin:miter;stroke-opacity:1" d="M 775.491,15.6981 769.642,15.6981 z" id="boundary" inkscape:connector-curvature="0" />
	<path style="fill:none;stroke:red;stroke-width:1px;stroke-linecap:butt;stroke-linejoin:miter;stroke-opacity:1" d="M 787.189,15.6981 792.453,12.7736 z" id="boundary" inkscape:connector-curvature="0" />
	<path style="fill:none;stroke:red;stroke-width:1px;stroke-linecap:butt;stroke-linejoin:miter;stroke-opacity:1" d="M 798.302,12.7736 804.151,12.7736 z" id="boundary" inkscape:connector-curvature="0" />
	<path style="fill:none;stroke:red;stroke-width:1px;stroke-linecap:butt;stroke-linejoin:miter;stroke-opacity:1" d="M 810,12.7736 804.151,12.7736 z" id="boundary" inkscape:connector-curvature="0" />
	<path style="fill:none;stroke:red;stroke-width:1px;stroke-linecap:butt;stroke-linejoin:miter;stroke-opacity:1" d="M 815.849,12.7736 810,12.7736 z" id="boundary" inkscape:connector-curvature="0" />
	<path style="fill:none;stroke:red;stroke-width:1px;stroke-linecap:butt;stroke-linejoin:miter;stroke-opacity:1" d="M 862.057,6.92453 867.321,4 z" id="boundary" inkscape:connector-curvature="0" />
	<path style="fill:none;stroke:red;stroke-width:1px;stroke-linecap:butt;stroke-linejoin:miter;stroke-opacity:1" d="M 867.321,4 873.17,4 z" id="boundary" inkscape:connector-curvature="0" />
	<path style="fill:none;stroke:red;stroke-width:1px;stroke-linecap:butt;stroke-linejoin:miter;stroke-opacity:1" d="M 879.019,4 884.868,4 z" id="boundary" inkscape:connector-curvature="0" />
	<path style="fill:none;stroke:red;stroke-width:1px;stroke-linecap:butt;stroke-linejoin:miter;stroke-opacity:1" d="M 884.868,4 890.717,5.75472 z" id="boundary" inkscape:connector-curvature="0" />
	<path style="fill:none;stroke:red;stroke-width:1px;stroke-linecap:butt;stroke-linejoin:miter;stroke-opacity:1" d="M 873.17,4 879.019,4 z" id="boundary" inkscape:connector-curvature="0" />
	<path style="fill:none;stroke:red;stroke-width:1px;stroke-linecap:butt;stroke-linejoin:miter;stroke-opacity:1" d="M 850.358,6.92453 856.208,6.92453 z" id="boundary" inkscape:connector-curvature="0" />
	<path style="fill:none;stroke:red;stroke-width:1px;stroke-linecap:butt;stroke-linejoin:miter;stroke-opacity:1" d="M 850.358,6.92453 844.509,7.50943 z" id="boundary" inkscape:connector-curvature="0" />
	<path style="fill:none;stroke:red;stroke-width:1px;stroke-linecap:butt;stroke-linejoin:miter;stroke-opacity:1" d="M 890.717,5.75472 895.981,8.67925 z" id="boundary" inkscape:connector-curvature="0" />
	<path style="fill:none;stroke:red;stroke-width:1px;stroke-linecap:butt;stroke-linejoin:miter;stroke-opacity:1" d="M 895.981,8.67925 899.491,13.3585 z" id="boundary" inkscape:connector-curvature="0" />
	<path style="fill:none;stroke:red;stroke-width:1px;stroke-linecap:butt;stroke-linejoin:miter;stroke-opacity:1" d="M 856.208,6.92453 862.057,6.92453 z" id="boundary" inkscape:connector-curvature="0" />
	<path style="fill:none;stroke:red;stroke-width:1px;stroke-linecap:butt;stroke-linejoin:miter;stroke-opacity:1" d="M 899.491,13.3585 902.415,18.6226 z" id="boundary" inkscape:connector-curvature="0" />
	<path style="fill:none;stroke:red;stroke-width:1px;stroke-linecap:butt;stroke-linejoin:miter;stroke-opacity:1" d="M 775.491,15.6981 781.34,15.6981 z" id="boundary" inkscape:connector-curvature="0" />
	<path style="fill:none;stroke:red;stroke-width:1px;stroke-linecap:butt;stroke-linejoin:miter;stroke-opacity:1" d="M 902.415,18.6226 905.34,23.8868 z" id="boundary" inkscape:connector-curvature="0" />
	<path style="fill:none;stroke:red;stroke-width:1px;stroke-linecap:butt;stroke-linejoin:miter;stroke-opacity:1" d="M 781.34,15.6981 787.189,15.6981 z" id="boundary" inkscape:connector-curvature="0" />
	<path style="fill:none;stroke:red;stroke-width:1px;stroke-linecap:butt;stroke-linejoin:miter;stroke-opacity:1" d="M 910.019,27.3962 915.868,27.3962 z" id="boundary" inkscape:connector-curvature="0" />
	<path style="fill:none;stroke:red;stroke-width:1px;stroke-linecap:butt;stroke-linejoin:miter;stroke-opacity:1" d="M 910.019,27.3962 905.34,23.8868 z" id="boundary" inkscape:connector-curvature="0" />
	<path style="fill:none;stroke:red;stroke-width:1px;stroke-linecap:butt;stroke-linejoin:miter;stroke-opacity:1" d="M 921.717,27.3962 915.868,27.3962 z" id="boundary" inkscape:connector-curvature="0" />
	<path style="fill:none;stroke:red;stroke-width:1px;stroke-linecap:butt;stroke-linejoin:miter;stroke-opacity:1" d="M 938.679,24.4717 933.415,27.3962 z" id="boundary" inkscape:connector-curvature="0" />
	<path style="fill:none;stroke:red;stroke-width:1px;stroke-linecap:butt;stroke-linejoin:miter;stroke-opacity:1" d="M 933.415,27.3962 927.566,27.3962 z" id="boundary" inkscape:connector-curvature="0" />
	<path style="fill:none;stroke:red;stroke-width:1px;stroke-linecap:butt;stroke-linejoin:miter;stroke-opacity:1" d="M 938.679,24.4717 944.528,24.4717 z" id="boundary" inkscape:connector-curvature="0" />
	<path style="fill:none;stroke:red;stroke-width:1px;stroke-linecap:butt;stroke-linejoin:miter;stroke-opacity:1" d="M 927.566,27.3962 921.717,27.3962 z" id="boundary" inkscape:connector-curvature="0" />
	<path style="fill:none;stroke:red;stroke-width:1px;stroke-linecap:butt;stroke-linejoin:miter;stroke-opacity:1" d="M 950.377,24.4717 944.528,24.4717 z" id="boundary" inkscape:connector-curvature="0" />
	<path style="fill:none;stroke:red;stroke-width:1px;stroke-linecap:butt;stroke-linejoin:miter;stroke-opacity:1" d="M 950.377,24.4717 956.226,24.4717 z" id="boundary" inkscape:connector-curvature="0" />
	<path style="fill:none;stroke:red;stroke-width:1px;stroke-linecap:butt;stroke-linejoin:miter;stroke-opacity:1" d="M 962.075,24.4717 967.925,24.4717 z" id="boundary" inkscape:connector-curvature="0" />
	<path style="fill:none;stroke:red;stroke-width:1px;stroke-linecap:butt;stroke-linejoin:miter;stroke-opacity:1" d="M 962.075,24.4717 956.226,24.4717 z" id="boundary" inkscape:connector-curvature="0" />
	<path style="fill:none;stroke:red;stroke-width:1px;stroke-linecap:butt;stroke-linejoin:miter;stroke-opacity:1" d="M 967.925,24.4717 973.774,24.4717 z" id="boundary" inkscape:connector-curvature="0" />
	<path style="fill:none;stroke:red;stroke-width:1px;stroke-linecap:butt;stroke-linejoin:miter;stroke-opacity:1" d="M 984.887,27.3962 989.566,31.4906 z" id="boundary" inkscape:connector-curvature="0" />
	<path style="fill:none;stroke:red;stroke-width:1px;stroke-linecap:butt;stroke-linejoin:miter;stroke-opacity:1" d="M 989.566,31.4906 991.906,37.3396 z" id="boundary" inkscape:connector-curvature="0" />
	<path style="fill:none;stroke:red;stroke-width:1px;stroke-linecap:butt;stroke-linejoin:miter;stroke-opacity:1" d="M 993.075,43.1887 993.075,49.0377 z" id="boundary" inkscape:connector-curvature="0" />
	<path style="fill:none;stroke:red;stroke-width:1px;stroke-linecap:butt;stroke-linejoin:miter;stroke-opacity:1" d="M 993.075,43.1887 991.906,37.3396 z" id="boundary" inkscape:connector-curvature="0" />
	<path style="fill:none;stroke:red;stroke-width:1px;stroke-linecap:butt;stroke-linejoin:miter;stroke-opacity:1" d="M 996,54.3019 993.075,49.0377 z" id="boundary" inkscape:connector-curvature="0" />
	<path style="fill:none;stroke:red;stroke-width:1px;stroke-linecap:butt;stroke-linejoin:miter;stroke-opacity:1" d="M 979.623,24.4717 984.887,27.3962 z" id="boundary" inkscape:connector-curvature="0" />
	<path style="fill:none;stroke:red;stroke-width:1px;stroke-linecap:butt;stroke-linejoin:miter;stroke-opacity:1" d="M 973.774,24.4717 979.623,24.4717 z" id="boundary" inkscape:connector-curvature="0" />
	<path style="fill:none;stroke:red;stroke-width:1px;stroke-linecap:butt;stroke-linejoin:miter;stroke-opacity:1" d="M 678.396,144.962 684.245,144.962 z" id="boundary" inkscape:connector-curvature="0" />
	<path style="fill:none;stroke:red;stroke-width:1px;stroke-linecap:butt;stroke-linejoin:miter;stroke-opacity:1" d="M 672.547,147.302 678.396,144.962 z" id="boundary" inkscape:connector-curvature="0" />
	<path style="fill:none;stroke:red;stroke-width:1px;stroke-linecap:butt;stroke-linejoin:miter;stroke-opacity:1" d="M 695.943,144.962 690.094,144.962 z" id="boundary" inkscape:connector-curvature="0" />
	<path style="fill:none;stroke:red;stroke-width:1px;stroke-linecap:butt;stroke-linejoin:miter;stroke-opacity:1" d="M 701.208,142.038 695.943,144.962 z" id="boundary" inkscape:connector-curvature="0" />
	<path style="fill:none;stroke:red;stroke-width:1px;stroke-linecap:butt;stroke-linejoin:miter;stroke-opacity:1" d="M 690.094,144.962 684.245,144.962 z" id="boundary" inkscape:connector-curvature="0" />
	<path style="fill:none;stroke:red;stroke-width:1px;stroke-linecap:butt;stroke-linejoin:miter;stroke-opacity:1" d="M 707.057,142.038 701.208,142.038 z" id="boundary" inkscape:connector-curvature="0" />
	<path style="fill:none;stroke:red;stroke-width:1px;stroke-linecap:butt;stroke-linejoin:miter;stroke-opacity:1" d="M 649.151,147.887 655,147.887 z" id="boundary" inkscape:connector-curvature="0" />
	<path style="fill:none;stroke:red;stroke-width:1px;stroke-linecap:butt;stroke-linejoin:miter;stroke-opacity:1" d="M 643.302,150.226 649.151,147.887 z" id="boundary" inkscape:connector-curvature="0" />
	<path style="fill:none;stroke:red;stroke-width:1px;stroke-linecap:butt;stroke-linejoin:miter;stroke-opacity:1" d="M 660.849,147.887 655,147.887 z" id="boundary" inkscape:connector-curvature="0" />
	<path style="fill:none;stroke:red;stroke-width:1px;stroke-linecap:butt;stroke-linejoin:miter;stroke-opacity:1" d="M 666.698,147.887 672.547,147.302 z" id="boundary" inkscape:connector-curvature="0" />
	<path style="fill:none;stroke:red;stroke-width:1px;stroke-linecap:butt;stroke-linejoin:miter;stroke-opacity:1" d="M 666.698,147.887 660.849,147.887 z" id="boundary" inkscape:connector-curvature="0" />
	<path style="fill:none;stroke:red;stroke-width:1px;stroke-linecap:butt;stroke-linejoin:miter;stroke-opacity:1" d="M 707.057,142.038 712.906,142.038 z" id="boundary" inkscape:connector-curvature="0" />
	<path style="fill:none;stroke:red;stroke-width:1px;stroke-linecap:butt;stroke-linejoin:miter;stroke-opacity:1" d="M 729.868,139.113 735.717,139.113 z" id="boundary" inkscape:connector-curvature="0" />
	<path style="fill:none;stroke:red;stroke-width:1px;stroke-linecap:butt;stroke-linejoin:miter;stroke-opacity:1" d="M 724.604,142.038 729.868,139.113 z" id="boundary" inkscape:connector-curvature="0" />
	<path style="fill:none;stroke:red;stroke-width:1px;stroke-linecap:butt;stroke-linejoin:miter;stroke-opacity:1" d="M 741.566,139.113 735.717,139.113 z" id="boundary" inkscape:connector-curvature="0" />
	<path style="fill:none;stroke:red;stroke-width:1px;stroke-linecap:butt;stroke-linejoin:miter;stroke-opacity:1" d="M 764.962,136.189 759.113,136.189 z" id="boundary" inkscape:connector-curvature="0" />
	<path style="fill:none;stroke:red;stroke-width:1px;stroke-linecap:butt;stroke-linejoin:miter;stroke-opacity:1" d="M 770.811,136.189 764.962,136.189 z" id="boundary" inkscape:connector-curvature="0" />
	<path style="fill:none;stroke:red;stroke-width:1px;stroke-linecap:butt;stroke-linejoin:miter;stroke-opacity:1" d="M 753.264,139.113 759.113,136.189 z" id="boundary" inkscape:connector-curvature="0" />
	<path style="fill:none;stroke:red;stroke-width:1px;stroke-linecap:butt;stroke-linejoin:miter;stroke-opacity:1" d="M 712.906,142.038 718.755,142.038 z" id="boundary" inkscape:connector-curvature="0" />
	<path style="fill:none;stroke:red;stroke-width:1px;stroke-linecap:butt;stroke-linejoin:miter;stroke-opacity:1" d="M 724.604,142.038 718.755,142.038 z" id="boundary" inkscape:connector-curvature="0" />
	<path style="fill:none;stroke:red;stroke-width:1px;stroke-linecap:butt;stroke-linejoin:miter;stroke-opacity:1" d="M 741.566,139.113 747.415,139.113 z" id="boundary" inkscape:connector-curvature="0" />
	<path style="fill:none;stroke:red;stroke-width:1px;stroke-linecap:butt;stroke-linejoin:miter;stroke-opacity:1" d="M 753.264,139.113 747.415,139.113 z" id="boundary" inkscape:connector-curvature="0" />
	<path style="fill:none;stroke:red;stroke-width:1px;stroke-linecap:butt;stroke-linejoin:miter;stroke-opacity:1" d="M 770.811,136.189 776.66,136.189 z" id="boundary" inkscape:connector-curvature="0" />
	<path style="fill:none;stroke:red;stroke-width:1px;stroke-linecap:butt;stroke-linejoin:miter;stroke-opacity:1" d="M 544.453,159.585 550.302,159.585 z" id="boundary" inkscape:connector-curvature="0" />
	<path style="fill:none;stroke:red;stroke-width:1px;stroke-linecap:butt;stroke-linejoin:miter;stroke-opacity:1" d="M 538.604,161.34 544.453,159.585 z" id="boundary" inkscape:connector-curvature="0" />
	<path style="fill:none;stroke:red;stroke-width:1px;stroke-linecap:butt;stroke-linejoin:miter;stroke-opacity:1" d="M 562,159.585 556.151,159.585 z" id="boundary" inkscape:connector-curvature="0" />
	<path style="fill:none;stroke:red;stroke-width:1px;stroke-linecap:butt;stroke-linejoin:miter;stroke-opacity:1" d="M 567.264,156.66 562,159.585 z" id="boundary" inkscape:connector-curvature="0" />
	<path style="fill:none;stroke:red;stroke-width:1px;stroke-linecap:butt;stroke-linejoin:miter;stroke-opacity:1" d="M 556.151,159.585 550.302,159.585 z" id="boundary" inkscape:connector-curvature="0" />
	<path style="fill:none;stroke:red;stroke-width:1px;stroke-linecap:butt;stroke-linejoin:miter;stroke-opacity:1" d="M 573.113,156.66 567.264,156.66 z" id="boundary" inkscape:connector-curvature="0" />
	<path style="fill:none;stroke:red;stroke-width:1px;stroke-linecap:butt;stroke-linejoin:miter;stroke-opacity:1" d="M 515.208,162.509 521.057,162.509 z" id="boundary" inkscape:connector-curvature="0" />
	<path style="fill:none;stroke:red;stroke-width:1px;stroke-linecap:butt;stroke-linejoin:miter;stroke-opacity:1" d="M 526.906,162.509 521.057,162.509 z" id="boundary" inkscape:connector-curvature="0" />
	<path style="fill:none;stroke:red;stroke-width:1px;stroke-linecap:butt;stroke-linejoin:miter;stroke-opacity:1" d="M 532.755,162.509 538.604,161.34 z" id="boundary" inkscape:connector-curvature="0" />
	<path style="fill:none;stroke:red;stroke-width:1px;stroke-linecap:butt;stroke-linejoin:miter;stroke-opacity:1" d="M 532.755,162.509 526.906,162.509 z" id="boundary" inkscape:connector-curvature="0" />
	<path style="fill:none;stroke:red;stroke-width:1px;stroke-linecap:butt;stroke-linejoin:miter;stroke-opacity:1" d="M 573.113,156.66 578.962,156.66 z" id="boundary" inkscape:connector-curvature="0" />
	<path style="fill:none;stroke:red;stroke-width:1px;stroke-linecap:butt;stroke-linejoin:miter;stroke-opacity:1" d="M 614.057,153.151 619.906,150.811 z" id="boundary" inkscape:connector-curvature="0" />
	<path style="fill:none;stroke:red;stroke-width:1px;stroke-linecap:butt;stroke-linejoin:miter;stroke-opacity:1" d="M 619.906,150.811 625.755,150.811 z" id="boundary" inkscape:connector-curvature="0" />
	<path style="fill:none;stroke:red;stroke-width:1px;stroke-linecap:butt;stroke-linejoin:miter;stroke-opacity:1" d="M 614.057,153.151 608.208,153.736 z" id="boundary" inkscape:connector-curvature="0" />
	<path style="fill:none;stroke:red;stroke-width:1px;stroke-linecap:butt;stroke-linejoin:miter;stroke-opacity:1" d="M 625.755,150.811 631.604,150.811 z" id="boundary" inkscape:connector-curvature="0" />
	<path style="fill:none;stroke:red;stroke-width:1px;stroke-linecap:butt;stroke-linejoin:miter;stroke-opacity:1" d="M 637.453,150.811 631.604,150.811 z" id="boundary" inkscape:connector-curvature="0" />
	<path style="fill:none;stroke:red;stroke-width:1px;stroke-linecap:butt;stroke-linejoin:miter;stroke-opacity:1" d="M 637.453,150.811 643.302,150.226 z" id="boundary" inkscape:connector-curvature="0" />
	<path style="fill:none;stroke:red;stroke-width:1px;stroke-linecap:butt;stroke-linejoin:miter;stroke-opacity:1" d="M 578.962,156.66 584.811,156.66 z" id="boundary" inkscape:connector-curvature="0" />
	<path style="fill:none;stroke:red;stroke-width:1px;stroke-linecap:butt;stroke-linejoin:miter;stroke-opacity:1" d="M 590.66,156.66 584.811,156.66 z" id="boundary" inkscape:connector-curvature="0" />
	<path style="fill:none;stroke:red;stroke-width:1px;stroke-linecap:butt;stroke-linejoin:miter;stroke-opacity:1" d="M 596.509,156.075 602.358,153.736 z" id="boundary" inkscape:connector-curvature="0" />
	<path style="fill:none;stroke:red;stroke-width:1px;stroke-linecap:butt;stroke-linejoin:miter;stroke-opacity:1" d="M 602.358,153.736 608.208,153.736 z" id="boundary" inkscape:connector-curvature="0" />
	<path style="fill:none;stroke:red;stroke-width:1px;stroke-linecap:butt;stroke-linejoin:miter;stroke-opacity:1" d="M 596.509,156.075 590.66,156.66 z" id="boundary" inkscape:connector-curvature="0" />
	<path style="fill:none;stroke:red;stroke-width:1px;stroke-linecap:butt;stroke-linejoin:miter;stroke-opacity:1" d="M 927.566,98.1698 921.717,98.1698 z" id="boundary" inkscape:connector-curvature="0" />
	<path style="fill:none;stroke:red;stroke-width:1px;stroke-linecap:butt;stroke-linejoin:miter;stroke-opacity:1" d="M 933.415,98.1698 938.679,95.2453 z" id="boundary" inkscape:connector-curvature="0" />
	<path style="fill:none;stroke:red;stroke-width:1px;stroke-linecap:butt;stroke-linejoin:miter;stroke-opacity:1" d="M 938.679,95.2453 944.528,95.2453 z" id="boundary" inkscape:connector-curvature="0" />
	<path style="fill:none;stroke:red;stroke-width:1px;stroke-linecap:butt;stroke-linejoin:miter;stroke-opacity:1" d="M 950.377,95.2453 944.528,95.2453 z" id="boundary" inkscape:connector-curvature="0" />
	<path style="fill:none;stroke:red;stroke-width:1px;stroke-linecap:butt;stroke-linejoin:miter;stroke-opacity:1" d="M 956.226,95.2453 950.377,95.2453 z" id="boundary" inkscape:connector-curvature="0" />
	<path style="fill:none;stroke:red;stroke-width:1px;stroke-linecap:butt;stroke-linejoin:miter;stroke-opacity:1" d="M 911.189,104.019 911.189,109.868 z" id="boundary" inkscape:connector-curvature="0" />
	<path style="fill:none;stroke:red;stroke-width:1px;stroke-linecap:butt;stroke-linejoin:miter;stroke-opacity:1" d="M 911.189,109.868 908.264,115.717 z" id="boundary" inkscape:connector-curvature="0" />
	<path style="fill:none;stroke:red;stroke-width:1px;stroke-linecap:butt;stroke-linejoin:miter;stroke-opacity:1" d="M 911.189,104.019 915.868,99.9245 z" id="boundary" inkscape:connector-curvature="0" />
	<path style="fill:none;stroke:red;stroke-width:1px;stroke-linecap:butt;stroke-linejoin:miter;stroke-opacity:1" d="M 927.566,98.1698 933.415,98.1698 z" id="boundary" inkscape:connector-curvature="0" />
	<path style="fill:none;stroke:red;stroke-width:1px;stroke-linecap:butt;stroke-linejoin:miter;stroke-opacity:1" d="M 915.868,99.9245 921.717,98.1698 z" id="boundary" inkscape:connector-curvature="0" />
	<path style="fill:none;stroke:red;stroke-width:1px;stroke-linecap:butt;stroke-linejoin:miter;stroke-opacity:1" d="M 903.585,121.566 908.264,115.717 z" id="boundary" inkscape:connector-curvature="0" />
	<path style="fill:none;stroke:red;stroke-width:1px;stroke-linecap:butt;stroke-linejoin:miter;stroke-opacity:1" d="M 962.075,95.2453 956.226,95.2453 z" id="boundary" inkscape:connector-curvature="0" />
	<path style="fill:none;stroke:red;stroke-width:1px;stroke-linecap:butt;stroke-linejoin:miter;stroke-opacity:1" d="M 996,71.8491 994.245,82.9623 z" id="boundary" inkscape:connector-curvature="0" />
	<path style="fill:none;stroke:red;stroke-width:1px;stroke-linecap:butt;stroke-linejoin:miter;stroke-opacity:1" d="M 996,60.1509 996,66 z" id="boundary" inkscape:connector-curvature="0" />
	<path style="fill:none;stroke:red;stroke-width:1px;stroke-linecap:butt;stroke-linejoin:miter;stroke-opacity:1" d="M 996,66 996,71.8491 z" id="boundary" inkscape:connector-curvature="0" />
	<path style="fill:none;stroke:red;stroke-width:1px;stroke-linecap:butt;stroke-linejoin:miter;stroke-opacity:1" d="M 979.623,92.3208 973.774,94.6604 z" id="boundary" inkscape:connector-curvature="0" />
	<path style="fill:none;stroke:red;stroke-width:1px;stroke-linecap:butt;stroke-linejoin:miter;stroke-opacity:1" d="M 973.774,94.6604 967.925,95.2453 z" id="boundary" inkscape:connector-curvature="0" />
	<path style="fill:none;stroke:red;stroke-width:1px;stroke-linecap:butt;stroke-linejoin:miter;stroke-opacity:1" d="M 967.925,95.2453 962.075,95.2453 z" id="boundary" inkscape:connector-curvature="0" />
	<path style="fill:none;stroke:red;stroke-width:1px;stroke-linecap:butt;stroke-linejoin:miter;stroke-opacity:1" d="M 985.472,91.7358 979.623,92.3208 z" id="boundary" inkscape:connector-curvature="0" />
	<path style="fill:none;stroke:red;stroke-width:1px;stroke-linecap:butt;stroke-linejoin:miter;stroke-opacity:1" d="M 991.321,88.8113 985.472,91.7358 z" id="boundary" inkscape:connector-curvature="0" />
	<path style="fill:none;stroke:red;stroke-width:1px;stroke-linecap:butt;stroke-linejoin:miter;stroke-opacity:1" d="M 994.245,82.9623 991.321,88.8113 z" id="boundary" inkscape:connector-curvature="0" />
	<path style="fill:none;stroke:red;stroke-width:1px;stroke-linecap:butt;stroke-linejoin:miter;stroke-opacity:1" d="M 787.774,133.264 793.623,133.264 z" id="boundary" inkscape:connector-curvature="0" />
	<path style="fill:none;stroke:red;stroke-width:1px;stroke-linecap:butt;stroke-linejoin:miter;stroke-opacity:1" d="M 782.509,136.189 787.774,133.264 z" id="boundary" inkscape:connector-curvature="0" />
	<path style="fill:none;stroke:red;stroke-width:1px;stroke-linecap:butt;stroke-linejoin:miter;stroke-opacity:1" d="M 799.472,133.264 793.623,133.264 z" id="boundary" inkscape:connector-curvature="0" />
	<path style="fill:none;stroke:red;stroke-width:1px;stroke-linecap:butt;stroke-linejoin:miter;stroke-opacity:1" d="M 828.132,130.34 822.283,130.34 z" id="boundary" inkscape:connector-curvature="0" />
	<path style="fill:none;stroke:red;stroke-width:1px;stroke-linecap:butt;stroke-linejoin:miter;stroke-opacity:1" d="M 833.981,130.34 828.132,130.34 z" id="boundary" inkscape:connector-curvature="0" />
	<path style="fill:none;stroke:red;stroke-width:1px;stroke-linecap:butt;stroke-linejoin:miter;stroke-opacity:1" d="M 817.019,133.264 822.283,130.34 z" id="boundary" inkscape:connector-curvature="0" />
	<path style="fill:none;stroke:red;stroke-width:1px;stroke-linecap:butt;stroke-linejoin:miter;stroke-opacity:1" d="M 782.509,136.189 776.66,136.189 z" id="boundary" inkscape:connector-curvature="0" />
	<path style="fill:none;stroke:red;stroke-width:1px;stroke-linecap:butt;stroke-linejoin:miter;stroke-opacity:1" d="M 799.472,133.264 805.321,133.264 z" id="boundary" inkscape:connector-curvature="0" />
	<path style="fill:none;stroke:red;stroke-width:1px;stroke-linecap:butt;stroke-linejoin:miter;stroke-opacity:1" d="M 805.321,133.264 811.17,133.264 z" id="boundary" inkscape:connector-curvature="0" />
	<path style="fill:none;stroke:red;stroke-width:1px;stroke-linecap:butt;stroke-linejoin:miter;stroke-opacity:1" d="M 817.019,133.264 811.17,133.264 z" id="boundary" inkscape:connector-curvature="0" />
	<path style="fill:none;stroke:red;stroke-width:1px;stroke-linecap:butt;stroke-linejoin:miter;stroke-opacity:1" d="M 833.981,130.34 839.83,130.34 z" id="boundary" inkscape:connector-curvature="0" />
	<path style="fill:none;stroke:red;stroke-width:1px;stroke-linecap:butt;stroke-linejoin:miter;stroke-opacity:1" d="M 874.925,126.245 880.774,124.491 z" id="boundary" inkscape:connector-curvature="0" />
	<path style="fill:none;stroke:red;stroke-width:1px;stroke-linecap:butt;stroke-linejoin:miter;stroke-opacity:1" d="M 880.774,124.491 886.623,124.491 z" id="boundary" inkscape:connector-curvature="0" />
	<path style="fill:none;stroke:red;stroke-width:1px;stroke-linecap:butt;stroke-linejoin:miter;stroke-opacity:1" d="M 886.623,124.491 892.472,124.491 z" id="boundary" inkscape:connector-curvature="0" />
	<path style="fill:none;stroke:red;stroke-width:1px;stroke-linecap:butt;stroke-linejoin:miter;stroke-opacity:1" d="M 903.585,121.566 898.321,124.491 z" id="boundary" inkscape:connector-curvature="0" />
	<path style="fill:none;stroke:red;stroke-width:1px;stroke-linecap:butt;stroke-linejoin:miter;stroke-opacity:1" d="M 898.321,124.491 892.472,124.491 z" id="boundary" inkscape:connector-curvature="0" />
	<path style="fill:none;stroke:red;stroke-width:1px;stroke-linecap:butt;stroke-linejoin:miter;stroke-opacity:1" d="M 869.075,127.415 874.925,126.245 z" id="boundary" inkscape:connector-curvature="0" />
	<path style="fill:none;stroke:red;stroke-width:1px;stroke-linecap:butt;stroke-linejoin:miter;stroke-opacity:1" d="M 845.679,129.17 839.83,130.34 z" id="boundary" inkscape:connector-curvature="0" />
	<path style="fill:none;stroke:red;stroke-width:1px;stroke-linecap:butt;stroke-linejoin:miter;stroke-opacity:1" d="M 851.528,127.415 845.679,129.17 z" id="boundary" inkscape:connector-curvature="0" />
	<path style="fill:none;stroke:red;stroke-width:1px;stroke-linecap:butt;stroke-linejoin:miter;stroke-opacity:1" d="M 851.528,127.415 857.377,127.415 z" id="boundary" inkscape:connector-curvature="0" />
	<path style="fill:none;stroke:red;stroke-width:1px;stroke-linecap:butt;stroke-linejoin:miter;stroke-opacity:1" d="M 857.377,127.415 863.226,127.415 z" id="boundary" inkscape:connector-curvature="0" />
	<path style="fill:none;stroke:red;stroke-width:1px;stroke-linecap:butt;stroke-linejoin:miter;stroke-opacity:1" d="M 869.075,127.415 863.226,127.415 z" id="boundary" inkscape:connector-curvature="0" />
	<path style="fill:none;stroke:red;stroke-width:1px;stroke-linecap:butt;stroke-linejoin:miter;stroke-opacity:1" d="M 996,54.3019 996,60.1509 z" id="boundary" inkscape:connector-curvature="0" />
	<circle cx="4" cy="157.83" r="4" fill="#0" id="circle0"/>
	<circle cx="6.92453" cy="163.094" r="4" fill="#0" id="circle1"/>
	<circle cx="8.67925" cy="153.151" r="4" fill="#0" id="circle2"/>
	<circle cx="12.7736" cy="165.434" r="4" fill="#0" id="circle3"/>
	<circle cx="14.5283" cy="153.151" r="4" fill="#0" id="circle4"/>
	<circle cx="18.6226" cy="165.434" r="4" fill="#0" id="circle5"/>
	<circle cx="19.7925" cy="150.226" r="4" fill="#0" id="circle6"/>
	<circle cx="24.4717" cy="165.434" r="4" fill="#0" id="circle7"/>
	<circle cx="25.6415" cy="150.226" r="4" fill="#0" id="circle8"/>
	<circle cx="30.3208" cy="165.434" r="4" fill="#0" id="circle9"/>
	<circle cx="31.4906" cy="150.226" r="4" fill="#0" id="circle10"/>
	<circle cx="36.1698" cy="165.434" r="4" fill="#0" id="circle11"/>
	<circle cx="37.3396" cy="147.887" r="4" fill="#0" id="circle12"/>
	<circle cx="42.0189" cy="165.434" r="4" fill="#0" id="circle13"/>
	<circle cx="43.1887" cy="144.962" r="4" fill="#0" id="circle14"/>
	<circle cx="47.8679" cy="165.434" r="4" fill="#0" id="circle15"/>
	<circle cx="49.0377" cy="142.038" r="4" fill="#0" id="circle16"/>
	<circle cx="53.1321" cy="168.358" r="4" fill="#0" id="circle17"/>
	<circle cx="54.8868" cy="139.113" r="4" fill="#0" id="circle18"/>
	<circle cx="58.9811" cy="168.358" r="4" fill="#0" id="circle19"/>
	<circle cx="59.566" cy="135.604" r="4" fill="#0" id="circle20"/>
	<circle cx="64.8302" cy="168.358" r="4" fill="#0" id="circle21"/>
	<circle cx="65.4151" cy="134.434" r="4" fill="#0" id="circle22"/>
	<circle cx="70.0943" cy="129.755" r="4" fill="#0" id="circle23"/>
	<circle cx="70.0943" cy="171.283" r="4" fill="#0" id="circle24"/>
	<circle cx="75.9434" cy="126.83" r="4" fill="#0" id="circle25"/>
	<circle cx="75.9434" cy="171.283" r="4" fill="#0" id="circle26"/>
	<circle cx="81.7925" cy="123.906" r="4" fill="#0" id="circle27"/>
	<circle cx="81.7925" cy="173.623" r="4" fill="#0" id="circle28"/>
	<circle cx="87.0566" cy="120.981" r="4" fill="#0" id="circle29"/>
	<circle cx="87.6415" cy="174.208" r="4" fill="#0" id="circle30"/>
	<circle cx="92.9057" cy="118.642" r="4" fill="#0" id="circle31"/>
	<circle cx="92.9057" cy="177.132" r="4" fill="#0" id="circle32"/>
	<circle cx="97.5849" cy="115.132" r="4" fill="#0" id="circle33"/>
	<circle cx="98.7547" cy="177.132" r="4" fill="#0" id="circle34"/>
	<circle cx="103.434" cy="113.962" r="4" fill="#0" id="circle35"/>
	<circle cx="104.019" cy="180.057" r="4" fill="#0" id="circle36"/>
	<circle cx="109.283" cy="112.208" r="4" fill="#0" id="circle37"/>
	<circle cx="109.868" cy="180.057" r="4" fill="#0" id="circle38"/>
	<circle cx="114.547" cy="109.283" r="4" fill="#0" id="circle39"/>
	<circle cx="115.132" cy="182.981" r="4" fill="#0" id="circle40"/>
	<circle cx="119.811" cy="106.358" r="4" fill="#0" id="circle41"/>
	<circle cx="120.981" cy="182.981" r="4" fill="#0" id="circle42"/>
	<circle cx="125.66" cy="103.434" r="4" fill="#0" id="circle43"/>
	<circle cx="126.245" cy="185.906" r="4" fill="#0" id="circle44"/>
	<circle cx="131.509" cy="103.434" r="4" fill="#0" id="circle45"/>
	<circle cx="132.094" cy="185.906" r="4" fill="#0" id="circle46"/>
	<circle cx="136.189" cy="98.7547" r="4" fill="#0" id="circle47"/>
	<circle cx="137.358" cy="188.83" r="4" fill="#0" id="circle48"/>
	<circle cx="142.038" cy="95.8302" r="4" fill="#0" id="circle49"/>
	<circle cx="143.208" cy="188.83" r="4" fill="#0" id="circle50"/>
	<circle cx="146.717" cy="91.7358" r="4" fill="#0" id="circle51"/>
	<circle cx="149.057" cy="191.17" r="4" fill="#0" id="circle52"/>
	<circle cx="152.566" cy="91.7358" r="4" fill="#0" id="circle53"/>
	<circle cx="154.906" cy="191.755" r="4" fill="#0" id="circle54"/>
	<circle cx="157.83" cy="88.8113" r="4" fill="#0" id="circle55"/>
	<circle cx="160.755" cy="191.755" r="4" fill="#0" id="circle56"/>
	<circle cx="162.509" cy="84.1321" r="4" fill="#0" id="circle57"/>
	<circle cx="166.019" cy="194.679" r="4" fill="#0" id="circle58"/>
	<circle cx="168.358" cy="82.9623" r="4" fill="#0" id="circle59"/>
	<circle cx="171.868" cy="196.434" r="4" fill="#0" id="circle60"/>
	<circle cx="173.623" cy="80.0377" r="4" fill="#0" id="circle61"/>
	<circle cx="177.717" cy="197.604" r="4" fill="#0" id="circle62"/>
	<circle cx="179.472" cy="80.0377" r="4" fill="#0" id="circle63"/>
	<circle cx="183.566" cy="197.604" r="4" fill="#0" id="circle64"/>
	<circle cx="185.321" cy="80.0377" r="4" fill="#0" id="circle65"/>
	<circle cx="189.415" cy="197.604" r="4" fill="#0" id="circle66"/>
	<circle cx="191.17" cy="78.8679" r="4" fill="#0" id="circle67"/>
	<circle cx="195.264" cy="197.604" r="4" fill="#0" id="circle68"/>
	<circle cx="197.019" cy="75.9434" r="4" fill="#0" id="circle69"/>
	<circle cx="201.113" cy="197.604" r="4" fill="#0" id="circle70"/>
	<circle cx="202.868" cy="73.0189" r="4" fill="#0" id="circle71"/>
	<circle cx="206.377" cy="194.679" r="4" fill="#0" id="circle72"/>
	<circle cx="207.547" cy="68.3396" r="4" fill="#0" id="circle73"/>
	<circle cx="212.226" cy="194.679" r="4" fill="#0" id="circle74"/>
	<circle cx="213.396" cy="65.4151" r="4" fill="#0" id="circle75"/>
	<circle cx="218.075" cy="194.679" r="4" fill="#0" id="circle76"/>
	<circle cx="219.245" cy="65.4151" r="4" fill="#0" id="circle77"/>
	<circle cx="223.34" cy="197.604" r="4" fill="#0" id="circle78"/>
	<circle cx="224.509" cy="62.4906" r="4" fill="#0" id="circle79"/>
	<circle cx="229.189" cy="197.604" r="4" fill="#0" id="circle80"/>
	<circle cx="229.774" cy="59.566" r="4" fill="#0" id="circle81"/>
	<circle cx="235.038" cy="197.604" r="4" fill="#0" id="circle82"/>
	<circle cx="235.623" cy="59.566" r="4" fill="#0" id="circle83"/>
	<circle cx="240.887" cy="197.604" r="4" fill="#0" id="circle84"/>
	<circle cx="241.472" cy="59.566" r="4" fill="#0" id="circle85"/>
	<circle cx="246.151" cy="200.528" r="4" fill="#0" id="circle86"/>
	<circle cx="247.321" cy="59.566" r="4" fill="#0" id="circle87"/>
	<circle cx="252" cy="200.528" r="4" fill="#0" id="circle88"/>
	<circle cx="253.17" cy="57.8113" r="4" fill="#0" id="circle89"/>
	<circle cx="257.849" cy="200.528" r="4" fill="#0" id="circle90"/>
	<circle cx="259.019" cy="56.6415" r="4" fill="#0" id="circle91"/>
	<circle cx="263.698" cy="200.528" r="4" fill="#0" id="circle92"/>
	<circle cx="264.868" cy="56.6415" r="4" fill="#0" id="circle93"/>
	<circle cx="269.547" cy="200.528" r="4" fill="#0" id="circle94"/>
	<circle cx="270.717" cy="56.6415" r="4" fill="#0" id="circle95"/>
	<circle cx="275.396" cy="200.528" r="4" fill="#0" id="circle96"/>
	<circle cx="276.566" cy="56.6415" r="4" fill="#0" id="circle97"/>
	<circle cx="281.245" cy="200.528" r="4" fill="#0" id="circle98"/>
	<circle cx="281.83" cy="53.717" r="4" fill="#0" id="circle99"/>
	<circle cx="286.509" cy="197.604" r="4" fill="#0" id="circle100"/>
	<circle cx="287.679" cy="53.717" r="4" fill="#0" id="circle101"/>
	<circle cx="292.358" cy="197.604" r="4" fill="#0" id="circle102"/>
	<circle cx="293.528" cy="53.717" r="4" fill="#0" id="circle103"/>
	<circle cx="298.208" cy="197.604" r="4" fill="#0" id="circle104"/>
	<circle cx="299.377" cy="53.717" r="4" fill="#0" id="circle105"/>
	<circle cx="304.057" cy="197.604" r="4" fill="#0" id="circle106"/>
	<circle cx="304.642" cy="50.7925" r="4" fill="#0" id="circle107"/>
	<circle cx="309.906" cy="197.604" r="4" fill="#0" id="circle108"/>
	<circle cx="310.491" cy="50.7925" r="4" fill="#0" id="circle109"/>
	<circle cx="315.755" cy="47.8679" r="4" fill="#0" id="circle110"/>
	<circle cx="315.755" cy="197.604" r="4" fill="#0" id="circle111"/>
	<circle cx="321.019" cy="194.679" r="4" fill="#0" id="circle112"/>
	<circle cx="321.604" cy="47.8679" r="4" fill="#0" id="circle113"/>
	<circle cx="326.868" cy="50.7925" r="4" fill="#0" id="circle114"/>
	<circle cx="326.868" cy="194.679" r="4" fill="#0" id="circle115"/>
	<circle cx="332.717" cy="50.7925" r="4" fill="#0" id="circle116"/>
	<circle cx="332.717" cy="194.679" r="4" fill="#0" id="circle117"/>
	<circle cx="338.566" cy="48.4528" r="4" fill="#0" id="circle118"/>
	<circle cx="338.566" cy="194.679" r="4" fill="#0" id="circle119"/>
	<circle cx="343.83" cy="191.755" r="4" fill="#0" id="circle120"/>
	<circle cx="344.415" cy="47.8679" r="4" fill="#0" id="circle121"/>
	<circle cx="349.679" cy="191.755" r="4" fill="#0" id="circle122"/>
	<circle cx="350.264" cy="47.8679" r="4" fill="#0" id="circle123"/>
	<circle cx="355.528" cy="50.7925" r="4" fill="#0" id="circle124"/>
	<circle cx="355.528" cy="191.755" r="4" fill="#0" id="circle125"/>
	<circle cx="360.792" cy="53.717" r="4" fill="#0" id="circle126"/>
	<circle cx="361.377" cy="191.755" r="4" fill="#0" id="circle127"/>
	<circle cx="366.642" cy="53.717" r="4" fill="#0" id="circle128"/>
	<circle cx="367.226" cy="188.83" r="4" fill="#0" id="circle129"/>
	<circle cx="372.491" cy="53.717" r="4" fill="#0" id="circle130"/>
	<circle cx="372.491" cy="185.906" r="4" fill="#0" id="circle131"/>
	<circle cx="377.17" cy="182.396" r="4" fill="#0" id="circle132"/>
	<circle cx="378.34" cy="53.717" r="4" fill="#0" id="circle133"/>
	<circle cx="381.849" cy="177.132" r="4" fill="#0" id="circle134"/>
	<circle cx="384.189" cy="53.717" r="4" fill="#0" id="circle135"/>
	<circle cx="387.698" cy="177.132" r="4" fill="#0" id="circle136"/>
	<circle cx="390.038" cy="53.717" r="4" fill="#0" id="circle137"/>
	<circle cx="392.962" cy="174.208" r="4" fill="#0" id="circle138"/>
	<circle cx="395.887" cy="53.717" r="4" fill="#0" id="circle139"/>
	<circle cx="398.811" cy="174.208" r="4" fill="#0" id="circle140"/>
	<circle cx="401.736" cy="52.5472" r="4" fill="#0" id="circle141"/>
	<circle cx="404.66" cy="174.208" r="4" fill="#0" id="circle142"/>
	<circle cx="407.585" cy="50.7925" r="4" fill="#0" id="circle143"/>
	<circle cx="410.509" cy="174.208" r="4" fill="#0" id="circle144"/>
	<circle cx="413.434" cy="50.7925" r="4" fill="#0" id="circle145"/>
	<circle cx="416.358" cy="174.208" r="4" fill="#0" id="circle146"/>
	<circle cx="419.283" cy="50.7925" r="4" fill="#0" id="circle147"/>
	<circle cx="422.208" cy="172.453" r="4" fill="#0" id="circle148"/>
	<circle cx="425.132" cy="50.7925" r="4" fill="#0" id="circle149"/>
	<circle cx="428.057" cy="171.283" r="4" fill="#0" id="circle150"/>
	<circle cx="430.981" cy="49.6226" r="4" fill="#0" id="circle151"/>
	<circle cx="433.906" cy="171.283" r="4" fill="#0" id="circle152"/>
	<circle cx="436.83" cy="47.8679" r="4" fill="#0" id="circle153"/>
	<circle cx="439.755" cy="171.283" r="4" fill="#0" id="circle154"/>
	<circle cx="442.679" cy="47.8679" r="4" fill="#0" id="circle155"/>
	<circle cx="445.604" cy="169.528" r="4" fill="#0" id="circle156"/>
	<circle cx="448.528" cy="47.8679" r="4" fill="#0" id="circle157"/>
	<circle cx="451.453" cy="168.358" r="4" fill="#0" id="circle158"/>
	<circle cx="454.377" cy="47.8679" r="4" fill="#0" id="circle159"/>
	<circle cx="457.302" cy="168.358" r="4" fill="#0" id="circle160"/>
	<circle cx="460.226" cy="47.8679" r="4" fill="#0" id="circle161"/>
	<circle cx="463.151" cy="168.358" r="4" fill="#0" id="circle162"/>
	<circle cx="465.491" cy="44.9434" r="4" fill="#0" id="circle163"/>
	<circle cx="469" cy="168.358" r="4" fill="#0" id="circle164"/>
	<circle cx="471.34" cy="44.9434" r="4" fill="#0" id="circle165"/>
	<circle cx="474.849" cy="168.358" r="4" fill="#0" id="circle166"/>
	<circle cx="477.189" cy="44.9434" r="4" fill="#0" id="circle167"/>
	<circle cx="480.698" cy="166.604" r="4" fill="#0" id="circle168"/>
	<circle cx="483.038" cy="44.9434" r="4" fill="#0" id="circle169"/>
	<circle cx="486.547" cy="165.434" r="4" fill="#0" id="circle170"/>
	<circle cx="488.887" cy="44.9434" r="4" fill="#0" id="circle171"/>
	<circle cx="492.396" cy="165.434" r="4" fill="#0" id="circle172"/>
	<circle cx="494.151" cy="42.0189" r="4" fill="#0" id="circle173"/>
	<circle cx="498.245" cy="165.434" r="4" fill="#0" id="circle174"/>
	<circle cx="500" cy="42.0189" r="4" fill="#0" id="circle175"/>
	<circle cx="504.094" cy="165.434" r="4" fill="#0" id="circle176"/>
	<circle cx="505.264" cy="44.9434" r="4" fill="#0" id="circle177"/>
	<circle cx="509.943" cy="165.434" r="4" fill="#0" id="circle178"/>
	<circle cx="511.113" cy="44.9434" r="4" fill="#0" id="circle179"/>
	<circle cx="515.208" cy="162.509" r="4" fill="#0" id="circle180"/>
	<circle cx="516.962" cy="44.9434" r="4" fill="#0" id="circle181"/>
	<circle cx="521.057" cy="162.509" r="4" fill="#0" id="circle182"/>
	<circle cx="522.226" cy="42.0189" r="4" fill="#0" id="circle183"/>
	<circle cx="526.906" cy="162.509" r="4" fill="#0" id="circle184"/>
	<circle cx="528.075" cy="42.0189" r="4" fill="#0" id="circle185"/>
	<circle cx="532.755" cy="162.509" r="4" fill="#0" id="circle186"/>
	<circle cx="533.925" cy="42.0189" r="4" fill="#0" id="circle187"/>
	<circle cx="538.604" cy="161.34" r="4" fill="#0" id="circle188"/>
	<circle cx="539.189" cy="39.0943" r="4" fill="#0" id="circle189"/>
	<circle cx="544.453" cy="159.585" r="4" fill="#0" id="circle190"/>
	<circle cx="545.038" cy="39.0943" r="4" fill="#0" id="circle191"/>
	<circle cx="550.302" cy="159.585" r="4" fill="#0" id="circle192"/>
	<circle cx="550.887" cy="39.0943" r="4" fill="#0" id="circle193"/>
	<circle cx="556.151" cy="159.585" r="4" fill="#0" id="circle194"/>
	<circle cx="556.736" cy="39.0943" r="4" fill="#0" id="circle195"/>
	<circle cx="562" cy="36.1698" r="4" fill="#0" id="circle196"/>
	<circle cx="562" cy="159.585" r="4" fill="#0" id="circle197"/>
	<circle cx="567.264" cy="156.66" r="4" fill="#0" id="circle198"/>
	<circle cx="567.849" cy="36.1698" r="4" fill="#0" id="circle199"/>
	<circle cx="573.113" cy="156.66" r="4" fill="#0" id="circle200"/>
	<circle cx="573.698" cy="36.1698" r="4" fill="#0" id="circle201"/>
	<circle cx="578.962" cy="156.66" r="4" fill="#0" id="circle202"/>
	<circle cx="579.547" cy="36.1698" r="4" fill="#0" id="circle203"/>
	<circle cx="584.811" cy="156.66" r="4" fill="#0" id="circle204"/>
	<circle cx="585.396" cy="36.1698" r="4" fill="#0" id="circle205"/>
	<circle cx="590.66" cy="33.2453" r="4" fill="#0" id="circle206"/>
	<circle cx="590.66" cy="156.66" r="4" fill="#0" id="circle207"/>
	<circle cx="596.509" cy="33.2453" r="4" fill="#0" id="circle208"/>
	<circle cx="596.509" cy="156.075" r="4" fill="#0" id="circle209"/>
	<circle cx="602.358" cy="33.2453" r="4" fill="#0" id="circle210"/>
	<circle cx="602.358" cy="153.736" r="4" fill="#0" id="circle211"/>
	<circle cx="608.208" cy="33.2453" r="4" fill="#0" id="circle212"/>
	<circle cx="608.208" cy="153.736" r="4" fill="#0" id="circle213"/>
	<circle cx="614.057" cy="33.2453" r="4" fill="#0" id="circle214"/>
	<circle cx="614.057" cy="153.151" r="4" fill="#0" id="circle215"/>
	<circle cx="619.906" cy="33.2453" r="4" fill="#0" id="circle216"/>
	<circle cx="619.906" cy="150.811" r="4" fill="#0" id="circle217"/>
	<circle cx="625.17" cy="30.3208" r="4" fill="#0" id="circle218"/>
	<circle cx="625.755" cy="150.811" r="4" fill="#0" id="circle219"/>
	<circle cx="631.019" cy="30.3208" r="4" fill="#0" id="circle220"/>
	<circle cx="631.604" cy="150.811" r="4" fill="#0" id="circle221"/>
	<circle cx="636.868" cy="30.3208" r="4" fill="#0" id="circle222"/>
	<circle cx="637.453" cy="150.811" r="4" fill="#0" id="circle223"/>
	<circle cx="642.717" cy="30.3208" r="4" fill="#0" id="circle224"/>
	<circle cx="643.302" cy="150.226" r="4" fill="#0" id="circle225"/>
	<circle cx="647.981" cy="27.3962" r="4" fill="#0" id="circle226"/>
	<circle cx="649.151" cy="147.887" r="4" fill="#0" id="circle227"/>
	<circle cx="653.83" cy="27.3962" r="4" fill="#0" id="circle228"/>
	<circle cx="655" cy="147.887" r="4" fill="#0" id="circle229"/>
	<circle cx="659.679" cy="27.3962" r="4" fill="#0" id="circle230"/>
	<circle cx="660.849" cy="147.887" r="4" fill="#0" id="circle231"/>
	<circle cx="665.528" cy="27.3962" r="4" fill="#0" id="circle232"/>
	<circle cx="666.698" cy="147.887" r="4" fill="#0" id="circle233"/>
	<circle cx="671.377" cy="27.3962" r="4" fill="#0" id="circle234"/>
	<circle cx="672.547" cy="147.302" r="4" fill="#0" id="circle235"/>
	<circle cx="677.226" cy="25.6415" r="4" fill="#0" id="circle236"/>
	<circle cx="678.396" cy="144.962" r="4" fill="#0" id="circle237"/>
	<circle cx="683.075" cy="24.4717" r="4" fill="#0" id="circle238"/>
	<circle cx="684.245" cy="144.962" r="4" fill="#0" id="circle239"/>
	<circle cx="688.925" cy="24.4717" r="4" fill="#0" id="circle240"/>
	<circle cx="690.094" cy="144.962" r="4" fill="#0" id="circle241"/>
	<circle cx="694.774" cy="24.4717" r="4" fill="#0" id="circle242"/>
	<circle cx="695.943" cy="144.962" r="4" fill="#0" id="circle243"/>
	<circle cx="700.623" cy="24.4717" r="4" fill="#0" id="circle244"/>
	<circle cx="701.208" cy="142.038" r="4" fill="#0" id="circle245"/>
	<circle cx="706.472" cy="24.4717" r="4" fill="#0" id="circle246"/>
	<circle cx="707.057" cy="142.038" r="4" fill="#0" id="circle247"/>
	<circle cx="712.321" cy="22.717" r="4" fill="#0" id="circle248"/>
	<circle cx="712.906" cy="142.038" r="4" fill="#0" id="circle249"/>
	<circle cx="718.17" cy="21.5472" r="4" fill="#0" id="circle250"/>
	<circle cx="718.755" cy="142.038" r="4" fill="#0" id="circle251"/>
	<circle cx="724.019" cy="21.5472" r="4" fill="#0" id="circle252"/>
	<circle cx="724.604" cy="142.038" r="4" fill="#0" id="circle253"/>
	<circle cx="729.868" cy="21.5472" r="4" fill="#0" id="circle254"/>
	<circle cx="729.868" cy="139.113" r="4" fill="#0" id="circle255"/>
	<circle cx="735.132" cy="18.6226" r="4" fill="#0" id="circle256"/>
	<circle cx="735.717" cy="139.113" r="4" fill="#0" id="circle257"/>
	<circle cx="740.981" cy="18.6226" r="4" fill="#0" id="circle258"/>
	<circle cx="741.566" cy="139.113" r="4" fill="#0" id="circle259"/>
	<circle cx="746.83" cy="18.6226" r="4" fill="#0" id="circle260"/>
	<circle cx="747.415" cy="139.113" r="4" fill="#0" id="circle261"/>
	<circle cx="752.679" cy="18.6226" r="4" fill="#0" id="circle262"/>
	<circle cx="753.264" cy="139.113" r="4" fill="#0" id="circle263"/>
	<circle cx="758.528" cy="18.6226" r="4" fill="#0" id="circle264"/>
	<circle cx="759.113" cy="136.189" r="4" fill="#0" id="circle265"/>
	<circle cx="763.792" cy="15.6981" r="4" fill="#0" id="circle266"/>
	<circle cx="764.962" cy="136.189" r="4" fill="#0" id="circle267"/>
	<circle cx="769.642" cy="15.6981" r="4" fill="#0" id="circle268"/>
	<circle cx="770.811" cy="136.189" r="4" fill="#0" id="circle269"/>
	<circle cx="775.491" cy="15.6981" r="4" fill="#0" id="circle270"/>
	<circle cx="776.66" cy="136.189" r="4" fill="#0" id="circle271"/>
	<circle cx="781.34" cy="15.6981" r="4" fill="#0" id="circle272"/>
	<circle cx="782.509" cy="136.189" r="4" fill="#0" id="circle273"/>
	<circle cx="787.189" cy="15.6981" r="4" fill="#0" id="circle274"/>
	<circle cx="787.774" cy="133.264" r="4" fill="#0" id="circle275"/>
	<circle cx="792.453" cy="12.7736" r="4" fill="#0" id="circle276"/>
	<circle cx="793.623" cy="133.264" r="4" fill="#0" id="circle277"/>
	<circle cx="798.302" cy="12.7736" r="4" fill="#0" id="circle278"/>
	<circle cx="799.472" cy="133.264" r="4" fill="#0" id="circle279"/>
	<circle cx="804.151" cy="12.7736" r="4" fill="#0" id="circle280"/>
	<circle cx="805.321" cy="133.264" r="4" fill="#0" id="circle281"/>
	<circle cx="810" cy="12.7736" r="4" fill="#0" id="circle282"/>
	<circle cx="811.17" cy="133.264" r="4" fill="#0" id="circle283"/>
	<circle cx="815.849" cy="12.7736" r="4" fill="#0" id="circle284"/>
	<circle cx="817.019" cy="133.264" r="4" fill="#0" id="circle285"/>
	<circle cx="821.113" cy="9.84906" r="4" fill="#0" id="circle286"/>
	<circle cx="822.283" cy="130.34" r="4" fill="#0" id="circle287"/>
	<circle cx="826.962" cy="9.84906" r="4" fill="#0" id="circle288"/>
	<circle cx="828.132" cy="130.34" r="4" fill="#0" id="circle289"/>
	<circle cx="832.811" cy="9.84906" r="4" fill="#0" id="circle290"/>
	<circle cx="833.981" cy="130.34" r="4" fill="#0" id="circle291"/>
	<circle cx="838.66" cy="9.84906" r="4" fill="#0" id="circle292"/>
	<circle cx="839.83" cy="130.34" r="4" fill="#0" id="circle293"/>
	<circle cx="844.509" cy="7.50943" r="4" fill="#0" id="circle294"/>
	<circle cx="845.679" cy="129.17" r="4" fill="#0" id="circle295"/>
	<circle cx="850.358" cy="6.92453" r="4" fill="#0" id="circle296"/>
	<circle cx="851.528" cy="127.415" r="4" fill="#0" id="circle297"/>
	<circle cx="856.208" cy="6.92453" r="4" fill="#0" id="circle298"/>
	<circle cx="857.377" cy="127.415" r="4" fill="#0" id="circle299"/>
	<circle cx="862.057" cy="6.92453" r="4" fill="#0" id="circle300"/>
	<circle cx="863.226" cy="127.415" r="4" fill="#0" id="circle301"/>
	<circle cx="867.321" cy="4" r="4" fill="#0" id="circle302"/>
	<circle cx="869.075" cy="127.415" r="4" fill="#0" id="circle303"/>
	<circle cx="873.17" cy="4" r="4" fill="#0" id="circle304"/>
	<circle cx="874.925" cy="126.245" r="4" fill="#0" id="circle305"/>
	<circle cx="879.019" cy="4" r="4" fill="#0" id="circle306"/>
	<circle cx="880.774" cy="124.491" r="4" fill="#0" id="circle307"/>
	<circle cx="884.868" cy="4" r="4" fill="#0" id="circle308"/>
	<circle cx="886.623" cy="124.491" r="4" fill="#0" id="circle309"/>
	<circle cx="890.717" cy="5.75472" r="4" fill="#0" id="circle310"/>
	<circle cx="892.472" cy="124.491" r="4" fill="#0" id="circle311"/>
	<circle cx="895.981" cy="8.67925" r="4" fill="#0" id="circle312"/>
	<circle cx="898.321" cy="124.491" r="4" fill="#0" id="circle313"/>
	<circle cx="899.491" cy="13.3585" r="4" fill="#0" id="circle314"/>
	<circle cx="902.415" cy="18.6226" r="4" fill="#0" id="circle315"/>
	<circle cx="903.585" cy="121.566" r="4" fill="#0" id="circle316"/>
	<circle cx="905.34" cy="23.8868" r="4" fill="#0" id="circle317"/>
	<circle cx="908.264" cy="115.717" r="4" fill="#0" id="circle318"/>
	<circle cx="910.019" cy="27.3962" r="4" fill="#0" id="circle319"/>
	<circle cx="911.189" cy="104.019" r="4" fill="#0" id="circle320"/>
	<circle cx="911.189" cy="109.868" r="4" fill="#0" id="circle321"/>
	<circle cx="915.868" cy="27.3962" r="4" fill="#0" id="circle322"/>
	<circle cx="915.868" cy="99.9245" r="4" fill="#0" id="circle323"/>
	<circle cx="921.717" cy="27.3962" r="4" fill="#0" id="circle324"/>
	<circle cx="921.717" cy="98.1698" r="4" fill="#0" id="circle325"/>
	<circle cx="927.566" cy="27.3962" r="4" fill="#0" id="circle326"/>
	<circle cx="927.566" cy="98.1698" r="4" fill="#0" id="circle327"/>
	<circle cx="933.415" cy="27.3962" r="4" fill="#0" id="circle328"/>
	<circle cx="933.415" cy="98.1698" r="4" fill="#0" id="circle329"/>
	<circle cx="938.679" cy="24.4717" r="4" fill="#0" id="circle330"/>
	<circle cx="938.679" cy="95.2453" r="4" fill="#0" id="circle331"/>
	<circle cx="944.528" cy="24.4717" r="4" fill="#0" id="circle332"/>
	<circle cx="944.528" cy="95.2453" r="4" fill="#0" id="circle333"/>
	<circle cx="950.377" cy="24.4717" r="4" fill="#0" id="circle334"/>
	<circle cx="950.377" cy="95.2453" r="4" fill="#0" id="circle335"/>
	<circle cx="956.226" cy="24.4717" r="4" fill="#0" id="circle336"/>
	<circle cx="956.226" cy="95.2453" r="4" fill="#0" id="circle337"/>
	<circle cx="962.075" cy="24.4717" r="4" fill="#0" id="circle338"/>
	<circle cx="962.075" cy="95.2453" r="4" fill="#0" id="circle339"/>
	<circle cx="967.925" cy="24.4717" r="4" fill="#0" id="circle340"/>
	<circle cx="967.925" cy="95.2453" r="4" fill="#0" id="circle341"/>
	<circle cx="973.774" cy="24.4717" r="4" fill="#0" id="circle342"/>
	<circle cx="973.774" cy="94.6604" r="4" fill="#0" id="circle343"/>
	<circle cx="979.623" cy="24.4717" r="4" fill="#0" id="circle344"/>
	<circle cx="979.623" cy="92.3208" r="4" fill="#0" id="circle345"/>
	<circle cx="984.887" cy="27.3962" r="4" fill="#0" id="circle346"/>
	<circle cx="985.472" cy="91.7358" r="4" fill="#0" id="circle347"/>
	<circle cx="989.566" cy="31.4906" r="4" fill="#0" id="circle348"/>
	<circle cx="991.321" cy="88.8113" r="4" fill="#0" id="circle349"/>
	<circle cx="991.906" cy="37.3396" r="4" fill="#0" id="circle350"/>
	<circle cx="993.075" cy="43.1887" r="4" fill="#0" id="circle351"/>
	<circle cx="993.075" cy="49.0377" r="4" fill="#0" id="circle352"/>
	<circle cx="994.245" cy="82.9623" r="4" fill="#0" id="circle353"/>
	<circle cx="996" cy="54.3019" r="4" fill="#0" id="circle354"/>
	<circle cx="996" cy="60.1509" r="4" fill="#0" id="circle355"/>
	<circle cx="996" cy="66" r="4" fill="#0" id="circle356"/>
	<circle cx="996" cy="71.8491" r="4" fill="#0" id="circle357"/>
	</g>
</svg>