<?xml version="1.0" encoding="UTF-8" standalone="no"?>
<!-- Created with CurveBenchmark -->
<svg
	xmlns:dc="http://purl.org/dc/elements/1.1/"
	xmlns:cc="http://creativecommons.org/ns#"
	xmlns:rdf="http://www.w3.org/1999/02/22-rdf-syntax-ns#"
	xmlns:svg="http://www.w3.org/2000/svg"
	xmlns="http://www.w3.org/2000/svg"
	xmlns:sodipodi="http://sodipodi.sourceforge.net/DTD/sodipodi-0.dtd"
	xmlns:inkscape="http://www.inkscape.org/namespaces/inkscape"
	width="1000"
	height="1000"
	id="svg2"
	version="1.1"
	sodipodi:docname="manifold/gathan1-fgen2bp.png.txt">
<defs
	id="defs4" />
<metadata
	id="metadata7">
	<rdf:RDF>
		<cc:Work
			rdf:about="">
			<dc:format>image/svg+xml</dc:format>
			<dc:type
				rdf:resource="http://purl.org/dc/dcmitype/StillImage" />
			<dc:title></dc:title>
		</cc:Work>
	</rdf:RDF>
</metadata>
<g
	inkscape:label="Layer 1"
	inkscape:groupmode="layer"
	id="layer1">
	<path style="fill:none;stroke:red;stroke-width:1px;stroke-linecap:butt;stroke-linejoin:miter;stroke-opacity:1" d="M 32.3969,284.183 19.145,269.038 z" id="boundary" inkscape:connector-curvature="0" />
	<path style="fill:none;stroke:red;stroke-width:1px;stroke-linecap:butt;stroke-linejoin:miter;stroke-opacity:1" d="M 4,255.786 13.4656,236.855 z" id="boundary" inkscape:connector-curvature="0" />
	<path style="fill:none;stroke:red;stroke-width:1px;stroke-linecap:butt;stroke-linejoin:miter;stroke-opacity:1" d="M 19.145,269.038 4,255.786 z" id="boundary" inkscape:connector-curvature="0" />
	<path style="fill:none;stroke:red;stroke-width:1px;stroke-linecap:butt;stroke-linejoin:miter;stroke-opacity:1" d="M 13.4656,236.855 28.6107,221.71 z" id="boundary" inkscape:connector-curvature="0" />
	<path style="fill:none;stroke:red;stroke-width:1px;stroke-linecap:butt;stroke-linejoin:miter;stroke-opacity:1" d="M 28.6107,221.71 43.7557,206.565 z" id="boundary" inkscape:connector-curvature="0" />
	<path style="fill:none;stroke:red;stroke-width:1px;stroke-linecap:butt;stroke-linejoin:miter;stroke-opacity:1" d="M 75.9389,183.847 92.9771,174.382 z" id="boundary" inkscape:connector-curvature="0" />
	<path style="fill:none;stroke:red;stroke-width:1px;stroke-linecap:butt;stroke-linejoin:miter;stroke-opacity:1" d="M 128.947,159.237 110.015,164.916 z" id="boundary" inkscape:connector-curvature="0" />
	<path style="fill:none;stroke:red;stroke-width:1px;stroke-linecap:butt;stroke-linejoin:miter;stroke-opacity:1" d="M 134.626,276.611 119.481,289.863 z" id="boundary" inkscape:connector-curvature="0" />
	<path style="fill:none;stroke:red;stroke-width:1px;stroke-linecap:butt;stroke-linejoin:miter;stroke-opacity:1" d="M 75.9389,183.847 58.9008,193.313 z" id="boundary" inkscape:connector-curvature="0" />
	<path style="fill:none;stroke:red;stroke-width:1px;stroke-linecap:butt;stroke-linejoin:miter;stroke-opacity:1" d="M 43.7557,206.565 58.9008,193.313 z" id="boundary" inkscape:connector-curvature="0" />
	<path style="fill:none;stroke:red;stroke-width:1px;stroke-linecap:butt;stroke-linejoin:miter;stroke-opacity:1" d="M 110.015,164.916 92.9771,174.382 z" id="boundary" inkscape:connector-curvature="0" />
	<path style="fill:none;stroke:red;stroke-width:1px;stroke-linecap:butt;stroke-linejoin:miter;stroke-opacity:1" d="M 32.3969,284.183 47.542,297.435 z" id="boundary" inkscape:connector-curvature="0" />
	<path style="fill:none;stroke:red;stroke-width:1px;stroke-linecap:butt;stroke-linejoin:miter;stroke-opacity:1" d="M 64.5802,306.901 47.542,297.435 z" id="boundary" inkscape:connector-curvature="0" />
	<path style="fill:none;stroke:red;stroke-width:1px;stroke-linecap:butt;stroke-linejoin:miter;stroke-opacity:1" d="M 100.55,299.328 83.5115,308.794 z" id="boundary" inkscape:connector-curvature="0" />
	<path style="fill:none;stroke:red;stroke-width:1px;stroke-linecap:butt;stroke-linejoin:miter;stroke-opacity:1" d="M 83.5115,308.794 64.5802,306.901 z" id="boundary" inkscape:connector-curvature="0" />
	<path style="fill:none;stroke:red;stroke-width:1px;stroke-linecap:butt;stroke-linejoin:miter;stroke-opacity:1" d="M 89.1908,407.237 79.7252,435.634 z" id="boundary" inkscape:connector-curvature="0" />
	<path style="fill:none;stroke:red;stroke-width:1px;stroke-linecap:butt;stroke-linejoin:miter;stroke-opacity:1" d="M 136.519,312.58 123.267,335.298 z" id="boundary" inkscape:connector-curvature="0" />
	<path style="fill:none;stroke:red;stroke-width:1px;stroke-linecap:butt;stroke-linejoin:miter;stroke-opacity:1" d="M 100.55,299.328 119.481,289.863 z" id="boundary" inkscape:connector-curvature="0" />
	<path style="fill:none;stroke:red;stroke-width:1px;stroke-linecap:butt;stroke-linejoin:miter;stroke-opacity:1" d="M 123.267,335.298 108.122,350.443 z" id="boundary" inkscape:connector-curvature="0" />
	<path style="fill:none;stroke:red;stroke-width:1px;stroke-linecap:butt;stroke-linejoin:miter;stroke-opacity:1" d="M 89.1908,407.237 98.6565,378.84 z" id="boundary" inkscape:connector-curvature="0" />
	<path style="fill:none;stroke:red;stroke-width:1px;stroke-linecap:butt;stroke-linejoin:miter;stroke-opacity:1" d="M 108.122,350.443 98.6565,378.84 z" id="boundary" inkscape:connector-curvature="0" />
	<path style="fill:none;stroke:red;stroke-width:1px;stroke-linecap:butt;stroke-linejoin:miter;stroke-opacity:1" d="M 89.1908,452.672 79.7252,435.634 z" id="boundary" inkscape:connector-curvature="0" />
	<path style="fill:none;stroke:red;stroke-width:1px;stroke-linecap:butt;stroke-linejoin:miter;stroke-opacity:1" d="M 299.328,22.9313 318.26,17.2519 z" id="boundary" inkscape:connector-curvature="0" />
	<path style="fill:none;stroke:red;stroke-width:1px;stroke-linecap:butt;stroke-linejoin:miter;stroke-opacity:1" d="M 282.29,32.3969 299.328,22.9313 z" id="boundary" inkscape:connector-curvature="0" />
	<path style="fill:none;stroke:red;stroke-width:1px;stroke-linecap:butt;stroke-linejoin:miter;stroke-opacity:1" d="M 233.069,64.5802 248.214,51.3282 z" id="boundary" inkscape:connector-curvature="0" />
	<path style="fill:none;stroke:red;stroke-width:1px;stroke-linecap:butt;stroke-linejoin:miter;stroke-opacity:1" d="M 248.214,51.3282 265.252,41.8626 z" id="boundary" inkscape:connector-curvature="0" />
	<path style="fill:none;stroke:red;stroke-width:1px;stroke-linecap:butt;stroke-linejoin:miter;stroke-opacity:1" d="M 265.252,41.8626 282.29,32.3969 z" id="boundary" inkscape:connector-curvature="0" />
	<path style="fill:none;stroke:red;stroke-width:1px;stroke-linecap:butt;stroke-linejoin:miter;stroke-opacity:1" d="M 318.26,17.2519 337.191,13.4656 z" id="boundary" inkscape:connector-curvature="0" />
	<path style="fill:none;stroke:red;stroke-width:1px;stroke-linecap:butt;stroke-linejoin:miter;stroke-opacity:1" d="M 375.053,4 393.985,4 z" id="boundary" inkscape:connector-curvature="0" />
	<path style="fill:none;stroke:red;stroke-width:1px;stroke-linecap:butt;stroke-linejoin:miter;stroke-opacity:1" d="M 393.985,4 411.023,13.4656 z" id="boundary" inkscape:connector-curvature="0" />
	<path style="fill:none;stroke:red;stroke-width:1px;stroke-linecap:butt;stroke-linejoin:miter;stroke-opacity:1" d="M 337.191,13.4656 356.122,7.78626 z" id="boundary" inkscape:connector-curvature="0" />
	<path style="fill:none;stroke:red;stroke-width:1px;stroke-linecap:butt;stroke-linejoin:miter;stroke-opacity:1" d="M 356.122,7.78626 375.053,4 z" id="boundary" inkscape:connector-curvature="0" />
	<path style="fill:none;stroke:red;stroke-width:1px;stroke-linecap:butt;stroke-linejoin:miter;stroke-opacity:1" d="M 429.954,13.4656 411.023,13.4656 z" id="boundary" inkscape:connector-curvature="0" />
	<path style="fill:none;stroke:red;stroke-width:1px;stroke-linecap:butt;stroke-linejoin:miter;stroke-opacity:1" d="M 153.557,270.931 134.626,276.611 z" id="boundary" inkscape:connector-curvature="0" />
	<path style="fill:none;stroke:red;stroke-width:1px;stroke-linecap:butt;stroke-linejoin:miter;stroke-opacity:1" d="M 147.878,155.45 164.916,142.198 z" id="boundary" inkscape:connector-curvature="0" />
	<path style="fill:none;stroke:red;stroke-width:1px;stroke-linecap:butt;stroke-linejoin:miter;stroke-opacity:1" d="M 145.985,293.649 136.519,312.58 z" id="boundary" inkscape:connector-curvature="0" />
	<path style="fill:none;stroke:red;stroke-width:1px;stroke-linecap:butt;stroke-linejoin:miter;stroke-opacity:1" d="M 153.557,270.931 145.985,293.649 z" id="boundary" inkscape:connector-curvature="0" />
	<path style="fill:none;stroke:red;stroke-width:1px;stroke-linecap:butt;stroke-linejoin:miter;stroke-opacity:1" d="M 128.947,159.237 147.878,155.45 z" id="boundary" inkscape:connector-curvature="0" />
	<path style="fill:none;stroke:red;stroke-width:1px;stroke-linecap:butt;stroke-linejoin:miter;stroke-opacity:1" d="M 233.069,64.5802 217.924,79.7252 z" id="boundary" inkscape:connector-curvature="0" />
	<path style="fill:none;stroke:red;stroke-width:1px;stroke-linecap:butt;stroke-linejoin:miter;stroke-opacity:1" d="M 217.924,79.7252 198.992,89.1908 z" id="boundary" inkscape:connector-curvature="0" />
	<path style="fill:none;stroke:red;stroke-width:1px;stroke-linecap:butt;stroke-linejoin:miter;stroke-opacity:1" d="M 189.527,108.122 198.992,89.1908 z" id="boundary" inkscape:connector-curvature="0" />
	<path style="fill:none;stroke:red;stroke-width:1px;stroke-linecap:butt;stroke-linejoin:miter;stroke-opacity:1" d="M 189.527,108.122 180.061,127.053 z" id="boundary" inkscape:connector-curvature="0" />
	<path style="fill:none;stroke:red;stroke-width:1px;stroke-linecap:butt;stroke-linejoin:miter;stroke-opacity:1" d="M 180.061,127.053 164.916,142.198 z" id="boundary" inkscape:connector-curvature="0" />
	<path style="fill:none;stroke:red;stroke-width:1px;stroke-linecap:butt;stroke-linejoin:miter;stroke-opacity:1" d="M 81.6183,641.985 66.4733,657.13 z" id="boundary" inkscape:connector-curvature="0" />
	<path style="fill:none;stroke:red;stroke-width:1px;stroke-linecap:butt;stroke-linejoin:miter;stroke-opacity:1" d="M 108.122,606.015 96.7634,628.733 z" id="boundary" inkscape:connector-curvature="0" />
	<path style="fill:none;stroke:red;stroke-width:1px;stroke-linecap:butt;stroke-linejoin:miter;stroke-opacity:1" d="M 96.7634,628.733 81.6183,641.985 z" id="boundary" inkscape:connector-curvature="0" />
	<path style="fill:none;stroke:red;stroke-width:1px;stroke-linecap:butt;stroke-linejoin:miter;stroke-opacity:1" d="M 98.6565,488.641 89.1908,471.603 z" id="boundary" inkscape:connector-curvature="0" />
	<path style="fill:none;stroke:red;stroke-width:1px;stroke-linecap:butt;stroke-linejoin:miter;stroke-opacity:1" d="M 66.4733,657.13 51.3282,672.275 z" id="boundary" inkscape:connector-curvature="0" />
	<path style="fill:none;stroke:red;stroke-width:1px;stroke-linecap:butt;stroke-linejoin:miter;stroke-opacity:1" d="M 108.122,520.824 108.122,549.221 z" id="boundary" inkscape:connector-curvature="0" />
	<path style="fill:none;stroke:red;stroke-width:1px;stroke-linecap:butt;stroke-linejoin:miter;stroke-opacity:1" d="M 117.588,488.641 108.122,520.824 z" id="boundary" inkscape:connector-curvature="0" />
	<path style="fill:none;stroke:red;stroke-width:1px;stroke-linecap:butt;stroke-linejoin:miter;stroke-opacity:1" d="M 108.122,549.221 108.122,568.153 z" id="boundary" inkscape:connector-curvature="0" />
	<path style="fill:none;stroke:red;stroke-width:1px;stroke-linecap:butt;stroke-linejoin:miter;stroke-opacity:1" d="M 117.588,585.191 108.122,568.153 z" id="boundary" inkscape:connector-curvature="0" />
	<path style="fill:none;stroke:red;stroke-width:1px;stroke-linecap:butt;stroke-linejoin:miter;stroke-opacity:1" d="M 117.588,585.191 108.122,606.015 z" id="boundary" inkscape:connector-curvature="0" />
	<path style="fill:none;stroke:red;stroke-width:1px;stroke-linecap:butt;stroke-linejoin:miter;stroke-opacity:1" d="M 89.1908,471.603 89.1908,452.672 z" id="boundary" inkscape:connector-curvature="0" />
	<path style="fill:none;stroke:red;stroke-width:1px;stroke-linecap:butt;stroke-linejoin:miter;stroke-opacity:1" d="M 32.3969,710.137 41.8626,691.206 z" id="boundary" inkscape:connector-curvature="0" />
	<path style="fill:none;stroke:red;stroke-width:1px;stroke-linecap:butt;stroke-linejoin:miter;stroke-opacity:1" d="M 32.3969,729.069 32.3969,710.137 z" id="boundary" inkscape:connector-curvature="0" />
	<path style="fill:none;stroke:red;stroke-width:1px;stroke-linecap:butt;stroke-linejoin:miter;stroke-opacity:1" d="M 41.8626,765.038 32.3969,748 z" id="boundary" inkscape:connector-curvature="0" />
	<path style="fill:none;stroke:red;stroke-width:1px;stroke-linecap:butt;stroke-linejoin:miter;stroke-opacity:1" d="M 32.3969,748 32.3969,729.069 z" id="boundary" inkscape:connector-curvature="0" />
	<path style="fill:none;stroke:red;stroke-width:1px;stroke-linecap:butt;stroke-linejoin:miter;stroke-opacity:1" d="M 51.3282,782.076 41.8626,765.038 z" id="boundary" inkscape:connector-curvature="0" />
	<path style="fill:none;stroke:red;stroke-width:1px;stroke-linecap:butt;stroke-linejoin:miter;stroke-opacity:1" d="M 62.687,797.221 51.3282,782.076 z" id="boundary" inkscape:connector-curvature="0" />
	<path style="fill:none;stroke:red;stroke-width:1px;stroke-linecap:butt;stroke-linejoin:miter;stroke-opacity:1" d="M 62.687,797.221 72.1527,814.26 z" id="boundary" inkscape:connector-curvature="0" />
	<path style="fill:none;stroke:red;stroke-width:1px;stroke-linecap:butt;stroke-linejoin:miter;stroke-opacity:1" d="M 41.8626,691.206 51.3282,672.275 z" id="boundary" inkscape:connector-curvature="0" />
	<path style="fill:none;stroke:red;stroke-width:1px;stroke-linecap:butt;stroke-linejoin:miter;stroke-opacity:1" d="M 102.443,838.87 85.4046,829.405 z" id="boundary" inkscape:connector-curvature="0" />
	<path style="fill:none;stroke:red;stroke-width:1px;stroke-linecap:butt;stroke-linejoin:miter;stroke-opacity:1" d="M 85.4046,829.405 72.1527,814.26 z" id="boundary" inkscape:connector-curvature="0" />
	<path style="fill:none;stroke:red;stroke-width:1px;stroke-linecap:butt;stroke-linejoin:miter;stroke-opacity:1" d="M 121.374,838.87 136.519,823.725 z" id="boundary" inkscape:connector-curvature="0" />
	<path style="fill:none;stroke:red;stroke-width:1px;stroke-linecap:butt;stroke-linejoin:miter;stroke-opacity:1" d="M 121.374,838.87 102.443,838.87 z" id="boundary" inkscape:connector-curvature="0" />
	<path style="fill:none;stroke:red;stroke-width:1px;stroke-linecap:butt;stroke-linejoin:miter;stroke-opacity:1" d="M 155.45,819.939 136.519,823.725 z" id="boundary" inkscape:connector-curvature="0" />
	<path style="fill:none;stroke:red;stroke-width:1px;stroke-linecap:butt;stroke-linejoin:miter;stroke-opacity:1" d="M 155.45,819.939 164.916,836.977 z" id="boundary" inkscape:connector-curvature="0" />
	<path style="fill:none;stroke:red;stroke-width:1px;stroke-linecap:butt;stroke-linejoin:miter;stroke-opacity:1" d="M 174.382,872.947 164.916,855.908 z" id="boundary" inkscape:connector-curvature="0" />
	<path style="fill:none;stroke:red;stroke-width:1px;stroke-linecap:butt;stroke-linejoin:miter;stroke-opacity:1" d="M 164.916,855.908 164.916,836.977 z" id="boundary" inkscape:connector-curvature="0" />
	<path style="fill:none;stroke:red;stroke-width:1px;stroke-linecap:butt;stroke-linejoin:miter;stroke-opacity:1" d="M 183.847,889.985 174.382,872.947 z" id="boundary" inkscape:connector-curvature="0" />
	<path style="fill:none;stroke:red;stroke-width:1px;stroke-linecap:butt;stroke-linejoin:miter;stroke-opacity:1" d="M 206.565,922.168 193.313,907.023 z" id="boundary" inkscape:connector-curvature="0" />
	<path style="fill:none;stroke:red;stroke-width:1px;stroke-linecap:butt;stroke-linejoin:miter;stroke-opacity:1" d="M 193.313,907.023 183.847,889.985 z" id="boundary" inkscape:connector-curvature="0" />
	<path style="fill:none;stroke:red;stroke-width:1px;stroke-linecap:butt;stroke-linejoin:miter;stroke-opacity:1" d="M 221.71,933.527 206.565,922.168 z" id="boundary" inkscape:connector-curvature="0" />
	<path style="fill:none;stroke:red;stroke-width:1px;stroke-linecap:butt;stroke-linejoin:miter;stroke-opacity:1" d="M 221.71,933.527 233.069,948.672 z" id="boundary" inkscape:connector-curvature="0" />
	<path style="fill:none;stroke:red;stroke-width:1px;stroke-linecap:butt;stroke-linejoin:miter;stroke-opacity:1" d="M 265.252,971.389 248.214,961.924 z" id="boundary" inkscape:connector-curvature="0" />
	<path style="fill:none;stroke:red;stroke-width:1px;stroke-linecap:butt;stroke-linejoin:miter;stroke-opacity:1" d="M 248.214,961.924 233.069,948.672 z" id="boundary" inkscape:connector-curvature="0" />
	<path style="fill:none;stroke:red;stroke-width:1px;stroke-linecap:butt;stroke-linejoin:miter;stroke-opacity:1" d="M 284.183,978.962 265.252,971.389 z" id="boundary" inkscape:connector-curvature="0" />
	<path style="fill:none;stroke:red;stroke-width:1px;stroke-linecap:butt;stroke-linejoin:miter;stroke-opacity:1" d="M 303.115,980.855 284.183,978.962 z" id="boundary" inkscape:connector-curvature="0" />
	<path style="fill:none;stroke:red;stroke-width:1px;stroke-linecap:butt;stroke-linejoin:miter;stroke-opacity:1" d="M 339.084,990.321 320.153,990.321 z" id="boundary" inkscape:connector-curvature="0" />
	<path style="fill:none;stroke:red;stroke-width:1px;stroke-linecap:butt;stroke-linejoin:miter;stroke-opacity:1" d="M 320.153,990.321 303.115,980.855 z" id="boundary" inkscape:connector-curvature="0" />
	<path style="fill:none;stroke:red;stroke-width:1px;stroke-linecap:butt;stroke-linejoin:miter;stroke-opacity:1" d="M 358.015,990.321 339.084,990.321 z" id="boundary" inkscape:connector-curvature="0" />
	<path style="fill:none;stroke:red;stroke-width:1px;stroke-linecap:butt;stroke-linejoin:miter;stroke-opacity:1" d="M 395.878,990.321 376.947,996 z" id="boundary" inkscape:connector-curvature="0" />
	<path style="fill:none;stroke:red;stroke-width:1px;stroke-linecap:butt;stroke-linejoin:miter;stroke-opacity:1" d="M 376.947,996 358.015,990.321 z" id="boundary" inkscape:connector-curvature="0" />
	<path style="fill:none;stroke:red;stroke-width:1px;stroke-linecap:butt;stroke-linejoin:miter;stroke-opacity:1" d="M 395.878,990.321 414.809,990.321 z" id="boundary" inkscape:connector-curvature="0" />
	<path style="fill:none;stroke:red;stroke-width:1px;stroke-linecap:butt;stroke-linejoin:miter;stroke-opacity:1" d="M 446.992,22.9313 464.031,32.3969 z" id="boundary" inkscape:connector-curvature="0" />
	<path style="fill:none;stroke:red;stroke-width:1px;stroke-linecap:butt;stroke-linejoin:miter;stroke-opacity:1" d="M 481.069,41.8626 498.107,51.3282 z" id="boundary" inkscape:connector-curvature="0" />
	<path style="fill:none;stroke:red;stroke-width:1px;stroke-linecap:butt;stroke-linejoin:miter;stroke-opacity:1" d="M 464.031,32.3969 481.069,41.8626 z" id="boundary" inkscape:connector-curvature="0" />
	<path style="fill:none;stroke:red;stroke-width:1px;stroke-linecap:butt;stroke-linejoin:miter;stroke-opacity:1" d="M 526.504,77.8321 513.252,62.687 z" id="boundary" inkscape:connector-curvature="0" />
	<path style="fill:none;stroke:red;stroke-width:1px;stroke-linecap:butt;stroke-linejoin:miter;stroke-opacity:1" d="M 541.649,91.084 526.504,77.8321 z" id="boundary" inkscape:connector-curvature="0" />
	<path style="fill:none;stroke:red;stroke-width:1px;stroke-linecap:butt;stroke-linejoin:miter;stroke-opacity:1" d="M 541.649,91.084 554.901,106.229 z" id="boundary" inkscape:connector-curvature="0" />
	<path style="fill:none;stroke:red;stroke-width:1px;stroke-linecap:butt;stroke-linejoin:miter;stroke-opacity:1" d="M 554.901,106.229 564.366,123.267 z" id="boundary" inkscape:connector-curvature="0" />
	<path style="fill:none;stroke:red;stroke-width:1px;stroke-linecap:butt;stroke-linejoin:miter;stroke-opacity:1" d="M 498.107,51.3282 513.252,62.687 z" id="boundary" inkscape:connector-curvature="0" />
	<path style="fill:none;stroke:red;stroke-width:1px;stroke-linecap:butt;stroke-linejoin:miter;stroke-opacity:1" d="M 571.939,327.725 554.901,337.191 z" id="boundary" inkscape:connector-curvature="0" />
	<path style="fill:none;stroke:red;stroke-width:1px;stroke-linecap:butt;stroke-linejoin:miter;stroke-opacity:1" d="M 554.901,356.122 554.901,337.191 z" id="boundary" inkscape:connector-curvature="0" />
	<path style="fill:none;stroke:red;stroke-width:1px;stroke-linecap:butt;stroke-linejoin:miter;stroke-opacity:1" d="M 564.366,373.16 554.901,356.122 z" id="boundary" inkscape:connector-curvature="0" />
	<path style="fill:none;stroke:red;stroke-width:1px;stroke-linecap:butt;stroke-linejoin:miter;stroke-opacity:1" d="M 571.939,327.725 588.977,337.191 z" id="boundary" inkscape:connector-curvature="0" />
	<path style="fill:none;stroke:red;stroke-width:1px;stroke-linecap:butt;stroke-linejoin:miter;stroke-opacity:1" d="M 564.366,123.267 573.832,140.305 z" id="boundary" inkscape:connector-curvature="0" />
	<path style="fill:none;stroke:red;stroke-width:1px;stroke-linecap:butt;stroke-linejoin:miter;stroke-opacity:1" d="M 583.298,157.344 592.763,174.382 z" id="boundary" inkscape:connector-curvature="0" />
	<path style="fill:none;stroke:red;stroke-width:1px;stroke-linecap:butt;stroke-linejoin:miter;stroke-opacity:1" d="M 592.763,174.382 592.763,193.313 z" id="boundary" inkscape:connector-curvature="0" />
	<path style="fill:none;stroke:red;stroke-width:1px;stroke-linecap:butt;stroke-linejoin:miter;stroke-opacity:1" d="M 587.084,403.45 579.511,384.519 z" id="boundary" inkscape:connector-curvature="0" />
	<path style="fill:none;stroke:red;stroke-width:1px;stroke-linecap:butt;stroke-linejoin:miter;stroke-opacity:1" d="M 579.511,384.519 564.366,373.16 z" id="boundary" inkscape:connector-curvature="0" />
	<path style="fill:none;stroke:red;stroke-width:1px;stroke-linecap:butt;stroke-linejoin:miter;stroke-opacity:1" d="M 588.977,337.191 602.229,352.336 z" id="boundary" inkscape:connector-curvature="0" />
	<path style="fill:none;stroke:red;stroke-width:1px;stroke-linecap:butt;stroke-linejoin:miter;stroke-opacity:1" d="M 592.763,193.313 592.763,212.244 z" id="boundary" inkscape:connector-curvature="0" />
	<path style="fill:none;stroke:red;stroke-width:1px;stroke-linecap:butt;stroke-linejoin:miter;stroke-opacity:1" d="M 573.832,140.305 583.298,157.344 z" id="boundary" inkscape:connector-curvature="0" />
	<path style="fill:none;stroke:red;stroke-width:1px;stroke-linecap:butt;stroke-linejoin:miter;stroke-opacity:1" d="M 607.908,223.603 621.16,238.748 z" id="boundary" inkscape:connector-curvature="0" />
	<path style="fill:none;stroke:red;stroke-width:1px;stroke-linecap:butt;stroke-linejoin:miter;stroke-opacity:1" d="M 607.908,223.603 592.763,212.244 z" id="boundary" inkscape:connector-curvature="0" />
	<path style="fill:none;stroke:red;stroke-width:1px;stroke-linecap:butt;stroke-linejoin:miter;stroke-opacity:1" d="M 636.305,250.107 621.16,238.748 z" id="boundary" inkscape:connector-curvature="0" />
	<path style="fill:none;stroke:red;stroke-width:1px;stroke-linecap:butt;stroke-linejoin:miter;stroke-opacity:1" d="M 636.305,250.107 653.344,259.573 z" id="boundary" inkscape:connector-curvature="0" />
	<path style="fill:none;stroke:red;stroke-width:1px;stroke-linecap:butt;stroke-linejoin:miter;stroke-opacity:1" d="M 670.382,269.038 685.527,282.29 z" id="boundary" inkscape:connector-curvature="0" />
	<path style="fill:none;stroke:red;stroke-width:1px;stroke-linecap:butt;stroke-linejoin:miter;stroke-opacity:1" d="M 696.885,297.435 715.817,303.115 z" id="boundary" inkscape:connector-curvature="0" />
	<path style="fill:none;stroke:red;stroke-width:1px;stroke-linecap:butt;stroke-linejoin:miter;stroke-opacity:1" d="M 715.817,303.115 729.069,318.26 z" id="boundary" inkscape:connector-curvature="0" />
	<path style="fill:none;stroke:red;stroke-width:1px;stroke-linecap:butt;stroke-linejoin:miter;stroke-opacity:1" d="M 696.885,297.435 685.527,282.29 z" id="boundary" inkscape:connector-curvature="0" />
	<path style="fill:none;stroke:red;stroke-width:1px;stroke-linecap:butt;stroke-linejoin:miter;stroke-opacity:1" d="M 744.214,331.511 729.069,318.26 z" id="boundary" inkscape:connector-curvature="0" />
	<path style="fill:none;stroke:red;stroke-width:1px;stroke-linecap:butt;stroke-linejoin:miter;stroke-opacity:1" d="M 653.344,259.573 670.382,269.038 z" id="boundary" inkscape:connector-curvature="0" />
	<path style="fill:none;stroke:red;stroke-width:1px;stroke-linecap:butt;stroke-linejoin:miter;stroke-opacity:1" d="M 617.374,365.588 630.626,380.733 z" id="boundary" inkscape:connector-curvature="0" />
	<path style="fill:none;stroke:red;stroke-width:1px;stroke-linecap:butt;stroke-linejoin:miter;stroke-opacity:1" d="M 617.374,365.588 602.229,352.336 z" id="boundary" inkscape:connector-curvature="0" />
	<path style="fill:none;stroke:red;stroke-width:1px;stroke-linecap:butt;stroke-linejoin:miter;stroke-opacity:1" d="M 630.626,380.733 645.771,393.985 z" id="boundary" inkscape:connector-curvature="0" />
	<path style="fill:none;stroke:red;stroke-width:1px;stroke-linecap:butt;stroke-linejoin:miter;stroke-opacity:1" d="M 659.023,409.13 645.771,393.985 z" id="boundary" inkscape:connector-curvature="0" />
	<path style="fill:none;stroke:red;stroke-width:1px;stroke-linecap:butt;stroke-linejoin:miter;stroke-opacity:1" d="M 602.229,416.702 587.084,403.45 z" id="boundary" inkscape:connector-curvature="0" />
	<path style="fill:none;stroke:red;stroke-width:1px;stroke-linecap:butt;stroke-linejoin:miter;stroke-opacity:1" d="M 770.718,358.015 753.679,348.55 z" id="boundary" inkscape:connector-curvature="0" />
	<path style="fill:none;stroke:red;stroke-width:1px;stroke-linecap:butt;stroke-linejoin:miter;stroke-opacity:1" d="M 753.679,348.55 744.214,331.511 z" id="boundary" inkscape:connector-curvature="0" />
	<path style="fill:none;stroke:red;stroke-width:1px;stroke-linecap:butt;stroke-linejoin:miter;stroke-opacity:1" d="M 770.718,358.015 778.29,376.947 z" id="boundary" inkscape:connector-curvature="0" />
	<path style="fill:none;stroke:red;stroke-width:1px;stroke-linecap:butt;stroke-linejoin:miter;stroke-opacity:1" d="M 791.542,392.092 778.29,376.947 z" id="boundary" inkscape:connector-curvature="0" />
	<path style="fill:none;stroke:red;stroke-width:1px;stroke-linecap:butt;stroke-linejoin:miter;stroke-opacity:1" d="M 806.687,403.45 791.542,392.092 z" id="boundary" inkscape:connector-curvature="0" />
	<path style="fill:none;stroke:red;stroke-width:1px;stroke-linecap:butt;stroke-linejoin:miter;stroke-opacity:1" d="M 674.168,422.382 659.023,409.13 z" id="boundary" inkscape:connector-curvature="0" />
	<path style="fill:none;stroke:red;stroke-width:1px;stroke-linecap:butt;stroke-linejoin:miter;stroke-opacity:1" d="M 806.687,403.45 810.473,422.382 z" id="boundary" inkscape:connector-curvature="0" />
	<path style="fill:none;stroke:red;stroke-width:1px;stroke-linecap:butt;stroke-linejoin:miter;stroke-opacity:1" d="M 583.298,801.008 583.298,782.076 z" id="boundary" inkscape:connector-curvature="0" />
	<path style="fill:none;stroke:red;stroke-width:1px;stroke-linecap:butt;stroke-linejoin:miter;stroke-opacity:1" d="M 583.298,782.076 592.763,763.145 z" id="boundary" inkscape:connector-curvature="0" />
	<path style="fill:none;stroke:red;stroke-width:1px;stroke-linecap:butt;stroke-linejoin:miter;stroke-opacity:1" d="M 583.298,801.008 583.298,819.939 z" id="boundary" inkscape:connector-curvature="0" />
	<path style="fill:none;stroke:red;stroke-width:1px;stroke-linecap:butt;stroke-linejoin:miter;stroke-opacity:1" d="M 579.511,854.015 583.298,819.939 z" id="boundary" inkscape:connector-curvature="0" />
	<path style="fill:none;stroke:red;stroke-width:1px;stroke-linecap:butt;stroke-linejoin:miter;stroke-opacity:1" d="M 592.763,744.214 592.763,763.145 z" id="boundary" inkscape:connector-curvature="0" />
	<path style="fill:none;stroke:red;stroke-width:1px;stroke-linecap:butt;stroke-linejoin:miter;stroke-opacity:1" d="M 609.802,435.634 602.229,416.702 z" id="boundary" inkscape:connector-curvature="0" />
	<path style="fill:none;stroke:red;stroke-width:1px;stroke-linecap:butt;stroke-linejoin:miter;stroke-opacity:1" d="M 592.763,744.214 602.229,715.817 z" id="boundary" inkscape:connector-curvature="0" />
	<path style="fill:none;stroke:red;stroke-width:1px;stroke-linecap:butt;stroke-linejoin:miter;stroke-opacity:1" d="M 611.695,687.42 602.229,715.817 z" id="boundary" inkscape:connector-curvature="0" />
	<path style="fill:none;stroke:red;stroke-width:1px;stroke-linecap:butt;stroke-linejoin:miter;stroke-opacity:1" d="M 579.511,854.015 570.046,872.947 z" id="boundary" inkscape:connector-curvature="0" />
	<path style="fill:none;stroke:red;stroke-width:1px;stroke-linecap:butt;stroke-linejoin:miter;stroke-opacity:1" d="M 611.695,687.42 621.16,668.489 z" id="boundary" inkscape:connector-curvature="0" />
	<path style="fill:none;stroke:red;stroke-width:1px;stroke-linecap:butt;stroke-linejoin:miter;stroke-opacity:1" d="M 469.71,971.389 488.641,961.924 z" id="boundary" inkscape:connector-curvature="0" />
	<path style="fill:none;stroke:red;stroke-width:1px;stroke-linecap:butt;stroke-linejoin:miter;stroke-opacity:1" d="M 503.786,948.672 488.641,961.924 z" id="boundary" inkscape:connector-curvature="0" />
	<path style="fill:none;stroke:red;stroke-width:1px;stroke-linecap:butt;stroke-linejoin:miter;stroke-opacity:1" d="M 450.779,980.855 433.74,990.321 z" id="boundary" inkscape:connector-curvature="0" />
	<path style="fill:none;stroke:red;stroke-width:1px;stroke-linecap:butt;stroke-linejoin:miter;stroke-opacity:1" d="M 433.74,990.321 414.809,990.321 z" id="boundary" inkscape:connector-curvature="0" />
	<path style="fill:none;stroke:red;stroke-width:1px;stroke-linecap:butt;stroke-linejoin:miter;stroke-opacity:1" d="M 450.779,980.855 469.71,971.389 z" id="boundary" inkscape:connector-curvature="0" />
	<path style="fill:none;stroke:red;stroke-width:1px;stroke-linecap:butt;stroke-linejoin:miter;stroke-opacity:1" d="M 551.115,910.809 560.58,891.878 z" id="boundary" inkscape:connector-curvature="0" />
	<path style="fill:none;stroke:red;stroke-width:1px;stroke-linecap:butt;stroke-linejoin:miter;stroke-opacity:1" d="M 551.115,910.809 535.969,924.061 z" id="boundary" inkscape:connector-curvature="0" />
	<path style="fill:none;stroke:red;stroke-width:1px;stroke-linecap:butt;stroke-linejoin:miter;stroke-opacity:1" d="M 570.046,872.947 560.58,891.878 z" id="boundary" inkscape:connector-curvature="0" />
	<path style="fill:none;stroke:red;stroke-width:1px;stroke-linecap:butt;stroke-linejoin:miter;stroke-opacity:1" d="M 535.969,924.061 522.718,939.206 z" id="boundary" inkscape:connector-curvature="0" />
	<path style="fill:none;stroke:red;stroke-width:1px;stroke-linecap:butt;stroke-linejoin:miter;stroke-opacity:1" d="M 522.718,939.206 503.786,948.672 z" id="boundary" inkscape:connector-curvature="0" />
	<path style="fill:none;stroke:red;stroke-width:1px;stroke-linecap:butt;stroke-linejoin:miter;stroke-opacity:1" d="M 674.168,422.382 687.42,437.527 z" id="boundary" inkscape:connector-curvature="0" />
	<path style="fill:none;stroke:red;stroke-width:1px;stroke-linecap:butt;stroke-linejoin:miter;stroke-opacity:1" d="M 702.565,450.779 687.42,437.527 z" id="boundary" inkscape:connector-curvature="0" />
	<path style="fill:none;stroke:red;stroke-width:1px;stroke-linecap:butt;stroke-linejoin:miter;stroke-opacity:1" d="M 621.16,471.603 619.267,452.672 z" id="boundary" inkscape:connector-curvature="0" />
	<path style="fill:none;stroke:red;stroke-width:1px;stroke-linecap:butt;stroke-linejoin:miter;stroke-opacity:1" d="M 738.534,460.244 719.603,460.244 z" id="boundary" inkscape:connector-curvature="0" />
	<path style="fill:none;stroke:red;stroke-width:1px;stroke-linecap:butt;stroke-linejoin:miter;stroke-opacity:1" d="M 719.603,460.244 702.565,450.779 z" id="boundary" inkscape:connector-curvature="0" />
	<path style="fill:none;stroke:red;stroke-width:1px;stroke-linecap:butt;stroke-linejoin:miter;stroke-opacity:1" d="M 619.267,452.672 609.802,435.634 z" id="boundary" inkscape:connector-curvature="0" />
	<path style="fill:none;stroke:red;stroke-width:1px;stroke-linecap:butt;stroke-linejoin:miter;stroke-opacity:1" d="M 810.473,422.382 810.473,441.313 z" id="boundary" inkscape:connector-curvature="0" />
	<path style="fill:none;stroke:red;stroke-width:1px;stroke-linecap:butt;stroke-linejoin:miter;stroke-opacity:1" d="M 810.473,441.313 793.435,450.779 z" id="boundary" inkscape:connector-curvature="0" />
	<path style="fill:none;stroke:red;stroke-width:1px;stroke-linecap:butt;stroke-linejoin:miter;stroke-opacity:1" d="M 793.435,450.779 776.397,460.244 z" id="boundary" inkscape:connector-curvature="0" />
	<path style="fill:none;stroke:red;stroke-width:1px;stroke-linecap:butt;stroke-linejoin:miter;stroke-opacity:1" d="M 776.397,460.244 757.466,467.817 z" id="boundary" inkscape:connector-curvature="0" />
	<path style="fill:none;stroke:red;stroke-width:1px;stroke-linecap:butt;stroke-linejoin:miter;stroke-opacity:1" d="M 757.466,467.817 738.534,460.244 z" id="boundary" inkscape:connector-curvature="0" />
	<path style="fill:none;stroke:red;stroke-width:1px;stroke-linecap:butt;stroke-linejoin:miter;stroke-opacity:1" d="M 621.16,471.603 621.16,490.534 z" id="boundary" inkscape:connector-curvature="0" />
	<path style="fill:none;stroke:red;stroke-width:1px;stroke-linecap:butt;stroke-linejoin:miter;stroke-opacity:1" d="M 630.626,507.573 621.16,490.534 z" id="boundary" inkscape:connector-curvature="0" />
	<path style="fill:none;stroke:red;stroke-width:1px;stroke-linecap:butt;stroke-linejoin:miter;stroke-opacity:1" d="M 621.16,630.626 621.16,649.557 z" id="boundary" inkscape:connector-curvature="0" />
	<path style="fill:none;stroke:red;stroke-width:1px;stroke-linecap:butt;stroke-linejoin:miter;stroke-opacity:1" d="M 621.16,630.626 630.626,602.229 z" id="boundary" inkscape:connector-curvature="0" />
	<path style="fill:none;stroke:red;stroke-width:1px;stroke-linecap:butt;stroke-linejoin:miter;stroke-opacity:1" d="M 621.16,668.489 621.16,649.557 z" id="boundary" inkscape:connector-curvature="0" />
	<path style="fill:none;stroke:red;stroke-width:1px;stroke-linecap:butt;stroke-linejoin:miter;stroke-opacity:1" d="M 630.626,507.573 630.626,526.504 z" id="boundary" inkscape:connector-curvature="0" />
	<path style="fill:none;stroke:red;stroke-width:1px;stroke-linecap:butt;stroke-linejoin:miter;stroke-opacity:1" d="M 630.626,545.435 630.626,526.504 z" id="boundary" inkscape:connector-curvature="0" />
	<path style="fill:none;stroke:red;stroke-width:1px;stroke-linecap:butt;stroke-linejoin:miter;stroke-opacity:1" d="M 630.626,564.366 630.626,583.298 z" id="boundary" inkscape:connector-curvature="0" />
	<path style="fill:none;stroke:red;stroke-width:1px;stroke-linecap:butt;stroke-linejoin:miter;stroke-opacity:1" d="M 630.626,602.229 630.626,583.298 z" id="boundary" inkscape:connector-curvature="0" />
	<path style="fill:none;stroke:red;stroke-width:1px;stroke-linecap:butt;stroke-linejoin:miter;stroke-opacity:1" d="M 630.626,564.366 630.626,545.435 z" id="boundary" inkscape:connector-curvature="0" />
	<path style="fill:none;stroke:red;stroke-width:1px;stroke-linecap:butt;stroke-linejoin:miter;stroke-opacity:1" d="M 429.954,13.4656 446.992,22.9313 z" id="boundary" inkscape:connector-curvature="0" />
	<circle cx="4" cy="255.786" r="4" fill="#0" id="circle0"/>
	<circle cx="13.4656" cy="236.855" r="4" fill="#0" id="circle1"/>
	<circle cx="19.145" cy="269.038" r="4" fill="#0" id="circle2"/>
	<circle cx="28.6107" cy="221.71" r="4" fill="#0" id="circle3"/>
	<circle cx="32.3969" cy="284.183" r="4" fill="#0" id="circle4"/>
	<circle cx="32.3969" cy="710.137" r="4" fill="#0" id="circle5"/>
	<circle cx="32.3969" cy="729.069" r="4" fill="#0" id="circle6"/>
	<circle cx="32.3969" cy="748" r="4" fill="#0" id="circle7"/>
	<circle cx="41.8626" cy="691.206" r="4" fill="#0" id="circle8"/>
	<circle cx="41.8626" cy="765.038" r="4" fill="#0" id="circle9"/>
	<circle cx="43.7557" cy="206.565" r="4" fill="#0" id="circle10"/>
	<circle cx="47.542" cy="297.435" r="4" fill="#0" id="circle11"/>
	<circle cx="51.3282" cy="672.275" r="4" fill="#0" id="circle12"/>
	<circle cx="51.3282" cy="782.076" r="4" fill="#0" id="circle13"/>
	<circle cx="58.9008" cy="193.313" r="4" fill="#0" id="circle14"/>
	<circle cx="62.687" cy="797.221" r="4" fill="#0" id="circle15"/>
	<circle cx="64.5802" cy="306.901" r="4" fill="#0" id="circle16"/>
	<circle cx="66.4733" cy="657.13" r="4" fill="#0" id="circle17"/>
	<circle cx="72.1527" cy="814.26" r="4" fill="#0" id="circle18"/>
	<circle cx="75.9389" cy="183.847" r="4" fill="#0" id="circle19"/>
	<circle cx="79.7252" cy="435.634" r="4" fill="#0" id="circle20"/>
	<circle cx="81.6183" cy="641.985" r="4" fill="#0" id="circle21"/>
	<circle cx="83.5115" cy="308.794" r="4" fill="#0" id="circle22"/>
	<circle cx="85.4046" cy="829.405" r="4" fill="#0" id="circle23"/>
	<circle cx="89.1908" cy="407.237" r="4" fill="#0" id="circle24"/>
	<circle cx="89.1908" cy="452.672" r="4" fill="#0" id="circle25"/>
	<circle cx="89.1908" cy="471.603" r="4" fill="#0" id="circle26"/>
	<circle cx="92.9771" cy="174.382" r="4" fill="#0" id="circle27"/>
	<circle cx="96.7634" cy="628.733" r="4" fill="#0" id="circle28"/>
	<circle cx="98.6565" cy="378.84" r="4" fill="#0" id="circle29"/>
	<circle cx="98.6565" cy="488.641" r="4" fill="#0" id="circle30"/>
	<circle cx="100.55" cy="299.328" r="4" fill="#0" id="circle31"/>
	<circle cx="102.443" cy="838.87" r="4" fill="#0" id="circle32"/>
	<circle cx="108.122" cy="350.443" r="4" fill="#0" id="circle33"/>
	<circle cx="108.122" cy="520.824" r="4" fill="#0" id="circle34"/>
	<circle cx="108.122" cy="549.221" r="4" fill="#0" id="circle35"/>
	<circle cx="108.122" cy="568.153" r="4" fill="#0" id="circle36"/>
	<circle cx="108.122" cy="606.015" r="4" fill="#0" id="circle37"/>
	<circle cx="110.015" cy="164.916" r="4" fill="#0" id="circle38"/>
	<circle cx="117.588" cy="488.641" r="4" fill="#0" id="circle39"/>
	<circle cx="117.588" cy="585.191" r="4" fill="#0" id="circle40"/>
	<circle cx="119.481" cy="289.863" r="4" fill="#0" id="circle41"/>
	<circle cx="121.374" cy="838.87" r="4" fill="#0" id="circle42"/>
	<circle cx="123.267" cy="335.298" r="4" fill="#0" id="circle43"/>
	<circle cx="128.947" cy="159.237" r="4" fill="#0" id="circle44"/>
	<circle cx="134.626" cy="276.611" r="4" fill="#0" id="circle45"/>
	<circle cx="136.519" cy="312.58" r="4" fill="#0" id="circle46"/>
	<circle cx="136.519" cy="823.725" r="4" fill="#0" id="circle47"/>
	<circle cx="145.985" cy="293.649" r="4" fill="#0" id="circle48"/>
	<circle cx="147.878" cy="155.45" r="4" fill="#0" id="circle49"/>
	<circle cx="153.557" cy="270.931" r="4" fill="#0" id="circle50"/>
	<circle cx="155.45" cy="819.939" r="4" fill="#0" id="circle51"/>
	<circle cx="164.916" cy="142.198" r="4" fill="#0" id="circle52"/>
	<circle cx="164.916" cy="836.977" r="4" fill="#0" id="circle53"/>
	<circle cx="164.916" cy="855.908" r="4" fill="#0" id="circle54"/>
	<circle cx="174.382" cy="872.947" r="4" fill="#0" id="circle55"/>
	<circle cx="180.061" cy="127.053" r="4" fill="#0" id="circle56"/>
	<circle cx="183.847" cy="889.985" r="4" fill="#0" id="circle57"/>
	<circle cx="189.527" cy="108.122" r="4" fill="#0" id="circle58"/>
	<circle cx="193.313" cy="907.023" r="4" fill="#0" id="circle59"/>
	<circle cx="198.992" cy="89.1908" r="4" fill="#0" id="circle60"/>
	<circle cx="206.565" cy="922.168" r="4" fill="#0" id="circle61"/>
	<circle cx="217.924" cy="79.7252" r="4" fill="#0" id="circle62"/>
	<circle cx="221.71" cy="933.527" r="4" fill="#0" id="circle63"/>
	<circle cx="233.069" cy="64.5802" r="4" fill="#0" id="circle64"/>
	<circle cx="233.069" cy="948.672" r="4" fill="#0" id="circle65"/>
	<circle cx="248.214" cy="51.3282" r="4" fill="#0" id="circle66"/>
	<circle cx="248.214" cy="961.924" r="4" fill="#0" id="circle67"/>
	<circle cx="265.252" cy="41.8626" r="4" fill="#0" id="circle68"/>
	<circle cx="265.252" cy="971.389" r="4" fill="#0" id="circle69"/>
	<circle cx="282.29" cy="32.3969" r="4" fill="#0" id="circle70"/>
	<circle cx="284.183" cy="978.962" r="4" fill="#0" id="circle71"/>
	<circle cx="299.328" cy="22.9313" r="4" fill="#0" id="circle72"/>
	<circle cx="303.115" cy="980.855" r="4" fill="#0" id="circle73"/>
	<circle cx="318.26" cy="17.2519" r="4" fill="#0" id="circle74"/>
	<circle cx="320.153" cy="990.321" r="4" fill="#0" id="circle75"/>
	<circle cx="337.191" cy="13.4656" r="4" fill="#0" id="circle76"/>
	<circle cx="339.084" cy="990.321" r="4" fill="#0" id="circle77"/>
	<circle cx="356.122" cy="7.78626" r="4" fill="#0" id="circle78"/>
	<circle cx="358.015" cy="990.321" r="4" fill="#0" id="circle79"/>
	<circle cx="375.053" cy="4" r="4" fill="#0" id="circle80"/>
	<circle cx="376.947" cy="996" r="4" fill="#0" id="circle81"/>
	<circle cx="393.985" cy="4" r="4" fill="#0" id="circle82"/>
	<circle cx="395.878" cy="990.321" r="4" fill="#0" id="circle83"/>
	<circle cx="411.023" cy="13.4656" r="4" fill="#0" id="circle84"/>
	<circle cx="414.809" cy="990.321" r="4" fill="#0" id="circle85"/>
	<circle cx="429.954" cy="13.4656" r="4" fill="#0" id="circle86"/>
	<circle cx="433.74" cy="990.321" r="4" fill="#0" id="circle87"/>
	<circle cx="446.992" cy="22.9313" r="4" fill="#0" id="circle88"/>
	<circle cx="450.779" cy="980.855" r="4" fill="#0" id="circle89"/>
	<circle cx="464.031" cy="32.3969" r="4" fill="#0" id="circle90"/>
	<circle cx="469.71" cy="971.389" r="4" fill="#0" id="circle91"/>
	<circle cx="481.069" cy="41.8626" r="4" fill="#0" id="circle92"/>
	<circle cx="488.641" cy="961.924" r="4" fill="#0" id="circle93"/>
	<circle cx="498.107" cy="51.3282" r="4" fill="#0" id="circle94"/>
	<circle cx="503.786" cy="948.672" r="4" fill="#0" id="circle95"/>
	<circle cx="513.252" cy="62.687" r="4" fill="#0" id="circle96"/>
	<circle cx="522.718" cy="939.206" r="4" fill="#0" id="circle97"/>
	<circle cx="526.504" cy="77.8321" r="4" fill="#0" id="circle98"/>
	<circle cx="535.969" cy="924.061" r="4" fill="#0" id="circle99"/>
	<circle cx="541.649" cy="91.084" r="4" fill="#0" id="circle100"/>
	<circle cx="551.115" cy="910.809" r="4" fill="#0" id="circle101"/>
	<circle cx="554.901" cy="106.229" r="4" fill="#0" id="circle102"/>
	<circle cx="554.901" cy="337.191" r="4" fill="#0" id="circle103"/>
	<circle cx="554.901" cy="356.122" r="4" fill="#0" id="circle104"/>
	<circle cx="560.58" cy="891.878" r="4" fill="#0" id="circle105"/>
	<circle cx="564.366" cy="123.267" r="4" fill="#0" id="circle106"/>
	<circle cx="564.366" cy="373.16" r="4" fill="#0" id="circle107"/>
	<circle cx="570.046" cy="872.947" r="4" fill="#0" id="circle108"/>
	<circle cx="571.939" cy="327.725" r="4" fill="#0" id="circle109"/>
	<circle cx="573.832" cy="140.305" r="4" fill="#0" id="circle110"/>
	<circle cx="579.511" cy="384.519" r="4" fill="#0" id="circle111"/>
	<circle cx="579.511" cy="854.015" r="4" fill="#0" id="circle112"/>
	<circle cx="583.298" cy="157.344" r="4" fill="#0" id="circle113"/>
	<circle cx="583.298" cy="782.076" r="4" fill="#0" id="circle114"/>
	<circle cx="583.298" cy="801.008" r="4" fill="#0" id="circle115"/>
	<circle cx="583.298" cy="819.939" r="4" fill="#0" id="circle116"/>
	<circle cx="587.084" cy="403.45" r="4" fill="#0" id="circle117"/>
	<circle cx="588.977" cy="337.191" r="4" fill="#0" id="circle118"/>
	<circle cx="592.763" cy="174.382" r="4" fill="#0" id="circle119"/>
	<circle cx="592.763" cy="193.313" r="4" fill="#0" id="circle120"/>
	<circle cx="592.763" cy="212.244" r="4" fill="#0" id="circle121"/>
	<circle cx="592.763" cy="744.214" r="4" fill="#0" id="circle122"/>
	<circle cx="592.763" cy="763.145" r="4" fill="#0" id="circle123"/>
	<circle cx="602.229" cy="352.336" r="4" fill="#0" id="circle124"/>
	<circle cx="602.229" cy="416.702" r="4" fill="#0" id="circle125"/>
	<circle cx="602.229" cy="715.817" r="4" fill="#0" id="circle126"/>
	<circle cx="607.908" cy="223.603" r="4" fill="#0" id="circle127"/>
	<circle cx="609.802" cy="435.634" r="4" fill="#0" id="circle128"/>
	<circle cx="611.695" cy="687.42" r="4" fill="#0" id="circle129"/>
	<circle cx="617.374" cy="365.588" r="4" fill="#0" id="circle130"/>
	<circle cx="619.267" cy="452.672" r="4" fill="#0" id="circle131"/>
	<circle cx="621.16" cy="238.748" r="4" fill="#0" id="circle132"/>
	<circle cx="621.16" cy="471.603" r="4" fill="#0" id="circle133"/>
	<circle cx="621.16" cy="490.534" r="4" fill="#0" id="circle134"/>
	<circle cx="621.16" cy="630.626" r="4" fill="#0" id="circle135"/>
	<circle cx="621.16" cy="649.557" r="4" fill="#0" id="circle136"/>
	<circle cx="621.16" cy="668.489" r="4" fill="#0" id="circle137"/>
	<circle cx="630.626" cy="380.733" r="4" fill="#0" id="circle138"/>
	<circle cx="630.626" cy="507.573" r="4" fill="#0" id="circle139"/>
	<circle cx="630.626" cy="526.504" r="4" fill="#0" id="circle140"/>
	<circle cx="630.626" cy="545.435" r="4" fill="#0" id="circle141"/>
	<circle cx="630.626" cy="564.366" r="4" fill="#0" id="circle142"/>
	<circle cx="630.626" cy="583.298" r="4" fill="#0" id="circle143"/>
	<circle cx="630.626" cy="602.229" r="4" fill="#0" id="circle144"/>
	<circle cx="636.305" cy="250.107" r="4" fill="#0" id="circle145"/>
	<circle cx="645.771" cy="393.985" r="4" fill="#0" id="circle146"/>
	<circle cx="653.344" cy="259.573" r="4" fill="#0" id="circle147"/>
	<circle cx="659.023" cy="409.13" r="4" fill="#0" id="circle148"/>
	<circle cx="670.382" cy="269.038" r="4" fill="#0" id="circle149"/>
	<circle cx="674.168" cy="422.382" r="4" fill="#0" id="circle150"/>
	<circle cx="685.527" cy="282.29" r="4" fill="#0" id="circle151"/>
	<circle cx="687.42" cy="437.527" r="4" fill="#0" id="circle152"/>
	<circle cx="696.885" cy="297.435" r="4" fill="#0" id="circle153"/>
	<circle cx="702.565" cy="450.779" r="4" fill="#0" id="circle154"/>
	<circle cx="715.817" cy="303.115" r="4" fill="#0" id="circle155"/>
	<circle cx="719.603" cy="460.244" r="4" fill="#0" id="circle156"/>
	<circle cx="729.069" cy="318.26" r="4" fill="#0" id="circle157"/>
	<circle cx="738.534" cy="460.244" r="4" fill="#0" id="circle158"/>
	<circle cx="744.214" cy="331.511" r="4" fill="#0" id="circle159"/>
	<circle cx="753.679" cy="348.55" r="4" fill="#0" id="circle160"/>
	<circle cx="757.466" cy="467.817" r="4" fill="#0" id="circle161"/>
	<circle cx="770.718" cy="358.015" r="4" fill="#0" id="circle162"/>
	<circle cx="776.397" cy="460.244" r="4" fill="#0" id="circle163"/>
	<circle cx="778.29" cy="376.947" r="4" fill="#0" id="circle164"/>
	<circle cx="791.542" cy="392.092" r="4" fill="#0" id="circle165"/>
	<circle cx="793.435" cy="450.779" r="4" fill="#0" id="circle166"/>
	<circle cx="806.687" cy="403.45" r="4" fill="#0" id="circle167"/>
	<circle cx="810.473" cy="422.382" r="4" fill="#0" id="circle168"/>
	<circle cx="810.473" cy="441.313" r="4" fill="#0" id="circle169"/>
	</g>
</svg>