<?xml version="1.0" encoding="UTF-8" standalone="no"?>
<!-- Created with CurveBenchmark -->
<svg
	xmlns:dc="http://purl.org/dc/elements/1.1/"
	xmlns:cc="http://creativecommons.org/ns#"
	xmlns:rdf="http://www.w3.org/1999/02/22-rdf-syntax-ns#"
	xmlns:svg="http://www.w3.org/2000/svg"
	xmlns="http://www.w3.org/2000/svg"
	xmlns:sodipodi="http://sodipodi.sourceforge.net/DTD/sodipodi-0.dtd"
	xmlns:inkscape="http://www.inkscape.org/namespaces/inkscape"
	width="1000"
	height="1000"
	id="svg2"
	version="1.1"
	sodipodi:docname="manifold/gathan1-Bone01.png.txt">
<defs
	id="defs4" />
<metadata
	id="metadata7">
	<rdf:RDF>
		<cc:Work
			rdf:about="">
			<dc:format>image/svg+xml</dc:format>
			<dc:type
				rdf:resource="http://purl.org/dc/dcmitype/StillImage" />
			<dc:title></dc:title>
		</cc:Work>
	</rdf:RDF>
</metadata>
<g
	inkscape:label="Layer 1"
	inkscape:groupmode="layer"
	id="layer1">
	<path style="fill:none;stroke:red;stroke-width:1px;stroke-linecap:butt;stroke-linejoin:miter;stroke-opacity:1" d="M 237.708,668.136 224.258,679.905 z" id="boundary" inkscape:connector-curvature="0" />
	<path style="fill:none;stroke:red;stroke-width:1px;stroke-linecap:butt;stroke-linejoin:miter;stroke-opacity:1" d="M 247.797,639.553 237.708,668.136 z" id="boundary" inkscape:connector-curvature="0" />
	<path style="fill:none;stroke:red;stroke-width:1px;stroke-linecap:butt;stroke-linejoin:miter;stroke-opacity:1" d="M 199.037,730.346 207.444,713.532 z" id="boundary" inkscape:connector-curvature="0" />
	<path style="fill:none;stroke:red;stroke-width:1px;stroke-linecap:butt;stroke-linejoin:miter;stroke-opacity:1" d="M 199.037,730.346 185.586,743.797 z" id="boundary" inkscape:connector-curvature="0" />
	<path style="fill:none;stroke:red;stroke-width:1px;stroke-linecap:butt;stroke-linejoin:miter;stroke-opacity:1" d="M 215.851,696.719 207.444,713.532 z" id="boundary" inkscape:connector-curvature="0" />
	<path style="fill:none;stroke:red;stroke-width:1px;stroke-linecap:butt;stroke-linejoin:miter;stroke-opacity:1" d="M 215.851,696.719 224.258,679.905 z" id="boundary" inkscape:connector-curvature="0" />
	<path style="fill:none;stroke:red;stroke-width:1px;stroke-linecap:butt;stroke-linejoin:miter;stroke-opacity:1" d="M 273.017,614.332 281.424,597.519 z" id="boundary" inkscape:connector-curvature="0" />
	<path style="fill:none;stroke:red;stroke-width:1px;stroke-linecap:butt;stroke-linejoin:miter;stroke-opacity:1" d="M 289.831,572.298 281.424,597.519 z" id="boundary" inkscape:connector-curvature="0" />
	<path style="fill:none;stroke:red;stroke-width:1px;stroke-linecap:butt;stroke-linejoin:miter;stroke-opacity:1" d="M 273.017,614.332 264.61,631.146 z" id="boundary" inkscape:connector-curvature="0" />
	<path style="fill:none;stroke:red;stroke-width:1px;stroke-linecap:butt;stroke-linejoin:miter;stroke-opacity:1" d="M 264.61,631.146 247.797,639.553 z" id="boundary" inkscape:connector-curvature="0" />
	<path style="fill:none;stroke:red;stroke-width:1px;stroke-linecap:butt;stroke-linejoin:miter;stroke-opacity:1" d="M 46.0339,757.247 62.8475,752.203 z" id="boundary" inkscape:connector-curvature="0" />
	<path style="fill:none;stroke:red;stroke-width:1px;stroke-linecap:butt;stroke-linejoin:miter;stroke-opacity:1" d="M 34.2644,777.424 46.0339,757.247 z" id="boundary" inkscape:connector-curvature="0" />
	<path style="fill:none;stroke:red;stroke-width:1px;stroke-linecap:butt;stroke-linejoin:miter;stroke-opacity:1" d="M 79.661,752.203 62.8475,752.203 z" id="boundary" inkscape:connector-curvature="0" />
	<path style="fill:none;stroke:red;stroke-width:1px;stroke-linecap:butt;stroke-linejoin:miter;stroke-opacity:1" d="M 79.661,752.203 96.4746,755.566 z" id="boundary" inkscape:connector-curvature="0" />
	<path style="fill:none;stroke:red;stroke-width:1px;stroke-linecap:butt;stroke-linejoin:miter;stroke-opacity:1" d="M 111.607,763.973 96.4746,755.566 z" id="boundary" inkscape:connector-curvature="0" />
	<path style="fill:none;stroke:red;stroke-width:1px;stroke-linecap:butt;stroke-linejoin:miter;stroke-opacity:1" d="M 111.607,763.973 121.695,777.424 z" id="boundary" inkscape:connector-curvature="0" />
	<path style="fill:none;stroke:red;stroke-width:1px;stroke-linecap:butt;stroke-linejoin:miter;stroke-opacity:1" d="M 283.105,745.478 266.292,753.885 z" id="boundary" inkscape:connector-curvature="0" />
	<path style="fill:none;stroke:red;stroke-width:1px;stroke-linecap:butt;stroke-linejoin:miter;stroke-opacity:1" d="M 291.512,720.258 283.105,745.478 z" id="boundary" inkscape:connector-curvature="0" />
	<path style="fill:none;stroke:red;stroke-width:1px;stroke-linecap:butt;stroke-linejoin:miter;stroke-opacity:1" d="M 178.861,760.61 185.586,743.797 z" id="boundary" inkscape:connector-curvature="0" />
	<path style="fill:none;stroke:red;stroke-width:1px;stroke-linecap:butt;stroke-linejoin:miter;stroke-opacity:1" d="M 266.292,770.698 266.292,753.885 z" id="boundary" inkscape:connector-curvature="0" />
	<path style="fill:none;stroke:red;stroke-width:1px;stroke-linecap:butt;stroke-linejoin:miter;stroke-opacity:1" d="M 178.861,760.61 165.41,772.38 z" id="boundary" inkscape:connector-curvature="0" />
	<path style="fill:none;stroke:red;stroke-width:1px;stroke-linecap:butt;stroke-linejoin:miter;stroke-opacity:1" d="M 266.292,770.698 249.478,779.105 z" id="boundary" inkscape:connector-curvature="0" />
	<path style="fill:none;stroke:red;stroke-width:1px;stroke-linecap:butt;stroke-linejoin:miter;stroke-opacity:1" d="M 323.458,521.858 336.908,508.407 z" id="boundary" inkscape:connector-curvature="0" />
	<path style="fill:none;stroke:red;stroke-width:1px;stroke-linecap:butt;stroke-linejoin:miter;stroke-opacity:1" d="M 348.678,488.231 336.908,508.407 z" id="boundary" inkscape:connector-curvature="0" />
	<path style="fill:none;stroke:red;stroke-width:1px;stroke-linecap:butt;stroke-linejoin:miter;stroke-opacity:1" d="M 311.688,542.034 323.458,521.858 z" id="boundary" inkscape:connector-curvature="0" />
	<path style="fill:none;stroke:red;stroke-width:1px;stroke-linecap:butt;stroke-linejoin:miter;stroke-opacity:1" d="M 311.688,542.034 303.281,558.847 z" id="boundary" inkscape:connector-curvature="0" />
	<path style="fill:none;stroke:red;stroke-width:1px;stroke-linecap:butt;stroke-linejoin:miter;stroke-opacity:1" d="M 303.281,558.847 289.831,572.298 z" id="boundary" inkscape:connector-curvature="0" />
	<path style="fill:none;stroke:red;stroke-width:1px;stroke-linecap:butt;stroke-linejoin:miter;stroke-opacity:1" d="M 399.119,568.936 389.031,582.386 z" id="boundary" inkscape:connector-curvature="0" />
	<path style="fill:none;stroke:red;stroke-width:1px;stroke-linecap:butt;stroke-linejoin:miter;stroke-opacity:1" d="M 357.085,471.417 348.678,488.231 z" id="boundary" inkscape:connector-curvature="0" />
	<path style="fill:none;stroke:red;stroke-width:1px;stroke-linecap:butt;stroke-linejoin:miter;stroke-opacity:1" d="M 390.712,412.569 392.393,429.383 z" id="boundary" inkscape:connector-curvature="0" />
	<path style="fill:none;stroke:red;stroke-width:1px;stroke-linecap:butt;stroke-linejoin:miter;stroke-opacity:1" d="M 392.393,429.383 378.942,441.153 z" id="boundary" inkscape:connector-curvature="0" />
	<path style="fill:none;stroke:red;stroke-width:1px;stroke-linecap:butt;stroke-linejoin:miter;stroke-opacity:1" d="M 390.712,412.569 407.525,404.163 z" id="boundary" inkscape:connector-curvature="0" />
	<path style="fill:none;stroke:red;stroke-width:1px;stroke-linecap:butt;stroke-linejoin:miter;stroke-opacity:1" d="M 378.942,441.153 370.536,457.966 z" id="boundary" inkscape:connector-curvature="0" />
	<path style="fill:none;stroke:red;stroke-width:1px;stroke-linecap:butt;stroke-linejoin:miter;stroke-opacity:1" d="M 370.536,457.966 357.085,471.417 z" id="boundary" inkscape:connector-curvature="0" />
	<path style="fill:none;stroke:red;stroke-width:1px;stroke-linecap:butt;stroke-linejoin:miter;stroke-opacity:1" d="M 325.139,669.817 338.59,658.047 z" id="boundary" inkscape:connector-curvature="0" />
	<path style="fill:none;stroke:red;stroke-width:1px;stroke-linecap:butt;stroke-linejoin:miter;stroke-opacity:1" d="M 313.369,691.675 325.139,669.817 z" id="boundary" inkscape:connector-curvature="0" />
	<path style="fill:none;stroke:red;stroke-width:1px;stroke-linecap:butt;stroke-linejoin:miter;stroke-opacity:1" d="M 304.963,708.488 291.512,720.258 z" id="boundary" inkscape:connector-curvature="0" />
	<path style="fill:none;stroke:red;stroke-width:1px;stroke-linecap:butt;stroke-linejoin:miter;stroke-opacity:1" d="M 313.369,691.675 304.963,708.488 z" id="boundary" inkscape:connector-curvature="0" />
	<path style="fill:none;stroke:red;stroke-width:1px;stroke-linecap:butt;stroke-linejoin:miter;stroke-opacity:1" d="M 338.59,658.047 350.359,644.597 z" id="boundary" inkscape:connector-curvature="0" />
	<path style="fill:none;stroke:red;stroke-width:1px;stroke-linecap:butt;stroke-linejoin:miter;stroke-opacity:1" d="M 380.624,599.2 367.173,610.969 z" id="boundary" inkscape:connector-curvature="0" />
	<path style="fill:none;stroke:red;stroke-width:1px;stroke-linecap:butt;stroke-linejoin:miter;stroke-opacity:1" d="M 350.359,644.597 358.766,627.783 z" id="boundary" inkscape:connector-curvature="0" />
	<path style="fill:none;stroke:red;stroke-width:1px;stroke-linecap:butt;stroke-linejoin:miter;stroke-opacity:1" d="M 358.766,627.783 367.173,610.969 z" id="boundary" inkscape:connector-curvature="0" />
	<path style="fill:none;stroke:red;stroke-width:1px;stroke-linecap:butt;stroke-linejoin:miter;stroke-opacity:1" d="M 389.031,582.386 380.624,599.2 z" id="boundary" inkscape:connector-curvature="0" />
	<path style="fill:none;stroke:red;stroke-width:1px;stroke-linecap:butt;stroke-linejoin:miter;stroke-opacity:1" d="M 4,799.281 17.4508,785.831 z" id="boundary" inkscape:connector-curvature="0" />
	<path style="fill:none;stroke:red;stroke-width:1px;stroke-linecap:butt;stroke-linejoin:miter;stroke-opacity:1" d="M 4,816.095 4,799.281 z" id="boundary" inkscape:connector-curvature="0" />
	<path style="fill:none;stroke:red;stroke-width:1px;stroke-linecap:butt;stroke-linejoin:miter;stroke-opacity:1" d="M 4,816.095 12.4068,831.227 z" id="boundary" inkscape:connector-curvature="0" />
	<path style="fill:none;stroke:red;stroke-width:1px;stroke-linecap:butt;stroke-linejoin:miter;stroke-opacity:1" d="M 12.4068,831.227 12.4068,848.041 z" id="boundary" inkscape:connector-curvature="0" />
	<path style="fill:none;stroke:red;stroke-width:1px;stroke-linecap:butt;stroke-linejoin:miter;stroke-opacity:1" d="M 20.8136,863.173 12.4068,848.041 z" id="boundary" inkscape:connector-curvature="0" />
	<path style="fill:none;stroke:red;stroke-width:1px;stroke-linecap:butt;stroke-linejoin:miter;stroke-opacity:1" d="M 17.4508,785.831 34.2644,777.424 z" id="boundary" inkscape:connector-curvature="0" />
	<path style="fill:none;stroke:red;stroke-width:1px;stroke-linecap:butt;stroke-linejoin:miter;stroke-opacity:1" d="M 35.9458,888.393 20.8136,879.986 z" id="boundary" inkscape:connector-curvature="0" />
	<path style="fill:none;stroke:red;stroke-width:1px;stroke-linecap:butt;stroke-linejoin:miter;stroke-opacity:1" d="M 20.8136,879.986 20.8136,863.173 z" id="boundary" inkscape:connector-curvature="0" />
	<path style="fill:none;stroke:red;stroke-width:1px;stroke-linecap:butt;stroke-linejoin:miter;stroke-opacity:1" d="M 52.7593,888.393 35.9458,888.393 z" id="boundary" inkscape:connector-curvature="0" />
	<path style="fill:none;stroke:red;stroke-width:1px;stroke-linecap:butt;stroke-linejoin:miter;stroke-opacity:1" d="M 52.7593,888.393 69.5729,888.393 z" id="boundary" inkscape:connector-curvature="0" />
	<path style="fill:none;stroke:red;stroke-width:1px;stroke-linecap:butt;stroke-linejoin:miter;stroke-opacity:1" d="M 88.0678,925.383 88.0678,942.197 z" id="boundary" inkscape:connector-curvature="0" />
	<path style="fill:none;stroke:red;stroke-width:1px;stroke-linecap:butt;stroke-linejoin:miter;stroke-opacity:1" d="M 69.5729,888.393 86.3864,888.393 z" id="boundary" inkscape:connector-curvature="0" />
	<path style="fill:none;stroke:red;stroke-width:1px;stroke-linecap:butt;stroke-linejoin:miter;stroke-opacity:1" d="M 86.3864,888.393 96.4746,908.569 z" id="boundary" inkscape:connector-curvature="0" />
	<path style="fill:none;stroke:red;stroke-width:1px;stroke-linecap:butt;stroke-linejoin:miter;stroke-opacity:1" d="M 96.4746,908.569 88.0678,925.383 z" id="boundary" inkscape:connector-curvature="0" />
	<path style="fill:none;stroke:red;stroke-width:1px;stroke-linecap:butt;stroke-linejoin:miter;stroke-opacity:1" d="M 88.0678,942.197 88.0678,959.01 z" id="boundary" inkscape:connector-curvature="0" />
	<path style="fill:none;stroke:red;stroke-width:1px;stroke-linecap:butt;stroke-linejoin:miter;stroke-opacity:1" d="M 104.881,964.054 88.0678,959.01 z" id="boundary" inkscape:connector-curvature="0" />
	<path style="fill:none;stroke:red;stroke-width:1px;stroke-linecap:butt;stroke-linejoin:miter;stroke-opacity:1" d="M 104.881,964.054 120.014,972.461 z" id="boundary" inkscape:connector-curvature="0" />
	<path style="fill:none;stroke:red;stroke-width:1px;stroke-linecap:butt;stroke-linejoin:miter;stroke-opacity:1" d="M 135.146,980.868 120.014,972.461 z" id="boundary" inkscape:connector-curvature="0" />
	<path style="fill:none;stroke:red;stroke-width:1px;stroke-linecap:butt;stroke-linejoin:miter;stroke-opacity:1" d="M 165.41,772.38 153.641,785.831 z" id="boundary" inkscape:connector-curvature="0" />
	<path style="fill:none;stroke:red;stroke-width:1px;stroke-linecap:butt;stroke-linejoin:miter;stroke-opacity:1" d="M 153.641,785.831 138.508,777.424 z" id="boundary" inkscape:connector-curvature="0" />
	<path style="fill:none;stroke:red;stroke-width:1px;stroke-linecap:butt;stroke-linejoin:miter;stroke-opacity:1" d="M 138.508,777.424 121.695,777.424 z" id="boundary" inkscape:connector-curvature="0" />
	<path style="fill:none;stroke:red;stroke-width:1px;stroke-linecap:butt;stroke-linejoin:miter;stroke-opacity:1" d="M 224.258,821.139 227.62,837.953 z" id="boundary" inkscape:connector-curvature="0" />
	<path style="fill:none;stroke:red;stroke-width:1px;stroke-linecap:butt;stroke-linejoin:miter;stroke-opacity:1" d="M 224.258,821.139 237.708,809.369 z" id="boundary" inkscape:connector-curvature="0" />
	<path style="fill:none;stroke:red;stroke-width:1px;stroke-linecap:butt;stroke-linejoin:miter;stroke-opacity:1" d="M 249.478,779.105 249.478,795.919 z" id="boundary" inkscape:connector-curvature="0" />
	<path style="fill:none;stroke:red;stroke-width:1px;stroke-linecap:butt;stroke-linejoin:miter;stroke-opacity:1" d="M 249.478,795.919 237.708,809.369 z" id="boundary" inkscape:connector-curvature="0" />
	<path style="fill:none;stroke:red;stroke-width:1px;stroke-linecap:butt;stroke-linejoin:miter;stroke-opacity:1" d="M 232.664,854.766 227.62,837.953 z" id="boundary" inkscape:connector-curvature="0" />
	<path style="fill:none;stroke:red;stroke-width:1px;stroke-linecap:butt;stroke-linejoin:miter;stroke-opacity:1" d="M 232.664,871.58 232.664,854.766 z" id="boundary" inkscape:connector-curvature="0" />
	<path style="fill:none;stroke:red;stroke-width:1px;stroke-linecap:butt;stroke-linejoin:miter;stroke-opacity:1" d="M 241.071,886.712 232.664,871.58 z" id="boundary" inkscape:connector-curvature="0" />
	<path style="fill:none;stroke:red;stroke-width:1px;stroke-linecap:butt;stroke-linejoin:miter;stroke-opacity:1" d="M 193.993,972.461 210.807,970.78 z" id="boundary" inkscape:connector-curvature="0" />
	<path style="fill:none;stroke:red;stroke-width:1px;stroke-linecap:butt;stroke-linejoin:miter;stroke-opacity:1" d="M 180.542,984.231 193.993,972.461 z" id="boundary" inkscape:connector-curvature="0" />
	<path style="fill:none;stroke:red;stroke-width:1px;stroke-linecap:butt;stroke-linejoin:miter;stroke-opacity:1" d="M 224.258,955.647 210.807,970.78 z" id="boundary" inkscape:connector-curvature="0" />
	<path style="fill:none;stroke:red;stroke-width:1px;stroke-linecap:butt;stroke-linejoin:miter;stroke-opacity:1" d="M 180.542,984.231 167.092,996 z" id="boundary" inkscape:connector-curvature="0" />
	<path style="fill:none;stroke:red;stroke-width:1px;stroke-linecap:butt;stroke-linejoin:miter;stroke-opacity:1" d="M 167.092,996 151.959,987.593 z" id="boundary" inkscape:connector-curvature="0" />
	<path style="fill:none;stroke:red;stroke-width:1px;stroke-linecap:butt;stroke-linejoin:miter;stroke-opacity:1" d="M 135.146,980.868 151.959,987.593 z" id="boundary" inkscape:connector-curvature="0" />
	<path style="fill:none;stroke:red;stroke-width:1px;stroke-linecap:butt;stroke-linejoin:miter;stroke-opacity:1" d="M 249.478,918.658 241.071,903.525 z" id="boundary" inkscape:connector-curvature="0" />
	<path style="fill:none;stroke:red;stroke-width:1px;stroke-linecap:butt;stroke-linejoin:miter;stroke-opacity:1" d="M 241.071,903.525 241.071,886.712 z" id="boundary" inkscape:connector-curvature="0" />
	<path style="fill:none;stroke:red;stroke-width:1px;stroke-linecap:butt;stroke-linejoin:miter;stroke-opacity:1" d="M 257.885,933.79 249.478,918.658 z" id="boundary" inkscape:connector-curvature="0" />
	<path style="fill:none;stroke:red;stroke-width:1px;stroke-linecap:butt;stroke-linejoin:miter;stroke-opacity:1" d="M 224.258,955.647 241.071,938.834 z" id="boundary" inkscape:connector-curvature="0" />
	<path style="fill:none;stroke:red;stroke-width:1px;stroke-linecap:butt;stroke-linejoin:miter;stroke-opacity:1" d="M 241.071,938.834 257.885,933.79 z" id="boundary" inkscape:connector-curvature="0" />
	<path style="fill:none;stroke:red;stroke-width:1px;stroke-linecap:butt;stroke-linejoin:miter;stroke-opacity:1" d="M 538.671,29.2203 550.441,9.04407 z" id="boundary" inkscape:connector-curvature="0" />
	<path style="fill:none;stroke:red;stroke-width:1px;stroke-linecap:butt;stroke-linejoin:miter;stroke-opacity:1" d="M 550.441,9.04407 567.254,4 z" id="boundary" inkscape:connector-curvature="0" />
	<path style="fill:none;stroke:red;stroke-width:1px;stroke-linecap:butt;stroke-linejoin:miter;stroke-opacity:1" d="M 538.671,29.2203 525.22,42.6712 z" id="boundary" inkscape:connector-curvature="0" />
	<path style="fill:none;stroke:red;stroke-width:1px;stroke-linecap:butt;stroke-linejoin:miter;stroke-opacity:1" d="M 525.22,42.6712 513.451,71.2542 z" id="boundary" inkscape:connector-curvature="0" />
	<path style="fill:none;stroke:red;stroke-width:1px;stroke-linecap:butt;stroke-linejoin:miter;stroke-opacity:1" d="M 513.451,71.2542 500,84.7051 z" id="boundary" inkscape:connector-curvature="0" />
	<path style="fill:none;stroke:red;stroke-width:1px;stroke-linecap:butt;stroke-linejoin:miter;stroke-opacity:1" d="M 508.407,99.8373 500,84.7051 z" id="boundary" inkscape:connector-curvature="0" />
	<path style="fill:none;stroke:red;stroke-width:1px;stroke-linecap:butt;stroke-linejoin:miter;stroke-opacity:1" d="M 567.254,4 584.068,4 z" id="boundary" inkscape:connector-curvature="0" />
	<path style="fill:none;stroke:red;stroke-width:1px;stroke-linecap:butt;stroke-linejoin:miter;stroke-opacity:1" d="M 584.068,4 600.881,4 z" id="boundary" inkscape:connector-curvature="0" />
	<path style="fill:none;stroke:red;stroke-width:1px;stroke-linecap:butt;stroke-linejoin:miter;stroke-opacity:1" d="M 600.881,4 617.695,4 z" id="boundary" inkscape:connector-curvature="0" />
	<path style="fill:none;stroke:red;stroke-width:1px;stroke-linecap:butt;stroke-linejoin:miter;stroke-opacity:1" d="M 508.407,99.8373 516.814,114.969 z" id="boundary" inkscape:connector-curvature="0" />
	<path style="fill:none;stroke:red;stroke-width:1px;stroke-linecap:butt;stroke-linejoin:miter;stroke-opacity:1" d="M 516.814,114.969 521.858,131.783 z" id="boundary" inkscape:connector-curvature="0" />
	<path style="fill:none;stroke:red;stroke-width:1px;stroke-linecap:butt;stroke-linejoin:miter;stroke-opacity:1" d="M 521.858,214.169 513.451,230.983 z" id="boundary" inkscape:connector-curvature="0" />
	<path style="fill:none;stroke:red;stroke-width:1px;stroke-linecap:butt;stroke-linejoin:miter;stroke-opacity:1" d="M 521.858,131.783 525.22,148.597 z" id="boundary" inkscape:connector-curvature="0" />
	<path style="fill:none;stroke:red;stroke-width:1px;stroke-linecap:butt;stroke-linejoin:miter;stroke-opacity:1" d="M 525.22,148.597 533.627,163.729 z" id="boundary" inkscape:connector-curvature="0" />
	<path style="fill:none;stroke:red;stroke-width:1px;stroke-linecap:butt;stroke-linejoin:miter;stroke-opacity:1" d="M 533.627,163.729 533.627,180.542 z" id="boundary" inkscape:connector-curvature="0" />
	<path style="fill:none;stroke:red;stroke-width:1px;stroke-linecap:butt;stroke-linejoin:miter;stroke-opacity:1" d="M 535.308,200.719 533.627,180.542 z" id="boundary" inkscape:connector-curvature="0" />
	<path style="fill:none;stroke:red;stroke-width:1px;stroke-linecap:butt;stroke-linejoin:miter;stroke-opacity:1" d="M 521.858,214.169 535.308,200.719 z" id="boundary" inkscape:connector-curvature="0" />
	<path style="fill:none;stroke:red;stroke-width:1px;stroke-linecap:butt;stroke-linejoin:miter;stroke-opacity:1" d="M 617.695,4 634.508,4 z" id="boundary" inkscape:connector-curvature="0" />
	<path style="fill:none;stroke:red;stroke-width:1px;stroke-linecap:butt;stroke-linejoin:miter;stroke-opacity:1" d="M 664.773,14.0881 673.18,29.2203 z" id="boundary" inkscape:connector-curvature="0" />
	<path style="fill:none;stroke:red;stroke-width:1px;stroke-linecap:butt;stroke-linejoin:miter;stroke-opacity:1" d="M 664.773,14.0881 651.322,4 z" id="boundary" inkscape:connector-curvature="0" />
	<path style="fill:none;stroke:red;stroke-width:1px;stroke-linecap:butt;stroke-linejoin:miter;stroke-opacity:1" d="M 678.224,46.0339 678.224,62.8475 z" id="boundary" inkscape:connector-curvature="0" />
	<path style="fill:none;stroke:red;stroke-width:1px;stroke-linecap:butt;stroke-linejoin:miter;stroke-opacity:1" d="M 678.224,46.0339 673.18,29.2203 z" id="boundary" inkscape:connector-curvature="0" />
	<path style="fill:none;stroke:red;stroke-width:1px;stroke-linecap:butt;stroke-linejoin:miter;stroke-opacity:1" d="M 770.698,88.0678 753.885,88.0678 z" id="boundary" inkscape:connector-curvature="0" />
	<path style="fill:none;stroke:red;stroke-width:1px;stroke-linecap:butt;stroke-linejoin:miter;stroke-opacity:1" d="M 678.224,62.8475 686.631,77.9797 z" id="boundary" inkscape:connector-curvature="0" />
	<path style="fill:none;stroke:red;stroke-width:1px;stroke-linecap:butt;stroke-linejoin:miter;stroke-opacity:1" d="M 686.631,77.9797 703.444,84.7051 z" id="boundary" inkscape:connector-curvature="0" />
	<path style="fill:none;stroke:red;stroke-width:1px;stroke-linecap:butt;stroke-linejoin:miter;stroke-opacity:1" d="M 720.258,88.0678 737.071,88.0678 z" id="boundary" inkscape:connector-curvature="0" />
	<path style="fill:none;stroke:red;stroke-width:1px;stroke-linecap:butt;stroke-linejoin:miter;stroke-opacity:1" d="M 720.258,88.0678 703.444,84.7051 z" id="boundary" inkscape:connector-curvature="0" />
	<path style="fill:none;stroke:red;stroke-width:1px;stroke-linecap:butt;stroke-linejoin:miter;stroke-opacity:1" d="M 737.071,88.0678 753.885,88.0678 z" id="boundary" inkscape:connector-curvature="0" />
	<path style="fill:none;stroke:red;stroke-width:1px;stroke-linecap:butt;stroke-linejoin:miter;stroke-opacity:1" d="M 653.003,241.071 636.19,236.027 z" id="boundary" inkscape:connector-curvature="0" />
	<path style="fill:none;stroke:red;stroke-width:1px;stroke-linecap:butt;stroke-linejoin:miter;stroke-opacity:1" d="M 636.19,236.027 619.376,232.664 z" id="boundary" inkscape:connector-curvature="0" />
	<path style="fill:none;stroke:red;stroke-width:1px;stroke-linecap:butt;stroke-linejoin:miter;stroke-opacity:1" d="M 779.105,103.2 787.512,118.332 z" id="boundary" inkscape:connector-curvature="0" />
	<path style="fill:none;stroke:red;stroke-width:1px;stroke-linecap:butt;stroke-linejoin:miter;stroke-opacity:1" d="M 787.512,118.332 787.512,135.146 z" id="boundary" inkscape:connector-curvature="0" />
	<path style="fill:none;stroke:red;stroke-width:1px;stroke-linecap:butt;stroke-linejoin:miter;stroke-opacity:1" d="M 794.237,151.959 787.512,135.146 z" id="boundary" inkscape:connector-curvature="0" />
	<path style="fill:none;stroke:red;stroke-width:1px;stroke-linecap:butt;stroke-linejoin:miter;stroke-opacity:1" d="M 770.698,88.0678 779.105,103.2 z" id="boundary" inkscape:connector-curvature="0" />
	<path style="fill:none;stroke:red;stroke-width:1px;stroke-linecap:butt;stroke-linejoin:miter;stroke-opacity:1" d="M 794.237,151.959 802.644,167.092 z" id="boundary" inkscape:connector-curvature="0" />
	<path style="fill:none;stroke:red;stroke-width:1px;stroke-linecap:butt;stroke-linejoin:miter;stroke-opacity:1" d="M 787.512,215.851 795.919,199.037 z" id="boundary" inkscape:connector-curvature="0" />
	<path style="fill:none;stroke:red;stroke-width:1px;stroke-linecap:butt;stroke-linejoin:miter;stroke-opacity:1" d="M 795.919,199.037 804.325,183.905 z" id="boundary" inkscape:connector-curvature="0" />
	<path style="fill:none;stroke:red;stroke-width:1px;stroke-linecap:butt;stroke-linejoin:miter;stroke-opacity:1" d="M 802.644,167.092 804.325,183.905 z" id="boundary" inkscape:connector-curvature="0" />
	<path style="fill:none;stroke:red;stroke-width:1px;stroke-linecap:butt;stroke-linejoin:miter;stroke-opacity:1" d="M 634.508,4 651.322,4 z" id="boundary" inkscape:connector-curvature="0" />
	<path style="fill:none;stroke:red;stroke-width:1px;stroke-linecap:butt;stroke-linejoin:miter;stroke-opacity:1" d="M 510.088,400.8 501.681,417.614 z" id="boundary" inkscape:connector-curvature="0" />
	<path style="fill:none;stroke:red;stroke-width:1px;stroke-linecap:butt;stroke-linejoin:miter;stroke-opacity:1" d="M 446.197,331.864 437.79,348.678 z" id="boundary" inkscape:connector-curvature="0" />
	<path style="fill:none;stroke:red;stroke-width:1px;stroke-linecap:butt;stroke-linejoin:miter;stroke-opacity:1" d="M 437.79,348.678 424.339,362.129 z" id="boundary" inkscape:connector-curvature="0" />
	<path style="fill:none;stroke:red;stroke-width:1px;stroke-linecap:butt;stroke-linejoin:miter;stroke-opacity:1" d="M 415.932,387.349 407.525,404.163 z" id="boundary" inkscape:connector-curvature="0" />
	<path style="fill:none;stroke:red;stroke-width:1px;stroke-linecap:butt;stroke-linejoin:miter;stroke-opacity:1" d="M 424.339,362.129 415.932,387.349 z" id="boundary" inkscape:connector-curvature="0" />
	<path style="fill:none;stroke:red;stroke-width:1px;stroke-linecap:butt;stroke-linejoin:miter;stroke-opacity:1" d="M 457.966,311.688 446.197,331.864 z" id="boundary" inkscape:connector-curvature="0" />
	<path style="fill:none;stroke:red;stroke-width:1px;stroke-linecap:butt;stroke-linejoin:miter;stroke-opacity:1" d="M 471.417,298.237 483.186,278.061 z" id="boundary" inkscape:connector-curvature="0" />
	<path style="fill:none;stroke:red;stroke-width:1px;stroke-linecap:butt;stroke-linejoin:miter;stroke-opacity:1" d="M 491.593,261.247 483.186,278.061 z" id="boundary" inkscape:connector-curvature="0" />
	<path style="fill:none;stroke:red;stroke-width:1px;stroke-linecap:butt;stroke-linejoin:miter;stroke-opacity:1" d="M 471.417,298.237 457.966,311.688 z" id="boundary" inkscape:connector-curvature="0" />
	<path style="fill:none;stroke:red;stroke-width:1px;stroke-linecap:butt;stroke-linejoin:miter;stroke-opacity:1" d="M 501.681,417.614 489.912,431.064 z" id="boundary" inkscape:connector-curvature="0" />
	<path style="fill:none;stroke:red;stroke-width:1px;stroke-linecap:butt;stroke-linejoin:miter;stroke-opacity:1" d="M 442.834,493.275 442.834,510.088 z" id="boundary" inkscape:connector-curvature="0" />
	<path style="fill:none;stroke:red;stroke-width:1px;stroke-linecap:butt;stroke-linejoin:miter;stroke-opacity:1" d="M 442.834,510.088 429.383,525.22 z" id="boundary" inkscape:connector-curvature="0" />
	<path style="fill:none;stroke:red;stroke-width:1px;stroke-linecap:butt;stroke-linejoin:miter;stroke-opacity:1" d="M 429.383,525.22 420.976,542.034 z" id="boundary" inkscape:connector-curvature="0" />
	<path style="fill:none;stroke:red;stroke-width:1px;stroke-linecap:butt;stroke-linejoin:miter;stroke-opacity:1" d="M 420.976,542.034 412.569,558.847 z" id="boundary" inkscape:connector-curvature="0" />
	<path style="fill:none;stroke:red;stroke-width:1px;stroke-linecap:butt;stroke-linejoin:miter;stroke-opacity:1" d="M 412.569,558.847 399.119,568.936 z" id="boundary" inkscape:connector-curvature="0" />
	<path style="fill:none;stroke:red;stroke-width:1px;stroke-linecap:butt;stroke-linejoin:miter;stroke-opacity:1" d="M 476.461,442.834 489.912,431.064 z" id="boundary" inkscape:connector-curvature="0" />
	<path style="fill:none;stroke:red;stroke-width:1px;stroke-linecap:butt;stroke-linejoin:miter;stroke-opacity:1" d="M 468.054,459.647 476.461,442.834 z" id="boundary" inkscape:connector-curvature="0" />
	<path style="fill:none;stroke:red;stroke-width:1px;stroke-linecap:butt;stroke-linejoin:miter;stroke-opacity:1" d="M 456.285,481.505 468.054,459.647 z" id="boundary" inkscape:connector-curvature="0" />
	<path style="fill:none;stroke:red;stroke-width:1px;stroke-linecap:butt;stroke-linejoin:miter;stroke-opacity:1" d="M 442.834,493.275 456.285,481.505 z" id="boundary" inkscape:connector-curvature="0" />
	<path style="fill:none;stroke:red;stroke-width:1px;stroke-linecap:butt;stroke-linejoin:miter;stroke-opacity:1" d="M 669.817,244.434 653.003,241.071 z" id="boundary" inkscape:connector-curvature="0" />
	<path style="fill:none;stroke:red;stroke-width:1px;stroke-linecap:butt;stroke-linejoin:miter;stroke-opacity:1" d="M 602.563,257.885 594.156,283.105 z" id="boundary" inkscape:connector-curvature="0" />
	<path style="fill:none;stroke:red;stroke-width:1px;stroke-linecap:butt;stroke-linejoin:miter;stroke-opacity:1" d="M 619.376,249.478 602.563,257.885 z" id="boundary" inkscape:connector-curvature="0" />
	<path style="fill:none;stroke:red;stroke-width:1px;stroke-linecap:butt;stroke-linejoin:miter;stroke-opacity:1" d="M 594.156,283.105 582.386,296.556 z" id="boundary" inkscape:connector-curvature="0" />
	<path style="fill:none;stroke:red;stroke-width:1px;stroke-linecap:butt;stroke-linejoin:miter;stroke-opacity:1" d="M 669.817,244.434 684.949,252.841 z" id="boundary" inkscape:connector-curvature="0" />
	<path style="fill:none;stroke:red;stroke-width:1px;stroke-linecap:butt;stroke-linejoin:miter;stroke-opacity:1" d="M 718.576,257.885 701.763,257.885 z" id="boundary" inkscape:connector-curvature="0" />
	<path style="fill:none;stroke:red;stroke-width:1px;stroke-linecap:butt;stroke-linejoin:miter;stroke-opacity:1" d="M 701.763,257.885 684.949,252.841 z" id="boundary" inkscape:connector-curvature="0" />
	<path style="fill:none;stroke:red;stroke-width:1px;stroke-linecap:butt;stroke-linejoin:miter;stroke-opacity:1" d="M 774.061,239.39 765.654,256.203 z" id="boundary" inkscape:connector-curvature="0" />
	<path style="fill:none;stroke:red;stroke-width:1px;stroke-linecap:butt;stroke-linejoin:miter;stroke-opacity:1" d="M 733.708,266.292 718.576,257.885 z" id="boundary" inkscape:connector-curvature="0" />
	<path style="fill:none;stroke:red;stroke-width:1px;stroke-linecap:butt;stroke-linejoin:miter;stroke-opacity:1" d="M 774.061,239.39 787.512,215.851 z" id="boundary" inkscape:connector-curvature="0" />
	<path style="fill:none;stroke:red;stroke-width:1px;stroke-linecap:butt;stroke-linejoin:miter;stroke-opacity:1" d="M 540.353,355.403 552.122,341.953 z" id="boundary" inkscape:connector-curvature="0" />
	<path style="fill:none;stroke:red;stroke-width:1px;stroke-linecap:butt;stroke-linejoin:miter;stroke-opacity:1" d="M 531.946,372.217 540.353,355.403 z" id="boundary" inkscape:connector-curvature="0" />
	<path style="fill:none;stroke:red;stroke-width:1px;stroke-linecap:butt;stroke-linejoin:miter;stroke-opacity:1" d="M 531.946,372.217 523.539,389.031 z" id="boundary" inkscape:connector-curvature="0" />
	<path style="fill:none;stroke:red;stroke-width:1px;stroke-linecap:butt;stroke-linejoin:miter;stroke-opacity:1" d="M 523.539,389.031 510.088,400.8 z" id="boundary" inkscape:connector-curvature="0" />
	<path style="fill:none;stroke:red;stroke-width:1px;stroke-linecap:butt;stroke-linejoin:miter;stroke-opacity:1" d="M 750.522,266.292 733.708,266.292 z" id="boundary" inkscape:connector-curvature="0" />
	<path style="fill:none;stroke:red;stroke-width:1px;stroke-linecap:butt;stroke-linejoin:miter;stroke-opacity:1" d="M 765.654,256.203 750.522,266.292 z" id="boundary" inkscape:connector-curvature="0" />
	<path style="fill:none;stroke:red;stroke-width:1px;stroke-linecap:butt;stroke-linejoin:miter;stroke-opacity:1" d="M 582.386,296.556 573.98,313.369 z" id="boundary" inkscape:connector-curvature="0" />
	<path style="fill:none;stroke:red;stroke-width:1px;stroke-linecap:butt;stroke-linejoin:miter;stroke-opacity:1" d="M 573.98,313.369 560.529,325.139 z" id="boundary" inkscape:connector-curvature="0" />
	<path style="fill:none;stroke:red;stroke-width:1px;stroke-linecap:butt;stroke-linejoin:miter;stroke-opacity:1" d="M 552.122,341.953 560.529,325.139 z" id="boundary" inkscape:connector-curvature="0" />
	<path style="fill:none;stroke:red;stroke-width:1px;stroke-linecap:butt;stroke-linejoin:miter;stroke-opacity:1" d="M 505.044,247.797 513.451,230.983 z" id="boundary" inkscape:connector-curvature="0" />
	<path style="fill:none;stroke:red;stroke-width:1px;stroke-linecap:butt;stroke-linejoin:miter;stroke-opacity:1" d="M 491.593,261.247 505.044,247.797 z" id="boundary" inkscape:connector-curvature="0" />
	<circle cx="4" cy="799.281" r="4" fill="#0" id="circle0"/>
	<circle cx="4" cy="816.095" r="4" fill="#0" id="circle1"/>
	<circle cx="12.4068" cy="831.227" r="4" fill="#0" id="circle2"/>
	<circle cx="12.4068" cy="848.041" r="4" fill="#0" id="circle3"/>
	<circle cx="17.4508" cy="785.831" r="4" fill="#0" id="circle4"/>
	<circle cx="20.8136" cy="863.173" r="4" fill="#0" id="circle5"/>
	<circle cx="20.8136" cy="879.986" r="4" fill="#0" id="circle6"/>
	<circle cx="34.2644" cy="777.424" r="4" fill="#0" id="circle7"/>
	<circle cx="35.9458" cy="888.393" r="4" fill="#0" id="circle8"/>
	<circle cx="46.0339" cy="757.247" r="4" fill="#0" id="circle9"/>
	<circle cx="52.7593" cy="888.393" r="4" fill="#0" id="circle10"/>
	<circle cx="62.8475" cy="752.203" r="4" fill="#0" id="circle11"/>
	<circle cx="69.5729" cy="888.393" r="4" fill="#0" id="circle12"/>
	<circle cx="79.661" cy="752.203" r="4" fill="#0" id="circle13"/>
	<circle cx="86.3864" cy="888.393" r="4" fill="#0" id="circle14"/>
	<circle cx="88.0678" cy="925.383" r="4" fill="#0" id="circle15"/>
	<circle cx="88.0678" cy="942.197" r="4" fill="#0" id="circle16"/>
	<circle cx="88.0678" cy="959.01" r="4" fill="#0" id="circle17"/>
	<circle cx="96.4746" cy="755.566" r="4" fill="#0" id="circle18"/>
	<circle cx="96.4746" cy="908.569" r="4" fill="#0" id="circle19"/>
	<circle cx="104.881" cy="964.054" r="4" fill="#0" id="circle20"/>
	<circle cx="111.607" cy="763.973" r="4" fill="#0" id="circle21"/>
	<circle cx="120.014" cy="972.461" r="4" fill="#0" id="circle22"/>
	<circle cx="121.695" cy="777.424" r="4" fill="#0" id="circle23"/>
	<circle cx="135.146" cy="980.868" r="4" fill="#0" id="circle24"/>
	<circle cx="138.508" cy="777.424" r="4" fill="#0" id="circle25"/>
	<circle cx="151.959" cy="987.593" r="4" fill="#0" id="circle26"/>
	<circle cx="153.641" cy="785.831" r="4" fill="#0" id="circle27"/>
	<circle cx="165.41" cy="772.38" r="4" fill="#0" id="circle28"/>
	<circle cx="167.092" cy="996" r="4" fill="#0" id="circle29"/>
	<circle cx="178.861" cy="760.61" r="4" fill="#0" id="circle30"/>
	<circle cx="180.542" cy="984.231" r="4" fill="#0" id="circle31"/>
	<circle cx="185.586" cy="743.797" r="4" fill="#0" id="circle32"/>
	<circle cx="193.993" cy="972.461" r="4" fill="#0" id="circle33"/>
	<circle cx="199.037" cy="730.346" r="4" fill="#0" id="circle34"/>
	<circle cx="207.444" cy="713.532" r="4" fill="#0" id="circle35"/>
	<circle cx="210.807" cy="970.78" r="4" fill="#0" id="circle36"/>
	<circle cx="215.851" cy="696.719" r="4" fill="#0" id="circle37"/>
	<circle cx="224.258" cy="679.905" r="4" fill="#0" id="circle38"/>
	<circle cx="224.258" cy="821.139" r="4" fill="#0" id="circle39"/>
	<circle cx="224.258" cy="955.647" r="4" fill="#0" id="circle40"/>
	<circle cx="227.62" cy="837.953" r="4" fill="#0" id="circle41"/>
	<circle cx="232.664" cy="854.766" r="4" fill="#0" id="circle42"/>
	<circle cx="232.664" cy="871.58" r="4" fill="#0" id="circle43"/>
	<circle cx="237.708" cy="668.136" r="4" fill="#0" id="circle44"/>
	<circle cx="237.708" cy="809.369" r="4" fill="#0" id="circle45"/>
	<circle cx="241.071" cy="886.712" r="4" fill="#0" id="circle46"/>
	<circle cx="241.071" cy="903.525" r="4" fill="#0" id="circle47"/>
	<circle cx="241.071" cy="938.834" r="4" fill="#0" id="circle48"/>
	<circle cx="247.797" cy="639.553" r="4" fill="#0" id="circle49"/>
	<circle cx="249.478" cy="779.105" r="4" fill="#0" id="circle50"/>
	<circle cx="249.478" cy="795.919" r="4" fill="#0" id="circle51"/>
	<circle cx="249.478" cy="918.658" r="4" fill="#0" id="circle52"/>
	<circle cx="257.885" cy="933.79" r="4" fill="#0" id="circle53"/>
	<circle cx="264.61" cy="631.146" r="4" fill="#0" id="circle54"/>
	<circle cx="266.292" cy="753.885" r="4" fill="#0" id="circle55"/>
	<circle cx="266.292" cy="770.698" r="4" fill="#0" id="circle56"/>
	<circle cx="273.017" cy="614.332" r="4" fill="#0" id="circle57"/>
	<circle cx="281.424" cy="597.519" r="4" fill="#0" id="circle58"/>
	<circle cx="283.105" cy="745.478" r="4" fill="#0" id="circle59"/>
	<circle cx="289.831" cy="572.298" r="4" fill="#0" id="circle60"/>
	<circle cx="291.512" cy="720.258" r="4" fill="#0" id="circle61"/>
	<circle cx="303.281" cy="558.847" r="4" fill="#0" id="circle62"/>
	<circle cx="304.963" cy="708.488" r="4" fill="#0" id="circle63"/>
	<circle cx="311.688" cy="542.034" r="4" fill="#0" id="circle64"/>
	<circle cx="313.369" cy="691.675" r="4" fill="#0" id="circle65"/>
	<circle cx="323.458" cy="521.858" r="4" fill="#0" id="circle66"/>
	<circle cx="325.139" cy="669.817" r="4" fill="#0" id="circle67"/>
	<circle cx="336.908" cy="508.407" r="4" fill="#0" id="circle68"/>
	<circle cx="338.59" cy="658.047" r="4" fill="#0" id="circle69"/>
	<circle cx="348.678" cy="488.231" r="4" fill="#0" id="circle70"/>
	<circle cx="350.359" cy="644.597" r="4" fill="#0" id="circle71"/>
	<circle cx="357.085" cy="471.417" r="4" fill="#0" id="circle72"/>
	<circle cx="358.766" cy="627.783" r="4" fill="#0" id="circle73"/>
	<circle cx="367.173" cy="610.969" r="4" fill="#0" id="circle74"/>
	<circle cx="370.536" cy="457.966" r="4" fill="#0" id="circle75"/>
	<circle cx="378.942" cy="441.153" r="4" fill="#0" id="circle76"/>
	<circle cx="380.624" cy="599.2" r="4" fill="#0" id="circle77"/>
	<circle cx="389.031" cy="582.386" r="4" fill="#0" id="circle78"/>
	<circle cx="390.712" cy="412.569" r="4" fill="#0" id="circle79"/>
	<circle cx="392.393" cy="429.383" r="4" fill="#0" id="circle80"/>
	<circle cx="399.119" cy="568.936" r="4" fill="#0" id="circle81"/>
	<circle cx="407.525" cy="404.163" r="4" fill="#0" id="circle82"/>
	<circle cx="412.569" cy="558.847" r="4" fill="#0" id="circle83"/>
	<circle cx="415.932" cy="387.349" r="4" fill="#0" id="circle84"/>
	<circle cx="420.976" cy="542.034" r="4" fill="#0" id="circle85"/>
	<circle cx="424.339" cy="362.129" r="4" fill="#0" id="circle86"/>
	<circle cx="429.383" cy="525.22" r="4" fill="#0" id="circle87"/>
	<circle cx="437.79" cy="348.678" r="4" fill="#0" id="circle88"/>
	<circle cx="442.834" cy="493.275" r="4" fill="#0" id="circle89"/>
	<circle cx="442.834" cy="510.088" r="4" fill="#0" id="circle90"/>
	<circle cx="446.197" cy="331.864" r="4" fill="#0" id="circle91"/>
	<circle cx="456.285" cy="481.505" r="4" fill="#0" id="circle92"/>
	<circle cx="457.966" cy="311.688" r="4" fill="#0" id="circle93"/>
	<circle cx="468.054" cy="459.647" r="4" fill="#0" id="circle94"/>
	<circle cx="471.417" cy="298.237" r="4" fill="#0" id="circle95"/>
	<circle cx="476.461" cy="442.834" r="4" fill="#0" id="circle96"/>
	<circle cx="483.186" cy="278.061" r="4" fill="#0" id="circle97"/>
	<circle cx="489.912" cy="431.064" r="4" fill="#0" id="circle98"/>
	<circle cx="491.593" cy="261.247" r="4" fill="#0" id="circle99"/>
	<circle cx="500" cy="84.7051" r="4" fill="#0" id="circle100"/>
	<circle cx="501.681" cy="417.614" r="4" fill="#0" id="circle101"/>
	<circle cx="505.044" cy="247.797" r="4" fill="#0" id="circle102"/>
	<circle cx="508.407" cy="99.8373" r="4" fill="#0" id="circle103"/>
	<circle cx="510.088" cy="400.8" r="4" fill="#0" id="circle104"/>
	<circle cx="513.451" cy="71.2542" r="4" fill="#0" id="circle105"/>
	<circle cx="513.451" cy="230.983" r="4" fill="#0" id="circle106"/>
	<circle cx="516.814" cy="114.969" r="4" fill="#0" id="circle107"/>
	<circle cx="521.858" cy="131.783" r="4" fill="#0" id="circle108"/>
	<circle cx="521.858" cy="214.169" r="4" fill="#0" id="circle109"/>
	<circle cx="523.539" cy="389.031" r="4" fill="#0" id="circle110"/>
	<circle cx="525.22" cy="42.6712" r="4" fill="#0" id="circle111"/>
	<circle cx="525.22" cy="148.597" r="4" fill="#0" id="circle112"/>
	<circle cx="531.946" cy="372.217" r="4" fill="#0" id="circle113"/>
	<circle cx="533.627" cy="163.729" r="4" fill="#0" id="circle114"/>
	<circle cx="533.627" cy="180.542" r="4" fill="#0" id="circle115"/>
	<circle cx="535.308" cy="200.719" r="4" fill="#0" id="circle116"/>
	<circle cx="538.671" cy="29.2203" r="4" fill="#0" id="circle117"/>
	<circle cx="540.353" cy="355.403" r="4" fill="#0" id="circle118"/>
	<circle cx="550.441" cy="9.04407" r="4" fill="#0" id="circle119"/>
	<circle cx="552.122" cy="341.953" r="4" fill="#0" id="circle120"/>
	<circle cx="560.529" cy="325.139" r="4" fill="#0" id="circle121"/>
	<circle cx="567.254" cy="4" r="4" fill="#0" id="circle122"/>
	<circle cx="573.98" cy="313.369" r="4" fill="#0" id="circle123"/>
	<circle cx="582.386" cy="296.556" r="4" fill="#0" id="circle124"/>
	<circle cx="584.068" cy="4" r="4" fill="#0" id="circle125"/>
	<circle cx="594.156" cy="283.105" r="4" fill="#0" id="circle126"/>
	<circle cx="600.881" cy="4" r="4" fill="#0" id="circle127"/>
	<circle cx="602.563" cy="257.885" r="4" fill="#0" id="circle128"/>
	<circle cx="617.695" cy="4" r="4" fill="#0" id="circle129"/>
	<circle cx="619.376" cy="232.664" r="4" fill="#0" id="circle130"/>
	<circle cx="619.376" cy="249.478" r="4" fill="#0" id="circle131"/>
	<circle cx="634.508" cy="4" r="4" fill="#0" id="circle132"/>
	<circle cx="636.19" cy="236.027" r="4" fill="#0" id="circle133"/>
	<circle cx="651.322" cy="4" r="4" fill="#0" id="circle134"/>
	<circle cx="653.003" cy="241.071" r="4" fill="#0" id="circle135"/>
	<circle cx="664.773" cy="14.0881" r="4" fill="#0" id="circle136"/>
	<circle cx="669.817" cy="244.434" r="4" fill="#0" id="circle137"/>
	<circle cx="673.18" cy="29.2203" r="4" fill="#0" id="circle138"/>
	<circle cx="678.224" cy="46.0339" r="4" fill="#0" id="circle139"/>
	<circle cx="678.224" cy="62.8475" r="4" fill="#0" id="circle140"/>
	<circle cx="684.949" cy="252.841" r="4" fill="#0" id="circle141"/>
	<circle cx="686.631" cy="77.9797" r="4" fill="#0" id="circle142"/>
	<circle cx="701.763" cy="257.885" r="4" fill="#0" id="circle143"/>
	<circle cx="703.444" cy="84.7051" r="4" fill="#0" id="circle144"/>
	<circle cx="718.576" cy="257.885" r="4" fill="#0" id="circle145"/>
	<circle cx="720.258" cy="88.0678" r="4" fill="#0" id="circle146"/>
	<circle cx="733.708" cy="266.292" r="4" fill="#0" id="circle147"/>
	<circle cx="737.071" cy="88.0678" r="4" fill="#0" id="circle148"/>
	<circle cx="750.522" cy="266.292" r="4" fill="#0" id="circle149"/>
	<circle cx="753.885" cy="88.0678" r="4" fill="#0" id="circle150"/>
	<circle cx="765.654" cy="256.203" r="4" fill="#0" id="circle151"/>
	<circle cx="770.698" cy="88.0678" r="4" fill="#0" id="circle152"/>
	<circle cx="774.061" cy="239.39" r="4" fill="#0" id="circle153"/>
	<circle cx="779.105" cy="103.2" r="4" fill="#0" id="circle154"/>
	<circle cx="787.512" cy="118.332" r="4" fill="#0" id="circle155"/>
	<circle cx="787.512" cy="135.146" r="4" fill="#0" id="circle156"/>
	<circle cx="787.512" cy="215.851" r="4" fill="#0" id="circle157"/>
	<circle cx="794.237" cy="151.959" r="4" fill="#0" id="circle158"/>
	<circle cx="795.919" cy="199.037" r="4" fill="#0" id="circle159"/>
	<circle cx="802.644" cy="167.092" r="4" fill="#0" id="circle160"/>
	<circle cx="804.325" cy="183.905" r="4" fill="#0" id="circle161"/>
	</g>
</svg>