<?xml version="1.0" encoding="UTF-8" standalone="no"?>
<!-- Created with CurveBenchmark -->
<svg
	xmlns:dc="http://purl.org/dc/elements/1.1/"
	xmlns:cc="http://creativecommons.org/ns#"
	xmlns:rdf="http://www.w3.org/1999/02/22-rdf-syntax-ns#"
	xmlns:svg="http://www.w3.org/2000/svg"
	xmlns="http://www.w3.org/2000/svg"
	xmlns:sodipodi="http://sodipodi.sourceforge.net/DTD/sodipodi-0.dtd"
	xmlns:inkscape="http://www.inkscape.org/namespaces/inkscape"
	width="1000"
	height="1000"
	id="svg2"
	version="1.1"
	sodipodi:docname="manifold/gathang-guitar310.png.txt">
<defs
	id="defs4" />
<metadata
	id="metadata7">
	<rdf:RDF>
		<cc:Work
			rdf:about="">
			<dc:format>image/svg+xml</dc:format>
			<dc:type
				rdf:resource="http://purl.org/dc/dcmitype/StillImage" />
			<dc:title></dc:title>
		</cc:Work>
	</rdf:RDF>
</metadata>
<g
	inkscape:label="Layer 1"
	inkscape:groupmode="layer"
	id="layer1">
	<path style="fill:none;stroke:red;stroke-width:1px;stroke-linecap:butt;stroke-linejoin:miter;stroke-opacity:1" d="M 109.907,95.7865 109.907,138.149 z" id="boundary" inkscape:connector-curvature="0" />
	<path style="fill:none;stroke:red;stroke-width:1px;stroke-linecap:butt;stroke-linejoin:miter;stroke-opacity:1" d="M 109.907,173.452 109.907,138.149 z" id="boundary" inkscape:connector-curvature="0" />
	<path style="fill:none;stroke:red;stroke-width:1px;stroke-linecap:butt;stroke-linejoin:miter;stroke-opacity:1" d="M 102.847,392.327 102.847,427.63 z" id="boundary" inkscape:connector-curvature="0" />
	<path style="fill:none;stroke:red;stroke-width:1px;stroke-linecap:butt;stroke-linejoin:miter;stroke-opacity:1" d="M 102.847,427.63 102.847,462.932 z" id="boundary" inkscape:connector-curvature="0" />
	<path style="fill:none;stroke:red;stroke-width:1px;stroke-linecap:butt;stroke-linejoin:miter;stroke-opacity:1" d="M 102.847,462.932 74.605,512.356 z" id="boundary" inkscape:connector-curvature="0" />
	<path style="fill:none;stroke:red;stroke-width:1px;stroke-linecap:butt;stroke-linejoin:miter;stroke-opacity:1" d="M 109.907,173.452 109.907,208.754 z" id="boundary" inkscape:connector-curvature="0" />
	<path style="fill:none;stroke:red;stroke-width:1px;stroke-linecap:butt;stroke-linejoin:miter;stroke-opacity:1" d="M 74.605,512.356 46.363,533.537 z" id="boundary" inkscape:connector-curvature="0" />
	<path style="fill:none;stroke:red;stroke-width:1px;stroke-linecap:butt;stroke-linejoin:miter;stroke-opacity:1" d="M 169.922,81.6655 148.74,138.149 z" id="boundary" inkscape:connector-curvature="0" />
	<path style="fill:none;stroke:red;stroke-width:1px;stroke-linecap:butt;stroke-linejoin:miter;stroke-opacity:1" d="M 109.907,95.7865 124.028,32.242 z" id="boundary" inkscape:connector-curvature="0" />
	<path style="fill:none;stroke:red;stroke-width:1px;stroke-linecap:butt;stroke-linejoin:miter;stroke-opacity:1" d="M 124.028,32.242 145.21,4 z" id="boundary" inkscape:connector-curvature="0" />
	<path style="fill:none;stroke:red;stroke-width:1px;stroke-linecap:butt;stroke-linejoin:miter;stroke-opacity:1" d="M 109.907,244.057 109.907,208.754 z" id="boundary" inkscape:connector-curvature="0" />
	<path style="fill:none;stroke:red;stroke-width:1px;stroke-linecap:butt;stroke-linejoin:miter;stroke-opacity:1" d="M 109.907,244.057 109.907,279.359 z" id="boundary" inkscape:connector-curvature="0" />
	<path style="fill:none;stroke:red;stroke-width:1px;stroke-linecap:butt;stroke-linejoin:miter;stroke-opacity:1" d="M 109.907,314.662 109.907,349.964 z" id="boundary" inkscape:connector-curvature="0" />
	<path style="fill:none;stroke:red;stroke-width:1px;stroke-linecap:butt;stroke-linejoin:miter;stroke-opacity:1" d="M 109.907,349.964 102.847,392.327 z" id="boundary" inkscape:connector-curvature="0" />
	<path style="fill:none;stroke:red;stroke-width:1px;stroke-linecap:butt;stroke-linejoin:miter;stroke-opacity:1" d="M 109.907,314.662 109.907,279.359 z" id="boundary" inkscape:connector-curvature="0" />
	<path style="fill:none;stroke:red;stroke-width:1px;stroke-linecap:butt;stroke-linejoin:miter;stroke-opacity:1" d="M 18.121,759.473 4,801.836 z" id="boundary" inkscape:connector-curvature="0" />
	<path style="fill:none;stroke:red;stroke-width:1px;stroke-linecap:butt;stroke-linejoin:miter;stroke-opacity:1" d="M 4,872.441 4,837.139 z" id="boundary" inkscape:connector-curvature="0" />
	<path style="fill:none;stroke:red;stroke-width:1px;stroke-linecap:butt;stroke-linejoin:miter;stroke-opacity:1" d="M 4,837.139 4,801.836 z" id="boundary" inkscape:connector-curvature="0" />
	<path style="fill:none;stroke:red;stroke-width:1px;stroke-linecap:butt;stroke-linejoin:miter;stroke-opacity:1" d="M 148.74,996 113.438,996 z" id="boundary" inkscape:connector-curvature="0" />
	<path style="fill:none;stroke:red;stroke-width:1px;stroke-linecap:butt;stroke-linejoin:miter;stroke-opacity:1" d="M 28.7117,939.516 11.0605,907.744 z" id="boundary" inkscape:connector-curvature="0" />
	<path style="fill:none;stroke:red;stroke-width:1px;stroke-linecap:butt;stroke-linejoin:miter;stroke-opacity:1" d="M 11.0605,907.744 4,872.441 z" id="boundary" inkscape:connector-curvature="0" />
	<path style="fill:none;stroke:red;stroke-width:1px;stroke-linecap:butt;stroke-linejoin:miter;stroke-opacity:1" d="M 32.242,568.84 32.242,604.142 z" id="boundary" inkscape:connector-curvature="0" />
	<path style="fill:none;stroke:red;stroke-width:1px;stroke-linecap:butt;stroke-linejoin:miter;stroke-opacity:1" d="M 32.242,604.142 42.8327,639.445 z" id="boundary" inkscape:connector-curvature="0" />
	<path style="fill:none;stroke:red;stroke-width:1px;stroke-linecap:butt;stroke-linejoin:miter;stroke-opacity:1" d="M 46.363,674.747 42.8327,639.445 z" id="boundary" inkscape:connector-curvature="0" />
	<path style="fill:none;stroke:red;stroke-width:1px;stroke-linecap:butt;stroke-linejoin:miter;stroke-opacity:1" d="M 32.242,568.84 46.363,533.537 z" id="boundary" inkscape:connector-curvature="0" />
	<path style="fill:none;stroke:red;stroke-width:1px;stroke-linecap:butt;stroke-linejoin:miter;stroke-opacity:1" d="M 46.363,674.747 32.242,724.171 z" id="boundary" inkscape:connector-curvature="0" />
	<path style="fill:none;stroke:red;stroke-width:1px;stroke-linecap:butt;stroke-linejoin:miter;stroke-opacity:1" d="M 49.8932,967.758 28.7117,939.516 z" id="boundary" inkscape:connector-curvature="0" />
	<path style="fill:none;stroke:red;stroke-width:1px;stroke-linecap:butt;stroke-linejoin:miter;stroke-opacity:1" d="M 113.438,996 78.1352,988.94 z" id="boundary" inkscape:connector-curvature="0" />
	<path style="fill:none;stroke:red;stroke-width:1px;stroke-linecap:butt;stroke-linejoin:miter;stroke-opacity:1" d="M 78.1352,988.94 49.8932,967.758 z" id="boundary" inkscape:connector-curvature="0" />
	<path style="fill:none;stroke:red;stroke-width:1px;stroke-linecap:butt;stroke-linejoin:miter;stroke-opacity:1" d="M 18.121,759.473 32.242,724.171 z" id="boundary" inkscape:connector-curvature="0" />
	<path style="fill:none;stroke:red;stroke-width:1px;stroke-linecap:butt;stroke-linejoin:miter;stroke-opacity:1" d="M 148.74,138.149 148.74,173.452 z" id="boundary" inkscape:connector-curvature="0" />
	<path style="fill:none;stroke:red;stroke-width:1px;stroke-linecap:butt;stroke-linejoin:miter;stroke-opacity:1" d="M 148.74,173.452 148.74,208.754 z" id="boundary" inkscape:connector-curvature="0" />
	<path style="fill:none;stroke:red;stroke-width:1px;stroke-linecap:butt;stroke-linejoin:miter;stroke-opacity:1" d="M 148.74,244.057 148.74,208.754 z" id="boundary" inkscape:connector-curvature="0" />
	<path style="fill:none;stroke:red;stroke-width:1px;stroke-linecap:butt;stroke-linejoin:miter;stroke-opacity:1" d="M 155.801,279.359 148.74,244.057 z" id="boundary" inkscape:connector-curvature="0" />
	<path style="fill:none;stroke:red;stroke-width:1px;stroke-linecap:butt;stroke-linejoin:miter;stroke-opacity:1" d="M 155.801,279.359 155.801,314.662 z" id="boundary" inkscape:connector-curvature="0" />
	<path style="fill:none;stroke:red;stroke-width:1px;stroke-linecap:butt;stroke-linejoin:miter;stroke-opacity:1" d="M 155.801,349.964 155.801,314.662 z" id="boundary" inkscape:connector-curvature="0" />
	<path style="fill:none;stroke:red;stroke-width:1px;stroke-linecap:butt;stroke-linejoin:miter;stroke-opacity:1" d="M 155.801,349.964 155.801,385.267 z" id="boundary" inkscape:connector-curvature="0" />
	<path style="fill:none;stroke:red;stroke-width:1px;stroke-linecap:butt;stroke-linejoin:miter;stroke-opacity:1" d="M 155.801,385.267 155.801,420.569 z" id="boundary" inkscape:connector-curvature="0" />
	<path style="fill:none;stroke:red;stroke-width:1px;stroke-linecap:butt;stroke-linejoin:miter;stroke-opacity:1" d="M 176.982,46.363 169.922,81.6655 z" id="boundary" inkscape:connector-curvature="0" />
	<path style="fill:none;stroke:red;stroke-width:1px;stroke-linecap:butt;stroke-linejoin:miter;stroke-opacity:1" d="M 155.801,455.872 155.801,420.569 z" id="boundary" inkscape:connector-curvature="0" />
	<path style="fill:none;stroke:red;stroke-width:1px;stroke-linecap:butt;stroke-linejoin:miter;stroke-opacity:1" d="M 180.512,484.114 155.801,455.872 z" id="boundary" inkscape:connector-curvature="0" />
	<path style="fill:none;stroke:red;stroke-width:1px;stroke-linecap:butt;stroke-linejoin:miter;stroke-opacity:1" d="M 215.815,494.705 226.406,530.007 z" id="boundary" inkscape:connector-curvature="0" />
	<path style="fill:none;stroke:red;stroke-width:1px;stroke-linecap:butt;stroke-linejoin:miter;stroke-opacity:1" d="M 180.512,484.114 215.815,494.705 z" id="boundary" inkscape:connector-curvature="0" />
	<path style="fill:none;stroke:red;stroke-width:1px;stroke-linecap:butt;stroke-linejoin:miter;stroke-opacity:1" d="M 258.178,547.658 226.406,530.007 z" id="boundary" inkscape:connector-curvature="0" />
	<path style="fill:none;stroke:red;stroke-width:1px;stroke-linecap:butt;stroke-linejoin:miter;stroke-opacity:1" d="M 176.982,46.363 180.512,11.0605 z" id="boundary" inkscape:connector-curvature="0" />
	<path style="fill:none;stroke:red;stroke-width:1px;stroke-linecap:butt;stroke-linejoin:miter;stroke-opacity:1" d="M 145.21,4 180.512,11.0605 z" id="boundary" inkscape:connector-curvature="0" />
	<path style="fill:none;stroke:red;stroke-width:1px;stroke-linecap:butt;stroke-linejoin:miter;stroke-opacity:1" d="M 282.89,653.566 282.89,688.868 z" id="boundary" inkscape:connector-curvature="0" />
	<path style="fill:none;stroke:red;stroke-width:1px;stroke-linecap:butt;stroke-linejoin:miter;stroke-opacity:1" d="M 297.011,604.142 282.89,653.566 z" id="boundary" inkscape:connector-curvature="0" />
	<path style="fill:none;stroke:red;stroke-width:1px;stroke-linecap:butt;stroke-linejoin:miter;stroke-opacity:1" d="M 282.89,688.868 297.011,724.171 z" id="boundary" inkscape:connector-curvature="0" />
	<path style="fill:none;stroke:red;stroke-width:1px;stroke-linecap:butt;stroke-linejoin:miter;stroke-opacity:1" d="M 297.011,724.171 311.132,759.473 z" id="boundary" inkscape:connector-curvature="0" />
	<path style="fill:none;stroke:red;stroke-width:1px;stroke-linecap:butt;stroke-linejoin:miter;stroke-opacity:1" d="M 219.345,996 184.043,996 z" id="boundary" inkscape:connector-curvature="0" />
	<path style="fill:none;stroke:red;stroke-width:1px;stroke-linecap:butt;stroke-linejoin:miter;stroke-opacity:1" d="M 184.043,996 148.74,996 z" id="boundary" inkscape:connector-curvature="0" />
	<path style="fill:none;stroke:red;stroke-width:1px;stroke-linecap:butt;stroke-linejoin:miter;stroke-opacity:1" d="M 254.648,985.409 219.345,996 z" id="boundary" inkscape:connector-curvature="0" />
	<path style="fill:none;stroke:red;stroke-width:1px;stroke-linecap:butt;stroke-linejoin:miter;stroke-opacity:1" d="M 282.89,964.228 254.648,985.409 z" id="boundary" inkscape:connector-curvature="0" />
	<path style="fill:none;stroke:red;stroke-width:1px;stroke-linecap:butt;stroke-linejoin:miter;stroke-opacity:1" d="M 304.071,928.925 282.89,964.228 z" id="boundary" inkscape:connector-curvature="0" />
	<path style="fill:none;stroke:red;stroke-width:1px;stroke-linecap:butt;stroke-linejoin:miter;stroke-opacity:1" d="M 321.722,794.776 311.132,759.473 z" id="boundary" inkscape:connector-curvature="0" />
	<path style="fill:none;stroke:red;stroke-width:1px;stroke-linecap:butt;stroke-linejoin:miter;stroke-opacity:1" d="M 321.722,794.776 325.253,830.078 z" id="boundary" inkscape:connector-curvature="0" />
	<path style="fill:none;stroke:red;stroke-width:1px;stroke-linecap:butt;stroke-linejoin:miter;stroke-opacity:1" d="M 297.011,604.142 293.48,547.658 z" id="boundary" inkscape:connector-curvature="0" />
	<path style="fill:none;stroke:red;stroke-width:1px;stroke-linecap:butt;stroke-linejoin:miter;stroke-opacity:1" d="M 258.178,547.658 293.48,547.658 z" id="boundary" inkscape:connector-curvature="0" />
	<path style="fill:none;stroke:red;stroke-width:1px;stroke-linecap:butt;stroke-linejoin:miter;stroke-opacity:1" d="M 325.253,830.078 321.722,897.153 z" id="boundary" inkscape:connector-curvature="0" />
	<path style="fill:none;stroke:red;stroke-width:1px;stroke-linecap:butt;stroke-linejoin:miter;stroke-opacity:1" d="M 321.722,897.153 304.071,928.925 z" id="boundary" inkscape:connector-curvature="0" />
	<circle cx="4" cy="801.836" r="4" fill="#0" id="circle0"/>
	<circle cx="4" cy="837.139" r="4" fill="#0" id="circle1"/>
	<circle cx="4" cy="872.441" r="4" fill="#0" id="circle2"/>
	<circle cx="11.0605" cy="907.744" r="4" fill="#0" id="circle3"/>
	<circle cx="18.121" cy="759.473" r="4" fill="#0" id="circle4"/>
	<circle cx="28.7117" cy="939.516" r="4" fill="#0" id="circle5"/>
	<circle cx="32.242" cy="568.84" r="4" fill="#0" id="circle6"/>
	<circle cx="32.242" cy="604.142" r="4" fill="#0" id="circle7"/>
	<circle cx="32.242" cy="724.171" r="4" fill="#0" id="circle8"/>
	<circle cx="42.8327" cy="639.445" r="4" fill="#0" id="circle9"/>
	<circle cx="46.363" cy="533.537" r="4" fill="#0" id="circle10"/>
	<circle cx="46.363" cy="674.747" r="4" fill="#0" id="circle11"/>
	<circle cx="49.8932" cy="967.758" r="4" fill="#0" id="circle12"/>
	<circle cx="74.605" cy="512.356" r="4" fill="#0" id="circle13"/>
	<circle cx="78.1352" cy="988.94" r="4" fill="#0" id="circle14"/>
	<circle cx="102.847" cy="392.327" r="4" fill="#0" id="circle15"/>
	<circle cx="102.847" cy="427.63" r="4" fill="#0" id="circle16"/>
	<circle cx="102.847" cy="462.932" r="4" fill="#0" id="circle17"/>
	<circle cx="109.907" cy="95.7865" r="4" fill="#0" id="circle18"/>
	<circle cx="109.907" cy="138.149" r="4" fill="#0" id="circle19"/>
	<circle cx="109.907" cy="173.452" r="4" fill="#0" id="circle20"/>
	<circle cx="109.907" cy="208.754" r="4" fill="#0" id="circle21"/>
	<circle cx="109.907" cy="244.057" r="4" fill="#0" id="circle22"/>
	<circle cx="109.907" cy="279.359" r="4" fill="#0" id="circle23"/>
	<circle cx="109.907" cy="314.662" r="4" fill="#0" id="circle24"/>
	<circle cx="109.907" cy="349.964" r="4" fill="#0" id="circle25"/>
	<circle cx="113.438" cy="996" r="4" fill="#0" id="circle26"/>
	<circle cx="124.028" cy="32.242" r="4" fill="#0" id="circle27"/>
	<circle cx="145.21" cy="4" r="4" fill="#0" id="circle28"/>
	<circle cx="148.74" cy="138.149" r="4" fill="#0" id="circle29"/>
	<circle cx="148.74" cy="173.452" r="4" fill="#0" id="circle30"/>
	<circle cx="148.74" cy="208.754" r="4" fill="#0" id="circle31"/>
	<circle cx="148.74" cy="244.057" r="4" fill="#0" id="circle32"/>
	<circle cx="148.74" cy="996" r="4" fill="#0" id="circle33"/>
	<circle cx="155.801" cy="279.359" r="4" fill="#0" id="circle34"/>
	<circle cx="155.801" cy="314.662" r="4" fill="#0" id="circle35"/>
	<circle cx="155.801" cy="349.964" r="4" fill="#0" id="circle36"/>
	<circle cx="155.801" cy="385.267" r="4" fill="#0" id="circle37"/>
	<circle cx="155.801" cy="420.569" r="4" fill="#0" id="circle38"/>
	<circle cx="155.801" cy="455.872" r="4" fill="#0" id="circle39"/>
	<circle cx="169.922" cy="81.6655" r="4" fill="#0" id="circle40"/>
	<circle cx="176.982" cy="46.363" r="4" fill="#0" id="circle41"/>
	<circle cx="180.512" cy="11.0605" r="4" fill="#0" id="circle42"/>
	<circle cx="180.512" cy="484.114" r="4" fill="#0" id="circle43"/>
	<circle cx="184.043" cy="996" r="4" fill="#0" id="circle44"/>
	<circle cx="215.815" cy="494.705" r="4" fill="#0" id="circle45"/>
	<circle cx="219.345" cy="996" r="4" fill="#0" id="circle46"/>
	<circle cx="226.406" cy="530.007" r="4" fill="#0" id="circle47"/>
	<circle cx="254.648" cy="985.409" r="4" fill="#0" id="circle48"/>
	<circle cx="258.178" cy="547.658" r="4" fill="#0" id="circle49"/>
	<circle cx="282.89" cy="653.566" r="4" fill="#0" id="circle50"/>
	<circle cx="282.89" cy="688.868" r="4" fill="#0" id="circle51"/>
	<circle cx="282.89" cy="964.228" r="4" fill="#0" id="circle52"/>
	<circle cx="293.48" cy="547.658" r="4" fill="#0" id="circle53"/>
	<circle cx="297.011" cy="604.142" r="4" fill="#0" id="circle54"/>
	<circle cx="297.011" cy="724.171" r="4" fill="#0" id="circle55"/>
	<circle cx="304.071" cy="928.925" r="4" fill="#0" id="circle56"/>
	<circle cx="311.132" cy="759.473" r="4" fill="#0" id="circle57"/>
	<circle cx="321.722" cy="794.776" r="4" fill="#0" id="circle58"/>
	<circle cx="321.722" cy="897.153" r="4" fill="#0" id="circle59"/>
	<circle cx="325.253" cy="830.078" r="4" fill="#0" id="circle60"/>
	</g>
</svg>