<?xml version="1.0" encoding="UTF-8" standalone="no"?>
<!-- Created with CurveBenchmark -->
<svg
	xmlns:dc="http://purl.org/dc/elements/1.1/"
	xmlns:cc="http://creativecommons.org/ns#"
	xmlns:rdf="http://www.w3.org/1999/02/22-rdf-syntax-ns#"
	xmlns:svg="http://www.w3.org/2000/svg"
	xmlns="http://www.w3.org/2000/svg"
	xmlns:sodipodi="http://sodipodi.sourceforge.net/DTD/sodipodi-0.dtd"
	xmlns:inkscape="http://www.inkscape.org/namespaces/inkscape"
	width="1000"
	height="1000"
	id="svg2"
	version="1.1"
	sodipodi:docname="manifold/gathang-flightbird10.png.txt">
<defs
	id="defs4" />
<metadata
	id="metadata7">
	<rdf:RDF>
		<cc:Work
			rdf:about="">
			<dc:format>image/svg+xml</dc:format>
			<dc:type
				rdf:resource="http://purl.org/dc/dcmitype/StillImage" />
			<dc:title></dc:title>
		</cc:Work>
	</rdf:RDF>
</metadata>
<g
	inkscape:label="Layer 1"
	inkscape:groupmode="layer"
	id="layer1">
	<path style="fill:none;stroke:red;stroke-width:1px;stroke-linecap:butt;stroke-linejoin:miter;stroke-opacity:1" d="M 402.173,517.163 391.875,532.609 z" id="boundary" inkscape:connector-curvature="0" />
	<path style="fill:none;stroke:red;stroke-width:1px;stroke-linecap:butt;stroke-linejoin:miter;stroke-opacity:1" d="M 391.875,532.609 376.429,541.19 z" id="boundary" inkscape:connector-curvature="0" />
	<path style="fill:none;stroke:red;stroke-width:1px;stroke-linecap:butt;stroke-linejoin:miter;stroke-opacity:1" d="M 376.429,541.19 359.266,542.907 z" id="boundary" inkscape:connector-curvature="0" />
	<path style="fill:none;stroke:red;stroke-width:1px;stroke-linecap:butt;stroke-linejoin:miter;stroke-opacity:1" d="M 342.104,551.488 359.266,542.907 z" id="boundary" inkscape:connector-curvature="0" />
	<path style="fill:none;stroke:red;stroke-width:1px;stroke-linecap:butt;stroke-linejoin:miter;stroke-opacity:1" d="M 342.104,551.488 324.941,558.353 z" id="boundary" inkscape:connector-curvature="0" />
	<path style="fill:none;stroke:red;stroke-width:1px;stroke-linecap:butt;stroke-linejoin:miter;stroke-opacity:1" d="M 309.495,566.934 324.941,558.353 z" id="boundary" inkscape:connector-curvature="0" />
	<path style="fill:none;stroke:red;stroke-width:1px;stroke-linecap:butt;stroke-linejoin:miter;stroke-opacity:1" d="M 309.495,566.934 292.332,566.934 z" id="boundary" inkscape:connector-curvature="0" />
	<path style="fill:none;stroke:red;stroke-width:1px;stroke-linecap:butt;stroke-linejoin:miter;stroke-opacity:1" d="M 433.066,434.782 441.647,417.619 z" id="boundary" inkscape:connector-curvature="0" />
	<path style="fill:none;stroke:red;stroke-width:1px;stroke-linecap:butt;stroke-linejoin:miter;stroke-opacity:1" d="M 441.647,417.619 455.377,403.889 z" id="boundary" inkscape:connector-curvature="0" />
	<path style="fill:none;stroke:red;stroke-width:1px;stroke-linecap:butt;stroke-linejoin:miter;stroke-opacity:1" d="M 450.228,439.931 450.228,457.093 z" id="boundary" inkscape:connector-curvature="0" />
	<path style="fill:none;stroke:red;stroke-width:1px;stroke-linecap:butt;stroke-linejoin:miter;stroke-opacity:1" d="M 419.336,508.581 436.498,506.865 z" id="boundary" inkscape:connector-curvature="0" />
	<path style="fill:none;stroke:red;stroke-width:1px;stroke-linecap:butt;stroke-linejoin:miter;stroke-opacity:1" d="M 419.336,508.581 402.173,517.163 z" id="boundary" inkscape:connector-curvature="0" />
	<path style="fill:none;stroke:red;stroke-width:1px;stroke-linecap:butt;stroke-linejoin:miter;stroke-opacity:1" d="M 450.228,457.093 450.228,474.256 z" id="boundary" inkscape:connector-curvature="0" />
	<path style="fill:none;stroke:red;stroke-width:1px;stroke-linecap:butt;stroke-linejoin:miter;stroke-opacity:1" d="M 163.612,652.747 180.775,644.166 z" id="boundary" inkscape:connector-curvature="0" />
	<path style="fill:none;stroke:red;stroke-width:1px;stroke-linecap:butt;stroke-linejoin:miter;stroke-opacity:1" d="M 149.882,666.478 163.612,652.747 z" id="boundary" inkscape:connector-curvature="0" />
	<path style="fill:none;stroke:red;stroke-width:1px;stroke-linecap:butt;stroke-linejoin:miter;stroke-opacity:1" d="M 197.938,635.585 180.775,644.166 z" id="boundary" inkscape:connector-curvature="0" />
	<path style="fill:none;stroke:red;stroke-width:1px;stroke-linecap:butt;stroke-linejoin:miter;stroke-opacity:1" d="M 206.519,618.422 197.938,635.585 z" id="boundary" inkscape:connector-curvature="0" />
	<path style="fill:none;stroke:red;stroke-width:1px;stroke-linecap:butt;stroke-linejoin:miter;stroke-opacity:1" d="M 149.882,666.478 118.99,695.654 z" id="boundary" inkscape:connector-curvature="0" />
	<path style="fill:none;stroke:red;stroke-width:1px;stroke-linecap:butt;stroke-linejoin:miter;stroke-opacity:1" d="M 103.543,704.235 132.72,675.059 z" id="boundary" inkscape:connector-curvature="0" />
	<path style="fill:none;stroke:red;stroke-width:1px;stroke-linecap:butt;stroke-linejoin:miter;stroke-opacity:1" d="M 285.467,584.097 268.304,584.097 z" id="boundary" inkscape:connector-curvature="0" />
	<path style="fill:none;stroke:red;stroke-width:1px;stroke-linecap:butt;stroke-linejoin:miter;stroke-opacity:1" d="M 252.858,592.678 268.304,584.097 z" id="boundary" inkscape:connector-curvature="0" />
	<path style="fill:none;stroke:red;stroke-width:1px;stroke-linecap:butt;stroke-linejoin:miter;stroke-opacity:1" d="M 221.965,609.841 237.412,601.26 z" id="boundary" inkscape:connector-curvature="0" />
	<path style="fill:none;stroke:red;stroke-width:1px;stroke-linecap:butt;stroke-linejoin:miter;stroke-opacity:1" d="M 221.965,609.841 206.519,618.422 z" id="boundary" inkscape:connector-curvature="0" />
	<path style="fill:none;stroke:red;stroke-width:1px;stroke-linecap:butt;stroke-linejoin:miter;stroke-opacity:1" d="M 237.412,601.26 252.858,592.678 z" id="boundary" inkscape:connector-curvature="0" />
	<path style="fill:none;stroke:red;stroke-width:1px;stroke-linecap:butt;stroke-linejoin:miter;stroke-opacity:1" d="M 506.865,395.308 489.702,395.308 z" id="boundary" inkscape:connector-curvature="0" />
	<path style="fill:none;stroke:red;stroke-width:1px;stroke-linecap:butt;stroke-linejoin:miter;stroke-opacity:1" d="M 489.702,395.308 472.54,395.308 z" id="boundary" inkscape:connector-curvature="0" />
	<path style="fill:none;stroke:red;stroke-width:1px;stroke-linecap:butt;stroke-linejoin:miter;stroke-opacity:1" d="M 506.865,395.308 522.311,403.889 z" id="boundary" inkscape:connector-curvature="0" />
	<path style="fill:none;stroke:red;stroke-width:1px;stroke-linecap:butt;stroke-linejoin:miter;stroke-opacity:1" d="M 566.934,386.727 553.204,400.457 z" id="boundary" inkscape:connector-curvature="0" />
	<path style="fill:none;stroke:red;stroke-width:1px;stroke-linecap:butt;stroke-linejoin:miter;stroke-opacity:1" d="M 566.934,386.727 582.381,378.145 z" id="boundary" inkscape:connector-curvature="0" />
	<path style="fill:none;stroke:red;stroke-width:1px;stroke-linecap:butt;stroke-linejoin:miter;stroke-opacity:1" d="M 618.422,309.495 627.003,292.332 z" id="boundary" inkscape:connector-curvature="0" />
	<path style="fill:none;stroke:red;stroke-width:1px;stroke-linecap:butt;stroke-linejoin:miter;stroke-opacity:1" d="M 627.003,292.332 640.734,278.602 z" id="boundary" inkscape:connector-curvature="0" />
	<path style="fill:none;stroke:red;stroke-width:1px;stroke-linecap:butt;stroke-linejoin:miter;stroke-opacity:1" d="M 618.422,309.495 609.841,326.657 z" id="boundary" inkscape:connector-curvature="0" />
	<path style="fill:none;stroke:red;stroke-width:1px;stroke-linecap:butt;stroke-linejoin:miter;stroke-opacity:1" d="M 647.599,254.574 640.734,278.602 z" id="boundary" inkscape:connector-curvature="0" />
	<path style="fill:none;stroke:red;stroke-width:1px;stroke-linecap:butt;stroke-linejoin:miter;stroke-opacity:1" d="M 582.381,378.145 587.529,357.55 z" id="boundary" inkscape:connector-curvature="0" />
	<path style="fill:none;stroke:red;stroke-width:1px;stroke-linecap:butt;stroke-linejoin:miter;stroke-opacity:1" d="M 587.529,357.55 601.26,343.82 z" id="boundary" inkscape:connector-curvature="0" />
	<path style="fill:none;stroke:red;stroke-width:1px;stroke-linecap:butt;stroke-linejoin:miter;stroke-opacity:1" d="M 609.841,326.657 601.26,343.82 z" id="boundary" inkscape:connector-curvature="0" />
	<path style="fill:none;stroke:red;stroke-width:1px;stroke-linecap:butt;stroke-linejoin:miter;stroke-opacity:1" d="M 472.54,395.308 455.377,403.889 z" id="boundary" inkscape:connector-curvature="0" />
	<path style="fill:none;stroke:red;stroke-width:1px;stroke-linecap:butt;stroke-linejoin:miter;stroke-opacity:1" d="M 537.758,412.471 553.204,400.457 z" id="boundary" inkscape:connector-curvature="0" />
	<path style="fill:none;stroke:red;stroke-width:1px;stroke-linecap:butt;stroke-linejoin:miter;stroke-opacity:1" d="M 522.311,403.889 537.758,412.471 z" id="boundary" inkscape:connector-curvature="0" />
	<path style="fill:none;stroke:red;stroke-width:1px;stroke-linecap:butt;stroke-linejoin:miter;stroke-opacity:1" d="M 451.945,498.284 450.228,474.256 z" id="boundary" inkscape:connector-curvature="0" />
	<path style="fill:none;stroke:red;stroke-width:1px;stroke-linecap:butt;stroke-linejoin:miter;stroke-opacity:1" d="M 537.758,671.626 520.595,688.789 z" id="boundary" inkscape:connector-curvature="0" />
	<path style="fill:none;stroke:red;stroke-width:1px;stroke-linecap:butt;stroke-linejoin:miter;stroke-opacity:1" d="M 508.581,702.519 520.595,688.789 z" id="boundary" inkscape:connector-curvature="0" />
	<path style="fill:none;stroke:red;stroke-width:1px;stroke-linecap:butt;stroke-linejoin:miter;stroke-opacity:1" d="M 436.498,506.865 451.945,498.284 z" id="boundary" inkscape:connector-curvature="0" />
	<path style="fill:none;stroke:red;stroke-width:1px;stroke-linecap:butt;stroke-linejoin:miter;stroke-opacity:1" d="M 596.111,645.882 578.948,645.882 z" id="boundary" inkscape:connector-curvature="0" />
	<path style="fill:none;stroke:red;stroke-width:1px;stroke-linecap:butt;stroke-linejoin:miter;stroke-opacity:1" d="M 578.948,645.882 563.502,637.301 z" id="boundary" inkscape:connector-curvature="0" />
	<path style="fill:none;stroke:red;stroke-width:1px;stroke-linecap:butt;stroke-linejoin:miter;stroke-opacity:1" d="M 613.273,645.882 596.111,645.882 z" id="boundary" inkscape:connector-curvature="0" />
	<path style="fill:none;stroke:red;stroke-width:1px;stroke-linecap:butt;stroke-linejoin:miter;stroke-opacity:1" d="M 554.92,654.464 563.502,637.301 z" id="boundary" inkscape:connector-curvature="0" />
	<path style="fill:none;stroke:red;stroke-width:1px;stroke-linecap:butt;stroke-linejoin:miter;stroke-opacity:1" d="M 537.758,671.626 554.92,654.464 z" id="boundary" inkscape:connector-curvature="0" />
	<path style="fill:none;stroke:red;stroke-width:1px;stroke-linecap:butt;stroke-linejoin:miter;stroke-opacity:1" d="M 613.273,645.882 623.571,659.612 z" id="boundary" inkscape:connector-curvature="0" />
	<path style="fill:none;stroke:red;stroke-width:1px;stroke-linecap:butt;stroke-linejoin:miter;stroke-opacity:1" d="M 640.734,666.478 623.571,659.612 z" id="boundary" inkscape:connector-curvature="0" />
	<path style="fill:none;stroke:red;stroke-width:1px;stroke-linecap:butt;stroke-linejoin:miter;stroke-opacity:1" d="M 508.581,702.519 491.419,711.1 z" id="boundary" inkscape:connector-curvature="0" />
	<path style="fill:none;stroke:red;stroke-width:1px;stroke-linecap:butt;stroke-linejoin:miter;stroke-opacity:1" d="M 46.9066,778.035 38.3253,795.197 z" id="boundary" inkscape:connector-curvature="0" />
	<path style="fill:none;stroke:red;stroke-width:1px;stroke-linecap:butt;stroke-linejoin:miter;stroke-opacity:1" d="M 38.3253,795.197 21.1626,803.779 z" id="boundary" inkscape:connector-curvature="0" />
	<path style="fill:none;stroke:red;stroke-width:1px;stroke-linecap:butt;stroke-linejoin:miter;stroke-opacity:1" d="M 4,812.36 21.1626,803.779 z" id="boundary" inkscape:connector-curvature="0" />
	<path style="fill:none;stroke:red;stroke-width:1px;stroke-linecap:butt;stroke-linejoin:miter;stroke-opacity:1" d="M 43.474,824.374 34.8927,841.536 z" id="boundary" inkscape:connector-curvature="0" />
	<path style="fill:none;stroke:red;stroke-width:1px;stroke-linecap:butt;stroke-linejoin:miter;stroke-opacity:1" d="M 60.6367,764.304 46.9066,778.035 z" id="boundary" inkscape:connector-curvature="0" />
	<path style="fill:none;stroke:red;stroke-width:1px;stroke-linecap:butt;stroke-linejoin:miter;stroke-opacity:1" d="M 55.4879,726.547 72.6505,721.398 z" id="boundary" inkscape:connector-curvature="0" />
	<path style="fill:none;stroke:red;stroke-width:1px;stroke-linecap:butt;stroke-linejoin:miter;stroke-opacity:1" d="M 88.0969,712.817 72.6505,721.398 z" id="boundary" inkscape:connector-curvature="0" />
	<path style="fill:none;stroke:red;stroke-width:1px;stroke-linecap:butt;stroke-linejoin:miter;stroke-opacity:1" d="M 60.6367,764.304 77.7993,755.723 z" id="boundary" inkscape:connector-curvature="0" />
	<path style="fill:none;stroke:red;stroke-width:1px;stroke-linecap:butt;stroke-linejoin:miter;stroke-opacity:1" d="M 86.3806,740.277 77.7993,755.723 z" id="boundary" inkscape:connector-curvature="0" />
	<path style="fill:none;stroke:red;stroke-width:1px;stroke-linecap:butt;stroke-linejoin:miter;stroke-opacity:1" d="M 60.6367,826.09 43.474,824.374 z" id="boundary" inkscape:connector-curvature="0" />
	<path style="fill:none;stroke:red;stroke-width:1px;stroke-linecap:butt;stroke-linejoin:miter;stroke-opacity:1" d="M 21.1626,855.266 34.8927,841.536 z" id="boundary" inkscape:connector-curvature="0" />
	<path style="fill:none;stroke:red;stroke-width:1px;stroke-linecap:butt;stroke-linejoin:miter;stroke-opacity:1" d="M 57.2042,894.74 46.9066,881.01 z" id="boundary" inkscape:connector-curvature="0" />
	<path style="fill:none;stroke:red;stroke-width:1px;stroke-linecap:butt;stroke-linejoin:miter;stroke-opacity:1" d="M 74.3668,877.578 57.2042,894.74 z" id="boundary" inkscape:connector-curvature="0" />
	<path style="fill:none;stroke:red;stroke-width:1px;stroke-linecap:butt;stroke-linejoin:miter;stroke-opacity:1" d="M 46.9066,881.01 21.1626,855.266 z" id="boundary" inkscape:connector-curvature="0" />
	<path style="fill:none;stroke:red;stroke-width:1px;stroke-linecap:butt;stroke-linejoin:miter;stroke-opacity:1" d="M 60.6367,826.09 77.7993,826.09 z" id="boundary" inkscape:connector-curvature="0" />
	<path style="fill:none;stroke:red;stroke-width:1px;stroke-linecap:butt;stroke-linejoin:miter;stroke-opacity:1" d="M 77.7993,826.09 100.111,851.834 z" id="boundary" inkscape:connector-curvature="0" />
	<path style="fill:none;stroke:red;stroke-width:1px;stroke-linecap:butt;stroke-linejoin:miter;stroke-opacity:1" d="M 98.3945,879.294 74.3668,877.578 z" id="boundary" inkscape:connector-curvature="0" />
	<path style="fill:none;stroke:red;stroke-width:1px;stroke-linecap:butt;stroke-linejoin:miter;stroke-opacity:1" d="M 115.557,877.578 98.3945,879.294 z" id="boundary" inkscape:connector-curvature="0" />
	<path style="fill:none;stroke:red;stroke-width:1px;stroke-linecap:butt;stroke-linejoin:miter;stroke-opacity:1" d="M 88.0969,712.817 103.543,704.235 z" id="boundary" inkscape:connector-curvature="0" />
	<path style="fill:none;stroke:red;stroke-width:1px;stroke-linecap:butt;stroke-linejoin:miter;stroke-opacity:1" d="M 348.969,774.602 331.806,774.602 z" id="boundary" inkscape:connector-curvature="0" />
	<path style="fill:none;stroke:red;stroke-width:1px;stroke-linecap:butt;stroke-linejoin:miter;stroke-opacity:1" d="M 318.076,791.765 331.806,774.602 z" id="boundary" inkscape:connector-curvature="0" />
	<path style="fill:none;stroke:red;stroke-width:1px;stroke-linecap:butt;stroke-linejoin:miter;stroke-opacity:1" d="M 318.076,791.765 300.913,791.765 z" id="boundary" inkscape:connector-curvature="0" />
	<path style="fill:none;stroke:red;stroke-width:1px;stroke-linecap:butt;stroke-linejoin:miter;stroke-opacity:1" d="M 366.131,774.602 348.969,774.602 z" id="boundary" inkscape:connector-curvature="0" />
	<path style="fill:none;stroke:red;stroke-width:1px;stroke-linecap:butt;stroke-linejoin:miter;stroke-opacity:1" d="M 383.294,766.021 366.131,774.602 z" id="boundary" inkscape:connector-curvature="0" />
	<path style="fill:none;stroke:red;stroke-width:1px;stroke-linecap:butt;stroke-linejoin:miter;stroke-opacity:1" d="M 491.419,711.1 477.689,723.114 z" id="boundary" inkscape:connector-curvature="0" />
	<path style="fill:none;stroke:red;stroke-width:1px;stroke-linecap:butt;stroke-linejoin:miter;stroke-opacity:1" d="M 450.228,740.277 460.526,723.114 z" id="boundary" inkscape:connector-curvature="0" />
	<path style="fill:none;stroke:red;stroke-width:1px;stroke-linecap:butt;stroke-linejoin:miter;stroke-opacity:1" d="M 400.457,757.439 417.619,748.858 z" id="boundary" inkscape:connector-curvature="0" />
	<path style="fill:none;stroke:red;stroke-width:1px;stroke-linecap:butt;stroke-linejoin:miter;stroke-opacity:1" d="M 417.619,748.858 434.782,748.858 z" id="boundary" inkscape:connector-curvature="0" />
	<path style="fill:none;stroke:red;stroke-width:1px;stroke-linecap:butt;stroke-linejoin:miter;stroke-opacity:1" d="M 400.457,757.439 383.294,766.021 z" id="boundary" inkscape:connector-curvature="0" />
	<path style="fill:none;stroke:red;stroke-width:1px;stroke-linecap:butt;stroke-linejoin:miter;stroke-opacity:1" d="M 434.782,748.858 450.228,740.277 z" id="boundary" inkscape:connector-curvature="0" />
	<path style="fill:none;stroke:red;stroke-width:1px;stroke-linecap:butt;stroke-linejoin:miter;stroke-opacity:1" d="M 160.18,851.834 143.017,851.834 z" id="boundary" inkscape:connector-curvature="0" />
	<path style="fill:none;stroke:red;stroke-width:1px;stroke-linecap:butt;stroke-linejoin:miter;stroke-opacity:1" d="M 185.924,826.09 203.087,826.09 z" id="boundary" inkscape:connector-curvature="0" />
	<path style="fill:none;stroke:red;stroke-width:1px;stroke-linecap:butt;stroke-linejoin:miter;stroke-opacity:1" d="M 177.343,843.253 160.18,851.834 z" id="boundary" inkscape:connector-curvature="0" />
	<path style="fill:none;stroke:red;stroke-width:1px;stroke-linecap:butt;stroke-linejoin:miter;stroke-opacity:1" d="M 115.557,877.578 129.287,867.28 z" id="boundary" inkscape:connector-curvature="0" />
	<path style="fill:none;stroke:red;stroke-width:1px;stroke-linecap:butt;stroke-linejoin:miter;stroke-opacity:1" d="M 129.287,867.28 143.017,851.834 z" id="boundary" inkscape:connector-curvature="0" />
	<path style="fill:none;stroke:red;stroke-width:1px;stroke-linecap:butt;stroke-linejoin:miter;stroke-opacity:1" d="M 300.913,791.765 285.467,800.346 z" id="boundary" inkscape:connector-curvature="0" />
	<path style="fill:none;stroke:red;stroke-width:1px;stroke-linecap:butt;stroke-linejoin:miter;stroke-opacity:1" d="M 285.467,800.346 268.304,800.346 z" id="boundary" inkscape:connector-curvature="0" />
	<path style="fill:none;stroke:red;stroke-width:1px;stroke-linecap:butt;stroke-linejoin:miter;stroke-opacity:1" d="M 252.858,808.927 268.304,800.346 z" id="boundary" inkscape:connector-curvature="0" />
	<path style="fill:none;stroke:red;stroke-width:1px;stroke-linecap:butt;stroke-linejoin:miter;stroke-opacity:1" d="M 203.087,826.09 218.533,817.509 z" id="boundary" inkscape:connector-curvature="0" />
	<path style="fill:none;stroke:red;stroke-width:1px;stroke-linecap:butt;stroke-linejoin:miter;stroke-opacity:1" d="M 218.533,817.509 235.696,812.36 z" id="boundary" inkscape:connector-curvature="0" />
	<path style="fill:none;stroke:red;stroke-width:1px;stroke-linecap:butt;stroke-linejoin:miter;stroke-opacity:1" d="M 235.696,812.36 252.858,808.927 z" id="boundary" inkscape:connector-curvature="0" />
	<path style="fill:none;stroke:red;stroke-width:1px;stroke-linecap:butt;stroke-linejoin:miter;stroke-opacity:1" d="M 86.3806,740.277 118.99,695.654 z" id="boundary" inkscape:connector-curvature="0" />
	<path style="fill:none;stroke:red;stroke-width:1px;stroke-linecap:butt;stroke-linejoin:miter;stroke-opacity:1" d="M 812.36,72.6505 820.941,55.4879 z" id="boundary" inkscape:connector-curvature="0" />
	<path style="fill:none;stroke:red;stroke-width:1px;stroke-linecap:butt;stroke-linejoin:miter;stroke-opacity:1" d="M 812.36,72.6505 798.63,86.3806 z" id="boundary" inkscape:connector-curvature="0" />
	<path style="fill:none;stroke:red;stroke-width:1px;stroke-linecap:butt;stroke-linejoin:miter;stroke-opacity:1" d="M 781.467,94.9619 798.63,86.3806 z" id="boundary" inkscape:connector-curvature="0" />
	<path style="fill:none;stroke:red;stroke-width:1px;stroke-linecap:butt;stroke-linejoin:miter;stroke-opacity:1" d="M 820.941,98.3945 803.779,103.543 z" id="boundary" inkscape:connector-curvature="0" />
	<path style="fill:none;stroke:red;stroke-width:1px;stroke-linecap:butt;stroke-linejoin:miter;stroke-opacity:1" d="M 838.104,86.3806 820.941,98.3945 z" id="boundary" inkscape:connector-curvature="0" />
	<path style="fill:none;stroke:red;stroke-width:1px;stroke-linecap:butt;stroke-linejoin:miter;stroke-opacity:1" d="M 893.024,34.8927 877.578,43.474 z" id="boundary" inkscape:connector-curvature="0" />
	<path style="fill:none;stroke:red;stroke-width:1px;stroke-linecap:butt;stroke-linejoin:miter;stroke-opacity:1" d="M 863.848,55.4879 877.578,43.474 z" id="boundary" inkscape:connector-curvature="0" />
	<path style="fill:none;stroke:red;stroke-width:1px;stroke-linecap:butt;stroke-linejoin:miter;stroke-opacity:1" d="M 853.55,74.3668 838.104,86.3806 z" id="boundary" inkscape:connector-curvature="0" />
	<path style="fill:none;stroke:red;stroke-width:1px;stroke-linecap:butt;stroke-linejoin:miter;stroke-opacity:1" d="M 853.55,74.3668 863.848,55.4879 z" id="boundary" inkscape:connector-curvature="0" />
	<path style="fill:none;stroke:red;stroke-width:1px;stroke-linecap:butt;stroke-linejoin:miter;stroke-opacity:1" d="M 846.685,57.2042 834.671,43.474 z" id="boundary" inkscape:connector-curvature="0" />
	<path style="fill:none;stroke:red;stroke-width:1px;stroke-linecap:butt;stroke-linejoin:miter;stroke-opacity:1" d="M 820.941,55.4879 834.671,43.474 z" id="boundary" inkscape:connector-curvature="0" />
	<path style="fill:none;stroke:red;stroke-width:1px;stroke-linecap:butt;stroke-linejoin:miter;stroke-opacity:1" d="M 695.654,197.938 709.384,184.208 z" id="boundary" inkscape:connector-curvature="0" />
	<path style="fill:none;stroke:red;stroke-width:1px;stroke-linecap:butt;stroke-linejoin:miter;stroke-opacity:1" d="M 695.654,197.938 678.491,206.519 z" id="boundary" inkscape:connector-curvature="0" />
	<path style="fill:none;stroke:red;stroke-width:1px;stroke-linecap:butt;stroke-linejoin:miter;stroke-opacity:1" d="M 709.384,184.208 729.979,155.031 z" id="boundary" inkscape:connector-curvature="0" />
	<path style="fill:none;stroke:red;stroke-width:1px;stroke-linecap:butt;stroke-linejoin:miter;stroke-opacity:1" d="M 678.491,206.519 669.91,223.682 z" id="boundary" inkscape:connector-curvature="0" />
	<path style="fill:none;stroke:red;stroke-width:1px;stroke-linecap:butt;stroke-linejoin:miter;stroke-opacity:1" d="M 669.91,223.682 656.18,237.412 z" id="boundary" inkscape:connector-curvature="0" />
	<path style="fill:none;stroke:red;stroke-width:1px;stroke-linecap:butt;stroke-linejoin:miter;stroke-opacity:1" d="M 647.599,254.574 656.18,237.412 z" id="boundary" inkscape:connector-curvature="0" />
	<path style="fill:none;stroke:red;stroke-width:1px;stroke-linecap:butt;stroke-linejoin:miter;stroke-opacity:1" d="M 803.779,103.543 760.872,132.72 z" id="boundary" inkscape:connector-curvature="0" />
	<path style="fill:none;stroke:red;stroke-width:1px;stroke-linecap:butt;stroke-linejoin:miter;stroke-opacity:1" d="M 760.872,132.72 747.142,146.45 z" id="boundary" inkscape:connector-curvature="0" />
	<path style="fill:none;stroke:red;stroke-width:1px;stroke-linecap:butt;stroke-linejoin:miter;stroke-opacity:1" d="M 767.737,108.692 781.467,94.9619 z" id="boundary" inkscape:connector-curvature="0" />
	<path style="fill:none;stroke:red;stroke-width:1px;stroke-linecap:butt;stroke-linejoin:miter;stroke-opacity:1" d="M 723.114,172.194 747.142,146.45 z" id="boundary" inkscape:connector-curvature="0" />
	<path style="fill:none;stroke:red;stroke-width:1px;stroke-linecap:butt;stroke-linejoin:miter;stroke-opacity:1" d="M 729.979,155.031 767.737,108.692 z" id="boundary" inkscape:connector-curvature="0" />
	<path style="fill:none;stroke:red;stroke-width:1px;stroke-linecap:butt;stroke-linejoin:miter;stroke-opacity:1" d="M 872.429,251.142 887.875,242.561 z" id="boundary" inkscape:connector-curvature="0" />
	<path style="fill:none;stroke:red;stroke-width:1px;stroke-linecap:butt;stroke-linejoin:miter;stroke-opacity:1" d="M 872.429,268.304 872.429,251.142 z" id="boundary" inkscape:connector-curvature="0" />
	<path style="fill:none;stroke:red;stroke-width:1px;stroke-linecap:butt;stroke-linejoin:miter;stroke-opacity:1" d="M 898.173,225.398 887.875,242.561 z" id="boundary" inkscape:connector-curvature="0" />
	<path style="fill:none;stroke:red;stroke-width:1px;stroke-linecap:butt;stroke-linejoin:miter;stroke-opacity:1" d="M 906.754,21.1626 915.336,4 z" id="boundary" inkscape:connector-curvature="0" />
	<path style="fill:none;stroke:red;stroke-width:1px;stroke-linecap:butt;stroke-linejoin:miter;stroke-opacity:1" d="M 915.336,4 923.917,19.4464 z" id="boundary" inkscape:connector-curvature="0" />
	<path style="fill:none;stroke:red;stroke-width:1px;stroke-linecap:butt;stroke-linejoin:miter;stroke-opacity:1" d="M 906.754,21.1626 893.024,34.8927 z" id="boundary" inkscape:connector-curvature="0" />
	<path style="fill:none;stroke:red;stroke-width:1px;stroke-linecap:butt;stroke-linejoin:miter;stroke-opacity:1" d="M 932.498,34.8927 932.498,53.7716 z" id="boundary" inkscape:connector-curvature="0" />
	<path style="fill:none;stroke:red;stroke-width:1px;stroke-linecap:butt;stroke-linejoin:miter;stroke-opacity:1" d="M 923.917,19.4464 932.498,34.8927 z" id="boundary" inkscape:connector-curvature="0" />
	<path style="fill:none;stroke:red;stroke-width:1px;stroke-linecap:butt;stroke-linejoin:miter;stroke-opacity:1" d="M 932.498,53.7716 941.08,69.218 z" id="boundary" inkscape:connector-curvature="0" />
	<path style="fill:none;stroke:red;stroke-width:1px;stroke-linecap:butt;stroke-linejoin:miter;stroke-opacity:1" d="M 949.661,96.6782 941.08,69.218 z" id="boundary" inkscape:connector-curvature="0" />
	<path style="fill:none;stroke:red;stroke-width:1px;stroke-linecap:butt;stroke-linejoin:miter;stroke-opacity:1" d="M 985.702,52.0554 968.54,53.7716 z" id="boundary" inkscape:connector-curvature="0" />
	<path style="fill:none;stroke:red;stroke-width:1px;stroke-linecap:butt;stroke-linejoin:miter;stroke-opacity:1" d="M 932.498,156.747 949.661,139.585 z" id="boundary" inkscape:connector-curvature="0" />
	<path style="fill:none;stroke:red;stroke-width:1px;stroke-linecap:butt;stroke-linejoin:miter;stroke-opacity:1" d="M 906.754,208.235 898.173,225.398 z" id="boundary" inkscape:connector-curvature="0" />
	<path style="fill:none;stroke:red;stroke-width:1px;stroke-linecap:butt;stroke-linejoin:miter;stroke-opacity:1" d="M 915.336,182.491 906.754,208.235 z" id="boundary" inkscape:connector-curvature="0" />
	<path style="fill:none;stroke:red;stroke-width:1px;stroke-linecap:butt;stroke-linejoin:miter;stroke-opacity:1" d="M 973.689,103.543 965.107,88.0969 z" id="boundary" inkscape:connector-curvature="0" />
	<path style="fill:none;stroke:red;stroke-width:1px;stroke-linecap:butt;stroke-linejoin:miter;stroke-opacity:1" d="M 965.107,88.0969 978.837,77.7993 z" id="boundary" inkscape:connector-curvature="0" />
	<path style="fill:none;stroke:red;stroke-width:1px;stroke-linecap:butt;stroke-linejoin:miter;stroke-opacity:1" d="M 996,69.218 978.837,77.7993 z" id="boundary" inkscape:connector-curvature="0" />
	<path style="fill:none;stroke:red;stroke-width:1px;stroke-linecap:butt;stroke-linejoin:miter;stroke-opacity:1" d="M 985.702,52.0554 996,69.218 z" id="boundary" inkscape:connector-curvature="0" />
	<path style="fill:none;stroke:red;stroke-width:1px;stroke-linecap:butt;stroke-linejoin:miter;stroke-opacity:1" d="M 949.661,139.585 963.391,127.571 z" id="boundary" inkscape:connector-curvature="0" />
	<path style="fill:none;stroke:red;stroke-width:1px;stroke-linecap:butt;stroke-linejoin:miter;stroke-opacity:1" d="M 963.391,127.571 980.554,120.706 z" id="boundary" inkscape:connector-curvature="0" />
	<path style="fill:none;stroke:red;stroke-width:1px;stroke-linecap:butt;stroke-linejoin:miter;stroke-opacity:1" d="M 973.689,103.543 980.554,120.706 z" id="boundary" inkscape:connector-curvature="0" />
	<path style="fill:none;stroke:red;stroke-width:1px;stroke-linecap:butt;stroke-linejoin:miter;stroke-opacity:1" d="M 709.384,517.163 692.221,534.325 z" id="boundary" inkscape:connector-curvature="0" />
	<path style="fill:none;stroke:red;stroke-width:1px;stroke-linecap:butt;stroke-linejoin:miter;stroke-opacity:1" d="M 692.221,534.325 675.059,542.907 z" id="boundary" inkscape:connector-curvature="0" />
	<path style="fill:none;stroke:red;stroke-width:1px;stroke-linecap:butt;stroke-linejoin:miter;stroke-opacity:1" d="M 675.059,560.069 675.059,542.907 z" id="boundary" inkscape:connector-curvature="0" />
	<path style="fill:none;stroke:red;stroke-width:1px;stroke-linecap:butt;stroke-linejoin:miter;stroke-opacity:1" d="M 675.059,560.069 688.789,570.367 z" id="boundary" inkscape:connector-curvature="0" />
	<path style="fill:none;stroke:red;stroke-width:1px;stroke-linecap:butt;stroke-linejoin:miter;stroke-opacity:1" d="M 688.789,570.367 692.221,587.529 z" id="boundary" inkscape:connector-curvature="0" />
	<path style="fill:none;stroke:red;stroke-width:1px;stroke-linecap:butt;stroke-linejoin:miter;stroke-opacity:1" d="M 702.519,601.26 692.221,587.529 z" id="boundary" inkscape:connector-curvature="0" />
	<path style="fill:none;stroke:red;stroke-width:1px;stroke-linecap:butt;stroke-linejoin:miter;stroke-opacity:1" d="M 709.384,517.163 723.114,505.149 z" id="boundary" inkscape:connector-curvature="0" />
	<path style="fill:none;stroke:red;stroke-width:1px;stroke-linecap:butt;stroke-linejoin:miter;stroke-opacity:1" d="M 740.277,496.567 723.114,505.149 z" id="boundary" inkscape:connector-curvature="0" />
	<path style="fill:none;stroke:red;stroke-width:1px;stroke-linecap:butt;stroke-linejoin:miter;stroke-opacity:1" d="M 702.519,601.26 716.249,613.273 z" id="boundary" inkscape:connector-curvature="0" />
	<path style="fill:none;stroke:red;stroke-width:1px;stroke-linecap:butt;stroke-linejoin:miter;stroke-opacity:1" d="M 726.547,627.003 740.277,637.301 z" id="boundary" inkscape:connector-curvature="0" />
	<path style="fill:none;stroke:red;stroke-width:1px;stroke-linecap:butt;stroke-linejoin:miter;stroke-opacity:1" d="M 726.547,627.003 716.249,613.273 z" id="boundary" inkscape:connector-curvature="0" />
	<path style="fill:none;stroke:red;stroke-width:1px;stroke-linecap:butt;stroke-linejoin:miter;stroke-opacity:1" d="M 755.723,645.882 740.277,637.301 z" id="boundary" inkscape:connector-curvature="0" />
	<path style="fill:none;stroke:red;stroke-width:1px;stroke-linecap:butt;stroke-linejoin:miter;stroke-opacity:1" d="M 656.18,699.087 647.599,683.64 z" id="boundary" inkscape:connector-curvature="0" />
	<path style="fill:none;stroke:red;stroke-width:1px;stroke-linecap:butt;stroke-linejoin:miter;stroke-opacity:1" d="M 664.761,714.533 656.18,699.087 z" id="boundary" inkscape:connector-curvature="0" />
	<path style="fill:none;stroke:red;stroke-width:1px;stroke-linecap:butt;stroke-linejoin:miter;stroke-opacity:1" d="M 640.734,666.478 647.599,683.64 z" id="boundary" inkscape:connector-curvature="0" />
	<path style="fill:none;stroke:red;stroke-width:1px;stroke-linecap:butt;stroke-linejoin:miter;stroke-opacity:1" d="M 664.761,714.533 673.343,729.979 z" id="boundary" inkscape:connector-curvature="0" />
	<path style="fill:none;stroke:red;stroke-width:1px;stroke-linecap:butt;stroke-linejoin:miter;stroke-opacity:1" d="M 673.343,729.979 676.775,747.142 z" id="boundary" inkscape:connector-curvature="0" />
	<path style="fill:none;stroke:red;stroke-width:1px;stroke-linecap:butt;stroke-linejoin:miter;stroke-opacity:1" d="M 693.938,754.007 676.775,747.142 z" id="boundary" inkscape:connector-curvature="0" />
	<path style="fill:none;stroke:red;stroke-width:1px;stroke-linecap:butt;stroke-linejoin:miter;stroke-opacity:1" d="M 700.803,771.17 693.938,754.007 z" id="boundary" inkscape:connector-curvature="0" />
	<path style="fill:none;stroke:red;stroke-width:1px;stroke-linecap:butt;stroke-linejoin:miter;stroke-opacity:1" d="M 709.384,786.616 700.803,771.17 z" id="boundary" inkscape:connector-curvature="0" />
	<path style="fill:none;stroke:red;stroke-width:1px;stroke-linecap:butt;stroke-linejoin:miter;stroke-opacity:1" d="M 709.384,786.616 716.249,803.779 z" id="boundary" inkscape:connector-curvature="0" />
	<path style="fill:none;stroke:red;stroke-width:1px;stroke-linecap:butt;stroke-linejoin:miter;stroke-opacity:1" d="M 764.304,807.211 747.142,815.792 z" id="boundary" inkscape:connector-curvature="0" />
	<path style="fill:none;stroke:red;stroke-width:1px;stroke-linecap:butt;stroke-linejoin:miter;stroke-opacity:1" d="M 729.979,815.792 747.142,815.792 z" id="boundary" inkscape:connector-curvature="0" />
	<path style="fill:none;stroke:red;stroke-width:1px;stroke-linecap:butt;stroke-linejoin:miter;stroke-opacity:1" d="M 729.979,815.792 716.249,803.779 z" id="boundary" inkscape:connector-curvature="0" />
	<path style="fill:none;stroke:red;stroke-width:1px;stroke-linecap:butt;stroke-linejoin:miter;stroke-opacity:1" d="M 755.723,645.882 769.453,657.896 z" id="boundary" inkscape:connector-curvature="0" />
	<path style="fill:none;stroke:red;stroke-width:1px;stroke-linecap:butt;stroke-linejoin:miter;stroke-opacity:1" d="M 740.277,496.567 757.439,487.986 z" id="boundary" inkscape:connector-curvature="0" />
	<path style="fill:none;stroke:red;stroke-width:1px;stroke-linecap:butt;stroke-linejoin:miter;stroke-opacity:1" d="M 798.63,429.633 803.779,405.606 z" id="boundary" inkscape:connector-curvature="0" />
	<path style="fill:none;stroke:red;stroke-width:1px;stroke-linecap:butt;stroke-linejoin:miter;stroke-opacity:1" d="M 803.779,405.606 817.509,393.592 z" id="boundary" inkscape:connector-curvature="0" />
	<path style="fill:none;stroke:red;stroke-width:1px;stroke-linecap:butt;stroke-linejoin:miter;stroke-opacity:1" d="M 798.63,429.633 784.9,439.931 z" id="boundary" inkscape:connector-curvature="0" />
	<path style="fill:none;stroke:red;stroke-width:1px;stroke-linecap:butt;stroke-linejoin:miter;stroke-opacity:1" d="M 817.509,393.592 829.522,379.862 z" id="boundary" inkscape:connector-curvature="0" />
	<path style="fill:none;stroke:red;stroke-width:1px;stroke-linecap:butt;stroke-linejoin:miter;stroke-opacity:1" d="M 784.9,439.931 774.602,453.661 z" id="boundary" inkscape:connector-curvature="0" />
	<path style="fill:none;stroke:red;stroke-width:1px;stroke-linecap:butt;stroke-linejoin:miter;stroke-opacity:1" d="M 774.602,453.661 760.872,465.675 z" id="boundary" inkscape:connector-curvature="0" />
	<path style="fill:none;stroke:red;stroke-width:1px;stroke-linecap:butt;stroke-linejoin:miter;stroke-opacity:1" d="M 757.439,487.986 760.872,465.675 z" id="boundary" inkscape:connector-curvature="0" />
	<path style="fill:none;stroke:red;stroke-width:1px;stroke-linecap:butt;stroke-linejoin:miter;stroke-opacity:1" d="M 855.266,311.211 846.685,328.374 z" id="boundary" inkscape:connector-curvature="0" />
	<path style="fill:none;stroke:red;stroke-width:1px;stroke-linecap:butt;stroke-linejoin:miter;stroke-opacity:1" d="M 863.848,294.048 872.429,268.304 z" id="boundary" inkscape:connector-curvature="0" />
	<path style="fill:none;stroke:red;stroke-width:1px;stroke-linecap:butt;stroke-linejoin:miter;stroke-opacity:1" d="M 855.266,311.211 863.848,294.048 z" id="boundary" inkscape:connector-curvature="0" />
	<path style="fill:none;stroke:red;stroke-width:1px;stroke-linecap:butt;stroke-linejoin:miter;stroke-opacity:1" d="M 829.522,362.699 829.522,379.862 z" id="boundary" inkscape:connector-curvature="0" />
	<path style="fill:none;stroke:red;stroke-width:1px;stroke-linecap:butt;stroke-linejoin:miter;stroke-opacity:1" d="M 846.685,328.374 846.685,345.536 z" id="boundary" inkscape:connector-curvature="0" />
	<path style="fill:none;stroke:red;stroke-width:1px;stroke-linecap:butt;stroke-linejoin:miter;stroke-opacity:1" d="M 783.183,669.91 769.453,657.896 z" id="boundary" inkscape:connector-curvature="0" />
	<path style="fill:none;stroke:red;stroke-width:1px;stroke-linecap:butt;stroke-linejoin:miter;stroke-opacity:1" d="M 795.197,683.64 783.183,669.91 z" id="boundary" inkscape:connector-curvature="0" />
	<path style="fill:none;stroke:red;stroke-width:1px;stroke-linecap:butt;stroke-linejoin:miter;stroke-opacity:1" d="M 810.644,692.221 795.197,683.64 z" id="boundary" inkscape:connector-curvature="0" />
	<path style="fill:none;stroke:red;stroke-width:1px;stroke-linecap:butt;stroke-linejoin:miter;stroke-opacity:1" d="M 764.304,807.211 778.035,791.765 z" id="boundary" inkscape:connector-curvature="0" />
	<path style="fill:none;stroke:red;stroke-width:1px;stroke-linecap:butt;stroke-linejoin:miter;stroke-opacity:1" d="M 778.035,791.765 795.197,783.183 z" id="boundary" inkscape:connector-curvature="0" />
	<path style="fill:none;stroke:red;stroke-width:1px;stroke-linecap:butt;stroke-linejoin:miter;stroke-opacity:1" d="M 839.82,712.817 824.374,704.235 z" id="boundary" inkscape:connector-curvature="0" />
	<path style="fill:none;stroke:red;stroke-width:1px;stroke-linecap:butt;stroke-linejoin:miter;stroke-opacity:1" d="M 824.374,704.235 810.644,692.221 z" id="boundary" inkscape:connector-curvature="0" />
	<path style="fill:none;stroke:red;stroke-width:1px;stroke-linecap:butt;stroke-linejoin:miter;stroke-opacity:1" d="M 839.82,712.817 836.388,740.277 z" id="boundary" inkscape:connector-curvature="0" />
	<path style="fill:none;stroke:red;stroke-width:1px;stroke-linecap:butt;stroke-linejoin:miter;stroke-opacity:1" d="M 795.197,783.183 812.36,766.021 z" id="boundary" inkscape:connector-curvature="0" />
	<path style="fill:none;stroke:red;stroke-width:1px;stroke-linecap:butt;stroke-linejoin:miter;stroke-opacity:1" d="M 812.36,766.021 826.09,754.007 z" id="boundary" inkscape:connector-curvature="0" />
	<path style="fill:none;stroke:red;stroke-width:1px;stroke-linecap:butt;stroke-linejoin:miter;stroke-opacity:1" d="M 836.388,740.277 826.09,754.007 z" id="boundary" inkscape:connector-curvature="0" />
	<circle cx="4" cy="812.36" r="4" fill="#0" id="circle0"/>
	<circle cx="21.1626" cy="803.779" r="4" fill="#0" id="circle1"/>
	<circle cx="21.1626" cy="855.266" r="4" fill="#0" id="circle2"/>
	<circle cx="34.8927" cy="841.536" r="4" fill="#0" id="circle3"/>
	<circle cx="38.3253" cy="795.197" r="4" fill="#0" id="circle4"/>
	<circle cx="43.474" cy="824.374" r="4" fill="#0" id="circle5"/>
	<circle cx="46.9066" cy="778.035" r="4" fill="#0" id="circle6"/>
	<circle cx="46.9066" cy="881.01" r="4" fill="#0" id="circle7"/>
	<circle cx="52.0554" cy="841.536" r="4" fill="#0" id="circle8"/>
	<circle cx="55.4879" cy="726.547" r="4" fill="#0" id="circle9"/>
	<circle cx="55.4879" cy="800.346" r="4" fill="#0" id="circle10"/>
	<circle cx="55.4879" cy="863.848" r="4" fill="#0" id="circle11"/>
	<circle cx="57.2042" cy="894.74" r="4" fill="#0" id="circle12"/>
	<circle cx="60.6367" cy="764.304" r="4" fill="#0" id="circle13"/>
	<circle cx="60.6367" cy="826.09" r="4" fill="#0" id="circle14"/>
	<circle cx="65.7855" cy="740.277" r="4" fill="#0" id="circle15"/>
	<circle cx="72.6505" cy="721.398" r="4" fill="#0" id="circle16"/>
	<circle cx="72.6505" cy="846.685" r="4" fill="#0" id="circle17"/>
	<circle cx="74.3668" cy="877.578" r="4" fill="#0" id="circle18"/>
	<circle cx="77.7993" cy="755.723" r="4" fill="#0" id="circle19"/>
	<circle cx="77.7993" cy="826.09" r="4" fill="#0" id="circle20"/>
	<circle cx="86.3806" cy="740.277" r="4" fill="#0" id="circle21"/>
	<circle cx="88.0969" cy="712.817" r="4" fill="#0" id="circle22"/>
	<circle cx="88.0969" cy="865.564" r="4" fill="#0" id="circle23"/>
	<circle cx="98.3945" cy="879.294" r="4" fill="#0" id="circle24"/>
	<circle cx="100.111" cy="851.834" r="4" fill="#0" id="circle25"/>
	<circle cx="103.543" cy="704.235" r="4" fill="#0" id="circle26"/>
	<circle cx="115.557" cy="877.578" r="4" fill="#0" id="circle27"/>
	<circle cx="118.99" cy="695.654" r="4" fill="#0" id="circle28"/>
	<circle cx="129.287" cy="867.28" r="4" fill="#0" id="circle29"/>
	<circle cx="132.72" cy="675.059" r="4" fill="#0" id="circle30"/>
	<circle cx="143.017" cy="851.834" r="4" fill="#0" id="circle31"/>
	<circle cx="149.882" cy="666.478" r="4" fill="#0" id="circle32"/>
	<circle cx="160.18" cy="851.834" r="4" fill="#0" id="circle33"/>
	<circle cx="163.612" cy="652.747" r="4" fill="#0" id="circle34"/>
	<circle cx="177.343" cy="843.253" r="4" fill="#0" id="circle35"/>
	<circle cx="180.775" cy="644.166" r="4" fill="#0" id="circle36"/>
	<circle cx="185.924" cy="826.09" r="4" fill="#0" id="circle37"/>
	<circle cx="197.938" cy="635.585" r="4" fill="#0" id="circle38"/>
	<circle cx="203.087" cy="826.09" r="4" fill="#0" id="circle39"/>
	<circle cx="206.519" cy="618.422" r="4" fill="#0" id="circle40"/>
	<circle cx="218.533" cy="817.509" r="4" fill="#0" id="circle41"/>
	<circle cx="221.965" cy="609.841" r="4" fill="#0" id="circle42"/>
	<circle cx="235.696" cy="812.36" r="4" fill="#0" id="circle43"/>
	<circle cx="237.412" cy="601.26" r="4" fill="#0" id="circle44"/>
	<circle cx="252.858" cy="592.678" r="4" fill="#0" id="circle45"/>
	<circle cx="252.858" cy="808.927" r="4" fill="#0" id="circle46"/>
	<circle cx="268.304" cy="584.097" r="4" fill="#0" id="circle47"/>
	<circle cx="268.304" cy="800.346" r="4" fill="#0" id="circle48"/>
	<circle cx="285.467" cy="584.097" r="4" fill="#0" id="circle49"/>
	<circle cx="285.467" cy="800.346" r="4" fill="#0" id="circle50"/>
	<circle cx="292.332" cy="566.934" r="4" fill="#0" id="circle51"/>
	<circle cx="300.913" cy="791.765" r="4" fill="#0" id="circle52"/>
	<circle cx="309.495" cy="566.934" r="4" fill="#0" id="circle53"/>
	<circle cx="318.076" cy="791.765" r="4" fill="#0" id="circle54"/>
	<circle cx="324.941" cy="558.353" r="4" fill="#0" id="circle55"/>
	<circle cx="331.806" cy="774.602" r="4" fill="#0" id="circle56"/>
	<circle cx="342.104" cy="551.488" r="4" fill="#0" id="circle57"/>
	<circle cx="348.969" cy="774.602" r="4" fill="#0" id="circle58"/>
	<circle cx="359.266" cy="542.907" r="4" fill="#0" id="circle59"/>
	<circle cx="366.131" cy="774.602" r="4" fill="#0" id="circle60"/>
	<circle cx="376.429" cy="541.19" r="4" fill="#0" id="circle61"/>
	<circle cx="383.294" cy="766.021" r="4" fill="#0" id="circle62"/>
	<circle cx="391.875" cy="532.609" r="4" fill="#0" id="circle63"/>
	<circle cx="400.457" cy="757.439" r="4" fill="#0" id="circle64"/>
	<circle cx="402.173" cy="517.163" r="4" fill="#0" id="circle65"/>
	<circle cx="417.619" cy="748.858" r="4" fill="#0" id="circle66"/>
	<circle cx="419.336" cy="508.581" r="4" fill="#0" id="circle67"/>
	<circle cx="433.066" cy="434.782" r="4" fill="#0" id="circle68"/>
	<circle cx="434.782" cy="748.858" r="4" fill="#0" id="circle69"/>
	<circle cx="436.498" cy="506.865" r="4" fill="#0" id="circle70"/>
	<circle cx="441.647" cy="417.619" r="4" fill="#0" id="circle71"/>
	<circle cx="450.228" cy="439.931" r="4" fill="#0" id="circle72"/>
	<circle cx="450.228" cy="457.093" r="4" fill="#0" id="circle73"/>
	<circle cx="450.228" cy="474.256" r="4" fill="#0" id="circle74"/>
	<circle cx="450.228" cy="740.277" r="4" fill="#0" id="circle75"/>
	<circle cx="451.945" cy="498.284" r="4" fill="#0" id="circle76"/>
	<circle cx="455.377" cy="403.889" r="4" fill="#0" id="circle77"/>
	<circle cx="460.526" cy="723.114" r="4" fill="#0" id="circle78"/>
	<circle cx="472.54" cy="395.308" r="4" fill="#0" id="circle79"/>
	<circle cx="477.689" cy="723.114" r="4" fill="#0" id="circle80"/>
	<circle cx="489.702" cy="395.308" r="4" fill="#0" id="circle81"/>
	<circle cx="491.419" cy="711.1" r="4" fill="#0" id="circle82"/>
	<circle cx="506.865" cy="395.308" r="4" fill="#0" id="circle83"/>
	<circle cx="508.581" cy="702.519" r="4" fill="#0" id="circle84"/>
	<circle cx="520.595" cy="688.789" r="4" fill="#0" id="circle85"/>
	<circle cx="522.311" cy="403.889" r="4" fill="#0" id="circle86"/>
	<circle cx="537.758" cy="412.471" r="4" fill="#0" id="circle87"/>
	<circle cx="537.758" cy="671.626" r="4" fill="#0" id="circle88"/>
	<circle cx="553.204" cy="400.457" r="4" fill="#0" id="circle89"/>
	<circle cx="554.92" cy="654.464" r="4" fill="#0" id="circle90"/>
	<circle cx="563.502" cy="637.301" r="4" fill="#0" id="circle91"/>
	<circle cx="566.934" cy="386.727" r="4" fill="#0" id="circle92"/>
	<circle cx="578.948" cy="645.882" r="4" fill="#0" id="circle93"/>
	<circle cx="582.381" cy="378.145" r="4" fill="#0" id="circle94"/>
	<circle cx="587.529" cy="357.55" r="4" fill="#0" id="circle95"/>
	<circle cx="596.111" cy="645.882" r="4" fill="#0" id="circle96"/>
	<circle cx="601.26" cy="343.82" r="4" fill="#0" id="circle97"/>
	<circle cx="609.841" cy="326.657" r="4" fill="#0" id="circle98"/>
	<circle cx="613.273" cy="645.882" r="4" fill="#0" id="circle99"/>
	<circle cx="618.422" cy="309.495" r="4" fill="#0" id="circle100"/>
	<circle cx="623.571" cy="659.612" r="4" fill="#0" id="circle101"/>
	<circle cx="627.003" cy="292.332" r="4" fill="#0" id="circle102"/>
	<circle cx="640.734" cy="278.602" r="4" fill="#0" id="circle103"/>
	<circle cx="640.734" cy="666.478" r="4" fill="#0" id="circle104"/>
	<circle cx="647.599" cy="254.574" r="4" fill="#0" id="circle105"/>
	<circle cx="647.599" cy="683.64" r="4" fill="#0" id="circle106"/>
	<circle cx="656.18" cy="237.412" r="4" fill="#0" id="circle107"/>
	<circle cx="656.18" cy="699.087" r="4" fill="#0" id="circle108"/>
	<circle cx="664.761" cy="714.533" r="4" fill="#0" id="circle109"/>
	<circle cx="669.91" cy="223.682" r="4" fill="#0" id="circle110"/>
	<circle cx="673.343" cy="729.979" r="4" fill="#0" id="circle111"/>
	<circle cx="675.059" cy="542.907" r="4" fill="#0" id="circle112"/>
	<circle cx="675.059" cy="560.069" r="4" fill="#0" id="circle113"/>
	<circle cx="676.775" cy="747.142" r="4" fill="#0" id="circle114"/>
	<circle cx="678.491" cy="206.519" r="4" fill="#0" id="circle115"/>
	<circle cx="688.789" cy="570.367" r="4" fill="#0" id="circle116"/>
	<circle cx="692.221" cy="534.325" r="4" fill="#0" id="circle117"/>
	<circle cx="692.221" cy="587.529" r="4" fill="#0" id="circle118"/>
	<circle cx="693.938" cy="754.007" r="4" fill="#0" id="circle119"/>
	<circle cx="695.654" cy="197.938" r="4" fill="#0" id="circle120"/>
	<circle cx="700.803" cy="771.17" r="4" fill="#0" id="circle121"/>
	<circle cx="702.519" cy="601.26" r="4" fill="#0" id="circle122"/>
	<circle cx="709.384" cy="184.208" r="4" fill="#0" id="circle123"/>
	<circle cx="709.384" cy="517.163" r="4" fill="#0" id="circle124"/>
	<circle cx="709.384" cy="786.616" r="4" fill="#0" id="circle125"/>
	<circle cx="716.249" cy="613.273" r="4" fill="#0" id="circle126"/>
	<circle cx="716.249" cy="803.779" r="4" fill="#0" id="circle127"/>
	<circle cx="723.114" cy="172.194" r="4" fill="#0" id="circle128"/>
	<circle cx="723.114" cy="505.149" r="4" fill="#0" id="circle129"/>
	<circle cx="726.547" cy="627.003" r="4" fill="#0" id="circle130"/>
	<circle cx="729.979" cy="155.031" r="4" fill="#0" id="circle131"/>
	<circle cx="729.979" cy="815.792" r="4" fill="#0" id="circle132"/>
	<circle cx="740.277" cy="496.567" r="4" fill="#0" id="circle133"/>
	<circle cx="740.277" cy="637.301" r="4" fill="#0" id="circle134"/>
	<circle cx="747.142" cy="146.45" r="4" fill="#0" id="circle135"/>
	<circle cx="747.142" cy="815.792" r="4" fill="#0" id="circle136"/>
	<circle cx="755.723" cy="645.882" r="4" fill="#0" id="circle137"/>
	<circle cx="757.439" cy="487.986" r="4" fill="#0" id="circle138"/>
	<circle cx="760.872" cy="132.72" r="4" fill="#0" id="circle139"/>
	<circle cx="760.872" cy="465.675" r="4" fill="#0" id="circle140"/>
	<circle cx="764.304" cy="807.211" r="4" fill="#0" id="circle141"/>
	<circle cx="767.737" cy="108.692" r="4" fill="#0" id="circle142"/>
	<circle cx="769.453" cy="657.896" r="4" fill="#0" id="circle143"/>
	<circle cx="774.602" cy="453.661" r="4" fill="#0" id="circle144"/>
	<circle cx="778.035" cy="791.765" r="4" fill="#0" id="circle145"/>
	<circle cx="781.467" cy="94.9619" r="4" fill="#0" id="circle146"/>
	<circle cx="783.183" cy="669.91" r="4" fill="#0" id="circle147"/>
	<circle cx="784.9" cy="439.931" r="4" fill="#0" id="circle148"/>
	<circle cx="795.197" cy="683.64" r="4" fill="#0" id="circle149"/>
	<circle cx="795.197" cy="766.021" r="4" fill="#0" id="circle150"/>
	<circle cx="795.197" cy="783.183" r="4" fill="#0" id="circle151"/>
	<circle cx="798.63" cy="86.3806" r="4" fill="#0" id="circle152"/>
	<circle cx="798.63" cy="429.633" r="4" fill="#0" id="circle153"/>
	<circle cx="803.779" cy="103.543" r="4" fill="#0" id="circle154"/>
	<circle cx="803.779" cy="405.606" r="4" fill="#0" id="circle155"/>
	<circle cx="810.644" cy="692.221" r="4" fill="#0" id="circle156"/>
	<circle cx="812.36" cy="72.6505" r="4" fill="#0" id="circle157"/>
	<circle cx="812.36" cy="766.021" r="4" fill="#0" id="circle158"/>
	<circle cx="817.509" cy="393.592" r="4" fill="#0" id="circle159"/>
	<circle cx="820.941" cy="55.4879" r="4" fill="#0" id="circle160"/>
	<circle cx="820.941" cy="98.3945" r="4" fill="#0" id="circle161"/>
	<circle cx="824.374" cy="704.235" r="4" fill="#0" id="circle162"/>
	<circle cx="826.09" cy="754.007" r="4" fill="#0" id="circle163"/>
	<circle cx="829.522" cy="70.9343" r="4" fill="#0" id="circle164"/>
	<circle cx="829.522" cy="362.699" r="4" fill="#0" id="circle165"/>
	<circle cx="829.522" cy="379.862" r="4" fill="#0" id="circle166"/>
	<circle cx="834.671" cy="43.474" r="4" fill="#0" id="circle167"/>
	<circle cx="836.388" cy="740.277" r="4" fill="#0" id="circle168"/>
	<circle cx="838.104" cy="86.3806" r="4" fill="#0" id="circle169"/>
	<circle cx="839.82" cy="712.817" r="4" fill="#0" id="circle170"/>
	<circle cx="846.685" cy="57.2042" r="4" fill="#0" id="circle171"/>
	<circle cx="846.685" cy="328.374" r="4" fill="#0" id="circle172"/>
	<circle cx="846.685" cy="345.536" r="4" fill="#0" id="circle173"/>
	<circle cx="853.55" cy="74.3668" r="4" fill="#0" id="circle174"/>
	<circle cx="855.266" cy="311.211" r="4" fill="#0" id="circle175"/>
	<circle cx="863.848" cy="55.4879" r="4" fill="#0" id="circle176"/>
	<circle cx="863.848" cy="294.048" r="4" fill="#0" id="circle177"/>
	<circle cx="872.429" cy="251.142" r="4" fill="#0" id="circle178"/>
	<circle cx="872.429" cy="268.304" r="4" fill="#0" id="circle179"/>
	<circle cx="877.578" cy="43.474" r="4" fill="#0" id="circle180"/>
	<circle cx="887.875" cy="242.561" r="4" fill="#0" id="circle181"/>
	<circle cx="893.024" cy="34.8927" r="4" fill="#0" id="circle182"/>
	<circle cx="898.173" cy="225.398" r="4" fill="#0" id="circle183"/>
	<circle cx="906.754" cy="21.1626" r="4" fill="#0" id="circle184"/>
	<circle cx="906.754" cy="208.235" r="4" fill="#0" id="circle185"/>
	<circle cx="915.336" cy="4" r="4" fill="#0" id="circle186"/>
	<circle cx="915.336" cy="36.609" r="4" fill="#0" id="circle187"/>
	<circle cx="915.336" cy="182.491" r="4" fill="#0" id="circle188"/>
	<circle cx="923.917" cy="19.4464" r="4" fill="#0" id="circle189"/>
	<circle cx="932.498" cy="34.8927" r="4" fill="#0" id="circle190"/>
	<circle cx="932.498" cy="53.7716" r="4" fill="#0" id="circle191"/>
	<circle cx="932.498" cy="156.747" r="4" fill="#0" id="circle192"/>
	<circle cx="932.498" cy="173.91" r="4" fill="#0" id="circle193"/>
	<circle cx="941.08" cy="69.218" r="4" fill="#0" id="circle194"/>
	<circle cx="949.661" cy="29.7439" r="4" fill="#0" id="circle195"/>
	<circle cx="949.661" cy="46.9066" r="4" fill="#0" id="circle196"/>
	<circle cx="949.661" cy="96.6782" r="4" fill="#0" id="circle197"/>
	<circle cx="949.661" cy="139.585" r="4" fill="#0" id="circle198"/>
	<circle cx="958.242" cy="69.218" r="4" fill="#0" id="circle199"/>
	<circle cx="963.391" cy="17.7301" r="4" fill="#0" id="circle200"/>
	<circle cx="963.391" cy="127.571" r="4" fill="#0" id="circle201"/>
	<circle cx="965.107" cy="88.0969" r="4" fill="#0" id="circle202"/>
	<circle cx="968.54" cy="53.7716" r="4" fill="#0" id="circle203"/>
	<circle cx="973.689" cy="103.543" r="4" fill="#0" id="circle204"/>
	<circle cx="978.837" cy="77.7993" r="4" fill="#0" id="circle205"/>
	<circle cx="980.554" cy="120.706" r="4" fill="#0" id="circle206"/>
	<circle cx="985.702" cy="52.0554" r="4" fill="#0" id="circle207"/>
	<circle cx="996" cy="69.218" r="4" fill="#0" id="circle208"/>
	</g>
</svg>