<?xml version="1.0" encoding="UTF-8" standalone="no"?>
<!-- Created with CurveBenchmark -->
<svg
	xmlns:dc="http://purl.org/dc/elements/1.1/"
	xmlns:cc="http://creativecommons.org/ns#"
	xmlns:rdf="http://www.w3.org/1999/02/22-rdf-syntax-ns#"
	xmlns:svg="http://www.w3.org/2000/svg"
	xmlns="http://www.w3.org/2000/svg"
	xmlns:sodipodi="http://sodipodi.sourceforge.net/DTD/sodipodi-0.dtd"
	xmlns:inkscape="http://www.inkscape.org/namespaces/inkscape"
	width="1000"
	height="1000"
	id="svg2"
	version="1.1"
	sodipodi:docname="manifold/gathang-flatfish32.png.txt">
<defs
	id="defs4" />
<metadata
	id="metadata7">
	<rdf:RDF>
		<cc:Work
			rdf:about="">
			<dc:format>image/svg+xml</dc:format>
			<dc:type
				rdf:resource="http://purl.org/dc/dcmitype/StillImage" />
			<dc:title></dc:title>
		</cc:Work>
	</rdf:RDF>
</metadata>
<g
	inkscape:label="Layer 1"
	inkscape:groupmode="layer"
	id="layer1">
	<path style="fill:none;stroke:red;stroke-width:1px;stroke-linecap:butt;stroke-linejoin:miter;stroke-opacity:1" d="M 4,260.223 4,242.911 z" id="boundary" inkscape:connector-curvature="0" />
	<path style="fill:none;stroke:red;stroke-width:1px;stroke-linecap:butt;stroke-linejoin:miter;stroke-opacity:1" d="M 4,242.911 17.8499,229.061 z" id="boundary" inkscape:connector-curvature="0" />
	<path style="fill:none;stroke:red;stroke-width:1px;stroke-linecap:butt;stroke-linejoin:miter;stroke-opacity:1" d="M 35.1623,220.405 17.8499,229.061 z" id="boundary" inkscape:connector-curvature="0" />
	<path style="fill:none;stroke:red;stroke-width:1px;stroke-linecap:butt;stroke-linejoin:miter;stroke-opacity:1" d="M 4,277.536 4,260.223 z" id="boundary" inkscape:connector-curvature="0" />
	<path style="fill:none;stroke:red;stroke-width:1px;stroke-linecap:butt;stroke-linejoin:miter;stroke-opacity:1" d="M 17.8499,306.967 4,294.848 z" id="boundary" inkscape:connector-curvature="0" />
	<path style="fill:none;stroke:red;stroke-width:1px;stroke-linecap:butt;stroke-linejoin:miter;stroke-opacity:1" d="M 4,294.848 4,277.536 z" id="boundary" inkscape:connector-curvature="0" />
	<path style="fill:none;stroke:red;stroke-width:1px;stroke-linecap:butt;stroke-linejoin:miter;stroke-opacity:1" d="M 111.337,168.468 95.7557,177.124 z" id="boundary" inkscape:connector-curvature="0" />
	<path style="fill:none;stroke:red;stroke-width:1px;stroke-linecap:butt;stroke-linejoin:miter;stroke-opacity:1" d="M 81.9058,189.243 95.7557,177.124 z" id="boundary" inkscape:connector-curvature="0" />
	<path style="fill:none;stroke:red;stroke-width:1px;stroke-linecap:butt;stroke-linejoin:miter;stroke-opacity:1" d="M 50.7435,211.749 64.5934,190.974 z" id="boundary" inkscape:connector-curvature="0" />
	<path style="fill:none;stroke:red;stroke-width:1px;stroke-linecap:butt;stroke-linejoin:miter;stroke-opacity:1" d="M 64.5934,190.974 81.9058,189.243 z" id="boundary" inkscape:connector-curvature="0" />
	<path style="fill:none;stroke:red;stroke-width:1px;stroke-linecap:butt;stroke-linejoin:miter;stroke-opacity:1" d="M 50.7435,211.749 35.1623,220.405 z" id="boundary" inkscape:connector-curvature="0" />
	<path style="fill:none;stroke:red;stroke-width:1px;stroke-linecap:butt;stroke-linejoin:miter;stroke-opacity:1" d="M 24.7749,324.279 17.8499,306.967 z" id="boundary" inkscape:connector-curvature="0" />
	<path style="fill:none;stroke:red;stroke-width:1px;stroke-linecap:butt;stroke-linejoin:miter;stroke-opacity:1" d="M 40.356,357.173 33.4311,339.86 z" id="boundary" inkscape:connector-curvature="0" />
	<path style="fill:none;stroke:red;stroke-width:1px;stroke-linecap:butt;stroke-linejoin:miter;stroke-opacity:1" d="M 24.7749,324.279 33.4311,339.86 z" id="boundary" inkscape:connector-curvature="0" />
	<path style="fill:none;stroke:red;stroke-width:1px;stroke-linecap:butt;stroke-linejoin:miter;stroke-opacity:1" d="M 61.1309,393.529 47.281,381.41 z" id="boundary" inkscape:connector-curvature="0" />
	<path style="fill:none;stroke:red;stroke-width:1px;stroke-linecap:butt;stroke-linejoin:miter;stroke-opacity:1" d="M 47.281,381.41 40.356,357.173 z" id="boundary" inkscape:connector-curvature="0" />
	<path style="fill:none;stroke:red;stroke-width:1px;stroke-linecap:butt;stroke-linejoin:miter;stroke-opacity:1" d="M 61.1309,393.529 73.2496,407.379 z" id="boundary" inkscape:connector-curvature="0" />
	<path style="fill:none;stroke:red;stroke-width:1px;stroke-linecap:butt;stroke-linejoin:miter;stroke-opacity:1" d="M 94.0244,435.079 83.637,421.229 z" id="boundary" inkscape:connector-curvature="0" />
	<path style="fill:none;stroke:red;stroke-width:1px;stroke-linecap:butt;stroke-linejoin:miter;stroke-opacity:1" d="M 94.0244,435.079 100.949,452.391 z" id="boundary" inkscape:connector-curvature="0" />
	<path style="fill:none;stroke:red;stroke-width:1px;stroke-linecap:butt;stroke-linejoin:miter;stroke-opacity:1" d="M 100.949,452.391 116.531,461.047 z" id="boundary" inkscape:connector-curvature="0" />
	<path style="fill:none;stroke:red;stroke-width:1px;stroke-linecap:butt;stroke-linejoin:miter;stroke-opacity:1" d="M 116.531,461.047 125.187,476.628 z" id="boundary" inkscape:connector-curvature="0" />
	<path style="fill:none;stroke:red;stroke-width:1px;stroke-linecap:butt;stroke-linejoin:miter;stroke-opacity:1" d="M 125.187,476.628 133.843,502.597 z" id="boundary" inkscape:connector-curvature="0" />
	<path style="fill:none;stroke:red;stroke-width:1px;stroke-linecap:butt;stroke-linejoin:miter;stroke-opacity:1" d="M 83.637,421.229 73.2496,407.379 z" id="boundary" inkscape:connector-curvature="0" />
	<path style="fill:none;stroke:red;stroke-width:1px;stroke-linecap:butt;stroke-linejoin:miter;stroke-opacity:1" d="M 133.843,502.597 133.843,519.909 z" id="boundary" inkscape:connector-curvature="0" />
	<path style="fill:none;stroke:red;stroke-width:1px;stroke-linecap:butt;stroke-linejoin:miter;stroke-opacity:1" d="M 119.993,152.887 137.305,151.155 z" id="boundary" inkscape:connector-curvature="0" />
	<path style="fill:none;stroke:red;stroke-width:1px;stroke-linecap:butt;stroke-linejoin:miter;stroke-opacity:1" d="M 350.248,87.0995 367.56,69.7871 z" id="boundary" inkscape:connector-curvature="0" />
	<path style="fill:none;stroke:red;stroke-width:1px;stroke-linecap:butt;stroke-linejoin:miter;stroke-opacity:1" d="M 367.56,69.7871 384.873,64.5934 z" id="boundary" inkscape:connector-curvature="0" />
	<path style="fill:none;stroke:red;stroke-width:1px;stroke-linecap:butt;stroke-linejoin:miter;stroke-opacity:1" d="M 402.185,64.5934 384.873,64.5934 z" id="boundary" inkscape:connector-curvature="0" />
	<path style="fill:none;stroke:red;stroke-width:1px;stroke-linecap:butt;stroke-linejoin:miter;stroke-opacity:1" d="M 319.086,99.2182 301.773,99.2182 z" id="boundary" inkscape:connector-curvature="0" />
	<path style="fill:none;stroke:red;stroke-width:1px;stroke-linecap:butt;stroke-linejoin:miter;stroke-opacity:1" d="M 336.398,99.2182 319.086,99.2182 z" id="boundary" inkscape:connector-curvature="0" />
	<path style="fill:none;stroke:red;stroke-width:1px;stroke-linecap:butt;stroke-linejoin:miter;stroke-opacity:1" d="M 350.248,87.0995 336.398,99.2182 z" id="boundary" inkscape:connector-curvature="0" />
	<path style="fill:none;stroke:red;stroke-width:1px;stroke-linecap:butt;stroke-linejoin:miter;stroke-opacity:1" d="M 286.192,107.874 301.773,99.2182 z" id="boundary" inkscape:connector-curvature="0" />
	<path style="fill:none;stroke:red;stroke-width:1px;stroke-linecap:butt;stroke-linejoin:miter;stroke-opacity:1" d="M 402.185,64.5934 417.766,73.2496 z" id="boundary" inkscape:connector-curvature="0" />
	<path style="fill:none;stroke:red;stroke-width:1px;stroke-linecap:butt;stroke-linejoin:miter;stroke-opacity:1" d="M 417.766,73.2496 433.347,64.5934 z" id="boundary" inkscape:connector-curvature="0" />
	<path style="fill:none;stroke:red;stroke-width:1px;stroke-linecap:butt;stroke-linejoin:miter;stroke-opacity:1" d="M 433.347,64.5934 448.928,73.2496 z" id="boundary" inkscape:connector-curvature="0" />
	<path style="fill:none;stroke:red;stroke-width:1px;stroke-linecap:butt;stroke-linejoin:miter;stroke-opacity:1" d="M 448.928,73.2496 464.51,81.9058 z" id="boundary" inkscape:connector-curvature="0" />
	<path style="fill:none;stroke:red;stroke-width:1px;stroke-linecap:butt;stroke-linejoin:miter;stroke-opacity:1" d="M 464.51,81.9058 481.822,87.0995 z" id="boundary" inkscape:connector-curvature="0" />
	<path style="fill:none;stroke:red;stroke-width:1px;stroke-linecap:butt;stroke-linejoin:miter;stroke-opacity:1" d="M 525.103,104.412 507.791,97.4869 z" id="boundary" inkscape:connector-curvature="0" />
	<path style="fill:none;stroke:red;stroke-width:1px;stroke-linecap:butt;stroke-linejoin:miter;stroke-opacity:1" d="M 168.468,133.843 185.78,121.724 z" id="boundary" inkscape:connector-curvature="0" />
	<path style="fill:none;stroke:red;stroke-width:1px;stroke-linecap:butt;stroke-linejoin:miter;stroke-opacity:1" d="M 168.468,133.843 152.887,142.499 z" id="boundary" inkscape:connector-curvature="0" />
	<path style="fill:none;stroke:red;stroke-width:1px;stroke-linecap:butt;stroke-linejoin:miter;stroke-opacity:1" d="M 203.092,113.068 185.78,121.724 z" id="boundary" inkscape:connector-curvature="0" />
	<path style="fill:none;stroke:red;stroke-width:1px;stroke-linecap:butt;stroke-linejoin:miter;stroke-opacity:1" d="M 137.305,151.155 152.887,142.499 z" id="boundary" inkscape:connector-curvature="0" />
	<path style="fill:none;stroke:red;stroke-width:1px;stroke-linecap:butt;stroke-linejoin:miter;stroke-opacity:1" d="M 235.986,116.531 253.298,116.531 z" id="boundary" inkscape:connector-curvature="0" />
	<path style="fill:none;stroke:red;stroke-width:1px;stroke-linecap:butt;stroke-linejoin:miter;stroke-opacity:1" d="M 268.88,107.874 253.298,116.531 z" id="boundary" inkscape:connector-curvature="0" />
	<path style="fill:none;stroke:red;stroke-width:1px;stroke-linecap:butt;stroke-linejoin:miter;stroke-opacity:1" d="M 268.88,107.874 286.192,107.874 z" id="boundary" inkscape:connector-curvature="0" />
	<path style="fill:none;stroke:red;stroke-width:1px;stroke-linecap:butt;stroke-linejoin:miter;stroke-opacity:1" d="M 235.986,116.531 220.405,107.874 z" id="boundary" inkscape:connector-curvature="0" />
	<path style="fill:none;stroke:red;stroke-width:1px;stroke-linecap:butt;stroke-linejoin:miter;stroke-opacity:1" d="M 203.092,113.068 220.405,107.874 z" id="boundary" inkscape:connector-curvature="0" />
	<path style="fill:none;stroke:red;stroke-width:1px;stroke-linecap:butt;stroke-linejoin:miter;stroke-opacity:1" d="M 133.843,519.909 133.843,537.222 z" id="boundary" inkscape:connector-curvature="0" />
	<path style="fill:none;stroke:red;stroke-width:1px;stroke-linecap:butt;stroke-linejoin:miter;stroke-opacity:1" d="M 133.843,537.222 133.843,554.534 z" id="boundary" inkscape:connector-curvature="0" />
	<path style="fill:none;stroke:red;stroke-width:1px;stroke-linecap:butt;stroke-linejoin:miter;stroke-opacity:1" d="M 133.843,554.534 125.187,571.846 z" id="boundary" inkscape:connector-curvature="0" />
	<path style="fill:none;stroke:red;stroke-width:1px;stroke-linecap:butt;stroke-linejoin:miter;stroke-opacity:1" d="M 133.843,587.428 125.187,571.846 z" id="boundary" inkscape:connector-curvature="0" />
	<path style="fill:none;stroke:red;stroke-width:1px;stroke-linecap:butt;stroke-linejoin:miter;stroke-opacity:1" d="M 133.843,604.74 125.187,623.784 z" id="boundary" inkscape:connector-curvature="0" />
	<path style="fill:none;stroke:red;stroke-width:1px;stroke-linecap:butt;stroke-linejoin:miter;stroke-opacity:1" d="M 133.843,587.428 133.843,604.74 z" id="boundary" inkscape:connector-curvature="0" />
	<path style="fill:none;stroke:red;stroke-width:1px;stroke-linecap:butt;stroke-linejoin:miter;stroke-opacity:1" d="M 139.037,635.902 125.187,623.784 z" id="boundary" inkscape:connector-curvature="0" />
	<path style="fill:none;stroke:red;stroke-width:1px;stroke-linecap:butt;stroke-linejoin:miter;stroke-opacity:1" d="M 187.511,603.009 196.168,585.696 z" id="boundary" inkscape:connector-curvature="0" />
	<path style="fill:none;stroke:red;stroke-width:1px;stroke-linecap:butt;stroke-linejoin:miter;stroke-opacity:1" d="M 211.749,577.04 196.168,585.696 z" id="boundary" inkscape:connector-curvature="0" />
	<path style="fill:none;stroke:red;stroke-width:1px;stroke-linecap:butt;stroke-linejoin:miter;stroke-opacity:1" d="M 163.274,628.977 170.199,611.665 z" id="boundary" inkscape:connector-curvature="0" />
	<path style="fill:none;stroke:red;stroke-width:1px;stroke-linecap:butt;stroke-linejoin:miter;stroke-opacity:1" d="M 170.199,611.665 187.511,603.009 z" id="boundary" inkscape:connector-curvature="0" />
	<path style="fill:none;stroke:red;stroke-width:1px;stroke-linecap:butt;stroke-linejoin:miter;stroke-opacity:1" d="M 229.061,649.752 220.405,667.065 z" id="boundary" inkscape:connector-curvature="0" />
	<path style="fill:none;stroke:red;stroke-width:1px;stroke-linecap:butt;stroke-linejoin:miter;stroke-opacity:1" d="M 229.061,577.04 211.749,577.04 z" id="boundary" inkscape:connector-curvature="0" />
	<path style="fill:none;stroke:red;stroke-width:1px;stroke-linecap:butt;stroke-linejoin:miter;stroke-opacity:1" d="M 139.037,635.902 154.618,644.558 z" id="boundary" inkscape:connector-curvature="0" />
	<path style="fill:none;stroke:red;stroke-width:1px;stroke-linecap:butt;stroke-linejoin:miter;stroke-opacity:1" d="M 163.274,628.977 154.618,644.558 z" id="boundary" inkscape:connector-curvature="0" />
	<path style="fill:none;stroke:red;stroke-width:1px;stroke-linecap:butt;stroke-linejoin:miter;stroke-opacity:1" d="M 182.318,739.777 168.468,753.627 z" id="boundary" inkscape:connector-curvature="0" />
	<path style="fill:none;stroke:red;stroke-width:1px;stroke-linecap:butt;stroke-linejoin:miter;stroke-opacity:1" d="M 190.974,722.464 182.318,739.777 z" id="boundary" inkscape:connector-curvature="0" />
	<path style="fill:none;stroke:red;stroke-width:1px;stroke-linecap:butt;stroke-linejoin:miter;stroke-opacity:1" d="M 159.812,770.939 168.468,753.627 z" id="boundary" inkscape:connector-curvature="0" />
	<path style="fill:none;stroke:red;stroke-width:1px;stroke-linecap:butt;stroke-linejoin:miter;stroke-opacity:1" d="M 173.661,783.058 159.812,770.939 z" id="boundary" inkscape:connector-curvature="0" />
	<path style="fill:none;stroke:red;stroke-width:1px;stroke-linecap:butt;stroke-linejoin:miter;stroke-opacity:1" d="M 189.243,791.714 173.661,783.058 z" id="boundary" inkscape:connector-curvature="0" />
	<path style="fill:none;stroke:red;stroke-width:1px;stroke-linecap:butt;stroke-linejoin:miter;stroke-opacity:1" d="M 211.749,684.377 199.63,705.152 z" id="boundary" inkscape:connector-curvature="0" />
	<path style="fill:none;stroke:red;stroke-width:1px;stroke-linecap:butt;stroke-linejoin:miter;stroke-opacity:1" d="M 220.405,667.065 211.749,684.377 z" id="boundary" inkscape:connector-curvature="0" />
	<path style="fill:none;stroke:red;stroke-width:1px;stroke-linecap:butt;stroke-linejoin:miter;stroke-opacity:1" d="M 235.986,819.414 220.405,810.757 z" id="boundary" inkscape:connector-curvature="0" />
	<path style="fill:none;stroke:red;stroke-width:1px;stroke-linecap:butt;stroke-linejoin:miter;stroke-opacity:1" d="M 206.555,798.639 189.243,791.714 z" id="boundary" inkscape:connector-curvature="0" />
	<path style="fill:none;stroke:red;stroke-width:1px;stroke-linecap:butt;stroke-linejoin:miter;stroke-opacity:1" d="M 206.555,798.639 220.405,810.757 z" id="boundary" inkscape:connector-curvature="0" />
	<path style="fill:none;stroke:red;stroke-width:1px;stroke-linecap:butt;stroke-linejoin:miter;stroke-opacity:1" d="M 190.974,722.464 199.63,705.152 z" id="boundary" inkscape:connector-curvature="0" />
	<path style="fill:none;stroke:red;stroke-width:1px;stroke-linecap:butt;stroke-linejoin:miter;stroke-opacity:1" d="M 229.061,577.04 237.717,592.621 z" id="boundary" inkscape:connector-curvature="0" />
	<path style="fill:none;stroke:red;stroke-width:1px;stroke-linecap:butt;stroke-linejoin:miter;stroke-opacity:1" d="M 241.18,609.934 237.717,592.621 z" id="boundary" inkscape:connector-curvature="0" />
	<path style="fill:none;stroke:red;stroke-width:1px;stroke-linecap:butt;stroke-linejoin:miter;stroke-opacity:1" d="M 242.911,635.902 241.18,609.934 z" id="boundary" inkscape:connector-curvature="0" />
	<path style="fill:none;stroke:red;stroke-width:1px;stroke-linecap:butt;stroke-linejoin:miter;stroke-opacity:1" d="M 242.911,635.902 229.061,649.752 z" id="boundary" inkscape:connector-curvature="0" />
	<path style="fill:none;stroke:red;stroke-width:1px;stroke-linecap:butt;stroke-linejoin:miter;stroke-opacity:1" d="M 402.185,732.852 386.604,741.508 z" id="boundary" inkscape:connector-curvature="0" />
	<path style="fill:none;stroke:red;stroke-width:1px;stroke-linecap:butt;stroke-linejoin:miter;stroke-opacity:1" d="M 402.185,732.852 417.766,741.508 z" id="boundary" inkscape:connector-curvature="0" />
	<path style="fill:none;stroke:red;stroke-width:1px;stroke-linecap:butt;stroke-linejoin:miter;stroke-opacity:1" d="M 386.604,741.508 377.948,758.82 z" id="boundary" inkscape:connector-curvature="0" />
	<path style="fill:none;stroke:red;stroke-width:1px;stroke-linecap:butt;stroke-linejoin:miter;stroke-opacity:1" d="M 417.766,741.508 435.079,741.508 z" id="boundary" inkscape:connector-curvature="0" />
	<path style="fill:none;stroke:red;stroke-width:1px;stroke-linecap:butt;stroke-linejoin:miter;stroke-opacity:1" d="M 452.391,741.508 435.079,741.508 z" id="boundary" inkscape:connector-curvature="0" />
	<path style="fill:none;stroke:red;stroke-width:1px;stroke-linecap:butt;stroke-linejoin:miter;stroke-opacity:1" d="M 474.897,750.164 492.209,750.164 z" id="boundary" inkscape:connector-curvature="0" />
	<path style="fill:none;stroke:red;stroke-width:1px;stroke-linecap:butt;stroke-linejoin:miter;stroke-opacity:1" d="M 474.897,750.164 452.391,741.508 z" id="boundary" inkscape:connector-curvature="0" />
	<path style="fill:none;stroke:red;stroke-width:1px;stroke-linecap:butt;stroke-linejoin:miter;stroke-opacity:1" d="M 526.834,750.164 509.522,755.358 z" id="boundary" inkscape:connector-curvature="0" />
	<path style="fill:none;stroke:red;stroke-width:1px;stroke-linecap:butt;stroke-linejoin:miter;stroke-opacity:1" d="M 509.522,755.358 492.209,750.164 z" id="boundary" inkscape:connector-curvature="0" />
	<path style="fill:none;stroke:red;stroke-width:1px;stroke-linecap:butt;stroke-linejoin:miter;stroke-opacity:1" d="M 251.567,828.07 235.986,819.414 z" id="boundary" inkscape:connector-curvature="0" />
	<path style="fill:none;stroke:red;stroke-width:1px;stroke-linecap:butt;stroke-linejoin:miter;stroke-opacity:1" d="M 267.148,836.726 251.567,828.07 z" id="boundary" inkscape:connector-curvature="0" />
	<path style="fill:none;stroke:red;stroke-width:1px;stroke-linecap:butt;stroke-linejoin:miter;stroke-opacity:1" d="M 298.311,854.038 282.729,845.382 z" id="boundary" inkscape:connector-curvature="0" />
	<path style="fill:none;stroke:red;stroke-width:1px;stroke-linecap:butt;stroke-linejoin:miter;stroke-opacity:1" d="M 313.892,862.695 298.311,854.038 z" id="boundary" inkscape:connector-curvature="0" />
	<path style="fill:none;stroke:red;stroke-width:1px;stroke-linecap:butt;stroke-linejoin:miter;stroke-opacity:1" d="M 326.01,845.382 313.892,862.695 z" id="boundary" inkscape:connector-curvature="0" />
	<path style="fill:none;stroke:red;stroke-width:1px;stroke-linecap:butt;stroke-linejoin:miter;stroke-opacity:1" d="M 282.729,845.382 267.148,836.726 z" id="boundary" inkscape:connector-curvature="0" />
	<path style="fill:none;stroke:red;stroke-width:1px;stroke-linecap:butt;stroke-linejoin:miter;stroke-opacity:1" d="M 365.829,781.326 377.948,758.82 z" id="boundary" inkscape:connector-curvature="0" />
	<path style="fill:none;stroke:red;stroke-width:1px;stroke-linecap:butt;stroke-linejoin:miter;stroke-opacity:1" d="M 365.829,781.326 357.173,798.639 z" id="boundary" inkscape:connector-curvature="0" />
	<path style="fill:none;stroke:red;stroke-width:1px;stroke-linecap:butt;stroke-linejoin:miter;stroke-opacity:1" d="M 339.86,833.264 326.01,845.382 z" id="boundary" inkscape:connector-curvature="0" />
	<path style="fill:none;stroke:red;stroke-width:1px;stroke-linecap:butt;stroke-linejoin:miter;stroke-opacity:1" d="M 348.517,815.951 357.173,798.639 z" id="boundary" inkscape:connector-curvature="0" />
	<path style="fill:none;stroke:red;stroke-width:1px;stroke-linecap:butt;stroke-linejoin:miter;stroke-opacity:1" d="M 348.517,815.951 339.86,833.264 z" id="boundary" inkscape:connector-curvature="0" />
	<path style="fill:none;stroke:red;stroke-width:1px;stroke-linecap:butt;stroke-linejoin:miter;stroke-opacity:1" d="M 526.834,750.164 544.147,750.164 z" id="boundary" inkscape:connector-curvature="0" />
	<path style="fill:none;stroke:red;stroke-width:1px;stroke-linecap:butt;stroke-linejoin:miter;stroke-opacity:1" d="M 597.815,21.3124 606.471,4 z" id="boundary" inkscape:connector-curvature="0" />
	<path style="fill:none;stroke:red;stroke-width:1px;stroke-linecap:butt;stroke-linejoin:miter;stroke-opacity:1" d="M 606.471,4 623.784,4 z" id="boundary" inkscape:connector-curvature="0" />
	<path style="fill:none;stroke:red;stroke-width:1px;stroke-linecap:butt;stroke-linejoin:miter;stroke-opacity:1" d="M 623.784,4 639.365,12.6562 z" id="boundary" inkscape:connector-curvature="0" />
	<path style="fill:none;stroke:red;stroke-width:1px;stroke-linecap:butt;stroke-linejoin:miter;stroke-opacity:1" d="M 583.965,35.1623 597.815,21.3124 z" id="boundary" inkscape:connector-curvature="0" />
	<path style="fill:none;stroke:red;stroke-width:1px;stroke-linecap:butt;stroke-linejoin:miter;stroke-opacity:1" d="M 575.309,52.4747 566.653,69.7871 z" id="boundary" inkscape:connector-curvature="0" />
	<path style="fill:none;stroke:red;stroke-width:1px;stroke-linecap:butt;stroke-linejoin:miter;stroke-opacity:1" d="M 575.309,52.4747 583.965,35.1623 z" id="boundary" inkscape:connector-curvature="0" />
	<path style="fill:none;stroke:red;stroke-width:1px;stroke-linecap:butt;stroke-linejoin:miter;stroke-opacity:1" d="M 639.365,12.6562 654.946,21.3124 z" id="boundary" inkscape:connector-curvature="0" />
	<path style="fill:none;stroke:red;stroke-width:1px;stroke-linecap:butt;stroke-linejoin:miter;stroke-opacity:1" d="M 654.946,21.3124 670.527,29.9686 z" id="boundary" inkscape:connector-curvature="0" />
	<path style="fill:none;stroke:red;stroke-width:1px;stroke-linecap:butt;stroke-linejoin:miter;stroke-opacity:1" d="M 686.108,38.6248 701.689,47.281 z" id="boundary" inkscape:connector-curvature="0" />
	<path style="fill:none;stroke:red;stroke-width:1px;stroke-linecap:butt;stroke-linejoin:miter;stroke-opacity:1" d="M 670.527,29.9686 686.108,38.6248 z" id="boundary" inkscape:connector-curvature="0" />
	<path style="fill:none;stroke:red;stroke-width:1px;stroke-linecap:butt;stroke-linejoin:miter;stroke-opacity:1" d="M 701.689,47.281 717.271,55.9372 z" id="boundary" inkscape:connector-curvature="0" />
	<path style="fill:none;stroke:red;stroke-width:1px;stroke-linecap:butt;stroke-linejoin:miter;stroke-opacity:1" d="M 552.803,92.2932 542.415,107.874 z" id="boundary" inkscape:connector-curvature="0" />
	<path style="fill:none;stroke:red;stroke-width:1px;stroke-linecap:butt;stroke-linejoin:miter;stroke-opacity:1" d="M 542.415,107.874 525.103,104.412 z" id="boundary" inkscape:connector-curvature="0" />
	<path style="fill:none;stroke:red;stroke-width:1px;stroke-linecap:butt;stroke-linejoin:miter;stroke-opacity:1" d="M 566.653,69.7871 552.803,92.2932 z" id="boundary" inkscape:connector-curvature="0" />
	<path style="fill:none;stroke:red;stroke-width:1px;stroke-linecap:butt;stroke-linejoin:miter;stroke-opacity:1" d="M 706.883,187.511 698.227,204.824 z" id="boundary" inkscape:connector-curvature="0" />
	<path style="fill:none;stroke:red;stroke-width:1px;stroke-linecap:butt;stroke-linejoin:miter;stroke-opacity:1" d="M 689.571,222.136 698.227,204.824 z" id="boundary" inkscape:connector-curvature="0" />
	<path style="fill:none;stroke:red;stroke-width:1px;stroke-linecap:butt;stroke-linejoin:miter;stroke-opacity:1" d="M 698.227,237.717 689.571,222.136 z" id="boundary" inkscape:connector-curvature="0" />
	<path style="fill:none;stroke:red;stroke-width:1px;stroke-linecap:butt;stroke-linejoin:miter;stroke-opacity:1" d="M 706.883,253.298 698.227,237.717 z" id="boundary" inkscape:connector-curvature="0" />
	<path style="fill:none;stroke:red;stroke-width:1px;stroke-linecap:butt;stroke-linejoin:miter;stroke-opacity:1" d="M 706.883,187.511 715.539,170.199 z" id="boundary" inkscape:connector-curvature="0" />
	<path style="fill:none;stroke:red;stroke-width:1px;stroke-linecap:butt;stroke-linejoin:miter;stroke-opacity:1" d="M 715.539,170.199 729.389,158.08 z" id="boundary" inkscape:connector-curvature="0" />
	<path style="fill:none;stroke:red;stroke-width:1px;stroke-linecap:butt;stroke-linejoin:miter;stroke-opacity:1" d="M 706.883,253.298 720.733,265.417 z" id="boundary" inkscape:connector-curvature="0" />
	<path style="fill:none;stroke:red;stroke-width:1px;stroke-linecap:butt;stroke-linejoin:miter;stroke-opacity:1" d="M 720.733,265.417 727.658,282.729 z" id="boundary" inkscape:connector-curvature="0" />
	<path style="fill:none;stroke:red;stroke-width:1px;stroke-linecap:butt;stroke-linejoin:miter;stroke-opacity:1" d="M 727.658,282.729 736.314,298.311 z" id="boundary" inkscape:connector-curvature="0" />
	<path style="fill:none;stroke:red;stroke-width:1px;stroke-linecap:butt;stroke-linejoin:miter;stroke-opacity:1" d="M 738.045,140.768 729.389,158.08 z" id="boundary" inkscape:connector-curvature="0" />
	<path style="fill:none;stroke:red;stroke-width:1px;stroke-linecap:butt;stroke-linejoin:miter;stroke-opacity:1" d="M 717.271,55.9372 732.852,64.5934 z" id="boundary" inkscape:connector-curvature="0" />
	<path style="fill:none;stroke:red;stroke-width:1px;stroke-linecap:butt;stroke-linejoin:miter;stroke-opacity:1" d="M 755.358,106.143 746.702,123.455 z" id="boundary" inkscape:connector-curvature="0" />
	<path style="fill:none;stroke:red;stroke-width:1px;stroke-linecap:butt;stroke-linejoin:miter;stroke-opacity:1" d="M 746.702,123.455 738.045,140.768 z" id="boundary" inkscape:connector-curvature="0" />
	<path style="fill:none;stroke:red;stroke-width:1px;stroke-linecap:butt;stroke-linejoin:miter;stroke-opacity:1" d="M 748.433,73.2496 762.283,83.637 z" id="boundary" inkscape:connector-curvature="0" />
	<path style="fill:none;stroke:red;stroke-width:1px;stroke-linecap:butt;stroke-linejoin:miter;stroke-opacity:1" d="M 762.283,83.637 755.358,106.143 z" id="boundary" inkscape:connector-curvature="0" />
	<path style="fill:none;stroke:red;stroke-width:1px;stroke-linecap:butt;stroke-linejoin:miter;stroke-opacity:1" d="M 748.433,312.161 736.314,298.311 z" id="boundary" inkscape:connector-curvature="0" />
	<path style="fill:none;stroke:red;stroke-width:1px;stroke-linecap:butt;stroke-linejoin:miter;stroke-opacity:1" d="M 758.82,326.01 748.433,312.161 z" id="boundary" inkscape:connector-curvature="0" />
	<path style="fill:none;stroke:red;stroke-width:1px;stroke-linecap:butt;stroke-linejoin:miter;stroke-opacity:1" d="M 732.852,64.5934 748.433,73.2496 z" id="boundary" inkscape:connector-curvature="0" />
	<path style="fill:none;stroke:red;stroke-width:1px;stroke-linecap:butt;stroke-linejoin:miter;stroke-opacity:1" d="M 767.476,343.323 758.82,326.01 z" id="boundary" inkscape:connector-curvature="0" />
	<path style="fill:none;stroke:red;stroke-width:1px;stroke-linecap:butt;stroke-linejoin:miter;stroke-opacity:1" d="M 776.133,358.904 767.476,343.323 z" id="boundary" inkscape:connector-curvature="0" />
	<path style="fill:none;stroke:red;stroke-width:1px;stroke-linecap:butt;stroke-linejoin:miter;stroke-opacity:1" d="M 776.133,358.904 776.133,377.948 z" id="boundary" inkscape:connector-curvature="0" />
	<path style="fill:none;stroke:red;stroke-width:1px;stroke-linecap:butt;stroke-linejoin:miter;stroke-opacity:1" d="M 784.789,393.529 776.133,377.948 z" id="boundary" inkscape:connector-curvature="0" />
	<path style="fill:none;stroke:red;stroke-width:1px;stroke-linecap:butt;stroke-linejoin:miter;stroke-opacity:1" d="M 784.789,393.529 784.789,410.841 z" id="boundary" inkscape:connector-curvature="0" />
	<path style="fill:none;stroke:red;stroke-width:1px;stroke-linecap:butt;stroke-linejoin:miter;stroke-opacity:1" d="M 784.789,428.154 784.789,410.841 z" id="boundary" inkscape:connector-curvature="0" />
	<path style="fill:none;stroke:red;stroke-width:1px;stroke-linecap:butt;stroke-linejoin:miter;stroke-opacity:1" d="M 741.508,525.103 750.164,507.791 z" id="boundary" inkscape:connector-curvature="0" />
	<path style="fill:none;stroke:red;stroke-width:1px;stroke-linecap:butt;stroke-linejoin:miter;stroke-opacity:1" d="M 741.508,525.103 724.195,542.415 z" id="boundary" inkscape:connector-curvature="0" />
	<path style="fill:none;stroke:red;stroke-width:1px;stroke-linecap:butt;stroke-linejoin:miter;stroke-opacity:1" d="M 764.014,495.672 750.164,507.791 z" id="boundary" inkscape:connector-curvature="0" />
	<path style="fill:none;stroke:red;stroke-width:1px;stroke-linecap:butt;stroke-linejoin:miter;stroke-opacity:1" d="M 772.67,478.36 764.014,495.672 z" id="boundary" inkscape:connector-curvature="0" />
	<path style="fill:none;stroke:red;stroke-width:1px;stroke-linecap:butt;stroke-linejoin:miter;stroke-opacity:1" d="M 732.852,557.997 750.164,557.997 z" id="boundary" inkscape:connector-curvature="0" />
	<path style="fill:none;stroke:red;stroke-width:1px;stroke-linecap:butt;stroke-linejoin:miter;stroke-opacity:1" d="M 750.164,557.997 767.476,563.19 z" id="boundary" inkscape:connector-curvature="0" />
	<path style="fill:none;stroke:red;stroke-width:1px;stroke-linecap:butt;stroke-linejoin:miter;stroke-opacity:1" d="M 732.852,557.997 724.195,542.415 z" id="boundary" inkscape:connector-curvature="0" />
	<path style="fill:none;stroke:red;stroke-width:1px;stroke-linecap:butt;stroke-linejoin:miter;stroke-opacity:1" d="M 767.476,563.19 783.058,571.846 z" id="boundary" inkscape:connector-curvature="0" />
	<path style="fill:none;stroke:red;stroke-width:1px;stroke-linecap:butt;stroke-linejoin:miter;stroke-opacity:1" d="M 784.789,428.154 781.326,461.047 z" id="boundary" inkscape:connector-curvature="0" />
	<path style="fill:none;stroke:red;stroke-width:1px;stroke-linecap:butt;stroke-linejoin:miter;stroke-opacity:1" d="M 781.326,461.047 772.67,478.36 z" id="boundary" inkscape:connector-curvature="0" />
	<path style="fill:none;stroke:red;stroke-width:1px;stroke-linecap:butt;stroke-linejoin:miter;stroke-opacity:1" d="M 783.058,571.846 800.37,575.309 z" id="boundary" inkscape:connector-curvature="0" />
	<path style="fill:none;stroke:red;stroke-width:1px;stroke-linecap:butt;stroke-linejoin:miter;stroke-opacity:1" d="M 817.682,575.309 833.264,583.965 z" id="boundary" inkscape:connector-curvature="0" />
	<path style="fill:none;stroke:red;stroke-width:1px;stroke-linecap:butt;stroke-linejoin:miter;stroke-opacity:1" d="M 800.37,575.309 817.682,575.309 z" id="boundary" inkscape:connector-curvature="0" />
	<path style="fill:none;stroke:red;stroke-width:1px;stroke-linecap:butt;stroke-linejoin:miter;stroke-opacity:1" d="M 850.576,583.965 833.264,583.965 z" id="boundary" inkscape:connector-curvature="0" />
	<path style="fill:none;stroke:red;stroke-width:1px;stroke-linecap:butt;stroke-linejoin:miter;stroke-opacity:1" d="M 627.246,727.658 613.396,741.508 z" id="boundary" inkscape:connector-curvature="0" />
	<path style="fill:none;stroke:red;stroke-width:1px;stroke-linecap:butt;stroke-linejoin:miter;stroke-opacity:1" d="M 613.396,741.508 596.084,746.702 z" id="boundary" inkscape:connector-curvature="0" />
	<path style="fill:none;stroke:red;stroke-width:1px;stroke-linecap:butt;stroke-linejoin:miter;stroke-opacity:1" d="M 578.771,750.164 561.459,750.164 z" id="boundary" inkscape:connector-curvature="0" />
	<path style="fill:none;stroke:red;stroke-width:1px;stroke-linecap:butt;stroke-linejoin:miter;stroke-opacity:1" d="M 596.084,746.702 578.771,750.164 z" id="boundary" inkscape:connector-curvature="0" />
	<path style="fill:none;stroke:red;stroke-width:1px;stroke-linecap:butt;stroke-linejoin:miter;stroke-opacity:1" d="M 561.459,750.164 544.147,750.164 z" id="boundary" inkscape:connector-curvature="0" />
	<path style="fill:none;stroke:red;stroke-width:1px;stroke-linecap:butt;stroke-linejoin:miter;stroke-opacity:1" d="M 646.29,689.571 661.871,680.914 z" id="boundary" inkscape:connector-curvature="0" />
	<path style="fill:none;stroke:red;stroke-width:1px;stroke-linecap:butt;stroke-linejoin:miter;stroke-opacity:1" d="M 661.871,680.914 670.527,701.689 z" id="boundary" inkscape:connector-curvature="0" />
	<path style="fill:none;stroke:red;stroke-width:1px;stroke-linecap:butt;stroke-linejoin:miter;stroke-opacity:1" d="M 679.183,717.271 670.527,701.689 z" id="boundary" inkscape:connector-curvature="0" />
	<path style="fill:none;stroke:red;stroke-width:1px;stroke-linecap:butt;stroke-linejoin:miter;stroke-opacity:1" d="M 679.183,717.271 679.183,736.314 z" id="boundary" inkscape:connector-curvature="0" />
	<path style="fill:none;stroke:red;stroke-width:1px;stroke-linecap:butt;stroke-linejoin:miter;stroke-opacity:1" d="M 693.033,748.433 679.183,736.314 z" id="boundary" inkscape:connector-curvature="0" />
	<path style="fill:none;stroke:red;stroke-width:1px;stroke-linecap:butt;stroke-linejoin:miter;stroke-opacity:1" d="M 699.958,765.745 693.033,748.433 z" id="boundary" inkscape:connector-curvature="0" />
	<path style="fill:none;stroke:red;stroke-width:1px;stroke-linecap:butt;stroke-linejoin:miter;stroke-opacity:1" d="M 627.246,727.658 644.558,719.002 z" id="boundary" inkscape:connector-curvature="0" />
	<path style="fill:none;stroke:red;stroke-width:1px;stroke-linecap:butt;stroke-linejoin:miter;stroke-opacity:1" d="M 708.614,781.326 713.808,798.639 z" id="boundary" inkscape:connector-curvature="0" />
	<path style="fill:none;stroke:red;stroke-width:1px;stroke-linecap:butt;stroke-linejoin:miter;stroke-opacity:1" d="M 708.614,781.326 699.958,765.745 z" id="boundary" inkscape:connector-curvature="0" />
	<path style="fill:none;stroke:red;stroke-width:1px;stroke-linecap:butt;stroke-linejoin:miter;stroke-opacity:1" d="M 715.539,815.951 713.808,798.639 z" id="boundary" inkscape:connector-curvature="0" />
	<path style="fill:none;stroke:red;stroke-width:1px;stroke-linecap:butt;stroke-linejoin:miter;stroke-opacity:1" d="M 722.464,833.264 715.539,815.951 z" id="boundary" inkscape:connector-curvature="0" />
	<path style="fill:none;stroke:red;stroke-width:1px;stroke-linecap:butt;stroke-linejoin:miter;stroke-opacity:1" d="M 731.12,848.845 722.464,833.264 z" id="boundary" inkscape:connector-curvature="0" />
	<path style="fill:none;stroke:red;stroke-width:1px;stroke-linecap:butt;stroke-linejoin:miter;stroke-opacity:1" d="M 767.476,810.757 776.133,793.445 z" id="boundary" inkscape:connector-curvature="0" />
	<path style="fill:none;stroke:red;stroke-width:1px;stroke-linecap:butt;stroke-linejoin:miter;stroke-opacity:1" d="M 776.133,826.339 767.476,810.757 z" id="boundary" inkscape:connector-curvature="0" />
	<path style="fill:none;stroke:red;stroke-width:1px;stroke-linecap:butt;stroke-linejoin:miter;stroke-opacity:1" d="M 776.133,793.445 793.445,784.789 z" id="boundary" inkscape:connector-curvature="0" />
	<path style="fill:none;stroke:red;stroke-width:1px;stroke-linecap:butt;stroke-linejoin:miter;stroke-opacity:1" d="M 776.133,826.339 776.133,843.651 z" id="boundary" inkscape:connector-curvature="0" />
	<path style="fill:none;stroke:red;stroke-width:1px;stroke-linecap:butt;stroke-linejoin:miter;stroke-opacity:1" d="M 744.97,860.963 751.895,878.276 z" id="boundary" inkscape:connector-curvature="0" />
	<path style="fill:none;stroke:red;stroke-width:1px;stroke-linecap:butt;stroke-linejoin:miter;stroke-opacity:1" d="M 731.12,848.845 744.97,860.963 z" id="boundary" inkscape:connector-curvature="0" />
	<path style="fill:none;stroke:red;stroke-width:1px;stroke-linecap:butt;stroke-linejoin:miter;stroke-opacity:1" d="M 776.133,843.651 776.133,860.963 z" id="boundary" inkscape:connector-curvature="0" />
	<path style="fill:none;stroke:red;stroke-width:1px;stroke-linecap:butt;stroke-linejoin:miter;stroke-opacity:1" d="M 765.745,888.663 751.895,878.276 z" id="boundary" inkscape:connector-curvature="0" />
	<path style="fill:none;stroke:red;stroke-width:1px;stroke-linecap:butt;stroke-linejoin:miter;stroke-opacity:1" d="M 883.469,592.621 866.157,592.621 z" id="boundary" inkscape:connector-curvature="0" />
	<path style="fill:none;stroke:red;stroke-width:1px;stroke-linecap:butt;stroke-linejoin:miter;stroke-opacity:1" d="M 866.157,592.621 850.576,583.965 z" id="boundary" inkscape:connector-curvature="0" />
	<path style="fill:none;stroke:red;stroke-width:1px;stroke-linecap:butt;stroke-linejoin:miter;stroke-opacity:1" d="M 883.469,592.621 899.051,601.277 z" id="boundary" inkscape:connector-curvature="0" />
	<path style="fill:none;stroke:red;stroke-width:1px;stroke-linecap:butt;stroke-linejoin:miter;stroke-opacity:1" d="M 899.051,601.277 916.363,603.009 z" id="boundary" inkscape:connector-curvature="0" />
	<path style="fill:none;stroke:red;stroke-width:1px;stroke-linecap:butt;stroke-linejoin:miter;stroke-opacity:1" d="M 916.363,603.009 933.675,609.934 z" id="boundary" inkscape:connector-curvature="0" />
	<path style="fill:none;stroke:red;stroke-width:1px;stroke-linecap:butt;stroke-linejoin:miter;stroke-opacity:1" d="M 914.632,663.602 897.319,672.258 z" id="boundary" inkscape:connector-curvature="0" />
	<path style="fill:none;stroke:red;stroke-width:1px;stroke-linecap:butt;stroke-linejoin:miter;stroke-opacity:1" d="M 933.675,609.934 949.257,618.59 z" id="boundary" inkscape:connector-curvature="0" />
	<path style="fill:none;stroke:red;stroke-width:1px;stroke-linecap:butt;stroke-linejoin:miter;stroke-opacity:1" d="M 963.106,628.977 949.257,618.59 z" id="boundary" inkscape:connector-curvature="0" />
	<path style="fill:none;stroke:red;stroke-width:1px;stroke-linecap:butt;stroke-linejoin:miter;stroke-opacity:1" d="M 931.944,663.602 949.257,654.946 z" id="boundary" inkscape:connector-curvature="0" />
	<path style="fill:none;stroke:red;stroke-width:1px;stroke-linecap:butt;stroke-linejoin:miter;stroke-opacity:1" d="M 971.763,644.558 963.106,628.977 z" id="boundary" inkscape:connector-curvature="0" />
	<path style="fill:none;stroke:red;stroke-width:1px;stroke-linecap:butt;stroke-linejoin:miter;stroke-opacity:1" d="M 996,653.215 982.15,663.602 z" id="boundary" inkscape:connector-curvature="0" />
	<path style="fill:none;stroke:red;stroke-width:1px;stroke-linecap:butt;stroke-linejoin:miter;stroke-opacity:1" d="M 931.944,663.602 914.632,663.602 z" id="boundary" inkscape:connector-curvature="0" />
	<path style="fill:none;stroke:red;stroke-width:1px;stroke-linecap:butt;stroke-linejoin:miter;stroke-opacity:1" d="M 802.101,767.476 810.757,750.164 z" id="boundary" inkscape:connector-curvature="0" />
	<path style="fill:none;stroke:red;stroke-width:1px;stroke-linecap:butt;stroke-linejoin:miter;stroke-opacity:1" d="M 810.757,750.164 828.07,741.508 z" id="boundary" inkscape:connector-curvature="0" />
	<path style="fill:none;stroke:red;stroke-width:1px;stroke-linecap:butt;stroke-linejoin:miter;stroke-opacity:1" d="M 836.726,724.195 828.07,741.508 z" id="boundary" inkscape:connector-curvature="0" />
	<path style="fill:none;stroke:red;stroke-width:1px;stroke-linecap:butt;stroke-linejoin:miter;stroke-opacity:1" d="M 793.445,784.789 802.101,767.476 z" id="boundary" inkscape:connector-curvature="0" />
	<path style="fill:none;stroke:red;stroke-width:1px;stroke-linecap:butt;stroke-linejoin:miter;stroke-opacity:1" d="M 783.058,883.469 776.133,860.963 z" id="boundary" inkscape:connector-curvature="0" />
	<path style="fill:none;stroke:red;stroke-width:1px;stroke-linecap:butt;stroke-linejoin:miter;stroke-opacity:1" d="M 783.058,883.469 765.745,888.663 z" id="boundary" inkscape:connector-curvature="0" />
	<path style="fill:none;stroke:red;stroke-width:1px;stroke-linecap:butt;stroke-linejoin:miter;stroke-opacity:1" d="M 836.726,724.195 845.382,706.883 z" id="boundary" inkscape:connector-curvature="0" />
	<path style="fill:none;stroke:red;stroke-width:1px;stroke-linecap:butt;stroke-linejoin:miter;stroke-opacity:1" d="M 845.382,706.883 862.695,698.227 z" id="boundary" inkscape:connector-curvature="0" />
	<path style="fill:none;stroke:red;stroke-width:1px;stroke-linecap:butt;stroke-linejoin:miter;stroke-opacity:1" d="M 862.695,698.227 880.007,680.914 z" id="boundary" inkscape:connector-curvature="0" />
	<path style="fill:none;stroke:red;stroke-width:1px;stroke-linecap:butt;stroke-linejoin:miter;stroke-opacity:1" d="M 880.007,680.914 897.319,672.258 z" id="boundary" inkscape:connector-curvature="0" />
	<circle cx="4" cy="242.911" r="4" fill="#0" id="circle0"/>
	<circle cx="4" cy="260.223" r="4" fill="#0" id="circle1"/>
	<circle cx="4" cy="277.536" r="4" fill="#0" id="circle2"/>
	<circle cx="4" cy="294.848" r="4" fill="#0" id="circle3"/>
	<circle cx="17.8499" cy="229.061" r="4" fill="#0" id="circle4"/>
	<circle cx="17.8499" cy="306.967" r="4" fill="#0" id="circle5"/>
	<circle cx="24.7749" cy="324.279" r="4" fill="#0" id="circle6"/>
	<circle cx="33.4311" cy="339.86" r="4" fill="#0" id="circle7"/>
	<circle cx="35.1623" cy="220.405" r="4" fill="#0" id="circle8"/>
	<circle cx="40.356" cy="357.173" r="4" fill="#0" id="circle9"/>
	<circle cx="47.281" cy="381.41" r="4" fill="#0" id="circle10"/>
	<circle cx="50.7435" cy="211.749" r="4" fill="#0" id="circle11"/>
	<circle cx="61.1309" cy="393.529" r="4" fill="#0" id="circle12"/>
	<circle cx="64.5934" cy="190.974" r="4" fill="#0" id="circle13"/>
	<circle cx="73.2496" cy="407.379" r="4" fill="#0" id="circle14"/>
	<circle cx="81.9058" cy="189.243" r="4" fill="#0" id="circle15"/>
	<circle cx="83.637" cy="421.229" r="4" fill="#0" id="circle16"/>
	<circle cx="94.0244" cy="435.079" r="4" fill="#0" id="circle17"/>
	<circle cx="95.7557" cy="177.124" r="4" fill="#0" id="circle18"/>
	<circle cx="100.949" cy="452.391" r="4" fill="#0" id="circle19"/>
	<circle cx="111.337" cy="168.468" r="4" fill="#0" id="circle20"/>
	<circle cx="116.531" cy="461.047" r="4" fill="#0" id="circle21"/>
	<circle cx="119.993" cy="152.887" r="4" fill="#0" id="circle22"/>
	<circle cx="125.187" cy="476.628" r="4" fill="#0" id="circle23"/>
	<circle cx="125.187" cy="571.846" r="4" fill="#0" id="circle24"/>
	<circle cx="125.187" cy="623.784" r="4" fill="#0" id="circle25"/>
	<circle cx="133.843" cy="502.597" r="4" fill="#0" id="circle26"/>
	<circle cx="133.843" cy="519.909" r="4" fill="#0" id="circle27"/>
	<circle cx="133.843" cy="537.222" r="4" fill="#0" id="circle28"/>
	<circle cx="133.843" cy="554.534" r="4" fill="#0" id="circle29"/>
	<circle cx="133.843" cy="587.428" r="4" fill="#0" id="circle30"/>
	<circle cx="133.843" cy="604.74" r="4" fill="#0" id="circle31"/>
	<circle cx="137.305" cy="151.155" r="4" fill="#0" id="circle32"/>
	<circle cx="139.037" cy="635.902" r="4" fill="#0" id="circle33"/>
	<circle cx="152.887" cy="142.499" r="4" fill="#0" id="circle34"/>
	<circle cx="154.618" cy="644.558" r="4" fill="#0" id="circle35"/>
	<circle cx="159.812" cy="770.939" r="4" fill="#0" id="circle36"/>
	<circle cx="163.274" cy="628.977" r="4" fill="#0" id="circle37"/>
	<circle cx="168.468" cy="133.843" r="4" fill="#0" id="circle38"/>
	<circle cx="168.468" cy="753.627" r="4" fill="#0" id="circle39"/>
	<circle cx="170.199" cy="611.665" r="4" fill="#0" id="circle40"/>
	<circle cx="173.661" cy="783.058" r="4" fill="#0" id="circle41"/>
	<circle cx="182.318" cy="739.777" r="4" fill="#0" id="circle42"/>
	<circle cx="185.78" cy="121.724" r="4" fill="#0" id="circle43"/>
	<circle cx="187.511" cy="603.009" r="4" fill="#0" id="circle44"/>
	<circle cx="189.243" cy="791.714" r="4" fill="#0" id="circle45"/>
	<circle cx="190.974" cy="722.464" r="4" fill="#0" id="circle46"/>
	<circle cx="196.168" cy="585.696" r="4" fill="#0" id="circle47"/>
	<circle cx="199.63" cy="705.152" r="4" fill="#0" id="circle48"/>
	<circle cx="203.092" cy="113.068" r="4" fill="#0" id="circle49"/>
	<circle cx="206.555" cy="798.639" r="4" fill="#0" id="circle50"/>
	<circle cx="211.749" cy="577.04" r="4" fill="#0" id="circle51"/>
	<circle cx="211.749" cy="684.377" r="4" fill="#0" id="circle52"/>
	<circle cx="220.405" cy="107.874" r="4" fill="#0" id="circle53"/>
	<circle cx="220.405" cy="667.065" r="4" fill="#0" id="circle54"/>
	<circle cx="220.405" cy="810.757" r="4" fill="#0" id="circle55"/>
	<circle cx="229.061" cy="577.04" r="4" fill="#0" id="circle56"/>
	<circle cx="229.061" cy="649.752" r="4" fill="#0" id="circle57"/>
	<circle cx="235.986" cy="116.531" r="4" fill="#0" id="circle58"/>
	<circle cx="235.986" cy="819.414" r="4" fill="#0" id="circle59"/>
	<circle cx="237.717" cy="592.621" r="4" fill="#0" id="circle60"/>
	<circle cx="241.18" cy="609.934" r="4" fill="#0" id="circle61"/>
	<circle cx="242.911" cy="635.902" r="4" fill="#0" id="circle62"/>
	<circle cx="251.567" cy="828.07" r="4" fill="#0" id="circle63"/>
	<circle cx="253.298" cy="116.531" r="4" fill="#0" id="circle64"/>
	<circle cx="267.148" cy="836.726" r="4" fill="#0" id="circle65"/>
	<circle cx="268.88" cy="107.874" r="4" fill="#0" id="circle66"/>
	<circle cx="282.729" cy="845.382" r="4" fill="#0" id="circle67"/>
	<circle cx="286.192" cy="107.874" r="4" fill="#0" id="circle68"/>
	<circle cx="298.311" cy="854.038" r="4" fill="#0" id="circle69"/>
	<circle cx="301.773" cy="99.2182" r="4" fill="#0" id="circle70"/>
	<circle cx="313.892" cy="862.695" r="4" fill="#0" id="circle71"/>
	<circle cx="319.086" cy="99.2182" r="4" fill="#0" id="circle72"/>
	<circle cx="326.01" cy="845.382" r="4" fill="#0" id="circle73"/>
	<circle cx="336.398" cy="99.2182" r="4" fill="#0" id="circle74"/>
	<circle cx="339.86" cy="833.264" r="4" fill="#0" id="circle75"/>
	<circle cx="348.517" cy="815.951" r="4" fill="#0" id="circle76"/>
	<circle cx="350.248" cy="87.0995" r="4" fill="#0" id="circle77"/>
	<circle cx="357.173" cy="798.639" r="4" fill="#0" id="circle78"/>
	<circle cx="365.829" cy="781.326" r="4" fill="#0" id="circle79"/>
	<circle cx="367.56" cy="69.7871" r="4" fill="#0" id="circle80"/>
	<circle cx="377.948" cy="758.82" r="4" fill="#0" id="circle81"/>
	<circle cx="384.873" cy="64.5934" r="4" fill="#0" id="circle82"/>
	<circle cx="386.604" cy="741.508" r="4" fill="#0" id="circle83"/>
	<circle cx="402.185" cy="64.5934" r="4" fill="#0" id="circle84"/>
	<circle cx="402.185" cy="732.852" r="4" fill="#0" id="circle85"/>
	<circle cx="417.766" cy="73.2496" r="4" fill="#0" id="circle86"/>
	<circle cx="417.766" cy="741.508" r="4" fill="#0" id="circle87"/>
	<circle cx="433.347" cy="64.5934" r="4" fill="#0" id="circle88"/>
	<circle cx="435.079" cy="741.508" r="4" fill="#0" id="circle89"/>
	<circle cx="448.928" cy="73.2496" r="4" fill="#0" id="circle90"/>
	<circle cx="452.391" cy="741.508" r="4" fill="#0" id="circle91"/>
	<circle cx="459.316" cy="758.82" r="4" fill="#0" id="circle92"/>
	<circle cx="464.51" cy="81.9058" r="4" fill="#0" id="circle93"/>
	<circle cx="474.897" cy="750.164" r="4" fill="#0" id="circle94"/>
	<circle cx="481.822" cy="87.0995" r="4" fill="#0" id="circle95"/>
	<circle cx="492.209" cy="750.164" r="4" fill="#0" id="circle96"/>
	<circle cx="499.134" cy="81.9058" r="4" fill="#0" id="circle97"/>
	<circle cx="507.791" cy="97.4869" r="4" fill="#0" id="circle98"/>
	<circle cx="509.522" cy="755.358" r="4" fill="#0" id="circle99"/>
	<circle cx="525.103" cy="104.412" r="4" fill="#0" id="circle100"/>
	<circle cx="526.834" cy="750.164" r="4" fill="#0" id="circle101"/>
	<circle cx="542.415" cy="107.874" r="4" fill="#0" id="circle102"/>
	<circle cx="544.147" cy="750.164" r="4" fill="#0" id="circle103"/>
	<circle cx="552.803" cy="92.2932" r="4" fill="#0" id="circle104"/>
	<circle cx="561.459" cy="750.164" r="4" fill="#0" id="circle105"/>
	<circle cx="566.653" cy="69.7871" r="4" fill="#0" id="circle106"/>
	<circle cx="575.309" cy="52.4747" r="4" fill="#0" id="circle107"/>
	<circle cx="578.771" cy="750.164" r="4" fill="#0" id="circle108"/>
	<circle cx="583.965" cy="35.1623" r="4" fill="#0" id="circle109"/>
	<circle cx="596.084" cy="746.702" r="4" fill="#0" id="circle110"/>
	<circle cx="597.815" cy="21.3124" r="4" fill="#0" id="circle111"/>
	<circle cx="606.471" cy="4" r="4" fill="#0" id="circle112"/>
	<circle cx="613.396" cy="741.508" r="4" fill="#0" id="circle113"/>
	<circle cx="623.784" cy="4" r="4" fill="#0" id="circle114"/>
	<circle cx="627.246" cy="727.658" r="4" fill="#0" id="circle115"/>
	<circle cx="639.365" cy="12.6562" r="4" fill="#0" id="circle116"/>
	<circle cx="644.558" cy="719.002" r="4" fill="#0" id="circle117"/>
	<circle cx="646.29" cy="689.571" r="4" fill="#0" id="circle118"/>
	<circle cx="654.946" cy="21.3124" r="4" fill="#0" id="circle119"/>
	<circle cx="661.871" cy="680.914" r="4" fill="#0" id="circle120"/>
	<circle cx="670.527" cy="29.9686" r="4" fill="#0" id="circle121"/>
	<circle cx="670.527" cy="701.689" r="4" fill="#0" id="circle122"/>
	<circle cx="679.183" cy="717.271" r="4" fill="#0" id="circle123"/>
	<circle cx="679.183" cy="736.314" r="4" fill="#0" id="circle124"/>
	<circle cx="686.108" cy="38.6248" r="4" fill="#0" id="circle125"/>
	<circle cx="689.571" cy="222.136" r="4" fill="#0" id="circle126"/>
	<circle cx="693.033" cy="748.433" r="4" fill="#0" id="circle127"/>
	<circle cx="698.227" cy="204.824" r="4" fill="#0" id="circle128"/>
	<circle cx="698.227" cy="237.717" r="4" fill="#0" id="circle129"/>
	<circle cx="699.958" cy="765.745" r="4" fill="#0" id="circle130"/>
	<circle cx="701.689" cy="47.281" r="4" fill="#0" id="circle131"/>
	<circle cx="706.883" cy="187.511" r="4" fill="#0" id="circle132"/>
	<circle cx="706.883" cy="253.298" r="4" fill="#0" id="circle133"/>
	<circle cx="708.614" cy="781.326" r="4" fill="#0" id="circle134"/>
	<circle cx="713.808" cy="798.639" r="4" fill="#0" id="circle135"/>
	<circle cx="715.539" cy="170.199" r="4" fill="#0" id="circle136"/>
	<circle cx="715.539" cy="815.951" r="4" fill="#0" id="circle137"/>
	<circle cx="717.271" cy="55.9372" r="4" fill="#0" id="circle138"/>
	<circle cx="720.733" cy="265.417" r="4" fill="#0" id="circle139"/>
	<circle cx="722.464" cy="833.264" r="4" fill="#0" id="circle140"/>
	<circle cx="724.195" cy="542.415" r="4" fill="#0" id="circle141"/>
	<circle cx="727.658" cy="282.729" r="4" fill="#0" id="circle142"/>
	<circle cx="729.389" cy="158.08" r="4" fill="#0" id="circle143"/>
	<circle cx="731.12" cy="848.845" r="4" fill="#0" id="circle144"/>
	<circle cx="732.852" cy="64.5934" r="4" fill="#0" id="circle145"/>
	<circle cx="732.852" cy="557.997" r="4" fill="#0" id="circle146"/>
	<circle cx="736.314" cy="298.311" r="4" fill="#0" id="circle147"/>
	<circle cx="738.045" cy="140.768" r="4" fill="#0" id="circle148"/>
	<circle cx="741.508" cy="525.103" r="4" fill="#0" id="circle149"/>
	<circle cx="744.97" cy="860.963" r="4" fill="#0" id="circle150"/>
	<circle cx="746.702" cy="123.455" r="4" fill="#0" id="circle151"/>
	<circle cx="748.433" cy="73.2496" r="4" fill="#0" id="circle152"/>
	<circle cx="748.433" cy="312.161" r="4" fill="#0" id="circle153"/>
	<circle cx="750.164" cy="507.791" r="4" fill="#0" id="circle154"/>
	<circle cx="750.164" cy="557.997" r="4" fill="#0" id="circle155"/>
	<circle cx="751.895" cy="878.276" r="4" fill="#0" id="circle156"/>
	<circle cx="755.358" cy="106.143" r="4" fill="#0" id="circle157"/>
	<circle cx="758.82" cy="326.01" r="4" fill="#0" id="circle158"/>
	<circle cx="762.283" cy="83.637" r="4" fill="#0" id="circle159"/>
	<circle cx="764.014" cy="495.672" r="4" fill="#0" id="circle160"/>
	<circle cx="765.745" cy="888.663" r="4" fill="#0" id="circle161"/>
	<circle cx="767.476" cy="343.323" r="4" fill="#0" id="circle162"/>
	<circle cx="767.476" cy="563.19" r="4" fill="#0" id="circle163"/>
	<circle cx="767.476" cy="810.757" r="4" fill="#0" id="circle164"/>
	<circle cx="772.67" cy="478.36" r="4" fill="#0" id="circle165"/>
	<circle cx="776.133" cy="358.904" r="4" fill="#0" id="circle166"/>
	<circle cx="776.133" cy="377.948" r="4" fill="#0" id="circle167"/>
	<circle cx="776.133" cy="793.445" r="4" fill="#0" id="circle168"/>
	<circle cx="776.133" cy="826.339" r="4" fill="#0" id="circle169"/>
	<circle cx="776.133" cy="843.651" r="4" fill="#0" id="circle170"/>
	<circle cx="776.133" cy="860.963" r="4" fill="#0" id="circle171"/>
	<circle cx="781.326" cy="461.047" r="4" fill="#0" id="circle172"/>
	<circle cx="783.058" cy="571.846" r="4" fill="#0" id="circle173"/>
	<circle cx="783.058" cy="883.469" r="4" fill="#0" id="circle174"/>
	<circle cx="784.789" cy="393.529" r="4" fill="#0" id="circle175"/>
	<circle cx="784.789" cy="410.841" r="4" fill="#0" id="circle176"/>
	<circle cx="784.789" cy="428.154" r="4" fill="#0" id="circle177"/>
	<circle cx="793.445" cy="784.789" r="4" fill="#0" id="circle178"/>
	<circle cx="800.37" cy="575.309" r="4" fill="#0" id="circle179"/>
	<circle cx="802.101" cy="767.476" r="4" fill="#0" id="circle180"/>
	<circle cx="810.757" cy="750.164" r="4" fill="#0" id="circle181"/>
	<circle cx="817.682" cy="575.309" r="4" fill="#0" id="circle182"/>
	<circle cx="828.07" cy="741.508" r="4" fill="#0" id="circle183"/>
	<circle cx="833.264" cy="583.965" r="4" fill="#0" id="circle184"/>
	<circle cx="836.726" cy="724.195" r="4" fill="#0" id="circle185"/>
	<circle cx="845.382" cy="706.883" r="4" fill="#0" id="circle186"/>
	<circle cx="850.576" cy="583.965" r="4" fill="#0" id="circle187"/>
	<circle cx="862.695" cy="698.227" r="4" fill="#0" id="circle188"/>
	<circle cx="866.157" cy="592.621" r="4" fill="#0" id="circle189"/>
	<circle cx="880.007" cy="680.914" r="4" fill="#0" id="circle190"/>
	<circle cx="883.469" cy="592.621" r="4" fill="#0" id="circle191"/>
	<circle cx="897.319" cy="672.258" r="4" fill="#0" id="circle192"/>
	<circle cx="899.051" cy="601.277" r="4" fill="#0" id="circle193"/>
	<circle cx="914.632" cy="663.602" r="4" fill="#0" id="circle194"/>
	<circle cx="916.363" cy="603.009" r="4" fill="#0" id="circle195"/>
	<circle cx="931.944" cy="663.602" r="4" fill="#0" id="circle196"/>
	<circle cx="933.675" cy="609.934" r="4" fill="#0" id="circle197"/>
	<circle cx="949.257" cy="618.59" r="4" fill="#0" id="circle198"/>
	<circle cx="949.257" cy="654.946" r="4" fill="#0" id="circle199"/>
	<circle cx="963.106" cy="628.977" r="4" fill="#0" id="circle200"/>
	<circle cx="964.838" cy="663.602" r="4" fill="#0" id="circle201"/>
	<circle cx="971.763" cy="644.558" r="4" fill="#0" id="circle202"/>
	<circle cx="982.15" cy="663.602" r="4" fill="#0" id="circle203"/>
	<circle cx="996" cy="653.215" r="4" fill="#0" id="circle204"/>
	</g>
</svg>