<?xml version="1.0" encoding="UTF-8" standalone="no"?>
<!-- Created with CurveBenchmark -->
<svg
	xmlns:dc="http://purl.org/dc/elements/1.1/"
	xmlns:cc="http://creativecommons.org/ns#"
	xmlns:rdf="http://www.w3.org/1999/02/22-rdf-syntax-ns#"
	xmlns:svg="http://www.w3.org/2000/svg"
	xmlns="http://www.w3.org/2000/svg"
	xmlns:sodipodi="http://sodipodi.sourceforge.net/DTD/sodipodi-0.dtd"
	xmlns:inkscape="http://www.inkscape.org/namespaces/inkscape"
	width="1000"
	height="1000"
	id="svg2"
	version="1.1"
	sodipodi:docname="manifold/gathan1-fork02.png.txt">
<defs
	id="defs4" />
<metadata
	id="metadata7">
	<rdf:RDF>
		<cc:Work
			rdf:about="">
			<dc:format>image/svg+xml</dc:format>
			<dc:type
				rdf:resource="http://purl.org/dc/dcmitype/StillImage" />
			<dc:title></dc:title>
		</cc:Work>
	</rdf:RDF>
</metadata>
<g
	inkscape:label="Layer 1"
	inkscape:groupmode="layer"
	id="layer1">
	<path style="fill:none;stroke:red;stroke-width:1px;stroke-linecap:butt;stroke-linejoin:miter;stroke-opacity:1" d="M 13.1682,33.3383 27.8373,18.6691 z" id="boundary" inkscape:connector-curvature="0" />
	<path style="fill:none;stroke:red;stroke-width:1px;stroke-linecap:butt;stroke-linejoin:miter;stroke-opacity:1" d="M 13.1682,51.6747 13.1682,33.3383 z" id="boundary" inkscape:connector-curvature="0" />
	<path style="fill:none;stroke:red;stroke-width:1px;stroke-linecap:butt;stroke-linejoin:miter;stroke-opacity:1" d="M 13.1682,51.6747 22.3364,68.1774 z" id="boundary" inkscape:connector-curvature="0" />
	<path style="fill:none;stroke:red;stroke-width:1px;stroke-linecap:butt;stroke-linejoin:miter;stroke-opacity:1" d="M 48.0074,93.8484 31.5046,84.6802 z" id="boundary" inkscape:connector-curvature="0" />
	<path style="fill:none;stroke:red;stroke-width:1px;stroke-linecap:butt;stroke-linejoin:miter;stroke-opacity:1" d="M 31.5046,84.6802 22.3364,68.1774 z" id="boundary" inkscape:connector-curvature="0" />
	<path style="fill:none;stroke:red;stroke-width:1px;stroke-linecap:butt;stroke-linejoin:miter;stroke-opacity:1" d="M 27.8373,18.6691 42.5065,4 z" id="boundary" inkscape:connector-curvature="0" />
	<path style="fill:none;stroke:red;stroke-width:1px;stroke-linecap:butt;stroke-linejoin:miter;stroke-opacity:1" d="M 42.5065,4 60.8429,4 z" id="boundary" inkscape:connector-curvature="0" />
	<path style="fill:none;stroke:red;stroke-width:1px;stroke-linecap:butt;stroke-linejoin:miter;stroke-opacity:1" d="M 60.8429,4 79.1793,4 z" id="boundary" inkscape:connector-curvature="0" />
	<path style="fill:none;stroke:red;stroke-width:1px;stroke-linecap:butt;stroke-linejoin:miter;stroke-opacity:1" d="M 79.1793,4 97.5157,4 z" id="boundary" inkscape:connector-curvature="0" />
	<path style="fill:none;stroke:red;stroke-width:1px;stroke-linecap:butt;stroke-linejoin:miter;stroke-opacity:1" d="M 48.0074,93.8484 66.3438,93.8484 z" id="boundary" inkscape:connector-curvature="0" />
	<path style="fill:none;stroke:red;stroke-width:1px;stroke-linecap:butt;stroke-linejoin:miter;stroke-opacity:1" d="M 84.6802,93.8484 66.3438,93.8484 z" id="boundary" inkscape:connector-curvature="0" />
	<path style="fill:none;stroke:red;stroke-width:1px;stroke-linecap:butt;stroke-linejoin:miter;stroke-opacity:1" d="M 103.017,93.8484 84.6802,93.8484 z" id="boundary" inkscape:connector-curvature="0" />
	<path style="fill:none;stroke:red;stroke-width:1px;stroke-linecap:butt;stroke-linejoin:miter;stroke-opacity:1" d="M 18.6691,156.192 4,143.357 z" id="boundary" inkscape:connector-curvature="0" />
	<path style="fill:none;stroke:red;stroke-width:1px;stroke-linecap:butt;stroke-linejoin:miter;stroke-opacity:1" d="M 4,143.357 18.6691,128.688 z" id="boundary" inkscape:connector-curvature="0" />
	<path style="fill:none;stroke:red;stroke-width:1px;stroke-linecap:butt;stroke-linejoin:miter;stroke-opacity:1" d="M 37.0055,128.688 18.6691,128.688 z" id="boundary" inkscape:connector-curvature="0" />
	<path style="fill:none;stroke:red;stroke-width:1px;stroke-linecap:butt;stroke-linejoin:miter;stroke-opacity:1" d="M 33.3383,167.194 18.6691,156.192 z" id="boundary" inkscape:connector-curvature="0" />
	<path style="fill:none;stroke:red;stroke-width:1px;stroke-linecap:butt;stroke-linejoin:miter;stroke-opacity:1" d="M 49.841,158.026 66.3438,167.194 z" id="boundary" inkscape:connector-curvature="0" />
	<path style="fill:none;stroke:red;stroke-width:1px;stroke-linecap:butt;stroke-linejoin:miter;stroke-opacity:1" d="M 37.0055,128.688 55.342,128.688 z" id="boundary" inkscape:connector-curvature="0" />
	<path style="fill:none;stroke:red;stroke-width:1px;stroke-linecap:butt;stroke-linejoin:miter;stroke-opacity:1" d="M 73.6784,128.688 55.342,128.688 z" id="boundary" inkscape:connector-curvature="0" />
	<path style="fill:none;stroke:red;stroke-width:1px;stroke-linecap:butt;stroke-linejoin:miter;stroke-opacity:1" d="M 90.1811,137.856 73.6784,128.688 z" id="boundary" inkscape:connector-curvature="0" />
	<path style="fill:none;stroke:red;stroke-width:1px;stroke-linecap:butt;stroke-linejoin:miter;stroke-opacity:1" d="M 66.3438,167.194 84.6802,167.194 z" id="boundary" inkscape:connector-curvature="0" />
	<path style="fill:none;stroke:red;stroke-width:1px;stroke-linecap:butt;stroke-linejoin:miter;stroke-opacity:1" d="M 101.183,176.362 84.6802,167.194 z" id="boundary" inkscape:connector-curvature="0" />
	<path style="fill:none;stroke:red;stroke-width:1px;stroke-linecap:butt;stroke-linejoin:miter;stroke-opacity:1" d="M 90.1811,137.856 106.684,147.024 z" id="boundary" inkscape:connector-curvature="0" />
	<path style="fill:none;stroke:red;stroke-width:1px;stroke-linecap:butt;stroke-linejoin:miter;stroke-opacity:1" d="M 97.5157,4 115.852,4 z" id="boundary" inkscape:connector-curvature="0" />
	<path style="fill:none;stroke:red;stroke-width:1px;stroke-linecap:butt;stroke-linejoin:miter;stroke-opacity:1" d="M 152.525,9.50092 134.189,9.50092 z" id="boundary" inkscape:connector-curvature="0" />
	<path style="fill:none;stroke:red;stroke-width:1px;stroke-linecap:butt;stroke-linejoin:miter;stroke-opacity:1" d="M 134.189,9.50092 115.852,4 z" id="boundary" inkscape:connector-curvature="0" />
	<path style="fill:none;stroke:red;stroke-width:1px;stroke-linecap:butt;stroke-linejoin:miter;stroke-opacity:1" d="M 121.353,93.8484 139.689,93.8484 z" id="boundary" inkscape:connector-curvature="0" />
	<path style="fill:none;stroke:red;stroke-width:1px;stroke-linecap:butt;stroke-linejoin:miter;stroke-opacity:1" d="M 158.026,93.8484 139.689,93.8484 z" id="boundary" inkscape:connector-curvature="0" />
	<path style="fill:none;stroke:red;stroke-width:1px;stroke-linecap:butt;stroke-linejoin:miter;stroke-opacity:1" d="M 152.525,9.50092 169.028,18.6691 z" id="boundary" inkscape:connector-curvature="0" />
	<path style="fill:none;stroke:red;stroke-width:1px;stroke-linecap:butt;stroke-linejoin:miter;stroke-opacity:1" d="M 103.017,93.8484 121.353,93.8484 z" id="boundary" inkscape:connector-curvature="0" />
	<path style="fill:none;stroke:red;stroke-width:1px;stroke-linecap:butt;stroke-linejoin:miter;stroke-opacity:1" d="M 169.028,18.6691 187.364,18.6691 z" id="boundary" inkscape:connector-curvature="0" />
	<path style="fill:none;stroke:red;stroke-width:1px;stroke-linecap:butt;stroke-linejoin:miter;stroke-opacity:1" d="M 187.364,18.6691 203.867,27.8373 z" id="boundary" inkscape:connector-curvature="0" />
	<path style="fill:none;stroke:red;stroke-width:1px;stroke-linecap:butt;stroke-linejoin:miter;stroke-opacity:1" d="M 174.529,103.017 192.865,101.183 z" id="boundary" inkscape:connector-curvature="0" />
	<path style="fill:none;stroke:red;stroke-width:1px;stroke-linecap:butt;stroke-linejoin:miter;stroke-opacity:1" d="M 174.529,103.017 158.026,93.8484 z" id="boundary" inkscape:connector-curvature="0" />
	<path style="fill:none;stroke:red;stroke-width:1px;stroke-linecap:butt;stroke-linejoin:miter;stroke-opacity:1" d="M 227.704,112.185 211.201,103.017 z" id="boundary" inkscape:connector-curvature="0" />
	<path style="fill:none;stroke:red;stroke-width:1px;stroke-linecap:butt;stroke-linejoin:miter;stroke-opacity:1" d="M 211.201,103.017 192.865,101.183 z" id="boundary" inkscape:connector-curvature="0" />
	<path style="fill:none;stroke:red;stroke-width:1px;stroke-linecap:butt;stroke-linejoin:miter;stroke-opacity:1" d="M 203.867,27.8373 220.37,37.0055 z" id="boundary" inkscape:connector-curvature="0" />
	<path style="fill:none;stroke:red;stroke-width:1px;stroke-linecap:butt;stroke-linejoin:miter;stroke-opacity:1" d="M 238.706,37.0055 220.37,37.0055 z" id="boundary" inkscape:connector-curvature="0" />
	<path style="fill:none;stroke:red;stroke-width:1px;stroke-linecap:butt;stroke-linejoin:miter;stroke-opacity:1" d="M 106.684,147.024 125.02,143.357 z" id="boundary" inkscape:connector-curvature="0" />
	<path style="fill:none;stroke:red;stroke-width:1px;stroke-linecap:butt;stroke-linejoin:miter;stroke-opacity:1" d="M 143.357,147.024 125.02,143.357 z" id="boundary" inkscape:connector-curvature="0" />
	<path style="fill:none;stroke:red;stroke-width:1px;stroke-linecap:butt;stroke-linejoin:miter;stroke-opacity:1" d="M 119.519,183.697 137.856,183.697 z" id="boundary" inkscape:connector-curvature="0" />
	<path style="fill:none;stroke:red;stroke-width:1px;stroke-linecap:butt;stroke-linejoin:miter;stroke-opacity:1" d="M 156.192,183.697 137.856,183.697 z" id="boundary" inkscape:connector-curvature="0" />
	<path style="fill:none;stroke:red;stroke-width:1px;stroke-linecap:butt;stroke-linejoin:miter;stroke-opacity:1" d="M 143.357,147.024 161.693,147.024 z" id="boundary" inkscape:connector-curvature="0" />
	<path style="fill:none;stroke:red;stroke-width:1px;stroke-linecap:butt;stroke-linejoin:miter;stroke-opacity:1" d="M 119.519,183.697 101.183,176.362 z" id="boundary" inkscape:connector-curvature="0" />
	<path style="fill:none;stroke:red;stroke-width:1px;stroke-linecap:butt;stroke-linejoin:miter;stroke-opacity:1" d="M 180.03,152.525 161.693,147.024 z" id="boundary" inkscape:connector-curvature="0" />
	<path style="fill:none;stroke:red;stroke-width:1px;stroke-linecap:butt;stroke-linejoin:miter;stroke-opacity:1" d="M 198.366,156.192 180.03,152.525 z" id="boundary" inkscape:connector-curvature="0" />
	<path style="fill:none;stroke:red;stroke-width:1px;stroke-linecap:butt;stroke-linejoin:miter;stroke-opacity:1" d="M 174.529,185.53 156.192,183.697 z" id="boundary" inkscape:connector-curvature="0" />
	<path style="fill:none;stroke:red;stroke-width:1px;stroke-linecap:butt;stroke-linejoin:miter;stroke-opacity:1" d="M 192.865,185.53 174.529,185.53 z" id="boundary" inkscape:connector-curvature="0" />
	<path style="fill:none;stroke:red;stroke-width:1px;stroke-linecap:butt;stroke-linejoin:miter;stroke-opacity:1" d="M 198.366,156.192 216.702,161.693 z" id="boundary" inkscape:connector-curvature="0" />
	<path style="fill:none;stroke:red;stroke-width:1px;stroke-linecap:butt;stroke-linejoin:miter;stroke-opacity:1" d="M 235.039,161.693 216.702,161.693 z" id="boundary" inkscape:connector-curvature="0" />
	<path style="fill:none;stroke:red;stroke-width:1px;stroke-linecap:butt;stroke-linejoin:miter;stroke-opacity:1" d="M 22.3364,242.373 13.1682,225.871 z" id="boundary" inkscape:connector-curvature="0" />
	<path style="fill:none;stroke:red;stroke-width:1px;stroke-linecap:butt;stroke-linejoin:miter;stroke-opacity:1" d="M 13.1682,225.871 27.8373,211.201 z" id="boundary" inkscape:connector-curvature="0" />
	<path style="fill:none;stroke:red;stroke-width:1px;stroke-linecap:butt;stroke-linejoin:miter;stroke-opacity:1" d="M 46.1738,211.201 27.8373,211.201 z" id="boundary" inkscape:connector-curvature="0" />
	<path style="fill:none;stroke:red;stroke-width:1px;stroke-linecap:butt;stroke-linejoin:miter;stroke-opacity:1" d="M 22.3364,242.373 40.6728,240.54 z" id="boundary" inkscape:connector-curvature="0" />
	<path style="fill:none;stroke:red;stroke-width:1px;stroke-linecap:butt;stroke-linejoin:miter;stroke-opacity:1" d="M 59.0092,240.54 40.6728,240.54 z" id="boundary" inkscape:connector-curvature="0" />
	<path style="fill:none;stroke:red;stroke-width:1px;stroke-linecap:butt;stroke-linejoin:miter;stroke-opacity:1" d="M 46.1738,211.201 64.5102,211.201 z" id="boundary" inkscape:connector-curvature="0" />
	<path style="fill:none;stroke:red;stroke-width:1px;stroke-linecap:butt;stroke-linejoin:miter;stroke-opacity:1" d="M 64.5102,211.201 82.8466,211.201 z" id="boundary" inkscape:connector-curvature="0" />
	<path style="fill:none;stroke:red;stroke-width:1px;stroke-linecap:butt;stroke-linejoin:miter;stroke-opacity:1" d="M 101.183,211.201 82.8466,211.201 z" id="boundary" inkscape:connector-curvature="0" />
	<path style="fill:none;stroke:red;stroke-width:1px;stroke-linecap:butt;stroke-linejoin:miter;stroke-opacity:1" d="M 93.8484,249.708 77.3457,240.54 z" id="boundary" inkscape:connector-curvature="0" />
	<path style="fill:none;stroke:red;stroke-width:1px;stroke-linecap:butt;stroke-linejoin:miter;stroke-opacity:1" d="M 101.183,211.201 117.686,220.37 z" id="boundary" inkscape:connector-curvature="0" />
	<path style="fill:none;stroke:red;stroke-width:1px;stroke-linecap:butt;stroke-linejoin:miter;stroke-opacity:1" d="M 112.185,249.708 93.8484,249.708 z" id="boundary" inkscape:connector-curvature="0" />
	<path style="fill:none;stroke:red;stroke-width:1px;stroke-linecap:butt;stroke-linejoin:miter;stroke-opacity:1" d="M 59.0092,240.54 77.3457,240.54 z" id="boundary" inkscape:connector-curvature="0" />
	<path style="fill:none;stroke:red;stroke-width:1px;stroke-linecap:butt;stroke-linejoin:miter;stroke-opacity:1" d="M 31.5046,315.719 22.3364,299.216 z" id="boundary" inkscape:connector-curvature="0" />
	<path style="fill:none;stroke:red;stroke-width:1px;stroke-linecap:butt;stroke-linejoin:miter;stroke-opacity:1" d="M 22.3364,299.216 37.0055,284.547 z" id="boundary" inkscape:connector-curvature="0" />
	<path style="fill:none;stroke:red;stroke-width:1px;stroke-linecap:butt;stroke-linejoin:miter;stroke-opacity:1" d="M 55.342,275.379 37.0055,284.547 z" id="boundary" inkscape:connector-curvature="0" />
	<path style="fill:none;stroke:red;stroke-width:1px;stroke-linecap:butt;stroke-linejoin:miter;stroke-opacity:1" d="M 59.0092,332.222 40.6728,332.222 z" id="boundary" inkscape:connector-curvature="0" />
	<path style="fill:none;stroke:red;stroke-width:1px;stroke-linecap:butt;stroke-linejoin:miter;stroke-opacity:1" d="M 40.6728,332.222 31.5046,315.719 z" id="boundary" inkscape:connector-curvature="0" />
	<path style="fill:none;stroke:red;stroke-width:1px;stroke-linecap:butt;stroke-linejoin:miter;stroke-opacity:1" d="M 55.342,275.379 73.6784,275.379 z" id="boundary" inkscape:connector-curvature="0" />
	<path style="fill:none;stroke:red;stroke-width:1px;stroke-linecap:butt;stroke-linejoin:miter;stroke-opacity:1" d="M 92.0148,275.379 73.6784,275.379 z" id="boundary" inkscape:connector-curvature="0" />
	<path style="fill:none;stroke:red;stroke-width:1px;stroke-linecap:butt;stroke-linejoin:miter;stroke-opacity:1" d="M 110.351,275.379 92.0148,275.379 z" id="boundary" inkscape:connector-curvature="0" />
	<path style="fill:none;stroke:red;stroke-width:1px;stroke-linecap:butt;stroke-linejoin:miter;stroke-opacity:1" d="M 77.3457,332.222 95.6821,332.222 z" id="boundary" inkscape:connector-curvature="0" />
	<path style="fill:none;stroke:red;stroke-width:1px;stroke-linecap:butt;stroke-linejoin:miter;stroke-opacity:1" d="M 114.018,332.222 95.6821,332.222 z" id="boundary" inkscape:connector-curvature="0" />
	<path style="fill:none;stroke:red;stroke-width:1px;stroke-linecap:butt;stroke-linejoin:miter;stroke-opacity:1" d="M 128.688,275.379 110.351,275.379 z" id="boundary" inkscape:connector-curvature="0" />
	<path style="fill:none;stroke:red;stroke-width:1px;stroke-linecap:butt;stroke-linejoin:miter;stroke-opacity:1" d="M 114.018,332.222 132.355,335.889 z" id="boundary" inkscape:connector-curvature="0" />
	<path style="fill:none;stroke:red;stroke-width:1px;stroke-linecap:butt;stroke-linejoin:miter;stroke-opacity:1" d="M 77.3457,332.222 59.0092,332.222 z" id="boundary" inkscape:connector-curvature="0" />
	<path style="fill:none;stroke:red;stroke-width:1px;stroke-linecap:butt;stroke-linejoin:miter;stroke-opacity:1" d="M 136.022,220.37 154.359,220.37 z" id="boundary" inkscape:connector-curvature="0" />
	<path style="fill:none;stroke:red;stroke-width:1px;stroke-linecap:butt;stroke-linejoin:miter;stroke-opacity:1" d="M 170.861,229.538 154.359,220.37 z" id="boundary" inkscape:connector-curvature="0" />
	<path style="fill:none;stroke:red;stroke-width:1px;stroke-linecap:butt;stroke-linejoin:miter;stroke-opacity:1" d="M 117.686,220.37 136.022,220.37 z" id="boundary" inkscape:connector-curvature="0" />
	<path style="fill:none;stroke:red;stroke-width:1px;stroke-linecap:butt;stroke-linejoin:miter;stroke-opacity:1" d="M 209.368,194.699 192.865,185.53 z" id="boundary" inkscape:connector-curvature="0" />
	<path style="fill:none;stroke:red;stroke-width:1px;stroke-linecap:butt;stroke-linejoin:miter;stroke-opacity:1" d="M 227.704,200.2 209.368,194.699 z" id="boundary" inkscape:connector-curvature="0" />
	<path style="fill:none;stroke:red;stroke-width:1px;stroke-linecap:butt;stroke-linejoin:miter;stroke-opacity:1" d="M 189.198,225.871 207.534,229.538 z" id="boundary" inkscape:connector-curvature="0" />
	<path style="fill:none;stroke:red;stroke-width:1px;stroke-linecap:butt;stroke-linejoin:miter;stroke-opacity:1" d="M 170.861,229.538 189.198,225.871 z" id="boundary" inkscape:connector-curvature="0" />
	<path style="fill:none;stroke:red;stroke-width:1px;stroke-linecap:butt;stroke-linejoin:miter;stroke-opacity:1" d="M 202.033,268.044 183.697,266.211 z" id="boundary" inkscape:connector-curvature="0" />
	<path style="fill:none;stroke:red;stroke-width:1px;stroke-linecap:butt;stroke-linejoin:miter;stroke-opacity:1" d="M 225.871,229.538 207.534,229.538 z" id="boundary" inkscape:connector-curvature="0" />
	<path style="fill:none;stroke:red;stroke-width:1px;stroke-linecap:butt;stroke-linejoin:miter;stroke-opacity:1" d="M 225.871,229.538 244.207,235.039 z" id="boundary" inkscape:connector-curvature="0" />
	<path style="fill:none;stroke:red;stroke-width:1px;stroke-linecap:butt;stroke-linejoin:miter;stroke-opacity:1" d="M 128.688,275.379 147.024,277.213 z" id="boundary" inkscape:connector-curvature="0" />
	<path style="fill:none;stroke:red;stroke-width:1px;stroke-linecap:butt;stroke-linejoin:miter;stroke-opacity:1" d="M 165.36,284.547 147.024,277.213 z" id="boundary" inkscape:connector-curvature="0" />
	<path style="fill:none;stroke:red;stroke-width:1px;stroke-linecap:butt;stroke-linejoin:miter;stroke-opacity:1" d="M 132.355,335.889 150.691,332.222 z" id="boundary" inkscape:connector-curvature="0" />
	<path style="fill:none;stroke:red;stroke-width:1px;stroke-linecap:butt;stroke-linejoin:miter;stroke-opacity:1" d="M 150.691,332.222 169.028,332.222 z" id="boundary" inkscape:connector-curvature="0" />
	<path style="fill:none;stroke:red;stroke-width:1px;stroke-linecap:butt;stroke-linejoin:miter;stroke-opacity:1" d="M 169.028,332.222 187.364,332.222 z" id="boundary" inkscape:connector-curvature="0" />
	<path style="fill:none;stroke:red;stroke-width:1px;stroke-linecap:butt;stroke-linejoin:miter;stroke-opacity:1" d="M 165.36,284.547 183.697,284.547 z" id="boundary" inkscape:connector-curvature="0" />
	<path style="fill:none;stroke:red;stroke-width:1px;stroke-linecap:butt;stroke-linejoin:miter;stroke-opacity:1" d="M 205.701,332.222 187.364,332.222 z" id="boundary" inkscape:connector-curvature="0" />
	<path style="fill:none;stroke:red;stroke-width:1px;stroke-linecap:butt;stroke-linejoin:miter;stroke-opacity:1" d="M 205.701,332.222 224.037,332.222 z" id="boundary" inkscape:connector-curvature="0" />
	<path style="fill:none;stroke:red;stroke-width:1px;stroke-linecap:butt;stroke-linejoin:miter;stroke-opacity:1" d="M 231.372,268.044 240.54,284.547 z" id="boundary" inkscape:connector-curvature="0" />
	<path style="fill:none;stroke:red;stroke-width:1px;stroke-linecap:butt;stroke-linejoin:miter;stroke-opacity:1" d="M 224.037,332.222 242.373,332.222 z" id="boundary" inkscape:connector-curvature="0" />
	<path style="fill:none;stroke:red;stroke-width:1px;stroke-linecap:butt;stroke-linejoin:miter;stroke-opacity:1" d="M 227.704,200.2 246.041,203.867 z" id="boundary" inkscape:connector-curvature="0" />
	<path style="fill:none;stroke:red;stroke-width:1px;stroke-linecap:butt;stroke-linejoin:miter;stroke-opacity:1" d="M 235.039,161.693 253.375,165.36 z" id="boundary" inkscape:connector-curvature="0" />
	<path style="fill:none;stroke:red;stroke-width:1px;stroke-linecap:butt;stroke-linejoin:miter;stroke-opacity:1" d="M 269.878,59.0092 251.542,51.6747 z" id="boundary" inkscape:connector-curvature="0" />
	<path style="fill:none;stroke:red;stroke-width:1px;stroke-linecap:butt;stroke-linejoin:miter;stroke-opacity:1" d="M 251.542,51.6747 238.706,37.0055 z" id="boundary" inkscape:connector-curvature="0" />
	<path style="fill:none;stroke:red;stroke-width:1px;stroke-linecap:butt;stroke-linejoin:miter;stroke-opacity:1" d="M 246.041,117.686 227.704,112.185 z" id="boundary" inkscape:connector-curvature="0" />
	<path style="fill:none;stroke:red;stroke-width:1px;stroke-linecap:butt;stroke-linejoin:miter;stroke-opacity:1" d="M 271.712,143.357 253.375,136.022 z" id="boundary" inkscape:connector-curvature="0" />
	<path style="fill:none;stroke:red;stroke-width:1px;stroke-linecap:butt;stroke-linejoin:miter;stroke-opacity:1" d="M 253.375,136.022 246.041,117.686 z" id="boundary" inkscape:connector-curvature="0" />
	<path style="fill:none;stroke:red;stroke-width:1px;stroke-linecap:butt;stroke-linejoin:miter;stroke-opacity:1" d="M 269.878,59.0092 280.88,73.6784 z" id="boundary" inkscape:connector-curvature="0" />
	<path style="fill:none;stroke:red;stroke-width:1px;stroke-linecap:butt;stroke-linejoin:miter;stroke-opacity:1" d="M 299.216,79.1793 280.88,73.6784 z" id="boundary" inkscape:connector-curvature="0" />
	<path style="fill:none;stroke:red;stroke-width:1px;stroke-linecap:butt;stroke-linejoin:miter;stroke-opacity:1" d="M 326.721,106.684 312.052,93.8484 z" id="boundary" inkscape:connector-curvature="0" />
	<path style="fill:none;stroke:red;stroke-width:1px;stroke-linecap:butt;stroke-linejoin:miter;stroke-opacity:1" d="M 312.052,93.8484 299.216,79.1793 z" id="boundary" inkscape:connector-curvature="0" />
	<path style="fill:none;stroke:red;stroke-width:1px;stroke-linecap:butt;stroke-linejoin:miter;stroke-opacity:1" d="M 339.556,121.353 357.893,128.688 z" id="boundary" inkscape:connector-curvature="0" />
	<path style="fill:none;stroke:red;stroke-width:1px;stroke-linecap:butt;stroke-linejoin:miter;stroke-opacity:1" d="M 339.556,121.353 326.721,106.684 z" id="boundary" inkscape:connector-curvature="0" />
	<path style="fill:none;stroke:red;stroke-width:1px;stroke-linecap:butt;stroke-linejoin:miter;stroke-opacity:1" d="M 374.396,137.856 357.893,128.688 z" id="boundary" inkscape:connector-curvature="0" />
	<path style="fill:none;stroke:red;stroke-width:1px;stroke-linecap:butt;stroke-linejoin:miter;stroke-opacity:1" d="M 297.383,203.867 279.046,203.867 z" id="boundary" inkscape:connector-curvature="0" />
	<path style="fill:none;stroke:red;stroke-width:1px;stroke-linecap:butt;stroke-linejoin:miter;stroke-opacity:1" d="M 246.041,203.867 262.543,194.699 z" id="boundary" inkscape:connector-curvature="0" />
	<path style="fill:none;stroke:red;stroke-width:1px;stroke-linecap:butt;stroke-linejoin:miter;stroke-opacity:1" d="M 279.046,203.867 262.543,194.699 z" id="boundary" inkscape:connector-curvature="0" />
	<path style="fill:none;stroke:red;stroke-width:1px;stroke-linecap:butt;stroke-linejoin:miter;stroke-opacity:1" d="M 271.712,143.357 288.214,152.525 z" id="boundary" inkscape:connector-curvature="0" />
	<path style="fill:none;stroke:red;stroke-width:1px;stroke-linecap:butt;stroke-linejoin:miter;stroke-opacity:1" d="M 405.567,159.86 389.065,150.691 z" id="boundary" inkscape:connector-curvature="0" />
	<path style="fill:none;stroke:red;stroke-width:1px;stroke-linecap:butt;stroke-linejoin:miter;stroke-opacity:1" d="M 423.904,165.36 405.567,159.86 z" id="boundary" inkscape:connector-curvature="0" />
	<path style="fill:none;stroke:red;stroke-width:1px;stroke-linecap:butt;stroke-linejoin:miter;stroke-opacity:1" d="M 291.882,222.203 297.383,203.867 z" id="boundary" inkscape:connector-curvature="0" />
	<path style="fill:none;stroke:red;stroke-width:1px;stroke-linecap:butt;stroke-linejoin:miter;stroke-opacity:1" d="M 458.743,174.529 440.407,174.529 z" id="boundary" inkscape:connector-curvature="0" />
	<path style="fill:none;stroke:red;stroke-width:1px;stroke-linecap:butt;stroke-linejoin:miter;stroke-opacity:1" d="M 440.407,174.529 423.904,165.36 z" id="boundary" inkscape:connector-curvature="0" />
	<path style="fill:none;stroke:red;stroke-width:1px;stroke-linecap:butt;stroke-linejoin:miter;stroke-opacity:1" d="M 389.065,150.691 374.396,137.856 z" id="boundary" inkscape:connector-curvature="0" />
	<path style="fill:none;stroke:red;stroke-width:1px;stroke-linecap:butt;stroke-linejoin:miter;stroke-opacity:1" d="M 458.743,174.529 477.079,174.529 z" id="boundary" inkscape:connector-curvature="0" />
	<path style="fill:none;stroke:red;stroke-width:1px;stroke-linecap:butt;stroke-linejoin:miter;stroke-opacity:1" d="M 495.416,174.529 477.079,174.529 z" id="boundary" inkscape:connector-curvature="0" />
	<path style="fill:none;stroke:red;stroke-width:1px;stroke-linecap:butt;stroke-linejoin:miter;stroke-opacity:1" d="M 495.416,174.529 511.919,183.697 z" id="boundary" inkscape:connector-curvature="0" />
	<path style="fill:none;stroke:red;stroke-width:1px;stroke-linecap:butt;stroke-linejoin:miter;stroke-opacity:1" d="M 546.758,192.865 528.421,192.865 z" id="boundary" inkscape:connector-curvature="0" />
	<path style="fill:none;stroke:red;stroke-width:1px;stroke-linecap:butt;stroke-linejoin:miter;stroke-opacity:1" d="M 528.421,192.865 511.919,183.697 z" id="boundary" inkscape:connector-curvature="0" />
	<path style="fill:none;stroke:red;stroke-width:1px;stroke-linecap:butt;stroke-linejoin:miter;stroke-opacity:1" d="M 601.767,202.033 583.431,202.033 z" id="boundary" inkscape:connector-curvature="0" />
	<path style="fill:none;stroke:red;stroke-width:1px;stroke-linecap:butt;stroke-linejoin:miter;stroke-opacity:1" d="M 583.431,202.033 565.094,198.366 z" id="boundary" inkscape:connector-curvature="0" />
	<path style="fill:none;stroke:red;stroke-width:1px;stroke-linecap:butt;stroke-linejoin:miter;stroke-opacity:1" d="M 565.094,198.366 546.758,192.865 z" id="boundary" inkscape:connector-curvature="0" />
	<path style="fill:none;stroke:red;stroke-width:1px;stroke-linecap:butt;stroke-linejoin:miter;stroke-opacity:1" d="M 620.104,207.534 638.44,207.534 z" id="boundary" inkscape:connector-curvature="0" />
	<path style="fill:none;stroke:red;stroke-width:1px;stroke-linecap:butt;stroke-linejoin:miter;stroke-opacity:1" d="M 620.104,207.534 601.767,202.033 z" id="boundary" inkscape:connector-curvature="0" />
	<path style="fill:none;stroke:red;stroke-width:1px;stroke-linecap:butt;stroke-linejoin:miter;stroke-opacity:1" d="M 638.44,207.534 656.776,207.534 z" id="boundary" inkscape:connector-curvature="0" />
	<path style="fill:none;stroke:red;stroke-width:1px;stroke-linecap:butt;stroke-linejoin:miter;stroke-opacity:1" d="M 693.449,211.201 675.113,211.201 z" id="boundary" inkscape:connector-curvature="0" />
	<path style="fill:none;stroke:red;stroke-width:1px;stroke-linecap:butt;stroke-linejoin:miter;stroke-opacity:1" d="M 675.113,211.201 656.776,207.534 z" id="boundary" inkscape:connector-curvature="0" />
	<path style="fill:none;stroke:red;stroke-width:1px;stroke-linecap:butt;stroke-linejoin:miter;stroke-opacity:1" d="M 693.449,211.201 711.786,211.201 z" id="boundary" inkscape:connector-curvature="0" />
	<path style="fill:none;stroke:red;stroke-width:1px;stroke-linecap:butt;stroke-linejoin:miter;stroke-opacity:1" d="M 730.122,211.201 711.786,211.201 z" id="boundary" inkscape:connector-curvature="0" />
	<path style="fill:none;stroke:red;stroke-width:1px;stroke-linecap:butt;stroke-linejoin:miter;stroke-opacity:1" d="M 748.458,211.201 766.795,211.201 z" id="boundary" inkscape:connector-curvature="0" />
	<path style="fill:none;stroke:red;stroke-width:1px;stroke-linecap:butt;stroke-linejoin:miter;stroke-opacity:1" d="M 748.458,211.201 730.122,211.201 z" id="boundary" inkscape:connector-curvature="0" />
	<path style="fill:none;stroke:red;stroke-width:1px;stroke-linecap:butt;stroke-linejoin:miter;stroke-opacity:1" d="M 766.795,211.201 785.131,211.201 z" id="boundary" inkscape:connector-curvature="0" />
	<path style="fill:none;stroke:red;stroke-width:1px;stroke-linecap:butt;stroke-linejoin:miter;stroke-opacity:1" d="M 801.634,220.37 819.97,220.37 z" id="boundary" inkscape:connector-curvature="0" />
	<path style="fill:none;stroke:red;stroke-width:1px;stroke-linecap:butt;stroke-linejoin:miter;stroke-opacity:1" d="M 801.634,220.37 785.131,211.201 z" id="boundary" inkscape:connector-curvature="0" />
	<path style="fill:none;stroke:red;stroke-width:1px;stroke-linecap:butt;stroke-linejoin:miter;stroke-opacity:1" d="M 838.307,220.37 819.97,220.37 z" id="boundary" inkscape:connector-curvature="0" />
	<path style="fill:none;stroke:red;stroke-width:1px;stroke-linecap:butt;stroke-linejoin:miter;stroke-opacity:1" d="M 856.643,220.37 874.98,220.37 z" id="boundary" inkscape:connector-curvature="0" />
	<path style="fill:none;stroke:red;stroke-width:1px;stroke-linecap:butt;stroke-linejoin:miter;stroke-opacity:1" d="M 874.98,220.37 893.316,220.37 z" id="boundary" inkscape:connector-curvature="0" />
	<path style="fill:none;stroke:red;stroke-width:1px;stroke-linecap:butt;stroke-linejoin:miter;stroke-opacity:1" d="M 909.819,229.538 893.316,220.37 z" id="boundary" inkscape:connector-curvature="0" />
	<path style="fill:none;stroke:red;stroke-width:1px;stroke-linecap:butt;stroke-linejoin:miter;stroke-opacity:1" d="M 928.155,229.538 909.819,229.538 z" id="boundary" inkscape:connector-curvature="0" />
	<path style="fill:none;stroke:red;stroke-width:1px;stroke-linecap:butt;stroke-linejoin:miter;stroke-opacity:1" d="M 838.307,220.37 856.643,220.37 z" id="boundary" inkscape:connector-curvature="0" />
	<path style="fill:none;stroke:red;stroke-width:1px;stroke-linecap:butt;stroke-linejoin:miter;stroke-opacity:1" d="M 262.543,233.205 244.207,235.039 z" id="boundary" inkscape:connector-curvature="0" />
	<path style="fill:none;stroke:red;stroke-width:1px;stroke-linecap:butt;stroke-linejoin:miter;stroke-opacity:1" d="M 291.882,222.203 280.88,238.706 z" id="boundary" inkscape:connector-curvature="0" />
	<path style="fill:none;stroke:red;stroke-width:1px;stroke-linecap:butt;stroke-linejoin:miter;stroke-opacity:1" d="M 280.88,238.706 262.543,233.205 z" id="boundary" inkscape:connector-curvature="0" />
	<path style="fill:none;stroke:red;stroke-width:1px;stroke-linecap:butt;stroke-linejoin:miter;stroke-opacity:1" d="M 398.233,268.044 416.569,262.543 z" id="boundary" inkscape:connector-curvature="0" />
	<path style="fill:none;stroke:red;stroke-width:1px;stroke-linecap:butt;stroke-linejoin:miter;stroke-opacity:1" d="M 398.233,268.044 379.896,271.712 z" id="boundary" inkscape:connector-curvature="0" />
	<path style="fill:none;stroke:red;stroke-width:1px;stroke-linecap:butt;stroke-linejoin:miter;stroke-opacity:1" d="M 416.569,262.543 434.906,258.876 z" id="boundary" inkscape:connector-curvature="0" />
	<path style="fill:none;stroke:red;stroke-width:1px;stroke-linecap:butt;stroke-linejoin:miter;stroke-opacity:1" d="M 434.906,258.876 451.409,268.044 z" id="boundary" inkscape:connector-curvature="0" />
	<path style="fill:none;stroke:red;stroke-width:1px;stroke-linecap:butt;stroke-linejoin:miter;stroke-opacity:1" d="M 543.091,268.044 524.754,268.044 z" id="boundary" inkscape:connector-curvature="0" />
	<path style="fill:none;stroke:red;stroke-width:1px;stroke-linecap:butt;stroke-linejoin:miter;stroke-opacity:1" d="M 361.56,271.712 343.224,277.213 z" id="boundary" inkscape:connector-curvature="0" />
	<path style="fill:none;stroke:red;stroke-width:1px;stroke-linecap:butt;stroke-linejoin:miter;stroke-opacity:1" d="M 451.409,268.044 469.745,268.044 z" id="boundary" inkscape:connector-curvature="0" />
	<path style="fill:none;stroke:red;stroke-width:1px;stroke-linecap:butt;stroke-linejoin:miter;stroke-opacity:1" d="M 469.745,268.044 488.081,268.044 z" id="boundary" inkscape:connector-curvature="0" />
	<path style="fill:none;stroke:red;stroke-width:1px;stroke-linecap:butt;stroke-linejoin:miter;stroke-opacity:1" d="M 506.418,268.044 488.081,268.044 z" id="boundary" inkscape:connector-curvature="0" />
	<path style="fill:none;stroke:red;stroke-width:1px;stroke-linecap:butt;stroke-linejoin:miter;stroke-opacity:1" d="M 524.754,268.044 506.418,268.044 z" id="boundary" inkscape:connector-curvature="0" />
	<path style="fill:none;stroke:red;stroke-width:1px;stroke-linecap:butt;stroke-linejoin:miter;stroke-opacity:1" d="M 598.1,268.044 579.763,268.044 z" id="boundary" inkscape:connector-curvature="0" />
	<path style="fill:none;stroke:red;stroke-width:1px;stroke-linecap:butt;stroke-linejoin:miter;stroke-opacity:1" d="M 308.384,286.381 293.715,302.884 z" id="boundary" inkscape:connector-curvature="0" />
	<path style="fill:none;stroke:red;stroke-width:1px;stroke-linecap:butt;stroke-linejoin:miter;stroke-opacity:1" d="M 308.384,286.381 326.721,286.381 z" id="boundary" inkscape:connector-curvature="0" />
	<path style="fill:none;stroke:red;stroke-width:1px;stroke-linecap:butt;stroke-linejoin:miter;stroke-opacity:1" d="M 293.715,302.884 279.046,317.553 z" id="boundary" inkscape:connector-curvature="0" />
	<path style="fill:none;stroke:red;stroke-width:1px;stroke-linecap:butt;stroke-linejoin:miter;stroke-opacity:1" d="M 260.71,326.721 242.373,332.222 z" id="boundary" inkscape:connector-curvature="0" />
	<path style="fill:none;stroke:red;stroke-width:1px;stroke-linecap:butt;stroke-linejoin:miter;stroke-opacity:1" d="M 279.046,317.553 260.71,326.721 z" id="boundary" inkscape:connector-curvature="0" />
	<path style="fill:none;stroke:red;stroke-width:1px;stroke-linecap:butt;stroke-linejoin:miter;stroke-opacity:1" d="M 543.091,268.044 561.427,268.044 z" id="boundary" inkscape:connector-curvature="0" />
	<path style="fill:none;stroke:red;stroke-width:1px;stroke-linecap:butt;stroke-linejoin:miter;stroke-opacity:1" d="M 579.763,268.044 561.427,268.044 z" id="boundary" inkscape:connector-curvature="0" />
	<path style="fill:none;stroke:red;stroke-width:1px;stroke-linecap:butt;stroke-linejoin:miter;stroke-opacity:1" d="M 326.721,286.381 343.224,277.213 z" id="boundary" inkscape:connector-curvature="0" />
	<path style="fill:none;stroke:red;stroke-width:1px;stroke-linecap:butt;stroke-linejoin:miter;stroke-opacity:1" d="M 361.56,271.712 379.896,271.712 z" id="boundary" inkscape:connector-curvature="0" />
	<path style="fill:none;stroke:red;stroke-width:1px;stroke-linecap:butt;stroke-linejoin:miter;stroke-opacity:1" d="M 598.1,268.044 614.603,277.213 z" id="boundary" inkscape:connector-curvature="0" />
	<path style="fill:none;stroke:red;stroke-width:1px;stroke-linecap:butt;stroke-linejoin:miter;stroke-opacity:1" d="M 614.603,277.213 632.939,275.379 z" id="boundary" inkscape:connector-curvature="0" />
	<path style="fill:none;stroke:red;stroke-width:1px;stroke-linecap:butt;stroke-linejoin:miter;stroke-opacity:1" d="M 632.939,275.379 651.275,277.213 z" id="boundary" inkscape:connector-curvature="0" />
	<path style="fill:none;stroke:red;stroke-width:1px;stroke-linecap:butt;stroke-linejoin:miter;stroke-opacity:1" d="M 669.612,277.213 687.948,277.213 z" id="boundary" inkscape:connector-curvature="0" />
	<path style="fill:none;stroke:red;stroke-width:1px;stroke-linecap:butt;stroke-linejoin:miter;stroke-opacity:1" d="M 687.948,277.213 706.285,277.213 z" id="boundary" inkscape:connector-curvature="0" />
	<path style="fill:none;stroke:red;stroke-width:1px;stroke-linecap:butt;stroke-linejoin:miter;stroke-opacity:1" d="M 669.612,277.213 651.275,277.213 z" id="boundary" inkscape:connector-curvature="0" />
	<path style="fill:none;stroke:red;stroke-width:1px;stroke-linecap:butt;stroke-linejoin:miter;stroke-opacity:1" d="M 928.155,229.538 946.492,229.538 z" id="boundary" inkscape:connector-curvature="0" />
	<path style="fill:none;stroke:red;stroke-width:1px;stroke-linecap:butt;stroke-linejoin:miter;stroke-opacity:1" d="M 964.828,229.538 946.492,229.538 z" id="boundary" inkscape:connector-curvature="0" />
	<path style="fill:none;stroke:red;stroke-width:1px;stroke-linecap:butt;stroke-linejoin:miter;stroke-opacity:1" d="M 742.957,277.213 724.621,277.213 z" id="boundary" inkscape:connector-curvature="0" />
	<path style="fill:none;stroke:red;stroke-width:1px;stroke-linecap:butt;stroke-linejoin:miter;stroke-opacity:1" d="M 964.828,229.538 981.331,238.706 z" id="boundary" inkscape:connector-curvature="0" />
	<path style="fill:none;stroke:red;stroke-width:1px;stroke-linecap:butt;stroke-linejoin:miter;stroke-opacity:1" d="M 996,258.876 981.331,275.379 z" id="boundary" inkscape:connector-curvature="0" />
	<path style="fill:none;stroke:red;stroke-width:1px;stroke-linecap:butt;stroke-linejoin:miter;stroke-opacity:1" d="M 981.331,238.706 996,258.876 z" id="boundary" inkscape:connector-curvature="0" />
	<path style="fill:none;stroke:red;stroke-width:1px;stroke-linecap:butt;stroke-linejoin:miter;stroke-opacity:1" d="M 981.331,275.379 962.994,277.213 z" id="boundary" inkscape:connector-curvature="0" />
	<path style="fill:none;stroke:red;stroke-width:1px;stroke-linecap:butt;stroke-linejoin:miter;stroke-opacity:1" d="M 724.621,277.213 706.285,277.213 z" id="boundary" inkscape:connector-curvature="0" />
	<path style="fill:none;stroke:red;stroke-width:1px;stroke-linecap:butt;stroke-linejoin:miter;stroke-opacity:1" d="M 742.957,277.213 761.294,277.213 z" id="boundary" inkscape:connector-curvature="0" />
	<path style="fill:none;stroke:red;stroke-width:1px;stroke-linecap:butt;stroke-linejoin:miter;stroke-opacity:1" d="M 779.63,277.213 761.294,277.213 z" id="boundary" inkscape:connector-curvature="0" />
	<path style="fill:none;stroke:red;stroke-width:1px;stroke-linecap:butt;stroke-linejoin:miter;stroke-opacity:1" d="M 797.967,277.213 816.303,277.213 z" id="boundary" inkscape:connector-curvature="0" />
	<path style="fill:none;stroke:red;stroke-width:1px;stroke-linecap:butt;stroke-linejoin:miter;stroke-opacity:1" d="M 834.64,277.213 816.303,277.213 z" id="boundary" inkscape:connector-curvature="0" />
	<path style="fill:none;stroke:red;stroke-width:1px;stroke-linecap:butt;stroke-linejoin:miter;stroke-opacity:1" d="M 797.967,277.213 779.63,277.213 z" id="boundary" inkscape:connector-curvature="0" />
	<path style="fill:none;stroke:red;stroke-width:1px;stroke-linecap:butt;stroke-linejoin:miter;stroke-opacity:1" d="M 852.976,277.213 871.312,277.213 z" id="boundary" inkscape:connector-curvature="0" />
	<path style="fill:none;stroke:red;stroke-width:1px;stroke-linecap:butt;stroke-linejoin:miter;stroke-opacity:1" d="M 889.649,277.213 871.312,277.213 z" id="boundary" inkscape:connector-curvature="0" />
	<path style="fill:none;stroke:red;stroke-width:1px;stroke-linecap:butt;stroke-linejoin:miter;stroke-opacity:1" d="M 907.985,277.213 926.322,277.213 z" id="boundary" inkscape:connector-curvature="0" />
	<path style="fill:none;stroke:red;stroke-width:1px;stroke-linecap:butt;stroke-linejoin:miter;stroke-opacity:1" d="M 944.658,277.213 962.994,277.213 z" id="boundary" inkscape:connector-curvature="0" />
	<path style="fill:none;stroke:red;stroke-width:1px;stroke-linecap:butt;stroke-linejoin:miter;stroke-opacity:1" d="M 944.658,277.213 926.322,277.213 z" id="boundary" inkscape:connector-curvature="0" />
	<path style="fill:none;stroke:red;stroke-width:1px;stroke-linecap:butt;stroke-linejoin:miter;stroke-opacity:1" d="M 907.985,277.213 889.649,277.213 z" id="boundary" inkscape:connector-curvature="0" />
	<path style="fill:none;stroke:red;stroke-width:1px;stroke-linecap:butt;stroke-linejoin:miter;stroke-opacity:1" d="M 852.976,277.213 834.64,277.213 z" id="boundary" inkscape:connector-curvature="0" />
	<circle cx="4" cy="143.357" r="4" fill="#0" id="circle0"/>
	<circle cx="13.1682" cy="33.3383" r="4" fill="#0" id="circle1"/>
	<circle cx="13.1682" cy="51.6747" r="4" fill="#0" id="circle2"/>
	<circle cx="13.1682" cy="225.871" r="4" fill="#0" id="circle3"/>
	<circle cx="18.6691" cy="128.688" r="4" fill="#0" id="circle4"/>
	<circle cx="18.6691" cy="156.192" r="4" fill="#0" id="circle5"/>
	<circle cx="22.3364" cy="68.1774" r="4" fill="#0" id="circle6"/>
	<circle cx="22.3364" cy="242.373" r="4" fill="#0" id="circle7"/>
	<circle cx="22.3364" cy="299.216" r="4" fill="#0" id="circle8"/>
	<circle cx="27.8373" cy="18.6691" r="4" fill="#0" id="circle9"/>
	<circle cx="27.8373" cy="211.201" r="4" fill="#0" id="circle10"/>
	<circle cx="31.5046" cy="84.6802" r="4" fill="#0" id="circle11"/>
	<circle cx="31.5046" cy="315.719" r="4" fill="#0" id="circle12"/>
	<circle cx="33.3383" cy="167.194" r="4" fill="#0" id="circle13"/>
	<circle cx="37.0055" cy="128.688" r="4" fill="#0" id="circle14"/>
	<circle cx="37.0055" cy="284.547" r="4" fill="#0" id="circle15"/>
	<circle cx="40.6728" cy="240.54" r="4" fill="#0" id="circle16"/>
	<circle cx="40.6728" cy="332.222" r="4" fill="#0" id="circle17"/>
	<circle cx="42.5065" cy="4" r="4" fill="#0" id="circle18"/>
	<circle cx="46.1738" cy="211.201" r="4" fill="#0" id="circle19"/>
	<circle cx="48.0074" cy="93.8484" r="4" fill="#0" id="circle20"/>
	<circle cx="49.841" cy="158.026" r="4" fill="#0" id="circle21"/>
	<circle cx="55.342" cy="128.688" r="4" fill="#0" id="circle22"/>
	<circle cx="55.342" cy="275.379" r="4" fill="#0" id="circle23"/>
	<circle cx="59.0092" cy="240.54" r="4" fill="#0" id="circle24"/>
	<circle cx="59.0092" cy="332.222" r="4" fill="#0" id="circle25"/>
	<circle cx="60.8429" cy="4" r="4" fill="#0" id="circle26"/>
	<circle cx="64.5102" cy="211.201" r="4" fill="#0" id="circle27"/>
	<circle cx="66.3438" cy="93.8484" r="4" fill="#0" id="circle28"/>
	<circle cx="66.3438" cy="167.194" r="4" fill="#0" id="circle29"/>
	<circle cx="73.6784" cy="128.688" r="4" fill="#0" id="circle30"/>
	<circle cx="73.6784" cy="275.379" r="4" fill="#0" id="circle31"/>
	<circle cx="77.3457" cy="240.54" r="4" fill="#0" id="circle32"/>
	<circle cx="77.3457" cy="332.222" r="4" fill="#0" id="circle33"/>
	<circle cx="79.1793" cy="4" r="4" fill="#0" id="circle34"/>
	<circle cx="82.8466" cy="211.201" r="4" fill="#0" id="circle35"/>
	<circle cx="84.6802" cy="93.8484" r="4" fill="#0" id="circle36"/>
	<circle cx="84.6802" cy="167.194" r="4" fill="#0" id="circle37"/>
	<circle cx="90.1811" cy="137.856" r="4" fill="#0" id="circle38"/>
	<circle cx="92.0148" cy="275.379" r="4" fill="#0" id="circle39"/>
	<circle cx="93.8484" cy="249.708" r="4" fill="#0" id="circle40"/>
	<circle cx="95.6821" cy="332.222" r="4" fill="#0" id="circle41"/>
	<circle cx="97.5157" cy="4" r="4" fill="#0" id="circle42"/>
	<circle cx="101.183" cy="176.362" r="4" fill="#0" id="circle43"/>
	<circle cx="101.183" cy="211.201" r="4" fill="#0" id="circle44"/>
	<circle cx="103.017" cy="93.8484" r="4" fill="#0" id="circle45"/>
	<circle cx="106.684" cy="147.024" r="4" fill="#0" id="circle46"/>
	<circle cx="110.351" cy="275.379" r="4" fill="#0" id="circle47"/>
	<circle cx="112.185" cy="249.708" r="4" fill="#0" id="circle48"/>
	<circle cx="114.018" cy="332.222" r="4" fill="#0" id="circle49"/>
	<circle cx="115.852" cy="4" r="4" fill="#0" id="circle50"/>
	<circle cx="117.686" cy="220.37" r="4" fill="#0" id="circle51"/>
	<circle cx="119.519" cy="183.697" r="4" fill="#0" id="circle52"/>
	<circle cx="121.353" cy="93.8484" r="4" fill="#0" id="circle53"/>
	<circle cx="125.02" cy="143.357" r="4" fill="#0" id="circle54"/>
	<circle cx="128.688" cy="275.379" r="4" fill="#0" id="circle55"/>
	<circle cx="130.521" cy="249.708" r="4" fill="#0" id="circle56"/>
	<circle cx="132.355" cy="335.889" r="4" fill="#0" id="circle57"/>
	<circle cx="134.189" cy="9.50092" r="4" fill="#0" id="circle58"/>
	<circle cx="136.022" cy="220.37" r="4" fill="#0" id="circle59"/>
	<circle cx="137.856" cy="183.697" r="4" fill="#0" id="circle60"/>
	<circle cx="139.689" cy="93.8484" r="4" fill="#0" id="circle61"/>
	<circle cx="143.357" cy="147.024" r="4" fill="#0" id="circle62"/>
	<circle cx="147.024" cy="258.876" r="4" fill="#0" id="circle63"/>
	<circle cx="147.024" cy="277.213" r="4" fill="#0" id="circle64"/>
	<circle cx="150.691" cy="332.222" r="4" fill="#0" id="circle65"/>
	<circle cx="152.525" cy="9.50092" r="4" fill="#0" id="circle66"/>
	<circle cx="154.359" cy="220.37" r="4" fill="#0" id="circle67"/>
	<circle cx="156.192" cy="183.697" r="4" fill="#0" id="circle68"/>
	<circle cx="158.026" cy="93.8484" r="4" fill="#0" id="circle69"/>
	<circle cx="161.693" cy="147.024" r="4" fill="#0" id="circle70"/>
	<circle cx="165.36" cy="258.876" r="4" fill="#0" id="circle71"/>
	<circle cx="165.36" cy="284.547" r="4" fill="#0" id="circle72"/>
	<circle cx="169.028" cy="18.6691" r="4" fill="#0" id="circle73"/>
	<circle cx="169.028" cy="332.222" r="4" fill="#0" id="circle74"/>
	<circle cx="170.861" cy="229.538" r="4" fill="#0" id="circle75"/>
	<circle cx="174.529" cy="103.017" r="4" fill="#0" id="circle76"/>
	<circle cx="174.529" cy="185.53" r="4" fill="#0" id="circle77"/>
	<circle cx="180.03" cy="152.525" r="4" fill="#0" id="circle78"/>
	<circle cx="183.697" cy="266.211" r="4" fill="#0" id="circle79"/>
	<circle cx="183.697" cy="284.547" r="4" fill="#0" id="circle80"/>
	<circle cx="187.364" cy="18.6691" r="4" fill="#0" id="circle81"/>
	<circle cx="187.364" cy="332.222" r="4" fill="#0" id="circle82"/>
	<circle cx="189.198" cy="225.871" r="4" fill="#0" id="circle83"/>
	<circle cx="192.865" cy="101.183" r="4" fill="#0" id="circle84"/>
	<circle cx="192.865" cy="185.53" r="4" fill="#0" id="circle85"/>
	<circle cx="198.366" cy="156.192" r="4" fill="#0" id="circle86"/>
	<circle cx="202.033" cy="268.044" r="4" fill="#0" id="circle87"/>
	<circle cx="203.867" cy="27.8373" r="4" fill="#0" id="circle88"/>
	<circle cx="205.701" cy="332.222" r="4" fill="#0" id="circle89"/>
	<circle cx="207.534" cy="229.538" r="4" fill="#0" id="circle90"/>
	<circle cx="209.368" cy="194.699" r="4" fill="#0" id="circle91"/>
	<circle cx="211.201" cy="103.017" r="4" fill="#0" id="circle92"/>
	<circle cx="216.702" cy="161.693" r="4" fill="#0" id="circle93"/>
	<circle cx="216.702" cy="280.88" r="4" fill="#0" id="circle94"/>
	<circle cx="220.37" cy="37.0055" r="4" fill="#0" id="circle95"/>
	<circle cx="224.037" cy="332.222" r="4" fill="#0" id="circle96"/>
	<circle cx="225.871" cy="229.538" r="4" fill="#0" id="circle97"/>
	<circle cx="227.704" cy="112.185" r="4" fill="#0" id="circle98"/>
	<circle cx="227.704" cy="200.2" r="4" fill="#0" id="circle99"/>
	<circle cx="231.372" cy="268.044" r="4" fill="#0" id="circle100"/>
	<circle cx="235.039" cy="161.693" r="4" fill="#0" id="circle101"/>
	<circle cx="238.706" cy="37.0055" r="4" fill="#0" id="circle102"/>
	<circle cx="240.54" cy="284.547" r="4" fill="#0" id="circle103"/>
	<circle cx="242.373" cy="332.222" r="4" fill="#0" id="circle104"/>
	<circle cx="244.207" cy="235.039" r="4" fill="#0" id="circle105"/>
	<circle cx="246.041" cy="117.686" r="4" fill="#0" id="circle106"/>
	<circle cx="246.041" cy="203.867" r="4" fill="#0" id="circle107"/>
	<circle cx="251.542" cy="51.6747" r="4" fill="#0" id="circle108"/>
	<circle cx="253.375" cy="136.022" r="4" fill="#0" id="circle109"/>
	<circle cx="253.375" cy="165.36" r="4" fill="#0" id="circle110"/>
	<circle cx="260.71" cy="326.721" r="4" fill="#0" id="circle111"/>
	<circle cx="262.543" cy="194.699" r="4" fill="#0" id="circle112"/>
	<circle cx="262.543" cy="233.205" r="4" fill="#0" id="circle113"/>
	<circle cx="269.878" cy="59.0092" r="4" fill="#0" id="circle114"/>
	<circle cx="271.712" cy="143.357" r="4" fill="#0" id="circle115"/>
	<circle cx="271.712" cy="165.36" r="4" fill="#0" id="circle116"/>
	<circle cx="279.046" cy="203.867" r="4" fill="#0" id="circle117"/>
	<circle cx="279.046" cy="317.553" r="4" fill="#0" id="circle118"/>
	<circle cx="280.88" cy="73.6784" r="4" fill="#0" id="circle119"/>
	<circle cx="280.88" cy="238.706" r="4" fill="#0" id="circle120"/>
	<circle cx="288.214" cy="152.525" r="4" fill="#0" id="circle121"/>
	<circle cx="291.882" cy="222.203" r="4" fill="#0" id="circle122"/>
	<circle cx="293.715" cy="302.884" r="4" fill="#0" id="circle123"/>
	<circle cx="297.383" cy="203.867" r="4" fill="#0" id="circle124"/>
	<circle cx="299.216" cy="79.1793" r="4" fill="#0" id="circle125"/>
	<circle cx="308.384" cy="286.381" r="4" fill="#0" id="circle126"/>
	<circle cx="312.052" cy="93.8484" r="4" fill="#0" id="circle127"/>
	<circle cx="326.721" cy="106.684" r="4" fill="#0" id="circle128"/>
	<circle cx="326.721" cy="286.381" r="4" fill="#0" id="circle129"/>
	<circle cx="339.556" cy="121.353" r="4" fill="#0" id="circle130"/>
	<circle cx="343.224" cy="277.213" r="4" fill="#0" id="circle131"/>
	<circle cx="357.893" cy="128.688" r="4" fill="#0" id="circle132"/>
	<circle cx="361.56" cy="271.712" r="4" fill="#0" id="circle133"/>
	<circle cx="374.396" cy="137.856" r="4" fill="#0" id="circle134"/>
	<circle cx="379.896" cy="271.712" r="4" fill="#0" id="circle135"/>
	<circle cx="389.065" cy="150.691" r="4" fill="#0" id="circle136"/>
	<circle cx="398.233" cy="268.044" r="4" fill="#0" id="circle137"/>
	<circle cx="405.567" cy="159.86" r="4" fill="#0" id="circle138"/>
	<circle cx="416.569" cy="262.543" r="4" fill="#0" id="circle139"/>
	<circle cx="423.904" cy="165.36" r="4" fill="#0" id="circle140"/>
	<circle cx="434.906" cy="258.876" r="4" fill="#0" id="circle141"/>
	<circle cx="440.407" cy="174.529" r="4" fill="#0" id="circle142"/>
	<circle cx="451.409" cy="268.044" r="4" fill="#0" id="circle143"/>
	<circle cx="458.743" cy="174.529" r="4" fill="#0" id="circle144"/>
	<circle cx="469.745" cy="268.044" r="4" fill="#0" id="circle145"/>
	<circle cx="477.079" cy="174.529" r="4" fill="#0" id="circle146"/>
	<circle cx="488.081" cy="268.044" r="4" fill="#0" id="circle147"/>
	<circle cx="495.416" cy="174.529" r="4" fill="#0" id="circle148"/>
	<circle cx="506.418" cy="268.044" r="4" fill="#0" id="circle149"/>
	<circle cx="511.919" cy="183.697" r="4" fill="#0" id="circle150"/>
	<circle cx="524.754" cy="268.044" r="4" fill="#0" id="circle151"/>
	<circle cx="528.421" cy="192.865" r="4" fill="#0" id="circle152"/>
	<circle cx="543.091" cy="268.044" r="4" fill="#0" id="circle153"/>
	<circle cx="546.758" cy="192.865" r="4" fill="#0" id="circle154"/>
	<circle cx="561.427" cy="268.044" r="4" fill="#0" id="circle155"/>
	<circle cx="565.094" cy="198.366" r="4" fill="#0" id="circle156"/>
	<circle cx="579.763" cy="268.044" r="4" fill="#0" id="circle157"/>
	<circle cx="583.431" cy="202.033" r="4" fill="#0" id="circle158"/>
	<circle cx="598.1" cy="268.044" r="4" fill="#0" id="circle159"/>
	<circle cx="601.767" cy="202.033" r="4" fill="#0" id="circle160"/>
	<circle cx="614.603" cy="277.213" r="4" fill="#0" id="circle161"/>
	<circle cx="620.104" cy="207.534" r="4" fill="#0" id="circle162"/>
	<circle cx="632.939" cy="275.379" r="4" fill="#0" id="circle163"/>
	<circle cx="638.44" cy="207.534" r="4" fill="#0" id="circle164"/>
	<circle cx="651.275" cy="277.213" r="4" fill="#0" id="circle165"/>
	<circle cx="656.776" cy="207.534" r="4" fill="#0" id="circle166"/>
	<circle cx="669.612" cy="277.213" r="4" fill="#0" id="circle167"/>
	<circle cx="675.113" cy="211.201" r="4" fill="#0" id="circle168"/>
	<circle cx="687.948" cy="277.213" r="4" fill="#0" id="circle169"/>
	<circle cx="693.449" cy="211.201" r="4" fill="#0" id="circle170"/>
	<circle cx="706.285" cy="277.213" r="4" fill="#0" id="circle171"/>
	<circle cx="711.786" cy="211.201" r="4" fill="#0" id="circle172"/>
	<circle cx="724.621" cy="277.213" r="4" fill="#0" id="circle173"/>
	<circle cx="730.122" cy="211.201" r="4" fill="#0" id="circle174"/>
	<circle cx="742.957" cy="277.213" r="4" fill="#0" id="circle175"/>
	<circle cx="748.458" cy="211.201" r="4" fill="#0" id="circle176"/>
	<circle cx="761.294" cy="277.213" r="4" fill="#0" id="circle177"/>
	<circle cx="766.795" cy="211.201" r="4" fill="#0" id="circle178"/>
	<circle cx="779.63" cy="277.213" r="4" fill="#0" id="circle179"/>
	<circle cx="785.131" cy="211.201" r="4" fill="#0" id="circle180"/>
	<circle cx="797.967" cy="277.213" r="4" fill="#0" id="circle181"/>
	<circle cx="801.634" cy="220.37" r="4" fill="#0" id="circle182"/>
	<circle cx="816.303" cy="277.213" r="4" fill="#0" id="circle183"/>
	<circle cx="819.97" cy="220.37" r="4" fill="#0" id="circle184"/>
	<circle cx="834.64" cy="277.213" r="4" fill="#0" id="circle185"/>
	<circle cx="838.307" cy="220.37" r="4" fill="#0" id="circle186"/>
	<circle cx="852.976" cy="277.213" r="4" fill="#0" id="circle187"/>
	<circle cx="856.643" cy="220.37" r="4" fill="#0" id="circle188"/>
	<circle cx="871.312" cy="277.213" r="4" fill="#0" id="circle189"/>
	<circle cx="874.98" cy="220.37" r="4" fill="#0" id="circle190"/>
	<circle cx="889.649" cy="277.213" r="4" fill="#0" id="circle191"/>
	<circle cx="893.316" cy="220.37" r="4" fill="#0" id="circle192"/>
	<circle cx="907.985" cy="277.213" r="4" fill="#0" id="circle193"/>
	<circle cx="909.819" cy="229.538" r="4" fill="#0" id="circle194"/>
	<circle cx="926.322" cy="277.213" r="4" fill="#0" id="circle195"/>
	<circle cx="928.155" cy="229.538" r="4" fill="#0" id="circle196"/>
	<circle cx="944.658" cy="277.213" r="4" fill="#0" id="circle197"/>
	<circle cx="946.492" cy="229.538" r="4" fill="#0" id="circle198"/>
	<circle cx="962.994" cy="277.213" r="4" fill="#0" id="circle199"/>
	<circle cx="964.828" cy="229.538" r="4" fill="#0" id="circle200"/>
	<circle cx="981.331" cy="238.706" r="4" fill="#0" id="circle201"/>
	<circle cx="981.331" cy="275.379" r="4" fill="#0" id="circle202"/>
	<circle cx="996" cy="258.876" r="4" fill="#0" id="circle203"/>
	</g>
</svg>