<?xml version="1.0" encoding="UTF-8" standalone="no"?>
<!-- Created with CurveBenchmark -->
<svg
	xmlns:dc="http://purl.org/dc/elements/1.1/"
	xmlns:cc="http://creativecommons.org/ns#"
	xmlns:rdf="http://www.w3.org/1999/02/22-rdf-syntax-ns#"
	xmlns:svg="http://www.w3.org/2000/svg"
	xmlns="http://www.w3.org/2000/svg"
	xmlns:sodipodi="http://sodipodi.sourceforge.net/DTD/sodipodi-0.dtd"
	xmlns:inkscape="http://www.inkscape.org/namespaces/inkscape"
	width="1000"
	height="1000"
	id="svg2"
	version="1.1"
	sodipodi:docname="manifold/gathan1-textbox35.png.txt">
<defs
	id="defs4" />
<metadata
	id="metadata7">
	<rdf:RDF>
		<cc:Work
			rdf:about="">
			<dc:format>image/svg+xml</dc:format>
			<dc:type
				rdf:resource="http://purl.org/dc/dcmitype/StillImage" />
			<dc:title></dc:title>
		</cc:Work>
	</rdf:RDF>
</metadata>
<g
	inkscape:label="Layer 1"
	inkscape:groupmode="layer"
	id="layer1">
	<path style="fill:none;stroke:red;stroke-width:1px;stroke-linecap:butt;stroke-linejoin:miter;stroke-opacity:1" d="M 30.7626,223.453 30.7626,205.612 z" id="boundary" inkscape:connector-curvature="0" />
	<path style="fill:none;stroke:red;stroke-width:1px;stroke-linecap:butt;stroke-linejoin:miter;stroke-opacity:1" d="M 39.6835,178.849 30.7626,205.612 z" id="boundary" inkscape:connector-curvature="0" />
	<path style="fill:none;stroke:red;stroke-width:1px;stroke-linecap:butt;stroke-linejoin:miter;stroke-opacity:1" d="M 39.6835,178.849 53.9568,164.576 z" id="boundary" inkscape:connector-curvature="0" />
	<path style="fill:none;stroke:red;stroke-width:1px;stroke-linecap:butt;stroke-linejoin:miter;stroke-opacity:1" d="M 30.7626,223.453 12.9209,232.374 z" id="boundary" inkscape:connector-curvature="0" />
	<path style="fill:none;stroke:red;stroke-width:1px;stroke-linecap:butt;stroke-linejoin:miter;stroke-opacity:1" d="M 12.9209,232.374 12.9209,250.216 z" id="boundary" inkscape:connector-curvature="0" />
	<path style="fill:none;stroke:red;stroke-width:1px;stroke-linecap:butt;stroke-linejoin:miter;stroke-opacity:1" d="M 12.9209,250.216 4,276.978 z" id="boundary" inkscape:connector-curvature="0" />
	<path style="fill:none;stroke:red;stroke-width:1px;stroke-linecap:butt;stroke-linejoin:miter;stroke-opacity:1" d="M 4,294.82 4,276.978 z" id="boundary" inkscape:connector-curvature="0" />
	<path style="fill:none;stroke:red;stroke-width:1px;stroke-linecap:butt;stroke-linejoin:miter;stroke-opacity:1" d="M 98.5612,128.892 107.482,111.05 z" id="boundary" inkscape:connector-curvature="0" />
	<path style="fill:none;stroke:red;stroke-width:1px;stroke-linecap:butt;stroke-linejoin:miter;stroke-opacity:1" d="M 107.482,111.05 125.324,111.05 z" id="boundary" inkscape:connector-curvature="0" />
	<path style="fill:none;stroke:red;stroke-width:1px;stroke-linecap:butt;stroke-linejoin:miter;stroke-opacity:1" d="M 98.5612,128.892 80.7194,137.813 z" id="boundary" inkscape:connector-curvature="0" />
	<path style="fill:none;stroke:red;stroke-width:1px;stroke-linecap:butt;stroke-linejoin:miter;stroke-opacity:1" d="M 80.7194,137.813 71.7986,155.655 z" id="boundary" inkscape:connector-curvature="0" />
	<path style="fill:none;stroke:red;stroke-width:1px;stroke-linecap:butt;stroke-linejoin:miter;stroke-opacity:1" d="M 71.7986,155.655 53.9568,164.576 z" id="boundary" inkscape:connector-curvature="0" />
	<path style="fill:none;stroke:red;stroke-width:1px;stroke-linecap:butt;stroke-linejoin:miter;stroke-opacity:1" d="M 12.9209,328.719 4,312.662 z" id="boundary" inkscape:connector-curvature="0" />
	<path style="fill:none;stroke:red;stroke-width:1px;stroke-linecap:butt;stroke-linejoin:miter;stroke-opacity:1" d="M 4,312.662 4,294.82 z" id="boundary" inkscape:connector-curvature="0" />
	<path style="fill:none;stroke:red;stroke-width:1px;stroke-linecap:butt;stroke-linejoin:miter;stroke-opacity:1" d="M 12.9209,328.719 12.9209,346.561 z" id="boundary" inkscape:connector-curvature="0" />
	<path style="fill:none;stroke:red;stroke-width:1px;stroke-linecap:butt;stroke-linejoin:miter;stroke-opacity:1" d="M 12.9209,346.561 21.8417,362.619 z" id="boundary" inkscape:connector-curvature="0" />
	<path style="fill:none;stroke:red;stroke-width:1px;stroke-linecap:butt;stroke-linejoin:miter;stroke-opacity:1" d="M 30.7626,378.676 21.8417,362.619 z" id="boundary" inkscape:connector-curvature="0" />
	<path style="fill:none;stroke:red;stroke-width:1px;stroke-linecap:butt;stroke-linejoin:miter;stroke-opacity:1" d="M 55.741,425.065 41.4676,412.576 z" id="boundary" inkscape:connector-curvature="0" />
	<path style="fill:none;stroke:red;stroke-width:1px;stroke-linecap:butt;stroke-linejoin:miter;stroke-opacity:1" d="M 41.4676,412.576 39.6835,394.734 z" id="boundary" inkscape:connector-curvature="0" />
	<path style="fill:none;stroke:red;stroke-width:1px;stroke-linecap:butt;stroke-linejoin:miter;stroke-opacity:1" d="M 68.2302,439.338 55.741,425.065 z" id="boundary" inkscape:connector-curvature="0" />
	<path style="fill:none;stroke:red;stroke-width:1px;stroke-linecap:butt;stroke-linejoin:miter;stroke-opacity:1" d="M 30.7626,378.676 39.6835,394.734 z" id="boundary" inkscape:connector-curvature="0" />
	<path style="fill:none;stroke:red;stroke-width:1px;stroke-linecap:butt;stroke-linejoin:miter;stroke-opacity:1" d="M 68.2302,439.338 82.5036,451.827 z" id="boundary" inkscape:connector-curvature="0" />
	<path style="fill:none;stroke:red;stroke-width:1px;stroke-linecap:butt;stroke-linejoin:miter;stroke-opacity:1" d="M 98.5612,460.748 82.5036,451.827 z" id="boundary" inkscape:connector-curvature="0" />
	<path style="fill:none;stroke:red;stroke-width:1px;stroke-linecap:butt;stroke-linejoin:miter;stroke-opacity:1" d="M 98.5612,460.748 114.619,469.669 z" id="boundary" inkscape:connector-curvature="0" />
	<path style="fill:none;stroke:red;stroke-width:1px;stroke-linecap:butt;stroke-linejoin:miter;stroke-opacity:1" d="M 132.46,469.669 114.619,469.669 z" id="boundary" inkscape:connector-curvature="0" />
	<path style="fill:none;stroke:red;stroke-width:1px;stroke-linecap:butt;stroke-linejoin:miter;stroke-opacity:1" d="M 328.719,30.7626 310.878,30.7626 z" id="boundary" inkscape:connector-curvature="0" />
	<path style="fill:none;stroke:red;stroke-width:1px;stroke-linecap:butt;stroke-linejoin:miter;stroke-opacity:1" d="M 310.878,30.7626 293.036,32.5468 z" id="boundary" inkscape:connector-curvature="0" />
	<path style="fill:none;stroke:red;stroke-width:1px;stroke-linecap:butt;stroke-linejoin:miter;stroke-opacity:1" d="M 380.46,21.8417 362.619,21.8417 z" id="boundary" inkscape:connector-curvature="0" />
	<path style="fill:none;stroke:red;stroke-width:1px;stroke-linecap:butt;stroke-linejoin:miter;stroke-opacity:1" d="M 346.561,30.7626 362.619,21.8417 z" id="boundary" inkscape:connector-curvature="0" />
	<path style="fill:none;stroke:red;stroke-width:1px;stroke-linecap:butt;stroke-linejoin:miter;stroke-opacity:1" d="M 284.115,48.6043 293.036,32.5468 z" id="boundary" inkscape:connector-curvature="0" />
	<path style="fill:none;stroke:red;stroke-width:1px;stroke-linecap:butt;stroke-linejoin:miter;stroke-opacity:1" d="M 346.561,30.7626 328.719,30.7626 z" id="boundary" inkscape:connector-curvature="0" />
	<path style="fill:none;stroke:red;stroke-width:1px;stroke-linecap:butt;stroke-linejoin:miter;stroke-opacity:1" d="M 380.46,21.8417 398.302,21.8417 z" id="boundary" inkscape:connector-curvature="0" />
	<path style="fill:none;stroke:red;stroke-width:1px;stroke-linecap:butt;stroke-linejoin:miter;stroke-opacity:1" d="M 462.532,4 480.374,4 z" id="boundary" inkscape:connector-curvature="0" />
	<path style="fill:none;stroke:red;stroke-width:1px;stroke-linecap:butt;stroke-linejoin:miter;stroke-opacity:1" d="M 480.374,4 498.216,4 z" id="boundary" inkscape:connector-curvature="0" />
	<path style="fill:none;stroke:red;stroke-width:1px;stroke-linecap:butt;stroke-linejoin:miter;stroke-opacity:1" d="M 398.302,21.8417 416.144,21.8417 z" id="boundary" inkscape:connector-curvature="0" />
	<path style="fill:none;stroke:red;stroke-width:1px;stroke-linecap:butt;stroke-linejoin:miter;stroke-opacity:1" d="M 433.986,21.8417 444.691,5.78417 z" id="boundary" inkscape:connector-curvature="0" />
	<path style="fill:none;stroke:red;stroke-width:1px;stroke-linecap:butt;stroke-linejoin:miter;stroke-opacity:1" d="M 444.691,5.78417 462.532,4 z" id="boundary" inkscape:connector-curvature="0" />
	<path style="fill:none;stroke:red;stroke-width:1px;stroke-linecap:butt;stroke-linejoin:miter;stroke-opacity:1" d="M 433.986,21.8417 416.144,21.8417 z" id="boundary" inkscape:connector-curvature="0" />
	<path style="fill:none;stroke:red;stroke-width:1px;stroke-linecap:butt;stroke-linejoin:miter;stroke-opacity:1" d="M 141.381,102.129 150.302,86.0719 z" id="boundary" inkscape:connector-curvature="0" />
	<path style="fill:none;stroke:red;stroke-width:1px;stroke-linecap:butt;stroke-linejoin:miter;stroke-opacity:1" d="M 150.302,86.0719 168.144,84.2878 z" id="boundary" inkscape:connector-curvature="0" />
	<path style="fill:none;stroke:red;stroke-width:1px;stroke-linecap:butt;stroke-linejoin:miter;stroke-opacity:1" d="M 141.381,102.129 125.324,111.05 z" id="boundary" inkscape:connector-curvature="0" />
	<path style="fill:none;stroke:red;stroke-width:1px;stroke-linecap:butt;stroke-linejoin:miter;stroke-opacity:1" d="M 184.201,75.3669 168.144,84.2878 z" id="boundary" inkscape:connector-curvature="0" />
	<path style="fill:none;stroke:red;stroke-width:1px;stroke-linecap:butt;stroke-linejoin:miter;stroke-opacity:1" d="M 132.46,469.669 150.302,475.022 z" id="boundary" inkscape:connector-curvature="0" />
	<path style="fill:none;stroke:red;stroke-width:1px;stroke-linecap:butt;stroke-linejoin:miter;stroke-opacity:1" d="M 150.302,475.022 164.576,487.511 z" id="boundary" inkscape:connector-curvature="0" />
	<path style="fill:none;stroke:red;stroke-width:1px;stroke-linecap:butt;stroke-linejoin:miter;stroke-opacity:1" d="M 230.59,57.5252 248.432,50.3885 z" id="boundary" inkscape:connector-curvature="0" />
	<path style="fill:none;stroke:red;stroke-width:1px;stroke-linecap:butt;stroke-linejoin:miter;stroke-opacity:1" d="M 248.432,50.3885 266.273,48.6043 z" id="boundary" inkscape:connector-curvature="0" />
	<path style="fill:none;stroke:red;stroke-width:1px;stroke-linecap:butt;stroke-linejoin:miter;stroke-opacity:1" d="M 284.115,48.6043 266.273,48.6043 z" id="boundary" inkscape:connector-curvature="0" />
	<path style="fill:none;stroke:red;stroke-width:1px;stroke-linecap:butt;stroke-linejoin:miter;stroke-opacity:1" d="M 184.201,75.3669 202.043,75.3669 z" id="boundary" inkscape:connector-curvature="0" />
	<path style="fill:none;stroke:red;stroke-width:1px;stroke-linecap:butt;stroke-linejoin:miter;stroke-opacity:1" d="M 212.748,59.3094 202.043,75.3669 z" id="boundary" inkscape:connector-curvature="0" />
	<path style="fill:none;stroke:red;stroke-width:1px;stroke-linecap:butt;stroke-linejoin:miter;stroke-opacity:1" d="M 212.748,59.3094 230.59,57.5252 z" id="boundary" inkscape:connector-curvature="0" />
	<path style="fill:none;stroke:red;stroke-width:1px;stroke-linecap:butt;stroke-linejoin:miter;stroke-opacity:1" d="M 164.576,487.511 175.281,501.784 z" id="boundary" inkscape:connector-curvature="0" />
	<path style="fill:none;stroke:red;stroke-width:1px;stroke-linecap:butt;stroke-linejoin:miter;stroke-opacity:1" d="M 193.122,508.921 175.281,501.784 z" id="boundary" inkscape:connector-curvature="0" />
	<path style="fill:none;stroke:red;stroke-width:1px;stroke-linecap:butt;stroke-linejoin:miter;stroke-opacity:1" d="M 191.338,740.863 191.338,758.705 z" id="boundary" inkscape:connector-curvature="0" />
	<path style="fill:none;stroke:red;stroke-width:1px;stroke-linecap:butt;stroke-linejoin:miter;stroke-opacity:1" d="M 191.338,758.705 182.417,785.468 z" id="boundary" inkscape:connector-curvature="0" />
	<path style="fill:none;stroke:red;stroke-width:1px;stroke-linecap:butt;stroke-linejoin:miter;stroke-opacity:1" d="M 191.338,740.863 209.18,723.022 z" id="boundary" inkscape:connector-curvature="0" />
	<path style="fill:none;stroke:red;stroke-width:1px;stroke-linecap:butt;stroke-linejoin:miter;stroke-opacity:1" d="M 209.18,705.18 209.18,723.022 z" id="boundary" inkscape:connector-curvature="0" />
	<path style="fill:none;stroke:red;stroke-width:1px;stroke-linecap:butt;stroke-linejoin:miter;stroke-opacity:1" d="M 193.122,508.921 210.964,514.273 z" id="boundary" inkscape:connector-curvature="0" />
	<path style="fill:none;stroke:red;stroke-width:1px;stroke-linecap:butt;stroke-linejoin:miter;stroke-opacity:1" d="M 227.022,523.194 210.964,514.273 z" id="boundary" inkscape:connector-curvature="0" />
	<path style="fill:none;stroke:red;stroke-width:1px;stroke-linecap:butt;stroke-linejoin:miter;stroke-opacity:1" d="M 227.022,642.734 218.101,660.576 z" id="boundary" inkscape:connector-curvature="0" />
	<path style="fill:none;stroke:red;stroke-width:1px;stroke-linecap:butt;stroke-linejoin:miter;stroke-opacity:1" d="M 218.101,660.576 218.101,678.417 z" id="boundary" inkscape:connector-curvature="0" />
	<path style="fill:none;stroke:red;stroke-width:1px;stroke-linecap:butt;stroke-linejoin:miter;stroke-opacity:1" d="M 218.101,678.417 209.18,705.18 z" id="boundary" inkscape:connector-curvature="0" />
	<path style="fill:none;stroke:red;stroke-width:1px;stroke-linecap:butt;stroke-linejoin:miter;stroke-opacity:1" d="M 244.863,790.82 228.806,799.741 z" id="boundary" inkscape:connector-curvature="0" />
	<path style="fill:none;stroke:red;stroke-width:1px;stroke-linecap:butt;stroke-linejoin:miter;stroke-opacity:1" d="M 182.417,803.309 182.417,785.468 z" id="boundary" inkscape:connector-curvature="0" />
	<path style="fill:none;stroke:red;stroke-width:1px;stroke-linecap:butt;stroke-linejoin:miter;stroke-opacity:1" d="M 155.655,865.755 155.655,847.914 z" id="boundary" inkscape:connector-curvature="0" />
	<path style="fill:none;stroke:red;stroke-width:1px;stroke-linecap:butt;stroke-linejoin:miter;stroke-opacity:1" d="M 155.655,847.914 173.496,838.993 z" id="boundary" inkscape:connector-curvature="0" />
	<path style="fill:none;stroke:red;stroke-width:1px;stroke-linecap:butt;stroke-linejoin:miter;stroke-opacity:1" d="M 146.734,883.597 155.655,865.755 z" id="boundary" inkscape:connector-curvature="0" />
	<path style="fill:none;stroke:red;stroke-width:1px;stroke-linecap:butt;stroke-linejoin:miter;stroke-opacity:1" d="M 164.576,897.871 146.734,901.439 z" id="boundary" inkscape:connector-curvature="0" />
	<path style="fill:none;stroke:red;stroke-width:1px;stroke-linecap:butt;stroke-linejoin:miter;stroke-opacity:1" d="M 146.734,901.439 146.734,883.597 z" id="boundary" inkscape:connector-curvature="0" />
	<path style="fill:none;stroke:red;stroke-width:1px;stroke-linecap:butt;stroke-linejoin:miter;stroke-opacity:1" d="M 175.281,880.029 164.576,897.871 z" id="boundary" inkscape:connector-curvature="0" />
	<path style="fill:none;stroke:red;stroke-width:1px;stroke-linecap:butt;stroke-linejoin:miter;stroke-opacity:1" d="M 173.496,821.151 173.496,838.993 z" id="boundary" inkscape:connector-curvature="0" />
	<path style="fill:none;stroke:red;stroke-width:1px;stroke-linecap:butt;stroke-linejoin:miter;stroke-opacity:1" d="M 173.496,821.151 182.417,803.309 z" id="boundary" inkscape:connector-curvature="0" />
	<path style="fill:none;stroke:red;stroke-width:1px;stroke-linecap:butt;stroke-linejoin:miter;stroke-opacity:1" d="M 228.806,799.741 223.453,824.719 z" id="boundary" inkscape:connector-curvature="0" />
	<path style="fill:none;stroke:red;stroke-width:1px;stroke-linecap:butt;stroke-linejoin:miter;stroke-opacity:1" d="M 223.453,824.719 214.532,842.561 z" id="boundary" inkscape:connector-curvature="0" />
	<path style="fill:none;stroke:red;stroke-width:1px;stroke-linecap:butt;stroke-linejoin:miter;stroke-opacity:1" d="M 175.281,880.029 189.554,867.54 z" id="boundary" inkscape:connector-curvature="0" />
	<path style="fill:none;stroke:red;stroke-width:1px;stroke-linecap:butt;stroke-linejoin:miter;stroke-opacity:1" d="M 200.259,853.266 214.532,842.561 z" id="boundary" inkscape:connector-curvature="0" />
	<path style="fill:none;stroke:red;stroke-width:1px;stroke-linecap:butt;stroke-linejoin:miter;stroke-opacity:1" d="M 189.554,867.54 200.259,853.266 z" id="boundary" inkscape:connector-curvature="0" />
	<path style="fill:none;stroke:red;stroke-width:1px;stroke-linecap:butt;stroke-linejoin:miter;stroke-opacity:1" d="M 243.079,532.115 259.137,541.036 z" id="boundary" inkscape:connector-curvature="0" />
	<path style="fill:none;stroke:red;stroke-width:1px;stroke-linecap:butt;stroke-linejoin:miter;stroke-opacity:1" d="M 259.137,541.036 253.784,562.446 z" id="boundary" inkscape:connector-curvature="0" />
	<path style="fill:none;stroke:red;stroke-width:1px;stroke-linecap:butt;stroke-linejoin:miter;stroke-opacity:1" d="M 253.784,580.288 253.784,562.446 z" id="boundary" inkscape:connector-curvature="0" />
	<path style="fill:none;stroke:red;stroke-width:1px;stroke-linecap:butt;stroke-linejoin:miter;stroke-opacity:1" d="M 235.942,598.129 253.784,580.288 z" id="boundary" inkscape:connector-curvature="0" />
	<path style="fill:none;stroke:red;stroke-width:1px;stroke-linecap:butt;stroke-linejoin:miter;stroke-opacity:1" d="M 235.942,615.971 235.942,598.129 z" id="boundary" inkscape:connector-curvature="0" />
	<path style="fill:none;stroke:red;stroke-width:1px;stroke-linecap:butt;stroke-linejoin:miter;stroke-opacity:1" d="M 235.942,615.971 227.022,642.734 z" id="boundary" inkscape:connector-curvature="0" />
	<path style="fill:none;stroke:red;stroke-width:1px;stroke-linecap:butt;stroke-linejoin:miter;stroke-opacity:1" d="M 227.022,523.194 243.079,532.115 z" id="boundary" inkscape:connector-curvature="0" />
	<path style="fill:none;stroke:red;stroke-width:1px;stroke-linecap:butt;stroke-linejoin:miter;stroke-opacity:1" d="M 432.201,585.64 450.043,585.64 z" id="boundary" inkscape:connector-curvature="0" />
	<path style="fill:none;stroke:red;stroke-width:1px;stroke-linecap:butt;stroke-linejoin:miter;stroke-opacity:1" d="M 416.144,594.561 432.201,585.64 z" id="boundary" inkscape:connector-curvature="0" />
	<path style="fill:none;stroke:red;stroke-width:1px;stroke-linecap:butt;stroke-linejoin:miter;stroke-opacity:1" d="M 450.043,585.64 467.885,585.64 z" id="boundary" inkscape:connector-curvature="0" />
	<path style="fill:none;stroke:red;stroke-width:1px;stroke-linecap:butt;stroke-linejoin:miter;stroke-opacity:1" d="M 405.439,612.403 416.144,594.561 z" id="boundary" inkscape:connector-curvature="0" />
	<path style="fill:none;stroke:red;stroke-width:1px;stroke-linecap:butt;stroke-linejoin:miter;stroke-opacity:1" d="M 467.885,585.64 485.727,585.64 z" id="boundary" inkscape:connector-curvature="0" />
	<path style="fill:none;stroke:red;stroke-width:1px;stroke-linecap:butt;stroke-linejoin:miter;stroke-opacity:1" d="M 485.727,585.64 503.568,585.64 z" id="boundary" inkscape:connector-curvature="0" />
	<path style="fill:none;stroke:red;stroke-width:1px;stroke-linecap:butt;stroke-linejoin:miter;stroke-opacity:1" d="M 405.439,612.403 389.381,621.324 z" id="boundary" inkscape:connector-curvature="0" />
	<path style="fill:none;stroke:red;stroke-width:1px;stroke-linecap:butt;stroke-linejoin:miter;stroke-opacity:1" d="M 284.115,755.137 291.252,737.295 z" id="boundary" inkscape:connector-curvature="0" />
	<path style="fill:none;stroke:red;stroke-width:1px;stroke-linecap:butt;stroke-linejoin:miter;stroke-opacity:1" d="M 291.252,737.295 309.094,728.374 z" id="boundary" inkscape:connector-curvature="0" />
	<path style="fill:none;stroke:red;stroke-width:1px;stroke-linecap:butt;stroke-linejoin:miter;stroke-opacity:1" d="M 284.115,755.137 268.058,764.058 z" id="boundary" inkscape:connector-curvature="0" />
	<path style="fill:none;stroke:red;stroke-width:1px;stroke-linecap:butt;stroke-linejoin:miter;stroke-opacity:1" d="M 318.014,710.532 309.094,728.374 z" id="boundary" inkscape:connector-curvature="0" />
	<path style="fill:none;stroke:red;stroke-width:1px;stroke-linecap:butt;stroke-linejoin:miter;stroke-opacity:1" d="M 259.137,780.115 244.863,790.82 z" id="boundary" inkscape:connector-curvature="0" />
	<path style="fill:none;stroke:red;stroke-width:1px;stroke-linecap:butt;stroke-linejoin:miter;stroke-opacity:1" d="M 268.058,764.058 259.137,780.115 z" id="boundary" inkscape:connector-curvature="0" />
	<path style="fill:none;stroke:red;stroke-width:1px;stroke-linecap:butt;stroke-linejoin:miter;stroke-opacity:1" d="M 371.54,639.165 389.381,621.324 z" id="boundary" inkscape:connector-curvature="0" />
	<path style="fill:none;stroke:red;stroke-width:1px;stroke-linecap:butt;stroke-linejoin:miter;stroke-opacity:1" d="M 371.54,657.007 371.54,639.165 z" id="boundary" inkscape:connector-curvature="0" />
	<path style="fill:none;stroke:red;stroke-width:1px;stroke-linecap:butt;stroke-linejoin:miter;stroke-opacity:1" d="M 371.54,657.007 360.835,674.849 z" id="boundary" inkscape:connector-curvature="0" />
	<path style="fill:none;stroke:red;stroke-width:1px;stroke-linecap:butt;stroke-linejoin:miter;stroke-opacity:1" d="M 318.014,710.532 335.856,701.612 z" id="boundary" inkscape:connector-curvature="0" />
	<path style="fill:none;stroke:red;stroke-width:1px;stroke-linecap:butt;stroke-linejoin:miter;stroke-opacity:1" d="M 344.777,683.77 335.856,701.612 z" id="boundary" inkscape:connector-curvature="0" />
	<path style="fill:none;stroke:red;stroke-width:1px;stroke-linecap:butt;stroke-linejoin:miter;stroke-opacity:1" d="M 344.777,683.77 360.835,674.849 z" id="boundary" inkscape:connector-curvature="0" />
	<path style="fill:none;stroke:red;stroke-width:1px;stroke-linecap:butt;stroke-linejoin:miter;stroke-opacity:1" d="M 532.115,12.9209 548.173,21.8417 z" id="boundary" inkscape:connector-curvature="0" />
	<path style="fill:none;stroke:red;stroke-width:1px;stroke-linecap:butt;stroke-linejoin:miter;stroke-opacity:1" d="M 532.115,12.9209 516.058,4 z" id="boundary" inkscape:connector-curvature="0" />
	<path style="fill:none;stroke:red;stroke-width:1px;stroke-linecap:butt;stroke-linejoin:miter;stroke-opacity:1" d="M 566.014,21.8417 548.173,21.8417 z" id="boundary" inkscape:connector-curvature="0" />
	<path style="fill:none;stroke:red;stroke-width:1px;stroke-linecap:butt;stroke-linejoin:miter;stroke-opacity:1" d="M 521.41,585.64 503.568,585.64 z" id="boundary" inkscape:connector-curvature="0" />
	<path style="fill:none;stroke:red;stroke-width:1px;stroke-linecap:butt;stroke-linejoin:miter;stroke-opacity:1" d="M 566.014,21.8417 583.856,21.8417 z" id="boundary" inkscape:connector-curvature="0" />
	<path style="fill:none;stroke:red;stroke-width:1px;stroke-linecap:butt;stroke-linejoin:miter;stroke-opacity:1" d="M 601.698,21.8417 583.856,21.8417 z" id="boundary" inkscape:connector-curvature="0" />
	<path style="fill:none;stroke:red;stroke-width:1px;stroke-linecap:butt;stroke-linejoin:miter;stroke-opacity:1" d="M 619.54,21.8417 601.698,21.8417 z" id="boundary" inkscape:connector-curvature="0" />
	<path style="fill:none;stroke:red;stroke-width:1px;stroke-linecap:butt;stroke-linejoin:miter;stroke-opacity:1" d="M 637.381,25.4101 655.223,30.7626 z" id="boundary" inkscape:connector-curvature="0" />
	<path style="fill:none;stroke:red;stroke-width:1px;stroke-linecap:butt;stroke-linejoin:miter;stroke-opacity:1" d="M 637.381,25.4101 619.54,21.8417 z" id="boundary" inkscape:connector-curvature="0" />
	<path style="fill:none;stroke:red;stroke-width:1px;stroke-linecap:butt;stroke-linejoin:miter;stroke-opacity:1" d="M 673.065,30.7626 655.223,30.7626 z" id="boundary" inkscape:connector-curvature="0" />
	<path style="fill:none;stroke:red;stroke-width:1px;stroke-linecap:butt;stroke-linejoin:miter;stroke-opacity:1" d="M 673.065,30.7626 690.906,30.7626 z" id="boundary" inkscape:connector-curvature="0" />
	<path style="fill:none;stroke:red;stroke-width:1px;stroke-linecap:butt;stroke-linejoin:miter;stroke-opacity:1" d="M 690.906,30.7626 701.612,45.036 z" id="boundary" inkscape:connector-curvature="0" />
	<path style="fill:none;stroke:red;stroke-width:1px;stroke-linecap:butt;stroke-linejoin:miter;stroke-opacity:1" d="M 719.453,48.6043 701.612,45.036 z" id="boundary" inkscape:connector-curvature="0" />
	<path style="fill:none;stroke:red;stroke-width:1px;stroke-linecap:butt;stroke-linejoin:miter;stroke-opacity:1" d="M 737.295,48.6043 719.453,48.6043 z" id="boundary" inkscape:connector-curvature="0" />
	<path style="fill:none;stroke:red;stroke-width:1px;stroke-linecap:butt;stroke-linejoin:miter;stroke-opacity:1" d="M 771.194,57.5252 753.353,57.5252 z" id="boundary" inkscape:connector-curvature="0" />
	<path style="fill:none;stroke:red;stroke-width:1px;stroke-linecap:butt;stroke-linejoin:miter;stroke-opacity:1" d="M 753.353,57.5252 737.295,48.6043 z" id="boundary" inkscape:connector-curvature="0" />
	<path style="fill:none;stroke:red;stroke-width:1px;stroke-linecap:butt;stroke-linejoin:miter;stroke-opacity:1" d="M 771.194,57.5252 781.899,71.7986 z" id="boundary" inkscape:connector-curvature="0" />
	<path style="fill:none;stroke:red;stroke-width:1px;stroke-linecap:butt;stroke-linejoin:miter;stroke-opacity:1" d="M 799.741,75.3669 781.899,71.7986 z" id="boundary" inkscape:connector-curvature="0" />
	<path style="fill:none;stroke:red;stroke-width:1px;stroke-linecap:butt;stroke-linejoin:miter;stroke-opacity:1" d="M 817.583,75.3669 799.741,75.3669 z" id="boundary" inkscape:connector-curvature="0" />
	<path style="fill:none;stroke:red;stroke-width:1px;stroke-linecap:butt;stroke-linejoin:miter;stroke-opacity:1" d="M 833.64,84.2878 844.345,98.5612 z" id="boundary" inkscape:connector-curvature="0" />
	<path style="fill:none;stroke:red;stroke-width:1px;stroke-linecap:butt;stroke-linejoin:miter;stroke-opacity:1" d="M 860.403,107.482 844.345,98.5612 z" id="boundary" inkscape:connector-curvature="0" />
	<path style="fill:none;stroke:red;stroke-width:1px;stroke-linecap:butt;stroke-linejoin:miter;stroke-opacity:1" d="M 812.23,514.273 828.288,505.353 z" id="boundary" inkscape:connector-curvature="0" />
	<path style="fill:none;stroke:red;stroke-width:1px;stroke-linecap:butt;stroke-linejoin:miter;stroke-opacity:1" d="M 812.23,514.273 794.388,514.273 z" id="boundary" inkscape:connector-curvature="0" />
	<path style="fill:none;stroke:red;stroke-width:1px;stroke-linecap:butt;stroke-linejoin:miter;stroke-opacity:1" d="M 844.345,487.511 828.288,505.353 z" id="boundary" inkscape:connector-curvature="0" />
	<path style="fill:none;stroke:red;stroke-width:1px;stroke-linecap:butt;stroke-linejoin:miter;stroke-opacity:1" d="M 844.345,487.511 862.187,478.59 z" id="boundary" inkscape:connector-curvature="0" />
	<path style="fill:none;stroke:red;stroke-width:1px;stroke-linecap:butt;stroke-linejoin:miter;stroke-opacity:1" d="M 878.245,111.05 860.403,107.482 z" id="boundary" inkscape:connector-curvature="0" />
	<path style="fill:none;stroke:red;stroke-width:1px;stroke-linecap:butt;stroke-linejoin:miter;stroke-opacity:1" d="M 817.583,75.3669 833.64,84.2878 z" id="boundary" inkscape:connector-curvature="0" />
	<path style="fill:none;stroke:red;stroke-width:1px;stroke-linecap:butt;stroke-linejoin:miter;stroke-opacity:1" d="M 780.115,526.763 794.388,514.273 z" id="boundary" inkscape:connector-curvature="0" />
	<path style="fill:none;stroke:red;stroke-width:1px;stroke-linecap:butt;stroke-linejoin:miter;stroke-opacity:1" d="M 903.223,137.813 888.95,125.324 z" id="boundary" inkscape:connector-curvature="0" />
	<path style="fill:none;stroke:red;stroke-width:1px;stroke-linecap:butt;stroke-linejoin:miter;stroke-opacity:1" d="M 888.95,125.324 878.245,111.05 z" id="boundary" inkscape:connector-curvature="0" />
	<path style="fill:none;stroke:red;stroke-width:1px;stroke-linecap:butt;stroke-linejoin:miter;stroke-opacity:1" d="M 903.223,137.813 915.712,152.086 z" id="boundary" inkscape:connector-curvature="0" />
	<path style="fill:none;stroke:red;stroke-width:1px;stroke-linecap:butt;stroke-linejoin:miter;stroke-opacity:1" d="M 946.043,173.496 929.986,164.576 z" id="boundary" inkscape:connector-curvature="0" />
	<path style="fill:none;stroke:red;stroke-width:1px;stroke-linecap:butt;stroke-linejoin:miter;stroke-opacity:1" d="M 929.986,164.576 915.712,152.086 z" id="boundary" inkscape:connector-curvature="0" />
	<path style="fill:none;stroke:red;stroke-width:1px;stroke-linecap:butt;stroke-linejoin:miter;stroke-opacity:1" d="M 946.043,173.496 951.396,191.338 z" id="boundary" inkscape:connector-curvature="0" />
	<path style="fill:none;stroke:red;stroke-width:1px;stroke-linecap:butt;stroke-linejoin:miter;stroke-opacity:1" d="M 951.396,191.338 965.669,202.043 z" id="boundary" inkscape:connector-curvature="0" />
	<path style="fill:none;stroke:red;stroke-width:1px;stroke-linecap:butt;stroke-linejoin:miter;stroke-opacity:1" d="M 965.669,202.043 969.237,219.885 z" id="boundary" inkscape:connector-curvature="0" />
	<path style="fill:none;stroke:red;stroke-width:1px;stroke-linecap:butt;stroke-linejoin:miter;stroke-opacity:1" d="M 978.158,235.942 969.237,219.885 z" id="boundary" inkscape:connector-curvature="0" />
	<path style="fill:none;stroke:red;stroke-width:1px;stroke-linecap:butt;stroke-linejoin:miter;stroke-opacity:1" d="M 978.158,235.942 978.158,253.784 z" id="boundary" inkscape:connector-curvature="0" />
	<path style="fill:none;stroke:red;stroke-width:1px;stroke-linecap:butt;stroke-linejoin:miter;stroke-opacity:1" d="M 996,276.978 996,294.82 z" id="boundary" inkscape:connector-curvature="0" />
	<path style="fill:none;stroke:red;stroke-width:1px;stroke-linecap:butt;stroke-linejoin:miter;stroke-opacity:1" d="M 978.158,271.626 978.158,253.784 z" id="boundary" inkscape:connector-curvature="0" />
	<path style="fill:none;stroke:red;stroke-width:1px;stroke-linecap:butt;stroke-linejoin:miter;stroke-opacity:1" d="M 910.36,450.043 924.633,425.065 z" id="boundary" inkscape:connector-curvature="0" />
	<path style="fill:none;stroke:red;stroke-width:1px;stroke-linecap:butt;stroke-linejoin:miter;stroke-opacity:1" d="M 924.633,425.065 942.475,416.144 z" id="boundary" inkscape:connector-curvature="0" />
	<path style="fill:none;stroke:red;stroke-width:1px;stroke-linecap:butt;stroke-linejoin:miter;stroke-opacity:1" d="M 951.396,389.381 942.475,416.144 z" id="boundary" inkscape:connector-curvature="0" />
	<path style="fill:none;stroke:red;stroke-width:1px;stroke-linecap:butt;stroke-linejoin:miter;stroke-opacity:1" d="M 862.187,478.59 878.245,469.669 z" id="boundary" inkscape:connector-curvature="0" />
	<path style="fill:none;stroke:red;stroke-width:1px;stroke-linecap:butt;stroke-linejoin:miter;stroke-opacity:1" d="M 878.245,469.669 896.086,464.317 z" id="boundary" inkscape:connector-curvature="0" />
	<path style="fill:none;stroke:red;stroke-width:1px;stroke-linecap:butt;stroke-linejoin:miter;stroke-opacity:1" d="M 910.36,450.043 896.086,464.317 z" id="boundary" inkscape:connector-curvature="0" />
	<path style="fill:none;stroke:red;stroke-width:1px;stroke-linecap:butt;stroke-linejoin:miter;stroke-opacity:1" d="M 996,294.82 996,312.662 z" id="boundary" inkscape:connector-curvature="0" />
	<path style="fill:none;stroke:red;stroke-width:1px;stroke-linecap:butt;stroke-linejoin:miter;stroke-opacity:1" d="M 996,312.662 996,330.504 z" id="boundary" inkscape:connector-curvature="0" />
	<path style="fill:none;stroke:red;stroke-width:1px;stroke-linecap:butt;stroke-linejoin:miter;stroke-opacity:1" d="M 951.396,389.381 969.237,371.54 z" id="boundary" inkscape:connector-curvature="0" />
	<path style="fill:none;stroke:red;stroke-width:1px;stroke-linecap:butt;stroke-linejoin:miter;stroke-opacity:1" d="M 978.158,335.856 978.158,353.698 z" id="boundary" inkscape:connector-curvature="0" />
	<path style="fill:none;stroke:red;stroke-width:1px;stroke-linecap:butt;stroke-linejoin:miter;stroke-opacity:1" d="M 978.158,353.698 969.237,371.54 z" id="boundary" inkscape:connector-curvature="0" />
	<path style="fill:none;stroke:red;stroke-width:1px;stroke-linecap:butt;stroke-linejoin:miter;stroke-opacity:1" d="M 978.158,271.626 978.158,335.856 z" id="boundary" inkscape:connector-curvature="0" />
	<path style="fill:none;stroke:red;stroke-width:1px;stroke-linecap:butt;stroke-linejoin:miter;stroke-opacity:1" d="M 521.41,585.64 539.252,585.64 z" id="boundary" inkscape:connector-curvature="0" />
	<path style="fill:none;stroke:red;stroke-width:1px;stroke-linecap:butt;stroke-linejoin:miter;stroke-opacity:1" d="M 557.094,585.64 539.252,585.64 z" id="boundary" inkscape:connector-curvature="0" />
	<path style="fill:none;stroke:red;stroke-width:1px;stroke-linecap:butt;stroke-linejoin:miter;stroke-opacity:1" d="M 598.129,612.403 583.856,601.698 z" id="boundary" inkscape:connector-curvature="0" />
	<path style="fill:none;stroke:red;stroke-width:1px;stroke-linecap:butt;stroke-linejoin:miter;stroke-opacity:1" d="M 583.856,601.698 574.935,585.64 z" id="boundary" inkscape:connector-curvature="0" />
	<path style="fill:none;stroke:red;stroke-width:1px;stroke-linecap:butt;stroke-linejoin:miter;stroke-opacity:1" d="M 557.094,585.64 574.935,585.64 z" id="boundary" inkscape:connector-curvature="0" />
	<path style="fill:none;stroke:red;stroke-width:1px;stroke-linecap:butt;stroke-linejoin:miter;stroke-opacity:1" d="M 598.129,612.403 610.619,626.676 z" id="boundary" inkscape:connector-curvature="0" />
	<path style="fill:none;stroke:red;stroke-width:1px;stroke-linecap:butt;stroke-linejoin:miter;stroke-opacity:1" d="M 746.216,541.036 762.273,532.115 z" id="boundary" inkscape:connector-curvature="0" />
	<path style="fill:none;stroke:red;stroke-width:1px;stroke-linecap:butt;stroke-linejoin:miter;stroke-opacity:1" d="M 749.784,558.878 746.216,541.036 z" id="boundary" inkscape:connector-curvature="0" />
	<path style="fill:none;stroke:red;stroke-width:1px;stroke-linecap:butt;stroke-linejoin:miter;stroke-opacity:1" d="M 755.137,576.719 749.784,558.878 z" id="boundary" inkscape:connector-curvature="0" />
	<path style="fill:none;stroke:red;stroke-width:1px;stroke-linecap:butt;stroke-linejoin:miter;stroke-opacity:1" d="M 624.892,639.165 610.619,626.676 z" id="boundary" inkscape:connector-curvature="0" />
	<path style="fill:none;stroke:red;stroke-width:1px;stroke-linecap:butt;stroke-linejoin:miter;stroke-opacity:1" d="M 755.137,576.719 764.058,592.777 z" id="boundary" inkscape:connector-curvature="0" />
	<path style="fill:none;stroke:red;stroke-width:1px;stroke-linecap:butt;stroke-linejoin:miter;stroke-opacity:1" d="M 764.058,592.777 772.978,608.835 z" id="boundary" inkscape:connector-curvature="0" />
	<path style="fill:none;stroke:red;stroke-width:1px;stroke-linecap:butt;stroke-linejoin:miter;stroke-opacity:1" d="M 772.978,608.835 772.978,626.676 z" id="boundary" inkscape:connector-curvature="0" />
	<path style="fill:none;stroke:red;stroke-width:1px;stroke-linecap:butt;stroke-linejoin:miter;stroke-opacity:1" d="M 762.273,532.115 780.115,526.763 z" id="boundary" inkscape:connector-curvature="0" />
	<path style="fill:none;stroke:red;stroke-width:1px;stroke-linecap:butt;stroke-linejoin:miter;stroke-opacity:1" d="M 624.892,639.165 637.381,653.439 z" id="boundary" inkscape:connector-curvature="0" />
	<path style="fill:none;stroke:red;stroke-width:1px;stroke-linecap:butt;stroke-linejoin:miter;stroke-opacity:1" d="M 637.381,653.439 639.165,671.281 z" id="boundary" inkscape:connector-curvature="0" />
	<path style="fill:none;stroke:red;stroke-width:1px;stroke-linecap:butt;stroke-linejoin:miter;stroke-opacity:1" d="M 657.007,678.417 639.165,671.281 z" id="boundary" inkscape:connector-curvature="0" />
	<path style="fill:none;stroke:red;stroke-width:1px;stroke-linecap:butt;stroke-linejoin:miter;stroke-opacity:1" d="M 678.417,708.748 664.144,696.259 z" id="boundary" inkscape:connector-curvature="0" />
	<path style="fill:none;stroke:red;stroke-width:1px;stroke-linecap:butt;stroke-linejoin:miter;stroke-opacity:1" d="M 664.144,696.259 657.007,678.417 z" id="boundary" inkscape:connector-curvature="0" />
	<path style="fill:none;stroke:red;stroke-width:1px;stroke-linecap:butt;stroke-linejoin:miter;stroke-opacity:1" d="M 678.417,708.748 690.906,723.022 z" id="boundary" inkscape:connector-curvature="0" />
	<path style="fill:none;stroke:red;stroke-width:1px;stroke-linecap:butt;stroke-linejoin:miter;stroke-opacity:1" d="M 705.18,735.511 690.906,723.022 z" id="boundary" inkscape:connector-curvature="0" />
	<path style="fill:none;stroke:red;stroke-width:1px;stroke-linecap:butt;stroke-linejoin:miter;stroke-opacity:1" d="M 717.669,749.784 705.18,735.511 z" id="boundary" inkscape:connector-curvature="0" />
	<path style="fill:none;stroke:red;stroke-width:1px;stroke-linecap:butt;stroke-linejoin:miter;stroke-opacity:1" d="M 717.669,749.784 731.942,762.273 z" id="boundary" inkscape:connector-curvature="0" />
	<path style="fill:none;stroke:red;stroke-width:1px;stroke-linecap:butt;stroke-linejoin:miter;stroke-opacity:1" d="M 731.942,762.273 744.432,776.547 z" id="boundary" inkscape:connector-curvature="0" />
	<path style="fill:none;stroke:red;stroke-width:1px;stroke-linecap:butt;stroke-linejoin:miter;stroke-opacity:1" d="M 758.705,789.036 744.432,776.547 z" id="boundary" inkscape:connector-curvature="0" />
	<path style="fill:none;stroke:red;stroke-width:1px;stroke-linecap:butt;stroke-linejoin:miter;stroke-opacity:1" d="M 772.978,626.676 781.899,642.734 z" id="boundary" inkscape:connector-curvature="0" />
	<path style="fill:none;stroke:red;stroke-width:1px;stroke-linecap:butt;stroke-linejoin:miter;stroke-opacity:1" d="M 794.388,657.007 781.899,642.734 z" id="boundary" inkscape:connector-curvature="0" />
	<path style="fill:none;stroke:red;stroke-width:1px;stroke-linecap:butt;stroke-linejoin:miter;stroke-opacity:1" d="M 794.388,657.007 799.741,674.849 z" id="boundary" inkscape:connector-curvature="0" />
	<path style="fill:none;stroke:red;stroke-width:1px;stroke-linecap:butt;stroke-linejoin:miter;stroke-opacity:1" d="M 799.741,674.849 799.741,692.691 z" id="boundary" inkscape:connector-curvature="0" />
	<path style="fill:none;stroke:red;stroke-width:1px;stroke-linecap:butt;stroke-linejoin:miter;stroke-opacity:1" d="M 808.662,708.748 799.741,692.691 z" id="boundary" inkscape:connector-curvature="0" />
	<path style="fill:none;stroke:red;stroke-width:1px;stroke-linecap:butt;stroke-linejoin:miter;stroke-opacity:1" d="M 774.763,797.957 758.705,789.036 z" id="boundary" inkscape:connector-curvature="0" />
	<path style="fill:none;stroke:red;stroke-width:1px;stroke-linecap:butt;stroke-linejoin:miter;stroke-opacity:1" d="M 822.935,737.295 808.662,726.59 z" id="boundary" inkscape:connector-curvature="0" />
	<path style="fill:none;stroke:red;stroke-width:1px;stroke-linecap:butt;stroke-linejoin:miter;stroke-opacity:1" d="M 808.662,726.59 808.662,708.748 z" id="boundary" inkscape:connector-curvature="0" />
	<path style="fill:none;stroke:red;stroke-width:1px;stroke-linecap:butt;stroke-linejoin:miter;stroke-opacity:1" d="M 822.935,737.295 826.504,755.137 z" id="boundary" inkscape:connector-curvature="0" />
	<path style="fill:none;stroke:red;stroke-width:1px;stroke-linecap:butt;stroke-linejoin:miter;stroke-opacity:1" d="M 826.504,755.137 826.504,772.978 z" id="boundary" inkscape:connector-curvature="0" />
	<path style="fill:none;stroke:red;stroke-width:1px;stroke-linecap:butt;stroke-linejoin:miter;stroke-opacity:1" d="M 835.424,789.036 826.504,772.978 z" id="boundary" inkscape:connector-curvature="0" />
	<path style="fill:none;stroke:red;stroke-width:1px;stroke-linecap:butt;stroke-linejoin:miter;stroke-opacity:1" d="M 835.424,806.878 835.424,789.036 z" id="boundary" inkscape:connector-curvature="0" />
	<path style="fill:none;stroke:red;stroke-width:1px;stroke-linecap:butt;stroke-linejoin:miter;stroke-opacity:1" d="M 844.345,822.935 835.424,806.878 z" id="boundary" inkscape:connector-curvature="0" />
	<path style="fill:none;stroke:red;stroke-width:1px;stroke-linecap:butt;stroke-linejoin:miter;stroke-opacity:1" d="M 780.115,815.799 794.388,826.504 z" id="boundary" inkscape:connector-curvature="0" />
	<path style="fill:none;stroke:red;stroke-width:1px;stroke-linecap:butt;stroke-linejoin:miter;stroke-opacity:1" d="M 794.388,826.504 803.309,842.561 z" id="boundary" inkscape:connector-curvature="0" />
	<path style="fill:none;stroke:red;stroke-width:1px;stroke-linecap:butt;stroke-linejoin:miter;stroke-opacity:1" d="M 780.115,815.799 774.763,797.957 z" id="boundary" inkscape:connector-curvature="0" />
	<path style="fill:none;stroke:red;stroke-width:1px;stroke-linecap:butt;stroke-linejoin:miter;stroke-opacity:1" d="M 817.583,853.266 803.309,842.561 z" id="boundary" inkscape:connector-curvature="0" />
	<path style="fill:none;stroke:red;stroke-width:1px;stroke-linecap:butt;stroke-linejoin:miter;stroke-opacity:1" d="M 842.561,880.029 828.288,867.54 z" id="boundary" inkscape:connector-curvature="0" />
	<path style="fill:none;stroke:red;stroke-width:1px;stroke-linecap:butt;stroke-linejoin:miter;stroke-opacity:1" d="M 828.288,867.54 817.583,853.266 z" id="boundary" inkscape:connector-curvature="0" />
	<path style="fill:none;stroke:red;stroke-width:1px;stroke-linecap:butt;stroke-linejoin:miter;stroke-opacity:1" d="M 842.561,880.029 847.914,897.871 z" id="boundary" inkscape:connector-curvature="0" />
	<path style="fill:none;stroke:red;stroke-width:1px;stroke-linecap:butt;stroke-linejoin:miter;stroke-opacity:1" d="M 844.345,840.777 844.345,822.935 z" id="boundary" inkscape:connector-curvature="0" />
	<path style="fill:none;stroke:red;stroke-width:1px;stroke-linecap:butt;stroke-linejoin:miter;stroke-opacity:1" d="M 862.187,847.914 862.187,865.755 z" id="boundary" inkscape:connector-curvature="0" />
	<path style="fill:none;stroke:red;stroke-width:1px;stroke-linecap:butt;stroke-linejoin:miter;stroke-opacity:1" d="M 862.187,865.755 869.324,883.597 z" id="boundary" inkscape:connector-curvature="0" />
	<path style="fill:none;stroke:red;stroke-width:1px;stroke-linecap:butt;stroke-linejoin:miter;stroke-opacity:1" d="M 865.755,905.007 869.324,883.597 z" id="boundary" inkscape:connector-curvature="0" />
	<path style="fill:none;stroke:red;stroke-width:1px;stroke-linecap:butt;stroke-linejoin:miter;stroke-opacity:1" d="M 865.755,905.007 847.914,897.871 z" id="boundary" inkscape:connector-curvature="0" />
	<path style="fill:none;stroke:red;stroke-width:1px;stroke-linecap:butt;stroke-linejoin:miter;stroke-opacity:1" d="M 498.216,4 516.058,4 z" id="boundary" inkscape:connector-curvature="0" />
	<circle cx="4" cy="276.978" r="4" fill="#0" id="circle0"/>
	<circle cx="4" cy="294.82" r="4" fill="#0" id="circle1"/>
	<circle cx="4" cy="312.662" r="4" fill="#0" id="circle2"/>
	<circle cx="12.9209" cy="232.374" r="4" fill="#0" id="circle3"/>
	<circle cx="12.9209" cy="250.216" r="4" fill="#0" id="circle4"/>
	<circle cx="12.9209" cy="328.719" r="4" fill="#0" id="circle5"/>
	<circle cx="12.9209" cy="346.561" r="4" fill="#0" id="circle6"/>
	<circle cx="21.8417" cy="362.619" r="4" fill="#0" id="circle7"/>
	<circle cx="30.7626" cy="205.612" r="4" fill="#0" id="circle8"/>
	<circle cx="30.7626" cy="223.453" r="4" fill="#0" id="circle9"/>
	<circle cx="30.7626" cy="378.676" r="4" fill="#0" id="circle10"/>
	<circle cx="39.6835" cy="178.849" r="4" fill="#0" id="circle11"/>
	<circle cx="39.6835" cy="394.734" r="4" fill="#0" id="circle12"/>
	<circle cx="41.4676" cy="412.576" r="4" fill="#0" id="circle13"/>
	<circle cx="53.9568" cy="164.576" r="4" fill="#0" id="circle14"/>
	<circle cx="55.741" cy="425.065" r="4" fill="#0" id="circle15"/>
	<circle cx="68.2302" cy="439.338" r="4" fill="#0" id="circle16"/>
	<circle cx="71.7986" cy="155.655" r="4" fill="#0" id="circle17"/>
	<circle cx="80.7194" cy="137.813" r="4" fill="#0" id="circle18"/>
	<circle cx="82.5036" cy="451.827" r="4" fill="#0" id="circle19"/>
	<circle cx="98.5612" cy="128.892" r="4" fill="#0" id="circle20"/>
	<circle cx="98.5612" cy="460.748" r="4" fill="#0" id="circle21"/>
	<circle cx="107.482" cy="111.05" r="4" fill="#0" id="circle22"/>
	<circle cx="114.619" cy="469.669" r="4" fill="#0" id="circle23"/>
	<circle cx="125.324" cy="111.05" r="4" fill="#0" id="circle24"/>
	<circle cx="132.46" cy="469.669" r="4" fill="#0" id="circle25"/>
	<circle cx="141.381" cy="102.129" r="4" fill="#0" id="circle26"/>
	<circle cx="146.734" cy="883.597" r="4" fill="#0" id="circle27"/>
	<circle cx="146.734" cy="901.439" r="4" fill="#0" id="circle28"/>
	<circle cx="150.302" cy="86.0719" r="4" fill="#0" id="circle29"/>
	<circle cx="150.302" cy="475.022" r="4" fill="#0" id="circle30"/>
	<circle cx="155.655" cy="847.914" r="4" fill="#0" id="circle31"/>
	<circle cx="155.655" cy="865.755" r="4" fill="#0" id="circle32"/>
	<circle cx="164.576" cy="487.511" r="4" fill="#0" id="circle33"/>
	<circle cx="164.576" cy="897.871" r="4" fill="#0" id="circle34"/>
	<circle cx="168.144" cy="84.2878" r="4" fill="#0" id="circle35"/>
	<circle cx="173.496" cy="821.151" r="4" fill="#0" id="circle36"/>
	<circle cx="173.496" cy="838.993" r="4" fill="#0" id="circle37"/>
	<circle cx="175.281" cy="501.784" r="4" fill="#0" id="circle38"/>
	<circle cx="175.281" cy="880.029" r="4" fill="#0" id="circle39"/>
	<circle cx="182.417" cy="785.468" r="4" fill="#0" id="circle40"/>
	<circle cx="182.417" cy="803.309" r="4" fill="#0" id="circle41"/>
	<circle cx="184.201" cy="75.3669" r="4" fill="#0" id="circle42"/>
	<circle cx="189.554" cy="867.54" r="4" fill="#0" id="circle43"/>
	<circle cx="191.338" cy="740.863" r="4" fill="#0" id="circle44"/>
	<circle cx="191.338" cy="758.705" r="4" fill="#0" id="circle45"/>
	<circle cx="193.122" cy="508.921" r="4" fill="#0" id="circle46"/>
	<circle cx="200.259" cy="853.266" r="4" fill="#0" id="circle47"/>
	<circle cx="202.043" cy="75.3669" r="4" fill="#0" id="circle48"/>
	<circle cx="209.18" cy="705.18" r="4" fill="#0" id="circle49"/>
	<circle cx="209.18" cy="723.022" r="4" fill="#0" id="circle50"/>
	<circle cx="210.964" cy="514.273" r="4" fill="#0" id="circle51"/>
	<circle cx="212.748" cy="59.3094" r="4" fill="#0" id="circle52"/>
	<circle cx="214.532" cy="842.561" r="4" fill="#0" id="circle53"/>
	<circle cx="218.101" cy="660.576" r="4" fill="#0" id="circle54"/>
	<circle cx="218.101" cy="678.417" r="4" fill="#0" id="circle55"/>
	<circle cx="223.453" cy="824.719" r="4" fill="#0" id="circle56"/>
	<circle cx="227.022" cy="523.194" r="4" fill="#0" id="circle57"/>
	<circle cx="227.022" cy="642.734" r="4" fill="#0" id="circle58"/>
	<circle cx="228.806" cy="799.741" r="4" fill="#0" id="circle59"/>
	<circle cx="230.59" cy="57.5252" r="4" fill="#0" id="circle60"/>
	<circle cx="235.942" cy="598.129" r="4" fill="#0" id="circle61"/>
	<circle cx="235.942" cy="615.971" r="4" fill="#0" id="circle62"/>
	<circle cx="243.079" cy="532.115" r="4" fill="#0" id="circle63"/>
	<circle cx="244.863" cy="790.82" r="4" fill="#0" id="circle64"/>
	<circle cx="248.432" cy="50.3885" r="4" fill="#0" id="circle65"/>
	<circle cx="253.784" cy="562.446" r="4" fill="#0" id="circle66"/>
	<circle cx="253.784" cy="580.288" r="4" fill="#0" id="circle67"/>
	<circle cx="259.137" cy="541.036" r="4" fill="#0" id="circle68"/>
	<circle cx="259.137" cy="780.115" r="4" fill="#0" id="circle69"/>
	<circle cx="266.273" cy="48.6043" r="4" fill="#0" id="circle70"/>
	<circle cx="268.058" cy="764.058" r="4" fill="#0" id="circle71"/>
	<circle cx="284.115" cy="48.6043" r="4" fill="#0" id="circle72"/>
	<circle cx="284.115" cy="755.137" r="4" fill="#0" id="circle73"/>
	<circle cx="291.252" cy="737.295" r="4" fill="#0" id="circle74"/>
	<circle cx="293.036" cy="32.5468" r="4" fill="#0" id="circle75"/>
	<circle cx="309.094" cy="728.374" r="4" fill="#0" id="circle76"/>
	<circle cx="310.878" cy="30.7626" r="4" fill="#0" id="circle77"/>
	<circle cx="318.014" cy="710.532" r="4" fill="#0" id="circle78"/>
	<circle cx="328.719" cy="30.7626" r="4" fill="#0" id="circle79"/>
	<circle cx="335.856" cy="701.612" r="4" fill="#0" id="circle80"/>
	<circle cx="344.777" cy="683.77" r="4" fill="#0" id="circle81"/>
	<circle cx="346.561" cy="30.7626" r="4" fill="#0" id="circle82"/>
	<circle cx="360.835" cy="674.849" r="4" fill="#0" id="circle83"/>
	<circle cx="362.619" cy="21.8417" r="4" fill="#0" id="circle84"/>
	<circle cx="371.54" cy="639.165" r="4" fill="#0" id="circle85"/>
	<circle cx="371.54" cy="657.007" r="4" fill="#0" id="circle86"/>
	<circle cx="380.46" cy="21.8417" r="4" fill="#0" id="circle87"/>
	<circle cx="389.381" cy="621.324" r="4" fill="#0" id="circle88"/>
	<circle cx="398.302" cy="21.8417" r="4" fill="#0" id="circle89"/>
	<circle cx="405.439" cy="612.403" r="4" fill="#0" id="circle90"/>
	<circle cx="416.144" cy="21.8417" r="4" fill="#0" id="circle91"/>
	<circle cx="416.144" cy="594.561" r="4" fill="#0" id="circle92"/>
	<circle cx="432.201" cy="585.64" r="4" fill="#0" id="circle93"/>
	<circle cx="433.986" cy="21.8417" r="4" fill="#0" id="circle94"/>
	<circle cx="444.691" cy="5.78417" r="4" fill="#0" id="circle95"/>
	<circle cx="450.043" cy="585.64" r="4" fill="#0" id="circle96"/>
	<circle cx="462.532" cy="4" r="4" fill="#0" id="circle97"/>
	<circle cx="467.885" cy="585.64" r="4" fill="#0" id="circle98"/>
	<circle cx="480.374" cy="4" r="4" fill="#0" id="circle99"/>
	<circle cx="485.727" cy="585.64" r="4" fill="#0" id="circle100"/>
	<circle cx="498.216" cy="4" r="4" fill="#0" id="circle101"/>
	<circle cx="503.568" cy="585.64" r="4" fill="#0" id="circle102"/>
	<circle cx="516.058" cy="4" r="4" fill="#0" id="circle103"/>
	<circle cx="521.41" cy="585.64" r="4" fill="#0" id="circle104"/>
	<circle cx="532.115" cy="12.9209" r="4" fill="#0" id="circle105"/>
	<circle cx="539.252" cy="585.64" r="4" fill="#0" id="circle106"/>
	<circle cx="548.173" cy="21.8417" r="4" fill="#0" id="circle107"/>
	<circle cx="557.094" cy="585.64" r="4" fill="#0" id="circle108"/>
	<circle cx="566.014" cy="21.8417" r="4" fill="#0" id="circle109"/>
	<circle cx="574.935" cy="585.64" r="4" fill="#0" id="circle110"/>
	<circle cx="583.856" cy="21.8417" r="4" fill="#0" id="circle111"/>
	<circle cx="583.856" cy="601.698" r="4" fill="#0" id="circle112"/>
	<circle cx="598.129" cy="612.403" r="4" fill="#0" id="circle113"/>
	<circle cx="601.698" cy="21.8417" r="4" fill="#0" id="circle114"/>
	<circle cx="610.619" cy="626.676" r="4" fill="#0" id="circle115"/>
	<circle cx="619.54" cy="21.8417" r="4" fill="#0" id="circle116"/>
	<circle cx="624.892" cy="639.165" r="4" fill="#0" id="circle117"/>
	<circle cx="637.381" cy="25.4101" r="4" fill="#0" id="circle118"/>
	<circle cx="637.381" cy="653.439" r="4" fill="#0" id="circle119"/>
	<circle cx="639.165" cy="671.281" r="4" fill="#0" id="circle120"/>
	<circle cx="655.223" cy="30.7626" r="4" fill="#0" id="circle121"/>
	<circle cx="657.007" cy="678.417" r="4" fill="#0" id="circle122"/>
	<circle cx="664.144" cy="696.259" r="4" fill="#0" id="circle123"/>
	<circle cx="673.065" cy="30.7626" r="4" fill="#0" id="circle124"/>
	<circle cx="678.417" cy="708.748" r="4" fill="#0" id="circle125"/>
	<circle cx="690.906" cy="30.7626" r="4" fill="#0" id="circle126"/>
	<circle cx="690.906" cy="723.022" r="4" fill="#0" id="circle127"/>
	<circle cx="701.612" cy="45.036" r="4" fill="#0" id="circle128"/>
	<circle cx="705.18" cy="735.511" r="4" fill="#0" id="circle129"/>
	<circle cx="717.669" cy="749.784" r="4" fill="#0" id="circle130"/>
	<circle cx="719.453" cy="48.6043" r="4" fill="#0" id="circle131"/>
	<circle cx="731.942" cy="762.273" r="4" fill="#0" id="circle132"/>
	<circle cx="737.295" cy="48.6043" r="4" fill="#0" id="circle133"/>
	<circle cx="744.432" cy="776.547" r="4" fill="#0" id="circle134"/>
	<circle cx="746.216" cy="541.036" r="4" fill="#0" id="circle135"/>
	<circle cx="749.784" cy="558.878" r="4" fill="#0" id="circle136"/>
	<circle cx="753.353" cy="57.5252" r="4" fill="#0" id="circle137"/>
	<circle cx="755.137" cy="576.719" r="4" fill="#0" id="circle138"/>
	<circle cx="758.705" cy="789.036" r="4" fill="#0" id="circle139"/>
	<circle cx="762.273" cy="532.115" r="4" fill="#0" id="circle140"/>
	<circle cx="764.058" cy="592.777" r="4" fill="#0" id="circle141"/>
	<circle cx="771.194" cy="57.5252" r="4" fill="#0" id="circle142"/>
	<circle cx="772.978" cy="608.835" r="4" fill="#0" id="circle143"/>
	<circle cx="772.978" cy="626.676" r="4" fill="#0" id="circle144"/>
	<circle cx="774.763" cy="797.957" r="4" fill="#0" id="circle145"/>
	<circle cx="780.115" cy="526.763" r="4" fill="#0" id="circle146"/>
	<circle cx="780.115" cy="815.799" r="4" fill="#0" id="circle147"/>
	<circle cx="781.899" cy="71.7986" r="4" fill="#0" id="circle148"/>
	<circle cx="781.899" cy="642.734" r="4" fill="#0" id="circle149"/>
	<circle cx="794.388" cy="514.273" r="4" fill="#0" id="circle150"/>
	<circle cx="794.388" cy="657.007" r="4" fill="#0" id="circle151"/>
	<circle cx="794.388" cy="826.504" r="4" fill="#0" id="circle152"/>
	<circle cx="799.741" cy="75.3669" r="4" fill="#0" id="circle153"/>
	<circle cx="799.741" cy="674.849" r="4" fill="#0" id="circle154"/>
	<circle cx="799.741" cy="692.691" r="4" fill="#0" id="circle155"/>
	<circle cx="803.309" cy="842.561" r="4" fill="#0" id="circle156"/>
	<circle cx="808.662" cy="708.748" r="4" fill="#0" id="circle157"/>
	<circle cx="808.662" cy="726.59" r="4" fill="#0" id="circle158"/>
	<circle cx="812.23" cy="514.273" r="4" fill="#0" id="circle159"/>
	<circle cx="817.583" cy="75.3669" r="4" fill="#0" id="circle160"/>
	<circle cx="817.583" cy="853.266" r="4" fill="#0" id="circle161"/>
	<circle cx="822.935" cy="737.295" r="4" fill="#0" id="circle162"/>
	<circle cx="826.504" cy="755.137" r="4" fill="#0" id="circle163"/>
	<circle cx="826.504" cy="772.978" r="4" fill="#0" id="circle164"/>
	<circle cx="828.288" cy="505.353" r="4" fill="#0" id="circle165"/>
	<circle cx="828.288" cy="867.54" r="4" fill="#0" id="circle166"/>
	<circle cx="833.64" cy="84.2878" r="4" fill="#0" id="circle167"/>
	<circle cx="835.424" cy="789.036" r="4" fill="#0" id="circle168"/>
	<circle cx="835.424" cy="806.878" r="4" fill="#0" id="circle169"/>
	<circle cx="842.561" cy="880.029" r="4" fill="#0" id="circle170"/>
	<circle cx="844.345" cy="98.5612" r="4" fill="#0" id="circle171"/>
	<circle cx="844.345" cy="487.511" r="4" fill="#0" id="circle172"/>
	<circle cx="844.345" cy="822.935" r="4" fill="#0" id="circle173"/>
	<circle cx="844.345" cy="840.777" r="4" fill="#0" id="circle174"/>
	<circle cx="847.914" cy="897.871" r="4" fill="#0" id="circle175"/>
	<circle cx="860.403" cy="107.482" r="4" fill="#0" id="circle176"/>
	<circle cx="862.187" cy="478.59" r="4" fill="#0" id="circle177"/>
	<circle cx="862.187" cy="847.914" r="4" fill="#0" id="circle178"/>
	<circle cx="862.187" cy="865.755" r="4" fill="#0" id="circle179"/>
	<circle cx="865.755" cy="905.007" r="4" fill="#0" id="circle180"/>
	<circle cx="869.324" cy="883.597" r="4" fill="#0" id="circle181"/>
	<circle cx="878.245" cy="111.05" r="4" fill="#0" id="circle182"/>
	<circle cx="878.245" cy="469.669" r="4" fill="#0" id="circle183"/>
	<circle cx="888.95" cy="125.324" r="4" fill="#0" id="circle184"/>
	<circle cx="896.086" cy="464.317" r="4" fill="#0" id="circle185"/>
	<circle cx="903.223" cy="137.813" r="4" fill="#0" id="circle186"/>
	<circle cx="910.36" cy="450.043" r="4" fill="#0" id="circle187"/>
	<circle cx="915.712" cy="152.086" r="4" fill="#0" id="circle188"/>
	<circle cx="924.633" cy="425.065" r="4" fill="#0" id="circle189"/>
	<circle cx="929.986" cy="164.576" r="4" fill="#0" id="circle190"/>
	<circle cx="942.475" cy="416.144" r="4" fill="#0" id="circle191"/>
	<circle cx="946.043" cy="173.496" r="4" fill="#0" id="circle192"/>
	<circle cx="951.396" cy="191.338" r="4" fill="#0" id="circle193"/>
	<circle cx="951.396" cy="389.381" r="4" fill="#0" id="circle194"/>
	<circle cx="965.669" cy="202.043" r="4" fill="#0" id="circle195"/>
	<circle cx="969.237" cy="219.885" r="4" fill="#0" id="circle196"/>
	<circle cx="969.237" cy="371.54" r="4" fill="#0" id="circle197"/>
	<circle cx="978.158" cy="235.942" r="4" fill="#0" id="circle198"/>
	<circle cx="978.158" cy="253.784" r="4" fill="#0" id="circle199"/>
	<circle cx="978.158" cy="271.626" r="4" fill="#0" id="circle200"/>
	<circle cx="978.158" cy="335.856" r="4" fill="#0" id="circle201"/>
	<circle cx="978.158" cy="353.698" r="4" fill="#0" id="circle202"/>
	<circle cx="996" cy="276.978" r="4" fill="#0" id="circle203"/>
	<circle cx="996" cy="294.82" r="4" fill="#0" id="circle204"/>
	<circle cx="996" cy="312.662" r="4" fill="#0" id="circle205"/>
	<circle cx="996" cy="330.504" r="4" fill="#0" id="circle206"/>
	</g>
</svg>