<?xml version="1.0" encoding="UTF-8" standalone="no"?>
<!-- Created with CurveBenchmark -->
<svg
	xmlns:dc="http://purl.org/dc/elements/1.1/"
	xmlns:cc="http://creativecommons.org/ns#"
	xmlns:rdf="http://www.w3.org/1999/02/22-rdf-syntax-ns#"
	xmlns:svg="http://www.w3.org/2000/svg"
	xmlns="http://www.w3.org/2000/svg"
	xmlns:sodipodi="http://sodipodi.sourceforge.net/DTD/sodipodi-0.dtd"
	xmlns:inkscape="http://www.inkscape.org/namespaces/inkscape"
	width="1000"
	height="1000"
	id="svg2"
	version="1.1"
	sodipodi:docname="manifold/gathan1-fountain-05.png.txt">
<defs
	id="defs4" />
<metadata
	id="metadata7">
	<rdf:RDF>
		<cc:Work
			rdf:about="">
			<dc:format>image/svg+xml</dc:format>
			<dc:type
				rdf:resource="http://purl.org/dc/dcmitype/StillImage" />
			<dc:title></dc:title>
		</cc:Work>
	</rdf:RDF>
</metadata>
<g
	inkscape:label="Layer 1"
	inkscape:groupmode="layer"
	id="layer1">
	<path style="fill:none;stroke:red;stroke-width:1px;stroke-linecap:butt;stroke-linejoin:miter;stroke-opacity:1" d="M 356.904,151.93 361.739,160.632 z" id="boundary" inkscape:connector-curvature="0" />
	<path style="fill:none;stroke:red;stroke-width:1px;stroke-linecap:butt;stroke-linejoin:miter;stroke-opacity:1" d="M 356.904,151.93 364.639,144.195 z" id="boundary" inkscape:connector-curvature="0" />
	<path style="fill:none;stroke:red;stroke-width:1px;stroke-linecap:butt;stroke-linejoin:miter;stroke-opacity:1" d="M 364.639,144.195 374.308,139.361 z" id="boundary" inkscape:connector-curvature="0" />
	<path style="fill:none;stroke:red;stroke-width:1px;stroke-linecap:butt;stroke-linejoin:miter;stroke-opacity:1" d="M 381.076,164.499 371.407,164.499 z" id="boundary" inkscape:connector-curvature="0" />
	<path style="fill:none;stroke:red;stroke-width:1px;stroke-linecap:butt;stroke-linejoin:miter;stroke-opacity:1" d="M 371.407,164.499 361.739,160.632 z" id="boundary" inkscape:connector-curvature="0" />
	<path style="fill:none;stroke:red;stroke-width:1px;stroke-linecap:butt;stroke-linejoin:miter;stroke-opacity:1" d="M 352.07,347.236 342.402,347.236 z" id="boundary" inkscape:connector-curvature="0" />
	<path style="fill:none;stroke:red;stroke-width:1px;stroke-linecap:butt;stroke-linejoin:miter;stroke-opacity:1" d="M 360.772,342.402 352.07,347.236 z" id="boundary" inkscape:connector-curvature="0" />
	<path style="fill:none;stroke:red;stroke-width:1px;stroke-linecap:butt;stroke-linejoin:miter;stroke-opacity:1" d="M 380.109,342.402 370.441,342.402 z" id="boundary" inkscape:connector-curvature="0" />
	<path style="fill:none;stroke:red;stroke-width:1px;stroke-linecap:butt;stroke-linejoin:miter;stroke-opacity:1" d="M 370.441,342.402 360.772,342.402 z" id="boundary" inkscape:connector-curvature="0" />
	<path style="fill:none;stroke:red;stroke-width:1px;stroke-linecap:butt;stroke-linejoin:miter;stroke-opacity:1" d="M 389.778,342.402 380.109,342.402 z" id="boundary" inkscape:connector-curvature="0" />
	<path style="fill:none;stroke:red;stroke-width:1px;stroke-linecap:butt;stroke-linejoin:miter;stroke-opacity:1" d="M 374.308,139.361 383.977,139.361 z" id="boundary" inkscape:connector-curvature="0" />
	<path style="fill:none;stroke:red;stroke-width:1px;stroke-linecap:butt;stroke-linejoin:miter;stroke-opacity:1" d="M 383.977,139.361 393.645,134.526 z" id="boundary" inkscape:connector-curvature="0" />
	<path style="fill:none;stroke:red;stroke-width:1px;stroke-linecap:butt;stroke-linejoin:miter;stroke-opacity:1" d="M 400.413,164.499 390.745,164.499 z" id="boundary" inkscape:connector-curvature="0" />
	<path style="fill:none;stroke:red;stroke-width:1px;stroke-linecap:butt;stroke-linejoin:miter;stroke-opacity:1" d="M 403.314,134.526 393.645,134.526 z" id="boundary" inkscape:connector-curvature="0" />
	<path style="fill:none;stroke:red;stroke-width:1px;stroke-linecap:butt;stroke-linejoin:miter;stroke-opacity:1" d="M 412.982,134.526 403.314,134.526 z" id="boundary" inkscape:connector-curvature="0" />
	<path style="fill:none;stroke:red;stroke-width:1px;stroke-linecap:butt;stroke-linejoin:miter;stroke-opacity:1" d="M 421.684,129.692 412.982,134.526 z" id="boundary" inkscape:connector-curvature="0" />
	<path style="fill:none;stroke:red;stroke-width:1px;stroke-linecap:butt;stroke-linejoin:miter;stroke-opacity:1" d="M 399.446,342.402 389.778,342.402 z" id="boundary" inkscape:connector-curvature="0" />
	<path style="fill:none;stroke:red;stroke-width:1px;stroke-linecap:butt;stroke-linejoin:miter;stroke-opacity:1" d="M 410.082,164.499 400.413,164.499 z" id="boundary" inkscape:connector-curvature="0" />
	<path style="fill:none;stroke:red;stroke-width:1px;stroke-linecap:butt;stroke-linejoin:miter;stroke-opacity:1" d="M 409.115,342.402 399.446,342.402 z" id="boundary" inkscape:connector-curvature="0" />
	<path style="fill:none;stroke:red;stroke-width:1px;stroke-linecap:butt;stroke-linejoin:miter;stroke-opacity:1" d="M 381.076,164.499 390.745,164.499 z" id="boundary" inkscape:connector-curvature="0" />
	<path style="fill:none;stroke:red;stroke-width:1px;stroke-linecap:butt;stroke-linejoin:miter;stroke-opacity:1" d="M 419.75,164.499 410.082,164.499 z" id="boundary" inkscape:connector-curvature="0" />
	<path style="fill:none;stroke:red;stroke-width:1px;stroke-linecap:butt;stroke-linejoin:miter;stroke-opacity:1" d="M 212.842,402.347 220.577,395.579 z" id="boundary" inkscape:connector-curvature="0" />
	<path style="fill:none;stroke:red;stroke-width:1px;stroke-linecap:butt;stroke-linejoin:miter;stroke-opacity:1" d="M 220.577,395.579 229.279,390.745 z" id="boundary" inkscape:connector-curvature="0" />
	<path style="fill:none;stroke:red;stroke-width:1px;stroke-linecap:butt;stroke-linejoin:miter;stroke-opacity:1" d="M 206.074,410.082 212.842,402.347 z" id="boundary" inkscape:connector-curvature="0" />
	<path style="fill:none;stroke:red;stroke-width:1px;stroke-linecap:butt;stroke-linejoin:miter;stroke-opacity:1" d="M 238.947,385.91 229.279,390.745 z" id="boundary" inkscape:connector-curvature="0" />
	<path style="fill:none;stroke:red;stroke-width:1px;stroke-linecap:butt;stroke-linejoin:miter;stroke-opacity:1" d="M 248.616,381.076 238.947,385.91 z" id="boundary" inkscape:connector-curvature="0" />
	<path style="fill:none;stroke:red;stroke-width:1px;stroke-linecap:butt;stroke-linejoin:miter;stroke-opacity:1" d="M 185.77,434.253 176.101,439.088 z" id="boundary" inkscape:connector-curvature="0" />
	<path style="fill:none;stroke:red;stroke-width:1px;stroke-linecap:butt;stroke-linejoin:miter;stroke-opacity:1" d="M 176.101,439.088 166.433,439.088 z" id="boundary" inkscape:connector-curvature="0" />
	<path style="fill:none;stroke:red;stroke-width:1px;stroke-linecap:butt;stroke-linejoin:miter;stroke-opacity:1" d="M 193.505,426.519 185.77,434.253 z" id="boundary" inkscape:connector-curvature="0" />
	<path style="fill:none;stroke:red;stroke-width:1px;stroke-linecap:butt;stroke-linejoin:miter;stroke-opacity:1" d="M 193.505,426.519 198.339,416.85 z" id="boundary" inkscape:connector-curvature="0" />
	<path style="fill:none;stroke:red;stroke-width:1px;stroke-linecap:butt;stroke-linejoin:miter;stroke-opacity:1" d="M 198.339,416.85 206.074,410.082 z" id="boundary" inkscape:connector-curvature="0" />
	<path style="fill:none;stroke:red;stroke-width:1px;stroke-linecap:butt;stroke-linejoin:miter;stroke-opacity:1" d="M 305.661,361.739 314.363,356.904 z" id="boundary" inkscape:connector-curvature="0" />
	<path style="fill:none;stroke:red;stroke-width:1px;stroke-linecap:butt;stroke-linejoin:miter;stroke-opacity:1" d="M 314.363,356.904 324.031,354.004 z" id="boundary" inkscape:connector-curvature="0" />
	<path style="fill:none;stroke:red;stroke-width:1px;stroke-linecap:butt;stroke-linejoin:miter;stroke-opacity:1" d="M 305.661,361.739 295.992,362.706 z" id="boundary" inkscape:connector-curvature="0" />
	<path style="fill:none;stroke:red;stroke-width:1px;stroke-linecap:butt;stroke-linejoin:miter;stroke-opacity:1" d="M 342.402,347.236 333.7,352.07 z" id="boundary" inkscape:connector-curvature="0" />
	<path style="fill:none;stroke:red;stroke-width:1px;stroke-linecap:butt;stroke-linejoin:miter;stroke-opacity:1" d="M 333.7,352.07 324.031,354.004 z" id="boundary" inkscape:connector-curvature="0" />
	<path style="fill:none;stroke:red;stroke-width:1px;stroke-linecap:butt;stroke-linejoin:miter;stroke-opacity:1" d="M 258.285,376.242 267.953,371.407 z" id="boundary" inkscape:connector-curvature="0" />
	<path style="fill:none;stroke:red;stroke-width:1px;stroke-linecap:butt;stroke-linejoin:miter;stroke-opacity:1" d="M 267.953,371.407 277.622,371.407 z" id="boundary" inkscape:connector-curvature="0" />
	<path style="fill:none;stroke:red;stroke-width:1px;stroke-linecap:butt;stroke-linejoin:miter;stroke-opacity:1" d="M 286.324,366.573 295.992,362.706 z" id="boundary" inkscape:connector-curvature="0" />
	<path style="fill:none;stroke:red;stroke-width:1px;stroke-linecap:butt;stroke-linejoin:miter;stroke-opacity:1" d="M 286.324,366.573 277.622,371.407 z" id="boundary" inkscape:connector-curvature="0" />
	<path style="fill:none;stroke:red;stroke-width:1px;stroke-linecap:butt;stroke-linejoin:miter;stroke-opacity:1" d="M 248.616,381.076 258.285,376.242 z" id="boundary" inkscape:connector-curvature="0" />
	<path style="fill:none;stroke:red;stroke-width:1px;stroke-linecap:butt;stroke-linejoin:miter;stroke-opacity:1" d="M 166.433,439.088 157.731,443.922 z" id="boundary" inkscape:connector-curvature="0" />
	<path style="fill:none;stroke:red;stroke-width:1px;stroke-linecap:butt;stroke-linejoin:miter;stroke-opacity:1" d="M 453.591,35.9064 453.591,26.2378 z" id="boundary" inkscape:connector-curvature="0" />
	<path style="fill:none;stroke:red;stroke-width:1px;stroke-linecap:butt;stroke-linejoin:miter;stroke-opacity:1" d="M 458.425,44.6082 453.591,35.9064 z" id="boundary" inkscape:connector-curvature="0" />
	<path style="fill:none;stroke:red;stroke-width:1px;stroke-linecap:butt;stroke-linejoin:miter;stroke-opacity:1" d="M 458.425,16.5692 466.16,8.83431 z" id="boundary" inkscape:connector-curvature="0" />
	<path style="fill:none;stroke:red;stroke-width:1px;stroke-linecap:butt;stroke-linejoin:miter;stroke-opacity:1" d="M 453.591,26.2378 458.425,16.5692 z" id="boundary" inkscape:connector-curvature="0" />
	<path style="fill:none;stroke:red;stroke-width:1px;stroke-linecap:butt;stroke-linejoin:miter;stroke-opacity:1" d="M 450.69,129.692 441.021,129.692 z" id="boundary" inkscape:connector-curvature="0" />
	<path style="fill:none;stroke:red;stroke-width:1px;stroke-linecap:butt;stroke-linejoin:miter;stroke-opacity:1" d="M 421.684,129.692 431.353,129.692 z" id="boundary" inkscape:connector-curvature="0" />
	<path style="fill:none;stroke:red;stroke-width:1px;stroke-linecap:butt;stroke-linejoin:miter;stroke-opacity:1" d="M 441.021,129.692 431.353,129.692 z" id="boundary" inkscape:connector-curvature="0" />
	<path style="fill:none;stroke:red;stroke-width:1px;stroke-linecap:butt;stroke-linejoin:miter;stroke-opacity:1" d="M 460.359,125.825 450.69,129.692 z" id="boundary" inkscape:connector-curvature="0" />
	<path style="fill:none;stroke:red;stroke-width:1px;stroke-linecap:butt;stroke-linejoin:miter;stroke-opacity:1" d="M 463.259,111.322 460.359,125.825 z" id="boundary" inkscape:connector-curvature="0" />
	<path style="fill:none;stroke:red;stroke-width:1px;stroke-linecap:butt;stroke-linejoin:miter;stroke-opacity:1" d="M 463.259,53.3099 463.259,62.9786 z" id="boundary" inkscape:connector-curvature="0" />
	<path style="fill:none;stroke:red;stroke-width:1px;stroke-linecap:butt;stroke-linejoin:miter;stroke-opacity:1" d="M 458.425,44.6082 463.259,53.3099 z" id="boundary" inkscape:connector-curvature="0" />
	<path style="fill:none;stroke:red;stroke-width:1px;stroke-linecap:butt;stroke-linejoin:miter;stroke-opacity:1" d="M 466.16,8.83431 475.828,4 z" id="boundary" inkscape:connector-curvature="0" />
	<path style="fill:none;stroke:red;stroke-width:1px;stroke-linecap:butt;stroke-linejoin:miter;stroke-opacity:1" d="M 475.828,4 485.497,4 z" id="boundary" inkscape:connector-curvature="0" />
	<path style="fill:none;stroke:red;stroke-width:1px;stroke-linecap:butt;stroke-linejoin:miter;stroke-opacity:1" d="M 463.259,72.6472 463.259,62.9786 z" id="boundary" inkscape:connector-curvature="0" />
	<path style="fill:none;stroke:red;stroke-width:1px;stroke-linecap:butt;stroke-linejoin:miter;stroke-opacity:1" d="M 463.259,72.6472 463.259,82.3158 z" id="boundary" inkscape:connector-curvature="0" />
	<path style="fill:none;stroke:red;stroke-width:1px;stroke-linecap:butt;stroke-linejoin:miter;stroke-opacity:1" d="M 463.259,91.9844 463.259,101.653 z" id="boundary" inkscape:connector-curvature="0" />
	<path style="fill:none;stroke:red;stroke-width:1px;stroke-linecap:butt;stroke-linejoin:miter;stroke-opacity:1" d="M 463.259,111.322 463.259,101.653 z" id="boundary" inkscape:connector-curvature="0" />
	<path style="fill:none;stroke:red;stroke-width:1px;stroke-linecap:butt;stroke-linejoin:miter;stroke-opacity:1" d="M 463.259,91.9844 463.259,82.3158 z" id="boundary" inkscape:connector-curvature="0" />
	<path style="fill:none;stroke:red;stroke-width:1px;stroke-linecap:butt;stroke-linejoin:miter;stroke-opacity:1" d="M 428.452,169.333 438.121,169.333 z" id="boundary" inkscape:connector-curvature="0" />
	<path style="fill:none;stroke:red;stroke-width:1px;stroke-linecap:butt;stroke-linejoin:miter;stroke-opacity:1" d="M 438.121,169.333 444.889,177.068 z" id="boundary" inkscape:connector-curvature="0" />
	<path style="fill:none;stroke:red;stroke-width:1px;stroke-linecap:butt;stroke-linejoin:miter;stroke-opacity:1" d="M 428.452,169.333 419.75,164.499 z" id="boundary" inkscape:connector-curvature="0" />
	<path style="fill:none;stroke:red;stroke-width:1px;stroke-linecap:butt;stroke-linejoin:miter;stroke-opacity:1" d="M 449.723,185.77 444.889,177.068 z" id="boundary" inkscape:connector-curvature="0" />
	<path style="fill:none;stroke:red;stroke-width:1px;stroke-linecap:butt;stroke-linejoin:miter;stroke-opacity:1" d="M 458.425,190.604 449.723,185.77 z" id="boundary" inkscape:connector-curvature="0" />
	<path style="fill:none;stroke:red;stroke-width:1px;stroke-linecap:butt;stroke-linejoin:miter;stroke-opacity:1" d="M 448.756,301.793 443.922,316.296 z" id="boundary" inkscape:connector-curvature="0" />
	<path style="fill:none;stroke:red;stroke-width:1px;stroke-linecap:butt;stroke-linejoin:miter;stroke-opacity:1" d="M 409.115,342.402 418.784,342.402 z" id="boundary" inkscape:connector-curvature="0" />
	<path style="fill:none;stroke:red;stroke-width:1px;stroke-linecap:butt;stroke-linejoin:miter;stroke-opacity:1" d="M 428.452,342.402 418.784,342.402 z" id="boundary" inkscape:connector-curvature="0" />
	<path style="fill:none;stroke:red;stroke-width:1px;stroke-linecap:butt;stroke-linejoin:miter;stroke-opacity:1" d="M 443.922,325.965 438.121,342.402 z" id="boundary" inkscape:connector-curvature="0" />
	<path style="fill:none;stroke:red;stroke-width:1px;stroke-linecap:butt;stroke-linejoin:miter;stroke-opacity:1" d="M 438.121,342.402 428.452,342.402 z" id="boundary" inkscape:connector-curvature="0" />
	<path style="fill:none;stroke:red;stroke-width:1px;stroke-linecap:butt;stroke-linejoin:miter;stroke-opacity:1" d="M 443.922,316.296 443.922,325.965 z" id="boundary" inkscape:connector-curvature="0" />
	<path style="fill:none;stroke:red;stroke-width:1px;stroke-linecap:butt;stroke-linejoin:miter;stroke-opacity:1" d="M 463.259,199.306 463.259,208.975 z" id="boundary" inkscape:connector-curvature="0" />
	<path style="fill:none;stroke:red;stroke-width:1px;stroke-linecap:butt;stroke-linejoin:miter;stroke-opacity:1" d="M 463.259,199.306 458.425,190.604 z" id="boundary" inkscape:connector-curvature="0" />
	<path style="fill:none;stroke:red;stroke-width:1px;stroke-linecap:butt;stroke-linejoin:miter;stroke-opacity:1" d="M 463.259,208.975 463.259,218.643 z" id="boundary" inkscape:connector-curvature="0" />
	<path style="fill:none;stroke:red;stroke-width:1px;stroke-linecap:butt;stroke-linejoin:miter;stroke-opacity:1" d="M 463.259,228.312 463.259,218.643 z" id="boundary" inkscape:connector-curvature="0" />
	<path style="fill:none;stroke:red;stroke-width:1px;stroke-linecap:butt;stroke-linejoin:miter;stroke-opacity:1" d="M 453.591,287.29 453.591,277.622 z" id="boundary" inkscape:connector-curvature="0" />
	<path style="fill:none;stroke:red;stroke-width:1px;stroke-linecap:butt;stroke-linejoin:miter;stroke-opacity:1" d="M 453.591,277.622 458.425,267.953 z" id="boundary" inkscape:connector-curvature="0" />
	<path style="fill:none;stroke:red;stroke-width:1px;stroke-linecap:butt;stroke-linejoin:miter;stroke-opacity:1" d="M 458.425,258.285 458.425,267.953 z" id="boundary" inkscape:connector-curvature="0" />
	<path style="fill:none;stroke:red;stroke-width:1px;stroke-linecap:butt;stroke-linejoin:miter;stroke-opacity:1" d="M 453.591,287.29 448.756,301.793 z" id="boundary" inkscape:connector-curvature="0" />
	<path style="fill:none;stroke:red;stroke-width:1px;stroke-linecap:butt;stroke-linejoin:miter;stroke-opacity:1" d="M 458.425,258.285 463.259,247.649 z" id="boundary" inkscape:connector-curvature="0" />
	<path style="fill:none;stroke:red;stroke-width:1px;stroke-linecap:butt;stroke-linejoin:miter;stroke-opacity:1" d="M 463.259,237.981 463.259,247.649 z" id="boundary" inkscape:connector-curvature="0" />
	<path style="fill:none;stroke:red;stroke-width:1px;stroke-linecap:butt;stroke-linejoin:miter;stroke-opacity:1" d="M 463.259,228.312 463.259,237.981 z" id="boundary" inkscape:connector-curvature="0" />
	<path style="fill:none;stroke:red;stroke-width:1px;stroke-linecap:butt;stroke-linejoin:miter;stroke-opacity:1" d="M 13.6686,562.846 18.5029,553.177 z" id="boundary" inkscape:connector-curvature="0" />
	<path style="fill:none;stroke:red;stroke-width:1px;stroke-linecap:butt;stroke-linejoin:miter;stroke-opacity:1" d="M 18.5029,553.177 26.2378,545.442 z" id="boundary" inkscape:connector-curvature="0" />
	<path style="fill:none;stroke:red;stroke-width:1px;stroke-linecap:butt;stroke-linejoin:miter;stroke-opacity:1" d="M 48.4756,523.205 41.7076,530.94 z" id="boundary" inkscape:connector-curvature="0" />
	<path style="fill:none;stroke:red;stroke-width:1px;stroke-linecap:butt;stroke-linejoin:miter;stroke-opacity:1" d="M 41.7076,530.94 33.9727,537.708 z" id="boundary" inkscape:connector-curvature="0" />
	<path style="fill:none;stroke:red;stroke-width:1px;stroke-linecap:butt;stroke-linejoin:miter;stroke-opacity:1" d="M 26.2378,545.442 33.9727,537.708 z" id="boundary" inkscape:connector-curvature="0" />
	<path style="fill:none;stroke:red;stroke-width:1px;stroke-linecap:butt;stroke-linejoin:miter;stroke-opacity:1" d="M 4,611.189 4,601.52 z" id="boundary" inkscape:connector-curvature="0" />
	<path style="fill:none;stroke:red;stroke-width:1px;stroke-linecap:butt;stroke-linejoin:miter;stroke-opacity:1" d="M 4,591.852 4,582.183 z" id="boundary" inkscape:connector-curvature="0" />
	<path style="fill:none;stroke:red;stroke-width:1px;stroke-linecap:butt;stroke-linejoin:miter;stroke-opacity:1" d="M 4,582.183 8.83431,572.515 z" id="boundary" inkscape:connector-curvature="0" />
	<path style="fill:none;stroke:red;stroke-width:1px;stroke-linecap:butt;stroke-linejoin:miter;stroke-opacity:1" d="M 8.83431,572.515 13.6686,562.846 z" id="boundary" inkscape:connector-curvature="0" />
	<path style="fill:none;stroke:red;stroke-width:1px;stroke-linecap:butt;stroke-linejoin:miter;stroke-opacity:1" d="M 4,601.52 4,591.852 z" id="boundary" inkscape:connector-curvature="0" />
	<path style="fill:none;stroke:red;stroke-width:1px;stroke-linecap:butt;stroke-linejoin:miter;stroke-opacity:1" d="M 48.4756,523.205 58.1442,518.37 z" id="boundary" inkscape:connector-curvature="0" />
	<path style="fill:none;stroke:red;stroke-width:1px;stroke-linecap:butt;stroke-linejoin:miter;stroke-opacity:1" d="M 99.7193,487.431 108.421,482.596 z" id="boundary" inkscape:connector-curvature="0" />
	<path style="fill:none;stroke:red;stroke-width:1px;stroke-linecap:butt;stroke-linejoin:miter;stroke-opacity:1" d="M 91.9844,494.199 99.7193,487.431 z" id="boundary" inkscape:connector-curvature="0" />
	<path style="fill:none;stroke:red;stroke-width:1px;stroke-linecap:butt;stroke-linejoin:miter;stroke-opacity:1" d="M 116.156,474.862 108.421,482.596 z" id="boundary" inkscape:connector-curvature="0" />
	<path style="fill:none;stroke:red;stroke-width:1px;stroke-linecap:butt;stroke-linejoin:miter;stroke-opacity:1" d="M 116.156,474.862 123.891,468.094 z" id="boundary" inkscape:connector-curvature="0" />
	<path style="fill:none;stroke:red;stroke-width:1px;stroke-linecap:butt;stroke-linejoin:miter;stroke-opacity:1" d="M 123.891,468.094 132.593,463.259 z" id="boundary" inkscape:connector-curvature="0" />
	<path style="fill:none;stroke:red;stroke-width:1px;stroke-linecap:butt;stroke-linejoin:miter;stroke-opacity:1" d="M 140.327,455.524 132.593,463.259 z" id="boundary" inkscape:connector-curvature="0" />
	<path style="fill:none;stroke:red;stroke-width:1px;stroke-linecap:butt;stroke-linejoin:miter;stroke-opacity:1" d="M 77.4815,508.702 85.2164,501.934 z" id="boundary" inkscape:connector-curvature="0" />
	<path style="fill:none;stroke:red;stroke-width:1px;stroke-linecap:butt;stroke-linejoin:miter;stroke-opacity:1" d="M 58.1442,518.37 67.8129,513.536 z" id="boundary" inkscape:connector-curvature="0" />
	<path style="fill:none;stroke:red;stroke-width:1px;stroke-linecap:butt;stroke-linejoin:miter;stroke-opacity:1" d="M 77.4815,508.702 67.8129,513.536 z" id="boundary" inkscape:connector-curvature="0" />
	<path style="fill:none;stroke:red;stroke-width:1px;stroke-linecap:butt;stroke-linejoin:miter;stroke-opacity:1" d="M 91.9844,494.199 85.2164,501.934 z" id="boundary" inkscape:connector-curvature="0" />
	<path style="fill:none;stroke:red;stroke-width:1px;stroke-linecap:butt;stroke-linejoin:miter;stroke-opacity:1" d="M 13.6686,657.598 8.83431,648.897 z" id="boundary" inkscape:connector-curvature="0" />
	<path style="fill:none;stroke:red;stroke-width:1px;stroke-linecap:butt;stroke-linejoin:miter;stroke-opacity:1" d="M 8.83431,648.897 4,640.195 z" id="boundary" inkscape:connector-curvature="0" />
	<path style="fill:none;stroke:red;stroke-width:1px;stroke-linecap:butt;stroke-linejoin:miter;stroke-opacity:1" d="M 4,640.195 4,630.526 z" id="boundary" inkscape:connector-curvature="0" />
	<path style="fill:none;stroke:red;stroke-width:1px;stroke-linecap:butt;stroke-linejoin:miter;stroke-opacity:1" d="M 4,630.526 4,620.858 z" id="boundary" inkscape:connector-curvature="0" />
	<path style="fill:none;stroke:red;stroke-width:1px;stroke-linecap:butt;stroke-linejoin:miter;stroke-opacity:1" d="M 4,620.858 4,611.189 z" id="boundary" inkscape:connector-curvature="0" />
	<path style="fill:none;stroke:red;stroke-width:1px;stroke-linecap:butt;stroke-linejoin:miter;stroke-opacity:1" d="M 18.5029,666.3 13.6686,657.598 z" id="boundary" inkscape:connector-curvature="0" />
	<path style="fill:none;stroke:red;stroke-width:1px;stroke-linecap:butt;stroke-linejoin:miter;stroke-opacity:1" d="M 35.9064,690.472 28.1715,683.704 z" id="boundary" inkscape:connector-curvature="0" />
	<path style="fill:none;stroke:red;stroke-width:1px;stroke-linecap:butt;stroke-linejoin:miter;stroke-opacity:1" d="M 28.1715,683.704 23.3372,675.002 z" id="boundary" inkscape:connector-curvature="0" />
	<path style="fill:none;stroke:red;stroke-width:1px;stroke-linecap:butt;stroke-linejoin:miter;stroke-opacity:1" d="M 44.6082,695.306 35.9064,690.472 z" id="boundary" inkscape:connector-curvature="0" />
	<path style="fill:none;stroke:red;stroke-width:1px;stroke-linecap:butt;stroke-linejoin:miter;stroke-opacity:1" d="M 23.3372,675.002 18.5029,666.3 z" id="boundary" inkscape:connector-curvature="0" />
	<path style="fill:none;stroke:red;stroke-width:1px;stroke-linecap:butt;stroke-linejoin:miter;stroke-opacity:1" d="M 44.6082,695.306 52.3431,701.107 z" id="boundary" inkscape:connector-curvature="0" />
	<path style="fill:none;stroke:red;stroke-width:1px;stroke-linecap:butt;stroke-linejoin:miter;stroke-opacity:1" d="M 52.3431,701.107 58.1442,708.842 z" id="boundary" inkscape:connector-curvature="0" />
	<path style="fill:none;stroke:red;stroke-width:1px;stroke-linecap:butt;stroke-linejoin:miter;stroke-opacity:1" d="M 58.1442,708.842 67.8129,712.71 z" id="boundary" inkscape:connector-curvature="0" />
	<path style="fill:none;stroke:red;stroke-width:1px;stroke-linecap:butt;stroke-linejoin:miter;stroke-opacity:1" d="M 67.8129,712.71 76.5146,717.544 z" id="boundary" inkscape:connector-curvature="0" />
	<path style="fill:none;stroke:red;stroke-width:1px;stroke-linecap:butt;stroke-linejoin:miter;stroke-opacity:1" d="M 86.1832,720.444 95.8519,720.444 z" id="boundary" inkscape:connector-curvature="0" />
	<path style="fill:none;stroke:red;stroke-width:1px;stroke-linecap:butt;stroke-linejoin:miter;stroke-opacity:1" d="M 95.8519,720.444 104.554,725.279 z" id="boundary" inkscape:connector-curvature="0" />
	<path style="fill:none;stroke:red;stroke-width:1px;stroke-linecap:butt;stroke-linejoin:miter;stroke-opacity:1" d="M 86.1832,720.444 76.5146,717.544 z" id="boundary" inkscape:connector-curvature="0" />
	<path style="fill:none;stroke:red;stroke-width:1px;stroke-linecap:butt;stroke-linejoin:miter;stroke-opacity:1" d="M 142.261,734.947 132.593,734.947 z" id="boundary" inkscape:connector-curvature="0" />
	<path style="fill:none;stroke:red;stroke-width:1px;stroke-linecap:butt;stroke-linejoin:miter;stroke-opacity:1" d="M 104.554,725.279 113.255,730.113 z" id="boundary" inkscape:connector-curvature="0" />
	<path style="fill:none;stroke:red;stroke-width:1px;stroke-linecap:butt;stroke-linejoin:miter;stroke-opacity:1" d="M 132.593,734.947 122.924,733.981 z" id="boundary" inkscape:connector-curvature="0" />
	<path style="fill:none;stroke:red;stroke-width:1px;stroke-linecap:butt;stroke-linejoin:miter;stroke-opacity:1" d="M 122.924,733.981 113.255,730.113 z" id="boundary" inkscape:connector-curvature="0" />
	<path style="fill:none;stroke:red;stroke-width:1px;stroke-linecap:butt;stroke-linejoin:miter;stroke-opacity:1" d="M 140.327,455.524 149.996,450.69 z" id="boundary" inkscape:connector-curvature="0" />
	<path style="fill:none;stroke:red;stroke-width:1px;stroke-linecap:butt;stroke-linejoin:miter;stroke-opacity:1" d="M 151.93,734.947 142.261,734.947 z" id="boundary" inkscape:connector-curvature="0" />
	<path style="fill:none;stroke:red;stroke-width:1px;stroke-linecap:butt;stroke-linejoin:miter;stroke-opacity:1" d="M 149.996,450.69 157.731,443.922 z" id="boundary" inkscape:connector-curvature="0" />
	<path style="fill:none;stroke:red;stroke-width:1px;stroke-linecap:butt;stroke-linejoin:miter;stroke-opacity:1" d="M 151.93,734.947 160.632,739.782 z" id="boundary" inkscape:connector-curvature="0" />
	<path style="fill:none;stroke:red;stroke-width:1px;stroke-linecap:butt;stroke-linejoin:miter;stroke-opacity:1" d="M 170.3,739.782 160.632,739.782 z" id="boundary" inkscape:connector-curvature="0" />
	<path style="fill:none;stroke:red;stroke-width:1px;stroke-linecap:butt;stroke-linejoin:miter;stroke-opacity:1" d="M 199.306,744.616 189.637,744.616 z" id="boundary" inkscape:connector-curvature="0" />
	<path style="fill:none;stroke:red;stroke-width:1px;stroke-linecap:butt;stroke-linejoin:miter;stroke-opacity:1" d="M 189.637,744.616 179.969,742.682 z" id="boundary" inkscape:connector-curvature="0" />
	<path style="fill:none;stroke:red;stroke-width:1px;stroke-linecap:butt;stroke-linejoin:miter;stroke-opacity:1" d="M 170.3,739.782 179.969,742.682 z" id="boundary" inkscape:connector-curvature="0" />
	<path style="fill:none;stroke:red;stroke-width:1px;stroke-linecap:butt;stroke-linejoin:miter;stroke-opacity:1" d="M 199.306,744.616 208.975,744.616 z" id="boundary" inkscape:connector-curvature="0" />
	<path style="fill:none;stroke:red;stroke-width:1px;stroke-linecap:butt;stroke-linejoin:miter;stroke-opacity:1" d="M 208.975,744.616 217.676,749.45 z" id="boundary" inkscape:connector-curvature="0" />
	<path style="fill:none;stroke:red;stroke-width:1px;stroke-linecap:butt;stroke-linejoin:miter;stroke-opacity:1" d="M 217.676,749.45 227.345,751.384 z" id="boundary" inkscape:connector-curvature="0" />
	<path style="fill:none;stroke:red;stroke-width:1px;stroke-linecap:butt;stroke-linejoin:miter;stroke-opacity:1" d="M 237.014,754.285 227.345,751.384 z" id="boundary" inkscape:connector-curvature="0" />
	<path style="fill:none;stroke:red;stroke-width:1px;stroke-linecap:butt;stroke-linejoin:miter;stroke-opacity:1" d="M 237.014,754.285 245.715,759.119 z" id="boundary" inkscape:connector-curvature="0" />
	<path style="fill:none;stroke:red;stroke-width:1px;stroke-linecap:butt;stroke-linejoin:miter;stroke-opacity:1" d="M 245.715,759.119 255.384,759.119 z" id="boundary" inkscape:connector-curvature="0" />
	<path style="fill:none;stroke:red;stroke-width:1px;stroke-linecap:butt;stroke-linejoin:miter;stroke-opacity:1" d="M 283.423,763.953 273.754,763.953 z" id="boundary" inkscape:connector-curvature="0" />
	<path style="fill:none;stroke:red;stroke-width:1px;stroke-linecap:butt;stroke-linejoin:miter;stroke-opacity:1" d="M 273.754,763.953 265.053,759.119 z" id="boundary" inkscape:connector-curvature="0" />
	<path style="fill:none;stroke:red;stroke-width:1px;stroke-linecap:butt;stroke-linejoin:miter;stroke-opacity:1" d="M 293.092,763.953 283.423,763.953 z" id="boundary" inkscape:connector-curvature="0" />
	<path style="fill:none;stroke:red;stroke-width:1px;stroke-linecap:butt;stroke-linejoin:miter;stroke-opacity:1" d="M 255.384,759.119 265.053,759.119 z" id="boundary" inkscape:connector-curvature="0" />
	<path style="fill:none;stroke:red;stroke-width:1px;stroke-linecap:butt;stroke-linejoin:miter;stroke-opacity:1" d="M 293.092,763.953 301.793,768.788 z" id="boundary" inkscape:connector-curvature="0" />
	<path style="fill:none;stroke:red;stroke-width:1px;stroke-linecap:butt;stroke-linejoin:miter;stroke-opacity:1" d="M 311.462,768.788 301.793,768.788 z" id="boundary" inkscape:connector-curvature="0" />
	<path style="fill:none;stroke:red;stroke-width:1px;stroke-linecap:butt;stroke-linejoin:miter;stroke-opacity:1" d="M 311.462,768.788 321.131,768.788 z" id="boundary" inkscape:connector-curvature="0" />
	<path style="fill:none;stroke:red;stroke-width:1px;stroke-linecap:butt;stroke-linejoin:miter;stroke-opacity:1" d="M 330.799,768.788 321.131,768.788 z" id="boundary" inkscape:connector-curvature="0" />
	<path style="fill:none;stroke:red;stroke-width:1px;stroke-linecap:butt;stroke-linejoin:miter;stroke-opacity:1" d="M 330.799,768.788 339.501,773.622 z" id="boundary" inkscape:connector-curvature="0" />
	<path style="fill:none;stroke:red;stroke-width:1px;stroke-linecap:butt;stroke-linejoin:miter;stroke-opacity:1" d="M 339.501,773.622 349.17,773.622 z" id="boundary" inkscape:connector-curvature="0" />
	<path style="fill:none;stroke:red;stroke-width:1px;stroke-linecap:butt;stroke-linejoin:miter;stroke-opacity:1" d="M 387.844,778.456 378.175,778.456 z" id="boundary" inkscape:connector-curvature="0" />
	<path style="fill:none;stroke:red;stroke-width:1px;stroke-linecap:butt;stroke-linejoin:miter;stroke-opacity:1" d="M 378.175,778.456 368.507,776.522 z" id="boundary" inkscape:connector-curvature="0" />
	<path style="fill:none;stroke:red;stroke-width:1px;stroke-linecap:butt;stroke-linejoin:miter;stroke-opacity:1" d="M 368.507,776.522 358.838,773.622 z" id="boundary" inkscape:connector-curvature="0" />
	<path style="fill:none;stroke:red;stroke-width:1px;stroke-linecap:butt;stroke-linejoin:miter;stroke-opacity:1" d="M 349.17,773.622 358.838,773.622 z" id="boundary" inkscape:connector-curvature="0" />
	<path style="fill:none;stroke:red;stroke-width:1px;stroke-linecap:butt;stroke-linejoin:miter;stroke-opacity:1" d="M 397.513,778.456 387.844,778.456 z" id="boundary" inkscape:connector-curvature="0" />
	<path style="fill:none;stroke:red;stroke-width:1px;stroke-linecap:butt;stroke-linejoin:miter;stroke-opacity:1" d="M 407.181,778.456 397.513,778.456 z" id="boundary" inkscape:connector-curvature="0" />
	<path style="fill:none;stroke:red;stroke-width:1px;stroke-linecap:butt;stroke-linejoin:miter;stroke-opacity:1" d="M 426.519,778.456 416.85,778.456 z" id="boundary" inkscape:connector-curvature="0" />
	<path style="fill:none;stroke:red;stroke-width:1px;stroke-linecap:butt;stroke-linejoin:miter;stroke-opacity:1" d="M 436.187,778.456 426.519,778.456 z" id="boundary" inkscape:connector-curvature="0" />
	<path style="fill:none;stroke:red;stroke-width:1px;stroke-linecap:butt;stroke-linejoin:miter;stroke-opacity:1" d="M 455.524,778.456 445.856,778.456 z" id="boundary" inkscape:connector-curvature="0" />
	<path style="fill:none;stroke:red;stroke-width:1px;stroke-linecap:butt;stroke-linejoin:miter;stroke-opacity:1" d="M 465.193,778.456 455.524,778.456 z" id="boundary" inkscape:connector-curvature="0" />
	<path style="fill:none;stroke:red;stroke-width:1px;stroke-linecap:butt;stroke-linejoin:miter;stroke-opacity:1" d="M 445.856,778.456 436.187,778.456 z" id="boundary" inkscape:connector-curvature="0" />
	<path style="fill:none;stroke:red;stroke-width:1px;stroke-linecap:butt;stroke-linejoin:miter;stroke-opacity:1" d="M 416.85,778.456 407.181,778.456 z" id="boundary" inkscape:connector-curvature="0" />
	<path style="fill:none;stroke:red;stroke-width:1px;stroke-linecap:butt;stroke-linejoin:miter;stroke-opacity:1" d="M 474.862,778.456 465.193,778.456 z" id="boundary" inkscape:connector-curvature="0" />
	<path style="fill:none;stroke:red;stroke-width:1px;stroke-linecap:butt;stroke-linejoin:miter;stroke-opacity:1" d="M 484.53,778.456 474.862,778.456 z" id="boundary" inkscape:connector-curvature="0" />
	<path style="fill:none;stroke:red;stroke-width:1px;stroke-linecap:butt;stroke-linejoin:miter;stroke-opacity:1" d="M 495.166,4 503.867,8.83431 z" id="boundary" inkscape:connector-curvature="0" />
	<path style="fill:none;stroke:red;stroke-width:1px;stroke-linecap:butt;stroke-linejoin:miter;stroke-opacity:1" d="M 503.867,8.83431 507.735,18.5029 z" id="boundary" inkscape:connector-curvature="0" />
	<path style="fill:none;stroke:red;stroke-width:1px;stroke-linecap:butt;stroke-linejoin:miter;stroke-opacity:1" d="M 507.735,18.5029 512.569,27.2047 z" id="boundary" inkscape:connector-curvature="0" />
	<path style="fill:none;stroke:red;stroke-width:1px;stroke-linecap:butt;stroke-linejoin:miter;stroke-opacity:1" d="M 517.404,35.9064 512.569,27.2047 z" id="boundary" inkscape:connector-curvature="0" />
	<path style="fill:none;stroke:red;stroke-width:1px;stroke-linecap:butt;stroke-linejoin:miter;stroke-opacity:1" d="M 517.404,35.9064 517.404,45.575 z" id="boundary" inkscape:connector-curvature="0" />
	<path style="fill:none;stroke:red;stroke-width:1px;stroke-linecap:butt;stroke-linejoin:miter;stroke-opacity:1" d="M 517.404,45.575 522.238,54.2768 z" id="boundary" inkscape:connector-curvature="0" />
	<path style="fill:none;stroke:red;stroke-width:1px;stroke-linecap:butt;stroke-linejoin:miter;stroke-opacity:1" d="M 522.238,54.2768 522.238,63.9454 z" id="boundary" inkscape:connector-curvature="0" />
	<path style="fill:none;stroke:red;stroke-width:1px;stroke-linecap:butt;stroke-linejoin:miter;stroke-opacity:1" d="M 522.238,63.9454 527.072,72.6472 z" id="boundary" inkscape:connector-curvature="0" />
	<path style="fill:none;stroke:red;stroke-width:1px;stroke-linecap:butt;stroke-linejoin:miter;stroke-opacity:1" d="M 527.072,72.6472 527.072,82.3158 z" id="boundary" inkscape:connector-curvature="0" />
	<path style="fill:none;stroke:red;stroke-width:1px;stroke-linecap:butt;stroke-linejoin:miter;stroke-opacity:1" d="M 579.283,129.692 569.614,129.692 z" id="boundary" inkscape:connector-curvature="0" />
	<path style="fill:none;stroke:red;stroke-width:1px;stroke-linecap:butt;stroke-linejoin:miter;stroke-opacity:1" d="M 527.072,82.3158 527.072,91.9844 z" id="boundary" inkscape:connector-curvature="0" />
	<path style="fill:none;stroke:red;stroke-width:1px;stroke-linecap:butt;stroke-linejoin:miter;stroke-opacity:1" d="M 527.072,91.9844 527.072,101.653 z" id="boundary" inkscape:connector-curvature="0" />
	<path style="fill:none;stroke:red;stroke-width:1px;stroke-linecap:butt;stroke-linejoin:miter;stroke-opacity:1" d="M 529.006,111.322 527.072,101.653 z" id="boundary" inkscape:connector-curvature="0" />
	<path style="fill:none;stroke:red;stroke-width:1px;stroke-linecap:butt;stroke-linejoin:miter;stroke-opacity:1" d="M 533.84,120.023 529.006,111.322 z" id="boundary" inkscape:connector-curvature="0" />
	<path style="fill:none;stroke:red;stroke-width:1px;stroke-linecap:butt;stroke-linejoin:miter;stroke-opacity:1" d="M 540.608,127.758 533.84,120.023 z" id="boundary" inkscape:connector-curvature="0" />
	<path style="fill:none;stroke:red;stroke-width:1px;stroke-linecap:butt;stroke-linejoin:miter;stroke-opacity:1" d="M 550.277,129.692 540.608,127.758 z" id="boundary" inkscape:connector-curvature="0" />
	<path style="fill:none;stroke:red;stroke-width:1px;stroke-linecap:butt;stroke-linejoin:miter;stroke-opacity:1" d="M 567.68,182.869 558.012,187.704 z" id="boundary" inkscape:connector-curvature="0" />
	<path style="fill:none;stroke:red;stroke-width:1px;stroke-linecap:butt;stroke-linejoin:miter;stroke-opacity:1" d="M 577.349,179.002 567.68,182.869 z" id="boundary" inkscape:connector-curvature="0" />
	<path style="fill:none;stroke:red;stroke-width:1px;stroke-linecap:butt;stroke-linejoin:miter;stroke-opacity:1" d="M 569.614,129.692 559.945,129.692 z" id="boundary" inkscape:connector-curvature="0" />
	<path style="fill:none;stroke:red;stroke-width:1px;stroke-linecap:butt;stroke-linejoin:miter;stroke-opacity:1" d="M 550.277,129.692 559.945,129.692 z" id="boundary" inkscape:connector-curvature="0" />
	<path style="fill:none;stroke:red;stroke-width:1px;stroke-linecap:butt;stroke-linejoin:miter;stroke-opacity:1" d="M 558.012,187.704 548.343,192.538 z" id="boundary" inkscape:connector-curvature="0" />
	<path style="fill:none;stroke:red;stroke-width:1px;stroke-linecap:butt;stroke-linejoin:miter;stroke-opacity:1" d="M 531.906,203.173 531.906,212.842 z" id="boundary" inkscape:connector-curvature="0" />
	<path style="fill:none;stroke:red;stroke-width:1px;stroke-linecap:butt;stroke-linejoin:miter;stroke-opacity:1" d="M 531.906,232.179 531.906,222.511 z" id="boundary" inkscape:connector-curvature="0" />
	<path style="fill:none;stroke:red;stroke-width:1px;stroke-linecap:butt;stroke-linejoin:miter;stroke-opacity:1" d="M 533.84,241.848 531.906,232.179 z" id="boundary" inkscape:connector-curvature="0" />
	<path style="fill:none;stroke:red;stroke-width:1px;stroke-linecap:butt;stroke-linejoin:miter;stroke-opacity:1" d="M 531.906,222.511 531.906,212.842 z" id="boundary" inkscape:connector-curvature="0" />
	<path style="fill:none;stroke:red;stroke-width:1px;stroke-linecap:butt;stroke-linejoin:miter;stroke-opacity:1" d="M 536.741,251.517 536.741,261.185 z" id="boundary" inkscape:connector-curvature="0" />
	<path style="fill:none;stroke:red;stroke-width:1px;stroke-linecap:butt;stroke-linejoin:miter;stroke-opacity:1" d="M 533.84,241.848 536.741,251.517 z" id="boundary" inkscape:connector-curvature="0" />
	<path style="fill:none;stroke:red;stroke-width:1px;stroke-linecap:butt;stroke-linejoin:miter;stroke-opacity:1" d="M 536.741,270.854 536.741,280.522 z" id="boundary" inkscape:connector-curvature="0" />
	<path style="fill:none;stroke:red;stroke-width:1px;stroke-linecap:butt;stroke-linejoin:miter;stroke-opacity:1" d="M 536.741,290.191 536.741,280.522 z" id="boundary" inkscape:connector-curvature="0" />
	<path style="fill:none;stroke:red;stroke-width:1px;stroke-linecap:butt;stroke-linejoin:miter;stroke-opacity:1" d="M 538.674,299.86 536.741,290.191 z" id="boundary" inkscape:connector-curvature="0" />
	<path style="fill:none;stroke:red;stroke-width:1px;stroke-linecap:butt;stroke-linejoin:miter;stroke-opacity:1" d="M 536.741,261.185 536.741,270.854 z" id="boundary" inkscape:connector-curvature="0" />
	<path style="fill:none;stroke:red;stroke-width:1px;stroke-linecap:butt;stroke-linejoin:miter;stroke-opacity:1" d="M 531.906,203.173 540.608,198.339 z" id="boundary" inkscape:connector-curvature="0" />
	<path style="fill:none;stroke:red;stroke-width:1px;stroke-linecap:butt;stroke-linejoin:miter;stroke-opacity:1" d="M 540.608,198.339 548.343,192.538 z" id="boundary" inkscape:connector-curvature="0" />
	<path style="fill:none;stroke:red;stroke-width:1px;stroke-linecap:butt;stroke-linejoin:miter;stroke-opacity:1" d="M 541.575,319.197 541.575,309.528 z" id="boundary" inkscape:connector-curvature="0" />
	<path style="fill:none;stroke:red;stroke-width:1px;stroke-linecap:butt;stroke-linejoin:miter;stroke-opacity:1" d="M 585.084,347.236 575.415,347.236 z" id="boundary" inkscape:connector-curvature="0" />
	<path style="fill:none;stroke:red;stroke-width:1px;stroke-linecap:butt;stroke-linejoin:miter;stroke-opacity:1" d="M 541.575,309.528 538.674,299.86 z" id="boundary" inkscape:connector-curvature="0" />
	<path style="fill:none;stroke:red;stroke-width:1px;stroke-linecap:butt;stroke-linejoin:miter;stroke-opacity:1" d="M 541.575,319.197 541.575,328.865 z" id="boundary" inkscape:connector-curvature="0" />
	<path style="fill:none;stroke:red;stroke-width:1px;stroke-linecap:butt;stroke-linejoin:miter;stroke-opacity:1" d="M 556.078,347.236 546.409,347.236 z" id="boundary" inkscape:connector-curvature="0" />
	<path style="fill:none;stroke:red;stroke-width:1px;stroke-linecap:butt;stroke-linejoin:miter;stroke-opacity:1" d="M 546.409,347.236 541.575,338.534 z" id="boundary" inkscape:connector-curvature="0" />
	<path style="fill:none;stroke:red;stroke-width:1px;stroke-linecap:butt;stroke-linejoin:miter;stroke-opacity:1" d="M 541.575,338.534 541.575,328.865 z" id="boundary" inkscape:connector-curvature="0" />
	<path style="fill:none;stroke:red;stroke-width:1px;stroke-linecap:butt;stroke-linejoin:miter;stroke-opacity:1" d="M 494.199,778.456 484.53,778.456 z" id="boundary" inkscape:connector-curvature="0" />
	<path style="fill:none;stroke:red;stroke-width:1px;stroke-linecap:butt;stroke-linejoin:miter;stroke-opacity:1" d="M 556.078,347.236 565.747,347.236 z" id="boundary" inkscape:connector-curvature="0" />
	<path style="fill:none;stroke:red;stroke-width:1px;stroke-linecap:butt;stroke-linejoin:miter;stroke-opacity:1" d="M 565.747,347.236 575.415,347.236 z" id="boundary" inkscape:connector-curvature="0" />
	<path style="fill:none;stroke:red;stroke-width:1px;stroke-linecap:butt;stroke-linejoin:miter;stroke-opacity:1" d="M 586.051,174.168 577.349,179.002 z" id="boundary" inkscape:connector-curvature="0" />
	<path style="fill:none;stroke:red;stroke-width:1px;stroke-linecap:butt;stroke-linejoin:miter;stroke-opacity:1" d="M 579.283,129.692 588.951,129.692 z" id="boundary" inkscape:connector-curvature="0" />
	<path style="fill:none;stroke:red;stroke-width:1px;stroke-linecap:butt;stroke-linejoin:miter;stroke-opacity:1" d="M 598.62,131.626 588.951,129.692 z" id="boundary" inkscape:connector-curvature="0" />
	<path style="fill:none;stroke:red;stroke-width:1px;stroke-linecap:butt;stroke-linejoin:miter;stroke-opacity:1" d="M 598.62,131.626 608.288,134.526 z" id="boundary" inkscape:connector-curvature="0" />
	<path style="fill:none;stroke:red;stroke-width:1px;stroke-linecap:butt;stroke-linejoin:miter;stroke-opacity:1" d="M 604.421,169.333 595.719,174.168 z" id="boundary" inkscape:connector-curvature="0" />
	<path style="fill:none;stroke:red;stroke-width:1px;stroke-linecap:butt;stroke-linejoin:miter;stroke-opacity:1" d="M 595.719,174.168 586.051,174.168 z" id="boundary" inkscape:connector-curvature="0" />
	<path style="fill:none;stroke:red;stroke-width:1px;stroke-linecap:butt;stroke-linejoin:miter;stroke-opacity:1" d="M 594.752,347.236 585.084,347.236 z" id="boundary" inkscape:connector-curvature="0" />
	<path style="fill:none;stroke:red;stroke-width:1px;stroke-linecap:butt;stroke-linejoin:miter;stroke-opacity:1" d="M 604.421,347.236 594.752,347.236 z" id="boundary" inkscape:connector-curvature="0" />
	<path style="fill:none;stroke:red;stroke-width:1px;stroke-linecap:butt;stroke-linejoin:miter;stroke-opacity:1" d="M 604.421,347.236 613.123,352.07 z" id="boundary" inkscape:connector-curvature="0" />
	<path style="fill:none;stroke:red;stroke-width:1px;stroke-linecap:butt;stroke-linejoin:miter;stroke-opacity:1" d="M 608.288,134.526 617.957,134.526 z" id="boundary" inkscape:connector-curvature="0" />
	<path style="fill:none;stroke:red;stroke-width:1px;stroke-linecap:butt;stroke-linejoin:miter;stroke-opacity:1" d="M 627.626,134.526 635.361,140.327 z" id="boundary" inkscape:connector-curvature="0" />
	<path style="fill:none;stroke:red;stroke-width:1px;stroke-linecap:butt;stroke-linejoin:miter;stroke-opacity:1" d="M 635.361,140.327 633.427,154.83 z" id="boundary" inkscape:connector-curvature="0" />
	<path style="fill:none;stroke:red;stroke-width:1px;stroke-linecap:butt;stroke-linejoin:miter;stroke-opacity:1" d="M 623.758,159.665 633.427,154.83 z" id="boundary" inkscape:connector-curvature="0" />
	<path style="fill:none;stroke:red;stroke-width:1px;stroke-linecap:butt;stroke-linejoin:miter;stroke-opacity:1" d="M 617.957,134.526 627.626,134.526 z" id="boundary" inkscape:connector-curvature="0" />
	<path style="fill:none;stroke:red;stroke-width:1px;stroke-linecap:butt;stroke-linejoin:miter;stroke-opacity:1" d="M 622.791,352.07 613.123,352.07 z" id="boundary" inkscape:connector-curvature="0" />
	<path style="fill:none;stroke:red;stroke-width:1px;stroke-linecap:butt;stroke-linejoin:miter;stroke-opacity:1" d="M 604.421,169.333 614.09,164.499 z" id="boundary" inkscape:connector-curvature="0" />
	<path style="fill:none;stroke:red;stroke-width:1px;stroke-linecap:butt;stroke-linejoin:miter;stroke-opacity:1" d="M 632.46,354.004 622.791,352.07 z" id="boundary" inkscape:connector-curvature="0" />
	<path style="fill:none;stroke:red;stroke-width:1px;stroke-linecap:butt;stroke-linejoin:miter;stroke-opacity:1" d="M 614.09,164.499 623.758,159.665 z" id="boundary" inkscape:connector-curvature="0" />
	<path style="fill:none;stroke:red;stroke-width:1px;stroke-linecap:butt;stroke-linejoin:miter;stroke-opacity:1" d="M 632.46,354.004 642.129,356.904 z" id="boundary" inkscape:connector-curvature="0" />
	<path style="fill:none;stroke:red;stroke-width:1px;stroke-linecap:butt;stroke-linejoin:miter;stroke-opacity:1" d="M 642.129,356.904 651.797,356.904 z" id="boundary" inkscape:connector-curvature="0" />
	<path style="fill:none;stroke:red;stroke-width:1px;stroke-linecap:butt;stroke-linejoin:miter;stroke-opacity:1" d="M 661.466,356.904 671.135,358.838 z" id="boundary" inkscape:connector-curvature="0" />
	<path style="fill:none;stroke:red;stroke-width:1px;stroke-linecap:butt;stroke-linejoin:miter;stroke-opacity:1" d="M 671.135,358.838 679.836,363.673 z" id="boundary" inkscape:connector-curvature="0" />
	<path style="fill:none;stroke:red;stroke-width:1px;stroke-linecap:butt;stroke-linejoin:miter;stroke-opacity:1" d="M 689.505,367.54 679.836,363.673 z" id="boundary" inkscape:connector-curvature="0" />
	<path style="fill:none;stroke:red;stroke-width:1px;stroke-linecap:butt;stroke-linejoin:miter;stroke-opacity:1" d="M 651.797,356.904 661.466,356.904 z" id="boundary" inkscape:connector-curvature="0" />
	<path style="fill:none;stroke:red;stroke-width:1px;stroke-linecap:butt;stroke-linejoin:miter;stroke-opacity:1" d="M 689.505,367.54 699.173,371.407 z" id="boundary" inkscape:connector-curvature="0" />
	<path style="fill:none;stroke:red;stroke-width:1px;stroke-linecap:butt;stroke-linejoin:miter;stroke-opacity:1" d="M 708.842,372.374 699.173,371.407 z" id="boundary" inkscape:connector-curvature="0" />
	<path style="fill:none;stroke:red;stroke-width:1px;stroke-linecap:butt;stroke-linejoin:miter;stroke-opacity:1" d="M 728.179,376.242 718.511,376.242 z" id="boundary" inkscape:connector-curvature="0" />
	<path style="fill:none;stroke:red;stroke-width:1px;stroke-linecap:butt;stroke-linejoin:miter;stroke-opacity:1" d="M 718.511,376.242 708.842,372.374 z" id="boundary" inkscape:connector-curvature="0" />
	<path style="fill:none;stroke:red;stroke-width:1px;stroke-linecap:butt;stroke-linejoin:miter;stroke-opacity:1" d="M 747.517,381.076 737.848,377.209 z" id="boundary" inkscape:connector-curvature="0" />
	<path style="fill:none;stroke:red;stroke-width:1px;stroke-linecap:butt;stroke-linejoin:miter;stroke-opacity:1" d="M 757.185,381.076 747.517,381.076 z" id="boundary" inkscape:connector-curvature="0" />
	<path style="fill:none;stroke:red;stroke-width:1px;stroke-linecap:butt;stroke-linejoin:miter;stroke-opacity:1" d="M 757.185,381.076 766.854,382.043 z" id="boundary" inkscape:connector-curvature="0" />
	<path style="fill:none;stroke:red;stroke-width:1px;stroke-linecap:butt;stroke-linejoin:miter;stroke-opacity:1" d="M 766.854,382.043 776.522,385.91 z" id="boundary" inkscape:connector-curvature="0" />
	<path style="fill:none;stroke:red;stroke-width:1px;stroke-linecap:butt;stroke-linejoin:miter;stroke-opacity:1" d="M 786.191,386.877 776.522,385.91 z" id="boundary" inkscape:connector-curvature="0" />
	<path style="fill:none;stroke:red;stroke-width:1px;stroke-linecap:butt;stroke-linejoin:miter;stroke-opacity:1" d="M 737.848,377.209 728.179,376.242 z" id="boundary" inkscape:connector-curvature="0" />
	<path style="fill:none;stroke:red;stroke-width:1px;stroke-linecap:butt;stroke-linejoin:miter;stroke-opacity:1" d="M 792.959,394.612 786.191,386.877 z" id="boundary" inkscape:connector-curvature="0" />
	<path style="fill:none;stroke:red;stroke-width:1px;stroke-linecap:butt;stroke-linejoin:miter;stroke-opacity:1" d="M 797.793,403.314 792.959,394.612 z" id="boundary" inkscape:connector-curvature="0" />
	<path style="fill:none;stroke:red;stroke-width:1px;stroke-linecap:butt;stroke-linejoin:miter;stroke-opacity:1" d="M 797.793,403.314 797.793,412.982 z" id="boundary" inkscape:connector-curvature="0" />
	<path style="fill:none;stroke:red;stroke-width:1px;stroke-linecap:butt;stroke-linejoin:miter;stroke-opacity:1" d="M 797.793,412.982 801.661,422.651 z" id="boundary" inkscape:connector-curvature="0" />
	<path style="fill:none;stroke:red;stroke-width:1px;stroke-linecap:butt;stroke-linejoin:miter;stroke-opacity:1" d="M 801.661,422.651 802.628,432.32 z" id="boundary" inkscape:connector-curvature="0" />
	<path style="fill:none;stroke:red;stroke-width:1px;stroke-linecap:butt;stroke-linejoin:miter;stroke-opacity:1" d="M 812.296,434.253 802.628,432.32 z" id="boundary" inkscape:connector-curvature="0" />
	<path style="fill:none;stroke:red;stroke-width:1px;stroke-linecap:butt;stroke-linejoin:miter;stroke-opacity:1" d="M 743.649,763.953 753.318,761.053 z" id="boundary" inkscape:connector-curvature="0" />
	<path style="fill:none;stroke:red;stroke-width:1px;stroke-linecap:butt;stroke-linejoin:miter;stroke-opacity:1" d="M 734.947,768.788 743.649,763.953 z" id="boundary" inkscape:connector-curvature="0" />
	<path style="fill:none;stroke:red;stroke-width:1px;stroke-linecap:butt;stroke-linejoin:miter;stroke-opacity:1" d="M 762.986,756.218 753.318,761.053 z" id="boundary" inkscape:connector-curvature="0" />
	<path style="fill:none;stroke:red;stroke-width:1px;stroke-linecap:butt;stroke-linejoin:miter;stroke-opacity:1" d="M 772.655,751.384 762.986,756.218 z" id="boundary" inkscape:connector-curvature="0" />
	<path style="fill:none;stroke:red;stroke-width:1px;stroke-linecap:butt;stroke-linejoin:miter;stroke-opacity:1" d="M 782.324,746.55 772.655,751.384 z" id="boundary" inkscape:connector-curvature="0" />
	<path style="fill:none;stroke:red;stroke-width:1px;stroke-linecap:butt;stroke-linejoin:miter;stroke-opacity:1" d="M 686.604,773.622 696.273,773.622 z" id="boundary" inkscape:connector-curvature="0" />
	<path style="fill:none;stroke:red;stroke-width:1px;stroke-linecap:butt;stroke-linejoin:miter;stroke-opacity:1" d="M 677.903,778.456 686.604,773.622 z" id="boundary" inkscape:connector-curvature="0" />
	<path style="fill:none;stroke:red;stroke-width:1px;stroke-linecap:butt;stroke-linejoin:miter;stroke-opacity:1" d="M 715.61,773.622 705.942,773.622 z" id="boundary" inkscape:connector-curvature="0" />
	<path style="fill:none;stroke:red;stroke-width:1px;stroke-linecap:butt;stroke-linejoin:miter;stroke-opacity:1" d="M 725.279,768.788 715.61,773.622 z" id="boundary" inkscape:connector-curvature="0" />
	<path style="fill:none;stroke:red;stroke-width:1px;stroke-linecap:butt;stroke-linejoin:miter;stroke-opacity:1" d="M 705.942,773.622 696.273,773.622 z" id="boundary" inkscape:connector-curvature="0" />
	<path style="fill:none;stroke:red;stroke-width:1px;stroke-linecap:butt;stroke-linejoin:miter;stroke-opacity:1" d="M 734.947,768.788 725.279,768.788 z" id="boundary" inkscape:connector-curvature="0" />
	<path style="fill:none;stroke:red;stroke-width:1px;stroke-linecap:butt;stroke-linejoin:miter;stroke-opacity:1" d="M 820.998,439.088 829.7,443.922 z" id="boundary" inkscape:connector-curvature="0" />
	<path style="fill:none;stroke:red;stroke-width:1px;stroke-linecap:butt;stroke-linejoin:miter;stroke-opacity:1" d="M 820.998,439.088 812.296,434.253 z" id="boundary" inkscape:connector-curvature="0" />
	<path style="fill:none;stroke:red;stroke-width:1px;stroke-linecap:butt;stroke-linejoin:miter;stroke-opacity:1" d="M 838.402,448.756 829.7,443.922 z" id="boundary" inkscape:connector-curvature="0" />
	<path style="fill:none;stroke:red;stroke-width:1px;stroke-linecap:butt;stroke-linejoin:miter;stroke-opacity:1" d="M 837.435,715.61 828.733,720.444 z" id="boundary" inkscape:connector-curvature="0" />
	<path style="fill:none;stroke:red;stroke-width:1px;stroke-linecap:butt;stroke-linejoin:miter;stroke-opacity:1" d="M 801.661,736.881 791.992,741.715 z" id="boundary" inkscape:connector-curvature="0" />
	<path style="fill:none;stroke:red;stroke-width:1px;stroke-linecap:butt;stroke-linejoin:miter;stroke-opacity:1" d="M 828.733,720.444 820.998,727.212 z" id="boundary" inkscape:connector-curvature="0" />
	<path style="fill:none;stroke:red;stroke-width:1px;stroke-linecap:butt;stroke-linejoin:miter;stroke-opacity:1" d="M 820.998,727.212 811.329,732.047 z" id="boundary" inkscape:connector-curvature="0" />
	<path style="fill:none;stroke:red;stroke-width:1px;stroke-linecap:butt;stroke-linejoin:miter;stroke-opacity:1" d="M 811.329,732.047 801.661,736.881 z" id="boundary" inkscape:connector-curvature="0" />
	<path style="fill:none;stroke:red;stroke-width:1px;stroke-linecap:butt;stroke-linejoin:miter;stroke-opacity:1" d="M 837.435,715.61 846.136,710.776 z" id="boundary" inkscape:connector-curvature="0" />
	<path style="fill:none;stroke:red;stroke-width:1px;stroke-linecap:butt;stroke-linejoin:miter;stroke-opacity:1" d="M 791.992,741.715 782.324,746.55 z" id="boundary" inkscape:connector-curvature="0" />
	<path style="fill:none;stroke:red;stroke-width:1px;stroke-linecap:butt;stroke-linejoin:miter;stroke-opacity:1" d="M 503.867,778.456 494.199,778.456 z" id="boundary" inkscape:connector-curvature="0" />
	<path style="fill:none;stroke:red;stroke-width:1px;stroke-linecap:butt;stroke-linejoin:miter;stroke-opacity:1" d="M 523.205,778.456 513.536,778.456 z" id="boundary" inkscape:connector-curvature="0" />
	<path style="fill:none;stroke:red;stroke-width:1px;stroke-linecap:butt;stroke-linejoin:miter;stroke-opacity:1" d="M 532.873,778.456 523.205,778.456 z" id="boundary" inkscape:connector-curvature="0" />
	<path style="fill:none;stroke:red;stroke-width:1px;stroke-linecap:butt;stroke-linejoin:miter;stroke-opacity:1" d="M 513.536,778.456 503.867,778.456 z" id="boundary" inkscape:connector-curvature="0" />
	<path style="fill:none;stroke:red;stroke-width:1px;stroke-linecap:butt;stroke-linejoin:miter;stroke-opacity:1" d="M 552.211,778.456 542.542,778.456 z" id="boundary" inkscape:connector-curvature="0" />
	<path style="fill:none;stroke:red;stroke-width:1px;stroke-linecap:butt;stroke-linejoin:miter;stroke-opacity:1" d="M 571.548,778.456 561.879,778.456 z" id="boundary" inkscape:connector-curvature="0" />
	<path style="fill:none;stroke:red;stroke-width:1px;stroke-linecap:butt;stroke-linejoin:miter;stroke-opacity:1" d="M 581.216,778.456 571.548,778.456 z" id="boundary" inkscape:connector-curvature="0" />
	<path style="fill:none;stroke:red;stroke-width:1px;stroke-linecap:butt;stroke-linejoin:miter;stroke-opacity:1" d="M 561.879,778.456 552.211,778.456 z" id="boundary" inkscape:connector-curvature="0" />
	<path style="fill:none;stroke:red;stroke-width:1px;stroke-linecap:butt;stroke-linejoin:miter;stroke-opacity:1" d="M 542.542,778.456 532.873,778.456 z" id="boundary" inkscape:connector-curvature="0" />
	<path style="fill:none;stroke:red;stroke-width:1px;stroke-linecap:butt;stroke-linejoin:miter;stroke-opacity:1" d="M 600.554,778.456 590.885,778.456 z" id="boundary" inkscape:connector-curvature="0" />
	<path style="fill:none;stroke:red;stroke-width:1px;stroke-linecap:butt;stroke-linejoin:miter;stroke-opacity:1" d="M 619.891,778.456 610.222,778.456 z" id="boundary" inkscape:connector-curvature="0" />
	<path style="fill:none;stroke:red;stroke-width:1px;stroke-linecap:butt;stroke-linejoin:miter;stroke-opacity:1" d="M 610.222,778.456 600.554,778.456 z" id="boundary" inkscape:connector-curvature="0" />
	<path style="fill:none;stroke:red;stroke-width:1px;stroke-linecap:butt;stroke-linejoin:miter;stroke-opacity:1" d="M 629.559,778.456 619.891,778.456 z" id="boundary" inkscape:connector-curvature="0" />
	<path style="fill:none;stroke:red;stroke-width:1px;stroke-linecap:butt;stroke-linejoin:miter;stroke-opacity:1" d="M 590.885,778.456 581.216,778.456 z" id="boundary" inkscape:connector-curvature="0" />
	<path style="fill:none;stroke:red;stroke-width:1px;stroke-linecap:butt;stroke-linejoin:miter;stroke-opacity:1" d="M 639.228,778.456 629.559,778.456 z" id="boundary" inkscape:connector-curvature="0" />
	<path style="fill:none;stroke:red;stroke-width:1px;stroke-linecap:butt;stroke-linejoin:miter;stroke-opacity:1" d="M 648.897,778.456 639.228,778.456 z" id="boundary" inkscape:connector-curvature="0" />
	<path style="fill:none;stroke:red;stroke-width:1px;stroke-linecap:butt;stroke-linejoin:miter;stroke-opacity:1" d="M 668.234,778.456 658.565,778.456 z" id="boundary" inkscape:connector-curvature="0" />
	<path style="fill:none;stroke:red;stroke-width:1px;stroke-linecap:butt;stroke-linejoin:miter;stroke-opacity:1" d="M 677.903,778.456 668.234,778.456 z" id="boundary" inkscape:connector-curvature="0" />
	<path style="fill:none;stroke:red;stroke-width:1px;stroke-linecap:butt;stroke-linejoin:miter;stroke-opacity:1" d="M 658.565,778.456 648.897,778.456 z" id="boundary" inkscape:connector-curvature="0" />
	<path style="fill:none;stroke:red;stroke-width:1px;stroke-linecap:butt;stroke-linejoin:miter;stroke-opacity:1" d="M 854.838,460.359 847.103,453.591 z" id="boundary" inkscape:connector-curvature="0" />
	<path style="fill:none;stroke:red;stroke-width:1px;stroke-linecap:butt;stroke-linejoin:miter;stroke-opacity:1" d="M 863.54,465.193 854.838,460.359 z" id="boundary" inkscape:connector-curvature="0" />
	<path style="fill:none;stroke:red;stroke-width:1px;stroke-linecap:butt;stroke-linejoin:miter;stroke-opacity:1" d="M 863.54,465.193 873.209,469.06 z" id="boundary" inkscape:connector-curvature="0" />
	<path style="fill:none;stroke:red;stroke-width:1px;stroke-linecap:butt;stroke-linejoin:miter;stroke-opacity:1" d="M 873.209,469.06 879.977,476.795 z" id="boundary" inkscape:connector-curvature="0" />
	<path style="fill:none;stroke:red;stroke-width:1px;stroke-linecap:butt;stroke-linejoin:miter;stroke-opacity:1" d="M 887.712,482.596 879.977,476.795 z" id="boundary" inkscape:connector-curvature="0" />
	<path style="fill:none;stroke:red;stroke-width:1px;stroke-linecap:butt;stroke-linejoin:miter;stroke-opacity:1" d="M 887.712,482.596 896.413,487.431 z" id="boundary" inkscape:connector-curvature="0" />
	<path style="fill:none;stroke:red;stroke-width:1px;stroke-linecap:butt;stroke-linejoin:miter;stroke-opacity:1" d="M 923.485,500 913.817,497.099 z" id="boundary" inkscape:connector-curvature="0" />
	<path style="fill:none;stroke:red;stroke-width:1px;stroke-linecap:butt;stroke-linejoin:miter;stroke-opacity:1" d="M 913.817,497.099 905.115,492.265 z" id="boundary" inkscape:connector-curvature="0" />
	<path style="fill:none;stroke:red;stroke-width:1px;stroke-linecap:butt;stroke-linejoin:miter;stroke-opacity:1" d="M 905.115,492.265 896.413,487.431 z" id="boundary" inkscape:connector-curvature="0" />
	<path style="fill:none;stroke:red;stroke-width:1px;stroke-linecap:butt;stroke-linejoin:miter;stroke-opacity:1" d="M 923.485,500 932.187,504.834 z" id="boundary" inkscape:connector-curvature="0" />
	<path style="fill:none;stroke:red;stroke-width:1px;stroke-linecap:butt;stroke-linejoin:miter;stroke-opacity:1" d="M 939.922,511.602 932.187,504.834 z" id="boundary" inkscape:connector-curvature="0" />
	<path style="fill:none;stroke:red;stroke-width:1px;stroke-linecap:butt;stroke-linejoin:miter;stroke-opacity:1" d="M 948.624,516.437 939.922,511.602 z" id="boundary" inkscape:connector-curvature="0" />
	<path style="fill:none;stroke:red;stroke-width:1px;stroke-linecap:butt;stroke-linejoin:miter;stroke-opacity:1" d="M 956.359,523.205 962.16,530.94 z" id="boundary" inkscape:connector-curvature="0" />
	<path style="fill:none;stroke:red;stroke-width:1px;stroke-linecap:butt;stroke-linejoin:miter;stroke-opacity:1" d="M 956.359,523.205 948.624,516.437 z" id="boundary" inkscape:connector-curvature="0" />
	<path style="fill:none;stroke:red;stroke-width:1px;stroke-linecap:butt;stroke-linejoin:miter;stroke-opacity:1" d="M 971.828,533.84 962.16,530.94 z" id="boundary" inkscape:connector-curvature="0" />
	<path style="fill:none;stroke:red;stroke-width:1px;stroke-linecap:butt;stroke-linejoin:miter;stroke-opacity:1" d="M 971.828,533.84 976.663,542.542 z" id="boundary" inkscape:connector-curvature="0" />
	<path style="fill:none;stroke:red;stroke-width:1px;stroke-linecap:butt;stroke-linejoin:miter;stroke-opacity:1" d="M 981.497,551.244 986.331,559.945 z" id="boundary" inkscape:connector-curvature="0" />
	<path style="fill:none;stroke:red;stroke-width:1px;stroke-linecap:butt;stroke-linejoin:miter;stroke-opacity:1" d="M 976.663,542.542 981.497,551.244 z" id="boundary" inkscape:connector-curvature="0" />
	<path style="fill:none;stroke:red;stroke-width:1px;stroke-linecap:butt;stroke-linejoin:miter;stroke-opacity:1" d="M 986.331,559.945 991.166,568.647 z" id="boundary" inkscape:connector-curvature="0" />
	<path style="fill:none;stroke:red;stroke-width:1px;stroke-linecap:butt;stroke-linejoin:miter;stroke-opacity:1" d="M 889.645,681.77 897.38,675.002 z" id="boundary" inkscape:connector-curvature="0" />
	<path style="fill:none;stroke:red;stroke-width:1px;stroke-linecap:butt;stroke-linejoin:miter;stroke-opacity:1" d="M 897.38,675.002 907.049,670.168 z" id="boundary" inkscape:connector-curvature="0" />
	<path style="fill:none;stroke:red;stroke-width:1px;stroke-linecap:butt;stroke-linejoin:miter;stroke-opacity:1" d="M 907.049,670.168 911.883,660.499 z" id="boundary" inkscape:connector-curvature="0" />
	<path style="fill:none;stroke:red;stroke-width:1px;stroke-linecap:butt;stroke-linejoin:miter;stroke-opacity:1" d="M 911.883,660.499 921.552,655.665 z" id="boundary" inkscape:connector-curvature="0" />
	<path style="fill:none;stroke:red;stroke-width:1px;stroke-linecap:butt;stroke-linejoin:miter;stroke-opacity:1" d="M 928.32,647.93 921.552,655.665 z" id="boundary" inkscape:connector-curvature="0" />
	<path style="fill:none;stroke:red;stroke-width:1px;stroke-linecap:butt;stroke-linejoin:miter;stroke-opacity:1" d="M 889.645,681.77 879.977,686.604 z" id="boundary" inkscape:connector-curvature="0" />
	<path style="fill:none;stroke:red;stroke-width:1px;stroke-linecap:butt;stroke-linejoin:miter;stroke-opacity:1" d="M 846.136,710.776 855.805,705.942 z" id="boundary" inkscape:connector-curvature="0" />
	<path style="fill:none;stroke:red;stroke-width:1px;stroke-linecap:butt;stroke-linejoin:miter;stroke-opacity:1" d="M 863.54,699.173 855.805,705.942 z" id="boundary" inkscape:connector-curvature="0" />
	<path style="fill:none;stroke:red;stroke-width:1px;stroke-linecap:butt;stroke-linejoin:miter;stroke-opacity:1" d="M 863.54,699.173 870.308,691.439 z" id="boundary" inkscape:connector-curvature="0" />
	<path style="fill:none;stroke:red;stroke-width:1px;stroke-linecap:butt;stroke-linejoin:miter;stroke-opacity:1" d="M 870.308,691.439 879.977,686.604 z" id="boundary" inkscape:connector-curvature="0" />
	<path style="fill:none;stroke:red;stroke-width:1px;stroke-linecap:butt;stroke-linejoin:miter;stroke-opacity:1" d="M 993.099,603.454 988.265,613.123 z" id="boundary" inkscape:connector-curvature="0" />
	<path style="fill:none;stroke:red;stroke-width:1px;stroke-linecap:butt;stroke-linejoin:miter;stroke-opacity:1" d="M 996,587.018 993.099,603.454 z" id="boundary" inkscape:connector-curvature="0" />
	<path style="fill:none;stroke:red;stroke-width:1px;stroke-linecap:butt;stroke-linejoin:miter;stroke-opacity:1" d="M 988.265,613.123 983.431,622.791 z" id="boundary" inkscape:connector-curvature="0" />
	<path style="fill:none;stroke:red;stroke-width:1px;stroke-linecap:butt;stroke-linejoin:miter;stroke-opacity:1" d="M 983.431,622.791 973.762,627.626 z" id="boundary" inkscape:connector-curvature="0" />
	<path style="fill:none;stroke:red;stroke-width:1px;stroke-linecap:butt;stroke-linejoin:miter;stroke-opacity:1" d="M 928.32,647.93 937.988,643.096 z" id="boundary" inkscape:connector-curvature="0" />
	<path style="fill:none;stroke:red;stroke-width:1px;stroke-linecap:butt;stroke-linejoin:miter;stroke-opacity:1" d="M 937.988,643.096 947.657,643.096 z" id="boundary" inkscape:connector-curvature="0" />
	<path style="fill:none;stroke:red;stroke-width:1px;stroke-linecap:butt;stroke-linejoin:miter;stroke-opacity:1" d="M 956.359,638.261 947.657,643.096 z" id="boundary" inkscape:connector-curvature="0" />
	<path style="fill:none;stroke:red;stroke-width:1px;stroke-linecap:butt;stroke-linejoin:miter;stroke-opacity:1" d="M 965.06,633.427 956.359,638.261 z" id="boundary" inkscape:connector-curvature="0" />
	<path style="fill:none;stroke:red;stroke-width:1px;stroke-linecap:butt;stroke-linejoin:miter;stroke-opacity:1" d="M 965.06,633.427 973.762,627.626 z" id="boundary" inkscape:connector-curvature="0" />
	<path style="fill:none;stroke:red;stroke-width:1px;stroke-linecap:butt;stroke-linejoin:miter;stroke-opacity:1" d="M 991.166,568.647 996,577.349 z" id="boundary" inkscape:connector-curvature="0" />
	<path style="fill:none;stroke:red;stroke-width:1px;stroke-linecap:butt;stroke-linejoin:miter;stroke-opacity:1" d="M 996,577.349 996,587.018 z" id="boundary" inkscape:connector-curvature="0" />
	<path style="fill:none;stroke:red;stroke-width:1px;stroke-linecap:butt;stroke-linejoin:miter;stroke-opacity:1" d="M 838.402,448.756 847.103,453.591 z" id="boundary" inkscape:connector-curvature="0" />
	<path style="fill:none;stroke:red;stroke-width:1px;stroke-linecap:butt;stroke-linejoin:miter;stroke-opacity:1" d="M 485.497,4 495.166,4 z" id="boundary" inkscape:connector-curvature="0" />
	<circle cx="4" cy="582.183" r="4" fill="#0" id="circle0"/>
	<circle cx="4" cy="591.852" r="4" fill="#0" id="circle1"/>
	<circle cx="4" cy="601.52" r="4" fill="#0" id="circle2"/>
	<circle cx="4" cy="611.189" r="4" fill="#0" id="circle3"/>
	<circle cx="4" cy="620.858" r="4" fill="#0" id="circle4"/>
	<circle cx="4" cy="630.526" r="4" fill="#0" id="circle5"/>
	<circle cx="4" cy="640.195" r="4" fill="#0" id="circle6"/>
	<circle cx="8.83431" cy="572.515" r="4" fill="#0" id="circle7"/>
	<circle cx="8.83431" cy="648.897" r="4" fill="#0" id="circle8"/>
	<circle cx="13.6686" cy="562.846" r="4" fill="#0" id="circle9"/>
	<circle cx="13.6686" cy="657.598" r="4" fill="#0" id="circle10"/>
	<circle cx="18.5029" cy="553.177" r="4" fill="#0" id="circle11"/>
	<circle cx="18.5029" cy="666.3" r="4" fill="#0" id="circle12"/>
	<circle cx="23.3372" cy="675.002" r="4" fill="#0" id="circle13"/>
	<circle cx="26.2378" cy="545.442" r="4" fill="#0" id="circle14"/>
	<circle cx="28.1715" cy="683.704" r="4" fill="#0" id="circle15"/>
	<circle cx="33.9727" cy="537.708" r="4" fill="#0" id="circle16"/>
	<circle cx="35.9064" cy="690.472" r="4" fill="#0" id="circle17"/>
	<circle cx="41.7076" cy="530.94" r="4" fill="#0" id="circle18"/>
	<circle cx="44.6082" cy="695.306" r="4" fill="#0" id="circle19"/>
	<circle cx="48.4756" cy="523.205" r="4" fill="#0" id="circle20"/>
	<circle cx="52.3431" cy="701.107" r="4" fill="#0" id="circle21"/>
	<circle cx="58.1442" cy="518.37" r="4" fill="#0" id="circle22"/>
	<circle cx="58.1442" cy="708.842" r="4" fill="#0" id="circle23"/>
	<circle cx="67.8129" cy="513.536" r="4" fill="#0" id="circle24"/>
	<circle cx="67.8129" cy="712.71" r="4" fill="#0" id="circle25"/>
	<circle cx="76.5146" cy="717.544" r="4" fill="#0" id="circle26"/>
	<circle cx="77.4815" cy="508.702" r="4" fill="#0" id="circle27"/>
	<circle cx="85.2164" cy="501.934" r="4" fill="#0" id="circle28"/>
	<circle cx="86.1832" cy="720.444" r="4" fill="#0" id="circle29"/>
	<circle cx="91.9844" cy="494.199" r="4" fill="#0" id="circle30"/>
	<circle cx="95.8519" cy="720.444" r="4" fill="#0" id="circle31"/>
	<circle cx="99.7193" cy="487.431" r="4" fill="#0" id="circle32"/>
	<circle cx="104.554" cy="725.279" r="4" fill="#0" id="circle33"/>
	<circle cx="108.421" cy="482.596" r="4" fill="#0" id="circle34"/>
	<circle cx="113.255" cy="730.113" r="4" fill="#0" id="circle35"/>
	<circle cx="116.156" cy="474.862" r="4" fill="#0" id="circle36"/>
	<circle cx="122.924" cy="733.981" r="4" fill="#0" id="circle37"/>
	<circle cx="123.891" cy="468.094" r="4" fill="#0" id="circle38"/>
	<circle cx="132.593" cy="463.259" r="4" fill="#0" id="circle39"/>
	<circle cx="132.593" cy="734.947" r="4" fill="#0" id="circle40"/>
	<circle cx="140.327" cy="455.524" r="4" fill="#0" id="circle41"/>
	<circle cx="142.261" cy="734.947" r="4" fill="#0" id="circle42"/>
	<circle cx="149.996" cy="450.69" r="4" fill="#0" id="circle43"/>
	<circle cx="151.93" cy="734.947" r="4" fill="#0" id="circle44"/>
	<circle cx="157.731" cy="443.922" r="4" fill="#0" id="circle45"/>
	<circle cx="160.632" cy="739.782" r="4" fill="#0" id="circle46"/>
	<circle cx="166.433" cy="439.088" r="4" fill="#0" id="circle47"/>
	<circle cx="170.3" cy="739.782" r="4" fill="#0" id="circle48"/>
	<circle cx="176.101" cy="439.088" r="4" fill="#0" id="circle49"/>
	<circle cx="179.969" cy="742.682" r="4" fill="#0" id="circle50"/>
	<circle cx="185.77" cy="434.253" r="4" fill="#0" id="circle51"/>
	<circle cx="189.637" cy="744.616" r="4" fill="#0" id="circle52"/>
	<circle cx="193.505" cy="426.519" r="4" fill="#0" id="circle53"/>
	<circle cx="198.339" cy="416.85" r="4" fill="#0" id="circle54"/>
	<circle cx="199.306" cy="744.616" r="4" fill="#0" id="circle55"/>
	<circle cx="206.074" cy="410.082" r="4" fill="#0" id="circle56"/>
	<circle cx="208.975" cy="744.616" r="4" fill="#0" id="circle57"/>
	<circle cx="212.842" cy="402.347" r="4" fill="#0" id="circle58"/>
	<circle cx="217.676" cy="749.45" r="4" fill="#0" id="circle59"/>
	<circle cx="220.577" cy="395.579" r="4" fill="#0" id="circle60"/>
	<circle cx="227.345" cy="751.384" r="4" fill="#0" id="circle61"/>
	<circle cx="229.279" cy="390.745" r="4" fill="#0" id="circle62"/>
	<circle cx="237.014" cy="754.285" r="4" fill="#0" id="circle63"/>
	<circle cx="238.947" cy="385.91" r="4" fill="#0" id="circle64"/>
	<circle cx="245.715" cy="759.119" r="4" fill="#0" id="circle65"/>
	<circle cx="248.616" cy="381.076" r="4" fill="#0" id="circle66"/>
	<circle cx="255.384" cy="759.119" r="4" fill="#0" id="circle67"/>
	<circle cx="258.285" cy="376.242" r="4" fill="#0" id="circle68"/>
	<circle cx="265.053" cy="759.119" r="4" fill="#0" id="circle69"/>
	<circle cx="267.953" cy="371.407" r="4" fill="#0" id="circle70"/>
	<circle cx="273.754" cy="763.953" r="4" fill="#0" id="circle71"/>
	<circle cx="277.622" cy="371.407" r="4" fill="#0" id="circle72"/>
	<circle cx="283.423" cy="763.953" r="4" fill="#0" id="circle73"/>
	<circle cx="286.324" cy="366.573" r="4" fill="#0" id="circle74"/>
	<circle cx="293.092" cy="763.953" r="4" fill="#0" id="circle75"/>
	<circle cx="295.992" cy="362.706" r="4" fill="#0" id="circle76"/>
	<circle cx="301.793" cy="768.788" r="4" fill="#0" id="circle77"/>
	<circle cx="305.661" cy="361.739" r="4" fill="#0" id="circle78"/>
	<circle cx="311.462" cy="768.788" r="4" fill="#0" id="circle79"/>
	<circle cx="314.363" cy="356.904" r="4" fill="#0" id="circle80"/>
	<circle cx="321.131" cy="768.788" r="4" fill="#0" id="circle81"/>
	<circle cx="324.031" cy="354.004" r="4" fill="#0" id="circle82"/>
	<circle cx="330.799" cy="768.788" r="4" fill="#0" id="circle83"/>
	<circle cx="333.7" cy="352.07" r="4" fill="#0" id="circle84"/>
	<circle cx="339.501" cy="773.622" r="4" fill="#0" id="circle85"/>
	<circle cx="342.402" cy="347.236" r="4" fill="#0" id="circle86"/>
	<circle cx="349.17" cy="773.622" r="4" fill="#0" id="circle87"/>
	<circle cx="352.07" cy="347.236" r="4" fill="#0" id="circle88"/>
	<circle cx="356.904" cy="151.93" r="4" fill="#0" id="circle89"/>
	<circle cx="358.838" cy="773.622" r="4" fill="#0" id="circle90"/>
	<circle cx="360.772" cy="342.402" r="4" fill="#0" id="circle91"/>
	<circle cx="361.739" cy="160.632" r="4" fill="#0" id="circle92"/>
	<circle cx="364.639" cy="144.195" r="4" fill="#0" id="circle93"/>
	<circle cx="368.507" cy="776.522" r="4" fill="#0" id="circle94"/>
	<circle cx="370.441" cy="342.402" r="4" fill="#0" id="circle95"/>
	<circle cx="371.407" cy="164.499" r="4" fill="#0" id="circle96"/>
	<circle cx="374.308" cy="139.361" r="4" fill="#0" id="circle97"/>
	<circle cx="378.175" cy="778.456" r="4" fill="#0" id="circle98"/>
	<circle cx="380.109" cy="342.402" r="4" fill="#0" id="circle99"/>
	<circle cx="381.076" cy="164.499" r="4" fill="#0" id="circle100"/>
	<circle cx="383.977" cy="139.361" r="4" fill="#0" id="circle101"/>
	<circle cx="387.844" cy="778.456" r="4" fill="#0" id="circle102"/>
	<circle cx="389.778" cy="342.402" r="4" fill="#0" id="circle103"/>
	<circle cx="390.745" cy="164.499" r="4" fill="#0" id="circle104"/>
	<circle cx="393.645" cy="134.526" r="4" fill="#0" id="circle105"/>
	<circle cx="397.513" cy="778.456" r="4" fill="#0" id="circle106"/>
	<circle cx="399.446" cy="342.402" r="4" fill="#0" id="circle107"/>
	<circle cx="400.413" cy="164.499" r="4" fill="#0" id="circle108"/>
	<circle cx="403.314" cy="134.526" r="4" fill="#0" id="circle109"/>
	<circle cx="407.181" cy="778.456" r="4" fill="#0" id="circle110"/>
	<circle cx="409.115" cy="342.402" r="4" fill="#0" id="circle111"/>
	<circle cx="410.082" cy="164.499" r="4" fill="#0" id="circle112"/>
	<circle cx="412.982" cy="134.526" r="4" fill="#0" id="circle113"/>
	<circle cx="416.85" cy="778.456" r="4" fill="#0" id="circle114"/>
	<circle cx="418.784" cy="342.402" r="4" fill="#0" id="circle115"/>
	<circle cx="419.75" cy="164.499" r="4" fill="#0" id="circle116"/>
	<circle cx="421.684" cy="129.692" r="4" fill="#0" id="circle117"/>
	<circle cx="426.519" cy="778.456" r="4" fill="#0" id="circle118"/>
	<circle cx="428.452" cy="169.333" r="4" fill="#0" id="circle119"/>
	<circle cx="428.452" cy="342.402" r="4" fill="#0" id="circle120"/>
	<circle cx="431.353" cy="129.692" r="4" fill="#0" id="circle121"/>
	<circle cx="436.187" cy="778.456" r="4" fill="#0" id="circle122"/>
	<circle cx="438.121" cy="169.333" r="4" fill="#0" id="circle123"/>
	<circle cx="438.121" cy="342.402" r="4" fill="#0" id="circle124"/>
	<circle cx="441.021" cy="129.692" r="4" fill="#0" id="circle125"/>
	<circle cx="443.922" cy="316.296" r="4" fill="#0" id="circle126"/>
	<circle cx="443.922" cy="325.965" r="4" fill="#0" id="circle127"/>
	<circle cx="444.889" cy="177.068" r="4" fill="#0" id="circle128"/>
	<circle cx="445.856" cy="778.456" r="4" fill="#0" id="circle129"/>
	<circle cx="448.756" cy="301.793" r="4" fill="#0" id="circle130"/>
	<circle cx="449.723" cy="185.77" r="4" fill="#0" id="circle131"/>
	<circle cx="450.69" cy="129.692" r="4" fill="#0" id="circle132"/>
	<circle cx="453.591" cy="26.2378" r="4" fill="#0" id="circle133"/>
	<circle cx="453.591" cy="35.9064" r="4" fill="#0" id="circle134"/>
	<circle cx="453.591" cy="277.622" r="4" fill="#0" id="circle135"/>
	<circle cx="453.591" cy="287.29" r="4" fill="#0" id="circle136"/>
	<circle cx="455.524" cy="778.456" r="4" fill="#0" id="circle137"/>
	<circle cx="458.425" cy="16.5692" r="4" fill="#0" id="circle138"/>
	<circle cx="458.425" cy="44.6082" r="4" fill="#0" id="circle139"/>
	<circle cx="458.425" cy="190.604" r="4" fill="#0" id="circle140"/>
	<circle cx="458.425" cy="258.285" r="4" fill="#0" id="circle141"/>
	<circle cx="458.425" cy="267.953" r="4" fill="#0" id="circle142"/>
	<circle cx="460.359" cy="125.825" r="4" fill="#0" id="circle143"/>
	<circle cx="463.259" cy="53.3099" r="4" fill="#0" id="circle144"/>
	<circle cx="463.259" cy="62.9786" r="4" fill="#0" id="circle145"/>
	<circle cx="463.259" cy="72.6472" r="4" fill="#0" id="circle146"/>
	<circle cx="463.259" cy="82.3158" r="4" fill="#0" id="circle147"/>
	<circle cx="463.259" cy="91.9844" r="4" fill="#0" id="circle148"/>
	<circle cx="463.259" cy="101.653" r="4" fill="#0" id="circle149"/>
	<circle cx="463.259" cy="111.322" r="4" fill="#0" id="circle150"/>
	<circle cx="463.259" cy="199.306" r="4" fill="#0" id="circle151"/>
	<circle cx="463.259" cy="208.975" r="4" fill="#0" id="circle152"/>
	<circle cx="463.259" cy="218.643" r="4" fill="#0" id="circle153"/>
	<circle cx="463.259" cy="228.312" r="4" fill="#0" id="circle154"/>
	<circle cx="463.259" cy="237.981" r="4" fill="#0" id="circle155"/>
	<circle cx="463.259" cy="247.649" r="4" fill="#0" id="circle156"/>
	<circle cx="465.193" cy="778.456" r="4" fill="#0" id="circle157"/>
	<circle cx="466.16" cy="8.83431" r="4" fill="#0" id="circle158"/>
	<circle cx="474.862" cy="778.456" r="4" fill="#0" id="circle159"/>
	<circle cx="475.828" cy="4" r="4" fill="#0" id="circle160"/>
	<circle cx="484.53" cy="778.456" r="4" fill="#0" id="circle161"/>
	<circle cx="485.497" cy="4" r="4" fill="#0" id="circle162"/>
	<circle cx="494.199" cy="778.456" r="4" fill="#0" id="circle163"/>
	<circle cx="495.166" cy="4" r="4" fill="#0" id="circle164"/>
	<circle cx="503.867" cy="8.83431" r="4" fill="#0" id="circle165"/>
	<circle cx="503.867" cy="778.456" r="4" fill="#0" id="circle166"/>
	<circle cx="507.735" cy="18.5029" r="4" fill="#0" id="circle167"/>
	<circle cx="512.569" cy="27.2047" r="4" fill="#0" id="circle168"/>
	<circle cx="513.536" cy="778.456" r="4" fill="#0" id="circle169"/>
	<circle cx="517.404" cy="35.9064" r="4" fill="#0" id="circle170"/>
	<circle cx="517.404" cy="45.575" r="4" fill="#0" id="circle171"/>
	<circle cx="522.238" cy="54.2768" r="4" fill="#0" id="circle172"/>
	<circle cx="522.238" cy="63.9454" r="4" fill="#0" id="circle173"/>
	<circle cx="523.205" cy="778.456" r="4" fill="#0" id="circle174"/>
	<circle cx="527.072" cy="72.6472" r="4" fill="#0" id="circle175"/>
	<circle cx="527.072" cy="82.3158" r="4" fill="#0" id="circle176"/>
	<circle cx="527.072" cy="91.9844" r="4" fill="#0" id="circle177"/>
	<circle cx="527.072" cy="101.653" r="4" fill="#0" id="circle178"/>
	<circle cx="529.006" cy="111.322" r="4" fill="#0" id="circle179"/>
	<circle cx="531.906" cy="203.173" r="4" fill="#0" id="circle180"/>
	<circle cx="531.906" cy="212.842" r="4" fill="#0" id="circle181"/>
	<circle cx="531.906" cy="222.511" r="4" fill="#0" id="circle182"/>
	<circle cx="531.906" cy="232.179" r="4" fill="#0" id="circle183"/>
	<circle cx="532.873" cy="778.456" r="4" fill="#0" id="circle184"/>
	<circle cx="533.84" cy="120.023" r="4" fill="#0" id="circle185"/>
	<circle cx="533.84" cy="241.848" r="4" fill="#0" id="circle186"/>
	<circle cx="536.741" cy="251.517" r="4" fill="#0" id="circle187"/>
	<circle cx="536.741" cy="261.185" r="4" fill="#0" id="circle188"/>
	<circle cx="536.741" cy="270.854" r="4" fill="#0" id="circle189"/>
	<circle cx="536.741" cy="280.522" r="4" fill="#0" id="circle190"/>
	<circle cx="536.741" cy="290.191" r="4" fill="#0" id="circle191"/>
	<circle cx="538.674" cy="299.86" r="4" fill="#0" id="circle192"/>
	<circle cx="540.608" cy="127.758" r="4" fill="#0" id="circle193"/>
	<circle cx="540.608" cy="198.339" r="4" fill="#0" id="circle194"/>
	<circle cx="541.575" cy="309.528" r="4" fill="#0" id="circle195"/>
	<circle cx="541.575" cy="319.197" r="4" fill="#0" id="circle196"/>
	<circle cx="541.575" cy="328.865" r="4" fill="#0" id="circle197"/>
	<circle cx="541.575" cy="338.534" r="4" fill="#0" id="circle198"/>
	<circle cx="542.542" cy="778.456" r="4" fill="#0" id="circle199"/>
	<circle cx="546.409" cy="347.236" r="4" fill="#0" id="circle200"/>
	<circle cx="548.343" cy="192.538" r="4" fill="#0" id="circle201"/>
	<circle cx="550.277" cy="129.692" r="4" fill="#0" id="circle202"/>
	<circle cx="552.211" cy="778.456" r="4" fill="#0" id="circle203"/>
	<circle cx="556.078" cy="347.236" r="4" fill="#0" id="circle204"/>
	<circle cx="558.012" cy="187.704" r="4" fill="#0" id="circle205"/>
	<circle cx="559.945" cy="129.692" r="4" fill="#0" id="circle206"/>
	<circle cx="561.879" cy="778.456" r="4" fill="#0" id="circle207"/>
	<circle cx="565.747" cy="347.236" r="4" fill="#0" id="circle208"/>
	<circle cx="567.68" cy="182.869" r="4" fill="#0" id="circle209"/>
	<circle cx="569.614" cy="129.692" r="4" fill="#0" id="circle210"/>
	<circle cx="571.548" cy="778.456" r="4" fill="#0" id="circle211"/>
	<circle cx="575.415" cy="347.236" r="4" fill="#0" id="circle212"/>
	<circle cx="577.349" cy="179.002" r="4" fill="#0" id="circle213"/>
	<circle cx="579.283" cy="129.692" r="4" fill="#0" id="circle214"/>
	<circle cx="581.216" cy="778.456" r="4" fill="#0" id="circle215"/>
	<circle cx="585.084" cy="347.236" r="4" fill="#0" id="circle216"/>
	<circle cx="586.051" cy="174.168" r="4" fill="#0" id="circle217"/>
	<circle cx="588.951" cy="129.692" r="4" fill="#0" id="circle218"/>
	<circle cx="590.885" cy="778.456" r="4" fill="#0" id="circle219"/>
	<circle cx="594.752" cy="347.236" r="4" fill="#0" id="circle220"/>
	<circle cx="595.719" cy="174.168" r="4" fill="#0" id="circle221"/>
	<circle cx="598.62" cy="131.626" r="4" fill="#0" id="circle222"/>
	<circle cx="600.554" cy="778.456" r="4" fill="#0" id="circle223"/>
	<circle cx="604.421" cy="169.333" r="4" fill="#0" id="circle224"/>
	<circle cx="604.421" cy="347.236" r="4" fill="#0" id="circle225"/>
	<circle cx="608.288" cy="134.526" r="4" fill="#0" id="circle226"/>
	<circle cx="610.222" cy="778.456" r="4" fill="#0" id="circle227"/>
	<circle cx="613.123" cy="352.07" r="4" fill="#0" id="circle228"/>
	<circle cx="614.09" cy="164.499" r="4" fill="#0" id="circle229"/>
	<circle cx="617.957" cy="134.526" r="4" fill="#0" id="circle230"/>
	<circle cx="619.891" cy="778.456" r="4" fill="#0" id="circle231"/>
	<circle cx="622.791" cy="352.07" r="4" fill="#0" id="circle232"/>
	<circle cx="623.758" cy="159.665" r="4" fill="#0" id="circle233"/>
	<circle cx="627.626" cy="134.526" r="4" fill="#0" id="circle234"/>
	<circle cx="629.559" cy="778.456" r="4" fill="#0" id="circle235"/>
	<circle cx="632.46" cy="354.004" r="4" fill="#0" id="circle236"/>
	<circle cx="633.427" cy="154.83" r="4" fill="#0" id="circle237"/>
	<circle cx="635.361" cy="140.327" r="4" fill="#0" id="circle238"/>
	<circle cx="639.228" cy="778.456" r="4" fill="#0" id="circle239"/>
	<circle cx="642.129" cy="356.904" r="4" fill="#0" id="circle240"/>
	<circle cx="648.897" cy="778.456" r="4" fill="#0" id="circle241"/>
	<circle cx="651.797" cy="356.904" r="4" fill="#0" id="circle242"/>
	<circle cx="658.565" cy="778.456" r="4" fill="#0" id="circle243"/>
	<circle cx="661.466" cy="356.904" r="4" fill="#0" id="circle244"/>
	<circle cx="668.234" cy="778.456" r="4" fill="#0" id="circle245"/>
	<circle cx="671.135" cy="358.838" r="4" fill="#0" id="circle246"/>
	<circle cx="677.903" cy="778.456" r="4" fill="#0" id="circle247"/>
	<circle cx="679.836" cy="363.673" r="4" fill="#0" id="circle248"/>
	<circle cx="686.604" cy="773.622" r="4" fill="#0" id="circle249"/>
	<circle cx="689.505" cy="367.54" r="4" fill="#0" id="circle250"/>
	<circle cx="696.273" cy="773.622" r="4" fill="#0" id="circle251"/>
	<circle cx="699.173" cy="371.407" r="4" fill="#0" id="circle252"/>
	<circle cx="705.942" cy="773.622" r="4" fill="#0" id="circle253"/>
	<circle cx="708.842" cy="372.374" r="4" fill="#0" id="circle254"/>
	<circle cx="715.61" cy="773.622" r="4" fill="#0" id="circle255"/>
	<circle cx="718.511" cy="376.242" r="4" fill="#0" id="circle256"/>
	<circle cx="725.279" cy="768.788" r="4" fill="#0" id="circle257"/>
	<circle cx="728.179" cy="376.242" r="4" fill="#0" id="circle258"/>
	<circle cx="734.947" cy="768.788" r="4" fill="#0" id="circle259"/>
	<circle cx="737.848" cy="377.209" r="4" fill="#0" id="circle260"/>
	<circle cx="743.649" cy="763.953" r="4" fill="#0" id="circle261"/>
	<circle cx="747.517" cy="381.076" r="4" fill="#0" id="circle262"/>
	<circle cx="753.318" cy="761.053" r="4" fill="#0" id="circle263"/>
	<circle cx="757.185" cy="381.076" r="4" fill="#0" id="circle264"/>
	<circle cx="762.986" cy="756.218" r="4" fill="#0" id="circle265"/>
	<circle cx="766.854" cy="382.043" r="4" fill="#0" id="circle266"/>
	<circle cx="772.655" cy="751.384" r="4" fill="#0" id="circle267"/>
	<circle cx="776.522" cy="385.91" r="4" fill="#0" id="circle268"/>
	<circle cx="782.324" cy="746.55" r="4" fill="#0" id="circle269"/>
	<circle cx="786.191" cy="386.877" r="4" fill="#0" id="circle270"/>
	<circle cx="791.992" cy="741.715" r="4" fill="#0" id="circle271"/>
	<circle cx="792.959" cy="394.612" r="4" fill="#0" id="circle272"/>
	<circle cx="797.793" cy="403.314" r="4" fill="#0" id="circle273"/>
	<circle cx="797.793" cy="412.982" r="4" fill="#0" id="circle274"/>
	<circle cx="801.661" cy="422.651" r="4" fill="#0" id="circle275"/>
	<circle cx="801.661" cy="736.881" r="4" fill="#0" id="circle276"/>
	<circle cx="802.628" cy="432.32" r="4" fill="#0" id="circle277"/>
	<circle cx="811.329" cy="732.047" r="4" fill="#0" id="circle278"/>
	<circle cx="812.296" cy="434.253" r="4" fill="#0" id="circle279"/>
	<circle cx="820.998" cy="439.088" r="4" fill="#0" id="circle280"/>
	<circle cx="820.998" cy="727.212" r="4" fill="#0" id="circle281"/>
	<circle cx="828.733" cy="720.444" r="4" fill="#0" id="circle282"/>
	<circle cx="829.7" cy="443.922" r="4" fill="#0" id="circle283"/>
	<circle cx="837.435" cy="715.61" r="4" fill="#0" id="circle284"/>
	<circle cx="838.402" cy="448.756" r="4" fill="#0" id="circle285"/>
	<circle cx="846.136" cy="710.776" r="4" fill="#0" id="circle286"/>
	<circle cx="847.103" cy="453.591" r="4" fill="#0" id="circle287"/>
	<circle cx="854.838" cy="460.359" r="4" fill="#0" id="circle288"/>
	<circle cx="855.805" cy="705.942" r="4" fill="#0" id="circle289"/>
	<circle cx="863.54" cy="465.193" r="4" fill="#0" id="circle290"/>
	<circle cx="863.54" cy="699.173" r="4" fill="#0" id="circle291"/>
	<circle cx="870.308" cy="691.439" r="4" fill="#0" id="circle292"/>
	<circle cx="873.209" cy="469.06" r="4" fill="#0" id="circle293"/>
	<circle cx="879.977" cy="476.795" r="4" fill="#0" id="circle294"/>
	<circle cx="879.977" cy="686.604" r="4" fill="#0" id="circle295"/>
	<circle cx="887.712" cy="482.596" r="4" fill="#0" id="circle296"/>
	<circle cx="889.645" cy="681.77" r="4" fill="#0" id="circle297"/>
	<circle cx="896.413" cy="487.431" r="4" fill="#0" id="circle298"/>
	<circle cx="897.38" cy="675.002" r="4" fill="#0" id="circle299"/>
	<circle cx="905.115" cy="492.265" r="4" fill="#0" id="circle300"/>
	<circle cx="907.049" cy="670.168" r="4" fill="#0" id="circle301"/>
	<circle cx="911.883" cy="660.499" r="4" fill="#0" id="circle302"/>
	<circle cx="913.817" cy="497.099" r="4" fill="#0" id="circle303"/>
	<circle cx="921.552" cy="655.665" r="4" fill="#0" id="circle304"/>
	<circle cx="923.485" cy="500" r="4" fill="#0" id="circle305"/>
	<circle cx="928.32" cy="647.93" r="4" fill="#0" id="circle306"/>
	<circle cx="932.187" cy="504.834" r="4" fill="#0" id="circle307"/>
	<circle cx="937.988" cy="643.096" r="4" fill="#0" id="circle308"/>
	<circle cx="939.922" cy="511.602" r="4" fill="#0" id="circle309"/>
	<circle cx="947.657" cy="643.096" r="4" fill="#0" id="circle310"/>
	<circle cx="948.624" cy="516.437" r="4" fill="#0" id="circle311"/>
	<circle cx="956.359" cy="523.205" r="4" fill="#0" id="circle312"/>
	<circle cx="956.359" cy="638.261" r="4" fill="#0" id="circle313"/>
	<circle cx="962.16" cy="530.94" r="4" fill="#0" id="circle314"/>
	<circle cx="965.06" cy="633.427" r="4" fill="#0" id="circle315"/>
	<circle cx="971.828" cy="533.84" r="4" fill="#0" id="circle316"/>
	<circle cx="973.762" cy="627.626" r="4" fill="#0" id="circle317"/>
	<circle cx="976.663" cy="542.542" r="4" fill="#0" id="circle318"/>
	<circle cx="981.497" cy="551.244" r="4" fill="#0" id="circle319"/>
	<circle cx="983.431" cy="622.791" r="4" fill="#0" id="circle320"/>
	<circle cx="986.331" cy="559.945" r="4" fill="#0" id="circle321"/>
	<circle cx="988.265" cy="613.123" r="4" fill="#0" id="circle322"/>
	<circle cx="991.166" cy="568.647" r="4" fill="#0" id="circle323"/>
	<circle cx="993.099" cy="603.454" r="4" fill="#0" id="circle324"/>
	<circle cx="996" cy="577.349" r="4" fill="#0" id="circle325"/>
	<circle cx="996" cy="587.018" r="4" fill="#0" id="circle326"/>
	</g>
</svg>