<?xml version="1.0" encoding="UTF-8" standalone="no"?>
<!-- Created with CurveBenchmark -->
<svg
	xmlns:dc="http://purl.org/dc/elements/1.1/"
	xmlns:cc="http://creativecommons.org/ns#"
	xmlns:rdf="http://www.w3.org/1999/02/22-rdf-syntax-ns#"
	xmlns:svg="http://www.w3.org/2000/svg"
	xmlns="http://www.w3.org/2000/svg"
	xmlns:sodipodi="http://sodipodi.sourceforge.net/DTD/sodipodi-0.dtd"
	xmlns:inkscape="http://www.inkscape.org/namespaces/inkscape"
	width="1000"
	height="1000"
	id="svg2"
	version="1.1"
	sodipodi:docname="manifold/gathan1-flatfish12.png.txt">
<defs
	id="defs4" />
<metadata
	id="metadata7">
	<rdf:RDF>
		<cc:Work
			rdf:about="">
			<dc:format>image/svg+xml</dc:format>
			<dc:type
				rdf:resource="http://purl.org/dc/dcmitype/StillImage" />
			<dc:title></dc:title>
		</cc:Work>
	</rdf:RDF>
</metadata>
<g
	inkscape:label="Layer 1"
	inkscape:groupmode="layer"
	id="layer1">
	<path style="fill:none;stroke:red;stroke-width:1px;stroke-linecap:butt;stroke-linejoin:miter;stroke-opacity:1" d="M 43.9165,203.583 58.7004,203.583 z" id="boundary" inkscape:connector-curvature="0" />
	<path style="fill:none;stroke:red;stroke-width:1px;stroke-linecap:butt;stroke-linejoin:miter;stroke-opacity:1" d="M 30.611,210.975 43.9165,203.583 z" id="boundary" inkscape:connector-curvature="0" />
	<path style="fill:none;stroke:red;stroke-width:1px;stroke-linecap:butt;stroke-linejoin:miter;stroke-opacity:1" d="M 18.7839,222.802 30.611,210.975 z" id="boundary" inkscape:connector-curvature="0" />
	<path style="fill:none;stroke:red;stroke-width:1px;stroke-linecap:butt;stroke-linejoin:miter;stroke-opacity:1" d="M 11.392,237.586 18.7839,222.802 z" id="boundary" inkscape:connector-curvature="0" />
	<path style="fill:none;stroke:red;stroke-width:1px;stroke-linecap:butt;stroke-linejoin:miter;stroke-opacity:1" d="M 58.7004,203.583 73.4844,203.583 z" id="boundary" inkscape:connector-curvature="0" />
	<path style="fill:none;stroke:red;stroke-width:1px;stroke-linecap:butt;stroke-linejoin:miter;stroke-opacity:1" d="M 88.2683,203.583 101.574,210.975 z" id="boundary" inkscape:connector-curvature="0" />
	<path style="fill:none;stroke:red;stroke-width:1px;stroke-linecap:butt;stroke-linejoin:miter;stroke-opacity:1" d="M 73.4844,203.583 88.2683,203.583 z" id="boundary" inkscape:connector-curvature="0" />
	<path style="fill:none;stroke:red;stroke-width:1px;stroke-linecap:butt;stroke-linejoin:miter;stroke-opacity:1" d="M 116.358,215.41 101.574,210.975 z" id="boundary" inkscape:connector-curvature="0" />
	<path style="fill:none;stroke:red;stroke-width:1px;stroke-linecap:butt;stroke-linejoin:miter;stroke-opacity:1" d="M 145.925,218.367 131.142,218.367 z" id="boundary" inkscape:connector-curvature="0" />
	<path style="fill:none;stroke:red;stroke-width:1px;stroke-linecap:butt;stroke-linejoin:miter;stroke-opacity:1" d="M 131.142,218.367 116.358,215.41 z" id="boundary" inkscape:connector-curvature="0" />
	<path style="fill:none;stroke:red;stroke-width:1px;stroke-linecap:butt;stroke-linejoin:miter;stroke-opacity:1" d="M 145.925,218.367 159.231,225.759 z" id="boundary" inkscape:connector-curvature="0" />
	<path style="fill:none;stroke:red;stroke-width:1px;stroke-linecap:butt;stroke-linejoin:miter;stroke-opacity:1" d="M 4,259.762 11.392,237.586 z" id="boundary" inkscape:connector-curvature="0" />
	<path style="fill:none;stroke:red;stroke-width:1px;stroke-linecap:butt;stroke-linejoin:miter;stroke-opacity:1" d="M 4,274.545 4,259.762 z" id="boundary" inkscape:connector-curvature="0" />
	<path style="fill:none;stroke:red;stroke-width:1px;stroke-linecap:butt;stroke-linejoin:miter;stroke-opacity:1" d="M 4,289.329 4,274.545 z" id="boundary" inkscape:connector-curvature="0" />
	<path style="fill:none;stroke:red;stroke-width:1px;stroke-linecap:butt;stroke-linejoin:miter;stroke-opacity:1" d="M 4,304.113 4,289.329 z" id="boundary" inkscape:connector-curvature="0" />
	<path style="fill:none;stroke:red;stroke-width:1px;stroke-linecap:butt;stroke-linejoin:miter;stroke-opacity:1" d="M 159.231,225.759 174.015,228.715 z" id="boundary" inkscape:connector-curvature="0" />
	<path style="fill:none;stroke:red;stroke-width:1px;stroke-linecap:butt;stroke-linejoin:miter;stroke-opacity:1" d="M 188.799,233.151 174.015,228.715 z" id="boundary" inkscape:connector-curvature="0" />
	<path style="fill:none;stroke:red;stroke-width:1px;stroke-linecap:butt;stroke-linejoin:miter;stroke-opacity:1" d="M 203.583,233.151 188.799,233.151 z" id="boundary" inkscape:connector-curvature="0" />
	<path style="fill:none;stroke:red;stroke-width:1px;stroke-linecap:butt;stroke-linejoin:miter;stroke-opacity:1" d="M 218.367,233.151 203.583,233.151 z" id="boundary" inkscape:connector-curvature="0" />
	<path style="fill:none;stroke:red;stroke-width:1px;stroke-linecap:butt;stroke-linejoin:miter;stroke-opacity:1" d="M 233.151,233.151 218.367,233.151 z" id="boundary" inkscape:connector-curvature="0" />
	<path style="fill:none;stroke:red;stroke-width:1px;stroke-linecap:butt;stroke-linejoin:miter;stroke-opacity:1" d="M 392.817,55.7437 404.644,43.9165 z" id="boundary" inkscape:connector-curvature="0" />
	<path style="fill:none;stroke:red;stroke-width:1px;stroke-linecap:butt;stroke-linejoin:miter;stroke-opacity:1" d="M 392.817,55.7437 379.511,63.1356 z" id="boundary" inkscape:connector-curvature="0" />
	<path style="fill:none;stroke:red;stroke-width:1px;stroke-linecap:butt;stroke-linejoin:miter;stroke-opacity:1" d="M 367.684,73.4844 379.511,63.1356 z" id="boundary" inkscape:connector-curvature="0" />
	<path style="fill:none;stroke:red;stroke-width:1px;stroke-linecap:butt;stroke-linejoin:miter;stroke-opacity:1" d="M 367.684,73.4844 357.335,85.3115 z" id="boundary" inkscape:connector-curvature="0" />
	<path style="fill:none;stroke:red;stroke-width:1px;stroke-linecap:butt;stroke-linejoin:miter;stroke-opacity:1" d="M 357.335,85.3115 345.508,95.6602 z" id="boundary" inkscape:connector-curvature="0" />
	<path style="fill:none;stroke:red;stroke-width:1px;stroke-linecap:butt;stroke-linejoin:miter;stroke-opacity:1" d="M 416.471,33.5678 404.644,43.9165 z" id="boundary" inkscape:connector-curvature="0" />
	<path style="fill:none;stroke:red;stroke-width:1px;stroke-linecap:butt;stroke-linejoin:miter;stroke-opacity:1" d="M 472.65,11.392 459.344,18.7839 z" id="boundary" inkscape:connector-curvature="0" />
	<path style="fill:none;stroke:red;stroke-width:1px;stroke-linecap:butt;stroke-linejoin:miter;stroke-opacity:1" d="M 459.344,18.7839 444.56,18.7839 z" id="boundary" inkscape:connector-curvature="0" />
	<path style="fill:none;stroke:red;stroke-width:1px;stroke-linecap:butt;stroke-linejoin:miter;stroke-opacity:1" d="M 485.955,4 472.65,11.392 z" id="boundary" inkscape:connector-curvature="0" />
	<path style="fill:none;stroke:red;stroke-width:1px;stroke-linecap:butt;stroke-linejoin:miter;stroke-opacity:1" d="M 429.776,26.1759 416.471,33.5678 z" id="boundary" inkscape:connector-curvature="0" />
	<path style="fill:none;stroke:red;stroke-width:1px;stroke-linecap:butt;stroke-linejoin:miter;stroke-opacity:1" d="M 429.776,26.1759 444.56,18.7839 z" id="boundary" inkscape:connector-curvature="0" />
	<path style="fill:none;stroke:red;stroke-width:1px;stroke-linecap:butt;stroke-linejoin:miter;stroke-opacity:1" d="M 274.545,181.407 286.373,169.58 z" id="boundary" inkscape:connector-curvature="0" />
	<path style="fill:none;stroke:red;stroke-width:1px;stroke-linecap:butt;stroke-linejoin:miter;stroke-opacity:1" d="M 293.765,154.796 286.373,169.58 z" id="boundary" inkscape:connector-curvature="0" />
	<path style="fill:none;stroke:red;stroke-width:1px;stroke-linecap:butt;stroke-linejoin:miter;stroke-opacity:1" d="M 246.456,225.759 255.326,208.018 z" id="boundary" inkscape:connector-curvature="0" />
	<path style="fill:none;stroke:red;stroke-width:1px;stroke-linecap:butt;stroke-linejoin:miter;stroke-opacity:1" d="M 246.456,225.759 233.151,233.151 z" id="boundary" inkscape:connector-curvature="0" />
	<path style="fill:none;stroke:red;stroke-width:1px;stroke-linecap:butt;stroke-linejoin:miter;stroke-opacity:1" d="M 262.718,193.234 255.326,208.018 z" id="boundary" inkscape:connector-curvature="0" />
	<path style="fill:none;stroke:red;stroke-width:1px;stroke-linecap:butt;stroke-linejoin:miter;stroke-opacity:1" d="M 262.718,193.234 274.545,181.407 z" id="boundary" inkscape:connector-curvature="0" />
	<path style="fill:none;stroke:red;stroke-width:1px;stroke-linecap:butt;stroke-linejoin:miter;stroke-opacity:1" d="M 345.508,95.6602 335.159,107.487 z" id="boundary" inkscape:connector-curvature="0" />
	<path style="fill:none;stroke:red;stroke-width:1px;stroke-linecap:butt;stroke-linejoin:miter;stroke-opacity:1" d="M 335.159,107.487 323.332,117.836 z" id="boundary" inkscape:connector-curvature="0" />
	<path style="fill:none;stroke:red;stroke-width:1px;stroke-linecap:butt;stroke-linejoin:miter;stroke-opacity:1" d="M 312.984,129.663 323.332,117.836 z" id="boundary" inkscape:connector-curvature="0" />
	<path style="fill:none;stroke:red;stroke-width:1px;stroke-linecap:butt;stroke-linejoin:miter;stroke-opacity:1" d="M 293.765,154.796 301.156,140.012 z" id="boundary" inkscape:connector-curvature="0" />
	<path style="fill:none;stroke:red;stroke-width:1px;stroke-linecap:butt;stroke-linejoin:miter;stroke-opacity:1" d="M 301.156,140.012 312.984,129.663 z" id="boundary" inkscape:connector-curvature="0" />
	<path style="fill:none;stroke:red;stroke-width:1px;stroke-linecap:butt;stroke-linejoin:miter;stroke-opacity:1" d="M 4,348.465 4,333.681 z" id="boundary" inkscape:connector-curvature="0" />
	<path style="fill:none;stroke:red;stroke-width:1px;stroke-linecap:butt;stroke-linejoin:miter;stroke-opacity:1" d="M 11.392,376.554 4,363.249 z" id="boundary" inkscape:connector-curvature="0" />
	<path style="fill:none;stroke:red;stroke-width:1px;stroke-linecap:butt;stroke-linejoin:miter;stroke-opacity:1" d="M 4,363.249 4,348.465 z" id="boundary" inkscape:connector-curvature="0" />
	<path style="fill:none;stroke:red;stroke-width:1px;stroke-linecap:butt;stroke-linejoin:miter;stroke-opacity:1" d="M 4,333.681 4,318.897 z" id="boundary" inkscape:connector-curvature="0" />
	<path style="fill:none;stroke:red;stroke-width:1px;stroke-linecap:butt;stroke-linejoin:miter;stroke-opacity:1" d="M 208.018,375.076 193.234,375.076 z" id="boundary" inkscape:connector-curvature="0" />
	<path style="fill:none;stroke:red;stroke-width:1px;stroke-linecap:butt;stroke-linejoin:miter;stroke-opacity:1" d="M 179.928,382.468 193.234,375.076 z" id="boundary" inkscape:connector-curvature="0" />
	<path style="fill:none;stroke:red;stroke-width:1px;stroke-linecap:butt;stroke-linejoin:miter;stroke-opacity:1" d="M 222.802,375.076 208.018,375.076 z" id="boundary" inkscape:connector-curvature="0" />
	<path style="fill:none;stroke:red;stroke-width:1px;stroke-linecap:butt;stroke-linejoin:miter;stroke-opacity:1" d="M 236.107,367.684 222.802,375.076 z" id="boundary" inkscape:connector-curvature="0" />
	<path style="fill:none;stroke:red;stroke-width:1px;stroke-linecap:butt;stroke-linejoin:miter;stroke-opacity:1" d="M 165.145,386.903 179.928,382.468 z" id="boundary" inkscape:connector-curvature="0" />
	<path style="fill:none;stroke:red;stroke-width:1px;stroke-linecap:butt;stroke-linejoin:miter;stroke-opacity:1" d="M 236.107,367.684 250.891,372.119 z" id="boundary" inkscape:connector-curvature="0" />
	<path style="fill:none;stroke:red;stroke-width:1px;stroke-linecap:butt;stroke-linejoin:miter;stroke-opacity:1" d="M 21.7407,388.382 36.5246,394.295 z" id="boundary" inkscape:connector-curvature="0" />
	<path style="fill:none;stroke:red;stroke-width:1px;stroke-linecap:butt;stroke-linejoin:miter;stroke-opacity:1" d="M 36.5246,394.295 48.3517,404.644 z" id="boundary" inkscape:connector-curvature="0" />
	<path style="fill:none;stroke:red;stroke-width:1px;stroke-linecap:butt;stroke-linejoin:miter;stroke-opacity:1" d="M 48.3517,404.644 63.1356,404.644 z" id="boundary" inkscape:connector-curvature="0" />
	<path style="fill:none;stroke:red;stroke-width:1px;stroke-linecap:butt;stroke-linejoin:miter;stroke-opacity:1" d="M 77.9195,404.644 63.1356,404.644 z" id="boundary" inkscape:connector-curvature="0" />
	<path style="fill:none;stroke:red;stroke-width:1px;stroke-linecap:butt;stroke-linejoin:miter;stroke-opacity:1" d="M 21.7407,388.382 11.392,376.554 z" id="boundary" inkscape:connector-curvature="0" />
	<path style="fill:none;stroke:red;stroke-width:1px;stroke-linecap:butt;stroke-linejoin:miter;stroke-opacity:1" d="M 137.055,397.252 122.271,397.252 z" id="boundary" inkscape:connector-curvature="0" />
	<path style="fill:none;stroke:red;stroke-width:1px;stroke-linecap:butt;stroke-linejoin:miter;stroke-opacity:1" d="M 150.361,389.86 137.055,397.252 z" id="boundary" inkscape:connector-curvature="0" />
	<path style="fill:none;stroke:red;stroke-width:1px;stroke-linecap:butt;stroke-linejoin:miter;stroke-opacity:1" d="M 122.271,397.252 107.487,400.209 z" id="boundary" inkscape:connector-curvature="0" />
	<path style="fill:none;stroke:red;stroke-width:1px;stroke-linecap:butt;stroke-linejoin:miter;stroke-opacity:1" d="M 150.361,389.86 165.145,386.903 z" id="boundary" inkscape:connector-curvature="0" />
	<path style="fill:none;stroke:red;stroke-width:1px;stroke-linecap:butt;stroke-linejoin:miter;stroke-opacity:1" d="M 92.7034,404.644 107.487,400.209 z" id="boundary" inkscape:connector-curvature="0" />
	<path style="fill:none;stroke:red;stroke-width:1px;stroke-linecap:butt;stroke-linejoin:miter;stroke-opacity:1" d="M 92.7034,404.644 77.9195,404.644 z" id="boundary" inkscape:connector-curvature="0" />
	<path style="fill:none;stroke:red;stroke-width:1px;stroke-linecap:butt;stroke-linejoin:miter;stroke-opacity:1" d="M 4,318.897 4,304.113 z" id="boundary" inkscape:connector-curvature="0" />
	<path style="fill:none;stroke:red;stroke-width:1px;stroke-linecap:butt;stroke-linejoin:miter;stroke-opacity:1" d="M 262.718,382.468 267.154,397.252 z" id="boundary" inkscape:connector-curvature="0" />
	<path style="fill:none;stroke:red;stroke-width:1px;stroke-linecap:butt;stroke-linejoin:miter;stroke-opacity:1" d="M 262.718,382.468 250.891,372.119 z" id="boundary" inkscape:connector-curvature="0" />
	<path style="fill:none;stroke:red;stroke-width:1px;stroke-linecap:butt;stroke-linejoin:miter;stroke-opacity:1" d="M 267.154,397.252 278.981,407.601 z" id="boundary" inkscape:connector-curvature="0" />
	<path style="fill:none;stroke:red;stroke-width:1px;stroke-linecap:butt;stroke-linejoin:miter;stroke-opacity:1" d="M 278.981,407.601 284.894,422.385 z" id="boundary" inkscape:connector-curvature="0" />
	<path style="fill:none;stroke:red;stroke-width:1px;stroke-linecap:butt;stroke-linejoin:miter;stroke-opacity:1" d="M 296.721,432.733 284.894,422.385 z" id="boundary" inkscape:connector-curvature="0" />
	<path style="fill:none;stroke:red;stroke-width:1px;stroke-linecap:butt;stroke-linejoin:miter;stroke-opacity:1" d="M 296.721,432.733 307.07,444.56 z" id="boundary" inkscape:connector-curvature="0" />
	<path style="fill:none;stroke:red;stroke-width:1px;stroke-linecap:butt;stroke-linejoin:miter;stroke-opacity:1" d="M 318.897,454.909 307.07,444.56 z" id="boundary" inkscape:connector-curvature="0" />
	<path style="fill:none;stroke:red;stroke-width:1px;stroke-linecap:butt;stroke-linejoin:miter;stroke-opacity:1" d="M 341.073,477.085 329.246,466.736 z" id="boundary" inkscape:connector-curvature="0" />
	<path style="fill:none;stroke:red;stroke-width:1px;stroke-linecap:butt;stroke-linejoin:miter;stroke-opacity:1" d="M 329.246,466.736 318.897,454.909 z" id="boundary" inkscape:connector-curvature="0" />
	<path style="fill:none;stroke:red;stroke-width:1px;stroke-linecap:butt;stroke-linejoin:miter;stroke-opacity:1" d="M 341.073,477.085 351.422,488.912 z" id="boundary" inkscape:connector-curvature="0" />
	<path style="fill:none;stroke:red;stroke-width:1px;stroke-linecap:butt;stroke-linejoin:miter;stroke-opacity:1" d="M 351.422,488.912 363.249,499.261 z" id="boundary" inkscape:connector-curvature="0" />
	<path style="fill:none;stroke:red;stroke-width:1px;stroke-linecap:butt;stroke-linejoin:miter;stroke-opacity:1" d="M 363.249,499.261 373.598,511.088 z" id="boundary" inkscape:connector-curvature="0" />
	<path style="fill:none;stroke:red;stroke-width:1px;stroke-linecap:butt;stroke-linejoin:miter;stroke-opacity:1" d="M 373.598,511.088 385.425,521.437 z" id="boundary" inkscape:connector-curvature="0" />
	<path style="fill:none;stroke:red;stroke-width:1px;stroke-linecap:butt;stroke-linejoin:miter;stroke-opacity:1" d="M 385.425,521.437 395.773,533.264 z" id="boundary" inkscape:connector-curvature="0" />
	<path style="fill:none;stroke:red;stroke-width:1px;stroke-linecap:butt;stroke-linejoin:miter;stroke-opacity:1" d="M 407.601,543.613 395.773,533.264 z" id="boundary" inkscape:connector-curvature="0" />
	<path style="fill:none;stroke:red;stroke-width:1px;stroke-linecap:butt;stroke-linejoin:miter;stroke-opacity:1" d="M 432.733,559.875 417.949,555.44 z" id="boundary" inkscape:connector-curvature="0" />
	<path style="fill:none;stroke:red;stroke-width:1px;stroke-linecap:butt;stroke-linejoin:miter;stroke-opacity:1" d="M 417.949,555.44 407.601,543.613 z" id="boundary" inkscape:connector-curvature="0" />
	<path style="fill:none;stroke:red;stroke-width:1px;stroke-linecap:butt;stroke-linejoin:miter;stroke-opacity:1" d="M 471.171,585.007 456.387,579.094 z" id="boundary" inkscape:connector-curvature="0" />
	<path style="fill:none;stroke:red;stroke-width:1px;stroke-linecap:butt;stroke-linejoin:miter;stroke-opacity:1" d="M 456.387,579.094 446.039,567.267 z" id="boundary" inkscape:connector-curvature="0" />
	<path style="fill:none;stroke:red;stroke-width:1px;stroke-linecap:butt;stroke-linejoin:miter;stroke-opacity:1" d="M 471.171,585.007 484.477,592.399 z" id="boundary" inkscape:connector-curvature="0" />
	<path style="fill:none;stroke:red;stroke-width:1px;stroke-linecap:butt;stroke-linejoin:miter;stroke-opacity:1" d="M 432.733,559.875 446.039,567.267 z" id="boundary" inkscape:connector-curvature="0" />
	<path style="fill:none;stroke:red;stroke-width:1px;stroke-linecap:butt;stroke-linejoin:miter;stroke-opacity:1" d="M 500.739,4 515.523,4 z" id="boundary" inkscape:connector-curvature="0" />
	<path style="fill:none;stroke:red;stroke-width:1px;stroke-linecap:butt;stroke-linejoin:miter;stroke-opacity:1" d="M 530.307,4 545.091,4 z" id="boundary" inkscape:connector-curvature="0" />
	<path style="fill:none;stroke:red;stroke-width:1px;stroke-linecap:butt;stroke-linejoin:miter;stroke-opacity:1" d="M 545.091,4 559.875,4 z" id="boundary" inkscape:connector-curvature="0" />
	<path style="fill:none;stroke:red;stroke-width:1px;stroke-linecap:butt;stroke-linejoin:miter;stroke-opacity:1" d="M 515.523,4 530.307,4 z" id="boundary" inkscape:connector-curvature="0" />
	<path style="fill:none;stroke:red;stroke-width:1px;stroke-linecap:butt;stroke-linejoin:miter;stroke-opacity:1" d="M 559.875,4 574.659,4 z" id="boundary" inkscape:connector-curvature="0" />
	<path style="fill:none;stroke:red;stroke-width:1px;stroke-linecap:butt;stroke-linejoin:miter;stroke-opacity:1" d="M 589.443,4 604.227,4 z" id="boundary" inkscape:connector-curvature="0" />
	<path style="fill:none;stroke:red;stroke-width:1px;stroke-linecap:butt;stroke-linejoin:miter;stroke-opacity:1" d="M 604.227,4 619.01,8.43517 z" id="boundary" inkscape:connector-curvature="0" />
	<path style="fill:none;stroke:red;stroke-width:1px;stroke-linecap:butt;stroke-linejoin:miter;stroke-opacity:1" d="M 633.794,11.392 619.01,8.43517 z" id="boundary" inkscape:connector-curvature="0" />
	<path style="fill:none;stroke:red;stroke-width:1px;stroke-linecap:butt;stroke-linejoin:miter;stroke-opacity:1" d="M 574.659,4 589.443,4 z" id="boundary" inkscape:connector-curvature="0" />
	<path style="fill:none;stroke:red;stroke-width:1px;stroke-linecap:butt;stroke-linejoin:miter;stroke-opacity:1" d="M 633.794,11.392 647.1,18.7839 z" id="boundary" inkscape:connector-curvature="0" />
	<path style="fill:none;stroke:red;stroke-width:1px;stroke-linecap:butt;stroke-linejoin:miter;stroke-opacity:1" d="M 661.884,21.7407 647.1,18.7839 z" id="boundary" inkscape:connector-curvature="0" />
	<path style="fill:none;stroke:red;stroke-width:1px;stroke-linecap:butt;stroke-linejoin:miter;stroke-opacity:1" d="M 689.973,33.5678 675.189,29.1326 z" id="boundary" inkscape:connector-curvature="0" />
	<path style="fill:none;stroke:red;stroke-width:1px;stroke-linecap:butt;stroke-linejoin:miter;stroke-opacity:1" d="M 675.189,29.1326 661.884,21.7407 z" id="boundary" inkscape:connector-curvature="0" />
	<path style="fill:none;stroke:red;stroke-width:1px;stroke-linecap:butt;stroke-linejoin:miter;stroke-opacity:1" d="M 689.973,33.5678 703.279,40.9598 z" id="boundary" inkscape:connector-curvature="0" />
	<path style="fill:none;stroke:red;stroke-width:1px;stroke-linecap:butt;stroke-linejoin:miter;stroke-opacity:1" d="M 703.279,40.9598 718.063,40.9598 z" id="boundary" inkscape:connector-curvature="0" />
	<path style="fill:none;stroke:red;stroke-width:1px;stroke-linecap:butt;stroke-linejoin:miter;stroke-opacity:1" d="M 732.846,40.9598 718.063,40.9598 z" id="boundary" inkscape:connector-curvature="0" />
	<path style="fill:none;stroke:red;stroke-width:1px;stroke-linecap:butt;stroke-linejoin:miter;stroke-opacity:1" d="M 732.846,40.9598 743.195,52.7869 z" id="boundary" inkscape:connector-curvature="0" />
	<path style="fill:none;stroke:red;stroke-width:1px;stroke-linecap:butt;stroke-linejoin:miter;stroke-opacity:1" d="M 743.195,52.7869 757.979,58.7004 z" id="boundary" inkscape:connector-curvature="0" />
	<path style="fill:none;stroke:red;stroke-width:1px;stroke-linecap:butt;stroke-linejoin:miter;stroke-opacity:1" d="M 771.285,66.0924 757.979,58.7004 z" id="boundary" inkscape:connector-curvature="0" />
	<path style="fill:none;stroke:red;stroke-width:1px;stroke-linecap:butt;stroke-linejoin:miter;stroke-opacity:1" d="M 771.285,66.0924 781.633,77.9195 z" id="boundary" inkscape:connector-curvature="0" />
	<path style="fill:none;stroke:red;stroke-width:1px;stroke-linecap:butt;stroke-linejoin:miter;stroke-opacity:1" d="M 781.633,77.9195 793.461,86.7899 z" id="boundary" inkscape:connector-curvature="0" />
	<path style="fill:none;stroke:red;stroke-width:1px;stroke-linecap:butt;stroke-linejoin:miter;stroke-opacity:1" d="M 793.461,86.7899 803.809,98.617 z" id="boundary" inkscape:connector-curvature="0" />
	<path style="fill:none;stroke:red;stroke-width:1px;stroke-linecap:butt;stroke-linejoin:miter;stroke-opacity:1" d="M 803.809,98.617 818.593,104.531 z" id="boundary" inkscape:connector-curvature="0" />
	<path style="fill:none;stroke:red;stroke-width:1px;stroke-linecap:butt;stroke-linejoin:miter;stroke-opacity:1" d="M 831.899,111.923 818.593,104.531 z" id="boundary" inkscape:connector-curvature="0" />
	<path style="fill:none;stroke:red;stroke-width:1px;stroke-linecap:butt;stroke-linejoin:miter;stroke-opacity:1" d="M 831.899,111.923 843.726,122.271 z" id="boundary" inkscape:connector-curvature="0" />
	<path style="fill:none;stroke:red;stroke-width:1px;stroke-linecap:butt;stroke-linejoin:miter;stroke-opacity:1" d="M 843.726,122.271 857.031,129.663 z" id="boundary" inkscape:connector-curvature="0" />
	<path style="fill:none;stroke:red;stroke-width:1px;stroke-linecap:butt;stroke-linejoin:miter;stroke-opacity:1" d="M 889.556,160.709 877.729,150.361 z" id="boundary" inkscape:connector-curvature="0" />
	<path style="fill:none;stroke:red;stroke-width:1px;stroke-linecap:butt;stroke-linejoin:miter;stroke-opacity:1" d="M 877.729,150.361 870.337,137.055 z" id="boundary" inkscape:connector-curvature="0" />
	<path style="fill:none;stroke:red;stroke-width:1px;stroke-linecap:butt;stroke-linejoin:miter;stroke-opacity:1" d="M 857.031,129.663 870.337,137.055 z" id="boundary" inkscape:connector-curvature="0" />
	<path style="fill:none;stroke:red;stroke-width:1px;stroke-linecap:butt;stroke-linejoin:miter;stroke-opacity:1" d="M 889.556,160.709 899.905,172.537 z" id="boundary" inkscape:connector-curvature="0" />
	<path style="fill:none;stroke:red;stroke-width:1px;stroke-linecap:butt;stroke-linejoin:miter;stroke-opacity:1" d="M 899.905,172.537 911.732,182.885 z" id="boundary" inkscape:connector-curvature="0" />
	<path style="fill:none;stroke:red;stroke-width:1px;stroke-linecap:butt;stroke-linejoin:miter;stroke-opacity:1" d="M 925.037,190.277 911.732,182.885 z" id="boundary" inkscape:connector-curvature="0" />
	<path style="fill:none;stroke:red;stroke-width:1px;stroke-linecap:butt;stroke-linejoin:miter;stroke-opacity:1" d="M 925.037,190.277 936.864,200.626 z" id="boundary" inkscape:connector-curvature="0" />
	<path style="fill:none;stroke:red;stroke-width:1px;stroke-linecap:butt;stroke-linejoin:miter;stroke-opacity:1" d="M 936.864,200.626 942.778,215.41 z" id="boundary" inkscape:connector-curvature="0" />
	<path style="fill:none;stroke:red;stroke-width:1px;stroke-linecap:butt;stroke-linejoin:miter;stroke-opacity:1" d="M 954.605,225.759 942.778,215.41 z" id="boundary" inkscape:connector-curvature="0" />
	<path style="fill:none;stroke:red;stroke-width:1px;stroke-linecap:butt;stroke-linejoin:miter;stroke-opacity:1" d="M 954.605,225.759 967.911,233.151 z" id="boundary" inkscape:connector-curvature="0" />
	<path style="fill:none;stroke:red;stroke-width:1px;stroke-linecap:butt;stroke-linejoin:miter;stroke-opacity:1" d="M 981.216,240.542 967.911,233.151 z" id="boundary" inkscape:connector-curvature="0" />
	<path style="fill:none;stroke:red;stroke-width:1px;stroke-linecap:butt;stroke-linejoin:miter;stroke-opacity:1" d="M 996,264.197 996,278.981 z" id="boundary" inkscape:connector-curvature="0" />
	<path style="fill:none;stroke:red;stroke-width:1px;stroke-linecap:butt;stroke-linejoin:miter;stroke-opacity:1" d="M 981.216,240.542 993.043,249.413 z" id="boundary" inkscape:connector-curvature="0" />
	<path style="fill:none;stroke:red;stroke-width:1px;stroke-linecap:butt;stroke-linejoin:miter;stroke-opacity:1" d="M 993.043,249.413 996,264.197 z" id="boundary" inkscape:connector-curvature="0" />
	<path style="fill:none;stroke:red;stroke-width:1px;stroke-linecap:butt;stroke-linejoin:miter;stroke-opacity:1" d="M 697.365,582.051 684.06,589.443 z" id="boundary" inkscape:connector-curvature="0" />
	<path style="fill:none;stroke:red;stroke-width:1px;stroke-linecap:butt;stroke-linejoin:miter;stroke-opacity:1" d="M 684.06,589.443 669.276,592.399 z" id="boundary" inkscape:connector-curvature="0" />
	<path style="fill:none;stroke:red;stroke-width:1px;stroke-linecap:butt;stroke-linejoin:miter;stroke-opacity:1" d="M 710.671,574.659 697.365,582.051 z" id="boundary" inkscape:connector-curvature="0" />
	<path style="fill:none;stroke:red;stroke-width:1px;stroke-linecap:butt;stroke-linejoin:miter;stroke-opacity:1" d="M 484.477,592.399 499.261,596.835 z" id="boundary" inkscape:connector-curvature="0" />
	<path style="fill:none;stroke:red;stroke-width:1px;stroke-linecap:butt;stroke-linejoin:miter;stroke-opacity:1" d="M 499.261,596.835 512.566,604.227 z" id="boundary" inkscape:connector-curvature="0" />
	<path style="fill:none;stroke:red;stroke-width:1px;stroke-linecap:butt;stroke-linejoin:miter;stroke-opacity:1" d="M 654.492,599.791 669.276,592.399 z" id="boundary" inkscape:connector-curvature="0" />
	<path style="fill:none;stroke:red;stroke-width:1px;stroke-linecap:butt;stroke-linejoin:miter;stroke-opacity:1" d="M 747.63,543.613 759.458,530.307 z" id="boundary" inkscape:connector-curvature="0" />
	<path style="fill:none;stroke:red;stroke-width:1px;stroke-linecap:butt;stroke-linejoin:miter;stroke-opacity:1" d="M 759.458,530.307 772.763,522.915 z" id="boundary" inkscape:connector-curvature="0" />
	<path style="fill:none;stroke:red;stroke-width:1px;stroke-linecap:butt;stroke-linejoin:miter;stroke-opacity:1" d="M 747.63,543.613 735.803,555.44 z" id="boundary" inkscape:connector-curvature="0" />
	<path style="fill:none;stroke:red;stroke-width:1px;stroke-linecap:butt;stroke-linejoin:miter;stroke-opacity:1" d="M 735.803,555.44 723.976,567.267 z" id="boundary" inkscape:connector-curvature="0" />
	<path style="fill:none;stroke:red;stroke-width:1px;stroke-linecap:butt;stroke-linejoin:miter;stroke-opacity:1" d="M 723.976,567.267 710.671,574.659 z" id="boundary" inkscape:connector-curvature="0" />
	<path style="fill:none;stroke:red;stroke-width:1px;stroke-linecap:butt;stroke-linejoin:miter;stroke-opacity:1" d="M 512.566,604.227 525.872,611.618 z" id="boundary" inkscape:connector-curvature="0" />
	<path style="fill:none;stroke:red;stroke-width:1px;stroke-linecap:butt;stroke-linejoin:miter;stroke-opacity:1" d="M 540.656,611.618 525.872,611.618 z" id="boundary" inkscape:connector-curvature="0" />
	<path style="fill:none;stroke:red;stroke-width:1px;stroke-linecap:butt;stroke-linejoin:miter;stroke-opacity:1" d="M 568.745,619.01 553.961,619.01 z" id="boundary" inkscape:connector-curvature="0" />
	<path style="fill:none;stroke:red;stroke-width:1px;stroke-linecap:butt;stroke-linejoin:miter;stroke-opacity:1" d="M 553.961,619.01 540.656,611.618 z" id="boundary" inkscape:connector-curvature="0" />
	<path style="fill:none;stroke:red;stroke-width:1px;stroke-linecap:butt;stroke-linejoin:miter;stroke-opacity:1" d="M 639.708,604.227 654.492,599.791 z" id="boundary" inkscape:connector-curvature="0" />
	<path style="fill:none;stroke:red;stroke-width:1px;stroke-linecap:butt;stroke-linejoin:miter;stroke-opacity:1" d="M 626.402,611.618 639.708,604.227 z" id="boundary" inkscape:connector-curvature="0" />
	<path style="fill:none;stroke:red;stroke-width:1px;stroke-linecap:butt;stroke-linejoin:miter;stroke-opacity:1" d="M 611.618,611.618 596.835,611.618 z" id="boundary" inkscape:connector-curvature="0" />
	<path style="fill:none;stroke:red;stroke-width:1px;stroke-linecap:butt;stroke-linejoin:miter;stroke-opacity:1" d="M 611.618,611.618 626.402,611.618 z" id="boundary" inkscape:connector-curvature="0" />
	<path style="fill:none;stroke:red;stroke-width:1px;stroke-linecap:butt;stroke-linejoin:miter;stroke-opacity:1" d="M 583.529,619.01 596.835,611.618 z" id="boundary" inkscape:connector-curvature="0" />
	<path style="fill:none;stroke:red;stroke-width:1px;stroke-linecap:butt;stroke-linejoin:miter;stroke-opacity:1" d="M 583.529,619.01 568.745,619.01 z" id="boundary" inkscape:connector-curvature="0" />
	<path style="fill:none;stroke:red;stroke-width:1px;stroke-linecap:butt;stroke-linejoin:miter;stroke-opacity:1" d="M 926.516,379.511 936.864,367.684 z" id="boundary" inkscape:connector-curvature="0" />
	<path style="fill:none;stroke:red;stroke-width:1px;stroke-linecap:butt;stroke-linejoin:miter;stroke-opacity:1" d="M 919.124,394.295 926.516,379.511 z" id="boundary" inkscape:connector-curvature="0" />
	<path style="fill:none;stroke:red;stroke-width:1px;stroke-linecap:butt;stroke-linejoin:miter;stroke-opacity:1" d="M 889.556,431.255 896.948,416.471 z" id="boundary" inkscape:connector-curvature="0" />
	<path style="fill:none;stroke:red;stroke-width:1px;stroke-linecap:butt;stroke-linejoin:miter;stroke-opacity:1" d="M 896.948,416.471 907.297,404.644 z" id="boundary" inkscape:connector-curvature="0" />
	<path style="fill:none;stroke:red;stroke-width:1px;stroke-linecap:butt;stroke-linejoin:miter;stroke-opacity:1" d="M 919.124,394.295 907.297,404.644 z" id="boundary" inkscape:connector-curvature="0" />
	<path style="fill:none;stroke:red;stroke-width:1px;stroke-linecap:butt;stroke-linejoin:miter;stroke-opacity:1" d="M 936.864,367.684 948.692,357.335 z" id="boundary" inkscape:connector-curvature="0" />
	<path style="fill:none;stroke:red;stroke-width:1px;stroke-linecap:butt;stroke-linejoin:miter;stroke-opacity:1" d="M 996,293.765 993.043,312.984 z" id="boundary" inkscape:connector-curvature="0" />
	<path style="fill:none;stroke:red;stroke-width:1px;stroke-linecap:butt;stroke-linejoin:miter;stroke-opacity:1" d="M 993.043,312.984 981.216,323.332 z" id="boundary" inkscape:connector-curvature="0" />
	<path style="fill:none;stroke:red;stroke-width:1px;stroke-linecap:butt;stroke-linejoin:miter;stroke-opacity:1" d="M 981.216,323.332 970.867,335.159 z" id="boundary" inkscape:connector-curvature="0" />
	<path style="fill:none;stroke:red;stroke-width:1px;stroke-linecap:butt;stroke-linejoin:miter;stroke-opacity:1" d="M 948.692,357.335 959.04,345.508 z" id="boundary" inkscape:connector-curvature="0" />
	<path style="fill:none;stroke:red;stroke-width:1px;stroke-linecap:butt;stroke-linejoin:miter;stroke-opacity:1" d="M 959.04,345.508 970.867,335.159 z" id="boundary" inkscape:connector-curvature="0" />
	<path style="fill:none;stroke:red;stroke-width:1px;stroke-linecap:butt;stroke-linejoin:miter;stroke-opacity:1" d="M 803.809,485.955 815.636,475.607 z" id="boundary" inkscape:connector-curvature="0" />
	<path style="fill:none;stroke:red;stroke-width:1px;stroke-linecap:butt;stroke-linejoin:miter;stroke-opacity:1" d="M 825.985,463.779 815.636,475.607 z" id="boundary" inkscape:connector-curvature="0" />
	<path style="fill:none;stroke:red;stroke-width:1px;stroke-linecap:butt;stroke-linejoin:miter;stroke-opacity:1" d="M 791.982,499.261 784.59,514.045 z" id="boundary" inkscape:connector-curvature="0" />
	<path style="fill:none;stroke:red;stroke-width:1px;stroke-linecap:butt;stroke-linejoin:miter;stroke-opacity:1" d="M 784.59,514.045 772.763,522.915 z" id="boundary" inkscape:connector-curvature="0" />
	<path style="fill:none;stroke:red;stroke-width:1px;stroke-linecap:butt;stroke-linejoin:miter;stroke-opacity:1" d="M 791.982,499.261 803.809,485.955 z" id="boundary" inkscape:connector-curvature="0" />
	<path style="fill:none;stroke:red;stroke-width:1px;stroke-linecap:butt;stroke-linejoin:miter;stroke-opacity:1" d="M 862.945,441.604 848.161,441.604 z" id="boundary" inkscape:connector-curvature="0" />
	<path style="fill:none;stroke:red;stroke-width:1px;stroke-linecap:butt;stroke-linejoin:miter;stroke-opacity:1" d="M 889.556,431.255 877.729,441.604 z" id="boundary" inkscape:connector-curvature="0" />
	<path style="fill:none;stroke:red;stroke-width:1px;stroke-linecap:butt;stroke-linejoin:miter;stroke-opacity:1" d="M 877.729,441.604 862.945,441.604 z" id="boundary" inkscape:connector-curvature="0" />
	<path style="fill:none;stroke:red;stroke-width:1px;stroke-linecap:butt;stroke-linejoin:miter;stroke-opacity:1" d="M 837.812,453.431 848.161,441.604 z" id="boundary" inkscape:connector-curvature="0" />
	<path style="fill:none;stroke:red;stroke-width:1px;stroke-linecap:butt;stroke-linejoin:miter;stroke-opacity:1" d="M 825.985,463.779 837.812,453.431 z" id="boundary" inkscape:connector-curvature="0" />
	<path style="fill:none;stroke:red;stroke-width:1px;stroke-linecap:butt;stroke-linejoin:miter;stroke-opacity:1" d="M 996,278.981 996,293.765 z" id="boundary" inkscape:connector-curvature="0" />
	<path style="fill:none;stroke:red;stroke-width:1px;stroke-linecap:butt;stroke-linejoin:miter;stroke-opacity:1" d="M 485.955,4 500.739,4 z" id="boundary" inkscape:connector-curvature="0" />
	<circle cx="4" cy="259.762" r="4" fill="#0" id="circle0"/>
	<circle cx="4" cy="274.545" r="4" fill="#0" id="circle1"/>
	<circle cx="4" cy="289.329" r="4" fill="#0" id="circle2"/>
	<circle cx="4" cy="304.113" r="4" fill="#0" id="circle3"/>
	<circle cx="4" cy="318.897" r="4" fill="#0" id="circle4"/>
	<circle cx="4" cy="333.681" r="4" fill="#0" id="circle5"/>
	<circle cx="4" cy="348.465" r="4" fill="#0" id="circle6"/>
	<circle cx="4" cy="363.249" r="4" fill="#0" id="circle7"/>
	<circle cx="11.392" cy="237.586" r="4" fill="#0" id="circle8"/>
	<circle cx="11.392" cy="376.554" r="4" fill="#0" id="circle9"/>
	<circle cx="18.7839" cy="222.802" r="4" fill="#0" id="circle10"/>
	<circle cx="21.7407" cy="388.382" r="4" fill="#0" id="circle11"/>
	<circle cx="30.611" cy="210.975" r="4" fill="#0" id="circle12"/>
	<circle cx="36.5246" cy="394.295" r="4" fill="#0" id="circle13"/>
	<circle cx="43.9165" cy="203.583" r="4" fill="#0" id="circle14"/>
	<circle cx="48.3517" cy="404.644" r="4" fill="#0" id="circle15"/>
	<circle cx="58.7004" cy="203.583" r="4" fill="#0" id="circle16"/>
	<circle cx="63.1356" cy="404.644" r="4" fill="#0" id="circle17"/>
	<circle cx="73.4844" cy="203.583" r="4" fill="#0" id="circle18"/>
	<circle cx="77.9195" cy="404.644" r="4" fill="#0" id="circle19"/>
	<circle cx="88.2683" cy="203.583" r="4" fill="#0" id="circle20"/>
	<circle cx="92.7034" cy="404.644" r="4" fill="#0" id="circle21"/>
	<circle cx="101.574" cy="210.975" r="4" fill="#0" id="circle22"/>
	<circle cx="107.487" cy="400.209" r="4" fill="#0" id="circle23"/>
	<circle cx="116.358" cy="215.41" r="4" fill="#0" id="circle24"/>
	<circle cx="122.271" cy="397.252" r="4" fill="#0" id="circle25"/>
	<circle cx="131.142" cy="218.367" r="4" fill="#0" id="circle26"/>
	<circle cx="137.055" cy="397.252" r="4" fill="#0" id="circle27"/>
	<circle cx="145.925" cy="218.367" r="4" fill="#0" id="circle28"/>
	<circle cx="150.361" cy="389.86" r="4" fill="#0" id="circle29"/>
	<circle cx="159.231" cy="225.759" r="4" fill="#0" id="circle30"/>
	<circle cx="165.145" cy="386.903" r="4" fill="#0" id="circle31"/>
	<circle cx="174.015" cy="228.715" r="4" fill="#0" id="circle32"/>
	<circle cx="179.928" cy="382.468" r="4" fill="#0" id="circle33"/>
	<circle cx="188.799" cy="233.151" r="4" fill="#0" id="circle34"/>
	<circle cx="193.234" cy="375.076" r="4" fill="#0" id="circle35"/>
	<circle cx="203.583" cy="233.151" r="4" fill="#0" id="circle36"/>
	<circle cx="208.018" cy="375.076" r="4" fill="#0" id="circle37"/>
	<circle cx="218.367" cy="233.151" r="4" fill="#0" id="circle38"/>
	<circle cx="222.802" cy="375.076" r="4" fill="#0" id="circle39"/>
	<circle cx="233.151" cy="233.151" r="4" fill="#0" id="circle40"/>
	<circle cx="236.107" cy="367.684" r="4" fill="#0" id="circle41"/>
	<circle cx="246.456" cy="225.759" r="4" fill="#0" id="circle42"/>
	<circle cx="250.891" cy="372.119" r="4" fill="#0" id="circle43"/>
	<circle cx="255.326" cy="208.018" r="4" fill="#0" id="circle44"/>
	<circle cx="262.718" cy="193.234" r="4" fill="#0" id="circle45"/>
	<circle cx="262.718" cy="382.468" r="4" fill="#0" id="circle46"/>
	<circle cx="267.154" cy="397.252" r="4" fill="#0" id="circle47"/>
	<circle cx="274.545" cy="181.407" r="4" fill="#0" id="circle48"/>
	<circle cx="278.981" cy="407.601" r="4" fill="#0" id="circle49"/>
	<circle cx="284.894" cy="422.385" r="4" fill="#0" id="circle50"/>
	<circle cx="286.373" cy="169.58" r="4" fill="#0" id="circle51"/>
	<circle cx="293.765" cy="154.796" r="4" fill="#0" id="circle52"/>
	<circle cx="296.721" cy="432.733" r="4" fill="#0" id="circle53"/>
	<circle cx="301.156" cy="140.012" r="4" fill="#0" id="circle54"/>
	<circle cx="307.07" cy="444.56" r="4" fill="#0" id="circle55"/>
	<circle cx="312.984" cy="129.663" r="4" fill="#0" id="circle56"/>
	<circle cx="318.897" cy="454.909" r="4" fill="#0" id="circle57"/>
	<circle cx="323.332" cy="117.836" r="4" fill="#0" id="circle58"/>
	<circle cx="329.246" cy="466.736" r="4" fill="#0" id="circle59"/>
	<circle cx="335.159" cy="107.487" r="4" fill="#0" id="circle60"/>
	<circle cx="341.073" cy="477.085" r="4" fill="#0" id="circle61"/>
	<circle cx="345.508" cy="95.6602" r="4" fill="#0" id="circle62"/>
	<circle cx="351.422" cy="488.912" r="4" fill="#0" id="circle63"/>
	<circle cx="357.335" cy="85.3115" r="4" fill="#0" id="circle64"/>
	<circle cx="363.249" cy="499.261" r="4" fill="#0" id="circle65"/>
	<circle cx="367.684" cy="73.4844" r="4" fill="#0" id="circle66"/>
	<circle cx="373.598" cy="511.088" r="4" fill="#0" id="circle67"/>
	<circle cx="379.511" cy="63.1356" r="4" fill="#0" id="circle68"/>
	<circle cx="385.425" cy="521.437" r="4" fill="#0" id="circle69"/>
	<circle cx="392.817" cy="55.7437" r="4" fill="#0" id="circle70"/>
	<circle cx="395.773" cy="533.264" r="4" fill="#0" id="circle71"/>
	<circle cx="404.644" cy="43.9165" r="4" fill="#0" id="circle72"/>
	<circle cx="407.601" cy="543.613" r="4" fill="#0" id="circle73"/>
	<circle cx="416.471" cy="33.5678" r="4" fill="#0" id="circle74"/>
	<circle cx="417.949" cy="555.44" r="4" fill="#0" id="circle75"/>
	<circle cx="429.776" cy="26.1759" r="4" fill="#0" id="circle76"/>
	<circle cx="432.733" cy="559.875" r="4" fill="#0" id="circle77"/>
	<circle cx="444.56" cy="18.7839" r="4" fill="#0" id="circle78"/>
	<circle cx="446.039" cy="567.267" r="4" fill="#0" id="circle79"/>
	<circle cx="456.387" cy="579.094" r="4" fill="#0" id="circle80"/>
	<circle cx="459.344" cy="18.7839" r="4" fill="#0" id="circle81"/>
	<circle cx="471.171" cy="585.007" r="4" fill="#0" id="circle82"/>
	<circle cx="472.65" cy="11.392" r="4" fill="#0" id="circle83"/>
	<circle cx="484.477" cy="592.399" r="4" fill="#0" id="circle84"/>
	<circle cx="485.955" cy="4" r="4" fill="#0" id="circle85"/>
	<circle cx="499.261" cy="596.835" r="4" fill="#0" id="circle86"/>
	<circle cx="500.739" cy="4" r="4" fill="#0" id="circle87"/>
	<circle cx="512.566" cy="604.227" r="4" fill="#0" id="circle88"/>
	<circle cx="515.523" cy="4" r="4" fill="#0" id="circle89"/>
	<circle cx="525.872" cy="611.618" r="4" fill="#0" id="circle90"/>
	<circle cx="530.307" cy="4" r="4" fill="#0" id="circle91"/>
	<circle cx="540.656" cy="611.618" r="4" fill="#0" id="circle92"/>
	<circle cx="545.091" cy="4" r="4" fill="#0" id="circle93"/>
	<circle cx="553.961" cy="619.01" r="4" fill="#0" id="circle94"/>
	<circle cx="559.875" cy="4" r="4" fill="#0" id="circle95"/>
	<circle cx="568.745" cy="619.01" r="4" fill="#0" id="circle96"/>
	<circle cx="574.659" cy="4" r="4" fill="#0" id="circle97"/>
	<circle cx="583.529" cy="619.01" r="4" fill="#0" id="circle98"/>
	<circle cx="589.443" cy="4" r="4" fill="#0" id="circle99"/>
	<circle cx="596.835" cy="611.618" r="4" fill="#0" id="circle100"/>
	<circle cx="604.227" cy="4" r="4" fill="#0" id="circle101"/>
	<circle cx="611.618" cy="611.618" r="4" fill="#0" id="circle102"/>
	<circle cx="619.01" cy="8.43517" r="4" fill="#0" id="circle103"/>
	<circle cx="626.402" cy="611.618" r="4" fill="#0" id="circle104"/>
	<circle cx="633.794" cy="11.392" r="4" fill="#0" id="circle105"/>
	<circle cx="639.708" cy="604.227" r="4" fill="#0" id="circle106"/>
	<circle cx="647.1" cy="18.7839" r="4" fill="#0" id="circle107"/>
	<circle cx="654.492" cy="599.791" r="4" fill="#0" id="circle108"/>
	<circle cx="661.884" cy="21.7407" r="4" fill="#0" id="circle109"/>
	<circle cx="669.276" cy="592.399" r="4" fill="#0" id="circle110"/>
	<circle cx="675.189" cy="29.1326" r="4" fill="#0" id="circle111"/>
	<circle cx="684.06" cy="589.443" r="4" fill="#0" id="circle112"/>
	<circle cx="689.973" cy="33.5678" r="4" fill="#0" id="circle113"/>
	<circle cx="697.365" cy="582.051" r="4" fill="#0" id="circle114"/>
	<circle cx="703.279" cy="40.9598" r="4" fill="#0" id="circle115"/>
	<circle cx="710.671" cy="574.659" r="4" fill="#0" id="circle116"/>
	<circle cx="718.063" cy="40.9598" r="4" fill="#0" id="circle117"/>
	<circle cx="723.976" cy="567.267" r="4" fill="#0" id="circle118"/>
	<circle cx="732.846" cy="40.9598" r="4" fill="#0" id="circle119"/>
	<circle cx="735.803" cy="555.44" r="4" fill="#0" id="circle120"/>
	<circle cx="743.195" cy="52.7869" r="4" fill="#0" id="circle121"/>
	<circle cx="747.63" cy="543.613" r="4" fill="#0" id="circle122"/>
	<circle cx="757.979" cy="58.7004" r="4" fill="#0" id="circle123"/>
	<circle cx="759.458" cy="530.307" r="4" fill="#0" id="circle124"/>
	<circle cx="771.285" cy="66.0924" r="4" fill="#0" id="circle125"/>
	<circle cx="772.763" cy="522.915" r="4" fill="#0" id="circle126"/>
	<circle cx="781.633" cy="77.9195" r="4" fill="#0" id="circle127"/>
	<circle cx="784.59" cy="514.045" r="4" fill="#0" id="circle128"/>
	<circle cx="791.982" cy="499.261" r="4" fill="#0" id="circle129"/>
	<circle cx="793.461" cy="86.7899" r="4" fill="#0" id="circle130"/>
	<circle cx="803.809" cy="98.617" r="4" fill="#0" id="circle131"/>
	<circle cx="803.809" cy="485.955" r="4" fill="#0" id="circle132"/>
	<circle cx="815.636" cy="475.607" r="4" fill="#0" id="circle133"/>
	<circle cx="818.593" cy="104.531" r="4" fill="#0" id="circle134"/>
	<circle cx="825.985" cy="463.779" r="4" fill="#0" id="circle135"/>
	<circle cx="831.899" cy="111.923" r="4" fill="#0" id="circle136"/>
	<circle cx="837.812" cy="453.431" r="4" fill="#0" id="circle137"/>
	<circle cx="843.726" cy="122.271" r="4" fill="#0" id="circle138"/>
	<circle cx="848.161" cy="441.604" r="4" fill="#0" id="circle139"/>
	<circle cx="857.031" cy="129.663" r="4" fill="#0" id="circle140"/>
	<circle cx="862.945" cy="441.604" r="4" fill="#0" id="circle141"/>
	<circle cx="870.337" cy="137.055" r="4" fill="#0" id="circle142"/>
	<circle cx="877.729" cy="150.361" r="4" fill="#0" id="circle143"/>
	<circle cx="877.729" cy="441.604" r="4" fill="#0" id="circle144"/>
	<circle cx="889.556" cy="160.709" r="4" fill="#0" id="circle145"/>
	<circle cx="889.556" cy="431.255" r="4" fill="#0" id="circle146"/>
	<circle cx="896.948" cy="416.471" r="4" fill="#0" id="circle147"/>
	<circle cx="899.905" cy="172.537" r="4" fill="#0" id="circle148"/>
	<circle cx="907.297" cy="404.644" r="4" fill="#0" id="circle149"/>
	<circle cx="911.732" cy="182.885" r="4" fill="#0" id="circle150"/>
	<circle cx="919.124" cy="394.295" r="4" fill="#0" id="circle151"/>
	<circle cx="925.037" cy="190.277" r="4" fill="#0" id="circle152"/>
	<circle cx="926.516" cy="379.511" r="4" fill="#0" id="circle153"/>
	<circle cx="936.864" cy="200.626" r="4" fill="#0" id="circle154"/>
	<circle cx="936.864" cy="367.684" r="4" fill="#0" id="circle155"/>
	<circle cx="942.778" cy="215.41" r="4" fill="#0" id="circle156"/>
	<circle cx="948.692" cy="357.335" r="4" fill="#0" id="circle157"/>
	<circle cx="954.605" cy="225.759" r="4" fill="#0" id="circle158"/>
	<circle cx="959.04" cy="345.508" r="4" fill="#0" id="circle159"/>
	<circle cx="967.911" cy="233.151" r="4" fill="#0" id="circle160"/>
	<circle cx="970.867" cy="335.159" r="4" fill="#0" id="circle161"/>
	<circle cx="981.216" cy="240.542" r="4" fill="#0" id="circle162"/>
	<circle cx="981.216" cy="323.332" r="4" fill="#0" id="circle163"/>
	<circle cx="993.043" cy="249.413" r="4" fill="#0" id="circle164"/>
	<circle cx="993.043" cy="312.984" r="4" fill="#0" id="circle165"/>
	<circle cx="996" cy="264.197" r="4" fill="#0" id="circle166"/>
	<circle cx="996" cy="278.981" r="4" fill="#0" id="circle167"/>
	<circle cx="996" cy="293.765" r="4" fill="#0" id="circle168"/>
	</g>
</svg>