<?xml version="1.0" encoding="UTF-8" standalone="no"?>
<!-- Created with CurveBenchmark -->
<svg
	xmlns:dc="http://purl.org/dc/elements/1.1/"
	xmlns:cc="http://creativecommons.org/ns#"
	xmlns:rdf="http://www.w3.org/1999/02/22-rdf-syntax-ns#"
	xmlns:svg="http://www.w3.org/2000/svg"
	xmlns="http://www.w3.org/2000/svg"
	xmlns:sodipodi="http://sodipodi.sourceforge.net/DTD/sodipodi-0.dtd"
	xmlns:inkscape="http://www.inkscape.org/namespaces/inkscape"
	width="1000"
	height="1000"
	id="svg2"
	version="1.1"
	sodipodi:docname="manifold/gathan1-teddy250.png.txt">
<defs
	id="defs4" />
<metadata
	id="metadata7">
	<rdf:RDF>
		<cc:Work
			rdf:about="">
			<dc:format>image/svg+xml</dc:format>
			<dc:type
				rdf:resource="http://purl.org/dc/dcmitype/StillImage" />
			<dc:title></dc:title>
		</cc:Work>
	</rdf:RDF>
</metadata>
<g
	inkscape:label="Layer 1"
	inkscape:groupmode="layer"
	id="layer1">
	<path style="fill:none;stroke:red;stroke-width:1px;stroke-linecap:butt;stroke-linejoin:miter;stroke-opacity:1" d="M 77.4815,450.541 105.744,444.889 z" id="boundary" inkscape:connector-curvature="0" />
	<path style="fill:none;stroke:red;stroke-width:1px;stroke-linecap:butt;stroke-linejoin:miter;stroke-opacity:1" d="M 134.006,433.584 105.744,444.889 z" id="boundary" inkscape:connector-curvature="0" />
	<path style="fill:none;stroke:red;stroke-width:1px;stroke-linecap:butt;stroke-linejoin:miter;stroke-opacity:1" d="M 43.567,495.761 54.8718,467.499 z" id="boundary" inkscape:connector-curvature="0" />
	<path style="fill:none;stroke:red;stroke-width:1px;stroke-linecap:butt;stroke-linejoin:miter;stroke-opacity:1" d="M 54.8718,467.499 77.4815,450.541 z" id="boundary" inkscape:connector-curvature="0" />
	<path style="fill:none;stroke:red;stroke-width:1px;stroke-linecap:butt;stroke-linejoin:miter;stroke-opacity:1" d="M 162.268,433.584 190.53,427.932 z" id="boundary" inkscape:connector-curvature="0" />
	<path style="fill:none;stroke:red;stroke-width:1px;stroke-linecap:butt;stroke-linejoin:miter;stroke-opacity:1" d="M 235.749,399.67 218.792,422.279 z" id="boundary" inkscape:connector-curvature="0" />
	<path style="fill:none;stroke:red;stroke-width:1px;stroke-linecap:butt;stroke-linejoin:miter;stroke-opacity:1" d="M 218.792,422.279 190.53,427.932 z" id="boundary" inkscape:connector-curvature="0" />
	<path style="fill:none;stroke:red;stroke-width:1px;stroke-linecap:butt;stroke-linejoin:miter;stroke-opacity:1" d="M 134.006,433.584 162.268,433.584 z" id="boundary" inkscape:connector-curvature="0" />
	<path style="fill:none;stroke:red;stroke-width:1px;stroke-linecap:butt;stroke-linejoin:miter;stroke-opacity:1" d="M 37.9145,529.675 43.567,557.937 z" id="boundary" inkscape:connector-curvature="0" />
	<path style="fill:none;stroke:red;stroke-width:1px;stroke-linecap:butt;stroke-linejoin:miter;stroke-opacity:1" d="M 60.5242,580.547 43.567,557.937 z" id="boundary" inkscape:connector-curvature="0" />
	<path style="fill:none;stroke:red;stroke-width:1px;stroke-linecap:butt;stroke-linejoin:miter;stroke-opacity:1" d="M 60.5242,580.547 77.4815,603.157 z" id="boundary" inkscape:connector-curvature="0" />
	<path style="fill:none;stroke:red;stroke-width:1px;stroke-linecap:butt;stroke-linejoin:miter;stroke-opacity:1" d="M 102.917,617.288 77.4815,603.157 z" id="boundary" inkscape:connector-curvature="0" />
	<path style="fill:none;stroke:red;stroke-width:1px;stroke-linecap:butt;stroke-linejoin:miter;stroke-opacity:1" d="M 37.9145,529.675 43.567,495.761 z" id="boundary" inkscape:connector-curvature="0" />
	<path style="fill:none;stroke:red;stroke-width:1px;stroke-linecap:butt;stroke-linejoin:miter;stroke-opacity:1" d="M 102.917,617.288 128.353,631.419 z" id="boundary" inkscape:connector-curvature="0" />
	<path style="fill:none;stroke:red;stroke-width:1px;stroke-linecap:butt;stroke-linejoin:miter;stroke-opacity:1" d="M 156.615,642.724 184.877,651.202 z" id="boundary" inkscape:connector-curvature="0" />
	<path style="fill:none;stroke:red;stroke-width:1px;stroke-linecap:butt;stroke-linejoin:miter;stroke-opacity:1" d="M 156.615,642.724 128.353,631.419 z" id="boundary" inkscape:connector-curvature="0" />
	<path style="fill:none;stroke:red;stroke-width:1px;stroke-linecap:butt;stroke-linejoin:miter;stroke-opacity:1" d="M 292.274,83.1339 292.274,111.396 z" id="boundary" inkscape:connector-curvature="0" />
	<path style="fill:none;stroke:red;stroke-width:1px;stroke-linecap:butt;stroke-linejoin:miter;stroke-opacity:1" d="M 292.274,111.396 303.578,139.658 z" id="boundary" inkscape:connector-curvature="0" />
	<path style="fill:none;stroke:red;stroke-width:1px;stroke-linecap:butt;stroke-linejoin:miter;stroke-opacity:1" d="M 292.274,83.1339 292.274,54.8718 z" id="boundary" inkscape:connector-curvature="0" />
	<path style="fill:none;stroke:red;stroke-width:1px;stroke-linecap:butt;stroke-linejoin:miter;stroke-opacity:1" d="M 292.274,54.8718 314.883,32.2621 z" id="boundary" inkscape:connector-curvature="0" />
	<path style="fill:none;stroke:red;stroke-width:1px;stroke-linecap:butt;stroke-linejoin:miter;stroke-opacity:1" d="M 312.057,167.92 303.578,139.658 z" id="boundary" inkscape:connector-curvature="0" />
	<path style="fill:none;stroke:red;stroke-width:1px;stroke-linecap:butt;stroke-linejoin:miter;stroke-opacity:1" d="M 312.057,167.92 309.231,207.487 z" id="boundary" inkscape:connector-curvature="0" />
	<path style="fill:none;stroke:red;stroke-width:1px;stroke-linecap:butt;stroke-linejoin:miter;stroke-opacity:1" d="M 309.231,207.487 303.578,235.749 z" id="boundary" inkscape:connector-curvature="0" />
	<path style="fill:none;stroke:red;stroke-width:1px;stroke-linecap:butt;stroke-linejoin:miter;stroke-opacity:1" d="M 297.926,275.316 300.752,303.578 z" id="boundary" inkscape:connector-curvature="0" />
	<path style="fill:none;stroke:red;stroke-width:1px;stroke-linecap:butt;stroke-linejoin:miter;stroke-opacity:1" d="M 292.274,382.712 264.011,388.365 z" id="boundary" inkscape:connector-curvature="0" />
	<path style="fill:none;stroke:red;stroke-width:1px;stroke-linecap:butt;stroke-linejoin:miter;stroke-opacity:1" d="M 264.011,388.365 235.749,399.67 z" id="boundary" inkscape:connector-curvature="0" />
	<path style="fill:none;stroke:red;stroke-width:1px;stroke-linecap:butt;stroke-linejoin:miter;stroke-opacity:1" d="M 292.274,382.712 320.536,382.712 z" id="boundary" inkscape:connector-curvature="0" />
	<path style="fill:none;stroke:red;stroke-width:1px;stroke-linecap:butt;stroke-linejoin:miter;stroke-opacity:1" d="M 312.057,331.84 300.752,303.578 z" id="boundary" inkscape:connector-curvature="0" />
	<path style="fill:none;stroke:red;stroke-width:1px;stroke-linecap:butt;stroke-linejoin:miter;stroke-opacity:1" d="M 297.926,275.316 303.578,235.749 z" id="boundary" inkscape:connector-curvature="0" />
	<path style="fill:none;stroke:red;stroke-width:1px;stroke-linecap:butt;stroke-linejoin:miter;stroke-opacity:1" d="M 312.057,331.84 320.536,382.712 z" id="boundary" inkscape:connector-curvature="0" />
	<path style="fill:none;stroke:red;stroke-width:1px;stroke-linecap:butt;stroke-linejoin:miter;stroke-opacity:1" d="M 20.9573,767.077 43.567,750.12 z" id="boundary" inkscape:connector-curvature="0" />
	<path style="fill:none;stroke:red;stroke-width:1px;stroke-linecap:butt;stroke-linejoin:miter;stroke-opacity:1" d="M 9.65242,812.296 20.9573,767.077 z" id="boundary" inkscape:connector-curvature="0" />
	<path style="fill:none;stroke:red;stroke-width:1px;stroke-linecap:butt;stroke-linejoin:miter;stroke-opacity:1" d="M 4,840.558 9.65242,812.296 z" id="boundary" inkscape:connector-curvature="0" />
	<path style="fill:none;stroke:red;stroke-width:1px;stroke-linecap:butt;stroke-linejoin:miter;stroke-opacity:1" d="M 94.4387,727.51 122.701,727.51 z" id="boundary" inkscape:connector-curvature="0" />
	<path style="fill:none;stroke:red;stroke-width:1px;stroke-linecap:butt;stroke-linejoin:miter;stroke-opacity:1" d="M 43.567,750.12 66.1766,733.162 z" id="boundary" inkscape:connector-curvature="0" />
	<path style="fill:none;stroke:red;stroke-width:1px;stroke-linecap:butt;stroke-linejoin:miter;stroke-opacity:1" d="M 66.1766,733.162 94.4387,727.51 z" id="boundary" inkscape:connector-curvature="0" />
	<path style="fill:none;stroke:red;stroke-width:1px;stroke-linecap:butt;stroke-linejoin:miter;stroke-opacity:1" d="M 4,868.821 4,840.558 z" id="boundary" inkscape:connector-curvature="0" />
	<path style="fill:none;stroke:red;stroke-width:1px;stroke-linecap:butt;stroke-linejoin:miter;stroke-opacity:1" d="M 150.963,727.51 122.701,727.51 z" id="boundary" inkscape:connector-curvature="0" />
	<path style="fill:none;stroke:red;stroke-width:1px;stroke-linecap:butt;stroke-linejoin:miter;stroke-opacity:1" d="M 26.6097,947.954 9.65242,925.345 z" id="boundary" inkscape:connector-curvature="0" />
	<path style="fill:none;stroke:red;stroke-width:1px;stroke-linecap:butt;stroke-linejoin:miter;stroke-opacity:1" d="M 9.65242,925.345 6.82621,897.083 z" id="boundary" inkscape:connector-curvature="0" />
	<path style="fill:none;stroke:red;stroke-width:1px;stroke-linecap:butt;stroke-linejoin:miter;stroke-opacity:1" d="M 6.82621,897.083 4,868.821 z" id="boundary" inkscape:connector-curvature="0" />
	<path style="fill:none;stroke:red;stroke-width:1px;stroke-linecap:butt;stroke-linejoin:miter;stroke-opacity:1" d="M 46.3932,970.564 26.6097,947.954 z" id="boundary" inkscape:connector-curvature="0" />
	<path style="fill:none;stroke:red;stroke-width:1px;stroke-linecap:butt;stroke-linejoin:miter;stroke-opacity:1" d="M 71.8291,984.695 46.3932,970.564 z" id="boundary" inkscape:connector-curvature="0" />
	<path style="fill:none;stroke:red;stroke-width:1px;stroke-linecap:butt;stroke-linejoin:miter;stroke-opacity:1" d="M 100.091,993.174 71.8291,984.695 z" id="boundary" inkscape:connector-curvature="0" />
	<path style="fill:none;stroke:red;stroke-width:1px;stroke-linecap:butt;stroke-linejoin:miter;stroke-opacity:1" d="M 128.353,996 100.091,993.174 z" id="boundary" inkscape:connector-curvature="0" />
	<path style="fill:none;stroke:red;stroke-width:1px;stroke-linecap:butt;stroke-linejoin:miter;stroke-opacity:1" d="M 156.615,996 128.353,996 z" id="boundary" inkscape:connector-curvature="0" />
	<path style="fill:none;stroke:red;stroke-width:1px;stroke-linecap:butt;stroke-linejoin:miter;stroke-opacity:1" d="M 235.749,721.858 207.487,733.162 z" id="boundary" inkscape:connector-curvature="0" />
	<path style="fill:none;stroke:red;stroke-width:1px;stroke-linecap:butt;stroke-linejoin:miter;stroke-opacity:1" d="M 213.14,659.681 241.402,656.855 z" id="boundary" inkscape:connector-curvature="0" />
	<path style="fill:none;stroke:red;stroke-width:1px;stroke-linecap:butt;stroke-linejoin:miter;stroke-opacity:1" d="M 179.225,730.336 207.487,733.162 z" id="boundary" inkscape:connector-curvature="0" />
	<path style="fill:none;stroke:red;stroke-width:1px;stroke-linecap:butt;stroke-linejoin:miter;stroke-opacity:1" d="M 179.225,730.336 150.963,727.51 z" id="boundary" inkscape:connector-curvature="0" />
	<path style="fill:none;stroke:red;stroke-width:1px;stroke-linecap:butt;stroke-linejoin:miter;stroke-opacity:1" d="M 241.402,656.855 269.664,656.855 z" id="boundary" inkscape:connector-curvature="0" />
	<path style="fill:none;stroke:red;stroke-width:1px;stroke-linecap:butt;stroke-linejoin:miter;stroke-opacity:1" d="M 269.664,656.855 280.969,685.117 z" id="boundary" inkscape:connector-curvature="0" />
	<path style="fill:none;stroke:red;stroke-width:1px;stroke-linecap:butt;stroke-linejoin:miter;stroke-opacity:1" d="M 382.712,979.043 354.45,973.39 z" id="boundary" inkscape:connector-curvature="0" />
	<path style="fill:none;stroke:red;stroke-width:1px;stroke-linecap:butt;stroke-linejoin:miter;stroke-opacity:1" d="M 280.969,685.117 264.011,716.205 z" id="boundary" inkscape:connector-curvature="0" />
	<path style="fill:none;stroke:red;stroke-width:1px;stroke-linecap:butt;stroke-linejoin:miter;stroke-opacity:1" d="M 264.011,716.205 235.749,721.858 z" id="boundary" inkscape:connector-curvature="0" />
	<path style="fill:none;stroke:red;stroke-width:1px;stroke-linecap:butt;stroke-linejoin:miter;stroke-opacity:1" d="M 213.14,659.681 184.877,651.202 z" id="boundary" inkscape:connector-curvature="0" />
	<path style="fill:none;stroke:red;stroke-width:1px;stroke-linecap:butt;stroke-linejoin:miter;stroke-opacity:1" d="M 213.14,990.348 241.402,979.043 z" id="boundary" inkscape:connector-curvature="0" />
	<path style="fill:none;stroke:red;stroke-width:1px;stroke-linecap:butt;stroke-linejoin:miter;stroke-opacity:1" d="M 241.402,979.043 269.664,973.39 z" id="boundary" inkscape:connector-curvature="0" />
	<path style="fill:none;stroke:red;stroke-width:1px;stroke-linecap:butt;stroke-linejoin:miter;stroke-opacity:1" d="M 213.14,990.348 184.877,996 z" id="boundary" inkscape:connector-curvature="0" />
	<path style="fill:none;stroke:red;stroke-width:1px;stroke-linecap:butt;stroke-linejoin:miter;stroke-opacity:1" d="M 184.877,996 156.615,996 z" id="boundary" inkscape:connector-curvature="0" />
	<path style="fill:none;stroke:red;stroke-width:1px;stroke-linecap:butt;stroke-linejoin:miter;stroke-opacity:1" d="M 269.664,973.39 297.926,967.738 z" id="boundary" inkscape:connector-curvature="0" />
	<path style="fill:none;stroke:red;stroke-width:1px;stroke-linecap:butt;stroke-linejoin:miter;stroke-opacity:1" d="M 297.926,967.738 326.188,973.39 z" id="boundary" inkscape:connector-curvature="0" />
	<path style="fill:none;stroke:red;stroke-width:1px;stroke-linecap:butt;stroke-linejoin:miter;stroke-opacity:1" d="M 354.45,973.39 326.188,973.39 z" id="boundary" inkscape:connector-curvature="0" />
	<path style="fill:none;stroke:red;stroke-width:1px;stroke-linecap:butt;stroke-linejoin:miter;stroke-opacity:1" d="M 314.883,32.2621 337.493,15.3048 z" id="boundary" inkscape:connector-curvature="0" />
	<path style="fill:none;stroke:red;stroke-width:1px;stroke-linecap:butt;stroke-linejoin:miter;stroke-opacity:1" d="M 337.493,15.3048 365.755,9.65242 z" id="boundary" inkscape:connector-curvature="0" />
	<path style="fill:none;stroke:red;stroke-width:1px;stroke-linecap:butt;stroke-linejoin:miter;stroke-opacity:1" d="M 365.755,9.65242 394.017,4 z" id="boundary" inkscape:connector-curvature="0" />
	<path style="fill:none;stroke:red;stroke-width:1px;stroke-linecap:butt;stroke-linejoin:miter;stroke-opacity:1" d="M 394.017,4 422.279,9.65242 z" id="boundary" inkscape:connector-curvature="0" />
	<path style="fill:none;stroke:red;stroke-width:1px;stroke-linecap:butt;stroke-linejoin:miter;stroke-opacity:1" d="M 422.279,9.65242 447.715,23.7835 z" id="boundary" inkscape:connector-curvature="0" />
	<path style="fill:none;stroke:red;stroke-width:1px;stroke-linecap:butt;stroke-linejoin:miter;stroke-opacity:1" d="M 447.715,23.7835 473.151,37.9145 z" id="boundary" inkscape:connector-curvature="0" />
	<path style="fill:none;stroke:red;stroke-width:1px;stroke-linecap:butt;stroke-linejoin:miter;stroke-opacity:1" d="M 670.986,9.65242 699.248,4 z" id="boundary" inkscape:connector-curvature="0" />
	<path style="fill:none;stroke:red;stroke-width:1px;stroke-linecap:butt;stroke-linejoin:miter;stroke-opacity:1" d="M 699.248,4 727.51,9.65242 z" id="boundary" inkscape:connector-curvature="0" />
	<path style="fill:none;stroke:red;stroke-width:1px;stroke-linecap:butt;stroke-linejoin:miter;stroke-opacity:1" d="M 614.462,32.2621 642.724,20.9573 z" id="boundary" inkscape:connector-curvature="0" />
	<path style="fill:none;stroke:red;stroke-width:1px;stroke-linecap:butt;stroke-linejoin:miter;stroke-opacity:1" d="M 642.724,20.9573 670.986,9.65242 z" id="boundary" inkscape:connector-curvature="0" />
	<path style="fill:none;stroke:red;stroke-width:1px;stroke-linecap:butt;stroke-linejoin:miter;stroke-opacity:1" d="M 501.413,43.567 529.675,43.567 z" id="boundary" inkscape:connector-curvature="0" />
	<path style="fill:none;stroke:red;stroke-width:1px;stroke-linecap:butt;stroke-linejoin:miter;stroke-opacity:1" d="M 501.413,43.567 473.151,37.9145 z" id="boundary" inkscape:connector-curvature="0" />
	<path style="fill:none;stroke:red;stroke-width:1px;stroke-linecap:butt;stroke-linejoin:miter;stroke-opacity:1" d="M 529.675,43.567 557.937,43.567 z" id="boundary" inkscape:connector-curvature="0" />
	<path style="fill:none;stroke:red;stroke-width:1px;stroke-linecap:butt;stroke-linejoin:miter;stroke-opacity:1" d="M 557.937,43.567 586.199,43.567 z" id="boundary" inkscape:connector-curvature="0" />
	<path style="fill:none;stroke:red;stroke-width:1px;stroke-linecap:butt;stroke-linejoin:miter;stroke-opacity:1" d="M 614.462,32.2621 586.199,43.567 z" id="boundary" inkscape:connector-curvature="0" />
	<path style="fill:none;stroke:red;stroke-width:1px;stroke-linecap:butt;stroke-linejoin:miter;stroke-opacity:1" d="M 716.205,374.234 733.162,351.624 z" id="boundary" inkscape:connector-curvature="0" />
	<path style="fill:none;stroke:red;stroke-width:1px;stroke-linecap:butt;stroke-linejoin:miter;stroke-opacity:1" d="M 744.467,382.712 716.205,374.234 z" id="boundary" inkscape:connector-curvature="0" />
	<path style="fill:none;stroke:red;stroke-width:1px;stroke-linecap:butt;stroke-linejoin:miter;stroke-opacity:1" d="M 744.467,323.362 733.162,351.624 z" id="boundary" inkscape:connector-curvature="0" />
	<path style="fill:none;stroke:red;stroke-width:1px;stroke-linecap:butt;stroke-linejoin:miter;stroke-opacity:1" d="M 767.077,165.094 755.772,193.356 z" id="boundary" inkscape:connector-curvature="0" />
	<path style="fill:none;stroke:red;stroke-width:1px;stroke-linecap:butt;stroke-linejoin:miter;stroke-opacity:1" d="M 781.208,128.353 767.077,165.094 z" id="boundary" inkscape:connector-curvature="0" />
	<path style="fill:none;stroke:red;stroke-width:1px;stroke-linecap:butt;stroke-linejoin:miter;stroke-opacity:1" d="M 758.598,221.618 758.598,249.88 z" id="boundary" inkscape:connector-curvature="0" />
	<path style="fill:none;stroke:red;stroke-width:1px;stroke-linecap:butt;stroke-linejoin:miter;stroke-opacity:1" d="M 758.598,221.618 755.772,193.356 z" id="boundary" inkscape:connector-curvature="0" />
	<path style="fill:none;stroke:red;stroke-width:1px;stroke-linecap:butt;stroke-linejoin:miter;stroke-opacity:1" d="M 778.382,40.7407 792.513,66.1766 z" id="boundary" inkscape:connector-curvature="0" />
	<path style="fill:none;stroke:red;stroke-width:1px;stroke-linecap:butt;stroke-linejoin:miter;stroke-opacity:1" d="M 792.513,66.1766 792.513,94.4387 z" id="boundary" inkscape:connector-curvature="0" />
	<path style="fill:none;stroke:red;stroke-width:1px;stroke-linecap:butt;stroke-linejoin:miter;stroke-opacity:1" d="M 792.513,94.4387 781.208,128.353 z" id="boundary" inkscape:connector-curvature="0" />
	<path style="fill:none;stroke:red;stroke-width:1px;stroke-linecap:butt;stroke-linejoin:miter;stroke-opacity:1" d="M 854.689,475.977 840.558,450.541 z" id="boundary" inkscape:connector-curvature="0" />
	<path style="fill:none;stroke:red;stroke-width:1px;stroke-linecap:butt;stroke-linejoin:miter;stroke-opacity:1" d="M 755.772,20.9573 778.382,40.7407 z" id="boundary" inkscape:connector-curvature="0" />
	<path style="fill:none;stroke:red;stroke-width:1px;stroke-linecap:butt;stroke-linejoin:miter;stroke-opacity:1" d="M 744.467,323.362 752.946,286.621 z" id="boundary" inkscape:connector-curvature="0" />
	<path style="fill:none;stroke:red;stroke-width:1px;stroke-linecap:butt;stroke-linejoin:miter;stroke-opacity:1" d="M 772.729,394.017 744.467,382.712 z" id="boundary" inkscape:connector-curvature="0" />
	<path style="fill:none;stroke:red;stroke-width:1px;stroke-linecap:butt;stroke-linejoin:miter;stroke-opacity:1" d="M 752.946,286.621 758.598,249.88 z" id="boundary" inkscape:connector-curvature="0" />
	<path style="fill:none;stroke:red;stroke-width:1px;stroke-linecap:butt;stroke-linejoin:miter;stroke-opacity:1" d="M 772.729,394.017 798.165,408.148 z" id="boundary" inkscape:connector-curvature="0" />
	<path style="fill:none;stroke:red;stroke-width:1px;stroke-linecap:butt;stroke-linejoin:miter;stroke-opacity:1" d="M 798.165,408.148 820.775,427.932 z" id="boundary" inkscape:connector-curvature="0" />
	<path style="fill:none;stroke:red;stroke-width:1px;stroke-linecap:butt;stroke-linejoin:miter;stroke-opacity:1" d="M 840.558,450.541 820.775,427.932 z" id="boundary" inkscape:connector-curvature="0" />
	<path style="fill:none;stroke:red;stroke-width:1px;stroke-linecap:butt;stroke-linejoin:miter;stroke-opacity:1" d="M 727.51,9.65242 755.772,20.9573 z" id="boundary" inkscape:connector-curvature="0" />
	<path style="fill:none;stroke:red;stroke-width:1px;stroke-linecap:butt;stroke-linejoin:miter;stroke-opacity:1" d="M 382.712,979.043 410.974,984.695 z" id="boundary" inkscape:connector-curvature="0" />
	<path style="fill:none;stroke:red;stroke-width:1px;stroke-linecap:butt;stroke-linejoin:miter;stroke-opacity:1" d="M 439.236,984.695 410.974,984.695 z" id="boundary" inkscape:connector-curvature="0" />
	<path style="fill:none;stroke:red;stroke-width:1px;stroke-linecap:butt;stroke-linejoin:miter;stroke-opacity:1" d="M 439.236,984.695 467.499,990.348 z" id="boundary" inkscape:connector-curvature="0" />
	<path style="fill:none;stroke:red;stroke-width:1px;stroke-linecap:butt;stroke-linejoin:miter;stroke-opacity:1" d="M 724.684,699.248 719.031,670.986 z" id="boundary" inkscape:connector-curvature="0" />
	<path style="fill:none;stroke:red;stroke-width:1px;stroke-linecap:butt;stroke-linejoin:miter;stroke-opacity:1" d="M 719.031,670.986 747.293,665.333 z" id="boundary" inkscape:connector-curvature="0" />
	<path style="fill:none;stroke:red;stroke-width:1px;stroke-linecap:butt;stroke-linejoin:miter;stroke-opacity:1" d="M 524.023,996 495.761,993.174 z" id="boundary" inkscape:connector-curvature="0" />
	<path style="fill:none;stroke:red;stroke-width:1px;stroke-linecap:butt;stroke-linejoin:miter;stroke-opacity:1" d="M 495.761,993.174 467.499,990.348 z" id="boundary" inkscape:connector-curvature="0" />
	<path style="fill:none;stroke:red;stroke-width:1px;stroke-linecap:butt;stroke-linejoin:miter;stroke-opacity:1" d="M 727.51,727.51 724.684,699.248 z" id="boundary" inkscape:connector-curvature="0" />
	<path style="fill:none;stroke:red;stroke-width:1px;stroke-linecap:butt;stroke-linejoin:miter;stroke-opacity:1" d="M 552.285,996 524.023,996 z" id="boundary" inkscape:connector-curvature="0" />
	<path style="fill:none;stroke:red;stroke-width:1px;stroke-linecap:butt;stroke-linejoin:miter;stroke-opacity:1" d="M 608.809,996 580.547,996 z" id="boundary" inkscape:connector-curvature="0" />
	<path style="fill:none;stroke:red;stroke-width:1px;stroke-linecap:butt;stroke-linejoin:miter;stroke-opacity:1" d="M 580.547,996 552.285,996 z" id="boundary" inkscape:connector-curvature="0" />
	<path style="fill:none;stroke:red;stroke-width:1px;stroke-linecap:butt;stroke-linejoin:miter;stroke-opacity:1" d="M 665.333,996 637.071,996 z" id="boundary" inkscape:connector-curvature="0" />
	<path style="fill:none;stroke:red;stroke-width:1px;stroke-linecap:butt;stroke-linejoin:miter;stroke-opacity:1" d="M 744.467,979.043 721.858,996 z" id="boundary" inkscape:connector-curvature="0" />
	<path style="fill:none;stroke:red;stroke-width:1px;stroke-linecap:butt;stroke-linejoin:miter;stroke-opacity:1" d="M 721.858,996 693.595,996 z" id="boundary" inkscape:connector-curvature="0" />
	<path style="fill:none;stroke:red;stroke-width:1px;stroke-linecap:butt;stroke-linejoin:miter;stroke-opacity:1" d="M 693.595,996 665.333,996 z" id="boundary" inkscape:connector-curvature="0" />
	<path style="fill:none;stroke:red;stroke-width:1px;stroke-linecap:butt;stroke-linejoin:miter;stroke-opacity:1" d="M 637.071,996 608.809,996 z" id="boundary" inkscape:connector-curvature="0" />
	<path style="fill:none;stroke:red;stroke-width:1px;stroke-linecap:butt;stroke-linejoin:miter;stroke-opacity:1" d="M 727.51,727.51 735.989,755.772 z" id="boundary" inkscape:connector-curvature="0" />
	<path style="fill:none;stroke:red;stroke-width:1px;stroke-linecap:butt;stroke-linejoin:miter;stroke-opacity:1" d="M 795.339,634.245 817.949,611.635 z" id="boundary" inkscape:connector-curvature="0" />
	<path style="fill:none;stroke:red;stroke-width:1px;stroke-linecap:butt;stroke-linejoin:miter;stroke-opacity:1" d="M 795.339,634.245 772.729,651.202 z" id="boundary" inkscape:connector-curvature="0" />
	<path style="fill:none;stroke:red;stroke-width:1px;stroke-linecap:butt;stroke-linejoin:miter;stroke-opacity:1" d="M 772.729,651.202 747.293,665.333 z" id="boundary" inkscape:connector-curvature="0" />
	<path style="fill:none;stroke:red;stroke-width:1px;stroke-linecap:butt;stroke-linejoin:miter;stroke-opacity:1" d="M 860.342,512.718 854.689,557.937 z" id="boundary" inkscape:connector-curvature="0" />
	<path style="fill:none;stroke:red;stroke-width:1px;stroke-linecap:butt;stroke-linejoin:miter;stroke-opacity:1" d="M 860.342,512.718 854.689,475.977 z" id="boundary" inkscape:connector-curvature="0" />
	<path style="fill:none;stroke:red;stroke-width:1px;stroke-linecap:butt;stroke-linejoin:miter;stroke-opacity:1" d="M 840.558,589.026 854.689,557.937 z" id="boundary" inkscape:connector-curvature="0" />
	<path style="fill:none;stroke:red;stroke-width:1px;stroke-linecap:butt;stroke-linejoin:miter;stroke-opacity:1" d="M 840.558,589.026 817.949,611.635 z" id="boundary" inkscape:connector-curvature="0" />
	<path style="fill:none;stroke:red;stroke-width:1px;stroke-linecap:butt;stroke-linejoin:miter;stroke-opacity:1" d="M 735.989,755.772 752.946,778.382 z" id="boundary" inkscape:connector-curvature="0" />
	<path style="fill:none;stroke:red;stroke-width:1px;stroke-linecap:butt;stroke-linejoin:miter;stroke-opacity:1" d="M 752.946,778.382 758.598,806.644 z" id="boundary" inkscape:connector-curvature="0" />
	<path style="fill:none;stroke:red;stroke-width:1px;stroke-linecap:butt;stroke-linejoin:miter;stroke-opacity:1" d="M 758.598,806.644 764.251,834.906 z" id="boundary" inkscape:connector-curvature="0" />
	<path style="fill:none;stroke:red;stroke-width:1px;stroke-linecap:butt;stroke-linejoin:miter;stroke-opacity:1" d="M 764.251,834.906 775.556,863.168 z" id="boundary" inkscape:connector-curvature="0" />
	<path style="fill:none;stroke:red;stroke-width:1px;stroke-linecap:butt;stroke-linejoin:miter;stroke-opacity:1" d="M 775.556,863.168 769.903,908.387 z" id="boundary" inkscape:connector-curvature="0" />
	<path style="fill:none;stroke:red;stroke-width:1px;stroke-linecap:butt;stroke-linejoin:miter;stroke-opacity:1" d="M 767.077,962.085 769.903,908.387 z" id="boundary" inkscape:connector-curvature="0" />
	<path style="fill:none;stroke:red;stroke-width:1px;stroke-linecap:butt;stroke-linejoin:miter;stroke-opacity:1" d="M 767.077,962.085 744.467,979.043 z" id="boundary" inkscape:connector-curvature="0" />
	<circle cx="4" cy="840.558" r="4" fill="#0" id="circle0"/>
	<circle cx="4" cy="868.821" r="4" fill="#0" id="circle1"/>
	<circle cx="6.82621" cy="897.083" r="4" fill="#0" id="circle2"/>
	<circle cx="9.65242" cy="812.296" r="4" fill="#0" id="circle3"/>
	<circle cx="9.65242" cy="925.345" r="4" fill="#0" id="circle4"/>
	<circle cx="20.9573" cy="767.077" r="4" fill="#0" id="circle5"/>
	<circle cx="26.6097" cy="947.954" r="4" fill="#0" id="circle6"/>
	<circle cx="37.9145" cy="529.675" r="4" fill="#0" id="circle7"/>
	<circle cx="43.567" cy="495.761" r="4" fill="#0" id="circle8"/>
	<circle cx="43.567" cy="557.937" r="4" fill="#0" id="circle9"/>
	<circle cx="43.567" cy="750.12" r="4" fill="#0" id="circle10"/>
	<circle cx="46.3932" cy="970.564" r="4" fill="#0" id="circle11"/>
	<circle cx="54.8718" cy="467.499" r="4" fill="#0" id="circle12"/>
	<circle cx="60.5242" cy="580.547" r="4" fill="#0" id="circle13"/>
	<circle cx="66.1766" cy="733.162" r="4" fill="#0" id="circle14"/>
	<circle cx="71.8291" cy="984.695" r="4" fill="#0" id="circle15"/>
	<circle cx="77.4815" cy="450.541" r="4" fill="#0" id="circle16"/>
	<circle cx="77.4815" cy="603.157" r="4" fill="#0" id="circle17"/>
	<circle cx="94.4387" cy="727.51" r="4" fill="#0" id="circle18"/>
	<circle cx="100.091" cy="993.174" r="4" fill="#0" id="circle19"/>
	<circle cx="102.917" cy="617.288" r="4" fill="#0" id="circle20"/>
	<circle cx="105.744" cy="444.889" r="4" fill="#0" id="circle21"/>
	<circle cx="122.701" cy="727.51" r="4" fill="#0" id="circle22"/>
	<circle cx="128.353" cy="631.419" r="4" fill="#0" id="circle23"/>
	<circle cx="128.353" cy="996" r="4" fill="#0" id="circle24"/>
	<circle cx="134.006" cy="433.584" r="4" fill="#0" id="circle25"/>
	<circle cx="150.963" cy="727.51" r="4" fill="#0" id="circle26"/>
	<circle cx="156.615" cy="642.724" r="4" fill="#0" id="circle27"/>
	<circle cx="156.615" cy="996" r="4" fill="#0" id="circle28"/>
	<circle cx="162.268" cy="433.584" r="4" fill="#0" id="circle29"/>
	<circle cx="179.225" cy="730.336" r="4" fill="#0" id="circle30"/>
	<circle cx="184.877" cy="651.202" r="4" fill="#0" id="circle31"/>
	<circle cx="184.877" cy="996" r="4" fill="#0" id="circle32"/>
	<circle cx="190.53" cy="427.932" r="4" fill="#0" id="circle33"/>
	<circle cx="207.487" cy="733.162" r="4" fill="#0" id="circle34"/>
	<circle cx="213.14" cy="659.681" r="4" fill="#0" id="circle35"/>
	<circle cx="213.14" cy="990.348" r="4" fill="#0" id="circle36"/>
	<circle cx="218.792" cy="422.279" r="4" fill="#0" id="circle37"/>
	<circle cx="235.749" cy="399.67" r="4" fill="#0" id="circle38"/>
	<circle cx="235.749" cy="721.858" r="4" fill="#0" id="circle39"/>
	<circle cx="241.402" cy="656.855" r="4" fill="#0" id="circle40"/>
	<circle cx="241.402" cy="979.043" r="4" fill="#0" id="circle41"/>
	<circle cx="264.011" cy="388.365" r="4" fill="#0" id="circle42"/>
	<circle cx="264.011" cy="716.205" r="4" fill="#0" id="circle43"/>
	<circle cx="269.664" cy="656.855" r="4" fill="#0" id="circle44"/>
	<circle cx="269.664" cy="973.39" r="4" fill="#0" id="circle45"/>
	<circle cx="280.969" cy="685.117" r="4" fill="#0" id="circle46"/>
	<circle cx="292.274" cy="54.8718" r="4" fill="#0" id="circle47"/>
	<circle cx="292.274" cy="83.1339" r="4" fill="#0" id="circle48"/>
	<circle cx="292.274" cy="111.396" r="4" fill="#0" id="circle49"/>
	<circle cx="292.274" cy="382.712" r="4" fill="#0" id="circle50"/>
	<circle cx="297.926" cy="275.316" r="4" fill="#0" id="circle51"/>
	<circle cx="297.926" cy="967.738" r="4" fill="#0" id="circle52"/>
	<circle cx="300.752" cy="303.578" r="4" fill="#0" id="circle53"/>
	<circle cx="303.578" cy="139.658" r="4" fill="#0" id="circle54"/>
	<circle cx="303.578" cy="235.749" r="4" fill="#0" id="circle55"/>
	<circle cx="309.231" cy="207.487" r="4" fill="#0" id="circle56"/>
	<circle cx="312.057" cy="167.92" r="4" fill="#0" id="circle57"/>
	<circle cx="312.057" cy="331.84" r="4" fill="#0" id="circle58"/>
	<circle cx="314.883" cy="32.2621" r="4" fill="#0" id="circle59"/>
	<circle cx="320.536" cy="382.712" r="4" fill="#0" id="circle60"/>
	<circle cx="326.188" cy="973.39" r="4" fill="#0" id="circle61"/>
	<circle cx="337.493" cy="15.3048" r="4" fill="#0" id="circle62"/>
	<circle cx="354.45" cy="973.39" r="4" fill="#0" id="circle63"/>
	<circle cx="365.755" cy="9.65242" r="4" fill="#0" id="circle64"/>
	<circle cx="382.712" cy="979.043" r="4" fill="#0" id="circle65"/>
	<circle cx="394.017" cy="4" r="4" fill="#0" id="circle66"/>
	<circle cx="410.974" cy="984.695" r="4" fill="#0" id="circle67"/>
	<circle cx="422.279" cy="9.65242" r="4" fill="#0" id="circle68"/>
	<circle cx="439.236" cy="984.695" r="4" fill="#0" id="circle69"/>
	<circle cx="447.715" cy="23.7835" r="4" fill="#0" id="circle70"/>
	<circle cx="467.499" cy="990.348" r="4" fill="#0" id="circle71"/>
	<circle cx="473.151" cy="37.9145" r="4" fill="#0" id="circle72"/>
	<circle cx="495.761" cy="993.174" r="4" fill="#0" id="circle73"/>
	<circle cx="501.413" cy="43.567" r="4" fill="#0" id="circle74"/>
	<circle cx="524.023" cy="996" r="4" fill="#0" id="circle75"/>
	<circle cx="529.675" cy="43.567" r="4" fill="#0" id="circle76"/>
	<circle cx="552.285" cy="996" r="4" fill="#0" id="circle77"/>
	<circle cx="557.937" cy="43.567" r="4" fill="#0" id="circle78"/>
	<circle cx="580.547" cy="996" r="4" fill="#0" id="circle79"/>
	<circle cx="586.199" cy="43.567" r="4" fill="#0" id="circle80"/>
	<circle cx="608.809" cy="996" r="4" fill="#0" id="circle81"/>
	<circle cx="614.462" cy="32.2621" r="4" fill="#0" id="circle82"/>
	<circle cx="637.071" cy="996" r="4" fill="#0" id="circle83"/>
	<circle cx="642.724" cy="20.9573" r="4" fill="#0" id="circle84"/>
	<circle cx="665.333" cy="996" r="4" fill="#0" id="circle85"/>
	<circle cx="670.986" cy="9.65242" r="4" fill="#0" id="circle86"/>
	<circle cx="693.595" cy="996" r="4" fill="#0" id="circle87"/>
	<circle cx="699.248" cy="4" r="4" fill="#0" id="circle88"/>
	<circle cx="716.205" cy="374.234" r="4" fill="#0" id="circle89"/>
	<circle cx="719.031" cy="670.986" r="4" fill="#0" id="circle90"/>
	<circle cx="721.858" cy="996" r="4" fill="#0" id="circle91"/>
	<circle cx="724.684" cy="699.248" r="4" fill="#0" id="circle92"/>
	<circle cx="727.51" cy="9.65242" r="4" fill="#0" id="circle93"/>
	<circle cx="727.51" cy="727.51" r="4" fill="#0" id="circle94"/>
	<circle cx="733.162" cy="351.624" r="4" fill="#0" id="circle95"/>
	<circle cx="735.989" cy="755.772" r="4" fill="#0" id="circle96"/>
	<circle cx="744.467" cy="323.362" r="4" fill="#0" id="circle97"/>
	<circle cx="744.467" cy="382.712" r="4" fill="#0" id="circle98"/>
	<circle cx="744.467" cy="979.043" r="4" fill="#0" id="circle99"/>
	<circle cx="747.293" cy="665.333" r="4" fill="#0" id="circle100"/>
	<circle cx="752.946" cy="286.621" r="4" fill="#0" id="circle101"/>
	<circle cx="752.946" cy="778.382" r="4" fill="#0" id="circle102"/>
	<circle cx="755.772" cy="20.9573" r="4" fill="#0" id="circle103"/>
	<circle cx="755.772" cy="193.356" r="4" fill="#0" id="circle104"/>
	<circle cx="758.598" cy="221.618" r="4" fill="#0" id="circle105"/>
	<circle cx="758.598" cy="249.88" r="4" fill="#0" id="circle106"/>
	<circle cx="758.598" cy="806.644" r="4" fill="#0" id="circle107"/>
	<circle cx="764.251" cy="834.906" r="4" fill="#0" id="circle108"/>
	<circle cx="767.077" cy="165.094" r="4" fill="#0" id="circle109"/>
	<circle cx="767.077" cy="962.085" r="4" fill="#0" id="circle110"/>
	<circle cx="769.903" cy="908.387" r="4" fill="#0" id="circle111"/>
	<circle cx="772.729" cy="394.017" r="4" fill="#0" id="circle112"/>
	<circle cx="772.729" cy="651.202" r="4" fill="#0" id="circle113"/>
	<circle cx="775.556" cy="863.168" r="4" fill="#0" id="circle114"/>
	<circle cx="778.382" cy="40.7407" r="4" fill="#0" id="circle115"/>
	<circle cx="781.208" cy="128.353" r="4" fill="#0" id="circle116"/>
	<circle cx="792.513" cy="66.1766" r="4" fill="#0" id="circle117"/>
	<circle cx="792.513" cy="94.4387" r="4" fill="#0" id="circle118"/>
	<circle cx="795.339" cy="634.245" r="4" fill="#0" id="circle119"/>
	<circle cx="798.165" cy="408.148" r="4" fill="#0" id="circle120"/>
	<circle cx="817.949" cy="611.635" r="4" fill="#0" id="circle121"/>
	<circle cx="820.775" cy="427.932" r="4" fill="#0" id="circle122"/>
	<circle cx="840.558" cy="450.541" r="4" fill="#0" id="circle123"/>
	<circle cx="840.558" cy="589.026" r="4" fill="#0" id="circle124"/>
	<circle cx="854.689" cy="475.977" r="4" fill="#0" id="circle125"/>
	<circle cx="854.689" cy="557.937" r="4" fill="#0" id="circle126"/>
	<circle cx="860.342" cy="512.718" r="4" fill="#0" id="circle127"/>
	</g>
</svg>