<?xml version="1.0" encoding="UTF-8" standalone="no"?>
<!-- Created with CurveBenchmark -->
<svg
	xmlns:dc="http://purl.org/dc/elements/1.1/"
	xmlns:cc="http://creativecommons.org/ns#"
	xmlns:rdf="http://www.w3.org/1999/02/22-rdf-syntax-ns#"
	xmlns:svg="http://www.w3.org/2000/svg"
	xmlns="http://www.w3.org/2000/svg"
	xmlns:sodipodi="http://sodipodi.sourceforge.net/DTD/sodipodi-0.dtd"
	xmlns:inkscape="http://www.inkscape.org/namespaces/inkscape"
	width="1000"
	height="1000"
	id="svg2"
	version="1.1"
	sodipodi:docname="manifold/gathang-Bone11.png.txt">
<defs
	id="defs4" />
<metadata
	id="metadata7">
	<rdf:RDF>
		<cc:Work
			rdf:about="">
			<dc:format>image/svg+xml</dc:format>
			<dc:type
				rdf:resource="http://purl.org/dc/dcmitype/StillImage" />
			<dc:title></dc:title>
		</cc:Work>
	</rdf:RDF>
</metadata>
<g
	inkscape:label="Layer 1"
	inkscape:groupmode="layer"
	id="layer1">
	<path style="fill:none;stroke:red;stroke-width:1px;stroke-linecap:butt;stroke-linejoin:miter;stroke-opacity:1" d="M 302.114,727.012 288.408,739.005 z" id="boundary" inkscape:connector-curvature="0" />
	<path style="fill:none;stroke:red;stroke-width:1px;stroke-linecap:butt;stroke-linejoin:miter;stroke-opacity:1" d="M 243.862,656.767 235.295,673.9 z" id="boundary" inkscape:connector-curvature="0" />
	<path style="fill:none;stroke:red;stroke-width:1px;stroke-linecap:butt;stroke-linejoin:miter;stroke-opacity:1" d="M 214.736,711.592 223.302,694.459 z" id="boundary" inkscape:connector-curvature="0" />
	<path style="fill:none;stroke:red;stroke-width:1px;stroke-linecap:butt;stroke-linejoin:miter;stroke-opacity:1" d="M 214.736,711.592 201.029,725.299 z" id="boundary" inkscape:connector-curvature="0" />
	<path style="fill:none;stroke:red;stroke-width:1px;stroke-linecap:butt;stroke-linejoin:miter;stroke-opacity:1" d="M 223.302,694.459 235.295,673.9 z" id="boundary" inkscape:connector-curvature="0" />
	<path style="fill:none;stroke:red;stroke-width:1px;stroke-linecap:butt;stroke-linejoin:miter;stroke-opacity:1" d="M 274.701,608.794 288.408,595.088 z" id="boundary" inkscape:connector-curvature="0" />
	<path style="fill:none;stroke:red;stroke-width:1px;stroke-linecap:butt;stroke-linejoin:miter;stroke-opacity:1" d="M 296.974,577.955 288.408,595.088 z" id="boundary" inkscape:connector-curvature="0" />
	<path style="fill:none;stroke:red;stroke-width:1px;stroke-linecap:butt;stroke-linejoin:miter;stroke-opacity:1" d="M 243.862,656.767 257.568,643.06 z" id="boundary" inkscape:connector-curvature="0" />
	<path style="fill:none;stroke:red;stroke-width:1px;stroke-linecap:butt;stroke-linejoin:miter;stroke-opacity:1" d="M 266.135,625.927 257.568,643.06 z" id="boundary" inkscape:connector-curvature="0" />
	<path style="fill:none;stroke:red;stroke-width:1px;stroke-linecap:butt;stroke-linejoin:miter;stroke-opacity:1" d="M 274.701,608.794 266.135,625.927 z" id="boundary" inkscape:connector-curvature="0" />
	<path style="fill:none;stroke:red;stroke-width:1px;stroke-linecap:butt;stroke-linejoin:miter;stroke-opacity:1" d="M 305.541,560.822 296.974,577.955 z" id="boundary" inkscape:connector-curvature="0" />
	<path style="fill:none;stroke:red;stroke-width:1px;stroke-linecap:butt;stroke-linejoin:miter;stroke-opacity:1" d="M 62.2522,754.425 79.3851,754.425 z" id="boundary" inkscape:connector-curvature="0" />
	<path style="fill:none;stroke:red;stroke-width:1px;stroke-linecap:butt;stroke-linejoin:miter;stroke-opacity:1" d="M 48.5458,766.418 62.2522,754.425 z" id="boundary" inkscape:connector-curvature="0" />
	<path style="fill:none;stroke:red;stroke-width:1px;stroke-linecap:butt;stroke-linejoin:miter;stroke-opacity:1" d="M 34.8394,780.124 48.5458,766.418 z" id="boundary" inkscape:connector-curvature="0" />
	<path style="fill:none;stroke:red;stroke-width:1px;stroke-linecap:butt;stroke-linejoin:miter;stroke-opacity:1" d="M 79.3851,754.425 94.8048,762.991 z" id="boundary" inkscape:connector-curvature="0" />
	<path style="fill:none;stroke:red;stroke-width:1px;stroke-linecap:butt;stroke-linejoin:miter;stroke-opacity:1" d="M 111.938,762.991 94.8048,762.991 z" id="boundary" inkscape:connector-curvature="0" />
	<path style="fill:none;stroke:red;stroke-width:1px;stroke-linecap:butt;stroke-linejoin:miter;stroke-opacity:1" d="M 111.938,762.991 127.358,771.558 z" id="boundary" inkscape:connector-curvature="0" />
	<path style="fill:none;stroke:red;stroke-width:1px;stroke-linecap:butt;stroke-linejoin:miter;stroke-opacity:1" d="M 288.408,739.005 279.841,756.138 z" id="boundary" inkscape:connector-curvature="0" />
	<path style="fill:none;stroke:red;stroke-width:1px;stroke-linecap:butt;stroke-linejoin:miter;stroke-opacity:1" d="M 175.33,759.565 189.036,745.858 z" id="boundary" inkscape:connector-curvature="0" />
	<path style="fill:none;stroke:red;stroke-width:1px;stroke-linecap:butt;stroke-linejoin:miter;stroke-opacity:1" d="M 189.036,745.858 201.029,725.299 z" id="boundary" inkscape:connector-curvature="0" />
	<path style="fill:none;stroke:red;stroke-width:1px;stroke-linecap:butt;stroke-linejoin:miter;stroke-opacity:1" d="M 279.841,756.138 271.275,773.271 z" id="boundary" inkscape:connector-curvature="0" />
	<path style="fill:none;stroke:red;stroke-width:1px;stroke-linecap:butt;stroke-linejoin:miter;stroke-opacity:1" d="M 319.247,548.829 326.1,531.696 z" id="boundary" inkscape:connector-curvature="0" />
	<path style="fill:none;stroke:red;stroke-width:1px;stroke-linecap:butt;stroke-linejoin:miter;stroke-opacity:1" d="M 346.66,494.003 338.093,511.136 z" id="boundary" inkscape:connector-curvature="0" />
	<path style="fill:none;stroke:red;stroke-width:1px;stroke-linecap:butt;stroke-linejoin:miter;stroke-opacity:1" d="M 338.093,511.136 326.1,531.696 z" id="boundary" inkscape:connector-curvature="0" />
	<path style="fill:none;stroke:red;stroke-width:1px;stroke-linecap:butt;stroke-linejoin:miter;stroke-opacity:1" d="M 305.541,560.822 319.247,548.829 z" id="boundary" inkscape:connector-curvature="0" />
	<path style="fill:none;stroke:red;stroke-width:1px;stroke-linecap:butt;stroke-linejoin:miter;stroke-opacity:1" d="M 408.339,559.109 396.345,581.382 z" id="boundary" inkscape:connector-curvature="0" />
	<path style="fill:none;stroke:red;stroke-width:1px;stroke-linecap:butt;stroke-linejoin:miter;stroke-opacity:1" d="M 368.933,463.164 377.499,446.031 z" id="boundary" inkscape:connector-curvature="0" />
	<path style="fill:none;stroke:red;stroke-width:1px;stroke-linecap:butt;stroke-linejoin:miter;stroke-opacity:1" d="M 399.772,415.192 391.206,432.325 z" id="boundary" inkscape:connector-curvature="0" />
	<path style="fill:none;stroke:red;stroke-width:1px;stroke-linecap:butt;stroke-linejoin:miter;stroke-opacity:1" d="M 391.206,432.325 377.499,446.031 z" id="boundary" inkscape:connector-curvature="0" />
	<path style="fill:none;stroke:red;stroke-width:1px;stroke-linecap:butt;stroke-linejoin:miter;stroke-opacity:1" d="M 368.933,463.164 360.366,480.297 z" id="boundary" inkscape:connector-curvature="0" />
	<path style="fill:none;stroke:red;stroke-width:1px;stroke-linecap:butt;stroke-linejoin:miter;stroke-opacity:1" d="M 360.366,480.297 346.66,494.003 z" id="boundary" inkscape:connector-curvature="0" />
	<path style="fill:none;stroke:red;stroke-width:1px;stroke-linecap:butt;stroke-linejoin:miter;stroke-opacity:1" d="M 336.38,675.613 344.946,658.48 z" id="boundary" inkscape:connector-curvature="0" />
	<path style="fill:none;stroke:red;stroke-width:1px;stroke-linecap:butt;stroke-linejoin:miter;stroke-opacity:1" d="M 344.946,658.48 356.94,644.774 z" id="boundary" inkscape:connector-curvature="0" />
	<path style="fill:none;stroke:red;stroke-width:1px;stroke-linecap:butt;stroke-linejoin:miter;stroke-opacity:1" d="M 336.38,675.613 322.674,687.606 z" id="boundary" inkscape:connector-curvature="0" />
	<path style="fill:none;stroke:red;stroke-width:1px;stroke-linecap:butt;stroke-linejoin:miter;stroke-opacity:1" d="M 314.107,704.739 302.114,727.012 z" id="boundary" inkscape:connector-curvature="0" />
	<path style="fill:none;stroke:red;stroke-width:1px;stroke-linecap:butt;stroke-linejoin:miter;stroke-opacity:1" d="M 322.674,687.606 314.107,704.739 z" id="boundary" inkscape:connector-curvature="0" />
	<path style="fill:none;stroke:red;stroke-width:1px;stroke-linecap:butt;stroke-linejoin:miter;stroke-opacity:1" d="M 387.779,598.515 374.073,610.508 z" id="boundary" inkscape:connector-curvature="0" />
	<path style="fill:none;stroke:red;stroke-width:1px;stroke-linecap:butt;stroke-linejoin:miter;stroke-opacity:1" d="M 356.94,644.774 365.506,627.641 z" id="boundary" inkscape:connector-curvature="0" />
	<path style="fill:none;stroke:red;stroke-width:1px;stroke-linecap:butt;stroke-linejoin:miter;stroke-opacity:1" d="M 365.506,627.641 374.073,610.508 z" id="boundary" inkscape:connector-curvature="0" />
	<path style="fill:none;stroke:red;stroke-width:1px;stroke-linecap:butt;stroke-linejoin:miter;stroke-opacity:1" d="M 396.345,581.382 387.779,598.515 z" id="boundary" inkscape:connector-curvature="0" />
	<path style="fill:none;stroke:red;stroke-width:1px;stroke-linecap:butt;stroke-linejoin:miter;stroke-opacity:1" d="M 4,828.097 12.5665,810.964 z" id="boundary" inkscape:connector-curvature="0" />
	<path style="fill:none;stroke:red;stroke-width:1px;stroke-linecap:butt;stroke-linejoin:miter;stroke-opacity:1" d="M 12.5665,843.516 4,828.097 z" id="boundary" inkscape:connector-curvature="0" />
	<path style="fill:none;stroke:red;stroke-width:1px;stroke-linecap:butt;stroke-linejoin:miter;stroke-opacity:1" d="M 12.5665,843.516 12.5665,860.649 z" id="boundary" inkscape:connector-curvature="0" />
	<path style="fill:none;stroke:red;stroke-width:1px;stroke-linecap:butt;stroke-linejoin:miter;stroke-opacity:1" d="M 21.133,876.069 12.5665,860.649 z" id="boundary" inkscape:connector-curvature="0" />
	<path style="fill:none;stroke:red;stroke-width:1px;stroke-linecap:butt;stroke-linejoin:miter;stroke-opacity:1" d="M 12.5665,810.964 21.133,793.831 z" id="boundary" inkscape:connector-curvature="0" />
	<path style="fill:none;stroke:red;stroke-width:1px;stroke-linecap:butt;stroke-linejoin:miter;stroke-opacity:1" d="M 48.5458,893.202 31.4128,889.775 z" id="boundary" inkscape:connector-curvature="0" />
	<path style="fill:none;stroke:red;stroke-width:1px;stroke-linecap:butt;stroke-linejoin:miter;stroke-opacity:1" d="M 31.4128,889.775 21.133,876.069 z" id="boundary" inkscape:connector-curvature="0" />
	<path style="fill:none;stroke:red;stroke-width:1px;stroke-linecap:butt;stroke-linejoin:miter;stroke-opacity:1" d="M 21.133,793.831 34.8394,780.124 z" id="boundary" inkscape:connector-curvature="0" />
	<path style="fill:none;stroke:red;stroke-width:1px;stroke-linecap:butt;stroke-linejoin:miter;stroke-opacity:1" d="M 48.5458,893.202 65.6788,893.202 z" id="boundary" inkscape:connector-curvature="0" />
	<path style="fill:none;stroke:red;stroke-width:1px;stroke-linecap:butt;stroke-linejoin:miter;stroke-opacity:1" d="M 89.6649,948.028 89.6649,965.161 z" id="boundary" inkscape:connector-curvature="0" />
	<path style="fill:none;stroke:red;stroke-width:1px;stroke-linecap:butt;stroke-linejoin:miter;stroke-opacity:1" d="M 65.6788,893.202 82.8117,893.202 z" id="boundary" inkscape:connector-curvature="0" />
	<path style="fill:none;stroke:red;stroke-width:1px;stroke-linecap:butt;stroke-linejoin:miter;stroke-opacity:1" d="M 103.371,977.154 89.6649,965.161 z" id="boundary" inkscape:connector-curvature="0" />
	<path style="fill:none;stroke:red;stroke-width:1px;stroke-linecap:butt;stroke-linejoin:miter;stroke-opacity:1" d="M 98.2314,918.902 89.6649,948.028 z" id="boundary" inkscape:connector-curvature="0" />
	<path style="fill:none;stroke:red;stroke-width:1px;stroke-linecap:butt;stroke-linejoin:miter;stroke-opacity:1" d="M 98.2314,901.769 98.2314,918.902 z" id="boundary" inkscape:connector-curvature="0" />
	<path style="fill:none;stroke:red;stroke-width:1px;stroke-linecap:butt;stroke-linejoin:miter;stroke-opacity:1" d="M 82.8117,893.202 98.2314,901.769 z" id="boundary" inkscape:connector-curvature="0" />
	<path style="fill:none;stroke:red;stroke-width:1px;stroke-linecap:butt;stroke-linejoin:miter;stroke-opacity:1" d="M 103.371,977.154 120.504,978.867 z" id="boundary" inkscape:connector-curvature="0" />
	<path style="fill:none;stroke:red;stroke-width:1px;stroke-linecap:butt;stroke-linejoin:miter;stroke-opacity:1" d="M 120.504,978.867 135.924,987.434 z" id="boundary" inkscape:connector-curvature="0" />
	<path style="fill:none;stroke:red;stroke-width:1px;stroke-linecap:butt;stroke-linejoin:miter;stroke-opacity:1" d="M 127.358,771.558 142.777,780.124 z" id="boundary" inkscape:connector-curvature="0" />
	<path style="fill:none;stroke:red;stroke-width:1px;stroke-linecap:butt;stroke-linejoin:miter;stroke-opacity:1" d="M 228.442,833.237 231.869,850.37 z" id="boundary" inkscape:connector-curvature="0" />
	<path style="fill:none;stroke:red;stroke-width:1px;stroke-linecap:butt;stroke-linejoin:miter;stroke-opacity:1" d="M 228.442,833.237 237.009,816.104 z" id="boundary" inkscape:connector-curvature="0" />
	<path style="fill:none;stroke:red;stroke-width:1px;stroke-linecap:butt;stroke-linejoin:miter;stroke-opacity:1" d="M 245.575,798.971 237.009,816.104 z" id="boundary" inkscape:connector-curvature="0" />
	<path style="fill:none;stroke:red;stroke-width:1px;stroke-linecap:butt;stroke-linejoin:miter;stroke-opacity:1" d="M 245.575,798.971 259.282,786.978 z" id="boundary" inkscape:connector-curvature="0" />
	<path style="fill:none;stroke:red;stroke-width:1px;stroke-linecap:butt;stroke-linejoin:miter;stroke-opacity:1" d="M 159.91,780.124 175.33,759.565 z" id="boundary" inkscape:connector-curvature="0" />
	<path style="fill:none;stroke:red;stroke-width:1px;stroke-linecap:butt;stroke-linejoin:miter;stroke-opacity:1" d="M 237.009,867.503 231.869,850.37 z" id="boundary" inkscape:connector-curvature="0" />
	<path style="fill:none;stroke:red;stroke-width:1px;stroke-linecap:butt;stroke-linejoin:miter;stroke-opacity:1" d="M 259.282,786.978 271.275,773.271 z" id="boundary" inkscape:connector-curvature="0" />
	<path style="fill:none;stroke:red;stroke-width:1px;stroke-linecap:butt;stroke-linejoin:miter;stroke-opacity:1" d="M 159.91,780.124 142.777,780.124 z" id="boundary" inkscape:connector-curvature="0" />
	<path style="fill:none;stroke:red;stroke-width:1px;stroke-linecap:butt;stroke-linejoin:miter;stroke-opacity:1" d="M 237.009,867.503 237.009,884.636 z" id="boundary" inkscape:connector-curvature="0" />
	<path style="fill:none;stroke:red;stroke-width:1px;stroke-linecap:butt;stroke-linejoin:miter;stroke-opacity:1" d="M 202.743,978.867 219.876,970.301 z" id="boundary" inkscape:connector-curvature="0" />
	<path style="fill:none;stroke:red;stroke-width:1px;stroke-linecap:butt;stroke-linejoin:miter;stroke-opacity:1" d="M 185.61,987.434 170.19,996 z" id="boundary" inkscape:connector-curvature="0" />
	<path style="fill:none;stroke:red;stroke-width:1px;stroke-linecap:butt;stroke-linejoin:miter;stroke-opacity:1" d="M 170.19,996 153.057,992.573 z" id="boundary" inkscape:connector-curvature="0" />
	<path style="fill:none;stroke:red;stroke-width:1px;stroke-linecap:butt;stroke-linejoin:miter;stroke-opacity:1" d="M 202.743,978.867 185.61,987.434 z" id="boundary" inkscape:connector-curvature="0" />
	<path style="fill:none;stroke:red;stroke-width:1px;stroke-linecap:butt;stroke-linejoin:miter;stroke-opacity:1" d="M 153.057,992.573 135.924,987.434 z" id="boundary" inkscape:connector-curvature="0" />
	<path style="fill:none;stroke:red;stroke-width:1px;stroke-linecap:butt;stroke-linejoin:miter;stroke-opacity:1" d="M 237.009,884.636 245.575,900.055 z" id="boundary" inkscape:connector-curvature="0" />
	<path style="fill:none;stroke:red;stroke-width:1px;stroke-linecap:butt;stroke-linejoin:miter;stroke-opacity:1" d="M 245.575,900.055 245.575,917.188 z" id="boundary" inkscape:connector-curvature="0" />
	<path style="fill:none;stroke:red;stroke-width:1px;stroke-linecap:butt;stroke-linejoin:miter;stroke-opacity:1" d="M 245.575,917.188 245.575,944.601 z" id="boundary" inkscape:connector-curvature="0" />
	<path style="fill:none;stroke:red;stroke-width:1px;stroke-linecap:butt;stroke-linejoin:miter;stroke-opacity:1" d="M 245.575,944.601 233.582,958.307 z" id="boundary" inkscape:connector-curvature="0" />
	<path style="fill:none;stroke:red;stroke-width:1px;stroke-linecap:butt;stroke-linejoin:miter;stroke-opacity:1" d="M 233.582,958.307 219.876,970.301 z" id="boundary" inkscape:connector-curvature="0" />
	<path style="fill:none;stroke:red;stroke-width:1px;stroke-linecap:butt;stroke-linejoin:miter;stroke-opacity:1" d="M 535.123,86.2383 552.256,89.6649 z" id="boundary" inkscape:connector-curvature="0" />
	<path style="fill:none;stroke:red;stroke-width:1px;stroke-linecap:butt;stroke-linejoin:miter;stroke-opacity:1" d="M 517.99,91.3782 526.556,106.798 z" id="boundary" inkscape:connector-curvature="0" />
	<path style="fill:none;stroke:red;stroke-width:1px;stroke-linecap:butt;stroke-linejoin:miter;stroke-opacity:1" d="M 517.99,91.3782 535.123,86.2383 z" id="boundary" inkscape:connector-curvature="0" />
	<path style="fill:none;stroke:red;stroke-width:1px;stroke-linecap:butt;stroke-linejoin:miter;stroke-opacity:1" d="M 535.123,122.218 526.556,106.798 z" id="boundary" inkscape:connector-curvature="0" />
	<path style="fill:none;stroke:red;stroke-width:1px;stroke-linecap:butt;stroke-linejoin:miter;stroke-opacity:1" d="M 655.054,22.8463 646.487,39.9793 z" id="boundary" inkscape:connector-curvature="0" />
	<path style="fill:none;stroke:red;stroke-width:1px;stroke-linecap:butt;stroke-linejoin:miter;stroke-opacity:1" d="M 567.675,98.2314 552.256,89.6649 z" id="boundary" inkscape:connector-curvature="0" />
	<path style="fill:none;stroke:red;stroke-width:1px;stroke-linecap:butt;stroke-linejoin:miter;stroke-opacity:1" d="M 637.921,65.6788 629.354,82.8117 z" id="boundary" inkscape:connector-curvature="0" />
	<path style="fill:none;stroke:red;stroke-width:1px;stroke-linecap:butt;stroke-linejoin:miter;stroke-opacity:1" d="M 625.927,103.371 629.354,82.8117 z" id="boundary" inkscape:connector-curvature="0" />
	<path style="fill:none;stroke:red;stroke-width:1px;stroke-linecap:butt;stroke-linejoin:miter;stroke-opacity:1" d="M 646.487,39.9793 637.921,65.6788 z" id="boundary" inkscape:connector-curvature="0" />
	<path style="fill:none;stroke:red;stroke-width:1px;stroke-linecap:butt;stroke-linejoin:miter;stroke-opacity:1" d="M 625.927,103.371 610.508,111.938 z" id="boundary" inkscape:connector-curvature="0" />
	<path style="fill:none;stroke:red;stroke-width:1px;stroke-linecap:butt;stroke-linejoin:miter;stroke-opacity:1" d="M 543.689,154.77 535.123,139.351 z" id="boundary" inkscape:connector-curvature="0" />
	<path style="fill:none;stroke:red;stroke-width:1px;stroke-linecap:butt;stroke-linejoin:miter;stroke-opacity:1" d="M 535.123,202.743 523.13,223.302 z" id="boundary" inkscape:connector-curvature="0" />
	<path style="fill:none;stroke:red;stroke-width:1px;stroke-linecap:butt;stroke-linejoin:miter;stroke-opacity:1" d="M 543.689,171.903 535.123,202.743 z" id="boundary" inkscape:connector-curvature="0" />
	<path style="fill:none;stroke:red;stroke-width:1px;stroke-linecap:butt;stroke-linejoin:miter;stroke-opacity:1" d="M 543.689,154.77 543.689,171.903 z" id="boundary" inkscape:connector-curvature="0" />
	<path style="fill:none;stroke:red;stroke-width:1px;stroke-linecap:butt;stroke-linejoin:miter;stroke-opacity:1" d="M 535.123,139.351 535.123,122.218 z" id="boundary" inkscape:connector-curvature="0" />
	<path style="fill:none;stroke:red;stroke-width:1px;stroke-linecap:butt;stroke-linejoin:miter;stroke-opacity:1" d="M 610.508,111.938 595.088,120.504 z" id="boundary" inkscape:connector-curvature="0" />
	<path style="fill:none;stroke:red;stroke-width:1px;stroke-linecap:butt;stroke-linejoin:miter;stroke-opacity:1" d="M 595.088,120.504 579.668,111.938 z" id="boundary" inkscape:connector-curvature="0" />
	<path style="fill:none;stroke:red;stroke-width:1px;stroke-linecap:butt;stroke-linejoin:miter;stroke-opacity:1" d="M 579.668,111.938 567.675,98.2314 z" id="boundary" inkscape:connector-curvature="0" />
	<path style="fill:none;stroke:red;stroke-width:1px;stroke-linecap:butt;stroke-linejoin:miter;stroke-opacity:1" d="M 646.487,225.016 631.067,233.582 z" id="boundary" inkscape:connector-curvature="0" />
	<path style="fill:none;stroke:red;stroke-width:1px;stroke-linecap:butt;stroke-linejoin:miter;stroke-opacity:1" d="M 663.62,5.7133 680.753,4 z" id="boundary" inkscape:connector-curvature="0" />
	<path style="fill:none;stroke:red;stroke-width:1px;stroke-linecap:butt;stroke-linejoin:miter;stroke-opacity:1" d="M 680.753,4 682.466,21.133 z" id="boundary" inkscape:connector-curvature="0" />
	<path style="fill:none;stroke:red;stroke-width:1px;stroke-linecap:butt;stroke-linejoin:miter;stroke-opacity:1" d="M 682.466,21.133 691.033,36.5527 z" id="boundary" inkscape:connector-curvature="0" />
	<path style="fill:none;stroke:red;stroke-width:1px;stroke-linecap:butt;stroke-linejoin:miter;stroke-opacity:1" d="M 655.054,22.8463 663.62,5.7133 z" id="boundary" inkscape:connector-curvature="0" />
	<path style="fill:none;stroke:red;stroke-width:1px;stroke-linecap:butt;stroke-linejoin:miter;stroke-opacity:1" d="M 691.033,36.5527 699.599,51.9724 z" id="boundary" inkscape:connector-curvature="0" />
	<path style="fill:none;stroke:red;stroke-width:1px;stroke-linecap:butt;stroke-linejoin:miter;stroke-opacity:1" d="M 713.306,62.2522 699.599,51.9724 z" id="boundary" inkscape:connector-curvature="0" />
	<path style="fill:none;stroke:red;stroke-width:1px;stroke-linecap:butt;stroke-linejoin:miter;stroke-opacity:1" d="M 728.725,70.8187 713.306,62.2522 z" id="boundary" inkscape:connector-curvature="0" />
	<path style="fill:none;stroke:red;stroke-width:1px;stroke-linecap:butt;stroke-linejoin:miter;stroke-opacity:1" d="M 728.725,70.8187 745.858,77.6718 z" id="boundary" inkscape:connector-curvature="0" />
	<path style="fill:none;stroke:red;stroke-width:1px;stroke-linecap:butt;stroke-linejoin:miter;stroke-opacity:1" d="M 762.991,77.6718 745.858,77.6718 z" id="boundary" inkscape:connector-curvature="0" />
	<path style="fill:none;stroke:red;stroke-width:1px;stroke-linecap:butt;stroke-linejoin:miter;stroke-opacity:1" d="M 742.432,156.484 733.865,173.617 z" id="boundary" inkscape:connector-curvature="0" />
	<path style="fill:none;stroke:red;stroke-width:1px;stroke-linecap:butt;stroke-linejoin:miter;stroke-opacity:1" d="M 661.907,233.582 646.487,225.016 z" id="boundary" inkscape:connector-curvature="0" />
	<path style="fill:none;stroke:red;stroke-width:1px;stroke-linecap:butt;stroke-linejoin:miter;stroke-opacity:1" d="M 733.865,214.736 725.299,199.316 z" id="boundary" inkscape:connector-curvature="0" />
	<path style="fill:none;stroke:red;stroke-width:1px;stroke-linecap:butt;stroke-linejoin:miter;stroke-opacity:1" d="M 725.299,199.316 733.865,173.617 z" id="boundary" inkscape:connector-curvature="0" />
	<path style="fill:none;stroke:red;stroke-width:1px;stroke-linecap:butt;stroke-linejoin:miter;stroke-opacity:1" d="M 742.432,230.155 733.865,214.736 z" id="boundary" inkscape:connector-curvature="0" />
	<path style="fill:none;stroke:red;stroke-width:1px;stroke-linecap:butt;stroke-linejoin:miter;stroke-opacity:1" d="M 742.432,156.484 756.138,144.491 z" id="boundary" inkscape:connector-curvature="0" />
	<path style="fill:none;stroke:red;stroke-width:1px;stroke-linecap:butt;stroke-linejoin:miter;stroke-opacity:1" d="M 762.991,77.6718 776.698,87.9516 z" id="boundary" inkscape:connector-curvature="0" />
	<path style="fill:none;stroke:red;stroke-width:1px;stroke-linecap:butt;stroke-linejoin:miter;stroke-opacity:1" d="M 776.698,87.9516 768.131,113.651 z" id="boundary" inkscape:connector-curvature="0" />
	<path style="fill:none;stroke:red;stroke-width:1px;stroke-linecap:butt;stroke-linejoin:miter;stroke-opacity:1" d="M 768.131,113.651 768.131,130.784 z" id="boundary" inkscape:connector-curvature="0" />
	<path style="fill:none;stroke:red;stroke-width:1px;stroke-linecap:butt;stroke-linejoin:miter;stroke-opacity:1" d="M 768.131,130.784 756.138,144.491 z" id="boundary" inkscape:connector-curvature="0" />
	<path style="fill:none;stroke:red;stroke-width:1px;stroke-linecap:butt;stroke-linejoin:miter;stroke-opacity:1" d="M 422.045,386.066 428.898,368.933 z" id="boundary" inkscape:connector-curvature="0" />
	<path style="fill:none;stroke:red;stroke-width:1px;stroke-linecap:butt;stroke-linejoin:miter;stroke-opacity:1" d="M 442.604,355.226 428.898,368.933 z" id="boundary" inkscape:connector-curvature="0" />
	<path style="fill:none;stroke:red;stroke-width:1px;stroke-linecap:butt;stroke-linejoin:miter;stroke-opacity:1" d="M 451.171,338.093 442.604,355.226 z" id="boundary" inkscape:connector-curvature="0" />
	<path style="fill:none;stroke:red;stroke-width:1px;stroke-linecap:butt;stroke-linejoin:miter;stroke-opacity:1" d="M 408.339,398.059 422.045,386.066 z" id="boundary" inkscape:connector-curvature="0" />
	<path style="fill:none;stroke:red;stroke-width:1px;stroke-linecap:butt;stroke-linejoin:miter;stroke-opacity:1" d="M 507.71,418.618 499.143,435.751 z" id="boundary" inkscape:connector-curvature="0" />
	<path style="fill:none;stroke:red;stroke-width:1px;stroke-linecap:butt;stroke-linejoin:miter;stroke-opacity:1" d="M 464.877,326.1 471.731,308.967 z" id="boundary" inkscape:connector-curvature="0" />
	<path style="fill:none;stroke:red;stroke-width:1px;stroke-linecap:butt;stroke-linejoin:miter;stroke-opacity:1" d="M 464.877,326.1 451.171,338.093 z" id="boundary" inkscape:connector-curvature="0" />
	<path style="fill:none;stroke:red;stroke-width:1px;stroke-linecap:butt;stroke-linejoin:miter;stroke-opacity:1" d="M 480.297,291.834 471.731,308.967 z" id="boundary" inkscape:connector-curvature="0" />
	<path style="fill:none;stroke:red;stroke-width:1px;stroke-linecap:butt;stroke-linejoin:miter;stroke-opacity:1" d="M 492.29,271.275 480.297,291.834 z" id="boundary" inkscape:connector-curvature="0" />
	<path style="fill:none;stroke:red;stroke-width:1px;stroke-linecap:butt;stroke-linejoin:miter;stroke-opacity:1" d="M 442.604,516.276 430.611,529.983 z" id="boundary" inkscape:connector-curvature="0" />
	<path style="fill:none;stroke:red;stroke-width:1px;stroke-linecap:butt;stroke-linejoin:miter;stroke-opacity:1" d="M 451.171,499.143 442.604,516.276 z" id="boundary" inkscape:connector-curvature="0" />
	<path style="fill:none;stroke:red;stroke-width:1px;stroke-linecap:butt;stroke-linejoin:miter;stroke-opacity:1" d="M 408.339,559.109 416.905,541.976 z" id="boundary" inkscape:connector-curvature="0" />
	<path style="fill:none;stroke:red;stroke-width:1px;stroke-linecap:butt;stroke-linejoin:miter;stroke-opacity:1" d="M 416.905,541.976 430.611,529.983 z" id="boundary" inkscape:connector-curvature="0" />
	<path style="fill:none;stroke:red;stroke-width:1px;stroke-linecap:butt;stroke-linejoin:miter;stroke-opacity:1" d="M 485.437,447.744 499.143,435.751 z" id="boundary" inkscape:connector-curvature="0" />
	<path style="fill:none;stroke:red;stroke-width:1px;stroke-linecap:butt;stroke-linejoin:miter;stroke-opacity:1" d="M 473.444,470.017 485.437,447.744 z" id="boundary" inkscape:connector-curvature="0" />
	<path style="fill:none;stroke:red;stroke-width:1px;stroke-linecap:butt;stroke-linejoin:miter;stroke-opacity:1" d="M 399.772,415.192 408.339,398.059 z" id="boundary" inkscape:connector-curvature="0" />
	<path style="fill:none;stroke:red;stroke-width:1px;stroke-linecap:butt;stroke-linejoin:miter;stroke-opacity:1" d="M 451.171,499.143 459.737,482.01 z" id="boundary" inkscape:connector-curvature="0" />
	<path style="fill:none;stroke:red;stroke-width:1px;stroke-linecap:butt;stroke-linejoin:miter;stroke-opacity:1" d="M 459.737,482.01 473.444,470.017 z" id="boundary" inkscape:connector-curvature="0" />
	<path style="fill:none;stroke:red;stroke-width:1px;stroke-linecap:butt;stroke-linejoin:miter;stroke-opacity:1" d="M 619.074,247.288 610.508,264.421 z" id="boundary" inkscape:connector-curvature="0" />
	<path style="fill:none;stroke:red;stroke-width:1px;stroke-linecap:butt;stroke-linejoin:miter;stroke-opacity:1" d="M 631.067,233.582 619.074,247.288 z" id="boundary" inkscape:connector-curvature="0" />
	<path style="fill:none;stroke:red;stroke-width:1px;stroke-linecap:butt;stroke-linejoin:miter;stroke-opacity:1" d="M 500.857,254.142 514.563,240.435 z" id="boundary" inkscape:connector-curvature="0" />
	<path style="fill:none;stroke:red;stroke-width:1px;stroke-linecap:butt;stroke-linejoin:miter;stroke-opacity:1" d="M 514.563,240.435 523.13,223.302 z" id="boundary" inkscape:connector-curvature="0" />
	<path style="fill:none;stroke:red;stroke-width:1px;stroke-linecap:butt;stroke-linejoin:miter;stroke-opacity:1" d="M 661.907,233.582 677.326,242.149 z" id="boundary" inkscape:connector-curvature="0" />
	<path style="fill:none;stroke:red;stroke-width:1px;stroke-linecap:butt;stroke-linejoin:miter;stroke-opacity:1" d="M 694.459,242.149 677.326,242.149 z" id="boundary" inkscape:connector-curvature="0" />
	<path style="fill:none;stroke:red;stroke-width:1px;stroke-linecap:butt;stroke-linejoin:miter;stroke-opacity:1" d="M 694.459,242.149 711.592,242.149 z" id="boundary" inkscape:connector-curvature="0" />
	<path style="fill:none;stroke:red;stroke-width:1px;stroke-linecap:butt;stroke-linejoin:miter;stroke-opacity:1" d="M 711.592,242.149 727.012,250.715 z" id="boundary" inkscape:connector-curvature="0" />
	<path style="fill:none;stroke:red;stroke-width:1px;stroke-linecap:butt;stroke-linejoin:miter;stroke-opacity:1" d="M 742.432,230.155 727.012,250.715 z" id="boundary" inkscape:connector-curvature="0" />
	<path style="fill:none;stroke:red;stroke-width:1px;stroke-linecap:butt;stroke-linejoin:miter;stroke-opacity:1" d="M 601.941,281.554 610.508,264.421 z" id="boundary" inkscape:connector-curvature="0" />
	<path style="fill:none;stroke:red;stroke-width:1px;stroke-linecap:butt;stroke-linejoin:miter;stroke-opacity:1" d="M 536.836,370.646 545.402,353.513 z" id="boundary" inkscape:connector-curvature="0" />
	<path style="fill:none;stroke:red;stroke-width:1px;stroke-linecap:butt;stroke-linejoin:miter;stroke-opacity:1" d="M 545.402,353.513 559.109,341.52 z" id="boundary" inkscape:connector-curvature="0" />
	<path style="fill:none;stroke:red;stroke-width:1px;stroke-linecap:butt;stroke-linejoin:miter;stroke-opacity:1" d="M 536.836,370.646 528.269,387.779 z" id="boundary" inkscape:connector-curvature="0" />
	<path style="fill:none;stroke:red;stroke-width:1px;stroke-linecap:butt;stroke-linejoin:miter;stroke-opacity:1" d="M 507.71,418.618 516.276,401.485 z" id="boundary" inkscape:connector-curvature="0" />
	<path style="fill:none;stroke:red;stroke-width:1px;stroke-linecap:butt;stroke-linejoin:miter;stroke-opacity:1" d="M 516.276,401.485 528.269,387.779 z" id="boundary" inkscape:connector-curvature="0" />
	<path style="fill:none;stroke:red;stroke-width:1px;stroke-linecap:butt;stroke-linejoin:miter;stroke-opacity:1" d="M 588.235,293.547 601.941,281.554 z" id="boundary" inkscape:connector-curvature="0" />
	<path style="fill:none;stroke:red;stroke-width:1px;stroke-linecap:butt;stroke-linejoin:miter;stroke-opacity:1" d="M 579.668,310.68 588.235,293.547 z" id="boundary" inkscape:connector-curvature="0" />
	<path style="fill:none;stroke:red;stroke-width:1px;stroke-linecap:butt;stroke-linejoin:miter;stroke-opacity:1" d="M 571.102,327.813 559.109,341.52 z" id="boundary" inkscape:connector-curvature="0" />
	<path style="fill:none;stroke:red;stroke-width:1px;stroke-linecap:butt;stroke-linejoin:miter;stroke-opacity:1" d="M 571.102,327.813 579.668,310.68 z" id="boundary" inkscape:connector-curvature="0" />
	<path style="fill:none;stroke:red;stroke-width:1px;stroke-linecap:butt;stroke-linejoin:miter;stroke-opacity:1" d="M 492.29,271.275 500.857,254.142 z" id="boundary" inkscape:connector-curvature="0" />
	<circle cx="4" cy="828.097" r="4" fill="#0" id="circle0"/>
	<circle cx="12.5665" cy="810.964" r="4" fill="#0" id="circle1"/>
	<circle cx="12.5665" cy="843.516" r="4" fill="#0" id="circle2"/>
	<circle cx="12.5665" cy="860.649" r="4" fill="#0" id="circle3"/>
	<circle cx="21.133" cy="793.831" r="4" fill="#0" id="circle4"/>
	<circle cx="21.133" cy="876.069" r="4" fill="#0" id="circle5"/>
	<circle cx="31.4128" cy="889.775" r="4" fill="#0" id="circle6"/>
	<circle cx="34.8394" cy="780.124" r="4" fill="#0" id="circle7"/>
	<circle cx="48.5458" cy="766.418" r="4" fill="#0" id="circle8"/>
	<circle cx="48.5458" cy="893.202" r="4" fill="#0" id="circle9"/>
	<circle cx="62.2522" cy="754.425" r="4" fill="#0" id="circle10"/>
	<circle cx="65.6788" cy="893.202" r="4" fill="#0" id="circle11"/>
	<circle cx="79.3851" cy="754.425" r="4" fill="#0" id="circle12"/>
	<circle cx="82.8117" cy="893.202" r="4" fill="#0" id="circle13"/>
	<circle cx="89.6649" cy="948.028" r="4" fill="#0" id="circle14"/>
	<circle cx="89.6649" cy="965.161" r="4" fill="#0" id="circle15"/>
	<circle cx="94.8048" cy="762.991" r="4" fill="#0" id="circle16"/>
	<circle cx="98.2314" cy="901.769" r="4" fill="#0" id="circle17"/>
	<circle cx="98.2314" cy="918.902" r="4" fill="#0" id="circle18"/>
	<circle cx="103.371" cy="977.154" r="4" fill="#0" id="circle19"/>
	<circle cx="111.938" cy="762.991" r="4" fill="#0" id="circle20"/>
	<circle cx="120.504" cy="978.867" r="4" fill="#0" id="circle21"/>
	<circle cx="127.358" cy="771.558" r="4" fill="#0" id="circle22"/>
	<circle cx="135.924" cy="987.434" r="4" fill="#0" id="circle23"/>
	<circle cx="142.777" cy="780.124" r="4" fill="#0" id="circle24"/>
	<circle cx="153.057" cy="992.573" r="4" fill="#0" id="circle25"/>
	<circle cx="159.91" cy="780.124" r="4" fill="#0" id="circle26"/>
	<circle cx="170.19" cy="996" r="4" fill="#0" id="circle27"/>
	<circle cx="175.33" cy="759.565" r="4" fill="#0" id="circle28"/>
	<circle cx="185.61" cy="987.434" r="4" fill="#0" id="circle29"/>
	<circle cx="189.036" cy="745.858" r="4" fill="#0" id="circle30"/>
	<circle cx="201.029" cy="725.299" r="4" fill="#0" id="circle31"/>
	<circle cx="202.743" cy="978.867" r="4" fill="#0" id="circle32"/>
	<circle cx="214.736" cy="711.592" r="4" fill="#0" id="circle33"/>
	<circle cx="219.876" cy="970.301" r="4" fill="#0" id="circle34"/>
	<circle cx="223.302" cy="694.459" r="4" fill="#0" id="circle35"/>
	<circle cx="228.442" cy="833.237" r="4" fill="#0" id="circle36"/>
	<circle cx="231.869" cy="850.37" r="4" fill="#0" id="circle37"/>
	<circle cx="233.582" cy="958.307" r="4" fill="#0" id="circle38"/>
	<circle cx="235.295" cy="673.9" r="4" fill="#0" id="circle39"/>
	<circle cx="237.009" cy="816.104" r="4" fill="#0" id="circle40"/>
	<circle cx="237.009" cy="867.503" r="4" fill="#0" id="circle41"/>
	<circle cx="237.009" cy="884.636" r="4" fill="#0" id="circle42"/>
	<circle cx="243.862" cy="656.767" r="4" fill="#0" id="circle43"/>
	<circle cx="245.575" cy="798.971" r="4" fill="#0" id="circle44"/>
	<circle cx="245.575" cy="900.055" r="4" fill="#0" id="circle45"/>
	<circle cx="245.575" cy="917.188" r="4" fill="#0" id="circle46"/>
	<circle cx="245.575" cy="944.601" r="4" fill="#0" id="circle47"/>
	<circle cx="257.568" cy="643.06" r="4" fill="#0" id="circle48"/>
	<circle cx="259.282" cy="786.978" r="4" fill="#0" id="circle49"/>
	<circle cx="266.135" cy="625.927" r="4" fill="#0" id="circle50"/>
	<circle cx="271.275" cy="773.271" r="4" fill="#0" id="circle51"/>
	<circle cx="274.701" cy="608.794" r="4" fill="#0" id="circle52"/>
	<circle cx="279.841" cy="756.138" r="4" fill="#0" id="circle53"/>
	<circle cx="288.408" cy="595.088" r="4" fill="#0" id="circle54"/>
	<circle cx="288.408" cy="739.005" r="4" fill="#0" id="circle55"/>
	<circle cx="296.974" cy="577.955" r="4" fill="#0" id="circle56"/>
	<circle cx="302.114" cy="727.012" r="4" fill="#0" id="circle57"/>
	<circle cx="305.541" cy="560.822" r="4" fill="#0" id="circle58"/>
	<circle cx="314.107" cy="704.739" r="4" fill="#0" id="circle59"/>
	<circle cx="319.247" cy="548.829" r="4" fill="#0" id="circle60"/>
	<circle cx="322.674" cy="687.606" r="4" fill="#0" id="circle61"/>
	<circle cx="326.1" cy="531.696" r="4" fill="#0" id="circle62"/>
	<circle cx="336.38" cy="675.613" r="4" fill="#0" id="circle63"/>
	<circle cx="338.093" cy="511.136" r="4" fill="#0" id="circle64"/>
	<circle cx="344.946" cy="658.48" r="4" fill="#0" id="circle65"/>
	<circle cx="346.66" cy="494.003" r="4" fill="#0" id="circle66"/>
	<circle cx="356.94" cy="644.774" r="4" fill="#0" id="circle67"/>
	<circle cx="360.366" cy="480.297" r="4" fill="#0" id="circle68"/>
	<circle cx="365.506" cy="627.641" r="4" fill="#0" id="circle69"/>
	<circle cx="368.933" cy="463.164" r="4" fill="#0" id="circle70"/>
	<circle cx="374.073" cy="610.508" r="4" fill="#0" id="circle71"/>
	<circle cx="377.499" cy="446.031" r="4" fill="#0" id="circle72"/>
	<circle cx="387.779" cy="598.515" r="4" fill="#0" id="circle73"/>
	<circle cx="391.206" cy="432.325" r="4" fill="#0" id="circle74"/>
	<circle cx="396.345" cy="581.382" r="4" fill="#0" id="circle75"/>
	<circle cx="399.772" cy="415.192" r="4" fill="#0" id="circle76"/>
	<circle cx="408.339" cy="398.059" r="4" fill="#0" id="circle77"/>
	<circle cx="408.339" cy="559.109" r="4" fill="#0" id="circle78"/>
	<circle cx="416.905" cy="541.976" r="4" fill="#0" id="circle79"/>
	<circle cx="422.045" cy="386.066" r="4" fill="#0" id="circle80"/>
	<circle cx="428.898" cy="368.933" r="4" fill="#0" id="circle81"/>
	<circle cx="430.611" cy="529.983" r="4" fill="#0" id="circle82"/>
	<circle cx="442.604" cy="355.226" r="4" fill="#0" id="circle83"/>
	<circle cx="442.604" cy="516.276" r="4" fill="#0" id="circle84"/>
	<circle cx="451.171" cy="338.093" r="4" fill="#0" id="circle85"/>
	<circle cx="451.171" cy="499.143" r="4" fill="#0" id="circle86"/>
	<circle cx="459.737" cy="482.01" r="4" fill="#0" id="circle87"/>
	<circle cx="464.877" cy="326.1" r="4" fill="#0" id="circle88"/>
	<circle cx="471.731" cy="308.967" r="4" fill="#0" id="circle89"/>
	<circle cx="473.444" cy="470.017" r="4" fill="#0" id="circle90"/>
	<circle cx="480.297" cy="291.834" r="4" fill="#0" id="circle91"/>
	<circle cx="485.437" cy="447.744" r="4" fill="#0" id="circle92"/>
	<circle cx="492.29" cy="271.275" r="4" fill="#0" id="circle93"/>
	<circle cx="499.143" cy="435.751" r="4" fill="#0" id="circle94"/>
	<circle cx="500.857" cy="254.142" r="4" fill="#0" id="circle95"/>
	<circle cx="507.71" cy="418.618" r="4" fill="#0" id="circle96"/>
	<circle cx="514.563" cy="240.435" r="4" fill="#0" id="circle97"/>
	<circle cx="516.276" cy="401.485" r="4" fill="#0" id="circle98"/>
	<circle cx="517.99" cy="91.3782" r="4" fill="#0" id="circle99"/>
	<circle cx="523.13" cy="223.302" r="4" fill="#0" id="circle100"/>
	<circle cx="526.556" cy="106.798" r="4" fill="#0" id="circle101"/>
	<circle cx="528.269" cy="387.779" r="4" fill="#0" id="circle102"/>
	<circle cx="535.123" cy="86.2383" r="4" fill="#0" id="circle103"/>
	<circle cx="535.123" cy="122.218" r="4" fill="#0" id="circle104"/>
	<circle cx="535.123" cy="139.351" r="4" fill="#0" id="circle105"/>
	<circle cx="535.123" cy="202.743" r="4" fill="#0" id="circle106"/>
	<circle cx="536.836" cy="370.646" r="4" fill="#0" id="circle107"/>
	<circle cx="543.689" cy="154.77" r="4" fill="#0" id="circle108"/>
	<circle cx="543.689" cy="171.903" r="4" fill="#0" id="circle109"/>
	<circle cx="545.402" cy="353.513" r="4" fill="#0" id="circle110"/>
	<circle cx="552.256" cy="89.6649" r="4" fill="#0" id="circle111"/>
	<circle cx="559.109" cy="341.52" r="4" fill="#0" id="circle112"/>
	<circle cx="567.675" cy="98.2314" r="4" fill="#0" id="circle113"/>
	<circle cx="571.102" cy="327.813" r="4" fill="#0" id="circle114"/>
	<circle cx="579.668" cy="111.938" r="4" fill="#0" id="circle115"/>
	<circle cx="579.668" cy="310.68" r="4" fill="#0" id="circle116"/>
	<circle cx="588.235" cy="293.547" r="4" fill="#0" id="circle117"/>
	<circle cx="595.088" cy="120.504" r="4" fill="#0" id="circle118"/>
	<circle cx="601.941" cy="281.554" r="4" fill="#0" id="circle119"/>
	<circle cx="610.508" cy="111.938" r="4" fill="#0" id="circle120"/>
	<circle cx="610.508" cy="264.421" r="4" fill="#0" id="circle121"/>
	<circle cx="619.074" cy="247.288" r="4" fill="#0" id="circle122"/>
	<circle cx="625.927" cy="103.371" r="4" fill="#0" id="circle123"/>
	<circle cx="629.354" cy="82.8117" r="4" fill="#0" id="circle124"/>
	<circle cx="631.067" cy="233.582" r="4" fill="#0" id="circle125"/>
	<circle cx="637.921" cy="65.6788" r="4" fill="#0" id="circle126"/>
	<circle cx="646.487" cy="39.9793" r="4" fill="#0" id="circle127"/>
	<circle cx="646.487" cy="225.016" r="4" fill="#0" id="circle128"/>
	<circle cx="655.054" cy="22.8463" r="4" fill="#0" id="circle129"/>
	<circle cx="661.907" cy="233.582" r="4" fill="#0" id="circle130"/>
	<circle cx="663.62" cy="5.7133" r="4" fill="#0" id="circle131"/>
	<circle cx="677.326" cy="242.149" r="4" fill="#0" id="circle132"/>
	<circle cx="680.753" cy="4" r="4" fill="#0" id="circle133"/>
	<circle cx="682.466" cy="21.133" r="4" fill="#0" id="circle134"/>
	<circle cx="691.033" cy="36.5527" r="4" fill="#0" id="circle135"/>
	<circle cx="694.459" cy="242.149" r="4" fill="#0" id="circle136"/>
	<circle cx="699.599" cy="51.9724" r="4" fill="#0" id="circle137"/>
	<circle cx="711.592" cy="242.149" r="4" fill="#0" id="circle138"/>
	<circle cx="713.306" cy="62.2522" r="4" fill="#0" id="circle139"/>
	<circle cx="725.299" cy="199.316" r="4" fill="#0" id="circle140"/>
	<circle cx="727.012" cy="250.715" r="4" fill="#0" id="circle141"/>
	<circle cx="728.725" cy="70.8187" r="4" fill="#0" id="circle142"/>
	<circle cx="733.865" cy="173.617" r="4" fill="#0" id="circle143"/>
	<circle cx="733.865" cy="214.736" r="4" fill="#0" id="circle144"/>
	<circle cx="742.432" cy="156.484" r="4" fill="#0" id="circle145"/>
	<circle cx="742.432" cy="230.155" r="4" fill="#0" id="circle146"/>
	<circle cx="745.858" cy="77.6718" r="4" fill="#0" id="circle147"/>
	<circle cx="756.138" cy="144.491" r="4" fill="#0" id="circle148"/>
	<circle cx="762.991" cy="77.6718" r="4" fill="#0" id="circle149"/>
	<circle cx="768.131" cy="113.651" r="4" fill="#0" id="circle150"/>
	<circle cx="768.131" cy="130.784" r="4" fill="#0" id="circle151"/>
	<circle cx="776.698" cy="87.9516" r="4" fill="#0" id="circle152"/>
	</g>
</svg>