<?xml version="1.0" encoding="UTF-8" standalone="no"?>
<!-- Created with CurveBenchmark -->
<svg
	xmlns:dc="http://purl.org/dc/elements/1.1/"
	xmlns:cc="http://creativecommons.org/ns#"
	xmlns:rdf="http://www.w3.org/1999/02/22-rdf-syntax-ns#"
	xmlns:svg="http://www.w3.org/2000/svg"
	xmlns="http://www.w3.org/2000/svg"
	xmlns:sodipodi="http://sodipodi.sourceforge.net/DTD/sodipodi-0.dtd"
	xmlns:inkscape="http://www.inkscape.org/namespaces/inkscape"
	width="1000"
	height="1000"
	id="svg2"
	version="1.1"
	sodipodi:docname="manifold/gathang-fish0723.png.txt">
<defs
	id="defs4" />
<metadata
	id="metadata7">
	<rdf:RDF>
		<cc:Work
			rdf:about="">
			<dc:format>image/svg+xml</dc:format>
			<dc:type
				rdf:resource="http://purl.org/dc/dcmitype/StillImage" />
			<dc:title></dc:title>
		</cc:Work>
	</rdf:RDF>
</metadata>
<g
	inkscape:label="Layer 1"
	inkscape:groupmode="layer"
	id="layer1">
	<path style="fill:none;stroke:red;stroke-width:1px;stroke-linecap:butt;stroke-linejoin:miter;stroke-opacity:1" d="M 190.974,118.262 203.958,118.262 z" id="boundary" inkscape:connector-curvature="0" />
	<path style="fill:none;stroke:red;stroke-width:1px;stroke-linecap:butt;stroke-linejoin:miter;stroke-opacity:1" d="M 179.288,124.754 190.974,118.262 z" id="boundary" inkscape:connector-curvature="0" />
	<path style="fill:none;stroke:red;stroke-width:1px;stroke-linecap:butt;stroke-linejoin:miter;stroke-opacity:1" d="M 141.634,131.246 128.649,131.246 z" id="boundary" inkscape:connector-curvature="0" />
	<path style="fill:none;stroke:red;stroke-width:1px;stroke-linecap:butt;stroke-linejoin:miter;stroke-opacity:1" d="M 179.288,124.754 166.304,124.754 z" id="boundary" inkscape:connector-curvature="0" />
	<path style="fill:none;stroke:red;stroke-width:1px;stroke-linecap:butt;stroke-linejoin:miter;stroke-opacity:1" d="M 154.618,131.246 166.304,124.754 z" id="boundary" inkscape:connector-curvature="0" />
	<path style="fill:none;stroke:red;stroke-width:1px;stroke-linecap:butt;stroke-linejoin:miter;stroke-opacity:1" d="M 263.686,83.2042 262.387,98.7853 z" id="boundary" inkscape:connector-curvature="0" />
	<path style="fill:none;stroke:red;stroke-width:1px;stroke-linecap:butt;stroke-linejoin:miter;stroke-opacity:1" d="M 262.387,98.7853 252,107.874 z" id="boundary" inkscape:connector-curvature="0" />
	<path style="fill:none;stroke:red;stroke-width:1px;stroke-linecap:butt;stroke-linejoin:miter;stroke-opacity:1" d="M 263.686,83.2042 274.073,72.8168 z" id="boundary" inkscape:connector-curvature="0" />
	<path style="fill:none;stroke:red;stroke-width:1px;stroke-linecap:butt;stroke-linejoin:miter;stroke-opacity:1" d="M 242.911,118.262 252,107.874 z" id="boundary" inkscape:connector-curvature="0" />
	<path style="fill:none;stroke:red;stroke-width:1px;stroke-linecap:butt;stroke-linejoin:miter;stroke-opacity:1" d="M 203.958,118.262 216.942,118.262 z" id="boundary" inkscape:connector-curvature="0" />
	<path style="fill:none;stroke:red;stroke-width:1px;stroke-linecap:butt;stroke-linejoin:miter;stroke-opacity:1" d="M 229.927,118.262 216.942,118.262 z" id="boundary" inkscape:connector-curvature="0" />
	<path style="fill:none;stroke:red;stroke-width:1px;stroke-linecap:butt;stroke-linejoin:miter;stroke-opacity:1" d="M 242.911,118.262 229.927,118.262 z" id="boundary" inkscape:connector-curvature="0" />
	<path style="fill:none;stroke:red;stroke-width:1px;stroke-linecap:butt;stroke-linejoin:miter;stroke-opacity:1" d="M 41.6545,157.215 28.6702,157.215 z" id="boundary" inkscape:connector-curvature="0" />
	<path style="fill:none;stroke:red;stroke-width:1px;stroke-linecap:butt;stroke-linejoin:miter;stroke-opacity:1" d="M 78.0105,144.23 66.3246,150.723 z" id="boundary" inkscape:connector-curvature="0" />
	<path style="fill:none;stroke:red;stroke-width:1px;stroke-linecap:butt;stroke-linejoin:miter;stroke-opacity:1" d="M 16.9843,163.707 28.6702,157.215 z" id="boundary" inkscape:connector-curvature="0" />
	<path style="fill:none;stroke:red;stroke-width:1px;stroke-linecap:butt;stroke-linejoin:miter;stroke-opacity:1" d="M 54.6387,157.215 41.6545,157.215 z" id="boundary" inkscape:connector-curvature="0" />
	<path style="fill:none;stroke:red;stroke-width:1px;stroke-linecap:butt;stroke-linejoin:miter;stroke-opacity:1" d="M 66.3246,150.723 54.6387,157.215 z" id="boundary" inkscape:connector-curvature="0" />
	<path style="fill:none;stroke:red;stroke-width:1px;stroke-linecap:butt;stroke-linejoin:miter;stroke-opacity:1" d="M 16.9843,163.707 4,167.602 z" id="boundary" inkscape:connector-curvature="0" />
	<path style="fill:none;stroke:red;stroke-width:1px;stroke-linecap:butt;stroke-linejoin:miter;stroke-opacity:1" d="M 116.963,137.738 103.979,139.037 z" id="boundary" inkscape:connector-curvature="0" />
	<path style="fill:none;stroke:red;stroke-width:1px;stroke-linecap:butt;stroke-linejoin:miter;stroke-opacity:1" d="M 128.649,131.246 116.963,137.738 z" id="boundary" inkscape:connector-curvature="0" />
	<path style="fill:none;stroke:red;stroke-width:1px;stroke-linecap:butt;stroke-linejoin:miter;stroke-opacity:1" d="M 154.618,131.246 141.634,131.246 z" id="boundary" inkscape:connector-curvature="0" />
	<path style="fill:none;stroke:red;stroke-width:1px;stroke-linecap:butt;stroke-linejoin:miter;stroke-opacity:1" d="M 103.979,139.037 90.9948,144.23 z" id="boundary" inkscape:connector-curvature="0" />
	<path style="fill:none;stroke:red;stroke-width:1px;stroke-linecap:butt;stroke-linejoin:miter;stroke-opacity:1" d="M 90.9948,144.23 78.0105,144.23 z" id="boundary" inkscape:connector-curvature="0" />
	<path style="fill:none;stroke:red;stroke-width:1px;stroke-linecap:butt;stroke-linejoin:miter;stroke-opacity:1" d="M 302.639,18.2827 309.131,5.29843 z" id="boundary" inkscape:connector-curvature="0" />
	<path style="fill:none;stroke:red;stroke-width:1px;stroke-linecap:butt;stroke-linejoin:miter;stroke-opacity:1" d="M 302.639,18.2827 289.654,31.267 z" id="boundary" inkscape:connector-curvature="0" />
	<path style="fill:none;stroke:red;stroke-width:1px;stroke-linecap:butt;stroke-linejoin:miter;stroke-opacity:1" d="M 289.654,31.267 289.654,44.2513 z" id="boundary" inkscape:connector-curvature="0" />
	<path style="fill:none;stroke:red;stroke-width:1px;stroke-linecap:butt;stroke-linejoin:miter;stroke-opacity:1" d="M 289.654,44.2513 276.67,50.7435 z" id="boundary" inkscape:connector-curvature="0" />
	<path style="fill:none;stroke:red;stroke-width:1px;stroke-linecap:butt;stroke-linejoin:miter;stroke-opacity:1" d="M 329.906,14.3874 329.906,27.3717 z" id="boundary" inkscape:connector-curvature="0" />
	<path style="fill:none;stroke:red;stroke-width:1px;stroke-linecap:butt;stroke-linejoin:miter;stroke-opacity:1" d="M 479.225,105.277 466.241,105.277 z" id="boundary" inkscape:connector-curvature="0" />
	<path style="fill:none;stroke:red;stroke-width:1px;stroke-linecap:butt;stroke-linejoin:miter;stroke-opacity:1" d="M 329.906,27.3717 329.906,40.356 z" id="boundary" inkscape:connector-curvature="0" />
	<path style="fill:none;stroke:red;stroke-width:1px;stroke-linecap:butt;stroke-linejoin:miter;stroke-opacity:1" d="M 336.398,52.0419 336.398,65.0262 z" id="boundary" inkscape:connector-curvature="0" />
	<path style="fill:none;stroke:red;stroke-width:1px;stroke-linecap:butt;stroke-linejoin:miter;stroke-opacity:1" d="M 336.398,52.0419 329.906,40.356 z" id="boundary" inkscape:connector-curvature="0" />
	<path style="fill:none;stroke:red;stroke-width:1px;stroke-linecap:butt;stroke-linejoin:miter;stroke-opacity:1" d="M 342.89,76.712 336.398,65.0262 z" id="boundary" inkscape:connector-curvature="0" />
	<path style="fill:none;stroke:red;stroke-width:1px;stroke-linecap:butt;stroke-linejoin:miter;stroke-opacity:1" d="M 309.131,5.29843 322.115,4 z" id="boundary" inkscape:connector-curvature="0" />
	<path style="fill:none;stroke:red;stroke-width:1px;stroke-linecap:butt;stroke-linejoin:miter;stroke-opacity:1" d="M 322.115,4 329.906,14.3874 z" id="boundary" inkscape:connector-curvature="0" />
	<path style="fill:none;stroke:red;stroke-width:1px;stroke-linecap:butt;stroke-linejoin:miter;stroke-opacity:1" d="M 342.89,76.712 353.277,85.801 z" id="boundary" inkscape:connector-curvature="0" />
	<path style="fill:none;stroke:red;stroke-width:1px;stroke-linecap:butt;stroke-linejoin:miter;stroke-opacity:1" d="M 353.277,85.801 364.963,92.2932 z" id="boundary" inkscape:connector-curvature="0" />
	<path style="fill:none;stroke:red;stroke-width:1px;stroke-linecap:butt;stroke-linejoin:miter;stroke-opacity:1" d="M 376.649,98.7853 364.963,92.2932 z" id="boundary" inkscape:connector-curvature="0" />
	<path style="fill:none;stroke:red;stroke-width:1px;stroke-linecap:butt;stroke-linejoin:miter;stroke-opacity:1" d="M 401.319,105.277 388.335,105.277 z" id="boundary" inkscape:connector-curvature="0" />
	<path style="fill:none;stroke:red;stroke-width:1px;stroke-linecap:butt;stroke-linejoin:miter;stroke-opacity:1" d="M 388.335,105.277 376.649,98.7853 z" id="boundary" inkscape:connector-curvature="0" />
	<path style="fill:none;stroke:red;stroke-width:1px;stroke-linecap:butt;stroke-linejoin:miter;stroke-opacity:1" d="M 414.304,105.277 401.319,105.277 z" id="boundary" inkscape:connector-curvature="0" />
	<path style="fill:none;stroke:red;stroke-width:1px;stroke-linecap:butt;stroke-linejoin:miter;stroke-opacity:1" d="M 427.288,105.277 440.272,105.277 z" id="boundary" inkscape:connector-curvature="0" />
	<path style="fill:none;stroke:red;stroke-width:1px;stroke-linecap:butt;stroke-linejoin:miter;stroke-opacity:1" d="M 453.257,105.277 440.272,105.277 z" id="boundary" inkscape:connector-curvature="0" />
	<path style="fill:none;stroke:red;stroke-width:1px;stroke-linecap:butt;stroke-linejoin:miter;stroke-opacity:1" d="M 427.288,105.277 414.304,105.277 z" id="boundary" inkscape:connector-curvature="0" />
	<path style="fill:none;stroke:red;stroke-width:1px;stroke-linecap:butt;stroke-linejoin:miter;stroke-opacity:1" d="M 466.241,105.277 453.257,105.277 z" id="boundary" inkscape:connector-curvature="0" />
	<path style="fill:none;stroke:red;stroke-width:1px;stroke-linecap:butt;stroke-linejoin:miter;stroke-opacity:1" d="M 4,180.586 4,167.602 z" id="boundary" inkscape:connector-curvature="0" />
	<path style="fill:none;stroke:red;stroke-width:1px;stroke-linecap:butt;stroke-linejoin:miter;stroke-opacity:1" d="M 14.3874,189.675 27.3717,190.974 z" id="boundary" inkscape:connector-curvature="0" />
	<path style="fill:none;stroke:red;stroke-width:1px;stroke-linecap:butt;stroke-linejoin:miter;stroke-opacity:1" d="M 27.3717,190.974 39.0576,197.466 z" id="boundary" inkscape:connector-curvature="0" />
	<path style="fill:none;stroke:red;stroke-width:1px;stroke-linecap:butt;stroke-linejoin:miter;stroke-opacity:1" d="M 14.3874,189.675 4,180.586 z" id="boundary" inkscape:connector-curvature="0" />
	<path style="fill:none;stroke:red;stroke-width:1px;stroke-linecap:butt;stroke-linejoin:miter;stroke-opacity:1" d="M 39.0576,197.466 50.7435,203.958 z" id="boundary" inkscape:connector-curvature="0" />
	<path style="fill:none;stroke:red;stroke-width:1px;stroke-linecap:butt;stroke-linejoin:miter;stroke-opacity:1" d="M 50.7435,203.958 63.7277,206.555 z" id="boundary" inkscape:connector-curvature="0" />
	<path style="fill:none;stroke:red;stroke-width:1px;stroke-linecap:butt;stroke-linejoin:miter;stroke-opacity:1" d="M 63.7277,206.555 75.4136,213.047 z" id="boundary" inkscape:connector-curvature="0" />
	<path style="fill:none;stroke:red;stroke-width:1px;stroke-linecap:butt;stroke-linejoin:miter;stroke-opacity:1" d="M 88.3979,216.942 101.382,216.942 z" id="boundary" inkscape:connector-curvature="0" />
	<path style="fill:none;stroke:red;stroke-width:1px;stroke-linecap:butt;stroke-linejoin:miter;stroke-opacity:1" d="M 88.3979,216.942 75.4136,213.047 z" id="boundary" inkscape:connector-curvature="0" />
	<path style="fill:none;stroke:red;stroke-width:1px;stroke-linecap:butt;stroke-linejoin:miter;stroke-opacity:1" d="M 101.382,216.942 114.366,216.942 z" id="boundary" inkscape:connector-curvature="0" />
	<path style="fill:none;stroke:red;stroke-width:1px;stroke-linecap:butt;stroke-linejoin:miter;stroke-opacity:1" d="M 114.366,216.942 126.052,223.435 z" id="boundary" inkscape:connector-curvature="0" />
	<path style="fill:none;stroke:red;stroke-width:1px;stroke-linecap:butt;stroke-linejoin:miter;stroke-opacity:1" d="M 126.052,223.435 139.037,223.435 z" id="boundary" inkscape:connector-curvature="0" />
	<path style="fill:none;stroke:red;stroke-width:1px;stroke-linecap:butt;stroke-linejoin:miter;stroke-opacity:1" d="M 139.037,223.435 150.723,229.927 z" id="boundary" inkscape:connector-curvature="0" />
	<path style="fill:none;stroke:red;stroke-width:1px;stroke-linecap:butt;stroke-linejoin:miter;stroke-opacity:1" d="M 150.723,229.927 163.707,229.927 z" id="boundary" inkscape:connector-curvature="0" />
	<path style="fill:none;stroke:red;stroke-width:1px;stroke-linecap:butt;stroke-linejoin:miter;stroke-opacity:1" d="M 163.707,229.927 176.691,229.927 z" id="boundary" inkscape:connector-curvature="0" />
	<path style="fill:none;stroke:red;stroke-width:1px;stroke-linecap:butt;stroke-linejoin:miter;stroke-opacity:1" d="M 176.691,229.927 188.377,236.419 z" id="boundary" inkscape:connector-curvature="0" />
	<path style="fill:none;stroke:red;stroke-width:1px;stroke-linecap:butt;stroke-linejoin:miter;stroke-opacity:1" d="M 188.377,236.419 198.764,244.209 z" id="boundary" inkscape:connector-curvature="0" />
	<path style="fill:none;stroke:red;stroke-width:1px;stroke-linecap:butt;stroke-linejoin:miter;stroke-opacity:1" d="M 198.764,244.209 205.257,255.895 z" id="boundary" inkscape:connector-curvature="0" />
	<path style="fill:none;stroke:red;stroke-width:1px;stroke-linecap:butt;stroke-linejoin:miter;stroke-opacity:1" d="M 213.047,266.283 205.257,255.895 z" id="boundary" inkscape:connector-curvature="0" />
	<path style="fill:none;stroke:red;stroke-width:1px;stroke-linecap:butt;stroke-linejoin:miter;stroke-opacity:1" d="M 228.628,288.356 219.539,277.969 z" id="boundary" inkscape:connector-curvature="0" />
	<path style="fill:none;stroke:red;stroke-width:1px;stroke-linecap:butt;stroke-linejoin:miter;stroke-opacity:1" d="M 219.539,277.969 213.047,266.283 z" id="boundary" inkscape:connector-curvature="0" />
	<path style="fill:none;stroke:red;stroke-width:1px;stroke-linecap:butt;stroke-linejoin:miter;stroke-opacity:1" d="M 327.309,229.927 314.325,229.927 z" id="boundary" inkscape:connector-curvature="0" />
	<path style="fill:none;stroke:red;stroke-width:1px;stroke-linecap:butt;stroke-linejoin:miter;stroke-opacity:1" d="M 314.325,229.927 301.34,229.927 z" id="boundary" inkscape:connector-curvature="0" />
	<path style="fill:none;stroke:red;stroke-width:1px;stroke-linecap:butt;stroke-linejoin:miter;stroke-opacity:1" d="M 340.293,229.927 327.309,229.927 z" id="boundary" inkscape:connector-curvature="0" />
	<path style="fill:none;stroke:red;stroke-width:1px;stroke-linecap:butt;stroke-linejoin:miter;stroke-opacity:1" d="M 353.277,229.927 340.293,229.927 z" id="boundary" inkscape:connector-curvature="0" />
	<path style="fill:none;stroke:red;stroke-width:1px;stroke-linecap:butt;stroke-linejoin:miter;stroke-opacity:1" d="M 392.23,227.33 379.246,229.927 z" id="boundary" inkscape:connector-curvature="0" />
	<path style="fill:none;stroke:red;stroke-width:1px;stroke-linecap:butt;stroke-linejoin:miter;stroke-opacity:1" d="M 441.571,210.45 454.555,210.45 z" id="boundary" inkscape:connector-curvature="0" />
	<path style="fill:none;stroke:red;stroke-width:1px;stroke-linecap:butt;stroke-linejoin:miter;stroke-opacity:1" d="M 429.885,216.942 441.571,210.45 z" id="boundary" inkscape:connector-curvature="0" />
	<path style="fill:none;stroke:red;stroke-width:1px;stroke-linecap:butt;stroke-linejoin:miter;stroke-opacity:1" d="M 405.215,223.435 416.901,216.942 z" id="boundary" inkscape:connector-curvature="0" />
	<path style="fill:none;stroke:red;stroke-width:1px;stroke-linecap:butt;stroke-linejoin:miter;stroke-opacity:1" d="M 416.901,216.942 429.885,216.942 z" id="boundary" inkscape:connector-curvature="0" />
	<path style="fill:none;stroke:red;stroke-width:1px;stroke-linecap:butt;stroke-linejoin:miter;stroke-opacity:1" d="M 405.215,223.435 392.23,227.33 z" id="boundary" inkscape:connector-curvature="0" />
	<path style="fill:none;stroke:red;stroke-width:1px;stroke-linecap:butt;stroke-linejoin:miter;stroke-opacity:1" d="M 301.34,229.927 288.356,233.822 z" id="boundary" inkscape:connector-curvature="0" />
	<path style="fill:none;stroke:red;stroke-width:1px;stroke-linecap:butt;stroke-linejoin:miter;stroke-opacity:1" d="M 264.984,262.387 264.984,275.372 z" id="boundary" inkscape:connector-curvature="0" />
	<path style="fill:none;stroke:red;stroke-width:1px;stroke-linecap:butt;stroke-linejoin:miter;stroke-opacity:1" d="M 264.984,262.387 264.984,249.403 z" id="boundary" inkscape:connector-curvature="0" />
	<path style="fill:none;stroke:red;stroke-width:1px;stroke-linecap:butt;stroke-linejoin:miter;stroke-opacity:1" d="M 264.984,249.403 275.372,240.314 z" id="boundary" inkscape:connector-curvature="0" />
	<path style="fill:none;stroke:red;stroke-width:1px;stroke-linecap:butt;stroke-linejoin:miter;stroke-opacity:1" d="M 239.016,297.445 228.628,288.356 z" id="boundary" inkscape:connector-curvature="0" />
	<path style="fill:none;stroke:red;stroke-width:1px;stroke-linecap:butt;stroke-linejoin:miter;stroke-opacity:1" d="M 264.984,288.356 261.089,306.534 z" id="boundary" inkscape:connector-curvature="0" />
	<path style="fill:none;stroke:red;stroke-width:1px;stroke-linecap:butt;stroke-linejoin:miter;stroke-opacity:1" d="M 261.089,306.534 248.105,307.832 z" id="boundary" inkscape:connector-curvature="0" />
	<path style="fill:none;stroke:red;stroke-width:1px;stroke-linecap:butt;stroke-linejoin:miter;stroke-opacity:1" d="M 248.105,307.832 239.016,297.445 z" id="boundary" inkscape:connector-curvature="0" />
	<path style="fill:none;stroke:red;stroke-width:1px;stroke-linecap:butt;stroke-linejoin:miter;stroke-opacity:1" d="M 264.984,275.372 264.984,288.356 z" id="boundary" inkscape:connector-curvature="0" />
	<path style="fill:none;stroke:red;stroke-width:1px;stroke-linecap:butt;stroke-linejoin:miter;stroke-opacity:1" d="M 353.277,229.927 366.262,229.927 z" id="boundary" inkscape:connector-curvature="0" />
	<path style="fill:none;stroke:red;stroke-width:1px;stroke-linecap:butt;stroke-linejoin:miter;stroke-opacity:1" d="M 379.246,229.927 366.262,229.927 z" id="boundary" inkscape:connector-curvature="0" />
	<path style="fill:none;stroke:red;stroke-width:1px;stroke-linecap:butt;stroke-linejoin:miter;stroke-opacity:1" d="M 275.372,240.314 288.356,233.822 z" id="boundary" inkscape:connector-curvature="0" />
	<path style="fill:none;stroke:red;stroke-width:1px;stroke-linecap:butt;stroke-linejoin:miter;stroke-opacity:1" d="M 454.555,210.45 467.539,210.45 z" id="boundary" inkscape:connector-curvature="0" />
	<path style="fill:none;stroke:red;stroke-width:1px;stroke-linecap:butt;stroke-linejoin:miter;stroke-opacity:1" d="M 467.539,210.45 480.524,214.346 z" id="boundary" inkscape:connector-curvature="0" />
	<path style="fill:none;stroke:red;stroke-width:1px;stroke-linecap:butt;stroke-linejoin:miter;stroke-opacity:1" d="M 505.194,105.277 492.209,105.277 z" id="boundary" inkscape:connector-curvature="0" />
	<path style="fill:none;stroke:red;stroke-width:1px;stroke-linecap:butt;stroke-linejoin:miter;stroke-opacity:1" d="M 531.162,111.77 518.178,109.173 z" id="boundary" inkscape:connector-curvature="0" />
	<path style="fill:none;stroke:red;stroke-width:1px;stroke-linecap:butt;stroke-linejoin:miter;stroke-opacity:1" d="M 518.178,109.173 505.194,105.277 z" id="boundary" inkscape:connector-curvature="0" />
	<path style="fill:none;stroke:red;stroke-width:1px;stroke-linecap:butt;stroke-linejoin:miter;stroke-opacity:1" d="M 531.162,111.77 542.848,118.262 z" id="boundary" inkscape:connector-curvature="0" />
	<path style="fill:none;stroke:red;stroke-width:1px;stroke-linecap:butt;stroke-linejoin:miter;stroke-opacity:1" d="M 827.204,79.3089 815.518,85.801 z" id="boundary" inkscape:connector-curvature="0" />
	<path style="fill:none;stroke:red;stroke-width:1px;stroke-linecap:butt;stroke-linejoin:miter;stroke-opacity:1" d="M 815.518,85.801 802.534,85.801 z" id="boundary" inkscape:connector-curvature="0" />
	<path style="fill:none;stroke:red;stroke-width:1px;stroke-linecap:butt;stroke-linejoin:miter;stroke-opacity:1" d="M 838.89,72.8168 827.204,79.3089 z" id="boundary" inkscape:connector-curvature="0" />
	<path style="fill:none;stroke:red;stroke-width:1px;stroke-linecap:butt;stroke-linejoin:miter;stroke-opacity:1" d="M 790.848,92.2932 802.534,85.801 z" id="boundary" inkscape:connector-curvature="0" />
	<path style="fill:none;stroke:red;stroke-width:1px;stroke-linecap:butt;stroke-linejoin:miter;stroke-opacity:1" d="M 757.089,115.665 767.476,105.277 z" id="boundary" inkscape:connector-curvature="0" />
	<path style="fill:none;stroke:red;stroke-width:1px;stroke-linecap:butt;stroke-linejoin:miter;stroke-opacity:1" d="M 790.848,92.2932 779.162,98.7853 z" id="boundary" inkscape:connector-curvature="0" />
	<path style="fill:none;stroke:red;stroke-width:1px;stroke-linecap:butt;stroke-linejoin:miter;stroke-opacity:1" d="M 767.476,105.277 779.162,98.7853 z" id="boundary" inkscape:connector-curvature="0" />
	<path style="fill:none;stroke:red;stroke-width:1px;stroke-linecap:butt;stroke-linejoin:miter;stroke-opacity:1" d="M 492.209,105.277 479.225,105.277 z" id="boundary" inkscape:connector-curvature="0" />
	<path style="fill:none;stroke:red;stroke-width:1px;stroke-linecap:butt;stroke-linejoin:miter;stroke-opacity:1" d="M 542.848,118.262 555.832,118.262 z" id="boundary" inkscape:connector-curvature="0" />
	<path style="fill:none;stroke:red;stroke-width:1px;stroke-linecap:butt;stroke-linejoin:miter;stroke-opacity:1" d="M 568.817,118.262 581.801,118.262 z" id="boundary" inkscape:connector-curvature="0" />
	<path style="fill:none;stroke:red;stroke-width:1px;stroke-linecap:butt;stroke-linejoin:miter;stroke-opacity:1" d="M 594.785,118.262 581.801,118.262 z" id="boundary" inkscape:connector-curvature="0" />
	<path style="fill:none;stroke:red;stroke-width:1px;stroke-linecap:butt;stroke-linejoin:miter;stroke-opacity:1" d="M 568.817,118.262 555.832,118.262 z" id="boundary" inkscape:connector-curvature="0" />
	<path style="fill:none;stroke:red;stroke-width:1px;stroke-linecap:butt;stroke-linejoin:miter;stroke-opacity:1" d="M 620.754,118.262 607.77,118.262 z" id="boundary" inkscape:connector-curvature="0" />
	<path style="fill:none;stroke:red;stroke-width:1px;stroke-linecap:butt;stroke-linejoin:miter;stroke-opacity:1" d="M 607.77,118.262 594.785,118.262 z" id="boundary" inkscape:connector-curvature="0" />
	<path style="fill:none;stroke:red;stroke-width:1px;stroke-linecap:butt;stroke-linejoin:miter;stroke-opacity:1" d="M 657.11,118.262 645.424,111.77 z" id="boundary" inkscape:connector-curvature="0" />
	<path style="fill:none;stroke:red;stroke-width:1px;stroke-linecap:butt;stroke-linejoin:miter;stroke-opacity:1" d="M 670.094,118.262 657.11,118.262 z" id="boundary" inkscape:connector-curvature="0" />
	<path style="fill:none;stroke:red;stroke-width:1px;stroke-linecap:butt;stroke-linejoin:miter;stroke-opacity:1" d="M 620.754,118.262 633.738,118.262 z" id="boundary" inkscape:connector-curvature="0" />
	<path style="fill:none;stroke:red;stroke-width:1px;stroke-linecap:butt;stroke-linejoin:miter;stroke-opacity:1" d="M 645.424,111.77 633.738,118.262 z" id="boundary" inkscape:connector-curvature="0" />
	<path style="fill:none;stroke:red;stroke-width:1px;stroke-linecap:butt;stroke-linejoin:miter;stroke-opacity:1" d="M 757.089,115.665 744.105,122.157 z" id="boundary" inkscape:connector-curvature="0" />
	<path style="fill:none;stroke:red;stroke-width:1px;stroke-linecap:butt;stroke-linejoin:miter;stroke-opacity:1" d="M 925.885,44.2513 938.869,37.7592 z" id="boundary" inkscape:connector-curvature="0" />
	<path style="fill:none;stroke:red;stroke-width:1px;stroke-linecap:butt;stroke-linejoin:miter;stroke-opacity:1" d="M 925.885,44.2513 912.901,46.8482 z" id="boundary" inkscape:connector-curvature="0" />
	<path style="fill:none;stroke:red;stroke-width:1px;stroke-linecap:butt;stroke-linejoin:miter;stroke-opacity:1" d="M 886.932,50.7435 899.916,46.8482 z" id="boundary" inkscape:connector-curvature="0" />
	<path style="fill:none;stroke:red;stroke-width:1px;stroke-linecap:butt;stroke-linejoin:miter;stroke-opacity:1" d="M 912.901,46.8482 899.916,46.8482 z" id="boundary" inkscape:connector-curvature="0" />
	<path style="fill:none;stroke:red;stroke-width:1px;stroke-linecap:butt;stroke-linejoin:miter;stroke-opacity:1" d="M 951.853,33.8639 938.869,37.7592 z" id="boundary" inkscape:connector-curvature="0" />
	<path style="fill:none;stroke:red;stroke-width:1px;stroke-linecap:butt;stroke-linejoin:miter;stroke-opacity:1" d="M 951.853,33.8639 964.838,33.8639 z" id="boundary" inkscape:connector-curvature="0" />
	<path style="fill:none;stroke:red;stroke-width:1px;stroke-linecap:butt;stroke-linejoin:miter;stroke-opacity:1" d="M 977.822,33.8639 964.838,33.8639 z" id="boundary" inkscape:connector-curvature="0" />
	<path style="fill:none;stroke:red;stroke-width:1px;stroke-linecap:butt;stroke-linejoin:miter;stroke-opacity:1" d="M 990.806,33.8639 996,46.8482 z" id="boundary" inkscape:connector-curvature="0" />
	<path style="fill:none;stroke:red;stroke-width:1px;stroke-linecap:butt;stroke-linejoin:miter;stroke-opacity:1" d="M 996,46.8482 985.613,54.6387 z" id="boundary" inkscape:connector-curvature="0" />
	<path style="fill:none;stroke:red;stroke-width:1px;stroke-linecap:butt;stroke-linejoin:miter;stroke-opacity:1" d="M 977.822,33.8639 990.806,33.8639 z" id="boundary" inkscape:connector-curvature="0" />
	<path style="fill:none;stroke:red;stroke-width:1px;stroke-linecap:butt;stroke-linejoin:miter;stroke-opacity:1" d="M 975.225,67.623 985.613,54.6387 z" id="boundary" inkscape:connector-curvature="0" />
	<path style="fill:none;stroke:red;stroke-width:1px;stroke-linecap:butt;stroke-linejoin:miter;stroke-opacity:1" d="M 851.874,66.3246 863.56,59.8325 z" id="boundary" inkscape:connector-curvature="0" />
	<path style="fill:none;stroke:red;stroke-width:1px;stroke-linecap:butt;stroke-linejoin:miter;stroke-opacity:1" d="M 863.56,59.8325 876.545,59.8325 z" id="boundary" inkscape:connector-curvature="0" />
	<path style="fill:none;stroke:red;stroke-width:1px;stroke-linecap:butt;stroke-linejoin:miter;stroke-opacity:1" d="M 851.874,66.3246 838.89,72.8168 z" id="boundary" inkscape:connector-curvature="0" />
	<path style="fill:none;stroke:red;stroke-width:1px;stroke-linecap:butt;stroke-linejoin:miter;stroke-opacity:1" d="M 886.932,50.7435 876.545,59.8325 z" id="boundary" inkscape:connector-curvature="0" />
	<path style="fill:none;stroke:red;stroke-width:1px;stroke-linecap:butt;stroke-linejoin:miter;stroke-opacity:1" d="M 905.11,103.979 892.126,110.471 z" id="boundary" inkscape:connector-curvature="0" />
	<path style="fill:none;stroke:red;stroke-width:1px;stroke-linecap:butt;stroke-linejoin:miter;stroke-opacity:1" d="M 881.738,119.56 892.126,110.471 z" id="boundary" inkscape:connector-curvature="0" />
	<path style="fill:none;stroke:red;stroke-width:1px;stroke-linecap:butt;stroke-linejoin:miter;stroke-opacity:1" d="M 914.199,93.5916 905.11,103.979 z" id="boundary" inkscape:connector-curvature="0" />
	<path style="fill:none;stroke:red;stroke-width:1px;stroke-linecap:butt;stroke-linejoin:miter;stroke-opacity:1" d="M 951.853,80.6073 963.539,74.1152 z" id="boundary" inkscape:connector-curvature="0" />
	<path style="fill:none;stroke:red;stroke-width:1px;stroke-linecap:butt;stroke-linejoin:miter;stroke-opacity:1" d="M 927.183,87.0995 914.199,93.5916 z" id="boundary" inkscape:connector-curvature="0" />
	<path style="fill:none;stroke:red;stroke-width:1px;stroke-linecap:butt;stroke-linejoin:miter;stroke-opacity:1" d="M 951.853,80.6073 940.168,87.0995 z" id="boundary" inkscape:connector-curvature="0" />
	<path style="fill:none;stroke:red;stroke-width:1px;stroke-linecap:butt;stroke-linejoin:miter;stroke-opacity:1" d="M 963.539,74.1152 975.225,67.623 z" id="boundary" inkscape:connector-curvature="0" />
	<path style="fill:none;stroke:red;stroke-width:1px;stroke-linecap:butt;stroke-linejoin:miter;stroke-opacity:1" d="M 927.183,87.0995 940.168,87.0995 z" id="boundary" inkscape:connector-curvature="0" />
	<path style="fill:none;stroke:red;stroke-width:1px;stroke-linecap:butt;stroke-linejoin:miter;stroke-opacity:1" d="M 679.183,187.079 666.199,193.571 z" id="boundary" inkscape:connector-curvature="0" />
	<path style="fill:none;stroke:red;stroke-width:1px;stroke-linecap:butt;stroke-linejoin:miter;stroke-opacity:1" d="M 555.832,197.466 568.817,197.466 z" id="boundary" inkscape:connector-curvature="0" />
	<path style="fill:none;stroke:red;stroke-width:1px;stroke-linecap:butt;stroke-linejoin:miter;stroke-opacity:1" d="M 542.848,200.063 555.832,197.466 z" id="boundary" inkscape:connector-curvature="0" />
	<path style="fill:none;stroke:red;stroke-width:1px;stroke-linecap:butt;stroke-linejoin:miter;stroke-opacity:1" d="M 581.801,197.466 568.817,197.466 z" id="boundary" inkscape:connector-curvature="0" />
	<path style="fill:none;stroke:red;stroke-width:1px;stroke-linecap:butt;stroke-linejoin:miter;stroke-opacity:1" d="M 581.801,197.466 593.487,203.958 z" id="boundary" inkscape:connector-curvature="0" />
	<path style="fill:none;stroke:red;stroke-width:1px;stroke-linecap:butt;stroke-linejoin:miter;stroke-opacity:1" d="M 706.45,131.246 693.466,131.246 z" id="boundary" inkscape:connector-curvature="0" />
	<path style="fill:none;stroke:red;stroke-width:1px;stroke-linecap:butt;stroke-linejoin:miter;stroke-opacity:1" d="M 693.466,131.246 681.78,124.754 z" id="boundary" inkscape:connector-curvature="0" />
	<path style="fill:none;stroke:red;stroke-width:1px;stroke-linecap:butt;stroke-linejoin:miter;stroke-opacity:1" d="M 679.183,187.079 692.168,180.586 z" id="boundary" inkscape:connector-curvature="0" />
	<path style="fill:none;stroke:red;stroke-width:1px;stroke-linecap:butt;stroke-linejoin:miter;stroke-opacity:1" d="M 705.152,177.99 692.168,180.586 z" id="boundary" inkscape:connector-curvature="0" />
	<path style="fill:none;stroke:red;stroke-width:1px;stroke-linecap:butt;stroke-linejoin:miter;stroke-opacity:1" d="M 655.812,203.958 666.199,193.571 z" id="boundary" inkscape:connector-curvature="0" />
	<path style="fill:none;stroke:red;stroke-width:1px;stroke-linecap:butt;stroke-linejoin:miter;stroke-opacity:1" d="M 706.45,131.246 719.435,131.246 z" id="boundary" inkscape:connector-curvature="0" />
	<path style="fill:none;stroke:red;stroke-width:1px;stroke-linecap:butt;stroke-linejoin:miter;stroke-opacity:1" d="M 681.78,124.754 670.094,118.262 z" id="boundary" inkscape:connector-curvature="0" />
	<path style="fill:none;stroke:red;stroke-width:1px;stroke-linecap:butt;stroke-linejoin:miter;stroke-opacity:1" d="M 518.178,210.45 529.864,203.958 z" id="boundary" inkscape:connector-curvature="0" />
	<path style="fill:none;stroke:red;stroke-width:1px;stroke-linecap:butt;stroke-linejoin:miter;stroke-opacity:1" d="M 529.864,203.958 542.848,200.063 z" id="boundary" inkscape:connector-curvature="0" />
	<path style="fill:none;stroke:red;stroke-width:1px;stroke-linecap:butt;stroke-linejoin:miter;stroke-opacity:1" d="M 506.492,216.942 518.178,210.45 z" id="boundary" inkscape:connector-curvature="0" />
	<path style="fill:none;stroke:red;stroke-width:1px;stroke-linecap:butt;stroke-linejoin:miter;stroke-opacity:1" d="M 493.508,216.942 480.524,214.346 z" id="boundary" inkscape:connector-curvature="0" />
	<path style="fill:none;stroke:red;stroke-width:1px;stroke-linecap:butt;stroke-linejoin:miter;stroke-opacity:1" d="M 506.492,216.942 493.508,216.942 z" id="boundary" inkscape:connector-curvature="0" />
	<path style="fill:none;stroke:red;stroke-width:1px;stroke-linecap:butt;stroke-linejoin:miter;stroke-opacity:1" d="M 593.487,203.958 606.471,203.958 z" id="boundary" inkscape:connector-curvature="0" />
	<path style="fill:none;stroke:red;stroke-width:1px;stroke-linecap:butt;stroke-linejoin:miter;stroke-opacity:1" d="M 606.471,203.958 618.157,210.45 z" id="boundary" inkscape:connector-curvature="0" />
	<path style="fill:none;stroke:red;stroke-width:1px;stroke-linecap:butt;stroke-linejoin:miter;stroke-opacity:1" d="M 642.827,203.958 631.141,210.45 z" id="boundary" inkscape:connector-curvature="0" />
	<path style="fill:none;stroke:red;stroke-width:1px;stroke-linecap:butt;stroke-linejoin:miter;stroke-opacity:1" d="M 631.141,210.45 618.157,210.45 z" id="boundary" inkscape:connector-curvature="0" />
	<path style="fill:none;stroke:red;stroke-width:1px;stroke-linecap:butt;stroke-linejoin:miter;stroke-opacity:1" d="M 642.827,203.958 655.812,203.958 z" id="boundary" inkscape:connector-curvature="0" />
	<path style="fill:none;stroke:red;stroke-width:1px;stroke-linecap:butt;stroke-linejoin:miter;stroke-opacity:1" d="M 705.152,177.99 712.942,188.377 z" id="boundary" inkscape:connector-curvature="0" />
	<path style="fill:none;stroke:red;stroke-width:1px;stroke-linecap:butt;stroke-linejoin:miter;stroke-opacity:1" d="M 744.105,122.157 732.419,131.246 z" id="boundary" inkscape:connector-curvature="0" />
	<path style="fill:none;stroke:red;stroke-width:1px;stroke-linecap:butt;stroke-linejoin:miter;stroke-opacity:1" d="M 732.419,131.246 719.435,131.246 z" id="boundary" inkscape:connector-curvature="0" />
	<path style="fill:none;stroke:red;stroke-width:1px;stroke-linecap:butt;stroke-linejoin:miter;stroke-opacity:1" d="M 801.236,168.901 790.848,177.99 z" id="boundary" inkscape:connector-curvature="0" />
	<path style="fill:none;stroke:red;stroke-width:1px;stroke-linecap:butt;stroke-linejoin:miter;stroke-opacity:1" d="M 801.236,168.901 810.325,158.513 z" id="boundary" inkscape:connector-curvature="0" />
	<path style="fill:none;stroke:red;stroke-width:1px;stroke-linecap:butt;stroke-linejoin:miter;stroke-opacity:1" d="M 810.325,158.513 823.309,152.021 z" id="boundary" inkscape:connector-curvature="0" />
	<path style="fill:none;stroke:red;stroke-width:1px;stroke-linecap:butt;stroke-linejoin:miter;stroke-opacity:1" d="M 868.754,119.56 881.738,119.56 z" id="boundary" inkscape:connector-curvature="0" />
	<path style="fill:none;stroke:red;stroke-width:1px;stroke-linecap:butt;stroke-linejoin:miter;stroke-opacity:1" d="M 859.665,132.545 846.681,136.44 z" id="boundary" inkscape:connector-curvature="0" />
	<path style="fill:none;stroke:red;stroke-width:1px;stroke-linecap:butt;stroke-linejoin:miter;stroke-opacity:1" d="M 836.293,145.529 823.309,152.021 z" id="boundary" inkscape:connector-curvature="0" />
	<path style="fill:none;stroke:red;stroke-width:1px;stroke-linecap:butt;stroke-linejoin:miter;stroke-opacity:1" d="M 836.293,145.529 846.681,136.44 z" id="boundary" inkscape:connector-curvature="0" />
	<path style="fill:none;stroke:red;stroke-width:1px;stroke-linecap:butt;stroke-linejoin:miter;stroke-opacity:1" d="M 712.942,188.377 725.927,193.571 z" id="boundary" inkscape:connector-curvature="0" />
	<path style="fill:none;stroke:red;stroke-width:1px;stroke-linecap:butt;stroke-linejoin:miter;stroke-opacity:1" d="M 725.927,193.571 735.016,203.958 z" id="boundary" inkscape:connector-curvature="0" />
	<path style="fill:none;stroke:red;stroke-width:1px;stroke-linecap:butt;stroke-linejoin:miter;stroke-opacity:1" d="M 746.702,210.45 735.016,203.958 z" id="boundary" inkscape:connector-curvature="0" />
	<path style="fill:none;stroke:red;stroke-width:1px;stroke-linecap:butt;stroke-linejoin:miter;stroke-opacity:1" d="M 746.702,210.45 757.089,218.241 z" id="boundary" inkscape:connector-curvature="0" />
	<path style="fill:none;stroke:red;stroke-width:1px;stroke-linecap:butt;stroke-linejoin:miter;stroke-opacity:1" d="M 757.089,218.241 766.178,228.628 z" id="boundary" inkscape:connector-curvature="0" />
	<path style="fill:none;stroke:red;stroke-width:1px;stroke-linecap:butt;stroke-linejoin:miter;stroke-opacity:1" d="M 779.162,229.927 766.178,228.628 z" id="boundary" inkscape:connector-curvature="0" />
	<path style="fill:none;stroke:red;stroke-width:1px;stroke-linecap:butt;stroke-linejoin:miter;stroke-opacity:1" d="M 790.848,190.974 790.848,177.99 z" id="boundary" inkscape:connector-curvature="0" />
	<path style="fill:none;stroke:red;stroke-width:1px;stroke-linecap:butt;stroke-linejoin:miter;stroke-opacity:1" d="M 793.445,203.958 790.848,190.974 z" id="boundary" inkscape:connector-curvature="0" />
	<path style="fill:none;stroke:red;stroke-width:1px;stroke-linecap:butt;stroke-linejoin:miter;stroke-opacity:1" d="M 797.34,216.942 790.848,236.419 z" id="boundary" inkscape:connector-curvature="0" />
	<path style="fill:none;stroke:red;stroke-width:1px;stroke-linecap:butt;stroke-linejoin:miter;stroke-opacity:1" d="M 790.848,236.419 779.162,229.927 z" id="boundary" inkscape:connector-curvature="0" />
	<path style="fill:none;stroke:red;stroke-width:1px;stroke-linecap:butt;stroke-linejoin:miter;stroke-opacity:1" d="M 793.445,203.958 797.34,216.942 z" id="boundary" inkscape:connector-curvature="0" />
	<circle cx="4" cy="167.602" r="4" fill="#0" id="circle0"/>
	<circle cx="4" cy="180.586" r="4" fill="#0" id="circle1"/>
	<circle cx="14.3874" cy="189.675" r="4" fill="#0" id="circle2"/>
	<circle cx="16.9843" cy="163.707" r="4" fill="#0" id="circle3"/>
	<circle cx="27.3717" cy="190.974" r="4" fill="#0" id="circle4"/>
	<circle cx="28.6702" cy="157.215" r="4" fill="#0" id="circle5"/>
	<circle cx="39.0576" cy="197.466" r="4" fill="#0" id="circle6"/>
	<circle cx="41.6545" cy="157.215" r="4" fill="#0" id="circle7"/>
	<circle cx="50.7435" cy="203.958" r="4" fill="#0" id="circle8"/>
	<circle cx="54.6387" cy="157.215" r="4" fill="#0" id="circle9"/>
	<circle cx="63.7277" cy="206.555" r="4" fill="#0" id="circle10"/>
	<circle cx="66.3246" cy="150.723" r="4" fill="#0" id="circle11"/>
	<circle cx="75.4136" cy="213.047" r="4" fill="#0" id="circle12"/>
	<circle cx="78.0105" cy="144.23" r="4" fill="#0" id="circle13"/>
	<circle cx="88.3979" cy="216.942" r="4" fill="#0" id="circle14"/>
	<circle cx="90.9948" cy="144.23" r="4" fill="#0" id="circle15"/>
	<circle cx="101.382" cy="216.942" r="4" fill="#0" id="circle16"/>
	<circle cx="103.979" cy="139.037" r="4" fill="#0" id="circle17"/>
	<circle cx="114.366" cy="216.942" r="4" fill="#0" id="circle18"/>
	<circle cx="116.963" cy="137.738" r="4" fill="#0" id="circle19"/>
	<circle cx="126.052" cy="223.435" r="4" fill="#0" id="circle20"/>
	<circle cx="128.649" cy="131.246" r="4" fill="#0" id="circle21"/>
	<circle cx="139.037" cy="223.435" r="4" fill="#0" id="circle22"/>
	<circle cx="141.634" cy="131.246" r="4" fill="#0" id="circle23"/>
	<circle cx="150.723" cy="229.927" r="4" fill="#0" id="circle24"/>
	<circle cx="154.618" cy="131.246" r="4" fill="#0" id="circle25"/>
	<circle cx="163.707" cy="229.927" r="4" fill="#0" id="circle26"/>
	<circle cx="166.304" cy="124.754" r="4" fill="#0" id="circle27"/>
	<circle cx="176.691" cy="229.927" r="4" fill="#0" id="circle28"/>
	<circle cx="179.288" cy="124.754" r="4" fill="#0" id="circle29"/>
	<circle cx="188.377" cy="236.419" r="4" fill="#0" id="circle30"/>
	<circle cx="190.974" cy="118.262" r="4" fill="#0" id="circle31"/>
	<circle cx="198.764" cy="244.209" r="4" fill="#0" id="circle32"/>
	<circle cx="203.958" cy="118.262" r="4" fill="#0" id="circle33"/>
	<circle cx="205.257" cy="255.895" r="4" fill="#0" id="circle34"/>
	<circle cx="213.047" cy="266.283" r="4" fill="#0" id="circle35"/>
	<circle cx="216.942" cy="118.262" r="4" fill="#0" id="circle36"/>
	<circle cx="219.539" cy="277.969" r="4" fill="#0" id="circle37"/>
	<circle cx="228.628" cy="288.356" r="4" fill="#0" id="circle38"/>
	<circle cx="229.927" cy="118.262" r="4" fill="#0" id="circle39"/>
	<circle cx="239.016" cy="297.445" r="4" fill="#0" id="circle40"/>
	<circle cx="242.911" cy="118.262" r="4" fill="#0" id="circle41"/>
	<circle cx="248.105" cy="307.832" r="4" fill="#0" id="circle42"/>
	<circle cx="252" cy="107.874" r="4" fill="#0" id="circle43"/>
	<circle cx="261.089" cy="306.534" r="4" fill="#0" id="circle44"/>
	<circle cx="262.387" cy="98.7853" r="4" fill="#0" id="circle45"/>
	<circle cx="263.686" cy="83.2042" r="4" fill="#0" id="circle46"/>
	<circle cx="264.984" cy="249.403" r="4" fill="#0" id="circle47"/>
	<circle cx="264.984" cy="262.387" r="4" fill="#0" id="circle48"/>
	<circle cx="264.984" cy="275.372" r="4" fill="#0" id="circle49"/>
	<circle cx="264.984" cy="288.356" r="4" fill="#0" id="circle50"/>
	<circle cx="274.073" cy="72.8168" r="4" fill="#0" id="circle51"/>
	<circle cx="275.372" cy="240.314" r="4" fill="#0" id="circle52"/>
	<circle cx="276.67" cy="50.7435" r="4" fill="#0" id="circle53"/>
	<circle cx="288.356" cy="233.822" r="4" fill="#0" id="circle54"/>
	<circle cx="289.654" cy="31.267" r="4" fill="#0" id="circle55"/>
	<circle cx="289.654" cy="44.2513" r="4" fill="#0" id="circle56"/>
	<circle cx="301.34" cy="229.927" r="4" fill="#0" id="circle57"/>
	<circle cx="302.639" cy="18.2827" r="4" fill="#0" id="circle58"/>
	<circle cx="309.131" cy="5.29843" r="4" fill="#0" id="circle59"/>
	<circle cx="314.325" cy="229.927" r="4" fill="#0" id="circle60"/>
	<circle cx="322.115" cy="4" r="4" fill="#0" id="circle61"/>
	<circle cx="327.309" cy="229.927" r="4" fill="#0" id="circle62"/>
	<circle cx="329.906" cy="14.3874" r="4" fill="#0" id="circle63"/>
	<circle cx="329.906" cy="27.3717" r="4" fill="#0" id="circle64"/>
	<circle cx="329.906" cy="40.356" r="4" fill="#0" id="circle65"/>
	<circle cx="336.398" cy="52.0419" r="4" fill="#0" id="circle66"/>
	<circle cx="336.398" cy="65.0262" r="4" fill="#0" id="circle67"/>
	<circle cx="340.293" cy="229.927" r="4" fill="#0" id="circle68"/>
	<circle cx="342.89" cy="76.712" r="4" fill="#0" id="circle69"/>
	<circle cx="353.277" cy="85.801" r="4" fill="#0" id="circle70"/>
	<circle cx="353.277" cy="229.927" r="4" fill="#0" id="circle71"/>
	<circle cx="364.963" cy="92.2932" r="4" fill="#0" id="circle72"/>
	<circle cx="366.262" cy="229.927" r="4" fill="#0" id="circle73"/>
	<circle cx="376.649" cy="98.7853" r="4" fill="#0" id="circle74"/>
	<circle cx="379.246" cy="229.927" r="4" fill="#0" id="circle75"/>
	<circle cx="388.335" cy="105.277" r="4" fill="#0" id="circle76"/>
	<circle cx="392.23" cy="227.33" r="4" fill="#0" id="circle77"/>
	<circle cx="401.319" cy="105.277" r="4" fill="#0" id="circle78"/>
	<circle cx="405.215" cy="223.435" r="4" fill="#0" id="circle79"/>
	<circle cx="414.304" cy="105.277" r="4" fill="#0" id="circle80"/>
	<circle cx="416.901" cy="216.942" r="4" fill="#0" id="circle81"/>
	<circle cx="427.288" cy="105.277" r="4" fill="#0" id="circle82"/>
	<circle cx="429.885" cy="216.942" r="4" fill="#0" id="circle83"/>
	<circle cx="440.272" cy="105.277" r="4" fill="#0" id="circle84"/>
	<circle cx="441.571" cy="210.45" r="4" fill="#0" id="circle85"/>
	<circle cx="453.257" cy="105.277" r="4" fill="#0" id="circle86"/>
	<circle cx="454.555" cy="210.45" r="4" fill="#0" id="circle87"/>
	<circle cx="466.241" cy="105.277" r="4" fill="#0" id="circle88"/>
	<circle cx="467.539" cy="210.45" r="4" fill="#0" id="circle89"/>
	<circle cx="479.225" cy="105.277" r="4" fill="#0" id="circle90"/>
	<circle cx="480.524" cy="214.346" r="4" fill="#0" id="circle91"/>
	<circle cx="492.209" cy="105.277" r="4" fill="#0" id="circle92"/>
	<circle cx="493.508" cy="216.942" r="4" fill="#0" id="circle93"/>
	<circle cx="505.194" cy="105.277" r="4" fill="#0" id="circle94"/>
	<circle cx="506.492" cy="216.942" r="4" fill="#0" id="circle95"/>
	<circle cx="518.178" cy="109.173" r="4" fill="#0" id="circle96"/>
	<circle cx="518.178" cy="210.45" r="4" fill="#0" id="circle97"/>
	<circle cx="529.864" cy="203.958" r="4" fill="#0" id="circle98"/>
	<circle cx="531.162" cy="111.77" r="4" fill="#0" id="circle99"/>
	<circle cx="542.848" cy="118.262" r="4" fill="#0" id="circle100"/>
	<circle cx="542.848" cy="200.063" r="4" fill="#0" id="circle101"/>
	<circle cx="555.832" cy="118.262" r="4" fill="#0" id="circle102"/>
	<circle cx="555.832" cy="197.466" r="4" fill="#0" id="circle103"/>
	<circle cx="568.817" cy="118.262" r="4" fill="#0" id="circle104"/>
	<circle cx="568.817" cy="197.466" r="4" fill="#0" id="circle105"/>
	<circle cx="581.801" cy="118.262" r="4" fill="#0" id="circle106"/>
	<circle cx="581.801" cy="197.466" r="4" fill="#0" id="circle107"/>
	<circle cx="593.487" cy="203.958" r="4" fill="#0" id="circle108"/>
	<circle cx="594.785" cy="118.262" r="4" fill="#0" id="circle109"/>
	<circle cx="606.471" cy="203.958" r="4" fill="#0" id="circle110"/>
	<circle cx="607.77" cy="118.262" r="4" fill="#0" id="circle111"/>
	<circle cx="618.157" cy="210.45" r="4" fill="#0" id="circle112"/>
	<circle cx="620.754" cy="118.262" r="4" fill="#0" id="circle113"/>
	<circle cx="631.141" cy="210.45" r="4" fill="#0" id="circle114"/>
	<circle cx="633.738" cy="118.262" r="4" fill="#0" id="circle115"/>
	<circle cx="642.827" cy="203.958" r="4" fill="#0" id="circle116"/>
	<circle cx="645.424" cy="111.77" r="4" fill="#0" id="circle117"/>
	<circle cx="655.812" cy="203.958" r="4" fill="#0" id="circle118"/>
	<circle cx="657.11" cy="118.262" r="4" fill="#0" id="circle119"/>
	<circle cx="666.199" cy="193.571" r="4" fill="#0" id="circle120"/>
	<circle cx="670.094" cy="118.262" r="4" fill="#0" id="circle121"/>
	<circle cx="679.183" cy="187.079" r="4" fill="#0" id="circle122"/>
	<circle cx="681.78" cy="124.754" r="4" fill="#0" id="circle123"/>
	<circle cx="692.168" cy="180.586" r="4" fill="#0" id="circle124"/>
	<circle cx="693.466" cy="131.246" r="4" fill="#0" id="circle125"/>
	<circle cx="705.152" cy="177.99" r="4" fill="#0" id="circle126"/>
	<circle cx="706.45" cy="131.246" r="4" fill="#0" id="circle127"/>
	<circle cx="712.942" cy="188.377" r="4" fill="#0" id="circle128"/>
	<circle cx="719.435" cy="131.246" r="4" fill="#0" id="circle129"/>
	<circle cx="725.927" cy="193.571" r="4" fill="#0" id="circle130"/>
	<circle cx="732.419" cy="131.246" r="4" fill="#0" id="circle131"/>
	<circle cx="735.016" cy="203.958" r="4" fill="#0" id="circle132"/>
	<circle cx="744.105" cy="122.157" r="4" fill="#0" id="circle133"/>
	<circle cx="746.702" cy="210.45" r="4" fill="#0" id="circle134"/>
	<circle cx="757.089" cy="115.665" r="4" fill="#0" id="circle135"/>
	<circle cx="757.089" cy="218.241" r="4" fill="#0" id="circle136"/>
	<circle cx="766.178" cy="228.628" r="4" fill="#0" id="circle137"/>
	<circle cx="767.476" cy="105.277" r="4" fill="#0" id="circle138"/>
	<circle cx="779.162" cy="98.7853" r="4" fill="#0" id="circle139"/>
	<circle cx="779.162" cy="229.927" r="4" fill="#0" id="circle140"/>
	<circle cx="790.848" cy="92.2932" r="4" fill="#0" id="circle141"/>
	<circle cx="790.848" cy="177.99" r="4" fill="#0" id="circle142"/>
	<circle cx="790.848" cy="190.974" r="4" fill="#0" id="circle143"/>
	<circle cx="790.848" cy="236.419" r="4" fill="#0" id="circle144"/>
	<circle cx="793.445" cy="203.958" r="4" fill="#0" id="circle145"/>
	<circle cx="797.34" cy="216.942" r="4" fill="#0" id="circle146"/>
	<circle cx="801.236" cy="168.901" r="4" fill="#0" id="circle147"/>
	<circle cx="802.534" cy="85.801" r="4" fill="#0" id="circle148"/>
	<circle cx="810.325" cy="158.513" r="4" fill="#0" id="circle149"/>
	<circle cx="815.518" cy="85.801" r="4" fill="#0" id="circle150"/>
	<circle cx="823.309" cy="152.021" r="4" fill="#0" id="circle151"/>
	<circle cx="827.204" cy="79.3089" r="4" fill="#0" id="circle152"/>
	<circle cx="836.293" cy="145.529" r="4" fill="#0" id="circle153"/>
	<circle cx="838.89" cy="72.8168" r="4" fill="#0" id="circle154"/>
	<circle cx="846.681" cy="136.44" r="4" fill="#0" id="circle155"/>
	<circle cx="851.874" cy="66.3246" r="4" fill="#0" id="circle156"/>
	<circle cx="859.665" cy="132.545" r="4" fill="#0" id="circle157"/>
	<circle cx="863.56" cy="59.8325" r="4" fill="#0" id="circle158"/>
	<circle cx="868.754" cy="119.56" r="4" fill="#0" id="circle159"/>
	<circle cx="876.545" cy="59.8325" r="4" fill="#0" id="circle160"/>
	<circle cx="881.738" cy="119.56" r="4" fill="#0" id="circle161"/>
	<circle cx="886.932" cy="50.7435" r="4" fill="#0" id="circle162"/>
	<circle cx="892.126" cy="110.471" r="4" fill="#0" id="circle163"/>
	<circle cx="899.916" cy="46.8482" r="4" fill="#0" id="circle164"/>
	<circle cx="905.11" cy="103.979" r="4" fill="#0" id="circle165"/>
	<circle cx="912.901" cy="46.8482" r="4" fill="#0" id="circle166"/>
	<circle cx="914.199" cy="93.5916" r="4" fill="#0" id="circle167"/>
	<circle cx="925.885" cy="44.2513" r="4" fill="#0" id="circle168"/>
	<circle cx="927.183" cy="87.0995" r="4" fill="#0" id="circle169"/>
	<circle cx="938.869" cy="37.7592" r="4" fill="#0" id="circle170"/>
	<circle cx="940.168" cy="87.0995" r="4" fill="#0" id="circle171"/>
	<circle cx="951.853" cy="33.8639" r="4" fill="#0" id="circle172"/>
	<circle cx="951.853" cy="80.6073" r="4" fill="#0" id="circle173"/>
	<circle cx="963.539" cy="74.1152" r="4" fill="#0" id="circle174"/>
	<circle cx="964.838" cy="33.8639" r="4" fill="#0" id="circle175"/>
	<circle cx="975.225" cy="67.623" r="4" fill="#0" id="circle176"/>
	<circle cx="977.822" cy="33.8639" r="4" fill="#0" id="circle177"/>
	<circle cx="985.613" cy="54.6387" r="4" fill="#0" id="circle178"/>
	<circle cx="990.806" cy="33.8639" r="4" fill="#0" id="circle179"/>
	<circle cx="996" cy="46.8482" r="4" fill="#0" id="circle180"/>
	</g>
</svg>