<?xml version="1.0" encoding="UTF-8" standalone="no"?>
<!-- Created with CurveBenchmark -->
<svg
	xmlns:dc="http://purl.org/dc/elements/1.1/"
	xmlns:cc="http://creativecommons.org/ns#"
	xmlns:rdf="http://www.w3.org/1999/02/22-rdf-syntax-ns#"
	xmlns:svg="http://www.w3.org/2000/svg"
	xmlns="http://www.w3.org/2000/svg"
	xmlns:sodipodi="http://sodipodi.sourceforge.net/DTD/sodipodi-0.dtd"
	xmlns:inkscape="http://www.inkscape.org/namespaces/inkscape"
	width="1000"
	height="1000"
	id="svg2"
	version="1.1"
	sodipodi:docname="manifold/gathang-hammer10.png.txt">
<defs
	id="defs4" />
<metadata
	id="metadata7">
	<rdf:RDF>
		<cc:Work
			rdf:about="">
			<dc:format>image/svg+xml</dc:format>
			<dc:type
				rdf:resource="http://purl.org/dc/dcmitype/StillImage" />
			<dc:title></dc:title>
		</cc:Work>
	</rdf:RDF>
</metadata>
<g
	inkscape:label="Layer 1"
	inkscape:groupmode="layer"
	id="layer1">
	<path style="fill:none;stroke:red;stroke-width:1px;stroke-linecap:butt;stroke-linejoin:miter;stroke-opacity:1" d="M 229.374,67.8855 211.628,76.7585 z" id="boundary" inkscape:connector-curvature="0" />
	<path style="fill:none;stroke:red;stroke-width:1px;stroke-linecap:butt;stroke-linejoin:miter;stroke-opacity:1" d="M 243.571,53.6887 229.374,67.8855 z" id="boundary" inkscape:connector-curvature="0" />
	<path style="fill:none;stroke:red;stroke-width:1px;stroke-linecap:butt;stroke-linejoin:miter;stroke-opacity:1" d="M 185.009,101.603 193.882,85.6315 z" id="boundary" inkscape:connector-curvature="0" />
	<path style="fill:none;stroke:red;stroke-width:1px;stroke-linecap:butt;stroke-linejoin:miter;stroke-opacity:1" d="M 193.882,85.6315 211.628,76.7585 z" id="boundary" inkscape:connector-curvature="0" />
	<path style="fill:none;stroke:red;stroke-width:1px;stroke-linecap:butt;stroke-linejoin:miter;stroke-opacity:1" d="M 185.009,101.603 169.038,110.476 z" id="boundary" inkscape:connector-curvature="0" />
	<path style="fill:none;stroke:red;stroke-width:1px;stroke-linecap:butt;stroke-linejoin:miter;stroke-opacity:1" d="M 293.259,21.746 311.005,21.746 z" id="boundary" inkscape:connector-curvature="0" />
	<path style="fill:none;stroke:red;stroke-width:1px;stroke-linecap:butt;stroke-linejoin:miter;stroke-opacity:1" d="M 275.513,30.619 293.259,21.746 z" id="boundary" inkscape:connector-curvature="0" />
	<path style="fill:none;stroke:red;stroke-width:1px;stroke-linecap:butt;stroke-linejoin:miter;stroke-opacity:1" d="M 326.977,12.873 311.005,21.746 z" id="boundary" inkscape:connector-curvature="0" />
	<path style="fill:none;stroke:red;stroke-width:1px;stroke-linecap:butt;stroke-linejoin:miter;stroke-opacity:1" d="M 243.571,53.6887 257.767,39.4919 z" id="boundary" inkscape:connector-curvature="0" />
	<path style="fill:none;stroke:red;stroke-width:1px;stroke-linecap:butt;stroke-linejoin:miter;stroke-opacity:1" d="M 257.767,39.4919 275.513,30.619 z" id="boundary" inkscape:connector-curvature="0" />
	<path style="fill:none;stroke:red;stroke-width:1px;stroke-linecap:butt;stroke-linejoin:miter;stroke-opacity:1" d="M 119.349,169.038 119.349,186.784 z" id="boundary" inkscape:connector-curvature="0" />
	<path style="fill:none;stroke:red;stroke-width:1px;stroke-linecap:butt;stroke-linejoin:miter;stroke-opacity:1" d="M 119.349,186.784 110.476,204.53 z" id="boundary" inkscape:connector-curvature="0" />
	<path style="fill:none;stroke:red;stroke-width:1px;stroke-linecap:butt;stroke-linejoin:miter;stroke-opacity:1" d="M 92.7299,248.894 101.603,222.275 z" id="boundary" inkscape:connector-curvature="0" />
	<path style="fill:none;stroke:red;stroke-width:1px;stroke-linecap:butt;stroke-linejoin:miter;stroke-opacity:1" d="M 110.476,204.53 101.603,222.275 z" id="boundary" inkscape:connector-curvature="0" />
	<path style="fill:none;stroke:red;stroke-width:1px;stroke-linecap:butt;stroke-linejoin:miter;stroke-opacity:1" d="M 160.165,128.222 169.038,110.476 z" id="boundary" inkscape:connector-curvature="0" />
	<path style="fill:none;stroke:red;stroke-width:1px;stroke-linecap:butt;stroke-linejoin:miter;stroke-opacity:1" d="M 160.165,128.222 142.419,137.095 z" id="boundary" inkscape:connector-curvature="0" />
	<path style="fill:none;stroke:red;stroke-width:1px;stroke-linecap:butt;stroke-linejoin:miter;stroke-opacity:1" d="M 133.546,154.841 142.419,137.095 z" id="boundary" inkscape:connector-curvature="0" />
	<path style="fill:none;stroke:red;stroke-width:1px;stroke-linecap:butt;stroke-linejoin:miter;stroke-opacity:1" d="M 133.546,154.841 119.349,169.038 z" id="boundary" inkscape:connector-curvature="0" />
	<path style="fill:none;stroke:red;stroke-width:1px;stroke-linecap:butt;stroke-linejoin:miter;stroke-opacity:1" d="M 344.723,12.873 326.977,12.873 z" id="boundary" inkscape:connector-curvature="0" />
	<path style="fill:none;stroke:red;stroke-width:1px;stroke-linecap:butt;stroke-linejoin:miter;stroke-opacity:1" d="M 392.637,108.701 378.44,121.123 z" id="boundary" inkscape:connector-curvature="0" />
	<path style="fill:none;stroke:red;stroke-width:1px;stroke-linecap:butt;stroke-linejoin:miter;stroke-opacity:1" d="M 344.723,12.873 362.469,12.873 z" id="boundary" inkscape:connector-curvature="0" />
	<path style="fill:none;stroke:red;stroke-width:1px;stroke-linecap:butt;stroke-linejoin:miter;stroke-opacity:1" d="M 378.44,121.123 369.567,138.869 z" id="boundary" inkscape:connector-curvature="0" />
	<path style="fill:none;stroke:red;stroke-width:1px;stroke-linecap:butt;stroke-linejoin:miter;stroke-opacity:1" d="M 413.932,4 397.961,12.873 z" id="boundary" inkscape:connector-curvature="0" />
	<path style="fill:none;stroke:red;stroke-width:1px;stroke-linecap:butt;stroke-linejoin:miter;stroke-opacity:1" d="M 397.961,12.873 380.215,12.873 z" id="boundary" inkscape:connector-curvature="0" />
	<path style="fill:none;stroke:red;stroke-width:1px;stroke-linecap:butt;stroke-linejoin:miter;stroke-opacity:1" d="M 380.215,12.873 362.469,12.873 z" id="boundary" inkscape:connector-curvature="0" />
	<path style="fill:none;stroke:red;stroke-width:1px;stroke-linecap:butt;stroke-linejoin:miter;stroke-opacity:1" d="M 405.059,85.6315 392.637,108.701 z" id="boundary" inkscape:connector-curvature="0" />
	<path style="fill:none;stroke:red;stroke-width:1px;stroke-linecap:butt;stroke-linejoin:miter;stroke-opacity:1" d="M 413.932,67.8855 405.059,85.6315 z" id="boundary" inkscape:connector-curvature="0" />
	<path style="fill:none;stroke:red;stroke-width:1px;stroke-linecap:butt;stroke-linejoin:miter;stroke-opacity:1" d="M 342.948,192.107 357.145,179.685 z" id="boundary" inkscape:connector-curvature="0" />
	<path style="fill:none;stroke:red;stroke-width:1px;stroke-linecap:butt;stroke-linejoin:miter;stroke-opacity:1" d="M 360.694,156.615 357.145,179.685 z" id="boundary" inkscape:connector-curvature="0" />
	<path style="fill:none;stroke:red;stroke-width:1px;stroke-linecap:butt;stroke-linejoin:miter;stroke-opacity:1" d="M 342.948,234.698 334.075,218.726 z" id="boundary" inkscape:connector-curvature="0" />
	<path style="fill:none;stroke:red;stroke-width:1px;stroke-linecap:butt;stroke-linejoin:miter;stroke-opacity:1" d="M 334.075,218.726 342.948,192.107 z" id="boundary" inkscape:connector-curvature="0" />
	<path style="fill:none;stroke:red;stroke-width:1px;stroke-linecap:butt;stroke-linejoin:miter;stroke-opacity:1" d="M 358.919,243.571 342.948,234.698 z" id="boundary" inkscape:connector-curvature="0" />
	<path style="fill:none;stroke:red;stroke-width:1px;stroke-linecap:butt;stroke-linejoin:miter;stroke-opacity:1" d="M 376.665,247.12 358.919,243.571 z" id="boundary" inkscape:connector-curvature="0" />
	<path style="fill:none;stroke:red;stroke-width:1px;stroke-linecap:butt;stroke-linejoin:miter;stroke-opacity:1" d="M 369.567,138.869 360.694,156.615 z" id="boundary" inkscape:connector-curvature="0" />
	<path style="fill:none;stroke:red;stroke-width:1px;stroke-linecap:butt;stroke-linejoin:miter;stroke-opacity:1" d="M 394.411,252.444 376.665,247.12 z" id="boundary" inkscape:connector-curvature="0" />
	<path style="fill:none;stroke:red;stroke-width:1px;stroke-linecap:butt;stroke-linejoin:miter;stroke-opacity:1" d="M 412.157,255.993 394.411,252.444 z" id="boundary" inkscape:connector-curvature="0" />
	<path style="fill:none;stroke:red;stroke-width:1px;stroke-linecap:butt;stroke-linejoin:miter;stroke-opacity:1" d="M 12.873,399.735 21.746,373.116 z" id="boundary" inkscape:connector-curvature="0" />
	<path style="fill:none;stroke:red;stroke-width:1px;stroke-linecap:butt;stroke-linejoin:miter;stroke-opacity:1" d="M 30.619,355.37 21.746,373.116 z" id="boundary" inkscape:connector-curvature="0" />
	<path style="fill:none;stroke:red;stroke-width:1px;stroke-linecap:butt;stroke-linejoin:miter;stroke-opacity:1" d="M 39.4919,328.751 30.619,355.37 z" id="boundary" inkscape:connector-curvature="0" />
	<path style="fill:none;stroke:red;stroke-width:1px;stroke-linecap:butt;stroke-linejoin:miter;stroke-opacity:1" d="M 14.6476,440.551 4,426.354 z" id="boundary" inkscape:connector-curvature="0" />
	<path style="fill:none;stroke:red;stroke-width:1px;stroke-linecap:butt;stroke-linejoin:miter;stroke-opacity:1" d="M 4,426.354 12.873,399.735 z" id="boundary" inkscape:connector-curvature="0" />
	<path style="fill:none;stroke:red;stroke-width:1px;stroke-linecap:butt;stroke-linejoin:miter;stroke-opacity:1" d="M 66.1109,305.682 76.7585,291.485 z" id="boundary" inkscape:connector-curvature="0" />
	<path style="fill:none;stroke:red;stroke-width:1px;stroke-linecap:butt;stroke-linejoin:miter;stroke-opacity:1" d="M 85.6315,273.739 76.7585,291.485 z" id="boundary" inkscape:connector-curvature="0" />
	<path style="fill:none;stroke:red;stroke-width:1px;stroke-linecap:butt;stroke-linejoin:miter;stroke-opacity:1" d="M 39.4919,328.751 48.3649,302.132 z" id="boundary" inkscape:connector-curvature="0" />
	<path style="fill:none;stroke:red;stroke-width:1px;stroke-linecap:butt;stroke-linejoin:miter;stroke-opacity:1" d="M 92.7299,248.894 85.6315,273.739 z" id="boundary" inkscape:connector-curvature="0" />
	<path style="fill:none;stroke:red;stroke-width:1px;stroke-linecap:butt;stroke-linejoin:miter;stroke-opacity:1" d="M 30.619,449.424 14.6476,440.551 z" id="boundary" inkscape:connector-curvature="0" />
	<path style="fill:none;stroke:red;stroke-width:1px;stroke-linecap:butt;stroke-linejoin:miter;stroke-opacity:1" d="M 48.3649,449.424 64.3363,458.297 z" id="boundary" inkscape:connector-curvature="0" />
	<path style="fill:none;stroke:red;stroke-width:1px;stroke-linecap:butt;stroke-linejoin:miter;stroke-opacity:1" d="M 30.619,449.424 48.3649,449.424 z" id="boundary" inkscape:connector-curvature="0" />
	<path style="fill:none;stroke:red;stroke-width:1px;stroke-linecap:butt;stroke-linejoin:miter;stroke-opacity:1" d="M 80.3077,467.17 64.3363,458.297 z" id="boundary" inkscape:connector-curvature="0" />
	<path style="fill:none;stroke:red;stroke-width:1px;stroke-linecap:butt;stroke-linejoin:miter;stroke-opacity:1" d="M 80.3077,467.17 98.0537,474.268 z" id="boundary" inkscape:connector-curvature="0" />
	<path style="fill:none;stroke:red;stroke-width:1px;stroke-linecap:butt;stroke-linejoin:miter;stroke-opacity:1" d="M 98.0537,474.268 115.8,476.043 z" id="boundary" inkscape:connector-curvature="0" />
	<path style="fill:none;stroke:red;stroke-width:1px;stroke-linecap:butt;stroke-linejoin:miter;stroke-opacity:1" d="M 115.8,476.043 131.771,484.916 z" id="boundary" inkscape:connector-curvature="0" />
	<path style="fill:none;stroke:red;stroke-width:1px;stroke-linecap:butt;stroke-linejoin:miter;stroke-opacity:1" d="M 149.517,490.24 131.771,484.916 z" id="boundary" inkscape:connector-curvature="0" />
	<path style="fill:none;stroke:red;stroke-width:1px;stroke-linecap:butt;stroke-linejoin:miter;stroke-opacity:1" d="M 149.517,490.24 167.263,493.789 z" id="boundary" inkscape:connector-curvature="0" />
	<path style="fill:none;stroke:red;stroke-width:1px;stroke-linecap:butt;stroke-linejoin:miter;stroke-opacity:1" d="M 167.263,493.789 183.234,502.662 z" id="boundary" inkscape:connector-curvature="0" />
	<path style="fill:none;stroke:red;stroke-width:1px;stroke-linecap:butt;stroke-linejoin:miter;stroke-opacity:1" d="M 289.71,360.694 307.456,364.243 z" id="boundary" inkscape:connector-curvature="0" />
	<path style="fill:none;stroke:red;stroke-width:1px;stroke-linecap:butt;stroke-linejoin:miter;stroke-opacity:1" d="M 295.034,389.088 280.837,378.44 z" id="boundary" inkscape:connector-curvature="0" />
	<path style="fill:none;stroke:red;stroke-width:1px;stroke-linecap:butt;stroke-linejoin:miter;stroke-opacity:1" d="M 280.837,378.44 289.71,360.694 z" id="boundary" inkscape:connector-curvature="0" />
	<path style="fill:none;stroke:red;stroke-width:1px;stroke-linecap:butt;stroke-linejoin:miter;stroke-opacity:1" d="M 307.456,364.243 325.202,369.567 z" id="boundary" inkscape:connector-curvature="0" />
	<path style="fill:none;stroke:red;stroke-width:1px;stroke-linecap:butt;stroke-linejoin:miter;stroke-opacity:1" d="M 298.583,406.834 295.034,389.088 z" id="boundary" inkscape:connector-curvature="0" />
	<path style="fill:none;stroke:red;stroke-width:1px;stroke-linecap:butt;stroke-linejoin:miter;stroke-opacity:1" d="M 325.202,369.567 341.174,378.44 z" id="boundary" inkscape:connector-curvature="0" />
	<path style="fill:none;stroke:red;stroke-width:1px;stroke-linecap:butt;stroke-linejoin:miter;stroke-opacity:1" d="M 357.145,387.313 341.174,378.44 z" id="boundary" inkscape:connector-curvature="0" />
	<path style="fill:none;stroke:red;stroke-width:1px;stroke-linecap:butt;stroke-linejoin:miter;stroke-opacity:1" d="M 374.891,387.313 357.145,387.313 z" id="boundary" inkscape:connector-curvature="0" />
	<path style="fill:none;stroke:red;stroke-width:1px;stroke-linecap:butt;stroke-linejoin:miter;stroke-opacity:1" d="M 390.862,396.186 374.891,387.313 z" id="boundary" inkscape:connector-curvature="0" />
	<path style="fill:none;stroke:red;stroke-width:1px;stroke-linecap:butt;stroke-linejoin:miter;stroke-opacity:1" d="M 408.608,403.284 390.862,396.186 z" id="boundary" inkscape:connector-curvature="0" />
	<path style="fill:none;stroke:red;stroke-width:1px;stroke-linecap:butt;stroke-linejoin:miter;stroke-opacity:1" d="M 183.234,502.662 199.206,511.535 z" id="boundary" inkscape:connector-curvature="0" />
	<path style="fill:none;stroke:red;stroke-width:1px;stroke-linecap:butt;stroke-linejoin:miter;stroke-opacity:1" d="M 216.952,511.535 199.206,511.535 z" id="boundary" inkscape:connector-curvature="0" />
	<path style="fill:none;stroke:red;stroke-width:1px;stroke-linecap:butt;stroke-linejoin:miter;stroke-opacity:1" d="M 263.091,493.789 250.669,520.408 z" id="boundary" inkscape:connector-curvature="0" />
	<path style="fill:none;stroke:red;stroke-width:1px;stroke-linecap:butt;stroke-linejoin:miter;stroke-opacity:1" d="M 250.669,520.408 232.923,520.408 z" id="boundary" inkscape:connector-curvature="0" />
	<path style="fill:none;stroke:red;stroke-width:1px;stroke-linecap:butt;stroke-linejoin:miter;stroke-opacity:1" d="M 232.923,520.408 216.952,511.535 z" id="boundary" inkscape:connector-curvature="0" />
	<path style="fill:none;stroke:red;stroke-width:1px;stroke-linecap:butt;stroke-linejoin:miter;stroke-opacity:1" d="M 289.71,431.678 298.583,406.834 z" id="boundary" inkscape:connector-curvature="0" />
	<path style="fill:none;stroke:red;stroke-width:1px;stroke-linecap:butt;stroke-linejoin:miter;stroke-opacity:1" d="M 271.964,476.043 263.091,493.789 z" id="boundary" inkscape:connector-curvature="0" />
	<path style="fill:none;stroke:red;stroke-width:1px;stroke-linecap:butt;stroke-linejoin:miter;stroke-opacity:1" d="M 280.837,449.424 271.964,476.043 z" id="boundary" inkscape:connector-curvature="0" />
	<path style="fill:none;stroke:red;stroke-width:1px;stroke-linecap:butt;stroke-linejoin:miter;stroke-opacity:1" d="M 280.837,449.424 289.71,431.678 z" id="boundary" inkscape:connector-curvature="0" />
	<path style="fill:none;stroke:red;stroke-width:1px;stroke-linecap:butt;stroke-linejoin:miter;stroke-opacity:1" d="M 408.608,403.284 424.58,412.157 z" id="boundary" inkscape:connector-curvature="0" />
	<path style="fill:none;stroke:red;stroke-width:1px;stroke-linecap:butt;stroke-linejoin:miter;stroke-opacity:1" d="M 412.157,255.993 422.805,270.19 z" id="boundary" inkscape:connector-curvature="0" />
	<path style="fill:none;stroke:red;stroke-width:1px;stroke-linecap:butt;stroke-linejoin:miter;stroke-opacity:1" d="M 428.129,55.4633 413.932,67.8855 z" id="boundary" inkscape:connector-curvature="0" />
	<path style="fill:none;stroke:red;stroke-width:1px;stroke-linecap:butt;stroke-linejoin:miter;stroke-opacity:1" d="M 440.551,270.19 422.805,270.19 z" id="boundary" inkscape:connector-curvature="0" />
	<path style="fill:none;stroke:red;stroke-width:1px;stroke-linecap:butt;stroke-linejoin:miter;stroke-opacity:1" d="M 440.551,32.3936 428.129,55.4633 z" id="boundary" inkscape:connector-curvature="0" />
	<path style="fill:none;stroke:red;stroke-width:1px;stroke-linecap:butt;stroke-linejoin:miter;stroke-opacity:1" d="M 413.932,4 431.678,4 z" id="boundary" inkscape:connector-curvature="0" />
	<path style="fill:none;stroke:red;stroke-width:1px;stroke-linecap:butt;stroke-linejoin:miter;stroke-opacity:1" d="M 449.424,4 458.297,19.9714 z" id="boundary" inkscape:connector-curvature="0" />
	<path style="fill:none;stroke:red;stroke-width:1px;stroke-linecap:butt;stroke-linejoin:miter;stroke-opacity:1" d="M 458.297,19.9714 440.551,32.3936 z" id="boundary" inkscape:connector-curvature="0" />
	<path style="fill:none;stroke:red;stroke-width:1px;stroke-linecap:butt;stroke-linejoin:miter;stroke-opacity:1" d="M 474.268,282.612 456.522,279.063 z" id="boundary" inkscape:connector-curvature="0" />
	<path style="fill:none;stroke:red;stroke-width:1px;stroke-linecap:butt;stroke-linejoin:miter;stroke-opacity:1" d="M 456.522,279.063 440.551,270.19 z" id="boundary" inkscape:connector-curvature="0" />
	<path style="fill:none;stroke:red;stroke-width:1px;stroke-linecap:butt;stroke-linejoin:miter;stroke-opacity:1" d="M 431.678,4 449.424,4 z" id="boundary" inkscape:connector-curvature="0" />
	<path style="fill:none;stroke:red;stroke-width:1px;stroke-linecap:butt;stroke-linejoin:miter;stroke-opacity:1" d="M 442.326,413.932 424.58,412.157 z" id="boundary" inkscape:connector-curvature="0" />
	<path style="fill:none;stroke:red;stroke-width:1px;stroke-linecap:butt;stroke-linejoin:miter;stroke-opacity:1" d="M 442.326,413.932 460.072,419.256 z" id="boundary" inkscape:connector-curvature="0" />
	<path style="fill:none;stroke:red;stroke-width:1px;stroke-linecap:butt;stroke-linejoin:miter;stroke-opacity:1" d="M 460.072,419.256 476.043,428.129 z" id="boundary" inkscape:connector-curvature="0" />
	<path style="fill:none;stroke:red;stroke-width:1px;stroke-linecap:butt;stroke-linejoin:miter;stroke-opacity:1" d="M 493.789,431.678 476.043,428.129 z" id="boundary" inkscape:connector-curvature="0" />
	<path style="fill:none;stroke:red;stroke-width:1px;stroke-linecap:butt;stroke-linejoin:miter;stroke-opacity:1" d="M 474.268,282.612 492.014,287.936 z" id="boundary" inkscape:connector-curvature="0" />
	<path style="fill:none;stroke:red;stroke-width:1px;stroke-linecap:butt;stroke-linejoin:miter;stroke-opacity:1" d="M 492.014,287.936 507.986,296.809 z" id="boundary" inkscape:connector-curvature="0" />
	<path style="fill:none;stroke:red;stroke-width:1px;stroke-linecap:butt;stroke-linejoin:miter;stroke-opacity:1" d="M 523.957,305.682 541.703,305.682 z" id="boundary" inkscape:connector-curvature="0" />
	<path style="fill:none;stroke:red;stroke-width:1px;stroke-linecap:butt;stroke-linejoin:miter;stroke-opacity:1" d="M 541.703,305.682 557.674,314.555 z" id="boundary" inkscape:connector-curvature="0" />
	<path style="fill:none;stroke:red;stroke-width:1px;stroke-linecap:butt;stroke-linejoin:miter;stroke-opacity:1" d="M 523.957,305.682 507.986,296.809 z" id="boundary" inkscape:connector-curvature="0" />
	<path style="fill:none;stroke:red;stroke-width:1px;stroke-linecap:butt;stroke-linejoin:miter;stroke-opacity:1" d="M 573.646,323.428 591.392,323.428 z" id="boundary" inkscape:connector-curvature="0" />
	<path style="fill:none;stroke:red;stroke-width:1px;stroke-linecap:butt;stroke-linejoin:miter;stroke-opacity:1" d="M 591.392,323.428 607.363,332.301 z" id="boundary" inkscape:connector-curvature="0" />
	<path style="fill:none;stroke:red;stroke-width:1px;stroke-linecap:butt;stroke-linejoin:miter;stroke-opacity:1" d="M 573.646,323.428 557.674,314.555 z" id="boundary" inkscape:connector-curvature="0" />
	<path style="fill:none;stroke:red;stroke-width:1px;stroke-linecap:butt;stroke-linejoin:miter;stroke-opacity:1" d="M 607.363,332.301 625.109,335.85 z" id="boundary" inkscape:connector-curvature="0" />
	<path style="fill:none;stroke:red;stroke-width:1px;stroke-linecap:butt;stroke-linejoin:miter;stroke-opacity:1" d="M 625.109,335.85 641.081,344.723 z" id="boundary" inkscape:connector-curvature="0" />
	<path style="fill:none;stroke:red;stroke-width:1px;stroke-linecap:butt;stroke-linejoin:miter;stroke-opacity:1" d="M 641.081,344.723 658.826,350.047 z" id="boundary" inkscape:connector-curvature="0" />
	<path style="fill:none;stroke:red;stroke-width:1px;stroke-linecap:butt;stroke-linejoin:miter;stroke-opacity:1" d="M 674.798,358.919 692.544,358.919 z" id="boundary" inkscape:connector-curvature="0" />
	<path style="fill:none;stroke:red;stroke-width:1px;stroke-linecap:butt;stroke-linejoin:miter;stroke-opacity:1" d="M 692.544,358.919 708.515,367.792 z" id="boundary" inkscape:connector-curvature="0" />
	<path style="fill:none;stroke:red;stroke-width:1px;stroke-linecap:butt;stroke-linejoin:miter;stroke-opacity:1" d="M 674.798,358.919 658.826,350.047 z" id="boundary" inkscape:connector-curvature="0" />
	<path style="fill:none;stroke:red;stroke-width:1px;stroke-linecap:butt;stroke-linejoin:miter;stroke-opacity:1" d="M 724.487,376.665 742.233,376.665 z" id="boundary" inkscape:connector-curvature="0" />
	<path style="fill:none;stroke:red;stroke-width:1px;stroke-linecap:butt;stroke-linejoin:miter;stroke-opacity:1" d="M 742.233,376.665 758.204,385.538 z" id="boundary" inkscape:connector-curvature="0" />
	<path style="fill:none;stroke:red;stroke-width:1px;stroke-linecap:butt;stroke-linejoin:miter;stroke-opacity:1" d="M 724.487,376.665 708.515,367.792 z" id="boundary" inkscape:connector-curvature="0" />
	<path style="fill:none;stroke:red;stroke-width:1px;stroke-linecap:butt;stroke-linejoin:miter;stroke-opacity:1" d="M 758.204,385.538 775.95,389.088 z" id="boundary" inkscape:connector-curvature="0" />
	<path style="fill:none;stroke:red;stroke-width:1px;stroke-linecap:butt;stroke-linejoin:miter;stroke-opacity:1" d="M 775.95,389.088 791.921,397.961 z" id="boundary" inkscape:connector-curvature="0" />
	<path style="fill:none;stroke:red;stroke-width:1px;stroke-linecap:butt;stroke-linejoin:miter;stroke-opacity:1" d="M 809.667,405.059 791.921,397.961 z" id="boundary" inkscape:connector-curvature="0" />
	<path style="fill:none;stroke:red;stroke-width:1px;stroke-linecap:butt;stroke-linejoin:miter;stroke-opacity:1" d="M 827.413,412.157 809.667,405.059 z" id="boundary" inkscape:connector-curvature="0" />
	<path style="fill:none;stroke:red;stroke-width:1px;stroke-linecap:butt;stroke-linejoin:miter;stroke-opacity:1" d="M 845.159,413.932 827.413,412.157 z" id="boundary" inkscape:connector-curvature="0" />
	<path style="fill:none;stroke:red;stroke-width:1px;stroke-linecap:butt;stroke-linejoin:miter;stroke-opacity:1" d="M 896.623,429.903 878.877,429.903 z" id="boundary" inkscape:connector-curvature="0" />
	<path style="fill:none;stroke:red;stroke-width:1px;stroke-linecap:butt;stroke-linejoin:miter;stroke-opacity:1" d="M 878.877,429.903 861.131,422.805 z" id="boundary" inkscape:connector-curvature="0" />
	<path style="fill:none;stroke:red;stroke-width:1px;stroke-linecap:butt;stroke-linejoin:miter;stroke-opacity:1" d="M 861.131,422.805 845.159,413.932 z" id="boundary" inkscape:connector-curvature="0" />
	<path style="fill:none;stroke:red;stroke-width:1px;stroke-linecap:butt;stroke-linejoin:miter;stroke-opacity:1" d="M 493.789,431.678 509.76,440.551 z" id="boundary" inkscape:connector-curvature="0" />
	<path style="fill:none;stroke:red;stroke-width:1px;stroke-linecap:butt;stroke-linejoin:miter;stroke-opacity:1" d="M 527.506,440.551 509.76,440.551 z" id="boundary" inkscape:connector-curvature="0" />
	<path style="fill:none;stroke:red;stroke-width:1px;stroke-linecap:butt;stroke-linejoin:miter;stroke-opacity:1" d="M 527.506,440.551 543.478,449.424 z" id="boundary" inkscape:connector-curvature="0" />
	<path style="fill:none;stroke:red;stroke-width:1px;stroke-linecap:butt;stroke-linejoin:miter;stroke-opacity:1" d="M 543.478,449.424 559.449,458.297 z" id="boundary" inkscape:connector-curvature="0" />
	<path style="fill:none;stroke:red;stroke-width:1px;stroke-linecap:butt;stroke-linejoin:miter;stroke-opacity:1" d="M 559.449,458.297 577.195,465.395 z" id="boundary" inkscape:connector-curvature="0" />
	<path style="fill:none;stroke:red;stroke-width:1px;stroke-linecap:butt;stroke-linejoin:miter;stroke-opacity:1" d="M 594.941,467.17 577.195,465.395 z" id="boundary" inkscape:connector-curvature="0" />
	<path style="fill:none;stroke:red;stroke-width:1px;stroke-linecap:butt;stroke-linejoin:miter;stroke-opacity:1" d="M 610.912,476.043 594.941,467.17 z" id="boundary" inkscape:connector-curvature="0" />
	<path style="fill:none;stroke:red;stroke-width:1px;stroke-linecap:butt;stroke-linejoin:miter;stroke-opacity:1" d="M 628.658,481.367 610.912,476.043 z" id="boundary" inkscape:connector-curvature="0" />
	<path style="fill:none;stroke:red;stroke-width:1px;stroke-linecap:butt;stroke-linejoin:miter;stroke-opacity:1" d="M 646.404,484.916 628.658,481.367 z" id="boundary" inkscape:connector-curvature="0" />
	<path style="fill:none;stroke:red;stroke-width:1px;stroke-linecap:butt;stroke-linejoin:miter;stroke-opacity:1" d="M 646.404,484.916 662.376,493.789 z" id="boundary" inkscape:connector-curvature="0" />
	<path style="fill:none;stroke:red;stroke-width:1px;stroke-linecap:butt;stroke-linejoin:miter;stroke-opacity:1" d="M 680.122,497.338 662.376,493.789 z" id="boundary" inkscape:connector-curvature="0" />
	<path style="fill:none;stroke:red;stroke-width:1px;stroke-linecap:butt;stroke-linejoin:miter;stroke-opacity:1" d="M 696.093,506.211 680.122,497.338 z" id="boundary" inkscape:connector-curvature="0" />
	<path style="fill:none;stroke:red;stroke-width:1px;stroke-linecap:butt;stroke-linejoin:miter;stroke-opacity:1" d="M 696.093,506.211 713.839,511.535 z" id="boundary" inkscape:connector-curvature="0" />
	<path style="fill:none;stroke:red;stroke-width:1px;stroke-linecap:butt;stroke-linejoin:miter;stroke-opacity:1" d="M 713.839,511.535 729.81,520.408 z" id="boundary" inkscape:connector-curvature="0" />
	<path style="fill:none;stroke:red;stroke-width:1px;stroke-linecap:butt;stroke-linejoin:miter;stroke-opacity:1" d="M 729.81,520.408 747.556,520.408 z" id="boundary" inkscape:connector-curvature="0" />
	<path style="fill:none;stroke:red;stroke-width:1px;stroke-linecap:butt;stroke-linejoin:miter;stroke-opacity:1" d="M 747.556,520.408 763.528,529.281 z" id="boundary" inkscape:connector-curvature="0" />
	<path style="fill:none;stroke:red;stroke-width:1px;stroke-linecap:butt;stroke-linejoin:miter;stroke-opacity:1" d="M 779.499,538.154 763.528,529.281 z" id="boundary" inkscape:connector-curvature="0" />
	<path style="fill:none;stroke:red;stroke-width:1px;stroke-linecap:butt;stroke-linejoin:miter;stroke-opacity:1" d="M 797.245,543.478 779.499,538.154 z" id="boundary" inkscape:connector-curvature="0" />
	<path style="fill:none;stroke:red;stroke-width:1px;stroke-linecap:butt;stroke-linejoin:miter;stroke-opacity:1" d="M 964.057,456.522 946.311,452.973 z" id="boundary" inkscape:connector-curvature="0" />
	<path style="fill:none;stroke:red;stroke-width:1px;stroke-linecap:butt;stroke-linejoin:miter;stroke-opacity:1" d="M 912.594,438.776 928.565,447.649 z" id="boundary" inkscape:connector-curvature="0" />
	<path style="fill:none;stroke:red;stroke-width:1px;stroke-linecap:butt;stroke-linejoin:miter;stroke-opacity:1" d="M 946.311,452.973 928.565,447.649 z" id="boundary" inkscape:connector-curvature="0" />
	<path style="fill:none;stroke:red;stroke-width:1px;stroke-linecap:butt;stroke-linejoin:miter;stroke-opacity:1" d="M 912.594,438.776 896.623,429.903 z" id="boundary" inkscape:connector-curvature="0" />
	<path style="fill:none;stroke:red;stroke-width:1px;stroke-linecap:butt;stroke-linejoin:miter;stroke-opacity:1" d="M 814.991,547.027 797.245,543.478 z" id="boundary" inkscape:connector-curvature="0" />
	<path style="fill:none;stroke:red;stroke-width:1px;stroke-linecap:butt;stroke-linejoin:miter;stroke-opacity:1" d="M 964.057,456.522 980.029,465.395 z" id="boundary" inkscape:connector-curvature="0" />
	<path style="fill:none;stroke:red;stroke-width:1px;stroke-linecap:butt;stroke-linejoin:miter;stroke-opacity:1" d="M 990.676,502.662 981.803,529.281 z" id="boundary" inkscape:connector-curvature="0" />
	<path style="fill:none;stroke:red;stroke-width:1px;stroke-linecap:butt;stroke-linejoin:miter;stroke-opacity:1" d="M 980.029,465.395 996,474.268 z" id="boundary" inkscape:connector-curvature="0" />
	<path style="fill:none;stroke:red;stroke-width:1px;stroke-linecap:butt;stroke-linejoin:miter;stroke-opacity:1" d="M 996,474.268 990.676,502.662 z" id="boundary" inkscape:connector-curvature="0" />
	<path style="fill:none;stroke:red;stroke-width:1px;stroke-linecap:butt;stroke-linejoin:miter;stroke-opacity:1" d="M 830.962,555.9 848.708,559.449 z" id="boundary" inkscape:connector-curvature="0" />
	<path style="fill:none;stroke:red;stroke-width:1px;stroke-linecap:butt;stroke-linejoin:miter;stroke-opacity:1" d="M 830.962,555.9 814.991,547.027 z" id="boundary" inkscape:connector-curvature="0" />
	<path style="fill:none;stroke:red;stroke-width:1px;stroke-linecap:butt;stroke-linejoin:miter;stroke-opacity:1" d="M 900.172,573.646 882.426,573.646 z" id="boundary" inkscape:connector-curvature="0" />
	<path style="fill:none;stroke:red;stroke-width:1px;stroke-linecap:butt;stroke-linejoin:miter;stroke-opacity:1" d="M 882.426,573.646 866.454,564.773 z" id="boundary" inkscape:connector-curvature="0" />
	<path style="fill:none;stroke:red;stroke-width:1px;stroke-linecap:butt;stroke-linejoin:miter;stroke-opacity:1" d="M 900.172,573.646 910.819,587.843 z" id="boundary" inkscape:connector-curvature="0" />
	<path style="fill:none;stroke:red;stroke-width:1px;stroke-linecap:butt;stroke-linejoin:miter;stroke-opacity:1" d="M 848.708,559.449 866.454,564.773 z" id="boundary" inkscape:connector-curvature="0" />
	<path style="fill:none;stroke:red;stroke-width:1px;stroke-linecap:butt;stroke-linejoin:miter;stroke-opacity:1" d="M 972.93,555.9 964.057,582.519 z" id="boundary" inkscape:connector-curvature="0" />
	<path style="fill:none;stroke:red;stroke-width:1px;stroke-linecap:butt;stroke-linejoin:miter;stroke-opacity:1" d="M 910.819,587.843 928.565,591.392 z" id="boundary" inkscape:connector-curvature="0" />
	<path style="fill:none;stroke:red;stroke-width:1px;stroke-linecap:butt;stroke-linejoin:miter;stroke-opacity:1" d="M 946.311,594.941 928.565,591.392 z" id="boundary" inkscape:connector-curvature="0" />
	<path style="fill:none;stroke:red;stroke-width:1px;stroke-linecap:butt;stroke-linejoin:miter;stroke-opacity:1" d="M 964.057,582.519 946.311,594.941 z" id="boundary" inkscape:connector-curvature="0" />
	<path style="fill:none;stroke:red;stroke-width:1px;stroke-linecap:butt;stroke-linejoin:miter;stroke-opacity:1" d="M 981.803,529.281 972.93,555.9 z" id="boundary" inkscape:connector-curvature="0" />
	<circle cx="4" cy="426.354" r="4" fill="#0" id="circle0"/>
	<circle cx="12.873" cy="399.735" r="4" fill="#0" id="circle1"/>
	<circle cx="14.6476" cy="440.551" r="4" fill="#0" id="circle2"/>
	<circle cx="21.746" cy="373.116" r="4" fill="#0" id="circle3"/>
	<circle cx="30.619" cy="355.37" r="4" fill="#0" id="circle4"/>
	<circle cx="30.619" cy="449.424" r="4" fill="#0" id="circle5"/>
	<circle cx="39.4919" cy="328.751" r="4" fill="#0" id="circle6"/>
	<circle cx="48.3649" cy="302.132" r="4" fill="#0" id="circle7"/>
	<circle cx="48.3649" cy="449.424" r="4" fill="#0" id="circle8"/>
	<circle cx="64.3363" cy="458.297" r="4" fill="#0" id="circle9"/>
	<circle cx="66.1109" cy="305.682" r="4" fill="#0" id="circle10"/>
	<circle cx="76.7585" cy="291.485" r="4" fill="#0" id="circle11"/>
	<circle cx="80.3077" cy="467.17" r="4" fill="#0" id="circle12"/>
	<circle cx="85.6315" cy="273.739" r="4" fill="#0" id="circle13"/>
	<circle cx="92.7299" cy="248.894" r="4" fill="#0" id="circle14"/>
	<circle cx="98.0537" cy="474.268" r="4" fill="#0" id="circle15"/>
	<circle cx="101.603" cy="222.275" r="4" fill="#0" id="circle16"/>
	<circle cx="110.476" cy="204.53" r="4" fill="#0" id="circle17"/>
	<circle cx="115.8" cy="476.043" r="4" fill="#0" id="circle18"/>
	<circle cx="119.349" cy="169.038" r="4" fill="#0" id="circle19"/>
	<circle cx="119.349" cy="186.784" r="4" fill="#0" id="circle20"/>
	<circle cx="131.771" cy="484.916" r="4" fill="#0" id="circle21"/>
	<circle cx="133.546" cy="154.841" r="4" fill="#0" id="circle22"/>
	<circle cx="137.095" cy="172.587" r="4" fill="#0" id="circle23"/>
	<circle cx="142.419" cy="137.095" r="4" fill="#0" id="circle24"/>
	<circle cx="149.517" cy="490.24" r="4" fill="#0" id="circle25"/>
	<circle cx="160.165" cy="128.222" r="4" fill="#0" id="circle26"/>
	<circle cx="167.263" cy="493.789" r="4" fill="#0" id="circle27"/>
	<circle cx="169.038" cy="110.476" r="4" fill="#0" id="circle28"/>
	<circle cx="183.234" cy="502.662" r="4" fill="#0" id="circle29"/>
	<circle cx="185.009" cy="101.603" r="4" fill="#0" id="circle30"/>
	<circle cx="193.882" cy="85.6315" r="4" fill="#0" id="circle31"/>
	<circle cx="199.206" cy="511.535" r="4" fill="#0" id="circle32"/>
	<circle cx="211.628" cy="76.7585" r="4" fill="#0" id="circle33"/>
	<circle cx="216.952" cy="511.535" r="4" fill="#0" id="circle34"/>
	<circle cx="229.374" cy="67.8855" r="4" fill="#0" id="circle35"/>
	<circle cx="232.923" cy="520.408" r="4" fill="#0" id="circle36"/>
	<circle cx="243.571" cy="53.6887" r="4" fill="#0" id="circle37"/>
	<circle cx="250.669" cy="520.408" r="4" fill="#0" id="circle38"/>
	<circle cx="257.767" cy="39.4919" r="4" fill="#0" id="circle39"/>
	<circle cx="263.091" cy="493.789" r="4" fill="#0" id="circle40"/>
	<circle cx="271.964" cy="476.043" r="4" fill="#0" id="circle41"/>
	<circle cx="275.513" cy="30.619" r="4" fill="#0" id="circle42"/>
	<circle cx="280.837" cy="378.44" r="4" fill="#0" id="circle43"/>
	<circle cx="280.837" cy="449.424" r="4" fill="#0" id="circle44"/>
	<circle cx="289.71" cy="360.694" r="4" fill="#0" id="circle45"/>
	<circle cx="289.71" cy="431.678" r="4" fill="#0" id="circle46"/>
	<circle cx="293.259" cy="21.746" r="4" fill="#0" id="circle47"/>
	<circle cx="295.034" cy="389.088" r="4" fill="#0" id="circle48"/>
	<circle cx="298.583" cy="406.834" r="4" fill="#0" id="circle49"/>
	<circle cx="307.456" cy="364.243" r="4" fill="#0" id="circle50"/>
	<circle cx="311.005" cy="21.746" r="4" fill="#0" id="circle51"/>
	<circle cx="325.202" cy="369.567" r="4" fill="#0" id="circle52"/>
	<circle cx="326.977" cy="12.873" r="4" fill="#0" id="circle53"/>
	<circle cx="334.075" cy="218.726" r="4" fill="#0" id="circle54"/>
	<circle cx="341.174" cy="378.44" r="4" fill="#0" id="circle55"/>
	<circle cx="342.948" cy="192.107" r="4" fill="#0" id="circle56"/>
	<circle cx="342.948" cy="234.698" r="4" fill="#0" id="circle57"/>
	<circle cx="344.723" cy="12.873" r="4" fill="#0" id="circle58"/>
	<circle cx="357.145" cy="179.685" r="4" fill="#0" id="circle59"/>
	<circle cx="357.145" cy="387.313" r="4" fill="#0" id="circle60"/>
	<circle cx="358.919" cy="243.571" r="4" fill="#0" id="circle61"/>
	<circle cx="360.694" cy="156.615" r="4" fill="#0" id="circle62"/>
	<circle cx="362.469" cy="12.873" r="4" fill="#0" id="circle63"/>
	<circle cx="369.567" cy="138.869" r="4" fill="#0" id="circle64"/>
	<circle cx="374.891" cy="387.313" r="4" fill="#0" id="circle65"/>
	<circle cx="376.665" cy="247.12" r="4" fill="#0" id="circle66"/>
	<circle cx="378.44" cy="121.123" r="4" fill="#0" id="circle67"/>
	<circle cx="380.215" cy="12.873" r="4" fill="#0" id="circle68"/>
	<circle cx="390.862" cy="396.186" r="4" fill="#0" id="circle69"/>
	<circle cx="392.637" cy="108.701" r="4" fill="#0" id="circle70"/>
	<circle cx="394.411" cy="252.444" r="4" fill="#0" id="circle71"/>
	<circle cx="397.961" cy="12.873" r="4" fill="#0" id="circle72"/>
	<circle cx="405.059" cy="85.6315" r="4" fill="#0" id="circle73"/>
	<circle cx="408.608" cy="403.284" r="4" fill="#0" id="circle74"/>
	<circle cx="412.157" cy="255.993" r="4" fill="#0" id="circle75"/>
	<circle cx="413.932" cy="4" r="4" fill="#0" id="circle76"/>
	<circle cx="413.932" cy="67.8855" r="4" fill="#0" id="circle77"/>
	<circle cx="422.805" cy="270.19" r="4" fill="#0" id="circle78"/>
	<circle cx="424.58" cy="412.157" r="4" fill="#0" id="circle79"/>
	<circle cx="428.129" cy="55.4633" r="4" fill="#0" id="circle80"/>
	<circle cx="431.678" cy="4" r="4" fill="#0" id="circle81"/>
	<circle cx="440.551" cy="32.3936" r="4" fill="#0" id="circle82"/>
	<circle cx="440.551" cy="270.19" r="4" fill="#0" id="circle83"/>
	<circle cx="442.326" cy="413.932" r="4" fill="#0" id="circle84"/>
	<circle cx="449.424" cy="4" r="4" fill="#0" id="circle85"/>
	<circle cx="456.522" cy="279.063" r="4" fill="#0" id="circle86"/>
	<circle cx="458.297" cy="19.9714" r="4" fill="#0" id="circle87"/>
	<circle cx="460.072" cy="419.256" r="4" fill="#0" id="circle88"/>
	<circle cx="474.268" cy="282.612" r="4" fill="#0" id="circle89"/>
	<circle cx="476.043" cy="428.129" r="4" fill="#0" id="circle90"/>
	<circle cx="492.014" cy="287.936" r="4" fill="#0" id="circle91"/>
	<circle cx="493.789" cy="431.678" r="4" fill="#0" id="circle92"/>
	<circle cx="507.986" cy="296.809" r="4" fill="#0" id="circle93"/>
	<circle cx="509.76" cy="440.551" r="4" fill="#0" id="circle94"/>
	<circle cx="523.957" cy="305.682" r="4" fill="#0" id="circle95"/>
	<circle cx="527.506" cy="440.551" r="4" fill="#0" id="circle96"/>
	<circle cx="541.703" cy="305.682" r="4" fill="#0" id="circle97"/>
	<circle cx="543.478" cy="449.424" r="4" fill="#0" id="circle98"/>
	<circle cx="557.674" cy="314.555" r="4" fill="#0" id="circle99"/>
	<circle cx="559.449" cy="458.297" r="4" fill="#0" id="circle100"/>
	<circle cx="573.646" cy="323.428" r="4" fill="#0" id="circle101"/>
	<circle cx="577.195" cy="465.395" r="4" fill="#0" id="circle102"/>
	<circle cx="591.392" cy="323.428" r="4" fill="#0" id="circle103"/>
	<circle cx="594.941" cy="467.17" r="4" fill="#0" id="circle104"/>
	<circle cx="607.363" cy="332.301" r="4" fill="#0" id="circle105"/>
	<circle cx="610.912" cy="476.043" r="4" fill="#0" id="circle106"/>
	<circle cx="625.109" cy="335.85" r="4" fill="#0" id="circle107"/>
	<circle cx="628.658" cy="481.367" r="4" fill="#0" id="circle108"/>
	<circle cx="641.081" cy="344.723" r="4" fill="#0" id="circle109"/>
	<circle cx="646.404" cy="484.916" r="4" fill="#0" id="circle110"/>
	<circle cx="658.826" cy="350.047" r="4" fill="#0" id="circle111"/>
	<circle cx="662.376" cy="493.789" r="4" fill="#0" id="circle112"/>
	<circle cx="674.798" cy="358.919" r="4" fill="#0" id="circle113"/>
	<circle cx="680.122" cy="497.338" r="4" fill="#0" id="circle114"/>
	<circle cx="692.544" cy="358.919" r="4" fill="#0" id="circle115"/>
	<circle cx="696.093" cy="506.211" r="4" fill="#0" id="circle116"/>
	<circle cx="708.515" cy="367.792" r="4" fill="#0" id="circle117"/>
	<circle cx="713.839" cy="511.535" r="4" fill="#0" id="circle118"/>
	<circle cx="724.487" cy="376.665" r="4" fill="#0" id="circle119"/>
	<circle cx="729.81" cy="520.408" r="4" fill="#0" id="circle120"/>
	<circle cx="742.233" cy="376.665" r="4" fill="#0" id="circle121"/>
	<circle cx="747.556" cy="520.408" r="4" fill="#0" id="circle122"/>
	<circle cx="758.204" cy="385.538" r="4" fill="#0" id="circle123"/>
	<circle cx="763.528" cy="529.281" r="4" fill="#0" id="circle124"/>
	<circle cx="775.95" cy="389.088" r="4" fill="#0" id="circle125"/>
	<circle cx="779.499" cy="538.154" r="4" fill="#0" id="circle126"/>
	<circle cx="791.921" cy="397.961" r="4" fill="#0" id="circle127"/>
	<circle cx="797.245" cy="543.478" r="4" fill="#0" id="circle128"/>
	<circle cx="809.667" cy="405.059" r="4" fill="#0" id="circle129"/>
	<circle cx="814.991" cy="547.027" r="4" fill="#0" id="circle130"/>
	<circle cx="827.413" cy="412.157" r="4" fill="#0" id="circle131"/>
	<circle cx="830.962" cy="555.9" r="4" fill="#0" id="circle132"/>
	<circle cx="845.159" cy="413.932" r="4" fill="#0" id="circle133"/>
	<circle cx="848.708" cy="559.449" r="4" fill="#0" id="circle134"/>
	<circle cx="861.131" cy="422.805" r="4" fill="#0" id="circle135"/>
	<circle cx="866.454" cy="564.773" r="4" fill="#0" id="circle136"/>
	<circle cx="878.877" cy="429.903" r="4" fill="#0" id="circle137"/>
	<circle cx="882.426" cy="573.646" r="4" fill="#0" id="circle138"/>
	<circle cx="896.623" cy="429.903" r="4" fill="#0" id="circle139"/>
	<circle cx="900.172" cy="573.646" r="4" fill="#0" id="circle140"/>
	<circle cx="910.819" cy="587.843" r="4" fill="#0" id="circle141"/>
	<circle cx="912.594" cy="438.776" r="4" fill="#0" id="circle142"/>
	<circle cx="928.565" cy="447.649" r="4" fill="#0" id="circle143"/>
	<circle cx="928.565" cy="591.392" r="4" fill="#0" id="circle144"/>
	<circle cx="946.311" cy="452.973" r="4" fill="#0" id="circle145"/>
	<circle cx="946.311" cy="594.941" r="4" fill="#0" id="circle146"/>
	<circle cx="964.057" cy="456.522" r="4" fill="#0" id="circle147"/>
	<circle cx="964.057" cy="582.519" r="4" fill="#0" id="circle148"/>
	<circle cx="972.93" cy="555.9" r="4" fill="#0" id="circle149"/>
	<circle cx="980.029" cy="465.395" r="4" fill="#0" id="circle150"/>
	<circle cx="981.803" cy="529.281" r="4" fill="#0" id="circle151"/>
	<circle cx="990.676" cy="502.662" r="4" fill="#0" id="circle152"/>
	<circle cx="996" cy="474.268" r="4" fill="#0" id="circle153"/>
	</g>
</svg>