<?xml version="1.0" encoding="UTF-8" standalone="no"?>
<!-- Created with CurveBenchmark -->
<svg
	xmlns:dc="http://purl.org/dc/elements/1.1/"
	xmlns:cc="http://creativecommons.org/ns#"
	xmlns:rdf="http://www.w3.org/1999/02/22-rdf-syntax-ns#"
	xmlns:svg="http://www.w3.org/2000/svg"
	xmlns="http://www.w3.org/2000/svg"
	xmlns:sodipodi="http://sodipodi.sourceforge.net/DTD/sodipodi-0.dtd"
	xmlns:inkscape="http://www.inkscape.org/namespaces/inkscape"
	width="1000"
	height="1000"
	id="svg2"
	version="1.1"
	sodipodi:docname="manifold/gathan1-fish215.png.txt">
<defs
	id="defs4" />
<metadata
	id="metadata7">
	<rdf:RDF>
		<cc:Work
			rdf:about="">
			<dc:format>image/svg+xml</dc:format>
			<dc:type
				rdf:resource="http://purl.org/dc/dcmitype/StillImage" />
			<dc:title></dc:title>
		</cc:Work>
	</rdf:RDF>
</metadata>
<g
	inkscape:label="Layer 1"
	inkscape:groupmode="layer"
	id="layer1">
	<path style="fill:none;stroke:red;stroke-width:1px;stroke-linecap:butt;stroke-linejoin:miter;stroke-opacity:1" d="M 10.7713,176.669 4,142.812 z" id="boundary" inkscape:connector-curvature="0" />
	<path style="fill:none;stroke:red;stroke-width:1px;stroke-linecap:butt;stroke-linejoin:miter;stroke-opacity:1" d="M 4,142.812 37.8567,136.041 z" id="boundary" inkscape:connector-curvature="0" />
	<path style="fill:none;stroke:red;stroke-width:1px;stroke-linecap:butt;stroke-linejoin:miter;stroke-opacity:1" d="M 37.8567,136.041 71.7133,149.584 z" id="boundary" inkscape:connector-curvature="0" />
	<path style="fill:none;stroke:red;stroke-width:1px;stroke-linecap:butt;stroke-linejoin:miter;stroke-opacity:1" d="M 105.57,163.126 71.7133,149.584 z" id="boundary" inkscape:connector-curvature="0" />
	<path style="fill:none;stroke:red;stroke-width:1px;stroke-linecap:butt;stroke-linejoin:miter;stroke-opacity:1" d="M 10.7713,176.669 17.5427,210.526 z" id="boundary" inkscape:connector-curvature="0" />
	<path style="fill:none;stroke:red;stroke-width:1px;stroke-linecap:butt;stroke-linejoin:miter;stroke-opacity:1" d="M 220.683,183.44 200.369,210.526 z" id="boundary" inkscape:connector-curvature="0" />
	<path style="fill:none;stroke:red;stroke-width:1px;stroke-linecap:butt;stroke-linejoin:miter;stroke-opacity:1" d="M 200.369,210.526 166.512,196.983 z" id="boundary" inkscape:connector-curvature="0" />
	<path style="fill:none;stroke:red;stroke-width:1px;stroke-linecap:butt;stroke-linejoin:miter;stroke-opacity:1" d="M 166.512,196.983 136.041,180.055 z" id="boundary" inkscape:connector-curvature="0" />
	<path style="fill:none;stroke:red;stroke-width:1px;stroke-linecap:butt;stroke-linejoin:miter;stroke-opacity:1" d="M 105.57,163.126 136.041,180.055 z" id="boundary" inkscape:connector-curvature="0" />
	<path style="fill:none;stroke:red;stroke-width:1px;stroke-linecap:butt;stroke-linejoin:miter;stroke-opacity:1" d="M 24.314,244.382 17.5427,210.526 z" id="boundary" inkscape:connector-curvature="0" />
	<path style="fill:none;stroke:red;stroke-width:1px;stroke-linecap:butt;stroke-linejoin:miter;stroke-opacity:1" d="M 295.167,102.184 322.253,81.8703 z" id="boundary" inkscape:connector-curvature="0" />
	<path style="fill:none;stroke:red;stroke-width:1px;stroke-linecap:butt;stroke-linejoin:miter;stroke-opacity:1" d="M 322.253,81.8703 356.109,85.256 z" id="boundary" inkscape:connector-curvature="0" />
	<path style="fill:none;stroke:red;stroke-width:1px;stroke-linecap:butt;stroke-linejoin:miter;stroke-opacity:1" d="M 498.307,48.0137 471.222,68.3276 z" id="boundary" inkscape:connector-curvature="0" />
	<path style="fill:none;stroke:red;stroke-width:1px;stroke-linecap:butt;stroke-linejoin:miter;stroke-opacity:1" d="M 389.966,98.7986 356.109,85.256 z" id="boundary" inkscape:connector-curvature="0" />
	<path style="fill:none;stroke:red;stroke-width:1px;stroke-linecap:butt;stroke-linejoin:miter;stroke-opacity:1" d="M 471.222,68.3276 444.137,88.6416 z" id="boundary" inkscape:connector-curvature="0" />
	<path style="fill:none;stroke:red;stroke-width:1px;stroke-linecap:butt;stroke-linejoin:miter;stroke-opacity:1" d="M 420.437,115.727 444.137,88.6416 z" id="boundary" inkscape:connector-curvature="0" />
	<path style="fill:none;stroke:red;stroke-width:1px;stroke-linecap:butt;stroke-linejoin:miter;stroke-opacity:1" d="M 420.437,115.727 389.966,98.7986 z" id="boundary" inkscape:connector-curvature="0" />
	<path style="fill:none;stroke:red;stroke-width:1px;stroke-linecap:butt;stroke-linejoin:miter;stroke-opacity:1" d="M 220.683,183.44 240.997,156.355 z" id="boundary" inkscape:connector-curvature="0" />
	<path style="fill:none;stroke:red;stroke-width:1px;stroke-linecap:butt;stroke-linejoin:miter;stroke-opacity:1" d="M 268.082,129.27 295.167,102.184 z" id="boundary" inkscape:connector-curvature="0" />
	<path style="fill:none;stroke:red;stroke-width:1px;stroke-linecap:butt;stroke-linejoin:miter;stroke-opacity:1" d="M 240.997,156.355 268.082,129.27 z" id="boundary" inkscape:connector-curvature="0" />
	<path style="fill:none;stroke:red;stroke-width:1px;stroke-linecap:butt;stroke-linejoin:miter;stroke-opacity:1" d="M 501.693,417.051 467.836,410.28 z" id="boundary" inkscape:connector-curvature="0" />
	<path style="fill:none;stroke:red;stroke-width:1px;stroke-linecap:butt;stroke-linejoin:miter;stroke-opacity:1" d="M 24.314,278.239 17.5427,318.867 z" id="boundary" inkscape:connector-curvature="0" />
	<path style="fill:none;stroke:red;stroke-width:1px;stroke-linecap:butt;stroke-linejoin:miter;stroke-opacity:1" d="M 17.5427,318.867 4,373.038 z" id="boundary" inkscape:connector-curvature="0" />
	<path style="fill:none;stroke:red;stroke-width:1px;stroke-linecap:butt;stroke-linejoin:miter;stroke-opacity:1" d="M 24.314,278.239 24.314,244.382 z" id="boundary" inkscape:connector-curvature="0" />
	<path style="fill:none;stroke:red;stroke-width:1px;stroke-linecap:butt;stroke-linejoin:miter;stroke-opacity:1" d="M 132.655,362.881 159.741,335.795 z" id="boundary" inkscape:connector-curvature="0" />
	<path style="fill:none;stroke:red;stroke-width:1px;stroke-linecap:butt;stroke-linejoin:miter;stroke-opacity:1" d="M 193.597,322.253 159.741,335.795 z" id="boundary" inkscape:connector-curvature="0" />
	<path style="fill:none;stroke:red;stroke-width:1px;stroke-linecap:butt;stroke-linejoin:miter;stroke-opacity:1" d="M 31.0853,396.737 4,373.038 z" id="boundary" inkscape:connector-curvature="0" />
	<path style="fill:none;stroke:red;stroke-width:1px;stroke-linecap:butt;stroke-linejoin:miter;stroke-opacity:1" d="M 64.942,389.966 31.0853,396.737 z" id="boundary" inkscape:connector-curvature="0" />
	<path style="fill:none;stroke:red;stroke-width:1px;stroke-linecap:butt;stroke-linejoin:miter;stroke-opacity:1" d="M 64.942,389.966 98.7986,376.423 z" id="boundary" inkscape:connector-curvature="0" />
	<path style="fill:none;stroke:red;stroke-width:1px;stroke-linecap:butt;stroke-linejoin:miter;stroke-opacity:1" d="M 98.7986,376.423 132.655,362.881 z" id="boundary" inkscape:connector-curvature="0" />
	<path style="fill:none;stroke:red;stroke-width:1px;stroke-linecap:butt;stroke-linejoin:miter;stroke-opacity:1" d="M 193.597,322.253 220.683,342.567 z" id="boundary" inkscape:connector-curvature="0" />
	<path style="fill:none;stroke:red;stroke-width:1px;stroke-linecap:butt;stroke-linejoin:miter;stroke-opacity:1" d="M 220.683,342.567 227.454,376.423 z" id="boundary" inkscape:connector-curvature="0" />
	<path style="fill:none;stroke:red;stroke-width:1px;stroke-linecap:butt;stroke-linejoin:miter;stroke-opacity:1" d="M 240.997,410.28 227.454,376.423 z" id="boundary" inkscape:connector-curvature="0" />
	<path style="fill:none;stroke:red;stroke-width:1px;stroke-linecap:butt;stroke-linejoin:miter;stroke-opacity:1" d="M 366.266,406.894 400.123,403.509 z" id="boundary" inkscape:connector-curvature="0" />
	<path style="fill:none;stroke:red;stroke-width:1px;stroke-linecap:butt;stroke-linejoin:miter;stroke-opacity:1" d="M 335.795,423.823 366.266,406.894 z" id="boundary" inkscape:connector-curvature="0" />
	<path style="fill:none;stroke:red;stroke-width:1px;stroke-linecap:butt;stroke-linejoin:miter;stroke-opacity:1" d="M 268.082,430.594 301.939,430.594 z" id="boundary" inkscape:connector-curvature="0" />
	<path style="fill:none;stroke:red;stroke-width:1px;stroke-linecap:butt;stroke-linejoin:miter;stroke-opacity:1" d="M 268.082,430.594 240.997,410.28 z" id="boundary" inkscape:connector-curvature="0" />
	<path style="fill:none;stroke:red;stroke-width:1px;stroke-linecap:butt;stroke-linejoin:miter;stroke-opacity:1" d="M 335.795,423.823 301.939,430.594 z" id="boundary" inkscape:connector-curvature="0" />
	<path style="fill:none;stroke:red;stroke-width:1px;stroke-linecap:butt;stroke-linejoin:miter;stroke-opacity:1" d="M 433.98,410.28 400.123,403.509 z" id="boundary" inkscape:connector-curvature="0" />
	<path style="fill:none;stroke:red;stroke-width:1px;stroke-linecap:butt;stroke-linejoin:miter;stroke-opacity:1" d="M 433.98,410.28 467.836,410.28 z" id="boundary" inkscape:connector-curvature="0" />
	<path style="fill:none;stroke:red;stroke-width:1px;stroke-linecap:butt;stroke-linejoin:miter;stroke-opacity:1" d="M 566.02,27.6997 596.491,10.7713 z" id="boundary" inkscape:connector-curvature="0" />
	<path style="fill:none;stroke:red;stroke-width:1px;stroke-linecap:butt;stroke-linejoin:miter;stroke-opacity:1" d="M 566.02,27.6997 532.164,37.8567 z" id="boundary" inkscape:connector-curvature="0" />
	<path style="fill:none;stroke:red;stroke-width:1px;stroke-linecap:butt;stroke-linejoin:miter;stroke-opacity:1" d="M 596.491,10.7713 630.348,4 z" id="boundary" inkscape:connector-curvature="0" />
	<path style="fill:none;stroke:red;stroke-width:1px;stroke-linecap:butt;stroke-linejoin:miter;stroke-opacity:1" d="M 630.348,4 664.205,7.38567 z" id="boundary" inkscape:connector-curvature="0" />
	<path style="fill:none;stroke:red;stroke-width:1px;stroke-linecap:butt;stroke-linejoin:miter;stroke-opacity:1" d="M 664.205,7.38567 677.747,41.2423 z" id="boundary" inkscape:connector-curvature="0" />
	<path style="fill:none;stroke:red;stroke-width:1px;stroke-linecap:butt;stroke-linejoin:miter;stroke-opacity:1" d="M 532.164,37.8567 498.307,48.0137 z" id="boundary" inkscape:connector-curvature="0" />
	<path style="fill:none;stroke:red;stroke-width:1px;stroke-linecap:butt;stroke-linejoin:miter;stroke-opacity:1" d="M 677.747,41.2423 704.833,61.5563 z" id="boundary" inkscape:connector-curvature="0" />
	<path style="fill:none;stroke:red;stroke-width:1px;stroke-linecap:butt;stroke-linejoin:miter;stroke-opacity:1" d="M 704.833,61.5563 704.833,95.413 z" id="boundary" inkscape:connector-curvature="0" />
	<path style="fill:none;stroke:red;stroke-width:1px;stroke-linecap:butt;stroke-linejoin:miter;stroke-opacity:1" d="M 731.918,115.727 704.833,95.413 z" id="boundary" inkscape:connector-curvature="0" />
	<path style="fill:none;stroke:red;stroke-width:1px;stroke-linecap:butt;stroke-linejoin:miter;stroke-opacity:1" d="M 731.918,115.727 765.775,122.498 z" id="boundary" inkscape:connector-curvature="0" />
	<path style="fill:none;stroke:red;stroke-width:1px;stroke-linecap:butt;stroke-linejoin:miter;stroke-opacity:1" d="M 867.345,156.355 833.488,149.584 z" id="boundary" inkscape:connector-curvature="0" />
	<path style="fill:none;stroke:red;stroke-width:1px;stroke-linecap:butt;stroke-linejoin:miter;stroke-opacity:1" d="M 833.488,149.584 799.631,136.041 z" id="boundary" inkscape:connector-curvature="0" />
	<path style="fill:none;stroke:red;stroke-width:1px;stroke-linecap:butt;stroke-linejoin:miter;stroke-opacity:1" d="M 799.631,136.041 765.775,122.498 z" id="boundary" inkscape:connector-curvature="0" />
	<path style="fill:none;stroke:red;stroke-width:1px;stroke-linecap:butt;stroke-linejoin:miter;stroke-opacity:1" d="M 901.201,169.898 928.287,190.212 z" id="boundary" inkscape:connector-curvature="0" />
	<path style="fill:none;stroke:red;stroke-width:1px;stroke-linecap:butt;stroke-linejoin:miter;stroke-opacity:1" d="M 958.758,207.14 928.287,190.212 z" id="boundary" inkscape:connector-curvature="0" />
	<path style="fill:none;stroke:red;stroke-width:1px;stroke-linecap:butt;stroke-linejoin:miter;stroke-opacity:1" d="M 958.758,207.14 989.229,224.068 z" id="boundary" inkscape:connector-curvature="0" />
	<path style="fill:none;stroke:red;stroke-width:1px;stroke-linecap:butt;stroke-linejoin:miter;stroke-opacity:1" d="M 989.229,224.068 996,264.696 z" id="boundary" inkscape:connector-curvature="0" />
	<path style="fill:none;stroke:red;stroke-width:1px;stroke-linecap:butt;stroke-linejoin:miter;stroke-opacity:1" d="M 867.345,156.355 901.201,169.898 z" id="boundary" inkscape:connector-curvature="0" />
	<path style="fill:none;stroke:red;stroke-width:1px;stroke-linecap:butt;stroke-linejoin:miter;stroke-opacity:1" d="M 996,264.696 972.3,295.167 z" id="boundary" inkscape:connector-curvature="0" />
	<path style="fill:none;stroke:red;stroke-width:1px;stroke-linecap:butt;stroke-linejoin:miter;stroke-opacity:1" d="M 518.621,474.608 518.621,508.464 z" id="boundary" inkscape:connector-curvature="0" />
	<path style="fill:none;stroke:red;stroke-width:1px;stroke-linecap:butt;stroke-linejoin:miter;stroke-opacity:1" d="M 501.693,417.051 532.164,433.98 z" id="boundary" inkscape:connector-curvature="0" />
	<path style="fill:none;stroke:red;stroke-width:1px;stroke-linecap:butt;stroke-linejoin:miter;stroke-opacity:1" d="M 532.164,433.98 518.621,474.608 z" id="boundary" inkscape:connector-curvature="0" />
	<path style="fill:none;stroke:red;stroke-width:1px;stroke-linecap:butt;stroke-linejoin:miter;stroke-opacity:1" d="M 633.734,528.778 599.877,518.621 z" id="boundary" inkscape:connector-curvature="0" />
	<path style="fill:none;stroke:red;stroke-width:1px;stroke-linecap:butt;stroke-linejoin:miter;stroke-opacity:1" d="M 599.877,518.621 569.406,538.935 z" id="boundary" inkscape:connector-curvature="0" />
	<path style="fill:none;stroke:red;stroke-width:1px;stroke-linecap:butt;stroke-linejoin:miter;stroke-opacity:1" d="M 535.549,538.935 518.621,508.464 z" id="boundary" inkscape:connector-curvature="0" />
	<path style="fill:none;stroke:red;stroke-width:1px;stroke-linecap:butt;stroke-linejoin:miter;stroke-opacity:1" d="M 569.406,538.935 535.549,538.935 z" id="boundary" inkscape:connector-curvature="0" />
	<path style="fill:none;stroke:red;stroke-width:1px;stroke-linecap:butt;stroke-linejoin:miter;stroke-opacity:1" d="M 698.061,522.007 667.59,538.935 z" id="boundary" inkscape:connector-curvature="0" />
	<path style="fill:none;stroke:red;stroke-width:1px;stroke-linecap:butt;stroke-linejoin:miter;stroke-opacity:1" d="M 667.59,538.935 633.734,528.778 z" id="boundary" inkscape:connector-curvature="0" />
	<path style="fill:none;stroke:red;stroke-width:1px;stroke-linecap:butt;stroke-linejoin:miter;stroke-opacity:1" d="M 718.375,481.379 698.061,522.007 z" id="boundary" inkscape:connector-curvature="0" />
	<path style="fill:none;stroke:red;stroke-width:1px;stroke-linecap:butt;stroke-linejoin:miter;stroke-opacity:1" d="M 867.345,383.195 901.201,366.266 z" id="boundary" inkscape:connector-curvature="0" />
	<path style="fill:none;stroke:red;stroke-width:1px;stroke-linecap:butt;stroke-linejoin:miter;stroke-opacity:1" d="M 931.672,349.338 951.986,322.253 z" id="boundary" inkscape:connector-curvature="0" />
	<path style="fill:none;stroke:red;stroke-width:1px;stroke-linecap:butt;stroke-linejoin:miter;stroke-opacity:1" d="M 931.672,349.338 901.201,366.266 z" id="boundary" inkscape:connector-curvature="0" />
	<path style="fill:none;stroke:red;stroke-width:1px;stroke-linecap:butt;stroke-linejoin:miter;stroke-opacity:1" d="M 951.986,322.253 972.3,295.167 z" id="boundary" inkscape:connector-curvature="0" />
	<path style="fill:none;stroke:red;stroke-width:1px;stroke-linecap:butt;stroke-linejoin:miter;stroke-opacity:1" d="M 867.345,383.195 833.488,393.352 z" id="boundary" inkscape:connector-curvature="0" />
	<path style="fill:none;stroke:red;stroke-width:1px;stroke-linecap:butt;stroke-linejoin:miter;stroke-opacity:1" d="M 718.375,481.379 731.918,433.98 z" id="boundary" inkscape:connector-curvature="0" />
	<path style="fill:none;stroke:red;stroke-width:1px;stroke-linecap:butt;stroke-linejoin:miter;stroke-opacity:1" d="M 731.918,433.98 765.775,420.437 z" id="boundary" inkscape:connector-curvature="0" />
	<path style="fill:none;stroke:red;stroke-width:1px;stroke-linecap:butt;stroke-linejoin:miter;stroke-opacity:1" d="M 799.631,410.28 765.775,420.437 z" id="boundary" inkscape:connector-curvature="0" />
	<path style="fill:none;stroke:red;stroke-width:1px;stroke-linecap:butt;stroke-linejoin:miter;stroke-opacity:1" d="M 799.631,410.28 833.488,393.352 z" id="boundary" inkscape:connector-curvature="0" />
	<circle cx="4" cy="142.812" r="4" fill="#0" id="circle0"/>
	<circle cx="4" cy="373.038" r="4" fill="#0" id="circle1"/>
	<circle cx="10.7713" cy="176.669" r="4" fill="#0" id="circle2"/>
	<circle cx="17.5427" cy="210.526" r="4" fill="#0" id="circle3"/>
	<circle cx="17.5427" cy="318.867" r="4" fill="#0" id="circle4"/>
	<circle cx="24.314" cy="244.382" r="4" fill="#0" id="circle5"/>
	<circle cx="24.314" cy="278.239" r="4" fill="#0" id="circle6"/>
	<circle cx="31.0853" cy="396.737" r="4" fill="#0" id="circle7"/>
	<circle cx="37.8567" cy="136.041" r="4" fill="#0" id="circle8"/>
	<circle cx="64.942" cy="389.966" r="4" fill="#0" id="circle9"/>
	<circle cx="71.7133" cy="149.584" r="4" fill="#0" id="circle10"/>
	<circle cx="98.7986" cy="376.423" r="4" fill="#0" id="circle11"/>
	<circle cx="105.57" cy="163.126" r="4" fill="#0" id="circle12"/>
	<circle cx="132.655" cy="362.881" r="4" fill="#0" id="circle13"/>
	<circle cx="136.041" cy="180.055" r="4" fill="#0" id="circle14"/>
	<circle cx="159.741" cy="335.795" r="4" fill="#0" id="circle15"/>
	<circle cx="166.512" cy="196.983" r="4" fill="#0" id="circle16"/>
	<circle cx="193.597" cy="322.253" r="4" fill="#0" id="circle17"/>
	<circle cx="200.369" cy="210.526" r="4" fill="#0" id="circle18"/>
	<circle cx="220.683" cy="183.44" r="4" fill="#0" id="circle19"/>
	<circle cx="220.683" cy="342.567" r="4" fill="#0" id="circle20"/>
	<circle cx="227.454" cy="376.423" r="4" fill="#0" id="circle21"/>
	<circle cx="240.997" cy="156.355" r="4" fill="#0" id="circle22"/>
	<circle cx="240.997" cy="410.28" r="4" fill="#0" id="circle23"/>
	<circle cx="268.082" cy="129.27" r="4" fill="#0" id="circle24"/>
	<circle cx="268.082" cy="430.594" r="4" fill="#0" id="circle25"/>
	<circle cx="295.167" cy="102.184" r="4" fill="#0" id="circle26"/>
	<circle cx="301.939" cy="430.594" r="4" fill="#0" id="circle27"/>
	<circle cx="322.253" cy="81.8703" r="4" fill="#0" id="circle28"/>
	<circle cx="335.795" cy="423.823" r="4" fill="#0" id="circle29"/>
	<circle cx="356.109" cy="85.256" r="4" fill="#0" id="circle30"/>
	<circle cx="366.266" cy="406.894" r="4" fill="#0" id="circle31"/>
	<circle cx="389.966" cy="98.7986" r="4" fill="#0" id="circle32"/>
	<circle cx="400.123" cy="403.509" r="4" fill="#0" id="circle33"/>
	<circle cx="420.437" cy="115.727" r="4" fill="#0" id="circle34"/>
	<circle cx="433.98" cy="410.28" r="4" fill="#0" id="circle35"/>
	<circle cx="444.137" cy="88.6416" r="4" fill="#0" id="circle36"/>
	<circle cx="467.836" cy="410.28" r="4" fill="#0" id="circle37"/>
	<circle cx="471.222" cy="68.3276" r="4" fill="#0" id="circle38"/>
	<circle cx="498.307" cy="48.0137" r="4" fill="#0" id="circle39"/>
	<circle cx="501.693" cy="417.051" r="4" fill="#0" id="circle40"/>
	<circle cx="518.621" cy="474.608" r="4" fill="#0" id="circle41"/>
	<circle cx="518.621" cy="508.464" r="4" fill="#0" id="circle42"/>
	<circle cx="532.164" cy="37.8567" r="4" fill="#0" id="circle43"/>
	<circle cx="532.164" cy="433.98" r="4" fill="#0" id="circle44"/>
	<circle cx="535.549" cy="538.935" r="4" fill="#0" id="circle45"/>
	<circle cx="566.02" cy="27.6997" r="4" fill="#0" id="circle46"/>
	<circle cx="569.406" cy="538.935" r="4" fill="#0" id="circle47"/>
	<circle cx="596.491" cy="10.7713" r="4" fill="#0" id="circle48"/>
	<circle cx="599.877" cy="518.621" r="4" fill="#0" id="circle49"/>
	<circle cx="630.348" cy="4" r="4" fill="#0" id="circle50"/>
	<circle cx="633.734" cy="528.778" r="4" fill="#0" id="circle51"/>
	<circle cx="664.205" cy="7.38567" r="4" fill="#0" id="circle52"/>
	<circle cx="667.59" cy="538.935" r="4" fill="#0" id="circle53"/>
	<circle cx="677.747" cy="41.2423" r="4" fill="#0" id="circle54"/>
	<circle cx="698.061" cy="522.007" r="4" fill="#0" id="circle55"/>
	<circle cx="704.833" cy="61.5563" r="4" fill="#0" id="circle56"/>
	<circle cx="704.833" cy="95.413" r="4" fill="#0" id="circle57"/>
	<circle cx="718.375" cy="481.379" r="4" fill="#0" id="circle58"/>
	<circle cx="731.918" cy="115.727" r="4" fill="#0" id="circle59"/>
	<circle cx="731.918" cy="433.98" r="4" fill="#0" id="circle60"/>
	<circle cx="765.775" cy="122.498" r="4" fill="#0" id="circle61"/>
	<circle cx="765.775" cy="420.437" r="4" fill="#0" id="circle62"/>
	<circle cx="799.631" cy="136.041" r="4" fill="#0" id="circle63"/>
	<circle cx="799.631" cy="410.28" r="4" fill="#0" id="circle64"/>
	<circle cx="833.488" cy="149.584" r="4" fill="#0" id="circle65"/>
	<circle cx="833.488" cy="393.352" r="4" fill="#0" id="circle66"/>
	<circle cx="867.345" cy="156.355" r="4" fill="#0" id="circle67"/>
	<circle cx="867.345" cy="383.195" r="4" fill="#0" id="circle68"/>
	<circle cx="901.201" cy="169.898" r="4" fill="#0" id="circle69"/>
	<circle cx="901.201" cy="366.266" r="4" fill="#0" id="circle70"/>
	<circle cx="928.287" cy="190.212" r="4" fill="#0" id="circle71"/>
	<circle cx="931.672" cy="349.338" r="4" fill="#0" id="circle72"/>
	<circle cx="951.986" cy="322.253" r="4" fill="#0" id="circle73"/>
	<circle cx="958.758" cy="207.14" r="4" fill="#0" id="circle74"/>
	<circle cx="972.3" cy="295.167" r="4" fill="#0" id="circle75"/>
	<circle cx="989.229" cy="224.068" r="4" fill="#0" id="circle76"/>
	<circle cx="996" cy="264.696" r="4" fill="#0" id="circle77"/>
	</g>
</svg>