<?xml version="1.0" encoding="UTF-8" standalone="no"?>
<!-- Created with CurveBenchmark -->
<svg
	xmlns:dc="http://purl.org/dc/elements/1.1/"
	xmlns:cc="http://creativecommons.org/ns#"
	xmlns:rdf="http://www.w3.org/1999/02/22-rdf-syntax-ns#"
	xmlns:svg="http://www.w3.org/2000/svg"
	xmlns="http://www.w3.org/2000/svg"
	xmlns:sodipodi="http://sodipodi.sourceforge.net/DTD/sodipodi-0.dtd"
	xmlns:inkscape="http://www.inkscape.org/namespaces/inkscape"
	width="1000"
	height="1000"
	id="svg2"
	version="1.1"
	sodipodi:docname="manifold/gathang-truck-16.png.txt">
<defs
	id="defs4" />
<metadata
	id="metadata7">
	<rdf:RDF>
		<cc:Work
			rdf:about="">
			<dc:format>image/svg+xml</dc:format>
			<dc:type
				rdf:resource="http://purl.org/dc/dcmitype/StillImage" />
			<dc:title></dc:title>
		</cc:Work>
	</rdf:RDF>
</metadata>
<g
	inkscape:label="Layer 1"
	inkscape:groupmode="layer"
	id="layer1">
	<path style="fill:none;stroke:red;stroke-width:1px;stroke-linecap:butt;stroke-linejoin:miter;stroke-opacity:1" d="M 33.0696,207.487 47.6044,194.769 z" id="boundary" inkscape:connector-curvature="0" />
	<path style="fill:none;stroke:red;stroke-width:1px;stroke-linecap:butt;stroke-linejoin:miter;stroke-opacity:1" d="M 18.5348,222.022 33.0696,207.487 z" id="boundary" inkscape:connector-curvature="0" />
	<path style="fill:none;stroke:red;stroke-width:1px;stroke-linecap:butt;stroke-linejoin:miter;stroke-opacity:1" d="M 47.6044,194.769 63.956,185.685 z" id="boundary" inkscape:connector-curvature="0" />
	<path style="fill:none;stroke:red;stroke-width:1px;stroke-linecap:butt;stroke-linejoin:miter;stroke-opacity:1" d="M 63.956,185.685 82.1245,185.685 z" id="boundary" inkscape:connector-curvature="0" />
	<path style="fill:none;stroke:red;stroke-width:1px;stroke-linecap:butt;stroke-linejoin:miter;stroke-opacity:1" d="M 134.813,176.601 152.982,176.601 z" id="boundary" inkscape:connector-curvature="0" />
	<path style="fill:none;stroke:red;stroke-width:1px;stroke-linecap:butt;stroke-linejoin:miter;stroke-opacity:1" d="M 118.462,185.685 134.813,176.601 z" id="boundary" inkscape:connector-curvature="0" />
	<path style="fill:none;stroke:red;stroke-width:1px;stroke-linecap:butt;stroke-linejoin:miter;stroke-opacity:1" d="M 171.15,176.601 152.982,176.601 z" id="boundary" inkscape:connector-curvature="0" />
	<path style="fill:none;stroke:red;stroke-width:1px;stroke-linecap:butt;stroke-linejoin:miter;stroke-opacity:1" d="M 100.293,185.685 82.1245,185.685 z" id="boundary" inkscape:connector-curvature="0" />
	<path style="fill:none;stroke:red;stroke-width:1px;stroke-linecap:butt;stroke-linejoin:miter;stroke-opacity:1" d="M 118.462,185.685 100.293,185.685 z" id="boundary" inkscape:connector-curvature="0" />
	<path style="fill:none;stroke:red;stroke-width:1px;stroke-linecap:butt;stroke-linejoin:miter;stroke-opacity:1" d="M 123.912,314.681 105.744,314.681 z" id="boundary" inkscape:connector-curvature="0" />
	<path style="fill:none;stroke:red;stroke-width:1px;stroke-linecap:butt;stroke-linejoin:miter;stroke-opacity:1" d="M 4,272.894 4,254.725 z" id="boundary" inkscape:connector-curvature="0" />
	<path style="fill:none;stroke:red;stroke-width:1px;stroke-linecap:butt;stroke-linejoin:miter;stroke-opacity:1" d="M 18.5348,303.78 4,291.062 z" id="boundary" inkscape:connector-curvature="0" />
	<path style="fill:none;stroke:red;stroke-width:1px;stroke-linecap:butt;stroke-linejoin:miter;stroke-opacity:1" d="M 4,291.062 4,272.894 z" id="boundary" inkscape:connector-curvature="0" />
	<path style="fill:none;stroke:red;stroke-width:1px;stroke-linecap:butt;stroke-linejoin:miter;stroke-opacity:1" d="M 4,236.557 18.5348,222.022 z" id="boundary" inkscape:connector-curvature="0" />
	<path style="fill:none;stroke:red;stroke-width:1px;stroke-linecap:butt;stroke-linejoin:miter;stroke-opacity:1" d="M 4,254.725 4,236.557 z" id="boundary" inkscape:connector-curvature="0" />
	<path style="fill:none;stroke:red;stroke-width:1px;stroke-linecap:butt;stroke-linejoin:miter;stroke-opacity:1" d="M 33.0696,314.681 51.2381,314.681 z" id="boundary" inkscape:connector-curvature="0" />
	<path style="fill:none;stroke:red;stroke-width:1px;stroke-linecap:butt;stroke-linejoin:miter;stroke-opacity:1" d="M 33.0696,314.681 18.5348,303.78 z" id="boundary" inkscape:connector-curvature="0" />
	<path style="fill:none;stroke:red;stroke-width:1px;stroke-linecap:butt;stroke-linejoin:miter;stroke-opacity:1" d="M 69.4066,314.681 87.5751,314.681 z" id="boundary" inkscape:connector-curvature="0" />
	<path style="fill:none;stroke:red;stroke-width:1px;stroke-linecap:butt;stroke-linejoin:miter;stroke-opacity:1" d="M 69.4066,314.681 51.2381,314.681 z" id="boundary" inkscape:connector-curvature="0" />
	<path style="fill:none;stroke:red;stroke-width:1px;stroke-linecap:butt;stroke-linejoin:miter;stroke-opacity:1" d="M 87.5751,314.681 105.744,314.681 z" id="boundary" inkscape:connector-curvature="0" />
	<path style="fill:none;stroke:red;stroke-width:1px;stroke-linecap:butt;stroke-linejoin:miter;stroke-opacity:1" d="M 312.864,158.432 331.033,158.432 z" id="boundary" inkscape:connector-curvature="0" />
	<path style="fill:none;stroke:red;stroke-width:1px;stroke-linecap:butt;stroke-linejoin:miter;stroke-opacity:1" d="M 296.513,167.516 312.864,158.432 z" id="boundary" inkscape:connector-curvature="0" />
	<path style="fill:none;stroke:red;stroke-width:1px;stroke-linecap:butt;stroke-linejoin:miter;stroke-opacity:1" d="M 349.201,158.432 331.033,158.432 z" id="boundary" inkscape:connector-curvature="0" />
	<path style="fill:none;stroke:red;stroke-width:1px;stroke-linecap:butt;stroke-linejoin:miter;stroke-opacity:1" d="M 385.538,158.432 367.37,158.432 z" id="boundary" inkscape:connector-curvature="0" />
	<path style="fill:none;stroke:red;stroke-width:1px;stroke-linecap:butt;stroke-linejoin:miter;stroke-opacity:1" d="M 349.201,158.432 367.37,158.432 z" id="boundary" inkscape:connector-curvature="0" />
	<path style="fill:none;stroke:red;stroke-width:1px;stroke-linecap:butt;stroke-linejoin:miter;stroke-opacity:1" d="M 467.297,109.377 481.832,94.8425 z" id="boundary" inkscape:connector-curvature="0" />
	<path style="fill:none;stroke:red;stroke-width:1px;stroke-linecap:butt;stroke-linejoin:miter;stroke-opacity:1" d="M 403.707,158.432 385.538,158.432 z" id="boundary" inkscape:connector-curvature="0" />
	<path style="fill:none;stroke:red;stroke-width:1px;stroke-linecap:butt;stroke-linejoin:miter;stroke-opacity:1" d="M 421.875,158.432 403.707,158.432 z" id="boundary" inkscape:connector-curvature="0" />
	<path style="fill:none;stroke:red;stroke-width:1px;stroke-linecap:butt;stroke-linejoin:miter;stroke-opacity:1" d="M 467.297,109.377 458.212,127.546 z" id="boundary" inkscape:connector-curvature="0" />
	<path style="fill:none;stroke:red;stroke-width:1px;stroke-linecap:butt;stroke-linejoin:miter;stroke-opacity:1" d="M 456.396,149.348 458.212,127.546 z" id="boundary" inkscape:connector-curvature="0" />
	<path style="fill:none;stroke:red;stroke-width:1px;stroke-linecap:butt;stroke-linejoin:miter;stroke-opacity:1" d="M 456.396,149.348 440.044,158.432 z" id="boundary" inkscape:connector-curvature="0" />
	<path style="fill:none;stroke:red;stroke-width:1px;stroke-linecap:butt;stroke-linejoin:miter;stroke-opacity:1" d="M 485.465,63.956 481.832,94.8425 z" id="boundary" inkscape:connector-curvature="0" />
	<path style="fill:none;stroke:red;stroke-width:1px;stroke-linecap:butt;stroke-linejoin:miter;stroke-opacity:1" d="M 189.319,176.601 171.15,176.601 z" id="boundary" inkscape:connector-curvature="0" />
	<path style="fill:none;stroke:red;stroke-width:1px;stroke-linecap:butt;stroke-linejoin:miter;stroke-opacity:1" d="M 189.319,176.601 207.487,176.601 z" id="boundary" inkscape:connector-curvature="0" />
	<path style="fill:none;stroke:red;stroke-width:1px;stroke-linecap:butt;stroke-linejoin:miter;stroke-opacity:1" d="M 225.656,176.601 207.487,176.601 z" id="boundary" inkscape:connector-curvature="0" />
	<path style="fill:none;stroke:red;stroke-width:1px;stroke-linecap:butt;stroke-linejoin:miter;stroke-opacity:1" d="M 243.824,176.601 225.656,176.601 z" id="boundary" inkscape:connector-curvature="0" />
	<path style="fill:none;stroke:red;stroke-width:1px;stroke-linecap:butt;stroke-linejoin:miter;stroke-opacity:1" d="M 260.176,167.516 243.824,176.601 z" id="boundary" inkscape:connector-curvature="0" />
	<path style="fill:none;stroke:red;stroke-width:1px;stroke-linecap:butt;stroke-linejoin:miter;stroke-opacity:1" d="M 440.044,158.432 421.875,158.432 z" id="boundary" inkscape:connector-curvature="0" />
	<path style="fill:none;stroke:red;stroke-width:1px;stroke-linecap:butt;stroke-linejoin:miter;stroke-opacity:1" d="M 260.176,167.516 278.344,167.516 z" id="boundary" inkscape:connector-curvature="0" />
	<path style="fill:none;stroke:red;stroke-width:1px;stroke-linecap:butt;stroke-linejoin:miter;stroke-opacity:1" d="M 296.513,167.516 278.344,167.516 z" id="boundary" inkscape:connector-curvature="0" />
	<path style="fill:none;stroke:red;stroke-width:1px;stroke-linecap:butt;stroke-linejoin:miter;stroke-opacity:1" d="M 62.1392,358.286 45.7875,367.37 z" id="boundary" inkscape:connector-curvature="0" />
	<path style="fill:none;stroke:red;stroke-width:1px;stroke-linecap:butt;stroke-linejoin:miter;stroke-opacity:1" d="M 31.2527,381.905 31.2527,400.073 z" id="boundary" inkscape:connector-curvature="0" />
	<path style="fill:none;stroke:red;stroke-width:1px;stroke-linecap:butt;stroke-linejoin:miter;stroke-opacity:1" d="M 31.2527,381.905 45.7875,367.37 z" id="boundary" inkscape:connector-curvature="0" />
	<path style="fill:none;stroke:red;stroke-width:1px;stroke-linecap:butt;stroke-linejoin:miter;stroke-opacity:1" d="M 31.2527,418.242 31.2527,400.073 z" id="boundary" inkscape:connector-curvature="0" />
	<path style="fill:none;stroke:red;stroke-width:1px;stroke-linecap:butt;stroke-linejoin:miter;stroke-opacity:1" d="M 62.1392,358.286 80.3077,358.286 z" id="boundary" inkscape:connector-curvature="0" />
	<path style="fill:none;stroke:red;stroke-width:1px;stroke-linecap:butt;stroke-linejoin:miter;stroke-opacity:1" d="M 98.4762,358.286 80.3077,358.286 z" id="boundary" inkscape:connector-curvature="0" />
	<path style="fill:none;stroke:red;stroke-width:1px;stroke-linecap:butt;stroke-linejoin:miter;stroke-opacity:1" d="M 116.645,358.286 98.4762,358.286 z" id="boundary" inkscape:connector-curvature="0" />
	<path style="fill:none;stroke:red;stroke-width:1px;stroke-linecap:butt;stroke-linejoin:miter;stroke-opacity:1" d="M 140.264,323.766 134.813,358.286 z" id="boundary" inkscape:connector-curvature="0" />
	<path style="fill:none;stroke:red;stroke-width:1px;stroke-linecap:butt;stroke-linejoin:miter;stroke-opacity:1" d="M 134.813,358.286 116.645,358.286 z" id="boundary" inkscape:connector-curvature="0" />
	<path style="fill:none;stroke:red;stroke-width:1px;stroke-linecap:butt;stroke-linejoin:miter;stroke-opacity:1" d="M 123.912,314.681 140.264,323.766 z" id="boundary" inkscape:connector-curvature="0" />
	<path style="fill:none;stroke:red;stroke-width:1px;stroke-linecap:butt;stroke-linejoin:miter;stroke-opacity:1" d="M 31.2527,436.41 40.337,452.762 z" id="boundary" inkscape:connector-curvature="0" />
	<path style="fill:none;stroke:red;stroke-width:1px;stroke-linecap:butt;stroke-linejoin:miter;stroke-opacity:1" d="M 40.337,452.762 40.337,470.93 z" id="boundary" inkscape:connector-curvature="0" />
	<path style="fill:none;stroke:red;stroke-width:1px;stroke-linecap:butt;stroke-linejoin:miter;stroke-opacity:1" d="M 31.2527,436.41 31.2527,418.242 z" id="boundary" inkscape:connector-curvature="0" />
	<path style="fill:none;stroke:red;stroke-width:1px;stroke-linecap:butt;stroke-linejoin:miter;stroke-opacity:1" d="M 49.4212,487.282 40.337,470.93 z" id="boundary" inkscape:connector-curvature="0" />
	<path style="fill:none;stroke:red;stroke-width:1px;stroke-linecap:butt;stroke-linejoin:miter;stroke-opacity:1" d="M 60.3223,501.817 49.4212,487.282 z" id="boundary" inkscape:connector-curvature="0" />
	<path style="fill:none;stroke:red;stroke-width:1px;stroke-linecap:butt;stroke-linejoin:miter;stroke-opacity:1" d="M 60.3223,501.817 69.4066,518.168 z" id="boundary" inkscape:connector-curvature="0" />
	<path style="fill:none;stroke:red;stroke-width:1px;stroke-linecap:butt;stroke-linejoin:miter;stroke-opacity:1" d="M 82.1245,532.703 69.4066,518.168 z" id="boundary" inkscape:connector-curvature="0" />
	<path style="fill:none;stroke:red;stroke-width:1px;stroke-linecap:butt;stroke-linejoin:miter;stroke-opacity:1" d="M 100.293,539.971 82.1245,532.703 z" id="boundary" inkscape:connector-curvature="0" />
	<path style="fill:none;stroke:red;stroke-width:1px;stroke-linecap:butt;stroke-linejoin:miter;stroke-opacity:1" d="M 118.462,541.788 100.293,539.971 z" id="boundary" inkscape:connector-curvature="0" />
	<path style="fill:none;stroke:red;stroke-width:1px;stroke-linecap:butt;stroke-linejoin:miter;stroke-opacity:1" d="M 118.462,541.788 136.63,539.971 z" id="boundary" inkscape:connector-curvature="0" />
	<path style="fill:none;stroke:red;stroke-width:1px;stroke-linecap:butt;stroke-linejoin:miter;stroke-opacity:1" d="M 154.799,530.886 136.63,539.971 z" id="boundary" inkscape:connector-curvature="0" />
	<path style="fill:none;stroke:red;stroke-width:1px;stroke-linecap:butt;stroke-linejoin:miter;stroke-opacity:1" d="M 296.513,487.282 278.344,487.282 z" id="boundary" inkscape:connector-curvature="0" />
	<path style="fill:none;stroke:red;stroke-width:1px;stroke-linecap:butt;stroke-linejoin:miter;stroke-opacity:1" d="M 296.513,487.282 314.681,487.282 z" id="boundary" inkscape:connector-curvature="0" />
	<path style="fill:none;stroke:red;stroke-width:1px;stroke-linecap:butt;stroke-linejoin:miter;stroke-opacity:1" d="M 263.81,503.634 278.344,487.282 z" id="boundary" inkscape:connector-curvature="0" />
	<path style="fill:none;stroke:red;stroke-width:1px;stroke-linecap:butt;stroke-linejoin:miter;stroke-opacity:1" d="M 314.681,487.282 332.85,487.282 z" id="boundary" inkscape:connector-curvature="0" />
	<path style="fill:none;stroke:red;stroke-width:1px;stroke-linecap:butt;stroke-linejoin:miter;stroke-opacity:1" d="M 332.85,487.282 351.018,487.282 z" id="boundary" inkscape:connector-curvature="0" />
	<path style="fill:none;stroke:red;stroke-width:1px;stroke-linecap:butt;stroke-linejoin:miter;stroke-opacity:1" d="M 369.187,487.282 387.355,490.916 z" id="boundary" inkscape:connector-curvature="0" />
	<path style="fill:none;stroke:red;stroke-width:1px;stroke-linecap:butt;stroke-linejoin:miter;stroke-opacity:1" d="M 387.355,490.916 403.707,500 z" id="boundary" inkscape:connector-curvature="0" />
	<path style="fill:none;stroke:red;stroke-width:1px;stroke-linecap:butt;stroke-linejoin:miter;stroke-opacity:1" d="M 369.187,487.282 351.018,487.282 z" id="boundary" inkscape:connector-curvature="0" />
	<path style="fill:none;stroke:red;stroke-width:1px;stroke-linecap:butt;stroke-linejoin:miter;stroke-opacity:1" d="M 421.875,505.451 403.707,500 z" id="boundary" inkscape:connector-curvature="0" />
	<path style="fill:none;stroke:red;stroke-width:1px;stroke-linecap:butt;stroke-linejoin:miter;stroke-opacity:1" d="M 245.641,512.718 263.81,503.634 z" id="boundary" inkscape:connector-curvature="0" />
	<path style="fill:none;stroke:red;stroke-width:1px;stroke-linecap:butt;stroke-linejoin:miter;stroke-opacity:1" d="M 209.304,521.802 227.473,514.535 z" id="boundary" inkscape:connector-curvature="0" />
	<path style="fill:none;stroke:red;stroke-width:1px;stroke-linecap:butt;stroke-linejoin:miter;stroke-opacity:1" d="M 227.473,514.535 245.641,512.718 z" id="boundary" inkscape:connector-curvature="0" />
	<path style="fill:none;stroke:red;stroke-width:1px;stroke-linecap:butt;stroke-linejoin:miter;stroke-opacity:1" d="M 209.304,521.802 191.136,523.619 z" id="boundary" inkscape:connector-curvature="0" />
	<path style="fill:none;stroke:red;stroke-width:1px;stroke-linecap:butt;stroke-linejoin:miter;stroke-opacity:1" d="M 154.799,530.886 172.967,523.619 z" id="boundary" inkscape:connector-curvature="0" />
	<path style="fill:none;stroke:red;stroke-width:1px;stroke-linecap:butt;stroke-linejoin:miter;stroke-opacity:1" d="M 172.967,523.619 191.136,523.619 z" id="boundary" inkscape:connector-curvature="0" />
	<path style="fill:none;stroke:red;stroke-width:1px;stroke-linecap:butt;stroke-linejoin:miter;stroke-opacity:1" d="M 421.875,505.451 438.227,514.535 z" id="boundary" inkscape:connector-curvature="0" />
	<path style="fill:none;stroke:red;stroke-width:1px;stroke-linecap:butt;stroke-linejoin:miter;stroke-opacity:1" d="M 472.747,523.619 454.579,523.619 z" id="boundary" inkscape:connector-curvature="0" />
	<path style="fill:none;stroke:red;stroke-width:1px;stroke-linecap:butt;stroke-linejoin:miter;stroke-opacity:1" d="M 454.579,523.619 438.227,514.535 z" id="boundary" inkscape:connector-curvature="0" />
	<path style="fill:none;stroke:red;stroke-width:1px;stroke-linecap:butt;stroke-linejoin:miter;stroke-opacity:1" d="M 490.916,523.619 472.747,523.619 z" id="boundary" inkscape:connector-curvature="0" />
	<path style="fill:none;stroke:red;stroke-width:1px;stroke-linecap:butt;stroke-linejoin:miter;stroke-opacity:1" d="M 525.436,4 543.604,4 z" id="boundary" inkscape:connector-curvature="0" />
	<path style="fill:none;stroke:red;stroke-width:1px;stroke-linecap:butt;stroke-linejoin:miter;stroke-opacity:1" d="M 509.084,13.0842 525.436,4 z" id="boundary" inkscape:connector-curvature="0" />
	<path style="fill:none;stroke:red;stroke-width:1px;stroke-linecap:butt;stroke-linejoin:miter;stroke-opacity:1" d="M 543.604,4 561.773,4 z" id="boundary" inkscape:connector-curvature="0" />
	<path style="fill:none;stroke:red;stroke-width:1px;stroke-linecap:butt;stroke-linejoin:miter;stroke-opacity:1" d="M 494.549,27.619 509.084,13.0842 z" id="boundary" inkscape:connector-curvature="0" />
	<path style="fill:none;stroke:red;stroke-width:1px;stroke-linecap:butt;stroke-linejoin:miter;stroke-opacity:1" d="M 579.941,4 598.11,4 z" id="boundary" inkscape:connector-curvature="0" />
	<path style="fill:none;stroke:red;stroke-width:1px;stroke-linecap:butt;stroke-linejoin:miter;stroke-opacity:1" d="M 616.278,4 634.447,4 z" id="boundary" inkscape:connector-curvature="0" />
	<path style="fill:none;stroke:red;stroke-width:1px;stroke-linecap:butt;stroke-linejoin:miter;stroke-opacity:1" d="M 634.447,4 650.799,13.0842 z" id="boundary" inkscape:connector-curvature="0" />
	<path style="fill:none;stroke:red;stroke-width:1px;stroke-linecap:butt;stroke-linejoin:miter;stroke-opacity:1" d="M 668.967,13.0842 650.799,13.0842 z" id="boundary" inkscape:connector-curvature="0" />
	<path style="fill:none;stroke:red;stroke-width:1px;stroke-linecap:butt;stroke-linejoin:miter;stroke-opacity:1" d="M 598.11,4 616.278,4 z" id="boundary" inkscape:connector-curvature="0" />
	<path style="fill:none;stroke:red;stroke-width:1px;stroke-linecap:butt;stroke-linejoin:miter;stroke-opacity:1" d="M 561.773,4 579.941,4 z" id="boundary" inkscape:connector-curvature="0" />
	<path style="fill:none;stroke:red;stroke-width:1px;stroke-linecap:butt;stroke-linejoin:miter;stroke-opacity:1" d="M 687.136,13.0842 668.967,13.0842 z" id="boundary" inkscape:connector-curvature="0" />
	<path style="fill:none;stroke:red;stroke-width:1px;stroke-linecap:butt;stroke-linejoin:miter;stroke-opacity:1" d="M 485.465,45.7875 494.549,27.619 z" id="boundary" inkscape:connector-curvature="0" />
	<path style="fill:none;stroke:red;stroke-width:1px;stroke-linecap:butt;stroke-linejoin:miter;stroke-opacity:1" d="M 485.465,63.956 485.465,45.7875 z" id="boundary" inkscape:connector-curvature="0" />
	<path style="fill:none;stroke:red;stroke-width:1px;stroke-linecap:butt;stroke-linejoin:miter;stroke-opacity:1" d="M 705.304,13.0842 723.473,13.0842 z" id="boundary" inkscape:connector-curvature="0" />
	<path style="fill:none;stroke:red;stroke-width:1px;stroke-linecap:butt;stroke-linejoin:miter;stroke-opacity:1" d="M 723.473,13.0842 738.007,23.9853 z" id="boundary" inkscape:connector-curvature="0" />
	<path style="fill:none;stroke:red;stroke-width:1px;stroke-linecap:butt;stroke-linejoin:miter;stroke-opacity:1" d="M 738.007,23.9853 750.725,38.5201 z" id="boundary" inkscape:connector-curvature="0" />
	<path style="fill:none;stroke:red;stroke-width:1px;stroke-linecap:butt;stroke-linejoin:miter;stroke-opacity:1" d="M 750.725,38.5201 750.725,56.6886 z" id="boundary" inkscape:connector-curvature="0" />
	<path style="fill:none;stroke:red;stroke-width:1px;stroke-linecap:butt;stroke-linejoin:miter;stroke-opacity:1" d="M 687.136,13.0842 705.304,13.0842 z" id="boundary" inkscape:connector-curvature="0" />
	<path style="fill:none;stroke:red;stroke-width:1px;stroke-linecap:butt;stroke-linejoin:miter;stroke-opacity:1" d="M 750.725,56.6886 750.725,74.8571 z" id="boundary" inkscape:connector-curvature="0" />
	<path style="fill:none;stroke:red;stroke-width:1px;stroke-linecap:butt;stroke-linejoin:miter;stroke-opacity:1" d="M 750.725,74.8571 750.725,93.0256 z" id="boundary" inkscape:connector-curvature="0" />
	<path style="fill:none;stroke:red;stroke-width:1px;stroke-linecap:butt;stroke-linejoin:miter;stroke-opacity:1" d="M 759.81,127.546 750.725,111.194 z" id="boundary" inkscape:connector-curvature="0" />
	<path style="fill:none;stroke:red;stroke-width:1px;stroke-linecap:butt;stroke-linejoin:miter;stroke-opacity:1" d="M 750.725,111.194 750.725,93.0256 z" id="boundary" inkscape:connector-curvature="0" />
	<path style="fill:none;stroke:red;stroke-width:1px;stroke-linecap:butt;stroke-linejoin:miter;stroke-opacity:1" d="M 772.527,142.081 759.81,127.546 z" id="boundary" inkscape:connector-curvature="0" />
	<path style="fill:none;stroke:red;stroke-width:1px;stroke-linecap:butt;stroke-linejoin:miter;stroke-opacity:1" d="M 772.527,142.081 777.978,160.249 z" id="boundary" inkscape:connector-curvature="0" />
	<path style="fill:none;stroke:red;stroke-width:1px;stroke-linecap:butt;stroke-linejoin:miter;stroke-opacity:1" d="M 777.978,160.249 796.147,167.516 z" id="boundary" inkscape:connector-curvature="0" />
	<path style="fill:none;stroke:red;stroke-width:1px;stroke-linecap:butt;stroke-linejoin:miter;stroke-opacity:1" d="M 796.147,167.516 810.681,178.418 z" id="boundary" inkscape:connector-curvature="0" />
	<path style="fill:none;stroke:red;stroke-width:1px;stroke-linecap:butt;stroke-linejoin:miter;stroke-opacity:1" d="M 823.399,192.952 832.484,209.304 z" id="boundary" inkscape:connector-curvature="0" />
	<path style="fill:none;stroke:red;stroke-width:1px;stroke-linecap:butt;stroke-linejoin:miter;stroke-opacity:1" d="M 823.399,192.952 810.681,178.418 z" id="boundary" inkscape:connector-curvature="0" />
	<path style="fill:none;stroke:red;stroke-width:1px;stroke-linecap:butt;stroke-linejoin:miter;stroke-opacity:1" d="M 845.201,223.839 863.37,231.106 z" id="boundary" inkscape:connector-curvature="0" />
	<path style="fill:none;stroke:red;stroke-width:1px;stroke-linecap:butt;stroke-linejoin:miter;stroke-opacity:1" d="M 845.201,223.839 832.484,209.304 z" id="boundary" inkscape:connector-curvature="0" />
	<path style="fill:none;stroke:red;stroke-width:1px;stroke-linecap:butt;stroke-linejoin:miter;stroke-opacity:1" d="M 881.538,231.106 899.707,231.106 z" id="boundary" inkscape:connector-curvature="0" />
	<path style="fill:none;stroke:red;stroke-width:1px;stroke-linecap:butt;stroke-linejoin:miter;stroke-opacity:1" d="M 881.538,231.106 863.37,231.106 z" id="boundary" inkscape:connector-curvature="0" />
	<path style="fill:none;stroke:red;stroke-width:1px;stroke-linecap:butt;stroke-linejoin:miter;stroke-opacity:1" d="M 899.707,231.106 917.875,231.106 z" id="boundary" inkscape:connector-curvature="0" />
	<path style="fill:none;stroke:red;stroke-width:1px;stroke-linecap:butt;stroke-linejoin:miter;stroke-opacity:1" d="M 968.747,271.077 968.747,289.245 z" id="boundary" inkscape:connector-curvature="0" />
	<path style="fill:none;stroke:red;stroke-width:1px;stroke-linecap:butt;stroke-linejoin:miter;stroke-opacity:1" d="M 968.747,271.077 966.93,252.908 z" id="boundary" inkscape:connector-curvature="0" />
	<path style="fill:none;stroke:red;stroke-width:1px;stroke-linecap:butt;stroke-linejoin:miter;stroke-opacity:1" d="M 979.648,303.78 968.747,289.245 z" id="boundary" inkscape:connector-curvature="0" />
	<path style="fill:none;stroke:red;stroke-width:1px;stroke-linecap:butt;stroke-linejoin:miter;stroke-opacity:1" d="M 952.396,240.19 966.93,252.908 z" id="boundary" inkscape:connector-curvature="0" />
	<path style="fill:none;stroke:red;stroke-width:1px;stroke-linecap:butt;stroke-linejoin:miter;stroke-opacity:1" d="M 917.875,231.106 936.044,231.106 z" id="boundary" inkscape:connector-curvature="0" />
	<path style="fill:none;stroke:red;stroke-width:1px;stroke-linecap:butt;stroke-linejoin:miter;stroke-opacity:1" d="M 936.044,231.106 952.396,240.19 z" id="boundary" inkscape:connector-curvature="0" />
	<path style="fill:none;stroke:red;stroke-width:1px;stroke-linecap:butt;stroke-linejoin:miter;stroke-opacity:1" d="M 654.432,478.198 638.081,469.114 z" id="boundary" inkscape:connector-curvature="0" />
	<path style="fill:none;stroke:red;stroke-width:1px;stroke-linecap:butt;stroke-linejoin:miter;stroke-opacity:1" d="M 739.824,450.945 723.473,460.029 z" id="boundary" inkscape:connector-curvature="0" />
	<path style="fill:none;stroke:red;stroke-width:1px;stroke-linecap:butt;stroke-linejoin:miter;stroke-opacity:1" d="M 619.912,474.564 638.081,469.114 z" id="boundary" inkscape:connector-curvature="0" />
	<path style="fill:none;stroke:red;stroke-width:1px;stroke-linecap:butt;stroke-linejoin:miter;stroke-opacity:1" d="M 723.473,460.029 707.121,478.198 z" id="boundary" inkscape:connector-curvature="0" />
	<path style="fill:none;stroke:red;stroke-width:1px;stroke-linecap:butt;stroke-linejoin:miter;stroke-opacity:1" d="M 672.601,485.465 654.432,478.198 z" id="boundary" inkscape:connector-curvature="0" />
	<path style="fill:none;stroke:red;stroke-width:1px;stroke-linecap:butt;stroke-linejoin:miter;stroke-opacity:1" d="M 605.377,487.282 619.912,474.564 z" id="boundary" inkscape:connector-curvature="0" />
	<path style="fill:none;stroke:red;stroke-width:1px;stroke-linecap:butt;stroke-linejoin:miter;stroke-opacity:1" d="M 757.993,450.945 739.824,450.945 z" id="boundary" inkscape:connector-curvature="0" />
	<path style="fill:none;stroke:red;stroke-width:1px;stroke-linecap:butt;stroke-linejoin:miter;stroke-opacity:1" d="M 776.161,450.945 794.33,450.945 z" id="boundary" inkscape:connector-curvature="0" />
	<path style="fill:none;stroke:red;stroke-width:1px;stroke-linecap:butt;stroke-linejoin:miter;stroke-opacity:1" d="M 794.33,450.945 794.33,469.114 z" id="boundary" inkscape:connector-curvature="0" />
	<path style="fill:none;stroke:red;stroke-width:1px;stroke-linecap:butt;stroke-linejoin:miter;stroke-opacity:1" d="M 757.993,450.945 776.161,450.945 z" id="boundary" inkscape:connector-curvature="0" />
	<path style="fill:none;stroke:red;stroke-width:1px;stroke-linecap:butt;stroke-linejoin:miter;stroke-opacity:1" d="M 690.769,487.282 707.121,478.198 z" id="boundary" inkscape:connector-curvature="0" />
	<path style="fill:none;stroke:red;stroke-width:1px;stroke-linecap:butt;stroke-linejoin:miter;stroke-opacity:1" d="M 490.916,523.619 509.084,523.619 z" id="boundary" inkscape:connector-curvature="0" />
	<path style="fill:none;stroke:red;stroke-width:1px;stroke-linecap:butt;stroke-linejoin:miter;stroke-opacity:1" d="M 509.084,523.619 525.436,532.703 z" id="boundary" inkscape:connector-curvature="0" />
	<path style="fill:none;stroke:red;stroke-width:1px;stroke-linecap:butt;stroke-linejoin:miter;stroke-opacity:1" d="M 525.436,532.703 541.788,523.619 z" id="boundary" inkscape:connector-curvature="0" />
	<path style="fill:none;stroke:red;stroke-width:1px;stroke-linecap:butt;stroke-linejoin:miter;stroke-opacity:1" d="M 541.788,523.619 559.956,523.619 z" id="boundary" inkscape:connector-curvature="0" />
	<path style="fill:none;stroke:red;stroke-width:1px;stroke-linecap:butt;stroke-linejoin:miter;stroke-opacity:1" d="M 578.125,514.535 559.956,523.619 z" id="boundary" inkscape:connector-curvature="0" />
	<path style="fill:none;stroke:red;stroke-width:1px;stroke-linecap:butt;stroke-linejoin:miter;stroke-opacity:1" d="M 596.293,505.451 605.377,487.282 z" id="boundary" inkscape:connector-curvature="0" />
	<path style="fill:none;stroke:red;stroke-width:1px;stroke-linecap:butt;stroke-linejoin:miter;stroke-opacity:1" d="M 578.125,514.535 596.293,505.451 z" id="boundary" inkscape:connector-curvature="0" />
	<path style="fill:none;stroke:red;stroke-width:1px;stroke-linecap:butt;stroke-linejoin:miter;stroke-opacity:1" d="M 672.601,485.465 690.769,487.282 z" id="boundary" inkscape:connector-curvature="0" />
	<path style="fill:none;stroke:red;stroke-width:1px;stroke-linecap:butt;stroke-linejoin:miter;stroke-opacity:1" d="M 794.33,469.114 794.33,487.282 z" id="boundary" inkscape:connector-curvature="0" />
	<path style="fill:none;stroke:red;stroke-width:1px;stroke-linecap:butt;stroke-linejoin:miter;stroke-opacity:1" d="M 977.832,378.271 965.114,401.89 z" id="boundary" inkscape:connector-curvature="0" />
	<path style="fill:none;stroke:red;stroke-width:1px;stroke-linecap:butt;stroke-linejoin:miter;stroke-opacity:1" d="M 932.41,414.608 914.242,414.608 z" id="boundary" inkscape:connector-curvature="0" />
	<path style="fill:none;stroke:red;stroke-width:1px;stroke-linecap:butt;stroke-linejoin:miter;stroke-opacity:1" d="M 917.875,450.945 914.242,432.777 z" id="boundary" inkscape:connector-curvature="0" />
	<path style="fill:none;stroke:red;stroke-width:1px;stroke-linecap:butt;stroke-linejoin:miter;stroke-opacity:1" d="M 914.242,432.777 914.242,414.608 z" id="boundary" inkscape:connector-curvature="0" />
	<path style="fill:none;stroke:red;stroke-width:1px;stroke-linecap:butt;stroke-linejoin:miter;stroke-opacity:1" d="M 950.579,414.608 932.41,414.608 z" id="boundary" inkscape:connector-curvature="0" />
	<path style="fill:none;stroke:red;stroke-width:1px;stroke-linecap:butt;stroke-linejoin:miter;stroke-opacity:1" d="M 965.114,401.89 950.579,414.608 z" id="boundary" inkscape:connector-curvature="0" />
	<path style="fill:none;stroke:red;stroke-width:1px;stroke-linecap:butt;stroke-linejoin:miter;stroke-opacity:1" d="M 979.648,303.78 994.183,316.498 z" id="boundary" inkscape:connector-curvature="0" />
	<path style="fill:none;stroke:red;stroke-width:1px;stroke-linecap:butt;stroke-linejoin:miter;stroke-opacity:1" d="M 994.183,316.498 996,334.667 z" id="boundary" inkscape:connector-curvature="0" />
	<path style="fill:none;stroke:red;stroke-width:1px;stroke-linecap:butt;stroke-linejoin:miter;stroke-opacity:1" d="M 986.916,360.103 977.832,378.271 z" id="boundary" inkscape:connector-curvature="0" />
	<path style="fill:none;stroke:red;stroke-width:1px;stroke-linecap:butt;stroke-linejoin:miter;stroke-opacity:1" d="M 996,334.667 986.916,360.103 z" id="boundary" inkscape:connector-curvature="0" />
	<path style="fill:none;stroke:red;stroke-width:1px;stroke-linecap:butt;stroke-linejoin:miter;stroke-opacity:1" d="M 794.33,487.282 805.231,501.817 z" id="boundary" inkscape:connector-curvature="0" />
	<path style="fill:none;stroke:red;stroke-width:1px;stroke-linecap:butt;stroke-linejoin:miter;stroke-opacity:1" d="M 819.766,514.535 837.934,514.535 z" id="boundary" inkscape:connector-curvature="0" />
	<path style="fill:none;stroke:red;stroke-width:1px;stroke-linecap:butt;stroke-linejoin:miter;stroke-opacity:1" d="M 819.766,514.535 805.231,501.817 z" id="boundary" inkscape:connector-curvature="0" />
	<path style="fill:none;stroke:red;stroke-width:1px;stroke-linecap:butt;stroke-linejoin:miter;stroke-opacity:1" d="M 837.934,514.535 856.103,514.535 z" id="boundary" inkscape:connector-curvature="0" />
	<path style="fill:none;stroke:red;stroke-width:1px;stroke-linecap:butt;stroke-linejoin:miter;stroke-opacity:1" d="M 914.242,478.198 917.875,450.945 z" id="boundary" inkscape:connector-curvature="0" />
	<path style="fill:none;stroke:red;stroke-width:1px;stroke-linecap:butt;stroke-linejoin:miter;stroke-opacity:1" d="M 874.271,514.535 856.103,514.535 z" id="boundary" inkscape:connector-curvature="0" />
	<path style="fill:none;stroke:red;stroke-width:1px;stroke-linecap:butt;stroke-linejoin:miter;stroke-opacity:1" d="M 890.623,505.451 874.271,514.535 z" id="boundary" inkscape:connector-curvature="0" />
	<path style="fill:none;stroke:red;stroke-width:1px;stroke-linecap:butt;stroke-linejoin:miter;stroke-opacity:1" d="M 906.974,496.366 890.623,505.451 z" id="boundary" inkscape:connector-curvature="0" />
	<path style="fill:none;stroke:red;stroke-width:1px;stroke-linecap:butt;stroke-linejoin:miter;stroke-opacity:1" d="M 914.242,478.198 906.974,496.366 z" id="boundary" inkscape:connector-curvature="0" />
	<circle cx="4" cy="236.557" r="4" fill="#0" id="circle0"/>
	<circle cx="4" cy="254.725" r="4" fill="#0" id="circle1"/>
	<circle cx="4" cy="272.894" r="4" fill="#0" id="circle2"/>
	<circle cx="4" cy="291.062" r="4" fill="#0" id="circle3"/>
	<circle cx="18.5348" cy="222.022" r="4" fill="#0" id="circle4"/>
	<circle cx="18.5348" cy="303.78" r="4" fill="#0" id="circle5"/>
	<circle cx="31.2527" cy="381.905" r="4" fill="#0" id="circle6"/>
	<circle cx="31.2527" cy="400.073" r="4" fill="#0" id="circle7"/>
	<circle cx="31.2527" cy="418.242" r="4" fill="#0" id="circle8"/>
	<circle cx="31.2527" cy="436.41" r="4" fill="#0" id="circle9"/>
	<circle cx="33.0696" cy="207.487" r="4" fill="#0" id="circle10"/>
	<circle cx="33.0696" cy="314.681" r="4" fill="#0" id="circle11"/>
	<circle cx="40.337" cy="452.762" r="4" fill="#0" id="circle12"/>
	<circle cx="40.337" cy="470.93" r="4" fill="#0" id="circle13"/>
	<circle cx="45.7875" cy="367.37" r="4" fill="#0" id="circle14"/>
	<circle cx="47.6044" cy="194.769" r="4" fill="#0" id="circle15"/>
	<circle cx="49.4212" cy="487.282" r="4" fill="#0" id="circle16"/>
	<circle cx="51.2381" cy="314.681" r="4" fill="#0" id="circle17"/>
	<circle cx="60.3223" cy="501.817" r="4" fill="#0" id="circle18"/>
	<circle cx="62.1392" cy="358.286" r="4" fill="#0" id="circle19"/>
	<circle cx="63.956" cy="185.685" r="4" fill="#0" id="circle20"/>
	<circle cx="69.4066" cy="314.681" r="4" fill="#0" id="circle21"/>
	<circle cx="69.4066" cy="518.168" r="4" fill="#0" id="circle22"/>
	<circle cx="80.3077" cy="358.286" r="4" fill="#0" id="circle23"/>
	<circle cx="82.1245" cy="185.685" r="4" fill="#0" id="circle24"/>
	<circle cx="82.1245" cy="532.703" r="4" fill="#0" id="circle25"/>
	<circle cx="87.5751" cy="314.681" r="4" fill="#0" id="circle26"/>
	<circle cx="98.4762" cy="358.286" r="4" fill="#0" id="circle27"/>
	<circle cx="100.293" cy="185.685" r="4" fill="#0" id="circle28"/>
	<circle cx="100.293" cy="539.971" r="4" fill="#0" id="circle29"/>
	<circle cx="105.744" cy="314.681" r="4" fill="#0" id="circle30"/>
	<circle cx="116.645" cy="358.286" r="4" fill="#0" id="circle31"/>
	<circle cx="118.462" cy="185.685" r="4" fill="#0" id="circle32"/>
	<circle cx="118.462" cy="541.788" r="4" fill="#0" id="circle33"/>
	<circle cx="123.912" cy="314.681" r="4" fill="#0" id="circle34"/>
	<circle cx="134.813" cy="176.601" r="4" fill="#0" id="circle35"/>
	<circle cx="134.813" cy="358.286" r="4" fill="#0" id="circle36"/>
	<circle cx="136.63" cy="539.971" r="4" fill="#0" id="circle37"/>
	<circle cx="140.264" cy="323.766" r="4" fill="#0" id="circle38"/>
	<circle cx="152.982" cy="176.601" r="4" fill="#0" id="circle39"/>
	<circle cx="154.799" cy="530.886" r="4" fill="#0" id="circle40"/>
	<circle cx="171.15" cy="176.601" r="4" fill="#0" id="circle41"/>
	<circle cx="172.967" cy="523.619" r="4" fill="#0" id="circle42"/>
	<circle cx="189.319" cy="176.601" r="4" fill="#0" id="circle43"/>
	<circle cx="191.136" cy="523.619" r="4" fill="#0" id="circle44"/>
	<circle cx="207.487" cy="176.601" r="4" fill="#0" id="circle45"/>
	<circle cx="209.304" cy="521.802" r="4" fill="#0" id="circle46"/>
	<circle cx="225.656" cy="176.601" r="4" fill="#0" id="circle47"/>
	<circle cx="227.473" cy="514.535" r="4" fill="#0" id="circle48"/>
	<circle cx="243.824" cy="176.601" r="4" fill="#0" id="circle49"/>
	<circle cx="245.641" cy="512.718" r="4" fill="#0" id="circle50"/>
	<circle cx="260.176" cy="167.516" r="4" fill="#0" id="circle51"/>
	<circle cx="263.81" cy="503.634" r="4" fill="#0" id="circle52"/>
	<circle cx="278.344" cy="167.516" r="4" fill="#0" id="circle53"/>
	<circle cx="278.344" cy="487.282" r="4" fill="#0" id="circle54"/>
	<circle cx="296.513" cy="167.516" r="4" fill="#0" id="circle55"/>
	<circle cx="296.513" cy="487.282" r="4" fill="#0" id="circle56"/>
	<circle cx="312.864" cy="158.432" r="4" fill="#0" id="circle57"/>
	<circle cx="314.681" cy="487.282" r="4" fill="#0" id="circle58"/>
	<circle cx="331.033" cy="158.432" r="4" fill="#0" id="circle59"/>
	<circle cx="332.85" cy="487.282" r="4" fill="#0" id="circle60"/>
	<circle cx="349.201" cy="158.432" r="4" fill="#0" id="circle61"/>
	<circle cx="351.018" cy="487.282" r="4" fill="#0" id="circle62"/>
	<circle cx="367.37" cy="158.432" r="4" fill="#0" id="circle63"/>
	<circle cx="369.187" cy="487.282" r="4" fill="#0" id="circle64"/>
	<circle cx="385.538" cy="158.432" r="4" fill="#0" id="circle65"/>
	<circle cx="387.355" cy="490.916" r="4" fill="#0" id="circle66"/>
	<circle cx="403.707" cy="158.432" r="4" fill="#0" id="circle67"/>
	<circle cx="403.707" cy="500" r="4" fill="#0" id="circle68"/>
	<circle cx="421.875" cy="158.432" r="4" fill="#0" id="circle69"/>
	<circle cx="421.875" cy="505.451" r="4" fill="#0" id="circle70"/>
	<circle cx="438.227" cy="514.535" r="4" fill="#0" id="circle71"/>
	<circle cx="440.044" cy="158.432" r="4" fill="#0" id="circle72"/>
	<circle cx="454.579" cy="523.619" r="4" fill="#0" id="circle73"/>
	<circle cx="456.396" cy="149.348" r="4" fill="#0" id="circle74"/>
	<circle cx="458.212" cy="127.546" r="4" fill="#0" id="circle75"/>
	<circle cx="467.297" cy="109.377" r="4" fill="#0" id="circle76"/>
	<circle cx="472.747" cy="523.619" r="4" fill="#0" id="circle77"/>
	<circle cx="481.832" cy="94.8425" r="4" fill="#0" id="circle78"/>
	<circle cx="485.465" cy="45.7875" r="4" fill="#0" id="circle79"/>
	<circle cx="485.465" cy="63.956" r="4" fill="#0" id="circle80"/>
	<circle cx="490.916" cy="523.619" r="4" fill="#0" id="circle81"/>
	<circle cx="494.549" cy="27.619" r="4" fill="#0" id="circle82"/>
	<circle cx="509.084" cy="13.0842" r="4" fill="#0" id="circle83"/>
	<circle cx="509.084" cy="523.619" r="4" fill="#0" id="circle84"/>
	<circle cx="525.436" cy="4" r="4" fill="#0" id="circle85"/>
	<circle cx="525.436" cy="532.703" r="4" fill="#0" id="circle86"/>
	<circle cx="541.788" cy="523.619" r="4" fill="#0" id="circle87"/>
	<circle cx="543.604" cy="4" r="4" fill="#0" id="circle88"/>
	<circle cx="559.956" cy="523.619" r="4" fill="#0" id="circle89"/>
	<circle cx="561.773" cy="4" r="4" fill="#0" id="circle90"/>
	<circle cx="578.125" cy="514.535" r="4" fill="#0" id="circle91"/>
	<circle cx="579.941" cy="4" r="4" fill="#0" id="circle92"/>
	<circle cx="596.293" cy="505.451" r="4" fill="#0" id="circle93"/>
	<circle cx="598.11" cy="4" r="4" fill="#0" id="circle94"/>
	<circle cx="605.377" cy="487.282" r="4" fill="#0" id="circle95"/>
	<circle cx="616.278" cy="4" r="4" fill="#0" id="circle96"/>
	<circle cx="619.912" cy="474.564" r="4" fill="#0" id="circle97"/>
	<circle cx="634.447" cy="4" r="4" fill="#0" id="circle98"/>
	<circle cx="638.081" cy="469.114" r="4" fill="#0" id="circle99"/>
	<circle cx="650.799" cy="13.0842" r="4" fill="#0" id="circle100"/>
	<circle cx="654.432" cy="478.198" r="4" fill="#0" id="circle101"/>
	<circle cx="668.967" cy="13.0842" r="4" fill="#0" id="circle102"/>
	<circle cx="672.601" cy="485.465" r="4" fill="#0" id="circle103"/>
	<circle cx="687.136" cy="13.0842" r="4" fill="#0" id="circle104"/>
	<circle cx="690.769" cy="487.282" r="4" fill="#0" id="circle105"/>
	<circle cx="705.304" cy="13.0842" r="4" fill="#0" id="circle106"/>
	<circle cx="707.121" cy="478.198" r="4" fill="#0" id="circle107"/>
	<circle cx="723.473" cy="13.0842" r="4" fill="#0" id="circle108"/>
	<circle cx="723.473" cy="460.029" r="4" fill="#0" id="circle109"/>
	<circle cx="738.007" cy="23.9853" r="4" fill="#0" id="circle110"/>
	<circle cx="739.824" cy="450.945" r="4" fill="#0" id="circle111"/>
	<circle cx="750.725" cy="38.5201" r="4" fill="#0" id="circle112"/>
	<circle cx="750.725" cy="56.6886" r="4" fill="#0" id="circle113"/>
	<circle cx="750.725" cy="74.8571" r="4" fill="#0" id="circle114"/>
	<circle cx="750.725" cy="93.0256" r="4" fill="#0" id="circle115"/>
	<circle cx="750.725" cy="111.194" r="4" fill="#0" id="circle116"/>
	<circle cx="757.993" cy="450.945" r="4" fill="#0" id="circle117"/>
	<circle cx="759.81" cy="127.546" r="4" fill="#0" id="circle118"/>
	<circle cx="772.527" cy="142.081" r="4" fill="#0" id="circle119"/>
	<circle cx="776.161" cy="450.945" r="4" fill="#0" id="circle120"/>
	<circle cx="777.978" cy="160.249" r="4" fill="#0" id="circle121"/>
	<circle cx="794.33" cy="450.945" r="4" fill="#0" id="circle122"/>
	<circle cx="794.33" cy="469.114" r="4" fill="#0" id="circle123"/>
	<circle cx="794.33" cy="487.282" r="4" fill="#0" id="circle124"/>
	<circle cx="796.147" cy="167.516" r="4" fill="#0" id="circle125"/>
	<circle cx="805.231" cy="501.817" r="4" fill="#0" id="circle126"/>
	<circle cx="810.681" cy="178.418" r="4" fill="#0" id="circle127"/>
	<circle cx="819.766" cy="514.535" r="4" fill="#0" id="circle128"/>
	<circle cx="823.399" cy="192.952" r="4" fill="#0" id="circle129"/>
	<circle cx="832.484" cy="209.304" r="4" fill="#0" id="circle130"/>
	<circle cx="837.934" cy="514.535" r="4" fill="#0" id="circle131"/>
	<circle cx="845.201" cy="223.839" r="4" fill="#0" id="circle132"/>
	<circle cx="856.103" cy="514.535" r="4" fill="#0" id="circle133"/>
	<circle cx="863.37" cy="231.106" r="4" fill="#0" id="circle134"/>
	<circle cx="874.271" cy="514.535" r="4" fill="#0" id="circle135"/>
	<circle cx="881.538" cy="231.106" r="4" fill="#0" id="circle136"/>
	<circle cx="890.623" cy="505.451" r="4" fill="#0" id="circle137"/>
	<circle cx="899.707" cy="231.106" r="4" fill="#0" id="circle138"/>
	<circle cx="906.974" cy="496.366" r="4" fill="#0" id="circle139"/>
	<circle cx="914.242" cy="414.608" r="4" fill="#0" id="circle140"/>
	<circle cx="914.242" cy="432.777" r="4" fill="#0" id="circle141"/>
	<circle cx="914.242" cy="478.198" r="4" fill="#0" id="circle142"/>
	<circle cx="917.875" cy="231.106" r="4" fill="#0" id="circle143"/>
	<circle cx="917.875" cy="450.945" r="4" fill="#0" id="circle144"/>
	<circle cx="932.41" cy="414.608" r="4" fill="#0" id="circle145"/>
	<circle cx="936.044" cy="231.106" r="4" fill="#0" id="circle146"/>
	<circle cx="950.579" cy="414.608" r="4" fill="#0" id="circle147"/>
	<circle cx="952.396" cy="240.19" r="4" fill="#0" id="circle148"/>
	<circle cx="965.114" cy="401.89" r="4" fill="#0" id="circle149"/>
	<circle cx="966.93" cy="252.908" r="4" fill="#0" id="circle150"/>
	<circle cx="968.747" cy="271.077" r="4" fill="#0" id="circle151"/>
	<circle cx="968.747" cy="289.245" r="4" fill="#0" id="circle152"/>
	<circle cx="977.832" cy="378.271" r="4" fill="#0" id="circle153"/>
	<circle cx="979.648" cy="303.78" r="4" fill="#0" id="circle154"/>
	<circle cx="986.916" cy="360.103" r="4" fill="#0" id="circle155"/>
	<circle cx="994.183" cy="316.498" r="4" fill="#0" id="circle156"/>
	<circle cx="996" cy="334.667" r="4" fill="#0" id="circle157"/>
	</g>
</svg>