<?xml version="1.0" encoding="UTF-8" standalone="no"?>
<!-- Created with CurveBenchmark -->
<svg
	xmlns:dc="http://purl.org/dc/elements/1.1/"
	xmlns:cc="http://creativecommons.org/ns#"
	xmlns:rdf="http://www.w3.org/1999/02/22-rdf-syntax-ns#"
	xmlns:svg="http://www.w3.org/2000/svg"
	xmlns="http://www.w3.org/2000/svg"
	xmlns:sodipodi="http://sodipodi.sourceforge.net/DTD/sodipodi-0.dtd"
	xmlns:inkscape="http://www.inkscape.org/namespaces/inkscape"
	width="1000"
	height="1000"
	id="svg2"
	version="1.1"
	sodipodi:docname="manifold/gathan1-sink090.png.txt">
<defs
	id="defs4" />
<metadata
	id="metadata7">
	<rdf:RDF>
		<cc:Work
			rdf:about="">
			<dc:format>image/svg+xml</dc:format>
			<dc:type
				rdf:resource="http://purl.org/dc/dcmitype/StillImage" />
			<dc:title></dc:title>
		</cc:Work>
	</rdf:RDF>
</metadata>
<g
	inkscape:label="Layer 1"
	inkscape:groupmode="layer"
	id="layer1">
	<path style="fill:none;stroke:red;stroke-width:1px;stroke-linecap:butt;stroke-linejoin:miter;stroke-opacity:1" d="M 13.678,168.527 13.678,216.917 z" id="boundary" inkscape:connector-curvature="0" />
	<path style="fill:none;stroke:red;stroke-width:1px;stroke-linecap:butt;stroke-linejoin:miter;stroke-opacity:1" d="M 13.678,216.917 4,294.341 z" id="boundary" inkscape:connector-curvature="0" />
	<path style="fill:none;stroke:red;stroke-width:1px;stroke-linecap:butt;stroke-linejoin:miter;stroke-opacity:1" d="M 13.678,168.527 62.0683,168.527 z" id="boundary" inkscape:connector-curvature="0" />
	<path style="fill:none;stroke:red;stroke-width:1px;stroke-linecap:butt;stroke-linejoin:miter;stroke-opacity:1" d="M 62.0683,168.527 110.459,168.527 z" id="boundary" inkscape:connector-curvature="0" />
	<path style="fill:none;stroke:red;stroke-width:1px;stroke-linecap:butt;stroke-linejoin:miter;stroke-opacity:1" d="M 4,294.341 47.5512,318.537 z" id="boundary" inkscape:connector-curvature="0" />
	<path style="fill:none;stroke:red;stroke-width:1px;stroke-linecap:butt;stroke-linejoin:miter;stroke-opacity:1" d="M 95.9415,318.537 144.332,318.537 z" id="boundary" inkscape:connector-curvature="0" />
	<path style="fill:none;stroke:red;stroke-width:1px;stroke-linecap:butt;stroke-linejoin:miter;stroke-opacity:1" d="M 95.9415,318.537 47.5512,318.537 z" id="boundary" inkscape:connector-curvature="0" />
	<path style="fill:none;stroke:red;stroke-width:1px;stroke-linecap:butt;stroke-linejoin:miter;stroke-opacity:1" d="M 110.459,168.527 158.849,168.527 z" id="boundary" inkscape:connector-curvature="0" />
	<path style="fill:none;stroke:red;stroke-width:1px;stroke-linecap:butt;stroke-linejoin:miter;stroke-opacity:1" d="M 207.239,178.205 158.849,168.527 z" id="boundary" inkscape:connector-curvature="0" />
	<path style="fill:none;stroke:red;stroke-width:1px;stroke-linecap:butt;stroke-linejoin:miter;stroke-opacity:1" d="M 333.054,23.3561 313.698,71.7463 z" id="boundary" inkscape:connector-curvature="0" />
	<path style="fill:none;stroke:red;stroke-width:1px;stroke-linecap:butt;stroke-linejoin:miter;stroke-opacity:1" d="M 313.698,120.137 313.698,71.7463 z" id="boundary" inkscape:connector-curvature="0" />
	<path style="fill:none;stroke:red;stroke-width:1px;stroke-linecap:butt;stroke-linejoin:miter;stroke-opacity:1" d="M 255.629,178.205 207.239,178.205 z" id="boundary" inkscape:connector-curvature="0" />
	<path style="fill:none;stroke:red;stroke-width:1px;stroke-linecap:butt;stroke-linejoin:miter;stroke-opacity:1" d="M 255.629,178.205 304.02,178.205 z" id="boundary" inkscape:connector-curvature="0" />
	<path style="fill:none;stroke:red;stroke-width:1px;stroke-linecap:butt;stroke-linejoin:miter;stroke-opacity:1" d="M 352.41,173.366 304.02,178.205 z" id="boundary" inkscape:connector-curvature="0" />
	<path style="fill:none;stroke:red;stroke-width:1px;stroke-linecap:butt;stroke-linejoin:miter;stroke-opacity:1" d="M 192.722,318.537 144.332,318.537 z" id="boundary" inkscape:connector-curvature="0" />
	<path style="fill:none;stroke:red;stroke-width:1px;stroke-linecap:butt;stroke-linejoin:miter;stroke-opacity:1" d="M 216.917,362.088 245.951,400.8 z" id="boundary" inkscape:connector-curvature="0" />
	<path style="fill:none;stroke:red;stroke-width:1px;stroke-linecap:butt;stroke-linejoin:miter;stroke-opacity:1" d="M 371.766,715.337 371.766,763.727 z" id="boundary" inkscape:connector-curvature="0" />
	<path style="fill:none;stroke:red;stroke-width:1px;stroke-linecap:butt;stroke-linejoin:miter;stroke-opacity:1" d="M 284.663,429.834 245.951,400.8 z" id="boundary" inkscape:connector-curvature="0" />
	<path style="fill:none;stroke:red;stroke-width:1px;stroke-linecap:butt;stroke-linejoin:miter;stroke-opacity:1" d="M 216.917,362.088 192.722,318.537 z" id="boundary" inkscape:connector-curvature="0" />
	<path style="fill:none;stroke:red;stroke-width:1px;stroke-linecap:butt;stroke-linejoin:miter;stroke-opacity:1" d="M 323.376,942.771 323.376,991.161 z" id="boundary" inkscape:connector-curvature="0" />
	<path style="fill:none;stroke:red;stroke-width:1px;stroke-linecap:butt;stroke-linejoin:miter;stroke-opacity:1" d="M 371.766,996 323.376,991.161 z" id="boundary" inkscape:connector-curvature="0" />
	<path style="fill:none;stroke:red;stroke-width:1px;stroke-linecap:butt;stroke-linejoin:miter;stroke-opacity:1" d="M 371.766,812.117 352.41,894.38 z" id="boundary" inkscape:connector-curvature="0" />
	<path style="fill:none;stroke:red;stroke-width:1px;stroke-linecap:butt;stroke-linejoin:miter;stroke-opacity:1" d="M 352.41,894.38 323.376,942.771 z" id="boundary" inkscape:connector-curvature="0" />
	<path style="fill:none;stroke:red;stroke-width:1px;stroke-linecap:butt;stroke-linejoin:miter;stroke-opacity:1" d="M 284.663,429.834 333.054,444.351 z" id="boundary" inkscape:connector-curvature="0" />
	<path style="fill:none;stroke:red;stroke-width:1px;stroke-linecap:butt;stroke-linejoin:miter;stroke-opacity:1" d="M 371.766,473.385 371.766,521.776 z" id="boundary" inkscape:connector-curvature="0" />
	<path style="fill:none;stroke:red;stroke-width:1px;stroke-linecap:butt;stroke-linejoin:miter;stroke-opacity:1" d="M 333.054,444.351 371.766,473.385 z" id="boundary" inkscape:connector-curvature="0" />
	<path style="fill:none;stroke:red;stroke-width:1px;stroke-linecap:butt;stroke-linejoin:miter;stroke-opacity:1" d="M 371.766,570.166 371.766,618.556 z" id="boundary" inkscape:connector-curvature="0" />
	<path style="fill:none;stroke:red;stroke-width:1px;stroke-linecap:butt;stroke-linejoin:miter;stroke-opacity:1" d="M 371.766,570.166 371.766,521.776 z" id="boundary" inkscape:connector-curvature="0" />
	<path style="fill:none;stroke:red;stroke-width:1px;stroke-linecap:butt;stroke-linejoin:miter;stroke-opacity:1" d="M 371.766,666.946 371.766,715.337 z" id="boundary" inkscape:connector-curvature="0" />
	<path style="fill:none;stroke:red;stroke-width:1px;stroke-linecap:butt;stroke-linejoin:miter;stroke-opacity:1" d="M 371.766,763.727 371.766,812.117 z" id="boundary" inkscape:connector-curvature="0" />
	<path style="fill:none;stroke:red;stroke-width:1px;stroke-linecap:butt;stroke-linejoin:miter;stroke-opacity:1" d="M 420.156,996 371.766,996 z" id="boundary" inkscape:connector-curvature="0" />
	<path style="fill:none;stroke:red;stroke-width:1px;stroke-linecap:butt;stroke-linejoin:miter;stroke-opacity:1" d="M 371.766,666.946 371.766,618.556 z" id="boundary" inkscape:connector-curvature="0" />
	<path style="fill:none;stroke:red;stroke-width:1px;stroke-linecap:butt;stroke-linejoin:miter;stroke-opacity:1" d="M 352.41,173.366 400.8,178.205 z" id="boundary" inkscape:connector-curvature="0" />
	<path style="fill:none;stroke:red;stroke-width:1px;stroke-linecap:butt;stroke-linejoin:miter;stroke-opacity:1" d="M 386.283,52.3902 424.995,81.4244 z" id="boundary" inkscape:connector-curvature="0" />
	<path style="fill:none;stroke:red;stroke-width:1px;stroke-linecap:butt;stroke-linejoin:miter;stroke-opacity:1" d="M 386.283,52.3902 381.444,4 z" id="boundary" inkscape:connector-curvature="0" />
	<path style="fill:none;stroke:red;stroke-width:1px;stroke-linecap:butt;stroke-linejoin:miter;stroke-opacity:1" d="M 497.58,168.527 449.19,168.527 z" id="boundary" inkscape:connector-curvature="0" />
	<path style="fill:none;stroke:red;stroke-width:1px;stroke-linecap:butt;stroke-linejoin:miter;stroke-opacity:1" d="M 449.19,168.527 400.8,178.205 z" id="boundary" inkscape:connector-curvature="0" />
	<path style="fill:none;stroke:red;stroke-width:1px;stroke-linecap:butt;stroke-linejoin:miter;stroke-opacity:1" d="M 497.58,168.527 545.971,168.527 z" id="boundary" inkscape:connector-curvature="0" />
	<path style="fill:none;stroke:red;stroke-width:1px;stroke-linecap:butt;stroke-linejoin:miter;stroke-opacity:1" d="M 594.361,168.527 545.971,168.527 z" id="boundary" inkscape:connector-curvature="0" />
	<path style="fill:none;stroke:red;stroke-width:1px;stroke-linecap:butt;stroke-linejoin:miter;stroke-opacity:1" d="M 642.751,168.527 594.361,168.527 z" id="boundary" inkscape:connector-curvature="0" />
	<path style="fill:none;stroke:red;stroke-width:1px;stroke-linecap:butt;stroke-linejoin:miter;stroke-opacity:1" d="M 642.751,168.527 686.302,192.722 z" id="boundary" inkscape:connector-curvature="0" />
	<path style="fill:none;stroke:red;stroke-width:1px;stroke-linecap:butt;stroke-linejoin:miter;stroke-opacity:1" d="M 686.302,192.722 705.659,241.112 z" id="boundary" inkscape:connector-curvature="0" />
	<path style="fill:none;stroke:red;stroke-width:1px;stroke-linecap:butt;stroke-linejoin:miter;stroke-opacity:1" d="M 705.659,241.112 749.21,265.307 z" id="boundary" inkscape:connector-curvature="0" />
	<path style="fill:none;stroke:red;stroke-width:1px;stroke-linecap:butt;stroke-linejoin:miter;stroke-opacity:1" d="M 797.6,265.307 749.21,265.307 z" id="boundary" inkscape:connector-curvature="0" />
	<path style="fill:none;stroke:red;stroke-width:1px;stroke-linecap:butt;stroke-linejoin:miter;stroke-opacity:1" d="M 628.234,371.766 657.268,323.376 z" id="boundary" inkscape:connector-curvature="0" />
	<path style="fill:none;stroke:red;stroke-width:1px;stroke-linecap:butt;stroke-linejoin:miter;stroke-opacity:1" d="M 657.268,323.376 705.659,318.537 z" id="boundary" inkscape:connector-curvature="0" />
	<path style="fill:none;stroke:red;stroke-width:1px;stroke-linecap:butt;stroke-linejoin:miter;stroke-opacity:1" d="M 797.6,265.307 802.439,318.537 z" id="boundary" inkscape:connector-curvature="0" />
	<path style="fill:none;stroke:red;stroke-width:1px;stroke-linecap:butt;stroke-linejoin:miter;stroke-opacity:1" d="M 802.439,318.537 754.049,318.537 z" id="boundary" inkscape:connector-curvature="0" />
	<path style="fill:none;stroke:red;stroke-width:1px;stroke-linecap:butt;stroke-linejoin:miter;stroke-opacity:1" d="M 754.049,318.537 705.659,318.537 z" id="boundary" inkscape:connector-curvature="0" />
	<path style="fill:none;stroke:red;stroke-width:1px;stroke-linecap:butt;stroke-linejoin:miter;stroke-opacity:1" d="M 550.81,487.902 550.81,536.293 z" id="boundary" inkscape:connector-curvature="0" />
	<path style="fill:none;stroke:red;stroke-width:1px;stroke-linecap:butt;stroke-linejoin:miter;stroke-opacity:1" d="M 550.81,487.902 550.81,439.512 z" id="boundary" inkscape:connector-curvature="0" />
	<path style="fill:none;stroke:red;stroke-width:1px;stroke-linecap:butt;stroke-linejoin:miter;stroke-opacity:1" d="M 550.81,439.512 589.522,410.478 z" id="boundary" inkscape:connector-curvature="0" />
	<path style="fill:none;stroke:red;stroke-width:1px;stroke-linecap:butt;stroke-linejoin:miter;stroke-opacity:1" d="M 550.81,584.683 550.81,633.073 z" id="boundary" inkscape:connector-curvature="0" />
	<path style="fill:none;stroke:red;stroke-width:1px;stroke-linecap:butt;stroke-linejoin:miter;stroke-opacity:1" d="M 550.81,536.293 550.81,584.683 z" id="boundary" inkscape:connector-curvature="0" />
	<path style="fill:none;stroke:red;stroke-width:1px;stroke-linecap:butt;stroke-linejoin:miter;stroke-opacity:1" d="M 468.546,996 420.156,996 z" id="boundary" inkscape:connector-curvature="0" />
	<path style="fill:none;stroke:red;stroke-width:1px;stroke-linecap:butt;stroke-linejoin:miter;stroke-opacity:1" d="M 550.81,681.463 550.81,729.854 z" id="boundary" inkscape:connector-curvature="0" />
	<path style="fill:none;stroke:red;stroke-width:1px;stroke-linecap:butt;stroke-linejoin:miter;stroke-opacity:1" d="M 516.937,996 468.546,996 z" id="boundary" inkscape:connector-curvature="0" />
	<path style="fill:none;stroke:red;stroke-width:1px;stroke-linecap:butt;stroke-linejoin:miter;stroke-opacity:1" d="M 550.81,633.073 550.81,681.463 z" id="boundary" inkscape:connector-curvature="0" />
	<path style="fill:none;stroke:red;stroke-width:1px;stroke-linecap:butt;stroke-linejoin:miter;stroke-opacity:1" d="M 550.81,729.854 550.81,778.244 z" id="boundary" inkscape:connector-curvature="0" />
	<path style="fill:none;stroke:red;stroke-width:1px;stroke-linecap:butt;stroke-linejoin:miter;stroke-opacity:1" d="M 589.522,410.478 628.234,371.766 z" id="boundary" inkscape:connector-curvature="0" />
	<path style="fill:none;stroke:red;stroke-width:1px;stroke-linecap:butt;stroke-linejoin:miter;stroke-opacity:1" d="M 550.81,826.634 550.81,875.024 z" id="boundary" inkscape:connector-curvature="0" />
	<path style="fill:none;stroke:red;stroke-width:1px;stroke-linecap:butt;stroke-linejoin:miter;stroke-opacity:1" d="M 550.81,826.634 550.81,778.244 z" id="boundary" inkscape:connector-curvature="0" />
	<path style="fill:none;stroke:red;stroke-width:1px;stroke-linecap:butt;stroke-linejoin:miter;stroke-opacity:1" d="M 570.166,923.415 565.327,996 z" id="boundary" inkscape:connector-curvature="0" />
	<path style="fill:none;stroke:red;stroke-width:1px;stroke-linecap:butt;stroke-linejoin:miter;stroke-opacity:1" d="M 565.327,996 516.937,996 z" id="boundary" inkscape:connector-curvature="0" />
	<path style="fill:none;stroke:red;stroke-width:1px;stroke-linecap:butt;stroke-linejoin:miter;stroke-opacity:1" d="M 570.166,923.415 550.81,875.024 z" id="boundary" inkscape:connector-curvature="0" />
	<path style="fill:none;stroke:red;stroke-width:1px;stroke-linecap:butt;stroke-linejoin:miter;stroke-opacity:1" d="M 333.054,23.3561 381.444,4 z" id="boundary" inkscape:connector-curvature="0" />
	<circle cx="4" cy="294.341" r="4" fill="#0" id="circle0"/>
	<circle cx="13.678" cy="168.527" r="4" fill="#0" id="circle1"/>
	<circle cx="13.678" cy="216.917" r="4" fill="#0" id="circle2"/>
	<circle cx="47.5512" cy="318.537" r="4" fill="#0" id="circle3"/>
	<circle cx="62.0683" cy="168.527" r="4" fill="#0" id="circle4"/>
	<circle cx="95.9415" cy="318.537" r="4" fill="#0" id="circle5"/>
	<circle cx="110.459" cy="168.527" r="4" fill="#0" id="circle6"/>
	<circle cx="144.332" cy="318.537" r="4" fill="#0" id="circle7"/>
	<circle cx="158.849" cy="168.527" r="4" fill="#0" id="circle8"/>
	<circle cx="192.722" cy="318.537" r="4" fill="#0" id="circle9"/>
	<circle cx="207.239" cy="178.205" r="4" fill="#0" id="circle10"/>
	<circle cx="216.917" cy="362.088" r="4" fill="#0" id="circle11"/>
	<circle cx="245.951" cy="400.8" r="4" fill="#0" id="circle12"/>
	<circle cx="255.629" cy="178.205" r="4" fill="#0" id="circle13"/>
	<circle cx="284.663" cy="429.834" r="4" fill="#0" id="circle14"/>
	<circle cx="304.02" cy="178.205" r="4" fill="#0" id="circle15"/>
	<circle cx="313.698" cy="71.7463" r="4" fill="#0" id="circle16"/>
	<circle cx="313.698" cy="120.137" r="4" fill="#0" id="circle17"/>
	<circle cx="323.376" cy="942.771" r="4" fill="#0" id="circle18"/>
	<circle cx="323.376" cy="991.161" r="4" fill="#0" id="circle19"/>
	<circle cx="333.054" cy="23.3561" r="4" fill="#0" id="circle20"/>
	<circle cx="333.054" cy="444.351" r="4" fill="#0" id="circle21"/>
	<circle cx="352.41" cy="173.366" r="4" fill="#0" id="circle22"/>
	<circle cx="352.41" cy="894.38" r="4" fill="#0" id="circle23"/>
	<circle cx="371.766" cy="473.385" r="4" fill="#0" id="circle24"/>
	<circle cx="371.766" cy="521.776" r="4" fill="#0" id="circle25"/>
	<circle cx="371.766" cy="570.166" r="4" fill="#0" id="circle26"/>
	<circle cx="371.766" cy="618.556" r="4" fill="#0" id="circle27"/>
	<circle cx="371.766" cy="666.946" r="4" fill="#0" id="circle28"/>
	<circle cx="371.766" cy="715.337" r="4" fill="#0" id="circle29"/>
	<circle cx="371.766" cy="763.727" r="4" fill="#0" id="circle30"/>
	<circle cx="371.766" cy="812.117" r="4" fill="#0" id="circle31"/>
	<circle cx="371.766" cy="996" r="4" fill="#0" id="circle32"/>
	<circle cx="381.444" cy="4" r="4" fill="#0" id="circle33"/>
	<circle cx="386.283" cy="52.3902" r="4" fill="#0" id="circle34"/>
	<circle cx="400.8" cy="178.205" r="4" fill="#0" id="circle35"/>
	<circle cx="420.156" cy="996" r="4" fill="#0" id="circle36"/>
	<circle cx="424.995" cy="81.4244" r="4" fill="#0" id="circle37"/>
	<circle cx="449.19" cy="168.527" r="4" fill="#0" id="circle38"/>
	<circle cx="468.546" cy="996" r="4" fill="#0" id="circle39"/>
	<circle cx="497.58" cy="168.527" r="4" fill="#0" id="circle40"/>
	<circle cx="516.937" cy="996" r="4" fill="#0" id="circle41"/>
	<circle cx="545.971" cy="168.527" r="4" fill="#0" id="circle42"/>
	<circle cx="550.81" cy="439.512" r="4" fill="#0" id="circle43"/>
	<circle cx="550.81" cy="487.902" r="4" fill="#0" id="circle44"/>
	<circle cx="550.81" cy="536.293" r="4" fill="#0" id="circle45"/>
	<circle cx="550.81" cy="584.683" r="4" fill="#0" id="circle46"/>
	<circle cx="550.81" cy="633.073" r="4" fill="#0" id="circle47"/>
	<circle cx="550.81" cy="681.463" r="4" fill="#0" id="circle48"/>
	<circle cx="550.81" cy="729.854" r="4" fill="#0" id="circle49"/>
	<circle cx="550.81" cy="778.244" r="4" fill="#0" id="circle50"/>
	<circle cx="550.81" cy="826.634" r="4" fill="#0" id="circle51"/>
	<circle cx="550.81" cy="875.024" r="4" fill="#0" id="circle52"/>
	<circle cx="565.327" cy="996" r="4" fill="#0" id="circle53"/>
	<circle cx="570.166" cy="923.415" r="4" fill="#0" id="circle54"/>
	<circle cx="589.522" cy="410.478" r="4" fill="#0" id="circle55"/>
	<circle cx="594.361" cy="168.527" r="4" fill="#0" id="circle56"/>
	<circle cx="628.234" cy="371.766" r="4" fill="#0" id="circle57"/>
	<circle cx="642.751" cy="168.527" r="4" fill="#0" id="circle58"/>
	<circle cx="657.268" cy="323.376" r="4" fill="#0" id="circle59"/>
	<circle cx="686.302" cy="192.722" r="4" fill="#0" id="circle60"/>
	<circle cx="705.659" cy="241.112" r="4" fill="#0" id="circle61"/>
	<circle cx="705.659" cy="318.537" r="4" fill="#0" id="circle62"/>
	<circle cx="749.21" cy="265.307" r="4" fill="#0" id="circle63"/>
	<circle cx="754.049" cy="318.537" r="4" fill="#0" id="circle64"/>
	<circle cx="797.6" cy="265.307" r="4" fill="#0" id="circle65"/>
	<circle cx="802.439" cy="318.537" r="4" fill="#0" id="circle66"/>
	</g>
</svg>