<?xml version="1.0" encoding="UTF-8" standalone="no"?>
<!-- Created with CurveBenchmark -->
<svg
	xmlns:dc="http://purl.org/dc/elements/1.1/"
	xmlns:cc="http://creativecommons.org/ns#"
	xmlns:rdf="http://www.w3.org/1999/02/22-rdf-syntax-ns#"
	xmlns:svg="http://www.w3.org/2000/svg"
	xmlns="http://www.w3.org/2000/svg"
	xmlns:sodipodi="http://sodipodi.sourceforge.net/DTD/sodipodi-0.dtd"
	xmlns:inkscape="http://www.inkscape.org/namespaces/inkscape"
	width="1000"
	height="1000"
	id="svg2"
	version="1.1"
	sodipodi:docname="manifold/gathan1-fgen2cp.png.txt">
<defs
	id="defs4" />
<metadata
	id="metadata7">
	<rdf:RDF>
		<cc:Work
			rdf:about="">
			<dc:format>image/svg+xml</dc:format>
			<dc:type
				rdf:resource="http://purl.org/dc/dcmitype/StillImage" />
			<dc:title></dc:title>
		</cc:Work>
	</rdf:RDF>
</metadata>
<g
	inkscape:label="Layer 1"
	inkscape:groupmode="layer"
	id="layer1">
	<path style="fill:none;stroke:red;stroke-width:1px;stroke-linecap:butt;stroke-linejoin:miter;stroke-opacity:1" d="M 76.3532,205.827 59.2169,215.347 z" id="boundary" inkscape:connector-curvature="0" />
	<path style="fill:none;stroke:red;stroke-width:1px;stroke-linecap:butt;stroke-linejoin:miter;stroke-opacity:1" d="M 13.5202,200.115 28.7524,184.883 z" id="boundary" inkscape:connector-curvature="0" />
	<path style="fill:none;stroke:red;stroke-width:1px;stroke-linecap:butt;stroke-linejoin:miter;stroke-opacity:1" d="M 28.7524,184.883 43.9846,169.651 z" id="boundary" inkscape:connector-curvature="0" />
	<path style="fill:none;stroke:red;stroke-width:1px;stroke-linecap:butt;stroke-linejoin:miter;stroke-opacity:1" d="M 59.2169,215.347 42.0806,224.868 z" id="boundary" inkscape:connector-curvature="0" />
	<path style="fill:none;stroke:red;stroke-width:1px;stroke-linecap:butt;stroke-linejoin:miter;stroke-opacity:1" d="M 43.9846,169.651 59.2169,156.322 z" id="boundary" inkscape:connector-curvature="0" />
	<path style="fill:none;stroke:red;stroke-width:1px;stroke-linecap:butt;stroke-linejoin:miter;stroke-opacity:1" d="M 112.53,137.282 95.3935,146.802 z" id="boundary" inkscape:connector-curvature="0" />
	<path style="fill:none;stroke:red;stroke-width:1px;stroke-linecap:butt;stroke-linejoin:miter;stroke-opacity:1" d="M 95.3935,146.802 76.3532,146.802 z" id="boundary" inkscape:connector-curvature="0" />
	<path style="fill:none;stroke:red;stroke-width:1px;stroke-linecap:butt;stroke-linejoin:miter;stroke-opacity:1" d="M 93.4894,196.307 76.3532,205.827 z" id="boundary" inkscape:connector-curvature="0" />
	<path style="fill:none;stroke:red;stroke-width:1px;stroke-linecap:butt;stroke-linejoin:miter;stroke-opacity:1" d="M 110.626,186.787 93.4894,196.307 z" id="boundary" inkscape:connector-curvature="0" />
	<path style="fill:none;stroke:red;stroke-width:1px;stroke-linecap:butt;stroke-linejoin:miter;stroke-opacity:1" d="M 59.2169,156.322 76.3532,146.802 z" id="boundary" inkscape:connector-curvature="0" />
	<path style="fill:none;stroke:red;stroke-width:1px;stroke-linecap:butt;stroke-linejoin:miter;stroke-opacity:1" d="M 4,219.155 23.0403,224.868 z" id="boundary" inkscape:connector-curvature="0" />
	<path style="fill:none;stroke:red;stroke-width:1px;stroke-linecap:butt;stroke-linejoin:miter;stroke-opacity:1" d="M 4,219.155 13.5202,200.115 z" id="boundary" inkscape:connector-curvature="0" />
	<path style="fill:none;stroke:red;stroke-width:1px;stroke-linecap:butt;stroke-linejoin:miter;stroke-opacity:1" d="M 23.0403,224.868 42.0806,224.868 z" id="boundary" inkscape:connector-curvature="0" />
	<path style="fill:none;stroke:red;stroke-width:1px;stroke-linecap:butt;stroke-linejoin:miter;stroke-opacity:1" d="M 89.6814,352.438 89.6814,380.998 z" id="boundary" inkscape:connector-curvature="0" />
	<path style="fill:none;stroke:red;stroke-width:1px;stroke-linecap:butt;stroke-linejoin:miter;stroke-opacity:1" d="M 89.6814,352.438 99.2015,323.877 z" id="boundary" inkscape:connector-curvature="0" />
	<path style="fill:none;stroke:red;stroke-width:1px;stroke-linecap:butt;stroke-linejoin:miter;stroke-opacity:1" d="M 99.2015,304.837 99.2015,323.877 z" id="boundary" inkscape:connector-curvature="0" />
	<path style="fill:none;stroke:red;stroke-width:1px;stroke-linecap:butt;stroke-linejoin:miter;stroke-opacity:1" d="M 89.6814,400.038 89.6814,380.998 z" id="boundary" inkscape:connector-curvature="0" />
	<path style="fill:none;stroke:red;stroke-width:1px;stroke-linecap:butt;stroke-linejoin:miter;stroke-opacity:1" d="M 112.53,451.447 95.3935,441.927 z" id="boundary" inkscape:connector-curvature="0" />
	<path style="fill:none;stroke:red;stroke-width:1px;stroke-linecap:butt;stroke-linejoin:miter;stroke-opacity:1" d="M 127.762,462.871 112.53,451.447 z" id="boundary" inkscape:connector-curvature="0" />
	<path style="fill:none;stroke:red;stroke-width:1px;stroke-linecap:butt;stroke-linejoin:miter;stroke-opacity:1" d="M 95.3935,441.927 80.1612,428.599 z" id="boundary" inkscape:connector-curvature="0" />
	<path style="fill:none;stroke:red;stroke-width:1px;stroke-linecap:butt;stroke-linejoin:miter;stroke-opacity:1" d="M 80.1612,428.599 89.6814,400.038 z" id="boundary" inkscape:connector-curvature="0" />
	<path style="fill:none;stroke:red;stroke-width:1px;stroke-linecap:butt;stroke-linejoin:miter;stroke-opacity:1" d="M 99.2015,304.837 114.434,289.605 z" id="boundary" inkscape:connector-curvature="0" />
	<path style="fill:none;stroke:red;stroke-width:1px;stroke-linecap:butt;stroke-linejoin:miter;stroke-opacity:1" d="M 129.666,186.787 110.626,186.787 z" id="boundary" inkscape:connector-curvature="0" />
	<path style="fill:none;stroke:red;stroke-width:1px;stroke-linecap:butt;stroke-linejoin:miter;stroke-opacity:1" d="M 242.004,57.3129 261.044,47.7927 z" id="boundary" inkscape:connector-curvature="0" />
	<path style="fill:none;stroke:red;stroke-width:1px;stroke-linecap:butt;stroke-linejoin:miter;stroke-opacity:1" d="M 226.772,70.6411 242.004,57.3129 z" id="boundary" inkscape:connector-curvature="0" />
	<path style="fill:none;stroke:red;stroke-width:1px;stroke-linecap:butt;stroke-linejoin:miter;stroke-opacity:1" d="M 276.276,32.5605 261.044,47.7927 z" id="boundary" inkscape:connector-curvature="0" />
	<path style="fill:none;stroke:red;stroke-width:1px;stroke-linecap:butt;stroke-linejoin:miter;stroke-opacity:1" d="M 184.883,114.434 194.403,95.3935 z" id="boundary" inkscape:connector-curvature="0" />
	<path style="fill:none;stroke:red;stroke-width:1px;stroke-linecap:butt;stroke-linejoin:miter;stroke-opacity:1" d="M 194.403,95.3935 209.635,80.1612 z" id="boundary" inkscape:connector-curvature="0" />
	<path style="fill:none;stroke:red;stroke-width:1px;stroke-linecap:butt;stroke-linejoin:miter;stroke-opacity:1" d="M 131.57,137.282 112.53,137.282 z" id="boundary" inkscape:connector-curvature="0" />
	<path style="fill:none;stroke:red;stroke-width:1px;stroke-linecap:butt;stroke-linejoin:miter;stroke-opacity:1" d="M 226.772,70.6411 209.635,80.1612 z" id="boundary" inkscape:connector-curvature="0" />
	<path style="fill:none;stroke:red;stroke-width:1px;stroke-linecap:butt;stroke-linejoin:miter;stroke-opacity:1" d="M 331.493,13.5202 350.534,5.90403 z" id="boundary" inkscape:connector-curvature="0" />
	<path style="fill:none;stroke:red;stroke-width:1px;stroke-linecap:butt;stroke-linejoin:miter;stroke-opacity:1" d="M 350.534,5.90403 369.574,5.90403 z" id="boundary" inkscape:connector-curvature="0" />
	<path style="fill:none;stroke:red;stroke-width:1px;stroke-linecap:butt;stroke-linejoin:miter;stroke-opacity:1" d="M 388.614,4 369.574,5.90403 z" id="boundary" inkscape:connector-curvature="0" />
	<path style="fill:none;stroke:red;stroke-width:1px;stroke-linecap:butt;stroke-linejoin:miter;stroke-opacity:1" d="M 314.357,23.0403 331.493,13.5202 z" id="boundary" inkscape:connector-curvature="0" />
	<path style="fill:none;stroke:red;stroke-width:1px;stroke-linecap:butt;stroke-linejoin:miter;stroke-opacity:1" d="M 276.276,32.5605 295.317,23.0403 z" id="boundary" inkscape:connector-curvature="0" />
	<path style="fill:none;stroke:red;stroke-width:1px;stroke-linecap:butt;stroke-linejoin:miter;stroke-opacity:1" d="M 295.317,23.0403 314.357,23.0403 z" id="boundary" inkscape:connector-curvature="0" />
	<path style="fill:none;stroke:red;stroke-width:1px;stroke-linecap:butt;stroke-linejoin:miter;stroke-opacity:1" d="M 129.666,274.372 144.898,261.044 z" id="boundary" inkscape:connector-curvature="0" />
	<path style="fill:none;stroke:red;stroke-width:1px;stroke-linecap:butt;stroke-linejoin:miter;stroke-opacity:1" d="M 129.666,274.372 114.434,289.605 z" id="boundary" inkscape:connector-curvature="0" />
	<path style="fill:none;stroke:red;stroke-width:1px;stroke-linecap:butt;stroke-linejoin:miter;stroke-opacity:1" d="M 146.802,234.388 144.898,261.044 z" id="boundary" inkscape:connector-curvature="0" />
	<path style="fill:none;stroke:red;stroke-width:1px;stroke-linecap:butt;stroke-linejoin:miter;stroke-opacity:1" d="M 131.57,137.282 150.61,137.282 z" id="boundary" inkscape:connector-curvature="0" />
	<path style="fill:none;stroke:red;stroke-width:1px;stroke-linecap:butt;stroke-linejoin:miter;stroke-opacity:1" d="M 167.747,127.762 150.61,137.282 z" id="boundary" inkscape:connector-curvature="0" />
	<path style="fill:none;stroke:red;stroke-width:1px;stroke-linecap:butt;stroke-linejoin:miter;stroke-opacity:1" d="M 167.747,127.762 184.883,114.434 z" id="boundary" inkscape:connector-curvature="0" />
	<path style="fill:none;stroke:red;stroke-width:1px;stroke-linecap:butt;stroke-linejoin:miter;stroke-opacity:1" d="M 146.802,196.307 146.802,215.347 z" id="boundary" inkscape:connector-curvature="0" />
	<path style="fill:none;stroke:red;stroke-width:1px;stroke-linecap:butt;stroke-linejoin:miter;stroke-opacity:1" d="M 129.666,186.787 146.802,196.307 z" id="boundary" inkscape:connector-curvature="0" />
	<path style="fill:none;stroke:red;stroke-width:1px;stroke-linecap:butt;stroke-linejoin:miter;stroke-opacity:1" d="M 146.802,234.388 146.802,215.347 z" id="boundary" inkscape:connector-curvature="0" />
	<path style="fill:none;stroke:red;stroke-width:1px;stroke-linecap:butt;stroke-linejoin:miter;stroke-opacity:1" d="M 47.7927,756.092 57.3129,737.052 z" id="boundary" inkscape:connector-curvature="0" />
	<path style="fill:none;stroke:red;stroke-width:1px;stroke-linecap:butt;stroke-linejoin:miter;stroke-opacity:1" d="M 66.833,718.012 57.3129,737.052 z" id="boundary" inkscape:connector-curvature="0" />
	<path style="fill:none;stroke:red;stroke-width:1px;stroke-linecap:butt;stroke-linejoin:miter;stroke-opacity:1" d="M 23.0403,790.365 32.5605,771.324 z" id="boundary" inkscape:connector-curvature="0" />
	<path style="fill:none;stroke:red;stroke-width:1px;stroke-linecap:butt;stroke-linejoin:miter;stroke-opacity:1" d="M 32.5605,771.324 47.7927,756.092 z" id="boundary" inkscape:connector-curvature="0" />
	<path style="fill:none;stroke:red;stroke-width:1px;stroke-linecap:butt;stroke-linejoin:miter;stroke-opacity:1" d="M 108.722,523.8 108.722,504.76 z" id="boundary" inkscape:connector-curvature="0" />
	<path style="fill:none;stroke:red;stroke-width:1px;stroke-linecap:butt;stroke-linejoin:miter;stroke-opacity:1" d="M 108.722,504.76 118.242,485.72 z" id="boundary" inkscape:connector-curvature="0" />
	<path style="fill:none;stroke:red;stroke-width:1px;stroke-linecap:butt;stroke-linejoin:miter;stroke-opacity:1" d="M 108.722,552.361 108.722,523.8 z" id="boundary" inkscape:connector-curvature="0" />
	<path style="fill:none;stroke:red;stroke-width:1px;stroke-linecap:butt;stroke-linejoin:miter;stroke-opacity:1" d="M 80.1612,695.163 66.833,718.012 z" id="boundary" inkscape:connector-curvature="0" />
	<path style="fill:none;stroke:red;stroke-width:1px;stroke-linecap:butt;stroke-linejoin:miter;stroke-opacity:1" d="M 104.914,660.891 95.3935,679.931 z" id="boundary" inkscape:connector-curvature="0" />
	<path style="fill:none;stroke:red;stroke-width:1px;stroke-linecap:butt;stroke-linejoin:miter;stroke-opacity:1" d="M 95.3935,679.931 80.1612,695.163 z" id="boundary" inkscape:connector-curvature="0" />
	<path style="fill:none;stroke:red;stroke-width:1px;stroke-linecap:butt;stroke-linejoin:miter;stroke-opacity:1" d="M 23.0403,790.365 13.5202,809.405 z" id="boundary" inkscape:connector-curvature="0" />
	<path style="fill:none;stroke:red;stroke-width:1px;stroke-linecap:butt;stroke-linejoin:miter;stroke-opacity:1" d="M 13.5202,809.405 13.5202,828.445 z" id="boundary" inkscape:connector-curvature="0" />
	<path style="fill:none;stroke:red;stroke-width:1px;stroke-linecap:butt;stroke-linejoin:miter;stroke-opacity:1" d="M 13.5202,847.486 13.5202,866.526 z" id="boundary" inkscape:connector-curvature="0" />
	<path style="fill:none;stroke:red;stroke-width:1px;stroke-linecap:butt;stroke-linejoin:miter;stroke-opacity:1" d="M 13.5202,885.566 13.5202,866.526 z" id="boundary" inkscape:connector-curvature="0" />
	<path style="fill:none;stroke:red;stroke-width:1px;stroke-linecap:butt;stroke-linejoin:miter;stroke-opacity:1" d="M 23.0403,902.702 13.5202,885.566 z" id="boundary" inkscape:connector-curvature="0" />
	<path style="fill:none;stroke:red;stroke-width:1px;stroke-linecap:butt;stroke-linejoin:miter;stroke-opacity:1" d="M 13.5202,828.445 13.5202,847.486 z" id="boundary" inkscape:connector-curvature="0" />
	<path style="fill:none;stroke:red;stroke-width:1px;stroke-linecap:butt;stroke-linejoin:miter;stroke-opacity:1" d="M 32.5605,919.839 23.0403,902.702 z" id="boundary" inkscape:connector-curvature="0" />
	<path style="fill:none;stroke:red;stroke-width:1px;stroke-linecap:butt;stroke-linejoin:miter;stroke-opacity:1" d="M 49.6967,929.359 32.5605,919.839 z" id="boundary" inkscape:connector-curvature="0" />
	<path style="fill:none;stroke:red;stroke-width:1px;stroke-linecap:butt;stroke-linejoin:miter;stroke-opacity:1" d="M 106.818,916.031 87.7774,925.551 z" id="boundary" inkscape:connector-curvature="0" />
	<path style="fill:none;stroke:red;stroke-width:1px;stroke-linecap:butt;stroke-linejoin:miter;stroke-opacity:1" d="M 68.737,929.359 49.6967,929.359 z" id="boundary" inkscape:connector-curvature="0" />
	<path style="fill:none;stroke:red;stroke-width:1px;stroke-linecap:butt;stroke-linejoin:miter;stroke-opacity:1" d="M 87.7774,925.551 68.737,929.359 z" id="boundary" inkscape:connector-curvature="0" />
	<path style="fill:none;stroke:red;stroke-width:1px;stroke-linecap:butt;stroke-linejoin:miter;stroke-opacity:1" d="M 108.722,552.361 108.722,571.401 z" id="boundary" inkscape:connector-curvature="0" />
	<path style="fill:none;stroke:red;stroke-width:1px;stroke-linecap:butt;stroke-linejoin:miter;stroke-opacity:1" d="M 108.722,590.441 108.722,571.401 z" id="boundary" inkscape:connector-curvature="0" />
	<path style="fill:none;stroke:red;stroke-width:1px;stroke-linecap:butt;stroke-linejoin:miter;stroke-opacity:1" d="M 118.242,485.72 127.762,462.871 z" id="boundary" inkscape:connector-curvature="0" />
	<path style="fill:none;stroke:red;stroke-width:1px;stroke-linecap:butt;stroke-linejoin:miter;stroke-opacity:1" d="M 114.434,641.85 108.722,619.002 z" id="boundary" inkscape:connector-curvature="0" />
	<path style="fill:none;stroke:red;stroke-width:1px;stroke-linecap:butt;stroke-linejoin:miter;stroke-opacity:1" d="M 108.722,619.002 108.722,590.441 z" id="boundary" inkscape:connector-curvature="0" />
	<path style="fill:none;stroke:red;stroke-width:1px;stroke-linecap:butt;stroke-linejoin:miter;stroke-opacity:1" d="M 104.914,660.891 114.434,641.85 z" id="boundary" inkscape:connector-curvature="0" />
	<path style="fill:none;stroke:red;stroke-width:1px;stroke-linecap:butt;stroke-linejoin:miter;stroke-opacity:1" d="M 171.555,872.238 152.514,879.854 z" id="boundary" inkscape:connector-curvature="0" />
	<path style="fill:none;stroke:red;stroke-width:1px;stroke-linecap:butt;stroke-linejoin:miter;stroke-opacity:1" d="M 181.075,889.374 171.555,872.238 z" id="boundary" inkscape:connector-curvature="0" />
	<path style="fill:none;stroke:red;stroke-width:1px;stroke-linecap:butt;stroke-linejoin:miter;stroke-opacity:1" d="M 152.514,879.854 137.282,891.278 z" id="boundary" inkscape:connector-curvature="0" />
	<path style="fill:none;stroke:red;stroke-width:1px;stroke-linecap:butt;stroke-linejoin:miter;stroke-opacity:1" d="M 125.858,906.511 137.282,891.278 z" id="boundary" inkscape:connector-curvature="0" />
	<path style="fill:none;stroke:red;stroke-width:1px;stroke-linecap:butt;stroke-linejoin:miter;stroke-opacity:1" d="M 125.858,906.511 106.818,916.031 z" id="boundary" inkscape:connector-curvature="0" />
	<path style="fill:none;stroke:red;stroke-width:1px;stroke-linecap:butt;stroke-linejoin:miter;stroke-opacity:1" d="M 181.075,889.374 188.691,908.415 z" id="boundary" inkscape:connector-curvature="0" />
	<path style="fill:none;stroke:red;stroke-width:1px;stroke-linecap:butt;stroke-linejoin:miter;stroke-opacity:1" d="M 188.691,908.415 203.923,919.839 z" id="boundary" inkscape:connector-curvature="0" />
	<path style="fill:none;stroke:red;stroke-width:1px;stroke-linecap:butt;stroke-linejoin:miter;stroke-opacity:1" d="M 203.923,919.839 215.347,935.071 z" id="boundary" inkscape:connector-curvature="0" />
	<path style="fill:none;stroke:red;stroke-width:1px;stroke-linecap:butt;stroke-linejoin:miter;stroke-opacity:1" d="M 230.58,948.399 243.908,963.631 z" id="boundary" inkscape:connector-curvature="0" />
	<path style="fill:none;stroke:red;stroke-width:1px;stroke-linecap:butt;stroke-linejoin:miter;stroke-opacity:1" d="M 230.58,948.399 215.347,935.071 z" id="boundary" inkscape:connector-curvature="0" />
	<path style="fill:none;stroke:red;stroke-width:1px;stroke-linecap:butt;stroke-linejoin:miter;stroke-opacity:1" d="M 262.948,971.248 243.908,963.631 z" id="boundary" inkscape:connector-curvature="0" />
	<path style="fill:none;stroke:red;stroke-width:1px;stroke-linecap:butt;stroke-linejoin:miter;stroke-opacity:1" d="M 262.948,971.248 280.084,980.768 z" id="boundary" inkscape:connector-curvature="0" />
	<path style="fill:none;stroke:red;stroke-width:1px;stroke-linecap:butt;stroke-linejoin:miter;stroke-opacity:1" d="M 280.084,980.768 295.317,994.096 z" id="boundary" inkscape:connector-curvature="0" />
	<path style="fill:none;stroke:red;stroke-width:1px;stroke-linecap:butt;stroke-linejoin:miter;stroke-opacity:1" d="M 314.357,994.096 295.317,994.096 z" id="boundary" inkscape:connector-curvature="0" />
	<path style="fill:none;stroke:red;stroke-width:1px;stroke-linecap:butt;stroke-linejoin:miter;stroke-opacity:1" d="M 333.397,996 314.357,994.096 z" id="boundary" inkscape:connector-curvature="0" />
	<path style="fill:none;stroke:red;stroke-width:1px;stroke-linecap:butt;stroke-linejoin:miter;stroke-opacity:1" d="M 352.438,996 333.397,996 z" id="boundary" inkscape:connector-curvature="0" />
	<path style="fill:none;stroke:red;stroke-width:1px;stroke-linecap:butt;stroke-linejoin:miter;stroke-opacity:1" d="M 371.478,996 352.438,996 z" id="boundary" inkscape:connector-curvature="0" />
	<path style="fill:none;stroke:red;stroke-width:1px;stroke-linecap:butt;stroke-linejoin:miter;stroke-opacity:1" d="M 405.75,13.5202 388.614,4 z" id="boundary" inkscape:connector-curvature="0" />
	<path style="fill:none;stroke:red;stroke-width:1px;stroke-linecap:butt;stroke-linejoin:miter;stroke-opacity:1" d="M 424.791,13.5202 405.75,13.5202 z" id="boundary" inkscape:connector-curvature="0" />
	<path style="fill:none;stroke:red;stroke-width:1px;stroke-linecap:butt;stroke-linejoin:miter;stroke-opacity:1" d="M 460.967,26.8484 441.927,23.0403 z" id="boundary" inkscape:connector-curvature="0" />
	<path style="fill:none;stroke:red;stroke-width:1px;stroke-linecap:butt;stroke-linejoin:miter;stroke-opacity:1" d="M 441.927,23.0403 424.791,13.5202 z" id="boundary" inkscape:connector-curvature="0" />
	<path style="fill:none;stroke:red;stroke-width:1px;stroke-linecap:butt;stroke-linejoin:miter;stroke-opacity:1" d="M 510.472,57.3129 491.432,51.6008 z" id="boundary" inkscape:connector-curvature="0" />
	<path style="fill:none;stroke:red;stroke-width:1px;stroke-linecap:butt;stroke-linejoin:miter;stroke-opacity:1" d="M 491.432,51.6008 478.104,36.3685 z" id="boundary" inkscape:connector-curvature="0" />
	<path style="fill:none;stroke:red;stroke-width:1px;stroke-linecap:butt;stroke-linejoin:miter;stroke-opacity:1" d="M 510.472,57.3129 523.8,72.5451 z" id="boundary" inkscape:connector-curvature="0" />
	<path style="fill:none;stroke:red;stroke-width:1px;stroke-linecap:butt;stroke-linejoin:miter;stroke-opacity:1" d="M 460.967,26.8484 478.104,36.3685 z" id="boundary" inkscape:connector-curvature="0" />
	<path style="fill:none;stroke:red;stroke-width:1px;stroke-linecap:butt;stroke-linejoin:miter;stroke-opacity:1" d="M 523.8,72.5451 539.033,85.8733 z" id="boundary" inkscape:connector-curvature="0" />
	<path style="fill:none;stroke:red;stroke-width:1px;stroke-linecap:butt;stroke-linejoin:miter;stroke-opacity:1" d="M 539.033,85.8733 552.361,101.106 z" id="boundary" inkscape:connector-curvature="0" />
	<path style="fill:none;stroke:red;stroke-width:1px;stroke-linecap:butt;stroke-linejoin:miter;stroke-opacity:1" d="M 567.593,114.434 552.361,101.106 z" id="boundary" inkscape:connector-curvature="0" />
	<path style="fill:none;stroke:red;stroke-width:1px;stroke-linecap:butt;stroke-linejoin:miter;stroke-opacity:1" d="M 577.113,131.57 567.593,114.434 z" id="boundary" inkscape:connector-curvature="0" />
	<path style="fill:none;stroke:red;stroke-width:1px;stroke-linecap:butt;stroke-linejoin:miter;stroke-opacity:1" d="M 580.921,367.67 577.113,348.63 z" id="boundary" inkscape:connector-curvature="0" />
	<path style="fill:none;stroke:red;stroke-width:1px;stroke-linecap:butt;stroke-linejoin:miter;stroke-opacity:1" d="M 577.113,329.589 586.633,310.549 z" id="boundary" inkscape:connector-curvature="0" />
	<path style="fill:none;stroke:red;stroke-width:1px;stroke-linecap:butt;stroke-linejoin:miter;stroke-opacity:1" d="M 577.113,348.63 577.113,329.589 z" id="boundary" inkscape:connector-curvature="0" />
	<path style="fill:none;stroke:red;stroke-width:1px;stroke-linecap:butt;stroke-linejoin:miter;stroke-opacity:1" d="M 586.633,148.706 596.154,165.843 z" id="boundary" inkscape:connector-curvature="0" />
	<path style="fill:none;stroke:red;stroke-width:1px;stroke-linecap:butt;stroke-linejoin:miter;stroke-opacity:1" d="M 596.154,165.843 596.154,184.883 z" id="boundary" inkscape:connector-curvature="0" />
	<path style="fill:none;stroke:red;stroke-width:1px;stroke-linecap:butt;stroke-linejoin:miter;stroke-opacity:1" d="M 605.674,202.019 596.154,184.883 z" id="boundary" inkscape:connector-curvature="0" />
	<path style="fill:none;stroke:red;stroke-width:1px;stroke-linecap:butt;stroke-linejoin:miter;stroke-opacity:1" d="M 624.714,209.635 605.674,202.019 z" id="boundary" inkscape:connector-curvature="0" />
	<path style="fill:none;stroke:red;stroke-width:1px;stroke-linecap:butt;stroke-linejoin:miter;stroke-opacity:1" d="M 596.154,291.509 586.633,310.549 z" id="boundary" inkscape:connector-curvature="0" />
	<path style="fill:none;stroke:red;stroke-width:1px;stroke-linecap:butt;stroke-linejoin:miter;stroke-opacity:1" d="M 577.113,131.57 586.633,148.706 z" id="boundary" inkscape:connector-curvature="0" />
	<path style="fill:none;stroke:red;stroke-width:1px;stroke-linecap:butt;stroke-linejoin:miter;stroke-opacity:1" d="M 596.154,291.509 615.194,291.509 z" id="boundary" inkscape:connector-curvature="0" />
	<path style="fill:none;stroke:red;stroke-width:1px;stroke-linecap:butt;stroke-linejoin:miter;stroke-opacity:1" d="M 639.946,222.964 624.714,209.635 z" id="boundary" inkscape:connector-curvature="0" />
	<path style="fill:none;stroke:red;stroke-width:1px;stroke-linecap:butt;stroke-linejoin:miter;stroke-opacity:1" d="M 657.083,232.484 639.946,222.964 z" id="boundary" inkscape:connector-curvature="0" />
	<path style="fill:none;stroke:red;stroke-width:1px;stroke-linecap:butt;stroke-linejoin:miter;stroke-opacity:1" d="M 634.234,291.509 615.194,291.509 z" id="boundary" inkscape:connector-curvature="0" />
	<path style="fill:none;stroke:red;stroke-width:1px;stroke-linecap:butt;stroke-linejoin:miter;stroke-opacity:1" d="M 653.274,295.317 634.234,291.509 z" id="boundary" inkscape:connector-curvature="0" />
	<path style="fill:none;stroke:red;stroke-width:1px;stroke-linecap:butt;stroke-linejoin:miter;stroke-opacity:1" d="M 710.395,251.524 691.355,251.524 z" id="boundary" inkscape:connector-curvature="0" />
	<path style="fill:none;stroke:red;stroke-width:1px;stroke-linecap:butt;stroke-linejoin:miter;stroke-opacity:1" d="M 691.355,251.524 674.219,242.004 z" id="boundary" inkscape:connector-curvature="0" />
	<path style="fill:none;stroke:red;stroke-width:1px;stroke-linecap:butt;stroke-linejoin:miter;stroke-opacity:1" d="M 674.219,242.004 657.083,232.484 z" id="boundary" inkscape:connector-curvature="0" />
	<path style="fill:none;stroke:red;stroke-width:1px;stroke-linecap:butt;stroke-linejoin:miter;stroke-opacity:1" d="M 710.395,251.524 725.628,262.948 z" id="boundary" inkscape:connector-curvature="0" />
	<path style="fill:none;stroke:red;stroke-width:1px;stroke-linecap:butt;stroke-linejoin:miter;stroke-opacity:1" d="M 725.628,262.948 742.764,272.468 z" id="boundary" inkscape:connector-curvature="0" />
	<path style="fill:none;stroke:red;stroke-width:1px;stroke-linecap:butt;stroke-linejoin:miter;stroke-opacity:1" d="M 757.996,285.797 742.764,272.468 z" id="boundary" inkscape:connector-curvature="0" />
	<path style="fill:none;stroke:red;stroke-width:1px;stroke-linecap:butt;stroke-linejoin:miter;stroke-opacity:1" d="M 653.274,295.317 672.315,295.317 z" id="boundary" inkscape:connector-curvature="0" />
	<path style="fill:none;stroke:red;stroke-width:1px;stroke-linecap:butt;stroke-linejoin:miter;stroke-opacity:1" d="M 672.315,295.317 685.643,310.549 z" id="boundary" inkscape:connector-curvature="0" />
	<path style="fill:none;stroke:red;stroke-width:1px;stroke-linecap:butt;stroke-linejoin:miter;stroke-opacity:1" d="M 685.643,310.549 700.875,323.877 z" id="boundary" inkscape:connector-curvature="0" />
	<path style="fill:none;stroke:red;stroke-width:1px;stroke-linecap:butt;stroke-linejoin:miter;stroke-opacity:1" d="M 714.203,339.109 700.875,323.877 z" id="boundary" inkscape:connector-curvature="0" />
	<path style="fill:none;stroke:red;stroke-width:1px;stroke-linecap:butt;stroke-linejoin:miter;stroke-opacity:1" d="M 765.612,304.837 780.845,318.165 z" id="boundary" inkscape:connector-curvature="0" />
	<path style="fill:none;stroke:red;stroke-width:1px;stroke-linecap:butt;stroke-linejoin:miter;stroke-opacity:1" d="M 765.612,304.837 757.996,285.797 z" id="boundary" inkscape:connector-curvature="0" />
	<path style="fill:none;stroke:red;stroke-width:1px;stroke-linecap:butt;stroke-linejoin:miter;stroke-opacity:1" d="M 794.173,333.397 780.845,318.165 z" id="boundary" inkscape:connector-curvature="0" />
	<path style="fill:none;stroke:red;stroke-width:1px;stroke-linecap:butt;stroke-linejoin:miter;stroke-opacity:1" d="M 742.764,367.67 729.436,352.438 z" id="boundary" inkscape:connector-curvature="0" />
	<path style="fill:none;stroke:red;stroke-width:1px;stroke-linecap:butt;stroke-linejoin:miter;stroke-opacity:1" d="M 794.173,333.397 803.693,350.534 z" id="boundary" inkscape:connector-curvature="0" />
	<path style="fill:none;stroke:red;stroke-width:1px;stroke-linecap:butt;stroke-linejoin:miter;stroke-opacity:1" d="M 815.117,365.766 803.693,350.534 z" id="boundary" inkscape:connector-curvature="0" />
	<path style="fill:none;stroke:red;stroke-width:1px;stroke-linecap:butt;stroke-linejoin:miter;stroke-opacity:1" d="M 714.203,339.109 729.436,352.438 z" id="boundary" inkscape:connector-curvature="0" />
	<path style="fill:none;stroke:red;stroke-width:1px;stroke-linecap:butt;stroke-linejoin:miter;stroke-opacity:1" d="M 590.441,384.806 580.921,367.67 z" id="boundary" inkscape:connector-curvature="0" />
	<path style="fill:none;stroke:red;stroke-width:1px;stroke-linecap:butt;stroke-linejoin:miter;stroke-opacity:1" d="M 586.633,786.557 586.633,805.597 z" id="boundary" inkscape:connector-curvature="0" />
	<path style="fill:none;stroke:red;stroke-width:1px;stroke-linecap:butt;stroke-linejoin:miter;stroke-opacity:1" d="M 586.633,786.557 596.154,767.516 z" id="boundary" inkscape:connector-curvature="0" />
	<path style="fill:none;stroke:red;stroke-width:1px;stroke-linecap:butt;stroke-linejoin:miter;stroke-opacity:1" d="M 558.073,900.798 567.593,881.758 z" id="boundary" inkscape:connector-curvature="0" />
	<path style="fill:none;stroke:red;stroke-width:1px;stroke-linecap:butt;stroke-linejoin:miter;stroke-opacity:1" d="M 567.593,881.758 582.825,868.43 z" id="boundary" inkscape:connector-curvature="0" />
	<path style="fill:none;stroke:red;stroke-width:1px;stroke-linecap:butt;stroke-linejoin:miter;stroke-opacity:1" d="M 586.633,843.678 582.825,868.43 z" id="boundary" inkscape:connector-curvature="0" />
	<path style="fill:none;stroke:red;stroke-width:1px;stroke-linecap:butt;stroke-linejoin:miter;stroke-opacity:1" d="M 544.745,925.551 558.073,900.798 z" id="boundary" inkscape:connector-curvature="0" />
	<path style="fill:none;stroke:red;stroke-width:1px;stroke-linecap:butt;stroke-linejoin:miter;stroke-opacity:1" d="M 586.633,805.597 586.633,824.637 z" id="boundary" inkscape:connector-curvature="0" />
	<path style="fill:none;stroke:red;stroke-width:1px;stroke-linecap:butt;stroke-linejoin:miter;stroke-opacity:1" d="M 596.154,403.846 590.441,384.806 z" id="boundary" inkscape:connector-curvature="0" />
	<path style="fill:none;stroke:red;stroke-width:1px;stroke-linecap:butt;stroke-linejoin:miter;stroke-opacity:1" d="M 596.154,748.476 596.154,767.516 z" id="boundary" inkscape:connector-curvature="0" />
	<path style="fill:none;stroke:red;stroke-width:1px;stroke-linecap:butt;stroke-linejoin:miter;stroke-opacity:1" d="M 586.633,843.678 586.633,824.637 z" id="boundary" inkscape:connector-curvature="0" />
	<path style="fill:none;stroke:red;stroke-width:1px;stroke-linecap:butt;stroke-linejoin:miter;stroke-opacity:1" d="M 596.154,748.476 605.674,729.436 z" id="boundary" inkscape:connector-curvature="0" />
	<path style="fill:none;stroke:red;stroke-width:1px;stroke-linecap:butt;stroke-linejoin:miter;stroke-opacity:1" d="M 390.518,996 371.478,996 z" id="boundary" inkscape:connector-curvature="0" />
	<path style="fill:none;stroke:red;stroke-width:1px;stroke-linecap:butt;stroke-linejoin:miter;stroke-opacity:1" d="M 409.559,996 390.518,996 z" id="boundary" inkscape:connector-curvature="0" />
	<path style="fill:none;stroke:red;stroke-width:1px;stroke-linecap:butt;stroke-linejoin:miter;stroke-opacity:1" d="M 428.599,996 409.559,996 z" id="boundary" inkscape:connector-curvature="0" />
	<path style="fill:none;stroke:red;stroke-width:1px;stroke-linecap:butt;stroke-linejoin:miter;stroke-opacity:1" d="M 445.735,986.48 428.599,996 z" id="boundary" inkscape:connector-curvature="0" />
	<path style="fill:none;stroke:red;stroke-width:1px;stroke-linecap:butt;stroke-linejoin:miter;stroke-opacity:1" d="M 445.735,986.48 464.775,986.48 z" id="boundary" inkscape:connector-curvature="0" />
	<path style="fill:none;stroke:red;stroke-width:1px;stroke-linecap:butt;stroke-linejoin:miter;stroke-opacity:1" d="M 516.184,954.111 529.512,938.879 z" id="boundary" inkscape:connector-curvature="0" />
	<path style="fill:none;stroke:red;stroke-width:1px;stroke-linecap:butt;stroke-linejoin:miter;stroke-opacity:1" d="M 529.512,938.879 544.745,925.551 z" id="boundary" inkscape:connector-curvature="0" />
	<path style="fill:none;stroke:red;stroke-width:1px;stroke-linecap:butt;stroke-linejoin:miter;stroke-opacity:1" d="M 516.184,954.111 497.144,963.631 z" id="boundary" inkscape:connector-curvature="0" />
	<path style="fill:none;stroke:red;stroke-width:1px;stroke-linecap:butt;stroke-linejoin:miter;stroke-opacity:1" d="M 481.912,976.96 464.775,986.48 z" id="boundary" inkscape:connector-curvature="0" />
	<path style="fill:none;stroke:red;stroke-width:1px;stroke-linecap:butt;stroke-linejoin:miter;stroke-opacity:1" d="M 497.144,963.631 481.912,976.96 z" id="boundary" inkscape:connector-curvature="0" />
	<path style="fill:none;stroke:red;stroke-width:1px;stroke-linecap:butt;stroke-linejoin:miter;stroke-opacity:1" d="M 605.674,420.983 615.194,438.119 z" id="boundary" inkscape:connector-curvature="0" />
	<path style="fill:none;stroke:red;stroke-width:1px;stroke-linecap:butt;stroke-linejoin:miter;stroke-opacity:1" d="M 634.234,499.048 624.714,481.912 z" id="boundary" inkscape:connector-curvature="0" />
	<path style="fill:none;stroke:red;stroke-width:1px;stroke-linecap:butt;stroke-linejoin:miter;stroke-opacity:1" d="M 624.714,481.912 624.714,455.255 z" id="boundary" inkscape:connector-curvature="0" />
	<path style="fill:none;stroke:red;stroke-width:1px;stroke-linecap:butt;stroke-linejoin:miter;stroke-opacity:1" d="M 634.234,499.048 634.234,518.088 z" id="boundary" inkscape:connector-curvature="0" />
	<path style="fill:none;stroke:red;stroke-width:1px;stroke-linecap:butt;stroke-linejoin:miter;stroke-opacity:1" d="M 615.194,438.119 624.714,455.255 z" id="boundary" inkscape:connector-curvature="0" />
	<path style="fill:none;stroke:red;stroke-width:1px;stroke-linecap:butt;stroke-linejoin:miter;stroke-opacity:1" d="M 759.9,377.19 742.764,367.67 z" id="boundary" inkscape:connector-curvature="0" />
	<path style="fill:none;stroke:red;stroke-width:1px;stroke-linecap:butt;stroke-linejoin:miter;stroke-opacity:1" d="M 815.117,365.766 824.637,382.902 z" id="boundary" inkscape:connector-curvature="0" />
	<path style="fill:none;stroke:red;stroke-width:1px;stroke-linecap:butt;stroke-linejoin:miter;stroke-opacity:1" d="M 775.132,388.614 759.9,377.19 z" id="boundary" inkscape:connector-curvature="0" />
	<path style="fill:none;stroke:red;stroke-width:1px;stroke-linecap:butt;stroke-linejoin:miter;stroke-opacity:1" d="M 794.173,396.23 775.132,388.614 z" id="boundary" inkscape:connector-curvature="0" />
	<path style="fill:none;stroke:red;stroke-width:1px;stroke-linecap:butt;stroke-linejoin:miter;stroke-opacity:1" d="M 824.637,382.902 813.213,400.038 z" id="boundary" inkscape:connector-curvature="0" />
	<path style="fill:none;stroke:red;stroke-width:1px;stroke-linecap:butt;stroke-linejoin:miter;stroke-opacity:1" d="M 813.213,400.038 794.173,396.23 z" id="boundary" inkscape:connector-curvature="0" />
	<path style="fill:none;stroke:red;stroke-width:1px;stroke-linecap:butt;stroke-linejoin:miter;stroke-opacity:1" d="M 605.674,420.983 596.154,403.846 z" id="boundary" inkscape:connector-curvature="0" />
	<path style="fill:none;stroke:red;stroke-width:1px;stroke-linecap:butt;stroke-linejoin:miter;stroke-opacity:1" d="M 624.714,634.234 624.714,653.274 z" id="boundary" inkscape:connector-curvature="0" />
	<path style="fill:none;stroke:red;stroke-width:1px;stroke-linecap:butt;stroke-linejoin:miter;stroke-opacity:1" d="M 624.714,634.234 634.234,613.29 z" id="boundary" inkscape:connector-curvature="0" />
	<path style="fill:none;stroke:red;stroke-width:1px;stroke-linecap:butt;stroke-linejoin:miter;stroke-opacity:1" d="M 624.714,672.315 624.714,653.274 z" id="boundary" inkscape:connector-curvature="0" />
	<path style="fill:none;stroke:red;stroke-width:1px;stroke-linecap:butt;stroke-linejoin:miter;stroke-opacity:1" d="M 624.714,672.315 615.194,691.355 z" id="boundary" inkscape:connector-curvature="0" />
	<path style="fill:none;stroke:red;stroke-width:1px;stroke-linecap:butt;stroke-linejoin:miter;stroke-opacity:1" d="M 615.194,691.355 615.194,710.395 z" id="boundary" inkscape:connector-curvature="0" />
	<path style="fill:none;stroke:red;stroke-width:1px;stroke-linecap:butt;stroke-linejoin:miter;stroke-opacity:1" d="M 615.194,710.395 605.674,729.436 z" id="boundary" inkscape:connector-curvature="0" />
	<path style="fill:none;stroke:red;stroke-width:1px;stroke-linecap:butt;stroke-linejoin:miter;stroke-opacity:1" d="M 634.234,537.129 634.234,556.169 z" id="boundary" inkscape:connector-curvature="0" />
	<path style="fill:none;stroke:red;stroke-width:1px;stroke-linecap:butt;stroke-linejoin:miter;stroke-opacity:1" d="M 634.234,537.129 634.234,518.088 z" id="boundary" inkscape:connector-curvature="0" />
	<path style="fill:none;stroke:red;stroke-width:1px;stroke-linecap:butt;stroke-linejoin:miter;stroke-opacity:1" d="M 634.234,575.209 634.234,594.25 z" id="boundary" inkscape:connector-curvature="0" />
	<path style="fill:none;stroke:red;stroke-width:1px;stroke-linecap:butt;stroke-linejoin:miter;stroke-opacity:1" d="M 634.234,613.29 634.234,594.25 z" id="boundary" inkscape:connector-curvature="0" />
	<path style="fill:none;stroke:red;stroke-width:1px;stroke-linecap:butt;stroke-linejoin:miter;stroke-opacity:1" d="M 634.234,575.209 634.234,556.169 z" id="boundary" inkscape:connector-curvature="0" />
	<circle cx="4" cy="219.155" r="4" fill="#0" id="circle0"/>
	<circle cx="13.5202" cy="200.115" r="4" fill="#0" id="circle1"/>
	<circle cx="13.5202" cy="809.405" r="4" fill="#0" id="circle2"/>
	<circle cx="13.5202" cy="828.445" r="4" fill="#0" id="circle3"/>
	<circle cx="13.5202" cy="847.486" r="4" fill="#0" id="circle4"/>
	<circle cx="13.5202" cy="866.526" r="4" fill="#0" id="circle5"/>
	<circle cx="13.5202" cy="885.566" r="4" fill="#0" id="circle6"/>
	<circle cx="23.0403" cy="224.868" r="4" fill="#0" id="circle7"/>
	<circle cx="23.0403" cy="790.365" r="4" fill="#0" id="circle8"/>
	<circle cx="23.0403" cy="902.702" r="4" fill="#0" id="circle9"/>
	<circle cx="28.7524" cy="184.883" r="4" fill="#0" id="circle10"/>
	<circle cx="32.5605" cy="771.324" r="4" fill="#0" id="circle11"/>
	<circle cx="32.5605" cy="919.839" r="4" fill="#0" id="circle12"/>
	<circle cx="42.0806" cy="224.868" r="4" fill="#0" id="circle13"/>
	<circle cx="43.9846" cy="169.651" r="4" fill="#0" id="circle14"/>
	<circle cx="47.7927" cy="756.092" r="4" fill="#0" id="circle15"/>
	<circle cx="49.6967" cy="929.359" r="4" fill="#0" id="circle16"/>
	<circle cx="57.3129" cy="737.052" r="4" fill="#0" id="circle17"/>
	<circle cx="59.2169" cy="156.322" r="4" fill="#0" id="circle18"/>
	<circle cx="59.2169" cy="215.347" r="4" fill="#0" id="circle19"/>
	<circle cx="66.833" cy="718.012" r="4" fill="#0" id="circle20"/>
	<circle cx="68.737" cy="929.359" r="4" fill="#0" id="circle21"/>
	<circle cx="76.3532" cy="146.802" r="4" fill="#0" id="circle22"/>
	<circle cx="76.3532" cy="205.827" r="4" fill="#0" id="circle23"/>
	<circle cx="80.1612" cy="428.599" r="4" fill="#0" id="circle24"/>
	<circle cx="80.1612" cy="695.163" r="4" fill="#0" id="circle25"/>
	<circle cx="87.7774" cy="925.551" r="4" fill="#0" id="circle26"/>
	<circle cx="89.6814" cy="352.438" r="4" fill="#0" id="circle27"/>
	<circle cx="89.6814" cy="380.998" r="4" fill="#0" id="circle28"/>
	<circle cx="89.6814" cy="400.038" r="4" fill="#0" id="circle29"/>
	<circle cx="93.4894" cy="196.307" r="4" fill="#0" id="circle30"/>
	<circle cx="95.3935" cy="146.802" r="4" fill="#0" id="circle31"/>
	<circle cx="95.3935" cy="441.927" r="4" fill="#0" id="circle32"/>
	<circle cx="95.3935" cy="679.931" r="4" fill="#0" id="circle33"/>
	<circle cx="99.2015" cy="304.837" r="4" fill="#0" id="circle34"/>
	<circle cx="99.2015" cy="323.877" r="4" fill="#0" id="circle35"/>
	<circle cx="104.914" cy="660.891" r="4" fill="#0" id="circle36"/>
	<circle cx="106.818" cy="916.031" r="4" fill="#0" id="circle37"/>
	<circle cx="108.722" cy="504.76" r="4" fill="#0" id="circle38"/>
	<circle cx="108.722" cy="523.8" r="4" fill="#0" id="circle39"/>
	<circle cx="108.722" cy="552.361" r="4" fill="#0" id="circle40"/>
	<circle cx="108.722" cy="571.401" r="4" fill="#0" id="circle41"/>
	<circle cx="108.722" cy="590.441" r="4" fill="#0" id="circle42"/>
	<circle cx="108.722" cy="619.002" r="4" fill="#0" id="circle43"/>
	<circle cx="110.626" cy="186.787" r="4" fill="#0" id="circle44"/>
	<circle cx="112.53" cy="137.282" r="4" fill="#0" id="circle45"/>
	<circle cx="112.53" cy="451.447" r="4" fill="#0" id="circle46"/>
	<circle cx="114.434" cy="289.605" r="4" fill="#0" id="circle47"/>
	<circle cx="114.434" cy="641.85" r="4" fill="#0" id="circle48"/>
	<circle cx="118.242" cy="485.72" r="4" fill="#0" id="circle49"/>
	<circle cx="125.858" cy="906.511" r="4" fill="#0" id="circle50"/>
	<circle cx="127.762" cy="462.871" r="4" fill="#0" id="circle51"/>
	<circle cx="129.666" cy="186.787" r="4" fill="#0" id="circle52"/>
	<circle cx="129.666" cy="274.372" r="4" fill="#0" id="circle53"/>
	<circle cx="131.57" cy="137.282" r="4" fill="#0" id="circle54"/>
	<circle cx="137.282" cy="891.278" r="4" fill="#0" id="circle55"/>
	<circle cx="144.898" cy="261.044" r="4" fill="#0" id="circle56"/>
	<circle cx="146.802" cy="196.307" r="4" fill="#0" id="circle57"/>
	<circle cx="146.802" cy="215.347" r="4" fill="#0" id="circle58"/>
	<circle cx="146.802" cy="234.388" r="4" fill="#0" id="circle59"/>
	<circle cx="150.61" cy="137.282" r="4" fill="#0" id="circle60"/>
	<circle cx="152.514" cy="879.854" r="4" fill="#0" id="circle61"/>
	<circle cx="167.747" cy="127.762" r="4" fill="#0" id="circle62"/>
	<circle cx="171.555" cy="872.238" r="4" fill="#0" id="circle63"/>
	<circle cx="181.075" cy="889.374" r="4" fill="#0" id="circle64"/>
	<circle cx="184.883" cy="114.434" r="4" fill="#0" id="circle65"/>
	<circle cx="188.691" cy="908.415" r="4" fill="#0" id="circle66"/>
	<circle cx="194.403" cy="95.3935" r="4" fill="#0" id="circle67"/>
	<circle cx="203.923" cy="919.839" r="4" fill="#0" id="circle68"/>
	<circle cx="209.635" cy="80.1612" r="4" fill="#0" id="circle69"/>
	<circle cx="215.347" cy="935.071" r="4" fill="#0" id="circle70"/>
	<circle cx="226.772" cy="70.6411" r="4" fill="#0" id="circle71"/>
	<circle cx="230.58" cy="948.399" r="4" fill="#0" id="circle72"/>
	<circle cx="242.004" cy="57.3129" r="4" fill="#0" id="circle73"/>
	<circle cx="243.908" cy="963.631" r="4" fill="#0" id="circle74"/>
	<circle cx="261.044" cy="47.7927" r="4" fill="#0" id="circle75"/>
	<circle cx="262.948" cy="971.248" r="4" fill="#0" id="circle76"/>
	<circle cx="276.276" cy="32.5605" r="4" fill="#0" id="circle77"/>
	<circle cx="280.084" cy="980.768" r="4" fill="#0" id="circle78"/>
	<circle cx="295.317" cy="23.0403" r="4" fill="#0" id="circle79"/>
	<circle cx="295.317" cy="994.096" r="4" fill="#0" id="circle80"/>
	<circle cx="314.357" cy="23.0403" r="4" fill="#0" id="circle81"/>
	<circle cx="314.357" cy="994.096" r="4" fill="#0" id="circle82"/>
	<circle cx="331.493" cy="13.5202" r="4" fill="#0" id="circle83"/>
	<circle cx="333.397" cy="996" r="4" fill="#0" id="circle84"/>
	<circle cx="350.534" cy="5.90403" r="4" fill="#0" id="circle85"/>
	<circle cx="352.438" cy="996" r="4" fill="#0" id="circle86"/>
	<circle cx="369.574" cy="5.90403" r="4" fill="#0" id="circle87"/>
	<circle cx="371.478" cy="996" r="4" fill="#0" id="circle88"/>
	<circle cx="388.614" cy="4" r="4" fill="#0" id="circle89"/>
	<circle cx="390.518" cy="996" r="4" fill="#0" id="circle90"/>
	<circle cx="405.75" cy="13.5202" r="4" fill="#0" id="circle91"/>
	<circle cx="409.559" cy="996" r="4" fill="#0" id="circle92"/>
	<circle cx="424.791" cy="13.5202" r="4" fill="#0" id="circle93"/>
	<circle cx="428.599" cy="996" r="4" fill="#0" id="circle94"/>
	<circle cx="441.927" cy="23.0403" r="4" fill="#0" id="circle95"/>
	<circle cx="445.735" cy="986.48" r="4" fill="#0" id="circle96"/>
	<circle cx="460.967" cy="26.8484" r="4" fill="#0" id="circle97"/>
	<circle cx="464.775" cy="986.48" r="4" fill="#0" id="circle98"/>
	<circle cx="478.104" cy="36.3685" r="4" fill="#0" id="circle99"/>
	<circle cx="481.912" cy="976.96" r="4" fill="#0" id="circle100"/>
	<circle cx="491.432" cy="51.6008" r="4" fill="#0" id="circle101"/>
	<circle cx="497.144" cy="963.631" r="4" fill="#0" id="circle102"/>
	<circle cx="510.472" cy="57.3129" r="4" fill="#0" id="circle103"/>
	<circle cx="516.184" cy="954.111" r="4" fill="#0" id="circle104"/>
	<circle cx="523.8" cy="72.5451" r="4" fill="#0" id="circle105"/>
	<circle cx="529.512" cy="938.879" r="4" fill="#0" id="circle106"/>
	<circle cx="539.033" cy="85.8733" r="4" fill="#0" id="circle107"/>
	<circle cx="544.745" cy="925.551" r="4" fill="#0" id="circle108"/>
	<circle cx="552.361" cy="101.106" r="4" fill="#0" id="circle109"/>
	<circle cx="558.073" cy="900.798" r="4" fill="#0" id="circle110"/>
	<circle cx="567.593" cy="114.434" r="4" fill="#0" id="circle111"/>
	<circle cx="567.593" cy="881.758" r="4" fill="#0" id="circle112"/>
	<circle cx="577.113" cy="131.57" r="4" fill="#0" id="circle113"/>
	<circle cx="577.113" cy="329.589" r="4" fill="#0" id="circle114"/>
	<circle cx="577.113" cy="348.63" r="4" fill="#0" id="circle115"/>
	<circle cx="580.921" cy="367.67" r="4" fill="#0" id="circle116"/>
	<circle cx="582.825" cy="868.43" r="4" fill="#0" id="circle117"/>
	<circle cx="586.633" cy="148.706" r="4" fill="#0" id="circle118"/>
	<circle cx="586.633" cy="310.549" r="4" fill="#0" id="circle119"/>
	<circle cx="586.633" cy="786.557" r="4" fill="#0" id="circle120"/>
	<circle cx="586.633" cy="805.597" r="4" fill="#0" id="circle121"/>
	<circle cx="586.633" cy="824.637" r="4" fill="#0" id="circle122"/>
	<circle cx="586.633" cy="843.678" r="4" fill="#0" id="circle123"/>
	<circle cx="590.441" cy="384.806" r="4" fill="#0" id="circle124"/>
	<circle cx="596.154" cy="165.843" r="4" fill="#0" id="circle125"/>
	<circle cx="596.154" cy="184.883" r="4" fill="#0" id="circle126"/>
	<circle cx="596.154" cy="291.509" r="4" fill="#0" id="circle127"/>
	<circle cx="596.154" cy="403.846" r="4" fill="#0" id="circle128"/>
	<circle cx="596.154" cy="748.476" r="4" fill="#0" id="circle129"/>
	<circle cx="596.154" cy="767.516" r="4" fill="#0" id="circle130"/>
	<circle cx="605.674" cy="202.019" r="4" fill="#0" id="circle131"/>
	<circle cx="605.674" cy="420.983" r="4" fill="#0" id="circle132"/>
	<circle cx="605.674" cy="729.436" r="4" fill="#0" id="circle133"/>
	<circle cx="615.194" cy="291.509" r="4" fill="#0" id="circle134"/>
	<circle cx="615.194" cy="438.119" r="4" fill="#0" id="circle135"/>
	<circle cx="615.194" cy="691.355" r="4" fill="#0" id="circle136"/>
	<circle cx="615.194" cy="710.395" r="4" fill="#0" id="circle137"/>
	<circle cx="624.714" cy="209.635" r="4" fill="#0" id="circle138"/>
	<circle cx="624.714" cy="455.255" r="4" fill="#0" id="circle139"/>
	<circle cx="624.714" cy="481.912" r="4" fill="#0" id="circle140"/>
	<circle cx="624.714" cy="634.234" r="4" fill="#0" id="circle141"/>
	<circle cx="624.714" cy="653.274" r="4" fill="#0" id="circle142"/>
	<circle cx="624.714" cy="672.315" r="4" fill="#0" id="circle143"/>
	<circle cx="634.234" cy="291.509" r="4" fill="#0" id="circle144"/>
	<circle cx="634.234" cy="499.048" r="4" fill="#0" id="circle145"/>
	<circle cx="634.234" cy="518.088" r="4" fill="#0" id="circle146"/>
	<circle cx="634.234" cy="537.129" r="4" fill="#0" id="circle147"/>
	<circle cx="634.234" cy="556.169" r="4" fill="#0" id="circle148"/>
	<circle cx="634.234" cy="575.209" r="4" fill="#0" id="circle149"/>
	<circle cx="634.234" cy="594.25" r="4" fill="#0" id="circle150"/>
	<circle cx="634.234" cy="613.29" r="4" fill="#0" id="circle151"/>
	<circle cx="639.946" cy="222.964" r="4" fill="#0" id="circle152"/>
	<circle cx="653.274" cy="295.317" r="4" fill="#0" id="circle153"/>
	<circle cx="657.083" cy="232.484" r="4" fill="#0" id="circle154"/>
	<circle cx="672.315" cy="295.317" r="4" fill="#0" id="circle155"/>
	<circle cx="674.219" cy="242.004" r="4" fill="#0" id="circle156"/>
	<circle cx="685.643" cy="310.549" r="4" fill="#0" id="circle157"/>
	<circle cx="691.355" cy="251.524" r="4" fill="#0" id="circle158"/>
	<circle cx="700.875" cy="323.877" r="4" fill="#0" id="circle159"/>
	<circle cx="710.395" cy="251.524" r="4" fill="#0" id="circle160"/>
	<circle cx="714.203" cy="339.109" r="4" fill="#0" id="circle161"/>
	<circle cx="725.628" cy="262.948" r="4" fill="#0" id="circle162"/>
	<circle cx="729.436" cy="352.438" r="4" fill="#0" id="circle163"/>
	<circle cx="742.764" cy="272.468" r="4" fill="#0" id="circle164"/>
	<circle cx="742.764" cy="367.67" r="4" fill="#0" id="circle165"/>
	<circle cx="757.996" cy="285.797" r="4" fill="#0" id="circle166"/>
	<circle cx="759.9" cy="377.19" r="4" fill="#0" id="circle167"/>
	<circle cx="765.612" cy="304.837" r="4" fill="#0" id="circle168"/>
	<circle cx="775.132" cy="388.614" r="4" fill="#0" id="circle169"/>
	<circle cx="780.845" cy="318.165" r="4" fill="#0" id="circle170"/>
	<circle cx="794.173" cy="333.397" r="4" fill="#0" id="circle171"/>
	<circle cx="794.173" cy="396.23" r="4" fill="#0" id="circle172"/>
	<circle cx="803.693" cy="350.534" r="4" fill="#0" id="circle173"/>
	<circle cx="813.213" cy="400.038" r="4" fill="#0" id="circle174"/>
	<circle cx="815.117" cy="365.766" r="4" fill="#0" id="circle175"/>
	<circle cx="824.637" cy="382.902" r="4" fill="#0" id="circle176"/>
	</g>
</svg>