<?xml version="1.0" encoding="UTF-8" standalone="no"?>
<!-- Created with CurveBenchmark -->
<svg
	xmlns:dc="http://purl.org/dc/elements/1.1/"
	xmlns:cc="http://creativecommons.org/ns#"
	xmlns:rdf="http://www.w3.org/1999/02/22-rdf-syntax-ns#"
	xmlns:svg="http://www.w3.org/2000/svg"
	xmlns="http://www.w3.org/2000/svg"
	xmlns:sodipodi="http://sodipodi.sourceforge.net/DTD/sodipodi-0.dtd"
	xmlns:inkscape="http://www.inkscape.org/namespaces/inkscape"
	width="1000"
	height="1000"
	id="svg2"
	version="1.1"
	sodipodi:docname="manifold/gathang-pencil-3.png.txt">
<defs
	id="defs4" />
<metadata
	id="metadata7">
	<rdf:RDF>
		<cc:Work
			rdf:about="">
			<dc:format>image/svg+xml</dc:format>
			<dc:type
				rdf:resource="http://purl.org/dc/dcmitype/StillImage" />
			<dc:title></dc:title>
		</cc:Work>
	</rdf:RDF>
</metadata>
<g
	inkscape:label="Layer 1"
	inkscape:groupmode="layer"
	id="layer1">
	<path style="fill:none;stroke:red;stroke-width:1px;stroke-linecap:butt;stroke-linejoin:miter;stroke-opacity:1" d="M 130.118,7.13725 136.392,7.13725 z" id="boundary" inkscape:connector-curvature="0" />
	<path style="fill:none;stroke:red;stroke-width:1px;stroke-linecap:butt;stroke-linejoin:miter;stroke-opacity:1" d="M 123.843,8.39216 130.118,7.13725 z" id="boundary" inkscape:connector-curvature="0" />
	<path style="fill:none;stroke:red;stroke-width:1px;stroke-linecap:butt;stroke-linejoin:miter;stroke-opacity:1" d="M 148.941,7.13725 142.667,7.13725 z" id="boundary" inkscape:connector-curvature="0" />
	<path style="fill:none;stroke:red;stroke-width:1px;stroke-linecap:butt;stroke-linejoin:miter;stroke-opacity:1" d="M 155.216,7.13725 148.941,7.13725 z" id="boundary" inkscape:connector-curvature="0" />
	<path style="fill:none;stroke:red;stroke-width:1px;stroke-linecap:butt;stroke-linejoin:miter;stroke-opacity:1" d="M 142.667,7.13725 136.392,7.13725 z" id="boundary" inkscape:connector-curvature="0" />
	<path style="fill:none;stroke:red;stroke-width:1px;stroke-linecap:butt;stroke-linejoin:miter;stroke-opacity:1" d="M 105.02,10.2745 111.294,10.2745 z" id="boundary" inkscape:connector-curvature="0" />
	<path style="fill:none;stroke:red;stroke-width:1px;stroke-linecap:butt;stroke-linejoin:miter;stroke-opacity:1" d="M 98.7451,11.5294 105.02,10.2745 z" id="boundary" inkscape:connector-curvature="0" />
	<path style="fill:none;stroke:red;stroke-width:1px;stroke-linecap:butt;stroke-linejoin:miter;stroke-opacity:1" d="M 117.569,10.2745 123.843,8.39216 z" id="boundary" inkscape:connector-curvature="0" />
	<path style="fill:none;stroke:red;stroke-width:1px;stroke-linecap:butt;stroke-linejoin:miter;stroke-opacity:1" d="M 117.569,10.2745 111.294,10.2745 z" id="boundary" inkscape:connector-curvature="0" />
	<path style="fill:none;stroke:red;stroke-width:1px;stroke-linecap:butt;stroke-linejoin:miter;stroke-opacity:1" d="M 161.49,7.13725 155.216,7.13725 z" id="boundary" inkscape:connector-curvature="0" />
	<path style="fill:none;stroke:red;stroke-width:1px;stroke-linecap:butt;stroke-linejoin:miter;stroke-opacity:1" d="M 174.039,7.13725 167.765,7.13725 z" id="boundary" inkscape:connector-curvature="0" />
	<path style="fill:none;stroke:red;stroke-width:1px;stroke-linecap:butt;stroke-linejoin:miter;stroke-opacity:1" d="M 180.314,7.13725 174.039,7.13725 z" id="boundary" inkscape:connector-curvature="0" />
	<path style="fill:none;stroke:red;stroke-width:1px;stroke-linecap:butt;stroke-linejoin:miter;stroke-opacity:1" d="M 205.412,4 199.137,5.2549 z" id="boundary" inkscape:connector-curvature="0" />
	<path style="fill:none;stroke:red;stroke-width:1px;stroke-linecap:butt;stroke-linejoin:miter;stroke-opacity:1" d="M 205.412,4 211.059,7.13725 z" id="boundary" inkscape:connector-curvature="0" />
	<path style="fill:none;stroke:red;stroke-width:1px;stroke-linecap:butt;stroke-linejoin:miter;stroke-opacity:1" d="M 186.588,7.13725 180.314,7.13725 z" id="boundary" inkscape:connector-curvature="0" />
	<path style="fill:none;stroke:red;stroke-width:1px;stroke-linecap:butt;stroke-linejoin:miter;stroke-opacity:1" d="M 167.765,7.13725 161.49,7.13725 z" id="boundary" inkscape:connector-curvature="0" />
	<path style="fill:none;stroke:red;stroke-width:1px;stroke-linecap:butt;stroke-linejoin:miter;stroke-opacity:1" d="M 192.863,7.13725 186.588,7.13725 z" id="boundary" inkscape:connector-curvature="0" />
	<path style="fill:none;stroke:red;stroke-width:1px;stroke-linecap:butt;stroke-linejoin:miter;stroke-opacity:1" d="M 199.137,5.2549 192.863,7.13725 z" id="boundary" inkscape:connector-curvature="0" />
	<path style="fill:none;stroke:red;stroke-width:1px;stroke-linecap:butt;stroke-linejoin:miter;stroke-opacity:1" d="M 223.608,7.13725 217.333,7.13725 z" id="boundary" inkscape:connector-curvature="0" />
	<path style="fill:none;stroke:red;stroke-width:1px;stroke-linecap:butt;stroke-linejoin:miter;stroke-opacity:1" d="M 229.882,7.13725 223.608,7.13725 z" id="boundary" inkscape:connector-curvature="0" />
	<path style="fill:none;stroke:red;stroke-width:1px;stroke-linecap:butt;stroke-linejoin:miter;stroke-opacity:1" d="M 211.059,7.13725 217.333,7.13725 z" id="boundary" inkscape:connector-curvature="0" />
	<path style="fill:none;stroke:red;stroke-width:1px;stroke-linecap:butt;stroke-linejoin:miter;stroke-opacity:1" d="M 236.157,7.13725 229.882,7.13725 z" id="boundary" inkscape:connector-curvature="0" />
	<path style="fill:none;stroke:red;stroke-width:1px;stroke-linecap:butt;stroke-linejoin:miter;stroke-opacity:1" d="M 13.4118,65.4902 16.549,59.2157 z" id="boundary" inkscape:connector-curvature="0" />
	<path style="fill:none;stroke:red;stroke-width:1px;stroke-linecap:butt;stroke-linejoin:miter;stroke-opacity:1" d="M 16.549,59.2157 21.5686,54.1961 z" id="boundary" inkscape:connector-curvature="0" />
	<path style="fill:none;stroke:red;stroke-width:1px;stroke-linecap:butt;stroke-linejoin:miter;stroke-opacity:1" d="M 36,39.7647 31.6078,44.7843 z" id="boundary" inkscape:connector-curvature="0" />
	<path style="fill:none;stroke:red;stroke-width:1px;stroke-linecap:butt;stroke-linejoin:miter;stroke-opacity:1" d="M 31.6078,44.7843 26.5882,49.1765 z" id="boundary" inkscape:connector-curvature="0" />
	<path style="fill:none;stroke:red;stroke-width:1px;stroke-linecap:butt;stroke-linejoin:miter;stroke-opacity:1" d="M 21.5686,54.1961 26.5882,49.1765 z" id="boundary" inkscape:connector-curvature="0" />
	<path style="fill:none;stroke:red;stroke-width:1px;stroke-linecap:butt;stroke-linejoin:miter;stroke-opacity:1" d="M 4,96.8627 4,90.5882 z" id="boundary" inkscape:connector-curvature="0" />
	<path style="fill:none;stroke:red;stroke-width:1px;stroke-linecap:butt;stroke-linejoin:miter;stroke-opacity:1" d="M 4,90.5882 7.13725,81.1765 z" id="boundary" inkscape:connector-curvature="0" />
	<path style="fill:none;stroke:red;stroke-width:1px;stroke-linecap:butt;stroke-linejoin:miter;stroke-opacity:1" d="M 7.13725,81.1765 10.2745,71.7647 z" id="boundary" inkscape:connector-curvature="0" />
	<path style="fill:none;stroke:red;stroke-width:1px;stroke-linecap:butt;stroke-linejoin:miter;stroke-opacity:1" d="M 10.2745,71.7647 13.4118,65.4902 z" id="boundary" inkscape:connector-curvature="0" />
	<path style="fill:none;stroke:red;stroke-width:1px;stroke-linecap:butt;stroke-linejoin:miter;stroke-opacity:1" d="M 36,39.7647 41.0196,35.3725 z" id="boundary" inkscape:connector-curvature="0" />
	<path style="fill:none;stroke:red;stroke-width:1px;stroke-linecap:butt;stroke-linejoin:miter;stroke-opacity:1" d="M 74.2745,16.549 80.549,16.549 z" id="boundary" inkscape:connector-curvature="0" />
	<path style="fill:none;stroke:red;stroke-width:1px;stroke-linecap:butt;stroke-linejoin:miter;stroke-opacity:1" d="M 68.6275,19.6863 74.2745,16.549 z" id="boundary" inkscape:connector-curvature="0" />
	<path style="fill:none;stroke:red;stroke-width:1px;stroke-linecap:butt;stroke-linejoin:miter;stroke-opacity:1" d="M 86.1961,13.4118 80.549,16.549 z" id="boundary" inkscape:connector-curvature="0" />
	<path style="fill:none;stroke:red;stroke-width:1px;stroke-linecap:butt;stroke-linejoin:miter;stroke-opacity:1" d="M 98.7451,11.5294 92.4706,13.4118 z" id="boundary" inkscape:connector-curvature="0" />
	<path style="fill:none;stroke:red;stroke-width:1px;stroke-linecap:butt;stroke-linejoin:miter;stroke-opacity:1" d="M 92.4706,13.4118 86.1961,13.4118 z" id="boundary" inkscape:connector-curvature="0" />
	<path style="fill:none;stroke:red;stroke-width:1px;stroke-linecap:butt;stroke-linejoin:miter;stroke-opacity:1" d="M 41.0196,35.3725 45.4118,30.3529 z" id="boundary" inkscape:connector-curvature="0" />
	<path style="fill:none;stroke:red;stroke-width:1px;stroke-linecap:butt;stroke-linejoin:miter;stroke-opacity:1" d="M 45.4118,30.3529 51.6863,27.2157 z" id="boundary" inkscape:connector-curvature="0" />
	<path style="fill:none;stroke:red;stroke-width:1px;stroke-linecap:butt;stroke-linejoin:miter;stroke-opacity:1" d="M 56.7059,22.8235 51.6863,27.2157 z" id="boundary" inkscape:connector-curvature="0" />
	<path style="fill:none;stroke:red;stroke-width:1px;stroke-linecap:butt;stroke-linejoin:miter;stroke-opacity:1" d="M 68.6275,19.6863 62.9804,22.8235 z" id="boundary" inkscape:connector-curvature="0" />
	<path style="fill:none;stroke:red;stroke-width:1px;stroke-linecap:butt;stroke-linejoin:miter;stroke-opacity:1" d="M 62.9804,22.8235 56.7059,22.8235 z" id="boundary" inkscape:connector-curvature="0" />
	<path style="fill:none;stroke:red;stroke-width:1px;stroke-linecap:butt;stroke-linejoin:miter;stroke-opacity:1" d="M 236.157,7.13725 242.431,7.13725 z" id="boundary" inkscape:connector-curvature="0" />
	<path style="fill:none;stroke:red;stroke-width:1px;stroke-linecap:butt;stroke-linejoin:miter;stroke-opacity:1" d="M 248.706,7.13725 254.98,7.13725 z" id="boundary" inkscape:connector-curvature="0" />
	<path style="fill:none;stroke:red;stroke-width:1px;stroke-linecap:butt;stroke-linejoin:miter;stroke-opacity:1" d="M 261.255,7.13725 254.98,7.13725 z" id="boundary" inkscape:connector-curvature="0" />
	<path style="fill:none;stroke:red;stroke-width:1px;stroke-linecap:butt;stroke-linejoin:miter;stroke-opacity:1" d="M 248.706,7.13725 242.431,7.13725 z" id="boundary" inkscape:connector-curvature="0" />
	<path style="fill:none;stroke:red;stroke-width:1px;stroke-linecap:butt;stroke-linejoin:miter;stroke-opacity:1" d="M 267.529,7.13725 273.804,7.13725 z" id="boundary" inkscape:connector-curvature="0" />
	<path style="fill:none;stroke:red;stroke-width:1px;stroke-linecap:butt;stroke-linejoin:miter;stroke-opacity:1" d="M 280.078,7.13725 286.353,7.13725 z" id="boundary" inkscape:connector-curvature="0" />
	<path style="fill:none;stroke:red;stroke-width:1px;stroke-linecap:butt;stroke-linejoin:miter;stroke-opacity:1" d="M 292.627,7.13725 286.353,7.13725 z" id="boundary" inkscape:connector-curvature="0" />
	<path style="fill:none;stroke:red;stroke-width:1px;stroke-linecap:butt;stroke-linejoin:miter;stroke-opacity:1" d="M 280.078,7.13725 273.804,7.13725 z" id="boundary" inkscape:connector-curvature="0" />
	<path style="fill:none;stroke:red;stroke-width:1px;stroke-linecap:butt;stroke-linejoin:miter;stroke-opacity:1" d="M 267.529,7.13725 261.255,7.13725 z" id="boundary" inkscape:connector-curvature="0" />
	<path style="fill:none;stroke:red;stroke-width:1px;stroke-linecap:butt;stroke-linejoin:miter;stroke-opacity:1" d="M 305.176,8.39216 311.451,10.2745 z" id="boundary" inkscape:connector-curvature="0" />
	<path style="fill:none;stroke:red;stroke-width:1px;stroke-linecap:butt;stroke-linejoin:miter;stroke-opacity:1" d="M 305.176,8.39216 298.902,7.13725 z" id="boundary" inkscape:connector-curvature="0" />
	<path style="fill:none;stroke:red;stroke-width:1px;stroke-linecap:butt;stroke-linejoin:miter;stroke-opacity:1" d="M 317.725,11.5294 311.451,10.2745 z" id="boundary" inkscape:connector-curvature="0" />
	<path style="fill:none;stroke:red;stroke-width:1px;stroke-linecap:butt;stroke-linejoin:miter;stroke-opacity:1" d="M 421.255,10.2745 414.98,10.2745 z" id="boundary" inkscape:connector-curvature="0" />
	<path style="fill:none;stroke:red;stroke-width:1px;stroke-linecap:butt;stroke-linejoin:miter;stroke-opacity:1" d="M 408.706,12.1569 414.98,10.2745 z" id="boundary" inkscape:connector-curvature="0" />
	<path style="fill:none;stroke:red;stroke-width:1px;stroke-linecap:butt;stroke-linejoin:miter;stroke-opacity:1" d="M 427.529,10.2745 421.255,10.2745 z" id="boundary" inkscape:connector-curvature="0" />
	<path style="fill:none;stroke:red;stroke-width:1px;stroke-linecap:butt;stroke-linejoin:miter;stroke-opacity:1" d="M 292.627,7.13725 298.902,7.13725 z" id="boundary" inkscape:connector-curvature="0" />
	<path style="fill:none;stroke:red;stroke-width:1px;stroke-linecap:butt;stroke-linejoin:miter;stroke-opacity:1" d="M 433.804,10.2745 427.529,10.2745 z" id="boundary" inkscape:connector-curvature="0" />
	<path style="fill:none;stroke:red;stroke-width:1px;stroke-linecap:butt;stroke-linejoin:miter;stroke-opacity:1" d="M 440.078,10.2745 433.804,10.2745 z" id="boundary" inkscape:connector-curvature="0" />
	<path style="fill:none;stroke:red;stroke-width:1px;stroke-linecap:butt;stroke-linejoin:miter;stroke-opacity:1" d="M 440.078,10.2745 446.353,10.2745 z" id="boundary" inkscape:connector-curvature="0" />
	<path style="fill:none;stroke:red;stroke-width:1px;stroke-linecap:butt;stroke-linejoin:miter;stroke-opacity:1" d="M 452.627,10.2745 446.353,10.2745 z" id="boundary" inkscape:connector-curvature="0" />
	<path style="fill:none;stroke:red;stroke-width:1px;stroke-linecap:butt;stroke-linejoin:miter;stroke-opacity:1" d="M 458.902,10.2745 452.627,10.2745 z" id="boundary" inkscape:connector-curvature="0" />
	<path style="fill:none;stroke:red;stroke-width:1px;stroke-linecap:butt;stroke-linejoin:miter;stroke-opacity:1" d="M 465.176,10.2745 458.902,10.2745 z" id="boundary" inkscape:connector-curvature="0" />
	<path style="fill:none;stroke:red;stroke-width:1px;stroke-linecap:butt;stroke-linejoin:miter;stroke-opacity:1" d="M 317.725,11.5294 324,13.4118 z" id="boundary" inkscape:connector-curvature="0" />
	<path style="fill:none;stroke:red;stroke-width:1px;stroke-linecap:butt;stroke-linejoin:miter;stroke-opacity:1" d="M 324,13.4118 329.02,17.1765 z" id="boundary" inkscape:connector-curvature="0" />
	<path style="fill:none;stroke:red;stroke-width:1px;stroke-linecap:butt;stroke-linejoin:miter;stroke-opacity:1" d="M 329.02,17.1765 335.294,19.6863 z" id="boundary" inkscape:connector-curvature="0" />
	<path style="fill:none;stroke:red;stroke-width:1px;stroke-linecap:butt;stroke-linejoin:miter;stroke-opacity:1" d="M 335.294,19.6863 339.686,24.7059 z" id="boundary" inkscape:connector-curvature="0" />
	<path style="fill:none;stroke:red;stroke-width:1px;stroke-linecap:butt;stroke-linejoin:miter;stroke-opacity:1" d="M 339.686,24.7059 344.706,29.098 z" id="boundary" inkscape:connector-curvature="0" />
	<path style="fill:none;stroke:red;stroke-width:1px;stroke-linecap:butt;stroke-linejoin:miter;stroke-opacity:1" d="M 350.353,32.2353 344.706,29.098 z" id="boundary" inkscape:connector-curvature="0" />
	<path style="fill:none;stroke:red;stroke-width:1px;stroke-linecap:butt;stroke-linejoin:miter;stroke-opacity:1" d="M 367.922,32.2353 362.275,35.3725 z" id="boundary" inkscape:connector-curvature="0" />
	<path style="fill:none;stroke:red;stroke-width:1px;stroke-linecap:butt;stroke-linejoin:miter;stroke-opacity:1" d="M 362.275,35.3725 356,35.3725 z" id="boundary" inkscape:connector-curvature="0" />
	<path style="fill:none;stroke:red;stroke-width:1px;stroke-linecap:butt;stroke-linejoin:miter;stroke-opacity:1" d="M 356,35.3725 350.353,32.2353 z" id="boundary" inkscape:connector-curvature="0" />
	<path style="fill:none;stroke:red;stroke-width:1px;stroke-linecap:butt;stroke-linejoin:miter;stroke-opacity:1" d="M 367.922,32.2353 374.196,30.9804 z" id="boundary" inkscape:connector-curvature="0" />
	<path style="fill:none;stroke:red;stroke-width:1px;stroke-linecap:butt;stroke-linejoin:miter;stroke-opacity:1" d="M 408.706,12.1569 402.431,13.4118 z" id="boundary" inkscape:connector-curvature="0" />
	<path style="fill:none;stroke:red;stroke-width:1px;stroke-linecap:butt;stroke-linejoin:miter;stroke-opacity:1" d="M 477.725,10.2745 471.451,10.2745 z" id="boundary" inkscape:connector-curvature="0" />
	<path style="fill:none;stroke:red;stroke-width:1px;stroke-linecap:butt;stroke-linejoin:miter;stroke-opacity:1" d="M 484,10.2745 477.725,10.2745 z" id="boundary" inkscape:connector-curvature="0" />
	<path style="fill:none;stroke:red;stroke-width:1px;stroke-linecap:butt;stroke-linejoin:miter;stroke-opacity:1" d="M 465.176,10.2745 471.451,10.2745 z" id="boundary" inkscape:connector-curvature="0" />
	<path style="fill:none;stroke:red;stroke-width:1px;stroke-linecap:butt;stroke-linejoin:miter;stroke-opacity:1" d="M 374.196,30.9804 379.216,25.9608 z" id="boundary" inkscape:connector-curvature="0" />
	<path style="fill:none;stroke:red;stroke-width:1px;stroke-linecap:butt;stroke-linejoin:miter;stroke-opacity:1" d="M 379.216,25.9608 385.49,22.8235 z" id="boundary" inkscape:connector-curvature="0" />
	<path style="fill:none;stroke:red;stroke-width:1px;stroke-linecap:butt;stroke-linejoin:miter;stroke-opacity:1" d="M 391.137,19.6863 396.784,16.549 z" id="boundary" inkscape:connector-curvature="0" />
	<path style="fill:none;stroke:red;stroke-width:1px;stroke-linecap:butt;stroke-linejoin:miter;stroke-opacity:1" d="M 391.137,19.6863 385.49,22.8235 z" id="boundary" inkscape:connector-curvature="0" />
	<path style="fill:none;stroke:red;stroke-width:1px;stroke-linecap:butt;stroke-linejoin:miter;stroke-opacity:1" d="M 396.784,16.549 402.431,13.4118 z" id="boundary" inkscape:connector-curvature="0" />
	<path style="fill:none;stroke:red;stroke-width:1px;stroke-linecap:butt;stroke-linejoin:miter;stroke-opacity:1" d="M 490.275,10.2745 484,10.2745 z" id="boundary" inkscape:connector-curvature="0" />
	<path style="fill:none;stroke:red;stroke-width:1px;stroke-linecap:butt;stroke-linejoin:miter;stroke-opacity:1" d="M 4,109.412 4,103.137 z" id="boundary" inkscape:connector-curvature="0" />
	<path style="fill:none;stroke:red;stroke-width:1px;stroke-linecap:butt;stroke-linejoin:miter;stroke-opacity:1" d="M 7.13725,115.059 4,109.412 z" id="boundary" inkscape:connector-curvature="0" />
	<path style="fill:none;stroke:red;stroke-width:1px;stroke-linecap:butt;stroke-linejoin:miter;stroke-opacity:1" d="M 4,103.137 4,96.8627 z" id="boundary" inkscape:connector-curvature="0" />
	<path style="fill:none;stroke:red;stroke-width:1px;stroke-linecap:butt;stroke-linejoin:miter;stroke-opacity:1" d="M 17.1765,131.373 13.4118,126.353 z" id="boundary" inkscape:connector-curvature="0" />
	<path style="fill:none;stroke:red;stroke-width:1px;stroke-linecap:butt;stroke-linejoin:miter;stroke-opacity:1" d="M 13.4118,126.353 10.2745,120.706 z" id="boundary" inkscape:connector-curvature="0" />
	<path style="fill:none;stroke:red;stroke-width:1px;stroke-linecap:butt;stroke-linejoin:miter;stroke-opacity:1" d="M 10.2745,120.706 7.13725,115.059 z" id="boundary" inkscape:connector-curvature="0" />
	<path style="fill:none;stroke:red;stroke-width:1px;stroke-linecap:butt;stroke-linejoin:miter;stroke-opacity:1" d="M 17.1765,131.373 19.6863,137.647 z" id="boundary" inkscape:connector-curvature="0" />
	<path style="fill:none;stroke:red;stroke-width:1px;stroke-linecap:butt;stroke-linejoin:miter;stroke-opacity:1" d="M 24.7059,142.039 19.6863,137.647 z" id="boundary" inkscape:connector-curvature="0" />
	<path style="fill:none;stroke:red;stroke-width:1px;stroke-linecap:butt;stroke-linejoin:miter;stroke-opacity:1" d="M 39.7647,154.588 34.1176,151.451 z" id="boundary" inkscape:connector-curvature="0" />
	<path style="fill:none;stroke:red;stroke-width:1px;stroke-linecap:butt;stroke-linejoin:miter;stroke-opacity:1" d="M 34.1176,151.451 29.098,147.059 z" id="boundary" inkscape:connector-curvature="0" />
	<path style="fill:none;stroke:red;stroke-width:1px;stroke-linecap:butt;stroke-linejoin:miter;stroke-opacity:1" d="M 29.098,147.059 24.7059,142.039 z" id="boundary" inkscape:connector-curvature="0" />
	<path style="fill:none;stroke:red;stroke-width:1px;stroke-linecap:butt;stroke-linejoin:miter;stroke-opacity:1" d="M 39.7647,154.588 44.7843,158.353 z" id="boundary" inkscape:connector-curvature="0" />
	<path style="fill:none;stroke:red;stroke-width:1px;stroke-linecap:butt;stroke-linejoin:miter;stroke-opacity:1" d="M 50.4314,161.49 44.7843,158.353 z" id="boundary" inkscape:connector-curvature="0" />
	<path style="fill:none;stroke:red;stroke-width:1px;stroke-linecap:butt;stroke-linejoin:miter;stroke-opacity:1" d="M 56.0784,164.627 50.4314,161.49 z" id="boundary" inkscape:connector-curvature="0" />
	<path style="fill:none;stroke:red;stroke-width:1px;stroke-linecap:butt;stroke-linejoin:miter;stroke-opacity:1" d="M 61.7255,167.765 56.0784,164.627 z" id="boundary" inkscape:connector-curvature="0" />
	<path style="fill:none;stroke:red;stroke-width:1px;stroke-linecap:butt;stroke-linejoin:miter;stroke-opacity:1" d="M 67.3725,170.902 73.6471,172.157 z" id="boundary" inkscape:connector-curvature="0" />
	<path style="fill:none;stroke:red;stroke-width:1px;stroke-linecap:butt;stroke-linejoin:miter;stroke-opacity:1" d="M 73.6471,172.157 79.9216,174.039 z" id="boundary" inkscape:connector-curvature="0" />
	<path style="fill:none;stroke:red;stroke-width:1px;stroke-linecap:butt;stroke-linejoin:miter;stroke-opacity:1" d="M 67.3725,170.902 61.7255,167.765 z" id="boundary" inkscape:connector-curvature="0" />
	<path style="fill:none;stroke:red;stroke-width:1px;stroke-linecap:butt;stroke-linejoin:miter;stroke-opacity:1" d="M 86.1961,174.039 79.9216,174.039 z" id="boundary" inkscape:connector-curvature="0" />
	<path style="fill:none;stroke:red;stroke-width:1px;stroke-linecap:butt;stroke-linejoin:miter;stroke-opacity:1" d="M 98.1176,177.176 91.8431,177.176 z" id="boundary" inkscape:connector-curvature="0" />
	<path style="fill:none;stroke:red;stroke-width:1px;stroke-linecap:butt;stroke-linejoin:miter;stroke-opacity:1" d="M 91.8431,177.176 86.1961,174.039 z" id="boundary" inkscape:connector-curvature="0" />
	<path style="fill:none;stroke:red;stroke-width:1px;stroke-linecap:butt;stroke-linejoin:miter;stroke-opacity:1" d="M 104.392,177.176 98.1176,177.176 z" id="boundary" inkscape:connector-curvature="0" />
	<path style="fill:none;stroke:red;stroke-width:1px;stroke-linecap:butt;stroke-linejoin:miter;stroke-opacity:1" d="M 104.392,177.176 110.039,180.314 z" id="boundary" inkscape:connector-curvature="0" />
	<path style="fill:none;stroke:red;stroke-width:1px;stroke-linecap:butt;stroke-linejoin:miter;stroke-opacity:1" d="M 116.314,180.314 110.039,180.314 z" id="boundary" inkscape:connector-curvature="0" />
	<path style="fill:none;stroke:red;stroke-width:1px;stroke-linecap:butt;stroke-linejoin:miter;stroke-opacity:1" d="M 122.588,180.314 116.314,180.314 z" id="boundary" inkscape:connector-curvature="0" />
	<path style="fill:none;stroke:red;stroke-width:1px;stroke-linecap:butt;stroke-linejoin:miter;stroke-opacity:1" d="M 128.863,180.314 122.588,180.314 z" id="boundary" inkscape:connector-curvature="0" />
	<path style="fill:none;stroke:red;stroke-width:1px;stroke-linecap:butt;stroke-linejoin:miter;stroke-opacity:1" d="M 141.412,180.314 135.137,180.314 z" id="boundary" inkscape:connector-curvature="0" />
	<path style="fill:none;stroke:red;stroke-width:1px;stroke-linecap:butt;stroke-linejoin:miter;stroke-opacity:1" d="M 147.686,180.314 141.412,180.314 z" id="boundary" inkscape:connector-curvature="0" />
	<path style="fill:none;stroke:red;stroke-width:1px;stroke-linecap:butt;stroke-linejoin:miter;stroke-opacity:1" d="M 135.137,180.314 128.863,180.314 z" id="boundary" inkscape:connector-curvature="0" />
	<path style="fill:none;stroke:red;stroke-width:1px;stroke-linecap:butt;stroke-linejoin:miter;stroke-opacity:1" d="M 153.961,180.314 147.686,180.314 z" id="boundary" inkscape:connector-curvature="0" />
	<path style="fill:none;stroke:red;stroke-width:1px;stroke-linecap:butt;stroke-linejoin:miter;stroke-opacity:1" d="M 166.51,180.314 160.235,180.314 z" id="boundary" inkscape:connector-curvature="0" />
	<path style="fill:none;stroke:red;stroke-width:1px;stroke-linecap:butt;stroke-linejoin:miter;stroke-opacity:1" d="M 179.059,180.314 172.784,180.314 z" id="boundary" inkscape:connector-curvature="0" />
	<path style="fill:none;stroke:red;stroke-width:1px;stroke-linecap:butt;stroke-linejoin:miter;stroke-opacity:1" d="M 172.784,180.314 166.51,180.314 z" id="boundary" inkscape:connector-curvature="0" />
	<path style="fill:none;stroke:red;stroke-width:1px;stroke-linecap:butt;stroke-linejoin:miter;stroke-opacity:1" d="M 222.98,179.059 229.255,177.176 z" id="boundary" inkscape:connector-curvature="0" />
	<path style="fill:none;stroke:red;stroke-width:1px;stroke-linecap:butt;stroke-linejoin:miter;stroke-opacity:1" d="M 229.255,177.176 235.529,177.176 z" id="boundary" inkscape:connector-curvature="0" />
	<path style="fill:none;stroke:red;stroke-width:1px;stroke-linecap:butt;stroke-linejoin:miter;stroke-opacity:1" d="M 160.235,180.314 153.961,180.314 z" id="boundary" inkscape:connector-curvature="0" />
	<path style="fill:none;stroke:red;stroke-width:1px;stroke-linecap:butt;stroke-linejoin:miter;stroke-opacity:1" d="M 185.333,180.314 179.059,180.314 z" id="boundary" inkscape:connector-curvature="0" />
	<path style="fill:none;stroke:red;stroke-width:1px;stroke-linecap:butt;stroke-linejoin:miter;stroke-opacity:1" d="M 197.882,180.314 191.608,180.314 z" id="boundary" inkscape:connector-curvature="0" />
	<path style="fill:none;stroke:red;stroke-width:1px;stroke-linecap:butt;stroke-linejoin:miter;stroke-opacity:1" d="M 210.431,180.314 204.157,180.314 z" id="boundary" inkscape:connector-curvature="0" />
	<path style="fill:none;stroke:red;stroke-width:1px;stroke-linecap:butt;stroke-linejoin:miter;stroke-opacity:1" d="M 216.706,180.314 210.431,180.314 z" id="boundary" inkscape:connector-curvature="0" />
	<path style="fill:none;stroke:red;stroke-width:1px;stroke-linecap:butt;stroke-linejoin:miter;stroke-opacity:1" d="M 222.98,179.059 216.706,180.314 z" id="boundary" inkscape:connector-curvature="0" />
	<path style="fill:none;stroke:red;stroke-width:1px;stroke-linecap:butt;stroke-linejoin:miter;stroke-opacity:1" d="M 204.157,180.314 197.882,180.314 z" id="boundary" inkscape:connector-curvature="0" />
	<path style="fill:none;stroke:red;stroke-width:1px;stroke-linecap:butt;stroke-linejoin:miter;stroke-opacity:1" d="M 191.608,180.314 185.333,180.314 z" id="boundary" inkscape:connector-curvature="0" />
	<path style="fill:none;stroke:red;stroke-width:1px;stroke-linecap:butt;stroke-linejoin:miter;stroke-opacity:1" d="M 346.588,142.667 352.863,139.529 z" id="boundary" inkscape:connector-curvature="0" />
	<path style="fill:none;stroke:red;stroke-width:1px;stroke-linecap:butt;stroke-linejoin:miter;stroke-opacity:1" d="M 352.863,139.529 359.137,139.529 z" id="boundary" inkscape:connector-curvature="0" />
	<path style="fill:none;stroke:red;stroke-width:1px;stroke-linecap:butt;stroke-linejoin:miter;stroke-opacity:1" d="M 342.196,147.686 346.588,142.667 z" id="boundary" inkscape:connector-curvature="0" />
	<path style="fill:none;stroke:red;stroke-width:1px;stroke-linecap:butt;stroke-linejoin:miter;stroke-opacity:1" d="M 365.412,139.529 359.137,139.529 z" id="boundary" inkscape:connector-curvature="0" />
	<path style="fill:none;stroke:red;stroke-width:1px;stroke-linecap:butt;stroke-linejoin:miter;stroke-opacity:1" d="M 320.863,164.627 326.51,161.49 z" id="boundary" inkscape:connector-curvature="0" />
	<path style="fill:none;stroke:red;stroke-width:1px;stroke-linecap:butt;stroke-linejoin:miter;stroke-opacity:1" d="M 337.176,152.078 342.196,147.686 z" id="boundary" inkscape:connector-curvature="0" />
	<path style="fill:none;stroke:red;stroke-width:1px;stroke-linecap:butt;stroke-linejoin:miter;stroke-opacity:1" d="M 337.176,152.078 332.157,157.725 z" id="boundary" inkscape:connector-curvature="0" />
	<path style="fill:none;stroke:red;stroke-width:1px;stroke-linecap:butt;stroke-linejoin:miter;stroke-opacity:1" d="M 332.157,157.725 326.51,161.49 z" id="boundary" inkscape:connector-curvature="0" />
	<path style="fill:none;stroke:red;stroke-width:1px;stroke-linecap:butt;stroke-linejoin:miter;stroke-opacity:1" d="M 365.412,139.529 371.686,139.529 z" id="boundary" inkscape:connector-curvature="0" />
	<path style="fill:none;stroke:red;stroke-width:1px;stroke-linecap:butt;stroke-linejoin:miter;stroke-opacity:1" d="M 389.255,145.804 383.608,142.667 z" id="boundary" inkscape:connector-curvature="0" />
	<path style="fill:none;stroke:red;stroke-width:1px;stroke-linecap:butt;stroke-linejoin:miter;stroke-opacity:1" d="M 404.314,158.353 398.667,155.216 z" id="boundary" inkscape:connector-curvature="0" />
	<path style="fill:none;stroke:red;stroke-width:1px;stroke-linecap:butt;stroke-linejoin:miter;stroke-opacity:1" d="M 398.667,155.216 393.647,150.824 z" id="boundary" inkscape:connector-curvature="0" />
	<path style="fill:none;stroke:red;stroke-width:1px;stroke-linecap:butt;stroke-linejoin:miter;stroke-opacity:1" d="M 393.647,150.824 389.255,145.804 z" id="boundary" inkscape:connector-curvature="0" />
	<path style="fill:none;stroke:red;stroke-width:1px;stroke-linecap:butt;stroke-linejoin:miter;stroke-opacity:1" d="M 440.706,164.627 434.431,164.627 z" id="boundary" inkscape:connector-curvature="0" />
	<path style="fill:none;stroke:red;stroke-width:1px;stroke-linecap:butt;stroke-linejoin:miter;stroke-opacity:1" d="M 371.686,139.529 377.961,139.529 z" id="boundary" inkscape:connector-curvature="0" />
	<path style="fill:none;stroke:red;stroke-width:1px;stroke-linecap:butt;stroke-linejoin:miter;stroke-opacity:1" d="M 377.961,139.529 383.608,142.667 z" id="boundary" inkscape:connector-curvature="0" />
	<path style="fill:none;stroke:red;stroke-width:1px;stroke-linecap:butt;stroke-linejoin:miter;stroke-opacity:1" d="M 416.235,161.49 409.961,161.49 z" id="boundary" inkscape:connector-curvature="0" />
	<path style="fill:none;stroke:red;stroke-width:1px;stroke-linecap:butt;stroke-linejoin:miter;stroke-opacity:1" d="M 409.961,161.49 404.314,158.353 z" id="boundary" inkscape:connector-curvature="0" />
	<path style="fill:none;stroke:red;stroke-width:1px;stroke-linecap:butt;stroke-linejoin:miter;stroke-opacity:1" d="M 416.235,161.49 421.882,164.627 z" id="boundary" inkscape:connector-curvature="0" />
	<path style="fill:none;stroke:red;stroke-width:1px;stroke-linecap:butt;stroke-linejoin:miter;stroke-opacity:1" d="M 421.882,164.627 428.157,164.627 z" id="boundary" inkscape:connector-curvature="0" />
	<path style="fill:none;stroke:red;stroke-width:1px;stroke-linecap:butt;stroke-linejoin:miter;stroke-opacity:1" d="M 434.431,164.627 428.157,164.627 z" id="boundary" inkscape:connector-curvature="0" />
	<path style="fill:none;stroke:red;stroke-width:1px;stroke-linecap:butt;stroke-linejoin:miter;stroke-opacity:1" d="M 315.216,167.765 320.863,164.627 z" id="boundary" inkscape:connector-curvature="0" />
	<path style="fill:none;stroke:red;stroke-width:1px;stroke-linecap:butt;stroke-linejoin:miter;stroke-opacity:1" d="M 235.529,177.176 241.804,177.176 z" id="boundary" inkscape:connector-curvature="0" />
	<path style="fill:none;stroke:red;stroke-width:1px;stroke-linecap:butt;stroke-linejoin:miter;stroke-opacity:1" d="M 248.078,177.176 241.804,177.176 z" id="boundary" inkscape:connector-curvature="0" />
	<path style="fill:none;stroke:red;stroke-width:1px;stroke-linecap:butt;stroke-linejoin:miter;stroke-opacity:1" d="M 260.627,177.176 254.353,177.176 z" id="boundary" inkscape:connector-curvature="0" />
	<path style="fill:none;stroke:red;stroke-width:1px;stroke-linecap:butt;stroke-linejoin:miter;stroke-opacity:1" d="M 254.353,177.176 248.078,177.176 z" id="boundary" inkscape:connector-curvature="0" />
	<path style="fill:none;stroke:red;stroke-width:1px;stroke-linecap:butt;stroke-linejoin:miter;stroke-opacity:1" d="M 266.902,177.176 260.627,177.176 z" id="boundary" inkscape:connector-curvature="0" />
	<path style="fill:none;stroke:red;stroke-width:1px;stroke-linecap:butt;stroke-linejoin:miter;stroke-opacity:1" d="M 273.176,177.176 279.451,177.176 z" id="boundary" inkscape:connector-curvature="0" />
	<path style="fill:none;stroke:red;stroke-width:1px;stroke-linecap:butt;stroke-linejoin:miter;stroke-opacity:1" d="M 285.725,177.176 279.451,177.176 z" id="boundary" inkscape:connector-curvature="0" />
	<path style="fill:none;stroke:red;stroke-width:1px;stroke-linecap:butt;stroke-linejoin:miter;stroke-opacity:1" d="M 291.373,174.039 285.725,177.176 z" id="boundary" inkscape:connector-curvature="0" />
	<path style="fill:none;stroke:red;stroke-width:1px;stroke-linecap:butt;stroke-linejoin:miter;stroke-opacity:1" d="M 273.176,177.176 266.902,177.176 z" id="boundary" inkscape:connector-curvature="0" />
	<path style="fill:none;stroke:red;stroke-width:1px;stroke-linecap:butt;stroke-linejoin:miter;stroke-opacity:1" d="M 291.373,174.039 297.647,174.039 z" id="boundary" inkscape:connector-curvature="0" />
	<path style="fill:none;stroke:red;stroke-width:1px;stroke-linecap:butt;stroke-linejoin:miter;stroke-opacity:1" d="M 440.706,164.627 446.98,164.627 z" id="boundary" inkscape:connector-curvature="0" />
	<path style="fill:none;stroke:red;stroke-width:1px;stroke-linecap:butt;stroke-linejoin:miter;stroke-opacity:1" d="M 453.255,164.627 459.529,164.627 z" id="boundary" inkscape:connector-curvature="0" />
	<path style="fill:none;stroke:red;stroke-width:1px;stroke-linecap:butt;stroke-linejoin:miter;stroke-opacity:1" d="M 459.529,164.627 465.804,165.882 z" id="boundary" inkscape:connector-curvature="0" />
	<path style="fill:none;stroke:red;stroke-width:1px;stroke-linecap:butt;stroke-linejoin:miter;stroke-opacity:1" d="M 453.255,164.627 446.98,164.627 z" id="boundary" inkscape:connector-curvature="0" />
	<path style="fill:none;stroke:red;stroke-width:1px;stroke-linecap:butt;stroke-linejoin:miter;stroke-opacity:1" d="M 465.804,165.882 472.078,167.765 z" id="boundary" inkscape:connector-curvature="0" />
	<path style="fill:none;stroke:red;stroke-width:1px;stroke-linecap:butt;stroke-linejoin:miter;stroke-opacity:1" d="M 297.647,174.039 303.294,170.902 z" id="boundary" inkscape:connector-curvature="0" />
	<path style="fill:none;stroke:red;stroke-width:1px;stroke-linecap:butt;stroke-linejoin:miter;stroke-opacity:1" d="M 308.941,167.765 303.294,170.902 z" id="boundary" inkscape:connector-curvature="0" />
	<path style="fill:none;stroke:red;stroke-width:1px;stroke-linecap:butt;stroke-linejoin:miter;stroke-opacity:1" d="M 308.941,167.765 315.216,167.765 z" id="boundary" inkscape:connector-curvature="0" />
	<path style="fill:none;stroke:red;stroke-width:1px;stroke-linecap:butt;stroke-linejoin:miter;stroke-opacity:1" d="M 478.353,167.765 472.078,167.765 z" id="boundary" inkscape:connector-curvature="0" />
	<path style="fill:none;stroke:red;stroke-width:1px;stroke-linecap:butt;stroke-linejoin:miter;stroke-opacity:1" d="M 484.627,167.765 478.353,167.765 z" id="boundary" inkscape:connector-curvature="0" />
	<path style="fill:none;stroke:red;stroke-width:1px;stroke-linecap:butt;stroke-linejoin:miter;stroke-opacity:1" d="M 490.275,10.2745 496.549,10.2745 z" id="boundary" inkscape:connector-curvature="0" />
	<path style="fill:none;stroke:red;stroke-width:1px;stroke-linecap:butt;stroke-linejoin:miter;stroke-opacity:1" d="M 502.824,10.2745 509.098,10.2745 z" id="boundary" inkscape:connector-curvature="0" />
	<path style="fill:none;stroke:red;stroke-width:1px;stroke-linecap:butt;stroke-linejoin:miter;stroke-opacity:1" d="M 515.373,10.2745 509.098,10.2745 z" id="boundary" inkscape:connector-curvature="0" />
	<path style="fill:none;stroke:red;stroke-width:1px;stroke-linecap:butt;stroke-linejoin:miter;stroke-opacity:1" d="M 502.824,10.2745 496.549,10.2745 z" id="boundary" inkscape:connector-curvature="0" />
	<path style="fill:none;stroke:red;stroke-width:1px;stroke-linecap:butt;stroke-linejoin:miter;stroke-opacity:1" d="M 595.686,10.2745 601.961,10.2745 z" id="boundary" inkscape:connector-curvature="0" />
	<path style="fill:none;stroke:red;stroke-width:1px;stroke-linecap:butt;stroke-linejoin:miter;stroke-opacity:1" d="M 608.235,10.2745 601.961,10.2745 z" id="boundary" inkscape:connector-curvature="0" />
	<path style="fill:none;stroke:red;stroke-width:1px;stroke-linecap:butt;stroke-linejoin:miter;stroke-opacity:1" d="M 595.686,10.2745 589.412,10.2745 z" id="boundary" inkscape:connector-curvature="0" />
	<path style="fill:none;stroke:red;stroke-width:1px;stroke-linecap:butt;stroke-linejoin:miter;stroke-opacity:1" d="M 583.765,13.4118 589.412,10.2745 z" id="boundary" inkscape:connector-curvature="0" />
	<path style="fill:none;stroke:red;stroke-width:1px;stroke-linecap:butt;stroke-linejoin:miter;stroke-opacity:1" d="M 521.647,10.2745 515.373,10.2745 z" id="boundary" inkscape:connector-curvature="0" />
	<path style="fill:none;stroke:red;stroke-width:1px;stroke-linecap:butt;stroke-linejoin:miter;stroke-opacity:1" d="M 521.647,10.2745 527.294,13.4118 z" id="boundary" inkscape:connector-curvature="0" />
	<path style="fill:none;stroke:red;stroke-width:1px;stroke-linecap:butt;stroke-linejoin:miter;stroke-opacity:1" d="M 608.235,10.2745 614.51,10.2745 z" id="boundary" inkscape:connector-curvature="0" />
	<path style="fill:none;stroke:red;stroke-width:1px;stroke-linecap:butt;stroke-linejoin:miter;stroke-opacity:1" d="M 620.784,10.2745 614.51,10.2745 z" id="boundary" inkscape:connector-curvature="0" />
	<path style="fill:none;stroke:red;stroke-width:1px;stroke-linecap:butt;stroke-linejoin:miter;stroke-opacity:1" d="M 620.784,10.2745 627.059,10.2745 z" id="boundary" inkscape:connector-curvature="0" />
	<path style="fill:none;stroke:red;stroke-width:1px;stroke-linecap:butt;stroke-linejoin:miter;stroke-opacity:1" d="M 633.333,10.2745 627.059,10.2745 z" id="boundary" inkscape:connector-curvature="0" />
	<path style="fill:none;stroke:red;stroke-width:1px;stroke-linecap:butt;stroke-linejoin:miter;stroke-opacity:1" d="M 639.608,10.2745 633.333,10.2745 z" id="boundary" inkscape:connector-curvature="0" />
	<path style="fill:none;stroke:red;stroke-width:1px;stroke-linecap:butt;stroke-linejoin:miter;stroke-opacity:1" d="M 645.882,10.2745 652.157,10.2745 z" id="boundary" inkscape:connector-curvature="0" />
	<path style="fill:none;stroke:red;stroke-width:1px;stroke-linecap:butt;stroke-linejoin:miter;stroke-opacity:1" d="M 658.431,10.2745 652.157,10.2745 z" id="boundary" inkscape:connector-curvature="0" />
	<path style="fill:none;stroke:red;stroke-width:1px;stroke-linecap:butt;stroke-linejoin:miter;stroke-opacity:1" d="M 664.706,10.2745 670.98,10.2745 z" id="boundary" inkscape:connector-curvature="0" />
	<path style="fill:none;stroke:red;stroke-width:1px;stroke-linecap:butt;stroke-linejoin:miter;stroke-opacity:1" d="M 677.255,10.2745 670.98,10.2745 z" id="boundary" inkscape:connector-curvature="0" />
	<path style="fill:none;stroke:red;stroke-width:1px;stroke-linecap:butt;stroke-linejoin:miter;stroke-opacity:1" d="M 664.706,10.2745 658.431,10.2745 z" id="boundary" inkscape:connector-curvature="0" />
	<path style="fill:none;stroke:red;stroke-width:1px;stroke-linecap:butt;stroke-linejoin:miter;stroke-opacity:1" d="M 645.882,10.2745 639.608,10.2745 z" id="boundary" inkscape:connector-curvature="0" />
	<path style="fill:none;stroke:red;stroke-width:1px;stroke-linecap:butt;stroke-linejoin:miter;stroke-opacity:1" d="M 527.294,13.4118 533.569,13.4118 z" id="boundary" inkscape:connector-curvature="0" />
	<path style="fill:none;stroke:red;stroke-width:1px;stroke-linecap:butt;stroke-linejoin:miter;stroke-opacity:1" d="M 539.843,13.4118 546.118,13.4118 z" id="boundary" inkscape:connector-curvature="0" />
	<path style="fill:none;stroke:red;stroke-width:1px;stroke-linecap:butt;stroke-linejoin:miter;stroke-opacity:1" d="M 552.392,13.4118 546.118,13.4118 z" id="boundary" inkscape:connector-curvature="0" />
	<path style="fill:none;stroke:red;stroke-width:1px;stroke-linecap:butt;stroke-linejoin:miter;stroke-opacity:1" d="M 539.843,13.4118 533.569,13.4118 z" id="boundary" inkscape:connector-curvature="0" />
	<path style="fill:none;stroke:red;stroke-width:1px;stroke-linecap:butt;stroke-linejoin:miter;stroke-opacity:1" d="M 558.667,13.4118 564.941,13.4118 z" id="boundary" inkscape:connector-curvature="0" />
	<path style="fill:none;stroke:red;stroke-width:1px;stroke-linecap:butt;stroke-linejoin:miter;stroke-opacity:1" d="M 571.216,13.4118 577.49,13.4118 z" id="boundary" inkscape:connector-curvature="0" />
	<path style="fill:none;stroke:red;stroke-width:1px;stroke-linecap:butt;stroke-linejoin:miter;stroke-opacity:1" d="M 583.765,13.4118 577.49,13.4118 z" id="boundary" inkscape:connector-curvature="0" />
	<path style="fill:none;stroke:red;stroke-width:1px;stroke-linecap:butt;stroke-linejoin:miter;stroke-opacity:1" d="M 571.216,13.4118 564.941,13.4118 z" id="boundary" inkscape:connector-curvature="0" />
	<path style="fill:none;stroke:red;stroke-width:1px;stroke-linecap:butt;stroke-linejoin:miter;stroke-opacity:1" d="M 558.667,13.4118 552.392,13.4118 z" id="boundary" inkscape:connector-curvature="0" />
	<path style="fill:none;stroke:red;stroke-width:1px;stroke-linecap:butt;stroke-linejoin:miter;stroke-opacity:1" d="M 701.725,10.2745 695.451,10.902 z" id="boundary" inkscape:connector-curvature="0" />
	<path style="fill:none;stroke:red;stroke-width:1px;stroke-linecap:butt;stroke-linejoin:miter;stroke-opacity:1" d="M 708,10.2745 714.275,10.2745 z" id="boundary" inkscape:connector-curvature="0" />
	<path style="fill:none;stroke:red;stroke-width:1px;stroke-linecap:butt;stroke-linejoin:miter;stroke-opacity:1" d="M 714.275,10.2745 719.922,13.4118 z" id="boundary" inkscape:connector-curvature="0" />
	<path style="fill:none;stroke:red;stroke-width:1px;stroke-linecap:butt;stroke-linejoin:miter;stroke-opacity:1" d="M 708,10.2745 701.725,10.2745 z" id="boundary" inkscape:connector-curvature="0" />
	<path style="fill:none;stroke:red;stroke-width:1px;stroke-linecap:butt;stroke-linejoin:miter;stroke-opacity:1" d="M 689.176,13.4118 695.451,10.902 z" id="boundary" inkscape:connector-curvature="0" />
	<path style="fill:none;stroke:red;stroke-width:1px;stroke-linecap:butt;stroke-linejoin:miter;stroke-opacity:1" d="M 689.176,13.4118 683.529,10.2745 z" id="boundary" inkscape:connector-curvature="0" />
	<path style="fill:none;stroke:red;stroke-width:1px;stroke-linecap:butt;stroke-linejoin:miter;stroke-opacity:1" d="M 738.118,10.2745 732.471,13.4118 z" id="boundary" inkscape:connector-curvature="0" />
	<path style="fill:none;stroke:red;stroke-width:1px;stroke-linecap:butt;stroke-linejoin:miter;stroke-opacity:1" d="M 732.471,13.4118 726.196,13.4118 z" id="boundary" inkscape:connector-curvature="0" />
	<path style="fill:none;stroke:red;stroke-width:1px;stroke-linecap:butt;stroke-linejoin:miter;stroke-opacity:1" d="M 726.196,13.4118 719.922,13.4118 z" id="boundary" inkscape:connector-curvature="0" />
	<path style="fill:none;stroke:red;stroke-width:1px;stroke-linecap:butt;stroke-linejoin:miter;stroke-opacity:1" d="M 744.392,10.2745 750.039,13.4118 z" id="boundary" inkscape:connector-curvature="0" />
	<path style="fill:none;stroke:red;stroke-width:1px;stroke-linecap:butt;stroke-linejoin:miter;stroke-opacity:1" d="M 738.118,10.2745 744.392,10.2745 z" id="boundary" inkscape:connector-curvature="0" />
	<path style="fill:none;stroke:red;stroke-width:1px;stroke-linecap:butt;stroke-linejoin:miter;stroke-opacity:1" d="M 677.255,10.2745 683.529,10.2745 z" id="boundary" inkscape:connector-curvature="0" />
	<path style="fill:none;stroke:red;stroke-width:1px;stroke-linecap:butt;stroke-linejoin:miter;stroke-opacity:1" d="M 750.039,13.4118 756.314,13.4118 z" id="boundary" inkscape:connector-curvature="0" />
	<path style="fill:none;stroke:red;stroke-width:1px;stroke-linecap:butt;stroke-linejoin:miter;stroke-opacity:1" d="M 762.588,13.4118 768.863,13.4118 z" id="boundary" inkscape:connector-curvature="0" />
	<path style="fill:none;stroke:red;stroke-width:1px;stroke-linecap:butt;stroke-linejoin:miter;stroke-opacity:1" d="M 775.137,13.4118 768.863,13.4118 z" id="boundary" inkscape:connector-curvature="0" />
	<path style="fill:none;stroke:red;stroke-width:1px;stroke-linecap:butt;stroke-linejoin:miter;stroke-opacity:1" d="M 762.588,13.4118 756.314,13.4118 z" id="boundary" inkscape:connector-curvature="0" />
	<path style="fill:none;stroke:red;stroke-width:1px;stroke-linecap:butt;stroke-linejoin:miter;stroke-opacity:1" d="M 781.412,13.4118 787.686,14.0392 z" id="boundary" inkscape:connector-curvature="0" />
	<path style="fill:none;stroke:red;stroke-width:1px;stroke-linecap:butt;stroke-linejoin:miter;stroke-opacity:1" d="M 787.686,14.0392 793.961,16.549 z" id="boundary" inkscape:connector-curvature="0" />
	<path style="fill:none;stroke:red;stroke-width:1px;stroke-linecap:butt;stroke-linejoin:miter;stroke-opacity:1" d="M 805.882,19.6863 799.608,19.6863 z" id="boundary" inkscape:connector-curvature="0" />
	<path style="fill:none;stroke:red;stroke-width:1px;stroke-linecap:butt;stroke-linejoin:miter;stroke-opacity:1" d="M 799.608,19.6863 793.961,16.549 z" id="boundary" inkscape:connector-curvature="0" />
	<path style="fill:none;stroke:red;stroke-width:1px;stroke-linecap:butt;stroke-linejoin:miter;stroke-opacity:1" d="M 805.882,19.6863 811.529,22.8235 z" id="boundary" inkscape:connector-curvature="0" />
	<path style="fill:none;stroke:red;stroke-width:1px;stroke-linecap:butt;stroke-linejoin:miter;stroke-opacity:1" d="M 775.137,13.4118 781.412,13.4118 z" id="boundary" inkscape:connector-curvature="0" />
	<path style="fill:none;stroke:red;stroke-width:1px;stroke-linecap:butt;stroke-linejoin:miter;stroke-opacity:1" d="M 811.529,22.8235 817.176,25.9608 z" id="boundary" inkscape:connector-curvature="0" />
	<path style="fill:none;stroke:red;stroke-width:1px;stroke-linecap:butt;stroke-linejoin:miter;stroke-opacity:1" d="M 822.824,29.098 829.098,30.3529 z" id="boundary" inkscape:connector-curvature="0" />
	<path style="fill:none;stroke:red;stroke-width:1px;stroke-linecap:butt;stroke-linejoin:miter;stroke-opacity:1" d="M 822.824,29.098 817.176,25.9608 z" id="boundary" inkscape:connector-curvature="0" />
	<path style="fill:none;stroke:red;stroke-width:1px;stroke-linecap:butt;stroke-linejoin:miter;stroke-opacity:1" d="M 841.647,32.2353 835.373,32.2353 z" id="boundary" inkscape:connector-curvature="0" />
	<path style="fill:none;stroke:red;stroke-width:1px;stroke-linecap:butt;stroke-linejoin:miter;stroke-opacity:1" d="M 835.373,32.2353 829.098,30.3529 z" id="boundary" inkscape:connector-curvature="0" />
	<path style="fill:none;stroke:red;stroke-width:1px;stroke-linecap:butt;stroke-linejoin:miter;stroke-opacity:1" d="M 841.647,32.2353 847.922,33.4902 z" id="boundary" inkscape:connector-curvature="0" />
	<path style="fill:none;stroke:red;stroke-width:1px;stroke-linecap:butt;stroke-linejoin:miter;stroke-opacity:1" d="M 847.922,33.4902 853.569,36.6275 z" id="boundary" inkscape:connector-curvature="0" />
	<path style="fill:none;stroke:red;stroke-width:1px;stroke-linecap:butt;stroke-linejoin:miter;stroke-opacity:1" d="M 859.843,39.1373 853.569,36.6275 z" id="boundary" inkscape:connector-curvature="0" />
	<path style="fill:none;stroke:red;stroke-width:1px;stroke-linecap:butt;stroke-linejoin:miter;stroke-opacity:1" d="M 872.392,41.6471 866.118,41.6471 z" id="boundary" inkscape:connector-curvature="0" />
	<path style="fill:none;stroke:red;stroke-width:1px;stroke-linecap:butt;stroke-linejoin:miter;stroke-opacity:1" d="M 866.118,41.6471 859.843,39.1373 z" id="boundary" inkscape:connector-curvature="0" />
	<path style="fill:none;stroke:red;stroke-width:1px;stroke-linecap:butt;stroke-linejoin:miter;stroke-opacity:1" d="M 872.392,41.6471 878.039,44.7843 z" id="boundary" inkscape:connector-curvature="0" />
	<path style="fill:none;stroke:red;stroke-width:1px;stroke-linecap:butt;stroke-linejoin:miter;stroke-opacity:1" d="M 878.039,44.7843 884.314,44.7843 z" id="boundary" inkscape:connector-curvature="0" />
	<path style="fill:none;stroke:red;stroke-width:1px;stroke-linecap:butt;stroke-linejoin:miter;stroke-opacity:1" d="M 902.51,47.9216 896.235,47.9216 z" id="boundary" inkscape:connector-curvature="0" />
	<path style="fill:none;stroke:red;stroke-width:1px;stroke-linecap:butt;stroke-linejoin:miter;stroke-opacity:1" d="M 896.235,47.9216 890.588,44.7843 z" id="boundary" inkscape:connector-curvature="0" />
	<path style="fill:none;stroke:red;stroke-width:1px;stroke-linecap:butt;stroke-linejoin:miter;stroke-opacity:1" d="M 902.51,47.9216 908.157,51.0588 z" id="boundary" inkscape:connector-curvature="0" />
	<path style="fill:none;stroke:red;stroke-width:1px;stroke-linecap:butt;stroke-linejoin:miter;stroke-opacity:1" d="M 884.314,44.7843 890.588,44.7843 z" id="boundary" inkscape:connector-curvature="0" />
	<path style="fill:none;stroke:red;stroke-width:1px;stroke-linecap:butt;stroke-linejoin:miter;stroke-opacity:1" d="M 914.431,52.9412 908.157,51.0588 z" id="boundary" inkscape:connector-curvature="0" />
	<path style="fill:none;stroke:red;stroke-width:1px;stroke-linecap:butt;stroke-linejoin:miter;stroke-opacity:1" d="M 920.706,54.1961 926.98,54.1961 z" id="boundary" inkscape:connector-curvature="0" />
	<path style="fill:none;stroke:red;stroke-width:1px;stroke-linecap:butt;stroke-linejoin:miter;stroke-opacity:1" d="M 926.98,54.1961 932.627,57.3333 z" id="boundary" inkscape:connector-curvature="0" />
	<path style="fill:none;stroke:red;stroke-width:1px;stroke-linecap:butt;stroke-linejoin:miter;stroke-opacity:1" d="M 920.706,54.1961 914.431,52.9412 z" id="boundary" inkscape:connector-curvature="0" />
	<path style="fill:none;stroke:red;stroke-width:1px;stroke-linecap:butt;stroke-linejoin:miter;stroke-opacity:1" d="M 938.902,57.3333 932.627,57.3333 z" id="boundary" inkscape:connector-curvature="0" />
	<path style="fill:none;stroke:red;stroke-width:1px;stroke-linecap:butt;stroke-linejoin:miter;stroke-opacity:1" d="M 938.902,57.3333 945.176,58.5882 z" id="boundary" inkscape:connector-curvature="0" />
	<path style="fill:none;stroke:red;stroke-width:1px;stroke-linecap:butt;stroke-linejoin:miter;stroke-opacity:1" d="M 951.451,60.4706 957.725,61.7255 z" id="boundary" inkscape:connector-curvature="0" />
	<path style="fill:none;stroke:red;stroke-width:1px;stroke-linecap:butt;stroke-linejoin:miter;stroke-opacity:1" d="M 951.451,60.4706 945.176,58.5882 z" id="boundary" inkscape:connector-curvature="0" />
	<path style="fill:none;stroke:red;stroke-width:1px;stroke-linecap:butt;stroke-linejoin:miter;stroke-opacity:1" d="M 964,63.6078 957.725,61.7255 z" id="boundary" inkscape:connector-curvature="0" />
	<path style="fill:none;stroke:red;stroke-width:1px;stroke-linecap:butt;stroke-linejoin:miter;stroke-opacity:1" d="M 970.275,63.6078 964,63.6078 z" id="boundary" inkscape:connector-curvature="0" />
	<path style="fill:none;stroke:red;stroke-width:1px;stroke-linecap:butt;stroke-linejoin:miter;stroke-opacity:1" d="M 970.275,63.6078 976.549,63.6078 z" id="boundary" inkscape:connector-curvature="0" />
	<path style="fill:none;stroke:red;stroke-width:1px;stroke-linecap:butt;stroke-linejoin:miter;stroke-opacity:1" d="M 976.549,63.6078 982.196,66.7451 z" id="boundary" inkscape:connector-curvature="0" />
	<path style="fill:none;stroke:red;stroke-width:1px;stroke-linecap:butt;stroke-linejoin:miter;stroke-opacity:1" d="M 987.843,69.8824 992.863,73.6471 z" id="boundary" inkscape:connector-curvature="0" />
	<path style="fill:none;stroke:red;stroke-width:1px;stroke-linecap:butt;stroke-linejoin:miter;stroke-opacity:1" d="M 982.196,66.7451 987.843,69.8824 z" id="boundary" inkscape:connector-curvature="0" />
	<path style="fill:none;stroke:red;stroke-width:1px;stroke-linecap:butt;stroke-linejoin:miter;stroke-opacity:1" d="M 992.863,73.6471 996,79.2941 z" id="boundary" inkscape:connector-curvature="0" />
	<path style="fill:none;stroke:red;stroke-width:1px;stroke-linecap:butt;stroke-linejoin:miter;stroke-opacity:1" d="M 996,79.2941 992.863,89.3333 z" id="boundary" inkscape:connector-curvature="0" />
	<path style="fill:none;stroke:red;stroke-width:1px;stroke-linecap:butt;stroke-linejoin:miter;stroke-opacity:1" d="M 484.627,167.765 490.902,167.765 z" id="boundary" inkscape:connector-curvature="0" />
	<path style="fill:none;stroke:red;stroke-width:1px;stroke-linecap:butt;stroke-linejoin:miter;stroke-opacity:1" d="M 497.176,167.765 503.451,167.765 z" id="boundary" inkscape:connector-curvature="0" />
	<path style="fill:none;stroke:red;stroke-width:1px;stroke-linecap:butt;stroke-linejoin:miter;stroke-opacity:1" d="M 509.725,167.765 503.451,167.765 z" id="boundary" inkscape:connector-curvature="0" />
	<path style="fill:none;stroke:red;stroke-width:1px;stroke-linecap:butt;stroke-linejoin:miter;stroke-opacity:1" d="M 497.176,167.765 490.902,167.765 z" id="boundary" inkscape:connector-curvature="0" />
	<path style="fill:none;stroke:red;stroke-width:1px;stroke-linecap:butt;stroke-linejoin:miter;stroke-opacity:1" d="M 516,167.765 522.275,167.765 z" id="boundary" inkscape:connector-curvature="0" />
	<path style="fill:none;stroke:red;stroke-width:1px;stroke-linecap:butt;stroke-linejoin:miter;stroke-opacity:1" d="M 528.549,167.765 534.824,167.765 z" id="boundary" inkscape:connector-curvature="0" />
	<path style="fill:none;stroke:red;stroke-width:1px;stroke-linecap:butt;stroke-linejoin:miter;stroke-opacity:1" d="M 541.098,167.765 534.824,167.765 z" id="boundary" inkscape:connector-curvature="0" />
	<path style="fill:none;stroke:red;stroke-width:1px;stroke-linecap:butt;stroke-linejoin:miter;stroke-opacity:1" d="M 528.549,167.765 522.275,167.765 z" id="boundary" inkscape:connector-curvature="0" />
	<path style="fill:none;stroke:red;stroke-width:1px;stroke-linecap:butt;stroke-linejoin:miter;stroke-opacity:1" d="M 516,167.765 509.725,167.765 z" id="boundary" inkscape:connector-curvature="0" />
	<path style="fill:none;stroke:red;stroke-width:1px;stroke-linecap:butt;stroke-linejoin:miter;stroke-opacity:1" d="M 547.373,167.765 553.647,167.765 z" id="boundary" inkscape:connector-curvature="0" />
	<path style="fill:none;stroke:red;stroke-width:1px;stroke-linecap:butt;stroke-linejoin:miter;stroke-opacity:1" d="M 553.647,167.765 559.294,170.902 z" id="boundary" inkscape:connector-curvature="0" />
	<path style="fill:none;stroke:red;stroke-width:1px;stroke-linecap:butt;stroke-linejoin:miter;stroke-opacity:1" d="M 596.941,170.902 590.667,170.902 z" id="boundary" inkscape:connector-curvature="0" />
	<path style="fill:none;stroke:red;stroke-width:1px;stroke-linecap:butt;stroke-linejoin:miter;stroke-opacity:1" d="M 565.569,170.902 559.294,170.902 z" id="boundary" inkscape:connector-curvature="0" />
	<path style="fill:none;stroke:red;stroke-width:1px;stroke-linecap:butt;stroke-linejoin:miter;stroke-opacity:1" d="M 740.627,167.765 734.353,167.765 z" id="boundary" inkscape:connector-curvature="0" />
	<path style="fill:none;stroke:red;stroke-width:1px;stroke-linecap:butt;stroke-linejoin:miter;stroke-opacity:1" d="M 653.412,170.902 647.137,170.902 z" id="boundary" inkscape:connector-curvature="0" />
	<path style="fill:none;stroke:red;stroke-width:1px;stroke-linecap:butt;stroke-linejoin:miter;stroke-opacity:1" d="M 622.039,170.902 615.765,170.902 z" id="boundary" inkscape:connector-curvature="0" />
	<path style="fill:none;stroke:red;stroke-width:1px;stroke-linecap:butt;stroke-linejoin:miter;stroke-opacity:1" d="M 541.098,167.765 547.373,167.765 z" id="boundary" inkscape:connector-curvature="0" />
	<path style="fill:none;stroke:red;stroke-width:1px;stroke-linecap:butt;stroke-linejoin:miter;stroke-opacity:1" d="M 565.569,170.902 571.843,170.902 z" id="boundary" inkscape:connector-curvature="0" />
	<path style="fill:none;stroke:red;stroke-width:1px;stroke-linecap:butt;stroke-linejoin:miter;stroke-opacity:1" d="M 578.118,170.902 571.843,170.902 z" id="boundary" inkscape:connector-curvature="0" />
	<path style="fill:none;stroke:red;stroke-width:1px;stroke-linecap:butt;stroke-linejoin:miter;stroke-opacity:1" d="M 584.392,170.902 590.667,170.902 z" id="boundary" inkscape:connector-curvature="0" />
	<path style="fill:none;stroke:red;stroke-width:1px;stroke-linecap:butt;stroke-linejoin:miter;stroke-opacity:1" d="M 584.392,170.902 578.118,170.902 z" id="boundary" inkscape:connector-curvature="0" />
	<path style="fill:none;stroke:red;stroke-width:1px;stroke-linecap:butt;stroke-linejoin:miter;stroke-opacity:1" d="M 728.706,170.902 734.353,167.765 z" id="boundary" inkscape:connector-curvature="0" />
	<path style="fill:none;stroke:red;stroke-width:1px;stroke-linecap:butt;stroke-linejoin:miter;stroke-opacity:1" d="M 603.216,170.902 609.49,170.902 z" id="boundary" inkscape:connector-curvature="0" />
	<path style="fill:none;stroke:red;stroke-width:1px;stroke-linecap:butt;stroke-linejoin:miter;stroke-opacity:1" d="M 603.216,170.902 596.941,170.902 z" id="boundary" inkscape:connector-curvature="0" />
	<path style="fill:none;stroke:red;stroke-width:1px;stroke-linecap:butt;stroke-linejoin:miter;stroke-opacity:1" d="M 615.765,170.902 609.49,170.902 z" id="boundary" inkscape:connector-curvature="0" />
	<path style="fill:none;stroke:red;stroke-width:1px;stroke-linecap:butt;stroke-linejoin:miter;stroke-opacity:1" d="M 628.314,170.902 622.039,170.902 z" id="boundary" inkscape:connector-curvature="0" />
	<path style="fill:none;stroke:red;stroke-width:1px;stroke-linecap:butt;stroke-linejoin:miter;stroke-opacity:1" d="M 634.588,170.902 640.863,170.902 z" id="boundary" inkscape:connector-curvature="0" />
	<path style="fill:none;stroke:red;stroke-width:1px;stroke-linecap:butt;stroke-linejoin:miter;stroke-opacity:1" d="M 659.686,170.902 653.412,170.902 z" id="boundary" inkscape:connector-curvature="0" />
	<path style="fill:none;stroke:red;stroke-width:1px;stroke-linecap:butt;stroke-linejoin:miter;stroke-opacity:1" d="M 665.961,170.902 659.686,170.902 z" id="boundary" inkscape:connector-curvature="0" />
	<path style="fill:none;stroke:red;stroke-width:1px;stroke-linecap:butt;stroke-linejoin:miter;stroke-opacity:1" d="M 647.137,170.902 640.863,170.902 z" id="boundary" inkscape:connector-curvature="0" />
	<path style="fill:none;stroke:red;stroke-width:1px;stroke-linecap:butt;stroke-linejoin:miter;stroke-opacity:1" d="M 634.588,170.902 628.314,170.902 z" id="boundary" inkscape:connector-curvature="0" />
	<path style="fill:none;stroke:red;stroke-width:1px;stroke-linecap:butt;stroke-linejoin:miter;stroke-opacity:1" d="M 665.961,170.902 672.235,170.902 z" id="boundary" inkscape:connector-curvature="0" />
	<path style="fill:none;stroke:red;stroke-width:1px;stroke-linecap:butt;stroke-linejoin:miter;stroke-opacity:1" d="M 678.51,170.902 672.235,170.902 z" id="boundary" inkscape:connector-curvature="0" />
	<path style="fill:none;stroke:red;stroke-width:1px;stroke-linecap:butt;stroke-linejoin:miter;stroke-opacity:1" d="M 678.51,170.902 684.784,170.902 z" id="boundary" inkscape:connector-curvature="0" />
	<path style="fill:none;stroke:red;stroke-width:1px;stroke-linecap:butt;stroke-linejoin:miter;stroke-opacity:1" d="M 691.059,170.902 684.784,170.902 z" id="boundary" inkscape:connector-curvature="0" />
	<path style="fill:none;stroke:red;stroke-width:1px;stroke-linecap:butt;stroke-linejoin:miter;stroke-opacity:1" d="M 697.333,170.902 703.608,170.902 z" id="boundary" inkscape:connector-curvature="0" />
	<path style="fill:none;stroke:red;stroke-width:1px;stroke-linecap:butt;stroke-linejoin:miter;stroke-opacity:1" d="M 709.882,170.902 703.608,170.902 z" id="boundary" inkscape:connector-curvature="0" />
	<path style="fill:none;stroke:red;stroke-width:1px;stroke-linecap:butt;stroke-linejoin:miter;stroke-opacity:1" d="M 716.157,170.902 722.431,170.902 z" id="boundary" inkscape:connector-curvature="0" />
	<path style="fill:none;stroke:red;stroke-width:1px;stroke-linecap:butt;stroke-linejoin:miter;stroke-opacity:1" d="M 728.706,170.902 722.431,170.902 z" id="boundary" inkscape:connector-curvature="0" />
	<path style="fill:none;stroke:red;stroke-width:1px;stroke-linecap:butt;stroke-linejoin:miter;stroke-opacity:1" d="M 716.157,170.902 709.882,170.902 z" id="boundary" inkscape:connector-curvature="0" />
	<path style="fill:none;stroke:red;stroke-width:1px;stroke-linecap:butt;stroke-linejoin:miter;stroke-opacity:1" d="M 697.333,170.902 691.059,170.902 z" id="boundary" inkscape:connector-curvature="0" />
	<path style="fill:none;stroke:red;stroke-width:1px;stroke-linecap:butt;stroke-linejoin:miter;stroke-opacity:1" d="M 740.627,167.765 746.902,167.765 z" id="boundary" inkscape:connector-curvature="0" />
	<path style="fill:none;stroke:red;stroke-width:1px;stroke-linecap:butt;stroke-linejoin:miter;stroke-opacity:1" d="M 901.882,117.569 908.157,114.431 z" id="boundary" inkscape:connector-curvature="0" />
	<path style="fill:none;stroke:red;stroke-width:1px;stroke-linecap:butt;stroke-linejoin:miter;stroke-opacity:1" d="M 908.157,114.431 914.431,114.431 z" id="boundary" inkscape:connector-curvature="0" />
	<path style="fill:none;stroke:red;stroke-width:1px;stroke-linecap:butt;stroke-linejoin:miter;stroke-opacity:1" d="M 914.431,114.431 920.078,111.294 z" id="boundary" inkscape:connector-curvature="0" />
	<path style="fill:none;stroke:red;stroke-width:1px;stroke-linecap:butt;stroke-linejoin:miter;stroke-opacity:1" d="M 920.078,111.294 926.353,109.412 z" id="boundary" inkscape:connector-curvature="0" />
	<path style="fill:none;stroke:red;stroke-width:1px;stroke-linecap:butt;stroke-linejoin:miter;stroke-opacity:1" d="M 926.353,109.412 932.627,108.157 z" id="boundary" inkscape:connector-curvature="0" />
	<path style="fill:none;stroke:red;stroke-width:1px;stroke-linecap:butt;stroke-linejoin:miter;stroke-opacity:1" d="M 896.235,120.706 901.882,117.569 z" id="boundary" inkscape:connector-curvature="0" />
	<path style="fill:none;stroke:red;stroke-width:1px;stroke-linecap:butt;stroke-linejoin:miter;stroke-opacity:1" d="M 871.765,126.353 878.039,123.843 z" id="boundary" inkscape:connector-curvature="0" />
	<path style="fill:none;stroke:red;stroke-width:1px;stroke-linecap:butt;stroke-linejoin:miter;stroke-opacity:1" d="M 883.686,120.706 889.961,120.706 z" id="boundary" inkscape:connector-curvature="0" />
	<path style="fill:none;stroke:red;stroke-width:1px;stroke-linecap:butt;stroke-linejoin:miter;stroke-opacity:1" d="M 878.039,123.843 883.686,120.706 z" id="boundary" inkscape:connector-curvature="0" />
	<path style="fill:none;stroke:red;stroke-width:1px;stroke-linecap:butt;stroke-linejoin:miter;stroke-opacity:1" d="M 896.235,120.706 889.961,120.706 z" id="boundary" inkscape:connector-curvature="0" />
	<path style="fill:none;stroke:red;stroke-width:1px;stroke-linecap:butt;stroke-linejoin:miter;stroke-opacity:1" d="M 871.765,126.353 865.49,129.49 z" id="boundary" inkscape:connector-curvature="0" />
	<path style="fill:none;stroke:red;stroke-width:1px;stroke-linecap:butt;stroke-linejoin:miter;stroke-opacity:1" d="M 963.373,98.7451 969.647,98.7451 z" id="boundary" inkscape:connector-curvature="0" />
	<path style="fill:none;stroke:red;stroke-width:1px;stroke-linecap:butt;stroke-linejoin:miter;stroke-opacity:1" d="M 957.098,100.627 963.373,98.7451 z" id="boundary" inkscape:connector-curvature="0" />
	<path style="fill:none;stroke:red;stroke-width:1px;stroke-linecap:butt;stroke-linejoin:miter;stroke-opacity:1" d="M 988.471,94.3529 982.196,97.4902 z" id="boundary" inkscape:connector-curvature="0" />
	<path style="fill:none;stroke:red;stroke-width:1px;stroke-linecap:butt;stroke-linejoin:miter;stroke-opacity:1" d="M 975.922,98.7451 969.647,98.7451 z" id="boundary" inkscape:connector-curvature="0" />
	<path style="fill:none;stroke:red;stroke-width:1px;stroke-linecap:butt;stroke-linejoin:miter;stroke-opacity:1" d="M 982.196,97.4902 975.922,98.7451 z" id="boundary" inkscape:connector-curvature="0" />
	<path style="fill:none;stroke:red;stroke-width:1px;stroke-linecap:butt;stroke-linejoin:miter;stroke-opacity:1" d="M 932.627,108.157 938.902,106.275 z" id="boundary" inkscape:connector-curvature="0" />
	<path style="fill:none;stroke:red;stroke-width:1px;stroke-linecap:butt;stroke-linejoin:miter;stroke-opacity:1" d="M 938.902,106.275 945.176,105.02 z" id="boundary" inkscape:connector-curvature="0" />
	<path style="fill:none;stroke:red;stroke-width:1px;stroke-linecap:butt;stroke-linejoin:miter;stroke-opacity:1" d="M 950.824,101.882 945.176,105.02 z" id="boundary" inkscape:connector-curvature="0" />
	<path style="fill:none;stroke:red;stroke-width:1px;stroke-linecap:butt;stroke-linejoin:miter;stroke-opacity:1" d="M 957.098,100.627 950.824,101.882 z" id="boundary" inkscape:connector-curvature="0" />
	<path style="fill:none;stroke:red;stroke-width:1px;stroke-linecap:butt;stroke-linejoin:miter;stroke-opacity:1" d="M 777.647,164.627 783.922,164.627 z" id="boundary" inkscape:connector-curvature="0" />
	<path style="fill:none;stroke:red;stroke-width:1px;stroke-linecap:butt;stroke-linejoin:miter;stroke-opacity:1" d="M 772,167.765 777.647,164.627 z" id="boundary" inkscape:connector-curvature="0" />
	<path style="fill:none;stroke:red;stroke-width:1px;stroke-linecap:butt;stroke-linejoin:miter;stroke-opacity:1" d="M 789.569,161.49 783.922,164.627 z" id="boundary" inkscape:connector-curvature="0" />
	<path style="fill:none;stroke:red;stroke-width:1px;stroke-linecap:butt;stroke-linejoin:miter;stroke-opacity:1" d="M 801.49,158.353 795.843,161.49 z" id="boundary" inkscape:connector-curvature="0" />
	<path style="fill:none;stroke:red;stroke-width:1px;stroke-linecap:butt;stroke-linejoin:miter;stroke-opacity:1" d="M 795.843,161.49 789.569,161.49 z" id="boundary" inkscape:connector-curvature="0" />
	<path style="fill:none;stroke:red;stroke-width:1px;stroke-linecap:butt;stroke-linejoin:miter;stroke-opacity:1" d="M 801.49,158.353 807.765,155.216 z" id="boundary" inkscape:connector-curvature="0" />
	<path style="fill:none;stroke:red;stroke-width:1px;stroke-linecap:butt;stroke-linejoin:miter;stroke-opacity:1" d="M 746.902,167.765 753.176,167.765 z" id="boundary" inkscape:connector-curvature="0" />
	<path style="fill:none;stroke:red;stroke-width:1px;stroke-linecap:butt;stroke-linejoin:miter;stroke-opacity:1" d="M 759.451,167.765 765.725,167.765 z" id="boundary" inkscape:connector-curvature="0" />
	<path style="fill:none;stroke:red;stroke-width:1px;stroke-linecap:butt;stroke-linejoin:miter;stroke-opacity:1" d="M 772,167.765 765.725,167.765 z" id="boundary" inkscape:connector-curvature="0" />
	<path style="fill:none;stroke:red;stroke-width:1px;stroke-linecap:butt;stroke-linejoin:miter;stroke-opacity:1" d="M 759.451,167.765 753.176,167.765 z" id="boundary" inkscape:connector-curvature="0" />
	<path style="fill:none;stroke:red;stroke-width:1px;stroke-linecap:butt;stroke-linejoin:miter;stroke-opacity:1" d="M 841.02,138.275 847.294,136.392 z" id="boundary" inkscape:connector-curvature="0" />
	<path style="fill:none;stroke:red;stroke-width:1px;stroke-linecap:butt;stroke-linejoin:miter;stroke-opacity:1" d="M 852.941,133.255 847.294,136.392 z" id="boundary" inkscape:connector-curvature="0" />
	<path style="fill:none;stroke:red;stroke-width:1px;stroke-linecap:butt;stroke-linejoin:miter;stroke-opacity:1" d="M 865.49,129.49 859.216,132.627 z" id="boundary" inkscape:connector-curvature="0" />
	<path style="fill:none;stroke:red;stroke-width:1px;stroke-linecap:butt;stroke-linejoin:miter;stroke-opacity:1" d="M 859.216,132.627 852.941,133.255 z" id="boundary" inkscape:connector-curvature="0" />
	<path style="fill:none;stroke:red;stroke-width:1px;stroke-linecap:butt;stroke-linejoin:miter;stroke-opacity:1" d="M 812.784,150.824 807.765,155.216 z" id="boundary" inkscape:connector-curvature="0" />
	<path style="fill:none;stroke:red;stroke-width:1px;stroke-linecap:butt;stroke-linejoin:miter;stroke-opacity:1" d="M 817.176,145.804 812.784,150.824 z" id="boundary" inkscape:connector-curvature="0" />
	<path style="fill:none;stroke:red;stroke-width:1px;stroke-linecap:butt;stroke-linejoin:miter;stroke-opacity:1" d="M 817.176,145.804 822.824,142.667 z" id="boundary" inkscape:connector-curvature="0" />
	<path style="fill:none;stroke:red;stroke-width:1px;stroke-linecap:butt;stroke-linejoin:miter;stroke-opacity:1" d="M 834.745,139.529 841.02,138.275 z" id="boundary" inkscape:connector-curvature="0" />
	<path style="fill:none;stroke:red;stroke-width:1px;stroke-linecap:butt;stroke-linejoin:miter;stroke-opacity:1" d="M 822.824,142.667 828.471,139.529 z" id="boundary" inkscape:connector-curvature="0" />
	<path style="fill:none;stroke:red;stroke-width:1px;stroke-linecap:butt;stroke-linejoin:miter;stroke-opacity:1" d="M 828.471,139.529 834.745,139.529 z" id="boundary" inkscape:connector-curvature="0" />
	<path style="fill:none;stroke:red;stroke-width:1px;stroke-linecap:butt;stroke-linejoin:miter;stroke-opacity:1" d="M 992.863,89.3333 988.471,94.3529 z" id="boundary" inkscape:connector-curvature="0" />
	<circle cx="4" cy="90.5882" r="4" fill="#0" id="circle0"/>
	<circle cx="4" cy="96.8627" r="4" fill="#0" id="circle1"/>
	<circle cx="4" cy="103.137" r="4" fill="#0" id="circle2"/>
	<circle cx="4" cy="109.412" r="4" fill="#0" id="circle3"/>
	<circle cx="7.13725" cy="81.1765" r="4" fill="#0" id="circle4"/>
	<circle cx="7.13725" cy="115.059" r="4" fill="#0" id="circle5"/>
	<circle cx="10.2745" cy="71.7647" r="4" fill="#0" id="circle6"/>
	<circle cx="10.2745" cy="120.706" r="4" fill="#0" id="circle7"/>
	<circle cx="13.4118" cy="65.4902" r="4" fill="#0" id="circle8"/>
	<circle cx="13.4118" cy="126.353" r="4" fill="#0" id="circle9"/>
	<circle cx="16.549" cy="59.2157" r="4" fill="#0" id="circle10"/>
	<circle cx="17.1765" cy="131.373" r="4" fill="#0" id="circle11"/>
	<circle cx="19.6863" cy="137.647" r="4" fill="#0" id="circle12"/>
	<circle cx="21.5686" cy="54.1961" r="4" fill="#0" id="circle13"/>
	<circle cx="24.7059" cy="142.039" r="4" fill="#0" id="circle14"/>
	<circle cx="26.5882" cy="49.1765" r="4" fill="#0" id="circle15"/>
	<circle cx="29.098" cy="147.059" r="4" fill="#0" id="circle16"/>
	<circle cx="31.6078" cy="44.7843" r="4" fill="#0" id="circle17"/>
	<circle cx="34.1176" cy="151.451" r="4" fill="#0" id="circle18"/>
	<circle cx="36" cy="39.7647" r="4" fill="#0" id="circle19"/>
	<circle cx="39.7647" cy="154.588" r="4" fill="#0" id="circle20"/>
	<circle cx="41.0196" cy="35.3725" r="4" fill="#0" id="circle21"/>
	<circle cx="44.7843" cy="158.353" r="4" fill="#0" id="circle22"/>
	<circle cx="45.4118" cy="30.3529" r="4" fill="#0" id="circle23"/>
	<circle cx="50.4314" cy="161.49" r="4" fill="#0" id="circle24"/>
	<circle cx="51.6863" cy="27.2157" r="4" fill="#0" id="circle25"/>
	<circle cx="56.0784" cy="164.627" r="4" fill="#0" id="circle26"/>
	<circle cx="56.7059" cy="22.8235" r="4" fill="#0" id="circle27"/>
	<circle cx="61.7255" cy="167.765" r="4" fill="#0" id="circle28"/>
	<circle cx="62.9804" cy="22.8235" r="4" fill="#0" id="circle29"/>
	<circle cx="67.3725" cy="170.902" r="4" fill="#0" id="circle30"/>
	<circle cx="68.6275" cy="19.6863" r="4" fill="#0" id="circle31"/>
	<circle cx="73.6471" cy="172.157" r="4" fill="#0" id="circle32"/>
	<circle cx="74.2745" cy="16.549" r="4" fill="#0" id="circle33"/>
	<circle cx="79.9216" cy="174.039" r="4" fill="#0" id="circle34"/>
	<circle cx="80.549" cy="16.549" r="4" fill="#0" id="circle35"/>
	<circle cx="86.1961" cy="13.4118" r="4" fill="#0" id="circle36"/>
	<circle cx="86.1961" cy="174.039" r="4" fill="#0" id="circle37"/>
	<circle cx="91.8431" cy="177.176" r="4" fill="#0" id="circle38"/>
	<circle cx="92.4706" cy="13.4118" r="4" fill="#0" id="circle39"/>
	<circle cx="98.1176" cy="177.176" r="4" fill="#0" id="circle40"/>
	<circle cx="98.7451" cy="11.5294" r="4" fill="#0" id="circle41"/>
	<circle cx="104.392" cy="177.176" r="4" fill="#0" id="circle42"/>
	<circle cx="105.02" cy="10.2745" r="4" fill="#0" id="circle43"/>
	<circle cx="110.039" cy="180.314" r="4" fill="#0" id="circle44"/>
	<circle cx="111.294" cy="10.2745" r="4" fill="#0" id="circle45"/>
	<circle cx="116.314" cy="180.314" r="4" fill="#0" id="circle46"/>
	<circle cx="117.569" cy="10.2745" r="4" fill="#0" id="circle47"/>
	<circle cx="122.588" cy="180.314" r="4" fill="#0" id="circle48"/>
	<circle cx="123.843" cy="8.39216" r="4" fill="#0" id="circle49"/>
	<circle cx="128.863" cy="180.314" r="4" fill="#0" id="circle50"/>
	<circle cx="130.118" cy="7.13725" r="4" fill="#0" id="circle51"/>
	<circle cx="135.137" cy="180.314" r="4" fill="#0" id="circle52"/>
	<circle cx="136.392" cy="7.13725" r="4" fill="#0" id="circle53"/>
	<circle cx="141.412" cy="180.314" r="4" fill="#0" id="circle54"/>
	<circle cx="142.667" cy="7.13725" r="4" fill="#0" id="circle55"/>
	<circle cx="147.686" cy="180.314" r="4" fill="#0" id="circle56"/>
	<circle cx="148.941" cy="7.13725" r="4" fill="#0" id="circle57"/>
	<circle cx="153.961" cy="180.314" r="4" fill="#0" id="circle58"/>
	<circle cx="155.216" cy="7.13725" r="4" fill="#0" id="circle59"/>
	<circle cx="160.235" cy="180.314" r="4" fill="#0" id="circle60"/>
	<circle cx="161.49" cy="7.13725" r="4" fill="#0" id="circle61"/>
	<circle cx="166.51" cy="180.314" r="4" fill="#0" id="circle62"/>
	<circle cx="167.765" cy="7.13725" r="4" fill="#0" id="circle63"/>
	<circle cx="172.784" cy="180.314" r="4" fill="#0" id="circle64"/>
	<circle cx="174.039" cy="7.13725" r="4" fill="#0" id="circle65"/>
	<circle cx="179.059" cy="180.314" r="4" fill="#0" id="circle66"/>
	<circle cx="180.314" cy="7.13725" r="4" fill="#0" id="circle67"/>
	<circle cx="185.333" cy="180.314" r="4" fill="#0" id="circle68"/>
	<circle cx="186.588" cy="7.13725" r="4" fill="#0" id="circle69"/>
	<circle cx="191.608" cy="180.314" r="4" fill="#0" id="circle70"/>
	<circle cx="192.863" cy="7.13725" r="4" fill="#0" id="circle71"/>
	<circle cx="197.882" cy="180.314" r="4" fill="#0" id="circle72"/>
	<circle cx="199.137" cy="5.2549" r="4" fill="#0" id="circle73"/>
	<circle cx="204.157" cy="180.314" r="4" fill="#0" id="circle74"/>
	<circle cx="205.412" cy="4" r="4" fill="#0" id="circle75"/>
	<circle cx="210.431" cy="180.314" r="4" fill="#0" id="circle76"/>
	<circle cx="211.059" cy="7.13725" r="4" fill="#0" id="circle77"/>
	<circle cx="216.706" cy="180.314" r="4" fill="#0" id="circle78"/>
	<circle cx="217.333" cy="7.13725" r="4" fill="#0" id="circle79"/>
	<circle cx="222.98" cy="179.059" r="4" fill="#0" id="circle80"/>
	<circle cx="223.608" cy="7.13725" r="4" fill="#0" id="circle81"/>
	<circle cx="229.255" cy="177.176" r="4" fill="#0" id="circle82"/>
	<circle cx="229.882" cy="7.13725" r="4" fill="#0" id="circle83"/>
	<circle cx="235.529" cy="177.176" r="4" fill="#0" id="circle84"/>
	<circle cx="236.157" cy="7.13725" r="4" fill="#0" id="circle85"/>
	<circle cx="241.804" cy="177.176" r="4" fill="#0" id="circle86"/>
	<circle cx="242.431" cy="7.13725" r="4" fill="#0" id="circle87"/>
	<circle cx="248.078" cy="177.176" r="4" fill="#0" id="circle88"/>
	<circle cx="248.706" cy="7.13725" r="4" fill="#0" id="circle89"/>
	<circle cx="254.353" cy="177.176" r="4" fill="#0" id="circle90"/>
	<circle cx="254.98" cy="7.13725" r="4" fill="#0" id="circle91"/>
	<circle cx="260.627" cy="177.176" r="4" fill="#0" id="circle92"/>
	<circle cx="261.255" cy="7.13725" r="4" fill="#0" id="circle93"/>
	<circle cx="266.902" cy="177.176" r="4" fill="#0" id="circle94"/>
	<circle cx="267.529" cy="7.13725" r="4" fill="#0" id="circle95"/>
	<circle cx="273.176" cy="177.176" r="4" fill="#0" id="circle96"/>
	<circle cx="273.804" cy="7.13725" r="4" fill="#0" id="circle97"/>
	<circle cx="279.451" cy="177.176" r="4" fill="#0" id="circle98"/>
	<circle cx="280.078" cy="7.13725" r="4" fill="#0" id="circle99"/>
	<circle cx="285.725" cy="177.176" r="4" fill="#0" id="circle100"/>
	<circle cx="286.353" cy="7.13725" r="4" fill="#0" id="circle101"/>
	<circle cx="291.373" cy="174.039" r="4" fill="#0" id="circle102"/>
	<circle cx="292.627" cy="7.13725" r="4" fill="#0" id="circle103"/>
	<circle cx="297.647" cy="174.039" r="4" fill="#0" id="circle104"/>
	<circle cx="298.902" cy="7.13725" r="4" fill="#0" id="circle105"/>
	<circle cx="303.294" cy="170.902" r="4" fill="#0" id="circle106"/>
	<circle cx="305.176" cy="8.39216" r="4" fill="#0" id="circle107"/>
	<circle cx="308.941" cy="167.765" r="4" fill="#0" id="circle108"/>
	<circle cx="311.451" cy="10.2745" r="4" fill="#0" id="circle109"/>
	<circle cx="315.216" cy="167.765" r="4" fill="#0" id="circle110"/>
	<circle cx="317.725" cy="11.5294" r="4" fill="#0" id="circle111"/>
	<circle cx="320.863" cy="164.627" r="4" fill="#0" id="circle112"/>
	<circle cx="324" cy="13.4118" r="4" fill="#0" id="circle113"/>
	<circle cx="326.51" cy="161.49" r="4" fill="#0" id="circle114"/>
	<circle cx="329.02" cy="17.1765" r="4" fill="#0" id="circle115"/>
	<circle cx="332.157" cy="157.725" r="4" fill="#0" id="circle116"/>
	<circle cx="335.294" cy="19.6863" r="4" fill="#0" id="circle117"/>
	<circle cx="337.176" cy="152.078" r="4" fill="#0" id="circle118"/>
	<circle cx="339.686" cy="24.7059" r="4" fill="#0" id="circle119"/>
	<circle cx="342.196" cy="147.686" r="4" fill="#0" id="circle120"/>
	<circle cx="344.706" cy="29.098" r="4" fill="#0" id="circle121"/>
	<circle cx="346.588" cy="142.667" r="4" fill="#0" id="circle122"/>
	<circle cx="350.353" cy="32.2353" r="4" fill="#0" id="circle123"/>
	<circle cx="352.863" cy="139.529" r="4" fill="#0" id="circle124"/>
	<circle cx="356" cy="35.3725" r="4" fill="#0" id="circle125"/>
	<circle cx="359.137" cy="139.529" r="4" fill="#0" id="circle126"/>
	<circle cx="362.275" cy="35.3725" r="4" fill="#0" id="circle127"/>
	<circle cx="365.412" cy="139.529" r="4" fill="#0" id="circle128"/>
	<circle cx="367.922" cy="32.2353" r="4" fill="#0" id="circle129"/>
	<circle cx="371.686" cy="139.529" r="4" fill="#0" id="circle130"/>
	<circle cx="374.196" cy="30.9804" r="4" fill="#0" id="circle131"/>
	<circle cx="377.961" cy="139.529" r="4" fill="#0" id="circle132"/>
	<circle cx="379.216" cy="25.9608" r="4" fill="#0" id="circle133"/>
	<circle cx="383.608" cy="142.667" r="4" fill="#0" id="circle134"/>
	<circle cx="385.49" cy="22.8235" r="4" fill="#0" id="circle135"/>
	<circle cx="389.255" cy="145.804" r="4" fill="#0" id="circle136"/>
	<circle cx="391.137" cy="19.6863" r="4" fill="#0" id="circle137"/>
	<circle cx="393.647" cy="150.824" r="4" fill="#0" id="circle138"/>
	<circle cx="396.784" cy="16.549" r="4" fill="#0" id="circle139"/>
	<circle cx="398.667" cy="155.216" r="4" fill="#0" id="circle140"/>
	<circle cx="402.431" cy="13.4118" r="4" fill="#0" id="circle141"/>
	<circle cx="404.314" cy="158.353" r="4" fill="#0" id="circle142"/>
	<circle cx="408.706" cy="12.1569" r="4" fill="#0" id="circle143"/>
	<circle cx="409.961" cy="161.49" r="4" fill="#0" id="circle144"/>
	<circle cx="414.98" cy="10.2745" r="4" fill="#0" id="circle145"/>
	<circle cx="416.235" cy="161.49" r="4" fill="#0" id="circle146"/>
	<circle cx="421.255" cy="10.2745" r="4" fill="#0" id="circle147"/>
	<circle cx="421.882" cy="164.627" r="4" fill="#0" id="circle148"/>
	<circle cx="427.529" cy="10.2745" r="4" fill="#0" id="circle149"/>
	<circle cx="428.157" cy="164.627" r="4" fill="#0" id="circle150"/>
	<circle cx="433.804" cy="10.2745" r="4" fill="#0" id="circle151"/>
	<circle cx="434.431" cy="164.627" r="4" fill="#0" id="circle152"/>
	<circle cx="440.078" cy="10.2745" r="4" fill="#0" id="circle153"/>
	<circle cx="440.706" cy="164.627" r="4" fill="#0" id="circle154"/>
	<circle cx="446.353" cy="10.2745" r="4" fill="#0" id="circle155"/>
	<circle cx="446.98" cy="164.627" r="4" fill="#0" id="circle156"/>
	<circle cx="452.627" cy="10.2745" r="4" fill="#0" id="circle157"/>
	<circle cx="453.255" cy="164.627" r="4" fill="#0" id="circle158"/>
	<circle cx="458.902" cy="10.2745" r="4" fill="#0" id="circle159"/>
	<circle cx="459.529" cy="164.627" r="4" fill="#0" id="circle160"/>
	<circle cx="465.176" cy="10.2745" r="4" fill="#0" id="circle161"/>
	<circle cx="465.804" cy="165.882" r="4" fill="#0" id="circle162"/>
	<circle cx="471.451" cy="10.2745" r="4" fill="#0" id="circle163"/>
	<circle cx="472.078" cy="167.765" r="4" fill="#0" id="circle164"/>
	<circle cx="477.725" cy="10.2745" r="4" fill="#0" id="circle165"/>
	<circle cx="478.353" cy="167.765" r="4" fill="#0" id="circle166"/>
	<circle cx="484" cy="10.2745" r="4" fill="#0" id="circle167"/>
	<circle cx="484.627" cy="167.765" r="4" fill="#0" id="circle168"/>
	<circle cx="490.275" cy="10.2745" r="4" fill="#0" id="circle169"/>
	<circle cx="490.902" cy="167.765" r="4" fill="#0" id="circle170"/>
	<circle cx="496.549" cy="10.2745" r="4" fill="#0" id="circle171"/>
	<circle cx="497.176" cy="167.765" r="4" fill="#0" id="circle172"/>
	<circle cx="502.824" cy="10.2745" r="4" fill="#0" id="circle173"/>
	<circle cx="503.451" cy="167.765" r="4" fill="#0" id="circle174"/>
	<circle cx="509.098" cy="10.2745" r="4" fill="#0" id="circle175"/>
	<circle cx="509.725" cy="167.765" r="4" fill="#0" id="circle176"/>
	<circle cx="515.373" cy="10.2745" r="4" fill="#0" id="circle177"/>
	<circle cx="516" cy="167.765" r="4" fill="#0" id="circle178"/>
	<circle cx="521.647" cy="10.2745" r="4" fill="#0" id="circle179"/>
	<circle cx="522.275" cy="167.765" r="4" fill="#0" id="circle180"/>
	<circle cx="527.294" cy="13.4118" r="4" fill="#0" id="circle181"/>
	<circle cx="528.549" cy="167.765" r="4" fill="#0" id="circle182"/>
	<circle cx="533.569" cy="13.4118" r="4" fill="#0" id="circle183"/>
	<circle cx="534.824" cy="167.765" r="4" fill="#0" id="circle184"/>
	<circle cx="539.843" cy="13.4118" r="4" fill="#0" id="circle185"/>
	<circle cx="541.098" cy="167.765" r="4" fill="#0" id="circle186"/>
	<circle cx="546.118" cy="13.4118" r="4" fill="#0" id="circle187"/>
	<circle cx="547.373" cy="167.765" r="4" fill="#0" id="circle188"/>
	<circle cx="552.392" cy="13.4118" r="4" fill="#0" id="circle189"/>
	<circle cx="553.647" cy="167.765" r="4" fill="#0" id="circle190"/>
	<circle cx="558.667" cy="13.4118" r="4" fill="#0" id="circle191"/>
	<circle cx="559.294" cy="170.902" r="4" fill="#0" id="circle192"/>
	<circle cx="564.941" cy="13.4118" r="4" fill="#0" id="circle193"/>
	<circle cx="565.569" cy="170.902" r="4" fill="#0" id="circle194"/>
	<circle cx="571.216" cy="13.4118" r="4" fill="#0" id="circle195"/>
	<circle cx="571.843" cy="170.902" r="4" fill="#0" id="circle196"/>
	<circle cx="577.49" cy="13.4118" r="4" fill="#0" id="circle197"/>
	<circle cx="578.118" cy="170.902" r="4" fill="#0" id="circle198"/>
	<circle cx="583.765" cy="13.4118" r="4" fill="#0" id="circle199"/>
	<circle cx="584.392" cy="170.902" r="4" fill="#0" id="circle200"/>
	<circle cx="589.412" cy="10.2745" r="4" fill="#0" id="circle201"/>
	<circle cx="590.667" cy="170.902" r="4" fill="#0" id="circle202"/>
	<circle cx="595.686" cy="10.2745" r="4" fill="#0" id="circle203"/>
	<circle cx="596.941" cy="170.902" r="4" fill="#0" id="circle204"/>
	<circle cx="601.961" cy="10.2745" r="4" fill="#0" id="circle205"/>
	<circle cx="603.216" cy="170.902" r="4" fill="#0" id="circle206"/>
	<circle cx="608.235" cy="10.2745" r="4" fill="#0" id="circle207"/>
	<circle cx="609.49" cy="170.902" r="4" fill="#0" id="circle208"/>
	<circle cx="614.51" cy="10.2745" r="4" fill="#0" id="circle209"/>
	<circle cx="615.765" cy="170.902" r="4" fill="#0" id="circle210"/>
	<circle cx="620.784" cy="10.2745" r="4" fill="#0" id="circle211"/>
	<circle cx="622.039" cy="170.902" r="4" fill="#0" id="circle212"/>
	<circle cx="627.059" cy="10.2745" r="4" fill="#0" id="circle213"/>
	<circle cx="628.314" cy="170.902" r="4" fill="#0" id="circle214"/>
	<circle cx="633.333" cy="10.2745" r="4" fill="#0" id="circle215"/>
	<circle cx="634.588" cy="170.902" r="4" fill="#0" id="circle216"/>
	<circle cx="639.608" cy="10.2745" r="4" fill="#0" id="circle217"/>
	<circle cx="640.863" cy="170.902" r="4" fill="#0" id="circle218"/>
	<circle cx="645.882" cy="10.2745" r="4" fill="#0" id="circle219"/>
	<circle cx="647.137" cy="170.902" r="4" fill="#0" id="circle220"/>
	<circle cx="652.157" cy="10.2745" r="4" fill="#0" id="circle221"/>
	<circle cx="653.412" cy="170.902" r="4" fill="#0" id="circle222"/>
	<circle cx="658.431" cy="10.2745" r="4" fill="#0" id="circle223"/>
	<circle cx="659.686" cy="170.902" r="4" fill="#0" id="circle224"/>
	<circle cx="664.706" cy="10.2745" r="4" fill="#0" id="circle225"/>
	<circle cx="665.961" cy="170.902" r="4" fill="#0" id="circle226"/>
	<circle cx="670.98" cy="10.2745" r="4" fill="#0" id="circle227"/>
	<circle cx="672.235" cy="170.902" r="4" fill="#0" id="circle228"/>
	<circle cx="677.255" cy="10.2745" r="4" fill="#0" id="circle229"/>
	<circle cx="678.51" cy="170.902" r="4" fill="#0" id="circle230"/>
	<circle cx="683.529" cy="10.2745" r="4" fill="#0" id="circle231"/>
	<circle cx="684.784" cy="170.902" r="4" fill="#0" id="circle232"/>
	<circle cx="689.176" cy="13.4118" r="4" fill="#0" id="circle233"/>
	<circle cx="691.059" cy="170.902" r="4" fill="#0" id="circle234"/>
	<circle cx="695.451" cy="10.902" r="4" fill="#0" id="circle235"/>
	<circle cx="697.333" cy="170.902" r="4" fill="#0" id="circle236"/>
	<circle cx="701.725" cy="10.2745" r="4" fill="#0" id="circle237"/>
	<circle cx="703.608" cy="170.902" r="4" fill="#0" id="circle238"/>
	<circle cx="708" cy="10.2745" r="4" fill="#0" id="circle239"/>
	<circle cx="709.882" cy="170.902" r="4" fill="#0" id="circle240"/>
	<circle cx="714.275" cy="10.2745" r="4" fill="#0" id="circle241"/>
	<circle cx="716.157" cy="170.902" r="4" fill="#0" id="circle242"/>
	<circle cx="719.922" cy="13.4118" r="4" fill="#0" id="circle243"/>
	<circle cx="722.431" cy="170.902" r="4" fill="#0" id="circle244"/>
	<circle cx="726.196" cy="13.4118" r="4" fill="#0" id="circle245"/>
	<circle cx="728.706" cy="170.902" r="4" fill="#0" id="circle246"/>
	<circle cx="732.471" cy="13.4118" r="4" fill="#0" id="circle247"/>
	<circle cx="734.353" cy="167.765" r="4" fill="#0" id="circle248"/>
	<circle cx="738.118" cy="10.2745" r="4" fill="#0" id="circle249"/>
	<circle cx="740.627" cy="167.765" r="4" fill="#0" id="circle250"/>
	<circle cx="744.392" cy="10.2745" r="4" fill="#0" id="circle251"/>
	<circle cx="746.902" cy="167.765" r="4" fill="#0" id="circle252"/>
	<circle cx="750.039" cy="13.4118" r="4" fill="#0" id="circle253"/>
	<circle cx="753.176" cy="167.765" r="4" fill="#0" id="circle254"/>
	<circle cx="756.314" cy="13.4118" r="4" fill="#0" id="circle255"/>
	<circle cx="759.451" cy="167.765" r="4" fill="#0" id="circle256"/>
	<circle cx="762.588" cy="13.4118" r="4" fill="#0" id="circle257"/>
	<circle cx="765.725" cy="167.765" r="4" fill="#0" id="circle258"/>
	<circle cx="768.863" cy="13.4118" r="4" fill="#0" id="circle259"/>
	<circle cx="772" cy="167.765" r="4" fill="#0" id="circle260"/>
	<circle cx="775.137" cy="13.4118" r="4" fill="#0" id="circle261"/>
	<circle cx="777.647" cy="164.627" r="4" fill="#0" id="circle262"/>
	<circle cx="781.412" cy="13.4118" r="4" fill="#0" id="circle263"/>
	<circle cx="783.922" cy="164.627" r="4" fill="#0" id="circle264"/>
	<circle cx="787.686" cy="14.0392" r="4" fill="#0" id="circle265"/>
	<circle cx="789.569" cy="161.49" r="4" fill="#0" id="circle266"/>
	<circle cx="793.961" cy="16.549" r="4" fill="#0" id="circle267"/>
	<circle cx="795.843" cy="161.49" r="4" fill="#0" id="circle268"/>
	<circle cx="799.608" cy="19.6863" r="4" fill="#0" id="circle269"/>
	<circle cx="801.49" cy="158.353" r="4" fill="#0" id="circle270"/>
	<circle cx="805.882" cy="19.6863" r="4" fill="#0" id="circle271"/>
	<circle cx="807.765" cy="155.216" r="4" fill="#0" id="circle272"/>
	<circle cx="811.529" cy="22.8235" r="4" fill="#0" id="circle273"/>
	<circle cx="812.784" cy="150.824" r="4" fill="#0" id="circle274"/>
	<circle cx="817.176" cy="25.9608" r="4" fill="#0" id="circle275"/>
	<circle cx="817.176" cy="145.804" r="4" fill="#0" id="circle276"/>
	<circle cx="822.824" cy="29.098" r="4" fill="#0" id="circle277"/>
	<circle cx="822.824" cy="142.667" r="4" fill="#0" id="circle278"/>
	<circle cx="828.471" cy="139.529" r="4" fill="#0" id="circle279"/>
	<circle cx="829.098" cy="30.3529" r="4" fill="#0" id="circle280"/>
	<circle cx="834.745" cy="139.529" r="4" fill="#0" id="circle281"/>
	<circle cx="835.373" cy="32.2353" r="4" fill="#0" id="circle282"/>
	<circle cx="841.02" cy="138.275" r="4" fill="#0" id="circle283"/>
	<circle cx="841.647" cy="32.2353" r="4" fill="#0" id="circle284"/>
	<circle cx="847.294" cy="136.392" r="4" fill="#0" id="circle285"/>
	<circle cx="847.922" cy="33.4902" r="4" fill="#0" id="circle286"/>
	<circle cx="852.941" cy="133.255" r="4" fill="#0" id="circle287"/>
	<circle cx="853.569" cy="36.6275" r="4" fill="#0" id="circle288"/>
	<circle cx="859.216" cy="132.627" r="4" fill="#0" id="circle289"/>
	<circle cx="859.843" cy="39.1373" r="4" fill="#0" id="circle290"/>
	<circle cx="865.49" cy="129.49" r="4" fill="#0" id="circle291"/>
	<circle cx="866.118" cy="41.6471" r="4" fill="#0" id="circle292"/>
	<circle cx="871.765" cy="126.353" r="4" fill="#0" id="circle293"/>
	<circle cx="872.392" cy="41.6471" r="4" fill="#0" id="circle294"/>
	<circle cx="878.039" cy="44.7843" r="4" fill="#0" id="circle295"/>
	<circle cx="878.039" cy="123.843" r="4" fill="#0" id="circle296"/>
	<circle cx="883.686" cy="120.706" r="4" fill="#0" id="circle297"/>
	<circle cx="884.314" cy="44.7843" r="4" fill="#0" id="circle298"/>
	<circle cx="889.961" cy="120.706" r="4" fill="#0" id="circle299"/>
	<circle cx="890.588" cy="44.7843" r="4" fill="#0" id="circle300"/>
	<circle cx="896.235" cy="47.9216" r="4" fill="#0" id="circle301"/>
	<circle cx="896.235" cy="120.706" r="4" fill="#0" id="circle302"/>
	<circle cx="901.882" cy="117.569" r="4" fill="#0" id="circle303"/>
	<circle cx="902.51" cy="47.9216" r="4" fill="#0" id="circle304"/>
	<circle cx="908.157" cy="51.0588" r="4" fill="#0" id="circle305"/>
	<circle cx="908.157" cy="114.431" r="4" fill="#0" id="circle306"/>
	<circle cx="914.431" cy="52.9412" r="4" fill="#0" id="circle307"/>
	<circle cx="914.431" cy="114.431" r="4" fill="#0" id="circle308"/>
	<circle cx="920.078" cy="111.294" r="4" fill="#0" id="circle309"/>
	<circle cx="920.706" cy="54.1961" r="4" fill="#0" id="circle310"/>
	<circle cx="926.353" cy="109.412" r="4" fill="#0" id="circle311"/>
	<circle cx="926.98" cy="54.1961" r="4" fill="#0" id="circle312"/>
	<circle cx="932.627" cy="57.3333" r="4" fill="#0" id="circle313"/>
	<circle cx="932.627" cy="108.157" r="4" fill="#0" id="circle314"/>
	<circle cx="938.902" cy="57.3333" r="4" fill="#0" id="circle315"/>
	<circle cx="938.902" cy="106.275" r="4" fill="#0" id="circle316"/>
	<circle cx="945.176" cy="58.5882" r="4" fill="#0" id="circle317"/>
	<circle cx="945.176" cy="105.02" r="4" fill="#0" id="circle318"/>
	<circle cx="950.824" cy="101.882" r="4" fill="#0" id="circle319"/>
	<circle cx="951.451" cy="60.4706" r="4" fill="#0" id="circle320"/>
	<circle cx="957.098" cy="100.627" r="4" fill="#0" id="circle321"/>
	<circle cx="957.725" cy="61.7255" r="4" fill="#0" id="circle322"/>
	<circle cx="963.373" cy="98.7451" r="4" fill="#0" id="circle323"/>
	<circle cx="964" cy="63.6078" r="4" fill="#0" id="circle324"/>
	<circle cx="969.647" cy="98.7451" r="4" fill="#0" id="circle325"/>
	<circle cx="970.275" cy="63.6078" r="4" fill="#0" id="circle326"/>
	<circle cx="975.922" cy="98.7451" r="4" fill="#0" id="circle327"/>
	<circle cx="976.549" cy="63.6078" r="4" fill="#0" id="circle328"/>
	<circle cx="982.196" cy="66.7451" r="4" fill="#0" id="circle329"/>
	<circle cx="982.196" cy="97.4902" r="4" fill="#0" id="circle330"/>
	<circle cx="987.843" cy="69.8824" r="4" fill="#0" id="circle331"/>
	<circle cx="988.471" cy="94.3529" r="4" fill="#0" id="circle332"/>
	<circle cx="992.863" cy="73.6471" r="4" fill="#0" id="circle333"/>
	<circle cx="992.863" cy="89.3333" r="4" fill="#0" id="circle334"/>
	<circle cx="996" cy="79.2941" r="4" fill="#0" id="circle335"/>
	</g>
</svg>