<?xml version="1.0" encoding="UTF-8" standalone="no"?>
<!-- Created with CurveBenchmark -->
<svg
	xmlns:dc="http://purl.org/dc/elements/1.1/"
	xmlns:cc="http://creativecommons.org/ns#"
	xmlns:rdf="http://www.w3.org/1999/02/22-rdf-syntax-ns#"
	xmlns:svg="http://www.w3.org/2000/svg"
	xmlns="http://www.w3.org/2000/svg"
	xmlns:sodipodi="http://sodipodi.sourceforge.net/DTD/sodipodi-0.dtd"
	xmlns:inkscape="http://www.inkscape.org/namespaces/inkscape"
	width="1000"
	height="1000"
	id="svg2"
	version="1.1"
	sodipodi:docname="manifold/gathang-mgen1bp.png.txt">
<defs
	id="defs4" />
<metadata
	id="metadata7">
	<rdf:RDF>
		<cc:Work
			rdf:about="">
			<dc:format>image/svg+xml</dc:format>
			<dc:type
				rdf:resource="http://purl.org/dc/dcmitype/StillImage" />
			<dc:title></dc:title>
		</cc:Work>
	</rdf:RDF>
</metadata>
<g
	inkscape:label="Layer 1"
	inkscape:groupmode="layer"
	id="layer1">
	<path style="fill:none;stroke:red;stroke-width:1px;stroke-linecap:butt;stroke-linejoin:miter;stroke-opacity:1" d="M 14.5308,71.397 4,52.4416 z" id="boundary" inkscape:connector-curvature="0" />
	<path style="fill:none;stroke:red;stroke-width:1px;stroke-linecap:butt;stroke-linejoin:miter;stroke-opacity:1" d="M 14.5308,71.397 14.5308,92.4586 z" id="boundary" inkscape:connector-curvature="0" />
	<path style="fill:none;stroke:red;stroke-width:1px;stroke-linecap:butt;stroke-linejoin:miter;stroke-opacity:1" d="M 4,52.4416 20.8493,35.5924 z" id="boundary" inkscape:connector-curvature="0" />
	<path style="fill:none;stroke:red;stroke-width:1px;stroke-linecap:butt;stroke-linejoin:miter;stroke-opacity:1" d="M 20.8493,35.5924 37.6985,48.2293 z" id="boundary" inkscape:connector-curvature="0" />
	<path style="fill:none;stroke:red;stroke-width:1px;stroke-linecap:butt;stroke-linejoin:miter;stroke-opacity:1" d="M 29.2739,109.308 14.5308,92.4586 z" id="boundary" inkscape:connector-curvature="0" />
	<path style="fill:none;stroke:red;stroke-width:1px;stroke-linecap:butt;stroke-linejoin:miter;stroke-opacity:1" d="M 48.2293,67.1847 37.6985,48.2293 z" id="boundary" inkscape:connector-curvature="0" />
	<path style="fill:none;stroke:red;stroke-width:1px;stroke-linecap:butt;stroke-linejoin:miter;stroke-opacity:1" d="M 69.2909,73.5032 48.2293,67.1847 z" id="boundary" inkscape:connector-curvature="0" />
	<path style="fill:none;stroke:red;stroke-width:1px;stroke-linecap:butt;stroke-linejoin:miter;stroke-opacity:1" d="M 46.1231,121.945 29.2739,109.308 z" id="boundary" inkscape:connector-curvature="0" />
	<path style="fill:none;stroke:red;stroke-width:1px;stroke-linecap:butt;stroke-linejoin:miter;stroke-opacity:1" d="M 90.3524,77.7155 69.2909,73.5032 z" id="boundary" inkscape:connector-curvature="0" />
	<path style="fill:none;stroke:red;stroke-width:1px;stroke-linecap:butt;stroke-linejoin:miter;stroke-opacity:1" d="M 58.7601,138.794 46.1231,121.945 z" id="boundary" inkscape:connector-curvature="0" />
	<path style="fill:none;stroke:red;stroke-width:1px;stroke-linecap:butt;stroke-linejoin:miter;stroke-opacity:1" d="M 77.7155,271.482 67.1847,252.527 z" id="boundary" inkscape:connector-curvature="0" />
	<path style="fill:none;stroke:red;stroke-width:1px;stroke-linecap:butt;stroke-linejoin:miter;stroke-opacity:1" d="M 67.1847,252.527 88.2463,246.208 z" id="boundary" inkscape:connector-curvature="0" />
	<path style="fill:none;stroke:red;stroke-width:1px;stroke-linecap:butt;stroke-linejoin:miter;stroke-opacity:1" d="M 58.7601,138.794 75.6093,153.537 z" id="boundary" inkscape:connector-curvature="0" />
	<path style="fill:none;stroke:red;stroke-width:1px;stroke-linecap:butt;stroke-linejoin:miter;stroke-opacity:1" d="M 75.6093,153.537 90.3524,170.386 z" id="boundary" inkscape:connector-curvature="0" />
	<path style="fill:none;stroke:red;stroke-width:1px;stroke-linecap:butt;stroke-linejoin:miter;stroke-opacity:1" d="M 98.7771,191.448 98.7771,212.51 z" id="boundary" inkscape:connector-curvature="0" />
	<path style="fill:none;stroke:red;stroke-width:1px;stroke-linecap:butt;stroke-linejoin:miter;stroke-opacity:1" d="M 98.7771,191.448 90.3524,170.386 z" id="boundary" inkscape:connector-curvature="0" />
	<path style="fill:none;stroke:red;stroke-width:1px;stroke-linecap:butt;stroke-linejoin:miter;stroke-opacity:1" d="M 88.2463,246.208 109.308,237.783 z" id="boundary" inkscape:connector-curvature="0" />
	<path style="fill:none;stroke:red;stroke-width:1px;stroke-linecap:butt;stroke-linejoin:miter;stroke-opacity:1" d="M 98.7771,212.51 109.308,237.783 z" id="boundary" inkscape:connector-curvature="0" />
	<path style="fill:none;stroke:red;stroke-width:1px;stroke-linecap:butt;stroke-linejoin:miter;stroke-opacity:1" d="M 92.4586,288.331 77.7155,271.482 z" id="boundary" inkscape:connector-curvature="0" />
	<path style="fill:none;stroke:red;stroke-width:1px;stroke-linecap:butt;stroke-linejoin:miter;stroke-opacity:1" d="M 90.3524,77.7155 111.414,84.034 z" id="boundary" inkscape:connector-curvature="0" />
	<path style="fill:none;stroke:red;stroke-width:1px;stroke-linecap:butt;stroke-linejoin:miter;stroke-opacity:1" d="M 237.783,50.3355 258.845,39.8047 z" id="boundary" inkscape:connector-curvature="0" />
	<path style="fill:none;stroke:red;stroke-width:1px;stroke-linecap:butt;stroke-linejoin:miter;stroke-opacity:1" d="M 258.845,39.8047 279.907,35.5924 z" id="boundary" inkscape:connector-curvature="0" />
	<path style="fill:none;stroke:red;stroke-width:1px;stroke-linecap:butt;stroke-linejoin:miter;stroke-opacity:1" d="M 237.783,50.3355 216.722,60.8662 z" id="boundary" inkscape:connector-curvature="0" />
	<path style="fill:none;stroke:red;stroke-width:1px;stroke-linecap:butt;stroke-linejoin:miter;stroke-opacity:1" d="M 216.722,60.8662 195.66,71.397 z" id="boundary" inkscape:connector-curvature="0" />
	<path style="fill:none;stroke:red;stroke-width:1px;stroke-linecap:butt;stroke-linejoin:miter;stroke-opacity:1" d="M 195.66,71.397 174.599,77.7155 z" id="boundary" inkscape:connector-curvature="0" />
	<path style="fill:none;stroke:red;stroke-width:1px;stroke-linecap:butt;stroke-linejoin:miter;stroke-opacity:1" d="M 174.599,77.7155 153.537,77.7155 z" id="boundary" inkscape:connector-curvature="0" />
	<path style="fill:none;stroke:red;stroke-width:1px;stroke-linecap:butt;stroke-linejoin:miter;stroke-opacity:1" d="M 340.985,14.5308 362.047,10.3185 z" id="boundary" inkscape:connector-curvature="0" />
	<path style="fill:none;stroke:red;stroke-width:1px;stroke-linecap:butt;stroke-linejoin:miter;stroke-opacity:1" d="M 319.924,20.8493 340.985,14.5308 z" id="boundary" inkscape:connector-curvature="0" />
	<path style="fill:none;stroke:red;stroke-width:1px;stroke-linecap:butt;stroke-linejoin:miter;stroke-opacity:1" d="M 383.108,4 362.047,10.3185 z" id="boundary" inkscape:connector-curvature="0" />
	<path style="fill:none;stroke:red;stroke-width:1px;stroke-linecap:butt;stroke-linejoin:miter;stroke-opacity:1" d="M 279.907,35.5924 298.862,25.0616 z" id="boundary" inkscape:connector-curvature="0" />
	<path style="fill:none;stroke:red;stroke-width:1px;stroke-linecap:butt;stroke-linejoin:miter;stroke-opacity:1" d="M 298.862,25.0616 319.924,20.8493 z" id="boundary" inkscape:connector-curvature="0" />
	<path style="fill:none;stroke:red;stroke-width:1px;stroke-linecap:butt;stroke-linejoin:miter;stroke-opacity:1" d="M 153.537,77.7155 132.476,81.9278 z" id="boundary" inkscape:connector-curvature="0" />
	<path style="fill:none;stroke:red;stroke-width:1px;stroke-linecap:butt;stroke-linejoin:miter;stroke-opacity:1" d="M 132.476,81.9278 111.414,84.034 z" id="boundary" inkscape:connector-curvature="0" />
	<path style="fill:none;stroke:red;stroke-width:1px;stroke-linecap:butt;stroke-linejoin:miter;stroke-opacity:1" d="M 128.263,311.499 109.308,300.968 z" id="boundary" inkscape:connector-curvature="0" />
	<path style="fill:none;stroke:red;stroke-width:1px;stroke-linecap:butt;stroke-linejoin:miter;stroke-opacity:1" d="M 147.219,322.03 128.263,311.499 z" id="boundary" inkscape:connector-curvature="0" />
	<path style="fill:none;stroke:red;stroke-width:1px;stroke-linecap:butt;stroke-linejoin:miter;stroke-opacity:1" d="M 109.308,300.968 92.4586,288.331 z" id="boundary" inkscape:connector-curvature="0" />
	<path style="fill:none;stroke:red;stroke-width:1px;stroke-linecap:butt;stroke-linejoin:miter;stroke-opacity:1" d="M 164.068,336.773 147.219,322.03 z" id="boundary" inkscape:connector-curvature="0" />
	<path style="fill:none;stroke:red;stroke-width:1px;stroke-linecap:butt;stroke-linejoin:miter;stroke-opacity:1" d="M 164.068,336.773 178.811,353.622 z" id="boundary" inkscape:connector-curvature="0" />
	<path style="fill:none;stroke:red;stroke-width:1px;stroke-linecap:butt;stroke-linejoin:miter;stroke-opacity:1" d="M 178.811,374.684 178.811,353.622 z" id="boundary" inkscape:connector-curvature="0" />
	<path style="fill:none;stroke:red;stroke-width:1px;stroke-linecap:butt;stroke-linejoin:miter;stroke-opacity:1" d="M 178.811,374.684 161.962,389.427 z" id="boundary" inkscape:connector-curvature="0" />
	<path style="fill:none;stroke:red;stroke-width:1px;stroke-linecap:butt;stroke-linejoin:miter;stroke-opacity:1" d="M 98.7771,536.858 98.7771,557.919 z" id="boundary" inkscape:connector-curvature="0" />
	<path style="fill:none;stroke:red;stroke-width:1px;stroke-linecap:butt;stroke-linejoin:miter;stroke-opacity:1" d="M 98.7771,536.858 109.308,515.796 z" id="boundary" inkscape:connector-curvature="0" />
	<path style="fill:none;stroke:red;stroke-width:1px;stroke-linecap:butt;stroke-linejoin:miter;stroke-opacity:1" d="M 98.7771,578.981 98.7771,600.042 z" id="boundary" inkscape:connector-curvature="0" />
	<path style="fill:none;stroke:red;stroke-width:1px;stroke-linecap:butt;stroke-linejoin:miter;stroke-opacity:1" d="M 98.7771,621.104 98.7771,600.042 z" id="boundary" inkscape:connector-curvature="0" />
	<path style="fill:none;stroke:red;stroke-width:1px;stroke-linecap:butt;stroke-linejoin:miter;stroke-opacity:1" d="M 109.308,640.059 98.7771,621.104 z" id="boundary" inkscape:connector-curvature="0" />
	<path style="fill:none;stroke:red;stroke-width:1px;stroke-linecap:butt;stroke-linejoin:miter;stroke-opacity:1" d="M 98.7771,578.981 98.7771,557.919 z" id="boundary" inkscape:connector-curvature="0" />
	<path style="fill:none;stroke:red;stroke-width:1px;stroke-linecap:butt;stroke-linejoin:miter;stroke-opacity:1" d="M 109.308,494.735 119.839,473.673 z" id="boundary" inkscape:connector-curvature="0" />
	<path style="fill:none;stroke:red;stroke-width:1px;stroke-linecap:butt;stroke-linejoin:miter;stroke-opacity:1" d="M 109.308,515.796 109.308,494.735 z" id="boundary" inkscape:connector-curvature="0" />
	<path style="fill:none;stroke:red;stroke-width:1px;stroke-linecap:butt;stroke-linejoin:miter;stroke-opacity:1" d="M 109.308,640.059 100.883,671.652 z" id="boundary" inkscape:connector-curvature="0" />
	<path style="fill:none;stroke:red;stroke-width:1px;stroke-linecap:butt;stroke-linejoin:miter;stroke-opacity:1" d="M 86.1401,688.501 100.883,671.652 z" id="boundary" inkscape:connector-curvature="0" />
	<path style="fill:none;stroke:red;stroke-width:1px;stroke-linecap:butt;stroke-linejoin:miter;stroke-opacity:1" d="M 46.1231,694.82 46.1231,715.881 z" id="boundary" inkscape:connector-curvature="0" />
	<path style="fill:none;stroke:red;stroke-width:1px;stroke-linecap:butt;stroke-linejoin:miter;stroke-opacity:1" d="M 46.1231,736.943 46.1231,715.881 z" id="boundary" inkscape:connector-curvature="0" />
	<path style="fill:none;stroke:red;stroke-width:1px;stroke-linecap:butt;stroke-linejoin:miter;stroke-opacity:1" d="M 62.9724,772.747 46.1231,758.004 z" id="boundary" inkscape:connector-curvature="0" />
	<path style="fill:none;stroke:red;stroke-width:1px;stroke-linecap:butt;stroke-linejoin:miter;stroke-opacity:1" d="M 46.1231,758.004 46.1231,736.943 z" id="boundary" inkscape:connector-curvature="0" />
	<path style="fill:none;stroke:red;stroke-width:1px;stroke-linecap:butt;stroke-linejoin:miter;stroke-opacity:1" d="M 62.9724,772.747 71.397,793.809 z" id="boundary" inkscape:connector-curvature="0" />
	<path style="fill:none;stroke:red;stroke-width:1px;stroke-linecap:butt;stroke-linejoin:miter;stroke-opacity:1" d="M 46.1231,694.82 67.1847,699.032 z" id="boundary" inkscape:connector-curvature="0" />
	<path style="fill:none;stroke:red;stroke-width:1px;stroke-linecap:butt;stroke-linejoin:miter;stroke-opacity:1" d="M 86.1401,688.501 67.1847,699.032 z" id="boundary" inkscape:connector-curvature="0" />
	<path style="fill:none;stroke:red;stroke-width:1px;stroke-linecap:butt;stroke-linejoin:miter;stroke-opacity:1" d="M 92.4586,795.915 71.397,793.809 z" id="boundary" inkscape:connector-curvature="0" />
	<path style="fill:none;stroke:red;stroke-width:1px;stroke-linecap:butt;stroke-linejoin:miter;stroke-opacity:1" d="M 113.52,795.915 92.4586,795.915 z" id="boundary" inkscape:connector-curvature="0" />
	<path style="fill:none;stroke:red;stroke-width:1px;stroke-linecap:butt;stroke-linejoin:miter;stroke-opacity:1" d="M 119.839,473.673 130.369,452.611 z" id="boundary" inkscape:connector-curvature="0" />
	<path style="fill:none;stroke:red;stroke-width:1px;stroke-linecap:butt;stroke-linejoin:miter;stroke-opacity:1" d="M 130.369,452.611 140.9,431.55 z" id="boundary" inkscape:connector-curvature="0" />
	<path style="fill:none;stroke:red;stroke-width:1px;stroke-linecap:butt;stroke-linejoin:miter;stroke-opacity:1" d="M 151.431,410.488 140.9,431.55 z" id="boundary" inkscape:connector-curvature="0" />
	<path style="fill:none;stroke:red;stroke-width:1px;stroke-linecap:butt;stroke-linejoin:miter;stroke-opacity:1" d="M 153.537,785.384 134.582,795.915 z" id="boundary" inkscape:connector-curvature="0" />
	<path style="fill:none;stroke:red;stroke-width:1px;stroke-linecap:butt;stroke-linejoin:miter;stroke-opacity:1" d="M 134.582,795.915 113.52,795.915 z" id="boundary" inkscape:connector-curvature="0" />
	<path style="fill:none;stroke:red;stroke-width:1px;stroke-linecap:butt;stroke-linejoin:miter;stroke-opacity:1" d="M 153.537,785.384 166.174,802.234 z" id="boundary" inkscape:connector-curvature="0" />
	<path style="fill:none;stroke:red;stroke-width:1px;stroke-linecap:butt;stroke-linejoin:miter;stroke-opacity:1" d="M 151.431,410.488 161.962,389.427 z" id="boundary" inkscape:connector-curvature="0" />
	<path style="fill:none;stroke:red;stroke-width:1px;stroke-linecap:butt;stroke-linejoin:miter;stroke-opacity:1" d="M 183.023,816.977 166.174,802.234 z" id="boundary" inkscape:connector-curvature="0" />
	<path style="fill:none;stroke:red;stroke-width:1px;stroke-linecap:butt;stroke-linejoin:miter;stroke-opacity:1" d="M 199.873,856.994 189.342,838.038 z" id="boundary" inkscape:connector-curvature="0" />
	<path style="fill:none;stroke:red;stroke-width:1px;stroke-linecap:butt;stroke-linejoin:miter;stroke-opacity:1" d="M 189.342,838.038 183.023,816.977 z" id="boundary" inkscape:connector-curvature="0" />
	<path style="fill:none;stroke:red;stroke-width:1px;stroke-linecap:butt;stroke-linejoin:miter;stroke-opacity:1" d="M 199.873,856.994 208.297,878.055 z" id="boundary" inkscape:connector-curvature="0" />
	<path style="fill:none;stroke:red;stroke-width:1px;stroke-linecap:butt;stroke-linejoin:miter;stroke-opacity:1" d="M 208.297,878.055 218.828,897.011 z" id="boundary" inkscape:connector-curvature="0" />
	<path style="fill:none;stroke:red;stroke-width:1px;stroke-linecap:butt;stroke-linejoin:miter;stroke-opacity:1" d="M 235.677,911.754 218.828,897.011 z" id="boundary" inkscape:connector-curvature="0" />
	<path style="fill:none;stroke:red;stroke-width:1px;stroke-linecap:butt;stroke-linejoin:miter;stroke-opacity:1" d="M 258.845,947.558 241.996,932.815 z" id="boundary" inkscape:connector-curvature="0" />
	<path style="fill:none;stroke:red;stroke-width:1px;stroke-linecap:butt;stroke-linejoin:miter;stroke-opacity:1" d="M 241.996,932.815 235.677,911.754 z" id="boundary" inkscape:connector-curvature="0" />
	<path style="fill:none;stroke:red;stroke-width:1px;stroke-linecap:butt;stroke-linejoin:miter;stroke-opacity:1" d="M 258.845,947.558 273.588,964.408 z" id="boundary" inkscape:connector-curvature="0" />
	<path style="fill:none;stroke:red;stroke-width:1px;stroke-linecap:butt;stroke-linejoin:miter;stroke-opacity:1" d="M 292.544,974.938 273.588,964.408 z" id="boundary" inkscape:connector-curvature="0" />
	<path style="fill:none;stroke:red;stroke-width:1px;stroke-linecap:butt;stroke-linejoin:miter;stroke-opacity:1" d="M 311.499,985.469 332.561,985.469 z" id="boundary" inkscape:connector-curvature="0" />
	<path style="fill:none;stroke:red;stroke-width:1px;stroke-linecap:butt;stroke-linejoin:miter;stroke-opacity:1" d="M 332.561,985.469 351.516,996 z" id="boundary" inkscape:connector-curvature="0" />
	<path style="fill:none;stroke:red;stroke-width:1px;stroke-linecap:butt;stroke-linejoin:miter;stroke-opacity:1" d="M 311.499,985.469 292.544,974.938 z" id="boundary" inkscape:connector-curvature="0" />
	<path style="fill:none;stroke:red;stroke-width:1px;stroke-linecap:butt;stroke-linejoin:miter;stroke-opacity:1" d="M 372.577,996 351.516,996 z" id="boundary" inkscape:connector-curvature="0" />
	<path style="fill:none;stroke:red;stroke-width:1px;stroke-linecap:butt;stroke-linejoin:miter;stroke-opacity:1" d="M 404.17,4 425.231,4 z" id="boundary" inkscape:connector-curvature="0" />
	<path style="fill:none;stroke:red;stroke-width:1px;stroke-linecap:butt;stroke-linejoin:miter;stroke-opacity:1" d="M 425.231,4 446.293,4 z" id="boundary" inkscape:connector-curvature="0" />
	<path style="fill:none;stroke:red;stroke-width:1px;stroke-linecap:butt;stroke-linejoin:miter;stroke-opacity:1" d="M 488.416,8.21231 509.478,14.5308 z" id="boundary" inkscape:connector-curvature="0" />
	<path style="fill:none;stroke:red;stroke-width:1px;stroke-linecap:butt;stroke-linejoin:miter;stroke-opacity:1" d="M 509.478,14.5308 530.539,18.7431 z" id="boundary" inkscape:connector-curvature="0" />
	<path style="fill:none;stroke:red;stroke-width:1px;stroke-linecap:butt;stroke-linejoin:miter;stroke-opacity:1" d="M 446.293,4 467.355,4 z" id="boundary" inkscape:connector-curvature="0" />
	<path style="fill:none;stroke:red;stroke-width:1px;stroke-linecap:butt;stroke-linejoin:miter;stroke-opacity:1" d="M 467.355,4 488.416,8.21231 z" id="boundary" inkscape:connector-curvature="0" />
	<path style="fill:none;stroke:red;stroke-width:1px;stroke-linecap:butt;stroke-linejoin:miter;stroke-opacity:1" d="M 530.539,18.7431 551.601,25.0616 z" id="boundary" inkscape:connector-curvature="0" />
	<path style="fill:none;stroke:red;stroke-width:1px;stroke-linecap:butt;stroke-linejoin:miter;stroke-opacity:1" d="M 551.601,25.0616 570.556,35.5924 z" id="boundary" inkscape:connector-curvature="0" />
	<path style="fill:none;stroke:red;stroke-width:1px;stroke-linecap:butt;stroke-linejoin:miter;stroke-opacity:1" d="M 570.556,35.5924 591.618,37.6985 z" id="boundary" inkscape:connector-curvature="0" />
	<path style="fill:none;stroke:red;stroke-width:1px;stroke-linecap:butt;stroke-linejoin:miter;stroke-opacity:1" d="M 591.618,37.6985 610.573,48.2293 z" id="boundary" inkscape:connector-curvature="0" />
	<path style="fill:none;stroke:red;stroke-width:1px;stroke-linecap:butt;stroke-linejoin:miter;stroke-opacity:1" d="M 610.573,48.2293 631.635,56.6539 z" id="boundary" inkscape:connector-curvature="0" />
	<path style="fill:none;stroke:red;stroke-width:1px;stroke-linecap:butt;stroke-linejoin:miter;stroke-opacity:1" d="M 631.635,56.6539 646.378,73.5032 z" id="boundary" inkscape:connector-curvature="0" />
	<path style="fill:none;stroke:red;stroke-width:1px;stroke-linecap:butt;stroke-linejoin:miter;stroke-opacity:1" d="M 663.227,88.2463 646.378,73.5032 z" id="boundary" inkscape:connector-curvature="0" />
	<path style="fill:none;stroke:red;stroke-width:1px;stroke-linecap:butt;stroke-linejoin:miter;stroke-opacity:1" d="M 663.227,88.2463 677.97,105.096 z" id="boundary" inkscape:connector-curvature="0" />
	<path style="fill:none;stroke:red;stroke-width:1px;stroke-linecap:butt;stroke-linejoin:miter;stroke-opacity:1" d="M 694.82,119.839 677.97,105.096 z" id="boundary" inkscape:connector-curvature="0" />
	<path style="fill:none;stroke:red;stroke-width:1px;stroke-linecap:butt;stroke-linejoin:miter;stroke-opacity:1" d="M 669.546,322.03 648.484,322.03 z" id="boundary" inkscape:connector-curvature="0" />
	<path style="fill:none;stroke:red;stroke-width:1px;stroke-linecap:butt;stroke-linejoin:miter;stroke-opacity:1" d="M 694.82,119.839 701.138,140.9 z" id="boundary" inkscape:connector-curvature="0" />
	<path style="fill:none;stroke:red;stroke-width:1px;stroke-linecap:butt;stroke-linejoin:miter;stroke-opacity:1" d="M 648.484,343.091 648.484,322.03 z" id="boundary" inkscape:connector-curvature="0" />
	<path style="fill:none;stroke:red;stroke-width:1px;stroke-linecap:butt;stroke-linejoin:miter;stroke-opacity:1" d="M 701.138,140.9 711.669,159.856 z" id="boundary" inkscape:connector-curvature="0" />
	<path style="fill:none;stroke:red;stroke-width:1px;stroke-linecap:butt;stroke-linejoin:miter;stroke-opacity:1" d="M 711.669,159.856 711.669,180.917 z" id="boundary" inkscape:connector-curvature="0" />
	<path style="fill:none;stroke:red;stroke-width:1px;stroke-linecap:butt;stroke-linejoin:miter;stroke-opacity:1" d="M 732.73,210.403 711.669,201.979 z" id="boundary" inkscape:connector-curvature="0" />
	<path style="fill:none;stroke:red;stroke-width:1px;stroke-linecap:butt;stroke-linejoin:miter;stroke-opacity:1" d="M 711.669,201.979 711.669,180.917 z" id="boundary" inkscape:connector-curvature="0" />
	<path style="fill:none;stroke:red;stroke-width:1px;stroke-linecap:butt;stroke-linejoin:miter;stroke-opacity:1" d="M 753.792,214.616 732.73,210.403 z" id="boundary" inkscape:connector-curvature="0" />
	<path style="fill:none;stroke:red;stroke-width:1px;stroke-linecap:butt;stroke-linejoin:miter;stroke-opacity:1" d="M 774.854,220.934 753.792,214.616 z" id="boundary" inkscape:connector-curvature="0" />
	<path style="fill:none;stroke:red;stroke-width:1px;stroke-linecap:butt;stroke-linejoin:miter;stroke-opacity:1" d="M 816.977,225.146 795.915,225.146 z" id="boundary" inkscape:connector-curvature="0" />
	<path style="fill:none;stroke:red;stroke-width:1px;stroke-linecap:butt;stroke-linejoin:miter;stroke-opacity:1" d="M 795.915,225.146 774.854,220.934 z" id="boundary" inkscape:connector-curvature="0" />
	<path style="fill:none;stroke:red;stroke-width:1px;stroke-linecap:butt;stroke-linejoin:miter;stroke-opacity:1" d="M 856.994,214.616 878.055,214.616 z" id="boundary" inkscape:connector-curvature="0" />
	<path style="fill:none;stroke:red;stroke-width:1px;stroke-linecap:butt;stroke-linejoin:miter;stroke-opacity:1" d="M 878.055,214.616 880.161,237.783 z" id="boundary" inkscape:connector-curvature="0" />
	<path style="fill:none;stroke:red;stroke-width:1px;stroke-linecap:butt;stroke-linejoin:miter;stroke-opacity:1" d="M 833.826,307.287 812.764,317.817 z" id="boundary" inkscape:connector-curvature="0" />
	<path style="fill:none;stroke:red;stroke-width:1px;stroke-linecap:butt;stroke-linejoin:miter;stroke-opacity:1" d="M 791.703,322.03 770.641,322.03 z" id="boundary" inkscape:connector-curvature="0" />
	<path style="fill:none;stroke:red;stroke-width:1px;stroke-linecap:butt;stroke-linejoin:miter;stroke-opacity:1" d="M 728.518,322.03 749.58,322.03 z" id="boundary" inkscape:connector-curvature="0" />
	<path style="fill:none;stroke:red;stroke-width:1px;stroke-linecap:butt;stroke-linejoin:miter;stroke-opacity:1" d="M 709.563,332.561 728.518,322.03 z" id="boundary" inkscape:connector-curvature="0" />
	<path style="fill:none;stroke:red;stroke-width:1px;stroke-linecap:butt;stroke-linejoin:miter;stroke-opacity:1" d="M 770.641,322.03 749.58,322.03 z" id="boundary" inkscape:connector-curvature="0" />
	<path style="fill:none;stroke:red;stroke-width:1px;stroke-linecap:butt;stroke-linejoin:miter;stroke-opacity:1" d="M 812.764,317.817 791.703,322.03 z" id="boundary" inkscape:connector-curvature="0" />
	<path style="fill:none;stroke:red;stroke-width:1px;stroke-linecap:butt;stroke-linejoin:miter;stroke-opacity:1" d="M 880.161,237.783 869.631,269.376 z" id="boundary" inkscape:connector-curvature="0" />
	<path style="fill:none;stroke:red;stroke-width:1px;stroke-linecap:butt;stroke-linejoin:miter;stroke-opacity:1" d="M 838.038,225.146 856.994,214.616 z" id="boundary" inkscape:connector-curvature="0" />
	<path style="fill:none;stroke:red;stroke-width:1px;stroke-linecap:butt;stroke-linejoin:miter;stroke-opacity:1" d="M 854.887,296.756 833.826,307.287 z" id="boundary" inkscape:connector-curvature="0" />
	<path style="fill:none;stroke:red;stroke-width:1px;stroke-linecap:butt;stroke-linejoin:miter;stroke-opacity:1" d="M 869.631,269.376 854.887,296.756 z" id="boundary" inkscape:connector-curvature="0" />
	<path style="fill:none;stroke:red;stroke-width:1px;stroke-linecap:butt;stroke-linejoin:miter;stroke-opacity:1" d="M 816.977,225.146 838.038,225.146 z" id="boundary" inkscape:connector-curvature="0" />
	<path style="fill:none;stroke:red;stroke-width:1px;stroke-linecap:butt;stroke-linejoin:miter;stroke-opacity:1" d="M 606.361,827.507 595.83,848.569 z" id="boundary" inkscape:connector-curvature="0" />
	<path style="fill:none;stroke:red;stroke-width:1px;stroke-linecap:butt;stroke-linejoin:miter;stroke-opacity:1" d="M 585.299,869.631 574.769,890.692 z" id="boundary" inkscape:connector-curvature="0" />
	<path style="fill:none;stroke:red;stroke-width:1px;stroke-linecap:butt;stroke-linejoin:miter;stroke-opacity:1" d="M 595.83,848.569 585.299,869.631 z" id="boundary" inkscape:connector-curvature="0" />
	<path style="fill:none;stroke:red;stroke-width:1px;stroke-linecap:butt;stroke-linejoin:miter;stroke-opacity:1" d="M 648.484,743.261 637.953,764.323 z" id="boundary" inkscape:connector-curvature="0" />
	<path style="fill:none;stroke:red;stroke-width:1px;stroke-linecap:butt;stroke-linejoin:miter;stroke-opacity:1" d="M 627.423,785.384 616.892,806.446 z" id="boundary" inkscape:connector-curvature="0" />
	<path style="fill:none;stroke:red;stroke-width:1px;stroke-linecap:butt;stroke-linejoin:miter;stroke-opacity:1" d="M 637.953,764.323 627.423,785.384 z" id="boundary" inkscape:connector-curvature="0" />
	<path style="fill:none;stroke:red;stroke-width:1px;stroke-linecap:butt;stroke-linejoin:miter;stroke-opacity:1" d="M 616.892,806.446 606.361,827.507 z" id="boundary" inkscape:connector-curvature="0" />
	<path style="fill:none;stroke:red;stroke-width:1px;stroke-linecap:butt;stroke-linejoin:miter;stroke-opacity:1" d="M 574.769,890.692 564.238,911.754 z" id="boundary" inkscape:connector-curvature="0" />
	<path style="fill:none;stroke:red;stroke-width:1px;stroke-linecap:butt;stroke-linejoin:miter;stroke-opacity:1" d="M 564.238,911.754 549.495,928.603 z" id="boundary" inkscape:connector-curvature="0" />
	<path style="fill:none;stroke:red;stroke-width:1px;stroke-linecap:butt;stroke-linejoin:miter;stroke-opacity:1" d="M 433.656,985.469 454.718,985.469 z" id="boundary" inkscape:connector-curvature="0" />
	<path style="fill:none;stroke:red;stroke-width:1px;stroke-linecap:butt;stroke-linejoin:miter;stroke-opacity:1" d="M 414.701,996 433.656,985.469 z" id="boundary" inkscape:connector-curvature="0" />
	<path style="fill:none;stroke:red;stroke-width:1px;stroke-linecap:butt;stroke-linejoin:miter;stroke-opacity:1" d="M 473.673,974.938 454.718,985.469 z" id="boundary" inkscape:connector-curvature="0" />
	<path style="fill:none;stroke:red;stroke-width:1px;stroke-linecap:butt;stroke-linejoin:miter;stroke-opacity:1" d="M 393.639,996 372.577,996 z" id="boundary" inkscape:connector-curvature="0" />
	<path style="fill:none;stroke:red;stroke-width:1px;stroke-linecap:butt;stroke-linejoin:miter;stroke-opacity:1" d="M 414.701,996 393.639,996 z" id="boundary" inkscape:connector-curvature="0" />
	<path style="fill:none;stroke:red;stroke-width:1px;stroke-linecap:butt;stroke-linejoin:miter;stroke-opacity:1" d="M 549.495,928.603 532.645,943.346 z" id="boundary" inkscape:connector-curvature="0" />
	<path style="fill:none;stroke:red;stroke-width:1px;stroke-linecap:butt;stroke-linejoin:miter;stroke-opacity:1" d="M 532.645,943.346 511.584,953.877 z" id="boundary" inkscape:connector-curvature="0" />
	<path style="fill:none;stroke:red;stroke-width:1px;stroke-linecap:butt;stroke-linejoin:miter;stroke-opacity:1" d="M 473.673,974.938 492.628,964.408 z" id="boundary" inkscape:connector-curvature="0" />
	<path style="fill:none;stroke:red;stroke-width:1px;stroke-linecap:butt;stroke-linejoin:miter;stroke-opacity:1" d="M 492.628,964.408 511.584,953.877 z" id="boundary" inkscape:connector-curvature="0" />
	<path style="fill:none;stroke:red;stroke-width:1px;stroke-linecap:butt;stroke-linejoin:miter;stroke-opacity:1" d="M 648.484,343.091 659.015,362.047 z" id="boundary" inkscape:connector-curvature="0" />
	<path style="fill:none;stroke:red;stroke-width:1px;stroke-linecap:butt;stroke-linejoin:miter;stroke-opacity:1" d="M 669.546,381.002 659.015,362.047 z" id="boundary" inkscape:connector-curvature="0" />
	<path style="fill:none;stroke:red;stroke-width:1px;stroke-linecap:butt;stroke-linejoin:miter;stroke-opacity:1" d="M 669.546,381.002 680.076,399.958 z" id="boundary" inkscape:connector-curvature="0" />
	<path style="fill:none;stroke:red;stroke-width:1px;stroke-linecap:butt;stroke-linejoin:miter;stroke-opacity:1" d="M 690.607,418.913 680.076,399.958 z" id="boundary" inkscape:connector-curvature="0" />
	<path style="fill:none;stroke:red;stroke-width:1px;stroke-linecap:butt;stroke-linejoin:miter;stroke-opacity:1" d="M 688.501,332.561 709.563,332.561 z" id="boundary" inkscape:connector-curvature="0" />
	<path style="fill:none;stroke:red;stroke-width:1px;stroke-linecap:butt;stroke-linejoin:miter;stroke-opacity:1" d="M 701.138,437.868 690.607,418.913 z" id="boundary" inkscape:connector-curvature="0" />
	<path style="fill:none;stroke:red;stroke-width:1px;stroke-linecap:butt;stroke-linejoin:miter;stroke-opacity:1" d="M 688.501,332.561 669.546,322.03 z" id="boundary" inkscape:connector-curvature="0" />
	<path style="fill:none;stroke:red;stroke-width:1px;stroke-linecap:butt;stroke-linejoin:miter;stroke-opacity:1" d="M 701.138,437.868 711.669,456.824 z" id="boundary" inkscape:connector-curvature="0" />
	<path style="fill:none;stroke:red;stroke-width:1px;stroke-linecap:butt;stroke-linejoin:miter;stroke-opacity:1" d="M 711.669,456.824 711.669,477.885 z" id="boundary" inkscape:connector-curvature="0" />
	<path style="fill:none;stroke:red;stroke-width:1px;stroke-linecap:butt;stroke-linejoin:miter;stroke-opacity:1" d="M 711.669,477.885 711.669,498.947 z" id="boundary" inkscape:connector-curvature="0" />
	<path style="fill:none;stroke:red;stroke-width:1px;stroke-linecap:butt;stroke-linejoin:miter;stroke-opacity:1" d="M 701.138,595.83 701.138,616.892 z" id="boundary" inkscape:connector-curvature="0" />
	<path style="fill:none;stroke:red;stroke-width:1px;stroke-linecap:butt;stroke-linejoin:miter;stroke-opacity:1" d="M 701.138,616.892 690.607,637.953 z" id="boundary" inkscape:connector-curvature="0" />
	<path style="fill:none;stroke:red;stroke-width:1px;stroke-linecap:butt;stroke-linejoin:miter;stroke-opacity:1" d="M 659.015,722.2 669.546,690.607 z" id="boundary" inkscape:connector-curvature="0" />
	<path style="fill:none;stroke:red;stroke-width:1px;stroke-linecap:butt;stroke-linejoin:miter;stroke-opacity:1" d="M 669.546,690.607 680.076,669.546 z" id="boundary" inkscape:connector-curvature="0" />
	<path style="fill:none;stroke:red;stroke-width:1px;stroke-linecap:butt;stroke-linejoin:miter;stroke-opacity:1" d="M 659.015,722.2 648.484,743.261 z" id="boundary" inkscape:connector-curvature="0" />
	<path style="fill:none;stroke:red;stroke-width:1px;stroke-linecap:butt;stroke-linejoin:miter;stroke-opacity:1" d="M 690.607,637.953 680.076,669.546 z" id="boundary" inkscape:connector-curvature="0" />
	<path style="fill:none;stroke:red;stroke-width:1px;stroke-linecap:butt;stroke-linejoin:miter;stroke-opacity:1" d="M 711.669,522.115 711.669,543.176 z" id="boundary" inkscape:connector-curvature="0" />
	<path style="fill:none;stroke:red;stroke-width:1px;stroke-linecap:butt;stroke-linejoin:miter;stroke-opacity:1" d="M 701.138,595.83 711.669,564.238 z" id="boundary" inkscape:connector-curvature="0" />
	<path style="fill:none;stroke:red;stroke-width:1px;stroke-linecap:butt;stroke-linejoin:miter;stroke-opacity:1" d="M 711.669,543.176 711.669,564.238 z" id="boundary" inkscape:connector-curvature="0" />
	<path style="fill:none;stroke:red;stroke-width:1px;stroke-linecap:butt;stroke-linejoin:miter;stroke-opacity:1" d="M 711.669,522.115 711.669,498.947 z" id="boundary" inkscape:connector-curvature="0" />
	<path style="fill:none;stroke:red;stroke-width:1px;stroke-linecap:butt;stroke-linejoin:miter;stroke-opacity:1" d="M 383.108,4 404.17,4 z" id="boundary" inkscape:connector-curvature="0" />
	<circle cx="4" cy="52.4416" r="4" fill="#0" id="circle0"/>
	<circle cx="14.5308" cy="71.397" r="4" fill="#0" id="circle1"/>
	<circle cx="14.5308" cy="92.4586" r="4" fill="#0" id="circle2"/>
	<circle cx="20.8493" cy="35.5924" r="4" fill="#0" id="circle3"/>
	<circle cx="29.2739" cy="109.308" r="4" fill="#0" id="circle4"/>
	<circle cx="37.6985" cy="48.2293" r="4" fill="#0" id="circle5"/>
	<circle cx="46.1231" cy="121.945" r="4" fill="#0" id="circle6"/>
	<circle cx="46.1231" cy="694.82" r="4" fill="#0" id="circle7"/>
	<circle cx="46.1231" cy="715.881" r="4" fill="#0" id="circle8"/>
	<circle cx="46.1231" cy="736.943" r="4" fill="#0" id="circle9"/>
	<circle cx="46.1231" cy="758.004" r="4" fill="#0" id="circle10"/>
	<circle cx="48.2293" cy="67.1847" r="4" fill="#0" id="circle11"/>
	<circle cx="58.7601" cy="138.794" r="4" fill="#0" id="circle12"/>
	<circle cx="62.9724" cy="772.747" r="4" fill="#0" id="circle13"/>
	<circle cx="67.1847" cy="252.527" r="4" fill="#0" id="circle14"/>
	<circle cx="67.1847" cy="699.032" r="4" fill="#0" id="circle15"/>
	<circle cx="69.2909" cy="73.5032" r="4" fill="#0" id="circle16"/>
	<circle cx="71.397" cy="793.809" r="4" fill="#0" id="circle17"/>
	<circle cx="75.6093" cy="153.537" r="4" fill="#0" id="circle18"/>
	<circle cx="77.7155" cy="271.482" r="4" fill="#0" id="circle19"/>
	<circle cx="86.1401" cy="688.501" r="4" fill="#0" id="circle20"/>
	<circle cx="88.2463" cy="246.208" r="4" fill="#0" id="circle21"/>
	<circle cx="90.3524" cy="77.7155" r="4" fill="#0" id="circle22"/>
	<circle cx="90.3524" cy="170.386" r="4" fill="#0" id="circle23"/>
	<circle cx="92.4586" cy="288.331" r="4" fill="#0" id="circle24"/>
	<circle cx="92.4586" cy="795.915" r="4" fill="#0" id="circle25"/>
	<circle cx="98.7771" cy="191.448" r="4" fill="#0" id="circle26"/>
	<circle cx="98.7771" cy="212.51" r="4" fill="#0" id="circle27"/>
	<circle cx="98.7771" cy="536.858" r="4" fill="#0" id="circle28"/>
	<circle cx="98.7771" cy="557.919" r="4" fill="#0" id="circle29"/>
	<circle cx="98.7771" cy="578.981" r="4" fill="#0" id="circle30"/>
	<circle cx="98.7771" cy="600.042" r="4" fill="#0" id="circle31"/>
	<circle cx="98.7771" cy="621.104" r="4" fill="#0" id="circle32"/>
	<circle cx="100.883" cy="671.652" r="4" fill="#0" id="circle33"/>
	<circle cx="109.308" cy="237.783" r="4" fill="#0" id="circle34"/>
	<circle cx="109.308" cy="300.968" r="4" fill="#0" id="circle35"/>
	<circle cx="109.308" cy="494.735" r="4" fill="#0" id="circle36"/>
	<circle cx="109.308" cy="515.796" r="4" fill="#0" id="circle37"/>
	<circle cx="109.308" cy="640.059" r="4" fill="#0" id="circle38"/>
	<circle cx="111.414" cy="84.034" r="4" fill="#0" id="circle39"/>
	<circle cx="113.52" cy="795.915" r="4" fill="#0" id="circle40"/>
	<circle cx="119.839" cy="473.673" r="4" fill="#0" id="circle41"/>
	<circle cx="128.263" cy="311.499" r="4" fill="#0" id="circle42"/>
	<circle cx="130.369" cy="452.611" r="4" fill="#0" id="circle43"/>
	<circle cx="132.476" cy="81.9278" r="4" fill="#0" id="circle44"/>
	<circle cx="134.582" cy="795.915" r="4" fill="#0" id="circle45"/>
	<circle cx="140.9" cy="431.55" r="4" fill="#0" id="circle46"/>
	<circle cx="147.219" cy="322.03" r="4" fill="#0" id="circle47"/>
	<circle cx="151.431" cy="410.488" r="4" fill="#0" id="circle48"/>
	<circle cx="153.537" cy="77.7155" r="4" fill="#0" id="circle49"/>
	<circle cx="153.537" cy="785.384" r="4" fill="#0" id="circle50"/>
	<circle cx="161.962" cy="389.427" r="4" fill="#0" id="circle51"/>
	<circle cx="164.068" cy="336.773" r="4" fill="#0" id="circle52"/>
	<circle cx="166.174" cy="802.234" r="4" fill="#0" id="circle53"/>
	<circle cx="174.599" cy="77.7155" r="4" fill="#0" id="circle54"/>
	<circle cx="178.811" cy="353.622" r="4" fill="#0" id="circle55"/>
	<circle cx="178.811" cy="374.684" r="4" fill="#0" id="circle56"/>
	<circle cx="183.023" cy="816.977" r="4" fill="#0" id="circle57"/>
	<circle cx="189.342" cy="838.038" r="4" fill="#0" id="circle58"/>
	<circle cx="195.66" cy="71.397" r="4" fill="#0" id="circle59"/>
	<circle cx="199.873" cy="856.994" r="4" fill="#0" id="circle60"/>
	<circle cx="208.297" cy="878.055" r="4" fill="#0" id="circle61"/>
	<circle cx="216.722" cy="60.8662" r="4" fill="#0" id="circle62"/>
	<circle cx="218.828" cy="897.011" r="4" fill="#0" id="circle63"/>
	<circle cx="235.677" cy="911.754" r="4" fill="#0" id="circle64"/>
	<circle cx="237.783" cy="50.3355" r="4" fill="#0" id="circle65"/>
	<circle cx="241.996" cy="932.815" r="4" fill="#0" id="circle66"/>
	<circle cx="258.845" cy="39.8047" r="4" fill="#0" id="circle67"/>
	<circle cx="258.845" cy="947.558" r="4" fill="#0" id="circle68"/>
	<circle cx="273.588" cy="964.408" r="4" fill="#0" id="circle69"/>
	<circle cx="279.907" cy="35.5924" r="4" fill="#0" id="circle70"/>
	<circle cx="292.544" cy="974.938" r="4" fill="#0" id="circle71"/>
	<circle cx="298.862" cy="25.0616" r="4" fill="#0" id="circle72"/>
	<circle cx="311.499" cy="985.469" r="4" fill="#0" id="circle73"/>
	<circle cx="319.924" cy="20.8493" r="4" fill="#0" id="circle74"/>
	<circle cx="332.561" cy="985.469" r="4" fill="#0" id="circle75"/>
	<circle cx="340.985" cy="14.5308" r="4" fill="#0" id="circle76"/>
	<circle cx="351.516" cy="996" r="4" fill="#0" id="circle77"/>
	<circle cx="362.047" cy="10.3185" r="4" fill="#0" id="circle78"/>
	<circle cx="372.577" cy="996" r="4" fill="#0" id="circle79"/>
	<circle cx="383.108" cy="4" r="4" fill="#0" id="circle80"/>
	<circle cx="393.639" cy="996" r="4" fill="#0" id="circle81"/>
	<circle cx="404.17" cy="4" r="4" fill="#0" id="circle82"/>
	<circle cx="414.701" cy="996" r="4" fill="#0" id="circle83"/>
	<circle cx="425.231" cy="4" r="4" fill="#0" id="circle84"/>
	<circle cx="433.656" cy="985.469" r="4" fill="#0" id="circle85"/>
	<circle cx="446.293" cy="4" r="4" fill="#0" id="circle86"/>
	<circle cx="454.718" cy="985.469" r="4" fill="#0" id="circle87"/>
	<circle cx="467.355" cy="4" r="4" fill="#0" id="circle88"/>
	<circle cx="473.673" cy="974.938" r="4" fill="#0" id="circle89"/>
	<circle cx="488.416" cy="8.21231" r="4" fill="#0" id="circle90"/>
	<circle cx="492.628" cy="964.408" r="4" fill="#0" id="circle91"/>
	<circle cx="509.478" cy="14.5308" r="4" fill="#0" id="circle92"/>
	<circle cx="511.584" cy="953.877" r="4" fill="#0" id="circle93"/>
	<circle cx="530.539" cy="18.7431" r="4" fill="#0" id="circle94"/>
	<circle cx="532.645" cy="943.346" r="4" fill="#0" id="circle95"/>
	<circle cx="549.495" cy="928.603" r="4" fill="#0" id="circle96"/>
	<circle cx="551.601" cy="25.0616" r="4" fill="#0" id="circle97"/>
	<circle cx="564.238" cy="911.754" r="4" fill="#0" id="circle98"/>
	<circle cx="570.556" cy="35.5924" r="4" fill="#0" id="circle99"/>
	<circle cx="574.769" cy="890.692" r="4" fill="#0" id="circle100"/>
	<circle cx="585.299" cy="869.631" r="4" fill="#0" id="circle101"/>
	<circle cx="591.618" cy="37.6985" r="4" fill="#0" id="circle102"/>
	<circle cx="595.83" cy="848.569" r="4" fill="#0" id="circle103"/>
	<circle cx="606.361" cy="827.507" r="4" fill="#0" id="circle104"/>
	<circle cx="610.573" cy="48.2293" r="4" fill="#0" id="circle105"/>
	<circle cx="616.892" cy="806.446" r="4" fill="#0" id="circle106"/>
	<circle cx="627.423" cy="785.384" r="4" fill="#0" id="circle107"/>
	<circle cx="631.635" cy="56.6539" r="4" fill="#0" id="circle108"/>
	<circle cx="637.953" cy="764.323" r="4" fill="#0" id="circle109"/>
	<circle cx="646.378" cy="73.5032" r="4" fill="#0" id="circle110"/>
	<circle cx="648.484" cy="322.03" r="4" fill="#0" id="circle111"/>
	<circle cx="648.484" cy="343.091" r="4" fill="#0" id="circle112"/>
	<circle cx="648.484" cy="743.261" r="4" fill="#0" id="circle113"/>
	<circle cx="659.015" cy="362.047" r="4" fill="#0" id="circle114"/>
	<circle cx="659.015" cy="722.2" r="4" fill="#0" id="circle115"/>
	<circle cx="663.227" cy="88.2463" r="4" fill="#0" id="circle116"/>
	<circle cx="669.546" cy="322.03" r="4" fill="#0" id="circle117"/>
	<circle cx="669.546" cy="381.002" r="4" fill="#0" id="circle118"/>
	<circle cx="669.546" cy="690.607" r="4" fill="#0" id="circle119"/>
	<circle cx="677.97" cy="105.096" r="4" fill="#0" id="circle120"/>
	<circle cx="680.076" cy="399.958" r="4" fill="#0" id="circle121"/>
	<circle cx="680.076" cy="669.546" r="4" fill="#0" id="circle122"/>
	<circle cx="688.501" cy="332.561" r="4" fill="#0" id="circle123"/>
	<circle cx="690.607" cy="418.913" r="4" fill="#0" id="circle124"/>
	<circle cx="690.607" cy="637.953" r="4" fill="#0" id="circle125"/>
	<circle cx="694.82" cy="119.839" r="4" fill="#0" id="circle126"/>
	<circle cx="701.138" cy="140.9" r="4" fill="#0" id="circle127"/>
	<circle cx="701.138" cy="437.868" r="4" fill="#0" id="circle128"/>
	<circle cx="701.138" cy="595.83" r="4" fill="#0" id="circle129"/>
	<circle cx="701.138" cy="616.892" r="4" fill="#0" id="circle130"/>
	<circle cx="709.563" cy="332.561" r="4" fill="#0" id="circle131"/>
	<circle cx="711.669" cy="159.856" r="4" fill="#0" id="circle132"/>
	<circle cx="711.669" cy="180.917" r="4" fill="#0" id="circle133"/>
	<circle cx="711.669" cy="201.979" r="4" fill="#0" id="circle134"/>
	<circle cx="711.669" cy="456.824" r="4" fill="#0" id="circle135"/>
	<circle cx="711.669" cy="477.885" r="4" fill="#0" id="circle136"/>
	<circle cx="711.669" cy="498.947" r="4" fill="#0" id="circle137"/>
	<circle cx="711.669" cy="522.115" r="4" fill="#0" id="circle138"/>
	<circle cx="711.669" cy="543.176" r="4" fill="#0" id="circle139"/>
	<circle cx="711.669" cy="564.238" r="4" fill="#0" id="circle140"/>
	<circle cx="728.518" cy="322.03" r="4" fill="#0" id="circle141"/>
	<circle cx="732.73" cy="210.403" r="4" fill="#0" id="circle142"/>
	<circle cx="749.58" cy="322.03" r="4" fill="#0" id="circle143"/>
	<circle cx="753.792" cy="214.616" r="4" fill="#0" id="circle144"/>
	<circle cx="770.641" cy="322.03" r="4" fill="#0" id="circle145"/>
	<circle cx="774.854" cy="220.934" r="4" fill="#0" id="circle146"/>
	<circle cx="791.703" cy="322.03" r="4" fill="#0" id="circle147"/>
	<circle cx="795.915" cy="225.146" r="4" fill="#0" id="circle148"/>
	<circle cx="812.764" cy="317.817" r="4" fill="#0" id="circle149"/>
	<circle cx="816.977" cy="225.146" r="4" fill="#0" id="circle150"/>
	<circle cx="833.826" cy="307.287" r="4" fill="#0" id="circle151"/>
	<circle cx="838.038" cy="225.146" r="4" fill="#0" id="circle152"/>
	<circle cx="854.887" cy="296.756" r="4" fill="#0" id="circle153"/>
	<circle cx="856.994" cy="214.616" r="4" fill="#0" id="circle154"/>
	<circle cx="869.631" cy="269.376" r="4" fill="#0" id="circle155"/>
	<circle cx="878.055" cy="214.616" r="4" fill="#0" id="circle156"/>
	<circle cx="880.161" cy="237.783" r="4" fill="#0" id="circle157"/>
	</g>
</svg>