<?xml version="1.0" encoding="UTF-8" standalone="no"?>
<!-- Created with CurveBenchmark -->
<svg
	xmlns:dc="http://purl.org/dc/elements/1.1/"
	xmlns:cc="http://creativecommons.org/ns#"
	xmlns:rdf="http://www.w3.org/1999/02/22-rdf-syntax-ns#"
	xmlns:svg="http://www.w3.org/2000/svg"
	xmlns="http://www.w3.org/2000/svg"
	xmlns:sodipodi="http://sodipodi.sourceforge.net/DTD/sodipodi-0.dtd"
	xmlns:inkscape="http://www.inkscape.org/namespaces/inkscape"
	width="1000"
	height="1000"
	id="svg2"
	version="1.1"
	sodipodi:docname="manifold/gathan1-guitar340.png.txt">
<defs
	id="defs4" />
<metadata
	id="metadata7">
	<rdf:RDF>
		<cc:Work
			rdf:about="">
			<dc:format>image/svg+xml</dc:format>
			<dc:type
				rdf:resource="http://purl.org/dc/dcmitype/StillImage" />
			<dc:title></dc:title>
		</cc:Work>
	</rdf:RDF>
</metadata>
<g
	inkscape:label="Layer 1"
	inkscape:groupmode="layer"
	id="layer1">
	<path style="fill:none;stroke:red;stroke-width:1px;stroke-linecap:butt;stroke-linejoin:miter;stroke-opacity:1" d="M 166.391,131.089 152.27,88.726 z" id="boundary" inkscape:connector-curvature="0" />
	<path style="fill:none;stroke:red;stroke-width:1px;stroke-linecap:butt;stroke-linejoin:miter;stroke-opacity:1" d="M 159.331,25.1815 152.27,88.726 z" id="boundary" inkscape:connector-curvature="0" />
	<path style="fill:none;stroke:red;stroke-width:1px;stroke-linecap:butt;stroke-linejoin:miter;stroke-opacity:1" d="M 166.391,131.089 166.391,166.391 z" id="boundary" inkscape:connector-curvature="0" />
	<path style="fill:none;stroke:red;stroke-width:1px;stroke-linecap:butt;stroke-linejoin:miter;stroke-opacity:1" d="M 226.406,74.605 219.345,116.968 z" id="boundary" inkscape:connector-curvature="0" />
	<path style="fill:none;stroke:red;stroke-width:1px;stroke-linecap:butt;stroke-linejoin:miter;stroke-opacity:1" d="M 166.391,166.391 166.391,201.694 z" id="boundary" inkscape:connector-curvature="0" />
	<path style="fill:none;stroke:red;stroke-width:1px;stroke-linecap:butt;stroke-linejoin:miter;stroke-opacity:1" d="M 109.907,505.295 145.21,498.235 z" id="boundary" inkscape:connector-curvature="0" />
	<path style="fill:none;stroke:red;stroke-width:1px;stroke-linecap:butt;stroke-linejoin:miter;stroke-opacity:1" d="M 166.391,201.694 166.391,236.996 z" id="boundary" inkscape:connector-curvature="0" />
	<path style="fill:none;stroke:red;stroke-width:1px;stroke-linecap:butt;stroke-linejoin:miter;stroke-opacity:1" d="M 166.391,236.996 166.391,272.299 z" id="boundary" inkscape:connector-curvature="0" />
	<path style="fill:none;stroke:red;stroke-width:1px;stroke-linecap:butt;stroke-linejoin:miter;stroke-opacity:1" d="M 109.907,505.295 74.605,519.416 z" id="boundary" inkscape:connector-curvature="0" />
	<path style="fill:none;stroke:red;stroke-width:1px;stroke-linecap:butt;stroke-linejoin:miter;stroke-opacity:1" d="M 166.391,272.299 166.391,307.601 z" id="boundary" inkscape:connector-curvature="0" />
	<path style="fill:none;stroke:red;stroke-width:1px;stroke-linecap:butt;stroke-linejoin:miter;stroke-opacity:1" d="M 159.331,25.1815 187.573,4 z" id="boundary" inkscape:connector-curvature="0" />
	<path style="fill:none;stroke:red;stroke-width:1px;stroke-linecap:butt;stroke-linejoin:miter;stroke-opacity:1" d="M 166.391,342.904 166.391,307.601 z" id="boundary" inkscape:connector-curvature="0" />
	<path style="fill:none;stroke:red;stroke-width:1px;stroke-linecap:butt;stroke-linejoin:miter;stroke-opacity:1" d="M 166.391,342.904 166.391,378.206 z" id="boundary" inkscape:connector-curvature="0" />
	<path style="fill:none;stroke:red;stroke-width:1px;stroke-linecap:butt;stroke-linejoin:miter;stroke-opacity:1" d="M 166.391,413.509 166.391,448.811 z" id="boundary" inkscape:connector-curvature="0" />
	<path style="fill:none;stroke:red;stroke-width:1px;stroke-linecap:butt;stroke-linejoin:miter;stroke-opacity:1" d="M 166.391,413.509 166.391,378.206 z" id="boundary" inkscape:connector-curvature="0" />
	<path style="fill:none;stroke:red;stroke-width:1px;stroke-linecap:butt;stroke-linejoin:miter;stroke-opacity:1" d="M 11.0605,787.715 28.7117,755.943 z" id="boundary" inkscape:connector-curvature="0" />
	<path style="fill:none;stroke:red;stroke-width:1px;stroke-linecap:butt;stroke-linejoin:miter;stroke-opacity:1" d="M 53.4235,554.719 53.4235,590.021 z" id="boundary" inkscape:connector-curvature="0" />
	<path style="fill:none;stroke:red;stroke-width:1px;stroke-linecap:butt;stroke-linejoin:miter;stroke-opacity:1" d="M 49.8932,727.701 28.7117,755.943 z" id="boundary" inkscape:connector-curvature="0" />
	<path style="fill:none;stroke:red;stroke-width:1px;stroke-linecap:butt;stroke-linejoin:miter;stroke-opacity:1" d="M 4,830.078 11.0605,787.715 z" id="boundary" inkscape:connector-curvature="0" />
	<path style="fill:none;stroke:red;stroke-width:1px;stroke-linecap:butt;stroke-linejoin:miter;stroke-opacity:1" d="M 11.0605,865.381 4,830.078 z" id="boundary" inkscape:connector-curvature="0" />
	<path style="fill:none;stroke:red;stroke-width:1px;stroke-linecap:butt;stroke-linejoin:miter;stroke-opacity:1" d="M 42.8327,928.925 21.6512,900.683 z" id="boundary" inkscape:connector-curvature="0" />
	<path style="fill:none;stroke:red;stroke-width:1px;stroke-linecap:butt;stroke-linejoin:miter;stroke-opacity:1" d="M 21.6512,900.683 11.0605,865.381 z" id="boundary" inkscape:connector-curvature="0" />
	<path style="fill:none;stroke:red;stroke-width:1px;stroke-linecap:butt;stroke-linejoin:miter;stroke-opacity:1" d="M 71.0747,953.637 42.8327,928.925 z" id="boundary" inkscape:connector-curvature="0" />
	<path style="fill:none;stroke:red;stroke-width:1px;stroke-linecap:butt;stroke-linejoin:miter;stroke-opacity:1" d="M 60.484,625.324 67.5445,688.868 z" id="boundary" inkscape:connector-curvature="0" />
	<path style="fill:none;stroke:red;stroke-width:1px;stroke-linecap:butt;stroke-linejoin:miter;stroke-opacity:1" d="M 67.5445,688.868 49.8932,727.701 z" id="boundary" inkscape:connector-curvature="0" />
	<path style="fill:none;stroke:red;stroke-width:1px;stroke-linecap:butt;stroke-linejoin:miter;stroke-opacity:1" d="M 60.484,625.324 53.4235,590.021 z" id="boundary" inkscape:connector-curvature="0" />
	<path style="fill:none;stroke:red;stroke-width:1px;stroke-linecap:butt;stroke-linejoin:miter;stroke-opacity:1" d="M 53.4235,554.719 74.605,519.416 z" id="boundary" inkscape:connector-curvature="0" />
	<path style="fill:none;stroke:red;stroke-width:1px;stroke-linecap:butt;stroke-linejoin:miter;stroke-opacity:1" d="M 99.3167,974.819 71.0747,953.637 z" id="boundary" inkscape:connector-curvature="0" />
	<path style="fill:none;stroke:red;stroke-width:1px;stroke-linecap:butt;stroke-linejoin:miter;stroke-opacity:1" d="M 134.619,981.879 99.3167,974.819 z" id="boundary" inkscape:connector-curvature="0" />
	<path style="fill:none;stroke:red;stroke-width:1px;stroke-linecap:butt;stroke-linejoin:miter;stroke-opacity:1" d="M 169.922,988.94 134.619,981.879 z" id="boundary" inkscape:connector-curvature="0" />
	<path style="fill:none;stroke:red;stroke-width:1px;stroke-linecap:butt;stroke-linejoin:miter;stroke-opacity:1" d="M 240.527,988.94 205.224,996 z" id="boundary" inkscape:connector-curvature="0" />
	<path style="fill:none;stroke:red;stroke-width:1px;stroke-linecap:butt;stroke-linejoin:miter;stroke-opacity:1" d="M 205.224,996 169.922,988.94 z" id="boundary" inkscape:connector-curvature="0" />
	<path style="fill:none;stroke:red;stroke-width:1px;stroke-linecap:butt;stroke-linejoin:miter;stroke-opacity:1" d="M 219.345,116.968 219.345,152.27 z" id="boundary" inkscape:connector-curvature="0" />
	<path style="fill:none;stroke:red;stroke-width:1px;stroke-linecap:butt;stroke-linejoin:miter;stroke-opacity:1" d="M 219.345,152.27 219.345,187.573 z" id="boundary" inkscape:connector-curvature="0" />
	<path style="fill:none;stroke:red;stroke-width:1px;stroke-linecap:butt;stroke-linejoin:miter;stroke-opacity:1" d="M 219.345,222.875 219.345,258.178 z" id="boundary" inkscape:connector-curvature="0" />
	<path style="fill:none;stroke:red;stroke-width:1px;stroke-linecap:butt;stroke-linejoin:miter;stroke-opacity:1" d="M 219.345,222.875 219.345,187.573 z" id="boundary" inkscape:connector-curvature="0" />
	<path style="fill:none;stroke:red;stroke-width:1px;stroke-linecap:butt;stroke-linejoin:miter;stroke-opacity:1" d="M 219.345,293.48 219.345,328.783 z" id="boundary" inkscape:connector-curvature="0" />
	<path style="fill:none;stroke:red;stroke-width:1px;stroke-linecap:butt;stroke-linejoin:miter;stroke-opacity:1" d="M 219.345,364.085 219.345,399.388 z" id="boundary" inkscape:connector-curvature="0" />
	<path style="fill:none;stroke:red;stroke-width:1px;stroke-linecap:butt;stroke-linejoin:miter;stroke-opacity:1" d="M 219.345,364.085 219.345,328.783 z" id="boundary" inkscape:connector-curvature="0" />
	<path style="fill:none;stroke:red;stroke-width:1px;stroke-linecap:butt;stroke-linejoin:miter;stroke-opacity:1" d="M 219.345,293.48 219.345,258.178 z" id="boundary" inkscape:connector-curvature="0" />
	<path style="fill:none;stroke:red;stroke-width:1px;stroke-linecap:butt;stroke-linejoin:miter;stroke-opacity:1" d="M 226.406,74.605 233.466,39.3025 z" id="boundary" inkscape:connector-curvature="0" />
	<path style="fill:none;stroke:red;stroke-width:1px;stroke-linecap:butt;stroke-linejoin:miter;stroke-opacity:1" d="M 367.616,568.84 342.904,540.598 z" id="boundary" inkscape:connector-curvature="0" />
	<path style="fill:none;stroke:red;stroke-width:1px;stroke-linecap:butt;stroke-linejoin:miter;stroke-opacity:1" d="M 226.406,434.69 219.345,399.388 z" id="boundary" inkscape:connector-curvature="0" />
	<path style="fill:none;stroke:red;stroke-width:1px;stroke-linecap:butt;stroke-linejoin:miter;stroke-opacity:1" d="M 233.466,469.993 254.648,498.235 z" id="boundary" inkscape:connector-curvature="0" />
	<path style="fill:none;stroke:red;stroke-width:1px;stroke-linecap:butt;stroke-linejoin:miter;stroke-opacity:1" d="M 254.648,498.235 254.648,533.537 z" id="boundary" inkscape:connector-curvature="0" />
	<path style="fill:none;stroke:red;stroke-width:1px;stroke-linecap:butt;stroke-linejoin:miter;stroke-opacity:1" d="M 233.466,469.993 226.406,434.69 z" id="boundary" inkscape:connector-curvature="0" />
	<path style="fill:none;stroke:red;stroke-width:1px;stroke-linecap:butt;stroke-linejoin:miter;stroke-opacity:1" d="M 342.904,540.598 307.601,547.658 z" id="boundary" inkscape:connector-curvature="0" />
	<path style="fill:none;stroke:red;stroke-width:1px;stroke-linecap:butt;stroke-linejoin:miter;stroke-opacity:1" d="M 254.648,533.537 272.299,565.31 z" id="boundary" inkscape:connector-curvature="0" />
	<path style="fill:none;stroke:red;stroke-width:1px;stroke-linecap:butt;stroke-linejoin:miter;stroke-opacity:1" d="M 222.875,4 233.466,39.3025 z" id="boundary" inkscape:connector-curvature="0" />
	<path style="fill:none;stroke:red;stroke-width:1px;stroke-linecap:butt;stroke-linejoin:miter;stroke-opacity:1" d="M 187.573,4 222.875,4 z" id="boundary" inkscape:connector-curvature="0" />
	<path style="fill:none;stroke:red;stroke-width:1px;stroke-linecap:butt;stroke-linejoin:miter;stroke-opacity:1" d="M 353.495,618.263 339.374,653.566 z" id="boundary" inkscape:connector-curvature="0" />
	<path style="fill:none;stroke:red;stroke-width:1px;stroke-linecap:butt;stroke-linejoin:miter;stroke-opacity:1" d="M 307.601,547.658 272.299,565.31 z" id="boundary" inkscape:connector-curvature="0" />
	<path style="fill:none;stroke:red;stroke-width:1px;stroke-linecap:butt;stroke-linejoin:miter;stroke-opacity:1" d="M 339.374,653.566 346.434,688.868 z" id="boundary" inkscape:connector-curvature="0" />
	<path style="fill:none;stroke:red;stroke-width:1px;stroke-linecap:butt;stroke-linejoin:miter;stroke-opacity:1" d="M 346.434,688.868 364.085,720.641 z" id="boundary" inkscape:connector-curvature="0" />
	<path style="fill:none;stroke:red;stroke-width:1px;stroke-linecap:butt;stroke-linejoin:miter;stroke-opacity:1" d="M 275.829,981.879 240.527,988.94 z" id="boundary" inkscape:connector-curvature="0" />
	<path style="fill:none;stroke:red;stroke-width:1px;stroke-linecap:butt;stroke-linejoin:miter;stroke-opacity:1" d="M 342.904,953.637 311.132,974.819 z" id="boundary" inkscape:connector-curvature="0" />
	<path style="fill:none;stroke:red;stroke-width:1px;stroke-linecap:butt;stroke-linejoin:miter;stroke-opacity:1" d="M 311.132,974.819 275.829,981.879 z" id="boundary" inkscape:connector-curvature="0" />
	<path style="fill:none;stroke:red;stroke-width:1px;stroke-linecap:butt;stroke-linejoin:miter;stroke-opacity:1" d="M 371.146,925.395 342.904,953.637 z" id="boundary" inkscape:connector-curvature="0" />
	<path style="fill:none;stroke:red;stroke-width:1px;stroke-linecap:butt;stroke-linejoin:miter;stroke-opacity:1" d="M 364.085,720.641 381.737,752.413 z" id="boundary" inkscape:connector-curvature="0" />
	<path style="fill:none;stroke:red;stroke-width:1px;stroke-linecap:butt;stroke-linejoin:miter;stroke-opacity:1" d="M 353.495,618.263 367.616,568.84 z" id="boundary" inkscape:connector-curvature="0" />
	<path style="fill:none;stroke:red;stroke-width:1px;stroke-linecap:butt;stroke-linejoin:miter;stroke-opacity:1" d="M 395.858,787.715 381.737,752.413 z" id="boundary" inkscape:connector-curvature="0" />
	<path style="fill:none;stroke:red;stroke-width:1px;stroke-linecap:butt;stroke-linejoin:miter;stroke-opacity:1" d="M 392.327,897.153 371.146,925.395 z" id="boundary" inkscape:connector-curvature="0" />
	<path style="fill:none;stroke:red;stroke-width:1px;stroke-linecap:butt;stroke-linejoin:miter;stroke-opacity:1" d="M 402.918,858.32 392.327,897.153 z" id="boundary" inkscape:connector-curvature="0" />
	<path style="fill:none;stroke:red;stroke-width:1px;stroke-linecap:butt;stroke-linejoin:miter;stroke-opacity:1" d="M 402.918,823.018 402.918,858.32 z" id="boundary" inkscape:connector-curvature="0" />
	<path style="fill:none;stroke:red;stroke-width:1px;stroke-linecap:butt;stroke-linejoin:miter;stroke-opacity:1" d="M 402.918,823.018 395.858,787.715 z" id="boundary" inkscape:connector-curvature="0" />
	<circle cx="4" cy="830.078" r="4" fill="#0" id="circle0"/>
	<circle cx="11.0605" cy="787.715" r="4" fill="#0" id="circle1"/>
	<circle cx="11.0605" cy="865.381" r="4" fill="#0" id="circle2"/>
	<circle cx="21.6512" cy="900.683" r="4" fill="#0" id="circle3"/>
	<circle cx="28.7117" cy="755.943" r="4" fill="#0" id="circle4"/>
	<circle cx="42.8327" cy="928.925" r="4" fill="#0" id="circle5"/>
	<circle cx="49.8932" cy="727.701" r="4" fill="#0" id="circle6"/>
	<circle cx="53.4235" cy="554.719" r="4" fill="#0" id="circle7"/>
	<circle cx="53.4235" cy="590.021" r="4" fill="#0" id="circle8"/>
	<circle cx="60.484" cy="625.324" r="4" fill="#0" id="circle9"/>
	<circle cx="67.5445" cy="688.868" r="4" fill="#0" id="circle10"/>
	<circle cx="71.0747" cy="953.637" r="4" fill="#0" id="circle11"/>
	<circle cx="74.605" cy="519.416" r="4" fill="#0" id="circle12"/>
	<circle cx="99.3167" cy="974.819" r="4" fill="#0" id="circle13"/>
	<circle cx="109.907" cy="505.295" r="4" fill="#0" id="circle14"/>
	<circle cx="134.619" cy="981.879" r="4" fill="#0" id="circle15"/>
	<circle cx="145.21" cy="498.235" r="4" fill="#0" id="circle16"/>
	<circle cx="152.27" cy="88.726" r="4" fill="#0" id="circle17"/>
	<circle cx="159.331" cy="25.1815" r="4" fill="#0" id="circle18"/>
	<circle cx="166.391" cy="131.089" r="4" fill="#0" id="circle19"/>
	<circle cx="166.391" cy="166.391" r="4" fill="#0" id="circle20"/>
	<circle cx="166.391" cy="201.694" r="4" fill="#0" id="circle21"/>
	<circle cx="166.391" cy="236.996" r="4" fill="#0" id="circle22"/>
	<circle cx="166.391" cy="272.299" r="4" fill="#0" id="circle23"/>
	<circle cx="166.391" cy="307.601" r="4" fill="#0" id="circle24"/>
	<circle cx="166.391" cy="342.904" r="4" fill="#0" id="circle25"/>
	<circle cx="166.391" cy="378.206" r="4" fill="#0" id="circle26"/>
	<circle cx="166.391" cy="413.509" r="4" fill="#0" id="circle27"/>
	<circle cx="166.391" cy="448.811" r="4" fill="#0" id="circle28"/>
	<circle cx="169.922" cy="988.94" r="4" fill="#0" id="circle29"/>
	<circle cx="187.573" cy="4" r="4" fill="#0" id="circle30"/>
	<circle cx="205.224" cy="996" r="4" fill="#0" id="circle31"/>
	<circle cx="219.345" cy="116.968" r="4" fill="#0" id="circle32"/>
	<circle cx="219.345" cy="152.27" r="4" fill="#0" id="circle33"/>
	<circle cx="219.345" cy="187.573" r="4" fill="#0" id="circle34"/>
	<circle cx="219.345" cy="222.875" r="4" fill="#0" id="circle35"/>
	<circle cx="219.345" cy="258.178" r="4" fill="#0" id="circle36"/>
	<circle cx="219.345" cy="293.48" r="4" fill="#0" id="circle37"/>
	<circle cx="219.345" cy="328.783" r="4" fill="#0" id="circle38"/>
	<circle cx="219.345" cy="364.085" r="4" fill="#0" id="circle39"/>
	<circle cx="219.345" cy="399.388" r="4" fill="#0" id="circle40"/>
	<circle cx="222.875" cy="4" r="4" fill="#0" id="circle41"/>
	<circle cx="226.406" cy="74.605" r="4" fill="#0" id="circle42"/>
	<circle cx="226.406" cy="434.69" r="4" fill="#0" id="circle43"/>
	<circle cx="233.466" cy="39.3025" r="4" fill="#0" id="circle44"/>
	<circle cx="233.466" cy="469.993" r="4" fill="#0" id="circle45"/>
	<circle cx="240.527" cy="988.94" r="4" fill="#0" id="circle46"/>
	<circle cx="254.648" cy="498.235" r="4" fill="#0" id="circle47"/>
	<circle cx="254.648" cy="533.537" r="4" fill="#0" id="circle48"/>
	<circle cx="272.299" cy="565.31" r="4" fill="#0" id="circle49"/>
	<circle cx="275.829" cy="981.879" r="4" fill="#0" id="circle50"/>
	<circle cx="307.601" cy="547.658" r="4" fill="#0" id="circle51"/>
	<circle cx="311.132" cy="974.819" r="4" fill="#0" id="circle52"/>
	<circle cx="339.374" cy="653.566" r="4" fill="#0" id="circle53"/>
	<circle cx="342.904" cy="540.598" r="4" fill="#0" id="circle54"/>
	<circle cx="342.904" cy="953.637" r="4" fill="#0" id="circle55"/>
	<circle cx="346.434" cy="688.868" r="4" fill="#0" id="circle56"/>
	<circle cx="353.495" cy="618.263" r="4" fill="#0" id="circle57"/>
	<circle cx="364.085" cy="720.641" r="4" fill="#0" id="circle58"/>
	<circle cx="367.616" cy="568.84" r="4" fill="#0" id="circle59"/>
	<circle cx="371.146" cy="925.395" r="4" fill="#0" id="circle60"/>
	<circle cx="381.737" cy="752.413" r="4" fill="#0" id="circle61"/>
	<circle cx="392.327" cy="897.153" r="4" fill="#0" id="circle62"/>
	<circle cx="395.858" cy="787.715" r="4" fill="#0" id="circle63"/>
	<circle cx="402.918" cy="823.018" r="4" fill="#0" id="circle64"/>
	<circle cx="402.918" cy="858.32" r="4" fill="#0" id="circle65"/>
	</g>
</svg>