<?xml version="1.0" encoding="UTF-8" standalone="no"?>
<!-- Created with CurveBenchmark -->
<svg
	xmlns:dc="http://purl.org/dc/elements/1.1/"
	xmlns:cc="http://creativecommons.org/ns#"
	xmlns:rdf="http://www.w3.org/1999/02/22-rdf-syntax-ns#"
	xmlns:svg="http://www.w3.org/2000/svg"
	xmlns="http://www.w3.org/2000/svg"
	xmlns:sodipodi="http://sodipodi.sourceforge.net/DTD/sodipodi-0.dtd"
	xmlns:inkscape="http://www.inkscape.org/namespaces/inkscape"
	width="1000"
	height="1000"
	id="svg2"
	version="1.1"
	sodipodi:docname="manifold/gathang-hammer-11.png.txt">
<defs
	id="defs4" />
<metadata
	id="metadata7">
	<rdf:RDF>
		<cc:Work
			rdf:about="">
			<dc:format>image/svg+xml</dc:format>
			<dc:type
				rdf:resource="http://purl.org/dc/dcmitype/StillImage" />
			<dc:title></dc:title>
		</cc:Work>
	</rdf:RDF>
</metadata>
<g
	inkscape:label="Layer 1"
	inkscape:groupmode="layer"
	id="layer1">
	<path style="fill:none;stroke:red;stroke-width:1px;stroke-linecap:butt;stroke-linejoin:miter;stroke-opacity:1" d="M 4,18.9779 4,7.45645 z" id="boundary" inkscape:connector-curvature="0" />
	<path style="fill:none;stroke:red;stroke-width:1px;stroke-linecap:butt;stroke-linejoin:miter;stroke-opacity:1" d="M 4,7.45645 15.5215,4 z" id="boundary" inkscape:connector-curvature="0" />
	<path style="fill:none;stroke:red;stroke-width:1px;stroke-linecap:butt;stroke-linejoin:miter;stroke-opacity:1" d="M 4,42.0209 4,30.4994 z" id="boundary" inkscape:connector-curvature="0" />
	<path style="fill:none;stroke:red;stroke-width:1px;stroke-linecap:butt;stroke-linejoin:miter;stroke-opacity:1" d="M 4,30.4994 4,18.9779 z" id="boundary" inkscape:connector-curvature="0" />
	<path style="fill:none;stroke:red;stroke-width:1px;stroke-linecap:butt;stroke-linejoin:miter;stroke-opacity:1" d="M 4,65.0639 4,53.5424 z" id="boundary" inkscape:connector-curvature="0" />
	<path style="fill:none;stroke:red;stroke-width:1px;stroke-linecap:butt;stroke-linejoin:miter;stroke-opacity:1" d="M 4,88.1069 4,76.5854 z" id="boundary" inkscape:connector-curvature="0" />
	<path style="fill:none;stroke:red;stroke-width:1px;stroke-linecap:butt;stroke-linejoin:miter;stroke-opacity:1" d="M 4,76.5854 4,65.0639 z" id="boundary" inkscape:connector-curvature="0" />
	<path style="fill:none;stroke:red;stroke-width:1px;stroke-linecap:butt;stroke-linejoin:miter;stroke-opacity:1" d="M 4,53.5424 4,42.0209 z" id="boundary" inkscape:connector-curvature="0" />
	<path style="fill:none;stroke:red;stroke-width:1px;stroke-linecap:butt;stroke-linejoin:miter;stroke-opacity:1" d="M 27.043,4 38.5645,4 z" id="boundary" inkscape:connector-curvature="0" />
	<path style="fill:none;stroke:red;stroke-width:1px;stroke-linecap:butt;stroke-linejoin:miter;stroke-opacity:1" d="M 4,99.6283 4,88.1069 z" id="boundary" inkscape:connector-curvature="0" />
	<path style="fill:none;stroke:red;stroke-width:1px;stroke-linecap:butt;stroke-linejoin:miter;stroke-opacity:1" d="M 38.5645,4 50.0859,4 z" id="boundary" inkscape:connector-curvature="0" />
	<path style="fill:none;stroke:red;stroke-width:1px;stroke-linecap:butt;stroke-linejoin:miter;stroke-opacity:1" d="M 4,111.15 4,99.6283 z" id="boundary" inkscape:connector-curvature="0" />
	<path style="fill:none;stroke:red;stroke-width:1px;stroke-linecap:butt;stroke-linejoin:miter;stroke-opacity:1" d="M 4,134.193 4,122.671 z" id="boundary" inkscape:connector-curvature="0" />
	<path style="fill:none;stroke:red;stroke-width:1px;stroke-linecap:butt;stroke-linejoin:miter;stroke-opacity:1" d="M 4,122.671 4,111.15 z" id="boundary" inkscape:connector-curvature="0" />
	<path style="fill:none;stroke:red;stroke-width:1px;stroke-linecap:butt;stroke-linejoin:miter;stroke-opacity:1" d="M 4,145.714 4,134.193 z" id="boundary" inkscape:connector-curvature="0" />
	<path style="fill:none;stroke:red;stroke-width:1px;stroke-linecap:butt;stroke-linejoin:miter;stroke-opacity:1" d="M 15.5215,4 27.043,4 z" id="boundary" inkscape:connector-curvature="0" />
	<path style="fill:none;stroke:red;stroke-width:1px;stroke-linecap:butt;stroke-linejoin:miter;stroke-opacity:1" d="M 4,168.757 4,157.236 z" id="boundary" inkscape:connector-curvature="0" />
	<path style="fill:none;stroke:red;stroke-width:1px;stroke-linecap:butt;stroke-linejoin:miter;stroke-opacity:1" d="M 4,191.8 4,180.279 z" id="boundary" inkscape:connector-curvature="0" />
	<path style="fill:none;stroke:red;stroke-width:1px;stroke-linecap:butt;stroke-linejoin:miter;stroke-opacity:1" d="M 4,180.279 4,168.757 z" id="boundary" inkscape:connector-curvature="0" />
	<path style="fill:none;stroke:red;stroke-width:1px;stroke-linecap:butt;stroke-linejoin:miter;stroke-opacity:1" d="M 4,214.843 4,203.322 z" id="boundary" inkscape:connector-curvature="0" />
	<path style="fill:none;stroke:red;stroke-width:1px;stroke-linecap:butt;stroke-linejoin:miter;stroke-opacity:1" d="M 68.5203,281.668 56.9988,281.668 z" id="boundary" inkscape:connector-curvature="0" />
	<path style="fill:none;stroke:red;stroke-width:1px;stroke-linecap:butt;stroke-linejoin:miter;stroke-opacity:1" d="M 4,226.365 4,214.843 z" id="boundary" inkscape:connector-curvature="0" />
	<path style="fill:none;stroke:red;stroke-width:1px;stroke-linecap:butt;stroke-linejoin:miter;stroke-opacity:1" d="M 4,203.322 4,191.8 z" id="boundary" inkscape:connector-curvature="0" />
	<path style="fill:none;stroke:red;stroke-width:1px;stroke-linecap:butt;stroke-linejoin:miter;stroke-opacity:1" d="M 4,249.408 4,237.886 z" id="boundary" inkscape:connector-curvature="0" />
	<path style="fill:none;stroke:red;stroke-width:1px;stroke-linecap:butt;stroke-linejoin:miter;stroke-opacity:1" d="M 4,272.451 4,260.929 z" id="boundary" inkscape:connector-curvature="0" />
	<path style="fill:none;stroke:red;stroke-width:1px;stroke-linecap:butt;stroke-linejoin:miter;stroke-opacity:1" d="M 4,260.929 4,249.408 z" id="boundary" inkscape:connector-curvature="0" />
	<path style="fill:none;stroke:red;stroke-width:1px;stroke-linecap:butt;stroke-linejoin:miter;stroke-opacity:1" d="M 10.9129,281.668 22.4344,281.668 z" id="boundary" inkscape:connector-curvature="0" />
	<path style="fill:none;stroke:red;stroke-width:1px;stroke-linecap:butt;stroke-linejoin:miter;stroke-opacity:1" d="M 10.9129,281.668 4,272.451 z" id="boundary" inkscape:connector-curvature="0" />
	<path style="fill:none;stroke:red;stroke-width:1px;stroke-linecap:butt;stroke-linejoin:miter;stroke-opacity:1" d="M 33.9559,281.668 45.4774,281.668 z" id="boundary" inkscape:connector-curvature="0" />
	<path style="fill:none;stroke:red;stroke-width:1px;stroke-linecap:butt;stroke-linejoin:miter;stroke-opacity:1" d="M 56.9988,281.668 45.4774,281.668 z" id="boundary" inkscape:connector-curvature="0" />
	<path style="fill:none;stroke:red;stroke-width:1px;stroke-linecap:butt;stroke-linejoin:miter;stroke-opacity:1" d="M 33.9559,281.668 22.4344,281.668 z" id="boundary" inkscape:connector-curvature="0" />
	<path style="fill:none;stroke:red;stroke-width:1px;stroke-linecap:butt;stroke-linejoin:miter;stroke-opacity:1" d="M 4,237.886 4,226.365 z" id="boundary" inkscape:connector-curvature="0" />
	<path style="fill:none;stroke:red;stroke-width:1px;stroke-linecap:butt;stroke-linejoin:miter;stroke-opacity:1" d="M 4,157.236 4,145.714 z" id="boundary" inkscape:connector-curvature="0" />
	<path style="fill:none;stroke:red;stroke-width:1px;stroke-linecap:butt;stroke-linejoin:miter;stroke-opacity:1" d="M 50.0859,4 61.6074,4 z" id="boundary" inkscape:connector-curvature="0" />
	<path style="fill:none;stroke:red;stroke-width:1px;stroke-linecap:butt;stroke-linejoin:miter;stroke-opacity:1" d="M 73.1289,4 84.6504,4 z" id="boundary" inkscape:connector-curvature="0" />
	<path style="fill:none;stroke:red;stroke-width:1px;stroke-linecap:butt;stroke-linejoin:miter;stroke-opacity:1" d="M 84.6504,4 96.1719,4 z" id="boundary" inkscape:connector-curvature="0" />
	<path style="fill:none;stroke:red;stroke-width:1px;stroke-linecap:butt;stroke-linejoin:miter;stroke-opacity:1" d="M 107.693,4 119.215,4 z" id="boundary" inkscape:connector-curvature="0" />
	<path style="fill:none;stroke:red;stroke-width:1px;stroke-linecap:butt;stroke-linejoin:miter;stroke-opacity:1" d="M 130.736,4 142.258,4 z" id="boundary" inkscape:connector-curvature="0" />
	<path style="fill:none;stroke:red;stroke-width:1px;stroke-linecap:butt;stroke-linejoin:miter;stroke-opacity:1" d="M 119.215,4 130.736,4 z" id="boundary" inkscape:connector-curvature="0" />
	<path style="fill:none;stroke:red;stroke-width:1px;stroke-linecap:butt;stroke-linejoin:miter;stroke-opacity:1" d="M 96.1719,4 107.693,4 z" id="boundary" inkscape:connector-curvature="0" />
	<path style="fill:none;stroke:red;stroke-width:1px;stroke-linecap:butt;stroke-linejoin:miter;stroke-opacity:1" d="M 153.779,6.3043 154.931,17.8258 z" id="boundary" inkscape:connector-curvature="0" />
	<path style="fill:none;stroke:red;stroke-width:1px;stroke-linecap:butt;stroke-linejoin:miter;stroke-opacity:1" d="M 142.258,4 153.779,6.3043 z" id="boundary" inkscape:connector-curvature="0" />
	<path style="fill:none;stroke:red;stroke-width:1px;stroke-linecap:butt;stroke-linejoin:miter;stroke-opacity:1" d="M 161.844,27.043 173.366,27.043 z" id="boundary" inkscape:connector-curvature="0" />
	<path style="fill:none;stroke:red;stroke-width:1px;stroke-linecap:butt;stroke-linejoin:miter;stroke-opacity:1" d="M 161.844,27.043 154.931,17.8258 z" id="boundary" inkscape:connector-curvature="0" />
	<path style="fill:none;stroke:red;stroke-width:1px;stroke-linecap:butt;stroke-linejoin:miter;stroke-opacity:1" d="M 184.887,27.043 173.366,27.043 z" id="boundary" inkscape:connector-curvature="0" />
	<path style="fill:none;stroke:red;stroke-width:1px;stroke-linecap:butt;stroke-linejoin:miter;stroke-opacity:1" d="M 184.887,27.043 196.409,27.043 z" id="boundary" inkscape:connector-curvature="0" />
	<path style="fill:none;stroke:red;stroke-width:1px;stroke-linecap:butt;stroke-linejoin:miter;stroke-opacity:1" d="M 207.93,27.043 219.452,27.043 z" id="boundary" inkscape:connector-curvature="0" />
	<path style="fill:none;stroke:red;stroke-width:1px;stroke-linecap:butt;stroke-linejoin:miter;stroke-opacity:1" d="M 207.93,27.043 196.409,27.043 z" id="boundary" inkscape:connector-curvature="0" />
	<path style="fill:none;stroke:red;stroke-width:1px;stroke-linecap:butt;stroke-linejoin:miter;stroke-opacity:1" d="M 230.973,27.043 219.452,27.043 z" id="boundary" inkscape:connector-curvature="0" />
	<path style="fill:none;stroke:red;stroke-width:1px;stroke-linecap:butt;stroke-linejoin:miter;stroke-opacity:1" d="M 68.5203,281.668 80.0418,281.668 z" id="boundary" inkscape:connector-curvature="0" />
	<path style="fill:none;stroke:red;stroke-width:1px;stroke-linecap:butt;stroke-linejoin:miter;stroke-opacity:1" d="M 91.5633,281.668 103.085,281.668 z" id="boundary" inkscape:connector-curvature="0" />
	<path style="fill:none;stroke:red;stroke-width:1px;stroke-linecap:butt;stroke-linejoin:miter;stroke-opacity:1" d="M 91.5633,281.668 80.0418,281.668 z" id="boundary" inkscape:connector-curvature="0" />
	<path style="fill:none;stroke:red;stroke-width:1px;stroke-linecap:butt;stroke-linejoin:miter;stroke-opacity:1" d="M 114.606,281.668 126.128,281.668 z" id="boundary" inkscape:connector-curvature="0" />
	<path style="fill:none;stroke:red;stroke-width:1px;stroke-linecap:butt;stroke-linejoin:miter;stroke-opacity:1" d="M 137.649,281.668 149.171,281.668 z" id="boundary" inkscape:connector-curvature="0" />
	<path style="fill:none;stroke:red;stroke-width:1px;stroke-linecap:butt;stroke-linejoin:miter;stroke-opacity:1" d="M 154.931,270.146 149.171,281.668 z" id="boundary" inkscape:connector-curvature="0" />
	<path style="fill:none;stroke:red;stroke-width:1px;stroke-linecap:butt;stroke-linejoin:miter;stroke-opacity:1" d="M 137.649,281.668 126.128,281.668 z" id="boundary" inkscape:connector-curvature="0" />
	<path style="fill:none;stroke:red;stroke-width:1px;stroke-linecap:butt;stroke-linejoin:miter;stroke-opacity:1" d="M 114.606,281.668 103.085,281.668 z" id="boundary" inkscape:connector-curvature="0" />
	<path style="fill:none;stroke:red;stroke-width:1px;stroke-linecap:butt;stroke-linejoin:miter;stroke-opacity:1" d="M 154.931,258.625 166.453,258.625 z" id="boundary" inkscape:connector-curvature="0" />
	<path style="fill:none;stroke:red;stroke-width:1px;stroke-linecap:butt;stroke-linejoin:miter;stroke-opacity:1" d="M 154.931,270.146 154.931,258.625 z" id="boundary" inkscape:connector-curvature="0" />
	<path style="fill:none;stroke:red;stroke-width:1px;stroke-linecap:butt;stroke-linejoin:miter;stroke-opacity:1" d="M 177.974,258.625 166.453,258.625 z" id="boundary" inkscape:connector-curvature="0" />
	<path style="fill:none;stroke:red;stroke-width:1px;stroke-linecap:butt;stroke-linejoin:miter;stroke-opacity:1" d="M 242.495,27.043 230.973,27.043 z" id="boundary" inkscape:connector-curvature="0" />
	<path style="fill:none;stroke:red;stroke-width:1px;stroke-linecap:butt;stroke-linejoin:miter;stroke-opacity:1" d="M 177.974,258.625 182.583,270.146 z" id="boundary" inkscape:connector-curvature="0" />
	<path style="fill:none;stroke:red;stroke-width:1px;stroke-linecap:butt;stroke-linejoin:miter;stroke-opacity:1" d="M 182.583,270.146 182.583,281.668 z" id="boundary" inkscape:connector-curvature="0" />
	<path style="fill:none;stroke:red;stroke-width:1px;stroke-linecap:butt;stroke-linejoin:miter;stroke-opacity:1" d="M 182.583,293.189 182.583,281.668 z" id="boundary" inkscape:connector-curvature="0" />
	<path style="fill:none;stroke:red;stroke-width:1px;stroke-linecap:butt;stroke-linejoin:miter;stroke-opacity:1" d="M 182.583,304.711 182.583,293.189 z" id="boundary" inkscape:connector-curvature="0" />
	<path style="fill:none;stroke:red;stroke-width:1px;stroke-linecap:butt;stroke-linejoin:miter;stroke-opacity:1" d="M 254.016,27.043 242.495,27.043 z" id="boundary" inkscape:connector-curvature="0" />
	<path style="fill:none;stroke:red;stroke-width:1px;stroke-linecap:butt;stroke-linejoin:miter;stroke-opacity:1" d="M 61.6074,4 73.1289,4 z" id="boundary" inkscape:connector-curvature="0" />
	<path style="fill:none;stroke:red;stroke-width:1px;stroke-linecap:butt;stroke-linejoin:miter;stroke-opacity:1" d="M 182.583,304.711 182.583,316.232 z" id="boundary" inkscape:connector-curvature="0" />
	<path style="fill:none;stroke:red;stroke-width:1px;stroke-linecap:butt;stroke-linejoin:miter;stroke-opacity:1" d="M 182.583,327.754 182.583,339.275 z" id="boundary" inkscape:connector-curvature="0" />
	<path style="fill:none;stroke:red;stroke-width:1px;stroke-linecap:butt;stroke-linejoin:miter;stroke-opacity:1" d="M 182.583,327.754 182.583,316.232 z" id="boundary" inkscape:connector-curvature="0" />
	<path style="fill:none;stroke:red;stroke-width:1px;stroke-linecap:butt;stroke-linejoin:miter;stroke-opacity:1" d="M 182.583,350.797 182.583,362.318 z" id="boundary" inkscape:connector-curvature="0" />
	<path style="fill:none;stroke:red;stroke-width:1px;stroke-linecap:butt;stroke-linejoin:miter;stroke-opacity:1" d="M 182.583,373.84 182.583,385.361 z" id="boundary" inkscape:connector-curvature="0" />
	<path style="fill:none;stroke:red;stroke-width:1px;stroke-linecap:butt;stroke-linejoin:miter;stroke-opacity:1" d="M 182.583,373.84 182.583,362.318 z" id="boundary" inkscape:connector-curvature="0" />
	<path style="fill:none;stroke:red;stroke-width:1px;stroke-linecap:butt;stroke-linejoin:miter;stroke-opacity:1" d="M 182.583,350.797 182.583,339.275 z" id="boundary" inkscape:connector-curvature="0" />
	<path style="fill:none;stroke:red;stroke-width:1px;stroke-linecap:butt;stroke-linejoin:miter;stroke-opacity:1" d="M 182.583,396.883 182.583,408.404 z" id="boundary" inkscape:connector-curvature="0" />
	<path style="fill:none;stroke:red;stroke-width:1px;stroke-linecap:butt;stroke-linejoin:miter;stroke-opacity:1" d="M 182.583,419.926 182.583,431.447 z" id="boundary" inkscape:connector-curvature="0" />
	<path style="fill:none;stroke:red;stroke-width:1px;stroke-linecap:butt;stroke-linejoin:miter;stroke-opacity:1" d="M 182.583,419.926 182.583,408.404 z" id="boundary" inkscape:connector-curvature="0" />
	<path style="fill:none;stroke:red;stroke-width:1px;stroke-linecap:butt;stroke-linejoin:miter;stroke-opacity:1" d="M 182.583,442.969 182.583,454.49 z" id="boundary" inkscape:connector-curvature="0" />
	<path style="fill:none;stroke:red;stroke-width:1px;stroke-linecap:butt;stroke-linejoin:miter;stroke-opacity:1" d="M 182.583,466.012 182.583,477.533 z" id="boundary" inkscape:connector-curvature="0" />
	<path style="fill:none;stroke:red;stroke-width:1px;stroke-linecap:butt;stroke-linejoin:miter;stroke-opacity:1" d="M 182.583,466.012 182.583,454.49 z" id="boundary" inkscape:connector-curvature="0" />
	<path style="fill:none;stroke:red;stroke-width:1px;stroke-linecap:butt;stroke-linejoin:miter;stroke-opacity:1" d="M 182.583,442.969 182.583,431.447 z" id="boundary" inkscape:connector-curvature="0" />
	<path style="fill:none;stroke:red;stroke-width:1px;stroke-linecap:butt;stroke-linejoin:miter;stroke-opacity:1" d="M 182.583,396.883 182.583,385.361 z" id="boundary" inkscape:connector-curvature="0" />
	<path style="fill:none;stroke:red;stroke-width:1px;stroke-linecap:butt;stroke-linejoin:miter;stroke-opacity:1" d="M 182.583,489.055 182.583,500.576 z" id="boundary" inkscape:connector-curvature="0" />
	<path style="fill:none;stroke:red;stroke-width:1px;stroke-linecap:butt;stroke-linejoin:miter;stroke-opacity:1" d="M 182.583,512.098 182.583,523.619 z" id="boundary" inkscape:connector-curvature="0" />
	<path style="fill:none;stroke:red;stroke-width:1px;stroke-linecap:butt;stroke-linejoin:miter;stroke-opacity:1" d="M 182.583,535.141 182.583,523.619 z" id="boundary" inkscape:connector-curvature="0" />
	<path style="fill:none;stroke:red;stroke-width:1px;stroke-linecap:butt;stroke-linejoin:miter;stroke-opacity:1" d="M 182.583,512.098 182.583,500.576 z" id="boundary" inkscape:connector-curvature="0" />
	<path style="fill:none;stroke:red;stroke-width:1px;stroke-linecap:butt;stroke-linejoin:miter;stroke-opacity:1" d="M 182.583,535.141 182.583,546.662 z" id="boundary" inkscape:connector-curvature="0" />
	<path style="fill:none;stroke:red;stroke-width:1px;stroke-linecap:butt;stroke-linejoin:miter;stroke-opacity:1" d="M 182.583,558.184 182.583,546.662 z" id="boundary" inkscape:connector-curvature="0" />
	<path style="fill:none;stroke:red;stroke-width:1px;stroke-linecap:butt;stroke-linejoin:miter;stroke-opacity:1" d="M 182.583,558.184 182.583,569.705 z" id="boundary" inkscape:connector-curvature="0" />
	<path style="fill:none;stroke:red;stroke-width:1px;stroke-linecap:butt;stroke-linejoin:miter;stroke-opacity:1" d="M 182.583,581.226 182.583,569.705 z" id="boundary" inkscape:connector-curvature="0" />
	<path style="fill:none;stroke:red;stroke-width:1px;stroke-linecap:butt;stroke-linejoin:miter;stroke-opacity:1" d="M 182.583,581.226 182.583,592.748 z" id="boundary" inkscape:connector-curvature="0" />
	<path style="fill:none;stroke:red;stroke-width:1px;stroke-linecap:butt;stroke-linejoin:miter;stroke-opacity:1" d="M 182.583,604.269 182.583,592.748 z" id="boundary" inkscape:connector-curvature="0" />
	<path style="fill:none;stroke:red;stroke-width:1px;stroke-linecap:butt;stroke-linejoin:miter;stroke-opacity:1" d="M 182.583,604.269 182.583,615.791 z" id="boundary" inkscape:connector-curvature="0" />
	<path style="fill:none;stroke:red;stroke-width:1px;stroke-linecap:butt;stroke-linejoin:miter;stroke-opacity:1" d="M 182.583,627.312 182.583,615.791 z" id="boundary" inkscape:connector-curvature="0" />
	<path style="fill:none;stroke:red;stroke-width:1px;stroke-linecap:butt;stroke-linejoin:miter;stroke-opacity:1" d="M 182.583,627.312 182.583,638.834 z" id="boundary" inkscape:connector-curvature="0" />
	<path style="fill:none;stroke:red;stroke-width:1px;stroke-linecap:butt;stroke-linejoin:miter;stroke-opacity:1" d="M 182.583,650.355 182.583,638.834 z" id="boundary" inkscape:connector-curvature="0" />
	<path style="fill:none;stroke:red;stroke-width:1px;stroke-linecap:butt;stroke-linejoin:miter;stroke-opacity:1" d="M 182.583,650.355 182.583,661.877 z" id="boundary" inkscape:connector-curvature="0" />
	<path style="fill:none;stroke:red;stroke-width:1px;stroke-linecap:butt;stroke-linejoin:miter;stroke-opacity:1" d="M 182.583,673.398 182.583,661.877 z" id="boundary" inkscape:connector-curvature="0" />
	<path style="fill:none;stroke:red;stroke-width:1px;stroke-linecap:butt;stroke-linejoin:miter;stroke-opacity:1" d="M 182.583,684.92 182.583,673.398 z" id="boundary" inkscape:connector-curvature="0" />
	<path style="fill:none;stroke:red;stroke-width:1px;stroke-linecap:butt;stroke-linejoin:miter;stroke-opacity:1" d="M 182.583,489.055 182.583,477.533 z" id="boundary" inkscape:connector-curvature="0" />
	<path style="fill:none;stroke:red;stroke-width:1px;stroke-linecap:butt;stroke-linejoin:miter;stroke-opacity:1" d="M 182.583,684.92 182.583,696.441 z" id="boundary" inkscape:connector-curvature="0" />
	<path style="fill:none;stroke:red;stroke-width:1px;stroke-linecap:butt;stroke-linejoin:miter;stroke-opacity:1" d="M 182.583,707.963 182.583,696.441 z" id="boundary" inkscape:connector-curvature="0" />
	<path style="fill:none;stroke:red;stroke-width:1px;stroke-linecap:butt;stroke-linejoin:miter;stroke-opacity:1" d="M 182.583,707.963 182.583,719.484 z" id="boundary" inkscape:connector-curvature="0" />
	<path style="fill:none;stroke:red;stroke-width:1px;stroke-linecap:butt;stroke-linejoin:miter;stroke-opacity:1" d="M 182.583,731.006 182.583,719.484 z" id="boundary" inkscape:connector-curvature="0" />
	<path style="fill:none;stroke:red;stroke-width:1px;stroke-linecap:butt;stroke-linejoin:miter;stroke-opacity:1" d="M 182.583,731.006 182.583,742.527 z" id="boundary" inkscape:connector-curvature="0" />
	<path style="fill:none;stroke:red;stroke-width:1px;stroke-linecap:butt;stroke-linejoin:miter;stroke-opacity:1" d="M 182.583,754.049 182.583,742.527 z" id="boundary" inkscape:connector-curvature="0" />
	<path style="fill:none;stroke:red;stroke-width:1px;stroke-linecap:butt;stroke-linejoin:miter;stroke-opacity:1" d="M 182.583,754.049 182.583,765.57 z" id="boundary" inkscape:connector-curvature="0" />
	<path style="fill:none;stroke:red;stroke-width:1px;stroke-linecap:butt;stroke-linejoin:miter;stroke-opacity:1" d="M 182.583,777.092 182.583,765.57 z" id="boundary" inkscape:connector-curvature="0" />
	<path style="fill:none;stroke:red;stroke-width:1px;stroke-linecap:butt;stroke-linejoin:miter;stroke-opacity:1" d="M 182.583,777.092 182.583,788.613 z" id="boundary" inkscape:connector-curvature="0" />
	<path style="fill:none;stroke:red;stroke-width:1px;stroke-linecap:butt;stroke-linejoin:miter;stroke-opacity:1" d="M 182.583,800.135 182.583,788.613 z" id="boundary" inkscape:connector-curvature="0" />
	<path style="fill:none;stroke:red;stroke-width:1px;stroke-linecap:butt;stroke-linejoin:miter;stroke-opacity:1" d="M 182.583,800.135 182.583,811.656 z" id="boundary" inkscape:connector-curvature="0" />
	<path style="fill:none;stroke:red;stroke-width:1px;stroke-linecap:butt;stroke-linejoin:miter;stroke-opacity:1" d="M 182.583,823.178 182.583,811.656 z" id="boundary" inkscape:connector-curvature="0" />
	<path style="fill:none;stroke:red;stroke-width:1px;stroke-linecap:butt;stroke-linejoin:miter;stroke-opacity:1" d="M 182.583,823.178 182.583,834.699 z" id="boundary" inkscape:connector-curvature="0" />
	<path style="fill:none;stroke:red;stroke-width:1px;stroke-linecap:butt;stroke-linejoin:miter;stroke-opacity:1" d="M 182.583,846.221 182.583,834.699 z" id="boundary" inkscape:connector-curvature="0" />
	<path style="fill:none;stroke:red;stroke-width:1px;stroke-linecap:butt;stroke-linejoin:miter;stroke-opacity:1" d="M 182.583,846.221 182.583,857.742 z" id="boundary" inkscape:connector-curvature="0" />
	<path style="fill:none;stroke:red;stroke-width:1px;stroke-linecap:butt;stroke-linejoin:miter;stroke-opacity:1" d="M 182.583,869.264 182.583,857.742 z" id="boundary" inkscape:connector-curvature="0" />
	<path style="fill:none;stroke:red;stroke-width:1px;stroke-linecap:butt;stroke-linejoin:miter;stroke-opacity:1" d="M 182.583,869.264 182.583,880.785 z" id="boundary" inkscape:connector-curvature="0" />
	<path style="fill:none;stroke:red;stroke-width:1px;stroke-linecap:butt;stroke-linejoin:miter;stroke-opacity:1" d="M 182.583,892.307 182.583,880.785 z" id="boundary" inkscape:connector-curvature="0" />
	<path style="fill:none;stroke:red;stroke-width:1px;stroke-linecap:butt;stroke-linejoin:miter;stroke-opacity:1" d="M 182.583,892.307 182.583,903.828 z" id="boundary" inkscape:connector-curvature="0" />
	<path style="fill:none;stroke:red;stroke-width:1px;stroke-linecap:butt;stroke-linejoin:miter;stroke-opacity:1" d="M 182.583,915.35 182.583,903.828 z" id="boundary" inkscape:connector-curvature="0" />
	<path style="fill:none;stroke:red;stroke-width:1px;stroke-linecap:butt;stroke-linejoin:miter;stroke-opacity:1" d="M 182.583,915.35 182.583,926.871 z" id="boundary" inkscape:connector-curvature="0" />
	<path style="fill:none;stroke:red;stroke-width:1px;stroke-linecap:butt;stroke-linejoin:miter;stroke-opacity:1" d="M 255.168,996 243.647,996 z" id="boundary" inkscape:connector-curvature="0" />
	<path style="fill:none;stroke:red;stroke-width:1px;stroke-linecap:butt;stroke-linejoin:miter;stroke-opacity:1" d="M 182.583,938.393 182.583,949.914 z" id="boundary" inkscape:connector-curvature="0" />
	<path style="fill:none;stroke:red;stroke-width:1px;stroke-linecap:butt;stroke-linejoin:miter;stroke-opacity:1" d="M 182.583,938.393 182.583,926.871 z" id="boundary" inkscape:connector-curvature="0" />
	<path style="fill:none;stroke:red;stroke-width:1px;stroke-linecap:butt;stroke-linejoin:miter;stroke-opacity:1" d="M 182.583,961.436 182.583,972.957 z" id="boundary" inkscape:connector-curvature="0" />
	<path style="fill:none;stroke:red;stroke-width:1px;stroke-linecap:butt;stroke-linejoin:miter;stroke-opacity:1" d="M 182.583,984.479 182.583,972.957 z" id="boundary" inkscape:connector-curvature="0" />
	<path style="fill:none;stroke:red;stroke-width:1px;stroke-linecap:butt;stroke-linejoin:miter;stroke-opacity:1" d="M 197.561,996 186.039,996 z" id="boundary" inkscape:connector-curvature="0" />
	<path style="fill:none;stroke:red;stroke-width:1px;stroke-linecap:butt;stroke-linejoin:miter;stroke-opacity:1" d="M 186.039,996 182.583,984.479 z" id="boundary" inkscape:connector-curvature="0" />
	<path style="fill:none;stroke:red;stroke-width:1px;stroke-linecap:butt;stroke-linejoin:miter;stroke-opacity:1" d="M 209.082,996 197.561,996 z" id="boundary" inkscape:connector-curvature="0" />
	<path style="fill:none;stroke:red;stroke-width:1px;stroke-linecap:butt;stroke-linejoin:miter;stroke-opacity:1" d="M 182.583,961.436 182.583,949.914 z" id="boundary" inkscape:connector-curvature="0" />
	<path style="fill:none;stroke:red;stroke-width:1px;stroke-linecap:butt;stroke-linejoin:miter;stroke-opacity:1" d="M 232.125,996 220.604,996 z" id="boundary" inkscape:connector-curvature="0" />
	<path style="fill:none;stroke:red;stroke-width:1px;stroke-linecap:butt;stroke-linejoin:miter;stroke-opacity:1" d="M 220.604,996 209.082,996 z" id="boundary" inkscape:connector-curvature="0" />
	<path style="fill:none;stroke:red;stroke-width:1px;stroke-linecap:butt;stroke-linejoin:miter;stroke-opacity:1" d="M 243.647,996 232.125,996 z" id="boundary" inkscape:connector-curvature="0" />
	<path style="fill:none;stroke:red;stroke-width:1px;stroke-linecap:butt;stroke-linejoin:miter;stroke-opacity:1" d="M 254.016,27.043 265.538,27.043 z" id="boundary" inkscape:connector-curvature="0" />
	<path style="fill:none;stroke:red;stroke-width:1px;stroke-linecap:butt;stroke-linejoin:miter;stroke-opacity:1" d="M 277.059,27.043 288.581,27.043 z" id="boundary" inkscape:connector-curvature="0" />
	<path style="fill:none;stroke:red;stroke-width:1px;stroke-linecap:butt;stroke-linejoin:miter;stroke-opacity:1" d="M 277.059,27.043 265.538,27.043 z" id="boundary" inkscape:connector-curvature="0" />
	<path style="fill:none;stroke:red;stroke-width:1px;stroke-linecap:butt;stroke-linejoin:miter;stroke-opacity:1" d="M 300.102,27.043 311.624,27.043 z" id="boundary" inkscape:connector-curvature="0" />
	<path style="fill:none;stroke:red;stroke-width:1px;stroke-linecap:butt;stroke-linejoin:miter;stroke-opacity:1" d="M 311.624,27.043 321.993,32.8037 z" id="boundary" inkscape:connector-curvature="0" />
	<path style="fill:none;stroke:red;stroke-width:1px;stroke-linecap:butt;stroke-linejoin:miter;stroke-opacity:1" d="M 321.993,32.8037 333.515,32.8037 z" id="boundary" inkscape:connector-curvature="0" />
	<path style="fill:none;stroke:red;stroke-width:1px;stroke-linecap:butt;stroke-linejoin:miter;stroke-opacity:1" d="M 333.515,32.8037 345.036,36.2602 z" id="boundary" inkscape:connector-curvature="0" />
	<path style="fill:none;stroke:red;stroke-width:1px;stroke-linecap:butt;stroke-linejoin:miter;stroke-opacity:1" d="M 288.581,27.043 300.102,27.043 z" id="boundary" inkscape:connector-curvature="0" />
	<path style="fill:none;stroke:red;stroke-width:1px;stroke-linecap:butt;stroke-linejoin:miter;stroke-opacity:1" d="M 345.036,36.2602 355.405,42.0209 z" id="boundary" inkscape:connector-curvature="0" />
	<path style="fill:none;stroke:red;stroke-width:1px;stroke-linecap:butt;stroke-linejoin:miter;stroke-opacity:1" d="M 366.927,46.6295 355.405,42.0209 z" id="boundary" inkscape:connector-curvature="0" />
	<path style="fill:none;stroke:red;stroke-width:1px;stroke-linecap:butt;stroke-linejoin:miter;stroke-opacity:1" d="M 366.927,46.6295 378.448,50.0859 z" id="boundary" inkscape:connector-curvature="0" />
	<path style="fill:none;stroke:red;stroke-width:1px;stroke-linecap:butt;stroke-linejoin:miter;stroke-opacity:1" d="M 389.97,52.3902 378.448,50.0859 z" id="boundary" inkscape:connector-curvature="0" />
	<path style="fill:none;stroke:red;stroke-width:1px;stroke-linecap:butt;stroke-linejoin:miter;stroke-opacity:1" d="M 389.97,52.3902 396.883,61.6074 z" id="boundary" inkscape:connector-curvature="0" />
	<path style="fill:none;stroke:red;stroke-width:1px;stroke-linecap:butt;stroke-linejoin:miter;stroke-opacity:1" d="M 408.404,65.0639 396.883,61.6074 z" id="boundary" inkscape:connector-curvature="0" />
	<path style="fill:none;stroke:red;stroke-width:1px;stroke-linecap:butt;stroke-linejoin:miter;stroke-opacity:1" d="M 408.404,65.0639 417.621,73.1289 z" id="boundary" inkscape:connector-curvature="0" />
	<path style="fill:none;stroke:red;stroke-width:1px;stroke-linecap:butt;stroke-linejoin:miter;stroke-opacity:1" d="M 427.991,78.8897 417.621,73.1289 z" id="boundary" inkscape:connector-curvature="0" />
	<path style="fill:none;stroke:red;stroke-width:1px;stroke-linecap:butt;stroke-linejoin:miter;stroke-opacity:1" d="M 321.993,252.864 333.515,252.864 z" id="boundary" inkscape:connector-curvature="0" />
	<path style="fill:none;stroke:red;stroke-width:1px;stroke-linecap:butt;stroke-linejoin:miter;stroke-opacity:1" d="M 321.993,264.386 321.993,252.864 z" id="boundary" inkscape:connector-curvature="0" />
	<path style="fill:none;stroke:red;stroke-width:1px;stroke-linecap:butt;stroke-linejoin:miter;stroke-opacity:1" d="M 345.036,252.864 356.557,252.864 z" id="boundary" inkscape:connector-curvature="0" />
	<path style="fill:none;stroke:red;stroke-width:1px;stroke-linecap:butt;stroke-linejoin:miter;stroke-opacity:1" d="M 345.036,252.864 333.515,252.864 z" id="boundary" inkscape:connector-curvature="0" />
	<path style="fill:none;stroke:red;stroke-width:1px;stroke-linecap:butt;stroke-linejoin:miter;stroke-opacity:1" d="M 321.993,264.386 321.993,275.907 z" id="boundary" inkscape:connector-curvature="0" />
	<path style="fill:none;stroke:red;stroke-width:1px;stroke-linecap:butt;stroke-linejoin:miter;stroke-opacity:1" d="M 321.993,287.429 321.993,298.95 z" id="boundary" inkscape:connector-curvature="0" />
	<path style="fill:none;stroke:red;stroke-width:1px;stroke-linecap:butt;stroke-linejoin:miter;stroke-opacity:1" d="M 321.993,287.429 321.993,275.907 z" id="boundary" inkscape:connector-curvature="0" />
	<path style="fill:none;stroke:red;stroke-width:1px;stroke-linecap:butt;stroke-linejoin:miter;stroke-opacity:1" d="M 356.557,252.864 368.079,252.864 z" id="boundary" inkscape:connector-curvature="0" />
	<path style="fill:none;stroke:red;stroke-width:1px;stroke-linecap:butt;stroke-linejoin:miter;stroke-opacity:1" d="M 379.6,255.168 391.122,258.625 z" id="boundary" inkscape:connector-curvature="0" />
	<path style="fill:none;stroke:red;stroke-width:1px;stroke-linecap:butt;stroke-linejoin:miter;stroke-opacity:1" d="M 379.6,255.168 368.079,252.864 z" id="boundary" inkscape:connector-curvature="0" />
	<path style="fill:none;stroke:red;stroke-width:1px;stroke-linecap:butt;stroke-linejoin:miter;stroke-opacity:1" d="M 438.36,84.6504 427.991,78.8897 z" id="boundary" inkscape:connector-curvature="0" />
	<path style="fill:none;stroke:red;stroke-width:1px;stroke-linecap:butt;stroke-linejoin:miter;stroke-opacity:1" d="M 391.122,258.625 402.643,258.625 z" id="boundary" inkscape:connector-curvature="0" />
	<path style="fill:none;stroke:red;stroke-width:1px;stroke-linecap:butt;stroke-linejoin:miter;stroke-opacity:1" d="M 425.686,260.929 414.165,258.625 z" id="boundary" inkscape:connector-curvature="0" />
	<path style="fill:none;stroke:red;stroke-width:1px;stroke-linecap:butt;stroke-linejoin:miter;stroke-opacity:1" d="M 448.729,264.386 437.208,264.386 z" id="boundary" inkscape:connector-curvature="0" />
	<path style="fill:none;stroke:red;stroke-width:1px;stroke-linecap:butt;stroke-linejoin:miter;stroke-opacity:1" d="M 437.208,264.386 425.686,260.929 z" id="boundary" inkscape:connector-curvature="0" />
	<path style="fill:none;stroke:red;stroke-width:1px;stroke-linecap:butt;stroke-linejoin:miter;stroke-opacity:1" d="M 402.643,258.625 414.165,258.625 z" id="boundary" inkscape:connector-curvature="0" />
	<path style="fill:none;stroke:red;stroke-width:1px;stroke-linecap:butt;stroke-linejoin:miter;stroke-opacity:1" d="M 321.993,310.472 321.993,298.95 z" id="boundary" inkscape:connector-curvature="0" />
	<path style="fill:none;stroke:red;stroke-width:1px;stroke-linecap:butt;stroke-linejoin:miter;stroke-opacity:1" d="M 438.36,84.6504 447.577,92.7154 z" id="boundary" inkscape:connector-curvature="0" />
	<path style="fill:none;stroke:red;stroke-width:1px;stroke-linecap:butt;stroke-linejoin:miter;stroke-opacity:1" d="M 457.947,98.4762 447.577,92.7154 z" id="boundary" inkscape:connector-curvature="0" />
	<path style="fill:none;stroke:red;stroke-width:1px;stroke-linecap:butt;stroke-linejoin:miter;stroke-opacity:1" d="M 469.468,103.085 477.533,112.302 z" id="boundary" inkscape:connector-curvature="0" />
	<path style="fill:none;stroke:red;stroke-width:1px;stroke-linecap:butt;stroke-linejoin:miter;stroke-opacity:1" d="M 457.947,98.4762 469.468,103.085 z" id="boundary" inkscape:connector-curvature="0" />
	<path style="fill:none;stroke:red;stroke-width:1px;stroke-linecap:butt;stroke-linejoin:miter;stroke-opacity:1" d="M 489.055,116.911 477.533,112.302 z" id="boundary" inkscape:connector-curvature="0" />
	<path style="fill:none;stroke:red;stroke-width:1px;stroke-linecap:butt;stroke-linejoin:miter;stroke-opacity:1" d="M 489.055,116.911 497.12,126.128 z" id="boundary" inkscape:connector-curvature="0" />
	<path style="fill:none;stroke:red;stroke-width:1px;stroke-linecap:butt;stroke-linejoin:miter;stroke-opacity:1" d="M 506.337,134.193 497.12,126.128 z" id="boundary" inkscape:connector-curvature="0" />
	<path style="fill:none;stroke:red;stroke-width:1px;stroke-linecap:butt;stroke-linejoin:miter;stroke-opacity:1" d="M 506.337,134.193 514.402,143.41 z" id="boundary" inkscape:connector-curvature="0" />
	<path style="fill:none;stroke:red;stroke-width:1px;stroke-linecap:butt;stroke-linejoin:miter;stroke-opacity:1" d="M 514.402,143.41 520.163,153.779 z" id="boundary" inkscape:connector-curvature="0" />
	<path style="fill:none;stroke:red;stroke-width:1px;stroke-linecap:butt;stroke-linejoin:miter;stroke-opacity:1" d="M 520.163,153.779 528.228,162.997 z" id="boundary" inkscape:connector-curvature="0" />
	<path style="fill:none;stroke:red;stroke-width:1px;stroke-linecap:butt;stroke-linejoin:miter;stroke-opacity:1" d="M 535.141,172.214 537.445,183.735 z" id="boundary" inkscape:connector-curvature="0" />
	<path style="fill:none;stroke:red;stroke-width:1px;stroke-linecap:butt;stroke-linejoin:miter;stroke-opacity:1" d="M 528.228,162.997 535.141,172.214 z" id="boundary" inkscape:connector-curvature="0" />
	<path style="fill:none;stroke:red;stroke-width:1px;stroke-linecap:butt;stroke-linejoin:miter;stroke-opacity:1" d="M 543.206,194.105 537.445,183.735 z" id="boundary" inkscape:connector-curvature="0" />
	<path style="fill:none;stroke:red;stroke-width:1px;stroke-linecap:butt;stroke-linejoin:miter;stroke-opacity:1" d="M 543.206,194.105 551.271,203.322 z" id="boundary" inkscape:connector-curvature="0" />
	<path style="fill:none;stroke:red;stroke-width:1px;stroke-linecap:butt;stroke-linejoin:miter;stroke-opacity:1" d="M 551.271,203.322 557.031,213.691 z" id="boundary" inkscape:connector-curvature="0" />
	<path style="fill:none;stroke:red;stroke-width:1px;stroke-linecap:butt;stroke-linejoin:miter;stroke-opacity:1" d="M 563.944,222.908 557.031,213.691 z" id="boundary" inkscape:connector-curvature="0" />
	<path style="fill:none;stroke:red;stroke-width:1px;stroke-linecap:butt;stroke-linejoin:miter;stroke-opacity:1" d="M 563.944,222.908 563.944,234.43 z" id="boundary" inkscape:connector-curvature="0" />
	<path style="fill:none;stroke:red;stroke-width:1px;stroke-linecap:butt;stroke-linejoin:miter;stroke-opacity:1" d="M 460.251,266.69 471.772,270.146 z" id="boundary" inkscape:connector-curvature="0" />
	<path style="fill:none;stroke:red;stroke-width:1px;stroke-linecap:butt;stroke-linejoin:miter;stroke-opacity:1" d="M 460.251,266.69 448.729,264.386 z" id="boundary" inkscape:connector-curvature="0" />
	<path style="fill:none;stroke:red;stroke-width:1px;stroke-linecap:butt;stroke-linejoin:miter;stroke-opacity:1" d="M 471.772,270.146 483.294,272.451 z" id="boundary" inkscape:connector-curvature="0" />
	<path style="fill:none;stroke:red;stroke-width:1px;stroke-linecap:butt;stroke-linejoin:miter;stroke-opacity:1" d="M 483.294,272.451 494.815,275.907 z" id="boundary" inkscape:connector-curvature="0" />
	<path style="fill:none;stroke:red;stroke-width:1px;stroke-linecap:butt;stroke-linejoin:miter;stroke-opacity:1" d="M 494.815,275.907 506.337,275.907 z" id="boundary" inkscape:connector-curvature="0" />
	<path style="fill:none;stroke:red;stroke-width:1px;stroke-linecap:butt;stroke-linejoin:miter;stroke-opacity:1" d="M 506.337,275.907 517.858,278.211 z" id="boundary" inkscape:connector-curvature="0" />
	<path style="fill:none;stroke:red;stroke-width:1px;stroke-linecap:butt;stroke-linejoin:miter;stroke-opacity:1" d="M 529.38,281.668 517.858,278.211 z" id="boundary" inkscape:connector-curvature="0" />
	<path style="fill:none;stroke:red;stroke-width:1px;stroke-linecap:butt;stroke-linejoin:miter;stroke-opacity:1" d="M 529.38,281.668 539.749,287.429 z" id="boundary" inkscape:connector-curvature="0" />
	<path style="fill:none;stroke:red;stroke-width:1px;stroke-linecap:butt;stroke-linejoin:miter;stroke-opacity:1" d="M 569.705,244.799 563.944,234.43 z" id="boundary" inkscape:connector-curvature="0" />
	<path style="fill:none;stroke:red;stroke-width:1px;stroke-linecap:butt;stroke-linejoin:miter;stroke-opacity:1" d="M 569.705,244.799 575.466,255.168 z" id="boundary" inkscape:connector-curvature="0" />
	<path style="fill:none;stroke:red;stroke-width:1px;stroke-linecap:butt;stroke-linejoin:miter;stroke-opacity:1" d="M 580.074,266.69 575.466,255.168 z" id="boundary" inkscape:connector-curvature="0" />
	<path style="fill:none;stroke:red;stroke-width:1px;stroke-linecap:butt;stroke-linejoin:miter;stroke-opacity:1" d="M 539.749,287.429 551.271,287.429 z" id="boundary" inkscape:connector-curvature="0" />
	<path style="fill:none;stroke:red;stroke-width:1px;stroke-linecap:butt;stroke-linejoin:miter;stroke-opacity:1" d="M 551.271,287.429 561.64,293.189 z" id="boundary" inkscape:connector-curvature="0" />
	<path style="fill:none;stroke:red;stroke-width:1px;stroke-linecap:butt;stroke-linejoin:miter;stroke-opacity:1" d="M 572.009,298.95 561.64,293.189 z" id="boundary" inkscape:connector-curvature="0" />
	<path style="fill:none;stroke:red;stroke-width:1px;stroke-linecap:butt;stroke-linejoin:miter;stroke-opacity:1" d="M 586.987,288.581 581.226,278.211 z" id="boundary" inkscape:connector-curvature="0" />
	<path style="fill:none;stroke:red;stroke-width:1px;stroke-linecap:butt;stroke-linejoin:miter;stroke-opacity:1" d="M 581.226,278.211 580.074,266.69 z" id="boundary" inkscape:connector-curvature="0" />
	<path style="fill:none;stroke:red;stroke-width:1px;stroke-linecap:butt;stroke-linejoin:miter;stroke-opacity:1" d="M 321.993,321.993 321.993,333.515 z" id="boundary" inkscape:connector-curvature="0" />
	<path style="fill:none;stroke:red;stroke-width:1px;stroke-linecap:butt;stroke-linejoin:miter;stroke-opacity:1" d="M 321.993,321.993 321.993,310.472 z" id="boundary" inkscape:connector-curvature="0" />
	<path style="fill:none;stroke:red;stroke-width:1px;stroke-linecap:butt;stroke-linejoin:miter;stroke-opacity:1" d="M 321.993,345.036 321.993,356.557 z" id="boundary" inkscape:connector-curvature="0" />
	<path style="fill:none;stroke:red;stroke-width:1px;stroke-linecap:butt;stroke-linejoin:miter;stroke-opacity:1" d="M 321.993,345.036 321.993,333.515 z" id="boundary" inkscape:connector-curvature="0" />
	<path style="fill:none;stroke:red;stroke-width:1px;stroke-linecap:butt;stroke-linejoin:miter;stroke-opacity:1" d="M 321.993,368.079 321.993,379.6 z" id="boundary" inkscape:connector-curvature="0" />
	<path style="fill:none;stroke:red;stroke-width:1px;stroke-linecap:butt;stroke-linejoin:miter;stroke-opacity:1" d="M 321.993,368.079 321.993,356.557 z" id="boundary" inkscape:connector-curvature="0" />
	<path style="fill:none;stroke:red;stroke-width:1px;stroke-linecap:butt;stroke-linejoin:miter;stroke-opacity:1" d="M 321.993,391.122 321.993,402.643 z" id="boundary" inkscape:connector-curvature="0" />
	<path style="fill:none;stroke:red;stroke-width:1px;stroke-linecap:butt;stroke-linejoin:miter;stroke-opacity:1" d="M 321.993,391.122 321.993,379.6 z" id="boundary" inkscape:connector-curvature="0" />
	<path style="fill:none;stroke:red;stroke-width:1px;stroke-linecap:butt;stroke-linejoin:miter;stroke-opacity:1" d="M 321.993,414.165 321.993,425.686 z" id="boundary" inkscape:connector-curvature="0" />
	<path style="fill:none;stroke:red;stroke-width:1px;stroke-linecap:butt;stroke-linejoin:miter;stroke-opacity:1" d="M 321.993,414.165 321.993,402.643 z" id="boundary" inkscape:connector-curvature="0" />
	<path style="fill:none;stroke:red;stroke-width:1px;stroke-linecap:butt;stroke-linejoin:miter;stroke-opacity:1" d="M 321.993,437.208 321.993,448.729 z" id="boundary" inkscape:connector-curvature="0" />
	<path style="fill:none;stroke:red;stroke-width:1px;stroke-linecap:butt;stroke-linejoin:miter;stroke-opacity:1" d="M 321.993,437.208 321.993,425.686 z" id="boundary" inkscape:connector-curvature="0" />
	<path style="fill:none;stroke:red;stroke-width:1px;stroke-linecap:butt;stroke-linejoin:miter;stroke-opacity:1" d="M 321.993,460.251 321.993,471.772 z" id="boundary" inkscape:connector-curvature="0" />
	<path style="fill:none;stroke:red;stroke-width:1px;stroke-linecap:butt;stroke-linejoin:miter;stroke-opacity:1" d="M 321.993,460.251 321.993,448.729 z" id="boundary" inkscape:connector-curvature="0" />
	<path style="fill:none;stroke:red;stroke-width:1px;stroke-linecap:butt;stroke-linejoin:miter;stroke-opacity:1" d="M 321.993,483.294 321.993,494.815 z" id="boundary" inkscape:connector-curvature="0" />
	<path style="fill:none;stroke:red;stroke-width:1px;stroke-linecap:butt;stroke-linejoin:miter;stroke-opacity:1" d="M 321.993,483.294 321.993,471.772 z" id="boundary" inkscape:connector-curvature="0" />
	<path style="fill:none;stroke:red;stroke-width:1px;stroke-linecap:butt;stroke-linejoin:miter;stroke-opacity:1" d="M 266.69,996 255.168,996 z" id="boundary" inkscape:connector-curvature="0" />
	<path style="fill:none;stroke:red;stroke-width:1px;stroke-linecap:butt;stroke-linejoin:miter;stroke-opacity:1" d="M 321.993,506.337 321.993,517.858 z" id="boundary" inkscape:connector-curvature="0" />
	<path style="fill:none;stroke:red;stroke-width:1px;stroke-linecap:butt;stroke-linejoin:miter;stroke-opacity:1" d="M 321.993,506.337 321.993,494.815 z" id="boundary" inkscape:connector-curvature="0" />
	<path style="fill:none;stroke:red;stroke-width:1px;stroke-linecap:butt;stroke-linejoin:miter;stroke-opacity:1" d="M 278.211,996 266.69,996 z" id="boundary" inkscape:connector-curvature="0" />
	<path style="fill:none;stroke:red;stroke-width:1px;stroke-linecap:butt;stroke-linejoin:miter;stroke-opacity:1" d="M 289.733,996 278.211,996 z" id="boundary" inkscape:connector-curvature="0" />
	<path style="fill:none;stroke:red;stroke-width:1px;stroke-linecap:butt;stroke-linejoin:miter;stroke-opacity:1" d="M 321.993,978.718 312.776,996 z" id="boundary" inkscape:connector-curvature="0" />
	<path style="fill:none;stroke:red;stroke-width:1px;stroke-linecap:butt;stroke-linejoin:miter;stroke-opacity:1" d="M 312.776,996 301.254,996 z" id="boundary" inkscape:connector-curvature="0" />
	<path style="fill:none;stroke:red;stroke-width:1px;stroke-linecap:butt;stroke-linejoin:miter;stroke-opacity:1" d="M 301.254,996 289.733,996 z" id="boundary" inkscape:connector-curvature="0" />
	<path style="fill:none;stroke:red;stroke-width:1px;stroke-linecap:butt;stroke-linejoin:miter;stroke-opacity:1" d="M 321.993,517.858 321.993,529.38 z" id="boundary" inkscape:connector-curvature="0" />
	<path style="fill:none;stroke:red;stroke-width:1px;stroke-linecap:butt;stroke-linejoin:miter;stroke-opacity:1" d="M 321.993,529.38 321.993,540.901 z" id="boundary" inkscape:connector-curvature="0" />
	<path style="fill:none;stroke:red;stroke-width:1px;stroke-linecap:butt;stroke-linejoin:miter;stroke-opacity:1" d="M 321.993,552.423 321.993,563.944 z" id="boundary" inkscape:connector-curvature="0" />
	<path style="fill:none;stroke:red;stroke-width:1px;stroke-linecap:butt;stroke-linejoin:miter;stroke-opacity:1" d="M 321.993,552.423 321.993,540.901 z" id="boundary" inkscape:connector-curvature="0" />
	<path style="fill:none;stroke:red;stroke-width:1px;stroke-linecap:butt;stroke-linejoin:miter;stroke-opacity:1" d="M 321.993,575.466 321.993,586.987 z" id="boundary" inkscape:connector-curvature="0" />
	<path style="fill:none;stroke:red;stroke-width:1px;stroke-linecap:butt;stroke-linejoin:miter;stroke-opacity:1" d="M 321.993,575.466 321.993,563.944 z" id="boundary" inkscape:connector-curvature="0" />
	<path style="fill:none;stroke:red;stroke-width:1px;stroke-linecap:butt;stroke-linejoin:miter;stroke-opacity:1" d="M 321.993,598.509 321.993,610.03 z" id="boundary" inkscape:connector-curvature="0" />
	<path style="fill:none;stroke:red;stroke-width:1px;stroke-linecap:butt;stroke-linejoin:miter;stroke-opacity:1" d="M 321.993,598.509 321.993,586.987 z" id="boundary" inkscape:connector-curvature="0" />
	<path style="fill:none;stroke:red;stroke-width:1px;stroke-linecap:butt;stroke-linejoin:miter;stroke-opacity:1" d="M 321.993,610.03 321.993,621.552 z" id="boundary" inkscape:connector-curvature="0" />
	<path style="fill:none;stroke:red;stroke-width:1px;stroke-linecap:butt;stroke-linejoin:miter;stroke-opacity:1" d="M 321.993,621.552 321.993,633.073 z" id="boundary" inkscape:connector-curvature="0" />
	<path style="fill:none;stroke:red;stroke-width:1px;stroke-linecap:butt;stroke-linejoin:miter;stroke-opacity:1" d="M 321.993,633.073 321.993,644.595 z" id="boundary" inkscape:connector-curvature="0" />
	<path style="fill:none;stroke:red;stroke-width:1px;stroke-linecap:butt;stroke-linejoin:miter;stroke-opacity:1" d="M 321.993,656.116 321.993,667.638 z" id="boundary" inkscape:connector-curvature="0" />
	<path style="fill:none;stroke:red;stroke-width:1px;stroke-linecap:butt;stroke-linejoin:miter;stroke-opacity:1" d="M 321.993,656.116 321.993,644.595 z" id="boundary" inkscape:connector-curvature="0" />
	<path style="fill:none;stroke:red;stroke-width:1px;stroke-linecap:butt;stroke-linejoin:miter;stroke-opacity:1" d="M 321.993,679.159 321.993,690.681 z" id="boundary" inkscape:connector-curvature="0" />
	<path style="fill:none;stroke:red;stroke-width:1px;stroke-linecap:butt;stroke-linejoin:miter;stroke-opacity:1" d="M 321.993,679.159 321.993,667.638 z" id="boundary" inkscape:connector-curvature="0" />
	<path style="fill:none;stroke:red;stroke-width:1px;stroke-linecap:butt;stroke-linejoin:miter;stroke-opacity:1" d="M 321.993,702.202 321.993,713.724 z" id="boundary" inkscape:connector-curvature="0" />
	<path style="fill:none;stroke:red;stroke-width:1px;stroke-linecap:butt;stroke-linejoin:miter;stroke-opacity:1" d="M 321.993,702.202 321.993,690.681 z" id="boundary" inkscape:connector-curvature="0" />
	<path style="fill:none;stroke:red;stroke-width:1px;stroke-linecap:butt;stroke-linejoin:miter;stroke-opacity:1" d="M 321.993,725.245 321.993,736.767 z" id="boundary" inkscape:connector-curvature="0" />
	<path style="fill:none;stroke:red;stroke-width:1px;stroke-linecap:butt;stroke-linejoin:miter;stroke-opacity:1" d="M 321.993,725.245 321.993,713.724 z" id="boundary" inkscape:connector-curvature="0" />
	<path style="fill:none;stroke:red;stroke-width:1px;stroke-linecap:butt;stroke-linejoin:miter;stroke-opacity:1" d="M 583.531,303.559 572.009,298.95 z" id="boundary" inkscape:connector-curvature="0" />
	<path style="fill:none;stroke:red;stroke-width:1px;stroke-linecap:butt;stroke-linejoin:miter;stroke-opacity:1" d="M 586.987,288.581 583.531,303.559 z" id="boundary" inkscape:connector-curvature="0" />
	<path style="fill:none;stroke:red;stroke-width:1px;stroke-linecap:butt;stroke-linejoin:miter;stroke-opacity:1" d="M 321.993,748.288 321.993,759.81 z" id="boundary" inkscape:connector-curvature="0" />
	<path style="fill:none;stroke:red;stroke-width:1px;stroke-linecap:butt;stroke-linejoin:miter;stroke-opacity:1" d="M 321.993,748.288 321.993,736.767 z" id="boundary" inkscape:connector-curvature="0" />
	<path style="fill:none;stroke:red;stroke-width:1px;stroke-linecap:butt;stroke-linejoin:miter;stroke-opacity:1" d="M 321.993,771.331 321.993,782.852 z" id="boundary" inkscape:connector-curvature="0" />
	<path style="fill:none;stroke:red;stroke-width:1px;stroke-linecap:butt;stroke-linejoin:miter;stroke-opacity:1" d="M 321.993,771.331 321.993,759.81 z" id="boundary" inkscape:connector-curvature="0" />
	<path style="fill:none;stroke:red;stroke-width:1px;stroke-linecap:butt;stroke-linejoin:miter;stroke-opacity:1" d="M 321.993,782.852 321.993,794.374 z" id="boundary" inkscape:connector-curvature="0" />
	<path style="fill:none;stroke:red;stroke-width:1px;stroke-linecap:butt;stroke-linejoin:miter;stroke-opacity:1" d="M 321.993,805.895 321.993,817.417 z" id="boundary" inkscape:connector-curvature="0" />
	<path style="fill:none;stroke:red;stroke-width:1px;stroke-linecap:butt;stroke-linejoin:miter;stroke-opacity:1" d="M 321.993,805.895 321.993,794.374 z" id="boundary" inkscape:connector-curvature="0" />
	<path style="fill:none;stroke:red;stroke-width:1px;stroke-linecap:butt;stroke-linejoin:miter;stroke-opacity:1" d="M 321.993,828.938 321.993,840.46 z" id="boundary" inkscape:connector-curvature="0" />
	<path style="fill:none;stroke:red;stroke-width:1px;stroke-linecap:butt;stroke-linejoin:miter;stroke-opacity:1" d="M 321.993,828.938 321.993,817.417 z" id="boundary" inkscape:connector-curvature="0" />
	<path style="fill:none;stroke:red;stroke-width:1px;stroke-linecap:butt;stroke-linejoin:miter;stroke-opacity:1" d="M 321.993,851.981 321.993,863.503 z" id="boundary" inkscape:connector-curvature="0" />
	<path style="fill:none;stroke:red;stroke-width:1px;stroke-linecap:butt;stroke-linejoin:miter;stroke-opacity:1" d="M 321.993,851.981 321.993,840.46 z" id="boundary" inkscape:connector-curvature="0" />
	<path style="fill:none;stroke:red;stroke-width:1px;stroke-linecap:butt;stroke-linejoin:miter;stroke-opacity:1" d="M 321.993,875.024 321.993,886.546 z" id="boundary" inkscape:connector-curvature="0" />
	<path style="fill:none;stroke:red;stroke-width:1px;stroke-linecap:butt;stroke-linejoin:miter;stroke-opacity:1" d="M 321.993,875.024 321.993,863.503 z" id="boundary" inkscape:connector-curvature="0" />
	<path style="fill:none;stroke:red;stroke-width:1px;stroke-linecap:butt;stroke-linejoin:miter;stroke-opacity:1" d="M 321.993,898.067 321.993,909.589 z" id="boundary" inkscape:connector-curvature="0" />
	<path style="fill:none;stroke:red;stroke-width:1px;stroke-linecap:butt;stroke-linejoin:miter;stroke-opacity:1" d="M 321.993,898.067 321.993,886.546 z" id="boundary" inkscape:connector-curvature="0" />
	<path style="fill:none;stroke:red;stroke-width:1px;stroke-linecap:butt;stroke-linejoin:miter;stroke-opacity:1" d="M 321.993,921.11 321.993,909.589 z" id="boundary" inkscape:connector-curvature="0" />
	<path style="fill:none;stroke:red;stroke-width:1px;stroke-linecap:butt;stroke-linejoin:miter;stroke-opacity:1" d="M 321.993,932.632 321.993,944.153 z" id="boundary" inkscape:connector-curvature="0" />
	<path style="fill:none;stroke:red;stroke-width:1px;stroke-linecap:butt;stroke-linejoin:miter;stroke-opacity:1" d="M 321.993,955.675 321.993,967.196 z" id="boundary" inkscape:connector-curvature="0" />
	<path style="fill:none;stroke:red;stroke-width:1px;stroke-linecap:butt;stroke-linejoin:miter;stroke-opacity:1" d="M 321.993,978.718 321.993,967.196 z" id="boundary" inkscape:connector-curvature="0" />
	<path style="fill:none;stroke:red;stroke-width:1px;stroke-linecap:butt;stroke-linejoin:miter;stroke-opacity:1" d="M 321.993,955.675 321.993,944.153 z" id="boundary" inkscape:connector-curvature="0" />
	<path style="fill:none;stroke:red;stroke-width:1px;stroke-linecap:butt;stroke-linejoin:miter;stroke-opacity:1" d="M 321.993,932.632 321.993,921.11 z" id="boundary" inkscape:connector-curvature="0" />
	<circle cx="4" cy="7.45645" r="4" fill="#0" id="circle0"/>
	<circle cx="4" cy="18.9779" r="4" fill="#0" id="circle1"/>
	<circle cx="4" cy="30.4994" r="4" fill="#0" id="circle2"/>
	<circle cx="4" cy="42.0209" r="4" fill="#0" id="circle3"/>
	<circle cx="4" cy="53.5424" r="4" fill="#0" id="circle4"/>
	<circle cx="4" cy="65.0639" r="4" fill="#0" id="circle5"/>
	<circle cx="4" cy="76.5854" r="4" fill="#0" id="circle6"/>
	<circle cx="4" cy="88.1069" r="4" fill="#0" id="circle7"/>
	<circle cx="4" cy="99.6283" r="4" fill="#0" id="circle8"/>
	<circle cx="4" cy="111.15" r="4" fill="#0" id="circle9"/>
	<circle cx="4" cy="122.671" r="4" fill="#0" id="circle10"/>
	<circle cx="4" cy="134.193" r="4" fill="#0" id="circle11"/>
	<circle cx="4" cy="145.714" r="4" fill="#0" id="circle12"/>
	<circle cx="4" cy="157.236" r="4" fill="#0" id="circle13"/>
	<circle cx="4" cy="168.757" r="4" fill="#0" id="circle14"/>
	<circle cx="4" cy="180.279" r="4" fill="#0" id="circle15"/>
	<circle cx="4" cy="191.8" r="4" fill="#0" id="circle16"/>
	<circle cx="4" cy="203.322" r="4" fill="#0" id="circle17"/>
	<circle cx="4" cy="214.843" r="4" fill="#0" id="circle18"/>
	<circle cx="4" cy="226.365" r="4" fill="#0" id="circle19"/>
	<circle cx="4" cy="237.886" r="4" fill="#0" id="circle20"/>
	<circle cx="4" cy="249.408" r="4" fill="#0" id="circle21"/>
	<circle cx="4" cy="260.929" r="4" fill="#0" id="circle22"/>
	<circle cx="4" cy="272.451" r="4" fill="#0" id="circle23"/>
	<circle cx="10.9129" cy="281.668" r="4" fill="#0" id="circle24"/>
	<circle cx="15.5215" cy="4" r="4" fill="#0" id="circle25"/>
	<circle cx="22.4344" cy="281.668" r="4" fill="#0" id="circle26"/>
	<circle cx="27.043" cy="4" r="4" fill="#0" id="circle27"/>
	<circle cx="33.9559" cy="281.668" r="4" fill="#0" id="circle28"/>
	<circle cx="38.5645" cy="4" r="4" fill="#0" id="circle29"/>
	<circle cx="45.4774" cy="281.668" r="4" fill="#0" id="circle30"/>
	<circle cx="50.0859" cy="4" r="4" fill="#0" id="circle31"/>
	<circle cx="56.9988" cy="281.668" r="4" fill="#0" id="circle32"/>
	<circle cx="61.6074" cy="4" r="4" fill="#0" id="circle33"/>
	<circle cx="68.5203" cy="281.668" r="4" fill="#0" id="circle34"/>
	<circle cx="73.1289" cy="4" r="4" fill="#0" id="circle35"/>
	<circle cx="80.0418" cy="281.668" r="4" fill="#0" id="circle36"/>
	<circle cx="84.6504" cy="4" r="4" fill="#0" id="circle37"/>
	<circle cx="91.5633" cy="281.668" r="4" fill="#0" id="circle38"/>
	<circle cx="96.1719" cy="4" r="4" fill="#0" id="circle39"/>
	<circle cx="103.085" cy="281.668" r="4" fill="#0" id="circle40"/>
	<circle cx="107.693" cy="4" r="4" fill="#0" id="circle41"/>
	<circle cx="114.606" cy="281.668" r="4" fill="#0" id="circle42"/>
	<circle cx="119.215" cy="4" r="4" fill="#0" id="circle43"/>
	<circle cx="126.128" cy="281.668" r="4" fill="#0" id="circle44"/>
	<circle cx="130.736" cy="4" r="4" fill="#0" id="circle45"/>
	<circle cx="137.649" cy="281.668" r="4" fill="#0" id="circle46"/>
	<circle cx="142.258" cy="4" r="4" fill="#0" id="circle47"/>
	<circle cx="149.171" cy="281.668" r="4" fill="#0" id="circle48"/>
	<circle cx="153.779" cy="6.3043" r="4" fill="#0" id="circle49"/>
	<circle cx="154.931" cy="17.8258" r="4" fill="#0" id="circle50"/>
	<circle cx="154.931" cy="258.625" r="4" fill="#0" id="circle51"/>
	<circle cx="154.931" cy="270.146" r="4" fill="#0" id="circle52"/>
	<circle cx="161.844" cy="27.043" r="4" fill="#0" id="circle53"/>
	<circle cx="166.453" cy="258.625" r="4" fill="#0" id="circle54"/>
	<circle cx="173.366" cy="27.043" r="4" fill="#0" id="circle55"/>
	<circle cx="177.974" cy="258.625" r="4" fill="#0" id="circle56"/>
	<circle cx="182.583" cy="270.146" r="4" fill="#0" id="circle57"/>
	<circle cx="182.583" cy="281.668" r="4" fill="#0" id="circle58"/>
	<circle cx="182.583" cy="293.189" r="4" fill="#0" id="circle59"/>
	<circle cx="182.583" cy="304.711" r="4" fill="#0" id="circle60"/>
	<circle cx="182.583" cy="316.232" r="4" fill="#0" id="circle61"/>
	<circle cx="182.583" cy="327.754" r="4" fill="#0" id="circle62"/>
	<circle cx="182.583" cy="339.275" r="4" fill="#0" id="circle63"/>
	<circle cx="182.583" cy="350.797" r="4" fill="#0" id="circle64"/>
	<circle cx="182.583" cy="362.318" r="4" fill="#0" id="circle65"/>
	<circle cx="182.583" cy="373.84" r="4" fill="#0" id="circle66"/>
	<circle cx="182.583" cy="385.361" r="4" fill="#0" id="circle67"/>
	<circle cx="182.583" cy="396.883" r="4" fill="#0" id="circle68"/>
	<circle cx="182.583" cy="408.404" r="4" fill="#0" id="circle69"/>
	<circle cx="182.583" cy="419.926" r="4" fill="#0" id="circle70"/>
	<circle cx="182.583" cy="431.447" r="4" fill="#0" id="circle71"/>
	<circle cx="182.583" cy="442.969" r="4" fill="#0" id="circle72"/>
	<circle cx="182.583" cy="454.49" r="4" fill="#0" id="circle73"/>
	<circle cx="182.583" cy="466.012" r="4" fill="#0" id="circle74"/>
	<circle cx="182.583" cy="477.533" r="4" fill="#0" id="circle75"/>
	<circle cx="182.583" cy="489.055" r="4" fill="#0" id="circle76"/>
	<circle cx="182.583" cy="500.576" r="4" fill="#0" id="circle77"/>
	<circle cx="182.583" cy="512.098" r="4" fill="#0" id="circle78"/>
	<circle cx="182.583" cy="523.619" r="4" fill="#0" id="circle79"/>
	<circle cx="182.583" cy="535.141" r="4" fill="#0" id="circle80"/>
	<circle cx="182.583" cy="546.662" r="4" fill="#0" id="circle81"/>
	<circle cx="182.583" cy="558.184" r="4" fill="#0" id="circle82"/>
	<circle cx="182.583" cy="569.705" r="4" fill="#0" id="circle83"/>
	<circle cx="182.583" cy="581.226" r="4" fill="#0" id="circle84"/>
	<circle cx="182.583" cy="592.748" r="4" fill="#0" id="circle85"/>
	<circle cx="182.583" cy="604.269" r="4" fill="#0" id="circle86"/>
	<circle cx="182.583" cy="615.791" r="4" fill="#0" id="circle87"/>
	<circle cx="182.583" cy="627.312" r="4" fill="#0" id="circle88"/>
	<circle cx="182.583" cy="638.834" r="4" fill="#0" id="circle89"/>
	<circle cx="182.583" cy="650.355" r="4" fill="#0" id="circle90"/>
	<circle cx="182.583" cy="661.877" r="4" fill="#0" id="circle91"/>
	<circle cx="182.583" cy="673.398" r="4" fill="#0" id="circle92"/>
	<circle cx="182.583" cy="684.92" r="4" fill="#0" id="circle93"/>
	<circle cx="182.583" cy="696.441" r="4" fill="#0" id="circle94"/>
	<circle cx="182.583" cy="707.963" r="4" fill="#0" id="circle95"/>
	<circle cx="182.583" cy="719.484" r="4" fill="#0" id="circle96"/>
	<circle cx="182.583" cy="731.006" r="4" fill="#0" id="circle97"/>
	<circle cx="182.583" cy="742.527" r="4" fill="#0" id="circle98"/>
	<circle cx="182.583" cy="754.049" r="4" fill="#0" id="circle99"/>
	<circle cx="182.583" cy="765.57" r="4" fill="#0" id="circle100"/>
	<circle cx="182.583" cy="777.092" r="4" fill="#0" id="circle101"/>
	<circle cx="182.583" cy="788.613" r="4" fill="#0" id="circle102"/>
	<circle cx="182.583" cy="800.135" r="4" fill="#0" id="circle103"/>
	<circle cx="182.583" cy="811.656" r="4" fill="#0" id="circle104"/>
	<circle cx="182.583" cy="823.178" r="4" fill="#0" id="circle105"/>
	<circle cx="182.583" cy="834.699" r="4" fill="#0" id="circle106"/>
	<circle cx="182.583" cy="846.221" r="4" fill="#0" id="circle107"/>
	<circle cx="182.583" cy="857.742" r="4" fill="#0" id="circle108"/>
	<circle cx="182.583" cy="869.264" r="4" fill="#0" id="circle109"/>
	<circle cx="182.583" cy="880.785" r="4" fill="#0" id="circle110"/>
	<circle cx="182.583" cy="892.307" r="4" fill="#0" id="circle111"/>
	<circle cx="182.583" cy="903.828" r="4" fill="#0" id="circle112"/>
	<circle cx="182.583" cy="915.35" r="4" fill="#0" id="circle113"/>
	<circle cx="182.583" cy="926.871" r="4" fill="#0" id="circle114"/>
	<circle cx="182.583" cy="938.393" r="4" fill="#0" id="circle115"/>
	<circle cx="182.583" cy="949.914" r="4" fill="#0" id="circle116"/>
	<circle cx="182.583" cy="961.436" r="4" fill="#0" id="circle117"/>
	<circle cx="182.583" cy="972.957" r="4" fill="#0" id="circle118"/>
	<circle cx="182.583" cy="984.479" r="4" fill="#0" id="circle119"/>
	<circle cx="184.887" cy="27.043" r="4" fill="#0" id="circle120"/>
	<circle cx="186.039" cy="996" r="4" fill="#0" id="circle121"/>
	<circle cx="196.409" cy="27.043" r="4" fill="#0" id="circle122"/>
	<circle cx="197.561" cy="996" r="4" fill="#0" id="circle123"/>
	<circle cx="207.93" cy="27.043" r="4" fill="#0" id="circle124"/>
	<circle cx="209.082" cy="996" r="4" fill="#0" id="circle125"/>
	<circle cx="219.452" cy="27.043" r="4" fill="#0" id="circle126"/>
	<circle cx="220.604" cy="996" r="4" fill="#0" id="circle127"/>
	<circle cx="230.973" cy="27.043" r="4" fill="#0" id="circle128"/>
	<circle cx="232.125" cy="996" r="4" fill="#0" id="circle129"/>
	<circle cx="242.495" cy="27.043" r="4" fill="#0" id="circle130"/>
	<circle cx="243.647" cy="996" r="4" fill="#0" id="circle131"/>
	<circle cx="254.016" cy="27.043" r="4" fill="#0" id="circle132"/>
	<circle cx="255.168" cy="996" r="4" fill="#0" id="circle133"/>
	<circle cx="265.538" cy="27.043" r="4" fill="#0" id="circle134"/>
	<circle cx="266.69" cy="996" r="4" fill="#0" id="circle135"/>
	<circle cx="277.059" cy="27.043" r="4" fill="#0" id="circle136"/>
	<circle cx="278.211" cy="996" r="4" fill="#0" id="circle137"/>
	<circle cx="288.581" cy="27.043" r="4" fill="#0" id="circle138"/>
	<circle cx="289.733" cy="996" r="4" fill="#0" id="circle139"/>
	<circle cx="300.102" cy="27.043" r="4" fill="#0" id="circle140"/>
	<circle cx="301.254" cy="996" r="4" fill="#0" id="circle141"/>
	<circle cx="311.624" cy="27.043" r="4" fill="#0" id="circle142"/>
	<circle cx="312.776" cy="996" r="4" fill="#0" id="circle143"/>
	<circle cx="321.993" cy="32.8037" r="4" fill="#0" id="circle144"/>
	<circle cx="321.993" cy="252.864" r="4" fill="#0" id="circle145"/>
	<circle cx="321.993" cy="264.386" r="4" fill="#0" id="circle146"/>
	<circle cx="321.993" cy="275.907" r="4" fill="#0" id="circle147"/>
	<circle cx="321.993" cy="287.429" r="4" fill="#0" id="circle148"/>
	<circle cx="321.993" cy="298.95" r="4" fill="#0" id="circle149"/>
	<circle cx="321.993" cy="310.472" r="4" fill="#0" id="circle150"/>
	<circle cx="321.993" cy="321.993" r="4" fill="#0" id="circle151"/>
	<circle cx="321.993" cy="333.515" r="4" fill="#0" id="circle152"/>
	<circle cx="321.993" cy="345.036" r="4" fill="#0" id="circle153"/>
	<circle cx="321.993" cy="356.557" r="4" fill="#0" id="circle154"/>
	<circle cx="321.993" cy="368.079" r="4" fill="#0" id="circle155"/>
	<circle cx="321.993" cy="379.6" r="4" fill="#0" id="circle156"/>
	<circle cx="321.993" cy="391.122" r="4" fill="#0" id="circle157"/>
	<circle cx="321.993" cy="402.643" r="4" fill="#0" id="circle158"/>
	<circle cx="321.993" cy="414.165" r="4" fill="#0" id="circle159"/>
	<circle cx="321.993" cy="425.686" r="4" fill="#0" id="circle160"/>
	<circle cx="321.993" cy="437.208" r="4" fill="#0" id="circle161"/>
	<circle cx="321.993" cy="448.729" r="4" fill="#0" id="circle162"/>
	<circle cx="321.993" cy="460.251" r="4" fill="#0" id="circle163"/>
	<circle cx="321.993" cy="471.772" r="4" fill="#0" id="circle164"/>
	<circle cx="321.993" cy="483.294" r="4" fill="#0" id="circle165"/>
	<circle cx="321.993" cy="494.815" r="4" fill="#0" id="circle166"/>
	<circle cx="321.993" cy="506.337" r="4" fill="#0" id="circle167"/>
	<circle cx="321.993" cy="517.858" r="4" fill="#0" id="circle168"/>
	<circle cx="321.993" cy="529.38" r="4" fill="#0" id="circle169"/>
	<circle cx="321.993" cy="540.901" r="4" fill="#0" id="circle170"/>
	<circle cx="321.993" cy="552.423" r="4" fill="#0" id="circle171"/>
	<circle cx="321.993" cy="563.944" r="4" fill="#0" id="circle172"/>
	<circle cx="321.993" cy="575.466" r="4" fill="#0" id="circle173"/>
	<circle cx="321.993" cy="586.987" r="4" fill="#0" id="circle174"/>
	<circle cx="321.993" cy="598.509" r="4" fill="#0" id="circle175"/>
	<circle cx="321.993" cy="610.03" r="4" fill="#0" id="circle176"/>
	<circle cx="321.993" cy="621.552" r="4" fill="#0" id="circle177"/>
	<circle cx="321.993" cy="633.073" r="4" fill="#0" id="circle178"/>
	<circle cx="321.993" cy="644.595" r="4" fill="#0" id="circle179"/>
	<circle cx="321.993" cy="656.116" r="4" fill="#0" id="circle180"/>
	<circle cx="321.993" cy="667.638" r="4" fill="#0" id="circle181"/>
	<circle cx="321.993" cy="679.159" r="4" fill="#0" id="circle182"/>
	<circle cx="321.993" cy="690.681" r="4" fill="#0" id="circle183"/>
	<circle cx="321.993" cy="702.202" r="4" fill="#0" id="circle184"/>
	<circle cx="321.993" cy="713.724" r="4" fill="#0" id="circle185"/>
	<circle cx="321.993" cy="725.245" r="4" fill="#0" id="circle186"/>
	<circle cx="321.993" cy="736.767" r="4" fill="#0" id="circle187"/>
	<circle cx="321.993" cy="748.288" r="4" fill="#0" id="circle188"/>
	<circle cx="321.993" cy="759.81" r="4" fill="#0" id="circle189"/>
	<circle cx="321.993" cy="771.331" r="4" fill="#0" id="circle190"/>
	<circle cx="321.993" cy="782.852" r="4" fill="#0" id="circle191"/>
	<circle cx="321.993" cy="794.374" r="4" fill="#0" id="circle192"/>
	<circle cx="321.993" cy="805.895" r="4" fill="#0" id="circle193"/>
	<circle cx="321.993" cy="817.417" r="4" fill="#0" id="circle194"/>
	<circle cx="321.993" cy="828.938" r="4" fill="#0" id="circle195"/>
	<circle cx="321.993" cy="840.46" r="4" fill="#0" id="circle196"/>
	<circle cx="321.993" cy="851.981" r="4" fill="#0" id="circle197"/>
	<circle cx="321.993" cy="863.503" r="4" fill="#0" id="circle198"/>
	<circle cx="321.993" cy="875.024" r="4" fill="#0" id="circle199"/>
	<circle cx="321.993" cy="886.546" r="4" fill="#0" id="circle200"/>
	<circle cx="321.993" cy="898.067" r="4" fill="#0" id="circle201"/>
	<circle cx="321.993" cy="909.589" r="4" fill="#0" id="circle202"/>
	<circle cx="321.993" cy="921.11" r="4" fill="#0" id="circle203"/>
	<circle cx="321.993" cy="932.632" r="4" fill="#0" id="circle204"/>
	<circle cx="321.993" cy="944.153" r="4" fill="#0" id="circle205"/>
	<circle cx="321.993" cy="955.675" r="4" fill="#0" id="circle206"/>
	<circle cx="321.993" cy="967.196" r="4" fill="#0" id="circle207"/>
	<circle cx="321.993" cy="978.718" r="4" fill="#0" id="circle208"/>
	<circle cx="333.515" cy="32.8037" r="4" fill="#0" id="circle209"/>
	<circle cx="333.515" cy="252.864" r="4" fill="#0" id="circle210"/>
	<circle cx="345.036" cy="36.2602" r="4" fill="#0" id="circle211"/>
	<circle cx="345.036" cy="252.864" r="4" fill="#0" id="circle212"/>
	<circle cx="355.405" cy="42.0209" r="4" fill="#0" id="circle213"/>
	<circle cx="356.557" cy="252.864" r="4" fill="#0" id="circle214"/>
	<circle cx="366.927" cy="46.6295" r="4" fill="#0" id="circle215"/>
	<circle cx="368.079" cy="252.864" r="4" fill="#0" id="circle216"/>
	<circle cx="378.448" cy="50.0859" r="4" fill="#0" id="circle217"/>
	<circle cx="379.6" cy="255.168" r="4" fill="#0" id="circle218"/>
	<circle cx="389.97" cy="52.3902" r="4" fill="#0" id="circle219"/>
	<circle cx="391.122" cy="258.625" r="4" fill="#0" id="circle220"/>
	<circle cx="396.883" cy="61.6074" r="4" fill="#0" id="circle221"/>
	<circle cx="402.643" cy="258.625" r="4" fill="#0" id="circle222"/>
	<circle cx="408.404" cy="65.0639" r="4" fill="#0" id="circle223"/>
	<circle cx="414.165" cy="258.625" r="4" fill="#0" id="circle224"/>
	<circle cx="417.621" cy="73.1289" r="4" fill="#0" id="circle225"/>
	<circle cx="425.686" cy="260.929" r="4" fill="#0" id="circle226"/>
	<circle cx="427.991" cy="78.8897" r="4" fill="#0" id="circle227"/>
	<circle cx="437.208" cy="264.386" r="4" fill="#0" id="circle228"/>
	<circle cx="438.36" cy="84.6504" r="4" fill="#0" id="circle229"/>
	<circle cx="447.577" cy="92.7154" r="4" fill="#0" id="circle230"/>
	<circle cx="448.729" cy="264.386" r="4" fill="#0" id="circle231"/>
	<circle cx="457.947" cy="98.4762" r="4" fill="#0" id="circle232"/>
	<circle cx="460.251" cy="266.69" r="4" fill="#0" id="circle233"/>
	<circle cx="469.468" cy="103.085" r="4" fill="#0" id="circle234"/>
	<circle cx="471.772" cy="270.146" r="4" fill="#0" id="circle235"/>
	<circle cx="477.533" cy="112.302" r="4" fill="#0" id="circle236"/>
	<circle cx="483.294" cy="272.451" r="4" fill="#0" id="circle237"/>
	<circle cx="489.055" cy="116.911" r="4" fill="#0" id="circle238"/>
	<circle cx="494.815" cy="275.907" r="4" fill="#0" id="circle239"/>
	<circle cx="497.12" cy="126.128" r="4" fill="#0" id="circle240"/>
	<circle cx="506.337" cy="134.193" r="4" fill="#0" id="circle241"/>
	<circle cx="506.337" cy="275.907" r="4" fill="#0" id="circle242"/>
	<circle cx="514.402" cy="143.41" r="4" fill="#0" id="circle243"/>
	<circle cx="517.858" cy="278.211" r="4" fill="#0" id="circle244"/>
	<circle cx="520.163" cy="153.779" r="4" fill="#0" id="circle245"/>
	<circle cx="528.228" cy="162.997" r="4" fill="#0" id="circle246"/>
	<circle cx="529.38" cy="281.668" r="4" fill="#0" id="circle247"/>
	<circle cx="535.141" cy="172.214" r="4" fill="#0" id="circle248"/>
	<circle cx="537.445" cy="183.735" r="4" fill="#0" id="circle249"/>
	<circle cx="539.749" cy="287.429" r="4" fill="#0" id="circle250"/>
	<circle cx="543.206" cy="194.105" r="4" fill="#0" id="circle251"/>
	<circle cx="551.271" cy="203.322" r="4" fill="#0" id="circle252"/>
	<circle cx="551.271" cy="287.429" r="4" fill="#0" id="circle253"/>
	<circle cx="557.031" cy="213.691" r="4" fill="#0" id="circle254"/>
	<circle cx="561.64" cy="293.189" r="4" fill="#0" id="circle255"/>
	<circle cx="563.944" cy="222.908" r="4" fill="#0" id="circle256"/>
	<circle cx="563.944" cy="234.43" r="4" fill="#0" id="circle257"/>
	<circle cx="569.705" cy="244.799" r="4" fill="#0" id="circle258"/>
	<circle cx="572.009" cy="298.95" r="4" fill="#0" id="circle259"/>
	<circle cx="575.466" cy="255.168" r="4" fill="#0" id="circle260"/>
	<circle cx="580.074" cy="266.69" r="4" fill="#0" id="circle261"/>
	<circle cx="581.226" cy="278.211" r="4" fill="#0" id="circle262"/>
	<circle cx="583.531" cy="303.559" r="4" fill="#0" id="circle263"/>
	<circle cx="586.987" cy="288.581" r="4" fill="#0" id="circle264"/>
	</g>
</svg>