<?xml version="1.0" encoding="UTF-8" standalone="no"?>
<!-- Created with CurveBenchmark -->
<svg
	xmlns:dc="http://purl.org/dc/elements/1.1/"
	xmlns:cc="http://creativecommons.org/ns#"
	xmlns:rdf="http://www.w3.org/1999/02/22-rdf-syntax-ns#"
	xmlns:svg="http://www.w3.org/2000/svg"
	xmlns="http://www.w3.org/2000/svg"
	xmlns:sodipodi="http://sodipodi.sourceforge.net/DTD/sodipodi-0.dtd"
	xmlns:inkscape="http://www.inkscape.org/namespaces/inkscape"
	width="1000"
	height="1000"
	id="svg2"
	version="1.1"
	sodipodi:docname="manifold/gathang-bird100.png.txt">
<defs
	id="defs4" />
<metadata
	id="metadata7">
	<rdf:RDF>
		<cc:Work
			rdf:about="">
			<dc:format>image/svg+xml</dc:format>
			<dc:type
				rdf:resource="http://purl.org/dc/dcmitype/StillImage" />
			<dc:title></dc:title>
		</cc:Work>
	</rdf:RDF>
</metadata>
<g
	inkscape:label="Layer 1"
	inkscape:groupmode="layer"
	id="layer1">
	<path style="fill:none;stroke:red;stroke-width:1px;stroke-linecap:butt;stroke-linejoin:miter;stroke-opacity:1" d="M 4,151.827 4,112.925 z" id="boundary" inkscape:connector-curvature="0" />
	<path style="fill:none;stroke:red;stroke-width:1px;stroke-linecap:butt;stroke-linejoin:miter;stroke-opacity:1" d="M 11.7804,229.631 4,190.729 z" id="boundary" inkscape:connector-curvature="0" />
	<path style="fill:none;stroke:red;stroke-width:1px;stroke-linecap:butt;stroke-linejoin:miter;stroke-opacity:1" d="M 4,112.925 11.7804,74.0235 z" id="boundary" inkscape:connector-curvature="0" />
	<path style="fill:none;stroke:red;stroke-width:1px;stroke-linecap:butt;stroke-linejoin:miter;stroke-opacity:1" d="M 11.7804,74.0235 35.1216,42.902 z" id="boundary" inkscape:connector-curvature="0" />
	<path style="fill:none;stroke:red;stroke-width:1px;stroke-linecap:butt;stroke-linejoin:miter;stroke-opacity:1" d="M 4,190.729 4,151.827 z" id="boundary" inkscape:connector-curvature="0" />
	<path style="fill:none;stroke:red;stroke-width:1px;stroke-linecap:butt;stroke-linejoin:miter;stroke-opacity:1" d="M 11.7804,229.631 19.5608,268.533 z" id="boundary" inkscape:connector-curvature="0" />
	<path style="fill:none;stroke:red;stroke-width:1px;stroke-linecap:butt;stroke-linejoin:miter;stroke-opacity:1" d="M 42.902,299.655 19.5608,268.533 z" id="boundary" inkscape:connector-curvature="0" />
	<path style="fill:none;stroke:red;stroke-width:1px;stroke-linecap:butt;stroke-linejoin:miter;stroke-opacity:1" d="M 50.6824,338.557 50.6824,377.459 z" id="boundary" inkscape:connector-curvature="0" />
	<path style="fill:none;stroke:red;stroke-width:1px;stroke-linecap:butt;stroke-linejoin:miter;stroke-opacity:1" d="M 50.6824,338.557 42.902,299.655 z" id="boundary" inkscape:connector-curvature="0" />
	<path style="fill:none;stroke:red;stroke-width:1px;stroke-linecap:butt;stroke-linejoin:miter;stroke-opacity:1" d="M 35.1216,42.902 70.1333,23.451 z" id="boundary" inkscape:connector-curvature="0" />
	<path style="fill:none;stroke:red;stroke-width:1px;stroke-linecap:butt;stroke-linejoin:miter;stroke-opacity:1" d="M 58.4627,416.361 50.6824,377.459 z" id="boundary" inkscape:connector-curvature="0" />
	<path style="fill:none;stroke:red;stroke-width:1px;stroke-linecap:butt;stroke-linejoin:miter;stroke-opacity:1" d="M 70.1333,23.451 109.035,11.7804 z" id="boundary" inkscape:connector-curvature="0" />
	<path style="fill:none;stroke:red;stroke-width:1px;stroke-linecap:butt;stroke-linejoin:miter;stroke-opacity:1" d="M 124.596,408.58 124.596,447.482 z" id="boundary" inkscape:connector-curvature="0" />
	<path style="fill:none;stroke:red;stroke-width:1px;stroke-linecap:butt;stroke-linejoin:miter;stroke-opacity:1" d="M 124.596,408.58 163.498,431.922 z" id="boundary" inkscape:connector-curvature="0" />
	<path style="fill:none;stroke:red;stroke-width:1px;stroke-linecap:butt;stroke-linejoin:miter;stroke-opacity:1" d="M 62.3529,455.263 58.4627,416.361 z" id="boundary" inkscape:connector-curvature="0" />
	<path style="fill:none;stroke:red;stroke-width:1px;stroke-linecap:butt;stroke-linejoin:miter;stroke-opacity:1" d="M 74.0235,533.067 66.2431,494.165 z" id="boundary" inkscape:connector-curvature="0" />
	<path style="fill:none;stroke:red;stroke-width:1px;stroke-linecap:butt;stroke-linejoin:miter;stroke-opacity:1" d="M 66.2431,494.165 62.3529,455.263 z" id="boundary" inkscape:connector-curvature="0" />
	<path style="fill:none;stroke:red;stroke-width:1px;stroke-linecap:butt;stroke-linejoin:miter;stroke-opacity:1" d="M 124.596,486.384 124.596,525.286 z" id="boundary" inkscape:connector-curvature="0" />
	<path style="fill:none;stroke:red;stroke-width:1px;stroke-linecap:butt;stroke-linejoin:miter;stroke-opacity:1" d="M 124.596,564.188 124.596,525.286 z" id="boundary" inkscape:connector-curvature="0" />
	<path style="fill:none;stroke:red;stroke-width:1px;stroke-linecap:butt;stroke-linejoin:miter;stroke-opacity:1" d="M 124.596,447.482 124.596,486.384 z" id="boundary" inkscape:connector-curvature="0" />
	<path style="fill:none;stroke:red;stroke-width:1px;stroke-linecap:butt;stroke-linejoin:miter;stroke-opacity:1" d="M 74.0235,571.969 74.0235,533.067 z" id="boundary" inkscape:connector-curvature="0" />
	<path style="fill:none;stroke:red;stroke-width:1px;stroke-linecap:butt;stroke-linejoin:miter;stroke-opacity:1" d="M 74.0235,571.969 81.8039,610.871 z" id="boundary" inkscape:connector-curvature="0" />
	<path style="fill:none;stroke:red;stroke-width:1px;stroke-linecap:butt;stroke-linejoin:miter;stroke-opacity:1" d="M 81.8039,610.871 81.8039,649.773 z" id="boundary" inkscape:connector-curvature="0" />
	<path style="fill:none;stroke:red;stroke-width:1px;stroke-linecap:butt;stroke-linejoin:miter;stroke-opacity:1" d="M 81.8039,649.773 81.8039,688.675 z" id="boundary" inkscape:connector-curvature="0" />
	<path style="fill:none;stroke:red;stroke-width:1px;stroke-linecap:butt;stroke-linejoin:miter;stroke-opacity:1" d="M 132.376,641.992 124.596,712.016 z" id="boundary" inkscape:connector-curvature="0" />
	<path style="fill:none;stroke:red;stroke-width:1px;stroke-linecap:butt;stroke-linejoin:miter;stroke-opacity:1" d="M 81.8039,727.576 81.8039,688.675 z" id="boundary" inkscape:connector-curvature="0" />
	<path style="fill:none;stroke:red;stroke-width:1px;stroke-linecap:butt;stroke-linejoin:miter;stroke-opacity:1" d="M 58.4627,992.11 27.3412,968.769 z" id="boundary" inkscape:connector-curvature="0" />
	<path style="fill:none;stroke:red;stroke-width:1px;stroke-linecap:butt;stroke-linejoin:miter;stroke-opacity:1" d="M 74.0235,890.965 62.3529,949.318 z" id="boundary" inkscape:connector-curvature="0" />
	<path style="fill:none;stroke:red;stroke-width:1px;stroke-linecap:butt;stroke-linejoin:miter;stroke-opacity:1" d="M 81.8039,844.282 74.0235,890.965 z" id="boundary" inkscape:connector-curvature="0" />
	<path style="fill:none;stroke:red;stroke-width:1px;stroke-linecap:butt;stroke-linejoin:miter;stroke-opacity:1" d="M 81.8039,766.478 81.8039,805.38 z" id="boundary" inkscape:connector-curvature="0" />
	<path style="fill:none;stroke:red;stroke-width:1px;stroke-linecap:butt;stroke-linejoin:miter;stroke-opacity:1" d="M 97.3647,996 58.4627,992.11 z" id="boundary" inkscape:connector-curvature="0" />
	<path style="fill:none;stroke:red;stroke-width:1px;stroke-linecap:butt;stroke-linejoin:miter;stroke-opacity:1" d="M 81.8039,727.576 81.8039,766.478 z" id="boundary" inkscape:connector-curvature="0" />
	<path style="fill:none;stroke:red;stroke-width:1px;stroke-linecap:butt;stroke-linejoin:miter;stroke-opacity:1" d="M 124.596,712.016 124.596,750.918 z" id="boundary" inkscape:connector-curvature="0" />
	<path style="fill:none;stroke:red;stroke-width:1px;stroke-linecap:butt;stroke-linejoin:miter;stroke-opacity:1" d="M 124.596,750.918 124.596,789.82 z" id="boundary" inkscape:connector-curvature="0" />
	<path style="fill:none;stroke:red;stroke-width:1px;stroke-linecap:butt;stroke-linejoin:miter;stroke-opacity:1" d="M 124.596,603.09 132.376,641.992 z" id="boundary" inkscape:connector-curvature="0" />
	<path style="fill:none;stroke:red;stroke-width:1px;stroke-linecap:butt;stroke-linejoin:miter;stroke-opacity:1" d="M 124.596,789.82 124.596,828.722 z" id="boundary" inkscape:connector-curvature="0" />
	<path style="fill:none;stroke:red;stroke-width:1px;stroke-linecap:butt;stroke-linejoin:miter;stroke-opacity:1" d="M 116.816,906.525 120.706,945.427 z" id="boundary" inkscape:connector-curvature="0" />
	<path style="fill:none;stroke:red;stroke-width:1px;stroke-linecap:butt;stroke-linejoin:miter;stroke-opacity:1" d="M 124.596,867.624 116.816,906.525 z" id="boundary" inkscape:connector-curvature="0" />
	<path style="fill:none;stroke:red;stroke-width:1px;stroke-linecap:butt;stroke-linejoin:miter;stroke-opacity:1" d="M 124.596,828.722 124.596,867.624 z" id="boundary" inkscape:connector-curvature="0" />
	<path style="fill:none;stroke:red;stroke-width:1px;stroke-linecap:butt;stroke-linejoin:miter;stroke-opacity:1" d="M 81.8039,844.282 81.8039,805.38 z" id="boundary" inkscape:connector-curvature="0" />
	<path style="fill:none;stroke:red;stroke-width:1px;stroke-linecap:butt;stroke-linejoin:miter;stroke-opacity:1" d="M 124.596,564.188 124.596,603.09 z" id="boundary" inkscape:connector-curvature="0" />
	<path style="fill:none;stroke:red;stroke-width:1px;stroke-linecap:butt;stroke-linejoin:miter;stroke-opacity:1" d="M 163.498,431.922 175.169,470.824 z" id="boundary" inkscape:connector-curvature="0" />
	<path style="fill:none;stroke:red;stroke-width:1px;stroke-linecap:butt;stroke-linejoin:miter;stroke-opacity:1" d="M 287.984,163.498 295.765,202.4 z" id="boundary" inkscape:connector-curvature="0" />
	<path style="fill:none;stroke:red;stroke-width:1px;stroke-linecap:butt;stroke-linejoin:miter;stroke-opacity:1" d="M 241.302,439.702 233.522,494.165 z" id="boundary" inkscape:connector-curvature="0" />
	<path style="fill:none;stroke:red;stroke-width:1px;stroke-linecap:butt;stroke-linejoin:miter;stroke-opacity:1" d="M 175.169,470.824 182.949,509.725 z" id="boundary" inkscape:connector-curvature="0" />
	<path style="fill:none;stroke:red;stroke-width:1px;stroke-linecap:butt;stroke-linejoin:miter;stroke-opacity:1" d="M 182.949,509.725 182.949,548.627 z" id="boundary" inkscape:connector-curvature="0" />
	<path style="fill:none;stroke:red;stroke-width:1px;stroke-linecap:butt;stroke-linejoin:miter;stroke-opacity:1" d="M 182.949,587.529 182.949,548.627 z" id="boundary" inkscape:connector-curvature="0" />
	<path style="fill:none;stroke:red;stroke-width:1px;stroke-linecap:butt;stroke-linejoin:miter;stroke-opacity:1" d="M 233.522,494.165 233.522,533.067 z" id="boundary" inkscape:connector-curvature="0" />
	<path style="fill:none;stroke:red;stroke-width:1px;stroke-linecap:butt;stroke-linejoin:miter;stroke-opacity:1" d="M 233.522,533.067 225.741,603.09 z" id="boundary" inkscape:connector-curvature="0" />
	<path style="fill:none;stroke:red;stroke-width:1px;stroke-linecap:butt;stroke-linejoin:miter;stroke-opacity:1" d="M 186.839,11.7804 225.741,27.3412 z" id="boundary" inkscape:connector-curvature="0" />
	<path style="fill:none;stroke:red;stroke-width:1px;stroke-linecap:butt;stroke-linejoin:miter;stroke-opacity:1" d="M 182.949,587.529 182.949,626.431 z" id="boundary" inkscape:connector-curvature="0" />
	<path style="fill:none;stroke:red;stroke-width:1px;stroke-linecap:butt;stroke-linejoin:miter;stroke-opacity:1" d="M 276.314,85.6941 280.204,124.596 z" id="boundary" inkscape:connector-curvature="0" />
	<path style="fill:none;stroke:red;stroke-width:1px;stroke-linecap:butt;stroke-linejoin:miter;stroke-opacity:1" d="M 280.204,124.596 287.984,163.498 z" id="boundary" inkscape:connector-curvature="0" />
	<path style="fill:none;stroke:red;stroke-width:1px;stroke-linecap:butt;stroke-linejoin:miter;stroke-opacity:1" d="M 295.765,241.302 295.765,280.204 z" id="boundary" inkscape:connector-curvature="0" />
	<path style="fill:none;stroke:red;stroke-width:1px;stroke-linecap:butt;stroke-linejoin:miter;stroke-opacity:1" d="M 295.765,202.4 295.765,241.302 z" id="boundary" inkscape:connector-curvature="0" />
	<path style="fill:none;stroke:red;stroke-width:1px;stroke-linecap:butt;stroke-linejoin:miter;stroke-opacity:1" d="M 264.643,393.02 284.094,358.008 z" id="boundary" inkscape:connector-curvature="0" />
	<path style="fill:none;stroke:red;stroke-width:1px;stroke-linecap:butt;stroke-linejoin:miter;stroke-opacity:1" d="M 264.643,393.02 241.302,439.702 z" id="boundary" inkscape:connector-curvature="0" />
	<path style="fill:none;stroke:red;stroke-width:1px;stroke-linecap:butt;stroke-linejoin:miter;stroke-opacity:1" d="M 295.765,319.106 284.094,358.008 z" id="boundary" inkscape:connector-curvature="0" />
	<path style="fill:none;stroke:red;stroke-width:1px;stroke-linecap:butt;stroke-linejoin:miter;stroke-opacity:1" d="M 295.765,280.204 295.765,319.106 z" id="boundary" inkscape:connector-curvature="0" />
	<path style="fill:none;stroke:red;stroke-width:1px;stroke-linecap:butt;stroke-linejoin:miter;stroke-opacity:1" d="M 225.741,27.3412 256.863,50.6824 z" id="boundary" inkscape:connector-curvature="0" />
	<path style="fill:none;stroke:red;stroke-width:1px;stroke-linecap:butt;stroke-linejoin:miter;stroke-opacity:1" d="M 256.863,50.6824 276.314,85.6941 z" id="boundary" inkscape:connector-curvature="0" />
	<path style="fill:none;stroke:red;stroke-width:1px;stroke-linecap:butt;stroke-linejoin:miter;stroke-opacity:1" d="M 182.949,626.431 182.949,665.333 z" id="boundary" inkscape:connector-curvature="0" />
	<path style="fill:none;stroke:red;stroke-width:1px;stroke-linecap:butt;stroke-linejoin:miter;stroke-opacity:1" d="M 182.949,665.333 182.949,704.235 z" id="boundary" inkscape:connector-curvature="0" />
	<path style="fill:none;stroke:red;stroke-width:1px;stroke-linecap:butt;stroke-linejoin:miter;stroke-opacity:1" d="M 182.949,743.137 182.949,704.235 z" id="boundary" inkscape:connector-curvature="0" />
	<path style="fill:none;stroke:red;stroke-width:1px;stroke-linecap:butt;stroke-linejoin:miter;stroke-opacity:1" d="M 182.949,743.137 182.949,782.039 z" id="boundary" inkscape:connector-curvature="0" />
	<path style="fill:none;stroke:red;stroke-width:1px;stroke-linecap:butt;stroke-linejoin:miter;stroke-opacity:1" d="M 159.608,960.988 175.169,906.525 z" id="boundary" inkscape:connector-curvature="0" />
	<path style="fill:none;stroke:red;stroke-width:1px;stroke-linecap:butt;stroke-linejoin:miter;stroke-opacity:1" d="M 182.949,820.941 182.949,859.843 z" id="boundary" inkscape:connector-curvature="0" />
	<path style="fill:none;stroke:red;stroke-width:1px;stroke-linecap:butt;stroke-linejoin:miter;stroke-opacity:1" d="M 182.949,820.941 182.949,782.039 z" id="boundary" inkscape:connector-curvature="0" />
	<path style="fill:none;stroke:red;stroke-width:1px;stroke-linecap:butt;stroke-linejoin:miter;stroke-opacity:1" d="M 182.949,859.843 175.169,906.525 z" id="boundary" inkscape:connector-curvature="0" />
	<path style="fill:none;stroke:red;stroke-width:1px;stroke-linecap:butt;stroke-linejoin:miter;stroke-opacity:1" d="M 225.741,641.992 225.741,680.894 z" id="boundary" inkscape:connector-curvature="0" />
	<path style="fill:none;stroke:red;stroke-width:1px;stroke-linecap:butt;stroke-linejoin:miter;stroke-opacity:1" d="M 225.741,641.992 225.741,603.09 z" id="boundary" inkscape:connector-curvature="0" />
	<path style="fill:none;stroke:red;stroke-width:1px;stroke-linecap:butt;stroke-linejoin:miter;stroke-opacity:1" d="M 225.741,719.796 225.741,758.698 z" id="boundary" inkscape:connector-curvature="0" />
	<path style="fill:none;stroke:red;stroke-width:1px;stroke-linecap:butt;stroke-linejoin:miter;stroke-opacity:1" d="M 225.741,719.796 225.741,680.894 z" id="boundary" inkscape:connector-curvature="0" />
	<path style="fill:none;stroke:red;stroke-width:1px;stroke-linecap:butt;stroke-linejoin:miter;stroke-opacity:1" d="M 225.741,758.698 225.741,797.6 z" id="boundary" inkscape:connector-curvature="0" />
	<path style="fill:none;stroke:red;stroke-width:1px;stroke-linecap:butt;stroke-linejoin:miter;stroke-opacity:1" d="M 182.949,992.11 159.608,960.988 z" id="boundary" inkscape:connector-curvature="0" />
	<path style="fill:none;stroke:red;stroke-width:1px;stroke-linecap:butt;stroke-linejoin:miter;stroke-opacity:1" d="M 221.851,988.22 182.949,992.11 z" id="boundary" inkscape:connector-curvature="0" />
	<path style="fill:none;stroke:red;stroke-width:1px;stroke-linecap:butt;stroke-linejoin:miter;stroke-opacity:1" d="M 225.741,797.6 225.741,836.502 z" id="boundary" inkscape:connector-curvature="0" />
	<path style="fill:none;stroke:red;stroke-width:1px;stroke-linecap:butt;stroke-linejoin:miter;stroke-opacity:1" d="M 225.741,836.502 225.741,875.404 z" id="boundary" inkscape:connector-curvature="0" />
	<path style="fill:none;stroke:red;stroke-width:1px;stroke-linecap:butt;stroke-linejoin:miter;stroke-opacity:1" d="M 225.741,875.404 225.741,914.306 z" id="boundary" inkscape:connector-curvature="0" />
	<path style="fill:none;stroke:red;stroke-width:1px;stroke-linecap:butt;stroke-linejoin:miter;stroke-opacity:1" d="M 225.741,914.306 221.851,988.22 z" id="boundary" inkscape:connector-curvature="0" />
	<path style="fill:none;stroke:red;stroke-width:1px;stroke-linecap:butt;stroke-linejoin:miter;stroke-opacity:1" d="M 109.035,11.7804 147.937,4 z" id="boundary" inkscape:connector-curvature="0" />
	<path style="fill:none;stroke:red;stroke-width:1px;stroke-linecap:butt;stroke-linejoin:miter;stroke-opacity:1" d="M 147.937,4 186.839,11.7804 z" id="boundary" inkscape:connector-curvature="0" />
	<circle cx="4" cy="112.925" r="4" fill="#0" id="circle0"/>
	<circle cx="4" cy="151.827" r="4" fill="#0" id="circle1"/>
	<circle cx="4" cy="190.729" r="4" fill="#0" id="circle2"/>
	<circle cx="11.7804" cy="74.0235" r="4" fill="#0" id="circle3"/>
	<circle cx="11.7804" cy="229.631" r="4" fill="#0" id="circle4"/>
	<circle cx="19.5608" cy="268.533" r="4" fill="#0" id="circle5"/>
	<circle cx="27.3412" cy="968.769" r="4" fill="#0" id="circle6"/>
	<circle cx="35.1216" cy="42.902" r="4" fill="#0" id="circle7"/>
	<circle cx="42.902" cy="299.655" r="4" fill="#0" id="circle8"/>
	<circle cx="50.6824" cy="338.557" r="4" fill="#0" id="circle9"/>
	<circle cx="50.6824" cy="377.459" r="4" fill="#0" id="circle10"/>
	<circle cx="58.4627" cy="416.361" r="4" fill="#0" id="circle11"/>
	<circle cx="58.4627" cy="992.11" r="4" fill="#0" id="circle12"/>
	<circle cx="62.3529" cy="455.263" r="4" fill="#0" id="circle13"/>
	<circle cx="62.3529" cy="949.318" r="4" fill="#0" id="circle14"/>
	<circle cx="66.2431" cy="494.165" r="4" fill="#0" id="circle15"/>
	<circle cx="70.1333" cy="23.451" r="4" fill="#0" id="circle16"/>
	<circle cx="74.0235" cy="533.067" r="4" fill="#0" id="circle17"/>
	<circle cx="74.0235" cy="571.969" r="4" fill="#0" id="circle18"/>
	<circle cx="74.0235" cy="890.965" r="4" fill="#0" id="circle19"/>
	<circle cx="81.8039" cy="610.871" r="4" fill="#0" id="circle20"/>
	<circle cx="81.8039" cy="649.773" r="4" fill="#0" id="circle21"/>
	<circle cx="81.8039" cy="688.675" r="4" fill="#0" id="circle22"/>
	<circle cx="81.8039" cy="727.576" r="4" fill="#0" id="circle23"/>
	<circle cx="81.8039" cy="766.478" r="4" fill="#0" id="circle24"/>
	<circle cx="81.8039" cy="805.38" r="4" fill="#0" id="circle25"/>
	<circle cx="81.8039" cy="844.282" r="4" fill="#0" id="circle26"/>
	<circle cx="97.3647" cy="996" r="4" fill="#0" id="circle27"/>
	<circle cx="109.035" cy="11.7804" r="4" fill="#0" id="circle28"/>
	<circle cx="116.816" cy="906.525" r="4" fill="#0" id="circle29"/>
	<circle cx="120.706" cy="945.427" r="4" fill="#0" id="circle30"/>
	<circle cx="124.596" cy="408.58" r="4" fill="#0" id="circle31"/>
	<circle cx="124.596" cy="447.482" r="4" fill="#0" id="circle32"/>
	<circle cx="124.596" cy="486.384" r="4" fill="#0" id="circle33"/>
	<circle cx="124.596" cy="525.286" r="4" fill="#0" id="circle34"/>
	<circle cx="124.596" cy="564.188" r="4" fill="#0" id="circle35"/>
	<circle cx="124.596" cy="603.09" r="4" fill="#0" id="circle36"/>
	<circle cx="124.596" cy="712.016" r="4" fill="#0" id="circle37"/>
	<circle cx="124.596" cy="750.918" r="4" fill="#0" id="circle38"/>
	<circle cx="124.596" cy="789.82" r="4" fill="#0" id="circle39"/>
	<circle cx="124.596" cy="828.722" r="4" fill="#0" id="circle40"/>
	<circle cx="124.596" cy="867.624" r="4" fill="#0" id="circle41"/>
	<circle cx="132.376" cy="641.992" r="4" fill="#0" id="circle42"/>
	<circle cx="147.937" cy="4" r="4" fill="#0" id="circle43"/>
	<circle cx="159.608" cy="960.988" r="4" fill="#0" id="circle44"/>
	<circle cx="163.498" cy="431.922" r="4" fill="#0" id="circle45"/>
	<circle cx="175.169" cy="470.824" r="4" fill="#0" id="circle46"/>
	<circle cx="175.169" cy="906.525" r="4" fill="#0" id="circle47"/>
	<circle cx="182.949" cy="509.725" r="4" fill="#0" id="circle48"/>
	<circle cx="182.949" cy="548.627" r="4" fill="#0" id="circle49"/>
	<circle cx="182.949" cy="587.529" r="4" fill="#0" id="circle50"/>
	<circle cx="182.949" cy="626.431" r="4" fill="#0" id="circle51"/>
	<circle cx="182.949" cy="665.333" r="4" fill="#0" id="circle52"/>
	<circle cx="182.949" cy="704.235" r="4" fill="#0" id="circle53"/>
	<circle cx="182.949" cy="743.137" r="4" fill="#0" id="circle54"/>
	<circle cx="182.949" cy="782.039" r="4" fill="#0" id="circle55"/>
	<circle cx="182.949" cy="820.941" r="4" fill="#0" id="circle56"/>
	<circle cx="182.949" cy="859.843" r="4" fill="#0" id="circle57"/>
	<circle cx="182.949" cy="992.11" r="4" fill="#0" id="circle58"/>
	<circle cx="186.839" cy="11.7804" r="4" fill="#0" id="circle59"/>
	<circle cx="221.851" cy="988.22" r="4" fill="#0" id="circle60"/>
	<circle cx="225.741" cy="27.3412" r="4" fill="#0" id="circle61"/>
	<circle cx="225.741" cy="603.09" r="4" fill="#0" id="circle62"/>
	<circle cx="225.741" cy="641.992" r="4" fill="#0" id="circle63"/>
	<circle cx="225.741" cy="680.894" r="4" fill="#0" id="circle64"/>
	<circle cx="225.741" cy="719.796" r="4" fill="#0" id="circle65"/>
	<circle cx="225.741" cy="758.698" r="4" fill="#0" id="circle66"/>
	<circle cx="225.741" cy="797.6" r="4" fill="#0" id="circle67"/>
	<circle cx="225.741" cy="836.502" r="4" fill="#0" id="circle68"/>
	<circle cx="225.741" cy="875.404" r="4" fill="#0" id="circle69"/>
	<circle cx="225.741" cy="914.306" r="4" fill="#0" id="circle70"/>
	<circle cx="233.522" cy="494.165" r="4" fill="#0" id="circle71"/>
	<circle cx="233.522" cy="533.067" r="4" fill="#0" id="circle72"/>
	<circle cx="241.302" cy="439.702" r="4" fill="#0" id="circle73"/>
	<circle cx="256.863" cy="50.6824" r="4" fill="#0" id="circle74"/>
	<circle cx="264.643" cy="393.02" r="4" fill="#0" id="circle75"/>
	<circle cx="276.314" cy="85.6941" r="4" fill="#0" id="circle76"/>
	<circle cx="280.204" cy="124.596" r="4" fill="#0" id="circle77"/>
	<circle cx="284.094" cy="358.008" r="4" fill="#0" id="circle78"/>
	<circle cx="287.984" cy="163.498" r="4" fill="#0" id="circle79"/>
	<circle cx="295.765" cy="202.4" r="4" fill="#0" id="circle80"/>
	<circle cx="295.765" cy="241.302" r="4" fill="#0" id="circle81"/>
	<circle cx="295.765" cy="280.204" r="4" fill="#0" id="circle82"/>
	<circle cx="295.765" cy="319.106" r="4" fill="#0" id="circle83"/>
	</g>
</svg>