<?xml version="1.0" encoding="UTF-8" standalone="no"?>
<!-- Created with CurveBenchmark -->
<svg
	xmlns:dc="http://purl.org/dc/elements/1.1/"
	xmlns:cc="http://creativecommons.org/ns#"
	xmlns:rdf="http://www.w3.org/1999/02/22-rdf-syntax-ns#"
	xmlns:svg="http://www.w3.org/2000/svg"
	xmlns="http://www.w3.org/2000/svg"
	xmlns:sodipodi="http://sodipodi.sourceforge.net/DTD/sodipodi-0.dtd"
	xmlns:inkscape="http://www.inkscape.org/namespaces/inkscape"
	width="1000"
	height="1000"
	id="svg2"
	version="1.1"
	sodipodi:docname="manifold/gathang-cat21.png.txt">
<defs
	id="defs4" />
<metadata
	id="metadata7">
	<rdf:RDF>
		<cc:Work
			rdf:about="">
			<dc:format>image/svg+xml</dc:format>
			<dc:type
				rdf:resource="http://purl.org/dc/dcmitype/StillImage" />
			<dc:title></dc:title>
		</cc:Work>
	</rdf:RDF>
</metadata>
<g
	inkscape:label="Layer 1"
	inkscape:groupmode="layer"
	id="layer1">
	<path style="fill:none;stroke:red;stroke-width:1px;stroke-linecap:butt;stroke-linejoin:miter;stroke-opacity:1" d="M 66.7221,45.2646 58.4692,61.7704 z" id="boundary" inkscape:connector-curvature="0" />
	<path style="fill:none;stroke:red;stroke-width:1px;stroke-linecap:butt;stroke-linejoin:miter;stroke-opacity:1" d="M 58.4692,61.7704 45.2646,74.975 z" id="boundary" inkscape:connector-curvature="0" />
	<path style="fill:none;stroke:red;stroke-width:1px;stroke-linecap:butt;stroke-linejoin:miter;stroke-opacity:1" d="M 45.2646,74.975 28.7587,83.228 z" id="boundary" inkscape:connector-curvature="0" />
	<path style="fill:none;stroke:red;stroke-width:1px;stroke-linecap:butt;stroke-linejoin:miter;stroke-opacity:1" d="M 20.5058,99.7338 20.5058,116.24 z" id="boundary" inkscape:connector-curvature="0" />
	<path style="fill:none;stroke:red;stroke-width:1px;stroke-linecap:butt;stroke-linejoin:miter;stroke-opacity:1" d="M 20.5058,116.24 17.2047,136.047 z" id="boundary" inkscape:connector-curvature="0" />
	<path style="fill:none;stroke:red;stroke-width:1px;stroke-linecap:butt;stroke-linejoin:miter;stroke-opacity:1" d="M 17.2047,136.047 4,149.251 z" id="boundary" inkscape:connector-curvature="0" />
	<path style="fill:none;stroke:red;stroke-width:1px;stroke-linecap:butt;stroke-linejoin:miter;stroke-opacity:1" d="M 20.5058,99.7338 28.7587,83.228 z" id="boundary" inkscape:connector-curvature="0" />
	<path style="fill:none;stroke:red;stroke-width:1px;stroke-linecap:butt;stroke-linejoin:miter;stroke-opacity:1" d="M 74.975,28.7587 66.7221,45.2646 z" id="boundary" inkscape:connector-curvature="0" />
	<path style="fill:none;stroke:red;stroke-width:1px;stroke-linecap:butt;stroke-linejoin:miter;stroke-opacity:1" d="M 88.1797,15.5541 101.384,4 z" id="boundary" inkscape:connector-curvature="0" />
	<path style="fill:none;stroke:red;stroke-width:1px;stroke-linecap:butt;stroke-linejoin:miter;stroke-opacity:1" d="M 101.384,4 112.938,17.2047 z" id="boundary" inkscape:connector-curvature="0" />
	<path style="fill:none;stroke:red;stroke-width:1px;stroke-linecap:butt;stroke-linejoin:miter;stroke-opacity:1" d="M 112.938,17.2047 112.938,33.7105 z" id="boundary" inkscape:connector-curvature="0" />
	<path style="fill:none;stroke:red;stroke-width:1px;stroke-linecap:butt;stroke-linejoin:miter;stroke-opacity:1" d="M 112.938,33.7105 127.794,41.9634 z" id="boundary" inkscape:connector-curvature="0" />
	<path style="fill:none;stroke:red;stroke-width:1px;stroke-linecap:butt;stroke-linejoin:miter;stroke-opacity:1" d="M 74.975,28.7587 88.1797,15.5541 z" id="boundary" inkscape:connector-curvature="0" />
	<path style="fill:none;stroke:red;stroke-width:1px;stroke-linecap:butt;stroke-linejoin:miter;stroke-opacity:1" d="M 144.3,45.2646 127.794,41.9634 z" id="boundary" inkscape:connector-curvature="0" />
	<path style="fill:none;stroke:red;stroke-width:1px;stroke-linecap:butt;stroke-linejoin:miter;stroke-opacity:1" d="M 4,165.757 4,149.251 z" id="boundary" inkscape:connector-curvature="0" />
	<path style="fill:none;stroke:red;stroke-width:1px;stroke-linecap:butt;stroke-linejoin:miter;stroke-opacity:1" d="M 4,182.263 4,165.757 z" id="boundary" inkscape:connector-curvature="0" />
	<path style="fill:none;stroke:red;stroke-width:1px;stroke-linecap:butt;stroke-linejoin:miter;stroke-opacity:1" d="M 17.2047,193.817 4,182.263 z" id="boundary" inkscape:connector-curvature="0" />
	<path style="fill:none;stroke:red;stroke-width:1px;stroke-linecap:butt;stroke-linejoin:miter;stroke-opacity:1" d="M 17.2047,193.817 30.4093,203.72 z" id="boundary" inkscape:connector-curvature="0" />
	<path style="fill:none;stroke:red;stroke-width:1px;stroke-linecap:butt;stroke-linejoin:miter;stroke-opacity:1" d="M 45.2646,211.973 61.7704,207.022 z" id="boundary" inkscape:connector-curvature="0" />
	<path style="fill:none;stroke:red;stroke-width:1px;stroke-linecap:butt;stroke-linejoin:miter;stroke-opacity:1" d="M 45.2646,211.973 30.4093,203.72 z" id="boundary" inkscape:connector-curvature="0" />
	<path style="fill:none;stroke:red;stroke-width:1px;stroke-linecap:butt;stroke-linejoin:miter;stroke-opacity:1" d="M 101.384,228.479 88.1797,216.925 z" id="boundary" inkscape:connector-curvature="0" />
	<path style="fill:none;stroke:red;stroke-width:1px;stroke-linecap:butt;stroke-linejoin:miter;stroke-opacity:1" d="M 88.1797,216.925 78.2762,203.72 z" id="boundary" inkscape:connector-curvature="0" />
	<path style="fill:none;stroke:red;stroke-width:1px;stroke-linecap:butt;stroke-linejoin:miter;stroke-opacity:1" d="M 101.384,228.479 111.288,241.684 z" id="boundary" inkscape:connector-curvature="0" />
	<path style="fill:none;stroke:red;stroke-width:1px;stroke-linecap:butt;stroke-linejoin:miter;stroke-opacity:1" d="M 111.288,241.684 119.541,256.539 z" id="boundary" inkscape:connector-curvature="0" />
	<path style="fill:none;stroke:red;stroke-width:1px;stroke-linecap:butt;stroke-linejoin:miter;stroke-opacity:1" d="M 127.794,271.394 136.047,286.25 z" id="boundary" inkscape:connector-curvature="0" />
	<path style="fill:none;stroke:red;stroke-width:1px;stroke-linecap:butt;stroke-linejoin:miter;stroke-opacity:1" d="M 127.794,271.394 119.541,256.539 z" id="boundary" inkscape:connector-curvature="0" />
	<path style="fill:none;stroke:red;stroke-width:1px;stroke-linecap:butt;stroke-linejoin:miter;stroke-opacity:1" d="M 61.7704,207.022 78.2762,203.72 z" id="boundary" inkscape:connector-curvature="0" />
	<path style="fill:none;stroke:red;stroke-width:1px;stroke-linecap:butt;stroke-linejoin:miter;stroke-opacity:1" d="M 144.3,45.2646 157.504,55.1681 z" id="boundary" inkscape:connector-curvature="0" />
	<path style="fill:none;stroke:red;stroke-width:1px;stroke-linecap:butt;stroke-linejoin:miter;stroke-opacity:1" d="M 157.504,55.1681 174.01,61.7704 z" id="boundary" inkscape:connector-curvature="0" />
	<path style="fill:none;stroke:red;stroke-width:1px;stroke-linecap:butt;stroke-linejoin:miter;stroke-opacity:1" d="M 174.01,61.7704 185.564,74.975 z" id="boundary" inkscape:connector-curvature="0" />
	<path style="fill:none;stroke:red;stroke-width:1px;stroke-linecap:butt;stroke-linejoin:miter;stroke-opacity:1" d="M 185.564,74.975 195.468,88.1797 z" id="boundary" inkscape:connector-curvature="0" />
	<path style="fill:none;stroke:red;stroke-width:1px;stroke-linecap:butt;stroke-linejoin:miter;stroke-opacity:1" d="M 208.672,98.0832 225.178,104.686 z" id="boundary" inkscape:connector-curvature="0" />
	<path style="fill:none;stroke:red;stroke-width:1px;stroke-linecap:butt;stroke-linejoin:miter;stroke-opacity:1" d="M 208.672,98.0832 195.468,88.1797 z" id="boundary" inkscape:connector-curvature="0" />
	<path style="fill:none;stroke:red;stroke-width:1px;stroke-linecap:butt;stroke-linejoin:miter;stroke-opacity:1" d="M 385.285,103.035 401.79,103.035 z" id="boundary" inkscape:connector-curvature="0" />
	<path style="fill:none;stroke:red;stroke-width:1px;stroke-linecap:butt;stroke-linejoin:miter;stroke-opacity:1" d="M 368.779,106.336 385.285,103.035 z" id="boundary" inkscape:connector-curvature="0" />
	<path style="fill:none;stroke:red;stroke-width:1px;stroke-linecap:butt;stroke-linejoin:miter;stroke-opacity:1" d="M 416.646,94.782 401.79,103.035 z" id="boundary" inkscape:connector-curvature="0" />
	<path style="fill:none;stroke:red;stroke-width:1px;stroke-linecap:butt;stroke-linejoin:miter;stroke-opacity:1" d="M 464.512,86.5291 481.018,86.5291 z" id="boundary" inkscape:connector-curvature="0" />
	<path style="fill:none;stroke:red;stroke-width:1px;stroke-linecap:butt;stroke-linejoin:miter;stroke-opacity:1" d="M 449.657,94.782 464.512,86.5291 z" id="boundary" inkscape:connector-curvature="0" />
	<path style="fill:none;stroke:red;stroke-width:1px;stroke-linecap:butt;stroke-linejoin:miter;stroke-opacity:1" d="M 481.018,86.5291 497.524,86.5291 z" id="boundary" inkscape:connector-curvature="0" />
	<path style="fill:none;stroke:red;stroke-width:1px;stroke-linecap:butt;stroke-linejoin:miter;stroke-opacity:1" d="M 416.646,94.782 433.151,94.782 z" id="boundary" inkscape:connector-curvature="0" />
	<path style="fill:none;stroke:red;stroke-width:1px;stroke-linecap:butt;stroke-linejoin:miter;stroke-opacity:1" d="M 449.657,94.782 433.151,94.782 z" id="boundary" inkscape:connector-curvature="0" />
	<path style="fill:none;stroke:red;stroke-width:1px;stroke-linecap:butt;stroke-linejoin:miter;stroke-opacity:1" d="M 514.03,86.5291 497.524,86.5291 z" id="boundary" inkscape:connector-curvature="0" />
	<path style="fill:none;stroke:red;stroke-width:1px;stroke-linecap:butt;stroke-linejoin:miter;stroke-opacity:1" d="M 256.539,119.541 240.033,112.938 z" id="boundary" inkscape:connector-curvature="0" />
	<path style="fill:none;stroke:red;stroke-width:1px;stroke-linecap:butt;stroke-linejoin:miter;stroke-opacity:1" d="M 240.033,112.938 225.178,104.686 z" id="boundary" inkscape:connector-curvature="0" />
	<path style="fill:none;stroke:red;stroke-width:1px;stroke-linecap:butt;stroke-linejoin:miter;stroke-opacity:1" d="M 256.539,119.541 271.394,127.794 z" id="boundary" inkscape:connector-curvature="0" />
	<path style="fill:none;stroke:red;stroke-width:1px;stroke-linecap:butt;stroke-linejoin:miter;stroke-opacity:1" d="M 145.95,299.454 159.155,311.008 z" id="boundary" inkscape:connector-curvature="0" />
	<path style="fill:none;stroke:red;stroke-width:1px;stroke-linecap:butt;stroke-linejoin:miter;stroke-opacity:1" d="M 159.155,311.008 165.757,327.514 z" id="boundary" inkscape:connector-curvature="0" />
	<path style="fill:none;stroke:red;stroke-width:1px;stroke-linecap:butt;stroke-linejoin:miter;stroke-opacity:1" d="M 145.95,299.454 136.047,286.25 z" id="boundary" inkscape:connector-curvature="0" />
	<path style="fill:none;stroke:red;stroke-width:1px;stroke-linecap:butt;stroke-linejoin:miter;stroke-opacity:1" d="M 165.757,327.514 178.962,339.068 z" id="boundary" inkscape:connector-curvature="0" />
	<path style="fill:none;stroke:red;stroke-width:1px;stroke-linecap:butt;stroke-linejoin:miter;stroke-opacity:1" d="M 178.962,339.068 185.564,355.574 z" id="boundary" inkscape:connector-curvature="0" />
	<path style="fill:none;stroke:red;stroke-width:1px;stroke-linecap:butt;stroke-linejoin:miter;stroke-opacity:1" d="M 368.779,106.336 352.273,111.288 z" id="boundary" inkscape:connector-curvature="0" />
	<path style="fill:none;stroke:red;stroke-width:1px;stroke-linecap:butt;stroke-linejoin:miter;stroke-opacity:1" d="M 352.273,111.288 335.767,111.288 z" id="boundary" inkscape:connector-curvature="0" />
	<path style="fill:none;stroke:red;stroke-width:1px;stroke-linecap:butt;stroke-linejoin:miter;stroke-opacity:1" d="M 335.767,111.288 319.261,114.589 z" id="boundary" inkscape:connector-curvature="0" />
	<path style="fill:none;stroke:red;stroke-width:1px;stroke-linecap:butt;stroke-linejoin:miter;stroke-opacity:1" d="M 271.394,127.794 286.25,119.541 z" id="boundary" inkscape:connector-curvature="0" />
	<path style="fill:none;stroke:red;stroke-width:1px;stroke-linecap:butt;stroke-linejoin:miter;stroke-opacity:1" d="M 286.25,119.541 302.755,119.541 z" id="boundary" inkscape:connector-curvature="0" />
	<path style="fill:none;stroke:red;stroke-width:1px;stroke-linecap:butt;stroke-linejoin:miter;stroke-opacity:1" d="M 302.755,119.541 319.261,114.589 z" id="boundary" inkscape:connector-curvature="0" />
	<path style="fill:none;stroke:red;stroke-width:1px;stroke-linecap:butt;stroke-linejoin:miter;stroke-opacity:1" d="M 530.536,86.5291 514.03,86.5291 z" id="boundary" inkscape:connector-curvature="0" />
	<path style="fill:none;stroke:red;stroke-width:1px;stroke-linecap:butt;stroke-linejoin:miter;stroke-opacity:1" d="M 193.817,370.429 185.564,355.574 z" id="boundary" inkscape:connector-curvature="0" />
	<path style="fill:none;stroke:red;stroke-width:1px;stroke-linecap:butt;stroke-linejoin:miter;stroke-opacity:1" d="M 210.323,377.032 210.323,393.537 z" id="boundary" inkscape:connector-curvature="0" />
	<path style="fill:none;stroke:red;stroke-width:1px;stroke-linecap:butt;stroke-linejoin:miter;stroke-opacity:1" d="M 202.07,528.885 202.07,512.379 z" id="boundary" inkscape:connector-curvature="0" />
	<path style="fill:none;stroke:red;stroke-width:1px;stroke-linecap:butt;stroke-linejoin:miter;stroke-opacity:1" d="M 210.323,495.874 202.07,512.379 z" id="boundary" inkscape:connector-curvature="0" />
	<path style="fill:none;stroke:red;stroke-width:1px;stroke-linecap:butt;stroke-linejoin:miter;stroke-opacity:1" d="M 210.323,479.368 210.323,495.874 z" id="boundary" inkscape:connector-curvature="0" />
	<path style="fill:none;stroke:red;stroke-width:1px;stroke-linecap:butt;stroke-linejoin:miter;stroke-opacity:1" d="M 218.576,408.393 210.323,393.537 z" id="boundary" inkscape:connector-curvature="0" />
	<path style="fill:none;stroke:red;stroke-width:1px;stroke-linecap:butt;stroke-linejoin:miter;stroke-opacity:1" d="M 218.576,424.899 218.576,441.404 z" id="boundary" inkscape:connector-curvature="0" />
	<path style="fill:none;stroke:red;stroke-width:1px;stroke-linecap:butt;stroke-linejoin:miter;stroke-opacity:1" d="M 218.576,457.91 218.576,441.404 z" id="boundary" inkscape:connector-curvature="0" />
	<path style="fill:none;stroke:red;stroke-width:1px;stroke-linecap:butt;stroke-linejoin:miter;stroke-opacity:1" d="M 218.576,457.91 210.323,479.368 z" id="boundary" inkscape:connector-curvature="0" />
	<path style="fill:none;stroke:red;stroke-width:1px;stroke-linecap:butt;stroke-linejoin:miter;stroke-opacity:1" d="M 261.491,500.825 261.491,517.331 z" id="boundary" inkscape:connector-curvature="0" />
	<path style="fill:none;stroke:red;stroke-width:1px;stroke-linecap:butt;stroke-linejoin:miter;stroke-opacity:1" d="M 276.346,492.572 261.491,500.825 z" id="boundary" inkscape:connector-curvature="0" />
	<path style="fill:none;stroke:red;stroke-width:1px;stroke-linecap:butt;stroke-linejoin:miter;stroke-opacity:1" d="M 218.576,424.899 218.576,408.393 z" id="boundary" inkscape:connector-curvature="0" />
	<path style="fill:none;stroke:red;stroke-width:1px;stroke-linecap:butt;stroke-linejoin:miter;stroke-opacity:1" d="M 261.491,517.331 253.238,533.837 z" id="boundary" inkscape:connector-curvature="0" />
	<path style="fill:none;stroke:red;stroke-width:1px;stroke-linecap:butt;stroke-linejoin:miter;stroke-opacity:1" d="M 177.311,585.005 169.058,570.15 z" id="boundary" inkscape:connector-curvature="0" />
	<path style="fill:none;stroke:red;stroke-width:1px;stroke-linecap:butt;stroke-linejoin:miter;stroke-opacity:1" d="M 169.058,570.15 182.263,556.945 z" id="boundary" inkscape:connector-curvature="0" />
	<path style="fill:none;stroke:red;stroke-width:1px;stroke-linecap:butt;stroke-linejoin:miter;stroke-opacity:1" d="M 198.769,548.692 182.263,556.945 z" id="boundary" inkscape:connector-curvature="0" />
	<path style="fill:none;stroke:red;stroke-width:1px;stroke-linecap:butt;stroke-linejoin:miter;stroke-opacity:1" d="M 202.07,528.885 198.769,548.692 z" id="boundary" inkscape:connector-curvature="0" />
	<path style="fill:none;stroke:red;stroke-width:1px;stroke-linecap:butt;stroke-linejoin:miter;stroke-opacity:1" d="M 177.311,585.005 193.817,591.607 z" id="boundary" inkscape:connector-curvature="0" />
	<path style="fill:none;stroke:red;stroke-width:1px;stroke-linecap:butt;stroke-linejoin:miter;stroke-opacity:1" d="M 210.323,591.607 225.178,583.354 z" id="boundary" inkscape:connector-curvature="0" />
	<path style="fill:none;stroke:red;stroke-width:1px;stroke-linecap:butt;stroke-linejoin:miter;stroke-opacity:1" d="M 210.323,591.607 193.817,591.607 z" id="boundary" inkscape:connector-curvature="0" />
	<path style="fill:none;stroke:red;stroke-width:1px;stroke-linecap:butt;stroke-linejoin:miter;stroke-opacity:1" d="M 240.033,573.451 225.178,583.354 z" id="boundary" inkscape:connector-curvature="0" />
	<path style="fill:none;stroke:red;stroke-width:1px;stroke-linecap:butt;stroke-linejoin:miter;stroke-opacity:1" d="M 248.286,556.945 240.033,573.451 z" id="boundary" inkscape:connector-curvature="0" />
	<path style="fill:none;stroke:red;stroke-width:1px;stroke-linecap:butt;stroke-linejoin:miter;stroke-opacity:1" d="M 248.286,556.945 253.238,533.837 z" id="boundary" inkscape:connector-curvature="0" />
	<path style="fill:none;stroke:red;stroke-width:1px;stroke-linecap:butt;stroke-linejoin:miter;stroke-opacity:1" d="M 261.491,585.005 248.286,598.21 z" id="boundary" inkscape:connector-curvature="0" />
	<path style="fill:none;stroke:red;stroke-width:1px;stroke-linecap:butt;stroke-linejoin:miter;stroke-opacity:1" d="M 235.082,611.414 244.985,624.619 z" id="boundary" inkscape:connector-curvature="0" />
	<path style="fill:none;stroke:red;stroke-width:1px;stroke-linecap:butt;stroke-linejoin:miter;stroke-opacity:1" d="M 235.082,611.414 248.286,598.21 z" id="boundary" inkscape:connector-curvature="0" />
	<path style="fill:none;stroke:red;stroke-width:1px;stroke-linecap:butt;stroke-linejoin:miter;stroke-opacity:1" d="M 259.84,632.872 244.985,624.619 z" id="boundary" inkscape:connector-curvature="0" />
	<path style="fill:none;stroke:red;stroke-width:1px;stroke-linecap:butt;stroke-linejoin:miter;stroke-opacity:1" d="M 276.346,627.92 259.84,632.872 z" id="boundary" inkscape:connector-curvature="0" />
	<path style="fill:none;stroke:red;stroke-width:1px;stroke-linecap:butt;stroke-linejoin:miter;stroke-opacity:1" d="M 368.779,410.043 381.983,398.489 z" id="boundary" inkscape:connector-curvature="0" />
	<path style="fill:none;stroke:red;stroke-width:1px;stroke-linecap:butt;stroke-linejoin:miter;stroke-opacity:1" d="M 381.983,398.489 398.489,401.79 z" id="boundary" inkscape:connector-curvature="0" />
	<path style="fill:none;stroke:red;stroke-width:1px;stroke-linecap:butt;stroke-linejoin:miter;stroke-opacity:1" d="M 360.526,434.802 368.779,410.043 z" id="boundary" inkscape:connector-curvature="0" />
	<path style="fill:none;stroke:red;stroke-width:1px;stroke-linecap:butt;stroke-linejoin:miter;stroke-opacity:1" d="M 352.273,467.814 344.02,492.572 z" id="boundary" inkscape:connector-curvature="0" />
	<path style="fill:none;stroke:red;stroke-width:1px;stroke-linecap:butt;stroke-linejoin:miter;stroke-opacity:1" d="M 360.526,434.802 360.526,451.308 z" id="boundary" inkscape:connector-curvature="0" />
	<path style="fill:none;stroke:red;stroke-width:1px;stroke-linecap:butt;stroke-linejoin:miter;stroke-opacity:1" d="M 360.526,451.308 352.273,467.814 z" id="boundary" inkscape:connector-curvature="0" />
	<path style="fill:none;stroke:red;stroke-width:1px;stroke-linecap:butt;stroke-linejoin:miter;stroke-opacity:1" d="M 398.489,401.79 414.995,401.79 z" id="boundary" inkscape:connector-curvature="0" />
	<path style="fill:none;stroke:red;stroke-width:1px;stroke-linecap:butt;stroke-linejoin:miter;stroke-opacity:1" d="M 429.85,393.537 446.356,393.537 z" id="boundary" inkscape:connector-curvature="0" />
	<path style="fill:none;stroke:red;stroke-width:1px;stroke-linecap:butt;stroke-linejoin:miter;stroke-opacity:1" d="M 414.995,401.79 429.85,393.537 z" id="boundary" inkscape:connector-curvature="0" />
	<path style="fill:none;stroke:red;stroke-width:1px;stroke-linecap:butt;stroke-linejoin:miter;stroke-opacity:1" d="M 446.356,393.537 462.862,393.537 z" id="boundary" inkscape:connector-curvature="0" />
	<path style="fill:none;stroke:red;stroke-width:1px;stroke-linecap:butt;stroke-linejoin:miter;stroke-opacity:1" d="M 462.862,393.537 479.368,393.537 z" id="boundary" inkscape:connector-curvature="0" />
	<path style="fill:none;stroke:red;stroke-width:1px;stroke-linecap:butt;stroke-linejoin:miter;stroke-opacity:1" d="M 495.874,393.537 479.368,393.537 z" id="boundary" inkscape:connector-curvature="0" />
	<path style="fill:none;stroke:red;stroke-width:1px;stroke-linecap:butt;stroke-linejoin:miter;stroke-opacity:1" d="M 276.346,553.644 276.346,537.138 z" id="boundary" inkscape:connector-curvature="0" />
	<path style="fill:none;stroke:red;stroke-width:1px;stroke-linecap:butt;stroke-linejoin:miter;stroke-opacity:1" d="M 274.696,573.451 276.346,553.644 z" id="boundary" inkscape:connector-curvature="0" />
	<path style="fill:none;stroke:red;stroke-width:1px;stroke-linecap:butt;stroke-linejoin:miter;stroke-opacity:1" d="M 301.105,603.161 292.852,619.667 z" id="boundary" inkscape:connector-curvature="0" />
	<path style="fill:none;stroke:red;stroke-width:1px;stroke-linecap:butt;stroke-linejoin:miter;stroke-opacity:1" d="M 274.696,573.451 261.491,585.005 z" id="boundary" inkscape:connector-curvature="0" />
	<path style="fill:none;stroke:red;stroke-width:1px;stroke-linecap:butt;stroke-linejoin:miter;stroke-opacity:1" d="M 276.346,627.92 292.852,619.667 z" id="boundary" inkscape:connector-curvature="0" />
	<path style="fill:none;stroke:red;stroke-width:1px;stroke-linecap:butt;stroke-linejoin:miter;stroke-opacity:1" d="M 276.346,537.138 284.599,507.428 z" id="boundary" inkscape:connector-curvature="0" />
	<path style="fill:none;stroke:red;stroke-width:1px;stroke-linecap:butt;stroke-linejoin:miter;stroke-opacity:1" d="M 335.767,509.078 344.02,492.572 z" id="boundary" inkscape:connector-curvature="0" />
	<path style="fill:none;stroke:red;stroke-width:1px;stroke-linecap:butt;stroke-linejoin:miter;stroke-opacity:1" d="M 335.767,525.584 335.767,509.078 z" id="boundary" inkscape:connector-curvature="0" />
	<path style="fill:none;stroke:red;stroke-width:1px;stroke-linecap:butt;stroke-linejoin:miter;stroke-opacity:1" d="M 335.767,525.584 327.514,542.09 z" id="boundary" inkscape:connector-curvature="0" />
	<path style="fill:none;stroke:red;stroke-width:1px;stroke-linecap:butt;stroke-linejoin:miter;stroke-opacity:1" d="M 301.105,603.161 311.008,583.354 z" id="boundary" inkscape:connector-curvature="0" />
	<path style="fill:none;stroke:red;stroke-width:1px;stroke-linecap:butt;stroke-linejoin:miter;stroke-opacity:1" d="M 319.261,566.849 327.514,542.09 z" id="boundary" inkscape:connector-curvature="0" />
	<path style="fill:none;stroke:red;stroke-width:1px;stroke-linecap:butt;stroke-linejoin:miter;stroke-opacity:1" d="M 319.261,566.849 311.008,583.354 z" id="boundary" inkscape:connector-curvature="0" />
	<path style="fill:none;stroke:red;stroke-width:1px;stroke-linecap:butt;stroke-linejoin:miter;stroke-opacity:1" d="M 284.599,507.428 276.346,492.572 z" id="boundary" inkscape:connector-curvature="0" />
	<path style="fill:none;stroke:red;stroke-width:1px;stroke-linecap:butt;stroke-linejoin:miter;stroke-opacity:1" d="M 495.874,393.537 512.379,393.537 z" id="boundary" inkscape:connector-curvature="0" />
	<path style="fill:none;stroke:red;stroke-width:1px;stroke-linecap:butt;stroke-linejoin:miter;stroke-opacity:1" d="M 528.885,393.537 512.379,393.537 z" id="boundary" inkscape:connector-curvature="0" />
	<path style="fill:none;stroke:red;stroke-width:1px;stroke-linecap:butt;stroke-linejoin:miter;stroke-opacity:1" d="M 530.536,86.5291 547.042,86.5291 z" id="boundary" inkscape:connector-curvature="0" />
	<path style="fill:none;stroke:red;stroke-width:1px;stroke-linecap:butt;stroke-linejoin:miter;stroke-opacity:1" d="M 563.547,86.5291 547.042,86.5291 z" id="boundary" inkscape:connector-curvature="0" />
	<path style="fill:none;stroke:red;stroke-width:1px;stroke-linecap:butt;stroke-linejoin:miter;stroke-opacity:1" d="M 563.547,86.5291 578.403,94.782 z" id="boundary" inkscape:connector-curvature="0" />
	<path style="fill:none;stroke:red;stroke-width:1px;stroke-linecap:butt;stroke-linejoin:miter;stroke-opacity:1" d="M 578.403,94.782 594.908,94.782 z" id="boundary" inkscape:connector-curvature="0" />
	<path style="fill:none;stroke:red;stroke-width:1px;stroke-linecap:butt;stroke-linejoin:miter;stroke-opacity:1" d="M 594.908,94.782 609.764,103.035 z" id="boundary" inkscape:connector-curvature="0" />
	<path style="fill:none;stroke:red;stroke-width:1px;stroke-linecap:butt;stroke-linejoin:miter;stroke-opacity:1" d="M 609.764,103.035 626.27,103.035 z" id="boundary" inkscape:connector-curvature="0" />
	<path style="fill:none;stroke:red;stroke-width:1px;stroke-linecap:butt;stroke-linejoin:miter;stroke-opacity:1" d="M 642.775,104.686 626.27,103.035 z" id="boundary" inkscape:connector-curvature="0" />
	<path style="fill:none;stroke:red;stroke-width:1px;stroke-linecap:butt;stroke-linejoin:miter;stroke-opacity:1" d="M 659.281,111.288 674.136,119.541 z" id="boundary" inkscape:connector-curvature="0" />
	<path style="fill:none;stroke:red;stroke-width:1px;stroke-linecap:butt;stroke-linejoin:miter;stroke-opacity:1" d="M 690.642,124.493 674.136,119.541 z" id="boundary" inkscape:connector-curvature="0" />
	<path style="fill:none;stroke:red;stroke-width:1px;stroke-linecap:butt;stroke-linejoin:miter;stroke-opacity:1" d="M 642.775,104.686 659.281,111.288 z" id="boundary" inkscape:connector-curvature="0" />
	<path style="fill:none;stroke:red;stroke-width:1px;stroke-linecap:butt;stroke-linejoin:miter;stroke-opacity:1" d="M 690.642,124.493 707.148,127.794 z" id="boundary" inkscape:connector-curvature="0" />
	<path style="fill:none;stroke:red;stroke-width:1px;stroke-linecap:butt;stroke-linejoin:miter;stroke-opacity:1" d="M 723.654,132.745 740.16,136.047 z" id="boundary" inkscape:connector-curvature="0" />
	<path style="fill:none;stroke:red;stroke-width:1px;stroke-linecap:butt;stroke-linejoin:miter;stroke-opacity:1" d="M 756.666,136.047 740.16,136.047 z" id="boundary" inkscape:connector-curvature="0" />
	<path style="fill:none;stroke:red;stroke-width:1px;stroke-linecap:butt;stroke-linejoin:miter;stroke-opacity:1" d="M 723.654,132.745 707.148,127.794 z" id="boundary" inkscape:connector-curvature="0" />
	<path style="fill:none;stroke:red;stroke-width:1px;stroke-linecap:butt;stroke-linejoin:miter;stroke-opacity:1" d="M 764.918,261.491 756.666,277.997 z" id="boundary" inkscape:connector-curvature="0" />
	<path style="fill:none;stroke:red;stroke-width:1px;stroke-linecap:butt;stroke-linejoin:miter;stroke-opacity:1" d="M 773.171,203.72 773.171,220.226 z" id="boundary" inkscape:connector-curvature="0" />
	<path style="fill:none;stroke:red;stroke-width:1px;stroke-linecap:butt;stroke-linejoin:miter;stroke-opacity:1" d="M 753.364,299.454 756.666,277.997 z" id="boundary" inkscape:connector-curvature="0" />
	<path style="fill:none;stroke:red;stroke-width:1px;stroke-linecap:butt;stroke-linejoin:miter;stroke-opacity:1" d="M 740.16,327.514 740.16,311.008 z" id="boundary" inkscape:connector-curvature="0" />
	<path style="fill:none;stroke:red;stroke-width:1px;stroke-linecap:butt;stroke-linejoin:miter;stroke-opacity:1" d="M 740.16,311.008 753.364,299.454 z" id="boundary" inkscape:connector-curvature="0" />
	<path style="fill:none;stroke:red;stroke-width:1px;stroke-linecap:butt;stroke-linejoin:miter;stroke-opacity:1" d="M 740.16,344.02 740.16,327.514 z" id="boundary" inkscape:connector-curvature="0" />
	<path style="fill:none;stroke:red;stroke-width:1px;stroke-linecap:butt;stroke-linejoin:miter;stroke-opacity:1" d="M 804.532,144.3 788.027,144.3 z" id="boundary" inkscape:connector-curvature="0" />
	<path style="fill:none;stroke:red;stroke-width:1px;stroke-linecap:butt;stroke-linejoin:miter;stroke-opacity:1" d="M 788.027,144.3 773.171,136.047 z" id="boundary" inkscape:connector-curvature="0" />
	<path style="fill:none;stroke:red;stroke-width:1px;stroke-linecap:butt;stroke-linejoin:miter;stroke-opacity:1" d="M 773.171,203.72 789.677,203.72 z" id="boundary" inkscape:connector-curvature="0" />
	<path style="fill:none;stroke:red;stroke-width:1px;stroke-linecap:butt;stroke-linejoin:miter;stroke-opacity:1" d="M 764.918,261.491 773.171,236.732 z" id="boundary" inkscape:connector-curvature="0" />
	<path style="fill:none;stroke:red;stroke-width:1px;stroke-linecap:butt;stroke-linejoin:miter;stroke-opacity:1" d="M 773.171,236.732 773.171,220.226 z" id="boundary" inkscape:connector-curvature="0" />
	<path style="fill:none;stroke:red;stroke-width:1px;stroke-linecap:butt;stroke-linejoin:miter;stroke-opacity:1" d="M 804.532,144.3 819.388,152.552 z" id="boundary" inkscape:connector-curvature="0" />
	<path style="fill:none;stroke:red;stroke-width:1px;stroke-linecap:butt;stroke-linejoin:miter;stroke-opacity:1" d="M 756.666,136.047 773.171,136.047 z" id="boundary" inkscape:connector-curvature="0" />
	<path style="fill:none;stroke:red;stroke-width:1px;stroke-linecap:butt;stroke-linejoin:miter;stroke-opacity:1" d="M 789.677,203.72 804.532,211.973 z" id="boundary" inkscape:connector-curvature="0" />
	<path style="fill:none;stroke:red;stroke-width:1px;stroke-linecap:butt;stroke-linejoin:miter;stroke-opacity:1" d="M 819.388,152.552 834.243,160.805 z" id="boundary" inkscape:connector-curvature="0" />
	<path style="fill:none;stroke:red;stroke-width:1px;stroke-linecap:butt;stroke-linejoin:miter;stroke-opacity:1" d="M 834.243,160.805 849.098,169.058 z" id="boundary" inkscape:connector-curvature="0" />
	<path style="fill:none;stroke:red;stroke-width:1px;stroke-linecap:butt;stroke-linejoin:miter;stroke-opacity:1" d="M 804.532,211.973 814.436,225.178 z" id="boundary" inkscape:connector-curvature="0" />
	<path style="fill:none;stroke:red;stroke-width:1px;stroke-linecap:butt;stroke-linejoin:miter;stroke-opacity:1" d="M 827.641,236.732 842.496,244.985 z" id="boundary" inkscape:connector-curvature="0" />
	<path style="fill:none;stroke:red;stroke-width:1px;stroke-linecap:butt;stroke-linejoin:miter;stroke-opacity:1" d="M 842.496,244.985 850.749,259.84 z" id="boundary" inkscape:connector-curvature="0" />
	<path style="fill:none;stroke:red;stroke-width:1px;stroke-linecap:butt;stroke-linejoin:miter;stroke-opacity:1" d="M 827.641,236.732 814.436,225.178 z" id="boundary" inkscape:connector-curvature="0" />
	<path style="fill:none;stroke:red;stroke-width:1px;stroke-linecap:butt;stroke-linejoin:miter;stroke-opacity:1" d="M 885.411,203.72 872.206,192.166 z" id="boundary" inkscape:connector-curvature="0" />
	<path style="fill:none;stroke:red;stroke-width:1px;stroke-linecap:butt;stroke-linejoin:miter;stroke-opacity:1" d="M 872.206,192.166 863.953,177.311 z" id="boundary" inkscape:connector-curvature="0" />
	<path style="fill:none;stroke:red;stroke-width:1px;stroke-linecap:butt;stroke-linejoin:miter;stroke-opacity:1" d="M 885.411,203.72 892.013,220.226 z" id="boundary" inkscape:connector-curvature="0" />
	<path style="fill:none;stroke:red;stroke-width:1px;stroke-linecap:butt;stroke-linejoin:miter;stroke-opacity:1" d="M 863.953,269.744 850.749,259.84 z" id="boundary" inkscape:connector-curvature="0" />
	<path style="fill:none;stroke:red;stroke-width:1px;stroke-linecap:butt;stroke-linejoin:miter;stroke-opacity:1" d="M 892.013,220.226 905.218,231.78 z" id="boundary" inkscape:connector-curvature="0" />
	<path style="fill:none;stroke:red;stroke-width:1px;stroke-linecap:butt;stroke-linejoin:miter;stroke-opacity:1" d="M 911.82,248.286 905.218,231.78 z" id="boundary" inkscape:connector-curvature="0" />
	<path style="fill:none;stroke:red;stroke-width:1px;stroke-linecap:butt;stroke-linejoin:miter;stroke-opacity:1" d="M 925.025,259.84 911.82,248.286 z" id="boundary" inkscape:connector-curvature="0" />
	<path style="fill:none;stroke:red;stroke-width:1px;stroke-linecap:butt;stroke-linejoin:miter;stroke-opacity:1" d="M 849.098,169.058 863.953,177.311 z" id="boundary" inkscape:connector-curvature="0" />
	<path style="fill:none;stroke:red;stroke-width:1px;stroke-linecap:butt;stroke-linejoin:miter;stroke-opacity:1" d="M 870.556,286.25 863.953,269.744 z" id="boundary" inkscape:connector-curvature="0" />
	<path style="fill:none;stroke:red;stroke-width:1px;stroke-linecap:butt;stroke-linejoin:miter;stroke-opacity:1" d="M 880.459,299.454 870.556,286.25 z" id="boundary" inkscape:connector-curvature="0" />
	<path style="fill:none;stroke:red;stroke-width:1px;stroke-linecap:butt;stroke-linejoin:miter;stroke-opacity:1" d="M 880.459,299.454 893.664,311.008 z" id="boundary" inkscape:connector-curvature="0" />
	<path style="fill:none;stroke:red;stroke-width:1px;stroke-linecap:butt;stroke-linejoin:miter;stroke-opacity:1" d="M 905.218,324.213 913.471,339.068 z" id="boundary" inkscape:connector-curvature="0" />
	<path style="fill:none;stroke:red;stroke-width:1px;stroke-linecap:butt;stroke-linejoin:miter;stroke-opacity:1" d="M 893.664,311.008 905.218,324.213 z" id="boundary" inkscape:connector-curvature="0" />
	<path style="fill:none;stroke:red;stroke-width:1px;stroke-linecap:butt;stroke-linejoin:miter;stroke-opacity:1" d="M 740.16,360.526 740.16,344.02 z" id="boundary" inkscape:connector-curvature="0" />
	<path style="fill:none;stroke:red;stroke-width:1px;stroke-linecap:butt;stroke-linejoin:miter;stroke-opacity:1" d="M 925.025,259.84 936.579,273.045 z" id="boundary" inkscape:connector-curvature="0" />
	<path style="fill:none;stroke:red;stroke-width:1px;stroke-linecap:butt;stroke-linejoin:miter;stroke-opacity:1" d="M 954.735,301.105 944.832,287.9 z" id="boundary" inkscape:connector-curvature="0" />
	<path style="fill:none;stroke:red;stroke-width:1px;stroke-linecap:butt;stroke-linejoin:miter;stroke-opacity:1" d="M 944.832,287.9 936.579,273.045 z" id="boundary" inkscape:connector-curvature="0" />
	<path style="fill:none;stroke:red;stroke-width:1px;stroke-linecap:butt;stroke-linejoin:miter;stroke-opacity:1" d="M 996,355.574 984.446,342.369 z" id="boundary" inkscape:connector-curvature="0" />
	<path style="fill:none;stroke:red;stroke-width:1px;stroke-linecap:butt;stroke-linejoin:miter;stroke-opacity:1" d="M 954.735,301.105 962.988,315.96 z" id="boundary" inkscape:connector-curvature="0" />
	<path style="fill:none;stroke:red;stroke-width:1px;stroke-linecap:butt;stroke-linejoin:miter;stroke-opacity:1" d="M 962.988,315.96 971.241,330.815 z" id="boundary" inkscape:connector-curvature="0" />
	<path style="fill:none;stroke:red;stroke-width:1px;stroke-linecap:butt;stroke-linejoin:miter;stroke-opacity:1" d="M 925.025,352.273 913.471,339.068 z" id="boundary" inkscape:connector-curvature="0" />
	<path style="fill:none;stroke:red;stroke-width:1px;stroke-linecap:butt;stroke-linejoin:miter;stroke-opacity:1" d="M 938.23,363.827 925.025,352.273 z" id="boundary" inkscape:connector-curvature="0" />
	<path style="fill:none;stroke:red;stroke-width:1px;stroke-linecap:butt;stroke-linejoin:miter;stroke-opacity:1" d="M 984.446,342.369 971.241,330.815 z" id="boundary" inkscape:connector-curvature="0" />
	<path style="fill:none;stroke:red;stroke-width:1px;stroke-linecap:butt;stroke-linejoin:miter;stroke-opacity:1" d="M 542.09,405.092 553.644,418.296 z" id="boundary" inkscape:connector-curvature="0" />
	<path style="fill:none;stroke:red;stroke-width:1px;stroke-linecap:butt;stroke-linejoin:miter;stroke-opacity:1" d="M 566.849,429.85 553.644,418.296 z" id="boundary" inkscape:connector-curvature="0" />
	<path style="fill:none;stroke:red;stroke-width:1px;stroke-linecap:butt;stroke-linejoin:miter;stroke-opacity:1" d="M 578.403,443.055 581.704,459.561 z" id="boundary" inkscape:connector-curvature="0" />
	<path style="fill:none;stroke:red;stroke-width:1px;stroke-linecap:butt;stroke-linejoin:miter;stroke-opacity:1" d="M 566.849,429.85 578.403,443.055 z" id="boundary" inkscape:connector-curvature="0" />
	<path style="fill:none;stroke:red;stroke-width:1px;stroke-linecap:butt;stroke-linejoin:miter;stroke-opacity:1" d="M 570.15,532.186 553.644,540.439 z" id="boundary" inkscape:connector-curvature="0" />
	<path style="fill:none;stroke:red;stroke-width:1px;stroke-linecap:butt;stroke-linejoin:miter;stroke-opacity:1" d="M 591.607,472.765 581.704,459.561 z" id="boundary" inkscape:connector-curvature="0" />
	<path style="fill:none;stroke:red;stroke-width:1px;stroke-linecap:butt;stroke-linejoin:miter;stroke-opacity:1" d="M 670.835,489.271 657.631,500.825 z" id="boundary" inkscape:connector-curvature="0" />
	<path style="fill:none;stroke:red;stroke-width:1px;stroke-linecap:butt;stroke-linejoin:miter;stroke-opacity:1" d="M 591.607,502.476 591.607,472.765 z" id="boundary" inkscape:connector-curvature="0" />
	<path style="fill:none;stroke:red;stroke-width:1px;stroke-linecap:butt;stroke-linejoin:miter;stroke-opacity:1" d="M 583.354,518.982 591.607,502.476 z" id="boundary" inkscape:connector-curvature="0" />
	<path style="fill:none;stroke:red;stroke-width:1px;stroke-linecap:butt;stroke-linejoin:miter;stroke-opacity:1" d="M 672.486,570.15 655.98,586.656 z" id="boundary" inkscape:connector-curvature="0" />
	<path style="fill:none;stroke:red;stroke-width:1px;stroke-linecap:butt;stroke-linejoin:miter;stroke-opacity:1" d="M 649.378,517.331 639.474,533.837 z" id="boundary" inkscape:connector-curvature="0" />
	<path style="fill:none;stroke:red;stroke-width:1px;stroke-linecap:butt;stroke-linejoin:miter;stroke-opacity:1" d="M 657.631,500.825 649.378,517.331 z" id="boundary" inkscape:connector-curvature="0" />
	<path style="fill:none;stroke:red;stroke-width:1px;stroke-linecap:butt;stroke-linejoin:miter;stroke-opacity:1" d="M 570.15,532.186 583.354,518.982 z" id="boundary" inkscape:connector-curvature="0" />
	<path style="fill:none;stroke:red;stroke-width:1px;stroke-linecap:butt;stroke-linejoin:miter;stroke-opacity:1" d="M 542.09,405.092 528.885,393.537 z" id="boundary" inkscape:connector-curvature="0" />
	<path style="fill:none;stroke:red;stroke-width:1px;stroke-linecap:butt;stroke-linejoin:miter;stroke-opacity:1" d="M 639.474,533.837 624.619,542.09 z" id="boundary" inkscape:connector-curvature="0" />
	<path style="fill:none;stroke:red;stroke-width:1px;stroke-linecap:butt;stroke-linejoin:miter;stroke-opacity:1" d="M 532.186,576.752 523.933,561.897 z" id="boundary" inkscape:connector-curvature="0" />
	<path style="fill:none;stroke:red;stroke-width:1px;stroke-linecap:butt;stroke-linejoin:miter;stroke-opacity:1" d="M 523.933,561.897 540.439,553.644 z" id="boundary" inkscape:connector-curvature="0" />
	<path style="fill:none;stroke:red;stroke-width:1px;stroke-linecap:butt;stroke-linejoin:miter;stroke-opacity:1" d="M 553.644,540.439 540.439,553.644 z" id="boundary" inkscape:connector-curvature="0" />
	<path style="fill:none;stroke:red;stroke-width:1px;stroke-linecap:butt;stroke-linejoin:miter;stroke-opacity:1" d="M 596.559,575.101 581.704,583.354 z" id="boundary" inkscape:connector-curvature="0" />
	<path style="fill:none;stroke:red;stroke-width:1px;stroke-linecap:butt;stroke-linejoin:miter;stroke-opacity:1" d="M 581.704,583.354 565.198,583.354 z" id="boundary" inkscape:connector-curvature="0" />
	<path style="fill:none;stroke:red;stroke-width:1px;stroke-linecap:butt;stroke-linejoin:miter;stroke-opacity:1" d="M 532.186,576.752 548.692,583.354 z" id="boundary" inkscape:connector-curvature="0" />
	<path style="fill:none;stroke:red;stroke-width:1px;stroke-linecap:butt;stroke-linejoin:miter;stroke-opacity:1" d="M 565.198,583.354 548.692,583.354 z" id="boundary" inkscape:connector-curvature="0" />
	<path style="fill:none;stroke:red;stroke-width:1px;stroke-linecap:butt;stroke-linejoin:miter;stroke-opacity:1" d="M 611.414,565.198 624.619,542.09 z" id="boundary" inkscape:connector-curvature="0" />
	<path style="fill:none;stroke:red;stroke-width:1px;stroke-linecap:butt;stroke-linejoin:miter;stroke-opacity:1" d="M 611.414,565.198 596.559,575.101 z" id="boundary" inkscape:connector-curvature="0" />
	<path style="fill:none;stroke:red;stroke-width:1px;stroke-linecap:butt;stroke-linejoin:miter;stroke-opacity:1" d="M 655.98,586.656 639.474,594.908 z" id="boundary" inkscape:connector-curvature="0" />
	<path style="fill:none;stroke:red;stroke-width:1px;stroke-linecap:butt;stroke-linejoin:miter;stroke-opacity:1" d="M 639.474,594.908 639.474,611.414 z" id="boundary" inkscape:connector-curvature="0" />
	<path style="fill:none;stroke:red;stroke-width:1px;stroke-linecap:butt;stroke-linejoin:miter;stroke-opacity:1" d="M 652.679,622.968 669.185,624.619 z" id="boundary" inkscape:connector-curvature="0" />
	<path style="fill:none;stroke:red;stroke-width:1px;stroke-linecap:butt;stroke-linejoin:miter;stroke-opacity:1" d="M 652.679,622.968 639.474,611.414 z" id="boundary" inkscape:connector-curvature="0" />
	<path style="fill:none;stroke:red;stroke-width:1px;stroke-linecap:butt;stroke-linejoin:miter;stroke-opacity:1" d="M 684.04,616.366 669.185,624.619 z" id="boundary" inkscape:connector-curvature="0" />
	<path style="fill:none;stroke:red;stroke-width:1px;stroke-linecap:butt;stroke-linejoin:miter;stroke-opacity:1" d="M 740.16,377.032 740.16,393.537 z" id="boundary" inkscape:connector-curvature="0" />
	<path style="fill:none;stroke:red;stroke-width:1px;stroke-linecap:butt;stroke-linejoin:miter;stroke-opacity:1" d="M 740.16,410.043 740.16,393.537 z" id="boundary" inkscape:connector-curvature="0" />
	<path style="fill:none;stroke:red;stroke-width:1px;stroke-linecap:butt;stroke-linejoin:miter;stroke-opacity:1" d="M 740.16,410.043 740.16,426.549 z" id="boundary" inkscape:connector-curvature="0" />
	<path style="fill:none;stroke:red;stroke-width:1px;stroke-linecap:butt;stroke-linejoin:miter;stroke-opacity:1" d="M 743.461,443.055 740.16,426.549 z" id="boundary" inkscape:connector-curvature="0" />
	<path style="fill:none;stroke:red;stroke-width:1px;stroke-linecap:butt;stroke-linejoin:miter;stroke-opacity:1" d="M 743.461,443.055 748.413,459.561 z" id="boundary" inkscape:connector-curvature="0" />
	<path style="fill:none;stroke:red;stroke-width:1px;stroke-linecap:butt;stroke-linejoin:miter;stroke-opacity:1" d="M 756.666,474.416 748.413,459.561 z" id="boundary" inkscape:connector-curvature="0" />
	<path style="fill:none;stroke:red;stroke-width:1px;stroke-linecap:butt;stroke-linejoin:miter;stroke-opacity:1" d="M 740.16,377.032 740.16,360.526 z" id="boundary" inkscape:connector-curvature="0" />
	<path style="fill:none;stroke:red;stroke-width:1px;stroke-linecap:butt;stroke-linejoin:miter;stroke-opacity:1" d="M 953.085,372.08 938.23,363.827 z" id="boundary" inkscape:connector-curvature="0" />
	<path style="fill:none;stroke:red;stroke-width:1px;stroke-linecap:butt;stroke-linejoin:miter;stroke-opacity:1" d="M 966.29,383.634 953.085,372.08 z" id="boundary" inkscape:connector-curvature="0" />
	<path style="fill:none;stroke:red;stroke-width:1px;stroke-linecap:butt;stroke-linejoin:miter;stroke-opacity:1" d="M 764.918,489.271 756.666,474.416 z" id="boundary" inkscape:connector-curvature="0" />
	<path style="fill:none;stroke:red;stroke-width:1px;stroke-linecap:butt;stroke-linejoin:miter;stroke-opacity:1" d="M 982.795,383.634 966.29,383.634 z" id="boundary" inkscape:connector-curvature="0" />
	<path style="fill:none;stroke:red;stroke-width:1px;stroke-linecap:butt;stroke-linejoin:miter;stroke-opacity:1" d="M 996,355.574 996,372.08 z" id="boundary" inkscape:connector-curvature="0" />
	<path style="fill:none;stroke:red;stroke-width:1px;stroke-linecap:butt;stroke-linejoin:miter;stroke-opacity:1" d="M 996,372.08 982.795,383.634 z" id="boundary" inkscape:connector-curvature="0" />
	<path style="fill:none;stroke:red;stroke-width:1px;stroke-linecap:butt;stroke-linejoin:miter;stroke-opacity:1" d="M 670.835,489.271 687.341,492.572 z" id="boundary" inkscape:connector-curvature="0" />
	<path style="fill:none;stroke:red;stroke-width:1px;stroke-linecap:butt;stroke-linejoin:miter;stroke-opacity:1" d="M 687.341,492.572 688.992,509.078 z" id="boundary" inkscape:connector-curvature="0" />
	<path style="fill:none;stroke:red;stroke-width:1px;stroke-linecap:butt;stroke-linejoin:miter;stroke-opacity:1" d="M 688.992,509.078 688.992,528.885 z" id="boundary" inkscape:connector-curvature="0" />
	<path style="fill:none;stroke:red;stroke-width:1px;stroke-linecap:butt;stroke-linejoin:miter;stroke-opacity:1" d="M 698.895,608.113 684.04,616.366 z" id="boundary" inkscape:connector-curvature="0" />
	<path style="fill:none;stroke:red;stroke-width:1px;stroke-linecap:butt;stroke-linejoin:miter;stroke-opacity:1" d="M 672.486,570.15 685.691,556.945 z" id="boundary" inkscape:connector-curvature="0" />
	<path style="fill:none;stroke:red;stroke-width:1px;stroke-linecap:butt;stroke-linejoin:miter;stroke-opacity:1" d="M 688.992,528.885 685.691,556.945 z" id="boundary" inkscape:connector-curvature="0" />
	<path style="fill:none;stroke:red;stroke-width:1px;stroke-linecap:butt;stroke-linejoin:miter;stroke-opacity:1" d="M 740.16,542.09 748.413,525.584 z" id="boundary" inkscape:connector-curvature="0" />
	<path style="fill:none;stroke:red;stroke-width:1px;stroke-linecap:butt;stroke-linejoin:miter;stroke-opacity:1" d="M 756.666,509.078 764.918,489.271 z" id="boundary" inkscape:connector-curvature="0" />
	<path style="fill:none;stroke:red;stroke-width:1px;stroke-linecap:butt;stroke-linejoin:miter;stroke-opacity:1" d="M 756.666,509.078 748.413,525.584 z" id="boundary" inkscape:connector-curvature="0" />
	<path style="fill:none;stroke:red;stroke-width:1px;stroke-linecap:butt;stroke-linejoin:miter;stroke-opacity:1" d="M 740.16,542.09 731.907,558.596 z" id="boundary" inkscape:connector-curvature="0" />
	<path style="fill:none;stroke:red;stroke-width:1px;stroke-linecap:butt;stroke-linejoin:miter;stroke-opacity:1" d="M 698.895,608.113 712.1,596.559 z" id="boundary" inkscape:connector-curvature="0" />
	<path style="fill:none;stroke:red;stroke-width:1px;stroke-linecap:butt;stroke-linejoin:miter;stroke-opacity:1" d="M 723.654,575.101 731.907,558.596 z" id="boundary" inkscape:connector-curvature="0" />
	<path style="fill:none;stroke:red;stroke-width:1px;stroke-linecap:butt;stroke-linejoin:miter;stroke-opacity:1" d="M 723.654,575.101 712.1,596.559 z" id="boundary" inkscape:connector-curvature="0" />
	<circle cx="4" cy="149.251" r="4" fill="#0" id="circle0"/>
	<circle cx="4" cy="165.757" r="4" fill="#0" id="circle1"/>
	<circle cx="4" cy="182.263" r="4" fill="#0" id="circle2"/>
	<circle cx="17.2047" cy="136.047" r="4" fill="#0" id="circle3"/>
	<circle cx="17.2047" cy="193.817" r="4" fill="#0" id="circle4"/>
	<circle cx="20.5058" cy="99.7338" r="4" fill="#0" id="circle5"/>
	<circle cx="20.5058" cy="116.24" r="4" fill="#0" id="circle6"/>
	<circle cx="28.7587" cy="83.228" r="4" fill="#0" id="circle7"/>
	<circle cx="30.4093" cy="203.72" r="4" fill="#0" id="circle8"/>
	<circle cx="45.2646" cy="74.975" r="4" fill="#0" id="circle9"/>
	<circle cx="45.2646" cy="211.973" r="4" fill="#0" id="circle10"/>
	<circle cx="58.4692" cy="61.7704" r="4" fill="#0" id="circle11"/>
	<circle cx="61.7704" cy="207.022" r="4" fill="#0" id="circle12"/>
	<circle cx="66.7221" cy="45.2646" r="4" fill="#0" id="circle13"/>
	<circle cx="74.975" cy="28.7587" r="4" fill="#0" id="circle14"/>
	<circle cx="78.2762" cy="203.72" r="4" fill="#0" id="circle15"/>
	<circle cx="88.1797" cy="15.5541" r="4" fill="#0" id="circle16"/>
	<circle cx="88.1797" cy="216.925" r="4" fill="#0" id="circle17"/>
	<circle cx="101.384" cy="4" r="4" fill="#0" id="circle18"/>
	<circle cx="101.384" cy="228.479" r="4" fill="#0" id="circle19"/>
	<circle cx="111.288" cy="241.684" r="4" fill="#0" id="circle20"/>
	<circle cx="112.938" cy="17.2047" r="4" fill="#0" id="circle21"/>
	<circle cx="112.938" cy="33.7105" r="4" fill="#0" id="circle22"/>
	<circle cx="119.541" cy="256.539" r="4" fill="#0" id="circle23"/>
	<circle cx="127.794" cy="41.9634" r="4" fill="#0" id="circle24"/>
	<circle cx="127.794" cy="271.394" r="4" fill="#0" id="circle25"/>
	<circle cx="136.047" cy="286.25" r="4" fill="#0" id="circle26"/>
	<circle cx="144.3" cy="45.2646" r="4" fill="#0" id="circle27"/>
	<circle cx="145.95" cy="299.454" r="4" fill="#0" id="circle28"/>
	<circle cx="157.504" cy="55.1681" r="4" fill="#0" id="circle29"/>
	<circle cx="159.155" cy="311.008" r="4" fill="#0" id="circle30"/>
	<circle cx="165.757" cy="327.514" r="4" fill="#0" id="circle31"/>
	<circle cx="169.058" cy="570.15" r="4" fill="#0" id="circle32"/>
	<circle cx="174.01" cy="61.7704" r="4" fill="#0" id="circle33"/>
	<circle cx="177.311" cy="585.005" r="4" fill="#0" id="circle34"/>
	<circle cx="178.962" cy="339.068" r="4" fill="#0" id="circle35"/>
	<circle cx="182.263" cy="556.945" r="4" fill="#0" id="circle36"/>
	<circle cx="185.564" cy="74.975" r="4" fill="#0" id="circle37"/>
	<circle cx="185.564" cy="355.574" r="4" fill="#0" id="circle38"/>
	<circle cx="193.817" cy="370.429" r="4" fill="#0" id="circle39"/>
	<circle cx="193.817" cy="591.607" r="4" fill="#0" id="circle40"/>
	<circle cx="195.468" cy="88.1797" r="4" fill="#0" id="circle41"/>
	<circle cx="198.769" cy="548.692" r="4" fill="#0" id="circle42"/>
	<circle cx="202.07" cy="512.379" r="4" fill="#0" id="circle43"/>
	<circle cx="202.07" cy="528.885" r="4" fill="#0" id="circle44"/>
	<circle cx="208.672" cy="98.0832" r="4" fill="#0" id="circle45"/>
	<circle cx="210.323" cy="377.032" r="4" fill="#0" id="circle46"/>
	<circle cx="210.323" cy="393.537" r="4" fill="#0" id="circle47"/>
	<circle cx="210.323" cy="479.368" r="4" fill="#0" id="circle48"/>
	<circle cx="210.323" cy="495.874" r="4" fill="#0" id="circle49"/>
	<circle cx="210.323" cy="591.607" r="4" fill="#0" id="circle50"/>
	<circle cx="218.576" cy="408.393" r="4" fill="#0" id="circle51"/>
	<circle cx="218.576" cy="424.899" r="4" fill="#0" id="circle52"/>
	<circle cx="218.576" cy="441.404" r="4" fill="#0" id="circle53"/>
	<circle cx="218.576" cy="457.91" r="4" fill="#0" id="circle54"/>
	<circle cx="225.178" cy="104.686" r="4" fill="#0" id="circle55"/>
	<circle cx="225.178" cy="583.354" r="4" fill="#0" id="circle56"/>
	<circle cx="235.082" cy="611.414" r="4" fill="#0" id="circle57"/>
	<circle cx="240.033" cy="112.938" r="4" fill="#0" id="circle58"/>
	<circle cx="240.033" cy="573.451" r="4" fill="#0" id="circle59"/>
	<circle cx="244.985" cy="624.619" r="4" fill="#0" id="circle60"/>
	<circle cx="248.286" cy="556.945" r="4" fill="#0" id="circle61"/>
	<circle cx="248.286" cy="598.21" r="4" fill="#0" id="circle62"/>
	<circle cx="253.238" cy="533.837" r="4" fill="#0" id="circle63"/>
	<circle cx="256.539" cy="119.541" r="4" fill="#0" id="circle64"/>
	<circle cx="259.84" cy="632.872" r="4" fill="#0" id="circle65"/>
	<circle cx="261.491" cy="500.825" r="4" fill="#0" id="circle66"/>
	<circle cx="261.491" cy="517.331" r="4" fill="#0" id="circle67"/>
	<circle cx="261.491" cy="585.005" r="4" fill="#0" id="circle68"/>
	<circle cx="271.394" cy="127.794" r="4" fill="#0" id="circle69"/>
	<circle cx="274.696" cy="573.451" r="4" fill="#0" id="circle70"/>
	<circle cx="276.346" cy="492.572" r="4" fill="#0" id="circle71"/>
	<circle cx="276.346" cy="537.138" r="4" fill="#0" id="circle72"/>
	<circle cx="276.346" cy="553.644" r="4" fill="#0" id="circle73"/>
	<circle cx="276.346" cy="627.92" r="4" fill="#0" id="circle74"/>
	<circle cx="284.599" cy="507.428" r="4" fill="#0" id="circle75"/>
	<circle cx="286.25" cy="119.541" r="4" fill="#0" id="circle76"/>
	<circle cx="292.852" cy="619.667" r="4" fill="#0" id="circle77"/>
	<circle cx="301.105" cy="603.161" r="4" fill="#0" id="circle78"/>
	<circle cx="302.755" cy="119.541" r="4" fill="#0" id="circle79"/>
	<circle cx="311.008" cy="583.354" r="4" fill="#0" id="circle80"/>
	<circle cx="319.261" cy="114.589" r="4" fill="#0" id="circle81"/>
	<circle cx="319.261" cy="566.849" r="4" fill="#0" id="circle82"/>
	<circle cx="327.514" cy="542.09" r="4" fill="#0" id="circle83"/>
	<circle cx="335.767" cy="111.288" r="4" fill="#0" id="circle84"/>
	<circle cx="335.767" cy="509.078" r="4" fill="#0" id="circle85"/>
	<circle cx="335.767" cy="525.584" r="4" fill="#0" id="circle86"/>
	<circle cx="344.02" cy="492.572" r="4" fill="#0" id="circle87"/>
	<circle cx="352.273" cy="111.288" r="4" fill="#0" id="circle88"/>
	<circle cx="352.273" cy="467.814" r="4" fill="#0" id="circle89"/>
	<circle cx="360.526" cy="434.802" r="4" fill="#0" id="circle90"/>
	<circle cx="360.526" cy="451.308" r="4" fill="#0" id="circle91"/>
	<circle cx="368.779" cy="106.336" r="4" fill="#0" id="circle92"/>
	<circle cx="368.779" cy="410.043" r="4" fill="#0" id="circle93"/>
	<circle cx="381.983" cy="398.489" r="4" fill="#0" id="circle94"/>
	<circle cx="385.285" cy="103.035" r="4" fill="#0" id="circle95"/>
	<circle cx="398.489" cy="401.79" r="4" fill="#0" id="circle96"/>
	<circle cx="401.79" cy="103.035" r="4" fill="#0" id="circle97"/>
	<circle cx="414.995" cy="401.79" r="4" fill="#0" id="circle98"/>
	<circle cx="416.646" cy="94.782" r="4" fill="#0" id="circle99"/>
	<circle cx="429.85" cy="393.537" r="4" fill="#0" id="circle100"/>
	<circle cx="433.151" cy="94.782" r="4" fill="#0" id="circle101"/>
	<circle cx="446.356" cy="393.537" r="4" fill="#0" id="circle102"/>
	<circle cx="449.657" cy="94.782" r="4" fill="#0" id="circle103"/>
	<circle cx="462.862" cy="393.537" r="4" fill="#0" id="circle104"/>
	<circle cx="464.512" cy="86.5291" r="4" fill="#0" id="circle105"/>
	<circle cx="479.368" cy="393.537" r="4" fill="#0" id="circle106"/>
	<circle cx="481.018" cy="86.5291" r="4" fill="#0" id="circle107"/>
	<circle cx="495.874" cy="393.537" r="4" fill="#0" id="circle108"/>
	<circle cx="497.524" cy="86.5291" r="4" fill="#0" id="circle109"/>
	<circle cx="512.379" cy="393.537" r="4" fill="#0" id="circle110"/>
	<circle cx="514.03" cy="86.5291" r="4" fill="#0" id="circle111"/>
	<circle cx="523.933" cy="561.897" r="4" fill="#0" id="circle112"/>
	<circle cx="528.885" cy="393.537" r="4" fill="#0" id="circle113"/>
	<circle cx="530.536" cy="86.5291" r="4" fill="#0" id="circle114"/>
	<circle cx="532.186" cy="576.752" r="4" fill="#0" id="circle115"/>
	<circle cx="540.439" cy="553.644" r="4" fill="#0" id="circle116"/>
	<circle cx="542.09" cy="405.092" r="4" fill="#0" id="circle117"/>
	<circle cx="547.042" cy="86.5291" r="4" fill="#0" id="circle118"/>
	<circle cx="548.692" cy="583.354" r="4" fill="#0" id="circle119"/>
	<circle cx="553.644" cy="418.296" r="4" fill="#0" id="circle120"/>
	<circle cx="553.644" cy="540.439" r="4" fill="#0" id="circle121"/>
	<circle cx="563.547" cy="86.5291" r="4" fill="#0" id="circle122"/>
	<circle cx="565.198" cy="583.354" r="4" fill="#0" id="circle123"/>
	<circle cx="566.849" cy="429.85" r="4" fill="#0" id="circle124"/>
	<circle cx="570.15" cy="532.186" r="4" fill="#0" id="circle125"/>
	<circle cx="578.403" cy="94.782" r="4" fill="#0" id="circle126"/>
	<circle cx="578.403" cy="443.055" r="4" fill="#0" id="circle127"/>
	<circle cx="581.704" cy="459.561" r="4" fill="#0" id="circle128"/>
	<circle cx="581.704" cy="583.354" r="4" fill="#0" id="circle129"/>
	<circle cx="583.354" cy="518.982" r="4" fill="#0" id="circle130"/>
	<circle cx="591.607" cy="472.765" r="4" fill="#0" id="circle131"/>
	<circle cx="591.607" cy="502.476" r="4" fill="#0" id="circle132"/>
	<circle cx="594.908" cy="94.782" r="4" fill="#0" id="circle133"/>
	<circle cx="596.559" cy="575.101" r="4" fill="#0" id="circle134"/>
	<circle cx="609.764" cy="103.035" r="4" fill="#0" id="circle135"/>
	<circle cx="611.414" cy="565.198" r="4" fill="#0" id="circle136"/>
	<circle cx="624.619" cy="542.09" r="4" fill="#0" id="circle137"/>
	<circle cx="626.27" cy="103.035" r="4" fill="#0" id="circle138"/>
	<circle cx="639.474" cy="533.837" r="4" fill="#0" id="circle139"/>
	<circle cx="639.474" cy="594.908" r="4" fill="#0" id="circle140"/>
	<circle cx="639.474" cy="611.414" r="4" fill="#0" id="circle141"/>
	<circle cx="642.775" cy="104.686" r="4" fill="#0" id="circle142"/>
	<circle cx="649.378" cy="517.331" r="4" fill="#0" id="circle143"/>
	<circle cx="652.679" cy="622.968" r="4" fill="#0" id="circle144"/>
	<circle cx="655.98" cy="586.656" r="4" fill="#0" id="circle145"/>
	<circle cx="657.631" cy="500.825" r="4" fill="#0" id="circle146"/>
	<circle cx="659.281" cy="111.288" r="4" fill="#0" id="circle147"/>
	<circle cx="669.185" cy="624.619" r="4" fill="#0" id="circle148"/>
	<circle cx="670.835" cy="489.271" r="4" fill="#0" id="circle149"/>
	<circle cx="672.486" cy="570.15" r="4" fill="#0" id="circle150"/>
	<circle cx="674.136" cy="119.541" r="4" fill="#0" id="circle151"/>
	<circle cx="684.04" cy="616.366" r="4" fill="#0" id="circle152"/>
	<circle cx="685.691" cy="556.945" r="4" fill="#0" id="circle153"/>
	<circle cx="687.341" cy="492.572" r="4" fill="#0" id="circle154"/>
	<circle cx="688.992" cy="509.078" r="4" fill="#0" id="circle155"/>
	<circle cx="688.992" cy="528.885" r="4" fill="#0" id="circle156"/>
	<circle cx="690.642" cy="124.493" r="4" fill="#0" id="circle157"/>
	<circle cx="698.895" cy="608.113" r="4" fill="#0" id="circle158"/>
	<circle cx="707.148" cy="127.794" r="4" fill="#0" id="circle159"/>
	<circle cx="712.1" cy="596.559" r="4" fill="#0" id="circle160"/>
	<circle cx="723.654" cy="132.745" r="4" fill="#0" id="circle161"/>
	<circle cx="723.654" cy="575.101" r="4" fill="#0" id="circle162"/>
	<circle cx="731.907" cy="558.596" r="4" fill="#0" id="circle163"/>
	<circle cx="740.16" cy="136.047" r="4" fill="#0" id="circle164"/>
	<circle cx="740.16" cy="311.008" r="4" fill="#0" id="circle165"/>
	<circle cx="740.16" cy="327.514" r="4" fill="#0" id="circle166"/>
	<circle cx="740.16" cy="344.02" r="4" fill="#0" id="circle167"/>
	<circle cx="740.16" cy="360.526" r="4" fill="#0" id="circle168"/>
	<circle cx="740.16" cy="377.032" r="4" fill="#0" id="circle169"/>
	<circle cx="740.16" cy="393.537" r="4" fill="#0" id="circle170"/>
	<circle cx="740.16" cy="410.043" r="4" fill="#0" id="circle171"/>
	<circle cx="740.16" cy="426.549" r="4" fill="#0" id="circle172"/>
	<circle cx="740.16" cy="542.09" r="4" fill="#0" id="circle173"/>
	<circle cx="743.461" cy="443.055" r="4" fill="#0" id="circle174"/>
	<circle cx="748.413" cy="459.561" r="4" fill="#0" id="circle175"/>
	<circle cx="748.413" cy="525.584" r="4" fill="#0" id="circle176"/>
	<circle cx="753.364" cy="299.454" r="4" fill="#0" id="circle177"/>
	<circle cx="756.666" cy="136.047" r="4" fill="#0" id="circle178"/>
	<circle cx="756.666" cy="277.997" r="4" fill="#0" id="circle179"/>
	<circle cx="756.666" cy="474.416" r="4" fill="#0" id="circle180"/>
	<circle cx="756.666" cy="509.078" r="4" fill="#0" id="circle181"/>
	<circle cx="764.918" cy="261.491" r="4" fill="#0" id="circle182"/>
	<circle cx="764.918" cy="489.271" r="4" fill="#0" id="circle183"/>
	<circle cx="773.171" cy="136.047" r="4" fill="#0" id="circle184"/>
	<circle cx="773.171" cy="203.72" r="4" fill="#0" id="circle185"/>
	<circle cx="773.171" cy="220.226" r="4" fill="#0" id="circle186"/>
	<circle cx="773.171" cy="236.732" r="4" fill="#0" id="circle187"/>
	<circle cx="788.027" cy="144.3" r="4" fill="#0" id="circle188"/>
	<circle cx="789.677" cy="203.72" r="4" fill="#0" id="circle189"/>
	<circle cx="804.532" cy="144.3" r="4" fill="#0" id="circle190"/>
	<circle cx="804.532" cy="211.973" r="4" fill="#0" id="circle191"/>
	<circle cx="814.436" cy="225.178" r="4" fill="#0" id="circle192"/>
	<circle cx="819.388" cy="152.552" r="4" fill="#0" id="circle193"/>
	<circle cx="827.641" cy="236.732" r="4" fill="#0" id="circle194"/>
	<circle cx="834.243" cy="160.805" r="4" fill="#0" id="circle195"/>
	<circle cx="842.496" cy="244.985" r="4" fill="#0" id="circle196"/>
	<circle cx="849.098" cy="169.058" r="4" fill="#0" id="circle197"/>
	<circle cx="850.749" cy="259.84" r="4" fill="#0" id="circle198"/>
	<circle cx="863.953" cy="177.311" r="4" fill="#0" id="circle199"/>
	<circle cx="863.953" cy="269.744" r="4" fill="#0" id="circle200"/>
	<circle cx="870.556" cy="286.25" r="4" fill="#0" id="circle201"/>
	<circle cx="872.206" cy="192.166" r="4" fill="#0" id="circle202"/>
	<circle cx="880.459" cy="299.454" r="4" fill="#0" id="circle203"/>
	<circle cx="885.411" cy="203.72" r="4" fill="#0" id="circle204"/>
	<circle cx="892.013" cy="220.226" r="4" fill="#0" id="circle205"/>
	<circle cx="893.664" cy="311.008" r="4" fill="#0" id="circle206"/>
	<circle cx="905.218" cy="231.78" r="4" fill="#0" id="circle207"/>
	<circle cx="905.218" cy="324.213" r="4" fill="#0" id="circle208"/>
	<circle cx="911.82" cy="248.286" r="4" fill="#0" id="circle209"/>
	<circle cx="913.471" cy="339.068" r="4" fill="#0" id="circle210"/>
	<circle cx="925.025" cy="259.84" r="4" fill="#0" id="circle211"/>
	<circle cx="925.025" cy="352.273" r="4" fill="#0" id="circle212"/>
	<circle cx="936.579" cy="273.045" r="4" fill="#0" id="circle213"/>
	<circle cx="938.23" cy="363.827" r="4" fill="#0" id="circle214"/>
	<circle cx="944.832" cy="287.9" r="4" fill="#0" id="circle215"/>
	<circle cx="953.085" cy="372.08" r="4" fill="#0" id="circle216"/>
	<circle cx="954.735" cy="301.105" r="4" fill="#0" id="circle217"/>
	<circle cx="962.988" cy="315.96" r="4" fill="#0" id="circle218"/>
	<circle cx="966.29" cy="383.634" r="4" fill="#0" id="circle219"/>
	<circle cx="971.241" cy="330.815" r="4" fill="#0" id="circle220"/>
	<circle cx="982.795" cy="383.634" r="4" fill="#0" id="circle221"/>
	<circle cx="984.446" cy="342.369" r="4" fill="#0" id="circle222"/>
	<circle cx="996" cy="355.574" r="4" fill="#0" id="circle223"/>
	<circle cx="996" cy="372.08" r="4" fill="#0" id="circle224"/>
	</g>
</svg>