<?xml version="1.0" encoding="UTF-8" standalone="no"?>
<!-- Created with CurveBenchmark -->
<svg
	xmlns:dc="http://purl.org/dc/elements/1.1/"
	xmlns:cc="http://creativecommons.org/ns#"
	xmlns:rdf="http://www.w3.org/1999/02/22-rdf-syntax-ns#"
	xmlns:svg="http://www.w3.org/2000/svg"
	xmlns="http://www.w3.org/2000/svg"
	xmlns:sodipodi="http://sodipodi.sourceforge.net/DTD/sodipodi-0.dtd"
	xmlns:inkscape="http://www.inkscape.org/namespaces/inkscape"
	width="1000"
	height="1000"
	id="svg2"
	version="1.1"
	sodipodi:docname="manifold/gathang-fork24.png.txt">
<defs
	id="defs4" />
<metadata
	id="metadata7">
	<rdf:RDF>
		<cc:Work
			rdf:about="">
			<dc:format>image/svg+xml</dc:format>
			<dc:type
				rdf:resource="http://purl.org/dc/dcmitype/StillImage" />
			<dc:title></dc:title>
		</cc:Work>
	</rdf:RDF>
</metadata>
<g
	inkscape:label="Layer 1"
	inkscape:groupmode="layer"
	id="layer1">
	<path style="fill:none;stroke:red;stroke-width:1px;stroke-linecap:butt;stroke-linejoin:miter;stroke-opacity:1" d="M 68.2302,266.273 82.5036,253.784 z" id="boundary" inkscape:connector-curvature="0" />
	<path style="fill:none;stroke:red;stroke-width:1px;stroke-linecap:butt;stroke-linejoin:miter;stroke-opacity:1" d="M 53.9568,280.547 68.2302,266.273 z" id="boundary" inkscape:connector-curvature="0" />
	<path style="fill:none;stroke:red;stroke-width:1px;stroke-linecap:butt;stroke-linejoin:miter;stroke-opacity:1" d="M 21.8417,303.741 36.1151,289.468 z" id="boundary" inkscape:connector-curvature="0" />
	<path style="fill:none;stroke:red;stroke-width:1px;stroke-linecap:butt;stroke-linejoin:miter;stroke-opacity:1" d="M 21.8417,303.741 4,312.662 z" id="boundary" inkscape:connector-curvature="0" />
	<path style="fill:none;stroke:red;stroke-width:1px;stroke-linecap:butt;stroke-linejoin:miter;stroke-opacity:1" d="M 53.9568,280.547 36.1151,289.468 z" id="boundary" inkscape:connector-curvature="0" />
	<path style="fill:none;stroke:red;stroke-width:1px;stroke-linecap:butt;stroke-linejoin:miter;stroke-opacity:1" d="M 82.5036,253.784 98.5612,244.863 z" id="boundary" inkscape:connector-curvature="0" />
	<path style="fill:none;stroke:red;stroke-width:1px;stroke-linecap:butt;stroke-linejoin:miter;stroke-opacity:1" d="M 116.403,244.863 134.245,235.942 z" id="boundary" inkscape:connector-curvature="0" />
	<path style="fill:none;stroke:red;stroke-width:1px;stroke-linecap:butt;stroke-linejoin:miter;stroke-opacity:1" d="M 116.403,244.863 98.5612,244.863 z" id="boundary" inkscape:connector-curvature="0" />
	<path style="fill:none;stroke:red;stroke-width:1px;stroke-linecap:butt;stroke-linejoin:miter;stroke-opacity:1" d="M 152.086,227.022 134.245,235.942 z" id="boundary" inkscape:connector-curvature="0" />
	<path style="fill:none;stroke:red;stroke-width:1px;stroke-linecap:butt;stroke-linejoin:miter;stroke-opacity:1" d="M 103.914,291.252 121.755,282.331 z" id="boundary" inkscape:connector-curvature="0" />
	<path style="fill:none;stroke:red;stroke-width:1px;stroke-linecap:butt;stroke-linejoin:miter;stroke-opacity:1" d="M 121.755,282.331 139.597,273.41 z" id="boundary" inkscape:connector-curvature="0" />
	<path style="fill:none;stroke:red;stroke-width:1px;stroke-linecap:butt;stroke-linejoin:miter;stroke-opacity:1" d="M 157.439,273.41 139.597,273.41 z" id="boundary" inkscape:connector-curvature="0" />
	<path style="fill:none;stroke:red;stroke-width:1px;stroke-linecap:butt;stroke-linejoin:miter;stroke-opacity:1" d="M 182.417,334.072 166.36,342.993 z" id="boundary" inkscape:connector-curvature="0" />
	<path style="fill:none;stroke:red;stroke-width:1px;stroke-linecap:butt;stroke-linejoin:miter;stroke-opacity:1" d="M 103.914,291.252 91.4245,305.525 z" id="boundary" inkscape:connector-curvature="0" />
	<path style="fill:none;stroke:red;stroke-width:1px;stroke-linecap:butt;stroke-linejoin:miter;stroke-opacity:1" d="M 12.9209,328.719 4,312.662 z" id="boundary" inkscape:connector-curvature="0" />
	<path style="fill:none;stroke:red;stroke-width:1px;stroke-linecap:butt;stroke-linejoin:miter;stroke-opacity:1" d="M 77.1511,318.014 70.0144,335.856 z" id="boundary" inkscape:connector-curvature="0" />
	<path style="fill:none;stroke:red;stroke-width:1px;stroke-linecap:butt;stroke-linejoin:miter;stroke-opacity:1" d="M 70.0144,335.856 53.9568,344.777 z" id="boundary" inkscape:connector-curvature="0" />
	<path style="fill:none;stroke:red;stroke-width:1px;stroke-linecap:butt;stroke-linejoin:miter;stroke-opacity:1" d="M 53.9568,344.777 37.8993,353.698 z" id="boundary" inkscape:connector-curvature="0" />
	<path style="fill:none;stroke:red;stroke-width:1px;stroke-linecap:butt;stroke-linejoin:miter;stroke-opacity:1" d="M 37.8993,353.698 21.8417,344.777 z" id="boundary" inkscape:connector-curvature="0" />
	<path style="fill:none;stroke:red;stroke-width:1px;stroke-linecap:butt;stroke-linejoin:miter;stroke-opacity:1" d="M 21.8417,344.777 12.9209,328.719 z" id="boundary" inkscape:connector-curvature="0" />
	<path style="fill:none;stroke:red;stroke-width:1px;stroke-linecap:butt;stroke-linejoin:miter;stroke-opacity:1" d="M 77.1511,318.014 91.4245,305.525 z" id="boundary" inkscape:connector-curvature="0" />
	<path style="fill:none;stroke:red;stroke-width:1px;stroke-linecap:butt;stroke-linejoin:miter;stroke-opacity:1" d="M 166.36,342.993 150.302,351.914 z" id="boundary" inkscape:connector-curvature="0" />
	<path style="fill:none;stroke:red;stroke-width:1px;stroke-linecap:butt;stroke-linejoin:miter;stroke-opacity:1" d="M 89.6403,396.518 98.5612,378.676 z" id="boundary" inkscape:connector-curvature="0" />
	<path style="fill:none;stroke:red;stroke-width:1px;stroke-linecap:butt;stroke-linejoin:miter;stroke-opacity:1" d="M 98.5612,378.676 116.403,369.755 z" id="boundary" inkscape:connector-curvature="0" />
	<path style="fill:none;stroke:red;stroke-width:1px;stroke-linecap:butt;stroke-linejoin:miter;stroke-opacity:1" d="M 134.245,360.835 150.302,351.914 z" id="boundary" inkscape:connector-curvature="0" />
	<path style="fill:none;stroke:red;stroke-width:1px;stroke-linecap:butt;stroke-linejoin:miter;stroke-opacity:1" d="M 134.245,360.835 116.403,369.755 z" id="boundary" inkscape:connector-curvature="0" />
	<path style="fill:none;stroke:red;stroke-width:1px;stroke-linecap:butt;stroke-linejoin:miter;stroke-opacity:1" d="M 175.281,264.489 157.439,273.41 z" id="boundary" inkscape:connector-curvature="0" />
	<path style="fill:none;stroke:red;stroke-width:1px;stroke-linecap:butt;stroke-linejoin:miter;stroke-opacity:1" d="M 169.928,227.022 185.986,218.101 z" id="boundary" inkscape:connector-curvature="0" />
	<path style="fill:none;stroke:red;stroke-width:1px;stroke-linecap:butt;stroke-linejoin:miter;stroke-opacity:1" d="M 169.928,227.022 152.086,227.022 z" id="boundary" inkscape:connector-curvature="0" />
	<path style="fill:none;stroke:red;stroke-width:1px;stroke-linecap:butt;stroke-linejoin:miter;stroke-opacity:1" d="M 203.827,218.101 185.986,218.101 z" id="boundary" inkscape:connector-curvature="0" />
	<path style="fill:none;stroke:red;stroke-width:1px;stroke-linecap:butt;stroke-linejoin:miter;stroke-opacity:1" d="M 219.885,209.18 203.827,218.101 z" id="boundary" inkscape:connector-curvature="0" />
	<path style="fill:none;stroke:red;stroke-width:1px;stroke-linecap:butt;stroke-linejoin:miter;stroke-opacity:1" d="M 193.122,264.489 175.281,264.489 z" id="boundary" inkscape:connector-curvature="0" />
	<path style="fill:none;stroke:red;stroke-width:1px;stroke-linecap:butt;stroke-linejoin:miter;stroke-opacity:1" d="M 209.18,255.568 193.122,264.489 z" id="boundary" inkscape:connector-curvature="0" />
	<path style="fill:none;stroke:red;stroke-width:1px;stroke-linecap:butt;stroke-linejoin:miter;stroke-opacity:1" d="M 227.022,255.568 209.18,255.568 z" id="boundary" inkscape:connector-curvature="0" />
	<path style="fill:none;stroke:red;stroke-width:1px;stroke-linecap:butt;stroke-linejoin:miter;stroke-opacity:1" d="M 237.727,209.18 219.885,209.18 z" id="boundary" inkscape:connector-curvature="0" />
	<path style="fill:none;stroke:red;stroke-width:1px;stroke-linecap:butt;stroke-linejoin:miter;stroke-opacity:1" d="M 273.41,205.612 255.568,209.18 z" id="boundary" inkscape:connector-curvature="0" />
	<path style="fill:none;stroke:red;stroke-width:1px;stroke-linecap:butt;stroke-linejoin:miter;stroke-opacity:1" d="M 255.568,209.18 237.727,209.18 z" id="boundary" inkscape:connector-curvature="0" />
	<path style="fill:none;stroke:red;stroke-width:1px;stroke-linecap:butt;stroke-linejoin:miter;stroke-opacity:1" d="M 243.079,264.489 227.022,255.568 z" id="boundary" inkscape:connector-curvature="0" />
	<path style="fill:none;stroke:red;stroke-width:1px;stroke-linecap:butt;stroke-linejoin:miter;stroke-opacity:1" d="M 273.41,205.612 291.252,209.18 z" id="boundary" inkscape:connector-curvature="0" />
	<path style="fill:none;stroke:red;stroke-width:1px;stroke-linecap:butt;stroke-linejoin:miter;stroke-opacity:1" d="M 309.094,214.532 291.252,209.18 z" id="boundary" inkscape:connector-curvature="0" />
	<path style="fill:none;stroke:red;stroke-width:1px;stroke-linecap:butt;stroke-linejoin:miter;stroke-opacity:1" d="M 326.935,218.101 309.094,214.532 z" id="boundary" inkscape:connector-curvature="0" />
	<path style="fill:none;stroke:red;stroke-width:1px;stroke-linecap:butt;stroke-linejoin:miter;stroke-opacity:1" d="M 253.784,316.23 235.942,316.23 z" id="boundary" inkscape:connector-curvature="0" />
	<path style="fill:none;stroke:red;stroke-width:1px;stroke-linecap:butt;stroke-linejoin:miter;stroke-opacity:1" d="M 235.942,316.23 218.101,321.583 z" id="boundary" inkscape:connector-curvature="0" />
	<path style="fill:none;stroke:red;stroke-width:1px;stroke-linecap:butt;stroke-linejoin:miter;stroke-opacity:1" d="M 243.079,264.489 259.137,273.41 z" id="boundary" inkscape:connector-curvature="0" />
	<path style="fill:none;stroke:red;stroke-width:1px;stroke-linecap:butt;stroke-linejoin:miter;stroke-opacity:1" d="M 200.259,328.719 182.417,334.072 z" id="boundary" inkscape:connector-curvature="0" />
	<path style="fill:none;stroke:red;stroke-width:1px;stroke-linecap:butt;stroke-linejoin:miter;stroke-opacity:1" d="M 218.101,321.583 200.259,328.719 z" id="boundary" inkscape:connector-curvature="0" />
	<path style="fill:none;stroke:red;stroke-width:1px;stroke-linecap:butt;stroke-linejoin:miter;stroke-opacity:1" d="M 259.137,273.41 276.978,273.41 z" id="boundary" inkscape:connector-curvature="0" />
	<path style="fill:none;stroke:red;stroke-width:1px;stroke-linecap:butt;stroke-linejoin:miter;stroke-opacity:1" d="M 276.978,273.41 294.82,273.41 z" id="boundary" inkscape:connector-curvature="0" />
	<path style="fill:none;stroke:red;stroke-width:1px;stroke-linecap:butt;stroke-linejoin:miter;stroke-opacity:1" d="M 271.626,312.662 289.468,312.662 z" id="boundary" inkscape:connector-curvature="0" />
	<path style="fill:none;stroke:red;stroke-width:1px;stroke-linecap:butt;stroke-linejoin:miter;stroke-opacity:1" d="M 318.014,400.086 300.173,409.007 z" id="boundary" inkscape:connector-curvature="0" />
	<path style="fill:none;stroke:red;stroke-width:1px;stroke-linecap:butt;stroke-linejoin:miter;stroke-opacity:1" d="M 289.468,312.662 307.309,307.309 z" id="boundary" inkscape:connector-curvature="0" />
	<path style="fill:none;stroke:red;stroke-width:1px;stroke-linecap:butt;stroke-linejoin:miter;stroke-opacity:1" d="M 253.784,316.23 271.626,312.662 z" id="boundary" inkscape:connector-curvature="0" />
	<path style="fill:none;stroke:red;stroke-width:1px;stroke-linecap:butt;stroke-linejoin:miter;stroke-opacity:1" d="M 294.82,273.41 310.878,282.331 z" id="boundary" inkscape:connector-curvature="0" />
	<path style="fill:none;stroke:red;stroke-width:1px;stroke-linecap:butt;stroke-linejoin:miter;stroke-opacity:1" d="M 321.583,371.54 303.741,371.54 z" id="boundary" inkscape:connector-curvature="0" />
	<path style="fill:none;stroke:red;stroke-width:1px;stroke-linecap:butt;stroke-linejoin:miter;stroke-opacity:1" d="M 303.741,371.54 285.899,378.676 z" id="boundary" inkscape:connector-curvature="0" />
	<path style="fill:none;stroke:red;stroke-width:1px;stroke-linecap:butt;stroke-linejoin:miter;stroke-opacity:1" d="M 80.7194,414.36 66.446,428.633 z" id="boundary" inkscape:connector-curvature="0" />
	<path style="fill:none;stroke:red;stroke-width:1px;stroke-linecap:butt;stroke-linejoin:miter;stroke-opacity:1" d="M 89.6403,396.518 80.7194,414.36 z" id="boundary" inkscape:connector-curvature="0" />
	<path style="fill:none;stroke:red;stroke-width:1px;stroke-linecap:butt;stroke-linejoin:miter;stroke-opacity:1" d="M 80.7194,441.122 66.446,428.633 z" id="boundary" inkscape:connector-curvature="0" />
	<path style="fill:none;stroke:red;stroke-width:1px;stroke-linecap:butt;stroke-linejoin:miter;stroke-opacity:1" d="M 98.5612,442.906 80.7194,441.122 z" id="boundary" inkscape:connector-curvature="0" />
	<path style="fill:none;stroke:red;stroke-width:1px;stroke-linecap:butt;stroke-linejoin:miter;stroke-opacity:1" d="M 116.403,442.906 98.5612,442.906 z" id="boundary" inkscape:connector-curvature="0" />
	<path style="fill:none;stroke:red;stroke-width:1px;stroke-linecap:butt;stroke-linejoin:miter;stroke-opacity:1" d="M 132.46,433.986 116.403,442.906 z" id="boundary" inkscape:connector-curvature="0" />
	<path style="fill:none;stroke:red;stroke-width:1px;stroke-linecap:butt;stroke-linejoin:miter;stroke-opacity:1" d="M 168.144,425.065 150.302,430.417 z" id="boundary" inkscape:connector-curvature="0" />
	<path style="fill:none;stroke:red;stroke-width:1px;stroke-linecap:butt;stroke-linejoin:miter;stroke-opacity:1" d="M 150.302,430.417 132.46,433.986 z" id="boundary" inkscape:connector-curvature="0" />
	<path style="fill:none;stroke:red;stroke-width:1px;stroke-linecap:butt;stroke-linejoin:miter;stroke-opacity:1" d="M 185.986,425.065 202.043,416.144 z" id="boundary" inkscape:connector-curvature="0" />
	<path style="fill:none;stroke:red;stroke-width:1px;stroke-linecap:butt;stroke-linejoin:miter;stroke-opacity:1" d="M 185.986,425.065 168.144,425.065 z" id="boundary" inkscape:connector-curvature="0" />
	<path style="fill:none;stroke:red;stroke-width:1px;stroke-linecap:butt;stroke-linejoin:miter;stroke-opacity:1" d="M 218.101,407.223 202.043,416.144 z" id="boundary" inkscape:connector-curvature="0" />
	<path style="fill:none;stroke:red;stroke-width:1px;stroke-linecap:butt;stroke-linejoin:miter;stroke-opacity:1" d="M 209.18,482.158 191.338,491.079 z" id="boundary" inkscape:connector-curvature="0" />
	<path style="fill:none;stroke:red;stroke-width:1px;stroke-linecap:butt;stroke-linejoin:miter;stroke-opacity:1" d="M 164.576,560.662 155.655,544.604 z" id="boundary" inkscape:connector-curvature="0" />
	<path style="fill:none;stroke:red;stroke-width:1px;stroke-linecap:butt;stroke-linejoin:miter;stroke-opacity:1" d="M 164.576,517.842 155.655,544.604 z" id="boundary" inkscape:connector-curvature="0" />
	<path style="fill:none;stroke:red;stroke-width:1px;stroke-linecap:butt;stroke-linejoin:miter;stroke-opacity:1" d="M 182.417,508.921 164.576,517.842 z" id="boundary" inkscape:connector-curvature="0" />
	<path style="fill:none;stroke:red;stroke-width:1px;stroke-linecap:butt;stroke-linejoin:miter;stroke-opacity:1" d="M 191.338,491.079 182.417,508.921 z" id="boundary" inkscape:connector-curvature="0" />
	<path style="fill:none;stroke:red;stroke-width:1px;stroke-linecap:butt;stroke-linejoin:miter;stroke-opacity:1" d="M 191.338,624.892 182.417,651.655 z" id="boundary" inkscape:connector-curvature="0" />
	<path style="fill:none;stroke:red;stroke-width:1px;stroke-linecap:butt;stroke-linejoin:miter;stroke-opacity:1" d="M 198.475,558.878 182.417,567.799 z" id="boundary" inkscape:connector-curvature="0" />
	<path style="fill:none;stroke:red;stroke-width:1px;stroke-linecap:butt;stroke-linejoin:miter;stroke-opacity:1" d="M 182.417,567.799 164.576,560.662 z" id="boundary" inkscape:connector-curvature="0" />
	<path style="fill:none;stroke:red;stroke-width:1px;stroke-linecap:butt;stroke-linejoin:miter;stroke-opacity:1" d="M 214.532,549.957 198.475,558.878 z" id="boundary" inkscape:connector-curvature="0" />
	<path style="fill:none;stroke:red;stroke-width:1px;stroke-linecap:butt;stroke-linejoin:miter;stroke-opacity:1" d="M 230.59,541.036 214.532,549.957 z" id="boundary" inkscape:connector-curvature="0" />
	<path style="fill:none;stroke:red;stroke-width:1px;stroke-linecap:butt;stroke-linejoin:miter;stroke-opacity:1" d="M 227.022,607.05 209.18,615.971 z" id="boundary" inkscape:connector-curvature="0" />
	<path style="fill:none;stroke:red;stroke-width:1px;stroke-linecap:butt;stroke-linejoin:miter;stroke-opacity:1" d="M 200.259,657.007 182.417,651.655 z" id="boundary" inkscape:connector-curvature="0" />
	<path style="fill:none;stroke:red;stroke-width:1px;stroke-linecap:butt;stroke-linejoin:miter;stroke-opacity:1" d="M 191.338,624.892 209.18,615.971 z" id="boundary" inkscape:connector-curvature="0" />
	<path style="fill:none;stroke:red;stroke-width:1px;stroke-linecap:butt;stroke-linejoin:miter;stroke-opacity:1" d="M 216.317,665.928 200.259,657.007 z" id="boundary" inkscape:connector-curvature="0" />
	<path style="fill:none;stroke:red;stroke-width:1px;stroke-linecap:butt;stroke-linejoin:miter;stroke-opacity:1" d="M 234.158,662.36 216.317,665.928 z" id="boundary" inkscape:connector-curvature="0" />
	<path style="fill:none;stroke:red;stroke-width:1px;stroke-linecap:butt;stroke-linejoin:miter;stroke-opacity:1" d="M 271.626,437.554 253.784,446.475 z" id="boundary" inkscape:connector-curvature="0" />
	<path style="fill:none;stroke:red;stroke-width:1px;stroke-linecap:butt;stroke-linejoin:miter;stroke-opacity:1" d="M 232.374,396.518 218.101,407.223 z" id="boundary" inkscape:connector-curvature="0" />
	<path style="fill:none;stroke:red;stroke-width:1px;stroke-linecap:butt;stroke-linejoin:miter;stroke-opacity:1" d="M 250.216,387.597 232.374,396.518 z" id="boundary" inkscape:connector-curvature="0" />
	<path style="fill:none;stroke:red;stroke-width:1px;stroke-linecap:butt;stroke-linejoin:miter;stroke-opacity:1" d="M 227.022,473.237 235.942,455.396 z" id="boundary" inkscape:connector-curvature="0" />
	<path style="fill:none;stroke:red;stroke-width:1px;stroke-linecap:butt;stroke-linejoin:miter;stroke-opacity:1" d="M 235.942,455.396 253.784,446.475 z" id="boundary" inkscape:connector-curvature="0" />
	<path style="fill:none;stroke:red;stroke-width:1px;stroke-linecap:butt;stroke-linejoin:miter;stroke-opacity:1" d="M 227.022,473.237 209.18,482.158 z" id="boundary" inkscape:connector-curvature="0" />
	<path style="fill:none;stroke:red;stroke-width:1px;stroke-linecap:butt;stroke-linejoin:miter;stroke-opacity:1" d="M 250.216,387.597 268.058,380.46 z" id="boundary" inkscape:connector-curvature="0" />
	<path style="fill:none;stroke:red;stroke-width:1px;stroke-linecap:butt;stroke-linejoin:miter;stroke-opacity:1" d="M 300.173,409.007 285.899,423.281 z" id="boundary" inkscape:connector-curvature="0" />
	<path style="fill:none;stroke:red;stroke-width:1px;stroke-linecap:butt;stroke-linejoin:miter;stroke-opacity:1" d="M 271.626,437.554 285.899,423.281 z" id="boundary" inkscape:connector-curvature="0" />
	<path style="fill:none;stroke:red;stroke-width:1px;stroke-linecap:butt;stroke-linejoin:miter;stroke-opacity:1" d="M 294.82,503.568 278.763,514.273 z" id="boundary" inkscape:connector-curvature="0" />
	<path style="fill:none;stroke:red;stroke-width:1px;stroke-linecap:butt;stroke-linejoin:miter;stroke-opacity:1" d="M 314.446,521.41 300.173,533.899 z" id="boundary" inkscape:connector-curvature="0" />
	<path style="fill:none;stroke:red;stroke-width:1px;stroke-linecap:butt;stroke-linejoin:miter;stroke-opacity:1" d="M 303.741,487.511 294.82,503.568 z" id="boundary" inkscape:connector-curvature="0" />
	<path style="fill:none;stroke:red;stroke-width:1px;stroke-linecap:butt;stroke-linejoin:miter;stroke-opacity:1" d="M 318.014,469.669 303.741,487.511 z" id="boundary" inkscape:connector-curvature="0" />
	<path style="fill:none;stroke:red;stroke-width:1px;stroke-linecap:butt;stroke-linejoin:miter;stroke-opacity:1" d="M 268.058,380.46 285.899,378.676 z" id="boundary" inkscape:connector-curvature="0" />
	<path style="fill:none;stroke:red;stroke-width:1px;stroke-linecap:butt;stroke-linejoin:miter;stroke-opacity:1" d="M 278.763,514.273 262.705,523.194 z" id="boundary" inkscape:connector-curvature="0" />
	<path style="fill:none;stroke:red;stroke-width:1px;stroke-linecap:butt;stroke-linejoin:miter;stroke-opacity:1" d="M 271.626,562.446 253.784,580.288 z" id="boundary" inkscape:connector-curvature="0" />
	<path style="fill:none;stroke:red;stroke-width:1px;stroke-linecap:butt;stroke-linejoin:miter;stroke-opacity:1" d="M 246.647,532.115 230.59,541.036 z" id="boundary" inkscape:connector-curvature="0" />
	<path style="fill:none;stroke:red;stroke-width:1px;stroke-linecap:butt;stroke-linejoin:miter;stroke-opacity:1" d="M 253.784,580.288 235.942,589.209 z" id="boundary" inkscape:connector-curvature="0" />
	<path style="fill:none;stroke:red;stroke-width:1px;stroke-linecap:butt;stroke-linejoin:miter;stroke-opacity:1" d="M 252,657.007 234.158,662.36 z" id="boundary" inkscape:connector-curvature="0" />
	<path style="fill:none;stroke:red;stroke-width:1px;stroke-linecap:butt;stroke-linejoin:miter;stroke-opacity:1" d="M 227.022,607.05 235.942,589.209 z" id="boundary" inkscape:connector-curvature="0" />
	<path style="fill:none;stroke:red;stroke-width:1px;stroke-linecap:butt;stroke-linejoin:miter;stroke-opacity:1" d="M 269.842,653.439 252,657.007 z" id="boundary" inkscape:connector-curvature="0" />
	<path style="fill:none;stroke:red;stroke-width:1px;stroke-linecap:butt;stroke-linejoin:miter;stroke-opacity:1" d="M 300.173,533.899 285.899,548.173 z" id="boundary" inkscape:connector-curvature="0" />
	<path style="fill:none;stroke:red;stroke-width:1px;stroke-linecap:butt;stroke-linejoin:miter;stroke-opacity:1" d="M 271.626,562.446 285.899,548.173 z" id="boundary" inkscape:connector-curvature="0" />
	<path style="fill:none;stroke:red;stroke-width:1px;stroke-linecap:butt;stroke-linejoin:miter;stroke-opacity:1" d="M 287.683,644.518 269.842,653.439 z" id="boundary" inkscape:connector-curvature="0" />
	<path style="fill:none;stroke:red;stroke-width:1px;stroke-linecap:butt;stroke-linejoin:miter;stroke-opacity:1" d="M 318.014,612.403 305.525,635.597 z" id="boundary" inkscape:connector-curvature="0" />
	<path style="fill:none;stroke:red;stroke-width:1px;stroke-linecap:butt;stroke-linejoin:miter;stroke-opacity:1" d="M 305.525,635.597 287.683,644.518 z" id="boundary" inkscape:connector-curvature="0" />
	<path style="fill:none;stroke:red;stroke-width:1px;stroke-linecap:butt;stroke-linejoin:miter;stroke-opacity:1" d="M 246.647,532.115 262.705,523.194 z" id="boundary" inkscape:connector-curvature="0" />
	<path style="fill:none;stroke:red;stroke-width:1px;stroke-linecap:butt;stroke-linejoin:miter;stroke-opacity:1" d="M 648.086,137.813 664.144,125.324 z" id="boundary" inkscape:connector-curvature="0" />
	<path style="fill:none;stroke:red;stroke-width:1px;stroke-linecap:butt;stroke-linejoin:miter;stroke-opacity:1" d="M 648.086,137.813 632.029,146.734 z" id="boundary" inkscape:connector-curvature="0" />
	<path style="fill:none;stroke:red;stroke-width:1px;stroke-linecap:butt;stroke-linejoin:miter;stroke-opacity:1" d="M 681.986,116.403 664.144,125.324 z" id="boundary" inkscape:connector-curvature="0" />
	<path style="fill:none;stroke:red;stroke-width:1px;stroke-linecap:butt;stroke-linejoin:miter;stroke-opacity:1" d="M 585.64,177.065 599.914,164.576 z" id="boundary" inkscape:connector-curvature="0" />
	<path style="fill:none;stroke:red;stroke-width:1px;stroke-linecap:butt;stroke-linejoin:miter;stroke-opacity:1" d="M 615.971,155.655 599.914,164.576 z" id="boundary" inkscape:connector-curvature="0" />
	<path style="fill:none;stroke:red;stroke-width:1px;stroke-linecap:butt;stroke-linejoin:miter;stroke-opacity:1" d="M 632.029,146.734 615.971,155.655 z" id="boundary" inkscape:connector-curvature="0" />
	<path style="fill:none;stroke:red;stroke-width:1px;stroke-linecap:butt;stroke-linejoin:miter;stroke-opacity:1" d="M 767.626,66.446 783.683,57.5252 z" id="boundary" inkscape:connector-curvature="0" />
	<path style="fill:none;stroke:red;stroke-width:1px;stroke-linecap:butt;stroke-linejoin:miter;stroke-opacity:1" d="M 783.683,57.5252 801.525,57.5252 z" id="boundary" inkscape:connector-curvature="0" />
	<path style="fill:none;stroke:red;stroke-width:1px;stroke-linecap:butt;stroke-linejoin:miter;stroke-opacity:1" d="M 767.626,66.446 749.784,75.3669 z" id="boundary" inkscape:connector-curvature="0" />
	<path style="fill:none;stroke:red;stroke-width:1px;stroke-linecap:butt;stroke-linejoin:miter;stroke-opacity:1" d="M 810.446,41.4676 801.525,57.5252 z" id="boundary" inkscape:connector-curvature="0" />
	<path style="fill:none;stroke:red;stroke-width:1px;stroke-linecap:butt;stroke-linejoin:miter;stroke-opacity:1" d="M 803.309,193.122 785.468,200.259 z" id="boundary" inkscape:connector-curvature="0" />
	<path style="fill:none;stroke:red;stroke-width:1px;stroke-linecap:butt;stroke-linejoin:miter;stroke-opacity:1" d="M 699.827,107.482 717.669,98.5612 z" id="boundary" inkscape:connector-curvature="0" />
	<path style="fill:none;stroke:red;stroke-width:1px;stroke-linecap:butt;stroke-linejoin:miter;stroke-opacity:1" d="M 731.942,84.2878 717.669,98.5612 z" id="boundary" inkscape:connector-curvature="0" />
	<path style="fill:none;stroke:red;stroke-width:1px;stroke-linecap:butt;stroke-linejoin:miter;stroke-opacity:1" d="M 731.942,84.2878 749.784,75.3669 z" id="boundary" inkscape:connector-curvature="0" />
	<path style="fill:none;stroke:red;stroke-width:1px;stroke-linecap:butt;stroke-linejoin:miter;stroke-opacity:1" d="M 699.827,107.482 681.986,116.403 z" id="boundary" inkscape:connector-curvature="0" />
	<path style="fill:none;stroke:red;stroke-width:1px;stroke-linecap:butt;stroke-linejoin:miter;stroke-opacity:1" d="M 517.842,209.18 500,218.101 z" id="boundary" inkscape:connector-curvature="0" />
	<path style="fill:none;stroke:red;stroke-width:1px;stroke-linecap:butt;stroke-linejoin:miter;stroke-opacity:1" d="M 535.683,200.259 517.842,209.18 z" id="boundary" inkscape:connector-curvature="0" />
	<path style="fill:none;stroke:red;stroke-width:1px;stroke-linecap:butt;stroke-linejoin:miter;stroke-opacity:1" d="M 485.727,232.374 500,218.101 z" id="boundary" inkscape:connector-curvature="0" />
	<path style="fill:none;stroke:red;stroke-width:1px;stroke-linecap:butt;stroke-linejoin:miter;stroke-opacity:1" d="M 353.698,235.942 335.856,234.158 z" id="boundary" inkscape:connector-curvature="0" />
	<path style="fill:none;stroke:red;stroke-width:1px;stroke-linecap:butt;stroke-linejoin:miter;stroke-opacity:1" d="M 335.856,234.158 326.935,218.101 z" id="boundary" inkscape:connector-curvature="0" />
	<path style="fill:none;stroke:red;stroke-width:1px;stroke-linecap:butt;stroke-linejoin:miter;stroke-opacity:1" d="M 485.727,232.374 467.885,241.295 z" id="boundary" inkscape:connector-curvature="0" />
	<path style="fill:none;stroke:red;stroke-width:1px;stroke-linecap:butt;stroke-linejoin:miter;stroke-opacity:1" d="M 353.698,235.942 367.971,246.647 z" id="boundary" inkscape:connector-curvature="0" />
	<path style="fill:none;stroke:red;stroke-width:1px;stroke-linecap:butt;stroke-linejoin:miter;stroke-opacity:1" d="M 551.741,191.338 567.799,182.417 z" id="boundary" inkscape:connector-curvature="0" />
	<path style="fill:none;stroke:red;stroke-width:1px;stroke-linecap:butt;stroke-linejoin:miter;stroke-opacity:1" d="M 567.799,182.417 585.64,177.065 z" id="boundary" inkscape:connector-curvature="0" />
	<path style="fill:none;stroke:red;stroke-width:1px;stroke-linecap:butt;stroke-linejoin:miter;stroke-opacity:1" d="M 535.683,200.259 551.741,191.338 z" id="boundary" inkscape:connector-curvature="0" />
	<path style="fill:none;stroke:red;stroke-width:1px;stroke-linecap:butt;stroke-linejoin:miter;stroke-opacity:1" d="M 771.194,214.532 785.468,200.259 z" id="boundary" inkscape:connector-curvature="0" />
	<path style="fill:none;stroke:red;stroke-width:1px;stroke-linecap:butt;stroke-linejoin:miter;stroke-opacity:1" d="M 771.194,214.532 756.921,228.806 z" id="boundary" inkscape:connector-curvature="0" />
	<path style="fill:none;stroke:red;stroke-width:1px;stroke-linecap:butt;stroke-linejoin:miter;stroke-opacity:1" d="M 756.921,228.806 740.863,237.727 z" id="boundary" inkscape:connector-curvature="0" />
	<path style="fill:none;stroke:red;stroke-width:1px;stroke-linecap:butt;stroke-linejoin:miter;stroke-opacity:1" d="M 862.187,21.8417 878.245,12.9209 z" id="boundary" inkscape:connector-curvature="0" />
	<path style="fill:none;stroke:red;stroke-width:1px;stroke-linecap:butt;stroke-linejoin:miter;stroke-opacity:1" d="M 894.302,4 878.245,12.9209 z" id="boundary" inkscape:connector-curvature="0" />
	<path style="fill:none;stroke:red;stroke-width:1px;stroke-linecap:butt;stroke-linejoin:miter;stroke-opacity:1" d="M 894.302,4 912.144,4 z" id="boundary" inkscape:connector-curvature="0" />
	<path style="fill:none;stroke:red;stroke-width:1px;stroke-linecap:butt;stroke-linejoin:miter;stroke-opacity:1" d="M 828.288,32.5468 846.129,30.7626 z" id="boundary" inkscape:connector-curvature="0" />
	<path style="fill:none;stroke:red;stroke-width:1px;stroke-linecap:butt;stroke-linejoin:miter;stroke-opacity:1" d="M 862.187,21.8417 846.129,30.7626 z" id="boundary" inkscape:connector-curvature="0" />
	<path style="fill:none;stroke:red;stroke-width:1px;stroke-linecap:butt;stroke-linejoin:miter;stroke-opacity:1" d="M 828.288,32.5468 810.446,41.4676 z" id="boundary" inkscape:connector-curvature="0" />
	<path style="fill:none;stroke:red;stroke-width:1px;stroke-linecap:butt;stroke-linejoin:miter;stroke-opacity:1" d="M 912.144,4 929.986,4 z" id="boundary" inkscape:connector-curvature="0" />
	<path style="fill:none;stroke:red;stroke-width:1px;stroke-linecap:butt;stroke-linejoin:miter;stroke-opacity:1" d="M 929.986,4 947.827,5.78417 z" id="boundary" inkscape:connector-curvature="0" />
	<path style="fill:none;stroke:red;stroke-width:1px;stroke-linecap:butt;stroke-linejoin:miter;stroke-opacity:1" d="M 972.806,30.7626 978.158,48.6043 z" id="boundary" inkscape:connector-curvature="0" />
	<path style="fill:none;stroke:red;stroke-width:1px;stroke-linecap:butt;stroke-linejoin:miter;stroke-opacity:1" d="M 972.806,30.7626 963.885,14.705 z" id="boundary" inkscape:connector-curvature="0" />
	<path style="fill:none;stroke:red;stroke-width:1px;stroke-linecap:butt;stroke-linejoin:miter;stroke-opacity:1" d="M 996,53.9568 978.158,48.6043 z" id="boundary" inkscape:connector-curvature="0" />
	<path style="fill:none;stroke:red;stroke-width:1px;stroke-linecap:butt;stroke-linejoin:miter;stroke-opacity:1" d="M 947.827,5.78417 963.885,14.705 z" id="boundary" inkscape:connector-curvature="0" />
	<path style="fill:none;stroke:red;stroke-width:1px;stroke-linecap:butt;stroke-linejoin:miter;stroke-opacity:1" d="M 996,53.9568 996,71.7986 z" id="boundary" inkscape:connector-curvature="0" />
	<path style="fill:none;stroke:red;stroke-width:1px;stroke-linecap:butt;stroke-linejoin:miter;stroke-opacity:1" d="M 856.835,173.496 871.108,157.439 z" id="boundary" inkscape:connector-curvature="0" />
	<path style="fill:none;stroke:red;stroke-width:1px;stroke-linecap:butt;stroke-linejoin:miter;stroke-opacity:1" d="M 871.108,157.439 888.95,148.518 z" id="boundary" inkscape:connector-curvature="0" />
	<path style="fill:none;stroke:red;stroke-width:1px;stroke-linecap:butt;stroke-linejoin:miter;stroke-opacity:1" d="M 856.835,173.496 838.993,182.417 z" id="boundary" inkscape:connector-curvature="0" />
	<path style="fill:none;stroke:red;stroke-width:1px;stroke-linecap:butt;stroke-linejoin:miter;stroke-opacity:1" d="M 888.95,148.518 906.791,139.597 z" id="boundary" inkscape:connector-curvature="0" />
	<path style="fill:none;stroke:red;stroke-width:1px;stroke-linecap:butt;stroke-linejoin:miter;stroke-opacity:1" d="M 838.993,182.417 821.151,191.338 z" id="boundary" inkscape:connector-curvature="0" />
	<path style="fill:none;stroke:red;stroke-width:1px;stroke-linecap:butt;stroke-linejoin:miter;stroke-opacity:1" d="M 821.151,191.338 803.309,193.122 z" id="boundary" inkscape:connector-curvature="0" />
	<path style="fill:none;stroke:red;stroke-width:1px;stroke-linecap:butt;stroke-linejoin:miter;stroke-opacity:1" d="M 985.295,86.0719 969.237,94.9928 z" id="boundary" inkscape:connector-curvature="0" />
	<path style="fill:none;stroke:red;stroke-width:1px;stroke-linecap:butt;stroke-linejoin:miter;stroke-opacity:1" d="M 969.237,94.9928 951.396,103.914 z" id="boundary" inkscape:connector-curvature="0" />
	<path style="fill:none;stroke:red;stroke-width:1px;stroke-linecap:butt;stroke-linejoin:miter;stroke-opacity:1" d="M 906.791,139.597 924.633,130.676 z" id="boundary" inkscape:connector-curvature="0" />
	<path style="fill:none;stroke:red;stroke-width:1px;stroke-linecap:butt;stroke-linejoin:miter;stroke-opacity:1" d="M 940.691,121.755 951.396,103.914 z" id="boundary" inkscape:connector-curvature="0" />
	<path style="fill:none;stroke:red;stroke-width:1px;stroke-linecap:butt;stroke-linejoin:miter;stroke-opacity:1" d="M 940.691,121.755 924.633,130.676 z" id="boundary" inkscape:connector-curvature="0" />
	<path style="fill:none;stroke:red;stroke-width:1px;stroke-linecap:butt;stroke-linejoin:miter;stroke-opacity:1" d="M 996,71.7986 985.295,86.0719 z" id="boundary" inkscape:connector-curvature="0" />
	<path style="fill:none;stroke:red;stroke-width:1px;stroke-linecap:butt;stroke-linejoin:miter;stroke-opacity:1" d="M 307.309,307.309 325.151,300.173 z" id="boundary" inkscape:connector-curvature="0" />
	<path style="fill:none;stroke:red;stroke-width:1px;stroke-linecap:butt;stroke-linejoin:miter;stroke-opacity:1" d="M 325.151,300.173 310.878,282.331 z" id="boundary" inkscape:connector-curvature="0" />
	<path style="fill:none;stroke:red;stroke-width:1px;stroke-linecap:butt;stroke-linejoin:miter;stroke-opacity:1" d="M 318.014,400.086 321.583,371.54 z" id="boundary" inkscape:connector-curvature="0" />
	<path style="fill:none;stroke:red;stroke-width:1px;stroke-linecap:butt;stroke-linejoin:miter;stroke-opacity:1" d="M 350.129,448.259 335.856,460.748 z" id="boundary" inkscape:connector-curvature="0" />
	<path style="fill:none;stroke:red;stroke-width:1px;stroke-linecap:butt;stroke-linejoin:miter;stroke-opacity:1" d="M 367.971,442.906 350.129,448.259 z" id="boundary" inkscape:connector-curvature="0" />
	<path style="fill:none;stroke:red;stroke-width:1px;stroke-linecap:butt;stroke-linejoin:miter;stroke-opacity:1" d="M 335.856,460.748 318.014,469.669 z" id="boundary" inkscape:connector-curvature="0" />
	<path style="fill:none;stroke:red;stroke-width:1px;stroke-linecap:butt;stroke-linejoin:miter;stroke-opacity:1" d="M 384.029,280.547 375.108,264.489 z" id="boundary" inkscape:connector-curvature="0" />
	<path style="fill:none;stroke:red;stroke-width:1px;stroke-linecap:butt;stroke-linejoin:miter;stroke-opacity:1" d="M 432.201,259.137 416.144,280.547 z" id="boundary" inkscape:connector-curvature="0" />
	<path style="fill:none;stroke:red;stroke-width:1px;stroke-linecap:butt;stroke-linejoin:miter;stroke-opacity:1" d="M 384.029,280.547 400.086,289.468 z" id="boundary" inkscape:connector-curvature="0" />
	<path style="fill:none;stroke:red;stroke-width:1px;stroke-linecap:butt;stroke-linejoin:miter;stroke-opacity:1" d="M 425.065,469.669 416.144,496.432 z" id="boundary" inkscape:connector-curvature="0" />
	<path style="fill:none;stroke:red;stroke-width:1px;stroke-linecap:butt;stroke-linejoin:miter;stroke-opacity:1" d="M 367.971,442.906 362.619,462.532 z" id="boundary" inkscape:connector-curvature="0" />
	<path style="fill:none;stroke:red;stroke-width:1px;stroke-linecap:butt;stroke-linejoin:miter;stroke-opacity:1" d="M 416.144,280.547 400.086,289.468 z" id="boundary" inkscape:connector-curvature="0" />
	<path style="fill:none;stroke:red;stroke-width:1px;stroke-linecap:butt;stroke-linejoin:miter;stroke-opacity:1" d="M 375.108,264.489 367.971,246.647 z" id="boundary" inkscape:connector-curvature="0" />
	<path style="fill:none;stroke:red;stroke-width:1px;stroke-linecap:butt;stroke-linejoin:miter;stroke-opacity:1" d="M 362.619,462.532 350.129,476.806 z" id="boundary" inkscape:connector-curvature="0" />
	<path style="fill:none;stroke:red;stroke-width:1px;stroke-linecap:butt;stroke-linejoin:miter;stroke-opacity:1" d="M 335.856,489.295 326.935,507.137 z" id="boundary" inkscape:connector-curvature="0" />
	<path style="fill:none;stroke:red;stroke-width:1px;stroke-linecap:butt;stroke-linejoin:miter;stroke-opacity:1" d="M 314.446,521.41 326.935,507.137 z" id="boundary" inkscape:connector-curvature="0" />
	<path style="fill:none;stroke:red;stroke-width:1px;stroke-linecap:butt;stroke-linejoin:miter;stroke-opacity:1" d="M 335.856,603.482 318.014,612.403 z" id="boundary" inkscape:connector-curvature="0" />
	<path style="fill:none;stroke:red;stroke-width:1px;stroke-linecap:butt;stroke-linejoin:miter;stroke-opacity:1" d="M 416.144,496.432 407.223,523.194 z" id="boundary" inkscape:connector-curvature="0" />
	<path style="fill:none;stroke:red;stroke-width:1px;stroke-linecap:butt;stroke-linejoin:miter;stroke-opacity:1" d="M 353.698,594.561 362.619,576.719 z" id="boundary" inkscape:connector-curvature="0" />
	<path style="fill:none;stroke:red;stroke-width:1px;stroke-linecap:butt;stroke-linejoin:miter;stroke-opacity:1" d="M 362.619,576.719 380.46,558.878 z" id="boundary" inkscape:connector-curvature="0" />
	<path style="fill:none;stroke:red;stroke-width:1px;stroke-linecap:butt;stroke-linejoin:miter;stroke-opacity:1" d="M 353.698,594.561 335.856,603.482 z" id="boundary" inkscape:connector-curvature="0" />
	<path style="fill:none;stroke:red;stroke-width:1px;stroke-linecap:butt;stroke-linejoin:miter;stroke-opacity:1" d="M 380.46,558.878 396.518,549.957 z" id="boundary" inkscape:connector-curvature="0" />
	<path style="fill:none;stroke:red;stroke-width:1px;stroke-linecap:butt;stroke-linejoin:miter;stroke-opacity:1" d="M 407.223,523.194 396.518,549.957 z" id="boundary" inkscape:connector-curvature="0" />
	<path style="fill:none;stroke:red;stroke-width:1px;stroke-linecap:butt;stroke-linejoin:miter;stroke-opacity:1" d="M 335.856,489.295 350.129,476.806 z" id="boundary" inkscape:connector-curvature="0" />
	<path style="fill:none;stroke:red;stroke-width:1px;stroke-linecap:butt;stroke-linejoin:miter;stroke-opacity:1" d="M 432.201,259.137 450.043,250.216 z" id="boundary" inkscape:connector-curvature="0" />
	<path style="fill:none;stroke:red;stroke-width:1px;stroke-linecap:butt;stroke-linejoin:miter;stroke-opacity:1" d="M 450.043,250.216 467.885,241.295 z" id="boundary" inkscape:connector-curvature="0" />
	<path style="fill:none;stroke:red;stroke-width:1px;stroke-linecap:butt;stroke-linejoin:miter;stroke-opacity:1" d="M 621.324,282.331 603.482,291.252 z" id="boundary" inkscape:connector-curvature="0" />
	<path style="fill:none;stroke:red;stroke-width:1px;stroke-linecap:butt;stroke-linejoin:miter;stroke-opacity:1" d="M 603.482,291.252 585.64,291.252 z" id="boundary" inkscape:connector-curvature="0" />
	<path style="fill:none;stroke:red;stroke-width:1px;stroke-linecap:butt;stroke-linejoin:miter;stroke-opacity:1" d="M 571.367,307.309 585.64,291.252 z" id="boundary" inkscape:connector-curvature="0" />
	<path style="fill:none;stroke:red;stroke-width:1px;stroke-linecap:butt;stroke-linejoin:miter;stroke-opacity:1" d="M 535.683,318.014 517.842,325.151 z" id="boundary" inkscape:connector-curvature="0" />
	<path style="fill:none;stroke:red;stroke-width:1px;stroke-linecap:butt;stroke-linejoin:miter;stroke-opacity:1" d="M 740.863,237.727 724.806,246.647 z" id="boundary" inkscape:connector-curvature="0" />
	<path style="fill:none;stroke:red;stroke-width:1px;stroke-linecap:butt;stroke-linejoin:miter;stroke-opacity:1" d="M 724.806,246.647 706.964,246.647 z" id="boundary" inkscape:connector-curvature="0" />
	<path style="fill:none;stroke:red;stroke-width:1px;stroke-linecap:butt;stroke-linejoin:miter;stroke-opacity:1" d="M 706.964,246.647 690.906,255.568 z" id="boundary" inkscape:connector-curvature="0" />
	<path style="fill:none;stroke:red;stroke-width:1px;stroke-linecap:butt;stroke-linejoin:miter;stroke-opacity:1" d="M 639.165,273.41 657.007,264.489 z" id="boundary" inkscape:connector-curvature="0" />
	<path style="fill:none;stroke:red;stroke-width:1px;stroke-linecap:butt;stroke-linejoin:miter;stroke-opacity:1" d="M 657.007,264.489 674.849,264.489 z" id="boundary" inkscape:connector-curvature="0" />
	<path style="fill:none;stroke:red;stroke-width:1px;stroke-linecap:butt;stroke-linejoin:miter;stroke-opacity:1" d="M 639.165,273.41 621.324,282.331 z" id="boundary" inkscape:connector-curvature="0" />
	<path style="fill:none;stroke:red;stroke-width:1px;stroke-linecap:butt;stroke-linejoin:miter;stroke-opacity:1" d="M 674.849,264.489 690.906,255.568 z" id="boundary" inkscape:connector-curvature="0" />
	<path style="fill:none;stroke:red;stroke-width:1px;stroke-linecap:butt;stroke-linejoin:miter;stroke-opacity:1" d="M 442.906,389.381 442.906,371.54 z" id="boundary" inkscape:connector-curvature="0" />
	<path style="fill:none;stroke:red;stroke-width:1px;stroke-linecap:butt;stroke-linejoin:miter;stroke-opacity:1" d="M 451.827,353.698 442.906,371.54 z" id="boundary" inkscape:connector-curvature="0" />
	<path style="fill:none;stroke:red;stroke-width:1px;stroke-linecap:butt;stroke-linejoin:miter;stroke-opacity:1" d="M 442.906,407.223 442.906,389.381 z" id="boundary" inkscape:connector-curvature="0" />
	<path style="fill:none;stroke:red;stroke-width:1px;stroke-linecap:butt;stroke-linejoin:miter;stroke-opacity:1" d="M 433.986,451.827 425.065,469.669 z" id="boundary" inkscape:connector-curvature="0" />
	<path style="fill:none;stroke:red;stroke-width:1px;stroke-linecap:butt;stroke-linejoin:miter;stroke-opacity:1" d="M 433.986,433.986 433.986,451.827 z" id="boundary" inkscape:connector-curvature="0" />
	<path style="fill:none;stroke:red;stroke-width:1px;stroke-linecap:butt;stroke-linejoin:miter;stroke-opacity:1" d="M 433.986,433.986 442.906,407.223 z" id="boundary" inkscape:connector-curvature="0" />
	<path style="fill:none;stroke:red;stroke-width:1px;stroke-linecap:butt;stroke-linejoin:miter;stroke-opacity:1" d="M 451.827,353.698 467.885,344.777 z" id="boundary" inkscape:connector-curvature="0" />
	<path style="fill:none;stroke:red;stroke-width:1px;stroke-linecap:butt;stroke-linejoin:miter;stroke-opacity:1" d="M 571.367,307.309 553.525,316.23 z" id="boundary" inkscape:connector-curvature="0" />
	<path style="fill:none;stroke:red;stroke-width:1px;stroke-linecap:butt;stroke-linejoin:miter;stroke-opacity:1" d="M 553.525,316.23 535.683,318.014 z" id="boundary" inkscape:connector-curvature="0" />
	<path style="fill:none;stroke:red;stroke-width:1px;stroke-linecap:butt;stroke-linejoin:miter;stroke-opacity:1" d="M 517.842,325.151 500,326.935 z" id="boundary" inkscape:connector-curvature="0" />
	<path style="fill:none;stroke:red;stroke-width:1px;stroke-linecap:butt;stroke-linejoin:miter;stroke-opacity:1" d="M 483.942,335.856 467.885,344.777 z" id="boundary" inkscape:connector-curvature="0" />
	<path style="fill:none;stroke:red;stroke-width:1px;stroke-linecap:butt;stroke-linejoin:miter;stroke-opacity:1" d="M 483.942,335.856 500,326.935 z" id="boundary" inkscape:connector-curvature="0" />
	<circle cx="4" cy="312.662" r="4" fill="#0" id="circle0"/>
	<circle cx="12.9209" cy="328.719" r="4" fill="#0" id="circle1"/>
	<circle cx="21.8417" cy="303.741" r="4" fill="#0" id="circle2"/>
	<circle cx="21.8417" cy="344.777" r="4" fill="#0" id="circle3"/>
	<circle cx="36.1151" cy="289.468" r="4" fill="#0" id="circle4"/>
	<circle cx="37.8993" cy="353.698" r="4" fill="#0" id="circle5"/>
	<circle cx="53.9568" cy="280.547" r="4" fill="#0" id="circle6"/>
	<circle cx="53.9568" cy="344.777" r="4" fill="#0" id="circle7"/>
	<circle cx="66.446" cy="428.633" r="4" fill="#0" id="circle8"/>
	<circle cx="68.2302" cy="266.273" r="4" fill="#0" id="circle9"/>
	<circle cx="70.0144" cy="335.856" r="4" fill="#0" id="circle10"/>
	<circle cx="77.1511" cy="318.014" r="4" fill="#0" id="circle11"/>
	<circle cx="80.7194" cy="414.36" r="4" fill="#0" id="circle12"/>
	<circle cx="80.7194" cy="441.122" r="4" fill="#0" id="circle13"/>
	<circle cx="82.5036" cy="253.784" r="4" fill="#0" id="circle14"/>
	<circle cx="89.6403" cy="396.518" r="4" fill="#0" id="circle15"/>
	<circle cx="91.4245" cy="305.525" r="4" fill="#0" id="circle16"/>
	<circle cx="98.5612" cy="244.863" r="4" fill="#0" id="circle17"/>
	<circle cx="98.5612" cy="378.676" r="4" fill="#0" id="circle18"/>
	<circle cx="98.5612" cy="442.906" r="4" fill="#0" id="circle19"/>
	<circle cx="103.914" cy="291.252" r="4" fill="#0" id="circle20"/>
	<circle cx="116.403" cy="244.863" r="4" fill="#0" id="circle21"/>
	<circle cx="116.403" cy="369.755" r="4" fill="#0" id="circle22"/>
	<circle cx="116.403" cy="442.906" r="4" fill="#0" id="circle23"/>
	<circle cx="121.755" cy="282.331" r="4" fill="#0" id="circle24"/>
	<circle cx="132.46" cy="433.986" r="4" fill="#0" id="circle25"/>
	<circle cx="134.245" cy="235.942" r="4" fill="#0" id="circle26"/>
	<circle cx="134.245" cy="360.835" r="4" fill="#0" id="circle27"/>
	<circle cx="139.597" cy="273.41" r="4" fill="#0" id="circle28"/>
	<circle cx="150.302" cy="351.914" r="4" fill="#0" id="circle29"/>
	<circle cx="150.302" cy="430.417" r="4" fill="#0" id="circle30"/>
	<circle cx="152.086" cy="227.022" r="4" fill="#0" id="circle31"/>
	<circle cx="155.655" cy="544.604" r="4" fill="#0" id="circle32"/>
	<circle cx="157.439" cy="273.41" r="4" fill="#0" id="circle33"/>
	<circle cx="164.576" cy="517.842" r="4" fill="#0" id="circle34"/>
	<circle cx="164.576" cy="560.662" r="4" fill="#0" id="circle35"/>
	<circle cx="166.36" cy="342.993" r="4" fill="#0" id="circle36"/>
	<circle cx="168.144" cy="425.065" r="4" fill="#0" id="circle37"/>
	<circle cx="169.928" cy="227.022" r="4" fill="#0" id="circle38"/>
	<circle cx="175.281" cy="264.489" r="4" fill="#0" id="circle39"/>
	<circle cx="182.417" cy="334.072" r="4" fill="#0" id="circle40"/>
	<circle cx="182.417" cy="508.921" r="4" fill="#0" id="circle41"/>
	<circle cx="182.417" cy="567.799" r="4" fill="#0" id="circle42"/>
	<circle cx="182.417" cy="651.655" r="4" fill="#0" id="circle43"/>
	<circle cx="185.986" cy="218.101" r="4" fill="#0" id="circle44"/>
	<circle cx="185.986" cy="425.065" r="4" fill="#0" id="circle45"/>
	<circle cx="191.338" cy="491.079" r="4" fill="#0" id="circle46"/>
	<circle cx="191.338" cy="624.892" r="4" fill="#0" id="circle47"/>
	<circle cx="193.122" cy="264.489" r="4" fill="#0" id="circle48"/>
	<circle cx="198.475" cy="558.878" r="4" fill="#0" id="circle49"/>
	<circle cx="200.259" cy="328.719" r="4" fill="#0" id="circle50"/>
	<circle cx="200.259" cy="657.007" r="4" fill="#0" id="circle51"/>
	<circle cx="202.043" cy="416.144" r="4" fill="#0" id="circle52"/>
	<circle cx="203.827" cy="218.101" r="4" fill="#0" id="circle53"/>
	<circle cx="209.18" cy="255.568" r="4" fill="#0" id="circle54"/>
	<circle cx="209.18" cy="482.158" r="4" fill="#0" id="circle55"/>
	<circle cx="209.18" cy="615.971" r="4" fill="#0" id="circle56"/>
	<circle cx="214.532" cy="549.957" r="4" fill="#0" id="circle57"/>
	<circle cx="216.317" cy="665.928" r="4" fill="#0" id="circle58"/>
	<circle cx="218.101" cy="321.583" r="4" fill="#0" id="circle59"/>
	<circle cx="218.101" cy="407.223" r="4" fill="#0" id="circle60"/>
	<circle cx="219.885" cy="209.18" r="4" fill="#0" id="circle61"/>
	<circle cx="227.022" cy="255.568" r="4" fill="#0" id="circle62"/>
	<circle cx="227.022" cy="473.237" r="4" fill="#0" id="circle63"/>
	<circle cx="227.022" cy="607.05" r="4" fill="#0" id="circle64"/>
	<circle cx="230.59" cy="541.036" r="4" fill="#0" id="circle65"/>
	<circle cx="232.374" cy="396.518" r="4" fill="#0" id="circle66"/>
	<circle cx="234.158" cy="662.36" r="4" fill="#0" id="circle67"/>
	<circle cx="235.942" cy="316.23" r="4" fill="#0" id="circle68"/>
	<circle cx="235.942" cy="455.396" r="4" fill="#0" id="circle69"/>
	<circle cx="235.942" cy="589.209" r="4" fill="#0" id="circle70"/>
	<circle cx="237.727" cy="209.18" r="4" fill="#0" id="circle71"/>
	<circle cx="243.079" cy="264.489" r="4" fill="#0" id="circle72"/>
	<circle cx="246.647" cy="532.115" r="4" fill="#0" id="circle73"/>
	<circle cx="250.216" cy="387.597" r="4" fill="#0" id="circle74"/>
	<circle cx="252" cy="657.007" r="4" fill="#0" id="circle75"/>
	<circle cx="253.784" cy="316.23" r="4" fill="#0" id="circle76"/>
	<circle cx="253.784" cy="446.475" r="4" fill="#0" id="circle77"/>
	<circle cx="253.784" cy="580.288" r="4" fill="#0" id="circle78"/>
	<circle cx="255.568" cy="209.18" r="4" fill="#0" id="circle79"/>
	<circle cx="259.137" cy="273.41" r="4" fill="#0" id="circle80"/>
	<circle cx="262.705" cy="523.194" r="4" fill="#0" id="circle81"/>
	<circle cx="268.058" cy="380.46" r="4" fill="#0" id="circle82"/>
	<circle cx="269.842" cy="653.439" r="4" fill="#0" id="circle83"/>
	<circle cx="271.626" cy="312.662" r="4" fill="#0" id="circle84"/>
	<circle cx="271.626" cy="437.554" r="4" fill="#0" id="circle85"/>
	<circle cx="271.626" cy="562.446" r="4" fill="#0" id="circle86"/>
	<circle cx="273.41" cy="205.612" r="4" fill="#0" id="circle87"/>
	<circle cx="276.978" cy="273.41" r="4" fill="#0" id="circle88"/>
	<circle cx="278.763" cy="514.273" r="4" fill="#0" id="circle89"/>
	<circle cx="285.899" cy="378.676" r="4" fill="#0" id="circle90"/>
	<circle cx="285.899" cy="423.281" r="4" fill="#0" id="circle91"/>
	<circle cx="285.899" cy="548.173" r="4" fill="#0" id="circle92"/>
	<circle cx="287.683" cy="644.518" r="4" fill="#0" id="circle93"/>
	<circle cx="289.468" cy="312.662" r="4" fill="#0" id="circle94"/>
	<circle cx="291.252" cy="209.18" r="4" fill="#0" id="circle95"/>
	<circle cx="294.82" cy="273.41" r="4" fill="#0" id="circle96"/>
	<circle cx="294.82" cy="503.568" r="4" fill="#0" id="circle97"/>
	<circle cx="300.173" cy="409.007" r="4" fill="#0" id="circle98"/>
	<circle cx="300.173" cy="533.899" r="4" fill="#0" id="circle99"/>
	<circle cx="303.741" cy="371.54" r="4" fill="#0" id="circle100"/>
	<circle cx="303.741" cy="487.511" r="4" fill="#0" id="circle101"/>
	<circle cx="305.525" cy="635.597" r="4" fill="#0" id="circle102"/>
	<circle cx="307.309" cy="307.309" r="4" fill="#0" id="circle103"/>
	<circle cx="309.094" cy="214.532" r="4" fill="#0" id="circle104"/>
	<circle cx="310.878" cy="282.331" r="4" fill="#0" id="circle105"/>
	<circle cx="314.446" cy="521.41" r="4" fill="#0" id="circle106"/>
	<circle cx="318.014" cy="400.086" r="4" fill="#0" id="circle107"/>
	<circle cx="318.014" cy="469.669" r="4" fill="#0" id="circle108"/>
	<circle cx="318.014" cy="612.403" r="4" fill="#0" id="circle109"/>
	<circle cx="321.583" cy="371.54" r="4" fill="#0" id="circle110"/>
	<circle cx="325.151" cy="300.173" r="4" fill="#0" id="circle111"/>
	<circle cx="326.935" cy="218.101" r="4" fill="#0" id="circle112"/>
	<circle cx="326.935" cy="507.137" r="4" fill="#0" id="circle113"/>
	<circle cx="335.856" cy="234.158" r="4" fill="#0" id="circle114"/>
	<circle cx="335.856" cy="460.748" r="4" fill="#0" id="circle115"/>
	<circle cx="335.856" cy="489.295" r="4" fill="#0" id="circle116"/>
	<circle cx="335.856" cy="603.482" r="4" fill="#0" id="circle117"/>
	<circle cx="350.129" cy="448.259" r="4" fill="#0" id="circle118"/>
	<circle cx="350.129" cy="476.806" r="4" fill="#0" id="circle119"/>
	<circle cx="353.698" cy="235.942" r="4" fill="#0" id="circle120"/>
	<circle cx="353.698" cy="594.561" r="4" fill="#0" id="circle121"/>
	<circle cx="362.619" cy="462.532" r="4" fill="#0" id="circle122"/>
	<circle cx="362.619" cy="576.719" r="4" fill="#0" id="circle123"/>
	<circle cx="367.971" cy="246.647" r="4" fill="#0" id="circle124"/>
	<circle cx="367.971" cy="442.906" r="4" fill="#0" id="circle125"/>
	<circle cx="375.108" cy="264.489" r="4" fill="#0" id="circle126"/>
	<circle cx="380.46" cy="558.878" r="4" fill="#0" id="circle127"/>
	<circle cx="384.029" cy="280.547" r="4" fill="#0" id="circle128"/>
	<circle cx="396.518" cy="549.957" r="4" fill="#0" id="circle129"/>
	<circle cx="400.086" cy="289.468" r="4" fill="#0" id="circle130"/>
	<circle cx="407.223" cy="523.194" r="4" fill="#0" id="circle131"/>
	<circle cx="416.144" cy="280.547" r="4" fill="#0" id="circle132"/>
	<circle cx="416.144" cy="496.432" r="4" fill="#0" id="circle133"/>
	<circle cx="425.065" cy="469.669" r="4" fill="#0" id="circle134"/>
	<circle cx="432.201" cy="259.137" r="4" fill="#0" id="circle135"/>
	<circle cx="433.986" cy="433.986" r="4" fill="#0" id="circle136"/>
	<circle cx="433.986" cy="451.827" r="4" fill="#0" id="circle137"/>
	<circle cx="442.906" cy="371.54" r="4" fill="#0" id="circle138"/>
	<circle cx="442.906" cy="389.381" r="4" fill="#0" id="circle139"/>
	<circle cx="442.906" cy="407.223" r="4" fill="#0" id="circle140"/>
	<circle cx="450.043" cy="250.216" r="4" fill="#0" id="circle141"/>
	<circle cx="451.827" cy="353.698" r="4" fill="#0" id="circle142"/>
	<circle cx="467.885" cy="241.295" r="4" fill="#0" id="circle143"/>
	<circle cx="467.885" cy="344.777" r="4" fill="#0" id="circle144"/>
	<circle cx="483.942" cy="335.856" r="4" fill="#0" id="circle145"/>
	<circle cx="485.727" cy="232.374" r="4" fill="#0" id="circle146"/>
	<circle cx="500" cy="218.101" r="4" fill="#0" id="circle147"/>
	<circle cx="500" cy="326.935" r="4" fill="#0" id="circle148"/>
	<circle cx="517.842" cy="209.18" r="4" fill="#0" id="circle149"/>
	<circle cx="517.842" cy="325.151" r="4" fill="#0" id="circle150"/>
	<circle cx="535.683" cy="200.259" r="4" fill="#0" id="circle151"/>
	<circle cx="535.683" cy="318.014" r="4" fill="#0" id="circle152"/>
	<circle cx="551.741" cy="191.338" r="4" fill="#0" id="circle153"/>
	<circle cx="553.525" cy="316.23" r="4" fill="#0" id="circle154"/>
	<circle cx="567.799" cy="182.417" r="4" fill="#0" id="circle155"/>
	<circle cx="571.367" cy="307.309" r="4" fill="#0" id="circle156"/>
	<circle cx="585.64" cy="177.065" r="4" fill="#0" id="circle157"/>
	<circle cx="585.64" cy="291.252" r="4" fill="#0" id="circle158"/>
	<circle cx="599.914" cy="164.576" r="4" fill="#0" id="circle159"/>
	<circle cx="603.482" cy="291.252" r="4" fill="#0" id="circle160"/>
	<circle cx="615.971" cy="155.655" r="4" fill="#0" id="circle161"/>
	<circle cx="621.324" cy="282.331" r="4" fill="#0" id="circle162"/>
	<circle cx="632.029" cy="146.734" r="4" fill="#0" id="circle163"/>
	<circle cx="639.165" cy="273.41" r="4" fill="#0" id="circle164"/>
	<circle cx="648.086" cy="137.813" r="4" fill="#0" id="circle165"/>
	<circle cx="657.007" cy="264.489" r="4" fill="#0" id="circle166"/>
	<circle cx="664.144" cy="125.324" r="4" fill="#0" id="circle167"/>
	<circle cx="674.849" cy="264.489" r="4" fill="#0" id="circle168"/>
	<circle cx="681.986" cy="116.403" r="4" fill="#0" id="circle169"/>
	<circle cx="690.906" cy="255.568" r="4" fill="#0" id="circle170"/>
	<circle cx="699.827" cy="107.482" r="4" fill="#0" id="circle171"/>
	<circle cx="706.964" cy="246.647" r="4" fill="#0" id="circle172"/>
	<circle cx="717.669" cy="98.5612" r="4" fill="#0" id="circle173"/>
	<circle cx="724.806" cy="246.647" r="4" fill="#0" id="circle174"/>
	<circle cx="731.942" cy="84.2878" r="4" fill="#0" id="circle175"/>
	<circle cx="740.863" cy="237.727" r="4" fill="#0" id="circle176"/>
	<circle cx="749.784" cy="75.3669" r="4" fill="#0" id="circle177"/>
	<circle cx="756.921" cy="228.806" r="4" fill="#0" id="circle178"/>
	<circle cx="767.626" cy="66.446" r="4" fill="#0" id="circle179"/>
	<circle cx="771.194" cy="214.532" r="4" fill="#0" id="circle180"/>
	<circle cx="783.683" cy="57.5252" r="4" fill="#0" id="circle181"/>
	<circle cx="785.468" cy="200.259" r="4" fill="#0" id="circle182"/>
	<circle cx="801.525" cy="57.5252" r="4" fill="#0" id="circle183"/>
	<circle cx="803.309" cy="193.122" r="4" fill="#0" id="circle184"/>
	<circle cx="810.446" cy="41.4676" r="4" fill="#0" id="circle185"/>
	<circle cx="821.151" cy="191.338" r="4" fill="#0" id="circle186"/>
	<circle cx="828.288" cy="32.5468" r="4" fill="#0" id="circle187"/>
	<circle cx="838.993" cy="182.417" r="4" fill="#0" id="circle188"/>
	<circle cx="846.129" cy="30.7626" r="4" fill="#0" id="circle189"/>
	<circle cx="856.835" cy="173.496" r="4" fill="#0" id="circle190"/>
	<circle cx="862.187" cy="21.8417" r="4" fill="#0" id="circle191"/>
	<circle cx="871.108" cy="157.439" r="4" fill="#0" id="circle192"/>
	<circle cx="878.245" cy="12.9209" r="4" fill="#0" id="circle193"/>
	<circle cx="888.95" cy="148.518" r="4" fill="#0" id="circle194"/>
	<circle cx="894.302" cy="4" r="4" fill="#0" id="circle195"/>
	<circle cx="906.791" cy="139.597" r="4" fill="#0" id="circle196"/>
	<circle cx="912.144" cy="4" r="4" fill="#0" id="circle197"/>
	<circle cx="924.633" cy="130.676" r="4" fill="#0" id="circle198"/>
	<circle cx="929.986" cy="4" r="4" fill="#0" id="circle199"/>
	<circle cx="940.691" cy="121.755" r="4" fill="#0" id="circle200"/>
	<circle cx="947.827" cy="5.78417" r="4" fill="#0" id="circle201"/>
	<circle cx="951.396" cy="103.914" r="4" fill="#0" id="circle202"/>
	<circle cx="963.885" cy="14.705" r="4" fill="#0" id="circle203"/>
	<circle cx="969.237" cy="94.9928" r="4" fill="#0" id="circle204"/>
	<circle cx="972.806" cy="30.7626" r="4" fill="#0" id="circle205"/>
	<circle cx="978.158" cy="48.6043" r="4" fill="#0" id="circle206"/>
	<circle cx="985.295" cy="86.0719" r="4" fill="#0" id="circle207"/>
	<circle cx="996" cy="53.9568" r="4" fill="#0" id="circle208"/>
	<circle cx="996" cy="71.7986" r="4" fill="#0" id="circle209"/>
	</g>
</svg>