<?xml version="1.0" encoding="UTF-8" standalone="no"?>
<!-- Created with CurveBenchmark -->
<svg
	xmlns:dc="http://purl.org/dc/elements/1.1/"
	xmlns:cc="http://creativecommons.org/ns#"
	xmlns:rdf="http://www.w3.org/1999/02/22-rdf-syntax-ns#"
	xmlns:svg="http://www.w3.org/2000/svg"
	xmlns="http://www.w3.org/2000/svg"
	xmlns:sodipodi="http://sodipodi.sourceforge.net/DTD/sodipodi-0.dtd"
	xmlns:inkscape="http://www.inkscape.org/namespaces/inkscape"
	width="1000"
	height="1000"
	id="svg2"
	version="1.1"
	sodipodi:docname="manifold/gathang-children-7.png.txt">
<defs
	id="defs4" />
<metadata
	id="metadata7">
	<rdf:RDF>
		<cc:Work
			rdf:about="">
			<dc:format>image/svg+xml</dc:format>
			<dc:type
				rdf:resource="http://purl.org/dc/dcmitype/StillImage" />
			<dc:title></dc:title>
		</cc:Work>
	</rdf:RDF>
</metadata>
<g
	inkscape:label="Layer 1"
	inkscape:groupmode="layer"
	id="layer1">
	<path style="fill:none;stroke:red;stroke-width:1px;stroke-linecap:butt;stroke-linejoin:miter;stroke-opacity:1" d="M 27.8748,73.2371 27.8748,85.1745 z" id="boundary" inkscape:connector-curvature="0" />
	<path style="fill:none;stroke:red;stroke-width:1px;stroke-linecap:butt;stroke-linejoin:miter;stroke-opacity:1" d="M 27.8748,73.2371 33.8436,61.2996 z" id="boundary" inkscape:connector-curvature="0" />
	<path style="fill:none;stroke:red;stroke-width:1px;stroke-linecap:butt;stroke-linejoin:miter;stroke-opacity:1" d="M 27.8748,85.1745 27.8748,97.1119 z" id="boundary" inkscape:connector-curvature="0" />
	<path style="fill:none;stroke:red;stroke-width:1px;stroke-linecap:butt;stroke-linejoin:miter;stroke-opacity:1" d="M 4,317.954 4,306.017 z" id="boundary" inkscape:connector-curvature="0" />
	<path style="fill:none;stroke:red;stroke-width:1px;stroke-linecap:butt;stroke-linejoin:miter;stroke-opacity:1" d="M 4,306.017 9.96871,294.079 z" id="boundary" inkscape:connector-curvature="0" />
	<path style="fill:none;stroke:red;stroke-width:1px;stroke-linecap:butt;stroke-linejoin:miter;stroke-opacity:1" d="M 19.5187,284.529 9.96871,294.079 z" id="boundary" inkscape:connector-curvature="0" />
	<path style="fill:none;stroke:red;stroke-width:1px;stroke-linecap:butt;stroke-linejoin:miter;stroke-opacity:1" d="M 25.4874,272.592 19.5187,284.529 z" id="boundary" inkscape:connector-curvature="0" />
	<path style="fill:none;stroke:red;stroke-width:1px;stroke-linecap:butt;stroke-linejoin:miter;stroke-opacity:1" d="M 27.8748,120.987 27.8748,109.049 z" id="boundary" inkscape:connector-curvature="0" />
	<path style="fill:none;stroke:red;stroke-width:1px;stroke-linecap:butt;stroke-linejoin:miter;stroke-opacity:1" d="M 27.8748,109.049 27.8748,97.1119 z" id="boundary" inkscape:connector-curvature="0" />
	<path style="fill:none;stroke:red;stroke-width:1px;stroke-linecap:butt;stroke-linejoin:miter;stroke-opacity:1" d="M 33.8436,143.668 27.8748,132.924 z" id="boundary" inkscape:connector-curvature="0" />
	<path style="fill:none;stroke:red;stroke-width:1px;stroke-linecap:butt;stroke-linejoin:miter;stroke-opacity:1" d="M 27.8748,132.924 27.8748,120.987 z" id="boundary" inkscape:connector-curvature="0" />
	<path style="fill:none;stroke:red;stroke-width:1px;stroke-linecap:butt;stroke-linejoin:miter;stroke-opacity:1" d="M 42.1998,153.218 33.8436,143.668 z" id="boundary" inkscape:connector-curvature="0" />
	<path style="fill:none;stroke:red;stroke-width:1px;stroke-linecap:butt;stroke-linejoin:miter;stroke-opacity:1" d="M 25.4874,272.592 35.0373,263.042 z" id="boundary" inkscape:connector-curvature="0" />
	<path style="fill:none;stroke:red;stroke-width:1px;stroke-linecap:butt;stroke-linejoin:miter;stroke-opacity:1" d="M 4,329.892 4,317.954 z" id="boundary" inkscape:connector-curvature="0" />
	<path style="fill:none;stroke:red;stroke-width:1px;stroke-linecap:butt;stroke-linejoin:miter;stroke-opacity:1" d="M 4,341.829 4,329.892 z" id="boundary" inkscape:connector-curvature="0" />
	<path style="fill:none;stroke:red;stroke-width:1px;stroke-linecap:butt;stroke-linejoin:miter;stroke-opacity:1" d="M 9.96871,376.448 4,365.704 z" id="boundary" inkscape:connector-curvature="0" />
	<path style="fill:none;stroke:red;stroke-width:1px;stroke-linecap:butt;stroke-linejoin:miter;stroke-opacity:1" d="M 4,365.704 4,353.767 z" id="boundary" inkscape:connector-curvature="0" />
	<path style="fill:none;stroke:red;stroke-width:1px;stroke-linecap:butt;stroke-linejoin:miter;stroke-opacity:1" d="M 4,353.767 4,341.829 z" id="boundary" inkscape:connector-curvature="0" />
	<path style="fill:none;stroke:red;stroke-width:1px;stroke-linecap:butt;stroke-linejoin:miter;stroke-opacity:1" d="M 9.96871,376.448 9.96871,388.385 z" id="boundary" inkscape:connector-curvature="0" />
	<path style="fill:none;stroke:red;stroke-width:1px;stroke-linecap:butt;stroke-linejoin:miter;stroke-opacity:1" d="M 9.96871,388.385 15.9374,399.129 z" id="boundary" inkscape:connector-curvature="0" />
	<path style="fill:none;stroke:red;stroke-width:1px;stroke-linecap:butt;stroke-linejoin:miter;stroke-opacity:1" d="M 15.9374,399.129 15.9374,411.066 z" id="boundary" inkscape:connector-curvature="0" />
	<path style="fill:none;stroke:red;stroke-width:1px;stroke-linecap:butt;stroke-linejoin:miter;stroke-opacity:1" d="M 9.96871,437.329 9.96871,449.266 z" id="boundary" inkscape:connector-curvature="0" />
	<path style="fill:none;stroke:red;stroke-width:1px;stroke-linecap:butt;stroke-linejoin:miter;stroke-opacity:1" d="M 15.9374,460.01 9.96871,449.266 z" id="boundary" inkscape:connector-curvature="0" />
	<path style="fill:none;stroke:red;stroke-width:1px;stroke-linecap:butt;stroke-linejoin:miter;stroke-opacity:1" d="M 9.96871,437.329 15.9374,423.004 z" id="boundary" inkscape:connector-curvature="0" />
	<path style="fill:none;stroke:red;stroke-width:1px;stroke-linecap:butt;stroke-linejoin:miter;stroke-opacity:1" d="M 15.9374,411.066 15.9374,423.004 z" id="boundary" inkscape:connector-curvature="0" />
	<path style="fill:none;stroke:red;stroke-width:1px;stroke-linecap:butt;stroke-linejoin:miter;stroke-opacity:1" d="M 15.9374,460.01 15.9374,471.947 z" id="boundary" inkscape:connector-curvature="0" />
	<path style="fill:none;stroke:red;stroke-width:1px;stroke-linecap:butt;stroke-linejoin:miter;stroke-opacity:1" d="M 79.2058,15.9374 89.9495,9.96871 z" id="boundary" inkscape:connector-curvature="0" />
	<path style="fill:none;stroke:red;stroke-width:1px;stroke-linecap:butt;stroke-linejoin:miter;stroke-opacity:1" d="M 58.9122,30.2623 68.4621,21.9061 z" id="boundary" inkscape:connector-curvature="0" />
	<path style="fill:none;stroke:red;stroke-width:1px;stroke-linecap:butt;stroke-linejoin:miter;stroke-opacity:1" d="M 68.4621,21.9061 79.2058,15.9374 z" id="boundary" inkscape:connector-curvature="0" />
	<path style="fill:none;stroke:red;stroke-width:1px;stroke-linecap:butt;stroke-linejoin:miter;stroke-opacity:1" d="M 89.9495,9.96871 100.693,4 z" id="boundary" inkscape:connector-curvature="0" />
	<path style="fill:none;stroke:red;stroke-width:1px;stroke-linecap:butt;stroke-linejoin:miter;stroke-opacity:1" d="M 100.693,4 112.631,4 z" id="boundary" inkscape:connector-curvature="0" />
	<path style="fill:none;stroke:red;stroke-width:1px;stroke-linecap:butt;stroke-linejoin:miter;stroke-opacity:1" d="M 112.631,4 124.568,4 z" id="boundary" inkscape:connector-curvature="0" />
	<path style="fill:none;stroke:red;stroke-width:1px;stroke-linecap:butt;stroke-linejoin:miter;stroke-opacity:1" d="M 136.505,4 148.443,4 z" id="boundary" inkscape:connector-curvature="0" />
	<path style="fill:none;stroke:red;stroke-width:1px;stroke-linecap:butt;stroke-linejoin:miter;stroke-opacity:1" d="M 124.568,4 136.505,4 z" id="boundary" inkscape:connector-curvature="0" />
	<path style="fill:none;stroke:red;stroke-width:1px;stroke-linecap:butt;stroke-linejoin:miter;stroke-opacity:1" d="M 148.443,4 160.38,4 z" id="boundary" inkscape:connector-curvature="0" />
	<path style="fill:none;stroke:red;stroke-width:1px;stroke-linecap:butt;stroke-linejoin:miter;stroke-opacity:1" d="M 57.7184,172.318 48.1685,163.961 z" id="boundary" inkscape:connector-curvature="0" />
	<path style="fill:none;stroke:red;stroke-width:1px;stroke-linecap:butt;stroke-linejoin:miter;stroke-opacity:1" d="M 48.1685,163.961 42.1998,153.218 z" id="boundary" inkscape:connector-curvature="0" />
	<path style="fill:none;stroke:red;stroke-width:1px;stroke-linecap:butt;stroke-linejoin:miter;stroke-opacity:1" d="M 35.0373,263.042 44.5872,254.686 z" id="boundary" inkscape:connector-curvature="0" />
	<path style="fill:none;stroke:red;stroke-width:1px;stroke-linecap:butt;stroke-linejoin:miter;stroke-opacity:1" d="M 44.5872,254.686 55.3309,248.717 z" id="boundary" inkscape:connector-curvature="0" />
	<path style="fill:none;stroke:red;stroke-width:1px;stroke-linecap:butt;stroke-linejoin:miter;stroke-opacity:1" d="M 49.3622,39.8123 58.9122,30.2623 z" id="boundary" inkscape:connector-curvature="0" />
	<path style="fill:none;stroke:red;stroke-width:1px;stroke-linecap:butt;stroke-linejoin:miter;stroke-opacity:1" d="M 33.8436,61.2996 39.8123,49.3622 z" id="boundary" inkscape:connector-curvature="0" />
	<path style="fill:none;stroke:red;stroke-width:1px;stroke-linecap:butt;stroke-linejoin:miter;stroke-opacity:1" d="M 39.8123,49.3622 49.3622,39.8123 z" id="boundary" inkscape:connector-curvature="0" />
	<path style="fill:none;stroke:red;stroke-width:1px;stroke-linecap:butt;stroke-linejoin:miter;stroke-opacity:1" d="M 74.4308,190.224 64.8809,181.868 z" id="boundary" inkscape:connector-curvature="0" />
	<path style="fill:none;stroke:red;stroke-width:1px;stroke-linecap:butt;stroke-linejoin:miter;stroke-opacity:1" d="M 64.8809,181.868 57.7184,172.318 z" id="boundary" inkscape:connector-curvature="0" />
	<path style="fill:none;stroke:red;stroke-width:1px;stroke-linecap:butt;stroke-linejoin:miter;stroke-opacity:1" d="M 70.8496,227.23 64.8809,239.167 z" id="boundary" inkscape:connector-curvature="0" />
	<path style="fill:none;stroke:red;stroke-width:1px;stroke-linecap:butt;stroke-linejoin:miter;stroke-opacity:1" d="M 64.8809,239.167 55.3309,248.717 z" id="boundary" inkscape:connector-curvature="0" />
	<path style="fill:none;stroke:red;stroke-width:1px;stroke-linecap:butt;stroke-linejoin:miter;stroke-opacity:1" d="M 70.8496,227.23 76.8183,215.292 z" id="boundary" inkscape:connector-curvature="0" />
	<path style="fill:none;stroke:red;stroke-width:1px;stroke-linecap:butt;stroke-linejoin:miter;stroke-opacity:1" d="M 81.5933,199.774 76.8183,215.292 z" id="boundary" inkscape:connector-curvature="0" />
	<path style="fill:none;stroke:red;stroke-width:1px;stroke-linecap:butt;stroke-linejoin:miter;stroke-opacity:1" d="M 74.4308,190.224 81.5933,199.774 z" id="boundary" inkscape:connector-curvature="0" />
	<path style="fill:none;stroke:red;stroke-width:1px;stroke-linecap:butt;stroke-linejoin:miter;stroke-opacity:1" d="M 21.9061,494.628 15.9374,483.884 z" id="boundary" inkscape:connector-curvature="0" />
	<path style="fill:none;stroke:red;stroke-width:1px;stroke-linecap:butt;stroke-linejoin:miter;stroke-opacity:1" d="M 15.9374,483.884 15.9374,471.947 z" id="boundary" inkscape:connector-curvature="0" />
	<path style="fill:none;stroke:red;stroke-width:1px;stroke-linecap:butt;stroke-linejoin:miter;stroke-opacity:1" d="M 21.9061,494.628 21.9061,506.566 z" id="boundary" inkscape:connector-curvature="0" />
	<path style="fill:none;stroke:red;stroke-width:1px;stroke-linecap:butt;stroke-linejoin:miter;stroke-opacity:1" d="M 21.9061,506.566 25.4874,518.503 z" id="boundary" inkscape:connector-curvature="0" />
	<path style="fill:none;stroke:red;stroke-width:1px;stroke-linecap:butt;stroke-linejoin:miter;stroke-opacity:1" d="M 25.4874,518.503 27.8748,530.44 z" id="boundary" inkscape:connector-curvature="0" />
	<path style="fill:none;stroke:red;stroke-width:1px;stroke-linecap:butt;stroke-linejoin:miter;stroke-opacity:1" d="M 33.8436,541.184 27.8748,530.44 z" id="boundary" inkscape:connector-curvature="0" />
	<path style="fill:none;stroke:red;stroke-width:1px;stroke-linecap:butt;stroke-linejoin:miter;stroke-opacity:1" d="M 36.231,565.059 33.8436,553.122 z" id="boundary" inkscape:connector-curvature="0" />
	<path style="fill:none;stroke:red;stroke-width:1px;stroke-linecap:butt;stroke-linejoin:miter;stroke-opacity:1" d="M 33.8436,553.122 33.8436,541.184 z" id="boundary" inkscape:connector-curvature="0" />
	<path style="fill:none;stroke:red;stroke-width:1px;stroke-linecap:butt;stroke-linejoin:miter;stroke-opacity:1" d="M 39.8123,576.996 36.231,565.059 z" id="boundary" inkscape:connector-curvature="0" />
	<path style="fill:none;stroke:red;stroke-width:1px;stroke-linecap:butt;stroke-linejoin:miter;stroke-opacity:1" d="M 39.8123,576.996 39.8123,588.934 z" id="boundary" inkscape:connector-curvature="0" />
	<path style="fill:none;stroke:red;stroke-width:1px;stroke-linecap:butt;stroke-linejoin:miter;stroke-opacity:1" d="M 39.8123,600.871 39.8123,588.934 z" id="boundary" inkscape:connector-curvature="0" />
	<path style="fill:none;stroke:red;stroke-width:1px;stroke-linecap:butt;stroke-linejoin:miter;stroke-opacity:1" d="M 39.8123,600.871 39.8123,612.809 z" id="boundary" inkscape:connector-curvature="0" />
	<path style="fill:none;stroke:red;stroke-width:1px;stroke-linecap:butt;stroke-linejoin:miter;stroke-opacity:1" d="M 39.8123,612.809 45.781,623.552 z" id="boundary" inkscape:connector-curvature="0" />
	<path style="fill:none;stroke:red;stroke-width:1px;stroke-linecap:butt;stroke-linejoin:miter;stroke-opacity:1" d="M 51.7497,634.296 45.781,623.552 z" id="boundary" inkscape:connector-curvature="0" />
	<path style="fill:none;stroke:red;stroke-width:1px;stroke-linecap:butt;stroke-linejoin:miter;stroke-opacity:1" d="M 57.7184,645.04 63.6871,655.783 z" id="boundary" inkscape:connector-curvature="0" />
	<path style="fill:none;stroke:red;stroke-width:1px;stroke-linecap:butt;stroke-linejoin:miter;stroke-opacity:1" d="M 63.6871,655.783 67.2684,667.721 z" id="boundary" inkscape:connector-curvature="0" />
	<path style="fill:none;stroke:red;stroke-width:1px;stroke-linecap:butt;stroke-linejoin:miter;stroke-opacity:1" d="M 73.2371,678.465 67.2684,667.721 z" id="boundary" inkscape:connector-curvature="0" />
	<path style="fill:none;stroke:red;stroke-width:1px;stroke-linecap:butt;stroke-linejoin:miter;stroke-opacity:1" d="M 51.7497,634.296 57.7184,645.04 z" id="boundary" inkscape:connector-curvature="0" />
	<path style="fill:none;stroke:red;stroke-width:1px;stroke-linecap:butt;stroke-linejoin:miter;stroke-opacity:1" d="M 81.5933,688.014 73.2371,678.465 z" id="boundary" inkscape:connector-curvature="0" />
	<path style="fill:none;stroke:red;stroke-width:1px;stroke-linecap:butt;stroke-linejoin:miter;stroke-opacity:1" d="M 91.1432,696.371 81.5933,688.014 z" id="boundary" inkscape:connector-curvature="0" />
	<path style="fill:none;stroke:red;stroke-width:1px;stroke-linecap:butt;stroke-linejoin:miter;stroke-opacity:1" d="M 101.887,702.339 91.1432,696.371 z" id="boundary" inkscape:connector-curvature="0" />
	<path style="fill:none;stroke:red;stroke-width:1px;stroke-linecap:butt;stroke-linejoin:miter;stroke-opacity:1" d="M 99.4994,771.576 93.5307,783.514 z" id="boundary" inkscape:connector-curvature="0" />
	<path style="fill:none;stroke:red;stroke-width:1px;stroke-linecap:butt;stroke-linejoin:miter;stroke-opacity:1" d="M 87.562,801.42 87.562,813.357 z" id="boundary" inkscape:connector-curvature="0" />
	<path style="fill:none;stroke:red;stroke-width:1px;stroke-linecap:butt;stroke-linejoin:miter;stroke-opacity:1" d="M 93.5307,824.101 87.562,813.357 z" id="boundary" inkscape:connector-curvature="0" />
	<path style="fill:none;stroke:red;stroke-width:1px;stroke-linecap:butt;stroke-linejoin:miter;stroke-opacity:1" d="M 87.562,801.42 93.5307,783.514 z" id="boundary" inkscape:connector-curvature="0" />
	<path style="fill:none;stroke:red;stroke-width:1px;stroke-linecap:butt;stroke-linejoin:miter;stroke-opacity:1" d="M 93.5307,824.101 93.5307,836.039 z" id="boundary" inkscape:connector-curvature="0" />
	<path style="fill:none;stroke:red;stroke-width:1px;stroke-linecap:butt;stroke-linejoin:miter;stroke-opacity:1" d="M 105.468,759.639 99.4994,771.576 z" id="boundary" inkscape:connector-curvature="0" />
	<path style="fill:none;stroke:red;stroke-width:1px;stroke-linecap:butt;stroke-linejoin:miter;stroke-opacity:1" d="M 93.5307,836.039 99.4994,846.782 z" id="boundary" inkscape:connector-curvature="0" />
	<path style="fill:none;stroke:red;stroke-width:1px;stroke-linecap:butt;stroke-linejoin:miter;stroke-opacity:1" d="M 99.4994,846.782 99.4994,858.72 z" id="boundary" inkscape:connector-curvature="0" />
	<path style="fill:none;stroke:red;stroke-width:1px;stroke-linecap:butt;stroke-linejoin:miter;stroke-opacity:1" d="M 105.468,869.463 99.4994,858.72 z" id="boundary" inkscape:connector-curvature="0" />
	<path style="fill:none;stroke:red;stroke-width:1px;stroke-linecap:butt;stroke-linejoin:miter;stroke-opacity:1" d="M 117.406,890.951 111.437,880.207 z" id="boundary" inkscape:connector-curvature="0" />
	<path style="fill:none;stroke:red;stroke-width:1px;stroke-linecap:butt;stroke-linejoin:miter;stroke-opacity:1" d="M 111.437,721.439 111.437,733.377 z" id="boundary" inkscape:connector-curvature="0" />
	<path style="fill:none;stroke:red;stroke-width:1px;stroke-linecap:butt;stroke-linejoin:miter;stroke-opacity:1" d="M 111.437,745.314 111.437,733.377 z" id="boundary" inkscape:connector-curvature="0" />
	<path style="fill:none;stroke:red;stroke-width:1px;stroke-linecap:butt;stroke-linejoin:miter;stroke-opacity:1" d="M 111.437,745.314 105.468,759.639 z" id="boundary" inkscape:connector-curvature="0" />
	<path style="fill:none;stroke:red;stroke-width:1px;stroke-linecap:butt;stroke-linejoin:miter;stroke-opacity:1" d="M 111.437,880.207 105.468,869.463 z" id="boundary" inkscape:connector-curvature="0" />
	<path style="fill:none;stroke:red;stroke-width:1px;stroke-linecap:butt;stroke-linejoin:miter;stroke-opacity:1" d="M 101.887,702.339 111.437,709.502 z" id="boundary" inkscape:connector-curvature="0" />
	<path style="fill:none;stroke:red;stroke-width:1px;stroke-linecap:butt;stroke-linejoin:miter;stroke-opacity:1" d="M 111.437,709.502 111.437,721.439 z" id="boundary" inkscape:connector-curvature="0" />
	<path style="fill:none;stroke:red;stroke-width:1px;stroke-linecap:butt;stroke-linejoin:miter;stroke-opacity:1" d="M 111.437,920.794 105.468,938.7 z" id="boundary" inkscape:connector-curvature="0" />
	<path style="fill:none;stroke:red;stroke-width:1px;stroke-linecap:butt;stroke-linejoin:miter;stroke-opacity:1" d="M 117.406,890.951 117.406,902.888 z" id="boundary" inkscape:connector-curvature="0" />
	<path style="fill:none;stroke:red;stroke-width:1px;stroke-linecap:butt;stroke-linejoin:miter;stroke-opacity:1" d="M 115.018,970.931 105.468,962.575 z" id="boundary" inkscape:connector-curvature="0" />
	<path style="fill:none;stroke:red;stroke-width:1px;stroke-linecap:butt;stroke-linejoin:miter;stroke-opacity:1" d="M 105.468,962.575 105.468,950.638 z" id="boundary" inkscape:connector-curvature="0" />
	<path style="fill:none;stroke:red;stroke-width:1px;stroke-linecap:butt;stroke-linejoin:miter;stroke-opacity:1" d="M 105.468,950.638 105.468,938.7 z" id="boundary" inkscape:connector-curvature="0" />
	<path style="fill:none;stroke:red;stroke-width:1px;stroke-linecap:butt;stroke-linejoin:miter;stroke-opacity:1" d="M 115.018,970.931 123.374,980.481 z" id="boundary" inkscape:connector-curvature="0" />
	<path style="fill:none;stroke:red;stroke-width:1px;stroke-linecap:butt;stroke-linejoin:miter;stroke-opacity:1" d="M 117.406,902.888 111.437,920.794 z" id="boundary" inkscape:connector-curvature="0" />
	<path style="fill:none;stroke:red;stroke-width:1px;stroke-linecap:butt;stroke-linejoin:miter;stroke-opacity:1" d="M 135.312,984.063 123.374,980.481 z" id="boundary" inkscape:connector-curvature="0" />
	<path style="fill:none;stroke:red;stroke-width:1px;stroke-linecap:butt;stroke-linejoin:miter;stroke-opacity:1" d="M 147.249,984.063 135.312,984.063 z" id="boundary" inkscape:connector-curvature="0" />
	<path style="fill:none;stroke:red;stroke-width:1px;stroke-linecap:butt;stroke-linejoin:miter;stroke-opacity:1" d="M 147.249,984.063 157.993,990.031 z" id="boundary" inkscape:connector-curvature="0" />
	<path style="fill:none;stroke:red;stroke-width:1px;stroke-linecap:butt;stroke-linejoin:miter;stroke-opacity:1" d="M 169.93,990.031 157.993,990.031 z" id="boundary" inkscape:connector-curvature="0" />
	<path style="fill:none;stroke:red;stroke-width:1px;stroke-linecap:butt;stroke-linejoin:miter;stroke-opacity:1" d="M 169.93,990.031 180.674,996 z" id="boundary" inkscape:connector-curvature="0" />
	<path style="fill:none;stroke:red;stroke-width:1px;stroke-linecap:butt;stroke-linejoin:miter;stroke-opacity:1" d="M 192.611,996 180.674,996 z" id="boundary" inkscape:connector-curvature="0" />
	<path style="fill:none;stroke:red;stroke-width:1px;stroke-linecap:butt;stroke-linejoin:miter;stroke-opacity:1" d="M 160.38,4 172.318,4 z" id="boundary" inkscape:connector-curvature="0" />
	<path style="fill:none;stroke:red;stroke-width:1px;stroke-linecap:butt;stroke-linejoin:miter;stroke-opacity:1" d="M 172.318,4 183.061,9.96871 z" id="boundary" inkscape:connector-curvature="0" />
	<path style="fill:none;stroke:red;stroke-width:1px;stroke-linecap:butt;stroke-linejoin:miter;stroke-opacity:1" d="M 183.061,9.96871 194.999,9.96871 z" id="boundary" inkscape:connector-curvature="0" />
	<path style="fill:none;stroke:red;stroke-width:1px;stroke-linecap:butt;stroke-linejoin:miter;stroke-opacity:1" d="M 194.999,9.96871 205.742,15.9374 z" id="boundary" inkscape:connector-curvature="0" />
	<path style="fill:none;stroke:red;stroke-width:1px;stroke-linecap:butt;stroke-linejoin:miter;stroke-opacity:1" d="M 205.742,15.9374 216.486,21.9061 z" id="boundary" inkscape:connector-curvature="0" />
	<path style="fill:none;stroke:red;stroke-width:1px;stroke-linecap:butt;stroke-linejoin:miter;stroke-opacity:1" d="M 216.486,21.9061 227.23,27.8748 z" id="boundary" inkscape:connector-curvature="0" />
	<path style="fill:none;stroke:red;stroke-width:1px;stroke-linecap:butt;stroke-linejoin:miter;stroke-opacity:1" d="M 227.23,27.8748 237.974,33.8436 z" id="boundary" inkscape:connector-curvature="0" />
	<path style="fill:none;stroke:red;stroke-width:1px;stroke-linecap:butt;stroke-linejoin:miter;stroke-opacity:1" d="M 265.43,58.9122 255.88,50.556 z" id="boundary" inkscape:connector-curvature="0" />
	<path style="fill:none;stroke:red;stroke-width:1px;stroke-linecap:butt;stroke-linejoin:miter;stroke-opacity:1" d="M 255.88,50.556 247.523,41.006 z" id="boundary" inkscape:connector-curvature="0" />
	<path style="fill:none;stroke:red;stroke-width:1px;stroke-linecap:butt;stroke-linejoin:miter;stroke-opacity:1" d="M 265.43,58.9122 270.205,70.8496 z" id="boundary" inkscape:connector-curvature="0" />
	<path style="fill:none;stroke:red;stroke-width:1px;stroke-linecap:butt;stroke-linejoin:miter;stroke-opacity:1" d="M 273.786,82.787 270.205,70.8496 z" id="boundary" inkscape:connector-curvature="0" />
	<path style="fill:none;stroke:red;stroke-width:1px;stroke-linecap:butt;stroke-linejoin:miter;stroke-opacity:1" d="M 279.755,93.5307 273.786,82.787 z" id="boundary" inkscape:connector-curvature="0" />
	<path style="fill:none;stroke:red;stroke-width:1px;stroke-linecap:butt;stroke-linejoin:miter;stroke-opacity:1" d="M 279.755,93.5307 273.786,106.662 z" id="boundary" inkscape:connector-curvature="0" />
	<path style="fill:none;stroke:red;stroke-width:1px;stroke-linecap:butt;stroke-linejoin:miter;stroke-opacity:1" d="M 237.974,33.8436 247.523,41.006 z" id="boundary" inkscape:connector-curvature="0" />
	<path style="fill:none;stroke:red;stroke-width:1px;stroke-linecap:butt;stroke-linejoin:miter;stroke-opacity:1" d="M 273.786,106.662 273.786,118.599 z" id="boundary" inkscape:connector-curvature="0" />
	<path style="fill:none;stroke:red;stroke-width:1px;stroke-linecap:butt;stroke-linejoin:miter;stroke-opacity:1" d="M 255.88,232.005 255.88,220.067 z" id="boundary" inkscape:connector-curvature="0" />
	<path style="fill:none;stroke:red;stroke-width:1px;stroke-linecap:butt;stroke-linejoin:miter;stroke-opacity:1" d="M 255.88,220.067 261.848,202.161 z" id="boundary" inkscape:connector-curvature="0" />
	<path style="fill:none;stroke:red;stroke-width:1px;stroke-linecap:butt;stroke-linejoin:miter;stroke-opacity:1" d="M 267.817,190.224 261.848,202.161 z" id="boundary" inkscape:connector-curvature="0" />
	<path style="fill:none;stroke:red;stroke-width:1px;stroke-linecap:butt;stroke-linejoin:miter;stroke-opacity:1" d="M 272.592,264.236 264.236,254.686 z" id="boundary" inkscape:connector-curvature="0" />
	<path style="fill:none;stroke:red;stroke-width:1px;stroke-linecap:butt;stroke-linejoin:miter;stroke-opacity:1" d="M 264.236,254.686 258.267,243.942 z" id="boundary" inkscape:connector-curvature="0" />
	<path style="fill:none;stroke:red;stroke-width:1px;stroke-linecap:butt;stroke-linejoin:miter;stroke-opacity:1" d="M 258.267,243.942 255.88,232.005 z" id="boundary" inkscape:connector-curvature="0" />
	<path style="fill:none;stroke:red;stroke-width:1px;stroke-linecap:butt;stroke-linejoin:miter;stroke-opacity:1" d="M 273.786,142.474 273.786,154.412 z" id="boundary" inkscape:connector-curvature="0" />
	<path style="fill:none;stroke:red;stroke-width:1px;stroke-linecap:butt;stroke-linejoin:miter;stroke-opacity:1" d="M 273.786,130.537 273.786,118.599 z" id="boundary" inkscape:connector-curvature="0" />
	<path style="fill:none;stroke:red;stroke-width:1px;stroke-linecap:butt;stroke-linejoin:miter;stroke-opacity:1" d="M 273.786,142.474 273.786,130.537 z" id="boundary" inkscape:connector-curvature="0" />
	<path style="fill:none;stroke:red;stroke-width:1px;stroke-linecap:butt;stroke-linejoin:miter;stroke-opacity:1" d="M 273.786,166.349 273.786,178.286 z" id="boundary" inkscape:connector-curvature="0" />
	<path style="fill:none;stroke:red;stroke-width:1px;stroke-linecap:butt;stroke-linejoin:miter;stroke-opacity:1" d="M 273.786,178.286 267.817,190.224 z" id="boundary" inkscape:connector-curvature="0" />
	<path style="fill:none;stroke:red;stroke-width:1px;stroke-linecap:butt;stroke-linejoin:miter;stroke-opacity:1" d="M 273.786,154.412 273.786,166.349 z" id="boundary" inkscape:connector-curvature="0" />
	<path style="fill:none;stroke:red;stroke-width:1px;stroke-linecap:butt;stroke-linejoin:miter;stroke-opacity:1" d="M 279.755,273.786 272.592,264.236 z" id="boundary" inkscape:connector-curvature="0" />
	<path style="fill:none;stroke:red;stroke-width:1px;stroke-linecap:butt;stroke-linejoin:miter;stroke-opacity:1" d="M 285.723,284.529 279.755,273.786 z" id="boundary" inkscape:connector-curvature="0" />
	<path style="fill:none;stroke:red;stroke-width:1px;stroke-linecap:butt;stroke-linejoin:miter;stroke-opacity:1" d="M 297.661,329.892 291.692,319.148 z" id="boundary" inkscape:connector-curvature="0" />
	<path style="fill:none;stroke:red;stroke-width:1px;stroke-linecap:butt;stroke-linejoin:miter;stroke-opacity:1" d="M 285.723,284.529 285.723,296.467 z" id="boundary" inkscape:connector-curvature="0" />
	<path style="fill:none;stroke:red;stroke-width:1px;stroke-linecap:butt;stroke-linejoin:miter;stroke-opacity:1" d="M 291.692,319.148 285.723,308.404 z" id="boundary" inkscape:connector-curvature="0" />
	<path style="fill:none;stroke:red;stroke-width:1px;stroke-linecap:butt;stroke-linejoin:miter;stroke-opacity:1" d="M 285.723,308.404 285.723,296.467 z" id="boundary" inkscape:connector-curvature="0" />
	<path style="fill:none;stroke:red;stroke-width:1px;stroke-linecap:butt;stroke-linejoin:miter;stroke-opacity:1" d="M 297.661,341.829 297.661,329.892 z" id="boundary" inkscape:connector-curvature="0" />
	<path style="fill:none;stroke:red;stroke-width:1px;stroke-linecap:butt;stroke-linejoin:miter;stroke-opacity:1" d="M 297.661,353.767 297.661,341.829 z" id="boundary" inkscape:connector-curvature="0" />
	<path style="fill:none;stroke:red;stroke-width:1px;stroke-linecap:butt;stroke-linejoin:miter;stroke-opacity:1" d="M 297.661,353.767 291.692,375.254 z" id="boundary" inkscape:connector-curvature="0" />
	<path style="fill:none;stroke:red;stroke-width:1px;stroke-linecap:butt;stroke-linejoin:miter;stroke-opacity:1" d="M 297.661,397.935 291.692,387.191 z" id="boundary" inkscape:connector-curvature="0" />
	<path style="fill:none;stroke:red;stroke-width:1px;stroke-linecap:butt;stroke-linejoin:miter;stroke-opacity:1" d="M 291.692,387.191 291.692,375.254 z" id="boundary" inkscape:connector-curvature="0" />
	<path style="fill:none;stroke:red;stroke-width:1px;stroke-linecap:butt;stroke-linejoin:miter;stroke-opacity:1" d="M 303.629,408.679 297.661,397.935 z" id="boundary" inkscape:connector-curvature="0" />
	<path style="fill:none;stroke:red;stroke-width:1px;stroke-linecap:butt;stroke-linejoin:miter;stroke-opacity:1" d="M 303.629,408.679 309.598,419.422 z" id="boundary" inkscape:connector-curvature="0" />
	<path style="fill:none;stroke:red;stroke-width:1px;stroke-linecap:butt;stroke-linejoin:miter;stroke-opacity:1" d="M 309.598,419.422 309.598,431.36 z" id="boundary" inkscape:connector-curvature="0" />
	<path style="fill:none;stroke:red;stroke-width:1px;stroke-linecap:butt;stroke-linejoin:miter;stroke-opacity:1" d="M 315.567,442.103 309.598,431.36 z" id="boundary" inkscape:connector-curvature="0" />
	<path style="fill:none;stroke:red;stroke-width:1px;stroke-linecap:butt;stroke-linejoin:miter;stroke-opacity:1" d="M 321.535,464.785 315.567,454.041 z" id="boundary" inkscape:connector-curvature="0" />
	<path style="fill:none;stroke:red;stroke-width:1px;stroke-linecap:butt;stroke-linejoin:miter;stroke-opacity:1" d="M 315.567,454.041 315.567,442.103 z" id="boundary" inkscape:connector-curvature="0" />
	<path style="fill:none;stroke:red;stroke-width:1px;stroke-linecap:butt;stroke-linejoin:miter;stroke-opacity:1" d="M 321.535,464.785 321.535,476.722 z" id="boundary" inkscape:connector-curvature="0" />
	<path style="fill:none;stroke:red;stroke-width:1px;stroke-linecap:butt;stroke-linejoin:miter;stroke-opacity:1" d="M 321.535,476.722 327.504,487.466 z" id="boundary" inkscape:connector-curvature="0" />
	<path style="fill:none;stroke:red;stroke-width:1px;stroke-linecap:butt;stroke-linejoin:miter;stroke-opacity:1" d="M 327.504,487.466 327.504,499.403 z" id="boundary" inkscape:connector-curvature="0" />
	<path style="fill:none;stroke:red;stroke-width:1px;stroke-linecap:butt;stroke-linejoin:miter;stroke-opacity:1" d="M 333.473,510.147 327.504,499.403 z" id="boundary" inkscape:connector-curvature="0" />
	<path style="fill:none;stroke:red;stroke-width:1px;stroke-linecap:butt;stroke-linejoin:miter;stroke-opacity:1" d="M 333.473,510.147 333.473,522.084 z" id="boundary" inkscape:connector-curvature="0" />
	<path style="fill:none;stroke:red;stroke-width:1px;stroke-linecap:butt;stroke-linejoin:miter;stroke-opacity:1" d="M 339.442,532.828 333.473,522.084 z" id="boundary" inkscape:connector-curvature="0" />
	<path style="fill:none;stroke:red;stroke-width:1px;stroke-linecap:butt;stroke-linejoin:miter;stroke-opacity:1" d="M 339.442,532.828 339.442,544.765 z" id="boundary" inkscape:connector-curvature="0" />
	<path style="fill:none;stroke:red;stroke-width:1px;stroke-linecap:butt;stroke-linejoin:miter;stroke-opacity:1" d="M 345.41,555.509 339.442,544.765 z" id="boundary" inkscape:connector-curvature="0" />
	<path style="fill:none;stroke:red;stroke-width:1px;stroke-linecap:butt;stroke-linejoin:miter;stroke-opacity:1" d="M 261.848,846.782 255.88,858.72 z" id="boundary" inkscape:connector-curvature="0" />
	<path style="fill:none;stroke:red;stroke-width:1px;stroke-linecap:butt;stroke-linejoin:miter;stroke-opacity:1" d="M 273.786,810.97 267.817,828.876 z" id="boundary" inkscape:connector-curvature="0" />
	<path style="fill:none;stroke:red;stroke-width:1px;stroke-linecap:butt;stroke-linejoin:miter;stroke-opacity:1" d="M 255.88,858.72 255.88,870.657 z" id="boundary" inkscape:connector-curvature="0" />
	<path style="fill:none;stroke:red;stroke-width:1px;stroke-linecap:butt;stroke-linejoin:miter;stroke-opacity:1" d="M 255.88,870.657 249.911,882.594 z" id="boundary" inkscape:connector-curvature="0" />
	<path style="fill:none;stroke:red;stroke-width:1px;stroke-linecap:butt;stroke-linejoin:miter;stroke-opacity:1" d="M 255.88,893.338 249.911,882.594 z" id="boundary" inkscape:connector-curvature="0" />
	<path style="fill:none;stroke:red;stroke-width:1px;stroke-linecap:butt;stroke-linejoin:miter;stroke-opacity:1" d="M 261.848,846.782 267.817,828.876 z" id="boundary" inkscape:connector-curvature="0" />
	<path style="fill:none;stroke:red;stroke-width:1px;stroke-linecap:butt;stroke-linejoin:miter;stroke-opacity:1" d="M 285.723,757.252 279.755,775.158 z" id="boundary" inkscape:connector-curvature="0" />
	<path style="fill:none;stroke:red;stroke-width:1px;stroke-linecap:butt;stroke-linejoin:miter;stroke-opacity:1" d="M 291.692,685.627 291.692,673.69 z" id="boundary" inkscape:connector-curvature="0" />
	<path style="fill:none;stroke:red;stroke-width:1px;stroke-linecap:butt;stroke-linejoin:miter;stroke-opacity:1" d="M 291.692,673.69 301.242,665.333 z" id="boundary" inkscape:connector-curvature="0" />
	<path style="fill:none;stroke:red;stroke-width:1px;stroke-linecap:butt;stroke-linejoin:miter;stroke-opacity:1" d="M 285.723,757.252 291.692,745.314 z" id="boundary" inkscape:connector-curvature="0" />
	<path style="fill:none;stroke:red;stroke-width:1px;stroke-linecap:butt;stroke-linejoin:miter;stroke-opacity:1" d="M 279.755,775.158 279.755,787.095 z" id="boundary" inkscape:connector-curvature="0" />
	<path style="fill:none;stroke:red;stroke-width:1px;stroke-linecap:butt;stroke-linejoin:miter;stroke-opacity:1" d="M 279.755,799.032 279.755,787.095 z" id="boundary" inkscape:connector-curvature="0" />
	<path style="fill:none;stroke:red;stroke-width:1px;stroke-linecap:butt;stroke-linejoin:miter;stroke-opacity:1" d="M 279.755,799.032 273.786,810.97 z" id="boundary" inkscape:connector-curvature="0" />
	<path style="fill:none;stroke:red;stroke-width:1px;stroke-linecap:butt;stroke-linejoin:miter;stroke-opacity:1" d="M 204.549,996 192.611,996 z" id="boundary" inkscape:connector-curvature="0" />
	<path style="fill:none;stroke:red;stroke-width:1px;stroke-linecap:butt;stroke-linejoin:miter;stroke-opacity:1" d="M 216.486,996 204.549,996 z" id="boundary" inkscape:connector-curvature="0" />
	<path style="fill:none;stroke:red;stroke-width:1px;stroke-linecap:butt;stroke-linejoin:miter;stroke-opacity:1" d="M 240.361,996 228.424,996 z" id="boundary" inkscape:connector-curvature="0" />
	<path style="fill:none;stroke:red;stroke-width:1px;stroke-linecap:butt;stroke-linejoin:miter;stroke-opacity:1" d="M 252.298,996 240.361,996 z" id="boundary" inkscape:connector-curvature="0" />
	<path style="fill:none;stroke:red;stroke-width:1px;stroke-linecap:butt;stroke-linejoin:miter;stroke-opacity:1" d="M 228.424,996 216.486,996 z" id="boundary" inkscape:connector-curvature="0" />
	<path style="fill:none;stroke:red;stroke-width:1px;stroke-linecap:butt;stroke-linejoin:miter;stroke-opacity:1" d="M 265.43,900.501 255.88,893.338 z" id="boundary" inkscape:connector-curvature="0" />
	<path style="fill:none;stroke:red;stroke-width:1px;stroke-linecap:butt;stroke-linejoin:miter;stroke-opacity:1" d="M 276.173,906.469 265.43,900.501 z" id="boundary" inkscape:connector-curvature="0" />
	<path style="fill:none;stroke:red;stroke-width:1px;stroke-linecap:butt;stroke-linejoin:miter;stroke-opacity:1" d="M 276.173,906.469 285.723,914.826 z" id="boundary" inkscape:connector-curvature="0" />
	<path style="fill:none;stroke:red;stroke-width:1px;stroke-linecap:butt;stroke-linejoin:miter;stroke-opacity:1" d="M 276.173,994.806 264.236,996 z" id="boundary" inkscape:connector-curvature="0" />
	<path style="fill:none;stroke:red;stroke-width:1px;stroke-linecap:butt;stroke-linejoin:miter;stroke-opacity:1" d="M 285.723,984.063 276.173,994.806 z" id="boundary" inkscape:connector-curvature="0" />
	<path style="fill:none;stroke:red;stroke-width:1px;stroke-linecap:butt;stroke-linejoin:miter;stroke-opacity:1" d="M 264.236,996 252.298,996 z" id="boundary" inkscape:connector-curvature="0" />
	<path style="fill:none;stroke:red;stroke-width:1px;stroke-linecap:butt;stroke-linejoin:miter;stroke-opacity:1" d="M 285.723,914.826 296.467,920.794 z" id="boundary" inkscape:connector-curvature="0" />
	<path style="fill:none;stroke:red;stroke-width:1px;stroke-linecap:butt;stroke-linejoin:miter;stroke-opacity:1" d="M 285.723,984.063 297.661,978.094 z" id="boundary" inkscape:connector-curvature="0" />
	<path style="fill:none;stroke:red;stroke-width:1px;stroke-linecap:butt;stroke-linejoin:miter;stroke-opacity:1" d="M 321.535,619.971 321.535,631.909 z" id="boundary" inkscape:connector-curvature="0" />
	<path style="fill:none;stroke:red;stroke-width:1px;stroke-linecap:butt;stroke-linejoin:miter;stroke-opacity:1" d="M 321.535,619.971 327.504,608.034 z" id="boundary" inkscape:connector-curvature="0" />
	<path style="fill:none;stroke:red;stroke-width:1px;stroke-linecap:butt;stroke-linejoin:miter;stroke-opacity:1" d="M 321.535,643.846 321.535,631.909 z" id="boundary" inkscape:connector-curvature="0" />
	<path style="fill:none;stroke:red;stroke-width:1px;stroke-linecap:butt;stroke-linejoin:miter;stroke-opacity:1" d="M 301.242,665.333 313.179,659.365 z" id="boundary" inkscape:connector-curvature="0" />
	<path style="fill:none;stroke:red;stroke-width:1px;stroke-linecap:butt;stroke-linejoin:miter;stroke-opacity:1" d="M 291.692,685.627 297.661,696.371 z" id="boundary" inkscape:connector-curvature="0" />
	<path style="fill:none;stroke:red;stroke-width:1px;stroke-linecap:butt;stroke-linejoin:miter;stroke-opacity:1" d="M 297.661,696.371 297.661,708.308 z" id="boundary" inkscape:connector-curvature="0" />
	<path style="fill:none;stroke:red;stroke-width:1px;stroke-linecap:butt;stroke-linejoin:miter;stroke-opacity:1" d="M 321.535,643.846 313.179,659.365 z" id="boundary" inkscape:connector-curvature="0" />
	<path style="fill:none;stroke:red;stroke-width:1px;stroke-linecap:butt;stroke-linejoin:miter;stroke-opacity:1" d="M 345.41,555.509 351.379,566.253 z" id="boundary" inkscape:connector-curvature="0" />
	<path style="fill:none;stroke:red;stroke-width:1px;stroke-linecap:butt;stroke-linejoin:miter;stroke-opacity:1" d="M 351.379,566.253 351.379,578.19 z" id="boundary" inkscape:connector-curvature="0" />
	<path style="fill:none;stroke:red;stroke-width:1px;stroke-linecap:butt;stroke-linejoin:miter;stroke-opacity:1" d="M 351.379,578.19 345.41,590.128 z" id="boundary" inkscape:connector-curvature="0" />
	<path style="fill:none;stroke:red;stroke-width:1px;stroke-linecap:butt;stroke-linejoin:miter;stroke-opacity:1" d="M 337.054,599.677 327.504,608.034 z" id="boundary" inkscape:connector-curvature="0" />
	<path style="fill:none;stroke:red;stroke-width:1px;stroke-linecap:butt;stroke-linejoin:miter;stroke-opacity:1" d="M 345.41,590.128 337.054,599.677 z" id="boundary" inkscape:connector-curvature="0" />
	<path style="fill:none;stroke:red;stroke-width:1px;stroke-linecap:butt;stroke-linejoin:miter;stroke-opacity:1" d="M 297.661,720.245 297.661,708.308 z" id="boundary" inkscape:connector-curvature="0" />
	<path style="fill:none;stroke:red;stroke-width:1px;stroke-linecap:butt;stroke-linejoin:miter;stroke-opacity:1" d="M 297.661,732.183 297.661,720.245 z" id="boundary" inkscape:connector-curvature="0" />
	<path style="fill:none;stroke:red;stroke-width:1px;stroke-linecap:butt;stroke-linejoin:miter;stroke-opacity:1" d="M 297.661,732.183 291.692,745.314 z" id="boundary" inkscape:connector-curvature="0" />
	<path style="fill:none;stroke:red;stroke-width:1px;stroke-linecap:butt;stroke-linejoin:miter;stroke-opacity:1" d="M 308.404,923.182 296.467,920.794 z" id="boundary" inkscape:connector-curvature="0" />
	<path style="fill:none;stroke:red;stroke-width:1px;stroke-linecap:butt;stroke-linejoin:miter;stroke-opacity:1" d="M 308.404,972.125 297.661,978.094 z" id="boundary" inkscape:connector-curvature="0" />
	<path style="fill:none;stroke:red;stroke-width:1px;stroke-linecap:butt;stroke-linejoin:miter;stroke-opacity:1" d="M 308.404,923.182 320.342,925.569 z" id="boundary" inkscape:connector-curvature="0" />
	<path style="fill:none;stroke:red;stroke-width:1px;stroke-linecap:butt;stroke-linejoin:miter;stroke-opacity:1" d="M 331.085,931.538 320.342,925.569 z" id="boundary" inkscape:connector-curvature="0" />
	<path style="fill:none;stroke:red;stroke-width:1px;stroke-linecap:butt;stroke-linejoin:miter;stroke-opacity:1" d="M 308.404,972.125 319.148,966.156 z" id="boundary" inkscape:connector-curvature="0" />
	<path style="fill:none;stroke:red;stroke-width:1px;stroke-linecap:butt;stroke-linejoin:miter;stroke-opacity:1" d="M 329.892,958.994 319.148,966.156 z" id="boundary" inkscape:connector-curvature="0" />
	<path style="fill:none;stroke:red;stroke-width:1px;stroke-linecap:butt;stroke-linejoin:miter;stroke-opacity:1" d="M 339.442,941.088 329.892,958.994 z" id="boundary" inkscape:connector-curvature="0" />
	<path style="fill:none;stroke:red;stroke-width:1px;stroke-linecap:butt;stroke-linejoin:miter;stroke-opacity:1" d="M 331.085,931.538 339.442,941.088 z" id="boundary" inkscape:connector-curvature="0" />
	<circle cx="4" cy="306.017" r="4" fill="#0" id="circle0"/>
	<circle cx="4" cy="317.954" r="4" fill="#0" id="circle1"/>
	<circle cx="4" cy="329.892" r="4" fill="#0" id="circle2"/>
	<circle cx="4" cy="341.829" r="4" fill="#0" id="circle3"/>
	<circle cx="4" cy="353.767" r="4" fill="#0" id="circle4"/>
	<circle cx="4" cy="365.704" r="4" fill="#0" id="circle5"/>
	<circle cx="9.96871" cy="294.079" r="4" fill="#0" id="circle6"/>
	<circle cx="9.96871" cy="376.448" r="4" fill="#0" id="circle7"/>
	<circle cx="9.96871" cy="388.385" r="4" fill="#0" id="circle8"/>
	<circle cx="9.96871" cy="437.329" r="4" fill="#0" id="circle9"/>
	<circle cx="9.96871" cy="449.266" r="4" fill="#0" id="circle10"/>
	<circle cx="15.9374" cy="399.129" r="4" fill="#0" id="circle11"/>
	<circle cx="15.9374" cy="411.066" r="4" fill="#0" id="circle12"/>
	<circle cx="15.9374" cy="423.004" r="4" fill="#0" id="circle13"/>
	<circle cx="15.9374" cy="460.01" r="4" fill="#0" id="circle14"/>
	<circle cx="15.9374" cy="471.947" r="4" fill="#0" id="circle15"/>
	<circle cx="15.9374" cy="483.884" r="4" fill="#0" id="circle16"/>
	<circle cx="19.5187" cy="284.529" r="4" fill="#0" id="circle17"/>
	<circle cx="21.9061" cy="494.628" r="4" fill="#0" id="circle18"/>
	<circle cx="21.9061" cy="506.566" r="4" fill="#0" id="circle19"/>
	<circle cx="25.4874" cy="272.592" r="4" fill="#0" id="circle20"/>
	<circle cx="25.4874" cy="518.503" r="4" fill="#0" id="circle21"/>
	<circle cx="27.8748" cy="73.2371" r="4" fill="#0" id="circle22"/>
	<circle cx="27.8748" cy="85.1745" r="4" fill="#0" id="circle23"/>
	<circle cx="27.8748" cy="97.1119" r="4" fill="#0" id="circle24"/>
	<circle cx="27.8748" cy="109.049" r="4" fill="#0" id="circle25"/>
	<circle cx="27.8748" cy="120.987" r="4" fill="#0" id="circle26"/>
	<circle cx="27.8748" cy="132.924" r="4" fill="#0" id="circle27"/>
	<circle cx="27.8748" cy="530.44" r="4" fill="#0" id="circle28"/>
	<circle cx="33.8436" cy="61.2996" r="4" fill="#0" id="circle29"/>
	<circle cx="33.8436" cy="143.668" r="4" fill="#0" id="circle30"/>
	<circle cx="33.8436" cy="541.184" r="4" fill="#0" id="circle31"/>
	<circle cx="33.8436" cy="553.122" r="4" fill="#0" id="circle32"/>
	<circle cx="35.0373" cy="263.042" r="4" fill="#0" id="circle33"/>
	<circle cx="36.231" cy="565.059" r="4" fill="#0" id="circle34"/>
	<circle cx="39.8123" cy="49.3622" r="4" fill="#0" id="circle35"/>
	<circle cx="39.8123" cy="576.996" r="4" fill="#0" id="circle36"/>
	<circle cx="39.8123" cy="588.934" r="4" fill="#0" id="circle37"/>
	<circle cx="39.8123" cy="600.871" r="4" fill="#0" id="circle38"/>
	<circle cx="39.8123" cy="612.809" r="4" fill="#0" id="circle39"/>
	<circle cx="42.1998" cy="153.218" r="4" fill="#0" id="circle40"/>
	<circle cx="44.5872" cy="254.686" r="4" fill="#0" id="circle41"/>
	<circle cx="45.781" cy="623.552" r="4" fill="#0" id="circle42"/>
	<circle cx="48.1685" cy="163.961" r="4" fill="#0" id="circle43"/>
	<circle cx="49.3622" cy="39.8123" r="4" fill="#0" id="circle44"/>
	<circle cx="51.7497" cy="634.296" r="4" fill="#0" id="circle45"/>
	<circle cx="55.3309" cy="248.717" r="4" fill="#0" id="circle46"/>
	<circle cx="57.7184" cy="172.318" r="4" fill="#0" id="circle47"/>
	<circle cx="57.7184" cy="645.04" r="4" fill="#0" id="circle48"/>
	<circle cx="58.9122" cy="30.2623" r="4" fill="#0" id="circle49"/>
	<circle cx="63.6871" cy="655.783" r="4" fill="#0" id="circle50"/>
	<circle cx="64.8809" cy="181.868" r="4" fill="#0" id="circle51"/>
	<circle cx="64.8809" cy="239.167" r="4" fill="#0" id="circle52"/>
	<circle cx="67.2684" cy="667.721" r="4" fill="#0" id="circle53"/>
	<circle cx="68.4621" cy="21.9061" r="4" fill="#0" id="circle54"/>
	<circle cx="70.8496" cy="227.23" r="4" fill="#0" id="circle55"/>
	<circle cx="73.2371" cy="678.465" r="4" fill="#0" id="circle56"/>
	<circle cx="74.4308" cy="190.224" r="4" fill="#0" id="circle57"/>
	<circle cx="76.8183" cy="215.292" r="4" fill="#0" id="circle58"/>
	<circle cx="79.2058" cy="15.9374" r="4" fill="#0" id="circle59"/>
	<circle cx="81.5933" cy="199.774" r="4" fill="#0" id="circle60"/>
	<circle cx="81.5933" cy="688.014" r="4" fill="#0" id="circle61"/>
	<circle cx="87.562" cy="801.42" r="4" fill="#0" id="circle62"/>
	<circle cx="87.562" cy="813.357" r="4" fill="#0" id="circle63"/>
	<circle cx="89.9495" cy="9.96871" r="4" fill="#0" id="circle64"/>
	<circle cx="91.1432" cy="696.371" r="4" fill="#0" id="circle65"/>
	<circle cx="93.5307" cy="783.514" r="4" fill="#0" id="circle66"/>
	<circle cx="93.5307" cy="824.101" r="4" fill="#0" id="circle67"/>
	<circle cx="93.5307" cy="836.039" r="4" fill="#0" id="circle68"/>
	<circle cx="99.4994" cy="771.576" r="4" fill="#0" id="circle69"/>
	<circle cx="99.4994" cy="846.782" r="4" fill="#0" id="circle70"/>
	<circle cx="99.4994" cy="858.72" r="4" fill="#0" id="circle71"/>
	<circle cx="100.693" cy="4" r="4" fill="#0" id="circle72"/>
	<circle cx="101.887" cy="702.339" r="4" fill="#0" id="circle73"/>
	<circle cx="105.468" cy="759.639" r="4" fill="#0" id="circle74"/>
	<circle cx="105.468" cy="869.463" r="4" fill="#0" id="circle75"/>
	<circle cx="105.468" cy="938.7" r="4" fill="#0" id="circle76"/>
	<circle cx="105.468" cy="950.638" r="4" fill="#0" id="circle77"/>
	<circle cx="105.468" cy="962.575" r="4" fill="#0" id="circle78"/>
	<circle cx="111.437" cy="709.502" r="4" fill="#0" id="circle79"/>
	<circle cx="111.437" cy="721.439" r="4" fill="#0" id="circle80"/>
	<circle cx="111.437" cy="733.377" r="4" fill="#0" id="circle81"/>
	<circle cx="111.437" cy="745.314" r="4" fill="#0" id="circle82"/>
	<circle cx="111.437" cy="880.207" r="4" fill="#0" id="circle83"/>
	<circle cx="111.437" cy="920.794" r="4" fill="#0" id="circle84"/>
	<circle cx="112.631" cy="4" r="4" fill="#0" id="circle85"/>
	<circle cx="115.018" cy="970.931" r="4" fill="#0" id="circle86"/>
	<circle cx="117.406" cy="890.951" r="4" fill="#0" id="circle87"/>
	<circle cx="117.406" cy="902.888" r="4" fill="#0" id="circle88"/>
	<circle cx="123.374" cy="980.481" r="4" fill="#0" id="circle89"/>
	<circle cx="124.568" cy="4" r="4" fill="#0" id="circle90"/>
	<circle cx="135.312" cy="984.063" r="4" fill="#0" id="circle91"/>
	<circle cx="136.505" cy="4" r="4" fill="#0" id="circle92"/>
	<circle cx="147.249" cy="984.063" r="4" fill="#0" id="circle93"/>
	<circle cx="148.443" cy="4" r="4" fill="#0" id="circle94"/>
	<circle cx="157.993" cy="990.031" r="4" fill="#0" id="circle95"/>
	<circle cx="160.38" cy="4" r="4" fill="#0" id="circle96"/>
	<circle cx="169.93" cy="990.031" r="4" fill="#0" id="circle97"/>
	<circle cx="172.318" cy="4" r="4" fill="#0" id="circle98"/>
	<circle cx="180.674" cy="996" r="4" fill="#0" id="circle99"/>
	<circle cx="183.061" cy="9.96871" r="4" fill="#0" id="circle100"/>
	<circle cx="192.611" cy="996" r="4" fill="#0" id="circle101"/>
	<circle cx="194.999" cy="9.96871" r="4" fill="#0" id="circle102"/>
	<circle cx="204.549" cy="996" r="4" fill="#0" id="circle103"/>
	<circle cx="205.742" cy="15.9374" r="4" fill="#0" id="circle104"/>
	<circle cx="216.486" cy="21.9061" r="4" fill="#0" id="circle105"/>
	<circle cx="216.486" cy="996" r="4" fill="#0" id="circle106"/>
	<circle cx="227.23" cy="27.8748" r="4" fill="#0" id="circle107"/>
	<circle cx="228.424" cy="996" r="4" fill="#0" id="circle108"/>
	<circle cx="237.974" cy="33.8436" r="4" fill="#0" id="circle109"/>
	<circle cx="240.361" cy="996" r="4" fill="#0" id="circle110"/>
	<circle cx="247.523" cy="41.006" r="4" fill="#0" id="circle111"/>
	<circle cx="249.911" cy="882.594" r="4" fill="#0" id="circle112"/>
	<circle cx="252.298" cy="996" r="4" fill="#0" id="circle113"/>
	<circle cx="255.88" cy="50.556" r="4" fill="#0" id="circle114"/>
	<circle cx="255.88" cy="220.067" r="4" fill="#0" id="circle115"/>
	<circle cx="255.88" cy="232.005" r="4" fill="#0" id="circle116"/>
	<circle cx="255.88" cy="858.72" r="4" fill="#0" id="circle117"/>
	<circle cx="255.88" cy="870.657" r="4" fill="#0" id="circle118"/>
	<circle cx="255.88" cy="893.338" r="4" fill="#0" id="circle119"/>
	<circle cx="258.267" cy="243.942" r="4" fill="#0" id="circle120"/>
	<circle cx="261.848" cy="202.161" r="4" fill="#0" id="circle121"/>
	<circle cx="261.848" cy="846.782" r="4" fill="#0" id="circle122"/>
	<circle cx="264.236" cy="254.686" r="4" fill="#0" id="circle123"/>
	<circle cx="264.236" cy="996" r="4" fill="#0" id="circle124"/>
	<circle cx="265.43" cy="58.9122" r="4" fill="#0" id="circle125"/>
	<circle cx="265.43" cy="900.501" r="4" fill="#0" id="circle126"/>
	<circle cx="267.817" cy="190.224" r="4" fill="#0" id="circle127"/>
	<circle cx="267.817" cy="828.876" r="4" fill="#0" id="circle128"/>
	<circle cx="270.205" cy="70.8496" r="4" fill="#0" id="circle129"/>
	<circle cx="272.592" cy="264.236" r="4" fill="#0" id="circle130"/>
	<circle cx="273.786" cy="82.787" r="4" fill="#0" id="circle131"/>
	<circle cx="273.786" cy="106.662" r="4" fill="#0" id="circle132"/>
	<circle cx="273.786" cy="118.599" r="4" fill="#0" id="circle133"/>
	<circle cx="273.786" cy="130.537" r="4" fill="#0" id="circle134"/>
	<circle cx="273.786" cy="142.474" r="4" fill="#0" id="circle135"/>
	<circle cx="273.786" cy="154.412" r="4" fill="#0" id="circle136"/>
	<circle cx="273.786" cy="166.349" r="4" fill="#0" id="circle137"/>
	<circle cx="273.786" cy="178.286" r="4" fill="#0" id="circle138"/>
	<circle cx="273.786" cy="810.97" r="4" fill="#0" id="circle139"/>
	<circle cx="276.173" cy="906.469" r="4" fill="#0" id="circle140"/>
	<circle cx="276.173" cy="994.806" r="4" fill="#0" id="circle141"/>
	<circle cx="279.755" cy="93.5307" r="4" fill="#0" id="circle142"/>
	<circle cx="279.755" cy="273.786" r="4" fill="#0" id="circle143"/>
	<circle cx="279.755" cy="775.158" r="4" fill="#0" id="circle144"/>
	<circle cx="279.755" cy="787.095" r="4" fill="#0" id="circle145"/>
	<circle cx="279.755" cy="799.032" r="4" fill="#0" id="circle146"/>
	<circle cx="285.723" cy="284.529" r="4" fill="#0" id="circle147"/>
	<circle cx="285.723" cy="296.467" r="4" fill="#0" id="circle148"/>
	<circle cx="285.723" cy="308.404" r="4" fill="#0" id="circle149"/>
	<circle cx="285.723" cy="757.252" r="4" fill="#0" id="circle150"/>
	<circle cx="285.723" cy="914.826" r="4" fill="#0" id="circle151"/>
	<circle cx="285.723" cy="984.063" r="4" fill="#0" id="circle152"/>
	<circle cx="291.692" cy="319.148" r="4" fill="#0" id="circle153"/>
	<circle cx="291.692" cy="375.254" r="4" fill="#0" id="circle154"/>
	<circle cx="291.692" cy="387.191" r="4" fill="#0" id="circle155"/>
	<circle cx="291.692" cy="673.69" r="4" fill="#0" id="circle156"/>
	<circle cx="291.692" cy="685.627" r="4" fill="#0" id="circle157"/>
	<circle cx="291.692" cy="745.314" r="4" fill="#0" id="circle158"/>
	<circle cx="296.467" cy="920.794" r="4" fill="#0" id="circle159"/>
	<circle cx="297.661" cy="329.892" r="4" fill="#0" id="circle160"/>
	<circle cx="297.661" cy="341.829" r="4" fill="#0" id="circle161"/>
	<circle cx="297.661" cy="353.767" r="4" fill="#0" id="circle162"/>
	<circle cx="297.661" cy="397.935" r="4" fill="#0" id="circle163"/>
	<circle cx="297.661" cy="696.371" r="4" fill="#0" id="circle164"/>
	<circle cx="297.661" cy="708.308" r="4" fill="#0" id="circle165"/>
	<circle cx="297.661" cy="720.245" r="4" fill="#0" id="circle166"/>
	<circle cx="297.661" cy="732.183" r="4" fill="#0" id="circle167"/>
	<circle cx="297.661" cy="978.094" r="4" fill="#0" id="circle168"/>
	<circle cx="301.242" cy="665.333" r="4" fill="#0" id="circle169"/>
	<circle cx="303.629" cy="408.679" r="4" fill="#0" id="circle170"/>
	<circle cx="308.404" cy="923.182" r="4" fill="#0" id="circle171"/>
	<circle cx="308.404" cy="972.125" r="4" fill="#0" id="circle172"/>
	<circle cx="309.598" cy="419.422" r="4" fill="#0" id="circle173"/>
	<circle cx="309.598" cy="431.36" r="4" fill="#0" id="circle174"/>
	<circle cx="313.179" cy="659.365" r="4" fill="#0" id="circle175"/>
	<circle cx="315.567" cy="442.103" r="4" fill="#0" id="circle176"/>
	<circle cx="315.567" cy="454.041" r="4" fill="#0" id="circle177"/>
	<circle cx="319.148" cy="966.156" r="4" fill="#0" id="circle178"/>
	<circle cx="320.342" cy="925.569" r="4" fill="#0" id="circle179"/>
	<circle cx="321.535" cy="464.785" r="4" fill="#0" id="circle180"/>
	<circle cx="321.535" cy="476.722" r="4" fill="#0" id="circle181"/>
	<circle cx="321.535" cy="619.971" r="4" fill="#0" id="circle182"/>
	<circle cx="321.535" cy="631.909" r="4" fill="#0" id="circle183"/>
	<circle cx="321.535" cy="643.846" r="4" fill="#0" id="circle184"/>
	<circle cx="327.504" cy="487.466" r="4" fill="#0" id="circle185"/>
	<circle cx="327.504" cy="499.403" r="4" fill="#0" id="circle186"/>
	<circle cx="327.504" cy="608.034" r="4" fill="#0" id="circle187"/>
	<circle cx="329.892" cy="958.994" r="4" fill="#0" id="circle188"/>
	<circle cx="331.085" cy="931.538" r="4" fill="#0" id="circle189"/>
	<circle cx="333.473" cy="510.147" r="4" fill="#0" id="circle190"/>
	<circle cx="333.473" cy="522.084" r="4" fill="#0" id="circle191"/>
	<circle cx="337.054" cy="599.677" r="4" fill="#0" id="circle192"/>
	<circle cx="339.442" cy="532.828" r="4" fill="#0" id="circle193"/>
	<circle cx="339.442" cy="544.765" r="4" fill="#0" id="circle194"/>
	<circle cx="339.442" cy="941.088" r="4" fill="#0" id="circle195"/>
	<circle cx="345.41" cy="555.509" r="4" fill="#0" id="circle196"/>
	<circle cx="345.41" cy="590.128" r="4" fill="#0" id="circle197"/>
	<circle cx="351.379" cy="566.253" r="4" fill="#0" id="circle198"/>
	<circle cx="351.379" cy="578.19" r="4" fill="#0" id="circle199"/>
	</g>
</svg>