<?xml version="1.0" encoding="UTF-8" standalone="no"?>
<!-- Created with CurveBenchmark -->
<svg
	xmlns:dc="http://purl.org/dc/elements/1.1/"
	xmlns:cc="http://creativecommons.org/ns#"
	xmlns:rdf="http://www.w3.org/1999/02/22-rdf-syntax-ns#"
	xmlns:svg="http://www.w3.org/2000/svg"
	xmlns="http://www.w3.org/2000/svg"
	xmlns:sodipodi="http://sodipodi.sourceforge.net/DTD/sodipodi-0.dtd"
	xmlns:inkscape="http://www.inkscape.org/namespaces/inkscape"
	width="1000"
	height="1000"
	id="svg2"
	version="1.1"
	sodipodi:docname="manifold/gathang-woodenspoonbinary58.png.txt">
<defs
	id="defs4" />
<metadata
	id="metadata7">
	<rdf:RDF>
		<cc:Work
			rdf:about="">
			<dc:format>image/svg+xml</dc:format>
			<dc:type
				rdf:resource="http://purl.org/dc/dcmitype/StillImage" />
			<dc:title></dc:title>
		</cc:Work>
	</rdf:RDF>
</metadata>
<g
	inkscape:label="Layer 1"
	inkscape:groupmode="layer"
	id="layer1">
	<path style="fill:none;stroke:red;stroke-width:1px;stroke-linecap:butt;stroke-linejoin:miter;stroke-opacity:1" d="M 153.62,4 143.372,5.02479 z" id="boundary" inkscape:connector-curvature="0" />
	<path style="fill:none;stroke:red;stroke-width:1px;stroke-linecap:butt;stroke-linejoin:miter;stroke-opacity:1" d="M 143.372,5.02479 133.124,5.02479 z" id="boundary" inkscape:connector-curvature="0" />
	<path style="fill:none;stroke:red;stroke-width:1px;stroke-linecap:butt;stroke-linejoin:miter;stroke-opacity:1" d="M 153.62,4 163.868,5.02479 z" id="boundary" inkscape:connector-curvature="0" />
	<path style="fill:none;stroke:red;stroke-width:1px;stroke-linecap:butt;stroke-linejoin:miter;stroke-opacity:1" d="M 122.876,6.04959 133.124,5.02479 z" id="boundary" inkscape:connector-curvature="0" />
	<path style="fill:none;stroke:red;stroke-width:1px;stroke-linecap:butt;stroke-linejoin:miter;stroke-opacity:1" d="M 102.38,9.12397 112.628,7.07438 z" id="boundary" inkscape:connector-curvature="0" />
	<path style="fill:none;stroke:red;stroke-width:1px;stroke-linecap:butt;stroke-linejoin:miter;stroke-opacity:1" d="M 102.38,9.12397 92.1322,10.1488 z" id="boundary" inkscape:connector-curvature="0" />
	<path style="fill:none;stroke:red;stroke-width:1px;stroke-linecap:butt;stroke-linejoin:miter;stroke-opacity:1" d="M 112.628,7.07438 122.876,6.04959 z" id="boundary" inkscape:connector-curvature="0" />
	<path style="fill:none;stroke:red;stroke-width:1px;stroke-linecap:butt;stroke-linejoin:miter;stroke-opacity:1" d="M 163.868,5.02479 174.116,5.02479 z" id="boundary" inkscape:connector-curvature="0" />
	<path style="fill:none;stroke:red;stroke-width:1px;stroke-linecap:butt;stroke-linejoin:miter;stroke-opacity:1" d="M 184.364,6.04959 174.116,5.02479 z" id="boundary" inkscape:connector-curvature="0" />
	<path style="fill:none;stroke:red;stroke-width:1px;stroke-linecap:butt;stroke-linejoin:miter;stroke-opacity:1" d="M 194.612,6.04959 184.364,6.04959 z" id="boundary" inkscape:connector-curvature="0" />
	<path style="fill:none;stroke:red;stroke-width:1px;stroke-linecap:butt;stroke-linejoin:miter;stroke-opacity:1" d="M 194.612,6.04959 204.86,6.04959 z" id="boundary" inkscape:connector-curvature="0" />
	<path style="fill:none;stroke:red;stroke-width:1px;stroke-linecap:butt;stroke-linejoin:miter;stroke-opacity:1" d="M 225.355,8.09917 215.107,7.07438 z" id="boundary" inkscape:connector-curvature="0" />
	<path style="fill:none;stroke:red;stroke-width:1px;stroke-linecap:butt;stroke-linejoin:miter;stroke-opacity:1" d="M 215.107,7.07438 204.86,6.04959 z" id="boundary" inkscape:connector-curvature="0" />
	<path style="fill:none;stroke:red;stroke-width:1px;stroke-linecap:butt;stroke-linejoin:miter;stroke-opacity:1" d="M 10.1488,60.3636 16.2975,50.1157 z" id="boundary" inkscape:connector-curvature="0" />
	<path style="fill:none;stroke:red;stroke-width:1px;stroke-linecap:butt;stroke-linejoin:miter;stroke-opacity:1" d="M 16.2975,50.1157 23.4711,41.9174 z" id="boundary" inkscape:connector-curvature="0" />
	<path style="fill:none;stroke:red;stroke-width:1px;stroke-linecap:butt;stroke-linejoin:miter;stroke-opacity:1" d="M 4,84.9587 6.04959,71.6364 z" id="boundary" inkscape:connector-curvature="0" />
	<path style="fill:none;stroke:red;stroke-width:1px;stroke-linecap:butt;stroke-linejoin:miter;stroke-opacity:1" d="M 5.02479,95.2066 4,84.9587 z" id="boundary" inkscape:connector-curvature="0" />
	<path style="fill:none;stroke:red;stroke-width:1px;stroke-linecap:butt;stroke-linejoin:miter;stroke-opacity:1" d="M 6.04959,71.6364 10.1488,60.3636 z" id="boundary" inkscape:connector-curvature="0" />
	<path style="fill:none;stroke:red;stroke-width:1px;stroke-linecap:butt;stroke-linejoin:miter;stroke-opacity:1" d="M 23.4711,41.9174 31.6694,34.7438 z" id="boundary" inkscape:connector-curvature="0" />
	<path style="fill:none;stroke:red;stroke-width:1px;stroke-linecap:butt;stroke-linejoin:miter;stroke-opacity:1" d="M 71.6364,15.2727 81.8843,12.1983 z" id="boundary" inkscape:connector-curvature="0" />
	<path style="fill:none;stroke:red;stroke-width:1px;stroke-linecap:butt;stroke-linejoin:miter;stroke-opacity:1" d="M 61.3884,19.3719 71.6364,15.2727 z" id="boundary" inkscape:connector-curvature="0" />
	<path style="fill:none;stroke:red;stroke-width:1px;stroke-linecap:butt;stroke-linejoin:miter;stroke-opacity:1" d="M 31.6694,34.7438 40.8926,28.595 z" id="boundary" inkscape:connector-curvature="0" />
	<path style="fill:none;stroke:red;stroke-width:1px;stroke-linecap:butt;stroke-linejoin:miter;stroke-opacity:1" d="M 40.8926,28.595 51.1405,24.4959 z" id="boundary" inkscape:connector-curvature="0" />
	<path style="fill:none;stroke:red;stroke-width:1px;stroke-linecap:butt;stroke-linejoin:miter;stroke-opacity:1" d="M 51.1405,24.4959 61.3884,19.3719 z" id="boundary" inkscape:connector-curvature="0" />
	<path style="fill:none;stroke:red;stroke-width:1px;stroke-linecap:butt;stroke-linejoin:miter;stroke-opacity:1" d="M 6.04959,105.455 5.02479,95.2066 z" id="boundary" inkscape:connector-curvature="0" />
	<path style="fill:none;stroke:red;stroke-width:1px;stroke-linecap:butt;stroke-linejoin:miter;stroke-opacity:1" d="M 81.8843,12.1983 92.1322,10.1488 z" id="boundary" inkscape:connector-curvature="0" />
	<path style="fill:none;stroke:red;stroke-width:1px;stroke-linecap:butt;stroke-linejoin:miter;stroke-opacity:1" d="M 235.603,10.1488 245.851,12.1983 z" id="boundary" inkscape:connector-curvature="0" />
	<path style="fill:none;stroke:red;stroke-width:1px;stroke-linecap:butt;stroke-linejoin:miter;stroke-opacity:1" d="M 256.099,15.2727 245.851,12.1983 z" id="boundary" inkscape:connector-curvature="0" />
	<path style="fill:none;stroke:red;stroke-width:1px;stroke-linecap:butt;stroke-linejoin:miter;stroke-opacity:1" d="M 266.347,19.3719 256.099,15.2727 z" id="boundary" inkscape:connector-curvature="0" />
	<path style="fill:none;stroke:red;stroke-width:1px;stroke-linecap:butt;stroke-linejoin:miter;stroke-opacity:1" d="M 266.347,19.3719 275.57,24.4959 z" id="boundary" inkscape:connector-curvature="0" />
	<path style="fill:none;stroke:red;stroke-width:1px;stroke-linecap:butt;stroke-linejoin:miter;stroke-opacity:1" d="M 283.769,30.6446 275.57,24.4959 z" id="boundary" inkscape:connector-curvature="0" />
	<path style="fill:none;stroke:red;stroke-width:1px;stroke-linecap:butt;stroke-linejoin:miter;stroke-opacity:1" d="M 488.727,54.2149 478.479,55.2397 z" id="boundary" inkscape:connector-curvature="0" />
	<path style="fill:none;stroke:red;stroke-width:1px;stroke-linecap:butt;stroke-linejoin:miter;stroke-opacity:1" d="M 283.769,30.6446 290.942,38.843 z" id="boundary" inkscape:connector-curvature="0" />
	<path style="fill:none;stroke:red;stroke-width:1px;stroke-linecap:butt;stroke-linejoin:miter;stroke-opacity:1" d="M 290.942,38.843 299.14,46.0165 z" id="boundary" inkscape:connector-curvature="0" />
	<path style="fill:none;stroke:red;stroke-width:1px;stroke-linecap:butt;stroke-linejoin:miter;stroke-opacity:1" d="M 306.314,54.2149 299.14,46.0165 z" id="boundary" inkscape:connector-curvature="0" />
	<path style="fill:none;stroke:red;stroke-width:1px;stroke-linecap:butt;stroke-linejoin:miter;stroke-opacity:1" d="M 447.736,58.314 457.983,57.2893 z" id="boundary" inkscape:connector-curvature="0" />
	<path style="fill:none;stroke:red;stroke-width:1px;stroke-linecap:butt;stroke-linejoin:miter;stroke-opacity:1" d="M 468.231,56.2645 478.479,55.2397 z" id="boundary" inkscape:connector-curvature="0" />
	<path style="fill:none;stroke:red;stroke-width:1px;stroke-linecap:butt;stroke-linejoin:miter;stroke-opacity:1" d="M 468.231,56.2645 457.983,57.2893 z" id="boundary" inkscape:connector-curvature="0" />
	<path style="fill:none;stroke:red;stroke-width:1px;stroke-linecap:butt;stroke-linejoin:miter;stroke-opacity:1" d="M 324.76,63.438 314.512,60.3636 z" id="boundary" inkscape:connector-curvature="0" />
	<path style="fill:none;stroke:red;stroke-width:1px;stroke-linecap:butt;stroke-linejoin:miter;stroke-opacity:1" d="M 314.512,60.3636 306.314,54.2149 z" id="boundary" inkscape:connector-curvature="0" />
	<path style="fill:none;stroke:red;stroke-width:1px;stroke-linecap:butt;stroke-linejoin:miter;stroke-opacity:1" d="M 335.008,63.438 324.76,63.438 z" id="boundary" inkscape:connector-curvature="0" />
	<path style="fill:none;stroke:red;stroke-width:1px;stroke-linecap:butt;stroke-linejoin:miter;stroke-opacity:1" d="M 335.008,63.438 345.256,63.438 z" id="boundary" inkscape:connector-curvature="0" />
	<path style="fill:none;stroke:red;stroke-width:1px;stroke-linecap:butt;stroke-linejoin:miter;stroke-opacity:1" d="M 365.752,63.438 355.504,63.438 z" id="boundary" inkscape:connector-curvature="0" />
	<path style="fill:none;stroke:red;stroke-width:1px;stroke-linecap:butt;stroke-linejoin:miter;stroke-opacity:1" d="M 345.256,63.438 355.504,63.438 z" id="boundary" inkscape:connector-curvature="0" />
	<path style="fill:none;stroke:red;stroke-width:1px;stroke-linecap:butt;stroke-linejoin:miter;stroke-opacity:1" d="M 406.744,61.3884 396.496,61.3884 z" id="boundary" inkscape:connector-curvature="0" />
	<path style="fill:none;stroke:red;stroke-width:1px;stroke-linecap:butt;stroke-linejoin:miter;stroke-opacity:1" d="M 396.496,61.3884 386.248,62.4132 z" id="boundary" inkscape:connector-curvature="0" />
	<path style="fill:none;stroke:red;stroke-width:1px;stroke-linecap:butt;stroke-linejoin:miter;stroke-opacity:1" d="M 437.488,59.3388 427.24,59.3388 z" id="boundary" inkscape:connector-curvature="0" />
	<path style="fill:none;stroke:red;stroke-width:1px;stroke-linecap:butt;stroke-linejoin:miter;stroke-opacity:1" d="M 447.736,58.314 437.488,59.3388 z" id="boundary" inkscape:connector-curvature="0" />
	<path style="fill:none;stroke:red;stroke-width:1px;stroke-linecap:butt;stroke-linejoin:miter;stroke-opacity:1" d="M 416.992,61.3884 427.24,59.3388 z" id="boundary" inkscape:connector-curvature="0" />
	<path style="fill:none;stroke:red;stroke-width:1px;stroke-linecap:butt;stroke-linejoin:miter;stroke-opacity:1" d="M 376,63.438 386.248,62.4132 z" id="boundary" inkscape:connector-curvature="0" />
	<path style="fill:none;stroke:red;stroke-width:1px;stroke-linecap:butt;stroke-linejoin:miter;stroke-opacity:1" d="M 376,63.438 365.752,63.438 z" id="boundary" inkscape:connector-curvature="0" />
	<path style="fill:none;stroke:red;stroke-width:1px;stroke-linecap:butt;stroke-linejoin:miter;stroke-opacity:1" d="M 416.992,61.3884 406.744,61.3884 z" id="boundary" inkscape:connector-curvature="0" />
	<path style="fill:none;stroke:red;stroke-width:1px;stroke-linecap:butt;stroke-linejoin:miter;stroke-opacity:1" d="M 225.355,8.09917 235.603,10.1488 z" id="boundary" inkscape:connector-curvature="0" />
	<path style="fill:none;stroke:red;stroke-width:1px;stroke-linecap:butt;stroke-linejoin:miter;stroke-opacity:1" d="M 8.09917,125.95 6.04959,115.702 z" id="boundary" inkscape:connector-curvature="0" />
	<path style="fill:none;stroke:red;stroke-width:1px;stroke-linecap:butt;stroke-linejoin:miter;stroke-opacity:1" d="M 6.04959,115.702 6.04959,105.455 z" id="boundary" inkscape:connector-curvature="0" />
	<path style="fill:none;stroke:red;stroke-width:1px;stroke-linecap:butt;stroke-linejoin:miter;stroke-opacity:1" d="M 17.3223,144.397 11.1736,136.198 z" id="boundary" inkscape:connector-curvature="0" />
	<path style="fill:none;stroke:red;stroke-width:1px;stroke-linecap:butt;stroke-linejoin:miter;stroke-opacity:1" d="M 11.1736,136.198 8.09917,125.95 z" id="boundary" inkscape:connector-curvature="0" />
	<path style="fill:none;stroke:red;stroke-width:1px;stroke-linecap:butt;stroke-linejoin:miter;stroke-opacity:1" d="M 31.6694,158.744 23.4711,152.595 z" id="boundary" inkscape:connector-curvature="0" />
	<path style="fill:none;stroke:red;stroke-width:1px;stroke-linecap:butt;stroke-linejoin:miter;stroke-opacity:1" d="M 23.4711,152.595 17.3223,144.397 z" id="boundary" inkscape:connector-curvature="0" />
	<path style="fill:none;stroke:red;stroke-width:1px;stroke-linecap:butt;stroke-linejoin:miter;stroke-opacity:1" d="M 50.1157,168.992 39.8678,164.893 z" id="boundary" inkscape:connector-curvature="0" />
	<path style="fill:none;stroke:red;stroke-width:1px;stroke-linecap:butt;stroke-linejoin:miter;stroke-opacity:1" d="M 39.8678,164.893 31.6694,158.744 z" id="boundary" inkscape:connector-curvature="0" />
	<path style="fill:none;stroke:red;stroke-width:1px;stroke-linecap:butt;stroke-linejoin:miter;stroke-opacity:1" d="M 224.331,174.116 214.083,177.19 z" id="boundary" inkscape:connector-curvature="0" />
	<path style="fill:none;stroke:red;stroke-width:1px;stroke-linecap:butt;stroke-linejoin:miter;stroke-opacity:1" d="M 60.3636,172.066 50.1157,168.992 z" id="boundary" inkscape:connector-curvature="0" />
	<path style="fill:none;stroke:red;stroke-width:1px;stroke-linecap:butt;stroke-linejoin:miter;stroke-opacity:1" d="M 70.6116,175.14 60.3636,172.066 z" id="boundary" inkscape:connector-curvature="0" />
	<path style="fill:none;stroke:red;stroke-width:1px;stroke-linecap:butt;stroke-linejoin:miter;stroke-opacity:1" d="M 80.8595,177.19 70.6116,175.14 z" id="boundary" inkscape:connector-curvature="0" />
	<path style="fill:none;stroke:red;stroke-width:1px;stroke-linecap:butt;stroke-linejoin:miter;stroke-opacity:1" d="M 193.587,180.264 183.339,182.314 z" id="boundary" inkscape:connector-curvature="0" />
	<path style="fill:none;stroke:red;stroke-width:1px;stroke-linecap:butt;stroke-linejoin:miter;stroke-opacity:1" d="M 91.1074,179.24 101.355,180.264 z" id="boundary" inkscape:connector-curvature="0" />
	<path style="fill:none;stroke:red;stroke-width:1px;stroke-linecap:butt;stroke-linejoin:miter;stroke-opacity:1" d="M 101.355,180.264 111.603,182.314 z" id="boundary" inkscape:connector-curvature="0" />
	<path style="fill:none;stroke:red;stroke-width:1px;stroke-linecap:butt;stroke-linejoin:miter;stroke-opacity:1" d="M 91.1074,179.24 80.8595,177.19 z" id="boundary" inkscape:connector-curvature="0" />
	<path style="fill:none;stroke:red;stroke-width:1px;stroke-linecap:butt;stroke-linejoin:miter;stroke-opacity:1" d="M 132.099,184.364 121.851,183.339 z" id="boundary" inkscape:connector-curvature="0" />
	<path style="fill:none;stroke:red;stroke-width:1px;stroke-linecap:butt;stroke-linejoin:miter;stroke-opacity:1" d="M 121.851,183.339 111.603,182.314 z" id="boundary" inkscape:connector-curvature="0" />
	<path style="fill:none;stroke:red;stroke-width:1px;stroke-linecap:butt;stroke-linejoin:miter;stroke-opacity:1" d="M 203.835,179.24 193.587,180.264 z" id="boundary" inkscape:connector-curvature="0" />
	<path style="fill:none;stroke:red;stroke-width:1px;stroke-linecap:butt;stroke-linejoin:miter;stroke-opacity:1" d="M 142.347,184.364 132.099,184.364 z" id="boundary" inkscape:connector-curvature="0" />
	<path style="fill:none;stroke:red;stroke-width:1px;stroke-linecap:butt;stroke-linejoin:miter;stroke-opacity:1" d="M 203.835,179.24 214.083,177.19 z" id="boundary" inkscape:connector-curvature="0" />
	<path style="fill:none;stroke:red;stroke-width:1px;stroke-linecap:butt;stroke-linejoin:miter;stroke-opacity:1" d="M 152.595,184.364 162.843,183.339 z" id="boundary" inkscape:connector-curvature="0" />
	<path style="fill:none;stroke:red;stroke-width:1px;stroke-linecap:butt;stroke-linejoin:miter;stroke-opacity:1" d="M 162.843,183.339 173.091,183.339 z" id="boundary" inkscape:connector-curvature="0" />
	<path style="fill:none;stroke:red;stroke-width:1px;stroke-linecap:butt;stroke-linejoin:miter;stroke-opacity:1" d="M 152.595,184.364 142.347,184.364 z" id="boundary" inkscape:connector-curvature="0" />
	<path style="fill:none;stroke:red;stroke-width:1px;stroke-linecap:butt;stroke-linejoin:miter;stroke-opacity:1" d="M 173.091,183.339 183.339,182.314 z" id="boundary" inkscape:connector-curvature="0" />
	<path style="fill:none;stroke:red;stroke-width:1px;stroke-linecap:butt;stroke-linejoin:miter;stroke-opacity:1" d="M 323.736,111.603 333.983,111.603 z" id="boundary" inkscape:connector-curvature="0" />
	<path style="fill:none;stroke:red;stroke-width:1px;stroke-linecap:butt;stroke-linejoin:miter;stroke-opacity:1" d="M 323.736,111.603 313.488,113.653 z" id="boundary" inkscape:connector-curvature="0" />
	<path style="fill:none;stroke:red;stroke-width:1px;stroke-linecap:butt;stroke-linejoin:miter;stroke-opacity:1" d="M 344.231,112.628 333.983,111.603 z" id="boundary" inkscape:connector-curvature="0" />
	<path style="fill:none;stroke:red;stroke-width:1px;stroke-linecap:butt;stroke-linejoin:miter;stroke-opacity:1" d="M 297.091,128 305.289,119.802 z" id="boundary" inkscape:connector-curvature="0" />
	<path style="fill:none;stroke:red;stroke-width:1px;stroke-linecap:butt;stroke-linejoin:miter;stroke-opacity:1" d="M 305.289,119.802 313.488,113.653 z" id="boundary" inkscape:connector-curvature="0" />
	<path style="fill:none;stroke:red;stroke-width:1px;stroke-linecap:butt;stroke-linejoin:miter;stroke-opacity:1" d="M 297.091,128 289.917,136.198 z" id="boundary" inkscape:connector-curvature="0" />
	<path style="fill:none;stroke:red;stroke-width:1px;stroke-linecap:butt;stroke-linejoin:miter;stroke-opacity:1" d="M 344.231,112.628 354.479,114.678 z" id="boundary" inkscape:connector-curvature="0" />
	<path style="fill:none;stroke:red;stroke-width:1px;stroke-linecap:butt;stroke-linejoin:miter;stroke-opacity:1" d="M 364.727,116.727 374.975,117.752 z" id="boundary" inkscape:connector-curvature="0" />
	<path style="fill:none;stroke:red;stroke-width:1px;stroke-linecap:butt;stroke-linejoin:miter;stroke-opacity:1" d="M 364.727,116.727 354.479,114.678 z" id="boundary" inkscape:connector-curvature="0" />
	<path style="fill:none;stroke:red;stroke-width:1px;stroke-linecap:butt;stroke-linejoin:miter;stroke-opacity:1" d="M 374.975,117.752 385.223,118.777 z" id="boundary" inkscape:connector-curvature="0" />
	<path style="fill:none;stroke:red;stroke-width:1px;stroke-linecap:butt;stroke-linejoin:miter;stroke-opacity:1" d="M 395.471,119.802 405.719,121.851 z" id="boundary" inkscape:connector-curvature="0" />
	<path style="fill:none;stroke:red;stroke-width:1px;stroke-linecap:butt;stroke-linejoin:miter;stroke-opacity:1" d="M 385.223,118.777 395.471,119.802 z" id="boundary" inkscape:connector-curvature="0" />
	<path style="fill:none;stroke:red;stroke-width:1px;stroke-linecap:butt;stroke-linejoin:miter;stroke-opacity:1" d="M 405.719,121.851 415.967,123.901 z" id="boundary" inkscape:connector-curvature="0" />
	<path style="fill:none;stroke:red;stroke-width:1px;stroke-linecap:butt;stroke-linejoin:miter;stroke-opacity:1" d="M 426.215,124.926 415.967,123.901 z" id="boundary" inkscape:connector-curvature="0" />
	<path style="fill:none;stroke:red;stroke-width:1px;stroke-linecap:butt;stroke-linejoin:miter;stroke-opacity:1" d="M 426.215,124.926 436.463,126.975 z" id="boundary" inkscape:connector-curvature="0" />
	<path style="fill:none;stroke:red;stroke-width:1px;stroke-linecap:butt;stroke-linejoin:miter;stroke-opacity:1" d="M 281.719,144.397 273.521,152.595 z" id="boundary" inkscape:connector-curvature="0" />
	<path style="fill:none;stroke:red;stroke-width:1px;stroke-linecap:butt;stroke-linejoin:miter;stroke-opacity:1" d="M 273.521,152.595 264.298,157.719 z" id="boundary" inkscape:connector-curvature="0" />
	<path style="fill:none;stroke:red;stroke-width:1px;stroke-linecap:butt;stroke-linejoin:miter;stroke-opacity:1" d="M 264.298,157.719 255.074,162.843 z" id="boundary" inkscape:connector-curvature="0" />
	<path style="fill:none;stroke:red;stroke-width:1px;stroke-linecap:butt;stroke-linejoin:miter;stroke-opacity:1" d="M 234.579,171.041 244.826,166.942 z" id="boundary" inkscape:connector-curvature="0" />
	<path style="fill:none;stroke:red;stroke-width:1px;stroke-linecap:butt;stroke-linejoin:miter;stroke-opacity:1" d="M 255.074,162.843 244.826,166.942 z" id="boundary" inkscape:connector-curvature="0" />
	<path style="fill:none;stroke:red;stroke-width:1px;stroke-linecap:butt;stroke-linejoin:miter;stroke-opacity:1" d="M 234.579,171.041 224.331,174.116 z" id="boundary" inkscape:connector-curvature="0" />
	<path style="fill:none;stroke:red;stroke-width:1px;stroke-linecap:butt;stroke-linejoin:miter;stroke-opacity:1" d="M 436.463,126.975 446.711,128 z" id="boundary" inkscape:connector-curvature="0" />
	<path style="fill:none;stroke:red;stroke-width:1px;stroke-linecap:butt;stroke-linejoin:miter;stroke-opacity:1" d="M 446.711,128 456.959,129.025 z" id="boundary" inkscape:connector-curvature="0" />
	<path style="fill:none;stroke:red;stroke-width:1px;stroke-linecap:butt;stroke-linejoin:miter;stroke-opacity:1" d="M 467.207,130.05 477.455,132.099 z" id="boundary" inkscape:connector-curvature="0" />
	<path style="fill:none;stroke:red;stroke-width:1px;stroke-linecap:butt;stroke-linejoin:miter;stroke-opacity:1" d="M 456.959,129.025 467.207,130.05 z" id="boundary" inkscape:connector-curvature="0" />
	<path style="fill:none;stroke:red;stroke-width:1px;stroke-linecap:butt;stroke-linejoin:miter;stroke-opacity:1" d="M 281.719,144.397 289.917,136.198 z" id="boundary" inkscape:connector-curvature="0" />
	<path style="fill:none;stroke:red;stroke-width:1px;stroke-linecap:butt;stroke-linejoin:miter;stroke-opacity:1" d="M 477.455,132.099 487.702,133.124 z" id="boundary" inkscape:connector-curvature="0" />
	<path style="fill:none;stroke:red;stroke-width:1px;stroke-linecap:butt;stroke-linejoin:miter;stroke-opacity:1" d="M 652.694,37.8182 662.942,36.7934 z" id="boundary" inkscape:connector-curvature="0" />
	<path style="fill:none;stroke:red;stroke-width:1px;stroke-linecap:butt;stroke-linejoin:miter;stroke-opacity:1" d="M 673.19,36.7934 662.942,36.7934 z" id="boundary" inkscape:connector-curvature="0" />
	<path style="fill:none;stroke:red;stroke-width:1px;stroke-linecap:butt;stroke-linejoin:miter;stroke-opacity:1" d="M 683.438,35.7686 673.19,36.7934 z" id="boundary" inkscape:connector-curvature="0" />
	<path style="fill:none;stroke:red;stroke-width:1px;stroke-linecap:butt;stroke-linejoin:miter;stroke-opacity:1" d="M 642.446,38.843 652.694,37.8182 z" id="boundary" inkscape:connector-curvature="0" />
	<path style="fill:none;stroke:red;stroke-width:1px;stroke-linecap:butt;stroke-linejoin:miter;stroke-opacity:1" d="M 642.446,38.843 632.198,39.8678 z" id="boundary" inkscape:connector-curvature="0" />
	<path style="fill:none;stroke:red;stroke-width:1px;stroke-linecap:butt;stroke-linejoin:miter;stroke-opacity:1" d="M 632.198,39.8678 621.95,39.8678 z" id="boundary" inkscape:connector-curvature="0" />
	<path style="fill:none;stroke:red;stroke-width:1px;stroke-linecap:butt;stroke-linejoin:miter;stroke-opacity:1" d="M 611.702,40.8926 621.95,39.8678 z" id="boundary" inkscape:connector-curvature="0" />
	<path style="fill:none;stroke:red;stroke-width:1px;stroke-linecap:butt;stroke-linejoin:miter;stroke-opacity:1" d="M 714.182,35.7686 724.43,34.7438 z" id="boundary" inkscape:connector-curvature="0" />
	<path style="fill:none;stroke:red;stroke-width:1px;stroke-linecap:butt;stroke-linejoin:miter;stroke-opacity:1" d="M 734.678,34.7438 724.43,34.7438 z" id="boundary" inkscape:connector-curvature="0" />
	<path style="fill:none;stroke:red;stroke-width:1px;stroke-linecap:butt;stroke-linejoin:miter;stroke-opacity:1" d="M 744.926,34.7438 734.678,34.7438 z" id="boundary" inkscape:connector-curvature="0" />
	<path style="fill:none;stroke:red;stroke-width:1px;stroke-linecap:butt;stroke-linejoin:miter;stroke-opacity:1" d="M 693.686,35.7686 683.438,35.7686 z" id="boundary" inkscape:connector-curvature="0" />
	<path style="fill:none;stroke:red;stroke-width:1px;stroke-linecap:butt;stroke-linejoin:miter;stroke-opacity:1" d="M 693.686,35.7686 703.934,35.7686 z" id="boundary" inkscape:connector-curvature="0" />
	<path style="fill:none;stroke:red;stroke-width:1px;stroke-linecap:butt;stroke-linejoin:miter;stroke-opacity:1" d="M 714.182,35.7686 703.934,35.7686 z" id="boundary" inkscape:connector-curvature="0" />
	<path style="fill:none;stroke:red;stroke-width:1px;stroke-linecap:butt;stroke-linejoin:miter;stroke-opacity:1" d="M 509.223,52.1653 519.471,50.1157 z" id="boundary" inkscape:connector-curvature="0" />
	<path style="fill:none;stroke:red;stroke-width:1px;stroke-linecap:butt;stroke-linejoin:miter;stroke-opacity:1" d="M 529.719,49.0909 519.471,50.1157 z" id="boundary" inkscape:connector-curvature="0" />
	<path style="fill:none;stroke:red;stroke-width:1px;stroke-linecap:butt;stroke-linejoin:miter;stroke-opacity:1" d="M 539.967,48.0661 529.719,49.0909 z" id="boundary" inkscape:connector-curvature="0" />
	<path style="fill:none;stroke:red;stroke-width:1px;stroke-linecap:butt;stroke-linejoin:miter;stroke-opacity:1" d="M 488.727,54.2149 498.975,53.1901 z" id="boundary" inkscape:connector-curvature="0" />
	<path style="fill:none;stroke:red;stroke-width:1px;stroke-linecap:butt;stroke-linejoin:miter;stroke-opacity:1" d="M 509.223,52.1653 498.975,53.1901 z" id="boundary" inkscape:connector-curvature="0" />
	<path style="fill:none;stroke:red;stroke-width:1px;stroke-linecap:butt;stroke-linejoin:miter;stroke-opacity:1" d="M 591.207,42.9421 601.455,40.8926 z" id="boundary" inkscape:connector-curvature="0" />
	<path style="fill:none;stroke:red;stroke-width:1px;stroke-linecap:butt;stroke-linejoin:miter;stroke-opacity:1" d="M 591.207,42.9421 580.959,43.9669 z" id="boundary" inkscape:connector-curvature="0" />
	<path style="fill:none;stroke:red;stroke-width:1px;stroke-linecap:butt;stroke-linejoin:miter;stroke-opacity:1" d="M 611.702,40.8926 601.455,40.8926 z" id="boundary" inkscape:connector-curvature="0" />
	<path style="fill:none;stroke:red;stroke-width:1px;stroke-linecap:butt;stroke-linejoin:miter;stroke-opacity:1" d="M 539.967,48.0661 550.215,47.0413 z" id="boundary" inkscape:connector-curvature="0" />
	<path style="fill:none;stroke:red;stroke-width:1px;stroke-linecap:butt;stroke-linejoin:miter;stroke-opacity:1" d="M 560.463,46.0165 550.215,47.0413 z" id="boundary" inkscape:connector-curvature="0" />
	<path style="fill:none;stroke:red;stroke-width:1px;stroke-linecap:butt;stroke-linejoin:miter;stroke-opacity:1" d="M 570.711,44.9917 580.959,43.9669 z" id="boundary" inkscape:connector-curvature="0" />
	<path style="fill:none;stroke:red;stroke-width:1px;stroke-linecap:butt;stroke-linejoin:miter;stroke-opacity:1" d="M 570.711,44.9917 560.463,46.0165 z" id="boundary" inkscape:connector-curvature="0" />
	<path style="fill:none;stroke:red;stroke-width:1px;stroke-linecap:butt;stroke-linejoin:miter;stroke-opacity:1" d="M 755.174,35.7686 765.421,35.7686 z" id="boundary" inkscape:connector-curvature="0" />
	<path style="fill:none;stroke:red;stroke-width:1px;stroke-linecap:butt;stroke-linejoin:miter;stroke-opacity:1" d="M 755.174,35.7686 744.926,34.7438 z" id="boundary" inkscape:connector-curvature="0" />
	<path style="fill:none;stroke:red;stroke-width:1px;stroke-linecap:butt;stroke-linejoin:miter;stroke-opacity:1" d="M 775.669,36.7934 765.421,35.7686 z" id="boundary" inkscape:connector-curvature="0" />
	<path style="fill:none;stroke:red;stroke-width:1px;stroke-linecap:butt;stroke-linejoin:miter;stroke-opacity:1" d="M 785.917,36.7934 775.669,36.7934 z" id="boundary" inkscape:connector-curvature="0" />
	<path style="fill:none;stroke:red;stroke-width:1px;stroke-linecap:butt;stroke-linejoin:miter;stroke-opacity:1" d="M 785.917,36.7934 796.165,36.7934 z" id="boundary" inkscape:connector-curvature="0" />
	<path style="fill:none;stroke:red;stroke-width:1px;stroke-linecap:butt;stroke-linejoin:miter;stroke-opacity:1" d="M 806.413,36.7934 796.165,36.7934 z" id="boundary" inkscape:connector-curvature="0" />
	<path style="fill:none;stroke:red;stroke-width:1px;stroke-linecap:butt;stroke-linejoin:miter;stroke-opacity:1" d="M 816.661,36.7934 806.413,36.7934 z" id="boundary" inkscape:connector-curvature="0" />
	<path style="fill:none;stroke:red;stroke-width:1px;stroke-linecap:butt;stroke-linejoin:miter;stroke-opacity:1" d="M 816.661,36.7934 826.909,36.7934 z" id="boundary" inkscape:connector-curvature="0" />
	<path style="fill:none;stroke:red;stroke-width:1px;stroke-linecap:butt;stroke-linejoin:miter;stroke-opacity:1" d="M 837.157,37.8182 826.909,36.7934 z" id="boundary" inkscape:connector-curvature="0" />
	<path style="fill:none;stroke:red;stroke-width:1px;stroke-linecap:butt;stroke-linejoin:miter;stroke-opacity:1" d="M 847.405,37.8182 837.157,37.8182 z" id="boundary" inkscape:connector-curvature="0" />
	<path style="fill:none;stroke:red;stroke-width:1px;stroke-linecap:butt;stroke-linejoin:miter;stroke-opacity:1" d="M 857.653,38.843 847.405,37.8182 z" id="boundary" inkscape:connector-curvature="0" />
	<path style="fill:none;stroke:red;stroke-width:1px;stroke-linecap:butt;stroke-linejoin:miter;stroke-opacity:1" d="M 867.901,38.843 857.653,38.843 z" id="boundary" inkscape:connector-curvature="0" />
	<path style="fill:none;stroke:red;stroke-width:1px;stroke-linecap:butt;stroke-linejoin:miter;stroke-opacity:1" d="M 878.149,39.8678 867.901,38.843 z" id="boundary" inkscape:connector-curvature="0" />
	<path style="fill:none;stroke:red;stroke-width:1px;stroke-linecap:butt;stroke-linejoin:miter;stroke-opacity:1" d="M 888.397,40.8926 898.645,40.8926 z" id="boundary" inkscape:connector-curvature="0" />
	<path style="fill:none;stroke:red;stroke-width:1px;stroke-linecap:butt;stroke-linejoin:miter;stroke-opacity:1" d="M 888.397,40.8926 878.149,39.8678 z" id="boundary" inkscape:connector-curvature="0" />
	<path style="fill:none;stroke:red;stroke-width:1px;stroke-linecap:butt;stroke-linejoin:miter;stroke-opacity:1" d="M 908.893,41.9174 898.645,40.8926 z" id="boundary" inkscape:connector-curvature="0" />
	<path style="fill:none;stroke:red;stroke-width:1px;stroke-linecap:butt;stroke-linejoin:miter;stroke-opacity:1" d="M 919.14,41.9174 908.893,41.9174 z" id="boundary" inkscape:connector-curvature="0" />
	<path style="fill:none;stroke:red;stroke-width:1px;stroke-linecap:butt;stroke-linejoin:miter;stroke-opacity:1" d="M 919.14,41.9174 929.388,41.9174 z" id="boundary" inkscape:connector-curvature="0" />
	<path style="fill:none;stroke:red;stroke-width:1px;stroke-linecap:butt;stroke-linejoin:miter;stroke-opacity:1" d="M 939.636,43.9669 929.388,41.9174 z" id="boundary" inkscape:connector-curvature="0" />
	<path style="fill:none;stroke:red;stroke-width:1px;stroke-linecap:butt;stroke-linejoin:miter;stroke-opacity:1" d="M 939.636,43.9669 948.86,49.0909 z" id="boundary" inkscape:connector-curvature="0" />
	<path style="fill:none;stroke:red;stroke-width:1px;stroke-linecap:butt;stroke-linejoin:miter;stroke-opacity:1" d="M 959.107,47.0413 969.355,46.0165 z" id="boundary" inkscape:connector-curvature="0" />
	<path style="fill:none;stroke:red;stroke-width:1px;stroke-linecap:butt;stroke-linejoin:miter;stroke-opacity:1" d="M 969.355,46.0165 979.603,48.0661 z" id="boundary" inkscape:connector-curvature="0" />
	<path style="fill:none;stroke:red;stroke-width:1px;stroke-linecap:butt;stroke-linejoin:miter;stroke-opacity:1" d="M 948.86,49.0909 959.107,47.0413 z" id="boundary" inkscape:connector-curvature="0" />
	<path style="fill:none;stroke:red;stroke-width:1px;stroke-linecap:butt;stroke-linejoin:miter;stroke-opacity:1" d="M 979.603,48.0661 989.851,51.1405 z" id="boundary" inkscape:connector-curvature="0" />
	<path style="fill:none;stroke:red;stroke-width:1px;stroke-linecap:butt;stroke-linejoin:miter;stroke-opacity:1" d="M 989.851,51.1405 994.975,60.3636 z" id="boundary" inkscape:connector-curvature="0" />
	<path style="fill:none;stroke:red;stroke-width:1px;stroke-linecap:butt;stroke-linejoin:miter;stroke-opacity:1" d="M 994.975,60.3636 996,70.6116 z" id="boundary" inkscape:connector-curvature="0" />
	<path style="fill:none;stroke:red;stroke-width:1px;stroke-linecap:butt;stroke-linejoin:miter;stroke-opacity:1" d="M 996,70.6116 996,85.9835 z" id="boundary" inkscape:connector-curvature="0" />
	<path style="fill:none;stroke:red;stroke-width:1px;stroke-linecap:butt;stroke-linejoin:miter;stroke-opacity:1" d="M 508.198,135.174 497.95,134.149 z" id="boundary" inkscape:connector-curvature="0" />
	<path style="fill:none;stroke:red;stroke-width:1px;stroke-linecap:butt;stroke-linejoin:miter;stroke-opacity:1" d="M 518.446,136.198 508.198,135.174 z" id="boundary" inkscape:connector-curvature="0" />
	<path style="fill:none;stroke:red;stroke-width:1px;stroke-linecap:butt;stroke-linejoin:miter;stroke-opacity:1" d="M 538.942,139.273 528.694,138.248 z" id="boundary" inkscape:connector-curvature="0" />
	<path style="fill:none;stroke:red;stroke-width:1px;stroke-linecap:butt;stroke-linejoin:miter;stroke-opacity:1" d="M 528.694,138.248 518.446,136.198 z" id="boundary" inkscape:connector-curvature="0" />
	<path style="fill:none;stroke:red;stroke-width:1px;stroke-linecap:butt;stroke-linejoin:miter;stroke-opacity:1" d="M 692.661,141.322 682.413,142.347 z" id="boundary" inkscape:connector-curvature="0" />
	<path style="fill:none;stroke:red;stroke-width:1px;stroke-linecap:butt;stroke-linejoin:miter;stroke-opacity:1" d="M 487.702,133.124 497.95,134.149 z" id="boundary" inkscape:connector-curvature="0" />
	<path style="fill:none;stroke:red;stroke-width:1px;stroke-linecap:butt;stroke-linejoin:miter;stroke-opacity:1" d="M 579.934,141.322 569.686,141.322 z" id="boundary" inkscape:connector-curvature="0" />
	<path style="fill:none;stroke:red;stroke-width:1px;stroke-linecap:butt;stroke-linejoin:miter;stroke-opacity:1" d="M 549.19,139.273 538.942,139.273 z" id="boundary" inkscape:connector-curvature="0" />
	<path style="fill:none;stroke:red;stroke-width:1px;stroke-linecap:butt;stroke-linejoin:miter;stroke-opacity:1" d="M 733.653,139.273 743.901,138.248 z" id="boundary" inkscape:connector-curvature="0" />
	<path style="fill:none;stroke:red;stroke-width:1px;stroke-linecap:butt;stroke-linejoin:miter;stroke-opacity:1" d="M 559.438,140.298 569.686,141.322 z" id="boundary" inkscape:connector-curvature="0" />
	<path style="fill:none;stroke:red;stroke-width:1px;stroke-linecap:butt;stroke-linejoin:miter;stroke-opacity:1" d="M 723.405,140.298 713.157,141.322 z" id="boundary" inkscape:connector-curvature="0" />
	<path style="fill:none;stroke:red;stroke-width:1px;stroke-linecap:butt;stroke-linejoin:miter;stroke-opacity:1" d="M 559.438,140.298 549.19,139.273 z" id="boundary" inkscape:connector-curvature="0" />
	<path style="fill:none;stroke:red;stroke-width:1px;stroke-linecap:butt;stroke-linejoin:miter;stroke-opacity:1" d="M 733.653,139.273 723.405,140.298 z" id="boundary" inkscape:connector-curvature="0" />
	<path style="fill:none;stroke:red;stroke-width:1px;stroke-linecap:butt;stroke-linejoin:miter;stroke-opacity:1" d="M 579.934,141.322 590.182,142.347 z" id="boundary" inkscape:connector-curvature="0" />
	<path style="fill:none;stroke:red;stroke-width:1px;stroke-linecap:butt;stroke-linejoin:miter;stroke-opacity:1" d="M 590.182,142.347 600.43,142.347 z" id="boundary" inkscape:connector-curvature="0" />
	<path style="fill:none;stroke:red;stroke-width:1px;stroke-linecap:butt;stroke-linejoin:miter;stroke-opacity:1" d="M 600.43,142.347 610.678,142.347 z" id="boundary" inkscape:connector-curvature="0" />
	<path style="fill:none;stroke:red;stroke-width:1px;stroke-linecap:butt;stroke-linejoin:miter;stroke-opacity:1" d="M 610.678,142.347 620.926,143.372 z" id="boundary" inkscape:connector-curvature="0" />
	<path style="fill:none;stroke:red;stroke-width:1px;stroke-linecap:butt;stroke-linejoin:miter;stroke-opacity:1" d="M 620.926,143.372 631.174,143.372 z" id="boundary" inkscape:connector-curvature="0" />
	<path style="fill:none;stroke:red;stroke-width:1px;stroke-linecap:butt;stroke-linejoin:miter;stroke-opacity:1" d="M 631.174,143.372 641.421,143.372 z" id="boundary" inkscape:connector-curvature="0" />
	<path style="fill:none;stroke:red;stroke-width:1px;stroke-linecap:butt;stroke-linejoin:miter;stroke-opacity:1" d="M 692.661,141.322 702.909,141.322 z" id="boundary" inkscape:connector-curvature="0" />
	<path style="fill:none;stroke:red;stroke-width:1px;stroke-linecap:butt;stroke-linejoin:miter;stroke-opacity:1" d="M 713.157,141.322 702.909,141.322 z" id="boundary" inkscape:connector-curvature="0" />
	<path style="fill:none;stroke:red;stroke-width:1px;stroke-linecap:butt;stroke-linejoin:miter;stroke-opacity:1" d="M 651.669,143.372 661.917,143.372 z" id="boundary" inkscape:connector-curvature="0" />
	<path style="fill:none;stroke:red;stroke-width:1px;stroke-linecap:butt;stroke-linejoin:miter;stroke-opacity:1" d="M 672.165,142.347 682.413,142.347 z" id="boundary" inkscape:connector-curvature="0" />
	<path style="fill:none;stroke:red;stroke-width:1px;stroke-linecap:butt;stroke-linejoin:miter;stroke-opacity:1" d="M 661.917,143.372 672.165,142.347 z" id="boundary" inkscape:connector-curvature="0" />
	<path style="fill:none;stroke:red;stroke-width:1px;stroke-linecap:butt;stroke-linejoin:miter;stroke-opacity:1" d="M 651.669,143.372 641.421,143.372 z" id="boundary" inkscape:connector-curvature="0" />
	<path style="fill:none;stroke:red;stroke-width:1px;stroke-linecap:butt;stroke-linejoin:miter;stroke-opacity:1" d="M 938.612,116.727 928.364,121.851 z" id="boundary" inkscape:connector-curvature="0" />
	<path style="fill:none;stroke:red;stroke-width:1px;stroke-linecap:butt;stroke-linejoin:miter;stroke-opacity:1" d="M 928.364,121.851 918.116,122.876 z" id="boundary" inkscape:connector-curvature="0" />
	<path style="fill:none;stroke:red;stroke-width:1px;stroke-linecap:butt;stroke-linejoin:miter;stroke-opacity:1" d="M 918.116,122.876 907.868,123.901 z" id="boundary" inkscape:connector-curvature="0" />
	<path style="fill:none;stroke:red;stroke-width:1px;stroke-linecap:butt;stroke-linejoin:miter;stroke-opacity:1" d="M 877.124,126.975 866.876,126.975 z" id="boundary" inkscape:connector-curvature="0" />
	<path style="fill:none;stroke:red;stroke-width:1px;stroke-linecap:butt;stroke-linejoin:miter;stroke-opacity:1" d="M 897.62,125.95 907.868,123.901 z" id="boundary" inkscape:connector-curvature="0" />
	<path style="fill:none;stroke:red;stroke-width:1px;stroke-linecap:butt;stroke-linejoin:miter;stroke-opacity:1" d="M 897.62,125.95 887.372,126.975 z" id="boundary" inkscape:connector-curvature="0" />
	<path style="fill:none;stroke:red;stroke-width:1px;stroke-linecap:butt;stroke-linejoin:miter;stroke-opacity:1" d="M 996,85.9835 993.95,100.331 z" id="boundary" inkscape:connector-curvature="0" />
	<path style="fill:none;stroke:red;stroke-width:1px;stroke-linecap:butt;stroke-linejoin:miter;stroke-opacity:1" d="M 993.95,100.331 987.802,108.529 z" id="boundary" inkscape:connector-curvature="0" />
	<path style="fill:none;stroke:red;stroke-width:1px;stroke-linecap:butt;stroke-linejoin:miter;stroke-opacity:1" d="M 948.86,112.628 959.107,115.702 z" id="boundary" inkscape:connector-curvature="0" />
	<path style="fill:none;stroke:red;stroke-width:1px;stroke-linecap:butt;stroke-linejoin:miter;stroke-opacity:1" d="M 938.612,116.727 948.86,112.628 z" id="boundary" inkscape:connector-curvature="0" />
	<path style="fill:none;stroke:red;stroke-width:1px;stroke-linecap:butt;stroke-linejoin:miter;stroke-opacity:1" d="M 969.355,117.752 959.107,115.702 z" id="boundary" inkscape:connector-curvature="0" />
	<path style="fill:none;stroke:red;stroke-width:1px;stroke-linecap:butt;stroke-linejoin:miter;stroke-opacity:1" d="M 979.603,115.702 969.355,117.752 z" id="boundary" inkscape:connector-curvature="0" />
	<path style="fill:none;stroke:red;stroke-width:1px;stroke-linecap:butt;stroke-linejoin:miter;stroke-opacity:1" d="M 987.802,108.529 979.603,115.702 z" id="boundary" inkscape:connector-curvature="0" />
	<path style="fill:none;stroke:red;stroke-width:1px;stroke-linecap:butt;stroke-linejoin:miter;stroke-opacity:1" d="M 866.876,126.975 856.628,128 z" id="boundary" inkscape:connector-curvature="0" />
	<path style="fill:none;stroke:red;stroke-width:1px;stroke-linecap:butt;stroke-linejoin:miter;stroke-opacity:1" d="M 795.14,134.149 784.893,135.174 z" id="boundary" inkscape:connector-curvature="0" />
	<path style="fill:none;stroke:red;stroke-width:1px;stroke-linecap:butt;stroke-linejoin:miter;stroke-opacity:1" d="M 805.388,133.124 795.14,134.149 z" id="boundary" inkscape:connector-curvature="0" />
	<path style="fill:none;stroke:red;stroke-width:1px;stroke-linecap:butt;stroke-linejoin:miter;stroke-opacity:1" d="M 784.893,135.174 774.645,135.174 z" id="boundary" inkscape:connector-curvature="0" />
	<path style="fill:none;stroke:red;stroke-width:1px;stroke-linecap:butt;stroke-linejoin:miter;stroke-opacity:1" d="M 764.397,137.223 754.149,137.223 z" id="boundary" inkscape:connector-curvature="0" />
	<path style="fill:none;stroke:red;stroke-width:1px;stroke-linecap:butt;stroke-linejoin:miter;stroke-opacity:1" d="M 764.397,137.223 774.645,135.174 z" id="boundary" inkscape:connector-curvature="0" />
	<path style="fill:none;stroke:red;stroke-width:1px;stroke-linecap:butt;stroke-linejoin:miter;stroke-opacity:1" d="M 743.901,138.248 754.149,137.223 z" id="boundary" inkscape:connector-curvature="0" />
	<path style="fill:none;stroke:red;stroke-width:1px;stroke-linecap:butt;stroke-linejoin:miter;stroke-opacity:1" d="M 877.124,126.975 887.372,126.975 z" id="boundary" inkscape:connector-curvature="0" />
	<path style="fill:none;stroke:red;stroke-width:1px;stroke-linecap:butt;stroke-linejoin:miter;stroke-opacity:1" d="M 846.38,129.025 856.628,128 z" id="boundary" inkscape:connector-curvature="0" />
	<path style="fill:none;stroke:red;stroke-width:1px;stroke-linecap:butt;stroke-linejoin:miter;stroke-opacity:1" d="M 815.636,132.099 825.884,131.074 z" id="boundary" inkscape:connector-curvature="0" />
	<path style="fill:none;stroke:red;stroke-width:1px;stroke-linecap:butt;stroke-linejoin:miter;stroke-opacity:1" d="M 815.636,132.099 805.388,133.124 z" id="boundary" inkscape:connector-curvature="0" />
	<path style="fill:none;stroke:red;stroke-width:1px;stroke-linecap:butt;stroke-linejoin:miter;stroke-opacity:1" d="M 836.132,130.05 846.38,129.025 z" id="boundary" inkscape:connector-curvature="0" />
	<path style="fill:none;stroke:red;stroke-width:1px;stroke-linecap:butt;stroke-linejoin:miter;stroke-opacity:1" d="M 836.132,130.05 825.884,131.074 z" id="boundary" inkscape:connector-curvature="0" />
	<circle cx="4" cy="84.9587" r="4" fill="#0" id="circle0"/>
	<circle cx="5.02479" cy="95.2066" r="4" fill="#0" id="circle1"/>
	<circle cx="6.04959" cy="71.6364" r="4" fill="#0" id="circle2"/>
	<circle cx="6.04959" cy="105.455" r="4" fill="#0" id="circle3"/>
	<circle cx="6.04959" cy="115.702" r="4" fill="#0" id="circle4"/>
	<circle cx="8.09917" cy="125.95" r="4" fill="#0" id="circle5"/>
	<circle cx="10.1488" cy="60.3636" r="4" fill="#0" id="circle6"/>
	<circle cx="11.1736" cy="136.198" r="4" fill="#0" id="circle7"/>
	<circle cx="16.2975" cy="50.1157" r="4" fill="#0" id="circle8"/>
	<circle cx="17.3223" cy="144.397" r="4" fill="#0" id="circle9"/>
	<circle cx="23.4711" cy="41.9174" r="4" fill="#0" id="circle10"/>
	<circle cx="23.4711" cy="152.595" r="4" fill="#0" id="circle11"/>
	<circle cx="31.6694" cy="34.7438" r="4" fill="#0" id="circle12"/>
	<circle cx="31.6694" cy="158.744" r="4" fill="#0" id="circle13"/>
	<circle cx="39.8678" cy="164.893" r="4" fill="#0" id="circle14"/>
	<circle cx="40.8926" cy="28.595" r="4" fill="#0" id="circle15"/>
	<circle cx="50.1157" cy="168.992" r="4" fill="#0" id="circle16"/>
	<circle cx="51.1405" cy="24.4959" r="4" fill="#0" id="circle17"/>
	<circle cx="60.3636" cy="172.066" r="4" fill="#0" id="circle18"/>
	<circle cx="61.3884" cy="19.3719" r="4" fill="#0" id="circle19"/>
	<circle cx="70.6116" cy="175.14" r="4" fill="#0" id="circle20"/>
	<circle cx="71.6364" cy="15.2727" r="4" fill="#0" id="circle21"/>
	<circle cx="80.8595" cy="177.19" r="4" fill="#0" id="circle22"/>
	<circle cx="81.8843" cy="12.1983" r="4" fill="#0" id="circle23"/>
	<circle cx="91.1074" cy="179.24" r="4" fill="#0" id="circle24"/>
	<circle cx="92.1322" cy="10.1488" r="4" fill="#0" id="circle25"/>
	<circle cx="101.355" cy="180.264" r="4" fill="#0" id="circle26"/>
	<circle cx="102.38" cy="9.12397" r="4" fill="#0" id="circle27"/>
	<circle cx="111.603" cy="182.314" r="4" fill="#0" id="circle28"/>
	<circle cx="112.628" cy="7.07438" r="4" fill="#0" id="circle29"/>
	<circle cx="121.851" cy="183.339" r="4" fill="#0" id="circle30"/>
	<circle cx="122.876" cy="6.04959" r="4" fill="#0" id="circle31"/>
	<circle cx="132.099" cy="184.364" r="4" fill="#0" id="circle32"/>
	<circle cx="133.124" cy="5.02479" r="4" fill="#0" id="circle33"/>
	<circle cx="142.347" cy="184.364" r="4" fill="#0" id="circle34"/>
	<circle cx="143.372" cy="5.02479" r="4" fill="#0" id="circle35"/>
	<circle cx="152.595" cy="184.364" r="4" fill="#0" id="circle36"/>
	<circle cx="153.62" cy="4" r="4" fill="#0" id="circle37"/>
	<circle cx="162.843" cy="183.339" r="4" fill="#0" id="circle38"/>
	<circle cx="163.868" cy="5.02479" r="4" fill="#0" id="circle39"/>
	<circle cx="173.091" cy="183.339" r="4" fill="#0" id="circle40"/>
	<circle cx="174.116" cy="5.02479" r="4" fill="#0" id="circle41"/>
	<circle cx="183.339" cy="182.314" r="4" fill="#0" id="circle42"/>
	<circle cx="184.364" cy="6.04959" r="4" fill="#0" id="circle43"/>
	<circle cx="193.587" cy="180.264" r="4" fill="#0" id="circle44"/>
	<circle cx="194.612" cy="6.04959" r="4" fill="#0" id="circle45"/>
	<circle cx="203.835" cy="179.24" r="4" fill="#0" id="circle46"/>
	<circle cx="204.86" cy="6.04959" r="4" fill="#0" id="circle47"/>
	<circle cx="214.083" cy="177.19" r="4" fill="#0" id="circle48"/>
	<circle cx="215.107" cy="7.07438" r="4" fill="#0" id="circle49"/>
	<circle cx="224.331" cy="174.116" r="4" fill="#0" id="circle50"/>
	<circle cx="225.355" cy="8.09917" r="4" fill="#0" id="circle51"/>
	<circle cx="234.579" cy="171.041" r="4" fill="#0" id="circle52"/>
	<circle cx="235.603" cy="10.1488" r="4" fill="#0" id="circle53"/>
	<circle cx="244.826" cy="166.942" r="4" fill="#0" id="circle54"/>
	<circle cx="245.851" cy="12.1983" r="4" fill="#0" id="circle55"/>
	<circle cx="255.074" cy="162.843" r="4" fill="#0" id="circle56"/>
	<circle cx="256.099" cy="15.2727" r="4" fill="#0" id="circle57"/>
	<circle cx="264.298" cy="157.719" r="4" fill="#0" id="circle58"/>
	<circle cx="266.347" cy="19.3719" r="4" fill="#0" id="circle59"/>
	<circle cx="273.521" cy="152.595" r="4" fill="#0" id="circle60"/>
	<circle cx="275.57" cy="24.4959" r="4" fill="#0" id="circle61"/>
	<circle cx="281.719" cy="144.397" r="4" fill="#0" id="circle62"/>
	<circle cx="283.769" cy="30.6446" r="4" fill="#0" id="circle63"/>
	<circle cx="289.917" cy="136.198" r="4" fill="#0" id="circle64"/>
	<circle cx="290.942" cy="38.843" r="4" fill="#0" id="circle65"/>
	<circle cx="297.091" cy="128" r="4" fill="#0" id="circle66"/>
	<circle cx="299.14" cy="46.0165" r="4" fill="#0" id="circle67"/>
	<circle cx="305.289" cy="119.802" r="4" fill="#0" id="circle68"/>
	<circle cx="306.314" cy="54.2149" r="4" fill="#0" id="circle69"/>
	<circle cx="313.488" cy="113.653" r="4" fill="#0" id="circle70"/>
	<circle cx="314.512" cy="60.3636" r="4" fill="#0" id="circle71"/>
	<circle cx="323.736" cy="111.603" r="4" fill="#0" id="circle72"/>
	<circle cx="324.76" cy="63.438" r="4" fill="#0" id="circle73"/>
	<circle cx="333.983" cy="111.603" r="4" fill="#0" id="circle74"/>
	<circle cx="335.008" cy="63.438" r="4" fill="#0" id="circle75"/>
	<circle cx="344.231" cy="112.628" r="4" fill="#0" id="circle76"/>
	<circle cx="345.256" cy="63.438" r="4" fill="#0" id="circle77"/>
	<circle cx="354.479" cy="114.678" r="4" fill="#0" id="circle78"/>
	<circle cx="355.504" cy="63.438" r="4" fill="#0" id="circle79"/>
	<circle cx="364.727" cy="116.727" r="4" fill="#0" id="circle80"/>
	<circle cx="365.752" cy="63.438" r="4" fill="#0" id="circle81"/>
	<circle cx="374.975" cy="117.752" r="4" fill="#0" id="circle82"/>
	<circle cx="376" cy="63.438" r="4" fill="#0" id="circle83"/>
	<circle cx="385.223" cy="118.777" r="4" fill="#0" id="circle84"/>
	<circle cx="386.248" cy="62.4132" r="4" fill="#0" id="circle85"/>
	<circle cx="395.471" cy="119.802" r="4" fill="#0" id="circle86"/>
	<circle cx="396.496" cy="61.3884" r="4" fill="#0" id="circle87"/>
	<circle cx="405.719" cy="121.851" r="4" fill="#0" id="circle88"/>
	<circle cx="406.744" cy="61.3884" r="4" fill="#0" id="circle89"/>
	<circle cx="415.967" cy="123.901" r="4" fill="#0" id="circle90"/>
	<circle cx="416.992" cy="61.3884" r="4" fill="#0" id="circle91"/>
	<circle cx="426.215" cy="124.926" r="4" fill="#0" id="circle92"/>
	<circle cx="427.24" cy="59.3388" r="4" fill="#0" id="circle93"/>
	<circle cx="436.463" cy="126.975" r="4" fill="#0" id="circle94"/>
	<circle cx="437.488" cy="59.3388" r="4" fill="#0" id="circle95"/>
	<circle cx="446.711" cy="128" r="4" fill="#0" id="circle96"/>
	<circle cx="447.736" cy="58.314" r="4" fill="#0" id="circle97"/>
	<circle cx="456.959" cy="129.025" r="4" fill="#0" id="circle98"/>
	<circle cx="457.983" cy="57.2893" r="4" fill="#0" id="circle99"/>
	<circle cx="467.207" cy="130.05" r="4" fill="#0" id="circle100"/>
	<circle cx="468.231" cy="56.2645" r="4" fill="#0" id="circle101"/>
	<circle cx="477.455" cy="132.099" r="4" fill="#0" id="circle102"/>
	<circle cx="478.479" cy="55.2397" r="4" fill="#0" id="circle103"/>
	<circle cx="487.702" cy="133.124" r="4" fill="#0" id="circle104"/>
	<circle cx="488.727" cy="54.2149" r="4" fill="#0" id="circle105"/>
	<circle cx="497.95" cy="134.149" r="4" fill="#0" id="circle106"/>
	<circle cx="498.975" cy="53.1901" r="4" fill="#0" id="circle107"/>
	<circle cx="508.198" cy="135.174" r="4" fill="#0" id="circle108"/>
	<circle cx="509.223" cy="52.1653" r="4" fill="#0" id="circle109"/>
	<circle cx="518.446" cy="136.198" r="4" fill="#0" id="circle110"/>
	<circle cx="519.471" cy="50.1157" r="4" fill="#0" id="circle111"/>
	<circle cx="528.694" cy="138.248" r="4" fill="#0" id="circle112"/>
	<circle cx="529.719" cy="49.0909" r="4" fill="#0" id="circle113"/>
	<circle cx="538.942" cy="139.273" r="4" fill="#0" id="circle114"/>
	<circle cx="539.967" cy="48.0661" r="4" fill="#0" id="circle115"/>
	<circle cx="549.19" cy="139.273" r="4" fill="#0" id="circle116"/>
	<circle cx="550.215" cy="47.0413" r="4" fill="#0" id="circle117"/>
	<circle cx="559.438" cy="140.298" r="4" fill="#0" id="circle118"/>
	<circle cx="560.463" cy="46.0165" r="4" fill="#0" id="circle119"/>
	<circle cx="569.686" cy="141.322" r="4" fill="#0" id="circle120"/>
	<circle cx="570.711" cy="44.9917" r="4" fill="#0" id="circle121"/>
	<circle cx="579.934" cy="141.322" r="4" fill="#0" id="circle122"/>
	<circle cx="580.959" cy="43.9669" r="4" fill="#0" id="circle123"/>
	<circle cx="590.182" cy="142.347" r="4" fill="#0" id="circle124"/>
	<circle cx="591.207" cy="42.9421" r="4" fill="#0" id="circle125"/>
	<circle cx="600.43" cy="142.347" r="4" fill="#0" id="circle126"/>
	<circle cx="601.455" cy="40.8926" r="4" fill="#0" id="circle127"/>
	<circle cx="610.678" cy="142.347" r="4" fill="#0" id="circle128"/>
	<circle cx="611.702" cy="40.8926" r="4" fill="#0" id="circle129"/>
	<circle cx="620.926" cy="143.372" r="4" fill="#0" id="circle130"/>
	<circle cx="621.95" cy="39.8678" r="4" fill="#0" id="circle131"/>
	<circle cx="631.174" cy="143.372" r="4" fill="#0" id="circle132"/>
	<circle cx="632.198" cy="39.8678" r="4" fill="#0" id="circle133"/>
	<circle cx="641.421" cy="143.372" r="4" fill="#0" id="circle134"/>
	<circle cx="642.446" cy="38.843" r="4" fill="#0" id="circle135"/>
	<circle cx="651.669" cy="143.372" r="4" fill="#0" id="circle136"/>
	<circle cx="652.694" cy="37.8182" r="4" fill="#0" id="circle137"/>
	<circle cx="661.917" cy="143.372" r="4" fill="#0" id="circle138"/>
	<circle cx="662.942" cy="36.7934" r="4" fill="#0" id="circle139"/>
	<circle cx="672.165" cy="142.347" r="4" fill="#0" id="circle140"/>
	<circle cx="673.19" cy="36.7934" r="4" fill="#0" id="circle141"/>
	<circle cx="682.413" cy="142.347" r="4" fill="#0" id="circle142"/>
	<circle cx="683.438" cy="35.7686" r="4" fill="#0" id="circle143"/>
	<circle cx="692.661" cy="141.322" r="4" fill="#0" id="circle144"/>
	<circle cx="693.686" cy="35.7686" r="4" fill="#0" id="circle145"/>
	<circle cx="702.909" cy="141.322" r="4" fill="#0" id="circle146"/>
	<circle cx="703.934" cy="35.7686" r="4" fill="#0" id="circle147"/>
	<circle cx="713.157" cy="141.322" r="4" fill="#0" id="circle148"/>
	<circle cx="714.182" cy="35.7686" r="4" fill="#0" id="circle149"/>
	<circle cx="723.405" cy="140.298" r="4" fill="#0" id="circle150"/>
	<circle cx="724.43" cy="34.7438" r="4" fill="#0" id="circle151"/>
	<circle cx="733.653" cy="139.273" r="4" fill="#0" id="circle152"/>
	<circle cx="734.678" cy="34.7438" r="4" fill="#0" id="circle153"/>
	<circle cx="743.901" cy="138.248" r="4" fill="#0" id="circle154"/>
	<circle cx="744.926" cy="34.7438" r="4" fill="#0" id="circle155"/>
	<circle cx="754.149" cy="137.223" r="4" fill="#0" id="circle156"/>
	<circle cx="755.174" cy="35.7686" r="4" fill="#0" id="circle157"/>
	<circle cx="764.397" cy="137.223" r="4" fill="#0" id="circle158"/>
	<circle cx="765.421" cy="35.7686" r="4" fill="#0" id="circle159"/>
	<circle cx="774.645" cy="135.174" r="4" fill="#0" id="circle160"/>
	<circle cx="775.669" cy="36.7934" r="4" fill="#0" id="circle161"/>
	<circle cx="784.893" cy="135.174" r="4" fill="#0" id="circle162"/>
	<circle cx="785.917" cy="36.7934" r="4" fill="#0" id="circle163"/>
	<circle cx="795.14" cy="134.149" r="4" fill="#0" id="circle164"/>
	<circle cx="796.165" cy="36.7934" r="4" fill="#0" id="circle165"/>
	<circle cx="805.388" cy="133.124" r="4" fill="#0" id="circle166"/>
	<circle cx="806.413" cy="36.7934" r="4" fill="#0" id="circle167"/>
	<circle cx="815.636" cy="132.099" r="4" fill="#0" id="circle168"/>
	<circle cx="816.661" cy="36.7934" r="4" fill="#0" id="circle169"/>
	<circle cx="825.884" cy="131.074" r="4" fill="#0" id="circle170"/>
	<circle cx="826.909" cy="36.7934" r="4" fill="#0" id="circle171"/>
	<circle cx="836.132" cy="130.05" r="4" fill="#0" id="circle172"/>
	<circle cx="837.157" cy="37.8182" r="4" fill="#0" id="circle173"/>
	<circle cx="846.38" cy="129.025" r="4" fill="#0" id="circle174"/>
	<circle cx="847.405" cy="37.8182" r="4" fill="#0" id="circle175"/>
	<circle cx="856.628" cy="128" r="4" fill="#0" id="circle176"/>
	<circle cx="857.653" cy="38.843" r="4" fill="#0" id="circle177"/>
	<circle cx="866.876" cy="126.975" r="4" fill="#0" id="circle178"/>
	<circle cx="867.901" cy="38.843" r="4" fill="#0" id="circle179"/>
	<circle cx="877.124" cy="126.975" r="4" fill="#0" id="circle180"/>
	<circle cx="878.149" cy="39.8678" r="4" fill="#0" id="circle181"/>
	<circle cx="887.372" cy="126.975" r="4" fill="#0" id="circle182"/>
	<circle cx="888.397" cy="40.8926" r="4" fill="#0" id="circle183"/>
	<circle cx="897.62" cy="125.95" r="4" fill="#0" id="circle184"/>
	<circle cx="898.645" cy="40.8926" r="4" fill="#0" id="circle185"/>
	<circle cx="907.868" cy="123.901" r="4" fill="#0" id="circle186"/>
	<circle cx="908.893" cy="41.9174" r="4" fill="#0" id="circle187"/>
	<circle cx="918.116" cy="122.876" r="4" fill="#0" id="circle188"/>
	<circle cx="919.14" cy="41.9174" r="4" fill="#0" id="circle189"/>
	<circle cx="928.364" cy="121.851" r="4" fill="#0" id="circle190"/>
	<circle cx="929.388" cy="41.9174" r="4" fill="#0" id="circle191"/>
	<circle cx="938.612" cy="116.727" r="4" fill="#0" id="circle192"/>
	<circle cx="939.636" cy="43.9669" r="4" fill="#0" id="circle193"/>
	<circle cx="948.86" cy="49.0909" r="4" fill="#0" id="circle194"/>
	<circle cx="948.86" cy="112.628" r="4" fill="#0" id="circle195"/>
	<circle cx="959.107" cy="47.0413" r="4" fill="#0" id="circle196"/>
	<circle cx="959.107" cy="115.702" r="4" fill="#0" id="circle197"/>
	<circle cx="969.355" cy="46.0165" r="4" fill="#0" id="circle198"/>
	<circle cx="969.355" cy="117.752" r="4" fill="#0" id="circle199"/>
	<circle cx="979.603" cy="48.0661" r="4" fill="#0" id="circle200"/>
	<circle cx="979.603" cy="115.702" r="4" fill="#0" id="circle201"/>
	<circle cx="987.802" cy="108.529" r="4" fill="#0" id="circle202"/>
	<circle cx="989.851" cy="51.1405" r="4" fill="#0" id="circle203"/>
	<circle cx="993.95" cy="100.331" r="4" fill="#0" id="circle204"/>
	<circle cx="994.975" cy="60.3636" r="4" fill="#0" id="circle205"/>
	<circle cx="996" cy="70.6116" r="4" fill="#0" id="circle206"/>
	<circle cx="996" cy="85.9835" r="4" fill="#0" id="circle207"/>
	</g>
</svg>