<?xml version="1.0" encoding="UTF-8" standalone="no"?>
<!-- Created with CurveBenchmark -->
<svg
	xmlns:dc="http://purl.org/dc/elements/1.1/"
	xmlns:cc="http://creativecommons.org/ns#"
	xmlns:rdf="http://www.w3.org/1999/02/22-rdf-syntax-ns#"
	xmlns:svg="http://www.w3.org/2000/svg"
	xmlns="http://www.w3.org/2000/svg"
	xmlns:sodipodi="http://sodipodi.sourceforge.net/DTD/sodipodi-0.dtd"
	xmlns:inkscape="http://www.inkscape.org/namespaces/inkscape"
	width="1000"
	height="1000"
	id="svg2"
	version="1.1"
	sodipodi:docname="manifold/gathang-bed315.png.txt">
<defs
	id="defs4" />
<metadata
	id="metadata7">
	<rdf:RDF>
		<cc:Work
			rdf:about="">
			<dc:format>image/svg+xml</dc:format>
			<dc:type
				rdf:resource="http://purl.org/dc/dcmitype/StillImage" />
			<dc:title></dc:title>
		</cc:Work>
	</rdf:RDF>
</metadata>
<g
	inkscape:label="Layer 1"
	inkscape:groupmode="layer"
	id="layer1">
	<path style="fill:none;stroke:red;stroke-width:1px;stroke-linecap:butt;stroke-linejoin:miter;stroke-opacity:1" d="M 130.255,269.626 146.651,269.626 z" id="boundary" inkscape:connector-curvature="0" />
	<path style="fill:none;stroke:red;stroke-width:1px;stroke-linecap:butt;stroke-linejoin:miter;stroke-opacity:1" d="M 113.858,272.906 130.255,269.626 z" id="boundary" inkscape:connector-curvature="0" />
	<path style="fill:none;stroke:red;stroke-width:1px;stroke-linecap:butt;stroke-linejoin:miter;stroke-opacity:1" d="M 81.0645,279.464 97.4612,272.906 z" id="boundary" inkscape:connector-curvature="0" />
	<path style="fill:none;stroke:red;stroke-width:1px;stroke-linecap:butt;stroke-linejoin:miter;stroke-opacity:1" d="M 97.4612,272.906 113.858,272.906 z" id="boundary" inkscape:connector-curvature="0" />
	<path style="fill:none;stroke:red;stroke-width:1px;stroke-linecap:butt;stroke-linejoin:miter;stroke-opacity:1" d="M 81.0645,279.464 64.6678,282.744 z" id="boundary" inkscape:connector-curvature="0" />
	<path style="fill:none;stroke:red;stroke-width:1px;stroke-linecap:butt;stroke-linejoin:miter;stroke-opacity:1" d="M 208.959,241.752 222.076,231.914 z" id="boundary" inkscape:connector-curvature="0" />
	<path style="fill:none;stroke:red;stroke-width:1px;stroke-linecap:butt;stroke-linejoin:miter;stroke-opacity:1" d="M 208.959,241.752 194.202,249.95 z" id="boundary" inkscape:connector-curvature="0" />
	<path style="fill:none;stroke:red;stroke-width:1px;stroke-linecap:butt;stroke-linejoin:miter;stroke-opacity:1" d="M 238.473,226.995 222.076,231.914 z" id="boundary" inkscape:connector-curvature="0" />
	<path style="fill:none;stroke:red;stroke-width:1px;stroke-linecap:butt;stroke-linejoin:miter;stroke-opacity:1" d="M 179.445,258.149 194.202,249.95 z" id="boundary" inkscape:connector-curvature="0" />
	<path style="fill:none;stroke:red;stroke-width:1px;stroke-linecap:butt;stroke-linejoin:miter;stroke-opacity:1" d="M 179.445,258.149 163.048,266.347 z" id="boundary" inkscape:connector-curvature="0" />
	<path style="fill:none;stroke:red;stroke-width:1px;stroke-linecap:butt;stroke-linejoin:miter;stroke-opacity:1" d="M 163.048,266.347 146.651,269.626 z" id="boundary" inkscape:connector-curvature="0" />
	<path style="fill:none;stroke:red;stroke-width:1px;stroke-linecap:butt;stroke-linejoin:miter;stroke-opacity:1" d="M 4,315.537 17.1174,302.42 z" id="boundary" inkscape:connector-curvature="0" />
	<path style="fill:none;stroke:red;stroke-width:1px;stroke-linecap:butt;stroke-linejoin:miter;stroke-opacity:1" d="M 4,331.934 4,315.537 z" id="boundary" inkscape:connector-curvature="0" />
	<path style="fill:none;stroke:red;stroke-width:1px;stroke-linecap:butt;stroke-linejoin:miter;stroke-opacity:1" d="M 4,331.934 12.1983,346.691 z" id="boundary" inkscape:connector-curvature="0" />
	<path style="fill:none;stroke:red;stroke-width:1px;stroke-linecap:butt;stroke-linejoin:miter;stroke-opacity:1" d="M 17.1174,363.088 12.1983,346.691 z" id="boundary" inkscape:connector-curvature="0" />
	<path style="fill:none;stroke:red;stroke-width:1px;stroke-linecap:butt;stroke-linejoin:miter;stroke-opacity:1" d="M 17.1174,363.088 17.1174,379.484 z" id="boundary" inkscape:connector-curvature="0" />
	<path style="fill:none;stroke:red;stroke-width:1px;stroke-linecap:butt;stroke-linejoin:miter;stroke-opacity:1" d="M 17.1174,302.42 33.514,295.861 z" id="boundary" inkscape:connector-curvature="0" />
	<path style="fill:none;stroke:red;stroke-width:1px;stroke-linecap:butt;stroke-linejoin:miter;stroke-opacity:1" d="M 48.2711,287.663 64.6678,282.744 z" id="boundary" inkscape:connector-curvature="0" />
	<path style="fill:none;stroke:red;stroke-width:1px;stroke-linecap:butt;stroke-linejoin:miter;stroke-opacity:1" d="M 48.2711,287.663 33.514,295.861 z" id="boundary" inkscape:connector-curvature="0" />
	<path style="fill:none;stroke:red;stroke-width:1px;stroke-linecap:butt;stroke-linejoin:miter;stroke-opacity:1" d="M 17.1174,379.484 20.3967,395.881 z" id="boundary" inkscape:connector-curvature="0" />
	<path style="fill:none;stroke:red;stroke-width:1px;stroke-linecap:butt;stroke-linejoin:miter;stroke-opacity:1" d="M 20.3967,395.881 20.3967,412.278 z" id="boundary" inkscape:connector-curvature="0" />
	<path style="fill:none;stroke:red;stroke-width:1px;stroke-linecap:butt;stroke-linejoin:miter;stroke-opacity:1" d="M 238.473,226.995 254.869,233.554 z" id="boundary" inkscape:connector-curvature="0" />
	<path style="fill:none;stroke:red;stroke-width:1px;stroke-linecap:butt;stroke-linejoin:miter;stroke-opacity:1" d="M 254.869,233.554 267.987,243.392 z" id="boundary" inkscape:connector-curvature="0" />
	<path style="fill:none;stroke:red;stroke-width:1px;stroke-linecap:butt;stroke-linejoin:miter;stroke-opacity:1" d="M 284.383,249.95 267.987,243.392 z" id="boundary" inkscape:connector-curvature="0" />
	<path style="fill:none;stroke:red;stroke-width:1px;stroke-linecap:butt;stroke-linejoin:miter;stroke-opacity:1" d="M 313.898,266.347 297.501,259.788 z" id="boundary" inkscape:connector-curvature="0" />
	<path style="fill:none;stroke:red;stroke-width:1px;stroke-linecap:butt;stroke-linejoin:miter;stroke-opacity:1" d="M 297.501,259.788 284.383,249.95 z" id="boundary" inkscape:connector-curvature="0" />
	<path style="fill:none;stroke:red;stroke-width:1px;stroke-linecap:butt;stroke-linejoin:miter;stroke-opacity:1" d="M 330.294,269.626 313.898,266.347 z" id="boundary" inkscape:connector-curvature="0" />
	<path style="fill:none;stroke:red;stroke-width:1px;stroke-linecap:butt;stroke-linejoin:miter;stroke-opacity:1" d="M 535.253,226.995 548.37,217.157 z" id="boundary" inkscape:connector-curvature="0" />
	<path style="fill:none;stroke:red;stroke-width:1px;stroke-linecap:butt;stroke-linejoin:miter;stroke-opacity:1" d="M 548.37,217.157 564.767,213.878 z" id="boundary" inkscape:connector-curvature="0" />
	<path style="fill:none;stroke:red;stroke-width:1px;stroke-linecap:butt;stroke-linejoin:miter;stroke-opacity:1" d="M 535.253,226.995 518.856,233.554 z" id="boundary" inkscape:connector-curvature="0" />
	<path style="fill:none;stroke:red;stroke-width:1px;stroke-linecap:butt;stroke-linejoin:miter;stroke-opacity:1" d="M 518.856,233.554 505.739,246.671 z" id="boundary" inkscape:connector-curvature="0" />
	<path style="fill:none;stroke:red;stroke-width:1px;stroke-linecap:butt;stroke-linejoin:miter;stroke-opacity:1" d="M 505.739,246.671 492.621,256.509 z" id="boundary" inkscape:connector-curvature="0" />
	<path style="fill:none;stroke:red;stroke-width:1px;stroke-linecap:butt;stroke-linejoin:miter;stroke-opacity:1" d="M 481.144,269.626 492.621,256.509 z" id="boundary" inkscape:connector-curvature="0" />
	<path style="fill:none;stroke:red;stroke-width:1px;stroke-linecap:butt;stroke-linejoin:miter;stroke-opacity:1" d="M 576.245,441.792 559.848,441.792 z" id="boundary" inkscape:connector-curvature="0" />
	<path style="fill:none;stroke:red;stroke-width:1px;stroke-linecap:butt;stroke-linejoin:miter;stroke-opacity:1" d="M 330.294,269.626 346.691,269.626 z" id="boundary" inkscape:connector-curvature="0" />
	<path style="fill:none;stroke:red;stroke-width:1px;stroke-linecap:butt;stroke-linejoin:miter;stroke-opacity:1" d="M 346.691,269.626 363.088,272.906 z" id="boundary" inkscape:connector-curvature="0" />
	<path style="fill:none;stroke:red;stroke-width:1px;stroke-linecap:butt;stroke-linejoin:miter;stroke-opacity:1" d="M 363.088,272.906 379.484,272.906 z" id="boundary" inkscape:connector-curvature="0" />
	<path style="fill:none;stroke:red;stroke-width:1px;stroke-linecap:butt;stroke-linejoin:miter;stroke-opacity:1" d="M 379.484,272.906 395.881,279.464 z" id="boundary" inkscape:connector-curvature="0" />
	<path style="fill:none;stroke:red;stroke-width:1px;stroke-linecap:butt;stroke-linejoin:miter;stroke-opacity:1" d="M 412.278,282.744 395.881,279.464 z" id="boundary" inkscape:connector-curvature="0" />
	<path style="fill:none;stroke:red;stroke-width:1px;stroke-linecap:butt;stroke-linejoin:miter;stroke-opacity:1" d="M 481.144,269.626 468.026,281.104 z" id="boundary" inkscape:connector-curvature="0" />
	<path style="fill:none;stroke:red;stroke-width:1px;stroke-linecap:butt;stroke-linejoin:miter;stroke-opacity:1" d="M 461.468,297.501 468.026,281.104 z" id="boundary" inkscape:connector-curvature="0" />
	<path style="fill:none;stroke:red;stroke-width:1px;stroke-linecap:butt;stroke-linejoin:miter;stroke-opacity:1" d="M 428.674,289.302 412.278,282.744 z" id="boundary" inkscape:connector-curvature="0" />
	<path style="fill:none;stroke:red;stroke-width:1px;stroke-linecap:butt;stroke-linejoin:miter;stroke-opacity:1" d="M 445.071,295.861 428.674,289.302 z" id="boundary" inkscape:connector-curvature="0" />
	<path style="fill:none;stroke:red;stroke-width:1px;stroke-linecap:butt;stroke-linejoin:miter;stroke-opacity:1" d="M 461.468,297.501 445.071,295.861 z" id="boundary" inkscape:connector-curvature="0" />
	<path style="fill:none;stroke:red;stroke-width:1px;stroke-linecap:butt;stroke-linejoin:miter;stroke-opacity:1" d="M 17.1174,446.711 20.3967,428.674 z" id="boundary" inkscape:connector-curvature="0" />
	<path style="fill:none;stroke:red;stroke-width:1px;stroke-linecap:butt;stroke-linejoin:miter;stroke-opacity:1" d="M 17.1174,446.711 7.27934,469.666 z" id="boundary" inkscape:connector-curvature="0" />
	<path style="fill:none;stroke:red;stroke-width:1px;stroke-linecap:butt;stroke-linejoin:miter;stroke-opacity:1" d="M 23.676,471.306 31.8744,454.909 z" id="boundary" inkscape:connector-curvature="0" />
	<path style="fill:none;stroke:red;stroke-width:1px;stroke-linecap:butt;stroke-linejoin:miter;stroke-opacity:1" d="M 31.8744,454.909 48.2711,451.63 z" id="boundary" inkscape:connector-curvature="0" />
	<path style="fill:none;stroke:red;stroke-width:1px;stroke-linecap:butt;stroke-linejoin:miter;stroke-opacity:1" d="M 20.3967,428.674 20.3967,412.278 z" id="boundary" inkscape:connector-curvature="0" />
	<path style="fill:none;stroke:red;stroke-width:1px;stroke-linecap:butt;stroke-linejoin:miter;stroke-opacity:1" d="M 48.2711,451.63 64.6678,451.63 z" id="boundary" inkscape:connector-curvature="0" />
	<path style="fill:none;stroke:red;stroke-width:1px;stroke-linecap:butt;stroke-linejoin:miter;stroke-opacity:1" d="M 112.218,451.63 128.615,445.071 z" id="boundary" inkscape:connector-curvature="0" />
	<path style="fill:none;stroke:red;stroke-width:1px;stroke-linecap:butt;stroke-linejoin:miter;stroke-opacity:1" d="M 128.615,445.071 145.012,449.99 z" id="boundary" inkscape:connector-curvature="0" />
	<path style="fill:none;stroke:red;stroke-width:1px;stroke-linecap:butt;stroke-linejoin:miter;stroke-opacity:1" d="M 81.0645,454.909 64.6678,451.63 z" id="boundary" inkscape:connector-curvature="0" />
	<path style="fill:none;stroke:red;stroke-width:1px;stroke-linecap:butt;stroke-linejoin:miter;stroke-opacity:1" d="M 161.408,456.549 145.012,449.99 z" id="boundary" inkscape:connector-curvature="0" />
	<path style="fill:none;stroke:red;stroke-width:1px;stroke-linecap:butt;stroke-linejoin:miter;stroke-opacity:1" d="M 97.4612,461.468 112.218,451.63 z" id="boundary" inkscape:connector-curvature="0" />
	<path style="fill:none;stroke:red;stroke-width:1px;stroke-linecap:butt;stroke-linejoin:miter;stroke-opacity:1" d="M 97.4612,461.468 81.0645,454.909 z" id="boundary" inkscape:connector-curvature="0" />
	<path style="fill:none;stroke:red;stroke-width:1px;stroke-linecap:butt;stroke-linejoin:miter;stroke-opacity:1" d="M 161.408,456.549 177.805,463.107 z" id="boundary" inkscape:connector-curvature="0" />
	<path style="fill:none;stroke:red;stroke-width:1px;stroke-linecap:butt;stroke-linejoin:miter;stroke-opacity:1" d="M 12.1983,486.063 7.27934,469.666 z" id="boundary" inkscape:connector-curvature="0" />
	<path style="fill:none;stroke:red;stroke-width:1px;stroke-linecap:butt;stroke-linejoin:miter;stroke-opacity:1" d="M 7.27934,505.739 12.1983,486.063 z" id="boundary" inkscape:connector-curvature="0" />
	<path style="fill:none;stroke:red;stroke-width:1px;stroke-linecap:butt;stroke-linejoin:miter;stroke-opacity:1" d="M 23.676,507.379 7.27934,505.739 z" id="boundary" inkscape:connector-curvature="0" />
	<path style="fill:none;stroke:red;stroke-width:1px;stroke-linecap:butt;stroke-linejoin:miter;stroke-opacity:1" d="M 23.676,471.306 23.676,507.379 z" id="boundary" inkscape:connector-curvature="0" />
	<path style="fill:none;stroke:red;stroke-width:1px;stroke-linecap:butt;stroke-linejoin:miter;stroke-opacity:1" d="M 208.959,477.864 192.562,471.306 z" id="boundary" inkscape:connector-curvature="0" />
	<path style="fill:none;stroke:red;stroke-width:1px;stroke-linecap:butt;stroke-linejoin:miter;stroke-opacity:1" d="M 258.149,477.864 241.752,481.144 z" id="boundary" inkscape:connector-curvature="0" />
	<path style="fill:none;stroke:red;stroke-width:1px;stroke-linecap:butt;stroke-linejoin:miter;stroke-opacity:1" d="M 241.752,481.144 225.355,481.144 z" id="boundary" inkscape:connector-curvature="0" />
	<path style="fill:none;stroke:red;stroke-width:1px;stroke-linecap:butt;stroke-linejoin:miter;stroke-opacity:1" d="M 225.355,481.144 208.959,477.864 z" id="boundary" inkscape:connector-curvature="0" />
	<path style="fill:none;stroke:red;stroke-width:1px;stroke-linecap:butt;stroke-linejoin:miter;stroke-opacity:1" d="M 192.562,471.306 177.805,463.107 z" id="boundary" inkscape:connector-curvature="0" />
	<path style="fill:none;stroke:red;stroke-width:1px;stroke-linecap:butt;stroke-linejoin:miter;stroke-opacity:1" d="M 417.197,451.63 400.8,454.909 z" id="boundary" inkscape:connector-curvature="0" />
	<path style="fill:none;stroke:red;stroke-width:1px;stroke-linecap:butt;stroke-linejoin:miter;stroke-opacity:1" d="M 354.889,451.63 368.007,461.468 z" id="boundary" inkscape:connector-curvature="0" />
	<path style="fill:none;stroke:red;stroke-width:1px;stroke-linecap:butt;stroke-linejoin:miter;stroke-opacity:1" d="M 322.096,451.63 338.493,445.071 z" id="boundary" inkscape:connector-curvature="0" />
	<path style="fill:none;stroke:red;stroke-width:1px;stroke-linecap:butt;stroke-linejoin:miter;stroke-opacity:1" d="M 338.493,445.071 354.889,451.63 z" id="boundary" inkscape:connector-curvature="0" />
	<path style="fill:none;stroke:red;stroke-width:1px;stroke-linecap:butt;stroke-linejoin:miter;stroke-opacity:1" d="M 433.593,451.63 417.197,451.63 z" id="boundary" inkscape:connector-curvature="0" />
	<path style="fill:none;stroke:red;stroke-width:1px;stroke-linecap:butt;stroke-linejoin:miter;stroke-opacity:1" d="M 322.096,451.63 305.699,458.188 z" id="boundary" inkscape:connector-curvature="0" />
	<path style="fill:none;stroke:red;stroke-width:1px;stroke-linecap:butt;stroke-linejoin:miter;stroke-opacity:1" d="M 461.468,443.431 477.864,441.792 z" id="boundary" inkscape:connector-curvature="0" />
	<path style="fill:none;stroke:red;stroke-width:1px;stroke-linecap:butt;stroke-linejoin:miter;stroke-opacity:1" d="M 461.468,459.828 461.468,443.431 z" id="boundary" inkscape:connector-curvature="0" />
	<path style="fill:none;stroke:red;stroke-width:1px;stroke-linecap:butt;stroke-linejoin:miter;stroke-opacity:1" d="M 494.261,441.792 477.864,441.792 z" id="boundary" inkscape:connector-curvature="0" />
	<path style="fill:none;stroke:red;stroke-width:1px;stroke-linecap:butt;stroke-linejoin:miter;stroke-opacity:1" d="M 510.658,441.792 527.055,441.792 z" id="boundary" inkscape:connector-curvature="0" />
	<path style="fill:none;stroke:red;stroke-width:1px;stroke-linecap:butt;stroke-linejoin:miter;stroke-opacity:1" d="M 543.451,441.792 527.055,441.792 z" id="boundary" inkscape:connector-curvature="0" />
	<path style="fill:none;stroke:red;stroke-width:1px;stroke-linecap:butt;stroke-linejoin:miter;stroke-opacity:1" d="M 510.658,441.792 494.261,441.792 z" id="boundary" inkscape:connector-curvature="0" />
	<path style="fill:none;stroke:red;stroke-width:1px;stroke-linecap:butt;stroke-linejoin:miter;stroke-opacity:1" d="M 384.403,458.188 368.007,461.468 z" id="boundary" inkscape:connector-curvature="0" />
	<path style="fill:none;stroke:red;stroke-width:1px;stroke-linecap:butt;stroke-linejoin:miter;stroke-opacity:1" d="M 400.8,454.909 384.403,458.188 z" id="boundary" inkscape:connector-curvature="0" />
	<path style="fill:none;stroke:red;stroke-width:1px;stroke-linecap:butt;stroke-linejoin:miter;stroke-opacity:1" d="M 274.545,472.945 289.302,464.747 z" id="boundary" inkscape:connector-curvature="0" />
	<path style="fill:none;stroke:red;stroke-width:1px;stroke-linecap:butt;stroke-linejoin:miter;stroke-opacity:1" d="M 274.545,472.945 258.149,477.864 z" id="boundary" inkscape:connector-curvature="0" />
	<path style="fill:none;stroke:red;stroke-width:1px;stroke-linecap:butt;stroke-linejoin:miter;stroke-opacity:1" d="M 289.302,464.747 305.699,458.188 z" id="boundary" inkscape:connector-curvature="0" />
	<path style="fill:none;stroke:red;stroke-width:1px;stroke-linecap:butt;stroke-linejoin:miter;stroke-opacity:1" d="M 436.873,468.026 433.593,451.63 z" id="boundary" inkscape:connector-curvature="0" />
	<path style="fill:none;stroke:red;stroke-width:1px;stroke-linecap:butt;stroke-linejoin:miter;stroke-opacity:1" d="M 461.468,459.828 458.188,479.504 z" id="boundary" inkscape:connector-curvature="0" />
	<path style="fill:none;stroke:red;stroke-width:1px;stroke-linecap:butt;stroke-linejoin:miter;stroke-opacity:1" d="M 436.873,468.026 436.873,484.423 z" id="boundary" inkscape:connector-curvature="0" />
	<path style="fill:none;stroke:red;stroke-width:1px;stroke-linecap:butt;stroke-linejoin:miter;stroke-opacity:1" d="M 458.188,479.504 443.431,500.82 z" id="boundary" inkscape:connector-curvature="0" />
	<path style="fill:none;stroke:red;stroke-width:1px;stroke-linecap:butt;stroke-linejoin:miter;stroke-opacity:1" d="M 443.431,500.82 436.873,484.423 z" id="boundary" inkscape:connector-curvature="0" />
	<path style="fill:none;stroke:red;stroke-width:1px;stroke-linecap:butt;stroke-linejoin:miter;stroke-opacity:1" d="M 543.451,441.792 559.848,441.792 z" id="boundary" inkscape:connector-curvature="0" />
	<path style="fill:none;stroke:red;stroke-width:1px;stroke-linecap:butt;stroke-linejoin:miter;stroke-opacity:1" d="M 700.86,69.5868 717.256,63.0281 z" id="boundary" inkscape:connector-curvature="0" />
	<path style="fill:none;stroke:red;stroke-width:1px;stroke-linecap:butt;stroke-linejoin:miter;stroke-opacity:1" d="M 728.734,49.9107 717.256,63.0281 z" id="boundary" inkscape:connector-curvature="0" />
	<path style="fill:none;stroke:red;stroke-width:1px;stroke-linecap:butt;stroke-linejoin:miter;stroke-opacity:1" d="M 653.309,85.9835 668.066,77.7851 z" id="boundary" inkscape:connector-curvature="0" />
	<path style="fill:none;stroke:red;stroke-width:1px;stroke-linecap:butt;stroke-linejoin:miter;stroke-opacity:1" d="M 668.066,77.7851 684.463,72.8661 z" id="boundary" inkscape:connector-curvature="0" />
	<path style="fill:none;stroke:red;stroke-width:1px;stroke-linecap:butt;stroke-linejoin:miter;stroke-opacity:1" d="M 684.463,72.8661 700.86,69.5868 z" id="boundary" inkscape:connector-curvature="0" />
	<path style="fill:none;stroke:red;stroke-width:1px;stroke-linecap:butt;stroke-linejoin:miter;stroke-opacity:1" d="M 768.086,20.3967 776.284,5.63967 z" id="boundary" inkscape:connector-curvature="0" />
	<path style="fill:none;stroke:red;stroke-width:1px;stroke-linecap:butt;stroke-linejoin:miter;stroke-opacity:1" d="M 759.888,35.1537 768.086,20.3967 z" id="boundary" inkscape:connector-curvature="0" />
	<path style="fill:none;stroke:red;stroke-width:1px;stroke-linecap:butt;stroke-linejoin:miter;stroke-opacity:1" d="M 743.491,41.7124 759.888,35.1537 z" id="boundary" inkscape:connector-curvature="0" />
	<path style="fill:none;stroke:red;stroke-width:1px;stroke-linecap:butt;stroke-linejoin:miter;stroke-opacity:1" d="M 743.491,41.7124 728.734,49.9107 z" id="boundary" inkscape:connector-curvature="0" />
	<path style="fill:none;stroke:red;stroke-width:1px;stroke-linecap:butt;stroke-linejoin:miter;stroke-opacity:1" d="M 653.309,85.9835 636.912,89.2628 z" id="boundary" inkscape:connector-curvature="0" />
	<path style="fill:none;stroke:red;stroke-width:1px;stroke-linecap:butt;stroke-linejoin:miter;stroke-opacity:1" d="M 584.443,128.615 594.281,115.498 z" id="boundary" inkscape:connector-curvature="0" />
	<path style="fill:none;stroke:red;stroke-width:1px;stroke-linecap:butt;stroke-linejoin:miter;stroke-opacity:1" d="M 586.083,145.012 584.443,128.615 z" id="boundary" inkscape:connector-curvature="0" />
	<path style="fill:none;stroke:red;stroke-width:1px;stroke-linecap:butt;stroke-linejoin:miter;stroke-opacity:1" d="M 595.921,158.129 600.84,174.526 z" id="boundary" inkscape:connector-curvature="0" />
	<path style="fill:none;stroke:red;stroke-width:1px;stroke-linecap:butt;stroke-linejoin:miter;stroke-opacity:1" d="M 586.083,145.012 595.921,158.129 z" id="boundary" inkscape:connector-curvature="0" />
	<path style="fill:none;stroke:red;stroke-width:1px;stroke-linecap:butt;stroke-linejoin:miter;stroke-opacity:1" d="M 581.164,210.598 564.767,213.878 z" id="boundary" inkscape:connector-curvature="0" />
	<path style="fill:none;stroke:red;stroke-width:1px;stroke-linecap:butt;stroke-linejoin:miter;stroke-opacity:1" d="M 594.281,115.498 607.398,105.66 z" id="boundary" inkscape:connector-curvature="0" />
	<path style="fill:none;stroke:red;stroke-width:1px;stroke-linecap:butt;stroke-linejoin:miter;stroke-opacity:1" d="M 620.516,95.8215 636.912,89.2628 z" id="boundary" inkscape:connector-curvature="0" />
	<path style="fill:none;stroke:red;stroke-width:1px;stroke-linecap:butt;stroke-linejoin:miter;stroke-opacity:1" d="M 620.516,95.8215 607.398,105.66 z" id="boundary" inkscape:connector-curvature="0" />
	<path style="fill:none;stroke:red;stroke-width:1px;stroke-linecap:butt;stroke-linejoin:miter;stroke-opacity:1" d="M 600.84,190.922 597.56,210.598 z" id="boundary" inkscape:connector-curvature="0" />
	<path style="fill:none;stroke:red;stroke-width:1px;stroke-linecap:butt;stroke-linejoin:miter;stroke-opacity:1" d="M 597.56,210.598 581.164,210.598 z" id="boundary" inkscape:connector-curvature="0" />
	<path style="fill:none;stroke:red;stroke-width:1px;stroke-linecap:butt;stroke-linejoin:miter;stroke-opacity:1" d="M 600.84,174.526 600.84,190.922 z" id="boundary" inkscape:connector-curvature="0" />
	<path style="fill:none;stroke:red;stroke-width:1px;stroke-linecap:butt;stroke-linejoin:miter;stroke-opacity:1" d="M 792.681,4 802.519,17.1174 z" id="boundary" inkscape:connector-curvature="0" />
	<path style="fill:none;stroke:red;stroke-width:1px;stroke-linecap:butt;stroke-linejoin:miter;stroke-opacity:1" d="M 776.284,5.63967 792.681,4 z" id="boundary" inkscape:connector-curvature="0" />
	<path style="fill:none;stroke:red;stroke-width:1px;stroke-linecap:butt;stroke-linejoin:miter;stroke-opacity:1" d="M 802.519,17.1174 809.078,33.514 z" id="boundary" inkscape:connector-curvature="0" />
	<path style="fill:none;stroke:red;stroke-width:1px;stroke-linecap:butt;stroke-linejoin:miter;stroke-opacity:1" d="M 825.474,40.0727 809.078,33.514 z" id="boundary" inkscape:connector-curvature="0" />
	<path style="fill:none;stroke:red;stroke-width:1px;stroke-linecap:butt;stroke-linejoin:miter;stroke-opacity:1" d="M 825.474,40.0727 840.231,48.2711 z" id="boundary" inkscape:connector-curvature="0" />
	<path style="fill:none;stroke:red;stroke-width:1px;stroke-linecap:butt;stroke-linejoin:miter;stroke-opacity:1" d="M 840.231,48.2711 850.069,61.3884 z" id="boundary" inkscape:connector-curvature="0" />
	<path style="fill:none;stroke:red;stroke-width:1px;stroke-linecap:butt;stroke-linejoin:miter;stroke-opacity:1" d="M 866.466,64.6678 850.069,61.3884 z" id="boundary" inkscape:connector-curvature="0" />
	<path style="fill:none;stroke:red;stroke-width:1px;stroke-linecap:butt;stroke-linejoin:miter;stroke-opacity:1" d="M 899.26,74.5058 882.863,71.2264 z" id="boundary" inkscape:connector-curvature="0" />
	<path style="fill:none;stroke:red;stroke-width:1px;stroke-linecap:butt;stroke-linejoin:miter;stroke-opacity:1" d="M 882.863,71.2264 866.466,64.6678 z" id="boundary" inkscape:connector-curvature="0" />
	<path style="fill:none;stroke:red;stroke-width:1px;stroke-linecap:butt;stroke-linejoin:miter;stroke-opacity:1" d="M 899.26,74.5058 915.656,79.4248 z" id="boundary" inkscape:connector-curvature="0" />
	<path style="fill:none;stroke:red;stroke-width:1px;stroke-linecap:butt;stroke-linejoin:miter;stroke-opacity:1" d="M 932.053,85.9835 915.656,79.4248 z" id="boundary" inkscape:connector-curvature="0" />
	<path style="fill:none;stroke:red;stroke-width:1px;stroke-linecap:butt;stroke-linejoin:miter;stroke-opacity:1" d="M 964.846,97.4612 948.45,92.5421 z" id="boundary" inkscape:connector-curvature="0" />
	<path style="fill:none;stroke:red;stroke-width:1px;stroke-linecap:butt;stroke-linejoin:miter;stroke-opacity:1" d="M 948.45,92.5421 932.053,85.9835 z" id="boundary" inkscape:connector-curvature="0" />
	<path style="fill:none;stroke:red;stroke-width:1px;stroke-linecap:butt;stroke-linejoin:miter;stroke-opacity:1" d="M 989.441,161.408 989.441,177.805 z" id="boundary" inkscape:connector-curvature="0" />
	<path style="fill:none;stroke:red;stroke-width:1px;stroke-linecap:butt;stroke-linejoin:miter;stroke-opacity:1" d="M 989.441,161.408 996,133.534 z" id="boundary" inkscape:connector-curvature="0" />
	<path style="fill:none;stroke:red;stroke-width:1px;stroke-linecap:butt;stroke-linejoin:miter;stroke-opacity:1" d="M 989.441,194.202 989.441,177.805 z" id="boundary" inkscape:connector-curvature="0" />
	<path style="fill:none;stroke:red;stroke-width:1px;stroke-linecap:butt;stroke-linejoin:miter;stroke-opacity:1" d="M 989.441,194.202 989.441,210.598 z" id="boundary" inkscape:connector-curvature="0" />
	<path style="fill:none;stroke:red;stroke-width:1px;stroke-linecap:butt;stroke-linejoin:miter;stroke-opacity:1" d="M 977.964,107.299 991.081,117.137 z" id="boundary" inkscape:connector-curvature="0" />
	<path style="fill:none;stroke:red;stroke-width:1px;stroke-linecap:butt;stroke-linejoin:miter;stroke-opacity:1" d="M 991.081,117.137 996,133.534 z" id="boundary" inkscape:connector-curvature="0" />
	<path style="fill:none;stroke:red;stroke-width:1px;stroke-linecap:butt;stroke-linejoin:miter;stroke-opacity:1" d="M 989.441,226.995 989.441,210.598 z" id="boundary" inkscape:connector-curvature="0" />
	<path style="fill:none;stroke:red;stroke-width:1px;stroke-linecap:butt;stroke-linejoin:miter;stroke-opacity:1" d="M 989.441,226.995 989.441,243.392 z" id="boundary" inkscape:connector-curvature="0" />
	<path style="fill:none;stroke:red;stroke-width:1px;stroke-linecap:butt;stroke-linejoin:miter;stroke-opacity:1" d="M 989.441,259.788 989.441,243.392 z" id="boundary" inkscape:connector-curvature="0" />
	<path style="fill:none;stroke:red;stroke-width:1px;stroke-linecap:butt;stroke-linejoin:miter;stroke-opacity:1" d="M 964.846,97.4612 977.964,107.299 z" id="boundary" inkscape:connector-curvature="0" />
	<path style="fill:none;stroke:red;stroke-width:1px;stroke-linecap:butt;stroke-linejoin:miter;stroke-opacity:1" d="M 620.516,441.792 607.398,451.63 z" id="boundary" inkscape:connector-curvature="0" />
	<path style="fill:none;stroke:red;stroke-width:1px;stroke-linecap:butt;stroke-linejoin:miter;stroke-opacity:1" d="M 636.912,441.792 653.309,441.792 z" id="boundary" inkscape:connector-curvature="0" />
	<path style="fill:none;stroke:red;stroke-width:1px;stroke-linecap:butt;stroke-linejoin:miter;stroke-opacity:1" d="M 669.706,441.792 653.309,441.792 z" id="boundary" inkscape:connector-curvature="0" />
	<path style="fill:none;stroke:red;stroke-width:1px;stroke-linecap:butt;stroke-linejoin:miter;stroke-opacity:1" d="M 636.912,441.792 620.516,441.792 z" id="boundary" inkscape:connector-curvature="0" />
	<path style="fill:none;stroke:red;stroke-width:1px;stroke-linecap:butt;stroke-linejoin:miter;stroke-opacity:1" d="M 686.102,441.792 702.499,441.792 z" id="boundary" inkscape:connector-curvature="0" />
	<path style="fill:none;stroke:red;stroke-width:1px;stroke-linecap:butt;stroke-linejoin:miter;stroke-opacity:1" d="M 718.896,441.792 702.499,441.792 z" id="boundary" inkscape:connector-curvature="0" />
	<path style="fill:none;stroke:red;stroke-width:1px;stroke-linecap:butt;stroke-linejoin:miter;stroke-opacity:1" d="M 735.293,441.792 751.689,441.792 z" id="boundary" inkscape:connector-curvature="0" />
	<path style="fill:none;stroke:red;stroke-width:1px;stroke-linecap:butt;stroke-linejoin:miter;stroke-opacity:1" d="M 768.086,441.792 751.689,441.792 z" id="boundary" inkscape:connector-curvature="0" />
	<path style="fill:none;stroke:red;stroke-width:1px;stroke-linecap:butt;stroke-linejoin:miter;stroke-opacity:1" d="M 735.293,441.792 718.896,441.792 z" id="boundary" inkscape:connector-curvature="0" />
	<path style="fill:none;stroke:red;stroke-width:1px;stroke-linecap:butt;stroke-linejoin:miter;stroke-opacity:1" d="M 686.102,441.792 669.706,441.792 z" id="boundary" inkscape:connector-curvature="0" />
	<path style="fill:none;stroke:red;stroke-width:1px;stroke-linecap:butt;stroke-linejoin:miter;stroke-opacity:1" d="M 587.722,472.945 587.722,456.549 z" id="boundary" inkscape:connector-curvature="0" />
	<path style="fill:none;stroke:red;stroke-width:1px;stroke-linecap:butt;stroke-linejoin:miter;stroke-opacity:1" d="M 587.722,472.945 591.002,489.342 z" id="boundary" inkscape:connector-curvature="0" />
	<path style="fill:none;stroke:red;stroke-width:1px;stroke-linecap:butt;stroke-linejoin:miter;stroke-opacity:1" d="M 591.002,489.342 587.722,505.739 z" id="boundary" inkscape:connector-curvature="0" />
	<path style="fill:none;stroke:red;stroke-width:1px;stroke-linecap:butt;stroke-linejoin:miter;stroke-opacity:1" d="M 800.879,441.792 784.483,441.792 z" id="boundary" inkscape:connector-curvature="0" />
	<path style="fill:none;stroke:red;stroke-width:1px;stroke-linecap:butt;stroke-linejoin:miter;stroke-opacity:1" d="M 817.276,441.792 800.879,441.792 z" id="boundary" inkscape:connector-curvature="0" />
	<path style="fill:none;stroke:red;stroke-width:1px;stroke-linecap:butt;stroke-linejoin:miter;stroke-opacity:1" d="M 817.276,441.792 833.673,441.792 z" id="boundary" inkscape:connector-curvature="0" />
	<path style="fill:none;stroke:red;stroke-width:1px;stroke-linecap:butt;stroke-linejoin:miter;stroke-opacity:1" d="M 850.069,441.792 833.673,441.792 z" id="boundary" inkscape:connector-curvature="0" />
	<path style="fill:none;stroke:red;stroke-width:1px;stroke-linecap:butt;stroke-linejoin:miter;stroke-opacity:1" d="M 768.086,441.792 784.483,441.792 z" id="boundary" inkscape:connector-curvature="0" />
	<path style="fill:none;stroke:red;stroke-width:1px;stroke-linecap:butt;stroke-linejoin:miter;stroke-opacity:1" d="M 587.722,456.549 576.245,441.792 z" id="boundary" inkscape:connector-curvature="0" />
	<path style="fill:none;stroke:red;stroke-width:1px;stroke-linecap:butt;stroke-linejoin:miter;stroke-opacity:1" d="M 866.466,441.792 850.069,441.792 z" id="boundary" inkscape:connector-curvature="0" />
	<path style="fill:none;stroke:red;stroke-width:1px;stroke-linecap:butt;stroke-linejoin:miter;stroke-opacity:1" d="M 989.441,292.582 989.441,276.185 z" id="boundary" inkscape:connector-curvature="0" />
	<path style="fill:none;stroke:red;stroke-width:1px;stroke-linecap:butt;stroke-linejoin:miter;stroke-opacity:1" d="M 992.721,308.979 989.441,292.582 z" id="boundary" inkscape:connector-curvature="0" />
	<path style="fill:none;stroke:red;stroke-width:1px;stroke-linecap:butt;stroke-linejoin:miter;stroke-opacity:1" d="M 992.721,308.979 992.721,325.375 z" id="boundary" inkscape:connector-curvature="0" />
	<path style="fill:none;stroke:red;stroke-width:1px;stroke-linecap:butt;stroke-linejoin:miter;stroke-opacity:1" d="M 996,341.772 992.721,325.375 z" id="boundary" inkscape:connector-curvature="0" />
	<path style="fill:none;stroke:red;stroke-width:1px;stroke-linecap:butt;stroke-linejoin:miter;stroke-opacity:1" d="M 882.863,441.792 866.466,441.792 z" id="boundary" inkscape:connector-curvature="0" />
	<path style="fill:none;stroke:red;stroke-width:1px;stroke-linecap:butt;stroke-linejoin:miter;stroke-opacity:1" d="M 989.441,276.185 989.441,259.788 z" id="boundary" inkscape:connector-curvature="0" />
	<path style="fill:none;stroke:red;stroke-width:1px;stroke-linecap:butt;stroke-linejoin:miter;stroke-opacity:1" d="M 996,341.772 996,358.169 z" id="boundary" inkscape:connector-curvature="0" />
	<path style="fill:none;stroke:red;stroke-width:1px;stroke-linecap:butt;stroke-linejoin:miter;stroke-opacity:1" d="M 996,374.565 996,390.962 z" id="boundary" inkscape:connector-curvature="0" />
	<path style="fill:none;stroke:red;stroke-width:1px;stroke-linecap:butt;stroke-linejoin:miter;stroke-opacity:1" d="M 996,390.962 996,407.359 z" id="boundary" inkscape:connector-curvature="0" />
	<path style="fill:none;stroke:red;stroke-width:1px;stroke-linecap:butt;stroke-linejoin:miter;stroke-opacity:1" d="M 996,358.169 996,374.565 z" id="boundary" inkscape:connector-curvature="0" />
	<path style="fill:none;stroke:red;stroke-width:1px;stroke-linecap:butt;stroke-linejoin:miter;stroke-opacity:1" d="M 996,407.359 996,423.755 z" id="boundary" inkscape:connector-curvature="0" />
	<path style="fill:none;stroke:red;stroke-width:1px;stroke-linecap:butt;stroke-linejoin:miter;stroke-opacity:1" d="M 882.863,441.792 899.26,441.792 z" id="boundary" inkscape:connector-curvature="0" />
	<path style="fill:none;stroke:red;stroke-width:1px;stroke-linecap:butt;stroke-linejoin:miter;stroke-opacity:1" d="M 915.656,441.792 899.26,441.792 z" id="boundary" inkscape:connector-curvature="0" />
	<path style="fill:none;stroke:red;stroke-width:1px;stroke-linecap:butt;stroke-linejoin:miter;stroke-opacity:1" d="M 932.053,441.792 948.45,441.792 z" id="boundary" inkscape:connector-curvature="0" />
	<path style="fill:none;stroke:red;stroke-width:1px;stroke-linecap:butt;stroke-linejoin:miter;stroke-opacity:1" d="M 964.846,441.792 948.45,441.792 z" id="boundary" inkscape:connector-curvature="0" />
	<path style="fill:none;stroke:red;stroke-width:1px;stroke-linecap:butt;stroke-linejoin:miter;stroke-opacity:1" d="M 964.846,441.792 974.684,454.909 z" id="boundary" inkscape:connector-curvature="0" />
	<path style="fill:none;stroke:red;stroke-width:1px;stroke-linecap:butt;stroke-linejoin:miter;stroke-opacity:1" d="M 932.053,441.792 915.656,441.792 z" id="boundary" inkscape:connector-curvature="0" />
	<path style="fill:none;stroke:red;stroke-width:1px;stroke-linecap:butt;stroke-linejoin:miter;stroke-opacity:1" d="M 992.721,443.431 992.721,459.828 z" id="boundary" inkscape:connector-curvature="0" />
	<path style="fill:none;stroke:red;stroke-width:1px;stroke-linecap:butt;stroke-linejoin:miter;stroke-opacity:1" d="M 992.721,443.431 996,423.755 z" id="boundary" inkscape:connector-curvature="0" />
	<path style="fill:none;stroke:red;stroke-width:1px;stroke-linecap:butt;stroke-linejoin:miter;stroke-opacity:1" d="M 974.684,471.306 974.684,454.909 z" id="boundary" inkscape:connector-curvature="0" />
	<path style="fill:none;stroke:red;stroke-width:1px;stroke-linecap:butt;stroke-linejoin:miter;stroke-opacity:1" d="M 989.441,479.504 974.684,502.46 z" id="boundary" inkscape:connector-curvature="0" />
	<path style="fill:none;stroke:red;stroke-width:1px;stroke-linecap:butt;stroke-linejoin:miter;stroke-opacity:1" d="M 974.684,502.46 974.684,471.306 z" id="boundary" inkscape:connector-curvature="0" />
	<path style="fill:none;stroke:red;stroke-width:1px;stroke-linecap:butt;stroke-linejoin:miter;stroke-opacity:1" d="M 992.721,459.828 989.441,479.504 z" id="boundary" inkscape:connector-curvature="0" />
	<circle cx="4" cy="315.537" r="4" fill="#0" id="circle0"/>
	<circle cx="4" cy="331.934" r="4" fill="#0" id="circle1"/>
	<circle cx="7.27934" cy="469.666" r="4" fill="#0" id="circle2"/>
	<circle cx="7.27934" cy="505.739" r="4" fill="#0" id="circle3"/>
	<circle cx="12.1983" cy="346.691" r="4" fill="#0" id="circle4"/>
	<circle cx="12.1983" cy="486.063" r="4" fill="#0" id="circle5"/>
	<circle cx="17.1174" cy="302.42" r="4" fill="#0" id="circle6"/>
	<circle cx="17.1174" cy="363.088" r="4" fill="#0" id="circle7"/>
	<circle cx="17.1174" cy="379.484" r="4" fill="#0" id="circle8"/>
	<circle cx="17.1174" cy="446.711" r="4" fill="#0" id="circle9"/>
	<circle cx="20.3967" cy="395.881" r="4" fill="#0" id="circle10"/>
	<circle cx="20.3967" cy="412.278" r="4" fill="#0" id="circle11"/>
	<circle cx="20.3967" cy="428.674" r="4" fill="#0" id="circle12"/>
	<circle cx="23.676" cy="471.306" r="4" fill="#0" id="circle13"/>
	<circle cx="23.676" cy="507.379" r="4" fill="#0" id="circle14"/>
	<circle cx="31.8744" cy="454.909" r="4" fill="#0" id="circle15"/>
	<circle cx="33.514" cy="295.861" r="4" fill="#0" id="circle16"/>
	<circle cx="48.2711" cy="287.663" r="4" fill="#0" id="circle17"/>
	<circle cx="48.2711" cy="451.63" r="4" fill="#0" id="circle18"/>
	<circle cx="64.6678" cy="282.744" r="4" fill="#0" id="circle19"/>
	<circle cx="64.6678" cy="451.63" r="4" fill="#0" id="circle20"/>
	<circle cx="81.0645" cy="279.464" r="4" fill="#0" id="circle21"/>
	<circle cx="81.0645" cy="454.909" r="4" fill="#0" id="circle22"/>
	<circle cx="97.4612" cy="272.906" r="4" fill="#0" id="circle23"/>
	<circle cx="97.4612" cy="461.468" r="4" fill="#0" id="circle24"/>
	<circle cx="112.218" cy="451.63" r="4" fill="#0" id="circle25"/>
	<circle cx="113.858" cy="272.906" r="4" fill="#0" id="circle26"/>
	<circle cx="128.615" cy="445.071" r="4" fill="#0" id="circle27"/>
	<circle cx="130.255" cy="269.626" r="4" fill="#0" id="circle28"/>
	<circle cx="145.012" cy="449.99" r="4" fill="#0" id="circle29"/>
	<circle cx="146.651" cy="269.626" r="4" fill="#0" id="circle30"/>
	<circle cx="161.408" cy="456.549" r="4" fill="#0" id="circle31"/>
	<circle cx="163.048" cy="266.347" r="4" fill="#0" id="circle32"/>
	<circle cx="177.805" cy="463.107" r="4" fill="#0" id="circle33"/>
	<circle cx="179.445" cy="258.149" r="4" fill="#0" id="circle34"/>
	<circle cx="192.562" cy="471.306" r="4" fill="#0" id="circle35"/>
	<circle cx="194.202" cy="249.95" r="4" fill="#0" id="circle36"/>
	<circle cx="208.959" cy="241.752" r="4" fill="#0" id="circle37"/>
	<circle cx="208.959" cy="477.864" r="4" fill="#0" id="circle38"/>
	<circle cx="222.076" cy="231.914" r="4" fill="#0" id="circle39"/>
	<circle cx="225.355" cy="481.144" r="4" fill="#0" id="circle40"/>
	<circle cx="238.473" cy="226.995" r="4" fill="#0" id="circle41"/>
	<circle cx="241.752" cy="481.144" r="4" fill="#0" id="circle42"/>
	<circle cx="254.869" cy="233.554" r="4" fill="#0" id="circle43"/>
	<circle cx="258.149" cy="477.864" r="4" fill="#0" id="circle44"/>
	<circle cx="267.987" cy="243.392" r="4" fill="#0" id="circle45"/>
	<circle cx="274.545" cy="472.945" r="4" fill="#0" id="circle46"/>
	<circle cx="284.383" cy="249.95" r="4" fill="#0" id="circle47"/>
	<circle cx="289.302" cy="464.747" r="4" fill="#0" id="circle48"/>
	<circle cx="297.501" cy="259.788" r="4" fill="#0" id="circle49"/>
	<circle cx="305.699" cy="458.188" r="4" fill="#0" id="circle50"/>
	<circle cx="313.898" cy="266.347" r="4" fill="#0" id="circle51"/>
	<circle cx="322.096" cy="451.63" r="4" fill="#0" id="circle52"/>
	<circle cx="330.294" cy="269.626" r="4" fill="#0" id="circle53"/>
	<circle cx="338.493" cy="445.071" r="4" fill="#0" id="circle54"/>
	<circle cx="346.691" cy="269.626" r="4" fill="#0" id="circle55"/>
	<circle cx="354.889" cy="451.63" r="4" fill="#0" id="circle56"/>
	<circle cx="363.088" cy="272.906" r="4" fill="#0" id="circle57"/>
	<circle cx="368.007" cy="461.468" r="4" fill="#0" id="circle58"/>
	<circle cx="379.484" cy="272.906" r="4" fill="#0" id="circle59"/>
	<circle cx="384.403" cy="458.188" r="4" fill="#0" id="circle60"/>
	<circle cx="395.881" cy="279.464" r="4" fill="#0" id="circle61"/>
	<circle cx="400.8" cy="454.909" r="4" fill="#0" id="circle62"/>
	<circle cx="412.278" cy="282.744" r="4" fill="#0" id="circle63"/>
	<circle cx="417.197" cy="451.63" r="4" fill="#0" id="circle64"/>
	<circle cx="428.674" cy="289.302" r="4" fill="#0" id="circle65"/>
	<circle cx="433.593" cy="451.63" r="4" fill="#0" id="circle66"/>
	<circle cx="436.873" cy="468.026" r="4" fill="#0" id="circle67"/>
	<circle cx="436.873" cy="484.423" r="4" fill="#0" id="circle68"/>
	<circle cx="443.431" cy="500.82" r="4" fill="#0" id="circle69"/>
	<circle cx="445.071" cy="295.861" r="4" fill="#0" id="circle70"/>
	<circle cx="458.188" cy="479.504" r="4" fill="#0" id="circle71"/>
	<circle cx="461.468" cy="297.501" r="4" fill="#0" id="circle72"/>
	<circle cx="461.468" cy="443.431" r="4" fill="#0" id="circle73"/>
	<circle cx="461.468" cy="459.828" r="4" fill="#0" id="circle74"/>
	<circle cx="468.026" cy="281.104" r="4" fill="#0" id="circle75"/>
	<circle cx="477.864" cy="441.792" r="4" fill="#0" id="circle76"/>
	<circle cx="481.144" cy="269.626" r="4" fill="#0" id="circle77"/>
	<circle cx="492.621" cy="256.509" r="4" fill="#0" id="circle78"/>
	<circle cx="494.261" cy="441.792" r="4" fill="#0" id="circle79"/>
	<circle cx="505.739" cy="246.671" r="4" fill="#0" id="circle80"/>
	<circle cx="510.658" cy="441.792" r="4" fill="#0" id="circle81"/>
	<circle cx="518.856" cy="233.554" r="4" fill="#0" id="circle82"/>
	<circle cx="527.055" cy="441.792" r="4" fill="#0" id="circle83"/>
	<circle cx="535.253" cy="226.995" r="4" fill="#0" id="circle84"/>
	<circle cx="543.451" cy="441.792" r="4" fill="#0" id="circle85"/>
	<circle cx="548.37" cy="217.157" r="4" fill="#0" id="circle86"/>
	<circle cx="559.848" cy="441.792" r="4" fill="#0" id="circle87"/>
	<circle cx="564.767" cy="213.878" r="4" fill="#0" id="circle88"/>
	<circle cx="576.245" cy="441.792" r="4" fill="#0" id="circle89"/>
	<circle cx="581.164" cy="210.598" r="4" fill="#0" id="circle90"/>
	<circle cx="584.443" cy="128.615" r="4" fill="#0" id="circle91"/>
	<circle cx="586.083" cy="145.012" r="4" fill="#0" id="circle92"/>
	<circle cx="587.722" cy="456.549" r="4" fill="#0" id="circle93"/>
	<circle cx="587.722" cy="472.945" r="4" fill="#0" id="circle94"/>
	<circle cx="587.722" cy="505.739" r="4" fill="#0" id="circle95"/>
	<circle cx="591.002" cy="489.342" r="4" fill="#0" id="circle96"/>
	<circle cx="594.281" cy="115.498" r="4" fill="#0" id="circle97"/>
	<circle cx="595.921" cy="158.129" r="4" fill="#0" id="circle98"/>
	<circle cx="597.56" cy="210.598" r="4" fill="#0" id="circle99"/>
	<circle cx="600.84" cy="174.526" r="4" fill="#0" id="circle100"/>
	<circle cx="600.84" cy="190.922" r="4" fill="#0" id="circle101"/>
	<circle cx="604.119" cy="468.026" r="4" fill="#0" id="circle102"/>
	<circle cx="607.398" cy="105.66" r="4" fill="#0" id="circle103"/>
	<circle cx="607.398" cy="451.63" r="4" fill="#0" id="circle104"/>
	<circle cx="620.516" cy="95.8215" r="4" fill="#0" id="circle105"/>
	<circle cx="620.516" cy="441.792" r="4" fill="#0" id="circle106"/>
	<circle cx="636.912" cy="89.2628" r="4" fill="#0" id="circle107"/>
	<circle cx="636.912" cy="441.792" r="4" fill="#0" id="circle108"/>
	<circle cx="653.309" cy="85.9835" r="4" fill="#0" id="circle109"/>
	<circle cx="653.309" cy="441.792" r="4" fill="#0" id="circle110"/>
	<circle cx="668.066" cy="77.7851" r="4" fill="#0" id="circle111"/>
	<circle cx="669.706" cy="441.792" r="4" fill="#0" id="circle112"/>
	<circle cx="684.463" cy="72.8661" r="4" fill="#0" id="circle113"/>
	<circle cx="686.102" cy="441.792" r="4" fill="#0" id="circle114"/>
	<circle cx="700.86" cy="69.5868" r="4" fill="#0" id="circle115"/>
	<circle cx="702.499" cy="441.792" r="4" fill="#0" id="circle116"/>
	<circle cx="717.256" cy="63.0281" r="4" fill="#0" id="circle117"/>
	<circle cx="718.896" cy="441.792" r="4" fill="#0" id="circle118"/>
	<circle cx="728.734" cy="49.9107" r="4" fill="#0" id="circle119"/>
	<circle cx="735.293" cy="441.792" r="4" fill="#0" id="circle120"/>
	<circle cx="743.491" cy="41.7124" r="4" fill="#0" id="circle121"/>
	<circle cx="751.689" cy="441.792" r="4" fill="#0" id="circle122"/>
	<circle cx="759.888" cy="35.1537" r="4" fill="#0" id="circle123"/>
	<circle cx="768.086" cy="20.3967" r="4" fill="#0" id="circle124"/>
	<circle cx="768.086" cy="441.792" r="4" fill="#0" id="circle125"/>
	<circle cx="776.284" cy="5.63967" r="4" fill="#0" id="circle126"/>
	<circle cx="784.483" cy="441.792" r="4" fill="#0" id="circle127"/>
	<circle cx="792.681" cy="4" r="4" fill="#0" id="circle128"/>
	<circle cx="800.879" cy="441.792" r="4" fill="#0" id="circle129"/>
	<circle cx="802.519" cy="17.1174" r="4" fill="#0" id="circle130"/>
	<circle cx="809.078" cy="33.514" r="4" fill="#0" id="circle131"/>
	<circle cx="817.276" cy="441.792" r="4" fill="#0" id="circle132"/>
	<circle cx="825.474" cy="40.0727" r="4" fill="#0" id="circle133"/>
	<circle cx="833.673" cy="441.792" r="4" fill="#0" id="circle134"/>
	<circle cx="840.231" cy="48.2711" r="4" fill="#0" id="circle135"/>
	<circle cx="850.069" cy="61.3884" r="4" fill="#0" id="circle136"/>
	<circle cx="850.069" cy="441.792" r="4" fill="#0" id="circle137"/>
	<circle cx="866.466" cy="64.6678" r="4" fill="#0" id="circle138"/>
	<circle cx="866.466" cy="441.792" r="4" fill="#0" id="circle139"/>
	<circle cx="882.863" cy="71.2264" r="4" fill="#0" id="circle140"/>
	<circle cx="882.863" cy="441.792" r="4" fill="#0" id="circle141"/>
	<circle cx="899.26" cy="74.5058" r="4" fill="#0" id="circle142"/>
	<circle cx="899.26" cy="441.792" r="4" fill="#0" id="circle143"/>
	<circle cx="915.656" cy="79.4248" r="4" fill="#0" id="circle144"/>
	<circle cx="915.656" cy="441.792" r="4" fill="#0" id="circle145"/>
	<circle cx="932.053" cy="85.9835" r="4" fill="#0" id="circle146"/>
	<circle cx="932.053" cy="441.792" r="4" fill="#0" id="circle147"/>
	<circle cx="948.45" cy="92.5421" r="4" fill="#0" id="circle148"/>
	<circle cx="948.45" cy="441.792" r="4" fill="#0" id="circle149"/>
	<circle cx="964.846" cy="97.4612" r="4" fill="#0" id="circle150"/>
	<circle cx="964.846" cy="441.792" r="4" fill="#0" id="circle151"/>
	<circle cx="974.684" cy="454.909" r="4" fill="#0" id="circle152"/>
	<circle cx="974.684" cy="471.306" r="4" fill="#0" id="circle153"/>
	<circle cx="974.684" cy="502.46" r="4" fill="#0" id="circle154"/>
	<circle cx="977.964" cy="107.299" r="4" fill="#0" id="circle155"/>
	<circle cx="989.441" cy="161.408" r="4" fill="#0" id="circle156"/>
	<circle cx="989.441" cy="177.805" r="4" fill="#0" id="circle157"/>
	<circle cx="989.441" cy="194.202" r="4" fill="#0" id="circle158"/>
	<circle cx="989.441" cy="210.598" r="4" fill="#0" id="circle159"/>
	<circle cx="989.441" cy="226.995" r="4" fill="#0" id="circle160"/>
	<circle cx="989.441" cy="243.392" r="4" fill="#0" id="circle161"/>
	<circle cx="989.441" cy="259.788" r="4" fill="#0" id="circle162"/>
	<circle cx="989.441" cy="276.185" r="4" fill="#0" id="circle163"/>
	<circle cx="989.441" cy="292.582" r="4" fill="#0" id="circle164"/>
	<circle cx="989.441" cy="479.504" r="4" fill="#0" id="circle165"/>
	<circle cx="991.081" cy="117.137" r="4" fill="#0" id="circle166"/>
	<circle cx="992.721" cy="308.979" r="4" fill="#0" id="circle167"/>
	<circle cx="992.721" cy="325.375" r="4" fill="#0" id="circle168"/>
	<circle cx="992.721" cy="443.431" r="4" fill="#0" id="circle169"/>
	<circle cx="992.721" cy="459.828" r="4" fill="#0" id="circle170"/>
	<circle cx="996" cy="133.534" r="4" fill="#0" id="circle171"/>
	<circle cx="996" cy="341.772" r="4" fill="#0" id="circle172"/>
	<circle cx="996" cy="358.169" r="4" fill="#0" id="circle173"/>
	<circle cx="996" cy="374.565" r="4" fill="#0" id="circle174"/>
	<circle cx="996" cy="390.962" r="4" fill="#0" id="circle175"/>
	<circle cx="996" cy="407.359" r="4" fill="#0" id="circle176"/>
	<circle cx="996" cy="423.755" r="4" fill="#0" id="circle177"/>
	</g>
</svg>