<?xml version="1.0" encoding="UTF-8" standalone="no"?>
<!-- Created with CurveBenchmark -->
<svg
	xmlns:dc="http://purl.org/dc/elements/1.1/"
	xmlns:cc="http://creativecommons.org/ns#"
	xmlns:rdf="http://www.w3.org/1999/02/22-rdf-syntax-ns#"
	xmlns:svg="http://www.w3.org/2000/svg"
	xmlns="http://www.w3.org/2000/svg"
	xmlns:sodipodi="http://sodipodi.sourceforge.net/DTD/sodipodi-0.dtd"
	xmlns:inkscape="http://www.inkscape.org/namespaces/inkscape"
	width="1000"
	height="1000"
	id="svg2"
	version="1.1"
	sodipodi:docname="manifold/gathang-elephant16.png.txt">
<defs
	id="defs4" />
<metadata
	id="metadata7">
	<rdf:RDF>
		<cc:Work
			rdf:about="">
			<dc:format>image/svg+xml</dc:format>
			<dc:type
				rdf:resource="http://purl.org/dc/dcmitype/StillImage" />
			<dc:title></dc:title>
		</cc:Work>
	</rdf:RDF>
</metadata>
<g
	inkscape:label="Layer 1"
	inkscape:groupmode="layer"
	id="layer1">
	<path style="fill:none;stroke:red;stroke-width:1px;stroke-linecap:butt;stroke-linejoin:miter;stroke-opacity:1" d="M 31.5046,207.534 42.5065,222.203 z" id="boundary" inkscape:connector-curvature="0" />
	<path style="fill:none;stroke:red;stroke-width:1px;stroke-linecap:butt;stroke-linejoin:miter;stroke-opacity:1" d="M 42.5065,222.203 49.841,244.207 z" id="boundary" inkscape:connector-curvature="0" />
	<path style="fill:none;stroke:red;stroke-width:1px;stroke-linecap:butt;stroke-linejoin:miter;stroke-opacity:1" d="M 31.5046,207.534 49.841,202.033 z" id="boundary" inkscape:connector-curvature="0" />
	<path style="fill:none;stroke:red;stroke-width:1px;stroke-linecap:butt;stroke-linejoin:miter;stroke-opacity:1" d="M 49.841,202.033 64.5102,213.035 z" id="boundary" inkscape:connector-curvature="0" />
	<path style="fill:none;stroke:red;stroke-width:1px;stroke-linecap:butt;stroke-linejoin:miter;stroke-opacity:1" d="M 64.5102,257.043 49.841,244.207 z" id="boundary" inkscape:connector-curvature="0" />
	<path style="fill:none;stroke:red;stroke-width:1px;stroke-linecap:butt;stroke-linejoin:miter;stroke-opacity:1" d="M 64.5102,213.035 79.1793,225.871 z" id="boundary" inkscape:connector-curvature="0" />
	<path style="fill:none;stroke:red;stroke-width:1px;stroke-linecap:butt;stroke-linejoin:miter;stroke-opacity:1" d="M 79.1793,225.871 93.8484,238.706 z" id="boundary" inkscape:connector-curvature="0" />
	<path style="fill:none;stroke:red;stroke-width:1px;stroke-linecap:butt;stroke-linejoin:miter;stroke-opacity:1" d="M 110.351,247.874 93.8484,238.706 z" id="boundary" inkscape:connector-curvature="0" />
	<path style="fill:none;stroke:red;stroke-width:1px;stroke-linecap:butt;stroke-linejoin:miter;stroke-opacity:1" d="M 132.355,159.86 123.187,143.357 z" id="boundary" inkscape:connector-curvature="0" />
	<path style="fill:none;stroke:red;stroke-width:1px;stroke-linecap:butt;stroke-linejoin:miter;stroke-opacity:1" d="M 123.187,143.357 132.355,115.852 z" id="boundary" inkscape:connector-curvature="0" />
	<path style="fill:none;stroke:red;stroke-width:1px;stroke-linecap:butt;stroke-linejoin:miter;stroke-opacity:1" d="M 141.523,97.5157 156.192,82.8466 z" id="boundary" inkscape:connector-curvature="0" />
	<path style="fill:none;stroke:red;stroke-width:1px;stroke-linecap:butt;stroke-linejoin:miter;stroke-opacity:1" d="M 132.355,115.852 141.523,97.5157 z" id="boundary" inkscape:connector-curvature="0" />
	<path style="fill:none;stroke:red;stroke-width:1px;stroke-linecap:butt;stroke-linejoin:miter;stroke-opacity:1" d="M 123.187,180.03 132.355,196.532 z" id="boundary" inkscape:connector-curvature="0" />
	<path style="fill:none;stroke:red;stroke-width:1px;stroke-linecap:butt;stroke-linejoin:miter;stroke-opacity:1" d="M 132.355,196.532 123.187,216.702 z" id="boundary" inkscape:connector-curvature="0" />
	<path style="fill:none;stroke:red;stroke-width:1px;stroke-linecap:butt;stroke-linejoin:miter;stroke-opacity:1" d="M 123.187,180.03 132.355,159.86 z" id="boundary" inkscape:connector-curvature="0" />
	<path style="fill:none;stroke:red;stroke-width:1px;stroke-linecap:butt;stroke-linejoin:miter;stroke-opacity:1" d="M 123.187,216.702 128.688,247.874 z" id="boundary" inkscape:connector-curvature="0" />
	<path style="fill:none;stroke:red;stroke-width:1px;stroke-linecap:butt;stroke-linejoin:miter;stroke-opacity:1" d="M 128.688,247.874 110.351,247.874 z" id="boundary" inkscape:connector-curvature="0" />
	<path style="fill:none;stroke:red;stroke-width:1px;stroke-linecap:butt;stroke-linejoin:miter;stroke-opacity:1" d="M 64.5102,257.043 79.1793,268.044 z" id="boundary" inkscape:connector-curvature="0" />
	<path style="fill:none;stroke:red;stroke-width:1px;stroke-linecap:butt;stroke-linejoin:miter;stroke-opacity:1" d="M 95.6821,277.213 79.1793,268.044 z" id="boundary" inkscape:connector-curvature="0" />
	<path style="fill:none;stroke:red;stroke-width:1px;stroke-linecap:butt;stroke-linejoin:miter;stroke-opacity:1" d="M 114.018,304.717 104.85,326.721 z" id="boundary" inkscape:connector-curvature="0" />
	<path style="fill:none;stroke:red;stroke-width:1px;stroke-linecap:butt;stroke-linejoin:miter;stroke-opacity:1" d="M 68.1774,445.908 77.3457,418.403 z" id="boundary" inkscape:connector-curvature="0" />
	<path style="fill:none;stroke:red;stroke-width:1px;stroke-linecap:butt;stroke-linejoin:miter;stroke-opacity:1" d="M 86.5139,400.067 95.6821,372.562 z" id="boundary" inkscape:connector-curvature="0" />
	<path style="fill:none;stroke:red;stroke-width:1px;stroke-linecap:butt;stroke-linejoin:miter;stroke-opacity:1" d="M 86.5139,400.067 77.3457,418.403 z" id="boundary" inkscape:connector-curvature="0" />
	<path style="fill:none;stroke:red;stroke-width:1px;stroke-linecap:butt;stroke-linejoin:miter;stroke-opacity:1" d="M 104.85,326.721 104.85,345.057 z" id="boundary" inkscape:connector-curvature="0" />
	<path style="fill:none;stroke:red;stroke-width:1px;stroke-linecap:butt;stroke-linejoin:miter;stroke-opacity:1" d="M 104.85,345.057 95.6821,372.562 z" id="boundary" inkscape:connector-curvature="0" />
	<path style="fill:none;stroke:red;stroke-width:1px;stroke-linecap:butt;stroke-linejoin:miter;stroke-opacity:1" d="M 95.6821,277.213 112.185,286.381 z" id="boundary" inkscape:connector-curvature="0" />
	<path style="fill:none;stroke:red;stroke-width:1px;stroke-linecap:butt;stroke-linejoin:miter;stroke-opacity:1" d="M 112.185,286.381 114.018,304.717 z" id="boundary" inkscape:connector-curvature="0" />
	<path style="fill:none;stroke:red;stroke-width:1px;stroke-linecap:butt;stroke-linejoin:miter;stroke-opacity:1" d="M 161.693,350.558 152.525,368.895 z" id="boundary" inkscape:connector-curvature="0" />
	<path style="fill:none;stroke:red;stroke-width:1px;stroke-linecap:butt;stroke-linejoin:miter;stroke-opacity:1" d="M 130.521,438.573 134.189,414.736 z" id="boundary" inkscape:connector-curvature="0" />
	<path style="fill:none;stroke:red;stroke-width:1px;stroke-linecap:butt;stroke-linejoin:miter;stroke-opacity:1" d="M 134.189,414.736 143.357,387.231 z" id="boundary" inkscape:connector-curvature="0" />
	<path style="fill:none;stroke:red;stroke-width:1px;stroke-linecap:butt;stroke-linejoin:miter;stroke-opacity:1" d="M 152.525,368.895 143.357,387.231 z" id="boundary" inkscape:connector-curvature="0" />
	<path style="fill:none;stroke:red;stroke-width:1px;stroke-linecap:butt;stroke-linejoin:miter;stroke-opacity:1" d="M 130.521,438.573 115.852,451.409 z" id="boundary" inkscape:connector-curvature="0" />
	<path style="fill:none;stroke:red;stroke-width:1px;stroke-linecap:butt;stroke-linejoin:miter;stroke-opacity:1" d="M 156.192,82.8466 170.861,68.1774 z" id="boundary" inkscape:connector-curvature="0" />
	<path style="fill:none;stroke:red;stroke-width:1px;stroke-linecap:butt;stroke-linejoin:miter;stroke-opacity:1" d="M 68.1774,445.908 59.0092,464.244 z" id="boundary" inkscape:connector-curvature="0" />
	<path style="fill:none;stroke:red;stroke-width:1px;stroke-linecap:butt;stroke-linejoin:miter;stroke-opacity:1" d="M 244.207,9.50092 262.543,9.50092 z" id="boundary" inkscape:connector-curvature="0" />
	<path style="fill:none;stroke:red;stroke-width:1px;stroke-linecap:butt;stroke-linejoin:miter;stroke-opacity:1" d="M 299.216,5.83364 280.88,9.50092 z" id="boundary" inkscape:connector-curvature="0" />
	<path style="fill:none;stroke:red;stroke-width:1px;stroke-linecap:butt;stroke-linejoin:miter;stroke-opacity:1" d="M 280.88,9.50092 262.543,9.50092 z" id="boundary" inkscape:connector-curvature="0" />
	<path style="fill:none;stroke:red;stroke-width:1px;stroke-linecap:butt;stroke-linejoin:miter;stroke-opacity:1" d="M 198.366,40.6728 213.035,27.8373 z" id="boundary" inkscape:connector-curvature="0" />
	<path style="fill:none;stroke:red;stroke-width:1px;stroke-linecap:butt;stroke-linejoin:miter;stroke-opacity:1" d="M 198.366,40.6728 185.53,55.342 z" id="boundary" inkscape:connector-curvature="0" />
	<path style="fill:none;stroke:red;stroke-width:1px;stroke-linecap:butt;stroke-linejoin:miter;stroke-opacity:1" d="M 185.53,55.342 170.861,68.1774 z" id="boundary" inkscape:connector-curvature="0" />
	<path style="fill:none;stroke:red;stroke-width:1px;stroke-linecap:butt;stroke-linejoin:miter;stroke-opacity:1" d="M 213.035,27.8373 225.871,13.1682 z" id="boundary" inkscape:connector-curvature="0" />
	<path style="fill:none;stroke:red;stroke-width:1px;stroke-linecap:butt;stroke-linejoin:miter;stroke-opacity:1" d="M 225.871,13.1682 244.207,9.50092 z" id="boundary" inkscape:connector-curvature="0" />
	<path style="fill:none;stroke:red;stroke-width:1px;stroke-linecap:butt;stroke-linejoin:miter;stroke-opacity:1" d="M 299.216,5.83364 317.553,9.50092 z" id="boundary" inkscape:connector-curvature="0" />
	<path style="fill:none;stroke:red;stroke-width:1px;stroke-linecap:butt;stroke-linejoin:miter;stroke-opacity:1" d="M 317.553,9.50092 335.889,4 z" id="boundary" inkscape:connector-curvature="0" />
	<path style="fill:none;stroke:red;stroke-width:1px;stroke-linecap:butt;stroke-linejoin:miter;stroke-opacity:1" d="M 354.226,4 370.728,13.1682 z" id="boundary" inkscape:connector-curvature="0" />
	<path style="fill:none;stroke:red;stroke-width:1px;stroke-linecap:butt;stroke-linejoin:miter;stroke-opacity:1" d="M 335.889,4 354.226,4 z" id="boundary" inkscape:connector-curvature="0" />
	<path style="fill:none;stroke:red;stroke-width:1px;stroke-linecap:butt;stroke-linejoin:miter;stroke-opacity:1" d="M 370.728,13.1682 381.73,27.8373 z" id="boundary" inkscape:connector-curvature="0" />
	<path style="fill:none;stroke:red;stroke-width:1px;stroke-linecap:butt;stroke-linejoin:miter;stroke-opacity:1" d="M 381.73,27.8373 396.399,38.8392 z" id="boundary" inkscape:connector-curvature="0" />
	<path style="fill:none;stroke:red;stroke-width:1px;stroke-linecap:butt;stroke-linejoin:miter;stroke-opacity:1" d="M 396.399,38.8392 405.567,55.342 z" id="boundary" inkscape:connector-curvature="0" />
	<path style="fill:none;stroke:red;stroke-width:1px;stroke-linecap:butt;stroke-linejoin:miter;stroke-opacity:1" d="M 422.07,64.5102 405.567,55.342 z" id="boundary" inkscape:connector-curvature="0" />
	<path style="fill:none;stroke:red;stroke-width:1px;stroke-linecap:butt;stroke-linejoin:miter;stroke-opacity:1" d="M 440.407,64.5102 422.07,64.5102 z" id="boundary" inkscape:connector-curvature="0" />
	<path style="fill:none;stroke:red;stroke-width:1px;stroke-linecap:butt;stroke-linejoin:miter;stroke-opacity:1" d="M 458.743,64.5102 440.407,64.5102 z" id="boundary" inkscape:connector-curvature="0" />
	<path style="fill:none;stroke:red;stroke-width:1px;stroke-linecap:butt;stroke-linejoin:miter;stroke-opacity:1" d="M 222.203,304.717 203.867,310.218 z" id="boundary" inkscape:connector-curvature="0" />
	<path style="fill:none;stroke:red;stroke-width:1px;stroke-linecap:butt;stroke-linejoin:miter;stroke-opacity:1" d="M 240.54,304.717 222.203,304.717 z" id="boundary" inkscape:connector-curvature="0" />
	<path style="fill:none;stroke:red;stroke-width:1px;stroke-linecap:butt;stroke-linejoin:miter;stroke-opacity:1" d="M 258.876,304.717 240.54,304.717 z" id="boundary" inkscape:connector-curvature="0" />
	<path style="fill:none;stroke:red;stroke-width:1px;stroke-linecap:butt;stroke-linejoin:miter;stroke-opacity:1" d="M 277.213,304.717 258.876,304.717 z" id="boundary" inkscape:connector-curvature="0" />
	<path style="fill:none;stroke:red;stroke-width:1px;stroke-linecap:butt;stroke-linejoin:miter;stroke-opacity:1" d="M 176.362,337.723 161.693,350.558 z" id="boundary" inkscape:connector-curvature="0" />
	<path style="fill:none;stroke:red;stroke-width:1px;stroke-linecap:butt;stroke-linejoin:miter;stroke-opacity:1" d="M 189.198,323.054 203.867,310.218 z" id="boundary" inkscape:connector-curvature="0" />
	<path style="fill:none;stroke:red;stroke-width:1px;stroke-linecap:butt;stroke-linejoin:miter;stroke-opacity:1" d="M 189.198,323.054 176.362,337.723 z" id="boundary" inkscape:connector-curvature="0" />
	<path style="fill:none;stroke:red;stroke-width:1px;stroke-linecap:butt;stroke-linejoin:miter;stroke-opacity:1" d="M 288.214,345.057 288.214,363.394 z" id="boundary" inkscape:connector-curvature="0" />
	<path style="fill:none;stroke:red;stroke-width:1px;stroke-linecap:butt;stroke-linejoin:miter;stroke-opacity:1" d="M 277.213,304.717 293.715,313.885 z" id="boundary" inkscape:connector-curvature="0" />
	<path style="fill:none;stroke:red;stroke-width:1px;stroke-linecap:butt;stroke-linejoin:miter;stroke-opacity:1" d="M 293.715,313.885 288.214,345.057 z" id="boundary" inkscape:connector-curvature="0" />
	<path style="fill:none;stroke:red;stroke-width:1px;stroke-linecap:butt;stroke-linejoin:miter;stroke-opacity:1" d="M 288.214,400.067 288.214,381.73 z" id="boundary" inkscape:connector-curvature="0" />
	<path style="fill:none;stroke:red;stroke-width:1px;stroke-linecap:butt;stroke-linejoin:miter;stroke-opacity:1" d="M 288.214,363.394 288.214,381.73 z" id="boundary" inkscape:connector-curvature="0" />
	<path style="fill:none;stroke:red;stroke-width:1px;stroke-linecap:butt;stroke-linejoin:miter;stroke-opacity:1" d="M 288.214,400.067 288.214,418.403 z" id="boundary" inkscape:connector-curvature="0" />
	<path style="fill:none;stroke:red;stroke-width:1px;stroke-linecap:butt;stroke-linejoin:miter;stroke-opacity:1" d="M 288.214,436.739 288.214,418.403 z" id="boundary" inkscape:connector-curvature="0" />
	<path style="fill:none;stroke:red;stroke-width:1px;stroke-linecap:butt;stroke-linejoin:miter;stroke-opacity:1" d="M 288.214,455.076 288.214,436.739 z" id="boundary" inkscape:connector-curvature="0" />
	<path style="fill:none;stroke:red;stroke-width:1px;stroke-linecap:butt;stroke-linejoin:miter;stroke-opacity:1" d="M 37.0055,513.752 46.1738,495.416 z" id="boundary" inkscape:connector-curvature="0" />
	<path style="fill:none;stroke:red;stroke-width:1px;stroke-linecap:butt;stroke-linejoin:miter;stroke-opacity:1" d="M 59.0092,464.244 60.8429,482.58 z" id="boundary" inkscape:connector-curvature="0" />
	<path style="fill:none;stroke:red;stroke-width:1px;stroke-linecap:butt;stroke-linejoin:miter;stroke-opacity:1" d="M 60.8429,482.58 46.1738,495.416 z" id="boundary" inkscape:connector-curvature="0" />
	<path style="fill:none;stroke:red;stroke-width:1px;stroke-linecap:butt;stroke-linejoin:miter;stroke-opacity:1" d="M 27.8373,532.089 37.0055,513.752 z" id="boundary" inkscape:connector-curvature="0" />
	<path style="fill:none;stroke:red;stroke-width:1px;stroke-linecap:butt;stroke-linejoin:miter;stroke-opacity:1" d="M 13.1682,581.597 4,565.094 z" id="boundary" inkscape:connector-curvature="0" />
	<path style="fill:none;stroke:red;stroke-width:1px;stroke-linecap:butt;stroke-linejoin:miter;stroke-opacity:1" d="M 4,565.094 13.1682,546.758 z" id="boundary" inkscape:connector-curvature="0" />
	<path style="fill:none;stroke:red;stroke-width:1px;stroke-linecap:butt;stroke-linejoin:miter;stroke-opacity:1" d="M 13.1682,546.758 27.8373,532.089 z" id="boundary" inkscape:connector-curvature="0" />
	<path style="fill:none;stroke:red;stroke-width:1px;stroke-linecap:butt;stroke-linejoin:miter;stroke-opacity:1" d="M 68.1774,555.926 59.0092,574.262 z" id="boundary" inkscape:connector-curvature="0" />
	<path style="fill:none;stroke:red;stroke-width:1px;stroke-linecap:butt;stroke-linejoin:miter;stroke-opacity:1" d="M 59.0092,574.262 40.6728,583.431 z" id="boundary" inkscape:connector-curvature="0" />
	<path style="fill:none;stroke:red;stroke-width:1px;stroke-linecap:butt;stroke-linejoin:miter;stroke-opacity:1" d="M 88.3475,515.586 103.017,502.75 z" id="boundary" inkscape:connector-curvature="0" />
	<path style="fill:none;stroke:red;stroke-width:1px;stroke-linecap:butt;stroke-linejoin:miter;stroke-opacity:1" d="M 79.1793,533.922 88.3475,515.586 z" id="boundary" inkscape:connector-curvature="0" />
	<path style="fill:none;stroke:red;stroke-width:1px;stroke-linecap:butt;stroke-linejoin:miter;stroke-opacity:1" d="M 269.878,528.421 260.71,555.926 z" id="boundary" inkscape:connector-curvature="0" />
	<path style="fill:none;stroke:red;stroke-width:1px;stroke-linecap:butt;stroke-linejoin:miter;stroke-opacity:1" d="M 106.684,478.913 103.017,502.75 z" id="boundary" inkscape:connector-curvature="0" />
	<path style="fill:none;stroke:red;stroke-width:1px;stroke-linecap:butt;stroke-linejoin:miter;stroke-opacity:1" d="M 68.1774,555.926 79.1793,533.922 z" id="boundary" inkscape:connector-curvature="0" />
	<path style="fill:none;stroke:red;stroke-width:1px;stroke-linecap:butt;stroke-linejoin:miter;stroke-opacity:1" d="M 251.542,574.262 260.71,555.926 z" id="boundary" inkscape:connector-curvature="0" />
	<path style="fill:none;stroke:red;stroke-width:1px;stroke-linecap:butt;stroke-linejoin:miter;stroke-opacity:1" d="M 251.542,592.599 251.542,574.262 z" id="boundary" inkscape:connector-curvature="0" />
	<path style="fill:none;stroke:red;stroke-width:1px;stroke-linecap:butt;stroke-linejoin:miter;stroke-opacity:1" d="M 106.684,478.913 115.852,451.409 z" id="boundary" inkscape:connector-curvature="0" />
	<path style="fill:none;stroke:red;stroke-width:1px;stroke-linecap:butt;stroke-linejoin:miter;stroke-opacity:1" d="M 13.1682,581.597 26.0037,596.266 z" id="boundary" inkscape:connector-curvature="0" />
	<path style="fill:none;stroke:red;stroke-width:1px;stroke-linecap:butt;stroke-linejoin:miter;stroke-opacity:1" d="M 40.6728,583.431 26.0037,596.266 z" id="boundary" inkscape:connector-curvature="0" />
	<path style="fill:none;stroke:red;stroke-width:1px;stroke-linecap:butt;stroke-linejoin:miter;stroke-opacity:1" d="M 202.033,733.789 187.364,748.458 z" id="boundary" inkscape:connector-curvature="0" />
	<path style="fill:none;stroke:red;stroke-width:1px;stroke-linecap:butt;stroke-linejoin:miter;stroke-opacity:1" d="M 187.364,748.458 187.364,766.795 z" id="boundary" inkscape:connector-curvature="0" />
	<path style="fill:none;stroke:red;stroke-width:1px;stroke-linecap:butt;stroke-linejoin:miter;stroke-opacity:1" d="M 187.364,785.131 205.701,790.632 z" id="boundary" inkscape:connector-curvature="0" />
	<path style="fill:none;stroke:red;stroke-width:1px;stroke-linecap:butt;stroke-linejoin:miter;stroke-opacity:1" d="M 205.701,790.632 216.702,805.301 z" id="boundary" inkscape:connector-curvature="0" />
	<path style="fill:none;stroke:red;stroke-width:1px;stroke-linecap:butt;stroke-linejoin:miter;stroke-opacity:1" d="M 187.364,785.131 187.364,766.795 z" id="boundary" inkscape:connector-curvature="0" />
	<path style="fill:none;stroke:red;stroke-width:1px;stroke-linecap:butt;stroke-linejoin:miter;stroke-opacity:1" d="M 224.037,684.281 224.037,665.945 z" id="boundary" inkscape:connector-curvature="0" />
	<path style="fill:none;stroke:red;stroke-width:1px;stroke-linecap:butt;stroke-linejoin:miter;stroke-opacity:1" d="M 233.205,638.44 242.373,610.935 z" id="boundary" inkscape:connector-curvature="0" />
	<path style="fill:none;stroke:red;stroke-width:1px;stroke-linecap:butt;stroke-linejoin:miter;stroke-opacity:1" d="M 233.205,638.44 224.037,665.945 z" id="boundary" inkscape:connector-curvature="0" />
	<path style="fill:none;stroke:red;stroke-width:1px;stroke-linecap:butt;stroke-linejoin:miter;stroke-opacity:1" d="M 202.033,733.789 216.702,719.12 z" id="boundary" inkscape:connector-curvature="0" />
	<path style="fill:none;stroke:red;stroke-width:1px;stroke-linecap:butt;stroke-linejoin:miter;stroke-opacity:1" d="M 253.375,799.8 235.039,808.969 z" id="boundary" inkscape:connector-curvature="0" />
	<path style="fill:none;stroke:red;stroke-width:1px;stroke-linecap:butt;stroke-linejoin:miter;stroke-opacity:1" d="M 235.039,808.969 216.702,805.301 z" id="boundary" inkscape:connector-curvature="0" />
	<path style="fill:none;stroke:red;stroke-width:1px;stroke-linecap:butt;stroke-linejoin:miter;stroke-opacity:1" d="M 216.702,719.12 224.037,684.281 z" id="boundary" inkscape:connector-curvature="0" />
	<path style="fill:none;stroke:red;stroke-width:1px;stroke-linecap:butt;stroke-linejoin:miter;stroke-opacity:1" d="M 253.375,799.8 269.878,808.969 z" id="boundary" inkscape:connector-curvature="0" />
	<path style="fill:none;stroke:red;stroke-width:1px;stroke-linecap:butt;stroke-linejoin:miter;stroke-opacity:1" d="M 242.373,610.935 251.542,592.599 z" id="boundary" inkscape:connector-curvature="0" />
	<path style="fill:none;stroke:red;stroke-width:1px;stroke-linecap:butt;stroke-linejoin:miter;stroke-opacity:1" d="M 279.046,491.749 279.046,510.085 z" id="boundary" inkscape:connector-curvature="0" />
	<path style="fill:none;stroke:red;stroke-width:1px;stroke-linecap:butt;stroke-linejoin:miter;stroke-opacity:1" d="M 279.046,510.085 269.878,528.421 z" id="boundary" inkscape:connector-curvature="0" />
	<path style="fill:none;stroke:red;stroke-width:1px;stroke-linecap:butt;stroke-linejoin:miter;stroke-opacity:1" d="M 279.046,491.749 288.214,473.412 z" id="boundary" inkscape:connector-curvature="0" />
	<path style="fill:none;stroke:red;stroke-width:1px;stroke-linecap:butt;stroke-linejoin:miter;stroke-opacity:1" d="M 288.214,455.076 288.214,473.412 z" id="boundary" inkscape:connector-curvature="0" />
	<path style="fill:none;stroke:red;stroke-width:1px;stroke-linecap:butt;stroke-linejoin:miter;stroke-opacity:1" d="M 345.057,698.95 345.057,717.287 z" id="boundary" inkscape:connector-curvature="0" />
	<path style="fill:none;stroke:red;stroke-width:1px;stroke-linecap:butt;stroke-linejoin:miter;stroke-opacity:1" d="M 354.226,671.445 345.057,698.95 z" id="boundary" inkscape:connector-curvature="0" />
	<path style="fill:none;stroke:red;stroke-width:1px;stroke-linecap:butt;stroke-linejoin:miter;stroke-opacity:1" d="M 372.562,634.773 368.895,658.61 z" id="boundary" inkscape:connector-curvature="0" />
	<path style="fill:none;stroke:red;stroke-width:1px;stroke-linecap:butt;stroke-linejoin:miter;stroke-opacity:1" d="M 368.895,658.61 354.226,671.445 z" id="boundary" inkscape:connector-curvature="0" />
	<path style="fill:none;stroke:red;stroke-width:1px;stroke-linecap:butt;stroke-linejoin:miter;stroke-opacity:1" d="M 372.562,634.773 381.73,607.268 z" id="boundary" inkscape:connector-curvature="0" />
	<path style="fill:none;stroke:red;stroke-width:1px;stroke-linecap:butt;stroke-linejoin:miter;stroke-opacity:1" d="M 381.73,607.268 392.732,621.937 z" id="boundary" inkscape:connector-curvature="0" />
	<path style="fill:none;stroke:red;stroke-width:1px;stroke-linecap:butt;stroke-linejoin:miter;stroke-opacity:1" d="M 392.732,621.937 398.233,640.274 z" id="boundary" inkscape:connector-curvature="0" />
	<path style="fill:none;stroke:red;stroke-width:1px;stroke-linecap:butt;stroke-linejoin:miter;stroke-opacity:1" d="M 398.233,640.274 398.233,658.61 z" id="boundary" inkscape:connector-curvature="0" />
	<path style="fill:none;stroke:red;stroke-width:1px;stroke-linecap:butt;stroke-linejoin:miter;stroke-opacity:1" d="M 407.401,675.113 407.401,693.449 z" id="boundary" inkscape:connector-curvature="0" />
	<path style="fill:none;stroke:red;stroke-width:1px;stroke-linecap:butt;stroke-linejoin:miter;stroke-opacity:1" d="M 407.401,675.113 398.233,658.61 z" id="boundary" inkscape:connector-curvature="0" />
	<path style="fill:none;stroke:red;stroke-width:1px;stroke-linecap:butt;stroke-linejoin:miter;stroke-opacity:1" d="M 416.569,709.952 407.401,693.449 z" id="boundary" inkscape:connector-curvature="0" />
	<path style="fill:none;stroke:red;stroke-width:1px;stroke-linecap:butt;stroke-linejoin:miter;stroke-opacity:1" d="M 345.057,717.287 348.725,735.623 z" id="boundary" inkscape:connector-curvature="0" />
	<path style="fill:none;stroke:red;stroke-width:1px;stroke-linecap:butt;stroke-linejoin:miter;stroke-opacity:1" d="M 343.224,785.131 324.887,794.299 z" id="boundary" inkscape:connector-curvature="0" />
	<path style="fill:none;stroke:red;stroke-width:1px;stroke-linecap:butt;stroke-linejoin:miter;stroke-opacity:1" d="M 354.226,763.128 343.224,785.131 z" id="boundary" inkscape:connector-curvature="0" />
	<path style="fill:none;stroke:red;stroke-width:1px;stroke-linecap:butt;stroke-linejoin:miter;stroke-opacity:1" d="M 348.725,735.623 354.226,763.128 z" id="boundary" inkscape:connector-curvature="0" />
	<path style="fill:none;stroke:red;stroke-width:1px;stroke-linecap:butt;stroke-linejoin:miter;stroke-opacity:1" d="M 269.878,808.969 288.214,803.468 z" id="boundary" inkscape:connector-curvature="0" />
	<path style="fill:none;stroke:red;stroke-width:1px;stroke-linecap:butt;stroke-linejoin:miter;stroke-opacity:1" d="M 306.551,799.8 324.887,794.299 z" id="boundary" inkscape:connector-curvature="0" />
	<path style="fill:none;stroke:red;stroke-width:1px;stroke-linecap:butt;stroke-linejoin:miter;stroke-opacity:1" d="M 306.551,799.8 288.214,803.468 z" id="boundary" inkscape:connector-curvature="0" />
	<path style="fill:none;stroke:red;stroke-width:1px;stroke-linecap:butt;stroke-linejoin:miter;stroke-opacity:1" d="M 389.065,785.131 398.233,766.795 z" id="boundary" inkscape:connector-curvature="0" />
	<path style="fill:none;stroke:red;stroke-width:1px;stroke-linecap:butt;stroke-linejoin:miter;stroke-opacity:1" d="M 469.745,836.473 451.409,836.473 z" id="boundary" inkscape:connector-curvature="0" />
	<path style="fill:none;stroke:red;stroke-width:1px;stroke-linecap:butt;stroke-linejoin:miter;stroke-opacity:1" d="M 412.902,752.126 398.233,766.795 z" id="boundary" inkscape:connector-curvature="0" />
	<path style="fill:none;stroke:red;stroke-width:1px;stroke-linecap:butt;stroke-linejoin:miter;stroke-opacity:1" d="M 389.065,803.468 398.233,819.97 z" id="boundary" inkscape:connector-curvature="0" />
	<path style="fill:none;stroke:red;stroke-width:1px;stroke-linecap:butt;stroke-linejoin:miter;stroke-opacity:1" d="M 416.569,827.305 398.233,819.97 z" id="boundary" inkscape:connector-curvature="0" />
	<path style="fill:none;stroke:red;stroke-width:1px;stroke-linecap:butt;stroke-linejoin:miter;stroke-opacity:1" d="M 451.409,836.473 433.072,836.473 z" id="boundary" inkscape:connector-curvature="0" />
	<path style="fill:none;stroke:red;stroke-width:1px;stroke-linecap:butt;stroke-linejoin:miter;stroke-opacity:1" d="M 433.072,836.473 416.569,827.305 z" id="boundary" inkscape:connector-curvature="0" />
	<path style="fill:none;stroke:red;stroke-width:1px;stroke-linecap:butt;stroke-linejoin:miter;stroke-opacity:1" d="M 389.065,803.468 389.065,785.131 z" id="boundary" inkscape:connector-curvature="0" />
	<path style="fill:none;stroke:red;stroke-width:1px;stroke-linecap:butt;stroke-linejoin:miter;stroke-opacity:1" d="M 412.902,752.126 422.07,733.789 z" id="boundary" inkscape:connector-curvature="0" />
	<path style="fill:none;stroke:red;stroke-width:1px;stroke-linecap:butt;stroke-linejoin:miter;stroke-opacity:1" d="M 416.569,709.952 422.07,733.789 z" id="boundary" inkscape:connector-curvature="0" />
	<path style="fill:none;stroke:red;stroke-width:1px;stroke-linecap:butt;stroke-linejoin:miter;stroke-opacity:1" d="M 458.743,64.5102 477.079,64.5102 z" id="boundary" inkscape:connector-curvature="0" />
	<path style="fill:none;stroke:red;stroke-width:1px;stroke-linecap:butt;stroke-linejoin:miter;stroke-opacity:1" d="M 495.416,64.5102 511.919,73.6784 z" id="boundary" inkscape:connector-curvature="0" />
	<path style="fill:none;stroke:red;stroke-width:1px;stroke-linecap:butt;stroke-linejoin:miter;stroke-opacity:1" d="M 477.079,64.5102 495.416,64.5102 z" id="boundary" inkscape:connector-curvature="0" />
	<path style="fill:none;stroke:red;stroke-width:1px;stroke-linecap:butt;stroke-linejoin:miter;stroke-opacity:1" d="M 530.255,73.6784 511.919,73.6784 z" id="boundary" inkscape:connector-curvature="0" />
	<path style="fill:none;stroke:red;stroke-width:1px;stroke-linecap:butt;stroke-linejoin:miter;stroke-opacity:1" d="M 530.255,73.6784 546.758,82.8466 z" id="boundary" inkscape:connector-curvature="0" />
	<path style="fill:none;stroke:red;stroke-width:1px;stroke-linecap:butt;stroke-linejoin:miter;stroke-opacity:1" d="M 565.094,82.8466 546.758,82.8466 z" id="boundary" inkscape:connector-curvature="0" />
	<path style="fill:none;stroke:red;stroke-width:1px;stroke-linecap:butt;stroke-linejoin:miter;stroke-opacity:1" d="M 565.094,82.8466 579.763,93.8484 z" id="boundary" inkscape:connector-curvature="0" />
	<path style="fill:none;stroke:red;stroke-width:1px;stroke-linecap:butt;stroke-linejoin:miter;stroke-opacity:1" d="M 596.266,103.017 579.763,93.8484 z" id="boundary" inkscape:connector-curvature="0" />
	<path style="fill:none;stroke:red;stroke-width:1px;stroke-linecap:butt;stroke-linejoin:miter;stroke-opacity:1" d="M 596.266,103.017 601.767,121.353 z" id="boundary" inkscape:connector-curvature="0" />
	<path style="fill:none;stroke:red;stroke-width:1px;stroke-linecap:butt;stroke-linejoin:miter;stroke-opacity:1" d="M 702.617,141.523 684.281,143.357 z" id="boundary" inkscape:connector-curvature="0" />
	<path style="fill:none;stroke:red;stroke-width:1px;stroke-linecap:butt;stroke-linejoin:miter;stroke-opacity:1" d="M 629.272,143.357 610.935,137.856 z" id="boundary" inkscape:connector-curvature="0" />
	<path style="fill:none;stroke:red;stroke-width:1px;stroke-linecap:butt;stroke-linejoin:miter;stroke-opacity:1" d="M 610.935,137.856 601.767,121.353 z" id="boundary" inkscape:connector-curvature="0" />
	<path style="fill:none;stroke:red;stroke-width:1px;stroke-linecap:butt;stroke-linejoin:miter;stroke-opacity:1" d="M 629.272,143.357 647.608,143.357 z" id="boundary" inkscape:connector-curvature="0" />
	<path style="fill:none;stroke:red;stroke-width:1px;stroke-linecap:butt;stroke-linejoin:miter;stroke-opacity:1" d="M 684.281,143.357 665.945,143.357 z" id="boundary" inkscape:connector-curvature="0" />
	<path style="fill:none;stroke:red;stroke-width:1px;stroke-linecap:butt;stroke-linejoin:miter;stroke-opacity:1" d="M 665.945,143.357 647.608,143.357 z" id="boundary" inkscape:connector-curvature="0" />
	<path style="fill:none;stroke:red;stroke-width:1px;stroke-linecap:butt;stroke-linejoin:miter;stroke-opacity:1" d="M 702.617,141.523 720.954,147.024 z" id="boundary" inkscape:connector-curvature="0" />
	<path style="fill:none;stroke:red;stroke-width:1px;stroke-linecap:butt;stroke-linejoin:miter;stroke-opacity:1" d="M 510.085,524.754 510.085,543.091 z" id="boundary" inkscape:connector-curvature="0" />
	<path style="fill:none;stroke:red;stroke-width:1px;stroke-linecap:butt;stroke-linejoin:miter;stroke-opacity:1" d="M 510.085,524.754 528.421,528.421 z" id="boundary" inkscape:connector-curvature="0" />
	<path style="fill:none;stroke:red;stroke-width:1px;stroke-linecap:butt;stroke-linejoin:miter;stroke-opacity:1" d="M 519.253,559.593 510.085,543.091 z" id="boundary" inkscape:connector-curvature="0" />
	<path style="fill:none;stroke:red;stroke-width:1px;stroke-linecap:butt;stroke-linejoin:miter;stroke-opacity:1" d="M 546.758,533.922 528.421,528.421 z" id="boundary" inkscape:connector-curvature="0" />
	<path style="fill:none;stroke:red;stroke-width:1px;stroke-linecap:butt;stroke-linejoin:miter;stroke-opacity:1" d="M 519.253,559.593 519.253,577.93 z" id="boundary" inkscape:connector-curvature="0" />
	<path style="fill:none;stroke:red;stroke-width:1px;stroke-linecap:butt;stroke-linejoin:miter;stroke-opacity:1" d="M 528.421,594.433 519.253,577.93 z" id="boundary" inkscape:connector-curvature="0" />
	<path style="fill:none;stroke:red;stroke-width:1px;stroke-linecap:butt;stroke-linejoin:miter;stroke-opacity:1" d="M 546.758,533.922 563.261,543.091 z" id="boundary" inkscape:connector-curvature="0" />
	<path style="fill:none;stroke:red;stroke-width:1px;stroke-linecap:butt;stroke-linejoin:miter;stroke-opacity:1" d="M 528.421,594.433 528.421,612.769 z" id="boundary" inkscape:connector-curvature="0" />
	<path style="fill:none;stroke:red;stroke-width:1px;stroke-linecap:butt;stroke-linejoin:miter;stroke-opacity:1" d="M 581.597,543.091 563.261,543.091 z" id="boundary" inkscape:connector-curvature="0" />
	<path style="fill:none;stroke:red;stroke-width:1px;stroke-linecap:butt;stroke-linejoin:miter;stroke-opacity:1" d="M 618.27,543.091 599.933,546.758 z" id="boundary" inkscape:connector-curvature="0" />
	<path style="fill:none;stroke:red;stroke-width:1px;stroke-linecap:butt;stroke-linejoin:miter;stroke-opacity:1" d="M 599.933,546.758 581.597,543.091 z" id="boundary" inkscape:connector-curvature="0" />
	<path style="fill:none;stroke:red;stroke-width:1px;stroke-linecap:butt;stroke-linejoin:miter;stroke-opacity:1" d="M 739.29,152.525 720.954,147.024 z" id="boundary" inkscape:connector-curvature="0" />
	<path style="fill:none;stroke:red;stroke-width:1px;stroke-linecap:butt;stroke-linejoin:miter;stroke-opacity:1" d="M 609.102,574.262 618.27,543.091 z" id="boundary" inkscape:connector-curvature="0" />
	<path style="fill:none;stroke:red;stroke-width:1px;stroke-linecap:butt;stroke-linejoin:miter;stroke-opacity:1" d="M 609.102,574.262 609.102,592.599 z" id="boundary" inkscape:connector-curvature="0" />
	<path style="fill:none;stroke:red;stroke-width:1px;stroke-linecap:butt;stroke-linejoin:miter;stroke-opacity:1" d="M 609.102,592.599 599.933,610.935 z" id="boundary" inkscape:connector-curvature="0" />
	<path style="fill:none;stroke:red;stroke-width:1px;stroke-linecap:butt;stroke-linejoin:miter;stroke-opacity:1" d="M 599.933,629.272 599.933,610.935 z" id="boundary" inkscape:connector-curvature="0" />
	<path style="fill:none;stroke:red;stroke-width:1px;stroke-linecap:butt;stroke-linejoin:miter;stroke-opacity:1" d="M 739.29,152.525 753.959,165.36 z" id="boundary" inkscape:connector-curvature="0" />
	<path style="fill:none;stroke:red;stroke-width:1px;stroke-linecap:butt;stroke-linejoin:miter;stroke-opacity:1" d="M 753.959,165.36 772.296,167.194 z" id="boundary" inkscape:connector-curvature="0" />
	<path style="fill:none;stroke:red;stroke-width:1px;stroke-linecap:butt;stroke-linejoin:miter;stroke-opacity:1" d="M 772.296,167.194 785.131,181.863 z" id="boundary" inkscape:connector-curvature="0" />
	<path style="fill:none;stroke:red;stroke-width:1px;stroke-linecap:butt;stroke-linejoin:miter;stroke-opacity:1" d="M 785.131,181.863 799.8,194.699 z" id="boundary" inkscape:connector-curvature="0" />
	<path style="fill:none;stroke:red;stroke-width:1px;stroke-linecap:butt;stroke-linejoin:miter;stroke-opacity:1" d="M 816.303,203.867 799.8,194.699 z" id="boundary" inkscape:connector-curvature="0" />
	<path style="fill:none;stroke:red;stroke-width:1px;stroke-linecap:butt;stroke-linejoin:miter;stroke-opacity:1" d="M 816.303,203.867 825.471,220.37 z" id="boundary" inkscape:connector-curvature="0" />
	<path style="fill:none;stroke:red;stroke-width:1px;stroke-linecap:butt;stroke-linejoin:miter;stroke-opacity:1" d="M 838.307,235.039 825.471,220.37 z" id="boundary" inkscape:connector-curvature="0" />
	<path style="fill:none;stroke:red;stroke-width:1px;stroke-linecap:butt;stroke-linejoin:miter;stroke-opacity:1" d="M 852.976,247.874 838.307,235.039 z" id="boundary" inkscape:connector-curvature="0" />
	<path style="fill:none;stroke:red;stroke-width:1px;stroke-linecap:butt;stroke-linejoin:miter;stroke-opacity:1" d="M 852.976,247.874 865.811,262.543 z" id="boundary" inkscape:connector-curvature="0" />
	<path style="fill:none;stroke:red;stroke-width:1px;stroke-linecap:butt;stroke-linejoin:miter;stroke-opacity:1" d="M 865.811,262.543 880.481,275.379 z" id="boundary" inkscape:connector-curvature="0" />
	<path style="fill:none;stroke:red;stroke-width:1px;stroke-linecap:butt;stroke-linejoin:miter;stroke-opacity:1" d="M 893.316,290.048 902.484,306.551 z" id="boundary" inkscape:connector-curvature="0" />
	<path style="fill:none;stroke:red;stroke-width:1px;stroke-linecap:butt;stroke-linejoin:miter;stroke-opacity:1" d="M 880.481,275.379 893.316,290.048 z" id="boundary" inkscape:connector-curvature="0" />
	<path style="fill:none;stroke:red;stroke-width:1px;stroke-linecap:butt;stroke-linejoin:miter;stroke-opacity:1" d="M 913.486,321.22 902.484,306.551 z" id="boundary" inkscape:connector-curvature="0" />
	<path style="fill:none;stroke:red;stroke-width:1px;stroke-linecap:butt;stroke-linejoin:miter;stroke-opacity:1" d="M 913.486,321.22 922.654,337.723 z" id="boundary" inkscape:connector-curvature="0" />
	<path style="fill:none;stroke:red;stroke-width:1px;stroke-linecap:butt;stroke-linejoin:miter;stroke-opacity:1" d="M 922.654,337.723 922.654,359.726 z" id="boundary" inkscape:connector-curvature="0" />
	<path style="fill:none;stroke:red;stroke-width:1px;stroke-linecap:butt;stroke-linejoin:miter;stroke-opacity:1" d="M 922.654,359.726 922.654,378.063 z" id="boundary" inkscape:connector-curvature="0" />
	<path style="fill:none;stroke:red;stroke-width:1px;stroke-linecap:butt;stroke-linejoin:miter;stroke-opacity:1" d="M 931.823,394.566 922.654,378.063 z" id="boundary" inkscape:connector-curvature="0" />
	<path style="fill:none;stroke:red;stroke-width:1px;stroke-linecap:butt;stroke-linejoin:miter;stroke-opacity:1" d="M 867.645,488.081 876.813,504.584 z" id="boundary" inkscape:connector-curvature="0" />
	<path style="fill:none;stroke:red;stroke-width:1px;stroke-linecap:butt;stroke-linejoin:miter;stroke-opacity:1" d="M 891.482,515.586 876.813,504.584 z" id="boundary" inkscape:connector-curvature="0" />
	<path style="fill:none;stroke:red;stroke-width:1px;stroke-linecap:butt;stroke-linejoin:miter;stroke-opacity:1" d="M 900.651,475.246 885.982,488.081 z" id="boundary" inkscape:connector-curvature="0" />
	<path style="fill:none;stroke:red;stroke-width:1px;stroke-linecap:butt;stroke-linejoin:miter;stroke-opacity:1" d="M 909.819,456.909 900.651,475.246 z" id="boundary" inkscape:connector-curvature="0" />
	<path style="fill:none;stroke:red;stroke-width:1px;stroke-linecap:butt;stroke-linejoin:miter;stroke-opacity:1" d="M 746.625,607.268 730.122,616.436 z" id="boundary" inkscape:connector-curvature="0" />
	<path style="fill:none;stroke:red;stroke-width:1px;stroke-linecap:butt;stroke-linejoin:miter;stroke-opacity:1" d="M 764.961,607.268 746.625,607.268 z" id="boundary" inkscape:connector-curvature="0" />
	<path style="fill:none;stroke:red;stroke-width:1px;stroke-linecap:butt;stroke-linejoin:miter;stroke-opacity:1" d="M 904.318,530.255 891.482,515.586 z" id="boundary" inkscape:connector-curvature="0" />
	<path style="fill:none;stroke:red;stroke-width:1px;stroke-linecap:butt;stroke-linejoin:miter;stroke-opacity:1" d="M 909.819,456.909 918.987,438.573 z" id="boundary" inkscape:connector-curvature="0" />
	<path style="fill:none;stroke:red;stroke-width:1px;stroke-linecap:butt;stroke-linejoin:miter;stroke-opacity:1" d="M 922.654,414.736 918.987,438.573 z" id="boundary" inkscape:connector-curvature="0" />
	<path style="fill:none;stroke:red;stroke-width:1px;stroke-linecap:butt;stroke-linejoin:miter;stroke-opacity:1" d="M 922.654,414.736 931.823,394.566 z" id="boundary" inkscape:connector-curvature="0" />
	<path style="fill:none;stroke:red;stroke-width:1px;stroke-linecap:butt;stroke-linejoin:miter;stroke-opacity:1" d="M 913.486,546.758 926.322,561.427 z" id="boundary" inkscape:connector-curvature="0" />
	<path style="fill:none;stroke:red;stroke-width:1px;stroke-linecap:butt;stroke-linejoin:miter;stroke-opacity:1" d="M 948.325,592.599 935.49,577.93 z" id="boundary" inkscape:connector-curvature="0" />
	<path style="fill:none;stroke:red;stroke-width:1px;stroke-linecap:butt;stroke-linejoin:miter;stroke-opacity:1" d="M 935.49,577.93 926.322,561.427 z" id="boundary" inkscape:connector-curvature="0" />
	<path style="fill:none;stroke:red;stroke-width:1px;stroke-linecap:butt;stroke-linejoin:miter;stroke-opacity:1" d="M 962.994,605.434 948.325,592.599 z" id="boundary" inkscape:connector-curvature="0" />
	<path style="fill:none;stroke:red;stroke-width:1px;stroke-linecap:butt;stroke-linejoin:miter;stroke-opacity:1" d="M 904.318,530.255 913.486,546.758 z" id="boundary" inkscape:connector-curvature="0" />
	<path style="fill:none;stroke:red;stroke-width:1px;stroke-linecap:butt;stroke-linejoin:miter;stroke-opacity:1" d="M 962.994,605.434 968.495,623.771 z" id="boundary" inkscape:connector-curvature="0" />
	<path style="fill:none;stroke:red;stroke-width:1px;stroke-linecap:butt;stroke-linejoin:miter;stroke-opacity:1" d="M 537.59,651.275 528.421,634.773 z" id="boundary" inkscape:connector-curvature="0" />
	<path style="fill:none;stroke:red;stroke-width:1px;stroke-linecap:butt;stroke-linejoin:miter;stroke-opacity:1" d="M 537.59,651.275 537.59,669.612 z" id="boundary" inkscape:connector-curvature="0" />
	<path style="fill:none;stroke:red;stroke-width:1px;stroke-linecap:butt;stroke-linejoin:miter;stroke-opacity:1" d="M 546.758,686.115 537.59,669.612 z" id="boundary" inkscape:connector-curvature="0" />
	<path style="fill:none;stroke:red;stroke-width:1px;stroke-linecap:butt;stroke-linejoin:miter;stroke-opacity:1" d="M 546.758,686.115 546.758,704.451 z" id="boundary" inkscape:connector-curvature="0" />
	<path style="fill:none;stroke:red;stroke-width:1px;stroke-linecap:butt;stroke-linejoin:miter;stroke-opacity:1" d="M 581.597,702.617 572.429,720.954 z" id="boundary" inkscape:connector-curvature="0" />
	<path style="fill:none;stroke:red;stroke-width:1px;stroke-linecap:butt;stroke-linejoin:miter;stroke-opacity:1" d="M 555.926,742.957 546.758,726.455 z" id="boundary" inkscape:connector-curvature="0" />
	<path style="fill:none;stroke:red;stroke-width:1px;stroke-linecap:butt;stroke-linejoin:miter;stroke-opacity:1" d="M 546.758,726.455 546.758,704.451 z" id="boundary" inkscape:connector-curvature="0" />
	<path style="fill:none;stroke:red;stroke-width:1px;stroke-linecap:butt;stroke-linejoin:miter;stroke-opacity:1" d="M 528.421,634.773 528.421,612.769 z" id="boundary" inkscape:connector-curvature="0" />
	<path style="fill:none;stroke:red;stroke-width:1px;stroke-linecap:butt;stroke-linejoin:miter;stroke-opacity:1" d="M 590.765,665.945 590.765,684.281 z" id="boundary" inkscape:connector-curvature="0" />
	<path style="fill:none;stroke:red;stroke-width:1px;stroke-linecap:butt;stroke-linejoin:miter;stroke-opacity:1" d="M 590.765,665.945 590.765,647.608 z" id="boundary" inkscape:connector-curvature="0" />
	<path style="fill:none;stroke:red;stroke-width:1px;stroke-linecap:butt;stroke-linejoin:miter;stroke-opacity:1" d="M 590.765,647.608 599.933,629.272 z" id="boundary" inkscape:connector-curvature="0" />
	<path style="fill:none;stroke:red;stroke-width:1px;stroke-linecap:butt;stroke-linejoin:miter;stroke-opacity:1" d="M 720.954,671.445 711.786,698.95 z" id="boundary" inkscape:connector-curvature="0" />
	<path style="fill:none;stroke:red;stroke-width:1px;stroke-linecap:butt;stroke-linejoin:miter;stroke-opacity:1" d="M 590.765,684.281 581.597,702.617 z" id="boundary" inkscape:connector-curvature="0" />
	<path style="fill:none;stroke:red;stroke-width:1px;stroke-linecap:butt;stroke-linejoin:miter;stroke-opacity:1" d="M 574.262,739.29 572.429,720.954 z" id="boundary" inkscape:connector-curvature="0" />
	<path style="fill:none;stroke:red;stroke-width:1px;stroke-linecap:butt;stroke-linejoin:miter;stroke-opacity:1" d="M 711.786,717.287 711.786,698.95 z" id="boundary" inkscape:connector-curvature="0" />
	<path style="fill:none;stroke:red;stroke-width:1px;stroke-linecap:butt;stroke-linejoin:miter;stroke-opacity:1" d="M 555.926,797.967 543.091,827.305 z" id="boundary" inkscape:connector-curvature="0" />
	<path style="fill:none;stroke:red;stroke-width:1px;stroke-linecap:butt;stroke-linejoin:miter;stroke-opacity:1" d="M 543.091,827.305 524.754,832.806 z" id="boundary" inkscape:connector-curvature="0" />
	<path style="fill:none;stroke:red;stroke-width:1px;stroke-linecap:butt;stroke-linejoin:miter;stroke-opacity:1" d="M 555.926,761.294 555.926,779.63 z" id="boundary" inkscape:connector-curvature="0" />
	<path style="fill:none;stroke:red;stroke-width:1px;stroke-linecap:butt;stroke-linejoin:miter;stroke-opacity:1" d="M 555.926,761.294 555.926,742.957 z" id="boundary" inkscape:connector-curvature="0" />
	<path style="fill:none;stroke:red;stroke-width:1px;stroke-linecap:butt;stroke-linejoin:miter;stroke-opacity:1" d="M 555.926,779.63 555.926,797.967 z" id="boundary" inkscape:connector-curvature="0" />
	<path style="fill:none;stroke:red;stroke-width:1px;stroke-linecap:butt;stroke-linejoin:miter;stroke-opacity:1" d="M 488.081,836.473 469.745,836.473 z" id="boundary" inkscape:connector-curvature="0" />
	<path style="fill:none;stroke:red;stroke-width:1px;stroke-linecap:butt;stroke-linejoin:miter;stroke-opacity:1" d="M 506.418,836.473 524.754,832.806 z" id="boundary" inkscape:connector-curvature="0" />
	<path style="fill:none;stroke:red;stroke-width:1px;stroke-linecap:butt;stroke-linejoin:miter;stroke-opacity:1" d="M 506.418,836.473 488.081,836.473 z" id="boundary" inkscape:connector-curvature="0" />
	<path style="fill:none;stroke:red;stroke-width:1px;stroke-linecap:butt;stroke-linejoin:miter;stroke-opacity:1" d="M 574.262,766.795 592.599,772.296 z" id="boundary" inkscape:connector-curvature="0" />
	<path style="fill:none;stroke:red;stroke-width:1px;stroke-linecap:butt;stroke-linejoin:miter;stroke-opacity:1" d="M 574.262,739.29 574.262,766.795 z" id="boundary" inkscape:connector-curvature="0" />
	<path style="fill:none;stroke:red;stroke-width:1px;stroke-linecap:butt;stroke-linejoin:miter;stroke-opacity:1" d="M 610.935,775.963 592.599,772.296 z" id="boundary" inkscape:connector-curvature="0" />
	<path style="fill:none;stroke:red;stroke-width:1px;stroke-linecap:butt;stroke-linejoin:miter;stroke-opacity:1" d="M 664.111,772.296 645.774,772.296 z" id="boundary" inkscape:connector-curvature="0" />
	<path style="fill:none;stroke:red;stroke-width:1px;stroke-linecap:butt;stroke-linejoin:miter;stroke-opacity:1" d="M 610.935,775.963 629.272,781.464 z" id="boundary" inkscape:connector-curvature="0" />
	<path style="fill:none;stroke:red;stroke-width:1px;stroke-linecap:butt;stroke-linejoin:miter;stroke-opacity:1" d="M 664.111,772.296 682.447,772.296 z" id="boundary" inkscape:connector-curvature="0" />
	<path style="fill:none;stroke:red;stroke-width:1px;stroke-linecap:butt;stroke-linejoin:miter;stroke-opacity:1" d="M 645.774,772.296 629.272,781.464 z" id="boundary" inkscape:connector-curvature="0" />
	<path style="fill:none;stroke:red;stroke-width:1px;stroke-linecap:butt;stroke-linejoin:miter;stroke-opacity:1" d="M 711.786,735.623 700.784,766.795 z" id="boundary" inkscape:connector-curvature="0" />
	<path style="fill:none;stroke:red;stroke-width:1px;stroke-linecap:butt;stroke-linejoin:miter;stroke-opacity:1" d="M 700.784,766.795 682.447,772.296 z" id="boundary" inkscape:connector-curvature="0" />
	<path style="fill:none;stroke:red;stroke-width:1px;stroke-linecap:butt;stroke-linejoin:miter;stroke-opacity:1" d="M 711.786,717.287 711.786,735.623 z" id="boundary" inkscape:connector-curvature="0" />
	<path style="fill:none;stroke:red;stroke-width:1px;stroke-linecap:butt;stroke-linejoin:miter;stroke-opacity:1" d="M 730.122,616.436 730.122,634.773 z" id="boundary" inkscape:connector-curvature="0" />
	<path style="fill:none;stroke:red;stroke-width:1px;stroke-linecap:butt;stroke-linejoin:miter;stroke-opacity:1" d="M 730.122,634.773 720.954,653.109 z" id="boundary" inkscape:connector-curvature="0" />
	<path style="fill:none;stroke:red;stroke-width:1px;stroke-linecap:butt;stroke-linejoin:miter;stroke-opacity:1" d="M 788.799,625.604 803.468,638.44 z" id="boundary" inkscape:connector-curvature="0" />
	<path style="fill:none;stroke:red;stroke-width:1px;stroke-linecap:butt;stroke-linejoin:miter;stroke-opacity:1" d="M 720.954,671.445 720.954,653.109 z" id="boundary" inkscape:connector-curvature="0" />
	<path style="fill:none;stroke:red;stroke-width:1px;stroke-linecap:butt;stroke-linejoin:miter;stroke-opacity:1" d="M 819.97,647.608 803.468,638.44 z" id="boundary" inkscape:connector-curvature="0" />
	<path style="fill:none;stroke:red;stroke-width:1px;stroke-linecap:butt;stroke-linejoin:miter;stroke-opacity:1" d="M 854.81,662.277 838.307,653.109 z" id="boundary" inkscape:connector-curvature="0" />
	<path style="fill:none;stroke:red;stroke-width:1px;stroke-linecap:butt;stroke-linejoin:miter;stroke-opacity:1" d="M 838.307,653.109 819.97,647.608 z" id="boundary" inkscape:connector-curvature="0" />
	<path style="fill:none;stroke:red;stroke-width:1px;stroke-linecap:butt;stroke-linejoin:miter;stroke-opacity:1" d="M 977.664,640.274 977.664,658.61 z" id="boundary" inkscape:connector-curvature="0" />
	<path style="fill:none;stroke:red;stroke-width:1px;stroke-linecap:butt;stroke-linejoin:miter;stroke-opacity:1" d="M 968.495,623.771 977.664,640.274 z" id="boundary" inkscape:connector-curvature="0" />
	<path style="fill:none;stroke:red;stroke-width:1px;stroke-linecap:butt;stroke-linejoin:miter;stroke-opacity:1" d="M 862.144,680.614 854.81,662.277 z" id="boundary" inkscape:connector-curvature="0" />
	<path style="fill:none;stroke:red;stroke-width:1px;stroke-linecap:butt;stroke-linejoin:miter;stroke-opacity:1" d="M 986.832,693.449 977.664,676.946 z" id="boundary" inkscape:connector-curvature="0" />
	<path style="fill:none;stroke:red;stroke-width:1px;stroke-linecap:butt;stroke-linejoin:miter;stroke-opacity:1" d="M 977.664,676.946 977.664,658.61 z" id="boundary" inkscape:connector-curvature="0" />
	<path style="fill:none;stroke:red;stroke-width:1px;stroke-linecap:butt;stroke-linejoin:miter;stroke-opacity:1" d="M 862.144,680.614 852.976,697.116 z" id="boundary" inkscape:connector-curvature="0" />
	<path style="fill:none;stroke:red;stroke-width:1px;stroke-linecap:butt;stroke-linejoin:miter;stroke-opacity:1" d="M 994.166,711.786 986.832,693.449 z" id="boundary" inkscape:connector-curvature="0" />
	<path style="fill:none;stroke:red;stroke-width:1px;stroke-linecap:butt;stroke-linejoin:miter;stroke-opacity:1" d="M 829.139,730.122 829.139,748.458 z" id="boundary" inkscape:connector-curvature="0" />
	<path style="fill:none;stroke:red;stroke-width:1px;stroke-linecap:butt;stroke-linejoin:miter;stroke-opacity:1" d="M 829.139,730.122 838.307,711.786 z" id="boundary" inkscape:connector-curvature="0" />
	<path style="fill:none;stroke:red;stroke-width:1px;stroke-linecap:butt;stroke-linejoin:miter;stroke-opacity:1" d="M 852.976,697.116 838.307,711.786 z" id="boundary" inkscape:connector-curvature="0" />
	<path style="fill:none;stroke:red;stroke-width:1px;stroke-linecap:butt;stroke-linejoin:miter;stroke-opacity:1" d="M 829.139,748.458 829.139,766.795 z" id="boundary" inkscape:connector-curvature="0" />
	<path style="fill:none;stroke:red;stroke-width:1px;stroke-linecap:butt;stroke-linejoin:miter;stroke-opacity:1" d="M 847.475,772.296 829.139,766.795 z" id="boundary" inkscape:connector-curvature="0" />
	<path style="fill:none;stroke:red;stroke-width:1px;stroke-linecap:butt;stroke-linejoin:miter;stroke-opacity:1" d="M 847.475,772.296 863.978,781.464 z" id="boundary" inkscape:connector-curvature="0" />
	<path style="fill:none;stroke:red;stroke-width:1px;stroke-linecap:butt;stroke-linejoin:miter;stroke-opacity:1" d="M 882.314,781.464 863.978,781.464 z" id="boundary" inkscape:connector-curvature="0" />
	<path style="fill:none;stroke:red;stroke-width:1px;stroke-linecap:butt;stroke-linejoin:miter;stroke-opacity:1" d="M 968.495,772.296 986.832,763.128 z" id="boundary" inkscape:connector-curvature="0" />
	<path style="fill:none;stroke:red;stroke-width:1px;stroke-linecap:butt;stroke-linejoin:miter;stroke-opacity:1" d="M 951.993,781.464 968.495,772.296 z" id="boundary" inkscape:connector-curvature="0" />
	<path style="fill:none;stroke:red;stroke-width:1px;stroke-linecap:butt;stroke-linejoin:miter;stroke-opacity:1" d="M 996,730.122 986.832,763.128 z" id="boundary" inkscape:connector-curvature="0" />
	<path style="fill:none;stroke:red;stroke-width:1px;stroke-linecap:butt;stroke-linejoin:miter;stroke-opacity:1" d="M 994.166,711.786 996,730.122 z" id="boundary" inkscape:connector-curvature="0" />
	<path style="fill:none;stroke:red;stroke-width:1px;stroke-linecap:butt;stroke-linejoin:miter;stroke-opacity:1" d="M 882.314,781.464 900.651,781.464 z" id="boundary" inkscape:connector-curvature="0" />
	<path style="fill:none;stroke:red;stroke-width:1px;stroke-linecap:butt;stroke-linejoin:miter;stroke-opacity:1" d="M 900.651,781.464 917.153,790.632 z" id="boundary" inkscape:connector-curvature="0" />
	<path style="fill:none;stroke:red;stroke-width:1px;stroke-linecap:butt;stroke-linejoin:miter;stroke-opacity:1" d="M 917.153,790.632 933.656,781.464 z" id="boundary" inkscape:connector-curvature="0" />
	<path style="fill:none;stroke:red;stroke-width:1px;stroke-linecap:butt;stroke-linejoin:miter;stroke-opacity:1" d="M 933.656,781.464 951.993,781.464 z" id="boundary" inkscape:connector-curvature="0" />
	<circle cx="4" cy="565.094" r="4" fill="#0" id="circle0"/>
	<circle cx="13.1682" cy="546.758" r="4" fill="#0" id="circle1"/>
	<circle cx="13.1682" cy="581.597" r="4" fill="#0" id="circle2"/>
	<circle cx="26.0037" cy="596.266" r="4" fill="#0" id="circle3"/>
	<circle cx="27.8373" cy="532.089" r="4" fill="#0" id="circle4"/>
	<circle cx="31.5046" cy="207.534" r="4" fill="#0" id="circle5"/>
	<circle cx="37.0055" cy="513.752" r="4" fill="#0" id="circle6"/>
	<circle cx="40.6728" cy="583.431" r="4" fill="#0" id="circle7"/>
	<circle cx="42.5065" cy="222.203" r="4" fill="#0" id="circle8"/>
	<circle cx="46.1738" cy="495.416" r="4" fill="#0" id="circle9"/>
	<circle cx="49.841" cy="202.033" r="4" fill="#0" id="circle10"/>
	<circle cx="49.841" cy="244.207" r="4" fill="#0" id="circle11"/>
	<circle cx="59.0092" cy="464.244" r="4" fill="#0" id="circle12"/>
	<circle cx="59.0092" cy="574.262" r="4" fill="#0" id="circle13"/>
	<circle cx="60.8429" cy="482.58" r="4" fill="#0" id="circle14"/>
	<circle cx="64.5102" cy="213.035" r="4" fill="#0" id="circle15"/>
	<circle cx="64.5102" cy="257.043" r="4" fill="#0" id="circle16"/>
	<circle cx="68.1774" cy="445.908" r="4" fill="#0" id="circle17"/>
	<circle cx="68.1774" cy="555.926" r="4" fill="#0" id="circle18"/>
	<circle cx="77.3457" cy="418.403" r="4" fill="#0" id="circle19"/>
	<circle cx="79.1793" cy="225.871" r="4" fill="#0" id="circle20"/>
	<circle cx="79.1793" cy="268.044" r="4" fill="#0" id="circle21"/>
	<circle cx="79.1793" cy="533.922" r="4" fill="#0" id="circle22"/>
	<circle cx="86.5139" cy="400.067" r="4" fill="#0" id="circle23"/>
	<circle cx="88.3475" cy="515.586" r="4" fill="#0" id="circle24"/>
	<circle cx="93.8484" cy="238.706" r="4" fill="#0" id="circle25"/>
	<circle cx="95.6821" cy="277.213" r="4" fill="#0" id="circle26"/>
	<circle cx="95.6821" cy="372.562" r="4" fill="#0" id="circle27"/>
	<circle cx="103.017" cy="502.75" r="4" fill="#0" id="circle28"/>
	<circle cx="104.85" cy="326.721" r="4" fill="#0" id="circle29"/>
	<circle cx="104.85" cy="345.057" r="4" fill="#0" id="circle30"/>
	<circle cx="106.684" cy="478.913" r="4" fill="#0" id="circle31"/>
	<circle cx="110.351" cy="247.874" r="4" fill="#0" id="circle32"/>
	<circle cx="112.185" cy="286.381" r="4" fill="#0" id="circle33"/>
	<circle cx="114.018" cy="304.717" r="4" fill="#0" id="circle34"/>
	<circle cx="115.852" cy="451.409" r="4" fill="#0" id="circle35"/>
	<circle cx="123.187" cy="143.357" r="4" fill="#0" id="circle36"/>
	<circle cx="123.187" cy="180.03" r="4" fill="#0" id="circle37"/>
	<circle cx="123.187" cy="216.702" r="4" fill="#0" id="circle38"/>
	<circle cx="128.688" cy="247.874" r="4" fill="#0" id="circle39"/>
	<circle cx="130.521" cy="438.573" r="4" fill="#0" id="circle40"/>
	<circle cx="132.355" cy="115.852" r="4" fill="#0" id="circle41"/>
	<circle cx="132.355" cy="159.86" r="4" fill="#0" id="circle42"/>
	<circle cx="132.355" cy="196.532" r="4" fill="#0" id="circle43"/>
	<circle cx="134.189" cy="414.736" r="4" fill="#0" id="circle44"/>
	<circle cx="141.523" cy="97.5157" r="4" fill="#0" id="circle45"/>
	<circle cx="143.357" cy="387.231" r="4" fill="#0" id="circle46"/>
	<circle cx="152.525" cy="368.895" r="4" fill="#0" id="circle47"/>
	<circle cx="156.192" cy="82.8466" r="4" fill="#0" id="circle48"/>
	<circle cx="161.693" cy="350.558" r="4" fill="#0" id="circle49"/>
	<circle cx="170.861" cy="68.1774" r="4" fill="#0" id="circle50"/>
	<circle cx="176.362" cy="337.723" r="4" fill="#0" id="circle51"/>
	<circle cx="185.53" cy="55.342" r="4" fill="#0" id="circle52"/>
	<circle cx="187.364" cy="748.458" r="4" fill="#0" id="circle53"/>
	<circle cx="187.364" cy="766.795" r="4" fill="#0" id="circle54"/>
	<circle cx="187.364" cy="785.131" r="4" fill="#0" id="circle55"/>
	<circle cx="189.198" cy="323.054" r="4" fill="#0" id="circle56"/>
	<circle cx="198.366" cy="40.6728" r="4" fill="#0" id="circle57"/>
	<circle cx="202.033" cy="733.789" r="4" fill="#0" id="circle58"/>
	<circle cx="203.867" cy="310.218" r="4" fill="#0" id="circle59"/>
	<circle cx="205.701" cy="790.632" r="4" fill="#0" id="circle60"/>
	<circle cx="213.035" cy="27.8373" r="4" fill="#0" id="circle61"/>
	<circle cx="216.702" cy="719.12" r="4" fill="#0" id="circle62"/>
	<circle cx="216.702" cy="805.301" r="4" fill="#0" id="circle63"/>
	<circle cx="222.203" cy="304.717" r="4" fill="#0" id="circle64"/>
	<circle cx="224.037" cy="665.945" r="4" fill="#0" id="circle65"/>
	<circle cx="224.037" cy="684.281" r="4" fill="#0" id="circle66"/>
	<circle cx="225.871" cy="13.1682" r="4" fill="#0" id="circle67"/>
	<circle cx="233.205" cy="638.44" r="4" fill="#0" id="circle68"/>
	<circle cx="235.039" cy="808.969" r="4" fill="#0" id="circle69"/>
	<circle cx="240.54" cy="304.717" r="4" fill="#0" id="circle70"/>
	<circle cx="242.373" cy="610.935" r="4" fill="#0" id="circle71"/>
	<circle cx="244.207" cy="9.50092" r="4" fill="#0" id="circle72"/>
	<circle cx="251.542" cy="574.262" r="4" fill="#0" id="circle73"/>
	<circle cx="251.542" cy="592.599" r="4" fill="#0" id="circle74"/>
	<circle cx="253.375" cy="799.8" r="4" fill="#0" id="circle75"/>
	<circle cx="258.876" cy="304.717" r="4" fill="#0" id="circle76"/>
	<circle cx="260.71" cy="555.926" r="4" fill="#0" id="circle77"/>
	<circle cx="262.543" cy="9.50092" r="4" fill="#0" id="circle78"/>
	<circle cx="269.878" cy="528.421" r="4" fill="#0" id="circle79"/>
	<circle cx="269.878" cy="808.969" r="4" fill="#0" id="circle80"/>
	<circle cx="277.213" cy="304.717" r="4" fill="#0" id="circle81"/>
	<circle cx="279.046" cy="491.749" r="4" fill="#0" id="circle82"/>
	<circle cx="279.046" cy="510.085" r="4" fill="#0" id="circle83"/>
	<circle cx="280.88" cy="9.50092" r="4" fill="#0" id="circle84"/>
	<circle cx="288.214" cy="345.057" r="4" fill="#0" id="circle85"/>
	<circle cx="288.214" cy="363.394" r="4" fill="#0" id="circle86"/>
	<circle cx="288.214" cy="381.73" r="4" fill="#0" id="circle87"/>
	<circle cx="288.214" cy="400.067" r="4" fill="#0" id="circle88"/>
	<circle cx="288.214" cy="418.403" r="4" fill="#0" id="circle89"/>
	<circle cx="288.214" cy="436.739" r="4" fill="#0" id="circle90"/>
	<circle cx="288.214" cy="455.076" r="4" fill="#0" id="circle91"/>
	<circle cx="288.214" cy="473.412" r="4" fill="#0" id="circle92"/>
	<circle cx="288.214" cy="803.468" r="4" fill="#0" id="circle93"/>
	<circle cx="293.715" cy="313.885" r="4" fill="#0" id="circle94"/>
	<circle cx="299.216" cy="5.83364" r="4" fill="#0" id="circle95"/>
	<circle cx="306.551" cy="799.8" r="4" fill="#0" id="circle96"/>
	<circle cx="317.553" cy="9.50092" r="4" fill="#0" id="circle97"/>
	<circle cx="324.887" cy="794.299" r="4" fill="#0" id="circle98"/>
	<circle cx="335.889" cy="4" r="4" fill="#0" id="circle99"/>
	<circle cx="343.224" cy="785.131" r="4" fill="#0" id="circle100"/>
	<circle cx="345.057" cy="698.95" r="4" fill="#0" id="circle101"/>
	<circle cx="345.057" cy="717.287" r="4" fill="#0" id="circle102"/>
	<circle cx="348.725" cy="735.623" r="4" fill="#0" id="circle103"/>
	<circle cx="354.226" cy="4" r="4" fill="#0" id="circle104"/>
	<circle cx="354.226" cy="671.445" r="4" fill="#0" id="circle105"/>
	<circle cx="354.226" cy="763.128" r="4" fill="#0" id="circle106"/>
	<circle cx="368.895" cy="658.61" r="4" fill="#0" id="circle107"/>
	<circle cx="370.728" cy="13.1682" r="4" fill="#0" id="circle108"/>
	<circle cx="372.562" cy="634.773" r="4" fill="#0" id="circle109"/>
	<circle cx="381.73" cy="27.8373" r="4" fill="#0" id="circle110"/>
	<circle cx="381.73" cy="607.268" r="4" fill="#0" id="circle111"/>
	<circle cx="389.065" cy="785.131" r="4" fill="#0" id="circle112"/>
	<circle cx="389.065" cy="803.468" r="4" fill="#0" id="circle113"/>
	<circle cx="392.732" cy="621.937" r="4" fill="#0" id="circle114"/>
	<circle cx="396.399" cy="38.8392" r="4" fill="#0" id="circle115"/>
	<circle cx="398.233" cy="640.274" r="4" fill="#0" id="circle116"/>
	<circle cx="398.233" cy="658.61" r="4" fill="#0" id="circle117"/>
	<circle cx="398.233" cy="766.795" r="4" fill="#0" id="circle118"/>
	<circle cx="398.233" cy="819.97" r="4" fill="#0" id="circle119"/>
	<circle cx="405.567" cy="55.342" r="4" fill="#0" id="circle120"/>
	<circle cx="407.401" cy="675.113" r="4" fill="#0" id="circle121"/>
	<circle cx="407.401" cy="693.449" r="4" fill="#0" id="circle122"/>
	<circle cx="412.902" cy="752.126" r="4" fill="#0" id="circle123"/>
	<circle cx="416.569" cy="709.952" r="4" fill="#0" id="circle124"/>
	<circle cx="416.569" cy="827.305" r="4" fill="#0" id="circle125"/>
	<circle cx="422.07" cy="64.5102" r="4" fill="#0" id="circle126"/>
	<circle cx="422.07" cy="733.789" r="4" fill="#0" id="circle127"/>
	<circle cx="433.072" cy="836.473" r="4" fill="#0" id="circle128"/>
	<circle cx="440.407" cy="64.5102" r="4" fill="#0" id="circle129"/>
	<circle cx="451.409" cy="836.473" r="4" fill="#0" id="circle130"/>
	<circle cx="458.743" cy="64.5102" r="4" fill="#0" id="circle131"/>
	<circle cx="469.745" cy="836.473" r="4" fill="#0" id="circle132"/>
	<circle cx="477.079" cy="64.5102" r="4" fill="#0" id="circle133"/>
	<circle cx="488.081" cy="836.473" r="4" fill="#0" id="circle134"/>
	<circle cx="495.416" cy="64.5102" r="4" fill="#0" id="circle135"/>
	<circle cx="506.418" cy="836.473" r="4" fill="#0" id="circle136"/>
	<circle cx="510.085" cy="524.754" r="4" fill="#0" id="circle137"/>
	<circle cx="510.085" cy="543.091" r="4" fill="#0" id="circle138"/>
	<circle cx="511.919" cy="73.6784" r="4" fill="#0" id="circle139"/>
	<circle cx="519.253" cy="559.593" r="4" fill="#0" id="circle140"/>
	<circle cx="519.253" cy="577.93" r="4" fill="#0" id="circle141"/>
	<circle cx="524.754" cy="832.806" r="4" fill="#0" id="circle142"/>
	<circle cx="528.421" cy="528.421" r="4" fill="#0" id="circle143"/>
	<circle cx="528.421" cy="594.433" r="4" fill="#0" id="circle144"/>
	<circle cx="528.421" cy="612.769" r="4" fill="#0" id="circle145"/>
	<circle cx="528.421" cy="634.773" r="4" fill="#0" id="circle146"/>
	<circle cx="530.255" cy="73.6784" r="4" fill="#0" id="circle147"/>
	<circle cx="537.59" cy="651.275" r="4" fill="#0" id="circle148"/>
	<circle cx="537.59" cy="669.612" r="4" fill="#0" id="circle149"/>
	<circle cx="543.091" cy="827.305" r="4" fill="#0" id="circle150"/>
	<circle cx="546.758" cy="82.8466" r="4" fill="#0" id="circle151"/>
	<circle cx="546.758" cy="533.922" r="4" fill="#0" id="circle152"/>
	<circle cx="546.758" cy="686.115" r="4" fill="#0" id="circle153"/>
	<circle cx="546.758" cy="704.451" r="4" fill="#0" id="circle154"/>
	<circle cx="546.758" cy="726.455" r="4" fill="#0" id="circle155"/>
	<circle cx="555.926" cy="742.957" r="4" fill="#0" id="circle156"/>
	<circle cx="555.926" cy="761.294" r="4" fill="#0" id="circle157"/>
	<circle cx="555.926" cy="779.63" r="4" fill="#0" id="circle158"/>
	<circle cx="555.926" cy="797.967" r="4" fill="#0" id="circle159"/>
	<circle cx="563.261" cy="543.091" r="4" fill="#0" id="circle160"/>
	<circle cx="565.094" cy="82.8466" r="4" fill="#0" id="circle161"/>
	<circle cx="572.429" cy="720.954" r="4" fill="#0" id="circle162"/>
	<circle cx="574.262" cy="739.29" r="4" fill="#0" id="circle163"/>
	<circle cx="574.262" cy="766.795" r="4" fill="#0" id="circle164"/>
	<circle cx="579.763" cy="93.8484" r="4" fill="#0" id="circle165"/>
	<circle cx="581.597" cy="543.091" r="4" fill="#0" id="circle166"/>
	<circle cx="581.597" cy="702.617" r="4" fill="#0" id="circle167"/>
	<circle cx="590.765" cy="647.608" r="4" fill="#0" id="circle168"/>
	<circle cx="590.765" cy="665.945" r="4" fill="#0" id="circle169"/>
	<circle cx="590.765" cy="684.281" r="4" fill="#0" id="circle170"/>
	<circle cx="592.599" cy="772.296" r="4" fill="#0" id="circle171"/>
	<circle cx="596.266" cy="103.017" r="4" fill="#0" id="circle172"/>
	<circle cx="599.933" cy="546.758" r="4" fill="#0" id="circle173"/>
	<circle cx="599.933" cy="610.935" r="4" fill="#0" id="circle174"/>
	<circle cx="599.933" cy="629.272" r="4" fill="#0" id="circle175"/>
	<circle cx="601.767" cy="121.353" r="4" fill="#0" id="circle176"/>
	<circle cx="609.102" cy="574.262" r="4" fill="#0" id="circle177"/>
	<circle cx="609.102" cy="592.599" r="4" fill="#0" id="circle178"/>
	<circle cx="610.935" cy="137.856" r="4" fill="#0" id="circle179"/>
	<circle cx="610.935" cy="775.963" r="4" fill="#0" id="circle180"/>
	<circle cx="618.27" cy="543.091" r="4" fill="#0" id="circle181"/>
	<circle cx="629.272" cy="143.357" r="4" fill="#0" id="circle182"/>
	<circle cx="629.272" cy="781.464" r="4" fill="#0" id="circle183"/>
	<circle cx="645.774" cy="772.296" r="4" fill="#0" id="circle184"/>
	<circle cx="647.608" cy="143.357" r="4" fill="#0" id="circle185"/>
	<circle cx="664.111" cy="772.296" r="4" fill="#0" id="circle186"/>
	<circle cx="665.945" cy="143.357" r="4" fill="#0" id="circle187"/>
	<circle cx="682.447" cy="772.296" r="4" fill="#0" id="circle188"/>
	<circle cx="684.281" cy="143.357" r="4" fill="#0" id="circle189"/>
	<circle cx="700.784" cy="766.795" r="4" fill="#0" id="circle190"/>
	<circle cx="702.617" cy="141.523" r="4" fill="#0" id="circle191"/>
	<circle cx="711.786" cy="698.95" r="4" fill="#0" id="circle192"/>
	<circle cx="711.786" cy="717.287" r="4" fill="#0" id="circle193"/>
	<circle cx="711.786" cy="735.623" r="4" fill="#0" id="circle194"/>
	<circle cx="720.954" cy="147.024" r="4" fill="#0" id="circle195"/>
	<circle cx="720.954" cy="653.109" r="4" fill="#0" id="circle196"/>
	<circle cx="720.954" cy="671.445" r="4" fill="#0" id="circle197"/>
	<circle cx="730.122" cy="616.436" r="4" fill="#0" id="circle198"/>
	<circle cx="730.122" cy="634.773" r="4" fill="#0" id="circle199"/>
	<circle cx="739.29" cy="152.525" r="4" fill="#0" id="circle200"/>
	<circle cx="746.625" cy="607.268" r="4" fill="#0" id="circle201"/>
	<circle cx="753.959" cy="165.36" r="4" fill="#0" id="circle202"/>
	<circle cx="764.961" cy="607.268" r="4" fill="#0" id="circle203"/>
	<circle cx="770.462" cy="625.604" r="4" fill="#0" id="circle204"/>
	<circle cx="772.296" cy="167.194" r="4" fill="#0" id="circle205"/>
	<circle cx="785.131" cy="181.863" r="4" fill="#0" id="circle206"/>
	<circle cx="788.799" cy="625.604" r="4" fill="#0" id="circle207"/>
	<circle cx="799.8" cy="194.699" r="4" fill="#0" id="circle208"/>
	<circle cx="803.468" cy="638.44" r="4" fill="#0" id="circle209"/>
	<circle cx="816.303" cy="203.867" r="4" fill="#0" id="circle210"/>
	<circle cx="819.97" cy="647.608" r="4" fill="#0" id="circle211"/>
	<circle cx="825.471" cy="220.37" r="4" fill="#0" id="circle212"/>
	<circle cx="829.139" cy="730.122" r="4" fill="#0" id="circle213"/>
	<circle cx="829.139" cy="748.458" r="4" fill="#0" id="circle214"/>
	<circle cx="829.139" cy="766.795" r="4" fill="#0" id="circle215"/>
	<circle cx="838.307" cy="235.039" r="4" fill="#0" id="circle216"/>
	<circle cx="838.307" cy="653.109" r="4" fill="#0" id="circle217"/>
	<circle cx="838.307" cy="711.786" r="4" fill="#0" id="circle218"/>
	<circle cx="847.475" cy="772.296" r="4" fill="#0" id="circle219"/>
	<circle cx="852.976" cy="247.874" r="4" fill="#0" id="circle220"/>
	<circle cx="852.976" cy="697.116" r="4" fill="#0" id="circle221"/>
	<circle cx="854.81" cy="662.277" r="4" fill="#0" id="circle222"/>
	<circle cx="862.144" cy="680.614" r="4" fill="#0" id="circle223"/>
	<circle cx="863.978" cy="781.464" r="4" fill="#0" id="circle224"/>
	<circle cx="865.811" cy="262.543" r="4" fill="#0" id="circle225"/>
	<circle cx="867.645" cy="488.081" r="4" fill="#0" id="circle226"/>
	<circle cx="876.813" cy="504.584" r="4" fill="#0" id="circle227"/>
	<circle cx="880.481" cy="275.379" r="4" fill="#0" id="circle228"/>
	<circle cx="882.314" cy="781.464" r="4" fill="#0" id="circle229"/>
	<circle cx="885.982" cy="488.081" r="4" fill="#0" id="circle230"/>
	<circle cx="891.482" cy="515.586" r="4" fill="#0" id="circle231"/>
	<circle cx="893.316" cy="290.048" r="4" fill="#0" id="circle232"/>
	<circle cx="900.651" cy="475.246" r="4" fill="#0" id="circle233"/>
	<circle cx="900.651" cy="781.464" r="4" fill="#0" id="circle234"/>
	<circle cx="902.484" cy="306.551" r="4" fill="#0" id="circle235"/>
	<circle cx="904.318" cy="530.255" r="4" fill="#0" id="circle236"/>
	<circle cx="909.819" cy="456.909" r="4" fill="#0" id="circle237"/>
	<circle cx="913.486" cy="321.22" r="4" fill="#0" id="circle238"/>
	<circle cx="913.486" cy="546.758" r="4" fill="#0" id="circle239"/>
	<circle cx="917.153" cy="790.632" r="4" fill="#0" id="circle240"/>
	<circle cx="918.987" cy="438.573" r="4" fill="#0" id="circle241"/>
	<circle cx="922.654" cy="337.723" r="4" fill="#0" id="circle242"/>
	<circle cx="922.654" cy="359.726" r="4" fill="#0" id="circle243"/>
	<circle cx="922.654" cy="378.063" r="4" fill="#0" id="circle244"/>
	<circle cx="922.654" cy="414.736" r="4" fill="#0" id="circle245"/>
	<circle cx="926.322" cy="561.427" r="4" fill="#0" id="circle246"/>
	<circle cx="931.823" cy="394.566" r="4" fill="#0" id="circle247"/>
	<circle cx="933.656" cy="781.464" r="4" fill="#0" id="circle248"/>
	<circle cx="935.49" cy="577.93" r="4" fill="#0" id="circle249"/>
	<circle cx="948.325" cy="592.599" r="4" fill="#0" id="circle250"/>
	<circle cx="951.993" cy="781.464" r="4" fill="#0" id="circle251"/>
	<circle cx="962.994" cy="605.434" r="4" fill="#0" id="circle252"/>
	<circle cx="968.495" cy="623.771" r="4" fill="#0" id="circle253"/>
	<circle cx="968.495" cy="772.296" r="4" fill="#0" id="circle254"/>
	<circle cx="977.664" cy="640.274" r="4" fill="#0" id="circle255"/>
	<circle cx="977.664" cy="658.61" r="4" fill="#0" id="circle256"/>
	<circle cx="977.664" cy="676.946" r="4" fill="#0" id="circle257"/>
	<circle cx="986.832" cy="693.449" r="4" fill="#0" id="circle258"/>
	<circle cx="986.832" cy="763.128" r="4" fill="#0" id="circle259"/>
	<circle cx="994.166" cy="711.786" r="4" fill="#0" id="circle260"/>
	<circle cx="996" cy="730.122" r="4" fill="#0" id="circle261"/>
	</g>
</svg>