<?xml version="1.0" encoding="UTF-8" standalone="no"?>
<!-- Created with CurveBenchmark -->
<svg
	xmlns:dc="http://purl.org/dc/elements/1.1/"
	xmlns:cc="http://creativecommons.org/ns#"
	xmlns:rdf="http://www.w3.org/1999/02/22-rdf-syntax-ns#"
	xmlns:svg="http://www.w3.org/2000/svg"
	xmlns="http://www.w3.org/2000/svg"
	xmlns:sodipodi="http://sodipodi.sourceforge.net/DTD/sodipodi-0.dtd"
	xmlns:inkscape="http://www.inkscape.org/namespaces/inkscape"
	width="1000"
	height="1000"
	id="svg2"
	version="1.1"
	sodipodi:docname="manifold/gathan1-ray02.png.txt">
<defs
	id="defs4" />
<metadata
	id="metadata7">
	<rdf:RDF>
		<cc:Work
			rdf:about="">
			<dc:format>image/svg+xml</dc:format>
			<dc:type
				rdf:resource="http://purl.org/dc/dcmitype/StillImage" />
			<dc:title></dc:title>
		</cc:Work>
	</rdf:RDF>
</metadata>
<g
	inkscape:label="Layer 1"
	inkscape:groupmode="layer"
	id="layer1">
	<path style="fill:none;stroke:red;stroke-width:1px;stroke-linecap:butt;stroke-linejoin:miter;stroke-opacity:1" d="M 175.572,234.843 188.05,222.365 z" id="boundary" inkscape:connector-curvature="0" />
	<path style="fill:none;stroke:red;stroke-width:1px;stroke-linecap:butt;stroke-linejoin:miter;stroke-opacity:1" d="M 216.126,206.767 202.088,214.566 z" id="boundary" inkscape:connector-curvature="0" />
	<path style="fill:none;stroke:red;stroke-width:1px;stroke-linecap:butt;stroke-linejoin:miter;stroke-opacity:1" d="M 188.05,222.365 202.088,214.566 z" id="boundary" inkscape:connector-curvature="0" />
	<path style="fill:none;stroke:red;stroke-width:1px;stroke-linecap:butt;stroke-linejoin:miter;stroke-opacity:1" d="M 167.774,250.44 175.572,264.478 z" id="boundary" inkscape:connector-curvature="0" />
	<path style="fill:none;stroke:red;stroke-width:1px;stroke-linecap:butt;stroke-linejoin:miter;stroke-opacity:1" d="M 188.05,253.56 175.572,264.478 z" id="boundary" inkscape:connector-curvature="0" />
	<path style="fill:none;stroke:red;stroke-width:1px;stroke-linecap:butt;stroke-linejoin:miter;stroke-opacity:1" d="M 188.05,253.56 195.849,237.962 z" id="boundary" inkscape:connector-curvature="0" />
	<path style="fill:none;stroke:red;stroke-width:1px;stroke-linecap:butt;stroke-linejoin:miter;stroke-opacity:1" d="M 167.774,250.44 175.572,234.843 z" id="boundary" inkscape:connector-curvature="0" />
	<path style="fill:none;stroke:red;stroke-width:1px;stroke-linecap:butt;stroke-linejoin:miter;stroke-opacity:1" d="M 239.522,319.069 228.604,331.547 z" id="boundary" inkscape:connector-curvature="0" />
	<path style="fill:none;stroke:red;stroke-width:1px;stroke-linecap:butt;stroke-linejoin:miter;stroke-opacity:1" d="M 211.447,230.164 195.849,237.962 z" id="boundary" inkscape:connector-curvature="0" />
	<path style="fill:none;stroke:red;stroke-width:1px;stroke-linecap:butt;stroke-linejoin:miter;stroke-opacity:1" d="M 216.126,206.767 230.164,214.566 z" id="boundary" inkscape:connector-curvature="0" />
	<path style="fill:none;stroke:red;stroke-width:1px;stroke-linecap:butt;stroke-linejoin:miter;stroke-opacity:1" d="M 227.044,230.164 237.962,242.642 z" id="boundary" inkscape:connector-curvature="0" />
	<path style="fill:none;stroke:red;stroke-width:1px;stroke-linecap:butt;stroke-linejoin:miter;stroke-opacity:1" d="M 211.447,230.164 227.044,230.164 z" id="boundary" inkscape:connector-curvature="0" />
	<path style="fill:none;stroke:red;stroke-width:1px;stroke-linecap:butt;stroke-linejoin:miter;stroke-opacity:1" d="M 203.648,354.943 216.126,342.465 z" id="boundary" inkscape:connector-curvature="0" />
	<path style="fill:none;stroke:red;stroke-width:1px;stroke-linecap:butt;stroke-linejoin:miter;stroke-opacity:1" d="M 239.522,348.704 228.604,361.182 z" id="boundary" inkscape:connector-curvature="0" />
	<path style="fill:none;stroke:red;stroke-width:1px;stroke-linecap:butt;stroke-linejoin:miter;stroke-opacity:1" d="M 216.126,342.465 228.604,331.547 z" id="boundary" inkscape:connector-curvature="0" />
	<path style="fill:none;stroke:red;stroke-width:1px;stroke-linecap:butt;stroke-linejoin:miter;stroke-opacity:1" d="M 228.604,361.182 216.126,372.101 z" id="boundary" inkscape:connector-curvature="0" />
	<path style="fill:none;stroke:red;stroke-width:1px;stroke-linecap:butt;stroke-linejoin:miter;stroke-opacity:1" d="M 230.164,214.566 244.201,222.365 z" id="boundary" inkscape:connector-curvature="0" />
	<path style="fill:none;stroke:red;stroke-width:1px;stroke-linecap:butt;stroke-linejoin:miter;stroke-opacity:1" d="M 203.648,354.943 189.61,362.742 z" id="boundary" inkscape:connector-curvature="0" />
	<path style="fill:none;stroke:red;stroke-width:1px;stroke-linecap:butt;stroke-linejoin:miter;stroke-opacity:1" d="M 103.824,409.535 117.862,401.736 z" id="boundary" inkscape:connector-curvature="0" />
	<path style="fill:none;stroke:red;stroke-width:1px;stroke-linecap:butt;stroke-linejoin:miter;stroke-opacity:1" d="M 159.975,411.094 145.937,418.893 z" id="boundary" inkscape:connector-curvature="0" />
	<path style="fill:none;stroke:red;stroke-width:1px;stroke-linecap:butt;stroke-linejoin:miter;stroke-opacity:1" d="M 144.377,383.019 131.899,393.937 z" id="boundary" inkscape:connector-curvature="0" />
	<path style="fill:none;stroke:red;stroke-width:1px;stroke-linecap:butt;stroke-linejoin:miter;stroke-opacity:1" d="M 131.899,393.937 117.862,401.736 z" id="boundary" inkscape:connector-curvature="0" />
	<path style="fill:none;stroke:red;stroke-width:1px;stroke-linecap:butt;stroke-linejoin:miter;stroke-opacity:1" d="M 78.8679,432.931 91.3459,420.453 z" id="boundary" inkscape:connector-curvature="0" />
	<path style="fill:none;stroke:red;stroke-width:1px;stroke-linecap:butt;stroke-linejoin:miter;stroke-opacity:1" d="M 119.421,439.17 130.34,426.692 z" id="boundary" inkscape:connector-curvature="0" />
	<path style="fill:none;stroke:red;stroke-width:1px;stroke-linecap:butt;stroke-linejoin:miter;stroke-opacity:1" d="M 130.34,426.692 145.937,418.893 z" id="boundary" inkscape:connector-curvature="0" />
	<path style="fill:none;stroke:red;stroke-width:1px;stroke-linecap:butt;stroke-linejoin:miter;stroke-opacity:1" d="M 91.3459,420.453 103.824,409.535 z" id="boundary" inkscape:connector-curvature="0" />
	<path style="fill:none;stroke:red;stroke-width:1px;stroke-linecap:butt;stroke-linejoin:miter;stroke-opacity:1" d="M 159.975,375.22 175.572,370.541 z" id="boundary" inkscape:connector-curvature="0" />
	<path style="fill:none;stroke:red;stroke-width:1px;stroke-linecap:butt;stroke-linejoin:miter;stroke-opacity:1" d="M 175.572,370.541 189.61,362.742 z" id="boundary" inkscape:connector-curvature="0" />
	<path style="fill:none;stroke:red;stroke-width:1px;stroke-linecap:butt;stroke-linejoin:miter;stroke-opacity:1" d="M 216.126,372.101 200.528,379.899 z" id="boundary" inkscape:connector-curvature="0" />
	<path style="fill:none;stroke:red;stroke-width:1px;stroke-linecap:butt;stroke-linejoin:miter;stroke-opacity:1" d="M 159.975,411.094 172.453,401.736 z" id="boundary" inkscape:connector-curvature="0" />
	<path style="fill:none;stroke:red;stroke-width:1px;stroke-linecap:butt;stroke-linejoin:miter;stroke-opacity:1" d="M 184.931,387.698 200.528,379.899 z" id="boundary" inkscape:connector-curvature="0" />
	<path style="fill:none;stroke:red;stroke-width:1px;stroke-linecap:butt;stroke-linejoin:miter;stroke-opacity:1" d="M 172.453,401.736 184.931,387.698 z" id="boundary" inkscape:connector-curvature="0" />
	<path style="fill:none;stroke:red;stroke-width:1px;stroke-linecap:butt;stroke-linejoin:miter;stroke-opacity:1" d="M 144.377,383.019 159.975,375.22 z" id="boundary" inkscape:connector-curvature="0" />
	<path style="fill:none;stroke:red;stroke-width:1px;stroke-linecap:butt;stroke-linejoin:miter;stroke-opacity:1" d="M 244.201,222.365 255.119,234.843 z" id="boundary" inkscape:connector-curvature="0" />
	<path style="fill:none;stroke:red;stroke-width:1px;stroke-linecap:butt;stroke-linejoin:miter;stroke-opacity:1" d="M 245.761,256.679 237.962,242.642 z" id="boundary" inkscape:connector-curvature="0" />
	<path style="fill:none;stroke:red;stroke-width:1px;stroke-linecap:butt;stroke-linejoin:miter;stroke-opacity:1" d="M 262.918,248.881 255.119,234.843 z" id="boundary" inkscape:connector-curvature="0" />
	<path style="fill:none;stroke:red;stroke-width:1px;stroke-linecap:butt;stroke-linejoin:miter;stroke-opacity:1" d="M 245.761,256.679 245.761,272.277 z" id="boundary" inkscape:connector-curvature="0" />
	<path style="fill:none;stroke:red;stroke-width:1px;stroke-linecap:butt;stroke-linejoin:miter;stroke-opacity:1" d="M 270.717,262.918 270.717,278.516 z" id="boundary" inkscape:connector-curvature="0" />
	<path style="fill:none;stroke:red;stroke-width:1px;stroke-linecap:butt;stroke-linejoin:miter;stroke-opacity:1" d="M 262.918,248.881 270.717,262.918 z" id="boundary" inkscape:connector-curvature="0" />
	<path style="fill:none;stroke:red;stroke-width:1px;stroke-linecap:butt;stroke-linejoin:miter;stroke-opacity:1" d="M 245.761,287.874 245.761,272.277 z" id="boundary" inkscape:connector-curvature="0" />
	<path style="fill:none;stroke:red;stroke-width:1px;stroke-linecap:butt;stroke-linejoin:miter;stroke-opacity:1" d="M 315.95,203.648 315.95,219.245 z" id="boundary" inkscape:connector-curvature="0" />
	<path style="fill:none;stroke:red;stroke-width:1px;stroke-linecap:butt;stroke-linejoin:miter;stroke-opacity:1" d="M 315.95,203.648 315.95,188.05 z" id="boundary" inkscape:connector-curvature="0" />
	<path style="fill:none;stroke:red;stroke-width:1px;stroke-linecap:butt;stroke-linejoin:miter;stroke-opacity:1" d="M 315.95,188.05 323.748,164.654 z" id="boundary" inkscape:connector-curvature="0" />
	<path style="fill:none;stroke:red;stroke-width:1px;stroke-linecap:butt;stroke-linejoin:miter;stroke-opacity:1" d="M 323.748,133.459 323.748,117.862 z" id="boundary" inkscape:connector-curvature="0" />
	<path style="fill:none;stroke:red;stroke-width:1px;stroke-linecap:butt;stroke-linejoin:miter;stroke-opacity:1" d="M 323.748,117.862 331.547,94.4654 z" id="boundary" inkscape:connector-curvature="0" />
	<path style="fill:none;stroke:red;stroke-width:1px;stroke-linecap:butt;stroke-linejoin:miter;stroke-opacity:1" d="M 308.151,250.44 308.151,266.038 z" id="boundary" inkscape:connector-curvature="0" />
	<path style="fill:none;stroke:red;stroke-width:1px;stroke-linecap:butt;stroke-linejoin:miter;stroke-opacity:1" d="M 308.151,250.44 315.95,234.843 z" id="boundary" inkscape:connector-curvature="0" />
	<path style="fill:none;stroke:red;stroke-width:1px;stroke-linecap:butt;stroke-linejoin:miter;stroke-opacity:1" d="M 315.95,234.843 315.95,219.245 z" id="boundary" inkscape:connector-curvature="0" />
	<path style="fill:none;stroke:red;stroke-width:1px;stroke-linecap:butt;stroke-linejoin:miter;stroke-opacity:1" d="M 308.151,281.635 308.151,266.038 z" id="boundary" inkscape:connector-curvature="0" />
	<path style="fill:none;stroke:red;stroke-width:1px;stroke-linecap:butt;stroke-linejoin:miter;stroke-opacity:1" d="M 245.761,303.472 239.522,319.069 z" id="boundary" inkscape:connector-curvature="0" />
	<path style="fill:none;stroke:red;stroke-width:1px;stroke-linecap:butt;stroke-linejoin:miter;stroke-opacity:1" d="M 245.761,287.874 245.761,303.472 z" id="boundary" inkscape:connector-curvature="0" />
	<path style="fill:none;stroke:red;stroke-width:1px;stroke-linecap:butt;stroke-linejoin:miter;stroke-opacity:1" d="M 239.522,348.704 252,337.786 z" id="boundary" inkscape:connector-curvature="0" />
	<path style="fill:none;stroke:red;stroke-width:1px;stroke-linecap:butt;stroke-linejoin:miter;stroke-opacity:1" d="M 252,337.786 259.799,322.189 z" id="boundary" inkscape:connector-curvature="0" />
	<path style="fill:none;stroke:red;stroke-width:1px;stroke-linecap:butt;stroke-linejoin:miter;stroke-opacity:1" d="M 308.151,312.83 300.352,336.226 z" id="boundary" inkscape:connector-curvature="0" />
	<path style="fill:none;stroke:red;stroke-width:1px;stroke-linecap:butt;stroke-linejoin:miter;stroke-opacity:1" d="M 308.151,297.233 308.151,281.635 z" id="boundary" inkscape:connector-curvature="0" />
	<path style="fill:none;stroke:red;stroke-width:1px;stroke-linecap:butt;stroke-linejoin:miter;stroke-opacity:1" d="M 308.151,350.264 300.352,336.226 z" id="boundary" inkscape:connector-curvature="0" />
	<path style="fill:none;stroke:red;stroke-width:1px;stroke-linecap:butt;stroke-linejoin:miter;stroke-opacity:1" d="M 308.151,312.83 308.151,297.233 z" id="boundary" inkscape:connector-curvature="0" />
	<path style="fill:none;stroke:red;stroke-width:1px;stroke-linecap:butt;stroke-linejoin:miter;stroke-opacity:1" d="M 308.151,365.862 308.151,381.459 z" id="boundary" inkscape:connector-curvature="0" />
	<path style="fill:none;stroke:red;stroke-width:1px;stroke-linecap:butt;stroke-linejoin:miter;stroke-opacity:1" d="M 315.95,395.497 308.151,381.459 z" id="boundary" inkscape:connector-curvature="0" />
	<path style="fill:none;stroke:red;stroke-width:1px;stroke-linecap:butt;stroke-linejoin:miter;stroke-opacity:1" d="M 315.95,395.497 320.629,411.094 z" id="boundary" inkscape:connector-curvature="0" />
	<path style="fill:none;stroke:red;stroke-width:1px;stroke-linecap:butt;stroke-linejoin:miter;stroke-opacity:1" d="M 308.151,365.862 308.151,350.264 z" id="boundary" inkscape:connector-curvature="0" />
	<path style="fill:none;stroke:red;stroke-width:1px;stroke-linecap:butt;stroke-linejoin:miter;stroke-opacity:1" d="M 320.629,411.094 323.748,426.692 z" id="boundary" inkscape:connector-curvature="0" />
	<path style="fill:none;stroke:red;stroke-width:1px;stroke-linecap:butt;stroke-linejoin:miter;stroke-opacity:1" d="M 50.7925,476.604 58.5912,461.006 z" id="boundary" inkscape:connector-curvature="0" />
	<path style="fill:none;stroke:red;stroke-width:1px;stroke-linecap:butt;stroke-linejoin:miter;stroke-opacity:1" d="M 58.5912,461.006 71.0692,448.528 z" id="boundary" inkscape:connector-curvature="0" />
	<path style="fill:none;stroke:red;stroke-width:1px;stroke-linecap:butt;stroke-linejoin:miter;stroke-opacity:1" d="M 99.1447,465.686 91.3459,481.283 z" id="boundary" inkscape:connector-curvature="0" />
	<path style="fill:none;stroke:red;stroke-width:1px;stroke-linecap:butt;stroke-linejoin:miter;stroke-opacity:1" d="M 78.8679,432.931 71.0692,448.528 z" id="boundary" inkscape:connector-curvature="0" />
	<path style="fill:none;stroke:red;stroke-width:1px;stroke-linecap:butt;stroke-linejoin:miter;stroke-opacity:1" d="M 50.7925,492.201 50.7925,476.604 z" id="boundary" inkscape:connector-curvature="0" />
	<path style="fill:none;stroke:red;stroke-width:1px;stroke-linecap:butt;stroke-linejoin:miter;stroke-opacity:1" d="M 50.7925,529.635 42.9937,515.597 z" id="boundary" inkscape:connector-curvature="0" />
	<path style="fill:none;stroke:red;stroke-width:1px;stroke-linecap:butt;stroke-linejoin:miter;stroke-opacity:1" d="M 50.7925,492.201 42.9937,515.597 z" id="boundary" inkscape:connector-curvature="0" />
	<path style="fill:none;stroke:red;stroke-width:1px;stroke-linecap:butt;stroke-linejoin:miter;stroke-opacity:1" d="M 50.7925,529.635 50.7925,545.233 z" id="boundary" inkscape:connector-curvature="0" />
	<path style="fill:none;stroke:red;stroke-width:1px;stroke-linecap:butt;stroke-linejoin:miter;stroke-opacity:1" d="M 91.3459,481.283 91.3459,496.881 z" id="boundary" inkscape:connector-curvature="0" />
	<path style="fill:none;stroke:red;stroke-width:1px;stroke-linecap:butt;stroke-linejoin:miter;stroke-opacity:1" d="M 99.1447,465.686 111.623,454.767 z" id="boundary" inkscape:connector-curvature="0" />
	<path style="fill:none;stroke:red;stroke-width:1px;stroke-linecap:butt;stroke-linejoin:miter;stroke-opacity:1" d="M 91.3459,512.478 91.3459,496.881 z" id="boundary" inkscape:connector-curvature="0" />
	<path style="fill:none;stroke:red;stroke-width:1px;stroke-linecap:butt;stroke-linejoin:miter;stroke-opacity:1" d="M 91.3459,512.478 91.3459,528.075 z" id="boundary" inkscape:connector-curvature="0" />
	<path style="fill:none;stroke:red;stroke-width:1px;stroke-linecap:butt;stroke-linejoin:miter;stroke-opacity:1" d="M 50.7925,560.83 50.7925,545.233 z" id="boundary" inkscape:connector-curvature="0" />
	<path style="fill:none;stroke:red;stroke-width:1px;stroke-linecap:butt;stroke-linejoin:miter;stroke-opacity:1" d="M 99.1447,557.711 91.3459,543.673 z" id="boundary" inkscape:connector-curvature="0" />
	<path style="fill:none;stroke:red;stroke-width:1px;stroke-linecap:butt;stroke-linejoin:miter;stroke-opacity:1" d="M 91.3459,543.673 91.3459,528.075 z" id="boundary" inkscape:connector-curvature="0" />
	<path style="fill:none;stroke:red;stroke-width:1px;stroke-linecap:butt;stroke-linejoin:miter;stroke-opacity:1" d="M 119.421,439.17 111.623,454.767 z" id="boundary" inkscape:connector-curvature="0" />
	<path style="fill:none;stroke:red;stroke-width:1px;stroke-linecap:butt;stroke-linejoin:miter;stroke-opacity:1" d="M 16.478,596.704 32.0755,596.704 z" id="boundary" inkscape:connector-curvature="0" />
	<path style="fill:none;stroke:red;stroke-width:1px;stroke-linecap:butt;stroke-linejoin:miter;stroke-opacity:1" d="M 50.7925,560.83 58.5912,574.868 z" id="boundary" inkscape:connector-curvature="0" />
	<path style="fill:none;stroke:red;stroke-width:1px;stroke-linecap:butt;stroke-linejoin:miter;stroke-opacity:1" d="M 58.5912,574.868 47.673,596.704 z" id="boundary" inkscape:connector-curvature="0" />
	<path style="fill:none;stroke:red;stroke-width:1px;stroke-linecap:butt;stroke-linejoin:miter;stroke-opacity:1" d="M 47.673,596.704 32.0755,596.704 z" id="boundary" inkscape:connector-curvature="0" />
	<path style="fill:none;stroke:red;stroke-width:1px;stroke-linecap:butt;stroke-linejoin:miter;stroke-opacity:1" d="M 16.478,596.704 4,609.182 z" id="boundary" inkscape:connector-curvature="0" />
	<path style="fill:none;stroke:red;stroke-width:1px;stroke-linecap:butt;stroke-linejoin:miter;stroke-opacity:1" d="M 16.478,620.101 4,609.182 z" id="boundary" inkscape:connector-curvature="0" />
	<path style="fill:none;stroke:red;stroke-width:1px;stroke-linecap:butt;stroke-linejoin:miter;stroke-opacity:1" d="M 28.956,629.459 44.5535,632.579 z" id="boundary" inkscape:connector-curvature="0" />
	<path style="fill:none;stroke:red;stroke-width:1px;stroke-linecap:butt;stroke-linejoin:miter;stroke-opacity:1" d="M 28.956,629.459 16.478,620.101 z" id="boundary" inkscape:connector-curvature="0" />
	<path style="fill:none;stroke:red;stroke-width:1px;stroke-linecap:butt;stroke-linejoin:miter;stroke-opacity:1" d="M 60.1509,637.258 44.5535,632.579 z" id="boundary" inkscape:connector-curvature="0" />
	<path style="fill:none;stroke:red;stroke-width:1px;stroke-linecap:butt;stroke-linejoin:miter;stroke-opacity:1" d="M 74.1887,645.057 60.1509,637.258 z" id="boundary" inkscape:connector-curvature="0" />
	<path style="fill:none;stroke:red;stroke-width:1px;stroke-linecap:butt;stroke-linejoin:miter;stroke-opacity:1" d="M 119.421,582.667 106.943,571.748 z" id="boundary" inkscape:connector-curvature="0" />
	<path style="fill:none;stroke:red;stroke-width:1px;stroke-linecap:butt;stroke-linejoin:miter;stroke-opacity:1" d="M 106.943,571.748 99.1447,557.711 z" id="boundary" inkscape:connector-curvature="0" />
	<path style="fill:none;stroke:red;stroke-width:1px;stroke-linecap:butt;stroke-linejoin:miter;stroke-opacity:1" d="M 74.1887,645.057 88.2264,652.855 z" id="boundary" inkscape:connector-curvature="0" />
	<path style="fill:none;stroke:red;stroke-width:1px;stroke-linecap:butt;stroke-linejoin:miter;stroke-opacity:1" d="M 103.824,652.855 88.2264,652.855 z" id="boundary" inkscape:connector-curvature="0" />
	<path style="fill:none;stroke:red;stroke-width:1px;stroke-linecap:butt;stroke-linejoin:miter;stroke-opacity:1" d="M 103.824,652.855 119.421,652.855 z" id="boundary" inkscape:connector-curvature="0" />
	<path style="fill:none;stroke:red;stroke-width:1px;stroke-linecap:butt;stroke-linejoin:miter;stroke-opacity:1" d="M 119.421,652.855 133.459,660.654 z" id="boundary" inkscape:connector-curvature="0" />
	<path style="fill:none;stroke:red;stroke-width:1px;stroke-linecap:butt;stroke-linejoin:miter;stroke-opacity:1" d="M 119.421,582.667 130.34,595.145 z" id="boundary" inkscape:connector-curvature="0" />
	<path style="fill:none;stroke:red;stroke-width:1px;stroke-linecap:butt;stroke-linejoin:miter;stroke-opacity:1" d="M 142.818,606.063 153.736,618.541 z" id="boundary" inkscape:connector-curvature="0" />
	<path style="fill:none;stroke:red;stroke-width:1px;stroke-linecap:butt;stroke-linejoin:miter;stroke-opacity:1" d="M 153.736,618.541 169.333,624.78 z" id="boundary" inkscape:connector-curvature="0" />
	<path style="fill:none;stroke:red;stroke-width:1px;stroke-linecap:butt;stroke-linejoin:miter;stroke-opacity:1" d="M 183.371,632.579 198.969,635.698 z" id="boundary" inkscape:connector-curvature="0" />
	<path style="fill:none;stroke:red;stroke-width:1px;stroke-linecap:butt;stroke-linejoin:miter;stroke-opacity:1" d="M 183.371,632.579 169.333,624.78 z" id="boundary" inkscape:connector-curvature="0" />
	<path style="fill:none;stroke:red;stroke-width:1px;stroke-linecap:butt;stroke-linejoin:miter;stroke-opacity:1" d="M 214.566,635.698 198.969,635.698 z" id="boundary" inkscape:connector-curvature="0" />
	<path style="fill:none;stroke:red;stroke-width:1px;stroke-linecap:butt;stroke-linejoin:miter;stroke-opacity:1" d="M 230.164,635.698 214.566,635.698 z" id="boundary" inkscape:connector-curvature="0" />
	<path style="fill:none;stroke:red;stroke-width:1px;stroke-linecap:butt;stroke-linejoin:miter;stroke-opacity:1" d="M 142.818,606.063 130.34,595.145 z" id="boundary" inkscape:connector-curvature="0" />
	<path style="fill:none;stroke:red;stroke-width:1px;stroke-linecap:butt;stroke-linejoin:miter;stroke-opacity:1" d="M 300.352,515.597 308.151,500 z" id="boundary" inkscape:connector-curvature="0" />
	<path style="fill:none;stroke:red;stroke-width:1px;stroke-linecap:butt;stroke-linejoin:miter;stroke-opacity:1" d="M 308.151,529.635 300.352,515.597 z" id="boundary" inkscape:connector-curvature="0" />
	<path style="fill:none;stroke:red;stroke-width:1px;stroke-linecap:butt;stroke-linejoin:miter;stroke-opacity:1" d="M 315.95,543.673 308.151,529.635 z" id="boundary" inkscape:connector-curvature="0" />
	<path style="fill:none;stroke:red;stroke-width:1px;stroke-linecap:butt;stroke-linejoin:miter;stroke-opacity:1" d="M 308.151,500 320.629,487.522 z" id="boundary" inkscape:connector-curvature="0" />
	<path style="fill:none;stroke:red;stroke-width:1px;stroke-linecap:butt;stroke-linejoin:miter;stroke-opacity:1" d="M 290.994,627.899 275.396,627.899 z" id="boundary" inkscape:connector-curvature="0" />
	<path style="fill:none;stroke:red;stroke-width:1px;stroke-linecap:butt;stroke-linejoin:miter;stroke-opacity:1" d="M 305.031,620.101 290.994,627.899 z" id="boundary" inkscape:connector-curvature="0" />
	<path style="fill:none;stroke:red;stroke-width:1px;stroke-linecap:butt;stroke-linejoin:miter;stroke-opacity:1" d="M 320.629,612.302 305.031,620.101 z" id="boundary" inkscape:connector-curvature="0" />
	<path style="fill:none;stroke:red;stroke-width:1px;stroke-linecap:butt;stroke-linejoin:miter;stroke-opacity:1" d="M 315.95,543.673 325.308,556.151 z" id="boundary" inkscape:connector-curvature="0" />
	<path style="fill:none;stroke:red;stroke-width:1px;stroke-linecap:butt;stroke-linejoin:miter;stroke-opacity:1" d="M 261.358,635.698 275.396,627.899 z" id="boundary" inkscape:connector-curvature="0" />
	<path style="fill:none;stroke:red;stroke-width:1px;stroke-linecap:butt;stroke-linejoin:miter;stroke-opacity:1" d="M 147.497,668.453 133.459,660.654 z" id="boundary" inkscape:connector-curvature="0" />
	<path style="fill:none;stroke:red;stroke-width:1px;stroke-linecap:butt;stroke-linejoin:miter;stroke-opacity:1" d="M 186.491,696.528 170.893,690.289 z" id="boundary" inkscape:connector-curvature="0" />
	<path style="fill:none;stroke:red;stroke-width:1px;stroke-linecap:butt;stroke-linejoin:miter;stroke-opacity:1" d="M 159.975,677.811 147.497,668.453 z" id="boundary" inkscape:connector-curvature="0" />
	<path style="fill:none;stroke:red;stroke-width:1px;stroke-linecap:butt;stroke-linejoin:miter;stroke-opacity:1" d="M 159.975,677.811 170.893,690.289 z" id="boundary" inkscape:connector-curvature="0" />
	<path style="fill:none;stroke:red;stroke-width:1px;stroke-linecap:butt;stroke-linejoin:miter;stroke-opacity:1" d="M 202.088,699.648 216.126,707.447 z" id="boundary" inkscape:connector-curvature="0" />
	<path style="fill:none;stroke:red;stroke-width:1px;stroke-linecap:butt;stroke-linejoin:miter;stroke-opacity:1" d="M 186.491,696.528 202.088,699.648 z" id="boundary" inkscape:connector-curvature="0" />
	<path style="fill:none;stroke:red;stroke-width:1px;stroke-linecap:butt;stroke-linejoin:miter;stroke-opacity:1" d="M 231.723,707.447 216.126,707.447 z" id="boundary" inkscape:connector-curvature="0" />
	<path style="fill:none;stroke:red;stroke-width:1px;stroke-linecap:butt;stroke-linejoin:miter;stroke-opacity:1" d="M 247.321,710.566 231.723,707.447 z" id="boundary" inkscape:connector-curvature="0" />
	<path style="fill:none;stroke:red;stroke-width:1px;stroke-linecap:butt;stroke-linejoin:miter;stroke-opacity:1" d="M 230.164,635.698 245.761,635.698 z" id="boundary" inkscape:connector-curvature="0" />
	<path style="fill:none;stroke:red;stroke-width:1px;stroke-linecap:butt;stroke-linejoin:miter;stroke-opacity:1" d="M 245.761,635.698 261.358,635.698 z" id="boundary" inkscape:connector-curvature="0" />
	<path style="fill:none;stroke:red;stroke-width:1px;stroke-linecap:butt;stroke-linejoin:miter;stroke-opacity:1" d="M 247.321,710.566 262.918,715.245 z" id="boundary" inkscape:connector-curvature="0" />
	<path style="fill:none;stroke:red;stroke-width:1px;stroke-linecap:butt;stroke-linejoin:miter;stroke-opacity:1" d="M 309.711,707.447 325.308,707.447 z" id="boundary" inkscape:connector-curvature="0" />
	<path style="fill:none;stroke:red;stroke-width:1px;stroke-linecap:butt;stroke-linejoin:miter;stroke-opacity:1" d="M 294.113,707.447 278.516,715.245 z" id="boundary" inkscape:connector-curvature="0" />
	<path style="fill:none;stroke:red;stroke-width:1px;stroke-linecap:butt;stroke-linejoin:miter;stroke-opacity:1" d="M 278.516,715.245 262.918,715.245 z" id="boundary" inkscape:connector-curvature="0" />
	<path style="fill:none;stroke:red;stroke-width:1px;stroke-linecap:butt;stroke-linejoin:miter;stroke-opacity:1" d="M 294.113,707.447 309.711,707.447 z" id="boundary" inkscape:connector-curvature="0" />
	<path style="fill:none;stroke:red;stroke-width:1px;stroke-linecap:butt;stroke-linejoin:miter;stroke-opacity:1" d="M 323.748,133.459 323.748,149.057 z" id="boundary" inkscape:connector-curvature="0" />
	<path style="fill:none;stroke:red;stroke-width:1px;stroke-linecap:butt;stroke-linejoin:miter;stroke-opacity:1" d="M 439.17,4 454.767,4 z" id="boundary" inkscape:connector-curvature="0" />
	<path style="fill:none;stroke:red;stroke-width:1px;stroke-linecap:butt;stroke-linejoin:miter;stroke-opacity:1" d="M 425.132,11.7987 439.17,4 z" id="boundary" inkscape:connector-curvature="0" />
	<path style="fill:none;stroke:red;stroke-width:1px;stroke-linecap:butt;stroke-linejoin:miter;stroke-opacity:1" d="M 454.767,4 470.365,4 z" id="boundary" inkscape:connector-curvature="0" />
	<path style="fill:none;stroke:red;stroke-width:1px;stroke-linecap:butt;stroke-linejoin:miter;stroke-opacity:1" d="M 409.535,16.478 425.132,11.7987 z" id="boundary" inkscape:connector-curvature="0" />
	<path style="fill:none;stroke:red;stroke-width:1px;stroke-linecap:butt;stroke-linejoin:miter;stroke-opacity:1" d="M 470.365,4 485.962,4 z" id="boundary" inkscape:connector-curvature="0" />
	<path style="fill:none;stroke:red;stroke-width:1px;stroke-linecap:butt;stroke-linejoin:miter;stroke-opacity:1" d="M 485.962,4 501.56,4 z" id="boundary" inkscape:connector-curvature="0" />
	<path style="fill:none;stroke:red;stroke-width:1px;stroke-linecap:butt;stroke-linejoin:miter;stroke-opacity:1" d="M 517.157,4 532.755,4 z" id="boundary" inkscape:connector-curvature="0" />
	<path style="fill:none;stroke:red;stroke-width:1px;stroke-linecap:butt;stroke-linejoin:miter;stroke-opacity:1" d="M 548.352,5.55975 563.95,11.7987 z" id="boundary" inkscape:connector-curvature="0" />
	<path style="fill:none;stroke:red;stroke-width:1px;stroke-linecap:butt;stroke-linejoin:miter;stroke-opacity:1" d="M 532.755,4 548.352,5.55975 z" id="boundary" inkscape:connector-curvature="0" />
	<path style="fill:none;stroke:red;stroke-width:1px;stroke-linecap:butt;stroke-linejoin:miter;stroke-opacity:1" d="M 563.95,11.7987 577.987,19.5975 z" id="boundary" inkscape:connector-curvature="0" />
	<path style="fill:none;stroke:red;stroke-width:1px;stroke-linecap:butt;stroke-linejoin:miter;stroke-opacity:1" d="M 593.585,19.5975 577.987,19.5975 z" id="boundary" inkscape:connector-curvature="0" />
	<path style="fill:none;stroke:red;stroke-width:1px;stroke-linecap:butt;stroke-linejoin:miter;stroke-opacity:1" d="M 609.182,19.5975 624.78,19.5975 z" id="boundary" inkscape:connector-curvature="0" />
	<path style="fill:none;stroke:red;stroke-width:1px;stroke-linecap:butt;stroke-linejoin:miter;stroke-opacity:1" d="M 609.182,19.5975 593.585,19.5975 z" id="boundary" inkscape:connector-curvature="0" />
	<path style="fill:none;stroke:red;stroke-width:1px;stroke-linecap:butt;stroke-linejoin:miter;stroke-opacity:1" d="M 640.377,19.5975 624.78,19.5975 z" id="boundary" inkscape:connector-curvature="0" />
	<path style="fill:none;stroke:red;stroke-width:1px;stroke-linecap:butt;stroke-linejoin:miter;stroke-opacity:1" d="M 501.56,4 517.157,4 z" id="boundary" inkscape:connector-curvature="0" />
	<path style="fill:none;stroke:red;stroke-width:1px;stroke-linecap:butt;stroke-linejoin:miter;stroke-opacity:1" d="M 339.346,63.2704 351.824,50.7925 z" id="boundary" inkscape:connector-curvature="0" />
	<path style="fill:none;stroke:red;stroke-width:1px;stroke-linecap:butt;stroke-linejoin:miter;stroke-opacity:1" d="M 351.824,50.7925 365.862,42.9937 z" id="boundary" inkscape:connector-curvature="0" />
	<path style="fill:none;stroke:red;stroke-width:1px;stroke-linecap:butt;stroke-linejoin:miter;stroke-opacity:1" d="M 379.899,35.195 365.862,42.9937 z" id="boundary" inkscape:connector-curvature="0" />
	<path style="fill:none;stroke:red;stroke-width:1px;stroke-linecap:butt;stroke-linejoin:miter;stroke-opacity:1" d="M 393.937,24.2767 379.899,35.195 z" id="boundary" inkscape:connector-curvature="0" />
	<path style="fill:none;stroke:red;stroke-width:1px;stroke-linecap:butt;stroke-linejoin:miter;stroke-opacity:1" d="M 323.748,149.057 323.748,164.654 z" id="boundary" inkscape:connector-curvature="0" />
	<path style="fill:none;stroke:red;stroke-width:1px;stroke-linecap:butt;stroke-linejoin:miter;stroke-opacity:1" d="M 331.547,94.4654 331.547,78.8679 z" id="boundary" inkscape:connector-curvature="0" />
	<path style="fill:none;stroke:red;stroke-width:1px;stroke-linecap:butt;stroke-linejoin:miter;stroke-opacity:1" d="M 331.547,78.8679 339.346,63.2704 z" id="boundary" inkscape:connector-curvature="0" />
	<path style="fill:none;stroke:red;stroke-width:1px;stroke-linecap:butt;stroke-linejoin:miter;stroke-opacity:1" d="M 393.937,24.2767 409.535,16.478 z" id="boundary" inkscape:connector-curvature="0" />
	<path style="fill:none;stroke:red;stroke-width:1px;stroke-linecap:butt;stroke-linejoin:miter;stroke-opacity:1" d="M 640.377,19.5975 654.415,27.3962 z" id="boundary" inkscape:connector-curvature="0" />
	<path style="fill:none;stroke:red;stroke-width:1px;stroke-linecap:butt;stroke-linejoin:miter;stroke-opacity:1" d="M 670.013,27.3962 654.415,27.3962 z" id="boundary" inkscape:connector-curvature="0" />
	<path style="fill:none;stroke:red;stroke-width:1px;stroke-linecap:butt;stroke-linejoin:miter;stroke-opacity:1" d="M 685.61,27.3962 670.013,27.3962 z" id="boundary" inkscape:connector-curvature="0" />
	<path style="fill:none;stroke:red;stroke-width:1px;stroke-linecap:butt;stroke-linejoin:miter;stroke-opacity:1" d="M 701.208,27.3962 685.61,27.3962 z" id="boundary" inkscape:connector-curvature="0" />
	<path style="fill:none;stroke:red;stroke-width:1px;stroke-linecap:butt;stroke-linejoin:miter;stroke-opacity:1" d="M 701.208,27.3962 716.805,27.3962 z" id="boundary" inkscape:connector-curvature="0" />
	<path style="fill:none;stroke:red;stroke-width:1px;stroke-linecap:butt;stroke-linejoin:miter;stroke-opacity:1" d="M 732.403,27.3962 716.805,27.3962 z" id="boundary" inkscape:connector-curvature="0" />
	<path style="fill:none;stroke:red;stroke-width:1px;stroke-linecap:butt;stroke-linejoin:miter;stroke-opacity:1" d="M 748,27.3962 732.403,27.3962 z" id="boundary" inkscape:connector-curvature="0" />
	<path style="fill:none;stroke:red;stroke-width:1px;stroke-linecap:butt;stroke-linejoin:miter;stroke-opacity:1" d="M 748,27.3962 763.597,27.3962 z" id="boundary" inkscape:connector-curvature="0" />
	<path style="fill:none;stroke:red;stroke-width:1px;stroke-linecap:butt;stroke-linejoin:miter;stroke-opacity:1" d="M 763.597,27.3962 777.635,35.195 z" id="boundary" inkscape:connector-curvature="0" />
	<path style="fill:none;stroke:red;stroke-width:1px;stroke-linecap:butt;stroke-linejoin:miter;stroke-opacity:1" d="M 777.635,35.195 793.233,35.195 z" id="boundary" inkscape:connector-curvature="0" />
	<path style="fill:none;stroke:red;stroke-width:1px;stroke-linecap:butt;stroke-linejoin:miter;stroke-opacity:1" d="M 808.83,35.195 793.233,35.195 z" id="boundary" inkscape:connector-curvature="0" />
	<path style="fill:none;stroke:red;stroke-width:1px;stroke-linecap:butt;stroke-linejoin:miter;stroke-opacity:1" d="M 808.83,35.195 824.428,35.195 z" id="boundary" inkscape:connector-curvature="0" />
	<path style="fill:none;stroke:red;stroke-width:1px;stroke-linecap:butt;stroke-linejoin:miter;stroke-opacity:1" d="M 840.025,35.195 855.623,35.195 z" id="boundary" inkscape:connector-curvature="0" />
	<path style="fill:none;stroke:red;stroke-width:1px;stroke-linecap:butt;stroke-linejoin:miter;stroke-opacity:1" d="M 840.025,35.195 824.428,35.195 z" id="boundary" inkscape:connector-curvature="0" />
	<path style="fill:none;stroke:red;stroke-width:1px;stroke-linecap:butt;stroke-linejoin:miter;stroke-opacity:1" d="M 871.22,35.195 855.623,35.195 z" id="boundary" inkscape:connector-curvature="0" />
	<path style="fill:none;stroke:red;stroke-width:1px;stroke-linecap:butt;stroke-linejoin:miter;stroke-opacity:1" d="M 871.22,35.195 883.698,44.5535 z" id="boundary" inkscape:connector-curvature="0" />
	<path style="fill:none;stroke:red;stroke-width:1px;stroke-linecap:butt;stroke-linejoin:miter;stroke-opacity:1" d="M 883.698,44.5535 886.818,60.1509 z" id="boundary" inkscape:connector-curvature="0" />
	<path style="fill:none;stroke:red;stroke-width:1px;stroke-linecap:butt;stroke-linejoin:miter;stroke-opacity:1" d="M 886.818,60.1509 886.818,75.7484 z" id="boundary" inkscape:connector-curvature="0" />
	<path style="fill:none;stroke:red;stroke-width:1px;stroke-linecap:butt;stroke-linejoin:miter;stroke-opacity:1" d="M 886.818,75.7484 886.818,91.3459 z" id="boundary" inkscape:connector-curvature="0" />
	<path style="fill:none;stroke:red;stroke-width:1px;stroke-linecap:butt;stroke-linejoin:miter;stroke-opacity:1" d="M 886.818,91.3459 894.616,105.384 z" id="boundary" inkscape:connector-curvature="0" />
	<path style="fill:none;stroke:red;stroke-width:1px;stroke-linecap:butt;stroke-linejoin:miter;stroke-opacity:1" d="M 894.616,105.384 894.616,120.981 z" id="boundary" inkscape:connector-curvature="0" />
	<path style="fill:none;stroke:red;stroke-width:1px;stroke-linecap:butt;stroke-linejoin:miter;stroke-opacity:1" d="M 902.415,135.019 894.616,120.981 z" id="boundary" inkscape:connector-curvature="0" />
	<path style="fill:none;stroke:red;stroke-width:1px;stroke-linecap:butt;stroke-linejoin:miter;stroke-opacity:1" d="M 910.214,149.057 902.415,135.019 z" id="boundary" inkscape:connector-curvature="0" />
	<path style="fill:none;stroke:red;stroke-width:1px;stroke-linecap:butt;stroke-linejoin:miter;stroke-opacity:1" d="M 910.214,149.057 916.453,164.654 z" id="boundary" inkscape:connector-curvature="0" />
	<path style="fill:none;stroke:red;stroke-width:1px;stroke-linecap:butt;stroke-linejoin:miter;stroke-opacity:1" d="M 916.453,164.654 918.013,180.252 z" id="boundary" inkscape:connector-curvature="0" />
	<path style="fill:none;stroke:red;stroke-width:1px;stroke-linecap:butt;stroke-linejoin:miter;stroke-opacity:1" d="M 918.013,180.252 925.811,194.289 z" id="boundary" inkscape:connector-curvature="0" />
	<path style="fill:none;stroke:red;stroke-width:1px;stroke-linecap:butt;stroke-linejoin:miter;stroke-opacity:1" d="M 925.811,194.289 930.491,209.887 z" id="boundary" inkscape:connector-curvature="0" />
	<path style="fill:none;stroke:red;stroke-width:1px;stroke-linecap:butt;stroke-linejoin:miter;stroke-opacity:1" d="M 930.491,209.887 933.61,225.484 z" id="boundary" inkscape:connector-curvature="0" />
	<path style="fill:none;stroke:red;stroke-width:1px;stroke-linecap:butt;stroke-linejoin:miter;stroke-opacity:1" d="M 933.61,225.484 933.61,241.082 z" id="boundary" inkscape:connector-curvature="0" />
	<path style="fill:none;stroke:red;stroke-width:1px;stroke-linecap:butt;stroke-linejoin:miter;stroke-opacity:1" d="M 933.61,241.082 941.409,255.119 z" id="boundary" inkscape:connector-curvature="0" />
	<path style="fill:none;stroke:red;stroke-width:1px;stroke-linecap:butt;stroke-linejoin:miter;stroke-opacity:1" d="M 941.409,255.119 944.528,270.717 z" id="boundary" inkscape:connector-curvature="0" />
	<path style="fill:none;stroke:red;stroke-width:1px;stroke-linecap:butt;stroke-linejoin:miter;stroke-opacity:1" d="M 944.528,270.717 949.208,286.314 z" id="boundary" inkscape:connector-curvature="0" />
	<path style="fill:none;stroke:red;stroke-width:1px;stroke-linecap:butt;stroke-linejoin:miter;stroke-opacity:1" d="M 957.006,300.352 949.208,286.314 z" id="boundary" inkscape:connector-curvature="0" />
	<path style="fill:none;stroke:red;stroke-width:1px;stroke-linecap:butt;stroke-linejoin:miter;stroke-opacity:1" d="M 957.006,300.352 957.006,315.95 z" id="boundary" inkscape:connector-curvature="0" />
	<path style="fill:none;stroke:red;stroke-width:1px;stroke-linecap:butt;stroke-linejoin:miter;stroke-opacity:1" d="M 957.006,315.95 957.006,331.547 z" id="boundary" inkscape:connector-curvature="0" />
	<path style="fill:none;stroke:red;stroke-width:1px;stroke-linecap:butt;stroke-linejoin:miter;stroke-opacity:1" d="M 957.006,331.547 964.805,345.585 z" id="boundary" inkscape:connector-curvature="0" />
	<path style="fill:none;stroke:red;stroke-width:1px;stroke-linecap:butt;stroke-linejoin:miter;stroke-opacity:1" d="M 972.604,359.623 972.604,375.22 z" id="boundary" inkscape:connector-curvature="0" />
	<path style="fill:none;stroke:red;stroke-width:1px;stroke-linecap:butt;stroke-linejoin:miter;stroke-opacity:1" d="M 964.805,345.585 972.604,359.623 z" id="boundary" inkscape:connector-curvature="0" />
	<path style="fill:none;stroke:red;stroke-width:1px;stroke-linecap:butt;stroke-linejoin:miter;stroke-opacity:1" d="M 980.403,389.258 972.604,375.22 z" id="boundary" inkscape:connector-curvature="0" />
	<path style="fill:none;stroke:red;stroke-width:1px;stroke-linecap:butt;stroke-linejoin:miter;stroke-opacity:1" d="M 333.107,475.044 320.629,487.522 z" id="boundary" inkscape:connector-curvature="0" />
	<path style="fill:none;stroke:red;stroke-width:1px;stroke-linecap:butt;stroke-linejoin:miter;stroke-opacity:1" d="M 339.346,454.767 331.547,440.73 z" id="boundary" inkscape:connector-curvature="0" />
	<path style="fill:none;stroke:red;stroke-width:1px;stroke-linecap:butt;stroke-linejoin:miter;stroke-opacity:1" d="M 333.107,475.044 339.346,454.767 z" id="boundary" inkscape:connector-curvature="0" />
	<path style="fill:none;stroke:red;stroke-width:1px;stroke-linecap:butt;stroke-linejoin:miter;stroke-opacity:1" d="M 320.629,612.302 334.667,604.503 z" id="boundary" inkscape:connector-curvature="0" />
	<path style="fill:none;stroke:red;stroke-width:1px;stroke-linecap:butt;stroke-linejoin:miter;stroke-opacity:1" d="M 337.786,567.069 347.145,579.547 z" id="boundary" inkscape:connector-curvature="0" />
	<path style="fill:none;stroke:red;stroke-width:1px;stroke-linecap:butt;stroke-linejoin:miter;stroke-opacity:1" d="M 337.786,567.069 325.308,556.151 z" id="boundary" inkscape:connector-curvature="0" />
	<path style="fill:none;stroke:red;stroke-width:1px;stroke-linecap:butt;stroke-linejoin:miter;stroke-opacity:1" d="M 347.145,579.547 347.145,595.145 z" id="boundary" inkscape:connector-curvature="0" />
	<path style="fill:none;stroke:red;stroke-width:1px;stroke-linecap:butt;stroke-linejoin:miter;stroke-opacity:1" d="M 347.145,595.145 334.667,604.503 z" id="boundary" inkscape:connector-curvature="0" />
	<path style="fill:none;stroke:red;stroke-width:1px;stroke-linecap:butt;stroke-linejoin:miter;stroke-opacity:1" d="M 559.27,660.654 574.868,660.654 z" id="boundary" inkscape:connector-curvature="0" />
	<path style="fill:none;stroke:red;stroke-width:1px;stroke-linecap:butt;stroke-linejoin:miter;stroke-opacity:1" d="M 559.27,660.654 543.673,668.453 z" id="boundary" inkscape:connector-curvature="0" />
	<path style="fill:none;stroke:red;stroke-width:1px;stroke-linecap:butt;stroke-linejoin:miter;stroke-opacity:1" d="M 590.465,660.654 606.063,660.654 z" id="boundary" inkscape:connector-curvature="0" />
	<path style="fill:none;stroke:red;stroke-width:1px;stroke-linecap:butt;stroke-linejoin:miter;stroke-opacity:1" d="M 590.465,660.654 574.868,660.654 z" id="boundary" inkscape:connector-curvature="0" />
	<path style="fill:none;stroke:red;stroke-width:1px;stroke-linecap:butt;stroke-linejoin:miter;stroke-opacity:1" d="M 621.66,660.654 637.258,660.654 z" id="boundary" inkscape:connector-curvature="0" />
	<path style="fill:none;stroke:red;stroke-width:1px;stroke-linecap:butt;stroke-linejoin:miter;stroke-opacity:1" d="M 621.66,660.654 606.063,660.654 z" id="boundary" inkscape:connector-curvature="0" />
	<path style="fill:none;stroke:red;stroke-width:1px;stroke-linecap:butt;stroke-linejoin:miter;stroke-opacity:1" d="M 331.547,440.73 323.748,426.692 z" id="boundary" inkscape:connector-curvature="0" />
	<path style="fill:none;stroke:red;stroke-width:1px;stroke-linecap:butt;stroke-linejoin:miter;stroke-opacity:1" d="M 431.371,660.654 415.774,665.333 z" id="boundary" inkscape:connector-curvature="0" />
	<path style="fill:none;stroke:red;stroke-width:1px;stroke-linecap:butt;stroke-linejoin:miter;stroke-opacity:1" d="M 384.579,680.931 400.176,673.132 z" id="boundary" inkscape:connector-curvature="0" />
	<path style="fill:none;stroke:red;stroke-width:1px;stroke-linecap:butt;stroke-linejoin:miter;stroke-opacity:1" d="M 384.579,680.931 368.981,688.73 z" id="boundary" inkscape:connector-curvature="0" />
	<path style="fill:none;stroke:red;stroke-width:1px;stroke-linecap:butt;stroke-linejoin:miter;stroke-opacity:1" d="M 400.176,673.132 415.774,665.333 z" id="boundary" inkscape:connector-curvature="0" />
	<path style="fill:none;stroke:red;stroke-width:1px;stroke-linecap:butt;stroke-linejoin:miter;stroke-opacity:1" d="M 431.371,660.654 445.409,668.453 z" id="boundary" inkscape:connector-curvature="0" />
	<path style="fill:none;stroke:red;stroke-width:1px;stroke-linecap:butt;stroke-linejoin:miter;stroke-opacity:1" d="M 325.308,707.447 340.906,699.648 z" id="boundary" inkscape:connector-curvature="0" />
	<path style="fill:none;stroke:red;stroke-width:1px;stroke-linecap:butt;stroke-linejoin:miter;stroke-opacity:1" d="M 340.906,699.648 356.503,699.648 z" id="boundary" inkscape:connector-curvature="0" />
	<path style="fill:none;stroke:red;stroke-width:1px;stroke-linecap:butt;stroke-linejoin:miter;stroke-opacity:1" d="M 356.503,699.648 368.981,688.73 z" id="boundary" inkscape:connector-curvature="0" />
	<path style="fill:none;stroke:red;stroke-width:1px;stroke-linecap:butt;stroke-linejoin:miter;stroke-opacity:1" d="M 445.409,668.453 461.006,674.692 z" id="boundary" inkscape:connector-curvature="0" />
	<path style="fill:none;stroke:red;stroke-width:1px;stroke-linecap:butt;stroke-linejoin:miter;stroke-opacity:1" d="M 475.044,682.491 487.522,691.849 z" id="boundary" inkscape:connector-curvature="0" />
	<path style="fill:none;stroke:red;stroke-width:1px;stroke-linecap:butt;stroke-linejoin:miter;stroke-opacity:1" d="M 475.044,682.491 461.006,674.692 z" id="boundary" inkscape:connector-curvature="0" />
	<path style="fill:none;stroke:red;stroke-width:1px;stroke-linecap:butt;stroke-linejoin:miter;stroke-opacity:1" d="M 535.874,684.05 543.673,668.453 z" id="boundary" inkscape:connector-curvature="0" />
	<path style="fill:none;stroke:red;stroke-width:1px;stroke-linecap:butt;stroke-linejoin:miter;stroke-opacity:1" d="M 487.522,691.849 501.56,699.648 z" id="boundary" inkscape:connector-curvature="0" />
	<path style="fill:none;stroke:red;stroke-width:1px;stroke-linecap:butt;stroke-linejoin:miter;stroke-opacity:1" d="M 515.597,707.447 529.635,699.648 z" id="boundary" inkscape:connector-curvature="0" />
	<path style="fill:none;stroke:red;stroke-width:1px;stroke-linecap:butt;stroke-linejoin:miter;stroke-opacity:1" d="M 515.597,707.447 501.56,699.648 z" id="boundary" inkscape:connector-curvature="0" />
	<path style="fill:none;stroke:red;stroke-width:1px;stroke-linecap:butt;stroke-linejoin:miter;stroke-opacity:1" d="M 535.874,684.05 529.635,699.648 z" id="boundary" inkscape:connector-curvature="0" />
	<path style="fill:none;stroke:red;stroke-width:1px;stroke-linecap:butt;stroke-linejoin:miter;stroke-opacity:1" d="M 637.258,660.654 652.855,660.654 z" id="boundary" inkscape:connector-curvature="0" />
	<path style="fill:none;stroke:red;stroke-width:1px;stroke-linecap:butt;stroke-linejoin:miter;stroke-opacity:1" d="M 953.887,563.95 969.484,556.151 z" id="boundary" inkscape:connector-curvature="0" />
	<path style="fill:none;stroke:red;stroke-width:1px;stroke-linecap:butt;stroke-linejoin:miter;stroke-opacity:1" d="M 980.403,543.673 969.484,556.151 z" id="boundary" inkscape:connector-curvature="0" />
	<path style="fill:none;stroke:red;stroke-width:1px;stroke-linecap:butt;stroke-linejoin:miter;stroke-opacity:1" d="M 988.201,520.277 980.403,543.673 z" id="boundary" inkscape:connector-curvature="0" />
	<path style="fill:none;stroke:red;stroke-width:1px;stroke-linecap:butt;stroke-linejoin:miter;stroke-opacity:1" d="M 985.082,404.855 988.201,420.453 z" id="boundary" inkscape:connector-curvature="0" />
	<path style="fill:none;stroke:red;stroke-width:1px;stroke-linecap:butt;stroke-linejoin:miter;stroke-opacity:1" d="M 953.887,563.95 938.289,571.748 z" id="boundary" inkscape:connector-curvature="0" />
	<path style="fill:none;stroke:red;stroke-width:1px;stroke-linecap:butt;stroke-linejoin:miter;stroke-opacity:1" d="M 896.176,590.465 911.774,590.465 z" id="boundary" inkscape:connector-curvature="0" />
	<path style="fill:none;stroke:red;stroke-width:1px;stroke-linecap:butt;stroke-linejoin:miter;stroke-opacity:1" d="M 882.138,598.264 896.176,590.465 z" id="boundary" inkscape:connector-curvature="0" />
	<path style="fill:none;stroke:red;stroke-width:1px;stroke-linecap:butt;stroke-linejoin:miter;stroke-opacity:1" d="M 925.811,582.667 911.774,590.465 z" id="boundary" inkscape:connector-curvature="0" />
	<path style="fill:none;stroke:red;stroke-width:1px;stroke-linecap:butt;stroke-linejoin:miter;stroke-opacity:1" d="M 925.811,582.667 938.289,571.748 z" id="boundary" inkscape:connector-curvature="0" />
	<path style="fill:none;stroke:red;stroke-width:1px;stroke-linecap:butt;stroke-linejoin:miter;stroke-opacity:1" d="M 996,434.491 988.201,420.453 z" id="boundary" inkscape:connector-curvature="0" />
	<path style="fill:none;stroke:red;stroke-width:1px;stroke-linecap:butt;stroke-linejoin:miter;stroke-opacity:1" d="M 996,434.491 996,450.088 z" id="boundary" inkscape:connector-curvature="0" />
	<path style="fill:none;stroke:red;stroke-width:1px;stroke-linecap:butt;stroke-linejoin:miter;stroke-opacity:1" d="M 985.082,404.855 980.403,389.258 z" id="boundary" inkscape:connector-curvature="0" />
	<path style="fill:none;stroke:red;stroke-width:1px;stroke-linecap:butt;stroke-linejoin:miter;stroke-opacity:1" d="M 996,450.088 996,465.686 z" id="boundary" inkscape:connector-curvature="0" />
	<path style="fill:none;stroke:red;stroke-width:1px;stroke-linecap:butt;stroke-linejoin:miter;stroke-opacity:1" d="M 996,465.686 996,481.283 z" id="boundary" inkscape:connector-curvature="0" />
	<path style="fill:none;stroke:red;stroke-width:1px;stroke-linecap:butt;stroke-linejoin:miter;stroke-opacity:1" d="M 996,481.283 996,496.881 z" id="boundary" inkscape:connector-curvature="0" />
	<path style="fill:none;stroke:red;stroke-width:1px;stroke-linecap:butt;stroke-linejoin:miter;stroke-opacity:1" d="M 996,496.881 988.201,520.277 z" id="boundary" inkscape:connector-curvature="0" />
	<path style="fill:none;stroke:red;stroke-width:1px;stroke-linecap:butt;stroke-linejoin:miter;stroke-opacity:1" d="M 715.245,652.855 730.843,645.057 z" id="boundary" inkscape:connector-curvature="0" />
	<path style="fill:none;stroke:red;stroke-width:1px;stroke-linecap:butt;stroke-linejoin:miter;stroke-opacity:1" d="M 730.843,645.057 746.44,645.057 z" id="boundary" inkscape:connector-curvature="0" />
	<path style="fill:none;stroke:red;stroke-width:1px;stroke-linecap:butt;stroke-linejoin:miter;stroke-opacity:1" d="M 746.44,645.057 760.478,637.258 z" id="boundary" inkscape:connector-curvature="0" />
	<path style="fill:none;stroke:red;stroke-width:1px;stroke-linecap:butt;stroke-linejoin:miter;stroke-opacity:1" d="M 760.478,637.258 776.075,632.579 z" id="boundary" inkscape:connector-curvature="0" />
	<path style="fill:none;stroke:red;stroke-width:1px;stroke-linecap:butt;stroke-linejoin:miter;stroke-opacity:1" d="M 699.648,660.654 715.245,652.855 z" id="boundary" inkscape:connector-curvature="0" />
	<path style="fill:none;stroke:red;stroke-width:1px;stroke-linecap:butt;stroke-linejoin:miter;stroke-opacity:1" d="M 652.855,660.654 668.453,660.654 z" id="boundary" inkscape:connector-curvature="0" />
	<path style="fill:none;stroke:red;stroke-width:1px;stroke-linecap:butt;stroke-linejoin:miter;stroke-opacity:1" d="M 684.05,660.654 699.648,660.654 z" id="boundary" inkscape:connector-curvature="0" />
	<path style="fill:none;stroke:red;stroke-width:1px;stroke-linecap:butt;stroke-linejoin:miter;stroke-opacity:1" d="M 684.05,660.654 668.453,660.654 z" id="boundary" inkscape:connector-curvature="0" />
	<path style="fill:none;stroke:red;stroke-width:1px;stroke-linecap:butt;stroke-linejoin:miter;stroke-opacity:1" d="M 836.906,610.742 852.503,606.063 z" id="boundary" inkscape:connector-curvature="0" />
	<path style="fill:none;stroke:red;stroke-width:1px;stroke-linecap:butt;stroke-linejoin:miter;stroke-opacity:1" d="M 852.503,606.063 868.101,606.063 z" id="boundary" inkscape:connector-curvature="0" />
	<path style="fill:none;stroke:red;stroke-width:1px;stroke-linecap:butt;stroke-linejoin:miter;stroke-opacity:1" d="M 836.906,610.742 821.308,613.862 z" id="boundary" inkscape:connector-curvature="0" />
	<path style="fill:none;stroke:red;stroke-width:1px;stroke-linecap:butt;stroke-linejoin:miter;stroke-opacity:1" d="M 868.101,606.063 882.138,598.264 z" id="boundary" inkscape:connector-curvature="0" />
	<path style="fill:none;stroke:red;stroke-width:1px;stroke-linecap:butt;stroke-linejoin:miter;stroke-opacity:1" d="M 776.075,632.579 791.673,624.78 z" id="boundary" inkscape:connector-curvature="0" />
	<path style="fill:none;stroke:red;stroke-width:1px;stroke-linecap:butt;stroke-linejoin:miter;stroke-opacity:1" d="M 791.673,624.78 807.27,621.66 z" id="boundary" inkscape:connector-curvature="0" />
	<path style="fill:none;stroke:red;stroke-width:1px;stroke-linecap:butt;stroke-linejoin:miter;stroke-opacity:1" d="M 807.27,621.66 821.308,613.862 z" id="boundary" inkscape:connector-curvature="0" />
	<circle cx="4" cy="609.182" r="4" fill="#0" id="circle0"/>
	<circle cx="16.478" cy="596.704" r="4" fill="#0" id="circle1"/>
	<circle cx="16.478" cy="620.101" r="4" fill="#0" id="circle2"/>
	<circle cx="28.956" cy="629.459" r="4" fill="#0" id="circle3"/>
	<circle cx="32.0755" cy="596.704" r="4" fill="#0" id="circle4"/>
	<circle cx="42.9937" cy="515.597" r="4" fill="#0" id="circle5"/>
	<circle cx="44.5535" cy="632.579" r="4" fill="#0" id="circle6"/>
	<circle cx="47.673" cy="596.704" r="4" fill="#0" id="circle7"/>
	<circle cx="50.7925" cy="476.604" r="4" fill="#0" id="circle8"/>
	<circle cx="50.7925" cy="492.201" r="4" fill="#0" id="circle9"/>
	<circle cx="50.7925" cy="529.635" r="4" fill="#0" id="circle10"/>
	<circle cx="50.7925" cy="545.233" r="4" fill="#0" id="circle11"/>
	<circle cx="50.7925" cy="560.83" r="4" fill="#0" id="circle12"/>
	<circle cx="58.5912" cy="461.006" r="4" fill="#0" id="circle13"/>
	<circle cx="58.5912" cy="574.868" r="4" fill="#0" id="circle14"/>
	<circle cx="60.1509" cy="637.258" r="4" fill="#0" id="circle15"/>
	<circle cx="71.0692" cy="448.528" r="4" fill="#0" id="circle16"/>
	<circle cx="74.1887" cy="645.057" r="4" fill="#0" id="circle17"/>
	<circle cx="78.8679" cy="432.931" r="4" fill="#0" id="circle18"/>
	<circle cx="88.2264" cy="652.855" r="4" fill="#0" id="circle19"/>
	<circle cx="91.3459" cy="420.453" r="4" fill="#0" id="circle20"/>
	<circle cx="91.3459" cy="481.283" r="4" fill="#0" id="circle21"/>
	<circle cx="91.3459" cy="496.881" r="4" fill="#0" id="circle22"/>
	<circle cx="91.3459" cy="512.478" r="4" fill="#0" id="circle23"/>
	<circle cx="91.3459" cy="528.075" r="4" fill="#0" id="circle24"/>
	<circle cx="91.3459" cy="543.673" r="4" fill="#0" id="circle25"/>
	<circle cx="99.1447" cy="465.686" r="4" fill="#0" id="circle26"/>
	<circle cx="99.1447" cy="557.711" r="4" fill="#0" id="circle27"/>
	<circle cx="103.824" cy="409.535" r="4" fill="#0" id="circle28"/>
	<circle cx="103.824" cy="652.855" r="4" fill="#0" id="circle29"/>
	<circle cx="106.943" cy="571.748" r="4" fill="#0" id="circle30"/>
	<circle cx="111.623" cy="454.767" r="4" fill="#0" id="circle31"/>
	<circle cx="117.862" cy="401.736" r="4" fill="#0" id="circle32"/>
	<circle cx="119.421" cy="439.17" r="4" fill="#0" id="circle33"/>
	<circle cx="119.421" cy="582.667" r="4" fill="#0" id="circle34"/>
	<circle cx="119.421" cy="652.855" r="4" fill="#0" id="circle35"/>
	<circle cx="130.34" cy="426.692" r="4" fill="#0" id="circle36"/>
	<circle cx="130.34" cy="595.145" r="4" fill="#0" id="circle37"/>
	<circle cx="131.899" cy="393.937" r="4" fill="#0" id="circle38"/>
	<circle cx="133.459" cy="660.654" r="4" fill="#0" id="circle39"/>
	<circle cx="142.818" cy="606.063" r="4" fill="#0" id="circle40"/>
	<circle cx="144.377" cy="383.019" r="4" fill="#0" id="circle41"/>
	<circle cx="145.937" cy="418.893" r="4" fill="#0" id="circle42"/>
	<circle cx="147.497" cy="668.453" r="4" fill="#0" id="circle43"/>
	<circle cx="153.736" cy="618.541" r="4" fill="#0" id="circle44"/>
	<circle cx="159.975" cy="375.22" r="4" fill="#0" id="circle45"/>
	<circle cx="159.975" cy="411.094" r="4" fill="#0" id="circle46"/>
	<circle cx="159.975" cy="677.811" r="4" fill="#0" id="circle47"/>
	<circle cx="167.774" cy="250.44" r="4" fill="#0" id="circle48"/>
	<circle cx="169.333" cy="624.78" r="4" fill="#0" id="circle49"/>
	<circle cx="170.893" cy="690.289" r="4" fill="#0" id="circle50"/>
	<circle cx="172.453" cy="401.736" r="4" fill="#0" id="circle51"/>
	<circle cx="175.572" cy="234.843" r="4" fill="#0" id="circle52"/>
	<circle cx="175.572" cy="264.478" r="4" fill="#0" id="circle53"/>
	<circle cx="175.572" cy="370.541" r="4" fill="#0" id="circle54"/>
	<circle cx="183.371" cy="632.579" r="4" fill="#0" id="circle55"/>
	<circle cx="184.931" cy="387.698" r="4" fill="#0" id="circle56"/>
	<circle cx="186.491" cy="696.528" r="4" fill="#0" id="circle57"/>
	<circle cx="188.05" cy="222.365" r="4" fill="#0" id="circle58"/>
	<circle cx="188.05" cy="253.56" r="4" fill="#0" id="circle59"/>
	<circle cx="189.61" cy="362.742" r="4" fill="#0" id="circle60"/>
	<circle cx="195.849" cy="237.962" r="4" fill="#0" id="circle61"/>
	<circle cx="198.969" cy="635.698" r="4" fill="#0" id="circle62"/>
	<circle cx="200.528" cy="379.899" r="4" fill="#0" id="circle63"/>
	<circle cx="202.088" cy="214.566" r="4" fill="#0" id="circle64"/>
	<circle cx="202.088" cy="699.648" r="4" fill="#0" id="circle65"/>
	<circle cx="203.648" cy="354.943" r="4" fill="#0" id="circle66"/>
	<circle cx="211.447" cy="230.164" r="4" fill="#0" id="circle67"/>
	<circle cx="214.566" cy="635.698" r="4" fill="#0" id="circle68"/>
	<circle cx="216.126" cy="206.767" r="4" fill="#0" id="circle69"/>
	<circle cx="216.126" cy="342.465" r="4" fill="#0" id="circle70"/>
	<circle cx="216.126" cy="372.101" r="4" fill="#0" id="circle71"/>
	<circle cx="216.126" cy="707.447" r="4" fill="#0" id="circle72"/>
	<circle cx="227.044" cy="230.164" r="4" fill="#0" id="circle73"/>
	<circle cx="228.604" cy="331.547" r="4" fill="#0" id="circle74"/>
	<circle cx="228.604" cy="361.182" r="4" fill="#0" id="circle75"/>
	<circle cx="230.164" cy="214.566" r="4" fill="#0" id="circle76"/>
	<circle cx="230.164" cy="635.698" r="4" fill="#0" id="circle77"/>
	<circle cx="231.723" cy="707.447" r="4" fill="#0" id="circle78"/>
	<circle cx="237.962" cy="242.642" r="4" fill="#0" id="circle79"/>
	<circle cx="239.522" cy="319.069" r="4" fill="#0" id="circle80"/>
	<circle cx="239.522" cy="348.704" r="4" fill="#0" id="circle81"/>
	<circle cx="244.201" cy="222.365" r="4" fill="#0" id="circle82"/>
	<circle cx="245.761" cy="256.679" r="4" fill="#0" id="circle83"/>
	<circle cx="245.761" cy="272.277" r="4" fill="#0" id="circle84"/>
	<circle cx="245.761" cy="287.874" r="4" fill="#0" id="circle85"/>
	<circle cx="245.761" cy="303.472" r="4" fill="#0" id="circle86"/>
	<circle cx="245.761" cy="635.698" r="4" fill="#0" id="circle87"/>
	<circle cx="247.321" cy="710.566" r="4" fill="#0" id="circle88"/>
	<circle cx="252" cy="337.786" r="4" fill="#0" id="circle89"/>
	<circle cx="255.119" cy="234.843" r="4" fill="#0" id="circle90"/>
	<circle cx="259.799" cy="322.189" r="4" fill="#0" id="circle91"/>
	<circle cx="261.358" cy="635.698" r="4" fill="#0" id="circle92"/>
	<circle cx="262.918" cy="248.881" r="4" fill="#0" id="circle93"/>
	<circle cx="262.918" cy="301.912" r="4" fill="#0" id="circle94"/>
	<circle cx="262.918" cy="715.245" r="4" fill="#0" id="circle95"/>
	<circle cx="270.717" cy="262.918" r="4" fill="#0" id="circle96"/>
	<circle cx="270.717" cy="278.516" r="4" fill="#0" id="circle97"/>
	<circle cx="275.396" cy="627.899" r="4" fill="#0" id="circle98"/>
	<circle cx="278.516" cy="715.245" r="4" fill="#0" id="circle99"/>
	<circle cx="290.994" cy="627.899" r="4" fill="#0" id="circle100"/>
	<circle cx="294.113" cy="707.447" r="4" fill="#0" id="circle101"/>
	<circle cx="300.352" cy="336.226" r="4" fill="#0" id="circle102"/>
	<circle cx="300.352" cy="515.597" r="4" fill="#0" id="circle103"/>
	<circle cx="305.031" cy="620.101" r="4" fill="#0" id="circle104"/>
	<circle cx="308.151" cy="250.44" r="4" fill="#0" id="circle105"/>
	<circle cx="308.151" cy="266.038" r="4" fill="#0" id="circle106"/>
	<circle cx="308.151" cy="281.635" r="4" fill="#0" id="circle107"/>
	<circle cx="308.151" cy="297.233" r="4" fill="#0" id="circle108"/>
	<circle cx="308.151" cy="312.83" r="4" fill="#0" id="circle109"/>
	<circle cx="308.151" cy="350.264" r="4" fill="#0" id="circle110"/>
	<circle cx="308.151" cy="365.862" r="4" fill="#0" id="circle111"/>
	<circle cx="308.151" cy="381.459" r="4" fill="#0" id="circle112"/>
	<circle cx="308.151" cy="500" r="4" fill="#0" id="circle113"/>
	<circle cx="308.151" cy="529.635" r="4" fill="#0" id="circle114"/>
	<circle cx="309.711" cy="707.447" r="4" fill="#0" id="circle115"/>
	<circle cx="315.95" cy="188.05" r="4" fill="#0" id="circle116"/>
	<circle cx="315.95" cy="203.648" r="4" fill="#0" id="circle117"/>
	<circle cx="315.95" cy="219.245" r="4" fill="#0" id="circle118"/>
	<circle cx="315.95" cy="234.843" r="4" fill="#0" id="circle119"/>
	<circle cx="315.95" cy="395.497" r="4" fill="#0" id="circle120"/>
	<circle cx="315.95" cy="543.673" r="4" fill="#0" id="circle121"/>
	<circle cx="320.629" cy="411.094" r="4" fill="#0" id="circle122"/>
	<circle cx="320.629" cy="487.522" r="4" fill="#0" id="circle123"/>
	<circle cx="320.629" cy="612.302" r="4" fill="#0" id="circle124"/>
	<circle cx="323.748" cy="117.862" r="4" fill="#0" id="circle125"/>
	<circle cx="323.748" cy="133.459" r="4" fill="#0" id="circle126"/>
	<circle cx="323.748" cy="149.057" r="4" fill="#0" id="circle127"/>
	<circle cx="323.748" cy="164.654" r="4" fill="#0" id="circle128"/>
	<circle cx="323.748" cy="426.692" r="4" fill="#0" id="circle129"/>
	<circle cx="325.308" cy="556.151" r="4" fill="#0" id="circle130"/>
	<circle cx="325.308" cy="707.447" r="4" fill="#0" id="circle131"/>
	<circle cx="331.547" cy="78.8679" r="4" fill="#0" id="circle132"/>
	<circle cx="331.547" cy="94.4654" r="4" fill="#0" id="circle133"/>
	<circle cx="331.547" cy="440.73" r="4" fill="#0" id="circle134"/>
	<circle cx="333.107" cy="475.044" r="4" fill="#0" id="circle135"/>
	<circle cx="334.667" cy="604.503" r="4" fill="#0" id="circle136"/>
	<circle cx="337.786" cy="567.069" r="4" fill="#0" id="circle137"/>
	<circle cx="339.346" cy="63.2704" r="4" fill="#0" id="circle138"/>
	<circle cx="339.346" cy="454.767" r="4" fill="#0" id="circle139"/>
	<circle cx="340.906" cy="699.648" r="4" fill="#0" id="circle140"/>
	<circle cx="347.145" cy="579.547" r="4" fill="#0" id="circle141"/>
	<circle cx="347.145" cy="595.145" r="4" fill="#0" id="circle142"/>
	<circle cx="351.824" cy="50.7925" r="4" fill="#0" id="circle143"/>
	<circle cx="356.503" cy="699.648" r="4" fill="#0" id="circle144"/>
	<circle cx="365.862" cy="42.9937" r="4" fill="#0" id="circle145"/>
	<circle cx="368.981" cy="688.73" r="4" fill="#0" id="circle146"/>
	<circle cx="379.899" cy="35.195" r="4" fill="#0" id="circle147"/>
	<circle cx="384.579" cy="680.931" r="4" fill="#0" id="circle148"/>
	<circle cx="393.937" cy="24.2767" r="4" fill="#0" id="circle149"/>
	<circle cx="400.176" cy="673.132" r="4" fill="#0" id="circle150"/>
	<circle cx="409.535" cy="16.478" r="4" fill="#0" id="circle151"/>
	<circle cx="415.774" cy="665.333" r="4" fill="#0" id="circle152"/>
	<circle cx="425.132" cy="11.7987" r="4" fill="#0" id="circle153"/>
	<circle cx="431.371" cy="660.654" r="4" fill="#0" id="circle154"/>
	<circle cx="439.17" cy="4" r="4" fill="#0" id="circle155"/>
	<circle cx="445.409" cy="668.453" r="4" fill="#0" id="circle156"/>
	<circle cx="454.767" cy="4" r="4" fill="#0" id="circle157"/>
	<circle cx="461.006" cy="674.692" r="4" fill="#0" id="circle158"/>
	<circle cx="470.365" cy="4" r="4" fill="#0" id="circle159"/>
	<circle cx="475.044" cy="682.491" r="4" fill="#0" id="circle160"/>
	<circle cx="485.962" cy="4" r="4" fill="#0" id="circle161"/>
	<circle cx="487.522" cy="691.849" r="4" fill="#0" id="circle162"/>
	<circle cx="501.56" cy="4" r="4" fill="#0" id="circle163"/>
	<circle cx="501.56" cy="699.648" r="4" fill="#0" id="circle164"/>
	<circle cx="515.597" cy="707.447" r="4" fill="#0" id="circle165"/>
	<circle cx="517.157" cy="4" r="4" fill="#0" id="circle166"/>
	<circle cx="529.635" cy="699.648" r="4" fill="#0" id="circle167"/>
	<circle cx="532.755" cy="4" r="4" fill="#0" id="circle168"/>
	<circle cx="535.874" cy="684.05" r="4" fill="#0" id="circle169"/>
	<circle cx="543.673" cy="668.453" r="4" fill="#0" id="circle170"/>
	<circle cx="548.352" cy="5.55975" r="4" fill="#0" id="circle171"/>
	<circle cx="559.27" cy="660.654" r="4" fill="#0" id="circle172"/>
	<circle cx="563.95" cy="11.7987" r="4" fill="#0" id="circle173"/>
	<circle cx="574.868" cy="660.654" r="4" fill="#0" id="circle174"/>
	<circle cx="577.987" cy="19.5975" r="4" fill="#0" id="circle175"/>
	<circle cx="590.465" cy="660.654" r="4" fill="#0" id="circle176"/>
	<circle cx="593.585" cy="19.5975" r="4" fill="#0" id="circle177"/>
	<circle cx="606.063" cy="660.654" r="4" fill="#0" id="circle178"/>
	<circle cx="609.182" cy="19.5975" r="4" fill="#0" id="circle179"/>
	<circle cx="621.66" cy="660.654" r="4" fill="#0" id="circle180"/>
	<circle cx="624.78" cy="19.5975" r="4" fill="#0" id="circle181"/>
	<circle cx="637.258" cy="660.654" r="4" fill="#0" id="circle182"/>
	<circle cx="640.377" cy="19.5975" r="4" fill="#0" id="circle183"/>
	<circle cx="652.855" cy="660.654" r="4" fill="#0" id="circle184"/>
	<circle cx="654.415" cy="27.3962" r="4" fill="#0" id="circle185"/>
	<circle cx="668.453" cy="660.654" r="4" fill="#0" id="circle186"/>
	<circle cx="670.013" cy="27.3962" r="4" fill="#0" id="circle187"/>
	<circle cx="684.05" cy="660.654" r="4" fill="#0" id="circle188"/>
	<circle cx="685.61" cy="27.3962" r="4" fill="#0" id="circle189"/>
	<circle cx="699.648" cy="660.654" r="4" fill="#0" id="circle190"/>
	<circle cx="701.208" cy="27.3962" r="4" fill="#0" id="circle191"/>
	<circle cx="715.245" cy="652.855" r="4" fill="#0" id="circle192"/>
	<circle cx="716.805" cy="27.3962" r="4" fill="#0" id="circle193"/>
	<circle cx="730.843" cy="645.057" r="4" fill="#0" id="circle194"/>
	<circle cx="732.403" cy="27.3962" r="4" fill="#0" id="circle195"/>
	<circle cx="746.44" cy="645.057" r="4" fill="#0" id="circle196"/>
	<circle cx="748" cy="27.3962" r="4" fill="#0" id="circle197"/>
	<circle cx="760.478" cy="637.258" r="4" fill="#0" id="circle198"/>
	<circle cx="763.597" cy="27.3962" r="4" fill="#0" id="circle199"/>
	<circle cx="776.075" cy="632.579" r="4" fill="#0" id="circle200"/>
	<circle cx="777.635" cy="35.195" r="4" fill="#0" id="circle201"/>
	<circle cx="791.673" cy="624.78" r="4" fill="#0" id="circle202"/>
	<circle cx="793.233" cy="35.195" r="4" fill="#0" id="circle203"/>
	<circle cx="807.27" cy="621.66" r="4" fill="#0" id="circle204"/>
	<circle cx="808.83" cy="35.195" r="4" fill="#0" id="circle205"/>
	<circle cx="821.308" cy="613.862" r="4" fill="#0" id="circle206"/>
	<circle cx="824.428" cy="35.195" r="4" fill="#0" id="circle207"/>
	<circle cx="836.906" cy="610.742" r="4" fill="#0" id="circle208"/>
	<circle cx="840.025" cy="35.195" r="4" fill="#0" id="circle209"/>
	<circle cx="852.503" cy="606.063" r="4" fill="#0" id="circle210"/>
	<circle cx="855.623" cy="35.195" r="4" fill="#0" id="circle211"/>
	<circle cx="868.101" cy="606.063" r="4" fill="#0" id="circle212"/>
	<circle cx="871.22" cy="35.195" r="4" fill="#0" id="circle213"/>
	<circle cx="882.138" cy="598.264" r="4" fill="#0" id="circle214"/>
	<circle cx="883.698" cy="44.5535" r="4" fill="#0" id="circle215"/>
	<circle cx="886.818" cy="60.1509" r="4" fill="#0" id="circle216"/>
	<circle cx="886.818" cy="75.7484" r="4" fill="#0" id="circle217"/>
	<circle cx="886.818" cy="91.3459" r="4" fill="#0" id="circle218"/>
	<circle cx="894.616" cy="105.384" r="4" fill="#0" id="circle219"/>
	<circle cx="894.616" cy="120.981" r="4" fill="#0" id="circle220"/>
	<circle cx="896.176" cy="590.465" r="4" fill="#0" id="circle221"/>
	<circle cx="902.415" cy="135.019" r="4" fill="#0" id="circle222"/>
	<circle cx="910.214" cy="149.057" r="4" fill="#0" id="circle223"/>
	<circle cx="911.774" cy="590.465" r="4" fill="#0" id="circle224"/>
	<circle cx="916.453" cy="164.654" r="4" fill="#0" id="circle225"/>
	<circle cx="918.013" cy="180.252" r="4" fill="#0" id="circle226"/>
	<circle cx="925.811" cy="194.289" r="4" fill="#0" id="circle227"/>
	<circle cx="925.811" cy="582.667" r="4" fill="#0" id="circle228"/>
	<circle cx="930.491" cy="209.887" r="4" fill="#0" id="circle229"/>
	<circle cx="933.61" cy="225.484" r="4" fill="#0" id="circle230"/>
	<circle cx="933.61" cy="241.082" r="4" fill="#0" id="circle231"/>
	<circle cx="938.289" cy="571.748" r="4" fill="#0" id="circle232"/>
	<circle cx="941.409" cy="255.119" r="4" fill="#0" id="circle233"/>
	<circle cx="944.528" cy="270.717" r="4" fill="#0" id="circle234"/>
	<circle cx="949.208" cy="286.314" r="4" fill="#0" id="circle235"/>
	<circle cx="953.887" cy="563.95" r="4" fill="#0" id="circle236"/>
	<circle cx="957.006" cy="300.352" r="4" fill="#0" id="circle237"/>
	<circle cx="957.006" cy="315.95" r="4" fill="#0" id="circle238"/>
	<circle cx="957.006" cy="331.547" r="4" fill="#0" id="circle239"/>
	<circle cx="964.805" cy="345.585" r="4" fill="#0" id="circle240"/>
	<circle cx="969.484" cy="556.151" r="4" fill="#0" id="circle241"/>
	<circle cx="972.604" cy="359.623" r="4" fill="#0" id="circle242"/>
	<circle cx="972.604" cy="375.22" r="4" fill="#0" id="circle243"/>
	<circle cx="980.403" cy="389.258" r="4" fill="#0" id="circle244"/>
	<circle cx="980.403" cy="543.673" r="4" fill="#0" id="circle245"/>
	<circle cx="985.082" cy="404.855" r="4" fill="#0" id="circle246"/>
	<circle cx="988.201" cy="420.453" r="4" fill="#0" id="circle247"/>
	<circle cx="988.201" cy="520.277" r="4" fill="#0" id="circle248"/>
	<circle cx="996" cy="434.491" r="4" fill="#0" id="circle249"/>
	<circle cx="996" cy="450.088" r="4" fill="#0" id="circle250"/>
	<circle cx="996" cy="465.686" r="4" fill="#0" id="circle251"/>
	<circle cx="996" cy="481.283" r="4" fill="#0" id="circle252"/>
	<circle cx="996" cy="496.881" r="4" fill="#0" id="circle253"/>
	</g>
</svg>