<?xml version="1.0" encoding="UTF-8" standalone="no"?>
<!-- Created with CurveBenchmark -->
<svg
	xmlns:dc="http://purl.org/dc/elements/1.1/"
	xmlns:cc="http://creativecommons.org/ns#"
	xmlns:rdf="http://www.w3.org/1999/02/22-rdf-syntax-ns#"
	xmlns:svg="http://www.w3.org/2000/svg"
	xmlns="http://www.w3.org/2000/svg"
	xmlns:sodipodi="http://sodipodi.sourceforge.net/DTD/sodipodi-0.dtd"
	xmlns:inkscape="http://www.inkscape.org/namespaces/inkscape"
	width="1000"
	height="1000"
	id="svg2"
	version="1.1"
	sodipodi:docname="manifold/gathang-tool41.png.txt">
<defs
	id="defs4" />
<metadata
	id="metadata7">
	<rdf:RDF>
		<cc:Work
			rdf:about="">
			<dc:format>image/svg+xml</dc:format>
			<dc:type
				rdf:resource="http://purl.org/dc/dcmitype/StillImage" />
			<dc:title></dc:title>
		</cc:Work>
	</rdf:RDF>
</metadata>
<g
	inkscape:label="Layer 1"
	inkscape:groupmode="layer"
	id="layer1">
	<path style="fill:none;stroke:red;stroke-width:1px;stroke-linecap:butt;stroke-linejoin:miter;stroke-opacity:1" d="M 40.0727,202.4 76.1455,202.4 z" id="boundary" inkscape:connector-curvature="0" />
	<path style="fill:none;stroke:red;stroke-width:1px;stroke-linecap:butt;stroke-linejoin:miter;stroke-opacity:1" d="M 112.218,202.4 76.1455,202.4 z" id="boundary" inkscape:connector-curvature="0" />
	<path style="fill:none;stroke:red;stroke-width:1px;stroke-linecap:butt;stroke-linejoin:miter;stroke-opacity:1" d="M 148.291,209.615 112.218,202.4 z" id="boundary" inkscape:connector-curvature="0" />
	<path style="fill:none;stroke:red;stroke-width:1px;stroke-linecap:butt;stroke-linejoin:miter;stroke-opacity:1" d="M 4,249.295 4,213.222 z" id="boundary" inkscape:connector-curvature="0" />
	<path style="fill:none;stroke:red;stroke-width:1px;stroke-linecap:butt;stroke-linejoin:miter;stroke-opacity:1" d="M 40.0727,260.116 4,249.295 z" id="boundary" inkscape:connector-curvature="0" />
	<path style="fill:none;stroke:red;stroke-width:1px;stroke-linecap:butt;stroke-linejoin:miter;stroke-opacity:1" d="M 72.5382,278.153 40.0727,260.116 z" id="boundary" inkscape:connector-curvature="0" />
	<path style="fill:none;stroke:red;stroke-width:1px;stroke-linecap:butt;stroke-linejoin:miter;stroke-opacity:1" d="M 4,213.222 40.0727,202.4 z" id="boundary" inkscape:connector-curvature="0" />
	<path style="fill:none;stroke:red;stroke-width:1px;stroke-linecap:butt;stroke-linejoin:miter;stroke-opacity:1" d="M 148.291,209.615 184.364,220.436 z" id="boundary" inkscape:connector-curvature="0" />
	<path style="fill:none;stroke:red;stroke-width:1px;stroke-linecap:butt;stroke-linejoin:miter;stroke-opacity:1" d="M 94.1818,307.011 72.5382,278.153 z" id="boundary" inkscape:connector-curvature="0" />
	<path style="fill:none;stroke:red;stroke-width:1px;stroke-linecap:butt;stroke-linejoin:miter;stroke-opacity:1" d="M 220.436,220.436 184.364,220.436 z" id="boundary" inkscape:connector-curvature="0" />
	<path style="fill:none;stroke:red;stroke-width:1px;stroke-linecap:butt;stroke-linejoin:miter;stroke-opacity:1" d="M 400.8,202.4 364.727,202.4 z" id="boundary" inkscape:connector-curvature="0" />
	<path style="fill:none;stroke:red;stroke-width:1px;stroke-linecap:butt;stroke-linejoin:miter;stroke-opacity:1" d="M 433.265,184.364 400.8,202.4 z" id="boundary" inkscape:connector-curvature="0" />
	<path style="fill:none;stroke:red;stroke-width:1px;stroke-linecap:butt;stroke-linejoin:miter;stroke-opacity:1" d="M 505.411,184.364 469.338,184.364 z" id="boundary" inkscape:connector-curvature="0" />
	<path style="fill:none;stroke:red;stroke-width:1px;stroke-linecap:butt;stroke-linejoin:miter;stroke-opacity:1" d="M 537.876,166.327 505.411,184.364 z" id="boundary" inkscape:connector-curvature="0" />
	<path style="fill:none;stroke:red;stroke-width:1px;stroke-linecap:butt;stroke-linejoin:miter;stroke-opacity:1" d="M 469.338,184.364 433.265,184.364 z" id="boundary" inkscape:connector-curvature="0" />
	<path style="fill:none;stroke:red;stroke-width:1px;stroke-linecap:butt;stroke-linejoin:miter;stroke-opacity:1" d="M 256.509,220.436 220.436,220.436 z" id="boundary" inkscape:connector-curvature="0" />
	<path style="fill:none;stroke:red;stroke-width:1px;stroke-linecap:butt;stroke-linejoin:miter;stroke-opacity:1" d="M 292.582,220.436 328.655,213.222 z" id="boundary" inkscape:connector-curvature="0" />
	<path style="fill:none;stroke:red;stroke-width:1px;stroke-linecap:butt;stroke-linejoin:miter;stroke-opacity:1" d="M 292.582,220.436 256.509,220.436 z" id="boundary" inkscape:connector-curvature="0" />
	<path style="fill:none;stroke:red;stroke-width:1px;stroke-linecap:butt;stroke-linejoin:miter;stroke-opacity:1" d="M 364.727,202.4 328.655,213.222 z" id="boundary" inkscape:connector-curvature="0" />
	<path style="fill:none;stroke:red;stroke-width:1px;stroke-linecap:butt;stroke-linejoin:miter;stroke-opacity:1" d="M 4,393.585 4,357.513 z" id="boundary" inkscape:connector-curvature="0" />
	<path style="fill:none;stroke:red;stroke-width:1px;stroke-linecap:butt;stroke-linejoin:miter;stroke-opacity:1" d="M 4,357.513 40.0727,346.691 z" id="boundary" inkscape:connector-curvature="0" />
	<path style="fill:none;stroke:red;stroke-width:1px;stroke-linecap:butt;stroke-linejoin:miter;stroke-opacity:1" d="M 169.935,386.371 141.076,418.836 z" id="boundary" inkscape:connector-curvature="0" />
	<path style="fill:none;stroke:red;stroke-width:1px;stroke-linecap:butt;stroke-linejoin:miter;stroke-opacity:1" d="M 94.1818,307.011 76.1455,346.691 z" id="boundary" inkscape:connector-curvature="0" />
	<path style="fill:none;stroke:red;stroke-width:1px;stroke-linecap:butt;stroke-linejoin:miter;stroke-opacity:1" d="M 76.1455,346.691 40.0727,346.691 z" id="boundary" inkscape:connector-curvature="0" />
	<path style="fill:none;stroke:red;stroke-width:1px;stroke-linecap:butt;stroke-linejoin:miter;stroke-opacity:1" d="M 32.8582,418.836 4,393.585 z" id="boundary" inkscape:connector-curvature="0" />
	<path style="fill:none;stroke:red;stroke-width:1px;stroke-linecap:butt;stroke-linejoin:miter;stroke-opacity:1" d="M 68.9309,422.444 32.8582,418.836 z" id="boundary" inkscape:connector-curvature="0" />
	<path style="fill:none;stroke:red;stroke-width:1px;stroke-linecap:butt;stroke-linejoin:miter;stroke-opacity:1" d="M 105.004,422.444 68.9309,422.444 z" id="boundary" inkscape:connector-curvature="0" />
	<path style="fill:none;stroke:red;stroke-width:1px;stroke-linecap:butt;stroke-linejoin:miter;stroke-opacity:1" d="M 141.076,418.836 105.004,422.444 z" id="boundary" inkscape:connector-curvature="0" />
	<path style="fill:none;stroke:red;stroke-width:1px;stroke-linecap:butt;stroke-linejoin:miter;stroke-opacity:1" d="M 346.691,314.225 310.618,314.225 z" id="boundary" inkscape:connector-curvature="0" />
	<path style="fill:none;stroke:red;stroke-width:1px;stroke-linecap:butt;stroke-linejoin:miter;stroke-opacity:1" d="M 310.618,314.225 278.153,332.262 z" id="boundary" inkscape:connector-curvature="0" />
	<path style="fill:none;stroke:red;stroke-width:1px;stroke-linecap:butt;stroke-linejoin:miter;stroke-opacity:1" d="M 415.229,296.189 447.695,278.153 z" id="boundary" inkscape:connector-curvature="0" />
	<path style="fill:none;stroke:red;stroke-width:1px;stroke-linecap:butt;stroke-linejoin:miter;stroke-opacity:1" d="M 447.695,278.153 483.767,278.153 z" id="boundary" inkscape:connector-curvature="0" />
	<path style="fill:none;stroke:red;stroke-width:1px;stroke-linecap:butt;stroke-linejoin:miter;stroke-opacity:1" d="M 415.229,296.189 379.156,296.189 z" id="boundary" inkscape:connector-curvature="0" />
	<path style="fill:none;stroke:red;stroke-width:1px;stroke-linecap:butt;stroke-linejoin:miter;stroke-opacity:1" d="M 379.156,296.189 346.691,314.225 z" id="boundary" inkscape:connector-curvature="0" />
	<path style="fill:none;stroke:red;stroke-width:1px;stroke-linecap:butt;stroke-linejoin:miter;stroke-opacity:1" d="M 169.935,386.371 206.007,350.298 z" id="boundary" inkscape:connector-curvature="0" />
	<path style="fill:none;stroke:red;stroke-width:1px;stroke-linecap:butt;stroke-linejoin:miter;stroke-opacity:1" d="M 278.153,332.262 242.08,332.262 z" id="boundary" inkscape:connector-curvature="0" />
	<path style="fill:none;stroke:red;stroke-width:1px;stroke-linecap:butt;stroke-linejoin:miter;stroke-opacity:1" d="M 206.007,350.298 242.08,332.262 z" id="boundary" inkscape:connector-curvature="0" />
	<path style="fill:none;stroke:red;stroke-width:1px;stroke-linecap:butt;stroke-linejoin:miter;stroke-opacity:1" d="M 483.767,278.153 519.84,274.545 z" id="boundary" inkscape:connector-curvature="0" />
	<path style="fill:none;stroke:red;stroke-width:1px;stroke-linecap:butt;stroke-linejoin:miter;stroke-opacity:1" d="M 743.491,105.004 772.349,76.1455 z" id="boundary" inkscape:connector-curvature="0" />
	<path style="fill:none;stroke:red;stroke-width:1px;stroke-linecap:butt;stroke-linejoin:miter;stroke-opacity:1" d="M 790.385,40.0727 772.349,76.1455 z" id="boundary" inkscape:connector-curvature="0" />
	<path style="fill:none;stroke:red;stroke-width:1px;stroke-linecap:butt;stroke-linejoin:miter;stroke-opacity:1" d="M 790.385,40.0727 822.851,22.0364 z" id="boundary" inkscape:connector-curvature="0" />
	<path style="fill:none;stroke:red;stroke-width:1px;stroke-linecap:butt;stroke-linejoin:miter;stroke-opacity:1" d="M 573.949,166.327 537.876,166.327 z" id="boundary" inkscape:connector-curvature="0" />
	<path style="fill:none;stroke:red;stroke-width:1px;stroke-linecap:butt;stroke-linejoin:miter;stroke-opacity:1" d="M 606.415,148.291 573.949,166.327 z" id="boundary" inkscape:connector-curvature="0" />
	<path style="fill:none;stroke:red;stroke-width:1px;stroke-linecap:butt;stroke-linejoin:miter;stroke-opacity:1" d="M 642.487,148.291 678.56,133.862 z" id="boundary" inkscape:connector-curvature="0" />
	<path style="fill:none;stroke:red;stroke-width:1px;stroke-linecap:butt;stroke-linejoin:miter;stroke-opacity:1" d="M 642.487,148.291 606.415,148.291 z" id="boundary" inkscape:connector-curvature="0" />
	<path style="fill:none;stroke:red;stroke-width:1px;stroke-linecap:butt;stroke-linejoin:miter;stroke-opacity:1" d="M 714.633,130.255 678.56,133.862 z" id="boundary" inkscape:connector-curvature="0" />
	<path style="fill:none;stroke:red;stroke-width:1px;stroke-linecap:butt;stroke-linejoin:miter;stroke-opacity:1" d="M 743.491,105.004 714.633,130.255 z" id="boundary" inkscape:connector-curvature="0" />
	<path style="fill:none;stroke:red;stroke-width:1px;stroke-linecap:butt;stroke-linejoin:miter;stroke-opacity:1" d="M 855.316,4 891.389,4 z" id="boundary" inkscape:connector-curvature="0" />
	<path style="fill:none;stroke:red;stroke-width:1px;stroke-linecap:butt;stroke-linejoin:miter;stroke-opacity:1" d="M 891.389,4 927.462,14.8218 z" id="boundary" inkscape:connector-curvature="0" />
	<path style="fill:none;stroke:red;stroke-width:1px;stroke-linecap:butt;stroke-linejoin:miter;stroke-opacity:1" d="M 927.462,14.8218 959.927,32.8582 z" id="boundary" inkscape:connector-curvature="0" />
	<path style="fill:none;stroke:red;stroke-width:1px;stroke-linecap:butt;stroke-linejoin:miter;stroke-opacity:1" d="M 873.353,97.7891 873.353,133.862 z" id="boundary" inkscape:connector-curvature="0" />
	<path style="fill:none;stroke:red;stroke-width:1px;stroke-linecap:butt;stroke-linejoin:miter;stroke-opacity:1" d="M 873.353,97.7891 909.425,97.7891 z" id="boundary" inkscape:connector-curvature="0" />
	<path style="fill:none;stroke:red;stroke-width:1px;stroke-linecap:butt;stroke-linejoin:miter;stroke-opacity:1" d="M 945.498,97.7891 909.425,97.7891 z" id="boundary" inkscape:connector-curvature="0" />
	<path style="fill:none;stroke:red;stroke-width:1px;stroke-linecap:butt;stroke-linejoin:miter;stroke-opacity:1" d="M 945.498,97.7891 981.571,79.7527 z" id="boundary" inkscape:connector-curvature="0" />
	<path style="fill:none;stroke:red;stroke-width:1px;stroke-linecap:butt;stroke-linejoin:miter;stroke-opacity:1" d="M 891.389,166.327 873.353,133.862 z" id="boundary" inkscape:connector-curvature="0" />
	<path style="fill:none;stroke:red;stroke-width:1px;stroke-linecap:butt;stroke-linejoin:miter;stroke-opacity:1" d="M 959.927,32.8582 981.571,79.7527 z" id="boundary" inkscape:connector-curvature="0" />
	<path style="fill:none;stroke:red;stroke-width:1px;stroke-linecap:butt;stroke-linejoin:miter;stroke-opacity:1" d="M 822.851,22.0364 855.316,4 z" id="boundary" inkscape:connector-curvature="0" />
	<path style="fill:none;stroke:red;stroke-width:1px;stroke-linecap:butt;stroke-linejoin:miter;stroke-opacity:1" d="M 664.131,242.08 628.058,242.08 z" id="boundary" inkscape:connector-curvature="0" />
	<path style="fill:none;stroke:red;stroke-width:1px;stroke-linecap:butt;stroke-linejoin:miter;stroke-opacity:1" d="M 696.596,224.044 664.131,242.08 z" id="boundary" inkscape:connector-curvature="0" />
	<path style="fill:none;stroke:red;stroke-width:1px;stroke-linecap:butt;stroke-linejoin:miter;stroke-opacity:1" d="M 732.669,224.044 768.742,224.044 z" id="boundary" inkscape:connector-curvature="0" />
	<path style="fill:none;stroke:red;stroke-width:1px;stroke-linecap:butt;stroke-linejoin:miter;stroke-opacity:1" d="M 732.669,224.044 696.596,224.044 z" id="boundary" inkscape:connector-curvature="0" />
	<path style="fill:none;stroke:red;stroke-width:1px;stroke-linecap:butt;stroke-linejoin:miter;stroke-opacity:1" d="M 519.84,274.545 555.913,260.116 z" id="boundary" inkscape:connector-curvature="0" />
	<path style="fill:none;stroke:red;stroke-width:1px;stroke-linecap:butt;stroke-linejoin:miter;stroke-opacity:1" d="M 555.913,260.116 591.985,256.509 z" id="boundary" inkscape:connector-curvature="0" />
	<path style="fill:none;stroke:red;stroke-width:1px;stroke-linecap:butt;stroke-linejoin:miter;stroke-opacity:1" d="M 591.985,256.509 628.058,242.08 z" id="boundary" inkscape:connector-curvature="0" />
	<path style="fill:none;stroke:red;stroke-width:1px;stroke-linecap:butt;stroke-linejoin:miter;stroke-opacity:1" d="M 837.28,242.08 804.815,224.044 z" id="boundary" inkscape:connector-curvature="0" />
	<path style="fill:none;stroke:red;stroke-width:1px;stroke-linecap:butt;stroke-linejoin:miter;stroke-opacity:1" d="M 804.815,224.044 768.742,224.044 z" id="boundary" inkscape:connector-curvature="0" />
	<path style="fill:none;stroke:red;stroke-width:1px;stroke-linecap:butt;stroke-linejoin:miter;stroke-opacity:1" d="M 923.855,184.364 959.927,184.364 z" id="boundary" inkscape:connector-curvature="0" />
	<path style="fill:none;stroke:red;stroke-width:1px;stroke-linecap:butt;stroke-linejoin:miter;stroke-opacity:1" d="M 923.855,184.364 891.389,166.327 z" id="boundary" inkscape:connector-curvature="0" />
	<path style="fill:none;stroke:red;stroke-width:1px;stroke-linecap:butt;stroke-linejoin:miter;stroke-opacity:1" d="M 996,191.578 959.927,184.364 z" id="boundary" inkscape:connector-curvature="0" />
	<path style="fill:none;stroke:red;stroke-width:1px;stroke-linecap:butt;stroke-linejoin:miter;stroke-opacity:1" d="M 996,191.578 977.964,231.258 z" id="boundary" inkscape:connector-curvature="0" />
	<path style="fill:none;stroke:red;stroke-width:1px;stroke-linecap:butt;stroke-linejoin:miter;stroke-opacity:1" d="M 837.28,242.08 869.745,260.116 z" id="boundary" inkscape:connector-curvature="0" />
	<path style="fill:none;stroke:red;stroke-width:1px;stroke-linecap:butt;stroke-linejoin:miter;stroke-opacity:1" d="M 905.818,260.116 869.745,260.116 z" id="boundary" inkscape:connector-curvature="0" />
	<path style="fill:none;stroke:red;stroke-width:1px;stroke-linecap:butt;stroke-linejoin:miter;stroke-opacity:1" d="M 941.891,249.295 905.818,260.116 z" id="boundary" inkscape:connector-curvature="0" />
	<path style="fill:none;stroke:red;stroke-width:1px;stroke-linecap:butt;stroke-linejoin:miter;stroke-opacity:1" d="M 977.964,231.258 941.891,249.295 z" id="boundary" inkscape:connector-curvature="0" />
	<circle cx="4" cy="213.222" r="4" fill="#0" id="circle0"/>
	<circle cx="4" cy="249.295" r="4" fill="#0" id="circle1"/>
	<circle cx="4" cy="357.513" r="4" fill="#0" id="circle2"/>
	<circle cx="4" cy="393.585" r="4" fill="#0" id="circle3"/>
	<circle cx="32.8582" cy="418.836" r="4" fill="#0" id="circle4"/>
	<circle cx="40.0727" cy="202.4" r="4" fill="#0" id="circle5"/>
	<circle cx="40.0727" cy="260.116" r="4" fill="#0" id="circle6"/>
	<circle cx="40.0727" cy="346.691" r="4" fill="#0" id="circle7"/>
	<circle cx="68.9309" cy="422.444" r="4" fill="#0" id="circle8"/>
	<circle cx="72.5382" cy="278.153" r="4" fill="#0" id="circle9"/>
	<circle cx="76.1455" cy="202.4" r="4" fill="#0" id="circle10"/>
	<circle cx="76.1455" cy="346.691" r="4" fill="#0" id="circle11"/>
	<circle cx="94.1818" cy="307.011" r="4" fill="#0" id="circle12"/>
	<circle cx="105.004" cy="422.444" r="4" fill="#0" id="circle13"/>
	<circle cx="112.218" cy="202.4" r="4" fill="#0" id="circle14"/>
	<circle cx="141.076" cy="418.836" r="4" fill="#0" id="circle15"/>
	<circle cx="148.291" cy="209.615" r="4" fill="#0" id="circle16"/>
	<circle cx="169.935" cy="386.371" r="4" fill="#0" id="circle17"/>
	<circle cx="184.364" cy="220.436" r="4" fill="#0" id="circle18"/>
	<circle cx="206.007" cy="350.298" r="4" fill="#0" id="circle19"/>
	<circle cx="220.436" cy="220.436" r="4" fill="#0" id="circle20"/>
	<circle cx="242.08" cy="332.262" r="4" fill="#0" id="circle21"/>
	<circle cx="256.509" cy="220.436" r="4" fill="#0" id="circle22"/>
	<circle cx="278.153" cy="332.262" r="4" fill="#0" id="circle23"/>
	<circle cx="292.582" cy="220.436" r="4" fill="#0" id="circle24"/>
	<circle cx="310.618" cy="314.225" r="4" fill="#0" id="circle25"/>
	<circle cx="328.655" cy="213.222" r="4" fill="#0" id="circle26"/>
	<circle cx="346.691" cy="314.225" r="4" fill="#0" id="circle27"/>
	<circle cx="364.727" cy="202.4" r="4" fill="#0" id="circle28"/>
	<circle cx="379.156" cy="296.189" r="4" fill="#0" id="circle29"/>
	<circle cx="400.8" cy="202.4" r="4" fill="#0" id="circle30"/>
	<circle cx="415.229" cy="296.189" r="4" fill="#0" id="circle31"/>
	<circle cx="433.265" cy="184.364" r="4" fill="#0" id="circle32"/>
	<circle cx="447.695" cy="278.153" r="4" fill="#0" id="circle33"/>
	<circle cx="469.338" cy="184.364" r="4" fill="#0" id="circle34"/>
	<circle cx="483.767" cy="278.153" r="4" fill="#0" id="circle35"/>
	<circle cx="505.411" cy="184.364" r="4" fill="#0" id="circle36"/>
	<circle cx="519.84" cy="274.545" r="4" fill="#0" id="circle37"/>
	<circle cx="537.876" cy="166.327" r="4" fill="#0" id="circle38"/>
	<circle cx="555.913" cy="260.116" r="4" fill="#0" id="circle39"/>
	<circle cx="573.949" cy="166.327" r="4" fill="#0" id="circle40"/>
	<circle cx="591.985" cy="256.509" r="4" fill="#0" id="circle41"/>
	<circle cx="606.415" cy="148.291" r="4" fill="#0" id="circle42"/>
	<circle cx="628.058" cy="242.08" r="4" fill="#0" id="circle43"/>
	<circle cx="642.487" cy="148.291" r="4" fill="#0" id="circle44"/>
	<circle cx="664.131" cy="242.08" r="4" fill="#0" id="circle45"/>
	<circle cx="678.56" cy="133.862" r="4" fill="#0" id="circle46"/>
	<circle cx="696.596" cy="224.044" r="4" fill="#0" id="circle47"/>
	<circle cx="714.633" cy="130.255" r="4" fill="#0" id="circle48"/>
	<circle cx="732.669" cy="224.044" r="4" fill="#0" id="circle49"/>
	<circle cx="743.491" cy="105.004" r="4" fill="#0" id="circle50"/>
	<circle cx="768.742" cy="224.044" r="4" fill="#0" id="circle51"/>
	<circle cx="772.349" cy="76.1455" r="4" fill="#0" id="circle52"/>
	<circle cx="790.385" cy="40.0727" r="4" fill="#0" id="circle53"/>
	<circle cx="804.815" cy="224.044" r="4" fill="#0" id="circle54"/>
	<circle cx="822.851" cy="22.0364" r="4" fill="#0" id="circle55"/>
	<circle cx="837.28" cy="242.08" r="4" fill="#0" id="circle56"/>
	<circle cx="855.316" cy="4" r="4" fill="#0" id="circle57"/>
	<circle cx="869.745" cy="260.116" r="4" fill="#0" id="circle58"/>
	<circle cx="873.353" cy="97.7891" r="4" fill="#0" id="circle59"/>
	<circle cx="873.353" cy="133.862" r="4" fill="#0" id="circle60"/>
	<circle cx="891.389" cy="4" r="4" fill="#0" id="circle61"/>
	<circle cx="891.389" cy="166.327" r="4" fill="#0" id="circle62"/>
	<circle cx="905.818" cy="260.116" r="4" fill="#0" id="circle63"/>
	<circle cx="909.425" cy="97.7891" r="4" fill="#0" id="circle64"/>
	<circle cx="923.855" cy="184.364" r="4" fill="#0" id="circle65"/>
	<circle cx="927.462" cy="14.8218" r="4" fill="#0" id="circle66"/>
	<circle cx="941.891" cy="249.295" r="4" fill="#0" id="circle67"/>
	<circle cx="945.498" cy="97.7891" r="4" fill="#0" id="circle68"/>
	<circle cx="959.927" cy="32.8582" r="4" fill="#0" id="circle69"/>
	<circle cx="959.927" cy="184.364" r="4" fill="#0" id="circle70"/>
	<circle cx="977.964" cy="231.258" r="4" fill="#0" id="circle71"/>
	<circle cx="981.571" cy="79.7527" r="4" fill="#0" id="circle72"/>
	<circle cx="996" cy="191.578" r="4" fill="#0" id="circle73"/>
	</g>
</svg>