<?xml version="1.0" encoding="UTF-8" standalone="no"?>
<!-- Created with CurveBenchmark -->
<svg
	xmlns:dc="http://purl.org/dc/elements/1.1/"
	xmlns:cc="http://creativecommons.org/ns#"
	xmlns:rdf="http://www.w3.org/1999/02/22-rdf-syntax-ns#"
	xmlns:svg="http://www.w3.org/2000/svg"
	xmlns="http://www.w3.org/2000/svg"
	xmlns:sodipodi="http://sodipodi.sourceforge.net/DTD/sodipodi-0.dtd"
	xmlns:inkscape="http://www.inkscape.org/namespaces/inkscape"
	width="1000"
	height="1000"
	id="svg2"
	version="1.1"
	sodipodi:docname="manifold/gathang-car-08.png.txt">
<defs
	id="defs4" />
<metadata
	id="metadata7">
	<rdf:RDF>
		<cc:Work
			rdf:about="">
			<dc:format>image/svg+xml</dc:format>
			<dc:type
				rdf:resource="http://purl.org/dc/dcmitype/StillImage" />
			<dc:title></dc:title>
		</cc:Work>
	</rdf:RDF>
</metadata>
<g
	inkscape:label="Layer 1"
	inkscape:groupmode="layer"
	id="layer1">
	<path style="fill:none;stroke:red;stroke-width:1px;stroke-linecap:butt;stroke-linejoin:miter;stroke-opacity:1" d="M 103.629,164.691 114.341,164.691 z" id="boundary" inkscape:connector-curvature="0" />
	<path style="fill:none;stroke:red;stroke-width:1px;stroke-linecap:butt;stroke-linejoin:miter;stroke-opacity:1" d="M 92.9158,170.048 103.629,164.691 z" id="boundary" inkscape:connector-curvature="0" />
	<path style="fill:none;stroke:red;stroke-width:1px;stroke-linecap:butt;stroke-linejoin:miter;stroke-opacity:1" d="M 125.054,164.691 114.341,164.691 z" id="boundary" inkscape:connector-curvature="0" />
	<path style="fill:none;stroke:red;stroke-width:1px;stroke-linecap:butt;stroke-linejoin:miter;stroke-opacity:1" d="M 135.767,164.691 125.054,164.691 z" id="boundary" inkscape:connector-curvature="0" />
	<path style="fill:none;stroke:red;stroke-width:1px;stroke-linecap:butt;stroke-linejoin:miter;stroke-opacity:1" d="M 157.192,164.691 146.479,164.691 z" id="boundary" inkscape:connector-curvature="0" />
	<path style="fill:none;stroke:red;stroke-width:1px;stroke-linecap:butt;stroke-linejoin:miter;stroke-opacity:1" d="M 178.618,164.691 167.905,164.691 z" id="boundary" inkscape:connector-curvature="0" />
	<path style="fill:none;stroke:red;stroke-width:1px;stroke-linecap:butt;stroke-linejoin:miter;stroke-opacity:1" d="M 167.905,164.691 157.192,164.691 z" id="boundary" inkscape:connector-curvature="0" />
	<path style="fill:none;stroke:red;stroke-width:1px;stroke-linecap:butt;stroke-linejoin:miter;stroke-opacity:1" d="M 135.767,164.691 146.479,164.691 z" id="boundary" inkscape:connector-curvature="0" />
	<path style="fill:none;stroke:red;stroke-width:1px;stroke-linecap:butt;stroke-linejoin:miter;stroke-opacity:1" d="M 200.043,164.691 189.33,164.691 z" id="boundary" inkscape:connector-curvature="0" />
	<path style="fill:none;stroke:red;stroke-width:1px;stroke-linecap:butt;stroke-linejoin:miter;stroke-opacity:1" d="M 210.756,164.691 200.043,164.691 z" id="boundary" inkscape:connector-curvature="0" />
	<path style="fill:none;stroke:red;stroke-width:1px;stroke-linecap:butt;stroke-linejoin:miter;stroke-opacity:1" d="M 264.32,159.335 253.607,159.335 z" id="boundary" inkscape:connector-curvature="0" />
	<path style="fill:none;stroke:red;stroke-width:1px;stroke-linecap:butt;stroke-linejoin:miter;stroke-opacity:1" d="M 269.676,148.622 264.32,159.335 z" id="boundary" inkscape:connector-curvature="0" />
	<path style="fill:none;stroke:red;stroke-width:1px;stroke-linecap:butt;stroke-linejoin:miter;stroke-opacity:1" d="M 189.33,164.691 178.618,164.691 z" id="boundary" inkscape:connector-curvature="0" />
	<path style="fill:none;stroke:red;stroke-width:1px;stroke-linecap:butt;stroke-linejoin:miter;stroke-opacity:1" d="M 242.894,164.691 232.181,164.691 z" id="boundary" inkscape:connector-curvature="0" />
	<path style="fill:none;stroke:red;stroke-width:1px;stroke-linecap:butt;stroke-linejoin:miter;stroke-opacity:1" d="M 253.607,159.335 242.894,164.691 z" id="boundary" inkscape:connector-curvature="0" />
	<path style="fill:none;stroke:red;stroke-width:1px;stroke-linecap:butt;stroke-linejoin:miter;stroke-opacity:1" d="M 221.469,164.691 210.756,164.691 z" id="boundary" inkscape:connector-curvature="0" />
	<path style="fill:none;stroke:red;stroke-width:1px;stroke-linecap:butt;stroke-linejoin:miter;stroke-opacity:1" d="M 232.181,164.691 221.469,164.691 z" id="boundary" inkscape:connector-curvature="0" />
	<path style="fill:none;stroke:red;stroke-width:1px;stroke-linecap:butt;stroke-linejoin:miter;stroke-opacity:1" d="M 33.9957,218.255 29.7106,228.968 z" id="boundary" inkscape:connector-curvature="0" />
	<path style="fill:none;stroke:red;stroke-width:1px;stroke-linecap:butt;stroke-linejoin:miter;stroke-opacity:1" d="M 29.7106,228.968 21.1404,236.467 z" id="boundary" inkscape:connector-curvature="0" />
	<path style="fill:none;stroke:red;stroke-width:1px;stroke-linecap:butt;stroke-linejoin:miter;stroke-opacity:1" d="M 36.1382,205.4 33.9957,218.255 z" id="boundary" inkscape:connector-curvature="0" />
	<path style="fill:none;stroke:red;stroke-width:1px;stroke-linecap:butt;stroke-linejoin:miter;stroke-opacity:1" d="M 14.7127,283.603 9.35637,273.961 z" id="boundary" inkscape:connector-curvature="0" />
	<path style="fill:none;stroke:red;stroke-width:1px;stroke-linecap:butt;stroke-linejoin:miter;stroke-opacity:1" d="M 4,264.32 4,253.607 z" id="boundary" inkscape:connector-curvature="0" />
	<path style="fill:none;stroke:red;stroke-width:1px;stroke-linecap:butt;stroke-linejoin:miter;stroke-opacity:1" d="M 4,253.607 12.5702,245.037 z" id="boundary" inkscape:connector-curvature="0" />
	<path style="fill:none;stroke:red;stroke-width:1px;stroke-linecap:butt;stroke-linejoin:miter;stroke-opacity:1" d="M 12.5702,245.037 21.1404,236.467 z" id="boundary" inkscape:connector-curvature="0" />
	<path style="fill:none;stroke:red;stroke-width:1px;stroke-linecap:butt;stroke-linejoin:miter;stroke-opacity:1" d="M 9.35637,273.961 4,264.32 z" id="boundary" inkscape:connector-curvature="0" />
	<path style="fill:none;stroke:red;stroke-width:1px;stroke-linecap:butt;stroke-linejoin:miter;stroke-opacity:1" d="M 71.4903,175.404 82.203,170.048 z" id="boundary" inkscape:connector-curvature="0" />
	<path style="fill:none;stroke:red;stroke-width:1px;stroke-linecap:butt;stroke-linejoin:miter;stroke-opacity:1" d="M 82.203,170.048 92.9158,170.048 z" id="boundary" inkscape:connector-curvature="0" />
	<path style="fill:none;stroke:red;stroke-width:1px;stroke-linecap:butt;stroke-linejoin:miter;stroke-opacity:1" d="M 36.1382,205.4 41.4946,194.687 z" id="boundary" inkscape:connector-curvature="0" />
	<path style="fill:none;stroke:red;stroke-width:1px;stroke-linecap:butt;stroke-linejoin:miter;stroke-opacity:1" d="M 41.4946,194.687 50.0648,186.117 z" id="boundary" inkscape:connector-curvature="0" />
	<path style="fill:none;stroke:red;stroke-width:1px;stroke-linecap:butt;stroke-linejoin:miter;stroke-opacity:1" d="M 50.0648,186.117 60.7775,180.76 z" id="boundary" inkscape:connector-curvature="0" />
	<path style="fill:none;stroke:red;stroke-width:1px;stroke-linecap:butt;stroke-linejoin:miter;stroke-opacity:1" d="M 60.7775,180.76 71.4903,175.404 z" id="boundary" inkscape:connector-curvature="0" />
	<path style="fill:none;stroke:red;stroke-width:1px;stroke-linecap:butt;stroke-linejoin:miter;stroke-opacity:1" d="M 354.307,100.415 343.594,100.415 z" id="boundary" inkscape:connector-curvature="0" />
	<path style="fill:none;stroke:red;stroke-width:1px;stroke-linecap:butt;stroke-linejoin:miter;stroke-opacity:1" d="M 448.579,33.9957 443.222,44.7084 z" id="boundary" inkscape:connector-curvature="0" />
	<path style="fill:none;stroke:red;stroke-width:1px;stroke-linecap:butt;stroke-linejoin:miter;stroke-opacity:1" d="M 443.222,55.4212 443.222,44.7084 z" id="boundary" inkscape:connector-curvature="0" />
	<path style="fill:none;stroke:red;stroke-width:1px;stroke-linecap:butt;stroke-linejoin:miter;stroke-opacity:1" d="M 354.307,100.415 365.019,100.415 z" id="boundary" inkscape:connector-curvature="0" />
	<path style="fill:none;stroke:red;stroke-width:1px;stroke-linecap:butt;stroke-linejoin:miter;stroke-opacity:1" d="M 375.732,100.415 386.445,100.415 z" id="boundary" inkscape:connector-curvature="0" />
	<path style="fill:none;stroke:red;stroke-width:1px;stroke-linecap:butt;stroke-linejoin:miter;stroke-opacity:1" d="M 386.445,100.415 395.015,107.914 z" id="boundary" inkscape:connector-curvature="0" />
	<path style="fill:none;stroke:red;stroke-width:1px;stroke-linecap:butt;stroke-linejoin:miter;stroke-opacity:1" d="M 375.732,100.415 365.019,100.415 z" id="boundary" inkscape:connector-curvature="0" />
	<path style="fill:none;stroke:red;stroke-width:1px;stroke-linecap:butt;stroke-linejoin:miter;stroke-opacity:1" d="M 443.222,55.4212 443.222,66.1339 z" id="boundary" inkscape:connector-curvature="0" />
	<path style="fill:none;stroke:red;stroke-width:1px;stroke-linecap:butt;stroke-linejoin:miter;stroke-opacity:1" d="M 333.952,105.771 343.594,100.415 z" id="boundary" inkscape:connector-curvature="0" />
	<path style="fill:none;stroke:red;stroke-width:1px;stroke-linecap:butt;stroke-linejoin:miter;stroke-opacity:1" d="M 457.149,25.4255 448.579,33.9957 z" id="boundary" inkscape:connector-curvature="0" />
	<path style="fill:none;stroke:red;stroke-width:1px;stroke-linecap:butt;stroke-linejoin:miter;stroke-opacity:1" d="M 465.719,16.8553 476.432,11.4989 z" id="boundary" inkscape:connector-curvature="0" />
	<path style="fill:none;stroke:red;stroke-width:1px;stroke-linecap:butt;stroke-linejoin:miter;stroke-opacity:1" d="M 457.149,25.4255 465.719,16.8553 z" id="boundary" inkscape:connector-curvature="0" />
	<path style="fill:none;stroke:red;stroke-width:1px;stroke-linecap:butt;stroke-linejoin:miter;stroke-opacity:1" d="M 443.222,66.1339 443.222,76.8467 z" id="boundary" inkscape:connector-curvature="0" />
	<path style="fill:none;stroke:red;stroke-width:1px;stroke-linecap:butt;stroke-linejoin:miter;stroke-opacity:1" d="M 443.222,76.8467 443.222,87.5594 z" id="boundary" inkscape:connector-curvature="0" />
	<path style="fill:none;stroke:red;stroke-width:1px;stroke-linecap:butt;stroke-linejoin:miter;stroke-opacity:1" d="M 443.222,98.2721 443.222,87.5594 z" id="boundary" inkscape:connector-curvature="0" />
	<path style="fill:none;stroke:red;stroke-width:1px;stroke-linecap:butt;stroke-linejoin:miter;stroke-opacity:1" d="M 443.222,108.985 443.222,98.2721 z" id="boundary" inkscape:connector-curvature="0" />
	<path style="fill:none;stroke:red;stroke-width:1px;stroke-linecap:butt;stroke-linejoin:miter;stroke-opacity:1" d="M 325.382,114.341 316.812,128.268 z" id="boundary" inkscape:connector-curvature="0" />
	<path style="fill:none;stroke:red;stroke-width:1px;stroke-linecap:butt;stroke-linejoin:miter;stroke-opacity:1" d="M 333.952,105.771 325.382,114.341 z" id="boundary" inkscape:connector-curvature="0" />
	<path style="fill:none;stroke:red;stroke-width:1px;stroke-linecap:butt;stroke-linejoin:miter;stroke-opacity:1" d="M 299.672,137.909 288.959,137.909 z" id="boundary" inkscape:connector-curvature="0" />
	<path style="fill:none;stroke:red;stroke-width:1px;stroke-linecap:butt;stroke-linejoin:miter;stroke-opacity:1" d="M 288.959,137.909 279.317,143.266 z" id="boundary" inkscape:connector-curvature="0" />
	<path style="fill:none;stroke:red;stroke-width:1px;stroke-linecap:butt;stroke-linejoin:miter;stroke-opacity:1" d="M 299.672,137.909 310.384,137.909 z" id="boundary" inkscape:connector-curvature="0" />
	<path style="fill:none;stroke:red;stroke-width:1px;stroke-linecap:butt;stroke-linejoin:miter;stroke-opacity:1" d="M 316.812,128.268 310.384,137.909 z" id="boundary" inkscape:connector-curvature="0" />
	<path style="fill:none;stroke:red;stroke-width:1px;stroke-linecap:butt;stroke-linejoin:miter;stroke-opacity:1" d="M 279.317,143.266 269.676,148.622 z" id="boundary" inkscape:connector-curvature="0" />
	<path style="fill:none;stroke:red;stroke-width:1px;stroke-linecap:butt;stroke-linejoin:miter;stroke-opacity:1" d="M 401.443,116.484 395.015,107.914 z" id="boundary" inkscape:connector-curvature="0" />
	<path style="fill:none;stroke:red;stroke-width:1px;stroke-linecap:butt;stroke-linejoin:miter;stroke-opacity:1" d="M 401.443,116.484 401.443,127.197 z" id="boundary" inkscape:connector-curvature="0" />
	<path style="fill:none;stroke:red;stroke-width:1px;stroke-linecap:butt;stroke-linejoin:miter;stroke-opacity:1" d="M 412.156,127.197 401.443,127.197 z" id="boundary" inkscape:connector-curvature="0" />
	<path style="fill:none;stroke:red;stroke-width:1px;stroke-linecap:butt;stroke-linejoin:miter;stroke-opacity:1" d="M 412.156,127.197 422.868,127.197 z" id="boundary" inkscape:connector-curvature="0" />
	<path style="fill:none;stroke:red;stroke-width:1px;stroke-linecap:butt;stroke-linejoin:miter;stroke-opacity:1" d="M 433.581,123.983 422.868,127.197 z" id="boundary" inkscape:connector-curvature="0" />
	<path style="fill:none;stroke:red;stroke-width:1px;stroke-linecap:butt;stroke-linejoin:miter;stroke-opacity:1" d="M 443.222,108.985 433.581,123.983 z" id="boundary" inkscape:connector-curvature="0" />
	<path style="fill:none;stroke:red;stroke-width:1px;stroke-linecap:butt;stroke-linejoin:miter;stroke-opacity:1" d="M 487.145,6.14255 476.432,11.4989 z" id="boundary" inkscape:connector-curvature="0" />
	<path style="fill:none;stroke:red;stroke-width:1px;stroke-linecap:butt;stroke-linejoin:miter;stroke-opacity:1" d="M 20.0691,293.244 14.7127,283.603 z" id="boundary" inkscape:connector-curvature="0" />
	<path style="fill:none;stroke:red;stroke-width:1px;stroke-linecap:butt;stroke-linejoin:miter;stroke-opacity:1" d="M 30.7819,312.527 26.4968,301.814 z" id="boundary" inkscape:connector-curvature="0" />
	<path style="fill:none;stroke:red;stroke-width:1px;stroke-linecap:butt;stroke-linejoin:miter;stroke-opacity:1" d="M 20.0691,293.244 26.4968,301.814 z" id="boundary" inkscape:connector-curvature="0" />
	<path style="fill:none;stroke:red;stroke-width:1px;stroke-linecap:butt;stroke-linejoin:miter;stroke-opacity:1" d="M 30.7819,312.527 30.7819,323.24 z" id="boundary" inkscape:connector-curvature="0" />
	<path style="fill:none;stroke:red;stroke-width:1px;stroke-linecap:butt;stroke-linejoin:miter;stroke-opacity:1" d="M 30.7819,333.952 30.7819,323.24 z" id="boundary" inkscape:connector-curvature="0" />
	<path style="fill:none;stroke:red;stroke-width:1px;stroke-linecap:butt;stroke-linejoin:miter;stroke-opacity:1" d="M 30.7819,333.952 30.7819,344.665 z" id="boundary" inkscape:connector-curvature="0" />
	<path style="fill:none;stroke:red;stroke-width:1px;stroke-linecap:butt;stroke-linejoin:miter;stroke-opacity:1" d="M 190.402,428.225 179.689,428.225 z" id="boundary" inkscape:connector-curvature="0" />
	<path style="fill:none;stroke:red;stroke-width:1px;stroke-linecap:butt;stroke-linejoin:miter;stroke-opacity:1" d="M 30.7819,344.665 30.7819,355.378 z" id="boundary" inkscape:connector-curvature="0" />
	<path style="fill:none;stroke:red;stroke-width:1px;stroke-linecap:butt;stroke-linejoin:miter;stroke-opacity:1" d="M 30.7819,355.378 30.7819,366.091 z" id="boundary" inkscape:connector-curvature="0" />
	<path style="fill:none;stroke:red;stroke-width:1px;stroke-linecap:butt;stroke-linejoin:miter;stroke-opacity:1" d="M 30.7819,376.803 30.7819,387.516 z" id="boundary" inkscape:connector-curvature="0" />
	<path style="fill:none;stroke:red;stroke-width:1px;stroke-linecap:butt;stroke-linejoin:miter;stroke-opacity:1" d="M 30.7819,376.803 30.7819,366.091 z" id="boundary" inkscape:connector-curvature="0" />
	<path style="fill:none;stroke:red;stroke-width:1px;stroke-linecap:butt;stroke-linejoin:miter;stroke-opacity:1" d="M 36.1382,397.158 46.851,401.443 z" id="boundary" inkscape:connector-curvature="0" />
	<path style="fill:none;stroke:red;stroke-width:1px;stroke-linecap:butt;stroke-linejoin:miter;stroke-opacity:1" d="M 46.851,401.443 46.851,412.156 z" id="boundary" inkscape:connector-curvature="0" />
	<path style="fill:none;stroke:red;stroke-width:1px;stroke-linecap:butt;stroke-linejoin:miter;stroke-opacity:1" d="M 36.1382,397.158 30.7819,387.516 z" id="boundary" inkscape:connector-curvature="0" />
	<path style="fill:none;stroke:red;stroke-width:1px;stroke-linecap:butt;stroke-linejoin:miter;stroke-opacity:1" d="M 46.851,412.156 46.851,422.868 z" id="boundary" inkscape:connector-curvature="0" />
	<path style="fill:none;stroke:red;stroke-width:1px;stroke-linecap:butt;stroke-linejoin:miter;stroke-opacity:1" d="M 52.2073,432.51 46.851,422.868 z" id="boundary" inkscape:connector-curvature="0" />
	<path style="fill:none;stroke:red;stroke-width:1px;stroke-linecap:butt;stroke-linejoin:miter;stroke-opacity:1" d="M 76.8467,449.65 66.1339,449.65 z" id="boundary" inkscape:connector-curvature="0" />
	<path style="fill:none;stroke:red;stroke-width:1px;stroke-linecap:butt;stroke-linejoin:miter;stroke-opacity:1" d="M 66.1339,449.65 58.635,441.08 z" id="boundary" inkscape:connector-curvature="0" />
	<path style="fill:none;stroke:red;stroke-width:1px;stroke-linecap:butt;stroke-linejoin:miter;stroke-opacity:1" d="M 58.635,441.08 52.2073,432.51 z" id="boundary" inkscape:connector-curvature="0" />
	<path style="fill:none;stroke:red;stroke-width:1px;stroke-linecap:butt;stroke-linejoin:miter;stroke-opacity:1" d="M 76.8467,449.65 86.4881,455.006 z" id="boundary" inkscape:connector-curvature="0" />
	<path style="fill:none;stroke:red;stroke-width:1px;stroke-linecap:butt;stroke-linejoin:miter;stroke-opacity:1" d="M 97.2009,455.006 86.4881,455.006 z" id="boundary" inkscape:connector-curvature="0" />
	<path style="fill:none;stroke:red;stroke-width:1px;stroke-linecap:butt;stroke-linejoin:miter;stroke-opacity:1" d="M 97.2009,455.006 107.914,455.006 z" id="boundary" inkscape:connector-curvature="0" />
	<path style="fill:none;stroke:red;stroke-width:1px;stroke-linecap:butt;stroke-linejoin:miter;stroke-opacity:1" d="M 149.693,438.937 158.263,431.438 z" id="boundary" inkscape:connector-curvature="0" />
	<path style="fill:none;stroke:red;stroke-width:1px;stroke-linecap:butt;stroke-linejoin:miter;stroke-opacity:1" d="M 158.263,431.438 168.976,428.225 z" id="boundary" inkscape:connector-curvature="0" />
	<path style="fill:none;stroke:red;stroke-width:1px;stroke-linecap:butt;stroke-linejoin:miter;stroke-opacity:1" d="M 168.976,428.225 179.689,428.225 z" id="boundary" inkscape:connector-curvature="0" />
	<path style="fill:none;stroke:red;stroke-width:1px;stroke-linecap:butt;stroke-linejoin:miter;stroke-opacity:1" d="M 118.626,455.006 129.339,455.006 z" id="boundary" inkscape:connector-curvature="0" />
	<path style="fill:none;stroke:red;stroke-width:1px;stroke-linecap:butt;stroke-linejoin:miter;stroke-opacity:1" d="M 138.981,449.65 129.339,455.006 z" id="boundary" inkscape:connector-curvature="0" />
	<path style="fill:none;stroke:red;stroke-width:1px;stroke-linecap:butt;stroke-linejoin:miter;stroke-opacity:1" d="M 138.981,449.65 149.693,438.937 z" id="boundary" inkscape:connector-curvature="0" />
	<path style="fill:none;stroke:red;stroke-width:1px;stroke-linecap:butt;stroke-linejoin:miter;stroke-opacity:1" d="M 118.626,455.006 107.914,455.006 z" id="boundary" inkscape:connector-curvature="0" />
	<path style="fill:none;stroke:red;stroke-width:1px;stroke-linecap:butt;stroke-linejoin:miter;stroke-opacity:1" d="M 190.402,428.225 201.114,428.225 z" id="boundary" inkscape:connector-curvature="0" />
	<path style="fill:none;stroke:red;stroke-width:1px;stroke-linecap:butt;stroke-linejoin:miter;stroke-opacity:1" d="M 211.827,428.225 222.54,428.225 z" id="boundary" inkscape:connector-curvature="0" />
	<path style="fill:none;stroke:red;stroke-width:1px;stroke-linecap:butt;stroke-linejoin:miter;stroke-opacity:1" d="M 211.827,428.225 201.114,428.225 z" id="boundary" inkscape:connector-curvature="0" />
	<path style="fill:none;stroke:red;stroke-width:1px;stroke-linecap:butt;stroke-linejoin:miter;stroke-opacity:1" d="M 222.54,428.225 233.253,428.225 z" id="boundary" inkscape:connector-curvature="0" />
	<path style="fill:none;stroke:red;stroke-width:1px;stroke-linecap:butt;stroke-linejoin:miter;stroke-opacity:1" d="M 243.965,428.225 254.678,428.225 z" id="boundary" inkscape:connector-curvature="0" />
	<path style="fill:none;stroke:red;stroke-width:1px;stroke-linecap:butt;stroke-linejoin:miter;stroke-opacity:1" d="M 254.678,428.225 265.391,428.225 z" id="boundary" inkscape:connector-curvature="0" />
	<path style="fill:none;stroke:red;stroke-width:1px;stroke-linecap:butt;stroke-linejoin:miter;stroke-opacity:1" d="M 243.965,428.225 233.253,428.225 z" id="boundary" inkscape:connector-curvature="0" />
	<path style="fill:none;stroke:red;stroke-width:1px;stroke-linecap:butt;stroke-linejoin:miter;stroke-opacity:1" d="M 276.104,428.225 286.816,428.225 z" id="boundary" inkscape:connector-curvature="0" />
	<path style="fill:none;stroke:red;stroke-width:1px;stroke-linecap:butt;stroke-linejoin:miter;stroke-opacity:1" d="M 276.104,428.225 265.391,428.225 z" id="boundary" inkscape:connector-curvature="0" />
	<path style="fill:none;stroke:red;stroke-width:1px;stroke-linecap:butt;stroke-linejoin:miter;stroke-opacity:1" d="M 297.529,428.225 308.242,428.225 z" id="boundary" inkscape:connector-curvature="0" />
	<path style="fill:none;stroke:red;stroke-width:1px;stroke-linecap:butt;stroke-linejoin:miter;stroke-opacity:1" d="M 297.529,428.225 286.816,428.225 z" id="boundary" inkscape:connector-curvature="0" />
	<path style="fill:none;stroke:red;stroke-width:1px;stroke-linecap:butt;stroke-linejoin:miter;stroke-opacity:1" d="M 318.955,428.225 329.667,428.225 z" id="boundary" inkscape:connector-curvature="0" />
	<path style="fill:none;stroke:red;stroke-width:1px;stroke-linecap:butt;stroke-linejoin:miter;stroke-opacity:1" d="M 318.955,428.225 308.242,428.225 z" id="boundary" inkscape:connector-curvature="0" />
	<path style="fill:none;stroke:red;stroke-width:1px;stroke-linecap:butt;stroke-linejoin:miter;stroke-opacity:1" d="M 340.38,428.225 351.093,428.225 z" id="boundary" inkscape:connector-curvature="0" />
	<path style="fill:none;stroke:red;stroke-width:1px;stroke-linecap:butt;stroke-linejoin:miter;stroke-opacity:1" d="M 340.38,428.225 329.667,428.225 z" id="boundary" inkscape:connector-curvature="0" />
	<path style="fill:none;stroke:red;stroke-width:1px;stroke-linecap:butt;stroke-linejoin:miter;stroke-opacity:1" d="M 361.806,428.225 372.518,428.225 z" id="boundary" inkscape:connector-curvature="0" />
	<path style="fill:none;stroke:red;stroke-width:1px;stroke-linecap:butt;stroke-linejoin:miter;stroke-opacity:1" d="M 361.806,428.225 351.093,428.225 z" id="boundary" inkscape:connector-curvature="0" />
	<path style="fill:none;stroke:red;stroke-width:1px;stroke-linecap:butt;stroke-linejoin:miter;stroke-opacity:1" d="M 372.518,428.225 383.231,428.225 z" id="boundary" inkscape:connector-curvature="0" />
	<path style="fill:none;stroke:red;stroke-width:1px;stroke-linecap:butt;stroke-linejoin:miter;stroke-opacity:1" d="M 393.944,428.225 403.585,433.581 z" id="boundary" inkscape:connector-curvature="0" />
	<path style="fill:none;stroke:red;stroke-width:1px;stroke-linecap:butt;stroke-linejoin:miter;stroke-opacity:1" d="M 403.585,433.581 405.728,444.294 z" id="boundary" inkscape:connector-curvature="0" />
	<path style="fill:none;stroke:red;stroke-width:1px;stroke-linecap:butt;stroke-linejoin:miter;stroke-opacity:1" d="M 411.084,453.935 405.728,444.294 z" id="boundary" inkscape:connector-curvature="0" />
	<path style="fill:none;stroke:red;stroke-width:1px;stroke-linecap:butt;stroke-linejoin:miter;stroke-opacity:1" d="M 383.231,428.225 393.944,428.225 z" id="boundary" inkscape:connector-curvature="0" />
	<path style="fill:none;stroke:red;stroke-width:1px;stroke-linecap:butt;stroke-linejoin:miter;stroke-opacity:1" d="M 411.084,453.935 411.084,464.648 z" id="boundary" inkscape:connector-curvature="0" />
	<path style="fill:none;stroke:red;stroke-width:1px;stroke-linecap:butt;stroke-linejoin:miter;stroke-opacity:1" d="M 411.084,464.648 416.441,474.289 z" id="boundary" inkscape:connector-curvature="0" />
	<path style="fill:none;stroke:red;stroke-width:1px;stroke-linecap:butt;stroke-linejoin:miter;stroke-opacity:1" d="M 425.011,481.788 434.652,487.145 z" id="boundary" inkscape:connector-curvature="0" />
	<path style="fill:none;stroke:red;stroke-width:1px;stroke-linecap:butt;stroke-linejoin:miter;stroke-opacity:1" d="M 445.365,487.145 434.652,487.145 z" id="boundary" inkscape:connector-curvature="0" />
	<path style="fill:none;stroke:red;stroke-width:1px;stroke-linecap:butt;stroke-linejoin:miter;stroke-opacity:1" d="M 425.011,481.788 416.441,474.289 z" id="boundary" inkscape:connector-curvature="0" />
	<path style="fill:none;stroke:red;stroke-width:1px;stroke-linecap:butt;stroke-linejoin:miter;stroke-opacity:1" d="M 445.365,487.145 456.078,490.359 z" id="boundary" inkscape:connector-curvature="0" />
	<path style="fill:none;stroke:red;stroke-width:1px;stroke-linecap:butt;stroke-linejoin:miter;stroke-opacity:1" d="M 477.503,492.501 466.79,492.501 z" id="boundary" inkscape:connector-curvature="0" />
	<path style="fill:none;stroke:red;stroke-width:1px;stroke-linecap:butt;stroke-linejoin:miter;stroke-opacity:1" d="M 466.79,492.501 456.078,490.359 z" id="boundary" inkscape:connector-curvature="0" />
	<path style="fill:none;stroke:red;stroke-width:1px;stroke-linecap:butt;stroke-linejoin:miter;stroke-opacity:1" d="M 497.857,4 508.57,4 z" id="boundary" inkscape:connector-curvature="0" />
	<path style="fill:none;stroke:red;stroke-width:1px;stroke-linecap:butt;stroke-linejoin:miter;stroke-opacity:1" d="M 508.57,4 519.283,4 z" id="boundary" inkscape:connector-curvature="0" />
	<path style="fill:none;stroke:red;stroke-width:1px;stroke-linecap:butt;stroke-linejoin:miter;stroke-opacity:1" d="M 519.283,4 529.996,4 z" id="boundary" inkscape:connector-curvature="0" />
	<path style="fill:none;stroke:red;stroke-width:1px;stroke-linecap:butt;stroke-linejoin:miter;stroke-opacity:1" d="M 529.996,4 540.708,7.21382 z" id="boundary" inkscape:connector-curvature="0" />
	<path style="fill:none;stroke:red;stroke-width:1px;stroke-linecap:butt;stroke-linejoin:miter;stroke-opacity:1" d="M 540.708,7.21382 551.421,9.35637 z" id="boundary" inkscape:connector-curvature="0" />
	<path style="fill:none;stroke:red;stroke-width:1px;stroke-linecap:butt;stroke-linejoin:miter;stroke-opacity:1" d="M 551.421,9.35637 562.134,12.5702 z" id="boundary" inkscape:connector-curvature="0" />
	<path style="fill:none;stroke:red;stroke-width:1px;stroke-linecap:butt;stroke-linejoin:miter;stroke-opacity:1" d="M 562.134,12.5702 572.847,14.7127 z" id="boundary" inkscape:connector-curvature="0" />
	<path style="fill:none;stroke:red;stroke-width:1px;stroke-linecap:butt;stroke-linejoin:miter;stroke-opacity:1" d="M 583.559,14.7127 572.847,14.7127 z" id="boundary" inkscape:connector-curvature="0" />
	<path style="fill:none;stroke:red;stroke-width:1px;stroke-linecap:butt;stroke-linejoin:miter;stroke-opacity:1" d="M 583.559,14.7127 594.272,17.9266 z" id="boundary" inkscape:connector-curvature="0" />
	<path style="fill:none;stroke:red;stroke-width:1px;stroke-linecap:butt;stroke-linejoin:miter;stroke-opacity:1" d="M 594.272,17.9266 604.985,20.0691 z" id="boundary" inkscape:connector-curvature="0" />
	<path style="fill:none;stroke:red;stroke-width:1px;stroke-linecap:butt;stroke-linejoin:miter;stroke-opacity:1" d="M 604.985,20.0691 615.698,20.0691 z" id="boundary" inkscape:connector-curvature="0" />
	<path style="fill:none;stroke:red;stroke-width:1px;stroke-linecap:butt;stroke-linejoin:miter;stroke-opacity:1" d="M 626.41,20.0691 637.123,20.0691 z" id="boundary" inkscape:connector-curvature="0" />
	<path style="fill:none;stroke:red;stroke-width:1px;stroke-linecap:butt;stroke-linejoin:miter;stroke-opacity:1" d="M 626.41,20.0691 615.698,20.0691 z" id="boundary" inkscape:connector-curvature="0" />
	<path style="fill:none;stroke:red;stroke-width:1px;stroke-linecap:butt;stroke-linejoin:miter;stroke-opacity:1" d="M 647.836,20.0691 637.123,20.0691 z" id="boundary" inkscape:connector-curvature="0" />
	<path style="fill:none;stroke:red;stroke-width:1px;stroke-linecap:butt;stroke-linejoin:miter;stroke-opacity:1" d="M 647.836,20.0691 658.549,20.0691 z" id="boundary" inkscape:connector-curvature="0" />
	<path style="fill:none;stroke:red;stroke-width:1px;stroke-linecap:butt;stroke-linejoin:miter;stroke-opacity:1" d="M 669.261,20.0691 658.549,20.0691 z" id="boundary" inkscape:connector-curvature="0" />
	<path style="fill:none;stroke:red;stroke-width:1px;stroke-linecap:butt;stroke-linejoin:miter;stroke-opacity:1" d="M 679.974,20.0691 690.687,20.0691 z" id="boundary" inkscape:connector-curvature="0" />
	<path style="fill:none;stroke:red;stroke-width:1px;stroke-linecap:butt;stroke-linejoin:miter;stroke-opacity:1" d="M 701.4,20.0691 712.112,20.0691 z" id="boundary" inkscape:connector-curvature="0" />
	<path style="fill:none;stroke:red;stroke-width:1px;stroke-linecap:butt;stroke-linejoin:miter;stroke-opacity:1" d="M 701.4,20.0691 690.687,20.0691 z" id="boundary" inkscape:connector-curvature="0" />
	<path style="fill:none;stroke:red;stroke-width:1px;stroke-linecap:butt;stroke-linejoin:miter;stroke-opacity:1" d="M 679.974,20.0691 669.261,20.0691 z" id="boundary" inkscape:connector-curvature="0" />
	<path style="fill:none;stroke:red;stroke-width:1px;stroke-linecap:butt;stroke-linejoin:miter;stroke-opacity:1" d="M 722.825,20.0691 733.538,20.0691 z" id="boundary" inkscape:connector-curvature="0" />
	<path style="fill:none;stroke:red;stroke-width:1px;stroke-linecap:butt;stroke-linejoin:miter;stroke-opacity:1" d="M 733.538,20.0691 742.108,26.4968 z" id="boundary" inkscape:connector-curvature="0" />
	<path style="fill:none;stroke:red;stroke-width:1px;stroke-linecap:butt;stroke-linejoin:miter;stroke-opacity:1" d="M 749.607,35.067 742.108,26.4968 z" id="boundary" inkscape:connector-curvature="0" />
	<path style="fill:none;stroke:red;stroke-width:1px;stroke-linecap:butt;stroke-linejoin:miter;stroke-opacity:1" d="M 749.607,35.067 749.607,45.7797 z" id="boundary" inkscape:connector-curvature="0" />
	<path style="fill:none;stroke:red;stroke-width:1px;stroke-linecap:butt;stroke-linejoin:miter;stroke-opacity:1" d="M 749.607,45.7797 754.963,55.4212 z" id="boundary" inkscape:connector-curvature="0" />
	<path style="fill:none;stroke:red;stroke-width:1px;stroke-linecap:butt;stroke-linejoin:miter;stroke-opacity:1" d="M 754.963,55.4212 754.963,66.1339 z" id="boundary" inkscape:connector-curvature="0" />
	<path style="fill:none;stroke:red;stroke-width:1px;stroke-linecap:butt;stroke-linejoin:miter;stroke-opacity:1" d="M 754.963,66.1339 754.963,76.8467 z" id="boundary" inkscape:connector-curvature="0" />
	<path style="fill:none;stroke:red;stroke-width:1px;stroke-linecap:butt;stroke-linejoin:miter;stroke-opacity:1" d="M 760.32,86.4881 754.963,76.8467 z" id="boundary" inkscape:connector-curvature="0" />
	<path style="fill:none;stroke:red;stroke-width:1px;stroke-linecap:butt;stroke-linejoin:miter;stroke-opacity:1" d="M 712.112,20.0691 722.825,20.0691 z" id="boundary" inkscape:connector-curvature="0" />
	<path style="fill:none;stroke:red;stroke-width:1px;stroke-linecap:butt;stroke-linejoin:miter;stroke-opacity:1" d="M 765.676,106.842 760.32,97.2009 z" id="boundary" inkscape:connector-curvature="0" />
	<path style="fill:none;stroke:red;stroke-width:1px;stroke-linecap:butt;stroke-linejoin:miter;stroke-opacity:1" d="M 760.32,97.2009 760.32,86.4881 z" id="boundary" inkscape:connector-curvature="0" />
	<path style="fill:none;stroke:red;stroke-width:1px;stroke-linecap:butt;stroke-linejoin:miter;stroke-opacity:1" d="M 765.676,106.842 765.676,117.555 z" id="boundary" inkscape:connector-curvature="0" />
	<path style="fill:none;stroke:red;stroke-width:1px;stroke-linecap:butt;stroke-linejoin:miter;stroke-opacity:1" d="M 765.676,117.555 771.032,127.197 z" id="boundary" inkscape:connector-curvature="0" />
	<path style="fill:none;stroke:red;stroke-width:1px;stroke-linecap:butt;stroke-linejoin:miter;stroke-opacity:1" d="M 771.032,127.197 771.032,137.909 z" id="boundary" inkscape:connector-curvature="0" />
	<path style="fill:none;stroke:red;stroke-width:1px;stroke-linecap:butt;stroke-linejoin:miter;stroke-opacity:1" d="M 803.171,134.695 813.883,132.553 z" id="boundary" inkscape:connector-curvature="0" />
	<path style="fill:none;stroke:red;stroke-width:1px;stroke-linecap:butt;stroke-linejoin:miter;stroke-opacity:1" d="M 813.883,132.553 824.596,132.553 z" id="boundary" inkscape:connector-curvature="0" />
	<path style="fill:none;stroke:red;stroke-width:1px;stroke-linecap:butt;stroke-linejoin:miter;stroke-opacity:1" d="M 803.171,134.695 792.458,137.909 z" id="boundary" inkscape:connector-curvature="0" />
	<path style="fill:none;stroke:red;stroke-width:1px;stroke-linecap:butt;stroke-linejoin:miter;stroke-opacity:1" d="M 835.309,132.553 846.022,132.553 z" id="boundary" inkscape:connector-curvature="0" />
	<path style="fill:none;stroke:red;stroke-width:1px;stroke-linecap:butt;stroke-linejoin:miter;stroke-opacity:1" d="M 835.309,132.553 824.596,132.553 z" id="boundary" inkscape:connector-curvature="0" />
	<path style="fill:none;stroke:red;stroke-width:1px;stroke-linecap:butt;stroke-linejoin:miter;stroke-opacity:1" d="M 856.734,132.553 867.447,132.553 z" id="boundary" inkscape:connector-curvature="0" />
	<path style="fill:none;stroke:red;stroke-width:1px;stroke-linecap:butt;stroke-linejoin:miter;stroke-opacity:1" d="M 878.16,132.553 888.873,132.553 z" id="boundary" inkscape:connector-curvature="0" />
	<path style="fill:none;stroke:red;stroke-width:1px;stroke-linecap:butt;stroke-linejoin:miter;stroke-opacity:1" d="M 878.16,132.553 867.447,132.553 z" id="boundary" inkscape:connector-curvature="0" />
	<path style="fill:none;stroke:red;stroke-width:1px;stroke-linecap:butt;stroke-linejoin:miter;stroke-opacity:1" d="M 856.734,132.553 846.022,132.553 z" id="boundary" inkscape:connector-curvature="0" />
	<path style="fill:none;stroke:red;stroke-width:1px;stroke-linecap:butt;stroke-linejoin:miter;stroke-opacity:1" d="M 899.585,132.553 888.873,132.553 z" id="boundary" inkscape:connector-curvature="0" />
	<path style="fill:none;stroke:red;stroke-width:1px;stroke-linecap:butt;stroke-linejoin:miter;stroke-opacity:1" d="M 899.585,132.553 909.227,137.909 z" id="boundary" inkscape:connector-curvature="0" />
	<path style="fill:none;stroke:red;stroke-width:1px;stroke-linecap:butt;stroke-linejoin:miter;stroke-opacity:1" d="M 771.032,137.909 781.745,137.909 z" id="boundary" inkscape:connector-curvature="0" />
	<path style="fill:none;stroke:red;stroke-width:1px;stroke-linecap:butt;stroke-linejoin:miter;stroke-opacity:1" d="M 792.458,137.909 781.745,137.909 z" id="boundary" inkscape:connector-curvature="0" />
	<path style="fill:none;stroke:red;stroke-width:1px;stroke-linecap:butt;stroke-linejoin:miter;stroke-opacity:1" d="M 909.227,137.909 919.94,140.052 z" id="boundary" inkscape:connector-curvature="0" />
	<path style="fill:none;stroke:red;stroke-width:1px;stroke-linecap:butt;stroke-linejoin:miter;stroke-opacity:1" d="M 919.94,140.052 929.581,145.408 z" id="boundary" inkscape:connector-curvature="0" />
	<path style="fill:none;stroke:red;stroke-width:1px;stroke-linecap:butt;stroke-linejoin:miter;stroke-opacity:1" d="M 940.294,149.693 929.581,145.408 z" id="boundary" inkscape:connector-curvature="0" />
	<path style="fill:none;stroke:red;stroke-width:1px;stroke-linecap:butt;stroke-linejoin:miter;stroke-opacity:1" d="M 940.294,149.693 947.793,158.263 z" id="boundary" inkscape:connector-curvature="0" />
	<path style="fill:none;stroke:red;stroke-width:1px;stroke-linecap:butt;stroke-linejoin:miter;stroke-opacity:1" d="M 956.363,164.691 947.793,158.263 z" id="boundary" inkscape:connector-curvature="0" />
	<path style="fill:none;stroke:red;stroke-width:1px;stroke-linecap:butt;stroke-linejoin:miter;stroke-opacity:1" d="M 967.076,165.762 956.363,164.691 z" id="boundary" inkscape:connector-curvature="0" />
	<path style="fill:none;stroke:red;stroke-width:1px;stroke-linecap:butt;stroke-linejoin:miter;stroke-opacity:1" d="M 967.076,165.762 976.717,171.119 z" id="boundary" inkscape:connector-curvature="0" />
	<path style="fill:none;stroke:red;stroke-width:1px;stroke-linecap:butt;stroke-linejoin:miter;stroke-opacity:1" d="M 987.43,175.404 976.717,171.119 z" id="boundary" inkscape:connector-curvature="0" />
	<path style="fill:none;stroke:red;stroke-width:1px;stroke-linecap:butt;stroke-linejoin:miter;stroke-opacity:1" d="M 990.644,186.117 987.43,175.404 z" id="boundary" inkscape:connector-curvature="0" />
	<path style="fill:none;stroke:red;stroke-width:1px;stroke-linecap:butt;stroke-linejoin:miter;stroke-opacity:1" d="M 996,195.758 990.644,186.117 z" id="boundary" inkscape:connector-curvature="0" />
	<path style="fill:none;stroke:red;stroke-width:1px;stroke-linecap:butt;stroke-linejoin:miter;stroke-opacity:1" d="M 996,195.758 996,206.471 z" id="boundary" inkscape:connector-curvature="0" />
	<path style="fill:none;stroke:red;stroke-width:1px;stroke-linecap:butt;stroke-linejoin:miter;stroke-opacity:1" d="M 996,206.471 996,217.184 z" id="boundary" inkscape:connector-curvature="0" />
	<path style="fill:none;stroke:red;stroke-width:1px;stroke-linecap:butt;stroke-linejoin:miter;stroke-opacity:1" d="M 607.127,422.868 617.84,422.868 z" id="boundary" inkscape:connector-curvature="0" />
	<path style="fill:none;stroke:red;stroke-width:1px;stroke-linecap:butt;stroke-linejoin:miter;stroke-opacity:1" d="M 597.486,428.225 607.127,422.868 z" id="boundary" inkscape:connector-curvature="0" />
	<path style="fill:none;stroke:red;stroke-width:1px;stroke-linecap:butt;stroke-linejoin:miter;stroke-opacity:1" d="M 628.553,422.868 617.84,422.868 z" id="boundary" inkscape:connector-curvature="0" />
	<path style="fill:none;stroke:red;stroke-width:1px;stroke-linecap:butt;stroke-linejoin:miter;stroke-opacity:1" d="M 639.266,422.868 649.978,422.868 z" id="boundary" inkscape:connector-curvature="0" />
	<path style="fill:none;stroke:red;stroke-width:1px;stroke-linecap:butt;stroke-linejoin:miter;stroke-opacity:1" d="M 660.691,422.868 671.404,422.868 z" id="boundary" inkscape:connector-curvature="0" />
	<path style="fill:none;stroke:red;stroke-width:1px;stroke-linecap:butt;stroke-linejoin:miter;stroke-opacity:1" d="M 660.691,422.868 649.978,422.868 z" id="boundary" inkscape:connector-curvature="0" />
	<path style="fill:none;stroke:red;stroke-width:1px;stroke-linecap:butt;stroke-linejoin:miter;stroke-opacity:1" d="M 639.266,422.868 628.553,422.868 z" id="boundary" inkscape:connector-curvature="0" />
	<path style="fill:none;stroke:red;stroke-width:1px;stroke-linecap:butt;stroke-linejoin:miter;stroke-opacity:1" d="M 682.117,422.868 692.829,422.868 z" id="boundary" inkscape:connector-curvature="0" />
	<path style="fill:none;stroke:red;stroke-width:1px;stroke-linecap:butt;stroke-linejoin:miter;stroke-opacity:1" d="M 703.542,422.868 714.255,422.868 z" id="boundary" inkscape:connector-curvature="0" />
	<path style="fill:none;stroke:red;stroke-width:1px;stroke-linecap:butt;stroke-linejoin:miter;stroke-opacity:1" d="M 703.542,422.868 692.829,422.868 z" id="boundary" inkscape:connector-curvature="0" />
	<path style="fill:none;stroke:red;stroke-width:1px;stroke-linecap:butt;stroke-linejoin:miter;stroke-opacity:1" d="M 724.968,422.868 735.68,422.868 z" id="boundary" inkscape:connector-curvature="0" />
	<path style="fill:none;stroke:red;stroke-width:1px;stroke-linecap:butt;stroke-linejoin:miter;stroke-opacity:1" d="M 746.393,422.868 757.106,422.868 z" id="boundary" inkscape:connector-curvature="0" />
	<path style="fill:none;stroke:red;stroke-width:1px;stroke-linecap:butt;stroke-linejoin:miter;stroke-opacity:1" d="M 746.393,422.868 735.68,422.868 z" id="boundary" inkscape:connector-curvature="0" />
	<path style="fill:none;stroke:red;stroke-width:1px;stroke-linecap:butt;stroke-linejoin:miter;stroke-opacity:1" d="M 724.968,422.868 714.255,422.868 z" id="boundary" inkscape:connector-curvature="0" />
	<path style="fill:none;stroke:red;stroke-width:1px;stroke-linecap:butt;stroke-linejoin:miter;stroke-opacity:1" d="M 682.117,422.868 671.404,422.868 z" id="boundary" inkscape:connector-curvature="0" />
	<path style="fill:none;stroke:red;stroke-width:1px;stroke-linecap:butt;stroke-linejoin:miter;stroke-opacity:1" d="M 542.851,464.648 537.495,475.361 z" id="boundary" inkscape:connector-curvature="0" />
	<path style="fill:none;stroke:red;stroke-width:1px;stroke-linecap:butt;stroke-linejoin:miter;stroke-opacity:1" d="M 537.495,475.361 528.924,481.788 z" id="boundary" inkscape:connector-curvature="0" />
	<path style="fill:none;stroke:red;stroke-width:1px;stroke-linecap:butt;stroke-linejoin:miter;stroke-opacity:1" d="M 528.924,481.788 519.283,487.145 z" id="boundary" inkscape:connector-curvature="0" />
	<path style="fill:none;stroke:red;stroke-width:1px;stroke-linecap:butt;stroke-linejoin:miter;stroke-opacity:1" d="M 542.851,464.648 551.421,455.006 z" id="boundary" inkscape:connector-curvature="0" />
	<path style="fill:none;stroke:red;stroke-width:1px;stroke-linecap:butt;stroke-linejoin:miter;stroke-opacity:1" d="M 498.929,492.501 488.216,492.501 z" id="boundary" inkscape:connector-curvature="0" />
	<path style="fill:none;stroke:red;stroke-width:1px;stroke-linecap:butt;stroke-linejoin:miter;stroke-opacity:1" d="M 509.641,492.501 519.283,487.145 z" id="boundary" inkscape:connector-curvature="0" />
	<path style="fill:none;stroke:red;stroke-width:1px;stroke-linecap:butt;stroke-linejoin:miter;stroke-opacity:1" d="M 509.641,492.501 498.929,492.501 z" id="boundary" inkscape:connector-curvature="0" />
	<path style="fill:none;stroke:red;stroke-width:1px;stroke-linecap:butt;stroke-linejoin:miter;stroke-opacity:1" d="M 488.216,492.501 477.503,492.501 z" id="boundary" inkscape:connector-curvature="0" />
	<path style="fill:none;stroke:red;stroke-width:1px;stroke-linecap:butt;stroke-linejoin:miter;stroke-opacity:1" d="M 586.773,428.225 597.486,428.225 z" id="boundary" inkscape:connector-curvature="0" />
	<path style="fill:none;stroke:red;stroke-width:1px;stroke-linecap:butt;stroke-linejoin:miter;stroke-opacity:1" d="M 576.06,431.438 586.773,428.225 z" id="boundary" inkscape:connector-curvature="0" />
	<path style="fill:none;stroke:red;stroke-width:1px;stroke-linecap:butt;stroke-linejoin:miter;stroke-opacity:1" d="M 778.531,427.153 767.819,422.868 z" id="boundary" inkscape:connector-curvature="0" />
	<path style="fill:none;stroke:red;stroke-width:1px;stroke-linecap:butt;stroke-linejoin:miter;stroke-opacity:1" d="M 789.244,428.225 778.531,427.153 z" id="boundary" inkscape:connector-curvature="0" />
	<path style="fill:none;stroke:red;stroke-width:1px;stroke-linecap:butt;stroke-linejoin:miter;stroke-opacity:1" d="M 757.106,422.868 767.819,422.868 z" id="boundary" inkscape:connector-curvature="0" />
	<path style="fill:none;stroke:red;stroke-width:1px;stroke-linecap:butt;stroke-linejoin:miter;stroke-opacity:1" d="M 551.421,455.006 556.778,444.294 z" id="boundary" inkscape:connector-curvature="0" />
	<path style="fill:none;stroke:red;stroke-width:1px;stroke-linecap:butt;stroke-linejoin:miter;stroke-opacity:1" d="M 556.778,444.294 565.348,436.795 z" id="boundary" inkscape:connector-curvature="0" />
	<path style="fill:none;stroke:red;stroke-width:1px;stroke-linecap:butt;stroke-linejoin:miter;stroke-opacity:1" d="M 565.348,436.795 576.06,431.438 z" id="boundary" inkscape:connector-curvature="0" />
	<path style="fill:none;stroke:red;stroke-width:1px;stroke-linecap:butt;stroke-linejoin:miter;stroke-opacity:1" d="M 958.505,321.097 953.149,331.81 z" id="boundary" inkscape:connector-curvature="0" />
	<path style="fill:none;stroke:red;stroke-width:1px;stroke-linecap:butt;stroke-linejoin:miter;stroke-opacity:1" d="M 953.149,331.81 944.579,341.451 z" id="boundary" inkscape:connector-curvature="0" />
	<path style="fill:none;stroke:red;stroke-width:1px;stroke-linecap:butt;stroke-linejoin:miter;stroke-opacity:1" d="M 963.862,310.384 958.505,321.097 z" id="boundary" inkscape:connector-curvature="0" />
	<path style="fill:none;stroke:red;stroke-width:1px;stroke-linecap:butt;stroke-linejoin:miter;stroke-opacity:1" d="M 915.654,358.592 925.296,353.235 z" id="boundary" inkscape:connector-curvature="0" />
	<path style="fill:none;stroke:red;stroke-width:1px;stroke-linecap:butt;stroke-linejoin:miter;stroke-opacity:1" d="M 910.298,369.305 915.654,358.592 z" id="boundary" inkscape:connector-curvature="0" />
	<path style="fill:none;stroke:red;stroke-width:1px;stroke-linecap:butt;stroke-linejoin:miter;stroke-opacity:1" d="M 934.937,347.879 944.579,341.451 z" id="boundary" inkscape:connector-curvature="0" />
	<path style="fill:none;stroke:red;stroke-width:1px;stroke-linecap:butt;stroke-linejoin:miter;stroke-opacity:1" d="M 934.937,347.879 925.296,353.235 z" id="boundary" inkscape:connector-curvature="0" />
	<path style="fill:none;stroke:red;stroke-width:1px;stroke-linecap:butt;stroke-linejoin:miter;stroke-opacity:1" d="M 990.644,240.752 990.644,251.464 z" id="boundary" inkscape:connector-curvature="0" />
	<path style="fill:none;stroke:red;stroke-width:1px;stroke-linecap:butt;stroke-linejoin:miter;stroke-opacity:1" d="M 990.644,251.464 985.287,267.533 z" id="boundary" inkscape:connector-curvature="0" />
	<path style="fill:none;stroke:red;stroke-width:1px;stroke-linecap:butt;stroke-linejoin:miter;stroke-opacity:1" d="M 990.644,240.752 996,227.896 z" id="boundary" inkscape:connector-curvature="0" />
	<path style="fill:none;stroke:red;stroke-width:1px;stroke-linecap:butt;stroke-linejoin:miter;stroke-opacity:1" d="M 996,217.184 996,227.896 z" id="boundary" inkscape:connector-curvature="0" />
	<path style="fill:none;stroke:red;stroke-width:1px;stroke-linecap:butt;stroke-linejoin:miter;stroke-opacity:1" d="M 974.575,288.959 969.218,299.672 z" id="boundary" inkscape:connector-curvature="0" />
	<path style="fill:none;stroke:red;stroke-width:1px;stroke-linecap:butt;stroke-linejoin:miter;stroke-opacity:1" d="M 969.218,299.672 963.862,310.384 z" id="boundary" inkscape:connector-curvature="0" />
	<path style="fill:none;stroke:red;stroke-width:1px;stroke-linecap:butt;stroke-linejoin:miter;stroke-opacity:1" d="M 985.287,267.533 979.931,278.246 z" id="boundary" inkscape:connector-curvature="0" />
	<path style="fill:none;stroke:red;stroke-width:1px;stroke-linecap:butt;stroke-linejoin:miter;stroke-opacity:1" d="M 979.931,278.246 974.575,288.959 z" id="boundary" inkscape:connector-curvature="0" />
	<path style="fill:none;stroke:red;stroke-width:1px;stroke-linecap:butt;stroke-linejoin:miter;stroke-opacity:1" d="M 789.244,428.225 799.957,428.225 z" id="boundary" inkscape:connector-curvature="0" />
	<path style="fill:none;stroke:red;stroke-width:1px;stroke-linecap:butt;stroke-linejoin:miter;stroke-opacity:1" d="M 799.957,428.225 809.598,433.581 z" id="boundary" inkscape:connector-curvature="0" />
	<path style="fill:none;stroke:red;stroke-width:1px;stroke-linecap:butt;stroke-linejoin:miter;stroke-opacity:1" d="M 820.311,433.581 809.598,433.581 z" id="boundary" inkscape:connector-curvature="0" />
	<path style="fill:none;stroke:red;stroke-width:1px;stroke-linecap:butt;stroke-linejoin:miter;stroke-opacity:1" d="M 820.311,433.581 829.952,438.937 z" id="boundary" inkscape:connector-curvature="0" />
	<path style="fill:none;stroke:red;stroke-width:1px;stroke-linecap:butt;stroke-linejoin:miter;stroke-opacity:1" d="M 840.665,438.937 829.952,438.937 z" id="boundary" inkscape:connector-curvature="0" />
	<path style="fill:none;stroke:red;stroke-width:1px;stroke-linecap:butt;stroke-linejoin:miter;stroke-opacity:1" d="M 840.665,438.937 851.378,438.937 z" id="boundary" inkscape:connector-curvature="0" />
	<path style="fill:none;stroke:red;stroke-width:1px;stroke-linecap:butt;stroke-linejoin:miter;stroke-opacity:1" d="M 897.443,410.013 902.799,399.3 z" id="boundary" inkscape:connector-curvature="0" />
	<path style="fill:none;stroke:red;stroke-width:1px;stroke-linecap:butt;stroke-linejoin:miter;stroke-opacity:1" d="M 904.942,385.374 902.799,399.3 z" id="boundary" inkscape:connector-curvature="0" />
	<path style="fill:none;stroke:red;stroke-width:1px;stroke-linecap:butt;stroke-linejoin:miter;stroke-opacity:1" d="M 904.942,385.374 910.298,369.305 z" id="boundary" inkscape:connector-curvature="0" />
	<path style="fill:none;stroke:red;stroke-width:1px;stroke-linecap:butt;stroke-linejoin:miter;stroke-opacity:1" d="M 897.443,410.013 888.873,417.512 z" id="boundary" inkscape:connector-curvature="0" />
	<path style="fill:none;stroke:red;stroke-width:1px;stroke-linecap:butt;stroke-linejoin:miter;stroke-opacity:1" d="M 862.091,438.937 851.378,438.937 z" id="boundary" inkscape:connector-curvature="0" />
	<path style="fill:none;stroke:red;stroke-width:1px;stroke-linecap:butt;stroke-linejoin:miter;stroke-opacity:1" d="M 871.732,433.581 862.091,438.937 z" id="boundary" inkscape:connector-curvature="0" />
	<path style="fill:none;stroke:red;stroke-width:1px;stroke-linecap:butt;stroke-linejoin:miter;stroke-opacity:1" d="M 880.302,427.153 888.873,417.512 z" id="boundary" inkscape:connector-curvature="0" />
	<path style="fill:none;stroke:red;stroke-width:1px;stroke-linecap:butt;stroke-linejoin:miter;stroke-opacity:1" d="M 880.302,427.153 871.732,433.581 z" id="boundary" inkscape:connector-curvature="0" />
	<path style="fill:none;stroke:red;stroke-width:1px;stroke-linecap:butt;stroke-linejoin:miter;stroke-opacity:1" d="M 487.145,6.14255 497.857,4 z" id="boundary" inkscape:connector-curvature="0" />
	<circle cx="4" cy="253.607" r="4" fill="#0" id="circle0"/>
	<circle cx="4" cy="264.32" r="4" fill="#0" id="circle1"/>
	<circle cx="9.35637" cy="273.961" r="4" fill="#0" id="circle2"/>
	<circle cx="12.5702" cy="245.037" r="4" fill="#0" id="circle3"/>
	<circle cx="14.7127" cy="283.603" r="4" fill="#0" id="circle4"/>
	<circle cx="20.0691" cy="293.244" r="4" fill="#0" id="circle5"/>
	<circle cx="21.1404" cy="236.467" r="4" fill="#0" id="circle6"/>
	<circle cx="26.4968" cy="301.814" r="4" fill="#0" id="circle7"/>
	<circle cx="29.7106" cy="228.968" r="4" fill="#0" id="circle8"/>
	<circle cx="30.7819" cy="312.527" r="4" fill="#0" id="circle9"/>
	<circle cx="30.7819" cy="323.24" r="4" fill="#0" id="circle10"/>
	<circle cx="30.7819" cy="333.952" r="4" fill="#0" id="circle11"/>
	<circle cx="30.7819" cy="344.665" r="4" fill="#0" id="circle12"/>
	<circle cx="30.7819" cy="355.378" r="4" fill="#0" id="circle13"/>
	<circle cx="30.7819" cy="366.091" r="4" fill="#0" id="circle14"/>
	<circle cx="30.7819" cy="376.803" r="4" fill="#0" id="circle15"/>
	<circle cx="30.7819" cy="387.516" r="4" fill="#0" id="circle16"/>
	<circle cx="33.9957" cy="218.255" r="4" fill="#0" id="circle17"/>
	<circle cx="36.1382" cy="205.4" r="4" fill="#0" id="circle18"/>
	<circle cx="36.1382" cy="397.158" r="4" fill="#0" id="circle19"/>
	<circle cx="41.4946" cy="194.687" r="4" fill="#0" id="circle20"/>
	<circle cx="46.851" cy="401.443" r="4" fill="#0" id="circle21"/>
	<circle cx="46.851" cy="412.156" r="4" fill="#0" id="circle22"/>
	<circle cx="46.851" cy="422.868" r="4" fill="#0" id="circle23"/>
	<circle cx="50.0648" cy="186.117" r="4" fill="#0" id="circle24"/>
	<circle cx="52.2073" cy="432.51" r="4" fill="#0" id="circle25"/>
	<circle cx="58.635" cy="441.08" r="4" fill="#0" id="circle26"/>
	<circle cx="60.7775" cy="180.76" r="4" fill="#0" id="circle27"/>
	<circle cx="66.1339" cy="449.65" r="4" fill="#0" id="circle28"/>
	<circle cx="71.4903" cy="175.404" r="4" fill="#0" id="circle29"/>
	<circle cx="76.8467" cy="449.65" r="4" fill="#0" id="circle30"/>
	<circle cx="82.203" cy="170.048" r="4" fill="#0" id="circle31"/>
	<circle cx="86.4881" cy="455.006" r="4" fill="#0" id="circle32"/>
	<circle cx="92.9158" cy="170.048" r="4" fill="#0" id="circle33"/>
	<circle cx="97.2009" cy="455.006" r="4" fill="#0" id="circle34"/>
	<circle cx="103.629" cy="164.691" r="4" fill="#0" id="circle35"/>
	<circle cx="107.914" cy="455.006" r="4" fill="#0" id="circle36"/>
	<circle cx="114.341" cy="164.691" r="4" fill="#0" id="circle37"/>
	<circle cx="118.626" cy="455.006" r="4" fill="#0" id="circle38"/>
	<circle cx="125.054" cy="164.691" r="4" fill="#0" id="circle39"/>
	<circle cx="129.339" cy="455.006" r="4" fill="#0" id="circle40"/>
	<circle cx="135.767" cy="164.691" r="4" fill="#0" id="circle41"/>
	<circle cx="138.981" cy="449.65" r="4" fill="#0" id="circle42"/>
	<circle cx="146.479" cy="164.691" r="4" fill="#0" id="circle43"/>
	<circle cx="149.693" cy="438.937" r="4" fill="#0" id="circle44"/>
	<circle cx="157.192" cy="164.691" r="4" fill="#0" id="circle45"/>
	<circle cx="158.263" cy="431.438" r="4" fill="#0" id="circle46"/>
	<circle cx="167.905" cy="164.691" r="4" fill="#0" id="circle47"/>
	<circle cx="168.976" cy="428.225" r="4" fill="#0" id="circle48"/>
	<circle cx="178.618" cy="164.691" r="4" fill="#0" id="circle49"/>
	<circle cx="179.689" cy="428.225" r="4" fill="#0" id="circle50"/>
	<circle cx="189.33" cy="164.691" r="4" fill="#0" id="circle51"/>
	<circle cx="190.402" cy="428.225" r="4" fill="#0" id="circle52"/>
	<circle cx="200.043" cy="164.691" r="4" fill="#0" id="circle53"/>
	<circle cx="201.114" cy="428.225" r="4" fill="#0" id="circle54"/>
	<circle cx="210.756" cy="164.691" r="4" fill="#0" id="circle55"/>
	<circle cx="211.827" cy="428.225" r="4" fill="#0" id="circle56"/>
	<circle cx="221.469" cy="164.691" r="4" fill="#0" id="circle57"/>
	<circle cx="222.54" cy="428.225" r="4" fill="#0" id="circle58"/>
	<circle cx="232.181" cy="164.691" r="4" fill="#0" id="circle59"/>
	<circle cx="233.253" cy="428.225" r="4" fill="#0" id="circle60"/>
	<circle cx="242.894" cy="164.691" r="4" fill="#0" id="circle61"/>
	<circle cx="243.965" cy="428.225" r="4" fill="#0" id="circle62"/>
	<circle cx="253.607" cy="159.335" r="4" fill="#0" id="circle63"/>
	<circle cx="254.678" cy="428.225" r="4" fill="#0" id="circle64"/>
	<circle cx="264.32" cy="159.335" r="4" fill="#0" id="circle65"/>
	<circle cx="265.391" cy="428.225" r="4" fill="#0" id="circle66"/>
	<circle cx="269.676" cy="148.622" r="4" fill="#0" id="circle67"/>
	<circle cx="276.104" cy="428.225" r="4" fill="#0" id="circle68"/>
	<circle cx="279.317" cy="143.266" r="4" fill="#0" id="circle69"/>
	<circle cx="286.816" cy="428.225" r="4" fill="#0" id="circle70"/>
	<circle cx="288.959" cy="137.909" r="4" fill="#0" id="circle71"/>
	<circle cx="297.529" cy="428.225" r="4" fill="#0" id="circle72"/>
	<circle cx="299.672" cy="137.909" r="4" fill="#0" id="circle73"/>
	<circle cx="308.242" cy="428.225" r="4" fill="#0" id="circle74"/>
	<circle cx="310.384" cy="137.909" r="4" fill="#0" id="circle75"/>
	<circle cx="316.812" cy="128.268" r="4" fill="#0" id="circle76"/>
	<circle cx="318.955" cy="428.225" r="4" fill="#0" id="circle77"/>
	<circle cx="325.382" cy="114.341" r="4" fill="#0" id="circle78"/>
	<circle cx="329.667" cy="428.225" r="4" fill="#0" id="circle79"/>
	<circle cx="333.952" cy="105.771" r="4" fill="#0" id="circle80"/>
	<circle cx="340.38" cy="428.225" r="4" fill="#0" id="circle81"/>
	<circle cx="343.594" cy="100.415" r="4" fill="#0" id="circle82"/>
	<circle cx="351.093" cy="428.225" r="4" fill="#0" id="circle83"/>
	<circle cx="354.307" cy="100.415" r="4" fill="#0" id="circle84"/>
	<circle cx="361.806" cy="428.225" r="4" fill="#0" id="circle85"/>
	<circle cx="365.019" cy="100.415" r="4" fill="#0" id="circle86"/>
	<circle cx="372.518" cy="428.225" r="4" fill="#0" id="circle87"/>
	<circle cx="375.732" cy="100.415" r="4" fill="#0" id="circle88"/>
	<circle cx="383.231" cy="428.225" r="4" fill="#0" id="circle89"/>
	<circle cx="386.445" cy="100.415" r="4" fill="#0" id="circle90"/>
	<circle cx="393.944" cy="428.225" r="4" fill="#0" id="circle91"/>
	<circle cx="395.015" cy="107.914" r="4" fill="#0" id="circle92"/>
	<circle cx="401.443" cy="116.484" r="4" fill="#0" id="circle93"/>
	<circle cx="401.443" cy="127.197" r="4" fill="#0" id="circle94"/>
	<circle cx="403.585" cy="433.581" r="4" fill="#0" id="circle95"/>
	<circle cx="405.728" cy="444.294" r="4" fill="#0" id="circle96"/>
	<circle cx="411.084" cy="453.935" r="4" fill="#0" id="circle97"/>
	<circle cx="411.084" cy="464.648" r="4" fill="#0" id="circle98"/>
	<circle cx="412.156" cy="127.197" r="4" fill="#0" id="circle99"/>
	<circle cx="416.441" cy="474.289" r="4" fill="#0" id="circle100"/>
	<circle cx="422.868" cy="127.197" r="4" fill="#0" id="circle101"/>
	<circle cx="425.011" cy="481.788" r="4" fill="#0" id="circle102"/>
	<circle cx="433.581" cy="123.983" r="4" fill="#0" id="circle103"/>
	<circle cx="434.652" cy="487.145" r="4" fill="#0" id="circle104"/>
	<circle cx="443.222" cy="44.7084" r="4" fill="#0" id="circle105"/>
	<circle cx="443.222" cy="55.4212" r="4" fill="#0" id="circle106"/>
	<circle cx="443.222" cy="66.1339" r="4" fill="#0" id="circle107"/>
	<circle cx="443.222" cy="76.8467" r="4" fill="#0" id="circle108"/>
	<circle cx="443.222" cy="87.5594" r="4" fill="#0" id="circle109"/>
	<circle cx="443.222" cy="98.2721" r="4" fill="#0" id="circle110"/>
	<circle cx="443.222" cy="108.985" r="4" fill="#0" id="circle111"/>
	<circle cx="445.365" cy="487.145" r="4" fill="#0" id="circle112"/>
	<circle cx="448.579" cy="33.9957" r="4" fill="#0" id="circle113"/>
	<circle cx="456.078" cy="490.359" r="4" fill="#0" id="circle114"/>
	<circle cx="457.149" cy="25.4255" r="4" fill="#0" id="circle115"/>
	<circle cx="465.719" cy="16.8553" r="4" fill="#0" id="circle116"/>
	<circle cx="466.79" cy="492.501" r="4" fill="#0" id="circle117"/>
	<circle cx="476.432" cy="11.4989" r="4" fill="#0" id="circle118"/>
	<circle cx="477.503" cy="492.501" r="4" fill="#0" id="circle119"/>
	<circle cx="487.145" cy="6.14255" r="4" fill="#0" id="circle120"/>
	<circle cx="488.216" cy="492.501" r="4" fill="#0" id="circle121"/>
	<circle cx="497.857" cy="4" r="4" fill="#0" id="circle122"/>
	<circle cx="498.929" cy="492.501" r="4" fill="#0" id="circle123"/>
	<circle cx="508.57" cy="4" r="4" fill="#0" id="circle124"/>
	<circle cx="509.641" cy="492.501" r="4" fill="#0" id="circle125"/>
	<circle cx="519.283" cy="4" r="4" fill="#0" id="circle126"/>
	<circle cx="519.283" cy="487.145" r="4" fill="#0" id="circle127"/>
	<circle cx="528.924" cy="481.788" r="4" fill="#0" id="circle128"/>
	<circle cx="529.996" cy="4" r="4" fill="#0" id="circle129"/>
	<circle cx="537.495" cy="475.361" r="4" fill="#0" id="circle130"/>
	<circle cx="540.708" cy="7.21382" r="4" fill="#0" id="circle131"/>
	<circle cx="542.851" cy="464.648" r="4" fill="#0" id="circle132"/>
	<circle cx="551.421" cy="9.35637" r="4" fill="#0" id="circle133"/>
	<circle cx="551.421" cy="455.006" r="4" fill="#0" id="circle134"/>
	<circle cx="556.778" cy="444.294" r="4" fill="#0" id="circle135"/>
	<circle cx="562.134" cy="12.5702" r="4" fill="#0" id="circle136"/>
	<circle cx="565.348" cy="436.795" r="4" fill="#0" id="circle137"/>
	<circle cx="572.847" cy="14.7127" r="4" fill="#0" id="circle138"/>
	<circle cx="576.06" cy="431.438" r="4" fill="#0" id="circle139"/>
	<circle cx="583.559" cy="14.7127" r="4" fill="#0" id="circle140"/>
	<circle cx="586.773" cy="428.225" r="4" fill="#0" id="circle141"/>
	<circle cx="594.272" cy="17.9266" r="4" fill="#0" id="circle142"/>
	<circle cx="597.486" cy="428.225" r="4" fill="#0" id="circle143"/>
	<circle cx="604.985" cy="20.0691" r="4" fill="#0" id="circle144"/>
	<circle cx="607.127" cy="422.868" r="4" fill="#0" id="circle145"/>
	<circle cx="615.698" cy="20.0691" r="4" fill="#0" id="circle146"/>
	<circle cx="617.84" cy="422.868" r="4" fill="#0" id="circle147"/>
	<circle cx="626.41" cy="20.0691" r="4" fill="#0" id="circle148"/>
	<circle cx="628.553" cy="422.868" r="4" fill="#0" id="circle149"/>
	<circle cx="637.123" cy="20.0691" r="4" fill="#0" id="circle150"/>
	<circle cx="639.266" cy="422.868" r="4" fill="#0" id="circle151"/>
	<circle cx="647.836" cy="20.0691" r="4" fill="#0" id="circle152"/>
	<circle cx="649.978" cy="422.868" r="4" fill="#0" id="circle153"/>
	<circle cx="658.549" cy="20.0691" r="4" fill="#0" id="circle154"/>
	<circle cx="660.691" cy="422.868" r="4" fill="#0" id="circle155"/>
	<circle cx="669.261" cy="20.0691" r="4" fill="#0" id="circle156"/>
	<circle cx="671.404" cy="422.868" r="4" fill="#0" id="circle157"/>
	<circle cx="679.974" cy="20.0691" r="4" fill="#0" id="circle158"/>
	<circle cx="682.117" cy="422.868" r="4" fill="#0" id="circle159"/>
	<circle cx="690.687" cy="20.0691" r="4" fill="#0" id="circle160"/>
	<circle cx="692.829" cy="422.868" r="4" fill="#0" id="circle161"/>
	<circle cx="701.4" cy="20.0691" r="4" fill="#0" id="circle162"/>
	<circle cx="703.542" cy="422.868" r="4" fill="#0" id="circle163"/>
	<circle cx="712.112" cy="20.0691" r="4" fill="#0" id="circle164"/>
	<circle cx="714.255" cy="422.868" r="4" fill="#0" id="circle165"/>
	<circle cx="722.825" cy="20.0691" r="4" fill="#0" id="circle166"/>
	<circle cx="724.968" cy="422.868" r="4" fill="#0" id="circle167"/>
	<circle cx="733.538" cy="20.0691" r="4" fill="#0" id="circle168"/>
	<circle cx="735.68" cy="422.868" r="4" fill="#0" id="circle169"/>
	<circle cx="742.108" cy="26.4968" r="4" fill="#0" id="circle170"/>
	<circle cx="746.393" cy="422.868" r="4" fill="#0" id="circle171"/>
	<circle cx="749.607" cy="35.067" r="4" fill="#0" id="circle172"/>
	<circle cx="749.607" cy="45.7797" r="4" fill="#0" id="circle173"/>
	<circle cx="754.963" cy="55.4212" r="4" fill="#0" id="circle174"/>
	<circle cx="754.963" cy="66.1339" r="4" fill="#0" id="circle175"/>
	<circle cx="754.963" cy="76.8467" r="4" fill="#0" id="circle176"/>
	<circle cx="757.106" cy="422.868" r="4" fill="#0" id="circle177"/>
	<circle cx="760.32" cy="86.4881" r="4" fill="#0" id="circle178"/>
	<circle cx="760.32" cy="97.2009" r="4" fill="#0" id="circle179"/>
	<circle cx="765.676" cy="106.842" r="4" fill="#0" id="circle180"/>
	<circle cx="765.676" cy="117.555" r="4" fill="#0" id="circle181"/>
	<circle cx="767.819" cy="422.868" r="4" fill="#0" id="circle182"/>
	<circle cx="771.032" cy="127.197" r="4" fill="#0" id="circle183"/>
	<circle cx="771.032" cy="137.909" r="4" fill="#0" id="circle184"/>
	<circle cx="778.531" cy="427.153" r="4" fill="#0" id="circle185"/>
	<circle cx="781.745" cy="137.909" r="4" fill="#0" id="circle186"/>
	<circle cx="789.244" cy="428.225" r="4" fill="#0" id="circle187"/>
	<circle cx="792.458" cy="137.909" r="4" fill="#0" id="circle188"/>
	<circle cx="799.957" cy="428.225" r="4" fill="#0" id="circle189"/>
	<circle cx="803.171" cy="134.695" r="4" fill="#0" id="circle190"/>
	<circle cx="809.598" cy="433.581" r="4" fill="#0" id="circle191"/>
	<circle cx="813.883" cy="132.553" r="4" fill="#0" id="circle192"/>
	<circle cx="820.311" cy="433.581" r="4" fill="#0" id="circle193"/>
	<circle cx="824.596" cy="132.553" r="4" fill="#0" id="circle194"/>
	<circle cx="829.952" cy="438.937" r="4" fill="#0" id="circle195"/>
	<circle cx="835.309" cy="132.553" r="4" fill="#0" id="circle196"/>
	<circle cx="840.665" cy="438.937" r="4" fill="#0" id="circle197"/>
	<circle cx="846.022" cy="132.553" r="4" fill="#0" id="circle198"/>
	<circle cx="851.378" cy="438.937" r="4" fill="#0" id="circle199"/>
	<circle cx="856.734" cy="132.553" r="4" fill="#0" id="circle200"/>
	<circle cx="862.091" cy="438.937" r="4" fill="#0" id="circle201"/>
	<circle cx="867.447" cy="132.553" r="4" fill="#0" id="circle202"/>
	<circle cx="871.732" cy="433.581" r="4" fill="#0" id="circle203"/>
	<circle cx="878.16" cy="132.553" r="4" fill="#0" id="circle204"/>
	<circle cx="880.302" cy="427.153" r="4" fill="#0" id="circle205"/>
	<circle cx="888.873" cy="132.553" r="4" fill="#0" id="circle206"/>
	<circle cx="888.873" cy="417.512" r="4" fill="#0" id="circle207"/>
	<circle cx="897.443" cy="410.013" r="4" fill="#0" id="circle208"/>
	<circle cx="899.585" cy="132.553" r="4" fill="#0" id="circle209"/>
	<circle cx="902.799" cy="399.3" r="4" fill="#0" id="circle210"/>
	<circle cx="904.942" cy="385.374" r="4" fill="#0" id="circle211"/>
	<circle cx="909.227" cy="137.909" r="4" fill="#0" id="circle212"/>
	<circle cx="910.298" cy="369.305" r="4" fill="#0" id="circle213"/>
	<circle cx="915.654" cy="358.592" r="4" fill="#0" id="circle214"/>
	<circle cx="919.94" cy="140.052" r="4" fill="#0" id="circle215"/>
	<circle cx="925.296" cy="353.235" r="4" fill="#0" id="circle216"/>
	<circle cx="929.581" cy="145.408" r="4" fill="#0" id="circle217"/>
	<circle cx="934.937" cy="347.879" r="4" fill="#0" id="circle218"/>
	<circle cx="940.294" cy="149.693" r="4" fill="#0" id="circle219"/>
	<circle cx="944.579" cy="341.451" r="4" fill="#0" id="circle220"/>
	<circle cx="947.793" cy="158.263" r="4" fill="#0" id="circle221"/>
	<circle cx="953.149" cy="331.81" r="4" fill="#0" id="circle222"/>
	<circle cx="956.363" cy="164.691" r="4" fill="#0" id="circle223"/>
	<circle cx="958.505" cy="321.097" r="4" fill="#0" id="circle224"/>
	<circle cx="963.862" cy="310.384" r="4" fill="#0" id="circle225"/>
	<circle cx="967.076" cy="165.762" r="4" fill="#0" id="circle226"/>
	<circle cx="969.218" cy="299.672" r="4" fill="#0" id="circle227"/>
	<circle cx="974.575" cy="288.959" r="4" fill="#0" id="circle228"/>
	<circle cx="976.717" cy="171.119" r="4" fill="#0" id="circle229"/>
	<circle cx="979.931" cy="278.246" r="4" fill="#0" id="circle230"/>
	<circle cx="985.287" cy="267.533" r="4" fill="#0" id="circle231"/>
	<circle cx="987.43" cy="175.404" r="4" fill="#0" id="circle232"/>
	<circle cx="990.644" cy="186.117" r="4" fill="#0" id="circle233"/>
	<circle cx="990.644" cy="240.752" r="4" fill="#0" id="circle234"/>
	<circle cx="990.644" cy="251.464" r="4" fill="#0" id="circle235"/>
	<circle cx="996" cy="195.758" r="4" fill="#0" id="circle236"/>
	<circle cx="996" cy="206.471" r="4" fill="#0" id="circle237"/>
	<circle cx="996" cy="217.184" r="4" fill="#0" id="circle238"/>
	<circle cx="996" cy="227.896" r="4" fill="#0" id="circle239"/>
	</g>
</svg>