<?xml version="1.0" encoding="UTF-8" standalone="no"?>
<!-- Created with CurveBenchmark -->
<svg
	xmlns:dc="http://purl.org/dc/elements/1.1/"
	xmlns:cc="http://creativecommons.org/ns#"
	xmlns:rdf="http://www.w3.org/1999/02/22-rdf-syntax-ns#"
	xmlns:svg="http://www.w3.org/2000/svg"
	xmlns="http://www.w3.org/2000/svg"
	xmlns:sodipodi="http://sodipodi.sourceforge.net/DTD/sodipodi-0.dtd"
	xmlns:inkscape="http://www.inkscape.org/namespaces/inkscape"
	width="1000"
	height="1000"
	id="svg2"
	version="1.1"
	sodipodi:docname="manifold/gathan1-children-6.png.txt">
<defs
	id="defs4" />
<metadata
	id="metadata7">
	<rdf:RDF>
		<cc:Work
			rdf:about="">
			<dc:format>image/svg+xml</dc:format>
			<dc:type
				rdf:resource="http://purl.org/dc/dcmitype/StillImage" />
			<dc:title></dc:title>
		</cc:Work>
	</rdf:RDF>
</metadata>
<g
	inkscape:label="Layer 1"
	inkscape:groupmode="layer"
	id="layer1">
	<path style="fill:none;stroke:red;stroke-width:1px;stroke-linecap:butt;stroke-linejoin:miter;stroke-opacity:1" d="M 27.8748,73.2371 27.8748,85.1745 z" id="boundary" inkscape:connector-curvature="0" />
	<path style="fill:none;stroke:red;stroke-width:1px;stroke-linecap:butt;stroke-linejoin:miter;stroke-opacity:1" d="M 27.8748,73.2371 33.8436,61.2996 z" id="boundary" inkscape:connector-curvature="0" />
	<path style="fill:none;stroke:red;stroke-width:1px;stroke-linecap:butt;stroke-linejoin:miter;stroke-opacity:1" d="M 27.8748,85.1745 27.8748,97.1119 z" id="boundary" inkscape:connector-curvature="0" />
	<path style="fill:none;stroke:red;stroke-width:1px;stroke-linecap:butt;stroke-linejoin:miter;stroke-opacity:1" d="M 4,317.954 4,306.017 z" id="boundary" inkscape:connector-curvature="0" />
	<path style="fill:none;stroke:red;stroke-width:1px;stroke-linecap:butt;stroke-linejoin:miter;stroke-opacity:1" d="M 4,306.017 9.96871,294.079 z" id="boundary" inkscape:connector-curvature="0" />
	<path style="fill:none;stroke:red;stroke-width:1px;stroke-linecap:butt;stroke-linejoin:miter;stroke-opacity:1" d="M 19.5187,284.529 9.96871,294.079 z" id="boundary" inkscape:connector-curvature="0" />
	<path style="fill:none;stroke:red;stroke-width:1px;stroke-linecap:butt;stroke-linejoin:miter;stroke-opacity:1" d="M 25.4874,272.592 19.5187,284.529 z" id="boundary" inkscape:connector-curvature="0" />
	<path style="fill:none;stroke:red;stroke-width:1px;stroke-linecap:butt;stroke-linejoin:miter;stroke-opacity:1" d="M 25.4874,272.592 35.0373,263.042 z" id="boundary" inkscape:connector-curvature="0" />
	<path style="fill:none;stroke:red;stroke-width:1px;stroke-linecap:butt;stroke-linejoin:miter;stroke-opacity:1" d="M 27.8748,109.049 27.8748,97.1119 z" id="boundary" inkscape:connector-curvature="0" />
	<path style="fill:none;stroke:red;stroke-width:1px;stroke-linecap:butt;stroke-linejoin:miter;stroke-opacity:1" d="M 39.8123,142.474 33.8436,131.73 z" id="boundary" inkscape:connector-curvature="0" />
	<path style="fill:none;stroke:red;stroke-width:1px;stroke-linecap:butt;stroke-linejoin:miter;stroke-opacity:1" d="M 33.8436,131.73 27.8748,120.987 z" id="boundary" inkscape:connector-curvature="0" />
	<path style="fill:none;stroke:red;stroke-width:1px;stroke-linecap:butt;stroke-linejoin:miter;stroke-opacity:1" d="M 27.8748,120.987 27.8748,109.049 z" id="boundary" inkscape:connector-curvature="0" />
	<path style="fill:none;stroke:red;stroke-width:1px;stroke-linecap:butt;stroke-linejoin:miter;stroke-opacity:1" d="M 4,329.892 4,317.954 z" id="boundary" inkscape:connector-curvature="0" />
	<path style="fill:none;stroke:red;stroke-width:1px;stroke-linecap:butt;stroke-linejoin:miter;stroke-opacity:1" d="M 4,341.829 4,329.892 z" id="boundary" inkscape:connector-curvature="0" />
	<path style="fill:none;stroke:red;stroke-width:1px;stroke-linecap:butt;stroke-linejoin:miter;stroke-opacity:1" d="M 9.96871,376.448 4,365.704 z" id="boundary" inkscape:connector-curvature="0" />
	<path style="fill:none;stroke:red;stroke-width:1px;stroke-linecap:butt;stroke-linejoin:miter;stroke-opacity:1" d="M 4,365.704 4,353.767 z" id="boundary" inkscape:connector-curvature="0" />
	<path style="fill:none;stroke:red;stroke-width:1px;stroke-linecap:butt;stroke-linejoin:miter;stroke-opacity:1" d="M 4,353.767 4,341.829 z" id="boundary" inkscape:connector-curvature="0" />
	<path style="fill:none;stroke:red;stroke-width:1px;stroke-linecap:butt;stroke-linejoin:miter;stroke-opacity:1" d="M 9.96871,376.448 9.96871,388.385 z" id="boundary" inkscape:connector-curvature="0" />
	<path style="fill:none;stroke:red;stroke-width:1px;stroke-linecap:butt;stroke-linejoin:miter;stroke-opacity:1" d="M 9.96871,388.385 15.9374,399.129 z" id="boundary" inkscape:connector-curvature="0" />
	<path style="fill:none;stroke:red;stroke-width:1px;stroke-linecap:butt;stroke-linejoin:miter;stroke-opacity:1" d="M 15.9374,399.129 15.9374,411.066 z" id="boundary" inkscape:connector-curvature="0" />
	<path style="fill:none;stroke:red;stroke-width:1px;stroke-linecap:butt;stroke-linejoin:miter;stroke-opacity:1" d="M 15.9374,411.066 9.96871,431.36 z" id="boundary" inkscape:connector-curvature="0" />
	<path style="fill:none;stroke:red;stroke-width:1px;stroke-linecap:butt;stroke-linejoin:miter;stroke-opacity:1" d="M 9.96871,431.36 9.96871,443.297 z" id="boundary" inkscape:connector-curvature="0" />
	<path style="fill:none;stroke:red;stroke-width:1px;stroke-linecap:butt;stroke-linejoin:miter;stroke-opacity:1" d="M 15.9374,465.978 9.96871,455.235 z" id="boundary" inkscape:connector-curvature="0" />
	<path style="fill:none;stroke:red;stroke-width:1px;stroke-linecap:butt;stroke-linejoin:miter;stroke-opacity:1" d="M 9.96871,455.235 9.96871,443.297 z" id="boundary" inkscape:connector-curvature="0" />
	<path style="fill:none;stroke:red;stroke-width:1px;stroke-linecap:butt;stroke-linejoin:miter;stroke-opacity:1" d="M 79.2058,15.9374 91.1432,9.96871 z" id="boundary" inkscape:connector-curvature="0" />
	<path style="fill:none;stroke:red;stroke-width:1px;stroke-linecap:butt;stroke-linejoin:miter;stroke-opacity:1" d="M 58.9122,30.2623 68.4621,21.9061 z" id="boundary" inkscape:connector-curvature="0" />
	<path style="fill:none;stroke:red;stroke-width:1px;stroke-linecap:butt;stroke-linejoin:miter;stroke-opacity:1" d="M 68.4621,21.9061 79.2058,15.9374 z" id="boundary" inkscape:connector-curvature="0" />
	<path style="fill:none;stroke:red;stroke-width:1px;stroke-linecap:butt;stroke-linejoin:miter;stroke-opacity:1" d="M 91.1432,9.96871 103.081,4 z" id="boundary" inkscape:connector-curvature="0" />
	<path style="fill:none;stroke:red;stroke-width:1px;stroke-linecap:butt;stroke-linejoin:miter;stroke-opacity:1" d="M 103.081,4 115.018,4 z" id="boundary" inkscape:connector-curvature="0" />
	<path style="fill:none;stroke:red;stroke-width:1px;stroke-linecap:butt;stroke-linejoin:miter;stroke-opacity:1" d="M 115.018,4 126.955,4 z" id="boundary" inkscape:connector-curvature="0" />
	<path style="fill:none;stroke:red;stroke-width:1px;stroke-linecap:butt;stroke-linejoin:miter;stroke-opacity:1" d="M 138.893,4 150.83,4 z" id="boundary" inkscape:connector-curvature="0" />
	<path style="fill:none;stroke:red;stroke-width:1px;stroke-linecap:butt;stroke-linejoin:miter;stroke-opacity:1" d="M 126.955,4 138.893,4 z" id="boundary" inkscape:connector-curvature="0" />
	<path style="fill:none;stroke:red;stroke-width:1px;stroke-linecap:butt;stroke-linejoin:miter;stroke-opacity:1" d="M 150.83,4 162.768,4 z" id="boundary" inkscape:connector-curvature="0" />
	<path style="fill:none;stroke:red;stroke-width:1px;stroke-linecap:butt;stroke-linejoin:miter;stroke-opacity:1" d="M 49.3622,165.155 43.3935,154.412 z" id="boundary" inkscape:connector-curvature="0" />
	<path style="fill:none;stroke:red;stroke-width:1px;stroke-linecap:butt;stroke-linejoin:miter;stroke-opacity:1" d="M 43.3935,154.412 39.8123,142.474 z" id="boundary" inkscape:connector-curvature="0" />
	<path style="fill:none;stroke:red;stroke-width:1px;stroke-linecap:butt;stroke-linejoin:miter;stroke-opacity:1" d="M 57.7184,174.705 49.3622,165.155 z" id="boundary" inkscape:connector-curvature="0" />
	<path style="fill:none;stroke:red;stroke-width:1px;stroke-linecap:butt;stroke-linejoin:miter;stroke-opacity:1" d="M 33.8436,61.2996 39.8123,49.3622 z" id="boundary" inkscape:connector-curvature="0" />
	<path style="fill:none;stroke:red;stroke-width:1px;stroke-linecap:butt;stroke-linejoin:miter;stroke-opacity:1" d="M 39.8123,49.3622 49.3622,39.8123 z" id="boundary" inkscape:connector-curvature="0" />
	<path style="fill:none;stroke:red;stroke-width:1px;stroke-linecap:butt;stroke-linejoin:miter;stroke-opacity:1" d="M 55.3309,248.717 44.5872,254.686 z" id="boundary" inkscape:connector-curvature="0" />
	<path style="fill:none;stroke:red;stroke-width:1px;stroke-linecap:butt;stroke-linejoin:miter;stroke-opacity:1" d="M 64.8809,239.167 55.3309,248.717 z" id="boundary" inkscape:connector-curvature="0" />
	<path style="fill:none;stroke:red;stroke-width:1px;stroke-linecap:butt;stroke-linejoin:miter;stroke-opacity:1" d="M 44.5872,254.686 35.0373,263.042 z" id="boundary" inkscape:connector-curvature="0" />
	<path style="fill:none;stroke:red;stroke-width:1px;stroke-linecap:butt;stroke-linejoin:miter;stroke-opacity:1" d="M 49.3622,39.8123 58.9122,30.2623 z" id="boundary" inkscape:connector-curvature="0" />
	<path style="fill:none;stroke:red;stroke-width:1px;stroke-linecap:butt;stroke-linejoin:miter;stroke-opacity:1" d="M 57.7184,174.705 67.2684,183.061 z" id="boundary" inkscape:connector-curvature="0" />
	<path style="fill:none;stroke:red;stroke-width:1px;stroke-linecap:butt;stroke-linejoin:miter;stroke-opacity:1" d="M 67.2684,183.061 75.6245,192.611 z" id="boundary" inkscape:connector-curvature="0" />
	<path style="fill:none;stroke:red;stroke-width:1px;stroke-linecap:butt;stroke-linejoin:miter;stroke-opacity:1" d="M 74.4308,230.811 64.8809,239.167 z" id="boundary" inkscape:connector-curvature="0" />
	<path style="fill:none;stroke:red;stroke-width:1px;stroke-linecap:butt;stroke-linejoin:miter;stroke-opacity:1" d="M 81.5933,215.292 74.4308,230.811 z" id="boundary" inkscape:connector-curvature="0" />
	<path style="fill:none;stroke:red;stroke-width:1px;stroke-linecap:butt;stroke-linejoin:miter;stroke-opacity:1" d="M 81.5933,215.292 81.5933,203.355 z" id="boundary" inkscape:connector-curvature="0" />
	<path style="fill:none;stroke:red;stroke-width:1px;stroke-linecap:butt;stroke-linejoin:miter;stroke-opacity:1" d="M 75.6245,192.611 81.5933,203.355 z" id="boundary" inkscape:connector-curvature="0" />
	<path style="fill:none;stroke:red;stroke-width:1px;stroke-linecap:butt;stroke-linejoin:miter;stroke-opacity:1" d="M 15.9374,465.978 15.9374,477.916 z" id="boundary" inkscape:connector-curvature="0" />
	<path style="fill:none;stroke:red;stroke-width:1px;stroke-linecap:butt;stroke-linejoin:miter;stroke-opacity:1" d="M 15.9374,489.853 15.9374,477.916 z" id="boundary" inkscape:connector-curvature="0" />
	<path style="fill:none;stroke:red;stroke-width:1px;stroke-linecap:butt;stroke-linejoin:miter;stroke-opacity:1" d="M 21.9061,500.597 15.9374,489.853 z" id="boundary" inkscape:connector-curvature="0" />
	<path style="fill:none;stroke:red;stroke-width:1px;stroke-linecap:butt;stroke-linejoin:miter;stroke-opacity:1" d="M 25.4874,524.472 21.9061,512.534 z" id="boundary" inkscape:connector-curvature="0" />
	<path style="fill:none;stroke:red;stroke-width:1px;stroke-linecap:butt;stroke-linejoin:miter;stroke-opacity:1" d="M 21.9061,512.534 21.9061,500.597 z" id="boundary" inkscape:connector-curvature="0" />
	<path style="fill:none;stroke:red;stroke-width:1px;stroke-linecap:butt;stroke-linejoin:miter;stroke-opacity:1" d="M 25.4874,524.472 27.8748,536.409 z" id="boundary" inkscape:connector-curvature="0" />
	<path style="fill:none;stroke:red;stroke-width:1px;stroke-linecap:butt;stroke-linejoin:miter;stroke-opacity:1" d="M 27.8748,536.409 33.8436,547.153 z" id="boundary" inkscape:connector-curvature="0" />
	<path style="fill:none;stroke:red;stroke-width:1px;stroke-linecap:butt;stroke-linejoin:miter;stroke-opacity:1" d="M 33.8436,547.153 33.8436,559.09 z" id="boundary" inkscape:connector-curvature="0" />
	<path style="fill:none;stroke:red;stroke-width:1px;stroke-linecap:butt;stroke-linejoin:miter;stroke-opacity:1" d="M 39.8123,569.834 33.8436,559.09 z" id="boundary" inkscape:connector-curvature="0" />
	<path style="fill:none;stroke:red;stroke-width:1px;stroke-linecap:butt;stroke-linejoin:miter;stroke-opacity:1" d="M 39.8123,569.834 39.8123,581.771 z" id="boundary" inkscape:connector-curvature="0" />
	<path style="fill:none;stroke:red;stroke-width:1px;stroke-linecap:butt;stroke-linejoin:miter;stroke-opacity:1" d="M 39.8123,581.771 33.8436,592.515 z" id="boundary" inkscape:connector-curvature="0" />
	<path style="fill:none;stroke:red;stroke-width:1px;stroke-linecap:butt;stroke-linejoin:miter;stroke-opacity:1" d="M 33.8436,592.515 33.8436,604.452 z" id="boundary" inkscape:connector-curvature="0" />
	<path style="fill:none;stroke:red;stroke-width:1px;stroke-linecap:butt;stroke-linejoin:miter;stroke-opacity:1" d="M 33.8436,604.452 39.8123,615.196 z" id="boundary" inkscape:connector-curvature="0" />
	<path style="fill:none;stroke:red;stroke-width:1px;stroke-linecap:butt;stroke-linejoin:miter;stroke-opacity:1" d="M 45.781,625.94 39.8123,615.196 z" id="boundary" inkscape:connector-curvature="0" />
	<path style="fill:none;stroke:red;stroke-width:1px;stroke-linecap:butt;stroke-linejoin:miter;stroke-opacity:1" d="M 52.9434,635.49 57.7184,647.427 z" id="boundary" inkscape:connector-curvature="0" />
	<path style="fill:none;stroke:red;stroke-width:1px;stroke-linecap:butt;stroke-linejoin:miter;stroke-opacity:1" d="M 57.7184,647.427 58.9122,659.365 z" id="boundary" inkscape:connector-curvature="0" />
	<path style="fill:none;stroke:red;stroke-width:1px;stroke-linecap:butt;stroke-linejoin:miter;stroke-opacity:1" d="M 64.8809,670.108 58.9122,659.365 z" id="boundary" inkscape:connector-curvature="0" />
	<path style="fill:none;stroke:red;stroke-width:1px;stroke-linecap:butt;stroke-linejoin:miter;stroke-opacity:1" d="M 45.781,625.94 52.9434,635.49 z" id="boundary" inkscape:connector-curvature="0" />
	<path style="fill:none;stroke:red;stroke-width:1px;stroke-linecap:butt;stroke-linejoin:miter;stroke-opacity:1" d="M 73.2371,679.658 64.8809,670.108 z" id="boundary" inkscape:connector-curvature="0" />
	<path style="fill:none;stroke:red;stroke-width:1px;stroke-linecap:butt;stroke-linejoin:miter;stroke-opacity:1" d="M 82.787,688.014 73.2371,679.658 z" id="boundary" inkscape:connector-curvature="0" />
	<path style="fill:none;stroke:red;stroke-width:1px;stroke-linecap:butt;stroke-linejoin:miter;stroke-opacity:1" d="M 99.4994,777.545 93.5307,789.483 z" id="boundary" inkscape:connector-curvature="0" />
	<path style="fill:none;stroke:red;stroke-width:1px;stroke-linecap:butt;stroke-linejoin:miter;stroke-opacity:1" d="M 93.5307,789.483 93.5307,801.42 z" id="boundary" inkscape:connector-curvature="0" />
	<path style="fill:none;stroke:red;stroke-width:1px;stroke-linecap:butt;stroke-linejoin:miter;stroke-opacity:1" d="M 82.787,688.014 91.1432,697.564 z" id="boundary" inkscape:connector-curvature="0" />
	<path style="fill:none;stroke:red;stroke-width:1px;stroke-linecap:butt;stroke-linejoin:miter;stroke-opacity:1" d="M 93.5307,801.42 93.5307,813.357 z" id="boundary" inkscape:connector-curvature="0" />
	<path style="fill:none;stroke:red;stroke-width:1px;stroke-linecap:butt;stroke-linejoin:miter;stroke-opacity:1" d="M 103.081,702.339 91.1432,697.564 z" id="boundary" inkscape:connector-curvature="0" />
	<path style="fill:none;stroke:red;stroke-width:1px;stroke-linecap:butt;stroke-linejoin:miter;stroke-opacity:1" d="M 93.5307,813.357 93.5307,825.295 z" id="boundary" inkscape:connector-curvature="0" />
	<path style="fill:none;stroke:red;stroke-width:1px;stroke-linecap:butt;stroke-linejoin:miter;stroke-opacity:1" d="M 105.468,759.639 99.4994,777.545 z" id="boundary" inkscape:connector-curvature="0" />
	<path style="fill:none;stroke:red;stroke-width:1px;stroke-linecap:butt;stroke-linejoin:miter;stroke-opacity:1" d="M 105.468,858.72 99.4994,847.976 z" id="boundary" inkscape:connector-curvature="0" />
	<path style="fill:none;stroke:red;stroke-width:1px;stroke-linecap:butt;stroke-linejoin:miter;stroke-opacity:1" d="M 99.4994,847.976 93.5307,837.232 z" id="boundary" inkscape:connector-curvature="0" />
	<path style="fill:none;stroke:red;stroke-width:1px;stroke-linecap:butt;stroke-linejoin:miter;stroke-opacity:1" d="M 93.5307,837.232 93.5307,825.295 z" id="boundary" inkscape:connector-curvature="0" />
	<path style="fill:none;stroke:red;stroke-width:1px;stroke-linecap:butt;stroke-linejoin:miter;stroke-opacity:1" d="M 111.437,723.827 111.437,735.764 z" id="boundary" inkscape:connector-curvature="0" />
	<path style="fill:none;stroke:red;stroke-width:1px;stroke-linecap:butt;stroke-linejoin:miter;stroke-opacity:1" d="M 111.437,747.702 111.437,735.764 z" id="boundary" inkscape:connector-curvature="0" />
	<path style="fill:none;stroke:red;stroke-width:1px;stroke-linecap:butt;stroke-linejoin:miter;stroke-opacity:1" d="M 111.437,747.702 105.468,759.639 z" id="boundary" inkscape:connector-curvature="0" />
	<path style="fill:none;stroke:red;stroke-width:1px;stroke-linecap:butt;stroke-linejoin:miter;stroke-opacity:1" d="M 105.468,870.657 105.468,858.72 z" id="boundary" inkscape:connector-curvature="0" />
	<path style="fill:none;stroke:red;stroke-width:1px;stroke-linecap:butt;stroke-linejoin:miter;stroke-opacity:1" d="M 111.437,881.401 105.468,870.657 z" id="boundary" inkscape:connector-curvature="0" />
	<path style="fill:none;stroke:red;stroke-width:1px;stroke-linecap:butt;stroke-linejoin:miter;stroke-opacity:1" d="M 103.081,702.339 111.437,711.889 z" id="boundary" inkscape:connector-curvature="0" />
	<path style="fill:none;stroke:red;stroke-width:1px;stroke-linecap:butt;stroke-linejoin:miter;stroke-opacity:1" d="M 111.437,711.889 111.437,723.827 z" id="boundary" inkscape:connector-curvature="0" />
	<path style="fill:none;stroke:red;stroke-width:1px;stroke-linecap:butt;stroke-linejoin:miter;stroke-opacity:1" d="M 113.824,893.338 111.437,914.826 z" id="boundary" inkscape:connector-curvature="0" />
	<path style="fill:none;stroke:red;stroke-width:1px;stroke-linecap:butt;stroke-linejoin:miter;stroke-opacity:1" d="M 111.437,926.763 111.437,914.826 z" id="boundary" inkscape:connector-curvature="0" />
	<path style="fill:none;stroke:red;stroke-width:1px;stroke-linecap:butt;stroke-linejoin:miter;stroke-opacity:1" d="M 111.437,926.763 105.468,938.7 z" id="boundary" inkscape:connector-curvature="0" />
	<path style="fill:none;stroke:red;stroke-width:1px;stroke-linecap:butt;stroke-linejoin:miter;stroke-opacity:1" d="M 105.468,938.7 105.468,950.638 z" id="boundary" inkscape:connector-curvature="0" />
	<path style="fill:none;stroke:red;stroke-width:1px;stroke-linecap:butt;stroke-linejoin:miter;stroke-opacity:1" d="M 115.018,970.931 105.468,962.575 z" id="boundary" inkscape:connector-curvature="0" />
	<path style="fill:none;stroke:red;stroke-width:1px;stroke-linecap:butt;stroke-linejoin:miter;stroke-opacity:1" d="M 105.468,962.575 105.468,950.638 z" id="boundary" inkscape:connector-curvature="0" />
	<path style="fill:none;stroke:red;stroke-width:1px;stroke-linecap:butt;stroke-linejoin:miter;stroke-opacity:1" d="M 111.437,881.401 113.824,893.338 z" id="boundary" inkscape:connector-curvature="0" />
	<path style="fill:none;stroke:red;stroke-width:1px;stroke-linecap:butt;stroke-linejoin:miter;stroke-opacity:1" d="M 124.568,978.094 115.018,970.931 z" id="boundary" inkscape:connector-curvature="0" />
	<path style="fill:none;stroke:red;stroke-width:1px;stroke-linecap:butt;stroke-linejoin:miter;stroke-opacity:1" d="M 135.312,984.063 147.249,984.063 z" id="boundary" inkscape:connector-curvature="0" />
	<path style="fill:none;stroke:red;stroke-width:1px;stroke-linecap:butt;stroke-linejoin:miter;stroke-opacity:1" d="M 147.249,984.063 157.993,990.031 z" id="boundary" inkscape:connector-curvature="0" />
	<path style="fill:none;stroke:red;stroke-width:1px;stroke-linecap:butt;stroke-linejoin:miter;stroke-opacity:1" d="M 135.312,984.063 124.568,978.094 z" id="boundary" inkscape:connector-curvature="0" />
	<path style="fill:none;stroke:red;stroke-width:1px;stroke-linecap:butt;stroke-linejoin:miter;stroke-opacity:1" d="M 157.993,990.031 169.93,990.031 z" id="boundary" inkscape:connector-curvature="0" />
	<path style="fill:none;stroke:red;stroke-width:1px;stroke-linecap:butt;stroke-linejoin:miter;stroke-opacity:1" d="M 169.93,990.031 180.674,996 z" id="boundary" inkscape:connector-curvature="0" />
	<path style="fill:none;stroke:red;stroke-width:1px;stroke-linecap:butt;stroke-linejoin:miter;stroke-opacity:1" d="M 162.768,4 174.705,4 z" id="boundary" inkscape:connector-curvature="0" />
	<path style="fill:none;stroke:red;stroke-width:1px;stroke-linecap:butt;stroke-linejoin:miter;stroke-opacity:1" d="M 174.705,4 185.449,9.96871 z" id="boundary" inkscape:connector-curvature="0" />
	<path style="fill:none;stroke:red;stroke-width:1px;stroke-linecap:butt;stroke-linejoin:miter;stroke-opacity:1" d="M 185.449,9.96871 197.386,9.96871 z" id="boundary" inkscape:connector-curvature="0" />
	<path style="fill:none;stroke:red;stroke-width:1px;stroke-linecap:butt;stroke-linejoin:miter;stroke-opacity:1" d="M 197.386,9.96871 208.13,15.9374 z" id="boundary" inkscape:connector-curvature="0" />
	<path style="fill:none;stroke:red;stroke-width:1px;stroke-linecap:butt;stroke-linejoin:miter;stroke-opacity:1" d="M 220.067,19.5187 208.13,15.9374 z" id="boundary" inkscape:connector-curvature="0" />
	<path style="fill:none;stroke:red;stroke-width:1px;stroke-linecap:butt;stroke-linejoin:miter;stroke-opacity:1" d="M 240.361,33.8436 229.617,27.8748 z" id="boundary" inkscape:connector-curvature="0" />
	<path style="fill:none;stroke:red;stroke-width:1px;stroke-linecap:butt;stroke-linejoin:miter;stroke-opacity:1" d="M 229.617,27.8748 220.067,19.5187 z" id="boundary" inkscape:connector-curvature="0" />
	<path style="fill:none;stroke:red;stroke-width:1px;stroke-linecap:butt;stroke-linejoin:miter;stroke-opacity:1" d="M 240.361,33.8436 248.717,43.3935 z" id="boundary" inkscape:connector-curvature="0" />
	<path style="fill:none;stroke:red;stroke-width:1px;stroke-linecap:butt;stroke-linejoin:miter;stroke-opacity:1" d="M 248.717,43.3935 258.267,51.7497 z" id="boundary" inkscape:connector-curvature="0" />
	<path style="fill:none;stroke:red;stroke-width:1px;stroke-linecap:butt;stroke-linejoin:miter;stroke-opacity:1" d="M 258.267,51.7497 266.623,61.2996 z" id="boundary" inkscape:connector-curvature="0" />
	<path style="fill:none;stroke:red;stroke-width:1px;stroke-linecap:butt;stroke-linejoin:miter;stroke-opacity:1" d="M 273.786,83.9807 273.786,95.9182 z" id="boundary" inkscape:connector-curvature="0" />
	<path style="fill:none;stroke:red;stroke-width:1px;stroke-linecap:butt;stroke-linejoin:miter;stroke-opacity:1" d="M 266.623,61.2996 272.592,72.0433 z" id="boundary" inkscape:connector-curvature="0" />
	<path style="fill:none;stroke:red;stroke-width:1px;stroke-linecap:butt;stroke-linejoin:miter;stroke-opacity:1" d="M 272.592,72.0433 273.786,83.9807 z" id="boundary" inkscape:connector-curvature="0" />
	<path style="fill:none;stroke:red;stroke-width:1px;stroke-linecap:butt;stroke-linejoin:miter;stroke-opacity:1" d="M 273.786,95.9182 273.786,107.856 z" id="boundary" inkscape:connector-curvature="0" />
	<path style="fill:none;stroke:red;stroke-width:1px;stroke-linecap:butt;stroke-linejoin:miter;stroke-opacity:1" d="M 255.88,226.036 261.848,208.13 z" id="boundary" inkscape:connector-curvature="0" />
	<path style="fill:none;stroke:red;stroke-width:1px;stroke-linecap:butt;stroke-linejoin:miter;stroke-opacity:1" d="M 267.817,190.224 261.848,208.13 z" id="boundary" inkscape:connector-curvature="0" />
	<path style="fill:none;stroke:red;stroke-width:1px;stroke-linecap:butt;stroke-linejoin:miter;stroke-opacity:1" d="M 261.848,248.717 267.817,259.461 z" id="boundary" inkscape:connector-curvature="0" />
	<path style="fill:none;stroke:red;stroke-width:1px;stroke-linecap:butt;stroke-linejoin:miter;stroke-opacity:1" d="M 261.848,248.717 255.88,237.974 z" id="boundary" inkscape:connector-curvature="0" />
	<path style="fill:none;stroke:red;stroke-width:1px;stroke-linecap:butt;stroke-linejoin:miter;stroke-opacity:1" d="M 255.88,237.974 255.88,226.036 z" id="boundary" inkscape:connector-curvature="0" />
	<path style="fill:none;stroke:red;stroke-width:1px;stroke-linecap:butt;stroke-linejoin:miter;stroke-opacity:1" d="M 277.367,267.817 267.817,259.461 z" id="boundary" inkscape:connector-curvature="0" />
	<path style="fill:none;stroke:red;stroke-width:1px;stroke-linecap:butt;stroke-linejoin:miter;stroke-opacity:1" d="M 273.786,119.793 273.786,131.73 z" id="boundary" inkscape:connector-curvature="0" />
	<path style="fill:none;stroke:red;stroke-width:1px;stroke-linecap:butt;stroke-linejoin:miter;stroke-opacity:1" d="M 273.786,119.793 273.786,107.856 z" id="boundary" inkscape:connector-curvature="0" />
	<path style="fill:none;stroke:red;stroke-width:1px;stroke-linecap:butt;stroke-linejoin:miter;stroke-opacity:1" d="M 273.786,131.73 273.786,143.668 z" id="boundary" inkscape:connector-curvature="0" />
	<path style="fill:none;stroke:red;stroke-width:1px;stroke-linecap:butt;stroke-linejoin:miter;stroke-opacity:1" d="M 273.786,155.605 273.786,143.668 z" id="boundary" inkscape:connector-curvature="0" />
	<path style="fill:none;stroke:red;stroke-width:1px;stroke-linecap:butt;stroke-linejoin:miter;stroke-opacity:1" d="M 273.786,167.543 273.786,155.605 z" id="boundary" inkscape:connector-curvature="0" />
	<path style="fill:none;stroke:red;stroke-width:1px;stroke-linecap:butt;stroke-linejoin:miter;stroke-opacity:1" d="M 273.786,179.48 267.817,190.224 z" id="boundary" inkscape:connector-curvature="0" />
	<path style="fill:none;stroke:red;stroke-width:1px;stroke-linecap:butt;stroke-linejoin:miter;stroke-opacity:1" d="M 273.786,167.543 273.786,179.48 z" id="boundary" inkscape:connector-curvature="0" />
	<path style="fill:none;stroke:red;stroke-width:1px;stroke-linecap:butt;stroke-linejoin:miter;stroke-opacity:1" d="M 285.723,277.367 277.367,267.817 z" id="boundary" inkscape:connector-curvature="0" />
	<path style="fill:none;stroke:red;stroke-width:1px;stroke-linecap:butt;stroke-linejoin:miter;stroke-opacity:1" d="M 285.723,277.367 285.723,289.304 z" id="boundary" inkscape:connector-curvature="0" />
	<path style="fill:none;stroke:red;stroke-width:1px;stroke-linecap:butt;stroke-linejoin:miter;stroke-opacity:1" d="M 291.692,311.986 285.723,301.242 z" id="boundary" inkscape:connector-curvature="0" />
	<path style="fill:none;stroke:red;stroke-width:1px;stroke-linecap:butt;stroke-linejoin:miter;stroke-opacity:1" d="M 285.723,301.242 285.723,289.304 z" id="boundary" inkscape:connector-curvature="0" />
	<path style="fill:none;stroke:red;stroke-width:1px;stroke-linecap:butt;stroke-linejoin:miter;stroke-opacity:1" d="M 291.692,311.986 291.692,323.923 z" id="boundary" inkscape:connector-curvature="0" />
	<path style="fill:none;stroke:red;stroke-width:1px;stroke-linecap:butt;stroke-linejoin:miter;stroke-opacity:1" d="M 291.692,323.923 297.661,334.667 z" id="boundary" inkscape:connector-curvature="0" />
	<path style="fill:none;stroke:red;stroke-width:1px;stroke-linecap:butt;stroke-linejoin:miter;stroke-opacity:1" d="M 297.661,334.667 297.661,346.604 z" id="boundary" inkscape:connector-curvature="0" />
	<path style="fill:none;stroke:red;stroke-width:1px;stroke-linecap:butt;stroke-linejoin:miter;stroke-opacity:1" d="M 291.692,387.191 291.692,375.254 z" id="boundary" inkscape:connector-curvature="0" />
	<path style="fill:none;stroke:red;stroke-width:1px;stroke-linecap:butt;stroke-linejoin:miter;stroke-opacity:1" d="M 297.661,397.935 291.692,387.191 z" id="boundary" inkscape:connector-curvature="0" />
	<path style="fill:none;stroke:red;stroke-width:1px;stroke-linecap:butt;stroke-linejoin:miter;stroke-opacity:1" d="M 297.661,358.542 291.692,375.254 z" id="boundary" inkscape:connector-curvature="0" />
	<path style="fill:none;stroke:red;stroke-width:1px;stroke-linecap:butt;stroke-linejoin:miter;stroke-opacity:1" d="M 297.661,346.604 297.661,358.542 z" id="boundary" inkscape:connector-curvature="0" />
	<path style="fill:none;stroke:red;stroke-width:1px;stroke-linecap:butt;stroke-linejoin:miter;stroke-opacity:1" d="M 297.661,397.935 303.629,408.679 z" id="boundary" inkscape:connector-curvature="0" />
	<path style="fill:none;stroke:red;stroke-width:1px;stroke-linecap:butt;stroke-linejoin:miter;stroke-opacity:1" d="M 309.598,419.422 303.629,408.679 z" id="boundary" inkscape:connector-curvature="0" />
	<path style="fill:none;stroke:red;stroke-width:1px;stroke-linecap:butt;stroke-linejoin:miter;stroke-opacity:1" d="M 309.598,419.422 309.598,431.36 z" id="boundary" inkscape:connector-curvature="0" />
	<path style="fill:none;stroke:red;stroke-width:1px;stroke-linecap:butt;stroke-linejoin:miter;stroke-opacity:1" d="M 309.598,431.36 314.373,443.297 z" id="boundary" inkscape:connector-curvature="0" />
	<path style="fill:none;stroke:red;stroke-width:1px;stroke-linecap:butt;stroke-linejoin:miter;stroke-opacity:1" d="M 314.373,443.297 315.567,455.235 z" id="boundary" inkscape:connector-curvature="0" />
	<path style="fill:none;stroke:red;stroke-width:1px;stroke-linecap:butt;stroke-linejoin:miter;stroke-opacity:1" d="M 320.342,467.172 315.567,455.235 z" id="boundary" inkscape:connector-curvature="0" />
	<path style="fill:none;stroke:red;stroke-width:1px;stroke-linecap:butt;stroke-linejoin:miter;stroke-opacity:1" d="M 327.504,489.853 321.535,479.11 z" id="boundary" inkscape:connector-curvature="0" />
	<path style="fill:none;stroke:red;stroke-width:1px;stroke-linecap:butt;stroke-linejoin:miter;stroke-opacity:1" d="M 321.535,479.11 320.342,467.172 z" id="boundary" inkscape:connector-curvature="0" />
	<path style="fill:none;stroke:red;stroke-width:1px;stroke-linecap:butt;stroke-linejoin:miter;stroke-opacity:1" d="M 327.504,489.853 331.085,501.791 z" id="boundary" inkscape:connector-curvature="0" />
	<path style="fill:none;stroke:red;stroke-width:1px;stroke-linecap:butt;stroke-linejoin:miter;stroke-opacity:1" d="M 331.085,501.791 333.473,513.728 z" id="boundary" inkscape:connector-curvature="0" />
	<path style="fill:none;stroke:red;stroke-width:1px;stroke-linecap:butt;stroke-linejoin:miter;stroke-opacity:1" d="M 333.473,513.728 333.473,525.665 z" id="boundary" inkscape:connector-curvature="0" />
	<path style="fill:none;stroke:red;stroke-width:1px;stroke-linecap:butt;stroke-linejoin:miter;stroke-opacity:1" d="M 333.473,525.665 339.442,536.409 z" id="boundary" inkscape:connector-curvature="0" />
	<path style="fill:none;stroke:red;stroke-width:1px;stroke-linecap:butt;stroke-linejoin:miter;stroke-opacity:1" d="M 339.442,536.409 341.829,548.347 z" id="boundary" inkscape:connector-curvature="0" />
	<path style="fill:none;stroke:red;stroke-width:1px;stroke-linecap:butt;stroke-linejoin:miter;stroke-opacity:1" d="M 267.817,828.876 261.848,846.782 z" id="boundary" inkscape:connector-curvature="0" />
	<path style="fill:none;stroke:red;stroke-width:1px;stroke-linecap:butt;stroke-linejoin:miter;stroke-opacity:1" d="M 261.848,846.782 255.88,858.72 z" id="boundary" inkscape:connector-curvature="0" />
	<path style="fill:none;stroke:red;stroke-width:1px;stroke-linecap:butt;stroke-linejoin:miter;stroke-opacity:1" d="M 273.786,805.001 273.786,816.939 z" id="boundary" inkscape:connector-curvature="0" />
	<path style="fill:none;stroke:red;stroke-width:1px;stroke-linecap:butt;stroke-linejoin:miter;stroke-opacity:1" d="M 273.786,816.939 267.817,828.876 z" id="boundary" inkscape:connector-curvature="0" />
	<path style="fill:none;stroke:red;stroke-width:1px;stroke-linecap:butt;stroke-linejoin:miter;stroke-opacity:1" d="M 249.911,876.626 255.88,858.72 z" id="boundary" inkscape:connector-curvature="0" />
	<path style="fill:none;stroke:red;stroke-width:1px;stroke-linecap:butt;stroke-linejoin:miter;stroke-opacity:1" d="M 252.298,888.563 249.911,876.626 z" id="boundary" inkscape:connector-curvature="0" />
	<path style="fill:none;stroke:red;stroke-width:1px;stroke-linecap:butt;stroke-linejoin:miter;stroke-opacity:1" d="M 252.298,888.563 258.267,899.307 z" id="boundary" inkscape:connector-curvature="0" />
	<path style="fill:none;stroke:red;stroke-width:1px;stroke-linecap:butt;stroke-linejoin:miter;stroke-opacity:1" d="M 291.692,914.826 279.755,911.244 z" id="boundary" inkscape:connector-curvature="0" />
	<path style="fill:none;stroke:red;stroke-width:1px;stroke-linecap:butt;stroke-linejoin:miter;stroke-opacity:1" d="M 285.723,751.283 279.755,763.22 z" id="boundary" inkscape:connector-curvature="0" />
	<path style="fill:none;stroke:red;stroke-width:1px;stroke-linecap:butt;stroke-linejoin:miter;stroke-opacity:1" d="M 279.755,763.22 279.755,775.158 z" id="boundary" inkscape:connector-curvature="0" />
	<path style="fill:none;stroke:red;stroke-width:1px;stroke-linecap:butt;stroke-linejoin:miter;stroke-opacity:1" d="M 285.723,751.283 291.692,739.345 z" id="boundary" inkscape:connector-curvature="0" />
	<path style="fill:none;stroke:red;stroke-width:1px;stroke-linecap:butt;stroke-linejoin:miter;stroke-opacity:1" d="M 273.786,805.001 279.755,787.095 z" id="boundary" inkscape:connector-curvature="0" />
	<path style="fill:none;stroke:red;stroke-width:1px;stroke-linecap:butt;stroke-linejoin:miter;stroke-opacity:1" d="M 279.755,775.158 279.755,787.095 z" id="boundary" inkscape:connector-curvature="0" />
	<path style="fill:none;stroke:red;stroke-width:1px;stroke-linecap:butt;stroke-linejoin:miter;stroke-opacity:1" d="M 192.611,996 180.674,996 z" id="boundary" inkscape:connector-curvature="0" />
	<path style="fill:none;stroke:red;stroke-width:1px;stroke-linecap:butt;stroke-linejoin:miter;stroke-opacity:1" d="M 204.549,996 192.611,996 z" id="boundary" inkscape:connector-curvature="0" />
	<path style="fill:none;stroke:red;stroke-width:1px;stroke-linecap:butt;stroke-linejoin:miter;stroke-opacity:1" d="M 228.424,996 216.486,996 z" id="boundary" inkscape:connector-curvature="0" />
	<path style="fill:none;stroke:red;stroke-width:1px;stroke-linecap:butt;stroke-linejoin:miter;stroke-opacity:1" d="M 240.361,996 228.424,996 z" id="boundary" inkscape:connector-curvature="0" />
	<path style="fill:none;stroke:red;stroke-width:1px;stroke-linecap:butt;stroke-linejoin:miter;stroke-opacity:1" d="M 216.486,996 204.549,996 z" id="boundary" inkscape:connector-curvature="0" />
	<path style="fill:none;stroke:red;stroke-width:1px;stroke-linecap:butt;stroke-linejoin:miter;stroke-opacity:1" d="M 252.298,996 240.361,996 z" id="boundary" inkscape:connector-curvature="0" />
	<path style="fill:none;stroke:red;stroke-width:1px;stroke-linecap:butt;stroke-linejoin:miter;stroke-opacity:1" d="M 269.011,905.276 258.267,899.307 z" id="boundary" inkscape:connector-curvature="0" />
	<path style="fill:none;stroke:red;stroke-width:1px;stroke-linecap:butt;stroke-linejoin:miter;stroke-opacity:1" d="M 279.755,911.244 269.011,905.276 z" id="boundary" inkscape:connector-curvature="0" />
	<path style="fill:none;stroke:red;stroke-width:1px;stroke-linecap:butt;stroke-linejoin:miter;stroke-opacity:1" d="M 264.236,996 252.298,996 z" id="boundary" inkscape:connector-curvature="0" />
	<path style="fill:none;stroke:red;stroke-width:1px;stroke-linecap:butt;stroke-linejoin:miter;stroke-opacity:1" d="M 274.98,990.031 264.236,996 z" id="boundary" inkscape:connector-curvature="0" />
	<path style="fill:none;stroke:red;stroke-width:1px;stroke-linecap:butt;stroke-linejoin:miter;stroke-opacity:1" d="M 285.723,984.063 274.98,990.031 z" id="boundary" inkscape:connector-curvature="0" />
	<path style="fill:none;stroke:red;stroke-width:1px;stroke-linecap:butt;stroke-linejoin:miter;stroke-opacity:1" d="M 296.467,978.094 285.723,984.063 z" id="boundary" inkscape:connector-curvature="0" />
	<path style="fill:none;stroke:red;stroke-width:1px;stroke-linecap:butt;stroke-linejoin:miter;stroke-opacity:1" d="M 291.692,685.627 291.692,697.564 z" id="boundary" inkscape:connector-curvature="0" />
	<path style="fill:none;stroke:red;stroke-width:1px;stroke-linecap:butt;stroke-linejoin:miter;stroke-opacity:1" d="M 291.692,673.69 291.692,685.627 z" id="boundary" inkscape:connector-curvature="0" />
	<path style="fill:none;stroke:red;stroke-width:1px;stroke-linecap:butt;stroke-linejoin:miter;stroke-opacity:1" d="M 321.535,614.002 321.535,625.94 z" id="boundary" inkscape:connector-curvature="0" />
	<path style="fill:none;stroke:red;stroke-width:1px;stroke-linecap:butt;stroke-linejoin:miter;stroke-opacity:1" d="M 313.179,659.365 301.242,665.333 z" id="boundary" inkscape:connector-curvature="0" />
	<path style="fill:none;stroke:red;stroke-width:1px;stroke-linecap:butt;stroke-linejoin:miter;stroke-opacity:1" d="M 321.535,643.846 313.179,659.365 z" id="boundary" inkscape:connector-curvature="0" />
	<path style="fill:none;stroke:red;stroke-width:1px;stroke-linecap:butt;stroke-linejoin:miter;stroke-opacity:1" d="M 321.535,614.002 331.085,605.646 z" id="boundary" inkscape:connector-curvature="0" />
	<path style="fill:none;stroke:red;stroke-width:1px;stroke-linecap:butt;stroke-linejoin:miter;stroke-opacity:1" d="M 321.535,625.94 321.535,643.846 z" id="boundary" inkscape:connector-curvature="0" />
	<path style="fill:none;stroke:red;stroke-width:1px;stroke-linecap:butt;stroke-linejoin:miter;stroke-opacity:1" d="M 291.692,673.69 301.242,665.333 z" id="boundary" inkscape:connector-curvature="0" />
	<path style="fill:none;stroke:red;stroke-width:1px;stroke-linecap:butt;stroke-linejoin:miter;stroke-opacity:1" d="M 297.661,708.308 291.692,697.564 z" id="boundary" inkscape:connector-curvature="0" />
	<path style="fill:none;stroke:red;stroke-width:1px;stroke-linecap:butt;stroke-linejoin:miter;stroke-opacity:1" d="M 341.829,548.347 345.41,560.284 z" id="boundary" inkscape:connector-curvature="0" />
	<path style="fill:none;stroke:red;stroke-width:1px;stroke-linecap:butt;stroke-linejoin:miter;stroke-opacity:1" d="M 345.41,560.284 345.41,572.221 z" id="boundary" inkscape:connector-curvature="0" />
	<path style="fill:none;stroke:red;stroke-width:1px;stroke-linecap:butt;stroke-linejoin:miter;stroke-opacity:1" d="M 345.41,572.221 339.442,590.128 z" id="boundary" inkscape:connector-curvature="0" />
	<path style="fill:none;stroke:red;stroke-width:1px;stroke-linecap:butt;stroke-linejoin:miter;stroke-opacity:1" d="M 331.085,605.646 339.442,590.128 z" id="boundary" inkscape:connector-curvature="0" />
	<path style="fill:none;stroke:red;stroke-width:1px;stroke-linecap:butt;stroke-linejoin:miter;stroke-opacity:1" d="M 297.661,720.245 291.692,739.345 z" id="boundary" inkscape:connector-curvature="0" />
	<path style="fill:none;stroke:red;stroke-width:1px;stroke-linecap:butt;stroke-linejoin:miter;stroke-opacity:1" d="M 297.661,708.308 297.661,720.245 z" id="boundary" inkscape:connector-curvature="0" />
	<path style="fill:none;stroke:red;stroke-width:1px;stroke-linecap:butt;stroke-linejoin:miter;stroke-opacity:1" d="M 315.567,920.794 303.629,917.213 z" id="boundary" inkscape:connector-curvature="0" />
	<path style="fill:none;stroke:red;stroke-width:1px;stroke-linecap:butt;stroke-linejoin:miter;stroke-opacity:1" d="M 307.211,972.125 296.467,978.094 z" id="boundary" inkscape:connector-curvature="0" />
	<path style="fill:none;stroke:red;stroke-width:1px;stroke-linecap:butt;stroke-linejoin:miter;stroke-opacity:1" d="M 303.629,917.213 291.692,914.826 z" id="boundary" inkscape:connector-curvature="0" />
	<path style="fill:none;stroke:red;stroke-width:1px;stroke-linecap:butt;stroke-linejoin:miter;stroke-opacity:1" d="M 315.567,920.794 326.31,926.763 z" id="boundary" inkscape:connector-curvature="0" />
	<path style="fill:none;stroke:red;stroke-width:1px;stroke-linecap:butt;stroke-linejoin:miter;stroke-opacity:1" d="M 333.473,936.313 326.31,926.763 z" id="boundary" inkscape:connector-curvature="0" />
	<path style="fill:none;stroke:red;stroke-width:1px;stroke-linecap:butt;stroke-linejoin:miter;stroke-opacity:1" d="M 333.473,936.313 333.473,948.25 z" id="boundary" inkscape:connector-curvature="0" />
	<path style="fill:none;stroke:red;stroke-width:1px;stroke-linecap:butt;stroke-linejoin:miter;stroke-opacity:1" d="M 317.954,966.156 307.211,972.125 z" id="boundary" inkscape:connector-curvature="0" />
	<path style="fill:none;stroke:red;stroke-width:1px;stroke-linecap:butt;stroke-linejoin:miter;stroke-opacity:1" d="M 333.473,948.25 328.698,960.188 z" id="boundary" inkscape:connector-curvature="0" />
	<path style="fill:none;stroke:red;stroke-width:1px;stroke-linecap:butt;stroke-linejoin:miter;stroke-opacity:1" d="M 328.698,960.188 317.954,966.156 z" id="boundary" inkscape:connector-curvature="0" />
	<circle cx="4" cy="306.017" r="4" fill="#0" id="circle0"/>
	<circle cx="4" cy="317.954" r="4" fill="#0" id="circle1"/>
	<circle cx="4" cy="329.892" r="4" fill="#0" id="circle2"/>
	<circle cx="4" cy="341.829" r="4" fill="#0" id="circle3"/>
	<circle cx="4" cy="353.767" r="4" fill="#0" id="circle4"/>
	<circle cx="4" cy="365.704" r="4" fill="#0" id="circle5"/>
	<circle cx="9.96871" cy="294.079" r="4" fill="#0" id="circle6"/>
	<circle cx="9.96871" cy="376.448" r="4" fill="#0" id="circle7"/>
	<circle cx="9.96871" cy="388.385" r="4" fill="#0" id="circle8"/>
	<circle cx="9.96871" cy="431.36" r="4" fill="#0" id="circle9"/>
	<circle cx="9.96871" cy="443.297" r="4" fill="#0" id="circle10"/>
	<circle cx="9.96871" cy="455.235" r="4" fill="#0" id="circle11"/>
	<circle cx="15.9374" cy="399.129" r="4" fill="#0" id="circle12"/>
	<circle cx="15.9374" cy="411.066" r="4" fill="#0" id="circle13"/>
	<circle cx="15.9374" cy="465.978" r="4" fill="#0" id="circle14"/>
	<circle cx="15.9374" cy="477.916" r="4" fill="#0" id="circle15"/>
	<circle cx="15.9374" cy="489.853" r="4" fill="#0" id="circle16"/>
	<circle cx="19.5187" cy="284.529" r="4" fill="#0" id="circle17"/>
	<circle cx="21.9061" cy="500.597" r="4" fill="#0" id="circle18"/>
	<circle cx="21.9061" cy="512.534" r="4" fill="#0" id="circle19"/>
	<circle cx="25.4874" cy="272.592" r="4" fill="#0" id="circle20"/>
	<circle cx="25.4874" cy="524.472" r="4" fill="#0" id="circle21"/>
	<circle cx="27.8748" cy="73.2371" r="4" fill="#0" id="circle22"/>
	<circle cx="27.8748" cy="85.1745" r="4" fill="#0" id="circle23"/>
	<circle cx="27.8748" cy="97.1119" r="4" fill="#0" id="circle24"/>
	<circle cx="27.8748" cy="109.049" r="4" fill="#0" id="circle25"/>
	<circle cx="27.8748" cy="120.987" r="4" fill="#0" id="circle26"/>
	<circle cx="27.8748" cy="536.409" r="4" fill="#0" id="circle27"/>
	<circle cx="33.8436" cy="61.2996" r="4" fill="#0" id="circle28"/>
	<circle cx="33.8436" cy="131.73" r="4" fill="#0" id="circle29"/>
	<circle cx="33.8436" cy="547.153" r="4" fill="#0" id="circle30"/>
	<circle cx="33.8436" cy="559.09" r="4" fill="#0" id="circle31"/>
	<circle cx="33.8436" cy="592.515" r="4" fill="#0" id="circle32"/>
	<circle cx="33.8436" cy="604.452" r="4" fill="#0" id="circle33"/>
	<circle cx="35.0373" cy="263.042" r="4" fill="#0" id="circle34"/>
	<circle cx="39.8123" cy="49.3622" r="4" fill="#0" id="circle35"/>
	<circle cx="39.8123" cy="142.474" r="4" fill="#0" id="circle36"/>
	<circle cx="39.8123" cy="569.834" r="4" fill="#0" id="circle37"/>
	<circle cx="39.8123" cy="581.771" r="4" fill="#0" id="circle38"/>
	<circle cx="39.8123" cy="615.196" r="4" fill="#0" id="circle39"/>
	<circle cx="43.3935" cy="154.412" r="4" fill="#0" id="circle40"/>
	<circle cx="44.5872" cy="254.686" r="4" fill="#0" id="circle41"/>
	<circle cx="45.781" cy="625.94" r="4" fill="#0" id="circle42"/>
	<circle cx="49.3622" cy="39.8123" r="4" fill="#0" id="circle43"/>
	<circle cx="49.3622" cy="165.155" r="4" fill="#0" id="circle44"/>
	<circle cx="52.9434" cy="635.49" r="4" fill="#0" id="circle45"/>
	<circle cx="55.3309" cy="248.717" r="4" fill="#0" id="circle46"/>
	<circle cx="57.7184" cy="174.705" r="4" fill="#0" id="circle47"/>
	<circle cx="57.7184" cy="647.427" r="4" fill="#0" id="circle48"/>
	<circle cx="58.9122" cy="30.2623" r="4" fill="#0" id="circle49"/>
	<circle cx="58.9122" cy="659.365" r="4" fill="#0" id="circle50"/>
	<circle cx="64.8809" cy="239.167" r="4" fill="#0" id="circle51"/>
	<circle cx="64.8809" cy="670.108" r="4" fill="#0" id="circle52"/>
	<circle cx="67.2684" cy="183.061" r="4" fill="#0" id="circle53"/>
	<circle cx="68.4621" cy="21.9061" r="4" fill="#0" id="circle54"/>
	<circle cx="73.2371" cy="679.658" r="4" fill="#0" id="circle55"/>
	<circle cx="74.4308" cy="230.811" r="4" fill="#0" id="circle56"/>
	<circle cx="75.6245" cy="192.611" r="4" fill="#0" id="circle57"/>
	<circle cx="79.2058" cy="15.9374" r="4" fill="#0" id="circle58"/>
	<circle cx="81.5933" cy="203.355" r="4" fill="#0" id="circle59"/>
	<circle cx="81.5933" cy="215.292" r="4" fill="#0" id="circle60"/>
	<circle cx="82.787" cy="688.014" r="4" fill="#0" id="circle61"/>
	<circle cx="91.1432" cy="9.96871" r="4" fill="#0" id="circle62"/>
	<circle cx="91.1432" cy="697.564" r="4" fill="#0" id="circle63"/>
	<circle cx="93.5307" cy="789.483" r="4" fill="#0" id="circle64"/>
	<circle cx="93.5307" cy="801.42" r="4" fill="#0" id="circle65"/>
	<circle cx="93.5307" cy="813.357" r="4" fill="#0" id="circle66"/>
	<circle cx="93.5307" cy="825.295" r="4" fill="#0" id="circle67"/>
	<circle cx="93.5307" cy="837.232" r="4" fill="#0" id="circle68"/>
	<circle cx="99.4994" cy="777.545" r="4" fill="#0" id="circle69"/>
	<circle cx="99.4994" cy="847.976" r="4" fill="#0" id="circle70"/>
	<circle cx="103.081" cy="4" r="4" fill="#0" id="circle71"/>
	<circle cx="103.081" cy="702.339" r="4" fill="#0" id="circle72"/>
	<circle cx="105.468" cy="759.639" r="4" fill="#0" id="circle73"/>
	<circle cx="105.468" cy="858.72" r="4" fill="#0" id="circle74"/>
	<circle cx="105.468" cy="870.657" r="4" fill="#0" id="circle75"/>
	<circle cx="105.468" cy="938.7" r="4" fill="#0" id="circle76"/>
	<circle cx="105.468" cy="950.638" r="4" fill="#0" id="circle77"/>
	<circle cx="105.468" cy="962.575" r="4" fill="#0" id="circle78"/>
	<circle cx="111.437" cy="711.889" r="4" fill="#0" id="circle79"/>
	<circle cx="111.437" cy="723.827" r="4" fill="#0" id="circle80"/>
	<circle cx="111.437" cy="735.764" r="4" fill="#0" id="circle81"/>
	<circle cx="111.437" cy="747.702" r="4" fill="#0" id="circle82"/>
	<circle cx="111.437" cy="881.401" r="4" fill="#0" id="circle83"/>
	<circle cx="111.437" cy="914.826" r="4" fill="#0" id="circle84"/>
	<circle cx="111.437" cy="926.763" r="4" fill="#0" id="circle85"/>
	<circle cx="113.824" cy="893.338" r="4" fill="#0" id="circle86"/>
	<circle cx="115.018" cy="4" r="4" fill="#0" id="circle87"/>
	<circle cx="115.018" cy="970.931" r="4" fill="#0" id="circle88"/>
	<circle cx="124.568" cy="978.094" r="4" fill="#0" id="circle89"/>
	<circle cx="126.955" cy="4" r="4" fill="#0" id="circle90"/>
	<circle cx="135.312" cy="984.063" r="4" fill="#0" id="circle91"/>
	<circle cx="138.893" cy="4" r="4" fill="#0" id="circle92"/>
	<circle cx="147.249" cy="984.063" r="4" fill="#0" id="circle93"/>
	<circle cx="150.83" cy="4" r="4" fill="#0" id="circle94"/>
	<circle cx="157.993" cy="990.031" r="4" fill="#0" id="circle95"/>
	<circle cx="162.768" cy="4" r="4" fill="#0" id="circle96"/>
	<circle cx="169.93" cy="990.031" r="4" fill="#0" id="circle97"/>
	<circle cx="174.705" cy="4" r="4" fill="#0" id="circle98"/>
	<circle cx="180.674" cy="996" r="4" fill="#0" id="circle99"/>
	<circle cx="185.449" cy="9.96871" r="4" fill="#0" id="circle100"/>
	<circle cx="192.611" cy="996" r="4" fill="#0" id="circle101"/>
	<circle cx="197.386" cy="9.96871" r="4" fill="#0" id="circle102"/>
	<circle cx="204.549" cy="996" r="4" fill="#0" id="circle103"/>
	<circle cx="208.13" cy="15.9374" r="4" fill="#0" id="circle104"/>
	<circle cx="216.486" cy="996" r="4" fill="#0" id="circle105"/>
	<circle cx="220.067" cy="19.5187" r="4" fill="#0" id="circle106"/>
	<circle cx="228.424" cy="996" r="4" fill="#0" id="circle107"/>
	<circle cx="229.617" cy="27.8748" r="4" fill="#0" id="circle108"/>
	<circle cx="240.361" cy="33.8436" r="4" fill="#0" id="circle109"/>
	<circle cx="240.361" cy="996" r="4" fill="#0" id="circle110"/>
	<circle cx="248.717" cy="43.3935" r="4" fill="#0" id="circle111"/>
	<circle cx="249.911" cy="876.626" r="4" fill="#0" id="circle112"/>
	<circle cx="252.298" cy="888.563" r="4" fill="#0" id="circle113"/>
	<circle cx="252.298" cy="996" r="4" fill="#0" id="circle114"/>
	<circle cx="255.88" cy="226.036" r="4" fill="#0" id="circle115"/>
	<circle cx="255.88" cy="237.974" r="4" fill="#0" id="circle116"/>
	<circle cx="255.88" cy="858.72" r="4" fill="#0" id="circle117"/>
	<circle cx="258.267" cy="51.7497" r="4" fill="#0" id="circle118"/>
	<circle cx="258.267" cy="899.307" r="4" fill="#0" id="circle119"/>
	<circle cx="261.848" cy="208.13" r="4" fill="#0" id="circle120"/>
	<circle cx="261.848" cy="248.717" r="4" fill="#0" id="circle121"/>
	<circle cx="261.848" cy="846.782" r="4" fill="#0" id="circle122"/>
	<circle cx="264.236" cy="996" r="4" fill="#0" id="circle123"/>
	<circle cx="266.623" cy="61.2996" r="4" fill="#0" id="circle124"/>
	<circle cx="267.817" cy="190.224" r="4" fill="#0" id="circle125"/>
	<circle cx="267.817" cy="259.461" r="4" fill="#0" id="circle126"/>
	<circle cx="267.817" cy="828.876" r="4" fill="#0" id="circle127"/>
	<circle cx="269.011" cy="905.276" r="4" fill="#0" id="circle128"/>
	<circle cx="272.592" cy="72.0433" r="4" fill="#0" id="circle129"/>
	<circle cx="273.786" cy="83.9807" r="4" fill="#0" id="circle130"/>
	<circle cx="273.786" cy="95.9182" r="4" fill="#0" id="circle131"/>
	<circle cx="273.786" cy="107.856" r="4" fill="#0" id="circle132"/>
	<circle cx="273.786" cy="119.793" r="4" fill="#0" id="circle133"/>
	<circle cx="273.786" cy="131.73" r="4" fill="#0" id="circle134"/>
	<circle cx="273.786" cy="143.668" r="4" fill="#0" id="circle135"/>
	<circle cx="273.786" cy="155.605" r="4" fill="#0" id="circle136"/>
	<circle cx="273.786" cy="167.543" r="4" fill="#0" id="circle137"/>
	<circle cx="273.786" cy="179.48" r="4" fill="#0" id="circle138"/>
	<circle cx="273.786" cy="805.001" r="4" fill="#0" id="circle139"/>
	<circle cx="273.786" cy="816.939" r="4" fill="#0" id="circle140"/>
	<circle cx="274.98" cy="990.031" r="4" fill="#0" id="circle141"/>
	<circle cx="277.367" cy="267.817" r="4" fill="#0" id="circle142"/>
	<circle cx="279.755" cy="763.22" r="4" fill="#0" id="circle143"/>
	<circle cx="279.755" cy="775.158" r="4" fill="#0" id="circle144"/>
	<circle cx="279.755" cy="787.095" r="4" fill="#0" id="circle145"/>
	<circle cx="279.755" cy="911.244" r="4" fill="#0" id="circle146"/>
	<circle cx="285.723" cy="277.367" r="4" fill="#0" id="circle147"/>
	<circle cx="285.723" cy="289.304" r="4" fill="#0" id="circle148"/>
	<circle cx="285.723" cy="301.242" r="4" fill="#0" id="circle149"/>
	<circle cx="285.723" cy="751.283" r="4" fill="#0" id="circle150"/>
	<circle cx="285.723" cy="984.063" r="4" fill="#0" id="circle151"/>
	<circle cx="291.692" cy="311.986" r="4" fill="#0" id="circle152"/>
	<circle cx="291.692" cy="323.923" r="4" fill="#0" id="circle153"/>
	<circle cx="291.692" cy="375.254" r="4" fill="#0" id="circle154"/>
	<circle cx="291.692" cy="387.191" r="4" fill="#0" id="circle155"/>
	<circle cx="291.692" cy="673.69" r="4" fill="#0" id="circle156"/>
	<circle cx="291.692" cy="685.627" r="4" fill="#0" id="circle157"/>
	<circle cx="291.692" cy="697.564" r="4" fill="#0" id="circle158"/>
	<circle cx="291.692" cy="739.345" r="4" fill="#0" id="circle159"/>
	<circle cx="291.692" cy="914.826" r="4" fill="#0" id="circle160"/>
	<circle cx="296.467" cy="978.094" r="4" fill="#0" id="circle161"/>
	<circle cx="297.661" cy="334.667" r="4" fill="#0" id="circle162"/>
	<circle cx="297.661" cy="346.604" r="4" fill="#0" id="circle163"/>
	<circle cx="297.661" cy="358.542" r="4" fill="#0" id="circle164"/>
	<circle cx="297.661" cy="397.935" r="4" fill="#0" id="circle165"/>
	<circle cx="297.661" cy="708.308" r="4" fill="#0" id="circle166"/>
	<circle cx="297.661" cy="720.245" r="4" fill="#0" id="circle167"/>
	<circle cx="301.242" cy="665.333" r="4" fill="#0" id="circle168"/>
	<circle cx="303.629" cy="408.679" r="4" fill="#0" id="circle169"/>
	<circle cx="303.629" cy="917.213" r="4" fill="#0" id="circle170"/>
	<circle cx="307.211" cy="972.125" r="4" fill="#0" id="circle171"/>
	<circle cx="309.598" cy="419.422" r="4" fill="#0" id="circle172"/>
	<circle cx="309.598" cy="431.36" r="4" fill="#0" id="circle173"/>
	<circle cx="313.179" cy="659.365" r="4" fill="#0" id="circle174"/>
	<circle cx="314.373" cy="443.297" r="4" fill="#0" id="circle175"/>
	<circle cx="315.567" cy="455.235" r="4" fill="#0" id="circle176"/>
	<circle cx="315.567" cy="920.794" r="4" fill="#0" id="circle177"/>
	<circle cx="317.954" cy="966.156" r="4" fill="#0" id="circle178"/>
	<circle cx="320.342" cy="467.172" r="4" fill="#0" id="circle179"/>
	<circle cx="321.535" cy="479.11" r="4" fill="#0" id="circle180"/>
	<circle cx="321.535" cy="614.002" r="4" fill="#0" id="circle181"/>
	<circle cx="321.535" cy="625.94" r="4" fill="#0" id="circle182"/>
	<circle cx="321.535" cy="643.846" r="4" fill="#0" id="circle183"/>
	<circle cx="326.31" cy="926.763" r="4" fill="#0" id="circle184"/>
	<circle cx="327.504" cy="489.853" r="4" fill="#0" id="circle185"/>
	<circle cx="328.698" cy="960.188" r="4" fill="#0" id="circle186"/>
	<circle cx="331.085" cy="501.791" r="4" fill="#0" id="circle187"/>
	<circle cx="331.085" cy="605.646" r="4" fill="#0" id="circle188"/>
	<circle cx="333.473" cy="513.728" r="4" fill="#0" id="circle189"/>
	<circle cx="333.473" cy="525.665" r="4" fill="#0" id="circle190"/>
	<circle cx="333.473" cy="936.313" r="4" fill="#0" id="circle191"/>
	<circle cx="333.473" cy="948.25" r="4" fill="#0" id="circle192"/>
	<circle cx="339.442" cy="536.409" r="4" fill="#0" id="circle193"/>
	<circle cx="339.442" cy="590.128" r="4" fill="#0" id="circle194"/>
	<circle cx="341.829" cy="548.347" r="4" fill="#0" id="circle195"/>
	<circle cx="345.41" cy="560.284" r="4" fill="#0" id="circle196"/>
	<circle cx="345.41" cy="572.221" r="4" fill="#0" id="circle197"/>
	</g>
</svg>