<?xml version="1.0" encoding="UTF-8" standalone="no"?>
<!-- Created with CurveBenchmark -->
<svg
	xmlns:dc="http://purl.org/dc/elements/1.1/"
	xmlns:cc="http://creativecommons.org/ns#"
	xmlns:rdf="http://www.w3.org/1999/02/22-rdf-syntax-ns#"
	xmlns:svg="http://www.w3.org/2000/svg"
	xmlns="http://www.w3.org/2000/svg"
	xmlns:sodipodi="http://sodipodi.sourceforge.net/DTD/sodipodi-0.dtd"
	xmlns:inkscape="http://www.inkscape.org/namespaces/inkscape"
	width="1000"
	height="1000"
	id="svg2"
	version="1.1"
	sodipodi:docname="manifold/gathan1-apple-14.png.txt">
<defs
	id="defs4" />
<metadata
	id="metadata7">
	<rdf:RDF>
		<cc:Work
			rdf:about="">
			<dc:format>image/svg+xml</dc:format>
			<dc:type
				rdf:resource="http://purl.org/dc/dcmitype/StillImage" />
			<dc:title></dc:title>
		</cc:Work>
	</rdf:RDF>
</metadata>
<g
	inkscape:label="Layer 1"
	inkscape:groupmode="layer"
	id="layer1">
	<path style="fill:none;stroke:red;stroke-width:1px;stroke-linecap:butt;stroke-linejoin:miter;stroke-opacity:1" d="M 185.542,265.199 192.952,258.715 z" id="boundary" inkscape:connector-curvature="0" />
	<path style="fill:none;stroke:red;stroke-width:1px;stroke-linecap:butt;stroke-linejoin:miter;stroke-opacity:1" d="M 192.952,258.715 201.289,254.084 z" id="boundary" inkscape:connector-curvature="0" />
	<path style="fill:none;stroke:red;stroke-width:1px;stroke-linecap:butt;stroke-linejoin:miter;stroke-opacity:1" d="M 185.542,265.199 176.28,269.83 z" id="boundary" inkscape:connector-curvature="0" />
	<path style="fill:none;stroke:red;stroke-width:1px;stroke-linecap:butt;stroke-linejoin:miter;stroke-opacity:1" d="M 218.887,244.822 210.551,249.453 z" id="boundary" inkscape:connector-curvature="0" />
	<path style="fill:none;stroke:red;stroke-width:1px;stroke-linecap:butt;stroke-linejoin:miter;stroke-opacity:1" d="M 210.551,249.453 201.289,254.084 z" id="boundary" inkscape:connector-curvature="0" />
	<path style="fill:none;stroke:red;stroke-width:1px;stroke-linecap:butt;stroke-linejoin:miter;stroke-opacity:1" d="M 227.223,240.19 218.887,244.822 z" id="boundary" inkscape:connector-curvature="0" />
	<path style="fill:none;stroke:red;stroke-width:1px;stroke-linecap:butt;stroke-linejoin:miter;stroke-opacity:1" d="M 153.124,288.355 145.714,295.765 z" id="boundary" inkscape:connector-curvature="0" />
	<path style="fill:none;stroke:red;stroke-width:1px;stroke-linecap:butt;stroke-linejoin:miter;stroke-opacity:1" d="M 145.714,295.765 137.378,300.396 z" id="boundary" inkscape:connector-curvature="0" />
	<path style="fill:none;stroke:red;stroke-width:1px;stroke-linecap:butt;stroke-linejoin:miter;stroke-opacity:1" d="M 160.534,281.871 153.124,288.355 z" id="boundary" inkscape:connector-curvature="0" />
	<path style="fill:none;stroke:red;stroke-width:1px;stroke-linecap:butt;stroke-linejoin:miter;stroke-opacity:1" d="M 129.968,306.88 137.378,300.396 z" id="boundary" inkscape:connector-curvature="0" />
	<path style="fill:none;stroke:red;stroke-width:1px;stroke-linecap:butt;stroke-linejoin:miter;stroke-opacity:1" d="M 176.28,269.83 168.87,277.24 z" id="boundary" inkscape:connector-curvature="0" />
	<path style="fill:none;stroke:red;stroke-width:1px;stroke-linecap:butt;stroke-linejoin:miter;stroke-opacity:1" d="M 168.87,277.24 160.534,281.871 z" id="boundary" inkscape:connector-curvature="0" />
	<path style="fill:none;stroke:red;stroke-width:1px;stroke-linecap:butt;stroke-linejoin:miter;stroke-opacity:1" d="M 280.019,217.035 289.281,217.035 z" id="boundary" inkscape:connector-curvature="0" />
	<path style="fill:none;stroke:red;stroke-width:1px;stroke-linecap:butt;stroke-linejoin:miter;stroke-opacity:1" d="M 271.683,221.666 280.019,217.035 z" id="boundary" inkscape:connector-curvature="0" />
	<path style="fill:none;stroke:red;stroke-width:1px;stroke-linecap:butt;stroke-linejoin:miter;stroke-opacity:1" d="M 298.543,212.403 289.281,217.035 z" id="boundary" inkscape:connector-curvature="0" />
	<path style="fill:none;stroke:red;stroke-width:1px;stroke-linecap:butt;stroke-linejoin:miter;stroke-opacity:1" d="M 316.142,207.772 307.806,212.403 z" id="boundary" inkscape:connector-curvature="0" />
	<path style="fill:none;stroke:red;stroke-width:1px;stroke-linecap:butt;stroke-linejoin:miter;stroke-opacity:1" d="M 307.806,212.403 298.543,212.403 z" id="boundary" inkscape:connector-curvature="0" />
	<path style="fill:none;stroke:red;stroke-width:1px;stroke-linecap:butt;stroke-linejoin:miter;stroke-opacity:1" d="M 227.223,240.19 235.559,235.559 z" id="boundary" inkscape:connector-curvature="0" />
	<path style="fill:none;stroke:red;stroke-width:1px;stroke-linecap:butt;stroke-linejoin:miter;stroke-opacity:1" d="M 235.559,235.559 244.822,233.707 z" id="boundary" inkscape:connector-curvature="0" />
	<path style="fill:none;stroke:red;stroke-width:1px;stroke-linecap:butt;stroke-linejoin:miter;stroke-opacity:1" d="M 254.084,229.076 244.822,233.707 z" id="boundary" inkscape:connector-curvature="0" />
	<path style="fill:none;stroke:red;stroke-width:1px;stroke-linecap:butt;stroke-linejoin:miter;stroke-opacity:1" d="M 271.683,221.666 263.346,226.297 z" id="boundary" inkscape:connector-curvature="0" />
	<path style="fill:none;stroke:red;stroke-width:1px;stroke-linecap:butt;stroke-linejoin:miter;stroke-opacity:1" d="M 263.346,226.297 254.084,229.076 z" id="boundary" inkscape:connector-curvature="0" />
	<path style="fill:none;stroke:red;stroke-width:1px;stroke-linecap:butt;stroke-linejoin:miter;stroke-opacity:1" d="M 41.0495,428.217 45.6807,418.954 z" id="boundary" inkscape:connector-curvature="0" />
	<path style="fill:none;stroke:red;stroke-width:1px;stroke-linecap:butt;stroke-linejoin:miter;stroke-opacity:1" d="M 45.6807,418.954 50.3119,409.692 z" id="boundary" inkscape:connector-curvature="0" />
	<path style="fill:none;stroke:red;stroke-width:1px;stroke-linecap:butt;stroke-linejoin:miter;stroke-opacity:1" d="M 50.3119,409.692 54.943,400.43 z" id="boundary" inkscape:connector-curvature="0" />
	<path style="fill:none;stroke:red;stroke-width:1px;stroke-linecap:butt;stroke-linejoin:miter;stroke-opacity:1" d="M 22.5247,469.897 22.5247,479.16 z" id="boundary" inkscape:connector-curvature="0" />
	<path style="fill:none;stroke:red;stroke-width:1px;stroke-linecap:butt;stroke-linejoin:miter;stroke-opacity:1" d="M 22.5247,479.16 17.8936,488.422 z" id="boundary" inkscape:connector-curvature="0" />
	<path style="fill:none;stroke:red;stroke-width:1px;stroke-linecap:butt;stroke-linejoin:miter;stroke-opacity:1" d="M 17.8936,488.422 13.2624,502.316 z" id="boundary" inkscape:connector-curvature="0" />
	<path style="fill:none;stroke:red;stroke-width:1px;stroke-linecap:butt;stroke-linejoin:miter;stroke-opacity:1" d="M 22.5247,469.897 27.1559,460.635 z" id="boundary" inkscape:connector-curvature="0" />
	<path style="fill:none;stroke:red;stroke-width:1px;stroke-linecap:butt;stroke-linejoin:miter;stroke-opacity:1" d="M 27.1559,460.635 31.7871,446.741 z" id="boundary" inkscape:connector-curvature="0" />
	<path style="fill:none;stroke:red;stroke-width:1px;stroke-linecap:butt;stroke-linejoin:miter;stroke-opacity:1" d="M 31.7871,446.741 36.4183,437.479 z" id="boundary" inkscape:connector-curvature="0" />
	<path style="fill:none;stroke:red;stroke-width:1px;stroke-linecap:butt;stroke-linejoin:miter;stroke-opacity:1" d="M 36.4183,437.479 41.0495,428.217 z" id="boundary" inkscape:connector-curvature="0" />
	<path style="fill:none;stroke:red;stroke-width:1px;stroke-linecap:butt;stroke-linejoin:miter;stroke-opacity:1" d="M 54.943,400.43 59.5742,391.167 z" id="boundary" inkscape:connector-curvature="0" />
	<path style="fill:none;stroke:red;stroke-width:1px;stroke-linecap:butt;stroke-linejoin:miter;stroke-opacity:1" d="M 59.5742,391.167 66.9841,383.757 z" id="boundary" inkscape:connector-curvature="0" />
	<path style="fill:none;stroke:red;stroke-width:1px;stroke-linecap:butt;stroke-linejoin:miter;stroke-opacity:1" d="M 102.181,334.667 109.591,328.183 z" id="boundary" inkscape:connector-curvature="0" />
	<path style="fill:none;stroke:red;stroke-width:1px;stroke-linecap:butt;stroke-linejoin:miter;stroke-opacity:1" d="M 97.55,343.929 102.181,334.667 z" id="boundary" inkscape:connector-curvature="0" />
	<path style="fill:none;stroke:red;stroke-width:1px;stroke-linecap:butt;stroke-linejoin:miter;stroke-opacity:1" d="M 116.075,320.773 109.591,328.183 z" id="boundary" inkscape:connector-curvature="0" />
	<path style="fill:none;stroke:red;stroke-width:1px;stroke-linecap:butt;stroke-linejoin:miter;stroke-opacity:1" d="M 129.968,306.88 123.485,314.289 z" id="boundary" inkscape:connector-curvature="0" />
	<path style="fill:none;stroke:red;stroke-width:1px;stroke-linecap:butt;stroke-linejoin:miter;stroke-opacity:1" d="M 123.485,314.289 116.075,320.773 z" id="boundary" inkscape:connector-curvature="0" />
	<path style="fill:none;stroke:red;stroke-width:1px;stroke-linecap:butt;stroke-linejoin:miter;stroke-opacity:1" d="M 66.9841,383.757 71.6153,374.495 z" id="boundary" inkscape:connector-curvature="0" />
	<path style="fill:none;stroke:red;stroke-width:1px;stroke-linecap:butt;stroke-linejoin:miter;stroke-opacity:1" d="M 71.6153,374.495 79.0252,367.085 z" id="boundary" inkscape:connector-curvature="0" />
	<path style="fill:none;stroke:red;stroke-width:1px;stroke-linecap:butt;stroke-linejoin:miter;stroke-opacity:1" d="M 83.6564,357.823 79.0252,367.085 z" id="boundary" inkscape:connector-curvature="0" />
	<path style="fill:none;stroke:red;stroke-width:1px;stroke-linecap:butt;stroke-linejoin:miter;stroke-opacity:1" d="M 91.0663,351.339 83.6564,357.823 z" id="boundary" inkscape:connector-curvature="0" />
	<path style="fill:none;stroke:red;stroke-width:1px;stroke-linecap:butt;stroke-linejoin:miter;stroke-opacity:1" d="M 97.55,343.929 91.0663,351.339 z" id="boundary" inkscape:connector-curvature="0" />
	<path style="fill:none;stroke:red;stroke-width:1px;stroke-linecap:butt;stroke-linejoin:miter;stroke-opacity:1" d="M 316.142,207.772 325.404,207.772 z" id="boundary" inkscape:connector-curvature="0" />
	<path style="fill:none;stroke:red;stroke-width:1px;stroke-linecap:butt;stroke-linejoin:miter;stroke-opacity:1" d="M 443.963,117.927 443.963,127.19 z" id="boundary" inkscape:connector-curvature="0" />
	<path style="fill:none;stroke:red;stroke-width:1px;stroke-linecap:butt;stroke-linejoin:miter;stroke-opacity:1" d="M 457.856,117.927 463.414,125.337 z" id="boundary" inkscape:connector-curvature="0" />
	<path style="fill:none;stroke:red;stroke-width:1px;stroke-linecap:butt;stroke-linejoin:miter;stroke-opacity:1" d="M 457.856,117.927 451.373,110.517 z" id="boundary" inkscape:connector-curvature="0" />
	<path style="fill:none;stroke:red;stroke-width:1px;stroke-linecap:butt;stroke-linejoin:miter;stroke-opacity:1" d="M 443.963,117.927 451.373,110.517 z" id="boundary" inkscape:connector-curvature="0" />
	<path style="fill:none;stroke:red;stroke-width:1px;stroke-linecap:butt;stroke-linejoin:miter;stroke-opacity:1" d="M 443.963,136.452 443.963,127.19 z" id="boundary" inkscape:connector-curvature="0" />
	<path style="fill:none;stroke:red;stroke-width:1px;stroke-linecap:butt;stroke-linejoin:miter;stroke-opacity:1" d="M 443.963,136.452 448.594,144.788 z" id="boundary" inkscape:connector-curvature="0" />
	<path style="fill:none;stroke:red;stroke-width:1px;stroke-linecap:butt;stroke-linejoin:miter;stroke-opacity:1" d="M 448.594,144.788 448.594,154.05 z" id="boundary" inkscape:connector-curvature="0" />
	<path style="fill:none;stroke:red;stroke-width:1px;stroke-linecap:butt;stroke-linejoin:miter;stroke-opacity:1" d="M 453.225,171.649 453.225,162.387 z" id="boundary" inkscape:connector-curvature="0" />
	<path style="fill:none;stroke:red;stroke-width:1px;stroke-linecap:butt;stroke-linejoin:miter;stroke-opacity:1" d="M 453.225,162.387 448.594,154.05 z" id="boundary" inkscape:connector-curvature="0" />
	<path style="fill:none;stroke:red;stroke-width:1px;stroke-linecap:butt;stroke-linejoin:miter;stroke-opacity:1" d="M 468.045,133.673 468.045,142.936 z" id="boundary" inkscape:connector-curvature="0" />
	<path style="fill:none;stroke:red;stroke-width:1px;stroke-linecap:butt;stroke-linejoin:miter;stroke-opacity:1" d="M 463.414,125.337 468.045,133.673 z" id="boundary" inkscape:connector-curvature="0" />
	<path style="fill:none;stroke:red;stroke-width:1px;stroke-linecap:butt;stroke-linejoin:miter;stroke-opacity:1" d="M 490.275,113.296 497.684,105.886 z" id="boundary" inkscape:connector-curvature="0" />
	<path style="fill:none;stroke:red;stroke-width:1px;stroke-linecap:butt;stroke-linejoin:miter;stroke-opacity:1" d="M 485.643,122.558 490.275,113.296 z" id="boundary" inkscape:connector-curvature="0" />
	<path style="fill:none;stroke:red;stroke-width:1px;stroke-linecap:butt;stroke-linejoin:miter;stroke-opacity:1" d="M 516.209,78.099 511.578,87.3613 z" id="boundary" inkscape:connector-curvature="0" />
	<path style="fill:none;stroke:red;stroke-width:1px;stroke-linecap:butt;stroke-linejoin:miter;stroke-opacity:1" d="M 511.578,87.3613 504.168,94.7712 z" id="boundary" inkscape:connector-curvature="0" />
	<path style="fill:none;stroke:red;stroke-width:1px;stroke-linecap:butt;stroke-linejoin:miter;stroke-opacity:1" d="M 504.168,94.7712 497.684,105.886 z" id="boundary" inkscape:connector-curvature="0" />
	<path style="fill:none;stroke:red;stroke-width:1px;stroke-linecap:butt;stroke-linejoin:miter;stroke-opacity:1" d="M 481.012,131.821 485.643,122.558 z" id="boundary" inkscape:connector-curvature="0" />
	<path style="fill:none;stroke:red;stroke-width:1px;stroke-linecap:butt;stroke-linejoin:miter;stroke-opacity:1" d="M 472.676,151.272 472.676,160.534 z" id="boundary" inkscape:connector-curvature="0" />
	<path style="fill:none;stroke:red;stroke-width:1px;stroke-linecap:butt;stroke-linejoin:miter;stroke-opacity:1" d="M 478.233,143.862 472.676,151.272 z" id="boundary" inkscape:connector-curvature="0" />
	<path style="fill:none;stroke:red;stroke-width:1px;stroke-linecap:butt;stroke-linejoin:miter;stroke-opacity:1" d="M 527.324,194.805 518.062,194.805 z" id="boundary" inkscape:connector-curvature="0" />
	<path style="fill:none;stroke:red;stroke-width:1px;stroke-linecap:butt;stroke-linejoin:miter;stroke-opacity:1" d="M 481.012,131.821 478.233,143.862 z" id="boundary" inkscape:connector-curvature="0" />
	<path style="fill:none;stroke:red;stroke-width:1px;stroke-linecap:butt;stroke-linejoin:miter;stroke-opacity:1" d="M 523.619,70.6891 516.209,78.099 z" id="boundary" inkscape:connector-curvature="0" />
	<path style="fill:none;stroke:red;stroke-width:1px;stroke-linecap:butt;stroke-linejoin:miter;stroke-opacity:1" d="M 453.225,180.911 453.225,171.649 z" id="boundary" inkscape:connector-curvature="0" />
	<path style="fill:none;stroke:red;stroke-width:1px;stroke-linecap:butt;stroke-linejoin:miter;stroke-opacity:1" d="M 370.79,198.51 380.052,198.51 z" id="boundary" inkscape:connector-curvature="0" />
	<path style="fill:none;stroke:red;stroke-width:1px;stroke-linecap:butt;stroke-linejoin:miter;stroke-opacity:1" d="M 362.454,203.141 370.79,198.51 z" id="boundary" inkscape:connector-curvature="0" />
	<path style="fill:none;stroke:red;stroke-width:1px;stroke-linecap:butt;stroke-linejoin:miter;stroke-opacity:1" d="M 389.315,198.51 398.577,198.51 z" id="boundary" inkscape:connector-curvature="0" />
	<path style="fill:none;stroke:red;stroke-width:1px;stroke-linecap:butt;stroke-linejoin:miter;stroke-opacity:1" d="M 407.839,198.51 398.577,198.51 z" id="boundary" inkscape:connector-curvature="0" />
	<path style="fill:none;stroke:red;stroke-width:1px;stroke-linecap:butt;stroke-linejoin:miter;stroke-opacity:1" d="M 389.315,198.51 380.052,198.51 z" id="boundary" inkscape:connector-curvature="0" />
	<path style="fill:none;stroke:red;stroke-width:1px;stroke-linecap:butt;stroke-linejoin:miter;stroke-opacity:1" d="M 325.404,207.772 334.667,204.067 z" id="boundary" inkscape:connector-curvature="0" />
	<path style="fill:none;stroke:red;stroke-width:1px;stroke-linecap:butt;stroke-linejoin:miter;stroke-opacity:1" d="M 334.667,204.067 343.929,203.141 z" id="boundary" inkscape:connector-curvature="0" />
	<path style="fill:none;stroke:red;stroke-width:1px;stroke-linecap:butt;stroke-linejoin:miter;stroke-opacity:1" d="M 343.929,203.141 353.191,203.141 z" id="boundary" inkscape:connector-curvature="0" />
	<path style="fill:none;stroke:red;stroke-width:1px;stroke-linecap:butt;stroke-linejoin:miter;stroke-opacity:1" d="M 362.454,203.141 353.191,203.141 z" id="boundary" inkscape:connector-curvature="0" />
	<path style="fill:none;stroke:red;stroke-width:1px;stroke-linecap:butt;stroke-linejoin:miter;stroke-opacity:1" d="M 407.839,198.51 417.102,198.51 z" id="boundary" inkscape:connector-curvature="0" />
	<path style="fill:none;stroke:red;stroke-width:1px;stroke-linecap:butt;stroke-linejoin:miter;stroke-opacity:1" d="M 417.102,198.51 426.364,198.51 z" id="boundary" inkscape:connector-curvature="0" />
	<path style="fill:none;stroke:red;stroke-width:1px;stroke-linecap:butt;stroke-linejoin:miter;stroke-opacity:1" d="M 435.627,198.51 426.364,198.51 z" id="boundary" inkscape:connector-curvature="0" />
	<path style="fill:none;stroke:red;stroke-width:1px;stroke-linecap:butt;stroke-linejoin:miter;stroke-opacity:1" d="M 453.225,180.911 453.225,190.174 z" id="boundary" inkscape:connector-curvature="0" />
	<path style="fill:none;stroke:red;stroke-width:1px;stroke-linecap:butt;stroke-linejoin:miter;stroke-opacity:1" d="M 491.201,199.436 481.938,199.436 z" id="boundary" inkscape:connector-curvature="0" />
	<path style="fill:none;stroke:red;stroke-width:1px;stroke-linecap:butt;stroke-linejoin:miter;stroke-opacity:1" d="M 453.225,190.174 444.889,198.51 z" id="boundary" inkscape:connector-curvature="0" />
	<path style="fill:none;stroke:red;stroke-width:1px;stroke-linecap:butt;stroke-linejoin:miter;stroke-opacity:1" d="M 444.889,198.51 435.627,198.51 z" id="boundary" inkscape:connector-curvature="0" />
	<path style="fill:none;stroke:red;stroke-width:1px;stroke-linecap:butt;stroke-linejoin:miter;stroke-opacity:1" d="M 518.062,194.805 508.799,194.805 z" id="boundary" inkscape:connector-curvature="0" />
	<path style="fill:none;stroke:red;stroke-width:1px;stroke-linecap:butt;stroke-linejoin:miter;stroke-opacity:1" d="M 500.463,199.436 508.799,194.805 z" id="boundary" inkscape:connector-curvature="0" />
	<path style="fill:none;stroke:red;stroke-width:1px;stroke-linecap:butt;stroke-linejoin:miter;stroke-opacity:1" d="M 522.693,203.141 513.43,203.141 z" id="boundary" inkscape:connector-curvature="0" />
	<path style="fill:none;stroke:red;stroke-width:1px;stroke-linecap:butt;stroke-linejoin:miter;stroke-opacity:1" d="M 491.201,199.436 500.463,199.436 z" id="boundary" inkscape:connector-curvature="0" />
	<path style="fill:none;stroke:red;stroke-width:1px;stroke-linecap:butt;stroke-linejoin:miter;stroke-opacity:1" d="M 4,562.521 4,553.259 z" id="boundary" inkscape:connector-curvature="0" />
	<path style="fill:none;stroke:red;stroke-width:1px;stroke-linecap:butt;stroke-linejoin:miter;stroke-opacity:1" d="M 4,553.259 8.63119,543.996 z" id="boundary" inkscape:connector-curvature="0" />
	<path style="fill:none;stroke:red;stroke-width:1px;stroke-linecap:butt;stroke-linejoin:miter;stroke-opacity:1" d="M 4,581.046 4,571.783 z" id="boundary" inkscape:connector-curvature="0" />
	<path style="fill:none;stroke:red;stroke-width:1px;stroke-linecap:butt;stroke-linejoin:miter;stroke-opacity:1" d="M 4,571.783 4,562.521 z" id="boundary" inkscape:connector-curvature="0" />
	<path style="fill:none;stroke:red;stroke-width:1px;stroke-linecap:butt;stroke-linejoin:miter;stroke-opacity:1" d="M 4,590.308 4,581.046 z" id="boundary" inkscape:connector-curvature="0" />
	<path style="fill:none;stroke:red;stroke-width:1px;stroke-linecap:butt;stroke-linejoin:miter;stroke-opacity:1" d="M 4,599.57 4,590.308 z" id="boundary" inkscape:connector-curvature="0" />
	<path style="fill:none;stroke:red;stroke-width:1px;stroke-linecap:butt;stroke-linejoin:miter;stroke-opacity:1" d="M 4,608.833 4,599.57 z" id="boundary" inkscape:connector-curvature="0" />
	<path style="fill:none;stroke:red;stroke-width:1px;stroke-linecap:butt;stroke-linejoin:miter;stroke-opacity:1" d="M 4,627.358 4,618.095 z" id="boundary" inkscape:connector-curvature="0" />
	<path style="fill:none;stroke:red;stroke-width:1px;stroke-linecap:butt;stroke-linejoin:miter;stroke-opacity:1" d="M 8.63119,644.956 4,636.62 z" id="boundary" inkscape:connector-curvature="0" />
	<path style="fill:none;stroke:red;stroke-width:1px;stroke-linecap:butt;stroke-linejoin:miter;stroke-opacity:1" d="M 4,636.62 4,627.358 z" id="boundary" inkscape:connector-curvature="0" />
	<path style="fill:none;stroke:red;stroke-width:1px;stroke-linecap:butt;stroke-linejoin:miter;stroke-opacity:1" d="M 4,618.095 4,608.833 z" id="boundary" inkscape:connector-curvature="0" />
	<path style="fill:none;stroke:red;stroke-width:1px;stroke-linecap:butt;stroke-linejoin:miter;stroke-opacity:1" d="M 8.63119,525.472 8.63119,534.734 z" id="boundary" inkscape:connector-curvature="0" />
	<path style="fill:none;stroke:red;stroke-width:1px;stroke-linecap:butt;stroke-linejoin:miter;stroke-opacity:1" d="M 8.63119,534.734 8.63119,543.996 z" id="boundary" inkscape:connector-curvature="0" />
	<path style="fill:none;stroke:red;stroke-width:1px;stroke-linecap:butt;stroke-linejoin:miter;stroke-opacity:1" d="M 8.63119,525.472 13.2624,511.578 z" id="boundary" inkscape:connector-curvature="0" />
	<path style="fill:none;stroke:red;stroke-width:1px;stroke-linecap:butt;stroke-linejoin:miter;stroke-opacity:1" d="M 13.2624,502.316 13.2624,511.578 z" id="boundary" inkscape:connector-curvature="0" />
	<path style="fill:none;stroke:red;stroke-width:1px;stroke-linecap:butt;stroke-linejoin:miter;stroke-opacity:1" d="M 13.2624,671.817 8.63119,663.481 z" id="boundary" inkscape:connector-curvature="0" />
	<path style="fill:none;stroke:red;stroke-width:1px;stroke-linecap:butt;stroke-linejoin:miter;stroke-opacity:1" d="M 8.63119,663.481 8.63119,654.218 z" id="boundary" inkscape:connector-curvature="0" />
	<path style="fill:none;stroke:red;stroke-width:1px;stroke-linecap:butt;stroke-linejoin:miter;stroke-opacity:1" d="M 8.63119,654.218 8.63119,644.956 z" id="boundary" inkscape:connector-curvature="0" />
	<path style="fill:none;stroke:red;stroke-width:1px;stroke-linecap:butt;stroke-linejoin:miter;stroke-opacity:1" d="M 13.2624,671.817 13.2624,681.079 z" id="boundary" inkscape:connector-curvature="0" />
	<path style="fill:none;stroke:red;stroke-width:1px;stroke-linecap:butt;stroke-linejoin:miter;stroke-opacity:1" d="M 13.2624,681.079 16.0411,690.342 z" id="boundary" inkscape:connector-curvature="0" />
	<path style="fill:none;stroke:red;stroke-width:1px;stroke-linecap:butt;stroke-linejoin:miter;stroke-opacity:1" d="M 16.0411,690.342 17.8936,699.604 z" id="boundary" inkscape:connector-curvature="0" />
	<path style="fill:none;stroke:red;stroke-width:1px;stroke-linecap:butt;stroke-linejoin:miter;stroke-opacity:1" d="M 22.5247,707.94 17.8936,699.604 z" id="boundary" inkscape:connector-curvature="0" />
	<path style="fill:none;stroke:red;stroke-width:1px;stroke-linecap:butt;stroke-linejoin:miter;stroke-opacity:1" d="M 22.5247,707.94 22.5247,717.203 z" id="boundary" inkscape:connector-curvature="0" />
	<path style="fill:none;stroke:red;stroke-width:1px;stroke-linecap:butt;stroke-linejoin:miter;stroke-opacity:1" d="M 27.1559,725.539 22.5247,717.203 z" id="boundary" inkscape:connector-curvature="0" />
	<path style="fill:none;stroke:red;stroke-width:1px;stroke-linecap:butt;stroke-linejoin:miter;stroke-opacity:1" d="M 27.1559,725.539 31.7871,733.875 z" id="boundary" inkscape:connector-curvature="0" />
	<path style="fill:none;stroke:red;stroke-width:1px;stroke-linecap:butt;stroke-linejoin:miter;stroke-opacity:1" d="M 31.7871,733.875 31.7871,743.137 z" id="boundary" inkscape:connector-curvature="0" />
	<path style="fill:none;stroke:red;stroke-width:1px;stroke-linecap:butt;stroke-linejoin:miter;stroke-opacity:1" d="M 36.4183,751.473 31.7871,743.137 z" id="boundary" inkscape:connector-curvature="0" />
	<path style="fill:none;stroke:red;stroke-width:1px;stroke-linecap:butt;stroke-linejoin:miter;stroke-opacity:1" d="M 41.0495,759.81 36.4183,751.473 z" id="boundary" inkscape:connector-curvature="0" />
	<path style="fill:none;stroke:red;stroke-width:1px;stroke-linecap:butt;stroke-linejoin:miter;stroke-opacity:1" d="M 45.6807,768.146 41.0495,759.81 z" id="boundary" inkscape:connector-curvature="0" />
	<path style="fill:none;stroke:red;stroke-width:1px;stroke-linecap:butt;stroke-linejoin:miter;stroke-opacity:1" d="M 54.943,784.818 50.3119,776.482 z" id="boundary" inkscape:connector-curvature="0" />
	<path style="fill:none;stroke:red;stroke-width:1px;stroke-linecap:butt;stroke-linejoin:miter;stroke-opacity:1" d="M 59.5742,793.154 54.943,784.818 z" id="boundary" inkscape:connector-curvature="0" />
	<path style="fill:none;stroke:red;stroke-width:1px;stroke-linecap:butt;stroke-linejoin:miter;stroke-opacity:1" d="M 50.3119,776.482 45.6807,768.146 z" id="boundary" inkscape:connector-curvature="0" />
	<path style="fill:none;stroke:red;stroke-width:1px;stroke-linecap:butt;stroke-linejoin:miter;stroke-opacity:1" d="M 68.8366,809.826 64.2054,801.49 z" id="boundary" inkscape:connector-curvature="0" />
	<path style="fill:none;stroke:red;stroke-width:1px;stroke-linecap:butt;stroke-linejoin:miter;stroke-opacity:1" d="M 74.394,817.236 68.8366,809.826 z" id="boundary" inkscape:connector-curvature="0" />
	<path style="fill:none;stroke:red;stroke-width:1px;stroke-linecap:butt;stroke-linejoin:miter;stroke-opacity:1" d="M 74.394,817.236 80.8777,824.646 z" id="boundary" inkscape:connector-curvature="0" />
	<path style="fill:none;stroke:red;stroke-width:1px;stroke-linecap:butt;stroke-linejoin:miter;stroke-opacity:1" d="M 80.8777,824.646 85.5089,832.982 z" id="boundary" inkscape:connector-curvature="0" />
	<path style="fill:none;stroke:red;stroke-width:1px;stroke-linecap:butt;stroke-linejoin:miter;stroke-opacity:1" d="M 91.9925,840.392 85.5089,832.982 z" id="boundary" inkscape:connector-curvature="0" />
	<path style="fill:none;stroke:red;stroke-width:1px;stroke-linecap:butt;stroke-linejoin:miter;stroke-opacity:1" d="M 64.2054,801.49 59.5742,793.154 z" id="boundary" inkscape:connector-curvature="0" />
	<path style="fill:none;stroke:red;stroke-width:1px;stroke-linecap:butt;stroke-linejoin:miter;stroke-opacity:1" d="M 91.9925,840.392 99.4024,846.876 z" id="boundary" inkscape:connector-curvature="0" />
	<path style="fill:none;stroke:red;stroke-width:1px;stroke-linecap:butt;stroke-linejoin:miter;stroke-opacity:1" d="M 99.4024,846.876 103.107,856.138 z" id="boundary" inkscape:connector-curvature="0" />
	<path style="fill:none;stroke:red;stroke-width:1px;stroke-linecap:butt;stroke-linejoin:miter;stroke-opacity:1" d="M 110.517,861.696 103.107,856.138 z" id="boundary" inkscape:connector-curvature="0" />
	<path style="fill:none;stroke:red;stroke-width:1px;stroke-linecap:butt;stroke-linejoin:miter;stroke-opacity:1" d="M 123.485,875.589 116.075,869.106 z" id="boundary" inkscape:connector-curvature="0" />
	<path style="fill:none;stroke:red;stroke-width:1px;stroke-linecap:butt;stroke-linejoin:miter;stroke-opacity:1" d="M 116.075,869.106 110.517,861.696 z" id="boundary" inkscape:connector-curvature="0" />
	<path style="fill:none;stroke:red;stroke-width:1px;stroke-linecap:butt;stroke-linejoin:miter;stroke-opacity:1" d="M 123.485,875.589 129.968,882.999 z" id="boundary" inkscape:connector-curvature="0" />
	<path style="fill:none;stroke:red;stroke-width:1px;stroke-linecap:butt;stroke-linejoin:miter;stroke-opacity:1" d="M 137.378,889.483 129.968,882.999 z" id="boundary" inkscape:connector-curvature="0" />
	<path style="fill:none;stroke:red;stroke-width:1px;stroke-linecap:butt;stroke-linejoin:miter;stroke-opacity:1" d="M 145.714,894.114 137.378,889.483 z" id="boundary" inkscape:connector-curvature="0" />
	<path style="fill:none;stroke:red;stroke-width:1px;stroke-linecap:butt;stroke-linejoin:miter;stroke-opacity:1" d="M 153.124,900.598 159.608,908.007 z" id="boundary" inkscape:connector-curvature="0" />
	<path style="fill:none;stroke:red;stroke-width:1px;stroke-linecap:butt;stroke-linejoin:miter;stroke-opacity:1" d="M 153.124,900.598 145.714,894.114 z" id="boundary" inkscape:connector-curvature="0" />
	<path style="fill:none;stroke:red;stroke-width:1px;stroke-linecap:butt;stroke-linejoin:miter;stroke-opacity:1" d="M 167.944,912.639 159.608,908.007 z" id="boundary" inkscape:connector-curvature="0" />
	<path style="fill:none;stroke:red;stroke-width:1px;stroke-linecap:butt;stroke-linejoin:miter;stroke-opacity:1" d="M 184.616,921.901 175.354,918.196 z" id="boundary" inkscape:connector-curvature="0" />
	<path style="fill:none;stroke:red;stroke-width:1px;stroke-linecap:butt;stroke-linejoin:miter;stroke-opacity:1" d="M 175.354,918.196 167.944,912.639 z" id="boundary" inkscape:connector-curvature="0" />
	<path style="fill:none;stroke:red;stroke-width:1px;stroke-linecap:butt;stroke-linejoin:miter;stroke-opacity:1" d="M 184.616,921.901 190.174,929.311 z" id="boundary" inkscape:connector-curvature="0" />
	<path style="fill:none;stroke:red;stroke-width:1px;stroke-linecap:butt;stroke-linejoin:miter;stroke-opacity:1" d="M 190.174,929.311 199.436,933.016 z" id="boundary" inkscape:connector-curvature="0" />
	<path style="fill:none;stroke:red;stroke-width:1px;stroke-linecap:butt;stroke-linejoin:miter;stroke-opacity:1" d="M 207.772,937.647 199.436,933.016 z" id="boundary" inkscape:connector-curvature="0" />
	<path style="fill:none;stroke:red;stroke-width:1px;stroke-linecap:butt;stroke-linejoin:miter;stroke-opacity:1" d="M 207.772,937.647 215.182,944.131 z" id="boundary" inkscape:connector-curvature="0" />
	<path style="fill:none;stroke:red;stroke-width:1px;stroke-linecap:butt;stroke-linejoin:miter;stroke-opacity:1" d="M 223.518,948.762 215.182,944.131 z" id="boundary" inkscape:connector-curvature="0" />
	<path style="fill:none;stroke:red;stroke-width:1px;stroke-linecap:butt;stroke-linejoin:miter;stroke-opacity:1" d="M 232.781,952.467 242.043,954.319 z" id="boundary" inkscape:connector-curvature="0" />
	<path style="fill:none;stroke:red;stroke-width:1px;stroke-linecap:butt;stroke-linejoin:miter;stroke-opacity:1" d="M 242.043,954.319 250.379,958.951 z" id="boundary" inkscape:connector-curvature="0" />
	<path style="fill:none;stroke:red;stroke-width:1px;stroke-linecap:butt;stroke-linejoin:miter;stroke-opacity:1" d="M 232.781,952.467 223.518,948.762 z" id="boundary" inkscape:connector-curvature="0" />
	<path style="fill:none;stroke:red;stroke-width:1px;stroke-linecap:butt;stroke-linejoin:miter;stroke-opacity:1" d="M 250.379,958.951 258.715,963.582 z" id="boundary" inkscape:connector-curvature="0" />
	<path style="fill:none;stroke:red;stroke-width:1px;stroke-linecap:butt;stroke-linejoin:miter;stroke-opacity:1" d="M 258.715,963.582 267.978,963.582 z" id="boundary" inkscape:connector-curvature="0" />
	<path style="fill:none;stroke:red;stroke-width:1px;stroke-linecap:butt;stroke-linejoin:miter;stroke-opacity:1" d="M 267.978,963.582 276.314,968.213 z" id="boundary" inkscape:connector-curvature="0" />
	<path style="fill:none;stroke:red;stroke-width:1px;stroke-linecap:butt;stroke-linejoin:miter;stroke-opacity:1" d="M 276.314,968.213 284.65,972.844 z" id="boundary" inkscape:connector-curvature="0" />
	<path style="fill:none;stroke:red;stroke-width:1px;stroke-linecap:butt;stroke-linejoin:miter;stroke-opacity:1" d="M 284.65,972.844 293.912,972.844 z" id="boundary" inkscape:connector-curvature="0" />
	<path style="fill:none;stroke:red;stroke-width:1px;stroke-linecap:butt;stroke-linejoin:miter;stroke-opacity:1" d="M 293.912,972.844 302.248,977.475 z" id="boundary" inkscape:connector-curvature="0" />
	<path style="fill:none;stroke:red;stroke-width:1px;stroke-linecap:butt;stroke-linejoin:miter;stroke-opacity:1" d="M 311.511,980.254 302.248,977.475 z" id="boundary" inkscape:connector-curvature="0" />
	<path style="fill:none;stroke:red;stroke-width:1px;stroke-linecap:butt;stroke-linejoin:miter;stroke-opacity:1" d="M 311.511,980.254 320.773,982.106 z" id="boundary" inkscape:connector-curvature="0" />
	<path style="fill:none;stroke:red;stroke-width:1px;stroke-linecap:butt;stroke-linejoin:miter;stroke-opacity:1" d="M 330.035,982.106 320.773,982.106 z" id="boundary" inkscape:connector-curvature="0" />
	<path style="fill:none;stroke:red;stroke-width:1px;stroke-linecap:butt;stroke-linejoin:miter;stroke-opacity:1" d="M 347.634,986.738 338.372,986.738 z" id="boundary" inkscape:connector-curvature="0" />
	<path style="fill:none;stroke:red;stroke-width:1px;stroke-linecap:butt;stroke-linejoin:miter;stroke-opacity:1" d="M 338.372,986.738 330.035,982.106 z" id="boundary" inkscape:connector-curvature="0" />
	<path style="fill:none;stroke:red;stroke-width:1px;stroke-linecap:butt;stroke-linejoin:miter;stroke-opacity:1" d="M 356.896,986.738 347.634,986.738 z" id="boundary" inkscape:connector-curvature="0" />
	<path style="fill:none;stroke:red;stroke-width:1px;stroke-linecap:butt;stroke-linejoin:miter;stroke-opacity:1" d="M 366.159,988.59 375.421,991.369 z" id="boundary" inkscape:connector-curvature="0" />
	<path style="fill:none;stroke:red;stroke-width:1px;stroke-linecap:butt;stroke-linejoin:miter;stroke-opacity:1" d="M 366.159,988.59 356.896,986.738 z" id="boundary" inkscape:connector-curvature="0" />
	<path style="fill:none;stroke:red;stroke-width:1px;stroke-linecap:butt;stroke-linejoin:miter;stroke-opacity:1" d="M 384.683,991.369 375.421,991.369 z" id="boundary" inkscape:connector-curvature="0" />
	<path style="fill:none;stroke:red;stroke-width:1px;stroke-linecap:butt;stroke-linejoin:miter;stroke-opacity:1" d="M 384.683,991.369 393.946,991.369 z" id="boundary" inkscape:connector-curvature="0" />
	<path style="fill:none;stroke:red;stroke-width:1px;stroke-linecap:butt;stroke-linejoin:miter;stroke-opacity:1" d="M 403.208,991.369 393.946,991.369 z" id="boundary" inkscape:connector-curvature="0" />
	<path style="fill:none;stroke:red;stroke-width:1px;stroke-linecap:butt;stroke-linejoin:miter;stroke-opacity:1" d="M 412.471,991.369 403.208,991.369 z" id="boundary" inkscape:connector-curvature="0" />
	<path style="fill:none;stroke:red;stroke-width:1px;stroke-linecap:butt;stroke-linejoin:miter;stroke-opacity:1" d="M 412.471,991.369 421.733,991.369 z" id="boundary" inkscape:connector-curvature="0" />
	<path style="fill:none;stroke:red;stroke-width:1px;stroke-linecap:butt;stroke-linejoin:miter;stroke-opacity:1" d="M 421.733,991.369 430.995,991.369 z" id="boundary" inkscape:connector-curvature="0" />
	<path style="fill:none;stroke:red;stroke-width:1px;stroke-linecap:butt;stroke-linejoin:miter;stroke-opacity:1" d="M 440.258,991.369 449.52,991.369 z" id="boundary" inkscape:connector-curvature="0" />
	<path style="fill:none;stroke:red;stroke-width:1px;stroke-linecap:butt;stroke-linejoin:miter;stroke-opacity:1" d="M 449.52,991.369 458.782,991.369 z" id="boundary" inkscape:connector-curvature="0" />
	<path style="fill:none;stroke:red;stroke-width:1px;stroke-linecap:butt;stroke-linejoin:miter;stroke-opacity:1" d="M 430.995,991.369 440.258,991.369 z" id="boundary" inkscape:connector-curvature="0" />
	<path style="fill:none;stroke:red;stroke-width:1px;stroke-linecap:butt;stroke-linejoin:miter;stroke-opacity:1" d="M 485.643,996 476.381,996 z" id="boundary" inkscape:connector-curvature="0" />
	<path style="fill:none;stroke:red;stroke-width:1px;stroke-linecap:butt;stroke-linejoin:miter;stroke-opacity:1" d="M 476.381,996 468.045,991.369 z" id="boundary" inkscape:connector-curvature="0" />
	<path style="fill:none;stroke:red;stroke-width:1px;stroke-linecap:butt;stroke-linejoin:miter;stroke-opacity:1" d="M 494.906,996 485.643,996 z" id="boundary" inkscape:connector-curvature="0" />
	<path style="fill:none;stroke:red;stroke-width:1px;stroke-linecap:butt;stroke-linejoin:miter;stroke-opacity:1" d="M 458.782,991.369 468.045,991.369 z" id="boundary" inkscape:connector-curvature="0" />
	<path style="fill:none;stroke:red;stroke-width:1px;stroke-linecap:butt;stroke-linejoin:miter;stroke-opacity:1" d="M 504.168,996 494.906,996 z" id="boundary" inkscape:connector-curvature="0" />
	<path style="fill:none;stroke:red;stroke-width:1px;stroke-linecap:butt;stroke-linejoin:miter;stroke-opacity:1" d="M 513.43,996 504.168,996 z" id="boundary" inkscape:connector-curvature="0" />
	<path style="fill:none;stroke:red;stroke-width:1px;stroke-linecap:butt;stroke-linejoin:miter;stroke-opacity:1" d="M 522.693,996 513.43,996 z" id="boundary" inkscape:connector-curvature="0" />
	<path style="fill:none;stroke:red;stroke-width:1px;stroke-linecap:butt;stroke-linejoin:miter;stroke-opacity:1" d="M 570.857,36.4183 562.521,41.0495 z" id="boundary" inkscape:connector-curvature="0" />
	<path style="fill:none;stroke:red;stroke-width:1px;stroke-linecap:butt;stroke-linejoin:miter;stroke-opacity:1" d="M 579.193,31.7871 587.529,25.3035 z" id="boundary" inkscape:connector-curvature="0" />
	<path style="fill:none;stroke:red;stroke-width:1px;stroke-linecap:butt;stroke-linejoin:miter;stroke-opacity:1" d="M 587.529,25.3035 596.792,20.6723 z" id="boundary" inkscape:connector-curvature="0" />
	<path style="fill:none;stroke:red;stroke-width:1px;stroke-linecap:butt;stroke-linejoin:miter;stroke-opacity:1" d="M 579.193,31.7871 570.857,36.4183 z" id="boundary" inkscape:connector-curvature="0" />
	<path style="fill:none;stroke:red;stroke-width:1px;stroke-linecap:butt;stroke-linejoin:miter;stroke-opacity:1" d="M 562.521,41.0495 554.185,45.6807 z" id="boundary" inkscape:connector-curvature="0" />
	<path style="fill:none;stroke:red;stroke-width:1px;stroke-linecap:butt;stroke-linejoin:miter;stroke-opacity:1" d="M 523.619,70.6891 531.029,64.2054 z" id="boundary" inkscape:connector-curvature="0" />
	<path style="fill:none;stroke:red;stroke-width:1px;stroke-linecap:butt;stroke-linejoin:miter;stroke-opacity:1" d="M 531.029,64.2054 539.365,59.5742 z" id="boundary" inkscape:connector-curvature="0" />
	<path style="fill:none;stroke:red;stroke-width:1px;stroke-linecap:butt;stroke-linejoin:miter;stroke-opacity:1" d="M 546.775,52.1643 539.365,59.5742 z" id="boundary" inkscape:connector-curvature="0" />
	<path style="fill:none;stroke:red;stroke-width:1px;stroke-linecap:butt;stroke-linejoin:miter;stroke-opacity:1" d="M 546.775,52.1643 554.185,45.6807 z" id="boundary" inkscape:connector-curvature="0" />
	<path style="fill:none;stroke:red;stroke-width:1px;stroke-linecap:butt;stroke-linejoin:miter;stroke-opacity:1" d="M 596.792,20.6723 606.054,17.8936 z" id="boundary" inkscape:connector-curvature="0" />
	<path style="fill:none;stroke:red;stroke-width:1px;stroke-linecap:butt;stroke-linejoin:miter;stroke-opacity:1" d="M 614.39,13.2624 622.726,8.63119 z" id="boundary" inkscape:connector-curvature="0" />
	<path style="fill:none;stroke:red;stroke-width:1px;stroke-linecap:butt;stroke-linejoin:miter;stroke-opacity:1" d="M 622.726,8.63119 631.989,8.63119 z" id="boundary" inkscape:connector-curvature="0" />
	<path style="fill:none;stroke:red;stroke-width:1px;stroke-linecap:butt;stroke-linejoin:miter;stroke-opacity:1" d="M 631.989,8.63119 640.325,4 z" id="boundary" inkscape:connector-curvature="0" />
	<path style="fill:none;stroke:red;stroke-width:1px;stroke-linecap:butt;stroke-linejoin:miter;stroke-opacity:1" d="M 640.325,4 649.587,4 z" id="boundary" inkscape:connector-curvature="0" />
	<path style="fill:none;stroke:red;stroke-width:1px;stroke-linecap:butt;stroke-linejoin:miter;stroke-opacity:1" d="M 606.054,17.8936 614.39,13.2624 z" id="boundary" inkscape:connector-curvature="0" />
	<path style="fill:none;stroke:red;stroke-width:1px;stroke-linecap:butt;stroke-linejoin:miter;stroke-opacity:1" d="M 623.653,169.796 616.243,176.28 z" id="boundary" inkscape:connector-curvature="0" />
	<path style="fill:none;stroke:red;stroke-width:1px;stroke-linecap:butt;stroke-linejoin:miter;stroke-opacity:1" d="M 632.915,165.165 623.653,169.796 z" id="boundary" inkscape:connector-curvature="0" />
	<path style="fill:none;stroke:red;stroke-width:1px;stroke-linecap:butt;stroke-linejoin:miter;stroke-opacity:1" d="M 648.661,153.124 642.177,160.534 z" id="boundary" inkscape:connector-curvature="0" />
	<path style="fill:none;stroke:red;stroke-width:1px;stroke-linecap:butt;stroke-linejoin:miter;stroke-opacity:1" d="M 642.177,160.534 632.915,165.165 z" id="boundary" inkscape:connector-curvature="0" />
	<path style="fill:none;stroke:red;stroke-width:1px;stroke-linecap:butt;stroke-linejoin:miter;stroke-opacity:1" d="M 649.587,4 658.85,4 z" id="boundary" inkscape:connector-curvature="0" />
	<path style="fill:none;stroke:red;stroke-width:1px;stroke-linecap:butt;stroke-linejoin:miter;stroke-opacity:1" d="M 616.243,176.28 607.907,180.911 z" id="boundary" inkscape:connector-curvature="0" />
	<path style="fill:none;stroke:red;stroke-width:1px;stroke-linecap:butt;stroke-linejoin:miter;stroke-opacity:1" d="M 607.907,180.911 598.644,180.911 z" id="boundary" inkscape:connector-curvature="0" />
	<path style="fill:none;stroke:red;stroke-width:1px;stroke-linecap:butt;stroke-linejoin:miter;stroke-opacity:1" d="M 536.586,194.805 527.324,194.805 z" id="boundary" inkscape:connector-curvature="0" />
	<path style="fill:none;stroke:red;stroke-width:1px;stroke-linecap:butt;stroke-linejoin:miter;stroke-opacity:1" d="M 544.923,190.174 536.586,194.805 z" id="boundary" inkscape:connector-curvature="0" />
	<path style="fill:none;stroke:red;stroke-width:1px;stroke-linecap:butt;stroke-linejoin:miter;stroke-opacity:1" d="M 544.923,190.174 554.185,190.174 z" id="boundary" inkscape:connector-curvature="0" />
	<path style="fill:none;stroke:red;stroke-width:1px;stroke-linecap:butt;stroke-linejoin:miter;stroke-opacity:1" d="M 563.447,190.174 554.185,190.174 z" id="boundary" inkscape:connector-curvature="0" />
	<path style="fill:none;stroke:red;stroke-width:1px;stroke-linecap:butt;stroke-linejoin:miter;stroke-opacity:1" d="M 572.71,190.174 563.447,190.174 z" id="boundary" inkscape:connector-curvature="0" />
	<path style="fill:none;stroke:red;stroke-width:1px;stroke-linecap:butt;stroke-linejoin:miter;stroke-opacity:1" d="M 581.046,185.542 572.71,190.174 z" id="boundary" inkscape:connector-curvature="0" />
	<path style="fill:none;stroke:red;stroke-width:1px;stroke-linecap:butt;stroke-linejoin:miter;stroke-opacity:1" d="M 541.218,203.141 531.955,203.141 z" id="boundary" inkscape:connector-curvature="0" />
	<path style="fill:none;stroke:red;stroke-width:1px;stroke-linecap:butt;stroke-linejoin:miter;stroke-opacity:1" d="M 559.742,204.993 569.005,207.772 z" id="boundary" inkscape:connector-curvature="0" />
	<path style="fill:none;stroke:red;stroke-width:1px;stroke-linecap:butt;stroke-linejoin:miter;stroke-opacity:1" d="M 550.48,203.141 541.218,203.141 z" id="boundary" inkscape:connector-curvature="0" />
	<path style="fill:none;stroke:red;stroke-width:1px;stroke-linecap:butt;stroke-linejoin:miter;stroke-opacity:1" d="M 559.742,204.993 550.48,203.141 z" id="boundary" inkscape:connector-curvature="0" />
	<path style="fill:none;stroke:red;stroke-width:1px;stroke-linecap:butt;stroke-linejoin:miter;stroke-opacity:1" d="M 578.267,207.772 569.005,207.772 z" id="boundary" inkscape:connector-curvature="0" />
	<path style="fill:none;stroke:red;stroke-width:1px;stroke-linecap:butt;stroke-linejoin:miter;stroke-opacity:1" d="M 522.693,203.141 531.955,203.141 z" id="boundary" inkscape:connector-curvature="0" />
	<path style="fill:none;stroke:red;stroke-width:1px;stroke-linecap:butt;stroke-linejoin:miter;stroke-opacity:1" d="M 587.529,209.625 578.267,207.772 z" id="boundary" inkscape:connector-curvature="0" />
	<path style="fill:none;stroke:red;stroke-width:1px;stroke-linecap:butt;stroke-linejoin:miter;stroke-opacity:1" d="M 596.792,212.403 587.529,209.625 z" id="boundary" inkscape:connector-curvature="0" />
	<path style="fill:none;stroke:red;stroke-width:1px;stroke-linecap:butt;stroke-linejoin:miter;stroke-opacity:1" d="M 581.046,185.542 590.308,185.542 z" id="boundary" inkscape:connector-curvature="0" />
	<path style="fill:none;stroke:red;stroke-width:1px;stroke-linecap:butt;stroke-linejoin:miter;stroke-opacity:1" d="M 598.644,180.911 590.308,185.542 z" id="boundary" inkscape:connector-curvature="0" />
	<path style="fill:none;stroke:red;stroke-width:1px;stroke-linecap:butt;stroke-linejoin:miter;stroke-opacity:1" d="M 596.792,212.403 606.054,212.403 z" id="boundary" inkscape:connector-curvature="0" />
	<path style="fill:none;stroke:red;stroke-width:1px;stroke-linecap:butt;stroke-linejoin:miter;stroke-opacity:1" d="M 606.054,212.403 614.39,217.035 z" id="boundary" inkscape:connector-curvature="0" />
	<path style="fill:none;stroke:red;stroke-width:1px;stroke-linecap:butt;stroke-linejoin:miter;stroke-opacity:1" d="M 632.915,221.666 641.251,226.297 z" id="boundary" inkscape:connector-curvature="0" />
	<path style="fill:none;stroke:red;stroke-width:1px;stroke-linecap:butt;stroke-linejoin:miter;stroke-opacity:1" d="M 632.915,221.666 623.653,217.961 z" id="boundary" inkscape:connector-curvature="0" />
	<path style="fill:none;stroke:red;stroke-width:1px;stroke-linecap:butt;stroke-linejoin:miter;stroke-opacity:1" d="M 614.39,217.035 623.653,217.961 z" id="boundary" inkscape:connector-curvature="0" />
	<path style="fill:none;stroke:red;stroke-width:1px;stroke-linecap:butt;stroke-linejoin:miter;stroke-opacity:1" d="M 650.514,226.297 641.251,226.297 z" id="boundary" inkscape:connector-curvature="0" />
	<path style="fill:none;stroke:red;stroke-width:1px;stroke-linecap:butt;stroke-linejoin:miter;stroke-opacity:1" d="M 648.661,153.124 657.923,148.493 z" id="boundary" inkscape:connector-curvature="0" />
	<path style="fill:none;stroke:red;stroke-width:1px;stroke-linecap:butt;stroke-linejoin:miter;stroke-opacity:1" d="M 668.112,4 677.374,4 z" id="boundary" inkscape:connector-curvature="0" />
	<path style="fill:none;stroke:red;stroke-width:1px;stroke-linecap:butt;stroke-linejoin:miter;stroke-opacity:1" d="M 677.374,4 686.637,4 z" id="boundary" inkscape:connector-curvature="0" />
	<path style="fill:none;stroke:red;stroke-width:1px;stroke-linecap:butt;stroke-linejoin:miter;stroke-opacity:1" d="M 658.85,4 668.112,4 z" id="boundary" inkscape:connector-curvature="0" />
	<path style="fill:none;stroke:red;stroke-width:1px;stroke-linecap:butt;stroke-linejoin:miter;stroke-opacity:1" d="M 683.858,132.747 676.448,139.231 z" id="boundary" inkscape:connector-curvature="0" />
	<path style="fill:none;stroke:red;stroke-width:1px;stroke-linecap:butt;stroke-linejoin:miter;stroke-opacity:1" d="M 676.448,139.231 667.186,139.231 z" id="boundary" inkscape:connector-curvature="0" />
	<path style="fill:none;stroke:red;stroke-width:1px;stroke-linecap:butt;stroke-linejoin:miter;stroke-opacity:1" d="M 690.342,125.337 683.858,132.747 z" id="boundary" inkscape:connector-curvature="0" />
	<path style="fill:none;stroke:red;stroke-width:1px;stroke-linecap:butt;stroke-linejoin:miter;stroke-opacity:1" d="M 657.923,148.493 667.186,139.231 z" id="boundary" inkscape:connector-curvature="0" />
	<path style="fill:none;stroke:red;stroke-width:1px;stroke-linecap:butt;stroke-linejoin:miter;stroke-opacity:1" d="M 690.342,125.337 694.973,116.075 z" id="boundary" inkscape:connector-curvature="0" />
	<path style="fill:none;stroke:red;stroke-width:1px;stroke-linecap:butt;stroke-linejoin:miter;stroke-opacity:1" d="M 694.973,116.075 702.383,109.591 z" id="boundary" inkscape:connector-curvature="0" />
	<path style="fill:none;stroke:red;stroke-width:1px;stroke-linecap:butt;stroke-linejoin:miter;stroke-opacity:1" d="M 704.235,97.55 702.383,109.591 z" id="boundary" inkscape:connector-curvature="0" />
	<path style="fill:none;stroke:red;stroke-width:1px;stroke-linecap:butt;stroke-linejoin:miter;stroke-opacity:1" d="M 686.637,4 695.899,4 z" id="boundary" inkscape:connector-curvature="0" />
	<path style="fill:none;stroke:red;stroke-width:1px;stroke-linecap:butt;stroke-linejoin:miter;stroke-opacity:1" d="M 695.899,4 704.235,8.63119 z" id="boundary" inkscape:connector-curvature="0" />
	<path style="fill:none;stroke:red;stroke-width:1px;stroke-linecap:butt;stroke-linejoin:miter;stroke-opacity:1" d="M 704.235,8.63119 713.498,8.63119 z" id="boundary" inkscape:connector-curvature="0" />
	<path style="fill:none;stroke:red;stroke-width:1px;stroke-linecap:butt;stroke-linejoin:miter;stroke-opacity:1" d="M 713.498,8.63119 718.129,16.9673 z" id="boundary" inkscape:connector-curvature="0" />
	<path style="fill:none;stroke:red;stroke-width:1px;stroke-linecap:butt;stroke-linejoin:miter;stroke-opacity:1" d="M 718.129,16.9673 718.129,26.2297 z" id="boundary" inkscape:connector-curvature="0" />
	<path style="fill:none;stroke:red;stroke-width:1px;stroke-linecap:butt;stroke-linejoin:miter;stroke-opacity:1" d="M 718.129,35.4921 718.129,26.2297 z" id="boundary" inkscape:connector-curvature="0" />
	<path style="fill:none;stroke:red;stroke-width:1px;stroke-linecap:butt;stroke-linejoin:miter;stroke-opacity:1" d="M 718.129,44.7544 718.129,35.4921 z" id="boundary" inkscape:connector-curvature="0" />
	<path style="fill:none;stroke:red;stroke-width:1px;stroke-linecap:butt;stroke-linejoin:miter;stroke-opacity:1" d="M 708.866,83.6564 704.235,97.55 z" id="boundary" inkscape:connector-curvature="0" />
	<path style="fill:none;stroke:red;stroke-width:1px;stroke-linecap:butt;stroke-linejoin:miter;stroke-opacity:1" d="M 713.498,65.1317 713.498,74.394 z" id="boundary" inkscape:connector-curvature="0" />
	<path style="fill:none;stroke:red;stroke-width:1px;stroke-linecap:butt;stroke-linejoin:miter;stroke-opacity:1" d="M 713.498,74.394 708.866,83.6564 z" id="boundary" inkscape:connector-curvature="0" />
	<path style="fill:none;stroke:red;stroke-width:1px;stroke-linecap:butt;stroke-linejoin:miter;stroke-opacity:1" d="M 713.498,65.1317 718.129,54.0168 z" id="boundary" inkscape:connector-curvature="0" />
	<path style="fill:none;stroke:red;stroke-width:1px;stroke-linecap:butt;stroke-linejoin:miter;stroke-opacity:1" d="M 718.129,44.7544 718.129,54.0168 z" id="boundary" inkscape:connector-curvature="0" />
	<path style="fill:none;stroke:red;stroke-width:1px;stroke-linecap:butt;stroke-linejoin:miter;stroke-opacity:1" d="M 658.85,230.928 650.514,226.297 z" id="boundary" inkscape:connector-curvature="0" />
	<path style="fill:none;stroke:red;stroke-width:1px;stroke-linecap:butt;stroke-linejoin:miter;stroke-opacity:1" d="M 676.448,238.338 667.186,235.559 z" id="boundary" inkscape:connector-curvature="0" />
	<path style="fill:none;stroke:red;stroke-width:1px;stroke-linecap:butt;stroke-linejoin:miter;stroke-opacity:1" d="M 667.186,235.559 658.85,230.928 z" id="boundary" inkscape:connector-curvature="0" />
	<path style="fill:none;stroke:red;stroke-width:1px;stroke-linecap:butt;stroke-linejoin:miter;stroke-opacity:1" d="M 676.448,238.338 684.784,242.969 z" id="boundary" inkscape:connector-curvature="0" />
	<path style="fill:none;stroke:red;stroke-width:1px;stroke-linecap:butt;stroke-linejoin:miter;stroke-opacity:1" d="M 684.784,242.969 694.047,246.674 z" id="boundary" inkscape:connector-curvature="0" />
	<path style="fill:none;stroke:red;stroke-width:1px;stroke-linecap:butt;stroke-linejoin:miter;stroke-opacity:1" d="M 694.047,246.674 702.383,251.305 z" id="boundary" inkscape:connector-curvature="0" />
	<path style="fill:none;stroke:red;stroke-width:1px;stroke-linecap:butt;stroke-linejoin:miter;stroke-opacity:1" d="M 702.383,251.305 708.866,258.715 z" id="boundary" inkscape:connector-curvature="0" />
	<path style="fill:none;stroke:red;stroke-width:1px;stroke-linecap:butt;stroke-linejoin:miter;stroke-opacity:1" d="M 708.866,258.715 718.129,261.494 z" id="boundary" inkscape:connector-curvature="0" />
	<path style="fill:none;stroke:red;stroke-width:1px;stroke-linecap:butt;stroke-linejoin:miter;stroke-opacity:1" d="M 718.129,261.494 726.465,266.125 z" id="boundary" inkscape:connector-curvature="0" />
	<path style="fill:none;stroke:red;stroke-width:1px;stroke-linecap:butt;stroke-linejoin:miter;stroke-opacity:1" d="M 726.465,266.125 733.875,272.609 z" id="boundary" inkscape:connector-curvature="0" />
	<path style="fill:none;stroke:red;stroke-width:1px;stroke-linecap:butt;stroke-linejoin:miter;stroke-opacity:1" d="M 733.875,272.609 742.211,277.24 z" id="boundary" inkscape:connector-curvature="0" />
	<path style="fill:none;stroke:red;stroke-width:1px;stroke-linecap:butt;stroke-linejoin:miter;stroke-opacity:1" d="M 742.211,277.24 749.621,283.724 z" id="boundary" inkscape:connector-curvature="0" />
	<path style="fill:none;stroke:red;stroke-width:1px;stroke-linecap:butt;stroke-linejoin:miter;stroke-opacity:1" d="M 749.621,283.724 755.178,291.134 z" id="boundary" inkscape:connector-curvature="0" />
	<path style="fill:none;stroke:red;stroke-width:1px;stroke-linecap:butt;stroke-linejoin:miter;stroke-opacity:1" d="M 755.178,291.134 764.441,293.912 z" id="boundary" inkscape:connector-curvature="0" />
	<path style="fill:none;stroke:red;stroke-width:1px;stroke-linecap:butt;stroke-linejoin:miter;stroke-opacity:1" d="M 764.441,293.912 770.924,301.322 z" id="boundary" inkscape:connector-curvature="0" />
	<path style="fill:none;stroke:red;stroke-width:1px;stroke-linecap:butt;stroke-linejoin:miter;stroke-opacity:1" d="M 778.334,307.806 770.924,301.322 z" id="boundary" inkscape:connector-curvature="0" />
	<path style="fill:none;stroke:red;stroke-width:1px;stroke-linecap:butt;stroke-linejoin:miter;stroke-opacity:1" d="M 792.228,321.699 784.818,315.216 z" id="boundary" inkscape:connector-curvature="0" />
	<path style="fill:none;stroke:red;stroke-width:1px;stroke-linecap:butt;stroke-linejoin:miter;stroke-opacity:1" d="M 784.818,315.216 778.334,307.806 z" id="boundary" inkscape:connector-curvature="0" />
	<path style="fill:none;stroke:red;stroke-width:1px;stroke-linecap:butt;stroke-linejoin:miter;stroke-opacity:1" d="M 792.228,321.699 798.711,329.109 z" id="boundary" inkscape:connector-curvature="0" />
	<path style="fill:none;stroke:red;stroke-width:1px;stroke-linecap:butt;stroke-linejoin:miter;stroke-opacity:1" d="M 798.711,329.109 806.121,335.593 z" id="boundary" inkscape:connector-curvature="0" />
	<path style="fill:none;stroke:red;stroke-width:1px;stroke-linecap:butt;stroke-linejoin:miter;stroke-opacity:1" d="M 806.121,335.593 810.753,343.929 z" id="boundary" inkscape:connector-curvature="0" />
	<path style="fill:none;stroke:red;stroke-width:1px;stroke-linecap:butt;stroke-linejoin:miter;stroke-opacity:1" d="M 810.753,343.929 816.31,351.339 z" id="boundary" inkscape:connector-curvature="0" />
	<path style="fill:none;stroke:red;stroke-width:1px;stroke-linecap:butt;stroke-linejoin:miter;stroke-opacity:1" d="M 769.072,898.745 776.482,892.261 z" id="boundary" inkscape:connector-curvature="0" />
	<path style="fill:none;stroke:red;stroke-width:1px;stroke-linecap:butt;stroke-linejoin:miter;stroke-opacity:1" d="M 762.588,906.155 769.072,898.745 z" id="boundary" inkscape:connector-curvature="0" />
	<path style="fill:none;stroke:red;stroke-width:1px;stroke-linecap:butt;stroke-linejoin:miter;stroke-opacity:1" d="M 782.965,884.852 776.482,892.261 z" id="boundary" inkscape:connector-curvature="0" />
	<path style="fill:none;stroke:red;stroke-width:1px;stroke-linecap:butt;stroke-linejoin:miter;stroke-opacity:1" d="M 796.859,870.958 790.375,878.368 z" id="boundary" inkscape:connector-curvature="0" />
	<path style="fill:none;stroke:red;stroke-width:1px;stroke-linecap:butt;stroke-linejoin:miter;stroke-opacity:1" d="M 790.375,878.368 782.965,884.852 z" id="boundary" inkscape:connector-curvature="0" />
	<path style="fill:none;stroke:red;stroke-width:1px;stroke-linecap:butt;stroke-linejoin:miter;stroke-opacity:1" d="M 796.859,870.958 804.269,864.474 z" id="boundary" inkscape:connector-curvature="0" />
	<path style="fill:none;stroke:red;stroke-width:1px;stroke-linecap:butt;stroke-linejoin:miter;stroke-opacity:1" d="M 736.654,921.901 729.244,930.237 z" id="boundary" inkscape:connector-curvature="0" />
	<path style="fill:none;stroke:red;stroke-width:1px;stroke-linecap:butt;stroke-linejoin:miter;stroke-opacity:1" d="M 729.244,930.237 720.908,935.795 z" id="boundary" inkscape:connector-curvature="0" />
	<path style="fill:none;stroke:red;stroke-width:1px;stroke-linecap:butt;stroke-linejoin:miter;stroke-opacity:1" d="M 736.654,921.901 745.916,917.27 z" id="boundary" inkscape:connector-curvature="0" />
	<path style="fill:none;stroke:red;stroke-width:1px;stroke-linecap:butt;stroke-linejoin:miter;stroke-opacity:1" d="M 745.916,917.27 753.326,910.786 z" id="boundary" inkscape:connector-curvature="0" />
	<path style="fill:none;stroke:red;stroke-width:1px;stroke-linecap:butt;stroke-linejoin:miter;stroke-opacity:1" d="M 753.326,910.786 762.588,906.155 z" id="boundary" inkscape:connector-curvature="0" />
	<path style="fill:none;stroke:red;stroke-width:1px;stroke-linecap:butt;stroke-linejoin:miter;stroke-opacity:1" d="M 816.31,351.339 823.72,357.823 z" id="boundary" inkscape:connector-curvature="0" />
	<path style="fill:none;stroke:red;stroke-width:1px;stroke-linecap:butt;stroke-linejoin:miter;stroke-opacity:1" d="M 823.72,357.823 829.277,365.232 z" id="boundary" inkscape:connector-curvature="0" />
	<path style="fill:none;stroke:red;stroke-width:1px;stroke-linecap:butt;stroke-linejoin:miter;stroke-opacity:1" d="M 829.277,365.232 833.908,373.569 z" id="boundary" inkscape:connector-curvature="0" />
	<path style="fill:none;stroke:red;stroke-width:1px;stroke-linecap:butt;stroke-linejoin:miter;stroke-opacity:1" d="M 838.54,381.905 833.908,373.569 z" id="boundary" inkscape:connector-curvature="0" />
	<path style="fill:none;stroke:red;stroke-width:1px;stroke-linecap:butt;stroke-linejoin:miter;stroke-opacity:1" d="M 804.269,864.474 810.753,852.433 z" id="boundary" inkscape:connector-curvature="0" />
	<path style="fill:none;stroke:red;stroke-width:1px;stroke-linecap:butt;stroke-linejoin:miter;stroke-opacity:1" d="M 810.753,852.433 818.162,845.95 z" id="boundary" inkscape:connector-curvature="0" />
	<path style="fill:none;stroke:red;stroke-width:1px;stroke-linecap:butt;stroke-linejoin:miter;stroke-opacity:1" d="M 818.162,845.95 824.646,838.54 z" id="boundary" inkscape:connector-curvature="0" />
	<path style="fill:none;stroke:red;stroke-width:1px;stroke-linecap:butt;stroke-linejoin:miter;stroke-opacity:1" d="M 824.646,838.54 829.277,829.277 z" id="boundary" inkscape:connector-curvature="0" />
	<path style="fill:none;stroke:red;stroke-width:1px;stroke-linecap:butt;stroke-linejoin:miter;stroke-opacity:1" d="M 829.277,829.277 836.687,822.794 z" id="boundary" inkscape:connector-curvature="0" />
	<path style="fill:none;stroke:red;stroke-width:1px;stroke-linecap:butt;stroke-linejoin:miter;stroke-opacity:1" d="M 841.318,813.531 836.687,822.794 z" id="boundary" inkscape:connector-curvature="0" />
	<path style="fill:none;stroke:red;stroke-width:1px;stroke-linecap:butt;stroke-linejoin:miter;stroke-opacity:1" d="M 838.54,381.905 843.171,390.241 z" id="boundary" inkscape:connector-curvature="0" />
	<path style="fill:none;stroke:red;stroke-width:1px;stroke-linecap:butt;stroke-linejoin:miter;stroke-opacity:1" d="M 720.908,935.795 712.571,940.426 z" id="boundary" inkscape:connector-curvature="0" />
	<path style="fill:none;stroke:red;stroke-width:1px;stroke-linecap:butt;stroke-linejoin:miter;stroke-opacity:1" d="M 578.267,991.369 569.005,991.369 z" id="boundary" inkscape:connector-curvature="0" />
	<path style="fill:none;stroke:red;stroke-width:1px;stroke-linecap:butt;stroke-linejoin:miter;stroke-opacity:1" d="M 587.529,988.59 578.267,991.369 z" id="boundary" inkscape:connector-curvature="0" />
	<path style="fill:none;stroke:red;stroke-width:1px;stroke-linecap:butt;stroke-linejoin:miter;stroke-opacity:1" d="M 614.39,982.106 606.054,986.738 z" id="boundary" inkscape:connector-curvature="0" />
	<path style="fill:none;stroke:red;stroke-width:1px;stroke-linecap:butt;stroke-linejoin:miter;stroke-opacity:1" d="M 606.054,986.738 596.792,986.738 z" id="boundary" inkscape:connector-curvature="0" />
	<path style="fill:none;stroke:red;stroke-width:1px;stroke-linecap:butt;stroke-linejoin:miter;stroke-opacity:1" d="M 596.792,986.738 587.529,988.59 z" id="boundary" inkscape:connector-curvature="0" />
	<path style="fill:none;stroke:red;stroke-width:1px;stroke-linecap:butt;stroke-linejoin:miter;stroke-opacity:1" d="M 614.39,982.106 623.653,980.254 z" id="boundary" inkscape:connector-curvature="0" />
	<path style="fill:none;stroke:red;stroke-width:1px;stroke-linecap:butt;stroke-linejoin:miter;stroke-opacity:1" d="M 531.955,996 522.693,996 z" id="boundary" inkscape:connector-curvature="0" />
	<path style="fill:none;stroke:red;stroke-width:1px;stroke-linecap:butt;stroke-linejoin:miter;stroke-opacity:1" d="M 541.218,996 531.955,996 z" id="boundary" inkscape:connector-curvature="0" />
	<path style="fill:none;stroke:red;stroke-width:1px;stroke-linecap:butt;stroke-linejoin:miter;stroke-opacity:1" d="M 550.48,996 559.742,993.221 z" id="boundary" inkscape:connector-curvature="0" />
	<path style="fill:none;stroke:red;stroke-width:1px;stroke-linecap:butt;stroke-linejoin:miter;stroke-opacity:1" d="M 550.48,996 541.218,996 z" id="boundary" inkscape:connector-curvature="0" />
	<path style="fill:none;stroke:red;stroke-width:1px;stroke-linecap:butt;stroke-linejoin:miter;stroke-opacity:1" d="M 569.005,991.369 559.742,993.221 z" id="boundary" inkscape:connector-curvature="0" />
	<path style="fill:none;stroke:red;stroke-width:1px;stroke-linecap:butt;stroke-linejoin:miter;stroke-opacity:1" d="M 677.374,958.951 685.711,954.319 z" id="boundary" inkscape:connector-curvature="0" />
	<path style="fill:none;stroke:red;stroke-width:1px;stroke-linecap:butt;stroke-linejoin:miter;stroke-opacity:1" d="M 685.711,954.319 694.973,949.688 z" id="boundary" inkscape:connector-curvature="0" />
	<path style="fill:none;stroke:red;stroke-width:1px;stroke-linecap:butt;stroke-linejoin:miter;stroke-opacity:1" d="M 704.235,945.057 694.973,949.688 z" id="boundary" inkscape:connector-curvature="0" />
	<path style="fill:none;stroke:red;stroke-width:1px;stroke-linecap:butt;stroke-linejoin:miter;stroke-opacity:1" d="M 669.038,963.582 677.374,958.951 z" id="boundary" inkscape:connector-curvature="0" />
	<path style="fill:none;stroke:red;stroke-width:1px;stroke-linecap:butt;stroke-linejoin:miter;stroke-opacity:1" d="M 641.251,972.844 632.915,977.475 z" id="boundary" inkscape:connector-curvature="0" />
	<path style="fill:none;stroke:red;stroke-width:1px;stroke-linecap:butt;stroke-linejoin:miter;stroke-opacity:1" d="M 632.915,977.475 623.653,980.254 z" id="boundary" inkscape:connector-curvature="0" />
	<path style="fill:none;stroke:red;stroke-width:1px;stroke-linecap:butt;stroke-linejoin:miter;stroke-opacity:1" d="M 641.251,972.844 650.514,971.918 z" id="boundary" inkscape:connector-curvature="0" />
	<path style="fill:none;stroke:red;stroke-width:1px;stroke-linecap:butt;stroke-linejoin:miter;stroke-opacity:1" d="M 650.514,971.918 659.776,967.287 z" id="boundary" inkscape:connector-curvature="0" />
	<path style="fill:none;stroke:red;stroke-width:1px;stroke-linecap:butt;stroke-linejoin:miter;stroke-opacity:1" d="M 659.776,967.287 669.038,963.582 z" id="boundary" inkscape:connector-curvature="0" />
	<path style="fill:none;stroke:red;stroke-width:1px;stroke-linecap:butt;stroke-linejoin:miter;stroke-opacity:1" d="M 712.571,940.426 704.235,945.057 z" id="boundary" inkscape:connector-curvature="0" />
	<path style="fill:none;stroke:red;stroke-width:1px;stroke-linecap:butt;stroke-linejoin:miter;stroke-opacity:1" d="M 843.171,390.241 848.728,397.651 z" id="boundary" inkscape:connector-curvature="0" />
	<path style="fill:none;stroke:red;stroke-width:1px;stroke-linecap:butt;stroke-linejoin:miter;stroke-opacity:1" d="M 848.728,397.651 852.433,406.913 z" id="boundary" inkscape:connector-curvature="0" />
	<path style="fill:none;stroke:red;stroke-width:1px;stroke-linecap:butt;stroke-linejoin:miter;stroke-opacity:1" d="M 852.433,406.913 857.064,415.249 z" id="boundary" inkscape:connector-curvature="0" />
	<path style="fill:none;stroke:red;stroke-width:1px;stroke-linecap:butt;stroke-linejoin:miter;stroke-opacity:1" d="M 861.696,423.585 857.064,415.249 z" id="boundary" inkscape:connector-curvature="0" />
	<path style="fill:none;stroke:red;stroke-width:1px;stroke-linecap:butt;stroke-linejoin:miter;stroke-opacity:1" d="M 866.327,431.922 861.696,423.585 z" id="boundary" inkscape:connector-curvature="0" />
	<path style="fill:none;stroke:red;stroke-width:1px;stroke-linecap:butt;stroke-linejoin:miter;stroke-opacity:1" d="M 866.327,431.922 870.958,440.258 z" id="boundary" inkscape:connector-curvature="0" />
	<path style="fill:none;stroke:red;stroke-width:1px;stroke-linecap:butt;stroke-linejoin:miter;stroke-opacity:1" d="M 875.589,448.594 870.958,440.258 z" id="boundary" inkscape:connector-curvature="0" />
	<path style="fill:none;stroke:red;stroke-width:1px;stroke-linecap:butt;stroke-linejoin:miter;stroke-opacity:1" d="M 875.589,448.594 875.589,457.856 z" id="boundary" inkscape:connector-curvature="0" />
	<path style="fill:none;stroke:red;stroke-width:1px;stroke-linecap:butt;stroke-linejoin:miter;stroke-opacity:1" d="M 875.589,457.856 880.22,466.192 z" id="boundary" inkscape:connector-curvature="0" />
	<path style="fill:none;stroke:red;stroke-width:1px;stroke-linecap:butt;stroke-linejoin:miter;stroke-opacity:1" d="M 884.852,474.528 880.22,466.192 z" id="boundary" inkscape:connector-curvature="0" />
	<path style="fill:none;stroke:red;stroke-width:1px;stroke-linecap:butt;stroke-linejoin:miter;stroke-opacity:1" d="M 884.852,474.528 884.852,483.791 z" id="boundary" inkscape:connector-curvature="0" />
	<path style="fill:none;stroke:red;stroke-width:1px;stroke-linecap:butt;stroke-linejoin:miter;stroke-opacity:1" d="M 884.852,483.791 889.483,492.127 z" id="boundary" inkscape:connector-curvature="0" />
	<path style="fill:none;stroke:red;stroke-width:1px;stroke-linecap:butt;stroke-linejoin:miter;stroke-opacity:1" d="M 889.483,492.127 889.483,501.389 z" id="boundary" inkscape:connector-curvature="0" />
	<path style="fill:none;stroke:red;stroke-width:1px;stroke-linecap:butt;stroke-linejoin:miter;stroke-opacity:1" d="M 889.483,501.389 894.114,509.725 z" id="boundary" inkscape:connector-curvature="0" />
	<path style="fill:none;stroke:red;stroke-width:1px;stroke-linecap:butt;stroke-linejoin:miter;stroke-opacity:1" d="M 894.114,509.725 894.114,518.988 z" id="boundary" inkscape:connector-curvature="0" />
	<path style="fill:none;stroke:red;stroke-width:1px;stroke-linecap:butt;stroke-linejoin:miter;stroke-opacity:1" d="M 898.745,527.324 894.114,518.988 z" id="boundary" inkscape:connector-curvature="0" />
	<path style="fill:none;stroke:red;stroke-width:1px;stroke-linecap:butt;stroke-linejoin:miter;stroke-opacity:1" d="M 898.745,527.324 898.745,536.586 z" id="boundary" inkscape:connector-curvature="0" />
	<path style="fill:none;stroke:red;stroke-width:1px;stroke-linecap:butt;stroke-linejoin:miter;stroke-opacity:1" d="M 898.745,545.849 898.745,536.586 z" id="boundary" inkscape:connector-curvature="0" />
	<path style="fill:none;stroke:red;stroke-width:1px;stroke-linecap:butt;stroke-linejoin:miter;stroke-opacity:1" d="M 898.745,555.111 903.376,563.447 z" id="boundary" inkscape:connector-curvature="0" />
	<path style="fill:none;stroke:red;stroke-width:1px;stroke-linecap:butt;stroke-linejoin:miter;stroke-opacity:1" d="M 903.376,563.447 903.376,572.71 z" id="boundary" inkscape:connector-curvature="0" />
	<path style="fill:none;stroke:red;stroke-width:1px;stroke-linecap:butt;stroke-linejoin:miter;stroke-opacity:1" d="M 898.745,555.111 898.745,545.849 z" id="boundary" inkscape:connector-curvature="0" />
	<path style="fill:none;stroke:red;stroke-width:1px;stroke-linecap:butt;stroke-linejoin:miter;stroke-opacity:1" d="M 903.376,572.71 903.376,581.972 z" id="boundary" inkscape:connector-curvature="0" />
	<path style="fill:none;stroke:red;stroke-width:1px;stroke-linecap:butt;stroke-linejoin:miter;stroke-opacity:1" d="M 870.958,755.178 875.589,741.285 z" id="boundary" inkscape:connector-curvature="0" />
	<path style="fill:none;stroke:red;stroke-width:1px;stroke-linecap:butt;stroke-linejoin:miter;stroke-opacity:1" d="M 880.22,727.391 875.589,741.285 z" id="boundary" inkscape:connector-curvature="0" />
	<path style="fill:none;stroke:red;stroke-width:1px;stroke-linecap:butt;stroke-linejoin:miter;stroke-opacity:1" d="M 884.852,713.498 880.22,727.391 z" id="boundary" inkscape:connector-curvature="0" />
	<path style="fill:none;stroke:red;stroke-width:1px;stroke-linecap:butt;stroke-linejoin:miter;stroke-opacity:1" d="M 889.483,694.973 889.483,704.235 z" id="boundary" inkscape:connector-curvature="0" />
	<path style="fill:none;stroke:red;stroke-width:1px;stroke-linecap:butt;stroke-linejoin:miter;stroke-opacity:1" d="M 889.483,704.235 884.852,713.498 z" id="boundary" inkscape:connector-curvature="0" />
	<path style="fill:none;stroke:red;stroke-width:1px;stroke-linecap:butt;stroke-linejoin:miter;stroke-opacity:1" d="M 870.958,755.178 866.327,764.441 z" id="boundary" inkscape:connector-curvature="0" />
	<path style="fill:none;stroke:red;stroke-width:1px;stroke-linecap:butt;stroke-linejoin:miter;stroke-opacity:1" d="M 841.318,813.531 845.95,804.269 z" id="boundary" inkscape:connector-curvature="0" />
	<path style="fill:none;stroke:red;stroke-width:1px;stroke-linecap:butt;stroke-linejoin:miter;stroke-opacity:1" d="M 845.95,804.269 852.433,792.228 z" id="boundary" inkscape:connector-curvature="0" />
	<path style="fill:none;stroke:red;stroke-width:1px;stroke-linecap:butt;stroke-linejoin:miter;stroke-opacity:1" d="M 857.064,782.965 852.433,792.228 z" id="boundary" inkscape:connector-curvature="0" />
	<path style="fill:none;stroke:red;stroke-width:1px;stroke-linecap:butt;stroke-linejoin:miter;stroke-opacity:1" d="M 861.696,773.703 857.064,782.965 z" id="boundary" inkscape:connector-curvature="0" />
	<path style="fill:none;stroke:red;stroke-width:1px;stroke-linecap:butt;stroke-linejoin:miter;stroke-opacity:1" d="M 866.327,764.441 861.696,773.703 z" id="boundary" inkscape:connector-curvature="0" />
	<path style="fill:none;stroke:red;stroke-width:1px;stroke-linecap:butt;stroke-linejoin:miter;stroke-opacity:1" d="M 903.376,591.234 903.376,600.497 z" id="boundary" inkscape:connector-curvature="0" />
	<path style="fill:none;stroke:red;stroke-width:1px;stroke-linecap:butt;stroke-linejoin:miter;stroke-opacity:1" d="M 903.376,609.759 903.376,619.021 z" id="boundary" inkscape:connector-curvature="0" />
	<path style="fill:none;stroke:red;stroke-width:1px;stroke-linecap:butt;stroke-linejoin:miter;stroke-opacity:1" d="M 903.376,619.021 903.376,628.284 z" id="boundary" inkscape:connector-curvature="0" />
	<path style="fill:none;stroke:red;stroke-width:1px;stroke-linecap:butt;stroke-linejoin:miter;stroke-opacity:1" d="M 903.376,628.284 898.745,644.03 z" id="boundary" inkscape:connector-curvature="0" />
	<path style="fill:none;stroke:red;stroke-width:1px;stroke-linecap:butt;stroke-linejoin:miter;stroke-opacity:1" d="M 903.376,600.497 903.376,609.759 z" id="boundary" inkscape:connector-curvature="0" />
	<path style="fill:none;stroke:red;stroke-width:1px;stroke-linecap:butt;stroke-linejoin:miter;stroke-opacity:1" d="M 889.483,694.973 894.114,685.711 z" id="boundary" inkscape:connector-curvature="0" />
	<path style="fill:none;stroke:red;stroke-width:1px;stroke-linecap:butt;stroke-linejoin:miter;stroke-opacity:1" d="M 894.114,676.448 894.114,685.711 z" id="boundary" inkscape:connector-curvature="0" />
	<path style="fill:none;stroke:red;stroke-width:1px;stroke-linecap:butt;stroke-linejoin:miter;stroke-opacity:1" d="M 894.114,676.448 898.745,662.555 z" id="boundary" inkscape:connector-curvature="0" />
	<path style="fill:none;stroke:red;stroke-width:1px;stroke-linecap:butt;stroke-linejoin:miter;stroke-opacity:1" d="M 898.745,644.03 898.745,653.292 z" id="boundary" inkscape:connector-curvature="0" />
	<path style="fill:none;stroke:red;stroke-width:1px;stroke-linecap:butt;stroke-linejoin:miter;stroke-opacity:1" d="M 898.745,662.555 898.745,653.292 z" id="boundary" inkscape:connector-curvature="0" />
	<path style="fill:none;stroke:red;stroke-width:1px;stroke-linecap:butt;stroke-linejoin:miter;stroke-opacity:1" d="M 903.376,581.972 903.376,591.234 z" id="boundary" inkscape:connector-curvature="0" />
	<circle cx="4" cy="553.259" r="4" fill="#0" id="circle0"/>
	<circle cx="4" cy="562.521" r="4" fill="#0" id="circle1"/>
	<circle cx="4" cy="571.783" r="4" fill="#0" id="circle2"/>
	<circle cx="4" cy="581.046" r="4" fill="#0" id="circle3"/>
	<circle cx="4" cy="590.308" r="4" fill="#0" id="circle4"/>
	<circle cx="4" cy="599.57" r="4" fill="#0" id="circle5"/>
	<circle cx="4" cy="608.833" r="4" fill="#0" id="circle6"/>
	<circle cx="4" cy="618.095" r="4" fill="#0" id="circle7"/>
	<circle cx="4" cy="627.358" r="4" fill="#0" id="circle8"/>
	<circle cx="4" cy="636.62" r="4" fill="#0" id="circle9"/>
	<circle cx="8.63119" cy="525.472" r="4" fill="#0" id="circle10"/>
	<circle cx="8.63119" cy="534.734" r="4" fill="#0" id="circle11"/>
	<circle cx="8.63119" cy="543.996" r="4" fill="#0" id="circle12"/>
	<circle cx="8.63119" cy="644.956" r="4" fill="#0" id="circle13"/>
	<circle cx="8.63119" cy="654.218" r="4" fill="#0" id="circle14"/>
	<circle cx="8.63119" cy="663.481" r="4" fill="#0" id="circle15"/>
	<circle cx="13.2624" cy="502.316" r="4" fill="#0" id="circle16"/>
	<circle cx="13.2624" cy="511.578" r="4" fill="#0" id="circle17"/>
	<circle cx="13.2624" cy="671.817" r="4" fill="#0" id="circle18"/>
	<circle cx="13.2624" cy="681.079" r="4" fill="#0" id="circle19"/>
	<circle cx="16.0411" cy="690.342" r="4" fill="#0" id="circle20"/>
	<circle cx="17.8936" cy="488.422" r="4" fill="#0" id="circle21"/>
	<circle cx="17.8936" cy="699.604" r="4" fill="#0" id="circle22"/>
	<circle cx="22.5247" cy="469.897" r="4" fill="#0" id="circle23"/>
	<circle cx="22.5247" cy="479.16" r="4" fill="#0" id="circle24"/>
	<circle cx="22.5247" cy="707.94" r="4" fill="#0" id="circle25"/>
	<circle cx="22.5247" cy="717.203" r="4" fill="#0" id="circle26"/>
	<circle cx="27.1559" cy="460.635" r="4" fill="#0" id="circle27"/>
	<circle cx="27.1559" cy="725.539" r="4" fill="#0" id="circle28"/>
	<circle cx="31.7871" cy="446.741" r="4" fill="#0" id="circle29"/>
	<circle cx="31.7871" cy="733.875" r="4" fill="#0" id="circle30"/>
	<circle cx="31.7871" cy="743.137" r="4" fill="#0" id="circle31"/>
	<circle cx="36.4183" cy="437.479" r="4" fill="#0" id="circle32"/>
	<circle cx="36.4183" cy="751.473" r="4" fill="#0" id="circle33"/>
	<circle cx="41.0495" cy="428.217" r="4" fill="#0" id="circle34"/>
	<circle cx="41.0495" cy="759.81" r="4" fill="#0" id="circle35"/>
	<circle cx="45.6807" cy="418.954" r="4" fill="#0" id="circle36"/>
	<circle cx="45.6807" cy="768.146" r="4" fill="#0" id="circle37"/>
	<circle cx="50.3119" cy="409.692" r="4" fill="#0" id="circle38"/>
	<circle cx="50.3119" cy="776.482" r="4" fill="#0" id="circle39"/>
	<circle cx="54.943" cy="400.43" r="4" fill="#0" id="circle40"/>
	<circle cx="54.943" cy="784.818" r="4" fill="#0" id="circle41"/>
	<circle cx="59.5742" cy="391.167" r="4" fill="#0" id="circle42"/>
	<circle cx="59.5742" cy="793.154" r="4" fill="#0" id="circle43"/>
	<circle cx="64.2054" cy="801.49" r="4" fill="#0" id="circle44"/>
	<circle cx="66.9841" cy="383.757" r="4" fill="#0" id="circle45"/>
	<circle cx="68.8366" cy="809.826" r="4" fill="#0" id="circle46"/>
	<circle cx="71.6153" cy="374.495" r="4" fill="#0" id="circle47"/>
	<circle cx="74.394" cy="817.236" r="4" fill="#0" id="circle48"/>
	<circle cx="79.0252" cy="367.085" r="4" fill="#0" id="circle49"/>
	<circle cx="80.8777" cy="824.646" r="4" fill="#0" id="circle50"/>
	<circle cx="83.6564" cy="357.823" r="4" fill="#0" id="circle51"/>
	<circle cx="85.5089" cy="832.982" r="4" fill="#0" id="circle52"/>
	<circle cx="91.0663" cy="351.339" r="4" fill="#0" id="circle53"/>
	<circle cx="91.9925" cy="840.392" r="4" fill="#0" id="circle54"/>
	<circle cx="97.55" cy="343.929" r="4" fill="#0" id="circle55"/>
	<circle cx="99.4024" cy="846.876" r="4" fill="#0" id="circle56"/>
	<circle cx="102.181" cy="334.667" r="4" fill="#0" id="circle57"/>
	<circle cx="103.107" cy="856.138" r="4" fill="#0" id="circle58"/>
	<circle cx="109.591" cy="328.183" r="4" fill="#0" id="circle59"/>
	<circle cx="110.517" cy="861.696" r="4" fill="#0" id="circle60"/>
	<circle cx="116.075" cy="320.773" r="4" fill="#0" id="circle61"/>
	<circle cx="116.075" cy="869.106" r="4" fill="#0" id="circle62"/>
	<circle cx="123.485" cy="314.289" r="4" fill="#0" id="circle63"/>
	<circle cx="123.485" cy="875.589" r="4" fill="#0" id="circle64"/>
	<circle cx="129.968" cy="306.88" r="4" fill="#0" id="circle65"/>
	<circle cx="129.968" cy="882.999" r="4" fill="#0" id="circle66"/>
	<circle cx="137.378" cy="300.396" r="4" fill="#0" id="circle67"/>
	<circle cx="137.378" cy="889.483" r="4" fill="#0" id="circle68"/>
	<circle cx="145.714" cy="295.765" r="4" fill="#0" id="circle69"/>
	<circle cx="145.714" cy="894.114" r="4" fill="#0" id="circle70"/>
	<circle cx="153.124" cy="288.355" r="4" fill="#0" id="circle71"/>
	<circle cx="153.124" cy="900.598" r="4" fill="#0" id="circle72"/>
	<circle cx="159.608" cy="908.007" r="4" fill="#0" id="circle73"/>
	<circle cx="160.534" cy="281.871" r="4" fill="#0" id="circle74"/>
	<circle cx="167.944" cy="912.639" r="4" fill="#0" id="circle75"/>
	<circle cx="168.87" cy="277.24" r="4" fill="#0" id="circle76"/>
	<circle cx="175.354" cy="918.196" r="4" fill="#0" id="circle77"/>
	<circle cx="176.28" cy="269.83" r="4" fill="#0" id="circle78"/>
	<circle cx="184.616" cy="921.901" r="4" fill="#0" id="circle79"/>
	<circle cx="185.542" cy="265.199" r="4" fill="#0" id="circle80"/>
	<circle cx="190.174" cy="929.311" r="4" fill="#0" id="circle81"/>
	<circle cx="192.952" cy="258.715" r="4" fill="#0" id="circle82"/>
	<circle cx="199.436" cy="933.016" r="4" fill="#0" id="circle83"/>
	<circle cx="201.289" cy="254.084" r="4" fill="#0" id="circle84"/>
	<circle cx="207.772" cy="937.647" r="4" fill="#0" id="circle85"/>
	<circle cx="210.551" cy="249.453" r="4" fill="#0" id="circle86"/>
	<circle cx="215.182" cy="944.131" r="4" fill="#0" id="circle87"/>
	<circle cx="218.887" cy="244.822" r="4" fill="#0" id="circle88"/>
	<circle cx="223.518" cy="948.762" r="4" fill="#0" id="circle89"/>
	<circle cx="227.223" cy="240.19" r="4" fill="#0" id="circle90"/>
	<circle cx="232.781" cy="952.467" r="4" fill="#0" id="circle91"/>
	<circle cx="235.559" cy="235.559" r="4" fill="#0" id="circle92"/>
	<circle cx="242.043" cy="954.319" r="4" fill="#0" id="circle93"/>
	<circle cx="244.822" cy="233.707" r="4" fill="#0" id="circle94"/>
	<circle cx="250.379" cy="958.951" r="4" fill="#0" id="circle95"/>
	<circle cx="254.084" cy="229.076" r="4" fill="#0" id="circle96"/>
	<circle cx="258.715" cy="963.582" r="4" fill="#0" id="circle97"/>
	<circle cx="263.346" cy="226.297" r="4" fill="#0" id="circle98"/>
	<circle cx="267.978" cy="963.582" r="4" fill="#0" id="circle99"/>
	<circle cx="271.683" cy="221.666" r="4" fill="#0" id="circle100"/>
	<circle cx="276.314" cy="968.213" r="4" fill="#0" id="circle101"/>
	<circle cx="280.019" cy="217.035" r="4" fill="#0" id="circle102"/>
	<circle cx="284.65" cy="972.844" r="4" fill="#0" id="circle103"/>
	<circle cx="289.281" cy="217.035" r="4" fill="#0" id="circle104"/>
	<circle cx="293.912" cy="972.844" r="4" fill="#0" id="circle105"/>
	<circle cx="298.543" cy="212.403" r="4" fill="#0" id="circle106"/>
	<circle cx="302.248" cy="977.475" r="4" fill="#0" id="circle107"/>
	<circle cx="307.806" cy="212.403" r="4" fill="#0" id="circle108"/>
	<circle cx="311.511" cy="980.254" r="4" fill="#0" id="circle109"/>
	<circle cx="316.142" cy="207.772" r="4" fill="#0" id="circle110"/>
	<circle cx="320.773" cy="982.106" r="4" fill="#0" id="circle111"/>
	<circle cx="325.404" cy="207.772" r="4" fill="#0" id="circle112"/>
	<circle cx="330.035" cy="982.106" r="4" fill="#0" id="circle113"/>
	<circle cx="334.667" cy="204.067" r="4" fill="#0" id="circle114"/>
	<circle cx="338.372" cy="986.738" r="4" fill="#0" id="circle115"/>
	<circle cx="343.929" cy="203.141" r="4" fill="#0" id="circle116"/>
	<circle cx="347.634" cy="986.738" r="4" fill="#0" id="circle117"/>
	<circle cx="353.191" cy="203.141" r="4" fill="#0" id="circle118"/>
	<circle cx="356.896" cy="986.738" r="4" fill="#0" id="circle119"/>
	<circle cx="362.454" cy="203.141" r="4" fill="#0" id="circle120"/>
	<circle cx="366.159" cy="988.59" r="4" fill="#0" id="circle121"/>
	<circle cx="370.79" cy="198.51" r="4" fill="#0" id="circle122"/>
	<circle cx="375.421" cy="991.369" r="4" fill="#0" id="circle123"/>
	<circle cx="380.052" cy="198.51" r="4" fill="#0" id="circle124"/>
	<circle cx="384.683" cy="991.369" r="4" fill="#0" id="circle125"/>
	<circle cx="389.315" cy="198.51" r="4" fill="#0" id="circle126"/>
	<circle cx="393.946" cy="991.369" r="4" fill="#0" id="circle127"/>
	<circle cx="398.577" cy="198.51" r="4" fill="#0" id="circle128"/>
	<circle cx="403.208" cy="991.369" r="4" fill="#0" id="circle129"/>
	<circle cx="407.839" cy="198.51" r="4" fill="#0" id="circle130"/>
	<circle cx="412.471" cy="991.369" r="4" fill="#0" id="circle131"/>
	<circle cx="417.102" cy="198.51" r="4" fill="#0" id="circle132"/>
	<circle cx="421.733" cy="991.369" r="4" fill="#0" id="circle133"/>
	<circle cx="426.364" cy="198.51" r="4" fill="#0" id="circle134"/>
	<circle cx="430.995" cy="991.369" r="4" fill="#0" id="circle135"/>
	<circle cx="435.627" cy="198.51" r="4" fill="#0" id="circle136"/>
	<circle cx="440.258" cy="991.369" r="4" fill="#0" id="circle137"/>
	<circle cx="443.963" cy="117.927" r="4" fill="#0" id="circle138"/>
	<circle cx="443.963" cy="127.19" r="4" fill="#0" id="circle139"/>
	<circle cx="443.963" cy="136.452" r="4" fill="#0" id="circle140"/>
	<circle cx="444.889" cy="198.51" r="4" fill="#0" id="circle141"/>
	<circle cx="448.594" cy="144.788" r="4" fill="#0" id="circle142"/>
	<circle cx="448.594" cy="154.05" r="4" fill="#0" id="circle143"/>
	<circle cx="449.52" cy="991.369" r="4" fill="#0" id="circle144"/>
	<circle cx="451.373" cy="110.517" r="4" fill="#0" id="circle145"/>
	<circle cx="453.225" cy="162.387" r="4" fill="#0" id="circle146"/>
	<circle cx="453.225" cy="171.649" r="4" fill="#0" id="circle147"/>
	<circle cx="453.225" cy="180.911" r="4" fill="#0" id="circle148"/>
	<circle cx="453.225" cy="190.174" r="4" fill="#0" id="circle149"/>
	<circle cx="457.856" cy="117.927" r="4" fill="#0" id="circle150"/>
	<circle cx="458.782" cy="991.369" r="4" fill="#0" id="circle151"/>
	<circle cx="463.414" cy="125.337" r="4" fill="#0" id="circle152"/>
	<circle cx="468.045" cy="133.673" r="4" fill="#0" id="circle153"/>
	<circle cx="468.045" cy="142.936" r="4" fill="#0" id="circle154"/>
	<circle cx="468.045" cy="991.369" r="4" fill="#0" id="circle155"/>
	<circle cx="472.676" cy="151.272" r="4" fill="#0" id="circle156"/>
	<circle cx="472.676" cy="160.534" r="4" fill="#0" id="circle157"/>
	<circle cx="476.381" cy="996" r="4" fill="#0" id="circle158"/>
	<circle cx="478.233" cy="143.862" r="4" fill="#0" id="circle159"/>
	<circle cx="481.012" cy="131.821" r="4" fill="#0" id="circle160"/>
	<circle cx="481.938" cy="199.436" r="4" fill="#0" id="circle161"/>
	<circle cx="485.643" cy="122.558" r="4" fill="#0" id="circle162"/>
	<circle cx="485.643" cy="996" r="4" fill="#0" id="circle163"/>
	<circle cx="490.275" cy="113.296" r="4" fill="#0" id="circle164"/>
	<circle cx="491.201" cy="199.436" r="4" fill="#0" id="circle165"/>
	<circle cx="494.906" cy="996" r="4" fill="#0" id="circle166"/>
	<circle cx="497.684" cy="105.886" r="4" fill="#0" id="circle167"/>
	<circle cx="500.463" cy="199.436" r="4" fill="#0" id="circle168"/>
	<circle cx="504.168" cy="94.7712" r="4" fill="#0" id="circle169"/>
	<circle cx="504.168" cy="996" r="4" fill="#0" id="circle170"/>
	<circle cx="508.799" cy="194.805" r="4" fill="#0" id="circle171"/>
	<circle cx="511.578" cy="87.3613" r="4" fill="#0" id="circle172"/>
	<circle cx="513.43" cy="203.141" r="4" fill="#0" id="circle173"/>
	<circle cx="513.43" cy="996" r="4" fill="#0" id="circle174"/>
	<circle cx="516.209" cy="78.099" r="4" fill="#0" id="circle175"/>
	<circle cx="518.062" cy="194.805" r="4" fill="#0" id="circle176"/>
	<circle cx="522.693" cy="203.141" r="4" fill="#0" id="circle177"/>
	<circle cx="522.693" cy="996" r="4" fill="#0" id="circle178"/>
	<circle cx="523.619" cy="70.6891" r="4" fill="#0" id="circle179"/>
	<circle cx="527.324" cy="194.805" r="4" fill="#0" id="circle180"/>
	<circle cx="531.029" cy="64.2054" r="4" fill="#0" id="circle181"/>
	<circle cx="531.955" cy="203.141" r="4" fill="#0" id="circle182"/>
	<circle cx="531.955" cy="996" r="4" fill="#0" id="circle183"/>
	<circle cx="536.586" cy="194.805" r="4" fill="#0" id="circle184"/>
	<circle cx="539.365" cy="59.5742" r="4" fill="#0" id="circle185"/>
	<circle cx="541.218" cy="203.141" r="4" fill="#0" id="circle186"/>
	<circle cx="541.218" cy="996" r="4" fill="#0" id="circle187"/>
	<circle cx="544.923" cy="190.174" r="4" fill="#0" id="circle188"/>
	<circle cx="546.775" cy="52.1643" r="4" fill="#0" id="circle189"/>
	<circle cx="550.48" cy="203.141" r="4" fill="#0" id="circle190"/>
	<circle cx="550.48" cy="996" r="4" fill="#0" id="circle191"/>
	<circle cx="554.185" cy="45.6807" r="4" fill="#0" id="circle192"/>
	<circle cx="554.185" cy="190.174" r="4" fill="#0" id="circle193"/>
	<circle cx="559.742" cy="204.993" r="4" fill="#0" id="circle194"/>
	<circle cx="559.742" cy="993.221" r="4" fill="#0" id="circle195"/>
	<circle cx="562.521" cy="41.0495" r="4" fill="#0" id="circle196"/>
	<circle cx="563.447" cy="190.174" r="4" fill="#0" id="circle197"/>
	<circle cx="569.005" cy="207.772" r="4" fill="#0" id="circle198"/>
	<circle cx="569.005" cy="991.369" r="4" fill="#0" id="circle199"/>
	<circle cx="570.857" cy="36.4183" r="4" fill="#0" id="circle200"/>
	<circle cx="572.71" cy="190.174" r="4" fill="#0" id="circle201"/>
	<circle cx="578.267" cy="207.772" r="4" fill="#0" id="circle202"/>
	<circle cx="578.267" cy="991.369" r="4" fill="#0" id="circle203"/>
	<circle cx="579.193" cy="31.7871" r="4" fill="#0" id="circle204"/>
	<circle cx="581.046" cy="185.542" r="4" fill="#0" id="circle205"/>
	<circle cx="587.529" cy="25.3035" r="4" fill="#0" id="circle206"/>
	<circle cx="587.529" cy="209.625" r="4" fill="#0" id="circle207"/>
	<circle cx="587.529" cy="988.59" r="4" fill="#0" id="circle208"/>
	<circle cx="590.308" cy="185.542" r="4" fill="#0" id="circle209"/>
	<circle cx="596.792" cy="20.6723" r="4" fill="#0" id="circle210"/>
	<circle cx="596.792" cy="212.403" r="4" fill="#0" id="circle211"/>
	<circle cx="596.792" cy="986.738" r="4" fill="#0" id="circle212"/>
	<circle cx="598.644" cy="180.911" r="4" fill="#0" id="circle213"/>
	<circle cx="606.054" cy="17.8936" r="4" fill="#0" id="circle214"/>
	<circle cx="606.054" cy="212.403" r="4" fill="#0" id="circle215"/>
	<circle cx="606.054" cy="986.738" r="4" fill="#0" id="circle216"/>
	<circle cx="607.907" cy="180.911" r="4" fill="#0" id="circle217"/>
	<circle cx="614.39" cy="13.2624" r="4" fill="#0" id="circle218"/>
	<circle cx="614.39" cy="217.035" r="4" fill="#0" id="circle219"/>
	<circle cx="614.39" cy="982.106" r="4" fill="#0" id="circle220"/>
	<circle cx="616.243" cy="176.28" r="4" fill="#0" id="circle221"/>
	<circle cx="622.726" cy="8.63119" r="4" fill="#0" id="circle222"/>
	<circle cx="623.653" cy="169.796" r="4" fill="#0" id="circle223"/>
	<circle cx="623.653" cy="217.961" r="4" fill="#0" id="circle224"/>
	<circle cx="623.653" cy="980.254" r="4" fill="#0" id="circle225"/>
	<circle cx="631.989" cy="8.63119" r="4" fill="#0" id="circle226"/>
	<circle cx="632.915" cy="165.165" r="4" fill="#0" id="circle227"/>
	<circle cx="632.915" cy="221.666" r="4" fill="#0" id="circle228"/>
	<circle cx="632.915" cy="977.475" r="4" fill="#0" id="circle229"/>
	<circle cx="640.325" cy="4" r="4" fill="#0" id="circle230"/>
	<circle cx="641.251" cy="226.297" r="4" fill="#0" id="circle231"/>
	<circle cx="641.251" cy="972.844" r="4" fill="#0" id="circle232"/>
	<circle cx="642.177" cy="160.534" r="4" fill="#0" id="circle233"/>
	<circle cx="648.661" cy="153.124" r="4" fill="#0" id="circle234"/>
	<circle cx="649.587" cy="4" r="4" fill="#0" id="circle235"/>
	<circle cx="650.514" cy="226.297" r="4" fill="#0" id="circle236"/>
	<circle cx="650.514" cy="971.918" r="4" fill="#0" id="circle237"/>
	<circle cx="657.923" cy="148.493" r="4" fill="#0" id="circle238"/>
	<circle cx="658.85" cy="4" r="4" fill="#0" id="circle239"/>
	<circle cx="658.85" cy="230.928" r="4" fill="#0" id="circle240"/>
	<circle cx="659.776" cy="967.287" r="4" fill="#0" id="circle241"/>
	<circle cx="667.186" cy="139.231" r="4" fill="#0" id="circle242"/>
	<circle cx="667.186" cy="235.559" r="4" fill="#0" id="circle243"/>
	<circle cx="668.112" cy="4" r="4" fill="#0" id="circle244"/>
	<circle cx="669.038" cy="963.582" r="4" fill="#0" id="circle245"/>
	<circle cx="676.448" cy="139.231" r="4" fill="#0" id="circle246"/>
	<circle cx="676.448" cy="238.338" r="4" fill="#0" id="circle247"/>
	<circle cx="677.374" cy="4" r="4" fill="#0" id="circle248"/>
	<circle cx="677.374" cy="958.951" r="4" fill="#0" id="circle249"/>
	<circle cx="683.858" cy="132.747" r="4" fill="#0" id="circle250"/>
	<circle cx="684.784" cy="242.969" r="4" fill="#0" id="circle251"/>
	<circle cx="685.711" cy="954.319" r="4" fill="#0" id="circle252"/>
	<circle cx="686.637" cy="4" r="4" fill="#0" id="circle253"/>
	<circle cx="690.342" cy="125.337" r="4" fill="#0" id="circle254"/>
	<circle cx="694.047" cy="246.674" r="4" fill="#0" id="circle255"/>
	<circle cx="694.973" cy="116.075" r="4" fill="#0" id="circle256"/>
	<circle cx="694.973" cy="949.688" r="4" fill="#0" id="circle257"/>
	<circle cx="695.899" cy="4" r="4" fill="#0" id="circle258"/>
	<circle cx="702.383" cy="109.591" r="4" fill="#0" id="circle259"/>
	<circle cx="702.383" cy="251.305" r="4" fill="#0" id="circle260"/>
	<circle cx="704.235" cy="8.63119" r="4" fill="#0" id="circle261"/>
	<circle cx="704.235" cy="97.55" r="4" fill="#0" id="circle262"/>
	<circle cx="704.235" cy="945.057" r="4" fill="#0" id="circle263"/>
	<circle cx="708.866" cy="83.6564" r="4" fill="#0" id="circle264"/>
	<circle cx="708.866" cy="258.715" r="4" fill="#0" id="circle265"/>
	<circle cx="712.571" cy="940.426" r="4" fill="#0" id="circle266"/>
	<circle cx="713.498" cy="8.63119" r="4" fill="#0" id="circle267"/>
	<circle cx="713.498" cy="65.1317" r="4" fill="#0" id="circle268"/>
	<circle cx="713.498" cy="74.394" r="4" fill="#0" id="circle269"/>
	<circle cx="718.129" cy="16.9673" r="4" fill="#0" id="circle270"/>
	<circle cx="718.129" cy="26.2297" r="4" fill="#0" id="circle271"/>
	<circle cx="718.129" cy="35.4921" r="4" fill="#0" id="circle272"/>
	<circle cx="718.129" cy="44.7544" r="4" fill="#0" id="circle273"/>
	<circle cx="718.129" cy="54.0168" r="4" fill="#0" id="circle274"/>
	<circle cx="718.129" cy="261.494" r="4" fill="#0" id="circle275"/>
	<circle cx="720.908" cy="935.795" r="4" fill="#0" id="circle276"/>
	<circle cx="726.465" cy="266.125" r="4" fill="#0" id="circle277"/>
	<circle cx="729.244" cy="930.237" r="4" fill="#0" id="circle278"/>
	<circle cx="733.875" cy="272.609" r="4" fill="#0" id="circle279"/>
	<circle cx="736.654" cy="921.901" r="4" fill="#0" id="circle280"/>
	<circle cx="742.211" cy="277.24" r="4" fill="#0" id="circle281"/>
	<circle cx="745.916" cy="917.27" r="4" fill="#0" id="circle282"/>
	<circle cx="749.621" cy="283.724" r="4" fill="#0" id="circle283"/>
	<circle cx="753.326" cy="910.786" r="4" fill="#0" id="circle284"/>
	<circle cx="755.178" cy="291.134" r="4" fill="#0" id="circle285"/>
	<circle cx="762.588" cy="906.155" r="4" fill="#0" id="circle286"/>
	<circle cx="764.441" cy="293.912" r="4" fill="#0" id="circle287"/>
	<circle cx="769.072" cy="898.745" r="4" fill="#0" id="circle288"/>
	<circle cx="770.924" cy="301.322" r="4" fill="#0" id="circle289"/>
	<circle cx="776.482" cy="892.261" r="4" fill="#0" id="circle290"/>
	<circle cx="778.334" cy="307.806" r="4" fill="#0" id="circle291"/>
	<circle cx="782.965" cy="884.852" r="4" fill="#0" id="circle292"/>
	<circle cx="784.818" cy="315.216" r="4" fill="#0" id="circle293"/>
	<circle cx="790.375" cy="878.368" r="4" fill="#0" id="circle294"/>
	<circle cx="792.228" cy="321.699" r="4" fill="#0" id="circle295"/>
	<circle cx="796.859" cy="870.958" r="4" fill="#0" id="circle296"/>
	<circle cx="798.711" cy="329.109" r="4" fill="#0" id="circle297"/>
	<circle cx="804.269" cy="864.474" r="4" fill="#0" id="circle298"/>
	<circle cx="806.121" cy="335.593" r="4" fill="#0" id="circle299"/>
	<circle cx="810.753" cy="343.929" r="4" fill="#0" id="circle300"/>
	<circle cx="810.753" cy="852.433" r="4" fill="#0" id="circle301"/>
	<circle cx="816.31" cy="351.339" r="4" fill="#0" id="circle302"/>
	<circle cx="818.162" cy="845.95" r="4" fill="#0" id="circle303"/>
	<circle cx="823.72" cy="357.823" r="4" fill="#0" id="circle304"/>
	<circle cx="824.646" cy="838.54" r="4" fill="#0" id="circle305"/>
	<circle cx="829.277" cy="365.232" r="4" fill="#0" id="circle306"/>
	<circle cx="829.277" cy="829.277" r="4" fill="#0" id="circle307"/>
	<circle cx="833.908" cy="373.569" r="4" fill="#0" id="circle308"/>
	<circle cx="836.687" cy="822.794" r="4" fill="#0" id="circle309"/>
	<circle cx="838.54" cy="381.905" r="4" fill="#0" id="circle310"/>
	<circle cx="841.318" cy="813.531" r="4" fill="#0" id="circle311"/>
	<circle cx="843.171" cy="390.241" r="4" fill="#0" id="circle312"/>
	<circle cx="845.95" cy="804.269" r="4" fill="#0" id="circle313"/>
	<circle cx="848.728" cy="397.651" r="4" fill="#0" id="circle314"/>
	<circle cx="852.433" cy="406.913" r="4" fill="#0" id="circle315"/>
	<circle cx="852.433" cy="792.228" r="4" fill="#0" id="circle316"/>
	<circle cx="857.064" cy="415.249" r="4" fill="#0" id="circle317"/>
	<circle cx="857.064" cy="782.965" r="4" fill="#0" id="circle318"/>
	<circle cx="861.696" cy="423.585" r="4" fill="#0" id="circle319"/>
	<circle cx="861.696" cy="773.703" r="4" fill="#0" id="circle320"/>
	<circle cx="866.327" cy="431.922" r="4" fill="#0" id="circle321"/>
	<circle cx="866.327" cy="764.441" r="4" fill="#0" id="circle322"/>
	<circle cx="870.958" cy="440.258" r="4" fill="#0" id="circle323"/>
	<circle cx="870.958" cy="755.178" r="4" fill="#0" id="circle324"/>
	<circle cx="875.589" cy="448.594" r="4" fill="#0" id="circle325"/>
	<circle cx="875.589" cy="457.856" r="4" fill="#0" id="circle326"/>
	<circle cx="875.589" cy="741.285" r="4" fill="#0" id="circle327"/>
	<circle cx="880.22" cy="466.192" r="4" fill="#0" id="circle328"/>
	<circle cx="880.22" cy="727.391" r="4" fill="#0" id="circle329"/>
	<circle cx="884.852" cy="474.528" r="4" fill="#0" id="circle330"/>
	<circle cx="884.852" cy="483.791" r="4" fill="#0" id="circle331"/>
	<circle cx="884.852" cy="713.498" r="4" fill="#0" id="circle332"/>
	<circle cx="889.483" cy="492.127" r="4" fill="#0" id="circle333"/>
	<circle cx="889.483" cy="501.389" r="4" fill="#0" id="circle334"/>
	<circle cx="889.483" cy="694.973" r="4" fill="#0" id="circle335"/>
	<circle cx="889.483" cy="704.235" r="4" fill="#0" id="circle336"/>
	<circle cx="894.114" cy="509.725" r="4" fill="#0" id="circle337"/>
	<circle cx="894.114" cy="518.988" r="4" fill="#0" id="circle338"/>
	<circle cx="894.114" cy="676.448" r="4" fill="#0" id="circle339"/>
	<circle cx="894.114" cy="685.711" r="4" fill="#0" id="circle340"/>
	<circle cx="898.745" cy="527.324" r="4" fill="#0" id="circle341"/>
	<circle cx="898.745" cy="536.586" r="4" fill="#0" id="circle342"/>
	<circle cx="898.745" cy="545.849" r="4" fill="#0" id="circle343"/>
	<circle cx="898.745" cy="555.111" r="4" fill="#0" id="circle344"/>
	<circle cx="898.745" cy="644.03" r="4" fill="#0" id="circle345"/>
	<circle cx="898.745" cy="653.292" r="4" fill="#0" id="circle346"/>
	<circle cx="898.745" cy="662.555" r="4" fill="#0" id="circle347"/>
	<circle cx="903.376" cy="563.447" r="4" fill="#0" id="circle348"/>
	<circle cx="903.376" cy="572.71" r="4" fill="#0" id="circle349"/>
	<circle cx="903.376" cy="581.972" r="4" fill="#0" id="circle350"/>
	<circle cx="903.376" cy="591.234" r="4" fill="#0" id="circle351"/>
	<circle cx="903.376" cy="600.497" r="4" fill="#0" id="circle352"/>
	<circle cx="903.376" cy="609.759" r="4" fill="#0" id="circle353"/>
	<circle cx="903.376" cy="619.021" r="4" fill="#0" id="circle354"/>
	<circle cx="903.376" cy="628.284" r="4" fill="#0" id="circle355"/>
	</g>
</svg>