<?xml version="1.0" encoding="UTF-8" standalone="no"?>
<!-- Created with CurveBenchmark -->
<svg
	xmlns:dc="http://purl.org/dc/elements/1.1/"
	xmlns:cc="http://creativecommons.org/ns#"
	xmlns:rdf="http://www.w3.org/1999/02/22-rdf-syntax-ns#"
	xmlns:svg="http://www.w3.org/2000/svg"
	xmlns="http://www.w3.org/2000/svg"
	xmlns:sodipodi="http://sodipodi.sourceforge.net/DTD/sodipodi-0.dtd"
	xmlns:inkscape="http://www.inkscape.org/namespaces/inkscape"
	width="1000"
	height="1000"
	id="svg2"
	version="1.1"
	sodipodi:docname="manifold/gathang-television065.png.txt">
<defs
	id="defs4" />
<metadata
	id="metadata7">
	<rdf:RDF>
		<cc:Work
			rdf:about="">
			<dc:format>image/svg+xml</dc:format>
			<dc:type
				rdf:resource="http://purl.org/dc/dcmitype/StillImage" />
			<dc:title></dc:title>
		</cc:Work>
	</rdf:RDF>
</metadata>
<g
	inkscape:label="Layer 1"
	inkscape:groupmode="layer"
	id="layer1">
	<path style="fill:none;stroke:red;stroke-width:1px;stroke-linecap:butt;stroke-linejoin:miter;stroke-opacity:1" d="M 215.731,11.8419 215.731,51.0514 z" id="boundary" inkscape:connector-curvature="0" />
	<path style="fill:none;stroke:red;stroke-width:1px;stroke-linecap:butt;stroke-linejoin:miter;stroke-opacity:1" d="M 215.731,11.8419 254.941,4 z" id="boundary" inkscape:connector-curvature="0" />
	<path style="fill:none;stroke:red;stroke-width:1px;stroke-linecap:butt;stroke-linejoin:miter;stroke-opacity:1" d="M 215.731,90.2609 215.731,129.47 z" id="boundary" inkscape:connector-curvature="0" />
	<path style="fill:none;stroke:red;stroke-width:1px;stroke-linecap:butt;stroke-linejoin:miter;stroke-opacity:1" d="M 215.731,90.2609 215.731,51.0514 z" id="boundary" inkscape:connector-curvature="0" />
	<path style="fill:none;stroke:red;stroke-width:1px;stroke-linecap:butt;stroke-linejoin:miter;stroke-opacity:1" d="M 215.731,168.68 215.731,207.889 z" id="boundary" inkscape:connector-curvature="0" />
	<path style="fill:none;stroke:red;stroke-width:1px;stroke-linecap:butt;stroke-linejoin:miter;stroke-opacity:1" d="M 215.731,247.099 215.731,286.308 z" id="boundary" inkscape:connector-curvature="0" />
	<path style="fill:none;stroke:red;stroke-width:1px;stroke-linecap:butt;stroke-linejoin:miter;stroke-opacity:1" d="M 215.731,325.518 215.731,286.308 z" id="boundary" inkscape:connector-curvature="0" />
	<path style="fill:none;stroke:red;stroke-width:1px;stroke-linecap:butt;stroke-linejoin:miter;stroke-opacity:1" d="M 215.731,247.099 215.731,207.889 z" id="boundary" inkscape:connector-curvature="0" />
	<path style="fill:none;stroke:red;stroke-width:1px;stroke-linecap:butt;stroke-linejoin:miter;stroke-opacity:1" d="M 215.731,168.68 215.731,129.47 z" id="boundary" inkscape:connector-curvature="0" />
	<path style="fill:none;stroke:red;stroke-width:1px;stroke-linecap:butt;stroke-linejoin:miter;stroke-opacity:1" d="M 27.5257,670.561 82.419,654.877 z" id="boundary" inkscape:connector-curvature="0" />
	<path style="fill:none;stroke:red;stroke-width:1px;stroke-linecap:butt;stroke-linejoin:miter;stroke-opacity:1" d="M 62.8142,690.166 27.5257,670.561 z" id="boundary" inkscape:connector-curvature="0" />
	<path style="fill:none;stroke:red;stroke-width:1px;stroke-linecap:butt;stroke-linejoin:miter;stroke-opacity:1" d="M 62.8142,690.166 102.024,690.166 z" id="boundary" inkscape:connector-curvature="0" />
	<path style="fill:none;stroke:red;stroke-width:1px;stroke-linecap:butt;stroke-linejoin:miter;stroke-opacity:1" d="M 82.419,654.877 121.628,654.877 z" id="boundary" inkscape:connector-curvature="0" />
	<path style="fill:none;stroke:red;stroke-width:1px;stroke-linecap:butt;stroke-linejoin:miter;stroke-opacity:1" d="M 121.628,654.877 160.838,654.877 z" id="boundary" inkscape:connector-curvature="0" />
	<path style="fill:none;stroke:red;stroke-width:1px;stroke-linecap:butt;stroke-linejoin:miter;stroke-opacity:1" d="M 180.443,690.166 141.233,690.166 z" id="boundary" inkscape:connector-curvature="0" />
	<path style="fill:none;stroke:red;stroke-width:1px;stroke-linecap:butt;stroke-linejoin:miter;stroke-opacity:1" d="M 160.838,654.877 200.047,654.877 z" id="boundary" inkscape:connector-curvature="0" />
	<path style="fill:none;stroke:red;stroke-width:1px;stroke-linecap:butt;stroke-linejoin:miter;stroke-opacity:1" d="M 219.652,690.166 180.443,690.166 z" id="boundary" inkscape:connector-curvature="0" />
	<path style="fill:none;stroke:red;stroke-width:1px;stroke-linecap:butt;stroke-linejoin:miter;stroke-opacity:1" d="M 141.233,690.166 102.024,690.166 z" id="boundary" inkscape:connector-curvature="0" />
	<path style="fill:none;stroke:red;stroke-width:1px;stroke-linecap:butt;stroke-linejoin:miter;stroke-opacity:1" d="M 215.731,325.518 215.731,364.727 z" id="boundary" inkscape:connector-curvature="0" />
	<path style="fill:none;stroke:red;stroke-width:1px;stroke-linecap:butt;stroke-linejoin:miter;stroke-opacity:1" d="M 376.49,525.486 337.281,525.486 z" id="boundary" inkscape:connector-curvature="0" />
	<path style="fill:none;stroke:red;stroke-width:1px;stroke-linecap:butt;stroke-linejoin:miter;stroke-opacity:1" d="M 215.731,403.937 215.731,443.146 z" id="boundary" inkscape:connector-curvature="0" />
	<path style="fill:none;stroke:red;stroke-width:1px;stroke-linecap:butt;stroke-linejoin:miter;stroke-opacity:1" d="M 215.731,403.937 215.731,364.727 z" id="boundary" inkscape:connector-curvature="0" />
	<path style="fill:none;stroke:red;stroke-width:1px;stroke-linecap:butt;stroke-linejoin:miter;stroke-opacity:1" d="M 258.862,525.486 219.652,521.565 z" id="boundary" inkscape:connector-curvature="0" />
	<path style="fill:none;stroke:red;stroke-width:1px;stroke-linecap:butt;stroke-linejoin:miter;stroke-opacity:1" d="M 219.652,521.565 215.731,482.356 z" id="boundary" inkscape:connector-curvature="0" />
	<path style="fill:none;stroke:red;stroke-width:1px;stroke-linecap:butt;stroke-linejoin:miter;stroke-opacity:1" d="M 215.731,482.356 215.731,443.146 z" id="boundary" inkscape:connector-curvature="0" />
	<path style="fill:none;stroke:red;stroke-width:1px;stroke-linecap:butt;stroke-linejoin:miter;stroke-opacity:1" d="M 239.257,654.877 200.047,654.877 z" id="boundary" inkscape:connector-curvature="0" />
	<path style="fill:none;stroke:red;stroke-width:1px;stroke-linecap:butt;stroke-linejoin:miter;stroke-opacity:1" d="M 294.15,4 333.36,4 z" id="boundary" inkscape:connector-curvature="0" />
	<path style="fill:none;stroke:red;stroke-width:1px;stroke-linecap:butt;stroke-linejoin:miter;stroke-opacity:1" d="M 254.941,4 294.15,4 z" id="boundary" inkscape:connector-curvature="0" />
	<path style="fill:none;stroke:red;stroke-width:1px;stroke-linecap:butt;stroke-linejoin:miter;stroke-opacity:1" d="M 239.257,654.877 278.466,654.877 z" id="boundary" inkscape:connector-curvature="0" />
	<path style="fill:none;stroke:red;stroke-width:1px;stroke-linecap:butt;stroke-linejoin:miter;stroke-opacity:1" d="M 219.652,690.166 258.862,690.166 z" id="boundary" inkscape:connector-curvature="0" />
	<path style="fill:none;stroke:red;stroke-width:1px;stroke-linecap:butt;stroke-linejoin:miter;stroke-opacity:1" d="M 298.071,525.486 337.281,525.486 z" id="boundary" inkscape:connector-curvature="0" />
	<path style="fill:none;stroke:red;stroke-width:1px;stroke-linecap:butt;stroke-linejoin:miter;stroke-opacity:1" d="M 278.466,654.877 317.676,654.877 z" id="boundary" inkscape:connector-curvature="0" />
	<path style="fill:none;stroke:red;stroke-width:1px;stroke-linecap:butt;stroke-linejoin:miter;stroke-opacity:1" d="M 337.281,690.166 298.071,690.166 z" id="boundary" inkscape:connector-curvature="0" />
	<path style="fill:none;stroke:red;stroke-width:1px;stroke-linecap:butt;stroke-linejoin:miter;stroke-opacity:1" d="M 298.071,690.166 258.862,690.166 z" id="boundary" inkscape:connector-curvature="0" />
	<path style="fill:none;stroke:red;stroke-width:1px;stroke-linecap:butt;stroke-linejoin:miter;stroke-opacity:1" d="M 317.676,654.877 356.885,654.877 z" id="boundary" inkscape:connector-curvature="0" />
	<path style="fill:none;stroke:red;stroke-width:1px;stroke-linecap:butt;stroke-linejoin:miter;stroke-opacity:1" d="M 258.862,525.486 298.071,525.486 z" id="boundary" inkscape:connector-curvature="0" />
	<path style="fill:none;stroke:red;stroke-width:1px;stroke-linecap:butt;stroke-linejoin:miter;stroke-opacity:1" d="M 333.36,4 372.569,4 z" id="boundary" inkscape:connector-curvature="0" />
	<path style="fill:none;stroke:red;stroke-width:1px;stroke-linecap:butt;stroke-linejoin:miter;stroke-opacity:1" d="M 27.5257,788.19 78.498,780.348 z" id="boundary" inkscape:connector-curvature="0" />
	<path style="fill:none;stroke:red;stroke-width:1px;stroke-linecap:butt;stroke-linejoin:miter;stroke-opacity:1" d="M 58.8933,815.636 27.5257,788.19 z" id="boundary" inkscape:connector-curvature="0" />
	<path style="fill:none;stroke:red;stroke-width:1px;stroke-linecap:butt;stroke-linejoin:miter;stroke-opacity:1" d="M 82.419,897.976 43.2095,897.976 z" id="boundary" inkscape:connector-curvature="0" />
	<path style="fill:none;stroke:red;stroke-width:1px;stroke-linecap:butt;stroke-linejoin:miter;stroke-opacity:1" d="M 98.1028,815.636 58.8933,815.636 z" id="boundary" inkscape:connector-curvature="0" />
	<path style="fill:none;stroke:red;stroke-width:1px;stroke-linecap:butt;stroke-linejoin:miter;stroke-opacity:1" d="M 43.2095,897.976 4,905.818 z" id="boundary" inkscape:connector-curvature="0" />
	<path style="fill:none;stroke:red;stroke-width:1px;stroke-linecap:butt;stroke-linejoin:miter;stroke-opacity:1" d="M 117.708,780.348 156.917,780.348 z" id="boundary" inkscape:connector-curvature="0" />
	<path style="fill:none;stroke:red;stroke-width:1px;stroke-linecap:butt;stroke-linejoin:miter;stroke-opacity:1" d="M 137.312,815.636 98.1028,815.636 z" id="boundary" inkscape:connector-curvature="0" />
	<path style="fill:none;stroke:red;stroke-width:1px;stroke-linecap:butt;stroke-linejoin:miter;stroke-opacity:1" d="M 176.522,815.636 137.312,815.636 z" id="boundary" inkscape:connector-curvature="0" />
	<path style="fill:none;stroke:red;stroke-width:1px;stroke-linecap:butt;stroke-linejoin:miter;stroke-opacity:1" d="M 156.917,780.348 196.126,780.348 z" id="boundary" inkscape:connector-curvature="0" />
	<path style="fill:none;stroke:red;stroke-width:1px;stroke-linecap:butt;stroke-linejoin:miter;stroke-opacity:1" d="M 78.498,780.348 117.708,780.348 z" id="boundary" inkscape:connector-curvature="0" />
	<path style="fill:none;stroke:red;stroke-width:1px;stroke-linecap:butt;stroke-linejoin:miter;stroke-opacity:1" d="M 23.6047,980.316 4,945.028 z" id="boundary" inkscape:connector-curvature="0" />
	<path style="fill:none;stroke:red;stroke-width:1px;stroke-linecap:butt;stroke-linejoin:miter;stroke-opacity:1" d="M 62.8142,996 23.6047,980.316 z" id="boundary" inkscape:connector-curvature="0" />
	<path style="fill:none;stroke:red;stroke-width:1px;stroke-linecap:butt;stroke-linejoin:miter;stroke-opacity:1" d="M 4,945.028 4,905.818 z" id="boundary" inkscape:connector-curvature="0" />
	<path style="fill:none;stroke:red;stroke-width:1px;stroke-linecap:butt;stroke-linejoin:miter;stroke-opacity:1" d="M 82.419,897.976 121.628,897.976 z" id="boundary" inkscape:connector-curvature="0" />
	<path style="fill:none;stroke:red;stroke-width:1px;stroke-linecap:butt;stroke-linejoin:miter;stroke-opacity:1" d="M 141.233,980.316 102.024,980.316 z" id="boundary" inkscape:connector-curvature="0" />
	<path style="fill:none;stroke:red;stroke-width:1px;stroke-linecap:butt;stroke-linejoin:miter;stroke-opacity:1" d="M 121.628,897.976 160.838,897.976 z" id="boundary" inkscape:connector-curvature="0" />
	<path style="fill:none;stroke:red;stroke-width:1px;stroke-linecap:butt;stroke-linejoin:miter;stroke-opacity:1" d="M 180.443,980.316 141.233,980.316 z" id="boundary" inkscape:connector-curvature="0" />
	<path style="fill:none;stroke:red;stroke-width:1px;stroke-linecap:butt;stroke-linejoin:miter;stroke-opacity:1" d="M 62.8142,996 102.024,980.316 z" id="boundary" inkscape:connector-curvature="0" />
	<path style="fill:none;stroke:red;stroke-width:1px;stroke-linecap:butt;stroke-linejoin:miter;stroke-opacity:1" d="M 200.047,897.976 160.838,897.976 z" id="boundary" inkscape:connector-curvature="0" />
	<path style="fill:none;stroke:red;stroke-width:1px;stroke-linecap:butt;stroke-linejoin:miter;stroke-opacity:1" d="M 196.126,780.348 235.336,780.348 z" id="boundary" inkscape:connector-curvature="0" />
	<path style="fill:none;stroke:red;stroke-width:1px;stroke-linecap:butt;stroke-linejoin:miter;stroke-opacity:1" d="M 215.731,815.636 254.941,815.636 z" id="boundary" inkscape:connector-curvature="0" />
	<path style="fill:none;stroke:red;stroke-width:1px;stroke-linecap:butt;stroke-linejoin:miter;stroke-opacity:1" d="M 235.336,780.348 274.545,780.348 z" id="boundary" inkscape:connector-curvature="0" />
	<path style="fill:none;stroke:red;stroke-width:1px;stroke-linecap:butt;stroke-linejoin:miter;stroke-opacity:1" d="M 176.522,815.636 215.731,815.636 z" id="boundary" inkscape:connector-curvature="0" />
	<path style="fill:none;stroke:red;stroke-width:1px;stroke-linecap:butt;stroke-linejoin:miter;stroke-opacity:1" d="M 313.755,780.348 274.545,780.348 z" id="boundary" inkscape:connector-curvature="0" />
	<path style="fill:none;stroke:red;stroke-width:1px;stroke-linecap:butt;stroke-linejoin:miter;stroke-opacity:1" d="M 333.36,815.636 294.15,815.636 z" id="boundary" inkscape:connector-curvature="0" />
	<path style="fill:none;stroke:red;stroke-width:1px;stroke-linecap:butt;stroke-linejoin:miter;stroke-opacity:1" d="M 313.755,780.348 352.964,780.348 z" id="boundary" inkscape:connector-curvature="0" />
	<path style="fill:none;stroke:red;stroke-width:1px;stroke-linecap:butt;stroke-linejoin:miter;stroke-opacity:1" d="M 356.885,897.976 317.676,897.976 z" id="boundary" inkscape:connector-curvature="0" />
	<path style="fill:none;stroke:red;stroke-width:1px;stroke-linecap:butt;stroke-linejoin:miter;stroke-opacity:1" d="M 294.15,815.636 254.941,815.636 z" id="boundary" inkscape:connector-curvature="0" />
	<path style="fill:none;stroke:red;stroke-width:1px;stroke-linecap:butt;stroke-linejoin:miter;stroke-opacity:1" d="M 200.047,897.976 239.257,897.976 z" id="boundary" inkscape:connector-curvature="0" />
	<path style="fill:none;stroke:red;stroke-width:1px;stroke-linecap:butt;stroke-linejoin:miter;stroke-opacity:1" d="M 180.443,980.316 219.652,980.316 z" id="boundary" inkscape:connector-curvature="0" />
	<path style="fill:none;stroke:red;stroke-width:1px;stroke-linecap:butt;stroke-linejoin:miter;stroke-opacity:1" d="M 258.862,980.316 219.652,980.316 z" id="boundary" inkscape:connector-curvature="0" />
	<path style="fill:none;stroke:red;stroke-width:1px;stroke-linecap:butt;stroke-linejoin:miter;stroke-opacity:1" d="M 278.466,897.976 317.676,897.976 z" id="boundary" inkscape:connector-curvature="0" />
	<path style="fill:none;stroke:red;stroke-width:1px;stroke-linecap:butt;stroke-linejoin:miter;stroke-opacity:1" d="M 258.862,980.316 298.071,980.316 z" id="boundary" inkscape:connector-curvature="0" />
	<path style="fill:none;stroke:red;stroke-width:1px;stroke-linecap:butt;stroke-linejoin:miter;stroke-opacity:1" d="M 298.071,980.316 337.281,996 z" id="boundary" inkscape:connector-curvature="0" />
	<path style="fill:none;stroke:red;stroke-width:1px;stroke-linecap:butt;stroke-linejoin:miter;stroke-opacity:1" d="M 239.257,897.976 278.466,897.976 z" id="boundary" inkscape:connector-curvature="0" />
	<path style="fill:none;stroke:red;stroke-width:1px;stroke-linecap:butt;stroke-linejoin:miter;stroke-opacity:1" d="M 643.115,278.466 643.115,317.676 z" id="boundary" inkscape:connector-curvature="0" />
	<path style="fill:none;stroke:red;stroke-width:1px;stroke-linecap:butt;stroke-linejoin:miter;stroke-opacity:1" d="M 376.49,525.486 411.779,545.091 z" id="boundary" inkscape:connector-curvature="0" />
	<path style="fill:none;stroke:red;stroke-width:1px;stroke-linecap:butt;stroke-linejoin:miter;stroke-opacity:1" d="M 411.779,545.091 411.779,584.3 z" id="boundary" inkscape:connector-curvature="0" />
	<path style="fill:none;stroke:red;stroke-width:1px;stroke-linecap:butt;stroke-linejoin:miter;stroke-opacity:1" d="M 490.198,4 529.407,4 z" id="boundary" inkscape:connector-curvature="0" />
	<path style="fill:none;stroke:red;stroke-width:1px;stroke-linecap:butt;stroke-linejoin:miter;stroke-opacity:1" d="M 529.407,4 568.617,4 z" id="boundary" inkscape:connector-curvature="0" />
	<path style="fill:none;stroke:red;stroke-width:1px;stroke-linecap:butt;stroke-linejoin:miter;stroke-opacity:1" d="M 450.988,4 490.198,4 z" id="boundary" inkscape:connector-curvature="0" />
	<path style="fill:none;stroke:red;stroke-width:1px;stroke-linecap:butt;stroke-linejoin:miter;stroke-opacity:1" d="M 411.779,4 450.988,4 z" id="boundary" inkscape:connector-curvature="0" />
	<path style="fill:none;stroke:red;stroke-width:1px;stroke-linecap:butt;stroke-linejoin:miter;stroke-opacity:1" d="M 572.538,529.407 572.538,568.617 z" id="boundary" inkscape:connector-curvature="0" />
	<path style="fill:none;stroke:red;stroke-width:1px;stroke-linecap:butt;stroke-linejoin:miter;stroke-opacity:1" d="M 411.779,584.3 396.095,654.877 z" id="boundary" inkscape:connector-curvature="0" />
	<path style="fill:none;stroke:red;stroke-width:1px;stroke-linecap:butt;stroke-linejoin:miter;stroke-opacity:1" d="M 396.095,654.877 356.885,654.877 z" id="boundary" inkscape:connector-curvature="0" />
	<path style="fill:none;stroke:red;stroke-width:1px;stroke-linecap:butt;stroke-linejoin:miter;stroke-opacity:1" d="M 411.779,709.771 376.49,690.166 z" id="boundary" inkscape:connector-curvature="0" />
	<path style="fill:none;stroke:red;stroke-width:1px;stroke-linecap:butt;stroke-linejoin:miter;stroke-opacity:1" d="M 337.281,690.166 376.49,690.166 z" id="boundary" inkscape:connector-curvature="0" />
	<path style="fill:none;stroke:red;stroke-width:1px;stroke-linecap:butt;stroke-linejoin:miter;stroke-opacity:1" d="M 572.538,607.826 572.538,647.036 z" id="boundary" inkscape:connector-curvature="0" />
	<path style="fill:none;stroke:red;stroke-width:1px;stroke-linecap:butt;stroke-linejoin:miter;stroke-opacity:1" d="M 572.538,607.826 572.538,568.617 z" id="boundary" inkscape:connector-curvature="0" />
	<path style="fill:none;stroke:red;stroke-width:1px;stroke-linecap:butt;stroke-linejoin:miter;stroke-opacity:1" d="M 572.538,647.036 572.538,694.087 z" id="boundary" inkscape:connector-curvature="0" />
	<path style="fill:none;stroke:red;stroke-width:1px;stroke-linecap:butt;stroke-linejoin:miter;stroke-opacity:1" d="M 572.538,694.087 572.538,733.296 z" id="boundary" inkscape:connector-curvature="0" />
	<path style="fill:none;stroke:red;stroke-width:1px;stroke-linecap:butt;stroke-linejoin:miter;stroke-opacity:1" d="M 572.538,529.407 611.747,525.486 z" id="boundary" inkscape:connector-curvature="0" />
	<path style="fill:none;stroke:red;stroke-width:1px;stroke-linecap:butt;stroke-linejoin:miter;stroke-opacity:1" d="M 607.826,4 643.115,23.6047 z" id="boundary" inkscape:connector-curvature="0" />
	<path style="fill:none;stroke:red;stroke-width:1px;stroke-linecap:butt;stroke-linejoin:miter;stroke-opacity:1" d="M 643.115,23.6047 643.115,62.8142 z" id="boundary" inkscape:connector-curvature="0" />
	<path style="fill:none;stroke:red;stroke-width:1px;stroke-linecap:butt;stroke-linejoin:miter;stroke-opacity:1" d="M 650.957,180.443 643.115,239.257 z" id="boundary" inkscape:connector-curvature="0" />
	<path style="fill:none;stroke:red;stroke-width:1px;stroke-linecap:butt;stroke-linejoin:miter;stroke-opacity:1" d="M 643.115,62.8142 650.957,102.024 z" id="boundary" inkscape:connector-curvature="0" />
	<path style="fill:none;stroke:red;stroke-width:1px;stroke-linecap:butt;stroke-linejoin:miter;stroke-opacity:1" d="M 643.115,239.257 643.115,278.466 z" id="boundary" inkscape:connector-curvature="0" />
	<path style="fill:none;stroke:red;stroke-width:1px;stroke-linecap:butt;stroke-linejoin:miter;stroke-opacity:1" d="M 650.957,141.233 650.957,180.443 z" id="boundary" inkscape:connector-curvature="0" />
	<path style="fill:none;stroke:red;stroke-width:1px;stroke-linecap:butt;stroke-linejoin:miter;stroke-opacity:1" d="M 643.115,356.885 643.115,317.676 z" id="boundary" inkscape:connector-curvature="0" />
	<path style="fill:none;stroke:red;stroke-width:1px;stroke-linecap:butt;stroke-linejoin:miter;stroke-opacity:1" d="M 650.957,102.024 650.957,141.233 z" id="boundary" inkscape:connector-curvature="0" />
	<path style="fill:none;stroke:red;stroke-width:1px;stroke-linecap:butt;stroke-linejoin:miter;stroke-opacity:1" d="M 650.957,654.877 611.747,654.877 z" id="boundary" inkscape:connector-curvature="0" />
	<path style="fill:none;stroke:red;stroke-width:1px;stroke-linecap:butt;stroke-linejoin:miter;stroke-opacity:1" d="M 643.115,356.885 643.115,396.095 z" id="boundary" inkscape:connector-curvature="0" />
	<path style="fill:none;stroke:red;stroke-width:1px;stroke-linecap:butt;stroke-linejoin:miter;stroke-opacity:1" d="M 643.115,396.095 643.115,435.304 z" id="boundary" inkscape:connector-curvature="0" />
	<path style="fill:none;stroke:red;stroke-width:1px;stroke-linecap:butt;stroke-linejoin:miter;stroke-opacity:1" d="M 643.115,435.304 643.115,474.514 z" id="boundary" inkscape:connector-curvature="0" />
	<path style="fill:none;stroke:red;stroke-width:1px;stroke-linecap:butt;stroke-linejoin:miter;stroke-opacity:1" d="M 670.561,690.166 650.957,654.877 z" id="boundary" inkscape:connector-curvature="0" />
	<path style="fill:none;stroke:red;stroke-width:1px;stroke-linecap:butt;stroke-linejoin:miter;stroke-opacity:1" d="M 611.747,525.486 643.115,474.514 z" id="boundary" inkscape:connector-curvature="0" />
	<path style="fill:none;stroke:red;stroke-width:1px;stroke-linecap:butt;stroke-linejoin:miter;stroke-opacity:1" d="M 568.617,4 607.826,4 z" id="boundary" inkscape:connector-curvature="0" />
	<path style="fill:none;stroke:red;stroke-width:1px;stroke-linecap:butt;stroke-linejoin:miter;stroke-opacity:1" d="M 352.964,780.348 392.174,780.348 z" id="boundary" inkscape:connector-curvature="0" />
	<path style="fill:none;stroke:red;stroke-width:1px;stroke-linecap:butt;stroke-linejoin:miter;stroke-opacity:1" d="M 411.779,819.557 411.779,858.767 z" id="boundary" inkscape:connector-curvature="0" />
	<path style="fill:none;stroke:red;stroke-width:1px;stroke-linecap:butt;stroke-linejoin:miter;stroke-opacity:1" d="M 392.174,780.348 411.779,819.557 z" id="boundary" inkscape:connector-curvature="0" />
	<path style="fill:none;stroke:red;stroke-width:1px;stroke-linecap:butt;stroke-linejoin:miter;stroke-opacity:1" d="M 333.36,815.636 372.569,815.636 z" id="boundary" inkscape:connector-curvature="0" />
	<path style="fill:none;stroke:red;stroke-width:1px;stroke-linecap:butt;stroke-linejoin:miter;stroke-opacity:1" d="M 572.538,772.506 572.538,819.557 z" id="boundary" inkscape:connector-curvature="0" />
	<path style="fill:none;stroke:red;stroke-width:1px;stroke-linecap:butt;stroke-linejoin:miter;stroke-opacity:1" d="M 572.538,819.557 572.538,858.767 z" id="boundary" inkscape:connector-curvature="0" />
	<path style="fill:none;stroke:red;stroke-width:1px;stroke-linecap:butt;stroke-linejoin:miter;stroke-opacity:1" d="M 576.458,897.976 572.538,858.767 z" id="boundary" inkscape:connector-curvature="0" />
	<path style="fill:none;stroke:red;stroke-width:1px;stroke-linecap:butt;stroke-linejoin:miter;stroke-opacity:1" d="M 615.668,897.976 576.458,897.976 z" id="boundary" inkscape:connector-curvature="0" />
	<path style="fill:none;stroke:red;stroke-width:1px;stroke-linecap:butt;stroke-linejoin:miter;stroke-opacity:1" d="M 572.538,733.296 572.538,772.506 z" id="boundary" inkscape:connector-curvature="0" />
	<path style="fill:none;stroke:red;stroke-width:1px;stroke-linecap:butt;stroke-linejoin:miter;stroke-opacity:1" d="M 356.885,897.976 396.095,897.976 z" id="boundary" inkscape:connector-curvature="0" />
	<path style="fill:none;stroke:red;stroke-width:1px;stroke-linecap:butt;stroke-linejoin:miter;stroke-opacity:1" d="M 411.779,858.767 396.095,897.976 z" id="boundary" inkscape:connector-curvature="0" />
	<path style="fill:none;stroke:red;stroke-width:1px;stroke-linecap:butt;stroke-linejoin:miter;stroke-opacity:1" d="M 415.7,980.316 376.49,980.316 z" id="boundary" inkscape:connector-curvature="0" />
	<path style="fill:none;stroke:red;stroke-width:1px;stroke-linecap:butt;stroke-linejoin:miter;stroke-opacity:1" d="M 454.909,980.316 415.7,980.316 z" id="boundary" inkscape:connector-curvature="0" />
	<path style="fill:none;stroke:red;stroke-width:1px;stroke-linecap:butt;stroke-linejoin:miter;stroke-opacity:1" d="M 376.49,980.316 337.281,996 z" id="boundary" inkscape:connector-curvature="0" />
	<path style="fill:none;stroke:red;stroke-width:1px;stroke-linecap:butt;stroke-linejoin:miter;stroke-opacity:1" d="M 494.119,988.158 454.909,980.316 z" id="boundary" inkscape:connector-curvature="0" />
	<path style="fill:none;stroke:red;stroke-width:1px;stroke-linecap:butt;stroke-linejoin:miter;stroke-opacity:1" d="M 494.119,988.158 533.328,984.237 z" id="boundary" inkscape:connector-curvature="0" />
	<path style="fill:none;stroke:red;stroke-width:1px;stroke-linecap:butt;stroke-linejoin:miter;stroke-opacity:1" d="M 572.538,980.316 533.328,984.237 z" id="boundary" inkscape:connector-curvature="0" />
	<path style="fill:none;stroke:red;stroke-width:1px;stroke-linecap:butt;stroke-linejoin:miter;stroke-opacity:1" d="M 572.538,980.316 611.747,980.316 z" id="boundary" inkscape:connector-curvature="0" />
	<path style="fill:none;stroke:red;stroke-width:1px;stroke-linecap:butt;stroke-linejoin:miter;stroke-opacity:1" d="M 611.747,780.348 650.957,780.348 z" id="boundary" inkscape:connector-curvature="0" />
	<path style="fill:none;stroke:red;stroke-width:1px;stroke-linecap:butt;stroke-linejoin:miter;stroke-opacity:1" d="M 654.877,897.976 615.668,897.976 z" id="boundary" inkscape:connector-curvature="0" />
	<path style="fill:none;stroke:red;stroke-width:1px;stroke-linecap:butt;stroke-linejoin:miter;stroke-opacity:1" d="M 650.957,780.348 690.166,780.348 z" id="boundary" inkscape:connector-curvature="0" />
	<path style="fill:none;stroke:red;stroke-width:1px;stroke-linecap:butt;stroke-linejoin:miter;stroke-opacity:1" d="M 654.877,897.976 694.087,897.976 z" id="boundary" inkscape:connector-curvature="0" />
	<path style="fill:none;stroke:red;stroke-width:1px;stroke-linecap:butt;stroke-linejoin:miter;stroke-opacity:1" d="M 733.296,897.976 694.087,897.976 z" id="boundary" inkscape:connector-curvature="0" />
	<path style="fill:none;stroke:red;stroke-width:1px;stroke-linecap:butt;stroke-linejoin:miter;stroke-opacity:1" d="M 772.506,897.976 733.296,897.976 z" id="boundary" inkscape:connector-curvature="0" />
	<path style="fill:none;stroke:red;stroke-width:1px;stroke-linecap:butt;stroke-linejoin:miter;stroke-opacity:1" d="M 611.747,980.316 650.957,980.316 z" id="boundary" inkscape:connector-curvature="0" />
	<path style="fill:none;stroke:red;stroke-width:1px;stroke-linecap:butt;stroke-linejoin:miter;stroke-opacity:1" d="M 690.166,980.316 729.375,980.316 z" id="boundary" inkscape:connector-curvature="0" />
	<path style="fill:none;stroke:red;stroke-width:1px;stroke-linecap:butt;stroke-linejoin:miter;stroke-opacity:1" d="M 690.166,980.316 650.957,980.316 z" id="boundary" inkscape:connector-curvature="0" />
	<path style="fill:none;stroke:red;stroke-width:1px;stroke-linecap:butt;stroke-linejoin:miter;stroke-opacity:1" d="M 772.506,897.976 811.715,897.976 z" id="boundary" inkscape:connector-curvature="0" />
	<path style="fill:none;stroke:red;stroke-width:1px;stroke-linecap:butt;stroke-linejoin:miter;stroke-opacity:1" d="M 811.715,897.976 831.32,933.265 z" id="boundary" inkscape:connector-curvature="0" />
	<path style="fill:none;stroke:red;stroke-width:1px;stroke-linecap:butt;stroke-linejoin:miter;stroke-opacity:1" d="M 831.32,933.265 807.794,980.316 z" id="boundary" inkscape:connector-curvature="0" />
	<path style="fill:none;stroke:red;stroke-width:1px;stroke-linecap:butt;stroke-linejoin:miter;stroke-opacity:1" d="M 807.794,980.316 768.585,980.316 z" id="boundary" inkscape:connector-curvature="0" />
	<path style="fill:none;stroke:red;stroke-width:1px;stroke-linecap:butt;stroke-linejoin:miter;stroke-opacity:1" d="M 768.585,980.316 729.375,980.316 z" id="boundary" inkscape:connector-curvature="0" />
	<path style="fill:none;stroke:red;stroke-width:1px;stroke-linecap:butt;stroke-linejoin:miter;stroke-opacity:1" d="M 372.569,4 411.779,4 z" id="boundary" inkscape:connector-curvature="0" />
	<circle cx="4" cy="905.818" r="4" fill="#0" id="circle0"/>
	<circle cx="4" cy="945.028" r="4" fill="#0" id="circle1"/>
	<circle cx="23.6047" cy="980.316" r="4" fill="#0" id="circle2"/>
	<circle cx="27.5257" cy="670.561" r="4" fill="#0" id="circle3"/>
	<circle cx="27.5257" cy="788.19" r="4" fill="#0" id="circle4"/>
	<circle cx="43.2095" cy="897.976" r="4" fill="#0" id="circle5"/>
	<circle cx="58.8933" cy="815.636" r="4" fill="#0" id="circle6"/>
	<circle cx="62.8142" cy="690.166" r="4" fill="#0" id="circle7"/>
	<circle cx="62.8142" cy="996" r="4" fill="#0" id="circle8"/>
	<circle cx="78.498" cy="780.348" r="4" fill="#0" id="circle9"/>
	<circle cx="82.419" cy="654.877" r="4" fill="#0" id="circle10"/>
	<circle cx="82.419" cy="897.976" r="4" fill="#0" id="circle11"/>
	<circle cx="98.1028" cy="815.636" r="4" fill="#0" id="circle12"/>
	<circle cx="102.024" cy="690.166" r="4" fill="#0" id="circle13"/>
	<circle cx="102.024" cy="980.316" r="4" fill="#0" id="circle14"/>
	<circle cx="117.708" cy="780.348" r="4" fill="#0" id="circle15"/>
	<circle cx="121.628" cy="654.877" r="4" fill="#0" id="circle16"/>
	<circle cx="121.628" cy="897.976" r="4" fill="#0" id="circle17"/>
	<circle cx="137.312" cy="815.636" r="4" fill="#0" id="circle18"/>
	<circle cx="141.233" cy="690.166" r="4" fill="#0" id="circle19"/>
	<circle cx="141.233" cy="980.316" r="4" fill="#0" id="circle20"/>
	<circle cx="156.917" cy="780.348" r="4" fill="#0" id="circle21"/>
	<circle cx="160.838" cy="654.877" r="4" fill="#0" id="circle22"/>
	<circle cx="160.838" cy="897.976" r="4" fill="#0" id="circle23"/>
	<circle cx="176.522" cy="815.636" r="4" fill="#0" id="circle24"/>
	<circle cx="180.443" cy="690.166" r="4" fill="#0" id="circle25"/>
	<circle cx="180.443" cy="980.316" r="4" fill="#0" id="circle26"/>
	<circle cx="196.126" cy="780.348" r="4" fill="#0" id="circle27"/>
	<circle cx="200.047" cy="654.877" r="4" fill="#0" id="circle28"/>
	<circle cx="200.047" cy="897.976" r="4" fill="#0" id="circle29"/>
	<circle cx="215.731" cy="11.8419" r="4" fill="#0" id="circle30"/>
	<circle cx="215.731" cy="51.0514" r="4" fill="#0" id="circle31"/>
	<circle cx="215.731" cy="90.2609" r="4" fill="#0" id="circle32"/>
	<circle cx="215.731" cy="129.47" r="4" fill="#0" id="circle33"/>
	<circle cx="215.731" cy="168.68" r="4" fill="#0" id="circle34"/>
	<circle cx="215.731" cy="207.889" r="4" fill="#0" id="circle35"/>
	<circle cx="215.731" cy="247.099" r="4" fill="#0" id="circle36"/>
	<circle cx="215.731" cy="286.308" r="4" fill="#0" id="circle37"/>
	<circle cx="215.731" cy="325.518" r="4" fill="#0" id="circle38"/>
	<circle cx="215.731" cy="364.727" r="4" fill="#0" id="circle39"/>
	<circle cx="215.731" cy="403.937" r="4" fill="#0" id="circle40"/>
	<circle cx="215.731" cy="443.146" r="4" fill="#0" id="circle41"/>
	<circle cx="215.731" cy="482.356" r="4" fill="#0" id="circle42"/>
	<circle cx="215.731" cy="815.636" r="4" fill="#0" id="circle43"/>
	<circle cx="219.652" cy="521.565" r="4" fill="#0" id="circle44"/>
	<circle cx="219.652" cy="690.166" r="4" fill="#0" id="circle45"/>
	<circle cx="219.652" cy="980.316" r="4" fill="#0" id="circle46"/>
	<circle cx="235.336" cy="780.348" r="4" fill="#0" id="circle47"/>
	<circle cx="239.257" cy="654.877" r="4" fill="#0" id="circle48"/>
	<circle cx="239.257" cy="897.976" r="4" fill="#0" id="circle49"/>
	<circle cx="254.941" cy="4" r="4" fill="#0" id="circle50"/>
	<circle cx="254.941" cy="815.636" r="4" fill="#0" id="circle51"/>
	<circle cx="258.862" cy="525.486" r="4" fill="#0" id="circle52"/>
	<circle cx="258.862" cy="690.166" r="4" fill="#0" id="circle53"/>
	<circle cx="258.862" cy="980.316" r="4" fill="#0" id="circle54"/>
	<circle cx="274.545" cy="780.348" r="4" fill="#0" id="circle55"/>
	<circle cx="278.466" cy="654.877" r="4" fill="#0" id="circle56"/>
	<circle cx="278.466" cy="897.976" r="4" fill="#0" id="circle57"/>
	<circle cx="294.15" cy="4" r="4" fill="#0" id="circle58"/>
	<circle cx="294.15" cy="815.636" r="4" fill="#0" id="circle59"/>
	<circle cx="298.071" cy="525.486" r="4" fill="#0" id="circle60"/>
	<circle cx="298.071" cy="690.166" r="4" fill="#0" id="circle61"/>
	<circle cx="298.071" cy="980.316" r="4" fill="#0" id="circle62"/>
	<circle cx="313.755" cy="780.348" r="4" fill="#0" id="circle63"/>
	<circle cx="317.676" cy="654.877" r="4" fill="#0" id="circle64"/>
	<circle cx="317.676" cy="897.976" r="4" fill="#0" id="circle65"/>
	<circle cx="333.36" cy="4" r="4" fill="#0" id="circle66"/>
	<circle cx="333.36" cy="815.636" r="4" fill="#0" id="circle67"/>
	<circle cx="337.281" cy="525.486" r="4" fill="#0" id="circle68"/>
	<circle cx="337.281" cy="690.166" r="4" fill="#0" id="circle69"/>
	<circle cx="337.281" cy="996" r="4" fill="#0" id="circle70"/>
	<circle cx="352.964" cy="780.348" r="4" fill="#0" id="circle71"/>
	<circle cx="356.885" cy="654.877" r="4" fill="#0" id="circle72"/>
	<circle cx="356.885" cy="897.976" r="4" fill="#0" id="circle73"/>
	<circle cx="372.569" cy="4" r="4" fill="#0" id="circle74"/>
	<circle cx="372.569" cy="815.636" r="4" fill="#0" id="circle75"/>
	<circle cx="376.49" cy="525.486" r="4" fill="#0" id="circle76"/>
	<circle cx="376.49" cy="690.166" r="4" fill="#0" id="circle77"/>
	<circle cx="376.49" cy="980.316" r="4" fill="#0" id="circle78"/>
	<circle cx="392.174" cy="780.348" r="4" fill="#0" id="circle79"/>
	<circle cx="396.095" cy="654.877" r="4" fill="#0" id="circle80"/>
	<circle cx="396.095" cy="897.976" r="4" fill="#0" id="circle81"/>
	<circle cx="411.779" cy="4" r="4" fill="#0" id="circle82"/>
	<circle cx="411.779" cy="545.091" r="4" fill="#0" id="circle83"/>
	<circle cx="411.779" cy="584.3" r="4" fill="#0" id="circle84"/>
	<circle cx="411.779" cy="709.771" r="4" fill="#0" id="circle85"/>
	<circle cx="411.779" cy="819.557" r="4" fill="#0" id="circle86"/>
	<circle cx="411.779" cy="858.767" r="4" fill="#0" id="circle87"/>
	<circle cx="415.7" cy="980.316" r="4" fill="#0" id="circle88"/>
	<circle cx="450.988" cy="4" r="4" fill="#0" id="circle89"/>
	<circle cx="454.909" cy="980.316" r="4" fill="#0" id="circle90"/>
	<circle cx="490.198" cy="4" r="4" fill="#0" id="circle91"/>
	<circle cx="494.119" cy="988.158" r="4" fill="#0" id="circle92"/>
	<circle cx="529.407" cy="4" r="4" fill="#0" id="circle93"/>
	<circle cx="533.328" cy="984.237" r="4" fill="#0" id="circle94"/>
	<circle cx="568.617" cy="4" r="4" fill="#0" id="circle95"/>
	<circle cx="572.538" cy="529.407" r="4" fill="#0" id="circle96"/>
	<circle cx="572.538" cy="568.617" r="4" fill="#0" id="circle97"/>
	<circle cx="572.538" cy="607.826" r="4" fill="#0" id="circle98"/>
	<circle cx="572.538" cy="647.036" r="4" fill="#0" id="circle99"/>
	<circle cx="572.538" cy="694.087" r="4" fill="#0" id="circle100"/>
	<circle cx="572.538" cy="733.296" r="4" fill="#0" id="circle101"/>
	<circle cx="572.538" cy="772.506" r="4" fill="#0" id="circle102"/>
	<circle cx="572.538" cy="819.557" r="4" fill="#0" id="circle103"/>
	<circle cx="572.538" cy="858.767" r="4" fill="#0" id="circle104"/>
	<circle cx="572.538" cy="980.316" r="4" fill="#0" id="circle105"/>
	<circle cx="576.458" cy="897.976" r="4" fill="#0" id="circle106"/>
	<circle cx="607.826" cy="4" r="4" fill="#0" id="circle107"/>
	<circle cx="611.747" cy="525.486" r="4" fill="#0" id="circle108"/>
	<circle cx="611.747" cy="654.877" r="4" fill="#0" id="circle109"/>
	<circle cx="611.747" cy="780.348" r="4" fill="#0" id="circle110"/>
	<circle cx="611.747" cy="980.316" r="4" fill="#0" id="circle111"/>
	<circle cx="615.668" cy="897.976" r="4" fill="#0" id="circle112"/>
	<circle cx="631.352" cy="690.166" r="4" fill="#0" id="circle113"/>
	<circle cx="631.352" cy="815.636" r="4" fill="#0" id="circle114"/>
	<circle cx="643.115" cy="23.6047" r="4" fill="#0" id="circle115"/>
	<circle cx="643.115" cy="62.8142" r="4" fill="#0" id="circle116"/>
	<circle cx="643.115" cy="239.257" r="4" fill="#0" id="circle117"/>
	<circle cx="643.115" cy="278.466" r="4" fill="#0" id="circle118"/>
	<circle cx="643.115" cy="317.676" r="4" fill="#0" id="circle119"/>
	<circle cx="643.115" cy="356.885" r="4" fill="#0" id="circle120"/>
	<circle cx="643.115" cy="396.095" r="4" fill="#0" id="circle121"/>
	<circle cx="643.115" cy="435.304" r="4" fill="#0" id="circle122"/>
	<circle cx="643.115" cy="474.514" r="4" fill="#0" id="circle123"/>
	<circle cx="650.957" cy="102.024" r="4" fill="#0" id="circle124"/>
	<circle cx="650.957" cy="141.233" r="4" fill="#0" id="circle125"/>
	<circle cx="650.957" cy="180.443" r="4" fill="#0" id="circle126"/>
	<circle cx="650.957" cy="654.877" r="4" fill="#0" id="circle127"/>
	<circle cx="650.957" cy="780.348" r="4" fill="#0" id="circle128"/>
	<circle cx="650.957" cy="980.316" r="4" fill="#0" id="circle129"/>
	<circle cx="654.877" cy="897.976" r="4" fill="#0" id="circle130"/>
	<circle cx="670.561" cy="690.166" r="4" fill="#0" id="circle131"/>
	<circle cx="670.561" cy="815.636" r="4" fill="#0" id="circle132"/>
	<circle cx="690.166" cy="780.348" r="4" fill="#0" id="circle133"/>
	<circle cx="690.166" cy="980.316" r="4" fill="#0" id="circle134"/>
	<circle cx="694.087" cy="897.976" r="4" fill="#0" id="circle135"/>
	<circle cx="729.375" cy="980.316" r="4" fill="#0" id="circle136"/>
	<circle cx="733.296" cy="897.976" r="4" fill="#0" id="circle137"/>
	<circle cx="768.585" cy="980.316" r="4" fill="#0" id="circle138"/>
	<circle cx="772.506" cy="897.976" r="4" fill="#0" id="circle139"/>
	<circle cx="807.794" cy="980.316" r="4" fill="#0" id="circle140"/>
	<circle cx="811.715" cy="897.976" r="4" fill="#0" id="circle141"/>
	<circle cx="831.32" cy="933.265" r="4" fill="#0" id="circle142"/>
	</g>
</svg>