<?xml version="1.0" encoding="UTF-8" standalone="no"?>
<!-- Created with CurveBenchmark -->
<svg
	xmlns:dc="http://purl.org/dc/elements/1.1/"
	xmlns:cc="http://creativecommons.org/ns#"
	xmlns:rdf="http://www.w3.org/1999/02/22-rdf-syntax-ns#"
	xmlns:svg="http://www.w3.org/2000/svg"
	xmlns="http://www.w3.org/2000/svg"
	xmlns:sodipodi="http://sodipodi.sourceforge.net/DTD/sodipodi-0.dtd"
	xmlns:inkscape="http://www.inkscape.org/namespaces/inkscape"
	width="1000"
	height="1000"
	id="svg2"
	version="1.1"
	sodipodi:docname="manifold/gathang-stef-14.png.txt">
<defs
	id="defs4" />
<metadata
	id="metadata7">
	<rdf:RDF>
		<cc:Work
			rdf:about="">
			<dc:format>image/svg+xml</dc:format>
			<dc:type
				rdf:resource="http://purl.org/dc/dcmitype/StillImage" />
			<dc:title></dc:title>
		</cc:Work>
	</rdf:RDF>
</metadata>
<g
	inkscape:label="Layer 1"
	inkscape:groupmode="layer"
	id="layer1">
	<path style="fill:none;stroke:red;stroke-width:1px;stroke-linecap:butt;stroke-linejoin:miter;stroke-opacity:1" d="M 4,80.9418 4,53.4626 z" id="boundary" inkscape:connector-curvature="0" />
	<path style="fill:none;stroke:red;stroke-width:1px;stroke-linecap:butt;stroke-linejoin:miter;stroke-opacity:1" d="M 4,108.421 4,80.9418 z" id="boundary" inkscape:connector-curvature="0" />
	<path style="fill:none;stroke:red;stroke-width:1px;stroke-linecap:butt;stroke-linejoin:miter;stroke-opacity:1" d="M 4,53.4626 17.7396,25.9834 z" id="boundary" inkscape:connector-curvature="0" />
	<path style="fill:none;stroke:red;stroke-width:1px;stroke-linecap:butt;stroke-linejoin:miter;stroke-opacity:1" d="M 17.7396,25.9834 45.2188,12.2438 z" id="boundary" inkscape:connector-curvature="0" />
	<path style="fill:none;stroke:red;stroke-width:1px;stroke-linecap:butt;stroke-linejoin:miter;stroke-opacity:1" d="M 45.2188,12.2438 72.6981,4 z" id="boundary" inkscape:connector-curvature="0" />
	<path style="fill:none;stroke:red;stroke-width:1px;stroke-linecap:butt;stroke-linejoin:miter;stroke-opacity:1" d="M 72.6981,4 97.4294,17.7396 z" id="boundary" inkscape:connector-curvature="0" />
	<path style="fill:none;stroke:red;stroke-width:1px;stroke-linecap:butt;stroke-linejoin:miter;stroke-opacity:1" d="M 149.64,31.4792 122.161,31.4792 z" id="boundary" inkscape:connector-curvature="0" />
	<path style="fill:none;stroke:red;stroke-width:1px;stroke-linecap:butt;stroke-linejoin:miter;stroke-opacity:1" d="M 122.161,31.4792 97.4294,17.7396 z" id="boundary" inkscape:connector-curvature="0" />
	<path style="fill:none;stroke:red;stroke-width:1px;stroke-linecap:butt;stroke-linejoin:miter;stroke-opacity:1" d="M 177.119,31.4792 149.64,31.4792 z" id="boundary" inkscape:connector-curvature="0" />
	<path style="fill:none;stroke:red;stroke-width:1px;stroke-linecap:butt;stroke-linejoin:miter;stroke-opacity:1" d="M 4,163.38 4,135.9 z" id="boundary" inkscape:connector-curvature="0" />
	<path style="fill:none;stroke:red;stroke-width:1px;stroke-linecap:butt;stroke-linejoin:miter;stroke-opacity:1" d="M 17.7396,188.111 45.2188,199.102 z" id="boundary" inkscape:connector-curvature="0" />
	<path style="fill:none;stroke:red;stroke-width:1px;stroke-linecap:butt;stroke-linejoin:miter;stroke-opacity:1" d="M 45.2188,199.102 69.9501,212.842 z" id="boundary" inkscape:connector-curvature="0" />
	<path style="fill:none;stroke:red;stroke-width:1px;stroke-linecap:butt;stroke-linejoin:miter;stroke-opacity:1" d="M 17.7396,188.111 4,163.38 z" id="boundary" inkscape:connector-curvature="0" />
	<path style="fill:none;stroke:red;stroke-width:1px;stroke-linecap:butt;stroke-linejoin:miter;stroke-opacity:1" d="M 69.9501,212.842 97.4294,212.842 z" id="boundary" inkscape:connector-curvature="0" />
	<path style="fill:none;stroke:red;stroke-width:1px;stroke-linecap:butt;stroke-linejoin:miter;stroke-opacity:1" d="M 124.909,212.842 149.64,226.582 z" id="boundary" inkscape:connector-curvature="0" />
	<path style="fill:none;stroke:red;stroke-width:1px;stroke-linecap:butt;stroke-linejoin:miter;stroke-opacity:1" d="M 97.4294,212.842 124.909,212.842 z" id="boundary" inkscape:connector-curvature="0" />
	<path style="fill:none;stroke:red;stroke-width:1px;stroke-linecap:butt;stroke-linejoin:miter;stroke-opacity:1" d="M 149.64,226.582 174.371,240.321 z" id="boundary" inkscape:connector-curvature="0" />
	<path style="fill:none;stroke:red;stroke-width:1px;stroke-linecap:butt;stroke-linejoin:miter;stroke-opacity:1" d="M 4,135.9 4,108.421 z" id="boundary" inkscape:connector-curvature="0" />
	<path style="fill:none;stroke:red;stroke-width:1px;stroke-linecap:butt;stroke-linejoin:miter;stroke-opacity:1" d="M 204.598,31.4792 232.078,31.4792 z" id="boundary" inkscape:connector-curvature="0" />
	<path style="fill:none;stroke:red;stroke-width:1px;stroke-linecap:butt;stroke-linejoin:miter;stroke-opacity:1" d="M 204.598,31.4792 177.119,31.4792 z" id="boundary" inkscape:connector-curvature="0" />
	<path style="fill:none;stroke:red;stroke-width:1px;stroke-linecap:butt;stroke-linejoin:miter;stroke-opacity:1" d="M 232.078,31.4792 259.557,31.4792 z" id="boundary" inkscape:connector-curvature="0" />
	<path style="fill:none;stroke:red;stroke-width:1px;stroke-linecap:butt;stroke-linejoin:miter;stroke-opacity:1" d="M 199.102,254.061 174.371,240.321 z" id="boundary" inkscape:connector-curvature="0" />
	<path style="fill:none;stroke:red;stroke-width:1px;stroke-linecap:butt;stroke-linejoin:miter;stroke-opacity:1" d="M 287.036,31.4792 314.515,31.4792 z" id="boundary" inkscape:connector-curvature="0" />
	<path style="fill:none;stroke:red;stroke-width:1px;stroke-linecap:butt;stroke-linejoin:miter;stroke-opacity:1" d="M 394.205,45.2188 366.726,45.2188 z" id="boundary" inkscape:connector-curvature="0" />
	<path style="fill:none;stroke:red;stroke-width:1px;stroke-linecap:butt;stroke-linejoin:miter;stroke-opacity:1" d="M 366.726,45.2188 341.994,31.4792 z" id="boundary" inkscape:connector-curvature="0" />
	<path style="fill:none;stroke:red;stroke-width:1px;stroke-linecap:butt;stroke-linejoin:miter;stroke-opacity:1" d="M 314.515,31.4792 341.994,31.4792 z" id="boundary" inkscape:connector-curvature="0" />
	<path style="fill:none;stroke:red;stroke-width:1px;stroke-linecap:butt;stroke-linejoin:miter;stroke-opacity:1" d="M 259.557,31.4792 287.036,31.4792 z" id="boundary" inkscape:connector-curvature="0" />
	<path style="fill:none;stroke:red;stroke-width:1px;stroke-linecap:butt;stroke-linejoin:miter;stroke-opacity:1" d="M 199.102,254.061 223.834,267.801 z" id="boundary" inkscape:connector-curvature="0" />
	<path style="fill:none;stroke:red;stroke-width:1px;stroke-linecap:butt;stroke-linejoin:miter;stroke-opacity:1" d="M 251.313,267.801 223.834,267.801 z" id="boundary" inkscape:connector-curvature="0" />
	<path style="fill:none;stroke:red;stroke-width:1px;stroke-linecap:butt;stroke-linejoin:miter;stroke-opacity:1" d="M 276.044,281.54 251.313,267.801 z" id="boundary" inkscape:connector-curvature="0" />
	<path style="fill:none;stroke:red;stroke-width:1px;stroke-linecap:butt;stroke-linejoin:miter;stroke-opacity:1" d="M 284.288,402.449 259.557,416.188 z" id="boundary" inkscape:connector-curvature="0" />
	<path style="fill:none;stroke:red;stroke-width:1px;stroke-linecap:butt;stroke-linejoin:miter;stroke-opacity:1" d="M 300.776,295.28 320.011,317.263 z" id="boundary" inkscape:connector-curvature="0" />
	<path style="fill:none;stroke:red;stroke-width:1px;stroke-linecap:butt;stroke-linejoin:miter;stroke-opacity:1" d="M 320.011,317.263 320.011,344.742 z" id="boundary" inkscape:connector-curvature="0" />
	<path style="fill:none;stroke:red;stroke-width:1px;stroke-linecap:butt;stroke-linejoin:miter;stroke-opacity:1" d="M 306.271,383.213 284.288,402.449 z" id="boundary" inkscape:connector-curvature="0" />
	<path style="fill:none;stroke:red;stroke-width:1px;stroke-linecap:butt;stroke-linejoin:miter;stroke-opacity:1" d="M 320.011,344.742 306.271,383.213 z" id="boundary" inkscape:connector-curvature="0" />
	<path style="fill:none;stroke:red;stroke-width:1px;stroke-linecap:butt;stroke-linejoin:miter;stroke-opacity:1" d="M 399.701,440.92 372.222,446.416 z" id="boundary" inkscape:connector-curvature="0" />
	<path style="fill:none;stroke:red;stroke-width:1px;stroke-linecap:butt;stroke-linejoin:miter;stroke-opacity:1" d="M 276.044,281.54 300.776,295.28 z" id="boundary" inkscape:connector-curvature="0" />
	<path style="fill:none;stroke:red;stroke-width:1px;stroke-linecap:butt;stroke-linejoin:miter;stroke-opacity:1" d="M 259.557,416.188 237.573,438.172 z" id="boundary" inkscape:connector-curvature="0" />
	<path style="fill:none;stroke:red;stroke-width:1px;stroke-linecap:butt;stroke-linejoin:miter;stroke-opacity:1" d="M 223.834,493.13 223.834,520.609 z" id="boundary" inkscape:connector-curvature="0" />
	<path style="fill:none;stroke:red;stroke-width:1px;stroke-linecap:butt;stroke-linejoin:miter;stroke-opacity:1" d="M 223.834,493.13 223.834,465.651 z" id="boundary" inkscape:connector-curvature="0" />
	<path style="fill:none;stroke:red;stroke-width:1px;stroke-linecap:butt;stroke-linejoin:miter;stroke-opacity:1" d="M 223.834,548.089 223.834,575.568 z" id="boundary" inkscape:connector-curvature="0" />
	<path style="fill:none;stroke:red;stroke-width:1px;stroke-linecap:butt;stroke-linejoin:miter;stroke-opacity:1" d="M 223.834,548.089 223.834,520.609 z" id="boundary" inkscape:connector-curvature="0" />
	<path style="fill:none;stroke:red;stroke-width:1px;stroke-linecap:butt;stroke-linejoin:miter;stroke-opacity:1" d="M 223.834,603.047 223.834,575.568 z" id="boundary" inkscape:connector-curvature="0" />
	<path style="fill:none;stroke:red;stroke-width:1px;stroke-linecap:butt;stroke-linejoin:miter;stroke-opacity:1" d="M 223.834,603.047 223.834,630.526 z" id="boundary" inkscape:connector-curvature="0" />
	<path style="fill:none;stroke:red;stroke-width:1px;stroke-linecap:butt;stroke-linejoin:miter;stroke-opacity:1" d="M 223.834,658.006 223.834,630.526 z" id="boundary" inkscape:connector-curvature="0" />
	<path style="fill:none;stroke:red;stroke-width:1px;stroke-linecap:butt;stroke-linejoin:miter;stroke-opacity:1" d="M 223.834,658.006 210.094,699.224 z" id="boundary" inkscape:connector-curvature="0" />
	<path style="fill:none;stroke:red;stroke-width:1px;stroke-linecap:butt;stroke-linejoin:miter;stroke-opacity:1" d="M 237.573,438.172 223.834,465.651 z" id="boundary" inkscape:connector-curvature="0" />
	<path style="fill:none;stroke:red;stroke-width:1px;stroke-linecap:butt;stroke-linejoin:miter;stroke-opacity:1" d="M 141.396,836.62 163.38,814.637 z" id="boundary" inkscape:connector-curvature="0" />
	<path style="fill:none;stroke:red;stroke-width:1px;stroke-linecap:butt;stroke-linejoin:miter;stroke-opacity:1" d="M 141.396,864.1 141.396,836.62 z" id="boundary" inkscape:connector-curvature="0" />
	<path style="fill:none;stroke:red;stroke-width:1px;stroke-linecap:butt;stroke-linejoin:miter;stroke-opacity:1" d="M 182.615,767.922 163.38,814.637 z" id="boundary" inkscape:connector-curvature="0" />
	<path style="fill:none;stroke:red;stroke-width:1px;stroke-linecap:butt;stroke-linejoin:miter;stroke-opacity:1" d="M 155.136,888.831 141.396,864.1 z" id="boundary" inkscape:connector-curvature="0" />
	<path style="fill:none;stroke:red;stroke-width:1px;stroke-linecap:butt;stroke-linejoin:miter;stroke-opacity:1" d="M 174.371,910.814 155.136,888.831 z" id="boundary" inkscape:connector-curvature="0" />
	<path style="fill:none;stroke:red;stroke-width:1px;stroke-linecap:butt;stroke-linejoin:miter;stroke-opacity:1" d="M 196.355,927.302 174.371,910.814 z" id="boundary" inkscape:connector-curvature="0" />
	<path style="fill:none;stroke:red;stroke-width:1px;stroke-linecap:butt;stroke-linejoin:miter;stroke-opacity:1" d="M 182.615,767.922 196.355,740.443 z" id="boundary" inkscape:connector-curvature="0" />
	<path style="fill:none;stroke:red;stroke-width:1px;stroke-linecap:butt;stroke-linejoin:miter;stroke-opacity:1" d="M 210.094,699.224 196.355,740.443 z" id="boundary" inkscape:connector-curvature="0" />
	<path style="fill:none;stroke:red;stroke-width:1px;stroke-linecap:butt;stroke-linejoin:miter;stroke-opacity:1" d="M 221.086,941.042 196.355,927.302 z" id="boundary" inkscape:connector-curvature="0" />
	<path style="fill:none;stroke:red;stroke-width:1px;stroke-linecap:butt;stroke-linejoin:miter;stroke-opacity:1" d="M 295.28,515.114 295.28,542.593 z" id="boundary" inkscape:connector-curvature="0" />
	<path style="fill:none;stroke:red;stroke-width:1px;stroke-linecap:butt;stroke-linejoin:miter;stroke-opacity:1" d="M 295.28,515.114 295.28,487.634 z" id="boundary" inkscape:connector-curvature="0" />
	<path style="fill:none;stroke:red;stroke-width:1px;stroke-linecap:butt;stroke-linejoin:miter;stroke-opacity:1" d="M 295.28,487.634 322.759,473.895 z" id="boundary" inkscape:connector-curvature="0" />
	<path style="fill:none;stroke:red;stroke-width:1px;stroke-linecap:butt;stroke-linejoin:miter;stroke-opacity:1" d="M 295.28,570.072 295.28,597.551 z" id="boundary" inkscape:connector-curvature="0" />
	<path style="fill:none;stroke:red;stroke-width:1px;stroke-linecap:butt;stroke-linejoin:miter;stroke-opacity:1" d="M 295.28,570.072 295.28,542.593 z" id="boundary" inkscape:connector-curvature="0" />
	<path style="fill:none;stroke:red;stroke-width:1px;stroke-linecap:butt;stroke-linejoin:miter;stroke-opacity:1" d="M 322.759,473.895 347.49,460.155 z" id="boundary" inkscape:connector-curvature="0" />
	<path style="fill:none;stroke:red;stroke-width:1px;stroke-linecap:butt;stroke-linejoin:miter;stroke-opacity:1" d="M 295.28,625.03 295.28,597.551 z" id="boundary" inkscape:connector-curvature="0" />
	<path style="fill:none;stroke:red;stroke-width:1px;stroke-linecap:butt;stroke-linejoin:miter;stroke-opacity:1" d="M 295.28,625.03 295.28,652.51 z" id="boundary" inkscape:connector-curvature="0" />
	<path style="fill:none;stroke:red;stroke-width:1px;stroke-linecap:butt;stroke-linejoin:miter;stroke-opacity:1" d="M 281.54,831.125 267.801,872.343 z" id="boundary" inkscape:connector-curvature="0" />
	<path style="fill:none;stroke:red;stroke-width:1px;stroke-linecap:butt;stroke-linejoin:miter;stroke-opacity:1" d="M 281.54,831.125 281.54,803.645 z" id="boundary" inkscape:connector-curvature="0" />
	<path style="fill:none;stroke:red;stroke-width:1px;stroke-linecap:butt;stroke-linejoin:miter;stroke-opacity:1" d="M 281.54,803.645 295.28,762.427 z" id="boundary" inkscape:connector-curvature="0" />
	<path style="fill:none;stroke:red;stroke-width:1px;stroke-linecap:butt;stroke-linejoin:miter;stroke-opacity:1" d="M 267.801,899.823 248.565,935.546 z" id="boundary" inkscape:connector-curvature="0" />
	<path style="fill:none;stroke:red;stroke-width:1px;stroke-linecap:butt;stroke-linejoin:miter;stroke-opacity:1" d="M 248.565,935.546 221.086,941.042 z" id="boundary" inkscape:connector-curvature="0" />
	<path style="fill:none;stroke:red;stroke-width:1px;stroke-linecap:butt;stroke-linejoin:miter;stroke-opacity:1" d="M 267.801,872.343 267.801,899.823 z" id="boundary" inkscape:connector-curvature="0" />
	<path style="fill:none;stroke:red;stroke-width:1px;stroke-linecap:butt;stroke-linejoin:miter;stroke-opacity:1" d="M 295.28,679.989 295.28,707.468 z" id="boundary" inkscape:connector-curvature="0" />
	<path style="fill:none;stroke:red;stroke-width:1px;stroke-linecap:butt;stroke-linejoin:miter;stroke-opacity:1" d="M 295.28,679.989 295.28,652.51 z" id="boundary" inkscape:connector-curvature="0" />
	<path style="fill:none;stroke:red;stroke-width:1px;stroke-linecap:butt;stroke-linejoin:miter;stroke-opacity:1" d="M 295.28,734.947 295.28,762.427 z" id="boundary" inkscape:connector-curvature="0" />
	<path style="fill:none;stroke:red;stroke-width:1px;stroke-linecap:butt;stroke-linejoin:miter;stroke-opacity:1" d="M 295.28,734.947 295.28,707.468 z" id="boundary" inkscape:connector-curvature="0" />
	<path style="fill:none;stroke:red;stroke-width:1px;stroke-linecap:butt;stroke-linejoin:miter;stroke-opacity:1" d="M 347.49,460.155 372.222,446.416 z" id="boundary" inkscape:connector-curvature="0" />
	<path style="fill:none;stroke:red;stroke-width:1px;stroke-linecap:butt;stroke-linejoin:miter;stroke-opacity:1" d="M 394.205,45.2188 418.936,58.9584 z" id="boundary" inkscape:connector-curvature="0" />
	<path style="fill:none;stroke:red;stroke-width:1px;stroke-linecap:butt;stroke-linejoin:miter;stroke-opacity:1" d="M 418.936,58.9584 446.416,58.9584 z" id="boundary" inkscape:connector-curvature="0" />
	<path style="fill:none;stroke:red;stroke-width:1px;stroke-linecap:butt;stroke-linejoin:miter;stroke-opacity:1" d="M 446.416,58.9584 471.147,72.6981 z" id="boundary" inkscape:connector-curvature="0" />
	<path style="fill:none;stroke:red;stroke-width:1px;stroke-linecap:butt;stroke-linejoin:miter;stroke-opacity:1" d="M 471.147,72.6981 495.878,86.4377 z" id="boundary" inkscape:connector-curvature="0" />
	<path style="fill:none;stroke:red;stroke-width:1px;stroke-linecap:butt;stroke-linejoin:miter;stroke-opacity:1" d="M 520.609,100.177 539.845,122.161 z" id="boundary" inkscape:connector-curvature="0" />
	<path style="fill:none;stroke:red;stroke-width:1px;stroke-linecap:butt;stroke-linejoin:miter;stroke-opacity:1" d="M 495.878,86.4377 520.609,100.177 z" id="boundary" inkscape:connector-curvature="0" />
	<path style="fill:none;stroke:red;stroke-width:1px;stroke-linecap:butt;stroke-linejoin:miter;stroke-opacity:1" d="M 567.324,133.152 539.845,122.161 z" id="boundary" inkscape:connector-curvature="0" />
	<path style="fill:none;stroke:red;stroke-width:1px;stroke-linecap:butt;stroke-linejoin:miter;stroke-opacity:1" d="M 611.291,163.38 583.812,155.136 z" id="boundary" inkscape:connector-curvature="0" />
	<path style="fill:none;stroke:red;stroke-width:1px;stroke-linecap:butt;stroke-linejoin:miter;stroke-opacity:1" d="M 583.812,155.136 567.324,133.152 z" id="boundary" inkscape:connector-curvature="0" />
	<path style="fill:none;stroke:red;stroke-width:1px;stroke-linecap:butt;stroke-linejoin:miter;stroke-opacity:1" d="M 427.18,427.18 454.659,418.936 z" id="boundary" inkscape:connector-curvature="0" />
	<path style="fill:none;stroke:red;stroke-width:1px;stroke-linecap:butt;stroke-linejoin:miter;stroke-opacity:1" d="M 454.659,418.936 457.407,446.416 z" id="boundary" inkscape:connector-curvature="0" />
	<path style="fill:none;stroke:red;stroke-width:1px;stroke-linecap:butt;stroke-linejoin:miter;stroke-opacity:1" d="M 399.701,440.92 427.18,427.18 z" id="boundary" inkscape:connector-curvature="0" />
	<path style="fill:none;stroke:red;stroke-width:1px;stroke-linecap:butt;stroke-linejoin:miter;stroke-opacity:1" d="M 457.407,446.416 457.407,473.895 z" id="boundary" inkscape:connector-curvature="0" />
	<path style="fill:none;stroke:red;stroke-width:1px;stroke-linecap:butt;stroke-linejoin:miter;stroke-opacity:1" d="M 457.407,501.374 457.407,473.895 z" id="boundary" inkscape:connector-curvature="0" />
	<path style="fill:none;stroke:red;stroke-width:1px;stroke-linecap:butt;stroke-linejoin:miter;stroke-opacity:1" d="M 457.407,501.374 465.651,528.853 z" id="boundary" inkscape:connector-curvature="0" />
	<path style="fill:none;stroke:red;stroke-width:1px;stroke-linecap:butt;stroke-linejoin:miter;stroke-opacity:1" d="M 479.391,553.584 465.651,528.853 z" id="boundary" inkscape:connector-curvature="0" />
	<path style="fill:none;stroke:red;stroke-width:1px;stroke-linecap:butt;stroke-linejoin:miter;stroke-opacity:1" d="M 498.626,575.568 479.391,553.584 z" id="boundary" inkscape:connector-curvature="0" />
	<path style="fill:none;stroke:red;stroke-width:1px;stroke-linecap:butt;stroke-linejoin:miter;stroke-opacity:1" d="M 520.609,594.803 545.341,608.543 z" id="boundary" inkscape:connector-curvature="0" />
	<path style="fill:none;stroke:red;stroke-width:1px;stroke-linecap:butt;stroke-linejoin:miter;stroke-opacity:1" d="M 520.609,594.803 498.626,575.568 z" id="boundary" inkscape:connector-curvature="0" />
	<path style="fill:none;stroke:red;stroke-width:1px;stroke-linecap:butt;stroke-linejoin:miter;stroke-opacity:1" d="M 611.291,163.38 630.526,185.363 z" id="boundary" inkscape:connector-curvature="0" />
	<path style="fill:none;stroke:red;stroke-width:1px;stroke-linecap:butt;stroke-linejoin:miter;stroke-opacity:1" d="M 611.291,350.238 611.291,322.759 z" id="boundary" inkscape:connector-curvature="0" />
	<path style="fill:none;stroke:red;stroke-width:1px;stroke-linecap:butt;stroke-linejoin:miter;stroke-opacity:1" d="M 611.291,322.759 633.274,303.524 z" id="boundary" inkscape:connector-curvature="0" />
	<path style="fill:none;stroke:red;stroke-width:1px;stroke-linecap:butt;stroke-linejoin:miter;stroke-opacity:1" d="M 611.291,350.238 611.291,377.717 z" id="boundary" inkscape:connector-curvature="0" />
	<path style="fill:none;stroke:red;stroke-width:1px;stroke-linecap:butt;stroke-linejoin:miter;stroke-opacity:1" d="M 658.006,196.355 677.241,218.338 z" id="boundary" inkscape:connector-curvature="0" />
	<path style="fill:none;stroke:red;stroke-width:1px;stroke-linecap:butt;stroke-linejoin:miter;stroke-opacity:1" d="M 652.51,281.54 674.493,262.305 z" id="boundary" inkscape:connector-curvature="0" />
	<path style="fill:none;stroke:red;stroke-width:1px;stroke-linecap:butt;stroke-linejoin:miter;stroke-opacity:1" d="M 652.51,281.54 633.274,303.524 z" id="boundary" inkscape:connector-curvature="0" />
	<path style="fill:none;stroke:red;stroke-width:1px;stroke-linecap:butt;stroke-linejoin:miter;stroke-opacity:1" d="M 677.241,218.338 674.493,262.305 z" id="boundary" inkscape:connector-curvature="0" />
	<path style="fill:none;stroke:red;stroke-width:1px;stroke-linecap:butt;stroke-linejoin:miter;stroke-opacity:1" d="M 745.939,603.047 726.704,581.064 z" id="boundary" inkscape:connector-curvature="0" />
	<path style="fill:none;stroke:red;stroke-width:1px;stroke-linecap:butt;stroke-linejoin:miter;stroke-opacity:1" d="M 630.526,185.363 658.006,196.355 z" id="boundary" inkscape:connector-curvature="0" />
	<path style="fill:none;stroke:red;stroke-width:1px;stroke-linecap:butt;stroke-linejoin:miter;stroke-opacity:1" d="M 611.291,405.197 611.291,377.717 z" id="boundary" inkscape:connector-curvature="0" />
	<path style="fill:none;stroke:red;stroke-width:1px;stroke-linecap:butt;stroke-linejoin:miter;stroke-opacity:1" d="M 611.291,405.197 611.291,432.676 z" id="boundary" inkscape:connector-curvature="0" />
	<path style="fill:none;stroke:red;stroke-width:1px;stroke-linecap:butt;stroke-linejoin:miter;stroke-opacity:1" d="M 611.291,460.155 611.291,487.634 z" id="boundary" inkscape:connector-curvature="0" />
	<path style="fill:none;stroke:red;stroke-width:1px;stroke-linecap:butt;stroke-linejoin:miter;stroke-opacity:1" d="M 611.291,515.114 611.291,487.634 z" id="boundary" inkscape:connector-curvature="0" />
	<path style="fill:none;stroke:red;stroke-width:1px;stroke-linecap:butt;stroke-linejoin:miter;stroke-opacity:1" d="M 611.291,460.155 611.291,432.676 z" id="boundary" inkscape:connector-curvature="0" />
	<path style="fill:none;stroke:red;stroke-width:1px;stroke-linecap:butt;stroke-linejoin:miter;stroke-opacity:1" d="M 625.03,539.845 652.51,539.845 z" id="boundary" inkscape:connector-curvature="0" />
	<path style="fill:none;stroke:red;stroke-width:1px;stroke-linecap:butt;stroke-linejoin:miter;stroke-opacity:1" d="M 652.51,539.845 677.241,553.584 z" id="boundary" inkscape:connector-curvature="0" />
	<path style="fill:none;stroke:red;stroke-width:1px;stroke-linecap:butt;stroke-linejoin:miter;stroke-opacity:1" d="M 625.03,539.845 611.291,515.114 z" id="boundary" inkscape:connector-curvature="0" />
	<path style="fill:none;stroke:red;stroke-width:1px;stroke-linecap:butt;stroke-linejoin:miter;stroke-opacity:1" d="M 701.972,567.324 677.241,553.584 z" id="boundary" inkscape:connector-curvature="0" />
	<path style="fill:none;stroke:red;stroke-width:1px;stroke-linecap:butt;stroke-linejoin:miter;stroke-opacity:1" d="M 726.704,581.064 701.972,567.324 z" id="boundary" inkscape:connector-curvature="0" />
	<path style="fill:none;stroke:red;stroke-width:1px;stroke-linecap:butt;stroke-linejoin:miter;stroke-opacity:1" d="M 567.324,625.03 592.055,638.77 z" id="boundary" inkscape:connector-curvature="0" />
	<path style="fill:none;stroke:red;stroke-width:1px;stroke-linecap:butt;stroke-linejoin:miter;stroke-opacity:1" d="M 616.787,652.51 641.518,666.249 z" id="boundary" inkscape:connector-curvature="0" />
	<path style="fill:none;stroke:red;stroke-width:1px;stroke-linecap:butt;stroke-linejoin:miter;stroke-opacity:1" d="M 616.787,652.51 592.055,638.77 z" id="boundary" inkscape:connector-curvature="0" />
	<path style="fill:none;stroke:red;stroke-width:1px;stroke-linecap:butt;stroke-linejoin:miter;stroke-opacity:1" d="M 567.324,625.03 545.341,608.543 z" id="boundary" inkscape:connector-curvature="0" />
	<path style="fill:none;stroke:red;stroke-width:1px;stroke-linecap:butt;stroke-linejoin:miter;stroke-opacity:1" d="M 666.249,679.989 641.518,666.249 z" id="boundary" inkscape:connector-curvature="0" />
	<path style="fill:none;stroke:red;stroke-width:1px;stroke-linecap:butt;stroke-linejoin:miter;stroke-opacity:1" d="M 817.385,688.233 798.15,666.249 z" id="boundary" inkscape:connector-curvature="0" />
	<path style="fill:none;stroke:red;stroke-width:1px;stroke-linecap:butt;stroke-linejoin:miter;stroke-opacity:1" d="M 762.427,625.03 776.166,649.762 z" id="boundary" inkscape:connector-curvature="0" />
	<path style="fill:none;stroke:red;stroke-width:1px;stroke-linecap:butt;stroke-linejoin:miter;stroke-opacity:1" d="M 745.939,603.047 762.427,625.03 z" id="boundary" inkscape:connector-curvature="0" />
	<path style="fill:none;stroke:red;stroke-width:1px;stroke-linecap:butt;stroke-linejoin:miter;stroke-opacity:1" d="M 798.15,666.249 776.166,649.762 z" id="boundary" inkscape:connector-curvature="0" />
	<path style="fill:none;stroke:red;stroke-width:1px;stroke-linecap:butt;stroke-linejoin:miter;stroke-opacity:1" d="M 666.249,679.989 690.981,693.729 z" id="boundary" inkscape:connector-curvature="0" />
	<path style="fill:none;stroke:red;stroke-width:1px;stroke-linecap:butt;stroke-linejoin:miter;stroke-opacity:1" d="M 756.931,748.687 734.947,729.452 z" id="boundary" inkscape:connector-curvature="0" />
	<path style="fill:none;stroke:red;stroke-width:1px;stroke-linecap:butt;stroke-linejoin:miter;stroke-opacity:1" d="M 734.947,729.452 715.712,707.468 z" id="boundary" inkscape:connector-curvature="0" />
	<path style="fill:none;stroke:red;stroke-width:1px;stroke-linecap:butt;stroke-linejoin:miter;stroke-opacity:1" d="M 690.981,693.729 715.712,707.468 z" id="boundary" inkscape:connector-curvature="0" />
	<path style="fill:none;stroke:red;stroke-width:1px;stroke-linecap:butt;stroke-linejoin:miter;stroke-opacity:1" d="M 756.931,748.687 776.166,770.67 z" id="boundary" inkscape:connector-curvature="0" />
	<path style="fill:none;stroke:red;stroke-width:1px;stroke-linecap:butt;stroke-linejoin:miter;stroke-opacity:1" d="M 817.385,688.233 839.368,704.72 z" id="boundary" inkscape:connector-curvature="0" />
	<path style="fill:none;stroke:red;stroke-width:1px;stroke-linecap:butt;stroke-linejoin:miter;stroke-opacity:1" d="M 866.848,704.72 839.368,704.72 z" id="boundary" inkscape:connector-curvature="0" />
	<path style="fill:none;stroke:red;stroke-width:1px;stroke-linecap:butt;stroke-linejoin:miter;stroke-opacity:1" d="M 776.166,770.67 798.15,789.906 z" id="boundary" inkscape:connector-curvature="0" />
	<path style="fill:none;stroke:red;stroke-width:1px;stroke-linecap:butt;stroke-linejoin:miter;stroke-opacity:1" d="M 798.15,789.906 817.385,811.889 z" id="boundary" inkscape:connector-curvature="0" />
	<path style="fill:none;stroke:red;stroke-width:1px;stroke-linecap:butt;stroke-linejoin:miter;stroke-opacity:1" d="M 866.848,704.72 894.327,704.72 z" id="boundary" inkscape:connector-curvature="0" />
	<path style="fill:none;stroke:red;stroke-width:1px;stroke-linecap:butt;stroke-linejoin:miter;stroke-opacity:1" d="M 921.806,704.72 949.285,704.72 z" id="boundary" inkscape:connector-curvature="0" />
	<path style="fill:none;stroke:red;stroke-width:1px;stroke-linecap:butt;stroke-linejoin:miter;stroke-opacity:1" d="M 921.806,704.72 894.327,704.72 z" id="boundary" inkscape:connector-curvature="0" />
	<path style="fill:none;stroke:red;stroke-width:1px;stroke-linecap:butt;stroke-linejoin:miter;stroke-opacity:1" d="M 996,729.452 996,756.931 z" id="boundary" inkscape:connector-curvature="0" />
	<path style="fill:none;stroke:red;stroke-width:1px;stroke-linecap:butt;stroke-linejoin:miter;stroke-opacity:1" d="M 996,729.452 976.765,707.468 z" id="boundary" inkscape:connector-curvature="0" />
	<path style="fill:none;stroke:red;stroke-width:1px;stroke-linecap:butt;stroke-linejoin:miter;stroke-opacity:1" d="M 996,784.41 982.26,817.385 z" id="boundary" inkscape:connector-curvature="0" />
	<path style="fill:none;stroke:red;stroke-width:1px;stroke-linecap:butt;stroke-linejoin:miter;stroke-opacity:1" d="M 996,756.931 996,784.41 z" id="boundary" inkscape:connector-curvature="0" />
	<path style="fill:none;stroke:red;stroke-width:1px;stroke-linecap:butt;stroke-linejoin:miter;stroke-opacity:1" d="M 982.26,844.864 982.26,817.385 z" id="boundary" inkscape:connector-curvature="0" />
	<path style="fill:none;stroke:red;stroke-width:1px;stroke-linecap:butt;stroke-linejoin:miter;stroke-opacity:1" d="M 949.285,704.72 976.765,707.468 z" id="boundary" inkscape:connector-curvature="0" />
	<path style="fill:none;stroke:red;stroke-width:1px;stroke-linecap:butt;stroke-linejoin:miter;stroke-opacity:1" d="M 839.368,831.125 858.604,853.108 z" id="boundary" inkscape:connector-curvature="0" />
	<path style="fill:none;stroke:red;stroke-width:1px;stroke-linecap:butt;stroke-linejoin:miter;stroke-opacity:1" d="M 880.587,872.343 858.604,853.108 z" id="boundary" inkscape:connector-curvature="0" />
	<path style="fill:none;stroke:red;stroke-width:1px;stroke-linecap:butt;stroke-linejoin:miter;stroke-opacity:1" d="M 891.579,927.302 883.335,899.823 z" id="boundary" inkscape:connector-curvature="0" />
	<path style="fill:none;stroke:red;stroke-width:1px;stroke-linecap:butt;stroke-linejoin:miter;stroke-opacity:1" d="M 883.335,899.823 880.587,872.343 z" id="boundary" inkscape:connector-curvature="0" />
	<path style="fill:none;stroke:red;stroke-width:1px;stroke-linecap:butt;stroke-linejoin:miter;stroke-opacity:1" d="M 817.385,811.889 839.368,831.125 z" id="boundary" inkscape:connector-curvature="0" />
	<path style="fill:none;stroke:red;stroke-width:1px;stroke-linecap:butt;stroke-linejoin:miter;stroke-opacity:1" d="M 968.521,886.083 954.781,913.562 z" id="boundary" inkscape:connector-curvature="0" />
	<path style="fill:none;stroke:red;stroke-width:1px;stroke-linecap:butt;stroke-linejoin:miter;stroke-opacity:1" d="M 932.798,952.033 905.319,952.033 z" id="boundary" inkscape:connector-curvature="0" />
	<path style="fill:none;stroke:red;stroke-width:1px;stroke-linecap:butt;stroke-linejoin:miter;stroke-opacity:1" d="M 905.319,952.033 891.579,927.302 z" id="boundary" inkscape:connector-curvature="0" />
	<path style="fill:none;stroke:red;stroke-width:1px;stroke-linecap:butt;stroke-linejoin:miter;stroke-opacity:1" d="M 954.781,913.562 932.798,952.033 z" id="boundary" inkscape:connector-curvature="0" />
	<path style="fill:none;stroke:red;stroke-width:1px;stroke-linecap:butt;stroke-linejoin:miter;stroke-opacity:1" d="M 982.26,844.864 968.521,886.083 z" id="boundary" inkscape:connector-curvature="0" />
	<circle cx="4" cy="53.4626" r="4" fill="#0" id="circle0"/>
	<circle cx="4" cy="80.9418" r="4" fill="#0" id="circle1"/>
	<circle cx="4" cy="108.421" r="4" fill="#0" id="circle2"/>
	<circle cx="4" cy="135.9" r="4" fill="#0" id="circle3"/>
	<circle cx="4" cy="163.38" r="4" fill="#0" id="circle4"/>
	<circle cx="17.7396" cy="25.9834" r="4" fill="#0" id="circle5"/>
	<circle cx="17.7396" cy="188.111" r="4" fill="#0" id="circle6"/>
	<circle cx="45.2188" cy="12.2438" r="4" fill="#0" id="circle7"/>
	<circle cx="45.2188" cy="199.102" r="4" fill="#0" id="circle8"/>
	<circle cx="69.9501" cy="212.842" r="4" fill="#0" id="circle9"/>
	<circle cx="72.6981" cy="4" r="4" fill="#0" id="circle10"/>
	<circle cx="97.4294" cy="17.7396" r="4" fill="#0" id="circle11"/>
	<circle cx="97.4294" cy="212.842" r="4" fill="#0" id="circle12"/>
	<circle cx="122.161" cy="31.4792" r="4" fill="#0" id="circle13"/>
	<circle cx="124.909" cy="212.842" r="4" fill="#0" id="circle14"/>
	<circle cx="141.396" cy="836.62" r="4" fill="#0" id="circle15"/>
	<circle cx="141.396" cy="864.1" r="4" fill="#0" id="circle16"/>
	<circle cx="149.64" cy="31.4792" r="4" fill="#0" id="circle17"/>
	<circle cx="149.64" cy="226.582" r="4" fill="#0" id="circle18"/>
	<circle cx="155.136" cy="888.831" r="4" fill="#0" id="circle19"/>
	<circle cx="163.38" cy="814.637" r="4" fill="#0" id="circle20"/>
	<circle cx="174.371" cy="240.321" r="4" fill="#0" id="circle21"/>
	<circle cx="174.371" cy="910.814" r="4" fill="#0" id="circle22"/>
	<circle cx="177.119" cy="31.4792" r="4" fill="#0" id="circle23"/>
	<circle cx="182.615" cy="767.922" r="4" fill="#0" id="circle24"/>
	<circle cx="196.355" cy="740.443" r="4" fill="#0" id="circle25"/>
	<circle cx="196.355" cy="927.302" r="4" fill="#0" id="circle26"/>
	<circle cx="199.102" cy="254.061" r="4" fill="#0" id="circle27"/>
	<circle cx="204.598" cy="31.4792" r="4" fill="#0" id="circle28"/>
	<circle cx="210.094" cy="699.224" r="4" fill="#0" id="circle29"/>
	<circle cx="221.086" cy="941.042" r="4" fill="#0" id="circle30"/>
	<circle cx="223.834" cy="267.801" r="4" fill="#0" id="circle31"/>
	<circle cx="223.834" cy="465.651" r="4" fill="#0" id="circle32"/>
	<circle cx="223.834" cy="493.13" r="4" fill="#0" id="circle33"/>
	<circle cx="223.834" cy="520.609" r="4" fill="#0" id="circle34"/>
	<circle cx="223.834" cy="548.089" r="4" fill="#0" id="circle35"/>
	<circle cx="223.834" cy="575.568" r="4" fill="#0" id="circle36"/>
	<circle cx="223.834" cy="603.047" r="4" fill="#0" id="circle37"/>
	<circle cx="223.834" cy="630.526" r="4" fill="#0" id="circle38"/>
	<circle cx="223.834" cy="658.006" r="4" fill="#0" id="circle39"/>
	<circle cx="232.078" cy="31.4792" r="4" fill="#0" id="circle40"/>
	<circle cx="237.573" cy="438.172" r="4" fill="#0" id="circle41"/>
	<circle cx="248.565" cy="935.546" r="4" fill="#0" id="circle42"/>
	<circle cx="251.313" cy="267.801" r="4" fill="#0" id="circle43"/>
	<circle cx="259.557" cy="31.4792" r="4" fill="#0" id="circle44"/>
	<circle cx="259.557" cy="416.188" r="4" fill="#0" id="circle45"/>
	<circle cx="267.801" cy="872.343" r="4" fill="#0" id="circle46"/>
	<circle cx="267.801" cy="899.823" r="4" fill="#0" id="circle47"/>
	<circle cx="276.044" cy="281.54" r="4" fill="#0" id="circle48"/>
	<circle cx="281.54" cy="803.645" r="4" fill="#0" id="circle49"/>
	<circle cx="281.54" cy="831.125" r="4" fill="#0" id="circle50"/>
	<circle cx="284.288" cy="402.449" r="4" fill="#0" id="circle51"/>
	<circle cx="287.036" cy="31.4792" r="4" fill="#0" id="circle52"/>
	<circle cx="295.28" cy="487.634" r="4" fill="#0" id="circle53"/>
	<circle cx="295.28" cy="515.114" r="4" fill="#0" id="circle54"/>
	<circle cx="295.28" cy="542.593" r="4" fill="#0" id="circle55"/>
	<circle cx="295.28" cy="570.072" r="4" fill="#0" id="circle56"/>
	<circle cx="295.28" cy="597.551" r="4" fill="#0" id="circle57"/>
	<circle cx="295.28" cy="625.03" r="4" fill="#0" id="circle58"/>
	<circle cx="295.28" cy="652.51" r="4" fill="#0" id="circle59"/>
	<circle cx="295.28" cy="679.989" r="4" fill="#0" id="circle60"/>
	<circle cx="295.28" cy="707.468" r="4" fill="#0" id="circle61"/>
	<circle cx="295.28" cy="734.947" r="4" fill="#0" id="circle62"/>
	<circle cx="295.28" cy="762.427" r="4" fill="#0" id="circle63"/>
	<circle cx="300.776" cy="295.28" r="4" fill="#0" id="circle64"/>
	<circle cx="306.271" cy="383.213" r="4" fill="#0" id="circle65"/>
	<circle cx="314.515" cy="31.4792" r="4" fill="#0" id="circle66"/>
	<circle cx="320.011" cy="317.263" r="4" fill="#0" id="circle67"/>
	<circle cx="320.011" cy="344.742" r="4" fill="#0" id="circle68"/>
	<circle cx="322.759" cy="473.895" r="4" fill="#0" id="circle69"/>
	<circle cx="341.994" cy="31.4792" r="4" fill="#0" id="circle70"/>
	<circle cx="347.49" cy="460.155" r="4" fill="#0" id="circle71"/>
	<circle cx="366.726" cy="45.2188" r="4" fill="#0" id="circle72"/>
	<circle cx="372.222" cy="446.416" r="4" fill="#0" id="circle73"/>
	<circle cx="394.205" cy="45.2188" r="4" fill="#0" id="circle74"/>
	<circle cx="399.701" cy="440.92" r="4" fill="#0" id="circle75"/>
	<circle cx="418.936" cy="58.9584" r="4" fill="#0" id="circle76"/>
	<circle cx="427.18" cy="427.18" r="4" fill="#0" id="circle77"/>
	<circle cx="446.416" cy="58.9584" r="4" fill="#0" id="circle78"/>
	<circle cx="454.659" cy="418.936" r="4" fill="#0" id="circle79"/>
	<circle cx="457.407" cy="446.416" r="4" fill="#0" id="circle80"/>
	<circle cx="457.407" cy="473.895" r="4" fill="#0" id="circle81"/>
	<circle cx="457.407" cy="501.374" r="4" fill="#0" id="circle82"/>
	<circle cx="465.651" cy="528.853" r="4" fill="#0" id="circle83"/>
	<circle cx="471.147" cy="72.6981" r="4" fill="#0" id="circle84"/>
	<circle cx="479.391" cy="553.584" r="4" fill="#0" id="circle85"/>
	<circle cx="495.878" cy="86.4377" r="4" fill="#0" id="circle86"/>
	<circle cx="498.626" cy="575.568" r="4" fill="#0" id="circle87"/>
	<circle cx="520.609" cy="100.177" r="4" fill="#0" id="circle88"/>
	<circle cx="520.609" cy="594.803" r="4" fill="#0" id="circle89"/>
	<circle cx="539.845" cy="122.161" r="4" fill="#0" id="circle90"/>
	<circle cx="545.341" cy="608.543" r="4" fill="#0" id="circle91"/>
	<circle cx="567.324" cy="133.152" r="4" fill="#0" id="circle92"/>
	<circle cx="567.324" cy="625.03" r="4" fill="#0" id="circle93"/>
	<circle cx="583.812" cy="155.136" r="4" fill="#0" id="circle94"/>
	<circle cx="592.055" cy="638.77" r="4" fill="#0" id="circle95"/>
	<circle cx="611.291" cy="163.38" r="4" fill="#0" id="circle96"/>
	<circle cx="611.291" cy="322.759" r="4" fill="#0" id="circle97"/>
	<circle cx="611.291" cy="350.238" r="4" fill="#0" id="circle98"/>
	<circle cx="611.291" cy="377.717" r="4" fill="#0" id="circle99"/>
	<circle cx="611.291" cy="405.197" r="4" fill="#0" id="circle100"/>
	<circle cx="611.291" cy="432.676" r="4" fill="#0" id="circle101"/>
	<circle cx="611.291" cy="460.155" r="4" fill="#0" id="circle102"/>
	<circle cx="611.291" cy="487.634" r="4" fill="#0" id="circle103"/>
	<circle cx="611.291" cy="515.114" r="4" fill="#0" id="circle104"/>
	<circle cx="616.787" cy="652.51" r="4" fill="#0" id="circle105"/>
	<circle cx="625.03" cy="539.845" r="4" fill="#0" id="circle106"/>
	<circle cx="630.526" cy="185.363" r="4" fill="#0" id="circle107"/>
	<circle cx="633.274" cy="303.524" r="4" fill="#0" id="circle108"/>
	<circle cx="641.518" cy="666.249" r="4" fill="#0" id="circle109"/>
	<circle cx="652.51" cy="281.54" r="4" fill="#0" id="circle110"/>
	<circle cx="652.51" cy="539.845" r="4" fill="#0" id="circle111"/>
	<circle cx="658.006" cy="196.355" r="4" fill="#0" id="circle112"/>
	<circle cx="666.249" cy="679.989" r="4" fill="#0" id="circle113"/>
	<circle cx="674.493" cy="262.305" r="4" fill="#0" id="circle114"/>
	<circle cx="677.241" cy="218.338" r="4" fill="#0" id="circle115"/>
	<circle cx="677.241" cy="553.584" r="4" fill="#0" id="circle116"/>
	<circle cx="690.981" cy="693.729" r="4" fill="#0" id="circle117"/>
	<circle cx="701.972" cy="567.324" r="4" fill="#0" id="circle118"/>
	<circle cx="715.712" cy="707.468" r="4" fill="#0" id="circle119"/>
	<circle cx="726.704" cy="581.064" r="4" fill="#0" id="circle120"/>
	<circle cx="734.947" cy="729.452" r="4" fill="#0" id="circle121"/>
	<circle cx="745.939" cy="603.047" r="4" fill="#0" id="circle122"/>
	<circle cx="756.931" cy="748.687" r="4" fill="#0" id="circle123"/>
	<circle cx="762.427" cy="625.03" r="4" fill="#0" id="circle124"/>
	<circle cx="776.166" cy="649.762" r="4" fill="#0" id="circle125"/>
	<circle cx="776.166" cy="770.67" r="4" fill="#0" id="circle126"/>
	<circle cx="798.15" cy="666.249" r="4" fill="#0" id="circle127"/>
	<circle cx="798.15" cy="789.906" r="4" fill="#0" id="circle128"/>
	<circle cx="817.385" cy="688.233" r="4" fill="#0" id="circle129"/>
	<circle cx="817.385" cy="811.889" r="4" fill="#0" id="circle130"/>
	<circle cx="839.368" cy="704.72" r="4" fill="#0" id="circle131"/>
	<circle cx="839.368" cy="831.125" r="4" fill="#0" id="circle132"/>
	<circle cx="858.604" cy="853.108" r="4" fill="#0" id="circle133"/>
	<circle cx="866.848" cy="704.72" r="4" fill="#0" id="circle134"/>
	<circle cx="880.587" cy="872.343" r="4" fill="#0" id="circle135"/>
	<circle cx="883.335" cy="899.823" r="4" fill="#0" id="circle136"/>
	<circle cx="891.579" cy="927.302" r="4" fill="#0" id="circle137"/>
	<circle cx="894.327" cy="704.72" r="4" fill="#0" id="circle138"/>
	<circle cx="905.319" cy="952.033" r="4" fill="#0" id="circle139"/>
	<circle cx="921.806" cy="704.72" r="4" fill="#0" id="circle140"/>
	<circle cx="932.798" cy="952.033" r="4" fill="#0" id="circle141"/>
	<circle cx="949.285" cy="704.72" r="4" fill="#0" id="circle142"/>
	<circle cx="954.781" cy="913.562" r="4" fill="#0" id="circle143"/>
	<circle cx="968.521" cy="886.083" r="4" fill="#0" id="circle144"/>
	<circle cx="976.765" cy="707.468" r="4" fill="#0" id="circle145"/>
	<circle cx="982.26" cy="817.385" r="4" fill="#0" id="circle146"/>
	<circle cx="982.26" cy="844.864" r="4" fill="#0" id="circle147"/>
	<circle cx="996" cy="729.452" r="4" fill="#0" id="circle148"/>
	<circle cx="996" cy="756.931" r="4" fill="#0" id="circle149"/>
	<circle cx="996" cy="784.41" r="4" fill="#0" id="circle150"/>
	</g>
</svg>