<?xml version="1.0" encoding="UTF-8" standalone="no"?>
<!-- Created with CurveBenchmark -->
<svg
	xmlns:dc="http://purl.org/dc/elements/1.1/"
	xmlns:cc="http://creativecommons.org/ns#"
	xmlns:rdf="http://www.w3.org/1999/02/22-rdf-syntax-ns#"
	xmlns:svg="http://www.w3.org/2000/svg"
	xmlns="http://www.w3.org/2000/svg"
	xmlns:sodipodi="http://sodipodi.sourceforge.net/DTD/sodipodi-0.dtd"
	xmlns:inkscape="http://www.inkscape.org/namespaces/inkscape"
	width="1000"
	height="1000"
	id="svg2"
	version="1.1"
	sodipodi:docname="manifold/gathang-sink200.png.txt">
<defs
	id="defs4" />
<metadata
	id="metadata7">
	<rdf:RDF>
		<cc:Work
			rdf:about="">
			<dc:format>image/svg+xml</dc:format>
			<dc:type
				rdf:resource="http://purl.org/dc/dcmitype/StillImage" />
			<dc:title></dc:title>
		</cc:Work>
	</rdf:RDF>
</metadata>
<g
	inkscape:label="Layer 1"
	inkscape:groupmode="layer"
	id="layer1">
	<path style="fill:none;stroke:red;stroke-width:1px;stroke-linecap:butt;stroke-linejoin:miter;stroke-opacity:1" d="M 4,284.663 52.3902,265.307 z" id="boundary" inkscape:connector-curvature="0" />
	<path style="fill:none;stroke:red;stroke-width:1px;stroke-linecap:butt;stroke-linejoin:miter;stroke-opacity:1" d="M 149.171,265.307 100.78,265.307 z" id="boundary" inkscape:connector-curvature="0" />
	<path style="fill:none;stroke:red;stroke-width:1px;stroke-linecap:butt;stroke-linejoin:miter;stroke-opacity:1" d="M 52.3902,265.307 100.78,265.307 z" id="boundary" inkscape:connector-curvature="0" />
	<path style="fill:none;stroke:red;stroke-width:1px;stroke-linecap:butt;stroke-linejoin:miter;stroke-opacity:1" d="M 91.1024,323.376 110.459,371.766 z" id="boundary" inkscape:connector-curvature="0" />
	<path style="fill:none;stroke:red;stroke-width:1px;stroke-linecap:butt;stroke-linejoin:miter;stroke-opacity:1" d="M 110.459,371.766 124.976,420.156 z" id="boundary" inkscape:connector-curvature="0" />
	<path style="fill:none;stroke:red;stroke-width:1px;stroke-linecap:butt;stroke-linejoin:miter;stroke-opacity:1" d="M 124.976,420.156 129.815,468.546 z" id="boundary" inkscape:connector-curvature="0" />
	<path style="fill:none;stroke:red;stroke-width:1px;stroke-linecap:butt;stroke-linejoin:miter;stroke-opacity:1" d="M 197.561,265.307 149.171,265.307 z" id="boundary" inkscape:connector-curvature="0" />
	<path style="fill:none;stroke:red;stroke-width:1px;stroke-linecap:butt;stroke-linejoin:miter;stroke-opacity:1" d="M 347.571,454.029 299.18,468.546 z" id="boundary" inkscape:connector-curvature="0" />
	<path style="fill:none;stroke:red;stroke-width:1px;stroke-linecap:butt;stroke-linejoin:miter;stroke-opacity:1" d="M 274.985,207.239 245.951,245.951 z" id="boundary" inkscape:connector-curvature="0" />
	<path style="fill:none;stroke:red;stroke-width:1px;stroke-linecap:butt;stroke-linejoin:miter;stroke-opacity:1" d="M 245.951,245.951 197.561,265.307 z" id="boundary" inkscape:connector-curvature="0" />
	<path style="fill:none;stroke:red;stroke-width:1px;stroke-linecap:butt;stroke-linejoin:miter;stroke-opacity:1" d="M 129.815,468.546 129.815,516.937 z" id="boundary" inkscape:connector-curvature="0" />
	<path style="fill:none;stroke:red;stroke-width:1px;stroke-linecap:butt;stroke-linejoin:miter;stroke-opacity:1" d="M 299.18,468.546 299.18,516.937 z" id="boundary" inkscape:connector-curvature="0" />
	<path style="fill:none;stroke:red;stroke-width:1px;stroke-linecap:butt;stroke-linejoin:miter;stroke-opacity:1" d="M 299.18,516.937 299.18,565.327 z" id="boundary" inkscape:connector-curvature="0" />
	<path style="fill:none;stroke:red;stroke-width:1px;stroke-linecap:butt;stroke-linejoin:miter;stroke-opacity:1" d="M 129.815,516.937 129.815,565.327 z" id="boundary" inkscape:connector-curvature="0" />
	<path style="fill:none;stroke:red;stroke-width:1px;stroke-linecap:butt;stroke-linejoin:miter;stroke-opacity:1" d="M 129.815,613.717 129.815,662.107 z" id="boundary" inkscape:connector-curvature="0" />
	<path style="fill:none;stroke:red;stroke-width:1px;stroke-linecap:butt;stroke-linejoin:miter;stroke-opacity:1" d="M 129.815,613.717 129.815,565.327 z" id="boundary" inkscape:connector-curvature="0" />
	<path style="fill:none;stroke:red;stroke-width:1px;stroke-linecap:butt;stroke-linejoin:miter;stroke-opacity:1" d="M 129.815,662.107 129.815,710.498 z" id="boundary" inkscape:connector-curvature="0" />
	<path style="fill:none;stroke:red;stroke-width:1px;stroke-linecap:butt;stroke-linejoin:miter;stroke-opacity:1" d="M 154.01,996 105.62,996 z" id="boundary" inkscape:connector-curvature="0" />
	<path style="fill:none;stroke:red;stroke-width:1px;stroke-linecap:butt;stroke-linejoin:miter;stroke-opacity:1" d="M 105.62,996 81.4244,952.449 z" id="boundary" inkscape:connector-curvature="0" />
	<path style="fill:none;stroke:red;stroke-width:1px;stroke-linecap:butt;stroke-linejoin:miter;stroke-opacity:1" d="M 81.4244,952.449 110.459,894.38 z" id="boundary" inkscape:connector-curvature="0" />
	<path style="fill:none;stroke:red;stroke-width:1px;stroke-linecap:butt;stroke-linejoin:miter;stroke-opacity:1" d="M 129.815,710.498 129.815,758.888 z" id="boundary" inkscape:connector-curvature="0" />
	<path style="fill:none;stroke:red;stroke-width:1px;stroke-linecap:butt;stroke-linejoin:miter;stroke-opacity:1" d="M 299.18,613.717 299.18,662.107 z" id="boundary" inkscape:connector-curvature="0" />
	<path style="fill:none;stroke:red;stroke-width:1px;stroke-linecap:butt;stroke-linejoin:miter;stroke-opacity:1" d="M 299.18,565.327 299.18,613.717 z" id="boundary" inkscape:connector-curvature="0" />
	<path style="fill:none;stroke:red;stroke-width:1px;stroke-linecap:butt;stroke-linejoin:miter;stroke-opacity:1" d="M 129.815,807.278 129.815,758.888 z" id="boundary" inkscape:connector-curvature="0" />
	<path style="fill:none;stroke:red;stroke-width:1px;stroke-linecap:butt;stroke-linejoin:miter;stroke-opacity:1" d="M 202.4,996 154.01,996 z" id="boundary" inkscape:connector-curvature="0" />
	<path style="fill:none;stroke:red;stroke-width:1px;stroke-linecap:butt;stroke-linejoin:miter;stroke-opacity:1" d="M 250.79,996 202.4,996 z" id="boundary" inkscape:connector-curvature="0" />
	<path style="fill:none;stroke:red;stroke-width:1px;stroke-linecap:butt;stroke-linejoin:miter;stroke-opacity:1" d="M 110.459,894.38 129.815,807.278 z" id="boundary" inkscape:connector-curvature="0" />
	<path style="fill:none;stroke:red;stroke-width:1px;stroke-linecap:butt;stroke-linejoin:miter;stroke-opacity:1" d="M 299.18,662.107 299.18,710.498 z" id="boundary" inkscape:connector-curvature="0" />
	<path style="fill:none;stroke:red;stroke-width:1px;stroke-linecap:butt;stroke-linejoin:miter;stroke-opacity:1" d="M 386.283,37.8732 342.732,13.678 z" id="boundary" inkscape:connector-curvature="0" />
	<path style="fill:none;stroke:red;stroke-width:1px;stroke-linecap:butt;stroke-linejoin:miter;stroke-opacity:1" d="M 386.283,37.8732 434.673,52.3902 z" id="boundary" inkscape:connector-curvature="0" />
	<path style="fill:none;stroke:red;stroke-width:1px;stroke-linecap:butt;stroke-linejoin:miter;stroke-opacity:1" d="M 304.02,52.3902 342.732,13.678 z" id="boundary" inkscape:connector-curvature="0" />
	<path style="fill:none;stroke:red;stroke-width:1px;stroke-linecap:butt;stroke-linejoin:miter;stroke-opacity:1" d="M 304.02,168.527 352.41,168.527 z" id="boundary" inkscape:connector-curvature="0" />
	<path style="fill:none;stroke:red;stroke-width:1px;stroke-linecap:butt;stroke-linejoin:miter;stroke-opacity:1" d="M 274.985,207.239 304.02,168.527 z" id="boundary" inkscape:connector-curvature="0" />
	<path style="fill:none;stroke:red;stroke-width:1px;stroke-linecap:butt;stroke-linejoin:miter;stroke-opacity:1" d="M 352.41,168.527 400.8,168.527 z" id="boundary" inkscape:connector-curvature="0" />
	<path style="fill:none;stroke:red;stroke-width:1px;stroke-linecap:butt;stroke-linejoin:miter;stroke-opacity:1" d="M 449.19,168.527 400.8,168.527 z" id="boundary" inkscape:connector-curvature="0" />
	<path style="fill:none;stroke:red;stroke-width:1px;stroke-linecap:butt;stroke-linejoin:miter;stroke-opacity:1" d="M 458.868,95.9415 434.673,52.3902 z" id="boundary" inkscape:connector-curvature="0" />
	<path style="fill:none;stroke:red;stroke-width:1px;stroke-linecap:butt;stroke-linejoin:miter;stroke-opacity:1" d="M 492.741,134.654 458.868,95.9415 z" id="boundary" inkscape:connector-curvature="0" />
	<path style="fill:none;stroke:red;stroke-width:1px;stroke-linecap:butt;stroke-linejoin:miter;stroke-opacity:1" d="M 492.741,134.654 531.454,168.527 z" id="boundary" inkscape:connector-curvature="0" />
	<path style="fill:none;stroke:red;stroke-width:1px;stroke-linecap:butt;stroke-linejoin:miter;stroke-opacity:1" d="M 579.844,168.527 599.2,216.917 z" id="boundary" inkscape:connector-curvature="0" />
	<path style="fill:none;stroke:red;stroke-width:1px;stroke-linecap:butt;stroke-linejoin:miter;stroke-opacity:1" d="M 531.454,168.527 579.844,168.527 z" id="boundary" inkscape:connector-curvature="0" />
	<path style="fill:none;stroke:red;stroke-width:1px;stroke-linecap:butt;stroke-linejoin:miter;stroke-opacity:1" d="M 599.2,216.917 599.2,265.307 z" id="boundary" inkscape:connector-curvature="0" />
	<path style="fill:none;stroke:red;stroke-width:1px;stroke-linecap:butt;stroke-linejoin:miter;stroke-opacity:1" d="M 299.18,710.498 299.18,758.888 z" id="boundary" inkscape:connector-curvature="0" />
	<path style="fill:none;stroke:red;stroke-width:1px;stroke-linecap:butt;stroke-linejoin:miter;stroke-opacity:1" d="M 299.18,807.278 299.18,758.888 z" id="boundary" inkscape:connector-curvature="0" />
	<path style="fill:none;stroke:red;stroke-width:1px;stroke-linecap:butt;stroke-linejoin:miter;stroke-opacity:1" d="M 347.571,454.029 395.961,444.351 z" id="boundary" inkscape:connector-curvature="0" />
	<path style="fill:none;stroke:red;stroke-width:1px;stroke-linecap:butt;stroke-linejoin:miter;stroke-opacity:1" d="M 299.18,855.668 313.698,904.059 z" id="boundary" inkscape:connector-curvature="0" />
	<path style="fill:none;stroke:red;stroke-width:1px;stroke-linecap:butt;stroke-linejoin:miter;stroke-opacity:1" d="M 299.18,996 250.79,996 z" id="boundary" inkscape:connector-curvature="0" />
	<path style="fill:none;stroke:red;stroke-width:1px;stroke-linecap:butt;stroke-linejoin:miter;stroke-opacity:1" d="M 313.698,904.059 337.893,947.61 z" id="boundary" inkscape:connector-curvature="0" />
	<path style="fill:none;stroke:red;stroke-width:1px;stroke-linecap:butt;stroke-linejoin:miter;stroke-opacity:1" d="M 299.18,855.668 299.18,807.278 z" id="boundary" inkscape:connector-curvature="0" />
	<path style="fill:none;stroke:red;stroke-width:1px;stroke-linecap:butt;stroke-linejoin:miter;stroke-opacity:1" d="M 337.893,947.61 347.571,996 z" id="boundary" inkscape:connector-curvature="0" />
	<path style="fill:none;stroke:red;stroke-width:1px;stroke-linecap:butt;stroke-linejoin:miter;stroke-opacity:1" d="M 347.571,996 299.18,996 z" id="boundary" inkscape:connector-curvature="0" />
	<path style="fill:none;stroke:red;stroke-width:1px;stroke-linecap:butt;stroke-linejoin:miter;stroke-opacity:1" d="M 395.961,444.351 434.673,410.478 z" id="boundary" inkscape:connector-curvature="0" />
	<path style="fill:none;stroke:red;stroke-width:1px;stroke-linecap:butt;stroke-linejoin:miter;stroke-opacity:1" d="M 502.42,318.537 550.81,318.537 z" id="boundary" inkscape:connector-curvature="0" />
	<path style="fill:none;stroke:red;stroke-width:1px;stroke-linecap:butt;stroke-linejoin:miter;stroke-opacity:1" d="M 599.2,265.307 599.2,313.698 z" id="boundary" inkscape:connector-curvature="0" />
	<path style="fill:none;stroke:red;stroke-width:1px;stroke-linecap:butt;stroke-linejoin:miter;stroke-opacity:1" d="M 599.2,313.698 550.81,318.537 z" id="boundary" inkscape:connector-curvature="0" />
	<path style="fill:none;stroke:red;stroke-width:1px;stroke-linecap:butt;stroke-linejoin:miter;stroke-opacity:1" d="M 502.42,318.537 454.029,323.376 z" id="boundary" inkscape:connector-curvature="0" />
	<circle cx="4" cy="284.663" r="4" fill="#0" id="circle0"/>
	<circle cx="42.7122" cy="318.537" r="4" fill="#0" id="circle1"/>
	<circle cx="52.3902" cy="265.307" r="4" fill="#0" id="circle2"/>
	<circle cx="81.4244" cy="952.449" r="4" fill="#0" id="circle3"/>
	<circle cx="91.1024" cy="323.376" r="4" fill="#0" id="circle4"/>
	<circle cx="100.78" cy="265.307" r="4" fill="#0" id="circle5"/>
	<circle cx="105.62" cy="996" r="4" fill="#0" id="circle6"/>
	<circle cx="110.459" cy="371.766" r="4" fill="#0" id="circle7"/>
	<circle cx="110.459" cy="894.38" r="4" fill="#0" id="circle8"/>
	<circle cx="124.976" cy="420.156" r="4" fill="#0" id="circle9"/>
	<circle cx="129.815" cy="468.546" r="4" fill="#0" id="circle10"/>
	<circle cx="129.815" cy="516.937" r="4" fill="#0" id="circle11"/>
	<circle cx="129.815" cy="565.327" r="4" fill="#0" id="circle12"/>
	<circle cx="129.815" cy="613.717" r="4" fill="#0" id="circle13"/>
	<circle cx="129.815" cy="662.107" r="4" fill="#0" id="circle14"/>
	<circle cx="129.815" cy="710.498" r="4" fill="#0" id="circle15"/>
	<circle cx="129.815" cy="758.888" r="4" fill="#0" id="circle16"/>
	<circle cx="129.815" cy="807.278" r="4" fill="#0" id="circle17"/>
	<circle cx="149.171" cy="265.307" r="4" fill="#0" id="circle18"/>
	<circle cx="154.01" cy="996" r="4" fill="#0" id="circle19"/>
	<circle cx="197.561" cy="265.307" r="4" fill="#0" id="circle20"/>
	<circle cx="202.4" cy="996" r="4" fill="#0" id="circle21"/>
	<circle cx="245.951" cy="245.951" r="4" fill="#0" id="circle22"/>
	<circle cx="250.79" cy="996" r="4" fill="#0" id="circle23"/>
	<circle cx="274.985" cy="207.239" r="4" fill="#0" id="circle24"/>
	<circle cx="299.18" cy="468.546" r="4" fill="#0" id="circle25"/>
	<circle cx="299.18" cy="516.937" r="4" fill="#0" id="circle26"/>
	<circle cx="299.18" cy="565.327" r="4" fill="#0" id="circle27"/>
	<circle cx="299.18" cy="613.717" r="4" fill="#0" id="circle28"/>
	<circle cx="299.18" cy="662.107" r="4" fill="#0" id="circle29"/>
	<circle cx="299.18" cy="710.498" r="4" fill="#0" id="circle30"/>
	<circle cx="299.18" cy="758.888" r="4" fill="#0" id="circle31"/>
	<circle cx="299.18" cy="807.278" r="4" fill="#0" id="circle32"/>
	<circle cx="299.18" cy="855.668" r="4" fill="#0" id="circle33"/>
	<circle cx="299.18" cy="996" r="4" fill="#0" id="circle34"/>
	<circle cx="304.02" cy="52.3902" r="4" fill="#0" id="circle35"/>
	<circle cx="304.02" cy="168.527" r="4" fill="#0" id="circle36"/>
	<circle cx="313.698" cy="904.059" r="4" fill="#0" id="circle37"/>
	<circle cx="337.893" cy="947.61" r="4" fill="#0" id="circle38"/>
	<circle cx="342.732" cy="13.678" r="4" fill="#0" id="circle39"/>
	<circle cx="347.571" cy="454.029" r="4" fill="#0" id="circle40"/>
	<circle cx="347.571" cy="996" r="4" fill="#0" id="circle41"/>
	<circle cx="352.41" cy="168.527" r="4" fill="#0" id="circle42"/>
	<circle cx="386.283" cy="37.8732" r="4" fill="#0" id="circle43"/>
	<circle cx="395.961" cy="444.351" r="4" fill="#0" id="circle44"/>
	<circle cx="400.8" cy="168.527" r="4" fill="#0" id="circle45"/>
	<circle cx="424.995" cy="4" r="4" fill="#0" id="circle46"/>
	<circle cx="434.673" cy="52.3902" r="4" fill="#0" id="circle47"/>
	<circle cx="434.673" cy="410.478" r="4" fill="#0" id="circle48"/>
	<circle cx="449.19" cy="168.527" r="4" fill="#0" id="circle49"/>
	<circle cx="454.029" cy="323.376" r="4" fill="#0" id="circle50"/>
	<circle cx="458.868" cy="95.9415" r="4" fill="#0" id="circle51"/>
	<circle cx="483.063" cy="52.3902" r="4" fill="#0" id="circle52"/>
	<circle cx="492.741" cy="134.654" r="4" fill="#0" id="circle53"/>
	<circle cx="502.42" cy="318.537" r="4" fill="#0" id="circle54"/>
	<circle cx="531.454" cy="168.527" r="4" fill="#0" id="circle55"/>
	<circle cx="550.81" cy="318.537" r="4" fill="#0" id="circle56"/>
	<circle cx="579.844" cy="168.527" r="4" fill="#0" id="circle57"/>
	<circle cx="599.2" cy="216.917" r="4" fill="#0" id="circle58"/>
	<circle cx="599.2" cy="265.307" r="4" fill="#0" id="circle59"/>
	<circle cx="599.2" cy="313.698" r="4" fill="#0" id="circle60"/>
	</g>
</svg>