<?xml version="1.0" encoding="UTF-8" standalone="no"?>
<!-- Created with CurveBenchmark -->
<svg
	xmlns:dc="http://purl.org/dc/elements/1.1/"
	xmlns:cc="http://creativecommons.org/ns#"
	xmlns:rdf="http://www.w3.org/1999/02/22-rdf-syntax-ns#"
	xmlns:svg="http://www.w3.org/2000/svg"
	xmlns="http://www.w3.org/2000/svg"
	xmlns:sodipodi="http://sodipodi.sourceforge.net/DTD/sodipodi-0.dtd"
	xmlns:inkscape="http://www.inkscape.org/namespaces/inkscape"
	width="1000"
	height="1000"
	id="svg2"
	version="1.1"
	sodipodi:docname="manifold/gathang-ray07.png.txt">
<defs
	id="defs4" />
<metadata
	id="metadata7">
	<rdf:RDF>
		<cc:Work
			rdf:about="">
			<dc:format>image/svg+xml</dc:format>
			<dc:type
				rdf:resource="http://purl.org/dc/dcmitype/StillImage" />
			<dc:title></dc:title>
		</cc:Work>
	</rdf:RDF>
</metadata>
<g
	inkscape:label="Layer 1"
	inkscape:groupmode="layer"
	id="layer1">
	<path style="fill:none;stroke:red;stroke-width:1px;stroke-linecap:butt;stroke-linejoin:miter;stroke-opacity:1" d="M 39.5944,336.73 51.975,324.349 z" id="boundary" inkscape:connector-curvature="0" />
	<path style="fill:none;stroke:red;stroke-width:1px;stroke-linecap:butt;stroke-linejoin:miter;stroke-opacity:1" d="M 64.3557,313.516 78.2839,305.778 z" id="boundary" inkscape:connector-curvature="0" />
	<path style="fill:none;stroke:red;stroke-width:1px;stroke-linecap:butt;stroke-linejoin:miter;stroke-opacity:1" d="M 51.975,324.349 64.3557,313.516 z" id="boundary" inkscape:connector-curvature="0" />
	<path style="fill:none;stroke:red;stroke-width:1px;stroke-linecap:butt;stroke-linejoin:miter;stroke-opacity:1" d="M 27.2137,349.111 39.5944,336.73 z" id="boundary" inkscape:connector-curvature="0" />
	<path style="fill:none;stroke:red;stroke-width:1px;stroke-linecap:butt;stroke-linejoin:miter;stroke-opacity:1" d="M 11.7379,401.729 4,387.8 z" id="boundary" inkscape:connector-curvature="0" />
	<path style="fill:none;stroke:red;stroke-width:1px;stroke-linecap:butt;stroke-linejoin:miter;stroke-opacity:1" d="M 4,387.8 4,372.324 z" id="boundary" inkscape:connector-curvature="0" />
	<path style="fill:none;stroke:red;stroke-width:1px;stroke-linecap:butt;stroke-linejoin:miter;stroke-opacity:1" d="M 11.7379,356.849 27.2137,349.111 z" id="boundary" inkscape:connector-curvature="0" />
	<path style="fill:none;stroke:red;stroke-width:1px;stroke-linecap:butt;stroke-linejoin:miter;stroke-opacity:1" d="M 4,372.324 11.7379,356.849 z" id="boundary" inkscape:connector-curvature="0" />
	<path style="fill:none;stroke:red;stroke-width:1px;stroke-linecap:butt;stroke-linejoin:miter;stroke-opacity:1" d="M 135.544,271.732 151.02,263.994 z" id="boundary" inkscape:connector-curvature="0" />
	<path style="fill:none;stroke:red;stroke-width:1px;stroke-linecap:butt;stroke-linejoin:miter;stroke-opacity:1" d="M 166.496,256.256 151.02,263.994 z" id="boundary" inkscape:connector-curvature="0" />
	<path style="fill:none;stroke:red;stroke-width:1px;stroke-linecap:butt;stroke-linejoin:miter;stroke-opacity:1" d="M 194.353,236.137 181.972,248.518 z" id="boundary" inkscape:connector-curvature="0" />
	<path style="fill:none;stroke:red;stroke-width:1px;stroke-linecap:butt;stroke-linejoin:miter;stroke-opacity:1" d="M 181.972,248.518 166.496,256.256 z" id="boundary" inkscape:connector-curvature="0" />
	<path style="fill:none;stroke:red;stroke-width:1px;stroke-linecap:butt;stroke-linejoin:miter;stroke-opacity:1" d="M 92.2122,298.041 106.14,290.303 z" id="boundary" inkscape:connector-curvature="0" />
	<path style="fill:none;stroke:red;stroke-width:1px;stroke-linecap:butt;stroke-linejoin:miter;stroke-opacity:1" d="M 120.069,279.47 106.14,290.303 z" id="boundary" inkscape:connector-curvature="0" />
	<path style="fill:none;stroke:red;stroke-width:1px;stroke-linecap:butt;stroke-linejoin:miter;stroke-opacity:1" d="M 120.069,279.47 135.544,271.732 z" id="boundary" inkscape:connector-curvature="0" />
	<path style="fill:none;stroke:red;stroke-width:1px;stroke-linecap:butt;stroke-linejoin:miter;stroke-opacity:1" d="M 92.2122,298.041 78.2839,305.778 z" id="boundary" inkscape:connector-curvature="0" />
	<path style="fill:none;stroke:red;stroke-width:1px;stroke-linecap:butt;stroke-linejoin:miter;stroke-opacity:1" d="M 11.7379,401.729 11.7379,417.204 z" id="boundary" inkscape:connector-curvature="0" />
	<path style="fill:none;stroke:red;stroke-width:1px;stroke-linecap:butt;stroke-linejoin:miter;stroke-opacity:1" d="M 19.4758,431.133 11.7379,417.204 z" id="boundary" inkscape:connector-curvature="0" />
	<path style="fill:none;stroke:red;stroke-width:1px;stroke-linecap:butt;stroke-linejoin:miter;stroke-opacity:1" d="M 28.7613,443.513 19.4758,431.133 z" id="boundary" inkscape:connector-curvature="0" />
	<path style="fill:none;stroke:red;stroke-width:1px;stroke-linecap:butt;stroke-linejoin:miter;stroke-opacity:1" d="M 41.142,454.346 28.7613,443.513 z" id="boundary" inkscape:connector-curvature="0" />
	<path style="fill:none;stroke:red;stroke-width:1px;stroke-linecap:butt;stroke-linejoin:miter;stroke-opacity:1" d="M 41.142,454.346 51.975,466.727 z" id="boundary" inkscape:connector-curvature="0" />
	<path style="fill:none;stroke:red;stroke-width:1px;stroke-linecap:butt;stroke-linejoin:miter;stroke-opacity:1" d="M 64.3557,477.56 73.6412,489.941 z" id="boundary" inkscape:connector-curvature="0" />
	<path style="fill:none;stroke:red;stroke-width:1px;stroke-linecap:butt;stroke-linejoin:miter;stroke-opacity:1" d="M 51.975,466.727 64.3557,477.56 z" id="boundary" inkscape:connector-curvature="0" />
	<path style="fill:none;stroke:red;stroke-width:1px;stroke-linecap:butt;stroke-linejoin:miter;stroke-opacity:1" d="M 73.6412,489.941 81.3791,503.869 z" id="boundary" inkscape:connector-curvature="0" />
	<path style="fill:none;stroke:red;stroke-width:1px;stroke-linecap:butt;stroke-linejoin:miter;stroke-opacity:1" d="M 81.3791,503.869 93.7598,514.702 z" id="boundary" inkscape:connector-curvature="0" />
	<path style="fill:none;stroke:red;stroke-width:1px;stroke-linecap:butt;stroke-linejoin:miter;stroke-opacity:1" d="M 93.7598,514.702 104.593,527.083 z" id="boundary" inkscape:connector-curvature="0" />
	<path style="fill:none;stroke:red;stroke-width:1px;stroke-linecap:butt;stroke-linejoin:miter;stroke-opacity:1" d="M 104.593,527.083 116.973,537.916 z" id="boundary" inkscape:connector-curvature="0" />
	<path style="fill:none;stroke:red;stroke-width:1px;stroke-linecap:butt;stroke-linejoin:miter;stroke-opacity:1" d="M 129.354,547.201 143.282,554.939 z" id="boundary" inkscape:connector-curvature="0" />
	<path style="fill:none;stroke:red;stroke-width:1px;stroke-linecap:butt;stroke-linejoin:miter;stroke-opacity:1" d="M 143.282,554.939 152.568,567.32 z" id="boundary" inkscape:connector-curvature="0" />
	<path style="fill:none;stroke:red;stroke-width:1px;stroke-linecap:butt;stroke-linejoin:miter;stroke-opacity:1" d="M 129.354,547.201 116.973,537.916 z" id="boundary" inkscape:connector-curvature="0" />
	<path style="fill:none;stroke:red;stroke-width:1px;stroke-linecap:butt;stroke-linejoin:miter;stroke-opacity:1" d="M 164.949,578.153 152.568,567.32 z" id="boundary" inkscape:connector-curvature="0" />
	<path style="fill:none;stroke:red;stroke-width:1px;stroke-linecap:butt;stroke-linejoin:miter;stroke-opacity:1" d="M 164.949,578.153 175.782,590.534 z" id="boundary" inkscape:connector-curvature="0" />
	<path style="fill:none;stroke:red;stroke-width:1px;stroke-linecap:butt;stroke-linejoin:miter;stroke-opacity:1" d="M 194.353,236.137 208.281,228.399 z" id="boundary" inkscape:connector-curvature="0" />
	<path style="fill:none;stroke:red;stroke-width:1px;stroke-linecap:butt;stroke-linejoin:miter;stroke-opacity:1" d="M 434.228,42.6895 441.966,27.2137 z" id="boundary" inkscape:connector-curvature="0" />
	<path style="fill:none;stroke:red;stroke-width:1px;stroke-linecap:butt;stroke-linejoin:miter;stroke-opacity:1" d="M 441.966,27.2137 454.346,14.8331 z" id="boundary" inkscape:connector-curvature="0" />
	<path style="fill:none;stroke:red;stroke-width:1px;stroke-linecap:butt;stroke-linejoin:miter;stroke-opacity:1" d="M 428.037,58.1654 434.228,42.6895 z" id="boundary" inkscape:connector-curvature="0" />
	<path style="fill:none;stroke:red;stroke-width:1px;stroke-linecap:butt;stroke-linejoin:miter;stroke-opacity:1" d="M 387.8,89.117 403.276,81.3791 z" id="boundary" inkscape:connector-curvature="0" />
	<path style="fill:none;stroke:red;stroke-width:1px;stroke-linecap:butt;stroke-linejoin:miter;stroke-opacity:1" d="M 415.657,68.9984 403.276,81.3791 z" id="boundary" inkscape:connector-curvature="0" />
	<path style="fill:none;stroke:red;stroke-width:1px;stroke-linecap:butt;stroke-linejoin:miter;stroke-opacity:1" d="M 428.037,58.1654 415.657,68.9984 z" id="boundary" inkscape:connector-curvature="0" />
	<path style="fill:none;stroke:red;stroke-width:1px;stroke-linecap:butt;stroke-linejoin:miter;stroke-opacity:1" d="M 454.346,14.8331 469.822,7.09516 z" id="boundary" inkscape:connector-curvature="0" />
	<path style="fill:none;stroke:red;stroke-width:1px;stroke-linecap:butt;stroke-linejoin:miter;stroke-opacity:1" d="M 387.8,89.117 373.872,96.8549 z" id="boundary" inkscape:connector-curvature="0" />
	<path style="fill:none;stroke:red;stroke-width:1px;stroke-linecap:butt;stroke-linejoin:miter;stroke-opacity:1" d="M 485.298,4 500.774,8.64275 z" id="boundary" inkscape:connector-curvature="0" />
	<path style="fill:none;stroke:red;stroke-width:1px;stroke-linecap:butt;stroke-linejoin:miter;stroke-opacity:1" d="M 500.774,8.64275 511.607,21.0234 z" id="boundary" inkscape:connector-curvature="0" />
	<path style="fill:none;stroke:red;stroke-width:1px;stroke-linecap:butt;stroke-linejoin:miter;stroke-opacity:1" d="M 511.607,21.0234 523.988,31.8565 z" id="boundary" inkscape:connector-curvature="0" />
	<path style="fill:none;stroke:red;stroke-width:1px;stroke-linecap:butt;stroke-linejoin:miter;stroke-opacity:1" d="M 523.988,31.8565 534.821,44.2371 z" id="boundary" inkscape:connector-curvature="0" />
	<path style="fill:none;stroke:red;stroke-width:1px;stroke-linecap:butt;stroke-linejoin:miter;stroke-opacity:1" d="M 547.201,55.0702 534.821,44.2371 z" id="boundary" inkscape:connector-curvature="0" />
	<path style="fill:none;stroke:red;stroke-width:1px;stroke-linecap:butt;stroke-linejoin:miter;stroke-opacity:1" d="M 558.034,67.4509 565.772,81.3791 z" id="boundary" inkscape:connector-curvature="0" />
	<path style="fill:none;stroke:red;stroke-width:1px;stroke-linecap:butt;stroke-linejoin:miter;stroke-opacity:1" d="M 547.201,55.0702 558.034,67.4509 z" id="boundary" inkscape:connector-curvature="0" />
	<path style="fill:none;stroke:red;stroke-width:1px;stroke-linecap:butt;stroke-linejoin:miter;stroke-opacity:1" d="M 576.605,93.7598 565.772,81.3791 z" id="boundary" inkscape:connector-curvature="0" />
	<path style="fill:none;stroke:red;stroke-width:1px;stroke-linecap:butt;stroke-linejoin:miter;stroke-opacity:1" d="M 469.822,7.09516 485.298,4 z" id="boundary" inkscape:connector-curvature="0" />
	<path style="fill:none;stroke:red;stroke-width:1px;stroke-linecap:butt;stroke-linejoin:miter;stroke-opacity:1" d="M 263.994,197.448 276.374,185.067 z" id="boundary" inkscape:connector-curvature="0" />
	<path style="fill:none;stroke:red;stroke-width:1px;stroke-linecap:butt;stroke-linejoin:miter;stroke-opacity:1" d="M 276.374,185.067 288.755,174.234 z" id="boundary" inkscape:connector-curvature="0" />
	<path style="fill:none;stroke:red;stroke-width:1px;stroke-linecap:butt;stroke-linejoin:miter;stroke-opacity:1" d="M 263.994,197.448 250.066,205.186 z" id="boundary" inkscape:connector-curvature="0" />
	<path style="fill:none;stroke:red;stroke-width:1px;stroke-linecap:butt;stroke-linejoin:miter;stroke-opacity:1" d="M 288.755,174.234 299.588,161.853 z" id="boundary" inkscape:connector-curvature="0" />
	<path style="fill:none;stroke:red;stroke-width:1px;stroke-linecap:butt;stroke-linejoin:miter;stroke-opacity:1" d="M 299.588,161.853 315.064,154.115 z" id="boundary" inkscape:connector-curvature="0" />
	<path style="fill:none;stroke:red;stroke-width:1px;stroke-linecap:butt;stroke-linejoin:miter;stroke-opacity:1" d="M 222.209,220.661 208.281,228.399 z" id="boundary" inkscape:connector-curvature="0" />
	<path style="fill:none;stroke:red;stroke-width:1px;stroke-linecap:butt;stroke-linejoin:miter;stroke-opacity:1" d="M 236.137,212.924 250.066,205.186 z" id="boundary" inkscape:connector-curvature="0" />
	<path style="fill:none;stroke:red;stroke-width:1px;stroke-linecap:butt;stroke-linejoin:miter;stroke-opacity:1" d="M 236.137,212.924 222.209,220.661 z" id="boundary" inkscape:connector-curvature="0" />
	<path style="fill:none;stroke:red;stroke-width:1px;stroke-linecap:butt;stroke-linejoin:miter;stroke-opacity:1" d="M 361.491,107.688 373.872,96.8549 z" id="boundary" inkscape:connector-curvature="0" />
	<path style="fill:none;stroke:red;stroke-width:1px;stroke-linecap:butt;stroke-linejoin:miter;stroke-opacity:1" d="M 588.986,104.593 576.605,93.7598 z" id="boundary" inkscape:connector-curvature="0" />
	<path style="fill:none;stroke:red;stroke-width:1px;stroke-linecap:butt;stroke-linejoin:miter;stroke-opacity:1" d="M 350.658,120.069 361.491,107.688 z" id="boundary" inkscape:connector-curvature="0" />
	<path style="fill:none;stroke:red;stroke-width:1px;stroke-linecap:butt;stroke-linejoin:miter;stroke-opacity:1" d="M 315.064,154.115 327.445,143.282 z" id="boundary" inkscape:connector-curvature="0" />
	<path style="fill:none;stroke:red;stroke-width:1px;stroke-linecap:butt;stroke-linejoin:miter;stroke-opacity:1" d="M 338.278,130.902 350.658,120.069 z" id="boundary" inkscape:connector-curvature="0" />
	<path style="fill:none;stroke:red;stroke-width:1px;stroke-linecap:butt;stroke-linejoin:miter;stroke-opacity:1" d="M 327.445,143.282 338.278,130.902 z" id="boundary" inkscape:connector-curvature="0" />
	<path style="fill:none;stroke:red;stroke-width:1px;stroke-linecap:butt;stroke-linejoin:miter;stroke-opacity:1" d="M 175.782,590.534 188.162,601.367 z" id="boundary" inkscape:connector-curvature="0" />
	<path style="fill:none;stroke:red;stroke-width:1px;stroke-linecap:butt;stroke-linejoin:miter;stroke-opacity:1" d="M 188.162,601.367 198.995,613.747 z" id="boundary" inkscape:connector-curvature="0" />
	<path style="fill:none;stroke:red;stroke-width:1px;stroke-linecap:butt;stroke-linejoin:miter;stroke-opacity:1" d="M 198.995,613.747 211.376,624.58 z" id="boundary" inkscape:connector-curvature="0" />
	<path style="fill:none;stroke:red;stroke-width:1px;stroke-linecap:butt;stroke-linejoin:miter;stroke-opacity:1" d="M 225.304,632.318 211.376,624.58 z" id="boundary" inkscape:connector-curvature="0" />
	<path style="fill:none;stroke:red;stroke-width:1px;stroke-linecap:butt;stroke-linejoin:miter;stroke-opacity:1" d="M 237.685,643.151 248.518,655.532 z" id="boundary" inkscape:connector-curvature="0" />
	<path style="fill:none;stroke:red;stroke-width:1px;stroke-linecap:butt;stroke-linejoin:miter;stroke-opacity:1" d="M 277.922,667.913 262.446,663.27 z" id="boundary" inkscape:connector-curvature="0" />
	<path style="fill:none;stroke:red;stroke-width:1px;stroke-linecap:butt;stroke-linejoin:miter;stroke-opacity:1" d="M 248.518,655.532 262.446,663.27 z" id="boundary" inkscape:connector-curvature="0" />
	<path style="fill:none;stroke:red;stroke-width:1px;stroke-linecap:butt;stroke-linejoin:miter;stroke-opacity:1" d="M 237.685,643.151 225.304,632.318 z" id="boundary" inkscape:connector-curvature="0" />
	<path style="fill:none;stroke:red;stroke-width:1px;stroke-linecap:butt;stroke-linejoin:miter;stroke-opacity:1" d="M 277.922,667.913 291.85,675.651 z" id="boundary" inkscape:connector-curvature="0" />
	<path style="fill:none;stroke:red;stroke-width:1px;stroke-linecap:butt;stroke-linejoin:miter;stroke-opacity:1" d="M 321.254,671.008 307.326,678.746 z" id="boundary" inkscape:connector-curvature="0" />
	<path style="fill:none;stroke:red;stroke-width:1px;stroke-linecap:butt;stroke-linejoin:miter;stroke-opacity:1" d="M 307.326,678.746 291.85,675.651 z" id="boundary" inkscape:connector-curvature="0" />
	<path style="fill:none;stroke:red;stroke-width:1px;stroke-linecap:butt;stroke-linejoin:miter;stroke-opacity:1" d="M 336.73,671.008 321.254,671.008 z" id="boundary" inkscape:connector-curvature="0" />
	<path style="fill:none;stroke:red;stroke-width:1px;stroke-linecap:butt;stroke-linejoin:miter;stroke-opacity:1" d="M 336.73,671.008 325.897,686.484 z" id="boundary" inkscape:connector-curvature="0" />
	<path style="fill:none;stroke:red;stroke-width:1px;stroke-linecap:butt;stroke-linejoin:miter;stroke-opacity:1" d="M 313.516,697.317 305.778,712.793 z" id="boundary" inkscape:connector-curvature="0" />
	<path style="fill:none;stroke:red;stroke-width:1px;stroke-linecap:butt;stroke-linejoin:miter;stroke-opacity:1" d="M 325.897,686.484 313.516,697.317 z" id="boundary" inkscape:connector-curvature="0" />
	<path style="fill:none;stroke:red;stroke-width:1px;stroke-linecap:butt;stroke-linejoin:miter;stroke-opacity:1" d="M 305.778,712.793 305.778,728.268 z" id="boundary" inkscape:connector-curvature="0" />
	<path style="fill:none;stroke:red;stroke-width:1px;stroke-linecap:butt;stroke-linejoin:miter;stroke-opacity:1" d="M 305.778,728.268 321.254,732.911 z" id="boundary" inkscape:connector-curvature="0" />
	<path style="fill:none;stroke:red;stroke-width:1px;stroke-linecap:butt;stroke-linejoin:miter;stroke-opacity:1" d="M 321.254,732.911 335.183,740.649 z" id="boundary" inkscape:connector-curvature="0" />
	<path style="fill:none;stroke:red;stroke-width:1px;stroke-linecap:butt;stroke-linejoin:miter;stroke-opacity:1" d="M 349.111,731.363 364.587,725.173 z" id="boundary" inkscape:connector-curvature="0" />
	<path style="fill:none;stroke:red;stroke-width:1px;stroke-linecap:butt;stroke-linejoin:miter;stroke-opacity:1" d="M 364.587,725.173 367.682,740.649 z" id="boundary" inkscape:connector-curvature="0" />
	<path style="fill:none;stroke:red;stroke-width:1px;stroke-linecap:butt;stroke-linejoin:miter;stroke-opacity:1" d="M 349.111,731.363 335.183,740.649 z" id="boundary" inkscape:connector-curvature="0" />
	<path style="fill:none;stroke:red;stroke-width:1px;stroke-linecap:butt;stroke-linejoin:miter;stroke-opacity:1" d="M 367.682,740.649 375.42,754.577 z" id="boundary" inkscape:connector-curvature="0" />
	<path style="fill:none;stroke:red;stroke-width:1px;stroke-linecap:butt;stroke-linejoin:miter;stroke-opacity:1" d="M 375.42,754.577 383.158,768.505 z" id="boundary" inkscape:connector-curvature="0" />
	<path style="fill:none;stroke:red;stroke-width:1px;stroke-linecap:butt;stroke-linejoin:miter;stroke-opacity:1" d="M 383.158,768.505 390.895,782.434 z" id="boundary" inkscape:connector-curvature="0" />
	<path style="fill:none;stroke:red;stroke-width:1px;stroke-linecap:butt;stroke-linejoin:miter;stroke-opacity:1" d="M 390.895,782.434 406.371,787.076 z" id="boundary" inkscape:connector-curvature="0" />
	<path style="fill:none;stroke:red;stroke-width:1px;stroke-linecap:butt;stroke-linejoin:miter;stroke-opacity:1" d="M 406.371,787.076 414.109,801.005 z" id="boundary" inkscape:connector-curvature="0" />
	<path style="fill:none;stroke:red;stroke-width:1px;stroke-linecap:butt;stroke-linejoin:miter;stroke-opacity:1" d="M 449.704,808.743 437.323,797.91 z" id="boundary" inkscape:connector-curvature="0" />
	<path style="fill:none;stroke:red;stroke-width:1px;stroke-linecap:butt;stroke-linejoin:miter;stroke-opacity:1" d="M 426.49,810.29 414.109,801.005 z" id="boundary" inkscape:connector-curvature="0" />
	<path style="fill:none;stroke:red;stroke-width:1px;stroke-linecap:butt;stroke-linejoin:miter;stroke-opacity:1" d="M 449.704,808.743 452.799,824.218 z" id="boundary" inkscape:connector-curvature="0" />
	<path style="fill:none;stroke:red;stroke-width:1px;stroke-linecap:butt;stroke-linejoin:miter;stroke-opacity:1" d="M 460.537,838.147 452.799,824.218 z" id="boundary" inkscape:connector-curvature="0" />
	<path style="fill:none;stroke:red;stroke-width:1px;stroke-linecap:butt;stroke-linejoin:miter;stroke-opacity:1" d="M 516.25,816.48 508.512,802.552 z" id="boundary" inkscape:connector-curvature="0" />
	<path style="fill:none;stroke:red;stroke-width:1px;stroke-linecap:butt;stroke-linejoin:miter;stroke-opacity:1" d="M 523.988,845.885 516.25,831.956 z" id="boundary" inkscape:connector-curvature="0" />
	<path style="fill:none;stroke:red;stroke-width:1px;stroke-linecap:butt;stroke-linejoin:miter;stroke-opacity:1" d="M 508.512,802.552 508.512,787.076 z" id="boundary" inkscape:connector-curvature="0" />
	<path style="fill:none;stroke:red;stroke-width:1px;stroke-linecap:butt;stroke-linejoin:miter;stroke-opacity:1" d="M 516.25,816.48 516.25,831.956 z" id="boundary" inkscape:connector-curvature="0" />
	<path style="fill:none;stroke:red;stroke-width:1px;stroke-linecap:butt;stroke-linejoin:miter;stroke-opacity:1" d="M 460.537,838.147 462.084,853.622 z" id="boundary" inkscape:connector-curvature="0" />
	<path style="fill:none;stroke:red;stroke-width:1px;stroke-linecap:butt;stroke-linejoin:miter;stroke-opacity:1" d="M 469.822,867.551 462.084,853.622 z" id="boundary" inkscape:connector-curvature="0" />
	<path style="fill:none;stroke:red;stroke-width:1px;stroke-linecap:butt;stroke-linejoin:miter;stroke-opacity:1" d="M 536.368,872.193 523.988,861.36 z" id="boundary" inkscape:connector-curvature="0" />
	<path style="fill:none;stroke:red;stroke-width:1px;stroke-linecap:butt;stroke-linejoin:miter;stroke-opacity:1" d="M 523.988,861.36 523.988,845.885 z" id="boundary" inkscape:connector-curvature="0" />
	<path style="fill:none;stroke:red;stroke-width:1px;stroke-linecap:butt;stroke-linejoin:miter;stroke-opacity:1" d="M 578.153,725.173 578.153,740.649 z" id="boundary" inkscape:connector-curvature="0" />
	<path style="fill:none;stroke:red;stroke-width:1px;stroke-linecap:butt;stroke-linejoin:miter;stroke-opacity:1" d="M 539.463,771.601 508.512,787.076 z" id="boundary" inkscape:connector-curvature="0" />
	<path style="fill:none;stroke:red;stroke-width:1px;stroke-linecap:butt;stroke-linejoin:miter;stroke-opacity:1" d="M 578.153,740.649 578.153,756.125 z" id="boundary" inkscape:connector-curvature="0" />
	<path style="fill:none;stroke:red;stroke-width:1px;stroke-linecap:butt;stroke-linejoin:miter;stroke-opacity:1" d="M 567.32,776.243 578.153,756.125 z" id="boundary" inkscape:connector-curvature="0" />
	<path style="fill:none;stroke:red;stroke-width:1px;stroke-linecap:butt;stroke-linejoin:miter;stroke-opacity:1" d="M 539.463,787.076 554.939,787.076 z" id="boundary" inkscape:connector-curvature="0" />
	<path style="fill:none;stroke:red;stroke-width:1px;stroke-linecap:butt;stroke-linejoin:miter;stroke-opacity:1" d="M 567.32,776.243 554.939,787.076 z" id="boundary" inkscape:connector-curvature="0" />
	<path style="fill:none;stroke:red;stroke-width:1px;stroke-linecap:butt;stroke-linejoin:miter;stroke-opacity:1" d="M 596.724,924.811 582.796,917.073 z" id="boundary" inkscape:connector-curvature="0" />
	<path style="fill:none;stroke:red;stroke-width:1px;stroke-linecap:butt;stroke-linejoin:miter;stroke-opacity:1" d="M 469.822,867.551 476.012,883.027 z" id="boundary" inkscape:connector-curvature="0" />
	<path style="fill:none;stroke:red;stroke-width:1px;stroke-linecap:butt;stroke-linejoin:miter;stroke-opacity:1" d="M 499.226,906.24 488.393,893.86 z" id="boundary" inkscape:connector-curvature="0" />
	<path style="fill:none;stroke:red;stroke-width:1px;stroke-linecap:butt;stroke-linejoin:miter;stroke-opacity:1" d="M 488.393,893.86 476.012,883.027 z" id="boundary" inkscape:connector-curvature="0" />
	<path style="fill:none;stroke:red;stroke-width:1px;stroke-linecap:butt;stroke-linejoin:miter;stroke-opacity:1" d="M 499.226,906.24 511.607,917.073 z" id="boundary" inkscape:connector-curvature="0" />
	<path style="fill:none;stroke:red;stroke-width:1px;stroke-linecap:butt;stroke-linejoin:miter;stroke-opacity:1" d="M 511.607,917.073 522.44,929.454 z" id="boundary" inkscape:connector-curvature="0" />
	<path style="fill:none;stroke:red;stroke-width:1px;stroke-linecap:butt;stroke-linejoin:miter;stroke-opacity:1" d="M 522.44,929.454 534.821,940.287 z" id="boundary" inkscape:connector-curvature="0" />
	<path style="fill:none;stroke:red;stroke-width:1px;stroke-linecap:butt;stroke-linejoin:miter;stroke-opacity:1" d="M 534.821,940.287 545.654,952.668 z" id="boundary" inkscape:connector-curvature="0" />
	<path style="fill:none;stroke:red;stroke-width:1px;stroke-linecap:butt;stroke-linejoin:miter;stroke-opacity:1" d="M 536.368,872.193 547.201,884.574 z" id="boundary" inkscape:connector-curvature="0" />
	<path style="fill:none;stroke:red;stroke-width:1px;stroke-linecap:butt;stroke-linejoin:miter;stroke-opacity:1" d="M 559.582,895.407 570.415,907.788 z" id="boundary" inkscape:connector-curvature="0" />
	<path style="fill:none;stroke:red;stroke-width:1px;stroke-linecap:butt;stroke-linejoin:miter;stroke-opacity:1" d="M 570.415,907.788 582.796,917.073 z" id="boundary" inkscape:connector-curvature="0" />
	<path style="fill:none;stroke:red;stroke-width:1px;stroke-linecap:butt;stroke-linejoin:miter;stroke-opacity:1" d="M 559.582,895.407 547.201,884.574 z" id="boundary" inkscape:connector-curvature="0" />
	<path style="fill:none;stroke:red;stroke-width:1px;stroke-linecap:butt;stroke-linejoin:miter;stroke-opacity:1" d="M 545.654,952.668 561.129,957.31 z" id="boundary" inkscape:connector-curvature="0" />
	<path style="fill:none;stroke:red;stroke-width:1px;stroke-linecap:butt;stroke-linejoin:miter;stroke-opacity:1" d="M 561.129,957.31 575.058,965.048 z" id="boundary" inkscape:connector-curvature="0" />
	<path style="fill:none;stroke:red;stroke-width:1px;stroke-linecap:butt;stroke-linejoin:miter;stroke-opacity:1" d="M 575.058,965.048 590.534,965.048 z" id="boundary" inkscape:connector-curvature="0" />
	<path style="fill:none;stroke:red;stroke-width:1px;stroke-linecap:butt;stroke-linejoin:miter;stroke-opacity:1" d="M 590.534,965.048 604.462,972.786 z" id="boundary" inkscape:connector-curvature="0" />
	<path style="fill:none;stroke:red;stroke-width:1px;stroke-linecap:butt;stroke-linejoin:miter;stroke-opacity:1" d="M 588.986,104.593 599.819,116.973 z" id="boundary" inkscape:connector-curvature="0" />
	<path style="fill:none;stroke:red;stroke-width:1px;stroke-linecap:butt;stroke-linejoin:miter;stroke-opacity:1" d="M 599.819,116.973 612.2,127.807 z" id="boundary" inkscape:connector-curvature="0" />
	<path style="fill:none;stroke:red;stroke-width:1px;stroke-linecap:butt;stroke-linejoin:miter;stroke-opacity:1" d="M 612.2,127.807 623.033,140.187 z" id="boundary" inkscape:connector-curvature="0" />
	<path style="fill:none;stroke:red;stroke-width:1px;stroke-linecap:butt;stroke-linejoin:miter;stroke-opacity:1" d="M 623.033,140.187 635.413,151.02 z" id="boundary" inkscape:connector-curvature="0" />
	<path style="fill:none;stroke:red;stroke-width:1px;stroke-linecap:butt;stroke-linejoin:miter;stroke-opacity:1" d="M 635.413,151.02 646.246,163.401 z" id="boundary" inkscape:connector-curvature="0" />
	<path style="fill:none;stroke:red;stroke-width:1px;stroke-linecap:butt;stroke-linejoin:miter;stroke-opacity:1" d="M 658.627,174.234 646.246,163.401 z" id="boundary" inkscape:connector-curvature="0" />
	<path style="fill:none;stroke:red;stroke-width:1px;stroke-linecap:butt;stroke-linejoin:miter;stroke-opacity:1" d="M 672.555,181.972 658.627,174.234 z" id="boundary" inkscape:connector-curvature="0" />
	<path style="fill:none;stroke:red;stroke-width:1px;stroke-linecap:butt;stroke-linejoin:miter;stroke-opacity:1" d="M 672.555,181.972 684.936,192.805 z" id="boundary" inkscape:connector-curvature="0" />
	<path style="fill:none;stroke:red;stroke-width:1px;stroke-linecap:butt;stroke-linejoin:miter;stroke-opacity:1" d="M 684.936,192.805 694.222,205.186 z" id="boundary" inkscape:connector-curvature="0" />
	<path style="fill:none;stroke:red;stroke-width:1px;stroke-linecap:butt;stroke-linejoin:miter;stroke-opacity:1" d="M 763.863,243.875 749.934,236.137 z" id="boundary" inkscape:connector-curvature="0" />
	<path style="fill:none;stroke:red;stroke-width:1px;stroke-linecap:butt;stroke-linejoin:miter;stroke-opacity:1" d="M 694.222,205.186 708.15,212.924 z" id="boundary" inkscape:connector-curvature="0" />
	<path style="fill:none;stroke:red;stroke-width:1px;stroke-linecap:butt;stroke-linejoin:miter;stroke-opacity:1" d="M 722.078,220.661 736.006,228.399 z" id="boundary" inkscape:connector-curvature="0" />
	<path style="fill:none;stroke:red;stroke-width:1px;stroke-linecap:butt;stroke-linejoin:miter;stroke-opacity:1" d="M 722.078,220.661 708.15,212.924 z" id="boundary" inkscape:connector-curvature="0" />
	<path style="fill:none;stroke:red;stroke-width:1px;stroke-linecap:butt;stroke-linejoin:miter;stroke-opacity:1" d="M 736.006,638.509 748.387,624.58 z" id="boundary" inkscape:connector-curvature="0" />
	<path style="fill:none;stroke:red;stroke-width:1px;stroke-linecap:butt;stroke-linejoin:miter;stroke-opacity:1" d="M 771.601,601.367 760.768,613.747 z" id="boundary" inkscape:connector-curvature="0" />
	<path style="fill:none;stroke:red;stroke-width:1px;stroke-linecap:butt;stroke-linejoin:miter;stroke-opacity:1" d="M 760.768,613.747 748.387,624.58 z" id="boundary" inkscape:connector-curvature="0" />
	<path style="fill:none;stroke:red;stroke-width:1px;stroke-linecap:butt;stroke-linejoin:miter;stroke-opacity:1" d="M 736.006,228.399 749.934,236.137 z" id="boundary" inkscape:connector-curvature="0" />
	<path style="fill:none;stroke:red;stroke-width:1px;stroke-linecap:butt;stroke-linejoin:miter;stroke-opacity:1" d="M 736.006,638.509 723.626,647.794 z" id="boundary" inkscape:connector-curvature="0" />
	<path style="fill:none;stroke:red;stroke-width:1px;stroke-linecap:butt;stroke-linejoin:miter;stroke-opacity:1" d="M 592.081,717.435 578.153,725.173 z" id="boundary" inkscape:connector-curvature="0" />
	<path style="fill:none;stroke:red;stroke-width:1px;stroke-linecap:butt;stroke-linejoin:miter;stroke-opacity:1" d="M 601.367,655.532 601.367,640.056 z" id="boundary" inkscape:connector-curvature="0" />
	<path style="fill:none;stroke:red;stroke-width:1px;stroke-linecap:butt;stroke-linejoin:miter;stroke-opacity:1" d="M 601.367,640.056 615.295,647.794 z" id="boundary" inkscape:connector-curvature="0" />
	<path style="fill:none;stroke:red;stroke-width:1px;stroke-linecap:butt;stroke-linejoin:miter;stroke-opacity:1" d="M 609.105,669.46 601.367,655.532 z" id="boundary" inkscape:connector-curvature="0" />
	<path style="fill:none;stroke:red;stroke-width:1px;stroke-linecap:butt;stroke-linejoin:miter;stroke-opacity:1" d="M 624.58,660.175 615.295,647.794 z" id="boundary" inkscape:connector-curvature="0" />
	<path style="fill:none;stroke:red;stroke-width:1px;stroke-linecap:butt;stroke-linejoin:miter;stroke-opacity:1" d="M 609.105,669.46 616.842,683.388 z" id="boundary" inkscape:connector-curvature="0" />
	<path style="fill:none;stroke:red;stroke-width:1px;stroke-linecap:butt;stroke-linejoin:miter;stroke-opacity:1" d="M 616.842,683.388 629.223,694.222 z" id="boundary" inkscape:connector-curvature="0" />
	<path style="fill:none;stroke:red;stroke-width:1px;stroke-linecap:butt;stroke-linejoin:miter;stroke-opacity:1" d="M 624.58,660.175 636.961,671.008 z" id="boundary" inkscape:connector-curvature="0" />
	<path style="fill:none;stroke:red;stroke-width:1px;stroke-linecap:butt;stroke-linejoin:miter;stroke-opacity:1" d="M 694.222,663.27 709.697,655.532 z" id="boundary" inkscape:connector-curvature="0" />
	<path style="fill:none;stroke:red;stroke-width:1px;stroke-linecap:butt;stroke-linejoin:miter;stroke-opacity:1" d="M 723.626,647.794 709.697,655.532 z" id="boundary" inkscape:connector-curvature="0" />
	<path style="fill:none;stroke:red;stroke-width:1px;stroke-linecap:butt;stroke-linejoin:miter;stroke-opacity:1" d="M 680.293,671.008 694.222,663.27 z" id="boundary" inkscape:connector-curvature="0" />
	<path style="fill:none;stroke:red;stroke-width:1px;stroke-linecap:butt;stroke-linejoin:miter;stroke-opacity:1" d="M 640.056,706.602 629.223,694.222 z" id="boundary" inkscape:connector-curvature="0" />
	<path style="fill:none;stroke:red;stroke-width:1px;stroke-linecap:butt;stroke-linejoin:miter;stroke-opacity:1" d="M 664.817,671.008 680.293,671.008 z" id="boundary" inkscape:connector-curvature="0" />
	<path style="fill:none;stroke:red;stroke-width:1px;stroke-linecap:butt;stroke-linejoin:miter;stroke-opacity:1" d="M 650.889,678.746 664.817,671.008 z" id="boundary" inkscape:connector-curvature="0" />
	<path style="fill:none;stroke:red;stroke-width:1px;stroke-linecap:butt;stroke-linejoin:miter;stroke-opacity:1" d="M 650.889,678.746 636.961,671.008 z" id="boundary" inkscape:connector-curvature="0" />
	<path style="fill:none;stroke:red;stroke-width:1px;stroke-linecap:butt;stroke-linejoin:miter;stroke-opacity:1" d="M 635.413,723.626 640.056,706.602 z" id="boundary" inkscape:connector-curvature="0" />
	<path style="fill:none;stroke:red;stroke-width:1px;stroke-linecap:butt;stroke-linejoin:miter;stroke-opacity:1" d="M 776.243,253.161 763.863,243.875 z" id="boundary" inkscape:connector-curvature="0" />
	<path style="fill:none;stroke:red;stroke-width:1px;stroke-linecap:butt;stroke-linejoin:miter;stroke-opacity:1" d="M 790.172,260.899 776.243,253.161 z" id="boundary" inkscape:connector-curvature="0" />
	<path style="fill:none;stroke:red;stroke-width:1px;stroke-linecap:butt;stroke-linejoin:miter;stroke-opacity:1" d="M 790.172,260.899 805.647,267.089 z" id="boundary" inkscape:connector-curvature="0" />
	<path style="fill:none;stroke:red;stroke-width:1px;stroke-linecap:butt;stroke-linejoin:miter;stroke-opacity:1" d="M 805.647,267.089 816.48,279.47 z" id="boundary" inkscape:connector-curvature="0" />
	<path style="fill:none;stroke:red;stroke-width:1px;stroke-linecap:butt;stroke-linejoin:miter;stroke-opacity:1" d="M 816.48,279.47 831.956,282.565 z" id="boundary" inkscape:connector-curvature="0" />
	<path style="fill:none;stroke:red;stroke-width:1px;stroke-linecap:butt;stroke-linejoin:miter;stroke-opacity:1" d="M 831.956,282.565 845.885,290.303 z" id="boundary" inkscape:connector-curvature="0" />
	<path style="fill:none;stroke:red;stroke-width:1px;stroke-linecap:butt;stroke-linejoin:miter;stroke-opacity:1" d="M 845.885,290.303 859.813,298.041 z" id="boundary" inkscape:connector-curvature="0" />
	<path style="fill:none;stroke:red;stroke-width:1px;stroke-linecap:butt;stroke-linejoin:miter;stroke-opacity:1" d="M 859.813,298.041 870.646,310.421 z" id="boundary" inkscape:connector-curvature="0" />
	<path style="fill:none;stroke:red;stroke-width:1px;stroke-linecap:butt;stroke-linejoin:miter;stroke-opacity:1" d="M 870.646,310.421 883.027,321.254 z" id="boundary" inkscape:connector-curvature="0" />
	<path style="fill:none;stroke:red;stroke-width:1px;stroke-linecap:butt;stroke-linejoin:miter;stroke-opacity:1" d="M 896.955,328.992 883.027,321.254 z" id="boundary" inkscape:connector-curvature="0" />
	<path style="fill:none;stroke:red;stroke-width:1px;stroke-linecap:butt;stroke-linejoin:miter;stroke-opacity:1" d="M 896.955,328.992 909.335,339.825 z" id="boundary" inkscape:connector-curvature="0" />
	<path style="fill:none;stroke:red;stroke-width:1px;stroke-linecap:butt;stroke-linejoin:miter;stroke-opacity:1" d="M 909.335,339.825 918.621,352.206 z" id="boundary" inkscape:connector-curvature="0" />
	<path style="fill:none;stroke:red;stroke-width:1px;stroke-linecap:butt;stroke-linejoin:miter;stroke-opacity:1" d="M 926.359,366.134 934.097,380.062 z" id="boundary" inkscape:connector-curvature="0" />
	<path style="fill:none;stroke:red;stroke-width:1px;stroke-linecap:butt;stroke-linejoin:miter;stroke-opacity:1" d="M 918.621,352.206 926.359,366.134 z" id="boundary" inkscape:connector-curvature="0" />
	<path style="fill:none;stroke:red;stroke-width:1px;stroke-linecap:butt;stroke-linejoin:miter;stroke-opacity:1" d="M 934.097,380.062 941.835,393.991 z" id="boundary" inkscape:connector-curvature="0" />
	<path style="fill:none;stroke:red;stroke-width:1px;stroke-linecap:butt;stroke-linejoin:miter;stroke-opacity:1" d="M 941.835,393.991 934.097,415.657 z" id="boundary" inkscape:connector-curvature="0" />
	<path style="fill:none;stroke:red;stroke-width:1px;stroke-linecap:butt;stroke-linejoin:miter;stroke-opacity:1" d="M 822.671,559.582 833.504,547.201 z" id="boundary" inkscape:connector-curvature="0" />
	<path style="fill:none;stroke:red;stroke-width:1px;stroke-linecap:butt;stroke-linejoin:miter;stroke-opacity:1" d="M 833.504,547.201 845.885,536.368 z" id="boundary" inkscape:connector-curvature="0" />
	<path style="fill:none;stroke:red;stroke-width:1px;stroke-linecap:butt;stroke-linejoin:miter;stroke-opacity:1" d="M 822.671,559.582 810.29,570.415 z" id="boundary" inkscape:connector-curvature="0" />
	<path style="fill:none;stroke:red;stroke-width:1px;stroke-linecap:butt;stroke-linejoin:miter;stroke-opacity:1" d="M 845.885,536.368 856.718,523.988 z" id="boundary" inkscape:connector-curvature="0" />
	<path style="fill:none;stroke:red;stroke-width:1px;stroke-linecap:butt;stroke-linejoin:miter;stroke-opacity:1" d="M 856.718,523.988 869.098,513.154 z" id="boundary" inkscape:connector-curvature="0" />
	<path style="fill:none;stroke:red;stroke-width:1px;stroke-linecap:butt;stroke-linejoin:miter;stroke-opacity:1" d="M 771.601,601.367 785.529,593.629 z" id="boundary" inkscape:connector-curvature="0" />
	<path style="fill:none;stroke:red;stroke-width:1px;stroke-linecap:butt;stroke-linejoin:miter;stroke-opacity:1" d="M 797.91,584.343 810.29,570.415 z" id="boundary" inkscape:connector-curvature="0" />
	<path style="fill:none;stroke:red;stroke-width:1px;stroke-linecap:butt;stroke-linejoin:miter;stroke-opacity:1" d="M 797.91,584.343 785.529,593.629 z" id="boundary" inkscape:connector-curvature="0" />
	<path style="fill:none;stroke:red;stroke-width:1px;stroke-linecap:butt;stroke-linejoin:miter;stroke-opacity:1" d="M 910.883,454.346 923.264,443.513 z" id="boundary" inkscape:connector-curvature="0" />
	<path style="fill:none;stroke:red;stroke-width:1px;stroke-linecap:butt;stroke-linejoin:miter;stroke-opacity:1" d="M 903.145,469.822 910.883,454.346 z" id="boundary" inkscape:connector-curvature="0" />
	<path style="fill:none;stroke:red;stroke-width:1px;stroke-linecap:butt;stroke-linejoin:miter;stroke-opacity:1" d="M 934.097,415.657 934.097,431.133 z" id="boundary" inkscape:connector-curvature="0" />
	<path style="fill:none;stroke:red;stroke-width:1px;stroke-linecap:butt;stroke-linejoin:miter;stroke-opacity:1" d="M 934.097,431.133 923.264,443.513 z" id="boundary" inkscape:connector-curvature="0" />
	<path style="fill:none;stroke:red;stroke-width:1px;stroke-linecap:butt;stroke-linejoin:miter;stroke-opacity:1" d="M 869.098,513.154 879.931,500.774 z" id="boundary" inkscape:connector-curvature="0" />
	<path style="fill:none;stroke:red;stroke-width:1px;stroke-linecap:butt;stroke-linejoin:miter;stroke-opacity:1" d="M 879.931,500.774 892.312,489.941 z" id="boundary" inkscape:connector-curvature="0" />
	<path style="fill:none;stroke:red;stroke-width:1px;stroke-linecap:butt;stroke-linejoin:miter;stroke-opacity:1" d="M 892.312,489.941 903.145,469.822 z" id="boundary" inkscape:connector-curvature="0" />
	<path style="fill:none;stroke:red;stroke-width:1px;stroke-linecap:butt;stroke-linejoin:miter;stroke-opacity:1" d="M 612.2,739.101 627.676,739.101 z" id="boundary" inkscape:connector-curvature="0" />
	<path style="fill:none;stroke:red;stroke-width:1px;stroke-linecap:butt;stroke-linejoin:miter;stroke-opacity:1" d="M 612.2,739.101 596.724,732.911 z" id="boundary" inkscape:connector-curvature="0" />
	<path style="fill:none;stroke:red;stroke-width:1px;stroke-linecap:butt;stroke-linejoin:miter;stroke-opacity:1" d="M 635.413,723.626 627.676,739.101 z" id="boundary" inkscape:connector-curvature="0" />
	<path style="fill:none;stroke:red;stroke-width:1px;stroke-linecap:butt;stroke-linejoin:miter;stroke-opacity:1" d="M 624.58,940.287 640.056,940.287 z" id="boundary" inkscape:connector-curvature="0" />
	<path style="fill:none;stroke:red;stroke-width:1px;stroke-linecap:butt;stroke-linejoin:miter;stroke-opacity:1" d="M 624.58,940.287 610.652,932.549 z" id="boundary" inkscape:connector-curvature="0" />
	<path style="fill:none;stroke:red;stroke-width:1px;stroke-linecap:butt;stroke-linejoin:miter;stroke-opacity:1" d="M 610.652,932.549 596.724,924.811 z" id="boundary" inkscape:connector-curvature="0" />
	<path style="fill:none;stroke:red;stroke-width:1px;stroke-linecap:butt;stroke-linejoin:miter;stroke-opacity:1" d="M 686.484,937.192 671.008,935.644 z" id="boundary" inkscape:connector-curvature="0" />
	<path style="fill:none;stroke:red;stroke-width:1px;stroke-linecap:butt;stroke-linejoin:miter;stroke-opacity:1" d="M 763.863,935.644 779.339,927.906 z" id="boundary" inkscape:connector-curvature="0" />
	<path style="fill:none;stroke:red;stroke-width:1px;stroke-linecap:butt;stroke-linejoin:miter;stroke-opacity:1" d="M 732.911,940.287 717.435,940.287 z" id="boundary" inkscape:connector-curvature="0" />
	<path style="fill:none;stroke:red;stroke-width:1px;stroke-linecap:butt;stroke-linejoin:miter;stroke-opacity:1" d="M 794.814,924.811 779.339,927.906 z" id="boundary" inkscape:connector-curvature="0" />
	<path style="fill:none;stroke:red;stroke-width:1px;stroke-linecap:butt;stroke-linejoin:miter;stroke-opacity:1" d="M 655.532,940.287 671.008,935.644 z" id="boundary" inkscape:connector-curvature="0" />
	<path style="fill:none;stroke:red;stroke-width:1px;stroke-linecap:butt;stroke-linejoin:miter;stroke-opacity:1" d="M 701.959,940.287 717.435,940.287 z" id="boundary" inkscape:connector-curvature="0" />
	<path style="fill:none;stroke:red;stroke-width:1px;stroke-linecap:butt;stroke-linejoin:miter;stroke-opacity:1" d="M 701.959,940.287 686.484,937.192 z" id="boundary" inkscape:connector-curvature="0" />
	<path style="fill:none;stroke:red;stroke-width:1px;stroke-linecap:butt;stroke-linejoin:miter;stroke-opacity:1" d="M 655.532,940.287 640.056,940.287 z" id="boundary" inkscape:connector-curvature="0" />
	<path style="fill:none;stroke:red;stroke-width:1px;stroke-linecap:butt;stroke-linejoin:miter;stroke-opacity:1" d="M 604.462,972.786 616.842,983.619 z" id="boundary" inkscape:connector-curvature="0" />
	<path style="fill:none;stroke:red;stroke-width:1px;stroke-linecap:butt;stroke-linejoin:miter;stroke-opacity:1" d="M 632.318,988.262 647.794,988.262 z" id="boundary" inkscape:connector-curvature="0" />
	<path style="fill:none;stroke:red;stroke-width:1px;stroke-linecap:butt;stroke-linejoin:miter;stroke-opacity:1" d="M 632.318,988.262 616.842,983.619 z" id="boundary" inkscape:connector-curvature="0" />
	<path style="fill:none;stroke:red;stroke-width:1px;stroke-linecap:butt;stroke-linejoin:miter;stroke-opacity:1" d="M 663.27,988.262 647.794,988.262 z" id="boundary" inkscape:connector-curvature="0" />
	<path style="fill:none;stroke:red;stroke-width:1px;stroke-linecap:butt;stroke-linejoin:miter;stroke-opacity:1" d="M 678.746,991.357 694.222,996 z" id="boundary" inkscape:connector-curvature="0" />
	<path style="fill:none;stroke:red;stroke-width:1px;stroke-linecap:butt;stroke-linejoin:miter;stroke-opacity:1" d="M 722.078,985.167 709.697,996 z" id="boundary" inkscape:connector-curvature="0" />
	<path style="fill:none;stroke:red;stroke-width:1px;stroke-linecap:butt;stroke-linejoin:miter;stroke-opacity:1" d="M 709.697,996 694.222,996 z" id="boundary" inkscape:connector-curvature="0" />
	<path style="fill:none;stroke:red;stroke-width:1px;stroke-linecap:butt;stroke-linejoin:miter;stroke-opacity:1" d="M 678.746,991.357 663.27,988.262 z" id="boundary" inkscape:connector-curvature="0" />
	<path style="fill:none;stroke:red;stroke-width:1px;stroke-linecap:butt;stroke-linejoin:miter;stroke-opacity:1" d="M 732.911,940.287 748.387,940.287 z" id="boundary" inkscape:connector-curvature="0" />
	<path style="fill:none;stroke:red;stroke-width:1px;stroke-linecap:butt;stroke-linejoin:miter;stroke-opacity:1" d="M 763.863,935.644 748.387,940.287 z" id="boundary" inkscape:connector-curvature="0" />
	<path style="fill:none;stroke:red;stroke-width:1px;stroke-linecap:butt;stroke-linejoin:miter;stroke-opacity:1" d="M 782.434,972.786 766.958,972.786 z" id="boundary" inkscape:connector-curvature="0" />
	<path style="fill:none;stroke:red;stroke-width:1px;stroke-linecap:butt;stroke-linejoin:miter;stroke-opacity:1" d="M 797.91,971.239 782.434,972.786 z" id="boundary" inkscape:connector-curvature="0" />
	<path style="fill:none;stroke:red;stroke-width:1px;stroke-linecap:butt;stroke-linejoin:miter;stroke-opacity:1" d="M 766.958,972.786 753.03,980.524 z" id="boundary" inkscape:connector-curvature="0" />
	<path style="fill:none;stroke:red;stroke-width:1px;stroke-linecap:butt;stroke-linejoin:miter;stroke-opacity:1" d="M 737.554,980.524 753.03,980.524 z" id="boundary" inkscape:connector-curvature="0" />
	<path style="fill:none;stroke:red;stroke-width:1px;stroke-linecap:butt;stroke-linejoin:miter;stroke-opacity:1" d="M 737.554,980.524 722.078,985.167 z" id="boundary" inkscape:connector-curvature="0" />
	<path style="fill:none;stroke:red;stroke-width:1px;stroke-linecap:butt;stroke-linejoin:miter;stroke-opacity:1" d="M 813.385,965.048 797.91,971.239 z" id="boundary" inkscape:connector-curvature="0" />
	<path style="fill:none;stroke:red;stroke-width:1px;stroke-linecap:butt;stroke-linejoin:miter;stroke-opacity:1" d="M 816.48,780.886 808.743,766.958 z" id="boundary" inkscape:connector-curvature="0" />
	<path style="fill:none;stroke:red;stroke-width:1px;stroke-linecap:butt;stroke-linejoin:miter;stroke-opacity:1" d="M 808.743,766.958 824.218,762.315 z" id="boundary" inkscape:connector-curvature="0" />
	<path style="fill:none;stroke:red;stroke-width:1px;stroke-linecap:butt;stroke-linejoin:miter;stroke-opacity:1" d="M 824.218,762.315 839.694,765.41 z" id="boundary" inkscape:connector-curvature="0" />
	<path style="fill:none;stroke:red;stroke-width:1px;stroke-linecap:butt;stroke-linejoin:miter;stroke-opacity:1" d="M 853.622,773.148 839.694,765.41 z" id="boundary" inkscape:connector-curvature="0" />
	<path style="fill:none;stroke:red;stroke-width:1px;stroke-linecap:butt;stroke-linejoin:miter;stroke-opacity:1" d="M 869.098,777.791 853.622,773.148 z" id="boundary" inkscape:connector-curvature="0" />
	<path style="fill:none;stroke:red;stroke-width:1px;stroke-linecap:butt;stroke-linejoin:miter;stroke-opacity:1" d="M 827.314,793.267 816.48,780.886 z" id="boundary" inkscape:connector-curvature="0" />
	<path style="fill:none;stroke:red;stroke-width:1px;stroke-linecap:butt;stroke-linejoin:miter;stroke-opacity:1" d="M 827.314,793.267 842.789,799.457 z" id="boundary" inkscape:connector-curvature="0" />
	<path style="fill:none;stroke:red;stroke-width:1px;stroke-linecap:butt;stroke-linejoin:miter;stroke-opacity:1" d="M 855.17,808.743 842.789,799.457 z" id="boundary" inkscape:connector-curvature="0" />
	<path style="fill:none;stroke:red;stroke-width:1px;stroke-linecap:butt;stroke-linejoin:miter;stroke-opacity:1" d="M 855.17,808.743 862.908,822.671 z" id="boundary" inkscape:connector-curvature="0" />
	<path style="fill:none;stroke:red;stroke-width:1px;stroke-linecap:butt;stroke-linejoin:miter;stroke-opacity:1" d="M 883.027,785.529 869.098,777.791 z" id="boundary" inkscape:connector-curvature="0" />
	<path style="fill:none;stroke:red;stroke-width:1px;stroke-linecap:butt;stroke-linejoin:miter;stroke-opacity:1" d="M 883.027,785.529 896.955,793.267 z" id="boundary" inkscape:connector-curvature="0" />
	<path style="fill:none;stroke:red;stroke-width:1px;stroke-linecap:butt;stroke-linejoin:miter;stroke-opacity:1" d="M 903.145,808.743 896.955,793.267 z" id="boundary" inkscape:connector-curvature="0" />
	<path style="fill:none;stroke:red;stroke-width:1px;stroke-linecap:butt;stroke-linejoin:miter;stroke-opacity:1" d="M 910.883,822.671 903.145,808.743 z" id="boundary" inkscape:connector-curvature="0" />
	<path style="fill:none;stroke:red;stroke-width:1px;stroke-linecap:butt;stroke-linejoin:miter;stroke-opacity:1" d="M 870.646,836.599 862.908,822.671 z" id="boundary" inkscape:connector-curvature="0" />
	<path style="fill:none;stroke:red;stroke-width:1px;stroke-linecap:butt;stroke-linejoin:miter;stroke-opacity:1" d="M 878.384,850.527 870.646,836.599 z" id="boundary" inkscape:connector-curvature="0" />
	<path style="fill:none;stroke:red;stroke-width:1px;stroke-linecap:butt;stroke-linejoin:miter;stroke-opacity:1" d="M 918.621,836.599 910.883,822.671 z" id="boundary" inkscape:connector-curvature="0" />
	<path style="fill:none;stroke:red;stroke-width:1px;stroke-linecap:butt;stroke-linejoin:miter;stroke-opacity:1" d="M 810.29,924.811 825.766,920.168 z" id="boundary" inkscape:connector-curvature="0" />
	<path style="fill:none;stroke:red;stroke-width:1px;stroke-linecap:butt;stroke-linejoin:miter;stroke-opacity:1" d="M 838.147,909.335 825.766,920.168 z" id="boundary" inkscape:connector-curvature="0" />
	<path style="fill:none;stroke:red;stroke-width:1px;stroke-linecap:butt;stroke-linejoin:miter;stroke-opacity:1" d="M 869.098,934.097 855.17,941.835 z" id="boundary" inkscape:connector-curvature="0" />
	<path style="fill:none;stroke:red;stroke-width:1px;stroke-linecap:butt;stroke-linejoin:miter;stroke-opacity:1" d="M 810.29,924.811 794.814,924.811 z" id="boundary" inkscape:connector-curvature="0" />
	<path style="fill:none;stroke:red;stroke-width:1px;stroke-linecap:butt;stroke-linejoin:miter;stroke-opacity:1" d="M 848.98,896.955 838.147,909.335 z" id="boundary" inkscape:connector-curvature="0" />
	<path style="fill:none;stroke:red;stroke-width:1px;stroke-linecap:butt;stroke-linejoin:miter;stroke-opacity:1" d="M 827.314,957.31 813.385,965.048 z" id="boundary" inkscape:connector-curvature="0" />
	<path style="fill:none;stroke:red;stroke-width:1px;stroke-linecap:butt;stroke-linejoin:miter;stroke-opacity:1" d="M 855.17,941.835 841.242,949.573 z" id="boundary" inkscape:connector-curvature="0" />
	<path style="fill:none;stroke:red;stroke-width:1px;stroke-linecap:butt;stroke-linejoin:miter;stroke-opacity:1" d="M 841.242,949.573 827.314,957.31 z" id="boundary" inkscape:connector-curvature="0" />
	<path style="fill:none;stroke:red;stroke-width:1px;stroke-linecap:butt;stroke-linejoin:miter;stroke-opacity:1" d="M 872.193,873.741 878.384,850.527 z" id="boundary" inkscape:connector-curvature="0" />
	<path style="fill:none;stroke:red;stroke-width:1px;stroke-linecap:butt;stroke-linejoin:miter;stroke-opacity:1" d="M 872.193,873.741 861.36,886.122 z" id="boundary" inkscape:connector-curvature="0" />
	<path style="fill:none;stroke:red;stroke-width:1px;stroke-linecap:butt;stroke-linejoin:miter;stroke-opacity:1" d="M 910.883,879.931 918.621,852.075 z" id="boundary" inkscape:connector-curvature="0" />
	<path style="fill:none;stroke:red;stroke-width:1px;stroke-linecap:butt;stroke-linejoin:miter;stroke-opacity:1" d="M 907.788,900.05 910.883,879.931 z" id="boundary" inkscape:connector-curvature="0" />
	<path style="fill:none;stroke:red;stroke-width:1px;stroke-linecap:butt;stroke-linejoin:miter;stroke-opacity:1" d="M 918.621,836.599 918.621,852.075 z" id="boundary" inkscape:connector-curvature="0" />
	<path style="fill:none;stroke:red;stroke-width:1px;stroke-linecap:butt;stroke-linejoin:miter;stroke-opacity:1" d="M 848.98,896.955 861.36,886.122 z" id="boundary" inkscape:connector-curvature="0" />
	<path style="fill:none;stroke:red;stroke-width:1px;stroke-linecap:butt;stroke-linejoin:miter;stroke-opacity:1" d="M 883.027,924.811 869.098,934.097 z" id="boundary" inkscape:connector-curvature="0" />
	<path style="fill:none;stroke:red;stroke-width:1px;stroke-linecap:butt;stroke-linejoin:miter;stroke-opacity:1" d="M 883.027,924.811 895.407,910.883 z" id="boundary" inkscape:connector-curvature="0" />
	<path style="fill:none;stroke:red;stroke-width:1px;stroke-linecap:butt;stroke-linejoin:miter;stroke-opacity:1" d="M 895.407,910.883 907.788,900.05 z" id="boundary" inkscape:connector-curvature="0" />
	<circle cx="4" cy="372.324" r="4" fill="#0" id="circle0"/>
	<circle cx="4" cy="387.8" r="4" fill="#0" id="circle1"/>
	<circle cx="11.7379" cy="356.849" r="4" fill="#0" id="circle2"/>
	<circle cx="11.7379" cy="401.729" r="4" fill="#0" id="circle3"/>
	<circle cx="11.7379" cy="417.204" r="4" fill="#0" id="circle4"/>
	<circle cx="19.4758" cy="431.133" r="4" fill="#0" id="circle5"/>
	<circle cx="27.2137" cy="349.111" r="4" fill="#0" id="circle6"/>
	<circle cx="28.7613" cy="443.513" r="4" fill="#0" id="circle7"/>
	<circle cx="39.5944" cy="336.73" r="4" fill="#0" id="circle8"/>
	<circle cx="41.142" cy="454.346" r="4" fill="#0" id="circle9"/>
	<circle cx="51.975" cy="324.349" r="4" fill="#0" id="circle10"/>
	<circle cx="51.975" cy="466.727" r="4" fill="#0" id="circle11"/>
	<circle cx="64.3557" cy="313.516" r="4" fill="#0" id="circle12"/>
	<circle cx="64.3557" cy="477.56" r="4" fill="#0" id="circle13"/>
	<circle cx="73.6412" cy="489.941" r="4" fill="#0" id="circle14"/>
	<circle cx="78.2839" cy="305.778" r="4" fill="#0" id="circle15"/>
	<circle cx="81.3791" cy="503.869" r="4" fill="#0" id="circle16"/>
	<circle cx="92.2122" cy="298.041" r="4" fill="#0" id="circle17"/>
	<circle cx="93.7598" cy="514.702" r="4" fill="#0" id="circle18"/>
	<circle cx="104.593" cy="527.083" r="4" fill="#0" id="circle19"/>
	<circle cx="106.14" cy="290.303" r="4" fill="#0" id="circle20"/>
	<circle cx="116.973" cy="537.916" r="4" fill="#0" id="circle21"/>
	<circle cx="120.069" cy="279.47" r="4" fill="#0" id="circle22"/>
	<circle cx="129.354" cy="547.201" r="4" fill="#0" id="circle23"/>
	<circle cx="135.544" cy="271.732" r="4" fill="#0" id="circle24"/>
	<circle cx="143.282" cy="554.939" r="4" fill="#0" id="circle25"/>
	<circle cx="151.02" cy="263.994" r="4" fill="#0" id="circle26"/>
	<circle cx="152.568" cy="567.32" r="4" fill="#0" id="circle27"/>
	<circle cx="164.949" cy="578.153" r="4" fill="#0" id="circle28"/>
	<circle cx="166.496" cy="256.256" r="4" fill="#0" id="circle29"/>
	<circle cx="175.782" cy="590.534" r="4" fill="#0" id="circle30"/>
	<circle cx="181.972" cy="248.518" r="4" fill="#0" id="circle31"/>
	<circle cx="188.162" cy="601.367" r="4" fill="#0" id="circle32"/>
	<circle cx="194.353" cy="236.137" r="4" fill="#0" id="circle33"/>
	<circle cx="198.995" cy="613.747" r="4" fill="#0" id="circle34"/>
	<circle cx="208.281" cy="228.399" r="4" fill="#0" id="circle35"/>
	<circle cx="211.376" cy="624.58" r="4" fill="#0" id="circle36"/>
	<circle cx="222.209" cy="220.661" r="4" fill="#0" id="circle37"/>
	<circle cx="225.304" cy="632.318" r="4" fill="#0" id="circle38"/>
	<circle cx="236.137" cy="212.924" r="4" fill="#0" id="circle39"/>
	<circle cx="237.685" cy="643.151" r="4" fill="#0" id="circle40"/>
	<circle cx="248.518" cy="655.532" r="4" fill="#0" id="circle41"/>
	<circle cx="250.066" cy="205.186" r="4" fill="#0" id="circle42"/>
	<circle cx="262.446" cy="663.27" r="4" fill="#0" id="circle43"/>
	<circle cx="263.994" cy="197.448" r="4" fill="#0" id="circle44"/>
	<circle cx="276.374" cy="185.067" r="4" fill="#0" id="circle45"/>
	<circle cx="277.922" cy="667.913" r="4" fill="#0" id="circle46"/>
	<circle cx="288.755" cy="174.234" r="4" fill="#0" id="circle47"/>
	<circle cx="291.85" cy="675.651" r="4" fill="#0" id="circle48"/>
	<circle cx="299.588" cy="161.853" r="4" fill="#0" id="circle49"/>
	<circle cx="305.778" cy="712.793" r="4" fill="#0" id="circle50"/>
	<circle cx="305.778" cy="728.268" r="4" fill="#0" id="circle51"/>
	<circle cx="307.326" cy="678.746" r="4" fill="#0" id="circle52"/>
	<circle cx="313.516" cy="697.317" r="4" fill="#0" id="circle53"/>
	<circle cx="315.064" cy="154.115" r="4" fill="#0" id="circle54"/>
	<circle cx="321.254" cy="671.008" r="4" fill="#0" id="circle55"/>
	<circle cx="321.254" cy="732.911" r="4" fill="#0" id="circle56"/>
	<circle cx="325.897" cy="686.484" r="4" fill="#0" id="circle57"/>
	<circle cx="327.445" cy="143.282" r="4" fill="#0" id="circle58"/>
	<circle cx="335.183" cy="740.649" r="4" fill="#0" id="circle59"/>
	<circle cx="336.73" cy="671.008" r="4" fill="#0" id="circle60"/>
	<circle cx="338.278" cy="130.902" r="4" fill="#0" id="circle61"/>
	<circle cx="349.111" cy="731.363" r="4" fill="#0" id="circle62"/>
	<circle cx="350.658" cy="120.069" r="4" fill="#0" id="circle63"/>
	<circle cx="361.491" cy="107.688" r="4" fill="#0" id="circle64"/>
	<circle cx="364.587" cy="725.173" r="4" fill="#0" id="circle65"/>
	<circle cx="367.682" cy="740.649" r="4" fill="#0" id="circle66"/>
	<circle cx="373.872" cy="96.8549" r="4" fill="#0" id="circle67"/>
	<circle cx="375.42" cy="754.577" r="4" fill="#0" id="circle68"/>
	<circle cx="383.158" cy="768.505" r="4" fill="#0" id="circle69"/>
	<circle cx="387.8" cy="89.117" r="4" fill="#0" id="circle70"/>
	<circle cx="390.895" cy="782.434" r="4" fill="#0" id="circle71"/>
	<circle cx="403.276" cy="81.3791" r="4" fill="#0" id="circle72"/>
	<circle cx="406.371" cy="787.076" r="4" fill="#0" id="circle73"/>
	<circle cx="414.109" cy="801.005" r="4" fill="#0" id="circle74"/>
	<circle cx="415.657" cy="68.9984" r="4" fill="#0" id="circle75"/>
	<circle cx="426.49" cy="810.29" r="4" fill="#0" id="circle76"/>
	<circle cx="428.037" cy="58.1654" r="4" fill="#0" id="circle77"/>
	<circle cx="434.228" cy="42.6895" r="4" fill="#0" id="circle78"/>
	<circle cx="437.323" cy="797.91" r="4" fill="#0" id="circle79"/>
	<circle cx="438.871" cy="771.601" r="4" fill="#0" id="circle80"/>
	<circle cx="441.966" cy="27.2137" r="4" fill="#0" id="circle81"/>
	<circle cx="449.704" cy="808.743" r="4" fill="#0" id="circle82"/>
	<circle cx="452.799" cy="824.218" r="4" fill="#0" id="circle83"/>
	<circle cx="454.346" cy="14.8331" r="4" fill="#0" id="circle84"/>
	<circle cx="460.537" cy="838.147" r="4" fill="#0" id="circle85"/>
	<circle cx="462.084" cy="853.622" r="4" fill="#0" id="circle86"/>
	<circle cx="469.822" cy="7.09516" r="4" fill="#0" id="circle87"/>
	<circle cx="469.822" cy="867.551" r="4" fill="#0" id="circle88"/>
	<circle cx="476.012" cy="883.027" r="4" fill="#0" id="circle89"/>
	<circle cx="485.298" cy="4" r="4" fill="#0" id="circle90"/>
	<circle cx="488.393" cy="893.86" r="4" fill="#0" id="circle91"/>
	<circle cx="499.226" cy="906.24" r="4" fill="#0" id="circle92"/>
	<circle cx="500.774" cy="8.64275" r="4" fill="#0" id="circle93"/>
	<circle cx="508.512" cy="787.076" r="4" fill="#0" id="circle94"/>
	<circle cx="508.512" cy="802.552" r="4" fill="#0" id="circle95"/>
	<circle cx="511.607" cy="21.0234" r="4" fill="#0" id="circle96"/>
	<circle cx="511.607" cy="917.073" r="4" fill="#0" id="circle97"/>
	<circle cx="516.25" cy="816.48" r="4" fill="#0" id="circle98"/>
	<circle cx="516.25" cy="831.956" r="4" fill="#0" id="circle99"/>
	<circle cx="522.44" cy="929.454" r="4" fill="#0" id="circle100"/>
	<circle cx="523.988" cy="31.8565" r="4" fill="#0" id="circle101"/>
	<circle cx="523.988" cy="845.885" r="4" fill="#0" id="circle102"/>
	<circle cx="523.988" cy="861.36" r="4" fill="#0" id="circle103"/>
	<circle cx="531.725" cy="810.29" r="4" fill="#0" id="circle104"/>
	<circle cx="534.821" cy="44.2371" r="4" fill="#0" id="circle105"/>
	<circle cx="534.821" cy="940.287" r="4" fill="#0" id="circle106"/>
	<circle cx="536.368" cy="872.193" r="4" fill="#0" id="circle107"/>
	<circle cx="539.463" cy="771.601" r="4" fill="#0" id="circle108"/>
	<circle cx="539.463" cy="787.076" r="4" fill="#0" id="circle109"/>
	<circle cx="545.654" cy="952.668" r="4" fill="#0" id="circle110"/>
	<circle cx="547.201" cy="55.0702" r="4" fill="#0" id="circle111"/>
	<circle cx="547.201" cy="884.574" r="4" fill="#0" id="circle112"/>
	<circle cx="554.939" cy="787.076" r="4" fill="#0" id="circle113"/>
	<circle cx="558.034" cy="67.4509" r="4" fill="#0" id="circle114"/>
	<circle cx="559.582" cy="895.407" r="4" fill="#0" id="circle115"/>
	<circle cx="561.129" cy="957.31" r="4" fill="#0" id="circle116"/>
	<circle cx="565.772" cy="81.3791" r="4" fill="#0" id="circle117"/>
	<circle cx="567.32" cy="776.243" r="4" fill="#0" id="circle118"/>
	<circle cx="570.415" cy="907.788" r="4" fill="#0" id="circle119"/>
	<circle cx="575.058" cy="965.048" r="4" fill="#0" id="circle120"/>
	<circle cx="576.605" cy="93.7598" r="4" fill="#0" id="circle121"/>
	<circle cx="578.153" cy="725.173" r="4" fill="#0" id="circle122"/>
	<circle cx="578.153" cy="740.649" r="4" fill="#0" id="circle123"/>
	<circle cx="578.153" cy="756.125" r="4" fill="#0" id="circle124"/>
	<circle cx="582.796" cy="917.073" r="4" fill="#0" id="circle125"/>
	<circle cx="588.986" cy="104.593" r="4" fill="#0" id="circle126"/>
	<circle cx="590.534" cy="965.048" r="4" fill="#0" id="circle127"/>
	<circle cx="592.081" cy="717.435" r="4" fill="#0" id="circle128"/>
	<circle cx="596.724" cy="732.911" r="4" fill="#0" id="circle129"/>
	<circle cx="596.724" cy="924.811" r="4" fill="#0" id="circle130"/>
	<circle cx="599.819" cy="116.973" r="4" fill="#0" id="circle131"/>
	<circle cx="601.367" cy="640.056" r="4" fill="#0" id="circle132"/>
	<circle cx="601.367" cy="655.532" r="4" fill="#0" id="circle133"/>
	<circle cx="604.462" cy="972.786" r="4" fill="#0" id="circle134"/>
	<circle cx="609.105" cy="669.46" r="4" fill="#0" id="circle135"/>
	<circle cx="610.652" cy="932.549" r="4" fill="#0" id="circle136"/>
	<circle cx="612.2" cy="127.807" r="4" fill="#0" id="circle137"/>
	<circle cx="612.2" cy="739.101" r="4" fill="#0" id="circle138"/>
	<circle cx="615.295" cy="647.794" r="4" fill="#0" id="circle139"/>
	<circle cx="616.842" cy="683.388" r="4" fill="#0" id="circle140"/>
	<circle cx="616.842" cy="983.619" r="4" fill="#0" id="circle141"/>
	<circle cx="623.033" cy="140.187" r="4" fill="#0" id="circle142"/>
	<circle cx="624.58" cy="660.175" r="4" fill="#0" id="circle143"/>
	<circle cx="624.58" cy="940.287" r="4" fill="#0" id="circle144"/>
	<circle cx="627.676" cy="739.101" r="4" fill="#0" id="circle145"/>
	<circle cx="629.223" cy="694.222" r="4" fill="#0" id="circle146"/>
	<circle cx="632.318" cy="988.262" r="4" fill="#0" id="circle147"/>
	<circle cx="635.413" cy="151.02" r="4" fill="#0" id="circle148"/>
	<circle cx="635.413" cy="723.626" r="4" fill="#0" id="circle149"/>
	<circle cx="636.961" cy="671.008" r="4" fill="#0" id="circle150"/>
	<circle cx="640.056" cy="706.602" r="4" fill="#0" id="circle151"/>
	<circle cx="640.056" cy="940.287" r="4" fill="#0" id="circle152"/>
	<circle cx="646.246" cy="163.401" r="4" fill="#0" id="circle153"/>
	<circle cx="647.794" cy="988.262" r="4" fill="#0" id="circle154"/>
	<circle cx="650.889" cy="678.746" r="4" fill="#0" id="circle155"/>
	<circle cx="655.532" cy="940.287" r="4" fill="#0" id="circle156"/>
	<circle cx="658.627" cy="174.234" r="4" fill="#0" id="circle157"/>
	<circle cx="663.27" cy="988.262" r="4" fill="#0" id="circle158"/>
	<circle cx="664.817" cy="671.008" r="4" fill="#0" id="circle159"/>
	<circle cx="671.008" cy="935.644" r="4" fill="#0" id="circle160"/>
	<circle cx="672.555" cy="181.972" r="4" fill="#0" id="circle161"/>
	<circle cx="678.746" cy="991.357" r="4" fill="#0" id="circle162"/>
	<circle cx="680.293" cy="671.008" r="4" fill="#0" id="circle163"/>
	<circle cx="684.936" cy="192.805" r="4" fill="#0" id="circle164"/>
	<circle cx="686.484" cy="937.192" r="4" fill="#0" id="circle165"/>
	<circle cx="694.222" cy="205.186" r="4" fill="#0" id="circle166"/>
	<circle cx="694.222" cy="663.27" r="4" fill="#0" id="circle167"/>
	<circle cx="694.222" cy="996" r="4" fill="#0" id="circle168"/>
	<circle cx="701.959" cy="940.287" r="4" fill="#0" id="circle169"/>
	<circle cx="708.15" cy="212.924" r="4" fill="#0" id="circle170"/>
	<circle cx="709.697" cy="655.532" r="4" fill="#0" id="circle171"/>
	<circle cx="709.697" cy="996" r="4" fill="#0" id="circle172"/>
	<circle cx="717.435" cy="940.287" r="4" fill="#0" id="circle173"/>
	<circle cx="722.078" cy="220.661" r="4" fill="#0" id="circle174"/>
	<circle cx="722.078" cy="985.167" r="4" fill="#0" id="circle175"/>
	<circle cx="723.626" cy="647.794" r="4" fill="#0" id="circle176"/>
	<circle cx="732.911" cy="940.287" r="4" fill="#0" id="circle177"/>
	<circle cx="736.006" cy="228.399" r="4" fill="#0" id="circle178"/>
	<circle cx="736.006" cy="638.509" r="4" fill="#0" id="circle179"/>
	<circle cx="737.554" cy="980.524" r="4" fill="#0" id="circle180"/>
	<circle cx="748.387" cy="624.58" r="4" fill="#0" id="circle181"/>
	<circle cx="748.387" cy="940.287" r="4" fill="#0" id="circle182"/>
	<circle cx="749.934" cy="236.137" r="4" fill="#0" id="circle183"/>
	<circle cx="753.03" cy="980.524" r="4" fill="#0" id="circle184"/>
	<circle cx="760.768" cy="613.747" r="4" fill="#0" id="circle185"/>
	<circle cx="763.863" cy="243.875" r="4" fill="#0" id="circle186"/>
	<circle cx="763.863" cy="935.644" r="4" fill="#0" id="circle187"/>
	<circle cx="766.958" cy="972.786" r="4" fill="#0" id="circle188"/>
	<circle cx="771.601" cy="601.367" r="4" fill="#0" id="circle189"/>
	<circle cx="776.243" cy="253.161" r="4" fill="#0" id="circle190"/>
	<circle cx="779.339" cy="927.906" r="4" fill="#0" id="circle191"/>
	<circle cx="782.434" cy="972.786" r="4" fill="#0" id="circle192"/>
	<circle cx="785.529" cy="593.629" r="4" fill="#0" id="circle193"/>
	<circle cx="790.172" cy="260.899" r="4" fill="#0" id="circle194"/>
	<circle cx="794.814" cy="924.811" r="4" fill="#0" id="circle195"/>
	<circle cx="797.91" cy="584.343" r="4" fill="#0" id="circle196"/>
	<circle cx="797.91" cy="971.239" r="4" fill="#0" id="circle197"/>
	<circle cx="805.647" cy="267.089" r="4" fill="#0" id="circle198"/>
	<circle cx="808.743" cy="766.958" r="4" fill="#0" id="circle199"/>
	<circle cx="810.29" cy="570.415" r="4" fill="#0" id="circle200"/>
	<circle cx="810.29" cy="924.811" r="4" fill="#0" id="circle201"/>
	<circle cx="813.385" cy="965.048" r="4" fill="#0" id="circle202"/>
	<circle cx="816.48" cy="279.47" r="4" fill="#0" id="circle203"/>
	<circle cx="816.48" cy="780.886" r="4" fill="#0" id="circle204"/>
	<circle cx="822.671" cy="559.582" r="4" fill="#0" id="circle205"/>
	<circle cx="824.218" cy="762.315" r="4" fill="#0" id="circle206"/>
	<circle cx="825.766" cy="920.168" r="4" fill="#0" id="circle207"/>
	<circle cx="827.314" cy="793.267" r="4" fill="#0" id="circle208"/>
	<circle cx="827.314" cy="957.31" r="4" fill="#0" id="circle209"/>
	<circle cx="831.956" cy="282.565" r="4" fill="#0" id="circle210"/>
	<circle cx="833.504" cy="547.201" r="4" fill="#0" id="circle211"/>
	<circle cx="838.147" cy="909.335" r="4" fill="#0" id="circle212"/>
	<circle cx="839.694" cy="765.41" r="4" fill="#0" id="circle213"/>
	<circle cx="841.242" cy="949.573" r="4" fill="#0" id="circle214"/>
	<circle cx="842.789" cy="799.457" r="4" fill="#0" id="circle215"/>
	<circle cx="845.885" cy="290.303" r="4" fill="#0" id="circle216"/>
	<circle cx="845.885" cy="536.368" r="4" fill="#0" id="circle217"/>
	<circle cx="848.98" cy="896.955" r="4" fill="#0" id="circle218"/>
	<circle cx="853.622" cy="773.148" r="4" fill="#0" id="circle219"/>
	<circle cx="855.17" cy="808.743" r="4" fill="#0" id="circle220"/>
	<circle cx="855.17" cy="941.835" r="4" fill="#0" id="circle221"/>
	<circle cx="856.718" cy="523.988" r="4" fill="#0" id="circle222"/>
	<circle cx="859.813" cy="298.041" r="4" fill="#0" id="circle223"/>
	<circle cx="861.36" cy="886.122" r="4" fill="#0" id="circle224"/>
	<circle cx="862.908" cy="822.671" r="4" fill="#0" id="circle225"/>
	<circle cx="869.098" cy="513.154" r="4" fill="#0" id="circle226"/>
	<circle cx="869.098" cy="777.791" r="4" fill="#0" id="circle227"/>
	<circle cx="869.098" cy="934.097" r="4" fill="#0" id="circle228"/>
	<circle cx="870.646" cy="310.421" r="4" fill="#0" id="circle229"/>
	<circle cx="870.646" cy="836.599" r="4" fill="#0" id="circle230"/>
	<circle cx="872.193" cy="873.741" r="4" fill="#0" id="circle231"/>
	<circle cx="878.384" cy="850.527" r="4" fill="#0" id="circle232"/>
	<circle cx="879.931" cy="500.774" r="4" fill="#0" id="circle233"/>
	<circle cx="883.027" cy="321.254" r="4" fill="#0" id="circle234"/>
	<circle cx="883.027" cy="785.529" r="4" fill="#0" id="circle235"/>
	<circle cx="883.027" cy="924.811" r="4" fill="#0" id="circle236"/>
	<circle cx="892.312" cy="489.941" r="4" fill="#0" id="circle237"/>
	<circle cx="895.407" cy="910.883" r="4" fill="#0" id="circle238"/>
	<circle cx="896.955" cy="328.992" r="4" fill="#0" id="circle239"/>
	<circle cx="896.955" cy="793.267" r="4" fill="#0" id="circle240"/>
	<circle cx="903.145" cy="469.822" r="4" fill="#0" id="circle241"/>
	<circle cx="903.145" cy="808.743" r="4" fill="#0" id="circle242"/>
	<circle cx="907.788" cy="900.05" r="4" fill="#0" id="circle243"/>
	<circle cx="909.335" cy="339.825" r="4" fill="#0" id="circle244"/>
	<circle cx="910.883" cy="454.346" r="4" fill="#0" id="circle245"/>
	<circle cx="910.883" cy="822.671" r="4" fill="#0" id="circle246"/>
	<circle cx="910.883" cy="879.931" r="4" fill="#0" id="circle247"/>
	<circle cx="918.621" cy="352.206" r="4" fill="#0" id="circle248"/>
	<circle cx="918.621" cy="836.599" r="4" fill="#0" id="circle249"/>
	<circle cx="918.621" cy="852.075" r="4" fill="#0" id="circle250"/>
	<circle cx="923.264" cy="443.513" r="4" fill="#0" id="circle251"/>
	<circle cx="926.359" cy="366.134" r="4" fill="#0" id="circle252"/>
	<circle cx="934.097" cy="380.062" r="4" fill="#0" id="circle253"/>
	<circle cx="934.097" cy="415.657" r="4" fill="#0" id="circle254"/>
	<circle cx="934.097" cy="431.133" r="4" fill="#0" id="circle255"/>
	<circle cx="941.835" cy="393.991" r="4" fill="#0" id="circle256"/>
	</g>
</svg>