<?xml version="1.0" encoding="UTF-8" standalone="no"?>
<!-- Created with CurveBenchmark -->
<svg
	xmlns:dc="http://purl.org/dc/elements/1.1/"
	xmlns:cc="http://creativecommons.org/ns#"
	xmlns:rdf="http://www.w3.org/1999/02/22-rdf-syntax-ns#"
	xmlns:svg="http://www.w3.org/2000/svg"
	xmlns="http://www.w3.org/2000/svg"
	xmlns:sodipodi="http://sodipodi.sourceforge.net/DTD/sodipodi-0.dtd"
	xmlns:inkscape="http://www.inkscape.org/namespaces/inkscape"
	width="1000"
	height="1000"
	id="svg2"
	version="1.1"
	sodipodi:docname="manifold/gathang-fish340.png.txt">
<defs
	id="defs4" />
<metadata
	id="metadata7">
	<rdf:RDF>
		<cc:Work
			rdf:about="">
			<dc:format>image/svg+xml</dc:format>
			<dc:type
				rdf:resource="http://purl.org/dc/dcmitype/StillImage" />
			<dc:title></dc:title>
		</cc:Work>
	</rdf:RDF>
</metadata>
<g
	inkscape:label="Layer 1"
	inkscape:groupmode="layer"
	id="layer1">
	<path style="fill:none;stroke:red;stroke-width:1px;stroke-linecap:butt;stroke-linejoin:miter;stroke-opacity:1" d="M 86.9134,169.827 110.603,152.06 z" id="boundary" inkscape:connector-curvature="0" />
	<path style="fill:none;stroke:red;stroke-width:1px;stroke-linecap:butt;stroke-linejoin:miter;stroke-opacity:1" d="M 86.9134,169.827 57.3015,181.672 z" id="boundary" inkscape:connector-curvature="0" />
	<path style="fill:none;stroke:red;stroke-width:1px;stroke-linecap:butt;stroke-linejoin:miter;stroke-opacity:1" d="M 199.439,122.448 169.827,134.293 z" id="boundary" inkscape:connector-curvature="0" />
	<path style="fill:none;stroke:red;stroke-width:1px;stroke-linecap:butt;stroke-linejoin:miter;stroke-opacity:1" d="M 169.827,134.293 140.215,140.215 z" id="boundary" inkscape:connector-curvature="0" />
	<path style="fill:none;stroke:red;stroke-width:1px;stroke-linecap:butt;stroke-linejoin:miter;stroke-opacity:1" d="M 110.603,152.06 140.215,140.215 z" id="boundary" inkscape:connector-curvature="0" />
	<path style="fill:none;stroke:red;stroke-width:1px;stroke-linecap:butt;stroke-linejoin:miter;stroke-opacity:1" d="M 9.92239,240.896 4,211.284 z" id="boundary" inkscape:connector-curvature="0" />
	<path style="fill:none;stroke:red;stroke-width:1px;stroke-linecap:butt;stroke-linejoin:miter;stroke-opacity:1" d="M 4,211.284 30.6507,196.478 z" id="boundary" inkscape:connector-curvature="0" />
	<path style="fill:none;stroke:red;stroke-width:1px;stroke-linecap:butt;stroke-linejoin:miter;stroke-opacity:1" d="M 30.6507,196.478 57.3015,181.672 z" id="boundary" inkscape:connector-curvature="0" />
	<path style="fill:none;stroke:red;stroke-width:1px;stroke-linecap:butt;stroke-linejoin:miter;stroke-opacity:1" d="M 54.3403,285.313 30.6507,264.585 z" id="boundary" inkscape:connector-curvature="0" />
	<path style="fill:none;stroke:red;stroke-width:1px;stroke-linecap:butt;stroke-linejoin:miter;stroke-opacity:1" d="M 30.6507,264.585 9.92239,240.896 z" id="boundary" inkscape:connector-curvature="0" />
	<path style="fill:none;stroke:red;stroke-width:1px;stroke-linecap:butt;stroke-linejoin:miter;stroke-opacity:1" d="M 323.809,33.6119 341.576,4 z" id="boundary" inkscape:connector-curvature="0" />
	<path style="fill:none;stroke:red;stroke-width:1px;stroke-linecap:butt;stroke-linejoin:miter;stroke-opacity:1" d="M 341.576,4 371.188,9.92239 z" id="boundary" inkscape:connector-curvature="0" />
	<path style="fill:none;stroke:red;stroke-width:1px;stroke-linecap:butt;stroke-linejoin:miter;stroke-opacity:1" d="M 323.809,33.6119 294.197,51.3791 z" id="boundary" inkscape:connector-curvature="0" />
	<path style="fill:none;stroke:red;stroke-width:1px;stroke-linecap:butt;stroke-linejoin:miter;stroke-opacity:1" d="M 400.8,18.806 371.188,9.92239 z" id="boundary" inkscape:connector-curvature="0" />
	<path style="fill:none;stroke:red;stroke-width:1px;stroke-linecap:butt;stroke-linejoin:miter;stroke-opacity:1" d="M 430.412,30.6507 400.8,18.806 z" id="boundary" inkscape:connector-curvature="0" />
	<path style="fill:none;stroke:red;stroke-width:1px;stroke-linecap:butt;stroke-linejoin:miter;stroke-opacity:1" d="M 460.024,36.5731 430.412,30.6507 z" id="boundary" inkscape:connector-curvature="0" />
	<path style="fill:none;stroke:red;stroke-width:1px;stroke-linecap:butt;stroke-linejoin:miter;stroke-opacity:1" d="M 199.439,122.448 229.051,110.603 z" id="boundary" inkscape:connector-curvature="0" />
	<path style="fill:none;stroke:red;stroke-width:1px;stroke-linecap:butt;stroke-linejoin:miter;stroke-opacity:1" d="M 258.663,104.681 229.051,110.603 z" id="boundary" inkscape:connector-curvature="0" />
	<path style="fill:none;stroke:red;stroke-width:1px;stroke-linecap:butt;stroke-linejoin:miter;stroke-opacity:1" d="M 288.275,98.7582 258.663,104.681 z" id="boundary" inkscape:connector-curvature="0" />
	<path style="fill:none;stroke:red;stroke-width:1px;stroke-linecap:butt;stroke-linejoin:miter;stroke-opacity:1" d="M 460.024,36.5731 486.675,51.3791 z" id="boundary" inkscape:connector-curvature="0" />
	<path style="fill:none;stroke:red;stroke-width:1px;stroke-linecap:butt;stroke-linejoin:miter;stroke-opacity:1" d="M 516.287,57.3015 486.675,51.3791 z" id="boundary" inkscape:connector-curvature="0" />
	<path style="fill:none;stroke:red;stroke-width:1px;stroke-linecap:butt;stroke-linejoin:miter;stroke-opacity:1" d="M 78.0299,303.081 54.3403,285.313 z" id="boundary" inkscape:connector-curvature="0" />
	<path style="fill:none;stroke:red;stroke-width:1px;stroke-linecap:butt;stroke-linejoin:miter;stroke-opacity:1" d="M 101.719,320.848 131.331,332.693 z" id="boundary" inkscape:connector-curvature="0" />
	<path style="fill:none;stroke:red;stroke-width:1px;stroke-linecap:butt;stroke-linejoin:miter;stroke-opacity:1" d="M 101.719,320.848 78.0299,303.081 z" id="boundary" inkscape:connector-curvature="0" />
	<path style="fill:none;stroke:red;stroke-width:1px;stroke-linecap:butt;stroke-linejoin:miter;stroke-opacity:1" d="M 131.331,332.693 160.943,344.537 z" id="boundary" inkscape:connector-curvature="0" />
	<path style="fill:none;stroke:red;stroke-width:1px;stroke-linecap:butt;stroke-linejoin:miter;stroke-opacity:1" d="M 190.555,356.382 160.943,344.537 z" id="boundary" inkscape:connector-curvature="0" />
	<path style="fill:none;stroke:red;stroke-width:1px;stroke-linecap:butt;stroke-linejoin:miter;stroke-opacity:1" d="M 190.555,356.382 220.167,368.227 z" id="boundary" inkscape:connector-curvature="0" />
	<path style="fill:none;stroke:red;stroke-width:1px;stroke-linecap:butt;stroke-linejoin:miter;stroke-opacity:1" d="M 249.779,374.149 279.391,380.072 z" id="boundary" inkscape:connector-curvature="0" />
	<path style="fill:none;stroke:red;stroke-width:1px;stroke-linecap:butt;stroke-linejoin:miter;stroke-opacity:1" d="M 279.391,380.072 288.275,409.684 z" id="boundary" inkscape:connector-curvature="0" />
	<path style="fill:none;stroke:red;stroke-width:1px;stroke-linecap:butt;stroke-linejoin:miter;stroke-opacity:1" d="M 220.167,368.227 249.779,374.149 z" id="boundary" inkscape:connector-curvature="0" />
	<path style="fill:none;stroke:red;stroke-width:1px;stroke-linecap:butt;stroke-linejoin:miter;stroke-opacity:1" d="M 288.275,409.684 306.042,433.373 z" id="boundary" inkscape:connector-curvature="0" />
	<path style="fill:none;stroke:red;stroke-width:1px;stroke-linecap:butt;stroke-linejoin:miter;stroke-opacity:1" d="M 471.869,368.227 501.481,368.227 z" id="boundary" inkscape:connector-curvature="0" />
	<path style="fill:none;stroke:red;stroke-width:1px;stroke-linecap:butt;stroke-linejoin:miter;stroke-opacity:1" d="M 457.063,394.878 442.257,368.227 z" id="boundary" inkscape:connector-curvature="0" />
	<path style="fill:none;stroke:red;stroke-width:1px;stroke-linecap:butt;stroke-linejoin:miter;stroke-opacity:1" d="M 442.257,368.227 471.869,368.227 z" id="boundary" inkscape:connector-curvature="0" />
	<path style="fill:none;stroke:red;stroke-width:1px;stroke-linecap:butt;stroke-linejoin:miter;stroke-opacity:1" d="M 454.101,451.14 457.063,394.878 z" id="boundary" inkscape:connector-curvature="0" />
	<path style="fill:none;stroke:red;stroke-width:1px;stroke-linecap:butt;stroke-linejoin:miter;stroke-opacity:1" d="M 377.11,474.83 347.499,474.83 z" id="boundary" inkscape:connector-curvature="0" />
	<path style="fill:none;stroke:red;stroke-width:1px;stroke-linecap:butt;stroke-linejoin:miter;stroke-opacity:1" d="M 347.499,474.83 323.809,457.063 z" id="boundary" inkscape:connector-curvature="0" />
	<path style="fill:none;stroke:red;stroke-width:1px;stroke-linecap:butt;stroke-linejoin:miter;stroke-opacity:1" d="M 323.809,457.063 306.042,433.373 z" id="boundary" inkscape:connector-curvature="0" />
	<path style="fill:none;stroke:red;stroke-width:1px;stroke-linecap:butt;stroke-linejoin:miter;stroke-opacity:1" d="M 454.101,451.14 436.334,474.83 z" id="boundary" inkscape:connector-curvature="0" />
	<path style="fill:none;stroke:red;stroke-width:1px;stroke-linecap:butt;stroke-linejoin:miter;stroke-opacity:1" d="M 436.334,474.83 406.722,474.83 z" id="boundary" inkscape:connector-curvature="0" />
	<path style="fill:none;stroke:red;stroke-width:1px;stroke-linecap:butt;stroke-linejoin:miter;stroke-opacity:1" d="M 406.722,474.83 377.11,474.83 z" id="boundary" inkscape:connector-curvature="0" />
	<path style="fill:none;stroke:red;stroke-width:1px;stroke-linecap:butt;stroke-linejoin:miter;stroke-opacity:1" d="M 501.481,368.227 531.093,362.304 z" id="boundary" inkscape:connector-curvature="0" />
	<path style="fill:none;stroke:red;stroke-width:1px;stroke-linecap:butt;stroke-linejoin:miter;stroke-opacity:1" d="M 542.937,72.1075 566.627,92.8358 z" id="boundary" inkscape:connector-curvature="0" />
	<path style="fill:none;stroke:red;stroke-width:1px;stroke-linecap:butt;stroke-linejoin:miter;stroke-opacity:1" d="M 542.937,72.1075 516.287,57.3015 z" id="boundary" inkscape:connector-curvature="0" />
	<path style="fill:none;stroke:red;stroke-width:1px;stroke-linecap:butt;stroke-linejoin:miter;stroke-opacity:1" d="M 625.851,86.9134 655.463,75.0687 z" id="boundary" inkscape:connector-curvature="0" />
	<path style="fill:none;stroke:red;stroke-width:1px;stroke-linecap:butt;stroke-linejoin:miter;stroke-opacity:1" d="M 655.463,75.0687 685.075,80.991 z" id="boundary" inkscape:connector-curvature="0" />
	<path style="fill:none;stroke:red;stroke-width:1px;stroke-linecap:butt;stroke-linejoin:miter;stroke-opacity:1" d="M 685.075,80.991 708.764,98.7582 z" id="boundary" inkscape:connector-curvature="0" />
	<path style="fill:none;stroke:red;stroke-width:1px;stroke-linecap:butt;stroke-linejoin:miter;stroke-opacity:1" d="M 566.627,92.8358 596.239,98.7582 z" id="boundary" inkscape:connector-curvature="0" />
	<path style="fill:none;stroke:red;stroke-width:1px;stroke-linecap:butt;stroke-linejoin:miter;stroke-opacity:1" d="M 625.851,86.9134 596.239,98.7582 z" id="boundary" inkscape:connector-curvature="0" />
	<path style="fill:none;stroke:red;stroke-width:1px;stroke-linecap:butt;stroke-linejoin:miter;stroke-opacity:1" d="M 732.454,116.525 708.764,98.7582 z" id="boundary" inkscape:connector-curvature="0" />
	<path style="fill:none;stroke:red;stroke-width:1px;stroke-linecap:butt;stroke-linejoin:miter;stroke-opacity:1" d="M 756.143,137.254 732.454,116.525 z" id="boundary" inkscape:connector-curvature="0" />
	<path style="fill:none;stroke:red;stroke-width:1px;stroke-linecap:butt;stroke-linejoin:miter;stroke-opacity:1" d="M 877.552,155.021 907.164,143.176 z" id="boundary" inkscape:connector-curvature="0" />
	<path style="fill:none;stroke:red;stroke-width:1px;stroke-linecap:butt;stroke-linejoin:miter;stroke-opacity:1" d="M 877.552,155.021 850.901,169.827 z" id="boundary" inkscape:connector-curvature="0" />
	<path style="fill:none;stroke:red;stroke-width:1px;stroke-linecap:butt;stroke-linejoin:miter;stroke-opacity:1" d="M 936.776,131.331 966.388,122.448 z" id="boundary" inkscape:connector-curvature="0" />
	<path style="fill:none;stroke:red;stroke-width:1px;stroke-linecap:butt;stroke-linejoin:miter;stroke-opacity:1" d="M 936.776,131.331 907.164,143.176 z" id="boundary" inkscape:connector-curvature="0" />
	<path style="fill:none;stroke:red;stroke-width:1px;stroke-linecap:butt;stroke-linejoin:miter;stroke-opacity:1" d="M 966.388,122.448 996,128.37 z" id="boundary" inkscape:connector-curvature="0" />
	<path style="fill:none;stroke:red;stroke-width:1px;stroke-linecap:butt;stroke-linejoin:miter;stroke-opacity:1" d="M 996,128.37 984.155,169.827 z" id="boundary" inkscape:connector-curvature="0" />
	<path style="fill:none;stroke:red;stroke-width:1px;stroke-linecap:butt;stroke-linejoin:miter;stroke-opacity:1" d="M 821.29,181.672 791.678,184.633 z" id="boundary" inkscape:connector-curvature="0" />
	<path style="fill:none;stroke:red;stroke-width:1px;stroke-linecap:butt;stroke-linejoin:miter;stroke-opacity:1" d="M 791.678,184.633 773.91,160.943 z" id="boundary" inkscape:connector-curvature="0" />
	<path style="fill:none;stroke:red;stroke-width:1px;stroke-linecap:butt;stroke-linejoin:miter;stroke-opacity:1" d="M 850.901,169.827 821.29,181.672 z" id="boundary" inkscape:connector-curvature="0" />
	<path style="fill:none;stroke:red;stroke-width:1px;stroke-linecap:butt;stroke-linejoin:miter;stroke-opacity:1" d="M 756.143,137.254 773.91,160.943 z" id="boundary" inkscape:connector-curvature="0" />
	<path style="fill:none;stroke:red;stroke-width:1px;stroke-linecap:butt;stroke-linejoin:miter;stroke-opacity:1" d="M 978.233,229.051 978.233,199.439 z" id="boundary" inkscape:connector-curvature="0" />
	<path style="fill:none;stroke:red;stroke-width:1px;stroke-linecap:butt;stroke-linejoin:miter;stroke-opacity:1" d="M 978.233,199.439 984.155,169.827 z" id="boundary" inkscape:connector-curvature="0" />
	<path style="fill:none;stroke:red;stroke-width:1px;stroke-linecap:butt;stroke-linejoin:miter;stroke-opacity:1" d="M 619.928,356.382 590.316,362.304 z" id="boundary" inkscape:connector-curvature="0" />
	<path style="fill:none;stroke:red;stroke-width:1px;stroke-linecap:butt;stroke-linejoin:miter;stroke-opacity:1" d="M 560.704,362.304 531.093,362.304 z" id="boundary" inkscape:connector-curvature="0" />
	<path style="fill:none;stroke:red;stroke-width:1px;stroke-linecap:butt;stroke-linejoin:miter;stroke-opacity:1" d="M 782.794,288.275 776.872,317.887 z" id="boundary" inkscape:connector-curvature="0" />
	<path style="fill:none;stroke:red;stroke-width:1px;stroke-linecap:butt;stroke-linejoin:miter;stroke-opacity:1" d="M 649.54,368.227 619.928,356.382 z" id="boundary" inkscape:connector-curvature="0" />
	<path style="fill:none;stroke:red;stroke-width:1px;stroke-linecap:butt;stroke-linejoin:miter;stroke-opacity:1" d="M 782.794,288.275 812.406,285.313 z" id="boundary" inkscape:connector-curvature="0" />
	<path style="fill:none;stroke:red;stroke-width:1px;stroke-linecap:butt;stroke-linejoin:miter;stroke-opacity:1" d="M 762.066,356.382 776.872,317.887 z" id="boundary" inkscape:connector-curvature="0" />
	<path style="fill:none;stroke:red;stroke-width:1px;stroke-linecap:butt;stroke-linejoin:miter;stroke-opacity:1" d="M 590.316,362.304 560.704,362.304 z" id="boundary" inkscape:connector-curvature="0" />
	<path style="fill:none;stroke:red;stroke-width:1px;stroke-linecap:butt;stroke-linejoin:miter;stroke-opacity:1" d="M 649.54,368.227 679.152,374.149 z" id="boundary" inkscape:connector-curvature="0" />
	<path style="fill:none;stroke:red;stroke-width:1px;stroke-linecap:butt;stroke-linejoin:miter;stroke-opacity:1" d="M 708.764,380.072 679.152,374.149 z" id="boundary" inkscape:connector-curvature="0" />
	<path style="fill:none;stroke:red;stroke-width:1px;stroke-linecap:butt;stroke-linejoin:miter;stroke-opacity:1" d="M 708.764,380.072 738.376,380.072 z" id="boundary" inkscape:connector-curvature="0" />
	<path style="fill:none;stroke:red;stroke-width:1px;stroke-linecap:butt;stroke-linejoin:miter;stroke-opacity:1" d="M 762.066,356.382 738.376,380.072 z" id="boundary" inkscape:connector-curvature="0" />
	<path style="fill:none;stroke:red;stroke-width:1px;stroke-linecap:butt;stroke-linejoin:miter;stroke-opacity:1" d="M 842.018,297.158 865.707,314.925 z" id="boundary" inkscape:connector-curvature="0" />
	<path style="fill:none;stroke:red;stroke-width:1px;stroke-linecap:butt;stroke-linejoin:miter;stroke-opacity:1" d="M 842.018,297.158 812.406,285.313 z" id="boundary" inkscape:connector-curvature="0" />
	<path style="fill:none;stroke:red;stroke-width:1px;stroke-linecap:butt;stroke-linejoin:miter;stroke-opacity:1" d="M 990.078,317.887 981.194,288.275 z" id="boundary" inkscape:connector-curvature="0" />
	<path style="fill:none;stroke:red;stroke-width:1px;stroke-linecap:butt;stroke-linejoin:miter;stroke-opacity:1" d="M 981.194,288.275 978.233,258.663 z" id="boundary" inkscape:connector-curvature="0" />
	<path style="fill:none;stroke:red;stroke-width:1px;stroke-linecap:butt;stroke-linejoin:miter;stroke-opacity:1" d="M 978.233,258.663 978.233,229.051 z" id="boundary" inkscape:connector-curvature="0" />
	<path style="fill:none;stroke:red;stroke-width:1px;stroke-linecap:butt;stroke-linejoin:miter;stroke-opacity:1" d="M 921.97,341.576 892.358,329.731 z" id="boundary" inkscape:connector-curvature="0" />
	<path style="fill:none;stroke:red;stroke-width:1px;stroke-linecap:butt;stroke-linejoin:miter;stroke-opacity:1" d="M 892.358,329.731 865.707,314.925 z" id="boundary" inkscape:connector-curvature="0" />
	<path style="fill:none;stroke:red;stroke-width:1px;stroke-linecap:butt;stroke-linejoin:miter;stroke-opacity:1" d="M 990.078,317.887 981.194,350.46 z" id="boundary" inkscape:connector-curvature="0" />
	<path style="fill:none;stroke:red;stroke-width:1px;stroke-linecap:butt;stroke-linejoin:miter;stroke-opacity:1" d="M 981.194,350.46 951.582,350.46 z" id="boundary" inkscape:connector-curvature="0" />
	<path style="fill:none;stroke:red;stroke-width:1px;stroke-linecap:butt;stroke-linejoin:miter;stroke-opacity:1" d="M 951.582,350.46 921.97,341.576 z" id="boundary" inkscape:connector-curvature="0" />
	<circle cx="4" cy="211.284" r="4" fill="#0" id="circle0"/>
	<circle cx="9.92239" cy="240.896" r="4" fill="#0" id="circle1"/>
	<circle cx="30.6507" cy="196.478" r="4" fill="#0" id="circle2"/>
	<circle cx="30.6507" cy="264.585" r="4" fill="#0" id="circle3"/>
	<circle cx="54.3403" cy="285.313" r="4" fill="#0" id="circle4"/>
	<circle cx="57.3015" cy="181.672" r="4" fill="#0" id="circle5"/>
	<circle cx="78.0299" cy="303.081" r="4" fill="#0" id="circle6"/>
	<circle cx="86.9134" cy="169.827" r="4" fill="#0" id="circle7"/>
	<circle cx="101.719" cy="320.848" r="4" fill="#0" id="circle8"/>
	<circle cx="110.603" cy="152.06" r="4" fill="#0" id="circle9"/>
	<circle cx="131.331" cy="332.693" r="4" fill="#0" id="circle10"/>
	<circle cx="140.215" cy="140.215" r="4" fill="#0" id="circle11"/>
	<circle cx="160.943" cy="344.537" r="4" fill="#0" id="circle12"/>
	<circle cx="169.827" cy="134.293" r="4" fill="#0" id="circle13"/>
	<circle cx="190.555" cy="356.382" r="4" fill="#0" id="circle14"/>
	<circle cx="199.439" cy="122.448" r="4" fill="#0" id="circle15"/>
	<circle cx="220.167" cy="368.227" r="4" fill="#0" id="circle16"/>
	<circle cx="229.051" cy="110.603" r="4" fill="#0" id="circle17"/>
	<circle cx="249.779" cy="374.149" r="4" fill="#0" id="circle18"/>
	<circle cx="258.663" cy="104.681" r="4" fill="#0" id="circle19"/>
	<circle cx="279.391" cy="380.072" r="4" fill="#0" id="circle20"/>
	<circle cx="288.275" cy="98.7582" r="4" fill="#0" id="circle21"/>
	<circle cx="288.275" cy="409.684" r="4" fill="#0" id="circle22"/>
	<circle cx="294.197" cy="51.3791" r="4" fill="#0" id="circle23"/>
	<circle cx="306.042" cy="433.373" r="4" fill="#0" id="circle24"/>
	<circle cx="323.809" cy="33.6119" r="4" fill="#0" id="circle25"/>
	<circle cx="323.809" cy="457.063" r="4" fill="#0" id="circle26"/>
	<circle cx="341.576" cy="4" r="4" fill="#0" id="circle27"/>
	<circle cx="347.499" cy="474.83" r="4" fill="#0" id="circle28"/>
	<circle cx="371.188" cy="9.92239" r="4" fill="#0" id="circle29"/>
	<circle cx="377.11" cy="474.83" r="4" fill="#0" id="circle30"/>
	<circle cx="400.8" cy="18.806" r="4" fill="#0" id="circle31"/>
	<circle cx="406.722" cy="474.83" r="4" fill="#0" id="circle32"/>
	<circle cx="430.412" cy="30.6507" r="4" fill="#0" id="circle33"/>
	<circle cx="436.334" cy="474.83" r="4" fill="#0" id="circle34"/>
	<circle cx="442.257" cy="368.227" r="4" fill="#0" id="circle35"/>
	<circle cx="454.101" cy="451.14" r="4" fill="#0" id="circle36"/>
	<circle cx="457.063" cy="394.878" r="4" fill="#0" id="circle37"/>
	<circle cx="460.024" cy="36.5731" r="4" fill="#0" id="circle38"/>
	<circle cx="471.869" cy="368.227" r="4" fill="#0" id="circle39"/>
	<circle cx="486.675" cy="51.3791" r="4" fill="#0" id="circle40"/>
	<circle cx="501.481" cy="368.227" r="4" fill="#0" id="circle41"/>
	<circle cx="516.287" cy="57.3015" r="4" fill="#0" id="circle42"/>
	<circle cx="531.093" cy="362.304" r="4" fill="#0" id="circle43"/>
	<circle cx="542.937" cy="72.1075" r="4" fill="#0" id="circle44"/>
	<circle cx="560.704" cy="362.304" r="4" fill="#0" id="circle45"/>
	<circle cx="566.627" cy="92.8358" r="4" fill="#0" id="circle46"/>
	<circle cx="590.316" cy="362.304" r="4" fill="#0" id="circle47"/>
	<circle cx="596.239" cy="98.7582" r="4" fill="#0" id="circle48"/>
	<circle cx="619.928" cy="356.382" r="4" fill="#0" id="circle49"/>
	<circle cx="625.851" cy="86.9134" r="4" fill="#0" id="circle50"/>
	<circle cx="649.54" cy="368.227" r="4" fill="#0" id="circle51"/>
	<circle cx="655.463" cy="75.0687" r="4" fill="#0" id="circle52"/>
	<circle cx="679.152" cy="374.149" r="4" fill="#0" id="circle53"/>
	<circle cx="685.075" cy="80.991" r="4" fill="#0" id="circle54"/>
	<circle cx="708.764" cy="98.7582" r="4" fill="#0" id="circle55"/>
	<circle cx="708.764" cy="380.072" r="4" fill="#0" id="circle56"/>
	<circle cx="732.454" cy="116.525" r="4" fill="#0" id="circle57"/>
	<circle cx="738.376" cy="380.072" r="4" fill="#0" id="circle58"/>
	<circle cx="756.143" cy="137.254" r="4" fill="#0" id="circle59"/>
	<circle cx="762.066" cy="356.382" r="4" fill="#0" id="circle60"/>
	<circle cx="773.91" cy="160.943" r="4" fill="#0" id="circle61"/>
	<circle cx="776.872" cy="317.887" r="4" fill="#0" id="circle62"/>
	<circle cx="782.794" cy="288.275" r="4" fill="#0" id="circle63"/>
	<circle cx="791.678" cy="184.633" r="4" fill="#0" id="circle64"/>
	<circle cx="812.406" cy="285.313" r="4" fill="#0" id="circle65"/>
	<circle cx="821.29" cy="181.672" r="4" fill="#0" id="circle66"/>
	<circle cx="842.018" cy="297.158" r="4" fill="#0" id="circle67"/>
	<circle cx="850.901" cy="169.827" r="4" fill="#0" id="circle68"/>
	<circle cx="865.707" cy="314.925" r="4" fill="#0" id="circle69"/>
	<circle cx="877.552" cy="155.021" r="4" fill="#0" id="circle70"/>
	<circle cx="892.358" cy="329.731" r="4" fill="#0" id="circle71"/>
	<circle cx="907.164" cy="143.176" r="4" fill="#0" id="circle72"/>
	<circle cx="921.97" cy="341.576" r="4" fill="#0" id="circle73"/>
	<circle cx="936.776" cy="131.331" r="4" fill="#0" id="circle74"/>
	<circle cx="951.582" cy="350.46" r="4" fill="#0" id="circle75"/>
	<circle cx="966.388" cy="122.448" r="4" fill="#0" id="circle76"/>
	<circle cx="978.233" cy="199.439" r="4" fill="#0" id="circle77"/>
	<circle cx="978.233" cy="229.051" r="4" fill="#0" id="circle78"/>
	<circle cx="978.233" cy="258.663" r="4" fill="#0" id="circle79"/>
	<circle cx="981.194" cy="288.275" r="4" fill="#0" id="circle80"/>
	<circle cx="981.194" cy="350.46" r="4" fill="#0" id="circle81"/>
	<circle cx="984.155" cy="169.827" r="4" fill="#0" id="circle82"/>
	<circle cx="990.078" cy="317.887" r="4" fill="#0" id="circle83"/>
	<circle cx="996" cy="128.37" r="4" fill="#0" id="circle84"/>
	</g>
</svg>