<?xml version="1.0" encoding="UTF-8" standalone="no"?>
<!-- Created with CurveBenchmark -->
<svg
	xmlns:dc="http://purl.org/dc/elements/1.1/"
	xmlns:cc="http://creativecommons.org/ns#"
	xmlns:rdf="http://www.w3.org/1999/02/22-rdf-syntax-ns#"
	xmlns:svg="http://www.w3.org/2000/svg"
	xmlns="http://www.w3.org/2000/svg"
	xmlns:sodipodi="http://sodipodi.sourceforge.net/DTD/sodipodi-0.dtd"
	xmlns:inkscape="http://www.inkscape.org/namespaces/inkscape"
	width="1000"
	height="1000"
	id="svg2"
	version="1.1"
	sodipodi:docname="manifold/gathan1-guitar020.png.txt">
<defs
	id="defs4" />
<metadata
	id="metadata7">
	<rdf:RDF>
		<cc:Work
			rdf:about="">
			<dc:format>image/svg+xml</dc:format>
			<dc:type
				rdf:resource="http://purl.org/dc/dcmitype/StillImage" />
			<dc:title></dc:title>
		</cc:Work>
	</rdf:RDF>
</metadata>
<g
	inkscape:label="Layer 1"
	inkscape:groupmode="layer"
	id="layer1">
	<path style="fill:none;stroke:red;stroke-width:1px;stroke-linecap:butt;stroke-linejoin:miter;stroke-opacity:1" d="M 166.971,28.8 166.971,64.2286 z" id="boundary" inkscape:connector-curvature="0" />
	<path style="fill:none;stroke:red;stroke-width:1px;stroke-linecap:butt;stroke-linejoin:miter;stroke-opacity:1" d="M 166.971,28.8 195.314,7.54286 z" id="boundary" inkscape:connector-curvature="0" />
	<path style="fill:none;stroke:red;stroke-width:1px;stroke-linecap:butt;stroke-linejoin:miter;stroke-opacity:1" d="M 198.857,128 174.057,99.6571 z" id="boundary" inkscape:connector-curvature="0" />
	<path style="fill:none;stroke:red;stroke-width:1px;stroke-linecap:butt;stroke-linejoin:miter;stroke-opacity:1" d="M 166.971,64.2286 174.057,99.6571 z" id="boundary" inkscape:connector-curvature="0" />
	<path style="fill:none;stroke:red;stroke-width:1px;stroke-linecap:butt;stroke-linejoin:miter;stroke-opacity:1" d="M 74.8571,524.8 110.286,510.629 z" id="boundary" inkscape:connector-curvature="0" />
	<path style="fill:none;stroke:red;stroke-width:1px;stroke-linecap:butt;stroke-linejoin:miter;stroke-opacity:1" d="M 181.143,489.371 145.714,503.543 z" id="boundary" inkscape:connector-curvature="0" />
	<path style="fill:none;stroke:red;stroke-width:1px;stroke-linecap:butt;stroke-linejoin:miter;stroke-opacity:1" d="M 145.714,503.543 110.286,510.629 z" id="boundary" inkscape:connector-curvature="0" />
	<path style="fill:none;stroke:red;stroke-width:1px;stroke-linecap:butt;stroke-linejoin:miter;stroke-opacity:1" d="M 74.8571,524.8 53.6,553.143 z" id="boundary" inkscape:connector-curvature="0" />
	<path style="fill:none;stroke:red;stroke-width:1px;stroke-linecap:butt;stroke-linejoin:miter;stroke-opacity:1" d="M 202.4,198.857 195.314,262.629 z" id="boundary" inkscape:connector-curvature="0" />
	<path style="fill:none;stroke:red;stroke-width:1px;stroke-linecap:butt;stroke-linejoin:miter;stroke-opacity:1" d="M 198.857,128 202.4,163.429 z" id="boundary" inkscape:connector-curvature="0" />
	<path style="fill:none;stroke:red;stroke-width:1px;stroke-linecap:butt;stroke-linejoin:miter;stroke-opacity:1" d="M 202.4,163.429 202.4,198.857 z" id="boundary" inkscape:connector-curvature="0" />
	<path style="fill:none;stroke:red;stroke-width:1px;stroke-linecap:butt;stroke-linejoin:miter;stroke-opacity:1" d="M 195.314,298.057 195.314,262.629 z" id="boundary" inkscape:connector-curvature="0" />
	<path style="fill:none;stroke:red;stroke-width:1px;stroke-linecap:butt;stroke-linejoin:miter;stroke-opacity:1" d="M 195.314,298.057 195.314,333.486 z" id="boundary" inkscape:connector-curvature="0" />
	<path style="fill:none;stroke:red;stroke-width:1px;stroke-linecap:butt;stroke-linejoin:miter;stroke-opacity:1" d="M 195.314,368.914 195.314,404.343 z" id="boundary" inkscape:connector-curvature="0" />
	<path style="fill:none;stroke:red;stroke-width:1px;stroke-linecap:butt;stroke-linejoin:miter;stroke-opacity:1" d="M 195.314,439.771 195.314,404.343 z" id="boundary" inkscape:connector-curvature="0" />
	<path style="fill:none;stroke:red;stroke-width:1px;stroke-linecap:butt;stroke-linejoin:miter;stroke-opacity:1" d="M 195.314,368.914 195.314,333.486 z" id="boundary" inkscape:connector-curvature="0" />
	<path style="fill:none;stroke:red;stroke-width:1px;stroke-linecap:butt;stroke-linejoin:miter;stroke-opacity:1" d="M 11.0857,794.057 28.8,762.171 z" id="boundary" inkscape:connector-curvature="0" />
	<path style="fill:none;stroke:red;stroke-width:1px;stroke-linecap:butt;stroke-linejoin:miter;stroke-opacity:1" d="M 4,829.486 11.0857,794.057 z" id="boundary" inkscape:connector-curvature="0" />
	<path style="fill:none;stroke:red;stroke-width:1px;stroke-linecap:butt;stroke-linejoin:miter;stroke-opacity:1" d="M 53.6,553.143 53.6,588.571 z" id="boundary" inkscape:connector-curvature="0" />
	<path style="fill:none;stroke:red;stroke-width:1px;stroke-linecap:butt;stroke-linejoin:miter;stroke-opacity:1" d="M 46.5143,730.286 28.8,762.171 z" id="boundary" inkscape:connector-curvature="0" />
	<path style="fill:none;stroke:red;stroke-width:1px;stroke-linecap:butt;stroke-linejoin:miter;stroke-opacity:1" d="M 4,864.914 4,829.486 z" id="boundary" inkscape:connector-curvature="0" />
	<path style="fill:none;stroke:red;stroke-width:1px;stroke-linecap:butt;stroke-linejoin:miter;stroke-opacity:1" d="M 14.6286,900.343 4,864.914 z" id="boundary" inkscape:connector-curvature="0" />
	<path style="fill:none;stroke:red;stroke-width:1px;stroke-linecap:butt;stroke-linejoin:miter;stroke-opacity:1" d="M 60.6857,957.029 32.3429,932.229 z" id="boundary" inkscape:connector-curvature="0" />
	<path style="fill:none;stroke:red;stroke-width:1px;stroke-linecap:butt;stroke-linejoin:miter;stroke-opacity:1" d="M 32.3429,932.229 14.6286,900.343 z" id="boundary" inkscape:connector-curvature="0" />
	<path style="fill:none;stroke:red;stroke-width:1px;stroke-linecap:butt;stroke-linejoin:miter;stroke-opacity:1" d="M 67.7714,694.857 46.5143,730.286 z" id="boundary" inkscape:connector-curvature="0" />
	<path style="fill:none;stroke:red;stroke-width:1px;stroke-linecap:butt;stroke-linejoin:miter;stroke-opacity:1" d="M 74.8571,659.429 67.7714,694.857 z" id="boundary" inkscape:connector-curvature="0" />
	<path style="fill:none;stroke:red;stroke-width:1px;stroke-linecap:butt;stroke-linejoin:miter;stroke-opacity:1" d="M 60.6857,624 74.8571,659.429 z" id="boundary" inkscape:connector-curvature="0" />
	<path style="fill:none;stroke:red;stroke-width:1px;stroke-linecap:butt;stroke-linejoin:miter;stroke-opacity:1" d="M 60.6857,624 53.6,588.571 z" id="boundary" inkscape:connector-curvature="0" />
	<path style="fill:none;stroke:red;stroke-width:1px;stroke-linecap:butt;stroke-linejoin:miter;stroke-opacity:1" d="M 92.5714,974.743 60.6857,957.029 z" id="boundary" inkscape:connector-curvature="0" />
	<path style="fill:none;stroke:red;stroke-width:1px;stroke-linecap:butt;stroke-linejoin:miter;stroke-opacity:1" d="M 163.429,996 128,988.914 z" id="boundary" inkscape:connector-curvature="0" />
	<path style="fill:none;stroke:red;stroke-width:1px;stroke-linecap:butt;stroke-linejoin:miter;stroke-opacity:1" d="M 128,988.914 92.5714,974.743 z" id="boundary" inkscape:connector-curvature="0" />
	<path style="fill:none;stroke:red;stroke-width:1px;stroke-linecap:butt;stroke-linejoin:miter;stroke-opacity:1" d="M 198.857,996 163.429,996 z" id="boundary" inkscape:connector-curvature="0" />
	<path style="fill:none;stroke:red;stroke-width:1px;stroke-linecap:butt;stroke-linejoin:miter;stroke-opacity:1" d="M 248.457,42.9714 248.457,78.4 z" id="boundary" inkscape:connector-curvature="0" />
	<path style="fill:none;stroke:red;stroke-width:1px;stroke-linecap:butt;stroke-linejoin:miter;stroke-opacity:1" d="M 248.457,78.4 248.457,120.914 z" id="boundary" inkscape:connector-curvature="0" />
	<path style="fill:none;stroke:red;stroke-width:1px;stroke-linecap:butt;stroke-linejoin:miter;stroke-opacity:1" d="M 248.457,156.343 248.457,120.914 z" id="boundary" inkscape:connector-curvature="0" />
	<path style="fill:none;stroke:red;stroke-width:1px;stroke-linecap:butt;stroke-linejoin:miter;stroke-opacity:1" d="M 248.457,156.343 248.457,191.771 z" id="boundary" inkscape:connector-curvature="0" />
	<path style="fill:none;stroke:red;stroke-width:1px;stroke-linecap:butt;stroke-linejoin:miter;stroke-opacity:1" d="M 248.457,227.2 248.457,191.771 z" id="boundary" inkscape:connector-curvature="0" />
	<path style="fill:none;stroke:red;stroke-width:1px;stroke-linecap:butt;stroke-linejoin:miter;stroke-opacity:1" d="M 248.457,227.2 248.457,262.629 z" id="boundary" inkscape:connector-curvature="0" />
	<path style="fill:none;stroke:red;stroke-width:1px;stroke-linecap:butt;stroke-linejoin:miter;stroke-opacity:1" d="M 365.371,574.4 344.114,546.057 z" id="boundary" inkscape:connector-curvature="0" />
	<path style="fill:none;stroke:red;stroke-width:1px;stroke-linecap:butt;stroke-linejoin:miter;stroke-opacity:1" d="M 248.457,262.629 248.457,298.057 z" id="boundary" inkscape:connector-curvature="0" />
	<path style="fill:none;stroke:red;stroke-width:1px;stroke-linecap:butt;stroke-linejoin:miter;stroke-opacity:1" d="M 252,333.486 255.543,368.914 z" id="boundary" inkscape:connector-curvature="0" />
	<path style="fill:none;stroke:red;stroke-width:1px;stroke-linecap:butt;stroke-linejoin:miter;stroke-opacity:1" d="M 252,333.486 248.457,298.057 z" id="boundary" inkscape:connector-curvature="0" />
	<path style="fill:none;stroke:red;stroke-width:1px;stroke-linecap:butt;stroke-linejoin:miter;stroke-opacity:1" d="M 255.543,368.914 255.543,404.343 z" id="boundary" inkscape:connector-curvature="0" />
	<path style="fill:none;stroke:red;stroke-width:1px;stroke-linecap:butt;stroke-linejoin:miter;stroke-opacity:1" d="M 255.543,404.343 255.543,439.771 z" id="boundary" inkscape:connector-curvature="0" />
	<path style="fill:none;stroke:red;stroke-width:1px;stroke-linecap:butt;stroke-linejoin:miter;stroke-opacity:1" d="M 255.543,439.771 255.543,475.2 z" id="boundary" inkscape:connector-curvature="0" />
	<path style="fill:none;stroke:red;stroke-width:1px;stroke-linecap:butt;stroke-linejoin:miter;stroke-opacity:1" d="M 255.543,546.057 255.543,510.629 z" id="boundary" inkscape:connector-curvature="0" />
	<path style="fill:none;stroke:red;stroke-width:1px;stroke-linecap:butt;stroke-linejoin:miter;stroke-opacity:1" d="M 255.543,510.629 255.543,475.2 z" id="boundary" inkscape:connector-curvature="0" />
	<path style="fill:none;stroke:red;stroke-width:1px;stroke-linecap:butt;stroke-linejoin:miter;stroke-opacity:1" d="M 344.114,546.057 308.686,553.143 z" id="boundary" inkscape:connector-curvature="0" />
	<path style="fill:none;stroke:red;stroke-width:1px;stroke-linecap:butt;stroke-linejoin:miter;stroke-opacity:1" d="M 255.543,546.057 276.8,574.4 z" id="boundary" inkscape:connector-curvature="0" />
	<path style="fill:none;stroke:red;stroke-width:1px;stroke-linecap:butt;stroke-linejoin:miter;stroke-opacity:1" d="M 354.743,624 340.571,659.429 z" id="boundary" inkscape:connector-curvature="0" />
	<path style="fill:none;stroke:red;stroke-width:1px;stroke-linecap:butt;stroke-linejoin:miter;stroke-opacity:1" d="M 308.686,553.143 276.8,574.4 z" id="boundary" inkscape:connector-curvature="0" />
	<path style="fill:none;stroke:red;stroke-width:1px;stroke-linecap:butt;stroke-linejoin:miter;stroke-opacity:1" d="M 340.571,659.429 347.657,694.857 z" id="boundary" inkscape:connector-curvature="0" />
	<path style="fill:none;stroke:red;stroke-width:1px;stroke-linecap:butt;stroke-linejoin:miter;stroke-opacity:1" d="M 347.657,694.857 365.371,726.743 z" id="boundary" inkscape:connector-curvature="0" />
	<path style="fill:none;stroke:red;stroke-width:1px;stroke-linecap:butt;stroke-linejoin:miter;stroke-opacity:1" d="M 269.714,992.457 234.286,996 z" id="boundary" inkscape:connector-curvature="0" />
	<path style="fill:none;stroke:red;stroke-width:1px;stroke-linecap:butt;stroke-linejoin:miter;stroke-opacity:1" d="M 305.143,981.829 269.714,992.457 z" id="boundary" inkscape:connector-curvature="0" />
	<path style="fill:none;stroke:red;stroke-width:1px;stroke-linecap:butt;stroke-linejoin:miter;stroke-opacity:1" d="M 368.914,935.771 340.571,964.114 z" id="boundary" inkscape:connector-curvature="0" />
	<path style="fill:none;stroke:red;stroke-width:1px;stroke-linecap:butt;stroke-linejoin:miter;stroke-opacity:1" d="M 340.571,964.114 305.143,981.829 z" id="boundary" inkscape:connector-curvature="0" />
	<path style="fill:none;stroke:red;stroke-width:1px;stroke-linecap:butt;stroke-linejoin:miter;stroke-opacity:1" d="M 234.286,996 198.857,996 z" id="boundary" inkscape:connector-curvature="0" />
	<path style="fill:none;stroke:red;stroke-width:1px;stroke-linecap:butt;stroke-linejoin:miter;stroke-opacity:1" d="M 354.743,624 365.371,574.4 z" id="boundary" inkscape:connector-curvature="0" />
	<path style="fill:none;stroke:red;stroke-width:1px;stroke-linecap:butt;stroke-linejoin:miter;stroke-opacity:1" d="M 383.086,758.629 397.257,794.057 z" id="boundary" inkscape:connector-curvature="0" />
	<path style="fill:none;stroke:red;stroke-width:1px;stroke-linecap:butt;stroke-linejoin:miter;stroke-opacity:1" d="M 383.086,758.629 365.371,726.743 z" id="boundary" inkscape:connector-curvature="0" />
	<path style="fill:none;stroke:red;stroke-width:1px;stroke-linecap:butt;stroke-linejoin:miter;stroke-opacity:1" d="M 390.171,907.429 368.914,935.771 z" id="boundary" inkscape:connector-curvature="0" />
	<path style="fill:none;stroke:red;stroke-width:1px;stroke-linecap:butt;stroke-linejoin:miter;stroke-opacity:1" d="M 404.343,829.486 404.343,864.914 z" id="boundary" inkscape:connector-curvature="0" />
	<path style="fill:none;stroke:red;stroke-width:1px;stroke-linecap:butt;stroke-linejoin:miter;stroke-opacity:1" d="M 404.343,864.914 390.171,907.429 z" id="boundary" inkscape:connector-curvature="0" />
	<path style="fill:none;stroke:red;stroke-width:1px;stroke-linecap:butt;stroke-linejoin:miter;stroke-opacity:1" d="M 404.343,829.486 397.257,794.057 z" id="boundary" inkscape:connector-curvature="0" />
	<path style="fill:none;stroke:red;stroke-width:1px;stroke-linecap:butt;stroke-linejoin:miter;stroke-opacity:1" d="M 195.314,7.54286 230.743,4 z" id="boundary" inkscape:connector-curvature="0" />
	<path style="fill:none;stroke:red;stroke-width:1px;stroke-linecap:butt;stroke-linejoin:miter;stroke-opacity:1" d="M 230.743,4 248.457,42.9714 z" id="boundary" inkscape:connector-curvature="0" />
	<circle cx="4" cy="829.486" r="4" fill="#0" id="circle0"/>
	<circle cx="4" cy="864.914" r="4" fill="#0" id="circle1"/>
	<circle cx="11.0857" cy="794.057" r="4" fill="#0" id="circle2"/>
	<circle cx="14.6286" cy="900.343" r="4" fill="#0" id="circle3"/>
	<circle cx="28.8" cy="762.171" r="4" fill="#0" id="circle4"/>
	<circle cx="32.3429" cy="932.229" r="4" fill="#0" id="circle5"/>
	<circle cx="46.5143" cy="730.286" r="4" fill="#0" id="circle6"/>
	<circle cx="53.6" cy="553.143" r="4" fill="#0" id="circle7"/>
	<circle cx="53.6" cy="588.571" r="4" fill="#0" id="circle8"/>
	<circle cx="60.6857" cy="624" r="4" fill="#0" id="circle9"/>
	<circle cx="60.6857" cy="957.029" r="4" fill="#0" id="circle10"/>
	<circle cx="67.7714" cy="694.857" r="4" fill="#0" id="circle11"/>
	<circle cx="74.8571" cy="524.8" r="4" fill="#0" id="circle12"/>
	<circle cx="74.8571" cy="659.429" r="4" fill="#0" id="circle13"/>
	<circle cx="92.5714" cy="974.743" r="4" fill="#0" id="circle14"/>
	<circle cx="110.286" cy="510.629" r="4" fill="#0" id="circle15"/>
	<circle cx="128" cy="988.914" r="4" fill="#0" id="circle16"/>
	<circle cx="145.714" cy="503.543" r="4" fill="#0" id="circle17"/>
	<circle cx="163.429" cy="996" r="4" fill="#0" id="circle18"/>
	<circle cx="166.971" cy="28.8" r="4" fill="#0" id="circle19"/>
	<circle cx="166.971" cy="64.2286" r="4" fill="#0" id="circle20"/>
	<circle cx="174.057" cy="99.6571" r="4" fill="#0" id="circle21"/>
	<circle cx="181.143" cy="489.371" r="4" fill="#0" id="circle22"/>
	<circle cx="195.314" cy="7.54286" r="4" fill="#0" id="circle23"/>
	<circle cx="195.314" cy="262.629" r="4" fill="#0" id="circle24"/>
	<circle cx="195.314" cy="298.057" r="4" fill="#0" id="circle25"/>
	<circle cx="195.314" cy="333.486" r="4" fill="#0" id="circle26"/>
	<circle cx="195.314" cy="368.914" r="4" fill="#0" id="circle27"/>
	<circle cx="195.314" cy="404.343" r="4" fill="#0" id="circle28"/>
	<circle cx="195.314" cy="439.771" r="4" fill="#0" id="circle29"/>
	<circle cx="198.857" cy="128" r="4" fill="#0" id="circle30"/>
	<circle cx="198.857" cy="996" r="4" fill="#0" id="circle31"/>
	<circle cx="202.4" cy="163.429" r="4" fill="#0" id="circle32"/>
	<circle cx="202.4" cy="198.857" r="4" fill="#0" id="circle33"/>
	<circle cx="230.743" cy="4" r="4" fill="#0" id="circle34"/>
	<circle cx="234.286" cy="996" r="4" fill="#0" id="circle35"/>
	<circle cx="248.457" cy="42.9714" r="4" fill="#0" id="circle36"/>
	<circle cx="248.457" cy="78.4" r="4" fill="#0" id="circle37"/>
	<circle cx="248.457" cy="120.914" r="4" fill="#0" id="circle38"/>
	<circle cx="248.457" cy="156.343" r="4" fill="#0" id="circle39"/>
	<circle cx="248.457" cy="191.771" r="4" fill="#0" id="circle40"/>
	<circle cx="248.457" cy="227.2" r="4" fill="#0" id="circle41"/>
	<circle cx="248.457" cy="262.629" r="4" fill="#0" id="circle42"/>
	<circle cx="248.457" cy="298.057" r="4" fill="#0" id="circle43"/>
	<circle cx="252" cy="333.486" r="4" fill="#0" id="circle44"/>
	<circle cx="255.543" cy="368.914" r="4" fill="#0" id="circle45"/>
	<circle cx="255.543" cy="404.343" r="4" fill="#0" id="circle46"/>
	<circle cx="255.543" cy="439.771" r="4" fill="#0" id="circle47"/>
	<circle cx="255.543" cy="475.2" r="4" fill="#0" id="circle48"/>
	<circle cx="255.543" cy="510.629" r="4" fill="#0" id="circle49"/>
	<circle cx="255.543" cy="546.057" r="4" fill="#0" id="circle50"/>
	<circle cx="269.714" cy="992.457" r="4" fill="#0" id="circle51"/>
	<circle cx="276.8" cy="574.4" r="4" fill="#0" id="circle52"/>
	<circle cx="305.143" cy="981.829" r="4" fill="#0" id="circle53"/>
	<circle cx="308.686" cy="553.143" r="4" fill="#0" id="circle54"/>
	<circle cx="340.571" cy="659.429" r="4" fill="#0" id="circle55"/>
	<circle cx="340.571" cy="964.114" r="4" fill="#0" id="circle56"/>
	<circle cx="344.114" cy="546.057" r="4" fill="#0" id="circle57"/>
	<circle cx="347.657" cy="694.857" r="4" fill="#0" id="circle58"/>
	<circle cx="354.743" cy="624" r="4" fill="#0" id="circle59"/>
	<circle cx="365.371" cy="574.4" r="4" fill="#0" id="circle60"/>
	<circle cx="365.371" cy="726.743" r="4" fill="#0" id="circle61"/>
	<circle cx="368.914" cy="935.771" r="4" fill="#0" id="circle62"/>
	<circle cx="383.086" cy="758.629" r="4" fill="#0" id="circle63"/>
	<circle cx="390.171" cy="907.429" r="4" fill="#0" id="circle64"/>
	<circle cx="397.257" cy="794.057" r="4" fill="#0" id="circle65"/>
	<circle cx="404.343" cy="829.486" r="4" fill="#0" id="circle66"/>
	<circle cx="404.343" cy="864.914" r="4" fill="#0" id="circle67"/>
	</g>
</svg>