<?xml version="1.0" encoding="UTF-8" standalone="no"?>
<!-- Created with CurveBenchmark -->
<svg
	xmlns:dc="http://purl.org/dc/elements/1.1/"
	xmlns:cc="http://creativecommons.org/ns#"
	xmlns:rdf="http://www.w3.org/1999/02/22-rdf-syntax-ns#"
	xmlns:svg="http://www.w3.org/2000/svg"
	xmlns="http://www.w3.org/2000/svg"
	xmlns:sodipodi="http://sodipodi.sourceforge.net/DTD/sodipodi-0.dtd"
	xmlns:inkscape="http://www.inkscape.org/namespaces/inkscape"
	width="1000"
	height="1000"
	id="svg2"
	version="1.1"
	sodipodi:docname="manifold/gathang-truck-18.png.txt">
<defs
	id="defs4" />
<metadata
	id="metadata7">
	<rdf:RDF>
		<cc:Work
			rdf:about="">
			<dc:format>image/svg+xml</dc:format>
			<dc:type
				rdf:resource="http://purl.org/dc/dcmitype/StillImage" />
			<dc:title></dc:title>
		</cc:Work>
	</rdf:RDF>
</metadata>
<g
	inkscape:label="Layer 1"
	inkscape:groupmode="layer"
	id="layer1">
	<path style="fill:none;stroke:red;stroke-width:1px;stroke-linecap:butt;stroke-linejoin:miter;stroke-opacity:1" d="M 62.8777,218.101 78.9353,209.18 z" id="boundary" inkscape:connector-curvature="0" />
	<path style="fill:none;stroke:red;stroke-width:1px;stroke-linecap:butt;stroke-linejoin:miter;stroke-opacity:1" d="M 94.9928,200.259 78.9353,209.18 z" id="boundary" inkscape:connector-curvature="0" />
	<path style="fill:none;stroke:red;stroke-width:1px;stroke-linecap:butt;stroke-linejoin:miter;stroke-opacity:1" d="M 45.036,227.022 62.8777,218.101 z" id="boundary" inkscape:connector-curvature="0" />
	<path style="fill:none;stroke:red;stroke-width:1px;stroke-linecap:butt;stroke-linejoin:miter;stroke-opacity:1" d="M 111.05,344.777 93.2086,344.777 z" id="boundary" inkscape:connector-curvature="0" />
	<path style="fill:none;stroke:red;stroke-width:1px;stroke-linecap:butt;stroke-linejoin:miter;stroke-opacity:1" d="M 45.036,227.022 27.1942,235.942 z" id="boundary" inkscape:connector-curvature="0" />
	<path style="fill:none;stroke:red;stroke-width:1px;stroke-linecap:butt;stroke-linejoin:miter;stroke-opacity:1" d="M 162.791,173.496 180.633,173.496 z" id="boundary" inkscape:connector-curvature="0" />
	<path style="fill:none;stroke:red;stroke-width:1px;stroke-linecap:butt;stroke-linejoin:miter;stroke-opacity:1" d="M 146.734,182.417 162.791,173.496 z" id="boundary" inkscape:connector-curvature="0" />
	<path style="fill:none;stroke:red;stroke-width:1px;stroke-linecap:butt;stroke-linejoin:miter;stroke-opacity:1" d="M 146.734,182.417 130.676,191.338 z" id="boundary" inkscape:connector-curvature="0" />
	<path style="fill:none;stroke:red;stroke-width:1px;stroke-linecap:butt;stroke-linejoin:miter;stroke-opacity:1" d="M 130.676,191.338 112.835,194.906 z" id="boundary" inkscape:connector-curvature="0" />
	<path style="fill:none;stroke:red;stroke-width:1px;stroke-linecap:butt;stroke-linejoin:miter;stroke-opacity:1" d="M 94.9928,200.259 112.835,194.906 z" id="boundary" inkscape:connector-curvature="0" />
	<path style="fill:none;stroke:red;stroke-width:1px;stroke-linecap:butt;stroke-linejoin:miter;stroke-opacity:1" d="M 12.9209,250.216 27.1942,235.942 z" id="boundary" inkscape:connector-curvature="0" />
	<path style="fill:none;stroke:red;stroke-width:1px;stroke-linecap:butt;stroke-linejoin:miter;stroke-opacity:1" d="M 4,268.058 12.9209,284.115 z" id="boundary" inkscape:connector-curvature="0" />
	<path style="fill:none;stroke:red;stroke-width:1px;stroke-linecap:butt;stroke-linejoin:miter;stroke-opacity:1" d="M 4,268.058 12.9209,250.216 z" id="boundary" inkscape:connector-curvature="0" />
	<path style="fill:none;stroke:red;stroke-width:1px;stroke-linecap:butt;stroke-linejoin:miter;stroke-opacity:1" d="M 12.9209,284.115 21.8417,300.173 z" id="boundary" inkscape:connector-curvature="0" />
	<path style="fill:none;stroke:red;stroke-width:1px;stroke-linecap:butt;stroke-linejoin:miter;stroke-opacity:1" d="M 21.8417,300.173 27.1942,318.014 z" id="boundary" inkscape:connector-curvature="0" />
	<path style="fill:none;stroke:red;stroke-width:1px;stroke-linecap:butt;stroke-linejoin:miter;stroke-opacity:1" d="M 27.1942,318.014 41.4676,330.504 z" id="boundary" inkscape:connector-curvature="0" />
	<path style="fill:none;stroke:red;stroke-width:1px;stroke-linecap:butt;stroke-linejoin:miter;stroke-opacity:1" d="M 93.2086,344.777 75.3669,344.777 z" id="boundary" inkscape:connector-curvature="0" />
	<path style="fill:none;stroke:red;stroke-width:1px;stroke-linecap:butt;stroke-linejoin:miter;stroke-opacity:1" d="M 75.3669,344.777 57.5252,339.424 z" id="boundary" inkscape:connector-curvature="0" />
	<path style="fill:none;stroke:red;stroke-width:1px;stroke-linecap:butt;stroke-linejoin:miter;stroke-opacity:1" d="M 57.5252,339.424 41.4676,330.504 z" id="boundary" inkscape:connector-curvature="0" />
	<path style="fill:none;stroke:red;stroke-width:1px;stroke-linecap:butt;stroke-linejoin:miter;stroke-opacity:1" d="M 285.899,146.734 303.741,146.734 z" id="boundary" inkscape:connector-curvature="0" />
	<path style="fill:none;stroke:red;stroke-width:1px;stroke-linecap:butt;stroke-linejoin:miter;stroke-opacity:1" d="M 268.058,155.655 285.899,146.734 z" id="boundary" inkscape:connector-curvature="0" />
	<path style="fill:none;stroke:red;stroke-width:1px;stroke-linecap:butt;stroke-linejoin:miter;stroke-opacity:1" d="M 339.424,146.734 321.583,146.734 z" id="boundary" inkscape:connector-curvature="0" />
	<path style="fill:none;stroke:red;stroke-width:1px;stroke-linecap:butt;stroke-linejoin:miter;stroke-opacity:1" d="M 357.266,146.734 339.424,146.734 z" id="boundary" inkscape:connector-curvature="0" />
	<path style="fill:none;stroke:red;stroke-width:1px;stroke-linecap:butt;stroke-linejoin:miter;stroke-opacity:1" d="M 321.583,146.734 303.741,146.734 z" id="boundary" inkscape:connector-curvature="0" />
	<path style="fill:none;stroke:red;stroke-width:1px;stroke-linecap:butt;stroke-linejoin:miter;stroke-opacity:1" d="M 494.647,53.9568 485.727,71.7986 z" id="boundary" inkscape:connector-curvature="0" />
	<path style="fill:none;stroke:red;stroke-width:1px;stroke-linecap:butt;stroke-linejoin:miter;stroke-opacity:1" d="M 476.806,89.6403 475.022,119.971 z" id="boundary" inkscape:connector-curvature="0" />
	<path style="fill:none;stroke:red;stroke-width:1px;stroke-linecap:butt;stroke-linejoin:miter;stroke-opacity:1" d="M 475.022,119.971 460.748,132.46 z" id="boundary" inkscape:connector-curvature="0" />
	<path style="fill:none;stroke:red;stroke-width:1px;stroke-linecap:butt;stroke-linejoin:miter;stroke-opacity:1" d="M 485.727,71.7986 476.806,89.6403 z" id="boundary" inkscape:connector-curvature="0" />
	<path style="fill:none;stroke:red;stroke-width:1px;stroke-linecap:butt;stroke-linejoin:miter;stroke-opacity:1" d="M 375.108,146.734 357.266,146.734 z" id="boundary" inkscape:connector-curvature="0" />
	<path style="fill:none;stroke:red;stroke-width:1px;stroke-linecap:butt;stroke-linejoin:miter;stroke-opacity:1" d="M 250.216,155.655 268.058,155.655 z" id="boundary" inkscape:connector-curvature="0" />
	<path style="fill:none;stroke:red;stroke-width:1px;stroke-linecap:butt;stroke-linejoin:miter;stroke-opacity:1" d="M 232.374,164.576 250.216,155.655 z" id="boundary" inkscape:connector-curvature="0" />
	<path style="fill:none;stroke:red;stroke-width:1px;stroke-linecap:butt;stroke-linejoin:miter;stroke-opacity:1" d="M 198.475,173.496 214.532,164.576 z" id="boundary" inkscape:connector-curvature="0" />
	<path style="fill:none;stroke:red;stroke-width:1px;stroke-linecap:butt;stroke-linejoin:miter;stroke-opacity:1" d="M 214.532,164.576 232.374,164.576 z" id="boundary" inkscape:connector-curvature="0" />
	<path style="fill:none;stroke:red;stroke-width:1px;stroke-linecap:butt;stroke-linejoin:miter;stroke-opacity:1" d="M 198.475,173.496 180.633,173.496 z" id="boundary" inkscape:connector-curvature="0" />
	<path style="fill:none;stroke:red;stroke-width:1px;stroke-linecap:butt;stroke-linejoin:miter;stroke-opacity:1" d="M 392.95,146.734 375.108,146.734 z" id="boundary" inkscape:connector-curvature="0" />
	<path style="fill:none;stroke:red;stroke-width:1px;stroke-linecap:butt;stroke-linejoin:miter;stroke-opacity:1" d="M 392.95,146.734 410.791,146.734 z" id="boundary" inkscape:connector-curvature="0" />
	<path style="fill:none;stroke:red;stroke-width:1px;stroke-linecap:butt;stroke-linejoin:miter;stroke-opacity:1" d="M 428.633,146.734 410.791,146.734 z" id="boundary" inkscape:connector-curvature="0" />
	<path style="fill:none;stroke:red;stroke-width:1px;stroke-linecap:butt;stroke-linejoin:miter;stroke-opacity:1" d="M 446.475,146.734 428.633,146.734 z" id="boundary" inkscape:connector-curvature="0" />
	<path style="fill:none;stroke:red;stroke-width:1px;stroke-linecap:butt;stroke-linejoin:miter;stroke-opacity:1" d="M 460.748,132.46 446.475,146.734 z" id="boundary" inkscape:connector-curvature="0" />
	<path style="fill:none;stroke:red;stroke-width:1px;stroke-linecap:butt;stroke-linejoin:miter;stroke-opacity:1" d="M 512.489,45.036 494.647,53.9568 z" id="boundary" inkscape:connector-curvature="0" />
	<path style="fill:none;stroke:red;stroke-width:1px;stroke-linecap:butt;stroke-linejoin:miter;stroke-opacity:1" d="M 57.5252,437.554 57.5252,419.712 z" id="boundary" inkscape:connector-curvature="0" />
	<path style="fill:none;stroke:red;stroke-width:1px;stroke-linecap:butt;stroke-linejoin:miter;stroke-opacity:1" d="M 102.129,387.597 84.2878,392.95 z" id="boundary" inkscape:connector-curvature="0" />
	<path style="fill:none;stroke:red;stroke-width:1px;stroke-linecap:butt;stroke-linejoin:miter;stroke-opacity:1" d="M 57.5252,419.712 66.446,401.871 z" id="boundary" inkscape:connector-curvature="0" />
	<path style="fill:none;stroke:red;stroke-width:1px;stroke-linecap:butt;stroke-linejoin:miter;stroke-opacity:1" d="M 66.446,401.871 84.2878,392.95 z" id="boundary" inkscape:connector-curvature="0" />
	<path style="fill:none;stroke:red;stroke-width:1px;stroke-linecap:butt;stroke-linejoin:miter;stroke-opacity:1" d="M 111.05,344.777 128.892,344.777 z" id="boundary" inkscape:connector-curvature="0" />
	<path style="fill:none;stroke:red;stroke-width:1px;stroke-linecap:butt;stroke-linejoin:miter;stroke-opacity:1" d="M 137.813,378.676 119.971,384.029 z" id="boundary" inkscape:connector-curvature="0" />
	<path style="fill:none;stroke:red;stroke-width:1px;stroke-linecap:butt;stroke-linejoin:miter;stroke-opacity:1" d="M 128.892,344.777 146.734,344.777 z" id="boundary" inkscape:connector-curvature="0" />
	<path style="fill:none;stroke:red;stroke-width:1px;stroke-linecap:butt;stroke-linejoin:miter;stroke-opacity:1" d="M 102.129,387.597 119.971,384.029 z" id="boundary" inkscape:connector-curvature="0" />
	<path style="fill:none;stroke:red;stroke-width:1px;stroke-linecap:butt;stroke-linejoin:miter;stroke-opacity:1" d="M 57.5252,437.554 57.5252,455.396 z" id="boundary" inkscape:connector-curvature="0" />
	<path style="fill:none;stroke:red;stroke-width:1px;stroke-linecap:butt;stroke-linejoin:miter;stroke-opacity:1" d="M 57.5252,473.237 57.5252,491.079 z" id="boundary" inkscape:connector-curvature="0" />
	<path style="fill:none;stroke:red;stroke-width:1px;stroke-linecap:butt;stroke-linejoin:miter;stroke-opacity:1" d="M 57.5252,508.921 57.5252,491.079 z" id="boundary" inkscape:connector-curvature="0" />
	<path style="fill:none;stroke:red;stroke-width:1px;stroke-linecap:butt;stroke-linejoin:miter;stroke-opacity:1" d="M 71.7986,521.41 57.5252,508.921 z" id="boundary" inkscape:connector-curvature="0" />
	<path style="fill:none;stroke:red;stroke-width:1px;stroke-linecap:butt;stroke-linejoin:miter;stroke-opacity:1" d="M 57.5252,473.237 57.5252,455.396 z" id="boundary" inkscape:connector-curvature="0" />
	<path style="fill:none;stroke:red;stroke-width:1px;stroke-linecap:butt;stroke-linejoin:miter;stroke-opacity:1" d="M 71.7986,521.41 89.6403,523.194 z" id="boundary" inkscape:connector-curvature="0" />
	<path style="fill:none;stroke:red;stroke-width:1px;stroke-linecap:butt;stroke-linejoin:miter;stroke-opacity:1" d="M 107.482,523.194 125.324,523.194 z" id="boundary" inkscape:connector-curvature="0" />
	<path style="fill:none;stroke:red;stroke-width:1px;stroke-linecap:butt;stroke-linejoin:miter;stroke-opacity:1" d="M 125.324,523.194 143.165,530.331 z" id="boundary" inkscape:connector-curvature="0" />
	<path style="fill:none;stroke:red;stroke-width:1px;stroke-linecap:butt;stroke-linejoin:miter;stroke-opacity:1" d="M 107.482,523.194 89.6403,523.194 z" id="boundary" inkscape:connector-curvature="0" />
	<path style="fill:none;stroke:red;stroke-width:1px;stroke-linecap:butt;stroke-linejoin:miter;stroke-opacity:1" d="M 161.007,532.115 143.165,530.331 z" id="boundary" inkscape:connector-curvature="0" />
	<path style="fill:none;stroke:red;stroke-width:1px;stroke-linecap:butt;stroke-linejoin:miter;stroke-opacity:1" d="M 146.734,344.777 153.871,369.755 z" id="boundary" inkscape:connector-curvature="0" />
	<path style="fill:none;stroke:red;stroke-width:1px;stroke-linecap:butt;stroke-linejoin:miter;stroke-opacity:1" d="M 153.871,369.755 137.813,378.676 z" id="boundary" inkscape:connector-curvature="0" />
	<path style="fill:none;stroke:red;stroke-width:1px;stroke-linecap:butt;stroke-linejoin:miter;stroke-opacity:1" d="M 353.698,505.353 371.54,505.353 z" id="boundary" inkscape:connector-curvature="0" />
	<path style="fill:none;stroke:red;stroke-width:1px;stroke-linecap:butt;stroke-linejoin:miter;stroke-opacity:1" d="M 353.698,505.353 335.856,505.353 z" id="boundary" inkscape:connector-curvature="0" />
	<path style="fill:none;stroke:red;stroke-width:1px;stroke-linecap:butt;stroke-linejoin:miter;stroke-opacity:1" d="M 371.54,505.353 389.381,505.353 z" id="boundary" inkscape:connector-curvature="0" />
	<path style="fill:none;stroke:red;stroke-width:1px;stroke-linecap:butt;stroke-linejoin:miter;stroke-opacity:1" d="M 319.799,514.273 335.856,505.353 z" id="boundary" inkscape:connector-curvature="0" />
	<path style="fill:none;stroke:red;stroke-width:1px;stroke-linecap:butt;stroke-linejoin:miter;stroke-opacity:1" d="M 389.381,505.353 407.223,505.353 z" id="boundary" inkscape:connector-curvature="0" />
	<path style="fill:none;stroke:red;stroke-width:1px;stroke-linecap:butt;stroke-linejoin:miter;stroke-opacity:1" d="M 425.065,505.353 442.906,505.353 z" id="boundary" inkscape:connector-curvature="0" />
	<path style="fill:none;stroke:red;stroke-width:1px;stroke-linecap:butt;stroke-linejoin:miter;stroke-opacity:1" d="M 425.065,505.353 407.223,505.353 z" id="boundary" inkscape:connector-curvature="0" />
	<path style="fill:none;stroke:red;stroke-width:1px;stroke-linecap:butt;stroke-linejoin:miter;stroke-opacity:1" d="M 442.906,505.353 460.748,505.353 z" id="boundary" inkscape:connector-curvature="0" />
	<path style="fill:none;stroke:red;stroke-width:1px;stroke-linecap:butt;stroke-linejoin:miter;stroke-opacity:1" d="M 196.691,532.115 178.849,532.115 z" id="boundary" inkscape:connector-curvature="0" />
	<path style="fill:none;stroke:red;stroke-width:1px;stroke-linecap:butt;stroke-linejoin:miter;stroke-opacity:1" d="M 178.849,532.115 161.007,532.115 z" id="boundary" inkscape:connector-curvature="0" />
	<path style="fill:none;stroke:red;stroke-width:1px;stroke-linecap:butt;stroke-linejoin:miter;stroke-opacity:1" d="M 214.532,532.115 196.691,532.115 z" id="boundary" inkscape:connector-curvature="0" />
	<path style="fill:none;stroke:red;stroke-width:1px;stroke-linecap:butt;stroke-linejoin:miter;stroke-opacity:1" d="M 232.374,530.331 214.532,532.115 z" id="boundary" inkscape:connector-curvature="0" />
	<path style="fill:none;stroke:red;stroke-width:1px;stroke-linecap:butt;stroke-linejoin:miter;stroke-opacity:1" d="M 250.216,523.194 232.374,530.331 z" id="boundary" inkscape:connector-curvature="0" />
	<path style="fill:none;stroke:red;stroke-width:1px;stroke-linecap:butt;stroke-linejoin:miter;stroke-opacity:1" d="M 284.115,514.273 301.957,514.273 z" id="boundary" inkscape:connector-curvature="0" />
	<path style="fill:none;stroke:red;stroke-width:1px;stroke-linecap:butt;stroke-linejoin:miter;stroke-opacity:1" d="M 268.058,523.194 284.115,514.273 z" id="boundary" inkscape:connector-curvature="0" />
	<path style="fill:none;stroke:red;stroke-width:1px;stroke-linecap:butt;stroke-linejoin:miter;stroke-opacity:1" d="M 268.058,523.194 250.216,523.194 z" id="boundary" inkscape:connector-curvature="0" />
	<path style="fill:none;stroke:red;stroke-width:1px;stroke-linecap:butt;stroke-linejoin:miter;stroke-opacity:1" d="M 301.957,514.273 319.799,514.273 z" id="boundary" inkscape:connector-curvature="0" />
	<path style="fill:none;stroke:red;stroke-width:1px;stroke-linecap:butt;stroke-linejoin:miter;stroke-opacity:1" d="M 460.748,505.353 478.59,505.353 z" id="boundary" inkscape:connector-curvature="0" />
	<path style="fill:none;stroke:red;stroke-width:1px;stroke-linecap:butt;stroke-linejoin:miter;stroke-opacity:1" d="M 478.59,505.353 494.647,514.273 z" id="boundary" inkscape:connector-curvature="0" />
	<path style="fill:none;stroke:red;stroke-width:1px;stroke-linecap:butt;stroke-linejoin:miter;stroke-opacity:1" d="M 649.871,4 667.712,4 z" id="boundary" inkscape:connector-curvature="0" />
	<path style="fill:none;stroke:red;stroke-width:1px;stroke-linecap:butt;stroke-linejoin:miter;stroke-opacity:1" d="M 633.813,12.9209 649.871,4 z" id="boundary" inkscape:connector-curvature="0" />
	<path style="fill:none;stroke:red;stroke-width:1px;stroke-linecap:butt;stroke-linejoin:miter;stroke-opacity:1" d="M 615.971,12.9209 633.813,12.9209 z" id="boundary" inkscape:connector-curvature="0" />
	<path style="fill:none;stroke:red;stroke-width:1px;stroke-linecap:butt;stroke-linejoin:miter;stroke-opacity:1" d="M 598.129,21.8417 615.971,12.9209 z" id="boundary" inkscape:connector-curvature="0" />
	<path style="fill:none;stroke:red;stroke-width:1px;stroke-linecap:butt;stroke-linejoin:miter;stroke-opacity:1" d="M 685.554,4 703.396,4 z" id="boundary" inkscape:connector-curvature="0" />
	<path style="fill:none;stroke:red;stroke-width:1px;stroke-linecap:butt;stroke-linejoin:miter;stroke-opacity:1" d="M 721.237,4 739.079,4 z" id="boundary" inkscape:connector-curvature="0" />
	<path style="fill:none;stroke:red;stroke-width:1px;stroke-linecap:butt;stroke-linejoin:miter;stroke-opacity:1" d="M 739.079,4 755.137,12.9209 z" id="boundary" inkscape:connector-curvature="0" />
	<path style="fill:none;stroke:red;stroke-width:1px;stroke-linecap:butt;stroke-linejoin:miter;stroke-opacity:1" d="M 703.396,4 721.237,4 z" id="boundary" inkscape:connector-curvature="0" />
	<path style="fill:none;stroke:red;stroke-width:1px;stroke-linecap:butt;stroke-linejoin:miter;stroke-opacity:1" d="M 667.712,4 685.554,4 z" id="boundary" inkscape:connector-curvature="0" />
	<path style="fill:none;stroke:red;stroke-width:1px;stroke-linecap:butt;stroke-linejoin:miter;stroke-opacity:1" d="M 580.288,21.8417 564.23,30.7626 z" id="boundary" inkscape:connector-curvature="0" />
	<path style="fill:none;stroke:red;stroke-width:1px;stroke-linecap:butt;stroke-linejoin:miter;stroke-opacity:1" d="M 564.23,30.7626 546.388,30.7626 z" id="boundary" inkscape:connector-curvature="0" />
	<path style="fill:none;stroke:red;stroke-width:1px;stroke-linecap:butt;stroke-linejoin:miter;stroke-opacity:1" d="M 530.331,39.6835 512.489,45.036 z" id="boundary" inkscape:connector-curvature="0" />
	<path style="fill:none;stroke:red;stroke-width:1px;stroke-linecap:butt;stroke-linejoin:miter;stroke-opacity:1" d="M 546.388,30.7626 530.331,39.6835 z" id="boundary" inkscape:connector-curvature="0" />
	<path style="fill:none;stroke:red;stroke-width:1px;stroke-linecap:butt;stroke-linejoin:miter;stroke-opacity:1" d="M 580.288,21.8417 598.129,21.8417 z" id="boundary" inkscape:connector-curvature="0" />
	<path style="fill:none;stroke:red;stroke-width:1px;stroke-linecap:butt;stroke-linejoin:miter;stroke-opacity:1" d="M 772.978,41.4676 772.978,59.3094 z" id="boundary" inkscape:connector-curvature="0" />
	<path style="fill:none;stroke:red;stroke-width:1px;stroke-linecap:butt;stroke-linejoin:miter;stroke-opacity:1" d="M 755.137,12.9209 769.41,23.6259 z" id="boundary" inkscape:connector-curvature="0" />
	<path style="fill:none;stroke:red;stroke-width:1px;stroke-linecap:butt;stroke-linejoin:miter;stroke-opacity:1" d="M 769.41,23.6259 772.978,41.4676 z" id="boundary" inkscape:connector-curvature="0" />
	<path style="fill:none;stroke:red;stroke-width:1px;stroke-linecap:butt;stroke-linejoin:miter;stroke-opacity:1" d="M 772.978,59.3094 772.978,77.1511 z" id="boundary" inkscape:connector-curvature="0" />
	<path style="fill:none;stroke:red;stroke-width:1px;stroke-linecap:butt;stroke-linejoin:miter;stroke-opacity:1" d="M 772.978,77.1511 772.978,94.9928 z" id="boundary" inkscape:connector-curvature="0" />
	<path style="fill:none;stroke:red;stroke-width:1px;stroke-linecap:butt;stroke-linejoin:miter;stroke-opacity:1" d="M 772.978,94.9928 772.978,112.835 z" id="boundary" inkscape:connector-curvature="0" />
	<path style="fill:none;stroke:red;stroke-width:1px;stroke-linecap:butt;stroke-linejoin:miter;stroke-opacity:1" d="M 781.899,128.892 772.978,112.835 z" id="boundary" inkscape:connector-curvature="0" />
	<path style="fill:none;stroke:red;stroke-width:1px;stroke-linecap:butt;stroke-linejoin:miter;stroke-opacity:1" d="M 790.82,162.791 781.899,146.734 z" id="boundary" inkscape:connector-curvature="0" />
	<path style="fill:none;stroke:red;stroke-width:1px;stroke-linecap:butt;stroke-linejoin:miter;stroke-opacity:1" d="M 781.899,146.734 781.899,128.892 z" id="boundary" inkscape:connector-curvature="0" />
	<path style="fill:none;stroke:red;stroke-width:1px;stroke-linecap:butt;stroke-linejoin:miter;stroke-opacity:1" d="M 805.094,175.281 790.82,162.791 z" id="boundary" inkscape:connector-curvature="0" />
	<path style="fill:none;stroke:red;stroke-width:1px;stroke-linecap:butt;stroke-linejoin:miter;stroke-opacity:1" d="M 805.094,175.281 822.935,182.417 z" id="boundary" inkscape:connector-curvature="0" />
	<path style="fill:none;stroke:red;stroke-width:1px;stroke-linecap:butt;stroke-linejoin:miter;stroke-opacity:1" d="M 862.187,214.532 853.266,198.475 z" id="boundary" inkscape:connector-curvature="0" />
	<path style="fill:none;stroke:red;stroke-width:1px;stroke-linecap:butt;stroke-linejoin:miter;stroke-opacity:1" d="M 822.935,182.417 840.777,184.201 z" id="boundary" inkscape:connector-curvature="0" />
	<path style="fill:none;stroke:red;stroke-width:1px;stroke-linecap:butt;stroke-linejoin:miter;stroke-opacity:1" d="M 840.777,184.201 853.266,198.475 z" id="boundary" inkscape:connector-curvature="0" />
	<path style="fill:none;stroke:red;stroke-width:1px;stroke-linecap:butt;stroke-linejoin:miter;stroke-opacity:1" d="M 862.187,214.532 862.187,232.374 z" id="boundary" inkscape:connector-curvature="0" />
	<path style="fill:none;stroke:red;stroke-width:1px;stroke-linecap:butt;stroke-linejoin:miter;stroke-opacity:1" d="M 862.187,232.374 876.46,244.863 z" id="boundary" inkscape:connector-curvature="0" />
	<path style="fill:none;stroke:red;stroke-width:1px;stroke-linecap:butt;stroke-linejoin:miter;stroke-opacity:1" d="M 937.122,282.331 921.065,273.41 z" id="boundary" inkscape:connector-curvature="0" />
	<path style="fill:none;stroke:red;stroke-width:1px;stroke-linecap:butt;stroke-linejoin:miter;stroke-opacity:1" d="M 921.065,273.41 906.791,260.921 z" id="boundary" inkscape:connector-curvature="0" />
	<path style="fill:none;stroke:red;stroke-width:1px;stroke-linecap:butt;stroke-linejoin:miter;stroke-opacity:1" d="M 906.791,260.921 894.302,246.647 z" id="boundary" inkscape:connector-curvature="0" />
	<path style="fill:none;stroke:red;stroke-width:1px;stroke-linecap:butt;stroke-linejoin:miter;stroke-opacity:1" d="M 876.46,244.863 894.302,246.647 z" id="boundary" inkscape:connector-curvature="0" />
	<path style="fill:none;stroke:red;stroke-width:1px;stroke-linecap:butt;stroke-linejoin:miter;stroke-opacity:1" d="M 946.043,298.388 951.396,316.23 z" id="boundary" inkscape:connector-curvature="0" />
	<path style="fill:none;stroke:red;stroke-width:1px;stroke-linecap:butt;stroke-linejoin:miter;stroke-opacity:1" d="M 946.043,298.388 937.122,282.331 z" id="boundary" inkscape:connector-curvature="0" />
	<path style="fill:none;stroke:red;stroke-width:1px;stroke-linecap:butt;stroke-linejoin:miter;stroke-opacity:1" d="M 969.237,316.23 983.511,326.935 z" id="boundary" inkscape:connector-curvature="0" />
	<path style="fill:none;stroke:red;stroke-width:1px;stroke-linecap:butt;stroke-linejoin:miter;stroke-opacity:1" d="M 996,341.209 983.511,326.935 z" id="boundary" inkscape:connector-curvature="0" />
	<path style="fill:none;stroke:red;stroke-width:1px;stroke-linecap:butt;stroke-linejoin:miter;stroke-opacity:1" d="M 735.511,469.669 719.453,478.59 z" id="boundary" inkscape:connector-curvature="0" />
	<path style="fill:none;stroke:red;stroke-width:1px;stroke-linecap:butt;stroke-linejoin:miter;stroke-opacity:1" d="M 657.007,487.511 639.165,487.511 z" id="boundary" inkscape:connector-curvature="0" />
	<path style="fill:none;stroke:red;stroke-width:1px;stroke-linecap:butt;stroke-linejoin:miter;stroke-opacity:1" d="M 673.065,496.432 657.007,487.511 z" id="boundary" inkscape:connector-curvature="0" />
	<path style="fill:none;stroke:red;stroke-width:1px;stroke-linecap:butt;stroke-linejoin:miter;stroke-opacity:1" d="M 719.453,478.59 705.18,496.432 z" id="boundary" inkscape:connector-curvature="0" />
	<path style="fill:none;stroke:red;stroke-width:1px;stroke-linecap:butt;stroke-linejoin:miter;stroke-opacity:1" d="M 705.18,496.432 689.122,505.353 z" id="boundary" inkscape:connector-curvature="0" />
	<path style="fill:none;stroke:red;stroke-width:1px;stroke-linecap:butt;stroke-linejoin:miter;stroke-opacity:1" d="M 689.122,505.353 673.065,496.432 z" id="boundary" inkscape:connector-curvature="0" />
	<path style="fill:none;stroke:red;stroke-width:1px;stroke-linecap:butt;stroke-linejoin:miter;stroke-opacity:1" d="M 624.892,512.489 639.165,487.511 z" id="boundary" inkscape:connector-curvature="0" />
	<path style="fill:none;stroke:red;stroke-width:1px;stroke-linecap:butt;stroke-linejoin:miter;stroke-opacity:1" d="M 735.511,469.669 753.353,469.669 z" id="boundary" inkscape:connector-curvature="0" />
	<path style="fill:none;stroke:red;stroke-width:1px;stroke-linecap:butt;stroke-linejoin:miter;stroke-opacity:1" d="M 753.353,469.669 771.194,469.669 z" id="boundary" inkscape:connector-curvature="0" />
	<path style="fill:none;stroke:red;stroke-width:1px;stroke-linecap:butt;stroke-linejoin:miter;stroke-opacity:1" d="M 789.036,469.669 771.194,469.669 z" id="boundary" inkscape:connector-curvature="0" />
	<path style="fill:none;stroke:red;stroke-width:1px;stroke-linecap:butt;stroke-linejoin:miter;stroke-opacity:1" d="M 806.878,469.669 789.036,469.669 z" id="boundary" inkscape:connector-curvature="0" />
	<path style="fill:none;stroke:red;stroke-width:1px;stroke-linecap:butt;stroke-linejoin:miter;stroke-opacity:1" d="M 494.647,514.273 505.353,528.547 z" id="boundary" inkscape:connector-curvature="0" />
	<path style="fill:none;stroke:red;stroke-width:1px;stroke-linecap:butt;stroke-linejoin:miter;stroke-opacity:1" d="M 523.194,532.115 505.353,528.547 z" id="boundary" inkscape:connector-curvature="0" />
	<path style="fill:none;stroke:red;stroke-width:1px;stroke-linecap:butt;stroke-linejoin:miter;stroke-opacity:1" d="M 523.194,532.115 541.036,532.115 z" id="boundary" inkscape:connector-curvature="0" />
	<path style="fill:none;stroke:red;stroke-width:1px;stroke-linecap:butt;stroke-linejoin:miter;stroke-opacity:1" d="M 558.878,532.115 541.036,532.115 z" id="boundary" inkscape:connector-curvature="0" />
	<path style="fill:none;stroke:red;stroke-width:1px;stroke-linecap:butt;stroke-linejoin:miter;stroke-opacity:1" d="M 610.619,523.194 624.892,512.489 z" id="boundary" inkscape:connector-curvature="0" />
	<path style="fill:none;stroke:red;stroke-width:1px;stroke-linecap:butt;stroke-linejoin:miter;stroke-opacity:1" d="M 610.619,523.194 594.561,532.115 z" id="boundary" inkscape:connector-curvature="0" />
	<path style="fill:none;stroke:red;stroke-width:1px;stroke-linecap:butt;stroke-linejoin:miter;stroke-opacity:1" d="M 594.561,532.115 576.719,532.115 z" id="boundary" inkscape:connector-curvature="0" />
	<path style="fill:none;stroke:red;stroke-width:1px;stroke-linecap:butt;stroke-linejoin:miter;stroke-opacity:1" d="M 576.719,532.115 558.878,532.115 z" id="boundary" inkscape:connector-curvature="0" />
	<path style="fill:none;stroke:red;stroke-width:1px;stroke-linecap:butt;stroke-linejoin:miter;stroke-opacity:1" d="M 951.396,416.144 951.396,433.986 z" id="boundary" inkscape:connector-curvature="0" />
	<path style="fill:none;stroke:red;stroke-width:1px;stroke-linecap:butt;stroke-linejoin:miter;stroke-opacity:1" d="M 951.396,416.144 967.453,407.223 z" id="boundary" inkscape:connector-curvature="0" />
	<path style="fill:none;stroke:red;stroke-width:1px;stroke-linecap:butt;stroke-linejoin:miter;stroke-opacity:1" d="M 951.396,451.827 951.396,469.669 z" id="boundary" inkscape:connector-curvature="0" />
	<path style="fill:none;stroke:red;stroke-width:1px;stroke-linecap:butt;stroke-linejoin:miter;stroke-opacity:1" d="M 951.396,433.986 951.396,451.827 z" id="boundary" inkscape:connector-curvature="0" />
	<path style="fill:none;stroke:red;stroke-width:1px;stroke-linecap:butt;stroke-linejoin:miter;stroke-opacity:1" d="M 951.396,469.669 942.475,496.432 z" id="boundary" inkscape:connector-curvature="0" />
	<path style="fill:none;stroke:red;stroke-width:1px;stroke-linecap:butt;stroke-linejoin:miter;stroke-opacity:1" d="M 981.727,396.518 967.453,407.223 z" id="boundary" inkscape:connector-curvature="0" />
	<path style="fill:none;stroke:red;stroke-width:1px;stroke-linecap:butt;stroke-linejoin:miter;stroke-opacity:1" d="M 996,359.05 996,376.892 z" id="boundary" inkscape:connector-curvature="0" />
	<path style="fill:none;stroke:red;stroke-width:1px;stroke-linecap:butt;stroke-linejoin:miter;stroke-opacity:1" d="M 996,376.892 981.727,396.518 z" id="boundary" inkscape:connector-curvature="0" />
	<path style="fill:none;stroke:red;stroke-width:1px;stroke-linecap:butt;stroke-linejoin:miter;stroke-opacity:1" d="M 824.719,469.669 806.878,469.669 z" id="boundary" inkscape:connector-curvature="0" />
	<path style="fill:none;stroke:red;stroke-width:1px;stroke-linecap:butt;stroke-linejoin:miter;stroke-opacity:1" d="M 824.719,487.511 824.719,505.353 z" id="boundary" inkscape:connector-curvature="0" />
	<path style="fill:none;stroke:red;stroke-width:1px;stroke-linecap:butt;stroke-linejoin:miter;stroke-opacity:1" d="M 830.072,523.194 824.719,505.353 z" id="boundary" inkscape:connector-curvature="0" />
	<path style="fill:none;stroke:red;stroke-width:1px;stroke-linecap:butt;stroke-linejoin:miter;stroke-opacity:1" d="M 844.345,535.683 830.072,523.194 z" id="boundary" inkscape:connector-curvature="0" />
	<path style="fill:none;stroke:red;stroke-width:1px;stroke-linecap:butt;stroke-linejoin:miter;stroke-opacity:1" d="M 862.187,541.036 844.345,535.683 z" id="boundary" inkscape:connector-curvature="0" />
	<path style="fill:none;stroke:red;stroke-width:1px;stroke-linecap:butt;stroke-linejoin:miter;stroke-opacity:1" d="M 878.245,532.115 862.187,541.036 z" id="boundary" inkscape:connector-curvature="0" />
	<path style="fill:none;stroke:red;stroke-width:1px;stroke-linecap:butt;stroke-linejoin:miter;stroke-opacity:1" d="M 942.475,496.432 929.986,514.273 z" id="boundary" inkscape:connector-curvature="0" />
	<path style="fill:none;stroke:red;stroke-width:1px;stroke-linecap:butt;stroke-linejoin:miter;stroke-opacity:1" d="M 929.986,514.273 913.928,523.194 z" id="boundary" inkscape:connector-curvature="0" />
	<path style="fill:none;stroke:red;stroke-width:1px;stroke-linecap:butt;stroke-linejoin:miter;stroke-opacity:1" d="M 896.086,526.763 913.928,523.194 z" id="boundary" inkscape:connector-curvature="0" />
	<path style="fill:none;stroke:red;stroke-width:1px;stroke-linecap:butt;stroke-linejoin:miter;stroke-opacity:1" d="M 896.086,526.763 878.245,532.115 z" id="boundary" inkscape:connector-curvature="0" />
	<path style="fill:none;stroke:red;stroke-width:1px;stroke-linecap:butt;stroke-linejoin:miter;stroke-opacity:1" d="M 824.719,487.511 824.719,469.669 z" id="boundary" inkscape:connector-curvature="0" />
	<path style="fill:none;stroke:red;stroke-width:1px;stroke-linecap:butt;stroke-linejoin:miter;stroke-opacity:1" d="M 996,341.209 996,359.05 z" id="boundary" inkscape:connector-curvature="0" />
	<circle cx="4" cy="268.058" r="4" fill="#0" id="circle0"/>
	<circle cx="12.9209" cy="250.216" r="4" fill="#0" id="circle1"/>
	<circle cx="12.9209" cy="284.115" r="4" fill="#0" id="circle2"/>
	<circle cx="21.8417" cy="300.173" r="4" fill="#0" id="circle3"/>
	<circle cx="27.1942" cy="235.942" r="4" fill="#0" id="circle4"/>
	<circle cx="27.1942" cy="318.014" r="4" fill="#0" id="circle5"/>
	<circle cx="41.4676" cy="330.504" r="4" fill="#0" id="circle6"/>
	<circle cx="45.036" cy="227.022" r="4" fill="#0" id="circle7"/>
	<circle cx="57.5252" cy="339.424" r="4" fill="#0" id="circle8"/>
	<circle cx="57.5252" cy="419.712" r="4" fill="#0" id="circle9"/>
	<circle cx="57.5252" cy="437.554" r="4" fill="#0" id="circle10"/>
	<circle cx="57.5252" cy="455.396" r="4" fill="#0" id="circle11"/>
	<circle cx="57.5252" cy="473.237" r="4" fill="#0" id="circle12"/>
	<circle cx="57.5252" cy="491.079" r="4" fill="#0" id="circle13"/>
	<circle cx="57.5252" cy="508.921" r="4" fill="#0" id="circle14"/>
	<circle cx="62.8777" cy="218.101" r="4" fill="#0" id="circle15"/>
	<circle cx="66.446" cy="401.871" r="4" fill="#0" id="circle16"/>
	<circle cx="71.7986" cy="521.41" r="4" fill="#0" id="circle17"/>
	<circle cx="75.3669" cy="344.777" r="4" fill="#0" id="circle18"/>
	<circle cx="78.9353" cy="209.18" r="4" fill="#0" id="circle19"/>
	<circle cx="84.2878" cy="392.95" r="4" fill="#0" id="circle20"/>
	<circle cx="89.6403" cy="523.194" r="4" fill="#0" id="circle21"/>
	<circle cx="93.2086" cy="344.777" r="4" fill="#0" id="circle22"/>
	<circle cx="94.9928" cy="200.259" r="4" fill="#0" id="circle23"/>
	<circle cx="102.129" cy="387.597" r="4" fill="#0" id="circle24"/>
	<circle cx="107.482" cy="523.194" r="4" fill="#0" id="circle25"/>
	<circle cx="111.05" cy="344.777" r="4" fill="#0" id="circle26"/>
	<circle cx="112.835" cy="194.906" r="4" fill="#0" id="circle27"/>
	<circle cx="119.971" cy="384.029" r="4" fill="#0" id="circle28"/>
	<circle cx="125.324" cy="523.194" r="4" fill="#0" id="circle29"/>
	<circle cx="128.892" cy="344.777" r="4" fill="#0" id="circle30"/>
	<circle cx="130.676" cy="191.338" r="4" fill="#0" id="circle31"/>
	<circle cx="137.813" cy="378.676" r="4" fill="#0" id="circle32"/>
	<circle cx="143.165" cy="530.331" r="4" fill="#0" id="circle33"/>
	<circle cx="146.734" cy="182.417" r="4" fill="#0" id="circle34"/>
	<circle cx="146.734" cy="344.777" r="4" fill="#0" id="circle35"/>
	<circle cx="153.871" cy="369.755" r="4" fill="#0" id="circle36"/>
	<circle cx="161.007" cy="532.115" r="4" fill="#0" id="circle37"/>
	<circle cx="162.791" cy="173.496" r="4" fill="#0" id="circle38"/>
	<circle cx="178.849" cy="532.115" r="4" fill="#0" id="circle39"/>
	<circle cx="180.633" cy="173.496" r="4" fill="#0" id="circle40"/>
	<circle cx="196.691" cy="532.115" r="4" fill="#0" id="circle41"/>
	<circle cx="198.475" cy="173.496" r="4" fill="#0" id="circle42"/>
	<circle cx="214.532" cy="164.576" r="4" fill="#0" id="circle43"/>
	<circle cx="214.532" cy="532.115" r="4" fill="#0" id="circle44"/>
	<circle cx="232.374" cy="164.576" r="4" fill="#0" id="circle45"/>
	<circle cx="232.374" cy="530.331" r="4" fill="#0" id="circle46"/>
	<circle cx="250.216" cy="155.655" r="4" fill="#0" id="circle47"/>
	<circle cx="250.216" cy="523.194" r="4" fill="#0" id="circle48"/>
	<circle cx="268.058" cy="155.655" r="4" fill="#0" id="circle49"/>
	<circle cx="268.058" cy="523.194" r="4" fill="#0" id="circle50"/>
	<circle cx="284.115" cy="514.273" r="4" fill="#0" id="circle51"/>
	<circle cx="285.899" cy="146.734" r="4" fill="#0" id="circle52"/>
	<circle cx="301.957" cy="514.273" r="4" fill="#0" id="circle53"/>
	<circle cx="303.741" cy="146.734" r="4" fill="#0" id="circle54"/>
	<circle cx="319.799" cy="514.273" r="4" fill="#0" id="circle55"/>
	<circle cx="321.583" cy="146.734" r="4" fill="#0" id="circle56"/>
	<circle cx="335.856" cy="505.353" r="4" fill="#0" id="circle57"/>
	<circle cx="339.424" cy="146.734" r="4" fill="#0" id="circle58"/>
	<circle cx="353.698" cy="505.353" r="4" fill="#0" id="circle59"/>
	<circle cx="357.266" cy="146.734" r="4" fill="#0" id="circle60"/>
	<circle cx="371.54" cy="505.353" r="4" fill="#0" id="circle61"/>
	<circle cx="375.108" cy="146.734" r="4" fill="#0" id="circle62"/>
	<circle cx="389.381" cy="505.353" r="4" fill="#0" id="circle63"/>
	<circle cx="392.95" cy="146.734" r="4" fill="#0" id="circle64"/>
	<circle cx="407.223" cy="505.353" r="4" fill="#0" id="circle65"/>
	<circle cx="410.791" cy="146.734" r="4" fill="#0" id="circle66"/>
	<circle cx="425.065" cy="505.353" r="4" fill="#0" id="circle67"/>
	<circle cx="428.633" cy="146.734" r="4" fill="#0" id="circle68"/>
	<circle cx="442.906" cy="505.353" r="4" fill="#0" id="circle69"/>
	<circle cx="446.475" cy="146.734" r="4" fill="#0" id="circle70"/>
	<circle cx="460.748" cy="132.46" r="4" fill="#0" id="circle71"/>
	<circle cx="460.748" cy="505.353" r="4" fill="#0" id="circle72"/>
	<circle cx="475.022" cy="119.971" r="4" fill="#0" id="circle73"/>
	<circle cx="476.806" cy="89.6403" r="4" fill="#0" id="circle74"/>
	<circle cx="478.59" cy="505.353" r="4" fill="#0" id="circle75"/>
	<circle cx="485.727" cy="71.7986" r="4" fill="#0" id="circle76"/>
	<circle cx="494.647" cy="53.9568" r="4" fill="#0" id="circle77"/>
	<circle cx="494.647" cy="514.273" r="4" fill="#0" id="circle78"/>
	<circle cx="505.353" cy="528.547" r="4" fill="#0" id="circle79"/>
	<circle cx="512.489" cy="45.036" r="4" fill="#0" id="circle80"/>
	<circle cx="523.194" cy="532.115" r="4" fill="#0" id="circle81"/>
	<circle cx="530.331" cy="39.6835" r="4" fill="#0" id="circle82"/>
	<circle cx="541.036" cy="532.115" r="4" fill="#0" id="circle83"/>
	<circle cx="546.388" cy="30.7626" r="4" fill="#0" id="circle84"/>
	<circle cx="558.878" cy="532.115" r="4" fill="#0" id="circle85"/>
	<circle cx="564.23" cy="30.7626" r="4" fill="#0" id="circle86"/>
	<circle cx="576.719" cy="532.115" r="4" fill="#0" id="circle87"/>
	<circle cx="580.288" cy="21.8417" r="4" fill="#0" id="circle88"/>
	<circle cx="594.561" cy="532.115" r="4" fill="#0" id="circle89"/>
	<circle cx="598.129" cy="21.8417" r="4" fill="#0" id="circle90"/>
	<circle cx="610.619" cy="523.194" r="4" fill="#0" id="circle91"/>
	<circle cx="615.971" cy="12.9209" r="4" fill="#0" id="circle92"/>
	<circle cx="624.892" cy="512.489" r="4" fill="#0" id="circle93"/>
	<circle cx="633.813" cy="12.9209" r="4" fill="#0" id="circle94"/>
	<circle cx="639.165" cy="487.511" r="4" fill="#0" id="circle95"/>
	<circle cx="649.871" cy="4" r="4" fill="#0" id="circle96"/>
	<circle cx="657.007" cy="487.511" r="4" fill="#0" id="circle97"/>
	<circle cx="667.712" cy="4" r="4" fill="#0" id="circle98"/>
	<circle cx="673.065" cy="496.432" r="4" fill="#0" id="circle99"/>
	<circle cx="685.554" cy="4" r="4" fill="#0" id="circle100"/>
	<circle cx="689.122" cy="505.353" r="4" fill="#0" id="circle101"/>
	<circle cx="703.396" cy="4" r="4" fill="#0" id="circle102"/>
	<circle cx="705.18" cy="496.432" r="4" fill="#0" id="circle103"/>
	<circle cx="719.453" cy="478.59" r="4" fill="#0" id="circle104"/>
	<circle cx="721.237" cy="4" r="4" fill="#0" id="circle105"/>
	<circle cx="735.511" cy="469.669" r="4" fill="#0" id="circle106"/>
	<circle cx="739.079" cy="4" r="4" fill="#0" id="circle107"/>
	<circle cx="753.353" cy="469.669" r="4" fill="#0" id="circle108"/>
	<circle cx="755.137" cy="12.9209" r="4" fill="#0" id="circle109"/>
	<circle cx="769.41" cy="23.6259" r="4" fill="#0" id="circle110"/>
	<circle cx="771.194" cy="469.669" r="4" fill="#0" id="circle111"/>
	<circle cx="772.978" cy="41.4676" r="4" fill="#0" id="circle112"/>
	<circle cx="772.978" cy="59.3094" r="4" fill="#0" id="circle113"/>
	<circle cx="772.978" cy="77.1511" r="4" fill="#0" id="circle114"/>
	<circle cx="772.978" cy="94.9928" r="4" fill="#0" id="circle115"/>
	<circle cx="772.978" cy="112.835" r="4" fill="#0" id="circle116"/>
	<circle cx="781.899" cy="128.892" r="4" fill="#0" id="circle117"/>
	<circle cx="781.899" cy="146.734" r="4" fill="#0" id="circle118"/>
	<circle cx="789.036" cy="469.669" r="4" fill="#0" id="circle119"/>
	<circle cx="790.82" cy="162.791" r="4" fill="#0" id="circle120"/>
	<circle cx="805.094" cy="175.281" r="4" fill="#0" id="circle121"/>
	<circle cx="806.878" cy="469.669" r="4" fill="#0" id="circle122"/>
	<circle cx="822.935" cy="182.417" r="4" fill="#0" id="circle123"/>
	<circle cx="824.719" cy="469.669" r="4" fill="#0" id="circle124"/>
	<circle cx="824.719" cy="487.511" r="4" fill="#0" id="circle125"/>
	<circle cx="824.719" cy="505.353" r="4" fill="#0" id="circle126"/>
	<circle cx="830.072" cy="523.194" r="4" fill="#0" id="circle127"/>
	<circle cx="840.777" cy="184.201" r="4" fill="#0" id="circle128"/>
	<circle cx="844.345" cy="535.683" r="4" fill="#0" id="circle129"/>
	<circle cx="853.266" cy="198.475" r="4" fill="#0" id="circle130"/>
	<circle cx="862.187" cy="214.532" r="4" fill="#0" id="circle131"/>
	<circle cx="862.187" cy="232.374" r="4" fill="#0" id="circle132"/>
	<circle cx="862.187" cy="541.036" r="4" fill="#0" id="circle133"/>
	<circle cx="876.46" cy="244.863" r="4" fill="#0" id="circle134"/>
	<circle cx="878.245" cy="532.115" r="4" fill="#0" id="circle135"/>
	<circle cx="894.302" cy="246.647" r="4" fill="#0" id="circle136"/>
	<circle cx="896.086" cy="526.763" r="4" fill="#0" id="circle137"/>
	<circle cx="906.791" cy="260.921" r="4" fill="#0" id="circle138"/>
	<circle cx="913.928" cy="523.194" r="4" fill="#0" id="circle139"/>
	<circle cx="921.065" cy="273.41" r="4" fill="#0" id="circle140"/>
	<circle cx="929.986" cy="514.273" r="4" fill="#0" id="circle141"/>
	<circle cx="937.122" cy="282.331" r="4" fill="#0" id="circle142"/>
	<circle cx="942.475" cy="496.432" r="4" fill="#0" id="circle143"/>
	<circle cx="946.043" cy="298.388" r="4" fill="#0" id="circle144"/>
	<circle cx="951.396" cy="316.23" r="4" fill="#0" id="circle145"/>
	<circle cx="951.396" cy="416.144" r="4" fill="#0" id="circle146"/>
	<circle cx="951.396" cy="433.986" r="4" fill="#0" id="circle147"/>
	<circle cx="951.396" cy="451.827" r="4" fill="#0" id="circle148"/>
	<circle cx="951.396" cy="469.669" r="4" fill="#0" id="circle149"/>
	<circle cx="967.453" cy="407.223" r="4" fill="#0" id="circle150"/>
	<circle cx="969.237" cy="316.23" r="4" fill="#0" id="circle151"/>
	<circle cx="981.727" cy="396.518" r="4" fill="#0" id="circle152"/>
	<circle cx="983.511" cy="326.935" r="4" fill="#0" id="circle153"/>
	<circle cx="996" cy="341.209" r="4" fill="#0" id="circle154"/>
	<circle cx="996" cy="359.05" r="4" fill="#0" id="circle155"/>
	<circle cx="996" cy="376.892" r="4" fill="#0" id="circle156"/>
	</g>
</svg>