<?xml version="1.0" encoding="UTF-8" standalone="no"?>
<!-- Created with CurveBenchmark -->
<svg
	xmlns:dc="http://purl.org/dc/elements/1.1/"
	xmlns:cc="http://creativecommons.org/ns#"
	xmlns:rdf="http://www.w3.org/1999/02/22-rdf-syntax-ns#"
	xmlns:svg="http://www.w3.org/2000/svg"
	xmlns="http://www.w3.org/2000/svg"
	xmlns:sodipodi="http://sodipodi.sourceforge.net/DTD/sodipodi-0.dtd"
	xmlns:inkscape="http://www.inkscape.org/namespaces/inkscape"
	width="1000"
	height="1000"
	id="svg2"
	version="1.1"
	sodipodi:docname="manifold/hnncrust-phantomaff1.png.txt">
<defs
	id="defs4" />
<metadata
	id="metadata7">
	<rdf:RDF>
		<cc:Work
			rdf:about="">
			<dc:format>image/svg+xml</dc:format>
			<dc:type
				rdf:resource="http://purl.org/dc/dcmitype/StillImage" />
			<dc:title></dc:title>
		</cc:Work>
	</rdf:RDF>
</metadata>
<g
	inkscape:label="Layer 1"
	inkscape:groupmode="layer"
	id="layer1">
	<path style="fill:none;stroke:red;stroke-width:1px;stroke-linecap:butt;stroke-linejoin:miter;stroke-opacity:1" d="M 4,208.47 4,224.444 z" id="boundary" inkscape:connector-curvature="0" />
	<path style="fill:none;stroke:red;stroke-width:1px;stroke-linecap:butt;stroke-linejoin:miter;stroke-opacity:1" d="M 4,208.47 19.9742,203.678 z" id="boundary" inkscape:connector-curvature="0" />
	<path style="fill:none;stroke:red;stroke-width:1px;stroke-linecap:butt;stroke-linejoin:miter;stroke-opacity:1" d="M 4,224.444 16.7794,235.626 z" id="boundary" inkscape:connector-curvature="0" />
	<path style="fill:none;stroke:red;stroke-width:1px;stroke-linecap:butt;stroke-linejoin:miter;stroke-opacity:1" d="M 16.7794,235.626 23.1691,251.601 z" id="boundary" inkscape:connector-curvature="0" />
	<path style="fill:none;stroke:red;stroke-width:1px;stroke-linecap:butt;stroke-linejoin:miter;stroke-opacity:1" d="M 19.9742,203.678 34.351,211.665 z" id="boundary" inkscape:connector-curvature="0" />
	<path style="fill:none;stroke:red;stroke-width:1px;stroke-linecap:butt;stroke-linejoin:miter;stroke-opacity:1" d="M 23.1691,251.601 31.1562,265.977 z" id="boundary" inkscape:connector-curvature="0" />
	<path style="fill:none;stroke:red;stroke-width:1px;stroke-linecap:butt;stroke-linejoin:miter;stroke-opacity:1" d="M 31.1562,265.977 43.9356,277.159 z" id="boundary" inkscape:connector-curvature="0" />
	<path style="fill:none;stroke:red;stroke-width:1px;stroke-linecap:butt;stroke-linejoin:miter;stroke-opacity:1" d="M 34.351,211.665 48.7279,219.652 z" id="boundary" inkscape:connector-curvature="0" />
	<path style="fill:none;stroke:red;stroke-width:1px;stroke-linecap:butt;stroke-linejoin:miter;stroke-opacity:1" d="M 43.9356,277.159 48.7279,293.134 z" id="boundary" inkscape:connector-curvature="0" />
	<path style="fill:none;stroke:red;stroke-width:1px;stroke-linecap:butt;stroke-linejoin:miter;stroke-opacity:1" d="M 48.7279,219.652 63.1047,227.639 z" id="boundary" inkscape:connector-curvature="0" />
	<path style="fill:none;stroke:red;stroke-width:1px;stroke-linecap:butt;stroke-linejoin:miter;stroke-opacity:1" d="M 48.7279,293.134 56.715,307.51 z" id="boundary" inkscape:connector-curvature="0" />
	<path style="fill:none;stroke:red;stroke-width:1px;stroke-linecap:butt;stroke-linejoin:miter;stroke-opacity:1" d="M 56.715,307.51 63.1047,323.485 z" id="boundary" inkscape:connector-curvature="0" />
	<path style="fill:none;stroke:red;stroke-width:1px;stroke-linecap:butt;stroke-linejoin:miter;stroke-opacity:1" d="M 63.1047,227.639 77.4815,235.626 z" id="boundary" inkscape:connector-curvature="0" />
	<path style="fill:none;stroke:red;stroke-width:1px;stroke-linecap:butt;stroke-linejoin:miter;stroke-opacity:1" d="M 63.1047,323.485 71.0918,337.862 z" id="boundary" inkscape:connector-curvature="0" />
	<path style="fill:none;stroke:red;stroke-width:1px;stroke-linecap:butt;stroke-linejoin:miter;stroke-opacity:1" d="M 71.0918,337.862 77.4815,353.836 z" id="boundary" inkscape:connector-curvature="0" />
	<path style="fill:none;stroke:red;stroke-width:1px;stroke-linecap:butt;stroke-linejoin:miter;stroke-opacity:1" d="M 77.4815,235.626 90.2609,245.211 z" id="boundary" inkscape:connector-curvature="0" />
	<path style="fill:none;stroke:red;stroke-width:1px;stroke-linecap:butt;stroke-linejoin:miter;stroke-opacity:1" d="M 77.4815,353.836 90.2609,365.018 z" id="boundary" inkscape:connector-curvature="0" />
	<path style="fill:none;stroke:red;stroke-width:1px;stroke-linecap:butt;stroke-linejoin:miter;stroke-opacity:1" d="M 90.2609,245.211 104.638,253.198 z" id="boundary" inkscape:connector-curvature="0" />
	<path style="fill:none;stroke:red;stroke-width:1px;stroke-linecap:butt;stroke-linejoin:miter;stroke-opacity:1" d="M 90.2609,365.018 99.8454,377.797 z" id="boundary" inkscape:connector-curvature="0" />
	<path style="fill:none;stroke:red;stroke-width:1px;stroke-linecap:butt;stroke-linejoin:miter;stroke-opacity:1" d="M 99.8454,377.797 107.833,392.174 z" id="boundary" inkscape:connector-curvature="0" />
	<path style="fill:none;stroke:red;stroke-width:1px;stroke-linecap:butt;stroke-linejoin:miter;stroke-opacity:1" d="M 104.638,253.198 120.612,259.588 z" id="boundary" inkscape:connector-curvature="0" />
	<path style="fill:none;stroke:red;stroke-width:1px;stroke-linecap:butt;stroke-linejoin:miter;stroke-opacity:1" d="M 107.833,392.174 115.82,406.551 z" id="boundary" inkscape:connector-curvature="0" />
	<path style="fill:none;stroke:red;stroke-width:1px;stroke-linecap:butt;stroke-linejoin:miter;stroke-opacity:1" d="M 115.82,406.551 123.807,420.928 z" id="boundary" inkscape:connector-curvature="0" />
	<path style="fill:none;stroke:red;stroke-width:1px;stroke-linecap:butt;stroke-linejoin:miter;stroke-opacity:1" d="M 120.612,259.588 134.989,267.575 z" id="boundary" inkscape:connector-curvature="0" />
	<path style="fill:none;stroke:red;stroke-width:1px;stroke-linecap:butt;stroke-linejoin:miter;stroke-opacity:1" d="M 123.807,420.928 128.599,436.902 z" id="boundary" inkscape:connector-curvature="0" />
	<path style="fill:none;stroke:red;stroke-width:1px;stroke-linecap:butt;stroke-linejoin:miter;stroke-opacity:1" d="M 128.599,436.902 136.586,451.279 z" id="boundary" inkscape:connector-curvature="0" />
	<path style="fill:none;stroke:red;stroke-width:1px;stroke-linecap:butt;stroke-linejoin:miter;stroke-opacity:1" d="M 131.794,16.7794 131.794,32.7536 z" id="boundary" inkscape:connector-curvature="0" />
	<path style="fill:none;stroke:red;stroke-width:1px;stroke-linecap:butt;stroke-linejoin:miter;stroke-opacity:1" d="M 131.794,16.7794 147.768,11.9871 z" id="boundary" inkscape:connector-curvature="0" />
	<path style="fill:none;stroke:red;stroke-width:1px;stroke-linecap:butt;stroke-linejoin:miter;stroke-opacity:1" d="M 131.794,32.7536 144.573,43.9356 z" id="boundary" inkscape:connector-curvature="0" />
	<path style="fill:none;stroke:red;stroke-width:1px;stroke-linecap:butt;stroke-linejoin:miter;stroke-opacity:1" d="M 134.989,267.575 147.768,278.757 z" id="boundary" inkscape:connector-curvature="0" />
	<path style="fill:none;stroke:red;stroke-width:1px;stroke-linecap:butt;stroke-linejoin:miter;stroke-opacity:1" d="M 136.586,451.279 147.768,464.058 z" id="boundary" inkscape:connector-curvature="0" />
	<path style="fill:none;stroke:red;stroke-width:1px;stroke-linecap:butt;stroke-linejoin:miter;stroke-opacity:1" d="M 144.573,43.9356 155.755,56.715 z" id="boundary" inkscape:connector-curvature="0" />
	<path style="fill:none;stroke:red;stroke-width:1px;stroke-linecap:butt;stroke-linejoin:miter;stroke-opacity:1" d="M 147.768,11.9871 163.742,8.79227 z" id="boundary" inkscape:connector-curvature="0" />
	<path style="fill:none;stroke:red;stroke-width:1px;stroke-linecap:butt;stroke-linejoin:miter;stroke-opacity:1" d="M 147.768,278.757 162.145,286.744 z" id="boundary" inkscape:connector-curvature="0" />
	<path style="fill:none;stroke:red;stroke-width:1px;stroke-linecap:butt;stroke-linejoin:miter;stroke-opacity:1" d="M 147.768,464.058 163.742,468.85 z" id="boundary" inkscape:connector-curvature="0" />
	<path style="fill:none;stroke:red;stroke-width:1px;stroke-linecap:butt;stroke-linejoin:miter;stroke-opacity:1" d="M 155.755,56.715 168.535,67.8969 z" id="boundary" inkscape:connector-curvature="0" />
	<path style="fill:none;stroke:red;stroke-width:1px;stroke-linecap:butt;stroke-linejoin:miter;stroke-opacity:1" d="M 162.145,286.744 178.119,293.134 z" id="boundary" inkscape:connector-curvature="0" />
	<path style="fill:none;stroke:red;stroke-width:1px;stroke-linecap:butt;stroke-linejoin:miter;stroke-opacity:1" d="M 163.742,8.79227 179.717,4 z" id="boundary" inkscape:connector-curvature="0" />
	<path style="fill:none;stroke:red;stroke-width:1px;stroke-linecap:butt;stroke-linejoin:miter;stroke-opacity:1" d="M 163.742,468.85 173.327,452.876 z" id="boundary" inkscape:connector-curvature="0" />
	<path style="fill:none;stroke:red;stroke-width:1px;stroke-linecap:butt;stroke-linejoin:miter;stroke-opacity:1" d="M 168.535,67.8969 179.717,80.6763 z" id="boundary" inkscape:connector-curvature="0" />
	<path style="fill:none;stroke:red;stroke-width:1px;stroke-linecap:butt;stroke-linejoin:miter;stroke-opacity:1" d="M 173.327,452.876 181.314,428.915 z" id="boundary" inkscape:connector-curvature="0" />
	<path style="fill:none;stroke:red;stroke-width:1px;stroke-linecap:butt;stroke-linejoin:miter;stroke-opacity:1" d="M 178.119,293.134 194.093,299.523 z" id="boundary" inkscape:connector-curvature="0" />
	<path style="fill:none;stroke:red;stroke-width:1px;stroke-linecap:butt;stroke-linejoin:miter;stroke-opacity:1" d="M 179.717,4 194.093,11.9871 z" id="boundary" inkscape:connector-curvature="0" />
	<path style="fill:none;stroke:red;stroke-width:1px;stroke-linecap:butt;stroke-linejoin:miter;stroke-opacity:1" d="M 179.717,80.6763 187.704,95.0531 z" id="boundary" inkscape:connector-curvature="0" />
	<path style="fill:none;stroke:red;stroke-width:1px;stroke-linecap:butt;stroke-linejoin:miter;stroke-opacity:1" d="M 181.314,428.915 189.301,412.94 z" id="boundary" inkscape:connector-curvature="0" />
	<path style="fill:none;stroke:red;stroke-width:1px;stroke-linecap:butt;stroke-linejoin:miter;stroke-opacity:1" d="M 187.704,95.0531 198.886,107.833 z" id="boundary" inkscape:connector-curvature="0" />
	<path style="fill:none;stroke:red;stroke-width:1px;stroke-linecap:butt;stroke-linejoin:miter;stroke-opacity:1" d="M 189.301,412.94 197.288,396.966 z" id="boundary" inkscape:connector-curvature="0" />
	<path style="fill:none;stroke:red;stroke-width:1px;stroke-linecap:butt;stroke-linejoin:miter;stroke-opacity:1" d="M 194.093,11.9871 208.47,19.9742 z" id="boundary" inkscape:connector-curvature="0" />
	<path style="fill:none;stroke:red;stroke-width:1px;stroke-linecap:butt;stroke-linejoin:miter;stroke-opacity:1" d="M 194.093,299.523 210.068,299.523 z" id="boundary" inkscape:connector-curvature="0" />
	<path style="fill:none;stroke:red;stroke-width:1px;stroke-linecap:butt;stroke-linejoin:miter;stroke-opacity:1" d="M 197.288,380.992 197.288,396.966 z" id="boundary" inkscape:connector-curvature="0" />
	<path style="fill:none;stroke:red;stroke-width:1px;stroke-linecap:butt;stroke-linejoin:miter;stroke-opacity:1" d="M 197.288,380.992 205.275,365.018 z" id="boundary" inkscape:connector-curvature="0" />
	<path style="fill:none;stroke:red;stroke-width:1px;stroke-linecap:butt;stroke-linejoin:miter;stroke-opacity:1" d="M 198.886,107.833 206.873,122.209 z" id="boundary" inkscape:connector-curvature="0" />
	<path style="fill:none;stroke:red;stroke-width:1px;stroke-linecap:butt;stroke-linejoin:miter;stroke-opacity:1" d="M 205.275,365.018 218.055,353.836 z" id="boundary" inkscape:connector-curvature="0" />
	<path style="fill:none;stroke:red;stroke-width:1px;stroke-linecap:butt;stroke-linejoin:miter;stroke-opacity:1" d="M 206.873,122.209 219.652,133.391 z" id="boundary" inkscape:connector-curvature="0" />
	<path style="fill:none;stroke:red;stroke-width:1px;stroke-linecap:butt;stroke-linejoin:miter;stroke-opacity:1" d="M 208.47,19.9742 222.847,27.9614 z" id="boundary" inkscape:connector-curvature="0" />
	<path style="fill:none;stroke:red;stroke-width:1px;stroke-linecap:butt;stroke-linejoin:miter;stroke-opacity:1" d="M 210.068,299.523 224.444,291.536 z" id="boundary" inkscape:connector-curvature="0" />
	<path style="fill:none;stroke:red;stroke-width:1px;stroke-linecap:butt;stroke-linejoin:miter;stroke-opacity:1" d="M 218.055,353.836 234.029,349.043 z" id="boundary" inkscape:connector-curvature="0" />
	<path style="fill:none;stroke:red;stroke-width:1px;stroke-linecap:butt;stroke-linejoin:miter;stroke-opacity:1" d="M 219.652,133.391 229.237,146.171 z" id="boundary" inkscape:connector-curvature="0" />
	<path style="fill:none;stroke:red;stroke-width:1px;stroke-linecap:butt;stroke-linejoin:miter;stroke-opacity:1" d="M 222.847,27.9614 238.821,27.9614 z" id="boundary" inkscape:connector-curvature="0" />
	<path style="fill:none;stroke:red;stroke-width:1px;stroke-linecap:butt;stroke-linejoin:miter;stroke-opacity:1" d="M 224.444,291.536 232.432,275.562 z" id="boundary" inkscape:connector-curvature="0" />
	<path style="fill:none;stroke:red;stroke-width:1px;stroke-linecap:butt;stroke-linejoin:miter;stroke-opacity:1" d="M 229.237,146.171 242.016,157.353 z" id="boundary" inkscape:connector-curvature="0" />
	<path style="fill:none;stroke:red;stroke-width:1px;stroke-linecap:butt;stroke-linejoin:miter;stroke-opacity:1" d="M 232.432,275.562 246.808,267.575 z" id="boundary" inkscape:connector-curvature="0" />
	<path style="fill:none;stroke:red;stroke-width:1px;stroke-linecap:butt;stroke-linejoin:miter;stroke-opacity:1" d="M 234.029,349.043 250.003,349.043 z" id="boundary" inkscape:connector-curvature="0" />
	<path style="fill:none;stroke:red;stroke-width:1px;stroke-linecap:butt;stroke-linejoin:miter;stroke-opacity:1" d="M 238.821,27.9614 253.198,35.9485 z" id="boundary" inkscape:connector-curvature="0" />
	<path style="fill:none;stroke:red;stroke-width:1px;stroke-linecap:butt;stroke-linejoin:miter;stroke-opacity:1" d="M 242.016,157.353 253.198,170.132 z" id="boundary" inkscape:connector-curvature="0" />
	<path style="fill:none;stroke:red;stroke-width:1px;stroke-linecap:butt;stroke-linejoin:miter;stroke-opacity:1" d="M 246.808,267.575 261.185,259.588 z" id="boundary" inkscape:connector-curvature="0" />
	<path style="fill:none;stroke:red;stroke-width:1px;stroke-linecap:butt;stroke-linejoin:miter;stroke-opacity:1" d="M 250.003,349.043 264.38,357.031 z" id="boundary" inkscape:connector-curvature="0" />
	<path style="fill:none;stroke:red;stroke-width:1px;stroke-linecap:butt;stroke-linejoin:miter;stroke-opacity:1" d="M 253.198,35.9485 267.575,43.9356 z" id="boundary" inkscape:connector-curvature="0" />
	<path style="fill:none;stroke:red;stroke-width:1px;stroke-linecap:butt;stroke-linejoin:miter;stroke-opacity:1" d="M 253.198,170.132 261.185,184.509 z" id="boundary" inkscape:connector-curvature="0" />
	<path style="fill:none;stroke:red;stroke-width:1px;stroke-linecap:butt;stroke-linejoin:miter;stroke-opacity:1" d="M 261.185,184.509 272.367,197.288 z" id="boundary" inkscape:connector-curvature="0" />
	<path style="fill:none;stroke:red;stroke-width:1px;stroke-linecap:butt;stroke-linejoin:miter;stroke-opacity:1" d="M 261.185,259.588 277.159,254.795 z" id="boundary" inkscape:connector-curvature="0" />
	<path style="fill:none;stroke:red;stroke-width:1px;stroke-linecap:butt;stroke-linejoin:miter;stroke-opacity:1" d="M 264.38,357.031 280.354,363.42 z" id="boundary" inkscape:connector-curvature="0" />
	<path style="fill:none;stroke:red;stroke-width:1px;stroke-linecap:butt;stroke-linejoin:miter;stroke-opacity:1" d="M 267.575,43.9356 281.952,51.9227 z" id="boundary" inkscape:connector-curvature="0" />
	<path style="fill:none;stroke:red;stroke-width:1px;stroke-linecap:butt;stroke-linejoin:miter;stroke-opacity:1" d="M 272.367,197.288 285.147,208.47 z" id="boundary" inkscape:connector-curvature="0" />
	<path style="fill:none;stroke:red;stroke-width:1px;stroke-linecap:butt;stroke-linejoin:miter;stroke-opacity:1" d="M 277.159,254.795 291.536,240.419 z" id="boundary" inkscape:connector-curvature="0" />
	<path style="fill:none;stroke:red;stroke-width:1px;stroke-linecap:butt;stroke-linejoin:miter;stroke-opacity:1" d="M 280.354,363.42 294.731,371.407 z" id="boundary" inkscape:connector-curvature="0" />
	<path style="fill:none;stroke:red;stroke-width:1px;stroke-linecap:butt;stroke-linejoin:miter;stroke-opacity:1" d="M 281.952,51.9227 296.329,59.9098 z" id="boundary" inkscape:connector-curvature="0" />
	<path style="fill:none;stroke:red;stroke-width:1px;stroke-linecap:butt;stroke-linejoin:miter;stroke-opacity:1" d="M 285.147,208.47 291.536,224.444 z" id="boundary" inkscape:connector-curvature="0" />
	<path style="fill:none;stroke:red;stroke-width:1px;stroke-linecap:butt;stroke-linejoin:miter;stroke-opacity:1" d="M 291.536,224.444 291.536,240.419 z" id="boundary" inkscape:connector-curvature="0" />
	<path style="fill:none;stroke:red;stroke-width:1px;stroke-linecap:butt;stroke-linejoin:miter;stroke-opacity:1" d="M 294.731,371.407 310.705,373.005 z" id="boundary" inkscape:connector-curvature="0" />
	<path style="fill:none;stroke:red;stroke-width:1px;stroke-linecap:butt;stroke-linejoin:miter;stroke-opacity:1" d="M 296.329,59.9098 312.303,59.9098 z" id="boundary" inkscape:connector-curvature="0" />
	<path style="fill:none;stroke:red;stroke-width:1px;stroke-linecap:butt;stroke-linejoin:miter;stroke-opacity:1" d="M 310.705,373.005 326.68,373.005 z" id="boundary" inkscape:connector-curvature="0" />
	<path style="fill:none;stroke:red;stroke-width:1px;stroke-linecap:butt;stroke-linejoin:miter;stroke-opacity:1" d="M 312.303,59.9098 326.68,67.8969 z" id="boundary" inkscape:connector-curvature="0" />
	<path style="fill:none;stroke:red;stroke-width:1px;stroke-linecap:butt;stroke-linejoin:miter;stroke-opacity:1" d="M 326.68,67.8969 341.056,75.8841 z" id="boundary" inkscape:connector-curvature="0" />
	<path style="fill:none;stroke:red;stroke-width:1px;stroke-linecap:butt;stroke-linejoin:miter;stroke-opacity:1" d="M 326.68,373.005 341.056,380.992 z" id="boundary" inkscape:connector-curvature="0" />
	<path style="fill:none;stroke:red;stroke-width:1px;stroke-linecap:butt;stroke-linejoin:miter;stroke-opacity:1" d="M 341.056,75.8841 353.836,85.4686 z" id="boundary" inkscape:connector-curvature="0" />
	<path style="fill:none;stroke:red;stroke-width:1px;stroke-linecap:butt;stroke-linejoin:miter;stroke-opacity:1" d="M 341.056,380.992 357.031,380.992 z" id="boundary" inkscape:connector-curvature="0" />
	<path style="fill:none;stroke:red;stroke-width:1px;stroke-linecap:butt;stroke-linejoin:miter;stroke-opacity:1" d="M 353.836,85.4686 368.213,93.4557 z" id="boundary" inkscape:connector-curvature="0" />
	<path style="fill:none;stroke:red;stroke-width:1px;stroke-linecap:butt;stroke-linejoin:miter;stroke-opacity:1" d="M 357.031,380.992 373.005,384.187 z" id="boundary" inkscape:connector-curvature="0" />
	<path style="fill:none;stroke:red;stroke-width:1px;stroke-linecap:butt;stroke-linejoin:miter;stroke-opacity:1" d="M 368.213,93.4557 380.992,104.638 z" id="boundary" inkscape:connector-curvature="0" />
	<path style="fill:none;stroke:red;stroke-width:1px;stroke-linecap:butt;stroke-linejoin:miter;stroke-opacity:1" d="M 373.005,384.187 387.382,392.174 z" id="boundary" inkscape:connector-curvature="0" />
	<path style="fill:none;stroke:red;stroke-width:1px;stroke-linecap:butt;stroke-linejoin:miter;stroke-opacity:1" d="M 380.992,104.638 393.771,115.82 z" id="boundary" inkscape:connector-curvature="0" />
	<path style="fill:none;stroke:red;stroke-width:1px;stroke-linecap:butt;stroke-linejoin:miter;stroke-opacity:1" d="M 387.382,392.174 400.161,403.356 z" id="boundary" inkscape:connector-curvature="0" />
	<path style="fill:none;stroke:red;stroke-width:1px;stroke-linecap:butt;stroke-linejoin:miter;stroke-opacity:1" d="M 393.771,115.82 409.746,117.417 z" id="boundary" inkscape:connector-curvature="0" />
	<path style="fill:none;stroke:red;stroke-width:1px;stroke-linecap:butt;stroke-linejoin:miter;stroke-opacity:1" d="M 400.161,403.356 403.356,419.33 z" id="boundary" inkscape:connector-curvature="0" />
	<path style="fill:none;stroke:red;stroke-width:1px;stroke-linecap:butt;stroke-linejoin:miter;stroke-opacity:1" d="M 403.356,419.33 411.343,433.707 z" id="boundary" inkscape:connector-curvature="0" />
	<path style="fill:none;stroke:red;stroke-width:1px;stroke-linecap:butt;stroke-linejoin:miter;stroke-opacity:1" d="M 409.746,117.417 425.72,123.807 z" id="boundary" inkscape:connector-curvature="0" />
	<path style="fill:none;stroke:red;stroke-width:1px;stroke-linecap:butt;stroke-linejoin:miter;stroke-opacity:1" d="M 411.343,433.707 419.33,448.084 z" id="boundary" inkscape:connector-curvature="0" />
	<path style="fill:none;stroke:red;stroke-width:1px;stroke-linecap:butt;stroke-linejoin:miter;stroke-opacity:1" d="M 419.33,448.084 419.33,464.058 z" id="boundary" inkscape:connector-curvature="0" />
	<path style="fill:none;stroke:red;stroke-width:1px;stroke-linecap:butt;stroke-linejoin:miter;stroke-opacity:1" d="M 419.33,464.058 427.317,478.435 z" id="boundary" inkscape:connector-curvature="0" />
	<path style="fill:none;stroke:red;stroke-width:1px;stroke-linecap:butt;stroke-linejoin:miter;stroke-opacity:1" d="M 425.72,123.807 441.694,123.807 z" id="boundary" inkscape:connector-curvature="0" />
	<path style="fill:none;stroke:red;stroke-width:1px;stroke-linecap:butt;stroke-linejoin:miter;stroke-opacity:1" d="M 427.317,478.435 435.304,492.812 z" id="boundary" inkscape:connector-curvature="0" />
	<path style="fill:none;stroke:red;stroke-width:1px;stroke-linecap:butt;stroke-linejoin:miter;stroke-opacity:1" d="M 435.304,492.812 435.304,508.786 z" id="boundary" inkscape:connector-curvature="0" />
	<path style="fill:none;stroke:red;stroke-width:1px;stroke-linecap:butt;stroke-linejoin:miter;stroke-opacity:1" d="M 435.304,508.786 440.097,524.76 z" id="boundary" inkscape:connector-curvature="0" />
	<path style="fill:none;stroke:red;stroke-width:1px;stroke-linecap:butt;stroke-linejoin:miter;stroke-opacity:1" d="M 440.097,524.76 448.084,539.137 z" id="boundary" inkscape:connector-curvature="0" />
	<path style="fill:none;stroke:red;stroke-width:1px;stroke-linecap:butt;stroke-linejoin:miter;stroke-opacity:1" d="M 441.694,123.807 457.668,123.807 z" id="boundary" inkscape:connector-curvature="0" />
	<path style="fill:none;stroke:red;stroke-width:1px;stroke-linecap:butt;stroke-linejoin:miter;stroke-opacity:1" d="M 448.084,539.137 451.279,555.111 z" id="boundary" inkscape:connector-curvature="0" />
	<path style="fill:none;stroke:red;stroke-width:1px;stroke-linecap:butt;stroke-linejoin:miter;stroke-opacity:1" d="M 451.279,555.111 454.473,571.085 z" id="boundary" inkscape:connector-curvature="0" />
	<path style="fill:none;stroke:red;stroke-width:1px;stroke-linecap:butt;stroke-linejoin:miter;stroke-opacity:1" d="M 454.473,571.085 459.266,587.06 z" id="boundary" inkscape:connector-curvature="0" />
	<path style="fill:none;stroke:red;stroke-width:1px;stroke-linecap:butt;stroke-linejoin:miter;stroke-opacity:1" d="M 457.668,123.807 473.643,123.807 z" id="boundary" inkscape:connector-curvature="0" />
	<path style="fill:none;stroke:red;stroke-width:1px;stroke-linecap:butt;stroke-linejoin:miter;stroke-opacity:1" d="M 459.266,587.06 468.85,599.839 z" id="boundary" inkscape:connector-curvature="0" />
	<path style="fill:none;stroke:red;stroke-width:1px;stroke-linecap:butt;stroke-linejoin:miter;stroke-opacity:1" d="M 468.85,599.839 480.032,612.618 z" id="boundary" inkscape:connector-curvature="0" />
	<path style="fill:none;stroke:red;stroke-width:1px;stroke-linecap:butt;stroke-linejoin:miter;stroke-opacity:1" d="M 473.643,123.807 489.617,123.807 z" id="boundary" inkscape:connector-curvature="0" />
	<path style="fill:none;stroke:red;stroke-width:1px;stroke-linecap:butt;stroke-linejoin:miter;stroke-opacity:1" d="M 480.032,612.618 494.409,620.605 z" id="boundary" inkscape:connector-curvature="0" />
	<path style="fill:none;stroke:red;stroke-width:1px;stroke-linecap:butt;stroke-linejoin:miter;stroke-opacity:1" d="M 489.617,123.807 505.591,123.807 z" id="boundary" inkscape:connector-curvature="0" />
	<path style="fill:none;stroke:red;stroke-width:1px;stroke-linecap:butt;stroke-linejoin:miter;stroke-opacity:1" d="M 494.409,620.605 510.383,620.605 z" id="boundary" inkscape:connector-curvature="0" />
	<path style="fill:none;stroke:red;stroke-width:1px;stroke-linecap:butt;stroke-linejoin:miter;stroke-opacity:1" d="M 500.799,149.366 503.994,165.34 z" id="boundary" inkscape:connector-curvature="0" />
	<path style="fill:none;stroke:red;stroke-width:1px;stroke-linecap:butt;stroke-linejoin:miter;stroke-opacity:1" d="M 500.799,149.366 516.773,149.366 z" id="boundary" inkscape:connector-curvature="0" />
	<path style="fill:none;stroke:red;stroke-width:1px;stroke-linecap:butt;stroke-linejoin:miter;stroke-opacity:1" d="M 503.994,165.34 519.968,171.729 z" id="boundary" inkscape:connector-curvature="0" />
	<path style="fill:none;stroke:red;stroke-width:1px;stroke-linecap:butt;stroke-linejoin:miter;stroke-opacity:1" d="M 505.591,123.807 521.565,123.807 z" id="boundary" inkscape:connector-curvature="0" />
	<path style="fill:none;stroke:red;stroke-width:1px;stroke-linecap:butt;stroke-linejoin:miter;stroke-opacity:1" d="M 510.383,620.605 526.357,620.605 z" id="boundary" inkscape:connector-curvature="0" />
	<path style="fill:none;stroke:red;stroke-width:1px;stroke-linecap:butt;stroke-linejoin:miter;stroke-opacity:1" d="M 516.773,149.366 532.747,149.366 z" id="boundary" inkscape:connector-curvature="0" />
	<path style="fill:none;stroke:red;stroke-width:1px;stroke-linecap:butt;stroke-linejoin:miter;stroke-opacity:1" d="M 519.968,171.729 534.345,179.717 z" id="boundary" inkscape:connector-curvature="0" />
	<path style="fill:none;stroke:red;stroke-width:1px;stroke-linecap:butt;stroke-linejoin:miter;stroke-opacity:1" d="M 521.565,123.807 537.539,123.807 z" id="boundary" inkscape:connector-curvature="0" />
	<path style="fill:none;stroke:red;stroke-width:1px;stroke-linecap:butt;stroke-linejoin:miter;stroke-opacity:1" d="M 526.357,620.605 540.734,612.618 z" id="boundary" inkscape:connector-curvature="0" />
	<path style="fill:none;stroke:red;stroke-width:1px;stroke-linecap:butt;stroke-linejoin:miter;stroke-opacity:1" d="M 532.747,149.366 545.527,138.184 z" id="boundary" inkscape:connector-curvature="0" />
	<path style="fill:none;stroke:red;stroke-width:1px;stroke-linecap:butt;stroke-linejoin:miter;stroke-opacity:1" d="M 534.345,179.717 548.721,187.704 z" id="boundary" inkscape:connector-curvature="0" />
	<path style="fill:none;stroke:red;stroke-width:1px;stroke-linecap:butt;stroke-linejoin:miter;stroke-opacity:1" d="M 537.539,123.807 545.527,138.184 z" id="boundary" inkscape:connector-curvature="0" />
	<path style="fill:none;stroke:red;stroke-width:1px;stroke-linecap:butt;stroke-linejoin:miter;stroke-opacity:1" d="M 540.734,612.618 553.514,601.436 z" id="boundary" inkscape:connector-curvature="0" />
	<path style="fill:none;stroke:red;stroke-width:1px;stroke-linecap:butt;stroke-linejoin:miter;stroke-opacity:1" d="M 548.721,187.704 564.696,192.496 z" id="boundary" inkscape:connector-curvature="0" />
	<path style="fill:none;stroke:red;stroke-width:1px;stroke-linecap:butt;stroke-linejoin:miter;stroke-opacity:1" d="M 553.514,601.436 564.696,580.67 z" id="boundary" inkscape:connector-curvature="0" />
	<path style="fill:none;stroke:red;stroke-width:1px;stroke-linecap:butt;stroke-linejoin:miter;stroke-opacity:1" d="M 564.696,192.496 577.475,203.678 z" id="boundary" inkscape:connector-curvature="0" />
	<path style="fill:none;stroke:red;stroke-width:1px;stroke-linecap:butt;stroke-linejoin:miter;stroke-opacity:1" d="M 564.696,580.67 577.475,569.488 z" id="boundary" inkscape:connector-curvature="0" />
	<path style="fill:none;stroke:red;stroke-width:1px;stroke-linecap:butt;stroke-linejoin:miter;stroke-opacity:1" d="M 577.475,203.678 593.449,203.678 z" id="boundary" inkscape:connector-curvature="0" />
	<path style="fill:none;stroke:red;stroke-width:1px;stroke-linecap:butt;stroke-linejoin:miter;stroke-opacity:1" d="M 577.475,569.488 588.657,548.721 z" id="boundary" inkscape:connector-curvature="0" />
	<path style="fill:none;stroke:red;stroke-width:1px;stroke-linecap:butt;stroke-linejoin:miter;stroke-opacity:1" d="M 588.657,548.721 601.436,537.539 z" id="boundary" inkscape:connector-curvature="0" />
	<path style="fill:none;stroke:red;stroke-width:1px;stroke-linecap:butt;stroke-linejoin:miter;stroke-opacity:1" d="M 593.449,203.678 607.826,211.665 z" id="boundary" inkscape:connector-curvature="0" />
	<path style="fill:none;stroke:red;stroke-width:1px;stroke-linecap:butt;stroke-linejoin:miter;stroke-opacity:1" d="M 601.436,537.539 612.618,516.773 z" id="boundary" inkscape:connector-curvature="0" />
	<path style="fill:none;stroke:red;stroke-width:1px;stroke-linecap:butt;stroke-linejoin:miter;stroke-opacity:1" d="M 607.826,211.665 622.203,219.652 z" id="boundary" inkscape:connector-curvature="0" />
	<path style="fill:none;stroke:red;stroke-width:1px;stroke-linecap:butt;stroke-linejoin:miter;stroke-opacity:1" d="M 612.618,500.799 612.618,516.773 z" id="boundary" inkscape:connector-curvature="0" />
	<path style="fill:none;stroke:red;stroke-width:1px;stroke-linecap:butt;stroke-linejoin:miter;stroke-opacity:1" d="M 612.618,500.799 620.605,484.824 z" id="boundary" inkscape:connector-curvature="0" />
	<path style="fill:none;stroke:red;stroke-width:1px;stroke-linecap:butt;stroke-linejoin:miter;stroke-opacity:1" d="M 620.605,484.824 634.982,476.837 z" id="boundary" inkscape:connector-curvature="0" />
	<path style="fill:none;stroke:red;stroke-width:1px;stroke-linecap:butt;stroke-linejoin:miter;stroke-opacity:1" d="M 622.203,219.652 638.177,219.652 z" id="boundary" inkscape:connector-curvature="0" />
	<path style="fill:none;stroke:red;stroke-width:1px;stroke-linecap:butt;stroke-linejoin:miter;stroke-opacity:1" d="M 634.982,476.837 649.359,468.85 z" id="boundary" inkscape:connector-curvature="0" />
	<path style="fill:none;stroke:red;stroke-width:1px;stroke-linecap:butt;stroke-linejoin:miter;stroke-opacity:1" d="M 638.177,219.652 654.151,219.652 z" id="boundary" inkscape:connector-curvature="0" />
	<path style="fill:none;stroke:red;stroke-width:1px;stroke-linecap:butt;stroke-linejoin:miter;stroke-opacity:1" d="M 649.359,468.85 665.333,468.85 z" id="boundary" inkscape:connector-curvature="0" />
	<path style="fill:none;stroke:red;stroke-width:1px;stroke-linecap:butt;stroke-linejoin:miter;stroke-opacity:1" d="M 654.151,219.652 670.126,219.652 z" id="boundary" inkscape:connector-curvature="0" />
	<path style="fill:none;stroke:red;stroke-width:1px;stroke-linecap:butt;stroke-linejoin:miter;stroke-opacity:1" d="M 665.333,468.85 681.308,468.85 z" id="boundary" inkscape:connector-curvature="0" />
	<path style="fill:none;stroke:red;stroke-width:1px;stroke-linecap:butt;stroke-linejoin:miter;stroke-opacity:1" d="M 668.528,412.94 676.515,427.317 z" id="boundary" inkscape:connector-curvature="0" />
	<path style="fill:none;stroke:red;stroke-width:1px;stroke-linecap:butt;stroke-linejoin:miter;stroke-opacity:1" d="M 668.528,412.94 681.308,401.758 z" id="boundary" inkscape:connector-curvature="0" />
	<path style="fill:none;stroke:red;stroke-width:1px;stroke-linecap:butt;stroke-linejoin:miter;stroke-opacity:1" d="M 670.126,219.652 686.1,219.652 z" id="boundary" inkscape:connector-curvature="0" />
	<path style="fill:none;stroke:red;stroke-width:1px;stroke-linecap:butt;stroke-linejoin:miter;stroke-opacity:1" d="M 676.515,427.317 692.49,432.11 z" id="boundary" inkscape:connector-curvature="0" />
	<path style="fill:none;stroke:red;stroke-width:1px;stroke-linecap:butt;stroke-linejoin:miter;stroke-opacity:1" d="M 681.308,401.758 689.295,385.784 z" id="boundary" inkscape:connector-curvature="0" />
	<path style="fill:none;stroke:red;stroke-width:1px;stroke-linecap:butt;stroke-linejoin:miter;stroke-opacity:1" d="M 681.308,468.85 697.282,468.85 z" id="boundary" inkscape:connector-curvature="0" />
	<path style="fill:none;stroke:red;stroke-width:1px;stroke-linecap:butt;stroke-linejoin:miter;stroke-opacity:1" d="M 686.1,219.652 702.074,219.652 z" id="boundary" inkscape:connector-curvature="0" />
	<path style="fill:none;stroke:red;stroke-width:1px;stroke-linecap:butt;stroke-linejoin:miter;stroke-opacity:1" d="M 689.295,385.784 697.282,369.81 z" id="boundary" inkscape:connector-curvature="0" />
	<path style="fill:none;stroke:red;stroke-width:1px;stroke-linecap:butt;stroke-linejoin:miter;stroke-opacity:1" d="M 692.49,432.11 708.464,435.304 z" id="boundary" inkscape:connector-curvature="0" />
	<path style="fill:none;stroke:red;stroke-width:1px;stroke-linecap:butt;stroke-linejoin:miter;stroke-opacity:1" d="M 697.282,369.81 713.256,365.018 z" id="boundary" inkscape:connector-curvature="0" />
	<path style="fill:none;stroke:red;stroke-width:1px;stroke-linecap:butt;stroke-linejoin:miter;stroke-opacity:1" d="M 697.282,468.85 713.256,465.655 z" id="boundary" inkscape:connector-curvature="0" />
	<path style="fill:none;stroke:red;stroke-width:1px;stroke-linecap:butt;stroke-linejoin:miter;stroke-opacity:1" d="M 702.074,219.652 716.451,227.639 z" id="boundary" inkscape:connector-curvature="0" />
	<path style="fill:none;stroke:red;stroke-width:1px;stroke-linecap:butt;stroke-linejoin:miter;stroke-opacity:1" d="M 708.464,435.304 724.438,435.304 z" id="boundary" inkscape:connector-curvature="0" />
	<path style="fill:none;stroke:red;stroke-width:1px;stroke-linecap:butt;stroke-linejoin:miter;stroke-opacity:1" d="M 713.256,365.018 729.23,361.823 z" id="boundary" inkscape:connector-curvature="0" />
	<path style="fill:none;stroke:red;stroke-width:1px;stroke-linecap:butt;stroke-linejoin:miter;stroke-opacity:1" d="M 713.256,465.655 729.23,460.863 z" id="boundary" inkscape:connector-curvature="0" />
	<path style="fill:none;stroke:red;stroke-width:1px;stroke-linecap:butt;stroke-linejoin:miter;stroke-opacity:1" d="M 716.451,227.639 732.425,232.432 z" id="boundary" inkscape:connector-curvature="0" />
	<path style="fill:none;stroke:red;stroke-width:1px;stroke-linecap:butt;stroke-linejoin:miter;stroke-opacity:1" d="M 724.438,435.304 740.412,440.097 z" id="boundary" inkscape:connector-curvature="0" />
	<path style="fill:none;stroke:red;stroke-width:1px;stroke-linecap:butt;stroke-linejoin:miter;stroke-opacity:1" d="M 729.23,361.823 745.205,357.031 z" id="boundary" inkscape:connector-curvature="0" />
	<path style="fill:none;stroke:red;stroke-width:1px;stroke-linecap:butt;stroke-linejoin:miter;stroke-opacity:1" d="M 729.23,460.863 740.412,440.097 z" id="boundary" inkscape:connector-curvature="0" />
	<path style="fill:none;stroke:red;stroke-width:1px;stroke-linecap:butt;stroke-linejoin:miter;stroke-opacity:1" d="M 732.425,232.432 748.399,235.626 z" id="boundary" inkscape:connector-curvature="0" />
	<path style="fill:none;stroke:red;stroke-width:1px;stroke-linecap:butt;stroke-linejoin:miter;stroke-opacity:1" d="M 745.205,357.031 761.179,357.031 z" id="boundary" inkscape:connector-curvature="0" />
	<path style="fill:none;stroke:red;stroke-width:1px;stroke-linecap:butt;stroke-linejoin:miter;stroke-opacity:1" d="M 748.399,235.626 764.374,235.626 z" id="boundary" inkscape:connector-curvature="0" />
	<path style="fill:none;stroke:red;stroke-width:1px;stroke-linecap:butt;stroke-linejoin:miter;stroke-opacity:1" d="M 761.179,357.031 777.153,357.031 z" id="boundary" inkscape:connector-curvature="0" />
	<path style="fill:none;stroke:red;stroke-width:1px;stroke-linecap:butt;stroke-linejoin:miter;stroke-opacity:1" d="M 764.374,235.626 778.75,243.614 z" id="boundary" inkscape:connector-curvature="0" />
	<path style="fill:none;stroke:red;stroke-width:1px;stroke-linecap:butt;stroke-linejoin:miter;stroke-opacity:1" d="M 777.153,357.031 788.335,341.056 z" id="boundary" inkscape:connector-curvature="0" />
	<path style="fill:none;stroke:red;stroke-width:1px;stroke-linecap:butt;stroke-linejoin:miter;stroke-opacity:1" d="M 778.75,243.614 794.725,246.808 z" id="boundary" inkscape:connector-curvature="0" />
	<path style="fill:none;stroke:red;stroke-width:1px;stroke-linecap:butt;stroke-linejoin:miter;stroke-opacity:1" d="M 788.335,341.056 802.712,333.069 z" id="boundary" inkscape:connector-curvature="0" />
	<path style="fill:none;stroke:red;stroke-width:1px;stroke-linecap:butt;stroke-linejoin:miter;stroke-opacity:1" d="M 794.725,246.808 810.699,251.601 z" id="boundary" inkscape:connector-curvature="0" />
	<path style="fill:none;stroke:red;stroke-width:1px;stroke-linecap:butt;stroke-linejoin:miter;stroke-opacity:1" d="M 802.712,333.069 818.686,333.069 z" id="boundary" inkscape:connector-curvature="0" />
	<path style="fill:none;stroke:red;stroke-width:1px;stroke-linecap:butt;stroke-linejoin:miter;stroke-opacity:1" d="M 810.699,251.601 826.673,251.601 z" id="boundary" inkscape:connector-curvature="0" />
	<path style="fill:none;stroke:red;stroke-width:1px;stroke-linecap:butt;stroke-linejoin:miter;stroke-opacity:1" d="M 818.686,333.069 828.271,317.095 z" id="boundary" inkscape:connector-curvature="0" />
	<path style="fill:none;stroke:red;stroke-width:1px;stroke-linecap:butt;stroke-linejoin:miter;stroke-opacity:1" d="M 826.673,251.601 842.647,251.601 z" id="boundary" inkscape:connector-curvature="0" />
	<path style="fill:none;stroke:red;stroke-width:1px;stroke-linecap:butt;stroke-linejoin:miter;stroke-opacity:1" d="M 828.271,317.095 842.647,309.108 z" id="boundary" inkscape:connector-curvature="0" />
	<path style="fill:none;stroke:red;stroke-width:1px;stroke-linecap:butt;stroke-linejoin:miter;stroke-opacity:1" d="M 842.647,251.601 858.622,248.406 z" id="boundary" inkscape:connector-curvature="0" />
	<path style="fill:none;stroke:red;stroke-width:1px;stroke-linecap:butt;stroke-linejoin:miter;stroke-opacity:1" d="M 842.647,309.108 858.622,309.108 z" id="boundary" inkscape:connector-curvature="0" />
	<path style="fill:none;stroke:red;stroke-width:1px;stroke-linecap:butt;stroke-linejoin:miter;stroke-opacity:1" d="M 858.622,248.406 874.596,243.614 z" id="boundary" inkscape:connector-curvature="0" />
	<path style="fill:none;stroke:red;stroke-width:1px;stroke-linecap:butt;stroke-linejoin:miter;stroke-opacity:1" d="M 858.622,309.108 874.596,309.108 z" id="boundary" inkscape:connector-curvature="0" />
	<path style="fill:none;stroke:red;stroke-width:1px;stroke-linecap:butt;stroke-linejoin:miter;stroke-opacity:1" d="M 874.596,243.614 890.57,243.614 z" id="boundary" inkscape:connector-curvature="0" />
	<path style="fill:none;stroke:red;stroke-width:1px;stroke-linecap:butt;stroke-linejoin:miter;stroke-opacity:1" d="M 874.596,309.108 890.57,309.108 z" id="boundary" inkscape:connector-curvature="0" />
	<path style="fill:none;stroke:red;stroke-width:1px;stroke-linecap:butt;stroke-linejoin:miter;stroke-opacity:1" d="M 890.57,243.614 906.544,243.614 z" id="boundary" inkscape:connector-curvature="0" />
	<path style="fill:none;stroke:red;stroke-width:1px;stroke-linecap:butt;stroke-linejoin:miter;stroke-opacity:1" d="M 890.57,309.108 904.947,301.121 z" id="boundary" inkscape:connector-curvature="0" />
	<path style="fill:none;stroke:red;stroke-width:1px;stroke-linecap:butt;stroke-linejoin:miter;stroke-opacity:1" d="M 904.947,301.121 920.921,301.121 z" id="boundary" inkscape:connector-curvature="0" />
	<path style="fill:none;stroke:red;stroke-width:1px;stroke-linecap:butt;stroke-linejoin:miter;stroke-opacity:1" d="M 906.544,243.614 922.519,243.614 z" id="boundary" inkscape:connector-curvature="0" />
	<path style="fill:none;stroke:red;stroke-width:1px;stroke-linecap:butt;stroke-linejoin:miter;stroke-opacity:1" d="M 920.921,301.121 936.895,301.121 z" id="boundary" inkscape:connector-curvature="0" />
	<path style="fill:none;stroke:red;stroke-width:1px;stroke-linecap:butt;stroke-linejoin:miter;stroke-opacity:1" d="M 922.519,243.614 936.895,251.601 z" id="boundary" inkscape:connector-curvature="0" />
	<path style="fill:none;stroke:red;stroke-width:1px;stroke-linecap:butt;stroke-linejoin:miter;stroke-opacity:1" d="M 936.895,251.601 952.87,251.601 z" id="boundary" inkscape:connector-curvature="0" />
	<path style="fill:none;stroke:red;stroke-width:1px;stroke-linecap:butt;stroke-linejoin:miter;stroke-opacity:1" d="M 936.895,301.121 951.272,293.134 z" id="boundary" inkscape:connector-curvature="0" />
	<path style="fill:none;stroke:red;stroke-width:1px;stroke-linecap:butt;stroke-linejoin:miter;stroke-opacity:1" d="M 951.272,293.134 967.246,291.536 z" id="boundary" inkscape:connector-curvature="0" />
	<path style="fill:none;stroke:red;stroke-width:1px;stroke-linecap:butt;stroke-linejoin:miter;stroke-opacity:1" d="M 952.87,251.601 968.844,251.601 z" id="boundary" inkscape:connector-curvature="0" />
	<path style="fill:none;stroke:red;stroke-width:1px;stroke-linecap:butt;stroke-linejoin:miter;stroke-opacity:1" d="M 967.246,291.536 983.221,285.147 z" id="boundary" inkscape:connector-curvature="0" />
	<path style="fill:none;stroke:red;stroke-width:1px;stroke-linecap:butt;stroke-linejoin:miter;stroke-opacity:1" d="M 968.844,251.601 984.818,253.198 z" id="boundary" inkscape:connector-curvature="0" />
	<path style="fill:none;stroke:red;stroke-width:1px;stroke-linecap:butt;stroke-linejoin:miter;stroke-opacity:1" d="M 983.221,285.147 996,265.977 z" id="boundary" inkscape:connector-curvature="0" />
	<path style="fill:none;stroke:red;stroke-width:1px;stroke-linecap:butt;stroke-linejoin:miter;stroke-opacity:1" d="M 984.818,253.198 996,265.977 z" id="boundary" inkscape:connector-curvature="0" />
	<circle cx="4" cy="208.47" r="4" fill="#0" id="circle0"/>
	<circle cx="4" cy="224.444" r="4" fill="#0" id="circle1"/>
	<circle cx="16.7794" cy="235.626" r="4" fill="#0" id="circle2"/>
	<circle cx="19.9742" cy="203.678" r="4" fill="#0" id="circle3"/>
	<circle cx="23.1691" cy="251.601" r="4" fill="#0" id="circle4"/>
	<circle cx="31.1562" cy="265.977" r="4" fill="#0" id="circle5"/>
	<circle cx="34.351" cy="211.665" r="4" fill="#0" id="circle6"/>
	<circle cx="43.9356" cy="277.159" r="4" fill="#0" id="circle7"/>
	<circle cx="48.7279" cy="219.652" r="4" fill="#0" id="circle8"/>
	<circle cx="48.7279" cy="293.134" r="4" fill="#0" id="circle9"/>
	<circle cx="56.715" cy="307.51" r="4" fill="#0" id="circle10"/>
	<circle cx="63.1047" cy="227.639" r="4" fill="#0" id="circle11"/>
	<circle cx="63.1047" cy="323.485" r="4" fill="#0" id="circle12"/>
	<circle cx="71.0918" cy="337.862" r="4" fill="#0" id="circle13"/>
	<circle cx="77.4815" cy="235.626" r="4" fill="#0" id="circle14"/>
	<circle cx="77.4815" cy="353.836" r="4" fill="#0" id="circle15"/>
	<circle cx="90.2609" cy="245.211" r="4" fill="#0" id="circle16"/>
	<circle cx="90.2609" cy="365.018" r="4" fill="#0" id="circle17"/>
	<circle cx="99.8454" cy="377.797" r="4" fill="#0" id="circle18"/>
	<circle cx="104.638" cy="253.198" r="4" fill="#0" id="circle19"/>
	<circle cx="107.833" cy="392.174" r="4" fill="#0" id="circle20"/>
	<circle cx="115.82" cy="406.551" r="4" fill="#0" id="circle21"/>
	<circle cx="120.612" cy="259.588" r="4" fill="#0" id="circle22"/>
	<circle cx="123.807" cy="420.928" r="4" fill="#0" id="circle23"/>
	<circle cx="128.599" cy="436.902" r="4" fill="#0" id="circle24"/>
	<circle cx="131.794" cy="16.7794" r="4" fill="#0" id="circle25"/>
	<circle cx="131.794" cy="32.7536" r="4" fill="#0" id="circle26"/>
	<circle cx="134.989" cy="267.575" r="4" fill="#0" id="circle27"/>
	<circle cx="136.586" cy="451.279" r="4" fill="#0" id="circle28"/>
	<circle cx="144.573" cy="43.9356" r="4" fill="#0" id="circle29"/>
	<circle cx="147.768" cy="11.9871" r="4" fill="#0" id="circle30"/>
	<circle cx="147.768" cy="278.757" r="4" fill="#0" id="circle31"/>
	<circle cx="147.768" cy="464.058" r="4" fill="#0" id="circle32"/>
	<circle cx="155.755" cy="56.715" r="4" fill="#0" id="circle33"/>
	<circle cx="162.145" cy="286.744" r="4" fill="#0" id="circle34"/>
	<circle cx="163.742" cy="8.79227" r="4" fill="#0" id="circle35"/>
	<circle cx="163.742" cy="468.85" r="4" fill="#0" id="circle36"/>
	<circle cx="168.535" cy="67.8969" r="4" fill="#0" id="circle37"/>
	<circle cx="173.327" cy="452.876" r="4" fill="#0" id="circle38"/>
	<circle cx="178.119" cy="293.134" r="4" fill="#0" id="circle39"/>
	<circle cx="179.717" cy="4" r="4" fill="#0" id="circle40"/>
	<circle cx="179.717" cy="80.6763" r="4" fill="#0" id="circle41"/>
	<circle cx="181.314" cy="428.915" r="4" fill="#0" id="circle42"/>
	<circle cx="187.704" cy="95.0531" r="4" fill="#0" id="circle43"/>
	<circle cx="189.301" cy="412.94" r="4" fill="#0" id="circle44"/>
	<circle cx="194.093" cy="11.9871" r="4" fill="#0" id="circle45"/>
	<circle cx="194.093" cy="299.523" r="4" fill="#0" id="circle46"/>
	<circle cx="197.288" cy="380.992" r="4" fill="#0" id="circle47"/>
	<circle cx="197.288" cy="396.966" r="4" fill="#0" id="circle48"/>
	<circle cx="198.886" cy="107.833" r="4" fill="#0" id="circle49"/>
	<circle cx="205.275" cy="365.018" r="4" fill="#0" id="circle50"/>
	<circle cx="206.873" cy="122.209" r="4" fill="#0" id="circle51"/>
	<circle cx="208.47" cy="19.9742" r="4" fill="#0" id="circle52"/>
	<circle cx="210.068" cy="299.523" r="4" fill="#0" id="circle53"/>
	<circle cx="218.055" cy="353.836" r="4" fill="#0" id="circle54"/>
	<circle cx="219.652" cy="133.391" r="4" fill="#0" id="circle55"/>
	<circle cx="222.847" cy="27.9614" r="4" fill="#0" id="circle56"/>
	<circle cx="224.444" cy="291.536" r="4" fill="#0" id="circle57"/>
	<circle cx="229.237" cy="146.171" r="4" fill="#0" id="circle58"/>
	<circle cx="232.432" cy="275.562" r="4" fill="#0" id="circle59"/>
	<circle cx="234.029" cy="349.043" r="4" fill="#0" id="circle60"/>
	<circle cx="238.821" cy="27.9614" r="4" fill="#0" id="circle61"/>
	<circle cx="242.016" cy="157.353" r="4" fill="#0" id="circle62"/>
	<circle cx="246.808" cy="267.575" r="4" fill="#0" id="circle63"/>
	<circle cx="250.003" cy="349.043" r="4" fill="#0" id="circle64"/>
	<circle cx="253.198" cy="35.9485" r="4" fill="#0" id="circle65"/>
	<circle cx="253.198" cy="170.132" r="4" fill="#0" id="circle66"/>
	<circle cx="261.185" cy="184.509" r="4" fill="#0" id="circle67"/>
	<circle cx="261.185" cy="259.588" r="4" fill="#0" id="circle68"/>
	<circle cx="264.38" cy="357.031" r="4" fill="#0" id="circle69"/>
	<circle cx="267.575" cy="43.9356" r="4" fill="#0" id="circle70"/>
	<circle cx="272.367" cy="197.288" r="4" fill="#0" id="circle71"/>
	<circle cx="277.159" cy="254.795" r="4" fill="#0" id="circle72"/>
	<circle cx="280.354" cy="363.42" r="4" fill="#0" id="circle73"/>
	<circle cx="281.952" cy="51.9227" r="4" fill="#0" id="circle74"/>
	<circle cx="285.147" cy="208.47" r="4" fill="#0" id="circle75"/>
	<circle cx="291.536" cy="224.444" r="4" fill="#0" id="circle76"/>
	<circle cx="291.536" cy="240.419" r="4" fill="#0" id="circle77"/>
	<circle cx="294.731" cy="371.407" r="4" fill="#0" id="circle78"/>
	<circle cx="296.329" cy="59.9098" r="4" fill="#0" id="circle79"/>
	<circle cx="310.705" cy="373.005" r="4" fill="#0" id="circle80"/>
	<circle cx="312.303" cy="59.9098" r="4" fill="#0" id="circle81"/>
	<circle cx="326.68" cy="67.8969" r="4" fill="#0" id="circle82"/>
	<circle cx="326.68" cy="373.005" r="4" fill="#0" id="circle83"/>
	<circle cx="341.056" cy="75.8841" r="4" fill="#0" id="circle84"/>
	<circle cx="341.056" cy="380.992" r="4" fill="#0" id="circle85"/>
	<circle cx="353.836" cy="85.4686" r="4" fill="#0" id="circle86"/>
	<circle cx="357.031" cy="380.992" r="4" fill="#0" id="circle87"/>
	<circle cx="368.213" cy="93.4557" r="4" fill="#0" id="circle88"/>
	<circle cx="373.005" cy="384.187" r="4" fill="#0" id="circle89"/>
	<circle cx="380.992" cy="104.638" r="4" fill="#0" id="circle90"/>
	<circle cx="387.382" cy="392.174" r="4" fill="#0" id="circle91"/>
	<circle cx="393.771" cy="115.82" r="4" fill="#0" id="circle92"/>
	<circle cx="400.161" cy="403.356" r="4" fill="#0" id="circle93"/>
	<circle cx="403.356" cy="419.33" r="4" fill="#0" id="circle94"/>
	<circle cx="409.746" cy="117.417" r="4" fill="#0" id="circle95"/>
	<circle cx="411.343" cy="433.707" r="4" fill="#0" id="circle96"/>
	<circle cx="419.33" cy="448.084" r="4" fill="#0" id="circle97"/>
	<circle cx="419.33" cy="464.058" r="4" fill="#0" id="circle98"/>
	<circle cx="425.72" cy="123.807" r="4" fill="#0" id="circle99"/>
	<circle cx="427.317" cy="478.435" r="4" fill="#0" id="circle100"/>
	<circle cx="435.304" cy="492.812" r="4" fill="#0" id="circle101"/>
	<circle cx="435.304" cy="508.786" r="4" fill="#0" id="circle102"/>
	<circle cx="440.097" cy="524.76" r="4" fill="#0" id="circle103"/>
	<circle cx="441.694" cy="123.807" r="4" fill="#0" id="circle104"/>
	<circle cx="448.084" cy="539.137" r="4" fill="#0" id="circle105"/>
	<circle cx="451.279" cy="555.111" r="4" fill="#0" id="circle106"/>
	<circle cx="454.473" cy="571.085" r="4" fill="#0" id="circle107"/>
	<circle cx="457.668" cy="123.807" r="4" fill="#0" id="circle108"/>
	<circle cx="459.266" cy="587.06" r="4" fill="#0" id="circle109"/>
	<circle cx="468.85" cy="599.839" r="4" fill="#0" id="circle110"/>
	<circle cx="473.643" cy="123.807" r="4" fill="#0" id="circle111"/>
	<circle cx="480.032" cy="612.618" r="4" fill="#0" id="circle112"/>
	<circle cx="489.617" cy="123.807" r="4" fill="#0" id="circle113"/>
	<circle cx="494.409" cy="620.605" r="4" fill="#0" id="circle114"/>
	<circle cx="500.799" cy="149.366" r="4" fill="#0" id="circle115"/>
	<circle cx="503.994" cy="165.34" r="4" fill="#0" id="circle116"/>
	<circle cx="505.591" cy="123.807" r="4" fill="#0" id="circle117"/>
	<circle cx="510.383" cy="620.605" r="4" fill="#0" id="circle118"/>
	<circle cx="516.773" cy="149.366" r="4" fill="#0" id="circle119"/>
	<circle cx="519.968" cy="171.729" r="4" fill="#0" id="circle120"/>
	<circle cx="521.565" cy="123.807" r="4" fill="#0" id="circle121"/>
	<circle cx="526.357" cy="620.605" r="4" fill="#0" id="circle122"/>
	<circle cx="532.747" cy="149.366" r="4" fill="#0" id="circle123"/>
	<circle cx="534.345" cy="179.717" r="4" fill="#0" id="circle124"/>
	<circle cx="537.539" cy="123.807" r="4" fill="#0" id="circle125"/>
	<circle cx="540.734" cy="612.618" r="4" fill="#0" id="circle126"/>
	<circle cx="545.527" cy="138.184" r="4" fill="#0" id="circle127"/>
	<circle cx="548.721" cy="187.704" r="4" fill="#0" id="circle128"/>
	<circle cx="553.514" cy="601.436" r="4" fill="#0" id="circle129"/>
	<circle cx="564.696" cy="192.496" r="4" fill="#0" id="circle130"/>
	<circle cx="564.696" cy="580.67" r="4" fill="#0" id="circle131"/>
	<circle cx="577.475" cy="203.678" r="4" fill="#0" id="circle132"/>
	<circle cx="577.475" cy="569.488" r="4" fill="#0" id="circle133"/>
	<circle cx="588.657" cy="548.721" r="4" fill="#0" id="circle134"/>
	<circle cx="593.449" cy="203.678" r="4" fill="#0" id="circle135"/>
	<circle cx="601.436" cy="537.539" r="4" fill="#0" id="circle136"/>
	<circle cx="607.826" cy="211.665" r="4" fill="#0" id="circle137"/>
	<circle cx="612.618" cy="500.799" r="4" fill="#0" id="circle138"/>
	<circle cx="612.618" cy="516.773" r="4" fill="#0" id="circle139"/>
	<circle cx="620.605" cy="484.824" r="4" fill="#0" id="circle140"/>
	<circle cx="622.203" cy="219.652" r="4" fill="#0" id="circle141"/>
	<circle cx="634.982" cy="476.837" r="4" fill="#0" id="circle142"/>
	<circle cx="638.177" cy="219.652" r="4" fill="#0" id="circle143"/>
	<circle cx="649.359" cy="468.85" r="4" fill="#0" id="circle144"/>
	<circle cx="654.151" cy="219.652" r="4" fill="#0" id="circle145"/>
	<circle cx="665.333" cy="468.85" r="4" fill="#0" id="circle146"/>
	<circle cx="668.528" cy="412.94" r="4" fill="#0" id="circle147"/>
	<circle cx="670.126" cy="219.652" r="4" fill="#0" id="circle148"/>
	<circle cx="676.515" cy="427.317" r="4" fill="#0" id="circle149"/>
	<circle cx="681.308" cy="401.758" r="4" fill="#0" id="circle150"/>
	<circle cx="681.308" cy="468.85" r="4" fill="#0" id="circle151"/>
	<circle cx="686.1" cy="219.652" r="4" fill="#0" id="circle152"/>
	<circle cx="689.295" cy="385.784" r="4" fill="#0" id="circle153"/>
	<circle cx="692.49" cy="432.11" r="4" fill="#0" id="circle154"/>
	<circle cx="697.282" cy="369.81" r="4" fill="#0" id="circle155"/>
	<circle cx="697.282" cy="468.85" r="4" fill="#0" id="circle156"/>
	<circle cx="702.074" cy="219.652" r="4" fill="#0" id="circle157"/>
	<circle cx="708.464" cy="435.304" r="4" fill="#0" id="circle158"/>
	<circle cx="713.256" cy="365.018" r="4" fill="#0" id="circle159"/>
	<circle cx="713.256" cy="465.655" r="4" fill="#0" id="circle160"/>
	<circle cx="716.451" cy="227.639" r="4" fill="#0" id="circle161"/>
	<circle cx="724.438" cy="435.304" r="4" fill="#0" id="circle162"/>
	<circle cx="729.23" cy="361.823" r="4" fill="#0" id="circle163"/>
	<circle cx="729.23" cy="460.863" r="4" fill="#0" id="circle164"/>
	<circle cx="732.425" cy="232.432" r="4" fill="#0" id="circle165"/>
	<circle cx="740.412" cy="440.097" r="4" fill="#0" id="circle166"/>
	<circle cx="745.205" cy="357.031" r="4" fill="#0" id="circle167"/>
	<circle cx="748.399" cy="235.626" r="4" fill="#0" id="circle168"/>
	<circle cx="761.179" cy="357.031" r="4" fill="#0" id="circle169"/>
	<circle cx="764.374" cy="235.626" r="4" fill="#0" id="circle170"/>
	<circle cx="777.153" cy="357.031" r="4" fill="#0" id="circle171"/>
	<circle cx="778.75" cy="243.614" r="4" fill="#0" id="circle172"/>
	<circle cx="788.335" cy="341.056" r="4" fill="#0" id="circle173"/>
	<circle cx="794.725" cy="246.808" r="4" fill="#0" id="circle174"/>
	<circle cx="802.712" cy="333.069" r="4" fill="#0" id="circle175"/>
	<circle cx="810.699" cy="251.601" r="4" fill="#0" id="circle176"/>
	<circle cx="818.686" cy="333.069" r="4" fill="#0" id="circle177"/>
	<circle cx="826.673" cy="251.601" r="4" fill="#0" id="circle178"/>
	<circle cx="828.271" cy="317.095" r="4" fill="#0" id="circle179"/>
	<circle cx="842.647" cy="251.601" r="4" fill="#0" id="circle180"/>
	<circle cx="842.647" cy="309.108" r="4" fill="#0" id="circle181"/>
	<circle cx="858.622" cy="248.406" r="4" fill="#0" id="circle182"/>
	<circle cx="858.622" cy="309.108" r="4" fill="#0" id="circle183"/>
	<circle cx="874.596" cy="243.614" r="4" fill="#0" id="circle184"/>
	<circle cx="874.596" cy="309.108" r="4" fill="#0" id="circle185"/>
	<circle cx="890.57" cy="243.614" r="4" fill="#0" id="circle186"/>
	<circle cx="890.57" cy="309.108" r="4" fill="#0" id="circle187"/>
	<circle cx="904.947" cy="301.121" r="4" fill="#0" id="circle188"/>
	<circle cx="906.544" cy="243.614" r="4" fill="#0" id="circle189"/>
	<circle cx="920.921" cy="301.121" r="4" fill="#0" id="circle190"/>
	<circle cx="922.519" cy="243.614" r="4" fill="#0" id="circle191"/>
	<circle cx="936.895" cy="251.601" r="4" fill="#0" id="circle192"/>
	<circle cx="936.895" cy="301.121" r="4" fill="#0" id="circle193"/>
	<circle cx="951.272" cy="293.134" r="4" fill="#0" id="circle194"/>
	<circle cx="952.87" cy="251.601" r="4" fill="#0" id="circle195"/>
	<circle cx="967.246" cy="291.536" r="4" fill="#0" id="circle196"/>
	<circle cx="968.844" cy="251.601" r="4" fill="#0" id="circle197"/>
	<circle cx="983.221" cy="285.147" r="4" fill="#0" id="circle198"/>
	<circle cx="984.818" cy="253.198" r="4" fill="#0" id="circle199"/>
	<circle cx="996" cy="265.977" r="4" fill="#0" id="circle200"/>
	</g>
</svg>