<?xml version="1.0" encoding="UTF-8" standalone="no"?>
<!-- Created with CurveBenchmark -->
<svg
	xmlns:dc="http://purl.org/dc/elements/1.1/"
	xmlns:cc="http://creativecommons.org/ns#"
	xmlns:rdf="http://www.w3.org/1999/02/22-rdf-syntax-ns#"
	xmlns:svg="http://www.w3.org/2000/svg"
	xmlns="http://www.w3.org/2000/svg"
	xmlns:sodipodi="http://sodipodi.sourceforge.net/DTD/sodipodi-0.dtd"
	xmlns:inkscape="http://www.inkscape.org/namespaces/inkscape"
	width="1000"
	height="1000"
	id="svg2"
	version="1.1"
	sodipodi:docname="manifold/hnncrust-bird205.png.txt">
<defs
	id="defs4" />
<metadata
	id="metadata7">
	<rdf:RDF>
		<cc:Work
			rdf:about="">
			<dc:format>image/svg+xml</dc:format>
			<dc:type
				rdf:resource="http://purl.org/dc/dcmitype/StillImage" />
			<dc:title></dc:title>
		</cc:Work>
	</rdf:RDF>
</metadata>
<g
	inkscape:label="Layer 1"
	inkscape:groupmode="layer"
	id="layer1">
	<path style="fill:none;stroke:red;stroke-width:1px;stroke-linecap:butt;stroke-linejoin:miter;stroke-opacity:1" d="M 4,260.753 23.451,295.765 z" id="boundary" inkscape:connector-curvature="0" />
	<path style="fill:none;stroke:red;stroke-width:1px;stroke-linecap:butt;stroke-linejoin:miter;stroke-opacity:1" d="M 4,260.753 27.3412,229.631 z" id="boundary" inkscape:connector-curvature="0" />
	<path style="fill:none;stroke:red;stroke-width:1px;stroke-linecap:butt;stroke-linejoin:miter;stroke-opacity:1" d="M 23.451,295.765 62.3529,276.314 z" id="boundary" inkscape:connector-curvature="0" />
	<path style="fill:none;stroke:red;stroke-width:1px;stroke-linecap:butt;stroke-linejoin:miter;stroke-opacity:1" d="M 27.3412,229.631 50.6824,198.51 z" id="boundary" inkscape:connector-curvature="0" />
	<path style="fill:none;stroke:red;stroke-width:1px;stroke-linecap:butt;stroke-linejoin:miter;stroke-opacity:1" d="M 50.6824,198.51 74.0235,167.388 z" id="boundary" inkscape:connector-curvature="0" />
	<path style="fill:none;stroke:red;stroke-width:1px;stroke-linecap:butt;stroke-linejoin:miter;stroke-opacity:1" d="M 62.3529,276.314 93.4745,245.192 z" id="boundary" inkscape:connector-curvature="0" />
	<path style="fill:none;stroke:red;stroke-width:1px;stroke-linecap:butt;stroke-linejoin:miter;stroke-opacity:1" d="M 74.0235,167.388 89.5843,120.706 z" id="boundary" inkscape:connector-curvature="0" />
	<path style="fill:none;stroke:red;stroke-width:1px;stroke-linecap:butt;stroke-linejoin:miter;stroke-opacity:1" d="M 89.5843,120.706 120.706,89.5843 z" id="boundary" inkscape:connector-curvature="0" />
	<path style="fill:none;stroke:red;stroke-width:1px;stroke-linecap:butt;stroke-linejoin:miter;stroke-opacity:1" d="M 93.4745,245.192 128.486,225.741 z" id="boundary" inkscape:connector-curvature="0" />
	<path style="fill:none;stroke:red;stroke-width:1px;stroke-linecap:butt;stroke-linejoin:miter;stroke-opacity:1" d="M 120.706,89.5843 159.608,74.0235 z" id="boundary" inkscape:connector-curvature="0" />
	<path style="fill:none;stroke:red;stroke-width:1px;stroke-linecap:butt;stroke-linejoin:miter;stroke-opacity:1" d="M 128.486,225.741 163.498,206.29 z" id="boundary" inkscape:connector-curvature="0" />
	<path style="fill:none;stroke:red;stroke-width:1px;stroke-linecap:butt;stroke-linejoin:miter;stroke-opacity:1" d="M 159.608,74.0235 198.51,74.0235 z" id="boundary" inkscape:connector-curvature="0" />
	<path style="fill:none;stroke:red;stroke-width:1px;stroke-linecap:butt;stroke-linejoin:miter;stroke-opacity:1" d="M 163.498,206.29 198.51,186.839 z" id="boundary" inkscape:connector-curvature="0" />
	<path style="fill:none;stroke:red;stroke-width:1px;stroke-linecap:butt;stroke-linejoin:miter;stroke-opacity:1" d="M 198.51,74.0235 237.412,81.8039 z" id="boundary" inkscape:connector-curvature="0" />
	<path style="fill:none;stroke:red;stroke-width:1px;stroke-linecap:butt;stroke-linejoin:miter;stroke-opacity:1" d="M 198.51,186.839 229.631,210.18 z" id="boundary" inkscape:connector-curvature="0" />
	<path style="fill:none;stroke:red;stroke-width:1px;stroke-linecap:butt;stroke-linejoin:miter;stroke-opacity:1" d="M 221.851,284.094 229.631,210.18 z" id="boundary" inkscape:connector-curvature="0" />
	<path style="fill:none;stroke:red;stroke-width:1px;stroke-linecap:butt;stroke-linejoin:miter;stroke-opacity:1" d="M 221.851,284.094 233.522,322.996 z" id="boundary" inkscape:connector-curvature="0" />
	<path style="fill:none;stroke:red;stroke-width:1px;stroke-linecap:butt;stroke-linejoin:miter;stroke-opacity:1" d="M 233.522,322.996 256.863,354.118 z" id="boundary" inkscape:connector-curvature="0" />
	<path style="fill:none;stroke:red;stroke-width:1px;stroke-linecap:butt;stroke-linejoin:miter;stroke-opacity:1" d="M 237.412,81.8039 272.424,101.255 z" id="boundary" inkscape:connector-curvature="0" />
	<path style="fill:none;stroke:red;stroke-width:1px;stroke-linecap:butt;stroke-linejoin:miter;stroke-opacity:1" d="M 256.863,354.118 291.875,373.569 z" id="boundary" inkscape:connector-curvature="0" />
	<path style="fill:none;stroke:red;stroke-width:1px;stroke-linecap:butt;stroke-linejoin:miter;stroke-opacity:1" d="M 272.424,101.255 295.765,132.376 z" id="boundary" inkscape:connector-curvature="0" />
	<path style="fill:none;stroke:red;stroke-width:1px;stroke-linecap:butt;stroke-linejoin:miter;stroke-opacity:1" d="M 291.875,373.569 330.776,373.569 z" id="boundary" inkscape:connector-curvature="0" />
	<path style="fill:none;stroke:red;stroke-width:1px;stroke-linecap:butt;stroke-linejoin:miter;stroke-opacity:1" d="M 295.765,132.376 334.667,124.596 z" id="boundary" inkscape:connector-curvature="0" />
	<path style="fill:none;stroke:red;stroke-width:1px;stroke-linecap:butt;stroke-linejoin:miter;stroke-opacity:1" d="M 330.776,373.569 365.788,346.337 z" id="boundary" inkscape:connector-curvature="0" />
	<path style="fill:none;stroke:red;stroke-width:1px;stroke-linecap:butt;stroke-linejoin:miter;stroke-opacity:1" d="M 334.667,124.596 354.118,81.8039 z" id="boundary" inkscape:connector-curvature="0" />
	<path style="fill:none;stroke:red;stroke-width:1px;stroke-linecap:butt;stroke-linejoin:miter;stroke-opacity:1" d="M 354.118,81.8039 377.459,50.6824 z" id="boundary" inkscape:connector-curvature="0" />
	<path style="fill:none;stroke:red;stroke-width:1px;stroke-linecap:butt;stroke-linejoin:miter;stroke-opacity:1" d="M 365.788,346.337 389.129,284.094 z" id="boundary" inkscape:connector-curvature="0" />
	<path style="fill:none;stroke:red;stroke-width:1px;stroke-linecap:butt;stroke-linejoin:miter;stroke-opacity:1" d="M 377.459,50.6824 416.361,35.1216 z" id="boundary" inkscape:connector-curvature="0" />
	<path style="fill:none;stroke:red;stroke-width:1px;stroke-linecap:butt;stroke-linejoin:miter;stroke-opacity:1" d="M 389.129,284.094 396.91,237.412 z" id="boundary" inkscape:connector-curvature="0" />
	<path style="fill:none;stroke:red;stroke-width:1px;stroke-linecap:butt;stroke-linejoin:miter;stroke-opacity:1" d="M 396.91,237.412 435.812,225.741 z" id="boundary" inkscape:connector-curvature="0" />
	<path style="fill:none;stroke:red;stroke-width:1px;stroke-linecap:butt;stroke-linejoin:miter;stroke-opacity:1" d="M 416.361,35.1216 455.263,19.5608 z" id="boundary" inkscape:connector-curvature="0" />
	<path style="fill:none;stroke:red;stroke-width:1px;stroke-linecap:butt;stroke-linejoin:miter;stroke-opacity:1" d="M 424.141,988.22 443.592,953.208 z" id="boundary" inkscape:connector-curvature="0" />
	<path style="fill:none;stroke:red;stroke-width:1px;stroke-linecap:butt;stroke-linejoin:miter;stroke-opacity:1" d="M 424.141,988.22 463.043,996 z" id="boundary" inkscape:connector-curvature="0" />
	<path style="fill:none;stroke:red;stroke-width:1px;stroke-linecap:butt;stroke-linejoin:miter;stroke-opacity:1" d="M 435.812,225.741 459.153,256.863 z" id="boundary" inkscape:connector-curvature="0" />
	<path style="fill:none;stroke:red;stroke-width:1px;stroke-linecap:butt;stroke-linejoin:miter;stroke-opacity:1" d="M 443.592,953.208 482.494,945.427 z" id="boundary" inkscape:connector-curvature="0" />
	<path style="fill:none;stroke:red;stroke-width:1px;stroke-linecap:butt;stroke-linejoin:miter;stroke-opacity:1" d="M 455.263,19.5608 494.165,4 z" id="boundary" inkscape:connector-curvature="0" />
	<path style="fill:none;stroke:red;stroke-width:1px;stroke-linecap:butt;stroke-linejoin:miter;stroke-opacity:1" d="M 459.153,256.863 478.604,291.875 z" id="boundary" inkscape:connector-curvature="0" />
	<path style="fill:none;stroke:red;stroke-width:1px;stroke-linecap:butt;stroke-linejoin:miter;stroke-opacity:1" d="M 463.043,996 501.945,996 z" id="boundary" inkscape:connector-curvature="0" />
	<path style="fill:none;stroke:red;stroke-width:1px;stroke-linecap:butt;stroke-linejoin:miter;stroke-opacity:1" d="M 478.604,291.875 486.384,330.776 z" id="boundary" inkscape:connector-curvature="0" />
	<path style="fill:none;stroke:red;stroke-width:1px;stroke-linecap:butt;stroke-linejoin:miter;stroke-opacity:1" d="M 482.494,945.427 517.506,914.306 z" id="boundary" inkscape:connector-curvature="0" />
	<path style="fill:none;stroke:red;stroke-width:1px;stroke-linecap:butt;stroke-linejoin:miter;stroke-opacity:1" d="M 486.384,330.776 494.165,369.678 z" id="boundary" inkscape:connector-curvature="0" />
	<path style="fill:none;stroke:red;stroke-width:1px;stroke-linecap:butt;stroke-linejoin:miter;stroke-opacity:1" d="M 494.165,4 533.067,4 z" id="boundary" inkscape:connector-curvature="0" />
	<path style="fill:none;stroke:red;stroke-width:1px;stroke-linecap:butt;stroke-linejoin:miter;stroke-opacity:1" d="M 494.165,369.678 498.055,408.58 z" id="boundary" inkscape:connector-curvature="0" />
	<path style="fill:none;stroke:red;stroke-width:1px;stroke-linecap:butt;stroke-linejoin:miter;stroke-opacity:1" d="M 498.055,408.58 505.835,447.482 z" id="boundary" inkscape:connector-curvature="0" />
	<path style="fill:none;stroke:red;stroke-width:1px;stroke-linecap:butt;stroke-linejoin:miter;stroke-opacity:1" d="M 501.945,996 540.847,996 z" id="boundary" inkscape:connector-curvature="0" />
	<path style="fill:none;stroke:red;stroke-width:1px;stroke-linecap:butt;stroke-linejoin:miter;stroke-opacity:1" d="M 505.835,447.482 517.506,486.384 z" id="boundary" inkscape:connector-curvature="0" />
	<path style="fill:none;stroke:red;stroke-width:1px;stroke-linecap:butt;stroke-linejoin:miter;stroke-opacity:1" d="M 517.506,486.384 525.286,525.286 z" id="boundary" inkscape:connector-curvature="0" />
	<path style="fill:none;stroke:red;stroke-width:1px;stroke-linecap:butt;stroke-linejoin:miter;stroke-opacity:1" d="M 517.506,914.306 525.286,859.843 z" id="boundary" inkscape:connector-curvature="0" />
	<path style="fill:none;stroke:red;stroke-width:1px;stroke-linecap:butt;stroke-linejoin:miter;stroke-opacity:1" d="M 525.286,525.286 533.067,564.188 z" id="boundary" inkscape:connector-curvature="0" />
	<path style="fill:none;stroke:red;stroke-width:1px;stroke-linecap:butt;stroke-linejoin:miter;stroke-opacity:1" d="M 525.286,859.843 533.067,813.161 z" id="boundary" inkscape:connector-curvature="0" />
	<path style="fill:none;stroke:red;stroke-width:1px;stroke-linecap:butt;stroke-linejoin:miter;stroke-opacity:1" d="M 533.067,4 571.969,4 z" id="boundary" inkscape:connector-curvature="0" />
	<path style="fill:none;stroke:red;stroke-width:1px;stroke-linecap:butt;stroke-linejoin:miter;stroke-opacity:1" d="M 533.067,564.188 540.847,603.09 z" id="boundary" inkscape:connector-curvature="0" />
	<path style="fill:none;stroke:red;stroke-width:1px;stroke-linecap:butt;stroke-linejoin:miter;stroke-opacity:1" d="M 533.067,813.161 540.847,766.478 z" id="boundary" inkscape:connector-curvature="0" />
	<path style="fill:none;stroke:red;stroke-width:1px;stroke-linecap:butt;stroke-linejoin:miter;stroke-opacity:1" d="M 540.847,603.09 548.627,641.992 z" id="boundary" inkscape:connector-curvature="0" />
	<path style="fill:none;stroke:red;stroke-width:1px;stroke-linecap:butt;stroke-linejoin:miter;stroke-opacity:1" d="M 540.847,766.478 548.627,719.796 z" id="boundary" inkscape:connector-curvature="0" />
	<path style="fill:none;stroke:red;stroke-width:1px;stroke-linecap:butt;stroke-linejoin:miter;stroke-opacity:1" d="M 540.847,996 579.749,996 z" id="boundary" inkscape:connector-curvature="0" />
	<path style="fill:none;stroke:red;stroke-width:1px;stroke-linecap:butt;stroke-linejoin:miter;stroke-opacity:1" d="M 548.627,641.992 548.627,680.894 z" id="boundary" inkscape:connector-curvature="0" />
	<path style="fill:none;stroke:red;stroke-width:1px;stroke-linecap:butt;stroke-linejoin:miter;stroke-opacity:1" d="M 548.627,680.894 548.627,719.796 z" id="boundary" inkscape:connector-curvature="0" />
	<path style="fill:none;stroke:red;stroke-width:1px;stroke-linecap:butt;stroke-linejoin:miter;stroke-opacity:1" d="M 571.969,4 610.871,7.8902 z" id="boundary" inkscape:connector-curvature="0" />
	<path style="fill:none;stroke:red;stroke-width:1px;stroke-linecap:butt;stroke-linejoin:miter;stroke-opacity:1" d="M 579.749,996 606.98,960.988 z" id="boundary" inkscape:connector-curvature="0" />
	<path style="fill:none;stroke:red;stroke-width:1px;stroke-linecap:butt;stroke-linejoin:miter;stroke-opacity:1" d="M 606.98,922.086 606.98,960.988 z" id="boundary" inkscape:connector-curvature="0" />
	<path style="fill:none;stroke:red;stroke-width:1px;stroke-linecap:butt;stroke-linejoin:miter;stroke-opacity:1" d="M 606.98,922.086 614.761,867.624 z" id="boundary" inkscape:connector-curvature="0" />
	<path style="fill:none;stroke:red;stroke-width:1px;stroke-linecap:butt;stroke-linejoin:miter;stroke-opacity:1" d="M 610.871,7.8902 649.773,23.451 z" id="boundary" inkscape:connector-curvature="0" />
	<path style="fill:none;stroke:red;stroke-width:1px;stroke-linecap:butt;stroke-linejoin:miter;stroke-opacity:1" d="M 614.761,867.624 622.541,813.161 z" id="boundary" inkscape:connector-curvature="0" />
	<path style="fill:none;stroke:red;stroke-width:1px;stroke-linecap:butt;stroke-linejoin:miter;stroke-opacity:1" d="M 622.541,813.161 630.322,758.698 z" id="boundary" inkscape:connector-curvature="0" />
	<path style="fill:none;stroke:red;stroke-width:1px;stroke-linecap:butt;stroke-linejoin:miter;stroke-opacity:1" d="M 630.322,758.698 638.102,704.235 z" id="boundary" inkscape:connector-curvature="0" />
	<path style="fill:none;stroke:red;stroke-width:1px;stroke-linecap:butt;stroke-linejoin:miter;stroke-opacity:1" d="M 638.102,704.235 645.882,641.992 z" id="boundary" inkscape:connector-curvature="0" />
	<path style="fill:none;stroke:red;stroke-width:1px;stroke-linecap:butt;stroke-linejoin:miter;stroke-opacity:1" d="M 645.882,369.678 645.882,408.58 z" id="boundary" inkscape:connector-curvature="0" />
	<path style="fill:none;stroke:red;stroke-width:1px;stroke-linecap:butt;stroke-linejoin:miter;stroke-opacity:1" d="M 645.882,369.678 684.784,373.569 z" id="boundary" inkscape:connector-curvature="0" />
	<path style="fill:none;stroke:red;stroke-width:1px;stroke-linecap:butt;stroke-linejoin:miter;stroke-opacity:1" d="M 645.882,408.58 645.882,447.482 z" id="boundary" inkscape:connector-curvature="0" />
	<path style="fill:none;stroke:red;stroke-width:1px;stroke-linecap:butt;stroke-linejoin:miter;stroke-opacity:1" d="M 645.882,447.482 645.882,486.384 z" id="boundary" inkscape:connector-curvature="0" />
	<path style="fill:none;stroke:red;stroke-width:1px;stroke-linecap:butt;stroke-linejoin:miter;stroke-opacity:1" d="M 645.882,486.384 645.882,525.286 z" id="boundary" inkscape:connector-curvature="0" />
	<path style="fill:none;stroke:red;stroke-width:1px;stroke-linecap:butt;stroke-linejoin:miter;stroke-opacity:1" d="M 645.882,525.286 645.882,564.188 z" id="boundary" inkscape:connector-curvature="0" />
	<path style="fill:none;stroke:red;stroke-width:1px;stroke-linecap:butt;stroke-linejoin:miter;stroke-opacity:1" d="M 645.882,564.188 645.882,603.09 z" id="boundary" inkscape:connector-curvature="0" />
	<path style="fill:none;stroke:red;stroke-width:1px;stroke-linecap:butt;stroke-linejoin:miter;stroke-opacity:1" d="M 645.882,603.09 645.882,641.992 z" id="boundary" inkscape:connector-curvature="0" />
	<path style="fill:none;stroke:red;stroke-width:1px;stroke-linecap:butt;stroke-linejoin:miter;stroke-opacity:1" d="M 649.773,23.451 688.675,39.0118 z" id="boundary" inkscape:connector-curvature="0" />
	<path style="fill:none;stroke:red;stroke-width:1px;stroke-linecap:butt;stroke-linejoin:miter;stroke-opacity:1" d="M 684.784,373.569 715.906,396.91 z" id="boundary" inkscape:connector-curvature="0" />
	<path style="fill:none;stroke:red;stroke-width:1px;stroke-linecap:butt;stroke-linejoin:miter;stroke-opacity:1" d="M 688.675,39.0118 723.686,58.4627 z" id="boundary" inkscape:connector-curvature="0" />
	<path style="fill:none;stroke:red;stroke-width:1px;stroke-linecap:butt;stroke-linejoin:miter;stroke-opacity:1" d="M 715.906,396.91 754.808,412.471 z" id="boundary" inkscape:connector-curvature="0" />
	<path style="fill:none;stroke:red;stroke-width:1px;stroke-linecap:butt;stroke-linejoin:miter;stroke-opacity:1" d="M 723.686,58.4627 750.918,89.5843 z" id="boundary" inkscape:connector-curvature="0" />
	<path style="fill:none;stroke:red;stroke-width:1px;stroke-linecap:butt;stroke-linejoin:miter;stroke-opacity:1" d="M 750.918,89.5843 782.039,112.925 z" id="boundary" inkscape:connector-curvature="0" />
	<path style="fill:none;stroke:red;stroke-width:1px;stroke-linecap:butt;stroke-linejoin:miter;stroke-opacity:1" d="M 754.808,412.471 793.71,428.031 z" id="boundary" inkscape:connector-curvature="0" />
	<path style="fill:none;stroke:red;stroke-width:1px;stroke-linecap:butt;stroke-linejoin:miter;stroke-opacity:1" d="M 782.039,112.925 805.38,144.047 z" id="boundary" inkscape:connector-curvature="0" />
	<path style="fill:none;stroke:red;stroke-width:1px;stroke-linecap:butt;stroke-linejoin:miter;stroke-opacity:1" d="M 793.71,428.031 832.612,431.922 z" id="boundary" inkscape:connector-curvature="0" />
	<path style="fill:none;stroke:red;stroke-width:1px;stroke-linecap:butt;stroke-linejoin:miter;stroke-opacity:1" d="M 805.38,144.047 836.502,171.278 z" id="boundary" inkscape:connector-curvature="0" />
	<path style="fill:none;stroke:red;stroke-width:1px;stroke-linecap:butt;stroke-linejoin:miter;stroke-opacity:1" d="M 832.612,431.922 871.514,431.922 z" id="boundary" inkscape:connector-curvature="0" />
	<path style="fill:none;stroke:red;stroke-width:1px;stroke-linecap:butt;stroke-linejoin:miter;stroke-opacity:1" d="M 836.502,171.278 863.733,202.4 z" id="boundary" inkscape:connector-curvature="0" />
	<path style="fill:none;stroke:red;stroke-width:1px;stroke-linecap:butt;stroke-linejoin:miter;stroke-opacity:1" d="M 863.733,202.4 894.855,229.631 z" id="boundary" inkscape:connector-curvature="0" />
	<path style="fill:none;stroke:red;stroke-width:1px;stroke-linecap:butt;stroke-linejoin:miter;stroke-opacity:1" d="M 871.514,431.922 910.416,428.031 z" id="boundary" inkscape:connector-curvature="0" />
	<path style="fill:none;stroke:red;stroke-width:1px;stroke-linecap:butt;stroke-linejoin:miter;stroke-opacity:1" d="M 894.855,229.631 918.196,260.753 z" id="boundary" inkscape:connector-curvature="0" />
	<path style="fill:none;stroke:red;stroke-width:1px;stroke-linecap:butt;stroke-linejoin:miter;stroke-opacity:1" d="M 910.416,428.031 949.318,431.922 z" id="boundary" inkscape:connector-curvature="0" />
	<path style="fill:none;stroke:red;stroke-width:1px;stroke-linecap:butt;stroke-linejoin:miter;stroke-opacity:1" d="M 918.196,260.753 937.647,295.765 z" id="boundary" inkscape:connector-curvature="0" />
	<path style="fill:none;stroke:red;stroke-width:1px;stroke-linecap:butt;stroke-linejoin:miter;stroke-opacity:1" d="M 937.647,295.765 957.098,330.776 z" id="boundary" inkscape:connector-curvature="0" />
	<path style="fill:none;stroke:red;stroke-width:1px;stroke-linecap:butt;stroke-linejoin:miter;stroke-opacity:1" d="M 949.318,431.922 984.329,408.58 z" id="boundary" inkscape:connector-curvature="0" />
	<path style="fill:none;stroke:red;stroke-width:1px;stroke-linecap:butt;stroke-linejoin:miter;stroke-opacity:1" d="M 957.098,330.776 972.659,369.678 z" id="boundary" inkscape:connector-curvature="0" />
	<path style="fill:none;stroke:red;stroke-width:1px;stroke-linecap:butt;stroke-linejoin:miter;stroke-opacity:1" d="M 972.659,369.678 984.329,408.58 z" id="boundary" inkscape:connector-curvature="0" />
	<circle cx="4" cy="260.753" r="4" fill="#0" id="circle0"/>
	<circle cx="23.451" cy="295.765" r="4" fill="#0" id="circle1"/>
	<circle cx="27.3412" cy="229.631" r="4" fill="#0" id="circle2"/>
	<circle cx="50.6824" cy="198.51" r="4" fill="#0" id="circle3"/>
	<circle cx="62.3529" cy="276.314" r="4" fill="#0" id="circle4"/>
	<circle cx="74.0235" cy="167.388" r="4" fill="#0" id="circle5"/>
	<circle cx="89.5843" cy="120.706" r="4" fill="#0" id="circle6"/>
	<circle cx="93.4745" cy="245.192" r="4" fill="#0" id="circle7"/>
	<circle cx="120.706" cy="89.5843" r="4" fill="#0" id="circle8"/>
	<circle cx="128.486" cy="225.741" r="4" fill="#0" id="circle9"/>
	<circle cx="159.608" cy="74.0235" r="4" fill="#0" id="circle10"/>
	<circle cx="163.498" cy="206.29" r="4" fill="#0" id="circle11"/>
	<circle cx="198.51" cy="74.0235" r="4" fill="#0" id="circle12"/>
	<circle cx="198.51" cy="186.839" r="4" fill="#0" id="circle13"/>
	<circle cx="221.851" cy="284.094" r="4" fill="#0" id="circle14"/>
	<circle cx="229.631" cy="210.18" r="4" fill="#0" id="circle15"/>
	<circle cx="233.522" cy="322.996" r="4" fill="#0" id="circle16"/>
	<circle cx="237.412" cy="81.8039" r="4" fill="#0" id="circle17"/>
	<circle cx="256.863" cy="354.118" r="4" fill="#0" id="circle18"/>
	<circle cx="272.424" cy="101.255" r="4" fill="#0" id="circle19"/>
	<circle cx="291.875" cy="373.569" r="4" fill="#0" id="circle20"/>
	<circle cx="295.765" cy="132.376" r="4" fill="#0" id="circle21"/>
	<circle cx="311.325" cy="171.278" r="4" fill="#0" id="circle22"/>
	<circle cx="330.776" cy="373.569" r="4" fill="#0" id="circle23"/>
	<circle cx="334.667" cy="124.596" r="4" fill="#0" id="circle24"/>
	<circle cx="354.118" cy="81.8039" r="4" fill="#0" id="circle25"/>
	<circle cx="365.788" cy="346.337" r="4" fill="#0" id="circle26"/>
	<circle cx="377.459" cy="50.6824" r="4" fill="#0" id="circle27"/>
	<circle cx="389.129" cy="284.094" r="4" fill="#0" id="circle28"/>
	<circle cx="393.02" cy="960.988" r="4" fill="#0" id="circle29"/>
	<circle cx="396.91" cy="237.412" r="4" fill="#0" id="circle30"/>
	<circle cx="416.361" cy="35.1216" r="4" fill="#0" id="circle31"/>
	<circle cx="424.141" cy="988.22" r="4" fill="#0" id="circle32"/>
	<circle cx="435.812" cy="225.741" r="4" fill="#0" id="circle33"/>
	<circle cx="443.592" cy="953.208" r="4" fill="#0" id="circle34"/>
	<circle cx="455.263" cy="19.5608" r="4" fill="#0" id="circle35"/>
	<circle cx="459.153" cy="256.863" r="4" fill="#0" id="circle36"/>
	<circle cx="463.043" cy="996" r="4" fill="#0" id="circle37"/>
	<circle cx="478.604" cy="291.875" r="4" fill="#0" id="circle38"/>
	<circle cx="482.494" cy="945.427" r="4" fill="#0" id="circle39"/>
	<circle cx="486.384" cy="330.776" r="4" fill="#0" id="circle40"/>
	<circle cx="494.165" cy="4" r="4" fill="#0" id="circle41"/>
	<circle cx="494.165" cy="369.678" r="4" fill="#0" id="circle42"/>
	<circle cx="498.055" cy="408.58" r="4" fill="#0" id="circle43"/>
	<circle cx="501.945" cy="996" r="4" fill="#0" id="circle44"/>
	<circle cx="505.835" cy="447.482" r="4" fill="#0" id="circle45"/>
	<circle cx="517.506" cy="486.384" r="4" fill="#0" id="circle46"/>
	<circle cx="517.506" cy="914.306" r="4" fill="#0" id="circle47"/>
	<circle cx="525.286" cy="525.286" r="4" fill="#0" id="circle48"/>
	<circle cx="525.286" cy="859.843" r="4" fill="#0" id="circle49"/>
	<circle cx="533.067" cy="4" r="4" fill="#0" id="circle50"/>
	<circle cx="533.067" cy="564.188" r="4" fill="#0" id="circle51"/>
	<circle cx="533.067" cy="813.161" r="4" fill="#0" id="circle52"/>
	<circle cx="540.847" cy="603.09" r="4" fill="#0" id="circle53"/>
	<circle cx="540.847" cy="766.478" r="4" fill="#0" id="circle54"/>
	<circle cx="540.847" cy="996" r="4" fill="#0" id="circle55"/>
	<circle cx="548.627" cy="641.992" r="4" fill="#0" id="circle56"/>
	<circle cx="548.627" cy="680.894" r="4" fill="#0" id="circle57"/>
	<circle cx="548.627" cy="719.796" r="4" fill="#0" id="circle58"/>
	<circle cx="571.969" cy="4" r="4" fill="#0" id="circle59"/>
	<circle cx="579.749" cy="996" r="4" fill="#0" id="circle60"/>
	<circle cx="606.98" cy="922.086" r="4" fill="#0" id="circle61"/>
	<circle cx="606.98" cy="960.988" r="4" fill="#0" id="circle62"/>
	<circle cx="610.871" cy="7.8902" r="4" fill="#0" id="circle63"/>
	<circle cx="614.761" cy="867.624" r="4" fill="#0" id="circle64"/>
	<circle cx="622.541" cy="813.161" r="4" fill="#0" id="circle65"/>
	<circle cx="630.322" cy="758.698" r="4" fill="#0" id="circle66"/>
	<circle cx="638.102" cy="704.235" r="4" fill="#0" id="circle67"/>
	<circle cx="645.882" cy="369.678" r="4" fill="#0" id="circle68"/>
	<circle cx="645.882" cy="408.58" r="4" fill="#0" id="circle69"/>
	<circle cx="645.882" cy="447.482" r="4" fill="#0" id="circle70"/>
	<circle cx="645.882" cy="486.384" r="4" fill="#0" id="circle71"/>
	<circle cx="645.882" cy="525.286" r="4" fill="#0" id="circle72"/>
	<circle cx="645.882" cy="564.188" r="4" fill="#0" id="circle73"/>
	<circle cx="645.882" cy="603.09" r="4" fill="#0" id="circle74"/>
	<circle cx="645.882" cy="641.992" r="4" fill="#0" id="circle75"/>
	<circle cx="649.773" cy="23.451" r="4" fill="#0" id="circle76"/>
	<circle cx="684.784" cy="373.569" r="4" fill="#0" id="circle77"/>
	<circle cx="688.675" cy="39.0118" r="4" fill="#0" id="circle78"/>
	<circle cx="715.906" cy="396.91" r="4" fill="#0" id="circle79"/>
	<circle cx="723.686" cy="58.4627" r="4" fill="#0" id="circle80"/>
	<circle cx="750.918" cy="89.5843" r="4" fill="#0" id="circle81"/>
	<circle cx="754.808" cy="412.471" r="4" fill="#0" id="circle82"/>
	<circle cx="782.039" cy="112.925" r="4" fill="#0" id="circle83"/>
	<circle cx="793.71" cy="428.031" r="4" fill="#0" id="circle84"/>
	<circle cx="805.38" cy="144.047" r="4" fill="#0" id="circle85"/>
	<circle cx="832.612" cy="431.922" r="4" fill="#0" id="circle86"/>
	<circle cx="836.502" cy="171.278" r="4" fill="#0" id="circle87"/>
	<circle cx="863.733" cy="202.4" r="4" fill="#0" id="circle88"/>
	<circle cx="871.514" cy="431.922" r="4" fill="#0" id="circle89"/>
	<circle cx="894.855" cy="229.631" r="4" fill="#0" id="circle90"/>
	<circle cx="910.416" cy="428.031" r="4" fill="#0" id="circle91"/>
	<circle cx="918.196" cy="260.753" r="4" fill="#0" id="circle92"/>
	<circle cx="937.647" cy="295.765" r="4" fill="#0" id="circle93"/>
	<circle cx="949.318" cy="431.922" r="4" fill="#0" id="circle94"/>
	<circle cx="957.098" cy="330.776" r="4" fill="#0" id="circle95"/>
	<circle cx="972.659" cy="369.678" r="4" fill="#0" id="circle96"/>
	<circle cx="984.329" cy="408.58" r="4" fill="#0" id="circle97"/>
	</g>
</svg>