<?xml version="1.0" encoding="UTF-8" standalone="no"?>
<!-- Created with CurveBenchmark -->
<svg
	xmlns:dc="http://purl.org/dc/elements/1.1/"
	xmlns:cc="http://creativecommons.org/ns#"
	xmlns:rdf="http://www.w3.org/1999/02/22-rdf-syntax-ns#"
	xmlns:svg="http://www.w3.org/2000/svg"
	xmlns="http://www.w3.org/2000/svg"
	xmlns:sodipodi="http://sodipodi.sourceforge.net/DTD/sodipodi-0.dtd"
	xmlns:inkscape="http://www.inkscape.org/namespaces/inkscape"
	width="1000"
	height="1000"
	id="svg2"
	version="1.1"
	sodipodi:docname="manifold/hnncrust-ray12.png.txt">
<defs
	id="defs4" />
<metadata
	id="metadata7">
	<rdf:RDF>
		<cc:Work
			rdf:about="">
			<dc:format>image/svg+xml</dc:format>
			<dc:type
				rdf:resource="http://purl.org/dc/dcmitype/StillImage" />
			<dc:title></dc:title>
		</cc:Work>
	</rdf:RDF>
</metadata>
<g
	inkscape:label="Layer 1"
	inkscape:groupmode="layer"
	id="layer1">
	<path style="fill:none;stroke:red;stroke-width:1px;stroke-linecap:butt;stroke-linejoin:miter;stroke-opacity:1" d="M 4,672.047 12.3926,655.262 z" id="boundary" inkscape:connector-curvature="0" />
	<path style="fill:none;stroke:red;stroke-width:1px;stroke-linecap:butt;stroke-linejoin:miter;stroke-opacity:1" d="M 4,672.047 12.3926,687.154 z" id="boundary" inkscape:connector-curvature="0" />
	<path style="fill:none;stroke:red;stroke-width:1px;stroke-linecap:butt;stroke-linejoin:miter;stroke-opacity:1" d="M 12.3926,655.262 20.7851,638.477 z" id="boundary" inkscape:connector-curvature="0" />
	<path style="fill:none;stroke:red;stroke-width:1px;stroke-linecap:butt;stroke-linejoin:miter;stroke-opacity:1" d="M 12.3926,687.154 29.1777,680.44 z" id="boundary" inkscape:connector-curvature="0" />
	<path style="fill:none;stroke:red;stroke-width:1px;stroke-linecap:butt;stroke-linejoin:miter;stroke-opacity:1" d="M 12.3926,814.721 20.7851,789.543 z" id="boundary" inkscape:connector-curvature="0" />
	<path style="fill:none;stroke:red;stroke-width:1px;stroke-linecap:butt;stroke-linejoin:miter;stroke-opacity:1" d="M 12.3926,814.721 20.7851,829.827 z" id="boundary" inkscape:connector-curvature="0" />
	<path style="fill:none;stroke:red;stroke-width:1px;stroke-linecap:butt;stroke-linejoin:miter;stroke-opacity:1" d="M 20.7851,638.477 29.1777,621.692 z" id="boundary" inkscape:connector-curvature="0" />
	<path style="fill:none;stroke:red;stroke-width:1px;stroke-linecap:butt;stroke-linejoin:miter;stroke-opacity:1" d="M 20.7851,722.403 20.7851,739.188 z" id="boundary" inkscape:connector-curvature="0" />
	<path style="fill:none;stroke:red;stroke-width:1px;stroke-linecap:butt;stroke-linejoin:miter;stroke-opacity:1" d="M 20.7851,722.403 29.1777,705.618 z" id="boundary" inkscape:connector-curvature="0" />
	<path style="fill:none;stroke:red;stroke-width:1px;stroke-linecap:butt;stroke-linejoin:miter;stroke-opacity:1" d="M 20.7851,739.188 20.7851,755.973 z" id="boundary" inkscape:connector-curvature="0" />
	<path style="fill:none;stroke:red;stroke-width:1px;stroke-linecap:butt;stroke-linejoin:miter;stroke-opacity:1" d="M 20.7851,755.973 20.7851,772.758 z" id="boundary" inkscape:connector-curvature="0" />
	<path style="fill:none;stroke:red;stroke-width:1px;stroke-linecap:butt;stroke-linejoin:miter;stroke-opacity:1" d="M 20.7851,772.758 20.7851,789.543 z" id="boundary" inkscape:connector-curvature="0" />
	<path style="fill:none;stroke:red;stroke-width:1px;stroke-linecap:butt;stroke-linejoin:miter;stroke-opacity:1" d="M 20.7851,829.827 20.7851,846.613 z" id="boundary" inkscape:connector-curvature="0" />
	<path style="fill:none;stroke:red;stroke-width:1px;stroke-linecap:butt;stroke-linejoin:miter;stroke-opacity:1" d="M 20.7851,846.613 20.7851,863.398 z" id="boundary" inkscape:connector-curvature="0" />
	<path style="fill:none;stroke:red;stroke-width:1px;stroke-linecap:butt;stroke-linejoin:miter;stroke-opacity:1" d="M 20.7851,863.398 32.5347,876.826 z" id="boundary" inkscape:connector-curvature="0" />
	<path style="fill:none;stroke:red;stroke-width:1px;stroke-linecap:butt;stroke-linejoin:miter;stroke-opacity:1" d="M 29.1777,621.692 42.6058,608.264 z" id="boundary" inkscape:connector-curvature="0" />
	<path style="fill:none;stroke:red;stroke-width:1px;stroke-linecap:butt;stroke-linejoin:miter;stroke-opacity:1" d="M 29.1777,680.44 45.9628,677.083 z" id="boundary" inkscape:connector-curvature="0" />
	<path style="fill:none;stroke:red;stroke-width:1px;stroke-linecap:butt;stroke-linejoin:miter;stroke-opacity:1" d="M 32.5347,876.826 45.9628,886.897 z" id="boundary" inkscape:connector-curvature="0" />
	<path style="fill:none;stroke:red;stroke-width:1px;stroke-linecap:butt;stroke-linejoin:miter;stroke-opacity:1" d="M 42.6058,608.264 59.3909,599.871 z" id="boundary" inkscape:connector-curvature="0" />
	<path style="fill:none;stroke:red;stroke-width:1px;stroke-linecap:butt;stroke-linejoin:miter;stroke-opacity:1" d="M 45.9628,886.897 61.0694,895.289 z" id="boundary" inkscape:connector-curvature="0" />
	<path style="fill:none;stroke:red;stroke-width:1px;stroke-linecap:butt;stroke-linejoin:miter;stroke-opacity:1" d="M 56.0338,735.831 56.0338,752.616 z" id="boundary" inkscape:connector-curvature="0" />
	<path style="fill:none;stroke:red;stroke-width:1px;stroke-linecap:butt;stroke-linejoin:miter;stroke-opacity:1" d="M 56.0338,735.831 64.4264,719.046 z" id="boundary" inkscape:connector-curvature="0" />
	<path style="fill:none;stroke:red;stroke-width:1px;stroke-linecap:butt;stroke-linejoin:miter;stroke-opacity:1" d="M 56.0338,752.616 59.3909,769.401 z" id="boundary" inkscape:connector-curvature="0" />
	<path style="fill:none;stroke:red;stroke-width:1px;stroke-linecap:butt;stroke-linejoin:miter;stroke-opacity:1" d="M 59.3909,599.871 76.176,591.479 z" id="boundary" inkscape:connector-curvature="0" />
	<path style="fill:none;stroke:red;stroke-width:1px;stroke-linecap:butt;stroke-linejoin:miter;stroke-opacity:1" d="M 59.3909,769.401 64.4264,786.186 z" id="boundary" inkscape:connector-curvature="0" />
	<path style="fill:none;stroke:red;stroke-width:1px;stroke-linecap:butt;stroke-linejoin:miter;stroke-opacity:1" d="M 61.0694,895.289 76.176,903.682 z" id="boundary" inkscape:connector-curvature="0" />
	<path style="fill:none;stroke:red;stroke-width:1px;stroke-linecap:butt;stroke-linejoin:miter;stroke-opacity:1" d="M 64.4264,719.046 77.8545,707.296 z" id="boundary" inkscape:connector-curvature="0" />
	<path style="fill:none;stroke:red;stroke-width:1px;stroke-linecap:butt;stroke-linejoin:miter;stroke-opacity:1" d="M 64.4264,786.186 72.819,801.293 z" id="boundary" inkscape:connector-curvature="0" />
	<path style="fill:none;stroke:red;stroke-width:1px;stroke-linecap:butt;stroke-linejoin:miter;stroke-opacity:1" d="M 72.819,801.293 81.2115,816.399 z" id="boundary" inkscape:connector-curvature="0" />
	<path style="fill:none;stroke:red;stroke-width:1px;stroke-linecap:butt;stroke-linejoin:miter;stroke-opacity:1" d="M 76.176,591.479 92.9611,583.086 z" id="boundary" inkscape:connector-curvature="0" />
	<path style="fill:none;stroke:red;stroke-width:1px;stroke-linecap:butt;stroke-linejoin:miter;stroke-opacity:1" d="M 76.176,903.682 79.533,920.467 z" id="boundary" inkscape:connector-curvature="0" />
	<path style="fill:none;stroke:red;stroke-width:1px;stroke-linecap:butt;stroke-linejoin:miter;stroke-opacity:1" d="M 77.8545,707.296 89.6041,685.475 z" id="boundary" inkscape:connector-curvature="0" />
	<path style="fill:none;stroke:red;stroke-width:1px;stroke-linecap:butt;stroke-linejoin:miter;stroke-opacity:1" d="M 79.533,920.467 79.533,937.252 z" id="boundary" inkscape:connector-curvature="0" />
	<path style="fill:none;stroke:red;stroke-width:1px;stroke-linecap:butt;stroke-linejoin:miter;stroke-opacity:1" d="M 79.533,937.252 79.533,954.037 z" id="boundary" inkscape:connector-curvature="0" />
	<path style="fill:none;stroke:red;stroke-width:1px;stroke-linecap:butt;stroke-linejoin:miter;stroke-opacity:1" d="M 79.533,954.037 84.5685,970.822 z" id="boundary" inkscape:connector-curvature="0" />
	<path style="fill:none;stroke:red;stroke-width:1px;stroke-linecap:butt;stroke-linejoin:miter;stroke-opacity:1" d="M 81.2115,816.399 89.6041,831.506 z" id="boundary" inkscape:connector-curvature="0" />
	<path style="fill:none;stroke:red;stroke-width:1px;stroke-linecap:butt;stroke-linejoin:miter;stroke-opacity:1" d="M 84.5685,970.822 99.6751,979.215 z" id="boundary" inkscape:connector-curvature="0" />
	<path style="fill:none;stroke:red;stroke-width:1px;stroke-linecap:butt;stroke-linejoin:miter;stroke-opacity:1" d="M 89.6041,685.475 104.711,677.083 z" id="boundary" inkscape:connector-curvature="0" />
	<path style="fill:none;stroke:red;stroke-width:1px;stroke-linecap:butt;stroke-linejoin:miter;stroke-opacity:1" d="M 89.6041,831.506 97.9966,846.613 z" id="boundary" inkscape:connector-curvature="0" />
	<path style="fill:none;stroke:red;stroke-width:1px;stroke-linecap:butt;stroke-linejoin:miter;stroke-opacity:1" d="M 92.9611,583.086 108.068,574.694 z" id="boundary" inkscape:connector-curvature="0" />
	<path style="fill:none;stroke:red;stroke-width:1px;stroke-linecap:butt;stroke-linejoin:miter;stroke-opacity:1" d="M 97.9966,846.613 106.389,861.719 z" id="boundary" inkscape:connector-curvature="0" />
	<path style="fill:none;stroke:red;stroke-width:1px;stroke-linecap:butt;stroke-linejoin:miter;stroke-opacity:1" d="M 99.6751,979.215 114.782,987.607 z" id="boundary" inkscape:connector-curvature="0" />
	<path style="fill:none;stroke:red;stroke-width:1px;stroke-linecap:butt;stroke-linejoin:miter;stroke-opacity:1" d="M 104.711,677.083 118.139,667.012 z" id="boundary" inkscape:connector-curvature="0" />
	<path style="fill:none;stroke:red;stroke-width:1px;stroke-linecap:butt;stroke-linejoin:miter;stroke-opacity:1" d="M 106.389,861.719 114.782,876.826 z" id="boundary" inkscape:connector-curvature="0" />
	<path style="fill:none;stroke:red;stroke-width:1px;stroke-linecap:butt;stroke-linejoin:miter;stroke-opacity:1" d="M 108.068,574.694 121.496,561.266 z" id="boundary" inkscape:connector-curvature="0" />
	<path style="fill:none;stroke:red;stroke-width:1px;stroke-linecap:butt;stroke-linejoin:miter;stroke-opacity:1" d="M 113.103,546.159 121.496,561.266 z" id="boundary" inkscape:connector-curvature="0" />
	<path style="fill:none;stroke:red;stroke-width:1px;stroke-linecap:butt;stroke-linejoin:miter;stroke-opacity:1" d="M 113.103,546.159 126.531,532.731 z" id="boundary" inkscape:connector-curvature="0" />
	<path style="fill:none;stroke:red;stroke-width:1px;stroke-linecap:butt;stroke-linejoin:miter;stroke-opacity:1" d="M 114.782,876.826 123.174,891.932 z" id="boundary" inkscape:connector-curvature="0" />
	<path style="fill:none;stroke:red;stroke-width:1px;stroke-linecap:butt;stroke-linejoin:miter;stroke-opacity:1" d="M 114.782,987.607 129.888,996 z" id="boundary" inkscape:connector-curvature="0" />
	<path style="fill:none;stroke:red;stroke-width:1px;stroke-linecap:butt;stroke-linejoin:miter;stroke-opacity:1" d="M 118.139,667.012 131.567,651.905 z" id="boundary" inkscape:connector-curvature="0" />
	<path style="fill:none;stroke:red;stroke-width:1px;stroke-linecap:butt;stroke-linejoin:miter;stroke-opacity:1" d="M 121.496,76.176 121.496,92.9611 z" id="boundary" inkscape:connector-curvature="0" />
	<path style="fill:none;stroke:red;stroke-width:1px;stroke-linecap:butt;stroke-linejoin:miter;stroke-opacity:1" d="M 121.496,76.176 129.888,50.9983 z" id="boundary" inkscape:connector-curvature="0" />
	<path style="fill:none;stroke:red;stroke-width:1px;stroke-linecap:butt;stroke-linejoin:miter;stroke-opacity:1" d="M 121.496,92.9611 121.496,109.746 z" id="boundary" inkscape:connector-curvature="0" />
	<path style="fill:none;stroke:red;stroke-width:1px;stroke-linecap:butt;stroke-linejoin:miter;stroke-opacity:1" d="M 121.496,109.746 121.496,126.531 z" id="boundary" inkscape:connector-curvature="0" />
	<path style="fill:none;stroke:red;stroke-width:1px;stroke-linecap:butt;stroke-linejoin:miter;stroke-opacity:1" d="M 121.496,126.531 121.496,143.316 z" id="boundary" inkscape:connector-curvature="0" />
	<path style="fill:none;stroke:red;stroke-width:1px;stroke-linecap:butt;stroke-linejoin:miter;stroke-opacity:1" d="M 121.496,143.316 121.496,160.102 z" id="boundary" inkscape:connector-curvature="0" />
	<path style="fill:none;stroke:red;stroke-width:1px;stroke-linecap:butt;stroke-linejoin:miter;stroke-opacity:1" d="M 121.496,160.102 121.496,176.887 z" id="boundary" inkscape:connector-curvature="0" />
	<path style="fill:none;stroke:red;stroke-width:1px;stroke-linecap:butt;stroke-linejoin:miter;stroke-opacity:1" d="M 121.496,176.887 121.496,193.672 z" id="boundary" inkscape:connector-curvature="0" />
	<path style="fill:none;stroke:red;stroke-width:1px;stroke-linecap:butt;stroke-linejoin:miter;stroke-opacity:1" d="M 121.496,193.672 121.496,210.457 z" id="boundary" inkscape:connector-curvature="0" />
	<path style="fill:none;stroke:red;stroke-width:1px;stroke-linecap:butt;stroke-linejoin:miter;stroke-opacity:1" d="M 121.496,210.457 121.496,227.242 z" id="boundary" inkscape:connector-curvature="0" />
	<path style="fill:none;stroke:red;stroke-width:1px;stroke-linecap:butt;stroke-linejoin:miter;stroke-opacity:1" d="M 121.496,227.242 121.496,244.027 z" id="boundary" inkscape:connector-curvature="0" />
	<path style="fill:none;stroke:red;stroke-width:1px;stroke-linecap:butt;stroke-linejoin:miter;stroke-opacity:1" d="M 121.496,244.027 121.496,260.812 z" id="boundary" inkscape:connector-curvature="0" />
	<path style="fill:none;stroke:red;stroke-width:1px;stroke-linecap:butt;stroke-linejoin:miter;stroke-opacity:1" d="M 121.496,260.812 121.496,277.597 z" id="boundary" inkscape:connector-curvature="0" />
	<path style="fill:none;stroke:red;stroke-width:1px;stroke-linecap:butt;stroke-linejoin:miter;stroke-opacity:1" d="M 121.496,277.597 121.496,294.382 z" id="boundary" inkscape:connector-curvature="0" />
	<path style="fill:none;stroke:red;stroke-width:1px;stroke-linecap:butt;stroke-linejoin:miter;stroke-opacity:1" d="M 121.496,294.382 121.496,311.168 z" id="boundary" inkscape:connector-curvature="0" />
	<path style="fill:none;stroke:red;stroke-width:1px;stroke-linecap:butt;stroke-linejoin:miter;stroke-opacity:1" d="M 121.496,311.168 129.888,326.274 z" id="boundary" inkscape:connector-curvature="0" />
	<path style="fill:none;stroke:red;stroke-width:1px;stroke-linecap:butt;stroke-linejoin:miter;stroke-opacity:1" d="M 123.174,891.932 131.567,907.039 z" id="boundary" inkscape:connector-curvature="0" />
	<path style="fill:none;stroke:red;stroke-width:1px;stroke-linecap:butt;stroke-linejoin:miter;stroke-opacity:1" d="M 126.531,532.731 134.924,515.946 z" id="boundary" inkscape:connector-curvature="0" />
	<path style="fill:none;stroke:red;stroke-width:1px;stroke-linecap:butt;stroke-linejoin:miter;stroke-opacity:1" d="M 129.888,34.2132 129.888,50.9983 z" id="boundary" inkscape:connector-curvature="0" />
	<path style="fill:none;stroke:red;stroke-width:1px;stroke-linecap:butt;stroke-linejoin:miter;stroke-opacity:1" d="M 129.888,34.2132 143.316,20.7851 z" id="boundary" inkscape:connector-curvature="0" />
	<path style="fill:none;stroke:red;stroke-width:1px;stroke-linecap:butt;stroke-linejoin:miter;stroke-opacity:1" d="M 129.888,326.274 129.888,343.059 z" id="boundary" inkscape:connector-curvature="0" />
	<path style="fill:none;stroke:red;stroke-width:1px;stroke-linecap:butt;stroke-linejoin:miter;stroke-opacity:1" d="M 129.888,343.059 138.281,358.166 z" id="boundary" inkscape:connector-curvature="0" />
	<path style="fill:none;stroke:red;stroke-width:1px;stroke-linecap:butt;stroke-linejoin:miter;stroke-opacity:1" d="M 129.888,420.271 129.888,437.056 z" id="boundary" inkscape:connector-curvature="0" />
	<path style="fill:none;stroke:red;stroke-width:1px;stroke-linecap:butt;stroke-linejoin:miter;stroke-opacity:1" d="M 129.888,420.271 143.316,406.843 z" id="boundary" inkscape:connector-curvature="0" />
	<path style="fill:none;stroke:red;stroke-width:1px;stroke-linecap:butt;stroke-linejoin:miter;stroke-opacity:1" d="M 129.888,437.056 146.673,437.056 z" id="boundary" inkscape:connector-curvature="0" />
	<path style="fill:none;stroke:red;stroke-width:1px;stroke-linecap:butt;stroke-linejoin:miter;stroke-opacity:1" d="M 129.888,996 139.959,972.501 z" id="boundary" inkscape:connector-curvature="0" />
	<path style="fill:none;stroke:red;stroke-width:1px;stroke-linecap:butt;stroke-linejoin:miter;stroke-opacity:1" d="M 131.567,651.905 148.352,643.513 z" id="boundary" inkscape:connector-curvature="0" />
	<path style="fill:none;stroke:red;stroke-width:1px;stroke-linecap:butt;stroke-linejoin:miter;stroke-opacity:1" d="M 131.567,907.039 131.567,923.824 z" id="boundary" inkscape:connector-curvature="0" />
	<path style="fill:none;stroke:red;stroke-width:1px;stroke-linecap:butt;stroke-linejoin:miter;stroke-opacity:1" d="M 131.567,923.824 131.567,940.609 z" id="boundary" inkscape:connector-curvature="0" />
	<path style="fill:none;stroke:red;stroke-width:1px;stroke-linecap:butt;stroke-linejoin:miter;stroke-opacity:1" d="M 131.567,940.609 139.959,955.716 z" id="boundary" inkscape:connector-curvature="0" />
	<path style="fill:none;stroke:red;stroke-width:1px;stroke-linecap:butt;stroke-linejoin:miter;stroke-opacity:1" d="M 134.924,515.946 148.352,502.518 z" id="boundary" inkscape:connector-curvature="0" />
	<path style="fill:none;stroke:red;stroke-width:1px;stroke-linecap:butt;stroke-linejoin:miter;stroke-opacity:1" d="M 138.281,358.166 138.281,374.951 z" id="boundary" inkscape:connector-curvature="0" />
	<path style="fill:none;stroke:red;stroke-width:1px;stroke-linecap:butt;stroke-linejoin:miter;stroke-opacity:1" d="M 138.281,374.951 146.673,390.058 z" id="boundary" inkscape:connector-curvature="0" />
	<path style="fill:none;stroke:red;stroke-width:1px;stroke-linecap:butt;stroke-linejoin:miter;stroke-opacity:1" d="M 139.959,955.716 139.959,972.501 z" id="boundary" inkscape:connector-curvature="0" />
	<path style="fill:none;stroke:red;stroke-width:1px;stroke-linecap:butt;stroke-linejoin:miter;stroke-opacity:1" d="M 143.316,20.7851 158.423,12.3926 z" id="boundary" inkscape:connector-curvature="0" />
	<path style="fill:none;stroke:red;stroke-width:1px;stroke-linecap:butt;stroke-linejoin:miter;stroke-opacity:1" d="M 143.316,406.843 146.673,390.058 z" id="boundary" inkscape:connector-curvature="0" />
	<path style="fill:none;stroke:red;stroke-width:1px;stroke-linecap:butt;stroke-linejoin:miter;stroke-opacity:1" d="M 146.673,437.056 163.459,433.699 z" id="boundary" inkscape:connector-curvature="0" />
	<path style="fill:none;stroke:red;stroke-width:1px;stroke-linecap:butt;stroke-linejoin:miter;stroke-opacity:1" d="M 146.673,806.328 155.066,821.435 z" id="boundary" inkscape:connector-curvature="0" />
	<path style="fill:none;stroke:red;stroke-width:1px;stroke-linecap:butt;stroke-linejoin:miter;stroke-opacity:1" d="M 146.673,806.328 160.102,792.9 z" id="boundary" inkscape:connector-curvature="0" />
	<path style="fill:none;stroke:red;stroke-width:1px;stroke-linecap:butt;stroke-linejoin:miter;stroke-opacity:1" d="M 148.352,502.518 161.78,490.768 z" id="boundary" inkscape:connector-curvature="0" />
	<path style="fill:none;stroke:red;stroke-width:1px;stroke-linecap:butt;stroke-linejoin:miter;stroke-opacity:1" d="M 148.352,643.513 165.137,643.513 z" id="boundary" inkscape:connector-curvature="0" />
	<path style="fill:none;stroke:red;stroke-width:1px;stroke-linecap:butt;stroke-linejoin:miter;stroke-opacity:1" d="M 155.066,821.435 171.851,823.113 z" id="boundary" inkscape:connector-curvature="0" />
	<path style="fill:none;stroke:red;stroke-width:1px;stroke-linecap:butt;stroke-linejoin:miter;stroke-opacity:1" d="M 158.423,12.3926 173.53,4 z" id="boundary" inkscape:connector-curvature="0" />
	<path style="fill:none;stroke:red;stroke-width:1px;stroke-linecap:butt;stroke-linejoin:miter;stroke-opacity:1" d="M 160.102,792.9 173.53,779.472 z" id="boundary" inkscape:connector-curvature="0" />
	<path style="fill:none;stroke:red;stroke-width:1px;stroke-linecap:butt;stroke-linejoin:miter;stroke-opacity:1" d="M 161.78,490.768 173.53,477.34 z" id="boundary" inkscape:connector-curvature="0" />
	<path style="fill:none;stroke:red;stroke-width:1px;stroke-linecap:butt;stroke-linejoin:miter;stroke-opacity:1" d="M 163.459,433.699 173.53,447.127 z" id="boundary" inkscape:connector-curvature="0" />
	<path style="fill:none;stroke:red;stroke-width:1px;stroke-linecap:butt;stroke-linejoin:miter;stroke-opacity:1" d="M 165.137,643.513 178.565,631.763 z" id="boundary" inkscape:connector-curvature="0" />
	<path style="fill:none;stroke:red;stroke-width:1px;stroke-linecap:butt;stroke-linejoin:miter;stroke-opacity:1" d="M 171.851,823.113 188.636,819.756 z" id="boundary" inkscape:connector-curvature="0" />
	<path style="fill:none;stroke:red;stroke-width:1px;stroke-linecap:butt;stroke-linejoin:miter;stroke-opacity:1" d="M 173.53,4 190.315,9.03553 z" id="boundary" inkscape:connector-curvature="0" />
	<path style="fill:none;stroke:red;stroke-width:1px;stroke-linecap:butt;stroke-linejoin:miter;stroke-opacity:1" d="M 173.53,447.127 173.53,477.34 z" id="boundary" inkscape:connector-curvature="0" />
	<path style="fill:none;stroke:red;stroke-width:1px;stroke-linecap:butt;stroke-linejoin:miter;stroke-opacity:1" d="M 173.53,779.472 181.922,762.687 z" id="boundary" inkscape:connector-curvature="0" />
	<path style="fill:none;stroke:red;stroke-width:1px;stroke-linecap:butt;stroke-linejoin:miter;stroke-opacity:1" d="M 178.565,631.763 195.35,623.371 z" id="boundary" inkscape:connector-curvature="0" />
	<path style="fill:none;stroke:red;stroke-width:1px;stroke-linecap:butt;stroke-linejoin:miter;stroke-opacity:1" d="M 181.922,762.687 190.315,745.902 z" id="boundary" inkscape:connector-curvature="0" />
	<path style="fill:none;stroke:red;stroke-width:1px;stroke-linecap:butt;stroke-linejoin:miter;stroke-opacity:1" d="M 188.636,819.756 202.064,809.685 z" id="boundary" inkscape:connector-curvature="0" />
	<path style="fill:none;stroke:red;stroke-width:1px;stroke-linecap:butt;stroke-linejoin:miter;stroke-opacity:1" d="M 190.315,9.03553 207.1,12.3926 z" id="boundary" inkscape:connector-curvature="0" />
	<path style="fill:none;stroke:red;stroke-width:1px;stroke-linecap:butt;stroke-linejoin:miter;stroke-opacity:1" d="M 190.315,745.902 203.743,734.152 z" id="boundary" inkscape:connector-curvature="0" />
	<path style="fill:none;stroke:red;stroke-width:1px;stroke-linecap:butt;stroke-linejoin:miter;stroke-opacity:1" d="M 195.35,623.371 212.135,614.978 z" id="boundary" inkscape:connector-curvature="0" />
	<path style="fill:none;stroke:red;stroke-width:1px;stroke-linecap:butt;stroke-linejoin:miter;stroke-opacity:1" d="M 202.064,809.685 215.492,794.579 z" id="boundary" inkscape:connector-curvature="0" />
	<path style="fill:none;stroke:red;stroke-width:1px;stroke-linecap:butt;stroke-linejoin:miter;stroke-opacity:1" d="M 203.743,734.152 210.457,717.367 z" id="boundary" inkscape:connector-curvature="0" />
	<path style="fill:none;stroke:red;stroke-width:1px;stroke-linecap:butt;stroke-linejoin:miter;stroke-opacity:1" d="M 207.1,12.3926 223.885,12.3926 z" id="boundary" inkscape:connector-curvature="0" />
	<path style="fill:none;stroke:red;stroke-width:1px;stroke-linecap:butt;stroke-linejoin:miter;stroke-opacity:1" d="M 210.457,717.367 218.849,700.582 z" id="boundary" inkscape:connector-curvature="0" />
	<path style="fill:none;stroke:red;stroke-width:1px;stroke-linecap:butt;stroke-linejoin:miter;stroke-opacity:1" d="M 212.135,614.978 228.92,606.585 z" id="boundary" inkscape:connector-curvature="0" />
	<path style="fill:none;stroke:red;stroke-width:1px;stroke-linecap:butt;stroke-linejoin:miter;stroke-opacity:1" d="M 215.492,794.579 228.92,782.829 z" id="boundary" inkscape:connector-curvature="0" />
	<path style="fill:none;stroke:red;stroke-width:1px;stroke-linecap:butt;stroke-linejoin:miter;stroke-opacity:1" d="M 218.849,700.582 227.242,683.797 z" id="boundary" inkscape:connector-curvature="0" />
	<path style="fill:none;stroke:red;stroke-width:1px;stroke-linecap:butt;stroke-linejoin:miter;stroke-opacity:1" d="M 223.885,12.3926 238.992,20.7851 z" id="boundary" inkscape:connector-curvature="0" />
	<path style="fill:none;stroke:red;stroke-width:1px;stroke-linecap:butt;stroke-linejoin:miter;stroke-opacity:1" d="M 227.242,683.797 235.635,667.012 z" id="boundary" inkscape:connector-curvature="0" />
	<path style="fill:none;stroke:red;stroke-width:1px;stroke-linecap:butt;stroke-linejoin:miter;stroke-opacity:1" d="M 228.92,606.585 240.67,593.157 z" id="boundary" inkscape:connector-curvature="0" />
	<path style="fill:none;stroke:red;stroke-width:1px;stroke-linecap:butt;stroke-linejoin:miter;stroke-opacity:1" d="M 228.92,782.829 240.67,769.401 z" id="boundary" inkscape:connector-curvature="0" />
	<path style="fill:none;stroke:red;stroke-width:1px;stroke-linecap:butt;stroke-linejoin:miter;stroke-opacity:1" d="M 235.635,667.012 238.992,638.477 z" id="boundary" inkscape:connector-curvature="0" />
	<path style="fill:none;stroke:red;stroke-width:1px;stroke-linecap:butt;stroke-linejoin:miter;stroke-opacity:1" d="M 238.992,20.7851 255.777,20.7851 z" id="boundary" inkscape:connector-curvature="0" />
	<path style="fill:none;stroke:red;stroke-width:1px;stroke-linecap:butt;stroke-linejoin:miter;stroke-opacity:1" d="M 238.992,638.477 247.384,621.692 z" id="boundary" inkscape:connector-curvature="0" />
	<path style="fill:none;stroke:red;stroke-width:1px;stroke-linecap:butt;stroke-linejoin:miter;stroke-opacity:1" d="M 240.67,593.157 257.455,584.765 z" id="boundary" inkscape:connector-curvature="0" />
	<path style="fill:none;stroke:red;stroke-width:1px;stroke-linecap:butt;stroke-linejoin:miter;stroke-opacity:1" d="M 240.67,752.616 240.67,769.401 z" id="boundary" inkscape:connector-curvature="0" />
	<path style="fill:none;stroke:red;stroke-width:1px;stroke-linecap:butt;stroke-linejoin:miter;stroke-opacity:1" d="M 240.67,752.616 249.063,727.438 z" id="boundary" inkscape:connector-curvature="0" />
	<path style="fill:none;stroke:red;stroke-width:1px;stroke-linecap:butt;stroke-linejoin:miter;stroke-opacity:1" d="M 247.384,621.692 255.777,604.907 z" id="boundary" inkscape:connector-curvature="0" />
	<path style="fill:none;stroke:red;stroke-width:1px;stroke-linecap:butt;stroke-linejoin:miter;stroke-opacity:1" d="M 249.063,727.438 257.455,710.653 z" id="boundary" inkscape:connector-curvature="0" />
	<path style="fill:none;stroke:red;stroke-width:1px;stroke-linecap:butt;stroke-linejoin:miter;stroke-opacity:1" d="M 255.777,20.7851 272.562,20.7851 z" id="boundary" inkscape:connector-curvature="0" />
	<path style="fill:none;stroke:red;stroke-width:1px;stroke-linecap:butt;stroke-linejoin:miter;stroke-opacity:1" d="M 257.455,710.653 265.848,693.868 z" id="boundary" inkscape:connector-curvature="0" />
	<path style="fill:none;stroke:red;stroke-width:1px;stroke-linecap:butt;stroke-linejoin:miter;stroke-opacity:1" d="M 265.848,693.868 282.633,693.868 z" id="boundary" inkscape:connector-curvature="0" />
	<path style="fill:none;stroke:red;stroke-width:1px;stroke-linecap:butt;stroke-linejoin:miter;stroke-opacity:1" d="M 272.562,20.7851 287.668,29.1777 z" id="boundary" inkscape:connector-curvature="0" />
	<path style="fill:none;stroke:red;stroke-width:1px;stroke-linecap:butt;stroke-linejoin:miter;stroke-opacity:1" d="M 282.633,693.868 299.418,697.225 z" id="boundary" inkscape:connector-curvature="0" />
	<path style="fill:none;stroke:red;stroke-width:1px;stroke-linecap:butt;stroke-linejoin:miter;stroke-opacity:1" d="M 287.668,29.1777 302.775,37.5702 z" id="boundary" inkscape:connector-curvature="0" />
	<path style="fill:none;stroke:red;stroke-width:1px;stroke-linecap:butt;stroke-linejoin:miter;stroke-opacity:1" d="M 299.418,697.225 316.203,693.868 z" id="boundary" inkscape:connector-curvature="0" />
	<path style="fill:none;stroke:red;stroke-width:1px;stroke-linecap:butt;stroke-linejoin:miter;stroke-opacity:1" d="M 302.775,37.5702 319.56,37.5702 z" id="boundary" inkscape:connector-curvature="0" />
	<path style="fill:none;stroke:red;stroke-width:1px;stroke-linecap:butt;stroke-linejoin:miter;stroke-opacity:1" d="M 311.168,710.653 316.203,693.868 z" id="boundary" inkscape:connector-curvature="0" />
	<path style="fill:none;stroke:red;stroke-width:1px;stroke-linecap:butt;stroke-linejoin:miter;stroke-opacity:1" d="M 319.56,37.5702 336.345,37.5702 z" id="boundary" inkscape:connector-curvature="0" />
	<path style="fill:none;stroke:red;stroke-width:1px;stroke-linecap:butt;stroke-linejoin:miter;stroke-opacity:1" d="M 324.596,677.083 338.024,665.333 z" id="boundary" inkscape:connector-curvature="0" />
	<path style="fill:none;stroke:red;stroke-width:1px;stroke-linecap:butt;stroke-linejoin:miter;stroke-opacity:1" d="M 336.345,37.5702 351.452,45.9628 z" id="boundary" inkscape:connector-curvature="0" />
	<path style="fill:none;stroke:red;stroke-width:1px;stroke-linecap:butt;stroke-linejoin:miter;stroke-opacity:1" d="M 338.024,665.333 341.381,643.513 z" id="boundary" inkscape:connector-curvature="0" />
	<path style="fill:none;stroke:red;stroke-width:1px;stroke-linecap:butt;stroke-linejoin:miter;stroke-opacity:1" d="M 341.381,643.513 349.773,626.728 z" id="boundary" inkscape:connector-curvature="0" />
	<path style="fill:none;stroke:red;stroke-width:1px;stroke-linecap:butt;stroke-linejoin:miter;stroke-opacity:1" d="M 349.773,626.728 358.166,609.942 z" id="boundary" inkscape:connector-curvature="0" />
	<path style="fill:none;stroke:red;stroke-width:1px;stroke-linecap:butt;stroke-linejoin:miter;stroke-opacity:1" d="M 351.452,45.9628 368.237,45.9628 z" id="boundary" inkscape:connector-curvature="0" />
	<path style="fill:none;stroke:red;stroke-width:1px;stroke-linecap:butt;stroke-linejoin:miter;stroke-opacity:1" d="M 358.166,609.942 374.951,613.299 z" id="boundary" inkscape:connector-curvature="0" />
	<path style="fill:none;stroke:red;stroke-width:1px;stroke-linecap:butt;stroke-linejoin:miter;stroke-opacity:1" d="M 368.237,45.9628 385.022,45.9628 z" id="boundary" inkscape:connector-curvature="0" />
	<path style="fill:none;stroke:red;stroke-width:1px;stroke-linecap:butt;stroke-linejoin:miter;stroke-opacity:1" d="M 374.951,613.299 390.058,621.692 z" id="boundary" inkscape:connector-curvature="0" />
	<path style="fill:none;stroke:red;stroke-width:1px;stroke-linecap:butt;stroke-linejoin:miter;stroke-opacity:1" d="M 385.022,45.9628 400.129,54.3553 z" id="boundary" inkscape:connector-curvature="0" />
	<path style="fill:none;stroke:red;stroke-width:1px;stroke-linecap:butt;stroke-linejoin:miter;stroke-opacity:1" d="M 390.058,621.692 398.45,636.799 z" id="boundary" inkscape:connector-curvature="0" />
	<path style="fill:none;stroke:red;stroke-width:1px;stroke-linecap:butt;stroke-linejoin:miter;stroke-opacity:1" d="M 398.45,636.799 410.2,650.227 z" id="boundary" inkscape:connector-curvature="0" />
	<path style="fill:none;stroke:red;stroke-width:1px;stroke-linecap:butt;stroke-linejoin:miter;stroke-opacity:1" d="M 400.129,54.3553 416.914,54.3553 z" id="boundary" inkscape:connector-curvature="0" />
	<path style="fill:none;stroke:red;stroke-width:1px;stroke-linecap:butt;stroke-linejoin:miter;stroke-opacity:1" d="M 410.2,650.227 423.628,660.298 z" id="boundary" inkscape:connector-curvature="0" />
	<path style="fill:none;stroke:red;stroke-width:1px;stroke-linecap:butt;stroke-linejoin:miter;stroke-opacity:1" d="M 416.914,54.3553 433.699,54.3553 z" id="boundary" inkscape:connector-curvature="0" />
	<path style="fill:none;stroke:red;stroke-width:1px;stroke-linecap:butt;stroke-linejoin:miter;stroke-opacity:1" d="M 423.628,660.298 433.699,643.513 z" id="boundary" inkscape:connector-curvature="0" />
	<path style="fill:none;stroke:red;stroke-width:1px;stroke-linecap:butt;stroke-linejoin:miter;stroke-opacity:1" d="M 433.699,54.3553 450.484,54.3553 z" id="boundary" inkscape:connector-curvature="0" />
	<path style="fill:none;stroke:red;stroke-width:1px;stroke-linecap:butt;stroke-linejoin:miter;stroke-opacity:1" d="M 433.699,643.513 442.091,626.728 z" id="boundary" inkscape:connector-curvature="0" />
	<path style="fill:none;stroke:red;stroke-width:1px;stroke-linecap:butt;stroke-linejoin:miter;stroke-opacity:1" d="M 442.091,626.728 458.876,630.085 z" id="boundary" inkscape:connector-curvature="0" />
	<path style="fill:none;stroke:red;stroke-width:1px;stroke-linecap:butt;stroke-linejoin:miter;stroke-opacity:1" d="M 450.484,54.3553 467.269,59.3909 z" id="boundary" inkscape:connector-curvature="0" />
	<path style="fill:none;stroke:red;stroke-width:1px;stroke-linecap:butt;stroke-linejoin:miter;stroke-opacity:1" d="M 458.876,630.085 473.983,638.477 z" id="boundary" inkscape:connector-curvature="0" />
	<path style="fill:none;stroke:red;stroke-width:1px;stroke-linecap:butt;stroke-linejoin:miter;stroke-opacity:1" d="M 467.269,59.3909 484.054,62.7479 z" id="boundary" inkscape:connector-curvature="0" />
	<path style="fill:none;stroke:red;stroke-width:1px;stroke-linecap:butt;stroke-linejoin:miter;stroke-opacity:1" d="M 473.983,638.477 490.768,643.513 z" id="boundary" inkscape:connector-curvature="0" />
	<path style="fill:none;stroke:red;stroke-width:1px;stroke-linecap:butt;stroke-linejoin:miter;stroke-opacity:1" d="M 484.054,62.7479 500.839,62.7479 z" id="boundary" inkscape:connector-curvature="0" />
	<path style="fill:none;stroke:red;stroke-width:1px;stroke-linecap:butt;stroke-linejoin:miter;stroke-opacity:1" d="M 490.768,643.513 507.553,643.513 z" id="boundary" inkscape:connector-curvature="0" />
	<path style="fill:none;stroke:red;stroke-width:1px;stroke-linecap:butt;stroke-linejoin:miter;stroke-opacity:1" d="M 500.839,62.7479 515.946,54.3553 z" id="boundary" inkscape:connector-curvature="0" />
	<path style="fill:none;stroke:red;stroke-width:1px;stroke-linecap:butt;stroke-linejoin:miter;stroke-opacity:1" d="M 507.553,643.513 524.338,638.477 z" id="boundary" inkscape:connector-curvature="0" />
	<path style="fill:none;stroke:red;stroke-width:1px;stroke-linecap:butt;stroke-linejoin:miter;stroke-opacity:1" d="M 515.946,54.3553 532.731,50.9983 z" id="boundary" inkscape:connector-curvature="0" />
	<path style="fill:none;stroke:red;stroke-width:1px;stroke-linecap:butt;stroke-linejoin:miter;stroke-opacity:1" d="M 524.338,638.477 541.124,635.12 z" id="boundary" inkscape:connector-curvature="0" />
	<path style="fill:none;stroke:red;stroke-width:1px;stroke-linecap:butt;stroke-linejoin:miter;stroke-opacity:1" d="M 532.731,50.9983 549.516,45.9628 z" id="boundary" inkscape:connector-curvature="0" />
	<path style="fill:none;stroke:red;stroke-width:1px;stroke-linecap:butt;stroke-linejoin:miter;stroke-opacity:1" d="M 541.124,635.12 557.909,635.12 z" id="boundary" inkscape:connector-curvature="0" />
	<path style="fill:none;stroke:red;stroke-width:1px;stroke-linecap:butt;stroke-linejoin:miter;stroke-opacity:1" d="M 549.516,45.9628 564.623,54.3553 z" id="boundary" inkscape:connector-curvature="0" />
	<path style="fill:none;stroke:red;stroke-width:1px;stroke-linecap:butt;stroke-linejoin:miter;stroke-opacity:1" d="M 557.909,635.12 574.694,630.085 z" id="boundary" inkscape:connector-curvature="0" />
	<path style="fill:none;stroke:red;stroke-width:1px;stroke-linecap:butt;stroke-linejoin:miter;stroke-opacity:1" d="M 564.623,54.3553 581.408,54.3553 z" id="boundary" inkscape:connector-curvature="0" />
	<path style="fill:none;stroke:red;stroke-width:1px;stroke-linecap:butt;stroke-linejoin:miter;stroke-opacity:1" d="M 574.694,630.085 591.479,626.728 z" id="boundary" inkscape:connector-curvature="0" />
	<path style="fill:none;stroke:red;stroke-width:1px;stroke-linecap:butt;stroke-linejoin:miter;stroke-opacity:1" d="M 581.408,54.3553 598.193,54.3553 z" id="boundary" inkscape:connector-curvature="0" />
	<path style="fill:none;stroke:red;stroke-width:1px;stroke-linecap:butt;stroke-linejoin:miter;stroke-opacity:1" d="M 591.479,626.728 608.264,626.728 z" id="boundary" inkscape:connector-curvature="0" />
	<path style="fill:none;stroke:red;stroke-width:1px;stroke-linecap:butt;stroke-linejoin:miter;stroke-opacity:1" d="M 598.193,54.3553 614.978,54.3553 z" id="boundary" inkscape:connector-curvature="0" />
	<path style="fill:none;stroke:red;stroke-width:1px;stroke-linecap:butt;stroke-linejoin:miter;stroke-opacity:1" d="M 608.264,626.728 623.371,618.335 z" id="boundary" inkscape:connector-curvature="0" />
	<path style="fill:none;stroke:red;stroke-width:1px;stroke-linecap:butt;stroke-linejoin:miter;stroke-opacity:1" d="M 614.978,54.3553 630.085,45.9628 z" id="boundary" inkscape:connector-curvature="0" />
	<path style="fill:none;stroke:red;stroke-width:1px;stroke-linecap:butt;stroke-linejoin:miter;stroke-opacity:1" d="M 623.371,618.335 640.156,618.335 z" id="boundary" inkscape:connector-curvature="0" />
	<path style="fill:none;stroke:red;stroke-width:1px;stroke-linecap:butt;stroke-linejoin:miter;stroke-opacity:1" d="M 630.085,45.9628 646.87,45.9628 z" id="boundary" inkscape:connector-curvature="0" />
	<path style="fill:none;stroke:red;stroke-width:1px;stroke-linecap:butt;stroke-linejoin:miter;stroke-opacity:1" d="M 640.156,618.335 656.941,618.335 z" id="boundary" inkscape:connector-curvature="0" />
	<path style="fill:none;stroke:red;stroke-width:1px;stroke-linecap:butt;stroke-linejoin:miter;stroke-opacity:1" d="M 646.87,45.9628 661.976,37.5702 z" id="boundary" inkscape:connector-curvature="0" />
	<path style="fill:none;stroke:red;stroke-width:1px;stroke-linecap:butt;stroke-linejoin:miter;stroke-opacity:1" d="M 656.941,618.335 673.726,618.335 z" id="boundary" inkscape:connector-curvature="0" />
	<path style="fill:none;stroke:red;stroke-width:1px;stroke-linecap:butt;stroke-linejoin:miter;stroke-opacity:1" d="M 661.976,37.5702 677.083,29.1777 z" id="boundary" inkscape:connector-curvature="0" />
	<path style="fill:none;stroke:red;stroke-width:1px;stroke-linecap:butt;stroke-linejoin:miter;stroke-opacity:1" d="M 673.726,618.335 688.832,609.942 z" id="boundary" inkscape:connector-curvature="0" />
	<path style="fill:none;stroke:red;stroke-width:1px;stroke-linecap:butt;stroke-linejoin:miter;stroke-opacity:1" d="M 677.083,29.1777 685.475,44.2843 z" id="boundary" inkscape:connector-curvature="0" />
	<path style="fill:none;stroke:red;stroke-width:1px;stroke-linecap:butt;stroke-linejoin:miter;stroke-opacity:1" d="M 677.083,89.6041 677.083,106.389 z" id="boundary" inkscape:connector-curvature="0" />
	<path style="fill:none;stroke:red;stroke-width:1px;stroke-linecap:butt;stroke-linejoin:miter;stroke-opacity:1" d="M 677.083,89.6041 685.475,61.0694 z" id="boundary" inkscape:connector-curvature="0" />
	<path style="fill:none;stroke:red;stroke-width:1px;stroke-linecap:butt;stroke-linejoin:miter;stroke-opacity:1" d="M 677.083,106.389 680.44,123.174 z" id="boundary" inkscape:connector-curvature="0" />
	<path style="fill:none;stroke:red;stroke-width:1px;stroke-linecap:butt;stroke-linejoin:miter;stroke-opacity:1" d="M 680.44,123.174 688.832,138.281 z" id="boundary" inkscape:connector-curvature="0" />
	<path style="fill:none;stroke:red;stroke-width:1px;stroke-linecap:butt;stroke-linejoin:miter;stroke-opacity:1" d="M 685.475,44.2843 685.475,61.0694 z" id="boundary" inkscape:connector-curvature="0" />
	<path style="fill:none;stroke:red;stroke-width:1px;stroke-linecap:butt;stroke-linejoin:miter;stroke-opacity:1" d="M 688.832,138.281 693.868,155.066 z" id="boundary" inkscape:connector-curvature="0" />
	<path style="fill:none;stroke:red;stroke-width:1px;stroke-linecap:butt;stroke-linejoin:miter;stroke-opacity:1" d="M 688.832,609.942 705.618,609.942 z" id="boundary" inkscape:connector-curvature="0" />
	<path style="fill:none;stroke:red;stroke-width:1px;stroke-linecap:butt;stroke-linejoin:miter;stroke-opacity:1" d="M 693.868,155.066 693.868,171.851 z" id="boundary" inkscape:connector-curvature="0" />
	<path style="fill:none;stroke:red;stroke-width:1px;stroke-linecap:butt;stroke-linejoin:miter;stroke-opacity:1" d="M 693.868,171.851 693.868,188.636 z" id="boundary" inkscape:connector-curvature="0" />
	<path style="fill:none;stroke:red;stroke-width:1px;stroke-linecap:butt;stroke-linejoin:miter;stroke-opacity:1" d="M 693.868,188.636 693.868,205.421 z" id="boundary" inkscape:connector-curvature="0" />
	<path style="fill:none;stroke:red;stroke-width:1px;stroke-linecap:butt;stroke-linejoin:miter;stroke-opacity:1" d="M 693.868,205.421 693.868,222.206 z" id="boundary" inkscape:connector-curvature="0" />
	<path style="fill:none;stroke:red;stroke-width:1px;stroke-linecap:butt;stroke-linejoin:miter;stroke-opacity:1" d="M 693.868,222.206 693.868,238.992 z" id="boundary" inkscape:connector-curvature="0" />
	<path style="fill:none;stroke:red;stroke-width:1px;stroke-linecap:butt;stroke-linejoin:miter;stroke-opacity:1" d="M 693.868,238.992 693.868,255.777 z" id="boundary" inkscape:connector-curvature="0" />
	<path style="fill:none;stroke:red;stroke-width:1px;stroke-linecap:butt;stroke-linejoin:miter;stroke-opacity:1" d="M 693.868,255.777 702.261,270.883 z" id="boundary" inkscape:connector-curvature="0" />
	<path style="fill:none;stroke:red;stroke-width:1px;stroke-linecap:butt;stroke-linejoin:miter;stroke-opacity:1" d="M 702.261,270.883 702.261,287.668 z" id="boundary" inkscape:connector-curvature="0" />
	<path style="fill:none;stroke:red;stroke-width:1px;stroke-linecap:butt;stroke-linejoin:miter;stroke-opacity:1" d="M 702.261,287.668 702.261,304.453 z" id="boundary" inkscape:connector-curvature="0" />
	<path style="fill:none;stroke:red;stroke-width:1px;stroke-linecap:butt;stroke-linejoin:miter;stroke-opacity:1" d="M 702.261,304.453 710.653,319.56 z" id="boundary" inkscape:connector-curvature="0" />
	<path style="fill:none;stroke:red;stroke-width:1px;stroke-linecap:butt;stroke-linejoin:miter;stroke-opacity:1" d="M 705.618,609.942 722.403,609.942 z" id="boundary" inkscape:connector-curvature="0" />
	<path style="fill:none;stroke:red;stroke-width:1px;stroke-linecap:butt;stroke-linejoin:miter;stroke-opacity:1" d="M 710.653,319.56 719.046,334.667 z" id="boundary" inkscape:connector-curvature="0" />
	<path style="fill:none;stroke:red;stroke-width:1px;stroke-linecap:butt;stroke-linejoin:miter;stroke-opacity:1" d="M 719.046,334.667 724.081,351.452 z" id="boundary" inkscape:connector-curvature="0" />
	<path style="fill:none;stroke:red;stroke-width:1px;stroke-linecap:butt;stroke-linejoin:miter;stroke-opacity:1" d="M 722.403,609.942 737.509,601.55 z" id="boundary" inkscape:connector-curvature="0" />
	<path style="fill:none;stroke:red;stroke-width:1px;stroke-linecap:butt;stroke-linejoin:miter;stroke-opacity:1" d="M 724.081,351.452 732.474,366.558 z" id="boundary" inkscape:connector-curvature="0" />
	<path style="fill:none;stroke:red;stroke-width:1px;stroke-linecap:butt;stroke-linejoin:miter;stroke-opacity:1" d="M 732.474,366.558 735.831,383.343 z" id="boundary" inkscape:connector-curvature="0" />
	<path style="fill:none;stroke:red;stroke-width:1px;stroke-linecap:butt;stroke-linejoin:miter;stroke-opacity:1" d="M 735.831,383.343 744.223,398.45 z" id="boundary" inkscape:connector-curvature="0" />
	<path style="fill:none;stroke:red;stroke-width:1px;stroke-linecap:butt;stroke-linejoin:miter;stroke-opacity:1" d="M 737.509,601.55 754.294,601.55 z" id="boundary" inkscape:connector-curvature="0" />
	<path style="fill:none;stroke:red;stroke-width:1px;stroke-linecap:butt;stroke-linejoin:miter;stroke-opacity:1" d="M 744.223,398.45 744.223,415.235 z" id="boundary" inkscape:connector-curvature="0" />
	<path style="fill:none;stroke:red;stroke-width:1px;stroke-linecap:butt;stroke-linejoin:miter;stroke-opacity:1" d="M 744.223,415.235 752.616,430.342 z" id="boundary" inkscape:connector-curvature="0" />
	<path style="fill:none;stroke:red;stroke-width:1px;stroke-linecap:butt;stroke-linejoin:miter;stroke-opacity:1" d="M 752.616,430.342 761.008,445.448 z" id="boundary" inkscape:connector-curvature="0" />
	<path style="fill:none;stroke:red;stroke-width:1px;stroke-linecap:butt;stroke-linejoin:miter;stroke-opacity:1" d="M 754.294,601.55 769.401,593.157 z" id="boundary" inkscape:connector-curvature="0" />
	<path style="fill:none;stroke:red;stroke-width:1px;stroke-linecap:butt;stroke-linejoin:miter;stroke-opacity:1" d="M 761.008,445.448 767.723,462.234 z" id="boundary" inkscape:connector-curvature="0" />
	<path style="fill:none;stroke:red;stroke-width:1px;stroke-linecap:butt;stroke-linejoin:miter;stroke-opacity:1" d="M 767.723,462.234 776.115,477.34 z" id="boundary" inkscape:connector-curvature="0" />
	<path style="fill:none;stroke:red;stroke-width:1px;stroke-linecap:butt;stroke-linejoin:miter;stroke-opacity:1" d="M 769.401,593.157 782.829,581.408 z" id="boundary" inkscape:connector-curvature="0" />
	<path style="fill:none;stroke:red;stroke-width:1px;stroke-linecap:butt;stroke-linejoin:miter;stroke-opacity:1" d="M 776.115,477.34 777.794,494.125 z" id="boundary" inkscape:connector-curvature="0" />
	<path style="fill:none;stroke:red;stroke-width:1px;stroke-linecap:butt;stroke-linejoin:miter;stroke-opacity:1" d="M 777.794,494.125 786.186,509.232 z" id="boundary" inkscape:connector-curvature="0" />
	<path style="fill:none;stroke:red;stroke-width:1px;stroke-linecap:butt;stroke-linejoin:miter;stroke-opacity:1" d="M 782.829,581.408 791.222,564.623 z" id="boundary" inkscape:connector-curvature="0" />
	<path style="fill:none;stroke:red;stroke-width:1px;stroke-linecap:butt;stroke-linejoin:miter;stroke-opacity:1" d="M 786.186,509.232 789.543,526.017 z" id="boundary" inkscape:connector-curvature="0" />
	<path style="fill:none;stroke:red;stroke-width:1px;stroke-linecap:butt;stroke-linejoin:miter;stroke-opacity:1" d="M 789.543,526.017 794.579,542.802 z" id="boundary" inkscape:connector-curvature="0" />
	<path style="fill:none;stroke:red;stroke-width:1px;stroke-linecap:butt;stroke-linejoin:miter;stroke-opacity:1" d="M 791.222,564.623 794.579,542.802 z" id="boundary" inkscape:connector-curvature="0" />
	<circle cx="4" cy="672.047" r="4" fill="#0" id="circle0"/>
	<circle cx="12.3926" cy="655.262" r="4" fill="#0" id="circle1"/>
	<circle cx="12.3926" cy="687.154" r="4" fill="#0" id="circle2"/>
	<circle cx="12.3926" cy="814.721" r="4" fill="#0" id="circle3"/>
	<circle cx="20.7851" cy="638.477" r="4" fill="#0" id="circle4"/>
	<circle cx="20.7851" cy="722.403" r="4" fill="#0" id="circle5"/>
	<circle cx="20.7851" cy="739.188" r="4" fill="#0" id="circle6"/>
	<circle cx="20.7851" cy="755.973" r="4" fill="#0" id="circle7"/>
	<circle cx="20.7851" cy="772.758" r="4" fill="#0" id="circle8"/>
	<circle cx="20.7851" cy="789.543" r="4" fill="#0" id="circle9"/>
	<circle cx="20.7851" cy="829.827" r="4" fill="#0" id="circle10"/>
	<circle cx="20.7851" cy="846.613" r="4" fill="#0" id="circle11"/>
	<circle cx="20.7851" cy="863.398" r="4" fill="#0" id="circle12"/>
	<circle cx="29.1777" cy="621.692" r="4" fill="#0" id="circle13"/>
	<circle cx="29.1777" cy="680.44" r="4" fill="#0" id="circle14"/>
	<circle cx="29.1777" cy="705.618" r="4" fill="#0" id="circle15"/>
	<circle cx="32.5347" cy="876.826" r="4" fill="#0" id="circle16"/>
	<circle cx="42.6058" cy="608.264" r="4" fill="#0" id="circle17"/>
	<circle cx="45.9628" cy="677.083" r="4" fill="#0" id="circle18"/>
	<circle cx="45.9628" cy="886.897" r="4" fill="#0" id="circle19"/>
	<circle cx="56.0338" cy="735.831" r="4" fill="#0" id="circle20"/>
	<circle cx="56.0338" cy="752.616" r="4" fill="#0" id="circle21"/>
	<circle cx="59.3909" cy="599.871" r="4" fill="#0" id="circle22"/>
	<circle cx="59.3909" cy="769.401" r="4" fill="#0" id="circle23"/>
	<circle cx="61.0694" cy="895.289" r="4" fill="#0" id="circle24"/>
	<circle cx="64.4264" cy="719.046" r="4" fill="#0" id="circle25"/>
	<circle cx="64.4264" cy="786.186" r="4" fill="#0" id="circle26"/>
	<circle cx="72.819" cy="801.293" r="4" fill="#0" id="circle27"/>
	<circle cx="76.176" cy="591.479" r="4" fill="#0" id="circle28"/>
	<circle cx="76.176" cy="903.682" r="4" fill="#0" id="circle29"/>
	<circle cx="77.8545" cy="707.296" r="4" fill="#0" id="circle30"/>
	<circle cx="79.533" cy="920.467" r="4" fill="#0" id="circle31"/>
	<circle cx="79.533" cy="937.252" r="4" fill="#0" id="circle32"/>
	<circle cx="79.533" cy="954.037" r="4" fill="#0" id="circle33"/>
	<circle cx="81.2115" cy="816.399" r="4" fill="#0" id="circle34"/>
	<circle cx="84.5685" cy="970.822" r="4" fill="#0" id="circle35"/>
	<circle cx="89.6041" cy="685.475" r="4" fill="#0" id="circle36"/>
	<circle cx="89.6041" cy="831.506" r="4" fill="#0" id="circle37"/>
	<circle cx="92.9611" cy="583.086" r="4" fill="#0" id="circle38"/>
	<circle cx="97.9966" cy="846.613" r="4" fill="#0" id="circle39"/>
	<circle cx="99.6751" cy="979.215" r="4" fill="#0" id="circle40"/>
	<circle cx="104.711" cy="677.083" r="4" fill="#0" id="circle41"/>
	<circle cx="106.389" cy="861.719" r="4" fill="#0" id="circle42"/>
	<circle cx="108.068" cy="574.694" r="4" fill="#0" id="circle43"/>
	<circle cx="113.103" cy="546.159" r="4" fill="#0" id="circle44"/>
	<circle cx="114.782" cy="876.826" r="4" fill="#0" id="circle45"/>
	<circle cx="114.782" cy="987.607" r="4" fill="#0" id="circle46"/>
	<circle cx="118.139" cy="667.012" r="4" fill="#0" id="circle47"/>
	<circle cx="121.496" cy="76.176" r="4" fill="#0" id="circle48"/>
	<circle cx="121.496" cy="92.9611" r="4" fill="#0" id="circle49"/>
	<circle cx="121.496" cy="109.746" r="4" fill="#0" id="circle50"/>
	<circle cx="121.496" cy="126.531" r="4" fill="#0" id="circle51"/>
	<circle cx="121.496" cy="143.316" r="4" fill="#0" id="circle52"/>
	<circle cx="121.496" cy="160.102" r="4" fill="#0" id="circle53"/>
	<circle cx="121.496" cy="176.887" r="4" fill="#0" id="circle54"/>
	<circle cx="121.496" cy="193.672" r="4" fill="#0" id="circle55"/>
	<circle cx="121.496" cy="210.457" r="4" fill="#0" id="circle56"/>
	<circle cx="121.496" cy="227.242" r="4" fill="#0" id="circle57"/>
	<circle cx="121.496" cy="244.027" r="4" fill="#0" id="circle58"/>
	<circle cx="121.496" cy="260.812" r="4" fill="#0" id="circle59"/>
	<circle cx="121.496" cy="277.597" r="4" fill="#0" id="circle60"/>
	<circle cx="121.496" cy="294.382" r="4" fill="#0" id="circle61"/>
	<circle cx="121.496" cy="311.168" r="4" fill="#0" id="circle62"/>
	<circle cx="121.496" cy="561.266" r="4" fill="#0" id="circle63"/>
	<circle cx="123.174" cy="891.932" r="4" fill="#0" id="circle64"/>
	<circle cx="126.531" cy="532.731" r="4" fill="#0" id="circle65"/>
	<circle cx="129.888" cy="34.2132" r="4" fill="#0" id="circle66"/>
	<circle cx="129.888" cy="50.9983" r="4" fill="#0" id="circle67"/>
	<circle cx="129.888" cy="326.274" r="4" fill="#0" id="circle68"/>
	<circle cx="129.888" cy="343.059" r="4" fill="#0" id="circle69"/>
	<circle cx="129.888" cy="420.271" r="4" fill="#0" id="circle70"/>
	<circle cx="129.888" cy="437.056" r="4" fill="#0" id="circle71"/>
	<circle cx="129.888" cy="996" r="4" fill="#0" id="circle72"/>
	<circle cx="131.567" cy="651.905" r="4" fill="#0" id="circle73"/>
	<circle cx="131.567" cy="907.039" r="4" fill="#0" id="circle74"/>
	<circle cx="131.567" cy="923.824" r="4" fill="#0" id="circle75"/>
	<circle cx="131.567" cy="940.609" r="4" fill="#0" id="circle76"/>
	<circle cx="134.924" cy="515.946" r="4" fill="#0" id="circle77"/>
	<circle cx="138.281" cy="358.166" r="4" fill="#0" id="circle78"/>
	<circle cx="138.281" cy="374.951" r="4" fill="#0" id="circle79"/>
	<circle cx="139.959" cy="955.716" r="4" fill="#0" id="circle80"/>
	<circle cx="139.959" cy="972.501" r="4" fill="#0" id="circle81"/>
	<circle cx="143.316" cy="20.7851" r="4" fill="#0" id="circle82"/>
	<circle cx="143.316" cy="406.843" r="4" fill="#0" id="circle83"/>
	<circle cx="146.673" cy="390.058" r="4" fill="#0" id="circle84"/>
	<circle cx="146.673" cy="437.056" r="4" fill="#0" id="circle85"/>
	<circle cx="146.673" cy="806.328" r="4" fill="#0" id="circle86"/>
	<circle cx="148.352" cy="502.518" r="4" fill="#0" id="circle87"/>
	<circle cx="148.352" cy="643.513" r="4" fill="#0" id="circle88"/>
	<circle cx="155.066" cy="821.435" r="4" fill="#0" id="circle89"/>
	<circle cx="158.423" cy="12.3926" r="4" fill="#0" id="circle90"/>
	<circle cx="160.102" cy="792.9" r="4" fill="#0" id="circle91"/>
	<circle cx="161.78" cy="490.768" r="4" fill="#0" id="circle92"/>
	<circle cx="163.459" cy="433.699" r="4" fill="#0" id="circle93"/>
	<circle cx="165.137" cy="643.513" r="4" fill="#0" id="circle94"/>
	<circle cx="171.851" cy="823.113" r="4" fill="#0" id="circle95"/>
	<circle cx="173.53" cy="4" r="4" fill="#0" id="circle96"/>
	<circle cx="173.53" cy="447.127" r="4" fill="#0" id="circle97"/>
	<circle cx="173.53" cy="477.34" r="4" fill="#0" id="circle98"/>
	<circle cx="173.53" cy="779.472" r="4" fill="#0" id="circle99"/>
	<circle cx="178.565" cy="631.763" r="4" fill="#0" id="circle100"/>
	<circle cx="181.922" cy="762.687" r="4" fill="#0" id="circle101"/>
	<circle cx="188.636" cy="819.756" r="4" fill="#0" id="circle102"/>
	<circle cx="190.315" cy="9.03553" r="4" fill="#0" id="circle103"/>
	<circle cx="190.315" cy="745.902" r="4" fill="#0" id="circle104"/>
	<circle cx="195.35" cy="623.371" r="4" fill="#0" id="circle105"/>
	<circle cx="202.064" cy="809.685" r="4" fill="#0" id="circle106"/>
	<circle cx="203.743" cy="734.152" r="4" fill="#0" id="circle107"/>
	<circle cx="207.1" cy="12.3926" r="4" fill="#0" id="circle108"/>
	<circle cx="210.457" cy="717.367" r="4" fill="#0" id="circle109"/>
	<circle cx="212.135" cy="614.978" r="4" fill="#0" id="circle110"/>
	<circle cx="215.492" cy="794.579" r="4" fill="#0" id="circle111"/>
	<circle cx="218.849" cy="700.582" r="4" fill="#0" id="circle112"/>
	<circle cx="223.885" cy="12.3926" r="4" fill="#0" id="circle113"/>
	<circle cx="227.242" cy="683.797" r="4" fill="#0" id="circle114"/>
	<circle cx="228.92" cy="606.585" r="4" fill="#0" id="circle115"/>
	<circle cx="228.92" cy="782.829" r="4" fill="#0" id="circle116"/>
	<circle cx="235.635" cy="667.012" r="4" fill="#0" id="circle117"/>
	<circle cx="238.992" cy="20.7851" r="4" fill="#0" id="circle118"/>
	<circle cx="238.992" cy="638.477" r="4" fill="#0" id="circle119"/>
	<circle cx="240.67" cy="593.157" r="4" fill="#0" id="circle120"/>
	<circle cx="240.67" cy="752.616" r="4" fill="#0" id="circle121"/>
	<circle cx="240.67" cy="769.401" r="4" fill="#0" id="circle122"/>
	<circle cx="247.384" cy="621.692" r="4" fill="#0" id="circle123"/>
	<circle cx="249.063" cy="727.438" r="4" fill="#0" id="circle124"/>
	<circle cx="255.777" cy="20.7851" r="4" fill="#0" id="circle125"/>
	<circle cx="255.777" cy="604.907" r="4" fill="#0" id="circle126"/>
	<circle cx="257.455" cy="584.765" r="4" fill="#0" id="circle127"/>
	<circle cx="257.455" cy="710.653" r="4" fill="#0" id="circle128"/>
	<circle cx="265.848" cy="693.868" r="4" fill="#0" id="circle129"/>
	<circle cx="272.562" cy="20.7851" r="4" fill="#0" id="circle130"/>
	<circle cx="282.633" cy="693.868" r="4" fill="#0" id="circle131"/>
	<circle cx="287.668" cy="29.1777" r="4" fill="#0" id="circle132"/>
	<circle cx="299.418" cy="697.225" r="4" fill="#0" id="circle133"/>
	<circle cx="302.775" cy="37.5702" r="4" fill="#0" id="circle134"/>
	<circle cx="311.168" cy="710.653" r="4" fill="#0" id="circle135"/>
	<circle cx="316.203" cy="693.868" r="4" fill="#0" id="circle136"/>
	<circle cx="319.56" cy="37.5702" r="4" fill="#0" id="circle137"/>
	<circle cx="324.596" cy="677.083" r="4" fill="#0" id="circle138"/>
	<circle cx="336.345" cy="37.5702" r="4" fill="#0" id="circle139"/>
	<circle cx="338.024" cy="665.333" r="4" fill="#0" id="circle140"/>
	<circle cx="341.381" cy="643.513" r="4" fill="#0" id="circle141"/>
	<circle cx="349.773" cy="626.728" r="4" fill="#0" id="circle142"/>
	<circle cx="351.452" cy="45.9628" r="4" fill="#0" id="circle143"/>
	<circle cx="358.166" cy="609.942" r="4" fill="#0" id="circle144"/>
	<circle cx="368.237" cy="45.9628" r="4" fill="#0" id="circle145"/>
	<circle cx="374.951" cy="613.299" r="4" fill="#0" id="circle146"/>
	<circle cx="385.022" cy="45.9628" r="4" fill="#0" id="circle147"/>
	<circle cx="390.058" cy="621.692" r="4" fill="#0" id="circle148"/>
	<circle cx="398.45" cy="636.799" r="4" fill="#0" id="circle149"/>
	<circle cx="400.129" cy="54.3553" r="4" fill="#0" id="circle150"/>
	<circle cx="410.2" cy="650.227" r="4" fill="#0" id="circle151"/>
	<circle cx="416.914" cy="54.3553" r="4" fill="#0" id="circle152"/>
	<circle cx="423.628" cy="660.298" r="4" fill="#0" id="circle153"/>
	<circle cx="433.699" cy="54.3553" r="4" fill="#0" id="circle154"/>
	<circle cx="433.699" cy="643.513" r="4" fill="#0" id="circle155"/>
	<circle cx="442.091" cy="626.728" r="4" fill="#0" id="circle156"/>
	<circle cx="450.484" cy="54.3553" r="4" fill="#0" id="circle157"/>
	<circle cx="458.876" cy="630.085" r="4" fill="#0" id="circle158"/>
	<circle cx="467.269" cy="59.3909" r="4" fill="#0" id="circle159"/>
	<circle cx="473.983" cy="638.477" r="4" fill="#0" id="circle160"/>
	<circle cx="484.054" cy="62.7479" r="4" fill="#0" id="circle161"/>
	<circle cx="490.768" cy="643.513" r="4" fill="#0" id="circle162"/>
	<circle cx="500.839" cy="62.7479" r="4" fill="#0" id="circle163"/>
	<circle cx="507.553" cy="643.513" r="4" fill="#0" id="circle164"/>
	<circle cx="515.946" cy="54.3553" r="4" fill="#0" id="circle165"/>
	<circle cx="524.338" cy="638.477" r="4" fill="#0" id="circle166"/>
	<circle cx="532.731" cy="50.9983" r="4" fill="#0" id="circle167"/>
	<circle cx="541.124" cy="635.12" r="4" fill="#0" id="circle168"/>
	<circle cx="549.516" cy="45.9628" r="4" fill="#0" id="circle169"/>
	<circle cx="557.909" cy="635.12" r="4" fill="#0" id="circle170"/>
	<circle cx="564.623" cy="54.3553" r="4" fill="#0" id="circle171"/>
	<circle cx="574.694" cy="630.085" r="4" fill="#0" id="circle172"/>
	<circle cx="581.408" cy="54.3553" r="4" fill="#0" id="circle173"/>
	<circle cx="591.479" cy="626.728" r="4" fill="#0" id="circle174"/>
	<circle cx="598.193" cy="54.3553" r="4" fill="#0" id="circle175"/>
	<circle cx="608.264" cy="626.728" r="4" fill="#0" id="circle176"/>
	<circle cx="614.978" cy="54.3553" r="4" fill="#0" id="circle177"/>
	<circle cx="623.371" cy="618.335" r="4" fill="#0" id="circle178"/>
	<circle cx="630.085" cy="45.9628" r="4" fill="#0" id="circle179"/>
	<circle cx="640.156" cy="618.335" r="4" fill="#0" id="circle180"/>
	<circle cx="646.87" cy="45.9628" r="4" fill="#0" id="circle181"/>
	<circle cx="656.941" cy="618.335" r="4" fill="#0" id="circle182"/>
	<circle cx="661.976" cy="37.5702" r="4" fill="#0" id="circle183"/>
	<circle cx="673.726" cy="618.335" r="4" fill="#0" id="circle184"/>
	<circle cx="677.083" cy="29.1777" r="4" fill="#0" id="circle185"/>
	<circle cx="677.083" cy="89.6041" r="4" fill="#0" id="circle186"/>
	<circle cx="677.083" cy="106.389" r="4" fill="#0" id="circle187"/>
	<circle cx="680.44" cy="123.174" r="4" fill="#0" id="circle188"/>
	<circle cx="685.475" cy="44.2843" r="4" fill="#0" id="circle189"/>
	<circle cx="685.475" cy="61.0694" r="4" fill="#0" id="circle190"/>
	<circle cx="688.832" cy="138.281" r="4" fill="#0" id="circle191"/>
	<circle cx="688.832" cy="609.942" r="4" fill="#0" id="circle192"/>
	<circle cx="693.868" cy="155.066" r="4" fill="#0" id="circle193"/>
	<circle cx="693.868" cy="171.851" r="4" fill="#0" id="circle194"/>
	<circle cx="693.868" cy="188.636" r="4" fill="#0" id="circle195"/>
	<circle cx="693.868" cy="205.421" r="4" fill="#0" id="circle196"/>
	<circle cx="693.868" cy="222.206" r="4" fill="#0" id="circle197"/>
	<circle cx="693.868" cy="238.992" r="4" fill="#0" id="circle198"/>
	<circle cx="693.868" cy="255.777" r="4" fill="#0" id="circle199"/>
	<circle cx="702.261" cy="270.883" r="4" fill="#0" id="circle200"/>
	<circle cx="702.261" cy="287.668" r="4" fill="#0" id="circle201"/>
	<circle cx="702.261" cy="304.453" r="4" fill="#0" id="circle202"/>
	<circle cx="705.618" cy="609.942" r="4" fill="#0" id="circle203"/>
	<circle cx="710.653" cy="319.56" r="4" fill="#0" id="circle204"/>
	<circle cx="719.046" cy="334.667" r="4" fill="#0" id="circle205"/>
	<circle cx="722.403" cy="609.942" r="4" fill="#0" id="circle206"/>
	<circle cx="724.081" cy="351.452" r="4" fill="#0" id="circle207"/>
	<circle cx="732.474" cy="366.558" r="4" fill="#0" id="circle208"/>
	<circle cx="735.831" cy="383.343" r="4" fill="#0" id="circle209"/>
	<circle cx="737.509" cy="601.55" r="4" fill="#0" id="circle210"/>
	<circle cx="744.223" cy="398.45" r="4" fill="#0" id="circle211"/>
	<circle cx="744.223" cy="415.235" r="4" fill="#0" id="circle212"/>
	<circle cx="752.616" cy="430.342" r="4" fill="#0" id="circle213"/>
	<circle cx="754.294" cy="601.55" r="4" fill="#0" id="circle214"/>
	<circle cx="761.008" cy="445.448" r="4" fill="#0" id="circle215"/>
	<circle cx="767.723" cy="462.234" r="4" fill="#0" id="circle216"/>
	<circle cx="769.401" cy="593.157" r="4" fill="#0" id="circle217"/>
	<circle cx="776.115" cy="477.34" r="4" fill="#0" id="circle218"/>
	<circle cx="777.794" cy="494.125" r="4" fill="#0" id="circle219"/>
	<circle cx="782.829" cy="581.408" r="4" fill="#0" id="circle220"/>
	<circle cx="786.186" cy="509.232" r="4" fill="#0" id="circle221"/>
	<circle cx="789.543" cy="526.017" r="4" fill="#0" id="circle222"/>
	<circle cx="791.222" cy="564.623" r="4" fill="#0" id="circle223"/>
	<circle cx="794.579" cy="542.802" r="4" fill="#0" id="circle224"/>
	</g>
</svg>