<?xml version="1.0" encoding="UTF-8" standalone="no"?>
<!-- Created with CurveBenchmark -->
<svg
	xmlns:dc="http://purl.org/dc/elements/1.1/"
	xmlns:cc="http://creativecommons.org/ns#"
	xmlns:rdf="http://www.w3.org/1999/02/22-rdf-syntax-ns#"
	xmlns:svg="http://www.w3.org/2000/svg"
	xmlns="http://www.w3.org/2000/svg"
	xmlns:sodipodi="http://sodipodi.sourceforge.net/DTD/sodipodi-0.dtd"
	xmlns:inkscape="http://www.inkscape.org/namespaces/inkscape"
	width="1000"
	height="1000"
	id="svg2"
	version="1.1"
	sodipodi:docname="manifold/hnncrust-kitchenknifebinary25.png.txt">
<defs
	id="defs4" />
<metadata
	id="metadata7">
	<rdf:RDF>
		<cc:Work
			rdf:about="">
			<dc:format>image/svg+xml</dc:format>
			<dc:type
				rdf:resource="http://purl.org/dc/dcmitype/StillImage" />
			<dc:title></dc:title>
		</cc:Work>
	</rdf:RDF>
</metadata>
<g
	inkscape:label="Layer 1"
	inkscape:groupmode="layer"
	id="layer1">
	<path style="fill:none;stroke:red;stroke-width:1px;stroke-linecap:butt;stroke-linejoin:miter;stroke-opacity:1" d="M 4,157.633 4,167.807 z" id="boundary" inkscape:connector-curvature="0" />
	<path style="fill:none;stroke:red;stroke-width:1px;stroke-linecap:butt;stroke-linejoin:miter;stroke-opacity:1" d="M 4,157.633 10.1046,149.493 z" id="boundary" inkscape:connector-curvature="0" />
	<path style="fill:none;stroke:red;stroke-width:1px;stroke-linecap:butt;stroke-linejoin:miter;stroke-opacity:1" d="M 4,167.807 8.06974,177.982 z" id="boundary" inkscape:connector-curvature="0" />
	<path style="fill:none;stroke:red;stroke-width:1px;stroke-linecap:butt;stroke-linejoin:miter;stroke-opacity:1" d="M 8.06974,177.982 9.08718,188.156 z" id="boundary" inkscape:connector-curvature="0" />
	<path style="fill:none;stroke:red;stroke-width:1px;stroke-linecap:butt;stroke-linejoin:miter;stroke-opacity:1" d="M 9.08718,188.156 9.08718,198.33 z" id="boundary" inkscape:connector-curvature="0" />
	<path style="fill:none;stroke:red;stroke-width:1px;stroke-linecap:butt;stroke-linejoin:miter;stroke-opacity:1" d="M 9.08718,198.33 11.1221,208.505 z" id="boundary" inkscape:connector-curvature="0" />
	<path style="fill:none;stroke:red;stroke-width:1px;stroke-linecap:butt;stroke-linejoin:miter;stroke-opacity:1" d="M 10.1046,149.493 19.2615,144.406 z" id="boundary" inkscape:connector-curvature="0" />
	<path style="fill:none;stroke:red;stroke-width:1px;stroke-linecap:butt;stroke-linejoin:miter;stroke-opacity:1" d="M 11.1221,208.505 14.1744,218.679 z" id="boundary" inkscape:connector-curvature="0" />
	<path style="fill:none;stroke:red;stroke-width:1px;stroke-linecap:butt;stroke-linejoin:miter;stroke-opacity:1" d="M 14.1744,218.679 16.2092,228.853 z" id="boundary" inkscape:connector-curvature="0" />
	<path style="fill:none;stroke:red;stroke-width:1px;stroke-linecap:butt;stroke-linejoin:miter;stroke-opacity:1" d="M 16.2092,228.853 18.2441,239.028 z" id="boundary" inkscape:connector-curvature="0" />
	<path style="fill:none;stroke:red;stroke-width:1px;stroke-linecap:butt;stroke-linejoin:miter;stroke-opacity:1" d="M 18.2441,239.028 21.2964,249.202 z" id="boundary" inkscape:connector-curvature="0" />
	<path style="fill:none;stroke:red;stroke-width:1px;stroke-linecap:butt;stroke-linejoin:miter;stroke-opacity:1" d="M 19.2615,144.406 29.4359,141.354 z" id="boundary" inkscape:connector-curvature="0" />
	<path style="fill:none;stroke:red;stroke-width:1px;stroke-linecap:butt;stroke-linejoin:miter;stroke-opacity:1" d="M 21.2964,249.202 31.4708,249.202 z" id="boundary" inkscape:connector-curvature="0" />
	<path style="fill:none;stroke:red;stroke-width:1px;stroke-linecap:butt;stroke-linejoin:miter;stroke-opacity:1" d="M 29.4359,141.354 39.6103,137.284 z" id="boundary" inkscape:connector-curvature="0" />
	<path style="fill:none;stroke:red;stroke-width:1px;stroke-linecap:butt;stroke-linejoin:miter;stroke-opacity:1" d="M 31.4708,249.202 41.6451,249.202 z" id="boundary" inkscape:connector-curvature="0" />
	<path style="fill:none;stroke:red;stroke-width:1px;stroke-linecap:butt;stroke-linejoin:miter;stroke-opacity:1" d="M 39.6103,137.284 49.7846,133.214 z" id="boundary" inkscape:connector-curvature="0" />
	<path style="fill:none;stroke:red;stroke-width:1px;stroke-linecap:butt;stroke-linejoin:miter;stroke-opacity:1" d="M 41.6451,249.202 51.8195,249.202 z" id="boundary" inkscape:connector-curvature="0" />
	<path style="fill:none;stroke:red;stroke-width:1px;stroke-linecap:butt;stroke-linejoin:miter;stroke-opacity:1" d="M 49.7846,133.214 59.959,132.197 z" id="boundary" inkscape:connector-curvature="0" />
	<path style="fill:none;stroke:red;stroke-width:1px;stroke-linecap:butt;stroke-linejoin:miter;stroke-opacity:1" d="M 51.8195,249.202 61.9938,248.185 z" id="boundary" inkscape:connector-curvature="0" />
	<path style="fill:none;stroke:red;stroke-width:1px;stroke-linecap:butt;stroke-linejoin:miter;stroke-opacity:1" d="M 59.959,132.197 69.1159,137.284 z" id="boundary" inkscape:connector-curvature="0" />
	<path style="fill:none;stroke:red;stroke-width:1px;stroke-linecap:butt;stroke-linejoin:miter;stroke-opacity:1" d="M 61.9938,248.185 72.1682,248.185 z" id="boundary" inkscape:connector-curvature="0" />
	<path style="fill:none;stroke:red;stroke-width:1px;stroke-linecap:butt;stroke-linejoin:miter;stroke-opacity:1" d="M 69.1159,137.284 77.2554,144.406 z" id="boundary" inkscape:connector-curvature="0" />
	<path style="fill:none;stroke:red;stroke-width:1px;stroke-linecap:butt;stroke-linejoin:miter;stroke-opacity:1" d="M 72.1682,248.185 82.3426,247.167 z" id="boundary" inkscape:connector-curvature="0" />
	<path style="fill:none;stroke:red;stroke-width:1px;stroke-linecap:butt;stroke-linejoin:miter;stroke-opacity:1" d="M 77.2554,144.406 87.4297,146.441 z" id="boundary" inkscape:connector-curvature="0" />
	<path style="fill:none;stroke:red;stroke-width:1px;stroke-linecap:butt;stroke-linejoin:miter;stroke-opacity:1" d="M 82.3426,247.167 92.5169,245.132 z" id="boundary" inkscape:connector-curvature="0" />
	<path style="fill:none;stroke:red;stroke-width:1px;stroke-linecap:butt;stroke-linejoin:miter;stroke-opacity:1" d="M 87.4297,146.441 97.6041,146.441 z" id="boundary" inkscape:connector-curvature="0" />
	<path style="fill:none;stroke:red;stroke-width:1px;stroke-linecap:butt;stroke-linejoin:miter;stroke-opacity:1" d="M 92.5169,245.132 102.691,244.115 z" id="boundary" inkscape:connector-curvature="0" />
	<path style="fill:none;stroke:red;stroke-width:1px;stroke-linecap:butt;stroke-linejoin:miter;stroke-opacity:1" d="M 97.6041,146.441 107.778,143.389 z" id="boundary" inkscape:connector-curvature="0" />
	<path style="fill:none;stroke:red;stroke-width:1px;stroke-linecap:butt;stroke-linejoin:miter;stroke-opacity:1" d="M 102.691,244.115 112.866,244.115 z" id="boundary" inkscape:connector-curvature="0" />
	<path style="fill:none;stroke:red;stroke-width:1px;stroke-linecap:butt;stroke-linejoin:miter;stroke-opacity:1" d="M 107.778,143.389 117.953,140.336 z" id="boundary" inkscape:connector-curvature="0" />
	<path style="fill:none;stroke:red;stroke-width:1px;stroke-linecap:butt;stroke-linejoin:miter;stroke-opacity:1" d="M 112.866,244.115 123.04,242.08 z" id="boundary" inkscape:connector-curvature="0" />
	<path style="fill:none;stroke:red;stroke-width:1px;stroke-linecap:butt;stroke-linejoin:miter;stroke-opacity:1" d="M 117.953,140.336 128.127,138.302 z" id="boundary" inkscape:connector-curvature="0" />
	<path style="fill:none;stroke:red;stroke-width:1px;stroke-linecap:butt;stroke-linejoin:miter;stroke-opacity:1" d="M 123.04,242.08 133.214,240.045 z" id="boundary" inkscape:connector-curvature="0" />
	<path style="fill:none;stroke:red;stroke-width:1px;stroke-linecap:butt;stroke-linejoin:miter;stroke-opacity:1" d="M 128.127,138.302 138.302,134.232 z" id="boundary" inkscape:connector-curvature="0" />
	<path style="fill:none;stroke:red;stroke-width:1px;stroke-linecap:butt;stroke-linejoin:miter;stroke-opacity:1" d="M 133.214,240.045 143.389,239.028 z" id="boundary" inkscape:connector-curvature="0" />
	<path style="fill:none;stroke:red;stroke-width:1px;stroke-linecap:butt;stroke-linejoin:miter;stroke-opacity:1" d="M 138.302,134.232 148.476,132.197 z" id="boundary" inkscape:connector-curvature="0" />
	<path style="fill:none;stroke:red;stroke-width:1px;stroke-linecap:butt;stroke-linejoin:miter;stroke-opacity:1" d="M 143.389,239.028 153.563,239.028 z" id="boundary" inkscape:connector-curvature="0" />
	<path style="fill:none;stroke:red;stroke-width:1px;stroke-linecap:butt;stroke-linejoin:miter;stroke-opacity:1" d="M 148.476,132.197 158.65,127.11 z" id="boundary" inkscape:connector-curvature="0" />
	<path style="fill:none;stroke:red;stroke-width:1px;stroke-linecap:butt;stroke-linejoin:miter;stroke-opacity:1" d="M 153.563,239.028 162.72,233.941 z" id="boundary" inkscape:connector-curvature="0" />
	<path style="fill:none;stroke:red;stroke-width:1px;stroke-linecap:butt;stroke-linejoin:miter;stroke-opacity:1" d="M 158.65,127.11 168.825,123.04 z" id="boundary" inkscape:connector-curvature="0" />
	<path style="fill:none;stroke:red;stroke-width:1px;stroke-linecap:butt;stroke-linejoin:miter;stroke-opacity:1" d="M 162.72,233.941 172.894,234.958 z" id="boundary" inkscape:connector-curvature="0" />
	<path style="fill:none;stroke:red;stroke-width:1px;stroke-linecap:butt;stroke-linejoin:miter;stroke-opacity:1" d="M 168.825,123.04 178.999,119.988 z" id="boundary" inkscape:connector-curvature="0" />
	<path style="fill:none;stroke:red;stroke-width:1px;stroke-linecap:butt;stroke-linejoin:miter;stroke-opacity:1" d="M 172.894,234.958 183.069,231.906 z" id="boundary" inkscape:connector-curvature="0" />
	<path style="fill:none;stroke:red;stroke-width:1px;stroke-linecap:butt;stroke-linejoin:miter;stroke-opacity:1" d="M 178.999,119.988 189.173,117.953 z" id="boundary" inkscape:connector-curvature="0" />
	<path style="fill:none;stroke:red;stroke-width:1px;stroke-linecap:butt;stroke-linejoin:miter;stroke-opacity:1" d="M 183.069,231.906 193.243,230.888 z" id="boundary" inkscape:connector-curvature="0" />
	<path style="fill:none;stroke:red;stroke-width:1px;stroke-linecap:butt;stroke-linejoin:miter;stroke-opacity:1" d="M 189.173,117.953 199.348,114.901 z" id="boundary" inkscape:connector-curvature="0" />
	<path style="fill:none;stroke:red;stroke-width:1px;stroke-linecap:butt;stroke-linejoin:miter;stroke-opacity:1" d="M 193.243,230.888 202.4,225.801 z" id="boundary" inkscape:connector-curvature="0" />
	<path style="fill:none;stroke:red;stroke-width:1px;stroke-linecap:butt;stroke-linejoin:miter;stroke-opacity:1" d="M 199.348,114.901 209.522,110.831 z" id="boundary" inkscape:connector-curvature="0" />
	<path style="fill:none;stroke:red;stroke-width:1px;stroke-linecap:butt;stroke-linejoin:miter;stroke-opacity:1" d="M 202.4,225.801 212.574,221.731 z" id="boundary" inkscape:connector-curvature="0" />
	<path style="fill:none;stroke:red;stroke-width:1px;stroke-linecap:butt;stroke-linejoin:miter;stroke-opacity:1" d="M 209.522,110.831 219.696,110.831 z" id="boundary" inkscape:connector-curvature="0" />
	<path style="fill:none;stroke:red;stroke-width:1px;stroke-linecap:butt;stroke-linejoin:miter;stroke-opacity:1" d="M 212.574,221.731 222.749,218.679 z" id="boundary" inkscape:connector-curvature="0" />
	<path style="fill:none;stroke:red;stroke-width:1px;stroke-linecap:butt;stroke-linejoin:miter;stroke-opacity:1" d="M 219.696,110.831 229.871,106.761 z" id="boundary" inkscape:connector-curvature="0" />
	<path style="fill:none;stroke:red;stroke-width:1px;stroke-linecap:butt;stroke-linejoin:miter;stroke-opacity:1" d="M 222.749,218.679 232.923,214.609 z" id="boundary" inkscape:connector-curvature="0" />
	<path style="fill:none;stroke:red;stroke-width:1px;stroke-linecap:butt;stroke-linejoin:miter;stroke-opacity:1" d="M 229.871,106.761 240.045,106.761 z" id="boundary" inkscape:connector-curvature="0" />
	<path style="fill:none;stroke:red;stroke-width:1px;stroke-linecap:butt;stroke-linejoin:miter;stroke-opacity:1" d="M 232.923,214.609 243.097,211.557 z" id="boundary" inkscape:connector-curvature="0" />
	<path style="fill:none;stroke:red;stroke-width:1px;stroke-linecap:butt;stroke-linejoin:miter;stroke-opacity:1" d="M 240.045,106.761 248.185,100.656 z" id="boundary" inkscape:connector-curvature="0" />
	<path style="fill:none;stroke:red;stroke-width:1px;stroke-linecap:butt;stroke-linejoin:miter;stroke-opacity:1" d="M 243.097,211.557 253.272,210.539 z" id="boundary" inkscape:connector-curvature="0" />
	<path style="fill:none;stroke:red;stroke-width:1px;stroke-linecap:butt;stroke-linejoin:miter;stroke-opacity:1" d="M 248.185,100.656 258.359,100.656 z" id="boundary" inkscape:connector-curvature="0" />
	<path style="fill:none;stroke:red;stroke-width:1px;stroke-linecap:butt;stroke-linejoin:miter;stroke-opacity:1" d="M 253.272,210.539 263.446,209.522 z" id="boundary" inkscape:connector-curvature="0" />
	<path style="fill:none;stroke:red;stroke-width:1px;stroke-linecap:butt;stroke-linejoin:miter;stroke-opacity:1" d="M 258.359,100.656 268.533,96.5867 z" id="boundary" inkscape:connector-curvature="0" />
	<path style="fill:none;stroke:red;stroke-width:1px;stroke-linecap:butt;stroke-linejoin:miter;stroke-opacity:1" d="M 263.446,209.522 273.621,206.47 z" id="boundary" inkscape:connector-curvature="0" />
	<path style="fill:none;stroke:red;stroke-width:1px;stroke-linecap:butt;stroke-linejoin:miter;stroke-opacity:1" d="M 268.533,96.5867 278.708,94.5518 z" id="boundary" inkscape:connector-curvature="0" />
	<path style="fill:none;stroke:red;stroke-width:1px;stroke-linecap:butt;stroke-linejoin:miter;stroke-opacity:1" d="M 273.621,206.47 283.795,205.452 z" id="boundary" inkscape:connector-curvature="0" />
	<path style="fill:none;stroke:red;stroke-width:1px;stroke-linecap:butt;stroke-linejoin:miter;stroke-opacity:1" d="M 278.708,94.5518 288.882,92.5169 z" id="boundary" inkscape:connector-curvature="0" />
	<path style="fill:none;stroke:red;stroke-width:1px;stroke-linecap:butt;stroke-linejoin:miter;stroke-opacity:1" d="M 283.795,205.452 292.952,200.365 z" id="boundary" inkscape:connector-curvature="0" />
	<path style="fill:none;stroke:red;stroke-width:1px;stroke-linecap:butt;stroke-linejoin:miter;stroke-opacity:1" d="M 288.882,92.5169 299.056,91.4995 z" id="boundary" inkscape:connector-curvature="0" />
	<path style="fill:none;stroke:red;stroke-width:1px;stroke-linecap:butt;stroke-linejoin:miter;stroke-opacity:1" d="M 292.952,200.365 303.126,197.313 z" id="boundary" inkscape:connector-curvature="0" />
	<path style="fill:none;stroke:red;stroke-width:1px;stroke-linecap:butt;stroke-linejoin:miter;stroke-opacity:1" d="M 299.056,91.4995 309.231,90.4821 z" id="boundary" inkscape:connector-curvature="0" />
	<path style="fill:none;stroke:red;stroke-width:1px;stroke-linecap:butt;stroke-linejoin:miter;stroke-opacity:1" d="M 303.126,197.313 313.301,196.295 z" id="boundary" inkscape:connector-curvature="0" />
	<path style="fill:none;stroke:red;stroke-width:1px;stroke-linecap:butt;stroke-linejoin:miter;stroke-opacity:1" d="M 309.231,90.4821 319.405,89.4646 z" id="boundary" inkscape:connector-curvature="0" />
	<path style="fill:none;stroke:red;stroke-width:1px;stroke-linecap:butt;stroke-linejoin:miter;stroke-opacity:1" d="M 313.301,196.295 323.475,195.278 z" id="boundary" inkscape:connector-curvature="0" />
	<path style="fill:none;stroke:red;stroke-width:1px;stroke-linecap:butt;stroke-linejoin:miter;stroke-opacity:1" d="M 319.405,89.4646 329.579,88.4472 z" id="boundary" inkscape:connector-curvature="0" />
	<path style="fill:none;stroke:red;stroke-width:1px;stroke-linecap:butt;stroke-linejoin:miter;stroke-opacity:1" d="M 323.475,195.278 333.649,193.243 z" id="boundary" inkscape:connector-curvature="0" />
	<path style="fill:none;stroke:red;stroke-width:1px;stroke-linecap:butt;stroke-linejoin:miter;stroke-opacity:1" d="M 329.579,88.4472 339.754,88.4472 z" id="boundary" inkscape:connector-curvature="0" />
	<path style="fill:none;stroke:red;stroke-width:1px;stroke-linecap:butt;stroke-linejoin:miter;stroke-opacity:1" d="M 333.649,193.243 342.806,188.156 z" id="boundary" inkscape:connector-curvature="0" />
	<path style="fill:none;stroke:red;stroke-width:1px;stroke-linecap:butt;stroke-linejoin:miter;stroke-opacity:1" d="M 339.754,88.4472 349.928,87.4297 z" id="boundary" inkscape:connector-curvature="0" />
	<path style="fill:none;stroke:red;stroke-width:1px;stroke-linecap:butt;stroke-linejoin:miter;stroke-opacity:1" d="M 342.806,188.156 352.981,184.086 z" id="boundary" inkscape:connector-curvature="0" />
	<path style="fill:none;stroke:red;stroke-width:1px;stroke-linecap:butt;stroke-linejoin:miter;stroke-opacity:1" d="M 349.928,87.4297 360.103,88.4472 z" id="boundary" inkscape:connector-curvature="0" />
	<path style="fill:none;stroke:red;stroke-width:1px;stroke-linecap:butt;stroke-linejoin:miter;stroke-opacity:1" d="M 352.981,184.086 363.155,182.051 z" id="boundary" inkscape:connector-curvature="0" />
	<path style="fill:none;stroke:red;stroke-width:1px;stroke-linecap:butt;stroke-linejoin:miter;stroke-opacity:1" d="M 360.103,88.4472 370.277,86.4123 z" id="boundary" inkscape:connector-curvature="0" />
	<path style="fill:none;stroke:red;stroke-width:1px;stroke-linecap:butt;stroke-linejoin:miter;stroke-opacity:1" d="M 363.155,182.051 373.329,181.034 z" id="boundary" inkscape:connector-curvature="0" />
	<path style="fill:none;stroke:red;stroke-width:1px;stroke-linecap:butt;stroke-linejoin:miter;stroke-opacity:1" d="M 370.277,86.4123 380.451,86.4123 z" id="boundary" inkscape:connector-curvature="0" />
	<path style="fill:none;stroke:red;stroke-width:1px;stroke-linecap:butt;stroke-linejoin:miter;stroke-opacity:1" d="M 373.329,181.034 383.504,177.982 z" id="boundary" inkscape:connector-curvature="0" />
	<path style="fill:none;stroke:red;stroke-width:1px;stroke-linecap:butt;stroke-linejoin:miter;stroke-opacity:1" d="M 380.451,86.4123 390.626,87.4297 z" id="boundary" inkscape:connector-curvature="0" />
	<path style="fill:none;stroke:red;stroke-width:1px;stroke-linecap:butt;stroke-linejoin:miter;stroke-opacity:1" d="M 383.504,177.982 393.678,177.982 z" id="boundary" inkscape:connector-curvature="0" />
	<path style="fill:none;stroke:red;stroke-width:1px;stroke-linecap:butt;stroke-linejoin:miter;stroke-opacity:1" d="M 390.626,87.4297 400.8,86.4123 z" id="boundary" inkscape:connector-curvature="0" />
	<path style="fill:none;stroke:red;stroke-width:1px;stroke-linecap:butt;stroke-linejoin:miter;stroke-opacity:1" d="M 393.678,177.982 403.852,176.964 z" id="boundary" inkscape:connector-curvature="0" />
	<path style="fill:none;stroke:red;stroke-width:1px;stroke-linecap:butt;stroke-linejoin:miter;stroke-opacity:1" d="M 400.8,86.4123 410.974,88.4472 z" id="boundary" inkscape:connector-curvature="0" />
	<path style="fill:none;stroke:red;stroke-width:1px;stroke-linecap:butt;stroke-linejoin:miter;stroke-opacity:1" d="M 403.852,176.964 414.027,173.912 z" id="boundary" inkscape:connector-curvature="0" />
	<path style="fill:none;stroke:red;stroke-width:1px;stroke-linecap:butt;stroke-linejoin:miter;stroke-opacity:1" d="M 410.974,88.4472 421.149,88.4472 z" id="boundary" inkscape:connector-curvature="0" />
	<path style="fill:none;stroke:red;stroke-width:1px;stroke-linecap:butt;stroke-linejoin:miter;stroke-opacity:1" d="M 414.027,173.912 424.201,170.859 z" id="boundary" inkscape:connector-curvature="0" />
	<path style="fill:none;stroke:red;stroke-width:1px;stroke-linecap:butt;stroke-linejoin:miter;stroke-opacity:1" d="M 421.149,88.4472 431.323,85.3949 z" id="boundary" inkscape:connector-curvature="0" />
	<path style="fill:none;stroke:red;stroke-width:1px;stroke-linecap:butt;stroke-linejoin:miter;stroke-opacity:1" d="M 424.201,170.859 434.375,168.825 z" id="boundary" inkscape:connector-curvature="0" />
	<path style="fill:none;stroke:red;stroke-width:1px;stroke-linecap:butt;stroke-linejoin:miter;stroke-opacity:1" d="M 431.323,85.3949 441.497,84.3774 z" id="boundary" inkscape:connector-curvature="0" />
	<path style="fill:none;stroke:red;stroke-width:1px;stroke-linecap:butt;stroke-linejoin:miter;stroke-opacity:1" d="M 434.375,168.825 444.55,165.772 z" id="boundary" inkscape:connector-curvature="0" />
	<path style="fill:none;stroke:red;stroke-width:1px;stroke-linecap:butt;stroke-linejoin:miter;stroke-opacity:1" d="M 441.497,84.3774 451.672,85.3949 z" id="boundary" inkscape:connector-curvature="0" />
	<path style="fill:none;stroke:red;stroke-width:1px;stroke-linecap:butt;stroke-linejoin:miter;stroke-opacity:1" d="M 444.55,165.772 454.724,162.72 z" id="boundary" inkscape:connector-curvature="0" />
	<path style="fill:none;stroke:red;stroke-width:1px;stroke-linecap:butt;stroke-linejoin:miter;stroke-opacity:1" d="M 451.672,85.3949 461.846,83.36 z" id="boundary" inkscape:connector-curvature="0" />
	<path style="fill:none;stroke:red;stroke-width:1px;stroke-linecap:butt;stroke-linejoin:miter;stroke-opacity:1" d="M 454.724,162.72 464.898,160.685 z" id="boundary" inkscape:connector-curvature="0" />
	<path style="fill:none;stroke:red;stroke-width:1px;stroke-linecap:butt;stroke-linejoin:miter;stroke-opacity:1" d="M 461.846,83.36 472.021,82.3426 z" id="boundary" inkscape:connector-curvature="0" />
	<path style="fill:none;stroke:red;stroke-width:1px;stroke-linecap:butt;stroke-linejoin:miter;stroke-opacity:1" d="M 464.898,160.685 475.073,158.65 z" id="boundary" inkscape:connector-curvature="0" />
	<path style="fill:none;stroke:red;stroke-width:1px;stroke-linecap:butt;stroke-linejoin:miter;stroke-opacity:1" d="M 472.021,82.3426 482.195,80.3077 z" id="boundary" inkscape:connector-curvature="0" />
	<path style="fill:none;stroke:red;stroke-width:1px;stroke-linecap:butt;stroke-linejoin:miter;stroke-opacity:1" d="M 475.073,158.65 485.247,156.615 z" id="boundary" inkscape:connector-curvature="0" />
	<path style="fill:none;stroke:red;stroke-width:1px;stroke-linecap:butt;stroke-linejoin:miter;stroke-opacity:1" d="M 482.195,80.3077 491.352,75.2205 z" id="boundary" inkscape:connector-curvature="0" />
	<path style="fill:none;stroke:red;stroke-width:1px;stroke-linecap:butt;stroke-linejoin:miter;stroke-opacity:1" d="M 485.247,156.615 495.422,154.581 z" id="boundary" inkscape:connector-curvature="0" />
	<path style="fill:none;stroke:red;stroke-width:1px;stroke-linecap:butt;stroke-linejoin:miter;stroke-opacity:1" d="M 491.352,75.2205 500.509,69.1159 z" id="boundary" inkscape:connector-curvature="0" />
	<path style="fill:none;stroke:red;stroke-width:1px;stroke-linecap:butt;stroke-linejoin:miter;stroke-opacity:1" d="M 495.422,154.581 505.596,152.546 z" id="boundary" inkscape:connector-curvature="0" />
	<path style="fill:none;stroke:red;stroke-width:1px;stroke-linecap:butt;stroke-linejoin:miter;stroke-opacity:1" d="M 500.509,69.1159 506.613,60.9764 z" id="boundary" inkscape:connector-curvature="0" />
	<path style="fill:none;stroke:red;stroke-width:1px;stroke-linecap:butt;stroke-linejoin:miter;stroke-opacity:1" d="M 505.596,152.546 515.77,152.546 z" id="boundary" inkscape:connector-curvature="0" />
	<path style="fill:none;stroke:red;stroke-width:1px;stroke-linecap:butt;stroke-linejoin:miter;stroke-opacity:1" d="M 506.613,60.9764 514.753,54.8718 z" id="boundary" inkscape:connector-curvature="0" />
	<path style="fill:none;stroke:red;stroke-width:1px;stroke-linecap:butt;stroke-linejoin:miter;stroke-opacity:1" d="M 514.753,44.6974 514.753,54.8718 z" id="boundary" inkscape:connector-curvature="0" />
	<path style="fill:none;stroke:red;stroke-width:1px;stroke-linecap:butt;stroke-linejoin:miter;stroke-opacity:1" d="M 514.753,44.6974 517.805,31.4708 z" id="boundary" inkscape:connector-curvature="0" />
	<path style="fill:none;stroke:red;stroke-width:1px;stroke-linecap:butt;stroke-linejoin:miter;stroke-opacity:1" d="M 515.77,152.546 525.945,150.511 z" id="boundary" inkscape:connector-curvature="0" />
	<path style="fill:none;stroke:red;stroke-width:1px;stroke-linecap:butt;stroke-linejoin:miter;stroke-opacity:1" d="M 517.805,31.4708 525.945,25.3662 z" id="boundary" inkscape:connector-curvature="0" />
	<path style="fill:none;stroke:red;stroke-width:1px;stroke-linecap:butt;stroke-linejoin:miter;stroke-opacity:1" d="M 525.945,25.3662 536.119,22.3138 z" id="boundary" inkscape:connector-curvature="0" />
	<path style="fill:none;stroke:red;stroke-width:1px;stroke-linecap:butt;stroke-linejoin:miter;stroke-opacity:1" d="M 525.945,150.511 536.119,149.493 z" id="boundary" inkscape:connector-curvature="0" />
	<path style="fill:none;stroke:red;stroke-width:1px;stroke-linecap:butt;stroke-linejoin:miter;stroke-opacity:1" d="M 536.119,22.3138 546.293,20.279 z" id="boundary" inkscape:connector-curvature="0" />
	<path style="fill:none;stroke:red;stroke-width:1px;stroke-linecap:butt;stroke-linejoin:miter;stroke-opacity:1" d="M 536.119,149.493 546.293,147.458 z" id="boundary" inkscape:connector-curvature="0" />
	<path style="fill:none;stroke:red;stroke-width:1px;stroke-linecap:butt;stroke-linejoin:miter;stroke-opacity:1" d="M 546.293,20.279 556.468,18.2441 z" id="boundary" inkscape:connector-curvature="0" />
	<path style="fill:none;stroke:red;stroke-width:1px;stroke-linecap:butt;stroke-linejoin:miter;stroke-opacity:1" d="M 546.293,147.458 556.468,148.476 z" id="boundary" inkscape:connector-curvature="0" />
	<path style="fill:none;stroke:red;stroke-width:1px;stroke-linecap:butt;stroke-linejoin:miter;stroke-opacity:1" d="M 556.468,18.2441 566.642,19.2615 z" id="boundary" inkscape:connector-curvature="0" />
	<path style="fill:none;stroke:red;stroke-width:1px;stroke-linecap:butt;stroke-linejoin:miter;stroke-opacity:1" d="M 556.468,148.476 566.642,149.493 z" id="boundary" inkscape:connector-curvature="0" />
	<path style="fill:none;stroke:red;stroke-width:1px;stroke-linecap:butt;stroke-linejoin:miter;stroke-opacity:1" d="M 566.642,19.2615 571.729,28.4185 z" id="boundary" inkscape:connector-curvature="0" />
	<path style="fill:none;stroke:red;stroke-width:1px;stroke-linecap:butt;stroke-linejoin:miter;stroke-opacity:1" d="M 566.642,149.493 576.816,147.458 z" id="boundary" inkscape:connector-curvature="0" />
	<path style="fill:none;stroke:red;stroke-width:1px;stroke-linecap:butt;stroke-linejoin:miter;stroke-opacity:1" d="M 571.729,28.4185 574.782,38.5928 z" id="boundary" inkscape:connector-curvature="0" />
	<path style="fill:none;stroke:red;stroke-width:1px;stroke-linecap:butt;stroke-linejoin:miter;stroke-opacity:1" d="M 574.782,38.5928 584.956,35.5405 z" id="boundary" inkscape:connector-curvature="0" />
	<path style="fill:none;stroke:red;stroke-width:1px;stroke-linecap:butt;stroke-linejoin:miter;stroke-opacity:1" d="M 576.816,147.458 586.991,147.458 z" id="boundary" inkscape:connector-curvature="0" />
	<path style="fill:none;stroke:red;stroke-width:1px;stroke-linecap:butt;stroke-linejoin:miter;stroke-opacity:1" d="M 584.956,35.5405 595.13,33.5056 z" id="boundary" inkscape:connector-curvature="0" />
	<path style="fill:none;stroke:red;stroke-width:1px;stroke-linecap:butt;stroke-linejoin:miter;stroke-opacity:1" d="M 586.991,147.458 595.13,141.354 z" id="boundary" inkscape:connector-curvature="0" />
	<path style="fill:none;stroke:red;stroke-width:1px;stroke-linecap:butt;stroke-linejoin:miter;stroke-opacity:1" d="M 595.13,33.5056 605.305,30.4533 z" id="boundary" inkscape:connector-curvature="0" />
	<path style="fill:none;stroke:red;stroke-width:1px;stroke-linecap:butt;stroke-linejoin:miter;stroke-opacity:1" d="M 595.13,141.354 601.235,133.214 z" id="boundary" inkscape:connector-curvature="0" />
	<path style="fill:none;stroke:red;stroke-width:1px;stroke-linecap:butt;stroke-linejoin:miter;stroke-opacity:1" d="M 601.235,133.214 611.409,133.214 z" id="boundary" inkscape:connector-curvature="0" />
	<path style="fill:none;stroke:red;stroke-width:1px;stroke-linecap:butt;stroke-linejoin:miter;stroke-opacity:1" d="M 605.305,30.4533 615.479,29.4359 z" id="boundary" inkscape:connector-curvature="0" />
	<path style="fill:none;stroke:red;stroke-width:1px;stroke-linecap:butt;stroke-linejoin:miter;stroke-opacity:1" d="M 611.409,133.214 621.584,132.197 z" id="boundary" inkscape:connector-curvature="0" />
	<path style="fill:none;stroke:red;stroke-width:1px;stroke-linecap:butt;stroke-linejoin:miter;stroke-opacity:1" d="M 615.479,29.4359 625.653,28.4185 z" id="boundary" inkscape:connector-curvature="0" />
	<path style="fill:none;stroke:red;stroke-width:1px;stroke-linecap:butt;stroke-linejoin:miter;stroke-opacity:1" d="M 621.584,132.197 631.758,130.162 z" id="boundary" inkscape:connector-curvature="0" />
	<path style="fill:none;stroke:red;stroke-width:1px;stroke-linecap:butt;stroke-linejoin:miter;stroke-opacity:1" d="M 625.653,28.4185 635.828,31.4708 z" id="boundary" inkscape:connector-curvature="0" />
	<path style="fill:none;stroke:red;stroke-width:1px;stroke-linecap:butt;stroke-linejoin:miter;stroke-opacity:1" d="M 631.758,130.162 641.932,128.127 z" id="boundary" inkscape:connector-curvature="0" />
	<path style="fill:none;stroke:red;stroke-width:1px;stroke-linecap:butt;stroke-linejoin:miter;stroke-opacity:1" d="M 635.828,31.4708 646.002,31.4708 z" id="boundary" inkscape:connector-curvature="0" />
	<path style="fill:none;stroke:red;stroke-width:1px;stroke-linecap:butt;stroke-linejoin:miter;stroke-opacity:1" d="M 641.932,128.127 652.107,126.092 z" id="boundary" inkscape:connector-curvature="0" />
	<path style="fill:none;stroke:red;stroke-width:1px;stroke-linecap:butt;stroke-linejoin:miter;stroke-opacity:1" d="M 646.002,31.4708 656.176,26.3836 z" id="boundary" inkscape:connector-curvature="0" />
	<path style="fill:none;stroke:red;stroke-width:1px;stroke-linecap:butt;stroke-linejoin:miter;stroke-opacity:1" d="M 652.107,126.092 662.281,125.075 z" id="boundary" inkscape:connector-curvature="0" />
	<path style="fill:none;stroke:red;stroke-width:1px;stroke-linecap:butt;stroke-linejoin:miter;stroke-opacity:1" d="M 656.176,26.3836 666.351,26.3836 z" id="boundary" inkscape:connector-curvature="0" />
	<path style="fill:none;stroke:red;stroke-width:1px;stroke-linecap:butt;stroke-linejoin:miter;stroke-opacity:1" d="M 662.281,125.075 672.455,123.04 z" id="boundary" inkscape:connector-curvature="0" />
	<path style="fill:none;stroke:red;stroke-width:1px;stroke-linecap:butt;stroke-linejoin:miter;stroke-opacity:1" d="M 666.351,26.3836 676.525,25.3662 z" id="boundary" inkscape:connector-curvature="0" />
	<path style="fill:none;stroke:red;stroke-width:1px;stroke-linecap:butt;stroke-linejoin:miter;stroke-opacity:1" d="M 672.455,123.04 682.63,121.005 z" id="boundary" inkscape:connector-curvature="0" />
	<path style="fill:none;stroke:red;stroke-width:1px;stroke-linecap:butt;stroke-linejoin:miter;stroke-opacity:1" d="M 676.525,25.3662 686.699,23.3313 z" id="boundary" inkscape:connector-curvature="0" />
	<path style="fill:none;stroke:red;stroke-width:1px;stroke-linecap:butt;stroke-linejoin:miter;stroke-opacity:1" d="M 682.63,121.005 692.804,119.988 z" id="boundary" inkscape:connector-curvature="0" />
	<path style="fill:none;stroke:red;stroke-width:1px;stroke-linecap:butt;stroke-linejoin:miter;stroke-opacity:1" d="M 686.699,23.3313 696.874,24.3487 z" id="boundary" inkscape:connector-curvature="0" />
	<path style="fill:none;stroke:red;stroke-width:1px;stroke-linecap:butt;stroke-linejoin:miter;stroke-opacity:1" d="M 692.804,119.988 702.978,117.953 z" id="boundary" inkscape:connector-curvature="0" />
	<path style="fill:none;stroke:red;stroke-width:1px;stroke-linecap:butt;stroke-linejoin:miter;stroke-opacity:1" d="M 696.874,24.3487 707.048,20.279 z" id="boundary" inkscape:connector-curvature="0" />
	<path style="fill:none;stroke:red;stroke-width:1px;stroke-linecap:butt;stroke-linejoin:miter;stroke-opacity:1" d="M 702.978,117.953 713.153,115.918 z" id="boundary" inkscape:connector-curvature="0" />
	<path style="fill:none;stroke:red;stroke-width:1px;stroke-linecap:butt;stroke-linejoin:miter;stroke-opacity:1" d="M 707.048,20.279 717.223,19.2615 z" id="boundary" inkscape:connector-curvature="0" />
	<path style="fill:none;stroke:red;stroke-width:1px;stroke-linecap:butt;stroke-linejoin:miter;stroke-opacity:1" d="M 713.153,115.918 723.327,114.901 z" id="boundary" inkscape:connector-curvature="0" />
	<path style="fill:none;stroke:red;stroke-width:1px;stroke-linecap:butt;stroke-linejoin:miter;stroke-opacity:1" d="M 717.223,19.2615 727.397,20.279 z" id="boundary" inkscape:connector-curvature="0" />
	<path style="fill:none;stroke:red;stroke-width:1px;stroke-linecap:butt;stroke-linejoin:miter;stroke-opacity:1" d="M 723.327,114.901 733.502,112.866 z" id="boundary" inkscape:connector-curvature="0" />
	<path style="fill:none;stroke:red;stroke-width:1px;stroke-linecap:butt;stroke-linejoin:miter;stroke-opacity:1" d="M 727.397,20.279 737.571,17.2267 z" id="boundary" inkscape:connector-curvature="0" />
	<path style="fill:none;stroke:red;stroke-width:1px;stroke-linecap:butt;stroke-linejoin:miter;stroke-opacity:1" d="M 733.502,112.866 743.676,110.831 z" id="boundary" inkscape:connector-curvature="0" />
	<path style="fill:none;stroke:red;stroke-width:1px;stroke-linecap:butt;stroke-linejoin:miter;stroke-opacity:1" d="M 737.571,17.2267 747.746,17.2267 z" id="boundary" inkscape:connector-curvature="0" />
	<path style="fill:none;stroke:red;stroke-width:1px;stroke-linecap:butt;stroke-linejoin:miter;stroke-opacity:1" d="M 743.676,110.831 753.85,109.813 z" id="boundary" inkscape:connector-curvature="0" />
	<path style="fill:none;stroke:red;stroke-width:1px;stroke-linecap:butt;stroke-linejoin:miter;stroke-opacity:1" d="M 747.746,17.2267 757.92,16.2092 z" id="boundary" inkscape:connector-curvature="0" />
	<path style="fill:none;stroke:red;stroke-width:1px;stroke-linecap:butt;stroke-linejoin:miter;stroke-opacity:1" d="M 753.85,109.813 764.025,107.778 z" id="boundary" inkscape:connector-curvature="0" />
	<path style="fill:none;stroke:red;stroke-width:1px;stroke-linecap:butt;stroke-linejoin:miter;stroke-opacity:1" d="M 757.92,16.2092 768.094,13.1569 z" id="boundary" inkscape:connector-curvature="0" />
	<path style="fill:none;stroke:red;stroke-width:1px;stroke-linecap:butt;stroke-linejoin:miter;stroke-opacity:1" d="M 764.025,107.778 774.199,105.744 z" id="boundary" inkscape:connector-curvature="0" />
	<path style="fill:none;stroke:red;stroke-width:1px;stroke-linecap:butt;stroke-linejoin:miter;stroke-opacity:1" d="M 768.094,13.1569 778.269,14.1744 z" id="boundary" inkscape:connector-curvature="0" />
	<path style="fill:none;stroke:red;stroke-width:1px;stroke-linecap:butt;stroke-linejoin:miter;stroke-opacity:1" d="M 774.199,105.744 784.373,103.709 z" id="boundary" inkscape:connector-curvature="0" />
	<path style="fill:none;stroke:red;stroke-width:1px;stroke-linecap:butt;stroke-linejoin:miter;stroke-opacity:1" d="M 778.269,14.1744 788.443,11.1221 z" id="boundary" inkscape:connector-curvature="0" />
	<path style="fill:none;stroke:red;stroke-width:1px;stroke-linecap:butt;stroke-linejoin:miter;stroke-opacity:1" d="M 784.373,103.709 794.548,102.691 z" id="boundary" inkscape:connector-curvature="0" />
	<path style="fill:none;stroke:red;stroke-width:1px;stroke-linecap:butt;stroke-linejoin:miter;stroke-opacity:1" d="M 788.443,11.1221 798.617,10.1046 z" id="boundary" inkscape:connector-curvature="0" />
	<path style="fill:none;stroke:red;stroke-width:1px;stroke-linecap:butt;stroke-linejoin:miter;stroke-opacity:1" d="M 794.548,102.691 804.722,100.656 z" id="boundary" inkscape:connector-curvature="0" />
	<path style="fill:none;stroke:red;stroke-width:1px;stroke-linecap:butt;stroke-linejoin:miter;stroke-opacity:1" d="M 798.617,10.1046 808.792,11.1221 z" id="boundary" inkscape:connector-curvature="0" />
	<path style="fill:none;stroke:red;stroke-width:1px;stroke-linecap:butt;stroke-linejoin:miter;stroke-opacity:1" d="M 804.722,100.656 814.896,99.639 z" id="boundary" inkscape:connector-curvature="0" />
	<path style="fill:none;stroke:red;stroke-width:1px;stroke-linecap:butt;stroke-linejoin:miter;stroke-opacity:1" d="M 808.792,11.1221 818.966,8.06974 z" id="boundary" inkscape:connector-curvature="0" />
	<path style="fill:none;stroke:red;stroke-width:1px;stroke-linecap:butt;stroke-linejoin:miter;stroke-opacity:1" d="M 814.896,99.639 825.071,97.6041 z" id="boundary" inkscape:connector-curvature="0" />
	<path style="fill:none;stroke:red;stroke-width:1px;stroke-linecap:butt;stroke-linejoin:miter;stroke-opacity:1" d="M 818.966,8.06974 829.141,8.06974 z" id="boundary" inkscape:connector-curvature="0" />
	<path style="fill:none;stroke:red;stroke-width:1px;stroke-linecap:butt;stroke-linejoin:miter;stroke-opacity:1" d="M 825.071,97.6041 835.245,95.5692 z" id="boundary" inkscape:connector-curvature="0" />
	<path style="fill:none;stroke:red;stroke-width:1px;stroke-linecap:butt;stroke-linejoin:miter;stroke-opacity:1" d="M 829.141,8.06974 839.315,8.06974 z" id="boundary" inkscape:connector-curvature="0" />
	<path style="fill:none;stroke:red;stroke-width:1px;stroke-linecap:butt;stroke-linejoin:miter;stroke-opacity:1" d="M 835.245,95.5692 845.419,94.5518 z" id="boundary" inkscape:connector-curvature="0" />
	<path style="fill:none;stroke:red;stroke-width:1px;stroke-linecap:butt;stroke-linejoin:miter;stroke-opacity:1" d="M 839.315,8.06974 849.489,5.01744 z" id="boundary" inkscape:connector-curvature="0" />
	<path style="fill:none;stroke:red;stroke-width:1px;stroke-linecap:butt;stroke-linejoin:miter;stroke-opacity:1" d="M 845.419,94.5518 855.594,92.5169 z" id="boundary" inkscape:connector-curvature="0" />
	<path style="fill:none;stroke:red;stroke-width:1px;stroke-linecap:butt;stroke-linejoin:miter;stroke-opacity:1" d="M 849.489,5.01744 859.664,6.03487 z" id="boundary" inkscape:connector-curvature="0" />
	<path style="fill:none;stroke:red;stroke-width:1px;stroke-linecap:butt;stroke-linejoin:miter;stroke-opacity:1" d="M 855.594,92.5169 865.768,88.4472 z" id="boundary" inkscape:connector-curvature="0" />
	<path style="fill:none;stroke:red;stroke-width:1px;stroke-linecap:butt;stroke-linejoin:miter;stroke-opacity:1" d="M 859.664,6.03487 869.838,5.01744 z" id="boundary" inkscape:connector-curvature="0" />
	<path style="fill:none;stroke:red;stroke-width:1px;stroke-linecap:butt;stroke-linejoin:miter;stroke-opacity:1" d="M 865.768,88.4472 875.943,83.36 z" id="boundary" inkscape:connector-curvature="0" />
	<path style="fill:none;stroke:red;stroke-width:1px;stroke-linecap:butt;stroke-linejoin:miter;stroke-opacity:1" d="M 869.838,5.01744 880.012,4 z" id="boundary" inkscape:connector-curvature="0" />
	<path style="fill:none;stroke:red;stroke-width:1px;stroke-linecap:butt;stroke-linejoin:miter;stroke-opacity:1" d="M 875.943,83.36 886.117,78.2728 z" id="boundary" inkscape:connector-curvature="0" />
	<path style="fill:none;stroke:red;stroke-width:1px;stroke-linecap:butt;stroke-linejoin:miter;stroke-opacity:1" d="M 880.012,4 890.187,5.01744 z" id="boundary" inkscape:connector-curvature="0" />
	<path style="fill:none;stroke:red;stroke-width:1px;stroke-linecap:butt;stroke-linejoin:miter;stroke-opacity:1" d="M 886.117,78.2728 896.291,74.2031 z" id="boundary" inkscape:connector-curvature="0" />
	<path style="fill:none;stroke:red;stroke-width:1px;stroke-linecap:butt;stroke-linejoin:miter;stroke-opacity:1" d="M 890.187,5.01744 900.361,4 z" id="boundary" inkscape:connector-curvature="0" />
	<path style="fill:none;stroke:red;stroke-width:1px;stroke-linecap:butt;stroke-linejoin:miter;stroke-opacity:1" d="M 896.291,74.2031 905.448,69.1159 z" id="boundary" inkscape:connector-curvature="0" />
	<path style="fill:none;stroke:red;stroke-width:1px;stroke-linecap:butt;stroke-linejoin:miter;stroke-opacity:1" d="M 900.361,4 910.535,5.01744 z" id="boundary" inkscape:connector-curvature="0" />
	<path style="fill:none;stroke:red;stroke-width:1px;stroke-linecap:butt;stroke-linejoin:miter;stroke-opacity:1" d="M 905.448,69.1159 915.623,64.0287 z" id="boundary" inkscape:connector-curvature="0" />
	<path style="fill:none;stroke:red;stroke-width:1px;stroke-linecap:butt;stroke-linejoin:miter;stroke-opacity:1" d="M 910.535,5.01744 920.71,6.03487 z" id="boundary" inkscape:connector-curvature="0" />
	<path style="fill:none;stroke:red;stroke-width:1px;stroke-linecap:butt;stroke-linejoin:miter;stroke-opacity:1" d="M 915.623,64.0287 925.797,58.9415 z" id="boundary" inkscape:connector-curvature="0" />
	<path style="fill:none;stroke:red;stroke-width:1px;stroke-linecap:butt;stroke-linejoin:miter;stroke-opacity:1" d="M 920.71,6.03487 930.884,5.01744 z" id="boundary" inkscape:connector-curvature="0" />
	<path style="fill:none;stroke:red;stroke-width:1px;stroke-linecap:butt;stroke-linejoin:miter;stroke-opacity:1" d="M 925.797,58.9415 935.971,53.8544 z" id="boundary" inkscape:connector-curvature="0" />
	<path style="fill:none;stroke:red;stroke-width:1px;stroke-linecap:butt;stroke-linejoin:miter;stroke-opacity:1" d="M 930.884,5.01744 941.058,8.06974 z" id="boundary" inkscape:connector-curvature="0" />
	<path style="fill:none;stroke:red;stroke-width:1px;stroke-linecap:butt;stroke-linejoin:miter;stroke-opacity:1" d="M 935.971,53.8544 946.146,49.7846 z" id="boundary" inkscape:connector-curvature="0" />
	<path style="fill:none;stroke:red;stroke-width:1px;stroke-linecap:butt;stroke-linejoin:miter;stroke-opacity:1" d="M 941.058,8.06974 951.233,7.05231 z" id="boundary" inkscape:connector-curvature="0" />
	<path style="fill:none;stroke:red;stroke-width:1px;stroke-linecap:butt;stroke-linejoin:miter;stroke-opacity:1" d="M 946.146,49.7846 955.303,44.6974 z" id="boundary" inkscape:connector-curvature="0" />
	<path style="fill:none;stroke:red;stroke-width:1px;stroke-linecap:butt;stroke-linejoin:miter;stroke-opacity:1" d="M 951.233,7.05231 961.407,7.05231 z" id="boundary" inkscape:connector-curvature="0" />
	<path style="fill:none;stroke:red;stroke-width:1px;stroke-linecap:butt;stroke-linejoin:miter;stroke-opacity:1" d="M 955.303,44.6974 965.477,39.6103 z" id="boundary" inkscape:connector-curvature="0" />
	<path style="fill:none;stroke:red;stroke-width:1px;stroke-linecap:butt;stroke-linejoin:miter;stroke-opacity:1" d="M 961.407,7.05231 971.582,9.08718 z" id="boundary" inkscape:connector-curvature="0" />
	<path style="fill:none;stroke:red;stroke-width:1px;stroke-linecap:butt;stroke-linejoin:miter;stroke-opacity:1" d="M 965.477,39.6103 975.651,34.5231 z" id="boundary" inkscape:connector-curvature="0" />
	<path style="fill:none;stroke:red;stroke-width:1px;stroke-linecap:butt;stroke-linejoin:miter;stroke-opacity:1" d="M 971.582,9.08718 981.756,10.1046 z" id="boundary" inkscape:connector-curvature="0" />
	<path style="fill:none;stroke:red;stroke-width:1px;stroke-linecap:butt;stroke-linejoin:miter;stroke-opacity:1" d="M 975.651,34.5231 985.826,29.4359 z" id="boundary" inkscape:connector-curvature="0" />
	<path style="fill:none;stroke:red;stroke-width:1px;stroke-linecap:butt;stroke-linejoin:miter;stroke-opacity:1" d="M 981.756,10.1046 991.93,13.1569 z" id="boundary" inkscape:connector-curvature="0" />
	<path style="fill:none;stroke:red;stroke-width:1px;stroke-linecap:butt;stroke-linejoin:miter;stroke-opacity:1" d="M 985.826,29.4359 996,24.3487 z" id="boundary" inkscape:connector-curvature="0" />
	<path style="fill:none;stroke:red;stroke-width:1px;stroke-linecap:butt;stroke-linejoin:miter;stroke-opacity:1" d="M 991.93,13.1569 996,24.3487 z" id="boundary" inkscape:connector-curvature="0" />
	<circle cx="4" cy="157.633" r="4" fill="#0" id="circle0"/>
	<circle cx="4" cy="167.807" r="4" fill="#0" id="circle1"/>
	<circle cx="8.06974" cy="177.982" r="4" fill="#0" id="circle2"/>
	<circle cx="9.08718" cy="188.156" r="4" fill="#0" id="circle3"/>
	<circle cx="9.08718" cy="198.33" r="4" fill="#0" id="circle4"/>
	<circle cx="10.1046" cy="149.493" r="4" fill="#0" id="circle5"/>
	<circle cx="11.1221" cy="208.505" r="4" fill="#0" id="circle6"/>
	<circle cx="14.1744" cy="218.679" r="4" fill="#0" id="circle7"/>
	<circle cx="16.2092" cy="228.853" r="4" fill="#0" id="circle8"/>
	<circle cx="18.2441" cy="239.028" r="4" fill="#0" id="circle9"/>
	<circle cx="19.2615" cy="144.406" r="4" fill="#0" id="circle10"/>
	<circle cx="21.2964" cy="249.202" r="4" fill="#0" id="circle11"/>
	<circle cx="29.4359" cy="141.354" r="4" fill="#0" id="circle12"/>
	<circle cx="31.4708" cy="249.202" r="4" fill="#0" id="circle13"/>
	<circle cx="39.6103" cy="137.284" r="4" fill="#0" id="circle14"/>
	<circle cx="41.6451" cy="249.202" r="4" fill="#0" id="circle15"/>
	<circle cx="49.7846" cy="133.214" r="4" fill="#0" id="circle16"/>
	<circle cx="51.8195" cy="249.202" r="4" fill="#0" id="circle17"/>
	<circle cx="59.959" cy="132.197" r="4" fill="#0" id="circle18"/>
	<circle cx="61.9938" cy="248.185" r="4" fill="#0" id="circle19"/>
	<circle cx="69.1159" cy="137.284" r="4" fill="#0" id="circle20"/>
	<circle cx="72.1682" cy="248.185" r="4" fill="#0" id="circle21"/>
	<circle cx="77.2554" cy="144.406" r="4" fill="#0" id="circle22"/>
	<circle cx="82.3426" cy="247.167" r="4" fill="#0" id="circle23"/>
	<circle cx="87.4297" cy="146.441" r="4" fill="#0" id="circle24"/>
	<circle cx="92.5169" cy="245.132" r="4" fill="#0" id="circle25"/>
	<circle cx="97.6041" cy="146.441" r="4" fill="#0" id="circle26"/>
	<circle cx="102.691" cy="244.115" r="4" fill="#0" id="circle27"/>
	<circle cx="107.778" cy="143.389" r="4" fill="#0" id="circle28"/>
	<circle cx="112.866" cy="244.115" r="4" fill="#0" id="circle29"/>
	<circle cx="117.953" cy="140.336" r="4" fill="#0" id="circle30"/>
	<circle cx="123.04" cy="242.08" r="4" fill="#0" id="circle31"/>
	<circle cx="128.127" cy="138.302" r="4" fill="#0" id="circle32"/>
	<circle cx="133.214" cy="240.045" r="4" fill="#0" id="circle33"/>
	<circle cx="138.302" cy="134.232" r="4" fill="#0" id="circle34"/>
	<circle cx="143.389" cy="239.028" r="4" fill="#0" id="circle35"/>
	<circle cx="148.476" cy="132.197" r="4" fill="#0" id="circle36"/>
	<circle cx="153.563" cy="239.028" r="4" fill="#0" id="circle37"/>
	<circle cx="158.65" cy="127.11" r="4" fill="#0" id="circle38"/>
	<circle cx="162.72" cy="233.941" r="4" fill="#0" id="circle39"/>
	<circle cx="168.825" cy="123.04" r="4" fill="#0" id="circle40"/>
	<circle cx="172.894" cy="234.958" r="4" fill="#0" id="circle41"/>
	<circle cx="178.999" cy="119.988" r="4" fill="#0" id="circle42"/>
	<circle cx="183.069" cy="231.906" r="4" fill="#0" id="circle43"/>
	<circle cx="189.173" cy="117.953" r="4" fill="#0" id="circle44"/>
	<circle cx="193.243" cy="230.888" r="4" fill="#0" id="circle45"/>
	<circle cx="199.348" cy="114.901" r="4" fill="#0" id="circle46"/>
	<circle cx="202.4" cy="225.801" r="4" fill="#0" id="circle47"/>
	<circle cx="209.522" cy="110.831" r="4" fill="#0" id="circle48"/>
	<circle cx="212.574" cy="221.731" r="4" fill="#0" id="circle49"/>
	<circle cx="219.696" cy="110.831" r="4" fill="#0" id="circle50"/>
	<circle cx="222.749" cy="218.679" r="4" fill="#0" id="circle51"/>
	<circle cx="229.871" cy="106.761" r="4" fill="#0" id="circle52"/>
	<circle cx="232.923" cy="214.609" r="4" fill="#0" id="circle53"/>
	<circle cx="240.045" cy="106.761" r="4" fill="#0" id="circle54"/>
	<circle cx="243.097" cy="211.557" r="4" fill="#0" id="circle55"/>
	<circle cx="248.185" cy="100.656" r="4" fill="#0" id="circle56"/>
	<circle cx="253.272" cy="210.539" r="4" fill="#0" id="circle57"/>
	<circle cx="258.359" cy="100.656" r="4" fill="#0" id="circle58"/>
	<circle cx="263.446" cy="209.522" r="4" fill="#0" id="circle59"/>
	<circle cx="268.533" cy="96.5867" r="4" fill="#0" id="circle60"/>
	<circle cx="273.621" cy="206.47" r="4" fill="#0" id="circle61"/>
	<circle cx="278.708" cy="94.5518" r="4" fill="#0" id="circle62"/>
	<circle cx="283.795" cy="205.452" r="4" fill="#0" id="circle63"/>
	<circle cx="288.882" cy="92.5169" r="4" fill="#0" id="circle64"/>
	<circle cx="292.952" cy="200.365" r="4" fill="#0" id="circle65"/>
	<circle cx="299.056" cy="91.4995" r="4" fill="#0" id="circle66"/>
	<circle cx="303.126" cy="197.313" r="4" fill="#0" id="circle67"/>
	<circle cx="309.231" cy="90.4821" r="4" fill="#0" id="circle68"/>
	<circle cx="313.301" cy="196.295" r="4" fill="#0" id="circle69"/>
	<circle cx="319.405" cy="89.4646" r="4" fill="#0" id="circle70"/>
	<circle cx="323.475" cy="195.278" r="4" fill="#0" id="circle71"/>
	<circle cx="329.579" cy="88.4472" r="4" fill="#0" id="circle72"/>
	<circle cx="333.649" cy="193.243" r="4" fill="#0" id="circle73"/>
	<circle cx="339.754" cy="88.4472" r="4" fill="#0" id="circle74"/>
	<circle cx="342.806" cy="188.156" r="4" fill="#0" id="circle75"/>
	<circle cx="349.928" cy="87.4297" r="4" fill="#0" id="circle76"/>
	<circle cx="352.981" cy="184.086" r="4" fill="#0" id="circle77"/>
	<circle cx="360.103" cy="88.4472" r="4" fill="#0" id="circle78"/>
	<circle cx="363.155" cy="182.051" r="4" fill="#0" id="circle79"/>
	<circle cx="370.277" cy="86.4123" r="4" fill="#0" id="circle80"/>
	<circle cx="373.329" cy="181.034" r="4" fill="#0" id="circle81"/>
	<circle cx="380.451" cy="86.4123" r="4" fill="#0" id="circle82"/>
	<circle cx="383.504" cy="177.982" r="4" fill="#0" id="circle83"/>
	<circle cx="390.626" cy="87.4297" r="4" fill="#0" id="circle84"/>
	<circle cx="393.678" cy="177.982" r="4" fill="#0" id="circle85"/>
	<circle cx="400.8" cy="86.4123" r="4" fill="#0" id="circle86"/>
	<circle cx="403.852" cy="176.964" r="4" fill="#0" id="circle87"/>
	<circle cx="410.974" cy="88.4472" r="4" fill="#0" id="circle88"/>
	<circle cx="414.027" cy="173.912" r="4" fill="#0" id="circle89"/>
	<circle cx="421.149" cy="88.4472" r="4" fill="#0" id="circle90"/>
	<circle cx="424.201" cy="170.859" r="4" fill="#0" id="circle91"/>
	<circle cx="431.323" cy="85.3949" r="4" fill="#0" id="circle92"/>
	<circle cx="434.375" cy="168.825" r="4" fill="#0" id="circle93"/>
	<circle cx="441.497" cy="84.3774" r="4" fill="#0" id="circle94"/>
	<circle cx="444.55" cy="165.772" r="4" fill="#0" id="circle95"/>
	<circle cx="451.672" cy="85.3949" r="4" fill="#0" id="circle96"/>
	<circle cx="454.724" cy="162.72" r="4" fill="#0" id="circle97"/>
	<circle cx="461.846" cy="83.36" r="4" fill="#0" id="circle98"/>
	<circle cx="464.898" cy="160.685" r="4" fill="#0" id="circle99"/>
	<circle cx="472.021" cy="82.3426" r="4" fill="#0" id="circle100"/>
	<circle cx="475.073" cy="158.65" r="4" fill="#0" id="circle101"/>
	<circle cx="482.195" cy="80.3077" r="4" fill="#0" id="circle102"/>
	<circle cx="485.247" cy="156.615" r="4" fill="#0" id="circle103"/>
	<circle cx="491.352" cy="75.2205" r="4" fill="#0" id="circle104"/>
	<circle cx="495.422" cy="154.581" r="4" fill="#0" id="circle105"/>
	<circle cx="500.509" cy="69.1159" r="4" fill="#0" id="circle106"/>
	<circle cx="505.596" cy="152.546" r="4" fill="#0" id="circle107"/>
	<circle cx="506.613" cy="60.9764" r="4" fill="#0" id="circle108"/>
	<circle cx="514.753" cy="44.6974" r="4" fill="#0" id="circle109"/>
	<circle cx="514.753" cy="54.8718" r="4" fill="#0" id="circle110"/>
	<circle cx="515.77" cy="152.546" r="4" fill="#0" id="circle111"/>
	<circle cx="517.805" cy="31.4708" r="4" fill="#0" id="circle112"/>
	<circle cx="525.945" cy="25.3662" r="4" fill="#0" id="circle113"/>
	<circle cx="525.945" cy="150.511" r="4" fill="#0" id="circle114"/>
	<circle cx="536.119" cy="22.3138" r="4" fill="#0" id="circle115"/>
	<circle cx="536.119" cy="149.493" r="4" fill="#0" id="circle116"/>
	<circle cx="546.293" cy="20.279" r="4" fill="#0" id="circle117"/>
	<circle cx="546.293" cy="147.458" r="4" fill="#0" id="circle118"/>
	<circle cx="556.468" cy="18.2441" r="4" fill="#0" id="circle119"/>
	<circle cx="556.468" cy="148.476" r="4" fill="#0" id="circle120"/>
	<circle cx="566.642" cy="19.2615" r="4" fill="#0" id="circle121"/>
	<circle cx="566.642" cy="149.493" r="4" fill="#0" id="circle122"/>
	<circle cx="571.729" cy="28.4185" r="4" fill="#0" id="circle123"/>
	<circle cx="574.782" cy="38.5928" r="4" fill="#0" id="circle124"/>
	<circle cx="576.816" cy="147.458" r="4" fill="#0" id="circle125"/>
	<circle cx="577.834" cy="50.8021" r="4" fill="#0" id="circle126"/>
	<circle cx="584.956" cy="35.5405" r="4" fill="#0" id="circle127"/>
	<circle cx="586.991" cy="147.458" r="4" fill="#0" id="circle128"/>
	<circle cx="595.13" cy="33.5056" r="4" fill="#0" id="circle129"/>
	<circle cx="595.13" cy="141.354" r="4" fill="#0" id="circle130"/>
	<circle cx="601.235" cy="133.214" r="4" fill="#0" id="circle131"/>
	<circle cx="605.305" cy="30.4533" r="4" fill="#0" id="circle132"/>
	<circle cx="611.409" cy="133.214" r="4" fill="#0" id="circle133"/>
	<circle cx="615.479" cy="29.4359" r="4" fill="#0" id="circle134"/>
	<circle cx="621.584" cy="132.197" r="4" fill="#0" id="circle135"/>
	<circle cx="625.653" cy="28.4185" r="4" fill="#0" id="circle136"/>
	<circle cx="631.758" cy="130.162" r="4" fill="#0" id="circle137"/>
	<circle cx="635.828" cy="31.4708" r="4" fill="#0" id="circle138"/>
	<circle cx="641.932" cy="128.127" r="4" fill="#0" id="circle139"/>
	<circle cx="646.002" cy="31.4708" r="4" fill="#0" id="circle140"/>
	<circle cx="652.107" cy="126.092" r="4" fill="#0" id="circle141"/>
	<circle cx="656.176" cy="26.3836" r="4" fill="#0" id="circle142"/>
	<circle cx="662.281" cy="125.075" r="4" fill="#0" id="circle143"/>
	<circle cx="666.351" cy="26.3836" r="4" fill="#0" id="circle144"/>
	<circle cx="672.455" cy="123.04" r="4" fill="#0" id="circle145"/>
	<circle cx="676.525" cy="25.3662" r="4" fill="#0" id="circle146"/>
	<circle cx="682.63" cy="121.005" r="4" fill="#0" id="circle147"/>
	<circle cx="686.699" cy="23.3313" r="4" fill="#0" id="circle148"/>
	<circle cx="692.804" cy="119.988" r="4" fill="#0" id="circle149"/>
	<circle cx="696.874" cy="24.3487" r="4" fill="#0" id="circle150"/>
	<circle cx="702.978" cy="117.953" r="4" fill="#0" id="circle151"/>
	<circle cx="707.048" cy="20.279" r="4" fill="#0" id="circle152"/>
	<circle cx="713.153" cy="115.918" r="4" fill="#0" id="circle153"/>
	<circle cx="717.223" cy="19.2615" r="4" fill="#0" id="circle154"/>
	<circle cx="723.327" cy="114.901" r="4" fill="#0" id="circle155"/>
	<circle cx="727.397" cy="20.279" r="4" fill="#0" id="circle156"/>
	<circle cx="733.502" cy="112.866" r="4" fill="#0" id="circle157"/>
	<circle cx="737.571" cy="17.2267" r="4" fill="#0" id="circle158"/>
	<circle cx="743.676" cy="110.831" r="4" fill="#0" id="circle159"/>
	<circle cx="747.746" cy="17.2267" r="4" fill="#0" id="circle160"/>
	<circle cx="753.85" cy="109.813" r="4" fill="#0" id="circle161"/>
	<circle cx="757.92" cy="16.2092" r="4" fill="#0" id="circle162"/>
	<circle cx="764.025" cy="107.778" r="4" fill="#0" id="circle163"/>
	<circle cx="768.094" cy="13.1569" r="4" fill="#0" id="circle164"/>
	<circle cx="774.199" cy="105.744" r="4" fill="#0" id="circle165"/>
	<circle cx="778.269" cy="14.1744" r="4" fill="#0" id="circle166"/>
	<circle cx="784.373" cy="103.709" r="4" fill="#0" id="circle167"/>
	<circle cx="788.443" cy="11.1221" r="4" fill="#0" id="circle168"/>
	<circle cx="794.548" cy="102.691" r="4" fill="#0" id="circle169"/>
	<circle cx="798.617" cy="10.1046" r="4" fill="#0" id="circle170"/>
	<circle cx="804.722" cy="100.656" r="4" fill="#0" id="circle171"/>
	<circle cx="808.792" cy="11.1221" r="4" fill="#0" id="circle172"/>
	<circle cx="814.896" cy="99.639" r="4" fill="#0" id="circle173"/>
	<circle cx="818.966" cy="8.06974" r="4" fill="#0" id="circle174"/>
	<circle cx="825.071" cy="97.6041" r="4" fill="#0" id="circle175"/>
	<circle cx="829.141" cy="8.06974" r="4" fill="#0" id="circle176"/>
	<circle cx="835.245" cy="95.5692" r="4" fill="#0" id="circle177"/>
	<circle cx="839.315" cy="8.06974" r="4" fill="#0" id="circle178"/>
	<circle cx="845.419" cy="94.5518" r="4" fill="#0" id="circle179"/>
	<circle cx="849.489" cy="5.01744" r="4" fill="#0" id="circle180"/>
	<circle cx="855.594" cy="92.5169" r="4" fill="#0" id="circle181"/>
	<circle cx="859.664" cy="6.03487" r="4" fill="#0" id="circle182"/>
	<circle cx="865.768" cy="88.4472" r="4" fill="#0" id="circle183"/>
	<circle cx="869.838" cy="5.01744" r="4" fill="#0" id="circle184"/>
	<circle cx="875.943" cy="83.36" r="4" fill="#0" id="circle185"/>
	<circle cx="880.012" cy="4" r="4" fill="#0" id="circle186"/>
	<circle cx="886.117" cy="78.2728" r="4" fill="#0" id="circle187"/>
	<circle cx="890.187" cy="5.01744" r="4" fill="#0" id="circle188"/>
	<circle cx="896.291" cy="74.2031" r="4" fill="#0" id="circle189"/>
	<circle cx="900.361" cy="4" r="4" fill="#0" id="circle190"/>
	<circle cx="905.448" cy="69.1159" r="4" fill="#0" id="circle191"/>
	<circle cx="910.535" cy="5.01744" r="4" fill="#0" id="circle192"/>
	<circle cx="915.623" cy="64.0287" r="4" fill="#0" id="circle193"/>
	<circle cx="920.71" cy="6.03487" r="4" fill="#0" id="circle194"/>
	<circle cx="925.797" cy="58.9415" r="4" fill="#0" id="circle195"/>
	<circle cx="930.884" cy="5.01744" r="4" fill="#0" id="circle196"/>
	<circle cx="935.971" cy="53.8544" r="4" fill="#0" id="circle197"/>
	<circle cx="941.058" cy="8.06974" r="4" fill="#0" id="circle198"/>
	<circle cx="946.146" cy="49.7846" r="4" fill="#0" id="circle199"/>
	<circle cx="951.233" cy="7.05231" r="4" fill="#0" id="circle200"/>
	<circle cx="955.303" cy="44.6974" r="4" fill="#0" id="circle201"/>
	<circle cx="961.407" cy="7.05231" r="4" fill="#0" id="circle202"/>
	<circle cx="965.477" cy="39.6103" r="4" fill="#0" id="circle203"/>
	<circle cx="971.582" cy="9.08718" r="4" fill="#0" id="circle204"/>
	<circle cx="975.651" cy="34.5231" r="4" fill="#0" id="circle205"/>
	<circle cx="981.756" cy="10.1046" r="4" fill="#0" id="circle206"/>
	<circle cx="985.826" cy="29.4359" r="4" fill="#0" id="circle207"/>
	<circle cx="991.93" cy="13.1569" r="4" fill="#0" id="circle208"/>
	<circle cx="996" cy="24.3487" r="4" fill="#0" id="circle209"/>
	</g>
</svg>