<?xml version="1.0" encoding="UTF-8" standalone="no"?>
<!-- Created with CurveBenchmark -->
<svg
	xmlns:dc="http://purl.org/dc/elements/1.1/"
	xmlns:cc="http://creativecommons.org/ns#"
	xmlns:rdf="http://www.w3.org/1999/02/22-rdf-syntax-ns#"
	xmlns:svg="http://www.w3.org/2000/svg"
	xmlns="http://www.w3.org/2000/svg"
	xmlns:sodipodi="http://sodipodi.sourceforge.net/DTD/sodipodi-0.dtd"
	xmlns:inkscape="http://www.inkscape.org/namespaces/inkscape"
	width="1000"
	height="1000"
	id="svg2"
	version="1.1"
	sodipodi:docname="manifold/hnncrust-carriage-19.png.txt">
<defs
	id="defs4" />
<metadata
	id="metadata7">
	<rdf:RDF>
		<cc:Work
			rdf:about="">
			<dc:format>image/svg+xml</dc:format>
			<dc:type
				rdf:resource="http://purl.org/dc/dcmitype/StillImage" />
			<dc:title></dc:title>
		</cc:Work>
	</rdf:RDF>
</metadata>
<g
	inkscape:label="Layer 1"
	inkscape:groupmode="layer"
	id="layer1">
	<path style="fill:none;stroke:red;stroke-width:1px;stroke-linecap:butt;stroke-linejoin:miter;stroke-opacity:1" d="M 4,136.78 8.81086,127.158 z" id="boundary" inkscape:connector-curvature="0" />
	<path style="fill:none;stroke:red;stroke-width:1px;stroke-linecap:butt;stroke-linejoin:miter;stroke-opacity:1" d="M 4,136.78 11.6974,143.515 z" id="boundary" inkscape:connector-curvature="0" />
	<path style="fill:none;stroke:red;stroke-width:1px;stroke-linecap:butt;stroke-linejoin:miter;stroke-opacity:1" d="M 8.81086,127.158 16.5082,119.461 z" id="boundary" inkscape:connector-curvature="0" />
	<path style="fill:none;stroke:red;stroke-width:1px;stroke-linecap:butt;stroke-linejoin:miter;stroke-opacity:1" d="M 11.6974,143.515 18.4326,151.212 z" id="boundary" inkscape:connector-curvature="0" />
	<path style="fill:none;stroke:red;stroke-width:1px;stroke-linecap:butt;stroke-linejoin:miter;stroke-opacity:1" d="M 16.5082,119.461 23.2435,107.915 z" id="boundary" inkscape:connector-curvature="0" />
	<path style="fill:none;stroke:red;stroke-width:1px;stroke-linecap:butt;stroke-linejoin:miter;stroke-opacity:1" d="M 18.4326,151.212 28.0543,154.099 z" id="boundary" inkscape:connector-curvature="0" />
	<path style="fill:none;stroke:red;stroke-width:1px;stroke-linecap:butt;stroke-linejoin:miter;stroke-opacity:1" d="M 23.2435,107.915 28.0543,98.2929 z" id="boundary" inkscape:connector-curvature="0" />
	<path style="fill:none;stroke:red;stroke-width:1px;stroke-linecap:butt;stroke-linejoin:miter;stroke-opacity:1" d="M 28.0543,98.2929 32.8652,88.6712 z" id="boundary" inkscape:connector-curvature="0" />
	<path style="fill:none;stroke:red;stroke-width:1px;stroke-linecap:butt;stroke-linejoin:miter;stroke-opacity:1" d="M 28.0543,154.099 36.7139,158.91 z" id="boundary" inkscape:connector-curvature="0" />
	<path style="fill:none;stroke:red;stroke-width:1px;stroke-linecap:butt;stroke-linejoin:miter;stroke-opacity:1" d="M 32.8652,88.6712 40.5626,80.9738 z" id="boundary" inkscape:connector-curvature="0" />
	<path style="fill:none;stroke:red;stroke-width:1px;stroke-linecap:butt;stroke-linejoin:miter;stroke-opacity:1" d="M 36.7139,158.91 46.3356,156.985 z" id="boundary" inkscape:connector-curvature="0" />
	<path style="fill:none;stroke:red;stroke-width:1px;stroke-linecap:butt;stroke-linejoin:miter;stroke-opacity:1" d="M 40.5626,80.9738 45.3734,71.3521 z" id="boundary" inkscape:connector-curvature="0" />
	<path style="fill:none;stroke:red;stroke-width:1px;stroke-linecap:butt;stroke-linejoin:miter;stroke-opacity:1" d="M 45.3734,71.3521 50.1843,61.7304 z" id="boundary" inkscape:connector-curvature="0" />
	<path style="fill:none;stroke:red;stroke-width:1px;stroke-linecap:butt;stroke-linejoin:miter;stroke-opacity:1" d="M 46.3356,156.985 55.9573,152.175 z" id="boundary" inkscape:connector-curvature="0" />
	<path style="fill:none;stroke:red;stroke-width:1px;stroke-linecap:butt;stroke-linejoin:miter;stroke-opacity:1" d="M 50.1843,61.7304 57.8817,54.033 z" id="boundary" inkscape:connector-curvature="0" />
	<path style="fill:none;stroke:red;stroke-width:1px;stroke-linecap:butt;stroke-linejoin:miter;stroke-opacity:1" d="M 55.9573,152.175 62.6925,139.666 z" id="boundary" inkscape:connector-curvature="0" />
	<path style="fill:none;stroke:red;stroke-width:1px;stroke-linecap:butt;stroke-linejoin:miter;stroke-opacity:1" d="M 57.8817,54.033 62.6925,44.4113 z" id="boundary" inkscape:connector-curvature="0" />
	<path style="fill:none;stroke:red;stroke-width:1px;stroke-linecap:butt;stroke-linejoin:miter;stroke-opacity:1" d="M 62.6925,44.4113 70.3899,37.676 z" id="boundary" inkscape:connector-curvature="0" />
	<path style="fill:none;stroke:red;stroke-width:1px;stroke-linecap:butt;stroke-linejoin:miter;stroke-opacity:1" d="M 62.6925,139.666 67.5034,130.045 z" id="boundary" inkscape:connector-curvature="0" />
	<path style="fill:none;stroke:red;stroke-width:1px;stroke-linecap:butt;stroke-linejoin:miter;stroke-opacity:1" d="M 67.5034,130.045 77.1251,130.045 z" id="boundary" inkscape:connector-curvature="0" />
	<path style="fill:none;stroke:red;stroke-width:1px;stroke-linecap:butt;stroke-linejoin:miter;stroke-opacity:1" d="M 70.3899,37.676 79.0495,32.8652 z" id="boundary" inkscape:connector-curvature="0" />
	<path style="fill:none;stroke:red;stroke-width:1px;stroke-linecap:butt;stroke-linejoin:miter;stroke-opacity:1" d="M 77.1251,130.045 86.7468,130.045 z" id="boundary" inkscape:connector-curvature="0" />
	<path style="fill:none;stroke:red;stroke-width:1px;stroke-linecap:butt;stroke-linejoin:miter;stroke-opacity:1" d="M 79.0495,32.8652 87.709,37.676 z" id="boundary" inkscape:connector-curvature="0" />
	<path style="fill:none;stroke:red;stroke-width:1px;stroke-linecap:butt;stroke-linejoin:miter;stroke-opacity:1" d="M 85.7847,329.214 85.7847,338.836 z" id="boundary" inkscape:connector-curvature="0" />
	<path style="fill:none;stroke:red;stroke-width:1px;stroke-linecap:butt;stroke-linejoin:miter;stroke-opacity:1" d="M 85.7847,329.214 90.5955,319.593 z" id="boundary" inkscape:connector-curvature="0" />
	<path style="fill:none;stroke:red;stroke-width:1px;stroke-linecap:butt;stroke-linejoin:miter;stroke-opacity:1" d="M 85.7847,338.836 85.7847,348.458 z" id="boundary" inkscape:connector-curvature="0" />
	<path style="fill:none;stroke:red;stroke-width:1px;stroke-linecap:butt;stroke-linejoin:miter;stroke-opacity:1" d="M 85.7847,348.458 85.7847,358.08 z" id="boundary" inkscape:connector-curvature="0" />
	<path style="fill:none;stroke:red;stroke-width:1px;stroke-linecap:butt;stroke-linejoin:miter;stroke-opacity:1" d="M 85.7847,358.08 90.5955,366.739 z" id="boundary" inkscape:connector-curvature="0" />
	<path style="fill:none;stroke:red;stroke-width:1px;stroke-linecap:butt;stroke-linejoin:miter;stroke-opacity:1" d="M 86.7468,130.045 96.3686,130.045 z" id="boundary" inkscape:connector-curvature="0" />
	<path style="fill:none;stroke:red;stroke-width:1px;stroke-linecap:butt;stroke-linejoin:miter;stroke-opacity:1" d="M 87.709,37.676 97.3307,37.676 z" id="boundary" inkscape:connector-curvature="0" />
	<path style="fill:none;stroke:red;stroke-width:1px;stroke-linecap:butt;stroke-linejoin:miter;stroke-opacity:1" d="M 90.5955,319.593 95.4064,305.16 z" id="boundary" inkscape:connector-curvature="0" />
	<path style="fill:none;stroke:red;stroke-width:1px;stroke-linecap:butt;stroke-linejoin:miter;stroke-opacity:1" d="M 90.5955,366.739 97.3307,374.436 z" id="boundary" inkscape:connector-curvature="0" />
	<path style="fill:none;stroke:red;stroke-width:1px;stroke-linecap:butt;stroke-linejoin:miter;stroke-opacity:1" d="M 95.4064,305.16 100.217,295.538 z" id="boundary" inkscape:connector-curvature="0" />
	<path style="fill:none;stroke:red;stroke-width:1px;stroke-linecap:butt;stroke-linejoin:miter;stroke-opacity:1" d="M 96.3686,130.045 105.028,134.855 z" id="boundary" inkscape:connector-curvature="0" />
	<path style="fill:none;stroke:red;stroke-width:1px;stroke-linecap:butt;stroke-linejoin:miter;stroke-opacity:1" d="M 97.3307,37.676 105.99,42.4869 z" id="boundary" inkscape:connector-curvature="0" />
	<path style="fill:none;stroke:red;stroke-width:1px;stroke-linecap:butt;stroke-linejoin:miter;stroke-opacity:1" d="M 97.3307,374.436 106.952,375.399 z" id="boundary" inkscape:connector-curvature="0" />
	<path style="fill:none;stroke:red;stroke-width:1px;stroke-linecap:butt;stroke-linejoin:miter;stroke-opacity:1" d="M 100.217,295.538 105.028,285.917 z" id="boundary" inkscape:connector-curvature="0" />
	<path style="fill:none;stroke:red;stroke-width:1px;stroke-linecap:butt;stroke-linejoin:miter;stroke-opacity:1" d="M 105.028,134.855 105.028,144.477 z" id="boundary" inkscape:connector-curvature="0" />
	<path style="fill:none;stroke:red;stroke-width:1px;stroke-linecap:butt;stroke-linejoin:miter;stroke-opacity:1" d="M 105.028,144.477 105.028,154.099 z" id="boundary" inkscape:connector-curvature="0" />
	<path style="fill:none;stroke:red;stroke-width:1px;stroke-linecap:butt;stroke-linejoin:miter;stroke-opacity:1" d="M 105.028,154.099 109.839,162.758 z" id="boundary" inkscape:connector-curvature="0" />
	<path style="fill:none;stroke:red;stroke-width:1px;stroke-linecap:butt;stroke-linejoin:miter;stroke-opacity:1" d="M 105.028,285.917 112.726,278.219 z" id="boundary" inkscape:connector-curvature="0" />
	<path style="fill:none;stroke:red;stroke-width:1px;stroke-linecap:butt;stroke-linejoin:miter;stroke-opacity:1" d="M 105.99,42.4869 113.688,48.2599 z" id="boundary" inkscape:connector-curvature="0" />
	<path style="fill:none;stroke:red;stroke-width:1px;stroke-linecap:butt;stroke-linejoin:miter;stroke-opacity:1" d="M 106.952,375.399 115.612,370.588 z" id="boundary" inkscape:connector-curvature="0" />
	<path style="fill:none;stroke:red;stroke-width:1px;stroke-linecap:butt;stroke-linejoin:miter;stroke-opacity:1" d="M 109.839,162.758 109.839,172.38 z" id="boundary" inkscape:connector-curvature="0" />
	<path style="fill:none;stroke:red;stroke-width:1px;stroke-linecap:butt;stroke-linejoin:miter;stroke-opacity:1" d="M 109.839,172.38 111.763,182.002 z" id="boundary" inkscape:connector-curvature="0" />
	<path style="fill:none;stroke:red;stroke-width:1px;stroke-linecap:butt;stroke-linejoin:miter;stroke-opacity:1" d="M 111.763,182.002 114.65,191.624 z" id="boundary" inkscape:connector-curvature="0" />
	<path style="fill:none;stroke:red;stroke-width:1px;stroke-linecap:butt;stroke-linejoin:miter;stroke-opacity:1" d="M 112.726,278.219 114.65,268.597 z" id="boundary" inkscape:connector-curvature="0" />
	<path style="fill:none;stroke:red;stroke-width:1px;stroke-linecap:butt;stroke-linejoin:miter;stroke-opacity:1" d="M 113.688,48.2599 120.423,55.9573 z" id="boundary" inkscape:connector-curvature="0" />
	<path style="fill:none;stroke:red;stroke-width:1px;stroke-linecap:butt;stroke-linejoin:miter;stroke-opacity:1" d="M 114.65,191.624 114.65,201.245 z" id="boundary" inkscape:connector-curvature="0" />
	<path style="fill:none;stroke:red;stroke-width:1px;stroke-linecap:butt;stroke-linejoin:miter;stroke-opacity:1" d="M 114.65,201.245 114.65,210.867 z" id="boundary" inkscape:connector-curvature="0" />
	<path style="fill:none;stroke:red;stroke-width:1px;stroke-linecap:butt;stroke-linejoin:miter;stroke-opacity:1" d="M 114.65,210.867 114.65,220.489 z" id="boundary" inkscape:connector-curvature="0" />
	<path style="fill:none;stroke:red;stroke-width:1px;stroke-linecap:butt;stroke-linejoin:miter;stroke-opacity:1" d="M 114.65,220.489 114.65,230.111 z" id="boundary" inkscape:connector-curvature="0" />
	<path style="fill:none;stroke:red;stroke-width:1px;stroke-linecap:butt;stroke-linejoin:miter;stroke-opacity:1" d="M 114.65,230.111 114.65,239.732 z" id="boundary" inkscape:connector-curvature="0" />
	<path style="fill:none;stroke:red;stroke-width:1px;stroke-linecap:butt;stroke-linejoin:miter;stroke-opacity:1" d="M 114.65,239.732 114.65,249.354 z" id="boundary" inkscape:connector-curvature="0" />
	<path style="fill:none;stroke:red;stroke-width:1px;stroke-linecap:butt;stroke-linejoin:miter;stroke-opacity:1" d="M 114.65,249.354 114.65,258.976 z" id="boundary" inkscape:connector-curvature="0" />
	<path style="fill:none;stroke:red;stroke-width:1px;stroke-linecap:butt;stroke-linejoin:miter;stroke-opacity:1" d="M 114.65,258.976 114.65,268.597 z" id="boundary" inkscape:connector-curvature="0" />
	<path style="fill:none;stroke:red;stroke-width:1px;stroke-linecap:butt;stroke-linejoin:miter;stroke-opacity:1" d="M 115.612,370.588 123.309,363.853 z" id="boundary" inkscape:connector-curvature="0" />
	<path style="fill:none;stroke:red;stroke-width:1px;stroke-linecap:butt;stroke-linejoin:miter;stroke-opacity:1" d="M 120.423,55.9573 128.12,62.6925 z" id="boundary" inkscape:connector-curvature="0" />
	<path style="fill:none;stroke:red;stroke-width:1px;stroke-linecap:butt;stroke-linejoin:miter;stroke-opacity:1" d="M 123.309,363.853 128.12,354.231 z" id="boundary" inkscape:connector-curvature="0" />
	<path style="fill:none;stroke:red;stroke-width:1px;stroke-linecap:butt;stroke-linejoin:miter;stroke-opacity:1" d="M 128.12,62.6925 134.855,70.3899 z" id="boundary" inkscape:connector-curvature="0" />
	<path style="fill:none;stroke:red;stroke-width:1px;stroke-linecap:butt;stroke-linejoin:miter;stroke-opacity:1" d="M 128.12,354.231 132.931,344.609 z" id="boundary" inkscape:connector-curvature="0" />
	<path style="fill:none;stroke:red;stroke-width:1px;stroke-linecap:butt;stroke-linejoin:miter;stroke-opacity:1" d="M 132.931,344.609 134.855,332.101 z" id="boundary" inkscape:connector-curvature="0" />
	<path style="fill:none;stroke:red;stroke-width:1px;stroke-linecap:butt;stroke-linejoin:miter;stroke-opacity:1" d="M 134.855,70.3899 139.666,79.0495 z" id="boundary" inkscape:connector-curvature="0" />
	<path style="fill:none;stroke:red;stroke-width:1px;stroke-linecap:butt;stroke-linejoin:miter;stroke-opacity:1" d="M 134.855,322.479 134.855,332.101 z" id="boundary" inkscape:connector-curvature="0" />
	<path style="fill:none;stroke:red;stroke-width:1px;stroke-linecap:butt;stroke-linejoin:miter;stroke-opacity:1" d="M 134.855,322.479 139.666,312.857 z" id="boundary" inkscape:connector-curvature="0" />
	<path style="fill:none;stroke:red;stroke-width:1px;stroke-linecap:butt;stroke-linejoin:miter;stroke-opacity:1" d="M 139.666,79.0495 144.477,87.709 z" id="boundary" inkscape:connector-curvature="0" />
	<path style="fill:none;stroke:red;stroke-width:1px;stroke-linecap:butt;stroke-linejoin:miter;stroke-opacity:1" d="M 139.666,312.857 144.477,303.236 z" id="boundary" inkscape:connector-curvature="0" />
	<path style="fill:none;stroke:red;stroke-width:1px;stroke-linecap:butt;stroke-linejoin:miter;stroke-opacity:1" d="M 144.477,87.709 150.25,95.4064 z" id="boundary" inkscape:connector-curvature="0" />
	<path style="fill:none;stroke:red;stroke-width:1px;stroke-linecap:butt;stroke-linejoin:miter;stroke-opacity:1" d="M 144.477,303.236 149.288,293.614 z" id="boundary" inkscape:connector-curvature="0" />
	<path style="fill:none;stroke:red;stroke-width:1px;stroke-linecap:butt;stroke-linejoin:miter;stroke-opacity:1" d="M 149.288,293.614 157.948,288.803 z" id="boundary" inkscape:connector-curvature="0" />
	<path style="fill:none;stroke:red;stroke-width:1px;stroke-linecap:butt;stroke-linejoin:miter;stroke-opacity:1" d="M 150.25,95.4064 157.948,102.142 z" id="boundary" inkscape:connector-curvature="0" />
	<path style="fill:none;stroke:red;stroke-width:1px;stroke-linecap:butt;stroke-linejoin:miter;stroke-opacity:1" d="M 157.948,102.142 163.721,109.839 z" id="boundary" inkscape:connector-curvature="0" />
	<path style="fill:none;stroke:red;stroke-width:1px;stroke-linecap:butt;stroke-linejoin:miter;stroke-opacity:1" d="M 157.948,288.803 167.569,288.803 z" id="boundary" inkscape:connector-curvature="0" />
	<path style="fill:none;stroke:red;stroke-width:1px;stroke-linecap:butt;stroke-linejoin:miter;stroke-opacity:1" d="M 163.721,109.839 172.38,114.65 z" id="boundary" inkscape:connector-curvature="0" />
	<path style="fill:none;stroke:red;stroke-width:1px;stroke-linecap:butt;stroke-linejoin:miter;stroke-opacity:1" d="M 167.569,288.803 177.191,288.803 z" id="boundary" inkscape:connector-curvature="0" />
	<path style="fill:none;stroke:red;stroke-width:1px;stroke-linecap:butt;stroke-linejoin:miter;stroke-opacity:1" d="M 172.38,114.65 182.002,114.65 z" id="boundary" inkscape:connector-curvature="0" />
	<path style="fill:none;stroke:red;stroke-width:1px;stroke-linecap:butt;stroke-linejoin:miter;stroke-opacity:1" d="M 177.191,288.803 186.813,288.803 z" id="boundary" inkscape:connector-curvature="0" />
	<path style="fill:none;stroke:red;stroke-width:1px;stroke-linecap:butt;stroke-linejoin:miter;stroke-opacity:1" d="M 182.002,114.65 190.661,119.461 z" id="boundary" inkscape:connector-curvature="0" />
	<path style="fill:none;stroke:red;stroke-width:1px;stroke-linecap:butt;stroke-linejoin:miter;stroke-opacity:1" d="M 186.813,288.803 195.472,283.992 z" id="boundary" inkscape:connector-curvature="0" />
	<path style="fill:none;stroke:red;stroke-width:1px;stroke-linecap:butt;stroke-linejoin:miter;stroke-opacity:1" d="M 190.661,119.461 200.283,119.461 z" id="boundary" inkscape:connector-curvature="0" />
	<path style="fill:none;stroke:red;stroke-width:1px;stroke-linecap:butt;stroke-linejoin:miter;stroke-opacity:1" d="M 195.472,283.992 205.094,283.992 z" id="boundary" inkscape:connector-curvature="0" />
	<path style="fill:none;stroke:red;stroke-width:1px;stroke-linecap:butt;stroke-linejoin:miter;stroke-opacity:1" d="M 200.283,119.461 209.905,119.461 z" id="boundary" inkscape:connector-curvature="0" />
	<path style="fill:none;stroke:red;stroke-width:1px;stroke-linecap:butt;stroke-linejoin:miter;stroke-opacity:1" d="M 205.094,283.992 214.716,283.992 z" id="boundary" inkscape:connector-curvature="0" />
	<path style="fill:none;stroke:red;stroke-width:1px;stroke-linecap:butt;stroke-linejoin:miter;stroke-opacity:1" d="M 209.905,119.461 219.527,119.461 z" id="boundary" inkscape:connector-curvature="0" />
	<path style="fill:none;stroke:red;stroke-width:1px;stroke-linecap:butt;stroke-linejoin:miter;stroke-opacity:1" d="M 214.716,283.992 224.338,283.992 z" id="boundary" inkscape:connector-curvature="0" />
	<path style="fill:none;stroke:red;stroke-width:1px;stroke-linecap:butt;stroke-linejoin:miter;stroke-opacity:1" d="M 219.527,119.461 229.148,119.461 z" id="boundary" inkscape:connector-curvature="0" />
	<path style="fill:none;stroke:red;stroke-width:1px;stroke-linecap:butt;stroke-linejoin:miter;stroke-opacity:1" d="M 224.338,283.992 233.959,283.992 z" id="boundary" inkscape:connector-curvature="0" />
	<path style="fill:none;stroke:red;stroke-width:1px;stroke-linecap:butt;stroke-linejoin:miter;stroke-opacity:1" d="M 229.148,119.461 238.77,119.461 z" id="boundary" inkscape:connector-curvature="0" />
	<path style="fill:none;stroke:red;stroke-width:1px;stroke-linecap:butt;stroke-linejoin:miter;stroke-opacity:1" d="M 233.959,283.992 243.581,283.992 z" id="boundary" inkscape:connector-curvature="0" />
	<path style="fill:none;stroke:red;stroke-width:1px;stroke-linecap:butt;stroke-linejoin:miter;stroke-opacity:1" d="M 238.77,119.461 248.392,119.461 z" id="boundary" inkscape:connector-curvature="0" />
	<path style="fill:none;stroke:red;stroke-width:1px;stroke-linecap:butt;stroke-linejoin:miter;stroke-opacity:1" d="M 243.581,283.992 253.203,283.992 z" id="boundary" inkscape:connector-curvature="0" />
	<path style="fill:none;stroke:red;stroke-width:1px;stroke-linecap:butt;stroke-linejoin:miter;stroke-opacity:1" d="M 248.392,119.461 258.014,119.461 z" id="boundary" inkscape:connector-curvature="0" />
	<path style="fill:none;stroke:red;stroke-width:1px;stroke-linecap:butt;stroke-linejoin:miter;stroke-opacity:1" d="M 253.203,283.992 262.824,283.992 z" id="boundary" inkscape:connector-curvature="0" />
	<path style="fill:none;stroke:red;stroke-width:1px;stroke-linecap:butt;stroke-linejoin:miter;stroke-opacity:1" d="M 258.014,119.461 267.635,119.461 z" id="boundary" inkscape:connector-curvature="0" />
	<path style="fill:none;stroke:red;stroke-width:1px;stroke-linecap:butt;stroke-linejoin:miter;stroke-opacity:1" d="M 262.824,283.992 272.446,283.992 z" id="boundary" inkscape:connector-curvature="0" />
	<path style="fill:none;stroke:red;stroke-width:1px;stroke-linecap:butt;stroke-linejoin:miter;stroke-opacity:1" d="M 267.635,119.461 277.257,119.461 z" id="boundary" inkscape:connector-curvature="0" />
	<path style="fill:none;stroke:red;stroke-width:1px;stroke-linecap:butt;stroke-linejoin:miter;stroke-opacity:1" d="M 272.446,283.992 282.068,283.992 z" id="boundary" inkscape:connector-curvature="0" />
	<path style="fill:none;stroke:red;stroke-width:1px;stroke-linecap:butt;stroke-linejoin:miter;stroke-opacity:1" d="M 277.257,119.461 286.879,119.461 z" id="boundary" inkscape:connector-curvature="0" />
	<path style="fill:none;stroke:red;stroke-width:1px;stroke-linecap:butt;stroke-linejoin:miter;stroke-opacity:1" d="M 282.068,283.992 291.69,283.992 z" id="boundary" inkscape:connector-curvature="0" />
	<path style="fill:none;stroke:red;stroke-width:1px;stroke-linecap:butt;stroke-linejoin:miter;stroke-opacity:1" d="M 286.879,119.461 296.5,119.461 z" id="boundary" inkscape:connector-curvature="0" />
	<path style="fill:none;stroke:red;stroke-width:1px;stroke-linecap:butt;stroke-linejoin:miter;stroke-opacity:1" d="M 291.69,283.992 301.311,283.992 z" id="boundary" inkscape:connector-curvature="0" />
	<path style="fill:none;stroke:red;stroke-width:1px;stroke-linecap:butt;stroke-linejoin:miter;stroke-opacity:1" d="M 296.5,119.461 306.122,119.461 z" id="boundary" inkscape:connector-curvature="0" />
	<path style="fill:none;stroke:red;stroke-width:1px;stroke-linecap:butt;stroke-linejoin:miter;stroke-opacity:1" d="M 301.311,283.992 309.971,288.803 z" id="boundary" inkscape:connector-curvature="0" />
	<path style="fill:none;stroke:red;stroke-width:1px;stroke-linecap:butt;stroke-linejoin:miter;stroke-opacity:1" d="M 306.122,119.461 315.744,119.461 z" id="boundary" inkscape:connector-curvature="0" />
	<path style="fill:none;stroke:red;stroke-width:1px;stroke-linecap:butt;stroke-linejoin:miter;stroke-opacity:1" d="M 307.084,338.836 307.084,348.458 z" id="boundary" inkscape:connector-curvature="0" />
	<path style="fill:none;stroke:red;stroke-width:1px;stroke-linecap:butt;stroke-linejoin:miter;stroke-opacity:1" d="M 307.084,338.836 311.895,329.214 z" id="boundary" inkscape:connector-curvature="0" />
	<path style="fill:none;stroke:red;stroke-width:1px;stroke-linecap:butt;stroke-linejoin:miter;stroke-opacity:1" d="M 307.084,348.458 307.084,358.08 z" id="boundary" inkscape:connector-curvature="0" />
	<path style="fill:none;stroke:red;stroke-width:1px;stroke-linecap:butt;stroke-linejoin:miter;stroke-opacity:1" d="M 307.084,358.08 314.782,364.815 z" id="boundary" inkscape:connector-curvature="0" />
	<path style="fill:none;stroke:red;stroke-width:1px;stroke-linecap:butt;stroke-linejoin:miter;stroke-opacity:1" d="M 309.971,288.803 316.706,296.5 z" id="boundary" inkscape:connector-curvature="0" />
	<path style="fill:none;stroke:red;stroke-width:1px;stroke-linecap:butt;stroke-linejoin:miter;stroke-opacity:1" d="M 311.895,329.214 316.706,315.744 z" id="boundary" inkscape:connector-curvature="0" />
	<path style="fill:none;stroke:red;stroke-width:1px;stroke-linecap:butt;stroke-linejoin:miter;stroke-opacity:1" d="M 314.782,364.815 322.479,370.588 z" id="boundary" inkscape:connector-curvature="0" />
	<path style="fill:none;stroke:red;stroke-width:1px;stroke-linecap:butt;stroke-linejoin:miter;stroke-opacity:1" d="M 315.744,119.461 325.366,119.461 z" id="boundary" inkscape:connector-curvature="0" />
	<path style="fill:none;stroke:red;stroke-width:1px;stroke-linecap:butt;stroke-linejoin:miter;stroke-opacity:1" d="M 316.706,296.5 316.706,306.122 z" id="boundary" inkscape:connector-curvature="0" />
	<path style="fill:none;stroke:red;stroke-width:1px;stroke-linecap:butt;stroke-linejoin:miter;stroke-opacity:1" d="M 316.706,306.122 316.706,315.744 z" id="boundary" inkscape:connector-curvature="0" />
	<path style="fill:none;stroke:red;stroke-width:1px;stroke-linecap:butt;stroke-linejoin:miter;stroke-opacity:1" d="M 322.479,370.588 332.101,370.588 z" id="boundary" inkscape:connector-curvature="0" />
	<path style="fill:none;stroke:red;stroke-width:1px;stroke-linecap:butt;stroke-linejoin:miter;stroke-opacity:1" d="M 325.366,119.461 334.987,120.423 z" id="boundary" inkscape:connector-curvature="0" />
	<path style="fill:none;stroke:red;stroke-width:1px;stroke-linecap:butt;stroke-linejoin:miter;stroke-opacity:1" d="M 332.101,370.588 341.723,370.588 z" id="boundary" inkscape:connector-curvature="0" />
	<path style="fill:none;stroke:red;stroke-width:1px;stroke-linecap:butt;stroke-linejoin:miter;stroke-opacity:1" d="M 334.987,120.423 344.609,124.272 z" id="boundary" inkscape:connector-curvature="0" />
	<path style="fill:none;stroke:red;stroke-width:1px;stroke-linecap:butt;stroke-linejoin:miter;stroke-opacity:1" d="M 341.723,370.588 351.344,370.588 z" id="boundary" inkscape:connector-curvature="0" />
	<path style="fill:none;stroke:red;stroke-width:1px;stroke-linecap:butt;stroke-linejoin:miter;stroke-opacity:1" d="M 344.609,124.272 353.269,129.082 z" id="boundary" inkscape:connector-curvature="0" />
	<path style="fill:none;stroke:red;stroke-width:1px;stroke-linecap:butt;stroke-linejoin:miter;stroke-opacity:1" d="M 351.344,370.588 360.966,365.777 z" id="boundary" inkscape:connector-curvature="0" />
	<path style="fill:none;stroke:red;stroke-width:1px;stroke-linecap:butt;stroke-linejoin:miter;stroke-opacity:1" d="M 353.269,129.082 362.89,129.082 z" id="boundary" inkscape:connector-curvature="0" />
	<path style="fill:none;stroke:red;stroke-width:1px;stroke-linecap:butt;stroke-linejoin:miter;stroke-opacity:1" d="M 360.966,365.777 368.663,359.042 z" id="boundary" inkscape:connector-curvature="0" />
	<path style="fill:none;stroke:red;stroke-width:1px;stroke-linecap:butt;stroke-linejoin:miter;stroke-opacity:1" d="M 362.89,129.082 371.55,133.893 z" id="boundary" inkscape:connector-curvature="0" />
	<path style="fill:none;stroke:red;stroke-width:1px;stroke-linecap:butt;stroke-linejoin:miter;stroke-opacity:1" d="M 368.663,359.042 373.474,349.42 z" id="boundary" inkscape:connector-curvature="0" />
	<path style="fill:none;stroke:red;stroke-width:1px;stroke-linecap:butt;stroke-linejoin:miter;stroke-opacity:1" d="M 371.55,133.893 380.21,138.704 z" id="boundary" inkscape:connector-curvature="0" />
	<path style="fill:none;stroke:red;stroke-width:1px;stroke-linecap:butt;stroke-linejoin:miter;stroke-opacity:1" d="M 373.474,349.42 377.323,336.912 z" id="boundary" inkscape:connector-curvature="0" />
	<path style="fill:none;stroke:red;stroke-width:1px;stroke-linecap:butt;stroke-linejoin:miter;stroke-opacity:1" d="M 375.399,288.803 375.399,298.425 z" id="boundary" inkscape:connector-curvature="0" />
	<path style="fill:none;stroke:red;stroke-width:1px;stroke-linecap:butt;stroke-linejoin:miter;stroke-opacity:1" d="M 375.399,288.803 385.02,288.803 z" id="boundary" inkscape:connector-curvature="0" />
	<path style="fill:none;stroke:red;stroke-width:1px;stroke-linecap:butt;stroke-linejoin:miter;stroke-opacity:1" d="M 375.399,298.425 375.399,308.047 z" id="boundary" inkscape:connector-curvature="0" />
	<path style="fill:none;stroke:red;stroke-width:1px;stroke-linecap:butt;stroke-linejoin:miter;stroke-opacity:1" d="M 375.399,308.047 375.399,317.668 z" id="boundary" inkscape:connector-curvature="0" />
	<path style="fill:none;stroke:red;stroke-width:1px;stroke-linecap:butt;stroke-linejoin:miter;stroke-opacity:1" d="M 375.399,317.668 375.399,327.29 z" id="boundary" inkscape:connector-curvature="0" />
	<path style="fill:none;stroke:red;stroke-width:1px;stroke-linecap:butt;stroke-linejoin:miter;stroke-opacity:1" d="M 375.399,327.29 377.323,336.912 z" id="boundary" inkscape:connector-curvature="0" />
	<path style="fill:none;stroke:red;stroke-width:1px;stroke-linecap:butt;stroke-linejoin:miter;stroke-opacity:1" d="M 380.21,138.704 385.02,147.364 z" id="boundary" inkscape:connector-curvature="0" />
	<path style="fill:none;stroke:red;stroke-width:1px;stroke-linecap:butt;stroke-linejoin:miter;stroke-opacity:1" d="M 385.02,147.364 389.831,156.023 z" id="boundary" inkscape:connector-curvature="0" />
	<path style="fill:none;stroke:red;stroke-width:1px;stroke-linecap:butt;stroke-linejoin:miter;stroke-opacity:1" d="M 385.02,288.803 394.642,288.803 z" id="boundary" inkscape:connector-curvature="0" />
	<path style="fill:none;stroke:red;stroke-width:1px;stroke-linecap:butt;stroke-linejoin:miter;stroke-opacity:1" d="M 389.831,156.023 393.68,165.645 z" id="boundary" inkscape:connector-curvature="0" />
	<path style="fill:none;stroke:red;stroke-width:1px;stroke-linecap:butt;stroke-linejoin:miter;stroke-opacity:1" d="M 393.68,165.645 394.642,175.267 z" id="boundary" inkscape:connector-curvature="0" />
	<path style="fill:none;stroke:red;stroke-width:1px;stroke-linecap:butt;stroke-linejoin:miter;stroke-opacity:1" d="M 394.642,175.267 394.642,184.888 z" id="boundary" inkscape:connector-curvature="0" />
	<path style="fill:none;stroke:red;stroke-width:1px;stroke-linecap:butt;stroke-linejoin:miter;stroke-opacity:1" d="M 394.642,184.888 399.453,193.548 z" id="boundary" inkscape:connector-curvature="0" />
	<path style="fill:none;stroke:red;stroke-width:1px;stroke-linecap:butt;stroke-linejoin:miter;stroke-opacity:1" d="M 394.642,288.803 404.264,288.803 z" id="boundary" inkscape:connector-curvature="0" />
	<path style="fill:none;stroke:red;stroke-width:1px;stroke-linecap:butt;stroke-linejoin:miter;stroke-opacity:1" d="M 399.453,193.548 399.453,203.17 z" id="boundary" inkscape:connector-curvature="0" />
	<path style="fill:none;stroke:red;stroke-width:1px;stroke-linecap:butt;stroke-linejoin:miter;stroke-opacity:1" d="M 399.453,203.17 404.264,211.829 z" id="boundary" inkscape:connector-curvature="0" />
	<path style="fill:none;stroke:red;stroke-width:1px;stroke-linecap:butt;stroke-linejoin:miter;stroke-opacity:1" d="M 404.264,211.829 413.886,215.678 z" id="boundary" inkscape:connector-curvature="0" />
	<path style="fill:none;stroke:red;stroke-width:1px;stroke-linecap:butt;stroke-linejoin:miter;stroke-opacity:1" d="M 404.264,288.803 413.886,288.803 z" id="boundary" inkscape:connector-curvature="0" />
	<path style="fill:none;stroke:red;stroke-width:1px;stroke-linecap:butt;stroke-linejoin:miter;stroke-opacity:1" d="M 413.886,215.678 423.507,215.678 z" id="boundary" inkscape:connector-curvature="0" />
	<path style="fill:none;stroke:red;stroke-width:1px;stroke-linecap:butt;stroke-linejoin:miter;stroke-opacity:1" d="M 413.886,288.803 423.507,288.803 z" id="boundary" inkscape:connector-curvature="0" />
	<path style="fill:none;stroke:red;stroke-width:1px;stroke-linecap:butt;stroke-linejoin:miter;stroke-opacity:1" d="M 423.507,215.678 433.129,215.678 z" id="boundary" inkscape:connector-curvature="0" />
	<path style="fill:none;stroke:red;stroke-width:1px;stroke-linecap:butt;stroke-linejoin:miter;stroke-opacity:1" d="M 423.507,288.803 427.356,298.425 z" id="boundary" inkscape:connector-curvature="0" />
	<path style="fill:none;stroke:red;stroke-width:1px;stroke-linecap:butt;stroke-linejoin:miter;stroke-opacity:1" d="M 427.356,298.425 427.356,308.047 z" id="boundary" inkscape:connector-curvature="0" />
	<path style="fill:none;stroke:red;stroke-width:1px;stroke-linecap:butt;stroke-linejoin:miter;stroke-opacity:1" d="M 427.356,308.047 427.356,317.668 z" id="boundary" inkscape:connector-curvature="0" />
	<path style="fill:none;stroke:red;stroke-width:1px;stroke-linecap:butt;stroke-linejoin:miter;stroke-opacity:1" d="M 427.356,317.668 427.356,327.29 z" id="boundary" inkscape:connector-curvature="0" />
	<path style="fill:none;stroke:red;stroke-width:1px;stroke-linecap:butt;stroke-linejoin:miter;stroke-opacity:1" d="M 427.356,327.29 427.356,336.912 z" id="boundary" inkscape:connector-curvature="0" />
	<path style="fill:none;stroke:red;stroke-width:1px;stroke-linecap:butt;stroke-linejoin:miter;stroke-opacity:1" d="M 427.356,336.912 427.356,346.533 z" id="boundary" inkscape:connector-curvature="0" />
	<path style="fill:none;stroke:red;stroke-width:1px;stroke-linecap:butt;stroke-linejoin:miter;stroke-opacity:1" d="M 427.356,346.533 427.356,356.155 z" id="boundary" inkscape:connector-curvature="0" />
	<path style="fill:none;stroke:red;stroke-width:1px;stroke-linecap:butt;stroke-linejoin:miter;stroke-opacity:1" d="M 427.356,356.155 432.167,364.815 z" id="boundary" inkscape:connector-curvature="0" />
	<path style="fill:none;stroke:red;stroke-width:1px;stroke-linecap:butt;stroke-linejoin:miter;stroke-opacity:1" d="M 432.167,364.815 436.978,373.474 z" id="boundary" inkscape:connector-curvature="0" />
	<path style="fill:none;stroke:red;stroke-width:1px;stroke-linecap:butt;stroke-linejoin:miter;stroke-opacity:1" d="M 433.129,215.678 442.751,215.678 z" id="boundary" inkscape:connector-curvature="0" />
	<path style="fill:none;stroke:red;stroke-width:1px;stroke-linecap:butt;stroke-linejoin:miter;stroke-opacity:1" d="M 436.978,373.474 441.789,382.134 z" id="boundary" inkscape:connector-curvature="0" />
	<path style="fill:none;stroke:red;stroke-width:1px;stroke-linecap:butt;stroke-linejoin:miter;stroke-opacity:1" d="M 441.789,382.134 446.599,390.793 z" id="boundary" inkscape:connector-curvature="0" />
	<path style="fill:none;stroke:red;stroke-width:1px;stroke-linecap:butt;stroke-linejoin:miter;stroke-opacity:1" d="M 442.751,215.678 452.372,215.678 z" id="boundary" inkscape:connector-curvature="0" />
	<path style="fill:none;stroke:red;stroke-width:1px;stroke-linecap:butt;stroke-linejoin:miter;stroke-opacity:1" d="M 446.599,390.793 453.335,398.491 z" id="boundary" inkscape:connector-curvature="0" />
	<path style="fill:none;stroke:red;stroke-width:1px;stroke-linecap:butt;stroke-linejoin:miter;stroke-opacity:1" d="M 452.372,215.678 461.994,212.791 z" id="boundary" inkscape:connector-curvature="0" />
	<path style="fill:none;stroke:red;stroke-width:1px;stroke-linecap:butt;stroke-linejoin:miter;stroke-opacity:1" d="M 453.335,398.491 462.956,402.339 z" id="boundary" inkscape:connector-curvature="0" />
	<path style="fill:none;stroke:red;stroke-width:1px;stroke-linecap:butt;stroke-linejoin:miter;stroke-opacity:1" d="M 461.994,212.791 471.616,207.981 z" id="boundary" inkscape:connector-curvature="0" />
	<path style="fill:none;stroke:red;stroke-width:1px;stroke-linecap:butt;stroke-linejoin:miter;stroke-opacity:1" d="M 462.956,402.339 471.616,407.15 z" id="boundary" inkscape:connector-curvature="0" />
	<path style="fill:none;stroke:red;stroke-width:1px;stroke-linecap:butt;stroke-linejoin:miter;stroke-opacity:1" d="M 471.616,207.981 481.238,206.056 z" id="boundary" inkscape:connector-curvature="0" />
	<path style="fill:none;stroke:red;stroke-width:1px;stroke-linecap:butt;stroke-linejoin:miter;stroke-opacity:1" d="M 471.616,407.15 481.238,410.999 z" id="boundary" inkscape:connector-curvature="0" />
	<path style="fill:none;stroke:red;stroke-width:1px;stroke-linecap:butt;stroke-linejoin:miter;stroke-opacity:1" d="M 481.238,206.056 489.897,201.245 z" id="boundary" inkscape:connector-curvature="0" />
	<path style="fill:none;stroke:red;stroke-width:1px;stroke-linecap:butt;stroke-linejoin:miter;stroke-opacity:1" d="M 481.238,410.999 490.859,413.886 z" id="boundary" inkscape:connector-curvature="0" />
	<path style="fill:none;stroke:red;stroke-width:1px;stroke-linecap:butt;stroke-linejoin:miter;stroke-opacity:1" d="M 489.897,201.245 499.519,194.51 z" id="boundary" inkscape:connector-curvature="0" />
	<path style="fill:none;stroke:red;stroke-width:1px;stroke-linecap:butt;stroke-linejoin:miter;stroke-opacity:1" d="M 490.859,413.886 500.481,413.886 z" id="boundary" inkscape:connector-curvature="0" />
	<path style="fill:none;stroke:red;stroke-width:1px;stroke-linecap:butt;stroke-linejoin:miter;stroke-opacity:1" d="M 499.519,127.158 499.519,136.78 z" id="boundary" inkscape:connector-curvature="0" />
	<path style="fill:none;stroke:red;stroke-width:1px;stroke-linecap:butt;stroke-linejoin:miter;stroke-opacity:1" d="M 499.519,127.158 504.33,117.536 z" id="boundary" inkscape:connector-curvature="0" />
	<path style="fill:none;stroke:red;stroke-width:1px;stroke-linecap:butt;stroke-linejoin:miter;stroke-opacity:1" d="M 499.519,136.78 499.519,146.402 z" id="boundary" inkscape:connector-curvature="0" />
	<path style="fill:none;stroke:red;stroke-width:1px;stroke-linecap:butt;stroke-linejoin:miter;stroke-opacity:1" d="M 499.519,146.402 499.519,156.023 z" id="boundary" inkscape:connector-curvature="0" />
	<path style="fill:none;stroke:red;stroke-width:1px;stroke-linecap:butt;stroke-linejoin:miter;stroke-opacity:1" d="M 499.519,156.023 499.519,165.645 z" id="boundary" inkscape:connector-curvature="0" />
	<path style="fill:none;stroke:red;stroke-width:1px;stroke-linecap:butt;stroke-linejoin:miter;stroke-opacity:1" d="M 499.519,165.645 499.519,175.267 z" id="boundary" inkscape:connector-curvature="0" />
	<path style="fill:none;stroke:red;stroke-width:1px;stroke-linecap:butt;stroke-linejoin:miter;stroke-opacity:1" d="M 499.519,175.267 499.519,184.888 z" id="boundary" inkscape:connector-curvature="0" />
	<path style="fill:none;stroke:red;stroke-width:1px;stroke-linecap:butt;stroke-linejoin:miter;stroke-opacity:1" d="M 499.519,184.888 499.519,194.51 z" id="boundary" inkscape:connector-curvature="0" />
	<path style="fill:none;stroke:red;stroke-width:1px;stroke-linecap:butt;stroke-linejoin:miter;stroke-opacity:1" d="M 500.481,413.886 509.141,418.696 z" id="boundary" inkscape:connector-curvature="0" />
	<path style="fill:none;stroke:red;stroke-width:1px;stroke-linecap:butt;stroke-linejoin:miter;stroke-opacity:1" d="M 504.33,117.536 509.141,107.915 z" id="boundary" inkscape:connector-curvature="0" />
	<path style="fill:none;stroke:red;stroke-width:1px;stroke-linecap:butt;stroke-linejoin:miter;stroke-opacity:1" d="M 509.141,107.915 516.838,100.217 z" id="boundary" inkscape:connector-curvature="0" />
	<path style="fill:none;stroke:red;stroke-width:1px;stroke-linecap:butt;stroke-linejoin:miter;stroke-opacity:1" d="M 509.141,418.696 517.8,423.507 z" id="boundary" inkscape:connector-curvature="0" />
	<path style="fill:none;stroke:red;stroke-width:1px;stroke-linecap:butt;stroke-linejoin:miter;stroke-opacity:1" d="M 516.838,100.217 525.498,95.4064 z" id="boundary" inkscape:connector-curvature="0" />
	<path style="fill:none;stroke:red;stroke-width:1px;stroke-linecap:butt;stroke-linejoin:miter;stroke-opacity:1" d="M 517.8,423.507 527.422,423.507 z" id="boundary" inkscape:connector-curvature="0" />
	<path style="fill:none;stroke:red;stroke-width:1px;stroke-linecap:butt;stroke-linejoin:miter;stroke-opacity:1" d="M 525.498,95.4064 534.157,90.5955 z" id="boundary" inkscape:connector-curvature="0" />
	<path style="fill:none;stroke:red;stroke-width:1px;stroke-linecap:butt;stroke-linejoin:miter;stroke-opacity:1" d="M 527.422,423.507 537.044,423.507 z" id="boundary" inkscape:connector-curvature="0" />
	<path style="fill:none;stroke:red;stroke-width:1px;stroke-linecap:butt;stroke-linejoin:miter;stroke-opacity:1" d="M 534.157,90.5955 538.006,74.2386 z" id="boundary" inkscape:connector-curvature="0" />
	<path style="fill:none;stroke:red;stroke-width:1px;stroke-linecap:butt;stroke-linejoin:miter;stroke-opacity:1" d="M 537.044,423.507 545.703,418.696 z" id="boundary" inkscape:connector-curvature="0" />
	<path style="fill:none;stroke:red;stroke-width:1px;stroke-linecap:butt;stroke-linejoin:miter;stroke-opacity:1" d="M 538.006,35.7517 538.006,45.3734 z" id="boundary" inkscape:connector-curvature="0" />
	<path style="fill:none;stroke:red;stroke-width:1px;stroke-linecap:butt;stroke-linejoin:miter;stroke-opacity:1" d="M 538.006,35.7517 542.817,26.13 z" id="boundary" inkscape:connector-curvature="0" />
	<path style="fill:none;stroke:red;stroke-width:1px;stroke-linecap:butt;stroke-linejoin:miter;stroke-opacity:1" d="M 538.006,45.3734 538.006,54.9952 z" id="boundary" inkscape:connector-curvature="0" />
	<path style="fill:none;stroke:red;stroke-width:1px;stroke-linecap:butt;stroke-linejoin:miter;stroke-opacity:1" d="M 538.006,54.9952 538.006,64.6169 z" id="boundary" inkscape:connector-curvature="0" />
	<path style="fill:none;stroke:red;stroke-width:1px;stroke-linecap:butt;stroke-linejoin:miter;stroke-opacity:1" d="M 538.006,64.6169 538.006,74.2386 z" id="boundary" inkscape:connector-curvature="0" />
	<path style="fill:none;stroke:red;stroke-width:1px;stroke-linecap:butt;stroke-linejoin:miter;stroke-opacity:1" d="M 542.817,26.13 547.628,16.5082 z" id="boundary" inkscape:connector-curvature="0" />
	<path style="fill:none;stroke:red;stroke-width:1px;stroke-linecap:butt;stroke-linejoin:miter;stroke-opacity:1" d="M 545.703,418.696 554.363,413.886 z" id="boundary" inkscape:connector-curvature="0" />
	<path style="fill:none;stroke:red;stroke-width:1px;stroke-linecap:butt;stroke-linejoin:miter;stroke-opacity:1" d="M 547.628,16.5082 552.438,6.88652 z" id="boundary" inkscape:connector-curvature="0" />
	<path style="fill:none;stroke:red;stroke-width:1px;stroke-linecap:butt;stroke-linejoin:miter;stroke-opacity:1" d="M 552.438,6.88652 562.06,4 z" id="boundary" inkscape:connector-curvature="0" />
	<path style="fill:none;stroke:red;stroke-width:1px;stroke-linecap:butt;stroke-linejoin:miter;stroke-opacity:1" d="M 554.363,413.886 562.06,406.188 z" id="boundary" inkscape:connector-curvature="0" />
	<path style="fill:none;stroke:red;stroke-width:1px;stroke-linecap:butt;stroke-linejoin:miter;stroke-opacity:1" d="M 562.06,4 571.682,5.92435 z" id="boundary" inkscape:connector-curvature="0" />
	<path style="fill:none;stroke:red;stroke-width:1px;stroke-linecap:butt;stroke-linejoin:miter;stroke-opacity:1" d="M 562.06,406.188 566.871,396.566 z" id="boundary" inkscape:connector-curvature="0" />
	<path style="fill:none;stroke:red;stroke-width:1px;stroke-linecap:butt;stroke-linejoin:miter;stroke-opacity:1" d="M 566.871,396.566 571.682,386.945 z" id="boundary" inkscape:connector-curvature="0" />
	<path style="fill:none;stroke:red;stroke-width:1px;stroke-linecap:butt;stroke-linejoin:miter;stroke-opacity:1" d="M 571.682,5.92435 577.455,13.6217 z" id="boundary" inkscape:connector-curvature="0" />
	<path style="fill:none;stroke:red;stroke-width:1px;stroke-linecap:butt;stroke-linejoin:miter;stroke-opacity:1" d="M 571.682,386.945 577.455,375.399 z" id="boundary" inkscape:connector-curvature="0" />
	<path style="fill:none;stroke:red;stroke-width:1px;stroke-linecap:butt;stroke-linejoin:miter;stroke-opacity:1" d="M 577.455,13.6217 582.266,22.2813 z" id="boundary" inkscape:connector-curvature="0" />
	<path style="fill:none;stroke:red;stroke-width:1px;stroke-linecap:butt;stroke-linejoin:miter;stroke-opacity:1" d="M 577.455,375.399 582.266,360.966 z" id="boundary" inkscape:connector-curvature="0" />
	<path style="fill:none;stroke:red;stroke-width:1px;stroke-linecap:butt;stroke-linejoin:miter;stroke-opacity:1" d="M 582.266,22.2813 589.963,29.0165 z" id="boundary" inkscape:connector-curvature="0" />
	<path style="fill:none;stroke:red;stroke-width:1px;stroke-linecap:butt;stroke-linejoin:miter;stroke-opacity:1" d="M 582.266,226.262 582.266,235.884 z" id="boundary" inkscape:connector-curvature="0" />
	<path style="fill:none;stroke:red;stroke-width:1px;stroke-linecap:butt;stroke-linejoin:miter;stroke-opacity:1" d="M 582.266,226.262 591.887,226.262 z" id="boundary" inkscape:connector-curvature="0" />
	<path style="fill:none;stroke:red;stroke-width:1px;stroke-linecap:butt;stroke-linejoin:miter;stroke-opacity:1" d="M 582.266,235.884 582.266,245.505 z" id="boundary" inkscape:connector-curvature="0" />
	<path style="fill:none;stroke:red;stroke-width:1px;stroke-linecap:butt;stroke-linejoin:miter;stroke-opacity:1" d="M 582.266,245.505 582.266,255.127 z" id="boundary" inkscape:connector-curvature="0" />
	<path style="fill:none;stroke:red;stroke-width:1px;stroke-linecap:butt;stroke-linejoin:miter;stroke-opacity:1" d="M 582.266,255.127 582.266,264.749 z" id="boundary" inkscape:connector-curvature="0" />
	<path style="fill:none;stroke:red;stroke-width:1px;stroke-linecap:butt;stroke-linejoin:miter;stroke-opacity:1" d="M 582.266,264.749 582.266,274.371 z" id="boundary" inkscape:connector-curvature="0" />
	<path style="fill:none;stroke:red;stroke-width:1px;stroke-linecap:butt;stroke-linejoin:miter;stroke-opacity:1" d="M 582.266,274.371 582.266,283.992 z" id="boundary" inkscape:connector-curvature="0" />
	<path style="fill:none;stroke:red;stroke-width:1px;stroke-linecap:butt;stroke-linejoin:miter;stroke-opacity:1" d="M 582.266,283.992 582.266,293.614 z" id="boundary" inkscape:connector-curvature="0" />
	<path style="fill:none;stroke:red;stroke-width:1px;stroke-linecap:butt;stroke-linejoin:miter;stroke-opacity:1" d="M 582.266,293.614 582.266,303.236 z" id="boundary" inkscape:connector-curvature="0" />
	<path style="fill:none;stroke:red;stroke-width:1px;stroke-linecap:butt;stroke-linejoin:miter;stroke-opacity:1" d="M 582.266,303.236 582.266,312.857 z" id="boundary" inkscape:connector-curvature="0" />
	<path style="fill:none;stroke:red;stroke-width:1px;stroke-linecap:butt;stroke-linejoin:miter;stroke-opacity:1" d="M 582.266,312.857 582.266,322.479 z" id="boundary" inkscape:connector-curvature="0" />
	<path style="fill:none;stroke:red;stroke-width:1px;stroke-linecap:butt;stroke-linejoin:miter;stroke-opacity:1" d="M 582.266,322.479 582.266,332.101 z" id="boundary" inkscape:connector-curvature="0" />
	<path style="fill:none;stroke:red;stroke-width:1px;stroke-linecap:butt;stroke-linejoin:miter;stroke-opacity:1" d="M 582.266,332.101 582.266,341.723 z" id="boundary" inkscape:connector-curvature="0" />
	<path style="fill:none;stroke:red;stroke-width:1px;stroke-linecap:butt;stroke-linejoin:miter;stroke-opacity:1" d="M 582.266,341.723 582.266,351.344 z" id="boundary" inkscape:connector-curvature="0" />
	<path style="fill:none;stroke:red;stroke-width:1px;stroke-linecap:butt;stroke-linejoin:miter;stroke-opacity:1" d="M 582.266,351.344 582.266,360.966 z" id="boundary" inkscape:connector-curvature="0" />
	<path style="fill:none;stroke:red;stroke-width:1px;stroke-linecap:butt;stroke-linejoin:miter;stroke-opacity:1" d="M 589.963,29.0165 596.698,36.7139 z" id="boundary" inkscape:connector-curvature="0" />
	<path style="fill:none;stroke:red;stroke-width:1px;stroke-linecap:butt;stroke-linejoin:miter;stroke-opacity:1" d="M 591.887,226.262 601.509,226.262 z" id="boundary" inkscape:connector-curvature="0" />
	<path style="fill:none;stroke:red;stroke-width:1px;stroke-linecap:butt;stroke-linejoin:miter;stroke-opacity:1" d="M 596.698,36.7139 601.509,45.3734 z" id="boundary" inkscape:connector-curvature="0" />
	<path style="fill:none;stroke:red;stroke-width:1px;stroke-linecap:butt;stroke-linejoin:miter;stroke-opacity:1" d="M 601.509,45.3734 601.509,54.9952 z" id="boundary" inkscape:connector-curvature="0" />
	<path style="fill:none;stroke:red;stroke-width:1px;stroke-linecap:butt;stroke-linejoin:miter;stroke-opacity:1" d="M 601.509,54.9952 601.509,64.6169 z" id="boundary" inkscape:connector-curvature="0" />
	<path style="fill:none;stroke:red;stroke-width:1px;stroke-linecap:butt;stroke-linejoin:miter;stroke-opacity:1" d="M 601.509,64.6169 606.32,73.2764 z" id="boundary" inkscape:connector-curvature="0" />
	<path style="fill:none;stroke:red;stroke-width:1px;stroke-linecap:butt;stroke-linejoin:miter;stroke-opacity:1" d="M 601.509,226.262 611.131,226.262 z" id="boundary" inkscape:connector-curvature="0" />
	<path style="fill:none;stroke:red;stroke-width:1px;stroke-linecap:butt;stroke-linejoin:miter;stroke-opacity:1" d="M 606.32,73.2764 606.32,82.8982 z" id="boundary" inkscape:connector-curvature="0" />
	<path style="fill:none;stroke:red;stroke-width:1px;stroke-linecap:butt;stroke-linejoin:miter;stroke-opacity:1" d="M 606.32,82.8982 606.32,92.5199 z" id="boundary" inkscape:connector-curvature="0" />
	<path style="fill:none;stroke:red;stroke-width:1px;stroke-linecap:butt;stroke-linejoin:miter;stroke-opacity:1" d="M 606.32,92.5199 606.32,102.142 z" id="boundary" inkscape:connector-curvature="0" />
	<path style="fill:none;stroke:red;stroke-width:1px;stroke-linecap:butt;stroke-linejoin:miter;stroke-opacity:1" d="M 606.32,102.142 606.32,111.763 z" id="boundary" inkscape:connector-curvature="0" />
	<path style="fill:none;stroke:red;stroke-width:1px;stroke-linecap:butt;stroke-linejoin:miter;stroke-opacity:1" d="M 606.32,111.763 611.131,120.423 z" id="boundary" inkscape:connector-curvature="0" />
	<path style="fill:none;stroke:red;stroke-width:1px;stroke-linecap:butt;stroke-linejoin:miter;stroke-opacity:1" d="M 611.131,120.423 615.942,129.082 z" id="boundary" inkscape:connector-curvature="0" />
	<path style="fill:none;stroke:red;stroke-width:1px;stroke-linecap:butt;stroke-linejoin:miter;stroke-opacity:1" d="M 611.131,226.262 620.753,226.262 z" id="boundary" inkscape:connector-curvature="0" />
	<path style="fill:none;stroke:red;stroke-width:1px;stroke-linecap:butt;stroke-linejoin:miter;stroke-opacity:1" d="M 615.942,129.082 620.753,137.742 z" id="boundary" inkscape:connector-curvature="0" />
	<path style="fill:none;stroke:red;stroke-width:1px;stroke-linecap:butt;stroke-linejoin:miter;stroke-opacity:1" d="M 620.753,137.742 625.564,146.402 z" id="boundary" inkscape:connector-curvature="0" />
	<path style="fill:none;stroke:red;stroke-width:1px;stroke-linecap:butt;stroke-linejoin:miter;stroke-opacity:1" d="M 620.753,226.262 630.374,226.262 z" id="boundary" inkscape:connector-curvature="0" />
	<path style="fill:none;stroke:red;stroke-width:1px;stroke-linecap:butt;stroke-linejoin:miter;stroke-opacity:1" d="M 625.564,146.402 630.374,155.061 z" id="boundary" inkscape:connector-curvature="0" />
	<path style="fill:none;stroke:red;stroke-width:1px;stroke-linecap:butt;stroke-linejoin:miter;stroke-opacity:1" d="M 630.374,155.061 636.147,162.758 z" id="boundary" inkscape:connector-curvature="0" />
	<path style="fill:none;stroke:red;stroke-width:1px;stroke-linecap:butt;stroke-linejoin:miter;stroke-opacity:1" d="M 630.374,226.262 639.996,226.262 z" id="boundary" inkscape:connector-curvature="0" />
	<path style="fill:none;stroke:red;stroke-width:1px;stroke-linecap:butt;stroke-linejoin:miter;stroke-opacity:1" d="M 636.147,162.758 643.845,169.494 z" id="boundary" inkscape:connector-curvature="0" />
	<path style="fill:none;stroke:red;stroke-width:1px;stroke-linecap:butt;stroke-linejoin:miter;stroke-opacity:1" d="M 639.996,226.262 648.656,231.073 z" id="boundary" inkscape:connector-curvature="0" />
	<path style="fill:none;stroke:red;stroke-width:1px;stroke-linecap:butt;stroke-linejoin:miter;stroke-opacity:1" d="M 643.845,169.494 652.504,174.305 z" id="boundary" inkscape:connector-curvature="0" />
	<path style="fill:none;stroke:red;stroke-width:1px;stroke-linecap:butt;stroke-linejoin:miter;stroke-opacity:1" d="M 648.656,231.073 653.467,239.732 z" id="boundary" inkscape:connector-curvature="0" />
	<path style="fill:none;stroke:red;stroke-width:1px;stroke-linecap:butt;stroke-linejoin:miter;stroke-opacity:1" d="M 652.504,174.305 659.24,182.002 z" id="boundary" inkscape:connector-curvature="0" />
	<path style="fill:none;stroke:red;stroke-width:1px;stroke-linecap:butt;stroke-linejoin:miter;stroke-opacity:1" d="M 653.467,239.732 658.277,248.392 z" id="boundary" inkscape:connector-curvature="0" />
	<path style="fill:none;stroke:red;stroke-width:1px;stroke-linecap:butt;stroke-linejoin:miter;stroke-opacity:1" d="M 658.277,248.392 663.088,257.051 z" id="boundary" inkscape:connector-curvature="0" />
	<path style="fill:none;stroke:red;stroke-width:1px;stroke-linecap:butt;stroke-linejoin:miter;stroke-opacity:1" d="M 659.24,182.002 667.899,186.813 z" id="boundary" inkscape:connector-curvature="0" />
	<path style="fill:none;stroke:red;stroke-width:1px;stroke-linecap:butt;stroke-linejoin:miter;stroke-opacity:1" d="M 663.088,257.051 667.899,265.711 z" id="boundary" inkscape:connector-curvature="0" />
	<path style="fill:none;stroke:red;stroke-width:1px;stroke-linecap:butt;stroke-linejoin:miter;stroke-opacity:1" d="M 667.899,186.813 677.521,186.813 z" id="boundary" inkscape:connector-curvature="0" />
	<path style="fill:none;stroke:red;stroke-width:1px;stroke-linecap:butt;stroke-linejoin:miter;stroke-opacity:1" d="M 667.899,265.711 667.899,275.333 z" id="boundary" inkscape:connector-curvature="0" />
	<path style="fill:none;stroke:red;stroke-width:1px;stroke-linecap:butt;stroke-linejoin:miter;stroke-opacity:1" d="M 667.899,275.333 667.899,284.954 z" id="boundary" inkscape:connector-curvature="0" />
	<path style="fill:none;stroke:red;stroke-width:1px;stroke-linecap:butt;stroke-linejoin:miter;stroke-opacity:1" d="M 667.899,284.954 672.71,293.614 z" id="boundary" inkscape:connector-curvature="0" />
	<path style="fill:none;stroke:red;stroke-width:1px;stroke-linecap:butt;stroke-linejoin:miter;stroke-opacity:1" d="M 672.71,293.614 672.71,303.236 z" id="boundary" inkscape:connector-curvature="0" />
	<path style="fill:none;stroke:red;stroke-width:1px;stroke-linecap:butt;stroke-linejoin:miter;stroke-opacity:1" d="M 672.71,303.236 678.483,310.933 z" id="boundary" inkscape:connector-curvature="0" />
	<path style="fill:none;stroke:red;stroke-width:1px;stroke-linecap:butt;stroke-linejoin:miter;stroke-opacity:1" d="M 677.521,186.813 687.143,186.813 z" id="boundary" inkscape:connector-curvature="0" />
	<path style="fill:none;stroke:red;stroke-width:1px;stroke-linecap:butt;stroke-linejoin:miter;stroke-opacity:1" d="M 678.483,310.933 686.18,317.668 z" id="boundary" inkscape:connector-curvature="0" />
	<path style="fill:none;stroke:red;stroke-width:1px;stroke-linecap:butt;stroke-linejoin:miter;stroke-opacity:1" d="M 686.18,317.668 695.802,317.668 z" id="boundary" inkscape:connector-curvature="0" />
	<path style="fill:none;stroke:red;stroke-width:1px;stroke-linecap:butt;stroke-linejoin:miter;stroke-opacity:1" d="M 687.143,186.813 696.764,186.813 z" id="boundary" inkscape:connector-curvature="0" />
	<path style="fill:none;stroke:red;stroke-width:1px;stroke-linecap:butt;stroke-linejoin:miter;stroke-opacity:1" d="M 695.802,317.668 705.424,317.668 z" id="boundary" inkscape:connector-curvature="0" />
	<path style="fill:none;stroke:red;stroke-width:1px;stroke-linecap:butt;stroke-linejoin:miter;stroke-opacity:1" d="M 696.764,186.813 706.386,186.813 z" id="boundary" inkscape:connector-curvature="0" />
	<path style="fill:none;stroke:red;stroke-width:1px;stroke-linecap:butt;stroke-linejoin:miter;stroke-opacity:1" d="M 705.424,317.668 715.046,317.668 z" id="boundary" inkscape:connector-curvature="0" />
	<path style="fill:none;stroke:red;stroke-width:1px;stroke-linecap:butt;stroke-linejoin:miter;stroke-opacity:1" d="M 706.386,186.813 712.159,179.115 z" id="boundary" inkscape:connector-curvature="0" />
	<path style="fill:none;stroke:red;stroke-width:1px;stroke-linecap:butt;stroke-linejoin:miter;stroke-opacity:1" d="M 712.159,179.115 716.97,169.494 z" id="boundary" inkscape:connector-curvature="0" />
	<path style="fill:none;stroke:red;stroke-width:1px;stroke-linecap:butt;stroke-linejoin:miter;stroke-opacity:1" d="M 715.046,317.668 724.667,317.668 z" id="boundary" inkscape:connector-curvature="0" />
	<path style="fill:none;stroke:red;stroke-width:1px;stroke-linecap:butt;stroke-linejoin:miter;stroke-opacity:1" d="M 716.97,169.494 724.667,162.758 z" id="boundary" inkscape:connector-curvature="0" />
	<path style="fill:none;stroke:red;stroke-width:1px;stroke-linecap:butt;stroke-linejoin:miter;stroke-opacity:1" d="M 724.667,162.758 733.327,157.948 z" id="boundary" inkscape:connector-curvature="0" />
	<path style="fill:none;stroke:red;stroke-width:1px;stroke-linecap:butt;stroke-linejoin:miter;stroke-opacity:1" d="M 724.667,317.668 734.289,317.668 z" id="boundary" inkscape:connector-curvature="0" />
	<path style="fill:none;stroke:red;stroke-width:1px;stroke-linecap:butt;stroke-linejoin:miter;stroke-opacity:1" d="M 733.327,157.948 741.986,153.137 z" id="boundary" inkscape:connector-curvature="0" />
	<path style="fill:none;stroke:red;stroke-width:1px;stroke-linecap:butt;stroke-linejoin:miter;stroke-opacity:1" d="M 734.289,317.668 743.911,317.668 z" id="boundary" inkscape:connector-curvature="0" />
	<path style="fill:none;stroke:red;stroke-width:1px;stroke-linecap:butt;stroke-linejoin:miter;stroke-opacity:1" d="M 741.986,153.137 750.646,148.326 z" id="boundary" inkscape:connector-curvature="0" />
	<path style="fill:none;stroke:red;stroke-width:1px;stroke-linecap:butt;stroke-linejoin:miter;stroke-opacity:1" d="M 743.911,317.668 753.532,317.668 z" id="boundary" inkscape:connector-curvature="0" />
	<path style="fill:none;stroke:red;stroke-width:1px;stroke-linecap:butt;stroke-linejoin:miter;stroke-opacity:1" d="M 750.646,148.326 760.268,148.326 z" id="boundary" inkscape:connector-curvature="0" />
	<path style="fill:none;stroke:red;stroke-width:1px;stroke-linecap:butt;stroke-linejoin:miter;stroke-opacity:1" d="M 753.532,317.668 762.192,322.479 z" id="boundary" inkscape:connector-curvature="0" />
	<path style="fill:none;stroke:red;stroke-width:1px;stroke-linecap:butt;stroke-linejoin:miter;stroke-opacity:1" d="M 760.268,148.326 768.927,141.591 z" id="boundary" inkscape:connector-curvature="0" />
	<path style="fill:none;stroke:red;stroke-width:1px;stroke-linecap:butt;stroke-linejoin:miter;stroke-opacity:1" d="M 762.192,322.479 769.889,329.214 z" id="boundary" inkscape:connector-curvature="0" />
	<path style="fill:none;stroke:red;stroke-width:1px;stroke-linecap:butt;stroke-linejoin:miter;stroke-opacity:1" d="M 768.927,112.726 768.927,122.347 z" id="boundary" inkscape:connector-curvature="0" />
	<path style="fill:none;stroke:red;stroke-width:1px;stroke-linecap:butt;stroke-linejoin:miter;stroke-opacity:1" d="M 768.927,112.726 773.738,103.104 z" id="boundary" inkscape:connector-curvature="0" />
	<path style="fill:none;stroke:red;stroke-width:1px;stroke-linecap:butt;stroke-linejoin:miter;stroke-opacity:1" d="M 768.927,122.347 768.927,131.969 z" id="boundary" inkscape:connector-curvature="0" />
	<path style="fill:none;stroke:red;stroke-width:1px;stroke-linecap:butt;stroke-linejoin:miter;stroke-opacity:1" d="M 768.927,131.969 768.927,141.591 z" id="boundary" inkscape:connector-curvature="0" />
	<path style="fill:none;stroke:red;stroke-width:1px;stroke-linecap:butt;stroke-linejoin:miter;stroke-opacity:1" d="M 769.889,329.214 776.625,336.912 z" id="boundary" inkscape:connector-curvature="0" />
	<path style="fill:none;stroke:red;stroke-width:1px;stroke-linecap:butt;stroke-linejoin:miter;stroke-opacity:1" d="M 773.738,103.104 778.549,93.4821 z" id="boundary" inkscape:connector-curvature="0" />
	<path style="fill:none;stroke:red;stroke-width:1px;stroke-linecap:butt;stroke-linejoin:miter;stroke-opacity:1" d="M 776.625,336.912 778.549,346.533 z" id="boundary" inkscape:connector-curvature="0" />
	<path style="fill:none;stroke:red;stroke-width:1px;stroke-linecap:butt;stroke-linejoin:miter;stroke-opacity:1" d="M 778.549,93.4821 783.36,83.8603 z" id="boundary" inkscape:connector-curvature="0" />
	<path style="fill:none;stroke:red;stroke-width:1px;stroke-linecap:butt;stroke-linejoin:miter;stroke-opacity:1" d="M 778.549,346.533 783.36,355.193 z" id="boundary" inkscape:connector-curvature="0" />
	<path style="fill:none;stroke:red;stroke-width:1px;stroke-linecap:butt;stroke-linejoin:miter;stroke-opacity:1" d="M 783.36,83.8603 788.171,74.2386 z" id="boundary" inkscape:connector-curvature="0" />
	<path style="fill:none;stroke:red;stroke-width:1px;stroke-linecap:butt;stroke-linejoin:miter;stroke-opacity:1" d="M 783.36,355.193 783.36,364.815 z" id="boundary" inkscape:connector-curvature="0" />
	<path style="fill:none;stroke:red;stroke-width:1px;stroke-linecap:butt;stroke-linejoin:miter;stroke-opacity:1" d="M 783.36,364.815 788.171,373.474 z" id="boundary" inkscape:connector-curvature="0" />
	<path style="fill:none;stroke:red;stroke-width:1px;stroke-linecap:butt;stroke-linejoin:miter;stroke-opacity:1" d="M 788.171,74.2386 797.792,69.4277 z" id="boundary" inkscape:connector-curvature="0" />
	<path style="fill:none;stroke:red;stroke-width:1px;stroke-linecap:butt;stroke-linejoin:miter;stroke-opacity:1" d="M 788.171,373.474 792.982,382.134 z" id="boundary" inkscape:connector-curvature="0" />
	<path style="fill:none;stroke:red;stroke-width:1px;stroke-linecap:butt;stroke-linejoin:miter;stroke-opacity:1" d="M 792.982,382.134 798.755,389.831 z" id="boundary" inkscape:connector-curvature="0" />
	<path style="fill:none;stroke:red;stroke-width:1px;stroke-linecap:butt;stroke-linejoin:miter;stroke-opacity:1" d="M 797.792,69.4277 807.414,68.4656 z" id="boundary" inkscape:connector-curvature="0" />
	<path style="fill:none;stroke:red;stroke-width:1px;stroke-linecap:butt;stroke-linejoin:miter;stroke-opacity:1" d="M 798.755,389.831 807.414,394.642 z" id="boundary" inkscape:connector-curvature="0" />
	<path style="fill:none;stroke:red;stroke-width:1px;stroke-linecap:butt;stroke-linejoin:miter;stroke-opacity:1" d="M 807.414,68.4656 817.036,71.3521 z" id="boundary" inkscape:connector-curvature="0" />
	<path style="fill:none;stroke:red;stroke-width:1px;stroke-linecap:butt;stroke-linejoin:miter;stroke-opacity:1" d="M 807.414,394.642 816.074,399.453 z" id="boundary" inkscape:connector-curvature="0" />
	<path style="fill:none;stroke:red;stroke-width:1px;stroke-linecap:butt;stroke-linejoin:miter;stroke-opacity:1" d="M 816.074,399.453 825.695,399.453 z" id="boundary" inkscape:connector-curvature="0" />
	<path style="fill:none;stroke:red;stroke-width:1px;stroke-linecap:butt;stroke-linejoin:miter;stroke-opacity:1" d="M 817.036,71.3521 826.658,71.3521 z" id="boundary" inkscape:connector-curvature="0" />
	<path style="fill:none;stroke:red;stroke-width:1px;stroke-linecap:butt;stroke-linejoin:miter;stroke-opacity:1" d="M 825.695,399.453 835.317,399.453 z" id="boundary" inkscape:connector-curvature="0" />
	<path style="fill:none;stroke:red;stroke-width:1px;stroke-linecap:butt;stroke-linejoin:miter;stroke-opacity:1" d="M 826.658,71.3521 835.317,76.1629 z" id="boundary" inkscape:connector-curvature="0" />
	<path style="fill:none;stroke:red;stroke-width:1px;stroke-linecap:butt;stroke-linejoin:miter;stroke-opacity:1" d="M 835.317,76.1629 842.052,83.8603 z" id="boundary" inkscape:connector-curvature="0" />
	<path style="fill:none;stroke:red;stroke-width:1px;stroke-linecap:butt;stroke-linejoin:miter;stroke-opacity:1" d="M 835.317,399.453 843.977,404.264 z" id="boundary" inkscape:connector-curvature="0" />
	<path style="fill:none;stroke:red;stroke-width:1px;stroke-linecap:butt;stroke-linejoin:miter;stroke-opacity:1" d="M 842.052,83.8603 846.863,92.5199 z" id="boundary" inkscape:connector-curvature="0" />
	<path style="fill:none;stroke:red;stroke-width:1px;stroke-linecap:butt;stroke-linejoin:miter;stroke-opacity:1" d="M 843.977,404.264 853.598,408.113 z" id="boundary" inkscape:connector-curvature="0" />
	<path style="fill:none;stroke:red;stroke-width:1px;stroke-linecap:butt;stroke-linejoin:miter;stroke-opacity:1" d="M 846.863,92.5199 849.75,102.142 z" id="boundary" inkscape:connector-curvature="0" />
	<path style="fill:none;stroke:red;stroke-width:1px;stroke-linecap:butt;stroke-linejoin:miter;stroke-opacity:1" d="M 849.75,102.142 856.485,109.839 z" id="boundary" inkscape:connector-curvature="0" />
	<path style="fill:none;stroke:red;stroke-width:1px;stroke-linecap:butt;stroke-linejoin:miter;stroke-opacity:1" d="M 853.598,408.113 862.258,412.923 z" id="boundary" inkscape:connector-curvature="0" />
	<path style="fill:none;stroke:red;stroke-width:1px;stroke-linecap:butt;stroke-linejoin:miter;stroke-opacity:1" d="M 856.485,109.839 861.296,118.499 z" id="boundary" inkscape:connector-curvature="0" />
	<path style="fill:none;stroke:red;stroke-width:1px;stroke-linecap:butt;stroke-linejoin:miter;stroke-opacity:1" d="M 861.296,118.499 866.107,127.158 z" id="boundary" inkscape:connector-curvature="0" />
	<path style="fill:none;stroke:red;stroke-width:1px;stroke-linecap:butt;stroke-linejoin:miter;stroke-opacity:1" d="M 862.258,412.923 871.88,413.886 z" id="boundary" inkscape:connector-curvature="0" />
	<path style="fill:none;stroke:red;stroke-width:1px;stroke-linecap:butt;stroke-linejoin:miter;stroke-opacity:1" d="M 866.107,127.158 872.842,134.855 z" id="boundary" inkscape:connector-curvature="0" />
	<path style="fill:none;stroke:red;stroke-width:1px;stroke-linecap:butt;stroke-linejoin:miter;stroke-opacity:1" d="M 871.88,413.886 881.501,416.772 z" id="boundary" inkscape:connector-curvature="0" />
	<path style="fill:none;stroke:red;stroke-width:1px;stroke-linecap:butt;stroke-linejoin:miter;stroke-opacity:1" d="M 872.842,134.855 882.464,138.704 z" id="boundary" inkscape:connector-curvature="0" />
	<path style="fill:none;stroke:red;stroke-width:1px;stroke-linecap:butt;stroke-linejoin:miter;stroke-opacity:1" d="M 881.501,416.772 891.123,418.696 z" id="boundary" inkscape:connector-curvature="0" />
	<path style="fill:none;stroke:red;stroke-width:1px;stroke-linecap:butt;stroke-linejoin:miter;stroke-opacity:1" d="M 882.464,138.704 892.085,138.704 z" id="boundary" inkscape:connector-curvature="0" />
	<path style="fill:none;stroke:red;stroke-width:1px;stroke-linecap:butt;stroke-linejoin:miter;stroke-opacity:1" d="M 891.123,418.696 899.783,423.507 z" id="boundary" inkscape:connector-curvature="0" />
	<path style="fill:none;stroke:red;stroke-width:1px;stroke-linecap:butt;stroke-linejoin:miter;stroke-opacity:1" d="M 892.085,138.704 901.707,138.704 z" id="boundary" inkscape:connector-curvature="0" />
	<path style="fill:none;stroke:red;stroke-width:1px;stroke-linecap:butt;stroke-linejoin:miter;stroke-opacity:1" d="M 899.783,423.507 909.404,423.507 z" id="boundary" inkscape:connector-curvature="0" />
	<path style="fill:none;stroke:red;stroke-width:1px;stroke-linecap:butt;stroke-linejoin:miter;stroke-opacity:1" d="M 901.707,138.704 911.329,138.704 z" id="boundary" inkscape:connector-curvature="0" />
	<path style="fill:none;stroke:red;stroke-width:1px;stroke-linecap:butt;stroke-linejoin:miter;stroke-opacity:1" d="M 909.404,423.507 919.026,423.507 z" id="boundary" inkscape:connector-curvature="0" />
	<path style="fill:none;stroke:red;stroke-width:1px;stroke-linecap:butt;stroke-linejoin:miter;stroke-opacity:1" d="M 911.329,138.704 920.951,138.704 z" id="boundary" inkscape:connector-curvature="0" />
	<path style="fill:none;stroke:red;stroke-width:1px;stroke-linecap:butt;stroke-linejoin:miter;stroke-opacity:1" d="M 919.026,423.507 928.648,423.507 z" id="boundary" inkscape:connector-curvature="0" />
	<path style="fill:none;stroke:red;stroke-width:1px;stroke-linecap:butt;stroke-linejoin:miter;stroke-opacity:1" d="M 920.951,138.704 930.572,138.704 z" id="boundary" inkscape:connector-curvature="0" />
	<path style="fill:none;stroke:red;stroke-width:1px;stroke-linecap:butt;stroke-linejoin:miter;stroke-opacity:1" d="M 928.648,423.507 938.27,423.507 z" id="boundary" inkscape:connector-curvature="0" />
	<path style="fill:none;stroke:red;stroke-width:1px;stroke-linecap:butt;stroke-linejoin:miter;stroke-opacity:1" d="M 930.572,138.704 940.194,138.704 z" id="boundary" inkscape:connector-curvature="0" />
	<path style="fill:none;stroke:red;stroke-width:1px;stroke-linecap:butt;stroke-linejoin:miter;stroke-opacity:1" d="M 938.27,423.507 947.891,423.507 z" id="boundary" inkscape:connector-curvature="0" />
	<path style="fill:none;stroke:red;stroke-width:1px;stroke-linecap:butt;stroke-linejoin:miter;stroke-opacity:1" d="M 940.194,138.704 946.929,146.402 z" id="boundary" inkscape:connector-curvature="0" />
	<path style="fill:none;stroke:red;stroke-width:1px;stroke-linecap:butt;stroke-linejoin:miter;stroke-opacity:1" d="M 946.929,146.402 952.702,154.099 z" id="boundary" inkscape:connector-curvature="0" />
	<path style="fill:none;stroke:red;stroke-width:1px;stroke-linecap:butt;stroke-linejoin:miter;stroke-opacity:1" d="M 947.891,423.507 956.551,418.696 z" id="boundary" inkscape:connector-curvature="0" />
	<path style="fill:none;stroke:red;stroke-width:1px;stroke-linecap:butt;stroke-linejoin:miter;stroke-opacity:1" d="M 952.702,154.099 952.702,163.721 z" id="boundary" inkscape:connector-curvature="0" />
	<path style="fill:none;stroke:red;stroke-width:1px;stroke-linecap:butt;stroke-linejoin:miter;stroke-opacity:1" d="M 952.702,163.721 952.702,173.342 z" id="boundary" inkscape:connector-curvature="0" />
	<path style="fill:none;stroke:red;stroke-width:1px;stroke-linecap:butt;stroke-linejoin:miter;stroke-opacity:1" d="M 952.702,173.342 952.702,182.964 z" id="boundary" inkscape:connector-curvature="0" />
	<path style="fill:none;stroke:red;stroke-width:1px;stroke-linecap:butt;stroke-linejoin:miter;stroke-opacity:1" d="M 952.702,182.964 952.702,192.586 z" id="boundary" inkscape:connector-curvature="0" />
	<path style="fill:none;stroke:red;stroke-width:1px;stroke-linecap:butt;stroke-linejoin:miter;stroke-opacity:1" d="M 952.702,192.586 952.702,202.208 z" id="boundary" inkscape:connector-curvature="0" />
	<path style="fill:none;stroke:red;stroke-width:1px;stroke-linecap:butt;stroke-linejoin:miter;stroke-opacity:1" d="M 952.702,202.208 952.702,211.829 z" id="boundary" inkscape:connector-curvature="0" />
	<path style="fill:none;stroke:red;stroke-width:1px;stroke-linecap:butt;stroke-linejoin:miter;stroke-opacity:1" d="M 952.702,211.829 952.702,221.451 z" id="boundary" inkscape:connector-curvature="0" />
	<path style="fill:none;stroke:red;stroke-width:1px;stroke-linecap:butt;stroke-linejoin:miter;stroke-opacity:1" d="M 952.702,221.451 952.702,231.073 z" id="boundary" inkscape:connector-curvature="0" />
	<path style="fill:none;stroke:red;stroke-width:1px;stroke-linecap:butt;stroke-linejoin:miter;stroke-opacity:1" d="M 952.702,231.073 952.702,240.694 z" id="boundary" inkscape:connector-curvature="0" />
	<path style="fill:none;stroke:red;stroke-width:1px;stroke-linecap:butt;stroke-linejoin:miter;stroke-opacity:1" d="M 952.702,240.694 957.513,249.354 z" id="boundary" inkscape:connector-curvature="0" />
	<path style="fill:none;stroke:red;stroke-width:1px;stroke-linecap:butt;stroke-linejoin:miter;stroke-opacity:1" d="M 956.551,418.696 964.248,412.923 z" id="boundary" inkscape:connector-curvature="0" />
	<path style="fill:none;stroke:red;stroke-width:1px;stroke-linecap:butt;stroke-linejoin:miter;stroke-opacity:1" d="M 957.513,249.354 965.21,255.127 z" id="boundary" inkscape:connector-curvature="0" />
	<path style="fill:none;stroke:red;stroke-width:1px;stroke-linecap:butt;stroke-linejoin:miter;stroke-opacity:1" d="M 964.248,412.923 973.87,408.113 z" id="boundary" inkscape:connector-curvature="0" />
	<path style="fill:none;stroke:red;stroke-width:1px;stroke-linecap:butt;stroke-linejoin:miter;stroke-opacity:1" d="M 965.21,255.127 971.946,262.824 z" id="boundary" inkscape:connector-curvature="0" />
	<path style="fill:none;stroke:red;stroke-width:1px;stroke-linecap:butt;stroke-linejoin:miter;stroke-opacity:1" d="M 971.946,262.824 976.757,271.484 z" id="boundary" inkscape:connector-curvature="0" />
	<path style="fill:none;stroke:red;stroke-width:1px;stroke-linecap:butt;stroke-linejoin:miter;stroke-opacity:1" d="M 973.87,408.113 981.567,399.453 z" id="boundary" inkscape:connector-curvature="0" />
	<path style="fill:none;stroke:red;stroke-width:1px;stroke-linecap:butt;stroke-linejoin:miter;stroke-opacity:1" d="M 976.757,271.484 981.567,280.144 z" id="boundary" inkscape:connector-curvature="0" />
	<path style="fill:none;stroke:red;stroke-width:1px;stroke-linecap:butt;stroke-linejoin:miter;stroke-opacity:1" d="M 981.567,280.144 986.378,288.803 z" id="boundary" inkscape:connector-curvature="0" />
	<path style="fill:none;stroke:red;stroke-width:1px;stroke-linecap:butt;stroke-linejoin:miter;stroke-opacity:1" d="M 981.567,399.453 989.265,392.718 z" id="boundary" inkscape:connector-curvature="0" />
	<path style="fill:none;stroke:red;stroke-width:1px;stroke-linecap:butt;stroke-linejoin:miter;stroke-opacity:1" d="M 986.378,288.803 991.189,297.463 z" id="boundary" inkscape:connector-curvature="0" />
	<path style="fill:none;stroke:red;stroke-width:1px;stroke-linecap:butt;stroke-linejoin:miter;stroke-opacity:1" d="M 989.265,392.718 994.076,383.096 z" id="boundary" inkscape:connector-curvature="0" />
	<path style="fill:none;stroke:red;stroke-width:1px;stroke-linecap:butt;stroke-linejoin:miter;stroke-opacity:1" d="M 991.189,297.463 991.189,307.084 z" id="boundary" inkscape:connector-curvature="0" />
	<path style="fill:none;stroke:red;stroke-width:1px;stroke-linecap:butt;stroke-linejoin:miter;stroke-opacity:1" d="M 991.189,307.084 996,315.744 z" id="boundary" inkscape:connector-curvature="0" />
	<path style="fill:none;stroke:red;stroke-width:1px;stroke-linecap:butt;stroke-linejoin:miter;stroke-opacity:1" d="M 994.076,383.096 996,373.474 z" id="boundary" inkscape:connector-curvature="0" />
	<path style="fill:none;stroke:red;stroke-width:1px;stroke-linecap:butt;stroke-linejoin:miter;stroke-opacity:1" d="M 996,315.744 996,325.366 z" id="boundary" inkscape:connector-curvature="0" />
	<path style="fill:none;stroke:red;stroke-width:1px;stroke-linecap:butt;stroke-linejoin:miter;stroke-opacity:1" d="M 996,325.366 996,334.987 z" id="boundary" inkscape:connector-curvature="0" />
	<path style="fill:none;stroke:red;stroke-width:1px;stroke-linecap:butt;stroke-linejoin:miter;stroke-opacity:1" d="M 996,334.987 996,344.609 z" id="boundary" inkscape:connector-curvature="0" />
	<path style="fill:none;stroke:red;stroke-width:1px;stroke-linecap:butt;stroke-linejoin:miter;stroke-opacity:1" d="M 996,344.609 996,354.231 z" id="boundary" inkscape:connector-curvature="0" />
	<path style="fill:none;stroke:red;stroke-width:1px;stroke-linecap:butt;stroke-linejoin:miter;stroke-opacity:1" d="M 996,354.231 996,363.853 z" id="boundary" inkscape:connector-curvature="0" />
	<path style="fill:none;stroke:red;stroke-width:1px;stroke-linecap:butt;stroke-linejoin:miter;stroke-opacity:1" d="M 996,363.853 996,373.474 z" id="boundary" inkscape:connector-curvature="0" />
	<circle cx="4" cy="136.78" r="4" fill="#0" id="circle0"/>
	<circle cx="8.81086" cy="127.158" r="4" fill="#0" id="circle1"/>
	<circle cx="11.6974" cy="143.515" r="4" fill="#0" id="circle2"/>
	<circle cx="16.5082" cy="119.461" r="4" fill="#0" id="circle3"/>
	<circle cx="18.4326" cy="151.212" r="4" fill="#0" id="circle4"/>
	<circle cx="23.2435" cy="107.915" r="4" fill="#0" id="circle5"/>
	<circle cx="28.0543" cy="98.2929" r="4" fill="#0" id="circle6"/>
	<circle cx="28.0543" cy="154.099" r="4" fill="#0" id="circle7"/>
	<circle cx="32.8652" cy="88.6712" r="4" fill="#0" id="circle8"/>
	<circle cx="36.7139" cy="158.91" r="4" fill="#0" id="circle9"/>
	<circle cx="40.5626" cy="80.9738" r="4" fill="#0" id="circle10"/>
	<circle cx="45.3734" cy="71.3521" r="4" fill="#0" id="circle11"/>
	<circle cx="46.3356" cy="156.985" r="4" fill="#0" id="circle12"/>
	<circle cx="50.1843" cy="61.7304" r="4" fill="#0" id="circle13"/>
	<circle cx="55.9573" cy="152.175" r="4" fill="#0" id="circle14"/>
	<circle cx="57.8817" cy="54.033" r="4" fill="#0" id="circle15"/>
	<circle cx="62.6925" cy="44.4113" r="4" fill="#0" id="circle16"/>
	<circle cx="62.6925" cy="139.666" r="4" fill="#0" id="circle17"/>
	<circle cx="67.5034" cy="130.045" r="4" fill="#0" id="circle18"/>
	<circle cx="70.3899" cy="37.676" r="4" fill="#0" id="circle19"/>
	<circle cx="77.1251" cy="130.045" r="4" fill="#0" id="circle20"/>
	<circle cx="79.0495" cy="32.8652" r="4" fill="#0" id="circle21"/>
	<circle cx="85.7847" cy="329.214" r="4" fill="#0" id="circle22"/>
	<circle cx="85.7847" cy="338.836" r="4" fill="#0" id="circle23"/>
	<circle cx="85.7847" cy="348.458" r="4" fill="#0" id="circle24"/>
	<circle cx="85.7847" cy="358.08" r="4" fill="#0" id="circle25"/>
	<circle cx="86.7468" cy="130.045" r="4" fill="#0" id="circle26"/>
	<circle cx="87.709" cy="37.676" r="4" fill="#0" id="circle27"/>
	<circle cx="90.5955" cy="319.593" r="4" fill="#0" id="circle28"/>
	<circle cx="90.5955" cy="366.739" r="4" fill="#0" id="circle29"/>
	<circle cx="95.4064" cy="305.16" r="4" fill="#0" id="circle30"/>
	<circle cx="96.3686" cy="130.045" r="4" fill="#0" id="circle31"/>
	<circle cx="97.3307" cy="37.676" r="4" fill="#0" id="circle32"/>
	<circle cx="97.3307" cy="374.436" r="4" fill="#0" id="circle33"/>
	<circle cx="100.217" cy="295.538" r="4" fill="#0" id="circle34"/>
	<circle cx="105.028" cy="134.855" r="4" fill="#0" id="circle35"/>
	<circle cx="105.028" cy="144.477" r="4" fill="#0" id="circle36"/>
	<circle cx="105.028" cy="154.099" r="4" fill="#0" id="circle37"/>
	<circle cx="105.028" cy="285.917" r="4" fill="#0" id="circle38"/>
	<circle cx="105.99" cy="42.4869" r="4" fill="#0" id="circle39"/>
	<circle cx="106.952" cy="375.399" r="4" fill="#0" id="circle40"/>
	<circle cx="109.839" cy="162.758" r="4" fill="#0" id="circle41"/>
	<circle cx="109.839" cy="172.38" r="4" fill="#0" id="circle42"/>
	<circle cx="111.763" cy="182.002" r="4" fill="#0" id="circle43"/>
	<circle cx="112.726" cy="278.219" r="4" fill="#0" id="circle44"/>
	<circle cx="113.688" cy="48.2599" r="4" fill="#0" id="circle45"/>
	<circle cx="114.65" cy="191.624" r="4" fill="#0" id="circle46"/>
	<circle cx="114.65" cy="201.245" r="4" fill="#0" id="circle47"/>
	<circle cx="114.65" cy="210.867" r="4" fill="#0" id="circle48"/>
	<circle cx="114.65" cy="220.489" r="4" fill="#0" id="circle49"/>
	<circle cx="114.65" cy="230.111" r="4" fill="#0" id="circle50"/>
	<circle cx="114.65" cy="239.732" r="4" fill="#0" id="circle51"/>
	<circle cx="114.65" cy="249.354" r="4" fill="#0" id="circle52"/>
	<circle cx="114.65" cy="258.976" r="4" fill="#0" id="circle53"/>
	<circle cx="114.65" cy="268.597" r="4" fill="#0" id="circle54"/>
	<circle cx="115.612" cy="370.588" r="4" fill="#0" id="circle55"/>
	<circle cx="120.423" cy="55.9573" r="4" fill="#0" id="circle56"/>
	<circle cx="123.309" cy="363.853" r="4" fill="#0" id="circle57"/>
	<circle cx="128.12" cy="62.6925" r="4" fill="#0" id="circle58"/>
	<circle cx="128.12" cy="354.231" r="4" fill="#0" id="circle59"/>
	<circle cx="132.931" cy="344.609" r="4" fill="#0" id="circle60"/>
	<circle cx="134.855" cy="70.3899" r="4" fill="#0" id="circle61"/>
	<circle cx="134.855" cy="322.479" r="4" fill="#0" id="circle62"/>
	<circle cx="134.855" cy="332.101" r="4" fill="#0" id="circle63"/>
	<circle cx="139.666" cy="79.0495" r="4" fill="#0" id="circle64"/>
	<circle cx="139.666" cy="312.857" r="4" fill="#0" id="circle65"/>
	<circle cx="144.477" cy="87.709" r="4" fill="#0" id="circle66"/>
	<circle cx="144.477" cy="303.236" r="4" fill="#0" id="circle67"/>
	<circle cx="149.288" cy="293.614" r="4" fill="#0" id="circle68"/>
	<circle cx="150.25" cy="95.4064" r="4" fill="#0" id="circle69"/>
	<circle cx="157.948" cy="102.142" r="4" fill="#0" id="circle70"/>
	<circle cx="157.948" cy="288.803" r="4" fill="#0" id="circle71"/>
	<circle cx="163.721" cy="109.839" r="4" fill="#0" id="circle72"/>
	<circle cx="167.569" cy="288.803" r="4" fill="#0" id="circle73"/>
	<circle cx="172.38" cy="114.65" r="4" fill="#0" id="circle74"/>
	<circle cx="177.191" cy="288.803" r="4" fill="#0" id="circle75"/>
	<circle cx="182.002" cy="114.65" r="4" fill="#0" id="circle76"/>
	<circle cx="186.813" cy="288.803" r="4" fill="#0" id="circle77"/>
	<circle cx="190.661" cy="119.461" r="4" fill="#0" id="circle78"/>
	<circle cx="195.472" cy="283.992" r="4" fill="#0" id="circle79"/>
	<circle cx="200.283" cy="119.461" r="4" fill="#0" id="circle80"/>
	<circle cx="205.094" cy="283.992" r="4" fill="#0" id="circle81"/>
	<circle cx="209.905" cy="119.461" r="4" fill="#0" id="circle82"/>
	<circle cx="214.716" cy="283.992" r="4" fill="#0" id="circle83"/>
	<circle cx="219.527" cy="119.461" r="4" fill="#0" id="circle84"/>
	<circle cx="224.338" cy="283.992" r="4" fill="#0" id="circle85"/>
	<circle cx="229.148" cy="119.461" r="4" fill="#0" id="circle86"/>
	<circle cx="233.959" cy="283.992" r="4" fill="#0" id="circle87"/>
	<circle cx="238.77" cy="119.461" r="4" fill="#0" id="circle88"/>
	<circle cx="243.581" cy="283.992" r="4" fill="#0" id="circle89"/>
	<circle cx="248.392" cy="119.461" r="4" fill="#0" id="circle90"/>
	<circle cx="253.203" cy="283.992" r="4" fill="#0" id="circle91"/>
	<circle cx="258.014" cy="119.461" r="4" fill="#0" id="circle92"/>
	<circle cx="262.824" cy="283.992" r="4" fill="#0" id="circle93"/>
	<circle cx="267.635" cy="119.461" r="4" fill="#0" id="circle94"/>
	<circle cx="272.446" cy="283.992" r="4" fill="#0" id="circle95"/>
	<circle cx="277.257" cy="119.461" r="4" fill="#0" id="circle96"/>
	<circle cx="282.068" cy="283.992" r="4" fill="#0" id="circle97"/>
	<circle cx="286.879" cy="119.461" r="4" fill="#0" id="circle98"/>
	<circle cx="291.69" cy="283.992" r="4" fill="#0" id="circle99"/>
	<circle cx="296.5" cy="119.461" r="4" fill="#0" id="circle100"/>
	<circle cx="301.311" cy="283.992" r="4" fill="#0" id="circle101"/>
	<circle cx="306.122" cy="119.461" r="4" fill="#0" id="circle102"/>
	<circle cx="307.084" cy="338.836" r="4" fill="#0" id="circle103"/>
	<circle cx="307.084" cy="348.458" r="4" fill="#0" id="circle104"/>
	<circle cx="307.084" cy="358.08" r="4" fill="#0" id="circle105"/>
	<circle cx="309.971" cy="288.803" r="4" fill="#0" id="circle106"/>
	<circle cx="311.895" cy="329.214" r="4" fill="#0" id="circle107"/>
	<circle cx="314.782" cy="364.815" r="4" fill="#0" id="circle108"/>
	<circle cx="315.744" cy="119.461" r="4" fill="#0" id="circle109"/>
	<circle cx="316.706" cy="296.5" r="4" fill="#0" id="circle110"/>
	<circle cx="316.706" cy="306.122" r="4" fill="#0" id="circle111"/>
	<circle cx="316.706" cy="315.744" r="4" fill="#0" id="circle112"/>
	<circle cx="322.479" cy="370.588" r="4" fill="#0" id="circle113"/>
	<circle cx="325.366" cy="119.461" r="4" fill="#0" id="circle114"/>
	<circle cx="332.101" cy="370.588" r="4" fill="#0" id="circle115"/>
	<circle cx="334.987" cy="120.423" r="4" fill="#0" id="circle116"/>
	<circle cx="341.723" cy="370.588" r="4" fill="#0" id="circle117"/>
	<circle cx="344.609" cy="124.272" r="4" fill="#0" id="circle118"/>
	<circle cx="351.344" cy="370.588" r="4" fill="#0" id="circle119"/>
	<circle cx="353.269" cy="129.082" r="4" fill="#0" id="circle120"/>
	<circle cx="360.966" cy="365.777" r="4" fill="#0" id="circle121"/>
	<circle cx="362.89" cy="129.082" r="4" fill="#0" id="circle122"/>
	<circle cx="368.663" cy="359.042" r="4" fill="#0" id="circle123"/>
	<circle cx="371.55" cy="133.893" r="4" fill="#0" id="circle124"/>
	<circle cx="373.474" cy="349.42" r="4" fill="#0" id="circle125"/>
	<circle cx="375.399" cy="288.803" r="4" fill="#0" id="circle126"/>
	<circle cx="375.399" cy="298.425" r="4" fill="#0" id="circle127"/>
	<circle cx="375.399" cy="308.047" r="4" fill="#0" id="circle128"/>
	<circle cx="375.399" cy="317.668" r="4" fill="#0" id="circle129"/>
	<circle cx="375.399" cy="327.29" r="4" fill="#0" id="circle130"/>
	<circle cx="377.323" cy="336.912" r="4" fill="#0" id="circle131"/>
	<circle cx="380.21" cy="138.704" r="4" fill="#0" id="circle132"/>
	<circle cx="385.02" cy="147.364" r="4" fill="#0" id="circle133"/>
	<circle cx="385.02" cy="288.803" r="4" fill="#0" id="circle134"/>
	<circle cx="389.831" cy="156.023" r="4" fill="#0" id="circle135"/>
	<circle cx="393.68" cy="165.645" r="4" fill="#0" id="circle136"/>
	<circle cx="394.642" cy="175.267" r="4" fill="#0" id="circle137"/>
	<circle cx="394.642" cy="184.888" r="4" fill="#0" id="circle138"/>
	<circle cx="394.642" cy="288.803" r="4" fill="#0" id="circle139"/>
	<circle cx="399.453" cy="193.548" r="4" fill="#0" id="circle140"/>
	<circle cx="399.453" cy="203.17" r="4" fill="#0" id="circle141"/>
	<circle cx="404.264" cy="211.829" r="4" fill="#0" id="circle142"/>
	<circle cx="404.264" cy="288.803" r="4" fill="#0" id="circle143"/>
	<circle cx="413.886" cy="215.678" r="4" fill="#0" id="circle144"/>
	<circle cx="413.886" cy="288.803" r="4" fill="#0" id="circle145"/>
	<circle cx="423.507" cy="215.678" r="4" fill="#0" id="circle146"/>
	<circle cx="423.507" cy="288.803" r="4" fill="#0" id="circle147"/>
	<circle cx="427.356" cy="298.425" r="4" fill="#0" id="circle148"/>
	<circle cx="427.356" cy="308.047" r="4" fill="#0" id="circle149"/>
	<circle cx="427.356" cy="317.668" r="4" fill="#0" id="circle150"/>
	<circle cx="427.356" cy="327.29" r="4" fill="#0" id="circle151"/>
	<circle cx="427.356" cy="336.912" r="4" fill="#0" id="circle152"/>
	<circle cx="427.356" cy="346.533" r="4" fill="#0" id="circle153"/>
	<circle cx="427.356" cy="356.155" r="4" fill="#0" id="circle154"/>
	<circle cx="432.167" cy="364.815" r="4" fill="#0" id="circle155"/>
	<circle cx="433.129" cy="215.678" r="4" fill="#0" id="circle156"/>
	<circle cx="436.978" cy="373.474" r="4" fill="#0" id="circle157"/>
	<circle cx="441.789" cy="382.134" r="4" fill="#0" id="circle158"/>
	<circle cx="442.751" cy="215.678" r="4" fill="#0" id="circle159"/>
	<circle cx="446.599" cy="390.793" r="4" fill="#0" id="circle160"/>
	<circle cx="452.372" cy="215.678" r="4" fill="#0" id="circle161"/>
	<circle cx="453.335" cy="398.491" r="4" fill="#0" id="circle162"/>
	<circle cx="461.994" cy="212.791" r="4" fill="#0" id="circle163"/>
	<circle cx="462.956" cy="402.339" r="4" fill="#0" id="circle164"/>
	<circle cx="471.616" cy="207.981" r="4" fill="#0" id="circle165"/>
	<circle cx="471.616" cy="407.15" r="4" fill="#0" id="circle166"/>
	<circle cx="481.238" cy="206.056" r="4" fill="#0" id="circle167"/>
	<circle cx="481.238" cy="410.999" r="4" fill="#0" id="circle168"/>
	<circle cx="489.897" cy="201.245" r="4" fill="#0" id="circle169"/>
	<circle cx="490.859" cy="413.886" r="4" fill="#0" id="circle170"/>
	<circle cx="499.519" cy="127.158" r="4" fill="#0" id="circle171"/>
	<circle cx="499.519" cy="136.78" r="4" fill="#0" id="circle172"/>
	<circle cx="499.519" cy="146.402" r="4" fill="#0" id="circle173"/>
	<circle cx="499.519" cy="156.023" r="4" fill="#0" id="circle174"/>
	<circle cx="499.519" cy="165.645" r="4" fill="#0" id="circle175"/>
	<circle cx="499.519" cy="175.267" r="4" fill="#0" id="circle176"/>
	<circle cx="499.519" cy="184.888" r="4" fill="#0" id="circle177"/>
	<circle cx="499.519" cy="194.51" r="4" fill="#0" id="circle178"/>
	<circle cx="500.481" cy="413.886" r="4" fill="#0" id="circle179"/>
	<circle cx="504.33" cy="117.536" r="4" fill="#0" id="circle180"/>
	<circle cx="509.141" cy="107.915" r="4" fill="#0" id="circle181"/>
	<circle cx="509.141" cy="418.696" r="4" fill="#0" id="circle182"/>
	<circle cx="516.838" cy="100.217" r="4" fill="#0" id="circle183"/>
	<circle cx="517.8" cy="423.507" r="4" fill="#0" id="circle184"/>
	<circle cx="525.498" cy="95.4064" r="4" fill="#0" id="circle185"/>
	<circle cx="527.422" cy="423.507" r="4" fill="#0" id="circle186"/>
	<circle cx="534.157" cy="90.5955" r="4" fill="#0" id="circle187"/>
	<circle cx="537.044" cy="423.507" r="4" fill="#0" id="circle188"/>
	<circle cx="538.006" cy="35.7517" r="4" fill="#0" id="circle189"/>
	<circle cx="538.006" cy="45.3734" r="4" fill="#0" id="circle190"/>
	<circle cx="538.006" cy="54.9952" r="4" fill="#0" id="circle191"/>
	<circle cx="538.006" cy="64.6169" r="4" fill="#0" id="circle192"/>
	<circle cx="538.006" cy="74.2386" r="4" fill="#0" id="circle193"/>
	<circle cx="542.817" cy="26.13" r="4" fill="#0" id="circle194"/>
	<circle cx="545.703" cy="418.696" r="4" fill="#0" id="circle195"/>
	<circle cx="547.628" cy="16.5082" r="4" fill="#0" id="circle196"/>
	<circle cx="552.438" cy="6.88652" r="4" fill="#0" id="circle197"/>
	<circle cx="554.363" cy="413.886" r="4" fill="#0" id="circle198"/>
	<circle cx="562.06" cy="4" r="4" fill="#0" id="circle199"/>
	<circle cx="562.06" cy="406.188" r="4" fill="#0" id="circle200"/>
	<circle cx="566.871" cy="396.566" r="4" fill="#0" id="circle201"/>
	<circle cx="571.682" cy="5.92435" r="4" fill="#0" id="circle202"/>
	<circle cx="571.682" cy="386.945" r="4" fill="#0" id="circle203"/>
	<circle cx="577.455" cy="13.6217" r="4" fill="#0" id="circle204"/>
	<circle cx="577.455" cy="375.399" r="4" fill="#0" id="circle205"/>
	<circle cx="582.266" cy="22.2813" r="4" fill="#0" id="circle206"/>
	<circle cx="582.266" cy="226.262" r="4" fill="#0" id="circle207"/>
	<circle cx="582.266" cy="235.884" r="4" fill="#0" id="circle208"/>
	<circle cx="582.266" cy="245.505" r="4" fill="#0" id="circle209"/>
	<circle cx="582.266" cy="255.127" r="4" fill="#0" id="circle210"/>
	<circle cx="582.266" cy="264.749" r="4" fill="#0" id="circle211"/>
	<circle cx="582.266" cy="274.371" r="4" fill="#0" id="circle212"/>
	<circle cx="582.266" cy="283.992" r="4" fill="#0" id="circle213"/>
	<circle cx="582.266" cy="293.614" r="4" fill="#0" id="circle214"/>
	<circle cx="582.266" cy="303.236" r="4" fill="#0" id="circle215"/>
	<circle cx="582.266" cy="312.857" r="4" fill="#0" id="circle216"/>
	<circle cx="582.266" cy="322.479" r="4" fill="#0" id="circle217"/>
	<circle cx="582.266" cy="332.101" r="4" fill="#0" id="circle218"/>
	<circle cx="582.266" cy="341.723" r="4" fill="#0" id="circle219"/>
	<circle cx="582.266" cy="351.344" r="4" fill="#0" id="circle220"/>
	<circle cx="582.266" cy="360.966" r="4" fill="#0" id="circle221"/>
	<circle cx="589.963" cy="29.0165" r="4" fill="#0" id="circle222"/>
	<circle cx="591.887" cy="226.262" r="4" fill="#0" id="circle223"/>
	<circle cx="596.698" cy="36.7139" r="4" fill="#0" id="circle224"/>
	<circle cx="601.509" cy="45.3734" r="4" fill="#0" id="circle225"/>
	<circle cx="601.509" cy="54.9952" r="4" fill="#0" id="circle226"/>
	<circle cx="601.509" cy="64.6169" r="4" fill="#0" id="circle227"/>
	<circle cx="601.509" cy="226.262" r="4" fill="#0" id="circle228"/>
	<circle cx="606.32" cy="73.2764" r="4" fill="#0" id="circle229"/>
	<circle cx="606.32" cy="82.8982" r="4" fill="#0" id="circle230"/>
	<circle cx="606.32" cy="92.5199" r="4" fill="#0" id="circle231"/>
	<circle cx="606.32" cy="102.142" r="4" fill="#0" id="circle232"/>
	<circle cx="606.32" cy="111.763" r="4" fill="#0" id="circle233"/>
	<circle cx="611.131" cy="120.423" r="4" fill="#0" id="circle234"/>
	<circle cx="611.131" cy="226.262" r="4" fill="#0" id="circle235"/>
	<circle cx="615.942" cy="129.082" r="4" fill="#0" id="circle236"/>
	<circle cx="620.753" cy="137.742" r="4" fill="#0" id="circle237"/>
	<circle cx="620.753" cy="226.262" r="4" fill="#0" id="circle238"/>
	<circle cx="625.564" cy="146.402" r="4" fill="#0" id="circle239"/>
	<circle cx="630.374" cy="155.061" r="4" fill="#0" id="circle240"/>
	<circle cx="630.374" cy="226.262" r="4" fill="#0" id="circle241"/>
	<circle cx="636.147" cy="162.758" r="4" fill="#0" id="circle242"/>
	<circle cx="639.996" cy="226.262" r="4" fill="#0" id="circle243"/>
	<circle cx="643.845" cy="169.494" r="4" fill="#0" id="circle244"/>
	<circle cx="648.656" cy="231.073" r="4" fill="#0" id="circle245"/>
	<circle cx="652.504" cy="174.305" r="4" fill="#0" id="circle246"/>
	<circle cx="653.467" cy="239.732" r="4" fill="#0" id="circle247"/>
	<circle cx="658.277" cy="248.392" r="4" fill="#0" id="circle248"/>
	<circle cx="659.24" cy="182.002" r="4" fill="#0" id="circle249"/>
	<circle cx="663.088" cy="257.051" r="4" fill="#0" id="circle250"/>
	<circle cx="667.899" cy="186.813" r="4" fill="#0" id="circle251"/>
	<circle cx="667.899" cy="265.711" r="4" fill="#0" id="circle252"/>
	<circle cx="667.899" cy="275.333" r="4" fill="#0" id="circle253"/>
	<circle cx="667.899" cy="284.954" r="4" fill="#0" id="circle254"/>
	<circle cx="672.71" cy="293.614" r="4" fill="#0" id="circle255"/>
	<circle cx="672.71" cy="303.236" r="4" fill="#0" id="circle256"/>
	<circle cx="677.521" cy="186.813" r="4" fill="#0" id="circle257"/>
	<circle cx="678.483" cy="310.933" r="4" fill="#0" id="circle258"/>
	<circle cx="686.18" cy="317.668" r="4" fill="#0" id="circle259"/>
	<circle cx="687.143" cy="186.813" r="4" fill="#0" id="circle260"/>
	<circle cx="695.802" cy="317.668" r="4" fill="#0" id="circle261"/>
	<circle cx="696.764" cy="186.813" r="4" fill="#0" id="circle262"/>
	<circle cx="705.424" cy="317.668" r="4" fill="#0" id="circle263"/>
	<circle cx="706.386" cy="186.813" r="4" fill="#0" id="circle264"/>
	<circle cx="712.159" cy="179.115" r="4" fill="#0" id="circle265"/>
	<circle cx="715.046" cy="317.668" r="4" fill="#0" id="circle266"/>
	<circle cx="716.97" cy="169.494" r="4" fill="#0" id="circle267"/>
	<circle cx="724.667" cy="162.758" r="4" fill="#0" id="circle268"/>
	<circle cx="724.667" cy="317.668" r="4" fill="#0" id="circle269"/>
	<circle cx="733.327" cy="157.948" r="4" fill="#0" id="circle270"/>
	<circle cx="734.289" cy="317.668" r="4" fill="#0" id="circle271"/>
	<circle cx="741.986" cy="153.137" r="4" fill="#0" id="circle272"/>
	<circle cx="743.911" cy="317.668" r="4" fill="#0" id="circle273"/>
	<circle cx="750.646" cy="148.326" r="4" fill="#0" id="circle274"/>
	<circle cx="753.532" cy="317.668" r="4" fill="#0" id="circle275"/>
	<circle cx="760.268" cy="148.326" r="4" fill="#0" id="circle276"/>
	<circle cx="762.192" cy="322.479" r="4" fill="#0" id="circle277"/>
	<circle cx="768.927" cy="112.726" r="4" fill="#0" id="circle278"/>
	<circle cx="768.927" cy="122.347" r="4" fill="#0" id="circle279"/>
	<circle cx="768.927" cy="131.969" r="4" fill="#0" id="circle280"/>
	<circle cx="768.927" cy="141.591" r="4" fill="#0" id="circle281"/>
	<circle cx="769.889" cy="329.214" r="4" fill="#0" id="circle282"/>
	<circle cx="773.738" cy="103.104" r="4" fill="#0" id="circle283"/>
	<circle cx="776.625" cy="336.912" r="4" fill="#0" id="circle284"/>
	<circle cx="778.549" cy="93.4821" r="4" fill="#0" id="circle285"/>
	<circle cx="778.549" cy="346.533" r="4" fill="#0" id="circle286"/>
	<circle cx="783.36" cy="83.8603" r="4" fill="#0" id="circle287"/>
	<circle cx="783.36" cy="355.193" r="4" fill="#0" id="circle288"/>
	<circle cx="783.36" cy="364.815" r="4" fill="#0" id="circle289"/>
	<circle cx="788.171" cy="74.2386" r="4" fill="#0" id="circle290"/>
	<circle cx="788.171" cy="373.474" r="4" fill="#0" id="circle291"/>
	<circle cx="792.982" cy="382.134" r="4" fill="#0" id="circle292"/>
	<circle cx="797.792" cy="69.4277" r="4" fill="#0" id="circle293"/>
	<circle cx="798.755" cy="389.831" r="4" fill="#0" id="circle294"/>
	<circle cx="807.414" cy="68.4656" r="4" fill="#0" id="circle295"/>
	<circle cx="807.414" cy="394.642" r="4" fill="#0" id="circle296"/>
	<circle cx="816.074" cy="399.453" r="4" fill="#0" id="circle297"/>
	<circle cx="817.036" cy="71.3521" r="4" fill="#0" id="circle298"/>
	<circle cx="825.695" cy="399.453" r="4" fill="#0" id="circle299"/>
	<circle cx="826.658" cy="71.3521" r="4" fill="#0" id="circle300"/>
	<circle cx="835.317" cy="76.1629" r="4" fill="#0" id="circle301"/>
	<circle cx="835.317" cy="399.453" r="4" fill="#0" id="circle302"/>
	<circle cx="842.052" cy="83.8603" r="4" fill="#0" id="circle303"/>
	<circle cx="843.977" cy="404.264" r="4" fill="#0" id="circle304"/>
	<circle cx="846.863" cy="92.5199" r="4" fill="#0" id="circle305"/>
	<circle cx="849.75" cy="102.142" r="4" fill="#0" id="circle306"/>
	<circle cx="853.598" cy="408.113" r="4" fill="#0" id="circle307"/>
	<circle cx="856.485" cy="109.839" r="4" fill="#0" id="circle308"/>
	<circle cx="861.296" cy="118.499" r="4" fill="#0" id="circle309"/>
	<circle cx="862.258" cy="412.923" r="4" fill="#0" id="circle310"/>
	<circle cx="866.107" cy="127.158" r="4" fill="#0" id="circle311"/>
	<circle cx="871.88" cy="413.886" r="4" fill="#0" id="circle312"/>
	<circle cx="872.842" cy="134.855" r="4" fill="#0" id="circle313"/>
	<circle cx="881.501" cy="416.772" r="4" fill="#0" id="circle314"/>
	<circle cx="882.464" cy="138.704" r="4" fill="#0" id="circle315"/>
	<circle cx="891.123" cy="418.696" r="4" fill="#0" id="circle316"/>
	<circle cx="892.085" cy="138.704" r="4" fill="#0" id="circle317"/>
	<circle cx="899.783" cy="423.507" r="4" fill="#0" id="circle318"/>
	<circle cx="901.707" cy="138.704" r="4" fill="#0" id="circle319"/>
	<circle cx="909.404" cy="423.507" r="4" fill="#0" id="circle320"/>
	<circle cx="911.329" cy="138.704" r="4" fill="#0" id="circle321"/>
	<circle cx="919.026" cy="423.507" r="4" fill="#0" id="circle322"/>
	<circle cx="920.951" cy="138.704" r="4" fill="#0" id="circle323"/>
	<circle cx="928.648" cy="423.507" r="4" fill="#0" id="circle324"/>
	<circle cx="930.572" cy="138.704" r="4" fill="#0" id="circle325"/>
	<circle cx="938.27" cy="423.507" r="4" fill="#0" id="circle326"/>
	<circle cx="940.194" cy="138.704" r="4" fill="#0" id="circle327"/>
	<circle cx="946.929" cy="146.402" r="4" fill="#0" id="circle328"/>
	<circle cx="947.891" cy="423.507" r="4" fill="#0" id="circle329"/>
	<circle cx="952.702" cy="154.099" r="4" fill="#0" id="circle330"/>
	<circle cx="952.702" cy="163.721" r="4" fill="#0" id="circle331"/>
	<circle cx="952.702" cy="173.342" r="4" fill="#0" id="circle332"/>
	<circle cx="952.702" cy="182.964" r="4" fill="#0" id="circle333"/>
	<circle cx="952.702" cy="192.586" r="4" fill="#0" id="circle334"/>
	<circle cx="952.702" cy="202.208" r="4" fill="#0" id="circle335"/>
	<circle cx="952.702" cy="211.829" r="4" fill="#0" id="circle336"/>
	<circle cx="952.702" cy="221.451" r="4" fill="#0" id="circle337"/>
	<circle cx="952.702" cy="231.073" r="4" fill="#0" id="circle338"/>
	<circle cx="952.702" cy="240.694" r="4" fill="#0" id="circle339"/>
	<circle cx="956.551" cy="418.696" r="4" fill="#0" id="circle340"/>
	<circle cx="957.513" cy="249.354" r="4" fill="#0" id="circle341"/>
	<circle cx="964.248" cy="412.923" r="4" fill="#0" id="circle342"/>
	<circle cx="965.21" cy="255.127" r="4" fill="#0" id="circle343"/>
	<circle cx="971.946" cy="262.824" r="4" fill="#0" id="circle344"/>
	<circle cx="973.87" cy="408.113" r="4" fill="#0" id="circle345"/>
	<circle cx="976.757" cy="271.484" r="4" fill="#0" id="circle346"/>
	<circle cx="981.567" cy="280.144" r="4" fill="#0" id="circle347"/>
	<circle cx="981.567" cy="399.453" r="4" fill="#0" id="circle348"/>
	<circle cx="986.378" cy="288.803" r="4" fill="#0" id="circle349"/>
	<circle cx="989.265" cy="392.718" r="4" fill="#0" id="circle350"/>
	<circle cx="991.189" cy="297.463" r="4" fill="#0" id="circle351"/>
	<circle cx="991.189" cy="307.084" r="4" fill="#0" id="circle352"/>
	<circle cx="994.076" cy="383.096" r="4" fill="#0" id="circle353"/>
	<circle cx="996" cy="315.744" r="4" fill="#0" id="circle354"/>
	<circle cx="996" cy="325.366" r="4" fill="#0" id="circle355"/>
	<circle cx="996" cy="334.987" r="4" fill="#0" id="circle356"/>
	<circle cx="996" cy="344.609" r="4" fill="#0" id="circle357"/>
	<circle cx="996" cy="354.231" r="4" fill="#0" id="circle358"/>
	<circle cx="996" cy="363.853" r="4" fill="#0" id="circle359"/>
	<circle cx="996" cy="373.474" r="4" fill="#0" id="circle360"/>
	</g>
</svg>