<?xml version="1.0" encoding="UTF-8" standalone="no"?>
<!-- Created with CurveBenchmark -->
<svg
	xmlns:dc="http://purl.org/dc/elements/1.1/"
	xmlns:cc="http://creativecommons.org/ns#"
	xmlns:rdf="http://www.w3.org/1999/02/22-rdf-syntax-ns#"
	xmlns:svg="http://www.w3.org/2000/svg"
	xmlns="http://www.w3.org/2000/svg"
	xmlns:sodipodi="http://sodipodi.sourceforge.net/DTD/sodipodi-0.dtd"
	xmlns:inkscape="http://www.inkscape.org/namespaces/inkscape"
	width="1000"
	height="1000"
	id="svg2"
	version="1.1"
	sodipodi:docname="manifold/hnncrust-carriage-07.png.txt">
<defs
	id="defs4" />
<metadata
	id="metadata7">
	<rdf:RDF>
		<cc:Work
			rdf:about="">
			<dc:format>image/svg+xml</dc:format>
			<dc:type
				rdf:resource="http://purl.org/dc/dcmitype/StillImage" />
			<dc:title></dc:title>
		</cc:Work>
	</rdf:RDF>
</metadata>
<g
	inkscape:label="Layer 1"
	inkscape:groupmode="layer"
	id="layer1">
	<path style="fill:none;stroke:red;stroke-width:1px;stroke-linecap:butt;stroke-linejoin:miter;stroke-opacity:1" d="M 4,111.444 8.63119,102.181 z" id="boundary" inkscape:connector-curvature="0" />
	<path style="fill:none;stroke:red;stroke-width:1px;stroke-linecap:butt;stroke-linejoin:miter;stroke-opacity:1" d="M 4,111.444 8.63119,119.78 z" id="boundary" inkscape:connector-curvature="0" />
	<path style="fill:none;stroke:red;stroke-width:1px;stroke-linecap:butt;stroke-linejoin:miter;stroke-opacity:1" d="M 8.63119,102.181 16.0411,94.7712 z" id="boundary" inkscape:connector-curvature="0" />
	<path style="fill:none;stroke:red;stroke-width:1px;stroke-linecap:butt;stroke-linejoin:miter;stroke-opacity:1" d="M 8.63119,119.78 17.8936,123.485 z" id="boundary" inkscape:connector-curvature="0" />
	<path style="fill:none;stroke:red;stroke-width:1px;stroke-linecap:butt;stroke-linejoin:miter;stroke-opacity:1" d="M 16.0411,94.7712 22.5247,83.6564 z" id="boundary" inkscape:connector-curvature="0" />
	<path style="fill:none;stroke:red;stroke-width:1px;stroke-linecap:butt;stroke-linejoin:miter;stroke-opacity:1" d="M 17.8936,123.485 26.2297,128.116 z" id="boundary" inkscape:connector-curvature="0" />
	<path style="fill:none;stroke:red;stroke-width:1px;stroke-linecap:butt;stroke-linejoin:miter;stroke-opacity:1" d="M 22.5247,83.6564 29.9346,76.2465 z" id="boundary" inkscape:connector-curvature="0" />
	<path style="fill:none;stroke:red;stroke-width:1px;stroke-linecap:butt;stroke-linejoin:miter;stroke-opacity:1" d="M 26.2297,128.116 35.4921,128.116 z" id="boundary" inkscape:connector-curvature="0" />
	<path style="fill:none;stroke:red;stroke-width:1px;stroke-linecap:butt;stroke-linejoin:miter;stroke-opacity:1" d="M 29.9346,76.2465 34.5658,66.9841 z" id="boundary" inkscape:connector-curvature="0" />
	<path style="fill:none;stroke:red;stroke-width:1px;stroke-linecap:butt;stroke-linejoin:miter;stroke-opacity:1" d="M 34.5658,66.9841 41.0495,55.8693 z" id="boundary" inkscape:connector-curvature="0" />
	<path style="fill:none;stroke:red;stroke-width:1px;stroke-linecap:butt;stroke-linejoin:miter;stroke-opacity:1" d="M 35.4921,128.116 44.7544,128.116 z" id="boundary" inkscape:connector-curvature="0" />
	<path style="fill:none;stroke:red;stroke-width:1px;stroke-linecap:butt;stroke-linejoin:miter;stroke-opacity:1" d="M 41.0495,55.8693 50.3119,51.2381 z" id="boundary" inkscape:connector-curvature="0" />
	<path style="fill:none;stroke:red;stroke-width:1px;stroke-linecap:butt;stroke-linejoin:miter;stroke-opacity:1" d="M 44.7544,128.116 54.0168,128.116 z" id="boundary" inkscape:connector-curvature="0" />
	<path style="fill:none;stroke:red;stroke-width:1px;stroke-linecap:butt;stroke-linejoin:miter;stroke-opacity:1" d="M 50.3119,51.2381 59.5742,48.4594 z" id="boundary" inkscape:connector-curvature="0" />
	<path style="fill:none;stroke:red;stroke-width:1px;stroke-linecap:butt;stroke-linejoin:miter;stroke-opacity:1" d="M 54.0168,128.116 63.2792,128.116 z" id="boundary" inkscape:connector-curvature="0" />
	<path style="fill:none;stroke:red;stroke-width:1px;stroke-linecap:butt;stroke-linejoin:miter;stroke-opacity:1" d="M 59.5742,48.4594 68.8366,50.3119 z" id="boundary" inkscape:connector-curvature="0" />
	<path style="fill:none;stroke:red;stroke-width:1px;stroke-linecap:butt;stroke-linejoin:miter;stroke-opacity:1" d="M 63.2792,128.116 72.5415,128.116 z" id="boundary" inkscape:connector-curvature="0" />
	<path style="fill:none;stroke:red;stroke-width:1px;stroke-linecap:butt;stroke-linejoin:miter;stroke-opacity:1" d="M 64.2054,366.159 68.8366,352.265 z" id="boundary" inkscape:connector-curvature="0" />
	<path style="fill:none;stroke:red;stroke-width:1px;stroke-linecap:butt;stroke-linejoin:miter;stroke-opacity:1" d="M 64.2054,366.159 68.8366,374.495 z" id="boundary" inkscape:connector-curvature="0" />
	<path style="fill:none;stroke:red;stroke-width:1px;stroke-linecap:butt;stroke-linejoin:miter;stroke-opacity:1" d="M 68.8366,50.3119 78.099,53.0906 z" id="boundary" inkscape:connector-curvature="0" />
	<path style="fill:none;stroke:red;stroke-width:1px;stroke-linecap:butt;stroke-linejoin:miter;stroke-opacity:1" d="M 68.8366,352.265 73.4678,343.003 z" id="boundary" inkscape:connector-curvature="0" />
	<path style="fill:none;stroke:red;stroke-width:1px;stroke-linecap:butt;stroke-linejoin:miter;stroke-opacity:1" d="M 68.8366,374.495 75.3203,381.905 z" id="boundary" inkscape:connector-curvature="0" />
	<path style="fill:none;stroke:red;stroke-width:1px;stroke-linecap:butt;stroke-linejoin:miter;stroke-opacity:1" d="M 72.5415,128.116 78.099,135.526 z" id="boundary" inkscape:connector-curvature="0" />
	<path style="fill:none;stroke:red;stroke-width:1px;stroke-linecap:butt;stroke-linejoin:miter;stroke-opacity:1" d="M 73.4678,343.003 80.8777,335.593 z" id="boundary" inkscape:connector-curvature="0" />
	<path style="fill:none;stroke:red;stroke-width:1px;stroke-linecap:butt;stroke-linejoin:miter;stroke-opacity:1" d="M 75.3203,381.905 82.7302,387.462 z" id="boundary" inkscape:connector-curvature="0" />
	<path style="fill:none;stroke:red;stroke-width:1px;stroke-linecap:butt;stroke-linejoin:miter;stroke-opacity:1" d="M 78.099,53.0906 86.4351,57.7218 z" id="boundary" inkscape:connector-curvature="0" />
	<path style="fill:none;stroke:red;stroke-width:1px;stroke-linecap:butt;stroke-linejoin:miter;stroke-opacity:1" d="M 78.099,135.526 82.7302,143.862 z" id="boundary" inkscape:connector-curvature="0" />
	<path style="fill:none;stroke:red;stroke-width:1px;stroke-linecap:butt;stroke-linejoin:miter;stroke-opacity:1" d="M 80.8777,335.593 88.2876,328.183 z" id="boundary" inkscape:connector-curvature="0" />
	<path style="fill:none;stroke:red;stroke-width:1px;stroke-linecap:butt;stroke-linejoin:miter;stroke-opacity:1" d="M 82.7302,143.862 82.7302,153.124 z" id="boundary" inkscape:connector-curvature="0" />
	<path style="fill:none;stroke:red;stroke-width:1px;stroke-linecap:butt;stroke-linejoin:miter;stroke-opacity:1" d="M 82.7302,153.124 82.7302,162.387 z" id="boundary" inkscape:connector-curvature="0" />
	<path style="fill:none;stroke:red;stroke-width:1px;stroke-linecap:butt;stroke-linejoin:miter;stroke-opacity:1" d="M 82.7302,162.387 82.7302,171.649 z" id="boundary" inkscape:connector-curvature="0" />
	<path style="fill:none;stroke:red;stroke-width:1px;stroke-linecap:butt;stroke-linejoin:miter;stroke-opacity:1" d="M 82.7302,171.649 82.7302,180.911 z" id="boundary" inkscape:connector-curvature="0" />
	<path style="fill:none;stroke:red;stroke-width:1px;stroke-linecap:butt;stroke-linejoin:miter;stroke-opacity:1" d="M 82.7302,180.911 87.3613,189.247 z" id="boundary" inkscape:connector-curvature="0" />
	<path style="fill:none;stroke:red;stroke-width:1px;stroke-linecap:butt;stroke-linejoin:miter;stroke-opacity:1" d="M 82.7302,387.462 91.0663,382.831 z" id="boundary" inkscape:connector-curvature="0" />
	<path style="fill:none;stroke:red;stroke-width:1px;stroke-linecap:butt;stroke-linejoin:miter;stroke-opacity:1" d="M 86.4351,57.7218 95.6975,57.7218 z" id="boundary" inkscape:connector-curvature="0" />
	<path style="fill:none;stroke:red;stroke-width:1px;stroke-linecap:butt;stroke-linejoin:miter;stroke-opacity:1" d="M 87.3613,189.247 93.845,196.657 z" id="boundary" inkscape:connector-curvature="0" />
	<path style="fill:none;stroke:red;stroke-width:1px;stroke-linecap:butt;stroke-linejoin:miter;stroke-opacity:1" d="M 88.2876,328.183 92.9188,318.921 z" id="boundary" inkscape:connector-curvature="0" />
	<path style="fill:none;stroke:red;stroke-width:1px;stroke-linecap:butt;stroke-linejoin:miter;stroke-opacity:1" d="M 91.0663,382.831 99.4024,377.274 z" id="boundary" inkscape:connector-curvature="0" />
	<path style="fill:none;stroke:red;stroke-width:1px;stroke-linecap:butt;stroke-linejoin:miter;stroke-opacity:1" d="M 92.9188,318.921 97.55,309.658 z" id="boundary" inkscape:connector-curvature="0" />
	<path style="fill:none;stroke:red;stroke-width:1px;stroke-linecap:butt;stroke-linejoin:miter;stroke-opacity:1" d="M 93.845,196.657 101.255,202.215 z" id="boundary" inkscape:connector-curvature="0" />
	<path style="fill:none;stroke:red;stroke-width:1px;stroke-linecap:butt;stroke-linejoin:miter;stroke-opacity:1" d="M 95.6975,57.7218 104.96,58.648 z" id="boundary" inkscape:connector-curvature="0" />
	<path style="fill:none;stroke:red;stroke-width:1px;stroke-linecap:butt;stroke-linejoin:miter;stroke-opacity:1" d="M 97.55,309.658 101.255,294.838 z" id="boundary" inkscape:connector-curvature="0" />
	<path style="fill:none;stroke:red;stroke-width:1px;stroke-linecap:butt;stroke-linejoin:miter;stroke-opacity:1" d="M 99.4024,377.274 106.812,368.937 z" id="boundary" inkscape:connector-curvature="0" />
	<path style="fill:none;stroke:red;stroke-width:1px;stroke-linecap:butt;stroke-linejoin:miter;stroke-opacity:1" d="M 101.255,202.215 101.255,211.477 z" id="boundary" inkscape:connector-curvature="0" />
	<path style="fill:none;stroke:red;stroke-width:1px;stroke-linecap:butt;stroke-linejoin:miter;stroke-opacity:1" d="M 101.255,211.477 101.255,220.739 z" id="boundary" inkscape:connector-curvature="0" />
	<path style="fill:none;stroke:red;stroke-width:1px;stroke-linecap:butt;stroke-linejoin:miter;stroke-opacity:1" d="M 101.255,220.739 101.255,230.002 z" id="boundary" inkscape:connector-curvature="0" />
	<path style="fill:none;stroke:red;stroke-width:1px;stroke-linecap:butt;stroke-linejoin:miter;stroke-opacity:1" d="M 101.255,230.002 101.255,239.264 z" id="boundary" inkscape:connector-curvature="0" />
	<path style="fill:none;stroke:red;stroke-width:1px;stroke-linecap:butt;stroke-linejoin:miter;stroke-opacity:1" d="M 101.255,239.264 101.255,248.527 z" id="boundary" inkscape:connector-curvature="0" />
	<path style="fill:none;stroke:red;stroke-width:1px;stroke-linecap:butt;stroke-linejoin:miter;stroke-opacity:1" d="M 101.255,248.527 101.255,257.789 z" id="boundary" inkscape:connector-curvature="0" />
	<path style="fill:none;stroke:red;stroke-width:1px;stroke-linecap:butt;stroke-linejoin:miter;stroke-opacity:1" d="M 101.255,257.789 101.255,267.051 z" id="boundary" inkscape:connector-curvature="0" />
	<path style="fill:none;stroke:red;stroke-width:1px;stroke-linecap:butt;stroke-linejoin:miter;stroke-opacity:1" d="M 101.255,267.051 101.255,276.314 z" id="boundary" inkscape:connector-curvature="0" />
	<path style="fill:none;stroke:red;stroke-width:1px;stroke-linecap:butt;stroke-linejoin:miter;stroke-opacity:1" d="M 101.255,276.314 101.255,285.576 z" id="boundary" inkscape:connector-curvature="0" />
	<path style="fill:none;stroke:red;stroke-width:1px;stroke-linecap:butt;stroke-linejoin:miter;stroke-opacity:1" d="M 101.255,285.576 101.255,294.838 z" id="boundary" inkscape:connector-curvature="0" />
	<path style="fill:none;stroke:red;stroke-width:1px;stroke-linecap:butt;stroke-linejoin:miter;stroke-opacity:1" d="M 104.96,58.648 113.296,63.2792 z" id="boundary" inkscape:connector-curvature="0" />
	<path style="fill:none;stroke:red;stroke-width:1px;stroke-linecap:butt;stroke-linejoin:miter;stroke-opacity:1" d="M 106.812,368.937 114.222,362.454 z" id="boundary" inkscape:connector-curvature="0" />
	<path style="fill:none;stroke:red;stroke-width:1px;stroke-linecap:butt;stroke-linejoin:miter;stroke-opacity:1" d="M 113.296,63.2792 122.558,66.9841 z" id="boundary" inkscape:connector-curvature="0" />
	<path style="fill:none;stroke:red;stroke-width:1px;stroke-linecap:butt;stroke-linejoin:miter;stroke-opacity:1" d="M 114.222,362.454 118.853,353.191 z" id="boundary" inkscape:connector-curvature="0" />
	<path style="fill:none;stroke:red;stroke-width:1px;stroke-linecap:butt;stroke-linejoin:miter;stroke-opacity:1" d="M 118.853,353.191 120.706,336.519 z" id="boundary" inkscape:connector-curvature="0" />
	<path style="fill:none;stroke:red;stroke-width:1px;stroke-linecap:butt;stroke-linejoin:miter;stroke-opacity:1" d="M 120.706,327.257 120.706,336.519 z" id="boundary" inkscape:connector-curvature="0" />
	<path style="fill:none;stroke:red;stroke-width:1px;stroke-linecap:butt;stroke-linejoin:miter;stroke-opacity:1" d="M 120.706,327.257 128.116,320.773 z" id="boundary" inkscape:connector-curvature="0" />
	<path style="fill:none;stroke:red;stroke-width:1px;stroke-linecap:butt;stroke-linejoin:miter;stroke-opacity:1" d="M 122.558,66.9841 130.894,71.6153 z" id="boundary" inkscape:connector-curvature="0" />
	<path style="fill:none;stroke:red;stroke-width:1px;stroke-linecap:butt;stroke-linejoin:miter;stroke-opacity:1" d="M 128.116,320.773 132.747,311.511 z" id="boundary" inkscape:connector-curvature="0" />
	<path style="fill:none;stroke:red;stroke-width:1px;stroke-linecap:butt;stroke-linejoin:miter;stroke-opacity:1" d="M 130.894,71.6153 138.304,78.099 z" id="boundary" inkscape:connector-curvature="0" />
	<path style="fill:none;stroke:red;stroke-width:1px;stroke-linecap:butt;stroke-linejoin:miter;stroke-opacity:1" d="M 132.747,311.511 137.378,302.248 z" id="boundary" inkscape:connector-curvature="0" />
	<path style="fill:none;stroke:red;stroke-width:1px;stroke-linecap:butt;stroke-linejoin:miter;stroke-opacity:1" d="M 137.378,302.248 142.009,292.986 z" id="boundary" inkscape:connector-curvature="0" />
	<path style="fill:none;stroke:red;stroke-width:1px;stroke-linecap:butt;stroke-linejoin:miter;stroke-opacity:1" d="M 138.304,78.099 143.862,85.5089 z" id="boundary" inkscape:connector-curvature="0" />
	<path style="fill:none;stroke:red;stroke-width:1px;stroke-linecap:butt;stroke-linejoin:miter;stroke-opacity:1" d="M 142.009,292.986 146.641,283.724 z" id="boundary" inkscape:connector-curvature="0" />
	<path style="fill:none;stroke:red;stroke-width:1px;stroke-linecap:butt;stroke-linejoin:miter;stroke-opacity:1" d="M 143.862,85.5089 151.272,91.0663 z" id="boundary" inkscape:connector-curvature="0" />
	<path style="fill:none;stroke:red;stroke-width:1px;stroke-linecap:butt;stroke-linejoin:miter;stroke-opacity:1" d="M 146.641,283.724 153.124,276.314 z" id="boundary" inkscape:connector-curvature="0" />
	<path style="fill:none;stroke:red;stroke-width:1px;stroke-linecap:butt;stroke-linejoin:miter;stroke-opacity:1" d="M 151.272,91.0663 160.534,94.7712 z" id="boundary" inkscape:connector-curvature="0" />
	<path style="fill:none;stroke:red;stroke-width:1px;stroke-linecap:butt;stroke-linejoin:miter;stroke-opacity:1" d="M 153.124,276.314 160.534,269.83 z" id="boundary" inkscape:connector-curvature="0" />
	<path style="fill:none;stroke:red;stroke-width:1px;stroke-linecap:butt;stroke-linejoin:miter;stroke-opacity:1" d="M 160.534,94.7712 169.796,94.7712 z" id="boundary" inkscape:connector-curvature="0" />
	<path style="fill:none;stroke:red;stroke-width:1px;stroke-linecap:butt;stroke-linejoin:miter;stroke-opacity:1" d="M 160.534,269.83 169.796,267.051 z" id="boundary" inkscape:connector-curvature="0" />
	<path style="fill:none;stroke:red;stroke-width:1px;stroke-linecap:butt;stroke-linejoin:miter;stroke-opacity:1" d="M 169.796,94.7712 179.059,94.7712 z" id="boundary" inkscape:connector-curvature="0" />
	<path style="fill:none;stroke:red;stroke-width:1px;stroke-linecap:butt;stroke-linejoin:miter;stroke-opacity:1" d="M 169.796,267.051 179.059,267.051 z" id="boundary" inkscape:connector-curvature="0" />
	<path style="fill:none;stroke:red;stroke-width:1px;stroke-linecap:butt;stroke-linejoin:miter;stroke-opacity:1" d="M 179.059,94.7712 188.321,94.7712 z" id="boundary" inkscape:connector-curvature="0" />
	<path style="fill:none;stroke:red;stroke-width:1px;stroke-linecap:butt;stroke-linejoin:miter;stroke-opacity:1" d="M 179.059,267.051 188.321,267.051 z" id="boundary" inkscape:connector-curvature="0" />
	<path style="fill:none;stroke:red;stroke-width:1px;stroke-linecap:butt;stroke-linejoin:miter;stroke-opacity:1" d="M 188.321,94.7712 197.584,94.7712 z" id="boundary" inkscape:connector-curvature="0" />
	<path style="fill:none;stroke:red;stroke-width:1px;stroke-linecap:butt;stroke-linejoin:miter;stroke-opacity:1" d="M 188.321,267.051 197.584,267.051 z" id="boundary" inkscape:connector-curvature="0" />
	<path style="fill:none;stroke:red;stroke-width:1px;stroke-linecap:butt;stroke-linejoin:miter;stroke-opacity:1" d="M 197.584,94.7712 206.846,94.7712 z" id="boundary" inkscape:connector-curvature="0" />
	<path style="fill:none;stroke:red;stroke-width:1px;stroke-linecap:butt;stroke-linejoin:miter;stroke-opacity:1" d="M 197.584,267.051 206.846,267.051 z" id="boundary" inkscape:connector-curvature="0" />
	<path style="fill:none;stroke:red;stroke-width:1px;stroke-linecap:butt;stroke-linejoin:miter;stroke-opacity:1" d="M 206.846,94.7712 216.108,94.7712 z" id="boundary" inkscape:connector-curvature="0" />
	<path style="fill:none;stroke:red;stroke-width:1px;stroke-linecap:butt;stroke-linejoin:miter;stroke-opacity:1" d="M 206.846,267.051 216.108,267.051 z" id="boundary" inkscape:connector-curvature="0" />
	<path style="fill:none;stroke:red;stroke-width:1px;stroke-linecap:butt;stroke-linejoin:miter;stroke-opacity:1" d="M 216.108,94.7712 225.371,94.7712 z" id="boundary" inkscape:connector-curvature="0" />
	<path style="fill:none;stroke:red;stroke-width:1px;stroke-linecap:butt;stroke-linejoin:miter;stroke-opacity:1" d="M 216.108,267.051 224.444,262.42 z" id="boundary" inkscape:connector-curvature="0" />
	<path style="fill:none;stroke:red;stroke-width:1px;stroke-linecap:butt;stroke-linejoin:miter;stroke-opacity:1" d="M 224.444,262.42 233.707,262.42 z" id="boundary" inkscape:connector-curvature="0" />
	<path style="fill:none;stroke:red;stroke-width:1px;stroke-linecap:butt;stroke-linejoin:miter;stroke-opacity:1" d="M 225.371,94.7712 234.633,94.7712 z" id="boundary" inkscape:connector-curvature="0" />
	<path style="fill:none;stroke:red;stroke-width:1px;stroke-linecap:butt;stroke-linejoin:miter;stroke-opacity:1" d="M 233.707,262.42 242.969,262.42 z" id="boundary" inkscape:connector-curvature="0" />
	<path style="fill:none;stroke:red;stroke-width:1px;stroke-linecap:butt;stroke-linejoin:miter;stroke-opacity:1" d="M 234.633,94.7712 243.895,94.7712 z" id="boundary" inkscape:connector-curvature="0" />
	<path style="fill:none;stroke:red;stroke-width:1px;stroke-linecap:butt;stroke-linejoin:miter;stroke-opacity:1" d="M 242.969,262.42 252.232,262.42 z" id="boundary" inkscape:connector-curvature="0" />
	<path style="fill:none;stroke:red;stroke-width:1px;stroke-linecap:butt;stroke-linejoin:miter;stroke-opacity:1" d="M 243.895,94.7712 253.158,94.7712 z" id="boundary" inkscape:connector-curvature="0" />
	<path style="fill:none;stroke:red;stroke-width:1px;stroke-linecap:butt;stroke-linejoin:miter;stroke-opacity:1" d="M 252.232,262.42 261.494,262.42 z" id="boundary" inkscape:connector-curvature="0" />
	<path style="fill:none;stroke:red;stroke-width:1px;stroke-linecap:butt;stroke-linejoin:miter;stroke-opacity:1" d="M 253.158,94.7712 262.42,94.7712 z" id="boundary" inkscape:connector-curvature="0" />
	<path style="fill:none;stroke:red;stroke-width:1px;stroke-linecap:butt;stroke-linejoin:miter;stroke-opacity:1" d="M 261.494,262.42 270.756,262.42 z" id="boundary" inkscape:connector-curvature="0" />
	<path style="fill:none;stroke:red;stroke-width:1px;stroke-linecap:butt;stroke-linejoin:miter;stroke-opacity:1" d="M 262.42,94.7712 271.683,94.7712 z" id="boundary" inkscape:connector-curvature="0" />
	<path style="fill:none;stroke:red;stroke-width:1px;stroke-linecap:butt;stroke-linejoin:miter;stroke-opacity:1" d="M 270.756,262.42 280.019,262.42 z" id="boundary" inkscape:connector-curvature="0" />
	<path style="fill:none;stroke:red;stroke-width:1px;stroke-linecap:butt;stroke-linejoin:miter;stroke-opacity:1" d="M 271.683,94.7712 280.945,94.7712 z" id="boundary" inkscape:connector-curvature="0" />
	<path style="fill:none;stroke:red;stroke-width:1px;stroke-linecap:butt;stroke-linejoin:miter;stroke-opacity:1" d="M 280.019,262.42 289.281,262.42 z" id="boundary" inkscape:connector-curvature="0" />
	<path style="fill:none;stroke:red;stroke-width:1px;stroke-linecap:butt;stroke-linejoin:miter;stroke-opacity:1" d="M 280.945,94.7712 290.207,94.7712 z" id="boundary" inkscape:connector-curvature="0" />
	<path style="fill:none;stroke:red;stroke-width:1px;stroke-linecap:butt;stroke-linejoin:miter;stroke-opacity:1" d="M 289.281,262.42 298.543,262.42 z" id="boundary" inkscape:connector-curvature="0" />
	<path style="fill:none;stroke:red;stroke-width:1px;stroke-linecap:butt;stroke-linejoin:miter;stroke-opacity:1" d="M 290.207,94.7712 299.47,94.7712 z" id="boundary" inkscape:connector-curvature="0" />
	<path style="fill:none;stroke:red;stroke-width:1px;stroke-linecap:butt;stroke-linejoin:miter;stroke-opacity:1" d="M 298.543,262.42 307.806,262.42 z" id="boundary" inkscape:connector-curvature="0" />
	<path style="fill:none;stroke:red;stroke-width:1px;stroke-linecap:butt;stroke-linejoin:miter;stroke-opacity:1" d="M 299.47,94.7712 308.732,94.7712 z" id="boundary" inkscape:connector-curvature="0" />
	<path style="fill:none;stroke:red;stroke-width:1px;stroke-linecap:butt;stroke-linejoin:miter;stroke-opacity:1" d="M 307.806,262.42 314.289,269.83 z" id="boundary" inkscape:connector-curvature="0" />
	<path style="fill:none;stroke:red;stroke-width:1px;stroke-linecap:butt;stroke-linejoin:miter;stroke-opacity:1" d="M 308.732,94.7712 317.994,94.7712 z" id="boundary" inkscape:connector-curvature="0" />
	<path style="fill:none;stroke:red;stroke-width:1px;stroke-linecap:butt;stroke-linejoin:miter;stroke-opacity:1" d="M 314.289,269.83 315.216,279.092 z" id="boundary" inkscape:connector-curvature="0" />
	<path style="fill:none;stroke:red;stroke-width:1px;stroke-linecap:butt;stroke-linejoin:miter;stroke-opacity:1" d="M 315.216,279.092 318.921,288.355 z" id="boundary" inkscape:connector-curvature="0" />
	<path style="fill:none;stroke:red;stroke-width:1px;stroke-linecap:butt;stroke-linejoin:miter;stroke-opacity:1" d="M 317.994,94.7712 327.257,94.7712 z" id="boundary" inkscape:connector-curvature="0" />
	<path style="fill:none;stroke:red;stroke-width:1px;stroke-linecap:butt;stroke-linejoin:miter;stroke-opacity:1" d="M 318.921,288.355 323.552,296.691 z" id="boundary" inkscape:connector-curvature="0" />
	<path style="fill:none;stroke:red;stroke-width:1px;stroke-linecap:butt;stroke-linejoin:miter;stroke-opacity:1" d="M 323.552,296.691 328.183,305.027 z" id="boundary" inkscape:connector-curvature="0" />
	<path style="fill:none;stroke:red;stroke-width:1px;stroke-linecap:butt;stroke-linejoin:miter;stroke-opacity:1" d="M 327.257,94.7712 336.519,95.6975 z" id="boundary" inkscape:connector-curvature="0" />
	<path style="fill:none;stroke:red;stroke-width:1px;stroke-linecap:butt;stroke-linejoin:miter;stroke-opacity:1" d="M 328.183,305.027 328.183,314.289 z" id="boundary" inkscape:connector-curvature="0" />
	<path style="fill:none;stroke:red;stroke-width:1px;stroke-linecap:butt;stroke-linejoin:miter;stroke-opacity:1" d="M 328.183,314.289 328.183,323.552 z" id="boundary" inkscape:connector-curvature="0" />
	<path style="fill:none;stroke:red;stroke-width:1px;stroke-linecap:butt;stroke-linejoin:miter;stroke-opacity:1" d="M 328.183,323.552 328.183,332.814 z" id="boundary" inkscape:connector-curvature="0" />
	<path style="fill:none;stroke:red;stroke-width:1px;stroke-linecap:butt;stroke-linejoin:miter;stroke-opacity:1" d="M 328.183,332.814 328.183,342.077 z" id="boundary" inkscape:connector-curvature="0" />
	<path style="fill:none;stroke:red;stroke-width:1px;stroke-linecap:butt;stroke-linejoin:miter;stroke-opacity:1" d="M 328.183,342.077 328.183,351.339 z" id="boundary" inkscape:connector-curvature="0" />
	<path style="fill:none;stroke:red;stroke-width:1px;stroke-linecap:butt;stroke-linejoin:miter;stroke-opacity:1" d="M 328.183,351.339 332.814,359.675 z" id="boundary" inkscape:connector-curvature="0" />
	<path style="fill:none;stroke:red;stroke-width:1px;stroke-linecap:butt;stroke-linejoin:miter;stroke-opacity:1" d="M 332.814,359.675 341.15,364.306 z" id="boundary" inkscape:connector-curvature="0" />
	<path style="fill:none;stroke:red;stroke-width:1px;stroke-linecap:butt;stroke-linejoin:miter;stroke-opacity:1" d="M 336.519,95.6975 344.855,100.329 z" id="boundary" inkscape:connector-curvature="0" />
	<path style="fill:none;stroke:red;stroke-width:1px;stroke-linecap:butt;stroke-linejoin:miter;stroke-opacity:1" d="M 341.15,364.306 349.486,368.937 z" id="boundary" inkscape:connector-curvature="0" />
	<path style="fill:none;stroke:red;stroke-width:1px;stroke-linecap:butt;stroke-linejoin:miter;stroke-opacity:1" d="M 344.855,100.329 354.118,104.034 z" id="boundary" inkscape:connector-curvature="0" />
	<path style="fill:none;stroke:red;stroke-width:1px;stroke-linecap:butt;stroke-linejoin:miter;stroke-opacity:1" d="M 349.486,368.937 358.749,368.011 z" id="boundary" inkscape:connector-curvature="0" />
	<path style="fill:none;stroke:red;stroke-width:1px;stroke-linecap:butt;stroke-linejoin:miter;stroke-opacity:1" d="M 354.118,104.034 356.896,113.296 z" id="boundary" inkscape:connector-curvature="0" />
	<path style="fill:none;stroke:red;stroke-width:1px;stroke-linecap:butt;stroke-linejoin:miter;stroke-opacity:1" d="M 356.896,113.296 364.306,118.853 z" id="boundary" inkscape:connector-curvature="0" />
	<path style="fill:none;stroke:red;stroke-width:1px;stroke-linecap:butt;stroke-linejoin:miter;stroke-opacity:1" d="M 356.896,267.051 356.896,276.314 z" id="boundary" inkscape:connector-curvature="0" />
	<path style="fill:none;stroke:red;stroke-width:1px;stroke-linecap:butt;stroke-linejoin:miter;stroke-opacity:1" d="M 356.896,267.051 366.159,267.051 z" id="boundary" inkscape:connector-curvature="0" />
	<path style="fill:none;stroke:red;stroke-width:1px;stroke-linecap:butt;stroke-linejoin:miter;stroke-opacity:1" d="M 356.896,276.314 356.896,285.576 z" id="boundary" inkscape:connector-curvature="0" />
	<path style="fill:none;stroke:red;stroke-width:1px;stroke-linecap:butt;stroke-linejoin:miter;stroke-opacity:1" d="M 356.896,285.576 356.896,294.838 z" id="boundary" inkscape:connector-curvature="0" />
	<path style="fill:none;stroke:red;stroke-width:1px;stroke-linecap:butt;stroke-linejoin:miter;stroke-opacity:1" d="M 356.896,294.838 356.896,304.101 z" id="boundary" inkscape:connector-curvature="0" />
	<path style="fill:none;stroke:red;stroke-width:1px;stroke-linecap:butt;stroke-linejoin:miter;stroke-opacity:1" d="M 356.896,304.101 356.896,313.363 z" id="boundary" inkscape:connector-curvature="0" />
	<path style="fill:none;stroke:red;stroke-width:1px;stroke-linecap:butt;stroke-linejoin:miter;stroke-opacity:1" d="M 356.896,313.363 356.896,322.626 z" id="boundary" inkscape:connector-curvature="0" />
	<path style="fill:none;stroke:red;stroke-width:1px;stroke-linecap:butt;stroke-linejoin:miter;stroke-opacity:1" d="M 356.896,322.626 361.528,330.962 z" id="boundary" inkscape:connector-curvature="0" />
	<path style="fill:none;stroke:red;stroke-width:1px;stroke-linecap:butt;stroke-linejoin:miter;stroke-opacity:1" d="M 358.749,368.011 366.159,357.823 z" id="boundary" inkscape:connector-curvature="0" />
	<path style="fill:none;stroke:red;stroke-width:1px;stroke-linecap:butt;stroke-linejoin:miter;stroke-opacity:1" d="M 361.528,330.962 366.159,339.298 z" id="boundary" inkscape:connector-curvature="0" />
	<path style="fill:none;stroke:red;stroke-width:1px;stroke-linecap:butt;stroke-linejoin:miter;stroke-opacity:1" d="M 364.306,118.853 368.011,128.116 z" id="boundary" inkscape:connector-curvature="0" />
	<path style="fill:none;stroke:red;stroke-width:1px;stroke-linecap:butt;stroke-linejoin:miter;stroke-opacity:1" d="M 366.159,267.051 375.421,267.051 z" id="boundary" inkscape:connector-curvature="0" />
	<path style="fill:none;stroke:red;stroke-width:1px;stroke-linecap:butt;stroke-linejoin:miter;stroke-opacity:1" d="M 366.159,339.298 366.159,348.56 z" id="boundary" inkscape:connector-curvature="0" />
	<path style="fill:none;stroke:red;stroke-width:1px;stroke-linecap:butt;stroke-linejoin:miter;stroke-opacity:1" d="M 366.159,348.56 366.159,357.823 z" id="boundary" inkscape:connector-curvature="0" />
	<path style="fill:none;stroke:red;stroke-width:1px;stroke-linecap:butt;stroke-linejoin:miter;stroke-opacity:1" d="M 368.011,128.116 370.79,137.378 z" id="boundary" inkscape:connector-curvature="0" />
	<path style="fill:none;stroke:red;stroke-width:1px;stroke-linecap:butt;stroke-linejoin:miter;stroke-opacity:1" d="M 370.79,137.378 375.421,145.714 z" id="boundary" inkscape:connector-curvature="0" />
	<path style="fill:none;stroke:red;stroke-width:1px;stroke-linecap:butt;stroke-linejoin:miter;stroke-opacity:1" d="M 375.421,145.714 375.421,154.977 z" id="boundary" inkscape:connector-curvature="0" />
	<path style="fill:none;stroke:red;stroke-width:1px;stroke-linecap:butt;stroke-linejoin:miter;stroke-opacity:1" d="M 375.421,154.977 375.421,164.239 z" id="boundary" inkscape:connector-curvature="0" />
	<path style="fill:none;stroke:red;stroke-width:1px;stroke-linecap:butt;stroke-linejoin:miter;stroke-opacity:1" d="M 375.421,164.239 380.052,172.575 z" id="boundary" inkscape:connector-curvature="0" />
	<path style="fill:none;stroke:red;stroke-width:1px;stroke-linecap:butt;stroke-linejoin:miter;stroke-opacity:1" d="M 375.421,267.051 384.683,267.051 z" id="boundary" inkscape:connector-curvature="0" />
	<path style="fill:none;stroke:red;stroke-width:1px;stroke-linecap:butt;stroke-linejoin:miter;stroke-opacity:1" d="M 380.052,172.575 384.683,180.911 z" id="boundary" inkscape:connector-curvature="0" />
	<path style="fill:none;stroke:red;stroke-width:1px;stroke-linecap:butt;stroke-linejoin:miter;stroke-opacity:1" d="M 384.683,180.911 388.388,190.174 z" id="boundary" inkscape:connector-curvature="0" />
	<path style="fill:none;stroke:red;stroke-width:1px;stroke-linecap:butt;stroke-linejoin:miter;stroke-opacity:1" d="M 384.683,267.051 393.946,267.051 z" id="boundary" inkscape:connector-curvature="0" />
	<path style="fill:none;stroke:red;stroke-width:1px;stroke-linecap:butt;stroke-linejoin:miter;stroke-opacity:1" d="M 388.388,190.174 395.798,196.657 z" id="boundary" inkscape:connector-curvature="0" />
	<path style="fill:none;stroke:red;stroke-width:1px;stroke-linecap:butt;stroke-linejoin:miter;stroke-opacity:1" d="M 393.946,267.051 403.208,267.051 z" id="boundary" inkscape:connector-curvature="0" />
	<path style="fill:none;stroke:red;stroke-width:1px;stroke-linecap:butt;stroke-linejoin:miter;stroke-opacity:1" d="M 395.798,196.657 405.061,196.657 z" id="boundary" inkscape:connector-curvature="0" />
	<path style="fill:none;stroke:red;stroke-width:1px;stroke-linecap:butt;stroke-linejoin:miter;stroke-opacity:1" d="M 403.208,267.051 406.913,276.314 z" id="boundary" inkscape:connector-curvature="0" />
	<path style="fill:none;stroke:red;stroke-width:1px;stroke-linecap:butt;stroke-linejoin:miter;stroke-opacity:1" d="M 405.061,196.657 414.323,196.657 z" id="boundary" inkscape:connector-curvature="0" />
	<path style="fill:none;stroke:red;stroke-width:1px;stroke-linecap:butt;stroke-linejoin:miter;stroke-opacity:1" d="M 406.913,276.314 406.913,285.576 z" id="boundary" inkscape:connector-curvature="0" />
	<path style="fill:none;stroke:red;stroke-width:1px;stroke-linecap:butt;stroke-linejoin:miter;stroke-opacity:1" d="M 406.913,285.576 406.913,294.838 z" id="boundary" inkscape:connector-curvature="0" />
	<path style="fill:none;stroke:red;stroke-width:1px;stroke-linecap:butt;stroke-linejoin:miter;stroke-opacity:1" d="M 406.913,294.838 406.913,304.101 z" id="boundary" inkscape:connector-curvature="0" />
	<path style="fill:none;stroke:red;stroke-width:1px;stroke-linecap:butt;stroke-linejoin:miter;stroke-opacity:1" d="M 406.913,304.101 406.913,313.363 z" id="boundary" inkscape:connector-curvature="0" />
	<path style="fill:none;stroke:red;stroke-width:1px;stroke-linecap:butt;stroke-linejoin:miter;stroke-opacity:1" d="M 406.913,313.363 406.913,322.626 z" id="boundary" inkscape:connector-curvature="0" />
	<path style="fill:none;stroke:red;stroke-width:1px;stroke-linecap:butt;stroke-linejoin:miter;stroke-opacity:1" d="M 406.913,322.626 406.913,331.888 z" id="boundary" inkscape:connector-curvature="0" />
	<path style="fill:none;stroke:red;stroke-width:1px;stroke-linecap:butt;stroke-linejoin:miter;stroke-opacity:1" d="M 406.913,331.888 406.913,341.15 z" id="boundary" inkscape:connector-curvature="0" />
	<path style="fill:none;stroke:red;stroke-width:1px;stroke-linecap:butt;stroke-linejoin:miter;stroke-opacity:1" d="M 406.913,341.15 411.544,349.486 z" id="boundary" inkscape:connector-curvature="0" />
	<path style="fill:none;stroke:red;stroke-width:1px;stroke-linecap:butt;stroke-linejoin:miter;stroke-opacity:1" d="M 411.544,349.486 411.544,358.749 z" id="boundary" inkscape:connector-curvature="0" />
	<path style="fill:none;stroke:red;stroke-width:1px;stroke-linecap:butt;stroke-linejoin:miter;stroke-opacity:1" d="M 411.544,358.749 413.397,368.011 z" id="boundary" inkscape:connector-curvature="0" />
	<path style="fill:none;stroke:red;stroke-width:1px;stroke-linecap:butt;stroke-linejoin:miter;stroke-opacity:1" d="M 413.397,368.011 418.028,376.347 z" id="boundary" inkscape:connector-curvature="0" />
	<path style="fill:none;stroke:red;stroke-width:1px;stroke-linecap:butt;stroke-linejoin:miter;stroke-opacity:1" d="M 414.323,196.657 423.585,196.657 z" id="boundary" inkscape:connector-curvature="0" />
	<path style="fill:none;stroke:red;stroke-width:1px;stroke-linecap:butt;stroke-linejoin:miter;stroke-opacity:1" d="M 418.028,376.347 421.733,385.61 z" id="boundary" inkscape:connector-curvature="0" />
	<path style="fill:none;stroke:red;stroke-width:1px;stroke-linecap:butt;stroke-linejoin:miter;stroke-opacity:1" d="M 421.733,385.61 429.143,392.093 z" id="boundary" inkscape:connector-curvature="0" />
	<path style="fill:none;stroke:red;stroke-width:1px;stroke-linecap:butt;stroke-linejoin:miter;stroke-opacity:1" d="M 423.585,196.657 432.848,196.657 z" id="boundary" inkscape:connector-curvature="0" />
	<path style="fill:none;stroke:red;stroke-width:1px;stroke-linecap:butt;stroke-linejoin:miter;stroke-opacity:1" d="M 429.143,392.093 437.479,396.725 z" id="boundary" inkscape:connector-curvature="0" />
	<path style="fill:none;stroke:red;stroke-width:1px;stroke-linecap:butt;stroke-linejoin:miter;stroke-opacity:1" d="M 432.848,196.657 441.184,192.026 z" id="boundary" inkscape:connector-curvature="0" />
	<path style="fill:none;stroke:red;stroke-width:1px;stroke-linecap:butt;stroke-linejoin:miter;stroke-opacity:1" d="M 437.479,396.725 446.741,400.43 z" id="boundary" inkscape:connector-curvature="0" />
	<path style="fill:none;stroke:red;stroke-width:1px;stroke-linecap:butt;stroke-linejoin:miter;stroke-opacity:1" d="M 441.184,192.026 450.446,192.026 z" id="boundary" inkscape:connector-curvature="0" />
	<path style="fill:none;stroke:red;stroke-width:1px;stroke-linecap:butt;stroke-linejoin:miter;stroke-opacity:1" d="M 446.741,400.43 456.004,401.356 z" id="boundary" inkscape:connector-curvature="0" />
	<path style="fill:none;stroke:red;stroke-width:1px;stroke-linecap:butt;stroke-linejoin:miter;stroke-opacity:1" d="M 450.446,192.026 459.709,188.321 z" id="boundary" inkscape:connector-curvature="0" />
	<path style="fill:none;stroke:red;stroke-width:1px;stroke-linecap:butt;stroke-linejoin:miter;stroke-opacity:1" d="M 456.004,401.356 465.266,401.356 z" id="boundary" inkscape:connector-curvature="0" />
	<path style="fill:none;stroke:red;stroke-width:1px;stroke-linecap:butt;stroke-linejoin:miter;stroke-opacity:1" d="M 459.709,188.321 468.971,187.395 z" id="boundary" inkscape:connector-curvature="0" />
	<path style="fill:none;stroke:red;stroke-width:1px;stroke-linecap:butt;stroke-linejoin:miter;stroke-opacity:1" d="M 465.266,401.356 474.528,401.356 z" id="boundary" inkscape:connector-curvature="0" />
	<path style="fill:none;stroke:red;stroke-width:1px;stroke-linecap:butt;stroke-linejoin:miter;stroke-opacity:1" d="M 468.971,187.395 471.75,171.649 z" id="boundary" inkscape:connector-curvature="0" />
	<path style="fill:none;stroke:red;stroke-width:1px;stroke-linecap:butt;stroke-linejoin:miter;stroke-opacity:1" d="M 471.75,143.862 471.75,153.124 z" id="boundary" inkscape:connector-curvature="0" />
	<path style="fill:none;stroke:red;stroke-width:1px;stroke-linecap:butt;stroke-linejoin:miter;stroke-opacity:1" d="M 471.75,143.862 476.381,134.599 z" id="boundary" inkscape:connector-curvature="0" />
	<path style="fill:none;stroke:red;stroke-width:1px;stroke-linecap:butt;stroke-linejoin:miter;stroke-opacity:1" d="M 471.75,153.124 471.75,162.387 z" id="boundary" inkscape:connector-curvature="0" />
	<path style="fill:none;stroke:red;stroke-width:1px;stroke-linecap:butt;stroke-linejoin:miter;stroke-opacity:1" d="M 471.75,162.387 471.75,171.649 z" id="boundary" inkscape:connector-curvature="0" />
	<path style="fill:none;stroke:red;stroke-width:1px;stroke-linecap:butt;stroke-linejoin:miter;stroke-opacity:1" d="M 474.528,401.356 483.791,401.356 z" id="boundary" inkscape:connector-curvature="0" />
	<path style="fill:none;stroke:red;stroke-width:1px;stroke-linecap:butt;stroke-linejoin:miter;stroke-opacity:1" d="M 476.381,134.599 483.791,127.19 z" id="boundary" inkscape:connector-curvature="0" />
	<path style="fill:none;stroke:red;stroke-width:1px;stroke-linecap:butt;stroke-linejoin:miter;stroke-opacity:1" d="M 483.791,127.19 488.422,117.927 z" id="boundary" inkscape:connector-curvature="0" />
	<path style="fill:none;stroke:red;stroke-width:1px;stroke-linecap:butt;stroke-linejoin:miter;stroke-opacity:1" d="M 483.791,401.356 493.053,401.356 z" id="boundary" inkscape:connector-curvature="0" />
	<path style="fill:none;stroke:red;stroke-width:1px;stroke-linecap:butt;stroke-linejoin:miter;stroke-opacity:1" d="M 488.422,117.927 493.053,108.665 z" id="boundary" inkscape:connector-curvature="0" />
	<path style="fill:none;stroke:red;stroke-width:1px;stroke-linecap:butt;stroke-linejoin:miter;stroke-opacity:1" d="M 493.053,108.665 501.389,104.034 z" id="boundary" inkscape:connector-curvature="0" />
	<path style="fill:none;stroke:red;stroke-width:1px;stroke-linecap:butt;stroke-linejoin:miter;stroke-opacity:1" d="M 493.053,401.356 502.316,401.356 z" id="boundary" inkscape:connector-curvature="0" />
	<path style="fill:none;stroke:red;stroke-width:1px;stroke-linecap:butt;stroke-linejoin:miter;stroke-opacity:1" d="M 501.389,104.034 509.725,99.4024 z" id="boundary" inkscape:connector-curvature="0" />
	<path style="fill:none;stroke:red;stroke-width:1px;stroke-linecap:butt;stroke-linejoin:miter;stroke-opacity:1" d="M 502.316,401.356 511.578,401.356 z" id="boundary" inkscape:connector-curvature="0" />
	<path style="fill:none;stroke:red;stroke-width:1px;stroke-linecap:butt;stroke-linejoin:miter;stroke-opacity:1" d="M 509.725,99.4024 518.988,96.6237 z" id="boundary" inkscape:connector-curvature="0" />
	<path style="fill:none;stroke:red;stroke-width:1px;stroke-linecap:butt;stroke-linejoin:miter;stroke-opacity:1" d="M 511.578,401.356 520.84,401.356 z" id="boundary" inkscape:connector-curvature="0" />
	<path style="fill:none;stroke:red;stroke-width:1px;stroke-linecap:butt;stroke-linejoin:miter;stroke-opacity:1" d="M 518.988,96.6237 522.693,79.0252 z" id="boundary" inkscape:connector-curvature="0" />
	<path style="fill:none;stroke:red;stroke-width:1px;stroke-linecap:butt;stroke-linejoin:miter;stroke-opacity:1" d="M 520.84,401.356 530.103,400.43 z" id="boundary" inkscape:connector-curvature="0" />
	<path style="fill:none;stroke:red;stroke-width:1px;stroke-linecap:butt;stroke-linejoin:miter;stroke-opacity:1" d="M 522.693,41.9757 522.693,51.2381 z" id="boundary" inkscape:connector-curvature="0" />
	<path style="fill:none;stroke:red;stroke-width:1px;stroke-linecap:butt;stroke-linejoin:miter;stroke-opacity:1" d="M 522.693,41.9757 527.324,28.0822 z" id="boundary" inkscape:connector-curvature="0" />
	<path style="fill:none;stroke:red;stroke-width:1px;stroke-linecap:butt;stroke-linejoin:miter;stroke-opacity:1" d="M 522.693,51.2381 522.693,60.5005 z" id="boundary" inkscape:connector-curvature="0" />
	<path style="fill:none;stroke:red;stroke-width:1px;stroke-linecap:butt;stroke-linejoin:miter;stroke-opacity:1" d="M 522.693,60.5005 522.693,69.7628 z" id="boundary" inkscape:connector-curvature="0" />
	<path style="fill:none;stroke:red;stroke-width:1px;stroke-linecap:butt;stroke-linejoin:miter;stroke-opacity:1" d="M 522.693,69.7628 522.693,79.0252 z" id="boundary" inkscape:connector-curvature="0" />
	<path style="fill:none;stroke:red;stroke-width:1px;stroke-linecap:butt;stroke-linejoin:miter;stroke-opacity:1" d="M 527.324,28.0822 531.955,18.8198 z" id="boundary" inkscape:connector-curvature="0" />
	<path style="fill:none;stroke:red;stroke-width:1px;stroke-linecap:butt;stroke-linejoin:miter;stroke-opacity:1" d="M 530.103,400.43 539.365,396.725 z" id="boundary" inkscape:connector-curvature="0" />
	<path style="fill:none;stroke:red;stroke-width:1px;stroke-linecap:butt;stroke-linejoin:miter;stroke-opacity:1" d="M 531.955,18.8198 536.586,9.55742 z" id="boundary" inkscape:connector-curvature="0" />
	<path style="fill:none;stroke:red;stroke-width:1px;stroke-linecap:butt;stroke-linejoin:miter;stroke-opacity:1" d="M 536.586,9.55742 545.849,4.92624 z" id="boundary" inkscape:connector-curvature="0" />
	<path style="fill:none;stroke:red;stroke-width:1px;stroke-linecap:butt;stroke-linejoin:miter;stroke-opacity:1" d="M 539.365,396.725 547.701,392.093 z" id="boundary" inkscape:connector-curvature="0" />
	<path style="fill:none;stroke:red;stroke-width:1px;stroke-linecap:butt;stroke-linejoin:miter;stroke-opacity:1" d="M 545.849,4.92624 555.111,4 z" id="boundary" inkscape:connector-curvature="0" />
	<path style="fill:none;stroke:red;stroke-width:1px;stroke-linecap:butt;stroke-linejoin:miter;stroke-opacity:1" d="M 547.701,392.093 556.037,387.462 z" id="boundary" inkscape:connector-curvature="0" />
	<path style="fill:none;stroke:red;stroke-width:1px;stroke-linecap:butt;stroke-linejoin:miter;stroke-opacity:1" d="M 555.111,4 563.447,8.63119 z" id="boundary" inkscape:connector-curvature="0" />
	<path style="fill:none;stroke:red;stroke-width:1px;stroke-linecap:butt;stroke-linejoin:miter;stroke-opacity:1" d="M 556.037,387.462 564.373,382.831 z" id="boundary" inkscape:connector-curvature="0" />
	<path style="fill:none;stroke:red;stroke-width:1px;stroke-linecap:butt;stroke-linejoin:miter;stroke-opacity:1" d="M 563.447,8.63119 572.71,12.3361 z" id="boundary" inkscape:connector-curvature="0" />
	<path style="fill:none;stroke:red;stroke-width:1px;stroke-linecap:butt;stroke-linejoin:miter;stroke-opacity:1" d="M 564.373,382.831 571.783,377.274 z" id="boundary" inkscape:connector-curvature="0" />
	<path style="fill:none;stroke:red;stroke-width:1px;stroke-linecap:butt;stroke-linejoin:miter;stroke-opacity:1" d="M 571.783,377.274 576.415,368.011 z" id="boundary" inkscape:connector-curvature="0" />
	<path style="fill:none;stroke:red;stroke-width:1px;stroke-linecap:butt;stroke-linejoin:miter;stroke-opacity:1" d="M 572.71,12.3361 576.415,21.5985 z" id="boundary" inkscape:connector-curvature="0" />
	<path style="fill:none;stroke:red;stroke-width:1px;stroke-linecap:butt;stroke-linejoin:miter;stroke-opacity:1" d="M 576.415,21.5985 583.824,28.0822 z" id="boundary" inkscape:connector-curvature="0" />
	<path style="fill:none;stroke:red;stroke-width:1px;stroke-linecap:butt;stroke-linejoin:miter;stroke-opacity:1" d="M 576.415,368.011 581.046,358.749 z" id="boundary" inkscape:connector-curvature="0" />
	<path style="fill:none;stroke:red;stroke-width:1px;stroke-linecap:butt;stroke-linejoin:miter;stroke-opacity:1" d="M 581.046,358.749 583.824,341.15 z" id="boundary" inkscape:connector-curvature="0" />
	<path style="fill:none;stroke:red;stroke-width:1px;stroke-linecap:butt;stroke-linejoin:miter;stroke-opacity:1" d="M 583.824,28.0822 587.529,37.3445 z" id="boundary" inkscape:connector-curvature="0" />
	<path style="fill:none;stroke:red;stroke-width:1px;stroke-linecap:butt;stroke-linejoin:miter;stroke-opacity:1" d="M 583.824,285.576 583.824,294.838 z" id="boundary" inkscape:connector-curvature="0" />
	<path style="fill:none;stroke:red;stroke-width:1px;stroke-linecap:butt;stroke-linejoin:miter;stroke-opacity:1" d="M 583.824,285.576 593.087,280.945 z" id="boundary" inkscape:connector-curvature="0" />
	<path style="fill:none;stroke:red;stroke-width:1px;stroke-linecap:butt;stroke-linejoin:miter;stroke-opacity:1" d="M 583.824,294.838 583.824,304.101 z" id="boundary" inkscape:connector-curvature="0" />
	<path style="fill:none;stroke:red;stroke-width:1px;stroke-linecap:butt;stroke-linejoin:miter;stroke-opacity:1" d="M 583.824,304.101 583.824,313.363 z" id="boundary" inkscape:connector-curvature="0" />
	<path style="fill:none;stroke:red;stroke-width:1px;stroke-linecap:butt;stroke-linejoin:miter;stroke-opacity:1" d="M 583.824,313.363 583.824,322.626 z" id="boundary" inkscape:connector-curvature="0" />
	<path style="fill:none;stroke:red;stroke-width:1px;stroke-linecap:butt;stroke-linejoin:miter;stroke-opacity:1" d="M 583.824,322.626 583.824,331.888 z" id="boundary" inkscape:connector-curvature="0" />
	<path style="fill:none;stroke:red;stroke-width:1px;stroke-linecap:butt;stroke-linejoin:miter;stroke-opacity:1" d="M 583.824,331.888 583.824,341.15 z" id="boundary" inkscape:connector-curvature="0" />
	<path style="fill:none;stroke:red;stroke-width:1px;stroke-linecap:butt;stroke-linejoin:miter;stroke-opacity:1" d="M 587.529,37.3445 592.161,45.6807 z" id="boundary" inkscape:connector-curvature="0" />
	<path style="fill:none;stroke:red;stroke-width:1px;stroke-linecap:butt;stroke-linejoin:miter;stroke-opacity:1" d="M 592.161,45.6807 595.866,54.943 z" id="boundary" inkscape:connector-curvature="0" />
	<path style="fill:none;stroke:red;stroke-width:1px;stroke-linecap:butt;stroke-linejoin:miter;stroke-opacity:1" d="M 593.087,280.945 602.349,280.945 z" id="boundary" inkscape:connector-curvature="0" />
	<path style="fill:none;stroke:red;stroke-width:1px;stroke-linecap:butt;stroke-linejoin:miter;stroke-opacity:1" d="M 595.866,54.943 597.718,64.2054 z" id="boundary" inkscape:connector-curvature="0" />
	<path style="fill:none;stroke:red;stroke-width:1px;stroke-linecap:butt;stroke-linejoin:miter;stroke-opacity:1" d="M 597.718,64.2054 597.718,73.4678 z" id="boundary" inkscape:connector-curvature="0" />
	<path style="fill:none;stroke:red;stroke-width:1px;stroke-linecap:butt;stroke-linejoin:miter;stroke-opacity:1" d="M 597.718,73.4678 597.718,82.7302 z" id="boundary" inkscape:connector-curvature="0" />
	<path style="fill:none;stroke:red;stroke-width:1px;stroke-linecap:butt;stroke-linejoin:miter;stroke-opacity:1" d="M 597.718,82.7302 597.718,91.9925 z" id="boundary" inkscape:connector-curvature="0" />
	<path style="fill:none;stroke:red;stroke-width:1px;stroke-linecap:butt;stroke-linejoin:miter;stroke-opacity:1" d="M 597.718,91.9925 597.718,101.255 z" id="boundary" inkscape:connector-curvature="0" />
	<path style="fill:none;stroke:red;stroke-width:1px;stroke-linecap:butt;stroke-linejoin:miter;stroke-opacity:1" d="M 597.718,101.255 597.718,110.517 z" id="boundary" inkscape:connector-curvature="0" />
	<path style="fill:none;stroke:red;stroke-width:1px;stroke-linecap:butt;stroke-linejoin:miter;stroke-opacity:1" d="M 597.718,110.517 597.718,119.78 z" id="boundary" inkscape:connector-curvature="0" />
	<path style="fill:none;stroke:red;stroke-width:1px;stroke-linecap:butt;stroke-linejoin:miter;stroke-opacity:1" d="M 597.718,119.78 597.718,129.042 z" id="boundary" inkscape:connector-curvature="0" />
	<path style="fill:none;stroke:red;stroke-width:1px;stroke-linecap:butt;stroke-linejoin:miter;stroke-opacity:1" d="M 597.718,129.042 597.718,138.304 z" id="boundary" inkscape:connector-curvature="0" />
	<path style="fill:none;stroke:red;stroke-width:1px;stroke-linecap:butt;stroke-linejoin:miter;stroke-opacity:1" d="M 597.718,138.304 600.497,147.567 z" id="boundary" inkscape:connector-curvature="0" />
	<path style="fill:none;stroke:red;stroke-width:1px;stroke-linecap:butt;stroke-linejoin:miter;stroke-opacity:1" d="M 600.497,147.567 606.98,154.977 z" id="boundary" inkscape:connector-curvature="0" />
	<path style="fill:none;stroke:red;stroke-width:1px;stroke-linecap:butt;stroke-linejoin:miter;stroke-opacity:1" d="M 602.349,280.945 611.612,280.945 z" id="boundary" inkscape:connector-curvature="0" />
	<path style="fill:none;stroke:red;stroke-width:1px;stroke-linecap:butt;stroke-linejoin:miter;stroke-opacity:1" d="M 606.98,154.977 611.612,163.313 z" id="boundary" inkscape:connector-curvature="0" />
	<path style="fill:none;stroke:red;stroke-width:1px;stroke-linecap:butt;stroke-linejoin:miter;stroke-opacity:1" d="M 611.612,163.313 616.243,171.649 z" id="boundary" inkscape:connector-curvature="0" />
	<path style="fill:none;stroke:red;stroke-width:1px;stroke-linecap:butt;stroke-linejoin:miter;stroke-opacity:1" d="M 611.612,280.945 619.948,276.314 z" id="boundary" inkscape:connector-curvature="0" />
	<path style="fill:none;stroke:red;stroke-width:1px;stroke-linecap:butt;stroke-linejoin:miter;stroke-opacity:1" d="M 616.243,171.649 620.874,179.985 z" id="boundary" inkscape:connector-curvature="0" />
	<path style="fill:none;stroke:red;stroke-width:1px;stroke-linecap:butt;stroke-linejoin:miter;stroke-opacity:1" d="M 619.948,276.314 629.21,276.314 z" id="boundary" inkscape:connector-curvature="0" />
	<path style="fill:none;stroke:red;stroke-width:1px;stroke-linecap:butt;stroke-linejoin:miter;stroke-opacity:1" d="M 620.874,179.985 625.505,188.321 z" id="boundary" inkscape:connector-curvature="0" />
	<path style="fill:none;stroke:red;stroke-width:1px;stroke-linecap:butt;stroke-linejoin:miter;stroke-opacity:1" d="M 625.505,188.321 630.136,196.657 z" id="boundary" inkscape:connector-curvature="0" />
	<path style="fill:none;stroke:red;stroke-width:1px;stroke-linecap:butt;stroke-linejoin:miter;stroke-opacity:1" d="M 629.21,276.314 638.472,276.314 z" id="boundary" inkscape:connector-curvature="0" />
	<path style="fill:none;stroke:red;stroke-width:1px;stroke-linecap:butt;stroke-linejoin:miter;stroke-opacity:1" d="M 630.136,196.657 634.768,204.993 z" id="boundary" inkscape:connector-curvature="0" />
	<path style="fill:none;stroke:red;stroke-width:1px;stroke-linecap:butt;stroke-linejoin:miter;stroke-opacity:1" d="M 634.768,204.993 642.177,210.551 z" id="boundary" inkscape:connector-curvature="0" />
	<path style="fill:none;stroke:red;stroke-width:1px;stroke-linecap:butt;stroke-linejoin:miter;stroke-opacity:1" d="M 638.472,276.314 647.735,276.314 z" id="boundary" inkscape:connector-curvature="0" />
	<path style="fill:none;stroke:red;stroke-width:1px;stroke-linecap:butt;stroke-linejoin:miter;stroke-opacity:1" d="M 642.177,210.551 651.44,210.551 z" id="boundary" inkscape:connector-curvature="0" />
	<path style="fill:none;stroke:red;stroke-width:1px;stroke-linecap:butt;stroke-linejoin:miter;stroke-opacity:1" d="M 647.735,276.314 656.997,276.314 z" id="boundary" inkscape:connector-curvature="0" />
	<path style="fill:none;stroke:red;stroke-width:1px;stroke-linecap:butt;stroke-linejoin:miter;stroke-opacity:1" d="M 651.44,210.551 660.702,210.551 z" id="boundary" inkscape:connector-curvature="0" />
	<path style="fill:none;stroke:red;stroke-width:1px;stroke-linecap:butt;stroke-linejoin:miter;stroke-opacity:1" d="M 656.997,276.314 666.26,276.314 z" id="boundary" inkscape:connector-curvature="0" />
	<path style="fill:none;stroke:red;stroke-width:1px;stroke-linecap:butt;stroke-linejoin:miter;stroke-opacity:1" d="M 660.702,210.551 669.965,210.551 z" id="boundary" inkscape:connector-curvature="0" />
	<path style="fill:none;stroke:red;stroke-width:1px;stroke-linecap:butt;stroke-linejoin:miter;stroke-opacity:1" d="M 666.26,276.314 675.522,276.314 z" id="boundary" inkscape:connector-curvature="0" />
	<path style="fill:none;stroke:red;stroke-width:1px;stroke-linecap:butt;stroke-linejoin:miter;stroke-opacity:1" d="M 669.965,210.551 678.301,205.92 z" id="boundary" inkscape:connector-curvature="0" />
	<path style="fill:none;stroke:red;stroke-width:1px;stroke-linecap:butt;stroke-linejoin:miter;stroke-opacity:1" d="M 675.522,276.314 684.784,276.314 z" id="boundary" inkscape:connector-curvature="0" />
	<path style="fill:none;stroke:red;stroke-width:1px;stroke-linecap:butt;stroke-linejoin:miter;stroke-opacity:1" d="M 678.301,205.92 684.784,194.805 z" id="boundary" inkscape:connector-curvature="0" />
	<path style="fill:none;stroke:red;stroke-width:1px;stroke-linecap:butt;stroke-linejoin:miter;stroke-opacity:1" d="M 684.784,176.28 684.784,185.542 z" id="boundary" inkscape:connector-curvature="0" />
	<path style="fill:none;stroke:red;stroke-width:1px;stroke-linecap:butt;stroke-linejoin:miter;stroke-opacity:1" d="M 684.784,176.28 689.415,167.018 z" id="boundary" inkscape:connector-curvature="0" />
	<path style="fill:none;stroke:red;stroke-width:1px;stroke-linecap:butt;stroke-linejoin:miter;stroke-opacity:1" d="M 684.784,185.542 684.784,194.805 z" id="boundary" inkscape:connector-curvature="0" />
	<path style="fill:none;stroke:red;stroke-width:1px;stroke-linecap:butt;stroke-linejoin:miter;stroke-opacity:1" d="M 684.784,276.314 694.047,276.314 z" id="boundary" inkscape:connector-curvature="0" />
	<path style="fill:none;stroke:red;stroke-width:1px;stroke-linecap:butt;stroke-linejoin:miter;stroke-opacity:1" d="M 689.415,167.018 694.047,157.755 z" id="boundary" inkscape:connector-curvature="0" />
	<path style="fill:none;stroke:red;stroke-width:1px;stroke-linecap:butt;stroke-linejoin:miter;stroke-opacity:1" d="M 694.047,157.755 698.678,148.493 z" id="boundary" inkscape:connector-curvature="0" />
	<path style="fill:none;stroke:red;stroke-width:1px;stroke-linecap:butt;stroke-linejoin:miter;stroke-opacity:1" d="M 694.047,276.314 702.383,280.945 z" id="boundary" inkscape:connector-curvature="0" />
	<path style="fill:none;stroke:red;stroke-width:1px;stroke-linecap:butt;stroke-linejoin:miter;stroke-opacity:1" d="M 698.678,148.493 706.088,141.083 z" id="boundary" inkscape:connector-curvature="0" />
	<path style="fill:none;stroke:red;stroke-width:1px;stroke-linecap:butt;stroke-linejoin:miter;stroke-opacity:1" d="M 702.383,280.945 711.645,280.945 z" id="boundary" inkscape:connector-curvature="0" />
	<path style="fill:none;stroke:red;stroke-width:1px;stroke-linecap:butt;stroke-linejoin:miter;stroke-opacity:1" d="M 706.088,141.083 713.498,133.673 z" id="boundary" inkscape:connector-curvature="0" />
	<path style="fill:none;stroke:red;stroke-width:1px;stroke-linecap:butt;stroke-linejoin:miter;stroke-opacity:1" d="M 711.645,280.945 720.908,280.945 z" id="boundary" inkscape:connector-curvature="0" />
	<path style="fill:none;stroke:red;stroke-width:1px;stroke-linecap:butt;stroke-linejoin:miter;stroke-opacity:1" d="M 713.498,133.673 722.76,129.042 z" id="boundary" inkscape:connector-curvature="0" />
	<path style="fill:none;stroke:red;stroke-width:1px;stroke-linecap:butt;stroke-linejoin:miter;stroke-opacity:1" d="M 720.908,280.945 730.17,280.945 z" id="boundary" inkscape:connector-curvature="0" />
	<path style="fill:none;stroke:red;stroke-width:1px;stroke-linecap:butt;stroke-linejoin:miter;stroke-opacity:1" d="M 722.76,129.042 732.022,124.411 z" id="boundary" inkscape:connector-curvature="0" />
	<path style="fill:none;stroke:red;stroke-width:1px;stroke-linecap:butt;stroke-linejoin:miter;stroke-opacity:1" d="M 730.17,280.945 739.432,280.945 z" id="boundary" inkscape:connector-curvature="0" />
	<path style="fill:none;stroke:red;stroke-width:1px;stroke-linecap:butt;stroke-linejoin:miter;stroke-opacity:1" d="M 732.022,124.411 740.359,116.075 z" id="boundary" inkscape:connector-curvature="0" />
	<path style="fill:none;stroke:red;stroke-width:1px;stroke-linecap:butt;stroke-linejoin:miter;stroke-opacity:1" d="M 739.432,280.945 745.916,288.355 z" id="boundary" inkscape:connector-curvature="0" />
	<path style="fill:none;stroke:red;stroke-width:1px;stroke-linecap:butt;stroke-linejoin:miter;stroke-opacity:1" d="M 740.359,69.7628 740.359,79.0252 z" id="boundary" inkscape:connector-curvature="0" />
	<path style="fill:none;stroke:red;stroke-width:1px;stroke-linecap:butt;stroke-linejoin:miter;stroke-opacity:1" d="M 740.359,69.7628 744.99,60.5005 z" id="boundary" inkscape:connector-curvature="0" />
	<path style="fill:none;stroke:red;stroke-width:1px;stroke-linecap:butt;stroke-linejoin:miter;stroke-opacity:1" d="M 740.359,79.0252 740.359,88.2876 z" id="boundary" inkscape:connector-curvature="0" />
	<path style="fill:none;stroke:red;stroke-width:1px;stroke-linecap:butt;stroke-linejoin:miter;stroke-opacity:1" d="M 740.359,88.2876 740.359,97.55 z" id="boundary" inkscape:connector-curvature="0" />
	<path style="fill:none;stroke:red;stroke-width:1px;stroke-linecap:butt;stroke-linejoin:miter;stroke-opacity:1" d="M 740.359,97.55 740.359,106.812 z" id="boundary" inkscape:connector-curvature="0" />
	<path style="fill:none;stroke:red;stroke-width:1px;stroke-linecap:butt;stroke-linejoin:miter;stroke-opacity:1" d="M 740.359,106.812 740.359,116.075 z" id="boundary" inkscape:connector-curvature="0" />
	<path style="fill:none;stroke:red;stroke-width:1px;stroke-linecap:butt;stroke-linejoin:miter;stroke-opacity:1" d="M 744.99,60.5005 752.4,53.0906 z" id="boundary" inkscape:connector-curvature="0" />
	<path style="fill:none;stroke:red;stroke-width:1px;stroke-linecap:butt;stroke-linejoin:miter;stroke-opacity:1" d="M 745.916,288.355 750.547,296.691 z" id="boundary" inkscape:connector-curvature="0" />
	<path style="fill:none;stroke:red;stroke-width:1px;stroke-linecap:butt;stroke-linejoin:miter;stroke-opacity:1" d="M 750.547,296.691 754.252,305.953 z" id="boundary" inkscape:connector-curvature="0" />
	<path style="fill:none;stroke:red;stroke-width:1px;stroke-linecap:butt;stroke-linejoin:miter;stroke-opacity:1" d="M 752.4,53.0906 760.736,48.4594 z" id="boundary" inkscape:connector-curvature="0" />
	<path style="fill:none;stroke:red;stroke-width:1px;stroke-linecap:butt;stroke-linejoin:miter;stroke-opacity:1" d="M 754.252,305.953 758.883,314.289 z" id="boundary" inkscape:connector-curvature="0" />
	<path style="fill:none;stroke:red;stroke-width:1px;stroke-linecap:butt;stroke-linejoin:miter;stroke-opacity:1" d="M 758.883,314.289 763.514,322.626 z" id="boundary" inkscape:connector-curvature="0" />
	<path style="fill:none;stroke:red;stroke-width:1px;stroke-linecap:butt;stroke-linejoin:miter;stroke-opacity:1" d="M 760.736,48.4594 769.072,43.8282 z" id="boundary" inkscape:connector-curvature="0" />
	<path style="fill:none;stroke:red;stroke-width:1px;stroke-linecap:butt;stroke-linejoin:miter;stroke-opacity:1" d="M 763.514,322.626 766.293,331.888 z" id="boundary" inkscape:connector-curvature="0" />
	<path style="fill:none;stroke:red;stroke-width:1px;stroke-linecap:butt;stroke-linejoin:miter;stroke-opacity:1" d="M 766.293,331.888 773.703,338.372 z" id="boundary" inkscape:connector-curvature="0" />
	<path style="fill:none;stroke:red;stroke-width:1px;stroke-linecap:butt;stroke-linejoin:miter;stroke-opacity:1" d="M 769.072,43.8282 777.408,48.4594 z" id="boundary" inkscape:connector-curvature="0" />
	<path style="fill:none;stroke:red;stroke-width:1px;stroke-linecap:butt;stroke-linejoin:miter;stroke-opacity:1" d="M 773.703,338.372 780.187,345.782 z" id="boundary" inkscape:connector-curvature="0" />
	<path style="fill:none;stroke:red;stroke-width:1px;stroke-linecap:butt;stroke-linejoin:miter;stroke-opacity:1" d="M 777.408,48.4594 786.67,48.4594 z" id="boundary" inkscape:connector-curvature="0" />
	<path style="fill:none;stroke:red;stroke-width:1px;stroke-linecap:butt;stroke-linejoin:miter;stroke-opacity:1" d="M 780.187,345.782 787.597,352.265 z" id="boundary" inkscape:connector-curvature="0" />
	<path style="fill:none;stroke:red;stroke-width:1px;stroke-linecap:butt;stroke-linejoin:miter;stroke-opacity:1" d="M 786.67,48.4594 795.007,53.0906 z" id="boundary" inkscape:connector-curvature="0" />
	<path style="fill:none;stroke:red;stroke-width:1px;stroke-linecap:butt;stroke-linejoin:miter;stroke-opacity:1" d="M 787.597,352.265 795.933,356.896 z" id="boundary" inkscape:connector-curvature="0" />
	<path style="fill:none;stroke:red;stroke-width:1px;stroke-linecap:butt;stroke-linejoin:miter;stroke-opacity:1" d="M 795.007,53.0906 804.269,53.0906 z" id="boundary" inkscape:connector-curvature="0" />
	<path style="fill:none;stroke:red;stroke-width:1px;stroke-linecap:butt;stroke-linejoin:miter;stroke-opacity:1" d="M 795.933,356.896 803.343,363.38 z" id="boundary" inkscape:connector-curvature="0" />
	<path style="fill:none;stroke:red;stroke-width:1px;stroke-linecap:butt;stroke-linejoin:miter;stroke-opacity:1" d="M 803.343,363.38 811.679,368.011 z" id="boundary" inkscape:connector-curvature="0" />
	<path style="fill:none;stroke:red;stroke-width:1px;stroke-linecap:butt;stroke-linejoin:miter;stroke-opacity:1" d="M 804.269,53.0906 812.605,57.7218 z" id="boundary" inkscape:connector-curvature="0" />
	<path style="fill:none;stroke:red;stroke-width:1px;stroke-linecap:butt;stroke-linejoin:miter;stroke-opacity:1" d="M 811.679,368.011 820.941,371.716 z" id="boundary" inkscape:connector-curvature="0" />
	<path style="fill:none;stroke:red;stroke-width:1px;stroke-linecap:butt;stroke-linejoin:miter;stroke-opacity:1" d="M 812.605,57.7218 820.941,62.3529 z" id="boundary" inkscape:connector-curvature="0" />
	<path style="fill:none;stroke:red;stroke-width:1px;stroke-linecap:butt;stroke-linejoin:miter;stroke-opacity:1" d="M 820.941,62.3529 828.351,68.8366 z" id="boundary" inkscape:connector-curvature="0" />
	<path style="fill:none;stroke:red;stroke-width:1px;stroke-linecap:butt;stroke-linejoin:miter;stroke-opacity:1" d="M 820.941,371.716 828.351,378.2 z" id="boundary" inkscape:connector-curvature="0" />
	<path style="fill:none;stroke:red;stroke-width:1px;stroke-linecap:butt;stroke-linejoin:miter;stroke-opacity:1" d="M 828.351,68.8366 836.687,73.4678 z" id="boundary" inkscape:connector-curvature="0" />
	<path style="fill:none;stroke:red;stroke-width:1px;stroke-linecap:butt;stroke-linejoin:miter;stroke-opacity:1" d="M 828.351,378.2 836.687,382.831 z" id="boundary" inkscape:connector-curvature="0" />
	<path style="fill:none;stroke:red;stroke-width:1px;stroke-linecap:butt;stroke-linejoin:miter;stroke-opacity:1" d="M 836.687,73.4678 841.318,81.8039 z" id="boundary" inkscape:connector-curvature="0" />
	<path style="fill:none;stroke:red;stroke-width:1px;stroke-linecap:butt;stroke-linejoin:miter;stroke-opacity:1" d="M 836.687,382.831 845.95,382.831 z" id="boundary" inkscape:connector-curvature="0" />
	<path style="fill:none;stroke:red;stroke-width:1px;stroke-linecap:butt;stroke-linejoin:miter;stroke-opacity:1" d="M 841.318,81.8039 845.023,91.0663 z" id="boundary" inkscape:connector-curvature="0" />
	<path style="fill:none;stroke:red;stroke-width:1px;stroke-linecap:butt;stroke-linejoin:miter;stroke-opacity:1" d="M 845.023,91.0663 849.655,99.4024 z" id="boundary" inkscape:connector-curvature="0" />
	<path style="fill:none;stroke:red;stroke-width:1px;stroke-linecap:butt;stroke-linejoin:miter;stroke-opacity:1" d="M 845.95,382.831 852.433,390.241 z" id="boundary" inkscape:connector-curvature="0" />
	<path style="fill:none;stroke:red;stroke-width:1px;stroke-linecap:butt;stroke-linejoin:miter;stroke-opacity:1" d="M 849.655,99.4024 852.433,108.665 z" id="boundary" inkscape:connector-curvature="0" />
	<path style="fill:none;stroke:red;stroke-width:1px;stroke-linecap:butt;stroke-linejoin:miter;stroke-opacity:1" d="M 852.433,108.665 860.769,113.296 z" id="boundary" inkscape:connector-curvature="0" />
	<path style="fill:none;stroke:red;stroke-width:1px;stroke-linecap:butt;stroke-linejoin:miter;stroke-opacity:1" d="M 852.433,390.241 861.696,393.946 z" id="boundary" inkscape:connector-curvature="0" />
	<path style="fill:none;stroke:red;stroke-width:1px;stroke-linecap:butt;stroke-linejoin:miter;stroke-opacity:1" d="M 860.769,113.296 870.032,113.296 z" id="boundary" inkscape:connector-curvature="0" />
	<path style="fill:none;stroke:red;stroke-width:1px;stroke-linecap:butt;stroke-linejoin:miter;stroke-opacity:1" d="M 861.696,393.946 870.958,396.725 z" id="boundary" inkscape:connector-curvature="0" />
	<path style="fill:none;stroke:red;stroke-width:1px;stroke-linecap:butt;stroke-linejoin:miter;stroke-opacity:1" d="M 870.032,113.296 879.294,113.296 z" id="boundary" inkscape:connector-curvature="0" />
	<path style="fill:none;stroke:red;stroke-width:1px;stroke-linecap:butt;stroke-linejoin:miter;stroke-opacity:1" d="M 870.958,396.725 880.22,396.725 z" id="boundary" inkscape:connector-curvature="0" />
	<path style="fill:none;stroke:red;stroke-width:1px;stroke-linecap:butt;stroke-linejoin:miter;stroke-opacity:1" d="M 879.294,113.296 888.556,113.296 z" id="boundary" inkscape:connector-curvature="0" />
	<path style="fill:none;stroke:red;stroke-width:1px;stroke-linecap:butt;stroke-linejoin:miter;stroke-opacity:1" d="M 880.22,396.725 889.483,396.725 z" id="boundary" inkscape:connector-curvature="0" />
	<path style="fill:none;stroke:red;stroke-width:1px;stroke-linecap:butt;stroke-linejoin:miter;stroke-opacity:1" d="M 888.556,113.296 897.819,113.296 z" id="boundary" inkscape:connector-curvature="0" />
	<path style="fill:none;stroke:red;stroke-width:1px;stroke-linecap:butt;stroke-linejoin:miter;stroke-opacity:1" d="M 889.483,396.725 898.745,396.725 z" id="boundary" inkscape:connector-curvature="0" />
	<path style="fill:none;stroke:red;stroke-width:1px;stroke-linecap:butt;stroke-linejoin:miter;stroke-opacity:1" d="M 897.819,113.296 907.081,113.296 z" id="boundary" inkscape:connector-curvature="0" />
	<path style="fill:none;stroke:red;stroke-width:1px;stroke-linecap:butt;stroke-linejoin:miter;stroke-opacity:1" d="M 898.745,396.725 908.007,396.725 z" id="boundary" inkscape:connector-curvature="0" />
	<path style="fill:none;stroke:red;stroke-width:1px;stroke-linecap:butt;stroke-linejoin:miter;stroke-opacity:1" d="M 907.081,113.296 916.344,113.296 z" id="boundary" inkscape:connector-curvature="0" />
	<path style="fill:none;stroke:red;stroke-width:1px;stroke-linecap:butt;stroke-linejoin:miter;stroke-opacity:1" d="M 908.007,396.725 917.27,396.725 z" id="boundary" inkscape:connector-curvature="0" />
	<path style="fill:none;stroke:red;stroke-width:1px;stroke-linecap:butt;stroke-linejoin:miter;stroke-opacity:1" d="M 916.344,113.296 924.68,117.927 z" id="boundary" inkscape:connector-curvature="0" />
	<path style="fill:none;stroke:red;stroke-width:1px;stroke-linecap:butt;stroke-linejoin:miter;stroke-opacity:1" d="M 917.27,396.725 926.532,396.725 z" id="boundary" inkscape:connector-curvature="0" />
	<path style="fill:none;stroke:red;stroke-width:1px;stroke-linecap:butt;stroke-linejoin:miter;stroke-opacity:1" d="M 924.68,117.927 931.163,125.337 z" id="boundary" inkscape:connector-curvature="0" />
	<path style="fill:none;stroke:red;stroke-width:1px;stroke-linecap:butt;stroke-linejoin:miter;stroke-opacity:1" d="M 926.532,396.725 935.795,396.725 z" id="boundary" inkscape:connector-curvature="0" />
	<path style="fill:none;stroke:red;stroke-width:1px;stroke-linecap:butt;stroke-linejoin:miter;stroke-opacity:1" d="M 931.163,125.337 935.795,133.673 z" id="boundary" inkscape:connector-curvature="0" />
	<path style="fill:none;stroke:red;stroke-width:1px;stroke-linecap:butt;stroke-linejoin:miter;stroke-opacity:1" d="M 935.795,133.673 940.426,142.009 z" id="boundary" inkscape:connector-curvature="0" />
	<path style="fill:none;stroke:red;stroke-width:1px;stroke-linecap:butt;stroke-linejoin:miter;stroke-opacity:1" d="M 935.795,396.725 945.057,396.725 z" id="boundary" inkscape:connector-curvature="0" />
	<path style="fill:none;stroke:red;stroke-width:1px;stroke-linecap:butt;stroke-linejoin:miter;stroke-opacity:1" d="M 940.426,142.009 940.426,151.272 z" id="boundary" inkscape:connector-curvature="0" />
	<path style="fill:none;stroke:red;stroke-width:1px;stroke-linecap:butt;stroke-linejoin:miter;stroke-opacity:1" d="M 940.426,151.272 945.057,159.608 z" id="boundary" inkscape:connector-curvature="0" />
	<path style="fill:none;stroke:red;stroke-width:1px;stroke-linecap:butt;stroke-linejoin:miter;stroke-opacity:1" d="M 945.057,159.608 945.057,168.87 z" id="boundary" inkscape:connector-curvature="0" />
	<path style="fill:none;stroke:red;stroke-width:1px;stroke-linecap:butt;stroke-linejoin:miter;stroke-opacity:1" d="M 945.057,168.87 945.057,178.133 z" id="boundary" inkscape:connector-curvature="0" />
	<path style="fill:none;stroke:red;stroke-width:1px;stroke-linecap:butt;stroke-linejoin:miter;stroke-opacity:1" d="M 945.057,178.133 945.057,187.395 z" id="boundary" inkscape:connector-curvature="0" />
	<path style="fill:none;stroke:red;stroke-width:1px;stroke-linecap:butt;stroke-linejoin:miter;stroke-opacity:1" d="M 945.057,187.395 945.057,196.657 z" id="boundary" inkscape:connector-curvature="0" />
	<path style="fill:none;stroke:red;stroke-width:1px;stroke-linecap:butt;stroke-linejoin:miter;stroke-opacity:1" d="M 945.057,196.657 945.057,205.92 z" id="boundary" inkscape:connector-curvature="0" />
	<path style="fill:none;stroke:red;stroke-width:1px;stroke-linecap:butt;stroke-linejoin:miter;stroke-opacity:1" d="M 945.057,205.92 954.319,208.698 z" id="boundary" inkscape:connector-curvature="0" />
	<path style="fill:none;stroke:red;stroke-width:1px;stroke-linecap:butt;stroke-linejoin:miter;stroke-opacity:1" d="M 945.057,396.725 954.319,396.725 z" id="boundary" inkscape:connector-curvature="0" />
	<path style="fill:none;stroke:red;stroke-width:1px;stroke-linecap:butt;stroke-linejoin:miter;stroke-opacity:1" d="M 954.319,208.698 962.655,213.33 z" id="boundary" inkscape:connector-curvature="0" />
	<path style="fill:none;stroke:red;stroke-width:1px;stroke-linecap:butt;stroke-linejoin:miter;stroke-opacity:1" d="M 954.319,396.725 961.729,390.241 z" id="boundary" inkscape:connector-curvature="0" />
	<path style="fill:none;stroke:red;stroke-width:1px;stroke-linecap:butt;stroke-linejoin:miter;stroke-opacity:1" d="M 961.729,390.241 968.213,378.2 z" id="boundary" inkscape:connector-curvature="0" />
	<path style="fill:none;stroke:red;stroke-width:1px;stroke-linecap:butt;stroke-linejoin:miter;stroke-opacity:1" d="M 962.655,213.33 967.287,221.666 z" id="boundary" inkscape:connector-curvature="0" />
	<path style="fill:none;stroke:red;stroke-width:1px;stroke-linecap:butt;stroke-linejoin:miter;stroke-opacity:1" d="M 967.287,221.666 970.992,230.928 z" id="boundary" inkscape:connector-curvature="0" />
	<path style="fill:none;stroke:red;stroke-width:1px;stroke-linecap:butt;stroke-linejoin:miter;stroke-opacity:1" d="M 968.213,378.2 975.623,371.716 z" id="boundary" inkscape:connector-curvature="0" />
	<path style="fill:none;stroke:red;stroke-width:1px;stroke-linecap:butt;stroke-linejoin:miter;stroke-opacity:1" d="M 970.992,230.928 975.623,239.264 z" id="boundary" inkscape:connector-curvature="0" />
	<path style="fill:none;stroke:red;stroke-width:1px;stroke-linecap:butt;stroke-linejoin:miter;stroke-opacity:1" d="M 975.623,239.264 979.328,248.527 z" id="boundary" inkscape:connector-curvature="0" />
	<path style="fill:none;stroke:red;stroke-width:1px;stroke-linecap:butt;stroke-linejoin:miter;stroke-opacity:1" d="M 975.623,371.716 980.254,362.454 z" id="boundary" inkscape:connector-curvature="0" />
	<path style="fill:none;stroke:red;stroke-width:1px;stroke-linecap:butt;stroke-linejoin:miter;stroke-opacity:1" d="M 979.328,248.527 983.959,256.863 z" id="boundary" inkscape:connector-curvature="0" />
	<path style="fill:none;stroke:red;stroke-width:1px;stroke-linecap:butt;stroke-linejoin:miter;stroke-opacity:1" d="M 980.254,362.454 986.738,355.044 z" id="boundary" inkscape:connector-curvature="0" />
	<path style="fill:none;stroke:red;stroke-width:1px;stroke-linecap:butt;stroke-linejoin:miter;stroke-opacity:1" d="M 983.959,256.863 986.738,266.125 z" id="boundary" inkscape:connector-curvature="0" />
	<path style="fill:none;stroke:red;stroke-width:1px;stroke-linecap:butt;stroke-linejoin:miter;stroke-opacity:1" d="M 986.738,266.125 986.738,275.387 z" id="boundary" inkscape:connector-curvature="0" />
	<path style="fill:none;stroke:red;stroke-width:1px;stroke-linecap:butt;stroke-linejoin:miter;stroke-opacity:1" d="M 986.738,275.387 986.738,284.65 z" id="boundary" inkscape:connector-curvature="0" />
	<path style="fill:none;stroke:red;stroke-width:1px;stroke-linecap:butt;stroke-linejoin:miter;stroke-opacity:1" d="M 986.738,284.65 991.369,292.986 z" id="boundary" inkscape:connector-curvature="0" />
	<path style="fill:none;stroke:red;stroke-width:1px;stroke-linecap:butt;stroke-linejoin:miter;stroke-opacity:1" d="M 986.738,355.044 991.369,345.782 z" id="boundary" inkscape:connector-curvature="0" />
	<path style="fill:none;stroke:red;stroke-width:1px;stroke-linecap:butt;stroke-linejoin:miter;stroke-opacity:1" d="M 991.369,292.986 996,301.322 z" id="boundary" inkscape:connector-curvature="0" />
	<path style="fill:none;stroke:red;stroke-width:1px;stroke-linecap:butt;stroke-linejoin:miter;stroke-opacity:1" d="M 991.369,345.782 996,329.109 z" id="boundary" inkscape:connector-curvature="0" />
	<path style="fill:none;stroke:red;stroke-width:1px;stroke-linecap:butt;stroke-linejoin:miter;stroke-opacity:1" d="M 996,301.322 996,310.585 z" id="boundary" inkscape:connector-curvature="0" />
	<path style="fill:none;stroke:red;stroke-width:1px;stroke-linecap:butt;stroke-linejoin:miter;stroke-opacity:1" d="M 996,310.585 996,319.847 z" id="boundary" inkscape:connector-curvature="0" />
	<path style="fill:none;stroke:red;stroke-width:1px;stroke-linecap:butt;stroke-linejoin:miter;stroke-opacity:1" d="M 996,319.847 996,329.109 z" id="boundary" inkscape:connector-curvature="0" />
	<circle cx="4" cy="111.444" r="4" fill="#0" id="circle0"/>
	<circle cx="8.63119" cy="102.181" r="4" fill="#0" id="circle1"/>
	<circle cx="8.63119" cy="119.78" r="4" fill="#0" id="circle2"/>
	<circle cx="16.0411" cy="94.7712" r="4" fill="#0" id="circle3"/>
	<circle cx="17.8936" cy="123.485" r="4" fill="#0" id="circle4"/>
	<circle cx="22.5247" cy="83.6564" r="4" fill="#0" id="circle5"/>
	<circle cx="26.2297" cy="128.116" r="4" fill="#0" id="circle6"/>
	<circle cx="29.9346" cy="76.2465" r="4" fill="#0" id="circle7"/>
	<circle cx="34.5658" cy="66.9841" r="4" fill="#0" id="circle8"/>
	<circle cx="35.4921" cy="128.116" r="4" fill="#0" id="circle9"/>
	<circle cx="41.0495" cy="55.8693" r="4" fill="#0" id="circle10"/>
	<circle cx="44.7544" cy="128.116" r="4" fill="#0" id="circle11"/>
	<circle cx="50.3119" cy="51.2381" r="4" fill="#0" id="circle12"/>
	<circle cx="54.0168" cy="128.116" r="4" fill="#0" id="circle13"/>
	<circle cx="59.5742" cy="48.4594" r="4" fill="#0" id="circle14"/>
	<circle cx="63.2792" cy="128.116" r="4" fill="#0" id="circle15"/>
	<circle cx="64.2054" cy="366.159" r="4" fill="#0" id="circle16"/>
	<circle cx="68.8366" cy="50.3119" r="4" fill="#0" id="circle17"/>
	<circle cx="68.8366" cy="352.265" r="4" fill="#0" id="circle18"/>
	<circle cx="68.8366" cy="374.495" r="4" fill="#0" id="circle19"/>
	<circle cx="72.5415" cy="128.116" r="4" fill="#0" id="circle20"/>
	<circle cx="73.4678" cy="343.003" r="4" fill="#0" id="circle21"/>
	<circle cx="75.3203" cy="381.905" r="4" fill="#0" id="circle22"/>
	<circle cx="78.099" cy="53.0906" r="4" fill="#0" id="circle23"/>
	<circle cx="78.099" cy="135.526" r="4" fill="#0" id="circle24"/>
	<circle cx="80.8777" cy="335.593" r="4" fill="#0" id="circle25"/>
	<circle cx="82.7302" cy="143.862" r="4" fill="#0" id="circle26"/>
	<circle cx="82.7302" cy="153.124" r="4" fill="#0" id="circle27"/>
	<circle cx="82.7302" cy="162.387" r="4" fill="#0" id="circle28"/>
	<circle cx="82.7302" cy="171.649" r="4" fill="#0" id="circle29"/>
	<circle cx="82.7302" cy="180.911" r="4" fill="#0" id="circle30"/>
	<circle cx="82.7302" cy="387.462" r="4" fill="#0" id="circle31"/>
	<circle cx="86.4351" cy="57.7218" r="4" fill="#0" id="circle32"/>
	<circle cx="87.3613" cy="189.247" r="4" fill="#0" id="circle33"/>
	<circle cx="88.2876" cy="328.183" r="4" fill="#0" id="circle34"/>
	<circle cx="91.0663" cy="382.831" r="4" fill="#0" id="circle35"/>
	<circle cx="92.9188" cy="318.921" r="4" fill="#0" id="circle36"/>
	<circle cx="93.845" cy="196.657" r="4" fill="#0" id="circle37"/>
	<circle cx="95.6975" cy="57.7218" r="4" fill="#0" id="circle38"/>
	<circle cx="97.55" cy="309.658" r="4" fill="#0" id="circle39"/>
	<circle cx="99.4024" cy="377.274" r="4" fill="#0" id="circle40"/>
	<circle cx="101.255" cy="202.215" r="4" fill="#0" id="circle41"/>
	<circle cx="101.255" cy="211.477" r="4" fill="#0" id="circle42"/>
	<circle cx="101.255" cy="220.739" r="4" fill="#0" id="circle43"/>
	<circle cx="101.255" cy="230.002" r="4" fill="#0" id="circle44"/>
	<circle cx="101.255" cy="239.264" r="4" fill="#0" id="circle45"/>
	<circle cx="101.255" cy="248.527" r="4" fill="#0" id="circle46"/>
	<circle cx="101.255" cy="257.789" r="4" fill="#0" id="circle47"/>
	<circle cx="101.255" cy="267.051" r="4" fill="#0" id="circle48"/>
	<circle cx="101.255" cy="276.314" r="4" fill="#0" id="circle49"/>
	<circle cx="101.255" cy="285.576" r="4" fill="#0" id="circle50"/>
	<circle cx="101.255" cy="294.838" r="4" fill="#0" id="circle51"/>
	<circle cx="104.96" cy="58.648" r="4" fill="#0" id="circle52"/>
	<circle cx="106.812" cy="368.937" r="4" fill="#0" id="circle53"/>
	<circle cx="113.296" cy="63.2792" r="4" fill="#0" id="circle54"/>
	<circle cx="114.222" cy="362.454" r="4" fill="#0" id="circle55"/>
	<circle cx="118.853" cy="353.191" r="4" fill="#0" id="circle56"/>
	<circle cx="120.706" cy="327.257" r="4" fill="#0" id="circle57"/>
	<circle cx="120.706" cy="336.519" r="4" fill="#0" id="circle58"/>
	<circle cx="122.558" cy="66.9841" r="4" fill="#0" id="circle59"/>
	<circle cx="128.116" cy="320.773" r="4" fill="#0" id="circle60"/>
	<circle cx="130.894" cy="71.6153" r="4" fill="#0" id="circle61"/>
	<circle cx="132.747" cy="311.511" r="4" fill="#0" id="circle62"/>
	<circle cx="137.378" cy="302.248" r="4" fill="#0" id="circle63"/>
	<circle cx="138.304" cy="78.099" r="4" fill="#0" id="circle64"/>
	<circle cx="142.009" cy="292.986" r="4" fill="#0" id="circle65"/>
	<circle cx="143.862" cy="85.5089" r="4" fill="#0" id="circle66"/>
	<circle cx="146.641" cy="283.724" r="4" fill="#0" id="circle67"/>
	<circle cx="151.272" cy="91.0663" r="4" fill="#0" id="circle68"/>
	<circle cx="153.124" cy="276.314" r="4" fill="#0" id="circle69"/>
	<circle cx="160.534" cy="94.7712" r="4" fill="#0" id="circle70"/>
	<circle cx="160.534" cy="269.83" r="4" fill="#0" id="circle71"/>
	<circle cx="169.796" cy="94.7712" r="4" fill="#0" id="circle72"/>
	<circle cx="169.796" cy="267.051" r="4" fill="#0" id="circle73"/>
	<circle cx="179.059" cy="94.7712" r="4" fill="#0" id="circle74"/>
	<circle cx="179.059" cy="267.051" r="4" fill="#0" id="circle75"/>
	<circle cx="188.321" cy="94.7712" r="4" fill="#0" id="circle76"/>
	<circle cx="188.321" cy="267.051" r="4" fill="#0" id="circle77"/>
	<circle cx="197.584" cy="94.7712" r="4" fill="#0" id="circle78"/>
	<circle cx="197.584" cy="267.051" r="4" fill="#0" id="circle79"/>
	<circle cx="206.846" cy="94.7712" r="4" fill="#0" id="circle80"/>
	<circle cx="206.846" cy="267.051" r="4" fill="#0" id="circle81"/>
	<circle cx="216.108" cy="94.7712" r="4" fill="#0" id="circle82"/>
	<circle cx="216.108" cy="267.051" r="4" fill="#0" id="circle83"/>
	<circle cx="224.444" cy="262.42" r="4" fill="#0" id="circle84"/>
	<circle cx="225.371" cy="94.7712" r="4" fill="#0" id="circle85"/>
	<circle cx="233.707" cy="262.42" r="4" fill="#0" id="circle86"/>
	<circle cx="234.633" cy="94.7712" r="4" fill="#0" id="circle87"/>
	<circle cx="242.969" cy="262.42" r="4" fill="#0" id="circle88"/>
	<circle cx="243.895" cy="94.7712" r="4" fill="#0" id="circle89"/>
	<circle cx="252.232" cy="262.42" r="4" fill="#0" id="circle90"/>
	<circle cx="253.158" cy="94.7712" r="4" fill="#0" id="circle91"/>
	<circle cx="261.494" cy="262.42" r="4" fill="#0" id="circle92"/>
	<circle cx="262.42" cy="94.7712" r="4" fill="#0" id="circle93"/>
	<circle cx="270.756" cy="262.42" r="4" fill="#0" id="circle94"/>
	<circle cx="271.683" cy="94.7712" r="4" fill="#0" id="circle95"/>
	<circle cx="280.019" cy="262.42" r="4" fill="#0" id="circle96"/>
	<circle cx="280.945" cy="94.7712" r="4" fill="#0" id="circle97"/>
	<circle cx="289.281" cy="262.42" r="4" fill="#0" id="circle98"/>
	<circle cx="290.207" cy="94.7712" r="4" fill="#0" id="circle99"/>
	<circle cx="298.543" cy="262.42" r="4" fill="#0" id="circle100"/>
	<circle cx="299.47" cy="94.7712" r="4" fill="#0" id="circle101"/>
	<circle cx="307.806" cy="262.42" r="4" fill="#0" id="circle102"/>
	<circle cx="308.732" cy="94.7712" r="4" fill="#0" id="circle103"/>
	<circle cx="314.289" cy="269.83" r="4" fill="#0" id="circle104"/>
	<circle cx="315.216" cy="279.092" r="4" fill="#0" id="circle105"/>
	<circle cx="317.994" cy="94.7712" r="4" fill="#0" id="circle106"/>
	<circle cx="318.921" cy="288.355" r="4" fill="#0" id="circle107"/>
	<circle cx="323.552" cy="296.691" r="4" fill="#0" id="circle108"/>
	<circle cx="327.257" cy="94.7712" r="4" fill="#0" id="circle109"/>
	<circle cx="328.183" cy="305.027" r="4" fill="#0" id="circle110"/>
	<circle cx="328.183" cy="314.289" r="4" fill="#0" id="circle111"/>
	<circle cx="328.183" cy="323.552" r="4" fill="#0" id="circle112"/>
	<circle cx="328.183" cy="332.814" r="4" fill="#0" id="circle113"/>
	<circle cx="328.183" cy="342.077" r="4" fill="#0" id="circle114"/>
	<circle cx="328.183" cy="351.339" r="4" fill="#0" id="circle115"/>
	<circle cx="332.814" cy="359.675" r="4" fill="#0" id="circle116"/>
	<circle cx="336.519" cy="95.6975" r="4" fill="#0" id="circle117"/>
	<circle cx="341.15" cy="364.306" r="4" fill="#0" id="circle118"/>
	<circle cx="344.855" cy="100.329" r="4" fill="#0" id="circle119"/>
	<circle cx="349.486" cy="368.937" r="4" fill="#0" id="circle120"/>
	<circle cx="354.118" cy="104.034" r="4" fill="#0" id="circle121"/>
	<circle cx="356.896" cy="113.296" r="4" fill="#0" id="circle122"/>
	<circle cx="356.896" cy="267.051" r="4" fill="#0" id="circle123"/>
	<circle cx="356.896" cy="276.314" r="4" fill="#0" id="circle124"/>
	<circle cx="356.896" cy="285.576" r="4" fill="#0" id="circle125"/>
	<circle cx="356.896" cy="294.838" r="4" fill="#0" id="circle126"/>
	<circle cx="356.896" cy="304.101" r="4" fill="#0" id="circle127"/>
	<circle cx="356.896" cy="313.363" r="4" fill="#0" id="circle128"/>
	<circle cx="356.896" cy="322.626" r="4" fill="#0" id="circle129"/>
	<circle cx="358.749" cy="368.011" r="4" fill="#0" id="circle130"/>
	<circle cx="361.528" cy="330.962" r="4" fill="#0" id="circle131"/>
	<circle cx="364.306" cy="118.853" r="4" fill="#0" id="circle132"/>
	<circle cx="366.159" cy="267.051" r="4" fill="#0" id="circle133"/>
	<circle cx="366.159" cy="339.298" r="4" fill="#0" id="circle134"/>
	<circle cx="366.159" cy="348.56" r="4" fill="#0" id="circle135"/>
	<circle cx="366.159" cy="357.823" r="4" fill="#0" id="circle136"/>
	<circle cx="368.011" cy="128.116" r="4" fill="#0" id="circle137"/>
	<circle cx="370.79" cy="137.378" r="4" fill="#0" id="circle138"/>
	<circle cx="375.421" cy="145.714" r="4" fill="#0" id="circle139"/>
	<circle cx="375.421" cy="154.977" r="4" fill="#0" id="circle140"/>
	<circle cx="375.421" cy="164.239" r="4" fill="#0" id="circle141"/>
	<circle cx="375.421" cy="267.051" r="4" fill="#0" id="circle142"/>
	<circle cx="380.052" cy="172.575" r="4" fill="#0" id="circle143"/>
	<circle cx="384.683" cy="180.911" r="4" fill="#0" id="circle144"/>
	<circle cx="384.683" cy="267.051" r="4" fill="#0" id="circle145"/>
	<circle cx="388.388" cy="190.174" r="4" fill="#0" id="circle146"/>
	<circle cx="393.946" cy="267.051" r="4" fill="#0" id="circle147"/>
	<circle cx="395.798" cy="196.657" r="4" fill="#0" id="circle148"/>
	<circle cx="403.208" cy="267.051" r="4" fill="#0" id="circle149"/>
	<circle cx="405.061" cy="196.657" r="4" fill="#0" id="circle150"/>
	<circle cx="406.913" cy="276.314" r="4" fill="#0" id="circle151"/>
	<circle cx="406.913" cy="285.576" r="4" fill="#0" id="circle152"/>
	<circle cx="406.913" cy="294.838" r="4" fill="#0" id="circle153"/>
	<circle cx="406.913" cy="304.101" r="4" fill="#0" id="circle154"/>
	<circle cx="406.913" cy="313.363" r="4" fill="#0" id="circle155"/>
	<circle cx="406.913" cy="322.626" r="4" fill="#0" id="circle156"/>
	<circle cx="406.913" cy="331.888" r="4" fill="#0" id="circle157"/>
	<circle cx="406.913" cy="341.15" r="4" fill="#0" id="circle158"/>
	<circle cx="411.544" cy="349.486" r="4" fill="#0" id="circle159"/>
	<circle cx="411.544" cy="358.749" r="4" fill="#0" id="circle160"/>
	<circle cx="413.397" cy="368.011" r="4" fill="#0" id="circle161"/>
	<circle cx="414.323" cy="196.657" r="4" fill="#0" id="circle162"/>
	<circle cx="418.028" cy="376.347" r="4" fill="#0" id="circle163"/>
	<circle cx="421.733" cy="385.61" r="4" fill="#0" id="circle164"/>
	<circle cx="423.585" cy="196.657" r="4" fill="#0" id="circle165"/>
	<circle cx="429.143" cy="392.093" r="4" fill="#0" id="circle166"/>
	<circle cx="432.848" cy="196.657" r="4" fill="#0" id="circle167"/>
	<circle cx="437.479" cy="396.725" r="4" fill="#0" id="circle168"/>
	<circle cx="441.184" cy="192.026" r="4" fill="#0" id="circle169"/>
	<circle cx="446.741" cy="400.43" r="4" fill="#0" id="circle170"/>
	<circle cx="450.446" cy="192.026" r="4" fill="#0" id="circle171"/>
	<circle cx="456.004" cy="401.356" r="4" fill="#0" id="circle172"/>
	<circle cx="459.709" cy="188.321" r="4" fill="#0" id="circle173"/>
	<circle cx="465.266" cy="401.356" r="4" fill="#0" id="circle174"/>
	<circle cx="468.971" cy="187.395" r="4" fill="#0" id="circle175"/>
	<circle cx="471.75" cy="143.862" r="4" fill="#0" id="circle176"/>
	<circle cx="471.75" cy="153.124" r="4" fill="#0" id="circle177"/>
	<circle cx="471.75" cy="162.387" r="4" fill="#0" id="circle178"/>
	<circle cx="471.75" cy="171.649" r="4" fill="#0" id="circle179"/>
	<circle cx="474.528" cy="401.356" r="4" fill="#0" id="circle180"/>
	<circle cx="476.381" cy="134.599" r="4" fill="#0" id="circle181"/>
	<circle cx="483.791" cy="127.19" r="4" fill="#0" id="circle182"/>
	<circle cx="483.791" cy="401.356" r="4" fill="#0" id="circle183"/>
	<circle cx="488.422" cy="117.927" r="4" fill="#0" id="circle184"/>
	<circle cx="493.053" cy="108.665" r="4" fill="#0" id="circle185"/>
	<circle cx="493.053" cy="401.356" r="4" fill="#0" id="circle186"/>
	<circle cx="501.389" cy="104.034" r="4" fill="#0" id="circle187"/>
	<circle cx="502.316" cy="401.356" r="4" fill="#0" id="circle188"/>
	<circle cx="509.725" cy="99.4024" r="4" fill="#0" id="circle189"/>
	<circle cx="511.578" cy="401.356" r="4" fill="#0" id="circle190"/>
	<circle cx="518.988" cy="96.6237" r="4" fill="#0" id="circle191"/>
	<circle cx="520.84" cy="401.356" r="4" fill="#0" id="circle192"/>
	<circle cx="522.693" cy="41.9757" r="4" fill="#0" id="circle193"/>
	<circle cx="522.693" cy="51.2381" r="4" fill="#0" id="circle194"/>
	<circle cx="522.693" cy="60.5005" r="4" fill="#0" id="circle195"/>
	<circle cx="522.693" cy="69.7628" r="4" fill="#0" id="circle196"/>
	<circle cx="522.693" cy="79.0252" r="4" fill="#0" id="circle197"/>
	<circle cx="527.324" cy="28.0822" r="4" fill="#0" id="circle198"/>
	<circle cx="530.103" cy="400.43" r="4" fill="#0" id="circle199"/>
	<circle cx="531.955" cy="18.8198" r="4" fill="#0" id="circle200"/>
	<circle cx="536.586" cy="9.55742" r="4" fill="#0" id="circle201"/>
	<circle cx="539.365" cy="396.725" r="4" fill="#0" id="circle202"/>
	<circle cx="545.849" cy="4.92624" r="4" fill="#0" id="circle203"/>
	<circle cx="547.701" cy="392.093" r="4" fill="#0" id="circle204"/>
	<circle cx="555.111" cy="4" r="4" fill="#0" id="circle205"/>
	<circle cx="556.037" cy="387.462" r="4" fill="#0" id="circle206"/>
	<circle cx="563.447" cy="8.63119" r="4" fill="#0" id="circle207"/>
	<circle cx="564.373" cy="382.831" r="4" fill="#0" id="circle208"/>
	<circle cx="571.783" cy="377.274" r="4" fill="#0" id="circle209"/>
	<circle cx="572.71" cy="12.3361" r="4" fill="#0" id="circle210"/>
	<circle cx="576.415" cy="21.5985" r="4" fill="#0" id="circle211"/>
	<circle cx="576.415" cy="368.011" r="4" fill="#0" id="circle212"/>
	<circle cx="581.046" cy="358.749" r="4" fill="#0" id="circle213"/>
	<circle cx="583.824" cy="28.0822" r="4" fill="#0" id="circle214"/>
	<circle cx="583.824" cy="285.576" r="4" fill="#0" id="circle215"/>
	<circle cx="583.824" cy="294.838" r="4" fill="#0" id="circle216"/>
	<circle cx="583.824" cy="304.101" r="4" fill="#0" id="circle217"/>
	<circle cx="583.824" cy="313.363" r="4" fill="#0" id="circle218"/>
	<circle cx="583.824" cy="322.626" r="4" fill="#0" id="circle219"/>
	<circle cx="583.824" cy="331.888" r="4" fill="#0" id="circle220"/>
	<circle cx="583.824" cy="341.15" r="4" fill="#0" id="circle221"/>
	<circle cx="587.529" cy="37.3445" r="4" fill="#0" id="circle222"/>
	<circle cx="592.161" cy="45.6807" r="4" fill="#0" id="circle223"/>
	<circle cx="593.087" cy="280.945" r="4" fill="#0" id="circle224"/>
	<circle cx="595.866" cy="54.943" r="4" fill="#0" id="circle225"/>
	<circle cx="597.718" cy="64.2054" r="4" fill="#0" id="circle226"/>
	<circle cx="597.718" cy="73.4678" r="4" fill="#0" id="circle227"/>
	<circle cx="597.718" cy="82.7302" r="4" fill="#0" id="circle228"/>
	<circle cx="597.718" cy="91.9925" r="4" fill="#0" id="circle229"/>
	<circle cx="597.718" cy="101.255" r="4" fill="#0" id="circle230"/>
	<circle cx="597.718" cy="110.517" r="4" fill="#0" id="circle231"/>
	<circle cx="597.718" cy="119.78" r="4" fill="#0" id="circle232"/>
	<circle cx="597.718" cy="129.042" r="4" fill="#0" id="circle233"/>
	<circle cx="597.718" cy="138.304" r="4" fill="#0" id="circle234"/>
	<circle cx="600.497" cy="147.567" r="4" fill="#0" id="circle235"/>
	<circle cx="602.349" cy="280.945" r="4" fill="#0" id="circle236"/>
	<circle cx="606.98" cy="154.977" r="4" fill="#0" id="circle237"/>
	<circle cx="611.612" cy="163.313" r="4" fill="#0" id="circle238"/>
	<circle cx="611.612" cy="280.945" r="4" fill="#0" id="circle239"/>
	<circle cx="616.243" cy="171.649" r="4" fill="#0" id="circle240"/>
	<circle cx="619.948" cy="276.314" r="4" fill="#0" id="circle241"/>
	<circle cx="620.874" cy="179.985" r="4" fill="#0" id="circle242"/>
	<circle cx="625.505" cy="188.321" r="4" fill="#0" id="circle243"/>
	<circle cx="629.21" cy="276.314" r="4" fill="#0" id="circle244"/>
	<circle cx="630.136" cy="196.657" r="4" fill="#0" id="circle245"/>
	<circle cx="634.768" cy="204.993" r="4" fill="#0" id="circle246"/>
	<circle cx="638.472" cy="276.314" r="4" fill="#0" id="circle247"/>
	<circle cx="642.177" cy="210.551" r="4" fill="#0" id="circle248"/>
	<circle cx="647.735" cy="276.314" r="4" fill="#0" id="circle249"/>
	<circle cx="651.44" cy="210.551" r="4" fill="#0" id="circle250"/>
	<circle cx="656.997" cy="276.314" r="4" fill="#0" id="circle251"/>
	<circle cx="660.702" cy="210.551" r="4" fill="#0" id="circle252"/>
	<circle cx="666.26" cy="276.314" r="4" fill="#0" id="circle253"/>
	<circle cx="669.965" cy="210.551" r="4" fill="#0" id="circle254"/>
	<circle cx="675.522" cy="276.314" r="4" fill="#0" id="circle255"/>
	<circle cx="678.301" cy="205.92" r="4" fill="#0" id="circle256"/>
	<circle cx="684.784" cy="176.28" r="4" fill="#0" id="circle257"/>
	<circle cx="684.784" cy="185.542" r="4" fill="#0" id="circle258"/>
	<circle cx="684.784" cy="194.805" r="4" fill="#0" id="circle259"/>
	<circle cx="684.784" cy="276.314" r="4" fill="#0" id="circle260"/>
	<circle cx="689.415" cy="167.018" r="4" fill="#0" id="circle261"/>
	<circle cx="694.047" cy="157.755" r="4" fill="#0" id="circle262"/>
	<circle cx="694.047" cy="276.314" r="4" fill="#0" id="circle263"/>
	<circle cx="698.678" cy="148.493" r="4" fill="#0" id="circle264"/>
	<circle cx="702.383" cy="280.945" r="4" fill="#0" id="circle265"/>
	<circle cx="706.088" cy="141.083" r="4" fill="#0" id="circle266"/>
	<circle cx="711.645" cy="280.945" r="4" fill="#0" id="circle267"/>
	<circle cx="713.498" cy="133.673" r="4" fill="#0" id="circle268"/>
	<circle cx="720.908" cy="280.945" r="4" fill="#0" id="circle269"/>
	<circle cx="722.76" cy="129.042" r="4" fill="#0" id="circle270"/>
	<circle cx="730.17" cy="280.945" r="4" fill="#0" id="circle271"/>
	<circle cx="732.022" cy="124.411" r="4" fill="#0" id="circle272"/>
	<circle cx="739.432" cy="280.945" r="4" fill="#0" id="circle273"/>
	<circle cx="740.359" cy="69.7628" r="4" fill="#0" id="circle274"/>
	<circle cx="740.359" cy="79.0252" r="4" fill="#0" id="circle275"/>
	<circle cx="740.359" cy="88.2876" r="4" fill="#0" id="circle276"/>
	<circle cx="740.359" cy="97.55" r="4" fill="#0" id="circle277"/>
	<circle cx="740.359" cy="106.812" r="4" fill="#0" id="circle278"/>
	<circle cx="740.359" cy="116.075" r="4" fill="#0" id="circle279"/>
	<circle cx="744.99" cy="60.5005" r="4" fill="#0" id="circle280"/>
	<circle cx="745.916" cy="288.355" r="4" fill="#0" id="circle281"/>
	<circle cx="750.547" cy="296.691" r="4" fill="#0" id="circle282"/>
	<circle cx="752.4" cy="53.0906" r="4" fill="#0" id="circle283"/>
	<circle cx="754.252" cy="305.953" r="4" fill="#0" id="circle284"/>
	<circle cx="758.883" cy="314.289" r="4" fill="#0" id="circle285"/>
	<circle cx="760.736" cy="48.4594" r="4" fill="#0" id="circle286"/>
	<circle cx="763.514" cy="322.626" r="4" fill="#0" id="circle287"/>
	<circle cx="766.293" cy="331.888" r="4" fill="#0" id="circle288"/>
	<circle cx="769.072" cy="43.8282" r="4" fill="#0" id="circle289"/>
	<circle cx="773.703" cy="338.372" r="4" fill="#0" id="circle290"/>
	<circle cx="777.408" cy="48.4594" r="4" fill="#0" id="circle291"/>
	<circle cx="780.187" cy="345.782" r="4" fill="#0" id="circle292"/>
	<circle cx="786.67" cy="48.4594" r="4" fill="#0" id="circle293"/>
	<circle cx="787.597" cy="352.265" r="4" fill="#0" id="circle294"/>
	<circle cx="795.007" cy="53.0906" r="4" fill="#0" id="circle295"/>
	<circle cx="795.933" cy="356.896" r="4" fill="#0" id="circle296"/>
	<circle cx="803.343" cy="363.38" r="4" fill="#0" id="circle297"/>
	<circle cx="804.269" cy="53.0906" r="4" fill="#0" id="circle298"/>
	<circle cx="811.679" cy="368.011" r="4" fill="#0" id="circle299"/>
	<circle cx="812.605" cy="57.7218" r="4" fill="#0" id="circle300"/>
	<circle cx="820.941" cy="62.3529" r="4" fill="#0" id="circle301"/>
	<circle cx="820.941" cy="371.716" r="4" fill="#0" id="circle302"/>
	<circle cx="828.351" cy="68.8366" r="4" fill="#0" id="circle303"/>
	<circle cx="828.351" cy="378.2" r="4" fill="#0" id="circle304"/>
	<circle cx="836.687" cy="73.4678" r="4" fill="#0" id="circle305"/>
	<circle cx="836.687" cy="382.831" r="4" fill="#0" id="circle306"/>
	<circle cx="841.318" cy="81.8039" r="4" fill="#0" id="circle307"/>
	<circle cx="845.023" cy="91.0663" r="4" fill="#0" id="circle308"/>
	<circle cx="845.95" cy="382.831" r="4" fill="#0" id="circle309"/>
	<circle cx="849.655" cy="99.4024" r="4" fill="#0" id="circle310"/>
	<circle cx="852.433" cy="108.665" r="4" fill="#0" id="circle311"/>
	<circle cx="852.433" cy="390.241" r="4" fill="#0" id="circle312"/>
	<circle cx="860.769" cy="113.296" r="4" fill="#0" id="circle313"/>
	<circle cx="861.696" cy="393.946" r="4" fill="#0" id="circle314"/>
	<circle cx="870.032" cy="113.296" r="4" fill="#0" id="circle315"/>
	<circle cx="870.958" cy="396.725" r="4" fill="#0" id="circle316"/>
	<circle cx="879.294" cy="113.296" r="4" fill="#0" id="circle317"/>
	<circle cx="880.22" cy="396.725" r="4" fill="#0" id="circle318"/>
	<circle cx="888.556" cy="113.296" r="4" fill="#0" id="circle319"/>
	<circle cx="889.483" cy="396.725" r="4" fill="#0" id="circle320"/>
	<circle cx="897.819" cy="113.296" r="4" fill="#0" id="circle321"/>
	<circle cx="898.745" cy="396.725" r="4" fill="#0" id="circle322"/>
	<circle cx="907.081" cy="113.296" r="4" fill="#0" id="circle323"/>
	<circle cx="908.007" cy="396.725" r="4" fill="#0" id="circle324"/>
	<circle cx="916.344" cy="113.296" r="4" fill="#0" id="circle325"/>
	<circle cx="917.27" cy="396.725" r="4" fill="#0" id="circle326"/>
	<circle cx="924.68" cy="117.927" r="4" fill="#0" id="circle327"/>
	<circle cx="926.532" cy="396.725" r="4" fill="#0" id="circle328"/>
	<circle cx="931.163" cy="125.337" r="4" fill="#0" id="circle329"/>
	<circle cx="935.795" cy="133.673" r="4" fill="#0" id="circle330"/>
	<circle cx="935.795" cy="396.725" r="4" fill="#0" id="circle331"/>
	<circle cx="940.426" cy="142.009" r="4" fill="#0" id="circle332"/>
	<circle cx="940.426" cy="151.272" r="4" fill="#0" id="circle333"/>
	<circle cx="945.057" cy="159.608" r="4" fill="#0" id="circle334"/>
	<circle cx="945.057" cy="168.87" r="4" fill="#0" id="circle335"/>
	<circle cx="945.057" cy="178.133" r="4" fill="#0" id="circle336"/>
	<circle cx="945.057" cy="187.395" r="4" fill="#0" id="circle337"/>
	<circle cx="945.057" cy="196.657" r="4" fill="#0" id="circle338"/>
	<circle cx="945.057" cy="205.92" r="4" fill="#0" id="circle339"/>
	<circle cx="945.057" cy="396.725" r="4" fill="#0" id="circle340"/>
	<circle cx="954.319" cy="208.698" r="4" fill="#0" id="circle341"/>
	<circle cx="954.319" cy="396.725" r="4" fill="#0" id="circle342"/>
	<circle cx="961.729" cy="390.241" r="4" fill="#0" id="circle343"/>
	<circle cx="962.655" cy="213.33" r="4" fill="#0" id="circle344"/>
	<circle cx="967.287" cy="221.666" r="4" fill="#0" id="circle345"/>
	<circle cx="968.213" cy="378.2" r="4" fill="#0" id="circle346"/>
	<circle cx="970.992" cy="230.928" r="4" fill="#0" id="circle347"/>
	<circle cx="975.623" cy="239.264" r="4" fill="#0" id="circle348"/>
	<circle cx="975.623" cy="371.716" r="4" fill="#0" id="circle349"/>
	<circle cx="979.328" cy="248.527" r="4" fill="#0" id="circle350"/>
	<circle cx="980.254" cy="362.454" r="4" fill="#0" id="circle351"/>
	<circle cx="983.959" cy="256.863" r="4" fill="#0" id="circle352"/>
	<circle cx="986.738" cy="266.125" r="4" fill="#0" id="circle353"/>
	<circle cx="986.738" cy="275.387" r="4" fill="#0" id="circle354"/>
	<circle cx="986.738" cy="284.65" r="4" fill="#0" id="circle355"/>
	<circle cx="986.738" cy="355.044" r="4" fill="#0" id="circle356"/>
	<circle cx="991.369" cy="292.986" r="4" fill="#0" id="circle357"/>
	<circle cx="991.369" cy="345.782" r="4" fill="#0" id="circle358"/>
	<circle cx="996" cy="301.322" r="4" fill="#0" id="circle359"/>
	<circle cx="996" cy="310.585" r="4" fill="#0" id="circle360"/>
	<circle cx="996" cy="319.847" r="4" fill="#0" id="circle361"/>
	<circle cx="996" cy="329.109" r="4" fill="#0" id="circle362"/>
	</g>
</svg>