<?xml version="1.0" encoding="UTF-8" standalone="no"?>
<!-- Created with CurveBenchmark -->
<svg
	xmlns:dc="http://purl.org/dc/elements/1.1/"
	xmlns:cc="http://creativecommons.org/ns#"
	xmlns:rdf="http://www.w3.org/1999/02/22-rdf-syntax-ns#"
	xmlns:svg="http://www.w3.org/2000/svg"
	xmlns="http://www.w3.org/2000/svg"
	xmlns:sodipodi="http://sodipodi.sourceforge.net/DTD/sodipodi-0.dtd"
	xmlns:inkscape="http://www.inkscape.org/namespaces/inkscape"
	width="1000"
	height="1000"
	id="svg2"
	version="1.1"
	sodipodi:docname="manifold/hnncrust-woodenspoonbinary18.png.txt">
<defs
	id="defs4" />
<metadata
	id="metadata7">
	<rdf:RDF>
		<cc:Work
			rdf:about="">
			<dc:format>image/svg+xml</dc:format>
			<dc:type
				rdf:resource="http://purl.org/dc/dcmitype/StillImage" />
			<dc:title></dc:title>
		</cc:Work>
	</rdf:RDF>
</metadata>
<g
	inkscape:label="Layer 1"
	inkscape:groupmode="layer"
	id="layer1">
	<path style="fill:none;stroke:red;stroke-width:1px;stroke-linecap:butt;stroke-linejoin:miter;stroke-opacity:1" d="M 4,71.4513 4.58148,77.2661 z" id="boundary" inkscape:connector-curvature="0" />
	<path style="fill:none;stroke:red;stroke-width:1px;stroke-linecap:butt;stroke-linejoin:miter;stroke-opacity:1" d="M 4,71.4513 5.16295,65.0551 z" id="boundary" inkscape:connector-curvature="0" />
	<path style="fill:none;stroke:red;stroke-width:1px;stroke-linecap:butt;stroke-linejoin:miter;stroke-opacity:1" d="M 4.58148,77.2661 4.58148,83.6624 z" id="boundary" inkscape:connector-curvature="0" />
	<path style="fill:none;stroke:red;stroke-width:1px;stroke-linecap:butt;stroke-linejoin:miter;stroke-opacity:1" d="M 4.58148,83.6624 5.74443,89.4771 z" id="boundary" inkscape:connector-curvature="0" />
	<path style="fill:none;stroke:red;stroke-width:1px;stroke-linecap:butt;stroke-linejoin:miter;stroke-opacity:1" d="M 5.16295,65.0551 7.48886,59.2403 z" id="boundary" inkscape:connector-curvature="0" />
	<path style="fill:none;stroke:red;stroke-width:1px;stroke-linecap:butt;stroke-linejoin:miter;stroke-opacity:1" d="M 5.74443,89.4771 7.48886,95.2919 z" id="boundary" inkscape:connector-curvature="0" />
	<path style="fill:none;stroke:red;stroke-width:1px;stroke-linecap:butt;stroke-linejoin:miter;stroke-opacity:1" d="M 7.48886,59.2403 8.65182,52.8441 z" id="boundary" inkscape:connector-curvature="0" />
	<path style="fill:none;stroke:red;stroke-width:1px;stroke-linecap:butt;stroke-linejoin:miter;stroke-opacity:1" d="M 7.48886,95.2919 9.23329,101.107 z" id="boundary" inkscape:connector-curvature="0" />
	<path style="fill:none;stroke:red;stroke-width:1px;stroke-linecap:butt;stroke-linejoin:miter;stroke-opacity:1" d="M 8.65182,52.8441 13.3036,48.1923 z" id="boundary" inkscape:connector-curvature="0" />
	<path style="fill:none;stroke:red;stroke-width:1px;stroke-linecap:butt;stroke-linejoin:miter;stroke-opacity:1" d="M 9.23329,101.107 11.5592,106.921 z" id="boundary" inkscape:connector-curvature="0" />
	<path style="fill:none;stroke:red;stroke-width:1px;stroke-linecap:butt;stroke-linejoin:miter;stroke-opacity:1" d="M 11.5592,106.921 15.0481,111.573 z" id="boundary" inkscape:connector-curvature="0" />
	<path style="fill:none;stroke:red;stroke-width:1px;stroke-linecap:butt;stroke-linejoin:miter;stroke-opacity:1" d="M 13.3036,48.1923 17.9555,43.5404 z" id="boundary" inkscape:connector-curvature="0" />
	<path style="fill:none;stroke:red;stroke-width:1px;stroke-linecap:butt;stroke-linejoin:miter;stroke-opacity:1" d="M 15.0481,111.573 18.5369,116.225 z" id="boundary" inkscape:connector-curvature="0" />
	<path style="fill:none;stroke:red;stroke-width:1px;stroke-linecap:butt;stroke-linejoin:miter;stroke-opacity:1" d="M 17.9555,43.5404 22.0258,38.3072 z" id="boundary" inkscape:connector-curvature="0" />
	<path style="fill:none;stroke:red;stroke-width:1px;stroke-linecap:butt;stroke-linejoin:miter;stroke-opacity:1" d="M 18.5369,116.225 22.0258,120.877 z" id="boundary" inkscape:connector-curvature="0" />
	<path style="fill:none;stroke:red;stroke-width:1px;stroke-linecap:butt;stroke-linejoin:miter;stroke-opacity:1" d="M 22.0258,38.3072 24.9332,33.0739 z" id="boundary" inkscape:connector-curvature="0" />
	<path style="fill:none;stroke:red;stroke-width:1px;stroke-linecap:butt;stroke-linejoin:miter;stroke-opacity:1" d="M 22.0258,120.877 26.6776,124.947 z" id="boundary" inkscape:connector-curvature="0" />
	<path style="fill:none;stroke:red;stroke-width:1px;stroke-linecap:butt;stroke-linejoin:miter;stroke-opacity:1" d="M 24.9332,33.0739 28.422,27.8406 z" id="boundary" inkscape:connector-curvature="0" />
	<path style="fill:none;stroke:red;stroke-width:1px;stroke-linecap:butt;stroke-linejoin:miter;stroke-opacity:1" d="M 26.6776,124.947 30.1665,129.599 z" id="boundary" inkscape:connector-curvature="0" />
	<path style="fill:none;stroke:red;stroke-width:1px;stroke-linecap:butt;stroke-linejoin:miter;stroke-opacity:1" d="M 28.422,27.8406 33.0739,23.7702 z" id="boundary" inkscape:connector-curvature="0" />
	<path style="fill:none;stroke:red;stroke-width:1px;stroke-linecap:butt;stroke-linejoin:miter;stroke-opacity:1" d="M 30.1665,129.599 33.6553,134.251 z" id="boundary" inkscape:connector-curvature="0" />
	<path style="fill:none;stroke:red;stroke-width:1px;stroke-linecap:butt;stroke-linejoin:miter;stroke-opacity:1" d="M 33.0739,23.7702 37.7257,19.6999 z" id="boundary" inkscape:connector-curvature="0" />
	<path style="fill:none;stroke:red;stroke-width:1px;stroke-linecap:butt;stroke-linejoin:miter;stroke-opacity:1" d="M 33.6553,134.251 37.7257,138.903 z" id="boundary" inkscape:connector-curvature="0" />
	<path style="fill:none;stroke:red;stroke-width:1px;stroke-linecap:butt;stroke-linejoin:miter;stroke-opacity:1" d="M 37.7257,19.6999 43.5404,17.374 z" id="boundary" inkscape:connector-curvature="0" />
	<path style="fill:none;stroke:red;stroke-width:1px;stroke-linecap:butt;stroke-linejoin:miter;stroke-opacity:1" d="M 37.7257,138.903 42.959,141.81 z" id="boundary" inkscape:connector-curvature="0" />
	<path style="fill:none;stroke:red;stroke-width:1px;stroke-linecap:butt;stroke-linejoin:miter;stroke-opacity:1" d="M 42.959,141.81 47.6108,145.88 z" id="boundary" inkscape:connector-curvature="0" />
	<path style="fill:none;stroke:red;stroke-width:1px;stroke-linecap:butt;stroke-linejoin:miter;stroke-opacity:1" d="M 43.5404,17.374 49.3552,14.4666 z" id="boundary" inkscape:connector-curvature="0" />
	<path style="fill:none;stroke:red;stroke-width:1px;stroke-linecap:butt;stroke-linejoin:miter;stroke-opacity:1" d="M 47.6108,145.88 52.2626,149.369 z" id="boundary" inkscape:connector-curvature="0" />
	<path style="fill:none;stroke:red;stroke-width:1px;stroke-linecap:butt;stroke-linejoin:miter;stroke-opacity:1" d="M 49.3552,14.4666 55.17,12.7222 z" id="boundary" inkscape:connector-curvature="0" />
	<path style="fill:none;stroke:red;stroke-width:1px;stroke-linecap:butt;stroke-linejoin:miter;stroke-opacity:1" d="M 52.2626,149.369 56.9144,152.858 z" id="boundary" inkscape:connector-curvature="0" />
	<path style="fill:none;stroke:red;stroke-width:1px;stroke-linecap:butt;stroke-linejoin:miter;stroke-opacity:1" d="M 55.17,12.7222 60.9848,10.9777 z" id="boundary" inkscape:connector-curvature="0" />
	<path style="fill:none;stroke:red;stroke-width:1px;stroke-linecap:butt;stroke-linejoin:miter;stroke-opacity:1" d="M 56.9144,152.858 62.1477,155.766 z" id="boundary" inkscape:connector-curvature="0" />
	<path style="fill:none;stroke:red;stroke-width:1px;stroke-linecap:butt;stroke-linejoin:miter;stroke-opacity:1" d="M 60.9848,10.9777 66.7995,9.81477 z" id="boundary" inkscape:connector-curvature="0" />
	<path style="fill:none;stroke:red;stroke-width:1px;stroke-linecap:butt;stroke-linejoin:miter;stroke-opacity:1" d="M 62.1477,155.766 66.7995,159.254 z" id="boundary" inkscape:connector-curvature="0" />
	<path style="fill:none;stroke:red;stroke-width:1px;stroke-linecap:butt;stroke-linejoin:miter;stroke-opacity:1" d="M 66.7995,9.81477 72.6143,8.07034 z" id="boundary" inkscape:connector-curvature="0" />
	<path style="fill:none;stroke:red;stroke-width:1px;stroke-linecap:butt;stroke-linejoin:miter;stroke-opacity:1" d="M 66.7995,159.254 72.0328,162.162 z" id="boundary" inkscape:connector-curvature="0" />
	<path style="fill:none;stroke:red;stroke-width:1px;stroke-linecap:butt;stroke-linejoin:miter;stroke-opacity:1" d="M 72.0328,162.162 76.6846,166.232 z" id="boundary" inkscape:connector-curvature="0" />
	<path style="fill:none;stroke:red;stroke-width:1px;stroke-linecap:butt;stroke-linejoin:miter;stroke-opacity:1" d="M 72.6143,8.07034 78.4291,6.90739 z" id="boundary" inkscape:connector-curvature="0" />
	<path style="fill:none;stroke:red;stroke-width:1px;stroke-linecap:butt;stroke-linejoin:miter;stroke-opacity:1" d="M 76.6846,166.232 81.9179,169.14 z" id="boundary" inkscape:connector-curvature="0" />
	<path style="fill:none;stroke:red;stroke-width:1px;stroke-linecap:butt;stroke-linejoin:miter;stroke-opacity:1" d="M 78.4291,6.90739 84.2438,5.74443 z" id="boundary" inkscape:connector-curvature="0" />
	<path style="fill:none;stroke:red;stroke-width:1px;stroke-linecap:butt;stroke-linejoin:miter;stroke-opacity:1" d="M 81.9179,169.14 87.7327,171.465 z" id="boundary" inkscape:connector-curvature="0" />
	<path style="fill:none;stroke:red;stroke-width:1px;stroke-linecap:butt;stroke-linejoin:miter;stroke-opacity:1" d="M 84.2438,5.74443 90.0586,5.16295 z" id="boundary" inkscape:connector-curvature="0" />
	<path style="fill:none;stroke:red;stroke-width:1px;stroke-linecap:butt;stroke-linejoin:miter;stroke-opacity:1" d="M 87.7327,171.465 92.966,174.373 z" id="boundary" inkscape:connector-curvature="0" />
	<path style="fill:none;stroke:red;stroke-width:1px;stroke-linecap:butt;stroke-linejoin:miter;stroke-opacity:1" d="M 90.0586,5.16295 95.8734,5.16295 z" id="boundary" inkscape:connector-curvature="0" />
	<path style="fill:none;stroke:red;stroke-width:1px;stroke-linecap:butt;stroke-linejoin:miter;stroke-opacity:1" d="M 92.966,174.373 98.1993,177.28 z" id="boundary" inkscape:connector-curvature="0" />
	<path style="fill:none;stroke:red;stroke-width:1px;stroke-linecap:butt;stroke-linejoin:miter;stroke-opacity:1" d="M 95.8734,5.16295 101.688,4.58148 z" id="boundary" inkscape:connector-curvature="0" />
	<path style="fill:none;stroke:red;stroke-width:1px;stroke-linecap:butt;stroke-linejoin:miter;stroke-opacity:1" d="M 98.1993,177.28 104.014,179.606 z" id="boundary" inkscape:connector-curvature="0" />
	<path style="fill:none;stroke:red;stroke-width:1px;stroke-linecap:butt;stroke-linejoin:miter;stroke-opacity:1" d="M 101.688,4.58148 107.503,4.58148 z" id="boundary" inkscape:connector-curvature="0" />
	<path style="fill:none;stroke:red;stroke-width:1px;stroke-linecap:butt;stroke-linejoin:miter;stroke-opacity:1" d="M 104.014,179.606 109.829,181.351 z" id="boundary" inkscape:connector-curvature="0" />
	<path style="fill:none;stroke:red;stroke-width:1px;stroke-linecap:butt;stroke-linejoin:miter;stroke-opacity:1" d="M 107.503,4.58148 113.318,4 z" id="boundary" inkscape:connector-curvature="0" />
	<path style="fill:none;stroke:red;stroke-width:1px;stroke-linecap:butt;stroke-linejoin:miter;stroke-opacity:1" d="M 109.829,181.351 115.062,184.258 z" id="boundary" inkscape:connector-curvature="0" />
	<path style="fill:none;stroke:red;stroke-width:1px;stroke-linecap:butt;stroke-linejoin:miter;stroke-opacity:1" d="M 113.318,4 119.132,4 z" id="boundary" inkscape:connector-curvature="0" />
	<path style="fill:none;stroke:red;stroke-width:1px;stroke-linecap:butt;stroke-linejoin:miter;stroke-opacity:1" d="M 115.062,184.258 120.877,186.002 z" id="boundary" inkscape:connector-curvature="0" />
	<path style="fill:none;stroke:red;stroke-width:1px;stroke-linecap:butt;stroke-linejoin:miter;stroke-opacity:1" d="M 119.132,4 124.947,4.58148 z" id="boundary" inkscape:connector-curvature="0" />
	<path style="fill:none;stroke:red;stroke-width:1px;stroke-linecap:butt;stroke-linejoin:miter;stroke-opacity:1" d="M 120.877,186.002 126.692,187.747 z" id="boundary" inkscape:connector-curvature="0" />
	<path style="fill:none;stroke:red;stroke-width:1px;stroke-linecap:butt;stroke-linejoin:miter;stroke-opacity:1" d="M 124.947,4.58148 130.762,4.58148 z" id="boundary" inkscape:connector-curvature="0" />
	<path style="fill:none;stroke:red;stroke-width:1px;stroke-linecap:butt;stroke-linejoin:miter;stroke-opacity:1" d="M 126.692,187.747 132.506,189.491 z" id="boundary" inkscape:connector-curvature="0" />
	<path style="fill:none;stroke:red;stroke-width:1px;stroke-linecap:butt;stroke-linejoin:miter;stroke-opacity:1" d="M 130.762,4.58148 136.577,5.16295 z" id="boundary" inkscape:connector-curvature="0" />
	<path style="fill:none;stroke:red;stroke-width:1px;stroke-linecap:butt;stroke-linejoin:miter;stroke-opacity:1" d="M 132.506,189.491 138.321,190.654 z" id="boundary" inkscape:connector-curvature="0" />
	<path style="fill:none;stroke:red;stroke-width:1px;stroke-linecap:butt;stroke-linejoin:miter;stroke-opacity:1" d="M 136.577,5.16295 142.392,5.74443 z" id="boundary" inkscape:connector-curvature="0" />
	<path style="fill:none;stroke:red;stroke-width:1px;stroke-linecap:butt;stroke-linejoin:miter;stroke-opacity:1" d="M 138.321,190.654 144.136,192.399 z" id="boundary" inkscape:connector-curvature="0" />
	<path style="fill:none;stroke:red;stroke-width:1px;stroke-linecap:butt;stroke-linejoin:miter;stroke-opacity:1" d="M 142.392,5.74443 148.206,6.32591 z" id="boundary" inkscape:connector-curvature="0" />
	<path style="fill:none;stroke:red;stroke-width:1px;stroke-linecap:butt;stroke-linejoin:miter;stroke-opacity:1" d="M 144.136,192.399 149.951,193.562 z" id="boundary" inkscape:connector-curvature="0" />
	<path style="fill:none;stroke:red;stroke-width:1px;stroke-linecap:butt;stroke-linejoin:miter;stroke-opacity:1" d="M 148.206,6.32591 154.021,6.90739 z" id="boundary" inkscape:connector-curvature="0" />
	<path style="fill:none;stroke:red;stroke-width:1px;stroke-linecap:butt;stroke-linejoin:miter;stroke-opacity:1" d="M 149.951,193.562 155.766,194.725 z" id="boundary" inkscape:connector-curvature="0" />
	<path style="fill:none;stroke:red;stroke-width:1px;stroke-linecap:butt;stroke-linejoin:miter;stroke-opacity:1" d="M 154.021,6.90739 159.836,8.07034 z" id="boundary" inkscape:connector-curvature="0" />
	<path style="fill:none;stroke:red;stroke-width:1px;stroke-linecap:butt;stroke-linejoin:miter;stroke-opacity:1" d="M 155.766,194.725 161.58,195.887 z" id="boundary" inkscape:connector-curvature="0" />
	<path style="fill:none;stroke:red;stroke-width:1px;stroke-linecap:butt;stroke-linejoin:miter;stroke-opacity:1" d="M 159.836,8.07034 165.651,9.23329 z" id="boundary" inkscape:connector-curvature="0" />
	<path style="fill:none;stroke:red;stroke-width:1px;stroke-linecap:butt;stroke-linejoin:miter;stroke-opacity:1" d="M 161.58,195.887 167.395,196.469 z" id="boundary" inkscape:connector-curvature="0" />
	<path style="fill:none;stroke:red;stroke-width:1px;stroke-linecap:butt;stroke-linejoin:miter;stroke-opacity:1" d="M 165.651,9.23329 171.465,10.3962 z" id="boundary" inkscape:connector-curvature="0" />
	<path style="fill:none;stroke:red;stroke-width:1px;stroke-linecap:butt;stroke-linejoin:miter;stroke-opacity:1" d="M 167.395,196.469 173.21,196.469 z" id="boundary" inkscape:connector-curvature="0" />
	<path style="fill:none;stroke:red;stroke-width:1px;stroke-linecap:butt;stroke-linejoin:miter;stroke-opacity:1" d="M 171.465,10.3962 177.28,11.5592 z" id="boundary" inkscape:connector-curvature="0" />
	<path style="fill:none;stroke:red;stroke-width:1px;stroke-linecap:butt;stroke-linejoin:miter;stroke-opacity:1" d="M 173.21,196.469 179.025,197.632 z" id="boundary" inkscape:connector-curvature="0" />
	<path style="fill:none;stroke:red;stroke-width:1px;stroke-linecap:butt;stroke-linejoin:miter;stroke-opacity:1" d="M 177.28,11.5592 183.095,13.3036 z" id="boundary" inkscape:connector-curvature="0" />
	<path style="fill:none;stroke:red;stroke-width:1px;stroke-linecap:butt;stroke-linejoin:miter;stroke-opacity:1" d="M 179.025,197.632 184.839,197.632 z" id="boundary" inkscape:connector-curvature="0" />
	<path style="fill:none;stroke:red;stroke-width:1px;stroke-linecap:butt;stroke-linejoin:miter;stroke-opacity:1" d="M 183.095,13.3036 188.91,15.0481 z" id="boundary" inkscape:connector-curvature="0" />
	<path style="fill:none;stroke:red;stroke-width:1px;stroke-linecap:butt;stroke-linejoin:miter;stroke-opacity:1" d="M 184.839,197.632 190.654,197.632 z" id="boundary" inkscape:connector-curvature="0" />
	<path style="fill:none;stroke:red;stroke-width:1px;stroke-linecap:butt;stroke-linejoin:miter;stroke-opacity:1" d="M 188.91,15.0481 194.725,16.211 z" id="boundary" inkscape:connector-curvature="0" />
	<path style="fill:none;stroke:red;stroke-width:1px;stroke-linecap:butt;stroke-linejoin:miter;stroke-opacity:1" d="M 190.654,197.632 196.469,197.632 z" id="boundary" inkscape:connector-curvature="0" />
	<path style="fill:none;stroke:red;stroke-width:1px;stroke-linecap:butt;stroke-linejoin:miter;stroke-opacity:1" d="M 194.725,16.211 200.539,18.5369 z" id="boundary" inkscape:connector-curvature="0" />
	<path style="fill:none;stroke:red;stroke-width:1px;stroke-linecap:butt;stroke-linejoin:miter;stroke-opacity:1" d="M 196.469,197.632 202.284,197.05 z" id="boundary" inkscape:connector-curvature="0" />
	<path style="fill:none;stroke:red;stroke-width:1px;stroke-linecap:butt;stroke-linejoin:miter;stroke-opacity:1" d="M 200.539,18.5369 206.354,19.6999 z" id="boundary" inkscape:connector-curvature="0" />
	<path style="fill:none;stroke:red;stroke-width:1px;stroke-linecap:butt;stroke-linejoin:miter;stroke-opacity:1" d="M 202.284,197.05 208.098,197.05 z" id="boundary" inkscape:connector-curvature="0" />
	<path style="fill:none;stroke:red;stroke-width:1px;stroke-linecap:butt;stroke-linejoin:miter;stroke-opacity:1" d="M 206.354,19.6999 212.169,22.0258 z" id="boundary" inkscape:connector-curvature="0" />
	<path style="fill:none;stroke:red;stroke-width:1px;stroke-linecap:butt;stroke-linejoin:miter;stroke-opacity:1" d="M 208.098,197.05 213.913,196.469 z" id="boundary" inkscape:connector-curvature="0" />
	<path style="fill:none;stroke:red;stroke-width:1px;stroke-linecap:butt;stroke-linejoin:miter;stroke-opacity:1" d="M 212.169,22.0258 217.984,24.3517 z" id="boundary" inkscape:connector-curvature="0" />
	<path style="fill:none;stroke:red;stroke-width:1px;stroke-linecap:butt;stroke-linejoin:miter;stroke-opacity:1" d="M 213.913,196.469 219.728,195.887 z" id="boundary" inkscape:connector-curvature="0" />
	<path style="fill:none;stroke:red;stroke-width:1px;stroke-linecap:butt;stroke-linejoin:miter;stroke-opacity:1" d="M 217.984,24.3517 223.798,26.6776 z" id="boundary" inkscape:connector-curvature="0" />
	<path style="fill:none;stroke:red;stroke-width:1px;stroke-linecap:butt;stroke-linejoin:miter;stroke-opacity:1" d="M 219.728,195.887 225.543,194.725 z" id="boundary" inkscape:connector-curvature="0" />
	<path style="fill:none;stroke:red;stroke-width:1px;stroke-linecap:butt;stroke-linejoin:miter;stroke-opacity:1" d="M 223.798,26.6776 229.032,29.585 z" id="boundary" inkscape:connector-curvature="0" />
	<path style="fill:none;stroke:red;stroke-width:1px;stroke-linecap:butt;stroke-linejoin:miter;stroke-opacity:1" d="M 225.543,194.725 231.358,194.143 z" id="boundary" inkscape:connector-curvature="0" />
	<path style="fill:none;stroke:red;stroke-width:1px;stroke-linecap:butt;stroke-linejoin:miter;stroke-opacity:1" d="M 229.032,29.585 234.846,31.9109 z" id="boundary" inkscape:connector-curvature="0" />
	<path style="fill:none;stroke:red;stroke-width:1px;stroke-linecap:butt;stroke-linejoin:miter;stroke-opacity:1" d="M 231.358,194.143 237.172,193.562 z" id="boundary" inkscape:connector-curvature="0" />
	<path style="fill:none;stroke:red;stroke-width:1px;stroke-linecap:butt;stroke-linejoin:miter;stroke-opacity:1" d="M 234.846,31.9109 240.08,34.8183 z" id="boundary" inkscape:connector-curvature="0" />
	<path style="fill:none;stroke:red;stroke-width:1px;stroke-linecap:butt;stroke-linejoin:miter;stroke-opacity:1" d="M 237.172,193.562 242.987,192.399 z" id="boundary" inkscape:connector-curvature="0" />
	<path style="fill:none;stroke:red;stroke-width:1px;stroke-linecap:butt;stroke-linejoin:miter;stroke-opacity:1" d="M 240.08,34.8183 245.313,37.7257 z" id="boundary" inkscape:connector-curvature="0" />
	<path style="fill:none;stroke:red;stroke-width:1px;stroke-linecap:butt;stroke-linejoin:miter;stroke-opacity:1" d="M 242.987,192.399 248.802,191.236 z" id="boundary" inkscape:connector-curvature="0" />
	<path style="fill:none;stroke:red;stroke-width:1px;stroke-linecap:butt;stroke-linejoin:miter;stroke-opacity:1" d="M 245.313,37.7257 249.965,41.2145 z" id="boundary" inkscape:connector-curvature="0" />
	<path style="fill:none;stroke:red;stroke-width:1px;stroke-linecap:butt;stroke-linejoin:miter;stroke-opacity:1" d="M 248.802,191.236 254.617,190.654 z" id="boundary" inkscape:connector-curvature="0" />
	<path style="fill:none;stroke:red;stroke-width:1px;stroke-linecap:butt;stroke-linejoin:miter;stroke-opacity:1" d="M 249.965,41.2145 255.198,44.1219 z" id="boundary" inkscape:connector-curvature="0" />
	<path style="fill:none;stroke:red;stroke-width:1px;stroke-linecap:butt;stroke-linejoin:miter;stroke-opacity:1" d="M 254.617,190.654 260.431,189.491 z" id="boundary" inkscape:connector-curvature="0" />
	<path style="fill:none;stroke:red;stroke-width:1px;stroke-linecap:butt;stroke-linejoin:miter;stroke-opacity:1" d="M 255.198,44.1219 259.85,47.6108 z" id="boundary" inkscape:connector-curvature="0" />
	<path style="fill:none;stroke:red;stroke-width:1px;stroke-linecap:butt;stroke-linejoin:miter;stroke-opacity:1" d="M 259.85,47.6108 264.502,51.0996 z" id="boundary" inkscape:connector-curvature="0" />
	<path style="fill:none;stroke:red;stroke-width:1px;stroke-linecap:butt;stroke-linejoin:miter;stroke-opacity:1" d="M 260.431,189.491 266.246,187.747 z" id="boundary" inkscape:connector-curvature="0" />
	<path style="fill:none;stroke:red;stroke-width:1px;stroke-linecap:butt;stroke-linejoin:miter;stroke-opacity:1" d="M 264.502,51.0996 269.154,54.5885 z" id="boundary" inkscape:connector-curvature="0" />
	<path style="fill:none;stroke:red;stroke-width:1px;stroke-linecap:butt;stroke-linejoin:miter;stroke-opacity:1" d="M 266.246,187.747 272.061,186.002 z" id="boundary" inkscape:connector-curvature="0" />
	<path style="fill:none;stroke:red;stroke-width:1px;stroke-linecap:butt;stroke-linejoin:miter;stroke-opacity:1" d="M 269.154,54.5885 274.387,57.4959 z" id="boundary" inkscape:connector-curvature="0" />
	<path style="fill:none;stroke:red;stroke-width:1px;stroke-linecap:butt;stroke-linejoin:miter;stroke-opacity:1" d="M 272.061,186.002 277.876,184.258 z" id="boundary" inkscape:connector-curvature="0" />
	<path style="fill:none;stroke:red;stroke-width:1px;stroke-linecap:butt;stroke-linejoin:miter;stroke-opacity:1" d="M 274.387,57.4959 279.039,60.9848 z" id="boundary" inkscape:connector-curvature="0" />
	<path style="fill:none;stroke:red;stroke-width:1px;stroke-linecap:butt;stroke-linejoin:miter;stroke-opacity:1" d="M 277.876,184.258 283.691,183.676 z" id="boundary" inkscape:connector-curvature="0" />
	<path style="fill:none;stroke:red;stroke-width:1px;stroke-linecap:butt;stroke-linejoin:miter;stroke-opacity:1" d="M 279.039,60.9848 283.691,64.4736 z" id="boundary" inkscape:connector-curvature="0" />
	<path style="fill:none;stroke:red;stroke-width:1px;stroke-linecap:butt;stroke-linejoin:miter;stroke-opacity:1" d="M 283.691,64.4736 288.342,67.9625 z" id="boundary" inkscape:connector-curvature="0" />
	<path style="fill:none;stroke:red;stroke-width:1px;stroke-linecap:butt;stroke-linejoin:miter;stroke-opacity:1" d="M 283.691,183.676 289.505,181.932 z" id="boundary" inkscape:connector-curvature="0" />
	<path style="fill:none;stroke:red;stroke-width:1px;stroke-linecap:butt;stroke-linejoin:miter;stroke-opacity:1" d="M 288.342,67.9625 292.994,72.0328 z" id="boundary" inkscape:connector-curvature="0" />
	<path style="fill:none;stroke:red;stroke-width:1px;stroke-linecap:butt;stroke-linejoin:miter;stroke-opacity:1" d="M 289.505,181.932 295.32,179.606 z" id="boundary" inkscape:connector-curvature="0" />
	<path style="fill:none;stroke:red;stroke-width:1px;stroke-linecap:butt;stroke-linejoin:miter;stroke-opacity:1" d="M 292.994,72.0328 297.646,76.1032 z" id="boundary" inkscape:connector-curvature="0" />
	<path style="fill:none;stroke:red;stroke-width:1px;stroke-linecap:butt;stroke-linejoin:miter;stroke-opacity:1" d="M 295.32,179.606 301.135,177.28 z" id="boundary" inkscape:connector-curvature="0" />
	<path style="fill:none;stroke:red;stroke-width:1px;stroke-linecap:butt;stroke-linejoin:miter;stroke-opacity:1" d="M 297.646,76.1032 302.298,80.1735 z" id="boundary" inkscape:connector-curvature="0" />
	<path style="fill:none;stroke:red;stroke-width:1px;stroke-linecap:butt;stroke-linejoin:miter;stroke-opacity:1" d="M 301.135,177.28 306.95,175.536 z" id="boundary" inkscape:connector-curvature="0" />
	<path style="fill:none;stroke:red;stroke-width:1px;stroke-linecap:butt;stroke-linejoin:miter;stroke-opacity:1" d="M 302.298,80.1735 306.95,84.2438 z" id="boundary" inkscape:connector-curvature="0" />
	<path style="fill:none;stroke:red;stroke-width:1px;stroke-linecap:butt;stroke-linejoin:miter;stroke-opacity:1" d="M 306.95,84.2438 311.02,88.8957 z" id="boundary" inkscape:connector-curvature="0" />
	<path style="fill:none;stroke:red;stroke-width:1px;stroke-linecap:butt;stroke-linejoin:miter;stroke-opacity:1" d="M 306.95,175.536 312.764,173.791 z" id="boundary" inkscape:connector-curvature="0" />
	<path style="fill:none;stroke:red;stroke-width:1px;stroke-linecap:butt;stroke-linejoin:miter;stroke-opacity:1" d="M 311.02,88.8957 315.672,92.3845 z" id="boundary" inkscape:connector-curvature="0" />
	<path style="fill:none;stroke:red;stroke-width:1px;stroke-linecap:butt;stroke-linejoin:miter;stroke-opacity:1" d="M 312.764,173.791 318.579,172.047 z" id="boundary" inkscape:connector-curvature="0" />
	<path style="fill:none;stroke:red;stroke-width:1px;stroke-linecap:butt;stroke-linejoin:miter;stroke-opacity:1" d="M 315.672,92.3845 319.161,97.0363 z" id="boundary" inkscape:connector-curvature="0" />
	<path style="fill:none;stroke:red;stroke-width:1px;stroke-linecap:butt;stroke-linejoin:miter;stroke-opacity:1" d="M 318.579,172.047 324.394,170.302 z" id="boundary" inkscape:connector-curvature="0" />
	<path style="fill:none;stroke:red;stroke-width:1px;stroke-linecap:butt;stroke-linejoin:miter;stroke-opacity:1" d="M 319.161,97.0363 323.812,101.107 z" id="boundary" inkscape:connector-curvature="0" />
	<path style="fill:none;stroke:red;stroke-width:1px;stroke-linecap:butt;stroke-linejoin:miter;stroke-opacity:1" d="M 323.812,101.107 327.883,105.758 z" id="boundary" inkscape:connector-curvature="0" />
	<path style="fill:none;stroke:red;stroke-width:1px;stroke-linecap:butt;stroke-linejoin:miter;stroke-opacity:1" d="M 324.394,170.302 330.209,168.558 z" id="boundary" inkscape:connector-curvature="0" />
	<path style="fill:none;stroke:red;stroke-width:1px;stroke-linecap:butt;stroke-linejoin:miter;stroke-opacity:1" d="M 327.883,105.758 332.535,109.829 z" id="boundary" inkscape:connector-curvature="0" />
	<path style="fill:none;stroke:red;stroke-width:1px;stroke-linecap:butt;stroke-linejoin:miter;stroke-opacity:1" d="M 330.209,168.558 336.023,167.977 z" id="boundary" inkscape:connector-curvature="0" />
	<path style="fill:none;stroke:red;stroke-width:1px;stroke-linecap:butt;stroke-linejoin:miter;stroke-opacity:1" d="M 332.535,109.829 336.605,114.481 z" id="boundary" inkscape:connector-curvature="0" />
	<path style="fill:none;stroke:red;stroke-width:1px;stroke-linecap:butt;stroke-linejoin:miter;stroke-opacity:1" d="M 336.023,167.977 341.838,167.977 z" id="boundary" inkscape:connector-curvature="0" />
	<path style="fill:none;stroke:red;stroke-width:1px;stroke-linecap:butt;stroke-linejoin:miter;stroke-opacity:1" d="M 336.605,114.481 341.257,117.97 z" id="boundary" inkscape:connector-curvature="0" />
	<path style="fill:none;stroke:red;stroke-width:1px;stroke-linecap:butt;stroke-linejoin:miter;stroke-opacity:1" d="M 341.257,117.97 345.909,121.458 z" id="boundary" inkscape:connector-curvature="0" />
	<path style="fill:none;stroke:red;stroke-width:1px;stroke-linecap:butt;stroke-linejoin:miter;stroke-opacity:1" d="M 341.838,167.977 347.653,167.977 z" id="boundary" inkscape:connector-curvature="0" />
	<path style="fill:none;stroke:red;stroke-width:1px;stroke-linecap:butt;stroke-linejoin:miter;stroke-opacity:1" d="M 345.909,121.458 350.56,124.947 z" id="boundary" inkscape:connector-curvature="0" />
	<path style="fill:none;stroke:red;stroke-width:1px;stroke-linecap:butt;stroke-linejoin:miter;stroke-opacity:1" d="M 347.653,167.977 353.468,169.14 z" id="boundary" inkscape:connector-curvature="0" />
	<path style="fill:none;stroke:red;stroke-width:1px;stroke-linecap:butt;stroke-linejoin:miter;stroke-opacity:1" d="M 350.56,124.947 356.375,127.273 z" id="boundary" inkscape:connector-curvature="0" />
	<path style="fill:none;stroke:red;stroke-width:1px;stroke-linecap:butt;stroke-linejoin:miter;stroke-opacity:1" d="M 353.468,169.14 359.283,170.302 z" id="boundary" inkscape:connector-curvature="0" />
	<path style="fill:none;stroke:red;stroke-width:1px;stroke-linecap:butt;stroke-linejoin:miter;stroke-opacity:1" d="M 356.375,127.273 362.19,129.599 z" id="boundary" inkscape:connector-curvature="0" />
	<path style="fill:none;stroke:red;stroke-width:1px;stroke-linecap:butt;stroke-linejoin:miter;stroke-opacity:1" d="M 359.283,170.302 365.097,172.047 z" id="boundary" inkscape:connector-curvature="0" />
	<path style="fill:none;stroke:red;stroke-width:1px;stroke-linecap:butt;stroke-linejoin:miter;stroke-opacity:1" d="M 362.19,129.599 368.005,131.343 z" id="boundary" inkscape:connector-curvature="0" />
	<path style="fill:none;stroke:red;stroke-width:1px;stroke-linecap:butt;stroke-linejoin:miter;stroke-opacity:1" d="M 365.097,172.047 370.912,173.21 z" id="boundary" inkscape:connector-curvature="0" />
	<path style="fill:none;stroke:red;stroke-width:1px;stroke-linecap:butt;stroke-linejoin:miter;stroke-opacity:1" d="M 368.005,131.343 373.819,133.088 z" id="boundary" inkscape:connector-curvature="0" />
	<path style="fill:none;stroke:red;stroke-width:1px;stroke-linecap:butt;stroke-linejoin:miter;stroke-opacity:1" d="M 370.912,173.21 376.727,174.373 z" id="boundary" inkscape:connector-curvature="0" />
	<path style="fill:none;stroke:red;stroke-width:1px;stroke-linecap:butt;stroke-linejoin:miter;stroke-opacity:1" d="M 373.819,133.088 379.634,134.832 z" id="boundary" inkscape:connector-curvature="0" />
	<path style="fill:none;stroke:red;stroke-width:1px;stroke-linecap:butt;stroke-linejoin:miter;stroke-opacity:1" d="M 376.727,174.373 382.542,174.954 z" id="boundary" inkscape:connector-curvature="0" />
	<path style="fill:none;stroke:red;stroke-width:1px;stroke-linecap:butt;stroke-linejoin:miter;stroke-opacity:1" d="M 379.634,134.832 385.449,136.577 z" id="boundary" inkscape:connector-curvature="0" />
	<path style="fill:none;stroke:red;stroke-width:1px;stroke-linecap:butt;stroke-linejoin:miter;stroke-opacity:1" d="M 382.542,174.954 388.356,176.117 z" id="boundary" inkscape:connector-curvature="0" />
	<path style="fill:none;stroke:red;stroke-width:1px;stroke-linecap:butt;stroke-linejoin:miter;stroke-opacity:1" d="M 385.449,136.577 391.264,138.321 z" id="boundary" inkscape:connector-curvature="0" />
	<path style="fill:none;stroke:red;stroke-width:1px;stroke-linecap:butt;stroke-linejoin:miter;stroke-opacity:1" d="M 388.356,176.117 394.171,177.862 z" id="boundary" inkscape:connector-curvature="0" />
	<path style="fill:none;stroke:red;stroke-width:1px;stroke-linecap:butt;stroke-linejoin:miter;stroke-opacity:1" d="M 391.264,138.321 397.079,140.066 z" id="boundary" inkscape:connector-curvature="0" />
	<path style="fill:none;stroke:red;stroke-width:1px;stroke-linecap:butt;stroke-linejoin:miter;stroke-opacity:1" d="M 394.171,177.862 399.986,180.188 z" id="boundary" inkscape:connector-curvature="0" />
	<path style="fill:none;stroke:red;stroke-width:1px;stroke-linecap:butt;stroke-linejoin:miter;stroke-opacity:1" d="M 397.079,140.066 402.893,141.229 z" id="boundary" inkscape:connector-curvature="0" />
	<path style="fill:none;stroke:red;stroke-width:1px;stroke-linecap:butt;stroke-linejoin:miter;stroke-opacity:1" d="M 399.986,180.188 405.801,181.351 z" id="boundary" inkscape:connector-curvature="0" />
	<path style="fill:none;stroke:red;stroke-width:1px;stroke-linecap:butt;stroke-linejoin:miter;stroke-opacity:1" d="M 402.893,141.229 408.708,142.392 z" id="boundary" inkscape:connector-curvature="0" />
	<path style="fill:none;stroke:red;stroke-width:1px;stroke-linecap:butt;stroke-linejoin:miter;stroke-opacity:1" d="M 405.801,181.351 411.615,182.513 z" id="boundary" inkscape:connector-curvature="0" />
	<path style="fill:none;stroke:red;stroke-width:1px;stroke-linecap:butt;stroke-linejoin:miter;stroke-opacity:1" d="M 408.708,142.392 414.523,144.136 z" id="boundary" inkscape:connector-curvature="0" />
	<path style="fill:none;stroke:red;stroke-width:1px;stroke-linecap:butt;stroke-linejoin:miter;stroke-opacity:1" d="M 411.615,182.513 417.43,183.676 z" id="boundary" inkscape:connector-curvature="0" />
	<path style="fill:none;stroke:red;stroke-width:1px;stroke-linecap:butt;stroke-linejoin:miter;stroke-opacity:1" d="M 414.523,144.136 420.338,145.299 z" id="boundary" inkscape:connector-curvature="0" />
	<path style="fill:none;stroke:red;stroke-width:1px;stroke-linecap:butt;stroke-linejoin:miter;stroke-opacity:1" d="M 417.43,183.676 423.245,184.839 z" id="boundary" inkscape:connector-curvature="0" />
	<path style="fill:none;stroke:red;stroke-width:1px;stroke-linecap:butt;stroke-linejoin:miter;stroke-opacity:1" d="M 420.338,145.299 426.152,146.462 z" id="boundary" inkscape:connector-curvature="0" />
	<path style="fill:none;stroke:red;stroke-width:1px;stroke-linecap:butt;stroke-linejoin:miter;stroke-opacity:1" d="M 423.245,184.839 429.06,186.584 z" id="boundary" inkscape:connector-curvature="0" />
	<path style="fill:none;stroke:red;stroke-width:1px;stroke-linecap:butt;stroke-linejoin:miter;stroke-opacity:1" d="M 426.152,146.462 431.967,148.206 z" id="boundary" inkscape:connector-curvature="0" />
	<path style="fill:none;stroke:red;stroke-width:1px;stroke-linecap:butt;stroke-linejoin:miter;stroke-opacity:1" d="M 429.06,186.584 434.875,188.328 z" id="boundary" inkscape:connector-curvature="0" />
	<path style="fill:none;stroke:red;stroke-width:1px;stroke-linecap:butt;stroke-linejoin:miter;stroke-opacity:1" d="M 431.967,148.206 437.782,149.369 z" id="boundary" inkscape:connector-curvature="0" />
	<path style="fill:none;stroke:red;stroke-width:1px;stroke-linecap:butt;stroke-linejoin:miter;stroke-opacity:1" d="M 434.875,188.328 440.689,189.491 z" id="boundary" inkscape:connector-curvature="0" />
	<path style="fill:none;stroke:red;stroke-width:1px;stroke-linecap:butt;stroke-linejoin:miter;stroke-opacity:1" d="M 437.782,149.369 443.597,151.114 z" id="boundary" inkscape:connector-curvature="0" />
	<path style="fill:none;stroke:red;stroke-width:1px;stroke-linecap:butt;stroke-linejoin:miter;stroke-opacity:1" d="M 440.689,189.491 446.504,190.654 z" id="boundary" inkscape:connector-curvature="0" />
	<path style="fill:none;stroke:red;stroke-width:1px;stroke-linecap:butt;stroke-linejoin:miter;stroke-opacity:1" d="M 443.597,151.114 449.411,152.858 z" id="boundary" inkscape:connector-curvature="0" />
	<path style="fill:none;stroke:red;stroke-width:1px;stroke-linecap:butt;stroke-linejoin:miter;stroke-opacity:1" d="M 446.504,190.654 452.319,192.399 z" id="boundary" inkscape:connector-curvature="0" />
	<path style="fill:none;stroke:red;stroke-width:1px;stroke-linecap:butt;stroke-linejoin:miter;stroke-opacity:1" d="M 449.411,152.858 455.226,153.44 z" id="boundary" inkscape:connector-curvature="0" />
	<path style="fill:none;stroke:red;stroke-width:1px;stroke-linecap:butt;stroke-linejoin:miter;stroke-opacity:1" d="M 452.319,192.399 458.134,193.562 z" id="boundary" inkscape:connector-curvature="0" />
	<path style="fill:none;stroke:red;stroke-width:1px;stroke-linecap:butt;stroke-linejoin:miter;stroke-opacity:1" d="M 455.226,153.44 461.041,155.184 z" id="boundary" inkscape:connector-curvature="0" />
	<path style="fill:none;stroke:red;stroke-width:1px;stroke-linecap:butt;stroke-linejoin:miter;stroke-opacity:1" d="M 458.134,193.562 463.948,195.306 z" id="boundary" inkscape:connector-curvature="0" />
	<path style="fill:none;stroke:red;stroke-width:1px;stroke-linecap:butt;stroke-linejoin:miter;stroke-opacity:1" d="M 461.041,155.184 466.856,156.928 z" id="boundary" inkscape:connector-curvature="0" />
	<path style="fill:none;stroke:red;stroke-width:1px;stroke-linecap:butt;stroke-linejoin:miter;stroke-opacity:1" d="M 463.948,195.306 469.763,196.469 z" id="boundary" inkscape:connector-curvature="0" />
	<path style="fill:none;stroke:red;stroke-width:1px;stroke-linecap:butt;stroke-linejoin:miter;stroke-opacity:1" d="M 466.856,156.928 472.671,158.091 z" id="boundary" inkscape:connector-curvature="0" />
	<path style="fill:none;stroke:red;stroke-width:1px;stroke-linecap:butt;stroke-linejoin:miter;stroke-opacity:1" d="M 469.763,196.469 475.578,197.632 z" id="boundary" inkscape:connector-curvature="0" />
	<path style="fill:none;stroke:red;stroke-width:1px;stroke-linecap:butt;stroke-linejoin:miter;stroke-opacity:1" d="M 472.671,158.091 478.485,159.836 z" id="boundary" inkscape:connector-curvature="0" />
	<path style="fill:none;stroke:red;stroke-width:1px;stroke-linecap:butt;stroke-linejoin:miter;stroke-opacity:1" d="M 475.578,197.632 481.393,198.795 z" id="boundary" inkscape:connector-curvature="0" />
	<path style="fill:none;stroke:red;stroke-width:1px;stroke-linecap:butt;stroke-linejoin:miter;stroke-opacity:1" d="M 478.485,159.836 484.3,160.999 z" id="boundary" inkscape:connector-curvature="0" />
	<path style="fill:none;stroke:red;stroke-width:1px;stroke-linecap:butt;stroke-linejoin:miter;stroke-opacity:1" d="M 481.393,198.795 487.208,201.121 z" id="boundary" inkscape:connector-curvature="0" />
	<path style="fill:none;stroke:red;stroke-width:1px;stroke-linecap:butt;stroke-linejoin:miter;stroke-opacity:1" d="M 484.3,160.999 490.115,162.743 z" id="boundary" inkscape:connector-curvature="0" />
	<path style="fill:none;stroke:red;stroke-width:1px;stroke-linecap:butt;stroke-linejoin:miter;stroke-opacity:1" d="M 487.208,201.121 493.022,202.865 z" id="boundary" inkscape:connector-curvature="0" />
	<path style="fill:none;stroke:red;stroke-width:1px;stroke-linecap:butt;stroke-linejoin:miter;stroke-opacity:1" d="M 490.115,162.743 495.93,164.488 z" id="boundary" inkscape:connector-curvature="0" />
	<path style="fill:none;stroke:red;stroke-width:1px;stroke-linecap:butt;stroke-linejoin:miter;stroke-opacity:1" d="M 493.022,202.865 498.837,204.61 z" id="boundary" inkscape:connector-curvature="0" />
	<path style="fill:none;stroke:red;stroke-width:1px;stroke-linecap:butt;stroke-linejoin:miter;stroke-opacity:1" d="M 495.93,164.488 501.744,165.651 z" id="boundary" inkscape:connector-curvature="0" />
	<path style="fill:none;stroke:red;stroke-width:1px;stroke-linecap:butt;stroke-linejoin:miter;stroke-opacity:1" d="M 498.837,204.61 504.652,205.191 z" id="boundary" inkscape:connector-curvature="0" />
	<path style="fill:none;stroke:red;stroke-width:1px;stroke-linecap:butt;stroke-linejoin:miter;stroke-opacity:1" d="M 501.744,165.651 507.559,166.814 z" id="boundary" inkscape:connector-curvature="0" />
	<path style="fill:none;stroke:red;stroke-width:1px;stroke-linecap:butt;stroke-linejoin:miter;stroke-opacity:1" d="M 504.652,205.191 510.467,206.354 z" id="boundary" inkscape:connector-curvature="0" />
	<path style="fill:none;stroke:red;stroke-width:1px;stroke-linecap:butt;stroke-linejoin:miter;stroke-opacity:1" d="M 507.559,166.814 513.374,167.977 z" id="boundary" inkscape:connector-curvature="0" />
	<path style="fill:none;stroke:red;stroke-width:1px;stroke-linecap:butt;stroke-linejoin:miter;stroke-opacity:1" d="M 510.467,206.354 516.281,207.517 z" id="boundary" inkscape:connector-curvature="0" />
	<path style="fill:none;stroke:red;stroke-width:1px;stroke-linecap:butt;stroke-linejoin:miter;stroke-opacity:1" d="M 513.374,167.977 519.189,169.721 z" id="boundary" inkscape:connector-curvature="0" />
	<path style="fill:none;stroke:red;stroke-width:1px;stroke-linecap:butt;stroke-linejoin:miter;stroke-opacity:1" d="M 516.281,207.517 522.096,209.843 z" id="boundary" inkscape:connector-curvature="0" />
	<path style="fill:none;stroke:red;stroke-width:1px;stroke-linecap:butt;stroke-linejoin:miter;stroke-opacity:1" d="M 519.189,169.721 525.004,170.884 z" id="boundary" inkscape:connector-curvature="0" />
	<path style="fill:none;stroke:red;stroke-width:1px;stroke-linecap:butt;stroke-linejoin:miter;stroke-opacity:1" d="M 522.096,209.843 527.911,211.587 z" id="boundary" inkscape:connector-curvature="0" />
	<path style="fill:none;stroke:red;stroke-width:1px;stroke-linecap:butt;stroke-linejoin:miter;stroke-opacity:1" d="M 525.004,170.884 530.818,172.047 z" id="boundary" inkscape:connector-curvature="0" />
	<path style="fill:none;stroke:red;stroke-width:1px;stroke-linecap:butt;stroke-linejoin:miter;stroke-opacity:1" d="M 527.911,211.587 533.726,212.75 z" id="boundary" inkscape:connector-curvature="0" />
	<path style="fill:none;stroke:red;stroke-width:1px;stroke-linecap:butt;stroke-linejoin:miter;stroke-opacity:1" d="M 530.818,172.047 536.633,173.21 z" id="boundary" inkscape:connector-curvature="0" />
	<path style="fill:none;stroke:red;stroke-width:1px;stroke-linecap:butt;stroke-linejoin:miter;stroke-opacity:1" d="M 533.726,212.75 539.54,213.913 z" id="boundary" inkscape:connector-curvature="0" />
	<path style="fill:none;stroke:red;stroke-width:1px;stroke-linecap:butt;stroke-linejoin:miter;stroke-opacity:1" d="M 536.633,173.21 542.448,174.954 z" id="boundary" inkscape:connector-curvature="0" />
	<path style="fill:none;stroke:red;stroke-width:1px;stroke-linecap:butt;stroke-linejoin:miter;stroke-opacity:1" d="M 539.54,213.913 545.355,215.076 z" id="boundary" inkscape:connector-curvature="0" />
	<path style="fill:none;stroke:red;stroke-width:1px;stroke-linecap:butt;stroke-linejoin:miter;stroke-opacity:1" d="M 542.448,174.954 548.263,176.699 z" id="boundary" inkscape:connector-curvature="0" />
	<path style="fill:none;stroke:red;stroke-width:1px;stroke-linecap:butt;stroke-linejoin:miter;stroke-opacity:1" d="M 545.355,215.076 551.17,216.239 z" id="boundary" inkscape:connector-curvature="0" />
	<path style="fill:none;stroke:red;stroke-width:1px;stroke-linecap:butt;stroke-linejoin:miter;stroke-opacity:1" d="M 548.263,176.699 554.077,178.443 z" id="boundary" inkscape:connector-curvature="0" />
	<path style="fill:none;stroke:red;stroke-width:1px;stroke-linecap:butt;stroke-linejoin:miter;stroke-opacity:1" d="M 551.17,216.239 556.985,218.565 z" id="boundary" inkscape:connector-curvature="0" />
	<path style="fill:none;stroke:red;stroke-width:1px;stroke-linecap:butt;stroke-linejoin:miter;stroke-opacity:1" d="M 554.077,178.443 559.892,179.606 z" id="boundary" inkscape:connector-curvature="0" />
	<path style="fill:none;stroke:red;stroke-width:1px;stroke-linecap:butt;stroke-linejoin:miter;stroke-opacity:1" d="M 556.985,218.565 562.8,219.728 z" id="boundary" inkscape:connector-curvature="0" />
	<path style="fill:none;stroke:red;stroke-width:1px;stroke-linecap:butt;stroke-linejoin:miter;stroke-opacity:1" d="M 559.892,179.606 565.707,181.351 z" id="boundary" inkscape:connector-curvature="0" />
	<path style="fill:none;stroke:red;stroke-width:1px;stroke-linecap:butt;stroke-linejoin:miter;stroke-opacity:1" d="M 562.8,219.728 568.614,220.891 z" id="boundary" inkscape:connector-curvature="0" />
	<path style="fill:none;stroke:red;stroke-width:1px;stroke-linecap:butt;stroke-linejoin:miter;stroke-opacity:1" d="M 565.707,181.351 571.522,182.513 z" id="boundary" inkscape:connector-curvature="0" />
	<path style="fill:none;stroke:red;stroke-width:1px;stroke-linecap:butt;stroke-linejoin:miter;stroke-opacity:1" d="M 568.614,220.891 574.429,222.635 z" id="boundary" inkscape:connector-curvature="0" />
	<path style="fill:none;stroke:red;stroke-width:1px;stroke-linecap:butt;stroke-linejoin:miter;stroke-opacity:1" d="M 571.522,182.513 577.336,184.258 z" id="boundary" inkscape:connector-curvature="0" />
	<path style="fill:none;stroke:red;stroke-width:1px;stroke-linecap:butt;stroke-linejoin:miter;stroke-opacity:1" d="M 574.429,222.635 580.244,224.38 z" id="boundary" inkscape:connector-curvature="0" />
	<path style="fill:none;stroke:red;stroke-width:1px;stroke-linecap:butt;stroke-linejoin:miter;stroke-opacity:1" d="M 577.336,184.258 583.151,185.421 z" id="boundary" inkscape:connector-curvature="0" />
	<path style="fill:none;stroke:red;stroke-width:1px;stroke-linecap:butt;stroke-linejoin:miter;stroke-opacity:1" d="M 580.244,224.38 586.059,225.543 z" id="boundary" inkscape:connector-curvature="0" />
	<path style="fill:none;stroke:red;stroke-width:1px;stroke-linecap:butt;stroke-linejoin:miter;stroke-opacity:1" d="M 583.151,185.421 588.966,187.747 z" id="boundary" inkscape:connector-curvature="0" />
	<path style="fill:none;stroke:red;stroke-width:1px;stroke-linecap:butt;stroke-linejoin:miter;stroke-opacity:1" d="M 586.059,225.543 591.873,227.287 z" id="boundary" inkscape:connector-curvature="0" />
	<path style="fill:none;stroke:red;stroke-width:1px;stroke-linecap:butt;stroke-linejoin:miter;stroke-opacity:1" d="M 588.966,187.747 594.781,188.91 z" id="boundary" inkscape:connector-curvature="0" />
	<path style="fill:none;stroke:red;stroke-width:1px;stroke-linecap:butt;stroke-linejoin:miter;stroke-opacity:1" d="M 591.873,227.287 597.688,229.032 z" id="boundary" inkscape:connector-curvature="0" />
	<path style="fill:none;stroke:red;stroke-width:1px;stroke-linecap:butt;stroke-linejoin:miter;stroke-opacity:1" d="M 594.781,188.91 600.596,190.654 z" id="boundary" inkscape:connector-curvature="0" />
	<path style="fill:none;stroke:red;stroke-width:1px;stroke-linecap:butt;stroke-linejoin:miter;stroke-opacity:1" d="M 597.688,229.032 603.503,229.613 z" id="boundary" inkscape:connector-curvature="0" />
	<path style="fill:none;stroke:red;stroke-width:1px;stroke-linecap:butt;stroke-linejoin:miter;stroke-opacity:1" d="M 600.596,190.654 606.41,192.399 z" id="boundary" inkscape:connector-curvature="0" />
	<path style="fill:none;stroke:red;stroke-width:1px;stroke-linecap:butt;stroke-linejoin:miter;stroke-opacity:1" d="M 603.503,229.613 609.318,231.358 z" id="boundary" inkscape:connector-curvature="0" />
	<path style="fill:none;stroke:red;stroke-width:1px;stroke-linecap:butt;stroke-linejoin:miter;stroke-opacity:1" d="M 606.41,192.399 612.225,193.562 z" id="boundary" inkscape:connector-curvature="0" />
	<path style="fill:none;stroke:red;stroke-width:1px;stroke-linecap:butt;stroke-linejoin:miter;stroke-opacity:1" d="M 609.318,231.358 615.132,233.102 z" id="boundary" inkscape:connector-curvature="0" />
	<path style="fill:none;stroke:red;stroke-width:1px;stroke-linecap:butt;stroke-linejoin:miter;stroke-opacity:1" d="M 612.225,193.562 618.04,194.725 z" id="boundary" inkscape:connector-curvature="0" />
	<path style="fill:none;stroke:red;stroke-width:1px;stroke-linecap:butt;stroke-linejoin:miter;stroke-opacity:1" d="M 615.132,233.102 620.947,234.265 z" id="boundary" inkscape:connector-curvature="0" />
	<path style="fill:none;stroke:red;stroke-width:1px;stroke-linecap:butt;stroke-linejoin:miter;stroke-opacity:1" d="M 618.04,194.725 623.855,196.469 z" id="boundary" inkscape:connector-curvature="0" />
	<path style="fill:none;stroke:red;stroke-width:1px;stroke-linecap:butt;stroke-linejoin:miter;stroke-opacity:1" d="M 620.947,234.265 626.762,235.428 z" id="boundary" inkscape:connector-curvature="0" />
	<path style="fill:none;stroke:red;stroke-width:1px;stroke-linecap:butt;stroke-linejoin:miter;stroke-opacity:1" d="M 623.855,196.469 629.669,198.213 z" id="boundary" inkscape:connector-curvature="0" />
	<path style="fill:none;stroke:red;stroke-width:1px;stroke-linecap:butt;stroke-linejoin:miter;stroke-opacity:1" d="M 626.762,235.428 632.577,237.754 z" id="boundary" inkscape:connector-curvature="0" />
	<path style="fill:none;stroke:red;stroke-width:1px;stroke-linecap:butt;stroke-linejoin:miter;stroke-opacity:1" d="M 629.669,198.213 635.484,199.376 z" id="boundary" inkscape:connector-curvature="0" />
	<path style="fill:none;stroke:red;stroke-width:1px;stroke-linecap:butt;stroke-linejoin:miter;stroke-opacity:1" d="M 632.577,237.754 638.392,238.917 z" id="boundary" inkscape:connector-curvature="0" />
	<path style="fill:none;stroke:red;stroke-width:1px;stroke-linecap:butt;stroke-linejoin:miter;stroke-opacity:1" d="M 635.484,199.376 641.299,201.121 z" id="boundary" inkscape:connector-curvature="0" />
	<path style="fill:none;stroke:red;stroke-width:1px;stroke-linecap:butt;stroke-linejoin:miter;stroke-opacity:1" d="M 638.392,238.917 644.206,240.08 z" id="boundary" inkscape:connector-curvature="0" />
	<path style="fill:none;stroke:red;stroke-width:1px;stroke-linecap:butt;stroke-linejoin:miter;stroke-opacity:1" d="M 641.299,201.121 647.114,202.284 z" id="boundary" inkscape:connector-curvature="0" />
	<path style="fill:none;stroke:red;stroke-width:1px;stroke-linecap:butt;stroke-linejoin:miter;stroke-opacity:1" d="M 644.206,240.08 650.021,241.243 z" id="boundary" inkscape:connector-curvature="0" />
	<path style="fill:none;stroke:red;stroke-width:1px;stroke-linecap:butt;stroke-linejoin:miter;stroke-opacity:1" d="M 647.114,202.284 652.928,204.028 z" id="boundary" inkscape:connector-curvature="0" />
	<path style="fill:none;stroke:red;stroke-width:1px;stroke-linecap:butt;stroke-linejoin:miter;stroke-opacity:1" d="M 650.021,241.243 655.836,241.824 z" id="boundary" inkscape:connector-curvature="0" />
	<path style="fill:none;stroke:red;stroke-width:1px;stroke-linecap:butt;stroke-linejoin:miter;stroke-opacity:1" d="M 652.928,204.028 658.743,205.191 z" id="boundary" inkscape:connector-curvature="0" />
	<path style="fill:none;stroke:red;stroke-width:1px;stroke-linecap:butt;stroke-linejoin:miter;stroke-opacity:1" d="M 655.836,241.824 661.651,244.15 z" id="boundary" inkscape:connector-curvature="0" />
	<path style="fill:none;stroke:red;stroke-width:1px;stroke-linecap:butt;stroke-linejoin:miter;stroke-opacity:1" d="M 658.743,205.191 664.558,206.354 z" id="boundary" inkscape:connector-curvature="0" />
	<path style="fill:none;stroke:red;stroke-width:1px;stroke-linecap:butt;stroke-linejoin:miter;stroke-opacity:1" d="M 661.651,244.15 667.465,245.894 z" id="boundary" inkscape:connector-curvature="0" />
	<path style="fill:none;stroke:red;stroke-width:1px;stroke-linecap:butt;stroke-linejoin:miter;stroke-opacity:1" d="M 664.558,206.354 670.373,208.098 z" id="boundary" inkscape:connector-curvature="0" />
	<path style="fill:none;stroke:red;stroke-width:1px;stroke-linecap:butt;stroke-linejoin:miter;stroke-opacity:1" d="M 667.465,245.894 673.28,247.057 z" id="boundary" inkscape:connector-curvature="0" />
	<path style="fill:none;stroke:red;stroke-width:1px;stroke-linecap:butt;stroke-linejoin:miter;stroke-opacity:1" d="M 670.373,208.098 676.188,209.261 z" id="boundary" inkscape:connector-curvature="0" />
	<path style="fill:none;stroke:red;stroke-width:1px;stroke-linecap:butt;stroke-linejoin:miter;stroke-opacity:1" d="M 673.28,247.057 679.095,248.802 z" id="boundary" inkscape:connector-curvature="0" />
	<path style="fill:none;stroke:red;stroke-width:1px;stroke-linecap:butt;stroke-linejoin:miter;stroke-opacity:1" d="M 676.188,209.261 682.002,211.006 z" id="boundary" inkscape:connector-curvature="0" />
	<path style="fill:none;stroke:red;stroke-width:1px;stroke-linecap:butt;stroke-linejoin:miter;stroke-opacity:1" d="M 679.095,248.802 684.91,249.965 z" id="boundary" inkscape:connector-curvature="0" />
	<path style="fill:none;stroke:red;stroke-width:1px;stroke-linecap:butt;stroke-linejoin:miter;stroke-opacity:1" d="M 682.002,211.006 687.817,212.75 z" id="boundary" inkscape:connector-curvature="0" />
	<path style="fill:none;stroke:red;stroke-width:1px;stroke-linecap:butt;stroke-linejoin:miter;stroke-opacity:1" d="M 684.91,249.965 690.725,251.709 z" id="boundary" inkscape:connector-curvature="0" />
	<path style="fill:none;stroke:red;stroke-width:1px;stroke-linecap:butt;stroke-linejoin:miter;stroke-opacity:1" d="M 687.817,212.75 693.632,213.332 z" id="boundary" inkscape:connector-curvature="0" />
	<path style="fill:none;stroke:red;stroke-width:1px;stroke-linecap:butt;stroke-linejoin:miter;stroke-opacity:1" d="M 690.725,251.709 696.539,252.872 z" id="boundary" inkscape:connector-curvature="0" />
	<path style="fill:none;stroke:red;stroke-width:1px;stroke-linecap:butt;stroke-linejoin:miter;stroke-opacity:1" d="M 693.632,213.332 699.447,215.076 z" id="boundary" inkscape:connector-curvature="0" />
	<path style="fill:none;stroke:red;stroke-width:1px;stroke-linecap:butt;stroke-linejoin:miter;stroke-opacity:1" d="M 696.539,252.872 702.354,254.035 z" id="boundary" inkscape:connector-curvature="0" />
	<path style="fill:none;stroke:red;stroke-width:1px;stroke-linecap:butt;stroke-linejoin:miter;stroke-opacity:1" d="M 699.447,215.076 705.261,216.821 z" id="boundary" inkscape:connector-curvature="0" />
	<path style="fill:none;stroke:red;stroke-width:1px;stroke-linecap:butt;stroke-linejoin:miter;stroke-opacity:1" d="M 702.354,254.035 708.169,255.78 z" id="boundary" inkscape:connector-curvature="0" />
	<path style="fill:none;stroke:red;stroke-width:1px;stroke-linecap:butt;stroke-linejoin:miter;stroke-opacity:1" d="M 705.261,216.821 711.076,217.984 z" id="boundary" inkscape:connector-curvature="0" />
	<path style="fill:none;stroke:red;stroke-width:1px;stroke-linecap:butt;stroke-linejoin:miter;stroke-opacity:1" d="M 708.169,255.78 713.984,256.943 z" id="boundary" inkscape:connector-curvature="0" />
	<path style="fill:none;stroke:red;stroke-width:1px;stroke-linecap:butt;stroke-linejoin:miter;stroke-opacity:1" d="M 711.076,217.984 716.891,219.147 z" id="boundary" inkscape:connector-curvature="0" />
	<path style="fill:none;stroke:red;stroke-width:1px;stroke-linecap:butt;stroke-linejoin:miter;stroke-opacity:1" d="M 713.984,256.943 719.798,258.106 z" id="boundary" inkscape:connector-curvature="0" />
	<path style="fill:none;stroke:red;stroke-width:1px;stroke-linecap:butt;stroke-linejoin:miter;stroke-opacity:1" d="M 716.891,219.147 722.706,220.891 z" id="boundary" inkscape:connector-curvature="0" />
	<path style="fill:none;stroke:red;stroke-width:1px;stroke-linecap:butt;stroke-linejoin:miter;stroke-opacity:1" d="M 719.798,258.106 725.613,259.85 z" id="boundary" inkscape:connector-curvature="0" />
	<path style="fill:none;stroke:red;stroke-width:1px;stroke-linecap:butt;stroke-linejoin:miter;stroke-opacity:1" d="M 722.706,220.891 728.521,222.635 z" id="boundary" inkscape:connector-curvature="0" />
	<path style="fill:none;stroke:red;stroke-width:1px;stroke-linecap:butt;stroke-linejoin:miter;stroke-opacity:1" d="M 725.613,259.85 731.428,262.176 z" id="boundary" inkscape:connector-curvature="0" />
	<path style="fill:none;stroke:red;stroke-width:1px;stroke-linecap:butt;stroke-linejoin:miter;stroke-opacity:1" d="M 728.521,222.635 734.335,223.798 z" id="boundary" inkscape:connector-curvature="0" />
	<path style="fill:none;stroke:red;stroke-width:1px;stroke-linecap:butt;stroke-linejoin:miter;stroke-opacity:1" d="M 731.428,262.176 737.243,263.339 z" id="boundary" inkscape:connector-curvature="0" />
	<path style="fill:none;stroke:red;stroke-width:1px;stroke-linecap:butt;stroke-linejoin:miter;stroke-opacity:1" d="M 734.335,223.798 740.15,224.961 z" id="boundary" inkscape:connector-curvature="0" />
	<path style="fill:none;stroke:red;stroke-width:1px;stroke-linecap:butt;stroke-linejoin:miter;stroke-opacity:1" d="M 737.243,263.339 743.057,264.502 z" id="boundary" inkscape:connector-curvature="0" />
	<path style="fill:none;stroke:red;stroke-width:1px;stroke-linecap:butt;stroke-linejoin:miter;stroke-opacity:1" d="M 740.15,224.961 745.965,226.124 z" id="boundary" inkscape:connector-curvature="0" />
	<path style="fill:none;stroke:red;stroke-width:1px;stroke-linecap:butt;stroke-linejoin:miter;stroke-opacity:1" d="M 743.057,264.502 748.872,265.665 z" id="boundary" inkscape:connector-curvature="0" />
	<path style="fill:none;stroke:red;stroke-width:1px;stroke-linecap:butt;stroke-linejoin:miter;stroke-opacity:1" d="M 745.965,226.124 751.78,227.869 z" id="boundary" inkscape:connector-curvature="0" />
	<path style="fill:none;stroke:red;stroke-width:1px;stroke-linecap:butt;stroke-linejoin:miter;stroke-opacity:1" d="M 748.872,265.665 754.687,267.409 z" id="boundary" inkscape:connector-curvature="0" />
	<path style="fill:none;stroke:red;stroke-width:1px;stroke-linecap:butt;stroke-linejoin:miter;stroke-opacity:1" d="M 751.78,227.869 757.594,229.613 z" id="boundary" inkscape:connector-curvature="0" />
	<path style="fill:none;stroke:red;stroke-width:1px;stroke-linecap:butt;stroke-linejoin:miter;stroke-opacity:1" d="M 754.687,267.409 760.502,269.154 z" id="boundary" inkscape:connector-curvature="0" />
	<path style="fill:none;stroke:red;stroke-width:1px;stroke-linecap:butt;stroke-linejoin:miter;stroke-opacity:1" d="M 757.594,229.613 763.409,230.776 z" id="boundary" inkscape:connector-curvature="0" />
	<path style="fill:none;stroke:red;stroke-width:1px;stroke-linecap:butt;stroke-linejoin:miter;stroke-opacity:1" d="M 760.502,269.154 766.317,270.317 z" id="boundary" inkscape:connector-curvature="0" />
	<path style="fill:none;stroke:red;stroke-width:1px;stroke-linecap:butt;stroke-linejoin:miter;stroke-opacity:1" d="M 763.409,230.776 769.224,232.521 z" id="boundary" inkscape:connector-curvature="0" />
	<path style="fill:none;stroke:red;stroke-width:1px;stroke-linecap:butt;stroke-linejoin:miter;stroke-opacity:1" d="M 766.317,270.317 772.131,272.061 z" id="boundary" inkscape:connector-curvature="0" />
	<path style="fill:none;stroke:red;stroke-width:1px;stroke-linecap:butt;stroke-linejoin:miter;stroke-opacity:1" d="M 769.224,232.521 775.039,233.683 z" id="boundary" inkscape:connector-curvature="0" />
	<path style="fill:none;stroke:red;stroke-width:1px;stroke-linecap:butt;stroke-linejoin:miter;stroke-opacity:1" d="M 772.131,272.061 777.946,273.805 z" id="boundary" inkscape:connector-curvature="0" />
	<path style="fill:none;stroke:red;stroke-width:1px;stroke-linecap:butt;stroke-linejoin:miter;stroke-opacity:1" d="M 775.039,233.683 780.853,234.846 z" id="boundary" inkscape:connector-curvature="0" />
	<path style="fill:none;stroke:red;stroke-width:1px;stroke-linecap:butt;stroke-linejoin:miter;stroke-opacity:1" d="M 777.946,273.805 783.761,274.968 z" id="boundary" inkscape:connector-curvature="0" />
	<path style="fill:none;stroke:red;stroke-width:1px;stroke-linecap:butt;stroke-linejoin:miter;stroke-opacity:1" d="M 780.853,234.846 786.668,236.009 z" id="boundary" inkscape:connector-curvature="0" />
	<path style="fill:none;stroke:red;stroke-width:1px;stroke-linecap:butt;stroke-linejoin:miter;stroke-opacity:1" d="M 783.761,274.968 789.576,276.131 z" id="boundary" inkscape:connector-curvature="0" />
	<path style="fill:none;stroke:red;stroke-width:1px;stroke-linecap:butt;stroke-linejoin:miter;stroke-opacity:1" d="M 786.668,236.009 792.483,237.754 z" id="boundary" inkscape:connector-curvature="0" />
	<path style="fill:none;stroke:red;stroke-width:1px;stroke-linecap:butt;stroke-linejoin:miter;stroke-opacity:1" d="M 789.576,276.131 795.39,277.294 z" id="boundary" inkscape:connector-curvature="0" />
	<path style="fill:none;stroke:red;stroke-width:1px;stroke-linecap:butt;stroke-linejoin:miter;stroke-opacity:1" d="M 792.483,237.754 798.298,238.917 z" id="boundary" inkscape:connector-curvature="0" />
	<path style="fill:none;stroke:red;stroke-width:1px;stroke-linecap:butt;stroke-linejoin:miter;stroke-opacity:1" d="M 795.39,277.294 801.205,278.457 z" id="boundary" inkscape:connector-curvature="0" />
	<path style="fill:none;stroke:red;stroke-width:1px;stroke-linecap:butt;stroke-linejoin:miter;stroke-opacity:1" d="M 798.298,238.917 804.113,240.661 z" id="boundary" inkscape:connector-curvature="0" />
	<path style="fill:none;stroke:red;stroke-width:1px;stroke-linecap:butt;stroke-linejoin:miter;stroke-opacity:1" d="M 801.205,278.457 807.02,279.62 z" id="boundary" inkscape:connector-curvature="0" />
	<path style="fill:none;stroke:red;stroke-width:1px;stroke-linecap:butt;stroke-linejoin:miter;stroke-opacity:1" d="M 804.113,240.661 809.927,242.406 z" id="boundary" inkscape:connector-curvature="0" />
	<path style="fill:none;stroke:red;stroke-width:1px;stroke-linecap:butt;stroke-linejoin:miter;stroke-opacity:1" d="M 807.02,279.62 812.835,281.365 z" id="boundary" inkscape:connector-curvature="0" />
	<path style="fill:none;stroke:red;stroke-width:1px;stroke-linecap:butt;stroke-linejoin:miter;stroke-opacity:1" d="M 809.927,242.406 815.742,243.569 z" id="boundary" inkscape:connector-curvature="0" />
	<path style="fill:none;stroke:red;stroke-width:1px;stroke-linecap:butt;stroke-linejoin:miter;stroke-opacity:1" d="M 812.835,281.365 818.649,283.109 z" id="boundary" inkscape:connector-curvature="0" />
	<path style="fill:none;stroke:red;stroke-width:1px;stroke-linecap:butt;stroke-linejoin:miter;stroke-opacity:1" d="M 815.742,243.569 821.557,244.732 z" id="boundary" inkscape:connector-curvature="0" />
	<path style="fill:none;stroke:red;stroke-width:1px;stroke-linecap:butt;stroke-linejoin:miter;stroke-opacity:1" d="M 818.649,283.109 824.464,283.691 z" id="boundary" inkscape:connector-curvature="0" />
	<path style="fill:none;stroke:red;stroke-width:1px;stroke-linecap:butt;stroke-linejoin:miter;stroke-opacity:1" d="M 821.557,244.732 827.372,245.894 z" id="boundary" inkscape:connector-curvature="0" />
	<path style="fill:none;stroke:red;stroke-width:1px;stroke-linecap:butt;stroke-linejoin:miter;stroke-opacity:1" d="M 824.464,283.691 830.279,286.016 z" id="boundary" inkscape:connector-curvature="0" />
	<path style="fill:none;stroke:red;stroke-width:1px;stroke-linecap:butt;stroke-linejoin:miter;stroke-opacity:1" d="M 827.372,245.894 833.186,247.639 z" id="boundary" inkscape:connector-curvature="0" />
	<path style="fill:none;stroke:red;stroke-width:1px;stroke-linecap:butt;stroke-linejoin:miter;stroke-opacity:1" d="M 830.279,286.016 836.094,287.179 z" id="boundary" inkscape:connector-curvature="0" />
	<path style="fill:none;stroke:red;stroke-width:1px;stroke-linecap:butt;stroke-linejoin:miter;stroke-opacity:1" d="M 833.186,247.639 839.001,249.383 z" id="boundary" inkscape:connector-curvature="0" />
	<path style="fill:none;stroke:red;stroke-width:1px;stroke-linecap:butt;stroke-linejoin:miter;stroke-opacity:1" d="M 836.094,287.179 841.909,288.924 z" id="boundary" inkscape:connector-curvature="0" />
	<path style="fill:none;stroke:red;stroke-width:1px;stroke-linecap:butt;stroke-linejoin:miter;stroke-opacity:1" d="M 839.001,249.383 844.816,251.128 z" id="boundary" inkscape:connector-curvature="0" />
	<path style="fill:none;stroke:red;stroke-width:1px;stroke-linecap:butt;stroke-linejoin:miter;stroke-opacity:1" d="M 841.909,288.924 847.723,290.668 z" id="boundary" inkscape:connector-curvature="0" />
	<path style="fill:none;stroke:red;stroke-width:1px;stroke-linecap:butt;stroke-linejoin:miter;stroke-opacity:1" d="M 844.816,251.128 850.631,251.709 z" id="boundary" inkscape:connector-curvature="0" />
	<path style="fill:none;stroke:red;stroke-width:1px;stroke-linecap:butt;stroke-linejoin:miter;stroke-opacity:1" d="M 847.723,290.668 853.538,291.831 z" id="boundary" inkscape:connector-curvature="0" />
	<path style="fill:none;stroke:red;stroke-width:1px;stroke-linecap:butt;stroke-linejoin:miter;stroke-opacity:1" d="M 850.631,251.709 856.445,253.454 z" id="boundary" inkscape:connector-curvature="0" />
	<path style="fill:none;stroke:red;stroke-width:1px;stroke-linecap:butt;stroke-linejoin:miter;stroke-opacity:1" d="M 853.538,291.831 859.353,292.413 z" id="boundary" inkscape:connector-curvature="0" />
	<path style="fill:none;stroke:red;stroke-width:1px;stroke-linecap:butt;stroke-linejoin:miter;stroke-opacity:1" d="M 856.445,253.454 862.26,255.198 z" id="boundary" inkscape:connector-curvature="0" />
	<path style="fill:none;stroke:red;stroke-width:1px;stroke-linecap:butt;stroke-linejoin:miter;stroke-opacity:1" d="M 859.353,292.413 865.168,293.576 z" id="boundary" inkscape:connector-curvature="0" />
	<path style="fill:none;stroke:red;stroke-width:1px;stroke-linecap:butt;stroke-linejoin:miter;stroke-opacity:1" d="M 862.26,255.198 868.075,256.361 z" id="boundary" inkscape:connector-curvature="0" />
	<path style="fill:none;stroke:red;stroke-width:1px;stroke-linecap:butt;stroke-linejoin:miter;stroke-opacity:1" d="M 865.168,293.576 870.982,295.32 z" id="boundary" inkscape:connector-curvature="0" />
	<path style="fill:none;stroke:red;stroke-width:1px;stroke-linecap:butt;stroke-linejoin:miter;stroke-opacity:1" d="M 868.075,256.361 873.89,258.106 z" id="boundary" inkscape:connector-curvature="0" />
	<path style="fill:none;stroke:red;stroke-width:1px;stroke-linecap:butt;stroke-linejoin:miter;stroke-opacity:1" d="M 870.982,295.32 876.797,297.064 z" id="boundary" inkscape:connector-curvature="0" />
	<path style="fill:none;stroke:red;stroke-width:1px;stroke-linecap:butt;stroke-linejoin:miter;stroke-opacity:1" d="M 873.89,258.106 879.705,258.687 z" id="boundary" inkscape:connector-curvature="0" />
	<path style="fill:none;stroke:red;stroke-width:1px;stroke-linecap:butt;stroke-linejoin:miter;stroke-opacity:1" d="M 876.797,297.064 882.612,298.227 z" id="boundary" inkscape:connector-curvature="0" />
	<path style="fill:none;stroke:red;stroke-width:1px;stroke-linecap:butt;stroke-linejoin:miter;stroke-opacity:1" d="M 879.705,258.687 885.519,261.013 z" id="boundary" inkscape:connector-curvature="0" />
	<path style="fill:none;stroke:red;stroke-width:1px;stroke-linecap:butt;stroke-linejoin:miter;stroke-opacity:1" d="M 882.612,298.227 888.427,300.553 z" id="boundary" inkscape:connector-curvature="0" />
	<path style="fill:none;stroke:red;stroke-width:1px;stroke-linecap:butt;stroke-linejoin:miter;stroke-opacity:1" d="M 885.519,261.013 891.334,262.176 z" id="boundary" inkscape:connector-curvature="0" />
	<path style="fill:none;stroke:red;stroke-width:1px;stroke-linecap:butt;stroke-linejoin:miter;stroke-opacity:1" d="M 888.427,300.553 894.242,301.135 z" id="boundary" inkscape:connector-curvature="0" />
	<path style="fill:none;stroke:red;stroke-width:1px;stroke-linecap:butt;stroke-linejoin:miter;stroke-opacity:1" d="M 891.334,262.176 897.149,263.339 z" id="boundary" inkscape:connector-curvature="0" />
	<path style="fill:none;stroke:red;stroke-width:1px;stroke-linecap:butt;stroke-linejoin:miter;stroke-opacity:1" d="M 894.242,301.135 900.056,302.298 z" id="boundary" inkscape:connector-curvature="0" />
	<path style="fill:none;stroke:red;stroke-width:1px;stroke-linecap:butt;stroke-linejoin:miter;stroke-opacity:1" d="M 897.149,263.339 902.964,265.083 z" id="boundary" inkscape:connector-curvature="0" />
	<path style="fill:none;stroke:red;stroke-width:1px;stroke-linecap:butt;stroke-linejoin:miter;stroke-opacity:1" d="M 900.056,302.298 905.871,303.461 z" id="boundary" inkscape:connector-curvature="0" />
	<path style="fill:none;stroke:red;stroke-width:1px;stroke-linecap:butt;stroke-linejoin:miter;stroke-opacity:1" d="M 902.964,265.083 908.778,266.246 z" id="boundary" inkscape:connector-curvature="0" />
	<path style="fill:none;stroke:red;stroke-width:1px;stroke-linecap:butt;stroke-linejoin:miter;stroke-opacity:1" d="M 905.871,303.461 911.686,305.205 z" id="boundary" inkscape:connector-curvature="0" />
	<path style="fill:none;stroke:red;stroke-width:1px;stroke-linecap:butt;stroke-linejoin:miter;stroke-opacity:1" d="M 908.778,266.246 914.593,267.991 z" id="boundary" inkscape:connector-curvature="0" />
	<path style="fill:none;stroke:red;stroke-width:1px;stroke-linecap:butt;stroke-linejoin:miter;stroke-opacity:1" d="M 911.686,305.205 917.501,306.95 z" id="boundary" inkscape:connector-curvature="0" />
	<path style="fill:none;stroke:red;stroke-width:1px;stroke-linecap:butt;stroke-linejoin:miter;stroke-opacity:1" d="M 914.593,267.991 920.408,269.154 z" id="boundary" inkscape:connector-curvature="0" />
	<path style="fill:none;stroke:red;stroke-width:1px;stroke-linecap:butt;stroke-linejoin:miter;stroke-opacity:1" d="M 917.501,306.95 923.315,308.694 z" id="boundary" inkscape:connector-curvature="0" />
	<path style="fill:none;stroke:red;stroke-width:1px;stroke-linecap:butt;stroke-linejoin:miter;stroke-opacity:1" d="M 920.408,269.154 926.223,270.898 z" id="boundary" inkscape:connector-curvature="0" />
	<path style="fill:none;stroke:red;stroke-width:1px;stroke-linecap:butt;stroke-linejoin:miter;stroke-opacity:1" d="M 923.315,308.694 929.13,309.857 z" id="boundary" inkscape:connector-curvature="0" />
	<path style="fill:none;stroke:red;stroke-width:1px;stroke-linecap:butt;stroke-linejoin:miter;stroke-opacity:1" d="M 926.223,270.898 932.038,272.642 z" id="boundary" inkscape:connector-curvature="0" />
	<path style="fill:none;stroke:red;stroke-width:1px;stroke-linecap:butt;stroke-linejoin:miter;stroke-opacity:1" d="M 929.13,309.857 934.945,310.438 z" id="boundary" inkscape:connector-curvature="0" />
	<path style="fill:none;stroke:red;stroke-width:1px;stroke-linecap:butt;stroke-linejoin:miter;stroke-opacity:1" d="M 932.038,272.642 937.852,273.805 z" id="boundary" inkscape:connector-curvature="0" />
	<path style="fill:none;stroke:red;stroke-width:1px;stroke-linecap:butt;stroke-linejoin:miter;stroke-opacity:1" d="M 934.945,310.438 940.76,312.183 z" id="boundary" inkscape:connector-curvature="0" />
	<path style="fill:none;stroke:red;stroke-width:1px;stroke-linecap:butt;stroke-linejoin:miter;stroke-opacity:1" d="M 937.852,273.805 943.667,274.968 z" id="boundary" inkscape:connector-curvature="0" />
	<path style="fill:none;stroke:red;stroke-width:1px;stroke-linecap:butt;stroke-linejoin:miter;stroke-opacity:1" d="M 940.76,312.183 946.574,313.927 z" id="boundary" inkscape:connector-curvature="0" />
	<path style="fill:none;stroke:red;stroke-width:1px;stroke-linecap:butt;stroke-linejoin:miter;stroke-opacity:1" d="M 943.667,274.968 949.482,276.131 z" id="boundary" inkscape:connector-curvature="0" />
	<path style="fill:none;stroke:red;stroke-width:1px;stroke-linecap:butt;stroke-linejoin:miter;stroke-opacity:1" d="M 946.574,313.927 952.389,315.09 z" id="boundary" inkscape:connector-curvature="0" />
	<path style="fill:none;stroke:red;stroke-width:1px;stroke-linecap:butt;stroke-linejoin:miter;stroke-opacity:1" d="M 949.482,276.131 955.297,277.876 z" id="boundary" inkscape:connector-curvature="0" />
	<path style="fill:none;stroke:red;stroke-width:1px;stroke-linecap:butt;stroke-linejoin:miter;stroke-opacity:1" d="M 952.389,315.09 958.204,316.253 z" id="boundary" inkscape:connector-curvature="0" />
	<path style="fill:none;stroke:red;stroke-width:1px;stroke-linecap:butt;stroke-linejoin:miter;stroke-opacity:1" d="M 955.297,277.876 961.111,279.039 z" id="boundary" inkscape:connector-curvature="0" />
	<path style="fill:none;stroke:red;stroke-width:1px;stroke-linecap:butt;stroke-linejoin:miter;stroke-opacity:1" d="M 958.204,316.253 964.019,316.835 z" id="boundary" inkscape:connector-curvature="0" />
	<path style="fill:none;stroke:red;stroke-width:1px;stroke-linecap:butt;stroke-linejoin:miter;stroke-opacity:1" d="M 961.111,279.039 966.926,280.783 z" id="boundary" inkscape:connector-curvature="0" />
	<path style="fill:none;stroke:red;stroke-width:1px;stroke-linecap:butt;stroke-linejoin:miter;stroke-opacity:1" d="M 964.019,316.835 969.834,319.161 z" id="boundary" inkscape:connector-curvature="0" />
	<path style="fill:none;stroke:red;stroke-width:1px;stroke-linecap:butt;stroke-linejoin:miter;stroke-opacity:1" d="M 966.926,280.783 972.741,281.946 z" id="boundary" inkscape:connector-curvature="0" />
	<path style="fill:none;stroke:red;stroke-width:1px;stroke-linecap:butt;stroke-linejoin:miter;stroke-opacity:1" d="M 969.834,319.161 975.648,320.324 z" id="boundary" inkscape:connector-curvature="0" />
	<path style="fill:none;stroke:red;stroke-width:1px;stroke-linecap:butt;stroke-linejoin:miter;stroke-opacity:1" d="M 972.741,281.946 978.556,283.691 z" id="boundary" inkscape:connector-curvature="0" />
	<path style="fill:none;stroke:red;stroke-width:1px;stroke-linecap:butt;stroke-linejoin:miter;stroke-opacity:1" d="M 975.648,320.324 981.463,319.742 z" id="boundary" inkscape:connector-curvature="0" />
	<path style="fill:none;stroke:red;stroke-width:1px;stroke-linecap:butt;stroke-linejoin:miter;stroke-opacity:1" d="M 978.556,283.691 984.37,285.435 z" id="boundary" inkscape:connector-curvature="0" />
	<path style="fill:none;stroke:red;stroke-width:1px;stroke-linecap:butt;stroke-linejoin:miter;stroke-opacity:1" d="M 981.463,319.742 986.696,316.253 z" id="boundary" inkscape:connector-curvature="0" />
	<path style="fill:none;stroke:red;stroke-width:1px;stroke-linecap:butt;stroke-linejoin:miter;stroke-opacity:1" d="M 984.37,285.435 989.022,288.924 z" id="boundary" inkscape:connector-curvature="0" />
	<path style="fill:none;stroke:red;stroke-width:1px;stroke-linecap:butt;stroke-linejoin:miter;stroke-opacity:1" d="M 986.696,316.253 991.348,312.183 z" id="boundary" inkscape:connector-curvature="0" />
	<path style="fill:none;stroke:red;stroke-width:1px;stroke-linecap:butt;stroke-linejoin:miter;stroke-opacity:1" d="M 989.022,288.924 992.511,293.576 z" id="boundary" inkscape:connector-curvature="0" />
	<path style="fill:none;stroke:red;stroke-width:1px;stroke-linecap:butt;stroke-linejoin:miter;stroke-opacity:1" d="M 991.348,312.183 996,307.531 z" id="boundary" inkscape:connector-curvature="0" />
	<path style="fill:none;stroke:red;stroke-width:1px;stroke-linecap:butt;stroke-linejoin:miter;stroke-opacity:1" d="M 992.511,293.576 994.837,299.39 z" id="boundary" inkscape:connector-curvature="0" />
	<path style="fill:none;stroke:red;stroke-width:1px;stroke-linecap:butt;stroke-linejoin:miter;stroke-opacity:1" d="M 994.837,299.39 996,307.531 z" id="boundary" inkscape:connector-curvature="0" />
	<circle cx="4" cy="71.4513" r="4" fill="#0" id="circle0"/>
	<circle cx="4.58148" cy="77.2661" r="4" fill="#0" id="circle1"/>
	<circle cx="4.58148" cy="83.6624" r="4" fill="#0" id="circle2"/>
	<circle cx="5.16295" cy="65.0551" r="4" fill="#0" id="circle3"/>
	<circle cx="5.74443" cy="89.4771" r="4" fill="#0" id="circle4"/>
	<circle cx="7.48886" cy="59.2403" r="4" fill="#0" id="circle5"/>
	<circle cx="7.48886" cy="95.2919" r="4" fill="#0" id="circle6"/>
	<circle cx="8.65182" cy="52.8441" r="4" fill="#0" id="circle7"/>
	<circle cx="9.23329" cy="101.107" r="4" fill="#0" id="circle8"/>
	<circle cx="11.5592" cy="106.921" r="4" fill="#0" id="circle9"/>
	<circle cx="13.3036" cy="48.1923" r="4" fill="#0" id="circle10"/>
	<circle cx="15.0481" cy="111.573" r="4" fill="#0" id="circle11"/>
	<circle cx="17.9555" cy="43.5404" r="4" fill="#0" id="circle12"/>
	<circle cx="18.5369" cy="116.225" r="4" fill="#0" id="circle13"/>
	<circle cx="22.0258" cy="38.3072" r="4" fill="#0" id="circle14"/>
	<circle cx="22.0258" cy="120.877" r="4" fill="#0" id="circle15"/>
	<circle cx="24.9332" cy="33.0739" r="4" fill="#0" id="circle16"/>
	<circle cx="26.6776" cy="124.947" r="4" fill="#0" id="circle17"/>
	<circle cx="28.422" cy="27.8406" r="4" fill="#0" id="circle18"/>
	<circle cx="30.1665" cy="129.599" r="4" fill="#0" id="circle19"/>
	<circle cx="33.0739" cy="23.7702" r="4" fill="#0" id="circle20"/>
	<circle cx="33.6553" cy="134.251" r="4" fill="#0" id="circle21"/>
	<circle cx="37.7257" cy="19.6999" r="4" fill="#0" id="circle22"/>
	<circle cx="37.7257" cy="138.903" r="4" fill="#0" id="circle23"/>
	<circle cx="42.959" cy="141.81" r="4" fill="#0" id="circle24"/>
	<circle cx="43.5404" cy="17.374" r="4" fill="#0" id="circle25"/>
	<circle cx="47.6108" cy="145.88" r="4" fill="#0" id="circle26"/>
	<circle cx="49.3552" cy="14.4666" r="4" fill="#0" id="circle27"/>
	<circle cx="52.2626" cy="149.369" r="4" fill="#0" id="circle28"/>
	<circle cx="55.17" cy="12.7222" r="4" fill="#0" id="circle29"/>
	<circle cx="56.9144" cy="152.858" r="4" fill="#0" id="circle30"/>
	<circle cx="60.9848" cy="10.9777" r="4" fill="#0" id="circle31"/>
	<circle cx="62.1477" cy="155.766" r="4" fill="#0" id="circle32"/>
	<circle cx="66.7995" cy="9.81477" r="4" fill="#0" id="circle33"/>
	<circle cx="66.7995" cy="159.254" r="4" fill="#0" id="circle34"/>
	<circle cx="72.0328" cy="162.162" r="4" fill="#0" id="circle35"/>
	<circle cx="72.6143" cy="8.07034" r="4" fill="#0" id="circle36"/>
	<circle cx="76.6846" cy="166.232" r="4" fill="#0" id="circle37"/>
	<circle cx="78.4291" cy="6.90739" r="4" fill="#0" id="circle38"/>
	<circle cx="81.9179" cy="169.14" r="4" fill="#0" id="circle39"/>
	<circle cx="84.2438" cy="5.74443" r="4" fill="#0" id="circle40"/>
	<circle cx="87.7327" cy="171.465" r="4" fill="#0" id="circle41"/>
	<circle cx="90.0586" cy="5.16295" r="4" fill="#0" id="circle42"/>
	<circle cx="92.966" cy="174.373" r="4" fill="#0" id="circle43"/>
	<circle cx="95.8734" cy="5.16295" r="4" fill="#0" id="circle44"/>
	<circle cx="98.1993" cy="177.28" r="4" fill="#0" id="circle45"/>
	<circle cx="101.688" cy="4.58148" r="4" fill="#0" id="circle46"/>
	<circle cx="104.014" cy="179.606" r="4" fill="#0" id="circle47"/>
	<circle cx="107.503" cy="4.58148" r="4" fill="#0" id="circle48"/>
	<circle cx="109.829" cy="181.351" r="4" fill="#0" id="circle49"/>
	<circle cx="113.318" cy="4" r="4" fill="#0" id="circle50"/>
	<circle cx="115.062" cy="184.258" r="4" fill="#0" id="circle51"/>
	<circle cx="119.132" cy="4" r="4" fill="#0" id="circle52"/>
	<circle cx="120.877" cy="186.002" r="4" fill="#0" id="circle53"/>
	<circle cx="124.947" cy="4.58148" r="4" fill="#0" id="circle54"/>
	<circle cx="126.692" cy="187.747" r="4" fill="#0" id="circle55"/>
	<circle cx="130.762" cy="4.58148" r="4" fill="#0" id="circle56"/>
	<circle cx="132.506" cy="189.491" r="4" fill="#0" id="circle57"/>
	<circle cx="136.577" cy="5.16295" r="4" fill="#0" id="circle58"/>
	<circle cx="138.321" cy="190.654" r="4" fill="#0" id="circle59"/>
	<circle cx="142.392" cy="5.74443" r="4" fill="#0" id="circle60"/>
	<circle cx="144.136" cy="192.399" r="4" fill="#0" id="circle61"/>
	<circle cx="148.206" cy="6.32591" r="4" fill="#0" id="circle62"/>
	<circle cx="149.951" cy="193.562" r="4" fill="#0" id="circle63"/>
	<circle cx="154.021" cy="6.90739" r="4" fill="#0" id="circle64"/>
	<circle cx="155.766" cy="194.725" r="4" fill="#0" id="circle65"/>
	<circle cx="159.836" cy="8.07034" r="4" fill="#0" id="circle66"/>
	<circle cx="161.58" cy="195.887" r="4" fill="#0" id="circle67"/>
	<circle cx="165.651" cy="9.23329" r="4" fill="#0" id="circle68"/>
	<circle cx="167.395" cy="196.469" r="4" fill="#0" id="circle69"/>
	<circle cx="171.465" cy="10.3962" r="4" fill="#0" id="circle70"/>
	<circle cx="173.21" cy="196.469" r="4" fill="#0" id="circle71"/>
	<circle cx="177.28" cy="11.5592" r="4" fill="#0" id="circle72"/>
	<circle cx="179.025" cy="197.632" r="4" fill="#0" id="circle73"/>
	<circle cx="183.095" cy="13.3036" r="4" fill="#0" id="circle74"/>
	<circle cx="184.839" cy="197.632" r="4" fill="#0" id="circle75"/>
	<circle cx="188.91" cy="15.0481" r="4" fill="#0" id="circle76"/>
	<circle cx="190.654" cy="197.632" r="4" fill="#0" id="circle77"/>
	<circle cx="194.725" cy="16.211" r="4" fill="#0" id="circle78"/>
	<circle cx="196.469" cy="197.632" r="4" fill="#0" id="circle79"/>
	<circle cx="200.539" cy="18.5369" r="4" fill="#0" id="circle80"/>
	<circle cx="202.284" cy="197.05" r="4" fill="#0" id="circle81"/>
	<circle cx="206.354" cy="19.6999" r="4" fill="#0" id="circle82"/>
	<circle cx="208.098" cy="197.05" r="4" fill="#0" id="circle83"/>
	<circle cx="212.169" cy="22.0258" r="4" fill="#0" id="circle84"/>
	<circle cx="213.913" cy="196.469" r="4" fill="#0" id="circle85"/>
	<circle cx="217.984" cy="24.3517" r="4" fill="#0" id="circle86"/>
	<circle cx="219.728" cy="195.887" r="4" fill="#0" id="circle87"/>
	<circle cx="223.798" cy="26.6776" r="4" fill="#0" id="circle88"/>
	<circle cx="225.543" cy="194.725" r="4" fill="#0" id="circle89"/>
	<circle cx="229.032" cy="29.585" r="4" fill="#0" id="circle90"/>
	<circle cx="231.358" cy="194.143" r="4" fill="#0" id="circle91"/>
	<circle cx="234.846" cy="31.9109" r="4" fill="#0" id="circle92"/>
	<circle cx="237.172" cy="193.562" r="4" fill="#0" id="circle93"/>
	<circle cx="240.08" cy="34.8183" r="4" fill="#0" id="circle94"/>
	<circle cx="242.987" cy="192.399" r="4" fill="#0" id="circle95"/>
	<circle cx="245.313" cy="37.7257" r="4" fill="#0" id="circle96"/>
	<circle cx="248.802" cy="191.236" r="4" fill="#0" id="circle97"/>
	<circle cx="249.965" cy="41.2145" r="4" fill="#0" id="circle98"/>
	<circle cx="254.617" cy="190.654" r="4" fill="#0" id="circle99"/>
	<circle cx="255.198" cy="44.1219" r="4" fill="#0" id="circle100"/>
	<circle cx="259.85" cy="47.6108" r="4" fill="#0" id="circle101"/>
	<circle cx="260.431" cy="189.491" r="4" fill="#0" id="circle102"/>
	<circle cx="264.502" cy="51.0996" r="4" fill="#0" id="circle103"/>
	<circle cx="266.246" cy="187.747" r="4" fill="#0" id="circle104"/>
	<circle cx="269.154" cy="54.5885" r="4" fill="#0" id="circle105"/>
	<circle cx="272.061" cy="186.002" r="4" fill="#0" id="circle106"/>
	<circle cx="274.387" cy="57.4959" r="4" fill="#0" id="circle107"/>
	<circle cx="277.876" cy="184.258" r="4" fill="#0" id="circle108"/>
	<circle cx="279.039" cy="60.9848" r="4" fill="#0" id="circle109"/>
	<circle cx="283.691" cy="64.4736" r="4" fill="#0" id="circle110"/>
	<circle cx="283.691" cy="183.676" r="4" fill="#0" id="circle111"/>
	<circle cx="288.342" cy="67.9625" r="4" fill="#0" id="circle112"/>
	<circle cx="289.505" cy="181.932" r="4" fill="#0" id="circle113"/>
	<circle cx="292.994" cy="72.0328" r="4" fill="#0" id="circle114"/>
	<circle cx="295.32" cy="179.606" r="4" fill="#0" id="circle115"/>
	<circle cx="297.646" cy="76.1032" r="4" fill="#0" id="circle116"/>
	<circle cx="301.135" cy="177.28" r="4" fill="#0" id="circle117"/>
	<circle cx="302.298" cy="80.1735" r="4" fill="#0" id="circle118"/>
	<circle cx="306.95" cy="84.2438" r="4" fill="#0" id="circle119"/>
	<circle cx="306.95" cy="175.536" r="4" fill="#0" id="circle120"/>
	<circle cx="311.02" cy="88.8957" r="4" fill="#0" id="circle121"/>
	<circle cx="312.764" cy="173.791" r="4" fill="#0" id="circle122"/>
	<circle cx="315.672" cy="92.3845" r="4" fill="#0" id="circle123"/>
	<circle cx="318.579" cy="172.047" r="4" fill="#0" id="circle124"/>
	<circle cx="319.161" cy="97.0363" r="4" fill="#0" id="circle125"/>
	<circle cx="323.812" cy="101.107" r="4" fill="#0" id="circle126"/>
	<circle cx="324.394" cy="170.302" r="4" fill="#0" id="circle127"/>
	<circle cx="327.883" cy="105.758" r="4" fill="#0" id="circle128"/>
	<circle cx="330.209" cy="168.558" r="4" fill="#0" id="circle129"/>
	<circle cx="332.535" cy="109.829" r="4" fill="#0" id="circle130"/>
	<circle cx="336.023" cy="167.977" r="4" fill="#0" id="circle131"/>
	<circle cx="336.605" cy="114.481" r="4" fill="#0" id="circle132"/>
	<circle cx="341.257" cy="117.97" r="4" fill="#0" id="circle133"/>
	<circle cx="341.838" cy="167.977" r="4" fill="#0" id="circle134"/>
	<circle cx="345.909" cy="121.458" r="4" fill="#0" id="circle135"/>
	<circle cx="347.653" cy="167.977" r="4" fill="#0" id="circle136"/>
	<circle cx="350.56" cy="124.947" r="4" fill="#0" id="circle137"/>
	<circle cx="353.468" cy="169.14" r="4" fill="#0" id="circle138"/>
	<circle cx="356.375" cy="127.273" r="4" fill="#0" id="circle139"/>
	<circle cx="359.283" cy="170.302" r="4" fill="#0" id="circle140"/>
	<circle cx="362.19" cy="129.599" r="4" fill="#0" id="circle141"/>
	<circle cx="365.097" cy="172.047" r="4" fill="#0" id="circle142"/>
	<circle cx="368.005" cy="131.343" r="4" fill="#0" id="circle143"/>
	<circle cx="370.912" cy="173.21" r="4" fill="#0" id="circle144"/>
	<circle cx="373.819" cy="133.088" r="4" fill="#0" id="circle145"/>
	<circle cx="376.727" cy="174.373" r="4" fill="#0" id="circle146"/>
	<circle cx="379.634" cy="134.832" r="4" fill="#0" id="circle147"/>
	<circle cx="382.542" cy="174.954" r="4" fill="#0" id="circle148"/>
	<circle cx="385.449" cy="136.577" r="4" fill="#0" id="circle149"/>
	<circle cx="388.356" cy="176.117" r="4" fill="#0" id="circle150"/>
	<circle cx="391.264" cy="138.321" r="4" fill="#0" id="circle151"/>
	<circle cx="394.171" cy="177.862" r="4" fill="#0" id="circle152"/>
	<circle cx="397.079" cy="140.066" r="4" fill="#0" id="circle153"/>
	<circle cx="399.986" cy="180.188" r="4" fill="#0" id="circle154"/>
	<circle cx="402.893" cy="141.229" r="4" fill="#0" id="circle155"/>
	<circle cx="405.801" cy="181.351" r="4" fill="#0" id="circle156"/>
	<circle cx="408.708" cy="142.392" r="4" fill="#0" id="circle157"/>
	<circle cx="411.615" cy="182.513" r="4" fill="#0" id="circle158"/>
	<circle cx="414.523" cy="144.136" r="4" fill="#0" id="circle159"/>
	<circle cx="417.43" cy="183.676" r="4" fill="#0" id="circle160"/>
	<circle cx="420.338" cy="145.299" r="4" fill="#0" id="circle161"/>
	<circle cx="423.245" cy="184.839" r="4" fill="#0" id="circle162"/>
	<circle cx="426.152" cy="146.462" r="4" fill="#0" id="circle163"/>
	<circle cx="429.06" cy="186.584" r="4" fill="#0" id="circle164"/>
	<circle cx="431.967" cy="148.206" r="4" fill="#0" id="circle165"/>
	<circle cx="434.875" cy="188.328" r="4" fill="#0" id="circle166"/>
	<circle cx="437.782" cy="149.369" r="4" fill="#0" id="circle167"/>
	<circle cx="440.689" cy="189.491" r="4" fill="#0" id="circle168"/>
	<circle cx="443.597" cy="151.114" r="4" fill="#0" id="circle169"/>
	<circle cx="446.504" cy="190.654" r="4" fill="#0" id="circle170"/>
	<circle cx="449.411" cy="152.858" r="4" fill="#0" id="circle171"/>
	<circle cx="452.319" cy="192.399" r="4" fill="#0" id="circle172"/>
	<circle cx="455.226" cy="153.44" r="4" fill="#0" id="circle173"/>
	<circle cx="458.134" cy="193.562" r="4" fill="#0" id="circle174"/>
	<circle cx="461.041" cy="155.184" r="4" fill="#0" id="circle175"/>
	<circle cx="463.948" cy="195.306" r="4" fill="#0" id="circle176"/>
	<circle cx="466.856" cy="156.928" r="4" fill="#0" id="circle177"/>
	<circle cx="469.763" cy="196.469" r="4" fill="#0" id="circle178"/>
	<circle cx="472.671" cy="158.091" r="4" fill="#0" id="circle179"/>
	<circle cx="475.578" cy="197.632" r="4" fill="#0" id="circle180"/>
	<circle cx="478.485" cy="159.836" r="4" fill="#0" id="circle181"/>
	<circle cx="481.393" cy="198.795" r="4" fill="#0" id="circle182"/>
	<circle cx="484.3" cy="160.999" r="4" fill="#0" id="circle183"/>
	<circle cx="487.208" cy="201.121" r="4" fill="#0" id="circle184"/>
	<circle cx="490.115" cy="162.743" r="4" fill="#0" id="circle185"/>
	<circle cx="493.022" cy="202.865" r="4" fill="#0" id="circle186"/>
	<circle cx="495.93" cy="164.488" r="4" fill="#0" id="circle187"/>
	<circle cx="498.837" cy="204.61" r="4" fill="#0" id="circle188"/>
	<circle cx="501.744" cy="165.651" r="4" fill="#0" id="circle189"/>
	<circle cx="504.652" cy="205.191" r="4" fill="#0" id="circle190"/>
	<circle cx="507.559" cy="166.814" r="4" fill="#0" id="circle191"/>
	<circle cx="510.467" cy="206.354" r="4" fill="#0" id="circle192"/>
	<circle cx="513.374" cy="167.977" r="4" fill="#0" id="circle193"/>
	<circle cx="516.281" cy="207.517" r="4" fill="#0" id="circle194"/>
	<circle cx="519.189" cy="169.721" r="4" fill="#0" id="circle195"/>
	<circle cx="522.096" cy="209.843" r="4" fill="#0" id="circle196"/>
	<circle cx="525.004" cy="170.884" r="4" fill="#0" id="circle197"/>
	<circle cx="527.911" cy="211.587" r="4" fill="#0" id="circle198"/>
	<circle cx="530.818" cy="172.047" r="4" fill="#0" id="circle199"/>
	<circle cx="533.726" cy="212.75" r="4" fill="#0" id="circle200"/>
	<circle cx="536.633" cy="173.21" r="4" fill="#0" id="circle201"/>
	<circle cx="539.54" cy="213.913" r="4" fill="#0" id="circle202"/>
	<circle cx="542.448" cy="174.954" r="4" fill="#0" id="circle203"/>
	<circle cx="545.355" cy="215.076" r="4" fill="#0" id="circle204"/>
	<circle cx="548.263" cy="176.699" r="4" fill="#0" id="circle205"/>
	<circle cx="551.17" cy="216.239" r="4" fill="#0" id="circle206"/>
	<circle cx="554.077" cy="178.443" r="4" fill="#0" id="circle207"/>
	<circle cx="556.985" cy="218.565" r="4" fill="#0" id="circle208"/>
	<circle cx="559.892" cy="179.606" r="4" fill="#0" id="circle209"/>
	<circle cx="562.8" cy="219.728" r="4" fill="#0" id="circle210"/>
	<circle cx="565.707" cy="181.351" r="4" fill="#0" id="circle211"/>
	<circle cx="568.614" cy="220.891" r="4" fill="#0" id="circle212"/>
	<circle cx="571.522" cy="182.513" r="4" fill="#0" id="circle213"/>
	<circle cx="574.429" cy="222.635" r="4" fill="#0" id="circle214"/>
	<circle cx="577.336" cy="184.258" r="4" fill="#0" id="circle215"/>
	<circle cx="580.244" cy="224.38" r="4" fill="#0" id="circle216"/>
	<circle cx="583.151" cy="185.421" r="4" fill="#0" id="circle217"/>
	<circle cx="586.059" cy="225.543" r="4" fill="#0" id="circle218"/>
	<circle cx="588.966" cy="187.747" r="4" fill="#0" id="circle219"/>
	<circle cx="591.873" cy="227.287" r="4" fill="#0" id="circle220"/>
	<circle cx="594.781" cy="188.91" r="4" fill="#0" id="circle221"/>
	<circle cx="597.688" cy="229.032" r="4" fill="#0" id="circle222"/>
	<circle cx="600.596" cy="190.654" r="4" fill="#0" id="circle223"/>
	<circle cx="603.503" cy="229.613" r="4" fill="#0" id="circle224"/>
	<circle cx="606.41" cy="192.399" r="4" fill="#0" id="circle225"/>
	<circle cx="609.318" cy="231.358" r="4" fill="#0" id="circle226"/>
	<circle cx="612.225" cy="193.562" r="4" fill="#0" id="circle227"/>
	<circle cx="615.132" cy="233.102" r="4" fill="#0" id="circle228"/>
	<circle cx="618.04" cy="194.725" r="4" fill="#0" id="circle229"/>
	<circle cx="620.947" cy="234.265" r="4" fill="#0" id="circle230"/>
	<circle cx="623.855" cy="196.469" r="4" fill="#0" id="circle231"/>
	<circle cx="626.762" cy="235.428" r="4" fill="#0" id="circle232"/>
	<circle cx="629.669" cy="198.213" r="4" fill="#0" id="circle233"/>
	<circle cx="632.577" cy="237.754" r="4" fill="#0" id="circle234"/>
	<circle cx="635.484" cy="199.376" r="4" fill="#0" id="circle235"/>
	<circle cx="638.392" cy="238.917" r="4" fill="#0" id="circle236"/>
	<circle cx="641.299" cy="201.121" r="4" fill="#0" id="circle237"/>
	<circle cx="644.206" cy="240.08" r="4" fill="#0" id="circle238"/>
	<circle cx="647.114" cy="202.284" r="4" fill="#0" id="circle239"/>
	<circle cx="650.021" cy="241.243" r="4" fill="#0" id="circle240"/>
	<circle cx="652.928" cy="204.028" r="4" fill="#0" id="circle241"/>
	<circle cx="655.836" cy="241.824" r="4" fill="#0" id="circle242"/>
	<circle cx="658.743" cy="205.191" r="4" fill="#0" id="circle243"/>
	<circle cx="661.651" cy="244.15" r="4" fill="#0" id="circle244"/>
	<circle cx="664.558" cy="206.354" r="4" fill="#0" id="circle245"/>
	<circle cx="667.465" cy="245.894" r="4" fill="#0" id="circle246"/>
	<circle cx="670.373" cy="208.098" r="4" fill="#0" id="circle247"/>
	<circle cx="673.28" cy="247.057" r="4" fill="#0" id="circle248"/>
	<circle cx="676.188" cy="209.261" r="4" fill="#0" id="circle249"/>
	<circle cx="679.095" cy="248.802" r="4" fill="#0" id="circle250"/>
	<circle cx="682.002" cy="211.006" r="4" fill="#0" id="circle251"/>
	<circle cx="684.91" cy="249.965" r="4" fill="#0" id="circle252"/>
	<circle cx="687.817" cy="212.75" r="4" fill="#0" id="circle253"/>
	<circle cx="690.725" cy="251.709" r="4" fill="#0" id="circle254"/>
	<circle cx="693.632" cy="213.332" r="4" fill="#0" id="circle255"/>
	<circle cx="696.539" cy="252.872" r="4" fill="#0" id="circle256"/>
	<circle cx="699.447" cy="215.076" r="4" fill="#0" id="circle257"/>
	<circle cx="702.354" cy="254.035" r="4" fill="#0" id="circle258"/>
	<circle cx="705.261" cy="216.821" r="4" fill="#0" id="circle259"/>
	<circle cx="708.169" cy="255.78" r="4" fill="#0" id="circle260"/>
	<circle cx="711.076" cy="217.984" r="4" fill="#0" id="circle261"/>
	<circle cx="713.984" cy="256.943" r="4" fill="#0" id="circle262"/>
	<circle cx="716.891" cy="219.147" r="4" fill="#0" id="circle263"/>
	<circle cx="719.798" cy="258.106" r="4" fill="#0" id="circle264"/>
	<circle cx="722.706" cy="220.891" r="4" fill="#0" id="circle265"/>
	<circle cx="725.613" cy="259.85" r="4" fill="#0" id="circle266"/>
	<circle cx="728.521" cy="222.635" r="4" fill="#0" id="circle267"/>
	<circle cx="731.428" cy="262.176" r="4" fill="#0" id="circle268"/>
	<circle cx="734.335" cy="223.798" r="4" fill="#0" id="circle269"/>
	<circle cx="737.243" cy="263.339" r="4" fill="#0" id="circle270"/>
	<circle cx="740.15" cy="224.961" r="4" fill="#0" id="circle271"/>
	<circle cx="743.057" cy="264.502" r="4" fill="#0" id="circle272"/>
	<circle cx="745.965" cy="226.124" r="4" fill="#0" id="circle273"/>
	<circle cx="748.872" cy="265.665" r="4" fill="#0" id="circle274"/>
	<circle cx="751.78" cy="227.869" r="4" fill="#0" id="circle275"/>
	<circle cx="754.687" cy="267.409" r="4" fill="#0" id="circle276"/>
	<circle cx="757.594" cy="229.613" r="4" fill="#0" id="circle277"/>
	<circle cx="760.502" cy="269.154" r="4" fill="#0" id="circle278"/>
	<circle cx="763.409" cy="230.776" r="4" fill="#0" id="circle279"/>
	<circle cx="766.317" cy="270.317" r="4" fill="#0" id="circle280"/>
	<circle cx="769.224" cy="232.521" r="4" fill="#0" id="circle281"/>
	<circle cx="772.131" cy="272.061" r="4" fill="#0" id="circle282"/>
	<circle cx="775.039" cy="233.683" r="4" fill="#0" id="circle283"/>
	<circle cx="777.946" cy="273.805" r="4" fill="#0" id="circle284"/>
	<circle cx="780.853" cy="234.846" r="4" fill="#0" id="circle285"/>
	<circle cx="783.761" cy="274.968" r="4" fill="#0" id="circle286"/>
	<circle cx="786.668" cy="236.009" r="4" fill="#0" id="circle287"/>
	<circle cx="789.576" cy="276.131" r="4" fill="#0" id="circle288"/>
	<circle cx="792.483" cy="237.754" r="4" fill="#0" id="circle289"/>
	<circle cx="795.39" cy="277.294" r="4" fill="#0" id="circle290"/>
	<circle cx="798.298" cy="238.917" r="4" fill="#0" id="circle291"/>
	<circle cx="801.205" cy="278.457" r="4" fill="#0" id="circle292"/>
	<circle cx="804.113" cy="240.661" r="4" fill="#0" id="circle293"/>
	<circle cx="807.02" cy="279.62" r="4" fill="#0" id="circle294"/>
	<circle cx="809.927" cy="242.406" r="4" fill="#0" id="circle295"/>
	<circle cx="812.835" cy="281.365" r="4" fill="#0" id="circle296"/>
	<circle cx="815.742" cy="243.569" r="4" fill="#0" id="circle297"/>
	<circle cx="818.649" cy="283.109" r="4" fill="#0" id="circle298"/>
	<circle cx="821.557" cy="244.732" r="4" fill="#0" id="circle299"/>
	<circle cx="824.464" cy="283.691" r="4" fill="#0" id="circle300"/>
	<circle cx="827.372" cy="245.894" r="4" fill="#0" id="circle301"/>
	<circle cx="830.279" cy="286.016" r="4" fill="#0" id="circle302"/>
	<circle cx="833.186" cy="247.639" r="4" fill="#0" id="circle303"/>
	<circle cx="836.094" cy="287.179" r="4" fill="#0" id="circle304"/>
	<circle cx="839.001" cy="249.383" r="4" fill="#0" id="circle305"/>
	<circle cx="841.909" cy="288.924" r="4" fill="#0" id="circle306"/>
	<circle cx="844.816" cy="251.128" r="4" fill="#0" id="circle307"/>
	<circle cx="847.723" cy="290.668" r="4" fill="#0" id="circle308"/>
	<circle cx="850.631" cy="251.709" r="4" fill="#0" id="circle309"/>
	<circle cx="853.538" cy="291.831" r="4" fill="#0" id="circle310"/>
	<circle cx="856.445" cy="253.454" r="4" fill="#0" id="circle311"/>
	<circle cx="859.353" cy="292.413" r="4" fill="#0" id="circle312"/>
	<circle cx="862.26" cy="255.198" r="4" fill="#0" id="circle313"/>
	<circle cx="865.168" cy="293.576" r="4" fill="#0" id="circle314"/>
	<circle cx="868.075" cy="256.361" r="4" fill="#0" id="circle315"/>
	<circle cx="870.982" cy="295.32" r="4" fill="#0" id="circle316"/>
	<circle cx="873.89" cy="258.106" r="4" fill="#0" id="circle317"/>
	<circle cx="876.797" cy="297.064" r="4" fill="#0" id="circle318"/>
	<circle cx="879.705" cy="258.687" r="4" fill="#0" id="circle319"/>
	<circle cx="882.612" cy="298.227" r="4" fill="#0" id="circle320"/>
	<circle cx="885.519" cy="261.013" r="4" fill="#0" id="circle321"/>
	<circle cx="888.427" cy="300.553" r="4" fill="#0" id="circle322"/>
	<circle cx="891.334" cy="262.176" r="4" fill="#0" id="circle323"/>
	<circle cx="894.242" cy="301.135" r="4" fill="#0" id="circle324"/>
	<circle cx="897.149" cy="263.339" r="4" fill="#0" id="circle325"/>
	<circle cx="900.056" cy="302.298" r="4" fill="#0" id="circle326"/>
	<circle cx="902.964" cy="265.083" r="4" fill="#0" id="circle327"/>
	<circle cx="905.871" cy="303.461" r="4" fill="#0" id="circle328"/>
	<circle cx="908.778" cy="266.246" r="4" fill="#0" id="circle329"/>
	<circle cx="911.686" cy="305.205" r="4" fill="#0" id="circle330"/>
	<circle cx="914.593" cy="267.991" r="4" fill="#0" id="circle331"/>
	<circle cx="917.501" cy="306.95" r="4" fill="#0" id="circle332"/>
	<circle cx="920.408" cy="269.154" r="4" fill="#0" id="circle333"/>
	<circle cx="923.315" cy="308.694" r="4" fill="#0" id="circle334"/>
	<circle cx="926.223" cy="270.898" r="4" fill="#0" id="circle335"/>
	<circle cx="929.13" cy="309.857" r="4" fill="#0" id="circle336"/>
	<circle cx="932.038" cy="272.642" r="4" fill="#0" id="circle337"/>
	<circle cx="934.945" cy="310.438" r="4" fill="#0" id="circle338"/>
	<circle cx="937.852" cy="273.805" r="4" fill="#0" id="circle339"/>
	<circle cx="940.76" cy="312.183" r="4" fill="#0" id="circle340"/>
	<circle cx="943.667" cy="274.968" r="4" fill="#0" id="circle341"/>
	<circle cx="946.574" cy="313.927" r="4" fill="#0" id="circle342"/>
	<circle cx="949.482" cy="276.131" r="4" fill="#0" id="circle343"/>
	<circle cx="952.389" cy="315.09" r="4" fill="#0" id="circle344"/>
	<circle cx="955.297" cy="277.876" r="4" fill="#0" id="circle345"/>
	<circle cx="958.204" cy="316.253" r="4" fill="#0" id="circle346"/>
	<circle cx="961.111" cy="279.039" r="4" fill="#0" id="circle347"/>
	<circle cx="964.019" cy="316.835" r="4" fill="#0" id="circle348"/>
	<circle cx="966.926" cy="280.783" r="4" fill="#0" id="circle349"/>
	<circle cx="969.834" cy="319.161" r="4" fill="#0" id="circle350"/>
	<circle cx="972.741" cy="281.946" r="4" fill="#0" id="circle351"/>
	<circle cx="975.648" cy="320.324" r="4" fill="#0" id="circle352"/>
	<circle cx="978.556" cy="283.691" r="4" fill="#0" id="circle353"/>
	<circle cx="981.463" cy="319.742" r="4" fill="#0" id="circle354"/>
	<circle cx="984.37" cy="285.435" r="4" fill="#0" id="circle355"/>
	<circle cx="986.696" cy="316.253" r="4" fill="#0" id="circle356"/>
	<circle cx="989.022" cy="288.924" r="4" fill="#0" id="circle357"/>
	<circle cx="991.348" cy="312.183" r="4" fill="#0" id="circle358"/>
	<circle cx="992.511" cy="293.576" r="4" fill="#0" id="circle359"/>
	<circle cx="994.837" cy="299.39" r="4" fill="#0" id="circle360"/>
	<circle cx="996" cy="307.531" r="4" fill="#0" id="circle361"/>
	</g>
</svg>