<?xml version="1.0" encoding="UTF-8" standalone="no"?>
<!-- Created with CurveBenchmark -->
<svg
	xmlns:dc="http://purl.org/dc/elements/1.1/"
	xmlns:cc="http://creativecommons.org/ns#"
	xmlns:rdf="http://www.w3.org/1999/02/22-rdf-syntax-ns#"
	xmlns:svg="http://www.w3.org/2000/svg"
	xmlns="http://www.w3.org/2000/svg"
	xmlns:sodipodi="http://sodipodi.sourceforge.net/DTD/sodipodi-0.dtd"
	xmlns:inkscape="http://www.inkscape.org/namespaces/inkscape"
	width="1000"
	height="1000"
	id="svg2"
	version="1.1"
	sodipodi:docname="manifold/hnncrust-flightbird13.png.txt">
<defs
	id="defs4" />
<metadata
	id="metadata7">
	<rdf:RDF>
		<cc:Work
			rdf:about="">
			<dc:format>image/svg+xml</dc:format>
			<dc:type
				rdf:resource="http://purl.org/dc/dcmitype/StillImage" />
			<dc:title></dc:title>
		</cc:Work>
	</rdf:RDF>
</metadata>
<g
	inkscape:label="Layer 1"
	inkscape:groupmode="layer"
	id="layer1">
	<path style="fill:none;stroke:red;stroke-width:1px;stroke-linecap:butt;stroke-linejoin:miter;stroke-opacity:1" d="M 4,836.571 4,856.254 z" id="boundary" inkscape:connector-curvature="0" />
	<path style="fill:none;stroke:red;stroke-width:1px;stroke-linecap:butt;stroke-linejoin:miter;stroke-opacity:1" d="M 4,836.571 19.746,820.825 z" id="boundary" inkscape:connector-curvature="0" />
	<path style="fill:none;stroke:red;stroke-width:1px;stroke-linecap:butt;stroke-linejoin:miter;stroke-opacity:1" d="M 4,856.254 13.8413,875.937 z" id="boundary" inkscape:connector-curvature="0" />
	<path style="fill:none;stroke:red;stroke-width:1px;stroke-linecap:butt;stroke-linejoin:miter;stroke-opacity:1" d="M 13.8413,875.937 33.5238,881.841 z" id="boundary" inkscape:connector-curvature="0" />
	<path style="fill:none;stroke:red;stroke-width:1px;stroke-linecap:butt;stroke-linejoin:miter;stroke-opacity:1" d="M 19.746,820.825 33.5238,797.206 z" id="boundary" inkscape:connector-curvature="0" />
	<path style="fill:none;stroke:red;stroke-width:1px;stroke-linecap:butt;stroke-linejoin:miter;stroke-opacity:1" d="M 33.5238,797.206 49.2698,781.46 z" id="boundary" inkscape:connector-curvature="0" />
	<path style="fill:none;stroke:red;stroke-width:1px;stroke-linecap:butt;stroke-linejoin:miter;stroke-opacity:1" d="M 33.5238,881.841 51.2381,872 z" id="boundary" inkscape:connector-curvature="0" />
	<path style="fill:none;stroke:red;stroke-width:1px;stroke-linecap:butt;stroke-linejoin:miter;stroke-opacity:1" d="M 33.5238,915.302 33.5238,934.984 z" id="boundary" inkscape:connector-curvature="0" />
	<path style="fill:none;stroke:red;stroke-width:1px;stroke-linecap:butt;stroke-linejoin:miter;stroke-opacity:1" d="M 49.2698,781.46 63.0476,757.841 z" id="boundary" inkscape:connector-curvature="0" />
	<path style="fill:none;stroke:red;stroke-width:1px;stroke-linecap:butt;stroke-linejoin:miter;stroke-opacity:1" d="M 53.2063,925.143 63.0476,942.857 z" id="boundary" inkscape:connector-curvature="0" />
	<path style="fill:none;stroke:red;stroke-width:1px;stroke-linecap:butt;stroke-linejoin:miter;stroke-opacity:1" d="M 53.2063,964.508 72.8889,964.508 z" id="boundary" inkscape:connector-curvature="0" />
	<path style="fill:none;stroke:red;stroke-width:1px;stroke-linecap:butt;stroke-linejoin:miter;stroke-opacity:1" d="M 63.0476,757.841 78.7937,742.095 z" id="boundary" inkscape:connector-curvature="0" />
	<path style="fill:none;stroke:red;stroke-width:1px;stroke-linecap:butt;stroke-linejoin:miter;stroke-opacity:1" d="M 63.0476,942.857 82.7302,944.825 z" id="boundary" inkscape:connector-curvature="0" />
	<path style="fill:none;stroke:red;stroke-width:1px;stroke-linecap:butt;stroke-linejoin:miter;stroke-opacity:1" d="M 72.8889,964.508 92.5714,962.54 z" id="boundary" inkscape:connector-curvature="0" />
	<path style="fill:none;stroke:red;stroke-width:1px;stroke-linecap:butt;stroke-linejoin:miter;stroke-opacity:1" d="M 78.7937,742.095 94.5397,726.349 z" id="boundary" inkscape:connector-curvature="0" />
	<path style="fill:none;stroke:red;stroke-width:1px;stroke-linecap:butt;stroke-linejoin:miter;stroke-opacity:1" d="M 92.5714,962.54 112.254,964.508 z" id="boundary" inkscape:connector-curvature="0" />
	<path style="fill:none;stroke:red;stroke-width:1px;stroke-linecap:butt;stroke-linejoin:miter;stroke-opacity:1" d="M 94.5397,726.349 104.381,706.667 z" id="boundary" inkscape:connector-curvature="0" />
	<path style="fill:none;stroke:red;stroke-width:1px;stroke-linecap:butt;stroke-linejoin:miter;stroke-opacity:1" d="M 104.381,706.667 120.127,692.889 z" id="boundary" inkscape:connector-curvature="0" />
	<path style="fill:none;stroke:red;stroke-width:1px;stroke-linecap:butt;stroke-linejoin:miter;stroke-opacity:1" d="M 112.254,964.508 122.095,944.825 z" id="boundary" inkscape:connector-curvature="0" />
	<path style="fill:none;stroke:red;stroke-width:1px;stroke-linecap:butt;stroke-linejoin:miter;stroke-opacity:1" d="M 120.127,692.889 133.905,677.143 z" id="boundary" inkscape:connector-curvature="0" />
	<path style="fill:none;stroke:red;stroke-width:1px;stroke-linecap:butt;stroke-linejoin:miter;stroke-opacity:1" d="M 122.095,944.825 141.778,940.889 z" id="boundary" inkscape:connector-curvature="0" />
	<path style="fill:none;stroke:red;stroke-width:1px;stroke-linecap:butt;stroke-linejoin:miter;stroke-opacity:1" d="M 133.905,677.143 149.651,663.365 z" id="boundary" inkscape:connector-curvature="0" />
	<path style="fill:none;stroke:red;stroke-width:1px;stroke-linecap:butt;stroke-linejoin:miter;stroke-opacity:1" d="M 141.778,940.889 147.683,960.571 z" id="boundary" inkscape:connector-curvature="0" />
	<path style="fill:none;stroke:red;stroke-width:1px;stroke-linecap:butt;stroke-linejoin:miter;stroke-opacity:1" d="M 149.651,663.365 157.524,643.683 z" id="boundary" inkscape:connector-curvature="0" />
	<path style="fill:none;stroke:red;stroke-width:1px;stroke-linecap:butt;stroke-linejoin:miter;stroke-opacity:1" d="M 157.524,643.683 173.27,627.937 z" id="boundary" inkscape:connector-curvature="0" />
	<path style="fill:none;stroke:red;stroke-width:1px;stroke-linecap:butt;stroke-linejoin:miter;stroke-opacity:1" d="M 161.46,934.984 181.143,934.984 z" id="boundary" inkscape:connector-curvature="0" />
	<path style="fill:none;stroke:red;stroke-width:1px;stroke-linecap:butt;stroke-linejoin:miter;stroke-opacity:1" d="M 173.27,627.937 189.016,614.159 z" id="boundary" inkscape:connector-curvature="0" />
	<path style="fill:none;stroke:red;stroke-width:1px;stroke-linecap:butt;stroke-linejoin:miter;stroke-opacity:1" d="M 181.143,934.984 200.825,925.143 z" id="boundary" inkscape:connector-curvature="0" />
	<path style="fill:none;stroke:red;stroke-width:1px;stroke-linecap:butt;stroke-linejoin:miter;stroke-opacity:1" d="M 189.016,614.159 202.794,598.413 z" id="boundary" inkscape:connector-curvature="0" />
	<path style="fill:none;stroke:red;stroke-width:1px;stroke-linecap:butt;stroke-linejoin:miter;stroke-opacity:1" d="M 200.825,925.143 216.571,909.397 z" id="boundary" inkscape:connector-curvature="0" />
	<path style="fill:none;stroke:red;stroke-width:1px;stroke-linecap:butt;stroke-linejoin:miter;stroke-opacity:1" d="M 202.794,598.413 222.476,588.571 z" id="boundary" inkscape:connector-curvature="0" />
	<path style="fill:none;stroke:red;stroke-width:1px;stroke-linecap:butt;stroke-linejoin:miter;stroke-opacity:1" d="M 216.571,909.397 232.317,891.683 z" id="boundary" inkscape:connector-curvature="0" />
	<path style="fill:none;stroke:red;stroke-width:1px;stroke-linecap:butt;stroke-linejoin:miter;stroke-opacity:1" d="M 222.476,588.571 238.222,574.794 z" id="boundary" inkscape:connector-curvature="0" />
	<path style="fill:none;stroke:red;stroke-width:1px;stroke-linecap:butt;stroke-linejoin:miter;stroke-opacity:1" d="M 232.317,891.683 248.063,877.905 z" id="boundary" inkscape:connector-curvature="0" />
	<path style="fill:none;stroke:red;stroke-width:1px;stroke-linecap:butt;stroke-linejoin:miter;stroke-opacity:1" d="M 238.222,574.794 252,559.048 z" id="boundary" inkscape:connector-curvature="0" />
	<path style="fill:none;stroke:red;stroke-width:1px;stroke-linecap:butt;stroke-linejoin:miter;stroke-opacity:1" d="M 248.063,877.905 267.746,868.063 z" id="boundary" inkscape:connector-curvature="0" />
	<path style="fill:none;stroke:red;stroke-width:1px;stroke-linecap:butt;stroke-linejoin:miter;stroke-opacity:1" d="M 252,559.048 271.683,549.206 z" id="boundary" inkscape:connector-curvature="0" />
	<path style="fill:none;stroke:red;stroke-width:1px;stroke-linecap:butt;stroke-linejoin:miter;stroke-opacity:1" d="M 267.746,868.063 281.524,852.317 z" id="boundary" inkscape:connector-curvature="0" />
	<path style="fill:none;stroke:red;stroke-width:1px;stroke-linecap:butt;stroke-linejoin:miter;stroke-opacity:1" d="M 271.683,549.206 287.429,535.429 z" id="boundary" inkscape:connector-curvature="0" />
	<path style="fill:none;stroke:red;stroke-width:1px;stroke-linecap:butt;stroke-linejoin:miter;stroke-opacity:1" d="M 281.524,852.317 299.238,842.476 z" id="boundary" inkscape:connector-curvature="0" />
	<path style="fill:none;stroke:red;stroke-width:1px;stroke-linecap:butt;stroke-linejoin:miter;stroke-opacity:1" d="M 287.429,535.429 305.143,525.587 z" id="boundary" inkscape:connector-curvature="0" />
	<path style="fill:none;stroke:red;stroke-width:1px;stroke-linecap:butt;stroke-linejoin:miter;stroke-opacity:1" d="M 299.238,842.476 316.952,832.635 z" id="boundary" inkscape:connector-curvature="0" />
	<path style="fill:none;stroke:red;stroke-width:1px;stroke-linecap:butt;stroke-linejoin:miter;stroke-opacity:1" d="M 305.143,525.587 320.889,509.841 z" id="boundary" inkscape:connector-curvature="0" />
	<path style="fill:none;stroke:red;stroke-width:1px;stroke-linecap:butt;stroke-linejoin:miter;stroke-opacity:1" d="M 316.952,832.635 334.667,822.794 z" id="boundary" inkscape:connector-curvature="0" />
	<path style="fill:none;stroke:red;stroke-width:1px;stroke-linecap:butt;stroke-linejoin:miter;stroke-opacity:1" d="M 320.889,509.841 336.635,496.063 z" id="boundary" inkscape:connector-curvature="0" />
	<path style="fill:none;stroke:red;stroke-width:1px;stroke-linecap:butt;stroke-linejoin:miter;stroke-opacity:1" d="M 334.667,822.794 352.381,812.952 z" id="boundary" inkscape:connector-curvature="0" />
	<path style="fill:none;stroke:red;stroke-width:1px;stroke-linecap:butt;stroke-linejoin:miter;stroke-opacity:1" d="M 336.635,496.063 350.413,480.317 z" id="boundary" inkscape:connector-curvature="0" />
	<path style="fill:none;stroke:red;stroke-width:1px;stroke-linecap:butt;stroke-linejoin:miter;stroke-opacity:1" d="M 350.413,480.317 366.159,466.54 z" id="boundary" inkscape:connector-curvature="0" />
	<path style="fill:none;stroke:red;stroke-width:1px;stroke-linecap:butt;stroke-linejoin:miter;stroke-opacity:1" d="M 352.381,812.952 370.095,803.111 z" id="boundary" inkscape:connector-curvature="0" />
	<path style="fill:none;stroke:red;stroke-width:1px;stroke-linecap:butt;stroke-linejoin:miter;stroke-opacity:1" d="M 358.286,354.349 368.127,372.063 z" id="boundary" inkscape:connector-curvature="0" />
	<path style="fill:none;stroke:red;stroke-width:1px;stroke-linecap:butt;stroke-linejoin:miter;stroke-opacity:1" d="M 358.286,354.349 377.968,348.444 z" id="boundary" inkscape:connector-curvature="0" />
	<path style="fill:none;stroke:red;stroke-width:1px;stroke-linecap:butt;stroke-linejoin:miter;stroke-opacity:1" d="M 366.159,466.54 379.937,450.794 z" id="boundary" inkscape:connector-curvature="0" />
	<path style="fill:none;stroke:red;stroke-width:1px;stroke-linecap:butt;stroke-linejoin:miter;stroke-opacity:1" d="M 368.127,372.063 368.127,391.746 z" id="boundary" inkscape:connector-curvature="0" />
	<path style="fill:none;stroke:red;stroke-width:1px;stroke-linecap:butt;stroke-linejoin:miter;stroke-opacity:1" d="M 368.127,391.746 377.968,409.46 z" id="boundary" inkscape:connector-curvature="0" />
	<path style="fill:none;stroke:red;stroke-width:1px;stroke-linecap:butt;stroke-linejoin:miter;stroke-opacity:1" d="M 370.095,803.111 389.778,793.27 z" id="boundary" inkscape:connector-curvature="0" />
	<path style="fill:none;stroke:red;stroke-width:1px;stroke-linecap:butt;stroke-linejoin:miter;stroke-opacity:1" d="M 377.968,348.444 395.683,358.286 z" id="boundary" inkscape:connector-curvature="0" />
	<path style="fill:none;stroke:red;stroke-width:1px;stroke-linecap:butt;stroke-linejoin:miter;stroke-opacity:1" d="M 377.968,409.46 383.873,429.143 z" id="boundary" inkscape:connector-curvature="0" />
	<path style="fill:none;stroke:red;stroke-width:1px;stroke-linecap:butt;stroke-linejoin:miter;stroke-opacity:1" d="M 379.937,450.794 383.873,429.143 z" id="boundary" inkscape:connector-curvature="0" />
	<path style="fill:none;stroke:red;stroke-width:1px;stroke-linecap:butt;stroke-linejoin:miter;stroke-opacity:1" d="M 389.778,793.27 407.492,783.429 z" id="boundary" inkscape:connector-curvature="0" />
	<path style="fill:none;stroke:red;stroke-width:1px;stroke-linecap:butt;stroke-linejoin:miter;stroke-opacity:1" d="M 395.683,358.286 415.365,360.254 z" id="boundary" inkscape:connector-curvature="0" />
	<path style="fill:none;stroke:red;stroke-width:1px;stroke-linecap:butt;stroke-linejoin:miter;stroke-opacity:1" d="M 407.492,783.429 423.238,771.619 z" id="boundary" inkscape:connector-curvature="0" />
	<path style="fill:none;stroke:red;stroke-width:1px;stroke-linecap:butt;stroke-linejoin:miter;stroke-opacity:1" d="M 415.365,360.254 433.079,370.095 z" id="boundary" inkscape:connector-curvature="0" />
	<path style="fill:none;stroke:red;stroke-width:1px;stroke-linecap:butt;stroke-linejoin:miter;stroke-opacity:1" d="M 423.238,771.619 438.984,753.905 z" id="boundary" inkscape:connector-curvature="0" />
	<path style="fill:none;stroke:red;stroke-width:1px;stroke-linecap:butt;stroke-linejoin:miter;stroke-opacity:1" d="M 433.079,370.095 452.762,377.968 z" id="boundary" inkscape:connector-curvature="0" />
	<path style="fill:none;stroke:red;stroke-width:1px;stroke-linecap:butt;stroke-linejoin:miter;stroke-opacity:1" d="M 438.984,753.905 458.667,744.063 z" id="boundary" inkscape:connector-curvature="0" />
	<path style="fill:none;stroke:red;stroke-width:1px;stroke-linecap:butt;stroke-linejoin:miter;stroke-opacity:1" d="M 452.762,377.968 470.476,368.127 z" id="boundary" inkscape:connector-curvature="0" />
	<path style="fill:none;stroke:red;stroke-width:1px;stroke-linecap:butt;stroke-linejoin:miter;stroke-opacity:1" d="M 458.667,744.063 474.413,730.286 z" id="boundary" inkscape:connector-curvature="0" />
	<path style="fill:none;stroke:red;stroke-width:1px;stroke-linecap:butt;stroke-linejoin:miter;stroke-opacity:1" d="M 470.476,368.127 486.222,354.349 z" id="boundary" inkscape:connector-curvature="0" />
	<path style="fill:none;stroke:red;stroke-width:1px;stroke-linecap:butt;stroke-linejoin:miter;stroke-opacity:1" d="M 474.413,730.286 484.254,710.603 z" id="boundary" inkscape:connector-curvature="0" />
	<path style="fill:none;stroke:red;stroke-width:1px;stroke-linecap:butt;stroke-linejoin:miter;stroke-opacity:1" d="M 484.254,710.603 498.032,694.857 z" id="boundary" inkscape:connector-curvature="0" />
	<path style="fill:none;stroke:red;stroke-width:1px;stroke-linecap:butt;stroke-linejoin:miter;stroke-opacity:1" d="M 486.222,354.349 501.968,338.603 z" id="boundary" inkscape:connector-curvature="0" />
	<path style="fill:none;stroke:red;stroke-width:1px;stroke-linecap:butt;stroke-linejoin:miter;stroke-opacity:1" d="M 498.032,694.857 507.873,675.175 z" id="boundary" inkscape:connector-curvature="0" />
	<path style="fill:none;stroke:red;stroke-width:1px;stroke-linecap:butt;stroke-linejoin:miter;stroke-opacity:1" d="M 501.968,338.603 517.714,322.857 z" id="boundary" inkscape:connector-curvature="0" />
	<path style="fill:none;stroke:red;stroke-width:1px;stroke-linecap:butt;stroke-linejoin:miter;stroke-opacity:1" d="M 507.873,675.175 523.619,661.397 z" id="boundary" inkscape:connector-curvature="0" />
	<path style="fill:none;stroke:red;stroke-width:1px;stroke-linecap:butt;stroke-linejoin:miter;stroke-opacity:1" d="M 517.714,322.857 527.556,303.175 z" id="boundary" inkscape:connector-curvature="0" />
	<path style="fill:none;stroke:red;stroke-width:1px;stroke-linecap:butt;stroke-linejoin:miter;stroke-opacity:1" d="M 523.619,661.397 533.46,641.714 z" id="boundary" inkscape:connector-curvature="0" />
	<path style="fill:none;stroke:red;stroke-width:1px;stroke-linecap:butt;stroke-linejoin:miter;stroke-opacity:1" d="M 527.556,303.175 543.302,289.397 z" id="boundary" inkscape:connector-curvature="0" />
	<path style="fill:none;stroke:red;stroke-width:1px;stroke-linecap:butt;stroke-linejoin:miter;stroke-opacity:1" d="M 533.46,641.714 553.143,645.651 z" id="boundary" inkscape:connector-curvature="0" />
	<path style="fill:none;stroke:red;stroke-width:1px;stroke-linecap:butt;stroke-linejoin:miter;stroke-opacity:1" d="M 543.302,289.397 557.079,273.651 z" id="boundary" inkscape:connector-curvature="0" />
	<path style="fill:none;stroke:red;stroke-width:1px;stroke-linecap:butt;stroke-linejoin:miter;stroke-opacity:1" d="M 553.143,645.651 564.952,661.397 z" id="boundary" inkscape:connector-curvature="0" />
	<path style="fill:none;stroke:red;stroke-width:1px;stroke-linecap:butt;stroke-linejoin:miter;stroke-opacity:1" d="M 557.079,273.651 566.921,253.968 z" id="boundary" inkscape:connector-curvature="0" />
	<path style="fill:none;stroke:red;stroke-width:1px;stroke-linecap:butt;stroke-linejoin:miter;stroke-opacity:1" d="M 564.952,661.397 574.794,679.111 z" id="boundary" inkscape:connector-curvature="0" />
	<path style="fill:none;stroke:red;stroke-width:1px;stroke-linecap:butt;stroke-linejoin:miter;stroke-opacity:1" d="M 566.921,253.968 582.667,240.19 z" id="boundary" inkscape:connector-curvature="0" />
	<path style="fill:none;stroke:red;stroke-width:1px;stroke-linecap:butt;stroke-linejoin:miter;stroke-opacity:1" d="M 574.794,679.111 584.635,696.825 z" id="boundary" inkscape:connector-curvature="0" />
	<path style="fill:none;stroke:red;stroke-width:1px;stroke-linecap:butt;stroke-linejoin:miter;stroke-opacity:1" d="M 582.667,240.19 596.444,224.444 z" id="boundary" inkscape:connector-curvature="0" />
	<path style="fill:none;stroke:red;stroke-width:1px;stroke-linecap:butt;stroke-linejoin:miter;stroke-opacity:1" d="M 584.635,696.825 594.476,714.54 z" id="boundary" inkscape:connector-curvature="0" />
	<path style="fill:none;stroke:red;stroke-width:1px;stroke-linecap:butt;stroke-linejoin:miter;stroke-opacity:1" d="M 594.476,714.54 604.317,732.254 z" id="boundary" inkscape:connector-curvature="0" />
	<path style="fill:none;stroke:red;stroke-width:1px;stroke-linecap:butt;stroke-linejoin:miter;stroke-opacity:1" d="M 596.444,224.444 612.19,210.667 z" id="boundary" inkscape:connector-curvature="0" />
	<path style="fill:none;stroke:red;stroke-width:1px;stroke-linecap:butt;stroke-linejoin:miter;stroke-opacity:1" d="M 604.317,732.254 616.127,748 z" id="boundary" inkscape:connector-curvature="0" />
	<path style="fill:none;stroke:red;stroke-width:1px;stroke-linecap:butt;stroke-linejoin:miter;stroke-opacity:1" d="M 612.19,210.667 620.063,190.984 z" id="boundary" inkscape:connector-curvature="0" />
	<path style="fill:none;stroke:red;stroke-width:1px;stroke-linecap:butt;stroke-linejoin:miter;stroke-opacity:1" d="M 616.127,748 629.905,763.746 z" id="boundary" inkscape:connector-curvature="0" />
	<path style="fill:none;stroke:red;stroke-width:1px;stroke-linecap:butt;stroke-linejoin:miter;stroke-opacity:1" d="M 620.063,190.984 635.81,175.238 z" id="boundary" inkscape:connector-curvature="0" />
	<path style="fill:none;stroke:red;stroke-width:1px;stroke-linecap:butt;stroke-linejoin:miter;stroke-opacity:1" d="M 629.905,763.746 643.683,748 z" id="boundary" inkscape:connector-curvature="0" />
	<path style="fill:none;stroke:red;stroke-width:1px;stroke-linecap:butt;stroke-linejoin:miter;stroke-opacity:1" d="M 635.81,175.238 651.556,161.46 z" id="boundary" inkscape:connector-curvature="0" />
	<path style="fill:none;stroke:red;stroke-width:1px;stroke-linecap:butt;stroke-linejoin:miter;stroke-opacity:1" d="M 635.81,537.397 645.651,555.111 z" id="boundary" inkscape:connector-curvature="0" />
	<path style="fill:none;stroke:red;stroke-width:1px;stroke-linecap:butt;stroke-linejoin:miter;stroke-opacity:1" d="M 635.81,537.397 655.492,527.556 z" id="boundary" inkscape:connector-curvature="0" />
	<path style="fill:none;stroke:red;stroke-width:1px;stroke-linecap:butt;stroke-linejoin:miter;stroke-opacity:1" d="M 643.683,748 659.429,734.222 z" id="boundary" inkscape:connector-curvature="0" />
	<path style="fill:none;stroke:red;stroke-width:1px;stroke-linecap:butt;stroke-linejoin:miter;stroke-opacity:1" d="M 645.651,555.111 665.333,561.016 z" id="boundary" inkscape:connector-curvature="0" />
	<path style="fill:none;stroke:red;stroke-width:1px;stroke-linecap:butt;stroke-linejoin:miter;stroke-opacity:1" d="M 651.556,161.46 669.27,151.619 z" id="boundary" inkscape:connector-curvature="0" />
	<path style="fill:none;stroke:red;stroke-width:1px;stroke-linecap:butt;stroke-linejoin:miter;stroke-opacity:1" d="M 655.492,527.556 673.206,517.714 z" id="boundary" inkscape:connector-curvature="0" />
	<path style="fill:none;stroke:red;stroke-width:1px;stroke-linecap:butt;stroke-linejoin:miter;stroke-opacity:1" d="M 659.429,734.222 677.143,724.381 z" id="boundary" inkscape:connector-curvature="0" />
	<path style="fill:none;stroke:red;stroke-width:1px;stroke-linecap:butt;stroke-linejoin:miter;stroke-opacity:1" d="M 665.333,561.016 683.048,570.857 z" id="boundary" inkscape:connector-curvature="0" />
	<path style="fill:none;stroke:red;stroke-width:1px;stroke-linecap:butt;stroke-linejoin:miter;stroke-opacity:1" d="M 669.27,151.619 685.016,135.873 z" id="boundary" inkscape:connector-curvature="0" />
	<path style="fill:none;stroke:red;stroke-width:1px;stroke-linecap:butt;stroke-linejoin:miter;stroke-opacity:1" d="M 673.206,517.714 688.952,505.905 z" id="boundary" inkscape:connector-curvature="0" />
	<path style="fill:none;stroke:red;stroke-width:1px;stroke-linecap:butt;stroke-linejoin:miter;stroke-opacity:1" d="M 677.143,724.381 692.889,708.635 z" id="boundary" inkscape:connector-curvature="0" />
	<path style="fill:none;stroke:red;stroke-width:1px;stroke-linecap:butt;stroke-linejoin:miter;stroke-opacity:1" d="M 683.048,570.857 698.794,584.635 z" id="boundary" inkscape:connector-curvature="0" />
	<path style="fill:none;stroke:red;stroke-width:1px;stroke-linecap:butt;stroke-linejoin:miter;stroke-opacity:1" d="M 685.016,135.873 700.762,122.095 z" id="boundary" inkscape:connector-curvature="0" />
	<path style="fill:none;stroke:red;stroke-width:1px;stroke-linecap:butt;stroke-linejoin:miter;stroke-opacity:1" d="M 688.952,505.905 708.635,496.063 z" id="boundary" inkscape:connector-curvature="0" />
	<path style="fill:none;stroke:red;stroke-width:1px;stroke-linecap:butt;stroke-linejoin:miter;stroke-opacity:1" d="M 692.889,708.635 708.635,692.889 z" id="boundary" inkscape:connector-curvature="0" />
	<path style="fill:none;stroke:red;stroke-width:1px;stroke-linecap:butt;stroke-linejoin:miter;stroke-opacity:1" d="M 698.794,584.635 716.508,594.476 z" id="boundary" inkscape:connector-curvature="0" />
	<path style="fill:none;stroke:red;stroke-width:1px;stroke-linecap:butt;stroke-linejoin:miter;stroke-opacity:1" d="M 700.762,122.095 718.476,112.254 z" id="boundary" inkscape:connector-curvature="0" />
	<path style="fill:none;stroke:red;stroke-width:1px;stroke-linecap:butt;stroke-linejoin:miter;stroke-opacity:1" d="M 708.635,496.063 724.381,478.349 z" id="boundary" inkscape:connector-curvature="0" />
	<path style="fill:none;stroke:red;stroke-width:1px;stroke-linecap:butt;stroke-linejoin:miter;stroke-opacity:1" d="M 708.635,692.889 724.381,675.175 z" id="boundary" inkscape:connector-curvature="0" />
	<path style="fill:none;stroke:red;stroke-width:1px;stroke-linecap:butt;stroke-linejoin:miter;stroke-opacity:1" d="M 716.508,594.476 734.222,604.317 z" id="boundary" inkscape:connector-curvature="0" />
	<path style="fill:none;stroke:red;stroke-width:1px;stroke-linecap:butt;stroke-linejoin:miter;stroke-opacity:1" d="M 718.476,112.254 734.222,96.5079 z" id="boundary" inkscape:connector-curvature="0" />
	<path style="fill:none;stroke:red;stroke-width:1px;stroke-linecap:butt;stroke-linejoin:miter;stroke-opacity:1" d="M 724.381,478.349 742.095,468.508 z" id="boundary" inkscape:connector-curvature="0" />
	<path style="fill:none;stroke:red;stroke-width:1px;stroke-linecap:butt;stroke-linejoin:miter;stroke-opacity:1" d="M 724.381,675.175 740.127,661.397 z" id="boundary" inkscape:connector-curvature="0" />
	<path style="fill:none;stroke:red;stroke-width:1px;stroke-linecap:butt;stroke-linejoin:miter;stroke-opacity:1" d="M 734.222,96.5079 753.905,86.6667 z" id="boundary" inkscape:connector-curvature="0" />
	<path style="fill:none;stroke:red;stroke-width:1px;stroke-linecap:butt;stroke-linejoin:miter;stroke-opacity:1" d="M 734.222,604.317 749.968,616.127 z" id="boundary" inkscape:connector-curvature="0" />
	<path style="fill:none;stroke:red;stroke-width:1px;stroke-linecap:butt;stroke-linejoin:miter;stroke-opacity:1" d="M 740.127,661.397 749.968,641.714 z" id="boundary" inkscape:connector-curvature="0" />
	<path style="fill:none;stroke:red;stroke-width:1px;stroke-linecap:butt;stroke-linejoin:miter;stroke-opacity:1" d="M 742.095,468.508 757.841,456.698 z" id="boundary" inkscape:connector-curvature="0" />
	<path style="fill:none;stroke:red;stroke-width:1px;stroke-linecap:butt;stroke-linejoin:miter;stroke-opacity:1" d="M 749.968,616.127 749.968,641.714 z" id="boundary" inkscape:connector-curvature="0" />
	<path style="fill:none;stroke:red;stroke-width:1px;stroke-linecap:butt;stroke-linejoin:miter;stroke-opacity:1" d="M 753.905,86.6667 769.651,72.8889 z" id="boundary" inkscape:connector-curvature="0" />
	<path style="fill:none;stroke:red;stroke-width:1px;stroke-linecap:butt;stroke-linejoin:miter;stroke-opacity:1" d="M 757.841,456.698 767.683,437.016 z" id="boundary" inkscape:connector-curvature="0" />
	<path style="fill:none;stroke:red;stroke-width:1px;stroke-linecap:butt;stroke-linejoin:miter;stroke-opacity:1" d="M 767.683,437.016 783.429,419.302 z" id="boundary" inkscape:connector-curvature="0" />
	<path style="fill:none;stroke:red;stroke-width:1px;stroke-linecap:butt;stroke-linejoin:miter;stroke-opacity:1" d="M 769.651,72.8889 787.365,63.0476 z" id="boundary" inkscape:connector-curvature="0" />
	<path style="fill:none;stroke:red;stroke-width:1px;stroke-linecap:butt;stroke-linejoin:miter;stroke-opacity:1" d="M 783.429,419.302 799.175,405.524 z" id="boundary" inkscape:connector-curvature="0" />
	<path style="fill:none;stroke:red;stroke-width:1px;stroke-linecap:butt;stroke-linejoin:miter;stroke-opacity:1" d="M 787.365,63.0476 803.111,47.3016 z" id="boundary" inkscape:connector-curvature="0" />
	<path style="fill:none;stroke:red;stroke-width:1px;stroke-linecap:butt;stroke-linejoin:miter;stroke-opacity:1" d="M 799.175,405.524 809.016,385.841 z" id="boundary" inkscape:connector-curvature="0" />
	<path style="fill:none;stroke:red;stroke-width:1px;stroke-linecap:butt;stroke-linejoin:miter;stroke-opacity:1" d="M 803.111,47.3016 822.794,37.4603 z" id="boundary" inkscape:connector-curvature="0" />
	<path style="fill:none;stroke:red;stroke-width:1px;stroke-linecap:butt;stroke-linejoin:miter;stroke-opacity:1" d="M 809.016,385.841 822.794,360.254 z" id="boundary" inkscape:connector-curvature="0" />
	<path style="fill:none;stroke:red;stroke-width:1px;stroke-linecap:butt;stroke-linejoin:miter;stroke-opacity:1" d="M 822.794,37.4603 838.54,23.6825 z" id="boundary" inkscape:connector-curvature="0" />
	<path style="fill:none;stroke:red;stroke-width:1px;stroke-linecap:butt;stroke-linejoin:miter;stroke-opacity:1" d="M 822.794,360.254 838.54,346.476 z" id="boundary" inkscape:connector-curvature="0" />
	<path style="fill:none;stroke:red;stroke-width:1px;stroke-linecap:butt;stroke-linejoin:miter;stroke-opacity:1" d="M 838.54,23.6825 856.254,13.8413 z" id="boundary" inkscape:connector-curvature="0" />
	<path style="fill:none;stroke:red;stroke-width:1px;stroke-linecap:butt;stroke-linejoin:miter;stroke-opacity:1" d="M 838.54,346.476 848.381,326.794 z" id="boundary" inkscape:connector-curvature="0" />
	<path style="fill:none;stroke:red;stroke-width:1px;stroke-linecap:butt;stroke-linejoin:miter;stroke-opacity:1" d="M 848.381,326.794 852.317,301.206 z" id="boundary" inkscape:connector-curvature="0" />
	<path style="fill:none;stroke:red;stroke-width:1px;stroke-linecap:butt;stroke-linejoin:miter;stroke-opacity:1" d="M 852.317,301.206 868.063,287.429 z" id="boundary" inkscape:connector-curvature="0" />
	<path style="fill:none;stroke:red;stroke-width:1px;stroke-linecap:butt;stroke-linejoin:miter;stroke-opacity:1" d="M 856.254,13.8413 872,25.6508 z" id="boundary" inkscape:connector-curvature="0" />
	<path style="fill:none;stroke:red;stroke-width:1px;stroke-linecap:butt;stroke-linejoin:miter;stroke-opacity:1" d="M 868.063,287.429 881.841,271.683 z" id="boundary" inkscape:connector-curvature="0" />
	<path style="fill:none;stroke:red;stroke-width:1px;stroke-linecap:butt;stroke-linejoin:miter;stroke-opacity:1" d="M 872,25.6508 891.683,27.619 z" id="boundary" inkscape:connector-curvature="0" />
	<path style="fill:none;stroke:red;stroke-width:1px;stroke-linecap:butt;stroke-linejoin:miter;stroke-opacity:1" d="M 881.841,271.683 897.587,257.905 z" id="boundary" inkscape:connector-curvature="0" />
	<path style="fill:none;stroke:red;stroke-width:1px;stroke-linecap:butt;stroke-linejoin:miter;stroke-opacity:1" d="M 891.683,27.619 901.524,45.3333 z" id="boundary" inkscape:connector-curvature="0" />
	<path style="fill:none;stroke:red;stroke-width:1px;stroke-linecap:butt;stroke-linejoin:miter;stroke-opacity:1" d="M 897.587,257.905 909.397,242.159 z" id="boundary" inkscape:connector-curvature="0" />
	<path style="fill:none;stroke:red;stroke-width:1px;stroke-linecap:butt;stroke-linejoin:miter;stroke-opacity:1" d="M 901.524,45.3333 921.206,53.2063 z" id="boundary" inkscape:connector-curvature="0" />
	<path style="fill:none;stroke:red;stroke-width:1px;stroke-linecap:butt;stroke-linejoin:miter;stroke-opacity:1" d="M 909.397,242.159 925.143,230.349 z" id="boundary" inkscape:connector-curvature="0" />
	<path style="fill:none;stroke:red;stroke-width:1px;stroke-linecap:butt;stroke-linejoin:miter;stroke-opacity:1" d="M 921.206,53.2063 938.921,43.3651 z" id="boundary" inkscape:connector-curvature="0" />
	<path style="fill:none;stroke:red;stroke-width:1px;stroke-linecap:butt;stroke-linejoin:miter;stroke-opacity:1" d="M 925.143,230.349 940.889,212.635 z" id="boundary" inkscape:connector-curvature="0" />
	<path style="fill:none;stroke:red;stroke-width:1px;stroke-linecap:butt;stroke-linejoin:miter;stroke-opacity:1" d="M 940.889,65.0159 956.635,53.2063 z" id="boundary" inkscape:connector-curvature="0" />
	<path style="fill:none;stroke:red;stroke-width:1px;stroke-linecap:butt;stroke-linejoin:miter;stroke-opacity:1" d="M 940.889,192.952 940.889,212.635 z" id="boundary" inkscape:connector-curvature="0" />
	<path style="fill:none;stroke:red;stroke-width:1px;stroke-linecap:butt;stroke-linejoin:miter;stroke-opacity:1" d="M 940.889,192.952 960.571,181.143 z" id="boundary" inkscape:connector-curvature="0" />
	<path style="fill:none;stroke:red;stroke-width:1px;stroke-linecap:butt;stroke-linejoin:miter;stroke-opacity:1" d="M 950.73,163.429 970.413,163.429 z" id="boundary" inkscape:connector-curvature="0" />
	<path style="fill:none;stroke:red;stroke-width:1px;stroke-linecap:butt;stroke-linejoin:miter;stroke-opacity:1" d="M 956.635,53.2063 960.571,72.8889 z" id="boundary" inkscape:connector-curvature="0" />
	<path style="fill:none;stroke:red;stroke-width:1px;stroke-linecap:butt;stroke-linejoin:miter;stroke-opacity:1" d="M 960.571,72.8889 978.286,63.0476 z" id="boundary" inkscape:connector-curvature="0" />
	<path style="fill:none;stroke:red;stroke-width:1px;stroke-linecap:butt;stroke-linejoin:miter;stroke-opacity:1" d="M 960.571,94.5397 978.286,84.6984 z" id="boundary" inkscape:connector-curvature="0" />
	<path style="fill:none;stroke:red;stroke-width:1px;stroke-linecap:butt;stroke-linejoin:miter;stroke-opacity:1" d="M 960.571,133.905 980.254,124.063 z" id="boundary" inkscape:connector-curvature="0" />
	<path style="fill:none;stroke:red;stroke-width:1px;stroke-linecap:butt;stroke-linejoin:miter;stroke-opacity:1" d="M 978.286,63.0476 996,72.8889 z" id="boundary" inkscape:connector-curvature="0" />
	<path style="fill:none;stroke:red;stroke-width:1px;stroke-linecap:butt;stroke-linejoin:miter;stroke-opacity:1" d="M 978.286,84.6984 988.127,102.413 z" id="boundary" inkscape:connector-curvature="0" />
	<path style="fill:none;stroke:red;stroke-width:1px;stroke-linecap:butt;stroke-linejoin:miter;stroke-opacity:1" d="M 980.254,124.063 988.127,102.413 z" id="boundary" inkscape:connector-curvature="0" />
	<circle cx="4" cy="836.571" r="4" fill="#0" id="circle0"/>
	<circle cx="4" cy="856.254" r="4" fill="#0" id="circle1"/>
	<circle cx="13.8413" cy="875.937" r="4" fill="#0" id="circle2"/>
	<circle cx="19.746" cy="820.825" r="4" fill="#0" id="circle3"/>
	<circle cx="23.6825" cy="846.413" r="4" fill="#0" id="circle4"/>
	<circle cx="33.5238" cy="797.206" r="4" fill="#0" id="circle5"/>
	<circle cx="33.5238" cy="881.841" r="4" fill="#0" id="circle6"/>
	<circle cx="33.5238" cy="915.302" r="4" fill="#0" id="circle7"/>
	<circle cx="33.5238" cy="934.984" r="4" fill="#0" id="circle8"/>
	<circle cx="49.2698" cy="781.46" r="4" fill="#0" id="circle9"/>
	<circle cx="51.2381" cy="872" r="4" fill="#0" id="circle10"/>
	<circle cx="53.2063" cy="925.143" r="4" fill="#0" id="circle11"/>
	<circle cx="53.2063" cy="964.508" r="4" fill="#0" id="circle12"/>
	<circle cx="63.0476" cy="757.841" r="4" fill="#0" id="circle13"/>
	<circle cx="63.0476" cy="942.857" r="4" fill="#0" id="circle14"/>
	<circle cx="72.8889" cy="964.508" r="4" fill="#0" id="circle15"/>
	<circle cx="78.7937" cy="742.095" r="4" fill="#0" id="circle16"/>
	<circle cx="82.7302" cy="944.825" r="4" fill="#0" id="circle17"/>
	<circle cx="92.5714" cy="962.54" r="4" fill="#0" id="circle18"/>
	<circle cx="94.5397" cy="726.349" r="4" fill="#0" id="circle19"/>
	<circle cx="98.4762" cy="931.048" r="4" fill="#0" id="circle20"/>
	<circle cx="104.381" cy="706.667" r="4" fill="#0" id="circle21"/>
	<circle cx="112.254" cy="964.508" r="4" fill="#0" id="circle22"/>
	<circle cx="120.127" cy="692.889" r="4" fill="#0" id="circle23"/>
	<circle cx="122.095" cy="944.825" r="4" fill="#0" id="circle24"/>
	<circle cx="133.905" cy="677.143" r="4" fill="#0" id="circle25"/>
	<circle cx="141.778" cy="940.889" r="4" fill="#0" id="circle26"/>
	<circle cx="147.683" cy="960.571" r="4" fill="#0" id="circle27"/>
	<circle cx="149.651" cy="663.365" r="4" fill="#0" id="circle28"/>
	<circle cx="157.524" cy="643.683" r="4" fill="#0" id="circle29"/>
	<circle cx="161.46" cy="934.984" r="4" fill="#0" id="circle30"/>
	<circle cx="173.27" cy="627.937" r="4" fill="#0" id="circle31"/>
	<circle cx="181.143" cy="934.984" r="4" fill="#0" id="circle32"/>
	<circle cx="189.016" cy="614.159" r="4" fill="#0" id="circle33"/>
	<circle cx="200.825" cy="925.143" r="4" fill="#0" id="circle34"/>
	<circle cx="202.794" cy="598.413" r="4" fill="#0" id="circle35"/>
	<circle cx="216.571" cy="909.397" r="4" fill="#0" id="circle36"/>
	<circle cx="222.476" cy="588.571" r="4" fill="#0" id="circle37"/>
	<circle cx="232.317" cy="891.683" r="4" fill="#0" id="circle38"/>
	<circle cx="238.222" cy="574.794" r="4" fill="#0" id="circle39"/>
	<circle cx="248.063" cy="877.905" r="4" fill="#0" id="circle40"/>
	<circle cx="252" cy="559.048" r="4" fill="#0" id="circle41"/>
	<circle cx="267.746" cy="868.063" r="4" fill="#0" id="circle42"/>
	<circle cx="271.683" cy="549.206" r="4" fill="#0" id="circle43"/>
	<circle cx="281.524" cy="852.317" r="4" fill="#0" id="circle44"/>
	<circle cx="287.429" cy="535.429" r="4" fill="#0" id="circle45"/>
	<circle cx="299.238" cy="842.476" r="4" fill="#0" id="circle46"/>
	<circle cx="305.143" cy="525.587" r="4" fill="#0" id="circle47"/>
	<circle cx="316.952" cy="832.635" r="4" fill="#0" id="circle48"/>
	<circle cx="320.889" cy="509.841" r="4" fill="#0" id="circle49"/>
	<circle cx="334.667" cy="822.794" r="4" fill="#0" id="circle50"/>
	<circle cx="336.635" cy="496.063" r="4" fill="#0" id="circle51"/>
	<circle cx="350.413" cy="480.317" r="4" fill="#0" id="circle52"/>
	<circle cx="352.381" cy="812.952" r="4" fill="#0" id="circle53"/>
	<circle cx="358.286" cy="354.349" r="4" fill="#0" id="circle54"/>
	<circle cx="366.159" cy="466.54" r="4" fill="#0" id="circle55"/>
	<circle cx="368.127" cy="372.063" r="4" fill="#0" id="circle56"/>
	<circle cx="368.127" cy="391.746" r="4" fill="#0" id="circle57"/>
	<circle cx="370.095" cy="803.111" r="4" fill="#0" id="circle58"/>
	<circle cx="377.968" cy="348.444" r="4" fill="#0" id="circle59"/>
	<circle cx="377.968" cy="409.46" r="4" fill="#0" id="circle60"/>
	<circle cx="379.937" cy="450.794" r="4" fill="#0" id="circle61"/>
	<circle cx="383.873" cy="429.143" r="4" fill="#0" id="circle62"/>
	<circle cx="389.778" cy="793.27" r="4" fill="#0" id="circle63"/>
	<circle cx="395.683" cy="358.286" r="4" fill="#0" id="circle64"/>
	<circle cx="407.492" cy="783.429" r="4" fill="#0" id="circle65"/>
	<circle cx="415.365" cy="360.254" r="4" fill="#0" id="circle66"/>
	<circle cx="423.238" cy="771.619" r="4" fill="#0" id="circle67"/>
	<circle cx="433.079" cy="370.095" r="4" fill="#0" id="circle68"/>
	<circle cx="438.984" cy="753.905" r="4" fill="#0" id="circle69"/>
	<circle cx="452.762" cy="377.968" r="4" fill="#0" id="circle70"/>
	<circle cx="458.667" cy="744.063" r="4" fill="#0" id="circle71"/>
	<circle cx="470.476" cy="368.127" r="4" fill="#0" id="circle72"/>
	<circle cx="474.413" cy="730.286" r="4" fill="#0" id="circle73"/>
	<circle cx="484.254" cy="710.603" r="4" fill="#0" id="circle74"/>
	<circle cx="486.222" cy="354.349" r="4" fill="#0" id="circle75"/>
	<circle cx="498.032" cy="694.857" r="4" fill="#0" id="circle76"/>
	<circle cx="501.968" cy="338.603" r="4" fill="#0" id="circle77"/>
	<circle cx="507.873" cy="675.175" r="4" fill="#0" id="circle78"/>
	<circle cx="517.714" cy="322.857" r="4" fill="#0" id="circle79"/>
	<circle cx="523.619" cy="661.397" r="4" fill="#0" id="circle80"/>
	<circle cx="527.556" cy="303.175" r="4" fill="#0" id="circle81"/>
	<circle cx="533.46" cy="641.714" r="4" fill="#0" id="circle82"/>
	<circle cx="543.302" cy="289.397" r="4" fill="#0" id="circle83"/>
	<circle cx="553.143" cy="645.651" r="4" fill="#0" id="circle84"/>
	<circle cx="557.079" cy="273.651" r="4" fill="#0" id="circle85"/>
	<circle cx="564.952" cy="661.397" r="4" fill="#0" id="circle86"/>
	<circle cx="566.921" cy="253.968" r="4" fill="#0" id="circle87"/>
	<circle cx="574.794" cy="679.111" r="4" fill="#0" id="circle88"/>
	<circle cx="582.667" cy="240.19" r="4" fill="#0" id="circle89"/>
	<circle cx="584.635" cy="696.825" r="4" fill="#0" id="circle90"/>
	<circle cx="594.476" cy="714.54" r="4" fill="#0" id="circle91"/>
	<circle cx="596.444" cy="224.444" r="4" fill="#0" id="circle92"/>
	<circle cx="604.317" cy="732.254" r="4" fill="#0" id="circle93"/>
	<circle cx="612.19" cy="210.667" r="4" fill="#0" id="circle94"/>
	<circle cx="616.127" cy="748" r="4" fill="#0" id="circle95"/>
	<circle cx="620.063" cy="190.984" r="4" fill="#0" id="circle96"/>
	<circle cx="629.905" cy="763.746" r="4" fill="#0" id="circle97"/>
	<circle cx="635.81" cy="175.238" r="4" fill="#0" id="circle98"/>
	<circle cx="635.81" cy="537.397" r="4" fill="#0" id="circle99"/>
	<circle cx="643.683" cy="748" r="4" fill="#0" id="circle100"/>
	<circle cx="645.651" cy="555.111" r="4" fill="#0" id="circle101"/>
	<circle cx="651.556" cy="161.46" r="4" fill="#0" id="circle102"/>
	<circle cx="655.492" cy="527.556" r="4" fill="#0" id="circle103"/>
	<circle cx="659.429" cy="734.222" r="4" fill="#0" id="circle104"/>
	<circle cx="665.333" cy="561.016" r="4" fill="#0" id="circle105"/>
	<circle cx="669.27" cy="151.619" r="4" fill="#0" id="circle106"/>
	<circle cx="673.206" cy="517.714" r="4" fill="#0" id="circle107"/>
	<circle cx="677.143" cy="724.381" r="4" fill="#0" id="circle108"/>
	<circle cx="683.048" cy="570.857" r="4" fill="#0" id="circle109"/>
	<circle cx="685.016" cy="135.873" r="4" fill="#0" id="circle110"/>
	<circle cx="688.952" cy="505.905" r="4" fill="#0" id="circle111"/>
	<circle cx="692.889" cy="708.635" r="4" fill="#0" id="circle112"/>
	<circle cx="698.794" cy="584.635" r="4" fill="#0" id="circle113"/>
	<circle cx="700.762" cy="122.095" r="4" fill="#0" id="circle114"/>
	<circle cx="708.635" cy="496.063" r="4" fill="#0" id="circle115"/>
	<circle cx="708.635" cy="692.889" r="4" fill="#0" id="circle116"/>
	<circle cx="716.508" cy="594.476" r="4" fill="#0" id="circle117"/>
	<circle cx="718.476" cy="112.254" r="4" fill="#0" id="circle118"/>
	<circle cx="724.381" cy="478.349" r="4" fill="#0" id="circle119"/>
	<circle cx="724.381" cy="675.175" r="4" fill="#0" id="circle120"/>
	<circle cx="734.222" cy="96.5079" r="4" fill="#0" id="circle121"/>
	<circle cx="734.222" cy="604.317" r="4" fill="#0" id="circle122"/>
	<circle cx="740.127" cy="661.397" r="4" fill="#0" id="circle123"/>
	<circle cx="742.095" cy="468.508" r="4" fill="#0" id="circle124"/>
	<circle cx="749.968" cy="616.127" r="4" fill="#0" id="circle125"/>
	<circle cx="749.968" cy="641.714" r="4" fill="#0" id="circle126"/>
	<circle cx="753.905" cy="86.6667" r="4" fill="#0" id="circle127"/>
	<circle cx="757.841" cy="456.698" r="4" fill="#0" id="circle128"/>
	<circle cx="767.683" cy="437.016" r="4" fill="#0" id="circle129"/>
	<circle cx="769.651" cy="72.8889" r="4" fill="#0" id="circle130"/>
	<circle cx="783.429" cy="419.302" r="4" fill="#0" id="circle131"/>
	<circle cx="787.365" cy="63.0476" r="4" fill="#0" id="circle132"/>
	<circle cx="799.175" cy="405.524" r="4" fill="#0" id="circle133"/>
	<circle cx="803.111" cy="47.3016" r="4" fill="#0" id="circle134"/>
	<circle cx="809.016" cy="385.841" r="4" fill="#0" id="circle135"/>
	<circle cx="822.794" cy="37.4603" r="4" fill="#0" id="circle136"/>
	<circle cx="822.794" cy="360.254" r="4" fill="#0" id="circle137"/>
	<circle cx="838.54" cy="23.6825" r="4" fill="#0" id="circle138"/>
	<circle cx="838.54" cy="346.476" r="4" fill="#0" id="circle139"/>
	<circle cx="848.381" cy="326.794" r="4" fill="#0" id="circle140"/>
	<circle cx="852.317" cy="301.206" r="4" fill="#0" id="circle141"/>
	<circle cx="856.254" cy="13.8413" r="4" fill="#0" id="circle142"/>
	<circle cx="868.063" cy="287.429" r="4" fill="#0" id="circle143"/>
	<circle cx="872" cy="25.6508" r="4" fill="#0" id="circle144"/>
	<circle cx="875.937" cy="4" r="4" fill="#0" id="circle145"/>
	<circle cx="881.841" cy="271.683" r="4" fill="#0" id="circle146"/>
	<circle cx="891.683" cy="27.619" r="4" fill="#0" id="circle147"/>
	<circle cx="897.587" cy="257.905" r="4" fill="#0" id="circle148"/>
	<circle cx="901.524" cy="45.3333" r="4" fill="#0" id="circle149"/>
	<circle cx="907.429" cy="13.8413" r="4" fill="#0" id="circle150"/>
	<circle cx="909.397" cy="242.159" r="4" fill="#0" id="circle151"/>
	<circle cx="921.206" cy="53.2063" r="4" fill="#0" id="circle152"/>
	<circle cx="925.143" cy="230.349" r="4" fill="#0" id="circle153"/>
	<circle cx="938.921" cy="43.3651" r="4" fill="#0" id="circle154"/>
	<circle cx="940.889" cy="65.0159" r="4" fill="#0" id="circle155"/>
	<circle cx="940.889" cy="192.952" r="4" fill="#0" id="circle156"/>
	<circle cx="940.889" cy="212.635" r="4" fill="#0" id="circle157"/>
	<circle cx="950.73" cy="163.429" r="4" fill="#0" id="circle158"/>
	<circle cx="956.635" cy="53.2063" r="4" fill="#0" id="circle159"/>
	<circle cx="960.571" cy="72.8889" r="4" fill="#0" id="circle160"/>
	<circle cx="960.571" cy="94.5397" r="4" fill="#0" id="circle161"/>
	<circle cx="960.571" cy="133.905" r="4" fill="#0" id="circle162"/>
	<circle cx="960.571" cy="181.143" r="4" fill="#0" id="circle163"/>
	<circle cx="970.413" cy="163.429" r="4" fill="#0" id="circle164"/>
	<circle cx="978.286" cy="63.0476" r="4" fill="#0" id="circle165"/>
	<circle cx="978.286" cy="84.6984" r="4" fill="#0" id="circle166"/>
	<circle cx="980.254" cy="124.063" r="4" fill="#0" id="circle167"/>
	<circle cx="988.127" cy="102.413" r="4" fill="#0" id="circle168"/>
	<circle cx="996" cy="72.8889" r="4" fill="#0" id="circle169"/>
	</g>
</svg>