<?xml version="1.0" encoding="UTF-8" standalone="no"?>
<!-- Created with CurveBenchmark -->
<svg
	xmlns:dc="http://purl.org/dc/elements/1.1/"
	xmlns:cc="http://creativecommons.org/ns#"
	xmlns:rdf="http://www.w3.org/1999/02/22-rdf-syntax-ns#"
	xmlns:svg="http://www.w3.org/2000/svg"
	xmlns="http://www.w3.org/2000/svg"
	xmlns:sodipodi="http://sodipodi.sourceforge.net/DTD/sodipodi-0.dtd"
	xmlns:inkscape="http://www.inkscape.org/namespaces/inkscape"
	width="1000"
	height="1000"
	id="svg2"
	version="1.1"
	sodipodi:docname="manifold/hnncrust-donkey1.png.txt">
<defs
	id="defs4" />
<metadata
	id="metadata7">
	<rdf:RDF>
		<cc:Work
			rdf:about="">
			<dc:format>image/svg+xml</dc:format>
			<dc:type
				rdf:resource="http://purl.org/dc/dcmitype/StillImage" />
			<dc:title></dc:title>
		</cc:Work>
	</rdf:RDF>
</metadata>
<g
	inkscape:label="Layer 1"
	inkscape:groupmode="layer"
	id="layer1">
	<path style="fill:none;stroke:red;stroke-width:1px;stroke-linecap:butt;stroke-linejoin:miter;stroke-opacity:1" d="M 4,326.747 4,346.547 z" id="boundary" inkscape:connector-curvature="0" />
	<path style="fill:none;stroke:red;stroke-width:1px;stroke-linecap:butt;stroke-linejoin:miter;stroke-opacity:1" d="M 4,326.747 13.9002,306.946 z" id="boundary" inkscape:connector-curvature="0" />
	<path style="fill:none;stroke:red;stroke-width:1px;stroke-linecap:butt;stroke-linejoin:miter;stroke-opacity:1" d="M 4,346.547 4,366.347 z" id="boundary" inkscape:connector-curvature="0" />
	<path style="fill:none;stroke:red;stroke-width:1px;stroke-linecap:butt;stroke-linejoin:miter;stroke-opacity:1" d="M 4,366.347 4,386.148 z" id="boundary" inkscape:connector-curvature="0" />
	<path style="fill:none;stroke:red;stroke-width:1px;stroke-linecap:butt;stroke-linejoin:miter;stroke-opacity:1" d="M 4,386.148 4,405.948 z" id="boundary" inkscape:connector-curvature="0" />
	<path style="fill:none;stroke:red;stroke-width:1px;stroke-linecap:butt;stroke-linejoin:miter;stroke-opacity:1" d="M 4,405.948 19.8403,419.808 z" id="boundary" inkscape:connector-curvature="0" />
	<path style="fill:none;stroke:red;stroke-width:1px;stroke-linecap:butt;stroke-linejoin:miter;stroke-opacity:1" d="M 13.9002,306.946 23.8004,287.146 z" id="boundary" inkscape:connector-curvature="0" />
	<path style="fill:none;stroke:red;stroke-width:1px;stroke-linecap:butt;stroke-linejoin:miter;stroke-opacity:1" d="M 19.8403,419.808 37.6607,429.709 z" id="boundary" inkscape:connector-curvature="0" />
	<path style="fill:none;stroke:red;stroke-width:1px;stroke-linecap:butt;stroke-linejoin:miter;stroke-opacity:1" d="M 23.8004,287.146 39.6407,271.305 z" id="boundary" inkscape:connector-curvature="0" />
	<path style="fill:none;stroke:red;stroke-width:1px;stroke-linecap:butt;stroke-linejoin:miter;stroke-opacity:1" d="M 37.6607,429.709 53.501,441.589 z" id="boundary" inkscape:connector-curvature="0" />
	<path style="fill:none;stroke:red;stroke-width:1px;stroke-linecap:butt;stroke-linejoin:miter;stroke-opacity:1" d="M 39.6407,271.305 43.6008,247.545 z" id="boundary" inkscape:connector-curvature="0" />
	<path style="fill:none;stroke:red;stroke-width:1px;stroke-linecap:butt;stroke-linejoin:miter;stroke-opacity:1" d="M 43.6008,247.545 53.501,227.745 z" id="boundary" inkscape:connector-curvature="0" />
	<path style="fill:none;stroke:red;stroke-width:1px;stroke-linecap:butt;stroke-linejoin:miter;stroke-opacity:1" d="M 53.501,227.745 63.4012,207.944 z" id="boundary" inkscape:connector-curvature="0" />
	<path style="fill:none;stroke:red;stroke-width:1px;stroke-linecap:butt;stroke-linejoin:miter;stroke-opacity:1" d="M 53.501,441.589 73.3014,441.589 z" id="boundary" inkscape:connector-curvature="0" />
	<path style="fill:none;stroke:red;stroke-width:1px;stroke-linecap:butt;stroke-linejoin:miter;stroke-opacity:1" d="M 63.4012,207.944 73.3014,178.244 z" id="boundary" inkscape:connector-curvature="0" />
	<path style="fill:none;stroke:red;stroke-width:1px;stroke-linecap:butt;stroke-linejoin:miter;stroke-opacity:1" d="M 73.3014,118.842 73.3014,138.643 z" id="boundary" inkscape:connector-curvature="0" />
	<path style="fill:none;stroke:red;stroke-width:1px;stroke-linecap:butt;stroke-linejoin:miter;stroke-opacity:1" d="M 73.3014,118.842 83.2016,99.0419 z" id="boundary" inkscape:connector-curvature="0" />
	<path style="fill:none;stroke:red;stroke-width:1px;stroke-linecap:butt;stroke-linejoin:miter;stroke-opacity:1" d="M 73.3014,138.643 73.3014,158.443 z" id="boundary" inkscape:connector-curvature="0" />
	<path style="fill:none;stroke:red;stroke-width:1px;stroke-linecap:butt;stroke-linejoin:miter;stroke-opacity:1" d="M 73.3014,158.443 73.3014,178.244 z" id="boundary" inkscape:connector-curvature="0" />
	<path style="fill:none;stroke:red;stroke-width:1px;stroke-linecap:butt;stroke-linejoin:miter;stroke-opacity:1" d="M 73.3014,441.589 93.1018,441.589 z" id="boundary" inkscape:connector-curvature="0" />
	<path style="fill:none;stroke:red;stroke-width:1px;stroke-linecap:butt;stroke-linejoin:miter;stroke-opacity:1" d="M 83.2016,99.0419 99.0419,83.2016 z" id="boundary" inkscape:connector-curvature="0" />
	<path style="fill:none;stroke:red;stroke-width:1px;stroke-linecap:butt;stroke-linejoin:miter;stroke-opacity:1" d="M 93.1018,441.589 108.942,429.709 z" id="boundary" inkscape:connector-curvature="0" />
	<path style="fill:none;stroke:red;stroke-width:1px;stroke-linecap:butt;stroke-linejoin:miter;stroke-opacity:1" d="M 99.0419,83.2016 114.882,67.3613 z" id="boundary" inkscape:connector-curvature="0" />
	<path style="fill:none;stroke:red;stroke-width:1px;stroke-linecap:butt;stroke-linejoin:miter;stroke-opacity:1" d="M 108.942,429.709 118.842,409.908 z" id="boundary" inkscape:connector-curvature="0" />
	<path style="fill:none;stroke:red;stroke-width:1px;stroke-linecap:butt;stroke-linejoin:miter;stroke-opacity:1" d="M 114.882,67.3613 130.723,53.501 z" id="boundary" inkscape:connector-curvature="0" />
	<path style="fill:none;stroke:red;stroke-width:1px;stroke-linecap:butt;stroke-linejoin:miter;stroke-opacity:1" d="M 118.842,409.908 134.683,392.088 z" id="boundary" inkscape:connector-curvature="0" />
	<path style="fill:none;stroke:red;stroke-width:1px;stroke-linecap:butt;stroke-linejoin:miter;stroke-opacity:1" d="M 130.723,53.501 148.543,43.6008 z" id="boundary" inkscape:connector-curvature="0" />
	<path style="fill:none;stroke:red;stroke-width:1px;stroke-linecap:butt;stroke-linejoin:miter;stroke-opacity:1" d="M 134.683,392.088 154.483,382.188 z" id="boundary" inkscape:connector-curvature="0" />
	<path style="fill:none;stroke:red;stroke-width:1px;stroke-linecap:butt;stroke-linejoin:miter;stroke-opacity:1" d="M 148.543,43.6008 168.343,43.6008 z" id="boundary" inkscape:connector-curvature="0" />
	<path style="fill:none;stroke:red;stroke-width:1px;stroke-linecap:butt;stroke-linejoin:miter;stroke-opacity:1" d="M 154.483,382.188 172.303,372.287 z" id="boundary" inkscape:connector-curvature="0" />
	<path style="fill:none;stroke:red;stroke-width:1px;stroke-linecap:butt;stroke-linejoin:miter;stroke-opacity:1" d="M 168.343,43.6008 188.144,33.7006 z" id="boundary" inkscape:connector-curvature="0" />
	<path style="fill:none;stroke:red;stroke-width:1px;stroke-linecap:butt;stroke-linejoin:miter;stroke-opacity:1" d="M 172.303,372.287 188.144,360.407 z" id="boundary" inkscape:connector-curvature="0" />
	<path style="fill:none;stroke:red;stroke-width:1px;stroke-linecap:butt;stroke-linejoin:miter;stroke-opacity:1" d="M 188.144,33.7006 207.944,33.7006 z" id="boundary" inkscape:connector-curvature="0" />
	<path style="fill:none;stroke:red;stroke-width:1px;stroke-linecap:butt;stroke-linejoin:miter;stroke-opacity:1" d="M 188.144,360.407 207.944,350.507 z" id="boundary" inkscape:connector-curvature="0" />
	<path style="fill:none;stroke:red;stroke-width:1px;stroke-linecap:butt;stroke-linejoin:miter;stroke-opacity:1" d="M 207.944,33.7006 225.764,23.8004 z" id="boundary" inkscape:connector-curvature="0" />
	<path style="fill:none;stroke:red;stroke-width:1px;stroke-linecap:butt;stroke-linejoin:miter;stroke-opacity:1" d="M 207.944,350.507 227.745,342.587 z" id="boundary" inkscape:connector-curvature="0" />
	<path style="fill:none;stroke:red;stroke-width:1px;stroke-linecap:butt;stroke-linejoin:miter;stroke-opacity:1" d="M 225.764,23.8004 243.585,13.9002 z" id="boundary" inkscape:connector-curvature="0" />
	<path style="fill:none;stroke:red;stroke-width:1px;stroke-linecap:butt;stroke-linejoin:miter;stroke-opacity:1" d="M 227.745,342.587 243.585,356.447 z" id="boundary" inkscape:connector-curvature="0" />
	<path style="fill:none;stroke:red;stroke-width:1px;stroke-linecap:butt;stroke-linejoin:miter;stroke-opacity:1" d="M 243.585,13.9002 261.405,4 z" id="boundary" inkscape:connector-curvature="0" />
	<path style="fill:none;stroke:red;stroke-width:1px;stroke-linecap:butt;stroke-linejoin:miter;stroke-opacity:1" d="M 243.585,356.447 261.405,366.347 z" id="boundary" inkscape:connector-curvature="0" />
	<path style="fill:none;stroke:red;stroke-width:1px;stroke-linecap:butt;stroke-linejoin:miter;stroke-opacity:1" d="M 261.405,4 281.206,4 z" id="boundary" inkscape:connector-curvature="0" />
	<path style="fill:none;stroke:red;stroke-width:1px;stroke-linecap:butt;stroke-linejoin:miter;stroke-opacity:1" d="M 261.405,366.347 277.246,380.208 z" id="boundary" inkscape:connector-curvature="0" />
	<path style="fill:none;stroke:red;stroke-width:1px;stroke-linecap:butt;stroke-linejoin:miter;stroke-opacity:1" d="M 273.285,95.0818 283.186,112.902 z" id="boundary" inkscape:connector-curvature="0" />
	<path style="fill:none;stroke:red;stroke-width:1px;stroke-linecap:butt;stroke-linejoin:miter;stroke-opacity:1" d="M 273.285,95.0818 291.106,85.1816 z" id="boundary" inkscape:connector-curvature="0" />
	<path style="fill:none;stroke:red;stroke-width:1px;stroke-linecap:butt;stroke-linejoin:miter;stroke-opacity:1" d="M 277.246,380.208 293.086,392.088 z" id="boundary" inkscape:connector-curvature="0" />
	<path style="fill:none;stroke:red;stroke-width:1px;stroke-linecap:butt;stroke-linejoin:miter;stroke-opacity:1" d="M 281.206,4 301.006,4 z" id="boundary" inkscape:connector-curvature="0" />
	<path style="fill:none;stroke:red;stroke-width:1px;stroke-linecap:butt;stroke-linejoin:miter;stroke-opacity:1" d="M 283.186,112.902 299.026,124.782 z" id="boundary" inkscape:connector-curvature="0" />
	<path style="fill:none;stroke:red;stroke-width:1px;stroke-linecap:butt;stroke-linejoin:miter;stroke-opacity:1" d="M 291.106,85.1816 310.906,79.2415 z" id="boundary" inkscape:connector-curvature="0" />
	<path style="fill:none;stroke:red;stroke-width:1px;stroke-linecap:butt;stroke-linejoin:miter;stroke-opacity:1" d="M 293.086,392.088 310.906,401.988 z" id="boundary" inkscape:connector-curvature="0" />
	<path style="fill:none;stroke:red;stroke-width:1px;stroke-linecap:butt;stroke-linejoin:miter;stroke-opacity:1" d="M 299.026,124.782 312.886,140.623 z" id="boundary" inkscape:connector-curvature="0" />
	<path style="fill:none;stroke:red;stroke-width:1px;stroke-linecap:butt;stroke-linejoin:miter;stroke-opacity:1" d="M 301.006,4 320.806,4 z" id="boundary" inkscape:connector-curvature="0" />
	<path style="fill:none;stroke:red;stroke-width:1px;stroke-linecap:butt;stroke-linejoin:miter;stroke-opacity:1" d="M 310.906,79.2415 330.707,75.2814 z" id="boundary" inkscape:connector-curvature="0" />
	<path style="fill:none;stroke:red;stroke-width:1px;stroke-linecap:butt;stroke-linejoin:miter;stroke-opacity:1" d="M 310.906,401.988 328.727,411.888 z" id="boundary" inkscape:connector-curvature="0" />
	<path style="fill:none;stroke:red;stroke-width:1px;stroke-linecap:butt;stroke-linejoin:miter;stroke-opacity:1" d="M 312.886,140.623 328.727,154.483 z" id="boundary" inkscape:connector-curvature="0" />
	<path style="fill:none;stroke:red;stroke-width:1px;stroke-linecap:butt;stroke-linejoin:miter;stroke-opacity:1" d="M 320.806,4 340.607,4 z" id="boundary" inkscape:connector-curvature="0" />
	<path style="fill:none;stroke:red;stroke-width:1px;stroke-linecap:butt;stroke-linejoin:miter;stroke-opacity:1" d="M 328.727,154.483 348.527,162.403 z" id="boundary" inkscape:connector-curvature="0" />
	<path style="fill:none;stroke:red;stroke-width:1px;stroke-linecap:butt;stroke-linejoin:miter;stroke-opacity:1" d="M 328.727,411.888 342.587,427.729 z" id="boundary" inkscape:connector-curvature="0" />
	<path style="fill:none;stroke:red;stroke-width:1px;stroke-linecap:butt;stroke-linejoin:miter;stroke-opacity:1" d="M 330.707,75.2814 346.547,63.4012 z" id="boundary" inkscape:connector-curvature="0" />
	<path style="fill:none;stroke:red;stroke-width:1px;stroke-linecap:butt;stroke-linejoin:miter;stroke-opacity:1" d="M 340.607,4 360.407,4 z" id="boundary" inkscape:connector-curvature="0" />
	<path style="fill:none;stroke:red;stroke-width:1px;stroke-linecap:butt;stroke-linejoin:miter;stroke-opacity:1" d="M 342.587,427.729 358.427,441.589 z" id="boundary" inkscape:connector-curvature="0" />
	<path style="fill:none;stroke:red;stroke-width:1px;stroke-linecap:butt;stroke-linejoin:miter;stroke-opacity:1" d="M 346.547,63.4012 366.347,53.501 z" id="boundary" inkscape:connector-curvature="0" />
	<path style="fill:none;stroke:red;stroke-width:1px;stroke-linecap:butt;stroke-linejoin:miter;stroke-opacity:1" d="M 348.527,162.403 366.347,172.303 z" id="boundary" inkscape:connector-curvature="0" />
	<path style="fill:none;stroke:red;stroke-width:1px;stroke-linecap:butt;stroke-linejoin:miter;stroke-opacity:1" d="M 358.427,441.589 376.248,451.489 z" id="boundary" inkscape:connector-curvature="0" />
	<path style="fill:none;stroke:red;stroke-width:1px;stroke-linecap:butt;stroke-linejoin:miter;stroke-opacity:1" d="M 360.407,4 380.208,4 z" id="boundary" inkscape:connector-curvature="0" />
	<path style="fill:none;stroke:red;stroke-width:1px;stroke-linecap:butt;stroke-linejoin:miter;stroke-opacity:1" d="M 366.347,53.501 382.188,35.6806 z" id="boundary" inkscape:connector-curvature="0" />
	<path style="fill:none;stroke:red;stroke-width:1px;stroke-linecap:butt;stroke-linejoin:miter;stroke-opacity:1" d="M 366.347,172.303 384.168,182.204 z" id="boundary" inkscape:connector-curvature="0" />
	<path style="fill:none;stroke:red;stroke-width:1px;stroke-linecap:butt;stroke-linejoin:miter;stroke-opacity:1" d="M 376.248,451.489 392.088,465.349 z" id="boundary" inkscape:connector-curvature="0" />
	<path style="fill:none;stroke:red;stroke-width:1px;stroke-linecap:butt;stroke-linejoin:miter;stroke-opacity:1" d="M 380.208,4 400.008,7.96008 z" id="boundary" inkscape:connector-curvature="0" />
	<path style="fill:none;stroke:red;stroke-width:1px;stroke-linecap:butt;stroke-linejoin:miter;stroke-opacity:1" d="M 384.168,182.204 403.968,182.204 z" id="boundary" inkscape:connector-curvature="0" />
	<path style="fill:none;stroke:red;stroke-width:1px;stroke-linecap:butt;stroke-linejoin:miter;stroke-opacity:1" d="M 392.088,465.349 405.948,481.19 z" id="boundary" inkscape:connector-curvature="0" />
	<path style="fill:none;stroke:red;stroke-width:1px;stroke-linecap:butt;stroke-linejoin:miter;stroke-opacity:1" d="M 403.968,182.204 421.788,192.104 z" id="boundary" inkscape:connector-curvature="0" />
	<path style="fill:none;stroke:red;stroke-width:1px;stroke-linecap:butt;stroke-linejoin:miter;stroke-opacity:1" d="M 405.948,481.19 425.749,489.11 z" id="boundary" inkscape:connector-curvature="0" />
	<path style="fill:none;stroke:red;stroke-width:1px;stroke-linecap:butt;stroke-linejoin:miter;stroke-opacity:1" d="M 421.788,192.104 439.609,202.004 z" id="boundary" inkscape:connector-curvature="0" />
	<path style="fill:none;stroke:red;stroke-width:1px;stroke-linecap:butt;stroke-linejoin:miter;stroke-opacity:1" d="M 425.749,489.11 429.709,508.91 z" id="boundary" inkscape:connector-curvature="0" />
	<path style="fill:none;stroke:red;stroke-width:1px;stroke-linecap:butt;stroke-linejoin:miter;stroke-opacity:1" d="M 429.709,508.91 439.609,526.731 z" id="boundary" inkscape:connector-curvature="0" />
	<path style="fill:none;stroke:red;stroke-width:1px;stroke-linecap:butt;stroke-linejoin:miter;stroke-opacity:1" d="M 439.609,202.004 459.409,205.964 z" id="boundary" inkscape:connector-curvature="0" />
	<path style="fill:none;stroke:red;stroke-width:1px;stroke-linecap:butt;stroke-linejoin:miter;stroke-opacity:1" d="M 439.609,526.731 449.509,544.551 z" id="boundary" inkscape:connector-curvature="0" />
	<path style="fill:none;stroke:red;stroke-width:1px;stroke-linecap:butt;stroke-linejoin:miter;stroke-opacity:1" d="M 439.609,920.758 439.609,940.559 z" id="boundary" inkscape:connector-curvature="0" />
	<path style="fill:none;stroke:red;stroke-width:1px;stroke-linecap:butt;stroke-linejoin:miter;stroke-opacity:1" d="M 439.609,920.758 449.509,900.958 z" id="boundary" inkscape:connector-curvature="0" />
	<path style="fill:none;stroke:red;stroke-width:1px;stroke-linecap:butt;stroke-linejoin:miter;stroke-opacity:1" d="M 439.609,940.559 455.449,954.419 z" id="boundary" inkscape:connector-curvature="0" />
	<path style="fill:none;stroke:red;stroke-width:1px;stroke-linecap:butt;stroke-linejoin:miter;stroke-opacity:1" d="M 449.509,544.551 449.509,564.351 z" id="boundary" inkscape:connector-curvature="0" />
	<path style="fill:none;stroke:red;stroke-width:1px;stroke-linecap:butt;stroke-linejoin:miter;stroke-opacity:1" d="M 449.509,564.351 459.409,582.172 z" id="boundary" inkscape:connector-curvature="0" />
	<path style="fill:none;stroke:red;stroke-width:1px;stroke-linecap:butt;stroke-linejoin:miter;stroke-opacity:1" d="M 449.509,900.958 459.409,881.158 z" id="boundary" inkscape:connector-curvature="0" />
	<path style="fill:none;stroke:red;stroke-width:1px;stroke-linecap:butt;stroke-linejoin:miter;stroke-opacity:1" d="M 455.449,954.419 475.25,954.419 z" id="boundary" inkscape:connector-curvature="0" />
	<path style="fill:none;stroke:red;stroke-width:1px;stroke-linecap:butt;stroke-linejoin:miter;stroke-opacity:1" d="M 459.409,205.964 479.21,211.904 z" id="boundary" inkscape:connector-curvature="0" />
	<path style="fill:none;stroke:red;stroke-width:1px;stroke-linecap:butt;stroke-linejoin:miter;stroke-opacity:1" d="M 459.409,582.172 459.409,601.972 z" id="boundary" inkscape:connector-curvature="0" />
	<path style="fill:none;stroke:red;stroke-width:1px;stroke-linecap:butt;stroke-linejoin:miter;stroke-opacity:1" d="M 459.409,601.972 459.409,621.772 z" id="boundary" inkscape:connector-curvature="0" />
	<path style="fill:none;stroke:red;stroke-width:1px;stroke-linecap:butt;stroke-linejoin:miter;stroke-opacity:1" d="M 459.409,621.772 459.409,641.573 z" id="boundary" inkscape:connector-curvature="0" />
	<path style="fill:none;stroke:red;stroke-width:1px;stroke-linecap:butt;stroke-linejoin:miter;stroke-opacity:1" d="M 459.409,641.573 469.309,659.393 z" id="boundary" inkscape:connector-curvature="0" />
	<path style="fill:none;stroke:red;stroke-width:1px;stroke-linecap:butt;stroke-linejoin:miter;stroke-opacity:1" d="M 459.409,861.357 459.409,881.158 z" id="boundary" inkscape:connector-curvature="0" />
	<path style="fill:none;stroke:red;stroke-width:1px;stroke-linecap:butt;stroke-linejoin:miter;stroke-opacity:1" d="M 459.409,861.357 469.309,837.597 z" id="boundary" inkscape:connector-curvature="0" />
	<path style="fill:none;stroke:red;stroke-width:1px;stroke-linecap:butt;stroke-linejoin:miter;stroke-opacity:1" d="M 469.309,659.393 469.309,679.194 z" id="boundary" inkscape:connector-curvature="0" />
	<path style="fill:none;stroke:red;stroke-width:1px;stroke-linecap:butt;stroke-linejoin:miter;stroke-opacity:1" d="M 469.309,679.194 469.309,698.994 z" id="boundary" inkscape:connector-curvature="0" />
	<path style="fill:none;stroke:red;stroke-width:1px;stroke-linecap:butt;stroke-linejoin:miter;stroke-opacity:1" d="M 469.309,698.994 469.309,718.794 z" id="boundary" inkscape:connector-curvature="0" />
	<path style="fill:none;stroke:red;stroke-width:1px;stroke-linecap:butt;stroke-linejoin:miter;stroke-opacity:1" d="M 469.309,718.794 469.309,738.595 z" id="boundary" inkscape:connector-curvature="0" />
	<path style="fill:none;stroke:red;stroke-width:1px;stroke-linecap:butt;stroke-linejoin:miter;stroke-opacity:1" d="M 469.309,738.595 469.309,758.395 z" id="boundary" inkscape:connector-curvature="0" />
	<path style="fill:none;stroke:red;stroke-width:1px;stroke-linecap:butt;stroke-linejoin:miter;stroke-opacity:1" d="M 469.309,758.395 469.309,778.196 z" id="boundary" inkscape:connector-curvature="0" />
	<path style="fill:none;stroke:red;stroke-width:1px;stroke-linecap:butt;stroke-linejoin:miter;stroke-opacity:1" d="M 469.309,778.196 469.309,797.996 z" id="boundary" inkscape:connector-curvature="0" />
	<path style="fill:none;stroke:red;stroke-width:1px;stroke-linecap:butt;stroke-linejoin:miter;stroke-opacity:1" d="M 469.309,797.996 469.309,817.796 z" id="boundary" inkscape:connector-curvature="0" />
	<path style="fill:none;stroke:red;stroke-width:1px;stroke-linecap:butt;stroke-linejoin:miter;stroke-opacity:1" d="M 469.309,817.796 469.309,837.597 z" id="boundary" inkscape:connector-curvature="0" />
	<path style="fill:none;stroke:red;stroke-width:1px;stroke-linecap:butt;stroke-linejoin:miter;stroke-opacity:1" d="M 475.25,954.419 495.05,944.519 z" id="boundary" inkscape:connector-curvature="0" />
	<path style="fill:none;stroke:red;stroke-width:1px;stroke-linecap:butt;stroke-linejoin:miter;stroke-opacity:1" d="M 479.21,211.904 499.01,211.904 z" id="boundary" inkscape:connector-curvature="0" />
	<path style="fill:none;stroke:red;stroke-width:1px;stroke-linecap:butt;stroke-linejoin:miter;stroke-opacity:1" d="M 495.05,944.519 510.89,926.699 z" id="boundary" inkscape:connector-curvature="0" />
	<path style="fill:none;stroke:red;stroke-width:1px;stroke-linecap:butt;stroke-linejoin:miter;stroke-opacity:1" d="M 499.01,211.904 518.81,211.904 z" id="boundary" inkscape:connector-curvature="0" />
	<path style="fill:none;stroke:red;stroke-width:1px;stroke-linecap:butt;stroke-linejoin:miter;stroke-opacity:1" d="M 510.89,926.699 538.611,930.659 z" id="boundary" inkscape:connector-curvature="0" />
	<path style="fill:none;stroke:red;stroke-width:1px;stroke-linecap:butt;stroke-linejoin:miter;stroke-opacity:1" d="M 518.81,211.904 536.631,221.804 z" id="boundary" inkscape:connector-curvature="0" />
	<path style="fill:none;stroke:red;stroke-width:1px;stroke-linecap:butt;stroke-linejoin:miter;stroke-opacity:1" d="M 518.81,970.259 528.711,950.459 z" id="boundary" inkscape:connector-curvature="0" />
	<path style="fill:none;stroke:red;stroke-width:1px;stroke-linecap:butt;stroke-linejoin:miter;stroke-opacity:1" d="M 518.81,970.259 538.611,976.2 z" id="boundary" inkscape:connector-curvature="0" />
	<path style="fill:none;stroke:red;stroke-width:1px;stroke-linecap:butt;stroke-linejoin:miter;stroke-opacity:1" d="M 520.79,857.397 520.79,877.198 z" id="boundary" inkscape:connector-curvature="0" />
	<path style="fill:none;stroke:red;stroke-width:1px;stroke-linecap:butt;stroke-linejoin:miter;stroke-opacity:1" d="M 520.79,877.198 520.79,896.998 z" id="boundary" inkscape:connector-curvature="0" />
	<path style="fill:none;stroke:red;stroke-width:1px;stroke-linecap:butt;stroke-linejoin:miter;stroke-opacity:1" d="M 520.79,896.998 548.511,900.958 z" id="boundary" inkscape:connector-curvature="0" />
	<path style="fill:none;stroke:red;stroke-width:1px;stroke-linecap:butt;stroke-linejoin:miter;stroke-opacity:1" d="M 528.711,950.459 538.611,930.659 z" id="boundary" inkscape:connector-curvature="0" />
	<path style="fill:none;stroke:red;stroke-width:1px;stroke-linecap:butt;stroke-linejoin:miter;stroke-opacity:1" d="M 530.691,689.094 530.691,708.894 z" id="boundary" inkscape:connector-curvature="0" />
	<path style="fill:none;stroke:red;stroke-width:1px;stroke-linecap:butt;stroke-linejoin:miter;stroke-opacity:1" d="M 530.691,689.094 540.591,669.293 z" id="boundary" inkscape:connector-curvature="0" />
	<path style="fill:none;stroke:red;stroke-width:1px;stroke-linecap:butt;stroke-linejoin:miter;stroke-opacity:1" d="M 530.691,708.894 530.691,728.695 z" id="boundary" inkscape:connector-curvature="0" />
	<path style="fill:none;stroke:red;stroke-width:1px;stroke-linecap:butt;stroke-linejoin:miter;stroke-opacity:1" d="M 530.691,728.695 530.691,748.495 z" id="boundary" inkscape:connector-curvature="0" />
	<path style="fill:none;stroke:red;stroke-width:1px;stroke-linecap:butt;stroke-linejoin:miter;stroke-opacity:1" d="M 530.691,748.495 530.691,768.295 z" id="boundary" inkscape:connector-curvature="0" />
	<path style="fill:none;stroke:red;stroke-width:1px;stroke-linecap:butt;stroke-linejoin:miter;stroke-opacity:1" d="M 530.691,768.295 530.691,788.096 z" id="boundary" inkscape:connector-curvature="0" />
	<path style="fill:none;stroke:red;stroke-width:1px;stroke-linecap:butt;stroke-linejoin:miter;stroke-opacity:1" d="M 530.691,788.096 530.691,807.896 z" id="boundary" inkscape:connector-curvature="0" />
	<path style="fill:none;stroke:red;stroke-width:1px;stroke-linecap:butt;stroke-linejoin:miter;stroke-opacity:1" d="M 530.691,807.896 530.691,827.697 z" id="boundary" inkscape:connector-curvature="0" />
	<path style="fill:none;stroke:red;stroke-width:1px;stroke-linecap:butt;stroke-linejoin:miter;stroke-opacity:1" d="M 536.631,221.804 556.431,223.784 z" id="boundary" inkscape:connector-curvature="0" />
	<path style="fill:none;stroke:red;stroke-width:1px;stroke-linecap:butt;stroke-linejoin:miter;stroke-opacity:1" d="M 538.611,976.2 558.411,976.2 z" id="boundary" inkscape:connector-curvature="0" />
	<path style="fill:none;stroke:red;stroke-width:1px;stroke-linecap:butt;stroke-linejoin:miter;stroke-opacity:1" d="M 540.591,649.493 540.591,669.293 z" id="boundary" inkscape:connector-curvature="0" />
	<path style="fill:none;stroke:red;stroke-width:1px;stroke-linecap:butt;stroke-linejoin:miter;stroke-opacity:1" d="M 548.511,698.994 548.511,718.794 z" id="boundary" inkscape:connector-curvature="0" />
	<path style="fill:none;stroke:red;stroke-width:1px;stroke-linecap:butt;stroke-linejoin:miter;stroke-opacity:1" d="M 548.511,861.357 548.511,881.158 z" id="boundary" inkscape:connector-curvature="0" />
	<path style="fill:none;stroke:red;stroke-width:1px;stroke-linecap:butt;stroke-linejoin:miter;stroke-opacity:1" d="M 548.511,861.357 558.411,835.617 z" id="boundary" inkscape:connector-curvature="0" />
	<path style="fill:none;stroke:red;stroke-width:1px;stroke-linecap:butt;stroke-linejoin:miter;stroke-opacity:1" d="M 548.511,881.158 548.511,900.958 z" id="boundary" inkscape:connector-curvature="0" />
	<path style="fill:none;stroke:red;stroke-width:1px;stroke-linecap:butt;stroke-linejoin:miter;stroke-opacity:1" d="M 556.431,223.784 576.232,231.705 z" id="boundary" inkscape:connector-curvature="0" />
	<path style="fill:none;stroke:red;stroke-width:1px;stroke-linecap:butt;stroke-linejoin:miter;stroke-opacity:1" d="M 558.411,736.615 558.411,756.415 z" id="boundary" inkscape:connector-curvature="0" />
	<path style="fill:none;stroke:red;stroke-width:1px;stroke-linecap:butt;stroke-linejoin:miter;stroke-opacity:1" d="M 558.411,756.415 558.411,776.216 z" id="boundary" inkscape:connector-curvature="0" />
	<path style="fill:none;stroke:red;stroke-width:1px;stroke-linecap:butt;stroke-linejoin:miter;stroke-opacity:1" d="M 558.411,776.216 558.411,796.016 z" id="boundary" inkscape:connector-curvature="0" />
	<path style="fill:none;stroke:red;stroke-width:1px;stroke-linecap:butt;stroke-linejoin:miter;stroke-opacity:1" d="M 558.411,796.016 558.411,815.816 z" id="boundary" inkscape:connector-curvature="0" />
	<path style="fill:none;stroke:red;stroke-width:1px;stroke-linecap:butt;stroke-linejoin:miter;stroke-opacity:1" d="M 558.411,815.816 558.411,835.617 z" id="boundary" inkscape:connector-curvature="0" />
	<path style="fill:none;stroke:red;stroke-width:1px;stroke-linecap:butt;stroke-linejoin:miter;stroke-opacity:1" d="M 558.411,976.2 578.212,976.2 z" id="boundary" inkscape:connector-curvature="0" />
	<path style="fill:none;stroke:red;stroke-width:1px;stroke-linecap:butt;stroke-linejoin:miter;stroke-opacity:1" d="M 576.232,231.705 596.032,233.685 z" id="boundary" inkscape:connector-curvature="0" />
	<path style="fill:none;stroke:red;stroke-width:1px;stroke-linecap:butt;stroke-linejoin:miter;stroke-opacity:1" d="M 578.212,976.2 598.012,976.2 z" id="boundary" inkscape:connector-curvature="0" />
	<path style="fill:none;stroke:red;stroke-width:1px;stroke-linecap:butt;stroke-linejoin:miter;stroke-opacity:1" d="M 596.032,233.685 615.832,241.605 z" id="boundary" inkscape:connector-curvature="0" />
	<path style="fill:none;stroke:red;stroke-width:1px;stroke-linecap:butt;stroke-linejoin:miter;stroke-opacity:1" d="M 598.012,976.2 617.812,970.259 z" id="boundary" inkscape:connector-curvature="0" />
	<path style="fill:none;stroke:red;stroke-width:1px;stroke-linecap:butt;stroke-linejoin:miter;stroke-opacity:1" d="M 615.832,241.605 635.633,243.585 z" id="boundary" inkscape:connector-curvature="0" />
	<path style="fill:none;stroke:red;stroke-width:1px;stroke-linecap:butt;stroke-linejoin:miter;stroke-opacity:1" d="M 617.812,970.259 619.792,946.499 z" id="boundary" inkscape:connector-curvature="0" />
	<path style="fill:none;stroke:red;stroke-width:1px;stroke-linecap:butt;stroke-linejoin:miter;stroke-opacity:1" d="M 619.792,629.693 619.792,649.493 z" id="boundary" inkscape:connector-curvature="0" />
	<path style="fill:none;stroke:red;stroke-width:1px;stroke-linecap:butt;stroke-linejoin:miter;stroke-opacity:1" d="M 619.792,629.693 629.693,599.992 z" id="boundary" inkscape:connector-curvature="0" />
	<path style="fill:none;stroke:red;stroke-width:1px;stroke-linecap:butt;stroke-linejoin:miter;stroke-opacity:1" d="M 619.792,649.493 619.792,669.293 z" id="boundary" inkscape:connector-curvature="0" />
	<path style="fill:none;stroke:red;stroke-width:1px;stroke-linecap:butt;stroke-linejoin:miter;stroke-opacity:1" d="M 619.792,669.293 619.792,689.094 z" id="boundary" inkscape:connector-curvature="0" />
	<path style="fill:none;stroke:red;stroke-width:1px;stroke-linecap:butt;stroke-linejoin:miter;stroke-opacity:1" d="M 619.792,689.094 619.792,708.894 z" id="boundary" inkscape:connector-curvature="0" />
	<path style="fill:none;stroke:red;stroke-width:1px;stroke-linecap:butt;stroke-linejoin:miter;stroke-opacity:1" d="M 619.792,708.894 619.792,728.695 z" id="boundary" inkscape:connector-curvature="0" />
	<path style="fill:none;stroke:red;stroke-width:1px;stroke-linecap:butt;stroke-linejoin:miter;stroke-opacity:1" d="M 619.792,728.695 619.792,748.495 z" id="boundary" inkscape:connector-curvature="0" />
	<path style="fill:none;stroke:red;stroke-width:1px;stroke-linecap:butt;stroke-linejoin:miter;stroke-opacity:1" d="M 619.792,748.495 619.792,768.295 z" id="boundary" inkscape:connector-curvature="0" />
	<path style="fill:none;stroke:red;stroke-width:1px;stroke-linecap:butt;stroke-linejoin:miter;stroke-opacity:1" d="M 619.792,768.295 619.792,788.096 z" id="boundary" inkscape:connector-curvature="0" />
	<path style="fill:none;stroke:red;stroke-width:1px;stroke-linecap:butt;stroke-linejoin:miter;stroke-opacity:1" d="M 619.792,788.096 619.792,807.896 z" id="boundary" inkscape:connector-curvature="0" />
	<path style="fill:none;stroke:red;stroke-width:1px;stroke-linecap:butt;stroke-linejoin:miter;stroke-opacity:1" d="M 619.792,807.896 619.792,827.697 z" id="boundary" inkscape:connector-curvature="0" />
	<path style="fill:none;stroke:red;stroke-width:1px;stroke-linecap:butt;stroke-linejoin:miter;stroke-opacity:1" d="M 619.792,827.697 619.792,847.497 z" id="boundary" inkscape:connector-curvature="0" />
	<path style="fill:none;stroke:red;stroke-width:1px;stroke-linecap:butt;stroke-linejoin:miter;stroke-opacity:1" d="M 619.792,847.497 619.792,867.297 z" id="boundary" inkscape:connector-curvature="0" />
	<path style="fill:none;stroke:red;stroke-width:1px;stroke-linecap:butt;stroke-linejoin:miter;stroke-opacity:1" d="M 619.792,867.297 619.792,887.098 z" id="boundary" inkscape:connector-curvature="0" />
	<path style="fill:none;stroke:red;stroke-width:1px;stroke-linecap:butt;stroke-linejoin:miter;stroke-opacity:1" d="M 619.792,887.098 619.792,906.898 z" id="boundary" inkscape:connector-curvature="0" />
	<path style="fill:none;stroke:red;stroke-width:1px;stroke-linecap:butt;stroke-linejoin:miter;stroke-opacity:1" d="M 619.792,906.898 619.792,926.699 z" id="boundary" inkscape:connector-curvature="0" />
	<path style="fill:none;stroke:red;stroke-width:1px;stroke-linecap:butt;stroke-linejoin:miter;stroke-opacity:1" d="M 619.792,926.699 619.792,946.499 z" id="boundary" inkscape:connector-curvature="0" />
	<path style="fill:none;stroke:red;stroke-width:1px;stroke-linecap:butt;stroke-linejoin:miter;stroke-opacity:1" d="M 629.693,599.992 639.593,570.291 z" id="boundary" inkscape:connector-curvature="0" />
	<path style="fill:none;stroke:red;stroke-width:1px;stroke-linecap:butt;stroke-linejoin:miter;stroke-opacity:1" d="M 635.633,243.585 655.433,251.505 z" id="boundary" inkscape:connector-curvature="0" />
	<path style="fill:none;stroke:red;stroke-width:1px;stroke-linecap:butt;stroke-linejoin:miter;stroke-opacity:1" d="M 639.593,570.291 659.393,570.291 z" id="boundary" inkscape:connector-curvature="0" />
	<path style="fill:none;stroke:red;stroke-width:1px;stroke-linecap:butt;stroke-linejoin:miter;stroke-opacity:1" d="M 655.433,251.505 675.234,251.505 z" id="boundary" inkscape:connector-curvature="0" />
	<path style="fill:none;stroke:red;stroke-width:1px;stroke-linecap:butt;stroke-linejoin:miter;stroke-opacity:1" d="M 659.393,570.291 677.214,560.391 z" id="boundary" inkscape:connector-curvature="0" />
	<path style="fill:none;stroke:red;stroke-width:1px;stroke-linecap:butt;stroke-linejoin:miter;stroke-opacity:1" d="M 675.234,251.505 695.034,251.505 z" id="boundary" inkscape:connector-curvature="0" />
	<path style="fill:none;stroke:red;stroke-width:1px;stroke-linecap:butt;stroke-linejoin:miter;stroke-opacity:1" d="M 677.214,560.391 697.014,554.451 z" id="boundary" inkscape:connector-curvature="0" />
	<path style="fill:none;stroke:red;stroke-width:1px;stroke-linecap:butt;stroke-linejoin:miter;stroke-opacity:1" d="M 695.034,251.505 714.834,251.505 z" id="boundary" inkscape:connector-curvature="0" />
	<path style="fill:none;stroke:red;stroke-width:1px;stroke-linecap:butt;stroke-linejoin:miter;stroke-opacity:1" d="M 697.014,554.451 716.814,550.491 z" id="boundary" inkscape:connector-curvature="0" />
	<path style="fill:none;stroke:red;stroke-width:1px;stroke-linecap:butt;stroke-linejoin:miter;stroke-opacity:1" d="M 714.834,251.505 734.635,251.505 z" id="boundary" inkscape:connector-curvature="0" />
	<path style="fill:none;stroke:red;stroke-width:1px;stroke-linecap:butt;stroke-linejoin:miter;stroke-opacity:1" d="M 716.814,550.491 736.615,544.551 z" id="boundary" inkscape:connector-curvature="0" />
	<path style="fill:none;stroke:red;stroke-width:1px;stroke-linecap:butt;stroke-linejoin:miter;stroke-opacity:1" d="M 734.635,251.505 754.435,251.505 z" id="boundary" inkscape:connector-curvature="0" />
	<path style="fill:none;stroke:red;stroke-width:1px;stroke-linecap:butt;stroke-linejoin:miter;stroke-opacity:1" d="M 736.615,544.551 756.415,550.491 z" id="boundary" inkscape:connector-curvature="0" />
	<path style="fill:none;stroke:red;stroke-width:1px;stroke-linecap:butt;stroke-linejoin:miter;stroke-opacity:1" d="M 754.435,251.505 774.236,251.505 z" id="boundary" inkscape:connector-curvature="0" />
	<path style="fill:none;stroke:red;stroke-width:1px;stroke-linecap:butt;stroke-linejoin:miter;stroke-opacity:1" d="M 756.415,550.491 768.295,566.331 z" id="boundary" inkscape:connector-curvature="0" />
	<path style="fill:none;stroke:red;stroke-width:1px;stroke-linecap:butt;stroke-linejoin:miter;stroke-opacity:1" d="M 768.295,566.331 784.136,580.192 z" id="boundary" inkscape:connector-curvature="0" />
	<path style="fill:none;stroke:red;stroke-width:1px;stroke-linecap:butt;stroke-linejoin:miter;stroke-opacity:1" d="M 774.236,251.505 794.036,251.505 z" id="boundary" inkscape:connector-curvature="0" />
	<path style="fill:none;stroke:red;stroke-width:1px;stroke-linecap:butt;stroke-linejoin:miter;stroke-opacity:1" d="M 784.136,580.192 797.996,596.032 z" id="boundary" inkscape:connector-curvature="0" />
	<path style="fill:none;stroke:red;stroke-width:1px;stroke-linecap:butt;stroke-linejoin:miter;stroke-opacity:1" d="M 794.036,251.505 811.856,241.605 z" id="boundary" inkscape:connector-curvature="0" />
	<path style="fill:none;stroke:red;stroke-width:1px;stroke-linecap:butt;stroke-linejoin:miter;stroke-opacity:1" d="M 796.016,841.557 805.916,821.756 z" id="boundary" inkscape:connector-curvature="0" />
	<path style="fill:none;stroke:red;stroke-width:1px;stroke-linecap:butt;stroke-linejoin:miter;stroke-opacity:1" d="M 796.016,841.557 815.816,847.497 z" id="boundary" inkscape:connector-curvature="0" />
	<path style="fill:none;stroke:red;stroke-width:1px;stroke-linecap:butt;stroke-linejoin:miter;stroke-opacity:1" d="M 797.996,596.032 807.896,613.852 z" id="boundary" inkscape:connector-curvature="0" />
	<path style="fill:none;stroke:red;stroke-width:1px;stroke-linecap:butt;stroke-linejoin:miter;stroke-opacity:1" d="M 805.916,821.756 815.816,792.056 z" id="boundary" inkscape:connector-curvature="0" />
	<path style="fill:none;stroke:red;stroke-width:1px;stroke-linecap:butt;stroke-linejoin:miter;stroke-opacity:1" d="M 807.896,613.852 821.756,629.693 z" id="boundary" inkscape:connector-curvature="0" />
	<path style="fill:none;stroke:red;stroke-width:1px;stroke-linecap:butt;stroke-linejoin:miter;stroke-opacity:1" d="M 811.856,241.605 831.657,241.605 z" id="boundary" inkscape:connector-curvature="0" />
	<path style="fill:none;stroke:red;stroke-width:1px;stroke-linecap:butt;stroke-linejoin:miter;stroke-opacity:1" d="M 815.816,792.056 825.717,772.255 z" id="boundary" inkscape:connector-curvature="0" />
	<path style="fill:none;stroke:red;stroke-width:1px;stroke-linecap:butt;stroke-linejoin:miter;stroke-opacity:1" d="M 815.816,847.497 835.617,847.497 z" id="boundary" inkscape:connector-curvature="0" />
	<path style="fill:none;stroke:red;stroke-width:1px;stroke-linecap:butt;stroke-linejoin:miter;stroke-opacity:1" d="M 821.756,629.693 831.657,647.513 z" id="boundary" inkscape:connector-curvature="0" />
	<path style="fill:none;stroke:red;stroke-width:1px;stroke-linecap:butt;stroke-linejoin:miter;stroke-opacity:1" d="M 825.717,772.255 835.617,746.515 z" id="boundary" inkscape:connector-curvature="0" />
	<path style="fill:none;stroke:red;stroke-width:1px;stroke-linecap:butt;stroke-linejoin:miter;stroke-opacity:1" d="M 831.657,241.605 851.457,241.605 z" id="boundary" inkscape:connector-curvature="0" />
	<path style="fill:none;stroke:red;stroke-width:1px;stroke-linecap:butt;stroke-linejoin:miter;stroke-opacity:1" d="M 831.657,647.513 835.617,667.313 z" id="boundary" inkscape:connector-curvature="0" />
	<path style="fill:none;stroke:red;stroke-width:1px;stroke-linecap:butt;stroke-linejoin:miter;stroke-opacity:1" d="M 835.617,667.313 835.617,687.114 z" id="boundary" inkscape:connector-curvature="0" />
	<path style="fill:none;stroke:red;stroke-width:1px;stroke-linecap:butt;stroke-linejoin:miter;stroke-opacity:1" d="M 835.617,687.114 835.617,706.914 z" id="boundary" inkscape:connector-curvature="0" />
	<path style="fill:none;stroke:red;stroke-width:1px;stroke-linecap:butt;stroke-linejoin:miter;stroke-opacity:1" d="M 835.617,706.914 835.617,726.715 z" id="boundary" inkscape:connector-curvature="0" />
	<path style="fill:none;stroke:red;stroke-width:1px;stroke-linecap:butt;stroke-linejoin:miter;stroke-opacity:1" d="M 835.617,726.715 835.617,746.515 z" id="boundary" inkscape:connector-curvature="0" />
	<path style="fill:none;stroke:red;stroke-width:1px;stroke-linecap:butt;stroke-linejoin:miter;stroke-opacity:1" d="M 835.617,847.497 855.417,841.557 z" id="boundary" inkscape:connector-curvature="0" />
	<path style="fill:none;stroke:red;stroke-width:1px;stroke-linecap:butt;stroke-linejoin:miter;stroke-opacity:1" d="M 851.457,241.605 871.257,241.605 z" id="boundary" inkscape:connector-curvature="0" />
	<path style="fill:none;stroke:red;stroke-width:1px;stroke-linecap:butt;stroke-linejoin:miter;stroke-opacity:1" d="M 867.297,807.896 885.118,831.657 z" id="boundary" inkscape:connector-curvature="0" />
	<path style="fill:none;stroke:red;stroke-width:1px;stroke-linecap:butt;stroke-linejoin:miter;stroke-opacity:1" d="M 867.297,807.896 895.018,801.956 z" id="boundary" inkscape:connector-curvature="0" />
	<path style="fill:none;stroke:red;stroke-width:1px;stroke-linecap:butt;stroke-linejoin:miter;stroke-opacity:1" d="M 871.257,241.605 889.078,251.505 z" id="boundary" inkscape:connector-curvature="0" />
	<path style="fill:none;stroke:red;stroke-width:1px;stroke-linecap:butt;stroke-linejoin:miter;stroke-opacity:1" d="M 875.218,851.457 885.118,831.657 z" id="boundary" inkscape:connector-curvature="0" />
	<path style="fill:none;stroke:red;stroke-width:1px;stroke-linecap:butt;stroke-linejoin:miter;stroke-opacity:1" d="M 875.218,851.457 887.098,867.297 z" id="boundary" inkscape:connector-curvature="0" />
	<path style="fill:none;stroke:red;stroke-width:1px;stroke-linecap:butt;stroke-linejoin:miter;stroke-opacity:1" d="M 877.198,778.196 904.918,782.156 z" id="boundary" inkscape:connector-curvature="0" />
	<path style="fill:none;stroke:red;stroke-width:1px;stroke-linecap:butt;stroke-linejoin:miter;stroke-opacity:1" d="M 887.098,689.094 887.098,708.894 z" id="boundary" inkscape:connector-curvature="0" />
	<path style="fill:none;stroke:red;stroke-width:1px;stroke-linecap:butt;stroke-linejoin:miter;stroke-opacity:1" d="M 887.098,689.094 906.898,689.094 z" id="boundary" inkscape:connector-curvature="0" />
	<path style="fill:none;stroke:red;stroke-width:1px;stroke-linecap:butt;stroke-linejoin:miter;stroke-opacity:1" d="M 887.098,708.894 887.098,728.695 z" id="boundary" inkscape:connector-curvature="0" />
	<path style="fill:none;stroke:red;stroke-width:1px;stroke-linecap:butt;stroke-linejoin:miter;stroke-opacity:1" d="M 887.098,728.695 887.098,748.495 z" id="boundary" inkscape:connector-curvature="0" />
	<path style="fill:none;stroke:red;stroke-width:1px;stroke-linecap:butt;stroke-linejoin:miter;stroke-opacity:1" d="M 887.098,748.495 914.818,748.495 z" id="boundary" inkscape:connector-curvature="0" />
	<path style="fill:none;stroke:red;stroke-width:1px;stroke-linecap:butt;stroke-linejoin:miter;stroke-opacity:1" d="M 887.098,867.297 906.898,867.297 z" id="boundary" inkscape:connector-curvature="0" />
	<path style="fill:none;stroke:red;stroke-width:1px;stroke-linecap:butt;stroke-linejoin:miter;stroke-opacity:1" d="M 889.078,251.505 908.878,251.505 z" id="boundary" inkscape:connector-curvature="0" />
	<path style="fill:none;stroke:red;stroke-width:1px;stroke-linecap:butt;stroke-linejoin:miter;stroke-opacity:1" d="M 895.018,801.956 904.918,782.156 z" id="boundary" inkscape:connector-curvature="0" />
	<path style="fill:none;stroke:red;stroke-width:1px;stroke-linecap:butt;stroke-linejoin:miter;stroke-opacity:1" d="M 906.898,689.094 914.818,708.894 z" id="boundary" inkscape:connector-curvature="0" />
	<path style="fill:none;stroke:red;stroke-width:1px;stroke-linecap:butt;stroke-linejoin:miter;stroke-opacity:1" d="M 906.898,867.297 926.699,867.297 z" id="boundary" inkscape:connector-curvature="0" />
	<path style="fill:none;stroke:red;stroke-width:1px;stroke-linecap:butt;stroke-linejoin:miter;stroke-opacity:1" d="M 908.878,251.505 926.699,261.405 z" id="boundary" inkscape:connector-curvature="0" />
	<path style="fill:none;stroke:red;stroke-width:1px;stroke-linecap:butt;stroke-linejoin:miter;stroke-opacity:1" d="M 914.818,708.894 914.818,728.695 z" id="boundary" inkscape:connector-curvature="0" />
	<path style="fill:none;stroke:red;stroke-width:1px;stroke-linecap:butt;stroke-linejoin:miter;stroke-opacity:1" d="M 914.818,728.695 914.818,748.495 z" id="boundary" inkscape:connector-curvature="0" />
	<path style="fill:none;stroke:red;stroke-width:1px;stroke-linecap:butt;stroke-linejoin:miter;stroke-opacity:1" d="M 926.699,261.405 942.539,273.285 z" id="boundary" inkscape:connector-curvature="0" />
	<path style="fill:none;stroke:red;stroke-width:1px;stroke-linecap:butt;stroke-linejoin:miter;stroke-opacity:1" d="M 926.699,867.297 944.519,857.397 z" id="boundary" inkscape:connector-curvature="0" />
	<path style="fill:none;stroke:red;stroke-width:1px;stroke-linecap:butt;stroke-linejoin:miter;stroke-opacity:1" d="M 942.539,273.285 956.399,289.126 z" id="boundary" inkscape:connector-curvature="0" />
	<path style="fill:none;stroke:red;stroke-width:1px;stroke-linecap:butt;stroke-linejoin:miter;stroke-opacity:1" d="M 944.519,857.397 956.399,827.697 z" id="boundary" inkscape:connector-curvature="0" />
	<path style="fill:none;stroke:red;stroke-width:1px;stroke-linecap:butt;stroke-linejoin:miter;stroke-opacity:1" d="M 956.399,289.126 972.24,302.986 z" id="boundary" inkscape:connector-curvature="0" />
	<path style="fill:none;stroke:red;stroke-width:1px;stroke-linecap:butt;stroke-linejoin:miter;stroke-opacity:1" d="M 956.399,530.691 956.399,550.491 z" id="boundary" inkscape:connector-curvature="0" />
	<path style="fill:none;stroke:red;stroke-width:1px;stroke-linecap:butt;stroke-linejoin:miter;stroke-opacity:1" d="M 956.399,530.691 966.299,500.99 z" id="boundary" inkscape:connector-curvature="0" />
	<path style="fill:none;stroke:red;stroke-width:1px;stroke-linecap:butt;stroke-linejoin:miter;stroke-opacity:1" d="M 956.399,550.491 956.399,570.291 z" id="boundary" inkscape:connector-curvature="0" />
	<path style="fill:none;stroke:red;stroke-width:1px;stroke-linecap:butt;stroke-linejoin:miter;stroke-opacity:1" d="M 956.399,570.291 966.299,588.112 z" id="boundary" inkscape:connector-curvature="0" />
	<path style="fill:none;stroke:red;stroke-width:1px;stroke-linecap:butt;stroke-linejoin:miter;stroke-opacity:1" d="M 956.399,788.096 956.399,807.896 z" id="boundary" inkscape:connector-curvature="0" />
	<path style="fill:none;stroke:red;stroke-width:1px;stroke-linecap:butt;stroke-linejoin:miter;stroke-opacity:1" d="M 956.399,788.096 966.299,768.295 z" id="boundary" inkscape:connector-curvature="0" />
	<path style="fill:none;stroke:red;stroke-width:1px;stroke-linecap:butt;stroke-linejoin:miter;stroke-opacity:1" d="M 956.399,807.896 956.399,827.697 z" id="boundary" inkscape:connector-curvature="0" />
	<path style="fill:none;stroke:red;stroke-width:1px;stroke-linecap:butt;stroke-linejoin:miter;stroke-opacity:1" d="M 966.299,500.99 976.2,481.19 z" id="boundary" inkscape:connector-curvature="0" />
	<path style="fill:none;stroke:red;stroke-width:1px;stroke-linecap:butt;stroke-linejoin:miter;stroke-opacity:1" d="M 966.299,588.112 966.299,607.912 z" id="boundary" inkscape:connector-curvature="0" />
	<path style="fill:none;stroke:red;stroke-width:1px;stroke-linecap:butt;stroke-linejoin:miter;stroke-opacity:1" d="M 966.299,607.912 976.2,625.733 z" id="boundary" inkscape:connector-curvature="0" />
	<path style="fill:none;stroke:red;stroke-width:1px;stroke-linecap:butt;stroke-linejoin:miter;stroke-opacity:1" d="M 966.299,728.695 966.299,748.495 z" id="boundary" inkscape:connector-curvature="0" />
	<path style="fill:none;stroke:red;stroke-width:1px;stroke-linecap:butt;stroke-linejoin:miter;stroke-opacity:1" d="M 966.299,728.695 976.2,704.934 z" id="boundary" inkscape:connector-curvature="0" />
	<path style="fill:none;stroke:red;stroke-width:1px;stroke-linecap:butt;stroke-linejoin:miter;stroke-opacity:1" d="M 966.299,748.495 966.299,768.295 z" id="boundary" inkscape:connector-curvature="0" />
	<path style="fill:none;stroke:red;stroke-width:1px;stroke-linecap:butt;stroke-linejoin:miter;stroke-opacity:1" d="M 972.24,302.986 980.16,322.786 z" id="boundary" inkscape:connector-curvature="0" />
	<path style="fill:none;stroke:red;stroke-width:1px;stroke-linecap:butt;stroke-linejoin:miter;stroke-opacity:1" d="M 976.2,481.19 986.1,451.489 z" id="boundary" inkscape:connector-curvature="0" />
	<path style="fill:none;stroke:red;stroke-width:1px;stroke-linecap:butt;stroke-linejoin:miter;stroke-opacity:1" d="M 976.2,625.733 976.2,645.533 z" id="boundary" inkscape:connector-curvature="0" />
	<path style="fill:none;stroke:red;stroke-width:1px;stroke-linecap:butt;stroke-linejoin:miter;stroke-opacity:1" d="M 976.2,645.533 976.2,665.333 z" id="boundary" inkscape:connector-curvature="0" />
	<path style="fill:none;stroke:red;stroke-width:1px;stroke-linecap:butt;stroke-linejoin:miter;stroke-opacity:1" d="M 976.2,665.333 976.2,685.134 z" id="boundary" inkscape:connector-curvature="0" />
	<path style="fill:none;stroke:red;stroke-width:1px;stroke-linecap:butt;stroke-linejoin:miter;stroke-opacity:1" d="M 976.2,685.134 976.2,704.934 z" id="boundary" inkscape:connector-curvature="0" />
	<path style="fill:none;stroke:red;stroke-width:1px;stroke-linecap:butt;stroke-linejoin:miter;stroke-opacity:1" d="M 980.16,322.786 986.1,342.587 z" id="boundary" inkscape:connector-curvature="0" />
	<path style="fill:none;stroke:red;stroke-width:1px;stroke-linecap:butt;stroke-linejoin:miter;stroke-opacity:1" d="M 986.1,342.587 996,360.407 z" id="boundary" inkscape:connector-curvature="0" />
	<path style="fill:none;stroke:red;stroke-width:1px;stroke-linecap:butt;stroke-linejoin:miter;stroke-opacity:1" d="M 986.1,451.489 996,419.808 z" id="boundary" inkscape:connector-curvature="0" />
	<path style="fill:none;stroke:red;stroke-width:1px;stroke-linecap:butt;stroke-linejoin:miter;stroke-opacity:1" d="M 996,360.407 996,380.208 z" id="boundary" inkscape:connector-curvature="0" />
	<path style="fill:none;stroke:red;stroke-width:1px;stroke-linecap:butt;stroke-linejoin:miter;stroke-opacity:1" d="M 996,380.208 996,400.008 z" id="boundary" inkscape:connector-curvature="0" />
	<path style="fill:none;stroke:red;stroke-width:1px;stroke-linecap:butt;stroke-linejoin:miter;stroke-opacity:1" d="M 996,400.008 996,419.808 z" id="boundary" inkscape:connector-curvature="0" />
	<circle cx="4" cy="326.747" r="4" fill="#0" id="circle0"/>
	<circle cx="4" cy="346.547" r="4" fill="#0" id="circle1"/>
	<circle cx="4" cy="366.347" r="4" fill="#0" id="circle2"/>
	<circle cx="4" cy="386.148" r="4" fill="#0" id="circle3"/>
	<circle cx="4" cy="405.948" r="4" fill="#0" id="circle4"/>
	<circle cx="13.9002" cy="306.946" r="4" fill="#0" id="circle5"/>
	<circle cx="19.8403" cy="419.808" r="4" fill="#0" id="circle6"/>
	<circle cx="23.8004" cy="287.146" r="4" fill="#0" id="circle7"/>
	<circle cx="37.6607" cy="429.709" r="4" fill="#0" id="circle8"/>
	<circle cx="39.6407" cy="271.305" r="4" fill="#0" id="circle9"/>
	<circle cx="43.6008" cy="247.545" r="4" fill="#0" id="circle10"/>
	<circle cx="53.501" cy="227.745" r="4" fill="#0" id="circle11"/>
	<circle cx="53.501" cy="441.589" r="4" fill="#0" id="circle12"/>
	<circle cx="63.4012" cy="207.944" r="4" fill="#0" id="circle13"/>
	<circle cx="73.3014" cy="118.842" r="4" fill="#0" id="circle14"/>
	<circle cx="73.3014" cy="138.643" r="4" fill="#0" id="circle15"/>
	<circle cx="73.3014" cy="158.443" r="4" fill="#0" id="circle16"/>
	<circle cx="73.3014" cy="178.244" r="4" fill="#0" id="circle17"/>
	<circle cx="73.3014" cy="441.589" r="4" fill="#0" id="circle18"/>
	<circle cx="83.2016" cy="99.0419" r="4" fill="#0" id="circle19"/>
	<circle cx="93.1018" cy="441.589" r="4" fill="#0" id="circle20"/>
	<circle cx="99.0419" cy="83.2016" r="4" fill="#0" id="circle21"/>
	<circle cx="108.942" cy="429.709" r="4" fill="#0" id="circle22"/>
	<circle cx="114.882" cy="67.3613" r="4" fill="#0" id="circle23"/>
	<circle cx="118.842" cy="409.908" r="4" fill="#0" id="circle24"/>
	<circle cx="130.723" cy="53.501" r="4" fill="#0" id="circle25"/>
	<circle cx="134.683" cy="392.088" r="4" fill="#0" id="circle26"/>
	<circle cx="148.543" cy="43.6008" r="4" fill="#0" id="circle27"/>
	<circle cx="154.483" cy="382.188" r="4" fill="#0" id="circle28"/>
	<circle cx="168.343" cy="43.6008" r="4" fill="#0" id="circle29"/>
	<circle cx="172.303" cy="372.287" r="4" fill="#0" id="circle30"/>
	<circle cx="188.144" cy="33.7006" r="4" fill="#0" id="circle31"/>
	<circle cx="188.144" cy="360.407" r="4" fill="#0" id="circle32"/>
	<circle cx="207.944" cy="33.7006" r="4" fill="#0" id="circle33"/>
	<circle cx="207.944" cy="350.507" r="4" fill="#0" id="circle34"/>
	<circle cx="225.764" cy="23.8004" r="4" fill="#0" id="circle35"/>
	<circle cx="227.745" cy="342.587" r="4" fill="#0" id="circle36"/>
	<circle cx="243.585" cy="13.9002" r="4" fill="#0" id="circle37"/>
	<circle cx="243.585" cy="356.447" r="4" fill="#0" id="circle38"/>
	<circle cx="261.405" cy="4" r="4" fill="#0" id="circle39"/>
	<circle cx="261.405" cy="366.347" r="4" fill="#0" id="circle40"/>
	<circle cx="273.285" cy="95.0818" r="4" fill="#0" id="circle41"/>
	<circle cx="277.246" cy="380.208" r="4" fill="#0" id="circle42"/>
	<circle cx="281.206" cy="4" r="4" fill="#0" id="circle43"/>
	<circle cx="283.186" cy="112.902" r="4" fill="#0" id="circle44"/>
	<circle cx="291.106" cy="85.1816" r="4" fill="#0" id="circle45"/>
	<circle cx="293.086" cy="392.088" r="4" fill="#0" id="circle46"/>
	<circle cx="299.026" cy="124.782" r="4" fill="#0" id="circle47"/>
	<circle cx="301.006" cy="4" r="4" fill="#0" id="circle48"/>
	<circle cx="310.906" cy="79.2415" r="4" fill="#0" id="circle49"/>
	<circle cx="310.906" cy="401.988" r="4" fill="#0" id="circle50"/>
	<circle cx="312.886" cy="140.623" r="4" fill="#0" id="circle51"/>
	<circle cx="320.806" cy="4" r="4" fill="#0" id="circle52"/>
	<circle cx="328.727" cy="154.483" r="4" fill="#0" id="circle53"/>
	<circle cx="328.727" cy="411.888" r="4" fill="#0" id="circle54"/>
	<circle cx="330.707" cy="75.2814" r="4" fill="#0" id="circle55"/>
	<circle cx="340.607" cy="4" r="4" fill="#0" id="circle56"/>
	<circle cx="342.587" cy="427.729" r="4" fill="#0" id="circle57"/>
	<circle cx="346.547" cy="63.4012" r="4" fill="#0" id="circle58"/>
	<circle cx="348.527" cy="162.403" r="4" fill="#0" id="circle59"/>
	<circle cx="358.427" cy="441.589" r="4" fill="#0" id="circle60"/>
	<circle cx="360.407" cy="4" r="4" fill="#0" id="circle61"/>
	<circle cx="366.347" cy="53.501" r="4" fill="#0" id="circle62"/>
	<circle cx="366.347" cy="172.303" r="4" fill="#0" id="circle63"/>
	<circle cx="376.248" cy="451.489" r="4" fill="#0" id="circle64"/>
	<circle cx="380.208" cy="4" r="4" fill="#0" id="circle65"/>
	<circle cx="382.188" cy="35.6806" r="4" fill="#0" id="circle66"/>
	<circle cx="384.168" cy="182.204" r="4" fill="#0" id="circle67"/>
	<circle cx="392.088" cy="465.349" r="4" fill="#0" id="circle68"/>
	<circle cx="400.008" cy="7.96008" r="4" fill="#0" id="circle69"/>
	<circle cx="403.968" cy="182.204" r="4" fill="#0" id="circle70"/>
	<circle cx="405.948" cy="481.19" r="4" fill="#0" id="circle71"/>
	<circle cx="421.788" cy="192.104" r="4" fill="#0" id="circle72"/>
	<circle cx="425.749" cy="489.11" r="4" fill="#0" id="circle73"/>
	<circle cx="429.709" cy="508.91" r="4" fill="#0" id="circle74"/>
	<circle cx="439.609" cy="202.004" r="4" fill="#0" id="circle75"/>
	<circle cx="439.609" cy="526.731" r="4" fill="#0" id="circle76"/>
	<circle cx="439.609" cy="920.758" r="4" fill="#0" id="circle77"/>
	<circle cx="439.609" cy="940.559" r="4" fill="#0" id="circle78"/>
	<circle cx="449.509" cy="544.551" r="4" fill="#0" id="circle79"/>
	<circle cx="449.509" cy="564.351" r="4" fill="#0" id="circle80"/>
	<circle cx="449.509" cy="900.958" r="4" fill="#0" id="circle81"/>
	<circle cx="455.449" cy="954.419" r="4" fill="#0" id="circle82"/>
	<circle cx="459.409" cy="205.964" r="4" fill="#0" id="circle83"/>
	<circle cx="459.409" cy="582.172" r="4" fill="#0" id="circle84"/>
	<circle cx="459.409" cy="601.972" r="4" fill="#0" id="circle85"/>
	<circle cx="459.409" cy="621.772" r="4" fill="#0" id="circle86"/>
	<circle cx="459.409" cy="641.573" r="4" fill="#0" id="circle87"/>
	<circle cx="459.409" cy="861.357" r="4" fill="#0" id="circle88"/>
	<circle cx="459.409" cy="881.158" r="4" fill="#0" id="circle89"/>
	<circle cx="469.309" cy="659.393" r="4" fill="#0" id="circle90"/>
	<circle cx="469.309" cy="679.194" r="4" fill="#0" id="circle91"/>
	<circle cx="469.309" cy="698.994" r="4" fill="#0" id="circle92"/>
	<circle cx="469.309" cy="718.794" r="4" fill="#0" id="circle93"/>
	<circle cx="469.309" cy="738.595" r="4" fill="#0" id="circle94"/>
	<circle cx="469.309" cy="758.395" r="4" fill="#0" id="circle95"/>
	<circle cx="469.309" cy="778.196" r="4" fill="#0" id="circle96"/>
	<circle cx="469.309" cy="797.996" r="4" fill="#0" id="circle97"/>
	<circle cx="469.309" cy="817.796" r="4" fill="#0" id="circle98"/>
	<circle cx="469.309" cy="837.597" r="4" fill="#0" id="circle99"/>
	<circle cx="475.25" cy="954.419" r="4" fill="#0" id="circle100"/>
	<circle cx="479.21" cy="211.904" r="4" fill="#0" id="circle101"/>
	<circle cx="495.05" cy="944.519" r="4" fill="#0" id="circle102"/>
	<circle cx="499.01" cy="211.904" r="4" fill="#0" id="circle103"/>
	<circle cx="510.89" cy="926.699" r="4" fill="#0" id="circle104"/>
	<circle cx="518.81" cy="211.904" r="4" fill="#0" id="circle105"/>
	<circle cx="518.81" cy="970.259" r="4" fill="#0" id="circle106"/>
	<circle cx="520.79" cy="857.397" r="4" fill="#0" id="circle107"/>
	<circle cx="520.79" cy="877.198" r="4" fill="#0" id="circle108"/>
	<circle cx="520.79" cy="896.998" r="4" fill="#0" id="circle109"/>
	<circle cx="528.711" cy="950.459" r="4" fill="#0" id="circle110"/>
	<circle cx="530.691" cy="689.094" r="4" fill="#0" id="circle111"/>
	<circle cx="530.691" cy="708.894" r="4" fill="#0" id="circle112"/>
	<circle cx="530.691" cy="728.695" r="4" fill="#0" id="circle113"/>
	<circle cx="530.691" cy="748.495" r="4" fill="#0" id="circle114"/>
	<circle cx="530.691" cy="768.295" r="4" fill="#0" id="circle115"/>
	<circle cx="530.691" cy="788.096" r="4" fill="#0" id="circle116"/>
	<circle cx="530.691" cy="807.896" r="4" fill="#0" id="circle117"/>
	<circle cx="530.691" cy="827.697" r="4" fill="#0" id="circle118"/>
	<circle cx="536.631" cy="221.804" r="4" fill="#0" id="circle119"/>
	<circle cx="538.611" cy="930.659" r="4" fill="#0" id="circle120"/>
	<circle cx="538.611" cy="976.2" r="4" fill="#0" id="circle121"/>
	<circle cx="540.591" cy="649.493" r="4" fill="#0" id="circle122"/>
	<circle cx="540.591" cy="669.293" r="4" fill="#0" id="circle123"/>
	<circle cx="548.511" cy="698.994" r="4" fill="#0" id="circle124"/>
	<circle cx="548.511" cy="718.794" r="4" fill="#0" id="circle125"/>
	<circle cx="548.511" cy="861.357" r="4" fill="#0" id="circle126"/>
	<circle cx="548.511" cy="881.158" r="4" fill="#0" id="circle127"/>
	<circle cx="548.511" cy="900.958" r="4" fill="#0" id="circle128"/>
	<circle cx="556.431" cy="223.784" r="4" fill="#0" id="circle129"/>
	<circle cx="558.411" cy="736.615" r="4" fill="#0" id="circle130"/>
	<circle cx="558.411" cy="756.415" r="4" fill="#0" id="circle131"/>
	<circle cx="558.411" cy="776.216" r="4" fill="#0" id="circle132"/>
	<circle cx="558.411" cy="796.016" r="4" fill="#0" id="circle133"/>
	<circle cx="558.411" cy="815.816" r="4" fill="#0" id="circle134"/>
	<circle cx="558.411" cy="835.617" r="4" fill="#0" id="circle135"/>
	<circle cx="558.411" cy="976.2" r="4" fill="#0" id="circle136"/>
	<circle cx="576.232" cy="231.705" r="4" fill="#0" id="circle137"/>
	<circle cx="578.212" cy="976.2" r="4" fill="#0" id="circle138"/>
	<circle cx="596.032" cy="233.685" r="4" fill="#0" id="circle139"/>
	<circle cx="598.012" cy="976.2" r="4" fill="#0" id="circle140"/>
	<circle cx="615.832" cy="241.605" r="4" fill="#0" id="circle141"/>
	<circle cx="617.812" cy="970.259" r="4" fill="#0" id="circle142"/>
	<circle cx="619.792" cy="629.693" r="4" fill="#0" id="circle143"/>
	<circle cx="619.792" cy="649.493" r="4" fill="#0" id="circle144"/>
	<circle cx="619.792" cy="669.293" r="4" fill="#0" id="circle145"/>
	<circle cx="619.792" cy="689.094" r="4" fill="#0" id="circle146"/>
	<circle cx="619.792" cy="708.894" r="4" fill="#0" id="circle147"/>
	<circle cx="619.792" cy="728.695" r="4" fill="#0" id="circle148"/>
	<circle cx="619.792" cy="748.495" r="4" fill="#0" id="circle149"/>
	<circle cx="619.792" cy="768.295" r="4" fill="#0" id="circle150"/>
	<circle cx="619.792" cy="788.096" r="4" fill="#0" id="circle151"/>
	<circle cx="619.792" cy="807.896" r="4" fill="#0" id="circle152"/>
	<circle cx="619.792" cy="827.697" r="4" fill="#0" id="circle153"/>
	<circle cx="619.792" cy="847.497" r="4" fill="#0" id="circle154"/>
	<circle cx="619.792" cy="867.297" r="4" fill="#0" id="circle155"/>
	<circle cx="619.792" cy="887.098" r="4" fill="#0" id="circle156"/>
	<circle cx="619.792" cy="906.898" r="4" fill="#0" id="circle157"/>
	<circle cx="619.792" cy="926.699" r="4" fill="#0" id="circle158"/>
	<circle cx="619.792" cy="946.499" r="4" fill="#0" id="circle159"/>
	<circle cx="629.693" cy="599.992" r="4" fill="#0" id="circle160"/>
	<circle cx="635.633" cy="243.585" r="4" fill="#0" id="circle161"/>
	<circle cx="639.593" cy="570.291" r="4" fill="#0" id="circle162"/>
	<circle cx="655.433" cy="251.505" r="4" fill="#0" id="circle163"/>
	<circle cx="659.393" cy="570.291" r="4" fill="#0" id="circle164"/>
	<circle cx="675.234" cy="251.505" r="4" fill="#0" id="circle165"/>
	<circle cx="677.214" cy="560.391" r="4" fill="#0" id="circle166"/>
	<circle cx="695.034" cy="251.505" r="4" fill="#0" id="circle167"/>
	<circle cx="697.014" cy="554.451" r="4" fill="#0" id="circle168"/>
	<circle cx="714.834" cy="251.505" r="4" fill="#0" id="circle169"/>
	<circle cx="716.814" cy="550.491" r="4" fill="#0" id="circle170"/>
	<circle cx="734.635" cy="251.505" r="4" fill="#0" id="circle171"/>
	<circle cx="736.615" cy="544.551" r="4" fill="#0" id="circle172"/>
	<circle cx="754.435" cy="251.505" r="4" fill="#0" id="circle173"/>
	<circle cx="756.415" cy="550.491" r="4" fill="#0" id="circle174"/>
	<circle cx="768.295" cy="566.331" r="4" fill="#0" id="circle175"/>
	<circle cx="774.236" cy="251.505" r="4" fill="#0" id="circle176"/>
	<circle cx="784.136" cy="580.192" r="4" fill="#0" id="circle177"/>
	<circle cx="794.036" cy="251.505" r="4" fill="#0" id="circle178"/>
	<circle cx="796.016" cy="841.557" r="4" fill="#0" id="circle179"/>
	<circle cx="797.996" cy="596.032" r="4" fill="#0" id="circle180"/>
	<circle cx="805.916" cy="821.756" r="4" fill="#0" id="circle181"/>
	<circle cx="807.896" cy="613.852" r="4" fill="#0" id="circle182"/>
	<circle cx="811.856" cy="241.605" r="4" fill="#0" id="circle183"/>
	<circle cx="815.816" cy="792.056" r="4" fill="#0" id="circle184"/>
	<circle cx="815.816" cy="847.497" r="4" fill="#0" id="circle185"/>
	<circle cx="821.756" cy="629.693" r="4" fill="#0" id="circle186"/>
	<circle cx="825.717" cy="772.255" r="4" fill="#0" id="circle187"/>
	<circle cx="831.657" cy="241.605" r="4" fill="#0" id="circle188"/>
	<circle cx="831.657" cy="647.513" r="4" fill="#0" id="circle189"/>
	<circle cx="835.617" cy="667.313" r="4" fill="#0" id="circle190"/>
	<circle cx="835.617" cy="687.114" r="4" fill="#0" id="circle191"/>
	<circle cx="835.617" cy="706.914" r="4" fill="#0" id="circle192"/>
	<circle cx="835.617" cy="726.715" r="4" fill="#0" id="circle193"/>
	<circle cx="835.617" cy="746.515" r="4" fill="#0" id="circle194"/>
	<circle cx="835.617" cy="847.497" r="4" fill="#0" id="circle195"/>
	<circle cx="851.457" cy="241.605" r="4" fill="#0" id="circle196"/>
	<circle cx="855.417" cy="841.557" r="4" fill="#0" id="circle197"/>
	<circle cx="867.297" cy="807.896" r="4" fill="#0" id="circle198"/>
	<circle cx="871.257" cy="241.605" r="4" fill="#0" id="circle199"/>
	<circle cx="875.218" cy="851.457" r="4" fill="#0" id="circle200"/>
	<circle cx="877.198" cy="778.196" r="4" fill="#0" id="circle201"/>
	<circle cx="885.118" cy="831.657" r="4" fill="#0" id="circle202"/>
	<circle cx="887.098" cy="689.094" r="4" fill="#0" id="circle203"/>
	<circle cx="887.098" cy="708.894" r="4" fill="#0" id="circle204"/>
	<circle cx="887.098" cy="728.695" r="4" fill="#0" id="circle205"/>
	<circle cx="887.098" cy="748.495" r="4" fill="#0" id="circle206"/>
	<circle cx="887.098" cy="867.297" r="4" fill="#0" id="circle207"/>
	<circle cx="889.078" cy="251.505" r="4" fill="#0" id="circle208"/>
	<circle cx="895.018" cy="801.956" r="4" fill="#0" id="circle209"/>
	<circle cx="904.918" cy="782.156" r="4" fill="#0" id="circle210"/>
	<circle cx="906.898" cy="689.094" r="4" fill="#0" id="circle211"/>
	<circle cx="906.898" cy="867.297" r="4" fill="#0" id="circle212"/>
	<circle cx="908.878" cy="251.505" r="4" fill="#0" id="circle213"/>
	<circle cx="914.818" cy="708.894" r="4" fill="#0" id="circle214"/>
	<circle cx="914.818" cy="728.695" r="4" fill="#0" id="circle215"/>
	<circle cx="914.818" cy="748.495" r="4" fill="#0" id="circle216"/>
	<circle cx="926.699" cy="261.405" r="4" fill="#0" id="circle217"/>
	<circle cx="926.699" cy="867.297" r="4" fill="#0" id="circle218"/>
	<circle cx="942.539" cy="273.285" r="4" fill="#0" id="circle219"/>
	<circle cx="944.519" cy="857.397" r="4" fill="#0" id="circle220"/>
	<circle cx="956.399" cy="289.126" r="4" fill="#0" id="circle221"/>
	<circle cx="956.399" cy="530.691" r="4" fill="#0" id="circle222"/>
	<circle cx="956.399" cy="550.491" r="4" fill="#0" id="circle223"/>
	<circle cx="956.399" cy="570.291" r="4" fill="#0" id="circle224"/>
	<circle cx="956.399" cy="788.096" r="4" fill="#0" id="circle225"/>
	<circle cx="956.399" cy="807.896" r="4" fill="#0" id="circle226"/>
	<circle cx="956.399" cy="827.697" r="4" fill="#0" id="circle227"/>
	<circle cx="966.299" cy="500.99" r="4" fill="#0" id="circle228"/>
	<circle cx="966.299" cy="588.112" r="4" fill="#0" id="circle229"/>
	<circle cx="966.299" cy="607.912" r="4" fill="#0" id="circle230"/>
	<circle cx="966.299" cy="728.695" r="4" fill="#0" id="circle231"/>
	<circle cx="966.299" cy="748.495" r="4" fill="#0" id="circle232"/>
	<circle cx="966.299" cy="768.295" r="4" fill="#0" id="circle233"/>
	<circle cx="972.24" cy="302.986" r="4" fill="#0" id="circle234"/>
	<circle cx="976.2" cy="481.19" r="4" fill="#0" id="circle235"/>
	<circle cx="976.2" cy="625.733" r="4" fill="#0" id="circle236"/>
	<circle cx="976.2" cy="645.533" r="4" fill="#0" id="circle237"/>
	<circle cx="976.2" cy="665.333" r="4" fill="#0" id="circle238"/>
	<circle cx="976.2" cy="685.134" r="4" fill="#0" id="circle239"/>
	<circle cx="976.2" cy="704.934" r="4" fill="#0" id="circle240"/>
	<circle cx="980.16" cy="322.786" r="4" fill="#0" id="circle241"/>
	<circle cx="986.1" cy="342.587" r="4" fill="#0" id="circle242"/>
	<circle cx="986.1" cy="451.489" r="4" fill="#0" id="circle243"/>
	<circle cx="996" cy="360.407" r="4" fill="#0" id="circle244"/>
	<circle cx="996" cy="380.208" r="4" fill="#0" id="circle245"/>
	<circle cx="996" cy="400.008" r="4" fill="#0" id="circle246"/>
	<circle cx="996" cy="419.808" r="4" fill="#0" id="circle247"/>
	</g>
</svg>