<?xml version="1.0" encoding="UTF-8" standalone="no"?>
<!-- Created with CurveBenchmark -->
<svg
	xmlns:dc="http://purl.org/dc/elements/1.1/"
	xmlns:cc="http://creativecommons.org/ns#"
	xmlns:rdf="http://www.w3.org/1999/02/22-rdf-syntax-ns#"
	xmlns:svg="http://www.w3.org/2000/svg"
	xmlns="http://www.w3.org/2000/svg"
	xmlns:sodipodi="http://sodipodi.sourceforge.net/DTD/sodipodi-0.dtd"
	xmlns:inkscape="http://www.inkscape.org/namespaces/inkscape"
	width="1000"
	height="1000"
	id="svg2"
	version="1.1"
	sodipodi:docname="manifold/hnncrust-bird41.png.txt">
<defs
	id="defs4" />
<metadata
	id="metadata7">
	<rdf:RDF>
		<cc:Work
			rdf:about="">
			<dc:format>image/svg+xml</dc:format>
			<dc:type
				rdf:resource="http://purl.org/dc/dcmitype/StillImage" />
			<dc:title></dc:title>
		</cc:Work>
	</rdf:RDF>
</metadata>
<g
	inkscape:label="Layer 1"
	inkscape:groupmode="layer"
	id="layer1">
	<path style="fill:none;stroke:red;stroke-width:1px;stroke-linecap:butt;stroke-linejoin:miter;stroke-opacity:1" d="M 4,160.8 4,176.8 z" id="boundary" inkscape:connector-curvature="0" />
	<path style="fill:none;stroke:red;stroke-width:1px;stroke-linecap:butt;stroke-linejoin:miter;stroke-opacity:1" d="M 4,160.8 16.8,148 z" id="boundary" inkscape:connector-curvature="0" />
	<path style="fill:none;stroke:red;stroke-width:1px;stroke-linecap:butt;stroke-linejoin:miter;stroke-opacity:1" d="M 4,176.8 4,192.8 z" id="boundary" inkscape:connector-curvature="0" />
	<path style="fill:none;stroke:red;stroke-width:1px;stroke-linecap:butt;stroke-linejoin:miter;stroke-opacity:1" d="M 4,192.8 4,208.8 z" id="boundary" inkscape:connector-curvature="0" />
	<path style="fill:none;stroke:red;stroke-width:1px;stroke-linecap:butt;stroke-linejoin:miter;stroke-opacity:1" d="M 4,208.8 12,223.2 z" id="boundary" inkscape:connector-curvature="0" />
	<path style="fill:none;stroke:red;stroke-width:1px;stroke-linecap:butt;stroke-linejoin:miter;stroke-opacity:1" d="M 12,223.2 12,239.2 z" id="boundary" inkscape:connector-curvature="0" />
	<path style="fill:none;stroke:red;stroke-width:1px;stroke-linecap:butt;stroke-linejoin:miter;stroke-opacity:1" d="M 12,239.2 20,253.6 z" id="boundary" inkscape:connector-curvature="0" />
	<path style="fill:none;stroke:red;stroke-width:1px;stroke-linecap:butt;stroke-linejoin:miter;stroke-opacity:1" d="M 16.8,148 24.8,132 z" id="boundary" inkscape:connector-curvature="0" />
	<path style="fill:none;stroke:red;stroke-width:1px;stroke-linecap:butt;stroke-linejoin:miter;stroke-opacity:1" d="M 20,253.6 28,268 z" id="boundary" inkscape:connector-curvature="0" />
	<path style="fill:none;stroke:red;stroke-width:1px;stroke-linecap:butt;stroke-linejoin:miter;stroke-opacity:1" d="M 24.8,132 36,112.8 z" id="boundary" inkscape:connector-curvature="0" />
	<path style="fill:none;stroke:red;stroke-width:1px;stroke-linecap:butt;stroke-linejoin:miter;stroke-opacity:1" d="M 28,268 36,282.4 z" id="boundary" inkscape:connector-curvature="0" />
	<path style="fill:none;stroke:red;stroke-width:1px;stroke-linecap:butt;stroke-linejoin:miter;stroke-opacity:1" d="M 36,112.8 44,96.8 z" id="boundary" inkscape:connector-curvature="0" />
	<path style="fill:none;stroke:red;stroke-width:1px;stroke-linecap:butt;stroke-linejoin:miter;stroke-opacity:1" d="M 36,282.4 48.8,293.6 z" id="boundary" inkscape:connector-curvature="0" />
	<path style="fill:none;stroke:red;stroke-width:1px;stroke-linecap:butt;stroke-linejoin:miter;stroke-opacity:1" d="M 44,96.8 56.8,84 z" id="boundary" inkscape:connector-curvature="0" />
	<path style="fill:none;stroke:red;stroke-width:1px;stroke-linecap:butt;stroke-linejoin:miter;stroke-opacity:1" d="M 48.8,293.6 61.6,277.6 z" id="boundary" inkscape:connector-curvature="0" />
	<path style="fill:none;stroke:red;stroke-width:1px;stroke-linecap:butt;stroke-linejoin:miter;stroke-opacity:1" d="M 52,440.8 52,456.8 z" id="boundary" inkscape:connector-curvature="0" />
	<path style="fill:none;stroke:red;stroke-width:1px;stroke-linecap:butt;stroke-linejoin:miter;stroke-opacity:1" d="M 52,440.8 60,424.8 z" id="boundary" inkscape:connector-curvature="0" />
	<path style="fill:none;stroke:red;stroke-width:1px;stroke-linecap:butt;stroke-linejoin:miter;stroke-opacity:1" d="M 52,456.8 52,472.8 z" id="boundary" inkscape:connector-curvature="0" />
	<path style="fill:none;stroke:red;stroke-width:1px;stroke-linecap:butt;stroke-linejoin:miter;stroke-opacity:1" d="M 52,472.8 52,488.8 z" id="boundary" inkscape:connector-curvature="0" />
	<path style="fill:none;stroke:red;stroke-width:1px;stroke-linecap:butt;stroke-linejoin:miter;stroke-opacity:1" d="M 52,488.8 52,504.8 z" id="boundary" inkscape:connector-curvature="0" />
	<path style="fill:none;stroke:red;stroke-width:1px;stroke-linecap:butt;stroke-linejoin:miter;stroke-opacity:1" d="M 52,504.8 60,519.2 z" id="boundary" inkscape:connector-curvature="0" />
	<path style="fill:none;stroke:red;stroke-width:1px;stroke-linecap:butt;stroke-linejoin:miter;stroke-opacity:1" d="M 56.8,84 64.8,68 z" id="boundary" inkscape:connector-curvature="0" />
	<path style="fill:none;stroke:red;stroke-width:1px;stroke-linecap:butt;stroke-linejoin:miter;stroke-opacity:1" d="M 60,424.8 68,408.8 z" id="boundary" inkscape:connector-curvature="0" />
	<path style="fill:none;stroke:red;stroke-width:1px;stroke-linecap:butt;stroke-linejoin:miter;stroke-opacity:1" d="M 60,519.2 68,533.6 z" id="boundary" inkscape:connector-curvature="0" />
	<path style="fill:none;stroke:red;stroke-width:1px;stroke-linecap:butt;stroke-linejoin:miter;stroke-opacity:1" d="M 61.6,229.6 61.6,245.6 z" id="boundary" inkscape:connector-curvature="0" />
	<path style="fill:none;stroke:red;stroke-width:1px;stroke-linecap:butt;stroke-linejoin:miter;stroke-opacity:1" d="M 61.6,229.6 69.6,205.6 z" id="boundary" inkscape:connector-curvature="0" />
	<path style="fill:none;stroke:red;stroke-width:1px;stroke-linecap:butt;stroke-linejoin:miter;stroke-opacity:1" d="M 61.6,245.6 61.6,261.6 z" id="boundary" inkscape:connector-curvature="0" />
	<path style="fill:none;stroke:red;stroke-width:1px;stroke-linecap:butt;stroke-linejoin:miter;stroke-opacity:1" d="M 61.6,261.6 61.6,277.6 z" id="boundary" inkscape:connector-curvature="0" />
	<path style="fill:none;stroke:red;stroke-width:1px;stroke-linecap:butt;stroke-linejoin:miter;stroke-opacity:1" d="M 64.8,68 68,48.8 z" id="boundary" inkscape:connector-curvature="0" />
	<path style="fill:none;stroke:red;stroke-width:1px;stroke-linecap:butt;stroke-linejoin:miter;stroke-opacity:1" d="M 68,48.8 80.8,36 z" id="boundary" inkscape:connector-curvature="0" />
	<path style="fill:none;stroke:red;stroke-width:1px;stroke-linecap:butt;stroke-linejoin:miter;stroke-opacity:1" d="M 68,408.8 76,392.8 z" id="boundary" inkscape:connector-curvature="0" />
	<path style="fill:none;stroke:red;stroke-width:1px;stroke-linecap:butt;stroke-linejoin:miter;stroke-opacity:1" d="M 68,533.6 77.6,546.4 z" id="boundary" inkscape:connector-curvature="0" />
	<path style="fill:none;stroke:red;stroke-width:1px;stroke-linecap:butt;stroke-linejoin:miter;stroke-opacity:1" d="M 69.6,205.6 77.6,189.6 z" id="boundary" inkscape:connector-curvature="0" />
	<path style="fill:none;stroke:red;stroke-width:1px;stroke-linecap:butt;stroke-linejoin:miter;stroke-opacity:1" d="M 76,392.8 84,376.8 z" id="boundary" inkscape:connector-curvature="0" />
	<path style="fill:none;stroke:red;stroke-width:1px;stroke-linecap:butt;stroke-linejoin:miter;stroke-opacity:1" d="M 77.6,189.6 85.6,173.6 z" id="boundary" inkscape:connector-curvature="0" />
	<path style="fill:none;stroke:red;stroke-width:1px;stroke-linecap:butt;stroke-linejoin:miter;stroke-opacity:1" d="M 77.6,546.4 90.4,557.6 z" id="boundary" inkscape:connector-curvature="0" />
	<path style="fill:none;stroke:red;stroke-width:1px;stroke-linecap:butt;stroke-linejoin:miter;stroke-opacity:1" d="M 80.8,36 88.8,20 z" id="boundary" inkscape:connector-curvature="0" />
	<path style="fill:none;stroke:red;stroke-width:1px;stroke-linecap:butt;stroke-linejoin:miter;stroke-opacity:1" d="M 84,376.8 96.8,364 z" id="boundary" inkscape:connector-curvature="0" />
	<path style="fill:none;stroke:red;stroke-width:1px;stroke-linecap:butt;stroke-linejoin:miter;stroke-opacity:1" d="M 85.6,173.6 93.6,157.6 z" id="boundary" inkscape:connector-curvature="0" />
	<path style="fill:none;stroke:red;stroke-width:1px;stroke-linecap:butt;stroke-linejoin:miter;stroke-opacity:1" d="M 88.8,20 103.2,12 z" id="boundary" inkscape:connector-curvature="0" />
	<path style="fill:none;stroke:red;stroke-width:1px;stroke-linecap:butt;stroke-linejoin:miter;stroke-opacity:1" d="M 90.4,557.6 100,570.4 z" id="boundary" inkscape:connector-curvature="0" />
	<path style="fill:none;stroke:red;stroke-width:1px;stroke-linecap:butt;stroke-linejoin:miter;stroke-opacity:1" d="M 93.6,157.6 106.4,146.4 z" id="boundary" inkscape:connector-curvature="0" />
	<path style="fill:none;stroke:red;stroke-width:1px;stroke-linecap:butt;stroke-linejoin:miter;stroke-opacity:1" d="M 96.8,364 104.8,348 z" id="boundary" inkscape:connector-curvature="0" />
	<path style="fill:none;stroke:red;stroke-width:1px;stroke-linecap:butt;stroke-linejoin:miter;stroke-opacity:1" d="M 100,570.4 101.6,586.4 z" id="boundary" inkscape:connector-curvature="0" />
	<path style="fill:none;stroke:red;stroke-width:1px;stroke-linecap:butt;stroke-linejoin:miter;stroke-opacity:1" d="M 101.6,586.4 114.4,597.6 z" id="boundary" inkscape:connector-curvature="0" />
	<path style="fill:none;stroke:red;stroke-width:1px;stroke-linecap:butt;stroke-linejoin:miter;stroke-opacity:1" d="M 103.2,12 117.6,4 z" id="boundary" inkscape:connector-curvature="0" />
	<path style="fill:none;stroke:red;stroke-width:1px;stroke-linecap:butt;stroke-linejoin:miter;stroke-opacity:1" d="M 104.8,348 112.8,332 z" id="boundary" inkscape:connector-curvature="0" />
	<path style="fill:none;stroke:red;stroke-width:1px;stroke-linecap:butt;stroke-linejoin:miter;stroke-opacity:1" d="M 106.4,146.4 122.4,141.6 z" id="boundary" inkscape:connector-curvature="0" />
	<path style="fill:none;stroke:red;stroke-width:1px;stroke-linecap:butt;stroke-linejoin:miter;stroke-opacity:1" d="M 112.8,332 124,312.8 z" id="boundary" inkscape:connector-curvature="0" />
	<path style="fill:none;stroke:red;stroke-width:1px;stroke-linecap:butt;stroke-linejoin:miter;stroke-opacity:1" d="M 114.4,597.6 128.8,605.6 z" id="boundary" inkscape:connector-curvature="0" />
	<path style="fill:none;stroke:red;stroke-width:1px;stroke-linecap:butt;stroke-linejoin:miter;stroke-opacity:1" d="M 117.6,4 133.6,4 z" id="boundary" inkscape:connector-curvature="0" />
	<path style="fill:none;stroke:red;stroke-width:1px;stroke-linecap:butt;stroke-linejoin:miter;stroke-opacity:1" d="M 122.4,141.6 136.8,133.6 z" id="boundary" inkscape:connector-curvature="0" />
	<path style="fill:none;stroke:red;stroke-width:1px;stroke-linecap:butt;stroke-linejoin:miter;stroke-opacity:1" d="M 124,312.8 136.8,300 z" id="boundary" inkscape:connector-curvature="0" />
	<path style="fill:none;stroke:red;stroke-width:1px;stroke-linecap:butt;stroke-linejoin:miter;stroke-opacity:1" d="M 128.8,605.6 143.2,613.6 z" id="boundary" inkscape:connector-curvature="0" />
	<path style="fill:none;stroke:red;stroke-width:1px;stroke-linecap:butt;stroke-linejoin:miter;stroke-opacity:1" d="M 133.6,4 149.6,4 z" id="boundary" inkscape:connector-curvature="0" />
	<path style="fill:none;stroke:red;stroke-width:1px;stroke-linecap:butt;stroke-linejoin:miter;stroke-opacity:1" d="M 136.8,133.6 151.2,125.6 z" id="boundary" inkscape:connector-curvature="0" />
	<path style="fill:none;stroke:red;stroke-width:1px;stroke-linecap:butt;stroke-linejoin:miter;stroke-opacity:1" d="M 136.8,300 144.8,284 z" id="boundary" inkscape:connector-curvature="0" />
	<path style="fill:none;stroke:red;stroke-width:1px;stroke-linecap:butt;stroke-linejoin:miter;stroke-opacity:1" d="M 141.6,429.6 141.6,445.6 z" id="boundary" inkscape:connector-curvature="0" />
	<path style="fill:none;stroke:red;stroke-width:1px;stroke-linecap:butt;stroke-linejoin:miter;stroke-opacity:1" d="M 141.6,429.6 154.4,418.4 z" id="boundary" inkscape:connector-curvature="0" />
	<path style="fill:none;stroke:red;stroke-width:1px;stroke-linecap:butt;stroke-linejoin:miter;stroke-opacity:1" d="M 141.6,445.6 141.6,461.6 z" id="boundary" inkscape:connector-curvature="0" />
	<path style="fill:none;stroke:red;stroke-width:1px;stroke-linecap:butt;stroke-linejoin:miter;stroke-opacity:1" d="M 141.6,461.6 141.6,477.6 z" id="boundary" inkscape:connector-curvature="0" />
	<path style="fill:none;stroke:red;stroke-width:1px;stroke-linecap:butt;stroke-linejoin:miter;stroke-opacity:1" d="M 141.6,477.6 149.6,492 z" id="boundary" inkscape:connector-curvature="0" />
	<path style="fill:none;stroke:red;stroke-width:1px;stroke-linecap:butt;stroke-linejoin:miter;stroke-opacity:1" d="M 143.2,613.6 157.6,621.6 z" id="boundary" inkscape:connector-curvature="0" />
	<path style="fill:none;stroke:red;stroke-width:1px;stroke-linecap:butt;stroke-linejoin:miter;stroke-opacity:1" d="M 144.8,284 157.6,271.2 z" id="boundary" inkscape:connector-curvature="0" />
	<path style="fill:none;stroke:red;stroke-width:1px;stroke-linecap:butt;stroke-linejoin:miter;stroke-opacity:1" d="M 149.6,4 165.6,4 z" id="boundary" inkscape:connector-curvature="0" />
	<path style="fill:none;stroke:red;stroke-width:1px;stroke-linecap:butt;stroke-linejoin:miter;stroke-opacity:1" d="M 149.6,492 165.6,492 z" id="boundary" inkscape:connector-curvature="0" />
	<path style="fill:none;stroke:red;stroke-width:1px;stroke-linecap:butt;stroke-linejoin:miter;stroke-opacity:1" d="M 151.2,125.6 165.6,117.6 z" id="boundary" inkscape:connector-curvature="0" />
	<path style="fill:none;stroke:red;stroke-width:1px;stroke-linecap:butt;stroke-linejoin:miter;stroke-opacity:1" d="M 154.4,418.4 157.6,397.6 z" id="boundary" inkscape:connector-curvature="0" />
	<path style="fill:none;stroke:red;stroke-width:1px;stroke-linecap:butt;stroke-linejoin:miter;stroke-opacity:1" d="M 157.6,271.2 170.4,260 z" id="boundary" inkscape:connector-curvature="0" />
	<path style="fill:none;stroke:red;stroke-width:1px;stroke-linecap:butt;stroke-linejoin:miter;stroke-opacity:1" d="M 157.6,397.6 170.4,386.4 z" id="boundary" inkscape:connector-curvature="0" />
	<path style="fill:none;stroke:red;stroke-width:1px;stroke-linecap:butt;stroke-linejoin:miter;stroke-opacity:1" d="M 157.6,621.6 173.6,621.6 z" id="boundary" inkscape:connector-curvature="0" />
	<path style="fill:none;stroke:red;stroke-width:1px;stroke-linecap:butt;stroke-linejoin:miter;stroke-opacity:1" d="M 165.6,4 181.6,8.8 z" id="boundary" inkscape:connector-curvature="0" />
	<path style="fill:none;stroke:red;stroke-width:1px;stroke-linecap:butt;stroke-linejoin:miter;stroke-opacity:1" d="M 165.6,117.6 181.6,117.6 z" id="boundary" inkscape:connector-curvature="0" />
	<path style="fill:none;stroke:red;stroke-width:1px;stroke-linecap:butt;stroke-linejoin:miter;stroke-opacity:1" d="M 165.6,492 175.2,477.6 z" id="boundary" inkscape:connector-curvature="0" />
	<path style="fill:none;stroke:red;stroke-width:1px;stroke-linecap:butt;stroke-linejoin:miter;stroke-opacity:1" d="M 170.4,260 172,232.8 z" id="boundary" inkscape:connector-curvature="0" />
	<path style="fill:none;stroke:red;stroke-width:1px;stroke-linecap:butt;stroke-linejoin:miter;stroke-opacity:1" d="M 170.4,386.4 173.6,365.6 z" id="boundary" inkscape:connector-curvature="0" />
	<path style="fill:none;stroke:red;stroke-width:1px;stroke-linecap:butt;stroke-linejoin:miter;stroke-opacity:1" d="M 172,232.8 180,216.8 z" id="boundary" inkscape:connector-curvature="0" />
	<path style="fill:none;stroke:red;stroke-width:1px;stroke-linecap:butt;stroke-linejoin:miter;stroke-opacity:1" d="M 173.6,349.6 173.6,365.6 z" id="boundary" inkscape:connector-curvature="0" />
	<path style="fill:none;stroke:red;stroke-width:1px;stroke-linecap:butt;stroke-linejoin:miter;stroke-opacity:1" d="M 173.6,349.6 189.6,333.6 z" id="boundary" inkscape:connector-curvature="0" />
	<path style="fill:none;stroke:red;stroke-width:1px;stroke-linecap:butt;stroke-linejoin:miter;stroke-opacity:1" d="M 173.6,621.6 189.6,621.6 z" id="boundary" inkscape:connector-curvature="0" />
	<path style="fill:none;stroke:red;stroke-width:1px;stroke-linecap:butt;stroke-linejoin:miter;stroke-opacity:1" d="M 175.2,477.6 180,456.8 z" id="boundary" inkscape:connector-curvature="0" />
	<path style="fill:none;stroke:red;stroke-width:1px;stroke-linecap:butt;stroke-linejoin:miter;stroke-opacity:1" d="M 180,216.8 188,197.6 z" id="boundary" inkscape:connector-curvature="0" />
	<path style="fill:none;stroke:red;stroke-width:1px;stroke-linecap:butt;stroke-linejoin:miter;stroke-opacity:1" d="M 180,456.8 188,440.8 z" id="boundary" inkscape:connector-curvature="0" />
	<path style="fill:none;stroke:red;stroke-width:1px;stroke-linecap:butt;stroke-linejoin:miter;stroke-opacity:1" d="M 181.6,8.8 197.6,12 z" id="boundary" inkscape:connector-curvature="0" />
	<path style="fill:none;stroke:red;stroke-width:1px;stroke-linecap:butt;stroke-linejoin:miter;stroke-opacity:1" d="M 181.6,117.6 188,133.6 z" id="boundary" inkscape:connector-curvature="0" />
	<path style="fill:none;stroke:red;stroke-width:1px;stroke-linecap:butt;stroke-linejoin:miter;stroke-opacity:1" d="M 188,133.6 188,149.6 z" id="boundary" inkscape:connector-curvature="0" />
	<path style="fill:none;stroke:red;stroke-width:1px;stroke-linecap:butt;stroke-linejoin:miter;stroke-opacity:1" d="M 188,149.6 188,165.6 z" id="boundary" inkscape:connector-curvature="0" />
	<path style="fill:none;stroke:red;stroke-width:1px;stroke-linecap:butt;stroke-linejoin:miter;stroke-opacity:1" d="M 188,165.6 188,181.6 z" id="boundary" inkscape:connector-curvature="0" />
	<path style="fill:none;stroke:red;stroke-width:1px;stroke-linecap:butt;stroke-linejoin:miter;stroke-opacity:1" d="M 188,181.6 188,197.6 z" id="boundary" inkscape:connector-curvature="0" />
	<path style="fill:none;stroke:red;stroke-width:1px;stroke-linecap:butt;stroke-linejoin:miter;stroke-opacity:1" d="M 188,424.8 188,440.8 z" id="boundary" inkscape:connector-curvature="0" />
	<path style="fill:none;stroke:red;stroke-width:1px;stroke-linecap:butt;stroke-linejoin:miter;stroke-opacity:1" d="M 188,424.8 196,400.8 z" id="boundary" inkscape:connector-curvature="0" />
	<path style="fill:none;stroke:red;stroke-width:1px;stroke-linecap:butt;stroke-linejoin:miter;stroke-opacity:1" d="M 189.6,333.6 197.6,309.6 z" id="boundary" inkscape:connector-curvature="0" />
	<path style="fill:none;stroke:red;stroke-width:1px;stroke-linecap:butt;stroke-linejoin:miter;stroke-opacity:1" d="M 189.6,621.6 205.6,621.6 z" id="boundary" inkscape:connector-curvature="0" />
	<path style="fill:none;stroke:red;stroke-width:1px;stroke-linecap:butt;stroke-linejoin:miter;stroke-opacity:1" d="M 196,400.8 204,376.8 z" id="boundary" inkscape:connector-curvature="0" />
	<path style="fill:none;stroke:red;stroke-width:1px;stroke-linecap:butt;stroke-linejoin:miter;stroke-opacity:1" d="M 197.6,12 210.4,21.6 z" id="boundary" inkscape:connector-curvature="0" />
	<path style="fill:none;stroke:red;stroke-width:1px;stroke-linecap:butt;stroke-linejoin:miter;stroke-opacity:1" d="M 197.6,309.6 210.4,298.4 z" id="boundary" inkscape:connector-curvature="0" />
	<path style="fill:none;stroke:red;stroke-width:1px;stroke-linecap:butt;stroke-linejoin:miter;stroke-opacity:1" d="M 204,376.8 216.8,364 z" id="boundary" inkscape:connector-curvature="0" />
	<path style="fill:none;stroke:red;stroke-width:1px;stroke-linecap:butt;stroke-linejoin:miter;stroke-opacity:1" d="M 205.6,621.6 221.6,621.6 z" id="boundary" inkscape:connector-curvature="0" />
	<path style="fill:none;stroke:red;stroke-width:1px;stroke-linecap:butt;stroke-linejoin:miter;stroke-opacity:1" d="M 210.4,21.6 218.4,36 z" id="boundary" inkscape:connector-curvature="0" />
	<path style="fill:none;stroke:red;stroke-width:1px;stroke-linecap:butt;stroke-linejoin:miter;stroke-opacity:1" d="M 210.4,298.4 218.4,282.4 z" id="boundary" inkscape:connector-curvature="0" />
	<path style="fill:none;stroke:red;stroke-width:1px;stroke-linecap:butt;stroke-linejoin:miter;stroke-opacity:1" d="M 216.8,364 224.8,348 z" id="boundary" inkscape:connector-curvature="0" />
	<path style="fill:none;stroke:red;stroke-width:1px;stroke-linecap:butt;stroke-linejoin:miter;stroke-opacity:1" d="M 218.4,36 232.8,44 z" id="boundary" inkscape:connector-curvature="0" />
	<path style="fill:none;stroke:red;stroke-width:1px;stroke-linecap:butt;stroke-linejoin:miter;stroke-opacity:1" d="M 218.4,282.4 229.6,261.6 z" id="boundary" inkscape:connector-curvature="0" />
	<path style="fill:none;stroke:red;stroke-width:1px;stroke-linecap:butt;stroke-linejoin:miter;stroke-opacity:1" d="M 221.6,621.6 237.6,613.6 z" id="boundary" inkscape:connector-curvature="0" />
	<path style="fill:none;stroke:red;stroke-width:1px;stroke-linecap:butt;stroke-linejoin:miter;stroke-opacity:1" d="M 224.8,348 237.6,335.2 z" id="boundary" inkscape:connector-curvature="0" />
	<path style="fill:none;stroke:red;stroke-width:1px;stroke-linecap:butt;stroke-linejoin:miter;stroke-opacity:1" d="M 229.6,261.6 237.6,245.6 z" id="boundary" inkscape:connector-curvature="0" />
	<path style="fill:none;stroke:red;stroke-width:1px;stroke-linecap:butt;stroke-linejoin:miter;stroke-opacity:1" d="M 232.8,44 237.6,60 z" id="boundary" inkscape:connector-curvature="0" />
	<path style="fill:none;stroke:red;stroke-width:1px;stroke-linecap:butt;stroke-linejoin:miter;stroke-opacity:1" d="M 237.6,60 237.6,76 z" id="boundary" inkscape:connector-curvature="0" />
	<path style="fill:none;stroke:red;stroke-width:1px;stroke-linecap:butt;stroke-linejoin:miter;stroke-opacity:1" d="M 237.6,76 245.6,90.4 z" id="boundary" inkscape:connector-curvature="0" />
	<path style="fill:none;stroke:red;stroke-width:1px;stroke-linecap:butt;stroke-linejoin:miter;stroke-opacity:1" d="M 237.6,229.6 237.6,245.6 z" id="boundary" inkscape:connector-curvature="0" />
	<path style="fill:none;stroke:red;stroke-width:1px;stroke-linecap:butt;stroke-linejoin:miter;stroke-opacity:1" d="M 237.6,229.6 245.6,213.6 z" id="boundary" inkscape:connector-curvature="0" />
	<path style="fill:none;stroke:red;stroke-width:1px;stroke-linecap:butt;stroke-linejoin:miter;stroke-opacity:1" d="M 237.6,335.2 253.6,332 z" id="boundary" inkscape:connector-curvature="0" />
	<path style="fill:none;stroke:red;stroke-width:1px;stroke-linecap:butt;stroke-linejoin:miter;stroke-opacity:1" d="M 237.6,613.6 253.6,613.6 z" id="boundary" inkscape:connector-curvature="0" />
	<path style="fill:none;stroke:red;stroke-width:1px;stroke-linecap:butt;stroke-linejoin:miter;stroke-opacity:1" d="M 245.6,90.4 245.6,106.4 z" id="boundary" inkscape:connector-curvature="0" />
	<path style="fill:none;stroke:red;stroke-width:1px;stroke-linecap:butt;stroke-linejoin:miter;stroke-opacity:1" d="M 245.6,106.4 245.6,122.4 z" id="boundary" inkscape:connector-curvature="0" />
	<path style="fill:none;stroke:red;stroke-width:1px;stroke-linecap:butt;stroke-linejoin:miter;stroke-opacity:1" d="M 245.6,122.4 253.6,136.8 z" id="boundary" inkscape:connector-curvature="0" />
	<path style="fill:none;stroke:red;stroke-width:1px;stroke-linecap:butt;stroke-linejoin:miter;stroke-opacity:1" d="M 245.6,213.6 253.6,184.8 z" id="boundary" inkscape:connector-curvature="0" />
	<path style="fill:none;stroke:red;stroke-width:1px;stroke-linecap:butt;stroke-linejoin:miter;stroke-opacity:1" d="M 253.6,136.8 253.6,152.8 z" id="boundary" inkscape:connector-curvature="0" />
	<path style="fill:none;stroke:red;stroke-width:1px;stroke-linecap:butt;stroke-linejoin:miter;stroke-opacity:1" d="M 253.6,152.8 253.6,168.8 z" id="boundary" inkscape:connector-curvature="0" />
	<path style="fill:none;stroke:red;stroke-width:1px;stroke-linecap:butt;stroke-linejoin:miter;stroke-opacity:1" d="M 253.6,168.8 253.6,184.8 z" id="boundary" inkscape:connector-curvature="0" />
	<path style="fill:none;stroke:red;stroke-width:1px;stroke-linecap:butt;stroke-linejoin:miter;stroke-opacity:1" d="M 253.6,332 268,324 z" id="boundary" inkscape:connector-curvature="0" />
	<path style="fill:none;stroke:red;stroke-width:1px;stroke-linecap:butt;stroke-linejoin:miter;stroke-opacity:1" d="M 253.6,613.6 269.6,613.6 z" id="boundary" inkscape:connector-curvature="0" />
	<path style="fill:none;stroke:red;stroke-width:1px;stroke-linecap:butt;stroke-linejoin:miter;stroke-opacity:1" d="M 268,324 277.6,311.2 z" id="boundary" inkscape:connector-curvature="0" />
	<path style="fill:none;stroke:red;stroke-width:1px;stroke-linecap:butt;stroke-linejoin:miter;stroke-opacity:1" d="M 269.6,613.6 284,605.6 z" id="boundary" inkscape:connector-curvature="0" />
	<path style="fill:none;stroke:red;stroke-width:1px;stroke-linecap:butt;stroke-linejoin:miter;stroke-opacity:1" d="M 277.6,311.2 293.6,308 z" id="boundary" inkscape:connector-curvature="0" />
	<path style="fill:none;stroke:red;stroke-width:1px;stroke-linecap:butt;stroke-linejoin:miter;stroke-opacity:1" d="M 284,605.6 298.4,613.6 z" id="boundary" inkscape:connector-curvature="0" />
	<path style="fill:none;stroke:red;stroke-width:1px;stroke-linecap:butt;stroke-linejoin:miter;stroke-opacity:1" d="M 293.6,308 309.6,308 z" id="boundary" inkscape:connector-curvature="0" />
	<path style="fill:none;stroke:red;stroke-width:1px;stroke-linecap:butt;stroke-linejoin:miter;stroke-opacity:1" d="M 298.4,613.6 312.8,621.6 z" id="boundary" inkscape:connector-curvature="0" />
	<path style="fill:none;stroke:red;stroke-width:1px;stroke-linecap:butt;stroke-linejoin:miter;stroke-opacity:1" d="M 309.6,308 325.6,308 z" id="boundary" inkscape:connector-curvature="0" />
	<path style="fill:none;stroke:red;stroke-width:1px;stroke-linecap:butt;stroke-linejoin:miter;stroke-opacity:1" d="M 312.8,621.6 327.2,629.6 z" id="boundary" inkscape:connector-curvature="0" />
	<path style="fill:none;stroke:red;stroke-width:1px;stroke-linecap:butt;stroke-linejoin:miter;stroke-opacity:1" d="M 325.6,308 341.6,308 z" id="boundary" inkscape:connector-curvature="0" />
	<path style="fill:none;stroke:red;stroke-width:1px;stroke-linecap:butt;stroke-linejoin:miter;stroke-opacity:1" d="M 327.2,629.6 340,639.2 z" id="boundary" inkscape:connector-curvature="0" />
	<path style="fill:none;stroke:red;stroke-width:1px;stroke-linecap:butt;stroke-linejoin:miter;stroke-opacity:1" d="M 340,639.2 356,645.6 z" id="boundary" inkscape:connector-curvature="0" />
	<path style="fill:none;stroke:red;stroke-width:1px;stroke-linecap:butt;stroke-linejoin:miter;stroke-opacity:1" d="M 341.6,308 357.6,308 z" id="boundary" inkscape:connector-curvature="0" />
	<path style="fill:none;stroke:red;stroke-width:1px;stroke-linecap:butt;stroke-linejoin:miter;stroke-opacity:1" d="M 356,645.6 370.4,653.6 z" id="boundary" inkscape:connector-curvature="0" />
	<path style="fill:none;stroke:red;stroke-width:1px;stroke-linecap:butt;stroke-linejoin:miter;stroke-opacity:1" d="M 357.6,308 373.6,308 z" id="boundary" inkscape:connector-curvature="0" />
	<path style="fill:none;stroke:red;stroke-width:1px;stroke-linecap:butt;stroke-linejoin:miter;stroke-opacity:1" d="M 370.4,653.6 372,669.6 z" id="boundary" inkscape:connector-curvature="0" />
	<path style="fill:none;stroke:red;stroke-width:1px;stroke-linecap:butt;stroke-linejoin:miter;stroke-opacity:1" d="M 372,669.6 372,685.6 z" id="boundary" inkscape:connector-curvature="0" />
	<path style="fill:none;stroke:red;stroke-width:1px;stroke-linecap:butt;stroke-linejoin:miter;stroke-opacity:1" d="M 372,685.6 381.6,698.4 z" id="boundary" inkscape:connector-curvature="0" />
	<path style="fill:none;stroke:red;stroke-width:1px;stroke-linecap:butt;stroke-linejoin:miter;stroke-opacity:1" d="M 373.6,308 389.6,308 z" id="boundary" inkscape:connector-curvature="0" />
	<path style="fill:none;stroke:red;stroke-width:1px;stroke-linecap:butt;stroke-linejoin:miter;stroke-opacity:1" d="M 381.6,698.4 397.6,704.8 z" id="boundary" inkscape:connector-curvature="0" />
	<path style="fill:none;stroke:red;stroke-width:1px;stroke-linecap:butt;stroke-linejoin:miter;stroke-opacity:1" d="M 389.6,308 405.6,308 z" id="boundary" inkscape:connector-curvature="0" />
	<path style="fill:none;stroke:red;stroke-width:1px;stroke-linecap:butt;stroke-linejoin:miter;stroke-opacity:1" d="M 396,952.8 412,957.6 z" id="boundary" inkscape:connector-curvature="0" />
	<path style="fill:none;stroke:red;stroke-width:1px;stroke-linecap:butt;stroke-linejoin:miter;stroke-opacity:1" d="M 397.6,704.8 404,720.8 z" id="boundary" inkscape:connector-curvature="0" />
	<path style="fill:none;stroke:red;stroke-width:1px;stroke-linecap:butt;stroke-linejoin:miter;stroke-opacity:1" d="M 404,720.8 412,735.2 z" id="boundary" inkscape:connector-curvature="0" />
	<path style="fill:none;stroke:red;stroke-width:1px;stroke-linecap:butt;stroke-linejoin:miter;stroke-opacity:1" d="M 405.6,308 421.6,308 z" id="boundary" inkscape:connector-curvature="0" />
	<path style="fill:none;stroke:red;stroke-width:1px;stroke-linecap:butt;stroke-linejoin:miter;stroke-opacity:1" d="M 408.8,940 424.8,932 z" id="boundary" inkscape:connector-curvature="0" />
	<path style="fill:none;stroke:red;stroke-width:1px;stroke-linecap:butt;stroke-linejoin:miter;stroke-opacity:1" d="M 412,735.2 412,751.2 z" id="boundary" inkscape:connector-curvature="0" />
	<path style="fill:none;stroke:red;stroke-width:1px;stroke-linecap:butt;stroke-linejoin:miter;stroke-opacity:1" d="M 412,751.2 420,765.6 z" id="boundary" inkscape:connector-curvature="0" />
	<path style="fill:none;stroke:red;stroke-width:1px;stroke-linecap:butt;stroke-linejoin:miter;stroke-opacity:1" d="M 412,957.6 426.4,965.6 z" id="boundary" inkscape:connector-curvature="0" />
	<path style="fill:none;stroke:red;stroke-width:1px;stroke-linecap:butt;stroke-linejoin:miter;stroke-opacity:1" d="M 420,765.6 420,781.6 z" id="boundary" inkscape:connector-curvature="0" />
	<path style="fill:none;stroke:red;stroke-width:1px;stroke-linecap:butt;stroke-linejoin:miter;stroke-opacity:1" d="M 420,781.6 420,797.6 z" id="boundary" inkscape:connector-curvature="0" />
	<path style="fill:none;stroke:red;stroke-width:1px;stroke-linecap:butt;stroke-linejoin:miter;stroke-opacity:1" d="M 420,797.6 420,813.6 z" id="boundary" inkscape:connector-curvature="0" />
	<path style="fill:none;stroke:red;stroke-width:1px;stroke-linecap:butt;stroke-linejoin:miter;stroke-opacity:1" d="M 420,813.6 428,828 z" id="boundary" inkscape:connector-curvature="0" />
	<path style="fill:none;stroke:red;stroke-width:1px;stroke-linecap:butt;stroke-linejoin:miter;stroke-opacity:1" d="M 421.6,308 437.6,308 z" id="boundary" inkscape:connector-curvature="0" />
	<path style="fill:none;stroke:red;stroke-width:1px;stroke-linecap:butt;stroke-linejoin:miter;stroke-opacity:1" d="M 424.8,932 428,908 z" id="boundary" inkscape:connector-curvature="0" />
	<path style="fill:none;stroke:red;stroke-width:1px;stroke-linecap:butt;stroke-linejoin:miter;stroke-opacity:1" d="M 426.4,965.6 442.4,965.6 z" id="boundary" inkscape:connector-curvature="0" />
	<path style="fill:none;stroke:red;stroke-width:1px;stroke-linecap:butt;stroke-linejoin:miter;stroke-opacity:1" d="M 428,828 428,844 z" id="boundary" inkscape:connector-curvature="0" />
	<path style="fill:none;stroke:red;stroke-width:1px;stroke-linecap:butt;stroke-linejoin:miter;stroke-opacity:1" d="M 428,844 428,860 z" id="boundary" inkscape:connector-curvature="0" />
	<path style="fill:none;stroke:red;stroke-width:1px;stroke-linecap:butt;stroke-linejoin:miter;stroke-opacity:1" d="M 428,860 428,876 z" id="boundary" inkscape:connector-curvature="0" />
	<path style="fill:none;stroke:red;stroke-width:1px;stroke-linecap:butt;stroke-linejoin:miter;stroke-opacity:1" d="M 428,876 428,892 z" id="boundary" inkscape:connector-curvature="0" />
	<path style="fill:none;stroke:red;stroke-width:1px;stroke-linecap:butt;stroke-linejoin:miter;stroke-opacity:1" d="M 428,892 428,908 z" id="boundary" inkscape:connector-curvature="0" />
	<path style="fill:none;stroke:red;stroke-width:1px;stroke-linecap:butt;stroke-linejoin:miter;stroke-opacity:1" d="M 437.6,308 453.6,308 z" id="boundary" inkscape:connector-curvature="0" />
	<path style="fill:none;stroke:red;stroke-width:1px;stroke-linecap:butt;stroke-linejoin:miter;stroke-opacity:1" d="M 442.4,965.6 456.8,956 z" id="boundary" inkscape:connector-curvature="0" />
	<path style="fill:none;stroke:red;stroke-width:1px;stroke-linecap:butt;stroke-linejoin:miter;stroke-opacity:1" d="M 445.6,693.6 445.6,709.6 z" id="boundary" inkscape:connector-curvature="0" />
	<path style="fill:none;stroke:red;stroke-width:1px;stroke-linecap:butt;stroke-linejoin:miter;stroke-opacity:1" d="M 445.6,693.6 461.6,685.6 z" id="boundary" inkscape:connector-curvature="0" />
	<path style="fill:none;stroke:red;stroke-width:1px;stroke-linecap:butt;stroke-linejoin:miter;stroke-opacity:1" d="M 445.6,709.6 445.6,725.6 z" id="boundary" inkscape:connector-curvature="0" />
	<path style="fill:none;stroke:red;stroke-width:1px;stroke-linecap:butt;stroke-linejoin:miter;stroke-opacity:1" d="M 445.6,725.6 445.6,741.6 z" id="boundary" inkscape:connector-curvature="0" />
	<path style="fill:none;stroke:red;stroke-width:1px;stroke-linecap:butt;stroke-linejoin:miter;stroke-opacity:1" d="M 445.6,741.6 445.6,757.6 z" id="boundary" inkscape:connector-curvature="0" />
	<path style="fill:none;stroke:red;stroke-width:1px;stroke-linecap:butt;stroke-linejoin:miter;stroke-opacity:1" d="M 445.6,757.6 445.6,773.6 z" id="boundary" inkscape:connector-curvature="0" />
	<path style="fill:none;stroke:red;stroke-width:1px;stroke-linecap:butt;stroke-linejoin:miter;stroke-opacity:1" d="M 445.6,773.6 445.6,789.6 z" id="boundary" inkscape:connector-curvature="0" />
	<path style="fill:none;stroke:red;stroke-width:1px;stroke-linecap:butt;stroke-linejoin:miter;stroke-opacity:1" d="M 445.6,789.6 445.6,805.6 z" id="boundary" inkscape:connector-curvature="0" />
	<path style="fill:none;stroke:red;stroke-width:1px;stroke-linecap:butt;stroke-linejoin:miter;stroke-opacity:1" d="M 445.6,805.6 445.6,821.6 z" id="boundary" inkscape:connector-curvature="0" />
	<path style="fill:none;stroke:red;stroke-width:1px;stroke-linecap:butt;stroke-linejoin:miter;stroke-opacity:1" d="M 445.6,821.6 445.6,837.6 z" id="boundary" inkscape:connector-curvature="0" />
	<path style="fill:none;stroke:red;stroke-width:1px;stroke-linecap:butt;stroke-linejoin:miter;stroke-opacity:1" d="M 445.6,837.6 445.6,853.6 z" id="boundary" inkscape:connector-curvature="0" />
	<path style="fill:none;stroke:red;stroke-width:1px;stroke-linecap:butt;stroke-linejoin:miter;stroke-opacity:1" d="M 445.6,853.6 445.6,869.6 z" id="boundary" inkscape:connector-curvature="0" />
	<path style="fill:none;stroke:red;stroke-width:1px;stroke-linecap:butt;stroke-linejoin:miter;stroke-opacity:1" d="M 445.6,869.6 445.6,885.6 z" id="boundary" inkscape:connector-curvature="0" />
	<path style="fill:none;stroke:red;stroke-width:1px;stroke-linecap:butt;stroke-linejoin:miter;stroke-opacity:1" d="M 445.6,885.6 453.6,900 z" id="boundary" inkscape:connector-curvature="0" />
	<path style="fill:none;stroke:red;stroke-width:1px;stroke-linecap:butt;stroke-linejoin:miter;stroke-opacity:1" d="M 453.6,308 469.6,308 z" id="boundary" inkscape:connector-curvature="0" />
	<path style="fill:none;stroke:red;stroke-width:1px;stroke-linecap:butt;stroke-linejoin:miter;stroke-opacity:1" d="M 453.6,900 453.6,916 z" id="boundary" inkscape:connector-curvature="0" />
	<path style="fill:none;stroke:red;stroke-width:1px;stroke-linecap:butt;stroke-linejoin:miter;stroke-opacity:1" d="M 453.6,916 461.6,930.4 z" id="boundary" inkscape:connector-curvature="0" />
	<path style="fill:none;stroke:red;stroke-width:1px;stroke-linecap:butt;stroke-linejoin:miter;stroke-opacity:1" d="M 456.8,956 461.6,930.4 z" id="boundary" inkscape:connector-curvature="0" />
	<path style="fill:none;stroke:red;stroke-width:1px;stroke-linecap:butt;stroke-linejoin:miter;stroke-opacity:1" d="M 461.6,685.6 477.6,677.6 z" id="boundary" inkscape:connector-curvature="0" />
	<path style="fill:none;stroke:red;stroke-width:1px;stroke-linecap:butt;stroke-linejoin:miter;stroke-opacity:1" d="M 469.6,308 485.6,308 z" id="boundary" inkscape:connector-curvature="0" />
	<path style="fill:none;stroke:red;stroke-width:1px;stroke-linecap:butt;stroke-linejoin:miter;stroke-opacity:1" d="M 477.6,677.6 493.6,677.6 z" id="boundary" inkscape:connector-curvature="0" />
	<path style="fill:none;stroke:red;stroke-width:1px;stroke-linecap:butt;stroke-linejoin:miter;stroke-opacity:1" d="M 485.6,308 501.6,308 z" id="boundary" inkscape:connector-curvature="0" />
	<path style="fill:none;stroke:red;stroke-width:1px;stroke-linecap:butt;stroke-linejoin:miter;stroke-opacity:1" d="M 493.6,677.6 508,669.6 z" id="boundary" inkscape:connector-curvature="0" />
	<path style="fill:none;stroke:red;stroke-width:1px;stroke-linecap:butt;stroke-linejoin:miter;stroke-opacity:1" d="M 501.6,308 517.6,312.8 z" id="boundary" inkscape:connector-curvature="0" />
	<path style="fill:none;stroke:red;stroke-width:1px;stroke-linecap:butt;stroke-linejoin:miter;stroke-opacity:1" d="M 508,669.6 522.4,661.6 z" id="boundary" inkscape:connector-curvature="0" />
	<path style="fill:none;stroke:red;stroke-width:1px;stroke-linecap:butt;stroke-linejoin:miter;stroke-opacity:1" d="M 517.6,312.8 532,320.8 z" id="boundary" inkscape:connector-curvature="0" />
	<path style="fill:none;stroke:red;stroke-width:1px;stroke-linecap:butt;stroke-linejoin:miter;stroke-opacity:1" d="M 522.4,661.6 538.4,658.4 z" id="boundary" inkscape:connector-curvature="0" />
	<path style="fill:none;stroke:red;stroke-width:1px;stroke-linecap:butt;stroke-linejoin:miter;stroke-opacity:1" d="M 532,320.8 548,324 z" id="boundary" inkscape:connector-curvature="0" />
	<path style="fill:none;stroke:red;stroke-width:1px;stroke-linecap:butt;stroke-linejoin:miter;stroke-opacity:1" d="M 538.4,658.4 554.4,653.6 z" id="boundary" inkscape:connector-curvature="0" />
	<path style="fill:none;stroke:red;stroke-width:1px;stroke-linecap:butt;stroke-linejoin:miter;stroke-opacity:1" d="M 548,324 562.4,332 z" id="boundary" inkscape:connector-curvature="0" />
	<path style="fill:none;stroke:red;stroke-width:1px;stroke-linecap:butt;stroke-linejoin:miter;stroke-opacity:1" d="M 554.4,653.6 570.4,650.4 z" id="boundary" inkscape:connector-curvature="0" />
	<path style="fill:none;stroke:red;stroke-width:1px;stroke-linecap:butt;stroke-linejoin:miter;stroke-opacity:1" d="M 562.4,332 578.4,333.6 z" id="boundary" inkscape:connector-curvature="0" />
	<path style="fill:none;stroke:red;stroke-width:1px;stroke-linecap:butt;stroke-linejoin:miter;stroke-opacity:1" d="M 570.4,650.4 586.4,642.4 z" id="boundary" inkscape:connector-curvature="0" />
	<path style="fill:none;stroke:red;stroke-width:1px;stroke-linecap:butt;stroke-linejoin:miter;stroke-opacity:1" d="M 578.4,333.6 589.6,346.4 z" id="boundary" inkscape:connector-curvature="0" />
	<path style="fill:none;stroke:red;stroke-width:1px;stroke-linecap:butt;stroke-linejoin:miter;stroke-opacity:1" d="M 586.4,642.4 602.4,637.6 z" id="boundary" inkscape:connector-curvature="0" />
	<path style="fill:none;stroke:red;stroke-width:1px;stroke-linecap:butt;stroke-linejoin:miter;stroke-opacity:1" d="M 589.6,346.4 605.6,348 z" id="boundary" inkscape:connector-curvature="0" />
	<path style="fill:none;stroke:red;stroke-width:1px;stroke-linecap:butt;stroke-linejoin:miter;stroke-opacity:1" d="M 602.4,637.6 618.4,637.6 z" id="boundary" inkscape:connector-curvature="0" />
	<path style="fill:none;stroke:red;stroke-width:1px;stroke-linecap:butt;stroke-linejoin:miter;stroke-opacity:1" d="M 605.6,348 618.4,357.6 z" id="boundary" inkscape:connector-curvature="0" />
	<path style="fill:none;stroke:red;stroke-width:1px;stroke-linecap:butt;stroke-linejoin:miter;stroke-opacity:1" d="M 618.4,357.6 632.8,365.6 z" id="boundary" inkscape:connector-curvature="0" />
	<path style="fill:none;stroke:red;stroke-width:1px;stroke-linecap:butt;stroke-linejoin:miter;stroke-opacity:1" d="M 618.4,637.6 634.4,634.4 z" id="boundary" inkscape:connector-curvature="0" />
	<path style="fill:none;stroke:red;stroke-width:1px;stroke-linecap:butt;stroke-linejoin:miter;stroke-opacity:1" d="M 632.8,365.6 645.6,376.8 z" id="boundary" inkscape:connector-curvature="0" />
	<path style="fill:none;stroke:red;stroke-width:1px;stroke-linecap:butt;stroke-linejoin:miter;stroke-opacity:1" d="M 634.4,634.4 650.4,629.6 z" id="boundary" inkscape:connector-curvature="0" />
	<path style="fill:none;stroke:red;stroke-width:1px;stroke-linecap:butt;stroke-linejoin:miter;stroke-opacity:1" d="M 645.6,376.8 658.4,388 z" id="boundary" inkscape:connector-curvature="0" />
	<path style="fill:none;stroke:red;stroke-width:1px;stroke-linecap:butt;stroke-linejoin:miter;stroke-opacity:1" d="M 650.4,629.6 666.4,626.4 z" id="boundary" inkscape:connector-curvature="0" />
	<path style="fill:none;stroke:red;stroke-width:1px;stroke-linecap:butt;stroke-linejoin:miter;stroke-opacity:1" d="M 658.4,388 672.8,396 z" id="boundary" inkscape:connector-curvature="0" />
	<path style="fill:none;stroke:red;stroke-width:1px;stroke-linecap:butt;stroke-linejoin:miter;stroke-opacity:1" d="M 666.4,626.4 682.4,621.6 z" id="boundary" inkscape:connector-curvature="0" />
	<path style="fill:none;stroke:red;stroke-width:1px;stroke-linecap:butt;stroke-linejoin:miter;stroke-opacity:1" d="M 672.8,396 684,408.8 z" id="boundary" inkscape:connector-curvature="0" />
	<path style="fill:none;stroke:red;stroke-width:1px;stroke-linecap:butt;stroke-linejoin:miter;stroke-opacity:1" d="M 682.4,621.6 698.4,621.6 z" id="boundary" inkscape:connector-curvature="0" />
	<path style="fill:none;stroke:red;stroke-width:1px;stroke-linecap:butt;stroke-linejoin:miter;stroke-opacity:1" d="M 684,408.8 700,415.2 z" id="boundary" inkscape:connector-curvature="0" />
	<path style="fill:none;stroke:red;stroke-width:1px;stroke-linecap:butt;stroke-linejoin:miter;stroke-opacity:1" d="M 698.4,621.6 714.4,621.6 z" id="boundary" inkscape:connector-curvature="0" />
	<path style="fill:none;stroke:red;stroke-width:1px;stroke-linecap:butt;stroke-linejoin:miter;stroke-opacity:1" d="M 700,415.2 714.4,423.2 z" id="boundary" inkscape:connector-curvature="0" />
	<path style="fill:none;stroke:red;stroke-width:1px;stroke-linecap:butt;stroke-linejoin:miter;stroke-opacity:1" d="M 714.4,423.2 725.6,436 z" id="boundary" inkscape:connector-curvature="0" />
	<path style="fill:none;stroke:red;stroke-width:1px;stroke-linecap:butt;stroke-linejoin:miter;stroke-opacity:1" d="M 714.4,621.6 728.8,629.6 z" id="boundary" inkscape:connector-curvature="0" />
	<path style="fill:none;stroke:red;stroke-width:1px;stroke-linecap:butt;stroke-linejoin:miter;stroke-opacity:1" d="M 725.6,436 738.4,445.6 z" id="boundary" inkscape:connector-curvature="0" />
	<path style="fill:none;stroke:red;stroke-width:1px;stroke-linecap:butt;stroke-linejoin:miter;stroke-opacity:1" d="M 728.8,629.6 741.6,640.8 z" id="boundary" inkscape:connector-curvature="0" />
	<path style="fill:none;stroke:red;stroke-width:1px;stroke-linecap:butt;stroke-linejoin:miter;stroke-opacity:1" d="M 738.4,445.6 749.6,458.4 z" id="boundary" inkscape:connector-curvature="0" />
	<path style="fill:none;stroke:red;stroke-width:1px;stroke-linecap:butt;stroke-linejoin:miter;stroke-opacity:1" d="M 741.6,640.8 752.8,653.6 z" id="boundary" inkscape:connector-curvature="0" />
	<path style="fill:none;stroke:red;stroke-width:1px;stroke-linecap:butt;stroke-linejoin:miter;stroke-opacity:1" d="M 749.6,458.4 765.6,464.8 z" id="boundary" inkscape:connector-curvature="0" />
	<path style="fill:none;stroke:red;stroke-width:1px;stroke-linecap:butt;stroke-linejoin:miter;stroke-opacity:1" d="M 752.8,653.6 768.8,653.6 z" id="boundary" inkscape:connector-curvature="0" />
	<path style="fill:none;stroke:red;stroke-width:1px;stroke-linecap:butt;stroke-linejoin:miter;stroke-opacity:1" d="M 765.6,464.8 776.8,477.6 z" id="boundary" inkscape:connector-curvature="0" />
	<path style="fill:none;stroke:red;stroke-width:1px;stroke-linecap:butt;stroke-linejoin:miter;stroke-opacity:1" d="M 768.8,653.6 781.6,664.8 z" id="boundary" inkscape:connector-curvature="0" />
	<path style="fill:none;stroke:red;stroke-width:1px;stroke-linecap:butt;stroke-linejoin:miter;stroke-opacity:1" d="M 776.8,477.6 792.8,484 z" id="boundary" inkscape:connector-curvature="0" />
	<path style="fill:none;stroke:red;stroke-width:1px;stroke-linecap:butt;stroke-linejoin:miter;stroke-opacity:1" d="M 781.6,664.8 792.8,677.6 z" id="boundary" inkscape:connector-curvature="0" />
	<path style="fill:none;stroke:red;stroke-width:1px;stroke-linecap:butt;stroke-linejoin:miter;stroke-opacity:1" d="M 792.8,484 807.2,492 z" id="boundary" inkscape:connector-curvature="0" />
	<path style="fill:none;stroke:red;stroke-width:1px;stroke-linecap:butt;stroke-linejoin:miter;stroke-opacity:1" d="M 792.8,677.6 807.2,669.6 z" id="boundary" inkscape:connector-curvature="0" />
	<path style="fill:none;stroke:red;stroke-width:1px;stroke-linecap:butt;stroke-linejoin:miter;stroke-opacity:1" d="M 807.2,492 821.6,500 z" id="boundary" inkscape:connector-curvature="0" />
	<path style="fill:none;stroke:red;stroke-width:1px;stroke-linecap:butt;stroke-linejoin:miter;stroke-opacity:1" d="M 807.2,669.6 820,656.8 z" id="boundary" inkscape:connector-curvature="0" />
	<path style="fill:none;stroke:red;stroke-width:1px;stroke-linecap:butt;stroke-linejoin:miter;stroke-opacity:1" d="M 820,656.8 836,653.6 z" id="boundary" inkscape:connector-curvature="0" />
	<path style="fill:none;stroke:red;stroke-width:1px;stroke-linecap:butt;stroke-linejoin:miter;stroke-opacity:1" d="M 821.6,500 836,508 z" id="boundary" inkscape:connector-curvature="0" />
	<path style="fill:none;stroke:red;stroke-width:1px;stroke-linecap:butt;stroke-linejoin:miter;stroke-opacity:1" d="M 836,508 848.8,517.6 z" id="boundary" inkscape:connector-curvature="0" />
	<path style="fill:none;stroke:red;stroke-width:1px;stroke-linecap:butt;stroke-linejoin:miter;stroke-opacity:1" d="M 836,653.6 852,653.6 z" id="boundary" inkscape:connector-curvature="0" />
	<path style="fill:none;stroke:red;stroke-width:1px;stroke-linecap:butt;stroke-linejoin:miter;stroke-opacity:1" d="M 848.8,517.6 864.8,524 z" id="boundary" inkscape:connector-curvature="0" />
	<path style="fill:none;stroke:red;stroke-width:1px;stroke-linecap:butt;stroke-linejoin:miter;stroke-opacity:1" d="M 852,653.6 856.8,669.6 z" id="boundary" inkscape:connector-curvature="0" />
	<path style="fill:none;stroke:red;stroke-width:1px;stroke-linecap:butt;stroke-linejoin:miter;stroke-opacity:1" d="M 856.8,669.6 871.2,677.6 z" id="boundary" inkscape:connector-curvature="0" />
	<path style="fill:none;stroke:red;stroke-width:1px;stroke-linecap:butt;stroke-linejoin:miter;stroke-opacity:1" d="M 864.8,524 879.2,532 z" id="boundary" inkscape:connector-curvature="0" />
	<path style="fill:none;stroke:red;stroke-width:1px;stroke-linecap:butt;stroke-linejoin:miter;stroke-opacity:1" d="M 871.2,677.6 884,687.2 z" id="boundary" inkscape:connector-curvature="0" />
	<path style="fill:none;stroke:red;stroke-width:1px;stroke-linecap:butt;stroke-linejoin:miter;stroke-opacity:1" d="M 879.2,532 893.6,540 z" id="boundary" inkscape:connector-curvature="0" />
	<path style="fill:none;stroke:red;stroke-width:1px;stroke-linecap:butt;stroke-linejoin:miter;stroke-opacity:1" d="M 884,687.2 900,693.6 z" id="boundary" inkscape:connector-curvature="0" />
	<path style="fill:none;stroke:red;stroke-width:1px;stroke-linecap:butt;stroke-linejoin:miter;stroke-opacity:1" d="M 893.6,540 908,548 z" id="boundary" inkscape:connector-curvature="0" />
	<path style="fill:none;stroke:red;stroke-width:1px;stroke-linecap:butt;stroke-linejoin:miter;stroke-opacity:1" d="M 900,693.6 914.4,701.6 z" id="boundary" inkscape:connector-curvature="0" />
	<path style="fill:none;stroke:red;stroke-width:1px;stroke-linecap:butt;stroke-linejoin:miter;stroke-opacity:1" d="M 908,548 920.8,557.6 z" id="boundary" inkscape:connector-curvature="0" />
	<path style="fill:none;stroke:red;stroke-width:1px;stroke-linecap:butt;stroke-linejoin:miter;stroke-opacity:1" d="M 914.4,701.6 925.6,714.4 z" id="boundary" inkscape:connector-curvature="0" />
	<path style="fill:none;stroke:red;stroke-width:1px;stroke-linecap:butt;stroke-linejoin:miter;stroke-opacity:1" d="M 920.8,557.6 936.8,564 z" id="boundary" inkscape:connector-curvature="0" />
	<path style="fill:none;stroke:red;stroke-width:1px;stroke-linecap:butt;stroke-linejoin:miter;stroke-opacity:1" d="M 925.6,645.6 933.6,629.6 z" id="boundary" inkscape:connector-curvature="0" />
	<path style="fill:none;stroke:red;stroke-width:1px;stroke-linecap:butt;stroke-linejoin:miter;stroke-opacity:1" d="M 925.6,645.6 933.6,660 z" id="boundary" inkscape:connector-curvature="0" />
	<path style="fill:none;stroke:red;stroke-width:1px;stroke-linecap:butt;stroke-linejoin:miter;stroke-opacity:1" d="M 925.6,714.4 941.6,709.6 z" id="boundary" inkscape:connector-curvature="0" />
	<path style="fill:none;stroke:red;stroke-width:1px;stroke-linecap:butt;stroke-linejoin:miter;stroke-opacity:1" d="M 933.6,629.6 948,621.6 z" id="boundary" inkscape:connector-curvature="0" />
	<path style="fill:none;stroke:red;stroke-width:1px;stroke-linecap:butt;stroke-linejoin:miter;stroke-opacity:1" d="M 933.6,660 941.6,674.4 z" id="boundary" inkscape:connector-curvature="0" />
	<path style="fill:none;stroke:red;stroke-width:1px;stroke-linecap:butt;stroke-linejoin:miter;stroke-opacity:1" d="M 936.8,564 951.2,572 z" id="boundary" inkscape:connector-curvature="0" />
	<path style="fill:none;stroke:red;stroke-width:1px;stroke-linecap:butt;stroke-linejoin:miter;stroke-opacity:1" d="M 941.6,674.4 949.6,688.8 z" id="boundary" inkscape:connector-curvature="0" />
	<path style="fill:none;stroke:red;stroke-width:1px;stroke-linecap:butt;stroke-linejoin:miter;stroke-opacity:1" d="M 941.6,709.6 949.6,688.8 z" id="boundary" inkscape:connector-curvature="0" />
	<path style="fill:none;stroke:red;stroke-width:1px;stroke-linecap:butt;stroke-linejoin:miter;stroke-opacity:1" d="M 948,621.6 964,621.6 z" id="boundary" inkscape:connector-curvature="0" />
	<path style="fill:none;stroke:red;stroke-width:1px;stroke-linecap:butt;stroke-linejoin:miter;stroke-opacity:1" d="M 951.2,572 967.2,572 z" id="boundary" inkscape:connector-curvature="0" />
	<path style="fill:none;stroke:red;stroke-width:1px;stroke-linecap:butt;stroke-linejoin:miter;stroke-opacity:1" d="M 964,621.6 980,621.6 z" id="boundary" inkscape:connector-curvature="0" />
	<path style="fill:none;stroke:red;stroke-width:1px;stroke-linecap:butt;stroke-linejoin:miter;stroke-opacity:1" d="M 967.2,572 981.6,580 z" id="boundary" inkscape:connector-curvature="0" />
	<path style="fill:none;stroke:red;stroke-width:1px;stroke-linecap:butt;stroke-linejoin:miter;stroke-opacity:1" d="M 980,621.6 996,616.8 z" id="boundary" inkscape:connector-curvature="0" />
	<path style="fill:none;stroke:red;stroke-width:1px;stroke-linecap:butt;stroke-linejoin:miter;stroke-opacity:1" d="M 981.6,580 989.6,594.4 z" id="boundary" inkscape:connector-curvature="0" />
	<path style="fill:none;stroke:red;stroke-width:1px;stroke-linecap:butt;stroke-linejoin:miter;stroke-opacity:1" d="M 989.6,594.4 996,616.8 z" id="boundary" inkscape:connector-curvature="0" />
	<circle cx="4" cy="160.8" r="4" fill="#0" id="circle0"/>
	<circle cx="4" cy="176.8" r="4" fill="#0" id="circle1"/>
	<circle cx="4" cy="192.8" r="4" fill="#0" id="circle2"/>
	<circle cx="4" cy="208.8" r="4" fill="#0" id="circle3"/>
	<circle cx="12" cy="223.2" r="4" fill="#0" id="circle4"/>
	<circle cx="12" cy="239.2" r="4" fill="#0" id="circle5"/>
	<circle cx="16.8" cy="148" r="4" fill="#0" id="circle6"/>
	<circle cx="20" cy="253.6" r="4" fill="#0" id="circle7"/>
	<circle cx="24.8" cy="132" r="4" fill="#0" id="circle8"/>
	<circle cx="28" cy="268" r="4" fill="#0" id="circle9"/>
	<circle cx="36" cy="112.8" r="4" fill="#0" id="circle10"/>
	<circle cx="36" cy="282.4" r="4" fill="#0" id="circle11"/>
	<circle cx="44" cy="96.8" r="4" fill="#0" id="circle12"/>
	<circle cx="48.8" cy="293.6" r="4" fill="#0" id="circle13"/>
	<circle cx="52" cy="440.8" r="4" fill="#0" id="circle14"/>
	<circle cx="52" cy="456.8" r="4" fill="#0" id="circle15"/>
	<circle cx="52" cy="472.8" r="4" fill="#0" id="circle16"/>
	<circle cx="52" cy="488.8" r="4" fill="#0" id="circle17"/>
	<circle cx="52" cy="504.8" r="4" fill="#0" id="circle18"/>
	<circle cx="56.8" cy="84" r="4" fill="#0" id="circle19"/>
	<circle cx="60" cy="424.8" r="4" fill="#0" id="circle20"/>
	<circle cx="60" cy="519.2" r="4" fill="#0" id="circle21"/>
	<circle cx="61.6" cy="229.6" r="4" fill="#0" id="circle22"/>
	<circle cx="61.6" cy="245.6" r="4" fill="#0" id="circle23"/>
	<circle cx="61.6" cy="261.6" r="4" fill="#0" id="circle24"/>
	<circle cx="61.6" cy="277.6" r="4" fill="#0" id="circle25"/>
	<circle cx="64.8" cy="68" r="4" fill="#0" id="circle26"/>
	<circle cx="68" cy="48.8" r="4" fill="#0" id="circle27"/>
	<circle cx="68" cy="408.8" r="4" fill="#0" id="circle28"/>
	<circle cx="68" cy="533.6" r="4" fill="#0" id="circle29"/>
	<circle cx="69.6" cy="205.6" r="4" fill="#0" id="circle30"/>
	<circle cx="76" cy="392.8" r="4" fill="#0" id="circle31"/>
	<circle cx="77.6" cy="189.6" r="4" fill="#0" id="circle32"/>
	<circle cx="77.6" cy="546.4" r="4" fill="#0" id="circle33"/>
	<circle cx="80.8" cy="36" r="4" fill="#0" id="circle34"/>
	<circle cx="84" cy="376.8" r="4" fill="#0" id="circle35"/>
	<circle cx="85.6" cy="173.6" r="4" fill="#0" id="circle36"/>
	<circle cx="88.8" cy="20" r="4" fill="#0" id="circle37"/>
	<circle cx="90.4" cy="557.6" r="4" fill="#0" id="circle38"/>
	<circle cx="93.6" cy="157.6" r="4" fill="#0" id="circle39"/>
	<circle cx="96.8" cy="364" r="4" fill="#0" id="circle40"/>
	<circle cx="100" cy="570.4" r="4" fill="#0" id="circle41"/>
	<circle cx="101.6" cy="586.4" r="4" fill="#0" id="circle42"/>
	<circle cx="103.2" cy="12" r="4" fill="#0" id="circle43"/>
	<circle cx="104.8" cy="348" r="4" fill="#0" id="circle44"/>
	<circle cx="106.4" cy="146.4" r="4" fill="#0" id="circle45"/>
	<circle cx="112.8" cy="332" r="4" fill="#0" id="circle46"/>
	<circle cx="114.4" cy="597.6" r="4" fill="#0" id="circle47"/>
	<circle cx="117.6" cy="4" r="4" fill="#0" id="circle48"/>
	<circle cx="122.4" cy="141.6" r="4" fill="#0" id="circle49"/>
	<circle cx="124" cy="312.8" r="4" fill="#0" id="circle50"/>
	<circle cx="128.8" cy="605.6" r="4" fill="#0" id="circle51"/>
	<circle cx="133.6" cy="4" r="4" fill="#0" id="circle52"/>
	<circle cx="136.8" cy="133.6" r="4" fill="#0" id="circle53"/>
	<circle cx="136.8" cy="300" r="4" fill="#0" id="circle54"/>
	<circle cx="141.6" cy="429.6" r="4" fill="#0" id="circle55"/>
	<circle cx="141.6" cy="445.6" r="4" fill="#0" id="circle56"/>
	<circle cx="141.6" cy="461.6" r="4" fill="#0" id="circle57"/>
	<circle cx="141.6" cy="477.6" r="4" fill="#0" id="circle58"/>
	<circle cx="143.2" cy="613.6" r="4" fill="#0" id="circle59"/>
	<circle cx="144.8" cy="284" r="4" fill="#0" id="circle60"/>
	<circle cx="149.6" cy="4" r="4" fill="#0" id="circle61"/>
	<circle cx="149.6" cy="492" r="4" fill="#0" id="circle62"/>
	<circle cx="151.2" cy="125.6" r="4" fill="#0" id="circle63"/>
	<circle cx="154.4" cy="418.4" r="4" fill="#0" id="circle64"/>
	<circle cx="157.6" cy="271.2" r="4" fill="#0" id="circle65"/>
	<circle cx="157.6" cy="397.6" r="4" fill="#0" id="circle66"/>
	<circle cx="157.6" cy="621.6" r="4" fill="#0" id="circle67"/>
	<circle cx="165.6" cy="4" r="4" fill="#0" id="circle68"/>
	<circle cx="165.6" cy="117.6" r="4" fill="#0" id="circle69"/>
	<circle cx="165.6" cy="492" r="4" fill="#0" id="circle70"/>
	<circle cx="170.4" cy="260" r="4" fill="#0" id="circle71"/>
	<circle cx="170.4" cy="386.4" r="4" fill="#0" id="circle72"/>
	<circle cx="172" cy="232.8" r="4" fill="#0" id="circle73"/>
	<circle cx="173.6" cy="349.6" r="4" fill="#0" id="circle74"/>
	<circle cx="173.6" cy="365.6" r="4" fill="#0" id="circle75"/>
	<circle cx="173.6" cy="621.6" r="4" fill="#0" id="circle76"/>
	<circle cx="175.2" cy="477.6" r="4" fill="#0" id="circle77"/>
	<circle cx="180" cy="216.8" r="4" fill="#0" id="circle78"/>
	<circle cx="180" cy="456.8" r="4" fill="#0" id="circle79"/>
	<circle cx="181.6" cy="8.8" r="4" fill="#0" id="circle80"/>
	<circle cx="181.6" cy="117.6" r="4" fill="#0" id="circle81"/>
	<circle cx="188" cy="133.6" r="4" fill="#0" id="circle82"/>
	<circle cx="188" cy="149.6" r="4" fill="#0" id="circle83"/>
	<circle cx="188" cy="165.6" r="4" fill="#0" id="circle84"/>
	<circle cx="188" cy="181.6" r="4" fill="#0" id="circle85"/>
	<circle cx="188" cy="197.6" r="4" fill="#0" id="circle86"/>
	<circle cx="188" cy="424.8" r="4" fill="#0" id="circle87"/>
	<circle cx="188" cy="440.8" r="4" fill="#0" id="circle88"/>
	<circle cx="189.6" cy="333.6" r="4" fill="#0" id="circle89"/>
	<circle cx="189.6" cy="621.6" r="4" fill="#0" id="circle90"/>
	<circle cx="196" cy="400.8" r="4" fill="#0" id="circle91"/>
	<circle cx="197.6" cy="12" r="4" fill="#0" id="circle92"/>
	<circle cx="197.6" cy="309.6" r="4" fill="#0" id="circle93"/>
	<circle cx="204" cy="376.8" r="4" fill="#0" id="circle94"/>
	<circle cx="205.6" cy="621.6" r="4" fill="#0" id="circle95"/>
	<circle cx="210.4" cy="21.6" r="4" fill="#0" id="circle96"/>
	<circle cx="210.4" cy="298.4" r="4" fill="#0" id="circle97"/>
	<circle cx="216.8" cy="364" r="4" fill="#0" id="circle98"/>
	<circle cx="218.4" cy="36" r="4" fill="#0" id="circle99"/>
	<circle cx="218.4" cy="282.4" r="4" fill="#0" id="circle100"/>
	<circle cx="221.6" cy="621.6" r="4" fill="#0" id="circle101"/>
	<circle cx="224.8" cy="348" r="4" fill="#0" id="circle102"/>
	<circle cx="229.6" cy="261.6" r="4" fill="#0" id="circle103"/>
	<circle cx="232.8" cy="44" r="4" fill="#0" id="circle104"/>
	<circle cx="237.6" cy="60" r="4" fill="#0" id="circle105"/>
	<circle cx="237.6" cy="76" r="4" fill="#0" id="circle106"/>
	<circle cx="237.6" cy="229.6" r="4" fill="#0" id="circle107"/>
	<circle cx="237.6" cy="245.6" r="4" fill="#0" id="circle108"/>
	<circle cx="237.6" cy="335.2" r="4" fill="#0" id="circle109"/>
	<circle cx="237.6" cy="613.6" r="4" fill="#0" id="circle110"/>
	<circle cx="245.6" cy="90.4" r="4" fill="#0" id="circle111"/>
	<circle cx="245.6" cy="106.4" r="4" fill="#0" id="circle112"/>
	<circle cx="245.6" cy="122.4" r="4" fill="#0" id="circle113"/>
	<circle cx="245.6" cy="213.6" r="4" fill="#0" id="circle114"/>
	<circle cx="253.6" cy="136.8" r="4" fill="#0" id="circle115"/>
	<circle cx="253.6" cy="152.8" r="4" fill="#0" id="circle116"/>
	<circle cx="253.6" cy="168.8" r="4" fill="#0" id="circle117"/>
	<circle cx="253.6" cy="184.8" r="4" fill="#0" id="circle118"/>
	<circle cx="253.6" cy="332" r="4" fill="#0" id="circle119"/>
	<circle cx="253.6" cy="613.6" r="4" fill="#0" id="circle120"/>
	<circle cx="268" cy="324" r="4" fill="#0" id="circle121"/>
	<circle cx="269.6" cy="613.6" r="4" fill="#0" id="circle122"/>
	<circle cx="277.6" cy="311.2" r="4" fill="#0" id="circle123"/>
	<circle cx="284" cy="605.6" r="4" fill="#0" id="circle124"/>
	<circle cx="293.6" cy="308" r="4" fill="#0" id="circle125"/>
	<circle cx="298.4" cy="613.6" r="4" fill="#0" id="circle126"/>
	<circle cx="309.6" cy="308" r="4" fill="#0" id="circle127"/>
	<circle cx="312.8" cy="621.6" r="4" fill="#0" id="circle128"/>
	<circle cx="325.6" cy="308" r="4" fill="#0" id="circle129"/>
	<circle cx="327.2" cy="629.6" r="4" fill="#0" id="circle130"/>
	<circle cx="340" cy="639.2" r="4" fill="#0" id="circle131"/>
	<circle cx="341.6" cy="308" r="4" fill="#0" id="circle132"/>
	<circle cx="356" cy="645.6" r="4" fill="#0" id="circle133"/>
	<circle cx="357.6" cy="308" r="4" fill="#0" id="circle134"/>
	<circle cx="370.4" cy="653.6" r="4" fill="#0" id="circle135"/>
	<circle cx="372" cy="669.6" r="4" fill="#0" id="circle136"/>
	<circle cx="372" cy="685.6" r="4" fill="#0" id="circle137"/>
	<circle cx="373.6" cy="308" r="4" fill="#0" id="circle138"/>
	<circle cx="381.6" cy="698.4" r="4" fill="#0" id="circle139"/>
	<circle cx="389.6" cy="308" r="4" fill="#0" id="circle140"/>
	<circle cx="396" cy="952.8" r="4" fill="#0" id="circle141"/>
	<circle cx="397.6" cy="704.8" r="4" fill="#0" id="circle142"/>
	<circle cx="404" cy="720.8" r="4" fill="#0" id="circle143"/>
	<circle cx="405.6" cy="308" r="4" fill="#0" id="circle144"/>
	<circle cx="408.8" cy="940" r="4" fill="#0" id="circle145"/>
	<circle cx="412" cy="735.2" r="4" fill="#0" id="circle146"/>
	<circle cx="412" cy="751.2" r="4" fill="#0" id="circle147"/>
	<circle cx="412" cy="957.6" r="4" fill="#0" id="circle148"/>
	<circle cx="420" cy="765.6" r="4" fill="#0" id="circle149"/>
	<circle cx="420" cy="781.6" r="4" fill="#0" id="circle150"/>
	<circle cx="420" cy="797.6" r="4" fill="#0" id="circle151"/>
	<circle cx="420" cy="813.6" r="4" fill="#0" id="circle152"/>
	<circle cx="421.6" cy="308" r="4" fill="#0" id="circle153"/>
	<circle cx="424.8" cy="932" r="4" fill="#0" id="circle154"/>
	<circle cx="426.4" cy="965.6" r="4" fill="#0" id="circle155"/>
	<circle cx="428" cy="828" r="4" fill="#0" id="circle156"/>
	<circle cx="428" cy="844" r="4" fill="#0" id="circle157"/>
	<circle cx="428" cy="860" r="4" fill="#0" id="circle158"/>
	<circle cx="428" cy="876" r="4" fill="#0" id="circle159"/>
	<circle cx="428" cy="892" r="4" fill="#0" id="circle160"/>
	<circle cx="428" cy="908" r="4" fill="#0" id="circle161"/>
	<circle cx="437.6" cy="308" r="4" fill="#0" id="circle162"/>
	<circle cx="442.4" cy="965.6" r="4" fill="#0" id="circle163"/>
	<circle cx="445.6" cy="693.6" r="4" fill="#0" id="circle164"/>
	<circle cx="445.6" cy="709.6" r="4" fill="#0" id="circle165"/>
	<circle cx="445.6" cy="725.6" r="4" fill="#0" id="circle166"/>
	<circle cx="445.6" cy="741.6" r="4" fill="#0" id="circle167"/>
	<circle cx="445.6" cy="757.6" r="4" fill="#0" id="circle168"/>
	<circle cx="445.6" cy="773.6" r="4" fill="#0" id="circle169"/>
	<circle cx="445.6" cy="789.6" r="4" fill="#0" id="circle170"/>
	<circle cx="445.6" cy="805.6" r="4" fill="#0" id="circle171"/>
	<circle cx="445.6" cy="821.6" r="4" fill="#0" id="circle172"/>
	<circle cx="445.6" cy="837.6" r="4" fill="#0" id="circle173"/>
	<circle cx="445.6" cy="853.6" r="4" fill="#0" id="circle174"/>
	<circle cx="445.6" cy="869.6" r="4" fill="#0" id="circle175"/>
	<circle cx="445.6" cy="885.6" r="4" fill="#0" id="circle176"/>
	<circle cx="453.6" cy="308" r="4" fill="#0" id="circle177"/>
	<circle cx="453.6" cy="900" r="4" fill="#0" id="circle178"/>
	<circle cx="453.6" cy="916" r="4" fill="#0" id="circle179"/>
	<circle cx="456.8" cy="956" r="4" fill="#0" id="circle180"/>
	<circle cx="461.6" cy="685.6" r="4" fill="#0" id="circle181"/>
	<circle cx="461.6" cy="930.4" r="4" fill="#0" id="circle182"/>
	<circle cx="469.6" cy="308" r="4" fill="#0" id="circle183"/>
	<circle cx="477.6" cy="677.6" r="4" fill="#0" id="circle184"/>
	<circle cx="485.6" cy="308" r="4" fill="#0" id="circle185"/>
	<circle cx="493.6" cy="677.6" r="4" fill="#0" id="circle186"/>
	<circle cx="501.6" cy="308" r="4" fill="#0" id="circle187"/>
	<circle cx="508" cy="669.6" r="4" fill="#0" id="circle188"/>
	<circle cx="517.6" cy="312.8" r="4" fill="#0" id="circle189"/>
	<circle cx="522.4" cy="661.6" r="4" fill="#0" id="circle190"/>
	<circle cx="532" cy="320.8" r="4" fill="#0" id="circle191"/>
	<circle cx="538.4" cy="658.4" r="4" fill="#0" id="circle192"/>
	<circle cx="548" cy="324" r="4" fill="#0" id="circle193"/>
	<circle cx="554.4" cy="653.6" r="4" fill="#0" id="circle194"/>
	<circle cx="562.4" cy="332" r="4" fill="#0" id="circle195"/>
	<circle cx="570.4" cy="650.4" r="4" fill="#0" id="circle196"/>
	<circle cx="578.4" cy="333.6" r="4" fill="#0" id="circle197"/>
	<circle cx="586.4" cy="642.4" r="4" fill="#0" id="circle198"/>
	<circle cx="589.6" cy="346.4" r="4" fill="#0" id="circle199"/>
	<circle cx="602.4" cy="637.6" r="4" fill="#0" id="circle200"/>
	<circle cx="605.6" cy="348" r="4" fill="#0" id="circle201"/>
	<circle cx="618.4" cy="357.6" r="4" fill="#0" id="circle202"/>
	<circle cx="618.4" cy="637.6" r="4" fill="#0" id="circle203"/>
	<circle cx="632.8" cy="365.6" r="4" fill="#0" id="circle204"/>
	<circle cx="634.4" cy="634.4" r="4" fill="#0" id="circle205"/>
	<circle cx="645.6" cy="376.8" r="4" fill="#0" id="circle206"/>
	<circle cx="650.4" cy="629.6" r="4" fill="#0" id="circle207"/>
	<circle cx="658.4" cy="388" r="4" fill="#0" id="circle208"/>
	<circle cx="666.4" cy="626.4" r="4" fill="#0" id="circle209"/>
	<circle cx="672.8" cy="396" r="4" fill="#0" id="circle210"/>
	<circle cx="682.4" cy="621.6" r="4" fill="#0" id="circle211"/>
	<circle cx="684" cy="408.8" r="4" fill="#0" id="circle212"/>
	<circle cx="698.4" cy="621.6" r="4" fill="#0" id="circle213"/>
	<circle cx="700" cy="415.2" r="4" fill="#0" id="circle214"/>
	<circle cx="714.4" cy="423.2" r="4" fill="#0" id="circle215"/>
	<circle cx="714.4" cy="621.6" r="4" fill="#0" id="circle216"/>
	<circle cx="725.6" cy="436" r="4" fill="#0" id="circle217"/>
	<circle cx="728.8" cy="629.6" r="4" fill="#0" id="circle218"/>
	<circle cx="738.4" cy="445.6" r="4" fill="#0" id="circle219"/>
	<circle cx="741.6" cy="640.8" r="4" fill="#0" id="circle220"/>
	<circle cx="749.6" cy="458.4" r="4" fill="#0" id="circle221"/>
	<circle cx="752.8" cy="653.6" r="4" fill="#0" id="circle222"/>
	<circle cx="765.6" cy="464.8" r="4" fill="#0" id="circle223"/>
	<circle cx="768.8" cy="653.6" r="4" fill="#0" id="circle224"/>
	<circle cx="776.8" cy="477.6" r="4" fill="#0" id="circle225"/>
	<circle cx="781.6" cy="664.8" r="4" fill="#0" id="circle226"/>
	<circle cx="792.8" cy="484" r="4" fill="#0" id="circle227"/>
	<circle cx="792.8" cy="677.6" r="4" fill="#0" id="circle228"/>
	<circle cx="807.2" cy="492" r="4" fill="#0" id="circle229"/>
	<circle cx="807.2" cy="669.6" r="4" fill="#0" id="circle230"/>
	<circle cx="820" cy="656.8" r="4" fill="#0" id="circle231"/>
	<circle cx="821.6" cy="500" r="4" fill="#0" id="circle232"/>
	<circle cx="836" cy="508" r="4" fill="#0" id="circle233"/>
	<circle cx="836" cy="653.6" r="4" fill="#0" id="circle234"/>
	<circle cx="848.8" cy="517.6" r="4" fill="#0" id="circle235"/>
	<circle cx="852" cy="653.6" r="4" fill="#0" id="circle236"/>
	<circle cx="856.8" cy="669.6" r="4" fill="#0" id="circle237"/>
	<circle cx="864.8" cy="524" r="4" fill="#0" id="circle238"/>
	<circle cx="871.2" cy="677.6" r="4" fill="#0" id="circle239"/>
	<circle cx="879.2" cy="532" r="4" fill="#0" id="circle240"/>
	<circle cx="884" cy="687.2" r="4" fill="#0" id="circle241"/>
	<circle cx="893.6" cy="540" r="4" fill="#0" id="circle242"/>
	<circle cx="900" cy="693.6" r="4" fill="#0" id="circle243"/>
	<circle cx="908" cy="548" r="4" fill="#0" id="circle244"/>
	<circle cx="914.4" cy="701.6" r="4" fill="#0" id="circle245"/>
	<circle cx="920.8" cy="557.6" r="4" fill="#0" id="circle246"/>
	<circle cx="925.6" cy="645.6" r="4" fill="#0" id="circle247"/>
	<circle cx="925.6" cy="714.4" r="4" fill="#0" id="circle248"/>
	<circle cx="933.6" cy="629.6" r="4" fill="#0" id="circle249"/>
	<circle cx="933.6" cy="660" r="4" fill="#0" id="circle250"/>
	<circle cx="936.8" cy="564" r="4" fill="#0" id="circle251"/>
	<circle cx="941.6" cy="674.4" r="4" fill="#0" id="circle252"/>
	<circle cx="941.6" cy="709.6" r="4" fill="#0" id="circle253"/>
	<circle cx="948" cy="621.6" r="4" fill="#0" id="circle254"/>
	<circle cx="949.6" cy="688.8" r="4" fill="#0" id="circle255"/>
	<circle cx="951.2" cy="572" r="4" fill="#0" id="circle256"/>
	<circle cx="964" cy="621.6" r="4" fill="#0" id="circle257"/>
	<circle cx="967.2" cy="572" r="4" fill="#0" id="circle258"/>
	<circle cx="980" cy="621.6" r="4" fill="#0" id="circle259"/>
	<circle cx="981.6" cy="580" r="4" fill="#0" id="circle260"/>
	<circle cx="989.6" cy="594.4" r="4" fill="#0" id="circle261"/>
	<circle cx="996" cy="616.8" r="4" fill="#0" id="circle262"/>
	</g>
</svg>