<?xml version="1.0" encoding="UTF-8" standalone="no"?>
<!-- Created with CurveBenchmark -->
<svg
	xmlns:dc="http://purl.org/dc/elements/1.1/"
	xmlns:cc="http://creativecommons.org/ns#"
	xmlns:rdf="http://www.w3.org/1999/02/22-rdf-syntax-ns#"
	xmlns:svg="http://www.w3.org/2000/svg"
	xmlns="http://www.w3.org/2000/svg"
	xmlns:sodipodi="http://sodipodi.sourceforge.net/DTD/sodipodi-0.dtd"
	xmlns:inkscape="http://www.inkscape.org/namespaces/inkscape"
	width="1000"
	height="1000"
	id="svg2"
	version="1.1"
	sodipodi:docname="manifold/hnncrust-bird095.png.txt">
<defs
	id="defs4" />
<metadata
	id="metadata7">
	<rdf:RDF>
		<cc:Work
			rdf:about="">
			<dc:format>image/svg+xml</dc:format>
			<dc:type
				rdf:resource="http://purl.org/dc/dcmitype/StillImage" />
			<dc:title></dc:title>
		</cc:Work>
	</rdf:RDF>
</metadata>
<g
	inkscape:label="Layer 1"
	inkscape:groupmode="layer"
	id="layer1">
	<path style="fill:none;stroke:red;stroke-width:1px;stroke-linecap:butt;stroke-linejoin:miter;stroke-opacity:1" d="M 4,105.145 4,144.047 z" id="boundary" inkscape:connector-curvature="0" />
	<path style="fill:none;stroke:red;stroke-width:1px;stroke-linecap:butt;stroke-linejoin:miter;stroke-opacity:1" d="M 4,105.145 11.7804,66.2431 z" id="boundary" inkscape:connector-curvature="0" />
	<path style="fill:none;stroke:red;stroke-width:1px;stroke-linecap:butt;stroke-linejoin:miter;stroke-opacity:1" d="M 4,144.047 4,182.949 z" id="boundary" inkscape:connector-curvature="0" />
	<path style="fill:none;stroke:red;stroke-width:1px;stroke-linecap:butt;stroke-linejoin:miter;stroke-opacity:1" d="M 4,182.949 4,221.851 z" id="boundary" inkscape:connector-curvature="0" />
	<path style="fill:none;stroke:red;stroke-width:1px;stroke-linecap:butt;stroke-linejoin:miter;stroke-opacity:1" d="M 4,221.851 15.6706,260.753 z" id="boundary" inkscape:connector-curvature="0" />
	<path style="fill:none;stroke:red;stroke-width:1px;stroke-linecap:butt;stroke-linejoin:miter;stroke-opacity:1" d="M 11.7804,66.2431 42.902,35.1216 z" id="boundary" inkscape:connector-curvature="0" />
	<path style="fill:none;stroke:red;stroke-width:1px;stroke-linecap:butt;stroke-linejoin:miter;stroke-opacity:1" d="M 15.6706,260.753 27.3412,299.655 z" id="boundary" inkscape:connector-curvature="0" />
	<path style="fill:none;stroke:red;stroke-width:1px;stroke-linecap:butt;stroke-linejoin:miter;stroke-opacity:1" d="M 27.3412,299.655 42.902,338.557 z" id="boundary" inkscape:connector-curvature="0" />
	<path style="fill:none;stroke:red;stroke-width:1px;stroke-linecap:butt;stroke-linejoin:miter;stroke-opacity:1" d="M 35.1216,960.988 58.4627,992.11 z" id="boundary" inkscape:connector-curvature="0" />
	<path style="fill:none;stroke:red;stroke-width:1px;stroke-linecap:butt;stroke-linejoin:miter;stroke-opacity:1" d="M 35.1216,960.988 66.2431,929.867 z" id="boundary" inkscape:connector-curvature="0" />
	<path style="fill:none;stroke:red;stroke-width:1px;stroke-linecap:butt;stroke-linejoin:miter;stroke-opacity:1" d="M 42.902,35.1216 81.8039,19.5608 z" id="boundary" inkscape:connector-curvature="0" />
	<path style="fill:none;stroke:red;stroke-width:1px;stroke-linecap:butt;stroke-linejoin:miter;stroke-opacity:1" d="M 42.902,338.557 50.6824,377.459 z" id="boundary" inkscape:connector-curvature="0" />
	<path style="fill:none;stroke:red;stroke-width:1px;stroke-linecap:butt;stroke-linejoin:miter;stroke-opacity:1" d="M 50.6824,377.459 50.6824,416.361 z" id="boundary" inkscape:connector-curvature="0" />
	<path style="fill:none;stroke:red;stroke-width:1px;stroke-linecap:butt;stroke-linejoin:miter;stroke-opacity:1" d="M 50.6824,416.361 58.4627,455.263 z" id="boundary" inkscape:connector-curvature="0" />
	<path style="fill:none;stroke:red;stroke-width:1px;stroke-linecap:butt;stroke-linejoin:miter;stroke-opacity:1" d="M 58.4627,455.263 58.4627,494.165 z" id="boundary" inkscape:connector-curvature="0" />
	<path style="fill:none;stroke:red;stroke-width:1px;stroke-linecap:butt;stroke-linejoin:miter;stroke-opacity:1" d="M 58.4627,494.165 66.2431,533.067 z" id="boundary" inkscape:connector-curvature="0" />
	<path style="fill:none;stroke:red;stroke-width:1px;stroke-linecap:butt;stroke-linejoin:miter;stroke-opacity:1" d="M 58.4627,992.11 97.3647,996 z" id="boundary" inkscape:connector-curvature="0" />
	<path style="fill:none;stroke:red;stroke-width:1px;stroke-linecap:butt;stroke-linejoin:miter;stroke-opacity:1" d="M 66.2431,533.067 66.2431,571.969 z" id="boundary" inkscape:connector-curvature="0" />
	<path style="fill:none;stroke:red;stroke-width:1px;stroke-linecap:butt;stroke-linejoin:miter;stroke-opacity:1" d="M 66.2431,571.969 74.0235,610.871 z" id="boundary" inkscape:connector-curvature="0" />
	<path style="fill:none;stroke:red;stroke-width:1px;stroke-linecap:butt;stroke-linejoin:miter;stroke-opacity:1" d="M 74.0235,610.871 74.0235,649.773 z" id="boundary" inkscape:connector-curvature="0" />
	<path style="fill:none;stroke:red;stroke-width:1px;stroke-linecap:butt;stroke-linejoin:miter;stroke-opacity:1" d="M 74.0235,649.773 74.0235,688.675 z" id="boundary" inkscape:connector-curvature="0" />
	<path style="fill:none;stroke:red;stroke-width:1px;stroke-linecap:butt;stroke-linejoin:miter;stroke-opacity:1" d="M 74.0235,688.675 74.0235,727.576 z" id="boundary" inkscape:connector-curvature="0" />
	<path style="fill:none;stroke:red;stroke-width:1px;stroke-linecap:butt;stroke-linejoin:miter;stroke-opacity:1" d="M 74.0235,727.576 74.0235,766.478 z" id="boundary" inkscape:connector-curvature="0" />
	<path style="fill:none;stroke:red;stroke-width:1px;stroke-linecap:butt;stroke-linejoin:miter;stroke-opacity:1" d="M 74.0235,766.478 74.0235,805.38 z" id="boundary" inkscape:connector-curvature="0" />
	<path style="fill:none;stroke:red;stroke-width:1px;stroke-linecap:butt;stroke-linejoin:miter;stroke-opacity:1" d="M 74.0235,805.38 74.0235,844.282 z" id="boundary" inkscape:connector-curvature="0" />
	<path style="fill:none;stroke:red;stroke-width:1px;stroke-linecap:butt;stroke-linejoin:miter;stroke-opacity:1" d="M 74.0235,844.282 74.0235,883.184 z" id="boundary" inkscape:connector-curvature="0" />
	<path style="fill:none;stroke:red;stroke-width:1px;stroke-linecap:butt;stroke-linejoin:miter;stroke-opacity:1" d="M 81.8039,19.5608 120.706,4 z" id="boundary" inkscape:connector-curvature="0" />
	<path style="fill:none;stroke:red;stroke-width:1px;stroke-linecap:butt;stroke-linejoin:miter;stroke-opacity:1" d="M 116.816,439.702 116.816,478.604 z" id="boundary" inkscape:connector-curvature="0" />
	<path style="fill:none;stroke:red;stroke-width:1px;stroke-linecap:butt;stroke-linejoin:miter;stroke-opacity:1" d="M 116.816,439.702 155.718,428.031 z" id="boundary" inkscape:connector-curvature="0" />
	<path style="fill:none;stroke:red;stroke-width:1px;stroke-linecap:butt;stroke-linejoin:miter;stroke-opacity:1" d="M 116.816,478.604 116.816,517.506 z" id="boundary" inkscape:connector-curvature="0" />
	<path style="fill:none;stroke:red;stroke-width:1px;stroke-linecap:butt;stroke-linejoin:miter;stroke-opacity:1" d="M 116.816,517.506 116.816,556.408 z" id="boundary" inkscape:connector-curvature="0" />
	<path style="fill:none;stroke:red;stroke-width:1px;stroke-linecap:butt;stroke-linejoin:miter;stroke-opacity:1" d="M 116.816,556.408 116.816,595.31 z" id="boundary" inkscape:connector-curvature="0" />
	<path style="fill:none;stroke:red;stroke-width:1px;stroke-linecap:butt;stroke-linejoin:miter;stroke-opacity:1" d="M 116.816,595.31 116.816,634.212 z" id="boundary" inkscape:connector-curvature="0" />
	<path style="fill:none;stroke:red;stroke-width:1px;stroke-linecap:butt;stroke-linejoin:miter;stroke-opacity:1" d="M 116.816,634.212 116.816,673.114 z" id="boundary" inkscape:connector-curvature="0" />
	<path style="fill:none;stroke:red;stroke-width:1px;stroke-linecap:butt;stroke-linejoin:miter;stroke-opacity:1" d="M 116.816,673.114 116.816,712.016 z" id="boundary" inkscape:connector-curvature="0" />
	<path style="fill:none;stroke:red;stroke-width:1px;stroke-linecap:butt;stroke-linejoin:miter;stroke-opacity:1" d="M 116.816,712.016 116.816,750.918 z" id="boundary" inkscape:connector-curvature="0" />
	<path style="fill:none;stroke:red;stroke-width:1px;stroke-linecap:butt;stroke-linejoin:miter;stroke-opacity:1" d="M 116.816,750.918 116.816,789.82 z" id="boundary" inkscape:connector-curvature="0" />
	<path style="fill:none;stroke:red;stroke-width:1px;stroke-linecap:butt;stroke-linejoin:miter;stroke-opacity:1" d="M 116.816,789.82 116.816,828.722 z" id="boundary" inkscape:connector-curvature="0" />
	<path style="fill:none;stroke:red;stroke-width:1px;stroke-linecap:butt;stroke-linejoin:miter;stroke-opacity:1" d="M 116.816,828.722 116.816,867.624 z" id="boundary" inkscape:connector-curvature="0" />
	<path style="fill:none;stroke:red;stroke-width:1px;stroke-linecap:butt;stroke-linejoin:miter;stroke-opacity:1" d="M 116.816,867.624 116.816,906.525 z" id="boundary" inkscape:connector-curvature="0" />
	<path style="fill:none;stroke:red;stroke-width:1px;stroke-linecap:butt;stroke-linejoin:miter;stroke-opacity:1" d="M 116.816,906.525 116.816,945.427 z" id="boundary" inkscape:connector-curvature="0" />
	<path style="fill:none;stroke:red;stroke-width:1px;stroke-linecap:butt;stroke-linejoin:miter;stroke-opacity:1" d="M 120.706,4 159.608,4 z" id="boundary" inkscape:connector-curvature="0" />
	<path style="fill:none;stroke:red;stroke-width:1px;stroke-linecap:butt;stroke-linejoin:miter;stroke-opacity:1" d="M 155.718,428.031 175.169,463.043 z" id="boundary" inkscape:connector-curvature="0" />
	<path style="fill:none;stroke:red;stroke-width:1px;stroke-linecap:butt;stroke-linejoin:miter;stroke-opacity:1" d="M 159.608,4 198.51,19.5608 z" id="boundary" inkscape:connector-curvature="0" />
	<path style="fill:none;stroke:red;stroke-width:1px;stroke-linecap:butt;stroke-linejoin:miter;stroke-opacity:1" d="M 159.608,968.769 175.169,929.867 z" id="boundary" inkscape:connector-curvature="0" />
	<path style="fill:none;stroke:red;stroke-width:1px;stroke-linecap:butt;stroke-linejoin:miter;stroke-opacity:1" d="M 159.608,968.769 190.729,996 z" id="boundary" inkscape:connector-curvature="0" />
	<path style="fill:none;stroke:red;stroke-width:1px;stroke-linecap:butt;stroke-linejoin:miter;stroke-opacity:1" d="M 175.169,463.043 175.169,501.945 z" id="boundary" inkscape:connector-curvature="0" />
	<path style="fill:none;stroke:red;stroke-width:1px;stroke-linecap:butt;stroke-linejoin:miter;stroke-opacity:1" d="M 175.169,501.945 175.169,540.847 z" id="boundary" inkscape:connector-curvature="0" />
	<path style="fill:none;stroke:red;stroke-width:1px;stroke-linecap:butt;stroke-linejoin:miter;stroke-opacity:1" d="M 175.169,540.847 175.169,579.749 z" id="boundary" inkscape:connector-curvature="0" />
	<path style="fill:none;stroke:red;stroke-width:1px;stroke-linecap:butt;stroke-linejoin:miter;stroke-opacity:1" d="M 175.169,579.749 175.169,618.651 z" id="boundary" inkscape:connector-curvature="0" />
	<path style="fill:none;stroke:red;stroke-width:1px;stroke-linecap:butt;stroke-linejoin:miter;stroke-opacity:1" d="M 175.169,618.651 175.169,657.553 z" id="boundary" inkscape:connector-curvature="0" />
	<path style="fill:none;stroke:red;stroke-width:1px;stroke-linecap:butt;stroke-linejoin:miter;stroke-opacity:1" d="M 175.169,657.553 175.169,696.455 z" id="boundary" inkscape:connector-curvature="0" />
	<path style="fill:none;stroke:red;stroke-width:1px;stroke-linecap:butt;stroke-linejoin:miter;stroke-opacity:1" d="M 175.169,696.455 175.169,735.357 z" id="boundary" inkscape:connector-curvature="0" />
	<path style="fill:none;stroke:red;stroke-width:1px;stroke-linecap:butt;stroke-linejoin:miter;stroke-opacity:1" d="M 175.169,735.357 175.169,774.259 z" id="boundary" inkscape:connector-curvature="0" />
	<path style="fill:none;stroke:red;stroke-width:1px;stroke-linecap:butt;stroke-linejoin:miter;stroke-opacity:1" d="M 175.169,774.259 175.169,813.161 z" id="boundary" inkscape:connector-curvature="0" />
	<path style="fill:none;stroke:red;stroke-width:1px;stroke-linecap:butt;stroke-linejoin:miter;stroke-opacity:1" d="M 175.169,813.161 175.169,852.063 z" id="boundary" inkscape:connector-curvature="0" />
	<path style="fill:none;stroke:red;stroke-width:1px;stroke-linecap:butt;stroke-linejoin:miter;stroke-opacity:1" d="M 175.169,852.063 175.169,890.965 z" id="boundary" inkscape:connector-curvature="0" />
	<path style="fill:none;stroke:red;stroke-width:1px;stroke-linecap:butt;stroke-linejoin:miter;stroke-opacity:1" d="M 175.169,890.965 175.169,929.867 z" id="boundary" inkscape:connector-curvature="0" />
	<path style="fill:none;stroke:red;stroke-width:1px;stroke-linecap:butt;stroke-linejoin:miter;stroke-opacity:1" d="M 190.729,996 221.851,953.208 z" id="boundary" inkscape:connector-curvature="0" />
	<path style="fill:none;stroke:red;stroke-width:1px;stroke-linecap:butt;stroke-linejoin:miter;stroke-opacity:1" d="M 198.51,19.5608 233.522,39.0118 z" id="boundary" inkscape:connector-curvature="0" />
	<path style="fill:none;stroke:red;stroke-width:1px;stroke-linecap:butt;stroke-linejoin:miter;stroke-opacity:1" d="M 217.961,603.09 217.961,641.992 z" id="boundary" inkscape:connector-curvature="0" />
	<path style="fill:none;stroke:red;stroke-width:1px;stroke-linecap:butt;stroke-linejoin:miter;stroke-opacity:1" d="M 217.961,641.992 217.961,680.894 z" id="boundary" inkscape:connector-curvature="0" />
	<path style="fill:none;stroke:red;stroke-width:1px;stroke-linecap:butt;stroke-linejoin:miter;stroke-opacity:1" d="M 217.961,680.894 217.961,719.796 z" id="boundary" inkscape:connector-curvature="0" />
	<path style="fill:none;stroke:red;stroke-width:1px;stroke-linecap:butt;stroke-linejoin:miter;stroke-opacity:1" d="M 217.961,719.796 217.961,758.698 z" id="boundary" inkscape:connector-curvature="0" />
	<path style="fill:none;stroke:red;stroke-width:1px;stroke-linecap:butt;stroke-linejoin:miter;stroke-opacity:1" d="M 217.961,758.698 217.961,797.6 z" id="boundary" inkscape:connector-curvature="0" />
	<path style="fill:none;stroke:red;stroke-width:1px;stroke-linecap:butt;stroke-linejoin:miter;stroke-opacity:1" d="M 217.961,797.6 217.961,836.502 z" id="boundary" inkscape:connector-curvature="0" />
	<path style="fill:none;stroke:red;stroke-width:1px;stroke-linecap:butt;stroke-linejoin:miter;stroke-opacity:1" d="M 217.961,836.502 217.961,875.404 z" id="boundary" inkscape:connector-curvature="0" />
	<path style="fill:none;stroke:red;stroke-width:1px;stroke-linecap:butt;stroke-linejoin:miter;stroke-opacity:1" d="M 217.961,875.404 217.961,914.306 z" id="boundary" inkscape:connector-curvature="0" />
	<path style="fill:none;stroke:red;stroke-width:1px;stroke-linecap:butt;stroke-linejoin:miter;stroke-opacity:1" d="M 217.961,914.306 221.851,953.208 z" id="boundary" inkscape:connector-curvature="0" />
	<path style="fill:none;stroke:red;stroke-width:1px;stroke-linecap:butt;stroke-linejoin:miter;stroke-opacity:1" d="M 225.741,509.725 225.741,548.627 z" id="boundary" inkscape:connector-curvature="0" />
	<path style="fill:none;stroke:red;stroke-width:1px;stroke-linecap:butt;stroke-linejoin:miter;stroke-opacity:1" d="M 233.522,39.0118 264.643,66.2431 z" id="boundary" inkscape:connector-curvature="0" />
	<path style="fill:none;stroke:red;stroke-width:1px;stroke-linecap:butt;stroke-linejoin:miter;stroke-opacity:1" d="M 233.522,400.8 233.522,439.702 z" id="boundary" inkscape:connector-curvature="0" />
	<path style="fill:none;stroke:red;stroke-width:1px;stroke-linecap:butt;stroke-linejoin:miter;stroke-opacity:1" d="M 233.522,400.8 252.973,365.788 z" id="boundary" inkscape:connector-curvature="0" />
	<path style="fill:none;stroke:red;stroke-width:1px;stroke-linecap:butt;stroke-linejoin:miter;stroke-opacity:1" d="M 252.973,365.788 272.424,322.996 z" id="boundary" inkscape:connector-curvature="0" />
	<path style="fill:none;stroke:red;stroke-width:1px;stroke-linecap:butt;stroke-linejoin:miter;stroke-opacity:1" d="M 264.643,66.2431 272.424,105.145 z" id="boundary" inkscape:connector-curvature="0" />
	<path style="fill:none;stroke:red;stroke-width:1px;stroke-linecap:butt;stroke-linejoin:miter;stroke-opacity:1" d="M 272.424,105.145 280.204,144.047 z" id="boundary" inkscape:connector-curvature="0" />
	<path style="fill:none;stroke:red;stroke-width:1px;stroke-linecap:butt;stroke-linejoin:miter;stroke-opacity:1" d="M 272.424,322.996 280.204,260.753 z" id="boundary" inkscape:connector-curvature="0" />
	<path style="fill:none;stroke:red;stroke-width:1px;stroke-linecap:butt;stroke-linejoin:miter;stroke-opacity:1" d="M 280.204,144.047 280.204,182.949 z" id="boundary" inkscape:connector-curvature="0" />
	<path style="fill:none;stroke:red;stroke-width:1px;stroke-linecap:butt;stroke-linejoin:miter;stroke-opacity:1" d="M 280.204,182.949 280.204,221.851 z" id="boundary" inkscape:connector-curvature="0" />
	<path style="fill:none;stroke:red;stroke-width:1px;stroke-linecap:butt;stroke-linejoin:miter;stroke-opacity:1" d="M 280.204,221.851 280.204,260.753 z" id="boundary" inkscape:connector-curvature="0" />
	<circle cx="4" cy="105.145" r="4" fill="#0" id="circle0"/>
	<circle cx="4" cy="144.047" r="4" fill="#0" id="circle1"/>
	<circle cx="4" cy="182.949" r="4" fill="#0" id="circle2"/>
	<circle cx="4" cy="221.851" r="4" fill="#0" id="circle3"/>
	<circle cx="11.7804" cy="66.2431" r="4" fill="#0" id="circle4"/>
	<circle cx="15.6706" cy="260.753" r="4" fill="#0" id="circle5"/>
	<circle cx="27.3412" cy="299.655" r="4" fill="#0" id="circle6"/>
	<circle cx="35.1216" cy="960.988" r="4" fill="#0" id="circle7"/>
	<circle cx="42.902" cy="35.1216" r="4" fill="#0" id="circle8"/>
	<circle cx="42.902" cy="338.557" r="4" fill="#0" id="circle9"/>
	<circle cx="50.6824" cy="377.459" r="4" fill="#0" id="circle10"/>
	<circle cx="50.6824" cy="416.361" r="4" fill="#0" id="circle11"/>
	<circle cx="58.4627" cy="455.263" r="4" fill="#0" id="circle12"/>
	<circle cx="58.4627" cy="494.165" r="4" fill="#0" id="circle13"/>
	<circle cx="58.4627" cy="992.11" r="4" fill="#0" id="circle14"/>
	<circle cx="66.2431" cy="533.067" r="4" fill="#0" id="circle15"/>
	<circle cx="66.2431" cy="571.969" r="4" fill="#0" id="circle16"/>
	<circle cx="66.2431" cy="929.867" r="4" fill="#0" id="circle17"/>
	<circle cx="74.0235" cy="610.871" r="4" fill="#0" id="circle18"/>
	<circle cx="74.0235" cy="649.773" r="4" fill="#0" id="circle19"/>
	<circle cx="74.0235" cy="688.675" r="4" fill="#0" id="circle20"/>
	<circle cx="74.0235" cy="727.576" r="4" fill="#0" id="circle21"/>
	<circle cx="74.0235" cy="766.478" r="4" fill="#0" id="circle22"/>
	<circle cx="74.0235" cy="805.38" r="4" fill="#0" id="circle23"/>
	<circle cx="74.0235" cy="844.282" r="4" fill="#0" id="circle24"/>
	<circle cx="74.0235" cy="883.184" r="4" fill="#0" id="circle25"/>
	<circle cx="81.8039" cy="19.5608" r="4" fill="#0" id="circle26"/>
	<circle cx="97.3647" cy="996" r="4" fill="#0" id="circle27"/>
	<circle cx="116.816" cy="439.702" r="4" fill="#0" id="circle28"/>
	<circle cx="116.816" cy="478.604" r="4" fill="#0" id="circle29"/>
	<circle cx="116.816" cy="517.506" r="4" fill="#0" id="circle30"/>
	<circle cx="116.816" cy="556.408" r="4" fill="#0" id="circle31"/>
	<circle cx="116.816" cy="595.31" r="4" fill="#0" id="circle32"/>
	<circle cx="116.816" cy="634.212" r="4" fill="#0" id="circle33"/>
	<circle cx="116.816" cy="673.114" r="4" fill="#0" id="circle34"/>
	<circle cx="116.816" cy="712.016" r="4" fill="#0" id="circle35"/>
	<circle cx="116.816" cy="750.918" r="4" fill="#0" id="circle36"/>
	<circle cx="116.816" cy="789.82" r="4" fill="#0" id="circle37"/>
	<circle cx="116.816" cy="828.722" r="4" fill="#0" id="circle38"/>
	<circle cx="116.816" cy="867.624" r="4" fill="#0" id="circle39"/>
	<circle cx="116.816" cy="906.525" r="4" fill="#0" id="circle40"/>
	<circle cx="116.816" cy="945.427" r="4" fill="#0" id="circle41"/>
	<circle cx="120.706" cy="4" r="4" fill="#0" id="circle42"/>
	<circle cx="155.718" cy="428.031" r="4" fill="#0" id="circle43"/>
	<circle cx="159.608" cy="4" r="4" fill="#0" id="circle44"/>
	<circle cx="159.608" cy="968.769" r="4" fill="#0" id="circle45"/>
	<circle cx="175.169" cy="463.043" r="4" fill="#0" id="circle46"/>
	<circle cx="175.169" cy="501.945" r="4" fill="#0" id="circle47"/>
	<circle cx="175.169" cy="540.847" r="4" fill="#0" id="circle48"/>
	<circle cx="175.169" cy="579.749" r="4" fill="#0" id="circle49"/>
	<circle cx="175.169" cy="618.651" r="4" fill="#0" id="circle50"/>
	<circle cx="175.169" cy="657.553" r="4" fill="#0" id="circle51"/>
	<circle cx="175.169" cy="696.455" r="4" fill="#0" id="circle52"/>
	<circle cx="175.169" cy="735.357" r="4" fill="#0" id="circle53"/>
	<circle cx="175.169" cy="774.259" r="4" fill="#0" id="circle54"/>
	<circle cx="175.169" cy="813.161" r="4" fill="#0" id="circle55"/>
	<circle cx="175.169" cy="852.063" r="4" fill="#0" id="circle56"/>
	<circle cx="175.169" cy="890.965" r="4" fill="#0" id="circle57"/>
	<circle cx="175.169" cy="929.867" r="4" fill="#0" id="circle58"/>
	<circle cx="190.729" cy="996" r="4" fill="#0" id="circle59"/>
	<circle cx="198.51" cy="19.5608" r="4" fill="#0" id="circle60"/>
	<circle cx="217.961" cy="603.09" r="4" fill="#0" id="circle61"/>
	<circle cx="217.961" cy="641.992" r="4" fill="#0" id="circle62"/>
	<circle cx="217.961" cy="680.894" r="4" fill="#0" id="circle63"/>
	<circle cx="217.961" cy="719.796" r="4" fill="#0" id="circle64"/>
	<circle cx="217.961" cy="758.698" r="4" fill="#0" id="circle65"/>
	<circle cx="217.961" cy="797.6" r="4" fill="#0" id="circle66"/>
	<circle cx="217.961" cy="836.502" r="4" fill="#0" id="circle67"/>
	<circle cx="217.961" cy="875.404" r="4" fill="#0" id="circle68"/>
	<circle cx="217.961" cy="914.306" r="4" fill="#0" id="circle69"/>
	<circle cx="221.851" cy="953.208" r="4" fill="#0" id="circle70"/>
	<circle cx="225.741" cy="509.725" r="4" fill="#0" id="circle71"/>
	<circle cx="225.741" cy="548.627" r="4" fill="#0" id="circle72"/>
	<circle cx="233.522" cy="39.0118" r="4" fill="#0" id="circle73"/>
	<circle cx="233.522" cy="400.8" r="4" fill="#0" id="circle74"/>
	<circle cx="233.522" cy="439.702" r="4" fill="#0" id="circle75"/>
	<circle cx="252.973" cy="365.788" r="4" fill="#0" id="circle76"/>
	<circle cx="264.643" cy="66.2431" r="4" fill="#0" id="circle77"/>
	<circle cx="272.424" cy="105.145" r="4" fill="#0" id="circle78"/>
	<circle cx="272.424" cy="322.996" r="4" fill="#0" id="circle79"/>
	<circle cx="280.204" cy="144.047" r="4" fill="#0" id="circle80"/>
	<circle cx="280.204" cy="182.949" r="4" fill="#0" id="circle81"/>
	<circle cx="280.204" cy="221.851" r="4" fill="#0" id="circle82"/>
	<circle cx="280.204" cy="260.753" r="4" fill="#0" id="circle83"/>
	</g>
</svg>