<?xml version="1.0" encoding="UTF-8" standalone="no"?>
<!-- Created with CurveBenchmark -->
<svg
	xmlns:dc="http://purl.org/dc/elements/1.1/"
	xmlns:cc="http://creativecommons.org/ns#"
	xmlns:rdf="http://www.w3.org/1999/02/22-rdf-syntax-ns#"
	xmlns:svg="http://www.w3.org/2000/svg"
	xmlns="http://www.w3.org/2000/svg"
	xmlns:sodipodi="http://sodipodi.sourceforge.net/DTD/sodipodi-0.dtd"
	xmlns:inkscape="http://www.inkscape.org/namespaces/inkscape"
	width="1000"
	height="1000"
	id="svg2"
	version="1.1"
	sodipodi:docname="manifold/hnncrust-flatfish07.png.txt">
<defs
	id="defs4" />
<metadata
	id="metadata7">
	<rdf:RDF>
		<cc:Work
			rdf:about="">
			<dc:format>image/svg+xml</dc:format>
			<dc:type
				rdf:resource="http://purl.org/dc/dcmitype/StillImage" />
			<dc:title></dc:title>
		</cc:Work>
	</rdf:RDF>
</metadata>
<g
	inkscape:label="Layer 1"
	inkscape:groupmode="layer"
	id="layer1">
	<path style="fill:none;stroke:red;stroke-width:1px;stroke-linecap:butt;stroke-linejoin:miter;stroke-opacity:1" d="M 4,244.978 4,259.762 z" id="boundary" inkscape:connector-curvature="0" />
	<path style="fill:none;stroke:red;stroke-width:1px;stroke-linecap:butt;stroke-linejoin:miter;stroke-opacity:1" d="M 4,244.978 15.8271,233.151 z" id="boundary" inkscape:connector-curvature="0" />
	<path style="fill:none;stroke:red;stroke-width:1px;stroke-linecap:butt;stroke-linejoin:miter;stroke-opacity:1" d="M 4,259.762 11.392,273.067 z" id="boundary" inkscape:connector-curvature="0" />
	<path style="fill:none;stroke:red;stroke-width:1px;stroke-linecap:butt;stroke-linejoin:miter;stroke-opacity:1" d="M 11.392,273.067 18.7839,286.373 z" id="boundary" inkscape:connector-curvature="0" />
	<path style="fill:none;stroke:red;stroke-width:1px;stroke-linecap:butt;stroke-linejoin:miter;stroke-opacity:1" d="M 15.8271,233.151 29.1326,225.759 z" id="boundary" inkscape:connector-curvature="0" />
	<path style="fill:none;stroke:red;stroke-width:1px;stroke-linecap:butt;stroke-linejoin:miter;stroke-opacity:1" d="M 18.7839,286.373 27.6542,298.2 z" id="boundary" inkscape:connector-curvature="0" />
	<path style="fill:none;stroke:red;stroke-width:1px;stroke-linecap:butt;stroke-linejoin:miter;stroke-opacity:1" d="M 27.6542,298.2 39.4814,308.548 z" id="boundary" inkscape:connector-curvature="0" />
	<path style="fill:none;stroke:red;stroke-width:1px;stroke-linecap:butt;stroke-linejoin:miter;stroke-opacity:1" d="M 29.1326,225.759 42.4382,218.367 z" id="boundary" inkscape:connector-curvature="0" />
	<path style="fill:none;stroke:red;stroke-width:1px;stroke-linecap:butt;stroke-linejoin:miter;stroke-opacity:1" d="M 39.4814,308.548 52.7869,315.94 z" id="boundary" inkscape:connector-curvature="0" />
	<path style="fill:none;stroke:red;stroke-width:1px;stroke-linecap:butt;stroke-linejoin:miter;stroke-opacity:1" d="M 42.4382,218.367 55.7437,208.018 z" id="boundary" inkscape:connector-curvature="0" />
	<path style="fill:none;stroke:red;stroke-width:1px;stroke-linecap:butt;stroke-linejoin:miter;stroke-opacity:1" d="M 52.7869,315.94 67.5708,321.854 z" id="boundary" inkscape:connector-curvature="0" />
	<path style="fill:none;stroke:red;stroke-width:1px;stroke-linecap:butt;stroke-linejoin:miter;stroke-opacity:1" d="M 55.7437,208.018 67.5708,196.191 z" id="boundary" inkscape:connector-curvature="0" />
	<path style="fill:none;stroke:red;stroke-width:1px;stroke-linecap:butt;stroke-linejoin:miter;stroke-opacity:1" d="M 67.5708,196.191 77.9195,178.45 z" id="boundary" inkscape:connector-curvature="0" />
	<path style="fill:none;stroke:red;stroke-width:1px;stroke-linecap:butt;stroke-linejoin:miter;stroke-opacity:1" d="M 67.5708,321.854 80.8763,329.246 z" id="boundary" inkscape:connector-curvature="0" />
	<path style="fill:none;stroke:red;stroke-width:1px;stroke-linecap:butt;stroke-linejoin:miter;stroke-opacity:1" d="M 77.9195,178.45 89.7466,166.623 z" id="boundary" inkscape:connector-curvature="0" />
	<path style="fill:none;stroke:red;stroke-width:1px;stroke-linecap:butt;stroke-linejoin:miter;stroke-opacity:1" d="M 80.8763,329.246 92.7034,338.116 z" id="boundary" inkscape:connector-curvature="0" />
	<path style="fill:none;stroke:red;stroke-width:1px;stroke-linecap:butt;stroke-linejoin:miter;stroke-opacity:1" d="M 89.7466,166.623 97.1386,151.839 z" id="boundary" inkscape:connector-curvature="0" />
	<path style="fill:none;stroke:red;stroke-width:1px;stroke-linecap:butt;stroke-linejoin:miter;stroke-opacity:1" d="M 92.7034,338.116 106.009,345.508 z" id="boundary" inkscape:connector-curvature="0" />
	<path style="fill:none;stroke:red;stroke-width:1px;stroke-linecap:butt;stroke-linejoin:miter;stroke-opacity:1" d="M 97.1386,151.839 108.966,140.012 z" id="boundary" inkscape:connector-curvature="0" />
	<path style="fill:none;stroke:red;stroke-width:1px;stroke-linecap:butt;stroke-linejoin:miter;stroke-opacity:1" d="M 106.009,345.508 119.314,352.9 z" id="boundary" inkscape:connector-curvature="0" />
	<path style="fill:none;stroke:red;stroke-width:1px;stroke-linecap:butt;stroke-linejoin:miter;stroke-opacity:1" d="M 108.966,140.012 120.793,129.663 z" id="boundary" inkscape:connector-curvature="0" />
	<path style="fill:none;stroke:red;stroke-width:1px;stroke-linecap:butt;stroke-linejoin:miter;stroke-opacity:1" d="M 119.314,352.9 134.098,352.9 z" id="boundary" inkscape:connector-curvature="0" />
	<path style="fill:none;stroke:red;stroke-width:1px;stroke-linecap:butt;stroke-linejoin:miter;stroke-opacity:1" d="M 120.793,129.663 131.142,117.836 z" id="boundary" inkscape:connector-curvature="0" />
	<path style="fill:none;stroke:red;stroke-width:1px;stroke-linecap:butt;stroke-linejoin:miter;stroke-opacity:1" d="M 131.142,117.836 142.969,107.487 z" id="boundary" inkscape:connector-curvature="0" />
	<path style="fill:none;stroke:red;stroke-width:1px;stroke-linecap:butt;stroke-linejoin:miter;stroke-opacity:1" d="M 134.098,352.9 147.404,360.292 z" id="boundary" inkscape:connector-curvature="0" />
	<path style="fill:none;stroke:red;stroke-width:1px;stroke-linecap:butt;stroke-linejoin:miter;stroke-opacity:1" d="M 142.969,107.487 156.274,100.095 z" id="boundary" inkscape:connector-curvature="0" />
	<path style="fill:none;stroke:red;stroke-width:1px;stroke-linecap:butt;stroke-linejoin:miter;stroke-opacity:1" d="M 147.404,360.292 159.231,369.162 z" id="boundary" inkscape:connector-curvature="0" />
	<path style="fill:none;stroke:red;stroke-width:1px;stroke-linecap:butt;stroke-linejoin:miter;stroke-opacity:1" d="M 156.274,100.095 171.058,92.7034 z" id="boundary" inkscape:connector-curvature="0" />
	<path style="fill:none;stroke:red;stroke-width:1px;stroke-linecap:butt;stroke-linejoin:miter;stroke-opacity:1" d="M 159.231,369.162 174.015,375.076 z" id="boundary" inkscape:connector-curvature="0" />
	<path style="fill:none;stroke:red;stroke-width:1px;stroke-linecap:butt;stroke-linejoin:miter;stroke-opacity:1" d="M 171.058,92.7034 184.364,85.3115 z" id="boundary" inkscape:connector-curvature="0" />
	<path style="fill:none;stroke:red;stroke-width:1px;stroke-linecap:butt;stroke-linejoin:miter;stroke-opacity:1" d="M 174.015,375.076 187.32,382.468 z" id="boundary" inkscape:connector-curvature="0" />
	<path style="fill:none;stroke:red;stroke-width:1px;stroke-linecap:butt;stroke-linejoin:miter;stroke-opacity:1" d="M 184.364,85.3115 197.669,77.9195 z" id="boundary" inkscape:connector-curvature="0" />
	<path style="fill:none;stroke:red;stroke-width:1px;stroke-linecap:butt;stroke-linejoin:miter;stroke-opacity:1" d="M 187.32,382.468 197.669,394.295 z" id="boundary" inkscape:connector-curvature="0" />
	<path style="fill:none;stroke:red;stroke-width:1px;stroke-linecap:butt;stroke-linejoin:miter;stroke-opacity:1" d="M 197.669,77.9195 212.453,73.4844 z" id="boundary" inkscape:connector-curvature="0" />
	<path style="fill:none;stroke:red;stroke-width:1px;stroke-linecap:butt;stroke-linejoin:miter;stroke-opacity:1" d="M 197.669,394.295 209.496,404.644 z" id="boundary" inkscape:connector-curvature="0" />
	<path style="fill:none;stroke:red;stroke-width:1px;stroke-linecap:butt;stroke-linejoin:miter;stroke-opacity:1" d="M 209.496,404.644 219.845,416.471 z" id="boundary" inkscape:connector-curvature="0" />
	<path style="fill:none;stroke:red;stroke-width:1px;stroke-linecap:butt;stroke-linejoin:miter;stroke-opacity:1" d="M 212.453,73.4844 227.237,66.0924 z" id="boundary" inkscape:connector-curvature="0" />
	<path style="fill:none;stroke:red;stroke-width:1px;stroke-linecap:butt;stroke-linejoin:miter;stroke-opacity:1" d="M 219.845,416.471 234.629,422.385 z" id="boundary" inkscape:connector-curvature="0" />
	<path style="fill:none;stroke:red;stroke-width:1px;stroke-linecap:butt;stroke-linejoin:miter;stroke-opacity:1" d="M 227.237,66.0924 242.021,63.1356 z" id="boundary" inkscape:connector-curvature="0" />
	<path style="fill:none;stroke:red;stroke-width:1px;stroke-linecap:butt;stroke-linejoin:miter;stroke-opacity:1" d="M 234.629,422.385 249.413,426.82 z" id="boundary" inkscape:connector-curvature="0" />
	<path style="fill:none;stroke:red;stroke-width:1px;stroke-linecap:butt;stroke-linejoin:miter;stroke-opacity:1" d="M 242.021,63.1356 255.326,55.7437 z" id="boundary" inkscape:connector-curvature="0" />
	<path style="fill:none;stroke:red;stroke-width:1px;stroke-linecap:butt;stroke-linejoin:miter;stroke-opacity:1" d="M 249.413,426.82 264.197,426.82 z" id="boundary" inkscape:connector-curvature="0" />
	<path style="fill:none;stroke:red;stroke-width:1px;stroke-linecap:butt;stroke-linejoin:miter;stroke-opacity:1" d="M 255.326,55.7437 268.632,48.3517 z" id="boundary" inkscape:connector-curvature="0" />
	<path style="fill:none;stroke:red;stroke-width:1px;stroke-linecap:butt;stroke-linejoin:miter;stroke-opacity:1" d="M 264.197,426.82 278.981,429.776 z" id="boundary" inkscape:connector-curvature="0" />
	<path style="fill:none;stroke:red;stroke-width:1px;stroke-linecap:butt;stroke-linejoin:miter;stroke-opacity:1" d="M 268.632,48.3517 281.937,40.9598 z" id="boundary" inkscape:connector-curvature="0" />
	<path style="fill:none;stroke:red;stroke-width:1px;stroke-linecap:butt;stroke-linejoin:miter;stroke-opacity:1" d="M 278.981,429.776 292.286,437.168 z" id="boundary" inkscape:connector-curvature="0" />
	<path style="fill:none;stroke:red;stroke-width:1px;stroke-linecap:butt;stroke-linejoin:miter;stroke-opacity:1" d="M 281.937,40.9598 296.721,33.5678 z" id="boundary" inkscape:connector-curvature="0" />
	<path style="fill:none;stroke:red;stroke-width:1px;stroke-linecap:butt;stroke-linejoin:miter;stroke-opacity:1" d="M 292.286,437.168 304.113,447.517 z" id="boundary" inkscape:connector-curvature="0" />
	<path style="fill:none;stroke:red;stroke-width:1px;stroke-linecap:butt;stroke-linejoin:miter;stroke-opacity:1" d="M 296.721,33.5678 311.505,26.1759 z" id="boundary" inkscape:connector-curvature="0" />
	<path style="fill:none;stroke:red;stroke-width:1px;stroke-linecap:butt;stroke-linejoin:miter;stroke-opacity:1" d="M 304.113,447.517 318.897,448.996 z" id="boundary" inkscape:connector-curvature="0" />
	<path style="fill:none;stroke:red;stroke-width:1px;stroke-linecap:butt;stroke-linejoin:miter;stroke-opacity:1" d="M 311.505,26.1759 326.289,26.1759 z" id="boundary" inkscape:connector-curvature="0" />
	<path style="fill:none;stroke:red;stroke-width:1px;stroke-linecap:butt;stroke-linejoin:miter;stroke-opacity:1" d="M 318.897,448.996 332.203,456.387 z" id="boundary" inkscape:connector-curvature="0" />
	<path style="fill:none;stroke:red;stroke-width:1px;stroke-linecap:butt;stroke-linejoin:miter;stroke-opacity:1" d="M 326.289,26.1759 341.073,26.1759 z" id="boundary" inkscape:connector-curvature="0" />
	<path style="fill:none;stroke:red;stroke-width:1px;stroke-linecap:butt;stroke-linejoin:miter;stroke-opacity:1" d="M 332.203,456.387 346.987,460.823 z" id="boundary" inkscape:connector-curvature="0" />
	<path style="fill:none;stroke:red;stroke-width:1px;stroke-linecap:butt;stroke-linejoin:miter;stroke-opacity:1" d="M 341.073,26.1759 354.379,18.7839 z" id="boundary" inkscape:connector-curvature="0" />
	<path style="fill:none;stroke:red;stroke-width:1px;stroke-linecap:butt;stroke-linejoin:miter;stroke-opacity:1" d="M 346.987,460.823 360.292,468.215 z" id="boundary" inkscape:connector-curvature="0" />
	<path style="fill:none;stroke:red;stroke-width:1px;stroke-linecap:butt;stroke-linejoin:miter;stroke-opacity:1" d="M 354.379,18.7839 369.162,12.8703 z" id="boundary" inkscape:connector-curvature="0" />
	<path style="fill:none;stroke:red;stroke-width:1px;stroke-linecap:butt;stroke-linejoin:miter;stroke-opacity:1" d="M 360.292,468.215 375.076,471.171 z" id="boundary" inkscape:connector-curvature="0" />
	<path style="fill:none;stroke:red;stroke-width:1px;stroke-linecap:butt;stroke-linejoin:miter;stroke-opacity:1" d="M 369.162,12.8703 383.946,11.392 z" id="boundary" inkscape:connector-curvature="0" />
	<path style="fill:none;stroke:red;stroke-width:1px;stroke-linecap:butt;stroke-linejoin:miter;stroke-opacity:1" d="M 375.076,471.171 388.382,478.563 z" id="boundary" inkscape:connector-curvature="0" />
	<path style="fill:none;stroke:red;stroke-width:1px;stroke-linecap:butt;stroke-linejoin:miter;stroke-opacity:1" d="M 383.946,11.392 398.73,11.392 z" id="boundary" inkscape:connector-curvature="0" />
	<path style="fill:none;stroke:red;stroke-width:1px;stroke-linecap:butt;stroke-linejoin:miter;stroke-opacity:1" d="M 388.382,478.563 401.687,485.955 z" id="boundary" inkscape:connector-curvature="0" />
	<path style="fill:none;stroke:red;stroke-width:1px;stroke-linecap:butt;stroke-linejoin:miter;stroke-opacity:1" d="M 398.73,11.392 413.514,11.392 z" id="boundary" inkscape:connector-curvature="0" />
	<path style="fill:none;stroke:red;stroke-width:1px;stroke-linecap:butt;stroke-linejoin:miter;stroke-opacity:1" d="M 401.687,485.955 414.993,493.347 z" id="boundary" inkscape:connector-curvature="0" />
	<path style="fill:none;stroke:red;stroke-width:1px;stroke-linecap:butt;stroke-linejoin:miter;stroke-opacity:1" d="M 413.514,11.392 428.298,11.392 z" id="boundary" inkscape:connector-curvature="0" />
	<path style="fill:none;stroke:red;stroke-width:1px;stroke-linecap:butt;stroke-linejoin:miter;stroke-opacity:1" d="M 414.993,493.347 429.776,499.261 z" id="boundary" inkscape:connector-curvature="0" />
	<path style="fill:none;stroke:red;stroke-width:1px;stroke-linecap:butt;stroke-linejoin:miter;stroke-opacity:1" d="M 428.298,11.392 441.604,4 z" id="boundary" inkscape:connector-curvature="0" />
	<path style="fill:none;stroke:red;stroke-width:1px;stroke-linecap:butt;stroke-linejoin:miter;stroke-opacity:1" d="M 429.776,499.261 443.082,506.653 z" id="boundary" inkscape:connector-curvature="0" />
	<path style="fill:none;stroke:red;stroke-width:1px;stroke-linecap:butt;stroke-linejoin:miter;stroke-opacity:1" d="M 441.604,4 456.387,4 z" id="boundary" inkscape:connector-curvature="0" />
	<path style="fill:none;stroke:red;stroke-width:1px;stroke-linecap:butt;stroke-linejoin:miter;stroke-opacity:1" d="M 443.082,506.653 457.866,512.566 z" id="boundary" inkscape:connector-curvature="0" />
	<path style="fill:none;stroke:red;stroke-width:1px;stroke-linecap:butt;stroke-linejoin:miter;stroke-opacity:1" d="M 456.387,4 471.171,4 z" id="boundary" inkscape:connector-curvature="0" />
	<path style="fill:none;stroke:red;stroke-width:1px;stroke-linecap:butt;stroke-linejoin:miter;stroke-opacity:1" d="M 457.866,512.566 472.65,515.523 z" id="boundary" inkscape:connector-curvature="0" />
	<path style="fill:none;stroke:red;stroke-width:1px;stroke-linecap:butt;stroke-linejoin:miter;stroke-opacity:1" d="M 471.171,4 485.955,4 z" id="boundary" inkscape:connector-curvature="0" />
	<path style="fill:none;stroke:red;stroke-width:1px;stroke-linecap:butt;stroke-linejoin:miter;stroke-opacity:1" d="M 472.65,515.523 487.434,515.523 z" id="boundary" inkscape:connector-curvature="0" />
	<path style="fill:none;stroke:red;stroke-width:1px;stroke-linecap:butt;stroke-linejoin:miter;stroke-opacity:1" d="M 485.955,4 500.739,4 z" id="boundary" inkscape:connector-curvature="0" />
	<path style="fill:none;stroke:red;stroke-width:1px;stroke-linecap:butt;stroke-linejoin:miter;stroke-opacity:1" d="M 487.434,515.523 502.218,515.523 z" id="boundary" inkscape:connector-curvature="0" />
	<path style="fill:none;stroke:red;stroke-width:1px;stroke-linecap:butt;stroke-linejoin:miter;stroke-opacity:1" d="M 500.739,4 515.523,8.43517 z" id="boundary" inkscape:connector-curvature="0" />
	<path style="fill:none;stroke:red;stroke-width:1px;stroke-linecap:butt;stroke-linejoin:miter;stroke-opacity:1" d="M 502.218,515.523 517.001,515.523 z" id="boundary" inkscape:connector-curvature="0" />
	<path style="fill:none;stroke:red;stroke-width:1px;stroke-linecap:butt;stroke-linejoin:miter;stroke-opacity:1" d="M 515.523,8.43517 530.307,11.392 z" id="boundary" inkscape:connector-curvature="0" />
	<path style="fill:none;stroke:red;stroke-width:1px;stroke-linecap:butt;stroke-linejoin:miter;stroke-opacity:1" d="M 517.001,515.523 530.307,508.131 z" id="boundary" inkscape:connector-curvature="0" />
	<path style="fill:none;stroke:red;stroke-width:1px;stroke-linecap:butt;stroke-linejoin:miter;stroke-opacity:1" d="M 530.307,11.392 545.091,11.392 z" id="boundary" inkscape:connector-curvature="0" />
	<path style="fill:none;stroke:red;stroke-width:1px;stroke-linecap:butt;stroke-linejoin:miter;stroke-opacity:1" d="M 530.307,508.131 545.091,500.739 z" id="boundary" inkscape:connector-curvature="0" />
	<path style="fill:none;stroke:red;stroke-width:1px;stroke-linecap:butt;stroke-linejoin:miter;stroke-opacity:1" d="M 545.091,11.392 559.875,15.8271 z" id="boundary" inkscape:connector-curvature="0" />
	<path style="fill:none;stroke:red;stroke-width:1px;stroke-linecap:butt;stroke-linejoin:miter;stroke-opacity:1" d="M 545.091,500.739 559.875,493.347 z" id="boundary" inkscape:connector-curvature="0" />
	<path style="fill:none;stroke:red;stroke-width:1px;stroke-linecap:butt;stroke-linejoin:miter;stroke-opacity:1" d="M 559.875,15.8271 574.659,18.7839 z" id="boundary" inkscape:connector-curvature="0" />
	<path style="fill:none;stroke:red;stroke-width:1px;stroke-linecap:butt;stroke-linejoin:miter;stroke-opacity:1" d="M 559.875,493.347 573.18,485.955 z" id="boundary" inkscape:connector-curvature="0" />
	<path style="fill:none;stroke:red;stroke-width:1px;stroke-linecap:butt;stroke-linejoin:miter;stroke-opacity:1" d="M 573.18,485.955 586.486,478.563 z" id="boundary" inkscape:connector-curvature="0" />
	<path style="fill:none;stroke:red;stroke-width:1px;stroke-linecap:butt;stroke-linejoin:miter;stroke-opacity:1" d="M 574.659,18.7839 589.443,18.7839 z" id="boundary" inkscape:connector-curvature="0" />
	<path style="fill:none;stroke:red;stroke-width:1px;stroke-linecap:butt;stroke-linejoin:miter;stroke-opacity:1" d="M 586.486,478.563 599.791,469.693 z" id="boundary" inkscape:connector-curvature="0" />
	<path style="fill:none;stroke:red;stroke-width:1px;stroke-linecap:butt;stroke-linejoin:miter;stroke-opacity:1" d="M 589.443,18.7839 601.27,27.6542 z" id="boundary" inkscape:connector-curvature="0" />
	<path style="fill:none;stroke:red;stroke-width:1px;stroke-linecap:butt;stroke-linejoin:miter;stroke-opacity:1" d="M 599.791,469.693 611.618,456.387 z" id="boundary" inkscape:connector-curvature="0" />
	<path style="fill:none;stroke:red;stroke-width:1px;stroke-linecap:butt;stroke-linejoin:miter;stroke-opacity:1" d="M 601.27,27.6542 611.618,39.4814 z" id="boundary" inkscape:connector-curvature="0" />
	<path style="fill:none;stroke:red;stroke-width:1px;stroke-linecap:butt;stroke-linejoin:miter;stroke-opacity:1" d="M 611.618,39.4814 623.446,49.8301 z" id="boundary" inkscape:connector-curvature="0" />
	<path style="fill:none;stroke:red;stroke-width:1px;stroke-linecap:butt;stroke-linejoin:miter;stroke-opacity:1" d="M 611.618,456.387 623.446,446.039 z" id="boundary" inkscape:connector-curvature="0" />
	<path style="fill:none;stroke:red;stroke-width:1px;stroke-linecap:butt;stroke-linejoin:miter;stroke-opacity:1" d="M 623.446,49.8301 636.751,57.2221 z" id="boundary" inkscape:connector-curvature="0" />
	<path style="fill:none;stroke:red;stroke-width:1px;stroke-linecap:butt;stroke-linejoin:miter;stroke-opacity:1" d="M 623.446,446.039 633.794,434.212 z" id="boundary" inkscape:connector-curvature="0" />
	<path style="fill:none;stroke:red;stroke-width:1px;stroke-linecap:butt;stroke-linejoin:miter;stroke-opacity:1" d="M 633.794,434.212 645.621,423.863 z" id="boundary" inkscape:connector-curvature="0" />
	<path style="fill:none;stroke:red;stroke-width:1px;stroke-linecap:butt;stroke-linejoin:miter;stroke-opacity:1" d="M 636.751,57.2221 648.578,67.5708 z" id="boundary" inkscape:connector-curvature="0" />
	<path style="fill:none;stroke:red;stroke-width:1px;stroke-linecap:butt;stroke-linejoin:miter;stroke-opacity:1" d="M 645.621,423.863 660.405,416.471 z" id="boundary" inkscape:connector-curvature="0" />
	<path style="fill:none;stroke:red;stroke-width:1px;stroke-linecap:butt;stroke-linejoin:miter;stroke-opacity:1" d="M 648.578,67.5708 658.927,79.3979 z" id="boundary" inkscape:connector-curvature="0" />
	<path style="fill:none;stroke:red;stroke-width:1px;stroke-linecap:butt;stroke-linejoin:miter;stroke-opacity:1" d="M 658.927,79.3979 666.319,92.7034 z" id="boundary" inkscape:connector-curvature="0" />
	<path style="fill:none;stroke:red;stroke-width:1px;stroke-linecap:butt;stroke-linejoin:miter;stroke-opacity:1" d="M 660.405,416.471 670.754,404.644 z" id="boundary" inkscape:connector-curvature="0" />
	<path style="fill:none;stroke:red;stroke-width:1px;stroke-linecap:butt;stroke-linejoin:miter;stroke-opacity:1" d="M 666.319,92.7034 679.624,100.095 z" id="boundary" inkscape:connector-curvature="0" />
	<path style="fill:none;stroke:red;stroke-width:1px;stroke-linecap:butt;stroke-linejoin:miter;stroke-opacity:1" d="M 670.754,404.644 682.581,394.295 z" id="boundary" inkscape:connector-curvature="0" />
	<path style="fill:none;stroke:red;stroke-width:1px;stroke-linecap:butt;stroke-linejoin:miter;stroke-opacity:1" d="M 679.624,100.095 692.93,107.487 z" id="boundary" inkscape:connector-curvature="0" />
	<path style="fill:none;stroke:red;stroke-width:1px;stroke-linecap:butt;stroke-linejoin:miter;stroke-opacity:1" d="M 682.581,394.295 692.93,375.076 z" id="boundary" inkscape:connector-curvature="0" />
	<path style="fill:none;stroke:red;stroke-width:1px;stroke-linecap:butt;stroke-linejoin:miter;stroke-opacity:1" d="M 692.93,107.487 704.757,116.358 z" id="boundary" inkscape:connector-curvature="0" />
	<path style="fill:none;stroke:red;stroke-width:1px;stroke-linecap:butt;stroke-linejoin:miter;stroke-opacity:1" d="M 692.93,375.076 700.322,360.292 z" id="boundary" inkscape:connector-curvature="0" />
	<path style="fill:none;stroke:red;stroke-width:1px;stroke-linecap:butt;stroke-linejoin:miter;stroke-opacity:1" d="M 700.322,360.292 712.149,349.943 z" id="boundary" inkscape:connector-curvature="0" />
	<path style="fill:none;stroke:red;stroke-width:1px;stroke-linecap:butt;stroke-linejoin:miter;stroke-opacity:1" d="M 704.757,116.358 715.106,128.185 z" id="boundary" inkscape:connector-curvature="0" />
	<path style="fill:none;stroke:red;stroke-width:1px;stroke-linecap:butt;stroke-linejoin:miter;stroke-opacity:1" d="M 712.149,349.943 722.498,338.116 z" id="boundary" inkscape:connector-curvature="0" />
	<path style="fill:none;stroke:red;stroke-width:1px;stroke-linecap:butt;stroke-linejoin:miter;stroke-opacity:1" d="M 715.106,128.185 726.933,138.534 z" id="boundary" inkscape:connector-curvature="0" />
	<path style="fill:none;stroke:red;stroke-width:1px;stroke-linecap:butt;stroke-linejoin:miter;stroke-opacity:1" d="M 722.498,338.116 734.325,327.768 z" id="boundary" inkscape:connector-curvature="0" />
	<path style="fill:none;stroke:red;stroke-width:1px;stroke-linecap:butt;stroke-linejoin:miter;stroke-opacity:1" d="M 726.933,138.534 737.282,150.361 z" id="boundary" inkscape:connector-curvature="0" />
	<path style="fill:none;stroke:red;stroke-width:1px;stroke-linecap:butt;stroke-linejoin:miter;stroke-opacity:1" d="M 734.325,327.768 741.717,312.984 z" id="boundary" inkscape:connector-curvature="0" />
	<path style="fill:none;stroke:red;stroke-width:1px;stroke-linecap:butt;stroke-linejoin:miter;stroke-opacity:1" d="M 737.282,150.361 744.674,163.666 z" id="boundary" inkscape:connector-curvature="0" />
	<path style="fill:none;stroke:red;stroke-width:1px;stroke-linecap:butt;stroke-linejoin:miter;stroke-opacity:1" d="M 741.717,312.984 752.066,293.765 z" id="boundary" inkscape:connector-curvature="0" />
	<path style="fill:none;stroke:red;stroke-width:1px;stroke-linecap:butt;stroke-linejoin:miter;stroke-opacity:1" d="M 744.674,163.666 750.587,178.45 z" id="boundary" inkscape:connector-curvature="0" />
	<path style="fill:none;stroke:red;stroke-width:1px;stroke-linecap:butt;stroke-linejoin:miter;stroke-opacity:1" d="M 750.587,178.45 757.979,191.756 z" id="boundary" inkscape:connector-curvature="0" />
	<path style="fill:none;stroke:red;stroke-width:1px;stroke-linecap:butt;stroke-linejoin:miter;stroke-opacity:1" d="M 752.066,293.765 766.849,286.373 z" id="boundary" inkscape:connector-curvature="0" />
	<path style="fill:none;stroke:red;stroke-width:1px;stroke-linecap:butt;stroke-linejoin:miter;stroke-opacity:1" d="M 757.979,191.756 772.763,193.234 z" id="boundary" inkscape:connector-curvature="0" />
	<path style="fill:none;stroke:red;stroke-width:1px;stroke-linecap:butt;stroke-linejoin:miter;stroke-opacity:1" d="M 766.849,286.373 781.633,286.373 z" id="boundary" inkscape:connector-curvature="0" />
	<path style="fill:none;stroke:red;stroke-width:1px;stroke-linecap:butt;stroke-linejoin:miter;stroke-opacity:1" d="M 772.763,193.234 787.547,188.799 z" id="boundary" inkscape:connector-curvature="0" />
	<path style="fill:none;stroke:red;stroke-width:1px;stroke-linecap:butt;stroke-linejoin:miter;stroke-opacity:1" d="M 781.633,286.373 796.417,286.373 z" id="boundary" inkscape:connector-curvature="0" />
	<path style="fill:none;stroke:red;stroke-width:1px;stroke-linecap:butt;stroke-linejoin:miter;stroke-opacity:1" d="M 787.547,188.799 802.331,188.799 z" id="boundary" inkscape:connector-curvature="0" />
	<path style="fill:none;stroke:red;stroke-width:1px;stroke-linecap:butt;stroke-linejoin:miter;stroke-opacity:1" d="M 796.417,286.373 811.201,286.373 z" id="boundary" inkscape:connector-curvature="0" />
	<path style="fill:none;stroke:red;stroke-width:1px;stroke-linecap:butt;stroke-linejoin:miter;stroke-opacity:1" d="M 802.331,188.799 817.115,185.842 z" id="boundary" inkscape:connector-curvature="0" />
	<path style="fill:none;stroke:red;stroke-width:1px;stroke-linecap:butt;stroke-linejoin:miter;stroke-opacity:1" d="M 811.201,286.373 825.985,289.329 z" id="boundary" inkscape:connector-curvature="0" />
	<path style="fill:none;stroke:red;stroke-width:1px;stroke-linecap:butt;stroke-linejoin:miter;stroke-opacity:1" d="M 817.115,185.842 828.942,174.015 z" id="boundary" inkscape:connector-curvature="0" />
	<path style="fill:none;stroke:red;stroke-width:1px;stroke-linecap:butt;stroke-linejoin:miter;stroke-opacity:1" d="M 825.985,289.329 840.769,293.765 z" id="boundary" inkscape:connector-curvature="0" />
	<path style="fill:none;stroke:red;stroke-width:1px;stroke-linecap:butt;stroke-linejoin:miter;stroke-opacity:1" d="M 828.942,174.015 842.247,166.623 z" id="boundary" inkscape:connector-curvature="0" />
	<path style="fill:none;stroke:red;stroke-width:1px;stroke-linecap:butt;stroke-linejoin:miter;stroke-opacity:1" d="M 840.769,293.765 855.553,293.765 z" id="boundary" inkscape:connector-curvature="0" />
	<path style="fill:none;stroke:red;stroke-width:1px;stroke-linecap:butt;stroke-linejoin:miter;stroke-opacity:1" d="M 842.247,166.623 855.553,159.231 z" id="boundary" inkscape:connector-curvature="0" />
	<path style="fill:none;stroke:red;stroke-width:1px;stroke-linecap:butt;stroke-linejoin:miter;stroke-opacity:1" d="M 855.553,159.231 870.337,154.796 z" id="boundary" inkscape:connector-curvature="0" />
	<path style="fill:none;stroke:red;stroke-width:1px;stroke-linecap:butt;stroke-linejoin:miter;stroke-opacity:1" d="M 855.553,293.765 870.337,296.721 z" id="boundary" inkscape:connector-curvature="0" />
	<path style="fill:none;stroke:red;stroke-width:1px;stroke-linecap:butt;stroke-linejoin:miter;stroke-opacity:1" d="M 870.337,154.796 882.164,144.447 z" id="boundary" inkscape:connector-curvature="0" />
	<path style="fill:none;stroke:red;stroke-width:1px;stroke-linecap:butt;stroke-linejoin:miter;stroke-opacity:1" d="M 870.337,296.721 885.121,301.156 z" id="boundary" inkscape:connector-curvature="0" />
	<path style="fill:none;stroke:red;stroke-width:1px;stroke-linecap:butt;stroke-linejoin:miter;stroke-opacity:1" d="M 882.164,144.447 895.469,137.055 z" id="boundary" inkscape:connector-curvature="0" />
	<path style="fill:none;stroke:red;stroke-width:1px;stroke-linecap:butt;stroke-linejoin:miter;stroke-opacity:1" d="M 885.121,301.156 899.905,301.156 z" id="boundary" inkscape:connector-curvature="0" />
	<path style="fill:none;stroke:red;stroke-width:1px;stroke-linecap:butt;stroke-linejoin:miter;stroke-opacity:1" d="M 895.469,137.055 910.253,129.663 z" id="boundary" inkscape:connector-curvature="0" />
	<path style="fill:none;stroke:red;stroke-width:1px;stroke-linecap:butt;stroke-linejoin:miter;stroke-opacity:1" d="M 899.905,301.156 913.21,308.548 z" id="boundary" inkscape:connector-curvature="0" />
	<path style="fill:none;stroke:red;stroke-width:1px;stroke-linecap:butt;stroke-linejoin:miter;stroke-opacity:1" d="M 910.253,129.663 923.559,122.271 z" id="boundary" inkscape:connector-curvature="0" />
	<path style="fill:none;stroke:red;stroke-width:1px;stroke-linecap:butt;stroke-linejoin:miter;stroke-opacity:1" d="M 913.21,308.548 927.994,308.548 z" id="boundary" inkscape:connector-curvature="0" />
	<path style="fill:none;stroke:red;stroke-width:1px;stroke-linecap:butt;stroke-linejoin:miter;stroke-opacity:1" d="M 923.559,122.271 936.864,114.879 z" id="boundary" inkscape:connector-curvature="0" />
	<path style="fill:none;stroke:red;stroke-width:1px;stroke-linecap:butt;stroke-linejoin:miter;stroke-opacity:1" d="M 927.994,308.548 942.778,308.548 z" id="boundary" inkscape:connector-curvature="0" />
	<path style="fill:none;stroke:red;stroke-width:1px;stroke-linecap:butt;stroke-linejoin:miter;stroke-opacity:1" d="M 936.864,114.879 951.648,114.879 z" id="boundary" inkscape:connector-curvature="0" />
	<path style="fill:none;stroke:red;stroke-width:1px;stroke-linecap:butt;stroke-linejoin:miter;stroke-opacity:1" d="M 942.778,308.548 956.083,315.94 z" id="boundary" inkscape:connector-curvature="0" />
	<path style="fill:none;stroke:red;stroke-width:1px;stroke-linecap:butt;stroke-linejoin:miter;stroke-opacity:1" d="M 951.648,114.879 964.954,122.271 z" id="boundary" inkscape:connector-curvature="0" />
	<path style="fill:none;stroke:red;stroke-width:1px;stroke-linecap:butt;stroke-linejoin:miter;stroke-opacity:1" d="M 956.083,315.94 970.867,312.984 z" id="boundary" inkscape:connector-curvature="0" />
	<path style="fill:none;stroke:red;stroke-width:1px;stroke-linecap:butt;stroke-linejoin:miter;stroke-opacity:1" d="M 964.954,122.271 973.824,134.098 z" id="boundary" inkscape:connector-curvature="0" />
	<path style="fill:none;stroke:red;stroke-width:1px;stroke-linecap:butt;stroke-linejoin:miter;stroke-opacity:1" d="M 970.867,312.984 985.651,305.592 z" id="boundary" inkscape:connector-curvature="0" />
	<path style="fill:none;stroke:red;stroke-width:1px;stroke-linecap:butt;stroke-linejoin:miter;stroke-opacity:1" d="M 973.824,134.098 981.216,147.404 z" id="boundary" inkscape:connector-curvature="0" />
	<path style="fill:none;stroke:red;stroke-width:1px;stroke-linecap:butt;stroke-linejoin:miter;stroke-opacity:1" d="M 981.216,147.404 985.651,162.188 z" id="boundary" inkscape:connector-curvature="0" />
	<path style="fill:none;stroke:red;stroke-width:1px;stroke-linecap:butt;stroke-linejoin:miter;stroke-opacity:1" d="M 985.651,162.188 988.608,176.972 z" id="boundary" inkscape:connector-curvature="0" />
	<path style="fill:none;stroke:red;stroke-width:1px;stroke-linecap:butt;stroke-linejoin:miter;stroke-opacity:1" d="M 985.651,305.592 988.608,278.981 z" id="boundary" inkscape:connector-curvature="0" />
	<path style="fill:none;stroke:red;stroke-width:1px;stroke-linecap:butt;stroke-linejoin:miter;stroke-opacity:1" d="M 988.608,176.972 996,190.277 z" id="boundary" inkscape:connector-curvature="0" />
	<path style="fill:none;stroke:red;stroke-width:1px;stroke-linecap:butt;stroke-linejoin:miter;stroke-opacity:1" d="M 988.608,278.981 996,264.197 z" id="boundary" inkscape:connector-curvature="0" />
	<path style="fill:none;stroke:red;stroke-width:1px;stroke-linecap:butt;stroke-linejoin:miter;stroke-opacity:1" d="M 996,190.277 996,205.061 z" id="boundary" inkscape:connector-curvature="0" />
	<path style="fill:none;stroke:red;stroke-width:1px;stroke-linecap:butt;stroke-linejoin:miter;stroke-opacity:1" d="M 996,205.061 996,219.845 z" id="boundary" inkscape:connector-curvature="0" />
	<path style="fill:none;stroke:red;stroke-width:1px;stroke-linecap:butt;stroke-linejoin:miter;stroke-opacity:1" d="M 996,219.845 996,234.629 z" id="boundary" inkscape:connector-curvature="0" />
	<path style="fill:none;stroke:red;stroke-width:1px;stroke-linecap:butt;stroke-linejoin:miter;stroke-opacity:1" d="M 996,234.629 996,249.413 z" id="boundary" inkscape:connector-curvature="0" />
	<path style="fill:none;stroke:red;stroke-width:1px;stroke-linecap:butt;stroke-linejoin:miter;stroke-opacity:1" d="M 996,249.413 996,264.197 z" id="boundary" inkscape:connector-curvature="0" />
	<circle cx="4" cy="244.978" r="4" fill="#0" id="circle0"/>
	<circle cx="4" cy="259.762" r="4" fill="#0" id="circle1"/>
	<circle cx="11.392" cy="273.067" r="4" fill="#0" id="circle2"/>
	<circle cx="15.8271" cy="233.151" r="4" fill="#0" id="circle3"/>
	<circle cx="18.7839" cy="286.373" r="4" fill="#0" id="circle4"/>
	<circle cx="27.6542" cy="298.2" r="4" fill="#0" id="circle5"/>
	<circle cx="29.1326" cy="225.759" r="4" fill="#0" id="circle6"/>
	<circle cx="39.4814" cy="308.548" r="4" fill="#0" id="circle7"/>
	<circle cx="42.4382" cy="218.367" r="4" fill="#0" id="circle8"/>
	<circle cx="52.7869" cy="315.94" r="4" fill="#0" id="circle9"/>
	<circle cx="55.7437" cy="208.018" r="4" fill="#0" id="circle10"/>
	<circle cx="67.5708" cy="196.191" r="4" fill="#0" id="circle11"/>
	<circle cx="67.5708" cy="321.854" r="4" fill="#0" id="circle12"/>
	<circle cx="77.9195" cy="178.45" r="4" fill="#0" id="circle13"/>
	<circle cx="80.8763" cy="329.246" r="4" fill="#0" id="circle14"/>
	<circle cx="89.7466" cy="166.623" r="4" fill="#0" id="circle15"/>
	<circle cx="92.7034" cy="338.116" r="4" fill="#0" id="circle16"/>
	<circle cx="97.1386" cy="151.839" r="4" fill="#0" id="circle17"/>
	<circle cx="106.009" cy="345.508" r="4" fill="#0" id="circle18"/>
	<circle cx="108.966" cy="140.012" r="4" fill="#0" id="circle19"/>
	<circle cx="119.314" cy="352.9" r="4" fill="#0" id="circle20"/>
	<circle cx="120.793" cy="129.663" r="4" fill="#0" id="circle21"/>
	<circle cx="131.142" cy="117.836" r="4" fill="#0" id="circle22"/>
	<circle cx="134.098" cy="352.9" r="4" fill="#0" id="circle23"/>
	<circle cx="142.969" cy="107.487" r="4" fill="#0" id="circle24"/>
	<circle cx="147.404" cy="360.292" r="4" fill="#0" id="circle25"/>
	<circle cx="156.274" cy="100.095" r="4" fill="#0" id="circle26"/>
	<circle cx="159.231" cy="369.162" r="4" fill="#0" id="circle27"/>
	<circle cx="171.058" cy="92.7034" r="4" fill="#0" id="circle28"/>
	<circle cx="174.015" cy="375.076" r="4" fill="#0" id="circle29"/>
	<circle cx="184.364" cy="85.3115" r="4" fill="#0" id="circle30"/>
	<circle cx="187.32" cy="382.468" r="4" fill="#0" id="circle31"/>
	<circle cx="197.669" cy="77.9195" r="4" fill="#0" id="circle32"/>
	<circle cx="197.669" cy="394.295" r="4" fill="#0" id="circle33"/>
	<circle cx="209.496" cy="404.644" r="4" fill="#0" id="circle34"/>
	<circle cx="212.453" cy="73.4844" r="4" fill="#0" id="circle35"/>
	<circle cx="219.845" cy="416.471" r="4" fill="#0" id="circle36"/>
	<circle cx="227.237" cy="66.0924" r="4" fill="#0" id="circle37"/>
	<circle cx="234.629" cy="422.385" r="4" fill="#0" id="circle38"/>
	<circle cx="242.021" cy="63.1356" r="4" fill="#0" id="circle39"/>
	<circle cx="249.413" cy="426.82" r="4" fill="#0" id="circle40"/>
	<circle cx="255.326" cy="55.7437" r="4" fill="#0" id="circle41"/>
	<circle cx="264.197" cy="426.82" r="4" fill="#0" id="circle42"/>
	<circle cx="268.632" cy="48.3517" r="4" fill="#0" id="circle43"/>
	<circle cx="278.981" cy="429.776" r="4" fill="#0" id="circle44"/>
	<circle cx="281.937" cy="40.9598" r="4" fill="#0" id="circle45"/>
	<circle cx="292.286" cy="437.168" r="4" fill="#0" id="circle46"/>
	<circle cx="296.721" cy="33.5678" r="4" fill="#0" id="circle47"/>
	<circle cx="304.113" cy="447.517" r="4" fill="#0" id="circle48"/>
	<circle cx="311.505" cy="26.1759" r="4" fill="#0" id="circle49"/>
	<circle cx="318.897" cy="448.996" r="4" fill="#0" id="circle50"/>
	<circle cx="326.289" cy="26.1759" r="4" fill="#0" id="circle51"/>
	<circle cx="332.203" cy="456.387" r="4" fill="#0" id="circle52"/>
	<circle cx="341.073" cy="26.1759" r="4" fill="#0" id="circle53"/>
	<circle cx="346.987" cy="460.823" r="4" fill="#0" id="circle54"/>
	<circle cx="354.379" cy="18.7839" r="4" fill="#0" id="circle55"/>
	<circle cx="360.292" cy="468.215" r="4" fill="#0" id="circle56"/>
	<circle cx="369.162" cy="12.8703" r="4" fill="#0" id="circle57"/>
	<circle cx="375.076" cy="471.171" r="4" fill="#0" id="circle58"/>
	<circle cx="383.946" cy="11.392" r="4" fill="#0" id="circle59"/>
	<circle cx="388.382" cy="478.563" r="4" fill="#0" id="circle60"/>
	<circle cx="398.73" cy="11.392" r="4" fill="#0" id="circle61"/>
	<circle cx="401.687" cy="485.955" r="4" fill="#0" id="circle62"/>
	<circle cx="413.514" cy="11.392" r="4" fill="#0" id="circle63"/>
	<circle cx="414.993" cy="493.347" r="4" fill="#0" id="circle64"/>
	<circle cx="428.298" cy="11.392" r="4" fill="#0" id="circle65"/>
	<circle cx="429.776" cy="499.261" r="4" fill="#0" id="circle66"/>
	<circle cx="441.604" cy="4" r="4" fill="#0" id="circle67"/>
	<circle cx="443.082" cy="506.653" r="4" fill="#0" id="circle68"/>
	<circle cx="456.387" cy="4" r="4" fill="#0" id="circle69"/>
	<circle cx="457.866" cy="512.566" r="4" fill="#0" id="circle70"/>
	<circle cx="471.171" cy="4" r="4" fill="#0" id="circle71"/>
	<circle cx="472.65" cy="515.523" r="4" fill="#0" id="circle72"/>
	<circle cx="485.955" cy="4" r="4" fill="#0" id="circle73"/>
	<circle cx="487.434" cy="515.523" r="4" fill="#0" id="circle74"/>
	<circle cx="500.739" cy="4" r="4" fill="#0" id="circle75"/>
	<circle cx="502.218" cy="515.523" r="4" fill="#0" id="circle76"/>
	<circle cx="515.523" cy="8.43517" r="4" fill="#0" id="circle77"/>
	<circle cx="517.001" cy="515.523" r="4" fill="#0" id="circle78"/>
	<circle cx="530.307" cy="11.392" r="4" fill="#0" id="circle79"/>
	<circle cx="530.307" cy="508.131" r="4" fill="#0" id="circle80"/>
	<circle cx="545.091" cy="11.392" r="4" fill="#0" id="circle81"/>
	<circle cx="545.091" cy="500.739" r="4" fill="#0" id="circle82"/>
	<circle cx="559.875" cy="15.8271" r="4" fill="#0" id="circle83"/>
	<circle cx="559.875" cy="493.347" r="4" fill="#0" id="circle84"/>
	<circle cx="573.18" cy="485.955" r="4" fill="#0" id="circle85"/>
	<circle cx="574.659" cy="18.7839" r="4" fill="#0" id="circle86"/>
	<circle cx="586.486" cy="478.563" r="4" fill="#0" id="circle87"/>
	<circle cx="589.443" cy="18.7839" r="4" fill="#0" id="circle88"/>
	<circle cx="599.791" cy="469.693" r="4" fill="#0" id="circle89"/>
	<circle cx="601.27" cy="27.6542" r="4" fill="#0" id="circle90"/>
	<circle cx="611.618" cy="39.4814" r="4" fill="#0" id="circle91"/>
	<circle cx="611.618" cy="456.387" r="4" fill="#0" id="circle92"/>
	<circle cx="623.446" cy="49.8301" r="4" fill="#0" id="circle93"/>
	<circle cx="623.446" cy="446.039" r="4" fill="#0" id="circle94"/>
	<circle cx="633.794" cy="434.212" r="4" fill="#0" id="circle95"/>
	<circle cx="636.751" cy="57.2221" r="4" fill="#0" id="circle96"/>
	<circle cx="645.621" cy="423.863" r="4" fill="#0" id="circle97"/>
	<circle cx="648.578" cy="67.5708" r="4" fill="#0" id="circle98"/>
	<circle cx="658.927" cy="79.3979" r="4" fill="#0" id="circle99"/>
	<circle cx="660.405" cy="416.471" r="4" fill="#0" id="circle100"/>
	<circle cx="666.319" cy="92.7034" r="4" fill="#0" id="circle101"/>
	<circle cx="670.754" cy="404.644" r="4" fill="#0" id="circle102"/>
	<circle cx="679.624" cy="100.095" r="4" fill="#0" id="circle103"/>
	<circle cx="682.581" cy="394.295" r="4" fill="#0" id="circle104"/>
	<circle cx="692.93" cy="107.487" r="4" fill="#0" id="circle105"/>
	<circle cx="692.93" cy="375.076" r="4" fill="#0" id="circle106"/>
	<circle cx="700.322" cy="360.292" r="4" fill="#0" id="circle107"/>
	<circle cx="704.757" cy="116.358" r="4" fill="#0" id="circle108"/>
	<circle cx="712.149" cy="349.943" r="4" fill="#0" id="circle109"/>
	<circle cx="715.106" cy="128.185" r="4" fill="#0" id="circle110"/>
	<circle cx="722.498" cy="338.116" r="4" fill="#0" id="circle111"/>
	<circle cx="726.933" cy="138.534" r="4" fill="#0" id="circle112"/>
	<circle cx="734.325" cy="327.768" r="4" fill="#0" id="circle113"/>
	<circle cx="737.282" cy="150.361" r="4" fill="#0" id="circle114"/>
	<circle cx="741.717" cy="312.984" r="4" fill="#0" id="circle115"/>
	<circle cx="744.674" cy="163.666" r="4" fill="#0" id="circle116"/>
	<circle cx="750.587" cy="178.45" r="4" fill="#0" id="circle117"/>
	<circle cx="752.066" cy="293.765" r="4" fill="#0" id="circle118"/>
	<circle cx="757.979" cy="191.756" r="4" fill="#0" id="circle119"/>
	<circle cx="766.849" cy="286.373" r="4" fill="#0" id="circle120"/>
	<circle cx="772.763" cy="193.234" r="4" fill="#0" id="circle121"/>
	<circle cx="781.633" cy="286.373" r="4" fill="#0" id="circle122"/>
	<circle cx="787.547" cy="188.799" r="4" fill="#0" id="circle123"/>
	<circle cx="796.417" cy="286.373" r="4" fill="#0" id="circle124"/>
	<circle cx="802.331" cy="188.799" r="4" fill="#0" id="circle125"/>
	<circle cx="811.201" cy="286.373" r="4" fill="#0" id="circle126"/>
	<circle cx="817.115" cy="185.842" r="4" fill="#0" id="circle127"/>
	<circle cx="825.985" cy="289.329" r="4" fill="#0" id="circle128"/>
	<circle cx="828.942" cy="174.015" r="4" fill="#0" id="circle129"/>
	<circle cx="840.769" cy="293.765" r="4" fill="#0" id="circle130"/>
	<circle cx="842.247" cy="166.623" r="4" fill="#0" id="circle131"/>
	<circle cx="855.553" cy="159.231" r="4" fill="#0" id="circle132"/>
	<circle cx="855.553" cy="293.765" r="4" fill="#0" id="circle133"/>
	<circle cx="870.337" cy="154.796" r="4" fill="#0" id="circle134"/>
	<circle cx="870.337" cy="296.721" r="4" fill="#0" id="circle135"/>
	<circle cx="882.164" cy="144.447" r="4" fill="#0" id="circle136"/>
	<circle cx="885.121" cy="301.156" r="4" fill="#0" id="circle137"/>
	<circle cx="895.469" cy="137.055" r="4" fill="#0" id="circle138"/>
	<circle cx="899.905" cy="301.156" r="4" fill="#0" id="circle139"/>
	<circle cx="910.253" cy="129.663" r="4" fill="#0" id="circle140"/>
	<circle cx="913.21" cy="308.548" r="4" fill="#0" id="circle141"/>
	<circle cx="923.559" cy="122.271" r="4" fill="#0" id="circle142"/>
	<circle cx="927.994" cy="308.548" r="4" fill="#0" id="circle143"/>
	<circle cx="936.864" cy="114.879" r="4" fill="#0" id="circle144"/>
	<circle cx="942.778" cy="308.548" r="4" fill="#0" id="circle145"/>
	<circle cx="951.648" cy="114.879" r="4" fill="#0" id="circle146"/>
	<circle cx="956.083" cy="315.94" r="4" fill="#0" id="circle147"/>
	<circle cx="964.954" cy="122.271" r="4" fill="#0" id="circle148"/>
	<circle cx="970.867" cy="312.984" r="4" fill="#0" id="circle149"/>
	<circle cx="973.824" cy="134.098" r="4" fill="#0" id="circle150"/>
	<circle cx="981.216" cy="147.404" r="4" fill="#0" id="circle151"/>
	<circle cx="985.651" cy="162.188" r="4" fill="#0" id="circle152"/>
	<circle cx="985.651" cy="305.592" r="4" fill="#0" id="circle153"/>
	<circle cx="988.608" cy="176.972" r="4" fill="#0" id="circle154"/>
	<circle cx="988.608" cy="278.981" r="4" fill="#0" id="circle155"/>
	<circle cx="996" cy="190.277" r="4" fill="#0" id="circle156"/>
	<circle cx="996" cy="205.061" r="4" fill="#0" id="circle157"/>
	<circle cx="996" cy="219.845" r="4" fill="#0" id="circle158"/>
	<circle cx="996" cy="234.629" r="4" fill="#0" id="circle159"/>
	<circle cx="996" cy="249.413" r="4" fill="#0" id="circle160"/>
	<circle cx="996" cy="264.197" r="4" fill="#0" id="circle161"/>
	</g>
</svg>