<?xml version="1.0" encoding="UTF-8" standalone="no"?>
<!-- Created with CurveBenchmark -->
<svg
	xmlns:dc="http://purl.org/dc/elements/1.1/"
	xmlns:cc="http://creativecommons.org/ns#"
	xmlns:rdf="http://www.w3.org/1999/02/22-rdf-syntax-ns#"
	xmlns:svg="http://www.w3.org/2000/svg"
	xmlns="http://www.w3.org/2000/svg"
	xmlns:sodipodi="http://sodipodi.sourceforge.net/DTD/sodipodi-0.dtd"
	xmlns:inkscape="http://www.inkscape.org/namespaces/inkscape"
	width="1000"
	height="1000"
	id="svg2"
	version="1.1"
	sodipodi:docname="manifold/hnncrust-bird31.png.txt">
<defs
	id="defs4" />
<metadata
	id="metadata7">
	<rdf:RDF>
		<cc:Work
			rdf:about="">
			<dc:format>image/svg+xml</dc:format>
			<dc:type
				rdf:resource="http://purl.org/dc/dcmitype/StillImage" />
			<dc:title></dc:title>
		</cc:Work>
	</rdf:RDF>
</metadata>
<g
	inkscape:label="Layer 1"
	inkscape:groupmode="layer"
	id="layer1">
	<path style="fill:none;stroke:red;stroke-width:1px;stroke-linecap:butt;stroke-linejoin:miter;stroke-opacity:1" d="M 4,8.33819 12.6764,19.9067 z" id="boundary" inkscape:connector-curvature="0" />
	<path style="fill:none;stroke:red;stroke-width:1px;stroke-linecap:butt;stroke-linejoin:miter;stroke-opacity:1" d="M 4,8.33819 18.4606,4 z" id="boundary" inkscape:connector-curvature="0" />
	<path style="fill:none;stroke:red;stroke-width:1px;stroke-linecap:butt;stroke-linejoin:miter;stroke-opacity:1" d="M 12.6764,19.9067 25.691,27.137 z" id="boundary" inkscape:connector-curvature="0" />
	<path style="fill:none;stroke:red;stroke-width:1px;stroke-linecap:butt;stroke-linejoin:miter;stroke-opacity:1" d="M 18.4606,4 32.9213,4 z" id="boundary" inkscape:connector-curvature="0" />
	<path style="fill:none;stroke:red;stroke-width:1px;stroke-linecap:butt;stroke-linejoin:miter;stroke-opacity:1" d="M 25.691,27.137 34.3673,38.7055 z" id="boundary" inkscape:connector-curvature="0" />
	<path style="fill:none;stroke:red;stroke-width:1px;stroke-linecap:butt;stroke-linejoin:miter;stroke-opacity:1" d="M 32.9213,4 47.3819,4 z" id="boundary" inkscape:connector-curvature="0" />
	<path style="fill:none;stroke:red;stroke-width:1px;stroke-linecap:butt;stroke-linejoin:miter;stroke-opacity:1" d="M 34.3673,38.7055 48.828,44.4898 z" id="boundary" inkscape:connector-curvature="0" />
	<path style="fill:none;stroke:red;stroke-width:1px;stroke-linecap:butt;stroke-linejoin:miter;stroke-opacity:1" d="M 47.3819,4 60.3965,11.2303 z" id="boundary" inkscape:connector-curvature="0" />
	<path style="fill:none;stroke:red;stroke-width:1px;stroke-linecap:butt;stroke-linejoin:miter;stroke-opacity:1" d="M 48.828,44.4898 58.9504,56.0583 z" id="boundary" inkscape:connector-curvature="0" />
	<path style="fill:none;stroke:red;stroke-width:1px;stroke-linecap:butt;stroke-linejoin:miter;stroke-opacity:1" d="M 58.9504,56.0583 70.519,66.1808 z" id="boundary" inkscape:connector-curvature="0" />
	<path style="fill:none;stroke:red;stroke-width:1px;stroke-linecap:butt;stroke-linejoin:miter;stroke-opacity:1" d="M 60.3965,11.2303 74.8571,11.2303 z" id="boundary" inkscape:connector-curvature="0" />
	<path style="fill:none;stroke:red;stroke-width:1px;stroke-linecap:butt;stroke-linejoin:miter;stroke-opacity:1" d="M 70.519,66.1808 80.6414,77.7493 z" id="boundary" inkscape:connector-curvature="0" />
	<path style="fill:none;stroke:red;stroke-width:1px;stroke-linecap:butt;stroke-linejoin:miter;stroke-opacity:1" d="M 74.8571,11.2303 89.3178,11.2303 z" id="boundary" inkscape:connector-curvature="0" />
	<path style="fill:none;stroke:red;stroke-width:1px;stroke-linecap:butt;stroke-linejoin:miter;stroke-opacity:1" d="M 80.6414,77.7493 83.5335,92.2099 z" id="boundary" inkscape:connector-curvature="0" />
	<path style="fill:none;stroke:red;stroke-width:1px;stroke-linecap:butt;stroke-linejoin:miter;stroke-opacity:1" d="M 83.5335,92.2099 90.7638,105.224 z" id="boundary" inkscape:connector-curvature="0" />
	<path style="fill:none;stroke:red;stroke-width:1px;stroke-linecap:butt;stroke-linejoin:miter;stroke-opacity:1" d="M 89.3178,11.2303 102.332,4 z" id="boundary" inkscape:connector-curvature="0" />
	<path style="fill:none;stroke:red;stroke-width:1px;stroke-linecap:butt;stroke-linejoin:miter;stroke-opacity:1" d="M 90.7638,105.224 90.7638,119.685 z" id="boundary" inkscape:connector-curvature="0" />
	<path style="fill:none;stroke:red;stroke-width:1px;stroke-linecap:butt;stroke-linejoin:miter;stroke-opacity:1" d="M 90.7638,119.685 90.7638,134.146 z" id="boundary" inkscape:connector-curvature="0" />
	<path style="fill:none;stroke:red;stroke-width:1px;stroke-linecap:butt;stroke-linejoin:miter;stroke-opacity:1" d="M 90.7638,134.146 90.7638,148.606 z" id="boundary" inkscape:connector-curvature="0" />
	<path style="fill:none;stroke:red;stroke-width:1px;stroke-linecap:butt;stroke-linejoin:miter;stroke-opacity:1" d="M 90.7638,148.606 90.7638,163.067 z" id="boundary" inkscape:connector-curvature="0" />
	<path style="fill:none;stroke:red;stroke-width:1px;stroke-linecap:butt;stroke-linejoin:miter;stroke-opacity:1" d="M 90.7638,163.067 90.7638,177.528 z" id="boundary" inkscape:connector-curvature="0" />
	<path style="fill:none;stroke:red;stroke-width:1px;stroke-linecap:butt;stroke-linejoin:miter;stroke-opacity:1" d="M 90.7638,177.528 90.7638,191.988 z" id="boundary" inkscape:connector-curvature="0" />
	<path style="fill:none;stroke:red;stroke-width:1px;stroke-linecap:butt;stroke-linejoin:miter;stroke-opacity:1" d="M 90.7638,191.988 90.7638,206.449 z" id="boundary" inkscape:connector-curvature="0" />
	<path style="fill:none;stroke:red;stroke-width:1px;stroke-linecap:butt;stroke-linejoin:miter;stroke-opacity:1" d="M 90.7638,206.449 90.7638,220.91 z" id="boundary" inkscape:connector-curvature="0" />
	<path style="fill:none;stroke:red;stroke-width:1px;stroke-linecap:butt;stroke-linejoin:miter;stroke-opacity:1" d="M 90.7638,220.91 90.7638,235.37 z" id="boundary" inkscape:connector-curvature="0" />
	<path style="fill:none;stroke:red;stroke-width:1px;stroke-linecap:butt;stroke-linejoin:miter;stroke-opacity:1" d="M 90.7638,235.37 90.7638,249.831 z" id="boundary" inkscape:connector-curvature="0" />
	<path style="fill:none;stroke:red;stroke-width:1px;stroke-linecap:butt;stroke-linejoin:miter;stroke-opacity:1" d="M 90.7638,249.831 90.7638,264.292 z" id="boundary" inkscape:connector-curvature="0" />
	<path style="fill:none;stroke:red;stroke-width:1px;stroke-linecap:butt;stroke-linejoin:miter;stroke-opacity:1" d="M 90.7638,264.292 90.7638,278.752 z" id="boundary" inkscape:connector-curvature="0" />
	<path style="fill:none;stroke:red;stroke-width:1px;stroke-linecap:butt;stroke-linejoin:miter;stroke-opacity:1" d="M 90.7638,278.752 90.7638,293.213 z" id="boundary" inkscape:connector-curvature="0" />
	<path style="fill:none;stroke:red;stroke-width:1px;stroke-linecap:butt;stroke-linejoin:miter;stroke-opacity:1" d="M 90.7638,293.213 99.4402,304.781 z" id="boundary" inkscape:connector-curvature="0" />
	<path style="fill:none;stroke:red;stroke-width:1px;stroke-linecap:butt;stroke-linejoin:miter;stroke-opacity:1" d="M 99.4402,304.781 105.224,319.242 z" id="boundary" inkscape:connector-curvature="0" />
	<path style="fill:none;stroke:red;stroke-width:1px;stroke-linecap:butt;stroke-linejoin:miter;stroke-opacity:1" d="M 102.332,4 116.793,4 z" id="boundary" inkscape:connector-curvature="0" />
	<path style="fill:none;stroke:red;stroke-width:1px;stroke-linecap:butt;stroke-linejoin:miter;stroke-opacity:1" d="M 105.224,319.242 112.455,332.257 z" id="boundary" inkscape:connector-curvature="0" />
	<path style="fill:none;stroke:red;stroke-width:1px;stroke-linecap:butt;stroke-linejoin:miter;stroke-opacity:1" d="M 112.455,332.257 126.915,338.041 z" id="boundary" inkscape:connector-curvature="0" />
	<path style="fill:none;stroke:red;stroke-width:1px;stroke-linecap:butt;stroke-linejoin:miter;stroke-opacity:1" d="M 116.793,4 131.254,4 z" id="boundary" inkscape:connector-curvature="0" />
	<path style="fill:none;stroke:red;stroke-width:1px;stroke-linecap:butt;stroke-linejoin:miter;stroke-opacity:1" d="M 126.915,338.041 135.592,349.609 z" id="boundary" inkscape:connector-curvature="0" />
	<path style="fill:none;stroke:red;stroke-width:1px;stroke-linecap:butt;stroke-linejoin:miter;stroke-opacity:1" d="M 131.254,4 145.714,4 z" id="boundary" inkscape:connector-curvature="0" />
	<path style="fill:none;stroke:red;stroke-width:1px;stroke-linecap:butt;stroke-linejoin:miter;stroke-opacity:1" d="M 135.592,349.609 147.16,359.732 z" id="boundary" inkscape:connector-curvature="0" />
	<path style="fill:none;stroke:red;stroke-width:1px;stroke-linecap:butt;stroke-linejoin:miter;stroke-opacity:1" d="M 145.714,4 160.175,4 z" id="boundary" inkscape:connector-curvature="0" />
	<path style="fill:none;stroke:red;stroke-width:1px;stroke-linecap:butt;stroke-linejoin:miter;stroke-opacity:1" d="M 147.16,359.732 160.175,366.962 z" id="boundary" inkscape:connector-curvature="0" />
	<path style="fill:none;stroke:red;stroke-width:1px;stroke-linecap:butt;stroke-linejoin:miter;stroke-opacity:1" d="M 148.606,550.612 148.606,565.073 z" id="boundary" inkscape:connector-curvature="0" />
	<path style="fill:none;stroke:red;stroke-width:1px;stroke-linecap:butt;stroke-linejoin:miter;stroke-opacity:1" d="M 148.606,550.612 155.837,528.921 z" id="boundary" inkscape:connector-curvature="0" />
	<path style="fill:none;stroke:red;stroke-width:1px;stroke-linecap:butt;stroke-linejoin:miter;stroke-opacity:1" d="M 148.606,565.073 148.606,579.534 z" id="boundary" inkscape:connector-curvature="0" />
	<path style="fill:none;stroke:red;stroke-width:1px;stroke-linecap:butt;stroke-linejoin:miter;stroke-opacity:1" d="M 148.606,579.534 163.067,583.872 z" id="boundary" inkscape:connector-curvature="0" />
	<path style="fill:none;stroke:red;stroke-width:1px;stroke-linecap:butt;stroke-linejoin:miter;stroke-opacity:1" d="M 155.837,528.921 167.405,517.353 z" id="boundary" inkscape:connector-curvature="0" />
	<path style="fill:none;stroke:red;stroke-width:1px;stroke-linecap:butt;stroke-linejoin:miter;stroke-opacity:1" d="M 160.175,4 173.19,11.2303 z" id="boundary" inkscape:connector-curvature="0" />
	<path style="fill:none;stroke:red;stroke-width:1px;stroke-linecap:butt;stroke-linejoin:miter;stroke-opacity:1" d="M 160.175,366.962 173.19,374.192 z" id="boundary" inkscape:connector-curvature="0" />
	<path style="fill:none;stroke:red;stroke-width:1px;stroke-linecap:butt;stroke-linejoin:miter;stroke-opacity:1" d="M 163.067,583.872 176.082,576.641 z" id="boundary" inkscape:connector-curvature="0" />
	<path style="fill:none;stroke:red;stroke-width:1px;stroke-linecap:butt;stroke-linejoin:miter;stroke-opacity:1" d="M 167.405,517.353 181.866,510.122 z" id="boundary" inkscape:connector-curvature="0" />
	<path style="fill:none;stroke:red;stroke-width:1px;stroke-linecap:butt;stroke-linejoin:miter;stroke-opacity:1" d="M 173.19,11.2303 187.65,11.2303 z" id="boundary" inkscape:connector-curvature="0" />
	<path style="fill:none;stroke:red;stroke-width:1px;stroke-linecap:butt;stroke-linejoin:miter;stroke-opacity:1" d="M 173.19,374.192 184.758,382.869 z" id="boundary" inkscape:connector-curvature="0" />
	<path style="fill:none;stroke:red;stroke-width:1px;stroke-linecap:butt;stroke-linejoin:miter;stroke-opacity:1" d="M 176.082,576.641 189.096,569.411 z" id="boundary" inkscape:connector-curvature="0" />
	<path style="fill:none;stroke:red;stroke-width:1px;stroke-linecap:butt;stroke-linejoin:miter;stroke-opacity:1" d="M 181.866,510.122 196.327,510.122 z" id="boundary" inkscape:connector-curvature="0" />
	<path style="fill:none;stroke:red;stroke-width:1px;stroke-linecap:butt;stroke-linejoin:miter;stroke-opacity:1" d="M 184.758,382.869 199.219,388.653 z" id="boundary" inkscape:connector-curvature="0" />
	<path style="fill:none;stroke:red;stroke-width:1px;stroke-linecap:butt;stroke-linejoin:miter;stroke-opacity:1" d="M 187.65,11.2303 202.111,11.2303 z" id="boundary" inkscape:connector-curvature="0" />
	<path style="fill:none;stroke:red;stroke-width:1px;stroke-linecap:butt;stroke-linejoin:miter;stroke-opacity:1" d="M 189.096,569.411 202.111,562.181 z" id="boundary" inkscape:connector-curvature="0" />
	<path style="fill:none;stroke:red;stroke-width:1px;stroke-linecap:butt;stroke-linejoin:miter;stroke-opacity:1" d="M 196.327,510.122 209.341,517.353 z" id="boundary" inkscape:connector-curvature="0" />
	<path style="fill:none;stroke:red;stroke-width:1px;stroke-linecap:butt;stroke-linejoin:miter;stroke-opacity:1" d="M 199.219,388.653 207.895,400.222 z" id="boundary" inkscape:connector-curvature="0" />
	<path style="fill:none;stroke:red;stroke-width:1px;stroke-linecap:butt;stroke-linejoin:miter;stroke-opacity:1" d="M 202.111,11.2303 215.125,18.4606 z" id="boundary" inkscape:connector-curvature="0" />
	<path style="fill:none;stroke:red;stroke-width:1px;stroke-linecap:butt;stroke-linejoin:miter;stroke-opacity:1" d="M 202.111,562.181 215.125,554.95 z" id="boundary" inkscape:connector-curvature="0" />
	<path style="fill:none;stroke:red;stroke-width:1px;stroke-linecap:butt;stroke-linejoin:miter;stroke-opacity:1" d="M 207.895,400.222 222.356,403.114 z" id="boundary" inkscape:connector-curvature="0" />
	<path style="fill:none;stroke:red;stroke-width:1px;stroke-linecap:butt;stroke-linejoin:miter;stroke-opacity:1" d="M 209.341,517.353 222.356,524.583 z" id="boundary" inkscape:connector-curvature="0" />
	<path style="fill:none;stroke:red;stroke-width:1px;stroke-linecap:butt;stroke-linejoin:miter;stroke-opacity:1" d="M 215.125,18.4606 229.586,22.7988 z" id="boundary" inkscape:connector-curvature="0" />
	<path style="fill:none;stroke:red;stroke-width:1px;stroke-linecap:butt;stroke-linejoin:miter;stroke-opacity:1" d="M 215.125,554.95 228.14,547.72 z" id="boundary" inkscape:connector-curvature="0" />
	<path style="fill:none;stroke:red;stroke-width:1px;stroke-linecap:butt;stroke-linejoin:miter;stroke-opacity:1" d="M 222.356,403.114 235.37,410.344 z" id="boundary" inkscape:connector-curvature="0" />
	<path style="fill:none;stroke:red;stroke-width:1px;stroke-linecap:butt;stroke-linejoin:miter;stroke-opacity:1" d="M 222.356,524.583 236.816,524.583 z" id="boundary" inkscape:connector-curvature="0" />
	<path style="fill:none;stroke:red;stroke-width:1px;stroke-linecap:butt;stroke-linejoin:miter;stroke-opacity:1" d="M 228.14,547.72 242.601,547.72 z" id="boundary" inkscape:connector-curvature="0" />
	<path style="fill:none;stroke:red;stroke-width:1px;stroke-linecap:butt;stroke-linejoin:miter;stroke-opacity:1" d="M 229.586,22.7988 242.601,30.0292 z" id="boundary" inkscape:connector-curvature="0" />
	<path style="fill:none;stroke:red;stroke-width:1px;stroke-linecap:butt;stroke-linejoin:miter;stroke-opacity:1" d="M 235.37,410.344 248.385,417.574 z" id="boundary" inkscape:connector-curvature="0" />
	<path style="fill:none;stroke:red;stroke-width:1px;stroke-linecap:butt;stroke-linejoin:miter;stroke-opacity:1" d="M 236.816,524.583 249.831,517.353 z" id="boundary" inkscape:connector-curvature="0" />
	<path style="fill:none;stroke:red;stroke-width:1px;stroke-linecap:butt;stroke-linejoin:miter;stroke-opacity:1" d="M 242.601,30.0292 254.169,40.1516 z" id="boundary" inkscape:connector-curvature="0" />
	<path style="fill:none;stroke:red;stroke-width:1px;stroke-linecap:butt;stroke-linejoin:miter;stroke-opacity:1" d="M 242.601,547.72 257.061,547.72 z" id="boundary" inkscape:connector-curvature="0" />
	<path style="fill:none;stroke:red;stroke-width:1px;stroke-linecap:butt;stroke-linejoin:miter;stroke-opacity:1" d="M 248.385,417.574 258.507,429.143 z" id="boundary" inkscape:connector-curvature="0" />
	<path style="fill:none;stroke:red;stroke-width:1px;stroke-linecap:butt;stroke-linejoin:miter;stroke-opacity:1" d="M 249.831,517.353 264.292,514.461 z" id="boundary" inkscape:connector-curvature="0" />
	<path style="fill:none;stroke:red;stroke-width:1px;stroke-linecap:butt;stroke-linejoin:miter;stroke-opacity:1" d="M 254.169,40.1516 267.184,47.3819 z" id="boundary" inkscape:connector-curvature="0" />
	<path style="fill:none;stroke:red;stroke-width:1px;stroke-linecap:butt;stroke-linejoin:miter;stroke-opacity:1" d="M 257.061,547.72 271.522,543.382 z" id="boundary" inkscape:connector-curvature="0" />
	<path style="fill:none;stroke:red;stroke-width:1px;stroke-linecap:butt;stroke-linejoin:miter;stroke-opacity:1" d="M 258.507,429.143 272.968,434.927 z" id="boundary" inkscape:connector-curvature="0" />
	<path style="fill:none;stroke:red;stroke-width:1px;stroke-linecap:butt;stroke-linejoin:miter;stroke-opacity:1" d="M 264.292,514.461 278.752,510.122 z" id="boundary" inkscape:connector-curvature="0" />
	<path style="fill:none;stroke:red;stroke-width:1px;stroke-linecap:butt;stroke-linejoin:miter;stroke-opacity:1" d="M 267.184,47.3819 280.198,54.6122 z" id="boundary" inkscape:connector-curvature="0" />
	<path style="fill:none;stroke:red;stroke-width:1px;stroke-linecap:butt;stroke-linejoin:miter;stroke-opacity:1" d="M 271.522,543.382 285.983,540.49 z" id="boundary" inkscape:connector-curvature="0" />
	<path style="fill:none;stroke:red;stroke-width:1px;stroke-linecap:butt;stroke-linejoin:miter;stroke-opacity:1" d="M 272.968,434.927 285.983,442.157 z" id="boundary" inkscape:connector-curvature="0" />
	<path style="fill:none;stroke:red;stroke-width:1px;stroke-linecap:butt;stroke-linejoin:miter;stroke-opacity:1" d="M 278.752,510.122 293.213,510.122 z" id="boundary" inkscape:connector-curvature="0" />
	<path style="fill:none;stroke:red;stroke-width:1px;stroke-linecap:butt;stroke-linejoin:miter;stroke-opacity:1" d="M 280.198,54.6122 291.767,63.2886 z" id="boundary" inkscape:connector-curvature="0" />
	<path style="fill:none;stroke:red;stroke-width:1px;stroke-linecap:butt;stroke-linejoin:miter;stroke-opacity:1" d="M 285.983,442.157 300.443,446.496 z" id="boundary" inkscape:connector-curvature="0" />
	<path style="fill:none;stroke:red;stroke-width:1px;stroke-linecap:butt;stroke-linejoin:miter;stroke-opacity:1" d="M 285.983,540.49 298.997,533.259 z" id="boundary" inkscape:connector-curvature="0" />
	<path style="fill:none;stroke:red;stroke-width:1px;stroke-linecap:butt;stroke-linejoin:miter;stroke-opacity:1" d="M 291.767,63.2886 301.889,74.8571 z" id="boundary" inkscape:connector-curvature="0" />
	<path style="fill:none;stroke:red;stroke-width:1px;stroke-linecap:butt;stroke-linejoin:miter;stroke-opacity:1" d="M 293.213,510.122 307.673,510.122 z" id="boundary" inkscape:connector-curvature="0" />
	<path style="fill:none;stroke:red;stroke-width:1px;stroke-linecap:butt;stroke-linejoin:miter;stroke-opacity:1" d="M 298.997,533.259 313.458,533.259 z" id="boundary" inkscape:connector-curvature="0" />
	<path style="fill:none;stroke:red;stroke-width:1px;stroke-linecap:butt;stroke-linejoin:miter;stroke-opacity:1" d="M 300.443,446.496 313.458,453.726 z" id="boundary" inkscape:connector-curvature="0" />
	<path style="fill:none;stroke:red;stroke-width:1px;stroke-linecap:butt;stroke-linejoin:miter;stroke-opacity:1" d="M 301.889,74.8571 316.35,80.6414 z" id="boundary" inkscape:connector-curvature="0" />
	<path style="fill:none;stroke:red;stroke-width:1px;stroke-linecap:butt;stroke-linejoin:miter;stroke-opacity:1" d="M 307.673,510.122 320.688,502.892 z" id="boundary" inkscape:connector-curvature="0" />
	<path style="fill:none;stroke:red;stroke-width:1px;stroke-linecap:butt;stroke-linejoin:miter;stroke-opacity:1" d="M 313.458,453.726 327.918,453.726 z" id="boundary" inkscape:connector-curvature="0" />
	<path style="fill:none;stroke:red;stroke-width:1px;stroke-linecap:butt;stroke-linejoin:miter;stroke-opacity:1" d="M 313.458,533.259 326.472,526.029 z" id="boundary" inkscape:connector-curvature="0" />
	<path style="fill:none;stroke:red;stroke-width:1px;stroke-linecap:butt;stroke-linejoin:miter;stroke-opacity:1" d="M 316.35,80.6414 326.472,92.2099 z" id="boundary" inkscape:connector-curvature="0" />
	<path style="fill:none;stroke:red;stroke-width:1px;stroke-linecap:butt;stroke-linejoin:miter;stroke-opacity:1" d="M 320.688,502.892 335.149,502.892 z" id="boundary" inkscape:connector-curvature="0" />
	<path style="fill:none;stroke:red;stroke-width:1px;stroke-linecap:butt;stroke-linejoin:miter;stroke-opacity:1" d="M 326.472,92.2099 338.041,102.332 z" id="boundary" inkscape:connector-curvature="0" />
	<path style="fill:none;stroke:red;stroke-width:1px;stroke-linecap:butt;stroke-linejoin:miter;stroke-opacity:1" d="M 326.472,526.029 340.933,526.029 z" id="boundary" inkscape:connector-curvature="0" />
	<path style="fill:none;stroke:red;stroke-width:1px;stroke-linecap:butt;stroke-linejoin:miter;stroke-opacity:1" d="M 327.918,453.726 342.379,453.726 z" id="boundary" inkscape:connector-curvature="0" />
	<path style="fill:none;stroke:red;stroke-width:1px;stroke-linecap:butt;stroke-linejoin:miter;stroke-opacity:1" d="M 335.149,502.892 349.609,502.892 z" id="boundary" inkscape:connector-curvature="0" />
	<path style="fill:none;stroke:red;stroke-width:1px;stroke-linecap:butt;stroke-linejoin:miter;stroke-opacity:1" d="M 338.041,102.332 348.163,113.901 z" id="boundary" inkscape:connector-curvature="0" />
	<path style="fill:none;stroke:red;stroke-width:1px;stroke-linecap:butt;stroke-linejoin:miter;stroke-opacity:1" d="M 340.933,526.029 355.394,526.029 z" id="boundary" inkscape:connector-curvature="0" />
	<path style="fill:none;stroke:red;stroke-width:1px;stroke-linecap:butt;stroke-linejoin:miter;stroke-opacity:1" d="M 342.379,453.726 355.394,460.956 z" id="boundary" inkscape:connector-curvature="0" />
	<path style="fill:none;stroke:red;stroke-width:1px;stroke-linecap:butt;stroke-linejoin:miter;stroke-opacity:1" d="M 348.163,113.901 362.624,119.685 z" id="boundary" inkscape:connector-curvature="0" />
	<path style="fill:none;stroke:red;stroke-width:1px;stroke-linecap:butt;stroke-linejoin:miter;stroke-opacity:1" d="M 349.609,502.892 364.07,502.892 z" id="boundary" inkscape:connector-curvature="0" />
	<path style="fill:none;stroke:red;stroke-width:1px;stroke-linecap:butt;stroke-linejoin:miter;stroke-opacity:1" d="M 355.394,460.956 369.854,460.956 z" id="boundary" inkscape:connector-curvature="0" />
	<path style="fill:none;stroke:red;stroke-width:1px;stroke-linecap:butt;stroke-linejoin:miter;stroke-opacity:1" d="M 355.394,526.029 369.854,526.029 z" id="boundary" inkscape:connector-curvature="0" />
	<path style="fill:none;stroke:red;stroke-width:1px;stroke-linecap:butt;stroke-linejoin:miter;stroke-opacity:1" d="M 362.624,119.685 372.746,131.254 z" id="boundary" inkscape:connector-curvature="0" />
	<path style="fill:none;stroke:red;stroke-width:1px;stroke-linecap:butt;stroke-linejoin:miter;stroke-opacity:1" d="M 364.07,502.892 377.085,495.662 z" id="boundary" inkscape:connector-curvature="0" />
	<path style="fill:none;stroke:red;stroke-width:1px;stroke-linecap:butt;stroke-linejoin:miter;stroke-opacity:1" d="M 369.854,460.956 382.869,468.187 z" id="boundary" inkscape:connector-curvature="0" />
	<path style="fill:none;stroke:red;stroke-width:1px;stroke-linecap:butt;stroke-linejoin:miter;stroke-opacity:1" d="M 369.854,526.029 384.315,524.583 z" id="boundary" inkscape:connector-curvature="0" />
	<path style="fill:none;stroke:red;stroke-width:1px;stroke-linecap:butt;stroke-linejoin:miter;stroke-opacity:1" d="M 372.746,131.254 387.207,134.146 z" id="boundary" inkscape:connector-curvature="0" />
	<path style="fill:none;stroke:red;stroke-width:1px;stroke-linecap:butt;stroke-linejoin:miter;stroke-opacity:1" d="M 377.085,495.662 391.545,488.431 z" id="boundary" inkscape:connector-curvature="0" />
	<path style="fill:none;stroke:red;stroke-width:1px;stroke-linecap:butt;stroke-linejoin:miter;stroke-opacity:1" d="M 382.869,468.187 391.545,488.431 z" id="boundary" inkscape:connector-curvature="0" />
	<path style="fill:none;stroke:red;stroke-width:1px;stroke-linecap:butt;stroke-linejoin:miter;stroke-opacity:1" d="M 384.315,524.583 398.776,518.799 z" id="boundary" inkscape:connector-curvature="0" />
	<path style="fill:none;stroke:red;stroke-width:1px;stroke-linecap:butt;stroke-linejoin:miter;stroke-opacity:1" d="M 387.207,134.146 400.222,141.376 z" id="boundary" inkscape:connector-curvature="0" />
	<path style="fill:none;stroke:red;stroke-width:1px;stroke-linecap:butt;stroke-linejoin:miter;stroke-opacity:1" d="M 398.776,518.799 410.344,504.338 z" id="boundary" inkscape:connector-curvature="0" />
	<path style="fill:none;stroke:red;stroke-width:1px;stroke-linecap:butt;stroke-linejoin:miter;stroke-opacity:1" d="M 400.222,141.376 414.682,142.822 z" id="boundary" inkscape:connector-curvature="0" />
	<path style="fill:none;stroke:red;stroke-width:1px;stroke-linecap:butt;stroke-linejoin:miter;stroke-opacity:1" d="M 410.344,504.338 424.805,497.108 z" id="boundary" inkscape:connector-curvature="0" />
	<path style="fill:none;stroke:red;stroke-width:1px;stroke-linecap:butt;stroke-linejoin:miter;stroke-opacity:1" d="M 414.682,142.822 429.143,148.606 z" id="boundary" inkscape:connector-curvature="0" />
	<path style="fill:none;stroke:red;stroke-width:1px;stroke-linecap:butt;stroke-linejoin:miter;stroke-opacity:1" d="M 416.128,666.297 416.128,680.758 z" id="boundary" inkscape:connector-curvature="0" />
	<path style="fill:none;stroke:red;stroke-width:1px;stroke-linecap:butt;stroke-linejoin:miter;stroke-opacity:1" d="M 416.128,666.297 427.697,654.729 z" id="boundary" inkscape:connector-curvature="0" />
	<path style="fill:none;stroke:red;stroke-width:1px;stroke-linecap:butt;stroke-linejoin:miter;stroke-opacity:1" d="M 416.128,680.758 416.128,695.219 z" id="boundary" inkscape:connector-curvature="0" />
	<path style="fill:none;stroke:red;stroke-width:1px;stroke-linecap:butt;stroke-linejoin:miter;stroke-opacity:1" d="M 416.128,695.219 416.128,709.679 z" id="boundary" inkscape:connector-curvature="0" />
	<path style="fill:none;stroke:red;stroke-width:1px;stroke-linecap:butt;stroke-linejoin:miter;stroke-opacity:1" d="M 416.128,709.679 427.697,719.802 z" id="boundary" inkscape:connector-curvature="0" />
	<path style="fill:none;stroke:red;stroke-width:1px;stroke-linecap:butt;stroke-linejoin:miter;stroke-opacity:1" d="M 424.805,497.108 432.035,475.417 z" id="boundary" inkscape:connector-curvature="0" />
	<path style="fill:none;stroke:red;stroke-width:1px;stroke-linecap:butt;stroke-linejoin:miter;stroke-opacity:1" d="M 427.697,654.729 434.927,640.268 z" id="boundary" inkscape:connector-curvature="0" />
	<path style="fill:none;stroke:red;stroke-width:1px;stroke-linecap:butt;stroke-linejoin:miter;stroke-opacity:1" d="M 427.697,719.802 437.819,731.37 z" id="boundary" inkscape:connector-curvature="0" />
	<path style="fill:none;stroke:red;stroke-width:1px;stroke-linecap:butt;stroke-linejoin:miter;stroke-opacity:1" d="M 429.143,148.606 442.157,155.837 z" id="boundary" inkscape:connector-curvature="0" />
	<path style="fill:none;stroke:red;stroke-width:1px;stroke-linecap:butt;stroke-linejoin:miter;stroke-opacity:1" d="M 432.035,475.417 439.265,453.726 z" id="boundary" inkscape:connector-curvature="0" />
	<path style="fill:none;stroke:red;stroke-width:1px;stroke-linecap:butt;stroke-linejoin:miter;stroke-opacity:1" d="M 434.927,640.268 445.05,622.915 z" id="boundary" inkscape:connector-curvature="0" />
	<path style="fill:none;stroke:red;stroke-width:1px;stroke-linecap:butt;stroke-linejoin:miter;stroke-opacity:1" d="M 437.819,731.37 449.388,741.493 z" id="boundary" inkscape:connector-curvature="0" />
	<path style="fill:none;stroke:red;stroke-width:1px;stroke-linecap:butt;stroke-linejoin:miter;stroke-opacity:1" d="M 439.265,453.726 453.726,453.726 z" id="boundary" inkscape:connector-curvature="0" />
	<path style="fill:none;stroke:red;stroke-width:1px;stroke-linecap:butt;stroke-linejoin:miter;stroke-opacity:1" d="M 442.157,155.837 455.172,163.067 z" id="boundary" inkscape:connector-curvature="0" />
	<path style="fill:none;stroke:red;stroke-width:1px;stroke-linecap:butt;stroke-linejoin:miter;stroke-opacity:1" d="M 445.05,622.915 452.28,601.224 z" id="boundary" inkscape:connector-curvature="0" />
	<path style="fill:none;stroke:red;stroke-width:1px;stroke-linecap:butt;stroke-linejoin:miter;stroke-opacity:1" d="M 449.388,741.493 463.848,741.493 z" id="boundary" inkscape:connector-curvature="0" />
	<path style="fill:none;stroke:red;stroke-width:1px;stroke-linecap:butt;stroke-linejoin:miter;stroke-opacity:1" d="M 452.28,601.224 459.51,586.764 z" id="boundary" inkscape:connector-curvature="0" />
	<path style="fill:none;stroke:red;stroke-width:1px;stroke-linecap:butt;stroke-linejoin:miter;stroke-opacity:1" d="M 453.726,453.726 468.187,456.618 z" id="boundary" inkscape:connector-curvature="0" />
	<path style="fill:none;stroke:red;stroke-width:1px;stroke-linecap:butt;stroke-linejoin:miter;stroke-opacity:1" d="M 455.172,163.067 466.741,173.19 z" id="boundary" inkscape:connector-curvature="0" />
	<path style="fill:none;stroke:red;stroke-width:1px;stroke-linecap:butt;stroke-linejoin:miter;stroke-opacity:1" d="M 459.51,586.764 466.741,572.303 z" id="boundary" inkscape:connector-curvature="0" />
	<path style="fill:none;stroke:red;stroke-width:1px;stroke-linecap:butt;stroke-linejoin:miter;stroke-opacity:1" d="M 463.848,741.493 475.417,728.478 z" id="boundary" inkscape:connector-curvature="0" />
	<path style="fill:none;stroke:red;stroke-width:1px;stroke-linecap:butt;stroke-linejoin:miter;stroke-opacity:1" d="M 466.741,173.19 479.755,180.42 z" id="boundary" inkscape:connector-curvature="0" />
	<path style="fill:none;stroke:red;stroke-width:1px;stroke-linecap:butt;stroke-linejoin:miter;stroke-opacity:1" d="M 466.741,557.843 466.741,572.303 z" id="boundary" inkscape:connector-curvature="0" />
	<path style="fill:none;stroke:red;stroke-width:1px;stroke-linecap:butt;stroke-linejoin:miter;stroke-opacity:1" d="M 466.741,557.843 473.971,543.382 z" id="boundary" inkscape:connector-curvature="0" />
	<path style="fill:none;stroke:red;stroke-width:1px;stroke-linecap:butt;stroke-linejoin:miter;stroke-opacity:1" d="M 468.187,456.618 478.309,468.187 z" id="boundary" inkscape:connector-curvature="0" />
	<path style="fill:none;stroke:red;stroke-width:1px;stroke-linecap:butt;stroke-linejoin:miter;stroke-opacity:1" d="M 468.187,627.254 468.187,641.714 z" id="boundary" inkscape:connector-curvature="0" />
	<path style="fill:none;stroke:red;stroke-width:1px;stroke-linecap:butt;stroke-linejoin:miter;stroke-opacity:1" d="M 468.187,627.254 475.417,612.793 z" id="boundary" inkscape:connector-curvature="0" />
	<path style="fill:none;stroke:red;stroke-width:1px;stroke-linecap:butt;stroke-linejoin:miter;stroke-opacity:1" d="M 468.187,641.714 468.187,656.175 z" id="boundary" inkscape:connector-curvature="0" />
	<path style="fill:none;stroke:red;stroke-width:1px;stroke-linecap:butt;stroke-linejoin:miter;stroke-opacity:1" d="M 468.187,656.175 471.079,670.636 z" id="boundary" inkscape:connector-curvature="0" />
	<path style="fill:none;stroke:red;stroke-width:1px;stroke-linecap:butt;stroke-linejoin:miter;stroke-opacity:1" d="M 471.079,670.636 475.417,685.096 z" id="boundary" inkscape:connector-curvature="0" />
	<path style="fill:none;stroke:red;stroke-width:1px;stroke-linecap:butt;stroke-linejoin:miter;stroke-opacity:1" d="M 473.971,543.382 481.201,528.921 z" id="boundary" inkscape:connector-curvature="0" />
	<path style="fill:none;stroke:red;stroke-width:1px;stroke-linecap:butt;stroke-linejoin:miter;stroke-opacity:1" d="M 475.417,612.793 482.647,591.102 z" id="boundary" inkscape:connector-curvature="0" />
	<path style="fill:none;stroke:red;stroke-width:1px;stroke-linecap:butt;stroke-linejoin:miter;stroke-opacity:1" d="M 475.417,685.096 475.417,699.557 z" id="boundary" inkscape:connector-curvature="0" />
	<path style="fill:none;stroke:red;stroke-width:1px;stroke-linecap:butt;stroke-linejoin:miter;stroke-opacity:1" d="M 475.417,699.557 475.417,714.017 z" id="boundary" inkscape:connector-curvature="0" />
	<path style="fill:none;stroke:red;stroke-width:1px;stroke-linecap:butt;stroke-linejoin:miter;stroke-opacity:1" d="M 475.417,714.017 475.417,728.478 z" id="boundary" inkscape:connector-curvature="0" />
	<path style="fill:none;stroke:red;stroke-width:1px;stroke-linecap:butt;stroke-linejoin:miter;stroke-opacity:1" d="M 478.309,468.187 492.77,473.971 z" id="boundary" inkscape:connector-curvature="0" />
	<path style="fill:none;stroke:red;stroke-width:1px;stroke-linecap:butt;stroke-linejoin:miter;stroke-opacity:1" d="M 479.755,180.42 494.216,186.204 z" id="boundary" inkscape:connector-curvature="0" />
	<path style="fill:none;stroke:red;stroke-width:1px;stroke-linecap:butt;stroke-linejoin:miter;stroke-opacity:1" d="M 481.201,528.921 488.431,514.461 z" id="boundary" inkscape:connector-curvature="0" />
	<path style="fill:none;stroke:red;stroke-width:1px;stroke-linecap:butt;stroke-linejoin:miter;stroke-opacity:1" d="M 482.647,591.102 489.878,569.411 z" id="boundary" inkscape:connector-curvature="0" />
	<path style="fill:none;stroke:red;stroke-width:1px;stroke-linecap:butt;stroke-linejoin:miter;stroke-opacity:1" d="M 488.431,500 488.431,514.461 z" id="boundary" inkscape:connector-curvature="0" />
	<path style="fill:none;stroke:red;stroke-width:1px;stroke-linecap:butt;stroke-linejoin:miter;stroke-opacity:1" d="M 488.431,500 492.77,473.971 z" id="boundary" inkscape:connector-curvature="0" />
	<path style="fill:none;stroke:red;stroke-width:1px;stroke-linecap:butt;stroke-linejoin:miter;stroke-opacity:1" d="M 489.878,569.411 497.108,547.72 z" id="boundary" inkscape:connector-curvature="0" />
	<path style="fill:none;stroke:red;stroke-width:1px;stroke-linecap:butt;stroke-linejoin:miter;stroke-opacity:1" d="M 494.216,186.204 507.23,193.434 z" id="boundary" inkscape:connector-curvature="0" />
	<path style="fill:none;stroke:red;stroke-width:1px;stroke-linecap:butt;stroke-linejoin:miter;stroke-opacity:1" d="M 497.108,547.72 508.676,537.598 z" id="boundary" inkscape:connector-curvature="0" />
	<path style="fill:none;stroke:red;stroke-width:1px;stroke-linecap:butt;stroke-linejoin:miter;stroke-opacity:1" d="M 507.23,193.434 518.799,203.557 z" id="boundary" inkscape:connector-curvature="0" />
	<path style="fill:none;stroke:red;stroke-width:1px;stroke-linecap:butt;stroke-linejoin:miter;stroke-opacity:1" d="M 508.676,537.598 515.907,523.137 z" id="boundary" inkscape:connector-curvature="0" />
	<path style="fill:none;stroke:red;stroke-width:1px;stroke-linecap:butt;stroke-linejoin:miter;stroke-opacity:1" d="M 515.907,523.137 518.799,504.338 z" id="boundary" inkscape:connector-curvature="0" />
	<path style="fill:none;stroke:red;stroke-width:1px;stroke-linecap:butt;stroke-linejoin:miter;stroke-opacity:1" d="M 518.799,203.557 531.813,210.787 z" id="boundary" inkscape:connector-curvature="0" />
	<path style="fill:none;stroke:red;stroke-width:1px;stroke-linecap:butt;stroke-linejoin:miter;stroke-opacity:1" d="M 518.799,504.338 530.367,494.216 z" id="boundary" inkscape:connector-curvature="0" />
	<path style="fill:none;stroke:red;stroke-width:1px;stroke-linecap:butt;stroke-linejoin:miter;stroke-opacity:1" d="M 530.367,494.216 533.259,475.417 z" id="boundary" inkscape:connector-curvature="0" />
	<path style="fill:none;stroke:red;stroke-width:1px;stroke-linecap:butt;stroke-linejoin:miter;stroke-opacity:1" d="M 531.813,210.787 543.382,220.91 z" id="boundary" inkscape:connector-curvature="0" />
	<path style="fill:none;stroke:red;stroke-width:1px;stroke-linecap:butt;stroke-linejoin:miter;stroke-opacity:1" d="M 533.259,475.417 547.72,475.417 z" id="boundary" inkscape:connector-curvature="0" />
	<path style="fill:none;stroke:red;stroke-width:1px;stroke-linecap:butt;stroke-linejoin:miter;stroke-opacity:1" d="M 543.382,220.91 556.397,228.14 z" id="boundary" inkscape:connector-curvature="0" />
	<path style="fill:none;stroke:red;stroke-width:1px;stroke-linecap:butt;stroke-linejoin:miter;stroke-opacity:1" d="M 547.72,475.417 562.181,478.309 z" id="boundary" inkscape:connector-curvature="0" />
	<path style="fill:none;stroke:red;stroke-width:1px;stroke-linecap:butt;stroke-linejoin:miter;stroke-opacity:1" d="M 556.397,228.14 570.857,228.14 z" id="boundary" inkscape:connector-curvature="0" />
	<path style="fill:none;stroke:red;stroke-width:1px;stroke-linecap:butt;stroke-linejoin:miter;stroke-opacity:1" d="M 562.181,478.309 576.641,482.647 z" id="boundary" inkscape:connector-curvature="0" />
	<path style="fill:none;stroke:red;stroke-width:1px;stroke-linecap:butt;stroke-linejoin:miter;stroke-opacity:1" d="M 570.857,228.14 583.872,235.37 z" id="boundary" inkscape:connector-curvature="0" />
	<path style="fill:none;stroke:red;stroke-width:1px;stroke-linecap:butt;stroke-linejoin:miter;stroke-opacity:1" d="M 576.641,482.647 591.102,482.647 z" id="boundary" inkscape:connector-curvature="0" />
	<path style="fill:none;stroke:red;stroke-width:1px;stroke-linecap:butt;stroke-linejoin:miter;stroke-opacity:1" d="M 583.872,235.37 598.332,235.37 z" id="boundary" inkscape:connector-curvature="0" />
	<path style="fill:none;stroke:red;stroke-width:1px;stroke-linecap:butt;stroke-linejoin:miter;stroke-opacity:1" d="M 591.102,482.647 605.563,485.539 z" id="boundary" inkscape:connector-curvature="0" />
	<path style="fill:none;stroke:red;stroke-width:1px;stroke-linecap:butt;stroke-linejoin:miter;stroke-opacity:1" d="M 598.332,235.37 611.347,242.601 z" id="boundary" inkscape:connector-curvature="0" />
	<path style="fill:none;stroke:red;stroke-width:1px;stroke-linecap:butt;stroke-linejoin:miter;stroke-opacity:1" d="M 605.563,485.539 620.023,489.878 z" id="boundary" inkscape:connector-curvature="0" />
	<path style="fill:none;stroke:red;stroke-width:1px;stroke-linecap:butt;stroke-linejoin:miter;stroke-opacity:1" d="M 611.347,242.601 625.808,242.601 z" id="boundary" inkscape:connector-curvature="0" />
	<path style="fill:none;stroke:red;stroke-width:1px;stroke-linecap:butt;stroke-linejoin:miter;stroke-opacity:1" d="M 620.023,395.883 622.915,410.344 z" id="boundary" inkscape:connector-curvature="0" />
	<path style="fill:none;stroke:red;stroke-width:1px;stroke-linecap:butt;stroke-linejoin:miter;stroke-opacity:1" d="M 620.023,395.883 633.038,388.653 z" id="boundary" inkscape:connector-curvature="0" />
	<path style="fill:none;stroke:red;stroke-width:1px;stroke-linecap:butt;stroke-linejoin:miter;stroke-opacity:1" d="M 620.023,489.878 634.484,492.77 z" id="boundary" inkscape:connector-curvature="0" />
	<path style="fill:none;stroke:red;stroke-width:1px;stroke-linecap:butt;stroke-linejoin:miter;stroke-opacity:1" d="M 622.915,410.344 634.484,420.466 z" id="boundary" inkscape:connector-curvature="0" />
	<path style="fill:none;stroke:red;stroke-width:1px;stroke-linecap:butt;stroke-linejoin:miter;stroke-opacity:1" d="M 625.808,242.601 640.268,245.493 z" id="boundary" inkscape:connector-curvature="0" />
	<path style="fill:none;stroke:red;stroke-width:1px;stroke-linecap:butt;stroke-linejoin:miter;stroke-opacity:1" d="M 633.038,388.653 646.052,381.423 z" id="boundary" inkscape:connector-curvature="0" />
	<path style="fill:none;stroke:red;stroke-width:1px;stroke-linecap:butt;stroke-linejoin:miter;stroke-opacity:1" d="M 634.484,420.466 644.606,432.035 z" id="boundary" inkscape:connector-curvature="0" />
	<path style="fill:none;stroke:red;stroke-width:1px;stroke-linecap:butt;stroke-linejoin:miter;stroke-opacity:1" d="M 634.484,492.77 648.945,497.108 z" id="boundary" inkscape:connector-curvature="0" />
	<path style="fill:none;stroke:red;stroke-width:1px;stroke-linecap:butt;stroke-linejoin:miter;stroke-opacity:1" d="M 640.268,245.493 654.729,249.831 z" id="boundary" inkscape:connector-curvature="0" />
	<path style="fill:none;stroke:red;stroke-width:1px;stroke-linecap:butt;stroke-linejoin:miter;stroke-opacity:1" d="M 644.606,432.035 656.175,442.157 z" id="boundary" inkscape:connector-curvature="0" />
	<path style="fill:none;stroke:red;stroke-width:1px;stroke-linecap:butt;stroke-linejoin:miter;stroke-opacity:1" d="M 646.052,381.423 660.513,381.423 z" id="boundary" inkscape:connector-curvature="0" />
	<path style="fill:none;stroke:red;stroke-width:1px;stroke-linecap:butt;stroke-linejoin:miter;stroke-opacity:1" d="M 648.945,497.108 661.959,504.338 z" id="boundary" inkscape:connector-curvature="0" />
	<path style="fill:none;stroke:red;stroke-width:1px;stroke-linecap:butt;stroke-linejoin:miter;stroke-opacity:1" d="M 654.729,249.831 667.743,257.061 z" id="boundary" inkscape:connector-curvature="0" />
	<path style="fill:none;stroke:red;stroke-width:1px;stroke-linecap:butt;stroke-linejoin:miter;stroke-opacity:1" d="M 656.175,442.157 666.297,453.726 z" id="boundary" inkscape:connector-curvature="0" />
	<path style="fill:none;stroke:red;stroke-width:1px;stroke-linecap:butt;stroke-linejoin:miter;stroke-opacity:1" d="M 660.513,381.423 674.974,378.531 z" id="boundary" inkscape:connector-curvature="0" />
	<path style="fill:none;stroke:red;stroke-width:1px;stroke-linecap:butt;stroke-linejoin:miter;stroke-opacity:1" d="M 661.959,504.338 676.42,504.338 z" id="boundary" inkscape:connector-curvature="0" />
	<path style="fill:none;stroke:red;stroke-width:1px;stroke-linecap:butt;stroke-linejoin:miter;stroke-opacity:1" d="M 666.297,453.726 677.866,463.848 z" id="boundary" inkscape:connector-curvature="0" />
	<path style="fill:none;stroke:red;stroke-width:1px;stroke-linecap:butt;stroke-linejoin:miter;stroke-opacity:1" d="M 667.743,257.061 682.204,258.507 z" id="boundary" inkscape:connector-curvature="0" />
	<path style="fill:none;stroke:red;stroke-width:1px;stroke-linecap:butt;stroke-linejoin:miter;stroke-opacity:1" d="M 674.974,378.531 689.434,374.192 z" id="boundary" inkscape:connector-curvature="0" />
	<path style="fill:none;stroke:red;stroke-width:1px;stroke-linecap:butt;stroke-linejoin:miter;stroke-opacity:1" d="M 676.42,504.338 689.434,511.569 z" id="boundary" inkscape:connector-curvature="0" />
	<path style="fill:none;stroke:red;stroke-width:1px;stroke-linecap:butt;stroke-linejoin:miter;stroke-opacity:1" d="M 677.866,463.848 687.988,475.417 z" id="boundary" inkscape:connector-curvature="0" />
	<path style="fill:none;stroke:red;stroke-width:1px;stroke-linecap:butt;stroke-linejoin:miter;stroke-opacity:1" d="M 682.204,258.507 696.665,264.292 z" id="boundary" inkscape:connector-curvature="0" />
	<path style="fill:none;stroke:red;stroke-width:1px;stroke-linecap:butt;stroke-linejoin:miter;stroke-opacity:1" d="M 687.988,475.417 699.557,485.539 z" id="boundary" inkscape:connector-curvature="0" />
	<path style="fill:none;stroke:red;stroke-width:1px;stroke-linecap:butt;stroke-linejoin:miter;stroke-opacity:1" d="M 689.434,374.192 702.449,366.962 z" id="boundary" inkscape:connector-curvature="0" />
	<path style="fill:none;stroke:red;stroke-width:1px;stroke-linecap:butt;stroke-linejoin:miter;stroke-opacity:1" d="M 689.434,511.569 702.449,518.799 z" id="boundary" inkscape:connector-curvature="0" />
	<path style="fill:none;stroke:red;stroke-width:1px;stroke-linecap:butt;stroke-linejoin:miter;stroke-opacity:1" d="M 696.665,264.292 711.125,265.738 z" id="boundary" inkscape:connector-curvature="0" />
	<path style="fill:none;stroke:red;stroke-width:1px;stroke-linecap:butt;stroke-linejoin:miter;stroke-opacity:1" d="M 699.557,485.539 709.679,497.108 z" id="boundary" inkscape:connector-curvature="0" />
	<path style="fill:none;stroke:red;stroke-width:1px;stroke-linecap:butt;stroke-linejoin:miter;stroke-opacity:1" d="M 702.449,366.962 715.464,359.732 z" id="boundary" inkscape:connector-curvature="0" />
	<path style="fill:none;stroke:red;stroke-width:1px;stroke-linecap:butt;stroke-linejoin:miter;stroke-opacity:1" d="M 702.449,518.799 709.679,497.108 z" id="boundary" inkscape:connector-curvature="0" />
	<path style="fill:none;stroke:red;stroke-width:1px;stroke-linecap:butt;stroke-linejoin:miter;stroke-opacity:1" d="M 711.125,265.738 724.14,272.968 z" id="boundary" inkscape:connector-curvature="0" />
	<path style="fill:none;stroke:red;stroke-width:1px;stroke-linecap:butt;stroke-linejoin:miter;stroke-opacity:1" d="M 715.464,359.732 729.924,359.732 z" id="boundary" inkscape:connector-curvature="0" />
	<path style="fill:none;stroke:red;stroke-width:1px;stroke-linecap:butt;stroke-linejoin:miter;stroke-opacity:1" d="M 724.14,272.968 738.601,278.752 z" id="boundary" inkscape:connector-curvature="0" />
	<path style="fill:none;stroke:red;stroke-width:1px;stroke-linecap:butt;stroke-linejoin:miter;stroke-opacity:1" d="M 729.924,359.732 742.939,352.501 z" id="boundary" inkscape:connector-curvature="0" />
	<path style="fill:none;stroke:red;stroke-width:1px;stroke-linecap:butt;stroke-linejoin:miter;stroke-opacity:1" d="M 738.601,278.752 751.615,285.983 z" id="boundary" inkscape:connector-curvature="0" />
	<path style="fill:none;stroke:red;stroke-width:1px;stroke-linecap:butt;stroke-linejoin:miter;stroke-opacity:1" d="M 742.939,352.501 755.953,359.732 z" id="boundary" inkscape:connector-curvature="0" />
	<path style="fill:none;stroke:red;stroke-width:1px;stroke-linecap:butt;stroke-linejoin:miter;stroke-opacity:1" d="M 751.615,285.983 766.076,280.198 z" id="boundary" inkscape:connector-curvature="0" />
	<path style="fill:none;stroke:red;stroke-width:1px;stroke-linecap:butt;stroke-linejoin:miter;stroke-opacity:1" d="M 755.953,359.732 770.414,359.732 z" id="boundary" inkscape:connector-curvature="0" />
	<path style="fill:none;stroke:red;stroke-width:1px;stroke-linecap:butt;stroke-linejoin:miter;stroke-opacity:1" d="M 766.076,280.198 780.536,285.983 z" id="boundary" inkscape:connector-curvature="0" />
	<path style="fill:none;stroke:red;stroke-width:1px;stroke-linecap:butt;stroke-linejoin:miter;stroke-opacity:1" d="M 770.414,359.732 784.875,359.732 z" id="boundary" inkscape:connector-curvature="0" />
	<path style="fill:none;stroke:red;stroke-width:1px;stroke-linecap:butt;stroke-linejoin:miter;stroke-opacity:1" d="M 780.536,285.983 794.997,285.983 z" id="boundary" inkscape:connector-curvature="0" />
	<path style="fill:none;stroke:red;stroke-width:1px;stroke-linecap:butt;stroke-linejoin:miter;stroke-opacity:1" d="M 784.875,359.732 799.335,359.732 z" id="boundary" inkscape:connector-curvature="0" />
	<path style="fill:none;stroke:red;stroke-width:1px;stroke-linecap:butt;stroke-linejoin:miter;stroke-opacity:1" d="M 794.997,285.983 808.012,293.213 z" id="boundary" inkscape:connector-curvature="0" />
	<path style="fill:none;stroke:red;stroke-width:1px;stroke-linecap:butt;stroke-linejoin:miter;stroke-opacity:1" d="M 799.335,359.732 812.35,352.501 z" id="boundary" inkscape:connector-curvature="0" />
	<path style="fill:none;stroke:red;stroke-width:1px;stroke-linecap:butt;stroke-linejoin:miter;stroke-opacity:1" d="M 808.012,293.213 822.472,293.213 z" id="boundary" inkscape:connector-curvature="0" />
	<path style="fill:none;stroke:red;stroke-width:1px;stroke-linecap:butt;stroke-linejoin:miter;stroke-opacity:1" d="M 812.35,352.501 825.364,359.732 z" id="boundary" inkscape:connector-curvature="0" />
	<path style="fill:none;stroke:red;stroke-width:1px;stroke-linecap:butt;stroke-linejoin:miter;stroke-opacity:1" d="M 822.472,293.213 835.487,300.443 z" id="boundary" inkscape:connector-curvature="0" />
	<path style="fill:none;stroke:red;stroke-width:1px;stroke-linecap:butt;stroke-linejoin:miter;stroke-opacity:1" d="M 825.364,359.732 839.825,365.516 z" id="boundary" inkscape:connector-curvature="0" />
	<path style="fill:none;stroke:red;stroke-width:1px;stroke-linecap:butt;stroke-linejoin:miter;stroke-opacity:1" d="M 835.487,300.443 849.948,300.443 z" id="boundary" inkscape:connector-curvature="0" />
	<path style="fill:none;stroke:red;stroke-width:1px;stroke-linecap:butt;stroke-linejoin:miter;stroke-opacity:1" d="M 839.825,365.516 854.286,366.962 z" id="boundary" inkscape:connector-curvature="0" />
	<path style="fill:none;stroke:red;stroke-width:1px;stroke-linecap:butt;stroke-linejoin:miter;stroke-opacity:1" d="M 849.948,300.443 864.408,300.443 z" id="boundary" inkscape:connector-curvature="0" />
	<path style="fill:none;stroke:red;stroke-width:1px;stroke-linecap:butt;stroke-linejoin:miter;stroke-opacity:1" d="M 854.286,366.962 868.746,366.962 z" id="boundary" inkscape:connector-curvature="0" />
	<path style="fill:none;stroke:red;stroke-width:1px;stroke-linecap:butt;stroke-linejoin:miter;stroke-opacity:1" d="M 864.408,300.443 877.423,307.673 z" id="boundary" inkscape:connector-curvature="0" />
	<path style="fill:none;stroke:red;stroke-width:1px;stroke-linecap:butt;stroke-linejoin:miter;stroke-opacity:1" d="M 868.746,366.962 883.207,366.962 z" id="boundary" inkscape:connector-curvature="0" />
	<path style="fill:none;stroke:red;stroke-width:1px;stroke-linecap:butt;stroke-linejoin:miter;stroke-opacity:1" d="M 877.423,307.673 891.883,309.12 z" id="boundary" inkscape:connector-curvature="0" />
	<path style="fill:none;stroke:red;stroke-width:1px;stroke-linecap:butt;stroke-linejoin:miter;stroke-opacity:1" d="M 883.207,366.962 897.668,366.962 z" id="boundary" inkscape:connector-curvature="0" />
	<path style="fill:none;stroke:red;stroke-width:1px;stroke-linecap:butt;stroke-linejoin:miter;stroke-opacity:1" d="M 891.883,309.12 906.344,314.904 z" id="boundary" inkscape:connector-curvature="0" />
	<path style="fill:none;stroke:red;stroke-width:1px;stroke-linecap:butt;stroke-linejoin:miter;stroke-opacity:1" d="M 897.668,366.962 912.128,366.962 z" id="boundary" inkscape:connector-curvature="0" />
	<path style="fill:none;stroke:red;stroke-width:1px;stroke-linecap:butt;stroke-linejoin:miter;stroke-opacity:1" d="M 906.344,314.904 920.805,316.35 z" id="boundary" inkscape:connector-curvature="0" />
	<path style="fill:none;stroke:red;stroke-width:1px;stroke-linecap:butt;stroke-linejoin:miter;stroke-opacity:1" d="M 912.128,366.962 926.589,366.962 z" id="boundary" inkscape:connector-curvature="0" />
	<path style="fill:none;stroke:red;stroke-width:1px;stroke-linecap:butt;stroke-linejoin:miter;stroke-opacity:1" d="M 920.805,316.35 935.265,322.134 z" id="boundary" inkscape:connector-curvature="0" />
	<path style="fill:none;stroke:red;stroke-width:1px;stroke-linecap:butt;stroke-linejoin:miter;stroke-opacity:1" d="M 926.589,366.962 941.05,372.746 z" id="boundary" inkscape:connector-curvature="0" />
	<path style="fill:none;stroke:red;stroke-width:1px;stroke-linecap:butt;stroke-linejoin:miter;stroke-opacity:1" d="M 935.265,322.134 949.726,322.134 z" id="boundary" inkscape:connector-curvature="0" />
	<path style="fill:none;stroke:red;stroke-width:1px;stroke-linecap:butt;stroke-linejoin:miter;stroke-opacity:1" d="M 941.05,372.746 955.51,374.192 z" id="boundary" inkscape:connector-curvature="0" />
	<path style="fill:none;stroke:red;stroke-width:1px;stroke-linecap:butt;stroke-linejoin:miter;stroke-opacity:1" d="M 949.726,322.134 964.187,323.58 z" id="boundary" inkscape:connector-curvature="0" />
	<path style="fill:none;stroke:red;stroke-width:1px;stroke-linecap:butt;stroke-linejoin:miter;stroke-opacity:1" d="M 955.51,374.192 969.971,374.192 z" id="boundary" inkscape:connector-curvature="0" />
	<path style="fill:none;stroke:red;stroke-width:1px;stroke-linecap:butt;stroke-linejoin:miter;stroke-opacity:1" d="M 964.187,323.58 978.647,329.364 z" id="boundary" inkscape:connector-curvature="0" />
	<path style="fill:none;stroke:red;stroke-width:1px;stroke-linecap:butt;stroke-linejoin:miter;stroke-opacity:1" d="M 969.971,374.192 984.431,374.192 z" id="boundary" inkscape:connector-curvature="0" />
	<path style="fill:none;stroke:red;stroke-width:1px;stroke-linecap:butt;stroke-linejoin:miter;stroke-opacity:1" d="M 978.647,329.364 991.662,336.595 z" id="boundary" inkscape:connector-curvature="0" />
	<path style="fill:none;stroke:red;stroke-width:1px;stroke-linecap:butt;stroke-linejoin:miter;stroke-opacity:1" d="M 984.431,374.192 996,365.516 z" id="boundary" inkscape:connector-curvature="0" />
	<path style="fill:none;stroke:red;stroke-width:1px;stroke-linecap:butt;stroke-linejoin:miter;stroke-opacity:1" d="M 991.662,336.595 996,351.055 z" id="boundary" inkscape:connector-curvature="0" />
	<path style="fill:none;stroke:red;stroke-width:1px;stroke-linecap:butt;stroke-linejoin:miter;stroke-opacity:1" d="M 996,351.055 996,365.516 z" id="boundary" inkscape:connector-curvature="0" />
	<circle cx="4" cy="8.33819" r="4" fill="#0" id="circle0"/>
	<circle cx="12.6764" cy="19.9067" r="4" fill="#0" id="circle1"/>
	<circle cx="18.4606" cy="4" r="4" fill="#0" id="circle2"/>
	<circle cx="25.691" cy="27.137" r="4" fill="#0" id="circle3"/>
	<circle cx="32.9213" cy="4" r="4" fill="#0" id="circle4"/>
	<circle cx="34.3673" cy="38.7055" r="4" fill="#0" id="circle5"/>
	<circle cx="47.3819" cy="4" r="4" fill="#0" id="circle6"/>
	<circle cx="48.828" cy="44.4898" r="4" fill="#0" id="circle7"/>
	<circle cx="58.9504" cy="56.0583" r="4" fill="#0" id="circle8"/>
	<circle cx="60.3965" cy="11.2303" r="4" fill="#0" id="circle9"/>
	<circle cx="70.519" cy="66.1808" r="4" fill="#0" id="circle10"/>
	<circle cx="74.8571" cy="11.2303" r="4" fill="#0" id="circle11"/>
	<circle cx="80.6414" cy="77.7493" r="4" fill="#0" id="circle12"/>
	<circle cx="83.5335" cy="92.2099" r="4" fill="#0" id="circle13"/>
	<circle cx="89.3178" cy="11.2303" r="4" fill="#0" id="circle14"/>
	<circle cx="90.7638" cy="105.224" r="4" fill="#0" id="circle15"/>
	<circle cx="90.7638" cy="119.685" r="4" fill="#0" id="circle16"/>
	<circle cx="90.7638" cy="134.146" r="4" fill="#0" id="circle17"/>
	<circle cx="90.7638" cy="148.606" r="4" fill="#0" id="circle18"/>
	<circle cx="90.7638" cy="163.067" r="4" fill="#0" id="circle19"/>
	<circle cx="90.7638" cy="177.528" r="4" fill="#0" id="circle20"/>
	<circle cx="90.7638" cy="191.988" r="4" fill="#0" id="circle21"/>
	<circle cx="90.7638" cy="206.449" r="4" fill="#0" id="circle22"/>
	<circle cx="90.7638" cy="220.91" r="4" fill="#0" id="circle23"/>
	<circle cx="90.7638" cy="235.37" r="4" fill="#0" id="circle24"/>
	<circle cx="90.7638" cy="249.831" r="4" fill="#0" id="circle25"/>
	<circle cx="90.7638" cy="264.292" r="4" fill="#0" id="circle26"/>
	<circle cx="90.7638" cy="278.752" r="4" fill="#0" id="circle27"/>
	<circle cx="90.7638" cy="293.213" r="4" fill="#0" id="circle28"/>
	<circle cx="99.4402" cy="304.781" r="4" fill="#0" id="circle29"/>
	<circle cx="102.332" cy="4" r="4" fill="#0" id="circle30"/>
	<circle cx="105.224" cy="319.242" r="4" fill="#0" id="circle31"/>
	<circle cx="112.455" cy="332.257" r="4" fill="#0" id="circle32"/>
	<circle cx="116.793" cy="4" r="4" fill="#0" id="circle33"/>
	<circle cx="126.915" cy="338.041" r="4" fill="#0" id="circle34"/>
	<circle cx="131.254" cy="4" r="4" fill="#0" id="circle35"/>
	<circle cx="135.592" cy="349.609" r="4" fill="#0" id="circle36"/>
	<circle cx="145.714" cy="4" r="4" fill="#0" id="circle37"/>
	<circle cx="147.16" cy="359.732" r="4" fill="#0" id="circle38"/>
	<circle cx="148.606" cy="550.612" r="4" fill="#0" id="circle39"/>
	<circle cx="148.606" cy="565.073" r="4" fill="#0" id="circle40"/>
	<circle cx="148.606" cy="579.534" r="4" fill="#0" id="circle41"/>
	<circle cx="155.837" cy="528.921" r="4" fill="#0" id="circle42"/>
	<circle cx="160.175" cy="4" r="4" fill="#0" id="circle43"/>
	<circle cx="160.175" cy="366.962" r="4" fill="#0" id="circle44"/>
	<circle cx="163.067" cy="583.872" r="4" fill="#0" id="circle45"/>
	<circle cx="167.405" cy="517.353" r="4" fill="#0" id="circle46"/>
	<circle cx="173.19" cy="11.2303" r="4" fill="#0" id="circle47"/>
	<circle cx="173.19" cy="374.192" r="4" fill="#0" id="circle48"/>
	<circle cx="176.082" cy="576.641" r="4" fill="#0" id="circle49"/>
	<circle cx="181.866" cy="510.122" r="4" fill="#0" id="circle50"/>
	<circle cx="184.758" cy="382.869" r="4" fill="#0" id="circle51"/>
	<circle cx="187.65" cy="11.2303" r="4" fill="#0" id="circle52"/>
	<circle cx="189.096" cy="569.411" r="4" fill="#0" id="circle53"/>
	<circle cx="196.327" cy="510.122" r="4" fill="#0" id="circle54"/>
	<circle cx="199.219" cy="388.653" r="4" fill="#0" id="circle55"/>
	<circle cx="202.111" cy="11.2303" r="4" fill="#0" id="circle56"/>
	<circle cx="202.111" cy="562.181" r="4" fill="#0" id="circle57"/>
	<circle cx="207.895" cy="400.222" r="4" fill="#0" id="circle58"/>
	<circle cx="209.341" cy="517.353" r="4" fill="#0" id="circle59"/>
	<circle cx="215.125" cy="18.4606" r="4" fill="#0" id="circle60"/>
	<circle cx="215.125" cy="554.95" r="4" fill="#0" id="circle61"/>
	<circle cx="222.356" cy="403.114" r="4" fill="#0" id="circle62"/>
	<circle cx="222.356" cy="524.583" r="4" fill="#0" id="circle63"/>
	<circle cx="228.14" cy="547.72" r="4" fill="#0" id="circle64"/>
	<circle cx="229.586" cy="22.7988" r="4" fill="#0" id="circle65"/>
	<circle cx="235.37" cy="410.344" r="4" fill="#0" id="circle66"/>
	<circle cx="236.816" cy="524.583" r="4" fill="#0" id="circle67"/>
	<circle cx="242.601" cy="30.0292" r="4" fill="#0" id="circle68"/>
	<circle cx="242.601" cy="547.72" r="4" fill="#0" id="circle69"/>
	<circle cx="248.385" cy="417.574" r="4" fill="#0" id="circle70"/>
	<circle cx="249.831" cy="517.353" r="4" fill="#0" id="circle71"/>
	<circle cx="254.169" cy="40.1516" r="4" fill="#0" id="circle72"/>
	<circle cx="257.061" cy="547.72" r="4" fill="#0" id="circle73"/>
	<circle cx="258.507" cy="429.143" r="4" fill="#0" id="circle74"/>
	<circle cx="264.292" cy="514.461" r="4" fill="#0" id="circle75"/>
	<circle cx="267.184" cy="47.3819" r="4" fill="#0" id="circle76"/>
	<circle cx="271.522" cy="543.382" r="4" fill="#0" id="circle77"/>
	<circle cx="272.968" cy="434.927" r="4" fill="#0" id="circle78"/>
	<circle cx="278.752" cy="510.122" r="4" fill="#0" id="circle79"/>
	<circle cx="280.198" cy="54.6122" r="4" fill="#0" id="circle80"/>
	<circle cx="285.983" cy="442.157" r="4" fill="#0" id="circle81"/>
	<circle cx="285.983" cy="540.49" r="4" fill="#0" id="circle82"/>
	<circle cx="291.767" cy="63.2886" r="4" fill="#0" id="circle83"/>
	<circle cx="293.213" cy="510.122" r="4" fill="#0" id="circle84"/>
	<circle cx="298.997" cy="533.259" r="4" fill="#0" id="circle85"/>
	<circle cx="300.443" cy="446.496" r="4" fill="#0" id="circle86"/>
	<circle cx="301.889" cy="74.8571" r="4" fill="#0" id="circle87"/>
	<circle cx="307.673" cy="510.122" r="4" fill="#0" id="circle88"/>
	<circle cx="313.458" cy="453.726" r="4" fill="#0" id="circle89"/>
	<circle cx="313.458" cy="533.259" r="4" fill="#0" id="circle90"/>
	<circle cx="316.35" cy="80.6414" r="4" fill="#0" id="circle91"/>
	<circle cx="320.688" cy="502.892" r="4" fill="#0" id="circle92"/>
	<circle cx="326.472" cy="92.2099" r="4" fill="#0" id="circle93"/>
	<circle cx="326.472" cy="526.029" r="4" fill="#0" id="circle94"/>
	<circle cx="327.918" cy="453.726" r="4" fill="#0" id="circle95"/>
	<circle cx="335.149" cy="502.892" r="4" fill="#0" id="circle96"/>
	<circle cx="338.041" cy="102.332" r="4" fill="#0" id="circle97"/>
	<circle cx="340.933" cy="526.029" r="4" fill="#0" id="circle98"/>
	<circle cx="342.379" cy="453.726" r="4" fill="#0" id="circle99"/>
	<circle cx="348.163" cy="113.901" r="4" fill="#0" id="circle100"/>
	<circle cx="349.609" cy="502.892" r="4" fill="#0" id="circle101"/>
	<circle cx="355.394" cy="460.956" r="4" fill="#0" id="circle102"/>
	<circle cx="355.394" cy="526.029" r="4" fill="#0" id="circle103"/>
	<circle cx="362.624" cy="119.685" r="4" fill="#0" id="circle104"/>
	<circle cx="364.07" cy="502.892" r="4" fill="#0" id="circle105"/>
	<circle cx="369.854" cy="460.956" r="4" fill="#0" id="circle106"/>
	<circle cx="369.854" cy="526.029" r="4" fill="#0" id="circle107"/>
	<circle cx="372.746" cy="131.254" r="4" fill="#0" id="circle108"/>
	<circle cx="377.085" cy="495.662" r="4" fill="#0" id="circle109"/>
	<circle cx="382.869" cy="468.187" r="4" fill="#0" id="circle110"/>
	<circle cx="384.315" cy="524.583" r="4" fill="#0" id="circle111"/>
	<circle cx="387.207" cy="134.146" r="4" fill="#0" id="circle112"/>
	<circle cx="391.545" cy="488.431" r="4" fill="#0" id="circle113"/>
	<circle cx="398.776" cy="518.799" r="4" fill="#0" id="circle114"/>
	<circle cx="400.222" cy="141.376" r="4" fill="#0" id="circle115"/>
	<circle cx="410.344" cy="504.338" r="4" fill="#0" id="circle116"/>
	<circle cx="414.682" cy="142.822" r="4" fill="#0" id="circle117"/>
	<circle cx="416.128" cy="666.297" r="4" fill="#0" id="circle118"/>
	<circle cx="416.128" cy="680.758" r="4" fill="#0" id="circle119"/>
	<circle cx="416.128" cy="695.219" r="4" fill="#0" id="circle120"/>
	<circle cx="416.128" cy="709.679" r="4" fill="#0" id="circle121"/>
	<circle cx="424.805" cy="497.108" r="4" fill="#0" id="circle122"/>
	<circle cx="427.697" cy="654.729" r="4" fill="#0" id="circle123"/>
	<circle cx="427.697" cy="719.802" r="4" fill="#0" id="circle124"/>
	<circle cx="429.143" cy="148.606" r="4" fill="#0" id="circle125"/>
	<circle cx="432.035" cy="475.417" r="4" fill="#0" id="circle126"/>
	<circle cx="434.927" cy="640.268" r="4" fill="#0" id="circle127"/>
	<circle cx="437.819" cy="731.37" r="4" fill="#0" id="circle128"/>
	<circle cx="439.265" cy="453.726" r="4" fill="#0" id="circle129"/>
	<circle cx="442.157" cy="155.837" r="4" fill="#0" id="circle130"/>
	<circle cx="445.05" cy="622.915" r="4" fill="#0" id="circle131"/>
	<circle cx="449.388" cy="741.493" r="4" fill="#0" id="circle132"/>
	<circle cx="452.28" cy="601.224" r="4" fill="#0" id="circle133"/>
	<circle cx="453.726" cy="453.726" r="4" fill="#0" id="circle134"/>
	<circle cx="455.172" cy="163.067" r="4" fill="#0" id="circle135"/>
	<circle cx="459.51" cy="586.764" r="4" fill="#0" id="circle136"/>
	<circle cx="463.848" cy="741.493" r="4" fill="#0" id="circle137"/>
	<circle cx="466.741" cy="173.19" r="4" fill="#0" id="circle138"/>
	<circle cx="466.741" cy="557.843" r="4" fill="#0" id="circle139"/>
	<circle cx="466.741" cy="572.303" r="4" fill="#0" id="circle140"/>
	<circle cx="468.187" cy="456.618" r="4" fill="#0" id="circle141"/>
	<circle cx="468.187" cy="627.254" r="4" fill="#0" id="circle142"/>
	<circle cx="468.187" cy="641.714" r="4" fill="#0" id="circle143"/>
	<circle cx="468.187" cy="656.175" r="4" fill="#0" id="circle144"/>
	<circle cx="471.079" cy="670.636" r="4" fill="#0" id="circle145"/>
	<circle cx="473.971" cy="543.382" r="4" fill="#0" id="circle146"/>
	<circle cx="475.417" cy="612.793" r="4" fill="#0" id="circle147"/>
	<circle cx="475.417" cy="685.096" r="4" fill="#0" id="circle148"/>
	<circle cx="475.417" cy="699.557" r="4" fill="#0" id="circle149"/>
	<circle cx="475.417" cy="714.017" r="4" fill="#0" id="circle150"/>
	<circle cx="475.417" cy="728.478" r="4" fill="#0" id="circle151"/>
	<circle cx="478.309" cy="468.187" r="4" fill="#0" id="circle152"/>
	<circle cx="479.755" cy="180.42" r="4" fill="#0" id="circle153"/>
	<circle cx="481.201" cy="528.921" r="4" fill="#0" id="circle154"/>
	<circle cx="482.647" cy="591.102" r="4" fill="#0" id="circle155"/>
	<circle cx="488.431" cy="500" r="4" fill="#0" id="circle156"/>
	<circle cx="488.431" cy="514.461" r="4" fill="#0" id="circle157"/>
	<circle cx="489.878" cy="569.411" r="4" fill="#0" id="circle158"/>
	<circle cx="492.77" cy="473.971" r="4" fill="#0" id="circle159"/>
	<circle cx="494.216" cy="186.204" r="4" fill="#0" id="circle160"/>
	<circle cx="497.108" cy="547.72" r="4" fill="#0" id="circle161"/>
	<circle cx="507.23" cy="193.434" r="4" fill="#0" id="circle162"/>
	<circle cx="508.676" cy="537.598" r="4" fill="#0" id="circle163"/>
	<circle cx="515.907" cy="523.137" r="4" fill="#0" id="circle164"/>
	<circle cx="518.799" cy="203.557" r="4" fill="#0" id="circle165"/>
	<circle cx="518.799" cy="504.338" r="4" fill="#0" id="circle166"/>
	<circle cx="530.367" cy="494.216" r="4" fill="#0" id="circle167"/>
	<circle cx="531.813" cy="210.787" r="4" fill="#0" id="circle168"/>
	<circle cx="533.259" cy="475.417" r="4" fill="#0" id="circle169"/>
	<circle cx="543.382" cy="220.91" r="4" fill="#0" id="circle170"/>
	<circle cx="547.72" cy="475.417" r="4" fill="#0" id="circle171"/>
	<circle cx="556.397" cy="228.14" r="4" fill="#0" id="circle172"/>
	<circle cx="562.181" cy="478.309" r="4" fill="#0" id="circle173"/>
	<circle cx="570.857" cy="228.14" r="4" fill="#0" id="circle174"/>
	<circle cx="576.641" cy="482.647" r="4" fill="#0" id="circle175"/>
	<circle cx="583.872" cy="235.37" r="4" fill="#0" id="circle176"/>
	<circle cx="591.102" cy="482.647" r="4" fill="#0" id="circle177"/>
	<circle cx="598.332" cy="235.37" r="4" fill="#0" id="circle178"/>
	<circle cx="605.563" cy="485.539" r="4" fill="#0" id="circle179"/>
	<circle cx="611.347" cy="242.601" r="4" fill="#0" id="circle180"/>
	<circle cx="620.023" cy="395.883" r="4" fill="#0" id="circle181"/>
	<circle cx="620.023" cy="489.878" r="4" fill="#0" id="circle182"/>
	<circle cx="622.915" cy="410.344" r="4" fill="#0" id="circle183"/>
	<circle cx="625.808" cy="242.601" r="4" fill="#0" id="circle184"/>
	<circle cx="633.038" cy="388.653" r="4" fill="#0" id="circle185"/>
	<circle cx="634.484" cy="420.466" r="4" fill="#0" id="circle186"/>
	<circle cx="634.484" cy="492.77" r="4" fill="#0" id="circle187"/>
	<circle cx="640.268" cy="245.493" r="4" fill="#0" id="circle188"/>
	<circle cx="644.606" cy="432.035" r="4" fill="#0" id="circle189"/>
	<circle cx="646.052" cy="381.423" r="4" fill="#0" id="circle190"/>
	<circle cx="648.945" cy="497.108" r="4" fill="#0" id="circle191"/>
	<circle cx="654.729" cy="249.831" r="4" fill="#0" id="circle192"/>
	<circle cx="656.175" cy="442.157" r="4" fill="#0" id="circle193"/>
	<circle cx="660.513" cy="381.423" r="4" fill="#0" id="circle194"/>
	<circle cx="661.959" cy="504.338" r="4" fill="#0" id="circle195"/>
	<circle cx="666.297" cy="453.726" r="4" fill="#0" id="circle196"/>
	<circle cx="667.743" cy="257.061" r="4" fill="#0" id="circle197"/>
	<circle cx="674.974" cy="378.531" r="4" fill="#0" id="circle198"/>
	<circle cx="676.42" cy="504.338" r="4" fill="#0" id="circle199"/>
	<circle cx="677.866" cy="463.848" r="4" fill="#0" id="circle200"/>
	<circle cx="682.204" cy="258.507" r="4" fill="#0" id="circle201"/>
	<circle cx="687.988" cy="475.417" r="4" fill="#0" id="circle202"/>
	<circle cx="689.434" cy="374.192" r="4" fill="#0" id="circle203"/>
	<circle cx="689.434" cy="511.569" r="4" fill="#0" id="circle204"/>
	<circle cx="696.665" cy="264.292" r="4" fill="#0" id="circle205"/>
	<circle cx="699.557" cy="485.539" r="4" fill="#0" id="circle206"/>
	<circle cx="702.449" cy="366.962" r="4" fill="#0" id="circle207"/>
	<circle cx="702.449" cy="518.799" r="4" fill="#0" id="circle208"/>
	<circle cx="709.679" cy="497.108" r="4" fill="#0" id="circle209"/>
	<circle cx="711.125" cy="265.738" r="4" fill="#0" id="circle210"/>
	<circle cx="715.464" cy="359.732" r="4" fill="#0" id="circle211"/>
	<circle cx="724.14" cy="272.968" r="4" fill="#0" id="circle212"/>
	<circle cx="729.924" cy="359.732" r="4" fill="#0" id="circle213"/>
	<circle cx="738.601" cy="278.752" r="4" fill="#0" id="circle214"/>
	<circle cx="742.939" cy="352.501" r="4" fill="#0" id="circle215"/>
	<circle cx="751.615" cy="285.983" r="4" fill="#0" id="circle216"/>
	<circle cx="755.953" cy="359.732" r="4" fill="#0" id="circle217"/>
	<circle cx="766.076" cy="280.198" r="4" fill="#0" id="circle218"/>
	<circle cx="770.414" cy="359.732" r="4" fill="#0" id="circle219"/>
	<circle cx="780.536" cy="285.983" r="4" fill="#0" id="circle220"/>
	<circle cx="784.875" cy="359.732" r="4" fill="#0" id="circle221"/>
	<circle cx="794.997" cy="285.983" r="4" fill="#0" id="circle222"/>
	<circle cx="799.335" cy="359.732" r="4" fill="#0" id="circle223"/>
	<circle cx="808.012" cy="293.213" r="4" fill="#0" id="circle224"/>
	<circle cx="812.35" cy="352.501" r="4" fill="#0" id="circle225"/>
	<circle cx="822.472" cy="293.213" r="4" fill="#0" id="circle226"/>
	<circle cx="825.364" cy="359.732" r="4" fill="#0" id="circle227"/>
	<circle cx="835.487" cy="300.443" r="4" fill="#0" id="circle228"/>
	<circle cx="839.825" cy="365.516" r="4" fill="#0" id="circle229"/>
	<circle cx="849.948" cy="300.443" r="4" fill="#0" id="circle230"/>
	<circle cx="854.286" cy="366.962" r="4" fill="#0" id="circle231"/>
	<circle cx="864.408" cy="300.443" r="4" fill="#0" id="circle232"/>
	<circle cx="868.746" cy="366.962" r="4" fill="#0" id="circle233"/>
	<circle cx="877.423" cy="307.673" r="4" fill="#0" id="circle234"/>
	<circle cx="883.207" cy="366.962" r="4" fill="#0" id="circle235"/>
	<circle cx="891.883" cy="309.12" r="4" fill="#0" id="circle236"/>
	<circle cx="897.668" cy="366.962" r="4" fill="#0" id="circle237"/>
	<circle cx="906.344" cy="314.904" r="4" fill="#0" id="circle238"/>
	<circle cx="912.128" cy="366.962" r="4" fill="#0" id="circle239"/>
	<circle cx="920.805" cy="316.35" r="4" fill="#0" id="circle240"/>
	<circle cx="926.589" cy="366.962" r="4" fill="#0" id="circle241"/>
	<circle cx="935.265" cy="322.134" r="4" fill="#0" id="circle242"/>
	<circle cx="941.05" cy="372.746" r="4" fill="#0" id="circle243"/>
	<circle cx="949.726" cy="322.134" r="4" fill="#0" id="circle244"/>
	<circle cx="955.51" cy="374.192" r="4" fill="#0" id="circle245"/>
	<circle cx="964.187" cy="323.58" r="4" fill="#0" id="circle246"/>
	<circle cx="969.971" cy="374.192" r="4" fill="#0" id="circle247"/>
	<circle cx="978.647" cy="329.364" r="4" fill="#0" id="circle248"/>
	<circle cx="984.431" cy="374.192" r="4" fill="#0" id="circle249"/>
	<circle cx="991.662" cy="336.595" r="4" fill="#0" id="circle250"/>
	<circle cx="996" cy="351.055" r="4" fill="#0" id="circle251"/>
	<circle cx="996" cy="365.516" r="4" fill="#0" id="circle252"/>
	</g>
</svg>