<?xml version="1.0" encoding="UTF-8" standalone="no"?>
<!-- Created with CurveBenchmark -->
<svg
	xmlns:dc="http://purl.org/dc/elements/1.1/"
	xmlns:cc="http://creativecommons.org/ns#"
	xmlns:rdf="http://www.w3.org/1999/02/22-rdf-syntax-ns#"
	xmlns:svg="http://www.w3.org/2000/svg"
	xmlns="http://www.w3.org/2000/svg"
	xmlns:sodipodi="http://sodipodi.sourceforge.net/DTD/sodipodi-0.dtd"
	xmlns:inkscape="http://www.inkscape.org/namespaces/inkscape"
	width="1000"
	height="1000"
	id="svg2"
	version="1.1"
	sodipodi:docname="manifold/hnncrust-bed290.png.txt">
<defs
	id="defs4" />
<metadata
	id="metadata7">
	<rdf:RDF>
		<cc:Work
			rdf:about="">
			<dc:format>image/svg+xml</dc:format>
			<dc:type
				rdf:resource="http://purl.org/dc/dcmitype/StillImage" />
			<dc:title></dc:title>
		</cc:Work>
	</rdf:RDF>
</metadata>
<g
	inkscape:label="Layer 1"
	inkscape:groupmode="layer"
	id="layer1">
	<path style="fill:none;stroke:red;stroke-width:1px;stroke-linecap:butt;stroke-linejoin:miter;stroke-opacity:1" d="M 4,325.09 4,341.99 z" id="boundary" inkscape:connector-curvature="0" />
	<path style="fill:none;stroke:red;stroke-width:1px;stroke-linecap:butt;stroke-linejoin:miter;stroke-opacity:1" d="M 4,325.09 12.4497,309.881 z" id="boundary" inkscape:connector-curvature="0" />
	<path style="fill:none;stroke:red;stroke-width:1px;stroke-linecap:butt;stroke-linejoin:miter;stroke-opacity:1" d="M 4,341.99 10.7598,358.889 z" id="boundary" inkscape:connector-curvature="0" />
	<path style="fill:none;stroke:red;stroke-width:1px;stroke-linecap:butt;stroke-linejoin:miter;stroke-opacity:1" d="M 4,483.945 10.7598,500.845 z" id="boundary" inkscape:connector-curvature="0" />
	<path style="fill:none;stroke:red;stroke-width:1px;stroke-linecap:butt;stroke-linejoin:miter;stroke-opacity:1" d="M 4,483.945 22.5894,480.566 z" id="boundary" inkscape:connector-curvature="0" />
	<path style="fill:none;stroke:red;stroke-width:1px;stroke-linecap:butt;stroke-linejoin:miter;stroke-opacity:1" d="M 7.3799,517.744 10.7598,500.845 z" id="boundary" inkscape:connector-curvature="0" />
	<path style="fill:none;stroke:red;stroke-width:1px;stroke-linecap:butt;stroke-linejoin:miter;stroke-opacity:1" d="M 10.7598,358.889 10.7598,375.789 z" id="boundary" inkscape:connector-curvature="0" />
	<path style="fill:none;stroke:red;stroke-width:1px;stroke-linecap:butt;stroke-linejoin:miter;stroke-opacity:1" d="M 10.7598,375.789 15.8296,392.688 z" id="boundary" inkscape:connector-curvature="0" />
	<path style="fill:none;stroke:red;stroke-width:1px;stroke-linecap:butt;stroke-linejoin:miter;stroke-opacity:1" d="M 10.7598,460.286 17.5196,443.387 z" id="boundary" inkscape:connector-curvature="0" />
	<path style="fill:none;stroke:red;stroke-width:1px;stroke-linecap:butt;stroke-linejoin:miter;stroke-opacity:1" d="M 12.4497,309.881 24.2794,294.671 z" id="boundary" inkscape:connector-curvature="0" />
	<path style="fill:none;stroke:red;stroke-width:1px;stroke-linecap:butt;stroke-linejoin:miter;stroke-opacity:1" d="M 15.8296,392.688 17.5196,409.588 z" id="boundary" inkscape:connector-curvature="0" />
	<path style="fill:none;stroke:red;stroke-width:1px;stroke-linecap:butt;stroke-linejoin:miter;stroke-opacity:1" d="M 17.5196,409.588 17.5196,426.487 z" id="boundary" inkscape:connector-curvature="0" />
	<path style="fill:none;stroke:red;stroke-width:1px;stroke-linecap:butt;stroke-linejoin:miter;stroke-opacity:1" d="M 17.5196,426.487 17.5196,443.387 z" id="boundary" inkscape:connector-curvature="0" />
	<path style="fill:none;stroke:red;stroke-width:1px;stroke-linecap:butt;stroke-linejoin:miter;stroke-opacity:1" d="M 22.5894,480.566 29.3492,463.666 z" id="boundary" inkscape:connector-curvature="0" />
	<path style="fill:none;stroke:red;stroke-width:1px;stroke-linecap:butt;stroke-linejoin:miter;stroke-opacity:1" d="M 24.2794,294.671 41.1789,287.911 z" id="boundary" inkscape:connector-curvature="0" />
	<path style="fill:none;stroke:red;stroke-width:1px;stroke-linecap:butt;stroke-linejoin:miter;stroke-opacity:1" d="M 29.3492,463.666 46.2487,468.736 z" id="boundary" inkscape:connector-curvature="0" />
	<path style="fill:none;stroke:red;stroke-width:1px;stroke-linecap:butt;stroke-linejoin:miter;stroke-opacity:1" d="M 41.1789,287.911 54.6985,277.772 z" id="boundary" inkscape:connector-curvature="0" />
	<path style="fill:none;stroke:red;stroke-width:1px;stroke-linecap:butt;stroke-linejoin:miter;stroke-opacity:1" d="M 46.2487,468.736 63.1482,463.666 z" id="boundary" inkscape:connector-curvature="0" />
	<path style="fill:none;stroke:red;stroke-width:1px;stroke-linecap:butt;stroke-linejoin:miter;stroke-opacity:1" d="M 54.6985,277.772 71.598,274.392 z" id="boundary" inkscape:connector-curvature="0" />
	<path style="fill:none;stroke:red;stroke-width:1px;stroke-linecap:butt;stroke-linejoin:miter;stroke-opacity:1" d="M 63.1482,463.666 80.0477,458.596 z" id="boundary" inkscape:connector-curvature="0" />
	<path style="fill:none;stroke:red;stroke-width:1px;stroke-linecap:butt;stroke-linejoin:miter;stroke-opacity:1" d="M 71.598,274.392 88.4974,271.012 z" id="boundary" inkscape:connector-curvature="0" />
	<path style="fill:none;stroke:red;stroke-width:1px;stroke-linecap:butt;stroke-linejoin:miter;stroke-opacity:1" d="M 80.0477,458.596 91.8773,472.116 z" id="boundary" inkscape:connector-curvature="0" />
	<path style="fill:none;stroke:red;stroke-width:1px;stroke-linecap:butt;stroke-linejoin:miter;stroke-opacity:1" d="M 88.4974,271.012 95.2572,254.112 z" id="boundary" inkscape:connector-curvature="0" />
	<path style="fill:none;stroke:red;stroke-width:1px;stroke-linecap:butt;stroke-linejoin:miter;stroke-opacity:1" d="M 91.8773,472.116 105.397,483.945 z" id="boundary" inkscape:connector-curvature="0" />
	<path style="fill:none;stroke:red;stroke-width:1px;stroke-linecap:butt;stroke-linejoin:miter;stroke-opacity:1" d="M 95.2572,254.112 108.777,240.593 z" id="boundary" inkscape:connector-curvature="0" />
	<path style="fill:none;stroke:red;stroke-width:1px;stroke-linecap:butt;stroke-linejoin:miter;stroke-opacity:1" d="M 105.397,483.945 120.606,492.395 z" id="boundary" inkscape:connector-curvature="0" />
	<path style="fill:none;stroke:red;stroke-width:1px;stroke-linecap:butt;stroke-linejoin:miter;stroke-opacity:1" d="M 108.777,240.593 122.296,230.453 z" id="boundary" inkscape:connector-curvature="0" />
	<path style="fill:none;stroke:red;stroke-width:1px;stroke-linecap:butt;stroke-linejoin:miter;stroke-opacity:1" d="M 120.606,492.395 137.506,489.015 z" id="boundary" inkscape:connector-curvature="0" />
	<path style="fill:none;stroke:red;stroke-width:1px;stroke-linecap:butt;stroke-linejoin:miter;stroke-opacity:1" d="M 122.296,230.453 139.196,237.213 z" id="boundary" inkscape:connector-curvature="0" />
	<path style="fill:none;stroke:red;stroke-width:1px;stroke-linecap:butt;stroke-linejoin:miter;stroke-opacity:1" d="M 137.506,489.015 151.026,477.186 z" id="boundary" inkscape:connector-curvature="0" />
	<path style="fill:none;stroke:red;stroke-width:1px;stroke-linecap:butt;stroke-linejoin:miter;stroke-opacity:1" d="M 139.196,237.213 147.646,252.422 z" id="boundary" inkscape:connector-curvature="0" />
	<path style="fill:none;stroke:red;stroke-width:1px;stroke-linecap:butt;stroke-linejoin:miter;stroke-opacity:1" d="M 147.646,252.422 161.165,264.252 z" id="boundary" inkscape:connector-curvature="0" />
	<path style="fill:none;stroke:red;stroke-width:1px;stroke-linecap:butt;stroke-linejoin:miter;stroke-opacity:1" d="M 151.026,477.186 164.545,463.666 z" id="boundary" inkscape:connector-curvature="0" />
	<path style="fill:none;stroke:red;stroke-width:1px;stroke-linecap:butt;stroke-linejoin:miter;stroke-opacity:1" d="M 161.165,264.252 174.685,274.392 z" id="boundary" inkscape:connector-curvature="0" />
	<path style="fill:none;stroke:red;stroke-width:1px;stroke-linecap:butt;stroke-linejoin:miter;stroke-opacity:1" d="M 164.545,463.666 181.445,461.976 z" id="boundary" inkscape:connector-curvature="0" />
	<path style="fill:none;stroke:red;stroke-width:1px;stroke-linecap:butt;stroke-linejoin:miter;stroke-opacity:1" d="M 174.685,274.392 191.584,277.772 z" id="boundary" inkscape:connector-curvature="0" />
	<path style="fill:none;stroke:red;stroke-width:1px;stroke-linecap:butt;stroke-linejoin:miter;stroke-opacity:1" d="M 181.445,461.976 191.584,475.496 z" id="boundary" inkscape:connector-curvature="0" />
	<path style="fill:none;stroke:red;stroke-width:1px;stroke-linecap:butt;stroke-linejoin:miter;stroke-opacity:1" d="M 191.584,277.772 208.484,284.532 z" id="boundary" inkscape:connector-curvature="0" />
	<path style="fill:none;stroke:red;stroke-width:1px;stroke-linecap:butt;stroke-linejoin:miter;stroke-opacity:1" d="M 191.584,475.496 205.104,465.356 z" id="boundary" inkscape:connector-curvature="0" />
	<path style="fill:none;stroke:red;stroke-width:1px;stroke-linecap:butt;stroke-linejoin:miter;stroke-opacity:1" d="M 205.104,465.356 220.313,473.806 z" id="boundary" inkscape:connector-curvature="0" />
	<path style="fill:none;stroke:red;stroke-width:1px;stroke-linecap:butt;stroke-linejoin:miter;stroke-opacity:1" d="M 208.484,284.532 223.693,292.981 z" id="boundary" inkscape:connector-curvature="0" />
	<path style="fill:none;stroke:red;stroke-width:1px;stroke-linecap:butt;stroke-linejoin:miter;stroke-opacity:1" d="M 220.313,473.806 220.313,490.705 z" id="boundary" inkscape:connector-curvature="0" />
	<path style="fill:none;stroke:red;stroke-width:1px;stroke-linecap:butt;stroke-linejoin:miter;stroke-opacity:1" d="M 220.313,490.705 237.213,509.295 z" id="boundary" inkscape:connector-curvature="0" />
	<path style="fill:none;stroke:red;stroke-width:1px;stroke-linecap:butt;stroke-linejoin:miter;stroke-opacity:1" d="M 220.313,517.744 237.213,509.295 z" id="boundary" inkscape:connector-curvature="0" />
	<path style="fill:none;stroke:red;stroke-width:1px;stroke-linecap:butt;stroke-linejoin:miter;stroke-opacity:1" d="M 223.693,292.981 235.523,306.501 z" id="boundary" inkscape:connector-curvature="0" />
	<path style="fill:none;stroke:red;stroke-width:1px;stroke-linecap:butt;stroke-linejoin:miter;stroke-opacity:1" d="M 235.523,306.501 252.422,308.191 z" id="boundary" inkscape:connector-curvature="0" />
	<path style="fill:none;stroke:red;stroke-width:1px;stroke-linecap:butt;stroke-linejoin:miter;stroke-opacity:1" d="M 238.903,477.186 245.663,453.526 z" id="boundary" inkscape:connector-curvature="0" />
	<path style="fill:none;stroke:red;stroke-width:1px;stroke-linecap:butt;stroke-linejoin:miter;stroke-opacity:1" d="M 245.663,453.526 262.562,451.836 z" id="boundary" inkscape:connector-curvature="0" />
	<path style="fill:none;stroke:red;stroke-width:1px;stroke-linecap:butt;stroke-linejoin:miter;stroke-opacity:1" d="M 252.422,308.191 269.322,308.191 z" id="boundary" inkscape:connector-curvature="0" />
	<path style="fill:none;stroke:red;stroke-width:1px;stroke-linecap:butt;stroke-linejoin:miter;stroke-opacity:1" d="M 262.562,451.836 279.462,451.836 z" id="boundary" inkscape:connector-curvature="0" />
	<path style="fill:none;stroke:red;stroke-width:1px;stroke-linecap:butt;stroke-linejoin:miter;stroke-opacity:1" d="M 269.322,308.191 286.221,308.191 z" id="boundary" inkscape:connector-curvature="0" />
	<path style="fill:none;stroke:red;stroke-width:1px;stroke-linecap:butt;stroke-linejoin:miter;stroke-opacity:1" d="M 279.462,451.836 296.361,451.836 z" id="boundary" inkscape:connector-curvature="0" />
	<path style="fill:none;stroke:red;stroke-width:1px;stroke-linecap:butt;stroke-linejoin:miter;stroke-opacity:1" d="M 286.221,308.191 303.121,308.191 z" id="boundary" inkscape:connector-curvature="0" />
	<path style="fill:none;stroke:red;stroke-width:1px;stroke-linecap:butt;stroke-linejoin:miter;stroke-opacity:1" d="M 296.361,451.836 313.261,451.836 z" id="boundary" inkscape:connector-curvature="0" />
	<path style="fill:none;stroke:red;stroke-width:1px;stroke-linecap:butt;stroke-linejoin:miter;stroke-opacity:1" d="M 303.121,308.191 320.02,308.191 z" id="boundary" inkscape:connector-curvature="0" />
	<path style="fill:none;stroke:red;stroke-width:1px;stroke-linecap:butt;stroke-linejoin:miter;stroke-opacity:1" d="M 313.261,451.836 330.16,451.836 z" id="boundary" inkscape:connector-curvature="0" />
	<path style="fill:none;stroke:red;stroke-width:1px;stroke-linecap:butt;stroke-linejoin:miter;stroke-opacity:1" d="M 320.02,308.191 336.92,306.501 z" id="boundary" inkscape:connector-curvature="0" />
	<path style="fill:none;stroke:red;stroke-width:1px;stroke-linecap:butt;stroke-linejoin:miter;stroke-opacity:1" d="M 330.16,451.836 347.06,451.836 z" id="boundary" inkscape:connector-curvature="0" />
	<path style="fill:none;stroke:red;stroke-width:1px;stroke-linecap:butt;stroke-linejoin:miter;stroke-opacity:1" d="M 336.92,306.501 353.819,304.811 z" id="boundary" inkscape:connector-curvature="0" />
	<path style="fill:none;stroke:red;stroke-width:1px;stroke-linecap:butt;stroke-linejoin:miter;stroke-opacity:1" d="M 347.06,451.836 363.959,451.836 z" id="boundary" inkscape:connector-curvature="0" />
	<path style="fill:none;stroke:red;stroke-width:1px;stroke-linecap:butt;stroke-linejoin:miter;stroke-opacity:1" d="M 353.819,304.811 370.719,304.811 z" id="boundary" inkscape:connector-curvature="0" />
	<path style="fill:none;stroke:red;stroke-width:1px;stroke-linecap:butt;stroke-linejoin:miter;stroke-opacity:1" d="M 363.959,451.836 380.859,451.836 z" id="boundary" inkscape:connector-curvature="0" />
	<path style="fill:none;stroke:red;stroke-width:1px;stroke-linecap:butt;stroke-linejoin:miter;stroke-opacity:1" d="M 370.719,304.811 387.618,304.811 z" id="boundary" inkscape:connector-curvature="0" />
	<path style="fill:none;stroke:red;stroke-width:1px;stroke-linecap:butt;stroke-linejoin:miter;stroke-opacity:1" d="M 380.859,451.836 397.758,451.836 z" id="boundary" inkscape:connector-curvature="0" />
	<path style="fill:none;stroke:red;stroke-width:1px;stroke-linecap:butt;stroke-linejoin:miter;stroke-opacity:1" d="M 387.618,304.811 404.518,304.811 z" id="boundary" inkscape:connector-curvature="0" />
	<path style="fill:none;stroke:red;stroke-width:1px;stroke-linecap:butt;stroke-linejoin:miter;stroke-opacity:1" d="M 397.758,451.836 414.658,451.836 z" id="boundary" inkscape:connector-curvature="0" />
	<path style="fill:none;stroke:red;stroke-width:1px;stroke-linecap:butt;stroke-linejoin:miter;stroke-opacity:1" d="M 404.518,304.811 421.417,304.811 z" id="boundary" inkscape:connector-curvature="0" />
	<path style="fill:none;stroke:red;stroke-width:1px;stroke-linecap:butt;stroke-linejoin:miter;stroke-opacity:1" d="M 414.658,451.836 431.557,451.836 z" id="boundary" inkscape:connector-curvature="0" />
	<path style="fill:none;stroke:red;stroke-width:1px;stroke-linecap:butt;stroke-linejoin:miter;stroke-opacity:1" d="M 421.417,304.811 438.317,304.811 z" id="boundary" inkscape:connector-curvature="0" />
	<path style="fill:none;stroke:red;stroke-width:1px;stroke-linecap:butt;stroke-linejoin:miter;stroke-opacity:1" d="M 431.557,451.836 448.457,451.836 z" id="boundary" inkscape:connector-curvature="0" />
	<path style="fill:none;stroke:red;stroke-width:1px;stroke-linecap:butt;stroke-linejoin:miter;stroke-opacity:1" d="M 438.317,304.811 455.216,304.811 z" id="boundary" inkscape:connector-curvature="0" />
	<path style="fill:none;stroke:red;stroke-width:1px;stroke-linecap:butt;stroke-linejoin:miter;stroke-opacity:1" d="M 448.457,451.836 465.356,451.836 z" id="boundary" inkscape:connector-curvature="0" />
	<path style="fill:none;stroke:red;stroke-width:1px;stroke-linecap:butt;stroke-linejoin:miter;stroke-opacity:1" d="M 455.216,304.811 472.116,304.811 z" id="boundary" inkscape:connector-curvature="0" />
	<path style="fill:none;stroke:red;stroke-width:1px;stroke-linecap:butt;stroke-linejoin:miter;stroke-opacity:1" d="M 465.356,451.836 482.256,451.836 z" id="boundary" inkscape:connector-curvature="0" />
	<path style="fill:none;stroke:red;stroke-width:1px;stroke-linecap:butt;stroke-linejoin:miter;stroke-opacity:1" d="M 472.116,304.811 489.015,304.811 z" id="boundary" inkscape:connector-curvature="0" />
	<path style="fill:none;stroke:red;stroke-width:1px;stroke-linecap:butt;stroke-linejoin:miter;stroke-opacity:1" d="M 482.256,451.836 499.155,451.836 z" id="boundary" inkscape:connector-curvature="0" />
	<path style="fill:none;stroke:red;stroke-width:1px;stroke-linecap:butt;stroke-linejoin:miter;stroke-opacity:1" d="M 489.015,304.811 505.915,304.811 z" id="boundary" inkscape:connector-curvature="0" />
	<path style="fill:none;stroke:red;stroke-width:1px;stroke-linecap:butt;stroke-linejoin:miter;stroke-opacity:1" d="M 499.155,451.836 516.055,451.836 z" id="boundary" inkscape:connector-curvature="0" />
	<path style="fill:none;stroke:red;stroke-width:1px;stroke-linecap:butt;stroke-linejoin:miter;stroke-opacity:1" d="M 505.915,304.811 522.814,304.811 z" id="boundary" inkscape:connector-curvature="0" />
	<path style="fill:none;stroke:red;stroke-width:1px;stroke-linecap:butt;stroke-linejoin:miter;stroke-opacity:1" d="M 516.055,451.836 532.954,451.836 z" id="boundary" inkscape:connector-curvature="0" />
	<path style="fill:none;stroke:red;stroke-width:1px;stroke-linecap:butt;stroke-linejoin:miter;stroke-opacity:1" d="M 522.814,304.811 539.714,304.811 z" id="boundary" inkscape:connector-curvature="0" />
	<path style="fill:none;stroke:red;stroke-width:1px;stroke-linecap:butt;stroke-linejoin:miter;stroke-opacity:1" d="M 532.954,451.836 549.853,451.836 z" id="boundary" inkscape:connector-curvature="0" />
	<path style="fill:none;stroke:red;stroke-width:1px;stroke-linecap:butt;stroke-linejoin:miter;stroke-opacity:1" d="M 539.714,304.811 556.613,301.431 z" id="boundary" inkscape:connector-curvature="0" />
	<path style="fill:none;stroke:red;stroke-width:1px;stroke-linecap:butt;stroke-linejoin:miter;stroke-opacity:1" d="M 549.853,451.836 566.753,451.836 z" id="boundary" inkscape:connector-curvature="0" />
	<path style="fill:none;stroke:red;stroke-width:1px;stroke-linecap:butt;stroke-linejoin:miter;stroke-opacity:1" d="M 556.613,301.431 568.443,287.911 z" id="boundary" inkscape:connector-curvature="0" />
	<path style="fill:none;stroke:red;stroke-width:1px;stroke-linecap:butt;stroke-linejoin:miter;stroke-opacity:1" d="M 566.753,451.836 583.652,451.836 z" id="boundary" inkscape:connector-curvature="0" />
	<path style="fill:none;stroke:red;stroke-width:1px;stroke-linecap:butt;stroke-linejoin:miter;stroke-opacity:1" d="M 568.443,287.911 578.583,274.392 z" id="boundary" inkscape:connector-curvature="0" />
	<path style="fill:none;stroke:red;stroke-width:1px;stroke-linecap:butt;stroke-linejoin:miter;stroke-opacity:1" d="M 578.583,274.392 588.722,260.872 z" id="boundary" inkscape:connector-curvature="0" />
	<path style="fill:none;stroke:red;stroke-width:1px;stroke-linecap:butt;stroke-linejoin:miter;stroke-opacity:1" d="M 583.652,451.836 600.552,451.836 z" id="boundary" inkscape:connector-curvature="0" />
	<path style="fill:none;stroke:red;stroke-width:1px;stroke-linecap:butt;stroke-linejoin:miter;stroke-opacity:1" d="M 588.722,260.872 602.242,250.733 z" id="boundary" inkscape:connector-curvature="0" />
	<path style="fill:none;stroke:red;stroke-width:1px;stroke-linecap:butt;stroke-linejoin:miter;stroke-opacity:1" d="M 600.552,451.836 617.451,451.836 z" id="boundary" inkscape:connector-curvature="0" />
	<path style="fill:none;stroke:red;stroke-width:1px;stroke-linecap:butt;stroke-linejoin:miter;stroke-opacity:1" d="M 602.242,250.733 615.761,240.593 z" id="boundary" inkscape:connector-curvature="0" />
	<path style="fill:none;stroke:red;stroke-width:1px;stroke-linecap:butt;stroke-linejoin:miter;stroke-opacity:1" d="M 615.761,240.593 629.281,230.453 z" id="boundary" inkscape:connector-curvature="0" />
	<path style="fill:none;stroke:red;stroke-width:1px;stroke-linecap:butt;stroke-linejoin:miter;stroke-opacity:1" d="M 617.451,451.836 634.351,451.836 z" id="boundary" inkscape:connector-curvature="0" />
	<path style="fill:none;stroke:red;stroke-width:1px;stroke-linecap:butt;stroke-linejoin:miter;stroke-opacity:1" d="M 629.281,230.453 646.181,223.693 z" id="boundary" inkscape:connector-curvature="0" />
	<path style="fill:none;stroke:red;stroke-width:1px;stroke-linecap:butt;stroke-linejoin:miter;stroke-opacity:1" d="M 634.351,451.836 651.25,451.836 z" id="boundary" inkscape:connector-curvature="0" />
	<path style="fill:none;stroke:red;stroke-width:1px;stroke-linecap:butt;stroke-linejoin:miter;stroke-opacity:1" d="M 646.181,223.693 663.08,216.934 z" id="boundary" inkscape:connector-curvature="0" />
	<path style="fill:none;stroke:red;stroke-width:1px;stroke-linecap:butt;stroke-linejoin:miter;stroke-opacity:1" d="M 651.25,451.836 668.15,451.836 z" id="boundary" inkscape:connector-curvature="0" />
	<path style="fill:none;stroke:red;stroke-width:1px;stroke-linecap:butt;stroke-linejoin:miter;stroke-opacity:1" d="M 663.08,216.934 679.98,213.554 z" id="boundary" inkscape:connector-curvature="0" />
	<path style="fill:none;stroke:red;stroke-width:1px;stroke-linecap:butt;stroke-linejoin:miter;stroke-opacity:1" d="M 668.15,451.836 685.049,451.836 z" id="boundary" inkscape:connector-curvature="0" />
	<path style="fill:none;stroke:red;stroke-width:1px;stroke-linecap:butt;stroke-linejoin:miter;stroke-opacity:1" d="M 679.98,213.554 696.879,213.554 z" id="boundary" inkscape:connector-curvature="0" />
	<path style="fill:none;stroke:red;stroke-width:1px;stroke-linecap:butt;stroke-linejoin:miter;stroke-opacity:1" d="M 685.049,451.836 701.949,451.836 z" id="boundary" inkscape:connector-curvature="0" />
	<path style="fill:none;stroke:red;stroke-width:1px;stroke-linecap:butt;stroke-linejoin:miter;stroke-opacity:1" d="M 696.879,213.554 713.779,213.554 z" id="boundary" inkscape:connector-curvature="0" />
	<path style="fill:none;stroke:red;stroke-width:1px;stroke-linecap:butt;stroke-linejoin:miter;stroke-opacity:1" d="M 701.949,451.836 718.848,451.836 z" id="boundary" inkscape:connector-curvature="0" />
	<path style="fill:none;stroke:red;stroke-width:1px;stroke-linecap:butt;stroke-linejoin:miter;stroke-opacity:1" d="M 713.779,213.554 730.678,213.554 z" id="boundary" inkscape:connector-curvature="0" />
	<path style="fill:none;stroke:red;stroke-width:1px;stroke-linecap:butt;stroke-linejoin:miter;stroke-opacity:1" d="M 718.848,451.836 735.748,451.836 z" id="boundary" inkscape:connector-curvature="0" />
	<path style="fill:none;stroke:red;stroke-width:1px;stroke-linecap:butt;stroke-linejoin:miter;stroke-opacity:1" d="M 730.678,213.554 745.888,205.104 z" id="boundary" inkscape:connector-curvature="0" />
	<path style="fill:none;stroke:red;stroke-width:1px;stroke-linecap:butt;stroke-linejoin:miter;stroke-opacity:1" d="M 735.748,451.836 752.647,451.836 z" id="boundary" inkscape:connector-curvature="0" />
	<path style="fill:none;stroke:red;stroke-width:1px;stroke-linecap:butt;stroke-linejoin:miter;stroke-opacity:1" d="M 745.888,205.104 762.787,200.034 z" id="boundary" inkscape:connector-curvature="0" />
	<path style="fill:none;stroke:red;stroke-width:1px;stroke-linecap:butt;stroke-linejoin:miter;stroke-opacity:1" d="M 752.647,451.836 769.547,451.836 z" id="boundary" inkscape:connector-curvature="0" />
	<path style="fill:none;stroke:red;stroke-width:1px;stroke-linecap:butt;stroke-linejoin:miter;stroke-opacity:1" d="M 762.787,200.034 779.687,196.654 z" id="boundary" inkscape:connector-curvature="0" />
	<path style="fill:none;stroke:red;stroke-width:1px;stroke-linecap:butt;stroke-linejoin:miter;stroke-opacity:1" d="M 769.547,451.836 781.376,465.356 z" id="boundary" inkscape:connector-curvature="0" />
	<path style="fill:none;stroke:red;stroke-width:1px;stroke-linecap:butt;stroke-linejoin:miter;stroke-opacity:1" d="M 774.617,125.676 774.617,142.576 z" id="boundary" inkscape:connector-curvature="0" />
	<path style="fill:none;stroke:red;stroke-width:1px;stroke-linecap:butt;stroke-linejoin:miter;stroke-opacity:1" d="M 774.617,125.676 784.756,108.777 z" id="boundary" inkscape:connector-curvature="0" />
	<path style="fill:none;stroke:red;stroke-width:1px;stroke-linecap:butt;stroke-linejoin:miter;stroke-opacity:1" d="M 774.617,142.576 784.756,156.095 z" id="boundary" inkscape:connector-curvature="0" />
	<path style="fill:none;stroke:red;stroke-width:1px;stroke-linecap:butt;stroke-linejoin:miter;stroke-opacity:1" d="M 774.617,517.744 781.376,499.155 z" id="boundary" inkscape:connector-curvature="0" />
	<path style="fill:none;stroke:red;stroke-width:1px;stroke-linecap:butt;stroke-linejoin:miter;stroke-opacity:1" d="M 774.617,517.744 791.516,519.434 z" id="boundary" inkscape:connector-curvature="0" />
	<path style="fill:none;stroke:red;stroke-width:1px;stroke-linecap:butt;stroke-linejoin:miter;stroke-opacity:1" d="M 779.687,196.654 788.136,172.995 z" id="boundary" inkscape:connector-curvature="0" />
	<path style="fill:none;stroke:red;stroke-width:1px;stroke-linecap:butt;stroke-linejoin:miter;stroke-opacity:1" d="M 781.376,465.356 781.376,482.256 z" id="boundary" inkscape:connector-curvature="0" />
	<path style="fill:none;stroke:red;stroke-width:1px;stroke-linecap:butt;stroke-linejoin:miter;stroke-opacity:1" d="M 781.376,482.256 781.376,499.155 z" id="boundary" inkscape:connector-curvature="0" />
	<path style="fill:none;stroke:red;stroke-width:1px;stroke-linecap:butt;stroke-linejoin:miter;stroke-opacity:1" d="M 784.756,108.777 798.276,95.2572 z" id="boundary" inkscape:connector-curvature="0" />
	<path style="fill:none;stroke:red;stroke-width:1px;stroke-linecap:butt;stroke-linejoin:miter;stroke-opacity:1" d="M 784.756,156.095 788.136,172.995 z" id="boundary" inkscape:connector-curvature="0" />
	<path style="fill:none;stroke:red;stroke-width:1px;stroke-linecap:butt;stroke-linejoin:miter;stroke-opacity:1" d="M 796.586,473.806 799.966,456.906 z" id="boundary" inkscape:connector-curvature="0" />
	<path style="fill:none;stroke:red;stroke-width:1px;stroke-linecap:butt;stroke-linejoin:miter;stroke-opacity:1" d="M 798.276,95.2572 811.796,85.1175 z" id="boundary" inkscape:connector-curvature="0" />
	<path style="fill:none;stroke:red;stroke-width:1px;stroke-linecap:butt;stroke-linejoin:miter;stroke-opacity:1" d="M 799.966,456.906 816.865,451.836 z" id="boundary" inkscape:connector-curvature="0" />
	<path style="fill:none;stroke:red;stroke-width:1px;stroke-linecap:butt;stroke-linejoin:miter;stroke-opacity:1" d="M 811.796,85.1175 825.315,74.9779 z" id="boundary" inkscape:connector-curvature="0" />
	<path style="fill:none;stroke:red;stroke-width:1px;stroke-linecap:butt;stroke-linejoin:miter;stroke-opacity:1" d="M 816.865,451.836 833.765,451.836 z" id="boundary" inkscape:connector-curvature="0" />
	<path style="fill:none;stroke:red;stroke-width:1px;stroke-linecap:butt;stroke-linejoin:miter;stroke-opacity:1" d="M 825.315,74.9779 842.215,54.6985 z" id="boundary" inkscape:connector-curvature="0" />
	<path style="fill:none;stroke:red;stroke-width:1px;stroke-linecap:butt;stroke-linejoin:miter;stroke-opacity:1" d="M 833.765,451.836 850.664,451.836 z" id="boundary" inkscape:connector-curvature="0" />
	<path style="fill:none;stroke:red;stroke-width:1px;stroke-linecap:butt;stroke-linejoin:miter;stroke-opacity:1" d="M 842.215,54.6985 852.354,41.1789 z" id="boundary" inkscape:connector-curvature="0" />
	<path style="fill:none;stroke:red;stroke-width:1px;stroke-linecap:butt;stroke-linejoin:miter;stroke-opacity:1" d="M 850.664,451.836 867.564,451.836 z" id="boundary" inkscape:connector-curvature="0" />
	<path style="fill:none;stroke:red;stroke-width:1px;stroke-linecap:butt;stroke-linejoin:miter;stroke-opacity:1" d="M 852.354,41.1789 862.494,20.8995 z" id="boundary" inkscape:connector-curvature="0" />
	<path style="fill:none;stroke:red;stroke-width:1px;stroke-linecap:butt;stroke-linejoin:miter;stroke-opacity:1" d="M 862.494,20.8995 872.634,4 z" id="boundary" inkscape:connector-curvature="0" />
	<path style="fill:none;stroke:red;stroke-width:1px;stroke-linecap:butt;stroke-linejoin:miter;stroke-opacity:1" d="M 867.564,451.836 884.463,451.836 z" id="boundary" inkscape:connector-curvature="0" />
	<path style="fill:none;stroke:red;stroke-width:1px;stroke-linecap:butt;stroke-linejoin:miter;stroke-opacity:1" d="M 872.634,4 887.843,12.4497 z" id="boundary" inkscape:connector-curvature="0" />
	<path style="fill:none;stroke:red;stroke-width:1px;stroke-linecap:butt;stroke-linejoin:miter;stroke-opacity:1" d="M 884.463,451.836 901.363,451.836 z" id="boundary" inkscape:connector-curvature="0" />
	<path style="fill:none;stroke:red;stroke-width:1px;stroke-linecap:butt;stroke-linejoin:miter;stroke-opacity:1" d="M 887.843,12.4497 894.603,29.3492 z" id="boundary" inkscape:connector-curvature="0" />
	<path style="fill:none;stroke:red;stroke-width:1px;stroke-linecap:butt;stroke-linejoin:miter;stroke-opacity:1" d="M 894.603,29.3492 908.123,41.1789 z" id="boundary" inkscape:connector-curvature="0" />
	<path style="fill:none;stroke:red;stroke-width:1px;stroke-linecap:butt;stroke-linejoin:miter;stroke-opacity:1" d="M 901.363,451.836 918.262,451.836 z" id="boundary" inkscape:connector-curvature="0" />
	<path style="fill:none;stroke:red;stroke-width:1px;stroke-linecap:butt;stroke-linejoin:miter;stroke-opacity:1" d="M 908.123,41.1789 914.882,58.0784 z" id="boundary" inkscape:connector-curvature="0" />
	<path style="fill:none;stroke:red;stroke-width:1px;stroke-linecap:butt;stroke-linejoin:miter;stroke-opacity:1" d="M 914.882,58.0784 928.402,68.2181 z" id="boundary" inkscape:connector-curvature="0" />
	<path style="fill:none;stroke:red;stroke-width:1px;stroke-linecap:butt;stroke-linejoin:miter;stroke-opacity:1" d="M 918.262,451.836 935.162,451.836 z" id="boundary" inkscape:connector-curvature="0" />
	<path style="fill:none;stroke:red;stroke-width:1px;stroke-linecap:butt;stroke-linejoin:miter;stroke-opacity:1" d="M 928.402,68.2181 945.302,74.9779 z" id="boundary" inkscape:connector-curvature="0" />
	<path style="fill:none;stroke:red;stroke-width:1px;stroke-linecap:butt;stroke-linejoin:miter;stroke-opacity:1" d="M 935.162,451.836 952.061,451.836 z" id="boundary" inkscape:connector-curvature="0" />
	<path style="fill:none;stroke:red;stroke-width:1px;stroke-linecap:butt;stroke-linejoin:miter;stroke-opacity:1" d="M 945.302,74.9779 958.821,85.1175 z" id="boundary" inkscape:connector-curvature="0" />
	<path style="fill:none;stroke:red;stroke-width:1px;stroke-linecap:butt;stroke-linejoin:miter;stroke-opacity:1" d="M 958.821,85.1175 972.341,95.2572 z" id="boundary" inkscape:connector-curvature="0" />
	<path style="fill:none;stroke:red;stroke-width:1px;stroke-linecap:butt;stroke-linejoin:miter;stroke-opacity:1" d="M 967.271,467.046 970.651,483.945 z" id="boundary" inkscape:connector-curvature="0" />
	<path style="fill:none;stroke:red;stroke-width:1px;stroke-linecap:butt;stroke-linejoin:miter;stroke-opacity:1" d="M 967.271,467.046 975.721,451.836 z" id="boundary" inkscape:connector-curvature="0" />
	<path style="fill:none;stroke:red;stroke-width:1px;stroke-linecap:butt;stroke-linejoin:miter;stroke-opacity:1" d="M 970.651,483.945 975.721,500.845 z" id="boundary" inkscape:connector-curvature="0" />
	<path style="fill:none;stroke:red;stroke-width:1px;stroke-linecap:butt;stroke-linejoin:miter;stroke-opacity:1" d="M 970.651,517.744 975.721,500.845 z" id="boundary" inkscape:connector-curvature="0" />
	<path style="fill:none;stroke:red;stroke-width:1px;stroke-linecap:butt;stroke-linejoin:miter;stroke-opacity:1" d="M 972.341,95.2572 984.17,108.777 z" id="boundary" inkscape:connector-curvature="0" />
	<path style="fill:none;stroke:red;stroke-width:1px;stroke-linecap:butt;stroke-linejoin:miter;stroke-opacity:1" d="M 975.721,451.836 992.62,456.906 z" id="boundary" inkscape:connector-curvature="0" />
	<path style="fill:none;stroke:red;stroke-width:1px;stroke-linecap:butt;stroke-linejoin:miter;stroke-opacity:1" d="M 984.17,108.777 992.62,123.986 z" id="boundary" inkscape:connector-curvature="0" />
	<path style="fill:none;stroke:red;stroke-width:1px;stroke-linecap:butt;stroke-linejoin:miter;stroke-opacity:1" d="M 992.62,123.986 996,140.886 z" id="boundary" inkscape:connector-curvature="0" />
	<path style="fill:none;stroke:red;stroke-width:1px;stroke-linecap:butt;stroke-linejoin:miter;stroke-opacity:1" d="M 992.62,159.475 992.62,176.375 z" id="boundary" inkscape:connector-curvature="0" />
	<path style="fill:none;stroke:red;stroke-width:1px;stroke-linecap:butt;stroke-linejoin:miter;stroke-opacity:1" d="M 992.62,159.475 996,140.886 z" id="boundary" inkscape:connector-curvature="0" />
	<path style="fill:none;stroke:red;stroke-width:1px;stroke-linecap:butt;stroke-linejoin:miter;stroke-opacity:1" d="M 992.62,176.375 992.62,193.274 z" id="boundary" inkscape:connector-curvature="0" />
	<path style="fill:none;stroke:red;stroke-width:1px;stroke-linecap:butt;stroke-linejoin:miter;stroke-opacity:1" d="M 992.62,193.274 992.62,210.174 z" id="boundary" inkscape:connector-curvature="0" />
	<path style="fill:none;stroke:red;stroke-width:1px;stroke-linecap:butt;stroke-linejoin:miter;stroke-opacity:1" d="M 992.62,210.174 992.62,227.073 z" id="boundary" inkscape:connector-curvature="0" />
	<path style="fill:none;stroke:red;stroke-width:1px;stroke-linecap:butt;stroke-linejoin:miter;stroke-opacity:1" d="M 992.62,227.073 992.62,243.973 z" id="boundary" inkscape:connector-curvature="0" />
	<path style="fill:none;stroke:red;stroke-width:1px;stroke-linecap:butt;stroke-linejoin:miter;stroke-opacity:1" d="M 992.62,243.973 992.62,260.872 z" id="boundary" inkscape:connector-curvature="0" />
	<path style="fill:none;stroke:red;stroke-width:1px;stroke-linecap:butt;stroke-linejoin:miter;stroke-opacity:1" d="M 992.62,260.872 992.62,277.772 z" id="boundary" inkscape:connector-curvature="0" />
	<path style="fill:none;stroke:red;stroke-width:1px;stroke-linecap:butt;stroke-linejoin:miter;stroke-opacity:1" d="M 992.62,277.772 992.62,294.671 z" id="boundary" inkscape:connector-curvature="0" />
	<path style="fill:none;stroke:red;stroke-width:1px;stroke-linecap:butt;stroke-linejoin:miter;stroke-opacity:1" d="M 992.62,294.671 996,311.571 z" id="boundary" inkscape:connector-curvature="0" />
	<path style="fill:none;stroke:red;stroke-width:1px;stroke-linecap:butt;stroke-linejoin:miter;stroke-opacity:1" d="M 992.62,456.906 996,440.007 z" id="boundary" inkscape:connector-curvature="0" />
	<path style="fill:none;stroke:red;stroke-width:1px;stroke-linecap:butt;stroke-linejoin:miter;stroke-opacity:1" d="M 996,311.571 996,328.47 z" id="boundary" inkscape:connector-curvature="0" />
	<path style="fill:none;stroke:red;stroke-width:1px;stroke-linecap:butt;stroke-linejoin:miter;stroke-opacity:1" d="M 996,328.47 996,345.37 z" id="boundary" inkscape:connector-curvature="0" />
	<path style="fill:none;stroke:red;stroke-width:1px;stroke-linecap:butt;stroke-linejoin:miter;stroke-opacity:1" d="M 996,345.37 996,362.269 z" id="boundary" inkscape:connector-curvature="0" />
	<path style="fill:none;stroke:red;stroke-width:1px;stroke-linecap:butt;stroke-linejoin:miter;stroke-opacity:1" d="M 996,362.269 996,379.169 z" id="boundary" inkscape:connector-curvature="0" />
	<path style="fill:none;stroke:red;stroke-width:1px;stroke-linecap:butt;stroke-linejoin:miter;stroke-opacity:1" d="M 996,379.169 996,396.068 z" id="boundary" inkscape:connector-curvature="0" />
	<path style="fill:none;stroke:red;stroke-width:1px;stroke-linecap:butt;stroke-linejoin:miter;stroke-opacity:1" d="M 996,396.068 996,423.107 z" id="boundary" inkscape:connector-curvature="0" />
	<path style="fill:none;stroke:red;stroke-width:1px;stroke-linecap:butt;stroke-linejoin:miter;stroke-opacity:1" d="M 996,423.107 996,440.007 z" id="boundary" inkscape:connector-curvature="0" />
	<circle cx="4" cy="325.09" r="4" fill="#0" id="circle0"/>
	<circle cx="4" cy="341.99" r="4" fill="#0" id="circle1"/>
	<circle cx="4" cy="483.945" r="4" fill="#0" id="circle2"/>
	<circle cx="7.3799" cy="517.744" r="4" fill="#0" id="circle3"/>
	<circle cx="10.7598" cy="358.889" r="4" fill="#0" id="circle4"/>
	<circle cx="10.7598" cy="375.789" r="4" fill="#0" id="circle5"/>
	<circle cx="10.7598" cy="460.286" r="4" fill="#0" id="circle6"/>
	<circle cx="10.7598" cy="500.845" r="4" fill="#0" id="circle7"/>
	<circle cx="12.4497" cy="309.881" r="4" fill="#0" id="circle8"/>
	<circle cx="15.8296" cy="392.688" r="4" fill="#0" id="circle9"/>
	<circle cx="17.5196" cy="409.588" r="4" fill="#0" id="circle10"/>
	<circle cx="17.5196" cy="426.487" r="4" fill="#0" id="circle11"/>
	<circle cx="17.5196" cy="443.387" r="4" fill="#0" id="circle12"/>
	<circle cx="22.5894" cy="480.566" r="4" fill="#0" id="circle13"/>
	<circle cx="24.2794" cy="294.671" r="4" fill="#0" id="circle14"/>
	<circle cx="29.3492" cy="463.666" r="4" fill="#0" id="circle15"/>
	<circle cx="41.1789" cy="287.911" r="4" fill="#0" id="circle16"/>
	<circle cx="46.2487" cy="468.736" r="4" fill="#0" id="circle17"/>
	<circle cx="54.6985" cy="277.772" r="4" fill="#0" id="circle18"/>
	<circle cx="63.1482" cy="463.666" r="4" fill="#0" id="circle19"/>
	<circle cx="71.598" cy="274.392" r="4" fill="#0" id="circle20"/>
	<circle cx="80.0477" cy="458.596" r="4" fill="#0" id="circle21"/>
	<circle cx="88.4974" cy="271.012" r="4" fill="#0" id="circle22"/>
	<circle cx="91.8773" cy="472.116" r="4" fill="#0" id="circle23"/>
	<circle cx="95.2572" cy="254.112" r="4" fill="#0" id="circle24"/>
	<circle cx="105.397" cy="483.945" r="4" fill="#0" id="circle25"/>
	<circle cx="108.777" cy="240.593" r="4" fill="#0" id="circle26"/>
	<circle cx="120.606" cy="492.395" r="4" fill="#0" id="circle27"/>
	<circle cx="122.296" cy="230.453" r="4" fill="#0" id="circle28"/>
	<circle cx="137.506" cy="489.015" r="4" fill="#0" id="circle29"/>
	<circle cx="139.196" cy="237.213" r="4" fill="#0" id="circle30"/>
	<circle cx="147.646" cy="252.422" r="4" fill="#0" id="circle31"/>
	<circle cx="151.026" cy="477.186" r="4" fill="#0" id="circle32"/>
	<circle cx="161.165" cy="264.252" r="4" fill="#0" id="circle33"/>
	<circle cx="164.545" cy="463.666" r="4" fill="#0" id="circle34"/>
	<circle cx="174.685" cy="274.392" r="4" fill="#0" id="circle35"/>
	<circle cx="181.445" cy="461.976" r="4" fill="#0" id="circle36"/>
	<circle cx="191.584" cy="277.772" r="4" fill="#0" id="circle37"/>
	<circle cx="191.584" cy="475.496" r="4" fill="#0" id="circle38"/>
	<circle cx="205.104" cy="465.356" r="4" fill="#0" id="circle39"/>
	<circle cx="208.484" cy="284.532" r="4" fill="#0" id="circle40"/>
	<circle cx="220.313" cy="473.806" r="4" fill="#0" id="circle41"/>
	<circle cx="220.313" cy="490.705" r="4" fill="#0" id="circle42"/>
	<circle cx="220.313" cy="517.744" r="4" fill="#0" id="circle43"/>
	<circle cx="223.693" cy="292.981" r="4" fill="#0" id="circle44"/>
	<circle cx="235.523" cy="306.501" r="4" fill="#0" id="circle45"/>
	<circle cx="237.213" cy="509.295" r="4" fill="#0" id="circle46"/>
	<circle cx="238.903" cy="477.186" r="4" fill="#0" id="circle47"/>
	<circle cx="245.663" cy="453.526" r="4" fill="#0" id="circle48"/>
	<circle cx="252.422" cy="308.191" r="4" fill="#0" id="circle49"/>
	<circle cx="262.562" cy="451.836" r="4" fill="#0" id="circle50"/>
	<circle cx="269.322" cy="308.191" r="4" fill="#0" id="circle51"/>
	<circle cx="279.462" cy="451.836" r="4" fill="#0" id="circle52"/>
	<circle cx="286.221" cy="308.191" r="4" fill="#0" id="circle53"/>
	<circle cx="296.361" cy="451.836" r="4" fill="#0" id="circle54"/>
	<circle cx="303.121" cy="308.191" r="4" fill="#0" id="circle55"/>
	<circle cx="313.261" cy="451.836" r="4" fill="#0" id="circle56"/>
	<circle cx="320.02" cy="308.191" r="4" fill="#0" id="circle57"/>
	<circle cx="330.16" cy="451.836" r="4" fill="#0" id="circle58"/>
	<circle cx="336.92" cy="306.501" r="4" fill="#0" id="circle59"/>
	<circle cx="347.06" cy="451.836" r="4" fill="#0" id="circle60"/>
	<circle cx="353.819" cy="304.811" r="4" fill="#0" id="circle61"/>
	<circle cx="363.959" cy="451.836" r="4" fill="#0" id="circle62"/>
	<circle cx="370.719" cy="304.811" r="4" fill="#0" id="circle63"/>
	<circle cx="380.859" cy="451.836" r="4" fill="#0" id="circle64"/>
	<circle cx="387.618" cy="304.811" r="4" fill="#0" id="circle65"/>
	<circle cx="397.758" cy="451.836" r="4" fill="#0" id="circle66"/>
	<circle cx="404.518" cy="304.811" r="4" fill="#0" id="circle67"/>
	<circle cx="414.658" cy="451.836" r="4" fill="#0" id="circle68"/>
	<circle cx="421.417" cy="304.811" r="4" fill="#0" id="circle69"/>
	<circle cx="431.557" cy="451.836" r="4" fill="#0" id="circle70"/>
	<circle cx="438.317" cy="304.811" r="4" fill="#0" id="circle71"/>
	<circle cx="448.457" cy="451.836" r="4" fill="#0" id="circle72"/>
	<circle cx="455.216" cy="304.811" r="4" fill="#0" id="circle73"/>
	<circle cx="465.356" cy="451.836" r="4" fill="#0" id="circle74"/>
	<circle cx="472.116" cy="304.811" r="4" fill="#0" id="circle75"/>
	<circle cx="482.256" cy="451.836" r="4" fill="#0" id="circle76"/>
	<circle cx="489.015" cy="304.811" r="4" fill="#0" id="circle77"/>
	<circle cx="499.155" cy="451.836" r="4" fill="#0" id="circle78"/>
	<circle cx="505.915" cy="304.811" r="4" fill="#0" id="circle79"/>
	<circle cx="516.055" cy="451.836" r="4" fill="#0" id="circle80"/>
	<circle cx="522.814" cy="304.811" r="4" fill="#0" id="circle81"/>
	<circle cx="532.954" cy="451.836" r="4" fill="#0" id="circle82"/>
	<circle cx="539.714" cy="304.811" r="4" fill="#0" id="circle83"/>
	<circle cx="549.853" cy="451.836" r="4" fill="#0" id="circle84"/>
	<circle cx="556.613" cy="301.431" r="4" fill="#0" id="circle85"/>
	<circle cx="566.753" cy="451.836" r="4" fill="#0" id="circle86"/>
	<circle cx="568.443" cy="287.911" r="4" fill="#0" id="circle87"/>
	<circle cx="578.583" cy="274.392" r="4" fill="#0" id="circle88"/>
	<circle cx="583.652" cy="451.836" r="4" fill="#0" id="circle89"/>
	<circle cx="588.722" cy="260.872" r="4" fill="#0" id="circle90"/>
	<circle cx="600.552" cy="451.836" r="4" fill="#0" id="circle91"/>
	<circle cx="602.242" cy="250.733" r="4" fill="#0" id="circle92"/>
	<circle cx="615.761" cy="240.593" r="4" fill="#0" id="circle93"/>
	<circle cx="617.451" cy="451.836" r="4" fill="#0" id="circle94"/>
	<circle cx="629.281" cy="230.453" r="4" fill="#0" id="circle95"/>
	<circle cx="634.351" cy="451.836" r="4" fill="#0" id="circle96"/>
	<circle cx="646.181" cy="223.693" r="4" fill="#0" id="circle97"/>
	<circle cx="651.25" cy="451.836" r="4" fill="#0" id="circle98"/>
	<circle cx="663.08" cy="216.934" r="4" fill="#0" id="circle99"/>
	<circle cx="668.15" cy="451.836" r="4" fill="#0" id="circle100"/>
	<circle cx="679.98" cy="213.554" r="4" fill="#0" id="circle101"/>
	<circle cx="685.049" cy="451.836" r="4" fill="#0" id="circle102"/>
	<circle cx="696.879" cy="213.554" r="4" fill="#0" id="circle103"/>
	<circle cx="701.949" cy="451.836" r="4" fill="#0" id="circle104"/>
	<circle cx="713.779" cy="213.554" r="4" fill="#0" id="circle105"/>
	<circle cx="718.848" cy="451.836" r="4" fill="#0" id="circle106"/>
	<circle cx="730.678" cy="213.554" r="4" fill="#0" id="circle107"/>
	<circle cx="735.748" cy="451.836" r="4" fill="#0" id="circle108"/>
	<circle cx="745.888" cy="205.104" r="4" fill="#0" id="circle109"/>
	<circle cx="752.647" cy="451.836" r="4" fill="#0" id="circle110"/>
	<circle cx="762.787" cy="200.034" r="4" fill="#0" id="circle111"/>
	<circle cx="769.547" cy="451.836" r="4" fill="#0" id="circle112"/>
	<circle cx="774.617" cy="125.676" r="4" fill="#0" id="circle113"/>
	<circle cx="774.617" cy="142.576" r="4" fill="#0" id="circle114"/>
	<circle cx="774.617" cy="517.744" r="4" fill="#0" id="circle115"/>
	<circle cx="779.687" cy="196.654" r="4" fill="#0" id="circle116"/>
	<circle cx="781.376" cy="465.356" r="4" fill="#0" id="circle117"/>
	<circle cx="781.376" cy="482.256" r="4" fill="#0" id="circle118"/>
	<circle cx="781.376" cy="499.155" r="4" fill="#0" id="circle119"/>
	<circle cx="784.756" cy="108.777" r="4" fill="#0" id="circle120"/>
	<circle cx="784.756" cy="156.095" r="4" fill="#0" id="circle121"/>
	<circle cx="788.136" cy="172.995" r="4" fill="#0" id="circle122"/>
	<circle cx="791.516" cy="519.434" r="4" fill="#0" id="circle123"/>
	<circle cx="796.586" cy="473.806" r="4" fill="#0" id="circle124"/>
	<circle cx="798.276" cy="95.2572" r="4" fill="#0" id="circle125"/>
	<circle cx="799.966" cy="456.906" r="4" fill="#0" id="circle126"/>
	<circle cx="811.796" cy="85.1175" r="4" fill="#0" id="circle127"/>
	<circle cx="816.865" cy="451.836" r="4" fill="#0" id="circle128"/>
	<circle cx="825.315" cy="74.9779" r="4" fill="#0" id="circle129"/>
	<circle cx="833.765" cy="451.836" r="4" fill="#0" id="circle130"/>
	<circle cx="842.215" cy="54.6985" r="4" fill="#0" id="circle131"/>
	<circle cx="850.664" cy="451.836" r="4" fill="#0" id="circle132"/>
	<circle cx="852.354" cy="41.1789" r="4" fill="#0" id="circle133"/>
	<circle cx="862.494" cy="20.8995" r="4" fill="#0" id="circle134"/>
	<circle cx="867.564" cy="451.836" r="4" fill="#0" id="circle135"/>
	<circle cx="872.634" cy="4" r="4" fill="#0" id="circle136"/>
	<circle cx="884.463" cy="451.836" r="4" fill="#0" id="circle137"/>
	<circle cx="887.843" cy="12.4497" r="4" fill="#0" id="circle138"/>
	<circle cx="894.603" cy="29.3492" r="4" fill="#0" id="circle139"/>
	<circle cx="901.363" cy="451.836" r="4" fill="#0" id="circle140"/>
	<circle cx="908.123" cy="41.1789" r="4" fill="#0" id="circle141"/>
	<circle cx="914.882" cy="58.0784" r="4" fill="#0" id="circle142"/>
	<circle cx="918.262" cy="451.836" r="4" fill="#0" id="circle143"/>
	<circle cx="928.402" cy="68.2181" r="4" fill="#0" id="circle144"/>
	<circle cx="935.162" cy="451.836" r="4" fill="#0" id="circle145"/>
	<circle cx="945.302" cy="74.9779" r="4" fill="#0" id="circle146"/>
	<circle cx="952.061" cy="451.836" r="4" fill="#0" id="circle147"/>
	<circle cx="958.821" cy="85.1175" r="4" fill="#0" id="circle148"/>
	<circle cx="967.271" cy="467.046" r="4" fill="#0" id="circle149"/>
	<circle cx="970.651" cy="483.945" r="4" fill="#0" id="circle150"/>
	<circle cx="970.651" cy="517.744" r="4" fill="#0" id="circle151"/>
	<circle cx="972.341" cy="95.2572" r="4" fill="#0" id="circle152"/>
	<circle cx="975.721" cy="451.836" r="4" fill="#0" id="circle153"/>
	<circle cx="975.721" cy="500.845" r="4" fill="#0" id="circle154"/>
	<circle cx="984.17" cy="108.777" r="4" fill="#0" id="circle155"/>
	<circle cx="985.86" cy="473.806" r="4" fill="#0" id="circle156"/>
	<circle cx="992.62" cy="123.986" r="4" fill="#0" id="circle157"/>
	<circle cx="992.62" cy="159.475" r="4" fill="#0" id="circle158"/>
	<circle cx="992.62" cy="176.375" r="4" fill="#0" id="circle159"/>
	<circle cx="992.62" cy="193.274" r="4" fill="#0" id="circle160"/>
	<circle cx="992.62" cy="210.174" r="4" fill="#0" id="circle161"/>
	<circle cx="992.62" cy="227.073" r="4" fill="#0" id="circle162"/>
	<circle cx="992.62" cy="243.973" r="4" fill="#0" id="circle163"/>
	<circle cx="992.62" cy="260.872" r="4" fill="#0" id="circle164"/>
	<circle cx="992.62" cy="277.772" r="4" fill="#0" id="circle165"/>
	<circle cx="992.62" cy="294.671" r="4" fill="#0" id="circle166"/>
	<circle cx="992.62" cy="456.906" r="4" fill="#0" id="circle167"/>
	<circle cx="996" cy="140.886" r="4" fill="#0" id="circle168"/>
	<circle cx="996" cy="311.571" r="4" fill="#0" id="circle169"/>
	<circle cx="996" cy="328.47" r="4" fill="#0" id="circle170"/>
	<circle cx="996" cy="345.37" r="4" fill="#0" id="circle171"/>
	<circle cx="996" cy="362.269" r="4" fill="#0" id="circle172"/>
	<circle cx="996" cy="379.169" r="4" fill="#0" id="circle173"/>
	<circle cx="996" cy="396.068" r="4" fill="#0" id="circle174"/>
	<circle cx="996" cy="423.107" r="4" fill="#0" id="circle175"/>
	<circle cx="996" cy="440.007" r="4" fill="#0" id="circle176"/>
	</g>
</svg>