<?xml version="1.0" encoding="UTF-8" standalone="no"?>
<!-- Created with CurveBenchmark -->
<svg
	xmlns:dc="http://purl.org/dc/elements/1.1/"
	xmlns:cc="http://creativecommons.org/ns#"
	xmlns:rdf="http://www.w3.org/1999/02/22-rdf-syntax-ns#"
	xmlns:svg="http://www.w3.org/2000/svg"
	xmlns="http://www.w3.org/2000/svg"
	xmlns:sodipodi="http://sodipodi.sourceforge.net/DTD/sodipodi-0.dtd"
	xmlns:inkscape="http://www.inkscape.org/namespaces/inkscape"
	width="1000"
	height="1000"
	id="svg2"
	version="1.1"
	sodipodi:docname="manifold/hnncrust-Misk12.png.txt">
<defs
	id="defs4" />
<metadata
	id="metadata7">
	<rdf:RDF>
		<cc:Work
			rdf:about="">
			<dc:format>image/svg+xml</dc:format>
			<dc:type
				rdf:resource="http://purl.org/dc/dcmitype/StillImage" />
			<dc:title></dc:title>
		</cc:Work>
	</rdf:RDF>
</metadata>
<g
	inkscape:label="Layer 1"
	inkscape:groupmode="layer"
	id="layer1">
	<path style="fill:none;stroke:red;stroke-width:1px;stroke-linecap:butt;stroke-linejoin:miter;stroke-opacity:1" d="M 4,190.516 4,207.022 z" id="boundary" inkscape:connector-curvature="0" />
	<path style="fill:none;stroke:red;stroke-width:1px;stroke-linecap:butt;stroke-linejoin:miter;stroke-opacity:1" d="M 4,190.516 17.2047,177.311 z" id="boundary" inkscape:connector-curvature="0" />
	<path style="fill:none;stroke:red;stroke-width:1px;stroke-linecap:butt;stroke-linejoin:miter;stroke-opacity:1" d="M 4,207.022 12.2529,221.877 z" id="boundary" inkscape:connector-curvature="0" />
	<path style="fill:none;stroke:red;stroke-width:1px;stroke-linecap:butt;stroke-linejoin:miter;stroke-opacity:1" d="M 12.2529,221.877 23.807,235.082 z" id="boundary" inkscape:connector-curvature="0" />
	<path style="fill:none;stroke:red;stroke-width:1px;stroke-linecap:butt;stroke-linejoin:miter;stroke-opacity:1" d="M 17.2047,177.311 32.0599,169.058 z" id="boundary" inkscape:connector-curvature="0" />
	<path style="fill:none;stroke:red;stroke-width:1px;stroke-linecap:butt;stroke-linejoin:miter;stroke-opacity:1" d="M 23.807,235.082 40.3128,241.684 z" id="boundary" inkscape:connector-curvature="0" />
	<path style="fill:none;stroke:red;stroke-width:1px;stroke-linecap:butt;stroke-linejoin:miter;stroke-opacity:1" d="M 32.0599,169.058 46.9151,160.805 z" id="boundary" inkscape:connector-curvature="0" />
	<path style="fill:none;stroke:red;stroke-width:1px;stroke-linecap:butt;stroke-linejoin:miter;stroke-opacity:1" d="M 40.3128,241.684 53.5175,253.238 z" id="boundary" inkscape:connector-curvature="0" />
	<path style="fill:none;stroke:red;stroke-width:1px;stroke-linecap:butt;stroke-linejoin:miter;stroke-opacity:1" d="M 46.9151,160.805 61.7704,152.552 z" id="boundary" inkscape:connector-curvature="0" />
	<path style="fill:none;stroke:red;stroke-width:1px;stroke-linecap:butt;stroke-linejoin:miter;stroke-opacity:1" d="M 53.5175,253.238 63.421,266.443 z" id="boundary" inkscape:connector-curvature="0" />
	<path style="fill:none;stroke:red;stroke-width:1px;stroke-linecap:butt;stroke-linejoin:miter;stroke-opacity:1" d="M 61.7704,152.552 76.6256,144.3 z" id="boundary" inkscape:connector-curvature="0" />
	<path style="fill:none;stroke:red;stroke-width:1px;stroke-linecap:butt;stroke-linejoin:miter;stroke-opacity:1" d="M 63.421,266.443 76.6256,277.997 z" id="boundary" inkscape:connector-curvature="0" />
	<path style="fill:none;stroke:red;stroke-width:1px;stroke-linecap:butt;stroke-linejoin:miter;stroke-opacity:1" d="M 76.6256,144.3 88.1797,131.095 z" id="boundary" inkscape:connector-curvature="0" />
	<path style="fill:none;stroke:red;stroke-width:1px;stroke-linecap:butt;stroke-linejoin:miter;stroke-opacity:1" d="M 76.6256,277.997 86.5291,291.201 z" id="boundary" inkscape:connector-curvature="0" />
	<path style="fill:none;stroke:red;stroke-width:1px;stroke-linecap:butt;stroke-linejoin:miter;stroke-opacity:1" d="M 86.5291,291.201 94.782,306.057 z" id="boundary" inkscape:connector-curvature="0" />
	<path style="fill:none;stroke:red;stroke-width:1px;stroke-linecap:butt;stroke-linejoin:miter;stroke-opacity:1" d="M 88.1797,131.095 101.384,119.541 z" id="boundary" inkscape:connector-curvature="0" />
	<path style="fill:none;stroke:red;stroke-width:1px;stroke-linecap:butt;stroke-linejoin:miter;stroke-opacity:1" d="M 94.782,306.057 107.987,317.611 z" id="boundary" inkscape:connector-curvature="0" />
	<path style="fill:none;stroke:red;stroke-width:1px;stroke-linecap:butt;stroke-linejoin:miter;stroke-opacity:1" d="M 101.384,119.541 112.938,106.336 z" id="boundary" inkscape:connector-curvature="0" />
	<path style="fill:none;stroke:red;stroke-width:1px;stroke-linecap:butt;stroke-linejoin:miter;stroke-opacity:1" d="M 107.987,317.611 111.288,334.116 z" id="boundary" inkscape:connector-curvature="0" />
	<path style="fill:none;stroke:red;stroke-width:1px;stroke-linecap:butt;stroke-linejoin:miter;stroke-opacity:1" d="M 111.288,334.116 119.541,348.972 z" id="boundary" inkscape:connector-curvature="0" />
	<path style="fill:none;stroke:red;stroke-width:1px;stroke-linecap:butt;stroke-linejoin:miter;stroke-opacity:1" d="M 112.938,106.336 126.143,94.782 z" id="boundary" inkscape:connector-curvature="0" />
	<path style="fill:none;stroke:red;stroke-width:1px;stroke-linecap:butt;stroke-linejoin:miter;stroke-opacity:1" d="M 119.541,348.972 127.794,363.827 z" id="boundary" inkscape:connector-curvature="0" />
	<path style="fill:none;stroke:red;stroke-width:1px;stroke-linecap:butt;stroke-linejoin:miter;stroke-opacity:1" d="M 126.143,94.782 140.998,86.5291 z" id="boundary" inkscape:connector-curvature="0" />
	<path style="fill:none;stroke:red;stroke-width:1px;stroke-linecap:butt;stroke-linejoin:miter;stroke-opacity:1" d="M 127.794,363.827 127.794,380.333 z" id="boundary" inkscape:connector-curvature="0" />
	<path style="fill:none;stroke:red;stroke-width:1px;stroke-linecap:butt;stroke-linejoin:miter;stroke-opacity:1" d="M 127.794,380.333 127.794,396.839 z" id="boundary" inkscape:connector-curvature="0" />
	<path style="fill:none;stroke:red;stroke-width:1px;stroke-linecap:butt;stroke-linejoin:miter;stroke-opacity:1" d="M 127.794,396.839 127.794,413.344 z" id="boundary" inkscape:connector-curvature="0" />
	<path style="fill:none;stroke:red;stroke-width:1px;stroke-linecap:butt;stroke-linejoin:miter;stroke-opacity:1" d="M 127.794,413.344 127.794,429.85 z" id="boundary" inkscape:connector-curvature="0" />
	<path style="fill:none;stroke:red;stroke-width:1px;stroke-linecap:butt;stroke-linejoin:miter;stroke-opacity:1" d="M 127.794,429.85 127.794,446.356 z" id="boundary" inkscape:connector-curvature="0" />
	<path style="fill:none;stroke:red;stroke-width:1px;stroke-linecap:butt;stroke-linejoin:miter;stroke-opacity:1" d="M 127.794,446.356 127.794,462.862 z" id="boundary" inkscape:connector-curvature="0" />
	<path style="fill:none;stroke:red;stroke-width:1px;stroke-linecap:butt;stroke-linejoin:miter;stroke-opacity:1" d="M 127.794,462.862 127.794,479.368 z" id="boundary" inkscape:connector-curvature="0" />
	<path style="fill:none;stroke:red;stroke-width:1px;stroke-linecap:butt;stroke-linejoin:miter;stroke-opacity:1" d="M 127.794,479.368 136.047,494.223 z" id="boundary" inkscape:connector-curvature="0" />
	<path style="fill:none;stroke:red;stroke-width:1px;stroke-linecap:butt;stroke-linejoin:miter;stroke-opacity:1" d="M 136.047,494.223 147.601,507.428 z" id="boundary" inkscape:connector-curvature="0" />
	<path style="fill:none;stroke:red;stroke-width:1px;stroke-linecap:butt;stroke-linejoin:miter;stroke-opacity:1" d="M 140.998,86.5291 154.203,73.3245 z" id="boundary" inkscape:connector-curvature="0" />
	<path style="fill:none;stroke:red;stroke-width:1px;stroke-linecap:butt;stroke-linejoin:miter;stroke-opacity:1" d="M 147.601,507.428 164.106,500.825 z" id="boundary" inkscape:connector-curvature="0" />
	<path style="fill:none;stroke:red;stroke-width:1px;stroke-linecap:butt;stroke-linejoin:miter;stroke-opacity:1" d="M 154.203,73.3245 167.408,61.7704 z" id="boundary" inkscape:connector-curvature="0" />
	<path style="fill:none;stroke:red;stroke-width:1px;stroke-linecap:butt;stroke-linejoin:miter;stroke-opacity:1" d="M 164.106,500.825 180.612,500.825 z" id="boundary" inkscape:connector-curvature="0" />
	<path style="fill:none;stroke:red;stroke-width:1px;stroke-linecap:butt;stroke-linejoin:miter;stroke-opacity:1" d="M 167.408,61.7704 182.263,53.5175 z" id="boundary" inkscape:connector-curvature="0" />
	<path style="fill:none;stroke:red;stroke-width:1px;stroke-linecap:butt;stroke-linejoin:miter;stroke-opacity:1" d="M 180.612,500.825 197.118,500.825 z" id="boundary" inkscape:connector-curvature="0" />
	<path style="fill:none;stroke:red;stroke-width:1px;stroke-linecap:butt;stroke-linejoin:miter;stroke-opacity:1" d="M 182.263,53.5175 198.769,45.2646 z" id="boundary" inkscape:connector-curvature="0" />
	<path style="fill:none;stroke:red;stroke-width:1px;stroke-linecap:butt;stroke-linejoin:miter;stroke-opacity:1" d="M 197.118,500.825 213.624,500.825 z" id="boundary" inkscape:connector-curvature="0" />
	<path style="fill:none;stroke:red;stroke-width:1px;stroke-linecap:butt;stroke-linejoin:miter;stroke-opacity:1" d="M 198.769,45.2646 213.624,37.0116 z" id="boundary" inkscape:connector-curvature="0" />
	<path style="fill:none;stroke:red;stroke-width:1px;stroke-linecap:butt;stroke-linejoin:miter;stroke-opacity:1" d="M 213.624,37.0116 228.479,28.7587 z" id="boundary" inkscape:connector-curvature="0" />
	<path style="fill:none;stroke:red;stroke-width:1px;stroke-linecap:butt;stroke-linejoin:miter;stroke-opacity:1" d="M 213.624,500.825 228.479,509.078 z" id="boundary" inkscape:connector-curvature="0" />
	<path style="fill:none;stroke:red;stroke-width:1px;stroke-linecap:butt;stroke-linejoin:miter;stroke-opacity:1" d="M 228.479,28.7587 243.334,20.5058 z" id="boundary" inkscape:connector-curvature="0" />
	<path style="fill:none;stroke:red;stroke-width:1px;stroke-linecap:butt;stroke-linejoin:miter;stroke-opacity:1" d="M 228.479,509.078 243.334,517.331 z" id="boundary" inkscape:connector-curvature="0" />
	<path style="fill:none;stroke:red;stroke-width:1px;stroke-linecap:butt;stroke-linejoin:miter;stroke-opacity:1" d="M 235.082,834.243 235.082,850.749 z" id="boundary" inkscape:connector-curvature="0" />
	<path style="fill:none;stroke:red;stroke-width:1px;stroke-linecap:butt;stroke-linejoin:miter;stroke-opacity:1" d="M 235.082,834.243 243.334,817.737 z" id="boundary" inkscape:connector-curvature="0" />
	<path style="fill:none;stroke:red;stroke-width:1px;stroke-linecap:butt;stroke-linejoin:miter;stroke-opacity:1" d="M 235.082,850.749 235.082,867.255 z" id="boundary" inkscape:connector-curvature="0" />
	<path style="fill:none;stroke:red;stroke-width:1px;stroke-linecap:butt;stroke-linejoin:miter;stroke-opacity:1" d="M 235.082,867.255 235.082,883.76 z" id="boundary" inkscape:connector-curvature="0" />
	<path style="fill:none;stroke:red;stroke-width:1px;stroke-linecap:butt;stroke-linejoin:miter;stroke-opacity:1" d="M 235.082,883.76 243.334,898.616 z" id="boundary" inkscape:connector-curvature="0" />
	<path style="fill:none;stroke:red;stroke-width:1px;stroke-linecap:butt;stroke-linejoin:miter;stroke-opacity:1" d="M 243.334,20.5058 258.19,12.2529 z" id="boundary" inkscape:connector-curvature="0" />
	<path style="fill:none;stroke:red;stroke-width:1px;stroke-linecap:butt;stroke-linejoin:miter;stroke-opacity:1" d="M 243.334,517.331 258.19,525.584 z" id="boundary" inkscape:connector-curvature="0" />
	<path style="fill:none;stroke:red;stroke-width:1px;stroke-linecap:butt;stroke-linejoin:miter;stroke-opacity:1" d="M 243.334,784.725 243.334,801.231 z" id="boundary" inkscape:connector-curvature="0" />
	<path style="fill:none;stroke:red;stroke-width:1px;stroke-linecap:butt;stroke-linejoin:miter;stroke-opacity:1" d="M 243.334,784.725 251.587,759.967 z" id="boundary" inkscape:connector-curvature="0" />
	<path style="fill:none;stroke:red;stroke-width:1px;stroke-linecap:butt;stroke-linejoin:miter;stroke-opacity:1" d="M 243.334,801.231 243.334,817.737 z" id="boundary" inkscape:connector-curvature="0" />
	<path style="fill:none;stroke:red;stroke-width:1px;stroke-linecap:butt;stroke-linejoin:miter;stroke-opacity:1" d="M 243.334,898.616 251.587,913.471 z" id="boundary" inkscape:connector-curvature="0" />
	<path style="fill:none;stroke:red;stroke-width:1px;stroke-linecap:butt;stroke-linejoin:miter;stroke-opacity:1" d="M 251.587,743.461 251.587,759.967 z" id="boundary" inkscape:connector-curvature="0" />
	<path style="fill:none;stroke:red;stroke-width:1px;stroke-linecap:butt;stroke-linejoin:miter;stroke-opacity:1" d="M 251.587,743.461 259.84,726.955 z" id="boundary" inkscape:connector-curvature="0" />
	<path style="fill:none;stroke:red;stroke-width:1px;stroke-linecap:butt;stroke-linejoin:miter;stroke-opacity:1" d="M 251.587,913.471 266.443,921.724 z" id="boundary" inkscape:connector-curvature="0" />
	<path style="fill:none;stroke:red;stroke-width:1px;stroke-linecap:butt;stroke-linejoin:miter;stroke-opacity:1" d="M 258.19,12.2529 273.045,4 z" id="boundary" inkscape:connector-curvature="0" />
	<path style="fill:none;stroke:red;stroke-width:1px;stroke-linecap:butt;stroke-linejoin:miter;stroke-opacity:1" d="M 258.19,525.584 273.045,533.837 z" id="boundary" inkscape:connector-curvature="0" />
	<path style="fill:none;stroke:red;stroke-width:1px;stroke-linecap:butt;stroke-linejoin:miter;stroke-opacity:1" d="M 259.84,726.955 268.093,702.196 z" id="boundary" inkscape:connector-curvature="0" />
	<path style="fill:none;stroke:red;stroke-width:1px;stroke-linecap:butt;stroke-linejoin:miter;stroke-opacity:1" d="M 266.443,921.724 281.298,929.977 z" id="boundary" inkscape:connector-curvature="0" />
	<path style="fill:none;stroke:red;stroke-width:1px;stroke-linecap:butt;stroke-linejoin:miter;stroke-opacity:1" d="M 268.093,685.691 268.093,702.196 z" id="boundary" inkscape:connector-curvature="0" />
	<path style="fill:none;stroke:red;stroke-width:1px;stroke-linecap:butt;stroke-linejoin:miter;stroke-opacity:1" d="M 268.093,685.691 276.346,660.932 z" id="boundary" inkscape:connector-curvature="0" />
	<path style="fill:none;stroke:red;stroke-width:1px;stroke-linecap:butt;stroke-linejoin:miter;stroke-opacity:1" d="M 273.045,4 289.551,4 z" id="boundary" inkscape:connector-curvature="0" />
	<path style="fill:none;stroke:red;stroke-width:1px;stroke-linecap:butt;stroke-linejoin:miter;stroke-opacity:1" d="M 273.045,533.837 287.9,542.09 z" id="boundary" inkscape:connector-curvature="0" />
	<path style="fill:none;stroke:red;stroke-width:1px;stroke-linecap:butt;stroke-linejoin:miter;stroke-opacity:1" d="M 276.346,660.932 284.599,636.173 z" id="boundary" inkscape:connector-curvature="0" />
	<path style="fill:none;stroke:red;stroke-width:1px;stroke-linecap:butt;stroke-linejoin:miter;stroke-opacity:1" d="M 281.298,929.977 297.804,929.977 z" id="boundary" inkscape:connector-curvature="0" />
	<path style="fill:none;stroke:red;stroke-width:1px;stroke-linecap:butt;stroke-linejoin:miter;stroke-opacity:1" d="M 284.599,636.173 292.852,611.414 z" id="boundary" inkscape:connector-curvature="0" />
	<path style="fill:none;stroke:red;stroke-width:1px;stroke-linecap:butt;stroke-linejoin:miter;stroke-opacity:1" d="M 287.9,542.09 301.105,551.993 z" id="boundary" inkscape:connector-curvature="0" />
	<path style="fill:none;stroke:red;stroke-width:1px;stroke-linecap:butt;stroke-linejoin:miter;stroke-opacity:1" d="M 289.551,4 306.057,4 z" id="boundary" inkscape:connector-curvature="0" />
	<path style="fill:none;stroke:red;stroke-width:1px;stroke-linecap:butt;stroke-linejoin:miter;stroke-opacity:1" d="M 292.852,594.908 292.852,611.414 z" id="boundary" inkscape:connector-curvature="0" />
	<path style="fill:none;stroke:red;stroke-width:1px;stroke-linecap:butt;stroke-linejoin:miter;stroke-opacity:1" d="M 292.852,594.908 301.105,568.499 z" id="boundary" inkscape:connector-curvature="0" />
	<path style="fill:none;stroke:red;stroke-width:1px;stroke-linecap:butt;stroke-linejoin:miter;stroke-opacity:1" d="M 297.804,929.977 312.659,938.23 z" id="boundary" inkscape:connector-curvature="0" />
	<path style="fill:none;stroke:red;stroke-width:1px;stroke-linecap:butt;stroke-linejoin:miter;stroke-opacity:1" d="M 301.105,551.993 301.105,568.499 z" id="boundary" inkscape:connector-curvature="0" />
	<path style="fill:none;stroke:red;stroke-width:1px;stroke-linecap:butt;stroke-linejoin:miter;stroke-opacity:1" d="M 306.057,4 322.562,4 z" id="boundary" inkscape:connector-curvature="0" />
	<path style="fill:none;stroke:red;stroke-width:1px;stroke-linecap:butt;stroke-linejoin:miter;stroke-opacity:1" d="M 312.659,938.23 327.514,946.483 z" id="boundary" inkscape:connector-curvature="0" />
	<path style="fill:none;stroke:red;stroke-width:1px;stroke-linecap:butt;stroke-linejoin:miter;stroke-opacity:1" d="M 322.562,4 339.068,4 z" id="boundary" inkscape:connector-curvature="0" />
	<path style="fill:none;stroke:red;stroke-width:1px;stroke-linecap:butt;stroke-linejoin:miter;stroke-opacity:1" d="M 327.514,946.483 342.369,954.735 z" id="boundary" inkscape:connector-curvature="0" />
	<path style="fill:none;stroke:red;stroke-width:1px;stroke-linecap:butt;stroke-linejoin:miter;stroke-opacity:1" d="M 339.068,4 355.574,4 z" id="boundary" inkscape:connector-curvature="0" />
	<path style="fill:none;stroke:red;stroke-width:1px;stroke-linecap:butt;stroke-linejoin:miter;stroke-opacity:1" d="M 342.369,954.735 358.875,954.735 z" id="boundary" inkscape:connector-curvature="0" />
	<path style="fill:none;stroke:red;stroke-width:1px;stroke-linecap:butt;stroke-linejoin:miter;stroke-opacity:1" d="M 355.574,4 372.08,4 z" id="boundary" inkscape:connector-curvature="0" />
	<path style="fill:none;stroke:red;stroke-width:1px;stroke-linecap:butt;stroke-linejoin:miter;stroke-opacity:1" d="M 358.875,954.735 373.73,962.988 z" id="boundary" inkscape:connector-curvature="0" />
	<path style="fill:none;stroke:red;stroke-width:1px;stroke-linecap:butt;stroke-linejoin:miter;stroke-opacity:1" d="M 372.08,4 388.586,4 z" id="boundary" inkscape:connector-curvature="0" />
	<path style="fill:none;stroke:red;stroke-width:1px;stroke-linecap:butt;stroke-linejoin:miter;stroke-opacity:1" d="M 373.73,962.988 388.586,971.241 z" id="boundary" inkscape:connector-curvature="0" />
	<path style="fill:none;stroke:red;stroke-width:1px;stroke-linecap:butt;stroke-linejoin:miter;stroke-opacity:1" d="M 388.586,4 403.441,12.2529 z" id="boundary" inkscape:connector-curvature="0" />
	<path style="fill:none;stroke:red;stroke-width:1px;stroke-linecap:butt;stroke-linejoin:miter;stroke-opacity:1" d="M 388.586,971.241 405.092,977.844 z" id="boundary" inkscape:connector-curvature="0" />
	<path style="fill:none;stroke:red;stroke-width:1px;stroke-linecap:butt;stroke-linejoin:miter;stroke-opacity:1" d="M 403.441,12.2529 418.296,20.5058 z" id="boundary" inkscape:connector-curvature="0" />
	<path style="fill:none;stroke:red;stroke-width:1px;stroke-linecap:butt;stroke-linejoin:miter;stroke-opacity:1" d="M 405.092,977.844 419.947,986.097 z" id="boundary" inkscape:connector-curvature="0" />
	<path style="fill:none;stroke:red;stroke-width:1px;stroke-linecap:butt;stroke-linejoin:miter;stroke-opacity:1" d="M 418.296,20.5058 431.501,30.4093 z" id="boundary" inkscape:connector-curvature="0" />
	<path style="fill:none;stroke:red;stroke-width:1px;stroke-linecap:butt;stroke-linejoin:miter;stroke-opacity:1" d="M 419.947,986.097 436.453,987.747 z" id="boundary" inkscape:connector-curvature="0" />
	<path style="fill:none;stroke:red;stroke-width:1px;stroke-linecap:butt;stroke-linejoin:miter;stroke-opacity:1" d="M 431.501,30.4093 443.055,43.614 z" id="boundary" inkscape:connector-curvature="0" />
	<path style="fill:none;stroke:red;stroke-width:1px;stroke-linecap:butt;stroke-linejoin:miter;stroke-opacity:1" d="M 436.453,987.747 452.958,987.747 z" id="boundary" inkscape:connector-curvature="0" />
	<path style="fill:none;stroke:red;stroke-width:1px;stroke-linecap:butt;stroke-linejoin:miter;stroke-opacity:1" d="M 443.055,43.614 451.308,58.4692 z" id="boundary" inkscape:connector-curvature="0" />
	<path style="fill:none;stroke:red;stroke-width:1px;stroke-linecap:butt;stroke-linejoin:miter;stroke-opacity:1" d="M 451.308,58.4692 457.91,74.975 z" id="boundary" inkscape:connector-curvature="0" />
	<path style="fill:none;stroke:red;stroke-width:1px;stroke-linecap:butt;stroke-linejoin:miter;stroke-opacity:1" d="M 452.958,987.747 467.814,996 z" id="boundary" inkscape:connector-curvature="0" />
	<path style="fill:none;stroke:red;stroke-width:1px;stroke-linecap:butt;stroke-linejoin:miter;stroke-opacity:1" d="M 457.91,74.975 466.163,89.8303 z" id="boundary" inkscape:connector-curvature="0" />
	<path style="fill:none;stroke:red;stroke-width:1px;stroke-linecap:butt;stroke-linejoin:miter;stroke-opacity:1" d="M 466.163,89.8303 467.814,106.336 z" id="boundary" inkscape:connector-curvature="0" />
	<path style="fill:none;stroke:red;stroke-width:1px;stroke-linecap:butt;stroke-linejoin:miter;stroke-opacity:1" d="M 467.814,106.336 467.814,122.842 z" id="boundary" inkscape:connector-curvature="0" />
	<path style="fill:none;stroke:red;stroke-width:1px;stroke-linecap:butt;stroke-linejoin:miter;stroke-opacity:1" d="M 467.814,122.842 476.067,137.697 z" id="boundary" inkscape:connector-curvature="0" />
	<path style="fill:none;stroke:red;stroke-width:1px;stroke-linecap:butt;stroke-linejoin:miter;stroke-opacity:1" d="M 467.814,996 484.319,996 z" id="boundary" inkscape:connector-curvature="0" />
	<path style="fill:none;stroke:red;stroke-width:1px;stroke-linecap:butt;stroke-linejoin:miter;stroke-opacity:1" d="M 476.067,137.697 476.067,154.203 z" id="boundary" inkscape:connector-curvature="0" />
	<path style="fill:none;stroke:red;stroke-width:1px;stroke-linecap:butt;stroke-linejoin:miter;stroke-opacity:1" d="M 476.067,154.203 476.067,170.709 z" id="boundary" inkscape:connector-curvature="0" />
	<path style="fill:none;stroke:red;stroke-width:1px;stroke-linecap:butt;stroke-linejoin:miter;stroke-opacity:1" d="M 476.067,170.709 476.067,187.215 z" id="boundary" inkscape:connector-curvature="0" />
	<path style="fill:none;stroke:red;stroke-width:1px;stroke-linecap:butt;stroke-linejoin:miter;stroke-opacity:1" d="M 476.067,187.215 484.319,202.07 z" id="boundary" inkscape:connector-curvature="0" />
	<path style="fill:none;stroke:red;stroke-width:1px;stroke-linecap:butt;stroke-linejoin:miter;stroke-opacity:1" d="M 484.319,202.07 484.319,218.576 z" id="boundary" inkscape:connector-curvature="0" />
	<path style="fill:none;stroke:red;stroke-width:1px;stroke-linecap:butt;stroke-linejoin:miter;stroke-opacity:1" d="M 484.319,218.576 492.572,233.431 z" id="boundary" inkscape:connector-curvature="0" />
	<path style="fill:none;stroke:red;stroke-width:1px;stroke-linecap:butt;stroke-linejoin:miter;stroke-opacity:1" d="M 484.319,996 500.825,996 z" id="boundary" inkscape:connector-curvature="0" />
	<path style="fill:none;stroke:red;stroke-width:1px;stroke-linecap:butt;stroke-linejoin:miter;stroke-opacity:1" d="M 492.572,233.431 500.825,248.286 z" id="boundary" inkscape:connector-curvature="0" />
	<path style="fill:none;stroke:red;stroke-width:1px;stroke-linecap:butt;stroke-linejoin:miter;stroke-opacity:1" d="M 500.825,248.286 512.379,261.491 z" id="boundary" inkscape:connector-curvature="0" />
	<path style="fill:none;stroke:red;stroke-width:1px;stroke-linecap:butt;stroke-linejoin:miter;stroke-opacity:1" d="M 500.825,996 517.331,996 z" id="boundary" inkscape:connector-curvature="0" />
	<path style="fill:none;stroke:red;stroke-width:1px;stroke-linecap:butt;stroke-linejoin:miter;stroke-opacity:1" d="M 509.078,756.666 509.078,773.171 z" id="boundary" inkscape:connector-curvature="0" />
	<path style="fill:none;stroke:red;stroke-width:1px;stroke-linecap:butt;stroke-linejoin:miter;stroke-opacity:1" d="M 509.078,756.666 517.331,731.907 z" id="boundary" inkscape:connector-curvature="0" />
	<path style="fill:none;stroke:red;stroke-width:1px;stroke-linecap:butt;stroke-linejoin:miter;stroke-opacity:1" d="M 509.078,773.171 517.331,788.027 z" id="boundary" inkscape:connector-curvature="0" />
	<path style="fill:none;stroke:red;stroke-width:1px;stroke-linecap:butt;stroke-linejoin:miter;stroke-opacity:1" d="M 512.379,261.491 525.584,273.045 z" id="boundary" inkscape:connector-curvature="0" />
	<path style="fill:none;stroke:red;stroke-width:1px;stroke-linecap:butt;stroke-linejoin:miter;stroke-opacity:1" d="M 517.331,731.907 525.584,715.401 z" id="boundary" inkscape:connector-curvature="0" />
	<path style="fill:none;stroke:red;stroke-width:1px;stroke-linecap:butt;stroke-linejoin:miter;stroke-opacity:1" d="M 517.331,788.027 533.837,788.027 z" id="boundary" inkscape:connector-curvature="0" />
	<path style="fill:none;stroke:red;stroke-width:1px;stroke-linecap:butt;stroke-linejoin:miter;stroke-opacity:1" d="M 517.331,996 533.837,996 z" id="boundary" inkscape:connector-curvature="0" />
	<path style="fill:none;stroke:red;stroke-width:1px;stroke-linecap:butt;stroke-linejoin:miter;stroke-opacity:1" d="M 525.584,273.045 538.789,284.599 z" id="boundary" inkscape:connector-curvature="0" />
	<path style="fill:none;stroke:red;stroke-width:1px;stroke-linecap:butt;stroke-linejoin:miter;stroke-opacity:1" d="M 525.584,715.401 542.09,707.148 z" id="boundary" inkscape:connector-curvature="0" />
	<path style="fill:none;stroke:red;stroke-width:1px;stroke-linecap:butt;stroke-linejoin:miter;stroke-opacity:1" d="M 533.837,788.027 550.343,792.978 z" id="boundary" inkscape:connector-curvature="0" />
	<path style="fill:none;stroke:red;stroke-width:1px;stroke-linecap:butt;stroke-linejoin:miter;stroke-opacity:1" d="M 533.837,996 550.343,996 z" id="boundary" inkscape:connector-curvature="0" />
	<path style="fill:none;stroke:red;stroke-width:1px;stroke-linecap:butt;stroke-linejoin:miter;stroke-opacity:1" d="M 538.789,284.599 555.295,284.599 z" id="boundary" inkscape:connector-curvature="0" />
	<path style="fill:none;stroke:red;stroke-width:1px;stroke-linecap:butt;stroke-linejoin:miter;stroke-opacity:1" d="M 542.09,707.148 555.295,695.594 z" id="boundary" inkscape:connector-curvature="0" />
	<path style="fill:none;stroke:red;stroke-width:1px;stroke-linecap:butt;stroke-linejoin:miter;stroke-opacity:1" d="M 550.343,792.978 566.849,796.28 z" id="boundary" inkscape:connector-curvature="0" />
	<path style="fill:none;stroke:red;stroke-width:1px;stroke-linecap:butt;stroke-linejoin:miter;stroke-opacity:1" d="M 550.343,996 565.198,987.747 z" id="boundary" inkscape:connector-curvature="0" />
	<path style="fill:none;stroke:red;stroke-width:1px;stroke-linecap:butt;stroke-linejoin:miter;stroke-opacity:1" d="M 555.295,284.599 570.15,276.346 z" id="boundary" inkscape:connector-curvature="0" />
	<path style="fill:none;stroke:red;stroke-width:1px;stroke-linecap:butt;stroke-linejoin:miter;stroke-opacity:1" d="M 555.295,695.594 571.8,690.642 z" id="boundary" inkscape:connector-curvature="0" />
	<path style="fill:none;stroke:red;stroke-width:1px;stroke-linecap:butt;stroke-linejoin:miter;stroke-opacity:1" d="M 565.198,987.747 581.704,987.747 z" id="boundary" inkscape:connector-curvature="0" />
	<path style="fill:none;stroke:red;stroke-width:1px;stroke-linecap:butt;stroke-linejoin:miter;stroke-opacity:1" d="M 566.849,796.28 581.704,804.532 z" id="boundary" inkscape:connector-curvature="0" />
	<path style="fill:none;stroke:red;stroke-width:1px;stroke-linecap:butt;stroke-linejoin:miter;stroke-opacity:1" d="M 570.15,276.346 586.656,276.346 z" id="boundary" inkscape:connector-curvature="0" />
	<path style="fill:none;stroke:red;stroke-width:1px;stroke-linecap:butt;stroke-linejoin:miter;stroke-opacity:1" d="M 571.8,690.642 588.306,690.642 z" id="boundary" inkscape:connector-curvature="0" />
	<path style="fill:none;stroke:red;stroke-width:1px;stroke-linecap:butt;stroke-linejoin:miter;stroke-opacity:1" d="M 581.704,804.532 598.21,804.532 z" id="boundary" inkscape:connector-curvature="0" />
	<path style="fill:none;stroke:red;stroke-width:1px;stroke-linecap:butt;stroke-linejoin:miter;stroke-opacity:1" d="M 581.704,987.747 598.21,982.795 z" id="boundary" inkscape:connector-curvature="0" />
	<path style="fill:none;stroke:red;stroke-width:1px;stroke-linecap:butt;stroke-linejoin:miter;stroke-opacity:1" d="M 586.656,276.346 599.86,263.141 z" id="boundary" inkscape:connector-curvature="0" />
	<path style="fill:none;stroke:red;stroke-width:1px;stroke-linecap:butt;stroke-linejoin:miter;stroke-opacity:1" d="M 588.306,690.642 603.161,682.389 z" id="boundary" inkscape:connector-curvature="0" />
	<path style="fill:none;stroke:red;stroke-width:1px;stroke-linecap:butt;stroke-linejoin:miter;stroke-opacity:1" d="M 598.21,804.532 614.715,807.834 z" id="boundary" inkscape:connector-curvature="0" />
	<path style="fill:none;stroke:red;stroke-width:1px;stroke-linecap:butt;stroke-linejoin:miter;stroke-opacity:1" d="M 598.21,982.795 614.715,974.542 z" id="boundary" inkscape:connector-curvature="0" />
	<path style="fill:none;stroke:red;stroke-width:1px;stroke-linecap:butt;stroke-linejoin:miter;stroke-opacity:1" d="M 599.86,263.141 613.065,251.587 z" id="boundary" inkscape:connector-curvature="0" />
	<path style="fill:none;stroke:red;stroke-width:1px;stroke-linecap:butt;stroke-linejoin:miter;stroke-opacity:1" d="M 603.161,682.389 619.667,688.992 z" id="boundary" inkscape:connector-curvature="0" />
	<path style="fill:none;stroke:red;stroke-width:1px;stroke-linecap:butt;stroke-linejoin:miter;stroke-opacity:1" d="M 613.065,251.587 627.92,243.334 z" id="boundary" inkscape:connector-curvature="0" />
	<path style="fill:none;stroke:red;stroke-width:1px;stroke-linecap:butt;stroke-linejoin:miter;stroke-opacity:1" d="M 614.715,807.834 631.221,812.785 z" id="boundary" inkscape:connector-curvature="0" />
	<path style="fill:none;stroke:red;stroke-width:1px;stroke-linecap:butt;stroke-linejoin:miter;stroke-opacity:1" d="M 614.715,974.542 631.221,971.241 z" id="boundary" inkscape:connector-curvature="0" />
	<path style="fill:none;stroke:red;stroke-width:1px;stroke-linecap:butt;stroke-linejoin:miter;stroke-opacity:1" d="M 619.667,688.992 636.173,690.642 z" id="boundary" inkscape:connector-curvature="0" />
	<path style="fill:none;stroke:red;stroke-width:1px;stroke-linecap:butt;stroke-linejoin:miter;stroke-opacity:1" d="M 627.92,243.334 644.426,243.334 z" id="boundary" inkscape:connector-curvature="0" />
	<path style="fill:none;stroke:red;stroke-width:1px;stroke-linecap:butt;stroke-linejoin:miter;stroke-opacity:1" d="M 631.221,812.785 646.077,821.038 z" id="boundary" inkscape:connector-curvature="0" />
	<path style="fill:none;stroke:red;stroke-width:1px;stroke-linecap:butt;stroke-linejoin:miter;stroke-opacity:1" d="M 631.221,971.241 646.077,962.988 z" id="boundary" inkscape:connector-curvature="0" />
	<path style="fill:none;stroke:red;stroke-width:1px;stroke-linecap:butt;stroke-linejoin:miter;stroke-opacity:1" d="M 636.173,690.642 651.028,698.895 z" id="boundary" inkscape:connector-curvature="0" />
	<path style="fill:none;stroke:red;stroke-width:1px;stroke-linecap:butt;stroke-linejoin:miter;stroke-opacity:1" d="M 644.426,243.334 659.281,235.082 z" id="boundary" inkscape:connector-curvature="0" />
	<path style="fill:none;stroke:red;stroke-width:1px;stroke-linecap:butt;stroke-linejoin:miter;stroke-opacity:1" d="M 646.077,821.038 660.932,829.291 z" id="boundary" inkscape:connector-curvature="0" />
	<path style="fill:none;stroke:red;stroke-width:1px;stroke-linecap:butt;stroke-linejoin:miter;stroke-opacity:1" d="M 646.077,962.988 660.932,954.735 z" id="boundary" inkscape:connector-curvature="0" />
	<path style="fill:none;stroke:red;stroke-width:1px;stroke-linecap:butt;stroke-linejoin:miter;stroke-opacity:1" d="M 651.028,698.895 667.534,698.895 z" id="boundary" inkscape:connector-curvature="0" />
	<path style="fill:none;stroke:red;stroke-width:1px;stroke-linecap:butt;stroke-linejoin:miter;stroke-opacity:1" d="M 659.281,235.082 672.486,223.527 z" id="boundary" inkscape:connector-curvature="0" />
	<path style="fill:none;stroke:red;stroke-width:1px;stroke-linecap:butt;stroke-linejoin:miter;stroke-opacity:1" d="M 660.932,829.291 675.787,837.544 z" id="boundary" inkscape:connector-curvature="0" />
	<path style="fill:none;stroke:red;stroke-width:1px;stroke-linecap:butt;stroke-linejoin:miter;stroke-opacity:1" d="M 660.932,954.735 677.438,953.085 z" id="boundary" inkscape:connector-curvature="0" />
	<path style="fill:none;stroke:red;stroke-width:1px;stroke-linecap:butt;stroke-linejoin:miter;stroke-opacity:1" d="M 667.534,698.895 684.04,703.847 z" id="boundary" inkscape:connector-curvature="0" />
	<path style="fill:none;stroke:red;stroke-width:1px;stroke-linecap:butt;stroke-linejoin:miter;stroke-opacity:1" d="M 672.486,223.527 688.992,215.275 z" id="boundary" inkscape:connector-curvature="0" />
	<path style="fill:none;stroke:red;stroke-width:1px;stroke-linecap:butt;stroke-linejoin:miter;stroke-opacity:1" d="M 675.787,837.544 692.293,837.544 z" id="boundary" inkscape:connector-curvature="0" />
	<path style="fill:none;stroke:red;stroke-width:1px;stroke-linecap:butt;stroke-linejoin:miter;stroke-opacity:1" d="M 677.438,953.085 693.943,944.832 z" id="boundary" inkscape:connector-curvature="0" />
	<path style="fill:none;stroke:red;stroke-width:1px;stroke-linecap:butt;stroke-linejoin:miter;stroke-opacity:1" d="M 684.04,703.847 698.895,712.1 z" id="boundary" inkscape:connector-curvature="0" />
	<path style="fill:none;stroke:red;stroke-width:1px;stroke-linecap:butt;stroke-linejoin:miter;stroke-opacity:1" d="M 688.992,215.275 705.498,207.022 z" id="boundary" inkscape:connector-curvature="0" />
	<path style="fill:none;stroke:red;stroke-width:1px;stroke-linecap:butt;stroke-linejoin:miter;stroke-opacity:1" d="M 692.293,837.544 707.148,845.797 z" id="boundary" inkscape:connector-curvature="0" />
	<path style="fill:none;stroke:red;stroke-width:1px;stroke-linecap:butt;stroke-linejoin:miter;stroke-opacity:1" d="M 693.943,944.832 707.148,929.977 z" id="boundary" inkscape:connector-curvature="0" />
	<path style="fill:none;stroke:red;stroke-width:1px;stroke-linecap:butt;stroke-linejoin:miter;stroke-opacity:1" d="M 698.895,712.1 715.401,715.401 z" id="boundary" inkscape:connector-curvature="0" />
	<path style="fill:none;stroke:red;stroke-width:1px;stroke-linecap:butt;stroke-linejoin:miter;stroke-opacity:1" d="M 705.498,207.022 722.003,198.769 z" id="boundary" inkscape:connector-curvature="0" />
	<path style="fill:none;stroke:red;stroke-width:1px;stroke-linecap:butt;stroke-linejoin:miter;stroke-opacity:1" d="M 707.148,845.797 722.003,854.05 z" id="boundary" inkscape:connector-curvature="0" />
	<path style="fill:none;stroke:red;stroke-width:1px;stroke-linecap:butt;stroke-linejoin:miter;stroke-opacity:1" d="M 707.148,929.977 723.654,921.724 z" id="boundary" inkscape:connector-curvature="0" />
	<path style="fill:none;stroke:red;stroke-width:1px;stroke-linecap:butt;stroke-linejoin:miter;stroke-opacity:1" d="M 715.401,443.055 715.401,459.561 z" id="boundary" inkscape:connector-curvature="0" />
	<path style="fill:none;stroke:red;stroke-width:1px;stroke-linecap:butt;stroke-linejoin:miter;stroke-opacity:1" d="M 715.401,443.055 728.606,431.501 z" id="boundary" inkscape:connector-curvature="0" />
	<path style="fill:none;stroke:red;stroke-width:1px;stroke-linecap:butt;stroke-linejoin:miter;stroke-opacity:1" d="M 715.401,459.561 715.401,476.067 z" id="boundary" inkscape:connector-curvature="0" />
	<path style="fill:none;stroke:red;stroke-width:1px;stroke-linecap:butt;stroke-linejoin:miter;stroke-opacity:1" d="M 715.401,476.067 723.654,490.922 z" id="boundary" inkscape:connector-curvature="0" />
	<path style="fill:none;stroke:red;stroke-width:1px;stroke-linecap:butt;stroke-linejoin:miter;stroke-opacity:1" d="M 715.401,715.401 730.256,723.654 z" id="boundary" inkscape:connector-curvature="0" />
	<path style="fill:none;stroke:red;stroke-width:1px;stroke-linecap:butt;stroke-linejoin:miter;stroke-opacity:1" d="M 722.003,198.769 738.509,190.516 z" id="boundary" inkscape:connector-curvature="0" />
	<path style="fill:none;stroke:red;stroke-width:1px;stroke-linecap:butt;stroke-linejoin:miter;stroke-opacity:1" d="M 722.003,854.05 736.859,862.303 z" id="boundary" inkscape:connector-curvature="0" />
	<path style="fill:none;stroke:red;stroke-width:1px;stroke-linecap:butt;stroke-linejoin:miter;stroke-opacity:1" d="M 723.654,490.922 731.907,505.777 z" id="boundary" inkscape:connector-curvature="0" />
	<path style="fill:none;stroke:red;stroke-width:1px;stroke-linecap:butt;stroke-linejoin:miter;stroke-opacity:1" d="M 723.654,921.724 740.16,913.471 z" id="boundary" inkscape:connector-curvature="0" />
	<path style="fill:none;stroke:red;stroke-width:1px;stroke-linecap:butt;stroke-linejoin:miter;stroke-opacity:1" d="M 728.606,431.501 745.111,423.248 z" id="boundary" inkscape:connector-curvature="0" />
	<path style="fill:none;stroke:red;stroke-width:1px;stroke-linecap:butt;stroke-linejoin:miter;stroke-opacity:1" d="M 730.256,723.654 745.111,731.907 z" id="boundary" inkscape:connector-curvature="0" />
	<path style="fill:none;stroke:red;stroke-width:1px;stroke-linecap:butt;stroke-linejoin:miter;stroke-opacity:1" d="M 731.907,505.777 745.111,517.331 z" id="boundary" inkscape:connector-curvature="0" />
	<path style="fill:none;stroke:red;stroke-width:1px;stroke-linecap:butt;stroke-linejoin:miter;stroke-opacity:1" d="M 736.859,862.303 751.714,870.556 z" id="boundary" inkscape:connector-curvature="0" />
	<path style="fill:none;stroke:red;stroke-width:1px;stroke-linecap:butt;stroke-linejoin:miter;stroke-opacity:1" d="M 738.509,190.516 755.015,185.564 z" id="boundary" inkscape:connector-curvature="0" />
	<path style="fill:none;stroke:red;stroke-width:1px;stroke-linecap:butt;stroke-linejoin:miter;stroke-opacity:1" d="M 740.16,913.471 753.364,901.917 z" id="boundary" inkscape:connector-curvature="0" />
	<path style="fill:none;stroke:red;stroke-width:1px;stroke-linecap:butt;stroke-linejoin:miter;stroke-opacity:1" d="M 745.111,423.248 761.617,414.995 z" id="boundary" inkscape:connector-curvature="0" />
	<path style="fill:none;stroke:red;stroke-width:1px;stroke-linecap:butt;stroke-linejoin:miter;stroke-opacity:1" d="M 745.111,517.331 751.714,533.837 z" id="boundary" inkscape:connector-curvature="0" />
	<path style="fill:none;stroke:red;stroke-width:1px;stroke-linecap:butt;stroke-linejoin:miter;stroke-opacity:1" d="M 745.111,731.907 761.617,731.907 z" id="boundary" inkscape:connector-curvature="0" />
	<path style="fill:none;stroke:red;stroke-width:1px;stroke-linecap:butt;stroke-linejoin:miter;stroke-opacity:1" d="M 751.714,533.837 764.918,545.391 z" id="boundary" inkscape:connector-curvature="0" />
	<path style="fill:none;stroke:red;stroke-width:1px;stroke-linecap:butt;stroke-linejoin:miter;stroke-opacity:1" d="M 751.714,870.556 753.364,901.917 z" id="boundary" inkscape:connector-curvature="0" />
	<path style="fill:none;stroke:red;stroke-width:1px;stroke-linecap:butt;stroke-linejoin:miter;stroke-opacity:1" d="M 755.015,185.564 769.87,177.311 z" id="boundary" inkscape:connector-curvature="0" />
	<path style="fill:none;stroke:red;stroke-width:1px;stroke-linecap:butt;stroke-linejoin:miter;stroke-opacity:1" d="M 761.617,414.995 773.171,401.79 z" id="boundary" inkscape:connector-curvature="0" />
	<path style="fill:none;stroke:red;stroke-width:1px;stroke-linecap:butt;stroke-linejoin:miter;stroke-opacity:1" d="M 761.617,731.907 778.123,731.907 z" id="boundary" inkscape:connector-curvature="0" />
	<path style="fill:none;stroke:red;stroke-width:1px;stroke-linecap:butt;stroke-linejoin:miter;stroke-opacity:1" d="M 764.918,244.985 764.918,261.491 z" id="boundary" inkscape:connector-curvature="0" />
	<path style="fill:none;stroke:red;stroke-width:1px;stroke-linecap:butt;stroke-linejoin:miter;stroke-opacity:1" d="M 764.918,244.985 778.123,233.431 z" id="boundary" inkscape:connector-curvature="0" />
	<path style="fill:none;stroke:red;stroke-width:1px;stroke-linecap:butt;stroke-linejoin:miter;stroke-opacity:1" d="M 764.918,261.491 773.171,276.346 z" id="boundary" inkscape:connector-curvature="0" />
	<path style="fill:none;stroke:red;stroke-width:1px;stroke-linecap:butt;stroke-linejoin:miter;stroke-opacity:1" d="M 764.918,545.391 776.473,558.596 z" id="boundary" inkscape:connector-curvature="0" />
	<path style="fill:none;stroke:red;stroke-width:1px;stroke-linecap:butt;stroke-linejoin:miter;stroke-opacity:1" d="M 769.87,177.311 784.725,185.564 z" id="boundary" inkscape:connector-curvature="0" />
	<path style="fill:none;stroke:red;stroke-width:1px;stroke-linecap:butt;stroke-linejoin:miter;stroke-opacity:1" d="M 773.171,276.346 789.677,281.298 z" id="boundary" inkscape:connector-curvature="0" />
	<path style="fill:none;stroke:red;stroke-width:1px;stroke-linecap:butt;stroke-linejoin:miter;stroke-opacity:1" d="M 773.171,401.79 789.677,393.537 z" id="boundary" inkscape:connector-curvature="0" />
	<path style="fill:none;stroke:red;stroke-width:1px;stroke-linecap:butt;stroke-linejoin:miter;stroke-opacity:1" d="M 776.473,558.596 789.677,570.15 z" id="boundary" inkscape:connector-curvature="0" />
	<path style="fill:none;stroke:red;stroke-width:1px;stroke-linecap:butt;stroke-linejoin:miter;stroke-opacity:1" d="M 778.123,233.431 789.677,218.576 z" id="boundary" inkscape:connector-curvature="0" />
	<path style="fill:none;stroke:red;stroke-width:1px;stroke-linecap:butt;stroke-linejoin:miter;stroke-opacity:1" d="M 778.123,731.907 792.978,722.003 z" id="boundary" inkscape:connector-curvature="0" />
	<path style="fill:none;stroke:red;stroke-width:1px;stroke-linecap:butt;stroke-linejoin:miter;stroke-opacity:1" d="M 784.725,185.564 789.677,202.07 z" id="boundary" inkscape:connector-curvature="0" />
	<path style="fill:none;stroke:red;stroke-width:1px;stroke-linecap:butt;stroke-linejoin:miter;stroke-opacity:1" d="M 789.677,202.07 789.677,218.576 z" id="boundary" inkscape:connector-curvature="0" />
	<path style="fill:none;stroke:red;stroke-width:1px;stroke-linecap:butt;stroke-linejoin:miter;stroke-opacity:1" d="M 789.677,281.298 801.231,294.502 z" id="boundary" inkscape:connector-curvature="0" />
	<path style="fill:none;stroke:red;stroke-width:1px;stroke-linecap:butt;stroke-linejoin:miter;stroke-opacity:1" d="M 789.677,393.537 802.882,381.983 z" id="boundary" inkscape:connector-curvature="0" />
	<path style="fill:none;stroke:red;stroke-width:1px;stroke-linecap:butt;stroke-linejoin:miter;stroke-opacity:1" d="M 789.677,570.15 801.231,583.354 z" id="boundary" inkscape:connector-curvature="0" />
	<path style="fill:none;stroke:red;stroke-width:1px;stroke-linecap:butt;stroke-linejoin:miter;stroke-opacity:1" d="M 792.978,722.003 806.183,707.148 z" id="boundary" inkscape:connector-curvature="0" />
	<path style="fill:none;stroke:red;stroke-width:1px;stroke-linecap:butt;stroke-linejoin:miter;stroke-opacity:1" d="M 801.231,294.502 814.436,306.057 z" id="boundary" inkscape:connector-curvature="0" />
	<path style="fill:none;stroke:red;stroke-width:1px;stroke-linecap:butt;stroke-linejoin:miter;stroke-opacity:1" d="M 801.231,583.354 806.183,599.86 z" id="boundary" inkscape:connector-curvature="0" />
	<path style="fill:none;stroke:red;stroke-width:1px;stroke-linecap:butt;stroke-linejoin:miter;stroke-opacity:1" d="M 802.882,381.983 811.135,365.478 z" id="boundary" inkscape:connector-curvature="0" />
	<path style="fill:none;stroke:red;stroke-width:1px;stroke-linecap:butt;stroke-linejoin:miter;stroke-opacity:1" d="M 806.183,599.86 814.436,614.715 z" id="boundary" inkscape:connector-curvature="0" />
	<path style="fill:none;stroke:red;stroke-width:1px;stroke-linecap:butt;stroke-linejoin:miter;stroke-opacity:1" d="M 806.183,707.148 814.436,680.739 z" id="boundary" inkscape:connector-curvature="0" />
	<path style="fill:none;stroke:red;stroke-width:1px;stroke-linecap:butt;stroke-linejoin:miter;stroke-opacity:1" d="M 811.135,365.478 814.436,339.068 z" id="boundary" inkscape:connector-curvature="0" />
	<path style="fill:none;stroke:red;stroke-width:1px;stroke-linecap:butt;stroke-linejoin:miter;stroke-opacity:1" d="M 814.436,306.057 814.436,322.562 z" id="boundary" inkscape:connector-curvature="0" />
	<path style="fill:none;stroke:red;stroke-width:1px;stroke-linecap:butt;stroke-linejoin:miter;stroke-opacity:1" d="M 814.436,322.562 814.436,339.068 z" id="boundary" inkscape:connector-curvature="0" />
	<path style="fill:none;stroke:red;stroke-width:1px;stroke-linecap:butt;stroke-linejoin:miter;stroke-opacity:1" d="M 814.436,614.715 814.436,631.221 z" id="boundary" inkscape:connector-curvature="0" />
	<path style="fill:none;stroke:red;stroke-width:1px;stroke-linecap:butt;stroke-linejoin:miter;stroke-opacity:1" d="M 814.436,631.221 814.436,647.727 z" id="boundary" inkscape:connector-curvature="0" />
	<path style="fill:none;stroke:red;stroke-width:1px;stroke-linecap:butt;stroke-linejoin:miter;stroke-opacity:1" d="M 814.436,647.727 814.436,664.233 z" id="boundary" inkscape:connector-curvature="0" />
	<path style="fill:none;stroke:red;stroke-width:1px;stroke-linecap:butt;stroke-linejoin:miter;stroke-opacity:1" d="M 814.436,664.233 814.436,680.739 z" id="boundary" inkscape:connector-curvature="0" />
	<circle cx="4" cy="190.516" r="4" fill="#0" id="circle0"/>
	<circle cx="4" cy="207.022" r="4" fill="#0" id="circle1"/>
	<circle cx="12.2529" cy="221.877" r="4" fill="#0" id="circle2"/>
	<circle cx="17.2047" cy="177.311" r="4" fill="#0" id="circle3"/>
	<circle cx="23.807" cy="235.082" r="4" fill="#0" id="circle4"/>
	<circle cx="32.0599" cy="169.058" r="4" fill="#0" id="circle5"/>
	<circle cx="40.3128" cy="241.684" r="4" fill="#0" id="circle6"/>
	<circle cx="46.9151" cy="160.805" r="4" fill="#0" id="circle7"/>
	<circle cx="53.5175" cy="253.238" r="4" fill="#0" id="circle8"/>
	<circle cx="61.7704" cy="152.552" r="4" fill="#0" id="circle9"/>
	<circle cx="63.421" cy="266.443" r="4" fill="#0" id="circle10"/>
	<circle cx="76.6256" cy="144.3" r="4" fill="#0" id="circle11"/>
	<circle cx="76.6256" cy="277.997" r="4" fill="#0" id="circle12"/>
	<circle cx="86.5291" cy="291.201" r="4" fill="#0" id="circle13"/>
	<circle cx="88.1797" cy="131.095" r="4" fill="#0" id="circle14"/>
	<circle cx="94.782" cy="306.057" r="4" fill="#0" id="circle15"/>
	<circle cx="101.384" cy="119.541" r="4" fill="#0" id="circle16"/>
	<circle cx="107.987" cy="317.611" r="4" fill="#0" id="circle17"/>
	<circle cx="111.288" cy="334.116" r="4" fill="#0" id="circle18"/>
	<circle cx="112.938" cy="106.336" r="4" fill="#0" id="circle19"/>
	<circle cx="119.541" cy="348.972" r="4" fill="#0" id="circle20"/>
	<circle cx="126.143" cy="94.782" r="4" fill="#0" id="circle21"/>
	<circle cx="127.794" cy="363.827" r="4" fill="#0" id="circle22"/>
	<circle cx="127.794" cy="380.333" r="4" fill="#0" id="circle23"/>
	<circle cx="127.794" cy="396.839" r="4" fill="#0" id="circle24"/>
	<circle cx="127.794" cy="413.344" r="4" fill="#0" id="circle25"/>
	<circle cx="127.794" cy="429.85" r="4" fill="#0" id="circle26"/>
	<circle cx="127.794" cy="446.356" r="4" fill="#0" id="circle27"/>
	<circle cx="127.794" cy="462.862" r="4" fill="#0" id="circle28"/>
	<circle cx="127.794" cy="479.368" r="4" fill="#0" id="circle29"/>
	<circle cx="136.047" cy="494.223" r="4" fill="#0" id="circle30"/>
	<circle cx="140.998" cy="86.5291" r="4" fill="#0" id="circle31"/>
	<circle cx="147.601" cy="507.428" r="4" fill="#0" id="circle32"/>
	<circle cx="154.203" cy="73.3245" r="4" fill="#0" id="circle33"/>
	<circle cx="164.106" cy="500.825" r="4" fill="#0" id="circle34"/>
	<circle cx="167.408" cy="61.7704" r="4" fill="#0" id="circle35"/>
	<circle cx="180.612" cy="500.825" r="4" fill="#0" id="circle36"/>
	<circle cx="182.263" cy="53.5175" r="4" fill="#0" id="circle37"/>
	<circle cx="197.118" cy="500.825" r="4" fill="#0" id="circle38"/>
	<circle cx="198.769" cy="45.2646" r="4" fill="#0" id="circle39"/>
	<circle cx="213.624" cy="37.0116" r="4" fill="#0" id="circle40"/>
	<circle cx="213.624" cy="500.825" r="4" fill="#0" id="circle41"/>
	<circle cx="228.479" cy="28.7587" r="4" fill="#0" id="circle42"/>
	<circle cx="228.479" cy="509.078" r="4" fill="#0" id="circle43"/>
	<circle cx="235.082" cy="834.243" r="4" fill="#0" id="circle44"/>
	<circle cx="235.082" cy="850.749" r="4" fill="#0" id="circle45"/>
	<circle cx="235.082" cy="867.255" r="4" fill="#0" id="circle46"/>
	<circle cx="235.082" cy="883.76" r="4" fill="#0" id="circle47"/>
	<circle cx="243.334" cy="20.5058" r="4" fill="#0" id="circle48"/>
	<circle cx="243.334" cy="517.331" r="4" fill="#0" id="circle49"/>
	<circle cx="243.334" cy="784.725" r="4" fill="#0" id="circle50"/>
	<circle cx="243.334" cy="801.231" r="4" fill="#0" id="circle51"/>
	<circle cx="243.334" cy="817.737" r="4" fill="#0" id="circle52"/>
	<circle cx="243.334" cy="898.616" r="4" fill="#0" id="circle53"/>
	<circle cx="251.587" cy="743.461" r="4" fill="#0" id="circle54"/>
	<circle cx="251.587" cy="759.967" r="4" fill="#0" id="circle55"/>
	<circle cx="251.587" cy="913.471" r="4" fill="#0" id="circle56"/>
	<circle cx="258.19" cy="12.2529" r="4" fill="#0" id="circle57"/>
	<circle cx="258.19" cy="525.584" r="4" fill="#0" id="circle58"/>
	<circle cx="259.84" cy="726.955" r="4" fill="#0" id="circle59"/>
	<circle cx="266.443" cy="921.724" r="4" fill="#0" id="circle60"/>
	<circle cx="268.093" cy="685.691" r="4" fill="#0" id="circle61"/>
	<circle cx="268.093" cy="702.196" r="4" fill="#0" id="circle62"/>
	<circle cx="273.045" cy="4" r="4" fill="#0" id="circle63"/>
	<circle cx="273.045" cy="533.837" r="4" fill="#0" id="circle64"/>
	<circle cx="276.346" cy="660.932" r="4" fill="#0" id="circle65"/>
	<circle cx="281.298" cy="929.977" r="4" fill="#0" id="circle66"/>
	<circle cx="284.599" cy="636.173" r="4" fill="#0" id="circle67"/>
	<circle cx="287.9" cy="542.09" r="4" fill="#0" id="circle68"/>
	<circle cx="289.551" cy="4" r="4" fill="#0" id="circle69"/>
	<circle cx="292.852" cy="594.908" r="4" fill="#0" id="circle70"/>
	<circle cx="292.852" cy="611.414" r="4" fill="#0" id="circle71"/>
	<circle cx="297.804" cy="929.977" r="4" fill="#0" id="circle72"/>
	<circle cx="301.105" cy="551.993" r="4" fill="#0" id="circle73"/>
	<circle cx="301.105" cy="568.499" r="4" fill="#0" id="circle74"/>
	<circle cx="306.057" cy="4" r="4" fill="#0" id="circle75"/>
	<circle cx="312.659" cy="938.23" r="4" fill="#0" id="circle76"/>
	<circle cx="322.562" cy="4" r="4" fill="#0" id="circle77"/>
	<circle cx="327.514" cy="946.483" r="4" fill="#0" id="circle78"/>
	<circle cx="339.068" cy="4" r="4" fill="#0" id="circle79"/>
	<circle cx="342.369" cy="954.735" r="4" fill="#0" id="circle80"/>
	<circle cx="355.574" cy="4" r="4" fill="#0" id="circle81"/>
	<circle cx="358.875" cy="954.735" r="4" fill="#0" id="circle82"/>
	<circle cx="372.08" cy="4" r="4" fill="#0" id="circle83"/>
	<circle cx="373.73" cy="962.988" r="4" fill="#0" id="circle84"/>
	<circle cx="388.586" cy="4" r="4" fill="#0" id="circle85"/>
	<circle cx="388.586" cy="971.241" r="4" fill="#0" id="circle86"/>
	<circle cx="403.441" cy="12.2529" r="4" fill="#0" id="circle87"/>
	<circle cx="405.092" cy="977.844" r="4" fill="#0" id="circle88"/>
	<circle cx="418.296" cy="20.5058" r="4" fill="#0" id="circle89"/>
	<circle cx="419.947" cy="986.097" r="4" fill="#0" id="circle90"/>
	<circle cx="431.501" cy="30.4093" r="4" fill="#0" id="circle91"/>
	<circle cx="436.453" cy="987.747" r="4" fill="#0" id="circle92"/>
	<circle cx="443.055" cy="43.614" r="4" fill="#0" id="circle93"/>
	<circle cx="451.308" cy="58.4692" r="4" fill="#0" id="circle94"/>
	<circle cx="452.958" cy="987.747" r="4" fill="#0" id="circle95"/>
	<circle cx="457.91" cy="74.975" r="4" fill="#0" id="circle96"/>
	<circle cx="466.163" cy="89.8303" r="4" fill="#0" id="circle97"/>
	<circle cx="467.814" cy="106.336" r="4" fill="#0" id="circle98"/>
	<circle cx="467.814" cy="122.842" r="4" fill="#0" id="circle99"/>
	<circle cx="467.814" cy="996" r="4" fill="#0" id="circle100"/>
	<circle cx="476.067" cy="137.697" r="4" fill="#0" id="circle101"/>
	<circle cx="476.067" cy="154.203" r="4" fill="#0" id="circle102"/>
	<circle cx="476.067" cy="170.709" r="4" fill="#0" id="circle103"/>
	<circle cx="476.067" cy="187.215" r="4" fill="#0" id="circle104"/>
	<circle cx="484.319" cy="202.07" r="4" fill="#0" id="circle105"/>
	<circle cx="484.319" cy="218.576" r="4" fill="#0" id="circle106"/>
	<circle cx="484.319" cy="996" r="4" fill="#0" id="circle107"/>
	<circle cx="492.572" cy="233.431" r="4" fill="#0" id="circle108"/>
	<circle cx="500.825" cy="248.286" r="4" fill="#0" id="circle109"/>
	<circle cx="500.825" cy="996" r="4" fill="#0" id="circle110"/>
	<circle cx="509.078" cy="756.666" r="4" fill="#0" id="circle111"/>
	<circle cx="509.078" cy="773.171" r="4" fill="#0" id="circle112"/>
	<circle cx="512.379" cy="261.491" r="4" fill="#0" id="circle113"/>
	<circle cx="517.331" cy="731.907" r="4" fill="#0" id="circle114"/>
	<circle cx="517.331" cy="788.027" r="4" fill="#0" id="circle115"/>
	<circle cx="517.331" cy="996" r="4" fill="#0" id="circle116"/>
	<circle cx="525.584" cy="273.045" r="4" fill="#0" id="circle117"/>
	<circle cx="525.584" cy="715.401" r="4" fill="#0" id="circle118"/>
	<circle cx="533.837" cy="788.027" r="4" fill="#0" id="circle119"/>
	<circle cx="533.837" cy="996" r="4" fill="#0" id="circle120"/>
	<circle cx="538.789" cy="284.599" r="4" fill="#0" id="circle121"/>
	<circle cx="542.09" cy="707.148" r="4" fill="#0" id="circle122"/>
	<circle cx="550.343" cy="792.978" r="4" fill="#0" id="circle123"/>
	<circle cx="550.343" cy="996" r="4" fill="#0" id="circle124"/>
	<circle cx="555.295" cy="284.599" r="4" fill="#0" id="circle125"/>
	<circle cx="555.295" cy="695.594" r="4" fill="#0" id="circle126"/>
	<circle cx="565.198" cy="987.747" r="4" fill="#0" id="circle127"/>
	<circle cx="566.849" cy="796.28" r="4" fill="#0" id="circle128"/>
	<circle cx="570.15" cy="276.346" r="4" fill="#0" id="circle129"/>
	<circle cx="571.8" cy="690.642" r="4" fill="#0" id="circle130"/>
	<circle cx="581.704" cy="804.532" r="4" fill="#0" id="circle131"/>
	<circle cx="581.704" cy="987.747" r="4" fill="#0" id="circle132"/>
	<circle cx="586.656" cy="276.346" r="4" fill="#0" id="circle133"/>
	<circle cx="588.306" cy="690.642" r="4" fill="#0" id="circle134"/>
	<circle cx="598.21" cy="804.532" r="4" fill="#0" id="circle135"/>
	<circle cx="598.21" cy="982.795" r="4" fill="#0" id="circle136"/>
	<circle cx="599.86" cy="263.141" r="4" fill="#0" id="circle137"/>
	<circle cx="603.161" cy="682.389" r="4" fill="#0" id="circle138"/>
	<circle cx="613.065" cy="251.587" r="4" fill="#0" id="circle139"/>
	<circle cx="614.715" cy="807.834" r="4" fill="#0" id="circle140"/>
	<circle cx="614.715" cy="974.542" r="4" fill="#0" id="circle141"/>
	<circle cx="619.667" cy="688.992" r="4" fill="#0" id="circle142"/>
	<circle cx="627.92" cy="243.334" r="4" fill="#0" id="circle143"/>
	<circle cx="631.221" cy="812.785" r="4" fill="#0" id="circle144"/>
	<circle cx="631.221" cy="971.241" r="4" fill="#0" id="circle145"/>
	<circle cx="636.173" cy="690.642" r="4" fill="#0" id="circle146"/>
	<circle cx="644.426" cy="243.334" r="4" fill="#0" id="circle147"/>
	<circle cx="646.077" cy="821.038" r="4" fill="#0" id="circle148"/>
	<circle cx="646.077" cy="962.988" r="4" fill="#0" id="circle149"/>
	<circle cx="651.028" cy="698.895" r="4" fill="#0" id="circle150"/>
	<circle cx="659.281" cy="235.082" r="4" fill="#0" id="circle151"/>
	<circle cx="660.932" cy="829.291" r="4" fill="#0" id="circle152"/>
	<circle cx="660.932" cy="954.735" r="4" fill="#0" id="circle153"/>
	<circle cx="667.534" cy="698.895" r="4" fill="#0" id="circle154"/>
	<circle cx="672.486" cy="223.527" r="4" fill="#0" id="circle155"/>
	<circle cx="675.787" cy="837.544" r="4" fill="#0" id="circle156"/>
	<circle cx="677.438" cy="953.085" r="4" fill="#0" id="circle157"/>
	<circle cx="684.04" cy="703.847" r="4" fill="#0" id="circle158"/>
	<circle cx="688.992" cy="215.275" r="4" fill="#0" id="circle159"/>
	<circle cx="692.293" cy="837.544" r="4" fill="#0" id="circle160"/>
	<circle cx="693.943" cy="944.832" r="4" fill="#0" id="circle161"/>
	<circle cx="698.895" cy="712.1" r="4" fill="#0" id="circle162"/>
	<circle cx="705.498" cy="207.022" r="4" fill="#0" id="circle163"/>
	<circle cx="707.148" cy="845.797" r="4" fill="#0" id="circle164"/>
	<circle cx="707.148" cy="929.977" r="4" fill="#0" id="circle165"/>
	<circle cx="715.401" cy="443.055" r="4" fill="#0" id="circle166"/>
	<circle cx="715.401" cy="459.561" r="4" fill="#0" id="circle167"/>
	<circle cx="715.401" cy="476.067" r="4" fill="#0" id="circle168"/>
	<circle cx="715.401" cy="715.401" r="4" fill="#0" id="circle169"/>
	<circle cx="722.003" cy="198.769" r="4" fill="#0" id="circle170"/>
	<circle cx="722.003" cy="854.05" r="4" fill="#0" id="circle171"/>
	<circle cx="723.654" cy="490.922" r="4" fill="#0" id="circle172"/>
	<circle cx="723.654" cy="921.724" r="4" fill="#0" id="circle173"/>
	<circle cx="728.606" cy="431.501" r="4" fill="#0" id="circle174"/>
	<circle cx="730.256" cy="723.654" r="4" fill="#0" id="circle175"/>
	<circle cx="731.907" cy="505.777" r="4" fill="#0" id="circle176"/>
	<circle cx="736.859" cy="862.303" r="4" fill="#0" id="circle177"/>
	<circle cx="738.509" cy="190.516" r="4" fill="#0" id="circle178"/>
	<circle cx="740.16" cy="913.471" r="4" fill="#0" id="circle179"/>
	<circle cx="745.111" cy="423.248" r="4" fill="#0" id="circle180"/>
	<circle cx="745.111" cy="517.331" r="4" fill="#0" id="circle181"/>
	<circle cx="745.111" cy="731.907" r="4" fill="#0" id="circle182"/>
	<circle cx="751.714" cy="533.837" r="4" fill="#0" id="circle183"/>
	<circle cx="751.714" cy="870.556" r="4" fill="#0" id="circle184"/>
	<circle cx="753.364" cy="901.917" r="4" fill="#0" id="circle185"/>
	<circle cx="755.015" cy="185.564" r="4" fill="#0" id="circle186"/>
	<circle cx="761.617" cy="414.995" r="4" fill="#0" id="circle187"/>
	<circle cx="761.617" cy="731.907" r="4" fill="#0" id="circle188"/>
	<circle cx="764.918" cy="244.985" r="4" fill="#0" id="circle189"/>
	<circle cx="764.918" cy="261.491" r="4" fill="#0" id="circle190"/>
	<circle cx="764.918" cy="545.391" r="4" fill="#0" id="circle191"/>
	<circle cx="769.87" cy="177.311" r="4" fill="#0" id="circle192"/>
	<circle cx="773.171" cy="276.346" r="4" fill="#0" id="circle193"/>
	<circle cx="773.171" cy="401.79" r="4" fill="#0" id="circle194"/>
	<circle cx="776.473" cy="558.596" r="4" fill="#0" id="circle195"/>
	<circle cx="778.123" cy="233.431" r="4" fill="#0" id="circle196"/>
	<circle cx="778.123" cy="731.907" r="4" fill="#0" id="circle197"/>
	<circle cx="784.725" cy="185.564" r="4" fill="#0" id="circle198"/>
	<circle cx="789.677" cy="202.07" r="4" fill="#0" id="circle199"/>
	<circle cx="789.677" cy="218.576" r="4" fill="#0" id="circle200"/>
	<circle cx="789.677" cy="281.298" r="4" fill="#0" id="circle201"/>
	<circle cx="789.677" cy="393.537" r="4" fill="#0" id="circle202"/>
	<circle cx="789.677" cy="570.15" r="4" fill="#0" id="circle203"/>
	<circle cx="792.978" cy="722.003" r="4" fill="#0" id="circle204"/>
	<circle cx="801.231" cy="294.502" r="4" fill="#0" id="circle205"/>
	<circle cx="801.231" cy="583.354" r="4" fill="#0" id="circle206"/>
	<circle cx="802.882" cy="381.983" r="4" fill="#0" id="circle207"/>
	<circle cx="806.183" cy="599.86" r="4" fill="#0" id="circle208"/>
	<circle cx="806.183" cy="707.148" r="4" fill="#0" id="circle209"/>
	<circle cx="811.135" cy="365.478" r="4" fill="#0" id="circle210"/>
	<circle cx="814.436" cy="306.057" r="4" fill="#0" id="circle211"/>
	<circle cx="814.436" cy="322.562" r="4" fill="#0" id="circle212"/>
	<circle cx="814.436" cy="339.068" r="4" fill="#0" id="circle213"/>
	<circle cx="814.436" cy="614.715" r="4" fill="#0" id="circle214"/>
	<circle cx="814.436" cy="631.221" r="4" fill="#0" id="circle215"/>
	<circle cx="814.436" cy="647.727" r="4" fill="#0" id="circle216"/>
	<circle cx="814.436" cy="664.233" r="4" fill="#0" id="circle217"/>
	<circle cx="814.436" cy="680.739" r="4" fill="#0" id="circle218"/>
	</g>
</svg>