<?xml version="1.0" encoding="UTF-8" standalone="no"?>
<!-- Created with CurveBenchmark -->
<svg
	xmlns:dc="http://purl.org/dc/elements/1.1/"
	xmlns:cc="http://creativecommons.org/ns#"
	xmlns:rdf="http://www.w3.org/1999/02/22-rdf-syntax-ns#"
	xmlns:svg="http://www.w3.org/2000/svg"
	xmlns="http://www.w3.org/2000/svg"
	xmlns:sodipodi="http://sodipodi.sourceforge.net/DTD/sodipodi-0.dtd"
	xmlns:inkscape="http://www.inkscape.org/namespaces/inkscape"
	width="1000"
	height="1000"
	id="svg2"
	version="1.1"
	sodipodi:docname="manifold/hnncrust-ray0467.png.txt">
<defs
	id="defs4" />
<metadata
	id="metadata7">
	<rdf:RDF>
		<cc:Work
			rdf:about="">
			<dc:format>image/svg+xml</dc:format>
			<dc:type
				rdf:resource="http://purl.org/dc/dcmitype/StillImage" />
			<dc:title></dc:title>
		</cc:Work>
	</rdf:RDF>
</metadata>
<g
	inkscape:label="Layer 1"
	inkscape:groupmode="layer"
	id="layer1">
	<path style="fill:none;stroke:red;stroke-width:1px;stroke-linecap:butt;stroke-linejoin:miter;stroke-opacity:1" d="M 4,898.667 10.6667,885.333 z" id="boundary" inkscape:connector-curvature="0" />
	<path style="fill:none;stroke:red;stroke-width:1px;stroke-linecap:butt;stroke-linejoin:miter;stroke-opacity:1" d="M 4,898.667 10.6667,910.667 z" id="boundary" inkscape:connector-curvature="0" />
	<path style="fill:none;stroke:red;stroke-width:1px;stroke-linecap:butt;stroke-linejoin:miter;stroke-opacity:1" d="M 10.6667,885.333 17.3333,872 z" id="boundary" inkscape:connector-curvature="0" />
	<path style="fill:none;stroke:red;stroke-width:1px;stroke-linecap:butt;stroke-linejoin:miter;stroke-opacity:1" d="M 10.6667,910.667 20,921.333 z" id="boundary" inkscape:connector-curvature="0" />
	<path style="fill:none;stroke:red;stroke-width:1px;stroke-linecap:butt;stroke-linejoin:miter;stroke-opacity:1" d="M 17.3333,872 24,858.667 z" id="boundary" inkscape:connector-curvature="0" />
	<path style="fill:none;stroke:red;stroke-width:1px;stroke-linecap:butt;stroke-linejoin:miter;stroke-opacity:1" d="M 20,921.333 33.3333,926.667 z" id="boundary" inkscape:connector-curvature="0" />
	<path style="fill:none;stroke:red;stroke-width:1px;stroke-linecap:butt;stroke-linejoin:miter;stroke-opacity:1" d="M 24,745.333 24,758.667 z" id="boundary" inkscape:connector-curvature="0" />
	<path style="fill:none;stroke:red;stroke-width:1px;stroke-linecap:butt;stroke-linejoin:miter;stroke-opacity:1" d="M 24,745.333 30.6667,732 z" id="boundary" inkscape:connector-curvature="0" />
	<path style="fill:none;stroke:red;stroke-width:1px;stroke-linecap:butt;stroke-linejoin:miter;stroke-opacity:1" d="M 24,758.667 24,772 z" id="boundary" inkscape:connector-curvature="0" />
	<path style="fill:none;stroke:red;stroke-width:1px;stroke-linecap:butt;stroke-linejoin:miter;stroke-opacity:1" d="M 24,772 24,785.333 z" id="boundary" inkscape:connector-curvature="0" />
	<path style="fill:none;stroke:red;stroke-width:1px;stroke-linecap:butt;stroke-linejoin:miter;stroke-opacity:1" d="M 24,785.333 24,798.667 z" id="boundary" inkscape:connector-curvature="0" />
	<path style="fill:none;stroke:red;stroke-width:1px;stroke-linecap:butt;stroke-linejoin:miter;stroke-opacity:1" d="M 24,798.667 24,812 z" id="boundary" inkscape:connector-curvature="0" />
	<path style="fill:none;stroke:red;stroke-width:1px;stroke-linecap:butt;stroke-linejoin:miter;stroke-opacity:1" d="M 24,812 24,825.333 z" id="boundary" inkscape:connector-curvature="0" />
	<path style="fill:none;stroke:red;stroke-width:1px;stroke-linecap:butt;stroke-linejoin:miter;stroke-opacity:1" d="M 24,825.333 24,838.667 z" id="boundary" inkscape:connector-curvature="0" />
	<path style="fill:none;stroke:red;stroke-width:1px;stroke-linecap:butt;stroke-linejoin:miter;stroke-opacity:1" d="M 24,838.667 24,858.667 z" id="boundary" inkscape:connector-curvature="0" />
	<path style="fill:none;stroke:red;stroke-width:1px;stroke-linecap:butt;stroke-linejoin:miter;stroke-opacity:1" d="M 30.6667,705.333 30.6667,718.667 z" id="boundary" inkscape:connector-curvature="0" />
	<path style="fill:none;stroke:red;stroke-width:1px;stroke-linecap:butt;stroke-linejoin:miter;stroke-opacity:1" d="M 30.6667,705.333 37.3333,685.333 z" id="boundary" inkscape:connector-curvature="0" />
	<path style="fill:none;stroke:red;stroke-width:1px;stroke-linecap:butt;stroke-linejoin:miter;stroke-opacity:1" d="M 30.6667,718.667 30.6667,732 z" id="boundary" inkscape:connector-curvature="0" />
	<path style="fill:none;stroke:red;stroke-width:1px;stroke-linecap:butt;stroke-linejoin:miter;stroke-opacity:1" d="M 30.6667,958.667 37.3333,940 z" id="boundary" inkscape:connector-curvature="0" />
	<path style="fill:none;stroke:red;stroke-width:1px;stroke-linecap:butt;stroke-linejoin:miter;stroke-opacity:1" d="M 30.6667,958.667 37.3333,970.667 z" id="boundary" inkscape:connector-curvature="0" />
	<path style="fill:none;stroke:red;stroke-width:1px;stroke-linecap:butt;stroke-linejoin:miter;stroke-opacity:1" d="M 33.3333,926.667 37.3333,940 z" id="boundary" inkscape:connector-curvature="0" />
	<path style="fill:none;stroke:red;stroke-width:1px;stroke-linecap:butt;stroke-linejoin:miter;stroke-opacity:1" d="M 37.3333,572 50.6667,576 z" id="boundary" inkscape:connector-curvature="0" />
	<path style="fill:none;stroke:red;stroke-width:1px;stroke-linecap:butt;stroke-linejoin:miter;stroke-opacity:1" d="M 37.3333,685.333 44,665.333 z" id="boundary" inkscape:connector-curvature="0" />
	<path style="fill:none;stroke:red;stroke-width:1px;stroke-linecap:butt;stroke-linejoin:miter;stroke-opacity:1" d="M 37.3333,970.667 44,982.667 z" id="boundary" inkscape:connector-curvature="0" />
	<path style="fill:none;stroke:red;stroke-width:1px;stroke-linecap:butt;stroke-linejoin:miter;stroke-opacity:1" d="M 44,665.333 50.6667,645.333 z" id="boundary" inkscape:connector-curvature="0" />
	<path style="fill:none;stroke:red;stroke-width:1px;stroke-linecap:butt;stroke-linejoin:miter;stroke-opacity:1" d="M 44,982.667 48,996 z" id="boundary" inkscape:connector-curvature="0" />
	<path style="fill:none;stroke:red;stroke-width:1px;stroke-linecap:butt;stroke-linejoin:miter;stroke-opacity:1" d="M 48,561.333 58.6667,550.667 z" id="boundary" inkscape:connector-curvature="0" />
	<path style="fill:none;stroke:red;stroke-width:1px;stroke-linecap:butt;stroke-linejoin:miter;stroke-opacity:1" d="M 50.6667,576 62.6667,569.333 z" id="boundary" inkscape:connector-curvature="0" />
	<path style="fill:none;stroke:red;stroke-width:1px;stroke-linecap:butt;stroke-linejoin:miter;stroke-opacity:1" d="M 50.6667,645.333 57.3333,632 z" id="boundary" inkscape:connector-curvature="0" />
	<path style="fill:none;stroke:red;stroke-width:1px;stroke-linecap:butt;stroke-linejoin:miter;stroke-opacity:1" d="M 52,736 52,749.333 z" id="boundary" inkscape:connector-curvature="0" />
	<path style="fill:none;stroke:red;stroke-width:1px;stroke-linecap:butt;stroke-linejoin:miter;stroke-opacity:1" d="M 52,736 58.6667,716 z" id="boundary" inkscape:connector-curvature="0" />
	<path style="fill:none;stroke:red;stroke-width:1px;stroke-linecap:butt;stroke-linejoin:miter;stroke-opacity:1" d="M 52,749.333 52,762.667 z" id="boundary" inkscape:connector-curvature="0" />
	<path style="fill:none;stroke:red;stroke-width:1px;stroke-linecap:butt;stroke-linejoin:miter;stroke-opacity:1" d="M 52,762.667 52,776 z" id="boundary" inkscape:connector-curvature="0" />
	<path style="fill:none;stroke:red;stroke-width:1px;stroke-linecap:butt;stroke-linejoin:miter;stroke-opacity:1" d="M 52,776 52,789.333 z" id="boundary" inkscape:connector-curvature="0" />
	<path style="fill:none;stroke:red;stroke-width:1px;stroke-linecap:butt;stroke-linejoin:miter;stroke-opacity:1" d="M 52,789.333 52,802.667 z" id="boundary" inkscape:connector-curvature="0" />
	<path style="fill:none;stroke:red;stroke-width:1px;stroke-linecap:butt;stroke-linejoin:miter;stroke-opacity:1" d="M 52,802.667 52,816 z" id="boundary" inkscape:connector-curvature="0" />
	<path style="fill:none;stroke:red;stroke-width:1px;stroke-linecap:butt;stroke-linejoin:miter;stroke-opacity:1" d="M 52,816 52,829.333 z" id="boundary" inkscape:connector-curvature="0" />
	<path style="fill:none;stroke:red;stroke-width:1px;stroke-linecap:butt;stroke-linejoin:miter;stroke-opacity:1" d="M 52,829.333 52,842.667 z" id="boundary" inkscape:connector-curvature="0" />
	<path style="fill:none;stroke:red;stroke-width:1px;stroke-linecap:butt;stroke-linejoin:miter;stroke-opacity:1" d="M 52,842.667 54.6667,856 z" id="boundary" inkscape:connector-curvature="0" />
	<path style="fill:none;stroke:red;stroke-width:1px;stroke-linecap:butt;stroke-linejoin:miter;stroke-opacity:1" d="M 52,969.333 58.6667,949.333 z" id="boundary" inkscape:connector-curvature="0" />
	<path style="fill:none;stroke:red;stroke-width:1px;stroke-linecap:butt;stroke-linejoin:miter;stroke-opacity:1" d="M 54.6667,856 58.6667,869.333 z" id="boundary" inkscape:connector-curvature="0" />
	<path style="fill:none;stroke:red;stroke-width:1px;stroke-linecap:butt;stroke-linejoin:miter;stroke-opacity:1" d="M 57.3333,632 64,618.667 z" id="boundary" inkscape:connector-curvature="0" />
	<path style="fill:none;stroke:red;stroke-width:1px;stroke-linecap:butt;stroke-linejoin:miter;stroke-opacity:1" d="M 58.6667,550.667 72,548 z" id="boundary" inkscape:connector-curvature="0" />
	<path style="fill:none;stroke:red;stroke-width:1px;stroke-linecap:butt;stroke-linejoin:miter;stroke-opacity:1" d="M 58.6667,716 65.3333,702.667 z" id="boundary" inkscape:connector-curvature="0" />
	<path style="fill:none;stroke:red;stroke-width:1px;stroke-linecap:butt;stroke-linejoin:miter;stroke-opacity:1" d="M 58.6667,869.333 58.6667,882.667 z" id="boundary" inkscape:connector-curvature="0" />
	<path style="fill:none;stroke:red;stroke-width:1px;stroke-linecap:butt;stroke-linejoin:miter;stroke-opacity:1" d="M 58.6667,882.667 58.6667,896 z" id="boundary" inkscape:connector-curvature="0" />
	<path style="fill:none;stroke:red;stroke-width:1px;stroke-linecap:butt;stroke-linejoin:miter;stroke-opacity:1" d="M 58.6667,896 58.6667,909.333 z" id="boundary" inkscape:connector-curvature="0" />
	<path style="fill:none;stroke:red;stroke-width:1px;stroke-linecap:butt;stroke-linejoin:miter;stroke-opacity:1" d="M 58.6667,909.333 58.6667,922.667 z" id="boundary" inkscape:connector-curvature="0" />
	<path style="fill:none;stroke:red;stroke-width:1px;stroke-linecap:butt;stroke-linejoin:miter;stroke-opacity:1" d="M 58.6667,922.667 58.6667,936 z" id="boundary" inkscape:connector-curvature="0" />
	<path style="fill:none;stroke:red;stroke-width:1px;stroke-linecap:butt;stroke-linejoin:miter;stroke-opacity:1" d="M 58.6667,936 58.6667,949.333 z" id="boundary" inkscape:connector-curvature="0" />
	<path style="fill:none;stroke:red;stroke-width:1px;stroke-linecap:butt;stroke-linejoin:miter;stroke-opacity:1" d="M 62.6667,569.333 76,566.667 z" id="boundary" inkscape:connector-curvature="0" />
	<path style="fill:none;stroke:red;stroke-width:1px;stroke-linecap:butt;stroke-linejoin:miter;stroke-opacity:1" d="M 64,618.667 74.6667,608 z" id="boundary" inkscape:connector-curvature="0" />
	<path style="fill:none;stroke:red;stroke-width:1px;stroke-linecap:butt;stroke-linejoin:miter;stroke-opacity:1" d="M 65.3333,702.667 72,689.333 z" id="boundary" inkscape:connector-curvature="0" />
	<path style="fill:none;stroke:red;stroke-width:1px;stroke-linecap:butt;stroke-linejoin:miter;stroke-opacity:1" d="M 72,548 84,541.333 z" id="boundary" inkscape:connector-curvature="0" />
	<path style="fill:none;stroke:red;stroke-width:1px;stroke-linecap:butt;stroke-linejoin:miter;stroke-opacity:1" d="M 72,689.333 82.6667,680 z" id="boundary" inkscape:connector-curvature="0" />
	<path style="fill:none;stroke:red;stroke-width:1px;stroke-linecap:butt;stroke-linejoin:miter;stroke-opacity:1" d="M 74.6667,608 81.3333,594.667 z" id="boundary" inkscape:connector-curvature="0" />
	<path style="fill:none;stroke:red;stroke-width:1px;stroke-linecap:butt;stroke-linejoin:miter;stroke-opacity:1" d="M 76,566.667 89.3333,562.667 z" id="boundary" inkscape:connector-curvature="0" />
	<path style="fill:none;stroke:red;stroke-width:1px;stroke-linecap:butt;stroke-linejoin:miter;stroke-opacity:1" d="M 81.3333,594.667 92,584 z" id="boundary" inkscape:connector-curvature="0" />
	<path style="fill:none;stroke:red;stroke-width:1px;stroke-linecap:butt;stroke-linejoin:miter;stroke-opacity:1" d="M 82.6667,680 89.3333,666.667 z" id="boundary" inkscape:connector-curvature="0" />
	<path style="fill:none;stroke:red;stroke-width:1px;stroke-linecap:butt;stroke-linejoin:miter;stroke-opacity:1" d="M 84,541.333 96,534.667 z" id="boundary" inkscape:connector-curvature="0" />
	<path style="fill:none;stroke:red;stroke-width:1px;stroke-linecap:butt;stroke-linejoin:miter;stroke-opacity:1" d="M 89.3333,562.667 100,570.667 z" id="boundary" inkscape:connector-curvature="0" />
	<path style="fill:none;stroke:red;stroke-width:1px;stroke-linecap:butt;stroke-linejoin:miter;stroke-opacity:1" d="M 89.3333,666.667 98.6667,656 z" id="boundary" inkscape:connector-curvature="0" />
	<path style="fill:none;stroke:red;stroke-width:1px;stroke-linecap:butt;stroke-linejoin:miter;stroke-opacity:1" d="M 92,584 100,570.667 z" id="boundary" inkscape:connector-curvature="0" />
	<path style="fill:none;stroke:red;stroke-width:1px;stroke-linecap:butt;stroke-linejoin:miter;stroke-opacity:1" d="M 96,534.667 109.333,534.667 z" id="boundary" inkscape:connector-curvature="0" />
	<path style="fill:none;stroke:red;stroke-width:1px;stroke-linecap:butt;stroke-linejoin:miter;stroke-opacity:1" d="M 97.3333,198.667 97.3333,212 z" id="boundary" inkscape:connector-curvature="0" />
	<path style="fill:none;stroke:red;stroke-width:1px;stroke-linecap:butt;stroke-linejoin:miter;stroke-opacity:1" d="M 97.3333,198.667 104,178.667 z" id="boundary" inkscape:connector-curvature="0" />
	<path style="fill:none;stroke:red;stroke-width:1px;stroke-linecap:butt;stroke-linejoin:miter;stroke-opacity:1" d="M 97.3333,212 97.3333,225.333 z" id="boundary" inkscape:connector-curvature="0" />
	<path style="fill:none;stroke:red;stroke-width:1px;stroke-linecap:butt;stroke-linejoin:miter;stroke-opacity:1" d="M 97.3333,225.333 97.3333,238.667 z" id="boundary" inkscape:connector-curvature="0" />
	<path style="fill:none;stroke:red;stroke-width:1px;stroke-linecap:butt;stroke-linejoin:miter;stroke-opacity:1" d="M 97.3333,238.667 97.3333,252 z" id="boundary" inkscape:connector-curvature="0" />
	<path style="fill:none;stroke:red;stroke-width:1px;stroke-linecap:butt;stroke-linejoin:miter;stroke-opacity:1" d="M 97.3333,252 97.3333,265.333 z" id="boundary" inkscape:connector-curvature="0" />
	<path style="fill:none;stroke:red;stroke-width:1px;stroke-linecap:butt;stroke-linejoin:miter;stroke-opacity:1" d="M 97.3333,265.333 97.3333,278.667 z" id="boundary" inkscape:connector-curvature="0" />
	<path style="fill:none;stroke:red;stroke-width:1px;stroke-linecap:butt;stroke-linejoin:miter;stroke-opacity:1" d="M 97.3333,278.667 97.3333,292 z" id="boundary" inkscape:connector-curvature="0" />
	<path style="fill:none;stroke:red;stroke-width:1px;stroke-linecap:butt;stroke-linejoin:miter;stroke-opacity:1" d="M 97.3333,292 97.3333,305.333 z" id="boundary" inkscape:connector-curvature="0" />
	<path style="fill:none;stroke:red;stroke-width:1px;stroke-linecap:butt;stroke-linejoin:miter;stroke-opacity:1" d="M 97.3333,305.333 97.3333,318.667 z" id="boundary" inkscape:connector-curvature="0" />
	<path style="fill:none;stroke:red;stroke-width:1px;stroke-linecap:butt;stroke-linejoin:miter;stroke-opacity:1" d="M 97.3333,318.667 104,330.667 z" id="boundary" inkscape:connector-curvature="0" />
	<path style="fill:none;stroke:red;stroke-width:1px;stroke-linecap:butt;stroke-linejoin:miter;stroke-opacity:1" d="M 97.3333,512 108,501.333 z" id="boundary" inkscape:connector-curvature="0" />
	<path style="fill:none;stroke:red;stroke-width:1px;stroke-linecap:butt;stroke-linejoin:miter;stroke-opacity:1" d="M 97.3333,512 108,521.333 z" id="boundary" inkscape:connector-curvature="0" />
	<path style="fill:none;stroke:red;stroke-width:1px;stroke-linecap:butt;stroke-linejoin:miter;stroke-opacity:1" d="M 98.6667,656 105.333,642.667 z" id="boundary" inkscape:connector-curvature="0" />
	<path style="fill:none;stroke:red;stroke-width:1px;stroke-linecap:butt;stroke-linejoin:miter;stroke-opacity:1" d="M 104,165.333 104,178.667 z" id="boundary" inkscape:connector-curvature="0" />
	<path style="fill:none;stroke:red;stroke-width:1px;stroke-linecap:butt;stroke-linejoin:miter;stroke-opacity:1" d="M 104,165.333 110.667,145.333 z" id="boundary" inkscape:connector-curvature="0" />
	<path style="fill:none;stroke:red;stroke-width:1px;stroke-linecap:butt;stroke-linejoin:miter;stroke-opacity:1" d="M 104,330.667 104,344 z" id="boundary" inkscape:connector-curvature="0" />
	<path style="fill:none;stroke:red;stroke-width:1px;stroke-linecap:butt;stroke-linejoin:miter;stroke-opacity:1" d="M 104,344 110.667,356 z" id="boundary" inkscape:connector-curvature="0" />
	<path style="fill:none;stroke:red;stroke-width:1px;stroke-linecap:butt;stroke-linejoin:miter;stroke-opacity:1" d="M 105.333,642.667 116,633.333 z" id="boundary" inkscape:connector-curvature="0" />
	<path style="fill:none;stroke:red;stroke-width:1px;stroke-linecap:butt;stroke-linejoin:miter;stroke-opacity:1" d="M 108,501.333 114.667,488 z" id="boundary" inkscape:connector-curvature="0" />
	<path style="fill:none;stroke:red;stroke-width:1px;stroke-linecap:butt;stroke-linejoin:miter;stroke-opacity:1" d="M 108,521.333 109.333,534.667 z" id="boundary" inkscape:connector-curvature="0" />
	<path style="fill:none;stroke:red;stroke-width:1px;stroke-linecap:butt;stroke-linejoin:miter;stroke-opacity:1" d="M 110.667,145.333 117.333,125.333 z" id="boundary" inkscape:connector-curvature="0" />
	<path style="fill:none;stroke:red;stroke-width:1px;stroke-linecap:butt;stroke-linejoin:miter;stroke-opacity:1" d="M 110.667,356 114.667,369.333 z" id="boundary" inkscape:connector-curvature="0" />
	<path style="fill:none;stroke:red;stroke-width:1px;stroke-linecap:butt;stroke-linejoin:miter;stroke-opacity:1" d="M 114.667,369.333 121.333,381.333 z" id="boundary" inkscape:connector-curvature="0" />
	<path style="fill:none;stroke:red;stroke-width:1px;stroke-linecap:butt;stroke-linejoin:miter;stroke-opacity:1" d="M 114.667,488 126.667,481.333 z" id="boundary" inkscape:connector-curvature="0" />
	<path style="fill:none;stroke:red;stroke-width:1px;stroke-linecap:butt;stroke-linejoin:miter;stroke-opacity:1" d="M 116,633.333 125.333,622.667 z" id="boundary" inkscape:connector-curvature="0" />
	<path style="fill:none;stroke:red;stroke-width:1px;stroke-linecap:butt;stroke-linejoin:miter;stroke-opacity:1" d="M 117.333,125.333 124,112 z" id="boundary" inkscape:connector-curvature="0" />
	<path style="fill:none;stroke:red;stroke-width:1px;stroke-linecap:butt;stroke-linejoin:miter;stroke-opacity:1" d="M 117.333,665.333 117.333,678.667 z" id="boundary" inkscape:connector-curvature="0" />
	<path style="fill:none;stroke:red;stroke-width:1px;stroke-linecap:butt;stroke-linejoin:miter;stroke-opacity:1" d="M 117.333,665.333 124,652 z" id="boundary" inkscape:connector-curvature="0" />
	<path style="fill:none;stroke:red;stroke-width:1px;stroke-linecap:butt;stroke-linejoin:miter;stroke-opacity:1" d="M 121.333,381.333 130.667,392 z" id="boundary" inkscape:connector-curvature="0" />
	<path style="fill:none;stroke:red;stroke-width:1px;stroke-linecap:butt;stroke-linejoin:miter;stroke-opacity:1" d="M 124,112 130.667,98.6667 z" id="boundary" inkscape:connector-curvature="0" />
	<path style="fill:none;stroke:red;stroke-width:1px;stroke-linecap:butt;stroke-linejoin:miter;stroke-opacity:1" d="M 124,652 138.667,656 z" id="boundary" inkscape:connector-curvature="0" />
	<path style="fill:none;stroke:red;stroke-width:1px;stroke-linecap:butt;stroke-linejoin:miter;stroke-opacity:1" d="M 125.333,622.667 130.667,636 z" id="boundary" inkscape:connector-curvature="0" />
	<path style="fill:none;stroke:red;stroke-width:1px;stroke-linecap:butt;stroke-linejoin:miter;stroke-opacity:1" d="M 126.667,481.333 137.333,472 z" id="boundary" inkscape:connector-curvature="0" />
	<path style="fill:none;stroke:red;stroke-width:1px;stroke-linecap:butt;stroke-linejoin:miter;stroke-opacity:1" d="M 130.667,85.3333 130.667,98.6667 z" id="boundary" inkscape:connector-curvature="0" />
	<path style="fill:none;stroke:red;stroke-width:1px;stroke-linecap:butt;stroke-linejoin:miter;stroke-opacity:1" d="M 130.667,85.3333 137.333,65.3333 z" id="boundary" inkscape:connector-curvature="0" />
	<path style="fill:none;stroke:red;stroke-width:1px;stroke-linecap:butt;stroke-linejoin:miter;stroke-opacity:1" d="M 130.667,392 141.333,401.333 z" id="boundary" inkscape:connector-curvature="0" />
	<path style="fill:none;stroke:red;stroke-width:1px;stroke-linecap:butt;stroke-linejoin:miter;stroke-opacity:1" d="M 137.333,52 137.333,65.3333 z" id="boundary" inkscape:connector-curvature="0" />
	<path style="fill:none;stroke:red;stroke-width:1px;stroke-linecap:butt;stroke-linejoin:miter;stroke-opacity:1" d="M 137.333,52 144,32 z" id="boundary" inkscape:connector-curvature="0" />
	<path style="fill:none;stroke:red;stroke-width:1px;stroke-linecap:butt;stroke-linejoin:miter;stroke-opacity:1" d="M 137.333,472 150.667,465.333 z" id="boundary" inkscape:connector-curvature="0" />
	<path style="fill:none;stroke:red;stroke-width:1px;stroke-linecap:butt;stroke-linejoin:miter;stroke-opacity:1" d="M 138.667,656 149.333,646.667 z" id="boundary" inkscape:connector-curvature="0" />
	<path style="fill:none;stroke:red;stroke-width:1px;stroke-linecap:butt;stroke-linejoin:miter;stroke-opacity:1" d="M 141.333,401.333 152,409.333 z" id="boundary" inkscape:connector-curvature="0" />
	<path style="fill:none;stroke:red;stroke-width:1px;stroke-linecap:butt;stroke-linejoin:miter;stroke-opacity:1" d="M 144,32 157.333,25.3333 z" id="boundary" inkscape:connector-curvature="0" />
	<path style="fill:none;stroke:red;stroke-width:1px;stroke-linecap:butt;stroke-linejoin:miter;stroke-opacity:1" d="M 144,432 144,445.333 z" id="boundary" inkscape:connector-curvature="0" />
	<path style="fill:none;stroke:red;stroke-width:1px;stroke-linecap:butt;stroke-linejoin:miter;stroke-opacity:1" d="M 144,432 157.333,428 z" id="boundary" inkscape:connector-curvature="0" />
	<path style="fill:none;stroke:red;stroke-width:1px;stroke-linecap:butt;stroke-linejoin:miter;stroke-opacity:1" d="M 144,445.333 157.333,449.333 z" id="boundary" inkscape:connector-curvature="0" />
	<path style="fill:none;stroke:red;stroke-width:1px;stroke-linecap:butt;stroke-linejoin:miter;stroke-opacity:1" d="M 149.333,646.667 156,633.333 z" id="boundary" inkscape:connector-curvature="0" />
	<path style="fill:none;stroke:red;stroke-width:1px;stroke-linecap:butt;stroke-linejoin:miter;stroke-opacity:1" d="M 150.667,465.333 164,461.333 z" id="boundary" inkscape:connector-curvature="0" />
	<path style="fill:none;stroke:red;stroke-width:1px;stroke-linecap:butt;stroke-linejoin:miter;stroke-opacity:1" d="M 152,409.333 164,416 z" id="boundary" inkscape:connector-curvature="0" />
	<path style="fill:none;stroke:red;stroke-width:1px;stroke-linecap:butt;stroke-linejoin:miter;stroke-opacity:1" d="M 156,633.333 169.333,626.667 z" id="boundary" inkscape:connector-curvature="0" />
	<path style="fill:none;stroke:red;stroke-width:1px;stroke-linecap:butt;stroke-linejoin:miter;stroke-opacity:1" d="M 157.333,25.3333 170.667,21.3333 z" id="boundary" inkscape:connector-curvature="0" />
	<path style="fill:none;stroke:red;stroke-width:1px;stroke-linecap:butt;stroke-linejoin:miter;stroke-opacity:1" d="M 157.333,428 170.667,428 z" id="boundary" inkscape:connector-curvature="0" />
	<path style="fill:none;stroke:red;stroke-width:1px;stroke-linecap:butt;stroke-linejoin:miter;stroke-opacity:1" d="M 157.333,449.333 170.667,449.333 z" id="boundary" inkscape:connector-curvature="0" />
	<path style="fill:none;stroke:red;stroke-width:1px;stroke-linecap:butt;stroke-linejoin:miter;stroke-opacity:1" d="M 169.333,626.667 182.667,620 z" id="boundary" inkscape:connector-curvature="0" />
	<path style="fill:none;stroke:red;stroke-width:1px;stroke-linecap:butt;stroke-linejoin:miter;stroke-opacity:1" d="M 170.667,21.3333 184,21.3333 z" id="boundary" inkscape:connector-curvature="0" />
	<path style="fill:none;stroke:red;stroke-width:1px;stroke-linecap:butt;stroke-linejoin:miter;stroke-opacity:1" d="M 170.667,428 170.667,449.333 z" id="boundary" inkscape:connector-curvature="0" />
	<path style="fill:none;stroke:red;stroke-width:1px;stroke-linecap:butt;stroke-linejoin:miter;stroke-opacity:1" d="M 182.667,620 192,609.333 z" id="boundary" inkscape:connector-curvature="0" />
	<path style="fill:none;stroke:red;stroke-width:1px;stroke-linecap:butt;stroke-linejoin:miter;stroke-opacity:1" d="M 184,21.3333 197.333,21.3333 z" id="boundary" inkscape:connector-curvature="0" />
	<path style="fill:none;stroke:red;stroke-width:1px;stroke-linecap:butt;stroke-linejoin:miter;stroke-opacity:1" d="M 192,609.333 204,602.667 z" id="boundary" inkscape:connector-curvature="0" />
	<path style="fill:none;stroke:red;stroke-width:1px;stroke-linecap:butt;stroke-linejoin:miter;stroke-opacity:1" d="M 197.333,21.3333 210.667,21.3333 z" id="boundary" inkscape:connector-curvature="0" />
	<path style="fill:none;stroke:red;stroke-width:1px;stroke-linecap:butt;stroke-linejoin:miter;stroke-opacity:1" d="M 204,602.667 214.667,594.667 z" id="boundary" inkscape:connector-curvature="0" />
	<path style="fill:none;stroke:red;stroke-width:1px;stroke-linecap:butt;stroke-linejoin:miter;stroke-opacity:1" d="M 210.667,21.3333 222.667,28 z" id="boundary" inkscape:connector-curvature="0" />
	<path style="fill:none;stroke:red;stroke-width:1px;stroke-linecap:butt;stroke-linejoin:miter;stroke-opacity:1" d="M 214.667,594.667 225.333,582.667 z" id="boundary" inkscape:connector-curvature="0" />
	<path style="fill:none;stroke:red;stroke-width:1px;stroke-linecap:butt;stroke-linejoin:miter;stroke-opacity:1" d="M 222.667,28 236,28 z" id="boundary" inkscape:connector-curvature="0" />
	<path style="fill:none;stroke:red;stroke-width:1px;stroke-linecap:butt;stroke-linejoin:miter;stroke-opacity:1" d="M 225.333,582.667 237.333,576 z" id="boundary" inkscape:connector-curvature="0" />
	<path style="fill:none;stroke:red;stroke-width:1px;stroke-linecap:butt;stroke-linejoin:miter;stroke-opacity:1" d="M 236,28 249.333,28 z" id="boundary" inkscape:connector-curvature="0" />
	<path style="fill:none;stroke:red;stroke-width:1px;stroke-linecap:butt;stroke-linejoin:miter;stroke-opacity:1" d="M 237.333,576 241.333,589.333 z" id="boundary" inkscape:connector-curvature="0" />
	<path style="fill:none;stroke:red;stroke-width:1px;stroke-linecap:butt;stroke-linejoin:miter;stroke-opacity:1" d="M 241.333,589.333 252,598.667 z" id="boundary" inkscape:connector-curvature="0" />
	<path style="fill:none;stroke:red;stroke-width:1px;stroke-linecap:butt;stroke-linejoin:miter;stroke-opacity:1" d="M 249.333,28 261.333,34.6667 z" id="boundary" inkscape:connector-curvature="0" />
	<path style="fill:none;stroke:red;stroke-width:1px;stroke-linecap:butt;stroke-linejoin:miter;stroke-opacity:1" d="M 252,598.667 261.333,588 z" id="boundary" inkscape:connector-curvature="0" />
	<path style="fill:none;stroke:red;stroke-width:1px;stroke-linecap:butt;stroke-linejoin:miter;stroke-opacity:1" d="M 261.333,34.6667 274.667,34.6667 z" id="boundary" inkscape:connector-curvature="0" />
	<path style="fill:none;stroke:red;stroke-width:1px;stroke-linecap:butt;stroke-linejoin:miter;stroke-opacity:1" d="M 265.333,549.333 265.333,562.667 z" id="boundary" inkscape:connector-curvature="0" />
	<path style="fill:none;stroke:red;stroke-width:1px;stroke-linecap:butt;stroke-linejoin:miter;stroke-opacity:1" d="M 274.667,34.6667 286.667,41.3333 z" id="boundary" inkscape:connector-curvature="0" />
	<path style="fill:none;stroke:red;stroke-width:1px;stroke-linecap:butt;stroke-linejoin:miter;stroke-opacity:1" d="M 277.333,556 281.333,569.333 z" id="boundary" inkscape:connector-curvature="0" />
	<path style="fill:none;stroke:red;stroke-width:1px;stroke-linecap:butt;stroke-linejoin:miter;stroke-opacity:1" d="M 281.333,569.333 288,581.333 z" id="boundary" inkscape:connector-curvature="0" />
	<path style="fill:none;stroke:red;stroke-width:1px;stroke-linecap:butt;stroke-linejoin:miter;stroke-opacity:1" d="M 286.667,41.3333 298.667,48 z" id="boundary" inkscape:connector-curvature="0" />
	<path style="fill:none;stroke:red;stroke-width:1px;stroke-linecap:butt;stroke-linejoin:miter;stroke-opacity:1" d="M 288,581.333 293.333,594.667 z" id="boundary" inkscape:connector-curvature="0" />
	<path style="fill:none;stroke:red;stroke-width:1px;stroke-linecap:butt;stroke-linejoin:miter;stroke-opacity:1" d="M 293.333,594.667 304,602.667 z" id="boundary" inkscape:connector-curvature="0" />
	<path style="fill:none;stroke:red;stroke-width:1px;stroke-linecap:butt;stroke-linejoin:miter;stroke-opacity:1" d="M 298.667,48 312,52 z" id="boundary" inkscape:connector-curvature="0" />
	<path style="fill:none;stroke:red;stroke-width:1px;stroke-linecap:butt;stroke-linejoin:miter;stroke-opacity:1" d="M 304,602.667 312,613.333 z" id="boundary" inkscape:connector-curvature="0" />
	<path style="fill:none;stroke:red;stroke-width:1px;stroke-linecap:butt;stroke-linejoin:miter;stroke-opacity:1" d="M 312,52 322.667,61.3333 z" id="boundary" inkscape:connector-curvature="0" />
	<path style="fill:none;stroke:red;stroke-width:1px;stroke-linecap:butt;stroke-linejoin:miter;stroke-opacity:1" d="M 312,613.333 322.667,622.667 z" id="boundary" inkscape:connector-curvature="0" />
	<path style="fill:none;stroke:red;stroke-width:1px;stroke-linecap:butt;stroke-linejoin:miter;stroke-opacity:1" d="M 322.667,61.3333 334.667,68 z" id="boundary" inkscape:connector-curvature="0" />
	<path style="fill:none;stroke:red;stroke-width:1px;stroke-linecap:butt;stroke-linejoin:miter;stroke-opacity:1" d="M 322.667,622.667 334.667,629.333 z" id="boundary" inkscape:connector-curvature="0" />
	<path style="fill:none;stroke:red;stroke-width:1px;stroke-linecap:butt;stroke-linejoin:miter;stroke-opacity:1" d="M 334.667,68 346.667,74.6667 z" id="boundary" inkscape:connector-curvature="0" />
	<path style="fill:none;stroke:red;stroke-width:1px;stroke-linecap:butt;stroke-linejoin:miter;stroke-opacity:1" d="M 334.667,629.333 346.667,636 z" id="boundary" inkscape:connector-curvature="0" />
	<path style="fill:none;stroke:red;stroke-width:1px;stroke-linecap:butt;stroke-linejoin:miter;stroke-opacity:1" d="M 346.667,74.6667 358.667,81.3333 z" id="boundary" inkscape:connector-curvature="0" />
	<path style="fill:none;stroke:red;stroke-width:1px;stroke-linecap:butt;stroke-linejoin:miter;stroke-opacity:1" d="M 346.667,636 360,636 z" id="boundary" inkscape:connector-curvature="0" />
	<path style="fill:none;stroke:red;stroke-width:1px;stroke-linecap:butt;stroke-linejoin:miter;stroke-opacity:1" d="M 358.667,81.3333 370.667,88 z" id="boundary" inkscape:connector-curvature="0" />
	<path style="fill:none;stroke:red;stroke-width:1px;stroke-linecap:butt;stroke-linejoin:miter;stroke-opacity:1" d="M 360,636 372,642.667 z" id="boundary" inkscape:connector-curvature="0" />
	<path style="fill:none;stroke:red;stroke-width:1px;stroke-linecap:butt;stroke-linejoin:miter;stroke-opacity:1" d="M 370.667,88 384,90.6667 z" id="boundary" inkscape:connector-curvature="0" />
	<path style="fill:none;stroke:red;stroke-width:1px;stroke-linecap:butt;stroke-linejoin:miter;stroke-opacity:1" d="M 372,642.667 385.333,642.667 z" id="boundary" inkscape:connector-curvature="0" />
	<path style="fill:none;stroke:red;stroke-width:1px;stroke-linecap:butt;stroke-linejoin:miter;stroke-opacity:1" d="M 384,90.6667 397.333,94.6667 z" id="boundary" inkscape:connector-curvature="0" />
	<path style="fill:none;stroke:red;stroke-width:1px;stroke-linecap:butt;stroke-linejoin:miter;stroke-opacity:1" d="M 385.333,642.667 398.667,642.667 z" id="boundary" inkscape:connector-curvature="0" />
	<path style="fill:none;stroke:red;stroke-width:1px;stroke-linecap:butt;stroke-linejoin:miter;stroke-opacity:1" d="M 397.333,94.6667 410.667,92 z" id="boundary" inkscape:connector-curvature="0" />
	<path style="fill:none;stroke:red;stroke-width:1px;stroke-linecap:butt;stroke-linejoin:miter;stroke-opacity:1" d="M 398.667,642.667 412,642.667 z" id="boundary" inkscape:connector-curvature="0" />
	<path style="fill:none;stroke:red;stroke-width:1px;stroke-linecap:butt;stroke-linejoin:miter;stroke-opacity:1" d="M 410.667,92 424,88 z" id="boundary" inkscape:connector-curvature="0" />
	<path style="fill:none;stroke:red;stroke-width:1px;stroke-linecap:butt;stroke-linejoin:miter;stroke-opacity:1" d="M 412,642.667 425.333,642.667 z" id="boundary" inkscape:connector-curvature="0" />
	<path style="fill:none;stroke:red;stroke-width:1px;stroke-linecap:butt;stroke-linejoin:miter;stroke-opacity:1" d="M 424,88 437.333,85.3333 z" id="boundary" inkscape:connector-curvature="0" />
	<path style="fill:none;stroke:red;stroke-width:1px;stroke-linecap:butt;stroke-linejoin:miter;stroke-opacity:1" d="M 425.333,642.667 438.667,642.667 z" id="boundary" inkscape:connector-curvature="0" />
	<path style="fill:none;stroke:red;stroke-width:1px;stroke-linecap:butt;stroke-linejoin:miter;stroke-opacity:1" d="M 437.333,85.3333 450.667,81.3333 z" id="boundary" inkscape:connector-curvature="0" />
	<path style="fill:none;stroke:red;stroke-width:1px;stroke-linecap:butt;stroke-linejoin:miter;stroke-opacity:1" d="M 438.667,642.667 452,642.667 z" id="boundary" inkscape:connector-curvature="0" />
	<path style="fill:none;stroke:red;stroke-width:1px;stroke-linecap:butt;stroke-linejoin:miter;stroke-opacity:1" d="M 450.667,81.3333 462.667,74.6667 z" id="boundary" inkscape:connector-curvature="0" />
	<path style="fill:none;stroke:red;stroke-width:1px;stroke-linecap:butt;stroke-linejoin:miter;stroke-opacity:1" d="M 452,642.667 465.333,636 z" id="boundary" inkscape:connector-curvature="0" />
	<path style="fill:none;stroke:red;stroke-width:1px;stroke-linecap:butt;stroke-linejoin:miter;stroke-opacity:1" d="M 462.667,74.6667 476,74.6667 z" id="boundary" inkscape:connector-curvature="0" />
	<path style="fill:none;stroke:red;stroke-width:1px;stroke-linecap:butt;stroke-linejoin:miter;stroke-opacity:1" d="M 465.333,636 478.667,636 z" id="boundary" inkscape:connector-curvature="0" />
	<path style="fill:none;stroke:red;stroke-width:1px;stroke-linecap:butt;stroke-linejoin:miter;stroke-opacity:1" d="M 476,74.6667 489.333,74.6667 z" id="boundary" inkscape:connector-curvature="0" />
	<path style="fill:none;stroke:red;stroke-width:1px;stroke-linecap:butt;stroke-linejoin:miter;stroke-opacity:1" d="M 478.667,636 492,636 z" id="boundary" inkscape:connector-curvature="0" />
	<path style="fill:none;stroke:red;stroke-width:1px;stroke-linecap:butt;stroke-linejoin:miter;stroke-opacity:1" d="M 489.333,74.6667 502.667,74.6667 z" id="boundary" inkscape:connector-curvature="0" />
	<path style="fill:none;stroke:red;stroke-width:1px;stroke-linecap:butt;stroke-linejoin:miter;stroke-opacity:1" d="M 492,636 505.333,629.333 z" id="boundary" inkscape:connector-curvature="0" />
	<path style="fill:none;stroke:red;stroke-width:1px;stroke-linecap:butt;stroke-linejoin:miter;stroke-opacity:1" d="M 502.667,74.6667 514.667,68 z" id="boundary" inkscape:connector-curvature="0" />
	<path style="fill:none;stroke:red;stroke-width:1px;stroke-linecap:butt;stroke-linejoin:miter;stroke-opacity:1" d="M 505.333,629.333 518.667,629.333 z" id="boundary" inkscape:connector-curvature="0" />
	<path style="fill:none;stroke:red;stroke-width:1px;stroke-linecap:butt;stroke-linejoin:miter;stroke-opacity:1" d="M 514.667,68 528,68 z" id="boundary" inkscape:connector-curvature="0" />
	<path style="fill:none;stroke:red;stroke-width:1px;stroke-linecap:butt;stroke-linejoin:miter;stroke-opacity:1" d="M 518.667,629.333 532,629.333 z" id="boundary" inkscape:connector-curvature="0" />
	<path style="fill:none;stroke:red;stroke-width:1px;stroke-linecap:butt;stroke-linejoin:miter;stroke-opacity:1" d="M 528,68 541.333,68 z" id="boundary" inkscape:connector-curvature="0" />
	<path style="fill:none;stroke:red;stroke-width:1px;stroke-linecap:butt;stroke-linejoin:miter;stroke-opacity:1" d="M 532,629.333 545.333,629.333 z" id="boundary" inkscape:connector-curvature="0" />
	<path style="fill:none;stroke:red;stroke-width:1px;stroke-linecap:butt;stroke-linejoin:miter;stroke-opacity:1" d="M 541.333,68 554.667,68 z" id="boundary" inkscape:connector-curvature="0" />
	<path style="fill:none;stroke:red;stroke-width:1px;stroke-linecap:butt;stroke-linejoin:miter;stroke-opacity:1" d="M 545.333,629.333 558.667,629.333 z" id="boundary" inkscape:connector-curvature="0" />
	<path style="fill:none;stroke:red;stroke-width:1px;stroke-linecap:butt;stroke-linejoin:miter;stroke-opacity:1" d="M 554.667,68 568,68 z" id="boundary" inkscape:connector-curvature="0" />
	<path style="fill:none;stroke:red;stroke-width:1px;stroke-linecap:butt;stroke-linejoin:miter;stroke-opacity:1" d="M 558.667,629.333 570.667,622.667 z" id="boundary" inkscape:connector-curvature="0" />
	<path style="fill:none;stroke:red;stroke-width:1px;stroke-linecap:butt;stroke-linejoin:miter;stroke-opacity:1" d="M 568,68 581.333,68 z" id="boundary" inkscape:connector-curvature="0" />
	<path style="fill:none;stroke:red;stroke-width:1px;stroke-linecap:butt;stroke-linejoin:miter;stroke-opacity:1" d="M 570.667,622.667 584,622.667 z" id="boundary" inkscape:connector-curvature="0" />
	<path style="fill:none;stroke:red;stroke-width:1px;stroke-linecap:butt;stroke-linejoin:miter;stroke-opacity:1" d="M 581.333,68 594.667,68 z" id="boundary" inkscape:connector-curvature="0" />
	<path style="fill:none;stroke:red;stroke-width:1px;stroke-linecap:butt;stroke-linejoin:miter;stroke-opacity:1" d="M 584,622.667 597.333,622.667 z" id="boundary" inkscape:connector-curvature="0" />
	<path style="fill:none;stroke:red;stroke-width:1px;stroke-linecap:butt;stroke-linejoin:miter;stroke-opacity:1" d="M 594.667,68 606.667,61.3333 z" id="boundary" inkscape:connector-curvature="0" />
	<path style="fill:none;stroke:red;stroke-width:1px;stroke-linecap:butt;stroke-linejoin:miter;stroke-opacity:1" d="M 597.333,622.667 610.667,622.667 z" id="boundary" inkscape:connector-curvature="0" />
	<path style="fill:none;stroke:red;stroke-width:1px;stroke-linecap:butt;stroke-linejoin:miter;stroke-opacity:1" d="M 606.667,61.3333 620,61.3333 z" id="boundary" inkscape:connector-curvature="0" />
	<path style="fill:none;stroke:red;stroke-width:1px;stroke-linecap:butt;stroke-linejoin:miter;stroke-opacity:1" d="M 610.667,622.667 624,622.667 z" id="boundary" inkscape:connector-curvature="0" />
	<path style="fill:none;stroke:red;stroke-width:1px;stroke-linecap:butt;stroke-linejoin:miter;stroke-opacity:1" d="M 620,61.3333 633.333,61.3333 z" id="boundary" inkscape:connector-curvature="0" />
	<path style="fill:none;stroke:red;stroke-width:1px;stroke-linecap:butt;stroke-linejoin:miter;stroke-opacity:1" d="M 624,622.667 637.333,622.667 z" id="boundary" inkscape:connector-curvature="0" />
	<path style="fill:none;stroke:red;stroke-width:1px;stroke-linecap:butt;stroke-linejoin:miter;stroke-opacity:1" d="M 625.333,356 625.333,369.333 z" id="boundary" inkscape:connector-curvature="0" />
	<path style="fill:none;stroke:red;stroke-width:1px;stroke-linecap:butt;stroke-linejoin:miter;stroke-opacity:1" d="M 625.333,356 632,336 z" id="boundary" inkscape:connector-curvature="0" />
	<path style="fill:none;stroke:red;stroke-width:1px;stroke-linecap:butt;stroke-linejoin:miter;stroke-opacity:1" d="M 625.333,369.333 625.333,382.667 z" id="boundary" inkscape:connector-curvature="0" />
	<path style="fill:none;stroke:red;stroke-width:1px;stroke-linecap:butt;stroke-linejoin:miter;stroke-opacity:1" d="M 625.333,382.667 628,396 z" id="boundary" inkscape:connector-curvature="0" />
	<path style="fill:none;stroke:red;stroke-width:1px;stroke-linecap:butt;stroke-linejoin:miter;stroke-opacity:1" d="M 628,396 632,409.333 z" id="boundary" inkscape:connector-curvature="0" />
	<path style="fill:none;stroke:red;stroke-width:1px;stroke-linecap:butt;stroke-linejoin:miter;stroke-opacity:1" d="M 632,336 638.667,316 z" id="boundary" inkscape:connector-curvature="0" />
	<path style="fill:none;stroke:red;stroke-width:1px;stroke-linecap:butt;stroke-linejoin:miter;stroke-opacity:1" d="M 632,409.333 634.667,422.667 z" id="boundary" inkscape:connector-curvature="0" />
	<path style="fill:none;stroke:red;stroke-width:1px;stroke-linecap:butt;stroke-linejoin:miter;stroke-opacity:1" d="M 633.333,61.3333 646.667,56 z" id="boundary" inkscape:connector-curvature="0" />
	<path style="fill:none;stroke:red;stroke-width:1px;stroke-linecap:butt;stroke-linejoin:miter;stroke-opacity:1" d="M 634.667,422.667 638.667,436 z" id="boundary" inkscape:connector-curvature="0" />
	<path style="fill:none;stroke:red;stroke-width:1px;stroke-linecap:butt;stroke-linejoin:miter;stroke-opacity:1" d="M 637.333,622.667 650.667,622.667 z" id="boundary" inkscape:connector-curvature="0" />
	<path style="fill:none;stroke:red;stroke-width:1px;stroke-linecap:butt;stroke-linejoin:miter;stroke-opacity:1" d="M 638.667,316 645.333,302.667 z" id="boundary" inkscape:connector-curvature="0" />
	<path style="fill:none;stroke:red;stroke-width:1px;stroke-linecap:butt;stroke-linejoin:miter;stroke-opacity:1" d="M 638.667,436 641.333,449.333 z" id="boundary" inkscape:connector-curvature="0" />
	<path style="fill:none;stroke:red;stroke-width:1px;stroke-linecap:butt;stroke-linejoin:miter;stroke-opacity:1" d="M 641.333,449.333 645.333,462.667 z" id="boundary" inkscape:connector-curvature="0" />
	<path style="fill:none;stroke:red;stroke-width:1px;stroke-linecap:butt;stroke-linejoin:miter;stroke-opacity:1" d="M 645.333,302.667 652,289.333 z" id="boundary" inkscape:connector-curvature="0" />
	<path style="fill:none;stroke:red;stroke-width:1px;stroke-linecap:butt;stroke-linejoin:miter;stroke-opacity:1" d="M 645.333,462.667 652,474.667 z" id="boundary" inkscape:connector-curvature="0" />
	<path style="fill:none;stroke:red;stroke-width:1px;stroke-linecap:butt;stroke-linejoin:miter;stroke-opacity:1" d="M 646.667,56 660,54.6667 z" id="boundary" inkscape:connector-curvature="0" />
	<path style="fill:none;stroke:red;stroke-width:1px;stroke-linecap:butt;stroke-linejoin:miter;stroke-opacity:1" d="M 650.667,622.667 658.667,602.667 z" id="boundary" inkscape:connector-curvature="0" />
	<path style="fill:none;stroke:red;stroke-width:1px;stroke-linecap:butt;stroke-linejoin:miter;stroke-opacity:1" d="M 652,289.333 658.667,269.333 z" id="boundary" inkscape:connector-curvature="0" />
	<path style="fill:none;stroke:red;stroke-width:1px;stroke-linecap:butt;stroke-linejoin:miter;stroke-opacity:1" d="M 652,474.667 658.667,486.667 z" id="boundary" inkscape:connector-curvature="0" />
	<path style="fill:none;stroke:red;stroke-width:1px;stroke-linecap:butt;stroke-linejoin:miter;stroke-opacity:1" d="M 658.667,269.333 665.333,256 z" id="boundary" inkscape:connector-curvature="0" />
	<path style="fill:none;stroke:red;stroke-width:1px;stroke-linecap:butt;stroke-linejoin:miter;stroke-opacity:1" d="M 658.667,486.667 658.667,500 z" id="boundary" inkscape:connector-curvature="0" />
	<path style="fill:none;stroke:red;stroke-width:1px;stroke-linecap:butt;stroke-linejoin:miter;stroke-opacity:1" d="M 658.667,500 658.667,513.333 z" id="boundary" inkscape:connector-curvature="0" />
	<path style="fill:none;stroke:red;stroke-width:1px;stroke-linecap:butt;stroke-linejoin:miter;stroke-opacity:1" d="M 658.667,513.333 658.667,526.667 z" id="boundary" inkscape:connector-curvature="0" />
	<path style="fill:none;stroke:red;stroke-width:1px;stroke-linecap:butt;stroke-linejoin:miter;stroke-opacity:1" d="M 658.667,526.667 665.333,538.667 z" id="boundary" inkscape:connector-curvature="0" />
	<path style="fill:none;stroke:red;stroke-width:1px;stroke-linecap:butt;stroke-linejoin:miter;stroke-opacity:1" d="M 658.667,589.333 658.667,602.667 z" id="boundary" inkscape:connector-curvature="0" />
	<path style="fill:none;stroke:red;stroke-width:1px;stroke-linecap:butt;stroke-linejoin:miter;stroke-opacity:1" d="M 658.667,589.333 665.333,565.333 z" id="boundary" inkscape:connector-curvature="0" />
	<path style="fill:none;stroke:red;stroke-width:1px;stroke-linecap:butt;stroke-linejoin:miter;stroke-opacity:1" d="M 660,54.6667 670.667,45.3333 z" id="boundary" inkscape:connector-curvature="0" />
	<path style="fill:none;stroke:red;stroke-width:1px;stroke-linecap:butt;stroke-linejoin:miter;stroke-opacity:1" d="M 665.333,242.667 665.333,256 z" id="boundary" inkscape:connector-curvature="0" />
	<path style="fill:none;stroke:red;stroke-width:1px;stroke-linecap:butt;stroke-linejoin:miter;stroke-opacity:1" d="M 665.333,242.667 672,229.333 z" id="boundary" inkscape:connector-curvature="0" />
	<path style="fill:none;stroke:red;stroke-width:1px;stroke-linecap:butt;stroke-linejoin:miter;stroke-opacity:1" d="M 665.333,538.667 665.333,552 z" id="boundary" inkscape:connector-curvature="0" />
	<path style="fill:none;stroke:red;stroke-width:1px;stroke-linecap:butt;stroke-linejoin:miter;stroke-opacity:1" d="M 665.333,552 665.333,565.333 z" id="boundary" inkscape:connector-curvature="0" />
	<path style="fill:none;stroke:red;stroke-width:1px;stroke-linecap:butt;stroke-linejoin:miter;stroke-opacity:1" d="M 670.667,45.3333 684,38.6667 z" id="boundary" inkscape:connector-curvature="0" />
	<path style="fill:none;stroke:red;stroke-width:1px;stroke-linecap:butt;stroke-linejoin:miter;stroke-opacity:1" d="M 672,216 672,229.333 z" id="boundary" inkscape:connector-curvature="0" />
	<path style="fill:none;stroke:red;stroke-width:1px;stroke-linecap:butt;stroke-linejoin:miter;stroke-opacity:1" d="M 672,216 678.667,202.667 z" id="boundary" inkscape:connector-curvature="0" />
	<path style="fill:none;stroke:red;stroke-width:1px;stroke-linecap:butt;stroke-linejoin:miter;stroke-opacity:1" d="M 678.667,176 678.667,189.333 z" id="boundary" inkscape:connector-curvature="0" />
	<path style="fill:none;stroke:red;stroke-width:1px;stroke-linecap:butt;stroke-linejoin:miter;stroke-opacity:1" d="M 678.667,176 685.333,156 z" id="boundary" inkscape:connector-curvature="0" />
	<path style="fill:none;stroke:red;stroke-width:1px;stroke-linecap:butt;stroke-linejoin:miter;stroke-opacity:1" d="M 678.667,189.333 678.667,202.667 z" id="boundary" inkscape:connector-curvature="0" />
	<path style="fill:none;stroke:red;stroke-width:1px;stroke-linecap:butt;stroke-linejoin:miter;stroke-opacity:1" d="M 684,38.6667 697.333,34.6667 z" id="boundary" inkscape:connector-curvature="0" />
	<path style="fill:none;stroke:red;stroke-width:1px;stroke-linecap:butt;stroke-linejoin:miter;stroke-opacity:1" d="M 685.333,129.333 685.333,142.667 z" id="boundary" inkscape:connector-curvature="0" />
	<path style="fill:none;stroke:red;stroke-width:1px;stroke-linecap:butt;stroke-linejoin:miter;stroke-opacity:1" d="M 685.333,129.333 692,109.333 z" id="boundary" inkscape:connector-curvature="0" />
	<path style="fill:none;stroke:red;stroke-width:1px;stroke-linecap:butt;stroke-linejoin:miter;stroke-opacity:1" d="M 685.333,142.667 685.333,156 z" id="boundary" inkscape:connector-curvature="0" />
	<path style="fill:none;stroke:red;stroke-width:1px;stroke-linecap:butt;stroke-linejoin:miter;stroke-opacity:1" d="M 692,109.333 698.667,96 z" id="boundary" inkscape:connector-curvature="0" />
	<path style="fill:none;stroke:red;stroke-width:1px;stroke-linecap:butt;stroke-linejoin:miter;stroke-opacity:1" d="M 697.333,34.6667 709.333,28 z" id="boundary" inkscape:connector-curvature="0" />
	<path style="fill:none;stroke:red;stroke-width:1px;stroke-linecap:butt;stroke-linejoin:miter;stroke-opacity:1" d="M 698.667,96 709.333,86.6667 z" id="boundary" inkscape:connector-curvature="0" />
	<path style="fill:none;stroke:red;stroke-width:1px;stroke-linecap:butt;stroke-linejoin:miter;stroke-opacity:1" d="M 709.333,28 722.667,28 z" id="boundary" inkscape:connector-curvature="0" />
	<path style="fill:none;stroke:red;stroke-width:1px;stroke-linecap:butt;stroke-linejoin:miter;stroke-opacity:1" d="M 709.333,86.6667 716,73.3333 z" id="boundary" inkscape:connector-curvature="0" />
	<path style="fill:none;stroke:red;stroke-width:1px;stroke-linecap:butt;stroke-linejoin:miter;stroke-opacity:1" d="M 716,73.3333 725.333,56 z" id="boundary" inkscape:connector-curvature="0" />
	<path style="fill:none;stroke:red;stroke-width:1px;stroke-linecap:butt;stroke-linejoin:miter;stroke-opacity:1" d="M 722.667,28 734.667,21.3333 z" id="boundary" inkscape:connector-curvature="0" />
	<path style="fill:none;stroke:red;stroke-width:1px;stroke-linecap:butt;stroke-linejoin:miter;stroke-opacity:1" d="M 725.333,56 736,46.6667 z" id="boundary" inkscape:connector-curvature="0" />
	<path style="fill:none;stroke:red;stroke-width:1px;stroke-linecap:butt;stroke-linejoin:miter;stroke-opacity:1" d="M 734.667,21.3333 745.333,29.3333 z" id="boundary" inkscape:connector-curvature="0" />
	<path style="fill:none;stroke:red;stroke-width:1px;stroke-linecap:butt;stroke-linejoin:miter;stroke-opacity:1" d="M 745.333,10.6667 756,20 z" id="boundary" inkscape:connector-curvature="0" />
	<path style="fill:none;stroke:red;stroke-width:1px;stroke-linecap:butt;stroke-linejoin:miter;stroke-opacity:1" d="M 745.333,10.6667 758.667,4 z" id="boundary" inkscape:connector-curvature="0" />
	<path style="fill:none;stroke:red;stroke-width:1px;stroke-linecap:butt;stroke-linejoin:miter;stroke-opacity:1" d="M 745.333,29.3333 756,20 z" id="boundary" inkscape:connector-curvature="0" />
	<path style="fill:none;stroke:red;stroke-width:1px;stroke-linecap:butt;stroke-linejoin:miter;stroke-opacity:1" d="M 758.667,4 772,5.33333 z" id="boundary" inkscape:connector-curvature="0" />
	<circle cx="4" cy="898.667" r="4" fill="#0" id="circle0"/>
	<circle cx="10.6667" cy="885.333" r="4" fill="#0" id="circle1"/>
	<circle cx="10.6667" cy="910.667" r="4" fill="#0" id="circle2"/>
	<circle cx="17.3333" cy="872" r="4" fill="#0" id="circle3"/>
	<circle cx="20" cy="921.333" r="4" fill="#0" id="circle4"/>
	<circle cx="24" cy="745.333" r="4" fill="#0" id="circle5"/>
	<circle cx="24" cy="758.667" r="4" fill="#0" id="circle6"/>
	<circle cx="24" cy="772" r="4" fill="#0" id="circle7"/>
	<circle cx="24" cy="785.333" r="4" fill="#0" id="circle8"/>
	<circle cx="24" cy="798.667" r="4" fill="#0" id="circle9"/>
	<circle cx="24" cy="812" r="4" fill="#0" id="circle10"/>
	<circle cx="24" cy="825.333" r="4" fill="#0" id="circle11"/>
	<circle cx="24" cy="838.667" r="4" fill="#0" id="circle12"/>
	<circle cx="24" cy="858.667" r="4" fill="#0" id="circle13"/>
	<circle cx="30.6667" cy="705.333" r="4" fill="#0" id="circle14"/>
	<circle cx="30.6667" cy="718.667" r="4" fill="#0" id="circle15"/>
	<circle cx="30.6667" cy="732" r="4" fill="#0" id="circle16"/>
	<circle cx="30.6667" cy="958.667" r="4" fill="#0" id="circle17"/>
	<circle cx="33.3333" cy="926.667" r="4" fill="#0" id="circle18"/>
	<circle cx="37.3333" cy="572" r="4" fill="#0" id="circle19"/>
	<circle cx="37.3333" cy="685.333" r="4" fill="#0" id="circle20"/>
	<circle cx="37.3333" cy="940" r="4" fill="#0" id="circle21"/>
	<circle cx="37.3333" cy="970.667" r="4" fill="#0" id="circle22"/>
	<circle cx="44" cy="665.333" r="4" fill="#0" id="circle23"/>
	<circle cx="44" cy="982.667" r="4" fill="#0" id="circle24"/>
	<circle cx="48" cy="561.333" r="4" fill="#0" id="circle25"/>
	<circle cx="48" cy="996" r="4" fill="#0" id="circle26"/>
	<circle cx="50.6667" cy="576" r="4" fill="#0" id="circle27"/>
	<circle cx="50.6667" cy="645.333" r="4" fill="#0" id="circle28"/>
	<circle cx="52" cy="736" r="4" fill="#0" id="circle29"/>
	<circle cx="52" cy="749.333" r="4" fill="#0" id="circle30"/>
	<circle cx="52" cy="762.667" r="4" fill="#0" id="circle31"/>
	<circle cx="52" cy="776" r="4" fill="#0" id="circle32"/>
	<circle cx="52" cy="789.333" r="4" fill="#0" id="circle33"/>
	<circle cx="52" cy="802.667" r="4" fill="#0" id="circle34"/>
	<circle cx="52" cy="816" r="4" fill="#0" id="circle35"/>
	<circle cx="52" cy="829.333" r="4" fill="#0" id="circle36"/>
	<circle cx="52" cy="842.667" r="4" fill="#0" id="circle37"/>
	<circle cx="52" cy="969.333" r="4" fill="#0" id="circle38"/>
	<circle cx="54.6667" cy="856" r="4" fill="#0" id="circle39"/>
	<circle cx="57.3333" cy="632" r="4" fill="#0" id="circle40"/>
	<circle cx="58.6667" cy="550.667" r="4" fill="#0" id="circle41"/>
	<circle cx="58.6667" cy="716" r="4" fill="#0" id="circle42"/>
	<circle cx="58.6667" cy="869.333" r="4" fill="#0" id="circle43"/>
	<circle cx="58.6667" cy="882.667" r="4" fill="#0" id="circle44"/>
	<circle cx="58.6667" cy="896" r="4" fill="#0" id="circle45"/>
	<circle cx="58.6667" cy="909.333" r="4" fill="#0" id="circle46"/>
	<circle cx="58.6667" cy="922.667" r="4" fill="#0" id="circle47"/>
	<circle cx="58.6667" cy="936" r="4" fill="#0" id="circle48"/>
	<circle cx="58.6667" cy="949.333" r="4" fill="#0" id="circle49"/>
	<circle cx="62.6667" cy="569.333" r="4" fill="#0" id="circle50"/>
	<circle cx="64" cy="618.667" r="4" fill="#0" id="circle51"/>
	<circle cx="65.3333" cy="702.667" r="4" fill="#0" id="circle52"/>
	<circle cx="72" cy="548" r="4" fill="#0" id="circle53"/>
	<circle cx="72" cy="689.333" r="4" fill="#0" id="circle54"/>
	<circle cx="74.6667" cy="608" r="4" fill="#0" id="circle55"/>
	<circle cx="76" cy="566.667" r="4" fill="#0" id="circle56"/>
	<circle cx="81.3333" cy="594.667" r="4" fill="#0" id="circle57"/>
	<circle cx="82.6667" cy="680" r="4" fill="#0" id="circle58"/>
	<circle cx="84" cy="541.333" r="4" fill="#0" id="circle59"/>
	<circle cx="89.3333" cy="562.667" r="4" fill="#0" id="circle60"/>
	<circle cx="89.3333" cy="666.667" r="4" fill="#0" id="circle61"/>
	<circle cx="92" cy="584" r="4" fill="#0" id="circle62"/>
	<circle cx="96" cy="534.667" r="4" fill="#0" id="circle63"/>
	<circle cx="97.3333" cy="198.667" r="4" fill="#0" id="circle64"/>
	<circle cx="97.3333" cy="212" r="4" fill="#0" id="circle65"/>
	<circle cx="97.3333" cy="225.333" r="4" fill="#0" id="circle66"/>
	<circle cx="97.3333" cy="238.667" r="4" fill="#0" id="circle67"/>
	<circle cx="97.3333" cy="252" r="4" fill="#0" id="circle68"/>
	<circle cx="97.3333" cy="265.333" r="4" fill="#0" id="circle69"/>
	<circle cx="97.3333" cy="278.667" r="4" fill="#0" id="circle70"/>
	<circle cx="97.3333" cy="292" r="4" fill="#0" id="circle71"/>
	<circle cx="97.3333" cy="305.333" r="4" fill="#0" id="circle72"/>
	<circle cx="97.3333" cy="318.667" r="4" fill="#0" id="circle73"/>
	<circle cx="97.3333" cy="512" r="4" fill="#0" id="circle74"/>
	<circle cx="98.6667" cy="656" r="4" fill="#0" id="circle75"/>
	<circle cx="100" cy="570.667" r="4" fill="#0" id="circle76"/>
	<circle cx="104" cy="165.333" r="4" fill="#0" id="circle77"/>
	<circle cx="104" cy="178.667" r="4" fill="#0" id="circle78"/>
	<circle cx="104" cy="330.667" r="4" fill="#0" id="circle79"/>
	<circle cx="104" cy="344" r="4" fill="#0" id="circle80"/>
	<circle cx="105.333" cy="642.667" r="4" fill="#0" id="circle81"/>
	<circle cx="108" cy="501.333" r="4" fill="#0" id="circle82"/>
	<circle cx="108" cy="521.333" r="4" fill="#0" id="circle83"/>
	<circle cx="109.333" cy="534.667" r="4" fill="#0" id="circle84"/>
	<circle cx="110.667" cy="145.333" r="4" fill="#0" id="circle85"/>
	<circle cx="110.667" cy="356" r="4" fill="#0" id="circle86"/>
	<circle cx="114.667" cy="369.333" r="4" fill="#0" id="circle87"/>
	<circle cx="114.667" cy="488" r="4" fill="#0" id="circle88"/>
	<circle cx="116" cy="633.333" r="4" fill="#0" id="circle89"/>
	<circle cx="117.333" cy="125.333" r="4" fill="#0" id="circle90"/>
	<circle cx="117.333" cy="665.333" r="4" fill="#0" id="circle91"/>
	<circle cx="117.333" cy="678.667" r="4" fill="#0" id="circle92"/>
	<circle cx="121.333" cy="381.333" r="4" fill="#0" id="circle93"/>
	<circle cx="124" cy="112" r="4" fill="#0" id="circle94"/>
	<circle cx="124" cy="652" r="4" fill="#0" id="circle95"/>
	<circle cx="125.333" cy="622.667" r="4" fill="#0" id="circle96"/>
	<circle cx="126.667" cy="481.333" r="4" fill="#0" id="circle97"/>
	<circle cx="130.667" cy="85.3333" r="4" fill="#0" id="circle98"/>
	<circle cx="130.667" cy="98.6667" r="4" fill="#0" id="circle99"/>
	<circle cx="130.667" cy="392" r="4" fill="#0" id="circle100"/>
	<circle cx="130.667" cy="438.667" r="4" fill="#0" id="circle101"/>
	<circle cx="130.667" cy="636" r="4" fill="#0" id="circle102"/>
	<circle cx="130.667" cy="672" r="4" fill="#0" id="circle103"/>
	<circle cx="137.333" cy="52" r="4" fill="#0" id="circle104"/>
	<circle cx="137.333" cy="65.3333" r="4" fill="#0" id="circle105"/>
	<circle cx="137.333" cy="472" r="4" fill="#0" id="circle106"/>
	<circle cx="138.667" cy="656" r="4" fill="#0" id="circle107"/>
	<circle cx="141.333" cy="401.333" r="4" fill="#0" id="circle108"/>
	<circle cx="144" cy="32" r="4" fill="#0" id="circle109"/>
	<circle cx="144" cy="432" r="4" fill="#0" id="circle110"/>
	<circle cx="144" cy="445.333" r="4" fill="#0" id="circle111"/>
	<circle cx="149.333" cy="646.667" r="4" fill="#0" id="circle112"/>
	<circle cx="150.667" cy="465.333" r="4" fill="#0" id="circle113"/>
	<circle cx="152" cy="409.333" r="4" fill="#0" id="circle114"/>
	<circle cx="156" cy="633.333" r="4" fill="#0" id="circle115"/>
	<circle cx="157.333" cy="25.3333" r="4" fill="#0" id="circle116"/>
	<circle cx="157.333" cy="428" r="4" fill="#0" id="circle117"/>
	<circle cx="157.333" cy="449.333" r="4" fill="#0" id="circle118"/>
	<circle cx="164" cy="416" r="4" fill="#0" id="circle119"/>
	<circle cx="164" cy="461.333" r="4" fill="#0" id="circle120"/>
	<circle cx="169.333" cy="626.667" r="4" fill="#0" id="circle121"/>
	<circle cx="170.667" cy="21.3333" r="4" fill="#0" id="circle122"/>
	<circle cx="170.667" cy="428" r="4" fill="#0" id="circle123"/>
	<circle cx="170.667" cy="449.333" r="4" fill="#0" id="circle124"/>
	<circle cx="182.667" cy="620" r="4" fill="#0" id="circle125"/>
	<circle cx="184" cy="21.3333" r="4" fill="#0" id="circle126"/>
	<circle cx="192" cy="609.333" r="4" fill="#0" id="circle127"/>
	<circle cx="197.333" cy="21.3333" r="4" fill="#0" id="circle128"/>
	<circle cx="204" cy="602.667" r="4" fill="#0" id="circle129"/>
	<circle cx="210.667" cy="21.3333" r="4" fill="#0" id="circle130"/>
	<circle cx="214.667" cy="594.667" r="4" fill="#0" id="circle131"/>
	<circle cx="222.667" cy="28" r="4" fill="#0" id="circle132"/>
	<circle cx="225.333" cy="582.667" r="4" fill="#0" id="circle133"/>
	<circle cx="236" cy="28" r="4" fill="#0" id="circle134"/>
	<circle cx="237.333" cy="576" r="4" fill="#0" id="circle135"/>
	<circle cx="241.333" cy="589.333" r="4" fill="#0" id="circle136"/>
	<circle cx="249.333" cy="28" r="4" fill="#0" id="circle137"/>
	<circle cx="252" cy="598.667" r="4" fill="#0" id="circle138"/>
	<circle cx="261.333" cy="34.6667" r="4" fill="#0" id="circle139"/>
	<circle cx="261.333" cy="588" r="4" fill="#0" id="circle140"/>
	<circle cx="265.333" cy="549.333" r="4" fill="#0" id="circle141"/>
	<circle cx="265.333" cy="562.667" r="4" fill="#0" id="circle142"/>
	<circle cx="274.667" cy="34.6667" r="4" fill="#0" id="circle143"/>
	<circle cx="277.333" cy="556" r="4" fill="#0" id="circle144"/>
	<circle cx="281.333" cy="569.333" r="4" fill="#0" id="circle145"/>
	<circle cx="286.667" cy="41.3333" r="4" fill="#0" id="circle146"/>
	<circle cx="288" cy="581.333" r="4" fill="#0" id="circle147"/>
	<circle cx="293.333" cy="594.667" r="4" fill="#0" id="circle148"/>
	<circle cx="298.667" cy="48" r="4" fill="#0" id="circle149"/>
	<circle cx="304" cy="602.667" r="4" fill="#0" id="circle150"/>
	<circle cx="312" cy="52" r="4" fill="#0" id="circle151"/>
	<circle cx="312" cy="613.333" r="4" fill="#0" id="circle152"/>
	<circle cx="322.667" cy="61.3333" r="4" fill="#0" id="circle153"/>
	<circle cx="322.667" cy="622.667" r="4" fill="#0" id="circle154"/>
	<circle cx="334.667" cy="68" r="4" fill="#0" id="circle155"/>
	<circle cx="334.667" cy="629.333" r="4" fill="#0" id="circle156"/>
	<circle cx="346.667" cy="74.6667" r="4" fill="#0" id="circle157"/>
	<circle cx="346.667" cy="636" r="4" fill="#0" id="circle158"/>
	<circle cx="358.667" cy="81.3333" r="4" fill="#0" id="circle159"/>
	<circle cx="360" cy="636" r="4" fill="#0" id="circle160"/>
	<circle cx="370.667" cy="88" r="4" fill="#0" id="circle161"/>
	<circle cx="372" cy="642.667" r="4" fill="#0" id="circle162"/>
	<circle cx="384" cy="90.6667" r="4" fill="#0" id="circle163"/>
	<circle cx="385.333" cy="642.667" r="4" fill="#0" id="circle164"/>
	<circle cx="397.333" cy="94.6667" r="4" fill="#0" id="circle165"/>
	<circle cx="398.667" cy="642.667" r="4" fill="#0" id="circle166"/>
	<circle cx="410.667" cy="92" r="4" fill="#0" id="circle167"/>
	<circle cx="412" cy="642.667" r="4" fill="#0" id="circle168"/>
	<circle cx="424" cy="88" r="4" fill="#0" id="circle169"/>
	<circle cx="425.333" cy="642.667" r="4" fill="#0" id="circle170"/>
	<circle cx="437.333" cy="85.3333" r="4" fill="#0" id="circle171"/>
	<circle cx="438.667" cy="642.667" r="4" fill="#0" id="circle172"/>
	<circle cx="450.667" cy="81.3333" r="4" fill="#0" id="circle173"/>
	<circle cx="452" cy="642.667" r="4" fill="#0" id="circle174"/>
	<circle cx="462.667" cy="74.6667" r="4" fill="#0" id="circle175"/>
	<circle cx="465.333" cy="636" r="4" fill="#0" id="circle176"/>
	<circle cx="476" cy="74.6667" r="4" fill="#0" id="circle177"/>
	<circle cx="478.667" cy="636" r="4" fill="#0" id="circle178"/>
	<circle cx="489.333" cy="74.6667" r="4" fill="#0" id="circle179"/>
	<circle cx="492" cy="636" r="4" fill="#0" id="circle180"/>
	<circle cx="502.667" cy="74.6667" r="4" fill="#0" id="circle181"/>
	<circle cx="505.333" cy="629.333" r="4" fill="#0" id="circle182"/>
	<circle cx="514.667" cy="68" r="4" fill="#0" id="circle183"/>
	<circle cx="518.667" cy="629.333" r="4" fill="#0" id="circle184"/>
	<circle cx="528" cy="68" r="4" fill="#0" id="circle185"/>
	<circle cx="532" cy="629.333" r="4" fill="#0" id="circle186"/>
	<circle cx="541.333" cy="68" r="4" fill="#0" id="circle187"/>
	<circle cx="545.333" cy="629.333" r="4" fill="#0" id="circle188"/>
	<circle cx="554.667" cy="68" r="4" fill="#0" id="circle189"/>
	<circle cx="558.667" cy="629.333" r="4" fill="#0" id="circle190"/>
	<circle cx="568" cy="68" r="4" fill="#0" id="circle191"/>
	<circle cx="570.667" cy="622.667" r="4" fill="#0" id="circle192"/>
	<circle cx="581.333" cy="68" r="4" fill="#0" id="circle193"/>
	<circle cx="584" cy="622.667" r="4" fill="#0" id="circle194"/>
	<circle cx="594.667" cy="68" r="4" fill="#0" id="circle195"/>
	<circle cx="597.333" cy="622.667" r="4" fill="#0" id="circle196"/>
	<circle cx="606.667" cy="61.3333" r="4" fill="#0" id="circle197"/>
	<circle cx="610.667" cy="622.667" r="4" fill="#0" id="circle198"/>
	<circle cx="620" cy="61.3333" r="4" fill="#0" id="circle199"/>
	<circle cx="624" cy="622.667" r="4" fill="#0" id="circle200"/>
	<circle cx="625.333" cy="356" r="4" fill="#0" id="circle201"/>
	<circle cx="625.333" cy="369.333" r="4" fill="#0" id="circle202"/>
	<circle cx="625.333" cy="382.667" r="4" fill="#0" id="circle203"/>
	<circle cx="628" cy="396" r="4" fill="#0" id="circle204"/>
	<circle cx="632" cy="336" r="4" fill="#0" id="circle205"/>
	<circle cx="632" cy="409.333" r="4" fill="#0" id="circle206"/>
	<circle cx="633.333" cy="61.3333" r="4" fill="#0" id="circle207"/>
	<circle cx="634.667" cy="422.667" r="4" fill="#0" id="circle208"/>
	<circle cx="637.333" cy="622.667" r="4" fill="#0" id="circle209"/>
	<circle cx="638.667" cy="316" r="4" fill="#0" id="circle210"/>
	<circle cx="638.667" cy="436" r="4" fill="#0" id="circle211"/>
	<circle cx="641.333" cy="449.333" r="4" fill="#0" id="circle212"/>
	<circle cx="645.333" cy="302.667" r="4" fill="#0" id="circle213"/>
	<circle cx="645.333" cy="462.667" r="4" fill="#0" id="circle214"/>
	<circle cx="646.667" cy="56" r="4" fill="#0" id="circle215"/>
	<circle cx="650.667" cy="622.667" r="4" fill="#0" id="circle216"/>
	<circle cx="652" cy="289.333" r="4" fill="#0" id="circle217"/>
	<circle cx="652" cy="474.667" r="4" fill="#0" id="circle218"/>
	<circle cx="658.667" cy="269.333" r="4" fill="#0" id="circle219"/>
	<circle cx="658.667" cy="486.667" r="4" fill="#0" id="circle220"/>
	<circle cx="658.667" cy="500" r="4" fill="#0" id="circle221"/>
	<circle cx="658.667" cy="513.333" r="4" fill="#0" id="circle222"/>
	<circle cx="658.667" cy="526.667" r="4" fill="#0" id="circle223"/>
	<circle cx="658.667" cy="589.333" r="4" fill="#0" id="circle224"/>
	<circle cx="658.667" cy="602.667" r="4" fill="#0" id="circle225"/>
	<circle cx="660" cy="54.6667" r="4" fill="#0" id="circle226"/>
	<circle cx="665.333" cy="242.667" r="4" fill="#0" id="circle227"/>
	<circle cx="665.333" cy="256" r="4" fill="#0" id="circle228"/>
	<circle cx="665.333" cy="538.667" r="4" fill="#0" id="circle229"/>
	<circle cx="665.333" cy="552" r="4" fill="#0" id="circle230"/>
	<circle cx="665.333" cy="565.333" r="4" fill="#0" id="circle231"/>
	<circle cx="670.667" cy="45.3333" r="4" fill="#0" id="circle232"/>
	<circle cx="672" cy="216" r="4" fill="#0" id="circle233"/>
	<circle cx="672" cy="229.333" r="4" fill="#0" id="circle234"/>
	<circle cx="678.667" cy="176" r="4" fill="#0" id="circle235"/>
	<circle cx="678.667" cy="189.333" r="4" fill="#0" id="circle236"/>
	<circle cx="678.667" cy="202.667" r="4" fill="#0" id="circle237"/>
	<circle cx="684" cy="38.6667" r="4" fill="#0" id="circle238"/>
	<circle cx="685.333" cy="129.333" r="4" fill="#0" id="circle239"/>
	<circle cx="685.333" cy="142.667" r="4" fill="#0" id="circle240"/>
	<circle cx="685.333" cy="156" r="4" fill="#0" id="circle241"/>
	<circle cx="692" cy="109.333" r="4" fill="#0" id="circle242"/>
	<circle cx="697.333" cy="34.6667" r="4" fill="#0" id="circle243"/>
	<circle cx="698.667" cy="96" r="4" fill="#0" id="circle244"/>
	<circle cx="709.333" cy="28" r="4" fill="#0" id="circle245"/>
	<circle cx="709.333" cy="86.6667" r="4" fill="#0" id="circle246"/>
	<circle cx="716" cy="73.3333" r="4" fill="#0" id="circle247"/>
	<circle cx="722.667" cy="28" r="4" fill="#0" id="circle248"/>
	<circle cx="725.333" cy="56" r="4" fill="#0" id="circle249"/>
	<circle cx="734.667" cy="21.3333" r="4" fill="#0" id="circle250"/>
	<circle cx="736" cy="46.6667" r="4" fill="#0" id="circle251"/>
	<circle cx="745.333" cy="10.6667" r="4" fill="#0" id="circle252"/>
	<circle cx="745.333" cy="29.3333" r="4" fill="#0" id="circle253"/>
	<circle cx="756" cy="20" r="4" fill="#0" id="circle254"/>
	<circle cx="758.667" cy="4" r="4" fill="#0" id="circle255"/>
	<circle cx="772" cy="5.33333" r="4" fill="#0" id="circle256"/>
	</g>
</svg>