<?xml version="1.0" encoding="UTF-8" standalone="no"?>
<!-- Created with CurveBenchmark -->
<svg
	xmlns:dc="http://purl.org/dc/elements/1.1/"
	xmlns:cc="http://creativecommons.org/ns#"
	xmlns:rdf="http://www.w3.org/1999/02/22-rdf-syntax-ns#"
	xmlns:svg="http://www.w3.org/2000/svg"
	xmlns="http://www.w3.org/2000/svg"
	xmlns:sodipodi="http://sodipodi.sourceforge.net/DTD/sodipodi-0.dtd"
	xmlns:inkscape="http://www.inkscape.org/namespaces/inkscape"
	width="1000"
	height="1000"
	id="svg2"
	version="1.1"
	sodipodi:docname="manifold/hnncrust-fish045.png.txt">
<defs
	id="defs4" />
<metadata
	id="metadata7">
	<rdf:RDF>
		<cc:Work
			rdf:about="">
			<dc:format>image/svg+xml</dc:format>
			<dc:type
				rdf:resource="http://purl.org/dc/dcmitype/StillImage" />
			<dc:title></dc:title>
		</cc:Work>
	</rdf:RDF>
</metadata>
<g
	inkscape:label="Layer 1"
	inkscape:groupmode="layer"
	id="layer1">
	<path style="fill:none;stroke:red;stroke-width:1px;stroke-linecap:butt;stroke-linejoin:miter;stroke-opacity:1" d="M 4,280.397 11.5725,318.26 z" id="boundary" inkscape:connector-curvature="0" />
	<path style="fill:none;stroke:red;stroke-width:1px;stroke-linecap:butt;stroke-linejoin:miter;stroke-opacity:1" d="M 4,280.397 34.2901,250.107 z" id="boundary" inkscape:connector-curvature="0" />
	<path style="fill:none;stroke:red;stroke-width:1px;stroke-linecap:butt;stroke-linejoin:miter;stroke-opacity:1" d="M 11.5725,318.26 34.2901,348.55 z" id="boundary" inkscape:connector-curvature="0" />
	<path style="fill:none;stroke:red;stroke-width:1px;stroke-linecap:butt;stroke-linejoin:miter;stroke-opacity:1" d="M 34.2901,250.107 64.5802,227.389 z" id="boundary" inkscape:connector-curvature="0" />
	<path style="fill:none;stroke:red;stroke-width:1px;stroke-linecap:butt;stroke-linejoin:miter;stroke-opacity:1" d="M 34.2901,348.55 57.0076,378.84 z" id="boundary" inkscape:connector-curvature="0" />
	<path style="fill:none;stroke:red;stroke-width:1px;stroke-linecap:butt;stroke-linejoin:miter;stroke-opacity:1" d="M 57.0076,378.84 79.7252,409.13 z" id="boundary" inkscape:connector-curvature="0" />
	<path style="fill:none;stroke:red;stroke-width:1px;stroke-linecap:butt;stroke-linejoin:miter;stroke-opacity:1" d="M 64.5802,227.389 94.8702,197.099 z" id="boundary" inkscape:connector-curvature="0" />
	<path style="fill:none;stroke:red;stroke-width:1px;stroke-linecap:butt;stroke-linejoin:miter;stroke-opacity:1" d="M 79.7252,409.13 113.802,428.061 z" id="boundary" inkscape:connector-curvature="0" />
	<path style="fill:none;stroke:red;stroke-width:1px;stroke-linecap:butt;stroke-linejoin:miter;stroke-opacity:1" d="M 94.8702,197.099 132.733,181.954 z" id="boundary" inkscape:connector-curvature="0" />
	<path style="fill:none;stroke:red;stroke-width:1px;stroke-linecap:butt;stroke-linejoin:miter;stroke-opacity:1" d="M 113.802,428.061 151.664,443.206 z" id="boundary" inkscape:connector-curvature="0" />
	<path style="fill:none;stroke:red;stroke-width:1px;stroke-linecap:butt;stroke-linejoin:miter;stroke-opacity:1" d="M 132.733,181.954 170.595,174.382 z" id="boundary" inkscape:connector-curvature="0" />
	<path style="fill:none;stroke:red;stroke-width:1px;stroke-linecap:butt;stroke-linejoin:miter;stroke-opacity:1" d="M 151.664,443.206 189.527,458.351 z" id="boundary" inkscape:connector-curvature="0" />
	<path style="fill:none;stroke:red;stroke-width:1px;stroke-linecap:butt;stroke-linejoin:miter;stroke-opacity:1" d="M 170.595,174.382 204.672,155.45 z" id="boundary" inkscape:connector-curvature="0" />
	<path style="fill:none;stroke:red;stroke-width:1px;stroke-linecap:butt;stroke-linejoin:miter;stroke-opacity:1" d="M 189.527,458.351 223.603,477.282 z" id="boundary" inkscape:connector-curvature="0" />
	<path style="fill:none;stroke:red;stroke-width:1px;stroke-linecap:butt;stroke-linejoin:miter;stroke-opacity:1" d="M 204.672,155.45 242.534,144.092 z" id="boundary" inkscape:connector-curvature="0" />
	<path style="fill:none;stroke:red;stroke-width:1px;stroke-linecap:butt;stroke-linejoin:miter;stroke-opacity:1" d="M 223.603,477.282 261.466,492.427 z" id="boundary" inkscape:connector-curvature="0" />
	<path style="fill:none;stroke:red;stroke-width:1px;stroke-linecap:butt;stroke-linejoin:miter;stroke-opacity:1" d="M 242.534,144.092 280.397,128.947 z" id="boundary" inkscape:connector-curvature="0" />
	<path style="fill:none;stroke:red;stroke-width:1px;stroke-linecap:butt;stroke-linejoin:miter;stroke-opacity:1" d="M 261.466,492.427 269.038,530.29 z" id="boundary" inkscape:connector-curvature="0" />
	<path style="fill:none;stroke:red;stroke-width:1px;stroke-linecap:butt;stroke-linejoin:miter;stroke-opacity:1" d="M 269.038,530.29 276.611,568.153 z" id="boundary" inkscape:connector-curvature="0" />
	<path style="fill:none;stroke:red;stroke-width:1px;stroke-linecap:butt;stroke-linejoin:miter;stroke-opacity:1" d="M 276.611,568.153 295.542,602.229 z" id="boundary" inkscape:connector-curvature="0" />
	<path style="fill:none;stroke:red;stroke-width:1px;stroke-linecap:butt;stroke-linejoin:miter;stroke-opacity:1" d="M 280.397,128.947 299.328,75.9389 z" id="boundary" inkscape:connector-curvature="0" />
	<path style="fill:none;stroke:red;stroke-width:1px;stroke-linecap:butt;stroke-linejoin:miter;stroke-opacity:1" d="M 295.542,602.229 325.832,624.947 z" id="boundary" inkscape:connector-curvature="0" />
	<path style="fill:none;stroke:red;stroke-width:1px;stroke-linecap:butt;stroke-linejoin:miter;stroke-opacity:1" d="M 299.328,75.9389 329.618,45.6489 z" id="boundary" inkscape:connector-curvature="0" />
	<path style="fill:none;stroke:red;stroke-width:1px;stroke-linecap:butt;stroke-linejoin:miter;stroke-opacity:1" d="M 325.832,624.947 359.908,602.229 z" id="boundary" inkscape:connector-curvature="0" />
	<path style="fill:none;stroke:red;stroke-width:1px;stroke-linecap:butt;stroke-linejoin:miter;stroke-opacity:1" d="M 329.618,45.6489 344.763,7.78626 z" id="boundary" inkscape:connector-curvature="0" />
	<path style="fill:none;stroke:red;stroke-width:1px;stroke-linecap:butt;stroke-linejoin:miter;stroke-opacity:1" d="M 344.763,7.78626 382.626,4 z" id="boundary" inkscape:connector-curvature="0" />
	<path style="fill:none;stroke:red;stroke-width:1px;stroke-linecap:butt;stroke-linejoin:miter;stroke-opacity:1" d="M 359.908,602.229 378.84,568.153 z" id="boundary" inkscape:connector-curvature="0" />
	<path style="fill:none;stroke:red;stroke-width:1px;stroke-linecap:butt;stroke-linejoin:miter;stroke-opacity:1" d="M 378.84,568.153 416.702,579.511 z" id="boundary" inkscape:connector-curvature="0" />
	<path style="fill:none;stroke:red;stroke-width:1px;stroke-linecap:butt;stroke-linejoin:miter;stroke-opacity:1" d="M 382.626,4 420.489,15.3588 z" id="boundary" inkscape:connector-curvature="0" />
	<path style="fill:none;stroke:red;stroke-width:1px;stroke-linecap:butt;stroke-linejoin:miter;stroke-opacity:1" d="M 416.702,579.511 443.206,609.802 z" id="boundary" inkscape:connector-curvature="0" />
	<path style="fill:none;stroke:red;stroke-width:1px;stroke-linecap:butt;stroke-linejoin:miter;stroke-opacity:1" d="M 420.489,15.3588 458.351,30.5038 z" id="boundary" inkscape:connector-curvature="0" />
	<path style="fill:none;stroke:red;stroke-width:1px;stroke-linecap:butt;stroke-linejoin:miter;stroke-opacity:1" d="M 443.206,609.802 481.069,624.947 z" id="boundary" inkscape:connector-curvature="0" />
	<path style="fill:none;stroke:red;stroke-width:1px;stroke-linecap:butt;stroke-linejoin:miter;stroke-opacity:1" d="M 458.351,30.5038 488.641,53.2214 z" id="boundary" inkscape:connector-curvature="0" />
	<path style="fill:none;stroke:red;stroke-width:1px;stroke-linecap:butt;stroke-linejoin:miter;stroke-opacity:1" d="M 481.069,481.069 492.427,518.931 z" id="boundary" inkscape:connector-curvature="0" />
	<path style="fill:none;stroke:red;stroke-width:1px;stroke-linecap:butt;stroke-linejoin:miter;stroke-opacity:1" d="M 481.069,481.069 518.931,473.496 z" id="boundary" inkscape:connector-curvature="0" />
	<path style="fill:none;stroke:red;stroke-width:1px;stroke-linecap:butt;stroke-linejoin:miter;stroke-opacity:1" d="M 481.069,624.947 507.573,594.656 z" id="boundary" inkscape:connector-curvature="0" />
	<path style="fill:none;stroke:red;stroke-width:1px;stroke-linecap:butt;stroke-linejoin:miter;stroke-opacity:1" d="M 488.641,53.2214 518.931,75.9389 z" id="boundary" inkscape:connector-curvature="0" />
	<path style="fill:none;stroke:red;stroke-width:1px;stroke-linecap:butt;stroke-linejoin:miter;stroke-opacity:1" d="M 492.427,518.931 507.573,556.794 z" id="boundary" inkscape:connector-curvature="0" />
	<path style="fill:none;stroke:red;stroke-width:1px;stroke-linecap:butt;stroke-linejoin:miter;stroke-opacity:1" d="M 507.573,556.794 507.573,594.656 z" id="boundary" inkscape:connector-curvature="0" />
	<path style="fill:none;stroke:red;stroke-width:1px;stroke-linecap:butt;stroke-linejoin:miter;stroke-opacity:1" d="M 518.931,75.9389 553.008,94.8702 z" id="boundary" inkscape:connector-curvature="0" />
	<path style="fill:none;stroke:red;stroke-width:1px;stroke-linecap:butt;stroke-linejoin:miter;stroke-opacity:1" d="M 518.931,473.496 556.794,473.496 z" id="boundary" inkscape:connector-curvature="0" />
	<path style="fill:none;stroke:red;stroke-width:1px;stroke-linecap:butt;stroke-linejoin:miter;stroke-opacity:1" d="M 553.008,94.8702 583.298,121.374 z" id="boundary" inkscape:connector-curvature="0" />
	<path style="fill:none;stroke:red;stroke-width:1px;stroke-linecap:butt;stroke-linejoin:miter;stroke-opacity:1" d="M 556.794,473.496 594.656,473.496 z" id="boundary" inkscape:connector-curvature="0" />
	<path style="fill:none;stroke:red;stroke-width:1px;stroke-linecap:butt;stroke-linejoin:miter;stroke-opacity:1" d="M 583.298,121.374 621.16,113.802 z" id="boundary" inkscape:connector-curvature="0" />
	<path style="fill:none;stroke:red;stroke-width:1px;stroke-linecap:butt;stroke-linejoin:miter;stroke-opacity:1" d="M 594.656,473.496 632.519,465.924 z" id="boundary" inkscape:connector-curvature="0" />
	<path style="fill:none;stroke:red;stroke-width:1px;stroke-linecap:butt;stroke-linejoin:miter;stroke-opacity:1" d="M 621.16,113.802 659.023,98.6565 z" id="boundary" inkscape:connector-curvature="0" />
	<path style="fill:none;stroke:red;stroke-width:1px;stroke-linecap:butt;stroke-linejoin:miter;stroke-opacity:1" d="M 632.519,465.924 666.595,484.855 z" id="boundary" inkscape:connector-curvature="0" />
	<path style="fill:none;stroke:red;stroke-width:1px;stroke-linecap:butt;stroke-linejoin:miter;stroke-opacity:1" d="M 659.023,98.6565 696.885,106.229 z" id="boundary" inkscape:connector-curvature="0" />
	<path style="fill:none;stroke:red;stroke-width:1px;stroke-linecap:butt;stroke-linejoin:miter;stroke-opacity:1" d="M 666.595,484.855 704.458,496.214 z" id="boundary" inkscape:connector-curvature="0" />
	<path style="fill:none;stroke:red;stroke-width:1px;stroke-linecap:butt;stroke-linejoin:miter;stroke-opacity:1" d="M 696.885,106.229 723.389,136.519 z" id="boundary" inkscape:connector-curvature="0" />
	<path style="fill:none;stroke:red;stroke-width:1px;stroke-linecap:butt;stroke-linejoin:miter;stroke-opacity:1" d="M 704.458,496.214 742.321,496.214 z" id="boundary" inkscape:connector-curvature="0" />
	<path style="fill:none;stroke:red;stroke-width:1px;stroke-linecap:butt;stroke-linejoin:miter;stroke-opacity:1" d="M 723.389,136.519 749.893,166.809 z" id="boundary" inkscape:connector-curvature="0" />
	<path style="fill:none;stroke:red;stroke-width:1px;stroke-linecap:butt;stroke-linejoin:miter;stroke-opacity:1" d="M 742.321,496.214 768.824,465.924 z" id="boundary" inkscape:connector-curvature="0" />
	<path style="fill:none;stroke:red;stroke-width:1px;stroke-linecap:butt;stroke-linejoin:miter;stroke-opacity:1" d="M 749.893,166.809 772.611,197.099 z" id="boundary" inkscape:connector-curvature="0" />
	<path style="fill:none;stroke:red;stroke-width:1px;stroke-linecap:butt;stroke-linejoin:miter;stroke-opacity:1" d="M 768.824,465.924 780.183,416.702 z" id="boundary" inkscape:connector-curvature="0" />
	<path style="fill:none;stroke:red;stroke-width:1px;stroke-linecap:butt;stroke-linejoin:miter;stroke-opacity:1" d="M 772.611,197.099 791.542,231.176 z" id="boundary" inkscape:connector-curvature="0" />
	<path style="fill:none;stroke:red;stroke-width:1px;stroke-linecap:butt;stroke-linejoin:miter;stroke-opacity:1" d="M 780.183,416.702 787.756,371.267 z" id="boundary" inkscape:connector-curvature="0" />
	<path style="fill:none;stroke:red;stroke-width:1px;stroke-linecap:butt;stroke-linejoin:miter;stroke-opacity:1" d="M 787.756,371.267 825.618,375.053 z" id="boundary" inkscape:connector-curvature="0" />
	<path style="fill:none;stroke:red;stroke-width:1px;stroke-linecap:butt;stroke-linejoin:miter;stroke-opacity:1" d="M 791.542,231.176 829.405,234.962 z" id="boundary" inkscape:connector-curvature="0" />
	<path style="fill:none;stroke:red;stroke-width:1px;stroke-linecap:butt;stroke-linejoin:miter;stroke-opacity:1" d="M 825.618,375.053 852.122,405.344 z" id="boundary" inkscape:connector-curvature="0" />
	<path style="fill:none;stroke:red;stroke-width:1px;stroke-linecap:butt;stroke-linejoin:miter;stroke-opacity:1" d="M 829.405,234.962 859.695,212.244 z" id="boundary" inkscape:connector-curvature="0" />
	<path style="fill:none;stroke:red;stroke-width:1px;stroke-linecap:butt;stroke-linejoin:miter;stroke-opacity:1" d="M 852.122,405.344 882.412,428.061 z" id="boundary" inkscape:connector-curvature="0" />
	<path style="fill:none;stroke:red;stroke-width:1px;stroke-linecap:butt;stroke-linejoin:miter;stroke-opacity:1" d="M 859.695,212.244 889.985,189.527 z" id="boundary" inkscape:connector-curvature="0" />
	<path style="fill:none;stroke:red;stroke-width:1px;stroke-linecap:butt;stroke-linejoin:miter;stroke-opacity:1" d="M 882.412,428.061 920.275,443.206 z" id="boundary" inkscape:connector-curvature="0" />
	<path style="fill:none;stroke:red;stroke-width:1px;stroke-linecap:butt;stroke-linejoin:miter;stroke-opacity:1" d="M 889.985,189.527 927.847,174.382 z" id="boundary" inkscape:connector-curvature="0" />
	<path style="fill:none;stroke:red;stroke-width:1px;stroke-linecap:butt;stroke-linejoin:miter;stroke-opacity:1" d="M 920.275,443.206 958.137,458.351 z" id="boundary" inkscape:connector-curvature="0" />
	<path style="fill:none;stroke:red;stroke-width:1px;stroke-linecap:butt;stroke-linejoin:miter;stroke-opacity:1" d="M 927.847,174.382 965.71,159.237 z" id="boundary" inkscape:connector-curvature="0" />
	<path style="fill:none;stroke:red;stroke-width:1px;stroke-linecap:butt;stroke-linejoin:miter;stroke-opacity:1" d="M 958.137,458.351 996,450.779 z" id="boundary" inkscape:connector-curvature="0" />
	<path style="fill:none;stroke:red;stroke-width:1px;stroke-linecap:butt;stroke-linejoin:miter;stroke-opacity:1" d="M 965.71,159.237 992.214,197.099 z" id="boundary" inkscape:connector-curvature="0" />
	<path style="fill:none;stroke:red;stroke-width:1px;stroke-linecap:butt;stroke-linejoin:miter;stroke-opacity:1" d="M 977.069,280.397 977.069,318.26 z" id="boundary" inkscape:connector-curvature="0" />
	<path style="fill:none;stroke:red;stroke-width:1px;stroke-linecap:butt;stroke-linejoin:miter;stroke-opacity:1" d="M 977.069,280.397 984.641,234.962 z" id="boundary" inkscape:connector-curvature="0" />
	<path style="fill:none;stroke:red;stroke-width:1px;stroke-linecap:butt;stroke-linejoin:miter;stroke-opacity:1" d="M 977.069,318.26 980.855,356.122 z" id="boundary" inkscape:connector-curvature="0" />
	<path style="fill:none;stroke:red;stroke-width:1px;stroke-linecap:butt;stroke-linejoin:miter;stroke-opacity:1" d="M 980.855,356.122 988.427,393.985 z" id="boundary" inkscape:connector-curvature="0" />
	<path style="fill:none;stroke:red;stroke-width:1px;stroke-linecap:butt;stroke-linejoin:miter;stroke-opacity:1" d="M 984.641,234.962 992.214,197.099 z" id="boundary" inkscape:connector-curvature="0" />
	<path style="fill:none;stroke:red;stroke-width:1px;stroke-linecap:butt;stroke-linejoin:miter;stroke-opacity:1" d="M 988.427,393.985 996,450.779 z" id="boundary" inkscape:connector-curvature="0" />
	<circle cx="4" cy="280.397" r="4" fill="#0" id="circle0"/>
	<circle cx="11.5725" cy="318.26" r="4" fill="#0" id="circle1"/>
	<circle cx="34.2901" cy="250.107" r="4" fill="#0" id="circle2"/>
	<circle cx="34.2901" cy="348.55" r="4" fill="#0" id="circle3"/>
	<circle cx="57.0076" cy="378.84" r="4" fill="#0" id="circle4"/>
	<circle cx="64.5802" cy="227.389" r="4" fill="#0" id="circle5"/>
	<circle cx="79.7252" cy="409.13" r="4" fill="#0" id="circle6"/>
	<circle cx="94.8702" cy="197.099" r="4" fill="#0" id="circle7"/>
	<circle cx="113.802" cy="428.061" r="4" fill="#0" id="circle8"/>
	<circle cx="132.733" cy="181.954" r="4" fill="#0" id="circle9"/>
	<circle cx="151.664" cy="443.206" r="4" fill="#0" id="circle10"/>
	<circle cx="170.595" cy="174.382" r="4" fill="#0" id="circle11"/>
	<circle cx="189.527" cy="458.351" r="4" fill="#0" id="circle12"/>
	<circle cx="204.672" cy="155.45" r="4" fill="#0" id="circle13"/>
	<circle cx="223.603" cy="477.282" r="4" fill="#0" id="circle14"/>
	<circle cx="242.534" cy="144.092" r="4" fill="#0" id="circle15"/>
	<circle cx="261.466" cy="492.427" r="4" fill="#0" id="circle16"/>
	<circle cx="269.038" cy="530.29" r="4" fill="#0" id="circle17"/>
	<circle cx="276.611" cy="568.153" r="4" fill="#0" id="circle18"/>
	<circle cx="280.397" cy="128.947" r="4" fill="#0" id="circle19"/>
	<circle cx="295.542" cy="602.229" r="4" fill="#0" id="circle20"/>
	<circle cx="299.328" cy="75.9389" r="4" fill="#0" id="circle21"/>
	<circle cx="325.832" cy="624.947" r="4" fill="#0" id="circle22"/>
	<circle cx="329.618" cy="45.6489" r="4" fill="#0" id="circle23"/>
	<circle cx="344.763" cy="7.78626" r="4" fill="#0" id="circle24"/>
	<circle cx="359.908" cy="602.229" r="4" fill="#0" id="circle25"/>
	<circle cx="378.84" cy="568.153" r="4" fill="#0" id="circle26"/>
	<circle cx="382.626" cy="4" r="4" fill="#0" id="circle27"/>
	<circle cx="416.702" cy="579.511" r="4" fill="#0" id="circle28"/>
	<circle cx="420.489" cy="15.3588" r="4" fill="#0" id="circle29"/>
	<circle cx="443.206" cy="609.802" r="4" fill="#0" id="circle30"/>
	<circle cx="458.351" cy="30.5038" r="4" fill="#0" id="circle31"/>
	<circle cx="481.069" cy="481.069" r="4" fill="#0" id="circle32"/>
	<circle cx="481.069" cy="624.947" r="4" fill="#0" id="circle33"/>
	<circle cx="488.641" cy="53.2214" r="4" fill="#0" id="circle34"/>
	<circle cx="492.427" cy="518.931" r="4" fill="#0" id="circle35"/>
	<circle cx="507.573" cy="556.794" r="4" fill="#0" id="circle36"/>
	<circle cx="507.573" cy="594.656" r="4" fill="#0" id="circle37"/>
	<circle cx="518.931" cy="75.9389" r="4" fill="#0" id="circle38"/>
	<circle cx="518.931" cy="473.496" r="4" fill="#0" id="circle39"/>
	<circle cx="553.008" cy="94.8702" r="4" fill="#0" id="circle40"/>
	<circle cx="556.794" cy="473.496" r="4" fill="#0" id="circle41"/>
	<circle cx="583.298" cy="121.374" r="4" fill="#0" id="circle42"/>
	<circle cx="594.656" cy="473.496" r="4" fill="#0" id="circle43"/>
	<circle cx="621.16" cy="113.802" r="4" fill="#0" id="circle44"/>
	<circle cx="632.519" cy="465.924" r="4" fill="#0" id="circle45"/>
	<circle cx="659.023" cy="98.6565" r="4" fill="#0" id="circle46"/>
	<circle cx="666.595" cy="484.855" r="4" fill="#0" id="circle47"/>
	<circle cx="696.885" cy="106.229" r="4" fill="#0" id="circle48"/>
	<circle cx="704.458" cy="496.214" r="4" fill="#0" id="circle49"/>
	<circle cx="723.389" cy="136.519" r="4" fill="#0" id="circle50"/>
	<circle cx="742.321" cy="496.214" r="4" fill="#0" id="circle51"/>
	<circle cx="749.893" cy="166.809" r="4" fill="#0" id="circle52"/>
	<circle cx="768.824" cy="465.924" r="4" fill="#0" id="circle53"/>
	<circle cx="772.611" cy="197.099" r="4" fill="#0" id="circle54"/>
	<circle cx="780.183" cy="416.702" r="4" fill="#0" id="circle55"/>
	<circle cx="787.756" cy="371.267" r="4" fill="#0" id="circle56"/>
	<circle cx="791.542" cy="231.176" r="4" fill="#0" id="circle57"/>
	<circle cx="825.618" cy="375.053" r="4" fill="#0" id="circle58"/>
	<circle cx="829.405" cy="234.962" r="4" fill="#0" id="circle59"/>
	<circle cx="852.122" cy="405.344" r="4" fill="#0" id="circle60"/>
	<circle cx="859.695" cy="212.244" r="4" fill="#0" id="circle61"/>
	<circle cx="882.412" cy="428.061" r="4" fill="#0" id="circle62"/>
	<circle cx="889.985" cy="189.527" r="4" fill="#0" id="circle63"/>
	<circle cx="920.275" cy="443.206" r="4" fill="#0" id="circle64"/>
	<circle cx="927.847" cy="174.382" r="4" fill="#0" id="circle65"/>
	<circle cx="958.137" cy="458.351" r="4" fill="#0" id="circle66"/>
	<circle cx="965.71" cy="159.237" r="4" fill="#0" id="circle67"/>
	<circle cx="977.069" cy="280.397" r="4" fill="#0" id="circle68"/>
	<circle cx="977.069" cy="318.26" r="4" fill="#0" id="circle69"/>
	<circle cx="980.855" cy="356.122" r="4" fill="#0" id="circle70"/>
	<circle cx="984.641" cy="234.962" r="4" fill="#0" id="circle71"/>
	<circle cx="988.427" cy="393.985" r="4" fill="#0" id="circle72"/>
	<circle cx="992.214" cy="197.099" r="4" fill="#0" id="circle73"/>
	<circle cx="996" cy="450.779" r="4" fill="#0" id="circle74"/>
	</g>
</svg>