<?xml version="1.0" encoding="UTF-8" standalone="no"?>
<!-- Created with CurveBenchmark -->
<svg
	xmlns:dc="http://purl.org/dc/elements/1.1/"
	xmlns:cc="http://creativecommons.org/ns#"
	xmlns:rdf="http://www.w3.org/1999/02/22-rdf-syntax-ns#"
	xmlns:svg="http://www.w3.org/2000/svg"
	xmlns="http://www.w3.org/2000/svg"
	xmlns:sodipodi="http://sodipodi.sourceforge.net/DTD/sodipodi-0.dtd"
	xmlns:inkscape="http://www.inkscape.org/namespaces/inkscape"
	width="1000"
	height="1000"
	id="svg2"
	version="1.1"
	sodipodi:docname="manifold/hnncrust-hand10.png.txt">
<defs
	id="defs4" />
<metadata
	id="metadata7">
	<rdf:RDF>
		<cc:Work
			rdf:about="">
			<dc:format>image/svg+xml</dc:format>
			<dc:type
				rdf:resource="http://purl.org/dc/dcmitype/StillImage" />
			<dc:title></dc:title>
		</cc:Work>
	</rdf:RDF>
</metadata>
<g
	inkscape:label="Layer 1"
	inkscape:groupmode="layer"
	id="layer1">
	<path style="fill:none;stroke:red;stroke-width:1px;stroke-linecap:butt;stroke-linejoin:miter;stroke-opacity:1" d="M 4,919.281 4,937.122 z" id="boundary" inkscape:connector-curvature="0" />
	<path style="fill:none;stroke:red;stroke-width:1px;stroke-linecap:butt;stroke-linejoin:miter;stroke-opacity:1" d="M 4,919.281 12.9209,892.518 z" id="boundary" inkscape:connector-curvature="0" />
	<path style="fill:none;stroke:red;stroke-width:1px;stroke-linecap:butt;stroke-linejoin:miter;stroke-opacity:1" d="M 4,937.122 21.8417,942.475 z" id="boundary" inkscape:connector-curvature="0" />
	<path style="fill:none;stroke:red;stroke-width:1px;stroke-linecap:butt;stroke-linejoin:miter;stroke-opacity:1" d="M 12.9209,223.453 12.9209,241.295 z" id="boundary" inkscape:connector-curvature="0" />
	<path style="fill:none;stroke:red;stroke-width:1px;stroke-linecap:butt;stroke-linejoin:miter;stroke-opacity:1" d="M 12.9209,223.453 21.8417,196.691 z" id="boundary" inkscape:connector-curvature="0" />
	<path style="fill:none;stroke:red;stroke-width:1px;stroke-linecap:butt;stroke-linejoin:miter;stroke-opacity:1" d="M 12.9209,241.295 21.8417,257.353 z" id="boundary" inkscape:connector-curvature="0" />
	<path style="fill:none;stroke:red;stroke-width:1px;stroke-linecap:butt;stroke-linejoin:miter;stroke-opacity:1" d="M 12.9209,276.978 21.8417,257.353 z" id="boundary" inkscape:connector-curvature="0" />
	<path style="fill:none;stroke:red;stroke-width:1px;stroke-linecap:butt;stroke-linejoin:miter;stroke-opacity:1" d="M 12.9209,276.978 21.8417,293.036 z" id="boundary" inkscape:connector-curvature="0" />
	<path style="fill:none;stroke:red;stroke-width:1px;stroke-linecap:butt;stroke-linejoin:miter;stroke-opacity:1" d="M 12.9209,892.518 30.7626,874.676 z" id="boundary" inkscape:connector-curvature="0" />
	<path style="fill:none;stroke:red;stroke-width:1px;stroke-linecap:butt;stroke-linejoin:miter;stroke-opacity:1" d="M 21.8417,178.849 21.8417,196.691 z" id="boundary" inkscape:connector-curvature="0" />
	<path style="fill:none;stroke:red;stroke-width:1px;stroke-linecap:butt;stroke-linejoin:miter;stroke-opacity:1" d="M 21.8417,178.849 36.1151,164.576 z" id="boundary" inkscape:connector-curvature="0" />
	<path style="fill:none;stroke:red;stroke-width:1px;stroke-linecap:butt;stroke-linejoin:miter;stroke-opacity:1" d="M 21.8417,293.036 30.7626,309.094 z" id="boundary" inkscape:connector-curvature="0" />
	<path style="fill:none;stroke:red;stroke-width:1px;stroke-linecap:butt;stroke-linejoin:miter;stroke-opacity:1" d="M 21.8417,330.504 30.7626,309.094 z" id="boundary" inkscape:connector-curvature="0" />
	<path style="fill:none;stroke:red;stroke-width:1px;stroke-linecap:butt;stroke-linejoin:miter;stroke-opacity:1" d="M 21.8417,330.504 30.7626,346.561 z" id="boundary" inkscape:connector-curvature="0" />
	<path style="fill:none;stroke:red;stroke-width:1px;stroke-linecap:butt;stroke-linejoin:miter;stroke-opacity:1" d="M 21.8417,942.475 39.6835,942.475 z" id="boundary" inkscape:connector-curvature="0" />
	<path style="fill:none;stroke:red;stroke-width:1px;stroke-linecap:butt;stroke-linejoin:miter;stroke-opacity:1" d="M 30.7626,346.561 30.7626,364.403 z" id="boundary" inkscape:connector-curvature="0" />
	<path style="fill:none;stroke:red;stroke-width:1px;stroke-linecap:butt;stroke-linejoin:miter;stroke-opacity:1" d="M 30.7626,364.403 30.7626,382.245 z" id="boundary" inkscape:connector-curvature="0" />
	<path style="fill:none;stroke:red;stroke-width:1px;stroke-linecap:butt;stroke-linejoin:miter;stroke-opacity:1" d="M 30.7626,382.245 39.6835,398.302 z" id="boundary" inkscape:connector-curvature="0" />
	<path style="fill:none;stroke:red;stroke-width:1px;stroke-linecap:butt;stroke-linejoin:miter;stroke-opacity:1" d="M 30.7626,642.734 39.6835,624.892 z" id="boundary" inkscape:connector-curvature="0" />
	<path style="fill:none;stroke:red;stroke-width:1px;stroke-linecap:butt;stroke-linejoin:miter;stroke-opacity:1" d="M 30.7626,642.734 39.6835,658.791 z" id="boundary" inkscape:connector-curvature="0" />
	<path style="fill:none;stroke:red;stroke-width:1px;stroke-linecap:butt;stroke-linejoin:miter;stroke-opacity:1" d="M 30.7626,687.338 39.6835,658.791 z" id="boundary" inkscape:connector-curvature="0" />
	<path style="fill:none;stroke:red;stroke-width:1px;stroke-linecap:butt;stroke-linejoin:miter;stroke-opacity:1" d="M 30.7626,687.338 39.6835,703.396 z" id="boundary" inkscape:connector-curvature="0" />
	<path style="fill:none;stroke:red;stroke-width:1px;stroke-linecap:butt;stroke-linejoin:miter;stroke-opacity:1" d="M 30.7626,856.835 30.7626,874.676 z" id="boundary" inkscape:connector-curvature="0" />
	<path style="fill:none;stroke:red;stroke-width:1px;stroke-linecap:butt;stroke-linejoin:miter;stroke-opacity:1" d="M 30.7626,856.835 45.036,842.561 z" id="boundary" inkscape:connector-curvature="0" />
	<path style="fill:none;stroke:red;stroke-width:1px;stroke-linecap:butt;stroke-linejoin:miter;stroke-opacity:1" d="M 36.1151,164.576 52.1727,155.655 z" id="boundary" inkscape:connector-curvature="0" />
	<path style="fill:none;stroke:red;stroke-width:1px;stroke-linecap:butt;stroke-linejoin:miter;stroke-opacity:1" d="M 39.6835,398.302 45.036,416.144 z" id="boundary" inkscape:connector-curvature="0" />
	<path style="fill:none;stroke:red;stroke-width:1px;stroke-linecap:butt;stroke-linejoin:miter;stroke-opacity:1" d="M 39.6835,589.209 39.6835,607.05 z" id="boundary" inkscape:connector-curvature="0" />
	<path style="fill:none;stroke:red;stroke-width:1px;stroke-linecap:butt;stroke-linejoin:miter;stroke-opacity:1" d="M 39.6835,589.209 48.6043,571.367 z" id="boundary" inkscape:connector-curvature="0" />
	<path style="fill:none;stroke:red;stroke-width:1px;stroke-linecap:butt;stroke-linejoin:miter;stroke-opacity:1" d="M 39.6835,607.05 39.6835,624.892 z" id="boundary" inkscape:connector-curvature="0" />
	<path style="fill:none;stroke:red;stroke-width:1px;stroke-linecap:butt;stroke-linejoin:miter;stroke-opacity:1" d="M 39.6835,703.396 39.6835,721.237 z" id="boundary" inkscape:connector-curvature="0" />
	<path style="fill:none;stroke:red;stroke-width:1px;stroke-linecap:butt;stroke-linejoin:miter;stroke-opacity:1" d="M 39.6835,721.237 39.6835,739.079 z" id="boundary" inkscape:connector-curvature="0" />
	<path style="fill:none;stroke:red;stroke-width:1px;stroke-linecap:butt;stroke-linejoin:miter;stroke-opacity:1" d="M 39.6835,739.079 39.6835,756.921 z" id="boundary" inkscape:connector-curvature="0" />
	<path style="fill:none;stroke:red;stroke-width:1px;stroke-linecap:butt;stroke-linejoin:miter;stroke-opacity:1" d="M 39.6835,756.921 48.6043,772.978 z" id="boundary" inkscape:connector-curvature="0" />
	<path style="fill:none;stroke:red;stroke-width:1px;stroke-linecap:butt;stroke-linejoin:miter;stroke-opacity:1" d="M 39.6835,942.475 55.741,951.396 z" id="boundary" inkscape:connector-curvature="0" />
	<path style="fill:none;stroke:red;stroke-width:1px;stroke-linecap:butt;stroke-linejoin:miter;stroke-opacity:1" d="M 45.036,416.144 48.6043,433.986 z" id="boundary" inkscape:connector-curvature="0" />
	<path style="fill:none;stroke:red;stroke-width:1px;stroke-linecap:butt;stroke-linejoin:miter;stroke-opacity:1" d="M 45.036,842.561 48.6043,808.662 z" id="boundary" inkscape:connector-curvature="0" />
	<path style="fill:none;stroke:red;stroke-width:1px;stroke-linecap:butt;stroke-linejoin:miter;stroke-opacity:1" d="M 48.6043,433.986 53.9568,451.827 z" id="boundary" inkscape:connector-curvature="0" />
	<path style="fill:none;stroke:red;stroke-width:1px;stroke-linecap:butt;stroke-linejoin:miter;stroke-opacity:1" d="M 48.6043,482.158 53.9568,451.827 z" id="boundary" inkscape:connector-curvature="0" />
	<path style="fill:none;stroke:red;stroke-width:1px;stroke-linecap:butt;stroke-linejoin:miter;stroke-opacity:1" d="M 48.6043,482.158 57.5252,498.216 z" id="boundary" inkscape:connector-curvature="0" />
	<path style="fill:none;stroke:red;stroke-width:1px;stroke-linecap:butt;stroke-linejoin:miter;stroke-opacity:1" d="M 48.6043,535.683 48.6043,553.525 z" id="boundary" inkscape:connector-curvature="0" />
	<path style="fill:none;stroke:red;stroke-width:1px;stroke-linecap:butt;stroke-linejoin:miter;stroke-opacity:1" d="M 48.6043,535.683 57.5252,516.058 z" id="boundary" inkscape:connector-curvature="0" />
	<path style="fill:none;stroke:red;stroke-width:1px;stroke-linecap:butt;stroke-linejoin:miter;stroke-opacity:1" d="M 48.6043,553.525 48.6043,571.367 z" id="boundary" inkscape:connector-curvature="0" />
	<path style="fill:none;stroke:red;stroke-width:1px;stroke-linecap:butt;stroke-linejoin:miter;stroke-opacity:1" d="M 48.6043,772.978 48.6043,790.82 z" id="boundary" inkscape:connector-curvature="0" />
	<path style="fill:none;stroke:red;stroke-width:1px;stroke-linecap:butt;stroke-linejoin:miter;stroke-opacity:1" d="M 48.6043,790.82 48.6043,808.662 z" id="boundary" inkscape:connector-curvature="0" />
	<path style="fill:none;stroke:red;stroke-width:1px;stroke-linecap:butt;stroke-linejoin:miter;stroke-opacity:1" d="M 52.1727,155.655 68.2302,164.576 z" id="boundary" inkscape:connector-curvature="0" />
	<path style="fill:none;stroke:red;stroke-width:1px;stroke-linecap:butt;stroke-linejoin:miter;stroke-opacity:1" d="M 55.741,951.396 73.5827,951.396 z" id="boundary" inkscape:connector-curvature="0" />
	<path style="fill:none;stroke:red;stroke-width:1px;stroke-linecap:butt;stroke-linejoin:miter;stroke-opacity:1" d="M 57.5252,498.216 57.5252,516.058 z" id="boundary" inkscape:connector-curvature="0" />
	<path style="fill:none;stroke:red;stroke-width:1px;stroke-linecap:butt;stroke-linejoin:miter;stroke-opacity:1" d="M 68.2302,164.576 86.0719,164.576 z" id="boundary" inkscape:connector-curvature="0" />
	<path style="fill:none;stroke:red;stroke-width:1px;stroke-linecap:butt;stroke-linejoin:miter;stroke-opacity:1" d="M 73.5827,951.396 91.4245,951.396 z" id="boundary" inkscape:connector-curvature="0" />
	<path style="fill:none;stroke:red;stroke-width:1px;stroke-linecap:butt;stroke-linejoin:miter;stroke-opacity:1" d="M 86.0719,164.576 94.9928,180.633 z" id="boundary" inkscape:connector-curvature="0" />
	<path style="fill:none;stroke:red;stroke-width:1px;stroke-linecap:butt;stroke-linejoin:miter;stroke-opacity:1" d="M 91.4245,951.396 107.482,960.317 z" id="boundary" inkscape:connector-curvature="0" />
	<path style="fill:none;stroke:red;stroke-width:1px;stroke-linecap:butt;stroke-linejoin:miter;stroke-opacity:1" d="M 94.9928,180.633 103.914,196.691 z" id="boundary" inkscape:connector-curvature="0" />
	<path style="fill:none;stroke:red;stroke-width:1px;stroke-linecap:butt;stroke-linejoin:miter;stroke-opacity:1" d="M 103.914,196.691 103.914,228.806 z" id="boundary" inkscape:connector-curvature="0" />
	<path style="fill:none;stroke:red;stroke-width:1px;stroke-linecap:butt;stroke-linejoin:miter;stroke-opacity:1" d="M 103.914,228.806 107.482,246.647 z" id="boundary" inkscape:connector-curvature="0" />
	<path style="fill:none;stroke:red;stroke-width:1px;stroke-linecap:butt;stroke-linejoin:miter;stroke-opacity:1" d="M 103.914,282.331 112.835,264.489 z" id="boundary" inkscape:connector-curvature="0" />
	<path style="fill:none;stroke:red;stroke-width:1px;stroke-linecap:butt;stroke-linejoin:miter;stroke-opacity:1" d="M 103.914,282.331 112.835,298.388 z" id="boundary" inkscape:connector-curvature="0" />
	<path style="fill:none;stroke:red;stroke-width:1px;stroke-linecap:butt;stroke-linejoin:miter;stroke-opacity:1" d="M 107.482,246.647 112.835,264.489 z" id="boundary" inkscape:connector-curvature="0" />
	<path style="fill:none;stroke:red;stroke-width:1px;stroke-linecap:butt;stroke-linejoin:miter;stroke-opacity:1" d="M 107.482,960.317 125.324,960.317 z" id="boundary" inkscape:connector-curvature="0" />
	<path style="fill:none;stroke:red;stroke-width:1px;stroke-linecap:butt;stroke-linejoin:miter;stroke-opacity:1" d="M 112.835,298.388 112.835,316.23 z" id="boundary" inkscape:connector-curvature="0" />
	<path style="fill:none;stroke:red;stroke-width:1px;stroke-linecap:butt;stroke-linejoin:miter;stroke-opacity:1" d="M 112.835,316.23 121.755,335.856 z" id="boundary" inkscape:connector-curvature="0" />
	<path style="fill:none;stroke:red;stroke-width:1px;stroke-linecap:butt;stroke-linejoin:miter;stroke-opacity:1" d="M 121.755,335.856 121.755,353.698 z" id="boundary" inkscape:connector-curvature="0" />
	<path style="fill:none;stroke:red;stroke-width:1px;stroke-linecap:butt;stroke-linejoin:miter;stroke-opacity:1" d="M 121.755,353.698 130.676,369.755 z" id="boundary" inkscape:connector-curvature="0" />
	<path style="fill:none;stroke:red;stroke-width:1px;stroke-linecap:butt;stroke-linejoin:miter;stroke-opacity:1" d="M 125.324,960.317 143.165,967.453 z" id="boundary" inkscape:connector-curvature="0" />
	<path style="fill:none;stroke:red;stroke-width:1px;stroke-linecap:butt;stroke-linejoin:miter;stroke-opacity:1" d="M 130.676,369.755 130.676,389.381 z" id="boundary" inkscape:connector-curvature="0" />
	<path style="fill:none;stroke:red;stroke-width:1px;stroke-linecap:butt;stroke-linejoin:miter;stroke-opacity:1" d="M 130.676,389.381 139.597,405.439 z" id="boundary" inkscape:connector-curvature="0" />
	<path style="fill:none;stroke:red;stroke-width:1px;stroke-linecap:butt;stroke-linejoin:miter;stroke-opacity:1" d="M 139.597,405.439 148.518,421.496 z" id="boundary" inkscape:connector-curvature="0" />
	<path style="fill:none;stroke:red;stroke-width:1px;stroke-linecap:butt;stroke-linejoin:miter;stroke-opacity:1" d="M 143.165,967.453 161.007,969.237 z" id="boundary" inkscape:connector-curvature="0" />
	<path style="fill:none;stroke:red;stroke-width:1px;stroke-linecap:butt;stroke-linejoin:miter;stroke-opacity:1" d="M 148.518,421.496 164.576,410.791 z" id="boundary" inkscape:connector-curvature="0" />
	<path style="fill:none;stroke:red;stroke-width:1px;stroke-linecap:butt;stroke-linejoin:miter;stroke-opacity:1" d="M 161.007,969.237 178.849,969.237 z" id="boundary" inkscape:connector-curvature="0" />
	<path style="fill:none;stroke:red;stroke-width:1px;stroke-linecap:butt;stroke-linejoin:miter;stroke-opacity:1" d="M 164.576,294.82 164.576,312.662 z" id="boundary" inkscape:connector-curvature="0" />
	<path style="fill:none;stroke:red;stroke-width:1px;stroke-linecap:butt;stroke-linejoin:miter;stroke-opacity:1" d="M 164.576,294.82 173.496,276.978 z" id="boundary" inkscape:connector-curvature="0" />
	<path style="fill:none;stroke:red;stroke-width:1px;stroke-linecap:butt;stroke-linejoin:miter;stroke-opacity:1" d="M 164.576,312.662 164.576,339.424 z" id="boundary" inkscape:connector-curvature="0" />
	<path style="fill:none;stroke:red;stroke-width:1px;stroke-linecap:butt;stroke-linejoin:miter;stroke-opacity:1" d="M 164.576,339.424 164.576,357.266 z" id="boundary" inkscape:connector-curvature="0" />
	<path style="fill:none;stroke:red;stroke-width:1px;stroke-linecap:butt;stroke-linejoin:miter;stroke-opacity:1" d="M 164.576,357.266 173.496,373.324 z" id="boundary" inkscape:connector-curvature="0" />
	<path style="fill:none;stroke:red;stroke-width:1px;stroke-linecap:butt;stroke-linejoin:miter;stroke-opacity:1" d="M 164.576,392.95 164.576,410.791 z" id="boundary" inkscape:connector-curvature="0" />
	<path style="fill:none;stroke:red;stroke-width:1px;stroke-linecap:butt;stroke-linejoin:miter;stroke-opacity:1" d="M 164.576,392.95 173.496,373.324 z" id="boundary" inkscape:connector-curvature="0" />
	<path style="fill:none;stroke:red;stroke-width:1px;stroke-linecap:butt;stroke-linejoin:miter;stroke-opacity:1" d="M 173.496,134.245 173.496,152.086 z" id="boundary" inkscape:connector-curvature="0" />
	<path style="fill:none;stroke:red;stroke-width:1px;stroke-linecap:butt;stroke-linejoin:miter;stroke-opacity:1" d="M 173.496,134.245 182.417,107.482 z" id="boundary" inkscape:connector-curvature="0" />
	<path style="fill:none;stroke:red;stroke-width:1px;stroke-linecap:butt;stroke-linejoin:miter;stroke-opacity:1" d="M 173.496,152.086 173.496,169.928 z" id="boundary" inkscape:connector-curvature="0" />
	<path style="fill:none;stroke:red;stroke-width:1px;stroke-linecap:butt;stroke-linejoin:miter;stroke-opacity:1" d="M 173.496,169.928 173.496,187.77 z" id="boundary" inkscape:connector-curvature="0" />
	<path style="fill:none;stroke:red;stroke-width:1px;stroke-linecap:butt;stroke-linejoin:miter;stroke-opacity:1" d="M 173.496,187.77 173.496,205.612 z" id="boundary" inkscape:connector-curvature="0" />
	<path style="fill:none;stroke:red;stroke-width:1px;stroke-linecap:butt;stroke-linejoin:miter;stroke-opacity:1" d="M 173.496,205.612 182.417,221.669 z" id="boundary" inkscape:connector-curvature="0" />
	<path style="fill:none;stroke:red;stroke-width:1px;stroke-linecap:butt;stroke-linejoin:miter;stroke-opacity:1" d="M 173.496,241.295 173.496,259.137 z" id="boundary" inkscape:connector-curvature="0" />
	<path style="fill:none;stroke:red;stroke-width:1px;stroke-linecap:butt;stroke-linejoin:miter;stroke-opacity:1" d="M 173.496,241.295 182.417,221.669 z" id="boundary" inkscape:connector-curvature="0" />
	<path style="fill:none;stroke:red;stroke-width:1px;stroke-linecap:butt;stroke-linejoin:miter;stroke-opacity:1" d="M 173.496,259.137 173.496,276.978 z" id="boundary" inkscape:connector-curvature="0" />
	<path style="fill:none;stroke:red;stroke-width:1px;stroke-linecap:butt;stroke-linejoin:miter;stroke-opacity:1" d="M 178.849,969.237 196.691,976.374 z" id="boundary" inkscape:connector-curvature="0" />
	<path style="fill:none;stroke:red;stroke-width:1px;stroke-linecap:butt;stroke-linejoin:miter;stroke-opacity:1" d="M 182.417,89.6403 182.417,107.482 z" id="boundary" inkscape:connector-curvature="0" />
	<path style="fill:none;stroke:red;stroke-width:1px;stroke-linecap:butt;stroke-linejoin:miter;stroke-opacity:1" d="M 182.417,89.6403 191.338,71.7986 z" id="boundary" inkscape:connector-curvature="0" />
	<path style="fill:none;stroke:red;stroke-width:1px;stroke-linecap:butt;stroke-linejoin:miter;stroke-opacity:1" d="M 191.338,53.9568 191.338,71.7986 z" id="boundary" inkscape:connector-curvature="0" />
	<path style="fill:none;stroke:red;stroke-width:1px;stroke-linecap:butt;stroke-linejoin:miter;stroke-opacity:1" d="M 191.338,53.9568 205.612,39.6835 z" id="boundary" inkscape:connector-curvature="0" />
	<path style="fill:none;stroke:red;stroke-width:1px;stroke-linecap:butt;stroke-linejoin:miter;stroke-opacity:1" d="M 196.691,976.374 214.532,978.158 z" id="boundary" inkscape:connector-curvature="0" />
	<path style="fill:none;stroke:red;stroke-width:1px;stroke-linecap:butt;stroke-linejoin:miter;stroke-opacity:1" d="M 205.612,39.6835 223.453,39.6835 z" id="boundary" inkscape:connector-curvature="0" />
	<path style="fill:none;stroke:red;stroke-width:1px;stroke-linecap:butt;stroke-linejoin:miter;stroke-opacity:1" d="M 214.532,978.158 232.374,978.158 z" id="boundary" inkscape:connector-curvature="0" />
	<path style="fill:none;stroke:red;stroke-width:1px;stroke-linecap:butt;stroke-linejoin:miter;stroke-opacity:1" d="M 223.453,39.6835 241.295,39.6835 z" id="boundary" inkscape:connector-curvature="0" />
	<path style="fill:none;stroke:red;stroke-width:1px;stroke-linecap:butt;stroke-linejoin:miter;stroke-opacity:1" d="M 232.374,978.158 250.216,985.295 z" id="boundary" inkscape:connector-curvature="0" />
	<path style="fill:none;stroke:red;stroke-width:1px;stroke-linecap:butt;stroke-linejoin:miter;stroke-opacity:1" d="M 241.295,39.6835 259.137,39.6835 z" id="boundary" inkscape:connector-curvature="0" />
	<path style="fill:none;stroke:red;stroke-width:1px;stroke-linecap:butt;stroke-linejoin:miter;stroke-opacity:1" d="M 250.216,985.295 268.058,987.079 z" id="boundary" inkscape:connector-curvature="0" />
	<path style="fill:none;stroke:red;stroke-width:1px;stroke-linecap:butt;stroke-linejoin:miter;stroke-opacity:1" d="M 259.137,39.6835 271.626,53.9568 z" id="boundary" inkscape:connector-curvature="0" />
	<path style="fill:none;stroke:red;stroke-width:1px;stroke-linecap:butt;stroke-linejoin:miter;stroke-opacity:1" d="M 268.058,987.079 285.899,987.079 z" id="boundary" inkscape:connector-curvature="0" />
	<path style="fill:none;stroke:red;stroke-width:1px;stroke-linecap:butt;stroke-linejoin:miter;stroke-opacity:1" d="M 271.626,53.9568 280.547,70.0144 z" id="boundary" inkscape:connector-curvature="0" />
	<path style="fill:none;stroke:red;stroke-width:1px;stroke-linecap:butt;stroke-linejoin:miter;stroke-opacity:1" d="M 273.41,139.597 273.41,157.439 z" id="boundary" inkscape:connector-curvature="0" />
	<path style="fill:none;stroke:red;stroke-width:1px;stroke-linecap:butt;stroke-linejoin:miter;stroke-opacity:1" d="M 273.41,139.597 282.331,112.835 z" id="boundary" inkscape:connector-curvature="0" />
	<path style="fill:none;stroke:red;stroke-width:1px;stroke-linecap:butt;stroke-linejoin:miter;stroke-opacity:1" d="M 273.41,157.439 276.978,175.281 z" id="boundary" inkscape:connector-curvature="0" />
	<path style="fill:none;stroke:red;stroke-width:1px;stroke-linecap:butt;stroke-linejoin:miter;stroke-opacity:1" d="M 273.41,193.122 273.41,210.964 z" id="boundary" inkscape:connector-curvature="0" />
	<path style="fill:none;stroke:red;stroke-width:1px;stroke-linecap:butt;stroke-linejoin:miter;stroke-opacity:1" d="M 273.41,193.122 276.978,175.281 z" id="boundary" inkscape:connector-curvature="0" />
	<path style="fill:none;stroke:red;stroke-width:1px;stroke-linecap:butt;stroke-linejoin:miter;stroke-opacity:1" d="M 273.41,210.964 273.41,228.806 z" id="boundary" inkscape:connector-curvature="0" />
	<path style="fill:none;stroke:red;stroke-width:1px;stroke-linecap:butt;stroke-linejoin:miter;stroke-opacity:1" d="M 273.41,228.806 273.41,246.647 z" id="boundary" inkscape:connector-curvature="0" />
	<path style="fill:none;stroke:red;stroke-width:1px;stroke-linecap:butt;stroke-linejoin:miter;stroke-opacity:1" d="M 273.41,246.647 273.41,264.489 z" id="boundary" inkscape:connector-curvature="0" />
	<path style="fill:none;stroke:red;stroke-width:1px;stroke-linecap:butt;stroke-linejoin:miter;stroke-opacity:1" d="M 273.41,264.489 276.978,282.331 z" id="boundary" inkscape:connector-curvature="0" />
	<path style="fill:none;stroke:red;stroke-width:1px;stroke-linecap:butt;stroke-linejoin:miter;stroke-opacity:1" d="M 273.41,300.173 273.41,318.014 z" id="boundary" inkscape:connector-curvature="0" />
	<path style="fill:none;stroke:red;stroke-width:1px;stroke-linecap:butt;stroke-linejoin:miter;stroke-opacity:1" d="M 273.41,300.173 276.978,282.331 z" id="boundary" inkscape:connector-curvature="0" />
	<path style="fill:none;stroke:red;stroke-width:1px;stroke-linecap:butt;stroke-linejoin:miter;stroke-opacity:1" d="M 273.41,344.777 282.331,360.835 z" id="boundary" inkscape:connector-curvature="0" />
	<path style="fill:none;stroke:red;stroke-width:1px;stroke-linecap:butt;stroke-linejoin:miter;stroke-opacity:1" d="M 273.41,344.777 298.388,339.424 z" id="boundary" inkscape:connector-curvature="0" />
	<path style="fill:none;stroke:red;stroke-width:1px;stroke-linecap:butt;stroke-linejoin:miter;stroke-opacity:1" d="M 280.547,70.0144 282.331,94.9928 z" id="boundary" inkscape:connector-curvature="0" />
	<path style="fill:none;stroke:red;stroke-width:1px;stroke-linecap:butt;stroke-linejoin:miter;stroke-opacity:1" d="M 282.331,94.9928 282.331,112.835 z" id="boundary" inkscape:connector-curvature="0" />
	<path style="fill:none;stroke:red;stroke-width:1px;stroke-linecap:butt;stroke-linejoin:miter;stroke-opacity:1" d="M 285.899,987.079 301.957,996 z" id="boundary" inkscape:connector-curvature="0" />
	<path style="fill:none;stroke:red;stroke-width:1px;stroke-linecap:butt;stroke-linejoin:miter;stroke-opacity:1" d="M 298.388,303.741 298.388,321.583 z" id="boundary" inkscape:connector-curvature="0" />
	<path style="fill:none;stroke:red;stroke-width:1px;stroke-linecap:butt;stroke-linejoin:miter;stroke-opacity:1" d="M 298.388,303.741 307.309,285.899 z" id="boundary" inkscape:connector-curvature="0" />
	<path style="fill:none;stroke:red;stroke-width:1px;stroke-linecap:butt;stroke-linejoin:miter;stroke-opacity:1" d="M 298.388,321.583 298.388,339.424 z" id="boundary" inkscape:connector-curvature="0" />
	<path style="fill:none;stroke:red;stroke-width:1px;stroke-linecap:butt;stroke-linejoin:miter;stroke-opacity:1" d="M 301.957,996 318.014,987.079 z" id="boundary" inkscape:connector-curvature="0" />
	<path style="fill:none;stroke:red;stroke-width:1px;stroke-linecap:butt;stroke-linejoin:miter;stroke-opacity:1" d="M 307.309,250.216 307.309,268.058 z" id="boundary" inkscape:connector-curvature="0" />
	<path style="fill:none;stroke:red;stroke-width:1px;stroke-linecap:butt;stroke-linejoin:miter;stroke-opacity:1" d="M 307.309,250.216 316.23,223.453 z" id="boundary" inkscape:connector-curvature="0" />
	<path style="fill:none;stroke:red;stroke-width:1px;stroke-linecap:butt;stroke-linejoin:miter;stroke-opacity:1" d="M 307.309,268.058 307.309,285.899 z" id="boundary" inkscape:connector-curvature="0" />
	<path style="fill:none;stroke:red;stroke-width:1px;stroke-linecap:butt;stroke-linejoin:miter;stroke-opacity:1" d="M 316.23,205.612 316.23,223.453 z" id="boundary" inkscape:connector-curvature="0" />
	<path style="fill:none;stroke:red;stroke-width:1px;stroke-linecap:butt;stroke-linejoin:miter;stroke-opacity:1" d="M 316.23,205.612 325.151,187.77 z" id="boundary" inkscape:connector-curvature="0" />
	<path style="fill:none;stroke:red;stroke-width:1px;stroke-linecap:butt;stroke-linejoin:miter;stroke-opacity:1" d="M 318.014,969.237 318.014,987.079 z" id="boundary" inkscape:connector-curvature="0" />
	<path style="fill:none;stroke:red;stroke-width:1px;stroke-linecap:butt;stroke-linejoin:miter;stroke-opacity:1" d="M 318.014,969.237 335.856,951.396 z" id="boundary" inkscape:connector-curvature="0" />
	<path style="fill:none;stroke:red;stroke-width:1px;stroke-linecap:butt;stroke-linejoin:miter;stroke-opacity:1" d="M 325.151,152.086 325.151,169.928 z" id="boundary" inkscape:connector-curvature="0" />
	<path style="fill:none;stroke:red;stroke-width:1px;stroke-linecap:butt;stroke-linejoin:miter;stroke-opacity:1" d="M 325.151,152.086 334.072,134.245 z" id="boundary" inkscape:connector-curvature="0" />
	<path style="fill:none;stroke:red;stroke-width:1px;stroke-linecap:butt;stroke-linejoin:miter;stroke-opacity:1" d="M 325.151,169.928 325.151,187.77 z" id="boundary" inkscape:connector-curvature="0" />
	<path style="fill:none;stroke:red;stroke-width:1px;stroke-linecap:butt;stroke-linejoin:miter;stroke-opacity:1" d="M 334.072,98.5612 334.072,116.403 z" id="boundary" inkscape:connector-curvature="0" />
	<path style="fill:none;stroke:red;stroke-width:1px;stroke-linecap:butt;stroke-linejoin:miter;stroke-opacity:1" d="M 334.072,98.5612 342.993,71.7986 z" id="boundary" inkscape:connector-curvature="0" />
	<path style="fill:none;stroke:red;stroke-width:1px;stroke-linecap:butt;stroke-linejoin:miter;stroke-opacity:1" d="M 334.072,116.403 334.072,134.245 z" id="boundary" inkscape:connector-curvature="0" />
	<path style="fill:none;stroke:red;stroke-width:1px;stroke-linecap:butt;stroke-linejoin:miter;stroke-opacity:1" d="M 335.856,951.396 353.698,942.475 z" id="boundary" inkscape:connector-curvature="0" />
	<path style="fill:none;stroke:red;stroke-width:1px;stroke-linecap:butt;stroke-linejoin:miter;stroke-opacity:1" d="M 342.993,53.9568 342.993,71.7986 z" id="boundary" inkscape:connector-curvature="0" />
	<path style="fill:none;stroke:red;stroke-width:1px;stroke-linecap:butt;stroke-linejoin:miter;stroke-opacity:1" d="M 342.993,53.9568 357.266,39.6835 z" id="boundary" inkscape:connector-curvature="0" />
	<path style="fill:none;stroke:red;stroke-width:1px;stroke-linecap:butt;stroke-linejoin:miter;stroke-opacity:1" d="M 353.698,942.475 367.971,929.986 z" id="boundary" inkscape:connector-curvature="0" />
	<path style="fill:none;stroke:red;stroke-width:1px;stroke-linecap:butt;stroke-linejoin:miter;stroke-opacity:1" d="M 357.266,39.6835 360.835,18.2734 z" id="boundary" inkscape:connector-curvature="0" />
	<path style="fill:none;stroke:red;stroke-width:1px;stroke-linecap:butt;stroke-linejoin:miter;stroke-opacity:1" d="M 360.835,18.2734 375.108,4 z" id="boundary" inkscape:connector-curvature="0" />
	<path style="fill:none;stroke:red;stroke-width:1px;stroke-linecap:butt;stroke-linejoin:miter;stroke-opacity:1" d="M 367.971,929.986 385.813,924.633 z" id="boundary" inkscape:connector-curvature="0" />
	<path style="fill:none;stroke:red;stroke-width:1px;stroke-linecap:butt;stroke-linejoin:miter;stroke-opacity:1" d="M 375.108,4 391.165,12.9209 z" id="boundary" inkscape:connector-curvature="0" />
	<path style="fill:none;stroke:red;stroke-width:1px;stroke-linecap:butt;stroke-linejoin:miter;stroke-opacity:1" d="M 385.813,924.633 401.871,933.554 z" id="boundary" inkscape:connector-curvature="0" />
	<path style="fill:none;stroke:red;stroke-width:1px;stroke-linecap:butt;stroke-linejoin:miter;stroke-opacity:1" d="M 391.165,12.9209 409.007,12.9209 z" id="boundary" inkscape:connector-curvature="0" />
	<path style="fill:none;stroke:red;stroke-width:1px;stroke-linecap:butt;stroke-linejoin:miter;stroke-opacity:1" d="M 398.302,362.619 398.302,380.46 z" id="boundary" inkscape:connector-curvature="0" />
	<path style="fill:none;stroke:red;stroke-width:1px;stroke-linecap:butt;stroke-linejoin:miter;stroke-opacity:1" d="M 398.302,362.619 407.223,344.777 z" id="boundary" inkscape:connector-curvature="0" />
	<path style="fill:none;stroke:red;stroke-width:1px;stroke-linecap:butt;stroke-linejoin:miter;stroke-opacity:1" d="M 398.302,380.46 398.302,398.302 z" id="boundary" inkscape:connector-curvature="0" />
	<path style="fill:none;stroke:red;stroke-width:1px;stroke-linecap:butt;stroke-linejoin:miter;stroke-opacity:1" d="M 398.302,398.302 416.144,400.086 z" id="boundary" inkscape:connector-curvature="0" />
	<path style="fill:none;stroke:red;stroke-width:1px;stroke-linecap:butt;stroke-linejoin:miter;stroke-opacity:1" d="M 401.871,933.554 417.928,924.633 z" id="boundary" inkscape:connector-curvature="0" />
	<path style="fill:none;stroke:red;stroke-width:1px;stroke-linecap:butt;stroke-linejoin:miter;stroke-opacity:1" d="M 407.223,309.094 407.223,326.935 z" id="boundary" inkscape:connector-curvature="0" />
	<path style="fill:none;stroke:red;stroke-width:1px;stroke-linecap:butt;stroke-linejoin:miter;stroke-opacity:1" d="M 407.223,309.094 416.144,291.252 z" id="boundary" inkscape:connector-curvature="0" />
	<path style="fill:none;stroke:red;stroke-width:1px;stroke-linecap:butt;stroke-linejoin:miter;stroke-opacity:1" d="M 407.223,326.935 407.223,344.777 z" id="boundary" inkscape:connector-curvature="0" />
	<path style="fill:none;stroke:red;stroke-width:1px;stroke-linecap:butt;stroke-linejoin:miter;stroke-opacity:1" d="M 409.007,12.9209 426.849,12.9209 z" id="boundary" inkscape:connector-curvature="0" />
	<path style="fill:none;stroke:red;stroke-width:1px;stroke-linecap:butt;stroke-linejoin:miter;stroke-opacity:1" d="M 416.144,202.043 416.144,219.885 z" id="boundary" inkscape:connector-curvature="0" />
	<path style="fill:none;stroke:red;stroke-width:1px;stroke-linecap:butt;stroke-linejoin:miter;stroke-opacity:1" d="M 416.144,202.043 433.986,193.122 z" id="boundary" inkscape:connector-curvature="0" />
	<path style="fill:none;stroke:red;stroke-width:1px;stroke-linecap:butt;stroke-linejoin:miter;stroke-opacity:1" d="M 416.144,219.885 425.065,235.942 z" id="boundary" inkscape:connector-curvature="0" />
	<path style="fill:none;stroke:red;stroke-width:1px;stroke-linecap:butt;stroke-linejoin:miter;stroke-opacity:1" d="M 416.144,255.568 416.144,273.41 z" id="boundary" inkscape:connector-curvature="0" />
	<path style="fill:none;stroke:red;stroke-width:1px;stroke-linecap:butt;stroke-linejoin:miter;stroke-opacity:1" d="M 416.144,255.568 425.065,235.942 z" id="boundary" inkscape:connector-curvature="0" />
	<path style="fill:none;stroke:red;stroke-width:1px;stroke-linecap:butt;stroke-linejoin:miter;stroke-opacity:1" d="M 416.144,273.41 416.144,291.252 z" id="boundary" inkscape:connector-curvature="0" />
	<path style="fill:none;stroke:red;stroke-width:1px;stroke-linecap:butt;stroke-linejoin:miter;stroke-opacity:1" d="M 417.928,924.633 432.201,910.36 z" id="boundary" inkscape:connector-curvature="0" />
	<path style="fill:none;stroke:red;stroke-width:1px;stroke-linecap:butt;stroke-linejoin:miter;stroke-opacity:1" d="M 423.281,366.187 437.554,351.914 z" id="boundary" inkscape:connector-curvature="0" />
	<path style="fill:none;stroke:red;stroke-width:1px;stroke-linecap:butt;stroke-linejoin:miter;stroke-opacity:1" d="M 426.849,12.9209 433.986,30.7626 z" id="boundary" inkscape:connector-curvature="0" />
	<path style="fill:none;stroke:red;stroke-width:1px;stroke-linecap:butt;stroke-linejoin:miter;stroke-opacity:1" d="M 432.201,910.36 446.475,897.871 z" id="boundary" inkscape:connector-curvature="0" />
	<path style="fill:none;stroke:red;stroke-width:1px;stroke-linecap:butt;stroke-linejoin:miter;stroke-opacity:1" d="M 433.986,30.7626 442.906,50.3885 z" id="boundary" inkscape:connector-curvature="0" />
	<path style="fill:none;stroke:red;stroke-width:1px;stroke-linecap:butt;stroke-linejoin:miter;stroke-opacity:1" d="M 433.986,157.439 433.986,175.281 z" id="boundary" inkscape:connector-curvature="0" />
	<path style="fill:none;stroke:red;stroke-width:1px;stroke-linecap:butt;stroke-linejoin:miter;stroke-opacity:1" d="M 433.986,157.439 442.906,139.597 z" id="boundary" inkscape:connector-curvature="0" />
	<path style="fill:none;stroke:red;stroke-width:1px;stroke-linecap:butt;stroke-linejoin:miter;stroke-opacity:1" d="M 433.986,175.281 433.986,193.122 z" id="boundary" inkscape:connector-curvature="0" />
	<path style="fill:none;stroke:red;stroke-width:1px;stroke-linecap:butt;stroke-linejoin:miter;stroke-opacity:1" d="M 437.554,351.914 441.122,321.583 z" id="boundary" inkscape:connector-curvature="0" />
	<path style="fill:none;stroke:red;stroke-width:1px;stroke-linecap:butt;stroke-linejoin:miter;stroke-opacity:1" d="M 441.122,321.583 455.396,307.309 z" id="boundary" inkscape:connector-curvature="0" />
	<path style="fill:none;stroke:red;stroke-width:1px;stroke-linecap:butt;stroke-linejoin:miter;stroke-opacity:1" d="M 442.906,50.3885 451.827,66.446 z" id="boundary" inkscape:connector-curvature="0" />
	<path style="fill:none;stroke:red;stroke-width:1px;stroke-linecap:butt;stroke-linejoin:miter;stroke-opacity:1" d="M 442.906,103.914 442.906,121.755 z" id="boundary" inkscape:connector-curvature="0" />
	<path style="fill:none;stroke:red;stroke-width:1px;stroke-linecap:butt;stroke-linejoin:miter;stroke-opacity:1" d="M 442.906,103.914 451.827,84.2878 z" id="boundary" inkscape:connector-curvature="0" />
	<path style="fill:none;stroke:red;stroke-width:1px;stroke-linecap:butt;stroke-linejoin:miter;stroke-opacity:1" d="M 442.906,121.755 442.906,139.597 z" id="boundary" inkscape:connector-curvature="0" />
	<path style="fill:none;stroke:red;stroke-width:1px;stroke-linecap:butt;stroke-linejoin:miter;stroke-opacity:1" d="M 446.475,897.871 462.532,888.95 z" id="boundary" inkscape:connector-curvature="0" />
	<path style="fill:none;stroke:red;stroke-width:1px;stroke-linecap:butt;stroke-linejoin:miter;stroke-opacity:1" d="M 451.827,66.446 451.827,84.2878 z" id="boundary" inkscape:connector-curvature="0" />
	<path style="fill:none;stroke:red;stroke-width:1px;stroke-linecap:butt;stroke-linejoin:miter;stroke-opacity:1" d="M 455.396,307.309 464.317,289.468 z" id="boundary" inkscape:connector-curvature="0" />
	<path style="fill:none;stroke:red;stroke-width:1px;stroke-linecap:butt;stroke-linejoin:miter;stroke-opacity:1" d="M 462.532,888.95 478.59,880.029 z" id="boundary" inkscape:connector-curvature="0" />
	<path style="fill:none;stroke:red;stroke-width:1px;stroke-linecap:butt;stroke-linejoin:miter;stroke-opacity:1" d="M 464.317,289.468 467.885,268.058 z" id="boundary" inkscape:connector-curvature="0" />
	<path style="fill:none;stroke:red;stroke-width:1px;stroke-linecap:butt;stroke-linejoin:miter;stroke-opacity:1" d="M 467.885,268.058 476.806,250.216 z" id="boundary" inkscape:connector-curvature="0" />
	<path style="fill:none;stroke:red;stroke-width:1px;stroke-linecap:butt;stroke-linejoin:miter;stroke-opacity:1" d="M 476.806,214.532 476.806,232.374 z" id="boundary" inkscape:connector-curvature="0" />
	<path style="fill:none;stroke:red;stroke-width:1px;stroke-linecap:butt;stroke-linejoin:miter;stroke-opacity:1" d="M 476.806,214.532 485.727,196.691 z" id="boundary" inkscape:connector-curvature="0" />
	<path style="fill:none;stroke:red;stroke-width:1px;stroke-linecap:butt;stroke-linejoin:miter;stroke-opacity:1" d="M 476.806,232.374 476.806,250.216 z" id="boundary" inkscape:connector-curvature="0" />
	<path style="fill:none;stroke:red;stroke-width:1px;stroke-linecap:butt;stroke-linejoin:miter;stroke-opacity:1" d="M 478.59,567.799 487.511,541.036 z" id="boundary" inkscape:connector-curvature="0" />
	<path style="fill:none;stroke:red;stroke-width:1px;stroke-linecap:butt;stroke-linejoin:miter;stroke-opacity:1" d="M 478.59,567.799 487.511,583.856 z" id="boundary" inkscape:connector-curvature="0" />
	<path style="fill:none;stroke:red;stroke-width:1px;stroke-linecap:butt;stroke-linejoin:miter;stroke-opacity:1" d="M 478.59,880.029 492.863,867.54 z" id="boundary" inkscape:connector-curvature="0" />
	<path style="fill:none;stroke:red;stroke-width:1px;stroke-linecap:butt;stroke-linejoin:miter;stroke-opacity:1" d="M 485.727,161.007 485.727,178.849 z" id="boundary" inkscape:connector-curvature="0" />
	<path style="fill:none;stroke:red;stroke-width:1px;stroke-linecap:butt;stroke-linejoin:miter;stroke-opacity:1" d="M 485.727,161.007 494.647,143.165 z" id="boundary" inkscape:connector-curvature="0" />
	<path style="fill:none;stroke:red;stroke-width:1px;stroke-linecap:butt;stroke-linejoin:miter;stroke-opacity:1" d="M 485.727,178.849 485.727,196.691 z" id="boundary" inkscape:connector-curvature="0" />
	<path style="fill:none;stroke:red;stroke-width:1px;stroke-linecap:butt;stroke-linejoin:miter;stroke-opacity:1" d="M 487.511,541.036 496.432,523.194 z" id="boundary" inkscape:connector-curvature="0" />
	<path style="fill:none;stroke:red;stroke-width:1px;stroke-linecap:butt;stroke-linejoin:miter;stroke-opacity:1" d="M 487.511,583.856 487.511,601.698 z" id="boundary" inkscape:connector-curvature="0" />
	<path style="fill:none;stroke:red;stroke-width:1px;stroke-linecap:butt;stroke-linejoin:miter;stroke-opacity:1" d="M 487.511,601.698 496.432,621.324 z" id="boundary" inkscape:connector-curvature="0" />
	<path style="fill:none;stroke:red;stroke-width:1px;stroke-linecap:butt;stroke-linejoin:miter;stroke-opacity:1" d="M 492.863,867.54 505.353,853.266 z" id="boundary" inkscape:connector-curvature="0" />
	<path style="fill:none;stroke:red;stroke-width:1px;stroke-linecap:butt;stroke-linejoin:miter;stroke-opacity:1" d="M 494.647,143.165 503.568,116.403 z" id="boundary" inkscape:connector-curvature="0" />
	<path style="fill:none;stroke:red;stroke-width:1px;stroke-linecap:butt;stroke-linejoin:miter;stroke-opacity:1" d="M 496.432,523.194 505.353,505.353 z" id="boundary" inkscape:connector-curvature="0" />
	<path style="fill:none;stroke:red;stroke-width:1px;stroke-linecap:butt;stroke-linejoin:miter;stroke-opacity:1" d="M 496.432,621.324 505.353,637.381 z" id="boundary" inkscape:connector-curvature="0" />
	<path style="fill:none;stroke:red;stroke-width:1px;stroke-linecap:butt;stroke-linejoin:miter;stroke-opacity:1" d="M 503.568,116.403 521.41,111.05 z" id="boundary" inkscape:connector-curvature="0" />
	<path style="fill:none;stroke:red;stroke-width:1px;stroke-linecap:butt;stroke-linejoin:miter;stroke-opacity:1" d="M 505.353,469.669 505.353,487.511 z" id="boundary" inkscape:connector-curvature="0" />
	<path style="fill:none;stroke:red;stroke-width:1px;stroke-linecap:butt;stroke-linejoin:miter;stroke-opacity:1" d="M 505.353,469.669 514.273,451.827 z" id="boundary" inkscape:connector-curvature="0" />
	<path style="fill:none;stroke:red;stroke-width:1px;stroke-linecap:butt;stroke-linejoin:miter;stroke-opacity:1" d="M 505.353,487.511 505.353,505.353 z" id="boundary" inkscape:connector-curvature="0" />
	<path style="fill:none;stroke:red;stroke-width:1px;stroke-linecap:butt;stroke-linejoin:miter;stroke-opacity:1" d="M 505.353,637.381 521.41,646.302 z" id="boundary" inkscape:connector-curvature="0" />
	<path style="fill:none;stroke:red;stroke-width:1px;stroke-linecap:butt;stroke-linejoin:miter;stroke-opacity:1" d="M 505.353,853.266 523.194,835.424 z" id="boundary" inkscape:connector-curvature="0" />
	<path style="fill:none;stroke:red;stroke-width:1px;stroke-linecap:butt;stroke-linejoin:miter;stroke-opacity:1" d="M 514.273,416.144 514.273,433.986 z" id="boundary" inkscape:connector-curvature="0" />
	<path style="fill:none;stroke:red;stroke-width:1px;stroke-linecap:butt;stroke-linejoin:miter;stroke-opacity:1" d="M 514.273,416.144 528.547,403.655 z" id="boundary" inkscape:connector-curvature="0" />
	<path style="fill:none;stroke:red;stroke-width:1px;stroke-linecap:butt;stroke-linejoin:miter;stroke-opacity:1" d="M 514.273,433.986 514.273,451.827 z" id="boundary" inkscape:connector-curvature="0" />
	<path style="fill:none;stroke:red;stroke-width:1px;stroke-linecap:butt;stroke-linejoin:miter;stroke-opacity:1" d="M 521.41,111.05 537.468,102.129 z" id="boundary" inkscape:connector-curvature="0" />
	<path style="fill:none;stroke:red;stroke-width:1px;stroke-linecap:butt;stroke-linejoin:miter;stroke-opacity:1" d="M 521.41,646.302 537.468,655.223 z" id="boundary" inkscape:connector-curvature="0" />
	<path style="fill:none;stroke:red;stroke-width:1px;stroke-linecap:butt;stroke-linejoin:miter;stroke-opacity:1" d="M 523.194,835.424 541.036,817.583 z" id="boundary" inkscape:connector-curvature="0" />
	<path style="fill:none;stroke:red;stroke-width:1px;stroke-linecap:butt;stroke-linejoin:miter;stroke-opacity:1" d="M 528.547,403.655 532.115,371.54 z" id="boundary" inkscape:connector-curvature="0" />
	<path style="fill:none;stroke:red;stroke-width:1px;stroke-linecap:butt;stroke-linejoin:miter;stroke-opacity:1" d="M 532.115,371.54 549.957,353.698 z" id="boundary" inkscape:connector-curvature="0" />
	<path style="fill:none;stroke:red;stroke-width:1px;stroke-linecap:butt;stroke-linejoin:miter;stroke-opacity:1" d="M 537.468,102.129 555.309,102.129 z" id="boundary" inkscape:connector-curvature="0" />
	<path style="fill:none;stroke:red;stroke-width:1px;stroke-linecap:butt;stroke-linejoin:miter;stroke-opacity:1" d="M 537.468,655.223 544.604,637.381 z" id="boundary" inkscape:connector-curvature="0" />
	<path style="fill:none;stroke:red;stroke-width:1px;stroke-linecap:butt;stroke-linejoin:miter;stroke-opacity:1" d="M 541.036,817.583 555.309,805.094 z" id="boundary" inkscape:connector-curvature="0" />
	<path style="fill:none;stroke:red;stroke-width:1px;stroke-linecap:butt;stroke-linejoin:miter;stroke-opacity:1" d="M 544.604,637.381 560.662,628.46 z" id="boundary" inkscape:connector-curvature="0" />
	<path style="fill:none;stroke:red;stroke-width:1px;stroke-linecap:butt;stroke-linejoin:miter;stroke-opacity:1" d="M 549.957,318.014 549.957,335.856 z" id="boundary" inkscape:connector-curvature="0" />
	<path style="fill:none;stroke:red;stroke-width:1px;stroke-linecap:butt;stroke-linejoin:miter;stroke-opacity:1" d="M 549.957,318.014 558.878,300.173 z" id="boundary" inkscape:connector-curvature="0" />
	<path style="fill:none;stroke:red;stroke-width:1px;stroke-linecap:butt;stroke-linejoin:miter;stroke-opacity:1" d="M 549.957,335.856 549.957,353.698 z" id="boundary" inkscape:connector-curvature="0" />
	<path style="fill:none;stroke:red;stroke-width:1px;stroke-linecap:butt;stroke-linejoin:miter;stroke-opacity:1" d="M 555.309,102.129 573.151,103.914 z" id="boundary" inkscape:connector-curvature="0" />
	<path style="fill:none;stroke:red;stroke-width:1px;stroke-linecap:butt;stroke-linejoin:miter;stroke-opacity:1" d="M 555.309,805.094 567.799,790.82 z" id="boundary" inkscape:connector-curvature="0" />
	<path style="fill:none;stroke:red;stroke-width:1px;stroke-linecap:butt;stroke-linejoin:miter;stroke-opacity:1" d="M 558.878,282.331 558.878,300.173 z" id="boundary" inkscape:connector-curvature="0" />
	<path style="fill:none;stroke:red;stroke-width:1px;stroke-linecap:butt;stroke-linejoin:miter;stroke-opacity:1" d="M 558.878,282.331 573.151,269.842 z" id="boundary" inkscape:connector-curvature="0" />
	<path style="fill:none;stroke:red;stroke-width:1px;stroke-linecap:butt;stroke-linejoin:miter;stroke-opacity:1" d="M 560.662,628.46 574.935,607.05 z" id="boundary" inkscape:connector-curvature="0" />
	<path style="fill:none;stroke:red;stroke-width:1px;stroke-linecap:butt;stroke-linejoin:miter;stroke-opacity:1" d="M 567.799,790.82 583.856,781.899 z" id="boundary" inkscape:connector-curvature="0" />
	<path style="fill:none;stroke:red;stroke-width:1px;stroke-linecap:butt;stroke-linejoin:miter;stroke-opacity:1" d="M 573.151,103.914 576.719,121.755 z" id="boundary" inkscape:connector-curvature="0" />
	<path style="fill:none;stroke:red;stroke-width:1px;stroke-linecap:butt;stroke-linejoin:miter;stroke-opacity:1" d="M 573.151,269.842 576.719,237.727 z" id="boundary" inkscape:connector-curvature="0" />
	<path style="fill:none;stroke:red;stroke-width:1px;stroke-linecap:butt;stroke-linejoin:miter;stroke-opacity:1" d="M 574.935,607.05 592.777,598.129 z" id="boundary" inkscape:connector-curvature="0" />
	<path style="fill:none;stroke:red;stroke-width:1px;stroke-linecap:butt;stroke-linejoin:miter;stroke-opacity:1" d="M 576.719,121.755 585.64,137.813 z" id="boundary" inkscape:connector-curvature="0" />
	<path style="fill:none;stroke:red;stroke-width:1px;stroke-linecap:butt;stroke-linejoin:miter;stroke-opacity:1" d="M 576.719,219.885 576.719,237.727 z" id="boundary" inkscape:connector-curvature="0" />
	<path style="fill:none;stroke:red;stroke-width:1px;stroke-linecap:butt;stroke-linejoin:miter;stroke-opacity:1" d="M 576.719,219.885 585.64,202.043 z" id="boundary" inkscape:connector-curvature="0" />
	<path style="fill:none;stroke:red;stroke-width:1px;stroke-linecap:butt;stroke-linejoin:miter;stroke-opacity:1" d="M 583.856,781.899 594.561,755.137 z" id="boundary" inkscape:connector-curvature="0" />
	<path style="fill:none;stroke:red;stroke-width:1px;stroke-linecap:butt;stroke-linejoin:miter;stroke-opacity:1" d="M 585.64,137.813 585.64,166.36 z" id="boundary" inkscape:connector-curvature="0" />
	<path style="fill:none;stroke:red;stroke-width:1px;stroke-linecap:butt;stroke-linejoin:miter;stroke-opacity:1" d="M 585.64,166.36 585.64,184.201 z" id="boundary" inkscape:connector-curvature="0" />
	<path style="fill:none;stroke:red;stroke-width:1px;stroke-linecap:butt;stroke-linejoin:miter;stroke-opacity:1" d="M 585.64,184.201 585.64,202.043 z" id="boundary" inkscape:connector-curvature="0" />
	<path style="fill:none;stroke:red;stroke-width:1px;stroke-linecap:butt;stroke-linejoin:miter;stroke-opacity:1" d="M 592.777,598.129 607.05,583.856 z" id="boundary" inkscape:connector-curvature="0" />
	<path style="fill:none;stroke:red;stroke-width:1px;stroke-linecap:butt;stroke-linejoin:miter;stroke-opacity:1" d="M 594.561,755.137 608.835,742.647 z" id="boundary" inkscape:connector-curvature="0" />
	<path style="fill:none;stroke:red;stroke-width:1px;stroke-linecap:butt;stroke-linejoin:miter;stroke-opacity:1" d="M 607.05,583.856 624.892,574.935 z" id="boundary" inkscape:connector-curvature="0" />
	<path style="fill:none;stroke:red;stroke-width:1px;stroke-linecap:butt;stroke-linejoin:miter;stroke-opacity:1" d="M 608.835,742.647 621.324,728.374 z" id="boundary" inkscape:connector-curvature="0" />
	<path style="fill:none;stroke:red;stroke-width:1px;stroke-linecap:butt;stroke-linejoin:miter;stroke-opacity:1" d="M 621.324,728.374 639.165,710.532 z" id="boundary" inkscape:connector-curvature="0" />
	<path style="fill:none;stroke:red;stroke-width:1px;stroke-linecap:butt;stroke-linejoin:miter;stroke-opacity:1" d="M 624.892,574.935 640.95,566.014 z" id="boundary" inkscape:connector-curvature="0" />
	<path style="fill:none;stroke:red;stroke-width:1px;stroke-linecap:butt;stroke-linejoin:miter;stroke-opacity:1" d="M 639.165,710.532 653.439,698.043 z" id="boundary" inkscape:connector-curvature="0" />
	<path style="fill:none;stroke:red;stroke-width:1px;stroke-linecap:butt;stroke-linejoin:miter;stroke-opacity:1" d="M 640.95,566.014 655.223,553.525 z" id="boundary" inkscape:connector-curvature="0" />
	<path style="fill:none;stroke:red;stroke-width:1px;stroke-linecap:butt;stroke-linejoin:miter;stroke-opacity:1" d="M 653.439,698.043 671.281,689.122 z" id="boundary" inkscape:connector-curvature="0" />
	<path style="fill:none;stroke:red;stroke-width:1px;stroke-linecap:butt;stroke-linejoin:miter;stroke-opacity:1" d="M 655.223,553.525 673.065,544.604 z" id="boundary" inkscape:connector-curvature="0" />
	<path style="fill:none;stroke:red;stroke-width:1px;stroke-linecap:butt;stroke-linejoin:miter;stroke-opacity:1" d="M 671.281,689.122 681.986,674.849 z" id="boundary" inkscape:connector-curvature="0" />
	<path style="fill:none;stroke:red;stroke-width:1px;stroke-linecap:butt;stroke-linejoin:miter;stroke-opacity:1" d="M 673.065,544.604 690.906,539.252 z" id="boundary" inkscape:connector-curvature="0" />
	<path style="fill:none;stroke:red;stroke-width:1px;stroke-linecap:butt;stroke-linejoin:miter;stroke-opacity:1" d="M 681.986,674.849 692.691,657.007 z" id="boundary" inkscape:connector-curvature="0" />
	<path style="fill:none;stroke:red;stroke-width:1px;stroke-linecap:butt;stroke-linejoin:miter;stroke-opacity:1" d="M 690.906,539.252 708.748,539.252 z" id="boundary" inkscape:connector-curvature="0" />
	<path style="fill:none;stroke:red;stroke-width:1px;stroke-linecap:butt;stroke-linejoin:miter;stroke-opacity:1" d="M 692.691,657.007 706.964,644.518 z" id="boundary" inkscape:connector-curvature="0" />
	<path style="fill:none;stroke:red;stroke-width:1px;stroke-linecap:butt;stroke-linejoin:miter;stroke-opacity:1" d="M 706.964,644.518 724.806,639.165 z" id="boundary" inkscape:connector-curvature="0" />
	<path style="fill:none;stroke:red;stroke-width:1px;stroke-linecap:butt;stroke-linejoin:miter;stroke-opacity:1" d="M 708.748,539.252 724.806,530.331 z" id="boundary" inkscape:connector-curvature="0" />
	<path style="fill:none;stroke:red;stroke-width:1px;stroke-linecap:butt;stroke-linejoin:miter;stroke-opacity:1" d="M 724.806,530.331 742.647,532.115 z" id="boundary" inkscape:connector-curvature="0" />
	<path style="fill:none;stroke:red;stroke-width:1px;stroke-linecap:butt;stroke-linejoin:miter;stroke-opacity:1" d="M 724.806,639.165 740.863,628.46 z" id="boundary" inkscape:connector-curvature="0" />
	<path style="fill:none;stroke:red;stroke-width:1px;stroke-linecap:butt;stroke-linejoin:miter;stroke-opacity:1" d="M 740.863,628.46 755.137,612.403 z" id="boundary" inkscape:connector-curvature="0" />
	<path style="fill:none;stroke:red;stroke-width:1px;stroke-linecap:butt;stroke-linejoin:miter;stroke-opacity:1" d="M 742.647,532.115 758.705,541.036 z" id="boundary" inkscape:connector-curvature="0" />
	<path style="fill:none;stroke:red;stroke-width:1px;stroke-linecap:butt;stroke-linejoin:miter;stroke-opacity:1" d="M 755.137,612.403 772.978,603.482 z" id="boundary" inkscape:connector-curvature="0" />
	<path style="fill:none;stroke:red;stroke-width:1px;stroke-linecap:butt;stroke-linejoin:miter;stroke-opacity:1" d="M 758.705,541.036 776.547,548.173 z" id="boundary" inkscape:connector-curvature="0" />
	<path style="fill:none;stroke:red;stroke-width:1px;stroke-linecap:butt;stroke-linejoin:miter;stroke-opacity:1" d="M 772.978,603.482 787.252,590.993 z" id="boundary" inkscape:connector-curvature="0" />
	<path style="fill:none;stroke:red;stroke-width:1px;stroke-linecap:butt;stroke-linejoin:miter;stroke-opacity:1" d="M 776.547,548.173 789.036,562.446 z" id="boundary" inkscape:connector-curvature="0" />
	<path style="fill:none;stroke:red;stroke-width:1px;stroke-linecap:butt;stroke-linejoin:miter;stroke-opacity:1" d="M 787.252,590.993 789.036,562.446 z" id="boundary" inkscape:connector-curvature="0" />
	<circle cx="4" cy="919.281" r="4" fill="#0" id="circle0"/>
	<circle cx="4" cy="937.122" r="4" fill="#0" id="circle1"/>
	<circle cx="12.9209" cy="223.453" r="4" fill="#0" id="circle2"/>
	<circle cx="12.9209" cy="241.295" r="4" fill="#0" id="circle3"/>
	<circle cx="12.9209" cy="276.978" r="4" fill="#0" id="circle4"/>
	<circle cx="12.9209" cy="892.518" r="4" fill="#0" id="circle5"/>
	<circle cx="21.8417" cy="178.849" r="4" fill="#0" id="circle6"/>
	<circle cx="21.8417" cy="196.691" r="4" fill="#0" id="circle7"/>
	<circle cx="21.8417" cy="257.353" r="4" fill="#0" id="circle8"/>
	<circle cx="21.8417" cy="293.036" r="4" fill="#0" id="circle9"/>
	<circle cx="21.8417" cy="330.504" r="4" fill="#0" id="circle10"/>
	<circle cx="21.8417" cy="942.475" r="4" fill="#0" id="circle11"/>
	<circle cx="30.7626" cy="309.094" r="4" fill="#0" id="circle12"/>
	<circle cx="30.7626" cy="346.561" r="4" fill="#0" id="circle13"/>
	<circle cx="30.7626" cy="364.403" r="4" fill="#0" id="circle14"/>
	<circle cx="30.7626" cy="382.245" r="4" fill="#0" id="circle15"/>
	<circle cx="30.7626" cy="642.734" r="4" fill="#0" id="circle16"/>
	<circle cx="30.7626" cy="687.338" r="4" fill="#0" id="circle17"/>
	<circle cx="30.7626" cy="856.835" r="4" fill="#0" id="circle18"/>
	<circle cx="30.7626" cy="874.676" r="4" fill="#0" id="circle19"/>
	<circle cx="36.1151" cy="164.576" r="4" fill="#0" id="circle20"/>
	<circle cx="39.6835" cy="398.302" r="4" fill="#0" id="circle21"/>
	<circle cx="39.6835" cy="589.209" r="4" fill="#0" id="circle22"/>
	<circle cx="39.6835" cy="607.05" r="4" fill="#0" id="circle23"/>
	<circle cx="39.6835" cy="624.892" r="4" fill="#0" id="circle24"/>
	<circle cx="39.6835" cy="658.791" r="4" fill="#0" id="circle25"/>
	<circle cx="39.6835" cy="703.396" r="4" fill="#0" id="circle26"/>
	<circle cx="39.6835" cy="721.237" r="4" fill="#0" id="circle27"/>
	<circle cx="39.6835" cy="739.079" r="4" fill="#0" id="circle28"/>
	<circle cx="39.6835" cy="756.921" r="4" fill="#0" id="circle29"/>
	<circle cx="39.6835" cy="942.475" r="4" fill="#0" id="circle30"/>
	<circle cx="45.036" cy="416.144" r="4" fill="#0" id="circle31"/>
	<circle cx="45.036" cy="842.561" r="4" fill="#0" id="circle32"/>
	<circle cx="48.6043" cy="433.986" r="4" fill="#0" id="circle33"/>
	<circle cx="48.6043" cy="482.158" r="4" fill="#0" id="circle34"/>
	<circle cx="48.6043" cy="535.683" r="4" fill="#0" id="circle35"/>
	<circle cx="48.6043" cy="553.525" r="4" fill="#0" id="circle36"/>
	<circle cx="48.6043" cy="571.367" r="4" fill="#0" id="circle37"/>
	<circle cx="48.6043" cy="772.978" r="4" fill="#0" id="circle38"/>
	<circle cx="48.6043" cy="790.82" r="4" fill="#0" id="circle39"/>
	<circle cx="48.6043" cy="808.662" r="4" fill="#0" id="circle40"/>
	<circle cx="52.1727" cy="155.655" r="4" fill="#0" id="circle41"/>
	<circle cx="53.9568" cy="451.827" r="4" fill="#0" id="circle42"/>
	<circle cx="55.741" cy="951.396" r="4" fill="#0" id="circle43"/>
	<circle cx="57.5252" cy="498.216" r="4" fill="#0" id="circle44"/>
	<circle cx="57.5252" cy="516.058" r="4" fill="#0" id="circle45"/>
	<circle cx="68.2302" cy="164.576" r="4" fill="#0" id="circle46"/>
	<circle cx="73.5827" cy="951.396" r="4" fill="#0" id="circle47"/>
	<circle cx="86.0719" cy="164.576" r="4" fill="#0" id="circle48"/>
	<circle cx="91.4245" cy="951.396" r="4" fill="#0" id="circle49"/>
	<circle cx="94.9928" cy="180.633" r="4" fill="#0" id="circle50"/>
	<circle cx="103.914" cy="196.691" r="4" fill="#0" id="circle51"/>
	<circle cx="103.914" cy="228.806" r="4" fill="#0" id="circle52"/>
	<circle cx="103.914" cy="282.331" r="4" fill="#0" id="circle53"/>
	<circle cx="107.482" cy="246.647" r="4" fill="#0" id="circle54"/>
	<circle cx="107.482" cy="960.317" r="4" fill="#0" id="circle55"/>
	<circle cx="112.835" cy="264.489" r="4" fill="#0" id="circle56"/>
	<circle cx="112.835" cy="298.388" r="4" fill="#0" id="circle57"/>
	<circle cx="112.835" cy="316.23" r="4" fill="#0" id="circle58"/>
	<circle cx="121.755" cy="335.856" r="4" fill="#0" id="circle59"/>
	<circle cx="121.755" cy="353.698" r="4" fill="#0" id="circle60"/>
	<circle cx="125.324" cy="960.317" r="4" fill="#0" id="circle61"/>
	<circle cx="130.676" cy="369.755" r="4" fill="#0" id="circle62"/>
	<circle cx="130.676" cy="389.381" r="4" fill="#0" id="circle63"/>
	<circle cx="139.597" cy="405.439" r="4" fill="#0" id="circle64"/>
	<circle cx="143.165" cy="967.453" r="4" fill="#0" id="circle65"/>
	<circle cx="148.518" cy="421.496" r="4" fill="#0" id="circle66"/>
	<circle cx="161.007" cy="969.237" r="4" fill="#0" id="circle67"/>
	<circle cx="164.576" cy="294.82" r="4" fill="#0" id="circle68"/>
	<circle cx="164.576" cy="312.662" r="4" fill="#0" id="circle69"/>
	<circle cx="164.576" cy="339.424" r="4" fill="#0" id="circle70"/>
	<circle cx="164.576" cy="357.266" r="4" fill="#0" id="circle71"/>
	<circle cx="164.576" cy="392.95" r="4" fill="#0" id="circle72"/>
	<circle cx="164.576" cy="410.791" r="4" fill="#0" id="circle73"/>
	<circle cx="173.496" cy="134.245" r="4" fill="#0" id="circle74"/>
	<circle cx="173.496" cy="152.086" r="4" fill="#0" id="circle75"/>
	<circle cx="173.496" cy="169.928" r="4" fill="#0" id="circle76"/>
	<circle cx="173.496" cy="187.77" r="4" fill="#0" id="circle77"/>
	<circle cx="173.496" cy="205.612" r="4" fill="#0" id="circle78"/>
	<circle cx="173.496" cy="241.295" r="4" fill="#0" id="circle79"/>
	<circle cx="173.496" cy="259.137" r="4" fill="#0" id="circle80"/>
	<circle cx="173.496" cy="276.978" r="4" fill="#0" id="circle81"/>
	<circle cx="173.496" cy="373.324" r="4" fill="#0" id="circle82"/>
	<circle cx="178.849" cy="969.237" r="4" fill="#0" id="circle83"/>
	<circle cx="182.417" cy="89.6403" r="4" fill="#0" id="circle84"/>
	<circle cx="182.417" cy="107.482" r="4" fill="#0" id="circle85"/>
	<circle cx="182.417" cy="221.669" r="4" fill="#0" id="circle86"/>
	<circle cx="191.338" cy="53.9568" r="4" fill="#0" id="circle87"/>
	<circle cx="191.338" cy="71.7986" r="4" fill="#0" id="circle88"/>
	<circle cx="196.691" cy="976.374" r="4" fill="#0" id="circle89"/>
	<circle cx="205.612" cy="39.6835" r="4" fill="#0" id="circle90"/>
	<circle cx="214.532" cy="978.158" r="4" fill="#0" id="circle91"/>
	<circle cx="223.453" cy="39.6835" r="4" fill="#0" id="circle92"/>
	<circle cx="232.374" cy="978.158" r="4" fill="#0" id="circle93"/>
	<circle cx="241.295" cy="39.6835" r="4" fill="#0" id="circle94"/>
	<circle cx="250.216" cy="985.295" r="4" fill="#0" id="circle95"/>
	<circle cx="259.137" cy="39.6835" r="4" fill="#0" id="circle96"/>
	<circle cx="268.058" cy="987.079" r="4" fill="#0" id="circle97"/>
	<circle cx="271.626" cy="53.9568" r="4" fill="#0" id="circle98"/>
	<circle cx="273.41" cy="139.597" r="4" fill="#0" id="circle99"/>
	<circle cx="273.41" cy="157.439" r="4" fill="#0" id="circle100"/>
	<circle cx="273.41" cy="193.122" r="4" fill="#0" id="circle101"/>
	<circle cx="273.41" cy="210.964" r="4" fill="#0" id="circle102"/>
	<circle cx="273.41" cy="228.806" r="4" fill="#0" id="circle103"/>
	<circle cx="273.41" cy="246.647" r="4" fill="#0" id="circle104"/>
	<circle cx="273.41" cy="264.489" r="4" fill="#0" id="circle105"/>
	<circle cx="273.41" cy="300.173" r="4" fill="#0" id="circle106"/>
	<circle cx="273.41" cy="318.014" r="4" fill="#0" id="circle107"/>
	<circle cx="273.41" cy="344.777" r="4" fill="#0" id="circle108"/>
	<circle cx="276.978" cy="175.281" r="4" fill="#0" id="circle109"/>
	<circle cx="276.978" cy="282.331" r="4" fill="#0" id="circle110"/>
	<circle cx="280.547" cy="70.0144" r="4" fill="#0" id="circle111"/>
	<circle cx="282.331" cy="94.9928" r="4" fill="#0" id="circle112"/>
	<circle cx="282.331" cy="112.835" r="4" fill="#0" id="circle113"/>
	<circle cx="282.331" cy="360.835" r="4" fill="#0" id="circle114"/>
	<circle cx="285.899" cy="987.079" r="4" fill="#0" id="circle115"/>
	<circle cx="298.388" cy="303.741" r="4" fill="#0" id="circle116"/>
	<circle cx="298.388" cy="321.583" r="4" fill="#0" id="circle117"/>
	<circle cx="298.388" cy="339.424" r="4" fill="#0" id="circle118"/>
	<circle cx="301.957" cy="996" r="4" fill="#0" id="circle119"/>
	<circle cx="307.309" cy="250.216" r="4" fill="#0" id="circle120"/>
	<circle cx="307.309" cy="268.058" r="4" fill="#0" id="circle121"/>
	<circle cx="307.309" cy="285.899" r="4" fill="#0" id="circle122"/>
	<circle cx="316.23" cy="205.612" r="4" fill="#0" id="circle123"/>
	<circle cx="316.23" cy="223.453" r="4" fill="#0" id="circle124"/>
	<circle cx="318.014" cy="969.237" r="4" fill="#0" id="circle125"/>
	<circle cx="318.014" cy="987.079" r="4" fill="#0" id="circle126"/>
	<circle cx="325.151" cy="152.086" r="4" fill="#0" id="circle127"/>
	<circle cx="325.151" cy="169.928" r="4" fill="#0" id="circle128"/>
	<circle cx="325.151" cy="187.77" r="4" fill="#0" id="circle129"/>
	<circle cx="334.072" cy="98.5612" r="4" fill="#0" id="circle130"/>
	<circle cx="334.072" cy="116.403" r="4" fill="#0" id="circle131"/>
	<circle cx="334.072" cy="134.245" r="4" fill="#0" id="circle132"/>
	<circle cx="335.856" cy="951.396" r="4" fill="#0" id="circle133"/>
	<circle cx="342.993" cy="53.9568" r="4" fill="#0" id="circle134"/>
	<circle cx="342.993" cy="71.7986" r="4" fill="#0" id="circle135"/>
	<circle cx="353.698" cy="942.475" r="4" fill="#0" id="circle136"/>
	<circle cx="357.266" cy="39.6835" r="4" fill="#0" id="circle137"/>
	<circle cx="360.835" cy="18.2734" r="4" fill="#0" id="circle138"/>
	<circle cx="367.971" cy="929.986" r="4" fill="#0" id="circle139"/>
	<circle cx="375.108" cy="4" r="4" fill="#0" id="circle140"/>
	<circle cx="385.813" cy="924.633" r="4" fill="#0" id="circle141"/>
	<circle cx="391.165" cy="12.9209" r="4" fill="#0" id="circle142"/>
	<circle cx="398.302" cy="362.619" r="4" fill="#0" id="circle143"/>
	<circle cx="398.302" cy="380.46" r="4" fill="#0" id="circle144"/>
	<circle cx="398.302" cy="398.302" r="4" fill="#0" id="circle145"/>
	<circle cx="401.871" cy="933.554" r="4" fill="#0" id="circle146"/>
	<circle cx="407.223" cy="309.094" r="4" fill="#0" id="circle147"/>
	<circle cx="407.223" cy="326.935" r="4" fill="#0" id="circle148"/>
	<circle cx="407.223" cy="344.777" r="4" fill="#0" id="circle149"/>
	<circle cx="409.007" cy="12.9209" r="4" fill="#0" id="circle150"/>
	<circle cx="416.144" cy="202.043" r="4" fill="#0" id="circle151"/>
	<circle cx="416.144" cy="219.885" r="4" fill="#0" id="circle152"/>
	<circle cx="416.144" cy="255.568" r="4" fill="#0" id="circle153"/>
	<circle cx="416.144" cy="273.41" r="4" fill="#0" id="circle154"/>
	<circle cx="416.144" cy="291.252" r="4" fill="#0" id="circle155"/>
	<circle cx="416.144" cy="400.086" r="4" fill="#0" id="circle156"/>
	<circle cx="417.928" cy="924.633" r="4" fill="#0" id="circle157"/>
	<circle cx="423.281" cy="366.187" r="4" fill="#0" id="circle158"/>
	<circle cx="425.065" cy="235.942" r="4" fill="#0" id="circle159"/>
	<circle cx="426.849" cy="12.9209" r="4" fill="#0" id="circle160"/>
	<circle cx="432.201" cy="910.36" r="4" fill="#0" id="circle161"/>
	<circle cx="433.986" cy="30.7626" r="4" fill="#0" id="circle162"/>
	<circle cx="433.986" cy="157.439" r="4" fill="#0" id="circle163"/>
	<circle cx="433.986" cy="175.281" r="4" fill="#0" id="circle164"/>
	<circle cx="433.986" cy="193.122" r="4" fill="#0" id="circle165"/>
	<circle cx="437.554" cy="351.914" r="4" fill="#0" id="circle166"/>
	<circle cx="441.122" cy="321.583" r="4" fill="#0" id="circle167"/>
	<circle cx="442.906" cy="50.3885" r="4" fill="#0" id="circle168"/>
	<circle cx="442.906" cy="103.914" r="4" fill="#0" id="circle169"/>
	<circle cx="442.906" cy="121.755" r="4" fill="#0" id="circle170"/>
	<circle cx="442.906" cy="139.597" r="4" fill="#0" id="circle171"/>
	<circle cx="446.475" cy="897.871" r="4" fill="#0" id="circle172"/>
	<circle cx="451.827" cy="66.446" r="4" fill="#0" id="circle173"/>
	<circle cx="451.827" cy="84.2878" r="4" fill="#0" id="circle174"/>
	<circle cx="455.396" cy="307.309" r="4" fill="#0" id="circle175"/>
	<circle cx="462.532" cy="888.95" r="4" fill="#0" id="circle176"/>
	<circle cx="464.317" cy="289.468" r="4" fill="#0" id="circle177"/>
	<circle cx="467.885" cy="268.058" r="4" fill="#0" id="circle178"/>
	<circle cx="476.806" cy="214.532" r="4" fill="#0" id="circle179"/>
	<circle cx="476.806" cy="232.374" r="4" fill="#0" id="circle180"/>
	<circle cx="476.806" cy="250.216" r="4" fill="#0" id="circle181"/>
	<circle cx="478.59" cy="567.799" r="4" fill="#0" id="circle182"/>
	<circle cx="478.59" cy="880.029" r="4" fill="#0" id="circle183"/>
	<circle cx="485.727" cy="161.007" r="4" fill="#0" id="circle184"/>
	<circle cx="485.727" cy="178.849" r="4" fill="#0" id="circle185"/>
	<circle cx="485.727" cy="196.691" r="4" fill="#0" id="circle186"/>
	<circle cx="487.511" cy="541.036" r="4" fill="#0" id="circle187"/>
	<circle cx="487.511" cy="583.856" r="4" fill="#0" id="circle188"/>
	<circle cx="487.511" cy="601.698" r="4" fill="#0" id="circle189"/>
	<circle cx="492.863" cy="867.54" r="4" fill="#0" id="circle190"/>
	<circle cx="494.647" cy="143.165" r="4" fill="#0" id="circle191"/>
	<circle cx="496.432" cy="523.194" r="4" fill="#0" id="circle192"/>
	<circle cx="496.432" cy="621.324" r="4" fill="#0" id="circle193"/>
	<circle cx="503.568" cy="116.403" r="4" fill="#0" id="circle194"/>
	<circle cx="505.353" cy="469.669" r="4" fill="#0" id="circle195"/>
	<circle cx="505.353" cy="487.511" r="4" fill="#0" id="circle196"/>
	<circle cx="505.353" cy="505.353" r="4" fill="#0" id="circle197"/>
	<circle cx="505.353" cy="637.381" r="4" fill="#0" id="circle198"/>
	<circle cx="505.353" cy="853.266" r="4" fill="#0" id="circle199"/>
	<circle cx="514.273" cy="416.144" r="4" fill="#0" id="circle200"/>
	<circle cx="514.273" cy="433.986" r="4" fill="#0" id="circle201"/>
	<circle cx="514.273" cy="451.827" r="4" fill="#0" id="circle202"/>
	<circle cx="521.41" cy="111.05" r="4" fill="#0" id="circle203"/>
	<circle cx="521.41" cy="646.302" r="4" fill="#0" id="circle204"/>
	<circle cx="523.194" cy="835.424" r="4" fill="#0" id="circle205"/>
	<circle cx="528.547" cy="403.655" r="4" fill="#0" id="circle206"/>
	<circle cx="532.115" cy="371.54" r="4" fill="#0" id="circle207"/>
	<circle cx="537.468" cy="102.129" r="4" fill="#0" id="circle208"/>
	<circle cx="537.468" cy="655.223" r="4" fill="#0" id="circle209"/>
	<circle cx="541.036" cy="817.583" r="4" fill="#0" id="circle210"/>
	<circle cx="544.604" cy="637.381" r="4" fill="#0" id="circle211"/>
	<circle cx="549.957" cy="318.014" r="4" fill="#0" id="circle212"/>
	<circle cx="549.957" cy="335.856" r="4" fill="#0" id="circle213"/>
	<circle cx="549.957" cy="353.698" r="4" fill="#0" id="circle214"/>
	<circle cx="555.309" cy="102.129" r="4" fill="#0" id="circle215"/>
	<circle cx="555.309" cy="805.094" r="4" fill="#0" id="circle216"/>
	<circle cx="558.878" cy="282.331" r="4" fill="#0" id="circle217"/>
	<circle cx="558.878" cy="300.173" r="4" fill="#0" id="circle218"/>
	<circle cx="560.662" cy="628.46" r="4" fill="#0" id="circle219"/>
	<circle cx="567.799" cy="790.82" r="4" fill="#0" id="circle220"/>
	<circle cx="573.151" cy="103.914" r="4" fill="#0" id="circle221"/>
	<circle cx="573.151" cy="269.842" r="4" fill="#0" id="circle222"/>
	<circle cx="574.935" cy="607.05" r="4" fill="#0" id="circle223"/>
	<circle cx="576.719" cy="121.755" r="4" fill="#0" id="circle224"/>
	<circle cx="576.719" cy="219.885" r="4" fill="#0" id="circle225"/>
	<circle cx="576.719" cy="237.727" r="4" fill="#0" id="circle226"/>
	<circle cx="583.856" cy="781.899" r="4" fill="#0" id="circle227"/>
	<circle cx="585.64" cy="137.813" r="4" fill="#0" id="circle228"/>
	<circle cx="585.64" cy="166.36" r="4" fill="#0" id="circle229"/>
	<circle cx="585.64" cy="184.201" r="4" fill="#0" id="circle230"/>
	<circle cx="585.64" cy="202.043" r="4" fill="#0" id="circle231"/>
	<circle cx="592.777" cy="598.129" r="4" fill="#0" id="circle232"/>
	<circle cx="594.561" cy="755.137" r="4" fill="#0" id="circle233"/>
	<circle cx="607.05" cy="583.856" r="4" fill="#0" id="circle234"/>
	<circle cx="608.835" cy="742.647" r="4" fill="#0" id="circle235"/>
	<circle cx="621.324" cy="728.374" r="4" fill="#0" id="circle236"/>
	<circle cx="624.892" cy="574.935" r="4" fill="#0" id="circle237"/>
	<circle cx="639.165" cy="710.532" r="4" fill="#0" id="circle238"/>
	<circle cx="640.95" cy="566.014" r="4" fill="#0" id="circle239"/>
	<circle cx="653.439" cy="698.043" r="4" fill="#0" id="circle240"/>
	<circle cx="655.223" cy="553.525" r="4" fill="#0" id="circle241"/>
	<circle cx="671.281" cy="689.122" r="4" fill="#0" id="circle242"/>
	<circle cx="673.065" cy="544.604" r="4" fill="#0" id="circle243"/>
	<circle cx="681.986" cy="674.849" r="4" fill="#0" id="circle244"/>
	<circle cx="690.906" cy="539.252" r="4" fill="#0" id="circle245"/>
	<circle cx="692.691" cy="657.007" r="4" fill="#0" id="circle246"/>
	<circle cx="706.964" cy="644.518" r="4" fill="#0" id="circle247"/>
	<circle cx="708.748" cy="539.252" r="4" fill="#0" id="circle248"/>
	<circle cx="724.806" cy="530.331" r="4" fill="#0" id="circle249"/>
	<circle cx="724.806" cy="639.165" r="4" fill="#0" id="circle250"/>
	<circle cx="740.863" cy="628.46" r="4" fill="#0" id="circle251"/>
	<circle cx="742.647" cy="532.115" r="4" fill="#0" id="circle252"/>
	<circle cx="755.137" cy="612.403" r="4" fill="#0" id="circle253"/>
	<circle cx="758.705" cy="541.036" r="4" fill="#0" id="circle254"/>
	<circle cx="772.978" cy="603.482" r="4" fill="#0" id="circle255"/>
	<circle cx="776.547" cy="548.173" r="4" fill="#0" id="circle256"/>
	<circle cx="787.252" cy="590.993" r="4" fill="#0" id="circle257"/>
	<circle cx="789.036" cy="562.446" r="4" fill="#0" id="circle258"/>
	</g>
</svg>