<?xml version="1.0" encoding="UTF-8" standalone="no"?>
<!-- Created with CurveBenchmark -->
<svg
	xmlns:dc="http://purl.org/dc/elements/1.1/"
	xmlns:cc="http://creativecommons.org/ns#"
	xmlns:rdf="http://www.w3.org/1999/02/22-rdf-syntax-ns#"
	xmlns:svg="http://www.w3.org/2000/svg"
	xmlns="http://www.w3.org/2000/svg"
	xmlns:sodipodi="http://sodipodi.sourceforge.net/DTD/sodipodi-0.dtd"
	xmlns:inkscape="http://www.inkscape.org/namespaces/inkscape"
	width="1000"
	height="1000"
	id="svg2"
	version="1.1"
	sodipodi:docname="manifold/hnncrust-children-8.png.txt">
<defs
	id="defs4" />
<metadata
	id="metadata7">
	<rdf:RDF>
		<cc:Work
			rdf:about="">
			<dc:format>image/svg+xml</dc:format>
			<dc:type
				rdf:resource="http://purl.org/dc/dcmitype/StillImage" />
			<dc:title></dc:title>
		</cc:Work>
	</rdf:RDF>
</metadata>
<g
	inkscape:label="Layer 1"
	inkscape:groupmode="layer"
	id="layer1">
	<path style="fill:none;stroke:red;stroke-width:1px;stroke-linecap:butt;stroke-linejoin:miter;stroke-opacity:1" d="M 4,306.017 4,317.954 z" id="boundary" inkscape:connector-curvature="0" />
	<path style="fill:none;stroke:red;stroke-width:1px;stroke-linecap:butt;stroke-linejoin:miter;stroke-opacity:1" d="M 4,306.017 9.96871,294.079 z" id="boundary" inkscape:connector-curvature="0" />
	<path style="fill:none;stroke:red;stroke-width:1px;stroke-linecap:butt;stroke-linejoin:miter;stroke-opacity:1" d="M 4,317.954 4,329.892 z" id="boundary" inkscape:connector-curvature="0" />
	<path style="fill:none;stroke:red;stroke-width:1px;stroke-linecap:butt;stroke-linejoin:miter;stroke-opacity:1" d="M 4,329.892 4,341.829 z" id="boundary" inkscape:connector-curvature="0" />
	<path style="fill:none;stroke:red;stroke-width:1px;stroke-linecap:butt;stroke-linejoin:miter;stroke-opacity:1" d="M 4,341.829 4,353.767 z" id="boundary" inkscape:connector-curvature="0" />
	<path style="fill:none;stroke:red;stroke-width:1px;stroke-linecap:butt;stroke-linejoin:miter;stroke-opacity:1" d="M 4,353.767 4,365.704 z" id="boundary" inkscape:connector-curvature="0" />
	<path style="fill:none;stroke:red;stroke-width:1px;stroke-linecap:butt;stroke-linejoin:miter;stroke-opacity:1" d="M 4,365.704 9.96871,376.448 z" id="boundary" inkscape:connector-curvature="0" />
	<path style="fill:none;stroke:red;stroke-width:1px;stroke-linecap:butt;stroke-linejoin:miter;stroke-opacity:1" d="M 9.96871,294.079 15.9374,282.142 z" id="boundary" inkscape:connector-curvature="0" />
	<path style="fill:none;stroke:red;stroke-width:1px;stroke-linecap:butt;stroke-linejoin:miter;stroke-opacity:1" d="M 9.96871,376.448 15.9374,387.191 z" id="boundary" inkscape:connector-curvature="0" />
	<path style="fill:none;stroke:red;stroke-width:1px;stroke-linecap:butt;stroke-linejoin:miter;stroke-opacity:1" d="M 15.9374,282.142 21.9061,270.205 z" id="boundary" inkscape:connector-curvature="0" />
	<path style="fill:none;stroke:red;stroke-width:1px;stroke-linecap:butt;stroke-linejoin:miter;stroke-opacity:1" d="M 15.9374,387.191 15.9374,399.129 z" id="boundary" inkscape:connector-curvature="0" />
	<path style="fill:none;stroke:red;stroke-width:1px;stroke-linecap:butt;stroke-linejoin:miter;stroke-opacity:1" d="M 15.9374,399.129 15.9374,411.066 z" id="boundary" inkscape:connector-curvature="0" />
	<path style="fill:none;stroke:red;stroke-width:1px;stroke-linecap:butt;stroke-linejoin:miter;stroke-opacity:1" d="M 15.9374,411.066 15.9374,423.004 z" id="boundary" inkscape:connector-curvature="0" />
	<path style="fill:none;stroke:red;stroke-width:1px;stroke-linecap:butt;stroke-linejoin:miter;stroke-opacity:1" d="M 15.9374,423.004 15.9374,434.941 z" id="boundary" inkscape:connector-curvature="0" />
	<path style="fill:none;stroke:red;stroke-width:1px;stroke-linecap:butt;stroke-linejoin:miter;stroke-opacity:1" d="M 15.9374,434.941 15.9374,446.878 z" id="boundary" inkscape:connector-curvature="0" />
	<path style="fill:none;stroke:red;stroke-width:1px;stroke-linecap:butt;stroke-linejoin:miter;stroke-opacity:1" d="M 15.9374,446.878 15.9374,458.816 z" id="boundary" inkscape:connector-curvature="0" />
	<path style="fill:none;stroke:red;stroke-width:1px;stroke-linecap:butt;stroke-linejoin:miter;stroke-opacity:1" d="M 15.9374,458.816 15.9374,470.753 z" id="boundary" inkscape:connector-curvature="0" />
	<path style="fill:none;stroke:red;stroke-width:1px;stroke-linecap:butt;stroke-linejoin:miter;stroke-opacity:1" d="M 15.9374,470.753 15.9374,482.691 z" id="boundary" inkscape:connector-curvature="0" />
	<path style="fill:none;stroke:red;stroke-width:1px;stroke-linecap:butt;stroke-linejoin:miter;stroke-opacity:1" d="M 15.9374,482.691 21.9061,493.434 z" id="boundary" inkscape:connector-curvature="0" />
	<path style="fill:none;stroke:red;stroke-width:1px;stroke-linecap:butt;stroke-linejoin:miter;stroke-opacity:1" d="M 21.9061,270.205 31.4561,260.655 z" id="boundary" inkscape:connector-curvature="0" />
	<path style="fill:none;stroke:red;stroke-width:1px;stroke-linecap:butt;stroke-linejoin:miter;stroke-opacity:1" d="M 21.9061,493.434 21.9061,505.372 z" id="boundary" inkscape:connector-curvature="0" />
	<path style="fill:none;stroke:red;stroke-width:1px;stroke-linecap:butt;stroke-linejoin:miter;stroke-opacity:1" d="M 21.9061,505.372 27.8748,516.116 z" id="boundary" inkscape:connector-curvature="0" />
	<path style="fill:none;stroke:red;stroke-width:1px;stroke-linecap:butt;stroke-linejoin:miter;stroke-opacity:1" d="M 27.8748,73.2371 27.8748,85.1745 z" id="boundary" inkscape:connector-curvature="0" />
	<path style="fill:none;stroke:red;stroke-width:1px;stroke-linecap:butt;stroke-linejoin:miter;stroke-opacity:1" d="M 27.8748,73.2371 33.8436,61.2996 z" id="boundary" inkscape:connector-curvature="0" />
	<path style="fill:none;stroke:red;stroke-width:1px;stroke-linecap:butt;stroke-linejoin:miter;stroke-opacity:1" d="M 27.8748,85.1745 27.8748,97.1119 z" id="boundary" inkscape:connector-curvature="0" />
	<path style="fill:none;stroke:red;stroke-width:1px;stroke-linecap:butt;stroke-linejoin:miter;stroke-opacity:1" d="M 27.8748,97.1119 27.8748,109.049 z" id="boundary" inkscape:connector-curvature="0" />
	<path style="fill:none;stroke:red;stroke-width:1px;stroke-linecap:butt;stroke-linejoin:miter;stroke-opacity:1" d="M 27.8748,109.049 27.8748,120.987 z" id="boundary" inkscape:connector-curvature="0" />
	<path style="fill:none;stroke:red;stroke-width:1px;stroke-linecap:butt;stroke-linejoin:miter;stroke-opacity:1" d="M 27.8748,120.987 33.8436,131.73 z" id="boundary" inkscape:connector-curvature="0" />
	<path style="fill:none;stroke:red;stroke-width:1px;stroke-linecap:butt;stroke-linejoin:miter;stroke-opacity:1" d="M 27.8748,516.116 29.0686,528.053 z" id="boundary" inkscape:connector-curvature="0" />
	<path style="fill:none;stroke:red;stroke-width:1px;stroke-linecap:butt;stroke-linejoin:miter;stroke-opacity:1" d="M 29.0686,528.053 33.8436,539.99 z" id="boundary" inkscape:connector-curvature="0" />
	<path style="fill:none;stroke:red;stroke-width:1px;stroke-linecap:butt;stroke-linejoin:miter;stroke-opacity:1" d="M 31.4561,260.655 42.1998,254.686 z" id="boundary" inkscape:connector-curvature="0" />
	<path style="fill:none;stroke:red;stroke-width:1px;stroke-linecap:butt;stroke-linejoin:miter;stroke-opacity:1" d="M 33.8436,61.2996 39.8123,49.3622 z" id="boundary" inkscape:connector-curvature="0" />
	<path style="fill:none;stroke:red;stroke-width:1px;stroke-linecap:butt;stroke-linejoin:miter;stroke-opacity:1" d="M 33.8436,131.73 39.8123,142.474 z" id="boundary" inkscape:connector-curvature="0" />
	<path style="fill:none;stroke:red;stroke-width:1px;stroke-linecap:butt;stroke-linejoin:miter;stroke-opacity:1" d="M 33.8436,539.99 35.0373,551.928 z" id="boundary" inkscape:connector-curvature="0" />
	<path style="fill:none;stroke:red;stroke-width:1px;stroke-linecap:butt;stroke-linejoin:miter;stroke-opacity:1" d="M 35.0373,551.928 39.8123,563.865 z" id="boundary" inkscape:connector-curvature="0" />
	<path style="fill:none;stroke:red;stroke-width:1px;stroke-linecap:butt;stroke-linejoin:miter;stroke-opacity:1" d="M 39.8123,49.3622 49.3622,39.8123 z" id="boundary" inkscape:connector-curvature="0" />
	<path style="fill:none;stroke:red;stroke-width:1px;stroke-linecap:butt;stroke-linejoin:miter;stroke-opacity:1" d="M 39.8123,142.474 43.3935,154.412 z" id="boundary" inkscape:connector-curvature="0" />
	<path style="fill:none;stroke:red;stroke-width:1px;stroke-linecap:butt;stroke-linejoin:miter;stroke-opacity:1" d="M 39.8123,563.865 39.8123,575.803 z" id="boundary" inkscape:connector-curvature="0" />
	<path style="fill:none;stroke:red;stroke-width:1px;stroke-linecap:butt;stroke-linejoin:miter;stroke-opacity:1" d="M 39.8123,575.803 39.8123,587.74 z" id="boundary" inkscape:connector-curvature="0" />
	<path style="fill:none;stroke:red;stroke-width:1px;stroke-linecap:butt;stroke-linejoin:miter;stroke-opacity:1" d="M 39.8123,587.74 39.8123,599.677 z" id="boundary" inkscape:connector-curvature="0" />
	<path style="fill:none;stroke:red;stroke-width:1px;stroke-linecap:butt;stroke-linejoin:miter;stroke-opacity:1" d="M 39.8123,599.677 39.8123,611.615 z" id="boundary" inkscape:connector-curvature="0" />
	<path style="fill:none;stroke:red;stroke-width:1px;stroke-linecap:butt;stroke-linejoin:miter;stroke-opacity:1" d="M 39.8123,611.615 45.781,622.359 z" id="boundary" inkscape:connector-curvature="0" />
	<path style="fill:none;stroke:red;stroke-width:1px;stroke-linecap:butt;stroke-linejoin:miter;stroke-opacity:1" d="M 42.1998,254.686 51.7497,246.33 z" id="boundary" inkscape:connector-curvature="0" />
	<path style="fill:none;stroke:red;stroke-width:1px;stroke-linecap:butt;stroke-linejoin:miter;stroke-opacity:1" d="M 43.3935,154.412 49.3622,165.155 z" id="boundary" inkscape:connector-curvature="0" />
	<path style="fill:none;stroke:red;stroke-width:1px;stroke-linecap:butt;stroke-linejoin:miter;stroke-opacity:1" d="M 45.781,622.359 51.7497,633.102 z" id="boundary" inkscape:connector-curvature="0" />
	<path style="fill:none;stroke:red;stroke-width:1px;stroke-linecap:butt;stroke-linejoin:miter;stroke-opacity:1" d="M 49.3622,39.8123 58.9122,30.2623 z" id="boundary" inkscape:connector-curvature="0" />
	<path style="fill:none;stroke:red;stroke-width:1px;stroke-linecap:butt;stroke-linejoin:miter;stroke-opacity:1" d="M 49.3622,165.155 57.7184,174.705 z" id="boundary" inkscape:connector-curvature="0" />
	<path style="fill:none;stroke:red;stroke-width:1px;stroke-linecap:butt;stroke-linejoin:miter;stroke-opacity:1" d="M 51.7497,246.33 61.2996,236.78 z" id="boundary" inkscape:connector-curvature="0" />
	<path style="fill:none;stroke:red;stroke-width:1px;stroke-linecap:butt;stroke-linejoin:miter;stroke-opacity:1" d="M 51.7497,633.102 57.7184,643.846 z" id="boundary" inkscape:connector-curvature="0" />
	<path style="fill:none;stroke:red;stroke-width:1px;stroke-linecap:butt;stroke-linejoin:miter;stroke-opacity:1" d="M 57.7184,174.705 67.2684,183.061 z" id="boundary" inkscape:connector-curvature="0" />
	<path style="fill:none;stroke:red;stroke-width:1px;stroke-linecap:butt;stroke-linejoin:miter;stroke-opacity:1" d="M 57.7184,643.846 61.2996,655.783 z" id="boundary" inkscape:connector-curvature="0" />
	<path style="fill:none;stroke:red;stroke-width:1px;stroke-linecap:butt;stroke-linejoin:miter;stroke-opacity:1" d="M 58.9122,30.2623 68.4621,21.9061 z" id="boundary" inkscape:connector-curvature="0" />
	<path style="fill:none;stroke:red;stroke-width:1px;stroke-linecap:butt;stroke-linejoin:miter;stroke-opacity:1" d="M 61.2996,236.78 70.8496,227.23 z" id="boundary" inkscape:connector-curvature="0" />
	<path style="fill:none;stroke:red;stroke-width:1px;stroke-linecap:butt;stroke-linejoin:miter;stroke-opacity:1" d="M 61.2996,655.783 63.6871,667.721 z" id="boundary" inkscape:connector-curvature="0" />
	<path style="fill:none;stroke:red;stroke-width:1px;stroke-linecap:butt;stroke-linejoin:miter;stroke-opacity:1" d="M 63.6871,667.721 70.8496,677.271 z" id="boundary" inkscape:connector-curvature="0" />
	<path style="fill:none;stroke:red;stroke-width:1px;stroke-linecap:butt;stroke-linejoin:miter;stroke-opacity:1" d="M 67.2684,183.061 72.0433,194.999 z" id="boundary" inkscape:connector-curvature="0" />
	<path style="fill:none;stroke:red;stroke-width:1px;stroke-linecap:butt;stroke-linejoin:miter;stroke-opacity:1" d="M 68.4621,21.9061 79.2058,15.9374 z" id="boundary" inkscape:connector-curvature="0" />
	<path style="fill:none;stroke:red;stroke-width:1px;stroke-linecap:butt;stroke-linejoin:miter;stroke-opacity:1" d="M 70.8496,227.23 75.6245,206.936 z" id="boundary" inkscape:connector-curvature="0" />
	<path style="fill:none;stroke:red;stroke-width:1px;stroke-linecap:butt;stroke-linejoin:miter;stroke-opacity:1" d="M 70.8496,677.271 80.3995,685.627 z" id="boundary" inkscape:connector-curvature="0" />
	<path style="fill:none;stroke:red;stroke-width:1px;stroke-linecap:butt;stroke-linejoin:miter;stroke-opacity:1" d="M 72.0433,194.999 75.6245,206.936 z" id="boundary" inkscape:connector-curvature="0" />
	<path style="fill:none;stroke:red;stroke-width:1px;stroke-linecap:butt;stroke-linejoin:miter;stroke-opacity:1" d="M 79.2058,15.9374 89.9495,9.96871 z" id="boundary" inkscape:connector-curvature="0" />
	<path style="fill:none;stroke:red;stroke-width:1px;stroke-linecap:butt;stroke-linejoin:miter;stroke-opacity:1" d="M 80.3995,685.627 91.1432,691.596 z" id="boundary" inkscape:connector-curvature="0" />
	<path style="fill:none;stroke:red;stroke-width:1px;stroke-linecap:butt;stroke-linejoin:miter;stroke-opacity:1" d="M 87.562,801.42 87.562,813.357 z" id="boundary" inkscape:connector-curvature="0" />
	<path style="fill:none;stroke:red;stroke-width:1px;stroke-linecap:butt;stroke-linejoin:miter;stroke-opacity:1" d="M 87.562,801.42 93.5307,783.514 z" id="boundary" inkscape:connector-curvature="0" />
	<path style="fill:none;stroke:red;stroke-width:1px;stroke-linecap:butt;stroke-linejoin:miter;stroke-opacity:1" d="M 87.562,813.357 87.562,825.295 z" id="boundary" inkscape:connector-curvature="0" />
	<path style="fill:none;stroke:red;stroke-width:1px;stroke-linecap:butt;stroke-linejoin:miter;stroke-opacity:1" d="M 87.562,825.295 93.5307,836.039 z" id="boundary" inkscape:connector-curvature="0" />
	<path style="fill:none;stroke:red;stroke-width:1px;stroke-linecap:butt;stroke-linejoin:miter;stroke-opacity:1" d="M 89.9495,9.96871 100.693,4 z" id="boundary" inkscape:connector-curvature="0" />
	<path style="fill:none;stroke:red;stroke-width:1px;stroke-linecap:butt;stroke-linejoin:miter;stroke-opacity:1" d="M 91.1432,691.596 100.693,699.952 z" id="boundary" inkscape:connector-curvature="0" />
	<path style="fill:none;stroke:red;stroke-width:1px;stroke-linecap:butt;stroke-linejoin:miter;stroke-opacity:1" d="M 93.5307,783.514 99.4994,771.576 z" id="boundary" inkscape:connector-curvature="0" />
	<path style="fill:none;stroke:red;stroke-width:1px;stroke-linecap:butt;stroke-linejoin:miter;stroke-opacity:1" d="M 93.5307,836.039 99.4994,846.782 z" id="boundary" inkscape:connector-curvature="0" />
	<path style="fill:none;stroke:red;stroke-width:1px;stroke-linecap:butt;stroke-linejoin:miter;stroke-opacity:1" d="M 99.4994,771.576 105.468,759.639 z" id="boundary" inkscape:connector-curvature="0" />
	<path style="fill:none;stroke:red;stroke-width:1px;stroke-linecap:butt;stroke-linejoin:miter;stroke-opacity:1" d="M 99.4994,846.782 99.4994,858.72 z" id="boundary" inkscape:connector-curvature="0" />
	<path style="fill:none;stroke:red;stroke-width:1px;stroke-linecap:butt;stroke-linejoin:miter;stroke-opacity:1" d="M 99.4994,858.72 105.468,869.463 z" id="boundary" inkscape:connector-curvature="0" />
	<path style="fill:none;stroke:red;stroke-width:1px;stroke-linecap:butt;stroke-linejoin:miter;stroke-opacity:1" d="M 100.693,4 112.631,4 z" id="boundary" inkscape:connector-curvature="0" />
	<path style="fill:none;stroke:red;stroke-width:1px;stroke-linecap:butt;stroke-linejoin:miter;stroke-opacity:1" d="M 100.693,699.952 109.049,709.502 z" id="boundary" inkscape:connector-curvature="0" />
	<path style="fill:none;stroke:red;stroke-width:1px;stroke-linecap:butt;stroke-linejoin:miter;stroke-opacity:1" d="M 105.468,759.639 111.437,745.314 z" id="boundary" inkscape:connector-curvature="0" />
	<path style="fill:none;stroke:red;stroke-width:1px;stroke-linecap:butt;stroke-linejoin:miter;stroke-opacity:1" d="M 105.468,869.463 111.437,880.207 z" id="boundary" inkscape:connector-curvature="0" />
	<path style="fill:none;stroke:red;stroke-width:1px;stroke-linecap:butt;stroke-linejoin:miter;stroke-opacity:1" d="M 105.468,920.794 105.468,932.732 z" id="boundary" inkscape:connector-curvature="0" />
	<path style="fill:none;stroke:red;stroke-width:1px;stroke-linecap:butt;stroke-linejoin:miter;stroke-opacity:1" d="M 105.468,920.794 111.437,904.082 z" id="boundary" inkscape:connector-curvature="0" />
	<path style="fill:none;stroke:red;stroke-width:1px;stroke-linecap:butt;stroke-linejoin:miter;stroke-opacity:1" d="M 105.468,932.732 105.468,944.669 z" id="boundary" inkscape:connector-curvature="0" />
	<path style="fill:none;stroke:red;stroke-width:1px;stroke-linecap:butt;stroke-linejoin:miter;stroke-opacity:1" d="M 105.468,944.669 105.468,956.606 z" id="boundary" inkscape:connector-curvature="0" />
	<path style="fill:none;stroke:red;stroke-width:1px;stroke-linecap:butt;stroke-linejoin:miter;stroke-opacity:1" d="M 105.468,956.606 111.437,967.35 z" id="boundary" inkscape:connector-curvature="0" />
	<path style="fill:none;stroke:red;stroke-width:1px;stroke-linecap:butt;stroke-linejoin:miter;stroke-opacity:1" d="M 109.049,709.502 111.437,721.439 z" id="boundary" inkscape:connector-curvature="0" />
	<path style="fill:none;stroke:red;stroke-width:1px;stroke-linecap:butt;stroke-linejoin:miter;stroke-opacity:1" d="M 111.437,721.439 111.437,733.377 z" id="boundary" inkscape:connector-curvature="0" />
	<path style="fill:none;stroke:red;stroke-width:1px;stroke-linecap:butt;stroke-linejoin:miter;stroke-opacity:1" d="M 111.437,733.377 111.437,745.314 z" id="boundary" inkscape:connector-curvature="0" />
	<path style="fill:none;stroke:red;stroke-width:1px;stroke-linecap:butt;stroke-linejoin:miter;stroke-opacity:1" d="M 111.437,880.207 111.437,892.144 z" id="boundary" inkscape:connector-curvature="0" />
	<path style="fill:none;stroke:red;stroke-width:1px;stroke-linecap:butt;stroke-linejoin:miter;stroke-opacity:1" d="M 111.437,892.144 111.437,904.082 z" id="boundary" inkscape:connector-curvature="0" />
	<path style="fill:none;stroke:red;stroke-width:1px;stroke-linecap:butt;stroke-linejoin:miter;stroke-opacity:1" d="M 111.437,967.35 119.793,976.9 z" id="boundary" inkscape:connector-curvature="0" />
	<path style="fill:none;stroke:red;stroke-width:1px;stroke-linecap:butt;stroke-linejoin:miter;stroke-opacity:1" d="M 112.631,4 124.568,4 z" id="boundary" inkscape:connector-curvature="0" />
	<path style="fill:none;stroke:red;stroke-width:1px;stroke-linecap:butt;stroke-linejoin:miter;stroke-opacity:1" d="M 119.793,976.9 129.343,984.063 z" id="boundary" inkscape:connector-curvature="0" />
	<path style="fill:none;stroke:red;stroke-width:1px;stroke-linecap:butt;stroke-linejoin:miter;stroke-opacity:1" d="M 124.568,4 136.505,4 z" id="boundary" inkscape:connector-curvature="0" />
	<path style="fill:none;stroke:red;stroke-width:1px;stroke-linecap:butt;stroke-linejoin:miter;stroke-opacity:1" d="M 129.343,984.063 141.28,984.063 z" id="boundary" inkscape:connector-curvature="0" />
	<path style="fill:none;stroke:red;stroke-width:1px;stroke-linecap:butt;stroke-linejoin:miter;stroke-opacity:1" d="M 136.505,4 148.443,4 z" id="boundary" inkscape:connector-curvature="0" />
	<path style="fill:none;stroke:red;stroke-width:1px;stroke-linecap:butt;stroke-linejoin:miter;stroke-opacity:1" d="M 141.28,984.063 153.218,984.063 z" id="boundary" inkscape:connector-curvature="0" />
	<path style="fill:none;stroke:red;stroke-width:1px;stroke-linecap:butt;stroke-linejoin:miter;stroke-opacity:1" d="M 148.443,4 160.38,4 z" id="boundary" inkscape:connector-curvature="0" />
	<path style="fill:none;stroke:red;stroke-width:1px;stroke-linecap:butt;stroke-linejoin:miter;stroke-opacity:1" d="M 153.218,984.063 163.961,990.031 z" id="boundary" inkscape:connector-curvature="0" />
	<path style="fill:none;stroke:red;stroke-width:1px;stroke-linecap:butt;stroke-linejoin:miter;stroke-opacity:1" d="M 160.38,4 172.318,4 z" id="boundary" inkscape:connector-curvature="0" />
	<path style="fill:none;stroke:red;stroke-width:1px;stroke-linecap:butt;stroke-linejoin:miter;stroke-opacity:1" d="M 163.961,990.031 175.899,990.031 z" id="boundary" inkscape:connector-curvature="0" />
	<path style="fill:none;stroke:red;stroke-width:1px;stroke-linecap:butt;stroke-linejoin:miter;stroke-opacity:1" d="M 172.318,4 184.255,7.58123 z" id="boundary" inkscape:connector-curvature="0" />
	<path style="fill:none;stroke:red;stroke-width:1px;stroke-linecap:butt;stroke-linejoin:miter;stroke-opacity:1" d="M 175.899,990.031 186.643,996 z" id="boundary" inkscape:connector-curvature="0" />
	<path style="fill:none;stroke:red;stroke-width:1px;stroke-linecap:butt;stroke-linejoin:miter;stroke-opacity:1" d="M 184.255,7.58123 196.193,9.96871 z" id="boundary" inkscape:connector-curvature="0" />
	<path style="fill:none;stroke:red;stroke-width:1px;stroke-linecap:butt;stroke-linejoin:miter;stroke-opacity:1" d="M 186.643,996 198.58,996 z" id="boundary" inkscape:connector-curvature="0" />
	<path style="fill:none;stroke:red;stroke-width:1px;stroke-linecap:butt;stroke-linejoin:miter;stroke-opacity:1" d="M 196.193,9.96871 206.936,15.9374 z" id="boundary" inkscape:connector-curvature="0" />
	<path style="fill:none;stroke:red;stroke-width:1px;stroke-linecap:butt;stroke-linejoin:miter;stroke-opacity:1" d="M 198.58,996 210.517,996 z" id="boundary" inkscape:connector-curvature="0" />
	<path style="fill:none;stroke:red;stroke-width:1px;stroke-linecap:butt;stroke-linejoin:miter;stroke-opacity:1" d="M 206.936,15.9374 218.874,18.3249 z" id="boundary" inkscape:connector-curvature="0" />
	<path style="fill:none;stroke:red;stroke-width:1px;stroke-linecap:butt;stroke-linejoin:miter;stroke-opacity:1" d="M 210.517,996 222.455,996 z" id="boundary" inkscape:connector-curvature="0" />
	<path style="fill:none;stroke:red;stroke-width:1px;stroke-linecap:butt;stroke-linejoin:miter;stroke-opacity:1" d="M 218.874,18.3249 229.617,24.2936 z" id="boundary" inkscape:connector-curvature="0" />
	<path style="fill:none;stroke:red;stroke-width:1px;stroke-linecap:butt;stroke-linejoin:miter;stroke-opacity:1" d="M 222.455,996 234.392,996 z" id="boundary" inkscape:connector-curvature="0" />
	<path style="fill:none;stroke:red;stroke-width:1px;stroke-linecap:butt;stroke-linejoin:miter;stroke-opacity:1" d="M 229.617,24.2936 241.555,29.0686 z" id="boundary" inkscape:connector-curvature="0" />
	<path style="fill:none;stroke:red;stroke-width:1px;stroke-linecap:butt;stroke-linejoin:miter;stroke-opacity:1" d="M 234.392,996 246.33,996 z" id="boundary" inkscape:connector-curvature="0" />
	<path style="fill:none;stroke:red;stroke-width:1px;stroke-linecap:butt;stroke-linejoin:miter;stroke-opacity:1" d="M 241.555,29.0686 249.911,38.6185 z" id="boundary" inkscape:connector-curvature="0" />
	<path style="fill:none;stroke:red;stroke-width:1px;stroke-linecap:butt;stroke-linejoin:miter;stroke-opacity:1" d="M 246.33,996 258.267,996 z" id="boundary" inkscape:connector-curvature="0" />
	<path style="fill:none;stroke:red;stroke-width:1px;stroke-linecap:butt;stroke-linejoin:miter;stroke-opacity:1" d="M 249.911,38.6185 255.88,49.3622 z" id="boundary" inkscape:connector-curvature="0" />
	<path style="fill:none;stroke:red;stroke-width:1px;stroke-linecap:butt;stroke-linejoin:miter;stroke-opacity:1" d="M 249.911,876.626 252.298,888.563 z" id="boundary" inkscape:connector-curvature="0" />
	<path style="fill:none;stroke:red;stroke-width:1px;stroke-linecap:butt;stroke-linejoin:miter;stroke-opacity:1" d="M 249.911,876.626 255.88,864.688 z" id="boundary" inkscape:connector-curvature="0" />
	<path style="fill:none;stroke:red;stroke-width:1px;stroke-linecap:butt;stroke-linejoin:miter;stroke-opacity:1" d="M 252.298,888.563 261.848,896.919 z" id="boundary" inkscape:connector-curvature="0" />
	<path style="fill:none;stroke:red;stroke-width:1px;stroke-linecap:butt;stroke-linejoin:miter;stroke-opacity:1" d="M 255.88,49.3622 264.236,58.9122 z" id="boundary" inkscape:connector-curvature="0" />
	<path style="fill:none;stroke:red;stroke-width:1px;stroke-linecap:butt;stroke-linejoin:miter;stroke-opacity:1" d="M 255.88,220.067 255.88,232.005 z" id="boundary" inkscape:connector-curvature="0" />
	<path style="fill:none;stroke:red;stroke-width:1px;stroke-linecap:butt;stroke-linejoin:miter;stroke-opacity:1" d="M 255.88,220.067 261.848,202.161 z" id="boundary" inkscape:connector-curvature="0" />
	<path style="fill:none;stroke:red;stroke-width:1px;stroke-linecap:butt;stroke-linejoin:miter;stroke-opacity:1" d="M 255.88,232.005 258.267,243.942 z" id="boundary" inkscape:connector-curvature="0" />
	<path style="fill:none;stroke:red;stroke-width:1px;stroke-linecap:butt;stroke-linejoin:miter;stroke-opacity:1" d="M 255.88,864.688 261.848,846.782 z" id="boundary" inkscape:connector-curvature="0" />
	<path style="fill:none;stroke:red;stroke-width:1px;stroke-linecap:butt;stroke-linejoin:miter;stroke-opacity:1" d="M 258.267,243.942 267.817,252.298 z" id="boundary" inkscape:connector-curvature="0" />
	<path style="fill:none;stroke:red;stroke-width:1px;stroke-linecap:butt;stroke-linejoin:miter;stroke-opacity:1" d="M 258.267,996 270.205,996 z" id="boundary" inkscape:connector-curvature="0" />
	<path style="fill:none;stroke:red;stroke-width:1px;stroke-linecap:butt;stroke-linejoin:miter;stroke-opacity:1" d="M 261.848,202.161 267.817,190.224 z" id="boundary" inkscape:connector-curvature="0" />
	<path style="fill:none;stroke:red;stroke-width:1px;stroke-linecap:butt;stroke-linejoin:miter;stroke-opacity:1" d="M 261.848,846.782 267.817,828.876 z" id="boundary" inkscape:connector-curvature="0" />
	<path style="fill:none;stroke:red;stroke-width:1px;stroke-linecap:butt;stroke-linejoin:miter;stroke-opacity:1" d="M 261.848,896.919 272.592,902.888 z" id="boundary" inkscape:connector-curvature="0" />
	<path style="fill:none;stroke:red;stroke-width:1px;stroke-linecap:butt;stroke-linejoin:miter;stroke-opacity:1" d="M 264.236,58.9122 270.205,69.6558 z" id="boundary" inkscape:connector-curvature="0" />
	<path style="fill:none;stroke:red;stroke-width:1px;stroke-linecap:butt;stroke-linejoin:miter;stroke-opacity:1" d="M 267.817,190.224 273.786,172.318 z" id="boundary" inkscape:connector-curvature="0" />
	<path style="fill:none;stroke:red;stroke-width:1px;stroke-linecap:butt;stroke-linejoin:miter;stroke-opacity:1" d="M 267.817,252.298 272.592,264.236 z" id="boundary" inkscape:connector-curvature="0" />
	<path style="fill:none;stroke:red;stroke-width:1px;stroke-linecap:butt;stroke-linejoin:miter;stroke-opacity:1" d="M 267.817,828.876 273.786,810.97 z" id="boundary" inkscape:connector-curvature="0" />
	<path style="fill:none;stroke:red;stroke-width:1px;stroke-linecap:butt;stroke-linejoin:miter;stroke-opacity:1" d="M 270.205,69.6558 273.786,81.5933 z" id="boundary" inkscape:connector-curvature="0" />
	<path style="fill:none;stroke:red;stroke-width:1px;stroke-linecap:butt;stroke-linejoin:miter;stroke-opacity:1" d="M 270.205,996 280.948,990.031 z" id="boundary" inkscape:connector-curvature="0" />
	<path style="fill:none;stroke:red;stroke-width:1px;stroke-linecap:butt;stroke-linejoin:miter;stroke-opacity:1" d="M 272.592,264.236 282.142,272.592 z" id="boundary" inkscape:connector-curvature="0" />
	<path style="fill:none;stroke:red;stroke-width:1px;stroke-linecap:butt;stroke-linejoin:miter;stroke-opacity:1" d="M 272.592,902.888 282.142,911.244 z" id="boundary" inkscape:connector-curvature="0" />
	<path style="fill:none;stroke:red;stroke-width:1px;stroke-linecap:butt;stroke-linejoin:miter;stroke-opacity:1" d="M 273.786,81.5933 279.755,92.3369 z" id="boundary" inkscape:connector-curvature="0" />
	<path style="fill:none;stroke:red;stroke-width:1px;stroke-linecap:butt;stroke-linejoin:miter;stroke-opacity:1" d="M 273.786,124.568 273.786,136.505 z" id="boundary" inkscape:connector-curvature="0" />
	<path style="fill:none;stroke:red;stroke-width:1px;stroke-linecap:butt;stroke-linejoin:miter;stroke-opacity:1" d="M 273.786,124.568 279.755,104.274 z" id="boundary" inkscape:connector-curvature="0" />
	<path style="fill:none;stroke:red;stroke-width:1px;stroke-linecap:butt;stroke-linejoin:miter;stroke-opacity:1" d="M 273.786,136.505 273.786,148.443 z" id="boundary" inkscape:connector-curvature="0" />
	<path style="fill:none;stroke:red;stroke-width:1px;stroke-linecap:butt;stroke-linejoin:miter;stroke-opacity:1" d="M 273.786,148.443 273.786,160.38 z" id="boundary" inkscape:connector-curvature="0" />
	<path style="fill:none;stroke:red;stroke-width:1px;stroke-linecap:butt;stroke-linejoin:miter;stroke-opacity:1" d="M 273.786,160.38 273.786,172.318 z" id="boundary" inkscape:connector-curvature="0" />
	<path style="fill:none;stroke:red;stroke-width:1px;stroke-linecap:butt;stroke-linejoin:miter;stroke-opacity:1" d="M 273.786,810.97 279.755,793.064 z" id="boundary" inkscape:connector-curvature="0" />
	<path style="fill:none;stroke:red;stroke-width:1px;stroke-linecap:butt;stroke-linejoin:miter;stroke-opacity:1" d="M 279.755,92.3369 279.755,104.274 z" id="boundary" inkscape:connector-curvature="0" />
	<path style="fill:none;stroke:red;stroke-width:1px;stroke-linecap:butt;stroke-linejoin:miter;stroke-opacity:1" d="M 279.755,769.189 279.755,781.126 z" id="boundary" inkscape:connector-curvature="0" />
	<path style="fill:none;stroke:red;stroke-width:1px;stroke-linecap:butt;stroke-linejoin:miter;stroke-opacity:1" d="M 279.755,769.189 285.723,757.252 z" id="boundary" inkscape:connector-curvature="0" />
	<path style="fill:none;stroke:red;stroke-width:1px;stroke-linecap:butt;stroke-linejoin:miter;stroke-opacity:1" d="M 279.755,781.126 279.755,793.064 z" id="boundary" inkscape:connector-curvature="0" />
	<path style="fill:none;stroke:red;stroke-width:1px;stroke-linecap:butt;stroke-linejoin:miter;stroke-opacity:1" d="M 280.948,990.031 291.692,984.063 z" id="boundary" inkscape:connector-curvature="0" />
	<path style="fill:none;stroke:red;stroke-width:1px;stroke-linecap:butt;stroke-linejoin:miter;stroke-opacity:1" d="M 282.142,272.592 285.723,284.529 z" id="boundary" inkscape:connector-curvature="0" />
	<path style="fill:none;stroke:red;stroke-width:1px;stroke-linecap:butt;stroke-linejoin:miter;stroke-opacity:1" d="M 282.142,911.244 292.886,917.213 z" id="boundary" inkscape:connector-curvature="0" />
	<path style="fill:none;stroke:red;stroke-width:1px;stroke-linecap:butt;stroke-linejoin:miter;stroke-opacity:1" d="M 285.723,284.529 285.723,296.467 z" id="boundary" inkscape:connector-curvature="0" />
	<path style="fill:none;stroke:red;stroke-width:1px;stroke-linecap:butt;stroke-linejoin:miter;stroke-opacity:1" d="M 285.723,296.467 285.723,308.404 z" id="boundary" inkscape:connector-curvature="0" />
	<path style="fill:none;stroke:red;stroke-width:1px;stroke-linecap:butt;stroke-linejoin:miter;stroke-opacity:1" d="M 285.723,308.404 291.692,319.148 z" id="boundary" inkscape:connector-curvature="0" />
	<path style="fill:none;stroke:red;stroke-width:1px;stroke-linecap:butt;stroke-linejoin:miter;stroke-opacity:1" d="M 285.723,757.252 291.692,745.314 z" id="boundary" inkscape:connector-curvature="0" />
	<path style="fill:none;stroke:red;stroke-width:1px;stroke-linecap:butt;stroke-linejoin:miter;stroke-opacity:1" d="M 291.692,319.148 297.661,329.892 z" id="boundary" inkscape:connector-curvature="0" />
	<path style="fill:none;stroke:red;stroke-width:1px;stroke-linecap:butt;stroke-linejoin:miter;stroke-opacity:1" d="M 291.692,375.254 291.692,387.191 z" id="boundary" inkscape:connector-curvature="0" />
	<path style="fill:none;stroke:red;stroke-width:1px;stroke-linecap:butt;stroke-linejoin:miter;stroke-opacity:1" d="M 291.692,375.254 297.661,353.767 z" id="boundary" inkscape:connector-curvature="0" />
	<path style="fill:none;stroke:red;stroke-width:1px;stroke-linecap:butt;stroke-linejoin:miter;stroke-opacity:1" d="M 291.692,387.191 297.661,397.935 z" id="boundary" inkscape:connector-curvature="0" />
	<path style="fill:none;stroke:red;stroke-width:1px;stroke-linecap:butt;stroke-linejoin:miter;stroke-opacity:1" d="M 291.692,745.314 297.661,733.377 z" id="boundary" inkscape:connector-curvature="0" />
	<path style="fill:none;stroke:red;stroke-width:1px;stroke-linecap:butt;stroke-linejoin:miter;stroke-opacity:1" d="M 291.692,984.063 302.436,978.094 z" id="boundary" inkscape:connector-curvature="0" />
	<path style="fill:none;stroke:red;stroke-width:1px;stroke-linecap:butt;stroke-linejoin:miter;stroke-opacity:1" d="M 292.886,917.213 304.823,917.213 z" id="boundary" inkscape:connector-curvature="0" />
	<path style="fill:none;stroke:red;stroke-width:1px;stroke-linecap:butt;stroke-linejoin:miter;stroke-opacity:1" d="M 297.661,329.892 297.661,341.829 z" id="boundary" inkscape:connector-curvature="0" />
	<path style="fill:none;stroke:red;stroke-width:1px;stroke-linecap:butt;stroke-linejoin:miter;stroke-opacity:1" d="M 297.661,341.829 297.661,353.767 z" id="boundary" inkscape:connector-curvature="0" />
	<path style="fill:none;stroke:red;stroke-width:1px;stroke-linecap:butt;stroke-linejoin:miter;stroke-opacity:1" d="M 297.661,397.935 303.629,408.679 z" id="boundary" inkscape:connector-curvature="0" />
	<path style="fill:none;stroke:red;stroke-width:1px;stroke-linecap:butt;stroke-linejoin:miter;stroke-opacity:1" d="M 297.661,673.69 297.661,685.627 z" id="boundary" inkscape:connector-curvature="0" />
	<path style="fill:none;stroke:red;stroke-width:1px;stroke-linecap:butt;stroke-linejoin:miter;stroke-opacity:1" d="M 297.661,673.69 307.211,665.333 z" id="boundary" inkscape:connector-curvature="0" />
	<path style="fill:none;stroke:red;stroke-width:1px;stroke-linecap:butt;stroke-linejoin:miter;stroke-opacity:1" d="M 297.661,685.627 297.661,697.564 z" id="boundary" inkscape:connector-curvature="0" />
	<path style="fill:none;stroke:red;stroke-width:1px;stroke-linecap:butt;stroke-linejoin:miter;stroke-opacity:1" d="M 297.661,697.564 297.661,709.502 z" id="boundary" inkscape:connector-curvature="0" />
	<path style="fill:none;stroke:red;stroke-width:1px;stroke-linecap:butt;stroke-linejoin:miter;stroke-opacity:1" d="M 297.661,709.502 303.629,720.245 z" id="boundary" inkscape:connector-curvature="0" />
	<path style="fill:none;stroke:red;stroke-width:1px;stroke-linecap:butt;stroke-linejoin:miter;stroke-opacity:1" d="M 297.661,733.377 303.629,720.245 z" id="boundary" inkscape:connector-curvature="0" />
	<path style="fill:none;stroke:red;stroke-width:1px;stroke-linecap:butt;stroke-linejoin:miter;stroke-opacity:1" d="M 302.436,978.094 313.179,972.125 z" id="boundary" inkscape:connector-curvature="0" />
	<path style="fill:none;stroke:red;stroke-width:1px;stroke-linecap:butt;stroke-linejoin:miter;stroke-opacity:1" d="M 303.629,408.679 309.598,419.422 z" id="boundary" inkscape:connector-curvature="0" />
	<path style="fill:none;stroke:red;stroke-width:1px;stroke-linecap:butt;stroke-linejoin:miter;stroke-opacity:1" d="M 304.823,917.213 315.567,923.182 z" id="boundary" inkscape:connector-curvature="0" />
	<path style="fill:none;stroke:red;stroke-width:1px;stroke-linecap:butt;stroke-linejoin:miter;stroke-opacity:1" d="M 307.211,665.333 315.567,655.783 z" id="boundary" inkscape:connector-curvature="0" />
	<path style="fill:none;stroke:red;stroke-width:1px;stroke-linecap:butt;stroke-linejoin:miter;stroke-opacity:1" d="M 309.598,419.422 309.598,431.36 z" id="boundary" inkscape:connector-curvature="0" />
	<path style="fill:none;stroke:red;stroke-width:1px;stroke-linecap:butt;stroke-linejoin:miter;stroke-opacity:1" d="M 309.598,431.36 315.567,442.103 z" id="boundary" inkscape:connector-curvature="0" />
	<path style="fill:none;stroke:red;stroke-width:1px;stroke-linecap:butt;stroke-linejoin:miter;stroke-opacity:1" d="M 313.179,972.125 323.923,966.156 z" id="boundary" inkscape:connector-curvature="0" />
	<path style="fill:none;stroke:red;stroke-width:1px;stroke-linecap:butt;stroke-linejoin:miter;stroke-opacity:1" d="M 315.567,442.103 315.567,454.041 z" id="boundary" inkscape:connector-curvature="0" />
	<path style="fill:none;stroke:red;stroke-width:1px;stroke-linecap:butt;stroke-linejoin:miter;stroke-opacity:1" d="M 315.567,454.041 321.535,464.785 z" id="boundary" inkscape:connector-curvature="0" />
	<path style="fill:none;stroke:red;stroke-width:1px;stroke-linecap:butt;stroke-linejoin:miter;stroke-opacity:1" d="M 315.567,655.783 325.117,647.427 z" id="boundary" inkscape:connector-curvature="0" />
	<path style="fill:none;stroke:red;stroke-width:1px;stroke-linecap:butt;stroke-linejoin:miter;stroke-opacity:1" d="M 315.567,923.182 326.31,929.15 z" id="boundary" inkscape:connector-curvature="0" />
	<path style="fill:none;stroke:red;stroke-width:1px;stroke-linecap:butt;stroke-linejoin:miter;stroke-opacity:1" d="M 321.535,464.785 323.923,476.722 z" id="boundary" inkscape:connector-curvature="0" />
	<path style="fill:none;stroke:red;stroke-width:1px;stroke-linecap:butt;stroke-linejoin:miter;stroke-opacity:1" d="M 321.535,619.971 323.923,631.909 z" id="boundary" inkscape:connector-curvature="0" />
	<path style="fill:none;stroke:red;stroke-width:1px;stroke-linecap:butt;stroke-linejoin:miter;stroke-opacity:1" d="M 321.535,619.971 327.504,608.034 z" id="boundary" inkscape:connector-curvature="0" />
	<path style="fill:none;stroke:red;stroke-width:1px;stroke-linecap:butt;stroke-linejoin:miter;stroke-opacity:1" d="M 323.923,476.722 327.504,488.659 z" id="boundary" inkscape:connector-curvature="0" />
	<path style="fill:none;stroke:red;stroke-width:1px;stroke-linecap:butt;stroke-linejoin:miter;stroke-opacity:1" d="M 323.923,631.909 325.117,647.427 z" id="boundary" inkscape:connector-curvature="0" />
	<path style="fill:none;stroke:red;stroke-width:1px;stroke-linecap:butt;stroke-linejoin:miter;stroke-opacity:1" d="M 323.923,966.156 334.667,960.188 z" id="boundary" inkscape:connector-curvature="0" />
	<path style="fill:none;stroke:red;stroke-width:1px;stroke-linecap:butt;stroke-linejoin:miter;stroke-opacity:1" d="M 326.31,929.15 335.86,936.313 z" id="boundary" inkscape:connector-curvature="0" />
	<path style="fill:none;stroke:red;stroke-width:1px;stroke-linecap:butt;stroke-linejoin:miter;stroke-opacity:1" d="M 327.504,488.659 333.473,499.403 z" id="boundary" inkscape:connector-curvature="0" />
	<path style="fill:none;stroke:red;stroke-width:1px;stroke-linecap:butt;stroke-linejoin:miter;stroke-opacity:1" d="M 327.504,608.034 338.248,602.065 z" id="boundary" inkscape:connector-curvature="0" />
	<path style="fill:none;stroke:red;stroke-width:1px;stroke-linecap:butt;stroke-linejoin:miter;stroke-opacity:1" d="M 333.473,499.403 333.473,511.341 z" id="boundary" inkscape:connector-curvature="0" />
	<path style="fill:none;stroke:red;stroke-width:1px;stroke-linecap:butt;stroke-linejoin:miter;stroke-opacity:1" d="M 333.473,511.341 339.442,522.084 z" id="boundary" inkscape:connector-curvature="0" />
	<path style="fill:none;stroke:red;stroke-width:1px;stroke-linecap:butt;stroke-linejoin:miter;stroke-opacity:1" d="M 334.667,960.188 339.442,948.25 z" id="boundary" inkscape:connector-curvature="0" />
	<path style="fill:none;stroke:red;stroke-width:1px;stroke-linecap:butt;stroke-linejoin:miter;stroke-opacity:1" d="M 335.86,936.313 339.442,948.25 z" id="boundary" inkscape:connector-curvature="0" />
	<path style="fill:none;stroke:red;stroke-width:1px;stroke-linecap:butt;stroke-linejoin:miter;stroke-opacity:1" d="M 338.248,602.065 345.41,590.128 z" id="boundary" inkscape:connector-curvature="0" />
	<path style="fill:none;stroke:red;stroke-width:1px;stroke-linecap:butt;stroke-linejoin:miter;stroke-opacity:1" d="M 339.442,522.084 339.442,534.022 z" id="boundary" inkscape:connector-curvature="0" />
	<path style="fill:none;stroke:red;stroke-width:1px;stroke-linecap:butt;stroke-linejoin:miter;stroke-opacity:1" d="M 339.442,534.022 345.41,544.765 z" id="boundary" inkscape:connector-curvature="0" />
	<path style="fill:none;stroke:red;stroke-width:1px;stroke-linecap:butt;stroke-linejoin:miter;stroke-opacity:1" d="M 345.41,544.765 350.185,556.703 z" id="boundary" inkscape:connector-curvature="0" />
	<path style="fill:none;stroke:red;stroke-width:1px;stroke-linecap:butt;stroke-linejoin:miter;stroke-opacity:1" d="M 345.41,590.128 351.379,568.64 z" id="boundary" inkscape:connector-curvature="0" />
	<path style="fill:none;stroke:red;stroke-width:1px;stroke-linecap:butt;stroke-linejoin:miter;stroke-opacity:1" d="M 350.185,556.703 351.379,568.64 z" id="boundary" inkscape:connector-curvature="0" />
	<circle cx="4" cy="306.017" r="4" fill="#0" id="circle0"/>
	<circle cx="4" cy="317.954" r="4" fill="#0" id="circle1"/>
	<circle cx="4" cy="329.892" r="4" fill="#0" id="circle2"/>
	<circle cx="4" cy="341.829" r="4" fill="#0" id="circle3"/>
	<circle cx="4" cy="353.767" r="4" fill="#0" id="circle4"/>
	<circle cx="4" cy="365.704" r="4" fill="#0" id="circle5"/>
	<circle cx="9.96871" cy="294.079" r="4" fill="#0" id="circle6"/>
	<circle cx="9.96871" cy="376.448" r="4" fill="#0" id="circle7"/>
	<circle cx="15.9374" cy="282.142" r="4" fill="#0" id="circle8"/>
	<circle cx="15.9374" cy="387.191" r="4" fill="#0" id="circle9"/>
	<circle cx="15.9374" cy="399.129" r="4" fill="#0" id="circle10"/>
	<circle cx="15.9374" cy="411.066" r="4" fill="#0" id="circle11"/>
	<circle cx="15.9374" cy="423.004" r="4" fill="#0" id="circle12"/>
	<circle cx="15.9374" cy="434.941" r="4" fill="#0" id="circle13"/>
	<circle cx="15.9374" cy="446.878" r="4" fill="#0" id="circle14"/>
	<circle cx="15.9374" cy="458.816" r="4" fill="#0" id="circle15"/>
	<circle cx="15.9374" cy="470.753" r="4" fill="#0" id="circle16"/>
	<circle cx="15.9374" cy="482.691" r="4" fill="#0" id="circle17"/>
	<circle cx="21.9061" cy="270.205" r="4" fill="#0" id="circle18"/>
	<circle cx="21.9061" cy="493.434" r="4" fill="#0" id="circle19"/>
	<circle cx="21.9061" cy="505.372" r="4" fill="#0" id="circle20"/>
	<circle cx="27.8748" cy="73.2371" r="4" fill="#0" id="circle21"/>
	<circle cx="27.8748" cy="85.1745" r="4" fill="#0" id="circle22"/>
	<circle cx="27.8748" cy="97.1119" r="4" fill="#0" id="circle23"/>
	<circle cx="27.8748" cy="109.049" r="4" fill="#0" id="circle24"/>
	<circle cx="27.8748" cy="120.987" r="4" fill="#0" id="circle25"/>
	<circle cx="27.8748" cy="516.116" r="4" fill="#0" id="circle26"/>
	<circle cx="29.0686" cy="528.053" r="4" fill="#0" id="circle27"/>
	<circle cx="31.4561" cy="260.655" r="4" fill="#0" id="circle28"/>
	<circle cx="33.8436" cy="61.2996" r="4" fill="#0" id="circle29"/>
	<circle cx="33.8436" cy="131.73" r="4" fill="#0" id="circle30"/>
	<circle cx="33.8436" cy="539.99" r="4" fill="#0" id="circle31"/>
	<circle cx="35.0373" cy="551.928" r="4" fill="#0" id="circle32"/>
	<circle cx="39.8123" cy="49.3622" r="4" fill="#0" id="circle33"/>
	<circle cx="39.8123" cy="142.474" r="4" fill="#0" id="circle34"/>
	<circle cx="39.8123" cy="563.865" r="4" fill="#0" id="circle35"/>
	<circle cx="39.8123" cy="575.803" r="4" fill="#0" id="circle36"/>
	<circle cx="39.8123" cy="587.74" r="4" fill="#0" id="circle37"/>
	<circle cx="39.8123" cy="599.677" r="4" fill="#0" id="circle38"/>
	<circle cx="39.8123" cy="611.615" r="4" fill="#0" id="circle39"/>
	<circle cx="42.1998" cy="254.686" r="4" fill="#0" id="circle40"/>
	<circle cx="43.3935" cy="154.412" r="4" fill="#0" id="circle41"/>
	<circle cx="45.781" cy="622.359" r="4" fill="#0" id="circle42"/>
	<circle cx="49.3622" cy="39.8123" r="4" fill="#0" id="circle43"/>
	<circle cx="49.3622" cy="165.155" r="4" fill="#0" id="circle44"/>
	<circle cx="51.7497" cy="246.33" r="4" fill="#0" id="circle45"/>
	<circle cx="51.7497" cy="633.102" r="4" fill="#0" id="circle46"/>
	<circle cx="57.7184" cy="174.705" r="4" fill="#0" id="circle47"/>
	<circle cx="57.7184" cy="643.846" r="4" fill="#0" id="circle48"/>
	<circle cx="58.9122" cy="30.2623" r="4" fill="#0" id="circle49"/>
	<circle cx="61.2996" cy="236.78" r="4" fill="#0" id="circle50"/>
	<circle cx="61.2996" cy="655.783" r="4" fill="#0" id="circle51"/>
	<circle cx="63.6871" cy="667.721" r="4" fill="#0" id="circle52"/>
	<circle cx="67.2684" cy="183.061" r="4" fill="#0" id="circle53"/>
	<circle cx="68.4621" cy="21.9061" r="4" fill="#0" id="circle54"/>
	<circle cx="70.8496" cy="227.23" r="4" fill="#0" id="circle55"/>
	<circle cx="70.8496" cy="677.271" r="4" fill="#0" id="circle56"/>
	<circle cx="72.0433" cy="194.999" r="4" fill="#0" id="circle57"/>
	<circle cx="75.6245" cy="206.936" r="4" fill="#0" id="circle58"/>
	<circle cx="79.2058" cy="15.9374" r="4" fill="#0" id="circle59"/>
	<circle cx="80.3995" cy="685.627" r="4" fill="#0" id="circle60"/>
	<circle cx="87.562" cy="801.42" r="4" fill="#0" id="circle61"/>
	<circle cx="87.562" cy="813.357" r="4" fill="#0" id="circle62"/>
	<circle cx="87.562" cy="825.295" r="4" fill="#0" id="circle63"/>
	<circle cx="89.9495" cy="9.96871" r="4" fill="#0" id="circle64"/>
	<circle cx="91.1432" cy="691.596" r="4" fill="#0" id="circle65"/>
	<circle cx="93.5307" cy="783.514" r="4" fill="#0" id="circle66"/>
	<circle cx="93.5307" cy="836.039" r="4" fill="#0" id="circle67"/>
	<circle cx="99.4994" cy="771.576" r="4" fill="#0" id="circle68"/>
	<circle cx="99.4994" cy="846.782" r="4" fill="#0" id="circle69"/>
	<circle cx="99.4994" cy="858.72" r="4" fill="#0" id="circle70"/>
	<circle cx="100.693" cy="4" r="4" fill="#0" id="circle71"/>
	<circle cx="100.693" cy="699.952" r="4" fill="#0" id="circle72"/>
	<circle cx="105.468" cy="759.639" r="4" fill="#0" id="circle73"/>
	<circle cx="105.468" cy="869.463" r="4" fill="#0" id="circle74"/>
	<circle cx="105.468" cy="920.794" r="4" fill="#0" id="circle75"/>
	<circle cx="105.468" cy="932.732" r="4" fill="#0" id="circle76"/>
	<circle cx="105.468" cy="944.669" r="4" fill="#0" id="circle77"/>
	<circle cx="105.468" cy="956.606" r="4" fill="#0" id="circle78"/>
	<circle cx="109.049" cy="709.502" r="4" fill="#0" id="circle79"/>
	<circle cx="111.437" cy="721.439" r="4" fill="#0" id="circle80"/>
	<circle cx="111.437" cy="733.377" r="4" fill="#0" id="circle81"/>
	<circle cx="111.437" cy="745.314" r="4" fill="#0" id="circle82"/>
	<circle cx="111.437" cy="880.207" r="4" fill="#0" id="circle83"/>
	<circle cx="111.437" cy="892.144" r="4" fill="#0" id="circle84"/>
	<circle cx="111.437" cy="904.082" r="4" fill="#0" id="circle85"/>
	<circle cx="111.437" cy="967.35" r="4" fill="#0" id="circle86"/>
	<circle cx="112.631" cy="4" r="4" fill="#0" id="circle87"/>
	<circle cx="119.793" cy="976.9" r="4" fill="#0" id="circle88"/>
	<circle cx="124.568" cy="4" r="4" fill="#0" id="circle89"/>
	<circle cx="129.343" cy="984.063" r="4" fill="#0" id="circle90"/>
	<circle cx="136.505" cy="4" r="4" fill="#0" id="circle91"/>
	<circle cx="141.28" cy="984.063" r="4" fill="#0" id="circle92"/>
	<circle cx="148.443" cy="4" r="4" fill="#0" id="circle93"/>
	<circle cx="153.218" cy="984.063" r="4" fill="#0" id="circle94"/>
	<circle cx="160.38" cy="4" r="4" fill="#0" id="circle95"/>
	<circle cx="163.961" cy="990.031" r="4" fill="#0" id="circle96"/>
	<circle cx="172.318" cy="4" r="4" fill="#0" id="circle97"/>
	<circle cx="175.899" cy="990.031" r="4" fill="#0" id="circle98"/>
	<circle cx="184.255" cy="7.58123" r="4" fill="#0" id="circle99"/>
	<circle cx="186.643" cy="996" r="4" fill="#0" id="circle100"/>
	<circle cx="196.193" cy="9.96871" r="4" fill="#0" id="circle101"/>
	<circle cx="198.58" cy="996" r="4" fill="#0" id="circle102"/>
	<circle cx="206.936" cy="15.9374" r="4" fill="#0" id="circle103"/>
	<circle cx="210.517" cy="996" r="4" fill="#0" id="circle104"/>
	<circle cx="218.874" cy="18.3249" r="4" fill="#0" id="circle105"/>
	<circle cx="222.455" cy="996" r="4" fill="#0" id="circle106"/>
	<circle cx="229.617" cy="24.2936" r="4" fill="#0" id="circle107"/>
	<circle cx="234.392" cy="996" r="4" fill="#0" id="circle108"/>
	<circle cx="241.555" cy="29.0686" r="4" fill="#0" id="circle109"/>
	<circle cx="246.33" cy="996" r="4" fill="#0" id="circle110"/>
	<circle cx="249.911" cy="38.6185" r="4" fill="#0" id="circle111"/>
	<circle cx="249.911" cy="876.626" r="4" fill="#0" id="circle112"/>
	<circle cx="252.298" cy="888.563" r="4" fill="#0" id="circle113"/>
	<circle cx="255.88" cy="49.3622" r="4" fill="#0" id="circle114"/>
	<circle cx="255.88" cy="220.067" r="4" fill="#0" id="circle115"/>
	<circle cx="255.88" cy="232.005" r="4" fill="#0" id="circle116"/>
	<circle cx="255.88" cy="864.688" r="4" fill="#0" id="circle117"/>
	<circle cx="258.267" cy="243.942" r="4" fill="#0" id="circle118"/>
	<circle cx="258.267" cy="996" r="4" fill="#0" id="circle119"/>
	<circle cx="261.848" cy="202.161" r="4" fill="#0" id="circle120"/>
	<circle cx="261.848" cy="846.782" r="4" fill="#0" id="circle121"/>
	<circle cx="261.848" cy="896.919" r="4" fill="#0" id="circle122"/>
	<circle cx="264.236" cy="58.9122" r="4" fill="#0" id="circle123"/>
	<circle cx="267.817" cy="190.224" r="4" fill="#0" id="circle124"/>
	<circle cx="267.817" cy="252.298" r="4" fill="#0" id="circle125"/>
	<circle cx="267.817" cy="828.876" r="4" fill="#0" id="circle126"/>
	<circle cx="270.205" cy="69.6558" r="4" fill="#0" id="circle127"/>
	<circle cx="270.205" cy="996" r="4" fill="#0" id="circle128"/>
	<circle cx="272.592" cy="264.236" r="4" fill="#0" id="circle129"/>
	<circle cx="272.592" cy="902.888" r="4" fill="#0" id="circle130"/>
	<circle cx="273.786" cy="81.5933" r="4" fill="#0" id="circle131"/>
	<circle cx="273.786" cy="124.568" r="4" fill="#0" id="circle132"/>
	<circle cx="273.786" cy="136.505" r="4" fill="#0" id="circle133"/>
	<circle cx="273.786" cy="148.443" r="4" fill="#0" id="circle134"/>
	<circle cx="273.786" cy="160.38" r="4" fill="#0" id="circle135"/>
	<circle cx="273.786" cy="172.318" r="4" fill="#0" id="circle136"/>
	<circle cx="273.786" cy="810.97" r="4" fill="#0" id="circle137"/>
	<circle cx="279.755" cy="92.3369" r="4" fill="#0" id="circle138"/>
	<circle cx="279.755" cy="104.274" r="4" fill="#0" id="circle139"/>
	<circle cx="279.755" cy="769.189" r="4" fill="#0" id="circle140"/>
	<circle cx="279.755" cy="781.126" r="4" fill="#0" id="circle141"/>
	<circle cx="279.755" cy="793.064" r="4" fill="#0" id="circle142"/>
	<circle cx="280.948" cy="990.031" r="4" fill="#0" id="circle143"/>
	<circle cx="282.142" cy="272.592" r="4" fill="#0" id="circle144"/>
	<circle cx="282.142" cy="911.244" r="4" fill="#0" id="circle145"/>
	<circle cx="285.723" cy="284.529" r="4" fill="#0" id="circle146"/>
	<circle cx="285.723" cy="296.467" r="4" fill="#0" id="circle147"/>
	<circle cx="285.723" cy="308.404" r="4" fill="#0" id="circle148"/>
	<circle cx="285.723" cy="757.252" r="4" fill="#0" id="circle149"/>
	<circle cx="291.692" cy="319.148" r="4" fill="#0" id="circle150"/>
	<circle cx="291.692" cy="375.254" r="4" fill="#0" id="circle151"/>
	<circle cx="291.692" cy="387.191" r="4" fill="#0" id="circle152"/>
	<circle cx="291.692" cy="745.314" r="4" fill="#0" id="circle153"/>
	<circle cx="291.692" cy="984.063" r="4" fill="#0" id="circle154"/>
	<circle cx="292.886" cy="917.213" r="4" fill="#0" id="circle155"/>
	<circle cx="297.661" cy="329.892" r="4" fill="#0" id="circle156"/>
	<circle cx="297.661" cy="341.829" r="4" fill="#0" id="circle157"/>
	<circle cx="297.661" cy="353.767" r="4" fill="#0" id="circle158"/>
	<circle cx="297.661" cy="397.935" r="4" fill="#0" id="circle159"/>
	<circle cx="297.661" cy="673.69" r="4" fill="#0" id="circle160"/>
	<circle cx="297.661" cy="685.627" r="4" fill="#0" id="circle161"/>
	<circle cx="297.661" cy="697.564" r="4" fill="#0" id="circle162"/>
	<circle cx="297.661" cy="709.502" r="4" fill="#0" id="circle163"/>
	<circle cx="297.661" cy="733.377" r="4" fill="#0" id="circle164"/>
	<circle cx="302.436" cy="978.094" r="4" fill="#0" id="circle165"/>
	<circle cx="303.629" cy="408.679" r="4" fill="#0" id="circle166"/>
	<circle cx="303.629" cy="720.245" r="4" fill="#0" id="circle167"/>
	<circle cx="304.823" cy="917.213" r="4" fill="#0" id="circle168"/>
	<circle cx="307.211" cy="665.333" r="4" fill="#0" id="circle169"/>
	<circle cx="309.598" cy="419.422" r="4" fill="#0" id="circle170"/>
	<circle cx="309.598" cy="431.36" r="4" fill="#0" id="circle171"/>
	<circle cx="313.179" cy="972.125" r="4" fill="#0" id="circle172"/>
	<circle cx="315.567" cy="442.103" r="4" fill="#0" id="circle173"/>
	<circle cx="315.567" cy="454.041" r="4" fill="#0" id="circle174"/>
	<circle cx="315.567" cy="655.783" r="4" fill="#0" id="circle175"/>
	<circle cx="315.567" cy="923.182" r="4" fill="#0" id="circle176"/>
	<circle cx="321.535" cy="464.785" r="4" fill="#0" id="circle177"/>
	<circle cx="321.535" cy="619.971" r="4" fill="#0" id="circle178"/>
	<circle cx="323.923" cy="476.722" r="4" fill="#0" id="circle179"/>
	<circle cx="323.923" cy="631.909" r="4" fill="#0" id="circle180"/>
	<circle cx="323.923" cy="966.156" r="4" fill="#0" id="circle181"/>
	<circle cx="325.117" cy="647.427" r="4" fill="#0" id="circle182"/>
	<circle cx="326.31" cy="929.15" r="4" fill="#0" id="circle183"/>
	<circle cx="327.504" cy="488.659" r="4" fill="#0" id="circle184"/>
	<circle cx="327.504" cy="608.034" r="4" fill="#0" id="circle185"/>
	<circle cx="333.473" cy="499.403" r="4" fill="#0" id="circle186"/>
	<circle cx="333.473" cy="511.341" r="4" fill="#0" id="circle187"/>
	<circle cx="334.667" cy="960.188" r="4" fill="#0" id="circle188"/>
	<circle cx="335.86" cy="936.313" r="4" fill="#0" id="circle189"/>
	<circle cx="338.248" cy="602.065" r="4" fill="#0" id="circle190"/>
	<circle cx="339.442" cy="522.084" r="4" fill="#0" id="circle191"/>
	<circle cx="339.442" cy="534.022" r="4" fill="#0" id="circle192"/>
	<circle cx="339.442" cy="948.25" r="4" fill="#0" id="circle193"/>
	<circle cx="345.41" cy="544.765" r="4" fill="#0" id="circle194"/>
	<circle cx="345.41" cy="590.128" r="4" fill="#0" id="circle195"/>
	<circle cx="350.185" cy="556.703" r="4" fill="#0" id="circle196"/>
	<circle cx="351.379" cy="568.64" r="4" fill="#0" id="circle197"/>
	</g>
</svg>