<?xml version="1.0" encoding="UTF-8" standalone="no"?>
<!-- Created with CurveBenchmark -->
<svg
	xmlns:dc="http://purl.org/dc/elements/1.1/"
	xmlns:cc="http://creativecommons.org/ns#"
	xmlns:rdf="http://www.w3.org/1999/02/22-rdf-syntax-ns#"
	xmlns:svg="http://www.w3.org/2000/svg"
	xmlns="http://www.w3.org/2000/svg"
	xmlns:sodipodi="http://sodipodi.sourceforge.net/DTD/sodipodi-0.dtd"
	xmlns:inkscape="http://www.inkscape.org/namespaces/inkscape"
	width="1000"
	height="1000"
	id="svg2"
	version="1.1"
	sodipodi:docname="manifold/hnncrust-flatfish05.png.txt">
<defs
	id="defs4" />
<metadata
	id="metadata7">
	<rdf:RDF>
		<cc:Work
			rdf:about="">
			<dc:format>image/svg+xml</dc:format>
			<dc:type
				rdf:resource="http://purl.org/dc/dcmitype/StillImage" />
			<dc:title></dc:title>
		</cc:Work>
	</rdf:RDF>
</metadata>
<g
	inkscape:label="Layer 1"
	inkscape:groupmode="layer"
	id="layer1">
	<path style="fill:none;stroke:red;stroke-width:1px;stroke-linecap:butt;stroke-linejoin:miter;stroke-opacity:1" d="M 4,222.802 4,237.586 z" id="boundary" inkscape:connector-curvature="0" />
	<path style="fill:none;stroke:red;stroke-width:1px;stroke-linecap:butt;stroke-linejoin:miter;stroke-opacity:1" d="M 4,222.802 15.8271,210.975 z" id="boundary" inkscape:connector-curvature="0" />
	<path style="fill:none;stroke:red;stroke-width:1px;stroke-linecap:butt;stroke-linejoin:miter;stroke-opacity:1" d="M 4,237.586 4,252.37 z" id="boundary" inkscape:connector-curvature="0" />
	<path style="fill:none;stroke:red;stroke-width:1px;stroke-linecap:butt;stroke-linejoin:miter;stroke-opacity:1" d="M 4,252.37 11.392,265.675 z" id="boundary" inkscape:connector-curvature="0" />
	<path style="fill:none;stroke:red;stroke-width:1px;stroke-linecap:butt;stroke-linejoin:miter;stroke-opacity:1" d="M 11.392,265.675 21.7407,277.502 z" id="boundary" inkscape:connector-curvature="0" />
	<path style="fill:none;stroke:red;stroke-width:1px;stroke-linecap:butt;stroke-linejoin:miter;stroke-opacity:1" d="M 15.8271,210.975 29.1326,203.583 z" id="boundary" inkscape:connector-curvature="0" />
	<path style="fill:none;stroke:red;stroke-width:1px;stroke-linecap:butt;stroke-linejoin:miter;stroke-opacity:1" d="M 21.7407,277.502 33.5678,286.373 z" id="boundary" inkscape:connector-curvature="0" />
	<path style="fill:none;stroke:red;stroke-width:1px;stroke-linecap:butt;stroke-linejoin:miter;stroke-opacity:1" d="M 29.1326,203.583 43.9165,197.669 z" id="boundary" inkscape:connector-curvature="0" />
	<path style="fill:none;stroke:red;stroke-width:1px;stroke-linecap:butt;stroke-linejoin:miter;stroke-opacity:1" d="M 33.5678,286.373 42.4382,298.2 z" id="boundary" inkscape:connector-curvature="0" />
	<path style="fill:none;stroke:red;stroke-width:1px;stroke-linecap:butt;stroke-linejoin:miter;stroke-opacity:1" d="M 42.4382,298.2 49.8301,311.505 z" id="boundary" inkscape:connector-curvature="0" />
	<path style="fill:none;stroke:red;stroke-width:1px;stroke-linecap:butt;stroke-linejoin:miter;stroke-opacity:1" d="M 43.9165,197.669 55.7437,188.799 z" id="boundary" inkscape:connector-curvature="0" />
	<path style="fill:none;stroke:red;stroke-width:1px;stroke-linecap:butt;stroke-linejoin:miter;stroke-opacity:1" d="M 49.8301,311.505 60.1788,323.332 z" id="boundary" inkscape:connector-curvature="0" />
	<path style="fill:none;stroke:red;stroke-width:1px;stroke-linecap:butt;stroke-linejoin:miter;stroke-opacity:1" d="M 55.7437,188.799 69.0492,181.407 z" id="boundary" inkscape:connector-curvature="0" />
	<path style="fill:none;stroke:red;stroke-width:1px;stroke-linecap:butt;stroke-linejoin:miter;stroke-opacity:1" d="M 60.1788,323.332 72.006,333.681 z" id="boundary" inkscape:connector-curvature="0" />
	<path style="fill:none;stroke:red;stroke-width:1px;stroke-linecap:butt;stroke-linejoin:miter;stroke-opacity:1" d="M 69.0492,181.407 82.3547,174.015 z" id="boundary" inkscape:connector-curvature="0" />
	<path style="fill:none;stroke:red;stroke-width:1px;stroke-linecap:butt;stroke-linejoin:miter;stroke-opacity:1" d="M 72.006,333.681 82.3547,345.508 z" id="boundary" inkscape:connector-curvature="0" />
	<path style="fill:none;stroke:red;stroke-width:1px;stroke-linecap:butt;stroke-linejoin:miter;stroke-opacity:1" d="M 82.3547,174.015 94.1818,162.188 z" id="boundary" inkscape:connector-curvature="0" />
	<path style="fill:none;stroke:red;stroke-width:1px;stroke-linecap:butt;stroke-linejoin:miter;stroke-opacity:1" d="M 82.3547,345.508 97.1386,351.422 z" id="boundary" inkscape:connector-curvature="0" />
	<path style="fill:none;stroke:red;stroke-width:1px;stroke-linecap:butt;stroke-linejoin:miter;stroke-opacity:1" d="M 94.1818,162.188 106.009,151.839 z" id="boundary" inkscape:connector-curvature="0" />
	<path style="fill:none;stroke:red;stroke-width:1px;stroke-linecap:butt;stroke-linejoin:miter;stroke-opacity:1" d="M 97.1386,351.422 110.444,358.814 z" id="boundary" inkscape:connector-curvature="0" />
	<path style="fill:none;stroke:red;stroke-width:1px;stroke-linecap:butt;stroke-linejoin:miter;stroke-opacity:1" d="M 106.009,151.839 119.314,144.447 z" id="boundary" inkscape:connector-curvature="0" />
	<path style="fill:none;stroke:red;stroke-width:1px;stroke-linecap:butt;stroke-linejoin:miter;stroke-opacity:1" d="M 110.444,358.814 125.228,360.292 z" id="boundary" inkscape:connector-curvature="0" />
	<path style="fill:none;stroke:red;stroke-width:1px;stroke-linecap:butt;stroke-linejoin:miter;stroke-opacity:1" d="M 119.314,144.447 134.098,137.055 z" id="boundary" inkscape:connector-curvature="0" />
	<path style="fill:none;stroke:red;stroke-width:1px;stroke-linecap:butt;stroke-linejoin:miter;stroke-opacity:1" d="M 125.228,360.292 138.534,367.684 z" id="boundary" inkscape:connector-curvature="0" />
	<path style="fill:none;stroke:red;stroke-width:1px;stroke-linecap:butt;stroke-linejoin:miter;stroke-opacity:1" d="M 134.098,137.055 145.925,125.228 z" id="boundary" inkscape:connector-curvature="0" />
	<path style="fill:none;stroke:red;stroke-width:1px;stroke-linecap:butt;stroke-linejoin:miter;stroke-opacity:1" d="M 138.534,367.684 153.317,370.641 z" id="boundary" inkscape:connector-curvature="0" />
	<path style="fill:none;stroke:red;stroke-width:1px;stroke-linecap:butt;stroke-linejoin:miter;stroke-opacity:1" d="M 145.925,125.228 160.709,117.836 z" id="boundary" inkscape:connector-curvature="0" />
	<path style="fill:none;stroke:red;stroke-width:1px;stroke-linecap:butt;stroke-linejoin:miter;stroke-opacity:1" d="M 153.317,370.641 166.623,378.033 z" id="boundary" inkscape:connector-curvature="0" />
	<path style="fill:none;stroke:red;stroke-width:1px;stroke-linecap:butt;stroke-linejoin:miter;stroke-opacity:1" d="M 160.709,117.836 175.493,114.879 z" id="boundary" inkscape:connector-curvature="0" />
	<path style="fill:none;stroke:red;stroke-width:1px;stroke-linecap:butt;stroke-linejoin:miter;stroke-opacity:1" d="M 166.623,378.033 175.493,389.86 z" id="boundary" inkscape:connector-curvature="0" />
	<path style="fill:none;stroke:red;stroke-width:1px;stroke-linecap:butt;stroke-linejoin:miter;stroke-opacity:1" d="M 175.493,114.879 188.799,104.531 z" id="boundary" inkscape:connector-curvature="0" />
	<path style="fill:none;stroke:red;stroke-width:1px;stroke-linecap:butt;stroke-linejoin:miter;stroke-opacity:1" d="M 175.493,389.86 188.799,397.252 z" id="boundary" inkscape:connector-curvature="0" />
	<path style="fill:none;stroke:red;stroke-width:1px;stroke-linecap:butt;stroke-linejoin:miter;stroke-opacity:1" d="M 188.799,104.531 203.583,97.1386 z" id="boundary" inkscape:connector-curvature="0" />
	<path style="fill:none;stroke:red;stroke-width:1px;stroke-linecap:butt;stroke-linejoin:miter;stroke-opacity:1" d="M 188.799,397.252 202.104,404.644 z" id="boundary" inkscape:connector-curvature="0" />
	<path style="fill:none;stroke:red;stroke-width:1px;stroke-linecap:butt;stroke-linejoin:miter;stroke-opacity:1" d="M 202.104,404.644 216.888,404.644 z" id="boundary" inkscape:connector-curvature="0" />
	<path style="fill:none;stroke:red;stroke-width:1px;stroke-linecap:butt;stroke-linejoin:miter;stroke-opacity:1" d="M 203.583,97.1386 218.367,89.7466 z" id="boundary" inkscape:connector-curvature="0" />
	<path style="fill:none;stroke:red;stroke-width:1px;stroke-linecap:butt;stroke-linejoin:miter;stroke-opacity:1" d="M 216.888,404.644 231.672,404.644 z" id="boundary" inkscape:connector-curvature="0" />
	<path style="fill:none;stroke:red;stroke-width:1px;stroke-linecap:butt;stroke-linejoin:miter;stroke-opacity:1" d="M 218.367,89.7466 233.151,85.3115 z" id="boundary" inkscape:connector-curvature="0" />
	<path style="fill:none;stroke:red;stroke-width:1px;stroke-linecap:butt;stroke-linejoin:miter;stroke-opacity:1" d="M 231.672,404.644 246.456,404.644 z" id="boundary" inkscape:connector-curvature="0" />
	<path style="fill:none;stroke:red;stroke-width:1px;stroke-linecap:butt;stroke-linejoin:miter;stroke-opacity:1" d="M 233.151,85.3115 247.934,82.3547 z" id="boundary" inkscape:connector-curvature="0" />
	<path style="fill:none;stroke:red;stroke-width:1px;stroke-linecap:butt;stroke-linejoin:miter;stroke-opacity:1" d="M 246.456,404.644 259.762,412.036 z" id="boundary" inkscape:connector-curvature="0" />
	<path style="fill:none;stroke:red;stroke-width:1px;stroke-linecap:butt;stroke-linejoin:miter;stroke-opacity:1" d="M 247.934,82.3547 259.762,70.5276 z" id="boundary" inkscape:connector-curvature="0" />
	<path style="fill:none;stroke:red;stroke-width:1px;stroke-linecap:butt;stroke-linejoin:miter;stroke-opacity:1" d="M 259.762,70.5276 274.545,63.1356 z" id="boundary" inkscape:connector-curvature="0" />
	<path style="fill:none;stroke:red;stroke-width:1px;stroke-linecap:butt;stroke-linejoin:miter;stroke-opacity:1" d="M 259.762,412.036 271.589,422.385 z" id="boundary" inkscape:connector-curvature="0" />
	<path style="fill:none;stroke:red;stroke-width:1px;stroke-linecap:butt;stroke-linejoin:miter;stroke-opacity:1" d="M 271.589,422.385 284.894,429.776 z" id="boundary" inkscape:connector-curvature="0" />
	<path style="fill:none;stroke:red;stroke-width:1px;stroke-linecap:butt;stroke-linejoin:miter;stroke-opacity:1" d="M 274.545,63.1356 289.329,63.1356 z" id="boundary" inkscape:connector-curvature="0" />
	<path style="fill:none;stroke:red;stroke-width:1px;stroke-linecap:butt;stroke-linejoin:miter;stroke-opacity:1" d="M 284.894,429.776 299.678,434.212 z" id="boundary" inkscape:connector-curvature="0" />
	<path style="fill:none;stroke:red;stroke-width:1px;stroke-linecap:butt;stroke-linejoin:miter;stroke-opacity:1" d="M 289.329,63.1356 302.635,55.7437 z" id="boundary" inkscape:connector-curvature="0" />
	<path style="fill:none;stroke:red;stroke-width:1px;stroke-linecap:butt;stroke-linejoin:miter;stroke-opacity:1" d="M 299.678,434.212 314.462,434.212 z" id="boundary" inkscape:connector-curvature="0" />
	<path style="fill:none;stroke:red;stroke-width:1px;stroke-linecap:butt;stroke-linejoin:miter;stroke-opacity:1" d="M 302.635,55.7437 317.419,49.8301 z" id="boundary" inkscape:connector-curvature="0" />
	<path style="fill:none;stroke:red;stroke-width:1px;stroke-linecap:butt;stroke-linejoin:miter;stroke-opacity:1" d="M 314.462,434.212 327.768,441.604 z" id="boundary" inkscape:connector-curvature="0" />
	<path style="fill:none;stroke:red;stroke-width:1px;stroke-linecap:butt;stroke-linejoin:miter;stroke-opacity:1" d="M 317.419,49.8301 332.203,42.4382 z" id="boundary" inkscape:connector-curvature="0" />
	<path style="fill:none;stroke:red;stroke-width:1px;stroke-linecap:butt;stroke-linejoin:miter;stroke-opacity:1" d="M 327.768,441.604 342.551,441.604 z" id="boundary" inkscape:connector-curvature="0" />
	<path style="fill:none;stroke:red;stroke-width:1px;stroke-linecap:butt;stroke-linejoin:miter;stroke-opacity:1" d="M 332.203,42.4382 346.987,40.9598 z" id="boundary" inkscape:connector-curvature="0" />
	<path style="fill:none;stroke:red;stroke-width:1px;stroke-linecap:butt;stroke-linejoin:miter;stroke-opacity:1" d="M 342.551,441.604 357.335,441.604 z" id="boundary" inkscape:connector-curvature="0" />
	<path style="fill:none;stroke:red;stroke-width:1px;stroke-linecap:butt;stroke-linejoin:miter;stroke-opacity:1" d="M 346.987,40.9598 360.292,33.5678 z" id="boundary" inkscape:connector-curvature="0" />
	<path style="fill:none;stroke:red;stroke-width:1px;stroke-linecap:butt;stroke-linejoin:miter;stroke-opacity:1" d="M 357.335,441.604 370.641,448.996 z" id="boundary" inkscape:connector-curvature="0" />
	<path style="fill:none;stroke:red;stroke-width:1px;stroke-linecap:butt;stroke-linejoin:miter;stroke-opacity:1" d="M 360.292,33.5678 373.598,26.1759 z" id="boundary" inkscape:connector-curvature="0" />
	<path style="fill:none;stroke:red;stroke-width:1px;stroke-linecap:butt;stroke-linejoin:miter;stroke-opacity:1" d="M 370.641,448.996 385.425,448.996 z" id="boundary" inkscape:connector-curvature="0" />
	<path style="fill:none;stroke:red;stroke-width:1px;stroke-linecap:butt;stroke-linejoin:miter;stroke-opacity:1" d="M 373.598,26.1759 388.382,23.2191 z" id="boundary" inkscape:connector-curvature="0" />
	<path style="fill:none;stroke:red;stroke-width:1px;stroke-linecap:butt;stroke-linejoin:miter;stroke-opacity:1" d="M 385.425,448.996 400.209,448.996 z" id="boundary" inkscape:connector-curvature="0" />
	<path style="fill:none;stroke:red;stroke-width:1px;stroke-linecap:butt;stroke-linejoin:miter;stroke-opacity:1" d="M 388.382,23.2191 403.165,15.8271 z" id="boundary" inkscape:connector-curvature="0" />
	<path style="fill:none;stroke:red;stroke-width:1px;stroke-linecap:butt;stroke-linejoin:miter;stroke-opacity:1" d="M 400.209,448.996 414.993,448.996 z" id="boundary" inkscape:connector-curvature="0" />
	<path style="fill:none;stroke:red;stroke-width:1px;stroke-linecap:butt;stroke-linejoin:miter;stroke-opacity:1" d="M 403.165,15.8271 417.949,11.392 z" id="boundary" inkscape:connector-curvature="0" />
	<path style="fill:none;stroke:red;stroke-width:1px;stroke-linecap:butt;stroke-linejoin:miter;stroke-opacity:1" d="M 414.993,448.996 429.776,448.996 z" id="boundary" inkscape:connector-curvature="0" />
	<path style="fill:none;stroke:red;stroke-width:1px;stroke-linecap:butt;stroke-linejoin:miter;stroke-opacity:1" d="M 417.949,11.392 431.255,4 z" id="boundary" inkscape:connector-curvature="0" />
	<path style="fill:none;stroke:red;stroke-width:1px;stroke-linecap:butt;stroke-linejoin:miter;stroke-opacity:1" d="M 429.776,448.996 444.56,448.996 z" id="boundary" inkscape:connector-curvature="0" />
	<path style="fill:none;stroke:red;stroke-width:1px;stroke-linecap:butt;stroke-linejoin:miter;stroke-opacity:1" d="M 431.255,4 446.039,4 z" id="boundary" inkscape:connector-curvature="0" />
	<path style="fill:none;stroke:red;stroke-width:1px;stroke-linecap:butt;stroke-linejoin:miter;stroke-opacity:1" d="M 444.56,448.996 459.344,447.517 z" id="boundary" inkscape:connector-curvature="0" />
	<path style="fill:none;stroke:red;stroke-width:1px;stroke-linecap:butt;stroke-linejoin:miter;stroke-opacity:1" d="M 446.039,4 460.823,4 z" id="boundary" inkscape:connector-curvature="0" />
	<path style="fill:none;stroke:red;stroke-width:1px;stroke-linecap:butt;stroke-linejoin:miter;stroke-opacity:1" d="M 459.344,447.517 474.128,441.604 z" id="boundary" inkscape:connector-curvature="0" />
	<path style="fill:none;stroke:red;stroke-width:1px;stroke-linecap:butt;stroke-linejoin:miter;stroke-opacity:1" d="M 460.823,4 475.607,4 z" id="boundary" inkscape:connector-curvature="0" />
	<path style="fill:none;stroke:red;stroke-width:1px;stroke-linecap:butt;stroke-linejoin:miter;stroke-opacity:1" d="M 474.128,441.604 488.912,441.604 z" id="boundary" inkscape:connector-curvature="0" />
	<path style="fill:none;stroke:red;stroke-width:1px;stroke-linecap:butt;stroke-linejoin:miter;stroke-opacity:1" d="M 475.607,4 490.39,5.47839 z" id="boundary" inkscape:connector-curvature="0" />
	<path style="fill:none;stroke:red;stroke-width:1px;stroke-linecap:butt;stroke-linejoin:miter;stroke-opacity:1" d="M 488.912,441.604 503.696,440.125 z" id="boundary" inkscape:connector-curvature="0" />
	<path style="fill:none;stroke:red;stroke-width:1px;stroke-linecap:butt;stroke-linejoin:miter;stroke-opacity:1" d="M 490.39,5.47839 505.174,11.392 z" id="boundary" inkscape:connector-curvature="0" />
	<path style="fill:none;stroke:red;stroke-width:1px;stroke-linecap:butt;stroke-linejoin:miter;stroke-opacity:1" d="M 503.696,440.125 518.48,434.212 z" id="boundary" inkscape:connector-curvature="0" />
	<path style="fill:none;stroke:red;stroke-width:1px;stroke-linecap:butt;stroke-linejoin:miter;stroke-opacity:1" d="M 505.174,11.392 519.958,11.392 z" id="boundary" inkscape:connector-curvature="0" />
	<path style="fill:none;stroke:red;stroke-width:1px;stroke-linecap:butt;stroke-linejoin:miter;stroke-opacity:1" d="M 518.48,434.212 533.264,434.212 z" id="boundary" inkscape:connector-curvature="0" />
	<path style="fill:none;stroke:red;stroke-width:1px;stroke-linecap:butt;stroke-linejoin:miter;stroke-opacity:1" d="M 519.958,11.392 533.264,18.7839 z" id="boundary" inkscape:connector-curvature="0" />
	<path style="fill:none;stroke:red;stroke-width:1px;stroke-linecap:butt;stroke-linejoin:miter;stroke-opacity:1" d="M 533.264,18.7839 546.569,26.1759 z" id="boundary" inkscape:connector-curvature="0" />
	<path style="fill:none;stroke:red;stroke-width:1px;stroke-linecap:butt;stroke-linejoin:miter;stroke-opacity:1" d="M 533.264,434.212 548.048,432.733 z" id="boundary" inkscape:connector-curvature="0" />
	<path style="fill:none;stroke:red;stroke-width:1px;stroke-linecap:butt;stroke-linejoin:miter;stroke-opacity:1" d="M 546.569,26.1759 561.353,26.1759 z" id="boundary" inkscape:connector-curvature="0" />
	<path style="fill:none;stroke:red;stroke-width:1px;stroke-linecap:butt;stroke-linejoin:miter;stroke-opacity:1" d="M 548.048,432.733 562.832,426.82 z" id="boundary" inkscape:connector-curvature="0" />
	<path style="fill:none;stroke:red;stroke-width:1px;stroke-linecap:butt;stroke-linejoin:miter;stroke-opacity:1" d="M 561.353,26.1759 574.659,33.5678 z" id="boundary" inkscape:connector-curvature="0" />
	<path style="fill:none;stroke:red;stroke-width:1px;stroke-linecap:butt;stroke-linejoin:miter;stroke-opacity:1" d="M 562.832,426.82 577.615,426.82 z" id="boundary" inkscape:connector-curvature="0" />
	<path style="fill:none;stroke:red;stroke-width:1px;stroke-linecap:butt;stroke-linejoin:miter;stroke-opacity:1" d="M 574.659,33.5678 589.443,38.003 z" id="boundary" inkscape:connector-curvature="0" />
	<path style="fill:none;stroke:red;stroke-width:1px;stroke-linecap:butt;stroke-linejoin:miter;stroke-opacity:1" d="M 577.615,426.82 592.399,426.82 z" id="boundary" inkscape:connector-curvature="0" />
	<path style="fill:none;stroke:red;stroke-width:1px;stroke-linecap:butt;stroke-linejoin:miter;stroke-opacity:1" d="M 589.443,38.003 602.748,45.3949 z" id="boundary" inkscape:connector-curvature="0" />
	<path style="fill:none;stroke:red;stroke-width:1px;stroke-linecap:butt;stroke-linejoin:miter;stroke-opacity:1" d="M 592.399,426.82 607.183,425.341 z" id="boundary" inkscape:connector-curvature="0" />
	<path style="fill:none;stroke:red;stroke-width:1px;stroke-linecap:butt;stroke-linejoin:miter;stroke-opacity:1" d="M 602.748,45.3949 617.532,48.3517 z" id="boundary" inkscape:connector-curvature="0" />
	<path style="fill:none;stroke:red;stroke-width:1px;stroke-linecap:butt;stroke-linejoin:miter;stroke-opacity:1" d="M 607.183,425.341 621.967,419.428 z" id="boundary" inkscape:connector-curvature="0" />
	<path style="fill:none;stroke:red;stroke-width:1px;stroke-linecap:butt;stroke-linejoin:miter;stroke-opacity:1" d="M 617.532,48.3517 630.838,55.7437 z" id="boundary" inkscape:connector-curvature="0" />
	<path style="fill:none;stroke:red;stroke-width:1px;stroke-linecap:butt;stroke-linejoin:miter;stroke-opacity:1" d="M 621.967,419.428 636.751,419.428 z" id="boundary" inkscape:connector-curvature="0" />
	<path style="fill:none;stroke:red;stroke-width:1px;stroke-linecap:butt;stroke-linejoin:miter;stroke-opacity:1" d="M 630.838,55.7437 644.143,63.1356 z" id="boundary" inkscape:connector-curvature="0" />
	<path style="fill:none;stroke:red;stroke-width:1px;stroke-linecap:butt;stroke-linejoin:miter;stroke-opacity:1" d="M 636.751,419.428 651.535,417.949 z" id="boundary" inkscape:connector-curvature="0" />
	<path style="fill:none;stroke:red;stroke-width:1px;stroke-linecap:butt;stroke-linejoin:miter;stroke-opacity:1" d="M 644.143,63.1356 654.492,74.9627 z" id="boundary" inkscape:connector-curvature="0" />
	<path style="fill:none;stroke:red;stroke-width:1px;stroke-linecap:butt;stroke-linejoin:miter;stroke-opacity:1" d="M 651.535,417.949 663.362,404.644 z" id="boundary" inkscape:connector-curvature="0" />
	<path style="fill:none;stroke:red;stroke-width:1px;stroke-linecap:butt;stroke-linejoin:miter;stroke-opacity:1" d="M 654.492,74.9627 669.276,80.8763 z" id="boundary" inkscape:connector-curvature="0" />
	<path style="fill:none;stroke:red;stroke-width:1px;stroke-linecap:butt;stroke-linejoin:miter;stroke-opacity:1" d="M 663.362,404.644 678.146,397.252 z" id="boundary" inkscape:connector-curvature="0" />
	<path style="fill:none;stroke:red;stroke-width:1px;stroke-linecap:butt;stroke-linejoin:miter;stroke-opacity:1" d="M 669.276,80.8763 682.581,88.2683 z" id="boundary" inkscape:connector-curvature="0" />
	<path style="fill:none;stroke:red;stroke-width:1px;stroke-linecap:butt;stroke-linejoin:miter;stroke-opacity:1" d="M 678.146,397.252 692.93,389.86 z" id="boundary" inkscape:connector-curvature="0" />
	<path style="fill:none;stroke:red;stroke-width:1px;stroke-linecap:butt;stroke-linejoin:miter;stroke-opacity:1" d="M 682.581,88.2683 692.93,100.095 z" id="boundary" inkscape:connector-curvature="0" />
	<path style="fill:none;stroke:red;stroke-width:1px;stroke-linecap:butt;stroke-linejoin:miter;stroke-opacity:1" d="M 692.93,100.095 704.757,108.966 z" id="boundary" inkscape:connector-curvature="0" />
	<path style="fill:none;stroke:red;stroke-width:1px;stroke-linecap:butt;stroke-linejoin:miter;stroke-opacity:1" d="M 692.93,389.86 706.235,382.468 z" id="boundary" inkscape:connector-curvature="0" />
	<path style="fill:none;stroke:red;stroke-width:1px;stroke-linecap:butt;stroke-linejoin:miter;stroke-opacity:1" d="M 704.757,108.966 718.063,116.358 z" id="boundary" inkscape:connector-curvature="0" />
	<path style="fill:none;stroke:red;stroke-width:1px;stroke-linecap:butt;stroke-linejoin:miter;stroke-opacity:1" d="M 706.235,382.468 719.541,375.076 z" id="boundary" inkscape:connector-curvature="0" />
	<path style="fill:none;stroke:red;stroke-width:1px;stroke-linecap:butt;stroke-linejoin:miter;stroke-opacity:1" d="M 718.063,116.358 729.89,126.706 z" id="boundary" inkscape:connector-curvature="0" />
	<path style="fill:none;stroke:red;stroke-width:1px;stroke-linecap:butt;stroke-linejoin:miter;stroke-opacity:1" d="M 719.541,375.076 732.846,366.206 z" id="boundary" inkscape:connector-curvature="0" />
	<path style="fill:none;stroke:red;stroke-width:1px;stroke-linecap:butt;stroke-linejoin:miter;stroke-opacity:1" d="M 729.89,126.706 740.238,138.534 z" id="boundary" inkscape:connector-curvature="0" />
	<path style="fill:none;stroke:red;stroke-width:1px;stroke-linecap:butt;stroke-linejoin:miter;stroke-opacity:1" d="M 732.846,366.206 744.674,345.508 z" id="boundary" inkscape:connector-curvature="0" />
	<path style="fill:none;stroke:red;stroke-width:1px;stroke-linecap:butt;stroke-linejoin:miter;stroke-opacity:1" d="M 740.238,138.534 752.066,148.882 z" id="boundary" inkscape:connector-curvature="0" />
	<path style="fill:none;stroke:red;stroke-width:1px;stroke-linecap:butt;stroke-linejoin:miter;stroke-opacity:1" d="M 744.674,345.508 752.066,330.724 z" id="boundary" inkscape:connector-curvature="0" />
	<path style="fill:none;stroke:red;stroke-width:1px;stroke-linecap:butt;stroke-linejoin:miter;stroke-opacity:1" d="M 752.066,148.882 762.414,160.709 z" id="boundary" inkscape:connector-curvature="0" />
	<path style="fill:none;stroke:red;stroke-width:1px;stroke-linecap:butt;stroke-linejoin:miter;stroke-opacity:1" d="M 752.066,330.724 763.893,320.376 z" id="boundary" inkscape:connector-curvature="0" />
	<path style="fill:none;stroke:red;stroke-width:1px;stroke-linecap:butt;stroke-linejoin:miter;stroke-opacity:1" d="M 762.414,160.709 769.806,174.015 z" id="boundary" inkscape:connector-curvature="0" />
	<path style="fill:none;stroke:red;stroke-width:1px;stroke-linecap:butt;stroke-linejoin:miter;stroke-opacity:1" d="M 763.893,320.376 772.763,308.548 z" id="boundary" inkscape:connector-curvature="0" />
	<path style="fill:none;stroke:red;stroke-width:1px;stroke-linecap:butt;stroke-linejoin:miter;stroke-opacity:1" d="M 769.806,174.015 780.155,185.842 z" id="boundary" inkscape:connector-curvature="0" />
	<path style="fill:none;stroke:red;stroke-width:1px;stroke-linecap:butt;stroke-linejoin:miter;stroke-opacity:1" d="M 772.763,308.548 786.069,301.156 z" id="boundary" inkscape:connector-curvature="0" />
	<path style="fill:none;stroke:red;stroke-width:1px;stroke-linecap:butt;stroke-linejoin:miter;stroke-opacity:1" d="M 780.155,185.842 787.547,199.148 z" id="boundary" inkscape:connector-curvature="0" />
	<path style="fill:none;stroke:red;stroke-width:1px;stroke-linecap:butt;stroke-linejoin:miter;stroke-opacity:1" d="M 786.069,301.156 800.852,301.156 z" id="boundary" inkscape:connector-curvature="0" />
	<path style="fill:none;stroke:red;stroke-width:1px;stroke-linecap:butt;stroke-linejoin:miter;stroke-opacity:1" d="M 787.547,199.148 796.417,210.975 z" id="boundary" inkscape:connector-curvature="0" />
	<path style="fill:none;stroke:red;stroke-width:1px;stroke-linecap:butt;stroke-linejoin:miter;stroke-opacity:1" d="M 796.417,210.975 811.201,210.975 z" id="boundary" inkscape:connector-curvature="0" />
	<path style="fill:none;stroke:red;stroke-width:1px;stroke-linecap:butt;stroke-linejoin:miter;stroke-opacity:1" d="M 800.852,301.156 815.636,301.156 z" id="boundary" inkscape:connector-curvature="0" />
	<path style="fill:none;stroke:red;stroke-width:1px;stroke-linecap:butt;stroke-linejoin:miter;stroke-opacity:1" d="M 811.201,210.975 825.985,210.975 z" id="boundary" inkscape:connector-curvature="0" />
	<path style="fill:none;stroke:red;stroke-width:1px;stroke-linecap:butt;stroke-linejoin:miter;stroke-opacity:1" d="M 815.636,301.156 830.42,301.156 z" id="boundary" inkscape:connector-curvature="0" />
	<path style="fill:none;stroke:red;stroke-width:1px;stroke-linecap:butt;stroke-linejoin:miter;stroke-opacity:1" d="M 825.985,210.975 839.291,203.583 z" id="boundary" inkscape:connector-curvature="0" />
	<path style="fill:none;stroke:red;stroke-width:1px;stroke-linecap:butt;stroke-linejoin:miter;stroke-opacity:1" d="M 830.42,301.156 843.726,308.548 z" id="boundary" inkscape:connector-curvature="0" />
	<path style="fill:none;stroke:red;stroke-width:1px;stroke-linecap:butt;stroke-linejoin:miter;stroke-opacity:1" d="M 839.291,203.583 854.075,203.583 z" id="boundary" inkscape:connector-curvature="0" />
	<path style="fill:none;stroke:red;stroke-width:1px;stroke-linecap:butt;stroke-linejoin:miter;stroke-opacity:1" d="M 843.726,308.548 855.553,318.897 z" id="boundary" inkscape:connector-curvature="0" />
	<path style="fill:none;stroke:red;stroke-width:1px;stroke-linecap:butt;stroke-linejoin:miter;stroke-opacity:1" d="M 854.075,203.583 868.858,200.626 z" id="boundary" inkscape:connector-curvature="0" />
	<path style="fill:none;stroke:red;stroke-width:1px;stroke-linecap:butt;stroke-linejoin:miter;stroke-opacity:1" d="M 855.553,318.897 870.337,323.332 z" id="boundary" inkscape:connector-curvature="0" />
	<path style="fill:none;stroke:red;stroke-width:1px;stroke-linecap:butt;stroke-linejoin:miter;stroke-opacity:1" d="M 868.858,200.626 883.642,196.191 z" id="boundary" inkscape:connector-curvature="0" />
	<path style="fill:none;stroke:red;stroke-width:1px;stroke-linecap:butt;stroke-linejoin:miter;stroke-opacity:1" d="M 870.337,323.332 883.642,330.724 z" id="boundary" inkscape:connector-curvature="0" />
	<path style="fill:none;stroke:red;stroke-width:1px;stroke-linecap:butt;stroke-linejoin:miter;stroke-opacity:1" d="M 883.642,196.191 896.948,188.799 z" id="boundary" inkscape:connector-curvature="0" />
	<path style="fill:none;stroke:red;stroke-width:1px;stroke-linecap:butt;stroke-linejoin:miter;stroke-opacity:1" d="M 883.642,330.724 896.948,338.116 z" id="boundary" inkscape:connector-curvature="0" />
	<path style="fill:none;stroke:red;stroke-width:1px;stroke-linecap:butt;stroke-linejoin:miter;stroke-opacity:1" d="M 896.948,188.799 911.732,188.799 z" id="boundary" inkscape:connector-curvature="0" />
	<path style="fill:none;stroke:red;stroke-width:1px;stroke-linecap:butt;stroke-linejoin:miter;stroke-opacity:1" d="M 896.948,338.116 911.732,338.116 z" id="boundary" inkscape:connector-curvature="0" />
	<path style="fill:none;stroke:red;stroke-width:1px;stroke-linecap:butt;stroke-linejoin:miter;stroke-opacity:1" d="M 911.732,188.799 926.516,188.799 z" id="boundary" inkscape:connector-curvature="0" />
	<path style="fill:none;stroke:red;stroke-width:1px;stroke-linecap:butt;stroke-linejoin:miter;stroke-opacity:1" d="M 911.732,338.116 925.037,345.508 z" id="boundary" inkscape:connector-curvature="0" />
	<path style="fill:none;stroke:red;stroke-width:1px;stroke-linecap:butt;stroke-linejoin:miter;stroke-opacity:1" d="M 925.037,345.508 939.821,351.422 z" id="boundary" inkscape:connector-curvature="0" />
	<path style="fill:none;stroke:red;stroke-width:1px;stroke-linecap:butt;stroke-linejoin:miter;stroke-opacity:1" d="M 926.516,188.799 939.821,181.407 z" id="boundary" inkscape:connector-curvature="0" />
	<path style="fill:none;stroke:red;stroke-width:1px;stroke-linecap:butt;stroke-linejoin:miter;stroke-opacity:1" d="M 939.821,181.407 954.605,181.407 z" id="boundary" inkscape:connector-curvature="0" />
	<path style="fill:none;stroke:red;stroke-width:1px;stroke-linecap:butt;stroke-linejoin:miter;stroke-opacity:1" d="M 939.821,351.422 954.605,344.03 z" id="boundary" inkscape:connector-curvature="0" />
	<path style="fill:none;stroke:red;stroke-width:1px;stroke-linecap:butt;stroke-linejoin:miter;stroke-opacity:1" d="M 954.605,181.407 967.911,188.799 z" id="boundary" inkscape:connector-curvature="0" />
	<path style="fill:none;stroke:red;stroke-width:1px;stroke-linecap:butt;stroke-linejoin:miter;stroke-opacity:1" d="M 954.605,344.03 966.432,323.332 z" id="boundary" inkscape:connector-curvature="0" />
	<path style="fill:none;stroke:red;stroke-width:1px;stroke-linecap:butt;stroke-linejoin:miter;stroke-opacity:1" d="M 966.432,323.332 978.259,312.984 z" id="boundary" inkscape:connector-curvature="0" />
	<path style="fill:none;stroke:red;stroke-width:1px;stroke-linecap:butt;stroke-linejoin:miter;stroke-opacity:1" d="M 967.911,188.799 973.824,203.583 z" id="boundary" inkscape:connector-curvature="0" />
	<path style="fill:none;stroke:red;stroke-width:1px;stroke-linecap:butt;stroke-linejoin:miter;stroke-opacity:1" d="M 973.824,203.583 981.216,216.888 z" id="boundary" inkscape:connector-curvature="0" />
	<path style="fill:none;stroke:red;stroke-width:1px;stroke-linecap:butt;stroke-linejoin:miter;stroke-opacity:1" d="M 978.259,312.984 985.651,298.2 z" id="boundary" inkscape:connector-curvature="0" />
	<path style="fill:none;stroke:red;stroke-width:1px;stroke-linecap:butt;stroke-linejoin:miter;stroke-opacity:1" d="M 981.216,216.888 988.608,230.194 z" id="boundary" inkscape:connector-curvature="0" />
	<path style="fill:none;stroke:red;stroke-width:1px;stroke-linecap:butt;stroke-linejoin:miter;stroke-opacity:1" d="M 985.651,298.2 993.043,283.416 z" id="boundary" inkscape:connector-curvature="0" />
	<path style="fill:none;stroke:red;stroke-width:1px;stroke-linecap:butt;stroke-linejoin:miter;stroke-opacity:1" d="M 988.608,230.194 996,243.499 z" id="boundary" inkscape:connector-curvature="0" />
	<path style="fill:none;stroke:red;stroke-width:1px;stroke-linecap:butt;stroke-linejoin:miter;stroke-opacity:1" d="M 993.043,283.416 996,258.283 z" id="boundary" inkscape:connector-curvature="0" />
	<path style="fill:none;stroke:red;stroke-width:1px;stroke-linecap:butt;stroke-linejoin:miter;stroke-opacity:1" d="M 996,243.499 996,258.283 z" id="boundary" inkscape:connector-curvature="0" />
	<circle cx="4" cy="222.802" r="4" fill="#0" id="circle0"/>
	<circle cx="4" cy="237.586" r="4" fill="#0" id="circle1"/>
	<circle cx="4" cy="252.37" r="4" fill="#0" id="circle2"/>
	<circle cx="11.392" cy="265.675" r="4" fill="#0" id="circle3"/>
	<circle cx="15.8271" cy="210.975" r="4" fill="#0" id="circle4"/>
	<circle cx="21.7407" cy="277.502" r="4" fill="#0" id="circle5"/>
	<circle cx="29.1326" cy="203.583" r="4" fill="#0" id="circle6"/>
	<circle cx="33.5678" cy="286.373" r="4" fill="#0" id="circle7"/>
	<circle cx="42.4382" cy="298.2" r="4" fill="#0" id="circle8"/>
	<circle cx="43.9165" cy="197.669" r="4" fill="#0" id="circle9"/>
	<circle cx="49.8301" cy="311.505" r="4" fill="#0" id="circle10"/>
	<circle cx="55.7437" cy="188.799" r="4" fill="#0" id="circle11"/>
	<circle cx="60.1788" cy="323.332" r="4" fill="#0" id="circle12"/>
	<circle cx="69.0492" cy="181.407" r="4" fill="#0" id="circle13"/>
	<circle cx="72.006" cy="333.681" r="4" fill="#0" id="circle14"/>
	<circle cx="82.3547" cy="174.015" r="4" fill="#0" id="circle15"/>
	<circle cx="82.3547" cy="345.508" r="4" fill="#0" id="circle16"/>
	<circle cx="94.1818" cy="162.188" r="4" fill="#0" id="circle17"/>
	<circle cx="97.1386" cy="351.422" r="4" fill="#0" id="circle18"/>
	<circle cx="106.009" cy="151.839" r="4" fill="#0" id="circle19"/>
	<circle cx="110.444" cy="358.814" r="4" fill="#0" id="circle20"/>
	<circle cx="119.314" cy="144.447" r="4" fill="#0" id="circle21"/>
	<circle cx="125.228" cy="360.292" r="4" fill="#0" id="circle22"/>
	<circle cx="134.098" cy="137.055" r="4" fill="#0" id="circle23"/>
	<circle cx="138.534" cy="367.684" r="4" fill="#0" id="circle24"/>
	<circle cx="145.925" cy="125.228" r="4" fill="#0" id="circle25"/>
	<circle cx="153.317" cy="370.641" r="4" fill="#0" id="circle26"/>
	<circle cx="160.709" cy="117.836" r="4" fill="#0" id="circle27"/>
	<circle cx="166.623" cy="378.033" r="4" fill="#0" id="circle28"/>
	<circle cx="175.493" cy="114.879" r="4" fill="#0" id="circle29"/>
	<circle cx="175.493" cy="389.86" r="4" fill="#0" id="circle30"/>
	<circle cx="188.799" cy="104.531" r="4" fill="#0" id="circle31"/>
	<circle cx="188.799" cy="397.252" r="4" fill="#0" id="circle32"/>
	<circle cx="202.104" cy="404.644" r="4" fill="#0" id="circle33"/>
	<circle cx="203.583" cy="97.1386" r="4" fill="#0" id="circle34"/>
	<circle cx="216.888" cy="404.644" r="4" fill="#0" id="circle35"/>
	<circle cx="218.367" cy="89.7466" r="4" fill="#0" id="circle36"/>
	<circle cx="231.672" cy="404.644" r="4" fill="#0" id="circle37"/>
	<circle cx="233.151" cy="85.3115" r="4" fill="#0" id="circle38"/>
	<circle cx="246.456" cy="404.644" r="4" fill="#0" id="circle39"/>
	<circle cx="247.934" cy="82.3547" r="4" fill="#0" id="circle40"/>
	<circle cx="259.762" cy="70.5276" r="4" fill="#0" id="circle41"/>
	<circle cx="259.762" cy="412.036" r="4" fill="#0" id="circle42"/>
	<circle cx="271.589" cy="422.385" r="4" fill="#0" id="circle43"/>
	<circle cx="274.545" cy="63.1356" r="4" fill="#0" id="circle44"/>
	<circle cx="284.894" cy="429.776" r="4" fill="#0" id="circle45"/>
	<circle cx="289.329" cy="63.1356" r="4" fill="#0" id="circle46"/>
	<circle cx="299.678" cy="434.212" r="4" fill="#0" id="circle47"/>
	<circle cx="302.635" cy="55.7437" r="4" fill="#0" id="circle48"/>
	<circle cx="314.462" cy="434.212" r="4" fill="#0" id="circle49"/>
	<circle cx="317.419" cy="49.8301" r="4" fill="#0" id="circle50"/>
	<circle cx="327.768" cy="441.604" r="4" fill="#0" id="circle51"/>
	<circle cx="332.203" cy="42.4382" r="4" fill="#0" id="circle52"/>
	<circle cx="342.551" cy="441.604" r="4" fill="#0" id="circle53"/>
	<circle cx="346.987" cy="40.9598" r="4" fill="#0" id="circle54"/>
	<circle cx="357.335" cy="441.604" r="4" fill="#0" id="circle55"/>
	<circle cx="360.292" cy="33.5678" r="4" fill="#0" id="circle56"/>
	<circle cx="370.641" cy="448.996" r="4" fill="#0" id="circle57"/>
	<circle cx="373.598" cy="26.1759" r="4" fill="#0" id="circle58"/>
	<circle cx="385.425" cy="448.996" r="4" fill="#0" id="circle59"/>
	<circle cx="388.382" cy="23.2191" r="4" fill="#0" id="circle60"/>
	<circle cx="400.209" cy="448.996" r="4" fill="#0" id="circle61"/>
	<circle cx="403.165" cy="15.8271" r="4" fill="#0" id="circle62"/>
	<circle cx="414.993" cy="448.996" r="4" fill="#0" id="circle63"/>
	<circle cx="417.949" cy="11.392" r="4" fill="#0" id="circle64"/>
	<circle cx="429.776" cy="448.996" r="4" fill="#0" id="circle65"/>
	<circle cx="431.255" cy="4" r="4" fill="#0" id="circle66"/>
	<circle cx="444.56" cy="448.996" r="4" fill="#0" id="circle67"/>
	<circle cx="446.039" cy="4" r="4" fill="#0" id="circle68"/>
	<circle cx="459.344" cy="447.517" r="4" fill="#0" id="circle69"/>
	<circle cx="460.823" cy="4" r="4" fill="#0" id="circle70"/>
	<circle cx="474.128" cy="441.604" r="4" fill="#0" id="circle71"/>
	<circle cx="475.607" cy="4" r="4" fill="#0" id="circle72"/>
	<circle cx="488.912" cy="441.604" r="4" fill="#0" id="circle73"/>
	<circle cx="490.39" cy="5.47839" r="4" fill="#0" id="circle74"/>
	<circle cx="503.696" cy="440.125" r="4" fill="#0" id="circle75"/>
	<circle cx="505.174" cy="11.392" r="4" fill="#0" id="circle76"/>
	<circle cx="518.48" cy="434.212" r="4" fill="#0" id="circle77"/>
	<circle cx="519.958" cy="11.392" r="4" fill="#0" id="circle78"/>
	<circle cx="533.264" cy="18.7839" r="4" fill="#0" id="circle79"/>
	<circle cx="533.264" cy="434.212" r="4" fill="#0" id="circle80"/>
	<circle cx="546.569" cy="26.1759" r="4" fill="#0" id="circle81"/>
	<circle cx="548.048" cy="432.733" r="4" fill="#0" id="circle82"/>
	<circle cx="561.353" cy="26.1759" r="4" fill="#0" id="circle83"/>
	<circle cx="562.832" cy="426.82" r="4" fill="#0" id="circle84"/>
	<circle cx="574.659" cy="33.5678" r="4" fill="#0" id="circle85"/>
	<circle cx="577.615" cy="426.82" r="4" fill="#0" id="circle86"/>
	<circle cx="589.443" cy="38.003" r="4" fill="#0" id="circle87"/>
	<circle cx="592.399" cy="426.82" r="4" fill="#0" id="circle88"/>
	<circle cx="602.748" cy="45.3949" r="4" fill="#0" id="circle89"/>
	<circle cx="607.183" cy="425.341" r="4" fill="#0" id="circle90"/>
	<circle cx="617.532" cy="48.3517" r="4" fill="#0" id="circle91"/>
	<circle cx="621.967" cy="419.428" r="4" fill="#0" id="circle92"/>
	<circle cx="630.838" cy="55.7437" r="4" fill="#0" id="circle93"/>
	<circle cx="636.751" cy="419.428" r="4" fill="#0" id="circle94"/>
	<circle cx="644.143" cy="63.1356" r="4" fill="#0" id="circle95"/>
	<circle cx="651.535" cy="417.949" r="4" fill="#0" id="circle96"/>
	<circle cx="654.492" cy="74.9627" r="4" fill="#0" id="circle97"/>
	<circle cx="663.362" cy="404.644" r="4" fill="#0" id="circle98"/>
	<circle cx="669.276" cy="80.8763" r="4" fill="#0" id="circle99"/>
	<circle cx="678.146" cy="397.252" r="4" fill="#0" id="circle100"/>
	<circle cx="682.581" cy="88.2683" r="4" fill="#0" id="circle101"/>
	<circle cx="692.93" cy="100.095" r="4" fill="#0" id="circle102"/>
	<circle cx="692.93" cy="389.86" r="4" fill="#0" id="circle103"/>
	<circle cx="704.757" cy="108.966" r="4" fill="#0" id="circle104"/>
	<circle cx="706.235" cy="382.468" r="4" fill="#0" id="circle105"/>
	<circle cx="718.063" cy="116.358" r="4" fill="#0" id="circle106"/>
	<circle cx="719.541" cy="375.076" r="4" fill="#0" id="circle107"/>
	<circle cx="729.89" cy="126.706" r="4" fill="#0" id="circle108"/>
	<circle cx="732.846" cy="366.206" r="4" fill="#0" id="circle109"/>
	<circle cx="740.238" cy="138.534" r="4" fill="#0" id="circle110"/>
	<circle cx="744.674" cy="345.508" r="4" fill="#0" id="circle111"/>
	<circle cx="752.066" cy="148.882" r="4" fill="#0" id="circle112"/>
	<circle cx="752.066" cy="330.724" r="4" fill="#0" id="circle113"/>
	<circle cx="762.414" cy="160.709" r="4" fill="#0" id="circle114"/>
	<circle cx="763.893" cy="320.376" r="4" fill="#0" id="circle115"/>
	<circle cx="769.806" cy="174.015" r="4" fill="#0" id="circle116"/>
	<circle cx="772.763" cy="308.548" r="4" fill="#0" id="circle117"/>
	<circle cx="780.155" cy="185.842" r="4" fill="#0" id="circle118"/>
	<circle cx="786.069" cy="301.156" r="4" fill="#0" id="circle119"/>
	<circle cx="787.547" cy="199.148" r="4" fill="#0" id="circle120"/>
	<circle cx="796.417" cy="210.975" r="4" fill="#0" id="circle121"/>
	<circle cx="800.852" cy="301.156" r="4" fill="#0" id="circle122"/>
	<circle cx="811.201" cy="210.975" r="4" fill="#0" id="circle123"/>
	<circle cx="815.636" cy="301.156" r="4" fill="#0" id="circle124"/>
	<circle cx="825.985" cy="210.975" r="4" fill="#0" id="circle125"/>
	<circle cx="830.42" cy="301.156" r="4" fill="#0" id="circle126"/>
	<circle cx="839.291" cy="203.583" r="4" fill="#0" id="circle127"/>
	<circle cx="843.726" cy="308.548" r="4" fill="#0" id="circle128"/>
	<circle cx="854.075" cy="203.583" r="4" fill="#0" id="circle129"/>
	<circle cx="855.553" cy="318.897" r="4" fill="#0" id="circle130"/>
	<circle cx="868.858" cy="200.626" r="4" fill="#0" id="circle131"/>
	<circle cx="870.337" cy="323.332" r="4" fill="#0" id="circle132"/>
	<circle cx="883.642" cy="196.191" r="4" fill="#0" id="circle133"/>
	<circle cx="883.642" cy="330.724" r="4" fill="#0" id="circle134"/>
	<circle cx="896.948" cy="188.799" r="4" fill="#0" id="circle135"/>
	<circle cx="896.948" cy="338.116" r="4" fill="#0" id="circle136"/>
	<circle cx="911.732" cy="188.799" r="4" fill="#0" id="circle137"/>
	<circle cx="911.732" cy="338.116" r="4" fill="#0" id="circle138"/>
	<circle cx="925.037" cy="345.508" r="4" fill="#0" id="circle139"/>
	<circle cx="926.516" cy="188.799" r="4" fill="#0" id="circle140"/>
	<circle cx="939.821" cy="181.407" r="4" fill="#0" id="circle141"/>
	<circle cx="939.821" cy="351.422" r="4" fill="#0" id="circle142"/>
	<circle cx="954.605" cy="181.407" r="4" fill="#0" id="circle143"/>
	<circle cx="954.605" cy="344.03" r="4" fill="#0" id="circle144"/>
	<circle cx="966.432" cy="323.332" r="4" fill="#0" id="circle145"/>
	<circle cx="967.911" cy="188.799" r="4" fill="#0" id="circle146"/>
	<circle cx="973.824" cy="203.583" r="4" fill="#0" id="circle147"/>
	<circle cx="978.259" cy="312.984" r="4" fill="#0" id="circle148"/>
	<circle cx="981.216" cy="216.888" r="4" fill="#0" id="circle149"/>
	<circle cx="985.651" cy="298.2" r="4" fill="#0" id="circle150"/>
	<circle cx="988.608" cy="230.194" r="4" fill="#0" id="circle151"/>
	<circle cx="993.043" cy="283.416" r="4" fill="#0" id="circle152"/>
	<circle cx="996" cy="243.499" r="4" fill="#0" id="circle153"/>
	<circle cx="996" cy="258.283" r="4" fill="#0" id="circle154"/>
	</g>
</svg>