<?xml version="1.0" encoding="UTF-8" standalone="no"?>
<!-- Created with CurveBenchmark -->
<svg
	xmlns:dc="http://purl.org/dc/elements/1.1/"
	xmlns:cc="http://creativecommons.org/ns#"
	xmlns:rdf="http://www.w3.org/1999/02/22-rdf-syntax-ns#"
	xmlns:svg="http://www.w3.org/2000/svg"
	xmlns="http://www.w3.org/2000/svg"
	xmlns:sodipodi="http://sodipodi.sourceforge.net/DTD/sodipodi-0.dtd"
	xmlns:inkscape="http://www.inkscape.org/namespaces/inkscape"
	width="1000"
	height="1000"
	id="svg2"
	version="1.1"
	sodipodi:docname="manifold/hnncrust-Bone09.png.txt">
<defs
	id="defs4" />
<metadata
	id="metadata7">
	<rdf:RDF>
		<cc:Work
			rdf:about="">
			<dc:format>image/svg+xml</dc:format>
			<dc:type
				rdf:resource="http://purl.org/dc/dcmitype/StillImage" />
			<dc:title></dc:title>
		</cc:Work>
	</rdf:RDF>
</metadata>
<g
	inkscape:label="Layer 1"
	inkscape:groupmode="layer"
	id="layer1">
	<path style="fill:none;stroke:red;stroke-width:1px;stroke-linecap:butt;stroke-linejoin:miter;stroke-opacity:1" d="M 4,813.174 4,830.102 z" id="boundary" inkscape:connector-curvature="0" />
	<path style="fill:none;stroke:red;stroke-width:1px;stroke-linecap:butt;stroke-linejoin:miter;stroke-opacity:1" d="M 4,813.174 12.4642,796.246 z" id="boundary" inkscape:connector-curvature="0" />
	<path style="fill:none;stroke:red;stroke-width:1px;stroke-linecap:butt;stroke-linejoin:miter;stroke-opacity:1" d="M 4,830.102 12.4642,845.338 z" id="boundary" inkscape:connector-curvature="0" />
	<path style="fill:none;stroke:red;stroke-width:1px;stroke-linecap:butt;stroke-linejoin:miter;stroke-opacity:1" d="M 12.4642,796.246 26.0068,782.703 z" id="boundary" inkscape:connector-curvature="0" />
	<path style="fill:none;stroke:red;stroke-width:1px;stroke-linecap:butt;stroke-linejoin:miter;stroke-opacity:1" d="M 12.4642,845.338 20.9283,860.573 z" id="boundary" inkscape:connector-curvature="0" />
	<path style="fill:none;stroke:red;stroke-width:1px;stroke-linecap:butt;stroke-linejoin:miter;stroke-opacity:1" d="M 20.9283,860.573 37.8567,863.959 z" id="boundary" inkscape:connector-curvature="0" />
	<path style="fill:none;stroke:red;stroke-width:1px;stroke-linecap:butt;stroke-linejoin:miter;stroke-opacity:1" d="M 26.0068,782.703 39.5495,769.16 z" id="boundary" inkscape:connector-curvature="0" />
	<path style="fill:none;stroke:red;stroke-width:1px;stroke-linecap:butt;stroke-linejoin:miter;stroke-opacity:1" d="M 37.8567,863.959 46.3208,847.031 z" id="boundary" inkscape:connector-curvature="0" />
	<path style="fill:none;stroke:red;stroke-width:1px;stroke-linecap:butt;stroke-linejoin:miter;stroke-opacity:1" d="M 39.5495,769.16 53.0922,757.311 z" id="boundary" inkscape:connector-curvature="0" />
	<path style="fill:none;stroke:red;stroke-width:1px;stroke-linecap:butt;stroke-linejoin:miter;stroke-opacity:1" d="M 46.3208,847.031 59.8635,833.488 z" id="boundary" inkscape:connector-curvature="0" />
	<path style="fill:none;stroke:red;stroke-width:1px;stroke-linecap:butt;stroke-linejoin:miter;stroke-opacity:1" d="M 53.0922,757.311 68.3276,748.846 z" id="boundary" inkscape:connector-curvature="0" />
	<path style="fill:none;stroke:red;stroke-width:1px;stroke-linecap:butt;stroke-linejoin:miter;stroke-opacity:1" d="M 59.8635,833.488 71.7133,847.031 z" id="boundary" inkscape:connector-curvature="0" />
	<path style="fill:none;stroke:red;stroke-width:1px;stroke-linecap:butt;stroke-linejoin:miter;stroke-opacity:1" d="M 68.3276,748.846 83.5631,757.311 z" id="boundary" inkscape:connector-curvature="0" />
	<path style="fill:none;stroke:red;stroke-width:1px;stroke-linecap:butt;stroke-linejoin:miter;stroke-opacity:1" d="M 71.7133,847.031 71.7133,863.959 z" id="boundary" inkscape:connector-curvature="0" />
	<path style="fill:none;stroke:red;stroke-width:1px;stroke-linecap:butt;stroke-linejoin:miter;stroke-opacity:1" d="M 71.7133,863.959 71.7133,880.887 z" id="boundary" inkscape:connector-curvature="0" />
	<path style="fill:none;stroke:red;stroke-width:1px;stroke-linecap:butt;stroke-linejoin:miter;stroke-opacity:1" d="M 71.7133,880.887 80.1775,896.123 z" id="boundary" inkscape:connector-curvature="0" />
	<path style="fill:none;stroke:red;stroke-width:1px;stroke-linecap:butt;stroke-linejoin:miter;stroke-opacity:1" d="M 80.1775,896.123 80.1775,913.051 z" id="boundary" inkscape:connector-curvature="0" />
	<path style="fill:none;stroke:red;stroke-width:1px;stroke-linecap:butt;stroke-linejoin:miter;stroke-opacity:1" d="M 80.1775,913.051 80.1775,929.98 z" id="boundary" inkscape:connector-curvature="0" />
	<path style="fill:none;stroke:red;stroke-width:1px;stroke-linecap:butt;stroke-linejoin:miter;stroke-opacity:1" d="M 80.1775,929.98 80.1775,946.908 z" id="boundary" inkscape:connector-curvature="0" />
	<path style="fill:none;stroke:red;stroke-width:1px;stroke-linecap:butt;stroke-linejoin:miter;stroke-opacity:1" d="M 80.1775,946.908 88.6416,962.143 z" id="boundary" inkscape:connector-curvature="0" />
	<path style="fill:none;stroke:red;stroke-width:1px;stroke-linecap:butt;stroke-linejoin:miter;stroke-opacity:1" d="M 83.5631,757.311 98.7986,765.775 z" id="boundary" inkscape:connector-curvature="0" />
	<path style="fill:none;stroke:red;stroke-width:1px;stroke-linecap:butt;stroke-linejoin:miter;stroke-opacity:1" d="M 88.6416,962.143 103.877,970.608 z" id="boundary" inkscape:connector-curvature="0" />
	<path style="fill:none;stroke:red;stroke-width:1px;stroke-linecap:butt;stroke-linejoin:miter;stroke-opacity:1" d="M 98.7986,765.775 115.727,770.853 z" id="boundary" inkscape:connector-curvature="0" />
	<path style="fill:none;stroke:red;stroke-width:1px;stroke-linecap:butt;stroke-linejoin:miter;stroke-opacity:1" d="M 103.877,970.608 119.113,979.072 z" id="boundary" inkscape:connector-curvature="0" />
	<path style="fill:none;stroke:red;stroke-width:1px;stroke-linecap:butt;stroke-linejoin:miter;stroke-opacity:1" d="M 115.727,770.853 132.655,774.239 z" id="boundary" inkscape:connector-curvature="0" />
	<path style="fill:none;stroke:red;stroke-width:1px;stroke-linecap:butt;stroke-linejoin:miter;stroke-opacity:1" d="M 119.113,979.072 136.041,985.843 z" id="boundary" inkscape:connector-curvature="0" />
	<path style="fill:none;stroke:red;stroke-width:1px;stroke-linecap:butt;stroke-linejoin:miter;stroke-opacity:1" d="M 132.655,774.239 147.891,782.703 z" id="boundary" inkscape:connector-curvature="0" />
	<path style="fill:none;stroke:red;stroke-width:1px;stroke-linecap:butt;stroke-linejoin:miter;stroke-opacity:1" d="M 136.041,985.843 152.969,987.536 z" id="boundary" inkscape:connector-curvature="0" />
	<path style="fill:none;stroke:red;stroke-width:1px;stroke-linecap:butt;stroke-linejoin:miter;stroke-opacity:1" d="M 147.891,782.703 164.819,770.853 z" id="boundary" inkscape:connector-curvature="0" />
	<path style="fill:none;stroke:red;stroke-width:1px;stroke-linecap:butt;stroke-linejoin:miter;stroke-opacity:1" d="M 152.969,987.536 168.205,996 z" id="boundary" inkscape:connector-curvature="0" />
	<path style="fill:none;stroke:red;stroke-width:1px;stroke-linecap:butt;stroke-linejoin:miter;stroke-opacity:1" d="M 164.819,770.853 173.283,753.925 z" id="boundary" inkscape:connector-curvature="0" />
	<path style="fill:none;stroke:red;stroke-width:1px;stroke-linecap:butt;stroke-linejoin:miter;stroke-opacity:1" d="M 168.205,996 183.44,987.536 z" id="boundary" inkscape:connector-curvature="0" />
	<path style="fill:none;stroke:red;stroke-width:1px;stroke-linecap:butt;stroke-linejoin:miter;stroke-opacity:1" d="M 173.283,753.925 186.826,740.382 z" id="boundary" inkscape:connector-curvature="0" />
	<path style="fill:none;stroke:red;stroke-width:1px;stroke-linecap:butt;stroke-linejoin:miter;stroke-opacity:1" d="M 183.44,987.536 198.676,979.072 z" id="boundary" inkscape:connector-curvature="0" />
	<path style="fill:none;stroke:red;stroke-width:1px;stroke-linecap:butt;stroke-linejoin:miter;stroke-opacity:1" d="M 186.826,740.382 198.676,720.068 z" id="boundary" inkscape:connector-curvature="0" />
	<path style="fill:none;stroke:red;stroke-width:1px;stroke-linecap:butt;stroke-linejoin:miter;stroke-opacity:1" d="M 198.676,720.068 207.14,703.14 z" id="boundary" inkscape:connector-curvature="0" />
	<path style="fill:none;stroke:red;stroke-width:1px;stroke-linecap:butt;stroke-linejoin:miter;stroke-opacity:1" d="M 198.676,979.072 212.218,968.915 z" id="boundary" inkscape:connector-curvature="0" />
	<path style="fill:none;stroke:red;stroke-width:1px;stroke-linecap:butt;stroke-linejoin:miter;stroke-opacity:1" d="M 207.14,703.14 220.683,689.597 z" id="boundary" inkscape:connector-curvature="0" />
	<path style="fill:none;stroke:red;stroke-width:1px;stroke-linecap:butt;stroke-linejoin:miter;stroke-opacity:1" d="M 212.218,968.915 225.761,953.679 z" id="boundary" inkscape:connector-curvature="0" />
	<path style="fill:none;stroke:red;stroke-width:1px;stroke-linecap:butt;stroke-linejoin:miter;stroke-opacity:1" d="M 220.683,689.597 232.532,669.283 z" id="boundary" inkscape:connector-curvature="0" />
	<path style="fill:none;stroke:red;stroke-width:1px;stroke-linecap:butt;stroke-linejoin:miter;stroke-opacity:1" d="M 225.761,826.717 225.761,843.645 z" id="boundary" inkscape:connector-curvature="0" />
	<path style="fill:none;stroke:red;stroke-width:1px;stroke-linecap:butt;stroke-linejoin:miter;stroke-opacity:1" d="M 225.761,826.717 234.225,809.788 z" id="boundary" inkscape:connector-curvature="0" />
	<path style="fill:none;stroke:red;stroke-width:1px;stroke-linecap:butt;stroke-linejoin:miter;stroke-opacity:1" d="M 225.761,843.645 234.225,858.881 z" id="boundary" inkscape:connector-curvature="0" />
	<path style="fill:none;stroke:red;stroke-width:1px;stroke-linecap:butt;stroke-linejoin:miter;stroke-opacity:1" d="M 225.761,953.679 239.304,941.829 z" id="boundary" inkscape:connector-curvature="0" />
	<path style="fill:none;stroke:red;stroke-width:1px;stroke-linecap:butt;stroke-linejoin:miter;stroke-opacity:1" d="M 232.532,669.283 240.997,652.355 z" id="boundary" inkscape:connector-curvature="0" />
	<path style="fill:none;stroke:red;stroke-width:1px;stroke-linecap:butt;stroke-linejoin:miter;stroke-opacity:1" d="M 234.225,809.788 242.689,792.86 z" id="boundary" inkscape:connector-curvature="0" />
	<path style="fill:none;stroke:red;stroke-width:1px;stroke-linecap:butt;stroke-linejoin:miter;stroke-opacity:1" d="M 234.225,858.881 234.225,875.809 z" id="boundary" inkscape:connector-curvature="0" />
	<path style="fill:none;stroke:red;stroke-width:1px;stroke-linecap:butt;stroke-linejoin:miter;stroke-opacity:1" d="M 234.225,875.809 234.225,892.737 z" id="boundary" inkscape:connector-curvature="0" />
	<path style="fill:none;stroke:red;stroke-width:1px;stroke-linecap:butt;stroke-linejoin:miter;stroke-opacity:1" d="M 234.225,892.737 242.689,907.973 z" id="boundary" inkscape:connector-curvature="0" />
	<path style="fill:none;stroke:red;stroke-width:1px;stroke-linecap:butt;stroke-linejoin:miter;stroke-opacity:1" d="M 239.304,941.829 242.689,924.901 z" id="boundary" inkscape:connector-curvature="0" />
	<path style="fill:none;stroke:red;stroke-width:1px;stroke-linecap:butt;stroke-linejoin:miter;stroke-opacity:1" d="M 240.997,652.355 254.539,638.812 z" id="boundary" inkscape:connector-curvature="0" />
	<path style="fill:none;stroke:red;stroke-width:1px;stroke-linecap:butt;stroke-linejoin:miter;stroke-opacity:1" d="M 242.689,792.86 256.232,781.01 z" id="boundary" inkscape:connector-curvature="0" />
	<path style="fill:none;stroke:red;stroke-width:1px;stroke-linecap:butt;stroke-linejoin:miter;stroke-opacity:1" d="M 242.689,907.973 242.689,924.901 z" id="boundary" inkscape:connector-curvature="0" />
	<path style="fill:none;stroke:red;stroke-width:1px;stroke-linecap:butt;stroke-linejoin:miter;stroke-opacity:1" d="M 254.539,638.812 266.389,618.498 z" id="boundary" inkscape:connector-curvature="0" />
	<path style="fill:none;stroke:red;stroke-width:1px;stroke-linecap:butt;stroke-linejoin:miter;stroke-opacity:1" d="M 256.232,781.01 268.082,767.468 z" id="boundary" inkscape:connector-curvature="0" />
	<path style="fill:none;stroke:red;stroke-width:1px;stroke-linecap:butt;stroke-linejoin:miter;stroke-opacity:1" d="M 266.389,618.498 274.853,601.57 z" id="boundary" inkscape:connector-curvature="0" />
	<path style="fill:none;stroke:red;stroke-width:1px;stroke-linecap:butt;stroke-linejoin:miter;stroke-opacity:1" d="M 268.082,767.468 276.546,750.539 z" id="boundary" inkscape:connector-curvature="0" />
	<path style="fill:none;stroke:red;stroke-width:1px;stroke-linecap:butt;stroke-linejoin:miter;stroke-opacity:1" d="M 274.853,601.57 288.396,588.027 z" id="boundary" inkscape:connector-curvature="0" />
	<path style="fill:none;stroke:red;stroke-width:1px;stroke-linecap:butt;stroke-linejoin:miter;stroke-opacity:1" d="M 276.546,750.539 285.01,733.611 z" id="boundary" inkscape:connector-curvature="0" />
	<path style="fill:none;stroke:red;stroke-width:1px;stroke-linecap:butt;stroke-linejoin:miter;stroke-opacity:1" d="M 285.01,733.611 298.553,721.761 z" id="boundary" inkscape:connector-curvature="0" />
	<path style="fill:none;stroke:red;stroke-width:1px;stroke-linecap:butt;stroke-linejoin:miter;stroke-opacity:1" d="M 288.396,588.027 296.86,571.099 z" id="boundary" inkscape:connector-curvature="0" />
	<path style="fill:none;stroke:red;stroke-width:1px;stroke-linecap:butt;stroke-linejoin:miter;stroke-opacity:1" d="M 296.86,571.099 305.324,554.171 z" id="boundary" inkscape:connector-curvature="0" />
	<path style="fill:none;stroke:red;stroke-width:1px;stroke-linecap:butt;stroke-linejoin:miter;stroke-opacity:1" d="M 298.553,721.761 307.017,704.833 z" id="boundary" inkscape:connector-curvature="0" />
	<path style="fill:none;stroke:red;stroke-width:1px;stroke-linecap:butt;stroke-linejoin:miter;stroke-opacity:1" d="M 305.324,554.171 317.174,533.857 z" id="boundary" inkscape:connector-curvature="0" />
	<path style="fill:none;stroke:red;stroke-width:1px;stroke-linecap:butt;stroke-linejoin:miter;stroke-opacity:1" d="M 307.017,704.833 318.867,691.29 z" id="boundary" inkscape:connector-curvature="0" />
	<path style="fill:none;stroke:red;stroke-width:1px;stroke-linecap:butt;stroke-linejoin:miter;stroke-opacity:1" d="M 317.174,533.857 330.717,520.314 z" id="boundary" inkscape:connector-curvature="0" />
	<path style="fill:none;stroke:red;stroke-width:1px;stroke-linecap:butt;stroke-linejoin:miter;stroke-opacity:1" d="M 318.867,691.29 327.331,674.362 z" id="boundary" inkscape:connector-curvature="0" />
	<path style="fill:none;stroke:red;stroke-width:1px;stroke-linecap:butt;stroke-linejoin:miter;stroke-opacity:1" d="M 327.331,674.362 335.795,657.433 z" id="boundary" inkscape:connector-curvature="0" />
	<path style="fill:none;stroke:red;stroke-width:1px;stroke-linecap:butt;stroke-linejoin:miter;stroke-opacity:1" d="M 330.717,520.314 339.181,503.386 z" id="boundary" inkscape:connector-curvature="0" />
	<path style="fill:none;stroke:red;stroke-width:1px;stroke-linecap:butt;stroke-linejoin:miter;stroke-opacity:1" d="M 335.795,657.433 349.338,645.584 z" id="boundary" inkscape:connector-curvature="0" />
	<path style="fill:none;stroke:red;stroke-width:1px;stroke-linecap:butt;stroke-linejoin:miter;stroke-opacity:1" d="M 339.181,503.386 347.645,486.457 z" id="boundary" inkscape:connector-curvature="0" />
	<path style="fill:none;stroke:red;stroke-width:1px;stroke-linecap:butt;stroke-linejoin:miter;stroke-opacity:1" d="M 347.645,486.457 361.188,472.915 z" id="boundary" inkscape:connector-curvature="0" />
	<path style="fill:none;stroke:red;stroke-width:1px;stroke-linecap:butt;stroke-linejoin:miter;stroke-opacity:1" d="M 349.338,645.584 357.802,628.655 z" id="boundary" inkscape:connector-curvature="0" />
	<path style="fill:none;stroke:red;stroke-width:1px;stroke-linecap:butt;stroke-linejoin:miter;stroke-opacity:1" d="M 357.802,628.655 369.652,606.648 z" id="boundary" inkscape:connector-curvature="0" />
	<path style="fill:none;stroke:red;stroke-width:1px;stroke-linecap:butt;stroke-linejoin:miter;stroke-opacity:1" d="M 361.188,472.915 369.652,455.986 z" id="boundary" inkscape:connector-curvature="0" />
	<path style="fill:none;stroke:red;stroke-width:1px;stroke-linecap:butt;stroke-linejoin:miter;stroke-opacity:1" d="M 369.652,455.986 378.116,439.058 z" id="boundary" inkscape:connector-curvature="0" />
	<path style="fill:none;stroke:red;stroke-width:1px;stroke-linecap:butt;stroke-linejoin:miter;stroke-opacity:1" d="M 369.652,606.648 378.116,589.72 z" id="boundary" inkscape:connector-curvature="0" />
	<path style="fill:none;stroke:red;stroke-width:1px;stroke-linecap:butt;stroke-linejoin:miter;stroke-opacity:1" d="M 378.116,439.058 391.659,427.208 z" id="boundary" inkscape:connector-curvature="0" />
	<path style="fill:none;stroke:red;stroke-width:1px;stroke-linecap:butt;stroke-linejoin:miter;stroke-opacity:1" d="M 378.116,589.72 391.659,577.87 z" id="boundary" inkscape:connector-curvature="0" />
	<path style="fill:none;stroke:red;stroke-width:1px;stroke-linecap:butt;stroke-linejoin:miter;stroke-opacity:1" d="M 391.659,427.208 398.43,410.28 z" id="boundary" inkscape:connector-curvature="0" />
	<path style="fill:none;stroke:red;stroke-width:1px;stroke-linecap:butt;stroke-linejoin:miter;stroke-opacity:1" d="M 391.659,577.87 403.509,564.328 z" id="boundary" inkscape:connector-curvature="0" />
	<path style="fill:none;stroke:red;stroke-width:1px;stroke-linecap:butt;stroke-linejoin:miter;stroke-opacity:1" d="M 398.43,410.28 411.973,396.737 z" id="boundary" inkscape:connector-curvature="0" />
	<path style="fill:none;stroke:red;stroke-width:1px;stroke-linecap:butt;stroke-linejoin:miter;stroke-opacity:1" d="M 403.509,564.328 417.051,552.478 z" id="boundary" inkscape:connector-curvature="0" />
	<path style="fill:none;stroke:red;stroke-width:1px;stroke-linecap:butt;stroke-linejoin:miter;stroke-opacity:1" d="M 411.973,396.737 420.437,379.809 z" id="boundary" inkscape:connector-curvature="0" />
	<path style="fill:none;stroke:red;stroke-width:1px;stroke-linecap:butt;stroke-linejoin:miter;stroke-opacity:1" d="M 417.051,552.478 425.515,535.549 z" id="boundary" inkscape:connector-curvature="0" />
	<path style="fill:none;stroke:red;stroke-width:1px;stroke-linecap:butt;stroke-linejoin:miter;stroke-opacity:1" d="M 420.437,379.809 428.901,362.881 z" id="boundary" inkscape:connector-curvature="0" />
	<path style="fill:none;stroke:red;stroke-width:1px;stroke-linecap:butt;stroke-linejoin:miter;stroke-opacity:1" d="M 425.515,535.549 433.98,518.621 z" id="boundary" inkscape:connector-curvature="0" />
	<path style="fill:none;stroke:red;stroke-width:1px;stroke-linecap:butt;stroke-linejoin:miter;stroke-opacity:1" d="M 428.901,362.881 442.444,351.031 z" id="boundary" inkscape:connector-curvature="0" />
	<path style="fill:none;stroke:red;stroke-width:1px;stroke-linecap:butt;stroke-linejoin:miter;stroke-opacity:1" d="M 433.98,518.621 445.829,496.614 z" id="boundary" inkscape:connector-curvature="0" />
	<path style="fill:none;stroke:red;stroke-width:1px;stroke-linecap:butt;stroke-linejoin:miter;stroke-opacity:1" d="M 442.444,351.031 449.215,334.102 z" id="boundary" inkscape:connector-curvature="0" />
	<path style="fill:none;stroke:red;stroke-width:1px;stroke-linecap:butt;stroke-linejoin:miter;stroke-opacity:1" d="M 445.829,496.614 459.372,484.765 z" id="boundary" inkscape:connector-curvature="0" />
	<path style="fill:none;stroke:red;stroke-width:1px;stroke-linecap:butt;stroke-linejoin:miter;stroke-opacity:1" d="M 449.215,334.102 457.679,317.174 z" id="boundary" inkscape:connector-curvature="0" />
	<path style="fill:none;stroke:red;stroke-width:1px;stroke-linecap:butt;stroke-linejoin:miter;stroke-opacity:1" d="M 457.679,317.174 469.529,296.86 z" id="boundary" inkscape:connector-curvature="0" />
	<path style="fill:none;stroke:red;stroke-width:1px;stroke-linecap:butt;stroke-linejoin:miter;stroke-opacity:1" d="M 459.372,484.765 467.836,467.836 z" id="boundary" inkscape:connector-curvature="0" />
	<path style="fill:none;stroke:red;stroke-width:1px;stroke-linecap:butt;stroke-linejoin:miter;stroke-opacity:1" d="M 467.836,467.836 476.3,450.908 z" id="boundary" inkscape:connector-curvature="0" />
	<path style="fill:none;stroke:red;stroke-width:1px;stroke-linecap:butt;stroke-linejoin:miter;stroke-opacity:1" d="M 469.529,296.86 477.993,279.932 z" id="boundary" inkscape:connector-curvature="0" />
	<path style="fill:none;stroke:red;stroke-width:1px;stroke-linecap:butt;stroke-linejoin:miter;stroke-opacity:1" d="M 476.3,450.908 488.15,437.365 z" id="boundary" inkscape:connector-curvature="0" />
	<path style="fill:none;stroke:red;stroke-width:1px;stroke-linecap:butt;stroke-linejoin:miter;stroke-opacity:1" d="M 477.993,279.932 491.536,266.389 z" id="boundary" inkscape:connector-curvature="0" />
	<path style="fill:none;stroke:red;stroke-width:1px;stroke-linecap:butt;stroke-linejoin:miter;stroke-opacity:1" d="M 488.15,437.365 496.614,420.437 z" id="boundary" inkscape:connector-curvature="0" />
	<path style="fill:none;stroke:red;stroke-width:1px;stroke-linecap:butt;stroke-linejoin:miter;stroke-opacity:1" d="M 491.536,266.389 500,249.461 z" id="boundary" inkscape:connector-curvature="0" />
	<path style="fill:none;stroke:red;stroke-width:1px;stroke-linecap:butt;stroke-linejoin:miter;stroke-opacity:1" d="M 496.614,420.437 510.157,408.587 z" id="boundary" inkscape:connector-curvature="0" />
	<path style="fill:none;stroke:red;stroke-width:1px;stroke-linecap:butt;stroke-linejoin:miter;stroke-opacity:1" d="M 500,249.461 511.85,229.147 z" id="boundary" inkscape:connector-curvature="0" />
	<path style="fill:none;stroke:red;stroke-width:1px;stroke-linecap:butt;stroke-linejoin:miter;stroke-opacity:1" d="M 503.386,76.7918 503.386,93.7201 z" id="boundary" inkscape:connector-curvature="0" />
	<path style="fill:none;stroke:red;stroke-width:1px;stroke-linecap:butt;stroke-linejoin:miter;stroke-opacity:1" d="M 503.386,76.7918 511.85,59.8635 z" id="boundary" inkscape:connector-curvature="0" />
	<path style="fill:none;stroke:red;stroke-width:1px;stroke-linecap:butt;stroke-linejoin:miter;stroke-opacity:1" d="M 503.386,93.7201 511.85,108.956 z" id="boundary" inkscape:connector-curvature="0" />
	<path style="fill:none;stroke:red;stroke-width:1px;stroke-linecap:butt;stroke-linejoin:miter;stroke-opacity:1" d="M 510.157,408.587 518.621,391.659 z" id="boundary" inkscape:connector-curvature="0" />
	<path style="fill:none;stroke:red;stroke-width:1px;stroke-linecap:butt;stroke-linejoin:miter;stroke-opacity:1" d="M 511.85,59.8635 525.392,46.3208 z" id="boundary" inkscape:connector-curvature="0" />
	<path style="fill:none;stroke:red;stroke-width:1px;stroke-linecap:butt;stroke-linejoin:miter;stroke-opacity:1" d="M 511.85,108.956 520.314,124.191 z" id="boundary" inkscape:connector-curvature="0" />
	<path style="fill:none;stroke:red;stroke-width:1px;stroke-linecap:butt;stroke-linejoin:miter;stroke-opacity:1" d="M 511.85,229.147 520.314,212.218 z" id="boundary" inkscape:connector-curvature="0" />
	<path style="fill:none;stroke:red;stroke-width:1px;stroke-linecap:butt;stroke-linejoin:miter;stroke-opacity:1" d="M 518.621,391.659 527.085,374.73 z" id="boundary" inkscape:connector-curvature="0" />
	<path style="fill:none;stroke:red;stroke-width:1px;stroke-linecap:butt;stroke-linejoin:miter;stroke-opacity:1" d="M 520.314,124.191 528.778,139.427 z" id="boundary" inkscape:connector-curvature="0" />
	<path style="fill:none;stroke:red;stroke-width:1px;stroke-linecap:butt;stroke-linejoin:miter;stroke-opacity:1" d="M 520.314,212.218 533.857,198.676 z" id="boundary" inkscape:connector-curvature="0" />
	<path style="fill:none;stroke:red;stroke-width:1px;stroke-linecap:butt;stroke-linejoin:miter;stroke-opacity:1" d="M 525.392,46.3208 538.935,32.7782 z" id="boundary" inkscape:connector-curvature="0" />
	<path style="fill:none;stroke:red;stroke-width:1px;stroke-linecap:butt;stroke-linejoin:miter;stroke-opacity:1" d="M 527.085,374.73 538.935,361.188 z" id="boundary" inkscape:connector-curvature="0" />
	<path style="fill:none;stroke:red;stroke-width:1px;stroke-linecap:butt;stroke-linejoin:miter;stroke-opacity:1" d="M 528.778,139.427 537.242,154.662 z" id="boundary" inkscape:connector-curvature="0" />
	<path style="fill:none;stroke:red;stroke-width:1px;stroke-linecap:butt;stroke-linejoin:miter;stroke-opacity:1" d="M 533.857,198.676 537.242,171.59 z" id="boundary" inkscape:connector-curvature="0" />
	<path style="fill:none;stroke:red;stroke-width:1px;stroke-linecap:butt;stroke-linejoin:miter;stroke-opacity:1" d="M 537.242,154.662 537.242,171.59 z" id="boundary" inkscape:connector-curvature="0" />
	<path style="fill:none;stroke:red;stroke-width:1px;stroke-linecap:butt;stroke-linejoin:miter;stroke-opacity:1" d="M 538.935,32.7782 552.478,20.9283 z" id="boundary" inkscape:connector-curvature="0" />
	<path style="fill:none;stroke:red;stroke-width:1px;stroke-linecap:butt;stroke-linejoin:miter;stroke-opacity:1" d="M 538.935,361.188 547.399,344.259 z" id="boundary" inkscape:connector-curvature="0" />
	<path style="fill:none;stroke:red;stroke-width:1px;stroke-linecap:butt;stroke-linejoin:miter;stroke-opacity:1" d="M 547.399,344.259 560.942,332.41 z" id="boundary" inkscape:connector-curvature="0" />
	<path style="fill:none;stroke:red;stroke-width:1px;stroke-linecap:butt;stroke-linejoin:miter;stroke-opacity:1" d="M 552.478,20.9283 564.328,7.38567 z" id="boundary" inkscape:connector-curvature="0" />
	<path style="fill:none;stroke:red;stroke-width:1px;stroke-linecap:butt;stroke-linejoin:miter;stroke-opacity:1" d="M 560.942,332.41 572.792,310.403 z" id="boundary" inkscape:connector-curvature="0" />
	<path style="fill:none;stroke:red;stroke-width:1px;stroke-linecap:butt;stroke-linejoin:miter;stroke-opacity:1" d="M 564.328,7.38567 581.256,4 z" id="boundary" inkscape:connector-curvature="0" />
	<path style="fill:none;stroke:red;stroke-width:1px;stroke-linecap:butt;stroke-linejoin:miter;stroke-opacity:1" d="M 572.792,310.403 586.334,298.553 z" id="boundary" inkscape:connector-curvature="0" />
	<path style="fill:none;stroke:red;stroke-width:1px;stroke-linecap:butt;stroke-linejoin:miter;stroke-opacity:1" d="M 581.256,4 598.184,4 z" id="boundary" inkscape:connector-curvature="0" />
	<path style="fill:none;stroke:red;stroke-width:1px;stroke-linecap:butt;stroke-linejoin:miter;stroke-opacity:1" d="M 586.334,298.553 594.799,281.625 z" id="boundary" inkscape:connector-curvature="0" />
	<path style="fill:none;stroke:red;stroke-width:1px;stroke-linecap:butt;stroke-linejoin:miter;stroke-opacity:1" d="M 594.799,281.625 603.263,264.696 z" id="boundary" inkscape:connector-curvature="0" />
	<path style="fill:none;stroke:red;stroke-width:1px;stroke-linecap:butt;stroke-linejoin:miter;stroke-opacity:1" d="M 598.184,4 615.113,4 z" id="boundary" inkscape:connector-curvature="0" />
	<path style="fill:none;stroke:red;stroke-width:1px;stroke-linecap:butt;stroke-linejoin:miter;stroke-opacity:1" d="M 603.263,264.696 615.113,242.689 z" id="boundary" inkscape:connector-curvature="0" />
	<path style="fill:none;stroke:red;stroke-width:1px;stroke-linecap:butt;stroke-linejoin:miter;stroke-opacity:1" d="M 615.113,4 632.041,4 z" id="boundary" inkscape:connector-curvature="0" />
	<path style="fill:none;stroke:red;stroke-width:1px;stroke-linecap:butt;stroke-linejoin:miter;stroke-opacity:1" d="M 615.113,242.689 632.041,234.225 z" id="boundary" inkscape:connector-curvature="0" />
	<path style="fill:none;stroke:red;stroke-width:1px;stroke-linecap:butt;stroke-linejoin:miter;stroke-opacity:1" d="M 632.041,4 648.969,4 z" id="boundary" inkscape:connector-curvature="0" />
	<path style="fill:none;stroke:red;stroke-width:1px;stroke-linecap:butt;stroke-linejoin:miter;stroke-opacity:1" d="M 632.041,234.225 648.969,234.225 z" id="boundary" inkscape:connector-curvature="0" />
	<path style="fill:none;stroke:red;stroke-width:1px;stroke-linecap:butt;stroke-linejoin:miter;stroke-opacity:1" d="M 648.969,4 662.512,14.157 z" id="boundary" inkscape:connector-curvature="0" />
	<path style="fill:none;stroke:red;stroke-width:1px;stroke-linecap:butt;stroke-linejoin:miter;stroke-opacity:1" d="M 648.969,234.225 664.205,242.689 z" id="boundary" inkscape:connector-curvature="0" />
	<path style="fill:none;stroke:red;stroke-width:1px;stroke-linecap:butt;stroke-linejoin:miter;stroke-opacity:1" d="M 662.512,14.157 674.362,27.6997 z" id="boundary" inkscape:connector-curvature="0" />
	<path style="fill:none;stroke:red;stroke-width:1px;stroke-linecap:butt;stroke-linejoin:miter;stroke-opacity:1" d="M 664.205,242.689 679.44,251.154 z" id="boundary" inkscape:connector-curvature="0" />
	<path style="fill:none;stroke:red;stroke-width:1px;stroke-linecap:butt;stroke-linejoin:miter;stroke-opacity:1" d="M 674.362,27.6997 674.362,44.628 z" id="boundary" inkscape:connector-curvature="0" />
	<path style="fill:none;stroke:red;stroke-width:1px;stroke-linecap:butt;stroke-linejoin:miter;stroke-opacity:1" d="M 674.362,44.628 674.362,61.5563 z" id="boundary" inkscape:connector-curvature="0" />
	<path style="fill:none;stroke:red;stroke-width:1px;stroke-linecap:butt;stroke-linejoin:miter;stroke-opacity:1" d="M 674.362,61.5563 682.826,76.7918 z" id="boundary" inkscape:connector-curvature="0" />
	<path style="fill:none;stroke:red;stroke-width:1px;stroke-linecap:butt;stroke-linejoin:miter;stroke-opacity:1" d="M 679.44,251.154 696.369,251.154 z" id="boundary" inkscape:connector-curvature="0" />
	<path style="fill:none;stroke:red;stroke-width:1px;stroke-linecap:butt;stroke-linejoin:miter;stroke-opacity:1" d="M 682.826,76.7918 689.597,93.7201 z" id="boundary" inkscape:connector-curvature="0" />
	<path style="fill:none;stroke:red;stroke-width:1px;stroke-linecap:butt;stroke-linejoin:miter;stroke-opacity:1" d="M 689.597,93.7201 691.29,110.648 z" id="boundary" inkscape:connector-curvature="0" />
	<path style="fill:none;stroke:red;stroke-width:1px;stroke-linecap:butt;stroke-linejoin:miter;stroke-opacity:1" d="M 691.29,110.648 699.754,125.884 z" id="boundary" inkscape:connector-curvature="0" />
	<path style="fill:none;stroke:red;stroke-width:1px;stroke-linecap:butt;stroke-linejoin:miter;stroke-opacity:1" d="M 696.369,251.154 713.297,251.154 z" id="boundary" inkscape:connector-curvature="0" />
	<path style="fill:none;stroke:red;stroke-width:1px;stroke-linecap:butt;stroke-linejoin:miter;stroke-opacity:1" d="M 699.754,125.884 704.833,142.812 z" id="boundary" inkscape:connector-curvature="0" />
	<path style="fill:none;stroke:red;stroke-width:1px;stroke-linecap:butt;stroke-linejoin:miter;stroke-opacity:1" d="M 704.833,142.812 708.218,159.741 z" id="boundary" inkscape:connector-curvature="0" />
	<path style="fill:none;stroke:red;stroke-width:1px;stroke-linecap:butt;stroke-linejoin:miter;stroke-opacity:1" d="M 708.218,159.741 718.375,173.283 z" id="boundary" inkscape:connector-curvature="0" />
	<path style="fill:none;stroke:red;stroke-width:1px;stroke-linecap:butt;stroke-linejoin:miter;stroke-opacity:1" d="M 713.297,251.154 728.532,259.618 z" id="boundary" inkscape:connector-curvature="0" />
	<path style="fill:none;stroke:red;stroke-width:1px;stroke-linecap:butt;stroke-linejoin:miter;stroke-opacity:1" d="M 718.375,173.283 731.918,161.433 z" id="boundary" inkscape:connector-curvature="0" />
	<path style="fill:none;stroke:red;stroke-width:1px;stroke-linecap:butt;stroke-linejoin:miter;stroke-opacity:1" d="M 728.532,259.618 745.461,259.618 z" id="boundary" inkscape:connector-curvature="0" />
	<path style="fill:none;stroke:red;stroke-width:1px;stroke-linecap:butt;stroke-linejoin:miter;stroke-opacity:1" d="M 731.918,161.433 740.382,144.505 z" id="boundary" inkscape:connector-curvature="0" />
	<path style="fill:none;stroke:red;stroke-width:1px;stroke-linecap:butt;stroke-linejoin:miter;stroke-opacity:1" d="M 740.382,144.505 748.846,127.577 z" id="boundary" inkscape:connector-curvature="0" />
	<path style="fill:none;stroke:red;stroke-width:1px;stroke-linecap:butt;stroke-linejoin:miter;stroke-opacity:1" d="M 745.461,259.618 762.389,257.925 z" id="boundary" inkscape:connector-curvature="0" />
	<path style="fill:none;stroke:red;stroke-width:1px;stroke-linecap:butt;stroke-linejoin:miter;stroke-opacity:1" d="M 748.846,127.577 762.389,114.034 z" id="boundary" inkscape:connector-curvature="0" />
	<path style="fill:none;stroke:red;stroke-width:1px;stroke-linecap:butt;stroke-linejoin:miter;stroke-opacity:1" d="M 762.389,114.034 779.317,114.034 z" id="boundary" inkscape:connector-curvature="0" />
	<path style="fill:none;stroke:red;stroke-width:1px;stroke-linecap:butt;stroke-linejoin:miter;stroke-opacity:1" d="M 762.389,257.925 770.853,240.997 z" id="boundary" inkscape:connector-curvature="0" />
	<path style="fill:none;stroke:red;stroke-width:1px;stroke-linecap:butt;stroke-linejoin:miter;stroke-opacity:1" d="M 770.853,240.997 784.396,225.761 z" id="boundary" inkscape:connector-curvature="0" />
	<path style="fill:none;stroke:red;stroke-width:1px;stroke-linecap:butt;stroke-linejoin:miter;stroke-opacity:1" d="M 779.317,114.034 791.167,127.577 z" id="boundary" inkscape:connector-curvature="0" />
	<path style="fill:none;stroke:red;stroke-width:1px;stroke-linecap:butt;stroke-linejoin:miter;stroke-opacity:1" d="M 784.396,225.761 792.86,208.833 z" id="boundary" inkscape:connector-curvature="0" />
	<path style="fill:none;stroke:red;stroke-width:1px;stroke-linecap:butt;stroke-linejoin:miter;stroke-opacity:1" d="M 791.167,127.577 799.631,142.812 z" id="boundary" inkscape:connector-curvature="0" />
	<path style="fill:none;stroke:red;stroke-width:1px;stroke-linecap:butt;stroke-linejoin:miter;stroke-opacity:1" d="M 792.86,208.833 806.403,196.983 z" id="boundary" inkscape:connector-curvature="0" />
	<path style="fill:none;stroke:red;stroke-width:1px;stroke-linecap:butt;stroke-linejoin:miter;stroke-opacity:1" d="M 799.631,142.812 801.324,159.741 z" id="boundary" inkscape:connector-curvature="0" />
	<path style="fill:none;stroke:red;stroke-width:1px;stroke-linecap:butt;stroke-linejoin:miter;stroke-opacity:1" d="M 801.324,159.741 809.788,174.976 z" id="boundary" inkscape:connector-curvature="0" />
	<path style="fill:none;stroke:red;stroke-width:1px;stroke-linecap:butt;stroke-linejoin:miter;stroke-opacity:1" d="M 806.403,196.983 809.788,174.976 z" id="boundary" inkscape:connector-curvature="0" />
	<circle cx="4" cy="813.174" r="4" fill="#0" id="circle0"/>
	<circle cx="4" cy="830.102" r="4" fill="#0" id="circle1"/>
	<circle cx="12.4642" cy="796.246" r="4" fill="#0" id="circle2"/>
	<circle cx="12.4642" cy="845.338" r="4" fill="#0" id="circle3"/>
	<circle cx="20.9283" cy="860.573" r="4" fill="#0" id="circle4"/>
	<circle cx="26.0068" cy="782.703" r="4" fill="#0" id="circle5"/>
	<circle cx="37.8567" cy="863.959" r="4" fill="#0" id="circle6"/>
	<circle cx="39.5495" cy="769.16" r="4" fill="#0" id="circle7"/>
	<circle cx="46.3208" cy="847.031" r="4" fill="#0" id="circle8"/>
	<circle cx="53.0922" cy="757.311" r="4" fill="#0" id="circle9"/>
	<circle cx="59.8635" cy="833.488" r="4" fill="#0" id="circle10"/>
	<circle cx="68.3276" cy="748.846" r="4" fill="#0" id="circle11"/>
	<circle cx="71.7133" cy="847.031" r="4" fill="#0" id="circle12"/>
	<circle cx="71.7133" cy="863.959" r="4" fill="#0" id="circle13"/>
	<circle cx="71.7133" cy="880.887" r="4" fill="#0" id="circle14"/>
	<circle cx="80.1775" cy="896.123" r="4" fill="#0" id="circle15"/>
	<circle cx="80.1775" cy="913.051" r="4" fill="#0" id="circle16"/>
	<circle cx="80.1775" cy="929.98" r="4" fill="#0" id="circle17"/>
	<circle cx="80.1775" cy="946.908" r="4" fill="#0" id="circle18"/>
	<circle cx="83.5631" cy="757.311" r="4" fill="#0" id="circle19"/>
	<circle cx="88.6416" cy="962.143" r="4" fill="#0" id="circle20"/>
	<circle cx="98.7986" cy="765.775" r="4" fill="#0" id="circle21"/>
	<circle cx="103.877" cy="970.608" r="4" fill="#0" id="circle22"/>
	<circle cx="115.727" cy="770.853" r="4" fill="#0" id="circle23"/>
	<circle cx="119.113" cy="979.072" r="4" fill="#0" id="circle24"/>
	<circle cx="132.655" cy="774.239" r="4" fill="#0" id="circle25"/>
	<circle cx="136.041" cy="985.843" r="4" fill="#0" id="circle26"/>
	<circle cx="147.891" cy="782.703" r="4" fill="#0" id="circle27"/>
	<circle cx="152.969" cy="987.536" r="4" fill="#0" id="circle28"/>
	<circle cx="164.819" cy="770.853" r="4" fill="#0" id="circle29"/>
	<circle cx="168.205" cy="996" r="4" fill="#0" id="circle30"/>
	<circle cx="173.283" cy="753.925" r="4" fill="#0" id="circle31"/>
	<circle cx="183.44" cy="987.536" r="4" fill="#0" id="circle32"/>
	<circle cx="186.826" cy="740.382" r="4" fill="#0" id="circle33"/>
	<circle cx="198.676" cy="720.068" r="4" fill="#0" id="circle34"/>
	<circle cx="198.676" cy="979.072" r="4" fill="#0" id="circle35"/>
	<circle cx="207.14" cy="703.14" r="4" fill="#0" id="circle36"/>
	<circle cx="212.218" cy="968.915" r="4" fill="#0" id="circle37"/>
	<circle cx="220.683" cy="689.597" r="4" fill="#0" id="circle38"/>
	<circle cx="225.761" cy="826.717" r="4" fill="#0" id="circle39"/>
	<circle cx="225.761" cy="843.645" r="4" fill="#0" id="circle40"/>
	<circle cx="225.761" cy="953.679" r="4" fill="#0" id="circle41"/>
	<circle cx="232.532" cy="669.283" r="4" fill="#0" id="circle42"/>
	<circle cx="234.225" cy="809.788" r="4" fill="#0" id="circle43"/>
	<circle cx="234.225" cy="858.881" r="4" fill="#0" id="circle44"/>
	<circle cx="234.225" cy="875.809" r="4" fill="#0" id="circle45"/>
	<circle cx="234.225" cy="892.737" r="4" fill="#0" id="circle46"/>
	<circle cx="239.304" cy="941.829" r="4" fill="#0" id="circle47"/>
	<circle cx="240.997" cy="652.355" r="4" fill="#0" id="circle48"/>
	<circle cx="242.689" cy="792.86" r="4" fill="#0" id="circle49"/>
	<circle cx="242.689" cy="907.973" r="4" fill="#0" id="circle50"/>
	<circle cx="242.689" cy="924.901" r="4" fill="#0" id="circle51"/>
	<circle cx="254.539" cy="638.812" r="4" fill="#0" id="circle52"/>
	<circle cx="256.232" cy="781.01" r="4" fill="#0" id="circle53"/>
	<circle cx="266.389" cy="618.498" r="4" fill="#0" id="circle54"/>
	<circle cx="268.082" cy="767.468" r="4" fill="#0" id="circle55"/>
	<circle cx="274.853" cy="601.57" r="4" fill="#0" id="circle56"/>
	<circle cx="276.546" cy="750.539" r="4" fill="#0" id="circle57"/>
	<circle cx="285.01" cy="733.611" r="4" fill="#0" id="circle58"/>
	<circle cx="288.396" cy="588.027" r="4" fill="#0" id="circle59"/>
	<circle cx="296.86" cy="571.099" r="4" fill="#0" id="circle60"/>
	<circle cx="298.553" cy="721.761" r="4" fill="#0" id="circle61"/>
	<circle cx="305.324" cy="554.171" r="4" fill="#0" id="circle62"/>
	<circle cx="307.017" cy="704.833" r="4" fill="#0" id="circle63"/>
	<circle cx="317.174" cy="533.857" r="4" fill="#0" id="circle64"/>
	<circle cx="318.867" cy="691.29" r="4" fill="#0" id="circle65"/>
	<circle cx="327.331" cy="674.362" r="4" fill="#0" id="circle66"/>
	<circle cx="330.717" cy="520.314" r="4" fill="#0" id="circle67"/>
	<circle cx="335.795" cy="657.433" r="4" fill="#0" id="circle68"/>
	<circle cx="339.181" cy="503.386" r="4" fill="#0" id="circle69"/>
	<circle cx="347.645" cy="486.457" r="4" fill="#0" id="circle70"/>
	<circle cx="349.338" cy="645.584" r="4" fill="#0" id="circle71"/>
	<circle cx="357.802" cy="628.655" r="4" fill="#0" id="circle72"/>
	<circle cx="361.188" cy="472.915" r="4" fill="#0" id="circle73"/>
	<circle cx="369.652" cy="455.986" r="4" fill="#0" id="circle74"/>
	<circle cx="369.652" cy="606.648" r="4" fill="#0" id="circle75"/>
	<circle cx="378.116" cy="439.058" r="4" fill="#0" id="circle76"/>
	<circle cx="378.116" cy="589.72" r="4" fill="#0" id="circle77"/>
	<circle cx="391.659" cy="427.208" r="4" fill="#0" id="circle78"/>
	<circle cx="391.659" cy="577.87" r="4" fill="#0" id="circle79"/>
	<circle cx="398.43" cy="410.28" r="4" fill="#0" id="circle80"/>
	<circle cx="403.509" cy="564.328" r="4" fill="#0" id="circle81"/>
	<circle cx="411.973" cy="396.737" r="4" fill="#0" id="circle82"/>
	<circle cx="417.051" cy="552.478" r="4" fill="#0" id="circle83"/>
	<circle cx="420.437" cy="379.809" r="4" fill="#0" id="circle84"/>
	<circle cx="425.515" cy="535.549" r="4" fill="#0" id="circle85"/>
	<circle cx="428.901" cy="362.881" r="4" fill="#0" id="circle86"/>
	<circle cx="433.98" cy="518.621" r="4" fill="#0" id="circle87"/>
	<circle cx="442.444" cy="351.031" r="4" fill="#0" id="circle88"/>
	<circle cx="445.829" cy="496.614" r="4" fill="#0" id="circle89"/>
	<circle cx="449.215" cy="334.102" r="4" fill="#0" id="circle90"/>
	<circle cx="457.679" cy="317.174" r="4" fill="#0" id="circle91"/>
	<circle cx="459.372" cy="484.765" r="4" fill="#0" id="circle92"/>
	<circle cx="467.836" cy="467.836" r="4" fill="#0" id="circle93"/>
	<circle cx="469.529" cy="296.86" r="4" fill="#0" id="circle94"/>
	<circle cx="476.3" cy="450.908" r="4" fill="#0" id="circle95"/>
	<circle cx="477.993" cy="279.932" r="4" fill="#0" id="circle96"/>
	<circle cx="488.15" cy="437.365" r="4" fill="#0" id="circle97"/>
	<circle cx="491.536" cy="266.389" r="4" fill="#0" id="circle98"/>
	<circle cx="496.614" cy="420.437" r="4" fill="#0" id="circle99"/>
	<circle cx="500" cy="249.461" r="4" fill="#0" id="circle100"/>
	<circle cx="503.386" cy="76.7918" r="4" fill="#0" id="circle101"/>
	<circle cx="503.386" cy="93.7201" r="4" fill="#0" id="circle102"/>
	<circle cx="510.157" cy="408.587" r="4" fill="#0" id="circle103"/>
	<circle cx="511.85" cy="59.8635" r="4" fill="#0" id="circle104"/>
	<circle cx="511.85" cy="108.956" r="4" fill="#0" id="circle105"/>
	<circle cx="511.85" cy="229.147" r="4" fill="#0" id="circle106"/>
	<circle cx="518.621" cy="391.659" r="4" fill="#0" id="circle107"/>
	<circle cx="520.314" cy="124.191" r="4" fill="#0" id="circle108"/>
	<circle cx="520.314" cy="212.218" r="4" fill="#0" id="circle109"/>
	<circle cx="525.392" cy="46.3208" r="4" fill="#0" id="circle110"/>
	<circle cx="527.085" cy="374.73" r="4" fill="#0" id="circle111"/>
	<circle cx="528.778" cy="139.427" r="4" fill="#0" id="circle112"/>
	<circle cx="533.857" cy="198.676" r="4" fill="#0" id="circle113"/>
	<circle cx="537.242" cy="154.662" r="4" fill="#0" id="circle114"/>
	<circle cx="537.242" cy="171.59" r="4" fill="#0" id="circle115"/>
	<circle cx="538.935" cy="32.7782" r="4" fill="#0" id="circle116"/>
	<circle cx="538.935" cy="361.188" r="4" fill="#0" id="circle117"/>
	<circle cx="547.399" cy="344.259" r="4" fill="#0" id="circle118"/>
	<circle cx="552.478" cy="20.9283" r="4" fill="#0" id="circle119"/>
	<circle cx="560.942" cy="332.41" r="4" fill="#0" id="circle120"/>
	<circle cx="564.328" cy="7.38567" r="4" fill="#0" id="circle121"/>
	<circle cx="572.792" cy="310.403" r="4" fill="#0" id="circle122"/>
	<circle cx="581.256" cy="4" r="4" fill="#0" id="circle123"/>
	<circle cx="586.334" cy="298.553" r="4" fill="#0" id="circle124"/>
	<circle cx="594.799" cy="281.625" r="4" fill="#0" id="circle125"/>
	<circle cx="598.184" cy="4" r="4" fill="#0" id="circle126"/>
	<circle cx="603.263" cy="264.696" r="4" fill="#0" id="circle127"/>
	<circle cx="615.113" cy="4" r="4" fill="#0" id="circle128"/>
	<circle cx="615.113" cy="242.689" r="4" fill="#0" id="circle129"/>
	<circle cx="632.041" cy="4" r="4" fill="#0" id="circle130"/>
	<circle cx="632.041" cy="234.225" r="4" fill="#0" id="circle131"/>
	<circle cx="648.969" cy="4" r="4" fill="#0" id="circle132"/>
	<circle cx="648.969" cy="234.225" r="4" fill="#0" id="circle133"/>
	<circle cx="662.512" cy="14.157" r="4" fill="#0" id="circle134"/>
	<circle cx="664.205" cy="242.689" r="4" fill="#0" id="circle135"/>
	<circle cx="674.362" cy="27.6997" r="4" fill="#0" id="circle136"/>
	<circle cx="674.362" cy="44.628" r="4" fill="#0" id="circle137"/>
	<circle cx="674.362" cy="61.5563" r="4" fill="#0" id="circle138"/>
	<circle cx="679.44" cy="251.154" r="4" fill="#0" id="circle139"/>
	<circle cx="682.826" cy="76.7918" r="4" fill="#0" id="circle140"/>
	<circle cx="689.597" cy="93.7201" r="4" fill="#0" id="circle141"/>
	<circle cx="691.29" cy="110.648" r="4" fill="#0" id="circle142"/>
	<circle cx="696.369" cy="251.154" r="4" fill="#0" id="circle143"/>
	<circle cx="699.754" cy="125.884" r="4" fill="#0" id="circle144"/>
	<circle cx="704.833" cy="142.812" r="4" fill="#0" id="circle145"/>
	<circle cx="708.218" cy="159.741" r="4" fill="#0" id="circle146"/>
	<circle cx="713.297" cy="251.154" r="4" fill="#0" id="circle147"/>
	<circle cx="718.375" cy="173.283" r="4" fill="#0" id="circle148"/>
	<circle cx="728.532" cy="259.618" r="4" fill="#0" id="circle149"/>
	<circle cx="731.918" cy="161.433" r="4" fill="#0" id="circle150"/>
	<circle cx="740.382" cy="144.505" r="4" fill="#0" id="circle151"/>
	<circle cx="745.461" cy="259.618" r="4" fill="#0" id="circle152"/>
	<circle cx="748.846" cy="127.577" r="4" fill="#0" id="circle153"/>
	<circle cx="762.389" cy="114.034" r="4" fill="#0" id="circle154"/>
	<circle cx="762.389" cy="257.925" r="4" fill="#0" id="circle155"/>
	<circle cx="770.853" cy="240.997" r="4" fill="#0" id="circle156"/>
	<circle cx="779.317" cy="114.034" r="4" fill="#0" id="circle157"/>
	<circle cx="784.396" cy="225.761" r="4" fill="#0" id="circle158"/>
	<circle cx="791.167" cy="127.577" r="4" fill="#0" id="circle159"/>
	<circle cx="792.86" cy="208.833" r="4" fill="#0" id="circle160"/>
	<circle cx="799.631" cy="142.812" r="4" fill="#0" id="circle161"/>
	<circle cx="801.324" cy="159.741" r="4" fill="#0" id="circle162"/>
	<circle cx="806.403" cy="196.983" r="4" fill="#0" id="circle163"/>
	<circle cx="809.788" cy="174.976" r="4" fill="#0" id="circle164"/>
	</g>
</svg>