<?xml version="1.0" encoding="UTF-8" standalone="no"?>
<!-- Created with CurveBenchmark -->
<svg
	xmlns:dc="http://purl.org/dc/elements/1.1/"
	xmlns:cc="http://creativecommons.org/ns#"
	xmlns:rdf="http://www.w3.org/1999/02/22-rdf-syntax-ns#"
	xmlns:svg="http://www.w3.org/2000/svg"
	xmlns="http://www.w3.org/2000/svg"
	xmlns:sodipodi="http://sodipodi.sourceforge.net/DTD/sodipodi-0.dtd"
	xmlns:inkscape="http://www.inkscape.org/namespaces/inkscape"
	width="1000"
	height="1000"
	id="svg2"
	version="1.1"
	sodipodi:docname="manifold/hnncrust-teddy085.png.txt">
<defs
	id="defs4" />
<metadata
	id="metadata7">
	<rdf:RDF>
		<cc:Work
			rdf:about="">
			<dc:format>image/svg+xml</dc:format>
			<dc:type
				rdf:resource="http://purl.org/dc/dcmitype/StillImage" />
			<dc:title></dc:title>
		</cc:Work>
	</rdf:RDF>
</metadata>
<g
	inkscape:label="Layer 1"
	inkscape:groupmode="layer"
	id="layer1">
	<path style="fill:none;stroke:red;stroke-width:1px;stroke-linecap:butt;stroke-linejoin:miter;stroke-opacity:1" d="M 4,490.108 4,518.37 z" id="boundary" inkscape:connector-curvature="0" />
	<path style="fill:none;stroke:red;stroke-width:1px;stroke-linecap:butt;stroke-linejoin:miter;stroke-opacity:1" d="M 4,490.108 18.1311,464.672 z" id="boundary" inkscape:connector-curvature="0" />
	<path style="fill:none;stroke:red;stroke-width:1px;stroke-linecap:butt;stroke-linejoin:miter;stroke-opacity:1" d="M 4,518.37 4,546.632 z" id="boundary" inkscape:connector-curvature="0" />
	<path style="fill:none;stroke:red;stroke-width:1px;stroke-linecap:butt;stroke-linejoin:miter;stroke-opacity:1" d="M 4,546.632 12.4786,574.895 z" id="boundary" inkscape:connector-curvature="0" />
	<path style="fill:none;stroke:red;stroke-width:1px;stroke-linecap:butt;stroke-linejoin:miter;stroke-opacity:1" d="M 12.4786,574.895 29.4359,597.504 z" id="boundary" inkscape:connector-curvature="0" />
	<path style="fill:none;stroke:red;stroke-width:1px;stroke-linecap:butt;stroke-linejoin:miter;stroke-opacity:1" d="M 18.1311,464.672 35.0883,442.063 z" id="boundary" inkscape:connector-curvature="0" />
	<path style="fill:none;stroke:red;stroke-width:1px;stroke-linecap:butt;stroke-linejoin:miter;stroke-opacity:1" d="M 29.4359,597.504 46.3932,620.114 z" id="boundary" inkscape:connector-curvature="0" />
	<path style="fill:none;stroke:red;stroke-width:1px;stroke-linecap:butt;stroke-linejoin:miter;stroke-opacity:1" d="M 35.0883,442.063 57.698,419.453 z" id="boundary" inkscape:connector-curvature="0" />
	<path style="fill:none;stroke:red;stroke-width:1px;stroke-linecap:butt;stroke-linejoin:miter;stroke-opacity:1" d="M 46.3932,620.114 69.0028,637.071 z" id="boundary" inkscape:connector-curvature="0" />
	<path style="fill:none;stroke:red;stroke-width:1px;stroke-linecap:butt;stroke-linejoin:miter;stroke-opacity:1" d="M 54.8718,60.5242 54.8718,88.7863 z" id="boundary" inkscape:connector-curvature="0" />
	<path style="fill:none;stroke:red;stroke-width:1px;stroke-linecap:butt;stroke-linejoin:miter;stroke-opacity:1" d="M 54.8718,60.5242 69.0028,35.0883 z" id="boundary" inkscape:connector-curvature="0" />
	<path style="fill:none;stroke:red;stroke-width:1px;stroke-linecap:butt;stroke-linejoin:miter;stroke-opacity:1" d="M 54.8718,88.7863 60.5242,117.048 z" id="boundary" inkscape:connector-curvature="0" />
	<path style="fill:none;stroke:red;stroke-width:1px;stroke-linecap:butt;stroke-linejoin:miter;stroke-opacity:1" d="M 57.698,419.453 80.3077,402.496 z" id="boundary" inkscape:connector-curvature="0" />
	<path style="fill:none;stroke:red;stroke-width:1px;stroke-linecap:butt;stroke-linejoin:miter;stroke-opacity:1" d="M 60.5242,117.048 71.8291,145.311 z" id="boundary" inkscape:connector-curvature="0" />
	<path style="fill:none;stroke:red;stroke-width:1px;stroke-linecap:butt;stroke-linejoin:miter;stroke-opacity:1" d="M 60.5242,196.182 60.5242,224.444 z" id="boundary" inkscape:connector-curvature="0" />
	<path style="fill:none;stroke:red;stroke-width:1px;stroke-linecap:butt;stroke-linejoin:miter;stroke-opacity:1" d="M 60.5242,196.182 71.8291,145.311 z" id="boundary" inkscape:connector-curvature="0" />
	<path style="fill:none;stroke:red;stroke-width:1px;stroke-linecap:butt;stroke-linejoin:miter;stroke-opacity:1" d="M 60.5242,224.444 60.5242,252.707 z" id="boundary" inkscape:connector-curvature="0" />
	<path style="fill:none;stroke:red;stroke-width:1px;stroke-linecap:butt;stroke-linejoin:miter;stroke-opacity:1" d="M 60.5242,252.707 63.3504,280.969 z" id="boundary" inkscape:connector-curvature="0" />
	<path style="fill:none;stroke:red;stroke-width:1px;stroke-linecap:butt;stroke-linejoin:miter;stroke-opacity:1" d="M 63.3504,280.969 74.6553,309.231 z" id="boundary" inkscape:connector-curvature="0" />
	<path style="fill:none;stroke:red;stroke-width:1px;stroke-linecap:butt;stroke-linejoin:miter;stroke-opacity:1" d="M 69.0028,35.0883 91.6125,18.1311 z" id="boundary" inkscape:connector-curvature="0" />
	<path style="fill:none;stroke:red;stroke-width:1px;stroke-linecap:butt;stroke-linejoin:miter;stroke-opacity:1" d="M 69.0028,637.071 91.6125,654.028 z" id="boundary" inkscape:connector-curvature="0" />
	<path style="fill:none;stroke:red;stroke-width:1px;stroke-linecap:butt;stroke-linejoin:miter;stroke-opacity:1" d="M 74.6553,309.231 88.7863,334.667 z" id="boundary" inkscape:connector-curvature="0" />
	<path style="fill:none;stroke:red;stroke-width:1px;stroke-linecap:butt;stroke-linejoin:miter;stroke-opacity:1" d="M 80.3077,402.496 100.091,362.929 z" id="boundary" inkscape:connector-curvature="0" />
	<path style="fill:none;stroke:red;stroke-width:1px;stroke-linecap:butt;stroke-linejoin:miter;stroke-opacity:1" d="M 88.7863,334.667 100.091,362.929 z" id="boundary" inkscape:connector-curvature="0" />
	<path style="fill:none;stroke:red;stroke-width:1px;stroke-linecap:butt;stroke-linejoin:miter;stroke-opacity:1" d="M 88.7863,738.815 88.7863,767.077 z" id="boundary" inkscape:connector-curvature="0" />
	<path style="fill:none;stroke:red;stroke-width:1px;stroke-linecap:butt;stroke-linejoin:miter;stroke-opacity:1" d="M 88.7863,738.815 94.4387,704.9 z" id="boundary" inkscape:connector-curvature="0" />
	<path style="fill:none;stroke:red;stroke-width:1px;stroke-linecap:butt;stroke-linejoin:miter;stroke-opacity:1" d="M 88.7863,767.077 100.091,795.339 z" id="boundary" inkscape:connector-curvature="0" />
	<path style="fill:none;stroke:red;stroke-width:1px;stroke-linecap:butt;stroke-linejoin:miter;stroke-opacity:1" d="M 91.6125,18.1311 119.875,9.65242 z" id="boundary" inkscape:connector-curvature="0" />
	<path style="fill:none;stroke:red;stroke-width:1px;stroke-linecap:butt;stroke-linejoin:miter;stroke-opacity:1" d="M 91.6125,654.028 94.4387,704.9 z" id="boundary" inkscape:connector-curvature="0" />
	<path style="fill:none;stroke:red;stroke-width:1px;stroke-linecap:butt;stroke-linejoin:miter;stroke-opacity:1" d="M 100.091,795.339 100.091,823.601 z" id="boundary" inkscape:connector-curvature="0" />
	<path style="fill:none;stroke:red;stroke-width:1px;stroke-linecap:butt;stroke-linejoin:miter;stroke-opacity:1" d="M 100.091,823.601 105.744,851.863 z" id="boundary" inkscape:connector-curvature="0" />
	<path style="fill:none;stroke:red;stroke-width:1px;stroke-linecap:butt;stroke-linejoin:miter;stroke-opacity:1" d="M 105.744,851.863 105.744,880.125 z" id="boundary" inkscape:connector-curvature="0" />
	<path style="fill:none;stroke:red;stroke-width:1px;stroke-linecap:butt;stroke-linejoin:miter;stroke-opacity:1" d="M 105.744,880.125 111.396,908.387 z" id="boundary" inkscape:connector-curvature="0" />
	<path style="fill:none;stroke:red;stroke-width:1px;stroke-linecap:butt;stroke-linejoin:miter;stroke-opacity:1" d="M 111.396,908.387 119.875,936.65 z" id="boundary" inkscape:connector-curvature="0" />
	<path style="fill:none;stroke:red;stroke-width:1px;stroke-linecap:butt;stroke-linejoin:miter;stroke-opacity:1" d="M 119.875,9.65242 148.137,4 z" id="boundary" inkscape:connector-curvature="0" />
	<path style="fill:none;stroke:red;stroke-width:1px;stroke-linecap:butt;stroke-linejoin:miter;stroke-opacity:1" d="M 119.875,936.65 128.353,964.912 z" id="boundary" inkscape:connector-curvature="0" />
	<path style="fill:none;stroke:red;stroke-width:1px;stroke-linecap:butt;stroke-linejoin:miter;stroke-opacity:1" d="M 128.353,964.912 153.789,979.043 z" id="boundary" inkscape:connector-curvature="0" />
	<path style="fill:none;stroke:red;stroke-width:1px;stroke-linecap:butt;stroke-linejoin:miter;stroke-opacity:1" d="M 148.137,4 176.399,9.65242 z" id="boundary" inkscape:connector-curvature="0" />
	<path style="fill:none;stroke:red;stroke-width:1px;stroke-linecap:butt;stroke-linejoin:miter;stroke-opacity:1" d="M 153.789,979.043 182.051,990.348 z" id="boundary" inkscape:connector-curvature="0" />
	<path style="fill:none;stroke:red;stroke-width:1px;stroke-linecap:butt;stroke-linejoin:miter;stroke-opacity:1" d="M 176.399,9.65242 201.835,23.7835 z" id="boundary" inkscape:connector-curvature="0" />
	<path style="fill:none;stroke:red;stroke-width:1px;stroke-linecap:butt;stroke-linejoin:miter;stroke-opacity:1" d="M 182.051,990.348 210.313,996 z" id="boundary" inkscape:connector-curvature="0" />
	<path style="fill:none;stroke:red;stroke-width:1px;stroke-linecap:butt;stroke-linejoin:miter;stroke-opacity:1" d="M 201.835,23.7835 227.271,37.9145 z" id="boundary" inkscape:connector-curvature="0" />
	<path style="fill:none;stroke:red;stroke-width:1px;stroke-linecap:butt;stroke-linejoin:miter;stroke-opacity:1" d="M 210.313,996 238.575,996 z" id="boundary" inkscape:connector-curvature="0" />
	<path style="fill:none;stroke:red;stroke-width:1px;stroke-linecap:butt;stroke-linejoin:miter;stroke-opacity:1" d="M 227.271,37.9145 255.533,43.567 z" id="boundary" inkscape:connector-curvature="0" />
	<path style="fill:none;stroke:red;stroke-width:1px;stroke-linecap:butt;stroke-linejoin:miter;stroke-opacity:1" d="M 238.575,996 266.838,996 z" id="boundary" inkscape:connector-curvature="0" />
	<path style="fill:none;stroke:red;stroke-width:1px;stroke-linecap:butt;stroke-linejoin:miter;stroke-opacity:1" d="M 255.533,43.567 283.795,43.567 z" id="boundary" inkscape:connector-curvature="0" />
	<path style="fill:none;stroke:red;stroke-width:1px;stroke-linecap:butt;stroke-linejoin:miter;stroke-opacity:1" d="M 266.838,996 295.1,996 z" id="boundary" inkscape:connector-curvature="0" />
	<path style="fill:none;stroke:red;stroke-width:1px;stroke-linecap:butt;stroke-linejoin:miter;stroke-opacity:1" d="M 283.795,43.567 312.057,37.9145 z" id="boundary" inkscape:connector-curvature="0" />
	<path style="fill:none;stroke:red;stroke-width:1px;stroke-linecap:butt;stroke-linejoin:miter;stroke-opacity:1" d="M 295.1,996 323.362,993.174 z" id="boundary" inkscape:connector-curvature="0" />
	<path style="fill:none;stroke:red;stroke-width:1px;stroke-linecap:butt;stroke-linejoin:miter;stroke-opacity:1" d="M 312.057,37.9145 337.493,20.9573 z" id="boundary" inkscape:connector-curvature="0" />
	<path style="fill:none;stroke:red;stroke-width:1px;stroke-linecap:butt;stroke-linejoin:miter;stroke-opacity:1" d="M 323.362,993.174 351.624,984.695 z" id="boundary" inkscape:connector-curvature="0" />
	<path style="fill:none;stroke:red;stroke-width:1px;stroke-linecap:butt;stroke-linejoin:miter;stroke-opacity:1" d="M 337.493,20.9573 365.755,9.65242 z" id="boundary" inkscape:connector-curvature="0" />
	<path style="fill:none;stroke:red;stroke-width:1px;stroke-linecap:butt;stroke-linejoin:miter;stroke-opacity:1" d="M 351.624,984.695 379.886,984.695 z" id="boundary" inkscape:connector-curvature="0" />
	<path style="fill:none;stroke:red;stroke-width:1px;stroke-linecap:butt;stroke-linejoin:miter;stroke-opacity:1" d="M 365.755,9.65242 394.017,4 z" id="boundary" inkscape:connector-curvature="0" />
	<path style="fill:none;stroke:red;stroke-width:1px;stroke-linecap:butt;stroke-linejoin:miter;stroke-opacity:1" d="M 379.886,984.695 408.148,979.043 z" id="boundary" inkscape:connector-curvature="0" />
	<path style="fill:none;stroke:red;stroke-width:1px;stroke-linecap:butt;stroke-linejoin:miter;stroke-opacity:1" d="M 394.017,4 422.279,9.65242 z" id="boundary" inkscape:connector-curvature="0" />
	<path style="fill:none;stroke:red;stroke-width:1px;stroke-linecap:butt;stroke-linejoin:miter;stroke-opacity:1" d="M 408.148,979.043 436.41,973.39 z" id="boundary" inkscape:connector-curvature="0" />
	<path style="fill:none;stroke:red;stroke-width:1px;stroke-linecap:butt;stroke-linejoin:miter;stroke-opacity:1" d="M 422.279,9.65242 450.541,20.9573 z" id="boundary" inkscape:connector-curvature="0" />
	<path style="fill:none;stroke:red;stroke-width:1px;stroke-linecap:butt;stroke-linejoin:miter;stroke-opacity:1" d="M 436.41,973.39 464.672,973.39 z" id="boundary" inkscape:connector-curvature="0" />
	<path style="fill:none;stroke:red;stroke-width:1px;stroke-linecap:butt;stroke-linejoin:miter;stroke-opacity:1" d="M 450.541,20.9573 473.151,40.7407 z" id="boundary" inkscape:connector-curvature="0" />
	<path style="fill:none;stroke:red;stroke-width:1px;stroke-linecap:butt;stroke-linejoin:miter;stroke-opacity:1" d="M 464.672,973.39 492.934,973.39 z" id="boundary" inkscape:connector-curvature="0" />
	<path style="fill:none;stroke:red;stroke-width:1px;stroke-linecap:butt;stroke-linejoin:miter;stroke-opacity:1" d="M 470.325,162.268 481.63,122.701 z" id="boundary" inkscape:connector-curvature="0" />
	<path style="fill:none;stroke:red;stroke-width:1px;stroke-linecap:butt;stroke-linejoin:miter;stroke-opacity:1" d="M 470.325,162.268 484.456,187.704 z" id="boundary" inkscape:connector-curvature="0" />
	<path style="fill:none;stroke:red;stroke-width:1px;stroke-linecap:butt;stroke-linejoin:miter;stroke-opacity:1" d="M 473.151,40.7407 487.282,66.1766 z" id="boundary" inkscape:connector-curvature="0" />
	<path style="fill:none;stroke:red;stroke-width:1px;stroke-linecap:butt;stroke-linejoin:miter;stroke-opacity:1" d="M 478.803,374.234 495.761,351.624 z" id="boundary" inkscape:connector-curvature="0" />
	<path style="fill:none;stroke:red;stroke-width:1px;stroke-linecap:butt;stroke-linejoin:miter;stroke-opacity:1" d="M 478.803,374.234 507.066,382.712 z" id="boundary" inkscape:connector-curvature="0" />
	<path style="fill:none;stroke:red;stroke-width:1px;stroke-linecap:butt;stroke-linejoin:miter;stroke-opacity:1" d="M 481.63,122.701 487.282,94.4387 z" id="boundary" inkscape:connector-curvature="0" />
	<path style="fill:none;stroke:red;stroke-width:1px;stroke-linecap:butt;stroke-linejoin:miter;stroke-opacity:1" d="M 484.456,187.704 498.587,213.14 z" id="boundary" inkscape:connector-curvature="0" />
	<path style="fill:none;stroke:red;stroke-width:1px;stroke-linecap:butt;stroke-linejoin:miter;stroke-opacity:1" d="M 487.282,66.1766 487.282,94.4387 z" id="boundary" inkscape:connector-curvature="0" />
	<path style="fill:none;stroke:red;stroke-width:1px;stroke-linecap:butt;stroke-linejoin:miter;stroke-opacity:1" d="M 492.934,973.39 521.197,967.738 z" id="boundary" inkscape:connector-curvature="0" />
	<path style="fill:none;stroke:red;stroke-width:1px;stroke-linecap:butt;stroke-linejoin:miter;stroke-opacity:1" d="M 495.761,351.624 509.892,326.188 z" id="boundary" inkscape:connector-curvature="0" />
	<path style="fill:none;stroke:red;stroke-width:1px;stroke-linecap:butt;stroke-linejoin:miter;stroke-opacity:1" d="M 498.587,213.14 509.892,241.402 z" id="boundary" inkscape:connector-curvature="0" />
	<path style="fill:none;stroke:red;stroke-width:1px;stroke-linecap:butt;stroke-linejoin:miter;stroke-opacity:1" d="M 507.066,382.712 535.328,394.017 z" id="boundary" inkscape:connector-curvature="0" />
	<path style="fill:none;stroke:red;stroke-width:1px;stroke-linecap:butt;stroke-linejoin:miter;stroke-opacity:1" d="M 509.892,241.402 518.37,269.664 z" id="boundary" inkscape:connector-curvature="0" />
	<path style="fill:none;stroke:red;stroke-width:1px;stroke-linecap:butt;stroke-linejoin:miter;stroke-opacity:1" d="M 509.892,326.188 521.197,297.926 z" id="boundary" inkscape:connector-curvature="0" />
	<path style="fill:none;stroke:red;stroke-width:1px;stroke-linecap:butt;stroke-linejoin:miter;stroke-opacity:1" d="M 518.37,269.664 521.197,297.926 z" id="boundary" inkscape:connector-curvature="0" />
	<path style="fill:none;stroke:red;stroke-width:1px;stroke-linecap:butt;stroke-linejoin:miter;stroke-opacity:1" d="M 521.197,967.738 549.459,973.39 z" id="boundary" inkscape:connector-curvature="0" />
	<path style="fill:none;stroke:red;stroke-width:1px;stroke-linecap:butt;stroke-linejoin:miter;stroke-opacity:1" d="M 535.328,394.017 552.285,416.627 z" id="boundary" inkscape:connector-curvature="0" />
	<path style="fill:none;stroke:red;stroke-width:1px;stroke-linecap:butt;stroke-linejoin:miter;stroke-opacity:1" d="M 549.459,665.333 555.111,693.595 z" id="boundary" inkscape:connector-curvature="0" />
	<path style="fill:none;stroke:red;stroke-width:1px;stroke-linecap:butt;stroke-linejoin:miter;stroke-opacity:1" d="M 549.459,665.333 577.721,659.681 z" id="boundary" inkscape:connector-curvature="0" />
	<path style="fill:none;stroke:red;stroke-width:1px;stroke-linecap:butt;stroke-linejoin:miter;stroke-opacity:1" d="M 549.459,973.39 577.721,979.043 z" id="boundary" inkscape:connector-curvature="0" />
	<path style="fill:none;stroke:red;stroke-width:1px;stroke-linecap:butt;stroke-linejoin:miter;stroke-opacity:1" d="M 552.285,416.627 580.547,427.932 z" id="boundary" inkscape:connector-curvature="0" />
	<path style="fill:none;stroke:red;stroke-width:1px;stroke-linecap:butt;stroke-linejoin:miter;stroke-opacity:1" d="M 555.111,693.595 557.937,721.858 z" id="boundary" inkscape:connector-curvature="0" />
	<path style="fill:none;stroke:red;stroke-width:1px;stroke-linecap:butt;stroke-linejoin:miter;stroke-opacity:1" d="M 557.937,721.858 586.199,727.51 z" id="boundary" inkscape:connector-curvature="0" />
	<path style="fill:none;stroke:red;stroke-width:1px;stroke-linecap:butt;stroke-linejoin:miter;stroke-opacity:1" d="M 577.721,659.681 605.983,651.202 z" id="boundary" inkscape:connector-curvature="0" />
	<path style="fill:none;stroke:red;stroke-width:1px;stroke-linecap:butt;stroke-linejoin:miter;stroke-opacity:1" d="M 577.721,979.043 605.983,990.348 z" id="boundary" inkscape:connector-curvature="0" />
	<path style="fill:none;stroke:red;stroke-width:1px;stroke-linecap:butt;stroke-linejoin:miter;stroke-opacity:1" d="M 580.547,427.932 608.809,427.932 z" id="boundary" inkscape:connector-curvature="0" />
	<path style="fill:none;stroke:red;stroke-width:1px;stroke-linecap:butt;stroke-linejoin:miter;stroke-opacity:1" d="M 586.199,727.51 614.462,738.815 z" id="boundary" inkscape:connector-curvature="0" />
	<path style="fill:none;stroke:red;stroke-width:1px;stroke-linecap:butt;stroke-linejoin:miter;stroke-opacity:1" d="M 605.983,651.202 634.245,642.724 z" id="boundary" inkscape:connector-curvature="0" />
	<path style="fill:none;stroke:red;stroke-width:1px;stroke-linecap:butt;stroke-linejoin:miter;stroke-opacity:1" d="M 605.983,990.348 634.245,996 z" id="boundary" inkscape:connector-curvature="0" />
	<path style="fill:none;stroke:red;stroke-width:1px;stroke-linecap:butt;stroke-linejoin:miter;stroke-opacity:1" d="M 608.809,427.932 637.071,433.584 z" id="boundary" inkscape:connector-curvature="0" />
	<path style="fill:none;stroke:red;stroke-width:1px;stroke-linecap:butt;stroke-linejoin:miter;stroke-opacity:1" d="M 614.462,738.815 642.724,733.162 z" id="boundary" inkscape:connector-curvature="0" />
	<path style="fill:none;stroke:red;stroke-width:1px;stroke-linecap:butt;stroke-linejoin:miter;stroke-opacity:1" d="M 634.245,642.724 662.507,634.245 z" id="boundary" inkscape:connector-curvature="0" />
	<path style="fill:none;stroke:red;stroke-width:1px;stroke-linecap:butt;stroke-linejoin:miter;stroke-opacity:1" d="M 634.245,996 662.507,996 z" id="boundary" inkscape:connector-curvature="0" />
	<path style="fill:none;stroke:red;stroke-width:1px;stroke-linecap:butt;stroke-linejoin:miter;stroke-opacity:1" d="M 637.071,433.584 665.333,439.236 z" id="boundary" inkscape:connector-curvature="0" />
	<path style="fill:none;stroke:red;stroke-width:1px;stroke-linecap:butt;stroke-linejoin:miter;stroke-opacity:1" d="M 642.724,733.162 670.986,727.51 z" id="boundary" inkscape:connector-curvature="0" />
	<path style="fill:none;stroke:red;stroke-width:1px;stroke-linecap:butt;stroke-linejoin:miter;stroke-opacity:1" d="M 662.507,634.245 690.769,620.114 z" id="boundary" inkscape:connector-curvature="0" />
	<path style="fill:none;stroke:red;stroke-width:1px;stroke-linecap:butt;stroke-linejoin:miter;stroke-opacity:1" d="M 662.507,996 690.769,996 z" id="boundary" inkscape:connector-curvature="0" />
	<path style="fill:none;stroke:red;stroke-width:1px;stroke-linecap:butt;stroke-linejoin:miter;stroke-opacity:1" d="M 665.333,439.236 693.595,444.889 z" id="boundary" inkscape:connector-curvature="0" />
	<path style="fill:none;stroke:red;stroke-width:1px;stroke-linecap:butt;stroke-linejoin:miter;stroke-opacity:1" d="M 670.986,727.51 699.248,727.51 z" id="boundary" inkscape:connector-curvature="0" />
	<path style="fill:none;stroke:red;stroke-width:1px;stroke-linecap:butt;stroke-linejoin:miter;stroke-opacity:1" d="M 690.769,620.114 716.205,605.983 z" id="boundary" inkscape:connector-curvature="0" />
	<path style="fill:none;stroke:red;stroke-width:1px;stroke-linecap:butt;stroke-linejoin:miter;stroke-opacity:1" d="M 690.769,996 719.031,990.348 z" id="boundary" inkscape:connector-curvature="0" />
	<path style="fill:none;stroke:red;stroke-width:1px;stroke-linecap:butt;stroke-linejoin:miter;stroke-opacity:1" d="M 693.595,444.889 721.858,453.368 z" id="boundary" inkscape:connector-curvature="0" />
	<path style="fill:none;stroke:red;stroke-width:1px;stroke-linecap:butt;stroke-linejoin:miter;stroke-opacity:1" d="M 699.248,727.51 727.51,727.51 z" id="boundary" inkscape:connector-curvature="0" />
	<path style="fill:none;stroke:red;stroke-width:1px;stroke-linecap:butt;stroke-linejoin:miter;stroke-opacity:1" d="M 716.205,605.983 735.989,580.547 z" id="boundary" inkscape:connector-curvature="0" />
	<path style="fill:none;stroke:red;stroke-width:1px;stroke-linecap:butt;stroke-linejoin:miter;stroke-opacity:1" d="M 719.031,990.348 747.293,984.695 z" id="boundary" inkscape:connector-curvature="0" />
	<path style="fill:none;stroke:red;stroke-width:1px;stroke-linecap:butt;stroke-linejoin:miter;stroke-opacity:1" d="M 721.858,453.368 741.641,475.977 z" id="boundary" inkscape:connector-curvature="0" />
	<path style="fill:none;stroke:red;stroke-width:1px;stroke-linecap:butt;stroke-linejoin:miter;stroke-opacity:1" d="M 727.51,727.51 755.772,730.336 z" id="boundary" inkscape:connector-curvature="0" />
	<path style="fill:none;stroke:red;stroke-width:1px;stroke-linecap:butt;stroke-linejoin:miter;stroke-opacity:1" d="M 735.989,580.547 750.12,555.111 z" id="boundary" inkscape:connector-curvature="0" />
	<path style="fill:none;stroke:red;stroke-width:1px;stroke-linecap:butt;stroke-linejoin:miter;stroke-opacity:1" d="M 741.641,475.977 752.946,504.239 z" id="boundary" inkscape:connector-curvature="0" />
	<path style="fill:none;stroke:red;stroke-width:1px;stroke-linecap:butt;stroke-linejoin:miter;stroke-opacity:1" d="M 747.293,984.695 772.729,967.738 z" id="boundary" inkscape:connector-curvature="0" />
	<path style="fill:none;stroke:red;stroke-width:1px;stroke-linecap:butt;stroke-linejoin:miter;stroke-opacity:1" d="M 750.12,555.111 752.946,504.239 z" id="boundary" inkscape:connector-curvature="0" />
	<path style="fill:none;stroke:red;stroke-width:1px;stroke-linecap:butt;stroke-linejoin:miter;stroke-opacity:1" d="M 755.772,730.336 778.382,747.293 z" id="boundary" inkscape:connector-curvature="0" />
	<path style="fill:none;stroke:red;stroke-width:1px;stroke-linecap:butt;stroke-linejoin:miter;stroke-opacity:1" d="M 772.729,967.738 795.339,945.128 z" id="boundary" inkscape:connector-curvature="0" />
	<path style="fill:none;stroke:red;stroke-width:1px;stroke-linecap:butt;stroke-linejoin:miter;stroke-opacity:1" d="M 778.382,747.293 798.165,769.903 z" id="boundary" inkscape:connector-curvature="0" />
	<path style="fill:none;stroke:red;stroke-width:1px;stroke-linecap:butt;stroke-linejoin:miter;stroke-opacity:1" d="M 795.339,945.128 809.47,908.387 z" id="boundary" inkscape:connector-curvature="0" />
	<path style="fill:none;stroke:red;stroke-width:1px;stroke-linecap:butt;stroke-linejoin:miter;stroke-opacity:1" d="M 798.165,769.903 803.818,798.165 z" id="boundary" inkscape:connector-curvature="0" />
	<path style="fill:none;stroke:red;stroke-width:1px;stroke-linecap:butt;stroke-linejoin:miter;stroke-opacity:1" d="M 803.818,798.165 809.47,826.427 z" id="boundary" inkscape:connector-curvature="0" />
	<path style="fill:none;stroke:red;stroke-width:1px;stroke-linecap:butt;stroke-linejoin:miter;stroke-opacity:1" d="M 809.47,826.427 809.47,880.125 z" id="boundary" inkscape:connector-curvature="0" />
	<path style="fill:none;stroke:red;stroke-width:1px;stroke-linecap:butt;stroke-linejoin:miter;stroke-opacity:1" d="M 809.47,880.125 809.47,908.387 z" id="boundary" inkscape:connector-curvature="0" />
	<circle cx="4" cy="490.108" r="4" fill="#0" id="circle0"/>
	<circle cx="4" cy="518.37" r="4" fill="#0" id="circle1"/>
	<circle cx="4" cy="546.632" r="4" fill="#0" id="circle2"/>
	<circle cx="12.4786" cy="574.895" r="4" fill="#0" id="circle3"/>
	<circle cx="18.1311" cy="464.672" r="4" fill="#0" id="circle4"/>
	<circle cx="29.4359" cy="597.504" r="4" fill="#0" id="circle5"/>
	<circle cx="35.0883" cy="442.063" r="4" fill="#0" id="circle6"/>
	<circle cx="46.3932" cy="620.114" r="4" fill="#0" id="circle7"/>
	<circle cx="54.8718" cy="60.5242" r="4" fill="#0" id="circle8"/>
	<circle cx="54.8718" cy="88.7863" r="4" fill="#0" id="circle9"/>
	<circle cx="57.698" cy="419.453" r="4" fill="#0" id="circle10"/>
	<circle cx="60.5242" cy="117.048" r="4" fill="#0" id="circle11"/>
	<circle cx="60.5242" cy="196.182" r="4" fill="#0" id="circle12"/>
	<circle cx="60.5242" cy="224.444" r="4" fill="#0" id="circle13"/>
	<circle cx="60.5242" cy="252.707" r="4" fill="#0" id="circle14"/>
	<circle cx="63.3504" cy="280.969" r="4" fill="#0" id="circle15"/>
	<circle cx="69.0028" cy="35.0883" r="4" fill="#0" id="circle16"/>
	<circle cx="69.0028" cy="637.071" r="4" fill="#0" id="circle17"/>
	<circle cx="71.8291" cy="145.311" r="4" fill="#0" id="circle18"/>
	<circle cx="74.6553" cy="309.231" r="4" fill="#0" id="circle19"/>
	<circle cx="80.3077" cy="402.496" r="4" fill="#0" id="circle20"/>
	<circle cx="88.7863" cy="334.667" r="4" fill="#0" id="circle21"/>
	<circle cx="88.7863" cy="738.815" r="4" fill="#0" id="circle22"/>
	<circle cx="88.7863" cy="767.077" r="4" fill="#0" id="circle23"/>
	<circle cx="91.6125" cy="18.1311" r="4" fill="#0" id="circle24"/>
	<circle cx="91.6125" cy="654.028" r="4" fill="#0" id="circle25"/>
	<circle cx="94.4387" cy="704.9" r="4" fill="#0" id="circle26"/>
	<circle cx="100.091" cy="362.929" r="4" fill="#0" id="circle27"/>
	<circle cx="100.091" cy="795.339" r="4" fill="#0" id="circle28"/>
	<circle cx="100.091" cy="823.601" r="4" fill="#0" id="circle29"/>
	<circle cx="105.744" cy="851.863" r="4" fill="#0" id="circle30"/>
	<circle cx="105.744" cy="880.125" r="4" fill="#0" id="circle31"/>
	<circle cx="111.396" cy="908.387" r="4" fill="#0" id="circle32"/>
	<circle cx="119.875" cy="9.65242" r="4" fill="#0" id="circle33"/>
	<circle cx="119.875" cy="936.65" r="4" fill="#0" id="circle34"/>
	<circle cx="128.353" cy="964.912" r="4" fill="#0" id="circle35"/>
	<circle cx="148.137" cy="4" r="4" fill="#0" id="circle36"/>
	<circle cx="153.789" cy="979.043" r="4" fill="#0" id="circle37"/>
	<circle cx="176.399" cy="9.65242" r="4" fill="#0" id="circle38"/>
	<circle cx="182.051" cy="990.348" r="4" fill="#0" id="circle39"/>
	<circle cx="201.835" cy="23.7835" r="4" fill="#0" id="circle40"/>
	<circle cx="210.313" cy="996" r="4" fill="#0" id="circle41"/>
	<circle cx="227.271" cy="37.9145" r="4" fill="#0" id="circle42"/>
	<circle cx="238.575" cy="996" r="4" fill="#0" id="circle43"/>
	<circle cx="255.533" cy="43.567" r="4" fill="#0" id="circle44"/>
	<circle cx="266.838" cy="996" r="4" fill="#0" id="circle45"/>
	<circle cx="283.795" cy="43.567" r="4" fill="#0" id="circle46"/>
	<circle cx="295.1" cy="996" r="4" fill="#0" id="circle47"/>
	<circle cx="312.057" cy="37.9145" r="4" fill="#0" id="circle48"/>
	<circle cx="323.362" cy="993.174" r="4" fill="#0" id="circle49"/>
	<circle cx="337.493" cy="20.9573" r="4" fill="#0" id="circle50"/>
	<circle cx="351.624" cy="984.695" r="4" fill="#0" id="circle51"/>
	<circle cx="365.755" cy="9.65242" r="4" fill="#0" id="circle52"/>
	<circle cx="379.886" cy="984.695" r="4" fill="#0" id="circle53"/>
	<circle cx="394.017" cy="4" r="4" fill="#0" id="circle54"/>
	<circle cx="408.148" cy="979.043" r="4" fill="#0" id="circle55"/>
	<circle cx="422.279" cy="9.65242" r="4" fill="#0" id="circle56"/>
	<circle cx="436.41" cy="973.39" r="4" fill="#0" id="circle57"/>
	<circle cx="450.541" cy="20.9573" r="4" fill="#0" id="circle58"/>
	<circle cx="464.672" cy="973.39" r="4" fill="#0" id="circle59"/>
	<circle cx="470.325" cy="162.268" r="4" fill="#0" id="circle60"/>
	<circle cx="473.151" cy="40.7407" r="4" fill="#0" id="circle61"/>
	<circle cx="478.803" cy="374.234" r="4" fill="#0" id="circle62"/>
	<circle cx="481.63" cy="122.701" r="4" fill="#0" id="circle63"/>
	<circle cx="484.456" cy="187.704" r="4" fill="#0" id="circle64"/>
	<circle cx="487.282" cy="66.1766" r="4" fill="#0" id="circle65"/>
	<circle cx="487.282" cy="94.4387" r="4" fill="#0" id="circle66"/>
	<circle cx="492.934" cy="973.39" r="4" fill="#0" id="circle67"/>
	<circle cx="495.761" cy="351.624" r="4" fill="#0" id="circle68"/>
	<circle cx="498.587" cy="213.14" r="4" fill="#0" id="circle69"/>
	<circle cx="507.066" cy="382.712" r="4" fill="#0" id="circle70"/>
	<circle cx="509.892" cy="241.402" r="4" fill="#0" id="circle71"/>
	<circle cx="509.892" cy="326.188" r="4" fill="#0" id="circle72"/>
	<circle cx="518.37" cy="269.664" r="4" fill="#0" id="circle73"/>
	<circle cx="521.197" cy="297.926" r="4" fill="#0" id="circle74"/>
	<circle cx="521.197" cy="967.738" r="4" fill="#0" id="circle75"/>
	<circle cx="535.328" cy="394.017" r="4" fill="#0" id="circle76"/>
	<circle cx="549.459" cy="665.333" r="4" fill="#0" id="circle77"/>
	<circle cx="549.459" cy="973.39" r="4" fill="#0" id="circle78"/>
	<circle cx="552.285" cy="416.627" r="4" fill="#0" id="circle79"/>
	<circle cx="555.111" cy="693.595" r="4" fill="#0" id="circle80"/>
	<circle cx="557.937" cy="721.858" r="4" fill="#0" id="circle81"/>
	<circle cx="577.721" cy="659.681" r="4" fill="#0" id="circle82"/>
	<circle cx="577.721" cy="979.043" r="4" fill="#0" id="circle83"/>
	<circle cx="580.547" cy="427.932" r="4" fill="#0" id="circle84"/>
	<circle cx="586.199" cy="727.51" r="4" fill="#0" id="circle85"/>
	<circle cx="605.983" cy="651.202" r="4" fill="#0" id="circle86"/>
	<circle cx="605.983" cy="990.348" r="4" fill="#0" id="circle87"/>
	<circle cx="608.809" cy="427.932" r="4" fill="#0" id="circle88"/>
	<circle cx="614.462" cy="738.815" r="4" fill="#0" id="circle89"/>
	<circle cx="634.245" cy="642.724" r="4" fill="#0" id="circle90"/>
	<circle cx="634.245" cy="996" r="4" fill="#0" id="circle91"/>
	<circle cx="637.071" cy="433.584" r="4" fill="#0" id="circle92"/>
	<circle cx="642.724" cy="733.162" r="4" fill="#0" id="circle93"/>
	<circle cx="662.507" cy="634.245" r="4" fill="#0" id="circle94"/>
	<circle cx="662.507" cy="996" r="4" fill="#0" id="circle95"/>
	<circle cx="665.333" cy="439.236" r="4" fill="#0" id="circle96"/>
	<circle cx="670.986" cy="727.51" r="4" fill="#0" id="circle97"/>
	<circle cx="690.769" cy="620.114" r="4" fill="#0" id="circle98"/>
	<circle cx="690.769" cy="996" r="4" fill="#0" id="circle99"/>
	<circle cx="693.595" cy="444.889" r="4" fill="#0" id="circle100"/>
	<circle cx="699.248" cy="727.51" r="4" fill="#0" id="circle101"/>
	<circle cx="716.205" cy="605.983" r="4" fill="#0" id="circle102"/>
	<circle cx="719.031" cy="990.348" r="4" fill="#0" id="circle103"/>
	<circle cx="721.858" cy="453.368" r="4" fill="#0" id="circle104"/>
	<circle cx="727.51" cy="727.51" r="4" fill="#0" id="circle105"/>
	<circle cx="735.989" cy="580.547" r="4" fill="#0" id="circle106"/>
	<circle cx="741.641" cy="475.977" r="4" fill="#0" id="circle107"/>
	<circle cx="747.293" cy="984.695" r="4" fill="#0" id="circle108"/>
	<circle cx="750.12" cy="555.111" r="4" fill="#0" id="circle109"/>
	<circle cx="752.946" cy="504.239" r="4" fill="#0" id="circle110"/>
	<circle cx="755.772" cy="730.336" r="4" fill="#0" id="circle111"/>
	<circle cx="772.729" cy="967.738" r="4" fill="#0" id="circle112"/>
	<circle cx="778.382" cy="747.293" r="4" fill="#0" id="circle113"/>
	<circle cx="795.339" cy="945.128" r="4" fill="#0" id="circle114"/>
	<circle cx="798.165" cy="769.903" r="4" fill="#0" id="circle115"/>
	<circle cx="803.818" cy="798.165" r="4" fill="#0" id="circle116"/>
	<circle cx="809.47" cy="826.427" r="4" fill="#0" id="circle117"/>
	<circle cx="809.47" cy="880.125" r="4" fill="#0" id="circle118"/>
	<circle cx="809.47" cy="908.387" r="4" fill="#0" id="circle119"/>
	</g>
</svg>