<?xml version="1.0" encoding="UTF-8" standalone="no"?>
<!-- Created with CurveBenchmark -->
<svg
	xmlns:dc="http://purl.org/dc/elements/1.1/"
	xmlns:cc="http://creativecommons.org/ns#"
	xmlns:rdf="http://www.w3.org/1999/02/22-rdf-syntax-ns#"
	xmlns:svg="http://www.w3.org/2000/svg"
	xmlns="http://www.w3.org/2000/svg"
	xmlns:sodipodi="http://sodipodi.sourceforge.net/DTD/sodipodi-0.dtd"
	xmlns:inkscape="http://www.inkscape.org/namespaces/inkscape"
	width="1000"
	height="1000"
	id="svg2"
	version="1.1"
	sodipodi:docname="manifold/hnncrust-ray17.png.txt">
<defs
	id="defs4" />
<metadata
	id="metadata7">
	<rdf:RDF>
		<cc:Work
			rdf:about="">
			<dc:format>image/svg+xml</dc:format>
			<dc:type
				rdf:resource="http://purl.org/dc/dcmitype/StillImage" />
			<dc:title></dc:title>
		</cc:Work>
	</rdf:RDF>
</metadata>
<g
	inkscape:label="Layer 1"
	inkscape:groupmode="layer"
	id="layer1">
	<path style="fill:none;stroke:red;stroke-width:1px;stroke-linecap:butt;stroke-linejoin:miter;stroke-opacity:1" d="M 4,296.721 4,311.505 z" id="boundary" inkscape:connector-curvature="0" />
	<path style="fill:none;stroke:red;stroke-width:1px;stroke-linecap:butt;stroke-linejoin:miter;stroke-opacity:1" d="M 4,296.721 15.8271,284.894 z" id="boundary" inkscape:connector-curvature="0" />
	<path style="fill:none;stroke:red;stroke-width:1px;stroke-linecap:butt;stroke-linejoin:miter;stroke-opacity:1" d="M 4,311.505 4,326.289 z" id="boundary" inkscape:connector-curvature="0" />
	<path style="fill:none;stroke:red;stroke-width:1px;stroke-linecap:butt;stroke-linejoin:miter;stroke-opacity:1" d="M 4,326.289 4,341.073 z" id="boundary" inkscape:connector-curvature="0" />
	<path style="fill:none;stroke:red;stroke-width:1px;stroke-linecap:butt;stroke-linejoin:miter;stroke-opacity:1" d="M 4,341.073 11.392,354.379 z" id="boundary" inkscape:connector-curvature="0" />
	<path style="fill:none;stroke:red;stroke-width:1px;stroke-linecap:butt;stroke-linejoin:miter;stroke-opacity:1" d="M 11.392,354.379 18.7839,367.684 z" id="boundary" inkscape:connector-curvature="0" />
	<path style="fill:none;stroke:red;stroke-width:1px;stroke-linecap:butt;stroke-linejoin:miter;stroke-opacity:1" d="M 15.8271,284.894 27.6542,273.067 z" id="boundary" inkscape:connector-curvature="0" />
	<path style="fill:none;stroke:red;stroke-width:1px;stroke-linecap:butt;stroke-linejoin:miter;stroke-opacity:1" d="M 18.7839,367.684 18.7839,382.468 z" id="boundary" inkscape:connector-curvature="0" />
	<path style="fill:none;stroke:red;stroke-width:1px;stroke-linecap:butt;stroke-linejoin:miter;stroke-opacity:1" d="M 18.7839,382.468 26.1759,395.773 z" id="boundary" inkscape:connector-curvature="0" />
	<path style="fill:none;stroke:red;stroke-width:1px;stroke-linecap:butt;stroke-linejoin:miter;stroke-opacity:1" d="M 26.1759,395.773 35.0462,407.601 z" id="boundary" inkscape:connector-curvature="0" />
	<path style="fill:none;stroke:red;stroke-width:1px;stroke-linecap:butt;stroke-linejoin:miter;stroke-opacity:1" d="M 27.6542,273.067 39.4814,262.718 z" id="boundary" inkscape:connector-curvature="0" />
	<path style="fill:none;stroke:red;stroke-width:1px;stroke-linecap:butt;stroke-linejoin:miter;stroke-opacity:1" d="M 35.0462,407.601 48.3517,414.993 z" id="boundary" inkscape:connector-curvature="0" />
	<path style="fill:none;stroke:red;stroke-width:1px;stroke-linecap:butt;stroke-linejoin:miter;stroke-opacity:1" d="M 39.4814,262.718 49.8301,250.891 z" id="boundary" inkscape:connector-curvature="0" />
	<path style="fill:none;stroke:red;stroke-width:1px;stroke-linecap:butt;stroke-linejoin:miter;stroke-opacity:1" d="M 48.3517,414.993 60.1788,425.341 z" id="boundary" inkscape:connector-curvature="0" />
	<path style="fill:none;stroke:red;stroke-width:1px;stroke-linecap:butt;stroke-linejoin:miter;stroke-opacity:1" d="M 49.8301,250.891 61.6572,240.542 z" id="boundary" inkscape:connector-curvature="0" />
	<path style="fill:none;stroke:red;stroke-width:1px;stroke-linecap:butt;stroke-linejoin:miter;stroke-opacity:1" d="M 60.1788,425.341 70.5276,437.168 z" id="boundary" inkscape:connector-curvature="0" />
	<path style="fill:none;stroke:red;stroke-width:1px;stroke-linecap:butt;stroke-linejoin:miter;stroke-opacity:1" d="M 61.6572,240.542 74.9627,233.151 z" id="boundary" inkscape:connector-curvature="0" />
	<path style="fill:none;stroke:red;stroke-width:1px;stroke-linecap:butt;stroke-linejoin:miter;stroke-opacity:1" d="M 70.5276,437.168 82.3547,447.517 z" id="boundary" inkscape:connector-curvature="0" />
	<path style="fill:none;stroke:red;stroke-width:1px;stroke-linecap:butt;stroke-linejoin:miter;stroke-opacity:1" d="M 74.9627,233.151 88.2683,225.759 z" id="boundary" inkscape:connector-curvature="0" />
	<path style="fill:none;stroke:red;stroke-width:1px;stroke-linecap:butt;stroke-linejoin:miter;stroke-opacity:1" d="M 82.3547,447.517 92.7034,459.344 z" id="boundary" inkscape:connector-curvature="0" />
	<path style="fill:none;stroke:red;stroke-width:1px;stroke-linecap:butt;stroke-linejoin:miter;stroke-opacity:1" d="M 88.2683,225.759 100.095,215.41 z" id="boundary" inkscape:connector-curvature="0" />
	<path style="fill:none;stroke:red;stroke-width:1px;stroke-linecap:butt;stroke-linejoin:miter;stroke-opacity:1" d="M 92.7034,459.344 104.531,469.693 z" id="boundary" inkscape:connector-curvature="0" />
	<path style="fill:none;stroke:red;stroke-width:1px;stroke-linecap:butt;stroke-linejoin:miter;stroke-opacity:1" d="M 100.095,215.41 111.923,203.583 z" id="boundary" inkscape:connector-curvature="0" />
	<path style="fill:none;stroke:red;stroke-width:1px;stroke-linecap:butt;stroke-linejoin:miter;stroke-opacity:1" d="M 104.531,469.693 114.879,481.52 z" id="boundary" inkscape:connector-curvature="0" />
	<path style="fill:none;stroke:red;stroke-width:1px;stroke-linecap:butt;stroke-linejoin:miter;stroke-opacity:1" d="M 111.923,203.583 126.706,196.191 z" id="boundary" inkscape:connector-curvature="0" />
	<path style="fill:none;stroke:red;stroke-width:1px;stroke-linecap:butt;stroke-linejoin:miter;stroke-opacity:1" d="M 114.879,481.52 126.706,491.869 z" id="boundary" inkscape:connector-curvature="0" />
	<path style="fill:none;stroke:red;stroke-width:1px;stroke-linecap:butt;stroke-linejoin:miter;stroke-opacity:1" d="M 126.706,196.191 138.534,184.364 z" id="boundary" inkscape:connector-curvature="0" />
	<path style="fill:none;stroke:red;stroke-width:1px;stroke-linecap:butt;stroke-linejoin:miter;stroke-opacity:1" d="M 126.706,491.869 138.534,500.739 z" id="boundary" inkscape:connector-curvature="0" />
	<path style="fill:none;stroke:red;stroke-width:1px;stroke-linecap:butt;stroke-linejoin:miter;stroke-opacity:1" d="M 138.534,184.364 153.317,176.972 z" id="boundary" inkscape:connector-curvature="0" />
	<path style="fill:none;stroke:red;stroke-width:1px;stroke-linecap:butt;stroke-linejoin:miter;stroke-opacity:1" d="M 138.534,500.739 151.839,508.131 z" id="boundary" inkscape:connector-curvature="0" />
	<path style="fill:none;stroke:red;stroke-width:1px;stroke-linecap:butt;stroke-linejoin:miter;stroke-opacity:1" d="M 151.839,508.131 160.709,519.958 z" id="boundary" inkscape:connector-curvature="0" />
	<path style="fill:none;stroke:red;stroke-width:1px;stroke-linecap:butt;stroke-linejoin:miter;stroke-opacity:1" d="M 153.317,176.972 168.101,169.58 z" id="boundary" inkscape:connector-curvature="0" />
	<path style="fill:none;stroke:red;stroke-width:1px;stroke-linecap:butt;stroke-linejoin:miter;stroke-opacity:1" d="M 160.709,519.958 172.537,530.307 z" id="boundary" inkscape:connector-curvature="0" />
	<path style="fill:none;stroke:red;stroke-width:1px;stroke-linecap:butt;stroke-linejoin:miter;stroke-opacity:1" d="M 168.101,169.58 182.885,162.188 z" id="boundary" inkscape:connector-curvature="0" />
	<path style="fill:none;stroke:red;stroke-width:1px;stroke-linecap:butt;stroke-linejoin:miter;stroke-opacity:1" d="M 172.537,530.307 185.842,537.699 z" id="boundary" inkscape:connector-curvature="0" />
	<path style="fill:none;stroke:red;stroke-width:1px;stroke-linecap:butt;stroke-linejoin:miter;stroke-opacity:1" d="M 182.885,162.188 197.669,154.796 z" id="boundary" inkscape:connector-curvature="0" />
	<path style="fill:none;stroke:red;stroke-width:1px;stroke-linecap:butt;stroke-linejoin:miter;stroke-opacity:1" d="M 185.842,537.699 197.669,548.048 z" id="boundary" inkscape:connector-curvature="0" />
	<path style="fill:none;stroke:red;stroke-width:1px;stroke-linecap:butt;stroke-linejoin:miter;stroke-opacity:1" d="M 197.669,154.796 209.496,144.447 z" id="boundary" inkscape:connector-curvature="0" />
	<path style="fill:none;stroke:red;stroke-width:1px;stroke-linecap:butt;stroke-linejoin:miter;stroke-opacity:1" d="M 197.669,548.048 208.018,559.875 z" id="boundary" inkscape:connector-curvature="0" />
	<path style="fill:none;stroke:red;stroke-width:1px;stroke-linecap:butt;stroke-linejoin:miter;stroke-opacity:1" d="M 208.018,559.875 221.323,567.267 z" id="boundary" inkscape:connector-curvature="0" />
	<path style="fill:none;stroke:red;stroke-width:1px;stroke-linecap:butt;stroke-linejoin:miter;stroke-opacity:1" d="M 209.496,144.447 222.802,137.055 z" id="boundary" inkscape:connector-curvature="0" />
	<path style="fill:none;stroke:red;stroke-width:1px;stroke-linecap:butt;stroke-linejoin:miter;stroke-opacity:1" d="M 221.323,567.267 233.151,576.137 z" id="boundary" inkscape:connector-curvature="0" />
	<path style="fill:none;stroke:red;stroke-width:1px;stroke-linecap:butt;stroke-linejoin:miter;stroke-opacity:1" d="M 222.802,137.055 237.586,129.663 z" id="boundary" inkscape:connector-curvature="0" />
	<path style="fill:none;stroke:red;stroke-width:1px;stroke-linecap:butt;stroke-linejoin:miter;stroke-opacity:1" d="M 233.151,576.137 243.499,587.964 z" id="boundary" inkscape:connector-curvature="0" />
	<path style="fill:none;stroke:red;stroke-width:1px;stroke-linecap:butt;stroke-linejoin:miter;stroke-opacity:1" d="M 237.586,129.663 250.891,122.271 z" id="boundary" inkscape:connector-curvature="0" />
	<path style="fill:none;stroke:red;stroke-width:1px;stroke-linecap:butt;stroke-linejoin:miter;stroke-opacity:1" d="M 243.499,587.964 258.283,593.878 z" id="boundary" inkscape:connector-curvature="0" />
	<path style="fill:none;stroke:red;stroke-width:1px;stroke-linecap:butt;stroke-linejoin:miter;stroke-opacity:1" d="M 250.891,122.271 264.197,114.879 z" id="boundary" inkscape:connector-curvature="0" />
	<path style="fill:none;stroke:red;stroke-width:1px;stroke-linecap:butt;stroke-linejoin:miter;stroke-opacity:1" d="M 258.283,593.878 271.589,601.27 z" id="boundary" inkscape:connector-curvature="0" />
	<path style="fill:none;stroke:red;stroke-width:1px;stroke-linecap:butt;stroke-linejoin:miter;stroke-opacity:1" d="M 264.197,114.879 277.502,107.487 z" id="boundary" inkscape:connector-curvature="0" />
	<path style="fill:none;stroke:red;stroke-width:1px;stroke-linecap:butt;stroke-linejoin:miter;stroke-opacity:1" d="M 271.589,601.27 283.416,611.618 z" id="boundary" inkscape:connector-curvature="0" />
	<path style="fill:none;stroke:red;stroke-width:1px;stroke-linecap:butt;stroke-linejoin:miter;stroke-opacity:1" d="M 277.502,107.487 290.808,100.095 z" id="boundary" inkscape:connector-curvature="0" />
	<path style="fill:none;stroke:red;stroke-width:1px;stroke-linecap:butt;stroke-linejoin:miter;stroke-opacity:1" d="M 283.416,611.618 296.721,619.01 z" id="boundary" inkscape:connector-curvature="0" />
	<path style="fill:none;stroke:red;stroke-width:1px;stroke-linecap:butt;stroke-linejoin:miter;stroke-opacity:1" d="M 290.808,100.095 304.113,92.7034 z" id="boundary" inkscape:connector-curvature="0" />
	<path style="fill:none;stroke:red;stroke-width:1px;stroke-linecap:butt;stroke-linejoin:miter;stroke-opacity:1" d="M 296.721,619.01 311.505,619.01 z" id="boundary" inkscape:connector-curvature="0" />
	<path style="fill:none;stroke:red;stroke-width:1px;stroke-linecap:butt;stroke-linejoin:miter;stroke-opacity:1" d="M 304.113,92.7034 317.419,85.3115 z" id="boundary" inkscape:connector-curvature="0" />
	<path style="fill:none;stroke:red;stroke-width:1px;stroke-linecap:butt;stroke-linejoin:miter;stroke-opacity:1" d="M 311.505,619.01 326.289,619.01 z" id="boundary" inkscape:connector-curvature="0" />
	<path style="fill:none;stroke:red;stroke-width:1px;stroke-linecap:butt;stroke-linejoin:miter;stroke-opacity:1" d="M 317.419,85.3115 330.724,77.9195 z" id="boundary" inkscape:connector-curvature="0" />
	<path style="fill:none;stroke:red;stroke-width:1px;stroke-linecap:butt;stroke-linejoin:miter;stroke-opacity:1" d="M 326.289,619.01 341.073,624.924 z" id="boundary" inkscape:connector-curvature="0" />
	<path style="fill:none;stroke:red;stroke-width:1px;stroke-linecap:butt;stroke-linejoin:miter;stroke-opacity:1" d="M 330.724,77.9195 345.508,73.4844 z" id="boundary" inkscape:connector-curvature="0" />
	<path style="fill:none;stroke:red;stroke-width:1px;stroke-linecap:butt;stroke-linejoin:miter;stroke-opacity:1" d="M 336.638,644.143 336.638,658.927 z" id="boundary" inkscape:connector-curvature="0" />
	<path style="fill:none;stroke:red;stroke-width:1px;stroke-linecap:butt;stroke-linejoin:miter;stroke-opacity:1" d="M 336.638,644.143 341.073,624.924 z" id="boundary" inkscape:connector-curvature="0" />
	<path style="fill:none;stroke:red;stroke-width:1px;stroke-linecap:butt;stroke-linejoin:miter;stroke-opacity:1" d="M 336.638,658.927 336.638,673.711 z" id="boundary" inkscape:connector-curvature="0" />
	<path style="fill:none;stroke:red;stroke-width:1px;stroke-linecap:butt;stroke-linejoin:miter;stroke-opacity:1" d="M 336.638,673.711 336.638,688.495 z" id="boundary" inkscape:connector-curvature="0" />
	<path style="fill:none;stroke:red;stroke-width:1px;stroke-linecap:butt;stroke-linejoin:miter;stroke-opacity:1" d="M 336.638,688.495 351.422,692.93 z" id="boundary" inkscape:connector-curvature="0" />
	<path style="fill:none;stroke:red;stroke-width:1px;stroke-linecap:butt;stroke-linejoin:miter;stroke-opacity:1" d="M 345.508,73.4844 357.335,63.1356 z" id="boundary" inkscape:connector-curvature="0" />
	<path style="fill:none;stroke:red;stroke-width:1px;stroke-linecap:butt;stroke-linejoin:miter;stroke-opacity:1" d="M 351.422,692.93 366.206,692.93 z" id="boundary" inkscape:connector-curvature="0" />
	<path style="fill:none;stroke:red;stroke-width:1px;stroke-linecap:butt;stroke-linejoin:miter;stroke-opacity:1" d="M 351.422,984.173 358.814,969.389 z" id="boundary" inkscape:connector-curvature="0" />
	<path style="fill:none;stroke:red;stroke-width:1px;stroke-linecap:butt;stroke-linejoin:miter;stroke-opacity:1" d="M 351.422,984.173 363.249,994.522 z" id="boundary" inkscape:connector-curvature="0" />
	<path style="fill:none;stroke:red;stroke-width:1px;stroke-linecap:butt;stroke-linejoin:miter;stroke-opacity:1" d="M 357.335,63.1356 370.641,55.7437 z" id="boundary" inkscape:connector-curvature="0" />
	<path style="fill:none;stroke:red;stroke-width:1px;stroke-linecap:butt;stroke-linejoin:miter;stroke-opacity:1" d="M 358.814,969.389 370.641,957.562 z" id="boundary" inkscape:connector-curvature="0" />
	<path style="fill:none;stroke:red;stroke-width:1px;stroke-linecap:butt;stroke-linejoin:miter;stroke-opacity:1" d="M 363.249,994.522 378.033,996 z" id="boundary" inkscape:connector-curvature="0" />
	<path style="fill:none;stroke:red;stroke-width:1px;stroke-linecap:butt;stroke-linejoin:miter;stroke-opacity:1" d="M 366.206,692.93 373.598,706.235 z" id="boundary" inkscape:connector-curvature="0" />
	<path style="fill:none;stroke:red;stroke-width:1px;stroke-linecap:butt;stroke-linejoin:miter;stroke-opacity:1" d="M 370.641,55.7437 382.468,43.9165 z" id="boundary" inkscape:connector-curvature="0" />
	<path style="fill:none;stroke:red;stroke-width:1px;stroke-linecap:butt;stroke-linejoin:miter;stroke-opacity:1" d="M 370.641,957.562 378.033,942.778 z" id="boundary" inkscape:connector-curvature="0" />
	<path style="fill:none;stroke:red;stroke-width:1px;stroke-linecap:butt;stroke-linejoin:miter;stroke-opacity:1" d="M 373.598,706.235 382.468,718.063 z" id="boundary" inkscape:connector-curvature="0" />
	<path style="fill:none;stroke:red;stroke-width:1px;stroke-linecap:butt;stroke-linejoin:miter;stroke-opacity:1" d="M 378.033,942.778 385.425,927.994 z" id="boundary" inkscape:connector-curvature="0" />
	<path style="fill:none;stroke:red;stroke-width:1px;stroke-linecap:butt;stroke-linejoin:miter;stroke-opacity:1" d="M 378.033,996 392.817,994.522 z" id="boundary" inkscape:connector-curvature="0" />
	<path style="fill:none;stroke:red;stroke-width:1px;stroke-linecap:butt;stroke-linejoin:miter;stroke-opacity:1" d="M 382.468,43.9165 394.295,33.5678 z" id="boundary" inkscape:connector-curvature="0" />
	<path style="fill:none;stroke:red;stroke-width:1px;stroke-linecap:butt;stroke-linejoin:miter;stroke-opacity:1" d="M 382.468,718.063 392.817,729.89 z" id="boundary" inkscape:connector-curvature="0" />
	<path style="fill:none;stroke:red;stroke-width:1px;stroke-linecap:butt;stroke-linejoin:miter;stroke-opacity:1" d="M 385.425,927.994 392.817,913.21 z" id="boundary" inkscape:connector-curvature="0" />
	<path style="fill:none;stroke:red;stroke-width:1px;stroke-linecap:butt;stroke-linejoin:miter;stroke-opacity:1" d="M 392.817,729.89 400.209,743.195 z" id="boundary" inkscape:connector-curvature="0" />
	<path style="fill:none;stroke:red;stroke-width:1px;stroke-linecap:butt;stroke-linejoin:miter;stroke-opacity:1" d="M 392.817,913.21 395.773,888.077 z" id="boundary" inkscape:connector-curvature="0" />
	<path style="fill:none;stroke:red;stroke-width:1px;stroke-linecap:butt;stroke-linejoin:miter;stroke-opacity:1" d="M 392.817,994.522 404.644,981.216 z" id="boundary" inkscape:connector-curvature="0" />
	<path style="fill:none;stroke:red;stroke-width:1px;stroke-linecap:butt;stroke-linejoin:miter;stroke-opacity:1" d="M 394.295,33.5678 407.601,26.1759 z" id="boundary" inkscape:connector-curvature="0" />
	<path style="fill:none;stroke:red;stroke-width:1px;stroke-linecap:butt;stroke-linejoin:miter;stroke-opacity:1" d="M 395.773,888.077 403.165,873.294 z" id="boundary" inkscape:connector-curvature="0" />
	<path style="fill:none;stroke:red;stroke-width:1px;stroke-linecap:butt;stroke-linejoin:miter;stroke-opacity:1" d="M 400.209,743.195 406.122,757.979 z" id="boundary" inkscape:connector-curvature="0" />
	<path style="fill:none;stroke:red;stroke-width:1px;stroke-linecap:butt;stroke-linejoin:miter;stroke-opacity:1" d="M 403.165,858.51 403.165,873.294 z" id="boundary" inkscape:connector-curvature="0" />
	<path style="fill:none;stroke:red;stroke-width:1px;stroke-linecap:butt;stroke-linejoin:miter;stroke-opacity:1" d="M 403.165,858.51 410.557,831.899 z" id="boundary" inkscape:connector-curvature="0" />
	<path style="fill:none;stroke:red;stroke-width:1px;stroke-linecap:butt;stroke-linejoin:miter;stroke-opacity:1" d="M 404.644,981.216 416.471,970.867 z" id="boundary" inkscape:connector-curvature="0" />
	<path style="fill:none;stroke:red;stroke-width:1px;stroke-linecap:butt;stroke-linejoin:miter;stroke-opacity:1" d="M 406.122,757.979 410.557,772.763 z" id="boundary" inkscape:connector-curvature="0" />
	<path style="fill:none;stroke:red;stroke-width:1px;stroke-linecap:butt;stroke-linejoin:miter;stroke-opacity:1" d="M 407.601,26.1759 420.906,18.7839 z" id="boundary" inkscape:connector-curvature="0" />
	<path style="fill:none;stroke:red;stroke-width:1px;stroke-linecap:butt;stroke-linejoin:miter;stroke-opacity:1" d="M 410.557,772.763 410.557,787.547 z" id="boundary" inkscape:connector-curvature="0" />
	<path style="fill:none;stroke:red;stroke-width:1px;stroke-linecap:butt;stroke-linejoin:miter;stroke-opacity:1" d="M 410.557,787.547 410.557,802.331 z" id="boundary" inkscape:connector-curvature="0" />
	<path style="fill:none;stroke:red;stroke-width:1px;stroke-linecap:butt;stroke-linejoin:miter;stroke-opacity:1" d="M 410.557,802.331 410.557,817.115 z" id="boundary" inkscape:connector-curvature="0" />
	<path style="fill:none;stroke:red;stroke-width:1px;stroke-linecap:butt;stroke-linejoin:miter;stroke-opacity:1" d="M 410.557,817.115 410.557,831.899 z" id="boundary" inkscape:connector-curvature="0" />
	<path style="fill:none;stroke:red;stroke-width:1px;stroke-linecap:butt;stroke-linejoin:miter;stroke-opacity:1" d="M 416.471,970.867 426.82,951.648 z" id="boundary" inkscape:connector-curvature="0" />
	<path style="fill:none;stroke:red;stroke-width:1px;stroke-linecap:butt;stroke-linejoin:miter;stroke-opacity:1" d="M 420.906,18.7839 432.733,8.43517 z" id="boundary" inkscape:connector-curvature="0" />
	<path style="fill:none;stroke:red;stroke-width:1px;stroke-linecap:butt;stroke-linejoin:miter;stroke-opacity:1" d="M 426.82,951.648 438.647,941.3 z" id="boundary" inkscape:connector-curvature="0" />
	<path style="fill:none;stroke:red;stroke-width:1px;stroke-linecap:butt;stroke-linejoin:miter;stroke-opacity:1" d="M 432.733,8.43517 447.517,4 z" id="boundary" inkscape:connector-curvature="0" />
	<path style="fill:none;stroke:red;stroke-width:1px;stroke-linecap:butt;stroke-linejoin:miter;stroke-opacity:1" d="M 438.647,941.3 446.039,926.516 z" id="boundary" inkscape:connector-curvature="0" />
	<path style="fill:none;stroke:red;stroke-width:1px;stroke-linecap:butt;stroke-linejoin:miter;stroke-opacity:1" d="M 446.039,926.516 453.431,911.732 z" id="boundary" inkscape:connector-curvature="0" />
	<path style="fill:none;stroke:red;stroke-width:1px;stroke-linecap:butt;stroke-linejoin:miter;stroke-opacity:1" d="M 447.517,4 462.301,4 z" id="boundary" inkscape:connector-curvature="0" />
	<path style="fill:none;stroke:red;stroke-width:1px;stroke-linecap:butt;stroke-linejoin:miter;stroke-opacity:1" d="M 453.431,911.732 463.779,892.513 z" id="boundary" inkscape:connector-curvature="0" />
	<path style="fill:none;stroke:red;stroke-width:1px;stroke-linecap:butt;stroke-linejoin:miter;stroke-opacity:1" d="M 462.301,4 475.607,11.392 z" id="boundary" inkscape:connector-curvature="0" />
	<path style="fill:none;stroke:red;stroke-width:1px;stroke-linecap:butt;stroke-linejoin:miter;stroke-opacity:1" d="M 463.779,744.674 463.779,759.458 z" id="boundary" inkscape:connector-curvature="0" />
	<path style="fill:none;stroke:red;stroke-width:1px;stroke-linecap:butt;stroke-linejoin:miter;stroke-opacity:1" d="M 463.779,744.674 471.171,729.89 z" id="boundary" inkscape:connector-curvature="0" />
	<path style="fill:none;stroke:red;stroke-width:1px;stroke-linecap:butt;stroke-linejoin:miter;stroke-opacity:1" d="M 463.779,759.458 463.779,774.241 z" id="boundary" inkscape:connector-curvature="0" />
	<path style="fill:none;stroke:red;stroke-width:1px;stroke-linecap:butt;stroke-linejoin:miter;stroke-opacity:1" d="M 463.779,774.241 463.779,789.025 z" id="boundary" inkscape:connector-curvature="0" />
	<path style="fill:none;stroke:red;stroke-width:1px;stroke-linecap:butt;stroke-linejoin:miter;stroke-opacity:1" d="M 463.779,789.025 463.779,803.809 z" id="boundary" inkscape:connector-curvature="0" />
	<path style="fill:none;stroke:red;stroke-width:1px;stroke-linecap:butt;stroke-linejoin:miter;stroke-opacity:1" d="M 463.779,803.809 463.779,818.593 z" id="boundary" inkscape:connector-curvature="0" />
	<path style="fill:none;stroke:red;stroke-width:1px;stroke-linecap:butt;stroke-linejoin:miter;stroke-opacity:1" d="M 463.779,818.593 463.779,833.377 z" id="boundary" inkscape:connector-curvature="0" />
	<path style="fill:none;stroke:red;stroke-width:1px;stroke-linecap:butt;stroke-linejoin:miter;stroke-opacity:1" d="M 463.779,833.377 463.779,848.161 z" id="boundary" inkscape:connector-curvature="0" />
	<path style="fill:none;stroke:red;stroke-width:1px;stroke-linecap:butt;stroke-linejoin:miter;stroke-opacity:1" d="M 463.779,848.161 463.779,862.945 z" id="boundary" inkscape:connector-curvature="0" />
	<path style="fill:none;stroke:red;stroke-width:1px;stroke-linecap:butt;stroke-linejoin:miter;stroke-opacity:1" d="M 463.779,862.945 463.779,877.729 z" id="boundary" inkscape:connector-curvature="0" />
	<path style="fill:none;stroke:red;stroke-width:1px;stroke-linecap:butt;stroke-linejoin:miter;stroke-opacity:1" d="M 463.779,877.729 463.779,892.513 z" id="boundary" inkscape:connector-curvature="0" />
	<path style="fill:none;stroke:red;stroke-width:1px;stroke-linecap:butt;stroke-linejoin:miter;stroke-opacity:1" d="M 471.171,729.89 482.999,719.541 z" id="boundary" inkscape:connector-curvature="0" />
	<path style="fill:none;stroke:red;stroke-width:1px;stroke-linecap:butt;stroke-linejoin:miter;stroke-opacity:1" d="M 475.607,11.392 488.912,18.7839 z" id="boundary" inkscape:connector-curvature="0" />
	<path style="fill:none;stroke:red;stroke-width:1px;stroke-linecap:butt;stroke-linejoin:miter;stroke-opacity:1" d="M 482.999,719.541 493.347,707.714 z" id="boundary" inkscape:connector-curvature="0" />
	<path style="fill:none;stroke:red;stroke-width:1px;stroke-linecap:butt;stroke-linejoin:miter;stroke-opacity:1" d="M 488.912,18.7839 502.218,26.1759 z" id="boundary" inkscape:connector-curvature="0" />
	<path style="fill:none;stroke:red;stroke-width:1px;stroke-linecap:butt;stroke-linejoin:miter;stroke-opacity:1" d="M 493.347,707.714 508.131,700.322 z" id="boundary" inkscape:connector-curvature="0" />
	<path style="fill:none;stroke:red;stroke-width:1px;stroke-linecap:butt;stroke-linejoin:miter;stroke-opacity:1" d="M 502.218,26.1759 515.523,33.5678 z" id="boundary" inkscape:connector-curvature="0" />
	<path style="fill:none;stroke:red;stroke-width:1px;stroke-linecap:butt;stroke-linejoin:miter;stroke-opacity:1" d="M 508.131,700.322 522.915,685.538 z" id="boundary" inkscape:connector-curvature="0" />
	<path style="fill:none;stroke:red;stroke-width:1px;stroke-linecap:butt;stroke-linejoin:miter;stroke-opacity:1" d="M 515.523,33.5678 527.35,42.4382 z" id="boundary" inkscape:connector-curvature="0" />
	<path style="fill:none;stroke:red;stroke-width:1px;stroke-linecap:butt;stroke-linejoin:miter;stroke-opacity:1" d="M 522.915,626.402 522.915,641.186 z" id="boundary" inkscape:connector-curvature="0" />
	<path style="fill:none;stroke:red;stroke-width:1px;stroke-linecap:butt;stroke-linejoin:miter;stroke-opacity:1" d="M 522.915,626.402 537.699,626.402 z" id="boundary" inkscape:connector-curvature="0" />
	<path style="fill:none;stroke:red;stroke-width:1px;stroke-linecap:butt;stroke-linejoin:miter;stroke-opacity:1" d="M 522.915,641.186 525.872,655.97 z" id="boundary" inkscape:connector-curvature="0" />
	<path style="fill:none;stroke:red;stroke-width:1px;stroke-linecap:butt;stroke-linejoin:miter;stroke-opacity:1" d="M 522.915,685.538 530.307,670.754 z" id="boundary" inkscape:connector-curvature="0" />
	<path style="fill:none;stroke:red;stroke-width:1px;stroke-linecap:butt;stroke-linejoin:miter;stroke-opacity:1" d="M 525.872,655.97 530.307,670.754 z" id="boundary" inkscape:connector-curvature="0" />
	<path style="fill:none;stroke:red;stroke-width:1px;stroke-linecap:butt;stroke-linejoin:miter;stroke-opacity:1" d="M 527.35,42.4382 537.699,54.2653 z" id="boundary" inkscape:connector-curvature="0" />
	<path style="fill:none;stroke:red;stroke-width:1px;stroke-linecap:butt;stroke-linejoin:miter;stroke-opacity:1" d="M 537.699,54.2653 545.091,67.5708 z" id="boundary" inkscape:connector-curvature="0" />
	<path style="fill:none;stroke:red;stroke-width:1px;stroke-linecap:butt;stroke-linejoin:miter;stroke-opacity:1" d="M 537.699,626.402 552.483,626.402 z" id="boundary" inkscape:connector-curvature="0" />
	<path style="fill:none;stroke:red;stroke-width:1px;stroke-linecap:butt;stroke-linejoin:miter;stroke-opacity:1" d="M 545.091,67.5708 555.44,79.3979 z" id="boundary" inkscape:connector-curvature="0" />
	<path style="fill:none;stroke:red;stroke-width:1px;stroke-linecap:butt;stroke-linejoin:miter;stroke-opacity:1" d="M 552.483,626.402 565.788,619.01 z" id="boundary" inkscape:connector-curvature="0" />
	<path style="fill:none;stroke:red;stroke-width:1px;stroke-linecap:butt;stroke-linejoin:miter;stroke-opacity:1" d="M 555.44,79.3979 567.267,89.7466 z" id="boundary" inkscape:connector-curvature="0" />
	<path style="fill:none;stroke:red;stroke-width:1px;stroke-linecap:butt;stroke-linejoin:miter;stroke-opacity:1" d="M 565.788,619.01 580.572,614.575 z" id="boundary" inkscape:connector-curvature="0" />
	<path style="fill:none;stroke:red;stroke-width:1px;stroke-linecap:butt;stroke-linejoin:miter;stroke-opacity:1" d="M 567.267,89.7466 577.615,101.574 z" id="boundary" inkscape:connector-curvature="0" />
	<path style="fill:none;stroke:red;stroke-width:1px;stroke-linecap:butt;stroke-linejoin:miter;stroke-opacity:1" d="M 577.615,101.574 589.443,111.923 z" id="boundary" inkscape:connector-curvature="0" />
	<path style="fill:none;stroke:red;stroke-width:1px;stroke-linecap:butt;stroke-linejoin:miter;stroke-opacity:1" d="M 580.572,614.575 595.356,607.183 z" id="boundary" inkscape:connector-curvature="0" />
	<path style="fill:none;stroke:red;stroke-width:1px;stroke-linecap:butt;stroke-linejoin:miter;stroke-opacity:1" d="M 589.443,111.923 602.748,119.314 z" id="boundary" inkscape:connector-curvature="0" />
	<path style="fill:none;stroke:red;stroke-width:1px;stroke-linecap:butt;stroke-linejoin:miter;stroke-opacity:1" d="M 595.356,607.183 610.14,599.791 z" id="boundary" inkscape:connector-curvature="0" />
	<path style="fill:none;stroke:red;stroke-width:1px;stroke-linecap:butt;stroke-linejoin:miter;stroke-opacity:1" d="M 602.748,119.314 617.532,125.228 z" id="boundary" inkscape:connector-curvature="0" />
	<path style="fill:none;stroke:red;stroke-width:1px;stroke-linecap:butt;stroke-linejoin:miter;stroke-opacity:1" d="M 610.14,599.791 621.967,589.443 z" id="boundary" inkscape:connector-curvature="0" />
	<path style="fill:none;stroke:red;stroke-width:1px;stroke-linecap:butt;stroke-linejoin:miter;stroke-opacity:1" d="M 617.532,125.228 626.402,137.055 z" id="boundary" inkscape:connector-curvature="0" />
	<path style="fill:none;stroke:red;stroke-width:1px;stroke-linecap:butt;stroke-linejoin:miter;stroke-opacity:1" d="M 621.967,589.443 635.273,582.051 z" id="boundary" inkscape:connector-curvature="0" />
	<path style="fill:none;stroke:red;stroke-width:1px;stroke-linecap:butt;stroke-linejoin:miter;stroke-opacity:1" d="M 626.402,137.055 638.23,145.925 z" id="boundary" inkscape:connector-curvature="0" />
	<path style="fill:none;stroke:red;stroke-width:1px;stroke-linecap:butt;stroke-linejoin:miter;stroke-opacity:1" d="M 635.273,582.051 648.578,574.659 z" id="boundary" inkscape:connector-curvature="0" />
	<path style="fill:none;stroke:red;stroke-width:1px;stroke-linecap:butt;stroke-linejoin:miter;stroke-opacity:1" d="M 638.23,145.925 651.535,153.317 z" id="boundary" inkscape:connector-curvature="0" />
	<path style="fill:none;stroke:red;stroke-width:1px;stroke-linecap:butt;stroke-linejoin:miter;stroke-opacity:1" d="M 648.578,574.659 663.362,567.267 z" id="boundary" inkscape:connector-curvature="0" />
	<path style="fill:none;stroke:red;stroke-width:1px;stroke-linecap:butt;stroke-linejoin:miter;stroke-opacity:1" d="M 651.535,153.317 666.319,159.231 z" id="boundary" inkscape:connector-curvature="0" />
	<path style="fill:none;stroke:red;stroke-width:1px;stroke-linecap:butt;stroke-linejoin:miter;stroke-opacity:1" d="M 663.362,567.267 678.146,559.875 z" id="boundary" inkscape:connector-curvature="0" />
	<path style="fill:none;stroke:red;stroke-width:1px;stroke-linecap:butt;stroke-linejoin:miter;stroke-opacity:1" d="M 666.319,159.231 679.624,166.623 z" id="boundary" inkscape:connector-curvature="0" />
	<path style="fill:none;stroke:red;stroke-width:1px;stroke-linecap:butt;stroke-linejoin:miter;stroke-opacity:1" d="M 678.146,559.875 689.973,549.526 z" id="boundary" inkscape:connector-curvature="0" />
	<path style="fill:none;stroke:red;stroke-width:1px;stroke-linecap:butt;stroke-linejoin:miter;stroke-opacity:1" d="M 679.624,166.623 692.93,174.015 z" id="boundary" inkscape:connector-curvature="0" />
	<path style="fill:none;stroke:red;stroke-width:1px;stroke-linecap:butt;stroke-linejoin:miter;stroke-opacity:1" d="M 689.973,549.526 704.757,542.134 z" id="boundary" inkscape:connector-curvature="0" />
	<path style="fill:none;stroke:red;stroke-width:1px;stroke-linecap:butt;stroke-linejoin:miter;stroke-opacity:1" d="M 692.93,174.015 706.235,181.407 z" id="boundary" inkscape:connector-curvature="0" />
	<path style="fill:none;stroke:red;stroke-width:1px;stroke-linecap:butt;stroke-linejoin:miter;stroke-opacity:1" d="M 704.757,542.134 719.541,534.742 z" id="boundary" inkscape:connector-curvature="0" />
	<path style="fill:none;stroke:red;stroke-width:1px;stroke-linecap:butt;stroke-linejoin:miter;stroke-opacity:1" d="M 706.235,181.407 719.541,188.799 z" id="boundary" inkscape:connector-curvature="0" />
	<path style="fill:none;stroke:red;stroke-width:1px;stroke-linecap:butt;stroke-linejoin:miter;stroke-opacity:1" d="M 719.541,188.799 732.846,196.191 z" id="boundary" inkscape:connector-curvature="0" />
	<path style="fill:none;stroke:red;stroke-width:1px;stroke-linecap:butt;stroke-linejoin:miter;stroke-opacity:1" d="M 719.541,534.742 734.325,527.35 z" id="boundary" inkscape:connector-curvature="0" />
	<path style="fill:none;stroke:red;stroke-width:1px;stroke-linecap:butt;stroke-linejoin:miter;stroke-opacity:1" d="M 732.846,196.191 743.195,208.018 z" id="boundary" inkscape:connector-curvature="0" />
	<path style="fill:none;stroke:red;stroke-width:1px;stroke-linecap:butt;stroke-linejoin:miter;stroke-opacity:1" d="M 734.325,527.35 749.109,519.958 z" id="boundary" inkscape:connector-curvature="0" />
	<path style="fill:none;stroke:red;stroke-width:1px;stroke-linecap:butt;stroke-linejoin:miter;stroke-opacity:1" d="M 743.195,208.018 755.022,218.367 z" id="boundary" inkscape:connector-curvature="0" />
	<path style="fill:none;stroke:red;stroke-width:1px;stroke-linecap:butt;stroke-linejoin:miter;stroke-opacity:1" d="M 749.109,519.958 759.458,508.131 z" id="boundary" inkscape:connector-curvature="0" />
	<path style="fill:none;stroke:red;stroke-width:1px;stroke-linecap:butt;stroke-linejoin:miter;stroke-opacity:1" d="M 755.022,218.367 768.328,225.759 z" id="boundary" inkscape:connector-curvature="0" />
	<path style="fill:none;stroke:red;stroke-width:1px;stroke-linecap:butt;stroke-linejoin:miter;stroke-opacity:1" d="M 759.458,508.131 771.285,497.782 z" id="boundary" inkscape:connector-curvature="0" />
	<path style="fill:none;stroke:red;stroke-width:1px;stroke-linecap:butt;stroke-linejoin:miter;stroke-opacity:1" d="M 768.328,225.759 780.155,236.107 z" id="boundary" inkscape:connector-curvature="0" />
	<path style="fill:none;stroke:red;stroke-width:1px;stroke-linecap:butt;stroke-linejoin:miter;stroke-opacity:1" d="M 771.285,497.782 781.633,485.955 z" id="boundary" inkscape:connector-curvature="0" />
	<path style="fill:none;stroke:red;stroke-width:1px;stroke-linecap:butt;stroke-linejoin:miter;stroke-opacity:1" d="M 780.155,236.107 789.025,247.934 z" id="boundary" inkscape:connector-curvature="0" />
	<path style="fill:none;stroke:red;stroke-width:1px;stroke-linecap:butt;stroke-linejoin:miter;stroke-opacity:1" d="M 781.633,485.955 793.461,475.607 z" id="boundary" inkscape:connector-curvature="0" />
	<path style="fill:none;stroke:red;stroke-width:1px;stroke-linecap:butt;stroke-linejoin:miter;stroke-opacity:1" d="M 789.025,247.934 800.852,256.805 z" id="boundary" inkscape:connector-curvature="0" />
	<path style="fill:none;stroke:red;stroke-width:1px;stroke-linecap:butt;stroke-linejoin:miter;stroke-opacity:1" d="M 793.461,475.607 803.809,463.779 z" id="boundary" inkscape:connector-curvature="0" />
	<path style="fill:none;stroke:red;stroke-width:1px;stroke-linecap:butt;stroke-linejoin:miter;stroke-opacity:1" d="M 800.852,256.805 811.201,268.632 z" id="boundary" inkscape:connector-curvature="0" />
	<path style="fill:none;stroke:red;stroke-width:1px;stroke-linecap:butt;stroke-linejoin:miter;stroke-opacity:1" d="M 803.809,463.779 818.593,456.387 z" id="boundary" inkscape:connector-curvature="0" />
	<path style="fill:none;stroke:red;stroke-width:1px;stroke-linecap:butt;stroke-linejoin:miter;stroke-opacity:1" d="M 811.201,268.632 823.028,278.981 z" id="boundary" inkscape:connector-curvature="0" />
	<path style="fill:none;stroke:red;stroke-width:1px;stroke-linecap:butt;stroke-linejoin:miter;stroke-opacity:1" d="M 818.593,456.387 830.42,446.039 z" id="boundary" inkscape:connector-curvature="0" />
	<path style="fill:none;stroke:red;stroke-width:1px;stroke-linecap:butt;stroke-linejoin:miter;stroke-opacity:1" d="M 823.028,278.981 833.377,290.808 z" id="boundary" inkscape:connector-curvature="0" />
	<path style="fill:none;stroke:red;stroke-width:1px;stroke-linecap:butt;stroke-linejoin:miter;stroke-opacity:1" d="M 830.42,446.039 840.769,434.212 z" id="boundary" inkscape:connector-curvature="0" />
	<path style="fill:none;stroke:red;stroke-width:1px;stroke-linecap:butt;stroke-linejoin:miter;stroke-opacity:1" d="M 833.377,290.808 845.204,301.156 z" id="boundary" inkscape:connector-curvature="0" />
	<path style="fill:none;stroke:red;stroke-width:1px;stroke-linecap:butt;stroke-linejoin:miter;stroke-opacity:1" d="M 840.769,434.212 852.596,423.863 z" id="boundary" inkscape:connector-curvature="0" />
	<path style="fill:none;stroke:red;stroke-width:1px;stroke-linecap:butt;stroke-linejoin:miter;stroke-opacity:1" d="M 845.204,301.156 855.553,312.984 z" id="boundary" inkscape:connector-curvature="0" />
	<path style="fill:none;stroke:red;stroke-width:1px;stroke-linecap:butt;stroke-linejoin:miter;stroke-opacity:1" d="M 852.596,423.863 855.553,404.644 z" id="boundary" inkscape:connector-curvature="0" />
	<path style="fill:none;stroke:red;stroke-width:1px;stroke-linecap:butt;stroke-linejoin:miter;stroke-opacity:1" d="M 855.553,312.984 862.945,326.289 z" id="boundary" inkscape:connector-curvature="0" />
	<path style="fill:none;stroke:red;stroke-width:1px;stroke-linecap:butt;stroke-linejoin:miter;stroke-opacity:1" d="M 855.553,404.644 862.945,389.86 z" id="boundary" inkscape:connector-curvature="0" />
	<path style="fill:none;stroke:red;stroke-width:1px;stroke-linecap:butt;stroke-linejoin:miter;stroke-opacity:1" d="M 862.945,326.289 870.337,339.595 z" id="boundary" inkscape:connector-curvature="0" />
	<path style="fill:none;stroke:red;stroke-width:1px;stroke-linecap:butt;stroke-linejoin:miter;stroke-opacity:1" d="M 862.945,360.292 862.945,375.076 z" id="boundary" inkscape:connector-curvature="0" />
	<path style="fill:none;stroke:red;stroke-width:1px;stroke-linecap:butt;stroke-linejoin:miter;stroke-opacity:1" d="M 862.945,360.292 870.337,339.595 z" id="boundary" inkscape:connector-curvature="0" />
	<path style="fill:none;stroke:red;stroke-width:1px;stroke-linecap:butt;stroke-linejoin:miter;stroke-opacity:1" d="M 862.945,375.076 862.945,389.86 z" id="boundary" inkscape:connector-curvature="0" />
	<circle cx="4" cy="296.721" r="4" fill="#0" id="circle0"/>
	<circle cx="4" cy="311.505" r="4" fill="#0" id="circle1"/>
	<circle cx="4" cy="326.289" r="4" fill="#0" id="circle2"/>
	<circle cx="4" cy="341.073" r="4" fill="#0" id="circle3"/>
	<circle cx="11.392" cy="354.379" r="4" fill="#0" id="circle4"/>
	<circle cx="15.8271" cy="284.894" r="4" fill="#0" id="circle5"/>
	<circle cx="18.7839" cy="367.684" r="4" fill="#0" id="circle6"/>
	<circle cx="18.7839" cy="382.468" r="4" fill="#0" id="circle7"/>
	<circle cx="26.1759" cy="395.773" r="4" fill="#0" id="circle8"/>
	<circle cx="27.6542" cy="273.067" r="4" fill="#0" id="circle9"/>
	<circle cx="35.0462" cy="407.601" r="4" fill="#0" id="circle10"/>
	<circle cx="39.4814" cy="262.718" r="4" fill="#0" id="circle11"/>
	<circle cx="48.3517" cy="414.993" r="4" fill="#0" id="circle12"/>
	<circle cx="49.8301" cy="250.891" r="4" fill="#0" id="circle13"/>
	<circle cx="60.1788" cy="425.341" r="4" fill="#0" id="circle14"/>
	<circle cx="61.6572" cy="240.542" r="4" fill="#0" id="circle15"/>
	<circle cx="70.5276" cy="437.168" r="4" fill="#0" id="circle16"/>
	<circle cx="74.9627" cy="233.151" r="4" fill="#0" id="circle17"/>
	<circle cx="82.3547" cy="447.517" r="4" fill="#0" id="circle18"/>
	<circle cx="88.2683" cy="225.759" r="4" fill="#0" id="circle19"/>
	<circle cx="92.7034" cy="459.344" r="4" fill="#0" id="circle20"/>
	<circle cx="100.095" cy="215.41" r="4" fill="#0" id="circle21"/>
	<circle cx="104.531" cy="469.693" r="4" fill="#0" id="circle22"/>
	<circle cx="111.923" cy="203.583" r="4" fill="#0" id="circle23"/>
	<circle cx="114.879" cy="481.52" r="4" fill="#0" id="circle24"/>
	<circle cx="126.706" cy="196.191" r="4" fill="#0" id="circle25"/>
	<circle cx="126.706" cy="491.869" r="4" fill="#0" id="circle26"/>
	<circle cx="138.534" cy="184.364" r="4" fill="#0" id="circle27"/>
	<circle cx="138.534" cy="500.739" r="4" fill="#0" id="circle28"/>
	<circle cx="151.839" cy="508.131" r="4" fill="#0" id="circle29"/>
	<circle cx="153.317" cy="176.972" r="4" fill="#0" id="circle30"/>
	<circle cx="160.709" cy="519.958" r="4" fill="#0" id="circle31"/>
	<circle cx="168.101" cy="169.58" r="4" fill="#0" id="circle32"/>
	<circle cx="172.537" cy="530.307" r="4" fill="#0" id="circle33"/>
	<circle cx="182.885" cy="162.188" r="4" fill="#0" id="circle34"/>
	<circle cx="185.842" cy="537.699" r="4" fill="#0" id="circle35"/>
	<circle cx="197.669" cy="154.796" r="4" fill="#0" id="circle36"/>
	<circle cx="197.669" cy="548.048" r="4" fill="#0" id="circle37"/>
	<circle cx="208.018" cy="559.875" r="4" fill="#0" id="circle38"/>
	<circle cx="209.496" cy="144.447" r="4" fill="#0" id="circle39"/>
	<circle cx="221.323" cy="567.267" r="4" fill="#0" id="circle40"/>
	<circle cx="222.802" cy="137.055" r="4" fill="#0" id="circle41"/>
	<circle cx="233.151" cy="576.137" r="4" fill="#0" id="circle42"/>
	<circle cx="237.586" cy="129.663" r="4" fill="#0" id="circle43"/>
	<circle cx="243.499" cy="587.964" r="4" fill="#0" id="circle44"/>
	<circle cx="250.891" cy="122.271" r="4" fill="#0" id="circle45"/>
	<circle cx="258.283" cy="593.878" r="4" fill="#0" id="circle46"/>
	<circle cx="264.197" cy="114.879" r="4" fill="#0" id="circle47"/>
	<circle cx="271.589" cy="601.27" r="4" fill="#0" id="circle48"/>
	<circle cx="277.502" cy="107.487" r="4" fill="#0" id="circle49"/>
	<circle cx="283.416" cy="611.618" r="4" fill="#0" id="circle50"/>
	<circle cx="290.808" cy="100.095" r="4" fill="#0" id="circle51"/>
	<circle cx="296.721" cy="619.01" r="4" fill="#0" id="circle52"/>
	<circle cx="304.113" cy="92.7034" r="4" fill="#0" id="circle53"/>
	<circle cx="311.505" cy="619.01" r="4" fill="#0" id="circle54"/>
	<circle cx="317.419" cy="85.3115" r="4" fill="#0" id="circle55"/>
	<circle cx="326.289" cy="619.01" r="4" fill="#0" id="circle56"/>
	<circle cx="330.724" cy="77.9195" r="4" fill="#0" id="circle57"/>
	<circle cx="336.638" cy="644.143" r="4" fill="#0" id="circle58"/>
	<circle cx="336.638" cy="658.927" r="4" fill="#0" id="circle59"/>
	<circle cx="336.638" cy="673.711" r="4" fill="#0" id="circle60"/>
	<circle cx="336.638" cy="688.495" r="4" fill="#0" id="circle61"/>
	<circle cx="341.073" cy="624.924" r="4" fill="#0" id="circle62"/>
	<circle cx="345.508" cy="73.4844" r="4" fill="#0" id="circle63"/>
	<circle cx="351.422" cy="692.93" r="4" fill="#0" id="circle64"/>
	<circle cx="351.422" cy="984.173" r="4" fill="#0" id="circle65"/>
	<circle cx="357.335" cy="63.1356" r="4" fill="#0" id="circle66"/>
	<circle cx="358.814" cy="969.389" r="4" fill="#0" id="circle67"/>
	<circle cx="363.249" cy="994.522" r="4" fill="#0" id="circle68"/>
	<circle cx="366.206" cy="692.93" r="4" fill="#0" id="circle69"/>
	<circle cx="370.641" cy="55.7437" r="4" fill="#0" id="circle70"/>
	<circle cx="370.641" cy="957.562" r="4" fill="#0" id="circle71"/>
	<circle cx="373.598" cy="706.235" r="4" fill="#0" id="circle72"/>
	<circle cx="378.033" cy="942.778" r="4" fill="#0" id="circle73"/>
	<circle cx="378.033" cy="996" r="4" fill="#0" id="circle74"/>
	<circle cx="382.468" cy="43.9165" r="4" fill="#0" id="circle75"/>
	<circle cx="382.468" cy="718.063" r="4" fill="#0" id="circle76"/>
	<circle cx="385.425" cy="927.994" r="4" fill="#0" id="circle77"/>
	<circle cx="392.817" cy="729.89" r="4" fill="#0" id="circle78"/>
	<circle cx="392.817" cy="913.21" r="4" fill="#0" id="circle79"/>
	<circle cx="392.817" cy="994.522" r="4" fill="#0" id="circle80"/>
	<circle cx="394.295" cy="33.5678" r="4" fill="#0" id="circle81"/>
	<circle cx="395.773" cy="888.077" r="4" fill="#0" id="circle82"/>
	<circle cx="400.209" cy="743.195" r="4" fill="#0" id="circle83"/>
	<circle cx="403.165" cy="858.51" r="4" fill="#0" id="circle84"/>
	<circle cx="403.165" cy="873.294" r="4" fill="#0" id="circle85"/>
	<circle cx="404.644" cy="981.216" r="4" fill="#0" id="circle86"/>
	<circle cx="406.122" cy="757.979" r="4" fill="#0" id="circle87"/>
	<circle cx="407.601" cy="26.1759" r="4" fill="#0" id="circle88"/>
	<circle cx="410.557" cy="772.763" r="4" fill="#0" id="circle89"/>
	<circle cx="410.557" cy="787.547" r="4" fill="#0" id="circle90"/>
	<circle cx="410.557" cy="802.331" r="4" fill="#0" id="circle91"/>
	<circle cx="410.557" cy="817.115" r="4" fill="#0" id="circle92"/>
	<circle cx="410.557" cy="831.899" r="4" fill="#0" id="circle93"/>
	<circle cx="416.471" cy="970.867" r="4" fill="#0" id="circle94"/>
	<circle cx="420.906" cy="18.7839" r="4" fill="#0" id="circle95"/>
	<circle cx="426.82" cy="951.648" r="4" fill="#0" id="circle96"/>
	<circle cx="432.733" cy="8.43517" r="4" fill="#0" id="circle97"/>
	<circle cx="438.647" cy="941.3" r="4" fill="#0" id="circle98"/>
	<circle cx="446.039" cy="926.516" r="4" fill="#0" id="circle99"/>
	<circle cx="447.517" cy="4" r="4" fill="#0" id="circle100"/>
	<circle cx="453.431" cy="911.732" r="4" fill="#0" id="circle101"/>
	<circle cx="462.301" cy="4" r="4" fill="#0" id="circle102"/>
	<circle cx="463.779" cy="744.674" r="4" fill="#0" id="circle103"/>
	<circle cx="463.779" cy="759.458" r="4" fill="#0" id="circle104"/>
	<circle cx="463.779" cy="774.241" r="4" fill="#0" id="circle105"/>
	<circle cx="463.779" cy="789.025" r="4" fill="#0" id="circle106"/>
	<circle cx="463.779" cy="803.809" r="4" fill="#0" id="circle107"/>
	<circle cx="463.779" cy="818.593" r="4" fill="#0" id="circle108"/>
	<circle cx="463.779" cy="833.377" r="4" fill="#0" id="circle109"/>
	<circle cx="463.779" cy="848.161" r="4" fill="#0" id="circle110"/>
	<circle cx="463.779" cy="862.945" r="4" fill="#0" id="circle111"/>
	<circle cx="463.779" cy="877.729" r="4" fill="#0" id="circle112"/>
	<circle cx="463.779" cy="892.513" r="4" fill="#0" id="circle113"/>
	<circle cx="471.171" cy="729.89" r="4" fill="#0" id="circle114"/>
	<circle cx="475.607" cy="11.392" r="4" fill="#0" id="circle115"/>
	<circle cx="482.999" cy="719.541" r="4" fill="#0" id="circle116"/>
	<circle cx="488.912" cy="18.7839" r="4" fill="#0" id="circle117"/>
	<circle cx="493.347" cy="707.714" r="4" fill="#0" id="circle118"/>
	<circle cx="502.218" cy="26.1759" r="4" fill="#0" id="circle119"/>
	<circle cx="508.131" cy="700.322" r="4" fill="#0" id="circle120"/>
	<circle cx="515.523" cy="33.5678" r="4" fill="#0" id="circle121"/>
	<circle cx="522.915" cy="626.402" r="4" fill="#0" id="circle122"/>
	<circle cx="522.915" cy="641.186" r="4" fill="#0" id="circle123"/>
	<circle cx="522.915" cy="685.538" r="4" fill="#0" id="circle124"/>
	<circle cx="525.872" cy="655.97" r="4" fill="#0" id="circle125"/>
	<circle cx="527.35" cy="42.4382" r="4" fill="#0" id="circle126"/>
	<circle cx="530.307" cy="670.754" r="4" fill="#0" id="circle127"/>
	<circle cx="537.699" cy="54.2653" r="4" fill="#0" id="circle128"/>
	<circle cx="537.699" cy="626.402" r="4" fill="#0" id="circle129"/>
	<circle cx="545.091" cy="67.5708" r="4" fill="#0" id="circle130"/>
	<circle cx="552.483" cy="626.402" r="4" fill="#0" id="circle131"/>
	<circle cx="555.44" cy="79.3979" r="4" fill="#0" id="circle132"/>
	<circle cx="565.788" cy="619.01" r="4" fill="#0" id="circle133"/>
	<circle cx="567.267" cy="89.7466" r="4" fill="#0" id="circle134"/>
	<circle cx="577.615" cy="101.574" r="4" fill="#0" id="circle135"/>
	<circle cx="580.572" cy="614.575" r="4" fill="#0" id="circle136"/>
	<circle cx="589.443" cy="111.923" r="4" fill="#0" id="circle137"/>
	<circle cx="595.356" cy="607.183" r="4" fill="#0" id="circle138"/>
	<circle cx="602.748" cy="119.314" r="4" fill="#0" id="circle139"/>
	<circle cx="610.14" cy="599.791" r="4" fill="#0" id="circle140"/>
	<circle cx="617.532" cy="125.228" r="4" fill="#0" id="circle141"/>
	<circle cx="621.967" cy="589.443" r="4" fill="#0" id="circle142"/>
	<circle cx="626.402" cy="137.055" r="4" fill="#0" id="circle143"/>
	<circle cx="635.273" cy="582.051" r="4" fill="#0" id="circle144"/>
	<circle cx="638.23" cy="145.925" r="4" fill="#0" id="circle145"/>
	<circle cx="648.578" cy="574.659" r="4" fill="#0" id="circle146"/>
	<circle cx="651.535" cy="153.317" r="4" fill="#0" id="circle147"/>
	<circle cx="663.362" cy="567.267" r="4" fill="#0" id="circle148"/>
	<circle cx="666.319" cy="159.231" r="4" fill="#0" id="circle149"/>
	<circle cx="678.146" cy="559.875" r="4" fill="#0" id="circle150"/>
	<circle cx="679.624" cy="166.623" r="4" fill="#0" id="circle151"/>
	<circle cx="689.973" cy="549.526" r="4" fill="#0" id="circle152"/>
	<circle cx="692.93" cy="174.015" r="4" fill="#0" id="circle153"/>
	<circle cx="704.757" cy="542.134" r="4" fill="#0" id="circle154"/>
	<circle cx="706.235" cy="181.407" r="4" fill="#0" id="circle155"/>
	<circle cx="719.541" cy="188.799" r="4" fill="#0" id="circle156"/>
	<circle cx="719.541" cy="534.742" r="4" fill="#0" id="circle157"/>
	<circle cx="732.846" cy="196.191" r="4" fill="#0" id="circle158"/>
	<circle cx="734.325" cy="527.35" r="4" fill="#0" id="circle159"/>
	<circle cx="743.195" cy="208.018" r="4" fill="#0" id="circle160"/>
	<circle cx="749.109" cy="519.958" r="4" fill="#0" id="circle161"/>
	<circle cx="755.022" cy="218.367" r="4" fill="#0" id="circle162"/>
	<circle cx="759.458" cy="508.131" r="4" fill="#0" id="circle163"/>
	<circle cx="768.328" cy="225.759" r="4" fill="#0" id="circle164"/>
	<circle cx="771.285" cy="497.782" r="4" fill="#0" id="circle165"/>
	<circle cx="780.155" cy="236.107" r="4" fill="#0" id="circle166"/>
	<circle cx="781.633" cy="485.955" r="4" fill="#0" id="circle167"/>
	<circle cx="789.025" cy="247.934" r="4" fill="#0" id="circle168"/>
	<circle cx="793.461" cy="475.607" r="4" fill="#0" id="circle169"/>
	<circle cx="800.852" cy="256.805" r="4" fill="#0" id="circle170"/>
	<circle cx="803.809" cy="463.779" r="4" fill="#0" id="circle171"/>
	<circle cx="811.201" cy="268.632" r="4" fill="#0" id="circle172"/>
	<circle cx="818.593" cy="456.387" r="4" fill="#0" id="circle173"/>
	<circle cx="823.028" cy="278.981" r="4" fill="#0" id="circle174"/>
	<circle cx="830.42" cy="446.039" r="4" fill="#0" id="circle175"/>
	<circle cx="833.377" cy="290.808" r="4" fill="#0" id="circle176"/>
	<circle cx="840.769" cy="434.212" r="4" fill="#0" id="circle177"/>
	<circle cx="845.204" cy="301.156" r="4" fill="#0" id="circle178"/>
	<circle cx="852.596" cy="423.863" r="4" fill="#0" id="circle179"/>
	<circle cx="855.553" cy="312.984" r="4" fill="#0" id="circle180"/>
	<circle cx="855.553" cy="404.644" r="4" fill="#0" id="circle181"/>
	<circle cx="862.945" cy="326.289" r="4" fill="#0" id="circle182"/>
	<circle cx="862.945" cy="360.292" r="4" fill="#0" id="circle183"/>
	<circle cx="862.945" cy="375.076" r="4" fill="#0" id="circle184"/>
	<circle cx="862.945" cy="389.86" r="4" fill="#0" id="circle185"/>
	<circle cx="870.337" cy="339.595" r="4" fill="#0" id="circle186"/>
	</g>
</svg>