<?xml version="1.0" encoding="UTF-8" standalone="no"?>
<!-- Created with CurveBenchmark -->
<svg
	xmlns:dc="http://purl.org/dc/elements/1.1/"
	xmlns:cc="http://creativecommons.org/ns#"
	xmlns:rdf="http://www.w3.org/1999/02/22-rdf-syntax-ns#"
	xmlns:svg="http://www.w3.org/2000/svg"
	xmlns="http://www.w3.org/2000/svg"
	xmlns:sodipodi="http://sodipodi.sourceforge.net/DTD/sodipodi-0.dtd"
	xmlns:inkscape="http://www.inkscape.org/namespaces/inkscape"
	width="1000"
	height="1000"
	id="svg2"
	version="1.1"
	sodipodi:docname="manifold/hnncrust-fish-5.png.txt">
<defs
	id="defs4" />
<metadata
	id="metadata7">
	<rdf:RDF>
		<cc:Work
			rdf:about="">
			<dc:format>image/svg+xml</dc:format>
			<dc:type
				rdf:resource="http://purl.org/dc/dcmitype/StillImage" />
			<dc:title></dc:title>
		</cc:Work>
	</rdf:RDF>
</metadata>
<g
	inkscape:label="Layer 1"
	inkscape:groupmode="layer"
	id="layer1">
	<path style="fill:none;stroke:red;stroke-width:1px;stroke-linecap:butt;stroke-linejoin:miter;stroke-opacity:1" d="M 4,184.11 4,191.091 z" id="boundary" inkscape:connector-curvature="0" />
	<path style="fill:none;stroke:red;stroke-width:1px;stroke-linecap:butt;stroke-linejoin:miter;stroke-opacity:1" d="M 4,184.11 7.4905,177.129 z" id="boundary" inkscape:connector-curvature="0" />
	<path style="fill:none;stroke:red;stroke-width:1px;stroke-linecap:butt;stroke-linejoin:miter;stroke-opacity:1" d="M 4,191.091 4,198.072 z" id="boundary" inkscape:connector-curvature="0" />
	<path style="fill:none;stroke:red;stroke-width:1px;stroke-linecap:butt;stroke-linejoin:miter;stroke-opacity:1" d="M 4,198.072 4,205.053 z" id="boundary" inkscape:connector-curvature="0" />
	<path style="fill:none;stroke:red;stroke-width:1px;stroke-linecap:butt;stroke-linejoin:miter;stroke-opacity:1" d="M 4,205.053 4,212.034 z" id="boundary" inkscape:connector-curvature="0" />
	<path style="fill:none;stroke:red;stroke-width:1px;stroke-linecap:butt;stroke-linejoin:miter;stroke-opacity:1" d="M 4,212.034 4,219.015 z" id="boundary" inkscape:connector-curvature="0" />
	<path style="fill:none;stroke:red;stroke-width:1px;stroke-linecap:butt;stroke-linejoin:miter;stroke-opacity:1" d="M 4,219.015 9.5848,223.901 z" id="boundary" inkscape:connector-curvature="0" />
	<path style="fill:none;stroke:red;stroke-width:1px;stroke-linecap:butt;stroke-linejoin:miter;stroke-opacity:1" d="M 7.4905,177.129 10.981,166.657 z" id="boundary" inkscape:connector-curvature="0" />
	<path style="fill:none;stroke:red;stroke-width:1px;stroke-linecap:butt;stroke-linejoin:miter;stroke-opacity:1" d="M 9.5848,223.901 12.3772,230.882 z" id="boundary" inkscape:connector-curvature="0" />
	<path style="fill:none;stroke:red;stroke-width:1px;stroke-linecap:butt;stroke-linejoin:miter;stroke-opacity:1" d="M 10.981,159.676 10.981,166.657 z" id="boundary" inkscape:connector-curvature="0" />
	<path style="fill:none;stroke:red;stroke-width:1px;stroke-linecap:butt;stroke-linejoin:miter;stroke-opacity:1" d="M 10.981,159.676 14.4715,152.695 z" id="boundary" inkscape:connector-curvature="0" />
	<path style="fill:none;stroke:red;stroke-width:1px;stroke-linecap:butt;stroke-linejoin:miter;stroke-opacity:1" d="M 12.3772,230.882 17.962,235.071 z" id="boundary" inkscape:connector-curvature="0" />
	<path style="fill:none;stroke:red;stroke-width:1px;stroke-linecap:butt;stroke-linejoin:miter;stroke-opacity:1" d="M 14.4715,152.695 17.962,145.714 z" id="boundary" inkscape:connector-curvature="0" />
	<path style="fill:none;stroke:red;stroke-width:1px;stroke-linecap:butt;stroke-linejoin:miter;stroke-opacity:1" d="M 17.962,145.714 23.5468,140.129 z" id="boundary" inkscape:connector-curvature="0" />
	<path style="fill:none;stroke:red;stroke-width:1px;stroke-linecap:butt;stroke-linejoin:miter;stroke-opacity:1" d="M 17.962,235.071 22.1506,240.656 z" id="boundary" inkscape:connector-curvature="0" />
	<path style="fill:none;stroke:red;stroke-width:1px;stroke-linecap:butt;stroke-linejoin:miter;stroke-opacity:1" d="M 22.1506,240.656 29.1316,242.052 z" id="boundary" inkscape:connector-curvature="0" />
	<path style="fill:none;stroke:red;stroke-width:1px;stroke-linecap:butt;stroke-linejoin:miter;stroke-opacity:1" d="M 23.5468,140.129 30.5278,136.639 z" id="boundary" inkscape:connector-curvature="0" />
	<path style="fill:none;stroke:red;stroke-width:1px;stroke-linecap:butt;stroke-linejoin:miter;stroke-opacity:1" d="M 29.1316,242.052 35.4145,245.543 z" id="boundary" inkscape:connector-curvature="0" />
	<path style="fill:none;stroke:red;stroke-width:1px;stroke-linecap:butt;stroke-linejoin:miter;stroke-opacity:1" d="M 30.5278,136.639 36.1126,131.054 z" id="boundary" inkscape:connector-curvature="0" />
	<path style="fill:none;stroke:red;stroke-width:1px;stroke-linecap:butt;stroke-linejoin:miter;stroke-opacity:1" d="M 35.4145,245.543 41.6974,249.033 z" id="boundary" inkscape:connector-curvature="0" />
	<path style="fill:none;stroke:red;stroke-width:1px;stroke-linecap:butt;stroke-linejoin:miter;stroke-opacity:1" d="M 36.1126,131.054 43.0936,127.564 z" id="boundary" inkscape:connector-curvature="0" />
	<path style="fill:none;stroke:red;stroke-width:1px;stroke-linecap:butt;stroke-linejoin:miter;stroke-opacity:1" d="M 41.6974,249.033 48.6784,249.033 z" id="boundary" inkscape:connector-curvature="0" />
	<path style="fill:none;stroke:red;stroke-width:1px;stroke-linecap:butt;stroke-linejoin:miter;stroke-opacity:1" d="M 43.0936,127.564 50.0746,126.167 z" id="boundary" inkscape:connector-curvature="0" />
	<path style="fill:none;stroke:red;stroke-width:1px;stroke-linecap:butt;stroke-linejoin:miter;stroke-opacity:1" d="M 48.6784,249.033 55.6594,249.033 z" id="boundary" inkscape:connector-curvature="0" />
	<path style="fill:none;stroke:red;stroke-width:1px;stroke-linecap:butt;stroke-linejoin:miter;stroke-opacity:1" d="M 50.0746,126.167 57.0556,126.167 z" id="boundary" inkscape:connector-curvature="0" />
	<path style="fill:none;stroke:red;stroke-width:1px;stroke-linecap:butt;stroke-linejoin:miter;stroke-opacity:1" d="M 55.6594,249.033 62.6404,249.033 z" id="boundary" inkscape:connector-curvature="0" />
	<path style="fill:none;stroke:red;stroke-width:1px;stroke-linecap:butt;stroke-linejoin:miter;stroke-opacity:1" d="M 57.0556,126.167 64.0366,128.262 z" id="boundary" inkscape:connector-curvature="0" />
	<path style="fill:none;stroke:red;stroke-width:1px;stroke-linecap:butt;stroke-linejoin:miter;stroke-opacity:1" d="M 62.6404,249.033 69.6214,249.033 z" id="boundary" inkscape:connector-curvature="0" />
	<path style="fill:none;stroke:red;stroke-width:1px;stroke-linecap:butt;stroke-linejoin:miter;stroke-opacity:1" d="M 64.0366,128.262 71.0176,129.658 z" id="boundary" inkscape:connector-curvature="0" />
	<path style="fill:none;stroke:red;stroke-width:1px;stroke-linecap:butt;stroke-linejoin:miter;stroke-opacity:1" d="M 69.6214,249.033 76.6024,249.033 z" id="boundary" inkscape:connector-curvature="0" />
	<path style="fill:none;stroke:red;stroke-width:1px;stroke-linecap:butt;stroke-linejoin:miter;stroke-opacity:1" d="M 71.0176,129.658 77.9986,129.658 z" id="boundary" inkscape:connector-curvature="0" />
	<path style="fill:none;stroke:red;stroke-width:1px;stroke-linecap:butt;stroke-linejoin:miter;stroke-opacity:1" d="M 76.6024,249.033 83.5834,249.033 z" id="boundary" inkscape:connector-curvature="0" />
	<path style="fill:none;stroke:red;stroke-width:1px;stroke-linecap:butt;stroke-linejoin:miter;stroke-opacity:1" d="M 77.9986,129.658 84.9796,131.752 z" id="boundary" inkscape:connector-curvature="0" />
	<path style="fill:none;stroke:red;stroke-width:1px;stroke-linecap:butt;stroke-linejoin:miter;stroke-opacity:1" d="M 83.5834,249.033 90.5644,249.033 z" id="boundary" inkscape:connector-curvature="0" />
	<path style="fill:none;stroke:red;stroke-width:1px;stroke-linecap:butt;stroke-linejoin:miter;stroke-opacity:1" d="M 84.9796,131.752 91.9606,133.148 z" id="boundary" inkscape:connector-curvature="0" />
	<path style="fill:none;stroke:red;stroke-width:1px;stroke-linecap:butt;stroke-linejoin:miter;stroke-opacity:1" d="M 90.5644,249.033 96.8473,245.543 z" id="boundary" inkscape:connector-curvature="0" />
	<path style="fill:none;stroke:red;stroke-width:1px;stroke-linecap:butt;stroke-linejoin:miter;stroke-opacity:1" d="M 91.9606,133.148 98.9416,133.148 z" id="boundary" inkscape:connector-curvature="0" />
	<path style="fill:none;stroke:red;stroke-width:1px;stroke-linecap:butt;stroke-linejoin:miter;stroke-opacity:1" d="M 96.8473,245.543 103.828,245.543 z" id="boundary" inkscape:connector-curvature="0" />
	<path style="fill:none;stroke:red;stroke-width:1px;stroke-linecap:butt;stroke-linejoin:miter;stroke-opacity:1" d="M 98.9416,133.148 105.224,136.639 z" id="boundary" inkscape:connector-curvature="0" />
	<path style="fill:none;stroke:red;stroke-width:1px;stroke-linecap:butt;stroke-linejoin:miter;stroke-opacity:1" d="M 103.828,245.543 110.809,245.543 z" id="boundary" inkscape:connector-curvature="0" />
	<path style="fill:none;stroke:red;stroke-width:1px;stroke-linecap:butt;stroke-linejoin:miter;stroke-opacity:1" d="M 105.224,136.639 112.205,138.035 z" id="boundary" inkscape:connector-curvature="0" />
	<path style="fill:none;stroke:red;stroke-width:1px;stroke-linecap:butt;stroke-linejoin:miter;stroke-opacity:1" d="M 110.809,245.543 117.79,244.844 z" id="boundary" inkscape:connector-curvature="0" />
	<path style="fill:none;stroke:red;stroke-width:1px;stroke-linecap:butt;stroke-linejoin:miter;stroke-opacity:1" d="M 112.205,138.035 119.186,140.129 z" id="boundary" inkscape:connector-curvature="0" />
	<path style="fill:none;stroke:red;stroke-width:1px;stroke-linecap:butt;stroke-linejoin:miter;stroke-opacity:1" d="M 117.79,244.844 124.771,242.052 z" id="boundary" inkscape:connector-curvature="0" />
	<path style="fill:none;stroke:red;stroke-width:1px;stroke-linecap:butt;stroke-linejoin:miter;stroke-opacity:1" d="M 119.186,140.129 126.167,141.526 z" id="boundary" inkscape:connector-curvature="0" />
	<path style="fill:none;stroke:red;stroke-width:1px;stroke-linecap:butt;stroke-linejoin:miter;stroke-opacity:1" d="M 124.771,242.052 131.752,242.052 z" id="boundary" inkscape:connector-curvature="0" />
	<path style="fill:none;stroke:red;stroke-width:1px;stroke-linecap:butt;stroke-linejoin:miter;stroke-opacity:1" d="M 126.167,141.526 133.148,143.62 z" id="boundary" inkscape:connector-curvature="0" />
	<path style="fill:none;stroke:red;stroke-width:1px;stroke-linecap:butt;stroke-linejoin:miter;stroke-opacity:1" d="M 131.752,242.052 138.733,241.354 z" id="boundary" inkscape:connector-curvature="0" />
	<path style="fill:none;stroke:red;stroke-width:1px;stroke-linecap:butt;stroke-linejoin:miter;stroke-opacity:1" d="M 133.148,143.62 140.129,145.016 z" id="boundary" inkscape:connector-curvature="0" />
	<path style="fill:none;stroke:red;stroke-width:1px;stroke-linecap:butt;stroke-linejoin:miter;stroke-opacity:1" d="M 138.733,241.354 145.714,238.562 z" id="boundary" inkscape:connector-curvature="0" />
	<path style="fill:none;stroke:red;stroke-width:1px;stroke-linecap:butt;stroke-linejoin:miter;stroke-opacity:1" d="M 140.129,145.016 147.11,147.11 z" id="boundary" inkscape:connector-curvature="0" />
	<path style="fill:none;stroke:red;stroke-width:1px;stroke-linecap:butt;stroke-linejoin:miter;stroke-opacity:1" d="M 145.714,238.562 152.695,238.562 z" id="boundary" inkscape:connector-curvature="0" />
	<path style="fill:none;stroke:red;stroke-width:1px;stroke-linecap:butt;stroke-linejoin:miter;stroke-opacity:1" d="M 147.11,147.11 154.091,148.507 z" id="boundary" inkscape:connector-curvature="0" />
	<path style="fill:none;stroke:red;stroke-width:1px;stroke-linecap:butt;stroke-linejoin:miter;stroke-opacity:1" d="M 152.695,238.562 158.978,235.071 z" id="boundary" inkscape:connector-curvature="0" />
	<path style="fill:none;stroke:red;stroke-width:1px;stroke-linecap:butt;stroke-linejoin:miter;stroke-opacity:1" d="M 154.091,148.507 160.374,151.997 z" id="boundary" inkscape:connector-curvature="0" />
	<path style="fill:none;stroke:red;stroke-width:1px;stroke-linecap:butt;stroke-linejoin:miter;stroke-opacity:1" d="M 158.978,235.071 165.261,231.581 z" id="boundary" inkscape:connector-curvature="0" />
	<path style="fill:none;stroke:red;stroke-width:1px;stroke-linecap:butt;stroke-linejoin:miter;stroke-opacity:1" d="M 160.374,151.997 167.355,154.091 z" id="boundary" inkscape:connector-curvature="0" />
	<path style="fill:none;stroke:red;stroke-width:1px;stroke-linecap:butt;stroke-linejoin:miter;stroke-opacity:1" d="M 165.261,231.581 172.242,228.09 z" id="boundary" inkscape:connector-curvature="0" />
	<path style="fill:none;stroke:red;stroke-width:1px;stroke-linecap:butt;stroke-linejoin:miter;stroke-opacity:1" d="M 167.355,154.091 173.638,157.582 z" id="boundary" inkscape:connector-curvature="0" />
	<path style="fill:none;stroke:red;stroke-width:1px;stroke-linecap:butt;stroke-linejoin:miter;stroke-opacity:1" d="M 172.242,228.09 179.223,228.09 z" id="boundary" inkscape:connector-curvature="0" />
	<path style="fill:none;stroke:red;stroke-width:1px;stroke-linecap:butt;stroke-linejoin:miter;stroke-opacity:1" d="M 173.638,157.582 180.619,157.582 z" id="boundary" inkscape:connector-curvature="0" />
	<path style="fill:none;stroke:red;stroke-width:1px;stroke-linecap:butt;stroke-linejoin:miter;stroke-opacity:1" d="M 179.223,228.09 186.204,228.09 z" id="boundary" inkscape:connector-curvature="0" />
	<path style="fill:none;stroke:red;stroke-width:1px;stroke-linecap:butt;stroke-linejoin:miter;stroke-opacity:1" d="M 180.619,157.582 187.6,157.582 z" id="boundary" inkscape:connector-curvature="0" />
	<path style="fill:none;stroke:red;stroke-width:1px;stroke-linecap:butt;stroke-linejoin:miter;stroke-opacity:1" d="M 186.204,228.09 193.185,228.09 z" id="boundary" inkscape:connector-curvature="0" />
	<path style="fill:none;stroke:red;stroke-width:1px;stroke-linecap:butt;stroke-linejoin:miter;stroke-opacity:1" d="M 187.6,157.582 193.883,161.072 z" id="boundary" inkscape:connector-curvature="0" />
	<path style="fill:none;stroke:red;stroke-width:1px;stroke-linecap:butt;stroke-linejoin:miter;stroke-opacity:1" d="M 193.185,228.09 200.166,228.09 z" id="boundary" inkscape:connector-curvature="0" />
	<path style="fill:none;stroke:red;stroke-width:1px;stroke-linecap:butt;stroke-linejoin:miter;stroke-opacity:1" d="M 193.883,161.072 200.864,161.072 z" id="boundary" inkscape:connector-curvature="0" />
	<path style="fill:none;stroke:red;stroke-width:1px;stroke-linecap:butt;stroke-linejoin:miter;stroke-opacity:1" d="M 199.468,243.448 202.958,249.731 z" id="boundary" inkscape:connector-curvature="0" />
	<path style="fill:none;stroke:red;stroke-width:1px;stroke-linecap:butt;stroke-linejoin:miter;stroke-opacity:1" d="M 199.468,243.448 205.053,237.863 z" id="boundary" inkscape:connector-curvature="0" />
	<path style="fill:none;stroke:red;stroke-width:1px;stroke-linecap:butt;stroke-linejoin:miter;stroke-opacity:1" d="M 200.166,228.09 207.147,228.09 z" id="boundary" inkscape:connector-curvature="0" />
	<path style="fill:none;stroke:red;stroke-width:1px;stroke-linecap:butt;stroke-linejoin:miter;stroke-opacity:1" d="M 200.864,161.072 207.845,158.28 z" id="boundary" inkscape:connector-curvature="0" />
	<path style="fill:none;stroke:red;stroke-width:1px;stroke-linecap:butt;stroke-linejoin:miter;stroke-opacity:1" d="M 202.958,249.731 209.939,252.524 z" id="boundary" inkscape:connector-curvature="0" />
	<path style="fill:none;stroke:red;stroke-width:1px;stroke-linecap:butt;stroke-linejoin:miter;stroke-opacity:1" d="M 207.147,228.09 214.128,228.09 z" id="boundary" inkscape:connector-curvature="0" />
	<path style="fill:none;stroke:red;stroke-width:1px;stroke-linecap:butt;stroke-linejoin:miter;stroke-opacity:1" d="M 207.845,158.28 214.826,157.582 z" id="boundary" inkscape:connector-curvature="0" />
	<path style="fill:none;stroke:red;stroke-width:1px;stroke-linecap:butt;stroke-linejoin:miter;stroke-opacity:1" d="M 209.939,142.224 214.128,147.809 z" id="boundary" inkscape:connector-curvature="0" />
	<path style="fill:none;stroke:red;stroke-width:1px;stroke-linecap:butt;stroke-linejoin:miter;stroke-opacity:1" d="M 209.939,142.224 216.92,138.733 z" id="boundary" inkscape:connector-curvature="0" />
	<path style="fill:none;stroke:red;stroke-width:1px;stroke-linecap:butt;stroke-linejoin:miter;stroke-opacity:1" d="M 209.939,252.524 216.222,256.014 z" id="boundary" inkscape:connector-curvature="0" />
	<path style="fill:none;stroke:red;stroke-width:1px;stroke-linecap:butt;stroke-linejoin:miter;stroke-opacity:1" d="M 214.128,147.809 220.411,151.299 z" id="boundary" inkscape:connector-curvature="0" />
	<path style="fill:none;stroke:red;stroke-width:1px;stroke-linecap:butt;stroke-linejoin:miter;stroke-opacity:1" d="M 216.222,256.014 222.505,259.505 z" id="boundary" inkscape:connector-curvature="0" />
	<path style="fill:none;stroke:red;stroke-width:1px;stroke-linecap:butt;stroke-linejoin:miter;stroke-opacity:1" d="M 216.92,138.733 222.505,133.148 z" id="boundary" inkscape:connector-curvature="0" />
	<path style="fill:none;stroke:red;stroke-width:1px;stroke-linecap:butt;stroke-linejoin:miter;stroke-opacity:1" d="M 220.411,151.299 223.901,157.582 z" id="boundary" inkscape:connector-curvature="0" />
	<path style="fill:none;stroke:red;stroke-width:1px;stroke-linecap:butt;stroke-linejoin:miter;stroke-opacity:1" d="M 222.505,133.148 228.09,127.564 z" id="boundary" inkscape:connector-curvature="0" />
	<path style="fill:none;stroke:red;stroke-width:1px;stroke-linecap:butt;stroke-linejoin:miter;stroke-opacity:1" d="M 222.505,259.505 229.486,262.297 z" id="boundary" inkscape:connector-curvature="0" />
	<path style="fill:none;stroke:red;stroke-width:1px;stroke-linecap:butt;stroke-linejoin:miter;stroke-opacity:1" d="M 228.09,127.564 235.071,124.073 z" id="boundary" inkscape:connector-curvature="0" />
	<path style="fill:none;stroke:red;stroke-width:1px;stroke-linecap:butt;stroke-linejoin:miter;stroke-opacity:1" d="M 229.486,262.297 236.467,262.995 z" id="boundary" inkscape:connector-curvature="0" />
	<path style="fill:none;stroke:red;stroke-width:1px;stroke-linecap:butt;stroke-linejoin:miter;stroke-opacity:1" d="M 235.071,124.073 240.656,119.186 z" id="boundary" inkscape:connector-curvature="0" />
	<path style="fill:none;stroke:red;stroke-width:1px;stroke-linecap:butt;stroke-linejoin:miter;stroke-opacity:1" d="M 236.467,262.995 242.75,266.486 z" id="boundary" inkscape:connector-curvature="0" />
	<path style="fill:none;stroke:red;stroke-width:1px;stroke-linecap:butt;stroke-linejoin:miter;stroke-opacity:1" d="M 240.656,119.186 245.543,113.602 z" id="boundary" inkscape:connector-curvature="0" />
	<path style="fill:none;stroke:red;stroke-width:1px;stroke-linecap:butt;stroke-linejoin:miter;stroke-opacity:1" d="M 242.75,266.486 249.033,269.976 z" id="boundary" inkscape:connector-curvature="0" />
	<path style="fill:none;stroke:red;stroke-width:1px;stroke-linecap:butt;stroke-linejoin:miter;stroke-opacity:1" d="M 245.543,113.602 251.825,107.319 z" id="boundary" inkscape:connector-curvature="0" />
	<path style="fill:none;stroke:red;stroke-width:1px;stroke-linecap:butt;stroke-linejoin:miter;stroke-opacity:1" d="M 249.033,269.976 256.014,271.372 z" id="boundary" inkscape:connector-curvature="0" />
	<path style="fill:none;stroke:red;stroke-width:1px;stroke-linecap:butt;stroke-linejoin:miter;stroke-opacity:1" d="M 251.825,107.319 257.41,101.734 z" id="boundary" inkscape:connector-curvature="0" />
	<path style="fill:none;stroke:red;stroke-width:1px;stroke-linecap:butt;stroke-linejoin:miter;stroke-opacity:1" d="M 256.014,271.372 262.995,273.467 z" id="boundary" inkscape:connector-curvature="0" />
	<path style="fill:none;stroke:red;stroke-width:1px;stroke-linecap:butt;stroke-linejoin:miter;stroke-opacity:1" d="M 257.41,101.734 262.995,96.1492 z" id="boundary" inkscape:connector-curvature="0" />
	<path style="fill:none;stroke:red;stroke-width:1px;stroke-linecap:butt;stroke-linejoin:miter;stroke-opacity:1" d="M 262.995,96.1492 269.976,92.6587 z" id="boundary" inkscape:connector-curvature="0" />
	<path style="fill:none;stroke:red;stroke-width:1px;stroke-linecap:butt;stroke-linejoin:miter;stroke-opacity:1" d="M 262.995,273.467 269.976,274.863 z" id="boundary" inkscape:connector-curvature="0" />
	<path style="fill:none;stroke:red;stroke-width:1px;stroke-linecap:butt;stroke-linejoin:miter;stroke-opacity:1" d="M 269.976,92.6587 275.561,87.772 z" id="boundary" inkscape:connector-curvature="0" />
	<path style="fill:none;stroke:red;stroke-width:1px;stroke-linecap:butt;stroke-linejoin:miter;stroke-opacity:1" d="M 269.976,274.863 276.259,278.353 z" id="boundary" inkscape:connector-curvature="0" />
	<path style="fill:none;stroke:red;stroke-width:1px;stroke-linecap:butt;stroke-linejoin:miter;stroke-opacity:1" d="M 275.561,87.772 281.844,84.2815 z" id="boundary" inkscape:connector-curvature="0" />
	<path style="fill:none;stroke:red;stroke-width:1px;stroke-linecap:butt;stroke-linejoin:miter;stroke-opacity:1" d="M 276.259,278.353 283.24,280.448 z" id="boundary" inkscape:connector-curvature="0" />
	<path style="fill:none;stroke:red;stroke-width:1px;stroke-linecap:butt;stroke-linejoin:miter;stroke-opacity:1" d="M 281.844,84.2815 288.127,80.791 z" id="boundary" inkscape:connector-curvature="0" />
	<path style="fill:none;stroke:red;stroke-width:1px;stroke-linecap:butt;stroke-linejoin:miter;stroke-opacity:1" d="M 283.24,280.448 290.221,280.448 z" id="boundary" inkscape:connector-curvature="0" />
	<path style="fill:none;stroke:red;stroke-width:1px;stroke-linecap:butt;stroke-linejoin:miter;stroke-opacity:1" d="M 288.127,80.791 295.108,77.9986 z" id="boundary" inkscape:connector-curvature="0" />
	<path style="fill:none;stroke:red;stroke-width:1px;stroke-linecap:butt;stroke-linejoin:miter;stroke-opacity:1" d="M 290.221,280.448 296.504,283.938 z" id="boundary" inkscape:connector-curvature="0" />
	<path style="fill:none;stroke:red;stroke-width:1px;stroke-linecap:butt;stroke-linejoin:miter;stroke-opacity:1" d="M 295.108,77.9986 302.089,77.3005 z" id="boundary" inkscape:connector-curvature="0" />
	<path style="fill:none;stroke:red;stroke-width:1px;stroke-linecap:butt;stroke-linejoin:miter;stroke-opacity:1" d="M 296.504,283.938 303.485,283.938 z" id="boundary" inkscape:connector-curvature="0" />
	<path style="fill:none;stroke:red;stroke-width:1px;stroke-linecap:butt;stroke-linejoin:miter;stroke-opacity:1" d="M 302.089,77.3005 309.07,77.3005 z" id="boundary" inkscape:connector-curvature="0" />
	<path style="fill:none;stroke:red;stroke-width:1px;stroke-linecap:butt;stroke-linejoin:miter;stroke-opacity:1" d="M 303.485,283.938 309.768,287.429 z" id="boundary" inkscape:connector-curvature="0" />
	<path style="fill:none;stroke:red;stroke-width:1px;stroke-linecap:butt;stroke-linejoin:miter;stroke-opacity:1" d="M 309.07,77.3005 316.051,77.3005 z" id="boundary" inkscape:connector-curvature="0" />
	<path style="fill:none;stroke:red;stroke-width:1px;stroke-linecap:butt;stroke-linejoin:miter;stroke-opacity:1" d="M 309.768,287.429 316.749,287.429 z" id="boundary" inkscape:connector-curvature="0" />
	<path style="fill:none;stroke:red;stroke-width:1px;stroke-linecap:butt;stroke-linejoin:miter;stroke-opacity:1" d="M 316.051,77.3005 322.334,80.791 z" id="boundary" inkscape:connector-curvature="0" />
	<path style="fill:none;stroke:red;stroke-width:1px;stroke-linecap:butt;stroke-linejoin:miter;stroke-opacity:1" d="M 316.749,287.429 323.73,290.221 z" id="boundary" inkscape:connector-curvature="0" />
	<path style="fill:none;stroke:red;stroke-width:1px;stroke-linecap:butt;stroke-linejoin:miter;stroke-opacity:1" d="M 322.334,80.791 329.315,82.8853 z" id="boundary" inkscape:connector-curvature="0" />
	<path style="fill:none;stroke:red;stroke-width:1px;stroke-linecap:butt;stroke-linejoin:miter;stroke-opacity:1" d="M 323.73,290.221 330.711,290.919 z" id="boundary" inkscape:connector-curvature="0" />
	<path style="fill:none;stroke:red;stroke-width:1px;stroke-linecap:butt;stroke-linejoin:miter;stroke-opacity:1" d="M 329.315,82.8853 336.296,84.2815 z" id="boundary" inkscape:connector-curvature="0" />
	<path style="fill:none;stroke:red;stroke-width:1px;stroke-linecap:butt;stroke-linejoin:miter;stroke-opacity:1" d="M 330.711,290.919 336.994,294.41 z" id="boundary" inkscape:connector-curvature="0" />
	<path style="fill:none;stroke:red;stroke-width:1px;stroke-linecap:butt;stroke-linejoin:miter;stroke-opacity:1" d="M 336.296,84.2815 343.277,86.3758 z" id="boundary" inkscape:connector-curvature="0" />
	<path style="fill:none;stroke:red;stroke-width:1px;stroke-linecap:butt;stroke-linejoin:miter;stroke-opacity:1" d="M 336.994,294.41 343.975,294.41 z" id="boundary" inkscape:connector-curvature="0" />
	<path style="fill:none;stroke:red;stroke-width:1px;stroke-linecap:butt;stroke-linejoin:miter;stroke-opacity:1" d="M 343.277,86.3758 350.258,87.772 z" id="boundary" inkscape:connector-curvature="0" />
	<path style="fill:none;stroke:red;stroke-width:1px;stroke-linecap:butt;stroke-linejoin:miter;stroke-opacity:1" d="M 343.975,294.41 350.956,296.504 z" id="boundary" inkscape:connector-curvature="0" />
	<path style="fill:none;stroke:red;stroke-width:1px;stroke-linecap:butt;stroke-linejoin:miter;stroke-opacity:1" d="M 350.258,87.772 357.239,89.8663 z" id="boundary" inkscape:connector-curvature="0" />
	<path style="fill:none;stroke:red;stroke-width:1px;stroke-linecap:butt;stroke-linejoin:miter;stroke-opacity:1" d="M 350.956,296.504 357.937,297.9 z" id="boundary" inkscape:connector-curvature="0" />
	<path style="fill:none;stroke:red;stroke-width:1px;stroke-linecap:butt;stroke-linejoin:miter;stroke-opacity:1" d="M 357.239,89.8663 363.521,93.3568 z" id="boundary" inkscape:connector-curvature="0" />
	<path style="fill:none;stroke:red;stroke-width:1px;stroke-linecap:butt;stroke-linejoin:miter;stroke-opacity:1" d="M 357.937,297.9 364.918,299.994 z" id="boundary" inkscape:connector-curvature="0" />
	<path style="fill:none;stroke:red;stroke-width:1px;stroke-linecap:butt;stroke-linejoin:miter;stroke-opacity:1" d="M 363.521,93.3568 370.502,94.753 z" id="boundary" inkscape:connector-curvature="0" />
	<path style="fill:none;stroke:red;stroke-width:1px;stroke-linecap:butt;stroke-linejoin:miter;stroke-opacity:1" d="M 364.918,299.994 371.899,301.391 z" id="boundary" inkscape:connector-curvature="0" />
	<path style="fill:none;stroke:red;stroke-width:1px;stroke-linecap:butt;stroke-linejoin:miter;stroke-opacity:1" d="M 370.502,94.753 376.785,98.2435 z" id="boundary" inkscape:connector-curvature="0" />
	<path style="fill:none;stroke:red;stroke-width:1px;stroke-linecap:butt;stroke-linejoin:miter;stroke-opacity:1" d="M 371.899,301.391 378.88,301.391 z" id="boundary" inkscape:connector-curvature="0" />
	<path style="fill:none;stroke:red;stroke-width:1px;stroke-linecap:butt;stroke-linejoin:miter;stroke-opacity:1" d="M 376.785,98.2435 383.766,98.2435 z" id="boundary" inkscape:connector-curvature="0" />
	<path style="fill:none;stroke:red;stroke-width:1px;stroke-linecap:butt;stroke-linejoin:miter;stroke-opacity:1" d="M 378.88,301.391 385.861,301.391 z" id="boundary" inkscape:connector-curvature="0" />
	<path style="fill:none;stroke:red;stroke-width:1px;stroke-linecap:butt;stroke-linejoin:miter;stroke-opacity:1" d="M 383.766,98.2435 390.049,101.734 z" id="boundary" inkscape:connector-curvature="0" />
	<path style="fill:none;stroke:red;stroke-width:1px;stroke-linecap:butt;stroke-linejoin:miter;stroke-opacity:1" d="M 385.861,301.391 392.842,303.485 z" id="boundary" inkscape:connector-curvature="0" />
	<path style="fill:none;stroke:red;stroke-width:1px;stroke-linecap:butt;stroke-linejoin:miter;stroke-opacity:1" d="M 390.049,101.734 396.332,105.224 z" id="boundary" inkscape:connector-curvature="0" />
	<path style="fill:none;stroke:red;stroke-width:1px;stroke-linecap:butt;stroke-linejoin:miter;stroke-opacity:1" d="M 392.842,303.485 399.823,304.881 z" id="boundary" inkscape:connector-curvature="0" />
	<path style="fill:none;stroke:red;stroke-width:1px;stroke-linecap:butt;stroke-linejoin:miter;stroke-opacity:1" d="M 396.332,105.224 402.615,108.715 z" id="boundary" inkscape:connector-curvature="0" />
	<path style="fill:none;stroke:red;stroke-width:1px;stroke-linecap:butt;stroke-linejoin:miter;stroke-opacity:1" d="M 399.823,304.881 406.804,304.881 z" id="boundary" inkscape:connector-curvature="0" />
	<path style="fill:none;stroke:red;stroke-width:1px;stroke-linecap:butt;stroke-linejoin:miter;stroke-opacity:1" d="M 402.615,108.715 409.596,110.809 z" id="boundary" inkscape:connector-curvature="0" />
	<path style="fill:none;stroke:red;stroke-width:1px;stroke-linecap:butt;stroke-linejoin:miter;stroke-opacity:1" d="M 406.804,304.881 413.087,308.372 z" id="boundary" inkscape:connector-curvature="0" />
	<path style="fill:none;stroke:red;stroke-width:1px;stroke-linecap:butt;stroke-linejoin:miter;stroke-opacity:1" d="M 409.596,110.809 415.879,114.3 z" id="boundary" inkscape:connector-curvature="0" />
	<path style="fill:none;stroke:red;stroke-width:1px;stroke-linecap:butt;stroke-linejoin:miter;stroke-opacity:1" d="M 413.087,308.372 420.068,308.372 z" id="boundary" inkscape:connector-curvature="0" />
	<path style="fill:none;stroke:red;stroke-width:1px;stroke-linecap:butt;stroke-linejoin:miter;stroke-opacity:1" d="M 415.879,114.3 422.86,117.092 z" id="boundary" inkscape:connector-curvature="0" />
	<path style="fill:none;stroke:red;stroke-width:1px;stroke-linecap:butt;stroke-linejoin:miter;stroke-opacity:1" d="M 420.068,308.372 427.049,309.768 z" id="boundary" inkscape:connector-curvature="0" />
	<path style="fill:none;stroke:red;stroke-width:1px;stroke-linecap:butt;stroke-linejoin:miter;stroke-opacity:1" d="M 422.86,117.092 427.049,122.677 z" id="boundary" inkscape:connector-curvature="0" />
	<path style="fill:none;stroke:red;stroke-width:1px;stroke-linecap:butt;stroke-linejoin:miter;stroke-opacity:1" d="M 427.049,122.677 433.331,117.79 z" id="boundary" inkscape:connector-curvature="0" />
	<path style="fill:none;stroke:red;stroke-width:1px;stroke-linecap:butt;stroke-linejoin:miter;stroke-opacity:1" d="M 427.049,309.768 434.03,311.862 z" id="boundary" inkscape:connector-curvature="0" />
	<path style="fill:none;stroke:red;stroke-width:1px;stroke-linecap:butt;stroke-linejoin:miter;stroke-opacity:1" d="M 433.331,117.79 438.916,112.205 z" id="boundary" inkscape:connector-curvature="0" />
	<path style="fill:none;stroke:red;stroke-width:1px;stroke-linecap:butt;stroke-linejoin:miter;stroke-opacity:1" d="M 434.03,311.862 441.011,311.862 z" id="boundary" inkscape:connector-curvature="0" />
	<path style="fill:none;stroke:red;stroke-width:1px;stroke-linecap:butt;stroke-linejoin:miter;stroke-opacity:1" d="M 438.916,112.205 443.803,103.828 z" id="boundary" inkscape:connector-curvature="0" />
	<path style="fill:none;stroke:red;stroke-width:1px;stroke-linecap:butt;stroke-linejoin:miter;stroke-opacity:1" d="M 441.011,311.862 447.293,315.353 z" id="boundary" inkscape:connector-curvature="0" />
	<path style="fill:none;stroke:red;stroke-width:1px;stroke-linecap:butt;stroke-linejoin:miter;stroke-opacity:1" d="M 443.803,103.828 449.388,98.2435 z" id="boundary" inkscape:connector-curvature="0" />
	<path style="fill:none;stroke:red;stroke-width:1px;stroke-linecap:butt;stroke-linejoin:miter;stroke-opacity:1" d="M 447.293,315.353 454.274,315.353 z" id="boundary" inkscape:connector-curvature="0" />
	<path style="fill:none;stroke:red;stroke-width:1px;stroke-linecap:butt;stroke-linejoin:miter;stroke-opacity:1" d="M 449.388,98.2435 456.369,98.2435 z" id="boundary" inkscape:connector-curvature="0" />
	<path style="fill:none;stroke:red;stroke-width:1px;stroke-linecap:butt;stroke-linejoin:miter;stroke-opacity:1" d="M 454.274,315.353 461.255,315.353 z" id="boundary" inkscape:connector-curvature="0" />
	<path style="fill:none;stroke:red;stroke-width:1px;stroke-linecap:butt;stroke-linejoin:miter;stroke-opacity:1" d="M 456.369,98.2435 461.954,92.6587 z" id="boundary" inkscape:connector-curvature="0" />
	<path style="fill:none;stroke:red;stroke-width:1px;stroke-linecap:butt;stroke-linejoin:miter;stroke-opacity:1" d="M 461.255,315.353 468.236,315.353 z" id="boundary" inkscape:connector-curvature="0" />
	<path style="fill:none;stroke:red;stroke-width:1px;stroke-linecap:butt;stroke-linejoin:miter;stroke-opacity:1" d="M 461.954,92.6587 467.538,87.772 z" id="boundary" inkscape:connector-curvature="0" />
	<path style="fill:none;stroke:red;stroke-width:1px;stroke-linecap:butt;stroke-linejoin:miter;stroke-opacity:1" d="M 467.538,87.772 473.821,84.2815 z" id="boundary" inkscape:connector-curvature="0" />
	<path style="fill:none;stroke:red;stroke-width:1px;stroke-linecap:butt;stroke-linejoin:miter;stroke-opacity:1" d="M 468.236,315.353 475.217,315.353 z" id="boundary" inkscape:connector-curvature="0" />
	<path style="fill:none;stroke:red;stroke-width:1px;stroke-linecap:butt;stroke-linejoin:miter;stroke-opacity:1" d="M 473.821,84.2815 480.104,80.791 z" id="boundary" inkscape:connector-curvature="0" />
	<path style="fill:none;stroke:red;stroke-width:1px;stroke-linecap:butt;stroke-linejoin:miter;stroke-opacity:1" d="M 475.217,315.353 482.198,315.353 z" id="boundary" inkscape:connector-curvature="0" />
	<path style="fill:none;stroke:red;stroke-width:1px;stroke-linecap:butt;stroke-linejoin:miter;stroke-opacity:1" d="M 480.104,80.791 486.387,77.3005 z" id="boundary" inkscape:connector-curvature="0" />
	<path style="fill:none;stroke:red;stroke-width:1px;stroke-linecap:butt;stroke-linejoin:miter;stroke-opacity:1" d="M 482.198,315.353 489.179,315.353 z" id="boundary" inkscape:connector-curvature="0" />
	<path style="fill:none;stroke:red;stroke-width:1px;stroke-linecap:butt;stroke-linejoin:miter;stroke-opacity:1" d="M 486.387,77.3005 493.368,75.2062 z" id="boundary" inkscape:connector-curvature="0" />
	<path style="fill:none;stroke:red;stroke-width:1px;stroke-linecap:butt;stroke-linejoin:miter;stroke-opacity:1" d="M 489.179,315.353 496.16,315.353 z" id="boundary" inkscape:connector-curvature="0" />
	<path style="fill:none;stroke:red;stroke-width:1px;stroke-linecap:butt;stroke-linejoin:miter;stroke-opacity:1" d="M 493.368,75.2062 498.953,70.3195 z" id="boundary" inkscape:connector-curvature="0" />
	<path style="fill:none;stroke:red;stroke-width:1px;stroke-linecap:butt;stroke-linejoin:miter;stroke-opacity:1" d="M 496.16,315.353 503.141,315.353 z" id="boundary" inkscape:connector-curvature="0" />
	<path style="fill:none;stroke:red;stroke-width:1px;stroke-linecap:butt;stroke-linejoin:miter;stroke-opacity:1" d="M 498.953,70.3195 505.236,66.829 z" id="boundary" inkscape:connector-curvature="0" />
	<path style="fill:none;stroke:red;stroke-width:1px;stroke-linecap:butt;stroke-linejoin:miter;stroke-opacity:1" d="M 503.141,315.353 510.122,315.353 z" id="boundary" inkscape:connector-curvature="0" />
	<path style="fill:none;stroke:red;stroke-width:1px;stroke-linecap:butt;stroke-linejoin:miter;stroke-opacity:1" d="M 505.236,66.829 512.217,63.3385 z" id="boundary" inkscape:connector-curvature="0" />
	<path style="fill:none;stroke:red;stroke-width:1px;stroke-linecap:butt;stroke-linejoin:miter;stroke-opacity:1" d="M 510.122,315.353 517.103,315.353 z" id="boundary" inkscape:connector-curvature="0" />
	<path style="fill:none;stroke:red;stroke-width:1px;stroke-linecap:butt;stroke-linejoin:miter;stroke-opacity:1" d="M 512.217,63.3385 519.198,59.848 z" id="boundary" inkscape:connector-curvature="0" />
	<path style="fill:none;stroke:red;stroke-width:1px;stroke-linecap:butt;stroke-linejoin:miter;stroke-opacity:1" d="M 517.103,315.353 524.084,315.353 z" id="boundary" inkscape:connector-curvature="0" />
	<path style="fill:none;stroke:red;stroke-width:1px;stroke-linecap:butt;stroke-linejoin:miter;stroke-opacity:1" d="M 519.198,59.848 526.179,56.3575 z" id="boundary" inkscape:connector-curvature="0" />
	<path style="fill:none;stroke:red;stroke-width:1px;stroke-linecap:butt;stroke-linejoin:miter;stroke-opacity:1" d="M 524.084,315.353 531.065,315.353 z" id="boundary" inkscape:connector-curvature="0" />
	<path style="fill:none;stroke:red;stroke-width:1px;stroke-linecap:butt;stroke-linejoin:miter;stroke-opacity:1" d="M 526.179,56.3575 533.16,52.867 z" id="boundary" inkscape:connector-curvature="0" />
	<path style="fill:none;stroke:red;stroke-width:1px;stroke-linecap:butt;stroke-linejoin:miter;stroke-opacity:1" d="M 531.065,315.353 538.046,315.353 z" id="boundary" inkscape:connector-curvature="0" />
	<path style="fill:none;stroke:red;stroke-width:1px;stroke-linecap:butt;stroke-linejoin:miter;stroke-opacity:1" d="M 533.16,52.867 540.141,52.867 z" id="boundary" inkscape:connector-curvature="0" />
	<path style="fill:none;stroke:red;stroke-width:1px;stroke-linecap:butt;stroke-linejoin:miter;stroke-opacity:1" d="M 538.046,315.353 544.329,318.843 z" id="boundary" inkscape:connector-curvature="0" />
	<path style="fill:none;stroke:red;stroke-width:1px;stroke-linecap:butt;stroke-linejoin:miter;stroke-opacity:1" d="M 540.141,52.867 547.122,49.3765 z" id="boundary" inkscape:connector-curvature="0" />
	<path style="fill:none;stroke:red;stroke-width:1px;stroke-linecap:butt;stroke-linejoin:miter;stroke-opacity:1" d="M 544.329,318.843 551.31,318.843 z" id="boundary" inkscape:connector-curvature="0" />
	<path style="fill:none;stroke:red;stroke-width:1px;stroke-linecap:butt;stroke-linejoin:miter;stroke-opacity:1" d="M 547.122,49.3765 553.405,45.886 z" id="boundary" inkscape:connector-curvature="0" />
	<path style="fill:none;stroke:red;stroke-width:1px;stroke-linecap:butt;stroke-linejoin:miter;stroke-opacity:1" d="M 551.31,318.843 558.291,318.843 z" id="boundary" inkscape:connector-curvature="0" />
	<path style="fill:none;stroke:red;stroke-width:1px;stroke-linecap:butt;stroke-linejoin:miter;stroke-opacity:1" d="M 553.405,45.886 560.386,43.0936 z" id="boundary" inkscape:connector-curvature="0" />
	<path style="fill:none;stroke:red;stroke-width:1px;stroke-linecap:butt;stroke-linejoin:miter;stroke-opacity:1" d="M 558.291,318.843 565.272,318.843 z" id="boundary" inkscape:connector-curvature="0" />
	<path style="fill:none;stroke:red;stroke-width:1px;stroke-linecap:butt;stroke-linejoin:miter;stroke-opacity:1" d="M 560.386,43.0936 567.367,39.6031 z" id="boundary" inkscape:connector-curvature="0" />
	<path style="fill:none;stroke:red;stroke-width:1px;stroke-linecap:butt;stroke-linejoin:miter;stroke-opacity:1" d="M 565.272,318.843 572.253,318.843 z" id="boundary" inkscape:connector-curvature="0" />
	<path style="fill:none;stroke:red;stroke-width:1px;stroke-linecap:butt;stroke-linejoin:miter;stroke-opacity:1" d="M 567.367,39.6031 574.348,38.905 z" id="boundary" inkscape:connector-curvature="0" />
	<path style="fill:none;stroke:red;stroke-width:1px;stroke-linecap:butt;stroke-linejoin:miter;stroke-opacity:1" d="M 572.253,318.843 579.234,318.843 z" id="boundary" inkscape:connector-curvature="0" />
	<path style="fill:none;stroke:red;stroke-width:1px;stroke-linecap:butt;stroke-linejoin:miter;stroke-opacity:1" d="M 574.348,38.905 580.631,35.4145 z" id="boundary" inkscape:connector-curvature="0" />
	<path style="fill:none;stroke:red;stroke-width:1px;stroke-linecap:butt;stroke-linejoin:miter;stroke-opacity:1" d="M 579.234,318.843 586.215,317.447 z" id="boundary" inkscape:connector-curvature="0" />
	<path style="fill:none;stroke:red;stroke-width:1px;stroke-linecap:butt;stroke-linejoin:miter;stroke-opacity:1" d="M 580.631,35.4145 587.612,33.3202 z" id="boundary" inkscape:connector-curvature="0" />
	<path style="fill:none;stroke:red;stroke-width:1px;stroke-linecap:butt;stroke-linejoin:miter;stroke-opacity:1" d="M 586.215,317.447 593.196,315.353 z" id="boundary" inkscape:connector-curvature="0" />
	<path style="fill:none;stroke:red;stroke-width:1px;stroke-linecap:butt;stroke-linejoin:miter;stroke-opacity:1" d="M 587.612,33.3202 594.593,31.924 z" id="boundary" inkscape:connector-curvature="0" />
	<path style="fill:none;stroke:red;stroke-width:1px;stroke-linecap:butt;stroke-linejoin:miter;stroke-opacity:1" d="M 593.196,315.353 600.177,315.353 z" id="boundary" inkscape:connector-curvature="0" />
	<path style="fill:none;stroke:red;stroke-width:1px;stroke-linecap:butt;stroke-linejoin:miter;stroke-opacity:1" d="M 594.593,31.924 600.875,28.4335 z" id="boundary" inkscape:connector-curvature="0" />
	<path style="fill:none;stroke:red;stroke-width:1px;stroke-linecap:butt;stroke-linejoin:miter;stroke-opacity:1" d="M 600.177,315.353 607.158,315.353 z" id="boundary" inkscape:connector-curvature="0" />
	<path style="fill:none;stroke:red;stroke-width:1px;stroke-linecap:butt;stroke-linejoin:miter;stroke-opacity:1" d="M 600.875,28.4335 607.158,24.943 z" id="boundary" inkscape:connector-curvature="0" />
	<path style="fill:none;stroke:red;stroke-width:1px;stroke-linecap:butt;stroke-linejoin:miter;stroke-opacity:1" d="M 607.158,24.943 614.139,24.943 z" id="boundary" inkscape:connector-curvature="0" />
	<path style="fill:none;stroke:red;stroke-width:1px;stroke-linecap:butt;stroke-linejoin:miter;stroke-opacity:1" d="M 607.158,315.353 614.139,315.353 z" id="boundary" inkscape:connector-curvature="0" />
	<path style="fill:none;stroke:red;stroke-width:1px;stroke-linecap:butt;stroke-linejoin:miter;stroke-opacity:1" d="M 614.139,24.943 620.422,21.4525 z" id="boundary" inkscape:connector-curvature="0" />
	<path style="fill:none;stroke:red;stroke-width:1px;stroke-linecap:butt;stroke-linejoin:miter;stroke-opacity:1" d="M 614.139,315.353 621.12,315.353 z" id="boundary" inkscape:connector-curvature="0" />
	<path style="fill:none;stroke:red;stroke-width:1px;stroke-linecap:butt;stroke-linejoin:miter;stroke-opacity:1" d="M 620.422,21.4525 627.403,21.4525 z" id="boundary" inkscape:connector-curvature="0" />
	<path style="fill:none;stroke:red;stroke-width:1px;stroke-linecap:butt;stroke-linejoin:miter;stroke-opacity:1" d="M 621.12,315.353 627.403,311.862 z" id="boundary" inkscape:connector-curvature="0" />
	<path style="fill:none;stroke:red;stroke-width:1px;stroke-linecap:butt;stroke-linejoin:miter;stroke-opacity:1" d="M 627.403,21.4525 633.686,17.962 z" id="boundary" inkscape:connector-curvature="0" />
	<path style="fill:none;stroke:red;stroke-width:1px;stroke-linecap:butt;stroke-linejoin:miter;stroke-opacity:1" d="M 627.403,311.862 634.384,311.164 z" id="boundary" inkscape:connector-curvature="0" />
	<path style="fill:none;stroke:red;stroke-width:1px;stroke-linecap:butt;stroke-linejoin:miter;stroke-opacity:1" d="M 633.686,17.962 640.667,15.1696 z" id="boundary" inkscape:connector-curvature="0" />
	<path style="fill:none;stroke:red;stroke-width:1px;stroke-linecap:butt;stroke-linejoin:miter;stroke-opacity:1" d="M 634.384,311.164 637.875,304.183 z" id="boundary" inkscape:connector-curvature="0" />
	<path style="fill:none;stroke:red;stroke-width:1px;stroke-linecap:butt;stroke-linejoin:miter;stroke-opacity:1" d="M 637.875,304.183 643.46,297.9 z" id="boundary" inkscape:connector-curvature="0" />
	<path style="fill:none;stroke:red;stroke-width:1px;stroke-linecap:butt;stroke-linejoin:miter;stroke-opacity:1" d="M 640.667,15.1696 647.648,14.4715 z" id="boundary" inkscape:connector-curvature="0" />
	<path style="fill:none;stroke:red;stroke-width:1px;stroke-linecap:butt;stroke-linejoin:miter;stroke-opacity:1" d="M 643.46,297.9 649.044,293.013 z" id="boundary" inkscape:connector-curvature="0" />
	<path style="fill:none;stroke:red;stroke-width:1px;stroke-linecap:butt;stroke-linejoin:miter;stroke-opacity:1" d="M 647.648,14.4715 653.931,10.981 z" id="boundary" inkscape:connector-curvature="0" />
	<path style="fill:none;stroke:red;stroke-width:1px;stroke-linecap:butt;stroke-linejoin:miter;stroke-opacity:1" d="M 649.044,293.013 653.931,287.429 z" id="boundary" inkscape:connector-curvature="0" />
	<path style="fill:none;stroke:red;stroke-width:1px;stroke-linecap:butt;stroke-linejoin:miter;stroke-opacity:1" d="M 653.931,10.981 660.912,10.981 z" id="boundary" inkscape:connector-curvature="0" />
	<path style="fill:none;stroke:red;stroke-width:1px;stroke-linecap:butt;stroke-linejoin:miter;stroke-opacity:1" d="M 653.931,287.429 660.912,288.825 z" id="boundary" inkscape:connector-curvature="0" />
	<path style="fill:none;stroke:red;stroke-width:1px;stroke-linecap:butt;stroke-linejoin:miter;stroke-opacity:1" d="M 660.912,10.981 667.195,7.4905 z" id="boundary" inkscape:connector-curvature="0" />
	<path style="fill:none;stroke:red;stroke-width:1px;stroke-linecap:butt;stroke-linejoin:miter;stroke-opacity:1" d="M 660.912,288.825 667.893,290.919 z" id="boundary" inkscape:connector-curvature="0" />
	<path style="fill:none;stroke:red;stroke-width:1px;stroke-linecap:butt;stroke-linejoin:miter;stroke-opacity:1" d="M 667.195,7.4905 674.176,6.0943 z" id="boundary" inkscape:connector-curvature="0" />
	<path style="fill:none;stroke:red;stroke-width:1px;stroke-linecap:butt;stroke-linejoin:miter;stroke-opacity:1" d="M 667.893,290.919 674.874,290.919 z" id="boundary" inkscape:connector-curvature="0" />
	<path style="fill:none;stroke:red;stroke-width:1px;stroke-linecap:butt;stroke-linejoin:miter;stroke-opacity:1" d="M 674.176,6.0943 681.157,4 z" id="boundary" inkscape:connector-curvature="0" />
	<path style="fill:none;stroke:red;stroke-width:1px;stroke-linecap:butt;stroke-linejoin:miter;stroke-opacity:1" d="M 674.874,290.919 681.157,294.41 z" id="boundary" inkscape:connector-curvature="0" />
	<path style="fill:none;stroke:red;stroke-width:1px;stroke-linecap:butt;stroke-linejoin:miter;stroke-opacity:1" d="M 681.157,4 686.742,8.1886 z" id="boundary" inkscape:connector-curvature="0" />
	<path style="fill:none;stroke:red;stroke-width:1px;stroke-linecap:butt;stroke-linejoin:miter;stroke-opacity:1" d="M 681.157,294.41 688.138,294.41 z" id="boundary" inkscape:connector-curvature="0" />
	<path style="fill:none;stroke:red;stroke-width:1px;stroke-linecap:butt;stroke-linejoin:miter;stroke-opacity:1" d="M 686.742,8.1886 692.327,13.0753 z" id="boundary" inkscape:connector-curvature="0" />
	<path style="fill:none;stroke:red;stroke-width:1px;stroke-linecap:butt;stroke-linejoin:miter;stroke-opacity:1" d="M 688.138,294.41 695.119,294.41 z" id="boundary" inkscape:connector-curvature="0" />
	<path style="fill:none;stroke:red;stroke-width:1px;stroke-linecap:butt;stroke-linejoin:miter;stroke-opacity:1" d="M 692.327,13.0753 697.213,18.6601 z" id="boundary" inkscape:connector-curvature="0" />
	<path style="fill:none;stroke:red;stroke-width:1px;stroke-linecap:butt;stroke-linejoin:miter;stroke-opacity:1" d="M 695.119,294.41 702.1,294.41 z" id="boundary" inkscape:connector-curvature="0" />
	<path style="fill:none;stroke:red;stroke-width:1px;stroke-linecap:butt;stroke-linejoin:miter;stroke-opacity:1" d="M 697.213,18.6601 702.798,23.5468 z" id="boundary" inkscape:connector-curvature="0" />
	<path style="fill:none;stroke:red;stroke-width:1px;stroke-linecap:butt;stroke-linejoin:miter;stroke-opacity:1" d="M 702.1,294.41 709.081,294.41 z" id="boundary" inkscape:connector-curvature="0" />
	<path style="fill:none;stroke:red;stroke-width:1px;stroke-linecap:butt;stroke-linejoin:miter;stroke-opacity:1" d="M 702.798,23.5468 706.289,29.8297 z" id="boundary" inkscape:connector-curvature="0" />
	<path style="fill:none;stroke:red;stroke-width:1px;stroke-linecap:butt;stroke-linejoin:miter;stroke-opacity:1" d="M 706.289,29.8297 709.779,36.1126 z" id="boundary" inkscape:connector-curvature="0" />
	<path style="fill:none;stroke:red;stroke-width:1px;stroke-linecap:butt;stroke-linejoin:miter;stroke-opacity:1" d="M 709.081,294.41 716.062,294.41 z" id="boundary" inkscape:connector-curvature="0" />
	<path style="fill:none;stroke:red;stroke-width:1px;stroke-linecap:butt;stroke-linejoin:miter;stroke-opacity:1" d="M 709.779,36.1126 713.27,42.3955 z" id="boundary" inkscape:connector-curvature="0" />
	<path style="fill:none;stroke:red;stroke-width:1px;stroke-linecap:butt;stroke-linejoin:miter;stroke-opacity:1" d="M 713.27,42.3955 716.76,48.6784 z" id="boundary" inkscape:connector-curvature="0" />
	<path style="fill:none;stroke:red;stroke-width:1px;stroke-linecap:butt;stroke-linejoin:miter;stroke-opacity:1" d="M 716.062,294.41 722.345,297.9 z" id="boundary" inkscape:connector-curvature="0" />
	<path style="fill:none;stroke:red;stroke-width:1px;stroke-linecap:butt;stroke-linejoin:miter;stroke-opacity:1" d="M 716.76,48.6784 720.251,54.9613 z" id="boundary" inkscape:connector-curvature="0" />
	<path style="fill:none;stroke:red;stroke-width:1px;stroke-linecap:butt;stroke-linejoin:miter;stroke-opacity:1" d="M 720.251,54.9613 723.741,61.2442 z" id="boundary" inkscape:connector-curvature="0" />
	<path style="fill:none;stroke:red;stroke-width:1px;stroke-linecap:butt;stroke-linejoin:miter;stroke-opacity:1" d="M 722.345,297.9 729.326,297.9 z" id="boundary" inkscape:connector-curvature="0" />
	<path style="fill:none;stroke:red;stroke-width:1px;stroke-linecap:butt;stroke-linejoin:miter;stroke-opacity:1" d="M 723.741,61.2442 727.93,66.829 z" id="boundary" inkscape:connector-curvature="0" />
	<path style="fill:none;stroke:red;stroke-width:1px;stroke-linecap:butt;stroke-linejoin:miter;stroke-opacity:1" d="M 727.93,66.829 734.213,70.3195 z" id="boundary" inkscape:connector-curvature="0" />
	<path style="fill:none;stroke:red;stroke-width:1px;stroke-linecap:butt;stroke-linejoin:miter;stroke-opacity:1" d="M 729.326,297.9 736.307,297.9 z" id="boundary" inkscape:connector-curvature="0" />
	<path style="fill:none;stroke:red;stroke-width:1px;stroke-linecap:butt;stroke-linejoin:miter;stroke-opacity:1" d="M 734.213,70.3195 737.703,76.6024 z" id="boundary" inkscape:connector-curvature="0" />
	<path style="fill:none;stroke:red;stroke-width:1px;stroke-linecap:butt;stroke-linejoin:miter;stroke-opacity:1" d="M 736.307,297.9 743.288,297.9 z" id="boundary" inkscape:connector-curvature="0" />
	<path style="fill:none;stroke:red;stroke-width:1px;stroke-linecap:butt;stroke-linejoin:miter;stroke-opacity:1" d="M 737.703,76.6024 741.194,82.8853 z" id="boundary" inkscape:connector-curvature="0" />
	<path style="fill:none;stroke:red;stroke-width:1px;stroke-linecap:butt;stroke-linejoin:miter;stroke-opacity:1" d="M 741.194,82.8853 746.08,88.4701 z" id="boundary" inkscape:connector-curvature="0" />
	<path style="fill:none;stroke:red;stroke-width:1px;stroke-linecap:butt;stroke-linejoin:miter;stroke-opacity:1" d="M 743.288,297.9 750.269,297.9 z" id="boundary" inkscape:connector-curvature="0" />
	<path style="fill:none;stroke:red;stroke-width:1px;stroke-linecap:butt;stroke-linejoin:miter;stroke-opacity:1" d="M 746.08,88.4701 751.665,93.3568 z" id="boundary" inkscape:connector-curvature="0" />
	<path style="fill:none;stroke:red;stroke-width:1px;stroke-linecap:butt;stroke-linejoin:miter;stroke-opacity:1" d="M 750.269,297.9 756.552,294.41 z" id="boundary" inkscape:connector-curvature="0" />
	<path style="fill:none;stroke:red;stroke-width:1px;stroke-linecap:butt;stroke-linejoin:miter;stroke-opacity:1" d="M 751.665,93.3568 757.25,98.2435 z" id="boundary" inkscape:connector-curvature="0" />
	<path style="fill:none;stroke:red;stroke-width:1px;stroke-linecap:butt;stroke-linejoin:miter;stroke-opacity:1" d="M 756.552,294.41 763.533,294.41 z" id="boundary" inkscape:connector-curvature="0" />
	<path style="fill:none;stroke:red;stroke-width:1px;stroke-linecap:butt;stroke-linejoin:miter;stroke-opacity:1" d="M 757.25,98.2435 764.231,98.2435 z" id="boundary" inkscape:connector-curvature="0" />
	<path style="fill:none;stroke:red;stroke-width:1px;stroke-linecap:butt;stroke-linejoin:miter;stroke-opacity:1" d="M 763.533,294.41 769.816,290.919 z" id="boundary" inkscape:connector-curvature="0" />
	<path style="fill:none;stroke:red;stroke-width:1px;stroke-linecap:butt;stroke-linejoin:miter;stroke-opacity:1" d="M 764.231,98.2435 770.514,101.734 z" id="boundary" inkscape:connector-curvature="0" />
	<path style="fill:none;stroke:red;stroke-width:1px;stroke-linecap:butt;stroke-linejoin:miter;stroke-opacity:1" d="M 768.419,355.144 772.608,360.729 z" id="boundary" inkscape:connector-curvature="0" />
	<path style="fill:none;stroke:red;stroke-width:1px;stroke-linecap:butt;stroke-linejoin:miter;stroke-opacity:1" d="M 768.419,355.144 774.004,349.559 z" id="boundary" inkscape:connector-curvature="0" />
	<path style="fill:none;stroke:red;stroke-width:1px;stroke-linecap:butt;stroke-linejoin:miter;stroke-opacity:1" d="M 769.816,290.919 776.099,287.429 z" id="boundary" inkscape:connector-curvature="0" />
	<path style="fill:none;stroke:red;stroke-width:1px;stroke-linecap:butt;stroke-linejoin:miter;stroke-opacity:1" d="M 770.514,101.734 776.099,96.1492 z" id="boundary" inkscape:connector-curvature="0" />
	<path style="fill:none;stroke:red;stroke-width:1px;stroke-linecap:butt;stroke-linejoin:miter;stroke-opacity:1" d="M 772.608,360.729 779.589,357.239 z" id="boundary" inkscape:connector-curvature="0" />
	<path style="fill:none;stroke:red;stroke-width:1px;stroke-linecap:butt;stroke-linejoin:miter;stroke-opacity:1" d="M 774.004,349.559 777.495,342.578 z" id="boundary" inkscape:connector-curvature="0" />
	<path style="fill:none;stroke:red;stroke-width:1px;stroke-linecap:butt;stroke-linejoin:miter;stroke-opacity:1" d="M 776.099,96.1492 778.891,82.8853 z" id="boundary" inkscape:connector-curvature="0" />
	<path style="fill:none;stroke:red;stroke-width:1px;stroke-linecap:butt;stroke-linejoin:miter;stroke-opacity:1" d="M 776.099,287.429 783.08,287.429 z" id="boundary" inkscape:connector-curvature="0" />
	<path style="fill:none;stroke:red;stroke-width:1px;stroke-linecap:butt;stroke-linejoin:miter;stroke-opacity:1" d="M 777.495,342.578 784.476,339.088 z" id="boundary" inkscape:connector-curvature="0" />
	<path style="fill:none;stroke:red;stroke-width:1px;stroke-linecap:butt;stroke-linejoin:miter;stroke-opacity:1" d="M 778.891,75.9043 778.891,82.8853 z" id="boundary" inkscape:connector-curvature="0" />
	<path style="fill:none;stroke:red;stroke-width:1px;stroke-linecap:butt;stroke-linejoin:miter;stroke-opacity:1" d="M 778.891,75.9043 785.872,73.81 z" id="boundary" inkscape:connector-curvature="0" />
	<path style="fill:none;stroke:red;stroke-width:1px;stroke-linecap:butt;stroke-linejoin:miter;stroke-opacity:1" d="M 779.589,357.239 786.57,353.748 z" id="boundary" inkscape:connector-curvature="0" />
	<path style="fill:none;stroke:red;stroke-width:1px;stroke-linecap:butt;stroke-linejoin:miter;stroke-opacity:1" d="M 783.08,287.429 788.664,282.542 z" id="boundary" inkscape:connector-curvature="0" />
	<path style="fill:none;stroke:red;stroke-width:1px;stroke-linecap:butt;stroke-linejoin:miter;stroke-opacity:1" d="M 784.476,339.088 789.362,330.711 z" id="boundary" inkscape:connector-curvature="0" />
	<path style="fill:none;stroke:red;stroke-width:1px;stroke-linecap:butt;stroke-linejoin:miter;stroke-opacity:1" d="M 785.872,73.81 792.853,73.81 z" id="boundary" inkscape:connector-curvature="0" />
	<path style="fill:none;stroke:red;stroke-width:1px;stroke-linecap:butt;stroke-linejoin:miter;stroke-opacity:1" d="M 786.57,353.748 792.155,348.861 z" id="boundary" inkscape:connector-curvature="0" />
	<path style="fill:none;stroke:red;stroke-width:1px;stroke-linecap:butt;stroke-linejoin:miter;stroke-opacity:1" d="M 788.664,282.542 793.551,276.957 z" id="boundary" inkscape:connector-curvature="0" />
	<path style="fill:none;stroke:red;stroke-width:1px;stroke-linecap:butt;stroke-linejoin:miter;stroke-opacity:1" d="M 789.362,330.711 794.947,325.126 z" id="boundary" inkscape:connector-curvature="0" />
	<path style="fill:none;stroke:red;stroke-width:1px;stroke-linecap:butt;stroke-linejoin:miter;stroke-opacity:1" d="M 792.155,348.861 796.343,343.277 z" id="boundary" inkscape:connector-curvature="0" />
	<path style="fill:none;stroke:red;stroke-width:1px;stroke-linecap:butt;stroke-linejoin:miter;stroke-opacity:1" d="M 792.853,73.81 799.834,72.4138 z" id="boundary" inkscape:connector-curvature="0" />
	<path style="fill:none;stroke:red;stroke-width:1px;stroke-linecap:butt;stroke-linejoin:miter;stroke-opacity:1" d="M 793.551,276.957 799.834,273.467 z" id="boundary" inkscape:connector-curvature="0" />
	<path style="fill:none;stroke:red;stroke-width:1px;stroke-linecap:butt;stroke-linejoin:miter;stroke-opacity:1" d="M 794.947,325.126 800.532,319.541 z" id="boundary" inkscape:connector-curvature="0" />
	<path style="fill:none;stroke:red;stroke-width:1px;stroke-linecap:butt;stroke-linejoin:miter;stroke-opacity:1" d="M 796.343,343.277 800.532,348.861 z" id="boundary" inkscape:connector-curvature="0" />
	<path style="fill:none;stroke:red;stroke-width:1px;stroke-linecap:butt;stroke-linejoin:miter;stroke-opacity:1" d="M 799.834,72.4138 803.324,61.9423 z" id="boundary" inkscape:connector-curvature="0" />
	<path style="fill:none;stroke:red;stroke-width:1px;stroke-linecap:butt;stroke-linejoin:miter;stroke-opacity:1" d="M 799.834,273.467 805.419,269.278 z" id="boundary" inkscape:connector-curvature="0" />
	<path style="fill:none;stroke:red;stroke-width:1px;stroke-linecap:butt;stroke-linejoin:miter;stroke-opacity:1" d="M 800.532,319.541 806.117,314.654 z" id="boundary" inkscape:connector-curvature="0" />
	<path style="fill:none;stroke:red;stroke-width:1px;stroke-linecap:butt;stroke-linejoin:miter;stroke-opacity:1" d="M 800.532,348.861 806.815,344.673 z" id="boundary" inkscape:connector-curvature="0" />
	<path style="fill:none;stroke:red;stroke-width:1px;stroke-linecap:butt;stroke-linejoin:miter;stroke-opacity:1" d="M 805.419,269.278 808.909,262.995 z" id="boundary" inkscape:connector-curvature="0" />
	<path style="fill:none;stroke:red;stroke-width:1px;stroke-linecap:butt;stroke-linejoin:miter;stroke-opacity:1" d="M 806.117,314.654 808.909,307.673 z" id="boundary" inkscape:connector-curvature="0" />
	<path style="fill:none;stroke:red;stroke-width:1px;stroke-linecap:butt;stroke-linejoin:miter;stroke-opacity:1" d="M 806.815,344.673 811.004,336.296 z" id="boundary" inkscape:connector-curvature="0" />
	<path style="fill:none;stroke:red;stroke-width:1px;stroke-linecap:butt;stroke-linejoin:miter;stroke-opacity:1" d="M 808.909,56.3575 811.004,63.3385 z" id="boundary" inkscape:connector-curvature="0" />
	<path style="fill:none;stroke:red;stroke-width:1px;stroke-linecap:butt;stroke-linejoin:miter;stroke-opacity:1" d="M 808.909,262.995 815.89,262.995 z" id="boundary" inkscape:connector-curvature="0" />
	<path style="fill:none;stroke:red;stroke-width:1px;stroke-linecap:butt;stroke-linejoin:miter;stroke-opacity:1" d="M 808.909,307.673 812.4,300.692 z" id="boundary" inkscape:connector-curvature="0" />
	<path style="fill:none;stroke:red;stroke-width:1px;stroke-linecap:butt;stroke-linejoin:miter;stroke-opacity:1" d="M 811.004,63.3385 817.985,65.4328 z" id="boundary" inkscape:connector-curvature="0" />
	<path style="fill:none;stroke:red;stroke-width:1px;stroke-linecap:butt;stroke-linejoin:miter;stroke-opacity:1" d="M 811.004,336.296 816.588,331.409 z" id="boundary" inkscape:connector-curvature="0" />
	<path style="fill:none;stroke:red;stroke-width:1px;stroke-linecap:butt;stroke-linejoin:miter;stroke-opacity:1" d="M 812.4,300.692 815.89,293.711 z" id="boundary" inkscape:connector-curvature="0" />
	<path style="fill:none;stroke:red;stroke-width:1px;stroke-linecap:butt;stroke-linejoin:miter;stroke-opacity:1" d="M 815.89,262.995 822.871,262.995 z" id="boundary" inkscape:connector-curvature="0" />
	<path style="fill:none;stroke:red;stroke-width:1px;stroke-linecap:butt;stroke-linejoin:miter;stroke-opacity:1" d="M 815.89,293.711 820.777,281.844 z" id="boundary" inkscape:connector-curvature="0" />
	<path style="fill:none;stroke:red;stroke-width:1px;stroke-linecap:butt;stroke-linejoin:miter;stroke-opacity:1" d="M 816.588,331.409 821.475,322.334 z" id="boundary" inkscape:connector-curvature="0" />
	<path style="fill:none;stroke:red;stroke-width:1px;stroke-linecap:butt;stroke-linejoin:miter;stroke-opacity:1" d="M 817.985,65.4328 823.569,70.3195 z" id="boundary" inkscape:connector-curvature="0" />
	<path style="fill:none;stroke:red;stroke-width:1px;stroke-linecap:butt;stroke-linejoin:miter;stroke-opacity:1" d="M 820.777,281.844 824.267,274.863 z" id="boundary" inkscape:connector-curvature="0" />
	<path style="fill:none;stroke:red;stroke-width:1px;stroke-linecap:butt;stroke-linejoin:miter;stroke-opacity:1" d="M 821.475,322.334 824.966,315.353 z" id="boundary" inkscape:connector-curvature="0" />
	<path style="fill:none;stroke:red;stroke-width:1px;stroke-linecap:butt;stroke-linejoin:miter;stroke-opacity:1" d="M 822.871,262.995 827.758,268.58 z" id="boundary" inkscape:connector-curvature="0" />
	<path style="fill:none;stroke:red;stroke-width:1px;stroke-linecap:butt;stroke-linejoin:miter;stroke-opacity:1" d="M 823.569,70.3195 829.852,66.829 z" id="boundary" inkscape:connector-curvature="0" />
	<path style="fill:none;stroke:red;stroke-width:1px;stroke-linecap:butt;stroke-linejoin:miter;stroke-opacity:1" d="M 824.267,274.863 827.758,268.58 z" id="boundary" inkscape:connector-curvature="0" />
	<path style="fill:none;stroke:red;stroke-width:1px;stroke-linecap:butt;stroke-linejoin:miter;stroke-opacity:1" d="M 824.966,315.353 828.456,304.881 z" id="boundary" inkscape:connector-curvature="0" />
	<path style="fill:none;stroke:red;stroke-width:1px;stroke-linecap:butt;stroke-linejoin:miter;stroke-opacity:1" d="M 828.456,304.881 834.041,299.994 z" id="boundary" inkscape:connector-curvature="0" />
	<path style="fill:none;stroke:red;stroke-width:1px;stroke-linecap:butt;stroke-linejoin:miter;stroke-opacity:1" d="M 829.852,66.829 836.833,66.829 z" id="boundary" inkscape:connector-curvature="0" />
	<path style="fill:none;stroke:red;stroke-width:1px;stroke-linecap:butt;stroke-linejoin:miter;stroke-opacity:1" d="M 834.041,299.994 837.531,293.013 z" id="boundary" inkscape:connector-curvature="0" />
	<path style="fill:none;stroke:red;stroke-width:1px;stroke-linecap:butt;stroke-linejoin:miter;stroke-opacity:1" d="M 836.833,66.829 842.418,61.2442 z" id="boundary" inkscape:connector-curvature="0" />
	<path style="fill:none;stroke:red;stroke-width:1px;stroke-linecap:butt;stroke-linejoin:miter;stroke-opacity:1" d="M 837.531,293.013 838.928,283.938 z" id="boundary" inkscape:connector-curvature="0" />
	<path style="fill:none;stroke:red;stroke-width:1px;stroke-linecap:butt;stroke-linejoin:miter;stroke-opacity:1" d="M 838.928,283.938 842.418,276.957 z" id="boundary" inkscape:connector-curvature="0" />
	<path style="fill:none;stroke:red;stroke-width:1px;stroke-linecap:butt;stroke-linejoin:miter;stroke-opacity:1" d="M 842.418,61.2442 849.399,61.9423 z" id="boundary" inkscape:connector-curvature="0" />
	<path style="fill:none;stroke:red;stroke-width:1px;stroke-linecap:butt;stroke-linejoin:miter;stroke-opacity:1" d="M 842.418,269.976 842.418,276.957 z" id="boundary" inkscape:connector-curvature="0" />
	<path style="fill:none;stroke:red;stroke-width:1px;stroke-linecap:butt;stroke-linejoin:miter;stroke-opacity:1" d="M 842.418,269.976 845.909,259.505 z" id="boundary" inkscape:connector-curvature="0" />
	<path style="fill:none;stroke:red;stroke-width:1px;stroke-linecap:butt;stroke-linejoin:miter;stroke-opacity:1" d="M 845.909,259.505 852.191,256.014 z" id="boundary" inkscape:connector-curvature="0" />
	<path style="fill:none;stroke:red;stroke-width:1px;stroke-linecap:butt;stroke-linejoin:miter;stroke-opacity:1" d="M 849.399,61.9423 852.89,68.2252 z" id="boundary" inkscape:connector-curvature="0" />
	<path style="fill:none;stroke:red;stroke-width:1px;stroke-linecap:butt;stroke-linejoin:miter;stroke-opacity:1" d="M 852.191,256.014 859.172,256.014 z" id="boundary" inkscape:connector-curvature="0" />
	<path style="fill:none;stroke:red;stroke-width:1px;stroke-linecap:butt;stroke-linejoin:miter;stroke-opacity:1" d="M 852.89,68.2252 856.38,74.5081 z" id="boundary" inkscape:connector-curvature="0" />
	<path style="fill:none;stroke:red;stroke-width:1px;stroke-linecap:butt;stroke-linejoin:miter;stroke-opacity:1" d="M 856.38,74.5081 856.38,81.4891 z" id="boundary" inkscape:connector-curvature="0" />
	<path style="fill:none;stroke:red;stroke-width:1px;stroke-linecap:butt;stroke-linejoin:miter;stroke-opacity:1" d="M 856.38,81.4891 856.38,88.4701 z" id="boundary" inkscape:connector-curvature="0" />
	<path style="fill:none;stroke:red;stroke-width:1px;stroke-linecap:butt;stroke-linejoin:miter;stroke-opacity:1" d="M 856.38,88.4701 856.38,95.4511 z" id="boundary" inkscape:connector-curvature="0" />
	<path style="fill:none;stroke:red;stroke-width:1px;stroke-linecap:butt;stroke-linejoin:miter;stroke-opacity:1" d="M 856.38,95.4511 856.38,102.432 z" id="boundary" inkscape:connector-curvature="0" />
	<path style="fill:none;stroke:red;stroke-width:1px;stroke-linecap:butt;stroke-linejoin:miter;stroke-opacity:1" d="M 856.38,102.432 856.38,109.413 z" id="boundary" inkscape:connector-curvature="0" />
	<path style="fill:none;stroke:red;stroke-width:1px;stroke-linecap:butt;stroke-linejoin:miter;stroke-opacity:1" d="M 856.38,109.413 859.871,115.696 z" id="boundary" inkscape:connector-curvature="0" />
	<path style="fill:none;stroke:red;stroke-width:1px;stroke-linecap:butt;stroke-linejoin:miter;stroke-opacity:1" d="M 859.172,256.014 865.455,252.524 z" id="boundary" inkscape:connector-curvature="0" />
	<path style="fill:none;stroke:red;stroke-width:1px;stroke-linecap:butt;stroke-linejoin:miter;stroke-opacity:1" d="M 859.871,115.696 866.153,112.205 z" id="boundary" inkscape:connector-curvature="0" />
	<path style="fill:none;stroke:red;stroke-width:1px;stroke-linecap:butt;stroke-linejoin:miter;stroke-opacity:1" d="M 865.455,252.524 872.436,252.524 z" id="boundary" inkscape:connector-curvature="0" />
	<path style="fill:none;stroke:red;stroke-width:1px;stroke-linecap:butt;stroke-linejoin:miter;stroke-opacity:1" d="M 866.153,112.205 873.134,113.602 z" id="boundary" inkscape:connector-curvature="0" />
	<path style="fill:none;stroke:red;stroke-width:1px;stroke-linecap:butt;stroke-linejoin:miter;stroke-opacity:1" d="M 872.436,252.524 878.719,249.033 z" id="boundary" inkscape:connector-curvature="0" />
	<path style="fill:none;stroke:red;stroke-width:1px;stroke-linecap:butt;stroke-linejoin:miter;stroke-opacity:1" d="M 873.134,113.602 879.417,117.092 z" id="boundary" inkscape:connector-curvature="0" />
	<path style="fill:none;stroke:red;stroke-width:1px;stroke-linecap:butt;stroke-linejoin:miter;stroke-opacity:1" d="M 878.719,249.033 885.7,249.033 z" id="boundary" inkscape:connector-curvature="0" />
	<path style="fill:none;stroke:red;stroke-width:1px;stroke-linecap:butt;stroke-linejoin:miter;stroke-opacity:1" d="M 879.417,117.092 886.398,116.394 z" id="boundary" inkscape:connector-curvature="0" />
	<path style="fill:none;stroke:red;stroke-width:1px;stroke-linecap:butt;stroke-linejoin:miter;stroke-opacity:1" d="M 885.7,249.033 891.983,245.543 z" id="boundary" inkscape:connector-curvature="0" />
	<path style="fill:none;stroke:red;stroke-width:1px;stroke-linecap:butt;stroke-linejoin:miter;stroke-opacity:1" d="M 886.398,116.394 893.379,119.186 z" id="boundary" inkscape:connector-curvature="0" />
	<path style="fill:none;stroke:red;stroke-width:1px;stroke-linecap:butt;stroke-linejoin:miter;stroke-opacity:1" d="M 891.983,245.543 898.964,245.543 z" id="boundary" inkscape:connector-curvature="0" />
	<path style="fill:none;stroke:red;stroke-width:1px;stroke-linecap:butt;stroke-linejoin:miter;stroke-opacity:1" d="M 893.379,119.186 898.266,113.602 z" id="boundary" inkscape:connector-curvature="0" />
	<path style="fill:none;stroke:red;stroke-width:1px;stroke-linecap:butt;stroke-linejoin:miter;stroke-opacity:1" d="M 898.266,113.602 904.549,117.092 z" id="boundary" inkscape:connector-curvature="0" />
	<path style="fill:none;stroke:red;stroke-width:1px;stroke-linecap:butt;stroke-linejoin:miter;stroke-opacity:1" d="M 898.964,245.543 905.247,242.052 z" id="boundary" inkscape:connector-curvature="0" />
	<path style="fill:none;stroke:red;stroke-width:1px;stroke-linecap:butt;stroke-linejoin:miter;stroke-opacity:1" d="M 904.549,117.092 908.738,122.677 z" id="boundary" inkscape:connector-curvature="0" />
	<path style="fill:none;stroke:red;stroke-width:1px;stroke-linecap:butt;stroke-linejoin:miter;stroke-opacity:1" d="M 905.247,242.052 912.228,242.052 z" id="boundary" inkscape:connector-curvature="0" />
	<path style="fill:none;stroke:red;stroke-width:1px;stroke-linecap:butt;stroke-linejoin:miter;stroke-opacity:1" d="M 908.738,122.677 915.719,122.677 z" id="boundary" inkscape:connector-curvature="0" />
	<path style="fill:none;stroke:red;stroke-width:1px;stroke-linecap:butt;stroke-linejoin:miter;stroke-opacity:1" d="M 912.228,242.052 919.209,238.562 z" id="boundary" inkscape:connector-curvature="0" />
	<path style="fill:none;stroke:red;stroke-width:1px;stroke-linecap:butt;stroke-linejoin:miter;stroke-opacity:1" d="M 915.719,122.677 922.001,126.167 z" id="boundary" inkscape:connector-curvature="0" />
	<path style="fill:none;stroke:red;stroke-width:1px;stroke-linecap:butt;stroke-linejoin:miter;stroke-opacity:1" d="M 919.209,238.562 926.19,238.562 z" id="boundary" inkscape:connector-curvature="0" />
	<path style="fill:none;stroke:red;stroke-width:1px;stroke-linecap:butt;stroke-linejoin:miter;stroke-opacity:1" d="M 922.001,126.167 928.982,127.564 z" id="boundary" inkscape:connector-curvature="0" />
	<path style="fill:none;stroke:red;stroke-width:1px;stroke-linecap:butt;stroke-linejoin:miter;stroke-opacity:1" d="M 926.19,238.562 933.171,235.071 z" id="boundary" inkscape:connector-curvature="0" />
	<path style="fill:none;stroke:red;stroke-width:1px;stroke-linecap:butt;stroke-linejoin:miter;stroke-opacity:1" d="M 928.982,127.564 933.171,133.148 z" id="boundary" inkscape:connector-curvature="0" />
	<path style="fill:none;stroke:red;stroke-width:1px;stroke-linecap:butt;stroke-linejoin:miter;stroke-opacity:1" d="M 933.171,133.148 940.152,133.148 z" id="boundary" inkscape:connector-curvature="0" />
	<path style="fill:none;stroke:red;stroke-width:1px;stroke-linecap:butt;stroke-linejoin:miter;stroke-opacity:1" d="M 933.171,235.071 940.152,235.071 z" id="boundary" inkscape:connector-curvature="0" />
	<path style="fill:none;stroke:red;stroke-width:1px;stroke-linecap:butt;stroke-linejoin:miter;stroke-opacity:1" d="M 940.152,133.148 945.737,137.337 z" id="boundary" inkscape:connector-curvature="0" />
	<path style="fill:none;stroke:red;stroke-width:1px;stroke-linecap:butt;stroke-linejoin:miter;stroke-opacity:1" d="M 940.152,235.071 947.133,235.071 z" id="boundary" inkscape:connector-curvature="0" />
	<path style="fill:none;stroke:red;stroke-width:1px;stroke-linecap:butt;stroke-linejoin:miter;stroke-opacity:1" d="M 945.737,137.337 950.624,142.922 z" id="boundary" inkscape:connector-curvature="0" />
	<path style="fill:none;stroke:red;stroke-width:1px;stroke-linecap:butt;stroke-linejoin:miter;stroke-opacity:1" d="M 947.133,235.071 954.114,235.071 z" id="boundary" inkscape:connector-curvature="0" />
	<path style="fill:none;stroke:red;stroke-width:1px;stroke-linecap:butt;stroke-linejoin:miter;stroke-opacity:1" d="M 950.624,142.922 956.208,147.11 z" id="boundary" inkscape:connector-curvature="0" />
	<path style="fill:none;stroke:red;stroke-width:1px;stroke-linecap:butt;stroke-linejoin:miter;stroke-opacity:1" d="M 954.114,235.071 960.397,238.562 z" id="boundary" inkscape:connector-curvature="0" />
	<path style="fill:none;stroke:red;stroke-width:1px;stroke-linecap:butt;stroke-linejoin:miter;stroke-opacity:1" d="M 956.208,147.11 961.095,152.695 z" id="boundary" inkscape:connector-curvature="0" />
	<path style="fill:none;stroke:red;stroke-width:1px;stroke-linecap:butt;stroke-linejoin:miter;stroke-opacity:1" d="M 960.397,238.562 967.378,238.562 z" id="boundary" inkscape:connector-curvature="0" />
	<path style="fill:none;stroke:red;stroke-width:1px;stroke-linecap:butt;stroke-linejoin:miter;stroke-opacity:1" d="M 961.095,152.695 966.68,157.582 z" id="boundary" inkscape:connector-curvature="0" />
	<path style="fill:none;stroke:red;stroke-width:1px;stroke-linecap:butt;stroke-linejoin:miter;stroke-opacity:1" d="M 966.68,157.582 973.661,158.28 z" id="boundary" inkscape:connector-curvature="0" />
	<path style="fill:none;stroke:red;stroke-width:1px;stroke-linecap:butt;stroke-linejoin:miter;stroke-opacity:1" d="M 967.378,238.562 973.661,235.071 z" id="boundary" inkscape:connector-curvature="0" />
	<path style="fill:none;stroke:red;stroke-width:1px;stroke-linecap:butt;stroke-linejoin:miter;stroke-opacity:1" d="M 973.661,158.28 975.057,165.261 z" id="boundary" inkscape:connector-curvature="0" />
	<path style="fill:none;stroke:red;stroke-width:1px;stroke-linecap:butt;stroke-linejoin:miter;stroke-opacity:1" d="M 973.661,235.071 980.642,233.675 z" id="boundary" inkscape:connector-curvature="0" />
	<path style="fill:none;stroke:red;stroke-width:1px;stroke-linecap:butt;stroke-linejoin:miter;stroke-opacity:1" d="M 975.057,165.261 978.548,171.544 z" id="boundary" inkscape:connector-curvature="0" />
	<path style="fill:none;stroke:red;stroke-width:1px;stroke-linecap:butt;stroke-linejoin:miter;stroke-opacity:1" d="M 978.548,171.544 984.132,175.733 z" id="boundary" inkscape:connector-curvature="0" />
	<path style="fill:none;stroke:red;stroke-width:1px;stroke-linecap:butt;stroke-linejoin:miter;stroke-opacity:1" d="M 980.642,233.675 984.132,226.694 z" id="boundary" inkscape:connector-curvature="0" />
	<path style="fill:none;stroke:red;stroke-width:1px;stroke-linecap:butt;stroke-linejoin:miter;stroke-opacity:1" d="M 984.132,175.733 989.019,181.317 z" id="boundary" inkscape:connector-curvature="0" />
	<path style="fill:none;stroke:red;stroke-width:1px;stroke-linecap:butt;stroke-linejoin:miter;stroke-opacity:1" d="M 984.132,226.694 985.529,214.128 z" id="boundary" inkscape:connector-curvature="0" />
	<path style="fill:none;stroke:red;stroke-width:1px;stroke-linecap:butt;stroke-linejoin:miter;stroke-opacity:1" d="M 985.529,214.128 991.113,209.241 z" id="boundary" inkscape:connector-curvature="0" />
	<path style="fill:none;stroke:red;stroke-width:1px;stroke-linecap:butt;stroke-linejoin:miter;stroke-opacity:1" d="M 989.019,181.317 992.51,187.6 z" id="boundary" inkscape:connector-curvature="0" />
	<path style="fill:none;stroke:red;stroke-width:1px;stroke-linecap:butt;stroke-linejoin:miter;stroke-opacity:1" d="M 991.113,209.241 994.604,202.26 z" id="boundary" inkscape:connector-curvature="0" />
	<path style="fill:none;stroke:red;stroke-width:1px;stroke-linecap:butt;stroke-linejoin:miter;stroke-opacity:1" d="M 992.51,187.6 996,193.883 z" id="boundary" inkscape:connector-curvature="0" />
	<path style="fill:none;stroke:red;stroke-width:1px;stroke-linecap:butt;stroke-linejoin:miter;stroke-opacity:1" d="M 994.604,202.26 996,193.883 z" id="boundary" inkscape:connector-curvature="0" />
	<circle cx="4" cy="184.11" r="4" fill="#0" id="circle0"/>
	<circle cx="4" cy="191.091" r="4" fill="#0" id="circle1"/>
	<circle cx="4" cy="198.072" r="4" fill="#0" id="circle2"/>
	<circle cx="4" cy="205.053" r="4" fill="#0" id="circle3"/>
	<circle cx="4" cy="212.034" r="4" fill="#0" id="circle4"/>
	<circle cx="4" cy="219.015" r="4" fill="#0" id="circle5"/>
	<circle cx="7.4905" cy="177.129" r="4" fill="#0" id="circle6"/>
	<circle cx="9.5848" cy="223.901" r="4" fill="#0" id="circle7"/>
	<circle cx="10.981" cy="159.676" r="4" fill="#0" id="circle8"/>
	<circle cx="10.981" cy="166.657" r="4" fill="#0" id="circle9"/>
	<circle cx="12.3772" cy="230.882" r="4" fill="#0" id="circle10"/>
	<circle cx="14.4715" cy="152.695" r="4" fill="#0" id="circle11"/>
	<circle cx="17.962" cy="145.714" r="4" fill="#0" id="circle12"/>
	<circle cx="17.962" cy="235.071" r="4" fill="#0" id="circle13"/>
	<circle cx="22.1506" cy="240.656" r="4" fill="#0" id="circle14"/>
	<circle cx="23.5468" cy="140.129" r="4" fill="#0" id="circle15"/>
	<circle cx="29.1316" cy="242.052" r="4" fill="#0" id="circle16"/>
	<circle cx="30.5278" cy="136.639" r="4" fill="#0" id="circle17"/>
	<circle cx="35.4145" cy="245.543" r="4" fill="#0" id="circle18"/>
	<circle cx="36.1126" cy="131.054" r="4" fill="#0" id="circle19"/>
	<circle cx="41.6974" cy="249.033" r="4" fill="#0" id="circle20"/>
	<circle cx="43.0936" cy="127.564" r="4" fill="#0" id="circle21"/>
	<circle cx="48.6784" cy="249.033" r="4" fill="#0" id="circle22"/>
	<circle cx="50.0746" cy="126.167" r="4" fill="#0" id="circle23"/>
	<circle cx="55.6594" cy="249.033" r="4" fill="#0" id="circle24"/>
	<circle cx="57.0556" cy="126.167" r="4" fill="#0" id="circle25"/>
	<circle cx="62.6404" cy="249.033" r="4" fill="#0" id="circle26"/>
	<circle cx="64.0366" cy="128.262" r="4" fill="#0" id="circle27"/>
	<circle cx="69.6214" cy="249.033" r="4" fill="#0" id="circle28"/>
	<circle cx="71.0176" cy="129.658" r="4" fill="#0" id="circle29"/>
	<circle cx="76.6024" cy="249.033" r="4" fill="#0" id="circle30"/>
	<circle cx="77.9986" cy="129.658" r="4" fill="#0" id="circle31"/>
	<circle cx="83.5834" cy="249.033" r="4" fill="#0" id="circle32"/>
	<circle cx="84.9796" cy="131.752" r="4" fill="#0" id="circle33"/>
	<circle cx="90.5644" cy="249.033" r="4" fill="#0" id="circle34"/>
	<circle cx="91.9606" cy="133.148" r="4" fill="#0" id="circle35"/>
	<circle cx="96.8473" cy="245.543" r="4" fill="#0" id="circle36"/>
	<circle cx="98.9416" cy="133.148" r="4" fill="#0" id="circle37"/>
	<circle cx="103.828" cy="245.543" r="4" fill="#0" id="circle38"/>
	<circle cx="105.224" cy="136.639" r="4" fill="#0" id="circle39"/>
	<circle cx="110.809" cy="245.543" r="4" fill="#0" id="circle40"/>
	<circle cx="112.205" cy="138.035" r="4" fill="#0" id="circle41"/>
	<circle cx="117.79" cy="244.844" r="4" fill="#0" id="circle42"/>
	<circle cx="119.186" cy="140.129" r="4" fill="#0" id="circle43"/>
	<circle cx="124.771" cy="242.052" r="4" fill="#0" id="circle44"/>
	<circle cx="126.167" cy="141.526" r="4" fill="#0" id="circle45"/>
	<circle cx="131.752" cy="242.052" r="4" fill="#0" id="circle46"/>
	<circle cx="133.148" cy="143.62" r="4" fill="#0" id="circle47"/>
	<circle cx="138.733" cy="241.354" r="4" fill="#0" id="circle48"/>
	<circle cx="140.129" cy="145.016" r="4" fill="#0" id="circle49"/>
	<circle cx="145.714" cy="238.562" r="4" fill="#0" id="circle50"/>
	<circle cx="147.11" cy="147.11" r="4" fill="#0" id="circle51"/>
	<circle cx="152.695" cy="238.562" r="4" fill="#0" id="circle52"/>
	<circle cx="154.091" cy="148.507" r="4" fill="#0" id="circle53"/>
	<circle cx="158.978" cy="235.071" r="4" fill="#0" id="circle54"/>
	<circle cx="160.374" cy="151.997" r="4" fill="#0" id="circle55"/>
	<circle cx="165.261" cy="231.581" r="4" fill="#0" id="circle56"/>
	<circle cx="167.355" cy="154.091" r="4" fill="#0" id="circle57"/>
	<circle cx="172.242" cy="228.09" r="4" fill="#0" id="circle58"/>
	<circle cx="173.638" cy="157.582" r="4" fill="#0" id="circle59"/>
	<circle cx="179.223" cy="228.09" r="4" fill="#0" id="circle60"/>
	<circle cx="180.619" cy="157.582" r="4" fill="#0" id="circle61"/>
	<circle cx="186.204" cy="228.09" r="4" fill="#0" id="circle62"/>
	<circle cx="187.6" cy="157.582" r="4" fill="#0" id="circle63"/>
	<circle cx="193.185" cy="228.09" r="4" fill="#0" id="circle64"/>
	<circle cx="193.883" cy="161.072" r="4" fill="#0" id="circle65"/>
	<circle cx="199.468" cy="243.448" r="4" fill="#0" id="circle66"/>
	<circle cx="200.166" cy="228.09" r="4" fill="#0" id="circle67"/>
	<circle cx="200.864" cy="161.072" r="4" fill="#0" id="circle68"/>
	<circle cx="202.958" cy="249.731" r="4" fill="#0" id="circle69"/>
	<circle cx="205.053" cy="237.863" r="4" fill="#0" id="circle70"/>
	<circle cx="207.147" cy="228.09" r="4" fill="#0" id="circle71"/>
	<circle cx="207.845" cy="158.28" r="4" fill="#0" id="circle72"/>
	<circle cx="209.939" cy="142.224" r="4" fill="#0" id="circle73"/>
	<circle cx="209.939" cy="252.524" r="4" fill="#0" id="circle74"/>
	<circle cx="214.128" cy="147.809" r="4" fill="#0" id="circle75"/>
	<circle cx="214.128" cy="228.09" r="4" fill="#0" id="circle76"/>
	<circle cx="214.826" cy="157.582" r="4" fill="#0" id="circle77"/>
	<circle cx="216.222" cy="256.014" r="4" fill="#0" id="circle78"/>
	<circle cx="216.92" cy="138.733" r="4" fill="#0" id="circle79"/>
	<circle cx="220.411" cy="151.299" r="4" fill="#0" id="circle80"/>
	<circle cx="222.505" cy="133.148" r="4" fill="#0" id="circle81"/>
	<circle cx="222.505" cy="259.505" r="4" fill="#0" id="circle82"/>
	<circle cx="223.901" cy="157.582" r="4" fill="#0" id="circle83"/>
	<circle cx="228.09" cy="127.564" r="4" fill="#0" id="circle84"/>
	<circle cx="229.486" cy="262.297" r="4" fill="#0" id="circle85"/>
	<circle cx="235.071" cy="124.073" r="4" fill="#0" id="circle86"/>
	<circle cx="236.467" cy="262.995" r="4" fill="#0" id="circle87"/>
	<circle cx="240.656" cy="119.186" r="4" fill="#0" id="circle88"/>
	<circle cx="242.75" cy="266.486" r="4" fill="#0" id="circle89"/>
	<circle cx="245.543" cy="113.602" r="4" fill="#0" id="circle90"/>
	<circle cx="249.033" cy="269.976" r="4" fill="#0" id="circle91"/>
	<circle cx="251.825" cy="107.319" r="4" fill="#0" id="circle92"/>
	<circle cx="256.014" cy="271.372" r="4" fill="#0" id="circle93"/>
	<circle cx="257.41" cy="101.734" r="4" fill="#0" id="circle94"/>
	<circle cx="262.995" cy="96.1492" r="4" fill="#0" id="circle95"/>
	<circle cx="262.995" cy="273.467" r="4" fill="#0" id="circle96"/>
	<circle cx="269.976" cy="92.6587" r="4" fill="#0" id="circle97"/>
	<circle cx="269.976" cy="274.863" r="4" fill="#0" id="circle98"/>
	<circle cx="275.561" cy="87.772" r="4" fill="#0" id="circle99"/>
	<circle cx="276.259" cy="278.353" r="4" fill="#0" id="circle100"/>
	<circle cx="281.844" cy="84.2815" r="4" fill="#0" id="circle101"/>
	<circle cx="283.24" cy="280.448" r="4" fill="#0" id="circle102"/>
	<circle cx="288.127" cy="80.791" r="4" fill="#0" id="circle103"/>
	<circle cx="290.221" cy="280.448" r="4" fill="#0" id="circle104"/>
	<circle cx="295.108" cy="77.9986" r="4" fill="#0" id="circle105"/>
	<circle cx="296.504" cy="283.938" r="4" fill="#0" id="circle106"/>
	<circle cx="302.089" cy="77.3005" r="4" fill="#0" id="circle107"/>
	<circle cx="303.485" cy="283.938" r="4" fill="#0" id="circle108"/>
	<circle cx="309.07" cy="77.3005" r="4" fill="#0" id="circle109"/>
	<circle cx="309.768" cy="287.429" r="4" fill="#0" id="circle110"/>
	<circle cx="316.051" cy="77.3005" r="4" fill="#0" id="circle111"/>
	<circle cx="316.749" cy="287.429" r="4" fill="#0" id="circle112"/>
	<circle cx="322.334" cy="80.791" r="4" fill="#0" id="circle113"/>
	<circle cx="323.73" cy="290.221" r="4" fill="#0" id="circle114"/>
	<circle cx="329.315" cy="82.8853" r="4" fill="#0" id="circle115"/>
	<circle cx="330.711" cy="290.919" r="4" fill="#0" id="circle116"/>
	<circle cx="336.296" cy="84.2815" r="4" fill="#0" id="circle117"/>
	<circle cx="336.994" cy="294.41" r="4" fill="#0" id="circle118"/>
	<circle cx="343.277" cy="86.3758" r="4" fill="#0" id="circle119"/>
	<circle cx="343.975" cy="294.41" r="4" fill="#0" id="circle120"/>
	<circle cx="350.258" cy="87.772" r="4" fill="#0" id="circle121"/>
	<circle cx="350.956" cy="296.504" r="4" fill="#0" id="circle122"/>
	<circle cx="357.239" cy="89.8663" r="4" fill="#0" id="circle123"/>
	<circle cx="357.937" cy="297.9" r="4" fill="#0" id="circle124"/>
	<circle cx="363.521" cy="93.3568" r="4" fill="#0" id="circle125"/>
	<circle cx="364.918" cy="299.994" r="4" fill="#0" id="circle126"/>
	<circle cx="370.502" cy="94.753" r="4" fill="#0" id="circle127"/>
	<circle cx="371.899" cy="301.391" r="4" fill="#0" id="circle128"/>
	<circle cx="376.785" cy="98.2435" r="4" fill="#0" id="circle129"/>
	<circle cx="378.88" cy="301.391" r="4" fill="#0" id="circle130"/>
	<circle cx="383.766" cy="98.2435" r="4" fill="#0" id="circle131"/>
	<circle cx="385.861" cy="301.391" r="4" fill="#0" id="circle132"/>
	<circle cx="390.049" cy="101.734" r="4" fill="#0" id="circle133"/>
	<circle cx="392.842" cy="303.485" r="4" fill="#0" id="circle134"/>
	<circle cx="396.332" cy="105.224" r="4" fill="#0" id="circle135"/>
	<circle cx="399.823" cy="304.881" r="4" fill="#0" id="circle136"/>
	<circle cx="402.615" cy="108.715" r="4" fill="#0" id="circle137"/>
	<circle cx="406.804" cy="304.881" r="4" fill="#0" id="circle138"/>
	<circle cx="409.596" cy="110.809" r="4" fill="#0" id="circle139"/>
	<circle cx="413.087" cy="308.372" r="4" fill="#0" id="circle140"/>
	<circle cx="415.879" cy="114.3" r="4" fill="#0" id="circle141"/>
	<circle cx="420.068" cy="308.372" r="4" fill="#0" id="circle142"/>
	<circle cx="422.86" cy="117.092" r="4" fill="#0" id="circle143"/>
	<circle cx="427.049" cy="122.677" r="4" fill="#0" id="circle144"/>
	<circle cx="427.049" cy="309.768" r="4" fill="#0" id="circle145"/>
	<circle cx="433.331" cy="117.79" r="4" fill="#0" id="circle146"/>
	<circle cx="434.03" cy="311.862" r="4" fill="#0" id="circle147"/>
	<circle cx="438.916" cy="112.205" r="4" fill="#0" id="circle148"/>
	<circle cx="441.011" cy="311.862" r="4" fill="#0" id="circle149"/>
	<circle cx="443.803" cy="103.828" r="4" fill="#0" id="circle150"/>
	<circle cx="447.293" cy="315.353" r="4" fill="#0" id="circle151"/>
	<circle cx="449.388" cy="98.2435" r="4" fill="#0" id="circle152"/>
	<circle cx="454.274" cy="315.353" r="4" fill="#0" id="circle153"/>
	<circle cx="456.369" cy="98.2435" r="4" fill="#0" id="circle154"/>
	<circle cx="461.255" cy="315.353" r="4" fill="#0" id="circle155"/>
	<circle cx="461.954" cy="92.6587" r="4" fill="#0" id="circle156"/>
	<circle cx="467.538" cy="87.772" r="4" fill="#0" id="circle157"/>
	<circle cx="468.236" cy="315.353" r="4" fill="#0" id="circle158"/>
	<circle cx="473.821" cy="84.2815" r="4" fill="#0" id="circle159"/>
	<circle cx="475.217" cy="315.353" r="4" fill="#0" id="circle160"/>
	<circle cx="480.104" cy="80.791" r="4" fill="#0" id="circle161"/>
	<circle cx="482.198" cy="315.353" r="4" fill="#0" id="circle162"/>
	<circle cx="486.387" cy="77.3005" r="4" fill="#0" id="circle163"/>
	<circle cx="489.179" cy="315.353" r="4" fill="#0" id="circle164"/>
	<circle cx="493.368" cy="75.2062" r="4" fill="#0" id="circle165"/>
	<circle cx="496.16" cy="315.353" r="4" fill="#0" id="circle166"/>
	<circle cx="498.953" cy="70.3195" r="4" fill="#0" id="circle167"/>
	<circle cx="503.141" cy="315.353" r="4" fill="#0" id="circle168"/>
	<circle cx="505.236" cy="66.829" r="4" fill="#0" id="circle169"/>
	<circle cx="510.122" cy="315.353" r="4" fill="#0" id="circle170"/>
	<circle cx="512.217" cy="63.3385" r="4" fill="#0" id="circle171"/>
	<circle cx="517.103" cy="315.353" r="4" fill="#0" id="circle172"/>
	<circle cx="519.198" cy="59.848" r="4" fill="#0" id="circle173"/>
	<circle cx="524.084" cy="315.353" r="4" fill="#0" id="circle174"/>
	<circle cx="526.179" cy="56.3575" r="4" fill="#0" id="circle175"/>
	<circle cx="531.065" cy="315.353" r="4" fill="#0" id="circle176"/>
	<circle cx="533.16" cy="52.867" r="4" fill="#0" id="circle177"/>
	<circle cx="538.046" cy="315.353" r="4" fill="#0" id="circle178"/>
	<circle cx="540.141" cy="52.867" r="4" fill="#0" id="circle179"/>
	<circle cx="544.329" cy="318.843" r="4" fill="#0" id="circle180"/>
	<circle cx="547.122" cy="49.3765" r="4" fill="#0" id="circle181"/>
	<circle cx="551.31" cy="318.843" r="4" fill="#0" id="circle182"/>
	<circle cx="553.405" cy="45.886" r="4" fill="#0" id="circle183"/>
	<circle cx="558.291" cy="318.843" r="4" fill="#0" id="circle184"/>
	<circle cx="560.386" cy="43.0936" r="4" fill="#0" id="circle185"/>
	<circle cx="565.272" cy="318.843" r="4" fill="#0" id="circle186"/>
	<circle cx="567.367" cy="39.6031" r="4" fill="#0" id="circle187"/>
	<circle cx="572.253" cy="318.843" r="4" fill="#0" id="circle188"/>
	<circle cx="574.348" cy="38.905" r="4" fill="#0" id="circle189"/>
	<circle cx="579.234" cy="318.843" r="4" fill="#0" id="circle190"/>
	<circle cx="580.631" cy="35.4145" r="4" fill="#0" id="circle191"/>
	<circle cx="586.215" cy="317.447" r="4" fill="#0" id="circle192"/>
	<circle cx="587.612" cy="33.3202" r="4" fill="#0" id="circle193"/>
	<circle cx="593.196" cy="315.353" r="4" fill="#0" id="circle194"/>
	<circle cx="594.593" cy="31.924" r="4" fill="#0" id="circle195"/>
	<circle cx="600.177" cy="315.353" r="4" fill="#0" id="circle196"/>
	<circle cx="600.875" cy="28.4335" r="4" fill="#0" id="circle197"/>
	<circle cx="607.158" cy="24.943" r="4" fill="#0" id="circle198"/>
	<circle cx="607.158" cy="315.353" r="4" fill="#0" id="circle199"/>
	<circle cx="614.139" cy="24.943" r="4" fill="#0" id="circle200"/>
	<circle cx="614.139" cy="315.353" r="4" fill="#0" id="circle201"/>
	<circle cx="620.422" cy="21.4525" r="4" fill="#0" id="circle202"/>
	<circle cx="621.12" cy="315.353" r="4" fill="#0" id="circle203"/>
	<circle cx="627.403" cy="21.4525" r="4" fill="#0" id="circle204"/>
	<circle cx="627.403" cy="311.862" r="4" fill="#0" id="circle205"/>
	<circle cx="633.686" cy="17.962" r="4" fill="#0" id="circle206"/>
	<circle cx="634.384" cy="311.164" r="4" fill="#0" id="circle207"/>
	<circle cx="637.875" cy="304.183" r="4" fill="#0" id="circle208"/>
	<circle cx="640.667" cy="15.1696" r="4" fill="#0" id="circle209"/>
	<circle cx="643.46" cy="297.9" r="4" fill="#0" id="circle210"/>
	<circle cx="647.648" cy="14.4715" r="4" fill="#0" id="circle211"/>
	<circle cx="649.044" cy="293.013" r="4" fill="#0" id="circle212"/>
	<circle cx="653.931" cy="10.981" r="4" fill="#0" id="circle213"/>
	<circle cx="653.931" cy="287.429" r="4" fill="#0" id="circle214"/>
	<circle cx="660.912" cy="10.981" r="4" fill="#0" id="circle215"/>
	<circle cx="660.912" cy="288.825" r="4" fill="#0" id="circle216"/>
	<circle cx="667.195" cy="7.4905" r="4" fill="#0" id="circle217"/>
	<circle cx="667.893" cy="290.919" r="4" fill="#0" id="circle218"/>
	<circle cx="674.176" cy="6.0943" r="4" fill="#0" id="circle219"/>
	<circle cx="674.874" cy="290.919" r="4" fill="#0" id="circle220"/>
	<circle cx="681.157" cy="4" r="4" fill="#0" id="circle221"/>
	<circle cx="681.157" cy="294.41" r="4" fill="#0" id="circle222"/>
	<circle cx="686.742" cy="8.1886" r="4" fill="#0" id="circle223"/>
	<circle cx="688.138" cy="294.41" r="4" fill="#0" id="circle224"/>
	<circle cx="692.327" cy="13.0753" r="4" fill="#0" id="circle225"/>
	<circle cx="695.119" cy="294.41" r="4" fill="#0" id="circle226"/>
	<circle cx="697.213" cy="18.6601" r="4" fill="#0" id="circle227"/>
	<circle cx="702.1" cy="294.41" r="4" fill="#0" id="circle228"/>
	<circle cx="702.798" cy="23.5468" r="4" fill="#0" id="circle229"/>
	<circle cx="706.289" cy="29.8297" r="4" fill="#0" id="circle230"/>
	<circle cx="709.081" cy="294.41" r="4" fill="#0" id="circle231"/>
	<circle cx="709.779" cy="36.1126" r="4" fill="#0" id="circle232"/>
	<circle cx="713.27" cy="42.3955" r="4" fill="#0" id="circle233"/>
	<circle cx="716.062" cy="294.41" r="4" fill="#0" id="circle234"/>
	<circle cx="716.76" cy="48.6784" r="4" fill="#0" id="circle235"/>
	<circle cx="720.251" cy="54.9613" r="4" fill="#0" id="circle236"/>
	<circle cx="722.345" cy="297.9" r="4" fill="#0" id="circle237"/>
	<circle cx="723.741" cy="61.2442" r="4" fill="#0" id="circle238"/>
	<circle cx="727.93" cy="66.829" r="4" fill="#0" id="circle239"/>
	<circle cx="729.326" cy="297.9" r="4" fill="#0" id="circle240"/>
	<circle cx="734.213" cy="70.3195" r="4" fill="#0" id="circle241"/>
	<circle cx="736.307" cy="297.9" r="4" fill="#0" id="circle242"/>
	<circle cx="737.703" cy="76.6024" r="4" fill="#0" id="circle243"/>
	<circle cx="741.194" cy="82.8853" r="4" fill="#0" id="circle244"/>
	<circle cx="743.288" cy="297.9" r="4" fill="#0" id="circle245"/>
	<circle cx="746.08" cy="88.4701" r="4" fill="#0" id="circle246"/>
	<circle cx="750.269" cy="297.9" r="4" fill="#0" id="circle247"/>
	<circle cx="751.665" cy="93.3568" r="4" fill="#0" id="circle248"/>
	<circle cx="756.552" cy="294.41" r="4" fill="#0" id="circle249"/>
	<circle cx="757.25" cy="98.2435" r="4" fill="#0" id="circle250"/>
	<circle cx="763.533" cy="294.41" r="4" fill="#0" id="circle251"/>
	<circle cx="764.231" cy="98.2435" r="4" fill="#0" id="circle252"/>
	<circle cx="768.419" cy="355.144" r="4" fill="#0" id="circle253"/>
	<circle cx="769.816" cy="290.919" r="4" fill="#0" id="circle254"/>
	<circle cx="770.514" cy="101.734" r="4" fill="#0" id="circle255"/>
	<circle cx="772.608" cy="360.729" r="4" fill="#0" id="circle256"/>
	<circle cx="774.004" cy="349.559" r="4" fill="#0" id="circle257"/>
	<circle cx="776.099" cy="96.1492" r="4" fill="#0" id="circle258"/>
	<circle cx="776.099" cy="287.429" r="4" fill="#0" id="circle259"/>
	<circle cx="777.495" cy="342.578" r="4" fill="#0" id="circle260"/>
	<circle cx="778.891" cy="75.9043" r="4" fill="#0" id="circle261"/>
	<circle cx="778.891" cy="82.8853" r="4" fill="#0" id="circle262"/>
	<circle cx="779.589" cy="357.239" r="4" fill="#0" id="circle263"/>
	<circle cx="783.08" cy="287.429" r="4" fill="#0" id="circle264"/>
	<circle cx="784.476" cy="339.088" r="4" fill="#0" id="circle265"/>
	<circle cx="785.872" cy="73.81" r="4" fill="#0" id="circle266"/>
	<circle cx="786.57" cy="353.748" r="4" fill="#0" id="circle267"/>
	<circle cx="788.664" cy="282.542" r="4" fill="#0" id="circle268"/>
	<circle cx="789.362" cy="330.711" r="4" fill="#0" id="circle269"/>
	<circle cx="792.155" cy="348.861" r="4" fill="#0" id="circle270"/>
	<circle cx="792.853" cy="73.81" r="4" fill="#0" id="circle271"/>
	<circle cx="793.551" cy="276.957" r="4" fill="#0" id="circle272"/>
	<circle cx="794.947" cy="325.126" r="4" fill="#0" id="circle273"/>
	<circle cx="796.343" cy="343.277" r="4" fill="#0" id="circle274"/>
	<circle cx="799.834" cy="72.4138" r="4" fill="#0" id="circle275"/>
	<circle cx="799.834" cy="273.467" r="4" fill="#0" id="circle276"/>
	<circle cx="800.532" cy="319.541" r="4" fill="#0" id="circle277"/>
	<circle cx="800.532" cy="348.861" r="4" fill="#0" id="circle278"/>
	<circle cx="803.324" cy="61.9423" r="4" fill="#0" id="circle279"/>
	<circle cx="805.419" cy="269.278" r="4" fill="#0" id="circle280"/>
	<circle cx="806.117" cy="314.654" r="4" fill="#0" id="circle281"/>
	<circle cx="806.815" cy="344.673" r="4" fill="#0" id="circle282"/>
	<circle cx="808.909" cy="56.3575" r="4" fill="#0" id="circle283"/>
	<circle cx="808.909" cy="262.995" r="4" fill="#0" id="circle284"/>
	<circle cx="808.909" cy="307.673" r="4" fill="#0" id="circle285"/>
	<circle cx="811.004" cy="63.3385" r="4" fill="#0" id="circle286"/>
	<circle cx="811.004" cy="336.296" r="4" fill="#0" id="circle287"/>
	<circle cx="812.4" cy="300.692" r="4" fill="#0" id="circle288"/>
	<circle cx="815.89" cy="262.995" r="4" fill="#0" id="circle289"/>
	<circle cx="815.89" cy="293.711" r="4" fill="#0" id="circle290"/>
	<circle cx="816.588" cy="331.409" r="4" fill="#0" id="circle291"/>
	<circle cx="817.985" cy="65.4328" r="4" fill="#0" id="circle292"/>
	<circle cx="820.777" cy="281.844" r="4" fill="#0" id="circle293"/>
	<circle cx="821.475" cy="322.334" r="4" fill="#0" id="circle294"/>
	<circle cx="822.871" cy="262.995" r="4" fill="#0" id="circle295"/>
	<circle cx="823.569" cy="70.3195" r="4" fill="#0" id="circle296"/>
	<circle cx="824.267" cy="274.863" r="4" fill="#0" id="circle297"/>
	<circle cx="824.966" cy="315.353" r="4" fill="#0" id="circle298"/>
	<circle cx="827.758" cy="268.58" r="4" fill="#0" id="circle299"/>
	<circle cx="828.456" cy="304.881" r="4" fill="#0" id="circle300"/>
	<circle cx="829.852" cy="66.829" r="4" fill="#0" id="circle301"/>
	<circle cx="834.041" cy="299.994" r="4" fill="#0" id="circle302"/>
	<circle cx="836.833" cy="66.829" r="4" fill="#0" id="circle303"/>
	<circle cx="837.531" cy="293.013" r="4" fill="#0" id="circle304"/>
	<circle cx="838.928" cy="283.938" r="4" fill="#0" id="circle305"/>
	<circle cx="842.418" cy="61.2442" r="4" fill="#0" id="circle306"/>
	<circle cx="842.418" cy="269.976" r="4" fill="#0" id="circle307"/>
	<circle cx="842.418" cy="276.957" r="4" fill="#0" id="circle308"/>
	<circle cx="845.909" cy="259.505" r="4" fill="#0" id="circle309"/>
	<circle cx="849.399" cy="61.9423" r="4" fill="#0" id="circle310"/>
	<circle cx="852.191" cy="256.014" r="4" fill="#0" id="circle311"/>
	<circle cx="852.89" cy="68.2252" r="4" fill="#0" id="circle312"/>
	<circle cx="856.38" cy="74.5081" r="4" fill="#0" id="circle313"/>
	<circle cx="856.38" cy="81.4891" r="4" fill="#0" id="circle314"/>
	<circle cx="856.38" cy="88.4701" r="4" fill="#0" id="circle315"/>
	<circle cx="856.38" cy="95.4511" r="4" fill="#0" id="circle316"/>
	<circle cx="856.38" cy="102.432" r="4" fill="#0" id="circle317"/>
	<circle cx="856.38" cy="109.413" r="4" fill="#0" id="circle318"/>
	<circle cx="859.172" cy="256.014" r="4" fill="#0" id="circle319"/>
	<circle cx="859.871" cy="115.696" r="4" fill="#0" id="circle320"/>
	<circle cx="865.455" cy="252.524" r="4" fill="#0" id="circle321"/>
	<circle cx="866.153" cy="112.205" r="4" fill="#0" id="circle322"/>
	<circle cx="872.436" cy="252.524" r="4" fill="#0" id="circle323"/>
	<circle cx="873.134" cy="113.602" r="4" fill="#0" id="circle324"/>
	<circle cx="878.719" cy="249.033" r="4" fill="#0" id="circle325"/>
	<circle cx="879.417" cy="117.092" r="4" fill="#0" id="circle326"/>
	<circle cx="885.7" cy="249.033" r="4" fill="#0" id="circle327"/>
	<circle cx="886.398" cy="116.394" r="4" fill="#0" id="circle328"/>
	<circle cx="891.983" cy="245.543" r="4" fill="#0" id="circle329"/>
	<circle cx="893.379" cy="119.186" r="4" fill="#0" id="circle330"/>
	<circle cx="898.266" cy="113.602" r="4" fill="#0" id="circle331"/>
	<circle cx="898.964" cy="245.543" r="4" fill="#0" id="circle332"/>
	<circle cx="904.549" cy="117.092" r="4" fill="#0" id="circle333"/>
	<circle cx="905.247" cy="242.052" r="4" fill="#0" id="circle334"/>
	<circle cx="908.738" cy="122.677" r="4" fill="#0" id="circle335"/>
	<circle cx="912.228" cy="242.052" r="4" fill="#0" id="circle336"/>
	<circle cx="915.719" cy="122.677" r="4" fill="#0" id="circle337"/>
	<circle cx="919.209" cy="238.562" r="4" fill="#0" id="circle338"/>
	<circle cx="922.001" cy="126.167" r="4" fill="#0" id="circle339"/>
	<circle cx="926.19" cy="238.562" r="4" fill="#0" id="circle340"/>
	<circle cx="928.982" cy="127.564" r="4" fill="#0" id="circle341"/>
	<circle cx="933.171" cy="133.148" r="4" fill="#0" id="circle342"/>
	<circle cx="933.171" cy="235.071" r="4" fill="#0" id="circle343"/>
	<circle cx="940.152" cy="133.148" r="4" fill="#0" id="circle344"/>
	<circle cx="940.152" cy="235.071" r="4" fill="#0" id="circle345"/>
	<circle cx="945.737" cy="137.337" r="4" fill="#0" id="circle346"/>
	<circle cx="947.133" cy="235.071" r="4" fill="#0" id="circle347"/>
	<circle cx="950.624" cy="142.922" r="4" fill="#0" id="circle348"/>
	<circle cx="954.114" cy="235.071" r="4" fill="#0" id="circle349"/>
	<circle cx="956.208" cy="147.11" r="4" fill="#0" id="circle350"/>
	<circle cx="960.397" cy="238.562" r="4" fill="#0" id="circle351"/>
	<circle cx="961.095" cy="152.695" r="4" fill="#0" id="circle352"/>
	<circle cx="966.68" cy="157.582" r="4" fill="#0" id="circle353"/>
	<circle cx="967.378" cy="238.562" r="4" fill="#0" id="circle354"/>
	<circle cx="973.661" cy="158.28" r="4" fill="#0" id="circle355"/>
	<circle cx="973.661" cy="235.071" r="4" fill="#0" id="circle356"/>
	<circle cx="975.057" cy="165.261" r="4" fill="#0" id="circle357"/>
	<circle cx="978.548" cy="171.544" r="4" fill="#0" id="circle358"/>
	<circle cx="980.642" cy="233.675" r="4" fill="#0" id="circle359"/>
	<circle cx="984.132" cy="175.733" r="4" fill="#0" id="circle360"/>
	<circle cx="984.132" cy="226.694" r="4" fill="#0" id="circle361"/>
	<circle cx="985.529" cy="214.128" r="4" fill="#0" id="circle362"/>
	<circle cx="989.019" cy="181.317" r="4" fill="#0" id="circle363"/>
	<circle cx="991.113" cy="209.241" r="4" fill="#0" id="circle364"/>
	<circle cx="992.51" cy="187.6" r="4" fill="#0" id="circle365"/>
	<circle cx="994.604" cy="202.26" r="4" fill="#0" id="circle366"/>
	<circle cx="996" cy="193.883" r="4" fill="#0" id="circle367"/>
	</g>
</svg>