<?xml version="1.0" encoding="UTF-8" standalone="no"?>
<!-- Created with CurveBenchmark -->
<svg
	xmlns:dc="http://purl.org/dc/elements/1.1/"
	xmlns:cc="http://creativecommons.org/ns#"
	xmlns:rdf="http://www.w3.org/1999/02/22-rdf-syntax-ns#"
	xmlns:svg="http://www.w3.org/2000/svg"
	xmlns="http://www.w3.org/2000/svg"
	xmlns:sodipodi="http://sodipodi.sourceforge.net/DTD/sodipodi-0.dtd"
	xmlns:inkscape="http://www.inkscape.org/namespaces/inkscape"
	width="1000"
	height="1000"
	id="svg2"
	version="1.1"
	sodipodi:docname="manifold/hnncrust-fish23occ4.png.txt">
<defs
	id="defs4" />
<metadata
	id="metadata7">
	<rdf:RDF>
		<cc:Work
			rdf:about="">
			<dc:format>image/svg+xml</dc:format>
			<dc:type
				rdf:resource="http://purl.org/dc/dcmitype/StillImage" />
			<dc:title></dc:title>
		</cc:Work>
	</rdf:RDF>
</metadata>
<g
	inkscape:label="Layer 1"
	inkscape:groupmode="layer"
	id="layer1">
	<path style="fill:none;stroke:red;stroke-width:1px;stroke-linecap:butt;stroke-linejoin:miter;stroke-opacity:1" d="M 4,447.899 14.4202,427.059 z" id="boundary" inkscape:connector-curvature="0" />
	<path style="fill:none;stroke:red;stroke-width:1px;stroke-linecap:butt;stroke-linejoin:miter;stroke-opacity:1" d="M 4,447.899 24.8403,454.151 z" id="boundary" inkscape:connector-curvature="0" />
	<path style="fill:none;stroke:red;stroke-width:1px;stroke-linecap:butt;stroke-linejoin:miter;stroke-opacity:1" d="M 14.4202,427.059 24.8403,406.218 z" id="boundary" inkscape:connector-curvature="0" />
	<path style="fill:none;stroke:red;stroke-width:1px;stroke-linecap:butt;stroke-linejoin:miter;stroke-opacity:1" d="M 24.8403,406.218 41.5126,389.546 z" id="boundary" inkscape:connector-curvature="0" />
	<path style="fill:none;stroke:red;stroke-width:1px;stroke-linecap:butt;stroke-linejoin:miter;stroke-opacity:1" d="M 24.8403,454.151 43.5966,464.571 z" id="boundary" inkscape:connector-curvature="0" />
	<path style="fill:none;stroke:red;stroke-width:1px;stroke-linecap:butt;stroke-linejoin:miter;stroke-opacity:1" d="M 41.5126,389.546 51.9328,368.706 z" id="boundary" inkscape:connector-curvature="0" />
	<path style="fill:none;stroke:red;stroke-width:1px;stroke-linecap:butt;stroke-linejoin:miter;stroke-opacity:1" d="M 43.5966,464.571 62.3529,474.992 z" id="boundary" inkscape:connector-curvature="0" />
	<path style="fill:none;stroke:red;stroke-width:1px;stroke-linecap:butt;stroke-linejoin:miter;stroke-opacity:1" d="M 45.6807,166.555 56.1008,145.714 z" id="boundary" inkscape:connector-curvature="0" />
	<path style="fill:none;stroke:red;stroke-width:1px;stroke-linecap:butt;stroke-linejoin:miter;stroke-opacity:1" d="M 45.6807,166.555 56.1008,185.311 z" id="boundary" inkscape:connector-curvature="0" />
	<path style="fill:none;stroke:red;stroke-width:1px;stroke-linecap:butt;stroke-linejoin:miter;stroke-opacity:1" d="M 51.9328,368.706 62.3529,347.866 z" id="boundary" inkscape:connector-curvature="0" />
	<path style="fill:none;stroke:red;stroke-width:1px;stroke-linecap:butt;stroke-linejoin:miter;stroke-opacity:1" d="M 56.1008,124.874 56.1008,145.714 z" id="boundary" inkscape:connector-curvature="0" />
	<path style="fill:none;stroke:red;stroke-width:1px;stroke-linecap:butt;stroke-linejoin:miter;stroke-opacity:1" d="M 56.1008,124.874 76.9412,118.622 z" id="boundary" inkscape:connector-curvature="0" />
	<path style="fill:none;stroke:red;stroke-width:1px;stroke-linecap:butt;stroke-linejoin:miter;stroke-opacity:1" d="M 56.1008,185.311 56.1008,206.151 z" id="boundary" inkscape:connector-curvature="0" />
	<path style="fill:none;stroke:red;stroke-width:1px;stroke-linecap:butt;stroke-linejoin:miter;stroke-opacity:1" d="M 56.1008,206.151 56.1008,229.076 z" id="boundary" inkscape:connector-curvature="0" />
	<path style="fill:none;stroke:red;stroke-width:1px;stroke-linecap:butt;stroke-linejoin:miter;stroke-opacity:1" d="M 56.1008,229.076 66.521,249.916 z" id="boundary" inkscape:connector-curvature="0" />
	<path style="fill:none;stroke:red;stroke-width:1px;stroke-linecap:butt;stroke-linejoin:miter;stroke-opacity:1" d="M 62.3529,347.866 72.7731,327.025 z" id="boundary" inkscape:connector-curvature="0" />
	<path style="fill:none;stroke:red;stroke-width:1px;stroke-linecap:butt;stroke-linejoin:miter;stroke-opacity:1" d="M 62.3529,474.992 79.0252,489.58 z" id="boundary" inkscape:connector-curvature="0" />
	<path style="fill:none;stroke:red;stroke-width:1px;stroke-linecap:butt;stroke-linejoin:miter;stroke-opacity:1" d="M 66.521,249.916 83.1933,264.504 z" id="boundary" inkscape:connector-curvature="0" />
	<path style="fill:none;stroke:red;stroke-width:1px;stroke-linecap:butt;stroke-linejoin:miter;stroke-opacity:1" d="M 72.7731,327.025 87.3613,302.017 z" id="boundary" inkscape:connector-curvature="0" />
	<path style="fill:none;stroke:red;stroke-width:1px;stroke-linecap:butt;stroke-linejoin:miter;stroke-opacity:1" d="M 76.9412,118.622 97.7815,118.622 z" id="boundary" inkscape:connector-curvature="0" />
	<path style="fill:none;stroke:red;stroke-width:1px;stroke-linecap:butt;stroke-linejoin:miter;stroke-opacity:1" d="M 79.0252,489.58 97.7815,500 z" id="boundary" inkscape:connector-curvature="0" />
	<path style="fill:none;stroke:red;stroke-width:1px;stroke-linecap:butt;stroke-linejoin:miter;stroke-opacity:1" d="M 83.1933,264.504 97.7815,281.176 z" id="boundary" inkscape:connector-curvature="0" />
	<path style="fill:none;stroke:red;stroke-width:1px;stroke-linecap:butt;stroke-linejoin:miter;stroke-opacity:1" d="M 87.3613,302.017 97.7815,281.176 z" id="boundary" inkscape:connector-curvature="0" />
	<path style="fill:none;stroke:red;stroke-width:1px;stroke-linecap:butt;stroke-linejoin:miter;stroke-opacity:1" d="M 97.7815,118.622 118.622,118.622 z" id="boundary" inkscape:connector-curvature="0" />
	<path style="fill:none;stroke:red;stroke-width:1px;stroke-linecap:butt;stroke-linejoin:miter;stroke-opacity:1" d="M 97.7815,500 118.622,506.252 z" id="boundary" inkscape:connector-curvature="0" />
	<path style="fill:none;stroke:red;stroke-width:1px;stroke-linecap:butt;stroke-linejoin:miter;stroke-opacity:1" d="M 118.622,118.622 139.462,122.79 z" id="boundary" inkscape:connector-curvature="0" />
	<path style="fill:none;stroke:red;stroke-width:1px;stroke-linecap:butt;stroke-linejoin:miter;stroke-opacity:1" d="M 118.622,506.252 135.294,493.748 z" id="boundary" inkscape:connector-curvature="0" />
	<path style="fill:none;stroke:red;stroke-width:1px;stroke-linecap:butt;stroke-linejoin:miter;stroke-opacity:1" d="M 135.294,493.748 145.714,472.908 z" id="boundary" inkscape:connector-curvature="0" />
	<path style="fill:none;stroke:red;stroke-width:1px;stroke-linecap:butt;stroke-linejoin:miter;stroke-opacity:1" d="M 139.462,122.79 151.966,139.462 z" id="boundary" inkscape:connector-curvature="0" />
	<path style="fill:none;stroke:red;stroke-width:1px;stroke-linecap:butt;stroke-linejoin:miter;stroke-opacity:1" d="M 145.714,472.908 162.387,443.731 z" id="boundary" inkscape:connector-curvature="0" />
	<path style="fill:none;stroke:red;stroke-width:1px;stroke-linecap:butt;stroke-linejoin:miter;stroke-opacity:1" d="M 151.966,139.462 172.807,145.714 z" id="boundary" inkscape:connector-curvature="0" />
	<path style="fill:none;stroke:red;stroke-width:1px;stroke-linecap:butt;stroke-linejoin:miter;stroke-opacity:1" d="M 162.387,443.731 172.807,422.891 z" id="boundary" inkscape:connector-curvature="0" />
	<path style="fill:none;stroke:red;stroke-width:1px;stroke-linecap:butt;stroke-linejoin:miter;stroke-opacity:1" d="M 172.807,145.714 187.395,129.042 z" id="boundary" inkscape:connector-curvature="0" />
	<path style="fill:none;stroke:red;stroke-width:1px;stroke-linecap:butt;stroke-linejoin:miter;stroke-opacity:1" d="M 172.807,422.891 193.647,422.891 z" id="boundary" inkscape:connector-curvature="0" />
	<path style="fill:none;stroke:red;stroke-width:1px;stroke-linecap:butt;stroke-linejoin:miter;stroke-opacity:1" d="M 187.395,129.042 201.983,104.034 z" id="boundary" inkscape:connector-curvature="0" />
	<path style="fill:none;stroke:red;stroke-width:1px;stroke-linecap:butt;stroke-linejoin:miter;stroke-opacity:1" d="M 193.647,422.891 206.151,439.563 z" id="boundary" inkscape:connector-curvature="0" />
	<path style="fill:none;stroke:red;stroke-width:1px;stroke-linecap:butt;stroke-linejoin:miter;stroke-opacity:1" d="M 201.983,104.034 212.403,83.1933 z" id="boundary" inkscape:connector-curvature="0" />
	<path style="fill:none;stroke:red;stroke-width:1px;stroke-linecap:butt;stroke-linejoin:miter;stroke-opacity:1" d="M 206.151,439.563 222.824,454.151 z" id="boundary" inkscape:connector-curvature="0" />
	<path style="fill:none;stroke:red;stroke-width:1px;stroke-linecap:butt;stroke-linejoin:miter;stroke-opacity:1" d="M 212.403,83.1933 222.824,62.3529 z" id="boundary" inkscape:connector-curvature="0" />
	<path style="fill:none;stroke:red;stroke-width:1px;stroke-linecap:butt;stroke-linejoin:miter;stroke-opacity:1" d="M 222.824,62.3529 239.496,45.6807 z" id="boundary" inkscape:connector-curvature="0" />
	<path style="fill:none;stroke:red;stroke-width:1px;stroke-linecap:butt;stroke-linejoin:miter;stroke-opacity:1" d="M 222.824,454.151 235.328,470.824 z" id="boundary" inkscape:connector-curvature="0" />
	<path style="fill:none;stroke:red;stroke-width:1px;stroke-linecap:butt;stroke-linejoin:miter;stroke-opacity:1" d="M 235.328,470.824 245.748,489.58 z" id="boundary" inkscape:connector-curvature="0" />
	<path style="fill:none;stroke:red;stroke-width:1px;stroke-linecap:butt;stroke-linejoin:miter;stroke-opacity:1" d="M 239.496,45.6807 249.916,24.8403 z" id="boundary" inkscape:connector-curvature="0" />
	<path style="fill:none;stroke:red;stroke-width:1px;stroke-linecap:butt;stroke-linejoin:miter;stroke-opacity:1" d="M 245.748,489.58 264.504,500 z" id="boundary" inkscape:connector-curvature="0" />
	<path style="fill:none;stroke:red;stroke-width:1px;stroke-linecap:butt;stroke-linejoin:miter;stroke-opacity:1" d="M 249.916,24.8403 260.336,4 z" id="boundary" inkscape:connector-curvature="0" />
	<path style="fill:none;stroke:red;stroke-width:1px;stroke-linecap:butt;stroke-linejoin:miter;stroke-opacity:1" d="M 260.336,4 281.176,4 z" id="boundary" inkscape:connector-curvature="0" />
	<path style="fill:none;stroke:red;stroke-width:1px;stroke-linecap:butt;stroke-linejoin:miter;stroke-opacity:1" d="M 264.504,500 277.008,516.672 z" id="boundary" inkscape:connector-curvature="0" />
	<path style="fill:none;stroke:red;stroke-width:1px;stroke-linecap:butt;stroke-linejoin:miter;stroke-opacity:1" d="M 277.008,516.672 295.765,527.092 z" id="boundary" inkscape:connector-curvature="0" />
	<path style="fill:none;stroke:red;stroke-width:1px;stroke-linecap:butt;stroke-linejoin:miter;stroke-opacity:1" d="M 281.176,4 299.933,14.4202 z" id="boundary" inkscape:connector-curvature="0" />
	<path style="fill:none;stroke:red;stroke-width:1px;stroke-linecap:butt;stroke-linejoin:miter;stroke-opacity:1" d="M 295.765,527.092 295.765,562.521 z" id="boundary" inkscape:connector-curvature="0" />
	<path style="fill:none;stroke:red;stroke-width:1px;stroke-linecap:butt;stroke-linejoin:miter;stroke-opacity:1" d="M 295.765,562.521 312.437,577.109 z" id="boundary" inkscape:connector-curvature="0" />
	<path style="fill:none;stroke:red;stroke-width:1px;stroke-linecap:butt;stroke-linejoin:miter;stroke-opacity:1" d="M 297.849,204.067 314.521,189.479 z" id="boundary" inkscape:connector-curvature="0" />
	<path style="fill:none;stroke:red;stroke-width:1px;stroke-linecap:butt;stroke-linejoin:miter;stroke-opacity:1" d="M 297.849,204.067 314.521,216.571 z" id="boundary" inkscape:connector-curvature="0" />
	<path style="fill:none;stroke:red;stroke-width:1px;stroke-linecap:butt;stroke-linejoin:miter;stroke-opacity:1" d="M 299.933,14.4202 318.689,24.8403 z" id="boundary" inkscape:connector-curvature="0" />
	<path style="fill:none;stroke:red;stroke-width:1px;stroke-linecap:butt;stroke-linejoin:miter;stroke-opacity:1" d="M 312.437,577.109 327.025,593.782 z" id="boundary" inkscape:connector-curvature="0" />
	<path style="fill:none;stroke:red;stroke-width:1px;stroke-linecap:butt;stroke-linejoin:miter;stroke-opacity:1" d="M 314.521,189.479 324.941,168.639 z" id="boundary" inkscape:connector-curvature="0" />
	<path style="fill:none;stroke:red;stroke-width:1px;stroke-linecap:butt;stroke-linejoin:miter;stroke-opacity:1" d="M 314.521,216.571 327.025,233.244 z" id="boundary" inkscape:connector-curvature="0" />
	<path style="fill:none;stroke:red;stroke-width:1px;stroke-linecap:butt;stroke-linejoin:miter;stroke-opacity:1" d="M 318.689,24.8403 337.445,35.2605 z" id="boundary" inkscape:connector-curvature="0" />
	<path style="fill:none;stroke:red;stroke-width:1px;stroke-linecap:butt;stroke-linejoin:miter;stroke-opacity:1" d="M 324.941,168.639 335.361,147.798 z" id="boundary" inkscape:connector-curvature="0" />
	<path style="fill:none;stroke:red;stroke-width:1px;stroke-linecap:butt;stroke-linejoin:miter;stroke-opacity:1" d="M 327.025,233.244 343.697,245.748 z" id="boundary" inkscape:connector-curvature="0" />
	<path style="fill:none;stroke:red;stroke-width:1px;stroke-linecap:butt;stroke-linejoin:miter;stroke-opacity:1" d="M 327.025,593.782 327.025,614.622 z" id="boundary" inkscape:connector-curvature="0" />
	<path style="fill:none;stroke:red;stroke-width:1px;stroke-linecap:butt;stroke-linejoin:miter;stroke-opacity:1" d="M 327.025,614.622 347.866,620.874 z" id="boundary" inkscape:connector-curvature="0" />
	<path style="fill:none;stroke:red;stroke-width:1px;stroke-linecap:butt;stroke-linejoin:miter;stroke-opacity:1" d="M 335.361,147.798 345.782,126.958 z" id="boundary" inkscape:connector-curvature="0" />
	<path style="fill:none;stroke:red;stroke-width:1px;stroke-linecap:butt;stroke-linejoin:miter;stroke-opacity:1" d="M 337.445,35.2605 356.202,45.6807 z" id="boundary" inkscape:connector-curvature="0" />
	<path style="fill:none;stroke:red;stroke-width:1px;stroke-linecap:butt;stroke-linejoin:miter;stroke-opacity:1" d="M 343.697,245.748 354.118,264.504 z" id="boundary" inkscape:connector-curvature="0" />
	<path style="fill:none;stroke:red;stroke-width:1px;stroke-linecap:butt;stroke-linejoin:miter;stroke-opacity:1" d="M 345.782,126.958 360.37,99.8655 z" id="boundary" inkscape:connector-curvature="0" />
	<path style="fill:none;stroke:red;stroke-width:1px;stroke-linecap:butt;stroke-linejoin:miter;stroke-opacity:1" d="M 347.866,620.874 360.37,637.546 z" id="boundary" inkscape:connector-curvature="0" />
	<path style="fill:none;stroke:red;stroke-width:1px;stroke-linecap:butt;stroke-linejoin:miter;stroke-opacity:1" d="M 354.118,264.504 372.874,274.924 z" id="boundary" inkscape:connector-curvature="0" />
	<path style="fill:none;stroke:red;stroke-width:1px;stroke-linecap:butt;stroke-linejoin:miter;stroke-opacity:1" d="M 356.202,45.6807 374.958,56.1008 z" id="boundary" inkscape:connector-curvature="0" />
	<path style="fill:none;stroke:red;stroke-width:1px;stroke-linecap:butt;stroke-linejoin:miter;stroke-opacity:1" d="M 360.37,99.8655 370.79,79.0252 z" id="boundary" inkscape:connector-curvature="0" />
	<path style="fill:none;stroke:red;stroke-width:1px;stroke-linecap:butt;stroke-linejoin:miter;stroke-opacity:1" d="M 360.37,637.546 379.126,625.042 z" id="boundary" inkscape:connector-curvature="0" />
	<path style="fill:none;stroke:red;stroke-width:1px;stroke-linecap:butt;stroke-linejoin:miter;stroke-opacity:1" d="M 370.79,79.0252 374.958,56.1008 z" id="boundary" inkscape:connector-curvature="0" />
	<path style="fill:none;stroke:red;stroke-width:1px;stroke-linecap:butt;stroke-linejoin:miter;stroke-opacity:1" d="M 372.874,274.924 391.63,285.345 z" id="boundary" inkscape:connector-curvature="0" />
	<path style="fill:none;stroke:red;stroke-width:1px;stroke-linecap:butt;stroke-linejoin:miter;stroke-opacity:1" d="M 379.126,625.042 395.798,610.454 z" id="boundary" inkscape:connector-curvature="0" />
	<path style="fill:none;stroke:red;stroke-width:1px;stroke-linecap:butt;stroke-linejoin:miter;stroke-opacity:1" d="M 391.63,285.345 408.303,297.849 z" id="boundary" inkscape:connector-curvature="0" />
	<path style="fill:none;stroke:red;stroke-width:1px;stroke-linecap:butt;stroke-linejoin:miter;stroke-opacity:1" d="M 395.798,610.454 414.555,600.034 z" id="boundary" inkscape:connector-curvature="0" />
	<path style="fill:none;stroke:red;stroke-width:1px;stroke-linecap:butt;stroke-linejoin:miter;stroke-opacity:1" d="M 408.303,297.849 427.059,308.269 z" id="boundary" inkscape:connector-curvature="0" />
	<path style="fill:none;stroke:red;stroke-width:1px;stroke-linecap:butt;stroke-linejoin:miter;stroke-opacity:1" d="M 414.555,600.034 424.975,618.79 z" id="boundary" inkscape:connector-curvature="0" />
	<path style="fill:none;stroke:red;stroke-width:1px;stroke-linecap:butt;stroke-linejoin:miter;stroke-opacity:1" d="M 424.975,618.79 445.815,627.126 z" id="boundary" inkscape:connector-curvature="0" />
	<path style="fill:none;stroke:red;stroke-width:1px;stroke-linecap:butt;stroke-linejoin:miter;stroke-opacity:1" d="M 427.059,308.269 443.731,322.857 z" id="boundary" inkscape:connector-curvature="0" />
	<path style="fill:none;stroke:red;stroke-width:1px;stroke-linecap:butt;stroke-linejoin:miter;stroke-opacity:1" d="M 443.731,322.857 460.403,337.445 z" id="boundary" inkscape:connector-curvature="0" />
	<path style="fill:none;stroke:red;stroke-width:1px;stroke-linecap:butt;stroke-linejoin:miter;stroke-opacity:1" d="M 445.815,627.126 464.571,637.546 z" id="boundary" inkscape:connector-curvature="0" />
	<path style="fill:none;stroke:red;stroke-width:1px;stroke-linecap:butt;stroke-linejoin:miter;stroke-opacity:1" d="M 460.403,337.445 479.16,347.866 z" id="boundary" inkscape:connector-curvature="0" />
	<path style="fill:none;stroke:red;stroke-width:1px;stroke-linecap:butt;stroke-linejoin:miter;stroke-opacity:1" d="M 464.571,637.546 481.244,652.134 z" id="boundary" inkscape:connector-curvature="0" />
	<path style="fill:none;stroke:red;stroke-width:1px;stroke-linecap:butt;stroke-linejoin:miter;stroke-opacity:1" d="M 479.16,347.866 493.748,364.538 z" id="boundary" inkscape:connector-curvature="0" />
	<path style="fill:none;stroke:red;stroke-width:1px;stroke-linecap:butt;stroke-linejoin:miter;stroke-opacity:1" d="M 481.244,652.134 500,662.555 z" id="boundary" inkscape:connector-curvature="0" />
	<path style="fill:none;stroke:red;stroke-width:1px;stroke-linecap:butt;stroke-linejoin:miter;stroke-opacity:1" d="M 493.748,364.538 506.252,381.21 z" id="boundary" inkscape:connector-curvature="0" />
	<path style="fill:none;stroke:red;stroke-width:1px;stroke-linecap:butt;stroke-linejoin:miter;stroke-opacity:1" d="M 500,662.555 518.756,672.975 z" id="boundary" inkscape:connector-curvature="0" />
	<path style="fill:none;stroke:red;stroke-width:1px;stroke-linecap:butt;stroke-linejoin:miter;stroke-opacity:1" d="M 506.252,381.21 522.924,393.714 z" id="boundary" inkscape:connector-curvature="0" />
	<path style="fill:none;stroke:red;stroke-width:1px;stroke-linecap:butt;stroke-linejoin:miter;stroke-opacity:1" d="M 518.756,672.975 535.429,685.479 z" id="boundary" inkscape:connector-curvature="0" />
	<path style="fill:none;stroke:red;stroke-width:1px;stroke-linecap:butt;stroke-linejoin:miter;stroke-opacity:1" d="M 522.924,393.714 543.765,399.966 z" id="boundary" inkscape:connector-curvature="0" />
	<path style="fill:none;stroke:red;stroke-width:1px;stroke-linecap:butt;stroke-linejoin:miter;stroke-opacity:1" d="M 535.429,685.479 550.017,702.151 z" id="boundary" inkscape:connector-curvature="0" />
	<path style="fill:none;stroke:red;stroke-width:1px;stroke-linecap:butt;stroke-linejoin:miter;stroke-opacity:1" d="M 543.765,399.966 564.605,399.966 z" id="boundary" inkscape:connector-curvature="0" />
	<path style="fill:none;stroke:red;stroke-width:1px;stroke-linecap:butt;stroke-linejoin:miter;stroke-opacity:1" d="M 550.017,702.151 566.689,714.655 z" id="boundary" inkscape:connector-curvature="0" />
	<path style="fill:none;stroke:red;stroke-width:1px;stroke-linecap:butt;stroke-linejoin:miter;stroke-opacity:1" d="M 564.605,399.966 585.445,399.966 z" id="boundary" inkscape:connector-curvature="0" />
	<path style="fill:none;stroke:red;stroke-width:1px;stroke-linecap:butt;stroke-linejoin:miter;stroke-opacity:1" d="M 566.689,714.655 577.109,733.412 z" id="boundary" inkscape:connector-curvature="0" />
	<path style="fill:none;stroke:red;stroke-width:1px;stroke-linecap:butt;stroke-linejoin:miter;stroke-opacity:1" d="M 577.109,733.412 587.529,752.168 z" id="boundary" inkscape:connector-curvature="0" />
	<path style="fill:none;stroke:red;stroke-width:1px;stroke-linecap:butt;stroke-linejoin:miter;stroke-opacity:1" d="M 585.445,399.966 606.286,399.966 z" id="boundary" inkscape:connector-curvature="0" />
	<path style="fill:none;stroke:red;stroke-width:1px;stroke-linecap:butt;stroke-linejoin:miter;stroke-opacity:1" d="M 587.529,752.168 597.95,770.924 z" id="boundary" inkscape:connector-curvature="0" />
	<path style="fill:none;stroke:red;stroke-width:1px;stroke-linecap:butt;stroke-linejoin:miter;stroke-opacity:1" d="M 597.95,770.924 614.622,785.513 z" id="boundary" inkscape:connector-curvature="0" />
	<path style="fill:none;stroke:red;stroke-width:1px;stroke-linecap:butt;stroke-linejoin:miter;stroke-opacity:1" d="M 606.286,399.966 620.874,416.639 z" id="boundary" inkscape:connector-curvature="0" />
	<path style="fill:none;stroke:red;stroke-width:1px;stroke-linecap:butt;stroke-linejoin:miter;stroke-opacity:1" d="M 614.622,785.513 635.462,787.597 z" id="boundary" inkscape:connector-curvature="0" />
	<path style="fill:none;stroke:red;stroke-width:1px;stroke-linecap:butt;stroke-linejoin:miter;stroke-opacity:1" d="M 620.874,416.639 641.714,416.639 z" id="boundary" inkscape:connector-curvature="0" />
	<path style="fill:none;stroke:red;stroke-width:1px;stroke-linecap:butt;stroke-linejoin:miter;stroke-opacity:1" d="M 635.462,787.597 654.218,798.017 z" id="boundary" inkscape:connector-curvature="0" />
	<path style="fill:none;stroke:red;stroke-width:1px;stroke-linecap:butt;stroke-linejoin:miter;stroke-opacity:1" d="M 641.714,416.639 656.303,433.311 z" id="boundary" inkscape:connector-curvature="0" />
	<path style="fill:none;stroke:red;stroke-width:1px;stroke-linecap:butt;stroke-linejoin:miter;stroke-opacity:1" d="M 654.218,798.017 675.059,798.017 z" id="boundary" inkscape:connector-curvature="0" />
	<path style="fill:none;stroke:red;stroke-width:1px;stroke-linecap:butt;stroke-linejoin:miter;stroke-opacity:1" d="M 656.303,433.311 672.975,447.899 z" id="boundary" inkscape:connector-curvature="0" />
	<path style="fill:none;stroke:red;stroke-width:1px;stroke-linecap:butt;stroke-linejoin:miter;stroke-opacity:1" d="M 672.975,447.899 672.975,468.739 z" id="boundary" inkscape:connector-curvature="0" />
	<path style="fill:none;stroke:red;stroke-width:1px;stroke-linecap:butt;stroke-linejoin:miter;stroke-opacity:1" d="M 672.975,468.739 681.311,489.58 z" id="boundary" inkscape:connector-curvature="0" />
	<path style="fill:none;stroke:red;stroke-width:1px;stroke-linecap:butt;stroke-linejoin:miter;stroke-opacity:1" d="M 672.975,600.034 683.395,579.193 z" id="boundary" inkscape:connector-curvature="0" />
	<path style="fill:none;stroke:red;stroke-width:1px;stroke-linecap:butt;stroke-linejoin:miter;stroke-opacity:1" d="M 672.975,600.034 689.647,612.538 z" id="boundary" inkscape:connector-curvature="0" />
	<path style="fill:none;stroke:red;stroke-width:1px;stroke-linecap:butt;stroke-linejoin:miter;stroke-opacity:1" d="M 675.059,798.017 695.899,798.017 z" id="boundary" inkscape:connector-curvature="0" />
	<path style="fill:none;stroke:red;stroke-width:1px;stroke-linecap:butt;stroke-linejoin:miter;stroke-opacity:1" d="M 681.311,489.58 683.395,516.672 z" id="boundary" inkscape:connector-curvature="0" />
	<path style="fill:none;stroke:red;stroke-width:1px;stroke-linecap:butt;stroke-linejoin:miter;stroke-opacity:1" d="M 683.395,516.672 693.815,535.429 z" id="boundary" inkscape:connector-curvature="0" />
	<path style="fill:none;stroke:red;stroke-width:1px;stroke-linecap:butt;stroke-linejoin:miter;stroke-opacity:1" d="M 683.395,579.193 700.067,564.605 z" id="boundary" inkscape:connector-curvature="0" />
	<path style="fill:none;stroke:red;stroke-width:1px;stroke-linecap:butt;stroke-linejoin:miter;stroke-opacity:1" d="M 689.647,612.538 700.067,631.294 z" id="boundary" inkscape:connector-curvature="0" />
	<path style="fill:none;stroke:red;stroke-width:1px;stroke-linecap:butt;stroke-linejoin:miter;stroke-opacity:1" d="M 693.815,535.429 700.067,564.605 z" id="boundary" inkscape:connector-curvature="0" />
	<path style="fill:none;stroke:red;stroke-width:1px;stroke-linecap:butt;stroke-linejoin:miter;stroke-opacity:1" d="M 695.899,798.017 714.655,787.597 z" id="boundary" inkscape:connector-curvature="0" />
	<path style="fill:none;stroke:red;stroke-width:1px;stroke-linecap:butt;stroke-linejoin:miter;stroke-opacity:1" d="M 700.067,631.294 710.487,650.05 z" id="boundary" inkscape:connector-curvature="0" />
	<path style="fill:none;stroke:red;stroke-width:1px;stroke-linecap:butt;stroke-linejoin:miter;stroke-opacity:1" d="M 710.487,650.05 729.244,660.471 z" id="boundary" inkscape:connector-curvature="0" />
	<path style="fill:none;stroke:red;stroke-width:1px;stroke-linecap:butt;stroke-linejoin:miter;stroke-opacity:1" d="M 714.655,787.597 735.496,791.765 z" id="boundary" inkscape:connector-curvature="0" />
	<path style="fill:none;stroke:red;stroke-width:1px;stroke-linecap:butt;stroke-linejoin:miter;stroke-opacity:1" d="M 729.244,660.471 735.496,683.395 z" id="boundary" inkscape:connector-curvature="0" />
	<path style="fill:none;stroke:red;stroke-width:1px;stroke-linecap:butt;stroke-linejoin:miter;stroke-opacity:1" d="M 735.496,683.395 756.336,691.731 z" id="boundary" inkscape:connector-curvature="0" />
	<path style="fill:none;stroke:red;stroke-width:1px;stroke-linecap:butt;stroke-linejoin:miter;stroke-opacity:1" d="M 735.496,791.765 743.832,812.605 z" id="boundary" inkscape:connector-curvature="0" />
	<path style="fill:none;stroke:red;stroke-width:1px;stroke-linecap:butt;stroke-linejoin:miter;stroke-opacity:1" d="M 743.832,812.605 764.672,818.857 z" id="boundary" inkscape:connector-curvature="0" />
	<path style="fill:none;stroke:red;stroke-width:1px;stroke-linecap:butt;stroke-linejoin:miter;stroke-opacity:1" d="M 756.336,691.731 766.756,710.487 z" id="boundary" inkscape:connector-curvature="0" />
	<path style="fill:none;stroke:red;stroke-width:1px;stroke-linecap:butt;stroke-linejoin:miter;stroke-opacity:1" d="M 764.672,818.857 770.924,839.697 z" id="boundary" inkscape:connector-curvature="0" />
	<path style="fill:none;stroke:red;stroke-width:1px;stroke-linecap:butt;stroke-linejoin:miter;stroke-opacity:1" d="M 766.756,710.487 783.429,725.076 z" id="boundary" inkscape:connector-curvature="0" />
	<path style="fill:none;stroke:red;stroke-width:1px;stroke-linecap:butt;stroke-linejoin:miter;stroke-opacity:1" d="M 770.924,839.697 781.345,858.454 z" id="boundary" inkscape:connector-curvature="0" />
	<path style="fill:none;stroke:red;stroke-width:1px;stroke-linecap:butt;stroke-linejoin:miter;stroke-opacity:1" d="M 781.345,858.454 795.933,885.546 z" id="boundary" inkscape:connector-curvature="0" />
	<path style="fill:none;stroke:red;stroke-width:1px;stroke-linecap:butt;stroke-linejoin:miter;stroke-opacity:1" d="M 783.429,725.076 793.849,743.832 z" id="boundary" inkscape:connector-curvature="0" />
	<path style="fill:none;stroke:red;stroke-width:1px;stroke-linecap:butt;stroke-linejoin:miter;stroke-opacity:1" d="M 793.849,743.832 812.605,754.252 z" id="boundary" inkscape:connector-curvature="0" />
	<path style="fill:none;stroke:red;stroke-width:1px;stroke-linecap:butt;stroke-linejoin:miter;stroke-opacity:1" d="M 795.933,885.546 816.773,891.798 z" id="boundary" inkscape:connector-curvature="0" />
	<path style="fill:none;stroke:red;stroke-width:1px;stroke-linecap:butt;stroke-linejoin:miter;stroke-opacity:1" d="M 812.605,754.252 831.361,764.672 z" id="boundary" inkscape:connector-curvature="0" />
	<path style="fill:none;stroke:red;stroke-width:1px;stroke-linecap:butt;stroke-linejoin:miter;stroke-opacity:1" d="M 816.773,891.798 816.773,916.807 z" id="boundary" inkscape:connector-curvature="0" />
	<path style="fill:none;stroke:red;stroke-width:1px;stroke-linecap:butt;stroke-linejoin:miter;stroke-opacity:1" d="M 816.773,916.807 837.613,923.059 z" id="boundary" inkscape:connector-curvature="0" />
	<path style="fill:none;stroke:red;stroke-width:1px;stroke-linecap:butt;stroke-linejoin:miter;stroke-opacity:1" d="M 831.361,764.672 850.118,775.092 z" id="boundary" inkscape:connector-curvature="0" />
	<path style="fill:none;stroke:red;stroke-width:1px;stroke-linecap:butt;stroke-linejoin:miter;stroke-opacity:1" d="M 837.613,923.059 843.866,943.899 z" id="boundary" inkscape:connector-curvature="0" />
	<path style="fill:none;stroke:red;stroke-width:1px;stroke-linecap:butt;stroke-linejoin:miter;stroke-opacity:1" d="M 843.866,943.899 854.286,962.655 z" id="boundary" inkscape:connector-curvature="0" />
	<path style="fill:none;stroke:red;stroke-width:1px;stroke-linecap:butt;stroke-linejoin:miter;stroke-opacity:1" d="M 850.118,775.092 868.874,785.513 z" id="boundary" inkscape:connector-curvature="0" />
	<path style="fill:none;stroke:red;stroke-width:1px;stroke-linecap:butt;stroke-linejoin:miter;stroke-opacity:1" d="M 854.286,962.655 868.874,979.328 z" id="boundary" inkscape:connector-curvature="0" />
	<path style="fill:none;stroke:red;stroke-width:1px;stroke-linecap:butt;stroke-linejoin:miter;stroke-opacity:1" d="M 868.874,785.513 889.714,789.681 z" id="boundary" inkscape:connector-curvature="0" />
	<path style="fill:none;stroke:red;stroke-width:1px;stroke-linecap:butt;stroke-linejoin:miter;stroke-opacity:1" d="M 868.874,979.328 881.378,996 z" id="boundary" inkscape:connector-curvature="0" />
	<path style="fill:none;stroke:red;stroke-width:1px;stroke-linecap:butt;stroke-linejoin:miter;stroke-opacity:1" d="M 881.378,996 902.218,975.16 z" id="boundary" inkscape:connector-curvature="0" />
	<path style="fill:none;stroke:red;stroke-width:1px;stroke-linecap:butt;stroke-linejoin:miter;stroke-opacity:1" d="M 889.714,789.681 908.471,800.101 z" id="boundary" inkscape:connector-curvature="0" />
	<path style="fill:none;stroke:red;stroke-width:1px;stroke-linecap:butt;stroke-linejoin:miter;stroke-opacity:1" d="M 902.218,870.958 902.218,891.798 z" id="boundary" inkscape:connector-curvature="0" />
	<path style="fill:none;stroke:red;stroke-width:1px;stroke-linecap:butt;stroke-linejoin:miter;stroke-opacity:1" d="M 902.218,870.958 923.059,870.958 z" id="boundary" inkscape:connector-curvature="0" />
	<path style="fill:none;stroke:red;stroke-width:1px;stroke-linecap:butt;stroke-linejoin:miter;stroke-opacity:1" d="M 902.218,891.798 902.218,912.639 z" id="boundary" inkscape:connector-curvature="0" />
	<path style="fill:none;stroke:red;stroke-width:1px;stroke-linecap:butt;stroke-linejoin:miter;stroke-opacity:1" d="M 902.218,912.639 902.218,933.479 z" id="boundary" inkscape:connector-curvature="0" />
	<path style="fill:none;stroke:red;stroke-width:1px;stroke-linecap:butt;stroke-linejoin:miter;stroke-opacity:1" d="M 902.218,933.479 912.639,952.235 z" id="boundary" inkscape:connector-curvature="0" />
	<path style="fill:none;stroke:red;stroke-width:1px;stroke-linecap:butt;stroke-linejoin:miter;stroke-opacity:1" d="M 902.218,975.16 912.639,952.235 z" id="boundary" inkscape:connector-curvature="0" />
	<path style="fill:none;stroke:red;stroke-width:1px;stroke-linecap:butt;stroke-linejoin:miter;stroke-opacity:1" d="M 908.471,800.101 929.311,808.437 z" id="boundary" inkscape:connector-curvature="0" />
	<path style="fill:none;stroke:red;stroke-width:1px;stroke-linecap:butt;stroke-linejoin:miter;stroke-opacity:1" d="M 923.059,870.958 941.815,881.378 z" id="boundary" inkscape:connector-curvature="0" />
	<path style="fill:none;stroke:red;stroke-width:1px;stroke-linecap:butt;stroke-linejoin:miter;stroke-opacity:1" d="M 929.311,808.437 950.151,808.437 z" id="boundary" inkscape:connector-curvature="0" />
	<path style="fill:none;stroke:red;stroke-width:1px;stroke-linecap:butt;stroke-linejoin:miter;stroke-opacity:1" d="M 941.815,881.378 962.655,881.378 z" id="boundary" inkscape:connector-curvature="0" />
	<path style="fill:none;stroke:red;stroke-width:1px;stroke-linecap:butt;stroke-linejoin:miter;stroke-opacity:1" d="M 950.151,808.437 970.992,816.773 z" id="boundary" inkscape:connector-curvature="0" />
	<path style="fill:none;stroke:red;stroke-width:1px;stroke-linecap:butt;stroke-linejoin:miter;stroke-opacity:1" d="M 962.655,881.378 983.496,875.126 z" id="boundary" inkscape:connector-curvature="0" />
	<path style="fill:none;stroke:red;stroke-width:1px;stroke-linecap:butt;stroke-linejoin:miter;stroke-opacity:1" d="M 970.992,816.773 989.748,827.193 z" id="boundary" inkscape:connector-curvature="0" />
	<path style="fill:none;stroke:red;stroke-width:1px;stroke-linecap:butt;stroke-linejoin:miter;stroke-opacity:1" d="M 983.496,875.126 996,850.118 z" id="boundary" inkscape:connector-curvature="0" />
	<path style="fill:none;stroke:red;stroke-width:1px;stroke-linecap:butt;stroke-linejoin:miter;stroke-opacity:1" d="M 989.748,827.193 996,850.118 z" id="boundary" inkscape:connector-curvature="0" />
	<circle cx="4" cy="447.899" r="4" fill="#0" id="circle0"/>
	<circle cx="14.4202" cy="427.059" r="4" fill="#0" id="circle1"/>
	<circle cx="24.8403" cy="406.218" r="4" fill="#0" id="circle2"/>
	<circle cx="24.8403" cy="454.151" r="4" fill="#0" id="circle3"/>
	<circle cx="41.5126" cy="389.546" r="4" fill="#0" id="circle4"/>
	<circle cx="43.5966" cy="464.571" r="4" fill="#0" id="circle5"/>
	<circle cx="45.6807" cy="166.555" r="4" fill="#0" id="circle6"/>
	<circle cx="51.9328" cy="368.706" r="4" fill="#0" id="circle7"/>
	<circle cx="56.1008" cy="124.874" r="4" fill="#0" id="circle8"/>
	<circle cx="56.1008" cy="145.714" r="4" fill="#0" id="circle9"/>
	<circle cx="56.1008" cy="185.311" r="4" fill="#0" id="circle10"/>
	<circle cx="56.1008" cy="206.151" r="4" fill="#0" id="circle11"/>
	<circle cx="56.1008" cy="229.076" r="4" fill="#0" id="circle12"/>
	<circle cx="62.3529" cy="347.866" r="4" fill="#0" id="circle13"/>
	<circle cx="62.3529" cy="474.992" r="4" fill="#0" id="circle14"/>
	<circle cx="66.521" cy="249.916" r="4" fill="#0" id="circle15"/>
	<circle cx="72.7731" cy="327.025" r="4" fill="#0" id="circle16"/>
	<circle cx="76.9412" cy="118.622" r="4" fill="#0" id="circle17"/>
	<circle cx="79.0252" cy="489.58" r="4" fill="#0" id="circle18"/>
	<circle cx="83.1933" cy="264.504" r="4" fill="#0" id="circle19"/>
	<circle cx="87.3613" cy="302.017" r="4" fill="#0" id="circle20"/>
	<circle cx="97.7815" cy="118.622" r="4" fill="#0" id="circle21"/>
	<circle cx="97.7815" cy="281.176" r="4" fill="#0" id="circle22"/>
	<circle cx="97.7815" cy="500" r="4" fill="#0" id="circle23"/>
	<circle cx="118.622" cy="118.622" r="4" fill="#0" id="circle24"/>
	<circle cx="118.622" cy="506.252" r="4" fill="#0" id="circle25"/>
	<circle cx="135.294" cy="493.748" r="4" fill="#0" id="circle26"/>
	<circle cx="139.462" cy="122.79" r="4" fill="#0" id="circle27"/>
	<circle cx="145.714" cy="472.908" r="4" fill="#0" id="circle28"/>
	<circle cx="151.966" cy="139.462" r="4" fill="#0" id="circle29"/>
	<circle cx="162.387" cy="443.731" r="4" fill="#0" id="circle30"/>
	<circle cx="172.807" cy="145.714" r="4" fill="#0" id="circle31"/>
	<circle cx="172.807" cy="422.891" r="4" fill="#0" id="circle32"/>
	<circle cx="187.395" cy="129.042" r="4" fill="#0" id="circle33"/>
	<circle cx="193.647" cy="422.891" r="4" fill="#0" id="circle34"/>
	<circle cx="201.983" cy="104.034" r="4" fill="#0" id="circle35"/>
	<circle cx="206.151" cy="439.563" r="4" fill="#0" id="circle36"/>
	<circle cx="212.403" cy="83.1933" r="4" fill="#0" id="circle37"/>
	<circle cx="222.824" cy="62.3529" r="4" fill="#0" id="circle38"/>
	<circle cx="222.824" cy="454.151" r="4" fill="#0" id="circle39"/>
	<circle cx="235.328" cy="470.824" r="4" fill="#0" id="circle40"/>
	<circle cx="239.496" cy="45.6807" r="4" fill="#0" id="circle41"/>
	<circle cx="245.748" cy="489.58" r="4" fill="#0" id="circle42"/>
	<circle cx="249.916" cy="24.8403" r="4" fill="#0" id="circle43"/>
	<circle cx="260.336" cy="4" r="4" fill="#0" id="circle44"/>
	<circle cx="264.504" cy="500" r="4" fill="#0" id="circle45"/>
	<circle cx="277.008" cy="516.672" r="4" fill="#0" id="circle46"/>
	<circle cx="281.176" cy="4" r="4" fill="#0" id="circle47"/>
	<circle cx="295.765" cy="527.092" r="4" fill="#0" id="circle48"/>
	<circle cx="295.765" cy="562.521" r="4" fill="#0" id="circle49"/>
	<circle cx="297.849" cy="204.067" r="4" fill="#0" id="circle50"/>
	<circle cx="299.933" cy="14.4202" r="4" fill="#0" id="circle51"/>
	<circle cx="312.437" cy="577.109" r="4" fill="#0" id="circle52"/>
	<circle cx="314.521" cy="189.479" r="4" fill="#0" id="circle53"/>
	<circle cx="314.521" cy="216.571" r="4" fill="#0" id="circle54"/>
	<circle cx="318.689" cy="24.8403" r="4" fill="#0" id="circle55"/>
	<circle cx="324.941" cy="168.639" r="4" fill="#0" id="circle56"/>
	<circle cx="327.025" cy="233.244" r="4" fill="#0" id="circle57"/>
	<circle cx="327.025" cy="593.782" r="4" fill="#0" id="circle58"/>
	<circle cx="327.025" cy="614.622" r="4" fill="#0" id="circle59"/>
	<circle cx="335.361" cy="147.798" r="4" fill="#0" id="circle60"/>
	<circle cx="337.445" cy="35.2605" r="4" fill="#0" id="circle61"/>
	<circle cx="343.697" cy="245.748" r="4" fill="#0" id="circle62"/>
	<circle cx="345.782" cy="126.958" r="4" fill="#0" id="circle63"/>
	<circle cx="347.866" cy="620.874" r="4" fill="#0" id="circle64"/>
	<circle cx="354.118" cy="264.504" r="4" fill="#0" id="circle65"/>
	<circle cx="356.202" cy="45.6807" r="4" fill="#0" id="circle66"/>
	<circle cx="360.37" cy="99.8655" r="4" fill="#0" id="circle67"/>
	<circle cx="360.37" cy="637.546" r="4" fill="#0" id="circle68"/>
	<circle cx="370.79" cy="79.0252" r="4" fill="#0" id="circle69"/>
	<circle cx="372.874" cy="274.924" r="4" fill="#0" id="circle70"/>
	<circle cx="374.958" cy="56.1008" r="4" fill="#0" id="circle71"/>
	<circle cx="379.126" cy="625.042" r="4" fill="#0" id="circle72"/>
	<circle cx="391.63" cy="285.345" r="4" fill="#0" id="circle73"/>
	<circle cx="395.798" cy="610.454" r="4" fill="#0" id="circle74"/>
	<circle cx="408.303" cy="297.849" r="4" fill="#0" id="circle75"/>
	<circle cx="414.555" cy="600.034" r="4" fill="#0" id="circle76"/>
	<circle cx="424.975" cy="618.79" r="4" fill="#0" id="circle77"/>
	<circle cx="427.059" cy="308.269" r="4" fill="#0" id="circle78"/>
	<circle cx="443.731" cy="322.857" r="4" fill="#0" id="circle79"/>
	<circle cx="445.815" cy="627.126" r="4" fill="#0" id="circle80"/>
	<circle cx="460.403" cy="337.445" r="4" fill="#0" id="circle81"/>
	<circle cx="464.571" cy="637.546" r="4" fill="#0" id="circle82"/>
	<circle cx="479.16" cy="347.866" r="4" fill="#0" id="circle83"/>
	<circle cx="481.244" cy="652.134" r="4" fill="#0" id="circle84"/>
	<circle cx="493.748" cy="364.538" r="4" fill="#0" id="circle85"/>
	<circle cx="500" cy="662.555" r="4" fill="#0" id="circle86"/>
	<circle cx="506.252" cy="381.21" r="4" fill="#0" id="circle87"/>
	<circle cx="518.756" cy="672.975" r="4" fill="#0" id="circle88"/>
	<circle cx="522.924" cy="393.714" r="4" fill="#0" id="circle89"/>
	<circle cx="535.429" cy="685.479" r="4" fill="#0" id="circle90"/>
	<circle cx="543.765" cy="399.966" r="4" fill="#0" id="circle91"/>
	<circle cx="550.017" cy="702.151" r="4" fill="#0" id="circle92"/>
	<circle cx="564.605" cy="399.966" r="4" fill="#0" id="circle93"/>
	<circle cx="566.689" cy="714.655" r="4" fill="#0" id="circle94"/>
	<circle cx="577.109" cy="733.412" r="4" fill="#0" id="circle95"/>
	<circle cx="585.445" cy="399.966" r="4" fill="#0" id="circle96"/>
	<circle cx="587.529" cy="752.168" r="4" fill="#0" id="circle97"/>
	<circle cx="597.95" cy="770.924" r="4" fill="#0" id="circle98"/>
	<circle cx="606.286" cy="399.966" r="4" fill="#0" id="circle99"/>
	<circle cx="614.622" cy="785.513" r="4" fill="#0" id="circle100"/>
	<circle cx="620.874" cy="416.639" r="4" fill="#0" id="circle101"/>
	<circle cx="635.462" cy="787.597" r="4" fill="#0" id="circle102"/>
	<circle cx="641.714" cy="416.639" r="4" fill="#0" id="circle103"/>
	<circle cx="654.218" cy="798.017" r="4" fill="#0" id="circle104"/>
	<circle cx="656.303" cy="433.311" r="4" fill="#0" id="circle105"/>
	<circle cx="672.975" cy="447.899" r="4" fill="#0" id="circle106"/>
	<circle cx="672.975" cy="468.739" r="4" fill="#0" id="circle107"/>
	<circle cx="672.975" cy="600.034" r="4" fill="#0" id="circle108"/>
	<circle cx="675.059" cy="798.017" r="4" fill="#0" id="circle109"/>
	<circle cx="681.311" cy="489.58" r="4" fill="#0" id="circle110"/>
	<circle cx="683.395" cy="516.672" r="4" fill="#0" id="circle111"/>
	<circle cx="683.395" cy="579.193" r="4" fill="#0" id="circle112"/>
	<circle cx="689.647" cy="612.538" r="4" fill="#0" id="circle113"/>
	<circle cx="693.815" cy="535.429" r="4" fill="#0" id="circle114"/>
	<circle cx="695.899" cy="798.017" r="4" fill="#0" id="circle115"/>
	<circle cx="700.067" cy="564.605" r="4" fill="#0" id="circle116"/>
	<circle cx="700.067" cy="631.294" r="4" fill="#0" id="circle117"/>
	<circle cx="710.487" cy="650.05" r="4" fill="#0" id="circle118"/>
	<circle cx="714.655" cy="787.597" r="4" fill="#0" id="circle119"/>
	<circle cx="729.244" cy="660.471" r="4" fill="#0" id="circle120"/>
	<circle cx="735.496" cy="683.395" r="4" fill="#0" id="circle121"/>
	<circle cx="735.496" cy="791.765" r="4" fill="#0" id="circle122"/>
	<circle cx="743.832" cy="812.605" r="4" fill="#0" id="circle123"/>
	<circle cx="756.336" cy="691.731" r="4" fill="#0" id="circle124"/>
	<circle cx="764.672" cy="818.857" r="4" fill="#0" id="circle125"/>
	<circle cx="766.756" cy="710.487" r="4" fill="#0" id="circle126"/>
	<circle cx="770.924" cy="839.697" r="4" fill="#0" id="circle127"/>
	<circle cx="781.345" cy="858.454" r="4" fill="#0" id="circle128"/>
	<circle cx="783.429" cy="725.076" r="4" fill="#0" id="circle129"/>
	<circle cx="793.849" cy="743.832" r="4" fill="#0" id="circle130"/>
	<circle cx="795.933" cy="885.546" r="4" fill="#0" id="circle131"/>
	<circle cx="812.605" cy="754.252" r="4" fill="#0" id="circle132"/>
	<circle cx="816.773" cy="891.798" r="4" fill="#0" id="circle133"/>
	<circle cx="816.773" cy="916.807" r="4" fill="#0" id="circle134"/>
	<circle cx="831.361" cy="764.672" r="4" fill="#0" id="circle135"/>
	<circle cx="837.613" cy="923.059" r="4" fill="#0" id="circle136"/>
	<circle cx="843.866" cy="943.899" r="4" fill="#0" id="circle137"/>
	<circle cx="850.118" cy="775.092" r="4" fill="#0" id="circle138"/>
	<circle cx="854.286" cy="962.655" r="4" fill="#0" id="circle139"/>
	<circle cx="868.874" cy="785.513" r="4" fill="#0" id="circle140"/>
	<circle cx="868.874" cy="979.328" r="4" fill="#0" id="circle141"/>
	<circle cx="881.378" cy="996" r="4" fill="#0" id="circle142"/>
	<circle cx="889.714" cy="789.681" r="4" fill="#0" id="circle143"/>
	<circle cx="902.218" cy="870.958" r="4" fill="#0" id="circle144"/>
	<circle cx="902.218" cy="891.798" r="4" fill="#0" id="circle145"/>
	<circle cx="902.218" cy="912.639" r="4" fill="#0" id="circle146"/>
	<circle cx="902.218" cy="933.479" r="4" fill="#0" id="circle147"/>
	<circle cx="902.218" cy="975.16" r="4" fill="#0" id="circle148"/>
	<circle cx="908.471" cy="800.101" r="4" fill="#0" id="circle149"/>
	<circle cx="912.639" cy="952.235" r="4" fill="#0" id="circle150"/>
	<circle cx="923.059" cy="870.958" r="4" fill="#0" id="circle151"/>
	<circle cx="929.311" cy="808.437" r="4" fill="#0" id="circle152"/>
	<circle cx="941.815" cy="881.378" r="4" fill="#0" id="circle153"/>
	<circle cx="950.151" cy="808.437" r="4" fill="#0" id="circle154"/>
	<circle cx="962.655" cy="881.378" r="4" fill="#0" id="circle155"/>
	<circle cx="970.992" cy="816.773" r="4" fill="#0" id="circle156"/>
	<circle cx="983.496" cy="875.126" r="4" fill="#0" id="circle157"/>
	<circle cx="989.748" cy="827.193" r="4" fill="#0" id="circle158"/>
	<circle cx="996" cy="850.118" r="4" fill="#0" id="circle159"/>
	</g>
</svg>