<?xml version="1.0" encoding="UTF-8" standalone="no"?>
<!-- Created with CurveBenchmark -->
<svg
	xmlns:dc="http://purl.org/dc/elements/1.1/"
	xmlns:cc="http://creativecommons.org/ns#"
	xmlns:rdf="http://www.w3.org/1999/02/22-rdf-syntax-ns#"
	xmlns:svg="http://www.w3.org/2000/svg"
	xmlns="http://www.w3.org/2000/svg"
	xmlns:sodipodi="http://sodipodi.sourceforge.net/DTD/sodipodi-0.dtd"
	xmlns:inkscape="http://www.inkscape.org/namespaces/inkscape"
	width="1000"
	height="1000"
	id="svg2"
	version="1.1"
	sodipodi:docname="manifold/hnncrust-fish205.png.txt">
<defs
	id="defs4" />
<metadata
	id="metadata7">
	<rdf:RDF>
		<cc:Work
			rdf:about="">
			<dc:format>image/svg+xml</dc:format>
			<dc:type
				rdf:resource="http://purl.org/dc/dcmitype/StillImage" />
			<dc:title></dc:title>
		</cc:Work>
	</rdf:RDF>
</metadata>
<g
	inkscape:label="Layer 1"
	inkscape:groupmode="layer"
	id="layer1">
	<path style="fill:none;stroke:red;stroke-width:1px;stroke-linecap:butt;stroke-linejoin:miter;stroke-opacity:1" d="M 4,145.276 13.2136,175.988 z" id="boundary" inkscape:connector-curvature="0" />
	<path style="fill:none;stroke:red;stroke-width:1px;stroke-linecap:butt;stroke-linejoin:miter;stroke-opacity:1" d="M 4,145.276 34.7121,132.991 z" id="boundary" inkscape:connector-curvature="0" />
	<path style="fill:none;stroke:red;stroke-width:1px;stroke-linecap:butt;stroke-linejoin:miter;stroke-opacity:1" d="M 10.1424,335.69 10.1424,366.402 z" id="boundary" inkscape:connector-curvature="0" />
	<path style="fill:none;stroke:red;stroke-width:1px;stroke-linecap:butt;stroke-linejoin:miter;stroke-opacity:1" d="M 10.1424,335.69 22.4272,292.693 z" id="boundary" inkscape:connector-curvature="0" />
	<path style="fill:none;stroke:red;stroke-width:1px;stroke-linecap:butt;stroke-linejoin:miter;stroke-opacity:1" d="M 10.1424,366.402 40.8545,369.474 z" id="boundary" inkscape:connector-curvature="0" />
	<path style="fill:none;stroke:red;stroke-width:1px;stroke-linecap:butt;stroke-linejoin:miter;stroke-opacity:1" d="M 13.2136,175.988 22.4272,206.7 z" id="boundary" inkscape:connector-curvature="0" />
	<path style="fill:none;stroke:red;stroke-width:1px;stroke-linecap:butt;stroke-linejoin:miter;stroke-opacity:1" d="M 22.4272,206.7 28.5697,237.412 z" id="boundary" inkscape:connector-curvature="0" />
	<path style="fill:none;stroke:red;stroke-width:1px;stroke-linecap:butt;stroke-linejoin:miter;stroke-opacity:1" d="M 22.4272,292.693 28.5697,237.412 z" id="boundary" inkscape:connector-curvature="0" />
	<path style="fill:none;stroke:red;stroke-width:1px;stroke-linecap:butt;stroke-linejoin:miter;stroke-opacity:1" d="M 34.7121,132.991 65.4241,139.133 z" id="boundary" inkscape:connector-curvature="0" />
	<path style="fill:none;stroke:red;stroke-width:1px;stroke-linecap:butt;stroke-linejoin:miter;stroke-opacity:1" d="M 40.8545,369.474 71.5666,363.331 z" id="boundary" inkscape:connector-curvature="0" />
	<path style="fill:none;stroke:red;stroke-width:1px;stroke-linecap:butt;stroke-linejoin:miter;stroke-opacity:1" d="M 65.4241,139.133 96.1362,151.418 z" id="boundary" inkscape:connector-curvature="0" />
	<path style="fill:none;stroke:red;stroke-width:1px;stroke-linecap:butt;stroke-linejoin:miter;stroke-opacity:1" d="M 71.5666,363.331 102.279,351.046 z" id="boundary" inkscape:connector-curvature="0" />
	<path style="fill:none;stroke:red;stroke-width:1px;stroke-linecap:butt;stroke-linejoin:miter;stroke-opacity:1" d="M 96.1362,151.418 123.777,166.774 z" id="boundary" inkscape:connector-curvature="0" />
	<path style="fill:none;stroke:red;stroke-width:1px;stroke-linecap:butt;stroke-linejoin:miter;stroke-opacity:1" d="M 102.279,351.046 132.991,338.762 z" id="boundary" inkscape:connector-curvature="0" />
	<path style="fill:none;stroke:red;stroke-width:1px;stroke-linecap:butt;stroke-linejoin:miter;stroke-opacity:1" d="M 123.777,166.774 151.418,182.13 z" id="boundary" inkscape:connector-curvature="0" />
	<path style="fill:none;stroke:red;stroke-width:1px;stroke-linecap:butt;stroke-linejoin:miter;stroke-opacity:1" d="M 132.991,338.762 157.56,320.334 z" id="boundary" inkscape:connector-curvature="0" />
	<path style="fill:none;stroke:red;stroke-width:1px;stroke-linecap:butt;stroke-linejoin:miter;stroke-opacity:1" d="M 151.418,182.13 182.13,194.415 z" id="boundary" inkscape:connector-curvature="0" />
	<path style="fill:none;stroke:red;stroke-width:1px;stroke-linecap:butt;stroke-linejoin:miter;stroke-opacity:1" d="M 157.56,320.334 185.201,304.978 z" id="boundary" inkscape:connector-curvature="0" />
	<path style="fill:none;stroke:red;stroke-width:1px;stroke-linecap:butt;stroke-linejoin:miter;stroke-opacity:1" d="M 182.13,194.415 212.842,200.557 z" id="boundary" inkscape:connector-curvature="0" />
	<path style="fill:none;stroke:red;stroke-width:1px;stroke-linecap:butt;stroke-linejoin:miter;stroke-opacity:1" d="M 185.201,304.978 215.913,301.907 z" id="boundary" inkscape:connector-curvature="0" />
	<path style="fill:none;stroke:red;stroke-width:1px;stroke-linecap:butt;stroke-linejoin:miter;stroke-opacity:1" d="M 212.842,200.557 228.198,172.916 z" id="boundary" inkscape:connector-curvature="0" />
	<path style="fill:none;stroke:red;stroke-width:1px;stroke-linecap:butt;stroke-linejoin:miter;stroke-opacity:1" d="M 215.913,301.907 225.127,332.619 z" id="boundary" inkscape:connector-curvature="0" />
	<path style="fill:none;stroke:red;stroke-width:1px;stroke-linecap:butt;stroke-linejoin:miter;stroke-opacity:1" d="M 225.127,332.619 237.412,363.331 z" id="boundary" inkscape:connector-curvature="0" />
	<path style="fill:none;stroke:red;stroke-width:1px;stroke-linecap:butt;stroke-linejoin:miter;stroke-opacity:1" d="M 228.198,172.916 246.625,148.347 z" id="boundary" inkscape:connector-curvature="0" />
	<path style="fill:none;stroke:red;stroke-width:1px;stroke-linecap:butt;stroke-linejoin:miter;stroke-opacity:1" d="M 237.412,363.331 249.697,394.043 z" id="boundary" inkscape:connector-curvature="0" />
	<path style="fill:none;stroke:red;stroke-width:1px;stroke-linecap:butt;stroke-linejoin:miter;stroke-opacity:1" d="M 246.625,148.347 271.195,123.777 z" id="boundary" inkscape:connector-curvature="0" />
	<path style="fill:none;stroke:red;stroke-width:1px;stroke-linecap:butt;stroke-linejoin:miter;stroke-opacity:1" d="M 249.697,394.043 280.409,400.186 z" id="boundary" inkscape:connector-curvature="0" />
	<path style="fill:none;stroke:red;stroke-width:1px;stroke-linecap:butt;stroke-linejoin:miter;stroke-opacity:1" d="M 271.195,123.777 295.765,105.35 z" id="boundary" inkscape:connector-curvature="0" />
	<path style="fill:none;stroke:red;stroke-width:1px;stroke-linecap:butt;stroke-linejoin:miter;stroke-opacity:1" d="M 280.409,400.186 311.121,400.186 z" id="boundary" inkscape:connector-curvature="0" />
	<path style="fill:none;stroke:red;stroke-width:1px;stroke-linecap:butt;stroke-linejoin:miter;stroke-opacity:1" d="M 295.765,105.35 323.406,89.9938 z" id="boundary" inkscape:connector-curvature="0" />
	<path style="fill:none;stroke:red;stroke-width:1px;stroke-linecap:butt;stroke-linejoin:miter;stroke-opacity:1" d="M 311.121,400.186 341.833,394.043 z" id="boundary" inkscape:connector-curvature="0" />
	<path style="fill:none;stroke:red;stroke-width:1px;stroke-linecap:butt;stroke-linejoin:miter;stroke-opacity:1" d="M 323.406,89.9938 354.118,83.8514 z" id="boundary" inkscape:connector-curvature="0" />
	<path style="fill:none;stroke:red;stroke-width:1px;stroke-linecap:butt;stroke-linejoin:miter;stroke-opacity:1" d="M 341.833,394.043 369.474,378.687 z" id="boundary" inkscape:connector-curvature="0" />
	<path style="fill:none;stroke:red;stroke-width:1px;stroke-linecap:butt;stroke-linejoin:miter;stroke-opacity:1" d="M 354.118,83.8514 384.83,96.1362 z" id="boundary" inkscape:connector-curvature="0" />
	<path style="fill:none;stroke:red;stroke-width:1px;stroke-linecap:butt;stroke-linejoin:miter;stroke-opacity:1" d="M 369.474,378.687 400.186,375.616 z" id="boundary" inkscape:connector-curvature="0" />
	<path style="fill:none;stroke:red;stroke-width:1px;stroke-linecap:butt;stroke-linejoin:miter;stroke-opacity:1" d="M 384.83,96.1362 412.471,111.492 z" id="boundary" inkscape:connector-curvature="0" />
	<path style="fill:none;stroke:red;stroke-width:1px;stroke-linecap:butt;stroke-linejoin:miter;stroke-opacity:1" d="M 400.186,375.616 430.898,381.759 z" id="boundary" inkscape:connector-curvature="0" />
	<path style="fill:none;stroke:red;stroke-width:1px;stroke-linecap:butt;stroke-linejoin:miter;stroke-opacity:1" d="M 412.471,111.492 443.183,99.2074 z" id="boundary" inkscape:connector-curvature="0" />
	<path style="fill:none;stroke:red;stroke-width:1px;stroke-linecap:butt;stroke-linejoin:miter;stroke-opacity:1" d="M 430.898,381.759 461.61,381.759 z" id="boundary" inkscape:connector-curvature="0" />
	<path style="fill:none;stroke:red;stroke-width:1px;stroke-linecap:butt;stroke-linejoin:miter;stroke-opacity:1" d="M 443.183,99.2074 467.752,77.709 z" id="boundary" inkscape:connector-curvature="0" />
	<path style="fill:none;stroke:red;stroke-width:1px;stroke-linecap:butt;stroke-linejoin:miter;stroke-opacity:1" d="M 461.61,381.759 492.322,387.901 z" id="boundary" inkscape:connector-curvature="0" />
	<path style="fill:none;stroke:red;stroke-width:1px;stroke-linecap:butt;stroke-linejoin:miter;stroke-opacity:1" d="M 467.752,77.709 498.464,62.3529 z" id="boundary" inkscape:connector-curvature="0" />
	<path style="fill:none;stroke:red;stroke-width:1px;stroke-linecap:butt;stroke-linejoin:miter;stroke-opacity:1" d="M 492.322,387.901 523.034,387.901 z" id="boundary" inkscape:connector-curvature="0" />
	<path style="fill:none;stroke:red;stroke-width:1px;stroke-linecap:butt;stroke-linejoin:miter;stroke-opacity:1" d="M 498.464,62.3529 526.105,46.9969 z" id="boundary" inkscape:connector-curvature="0" />
	<path style="fill:none;stroke:red;stroke-width:1px;stroke-linecap:butt;stroke-linejoin:miter;stroke-opacity:1" d="M 523.034,387.901 553.746,387.901 z" id="boundary" inkscape:connector-curvature="0" />
	<path style="fill:none;stroke:red;stroke-width:1px;stroke-linecap:butt;stroke-linejoin:miter;stroke-opacity:1" d="M 526.105,46.9969 553.746,31.6409 z" id="boundary" inkscape:connector-curvature="0" />
	<path style="fill:none;stroke:red;stroke-width:1px;stroke-linecap:butt;stroke-linejoin:miter;stroke-opacity:1" d="M 538.39,427.827 538.39,458.539 z" id="boundary" inkscape:connector-curvature="0" />
	<path style="fill:none;stroke:red;stroke-width:1px;stroke-linecap:butt;stroke-linejoin:miter;stroke-opacity:1" d="M 538.39,458.539 547.604,489.251 z" id="boundary" inkscape:connector-curvature="0" />
	<path style="fill:none;stroke:red;stroke-width:1px;stroke-linecap:butt;stroke-linejoin:miter;stroke-opacity:1" d="M 547.604,489.251 575.245,504.607 z" id="boundary" inkscape:connector-curvature="0" />
	<path style="fill:none;stroke:red;stroke-width:1px;stroke-linecap:butt;stroke-linejoin:miter;stroke-opacity:1" d="M 553.746,31.6409 584.458,22.4272 z" id="boundary" inkscape:connector-curvature="0" />
	<path style="fill:none;stroke:red;stroke-width:1px;stroke-linecap:butt;stroke-linejoin:miter;stroke-opacity:1" d="M 575.245,504.607 602.885,489.251 z" id="boundary" inkscape:connector-curvature="0" />
	<path style="fill:none;stroke:red;stroke-width:1px;stroke-linecap:butt;stroke-linejoin:miter;stroke-opacity:1" d="M 584.458,22.4272 615.17,10.1424 z" id="boundary" inkscape:connector-curvature="0" />
	<path style="fill:none;stroke:red;stroke-width:1px;stroke-linecap:butt;stroke-linejoin:miter;stroke-opacity:1" d="M 602.885,489.251 633.598,498.464 z" id="boundary" inkscape:connector-curvature="0" />
	<path style="fill:none;stroke:red;stroke-width:1px;stroke-linecap:butt;stroke-linejoin:miter;stroke-opacity:1" d="M 615.17,10.1424 645.882,4 z" id="boundary" inkscape:connector-curvature="0" />
	<path style="fill:none;stroke:red;stroke-width:1px;stroke-linecap:butt;stroke-linejoin:miter;stroke-opacity:1" d="M 633.598,498.464 664.31,495.393 z" id="boundary" inkscape:connector-curvature="0" />
	<path style="fill:none;stroke:red;stroke-width:1px;stroke-linecap:butt;stroke-linejoin:miter;stroke-opacity:1" d="M 645.882,4 670.452,22.4272 z" id="boundary" inkscape:connector-curvature="0" />
	<path style="fill:none;stroke:red;stroke-width:1px;stroke-linecap:butt;stroke-linejoin:miter;stroke-opacity:1" d="M 664.31,495.393 688.879,476.966 z" id="boundary" inkscape:connector-curvature="0" />
	<path style="fill:none;stroke:red;stroke-width:1px;stroke-linecap:butt;stroke-linejoin:miter;stroke-opacity:1" d="M 670.452,22.4272 682.737,53.1393 z" id="boundary" inkscape:connector-curvature="0" />
	<path style="fill:none;stroke:red;stroke-width:1px;stroke-linecap:butt;stroke-linejoin:miter;stroke-opacity:1" d="M 682.737,53.1393 707.307,71.5666 z" id="boundary" inkscape:connector-curvature="0" />
	<path style="fill:none;stroke:red;stroke-width:1px;stroke-linecap:butt;stroke-linejoin:miter;stroke-opacity:1" d="M 688.879,476.966 707.307,446.254 z" id="boundary" inkscape:connector-curvature="0" />
	<path style="fill:none;stroke:red;stroke-width:1px;stroke-linecap:butt;stroke-linejoin:miter;stroke-opacity:1" d="M 707.307,71.5666 707.307,102.279 z" id="boundary" inkscape:connector-curvature="0" />
	<path style="fill:none;stroke:red;stroke-width:1px;stroke-linecap:butt;stroke-linejoin:miter;stroke-opacity:1" d="M 707.307,102.279 738.019,114.563 z" id="boundary" inkscape:connector-curvature="0" />
	<path style="fill:none;stroke:red;stroke-width:1px;stroke-linecap:butt;stroke-linejoin:miter;stroke-opacity:1" d="M 707.307,446.254 722.663,418.613 z" id="boundary" inkscape:connector-curvature="0" />
	<path style="fill:none;stroke:red;stroke-width:1px;stroke-linecap:butt;stroke-linejoin:miter;stroke-opacity:1" d="M 722.663,418.613 741.09,394.043 z" id="boundary" inkscape:connector-curvature="0" />
	<path style="fill:none;stroke:red;stroke-width:1px;stroke-linecap:butt;stroke-linejoin:miter;stroke-opacity:1" d="M 738.019,114.563 768.731,120.706 z" id="boundary" inkscape:connector-curvature="0" />
	<path style="fill:none;stroke:red;stroke-width:1px;stroke-linecap:butt;stroke-linejoin:miter;stroke-opacity:1" d="M 741.09,394.043 771.802,387.901 z" id="boundary" inkscape:connector-curvature="0" />
	<path style="fill:none;stroke:red;stroke-width:1px;stroke-linecap:butt;stroke-linejoin:miter;stroke-opacity:1" d="M 768.731,120.706 799.443,126.848 z" id="boundary" inkscape:connector-curvature="0" />
	<path style="fill:none;stroke:red;stroke-width:1px;stroke-linecap:butt;stroke-linejoin:miter;stroke-opacity:1" d="M 771.802,387.901 802.514,381.759 z" id="boundary" inkscape:connector-curvature="0" />
	<path style="fill:none;stroke:red;stroke-width:1px;stroke-linecap:butt;stroke-linejoin:miter;stroke-opacity:1" d="M 799.443,126.848 830.155,139.133 z" id="boundary" inkscape:connector-curvature="0" />
	<path style="fill:none;stroke:red;stroke-width:1px;stroke-linecap:butt;stroke-linejoin:miter;stroke-opacity:1" d="M 802.514,381.759 830.155,366.402 z" id="boundary" inkscape:connector-curvature="0" />
	<path style="fill:none;stroke:red;stroke-width:1px;stroke-linecap:butt;stroke-linejoin:miter;stroke-opacity:1" d="M 830.155,139.133 860.867,151.418 z" id="boundary" inkscape:connector-curvature="0" />
	<path style="fill:none;stroke:red;stroke-width:1px;stroke-linecap:butt;stroke-linejoin:miter;stroke-opacity:1" d="M 830.155,366.402 860.867,357.189 z" id="boundary" inkscape:connector-curvature="0" />
	<path style="fill:none;stroke:red;stroke-width:1px;stroke-linecap:butt;stroke-linejoin:miter;stroke-opacity:1" d="M 860.867,151.418 891.579,163.703 z" id="boundary" inkscape:connector-curvature="0" />
	<path style="fill:none;stroke:red;stroke-width:1px;stroke-linecap:butt;stroke-linejoin:miter;stroke-opacity:1" d="M 860.867,357.189 891.579,344.904 z" id="boundary" inkscape:connector-curvature="0" />
	<path style="fill:none;stroke:red;stroke-width:1px;stroke-linecap:butt;stroke-linejoin:miter;stroke-opacity:1" d="M 891.579,163.703 919.22,179.059 z" id="boundary" inkscape:connector-curvature="0" />
	<path style="fill:none;stroke:red;stroke-width:1px;stroke-linecap:butt;stroke-linejoin:miter;stroke-opacity:1" d="M 891.579,344.904 922.291,329.548 z" id="boundary" inkscape:connector-curvature="0" />
	<path style="fill:none;stroke:red;stroke-width:1px;stroke-linecap:butt;stroke-linejoin:miter;stroke-opacity:1" d="M 919.22,179.059 946.861,194.415 z" id="boundary" inkscape:connector-curvature="0" />
	<path style="fill:none;stroke:red;stroke-width:1px;stroke-linecap:butt;stroke-linejoin:miter;stroke-opacity:1" d="M 922.291,329.548 946.861,304.978 z" id="boundary" inkscape:connector-curvature="0" />
	<path style="fill:none;stroke:red;stroke-width:1px;stroke-linecap:butt;stroke-linejoin:miter;stroke-opacity:1" d="M 946.861,194.415 974.502,209.771 z" id="boundary" inkscape:connector-curvature="0" />
	<path style="fill:none;stroke:red;stroke-width:1px;stroke-linecap:butt;stroke-linejoin:miter;stroke-opacity:1" d="M 946.861,304.978 971.43,280.409 z" id="boundary" inkscape:connector-curvature="0" />
	<path style="fill:none;stroke:red;stroke-width:1px;stroke-linecap:butt;stroke-linejoin:miter;stroke-opacity:1" d="M 971.43,280.409 996,249.697 z" id="boundary" inkscape:connector-curvature="0" />
	<path style="fill:none;stroke:red;stroke-width:1px;stroke-linecap:butt;stroke-linejoin:miter;stroke-opacity:1" d="M 974.502,209.771 996,249.697 z" id="boundary" inkscape:connector-curvature="0" />
	<circle cx="4" cy="145.276" r="4" fill="#0" id="circle0"/>
	<circle cx="10.1424" cy="335.69" r="4" fill="#0" id="circle1"/>
	<circle cx="10.1424" cy="366.402" r="4" fill="#0" id="circle2"/>
	<circle cx="13.2136" cy="175.988" r="4" fill="#0" id="circle3"/>
	<circle cx="22.4272" cy="206.7" r="4" fill="#0" id="circle4"/>
	<circle cx="22.4272" cy="292.693" r="4" fill="#0" id="circle5"/>
	<circle cx="28.5697" cy="237.412" r="4" fill="#0" id="circle6"/>
	<circle cx="34.7121" cy="132.991" r="4" fill="#0" id="circle7"/>
	<circle cx="40.8545" cy="369.474" r="4" fill="#0" id="circle8"/>
	<circle cx="65.4241" cy="139.133" r="4" fill="#0" id="circle9"/>
	<circle cx="71.5666" cy="363.331" r="4" fill="#0" id="circle10"/>
	<circle cx="96.1362" cy="151.418" r="4" fill="#0" id="circle11"/>
	<circle cx="102.279" cy="351.046" r="4" fill="#0" id="circle12"/>
	<circle cx="123.777" cy="166.774" r="4" fill="#0" id="circle13"/>
	<circle cx="132.991" cy="338.762" r="4" fill="#0" id="circle14"/>
	<circle cx="151.418" cy="182.13" r="4" fill="#0" id="circle15"/>
	<circle cx="157.56" cy="320.334" r="4" fill="#0" id="circle16"/>
	<circle cx="182.13" cy="194.415" r="4" fill="#0" id="circle17"/>
	<circle cx="185.201" cy="304.978" r="4" fill="#0" id="circle18"/>
	<circle cx="212.842" cy="200.557" r="4" fill="#0" id="circle19"/>
	<circle cx="215.913" cy="301.907" r="4" fill="#0" id="circle20"/>
	<circle cx="225.127" cy="332.619" r="4" fill="#0" id="circle21"/>
	<circle cx="228.198" cy="172.916" r="4" fill="#0" id="circle22"/>
	<circle cx="237.412" cy="363.331" r="4" fill="#0" id="circle23"/>
	<circle cx="246.625" cy="148.347" r="4" fill="#0" id="circle24"/>
	<circle cx="249.697" cy="394.043" r="4" fill="#0" id="circle25"/>
	<circle cx="271.195" cy="123.777" r="4" fill="#0" id="circle26"/>
	<circle cx="280.409" cy="400.186" r="4" fill="#0" id="circle27"/>
	<circle cx="295.765" cy="105.35" r="4" fill="#0" id="circle28"/>
	<circle cx="311.121" cy="400.186" r="4" fill="#0" id="circle29"/>
	<circle cx="323.406" cy="89.9938" r="4" fill="#0" id="circle30"/>
	<circle cx="341.833" cy="394.043" r="4" fill="#0" id="circle31"/>
	<circle cx="354.118" cy="83.8514" r="4" fill="#0" id="circle32"/>
	<circle cx="369.474" cy="378.687" r="4" fill="#0" id="circle33"/>
	<circle cx="384.83" cy="96.1362" r="4" fill="#0" id="circle34"/>
	<circle cx="400.186" cy="375.616" r="4" fill="#0" id="circle35"/>
	<circle cx="412.471" cy="111.492" r="4" fill="#0" id="circle36"/>
	<circle cx="430.898" cy="381.759" r="4" fill="#0" id="circle37"/>
	<circle cx="443.183" cy="99.2074" r="4" fill="#0" id="circle38"/>
	<circle cx="461.61" cy="381.759" r="4" fill="#0" id="circle39"/>
	<circle cx="467.752" cy="77.709" r="4" fill="#0" id="circle40"/>
	<circle cx="492.322" cy="387.901" r="4" fill="#0" id="circle41"/>
	<circle cx="498.464" cy="62.3529" r="4" fill="#0" id="circle42"/>
	<circle cx="523.034" cy="387.901" r="4" fill="#0" id="circle43"/>
	<circle cx="526.105" cy="46.9969" r="4" fill="#0" id="circle44"/>
	<circle cx="538.39" cy="427.827" r="4" fill="#0" id="circle45"/>
	<circle cx="538.39" cy="458.539" r="4" fill="#0" id="circle46"/>
	<circle cx="547.604" cy="489.251" r="4" fill="#0" id="circle47"/>
	<circle cx="553.746" cy="31.6409" r="4" fill="#0" id="circle48"/>
	<circle cx="553.746" cy="387.901" r="4" fill="#0" id="circle49"/>
	<circle cx="575.245" cy="504.607" r="4" fill="#0" id="circle50"/>
	<circle cx="584.458" cy="22.4272" r="4" fill="#0" id="circle51"/>
	<circle cx="602.885" cy="489.251" r="4" fill="#0" id="circle52"/>
	<circle cx="615.17" cy="10.1424" r="4" fill="#0" id="circle53"/>
	<circle cx="633.598" cy="498.464" r="4" fill="#0" id="circle54"/>
	<circle cx="645.882" cy="4" r="4" fill="#0" id="circle55"/>
	<circle cx="664.31" cy="495.393" r="4" fill="#0" id="circle56"/>
	<circle cx="670.452" cy="22.4272" r="4" fill="#0" id="circle57"/>
	<circle cx="682.737" cy="53.1393" r="4" fill="#0" id="circle58"/>
	<circle cx="688.879" cy="476.966" r="4" fill="#0" id="circle59"/>
	<circle cx="707.307" cy="71.5666" r="4" fill="#0" id="circle60"/>
	<circle cx="707.307" cy="102.279" r="4" fill="#0" id="circle61"/>
	<circle cx="707.307" cy="446.254" r="4" fill="#0" id="circle62"/>
	<circle cx="722.663" cy="418.613" r="4" fill="#0" id="circle63"/>
	<circle cx="738.019" cy="114.563" r="4" fill="#0" id="circle64"/>
	<circle cx="741.09" cy="394.043" r="4" fill="#0" id="circle65"/>
	<circle cx="768.731" cy="120.706" r="4" fill="#0" id="circle66"/>
	<circle cx="771.802" cy="387.901" r="4" fill="#0" id="circle67"/>
	<circle cx="799.443" cy="126.848" r="4" fill="#0" id="circle68"/>
	<circle cx="802.514" cy="381.759" r="4" fill="#0" id="circle69"/>
	<circle cx="830.155" cy="139.133" r="4" fill="#0" id="circle70"/>
	<circle cx="830.155" cy="366.402" r="4" fill="#0" id="circle71"/>
	<circle cx="860.867" cy="151.418" r="4" fill="#0" id="circle72"/>
	<circle cx="860.867" cy="357.189" r="4" fill="#0" id="circle73"/>
	<circle cx="891.579" cy="163.703" r="4" fill="#0" id="circle74"/>
	<circle cx="891.579" cy="344.904" r="4" fill="#0" id="circle75"/>
	<circle cx="919.22" cy="179.059" r="4" fill="#0" id="circle76"/>
	<circle cx="922.291" cy="329.548" r="4" fill="#0" id="circle77"/>
	<circle cx="946.861" cy="194.415" r="4" fill="#0" id="circle78"/>
	<circle cx="946.861" cy="304.978" r="4" fill="#0" id="circle79"/>
	<circle cx="971.43" cy="280.409" r="4" fill="#0" id="circle80"/>
	<circle cx="974.502" cy="209.771" r="4" fill="#0" id="circle81"/>
	<circle cx="996" cy="249.697" r="4" fill="#0" id="circle82"/>
	</g>
</svg>