<?xml version="1.0" encoding="UTF-8" standalone="no"?>
<!-- Created with CurveBenchmark -->
<svg
	xmlns:dc="http://purl.org/dc/elements/1.1/"
	xmlns:cc="http://creativecommons.org/ns#"
	xmlns:rdf="http://www.w3.org/1999/02/22-rdf-syntax-ns#"
	xmlns:svg="http://www.w3.org/2000/svg"
	xmlns="http://www.w3.org/2000/svg"
	xmlns:sodipodi="http://sodipodi.sourceforge.net/DTD/sodipodi-0.dtd"
	xmlns:inkscape="http://www.inkscape.org/namespaces/inkscape"
	width="1000"
	height="1000"
	id="svg2"
	version="1.1"
	sodipodi:docname="manifold/hnncrust-television310.png.txt">
<defs
	id="defs4" />
<metadata
	id="metadata7">
	<rdf:RDF>
		<cc:Work
			rdf:about="">
			<dc:format>image/svg+xml</dc:format>
			<dc:type
				rdf:resource="http://purl.org/dc/dcmitype/StillImage" />
			<dc:title></dc:title>
		</cc:Work>
	</rdf:RDF>
</metadata>
<g
	inkscape:label="Layer 1"
	inkscape:groupmode="layer"
	id="layer1">
	<path style="fill:none;stroke:red;stroke-width:1px;stroke-linecap:butt;stroke-linejoin:miter;stroke-opacity:1" d="M 4,884.927 4,923.228 z" id="boundary" inkscape:connector-curvature="0" />
	<path style="fill:none;stroke:red;stroke-width:1px;stroke-linecap:butt;stroke-linejoin:miter;stroke-opacity:1" d="M 4,884.927 42.3012,877.266 z" id="boundary" inkscape:connector-curvature="0" />
	<path style="fill:none;stroke:red;stroke-width:1px;stroke-linecap:butt;stroke-linejoin:miter;stroke-opacity:1" d="M 4,923.228 23.1506,957.699 z" id="boundary" inkscape:connector-curvature="0" />
	<path style="fill:none;stroke:red;stroke-width:1px;stroke-linecap:butt;stroke-linejoin:miter;stroke-opacity:1" d="M 23.1506,957.699 61.4517,969.189 z" id="boundary" inkscape:connector-curvature="0" />
	<path style="fill:none;stroke:red;stroke-width:1px;stroke-linecap:butt;stroke-linejoin:miter;stroke-opacity:1" d="M 42.3012,877.266 80.6023,877.266 z" id="boundary" inkscape:connector-curvature="0" />
	<path style="fill:none;stroke:red;stroke-width:1px;stroke-linecap:butt;stroke-linejoin:miter;stroke-opacity:1" d="M 61.4517,969.189 99.7529,957.699 z" id="boundary" inkscape:connector-curvature="0" />
	<path style="fill:none;stroke:red;stroke-width:1px;stroke-linecap:butt;stroke-linejoin:miter;stroke-opacity:1" d="M 80.6023,877.266 118.903,877.266 z" id="boundary" inkscape:connector-curvature="0" />
	<path style="fill:none;stroke:red;stroke-width:1px;stroke-linecap:butt;stroke-linejoin:miter;stroke-opacity:1" d="M 99.7529,957.699 138.054,957.699 z" id="boundary" inkscape:connector-curvature="0" />
	<path style="fill:none;stroke:red;stroke-width:1px;stroke-linecap:butt;stroke-linejoin:miter;stroke-opacity:1" d="M 118.903,877.266 157.205,877.266 z" id="boundary" inkscape:connector-curvature="0" />
	<path style="fill:none;stroke:red;stroke-width:1px;stroke-linecap:butt;stroke-linejoin:miter;stroke-opacity:1" d="M 126.564,655.12 161.035,674.27 z" id="boundary" inkscape:connector-curvature="0" />
	<path style="fill:none;stroke:red;stroke-width:1px;stroke-linecap:butt;stroke-linejoin:miter;stroke-opacity:1" d="M 126.564,770.023 157.205,796.834 z" id="boundary" inkscape:connector-curvature="0" />
	<path style="fill:none;stroke:red;stroke-width:1px;stroke-linecap:butt;stroke-linejoin:miter;stroke-opacity:1" d="M 138.054,957.699 176.355,957.699 z" id="boundary" inkscape:connector-curvature="0" />
	<path style="fill:none;stroke:red;stroke-width:1px;stroke-linecap:butt;stroke-linejoin:miter;stroke-opacity:1" d="M 157.205,796.834 195.506,796.834 z" id="boundary" inkscape:connector-curvature="0" />
	<path style="fill:none;stroke:red;stroke-width:1px;stroke-linecap:butt;stroke-linejoin:miter;stroke-opacity:1" d="M 157.205,877.266 195.506,877.266 z" id="boundary" inkscape:connector-curvature="0" />
	<path style="fill:none;stroke:red;stroke-width:1px;stroke-linecap:butt;stroke-linejoin:miter;stroke-opacity:1" d="M 161.035,674.27 199.336,674.27 z" id="boundary" inkscape:connector-curvature="0" />
	<path style="fill:none;stroke:red;stroke-width:1px;stroke-linecap:butt;stroke-linejoin:miter;stroke-opacity:1" d="M 176.355,762.363 214.656,762.363 z" id="boundary" inkscape:connector-curvature="0" />
	<path style="fill:none;stroke:red;stroke-width:1px;stroke-linecap:butt;stroke-linejoin:miter;stroke-opacity:1" d="M 176.355,957.699 214.656,957.699 z" id="boundary" inkscape:connector-curvature="0" />
	<path style="fill:none;stroke:red;stroke-width:1px;stroke-linecap:butt;stroke-linejoin:miter;stroke-opacity:1" d="M 180.185,11.6602 180.185,49.9614 z" id="boundary" inkscape:connector-curvature="0" />
	<path style="fill:none;stroke:red;stroke-width:1px;stroke-linecap:butt;stroke-linejoin:miter;stroke-opacity:1" d="M 180.185,11.6602 218.486,4 z" id="boundary" inkscape:connector-curvature="0" />
	<path style="fill:none;stroke:red;stroke-width:1px;stroke-linecap:butt;stroke-linejoin:miter;stroke-opacity:1" d="M 180.185,49.9614 180.185,88.2625 z" id="boundary" inkscape:connector-curvature="0" />
	<path style="fill:none;stroke:red;stroke-width:1px;stroke-linecap:butt;stroke-linejoin:miter;stroke-opacity:1" d="M 180.185,88.2625 180.185,126.564 z" id="boundary" inkscape:connector-curvature="0" />
	<path style="fill:none;stroke:red;stroke-width:1px;stroke-linecap:butt;stroke-linejoin:miter;stroke-opacity:1" d="M 180.185,126.564 180.185,164.865 z" id="boundary" inkscape:connector-curvature="0" />
	<path style="fill:none;stroke:red;stroke-width:1px;stroke-linecap:butt;stroke-linejoin:miter;stroke-opacity:1" d="M 180.185,164.865 180.185,203.166 z" id="boundary" inkscape:connector-curvature="0" />
	<path style="fill:none;stroke:red;stroke-width:1px;stroke-linecap:butt;stroke-linejoin:miter;stroke-opacity:1" d="M 180.185,203.166 180.185,241.467 z" id="boundary" inkscape:connector-curvature="0" />
	<path style="fill:none;stroke:red;stroke-width:1px;stroke-linecap:butt;stroke-linejoin:miter;stroke-opacity:1" d="M 180.185,241.467 180.185,279.768 z" id="boundary" inkscape:connector-curvature="0" />
	<path style="fill:none;stroke:red;stroke-width:1px;stroke-linecap:butt;stroke-linejoin:miter;stroke-opacity:1" d="M 180.185,279.768 180.185,318.069 z" id="boundary" inkscape:connector-curvature="0" />
	<path style="fill:none;stroke:red;stroke-width:1px;stroke-linecap:butt;stroke-linejoin:miter;stroke-opacity:1" d="M 180.185,318.069 180.185,356.371 z" id="boundary" inkscape:connector-curvature="0" />
	<path style="fill:none;stroke:red;stroke-width:1px;stroke-linecap:butt;stroke-linejoin:miter;stroke-opacity:1" d="M 180.185,356.371 180.185,394.672 z" id="boundary" inkscape:connector-curvature="0" />
	<path style="fill:none;stroke:red;stroke-width:1px;stroke-linecap:butt;stroke-linejoin:miter;stroke-opacity:1" d="M 180.185,394.672 180.185,432.973 z" id="boundary" inkscape:connector-curvature="0" />
	<path style="fill:none;stroke:red;stroke-width:1px;stroke-linecap:butt;stroke-linejoin:miter;stroke-opacity:1" d="M 180.185,432.973 180.185,471.274 z" id="boundary" inkscape:connector-curvature="0" />
	<path style="fill:none;stroke:red;stroke-width:1px;stroke-linecap:butt;stroke-linejoin:miter;stroke-opacity:1" d="M 180.185,471.274 184.015,509.575 z" id="boundary" inkscape:connector-curvature="0" />
	<path style="fill:none;stroke:red;stroke-width:1px;stroke-linecap:butt;stroke-linejoin:miter;stroke-opacity:1" d="M 180.185,639.799 218.486,639.799 z" id="boundary" inkscape:connector-curvature="0" />
	<path style="fill:none;stroke:red;stroke-width:1px;stroke-linecap:butt;stroke-linejoin:miter;stroke-opacity:1" d="M 184.015,509.575 222.317,513.405 z" id="boundary" inkscape:connector-curvature="0" />
	<path style="fill:none;stroke:red;stroke-width:1px;stroke-linecap:butt;stroke-linejoin:miter;stroke-opacity:1" d="M 195.506,796.834 233.807,796.834 z" id="boundary" inkscape:connector-curvature="0" />
	<path style="fill:none;stroke:red;stroke-width:1px;stroke-linecap:butt;stroke-linejoin:miter;stroke-opacity:1" d="M 195.506,877.266 233.807,877.266 z" id="boundary" inkscape:connector-curvature="0" />
	<path style="fill:none;stroke:red;stroke-width:1px;stroke-linecap:butt;stroke-linejoin:miter;stroke-opacity:1" d="M 199.336,674.27 237.637,674.27 z" id="boundary" inkscape:connector-curvature="0" />
	<path style="fill:none;stroke:red;stroke-width:1px;stroke-linecap:butt;stroke-linejoin:miter;stroke-opacity:1" d="M 214.656,762.363 252.958,762.363 z" id="boundary" inkscape:connector-curvature="0" />
	<path style="fill:none;stroke:red;stroke-width:1px;stroke-linecap:butt;stroke-linejoin:miter;stroke-opacity:1" d="M 214.656,957.699 252.958,957.699 z" id="boundary" inkscape:connector-curvature="0" />
	<path style="fill:none;stroke:red;stroke-width:1px;stroke-linecap:butt;stroke-linejoin:miter;stroke-opacity:1" d="M 218.486,4 256.788,4 z" id="boundary" inkscape:connector-curvature="0" />
	<path style="fill:none;stroke:red;stroke-width:1px;stroke-linecap:butt;stroke-linejoin:miter;stroke-opacity:1" d="M 218.486,639.799 256.788,639.799 z" id="boundary" inkscape:connector-curvature="0" />
	<path style="fill:none;stroke:red;stroke-width:1px;stroke-linecap:butt;stroke-linejoin:miter;stroke-opacity:1" d="M 222.317,513.405 260.618,513.405 z" id="boundary" inkscape:connector-curvature="0" />
	<path style="fill:none;stroke:red;stroke-width:1px;stroke-linecap:butt;stroke-linejoin:miter;stroke-opacity:1" d="M 233.807,796.834 272.108,796.834 z" id="boundary" inkscape:connector-curvature="0" />
	<path style="fill:none;stroke:red;stroke-width:1px;stroke-linecap:butt;stroke-linejoin:miter;stroke-opacity:1" d="M 233.807,877.266 272.108,877.266 z" id="boundary" inkscape:connector-curvature="0" />
	<path style="fill:none;stroke:red;stroke-width:1px;stroke-linecap:butt;stroke-linejoin:miter;stroke-opacity:1" d="M 237.637,674.27 275.938,674.27 z" id="boundary" inkscape:connector-curvature="0" />
	<path style="fill:none;stroke:red;stroke-width:1px;stroke-linecap:butt;stroke-linejoin:miter;stroke-opacity:1" d="M 252.958,762.363 291.259,762.363 z" id="boundary" inkscape:connector-curvature="0" />
	<path style="fill:none;stroke:red;stroke-width:1px;stroke-linecap:butt;stroke-linejoin:miter;stroke-opacity:1" d="M 252.958,957.699 291.259,965.359 z" id="boundary" inkscape:connector-curvature="0" />
	<path style="fill:none;stroke:red;stroke-width:1px;stroke-linecap:butt;stroke-linejoin:miter;stroke-opacity:1" d="M 256.788,4 295.089,4 z" id="boundary" inkscape:connector-curvature="0" />
	<path style="fill:none;stroke:red;stroke-width:1px;stroke-linecap:butt;stroke-linejoin:miter;stroke-opacity:1" d="M 256.788,639.799 295.089,639.799 z" id="boundary" inkscape:connector-curvature="0" />
	<path style="fill:none;stroke:red;stroke-width:1px;stroke-linecap:butt;stroke-linejoin:miter;stroke-opacity:1" d="M 260.618,513.405 298.919,513.405 z" id="boundary" inkscape:connector-curvature="0" />
	<path style="fill:none;stroke:red;stroke-width:1px;stroke-linecap:butt;stroke-linejoin:miter;stroke-opacity:1" d="M 272.108,796.834 310.409,796.834 z" id="boundary" inkscape:connector-curvature="0" />
	<path style="fill:none;stroke:red;stroke-width:1px;stroke-linecap:butt;stroke-linejoin:miter;stroke-opacity:1" d="M 272.108,877.266 310.409,877.266 z" id="boundary" inkscape:connector-curvature="0" />
	<path style="fill:none;stroke:red;stroke-width:1px;stroke-linecap:butt;stroke-linejoin:miter;stroke-opacity:1" d="M 275.938,674.27 314.239,674.27 z" id="boundary" inkscape:connector-curvature="0" />
	<path style="fill:none;stroke:red;stroke-width:1px;stroke-linecap:butt;stroke-linejoin:miter;stroke-opacity:1" d="M 291.259,762.363 329.56,758.533 z" id="boundary" inkscape:connector-curvature="0" />
	<path style="fill:none;stroke:red;stroke-width:1px;stroke-linecap:butt;stroke-linejoin:miter;stroke-opacity:1" d="M 291.259,965.359 329.56,957.699 z" id="boundary" inkscape:connector-curvature="0" />
	<path style="fill:none;stroke:red;stroke-width:1px;stroke-linecap:butt;stroke-linejoin:miter;stroke-opacity:1" d="M 295.089,4 333.39,4 z" id="boundary" inkscape:connector-curvature="0" />
	<path style="fill:none;stroke:red;stroke-width:1px;stroke-linecap:butt;stroke-linejoin:miter;stroke-opacity:1" d="M 298.919,513.405 333.39,532.556 z" id="boundary" inkscape:connector-curvature="0" />
	<path style="fill:none;stroke:red;stroke-width:1px;stroke-linecap:butt;stroke-linejoin:miter;stroke-opacity:1" d="M 310.409,796.834 333.39,827.475 z" id="boundary" inkscape:connector-curvature="0" />
	<path style="fill:none;stroke:red;stroke-width:1px;stroke-linecap:butt;stroke-linejoin:miter;stroke-opacity:1" d="M 310.409,877.266 333.39,827.475 z" id="boundary" inkscape:connector-curvature="0" />
	<path style="fill:none;stroke:red;stroke-width:1px;stroke-linecap:butt;stroke-linejoin:miter;stroke-opacity:1" d="M 314.239,674.27 333.39,708.741 z" id="boundary" inkscape:connector-curvature="0" />
	<path style="fill:none;stroke:red;stroke-width:1px;stroke-linecap:butt;stroke-linejoin:miter;stroke-opacity:1" d="M 329.56,758.533 333.39,708.741 z" id="boundary" inkscape:connector-curvature="0" />
	<path style="fill:none;stroke:red;stroke-width:1px;stroke-linecap:butt;stroke-linejoin:miter;stroke-opacity:1" d="M 329.56,957.699 367.861,957.699 z" id="boundary" inkscape:connector-curvature="0" />
	<path style="fill:none;stroke:red;stroke-width:1px;stroke-linecap:butt;stroke-linejoin:miter;stroke-opacity:1" d="M 333.39,4 371.691,4 z" id="boundary" inkscape:connector-curvature="0" />
	<path style="fill:none;stroke:red;stroke-width:1px;stroke-linecap:butt;stroke-linejoin:miter;stroke-opacity:1" d="M 333.39,532.556 333.39,570.857 z" id="boundary" inkscape:connector-curvature="0" />
	<path style="fill:none;stroke:red;stroke-width:1px;stroke-linecap:butt;stroke-linejoin:miter;stroke-opacity:1" d="M 333.39,570.857 333.39,609.158 z" id="boundary" inkscape:connector-curvature="0" />
	<path style="fill:none;stroke:red;stroke-width:1px;stroke-linecap:butt;stroke-linejoin:miter;stroke-opacity:1" d="M 367.861,957.699 406.162,957.699 z" id="boundary" inkscape:connector-curvature="0" />
	<path style="fill:none;stroke:red;stroke-width:1px;stroke-linecap:butt;stroke-linejoin:miter;stroke-opacity:1" d="M 371.691,4 409.992,4 z" id="boundary" inkscape:connector-curvature="0" />
	<path style="fill:none;stroke:red;stroke-width:1px;stroke-linecap:butt;stroke-linejoin:miter;stroke-opacity:1" d="M 406.162,957.699 444.463,957.699 z" id="boundary" inkscape:connector-curvature="0" />
	<path style="fill:none;stroke:red;stroke-width:1px;stroke-linecap:butt;stroke-linejoin:miter;stroke-opacity:1" d="M 409.992,4 448.293,4 z" id="boundary" inkscape:connector-curvature="0" />
	<path style="fill:none;stroke:red;stroke-width:1px;stroke-linecap:butt;stroke-linejoin:miter;stroke-opacity:1" d="M 444.463,957.699 482.764,957.699 z" id="boundary" inkscape:connector-curvature="0" />
	<path style="fill:none;stroke:red;stroke-width:1px;stroke-linecap:butt;stroke-linejoin:miter;stroke-opacity:1" d="M 448.293,4 486.595,4 z" id="boundary" inkscape:connector-curvature="0" />
	<path style="fill:none;stroke:red;stroke-width:1px;stroke-linecap:butt;stroke-linejoin:miter;stroke-opacity:1" d="M 482.764,957.699 521.066,957.699 z" id="boundary" inkscape:connector-curvature="0" />
	<path style="fill:none;stroke:red;stroke-width:1px;stroke-linecap:butt;stroke-linejoin:miter;stroke-opacity:1" d="M 486.595,4 524.896,4 z" id="boundary" inkscape:connector-curvature="0" />
	<path style="fill:none;stroke:red;stroke-width:1px;stroke-linecap:butt;stroke-linejoin:miter;stroke-opacity:1" d="M 521.066,957.699 559.367,957.699 z" id="boundary" inkscape:connector-curvature="0" />
	<path style="fill:none;stroke:red;stroke-width:1px;stroke-linecap:butt;stroke-linejoin:miter;stroke-opacity:1" d="M 524.896,4 563.197,4 z" id="boundary" inkscape:connector-curvature="0" />
	<path style="fill:none;stroke:red;stroke-width:1px;stroke-linecap:butt;stroke-linejoin:miter;stroke-opacity:1" d="M 528.726,517.236 528.726,555.537 z" id="boundary" inkscape:connector-curvature="0" />
	<path style="fill:none;stroke:red;stroke-width:1px;stroke-linecap:butt;stroke-linejoin:miter;stroke-opacity:1" d="M 528.726,517.236 567.027,513.405 z" id="boundary" inkscape:connector-curvature="0" />
	<path style="fill:none;stroke:red;stroke-width:1px;stroke-linecap:butt;stroke-linejoin:miter;stroke-opacity:1" d="M 528.726,555.537 528.726,593.838 z" id="boundary" inkscape:connector-curvature="0" />
	<path style="fill:none;stroke:red;stroke-width:1px;stroke-linecap:butt;stroke-linejoin:miter;stroke-opacity:1" d="M 528.726,593.838 528.726,632.139 z" id="boundary" inkscape:connector-curvature="0" />
	<path style="fill:none;stroke:red;stroke-width:1px;stroke-linecap:butt;stroke-linejoin:miter;stroke-opacity:1" d="M 528.726,632.139 567.027,639.799 z" id="boundary" inkscape:connector-curvature="0" />
	<path style="fill:none;stroke:red;stroke-width:1px;stroke-linecap:butt;stroke-linejoin:miter;stroke-opacity:1" d="M 528.726,678.1 528.726,716.402 z" id="boundary" inkscape:connector-curvature="0" />
	<path style="fill:none;stroke:red;stroke-width:1px;stroke-linecap:butt;stroke-linejoin:miter;stroke-opacity:1" d="M 528.726,716.402 528.726,754.703 z" id="boundary" inkscape:connector-curvature="0" />
	<path style="fill:none;stroke:red;stroke-width:1px;stroke-linecap:butt;stroke-linejoin:miter;stroke-opacity:1" d="M 528.726,754.703 567.027,762.363 z" id="boundary" inkscape:connector-curvature="0" />
	<path style="fill:none;stroke:red;stroke-width:1px;stroke-linecap:butt;stroke-linejoin:miter;stroke-opacity:1" d="M 528.726,800.664 528.726,838.965 z" id="boundary" inkscape:connector-curvature="0" />
	<path style="fill:none;stroke:red;stroke-width:1px;stroke-linecap:butt;stroke-linejoin:miter;stroke-opacity:1" d="M 528.726,838.965 532.556,877.266 z" id="boundary" inkscape:connector-curvature="0" />
	<path style="fill:none;stroke:red;stroke-width:1px;stroke-linecap:butt;stroke-linejoin:miter;stroke-opacity:1" d="M 532.556,877.266 570.857,877.266 z" id="boundary" inkscape:connector-curvature="0" />
	<path style="fill:none;stroke:red;stroke-width:1px;stroke-linecap:butt;stroke-linejoin:miter;stroke-opacity:1" d="M 559.367,957.699 597.668,957.699 z" id="boundary" inkscape:connector-curvature="0" />
	<path style="fill:none;stroke:red;stroke-width:1px;stroke-linecap:butt;stroke-linejoin:miter;stroke-opacity:1" d="M 563.197,4 601.498,4 z" id="boundary" inkscape:connector-curvature="0" />
	<path style="fill:none;stroke:red;stroke-width:1px;stroke-linecap:butt;stroke-linejoin:miter;stroke-opacity:1" d="M 567.027,513.405 605.328,513.405 z" id="boundary" inkscape:connector-curvature="0" />
	<path style="fill:none;stroke:red;stroke-width:1px;stroke-linecap:butt;stroke-linejoin:miter;stroke-opacity:1" d="M 567.027,639.799 605.328,639.799 z" id="boundary" inkscape:connector-curvature="0" />
	<path style="fill:none;stroke:red;stroke-width:1px;stroke-linecap:butt;stroke-linejoin:miter;stroke-opacity:1" d="M 567.027,762.363 605.328,762.363 z" id="boundary" inkscape:connector-curvature="0" />
	<path style="fill:none;stroke:red;stroke-width:1px;stroke-linecap:butt;stroke-linejoin:miter;stroke-opacity:1" d="M 570.857,877.266 609.158,877.266 z" id="boundary" inkscape:connector-curvature="0" />
	<path style="fill:none;stroke:red;stroke-width:1px;stroke-linecap:butt;stroke-linejoin:miter;stroke-opacity:1" d="M 586.178,674.27 624.479,674.27 z" id="boundary" inkscape:connector-curvature="0" />
	<path style="fill:none;stroke:red;stroke-width:1px;stroke-linecap:butt;stroke-linejoin:miter;stroke-opacity:1" d="M 586.178,796.834 624.479,796.834 z" id="boundary" inkscape:connector-curvature="0" />
	<path style="fill:none;stroke:red;stroke-width:1px;stroke-linecap:butt;stroke-linejoin:miter;stroke-opacity:1" d="M 597.668,957.699 635.969,957.699 z" id="boundary" inkscape:connector-curvature="0" />
	<path style="fill:none;stroke:red;stroke-width:1px;stroke-linecap:butt;stroke-linejoin:miter;stroke-opacity:1" d="M 601.498,4 639.799,4 z" id="boundary" inkscape:connector-curvature="0" />
	<path style="fill:none;stroke:red;stroke-width:1px;stroke-linecap:butt;stroke-linejoin:miter;stroke-opacity:1" d="M 605.328,513.405 643.629,513.405 z" id="boundary" inkscape:connector-curvature="0" />
	<path style="fill:none;stroke:red;stroke-width:1px;stroke-linecap:butt;stroke-linejoin:miter;stroke-opacity:1" d="M 605.328,639.799 643.629,639.799 z" id="boundary" inkscape:connector-curvature="0" />
	<path style="fill:none;stroke:red;stroke-width:1px;stroke-linecap:butt;stroke-linejoin:miter;stroke-opacity:1" d="M 605.328,762.363 643.629,762.363 z" id="boundary" inkscape:connector-curvature="0" />
	<path style="fill:none;stroke:red;stroke-width:1px;stroke-linecap:butt;stroke-linejoin:miter;stroke-opacity:1" d="M 609.158,877.266 647.459,877.266 z" id="boundary" inkscape:connector-curvature="0" />
	<path style="fill:none;stroke:red;stroke-width:1px;stroke-linecap:butt;stroke-linejoin:miter;stroke-opacity:1" d="M 624.479,674.27 662.78,674.27 z" id="boundary" inkscape:connector-curvature="0" />
	<path style="fill:none;stroke:red;stroke-width:1px;stroke-linecap:butt;stroke-linejoin:miter;stroke-opacity:1" d="M 624.479,796.834 662.78,796.834 z" id="boundary" inkscape:connector-curvature="0" />
	<path style="fill:none;stroke:red;stroke-width:1px;stroke-linecap:butt;stroke-linejoin:miter;stroke-opacity:1" d="M 635.969,957.699 674.27,957.699 z" id="boundary" inkscape:connector-curvature="0" />
	<path style="fill:none;stroke:red;stroke-width:1px;stroke-linecap:butt;stroke-linejoin:miter;stroke-opacity:1" d="M 639.799,4 678.1,4 z" id="boundary" inkscape:connector-curvature="0" />
	<path style="fill:none;stroke:red;stroke-width:1px;stroke-linecap:butt;stroke-linejoin:miter;stroke-opacity:1" d="M 643.629,513.405 681.931,513.405 z" id="boundary" inkscape:connector-curvature="0" />
	<path style="fill:none;stroke:red;stroke-width:1px;stroke-linecap:butt;stroke-linejoin:miter;stroke-opacity:1" d="M 643.629,639.799 681.931,639.799 z" id="boundary" inkscape:connector-curvature="0" />
	<path style="fill:none;stroke:red;stroke-width:1px;stroke-linecap:butt;stroke-linejoin:miter;stroke-opacity:1" d="M 643.629,762.363 681.931,762.363 z" id="boundary" inkscape:connector-curvature="0" />
	<path style="fill:none;stroke:red;stroke-width:1px;stroke-linecap:butt;stroke-linejoin:miter;stroke-opacity:1" d="M 647.459,877.266 685.761,877.266 z" id="boundary" inkscape:connector-curvature="0" />
	<path style="fill:none;stroke:red;stroke-width:1px;stroke-linecap:butt;stroke-linejoin:miter;stroke-opacity:1" d="M 662.78,674.27 701.081,674.27 z" id="boundary" inkscape:connector-curvature="0" />
	<path style="fill:none;stroke:red;stroke-width:1px;stroke-linecap:butt;stroke-linejoin:miter;stroke-opacity:1" d="M 662.78,796.834 701.081,796.834 z" id="boundary" inkscape:connector-curvature="0" />
	<path style="fill:none;stroke:red;stroke-width:1px;stroke-linecap:butt;stroke-linejoin:miter;stroke-opacity:1" d="M 674.27,957.699 712.571,957.699 z" id="boundary" inkscape:connector-curvature="0" />
	<path style="fill:none;stroke:red;stroke-width:1px;stroke-linecap:butt;stroke-linejoin:miter;stroke-opacity:1" d="M 678.1,4 716.402,4 z" id="boundary" inkscape:connector-curvature="0" />
	<path style="fill:none;stroke:red;stroke-width:1px;stroke-linecap:butt;stroke-linejoin:miter;stroke-opacity:1" d="M 681.931,513.405 720.232,513.405 z" id="boundary" inkscape:connector-curvature="0" />
	<path style="fill:none;stroke:red;stroke-width:1px;stroke-linecap:butt;stroke-linejoin:miter;stroke-opacity:1" d="M 681.931,639.799 720.232,639.799 z" id="boundary" inkscape:connector-curvature="0" />
	<path style="fill:none;stroke:red;stroke-width:1px;stroke-linecap:butt;stroke-linejoin:miter;stroke-opacity:1" d="M 681.931,762.363 720.232,762.363 z" id="boundary" inkscape:connector-curvature="0" />
	<path style="fill:none;stroke:red;stroke-width:1px;stroke-linecap:butt;stroke-linejoin:miter;stroke-opacity:1" d="M 685.761,877.266 724.062,877.266 z" id="boundary" inkscape:connector-curvature="0" />
	<path style="fill:none;stroke:red;stroke-width:1px;stroke-linecap:butt;stroke-linejoin:miter;stroke-opacity:1" d="M 701.081,674.27 739.382,674.27 z" id="boundary" inkscape:connector-curvature="0" />
	<path style="fill:none;stroke:red;stroke-width:1px;stroke-linecap:butt;stroke-linejoin:miter;stroke-opacity:1" d="M 701.081,796.834 739.382,796.834 z" id="boundary" inkscape:connector-curvature="0" />
	<path style="fill:none;stroke:red;stroke-width:1px;stroke-linecap:butt;stroke-linejoin:miter;stroke-opacity:1" d="M 712.571,957.699 750.873,957.699 z" id="boundary" inkscape:connector-curvature="0" />
	<path style="fill:none;stroke:red;stroke-width:1px;stroke-linecap:butt;stroke-linejoin:miter;stroke-opacity:1" d="M 716.402,4 754.703,4 z" id="boundary" inkscape:connector-curvature="0" />
	<path style="fill:none;stroke:red;stroke-width:1px;stroke-linecap:butt;stroke-linejoin:miter;stroke-opacity:1" d="M 720.232,513.405 758.533,513.405 z" id="boundary" inkscape:connector-curvature="0" />
	<path style="fill:none;stroke:red;stroke-width:1px;stroke-linecap:butt;stroke-linejoin:miter;stroke-opacity:1" d="M 720.232,639.799 758.533,639.799 z" id="boundary" inkscape:connector-curvature="0" />
	<path style="fill:none;stroke:red;stroke-width:1px;stroke-linecap:butt;stroke-linejoin:miter;stroke-opacity:1" d="M 720.232,762.363 758.533,762.363 z" id="boundary" inkscape:connector-curvature="0" />
	<path style="fill:none;stroke:red;stroke-width:1px;stroke-linecap:butt;stroke-linejoin:miter;stroke-opacity:1" d="M 724.062,877.266 762.363,877.266 z" id="boundary" inkscape:connector-curvature="0" />
	<path style="fill:none;stroke:red;stroke-width:1px;stroke-linecap:butt;stroke-linejoin:miter;stroke-opacity:1" d="M 739.382,674.27 777.683,674.27 z" id="boundary" inkscape:connector-curvature="0" />
	<path style="fill:none;stroke:red;stroke-width:1px;stroke-linecap:butt;stroke-linejoin:miter;stroke-opacity:1" d="M 739.382,796.834 777.683,796.834 z" id="boundary" inkscape:connector-curvature="0" />
	<path style="fill:none;stroke:red;stroke-width:1px;stroke-linecap:butt;stroke-linejoin:miter;stroke-opacity:1" d="M 750.873,957.699 789.174,957.699 z" id="boundary" inkscape:connector-curvature="0" />
	<path style="fill:none;stroke:red;stroke-width:1px;stroke-linecap:butt;stroke-linejoin:miter;stroke-opacity:1" d="M 754.703,4 789.174,23.1506 z" id="boundary" inkscape:connector-curvature="0" />
	<path style="fill:none;stroke:red;stroke-width:1px;stroke-linecap:butt;stroke-linejoin:miter;stroke-opacity:1" d="M 758.533,513.405 789.174,482.764 z" id="boundary" inkscape:connector-curvature="0" />
	<path style="fill:none;stroke:red;stroke-width:1px;stroke-linecap:butt;stroke-linejoin:miter;stroke-opacity:1" d="M 758.533,639.799 796.834,639.799 z" id="boundary" inkscape:connector-curvature="0" />
	<path style="fill:none;stroke:red;stroke-width:1px;stroke-linecap:butt;stroke-linejoin:miter;stroke-opacity:1" d="M 758.533,762.363 796.834,762.363 z" id="boundary" inkscape:connector-curvature="0" />
	<path style="fill:none;stroke:red;stroke-width:1px;stroke-linecap:butt;stroke-linejoin:miter;stroke-opacity:1" d="M 762.363,877.266 800.664,877.266 z" id="boundary" inkscape:connector-curvature="0" />
	<path style="fill:none;stroke:red;stroke-width:1px;stroke-linecap:butt;stroke-linejoin:miter;stroke-opacity:1" d="M 777.683,674.27 815.985,674.27 z" id="boundary" inkscape:connector-curvature="0" />
	<path style="fill:none;stroke:red;stroke-width:1px;stroke-linecap:butt;stroke-linejoin:miter;stroke-opacity:1" d="M 777.683,796.834 815.985,796.834 z" id="boundary" inkscape:connector-curvature="0" />
	<path style="fill:none;stroke:red;stroke-width:1px;stroke-linecap:butt;stroke-linejoin:miter;stroke-opacity:1" d="M 789.174,23.1506 789.174,61.4517 z" id="boundary" inkscape:connector-curvature="0" />
	<path style="fill:none;stroke:red;stroke-width:1px;stroke-linecap:butt;stroke-linejoin:miter;stroke-opacity:1" d="M 789.174,61.4517 789.174,99.7529 z" id="boundary" inkscape:connector-curvature="0" />
	<path style="fill:none;stroke:red;stroke-width:1px;stroke-linecap:butt;stroke-linejoin:miter;stroke-opacity:1" d="M 789.174,99.7529 789.174,138.054 z" id="boundary" inkscape:connector-curvature="0" />
	<path style="fill:none;stroke:red;stroke-width:1px;stroke-linecap:butt;stroke-linejoin:miter;stroke-opacity:1" d="M 789.174,138.054 789.174,176.355 z" id="boundary" inkscape:connector-curvature="0" />
	<path style="fill:none;stroke:red;stroke-width:1px;stroke-linecap:butt;stroke-linejoin:miter;stroke-opacity:1" d="M 789.174,176.355 789.174,214.656 z" id="boundary" inkscape:connector-curvature="0" />
	<path style="fill:none;stroke:red;stroke-width:1px;stroke-linecap:butt;stroke-linejoin:miter;stroke-opacity:1" d="M 789.174,214.656 789.174,252.958 z" id="boundary" inkscape:connector-curvature="0" />
	<path style="fill:none;stroke:red;stroke-width:1px;stroke-linecap:butt;stroke-linejoin:miter;stroke-opacity:1" d="M 789.174,252.958 789.174,291.259 z" id="boundary" inkscape:connector-curvature="0" />
	<path style="fill:none;stroke:red;stroke-width:1px;stroke-linecap:butt;stroke-linejoin:miter;stroke-opacity:1" d="M 789.174,291.259 789.174,329.56 z" id="boundary" inkscape:connector-curvature="0" />
	<path style="fill:none;stroke:red;stroke-width:1px;stroke-linecap:butt;stroke-linejoin:miter;stroke-opacity:1" d="M 789.174,329.56 789.174,367.861 z" id="boundary" inkscape:connector-curvature="0" />
	<path style="fill:none;stroke:red;stroke-width:1px;stroke-linecap:butt;stroke-linejoin:miter;stroke-opacity:1" d="M 789.174,367.861 789.174,406.162 z" id="boundary" inkscape:connector-curvature="0" />
	<path style="fill:none;stroke:red;stroke-width:1px;stroke-linecap:butt;stroke-linejoin:miter;stroke-opacity:1" d="M 789.174,406.162 789.174,444.463 z" id="boundary" inkscape:connector-curvature="0" />
	<path style="fill:none;stroke:red;stroke-width:1px;stroke-linecap:butt;stroke-linejoin:miter;stroke-opacity:1" d="M 789.174,444.463 789.174,482.764 z" id="boundary" inkscape:connector-curvature="0" />
	<path style="fill:none;stroke:red;stroke-width:1px;stroke-linecap:butt;stroke-linejoin:miter;stroke-opacity:1" d="M 789.174,957.699 827.475,957.699 z" id="boundary" inkscape:connector-curvature="0" />
	<path style="fill:none;stroke:red;stroke-width:1px;stroke-linecap:butt;stroke-linejoin:miter;stroke-opacity:1" d="M 796.834,639.799 835.135,639.799 z" id="boundary" inkscape:connector-curvature="0" />
	<path style="fill:none;stroke:red;stroke-width:1px;stroke-linecap:butt;stroke-linejoin:miter;stroke-opacity:1" d="M 796.834,762.363 835.135,762.363 z" id="boundary" inkscape:connector-curvature="0" />
	<path style="fill:none;stroke:red;stroke-width:1px;stroke-linecap:butt;stroke-linejoin:miter;stroke-opacity:1" d="M 800.664,877.266 838.965,877.266 z" id="boundary" inkscape:connector-curvature="0" />
	<path style="fill:none;stroke:red;stroke-width:1px;stroke-linecap:butt;stroke-linejoin:miter;stroke-opacity:1" d="M 815.985,674.27 854.286,674.27 z" id="boundary" inkscape:connector-curvature="0" />
	<path style="fill:none;stroke:red;stroke-width:1px;stroke-linecap:butt;stroke-linejoin:miter;stroke-opacity:1" d="M 815.985,796.834 854.286,796.834 z" id="boundary" inkscape:connector-curvature="0" />
	<path style="fill:none;stroke:red;stroke-width:1px;stroke-linecap:butt;stroke-linejoin:miter;stroke-opacity:1" d="M 827.475,957.699 865.776,957.699 z" id="boundary" inkscape:connector-curvature="0" />
	<path style="fill:none;stroke:red;stroke-width:1px;stroke-linecap:butt;stroke-linejoin:miter;stroke-opacity:1" d="M 835.135,639.799 873.436,639.799 z" id="boundary" inkscape:connector-curvature="0" />
	<path style="fill:none;stroke:red;stroke-width:1px;stroke-linecap:butt;stroke-linejoin:miter;stroke-opacity:1" d="M 835.135,762.363 873.436,762.363 z" id="boundary" inkscape:connector-curvature="0" />
	<path style="fill:none;stroke:red;stroke-width:1px;stroke-linecap:butt;stroke-linejoin:miter;stroke-opacity:1" d="M 838.965,877.266 877.266,877.266 z" id="boundary" inkscape:connector-curvature="0" />
	<path style="fill:none;stroke:red;stroke-width:1px;stroke-linecap:butt;stroke-linejoin:miter;stroke-opacity:1" d="M 854.286,674.27 892.587,674.27 z" id="boundary" inkscape:connector-curvature="0" />
	<path style="fill:none;stroke:red;stroke-width:1px;stroke-linecap:butt;stroke-linejoin:miter;stroke-opacity:1" d="M 854.286,796.834 892.587,796.834 z" id="boundary" inkscape:connector-curvature="0" />
	<path style="fill:none;stroke:red;stroke-width:1px;stroke-linecap:butt;stroke-linejoin:miter;stroke-opacity:1" d="M 865.776,957.699 904.077,957.699 z" id="boundary" inkscape:connector-curvature="0" />
	<path style="fill:none;stroke:red;stroke-width:1px;stroke-linecap:butt;stroke-linejoin:miter;stroke-opacity:1" d="M 873.436,639.799 911.737,639.799 z" id="boundary" inkscape:connector-curvature="0" />
	<path style="fill:none;stroke:red;stroke-width:1px;stroke-linecap:butt;stroke-linejoin:miter;stroke-opacity:1" d="M 873.436,762.363 911.737,762.363 z" id="boundary" inkscape:connector-curvature="0" />
	<path style="fill:none;stroke:red;stroke-width:1px;stroke-linecap:butt;stroke-linejoin:miter;stroke-opacity:1" d="M 877.266,877.266 915.568,877.266 z" id="boundary" inkscape:connector-curvature="0" />
	<path style="fill:none;stroke:red;stroke-width:1px;stroke-linecap:butt;stroke-linejoin:miter;stroke-opacity:1" d="M 892.587,674.27 930.888,674.27 z" id="boundary" inkscape:connector-curvature="0" />
	<path style="fill:none;stroke:red;stroke-width:1px;stroke-linecap:butt;stroke-linejoin:miter;stroke-opacity:1" d="M 892.587,796.834 930.888,796.834 z" id="boundary" inkscape:connector-curvature="0" />
	<path style="fill:none;stroke:red;stroke-width:1px;stroke-linecap:butt;stroke-linejoin:miter;stroke-opacity:1" d="M 904.077,957.699 942.378,973.019 z" id="boundary" inkscape:connector-curvature="0" />
	<path style="fill:none;stroke:red;stroke-width:1px;stroke-linecap:butt;stroke-linejoin:miter;stroke-opacity:1" d="M 911.737,639.799 950.039,639.799 z" id="boundary" inkscape:connector-curvature="0" />
	<path style="fill:none;stroke:red;stroke-width:1px;stroke-linecap:butt;stroke-linejoin:miter;stroke-opacity:1" d="M 911.737,762.363 950.039,762.363 z" id="boundary" inkscape:connector-curvature="0" />
	<path style="fill:none;stroke:red;stroke-width:1px;stroke-linecap:butt;stroke-linejoin:miter;stroke-opacity:1" d="M 915.568,877.266 953.869,877.266 z" id="boundary" inkscape:connector-curvature="0" />
	<path style="fill:none;stroke:red;stroke-width:1px;stroke-linecap:butt;stroke-linejoin:miter;stroke-opacity:1" d="M 942.378,973.019 980.68,957.699 z" id="boundary" inkscape:connector-curvature="0" />
	<path style="fill:none;stroke:red;stroke-width:1px;stroke-linecap:butt;stroke-linejoin:miter;stroke-opacity:1" d="M 953.869,877.266 992.17,881.097 z" id="boundary" inkscape:connector-curvature="0" />
	<path style="fill:none;stroke:red;stroke-width:1px;stroke-linecap:butt;stroke-linejoin:miter;stroke-opacity:1" d="M 980.68,957.699 996,919.398 z" id="boundary" inkscape:connector-curvature="0" />
	<path style="fill:none;stroke:red;stroke-width:1px;stroke-linecap:butt;stroke-linejoin:miter;stroke-opacity:1" d="M 992.17,881.097 996,919.398 z" id="boundary" inkscape:connector-curvature="0" />
	<circle cx="4" cy="884.927" r="4" fill="#0" id="circle0"/>
	<circle cx="4" cy="923.228" r="4" fill="#0" id="circle1"/>
	<circle cx="23.1506" cy="957.699" r="4" fill="#0" id="circle2"/>
	<circle cx="42.3012" cy="877.266" r="4" fill="#0" id="circle3"/>
	<circle cx="61.4517" cy="969.189" r="4" fill="#0" id="circle4"/>
	<circle cx="80.6023" cy="877.266" r="4" fill="#0" id="circle5"/>
	<circle cx="99.7529" cy="957.699" r="4" fill="#0" id="circle6"/>
	<circle cx="118.903" cy="877.266" r="4" fill="#0" id="circle7"/>
	<circle cx="126.564" cy="655.12" r="4" fill="#0" id="circle8"/>
	<circle cx="126.564" cy="770.023" r="4" fill="#0" id="circle9"/>
	<circle cx="138.054" cy="957.699" r="4" fill="#0" id="circle10"/>
	<circle cx="157.205" cy="796.834" r="4" fill="#0" id="circle11"/>
	<circle cx="157.205" cy="877.266" r="4" fill="#0" id="circle12"/>
	<circle cx="161.035" cy="674.27" r="4" fill="#0" id="circle13"/>
	<circle cx="176.355" cy="762.363" r="4" fill="#0" id="circle14"/>
	<circle cx="176.355" cy="957.699" r="4" fill="#0" id="circle15"/>
	<circle cx="180.185" cy="11.6602" r="4" fill="#0" id="circle16"/>
	<circle cx="180.185" cy="49.9614" r="4" fill="#0" id="circle17"/>
	<circle cx="180.185" cy="88.2625" r="4" fill="#0" id="circle18"/>
	<circle cx="180.185" cy="126.564" r="4" fill="#0" id="circle19"/>
	<circle cx="180.185" cy="164.865" r="4" fill="#0" id="circle20"/>
	<circle cx="180.185" cy="203.166" r="4" fill="#0" id="circle21"/>
	<circle cx="180.185" cy="241.467" r="4" fill="#0" id="circle22"/>
	<circle cx="180.185" cy="279.768" r="4" fill="#0" id="circle23"/>
	<circle cx="180.185" cy="318.069" r="4" fill="#0" id="circle24"/>
	<circle cx="180.185" cy="356.371" r="4" fill="#0" id="circle25"/>
	<circle cx="180.185" cy="394.672" r="4" fill="#0" id="circle26"/>
	<circle cx="180.185" cy="432.973" r="4" fill="#0" id="circle27"/>
	<circle cx="180.185" cy="471.274" r="4" fill="#0" id="circle28"/>
	<circle cx="180.185" cy="639.799" r="4" fill="#0" id="circle29"/>
	<circle cx="184.015" cy="509.575" r="4" fill="#0" id="circle30"/>
	<circle cx="195.506" cy="796.834" r="4" fill="#0" id="circle31"/>
	<circle cx="195.506" cy="877.266" r="4" fill="#0" id="circle32"/>
	<circle cx="199.336" cy="674.27" r="4" fill="#0" id="circle33"/>
	<circle cx="214.656" cy="762.363" r="4" fill="#0" id="circle34"/>
	<circle cx="214.656" cy="957.699" r="4" fill="#0" id="circle35"/>
	<circle cx="218.486" cy="4" r="4" fill="#0" id="circle36"/>
	<circle cx="218.486" cy="639.799" r="4" fill="#0" id="circle37"/>
	<circle cx="222.317" cy="513.405" r="4" fill="#0" id="circle38"/>
	<circle cx="233.807" cy="796.834" r="4" fill="#0" id="circle39"/>
	<circle cx="233.807" cy="877.266" r="4" fill="#0" id="circle40"/>
	<circle cx="237.637" cy="674.27" r="4" fill="#0" id="circle41"/>
	<circle cx="252.958" cy="762.363" r="4" fill="#0" id="circle42"/>
	<circle cx="252.958" cy="957.699" r="4" fill="#0" id="circle43"/>
	<circle cx="256.788" cy="4" r="4" fill="#0" id="circle44"/>
	<circle cx="256.788" cy="639.799" r="4" fill="#0" id="circle45"/>
	<circle cx="260.618" cy="513.405" r="4" fill="#0" id="circle46"/>
	<circle cx="272.108" cy="796.834" r="4" fill="#0" id="circle47"/>
	<circle cx="272.108" cy="877.266" r="4" fill="#0" id="circle48"/>
	<circle cx="275.938" cy="674.27" r="4" fill="#0" id="circle49"/>
	<circle cx="291.259" cy="762.363" r="4" fill="#0" id="circle50"/>
	<circle cx="291.259" cy="965.359" r="4" fill="#0" id="circle51"/>
	<circle cx="295.089" cy="4" r="4" fill="#0" id="circle52"/>
	<circle cx="295.089" cy="639.799" r="4" fill="#0" id="circle53"/>
	<circle cx="298.919" cy="513.405" r="4" fill="#0" id="circle54"/>
	<circle cx="310.409" cy="796.834" r="4" fill="#0" id="circle55"/>
	<circle cx="310.409" cy="877.266" r="4" fill="#0" id="circle56"/>
	<circle cx="314.239" cy="674.27" r="4" fill="#0" id="circle57"/>
	<circle cx="329.56" cy="758.533" r="4" fill="#0" id="circle58"/>
	<circle cx="329.56" cy="957.699" r="4" fill="#0" id="circle59"/>
	<circle cx="333.39" cy="4" r="4" fill="#0" id="circle60"/>
	<circle cx="333.39" cy="532.556" r="4" fill="#0" id="circle61"/>
	<circle cx="333.39" cy="570.857" r="4" fill="#0" id="circle62"/>
	<circle cx="333.39" cy="609.158" r="4" fill="#0" id="circle63"/>
	<circle cx="333.39" cy="708.741" r="4" fill="#0" id="circle64"/>
	<circle cx="333.39" cy="827.475" r="4" fill="#0" id="circle65"/>
	<circle cx="367.861" cy="957.699" r="4" fill="#0" id="circle66"/>
	<circle cx="371.691" cy="4" r="4" fill="#0" id="circle67"/>
	<circle cx="406.162" cy="957.699" r="4" fill="#0" id="circle68"/>
	<circle cx="409.992" cy="4" r="4" fill="#0" id="circle69"/>
	<circle cx="444.463" cy="957.699" r="4" fill="#0" id="circle70"/>
	<circle cx="448.293" cy="4" r="4" fill="#0" id="circle71"/>
	<circle cx="482.764" cy="957.699" r="4" fill="#0" id="circle72"/>
	<circle cx="486.595" cy="4" r="4" fill="#0" id="circle73"/>
	<circle cx="521.066" cy="957.699" r="4" fill="#0" id="circle74"/>
	<circle cx="524.896" cy="4" r="4" fill="#0" id="circle75"/>
	<circle cx="528.726" cy="517.236" r="4" fill="#0" id="circle76"/>
	<circle cx="528.726" cy="555.537" r="4" fill="#0" id="circle77"/>
	<circle cx="528.726" cy="593.838" r="4" fill="#0" id="circle78"/>
	<circle cx="528.726" cy="632.139" r="4" fill="#0" id="circle79"/>
	<circle cx="528.726" cy="678.1" r="4" fill="#0" id="circle80"/>
	<circle cx="528.726" cy="716.402" r="4" fill="#0" id="circle81"/>
	<circle cx="528.726" cy="754.703" r="4" fill="#0" id="circle82"/>
	<circle cx="528.726" cy="800.664" r="4" fill="#0" id="circle83"/>
	<circle cx="528.726" cy="838.965" r="4" fill="#0" id="circle84"/>
	<circle cx="532.556" cy="877.266" r="4" fill="#0" id="circle85"/>
	<circle cx="559.367" cy="957.699" r="4" fill="#0" id="circle86"/>
	<circle cx="563.197" cy="4" r="4" fill="#0" id="circle87"/>
	<circle cx="567.027" cy="513.405" r="4" fill="#0" id="circle88"/>
	<circle cx="567.027" cy="639.799" r="4" fill="#0" id="circle89"/>
	<circle cx="567.027" cy="762.363" r="4" fill="#0" id="circle90"/>
	<circle cx="570.857" cy="877.266" r="4" fill="#0" id="circle91"/>
	<circle cx="586.178" cy="674.27" r="4" fill="#0" id="circle92"/>
	<circle cx="586.178" cy="796.834" r="4" fill="#0" id="circle93"/>
	<circle cx="597.668" cy="957.699" r="4" fill="#0" id="circle94"/>
	<circle cx="601.498" cy="4" r="4" fill="#0" id="circle95"/>
	<circle cx="605.328" cy="513.405" r="4" fill="#0" id="circle96"/>
	<circle cx="605.328" cy="639.799" r="4" fill="#0" id="circle97"/>
	<circle cx="605.328" cy="762.363" r="4" fill="#0" id="circle98"/>
	<circle cx="609.158" cy="877.266" r="4" fill="#0" id="circle99"/>
	<circle cx="624.479" cy="674.27" r="4" fill="#0" id="circle100"/>
	<circle cx="624.479" cy="796.834" r="4" fill="#0" id="circle101"/>
	<circle cx="635.969" cy="957.699" r="4" fill="#0" id="circle102"/>
	<circle cx="639.799" cy="4" r="4" fill="#0" id="circle103"/>
	<circle cx="643.629" cy="513.405" r="4" fill="#0" id="circle104"/>
	<circle cx="643.629" cy="639.799" r="4" fill="#0" id="circle105"/>
	<circle cx="643.629" cy="762.363" r="4" fill="#0" id="circle106"/>
	<circle cx="647.459" cy="877.266" r="4" fill="#0" id="circle107"/>
	<circle cx="662.78" cy="674.27" r="4" fill="#0" id="circle108"/>
	<circle cx="662.78" cy="796.834" r="4" fill="#0" id="circle109"/>
	<circle cx="674.27" cy="957.699" r="4" fill="#0" id="circle110"/>
	<circle cx="678.1" cy="4" r="4" fill="#0" id="circle111"/>
	<circle cx="681.931" cy="513.405" r="4" fill="#0" id="circle112"/>
	<circle cx="681.931" cy="639.799" r="4" fill="#0" id="circle113"/>
	<circle cx="681.931" cy="762.363" r="4" fill="#0" id="circle114"/>
	<circle cx="685.761" cy="877.266" r="4" fill="#0" id="circle115"/>
	<circle cx="701.081" cy="674.27" r="4" fill="#0" id="circle116"/>
	<circle cx="701.081" cy="796.834" r="4" fill="#0" id="circle117"/>
	<circle cx="712.571" cy="957.699" r="4" fill="#0" id="circle118"/>
	<circle cx="716.402" cy="4" r="4" fill="#0" id="circle119"/>
	<circle cx="720.232" cy="513.405" r="4" fill="#0" id="circle120"/>
	<circle cx="720.232" cy="639.799" r="4" fill="#0" id="circle121"/>
	<circle cx="720.232" cy="762.363" r="4" fill="#0" id="circle122"/>
	<circle cx="724.062" cy="877.266" r="4" fill="#0" id="circle123"/>
	<circle cx="739.382" cy="674.27" r="4" fill="#0" id="circle124"/>
	<circle cx="739.382" cy="796.834" r="4" fill="#0" id="circle125"/>
	<circle cx="750.873" cy="957.699" r="4" fill="#0" id="circle126"/>
	<circle cx="754.703" cy="4" r="4" fill="#0" id="circle127"/>
	<circle cx="758.533" cy="513.405" r="4" fill="#0" id="circle128"/>
	<circle cx="758.533" cy="639.799" r="4" fill="#0" id="circle129"/>
	<circle cx="758.533" cy="762.363" r="4" fill="#0" id="circle130"/>
	<circle cx="762.363" cy="877.266" r="4" fill="#0" id="circle131"/>
	<circle cx="777.683" cy="674.27" r="4" fill="#0" id="circle132"/>
	<circle cx="777.683" cy="796.834" r="4" fill="#0" id="circle133"/>
	<circle cx="789.174" cy="23.1506" r="4" fill="#0" id="circle134"/>
	<circle cx="789.174" cy="61.4517" r="4" fill="#0" id="circle135"/>
	<circle cx="789.174" cy="99.7529" r="4" fill="#0" id="circle136"/>
	<circle cx="789.174" cy="138.054" r="4" fill="#0" id="circle137"/>
	<circle cx="789.174" cy="176.355" r="4" fill="#0" id="circle138"/>
	<circle cx="789.174" cy="214.656" r="4" fill="#0" id="circle139"/>
	<circle cx="789.174" cy="252.958" r="4" fill="#0" id="circle140"/>
	<circle cx="789.174" cy="291.259" r="4" fill="#0" id="circle141"/>
	<circle cx="789.174" cy="329.56" r="4" fill="#0" id="circle142"/>
	<circle cx="789.174" cy="367.861" r="4" fill="#0" id="circle143"/>
	<circle cx="789.174" cy="406.162" r="4" fill="#0" id="circle144"/>
	<circle cx="789.174" cy="444.463" r="4" fill="#0" id="circle145"/>
	<circle cx="789.174" cy="482.764" r="4" fill="#0" id="circle146"/>
	<circle cx="789.174" cy="957.699" r="4" fill="#0" id="circle147"/>
	<circle cx="796.834" cy="639.799" r="4" fill="#0" id="circle148"/>
	<circle cx="796.834" cy="762.363" r="4" fill="#0" id="circle149"/>
	<circle cx="800.664" cy="877.266" r="4" fill="#0" id="circle150"/>
	<circle cx="815.985" cy="674.27" r="4" fill="#0" id="circle151"/>
	<circle cx="815.985" cy="796.834" r="4" fill="#0" id="circle152"/>
	<circle cx="827.475" cy="957.699" r="4" fill="#0" id="circle153"/>
	<circle cx="835.135" cy="639.799" r="4" fill="#0" id="circle154"/>
	<circle cx="835.135" cy="762.363" r="4" fill="#0" id="circle155"/>
	<circle cx="838.965" cy="877.266" r="4" fill="#0" id="circle156"/>
	<circle cx="854.286" cy="674.27" r="4" fill="#0" id="circle157"/>
	<circle cx="854.286" cy="796.834" r="4" fill="#0" id="circle158"/>
	<circle cx="865.776" cy="957.699" r="4" fill="#0" id="circle159"/>
	<circle cx="873.436" cy="639.799" r="4" fill="#0" id="circle160"/>
	<circle cx="873.436" cy="762.363" r="4" fill="#0" id="circle161"/>
	<circle cx="877.266" cy="877.266" r="4" fill="#0" id="circle162"/>
	<circle cx="892.587" cy="674.27" r="4" fill="#0" id="circle163"/>
	<circle cx="892.587" cy="796.834" r="4" fill="#0" id="circle164"/>
	<circle cx="904.077" cy="957.699" r="4" fill="#0" id="circle165"/>
	<circle cx="911.737" cy="639.799" r="4" fill="#0" id="circle166"/>
	<circle cx="911.737" cy="762.363" r="4" fill="#0" id="circle167"/>
	<circle cx="915.568" cy="877.266" r="4" fill="#0" id="circle168"/>
	<circle cx="930.888" cy="674.27" r="4" fill="#0" id="circle169"/>
	<circle cx="930.888" cy="796.834" r="4" fill="#0" id="circle170"/>
	<circle cx="942.378" cy="973.019" r="4" fill="#0" id="circle171"/>
	<circle cx="950.039" cy="639.799" r="4" fill="#0" id="circle172"/>
	<circle cx="950.039" cy="762.363" r="4" fill="#0" id="circle173"/>
	<circle cx="953.869" cy="877.266" r="4" fill="#0" id="circle174"/>
	<circle cx="980.68" cy="957.699" r="4" fill="#0" id="circle175"/>
	<circle cx="992.17" cy="881.097" r="4" fill="#0" id="circle176"/>
	<circle cx="996" cy="919.398" r="4" fill="#0" id="circle177"/>
	</g>
</svg>