<?xml version="1.0" encoding="UTF-8" standalone="no"?>
<!-- Created with CurveBenchmark -->
<svg
	xmlns:dc="http://purl.org/dc/elements/1.1/"
	xmlns:cc="http://creativecommons.org/ns#"
	xmlns:rdf="http://www.w3.org/1999/02/22-rdf-syntax-ns#"
	xmlns:svg="http://www.w3.org/2000/svg"
	xmlns="http://www.w3.org/2000/svg"
	xmlns:sodipodi="http://sodipodi.sourceforge.net/DTD/sodipodi-0.dtd"
	xmlns:inkscape="http://www.inkscape.org/namespaces/inkscape"
	width="1000"
	height="1000"
	id="svg2"
	version="1.1"
	sodipodi:docname="manifold/hnncrust-textbox01.png.txt">
<defs
	id="defs4" />
<metadata
	id="metadata7">
	<rdf:RDF>
		<cc:Work
			rdf:about="">
			<dc:format>image/svg+xml</dc:format>
			<dc:type
				rdf:resource="http://purl.org/dc/dcmitype/StillImage" />
			<dc:title></dc:title>
		</cc:Work>
	</rdf:RDF>
</metadata>
<g
	inkscape:label="Layer 1"
	inkscape:groupmode="layer"
	id="layer1">
	<path style="fill:none;stroke:red;stroke-width:1px;stroke-linecap:butt;stroke-linejoin:miter;stroke-opacity:1" d="M 4,268.058 4,285.899 z" id="boundary" inkscape:connector-curvature="0" />
	<path style="fill:none;stroke:red;stroke-width:1px;stroke-linecap:butt;stroke-linejoin:miter;stroke-opacity:1" d="M 4,268.058 12.9209,250.216 z" id="boundary" inkscape:connector-curvature="0" />
	<path style="fill:none;stroke:red;stroke-width:1px;stroke-linecap:butt;stroke-linejoin:miter;stroke-opacity:1" d="M 4,285.899 4,303.741 z" id="boundary" inkscape:connector-curvature="0" />
	<path style="fill:none;stroke:red;stroke-width:1px;stroke-linecap:butt;stroke-linejoin:miter;stroke-opacity:1" d="M 4,303.741 12.9209,319.799 z" id="boundary" inkscape:connector-curvature="0" />
	<path style="fill:none;stroke:red;stroke-width:1px;stroke-linecap:butt;stroke-linejoin:miter;stroke-opacity:1" d="M 12.9209,232.374 12.9209,250.216 z" id="boundary" inkscape:connector-curvature="0" />
	<path style="fill:none;stroke:red;stroke-width:1px;stroke-linecap:butt;stroke-linejoin:miter;stroke-opacity:1" d="M 12.9209,232.374 30.7626,223.453 z" id="boundary" inkscape:connector-curvature="0" />
	<path style="fill:none;stroke:red;stroke-width:1px;stroke-linecap:butt;stroke-linejoin:miter;stroke-opacity:1" d="M 12.9209,319.799 12.9209,337.64 z" id="boundary" inkscape:connector-curvature="0" />
	<path style="fill:none;stroke:red;stroke-width:1px;stroke-linecap:butt;stroke-linejoin:miter;stroke-opacity:1" d="M 12.9209,337.64 12.9209,355.482 z" id="boundary" inkscape:connector-curvature="0" />
	<path style="fill:none;stroke:red;stroke-width:1px;stroke-linecap:butt;stroke-linejoin:miter;stroke-opacity:1" d="M 12.9209,355.482 30.7626,362.619 z" id="boundary" inkscape:connector-curvature="0" />
	<path style="fill:none;stroke:red;stroke-width:1px;stroke-linecap:butt;stroke-linejoin:miter;stroke-opacity:1" d="M 30.7626,205.612 30.7626,223.453 z" id="boundary" inkscape:connector-curvature="0" />
	<path style="fill:none;stroke:red;stroke-width:1px;stroke-linecap:butt;stroke-linejoin:miter;stroke-opacity:1" d="M 30.7626,205.612 39.6835,178.849 z" id="boundary" inkscape:connector-curvature="0" />
	<path style="fill:none;stroke:red;stroke-width:1px;stroke-linecap:butt;stroke-linejoin:miter;stroke-opacity:1" d="M 30.7626,362.619 36.1151,380.46 z" id="boundary" inkscape:connector-curvature="0" />
	<path style="fill:none;stroke:red;stroke-width:1px;stroke-linecap:butt;stroke-linejoin:miter;stroke-opacity:1" d="M 36.1151,380.46 45.036,396.518 z" id="boundary" inkscape:connector-curvature="0" />
	<path style="fill:none;stroke:red;stroke-width:1px;stroke-linecap:butt;stroke-linejoin:miter;stroke-opacity:1" d="M 39.6835,178.849 57.5252,169.928 z" id="boundary" inkscape:connector-curvature="0" />
	<path style="fill:none;stroke:red;stroke-width:1px;stroke-linecap:butt;stroke-linejoin:miter;stroke-opacity:1" d="M 45.036,396.518 57.5252,410.791 z" id="boundary" inkscape:connector-curvature="0" />
	<path style="fill:none;stroke:red;stroke-width:1px;stroke-linecap:butt;stroke-linejoin:miter;stroke-opacity:1" d="M 57.5252,169.928 66.446,152.086 z" id="boundary" inkscape:connector-curvature="0" />
	<path style="fill:none;stroke:red;stroke-width:1px;stroke-linecap:butt;stroke-linejoin:miter;stroke-opacity:1" d="M 57.5252,410.791 66.446,426.849 z" id="boundary" inkscape:connector-curvature="0" />
	<path style="fill:none;stroke:red;stroke-width:1px;stroke-linecap:butt;stroke-linejoin:miter;stroke-opacity:1" d="M 66.446,152.086 84.2878,143.165 z" id="boundary" inkscape:connector-curvature="0" />
	<path style="fill:none;stroke:red;stroke-width:1px;stroke-linecap:butt;stroke-linejoin:miter;stroke-opacity:1" d="M 66.446,426.849 84.2878,433.986 z" id="boundary" inkscape:connector-curvature="0" />
	<path style="fill:none;stroke:red;stroke-width:1px;stroke-linecap:butt;stroke-linejoin:miter;stroke-opacity:1" d="M 84.2878,143.165 93.2086,125.324 z" id="boundary" inkscape:connector-curvature="0" />
	<path style="fill:none;stroke:red;stroke-width:1px;stroke-linecap:butt;stroke-linejoin:miter;stroke-opacity:1" d="M 84.2878,433.986 89.6403,451.827 z" id="boundary" inkscape:connector-curvature="0" />
	<path style="fill:none;stroke:red;stroke-width:1px;stroke-linecap:butt;stroke-linejoin:miter;stroke-opacity:1" d="M 89.6403,451.827 105.698,460.748 z" id="boundary" inkscape:connector-curvature="0" />
	<path style="fill:none;stroke:red;stroke-width:1px;stroke-linecap:butt;stroke-linejoin:miter;stroke-opacity:1" d="M 93.2086,125.324 111.05,116.403 z" id="boundary" inkscape:connector-curvature="0" />
	<path style="fill:none;stroke:red;stroke-width:1px;stroke-linecap:butt;stroke-linejoin:miter;stroke-opacity:1" d="M 105.698,460.748 119.971,471.453 z" id="boundary" inkscape:connector-curvature="0" />
	<path style="fill:none;stroke:red;stroke-width:1px;stroke-linecap:butt;stroke-linejoin:miter;stroke-opacity:1" d="M 111.05,116.403 119.971,98.5612 z" id="boundary" inkscape:connector-curvature="0" />
	<path style="fill:none;stroke:red;stroke-width:1px;stroke-linecap:butt;stroke-linejoin:miter;stroke-opacity:1" d="M 119.971,98.5612 137.813,93.2086 z" id="boundary" inkscape:connector-curvature="0" />
	<path style="fill:none;stroke:red;stroke-width:1px;stroke-linecap:butt;stroke-linejoin:miter;stroke-opacity:1" d="M 119.971,471.453 137.813,478.59 z" id="boundary" inkscape:connector-curvature="0" />
	<path style="fill:none;stroke:red;stroke-width:1px;stroke-linecap:butt;stroke-linejoin:miter;stroke-opacity:1" d="M 137.813,93.2086 153.871,84.2878 z" id="boundary" inkscape:connector-curvature="0" />
	<path style="fill:none;stroke:red;stroke-width:1px;stroke-linecap:butt;stroke-linejoin:miter;stroke-opacity:1" d="M 137.813,478.59 153.871,487.511 z" id="boundary" inkscape:connector-curvature="0" />
	<path style="fill:none;stroke:red;stroke-width:1px;stroke-linecap:butt;stroke-linejoin:miter;stroke-opacity:1" d="M 153.871,84.2878 171.712,84.2878 z" id="boundary" inkscape:connector-curvature="0" />
	<path style="fill:none;stroke:red;stroke-width:1px;stroke-linecap:butt;stroke-linejoin:miter;stroke-opacity:1" d="M 153.871,487.511 171.712,487.511 z" id="boundary" inkscape:connector-curvature="0" />
	<path style="fill:none;stroke:red;stroke-width:1px;stroke-linecap:butt;stroke-linejoin:miter;stroke-opacity:1" d="M 171.712,84.2878 187.77,75.3669 z" id="boundary" inkscape:connector-curvature="0" />
	<path style="fill:none;stroke:red;stroke-width:1px;stroke-linecap:butt;stroke-linejoin:miter;stroke-opacity:1" d="M 171.712,487.511 178.849,505.353 z" id="boundary" inkscape:connector-curvature="0" />
	<path style="fill:none;stroke:red;stroke-width:1px;stroke-linecap:butt;stroke-linejoin:miter;stroke-opacity:1" d="M 178.849,505.353 196.691,505.353 z" id="boundary" inkscape:connector-curvature="0" />
	<path style="fill:none;stroke:red;stroke-width:1px;stroke-linecap:butt;stroke-linejoin:miter;stroke-opacity:1" d="M 187.77,75.3669 205.612,75.3669 z" id="boundary" inkscape:connector-curvature="0" />
	<path style="fill:none;stroke:red;stroke-width:1px;stroke-linecap:butt;stroke-linejoin:miter;stroke-opacity:1" d="M 196.691,505.353 214.532,512.489 z" id="boundary" inkscape:connector-curvature="0" />
	<path style="fill:none;stroke:red;stroke-width:1px;stroke-linecap:butt;stroke-linejoin:miter;stroke-opacity:1" d="M 205.612,75.3669 214.532,57.5252 z" id="boundary" inkscape:connector-curvature="0" />
	<path style="fill:none;stroke:red;stroke-width:1px;stroke-linecap:butt;stroke-linejoin:miter;stroke-opacity:1" d="M 214.532,57.5252 232.374,57.5252 z" id="boundary" inkscape:connector-curvature="0" />
	<path style="fill:none;stroke:red;stroke-width:1px;stroke-linecap:butt;stroke-linejoin:miter;stroke-opacity:1" d="M 214.532,512.489 232.374,514.273 z" id="boundary" inkscape:connector-curvature="0" />
	<path style="fill:none;stroke:red;stroke-width:1px;stroke-linecap:butt;stroke-linejoin:miter;stroke-opacity:1" d="M 232.374,57.5252 250.216,57.5252 z" id="boundary" inkscape:connector-curvature="0" />
	<path style="fill:none;stroke:red;stroke-width:1px;stroke-linecap:butt;stroke-linejoin:miter;stroke-opacity:1" d="M 232.374,514.273 241.295,530.331 z" id="boundary" inkscape:connector-curvature="0" />
	<path style="fill:none;stroke:red;stroke-width:1px;stroke-linecap:butt;stroke-linejoin:miter;stroke-opacity:1" d="M 241.295,530.331 259.137,532.115 z" id="boundary" inkscape:connector-curvature="0" />
	<path style="fill:none;stroke:red;stroke-width:1px;stroke-linecap:butt;stroke-linejoin:miter;stroke-opacity:1" d="M 250.216,57.5252 266.273,48.6043 z" id="boundary" inkscape:connector-curvature="0" />
	<path style="fill:none;stroke:red;stroke-width:1px;stroke-linecap:butt;stroke-linejoin:miter;stroke-opacity:1" d="M 259.137,532.115 276.978,532.115 z" id="boundary" inkscape:connector-curvature="0" />
	<path style="fill:none;stroke:red;stroke-width:1px;stroke-linecap:butt;stroke-linejoin:miter;stroke-opacity:1" d="M 266.273,48.6043 284.115,48.6043 z" id="boundary" inkscape:connector-curvature="0" />
	<path style="fill:none;stroke:red;stroke-width:1px;stroke-linecap:butt;stroke-linejoin:miter;stroke-opacity:1" d="M 276.978,532.115 293.036,541.036 z" id="boundary" inkscape:connector-curvature="0" />
	<path style="fill:none;stroke:red;stroke-width:1px;stroke-linecap:butt;stroke-linejoin:miter;stroke-opacity:1" d="M 284.115,48.6043 293.036,32.5468 z" id="boundary" inkscape:connector-curvature="0" />
	<path style="fill:none;stroke:red;stroke-width:1px;stroke-linecap:butt;stroke-linejoin:miter;stroke-opacity:1" d="M 293.036,32.5468 310.878,30.7626 z" id="boundary" inkscape:connector-curvature="0" />
	<path style="fill:none;stroke:red;stroke-width:1px;stroke-linecap:butt;stroke-linejoin:miter;stroke-opacity:1" d="M 293.036,541.036 310.878,541.036 z" id="boundary" inkscape:connector-curvature="0" />
	<path style="fill:none;stroke:red;stroke-width:1px;stroke-linecap:butt;stroke-linejoin:miter;stroke-opacity:1" d="M 310.878,30.7626 328.719,30.7626 z" id="boundary" inkscape:connector-curvature="0" />
	<path style="fill:none;stroke:red;stroke-width:1px;stroke-linecap:butt;stroke-linejoin:miter;stroke-opacity:1" d="M 310.878,541.036 328.719,541.036 z" id="boundary" inkscape:connector-curvature="0" />
	<path style="fill:none;stroke:red;stroke-width:1px;stroke-linecap:butt;stroke-linejoin:miter;stroke-opacity:1" d="M 328.719,30.7626 346.561,30.7626 z" id="boundary" inkscape:connector-curvature="0" />
	<path style="fill:none;stroke:red;stroke-width:1px;stroke-linecap:butt;stroke-linejoin:miter;stroke-opacity:1" d="M 328.719,541.036 346.561,546.388 z" id="boundary" inkscape:connector-curvature="0" />
	<path style="fill:none;stroke:red;stroke-width:1px;stroke-linecap:butt;stroke-linejoin:miter;stroke-opacity:1" d="M 346.561,30.7626 362.619,21.8417 z" id="boundary" inkscape:connector-curvature="0" />
	<path style="fill:none;stroke:red;stroke-width:1px;stroke-linecap:butt;stroke-linejoin:miter;stroke-opacity:1" d="M 346.561,546.388 364.403,549.957 z" id="boundary" inkscape:connector-curvature="0" />
	<path style="fill:none;stroke:red;stroke-width:1px;stroke-linecap:butt;stroke-linejoin:miter;stroke-opacity:1" d="M 362.619,21.8417 380.46,21.8417 z" id="boundary" inkscape:connector-curvature="0" />
	<path style="fill:none;stroke:red;stroke-width:1px;stroke-linecap:butt;stroke-linejoin:miter;stroke-opacity:1" d="M 364.403,549.957 382.245,549.957 z" id="boundary" inkscape:connector-curvature="0" />
	<path style="fill:none;stroke:red;stroke-width:1px;stroke-linecap:butt;stroke-linejoin:miter;stroke-opacity:1" d="M 380.46,21.8417 398.302,21.8417 z" id="boundary" inkscape:connector-curvature="0" />
	<path style="fill:none;stroke:red;stroke-width:1px;stroke-linecap:butt;stroke-linejoin:miter;stroke-opacity:1" d="M 382.245,549.957 400.086,549.957 z" id="boundary" inkscape:connector-curvature="0" />
	<path style="fill:none;stroke:red;stroke-width:1px;stroke-linecap:butt;stroke-linejoin:miter;stroke-opacity:1" d="M 398.302,21.8417 416.144,21.8417 z" id="boundary" inkscape:connector-curvature="0" />
	<path style="fill:none;stroke:red;stroke-width:1px;stroke-linecap:butt;stroke-linejoin:miter;stroke-opacity:1" d="M 400.086,549.957 417.928,549.957 z" id="boundary" inkscape:connector-curvature="0" />
	<path style="fill:none;stroke:red;stroke-width:1px;stroke-linecap:butt;stroke-linejoin:miter;stroke-opacity:1" d="M 416.144,21.8417 433.986,21.8417 z" id="boundary" inkscape:connector-curvature="0" />
	<path style="fill:none;stroke:red;stroke-width:1px;stroke-linecap:butt;stroke-linejoin:miter;stroke-opacity:1" d="M 417.928,549.957 432.201,560.662 z" id="boundary" inkscape:connector-curvature="0" />
	<path style="fill:none;stroke:red;stroke-width:1px;stroke-linecap:butt;stroke-linejoin:miter;stroke-opacity:1" d="M 432.201,560.662 450.043,567.799 z" id="boundary" inkscape:connector-curvature="0" />
	<path style="fill:none;stroke:red;stroke-width:1px;stroke-linecap:butt;stroke-linejoin:miter;stroke-opacity:1" d="M 433.986,21.8417 451.827,21.8417 z" id="boundary" inkscape:connector-curvature="0" />
	<path style="fill:none;stroke:red;stroke-width:1px;stroke-linecap:butt;stroke-linejoin:miter;stroke-opacity:1" d="M 450.043,567.799 467.885,567.799 z" id="boundary" inkscape:connector-curvature="0" />
	<path style="fill:none;stroke:red;stroke-width:1px;stroke-linecap:butt;stroke-linejoin:miter;stroke-opacity:1" d="M 451.827,21.8417 462.532,5.78417 z" id="boundary" inkscape:connector-curvature="0" />
	<path style="fill:none;stroke:red;stroke-width:1px;stroke-linecap:butt;stroke-linejoin:miter;stroke-opacity:1" d="M 462.532,5.78417 480.374,4 z" id="boundary" inkscape:connector-curvature="0" />
	<path style="fill:none;stroke:red;stroke-width:1px;stroke-linecap:butt;stroke-linejoin:miter;stroke-opacity:1" d="M 467.885,567.799 485.727,567.799 z" id="boundary" inkscape:connector-curvature="0" />
	<path style="fill:none;stroke:red;stroke-width:1px;stroke-linecap:butt;stroke-linejoin:miter;stroke-opacity:1" d="M 480.374,4 498.216,4 z" id="boundary" inkscape:connector-curvature="0" />
	<path style="fill:none;stroke:red;stroke-width:1px;stroke-linecap:butt;stroke-linejoin:miter;stroke-opacity:1" d="M 485.727,567.799 485.727,585.64 z" id="boundary" inkscape:connector-curvature="0" />
	<path style="fill:none;stroke:red;stroke-width:1px;stroke-linecap:butt;stroke-linejoin:miter;stroke-opacity:1" d="M 485.727,585.64 496.432,599.914 z" id="boundary" inkscape:connector-curvature="0" />
	<path style="fill:none;stroke:red;stroke-width:1px;stroke-linecap:butt;stroke-linejoin:miter;stroke-opacity:1" d="M 496.432,599.914 512.489,608.835 z" id="boundary" inkscape:connector-curvature="0" />
	<path style="fill:none;stroke:red;stroke-width:1px;stroke-linecap:butt;stroke-linejoin:miter;stroke-opacity:1" d="M 498.216,4 516.058,4 z" id="boundary" inkscape:connector-curvature="0" />
	<path style="fill:none;stroke:red;stroke-width:1px;stroke-linecap:butt;stroke-linejoin:miter;stroke-opacity:1" d="M 512.489,608.835 514.273,626.676 z" id="boundary" inkscape:connector-curvature="0" />
	<path style="fill:none;stroke:red;stroke-width:1px;stroke-linecap:butt;stroke-linejoin:miter;stroke-opacity:1" d="M 514.273,626.676 523.194,642.734 z" id="boundary" inkscape:connector-curvature="0" />
	<path style="fill:none;stroke:red;stroke-width:1px;stroke-linecap:butt;stroke-linejoin:miter;stroke-opacity:1" d="M 516.058,4 533.899,4 z" id="boundary" inkscape:connector-curvature="0" />
	<path style="fill:none;stroke:red;stroke-width:1px;stroke-linecap:butt;stroke-linejoin:miter;stroke-opacity:1" d="M 523.194,642.734 539.252,651.655 z" id="boundary" inkscape:connector-curvature="0" />
	<path style="fill:none;stroke:red;stroke-width:1px;stroke-linecap:butt;stroke-linejoin:miter;stroke-opacity:1" d="M 533.899,4 549.957,12.9209 z" id="boundary" inkscape:connector-curvature="0" />
	<path style="fill:none;stroke:red;stroke-width:1px;stroke-linecap:butt;stroke-linejoin:miter;stroke-opacity:1" d="M 539.252,651.655 539.252,669.496 z" id="boundary" inkscape:connector-curvature="0" />
	<path style="fill:none;stroke:red;stroke-width:1px;stroke-linecap:butt;stroke-linejoin:miter;stroke-opacity:1" d="M 539.252,669.496 553.525,681.986 z" id="boundary" inkscape:connector-curvature="0" />
	<path style="fill:none;stroke:red;stroke-width:1px;stroke-linecap:butt;stroke-linejoin:miter;stroke-opacity:1" d="M 549.957,12.9209 566.014,21.8417 z" id="boundary" inkscape:connector-curvature="0" />
	<path style="fill:none;stroke:red;stroke-width:1px;stroke-linecap:butt;stroke-linejoin:miter;stroke-opacity:1" d="M 553.525,681.986 569.583,690.906 z" id="boundary" inkscape:connector-curvature="0" />
	<path style="fill:none;stroke:red;stroke-width:1px;stroke-linecap:butt;stroke-linejoin:miter;stroke-opacity:1" d="M 566.014,21.8417 583.856,21.8417 z" id="boundary" inkscape:connector-curvature="0" />
	<path style="fill:none;stroke:red;stroke-width:1px;stroke-linecap:butt;stroke-linejoin:miter;stroke-opacity:1" d="M 569.583,690.906 574.935,708.748 z" id="boundary" inkscape:connector-curvature="0" />
	<path style="fill:none;stroke:red;stroke-width:1px;stroke-linecap:butt;stroke-linejoin:miter;stroke-opacity:1" d="M 574.935,708.748 589.209,719.453 z" id="boundary" inkscape:connector-curvature="0" />
	<path style="fill:none;stroke:red;stroke-width:1px;stroke-linecap:butt;stroke-linejoin:miter;stroke-opacity:1" d="M 583.856,21.8417 601.698,21.8417 z" id="boundary" inkscape:connector-curvature="0" />
	<path style="fill:none;stroke:red;stroke-width:1px;stroke-linecap:butt;stroke-linejoin:miter;stroke-opacity:1" d="M 589.209,719.453 598.129,735.511 z" id="boundary" inkscape:connector-curvature="0" />
	<path style="fill:none;stroke:red;stroke-width:1px;stroke-linecap:butt;stroke-linejoin:miter;stroke-opacity:1" d="M 598.129,735.511 601.698,753.353 z" id="boundary" inkscape:connector-curvature="0" />
	<path style="fill:none;stroke:red;stroke-width:1px;stroke-linecap:butt;stroke-linejoin:miter;stroke-opacity:1" d="M 601.698,21.8417 619.54,21.8417 z" id="boundary" inkscape:connector-curvature="0" />
	<path style="fill:none;stroke:red;stroke-width:1px;stroke-linecap:butt;stroke-linejoin:miter;stroke-opacity:1" d="M 601.698,753.353 615.971,764.058 z" id="boundary" inkscape:connector-curvature="0" />
	<path style="fill:none;stroke:red;stroke-width:1px;stroke-linecap:butt;stroke-linejoin:miter;stroke-opacity:1" d="M 615.971,764.058 630.245,737.295 z" id="boundary" inkscape:connector-curvature="0" />
	<path style="fill:none;stroke:red;stroke-width:1px;stroke-linecap:butt;stroke-linejoin:miter;stroke-opacity:1" d="M 619.54,21.8417 637.381,25.4101 z" id="boundary" inkscape:connector-curvature="0" />
	<path style="fill:none;stroke:red;stroke-width:1px;stroke-linecap:butt;stroke-linejoin:miter;stroke-opacity:1" d="M 630.245,737.295 639.165,710.532 z" id="boundary" inkscape:connector-curvature="0" />
	<path style="fill:none;stroke:red;stroke-width:1px;stroke-linecap:butt;stroke-linejoin:miter;stroke-opacity:1" d="M 637.381,25.4101 655.223,30.7626 z" id="boundary" inkscape:connector-curvature="0" />
	<path style="fill:none;stroke:red;stroke-width:1px;stroke-linecap:butt;stroke-linejoin:miter;stroke-opacity:1" d="M 639.165,657.007 639.165,674.849 z" id="boundary" inkscape:connector-curvature="0" />
	<path style="fill:none;stroke:red;stroke-width:1px;stroke-linecap:butt;stroke-linejoin:miter;stroke-opacity:1" d="M 639.165,657.007 657.007,648.086 z" id="boundary" inkscape:connector-curvature="0" />
	<path style="fill:none;stroke:red;stroke-width:1px;stroke-linecap:butt;stroke-linejoin:miter;stroke-opacity:1" d="M 639.165,674.849 639.165,692.691 z" id="boundary" inkscape:connector-curvature="0" />
	<path style="fill:none;stroke:red;stroke-width:1px;stroke-linecap:butt;stroke-linejoin:miter;stroke-opacity:1" d="M 639.165,692.691 639.165,710.532 z" id="boundary" inkscape:connector-curvature="0" />
	<path style="fill:none;stroke:red;stroke-width:1px;stroke-linecap:butt;stroke-linejoin:miter;stroke-opacity:1" d="M 655.223,30.7626 673.065,30.7626 z" id="boundary" inkscape:connector-curvature="0" />
	<path style="fill:none;stroke:red;stroke-width:1px;stroke-linecap:butt;stroke-linejoin:miter;stroke-opacity:1" d="M 657.007,576.719 657.007,594.561 z" id="boundary" inkscape:connector-curvature="0" />
	<path style="fill:none;stroke:red;stroke-width:1px;stroke-linecap:butt;stroke-linejoin:miter;stroke-opacity:1" d="M 657.007,576.719 665.928,549.957 z" id="boundary" inkscape:connector-curvature="0" />
	<path style="fill:none;stroke:red;stroke-width:1px;stroke-linecap:butt;stroke-linejoin:miter;stroke-opacity:1" d="M 657.007,594.561 657.007,612.403 z" id="boundary" inkscape:connector-curvature="0" />
	<path style="fill:none;stroke:red;stroke-width:1px;stroke-linecap:butt;stroke-linejoin:miter;stroke-opacity:1" d="M 657.007,612.403 657.007,630.245 z" id="boundary" inkscape:connector-curvature="0" />
	<path style="fill:none;stroke:red;stroke-width:1px;stroke-linecap:butt;stroke-linejoin:miter;stroke-opacity:1" d="M 657.007,630.245 657.007,648.086 z" id="boundary" inkscape:connector-curvature="0" />
	<path style="fill:none;stroke:red;stroke-width:1px;stroke-linecap:butt;stroke-linejoin:miter;stroke-opacity:1" d="M 665.928,549.957 683.77,541.036 z" id="boundary" inkscape:connector-curvature="0" />
	<path style="fill:none;stroke:red;stroke-width:1px;stroke-linecap:butt;stroke-linejoin:miter;stroke-opacity:1" d="M 673.065,30.7626 690.906,30.7626 z" id="boundary" inkscape:connector-curvature="0" />
	<path style="fill:none;stroke:red;stroke-width:1px;stroke-linecap:butt;stroke-linejoin:miter;stroke-opacity:1" d="M 683.77,541.036 701.612,541.036 z" id="boundary" inkscape:connector-curvature="0" />
	<path style="fill:none;stroke:red;stroke-width:1px;stroke-linecap:butt;stroke-linejoin:miter;stroke-opacity:1" d="M 690.906,30.7626 708.748,34.3309 z" id="boundary" inkscape:connector-curvature="0" />
	<path style="fill:none;stroke:red;stroke-width:1px;stroke-linecap:butt;stroke-linejoin:miter;stroke-opacity:1" d="M 701.612,541.036 719.453,532.115 z" id="boundary" inkscape:connector-curvature="0" />
	<path style="fill:none;stroke:red;stroke-width:1px;stroke-linecap:butt;stroke-linejoin:miter;stroke-opacity:1" d="M 708.748,34.3309 719.453,48.6043 z" id="boundary" inkscape:connector-curvature="0" />
	<path style="fill:none;stroke:red;stroke-width:1px;stroke-linecap:butt;stroke-linejoin:miter;stroke-opacity:1" d="M 719.453,48.6043 737.295,48.6043 z" id="boundary" inkscape:connector-curvature="0" />
	<path style="fill:none;stroke:red;stroke-width:1px;stroke-linecap:butt;stroke-linejoin:miter;stroke-opacity:1" d="M 719.453,532.115 737.295,532.115 z" id="boundary" inkscape:connector-curvature="0" />
	<path style="fill:none;stroke:red;stroke-width:1px;stroke-linecap:butt;stroke-linejoin:miter;stroke-opacity:1" d="M 737.295,48.6043 753.353,57.5252 z" id="boundary" inkscape:connector-curvature="0" />
	<path style="fill:none;stroke:red;stroke-width:1px;stroke-linecap:butt;stroke-linejoin:miter;stroke-opacity:1" d="M 737.295,532.115 755.137,532.115 z" id="boundary" inkscape:connector-curvature="0" />
	<path style="fill:none;stroke:red;stroke-width:1px;stroke-linecap:butt;stroke-linejoin:miter;stroke-opacity:1" d="M 753.353,57.5252 771.194,57.5252 z" id="boundary" inkscape:connector-curvature="0" />
	<path style="fill:none;stroke:red;stroke-width:1px;stroke-linecap:butt;stroke-linejoin:miter;stroke-opacity:1" d="M 755.137,532.115 772.978,514.273 z" id="boundary" inkscape:connector-curvature="0" />
	<path style="fill:none;stroke:red;stroke-width:1px;stroke-linecap:butt;stroke-linejoin:miter;stroke-opacity:1" d="M 771.194,57.5252 781.899,71.7986 z" id="boundary" inkscape:connector-curvature="0" />
	<path style="fill:none;stroke:red;stroke-width:1px;stroke-linecap:butt;stroke-linejoin:miter;stroke-opacity:1" d="M 772.978,514.273 790.82,514.273 z" id="boundary" inkscape:connector-curvature="0" />
	<path style="fill:none;stroke:red;stroke-width:1px;stroke-linecap:butt;stroke-linejoin:miter;stroke-opacity:1" d="M 781.899,71.7986 799.741,75.3669 z" id="boundary" inkscape:connector-curvature="0" />
	<path style="fill:none;stroke:red;stroke-width:1px;stroke-linecap:butt;stroke-linejoin:miter;stroke-opacity:1" d="M 790.82,514.273 806.878,505.353 z" id="boundary" inkscape:connector-curvature="0" />
	<path style="fill:none;stroke:red;stroke-width:1px;stroke-linecap:butt;stroke-linejoin:miter;stroke-opacity:1" d="M 799.741,75.3669 817.583,75.3669 z" id="boundary" inkscape:connector-curvature="0" />
	<path style="fill:none;stroke:red;stroke-width:1px;stroke-linecap:butt;stroke-linejoin:miter;stroke-opacity:1" d="M 806.878,505.353 824.719,500 z" id="boundary" inkscape:connector-curvature="0" />
	<path style="fill:none;stroke:red;stroke-width:1px;stroke-linecap:butt;stroke-linejoin:miter;stroke-opacity:1" d="M 817.583,75.3669 833.64,84.2878 z" id="boundary" inkscape:connector-curvature="0" />
	<path style="fill:none;stroke:red;stroke-width:1px;stroke-linecap:butt;stroke-linejoin:miter;stroke-opacity:1" d="M 824.719,500 833.64,482.158 z" id="boundary" inkscape:connector-curvature="0" />
	<path style="fill:none;stroke:red;stroke-width:1px;stroke-linecap:butt;stroke-linejoin:miter;stroke-opacity:1" d="M 833.64,84.2878 851.482,87.8561 z" id="boundary" inkscape:connector-curvature="0" />
	<path style="fill:none;stroke:red;stroke-width:1px;stroke-linecap:butt;stroke-linejoin:miter;stroke-opacity:1" d="M 833.64,482.158 851.482,478.59 z" id="boundary" inkscape:connector-curvature="0" />
	<path style="fill:none;stroke:red;stroke-width:1px;stroke-linecap:butt;stroke-linejoin:miter;stroke-opacity:1" d="M 851.482,87.8561 869.324,93.2086 z" id="boundary" inkscape:connector-curvature="0" />
	<path style="fill:none;stroke:red;stroke-width:1px;stroke-linecap:butt;stroke-linejoin:miter;stroke-opacity:1" d="M 851.482,478.59 862.187,460.748 z" id="boundary" inkscape:connector-curvature="0" />
	<path style="fill:none;stroke:red;stroke-width:1px;stroke-linecap:butt;stroke-linejoin:miter;stroke-opacity:1" d="M 862.187,460.748 880.029,460.748 z" id="boundary" inkscape:connector-curvature="0" />
	<path style="fill:none;stroke:red;stroke-width:1px;stroke-linecap:butt;stroke-linejoin:miter;stroke-opacity:1" d="M 869.324,93.2086 880.029,107.482 z" id="boundary" inkscape:connector-curvature="0" />
	<path style="fill:none;stroke:red;stroke-width:1px;stroke-linecap:butt;stroke-linejoin:miter;stroke-opacity:1" d="M 880.029,107.482 897.871,111.05 z" id="boundary" inkscape:connector-curvature="0" />
	<path style="fill:none;stroke:red;stroke-width:1px;stroke-linecap:butt;stroke-linejoin:miter;stroke-opacity:1" d="M 880.029,460.748 896.086,451.827 z" id="boundary" inkscape:connector-curvature="0" />
	<path style="fill:none;stroke:red;stroke-width:1px;stroke-linecap:butt;stroke-linejoin:miter;stroke-opacity:1" d="M 896.086,451.827 906.791,433.986 z" id="boundary" inkscape:connector-curvature="0" />
	<path style="fill:none;stroke:red;stroke-width:1px;stroke-linecap:butt;stroke-linejoin:miter;stroke-opacity:1" d="M 897.871,111.05 912.144,121.755 z" id="boundary" inkscape:connector-curvature="0" />
	<path style="fill:none;stroke:red;stroke-width:1px;stroke-linecap:butt;stroke-linejoin:miter;stroke-opacity:1" d="M 906.791,433.986 922.849,425.065 z" id="boundary" inkscape:connector-curvature="0" />
	<path style="fill:none;stroke:red;stroke-width:1px;stroke-linecap:butt;stroke-linejoin:miter;stroke-opacity:1" d="M 912.144,121.755 921.065,137.813 z" id="boundary" inkscape:connector-curvature="0" />
	<path style="fill:none;stroke:red;stroke-width:1px;stroke-linecap:butt;stroke-linejoin:miter;stroke-opacity:1" d="M 921.065,137.813 933.554,152.086 z" id="boundary" inkscape:connector-curvature="0" />
	<path style="fill:none;stroke:red;stroke-width:1px;stroke-linecap:butt;stroke-linejoin:miter;stroke-opacity:1" d="M 922.849,425.065 933.554,407.223 z" id="boundary" inkscape:connector-curvature="0" />
	<path style="fill:none;stroke:red;stroke-width:1px;stroke-linecap:butt;stroke-linejoin:miter;stroke-opacity:1" d="M 933.554,152.086 940.691,169.928 z" id="boundary" inkscape:connector-curvature="0" />
	<path style="fill:none;stroke:red;stroke-width:1px;stroke-linecap:butt;stroke-linejoin:miter;stroke-opacity:1" d="M 933.554,407.223 947.827,394.734 z" id="boundary" inkscape:connector-curvature="0" />
	<path style="fill:none;stroke:red;stroke-width:1px;stroke-linecap:butt;stroke-linejoin:miter;stroke-opacity:1" d="M 940.691,169.928 951.396,184.201 z" id="boundary" inkscape:connector-curvature="0" />
	<path style="fill:none;stroke:red;stroke-width:1px;stroke-linecap:butt;stroke-linejoin:miter;stroke-opacity:1" d="M 947.827,394.734 958.532,380.46 z" id="boundary" inkscape:connector-curvature="0" />
	<path style="fill:none;stroke:red;stroke-width:1px;stroke-linecap:butt;stroke-linejoin:miter;stroke-opacity:1" d="M 951.396,184.201 960.317,200.259 z" id="boundary" inkscape:connector-curvature="0" />
	<path style="fill:none;stroke:red;stroke-width:1px;stroke-linecap:butt;stroke-linejoin:miter;stroke-opacity:1" d="M 958.532,380.46 969.237,362.619 z" id="boundary" inkscape:connector-curvature="0" />
	<path style="fill:none;stroke:red;stroke-width:1px;stroke-linecap:butt;stroke-linejoin:miter;stroke-opacity:1" d="M 960.317,200.259 969.237,216.317 z" id="boundary" inkscape:connector-curvature="0" />
	<path style="fill:none;stroke:red;stroke-width:1px;stroke-linecap:butt;stroke-linejoin:miter;stroke-opacity:1" d="M 969.237,216.317 978.158,232.374 z" id="boundary" inkscape:connector-curvature="0" />
	<path style="fill:none;stroke:red;stroke-width:1px;stroke-linecap:butt;stroke-linejoin:miter;stroke-opacity:1" d="M 969.237,362.619 978.158,344.777 z" id="boundary" inkscape:connector-curvature="0" />
	<path style="fill:none;stroke:red;stroke-width:1px;stroke-linecap:butt;stroke-linejoin:miter;stroke-opacity:1" d="M 978.158,232.374 978.158,250.216 z" id="boundary" inkscape:connector-curvature="0" />
	<path style="fill:none;stroke:red;stroke-width:1px;stroke-linecap:butt;stroke-linejoin:miter;stroke-opacity:1" d="M 978.158,250.216 990.647,264.489 z" id="boundary" inkscape:connector-curvature="0" />
	<path style="fill:none;stroke:red;stroke-width:1px;stroke-linecap:butt;stroke-linejoin:miter;stroke-opacity:1" d="M 978.158,309.094 978.158,326.935 z" id="boundary" inkscape:connector-curvature="0" />
	<path style="fill:none;stroke:red;stroke-width:1px;stroke-linecap:butt;stroke-linejoin:miter;stroke-opacity:1" d="M 978.158,309.094 996,300.173 z" id="boundary" inkscape:connector-curvature="0" />
	<path style="fill:none;stroke:red;stroke-width:1px;stroke-linecap:butt;stroke-linejoin:miter;stroke-opacity:1" d="M 978.158,326.935 978.158,344.777 z" id="boundary" inkscape:connector-curvature="0" />
	<path style="fill:none;stroke:red;stroke-width:1px;stroke-linecap:butt;stroke-linejoin:miter;stroke-opacity:1" d="M 990.647,264.489 996,282.331 z" id="boundary" inkscape:connector-curvature="0" />
	<path style="fill:none;stroke:red;stroke-width:1px;stroke-linecap:butt;stroke-linejoin:miter;stroke-opacity:1" d="M 996,282.331 996,300.173 z" id="boundary" inkscape:connector-curvature="0" />
	<circle cx="4" cy="268.058" r="4" fill="#0" id="circle0"/>
	<circle cx="4" cy="285.899" r="4" fill="#0" id="circle1"/>
	<circle cx="4" cy="303.741" r="4" fill="#0" id="circle2"/>
	<circle cx="12.9209" cy="232.374" r="4" fill="#0" id="circle3"/>
	<circle cx="12.9209" cy="250.216" r="4" fill="#0" id="circle4"/>
	<circle cx="12.9209" cy="319.799" r="4" fill="#0" id="circle5"/>
	<circle cx="12.9209" cy="337.64" r="4" fill="#0" id="circle6"/>
	<circle cx="12.9209" cy="355.482" r="4" fill="#0" id="circle7"/>
	<circle cx="30.7626" cy="205.612" r="4" fill="#0" id="circle8"/>
	<circle cx="30.7626" cy="223.453" r="4" fill="#0" id="circle9"/>
	<circle cx="30.7626" cy="362.619" r="4" fill="#0" id="circle10"/>
	<circle cx="36.1151" cy="380.46" r="4" fill="#0" id="circle11"/>
	<circle cx="39.6835" cy="178.849" r="4" fill="#0" id="circle12"/>
	<circle cx="45.036" cy="396.518" r="4" fill="#0" id="circle13"/>
	<circle cx="57.5252" cy="169.928" r="4" fill="#0" id="circle14"/>
	<circle cx="57.5252" cy="410.791" r="4" fill="#0" id="circle15"/>
	<circle cx="66.446" cy="152.086" r="4" fill="#0" id="circle16"/>
	<circle cx="66.446" cy="426.849" r="4" fill="#0" id="circle17"/>
	<circle cx="84.2878" cy="143.165" r="4" fill="#0" id="circle18"/>
	<circle cx="84.2878" cy="433.986" r="4" fill="#0" id="circle19"/>
	<circle cx="89.6403" cy="451.827" r="4" fill="#0" id="circle20"/>
	<circle cx="93.2086" cy="125.324" r="4" fill="#0" id="circle21"/>
	<circle cx="105.698" cy="460.748" r="4" fill="#0" id="circle22"/>
	<circle cx="111.05" cy="116.403" r="4" fill="#0" id="circle23"/>
	<circle cx="119.971" cy="98.5612" r="4" fill="#0" id="circle24"/>
	<circle cx="119.971" cy="471.453" r="4" fill="#0" id="circle25"/>
	<circle cx="137.813" cy="93.2086" r="4" fill="#0" id="circle26"/>
	<circle cx="137.813" cy="478.59" r="4" fill="#0" id="circle27"/>
	<circle cx="153.871" cy="84.2878" r="4" fill="#0" id="circle28"/>
	<circle cx="153.871" cy="487.511" r="4" fill="#0" id="circle29"/>
	<circle cx="171.712" cy="84.2878" r="4" fill="#0" id="circle30"/>
	<circle cx="171.712" cy="487.511" r="4" fill="#0" id="circle31"/>
	<circle cx="178.849" cy="505.353" r="4" fill="#0" id="circle32"/>
	<circle cx="187.77" cy="75.3669" r="4" fill="#0" id="circle33"/>
	<circle cx="196.691" cy="505.353" r="4" fill="#0" id="circle34"/>
	<circle cx="205.612" cy="75.3669" r="4" fill="#0" id="circle35"/>
	<circle cx="214.532" cy="57.5252" r="4" fill="#0" id="circle36"/>
	<circle cx="214.532" cy="512.489" r="4" fill="#0" id="circle37"/>
	<circle cx="232.374" cy="57.5252" r="4" fill="#0" id="circle38"/>
	<circle cx="232.374" cy="514.273" r="4" fill="#0" id="circle39"/>
	<circle cx="241.295" cy="530.331" r="4" fill="#0" id="circle40"/>
	<circle cx="250.216" cy="57.5252" r="4" fill="#0" id="circle41"/>
	<circle cx="259.137" cy="532.115" r="4" fill="#0" id="circle42"/>
	<circle cx="266.273" cy="48.6043" r="4" fill="#0" id="circle43"/>
	<circle cx="276.978" cy="532.115" r="4" fill="#0" id="circle44"/>
	<circle cx="284.115" cy="48.6043" r="4" fill="#0" id="circle45"/>
	<circle cx="293.036" cy="32.5468" r="4" fill="#0" id="circle46"/>
	<circle cx="293.036" cy="541.036" r="4" fill="#0" id="circle47"/>
	<circle cx="310.878" cy="30.7626" r="4" fill="#0" id="circle48"/>
	<circle cx="310.878" cy="541.036" r="4" fill="#0" id="circle49"/>
	<circle cx="328.719" cy="30.7626" r="4" fill="#0" id="circle50"/>
	<circle cx="328.719" cy="541.036" r="4" fill="#0" id="circle51"/>
	<circle cx="346.561" cy="30.7626" r="4" fill="#0" id="circle52"/>
	<circle cx="346.561" cy="546.388" r="4" fill="#0" id="circle53"/>
	<circle cx="362.619" cy="21.8417" r="4" fill="#0" id="circle54"/>
	<circle cx="364.403" cy="549.957" r="4" fill="#0" id="circle55"/>
	<circle cx="380.46" cy="21.8417" r="4" fill="#0" id="circle56"/>
	<circle cx="382.245" cy="549.957" r="4" fill="#0" id="circle57"/>
	<circle cx="398.302" cy="21.8417" r="4" fill="#0" id="circle58"/>
	<circle cx="400.086" cy="549.957" r="4" fill="#0" id="circle59"/>
	<circle cx="416.144" cy="21.8417" r="4" fill="#0" id="circle60"/>
	<circle cx="417.928" cy="549.957" r="4" fill="#0" id="circle61"/>
	<circle cx="432.201" cy="560.662" r="4" fill="#0" id="circle62"/>
	<circle cx="433.986" cy="21.8417" r="4" fill="#0" id="circle63"/>
	<circle cx="450.043" cy="567.799" r="4" fill="#0" id="circle64"/>
	<circle cx="451.827" cy="21.8417" r="4" fill="#0" id="circle65"/>
	<circle cx="462.532" cy="5.78417" r="4" fill="#0" id="circle66"/>
	<circle cx="467.885" cy="567.799" r="4" fill="#0" id="circle67"/>
	<circle cx="480.374" cy="4" r="4" fill="#0" id="circle68"/>
	<circle cx="485.727" cy="567.799" r="4" fill="#0" id="circle69"/>
	<circle cx="485.727" cy="585.64" r="4" fill="#0" id="circle70"/>
	<circle cx="496.432" cy="599.914" r="4" fill="#0" id="circle71"/>
	<circle cx="498.216" cy="4" r="4" fill="#0" id="circle72"/>
	<circle cx="512.489" cy="608.835" r="4" fill="#0" id="circle73"/>
	<circle cx="514.273" cy="626.676" r="4" fill="#0" id="circle74"/>
	<circle cx="516.058" cy="4" r="4" fill="#0" id="circle75"/>
	<circle cx="523.194" cy="642.734" r="4" fill="#0" id="circle76"/>
	<circle cx="533.899" cy="4" r="4" fill="#0" id="circle77"/>
	<circle cx="539.252" cy="651.655" r="4" fill="#0" id="circle78"/>
	<circle cx="539.252" cy="669.496" r="4" fill="#0" id="circle79"/>
	<circle cx="549.957" cy="12.9209" r="4" fill="#0" id="circle80"/>
	<circle cx="553.525" cy="681.986" r="4" fill="#0" id="circle81"/>
	<circle cx="566.014" cy="21.8417" r="4" fill="#0" id="circle82"/>
	<circle cx="569.583" cy="690.906" r="4" fill="#0" id="circle83"/>
	<circle cx="574.935" cy="708.748" r="4" fill="#0" id="circle84"/>
	<circle cx="583.856" cy="21.8417" r="4" fill="#0" id="circle85"/>
	<circle cx="589.209" cy="719.453" r="4" fill="#0" id="circle86"/>
	<circle cx="598.129" cy="735.511" r="4" fill="#0" id="circle87"/>
	<circle cx="601.698" cy="21.8417" r="4" fill="#0" id="circle88"/>
	<circle cx="601.698" cy="753.353" r="4" fill="#0" id="circle89"/>
	<circle cx="615.971" cy="764.058" r="4" fill="#0" id="circle90"/>
	<circle cx="619.54" cy="21.8417" r="4" fill="#0" id="circle91"/>
	<circle cx="630.245" cy="737.295" r="4" fill="#0" id="circle92"/>
	<circle cx="637.381" cy="25.4101" r="4" fill="#0" id="circle93"/>
	<circle cx="639.165" cy="657.007" r="4" fill="#0" id="circle94"/>
	<circle cx="639.165" cy="674.849" r="4" fill="#0" id="circle95"/>
	<circle cx="639.165" cy="692.691" r="4" fill="#0" id="circle96"/>
	<circle cx="639.165" cy="710.532" r="4" fill="#0" id="circle97"/>
	<circle cx="655.223" cy="30.7626" r="4" fill="#0" id="circle98"/>
	<circle cx="657.007" cy="576.719" r="4" fill="#0" id="circle99"/>
	<circle cx="657.007" cy="594.561" r="4" fill="#0" id="circle100"/>
	<circle cx="657.007" cy="612.403" r="4" fill="#0" id="circle101"/>
	<circle cx="657.007" cy="630.245" r="4" fill="#0" id="circle102"/>
	<circle cx="657.007" cy="648.086" r="4" fill="#0" id="circle103"/>
	<circle cx="665.928" cy="549.957" r="4" fill="#0" id="circle104"/>
	<circle cx="673.065" cy="30.7626" r="4" fill="#0" id="circle105"/>
	<circle cx="683.77" cy="541.036" r="4" fill="#0" id="circle106"/>
	<circle cx="690.906" cy="30.7626" r="4" fill="#0" id="circle107"/>
	<circle cx="701.612" cy="541.036" r="4" fill="#0" id="circle108"/>
	<circle cx="708.748" cy="34.3309" r="4" fill="#0" id="circle109"/>
	<circle cx="719.453" cy="48.6043" r="4" fill="#0" id="circle110"/>
	<circle cx="719.453" cy="532.115" r="4" fill="#0" id="circle111"/>
	<circle cx="737.295" cy="48.6043" r="4" fill="#0" id="circle112"/>
	<circle cx="737.295" cy="532.115" r="4" fill="#0" id="circle113"/>
	<circle cx="753.353" cy="57.5252" r="4" fill="#0" id="circle114"/>
	<circle cx="755.137" cy="532.115" r="4" fill="#0" id="circle115"/>
	<circle cx="771.194" cy="57.5252" r="4" fill="#0" id="circle116"/>
	<circle cx="772.978" cy="514.273" r="4" fill="#0" id="circle117"/>
	<circle cx="781.899" cy="71.7986" r="4" fill="#0" id="circle118"/>
	<circle cx="790.82" cy="514.273" r="4" fill="#0" id="circle119"/>
	<circle cx="799.741" cy="75.3669" r="4" fill="#0" id="circle120"/>
	<circle cx="806.878" cy="505.353" r="4" fill="#0" id="circle121"/>
	<circle cx="817.583" cy="75.3669" r="4" fill="#0" id="circle122"/>
	<circle cx="824.719" cy="500" r="4" fill="#0" id="circle123"/>
	<circle cx="833.64" cy="84.2878" r="4" fill="#0" id="circle124"/>
	<circle cx="833.64" cy="482.158" r="4" fill="#0" id="circle125"/>
	<circle cx="851.482" cy="87.8561" r="4" fill="#0" id="circle126"/>
	<circle cx="851.482" cy="478.59" r="4" fill="#0" id="circle127"/>
	<circle cx="862.187" cy="460.748" r="4" fill="#0" id="circle128"/>
	<circle cx="869.324" cy="93.2086" r="4" fill="#0" id="circle129"/>
	<circle cx="880.029" cy="107.482" r="4" fill="#0" id="circle130"/>
	<circle cx="880.029" cy="460.748" r="4" fill="#0" id="circle131"/>
	<circle cx="896.086" cy="451.827" r="4" fill="#0" id="circle132"/>
	<circle cx="897.871" cy="111.05" r="4" fill="#0" id="circle133"/>
	<circle cx="906.791" cy="433.986" r="4" fill="#0" id="circle134"/>
	<circle cx="912.144" cy="121.755" r="4" fill="#0" id="circle135"/>
	<circle cx="921.065" cy="137.813" r="4" fill="#0" id="circle136"/>
	<circle cx="922.849" cy="425.065" r="4" fill="#0" id="circle137"/>
	<circle cx="933.554" cy="152.086" r="4" fill="#0" id="circle138"/>
	<circle cx="933.554" cy="407.223" r="4" fill="#0" id="circle139"/>
	<circle cx="940.691" cy="169.928" r="4" fill="#0" id="circle140"/>
	<circle cx="947.827" cy="394.734" r="4" fill="#0" id="circle141"/>
	<circle cx="951.396" cy="184.201" r="4" fill="#0" id="circle142"/>
	<circle cx="958.532" cy="380.46" r="4" fill="#0" id="circle143"/>
	<circle cx="960.317" cy="200.259" r="4" fill="#0" id="circle144"/>
	<circle cx="969.237" cy="216.317" r="4" fill="#0" id="circle145"/>
	<circle cx="969.237" cy="362.619" r="4" fill="#0" id="circle146"/>
	<circle cx="978.158" cy="232.374" r="4" fill="#0" id="circle147"/>
	<circle cx="978.158" cy="250.216" r="4" fill="#0" id="circle148"/>
	<circle cx="978.158" cy="309.094" r="4" fill="#0" id="circle149"/>
	<circle cx="978.158" cy="326.935" r="4" fill="#0" id="circle150"/>
	<circle cx="978.158" cy="344.777" r="4" fill="#0" id="circle151"/>
	<circle cx="990.647" cy="264.489" r="4" fill="#0" id="circle152"/>
	<circle cx="996" cy="282.331" r="4" fill="#0" id="circle153"/>
	<circle cx="996" cy="300.173" r="4" fill="#0" id="circle154"/>
	</g>
</svg>