<?xml version="1.0" encoding="UTF-8" standalone="no"?>
<!-- Created with CurveBenchmark -->
<svg
	xmlns:dc="http://purl.org/dc/elements/1.1/"
	xmlns:cc="http://creativecommons.org/ns#"
	xmlns:rdf="http://www.w3.org/1999/02/22-rdf-syntax-ns#"
	xmlns:svg="http://www.w3.org/2000/svg"
	xmlns="http://www.w3.org/2000/svg"
	xmlns:sodipodi="http://sodipodi.sourceforge.net/DTD/sodipodi-0.dtd"
	xmlns:inkscape="http://www.inkscape.org/namespaces/inkscape"
	width="1000"
	height="1000"
	id="svg2"
	version="1.1"
	sodipodi:docname="manifold/hnncrust-teddy175.png.txt">
<defs
	id="defs4" />
<metadata
	id="metadata7">
	<rdf:RDF>
		<cc:Work
			rdf:about="">
			<dc:format>image/svg+xml</dc:format>
			<dc:type
				rdf:resource="http://purl.org/dc/dcmitype/StillImage" />
			<dc:title></dc:title>
		</cc:Work>
	</rdf:RDF>
</metadata>
<g
	inkscape:label="Layer 1"
	inkscape:groupmode="layer"
	id="layer1">
	<path style="fill:none;stroke:red;stroke-width:1px;stroke-linecap:butt;stroke-linejoin:miter;stroke-opacity:1" d="M 4,501.413 9.65242,529.675 z" id="boundary" inkscape:connector-curvature="0" />
	<path style="fill:none;stroke:red;stroke-width:1px;stroke-linecap:butt;stroke-linejoin:miter;stroke-opacity:1" d="M 4,501.413 18.1311,475.977 z" id="boundary" inkscape:connector-curvature="0" />
	<path style="fill:none;stroke:red;stroke-width:1px;stroke-linecap:butt;stroke-linejoin:miter;stroke-opacity:1" d="M 9.65242,529.675 9.65242,557.937 z" id="boundary" inkscape:connector-curvature="0" />
	<path style="fill:none;stroke:red;stroke-width:1px;stroke-linecap:butt;stroke-linejoin:miter;stroke-opacity:1" d="M 9.65242,557.937 26.6097,580.547 z" id="boundary" inkscape:connector-curvature="0" />
	<path style="fill:none;stroke:red;stroke-width:1px;stroke-linecap:butt;stroke-linejoin:miter;stroke-opacity:1" d="M 18.1311,475.977 32.2621,450.541 z" id="boundary" inkscape:connector-curvature="0" />
	<path style="fill:none;stroke:red;stroke-width:1px;stroke-linecap:butt;stroke-linejoin:miter;stroke-opacity:1" d="M 26.6097,580.547 43.567,603.157 z" id="boundary" inkscape:connector-curvature="0" />
	<path style="fill:none;stroke:red;stroke-width:1px;stroke-linecap:butt;stroke-linejoin:miter;stroke-opacity:1" d="M 32.2621,450.541 54.8718,427.932 z" id="boundary" inkscape:connector-curvature="0" />
	<path style="fill:none;stroke:red;stroke-width:1px;stroke-linecap:butt;stroke-linejoin:miter;stroke-opacity:1" d="M 43.567,603.157 60.5242,625.766 z" id="boundary" inkscape:connector-curvature="0" />
	<path style="fill:none;stroke:red;stroke-width:1px;stroke-linecap:butt;stroke-linejoin:miter;stroke-opacity:1" d="M 54.8718,427.932 77.4815,405.322 z" id="boundary" inkscape:connector-curvature="0" />
	<path style="fill:none;stroke:red;stroke-width:1px;stroke-linecap:butt;stroke-linejoin:miter;stroke-opacity:1" d="M 60.5242,60.5242 60.5242,88.7863 z" id="boundary" inkscape:connector-curvature="0" />
	<path style="fill:none;stroke:red;stroke-width:1px;stroke-linecap:butt;stroke-linejoin:miter;stroke-opacity:1" d="M 60.5242,60.5242 74.6553,35.0883 z" id="boundary" inkscape:connector-curvature="0" />
	<path style="fill:none;stroke:red;stroke-width:1px;stroke-linecap:butt;stroke-linejoin:miter;stroke-opacity:1" d="M 60.5242,88.7863 66.1766,117.048 z" id="boundary" inkscape:connector-curvature="0" />
	<path style="fill:none;stroke:red;stroke-width:1px;stroke-linecap:butt;stroke-linejoin:miter;stroke-opacity:1" d="M 60.5242,625.766 83.1339,642.724 z" id="boundary" inkscape:connector-curvature="0" />
	<path style="fill:none;stroke:red;stroke-width:1px;stroke-linecap:butt;stroke-linejoin:miter;stroke-opacity:1" d="M 66.1766,117.048 77.4815,145.311 z" id="boundary" inkscape:connector-curvature="0" />
	<path style="fill:none;stroke:red;stroke-width:1px;stroke-linecap:butt;stroke-linejoin:miter;stroke-opacity:1" d="M 66.1766,196.182 66.1766,224.444 z" id="boundary" inkscape:connector-curvature="0" />
	<path style="fill:none;stroke:red;stroke-width:1px;stroke-linecap:butt;stroke-linejoin:miter;stroke-opacity:1" d="M 66.1766,196.182 77.4815,145.311 z" id="boundary" inkscape:connector-curvature="0" />
	<path style="fill:none;stroke:red;stroke-width:1px;stroke-linecap:butt;stroke-linejoin:miter;stroke-opacity:1" d="M 66.1766,224.444 66.1766,252.707 z" id="boundary" inkscape:connector-curvature="0" />
	<path style="fill:none;stroke:red;stroke-width:1px;stroke-linecap:butt;stroke-linejoin:miter;stroke-opacity:1" d="M 66.1766,252.707 69.0028,280.969 z" id="boundary" inkscape:connector-curvature="0" />
	<path style="fill:none;stroke:red;stroke-width:1px;stroke-linecap:butt;stroke-linejoin:miter;stroke-opacity:1" d="M 69.0028,280.969 80.3077,309.231 z" id="boundary" inkscape:connector-curvature="0" />
	<path style="fill:none;stroke:red;stroke-width:1px;stroke-linecap:butt;stroke-linejoin:miter;stroke-opacity:1" d="M 74.6553,35.0883 97.265,18.1311 z" id="boundary" inkscape:connector-curvature="0" />
	<path style="fill:none;stroke:red;stroke-width:1px;stroke-linecap:butt;stroke-linejoin:miter;stroke-opacity:1" d="M 77.4815,405.322 102.917,391.191 z" id="boundary" inkscape:connector-curvature="0" />
	<path style="fill:none;stroke:red;stroke-width:1px;stroke-linecap:butt;stroke-linejoin:miter;stroke-opacity:1" d="M 80.3077,309.231 91.6125,337.493 z" id="boundary" inkscape:connector-curvature="0" />
	<path style="fill:none;stroke:red;stroke-width:1px;stroke-linecap:butt;stroke-linejoin:miter;stroke-opacity:1" d="M 83.1339,642.724 105.744,659.681 z" id="boundary" inkscape:connector-curvature="0" />
	<path style="fill:none;stroke:red;stroke-width:1px;stroke-linecap:butt;stroke-linejoin:miter;stroke-opacity:1" d="M 88.7863,767.077 94.4387,738.815 z" id="boundary" inkscape:connector-curvature="0" />
	<path style="fill:none;stroke:red;stroke-width:1px;stroke-linecap:butt;stroke-linejoin:miter;stroke-opacity:1" d="M 88.7863,767.077 105.744,789.687 z" id="boundary" inkscape:connector-curvature="0" />
	<path style="fill:none;stroke:red;stroke-width:1px;stroke-linecap:butt;stroke-linejoin:miter;stroke-opacity:1" d="M 91.6125,337.493 105.744,362.929 z" id="boundary" inkscape:connector-curvature="0" />
	<path style="fill:none;stroke:red;stroke-width:1px;stroke-linecap:butt;stroke-linejoin:miter;stroke-opacity:1" d="M 94.4387,738.815 100.091,704.9 z" id="boundary" inkscape:connector-curvature="0" />
	<path style="fill:none;stroke:red;stroke-width:1px;stroke-linecap:butt;stroke-linejoin:miter;stroke-opacity:1" d="M 97.265,18.1311 125.527,6.82621 z" id="boundary" inkscape:connector-curvature="0" />
	<path style="fill:none;stroke:red;stroke-width:1px;stroke-linecap:butt;stroke-linejoin:miter;stroke-opacity:1" d="M 100.091,704.9 105.744,659.681 z" id="boundary" inkscape:connector-curvature="0" />
	<path style="fill:none;stroke:red;stroke-width:1px;stroke-linecap:butt;stroke-linejoin:miter;stroke-opacity:1" d="M 102.917,391.191 105.744,362.929 z" id="boundary" inkscape:connector-curvature="0" />
	<path style="fill:none;stroke:red;stroke-width:1px;stroke-linecap:butt;stroke-linejoin:miter;stroke-opacity:1" d="M 105.744,789.687 105.744,817.949 z" id="boundary" inkscape:connector-curvature="0" />
	<path style="fill:none;stroke:red;stroke-width:1px;stroke-linecap:butt;stroke-linejoin:miter;stroke-opacity:1" d="M 105.744,817.949 111.396,846.211 z" id="boundary" inkscape:connector-curvature="0" />
	<path style="fill:none;stroke:red;stroke-width:1px;stroke-linecap:butt;stroke-linejoin:miter;stroke-opacity:1" d="M 111.396,846.211 111.396,874.473 z" id="boundary" inkscape:connector-curvature="0" />
	<path style="fill:none;stroke:red;stroke-width:1px;stroke-linecap:butt;stroke-linejoin:miter;stroke-opacity:1" d="M 111.396,874.473 117.048,902.735 z" id="boundary" inkscape:connector-curvature="0" />
	<path style="fill:none;stroke:red;stroke-width:1px;stroke-linecap:butt;stroke-linejoin:miter;stroke-opacity:1" d="M 117.048,902.735 122.701,930.997 z" id="boundary" inkscape:connector-curvature="0" />
	<path style="fill:none;stroke:red;stroke-width:1px;stroke-linecap:butt;stroke-linejoin:miter;stroke-opacity:1" d="M 122.701,930.997 131.179,959.259 z" id="boundary" inkscape:connector-curvature="0" />
	<path style="fill:none;stroke:red;stroke-width:1px;stroke-linecap:butt;stroke-linejoin:miter;stroke-opacity:1" d="M 125.527,6.82621 153.789,4 z" id="boundary" inkscape:connector-curvature="0" />
	<path style="fill:none;stroke:red;stroke-width:1px;stroke-linecap:butt;stroke-linejoin:miter;stroke-opacity:1" d="M 131.179,959.259 153.789,976.217 z" id="boundary" inkscape:connector-curvature="0" />
	<path style="fill:none;stroke:red;stroke-width:1px;stroke-linecap:butt;stroke-linejoin:miter;stroke-opacity:1" d="M 153.789,4 182.051,9.65242 z" id="boundary" inkscape:connector-curvature="0" />
	<path style="fill:none;stroke:red;stroke-width:1px;stroke-linecap:butt;stroke-linejoin:miter;stroke-opacity:1" d="M 153.789,976.217 179.225,990.348 z" id="boundary" inkscape:connector-curvature="0" />
	<path style="fill:none;stroke:red;stroke-width:1px;stroke-linecap:butt;stroke-linejoin:miter;stroke-opacity:1" d="M 179.225,990.348 207.487,996 z" id="boundary" inkscape:connector-curvature="0" />
	<path style="fill:none;stroke:red;stroke-width:1px;stroke-linecap:butt;stroke-linejoin:miter;stroke-opacity:1" d="M 182.051,9.65242 207.487,23.7835 z" id="boundary" inkscape:connector-curvature="0" />
	<path style="fill:none;stroke:red;stroke-width:1px;stroke-linecap:butt;stroke-linejoin:miter;stroke-opacity:1" d="M 207.487,23.7835 232.923,37.9145 z" id="boundary" inkscape:connector-curvature="0" />
	<path style="fill:none;stroke:red;stroke-width:1px;stroke-linecap:butt;stroke-linejoin:miter;stroke-opacity:1" d="M 207.487,996 235.749,996 z" id="boundary" inkscape:connector-curvature="0" />
	<path style="fill:none;stroke:red;stroke-width:1px;stroke-linecap:butt;stroke-linejoin:miter;stroke-opacity:1" d="M 232.923,37.9145 261.185,43.567 z" id="boundary" inkscape:connector-curvature="0" />
	<path style="fill:none;stroke:red;stroke-width:1px;stroke-linecap:butt;stroke-linejoin:miter;stroke-opacity:1" d="M 235.749,996 264.011,996 z" id="boundary" inkscape:connector-curvature="0" />
	<path style="fill:none;stroke:red;stroke-width:1px;stroke-linecap:butt;stroke-linejoin:miter;stroke-opacity:1" d="M 261.185,43.567 289.447,43.567 z" id="boundary" inkscape:connector-curvature="0" />
	<path style="fill:none;stroke:red;stroke-width:1px;stroke-linecap:butt;stroke-linejoin:miter;stroke-opacity:1" d="M 264.011,996 292.274,996 z" id="boundary" inkscape:connector-curvature="0" />
	<path style="fill:none;stroke:red;stroke-width:1px;stroke-linecap:butt;stroke-linejoin:miter;stroke-opacity:1" d="M 289.447,43.567 317.709,37.9145 z" id="boundary" inkscape:connector-curvature="0" />
	<path style="fill:none;stroke:red;stroke-width:1px;stroke-linecap:butt;stroke-linejoin:miter;stroke-opacity:1" d="M 292.274,996 320.536,996 z" id="boundary" inkscape:connector-curvature="0" />
	<path style="fill:none;stroke:red;stroke-width:1px;stroke-linecap:butt;stroke-linejoin:miter;stroke-opacity:1" d="M 317.709,37.9145 343.145,20.9573 z" id="boundary" inkscape:connector-curvature="0" />
	<path style="fill:none;stroke:red;stroke-width:1px;stroke-linecap:butt;stroke-linejoin:miter;stroke-opacity:1" d="M 320.536,996 348.798,990.348 z" id="boundary" inkscape:connector-curvature="0" />
	<path style="fill:none;stroke:red;stroke-width:1px;stroke-linecap:butt;stroke-linejoin:miter;stroke-opacity:1" d="M 343.145,20.9573 371.407,9.65242 z" id="boundary" inkscape:connector-curvature="0" />
	<path style="fill:none;stroke:red;stroke-width:1px;stroke-linecap:butt;stroke-linejoin:miter;stroke-opacity:1" d="M 348.798,990.348 377.06,984.695 z" id="boundary" inkscape:connector-curvature="0" />
	<path style="fill:none;stroke:red;stroke-width:1px;stroke-linecap:butt;stroke-linejoin:miter;stroke-opacity:1" d="M 371.407,9.65242 399.67,4 z" id="boundary" inkscape:connector-curvature="0" />
	<path style="fill:none;stroke:red;stroke-width:1px;stroke-linecap:butt;stroke-linejoin:miter;stroke-opacity:1" d="M 377.06,984.695 405.322,979.043 z" id="boundary" inkscape:connector-curvature="0" />
	<path style="fill:none;stroke:red;stroke-width:1px;stroke-linecap:butt;stroke-linejoin:miter;stroke-opacity:1" d="M 399.67,4 427.932,9.65242 z" id="boundary" inkscape:connector-curvature="0" />
	<path style="fill:none;stroke:red;stroke-width:1px;stroke-linecap:butt;stroke-linejoin:miter;stroke-opacity:1" d="M 405.322,979.043 433.584,979.043 z" id="boundary" inkscape:connector-curvature="0" />
	<path style="fill:none;stroke:red;stroke-width:1px;stroke-linecap:butt;stroke-linejoin:miter;stroke-opacity:1" d="M 427.932,9.65242 456.194,20.9573 z" id="boundary" inkscape:connector-curvature="0" />
	<path style="fill:none;stroke:red;stroke-width:1px;stroke-linecap:butt;stroke-linejoin:miter;stroke-opacity:1" d="M 433.584,979.043 461.846,973.39 z" id="boundary" inkscape:connector-curvature="0" />
	<path style="fill:none;stroke:red;stroke-width:1px;stroke-linecap:butt;stroke-linejoin:miter;stroke-opacity:1" d="M 456.194,20.9573 478.803,40.7407 z" id="boundary" inkscape:connector-curvature="0" />
	<path style="fill:none;stroke:red;stroke-width:1px;stroke-linecap:butt;stroke-linejoin:miter;stroke-opacity:1" d="M 461.846,973.39 490.108,973.39 z" id="boundary" inkscape:connector-curvature="0" />
	<path style="fill:none;stroke:red;stroke-width:1px;stroke-linecap:butt;stroke-linejoin:miter;stroke-opacity:1" d="M 475.977,156.615 484.456,184.877 z" id="boundary" inkscape:connector-curvature="0" />
	<path style="fill:none;stroke:red;stroke-width:1px;stroke-linecap:butt;stroke-linejoin:miter;stroke-opacity:1" d="M 475.977,156.615 487.282,122.701 z" id="boundary" inkscape:connector-curvature="0" />
	<path style="fill:none;stroke:red;stroke-width:1px;stroke-linecap:butt;stroke-linejoin:miter;stroke-opacity:1" d="M 478.803,40.7407 492.934,66.1766 z" id="boundary" inkscape:connector-curvature="0" />
	<path style="fill:none;stroke:red;stroke-width:1px;stroke-linecap:butt;stroke-linejoin:miter;stroke-opacity:1" d="M 484.456,184.877 498.587,210.313 z" id="boundary" inkscape:connector-curvature="0" />
	<path style="fill:none;stroke:red;stroke-width:1px;stroke-linecap:butt;stroke-linejoin:miter;stroke-opacity:1" d="M 484.456,374.234 501.413,351.624 z" id="boundary" inkscape:connector-curvature="0" />
	<path style="fill:none;stroke:red;stroke-width:1px;stroke-linecap:butt;stroke-linejoin:miter;stroke-opacity:1" d="M 484.456,374.234 512.718,382.712 z" id="boundary" inkscape:connector-curvature="0" />
	<path style="fill:none;stroke:red;stroke-width:1px;stroke-linecap:butt;stroke-linejoin:miter;stroke-opacity:1" d="M 487.282,122.701 492.934,94.4387 z" id="boundary" inkscape:connector-curvature="0" />
	<path style="fill:none;stroke:red;stroke-width:1px;stroke-linecap:butt;stroke-linejoin:miter;stroke-opacity:1" d="M 490.108,973.39 518.37,967.738 z" id="boundary" inkscape:connector-curvature="0" />
	<path style="fill:none;stroke:red;stroke-width:1px;stroke-linecap:butt;stroke-linejoin:miter;stroke-opacity:1" d="M 492.934,66.1766 492.934,94.4387 z" id="boundary" inkscape:connector-curvature="0" />
	<path style="fill:none;stroke:red;stroke-width:1px;stroke-linecap:butt;stroke-linejoin:miter;stroke-opacity:1" d="M 498.587,210.313 515.544,232.923 z" id="boundary" inkscape:connector-curvature="0" />
	<path style="fill:none;stroke:red;stroke-width:1px;stroke-linecap:butt;stroke-linejoin:miter;stroke-opacity:1" d="M 501.413,351.624 515.544,326.188 z" id="boundary" inkscape:connector-curvature="0" />
	<path style="fill:none;stroke:red;stroke-width:1px;stroke-linecap:butt;stroke-linejoin:miter;stroke-opacity:1" d="M 512.718,382.712 540.98,394.017 z" id="boundary" inkscape:connector-curvature="0" />
	<path style="fill:none;stroke:red;stroke-width:1px;stroke-linecap:butt;stroke-linejoin:miter;stroke-opacity:1" d="M 515.544,232.923 521.197,261.185 z" id="boundary" inkscape:connector-curvature="0" />
	<path style="fill:none;stroke:red;stroke-width:1px;stroke-linecap:butt;stroke-linejoin:miter;stroke-opacity:1" d="M 515.544,326.188 526.849,289.447 z" id="boundary" inkscape:connector-curvature="0" />
	<path style="fill:none;stroke:red;stroke-width:1px;stroke-linecap:butt;stroke-linejoin:miter;stroke-opacity:1" d="M 518.37,967.738 546.632,973.39 z" id="boundary" inkscape:connector-curvature="0" />
	<path style="fill:none;stroke:red;stroke-width:1px;stroke-linecap:butt;stroke-linejoin:miter;stroke-opacity:1" d="M 521.197,261.185 526.849,289.447 z" id="boundary" inkscape:connector-curvature="0" />
	<path style="fill:none;stroke:red;stroke-width:1px;stroke-linecap:butt;stroke-linejoin:miter;stroke-opacity:1" d="M 540.98,394.017 557.937,416.627 z" id="boundary" inkscape:connector-curvature="0" />
	<path style="fill:none;stroke:red;stroke-width:1px;stroke-linecap:butt;stroke-linejoin:miter;stroke-opacity:1" d="M 546.632,973.39 574.895,973.39 z" id="boundary" inkscape:connector-curvature="0" />
	<path style="fill:none;stroke:red;stroke-width:1px;stroke-linecap:butt;stroke-linejoin:miter;stroke-opacity:1" d="M 555.111,665.333 560.764,693.595 z" id="boundary" inkscape:connector-curvature="0" />
	<path style="fill:none;stroke:red;stroke-width:1px;stroke-linecap:butt;stroke-linejoin:miter;stroke-opacity:1" d="M 555.111,665.333 583.373,659.681 z" id="boundary" inkscape:connector-curvature="0" />
	<path style="fill:none;stroke:red;stroke-width:1px;stroke-linecap:butt;stroke-linejoin:miter;stroke-opacity:1" d="M 557.937,416.627 586.199,427.932 z" id="boundary" inkscape:connector-curvature="0" />
	<path style="fill:none;stroke:red;stroke-width:1px;stroke-linecap:butt;stroke-linejoin:miter;stroke-opacity:1" d="M 560.764,693.595 563.59,721.858 z" id="boundary" inkscape:connector-curvature="0" />
	<path style="fill:none;stroke:red;stroke-width:1px;stroke-linecap:butt;stroke-linejoin:miter;stroke-opacity:1" d="M 563.59,721.858 591.852,727.51 z" id="boundary" inkscape:connector-curvature="0" />
	<path style="fill:none;stroke:red;stroke-width:1px;stroke-linecap:butt;stroke-linejoin:miter;stroke-opacity:1" d="M 574.895,973.39 603.157,984.695 z" id="boundary" inkscape:connector-curvature="0" />
	<path style="fill:none;stroke:red;stroke-width:1px;stroke-linecap:butt;stroke-linejoin:miter;stroke-opacity:1" d="M 583.373,659.681 611.635,651.202 z" id="boundary" inkscape:connector-curvature="0" />
	<path style="fill:none;stroke:red;stroke-width:1px;stroke-linecap:butt;stroke-linejoin:miter;stroke-opacity:1" d="M 586.199,427.932 614.462,427.932 z" id="boundary" inkscape:connector-curvature="0" />
	<path style="fill:none;stroke:red;stroke-width:1px;stroke-linecap:butt;stroke-linejoin:miter;stroke-opacity:1" d="M 591.852,727.51 620.114,738.815 z" id="boundary" inkscape:connector-curvature="0" />
	<path style="fill:none;stroke:red;stroke-width:1px;stroke-linecap:butt;stroke-linejoin:miter;stroke-opacity:1" d="M 603.157,984.695 631.419,996 z" id="boundary" inkscape:connector-curvature="0" />
	<path style="fill:none;stroke:red;stroke-width:1px;stroke-linecap:butt;stroke-linejoin:miter;stroke-opacity:1" d="M 611.635,651.202 639.897,642.724 z" id="boundary" inkscape:connector-curvature="0" />
	<path style="fill:none;stroke:red;stroke-width:1px;stroke-linecap:butt;stroke-linejoin:miter;stroke-opacity:1" d="M 614.462,427.932 642.724,433.584 z" id="boundary" inkscape:connector-curvature="0" />
	<path style="fill:none;stroke:red;stroke-width:1px;stroke-linecap:butt;stroke-linejoin:miter;stroke-opacity:1" d="M 620.114,738.815 648.376,738.815 z" id="boundary" inkscape:connector-curvature="0" />
	<path style="fill:none;stroke:red;stroke-width:1px;stroke-linecap:butt;stroke-linejoin:miter;stroke-opacity:1" d="M 631.419,996 659.681,996 z" id="boundary" inkscape:connector-curvature="0" />
	<path style="fill:none;stroke:red;stroke-width:1px;stroke-linecap:butt;stroke-linejoin:miter;stroke-opacity:1" d="M 639.897,642.724 668.16,634.245 z" id="boundary" inkscape:connector-curvature="0" />
	<path style="fill:none;stroke:red;stroke-width:1px;stroke-linecap:butt;stroke-linejoin:miter;stroke-opacity:1" d="M 642.724,433.584 670.986,439.236 z" id="boundary" inkscape:connector-curvature="0" />
	<path style="fill:none;stroke:red;stroke-width:1px;stroke-linecap:butt;stroke-linejoin:miter;stroke-opacity:1" d="M 648.376,738.815 676.638,727.51 z" id="boundary" inkscape:connector-curvature="0" />
	<path style="fill:none;stroke:red;stroke-width:1px;stroke-linecap:butt;stroke-linejoin:miter;stroke-opacity:1" d="M 659.681,996 687.943,996 z" id="boundary" inkscape:connector-curvature="0" />
	<path style="fill:none;stroke:red;stroke-width:1px;stroke-linecap:butt;stroke-linejoin:miter;stroke-opacity:1" d="M 668.16,634.245 696.422,620.114 z" id="boundary" inkscape:connector-curvature="0" />
	<path style="fill:none;stroke:red;stroke-width:1px;stroke-linecap:butt;stroke-linejoin:miter;stroke-opacity:1" d="M 670.986,439.236 699.248,444.889 z" id="boundary" inkscape:connector-curvature="0" />
	<path style="fill:none;stroke:red;stroke-width:1px;stroke-linecap:butt;stroke-linejoin:miter;stroke-opacity:1" d="M 676.638,727.51 704.9,727.51 z" id="boundary" inkscape:connector-curvature="0" />
	<path style="fill:none;stroke:red;stroke-width:1px;stroke-linecap:butt;stroke-linejoin:miter;stroke-opacity:1" d="M 687.943,996 716.205,990.348 z" id="boundary" inkscape:connector-curvature="0" />
	<path style="fill:none;stroke:red;stroke-width:1px;stroke-linecap:butt;stroke-linejoin:miter;stroke-opacity:1" d="M 696.422,620.114 721.858,605.983 z" id="boundary" inkscape:connector-curvature="0" />
	<path style="fill:none;stroke:red;stroke-width:1px;stroke-linecap:butt;stroke-linejoin:miter;stroke-opacity:1" d="M 699.248,444.889 727.51,453.368 z" id="boundary" inkscape:connector-curvature="0" />
	<path style="fill:none;stroke:red;stroke-width:1px;stroke-linecap:butt;stroke-linejoin:miter;stroke-opacity:1" d="M 704.9,727.51 733.162,727.51 z" id="boundary" inkscape:connector-curvature="0" />
	<path style="fill:none;stroke:red;stroke-width:1px;stroke-linecap:butt;stroke-linejoin:miter;stroke-opacity:1" d="M 716.205,990.348 744.467,984.695 z" id="boundary" inkscape:connector-curvature="0" />
	<path style="fill:none;stroke:red;stroke-width:1px;stroke-linecap:butt;stroke-linejoin:miter;stroke-opacity:1" d="M 721.858,605.983 741.641,580.547 z" id="boundary" inkscape:connector-curvature="0" />
	<path style="fill:none;stroke:red;stroke-width:1px;stroke-linecap:butt;stroke-linejoin:miter;stroke-opacity:1" d="M 727.51,453.368 747.293,475.977 z" id="boundary" inkscape:connector-curvature="0" />
	<path style="fill:none;stroke:red;stroke-width:1px;stroke-linecap:butt;stroke-linejoin:miter;stroke-opacity:1" d="M 733.162,727.51 761.425,730.336 z" id="boundary" inkscape:connector-curvature="0" />
	<path style="fill:none;stroke:red;stroke-width:1px;stroke-linecap:butt;stroke-linejoin:miter;stroke-opacity:1" d="M 741.641,580.547 755.772,555.111 z" id="boundary" inkscape:connector-curvature="0" />
	<path style="fill:none;stroke:red;stroke-width:1px;stroke-linecap:butt;stroke-linejoin:miter;stroke-opacity:1" d="M 744.467,984.695 772.729,973.39 z" id="boundary" inkscape:connector-curvature="0" />
	<path style="fill:none;stroke:red;stroke-width:1px;stroke-linecap:butt;stroke-linejoin:miter;stroke-opacity:1" d="M 747.293,475.977 758.598,504.239 z" id="boundary" inkscape:connector-curvature="0" />
	<path style="fill:none;stroke:red;stroke-width:1px;stroke-linecap:butt;stroke-linejoin:miter;stroke-opacity:1" d="M 755.772,555.111 758.598,504.239 z" id="boundary" inkscape:connector-curvature="0" />
	<path style="fill:none;stroke:red;stroke-width:1px;stroke-linecap:butt;stroke-linejoin:miter;stroke-opacity:1" d="M 761.425,730.336 784.034,747.293 z" id="boundary" inkscape:connector-curvature="0" />
	<path style="fill:none;stroke:red;stroke-width:1px;stroke-linecap:butt;stroke-linejoin:miter;stroke-opacity:1" d="M 772.729,973.39 795.339,950.781 z" id="boundary" inkscape:connector-curvature="0" />
	<path style="fill:none;stroke:red;stroke-width:1px;stroke-linecap:butt;stroke-linejoin:miter;stroke-opacity:1" d="M 784.034,747.293 803.818,769.903 z" id="boundary" inkscape:connector-curvature="0" />
	<path style="fill:none;stroke:red;stroke-width:1px;stroke-linecap:butt;stroke-linejoin:miter;stroke-opacity:1" d="M 795.339,950.781 815.123,902.735 z" id="boundary" inkscape:connector-curvature="0" />
	<path style="fill:none;stroke:red;stroke-width:1px;stroke-linecap:butt;stroke-linejoin:miter;stroke-opacity:1" d="M 803.818,769.903 809.47,798.165 z" id="boundary" inkscape:connector-curvature="0" />
	<path style="fill:none;stroke:red;stroke-width:1px;stroke-linecap:butt;stroke-linejoin:miter;stroke-opacity:1" d="M 809.47,798.165 815.123,826.427 z" id="boundary" inkscape:connector-curvature="0" />
	<path style="fill:none;stroke:red;stroke-width:1px;stroke-linecap:butt;stroke-linejoin:miter;stroke-opacity:1" d="M 815.123,826.427 815.123,874.473 z" id="boundary" inkscape:connector-curvature="0" />
	<path style="fill:none;stroke:red;stroke-width:1px;stroke-linecap:butt;stroke-linejoin:miter;stroke-opacity:1" d="M 815.123,874.473 815.123,902.735 z" id="boundary" inkscape:connector-curvature="0" />
	<circle cx="4" cy="501.413" r="4" fill="#0" id="circle0"/>
	<circle cx="9.65242" cy="529.675" r="4" fill="#0" id="circle1"/>
	<circle cx="9.65242" cy="557.937" r="4" fill="#0" id="circle2"/>
	<circle cx="18.1311" cy="475.977" r="4" fill="#0" id="circle3"/>
	<circle cx="26.6097" cy="580.547" r="4" fill="#0" id="circle4"/>
	<circle cx="32.2621" cy="450.541" r="4" fill="#0" id="circle5"/>
	<circle cx="43.567" cy="603.157" r="4" fill="#0" id="circle6"/>
	<circle cx="54.8718" cy="427.932" r="4" fill="#0" id="circle7"/>
	<circle cx="60.5242" cy="60.5242" r="4" fill="#0" id="circle8"/>
	<circle cx="60.5242" cy="88.7863" r="4" fill="#0" id="circle9"/>
	<circle cx="60.5242" cy="625.766" r="4" fill="#0" id="circle10"/>
	<circle cx="66.1766" cy="117.048" r="4" fill="#0" id="circle11"/>
	<circle cx="66.1766" cy="196.182" r="4" fill="#0" id="circle12"/>
	<circle cx="66.1766" cy="224.444" r="4" fill="#0" id="circle13"/>
	<circle cx="66.1766" cy="252.707" r="4" fill="#0" id="circle14"/>
	<circle cx="69.0028" cy="280.969" r="4" fill="#0" id="circle15"/>
	<circle cx="74.6553" cy="35.0883" r="4" fill="#0" id="circle16"/>
	<circle cx="77.4815" cy="145.311" r="4" fill="#0" id="circle17"/>
	<circle cx="77.4815" cy="405.322" r="4" fill="#0" id="circle18"/>
	<circle cx="80.3077" cy="309.231" r="4" fill="#0" id="circle19"/>
	<circle cx="83.1339" cy="642.724" r="4" fill="#0" id="circle20"/>
	<circle cx="88.7863" cy="767.077" r="4" fill="#0" id="circle21"/>
	<circle cx="91.6125" cy="337.493" r="4" fill="#0" id="circle22"/>
	<circle cx="94.4387" cy="738.815" r="4" fill="#0" id="circle23"/>
	<circle cx="97.265" cy="18.1311" r="4" fill="#0" id="circle24"/>
	<circle cx="100.091" cy="704.9" r="4" fill="#0" id="circle25"/>
	<circle cx="102.917" cy="391.191" r="4" fill="#0" id="circle26"/>
	<circle cx="105.744" cy="362.929" r="4" fill="#0" id="circle27"/>
	<circle cx="105.744" cy="659.681" r="4" fill="#0" id="circle28"/>
	<circle cx="105.744" cy="789.687" r="4" fill="#0" id="circle29"/>
	<circle cx="105.744" cy="817.949" r="4" fill="#0" id="circle30"/>
	<circle cx="111.396" cy="846.211" r="4" fill="#0" id="circle31"/>
	<circle cx="111.396" cy="874.473" r="4" fill="#0" id="circle32"/>
	<circle cx="117.048" cy="902.735" r="4" fill="#0" id="circle33"/>
	<circle cx="122.701" cy="930.997" r="4" fill="#0" id="circle34"/>
	<circle cx="125.527" cy="6.82621" r="4" fill="#0" id="circle35"/>
	<circle cx="131.179" cy="959.259" r="4" fill="#0" id="circle36"/>
	<circle cx="153.789" cy="4" r="4" fill="#0" id="circle37"/>
	<circle cx="153.789" cy="976.217" r="4" fill="#0" id="circle38"/>
	<circle cx="179.225" cy="990.348" r="4" fill="#0" id="circle39"/>
	<circle cx="182.051" cy="9.65242" r="4" fill="#0" id="circle40"/>
	<circle cx="207.487" cy="23.7835" r="4" fill="#0" id="circle41"/>
	<circle cx="207.487" cy="996" r="4" fill="#0" id="circle42"/>
	<circle cx="232.923" cy="37.9145" r="4" fill="#0" id="circle43"/>
	<circle cx="235.749" cy="996" r="4" fill="#0" id="circle44"/>
	<circle cx="261.185" cy="43.567" r="4" fill="#0" id="circle45"/>
	<circle cx="264.011" cy="996" r="4" fill="#0" id="circle46"/>
	<circle cx="289.447" cy="43.567" r="4" fill="#0" id="circle47"/>
	<circle cx="292.274" cy="996" r="4" fill="#0" id="circle48"/>
	<circle cx="317.709" cy="37.9145" r="4" fill="#0" id="circle49"/>
	<circle cx="320.536" cy="996" r="4" fill="#0" id="circle50"/>
	<circle cx="343.145" cy="20.9573" r="4" fill="#0" id="circle51"/>
	<circle cx="348.798" cy="990.348" r="4" fill="#0" id="circle52"/>
	<circle cx="371.407" cy="9.65242" r="4" fill="#0" id="circle53"/>
	<circle cx="377.06" cy="984.695" r="4" fill="#0" id="circle54"/>
	<circle cx="399.67" cy="4" r="4" fill="#0" id="circle55"/>
	<circle cx="405.322" cy="979.043" r="4" fill="#0" id="circle56"/>
	<circle cx="427.932" cy="9.65242" r="4" fill="#0" id="circle57"/>
	<circle cx="433.584" cy="979.043" r="4" fill="#0" id="circle58"/>
	<circle cx="456.194" cy="20.9573" r="4" fill="#0" id="circle59"/>
	<circle cx="461.846" cy="973.39" r="4" fill="#0" id="circle60"/>
	<circle cx="475.977" cy="156.615" r="4" fill="#0" id="circle61"/>
	<circle cx="478.803" cy="40.7407" r="4" fill="#0" id="circle62"/>
	<circle cx="484.456" cy="184.877" r="4" fill="#0" id="circle63"/>
	<circle cx="484.456" cy="374.234" r="4" fill="#0" id="circle64"/>
	<circle cx="487.282" cy="122.701" r="4" fill="#0" id="circle65"/>
	<circle cx="490.108" cy="973.39" r="4" fill="#0" id="circle66"/>
	<circle cx="492.934" cy="66.1766" r="4" fill="#0" id="circle67"/>
	<circle cx="492.934" cy="94.4387" r="4" fill="#0" id="circle68"/>
	<circle cx="498.587" cy="210.313" r="4" fill="#0" id="circle69"/>
	<circle cx="501.413" cy="351.624" r="4" fill="#0" id="circle70"/>
	<circle cx="512.718" cy="382.712" r="4" fill="#0" id="circle71"/>
	<circle cx="515.544" cy="232.923" r="4" fill="#0" id="circle72"/>
	<circle cx="515.544" cy="326.188" r="4" fill="#0" id="circle73"/>
	<circle cx="518.37" cy="967.738" r="4" fill="#0" id="circle74"/>
	<circle cx="521.197" cy="261.185" r="4" fill="#0" id="circle75"/>
	<circle cx="526.849" cy="289.447" r="4" fill="#0" id="circle76"/>
	<circle cx="540.98" cy="394.017" r="4" fill="#0" id="circle77"/>
	<circle cx="546.632" cy="973.39" r="4" fill="#0" id="circle78"/>
	<circle cx="555.111" cy="665.333" r="4" fill="#0" id="circle79"/>
	<circle cx="557.937" cy="416.627" r="4" fill="#0" id="circle80"/>
	<circle cx="560.764" cy="693.595" r="4" fill="#0" id="circle81"/>
	<circle cx="563.59" cy="721.858" r="4" fill="#0" id="circle82"/>
	<circle cx="574.895" cy="973.39" r="4" fill="#0" id="circle83"/>
	<circle cx="583.373" cy="659.681" r="4" fill="#0" id="circle84"/>
	<circle cx="586.199" cy="427.932" r="4" fill="#0" id="circle85"/>
	<circle cx="591.852" cy="727.51" r="4" fill="#0" id="circle86"/>
	<circle cx="603.157" cy="984.695" r="4" fill="#0" id="circle87"/>
	<circle cx="611.635" cy="651.202" r="4" fill="#0" id="circle88"/>
	<circle cx="614.462" cy="427.932" r="4" fill="#0" id="circle89"/>
	<circle cx="620.114" cy="738.815" r="4" fill="#0" id="circle90"/>
	<circle cx="631.419" cy="996" r="4" fill="#0" id="circle91"/>
	<circle cx="639.897" cy="642.724" r="4" fill="#0" id="circle92"/>
	<circle cx="642.724" cy="433.584" r="4" fill="#0" id="circle93"/>
	<circle cx="648.376" cy="738.815" r="4" fill="#0" id="circle94"/>
	<circle cx="659.681" cy="996" r="4" fill="#0" id="circle95"/>
	<circle cx="668.16" cy="634.245" r="4" fill="#0" id="circle96"/>
	<circle cx="670.986" cy="439.236" r="4" fill="#0" id="circle97"/>
	<circle cx="676.638" cy="727.51" r="4" fill="#0" id="circle98"/>
	<circle cx="687.943" cy="996" r="4" fill="#0" id="circle99"/>
	<circle cx="696.422" cy="620.114" r="4" fill="#0" id="circle100"/>
	<circle cx="699.248" cy="444.889" r="4" fill="#0" id="circle101"/>
	<circle cx="704.9" cy="727.51" r="4" fill="#0" id="circle102"/>
	<circle cx="716.205" cy="990.348" r="4" fill="#0" id="circle103"/>
	<circle cx="721.858" cy="605.983" r="4" fill="#0" id="circle104"/>
	<circle cx="727.51" cy="453.368" r="4" fill="#0" id="circle105"/>
	<circle cx="733.162" cy="727.51" r="4" fill="#0" id="circle106"/>
	<circle cx="741.641" cy="580.547" r="4" fill="#0" id="circle107"/>
	<circle cx="744.467" cy="984.695" r="4" fill="#0" id="circle108"/>
	<circle cx="747.293" cy="475.977" r="4" fill="#0" id="circle109"/>
	<circle cx="755.772" cy="555.111" r="4" fill="#0" id="circle110"/>
	<circle cx="758.598" cy="504.239" r="4" fill="#0" id="circle111"/>
	<circle cx="761.425" cy="730.336" r="4" fill="#0" id="circle112"/>
	<circle cx="772.729" cy="973.39" r="4" fill="#0" id="circle113"/>
	<circle cx="784.034" cy="747.293" r="4" fill="#0" id="circle114"/>
	<circle cx="795.339" cy="950.781" r="4" fill="#0" id="circle115"/>
	<circle cx="803.818" cy="769.903" r="4" fill="#0" id="circle116"/>
	<circle cx="809.47" cy="798.165" r="4" fill="#0" id="circle117"/>
	<circle cx="815.123" cy="826.427" r="4" fill="#0" id="circle118"/>
	<circle cx="815.123" cy="874.473" r="4" fill="#0" id="circle119"/>
	<circle cx="815.123" cy="902.735" r="4" fill="#0" id="circle120"/>
	</g>
</svg>