<?xml version="1.0" encoding="UTF-8" standalone="no"?>
<!-- Created with CurveBenchmark -->
<svg
	xmlns:dc="http://purl.org/dc/elements/1.1/"
	xmlns:cc="http://creativecommons.org/ns#"
	xmlns:rdf="http://www.w3.org/1999/02/22-rdf-syntax-ns#"
	xmlns:svg="http://www.w3.org/2000/svg"
	xmlns="http://www.w3.org/2000/svg"
	xmlns:sodipodi="http://sodipodi.sourceforge.net/DTD/sodipodi-0.dtd"
	xmlns:inkscape="http://www.inkscape.org/namespaces/inkscape"
	width="1000"
	height="1000"
	id="svg2"
	version="1.1"
	sodipodi:docname="manifold/hnncrust-textbox03.png.txt">
<defs
	id="defs4" />
<metadata
	id="metadata7">
	<rdf:RDF>
		<cc:Work
			rdf:about="">
			<dc:format>image/svg+xml</dc:format>
			<dc:type
				rdf:resource="http://purl.org/dc/dcmitype/StillImage" />
			<dc:title></dc:title>
		</cc:Work>
	</rdf:RDF>
</metadata>
<g
	inkscape:label="Layer 1"
	inkscape:groupmode="layer"
	id="layer1">
	<path style="fill:none;stroke:red;stroke-width:1px;stroke-linecap:butt;stroke-linejoin:miter;stroke-opacity:1" d="M 4,270.454 4,288.457 z" id="boundary" inkscape:connector-curvature="0" />
	<path style="fill:none;stroke:red;stroke-width:1px;stroke-linecap:butt;stroke-linejoin:miter;stroke-opacity:1" d="M 4,270.454 22.0036,252.45 z" id="boundary" inkscape:connector-curvature="0" />
	<path style="fill:none;stroke:red;stroke-width:1px;stroke-linecap:butt;stroke-linejoin:miter;stroke-opacity:1" d="M 4,288.457 4,306.461 z" id="boundary" inkscape:connector-curvature="0" />
	<path style="fill:none;stroke:red;stroke-width:1px;stroke-linecap:butt;stroke-linejoin:miter;stroke-opacity:1" d="M 4,306.461 14.8022,320.864 z" id="boundary" inkscape:connector-curvature="0" />
	<path style="fill:none;stroke:red;stroke-width:1px;stroke-linecap:butt;stroke-linejoin:miter;stroke-opacity:1" d="M 14.8022,320.864 22.0036,338.868 z" id="boundary" inkscape:connector-curvature="0" />
	<path style="fill:none;stroke:red;stroke-width:1px;stroke-linecap:butt;stroke-linejoin:miter;stroke-opacity:1" d="M 22.0036,234.446 22.0036,252.45 z" id="boundary" inkscape:connector-curvature="0" />
	<path style="fill:none;stroke:red;stroke-width:1px;stroke-linecap:butt;stroke-linejoin:miter;stroke-opacity:1" d="M 22.0036,234.446 31.0054,207.441 z" id="boundary" inkscape:connector-curvature="0" />
	<path style="fill:none;stroke:red;stroke-width:1px;stroke-linecap:butt;stroke-linejoin:miter;stroke-opacity:1" d="M 22.0036,338.868 22.0036,356.871 z" id="boundary" inkscape:connector-curvature="0" />
	<path style="fill:none;stroke:red;stroke-width:1px;stroke-linecap:butt;stroke-linejoin:miter;stroke-opacity:1" d="M 22.0036,356.871 27.4047,374.875 z" id="boundary" inkscape:connector-curvature="0" />
	<path style="fill:none;stroke:red;stroke-width:1px;stroke-linecap:butt;stroke-linejoin:miter;stroke-opacity:1" d="M 27.4047,374.875 31.0054,392.878 z" id="boundary" inkscape:connector-curvature="0" />
	<path style="fill:none;stroke:red;stroke-width:1px;stroke-linecap:butt;stroke-linejoin:miter;stroke-opacity:1" d="M 31.0054,207.441 49.0091,198.439 z" id="boundary" inkscape:connector-curvature="0" />
	<path style="fill:none;stroke:red;stroke-width:1px;stroke-linecap:butt;stroke-linejoin:miter;stroke-opacity:1" d="M 31.0054,392.878 47.2087,401.88 z" id="boundary" inkscape:connector-curvature="0" />
	<path style="fill:none;stroke:red;stroke-width:1px;stroke-linecap:butt;stroke-linejoin:miter;stroke-opacity:1" d="M 47.2087,401.88 58.0109,416.283 z" id="boundary" inkscape:connector-curvature="0" />
	<path style="fill:none;stroke:red;stroke-width:1px;stroke-linecap:butt;stroke-linejoin:miter;stroke-opacity:1" d="M 49.0091,180.436 49.0091,198.439 z" id="boundary" inkscape:connector-curvature="0" />
	<path style="fill:none;stroke:red;stroke-width:1px;stroke-linecap:butt;stroke-linejoin:miter;stroke-opacity:1" d="M 49.0091,180.436 63.412,166.033 z" id="boundary" inkscape:connector-curvature="0" />
	<path style="fill:none;stroke:red;stroke-width:1px;stroke-linecap:butt;stroke-linejoin:miter;stroke-opacity:1" d="M 58.0109,416.283 72.4138,428.886 z" id="boundary" inkscape:connector-curvature="0" />
	<path style="fill:none;stroke:red;stroke-width:1px;stroke-linecap:butt;stroke-linejoin:miter;stroke-opacity:1" d="M 63.412,166.033 77.8149,151.63 z" id="boundary" inkscape:connector-curvature="0" />
	<path style="fill:none;stroke:red;stroke-width:1px;stroke-linecap:butt;stroke-linejoin:miter;stroke-opacity:1" d="M 72.4138,428.886 85.0163,443.289 z" id="boundary" inkscape:connector-curvature="0" />
	<path style="fill:none;stroke:red;stroke-width:1px;stroke-linecap:butt;stroke-linejoin:miter;stroke-opacity:1" d="M 77.8149,151.63 92.2178,139.027 z" id="boundary" inkscape:connector-curvature="0" />
	<path style="fill:none;stroke:red;stroke-width:1px;stroke-linecap:butt;stroke-linejoin:miter;stroke-opacity:1" d="M 85.0163,443.289 99.4192,455.891 z" id="boundary" inkscape:connector-curvature="0" />
	<path style="fill:none;stroke:red;stroke-width:1px;stroke-linecap:butt;stroke-linejoin:miter;stroke-opacity:1" d="M 92.2178,139.027 104.82,124.624 z" id="boundary" inkscape:connector-curvature="0" />
	<path style="fill:none;stroke:red;stroke-width:1px;stroke-linecap:butt;stroke-linejoin:miter;stroke-opacity:1" d="M 99.4192,455.891 117.423,463.093 z" id="boundary" inkscape:connector-curvature="0" />
	<path style="fill:none;stroke:red;stroke-width:1px;stroke-linecap:butt;stroke-linejoin:miter;stroke-opacity:1" d="M 104.82,124.624 119.223,112.022 z" id="boundary" inkscape:connector-curvature="0" />
	<path style="fill:none;stroke:red;stroke-width:1px;stroke-linecap:butt;stroke-linejoin:miter;stroke-opacity:1" d="M 117.423,463.093 130.025,477.495 z" id="boundary" inkscape:connector-curvature="0" />
	<path style="fill:none;stroke:red;stroke-width:1px;stroke-linecap:butt;stroke-linejoin:miter;stroke-opacity:1" d="M 119.223,112.022 137.227,112.022 z" id="boundary" inkscape:connector-curvature="0" />
	<path style="fill:none;stroke:red;stroke-width:1px;stroke-linecap:butt;stroke-linejoin:miter;stroke-opacity:1" d="M 130.025,477.495 148.029,482.897 z" id="boundary" inkscape:connector-curvature="0" />
	<path style="fill:none;stroke:red;stroke-width:1px;stroke-linecap:butt;stroke-linejoin:miter;stroke-opacity:1" d="M 137.227,112.022 144.428,94.0181 z" id="boundary" inkscape:connector-curvature="0" />
	<path style="fill:none;stroke:red;stroke-width:1px;stroke-linecap:butt;stroke-linejoin:miter;stroke-opacity:1" d="M 144.428,94.0181 162.432,85.0163 z" id="boundary" inkscape:connector-curvature="0" />
	<path style="fill:none;stroke:red;stroke-width:1px;stroke-linecap:butt;stroke-linejoin:miter;stroke-opacity:1" d="M 148.029,482.897 164.232,491.898 z" id="boundary" inkscape:connector-curvature="0" />
	<path style="fill:none;stroke:red;stroke-width:1px;stroke-linecap:butt;stroke-linejoin:miter;stroke-opacity:1" d="M 162.432,85.0163 176.835,70.6134 z" id="boundary" inkscape:connector-curvature="0" />
	<path style="fill:none;stroke:red;stroke-width:1px;stroke-linecap:butt;stroke-linejoin:miter;stroke-opacity:1" d="M 164.232,491.898 180.436,500.9 z" id="boundary" inkscape:connector-curvature="0" />
	<path style="fill:none;stroke:red;stroke-width:1px;stroke-linecap:butt;stroke-linejoin:miter;stroke-opacity:1" d="M 176.835,70.6134 194.838,67.0127 z" id="boundary" inkscape:connector-curvature="0" />
	<path style="fill:none;stroke:red;stroke-width:1px;stroke-linecap:butt;stroke-linejoin:miter;stroke-opacity:1" d="M 180.436,500.9 198.439,500.9 z" id="boundary" inkscape:connector-curvature="0" />
	<path style="fill:none;stroke:red;stroke-width:1px;stroke-linecap:butt;stroke-linejoin:miter;stroke-opacity:1" d="M 194.838,67.0127 212.842,67.0127 z" id="boundary" inkscape:connector-curvature="0" />
	<path style="fill:none;stroke:red;stroke-width:1px;stroke-linecap:butt;stroke-linejoin:miter;stroke-opacity:1" d="M 198.439,500.9 207.441,517.103 z" id="boundary" inkscape:connector-curvature="0" />
	<path style="fill:none;stroke:red;stroke-width:1px;stroke-linecap:butt;stroke-linejoin:miter;stroke-opacity:1" d="M 207.441,517.103 225.445,518.904 z" id="boundary" inkscape:connector-curvature="0" />
	<path style="fill:none;stroke:red;stroke-width:1px;stroke-linecap:butt;stroke-linejoin:miter;stroke-opacity:1" d="M 212.842,67.0127 229.045,58.0109 z" id="boundary" inkscape:connector-curvature="0" />
	<path style="fill:none;stroke:red;stroke-width:1px;stroke-linecap:butt;stroke-linejoin:miter;stroke-opacity:1" d="M 225.445,518.904 241.648,527.906 z" id="boundary" inkscape:connector-curvature="0" />
	<path style="fill:none;stroke:red;stroke-width:1px;stroke-linecap:butt;stroke-linejoin:miter;stroke-opacity:1" d="M 229.045,58.0109 247.049,45.4083 z" id="boundary" inkscape:connector-curvature="0" />
	<path style="fill:none;stroke:red;stroke-width:1px;stroke-linecap:butt;stroke-linejoin:miter;stroke-opacity:1" d="M 241.648,527.906 256.051,538.708 z" id="boundary" inkscape:connector-curvature="0" />
	<path style="fill:none;stroke:red;stroke-width:1px;stroke-linecap:butt;stroke-linejoin:miter;stroke-opacity:1" d="M 247.049,45.4083 265.053,40.0073 z" id="boundary" inkscape:connector-curvature="0" />
	<path style="fill:none;stroke:red;stroke-width:1px;stroke-linecap:butt;stroke-linejoin:miter;stroke-opacity:1" d="M 256.051,538.708 274.054,545.909 z" id="boundary" inkscape:connector-curvature="0" />
	<path style="fill:none;stroke:red;stroke-width:1px;stroke-linecap:butt;stroke-linejoin:miter;stroke-opacity:1" d="M 265.053,40.0073 283.056,36.4065 z" id="boundary" inkscape:connector-curvature="0" />
	<path style="fill:none;stroke:red;stroke-width:1px;stroke-linecap:butt;stroke-linejoin:miter;stroke-opacity:1" d="M 274.054,545.909 292.058,545.909 z" id="boundary" inkscape:connector-curvature="0" />
	<path style="fill:none;stroke:red;stroke-width:1px;stroke-linecap:butt;stroke-linejoin:miter;stroke-opacity:1" d="M 283.056,36.4065 301.06,31.0054 z" id="boundary" inkscape:connector-curvature="0" />
	<path style="fill:none;stroke:red;stroke-width:1px;stroke-linecap:butt;stroke-linejoin:miter;stroke-opacity:1" d="M 292.058,545.909 310.062,545.909 z" id="boundary" inkscape:connector-curvature="0" />
	<path style="fill:none;stroke:red;stroke-width:1px;stroke-linecap:butt;stroke-linejoin:miter;stroke-opacity:1" d="M 301.06,31.0054 319.064,31.0054 z" id="boundary" inkscape:connector-curvature="0" />
	<path style="fill:none;stroke:red;stroke-width:1px;stroke-linecap:butt;stroke-linejoin:miter;stroke-opacity:1" d="M 310.062,545.909 326.265,554.911 z" id="boundary" inkscape:connector-curvature="0" />
	<path style="fill:none;stroke:red;stroke-width:1px;stroke-linecap:butt;stroke-linejoin:miter;stroke-opacity:1" d="M 319.064,31.0054 337.067,31.0054 z" id="boundary" inkscape:connector-curvature="0" />
	<path style="fill:none;stroke:red;stroke-width:1px;stroke-linecap:butt;stroke-linejoin:miter;stroke-opacity:1" d="M 326.265,554.911 344.269,554.911 z" id="boundary" inkscape:connector-curvature="0" />
	<path style="fill:none;stroke:red;stroke-width:1px;stroke-linecap:butt;stroke-linejoin:miter;stroke-opacity:1" d="M 337.067,31.0054 347.869,16.6025 z" id="boundary" inkscape:connector-curvature="0" />
	<path style="fill:none;stroke:red;stroke-width:1px;stroke-linecap:butt;stroke-linejoin:miter;stroke-opacity:1" d="M 344.269,554.911 362.272,554.911 z" id="boundary" inkscape:connector-curvature="0" />
	<path style="fill:none;stroke:red;stroke-width:1px;stroke-linecap:butt;stroke-linejoin:miter;stroke-opacity:1" d="M 347.869,16.6025 365.873,13.0018 z" id="boundary" inkscape:connector-curvature="0" />
	<path style="fill:none;stroke:red;stroke-width:1px;stroke-linecap:butt;stroke-linejoin:miter;stroke-opacity:1" d="M 362.272,554.911 380.276,554.911 z" id="boundary" inkscape:connector-curvature="0" />
	<path style="fill:none;stroke:red;stroke-width:1px;stroke-linecap:butt;stroke-linejoin:miter;stroke-opacity:1" d="M 365.873,13.0018 383.877,13.0018 z" id="boundary" inkscape:connector-curvature="0" />
	<path style="fill:none;stroke:red;stroke-width:1px;stroke-linecap:butt;stroke-linejoin:miter;stroke-opacity:1" d="M 380.276,554.911 392.878,569.314 z" id="boundary" inkscape:connector-curvature="0" />
	<path style="fill:none;stroke:red;stroke-width:1px;stroke-linecap:butt;stroke-linejoin:miter;stroke-opacity:1" d="M 383.877,13.0018 401.88,13.0018 z" id="boundary" inkscape:connector-curvature="0" />
	<path style="fill:none;stroke:red;stroke-width:1px;stroke-linecap:butt;stroke-linejoin:miter;stroke-opacity:1" d="M 392.878,569.314 410.882,572.915 z" id="boundary" inkscape:connector-curvature="0" />
	<path style="fill:none;stroke:red;stroke-width:1px;stroke-linecap:butt;stroke-linejoin:miter;stroke-opacity:1" d="M 401.88,13.0018 419.884,13.0018 z" id="boundary" inkscape:connector-curvature="0" />
	<path style="fill:none;stroke:red;stroke-width:1px;stroke-linecap:butt;stroke-linejoin:miter;stroke-opacity:1" d="M 410.882,572.915 427.085,581.917 z" id="boundary" inkscape:connector-curvature="0" />
	<path style="fill:none;stroke:red;stroke-width:1px;stroke-linecap:butt;stroke-linejoin:miter;stroke-opacity:1" d="M 419.884,13.0018 437.887,13.0018 z" id="boundary" inkscape:connector-curvature="0" />
	<path style="fill:none;stroke:red;stroke-width:1px;stroke-linecap:butt;stroke-linejoin:miter;stroke-opacity:1" d="M 427.085,581.917 427.085,599.92 z" id="boundary" inkscape:connector-curvature="0" />
	<path style="fill:none;stroke:red;stroke-width:1px;stroke-linecap:butt;stroke-linejoin:miter;stroke-opacity:1" d="M 427.085,599.92 443.289,608.922 z" id="boundary" inkscape:connector-curvature="0" />
	<path style="fill:none;stroke:red;stroke-width:1px;stroke-linecap:butt;stroke-linejoin:miter;stroke-opacity:1" d="M 437.887,13.0018 455.891,7.60073 z" id="boundary" inkscape:connector-curvature="0" />
	<path style="fill:none;stroke:red;stroke-width:1px;stroke-linecap:butt;stroke-linejoin:miter;stroke-opacity:1" d="M 443.289,608.922 445.089,626.926 z" id="boundary" inkscape:connector-curvature="0" />
	<path style="fill:none;stroke:red;stroke-width:1px;stroke-linecap:butt;stroke-linejoin:miter;stroke-opacity:1" d="M 445.089,626.926 445.089,644.929 z" id="boundary" inkscape:connector-curvature="0" />
	<path style="fill:none;stroke:red;stroke-width:1px;stroke-linecap:butt;stroke-linejoin:miter;stroke-opacity:1" d="M 445.089,644.929 454.091,661.132 z" id="boundary" inkscape:connector-curvature="0" />
	<path style="fill:none;stroke:red;stroke-width:1px;stroke-linecap:butt;stroke-linejoin:miter;stroke-opacity:1" d="M 454.091,661.132 468.494,671.935 z" id="boundary" inkscape:connector-curvature="0" />
	<path style="fill:none;stroke:red;stroke-width:1px;stroke-linecap:butt;stroke-linejoin:miter;stroke-opacity:1" d="M 455.891,7.60073 473.895,4 z" id="boundary" inkscape:connector-curvature="0" />
	<path style="fill:none;stroke:red;stroke-width:1px;stroke-linecap:butt;stroke-linejoin:miter;stroke-opacity:1" d="M 468.494,671.935 472.094,689.938 z" id="boundary" inkscape:connector-curvature="0" />
	<path style="fill:none;stroke:red;stroke-width:1px;stroke-linecap:butt;stroke-linejoin:miter;stroke-opacity:1" d="M 472.094,689.938 481.096,706.142 z" id="boundary" inkscape:connector-curvature="0" />
	<path style="fill:none;stroke:red;stroke-width:1px;stroke-linecap:butt;stroke-linejoin:miter;stroke-opacity:1" d="M 473.895,4 491.898,4 z" id="boundary" inkscape:connector-curvature="0" />
	<path style="fill:none;stroke:red;stroke-width:1px;stroke-linecap:butt;stroke-linejoin:miter;stroke-opacity:1" d="M 481.096,706.142 481.096,724.145 z" id="boundary" inkscape:connector-curvature="0" />
	<path style="fill:none;stroke:red;stroke-width:1px;stroke-linecap:butt;stroke-linejoin:miter;stroke-opacity:1" d="M 481.096,724.145 484.697,742.149 z" id="boundary" inkscape:connector-curvature="0" />
	<path style="fill:none;stroke:red;stroke-width:1px;stroke-linecap:butt;stroke-linejoin:miter;stroke-opacity:1" d="M 484.697,742.149 490.098,760.152 z" id="boundary" inkscape:connector-curvature="0" />
	<path style="fill:none;stroke:red;stroke-width:1px;stroke-linecap:butt;stroke-linejoin:miter;stroke-opacity:1" d="M 490.098,760.152 499.1,776.356 z" id="boundary" inkscape:connector-curvature="0" />
	<path style="fill:none;stroke:red;stroke-width:1px;stroke-linecap:butt;stroke-linejoin:miter;stroke-opacity:1" d="M 491.898,4 509.902,4 z" id="boundary" inkscape:connector-curvature="0" />
	<path style="fill:none;stroke:red;stroke-width:1px;stroke-linecap:butt;stroke-linejoin:miter;stroke-opacity:1" d="M 499.1,776.356 508.102,792.559 z" id="boundary" inkscape:connector-curvature="0" />
	<path style="fill:none;stroke:red;stroke-width:1px;stroke-linecap:butt;stroke-linejoin:miter;stroke-opacity:1" d="M 508.102,792.559 526.105,783.557 z" id="boundary" inkscape:connector-curvature="0" />
	<path style="fill:none;stroke:red;stroke-width:1px;stroke-linecap:butt;stroke-linejoin:miter;stroke-opacity:1" d="M 509.902,4 527.906,4 z" id="boundary" inkscape:connector-curvature="0" />
	<path style="fill:none;stroke:red;stroke-width:1px;stroke-linecap:butt;stroke-linejoin:miter;stroke-opacity:1" d="M 526.105,783.557 535.107,765.554 z" id="boundary" inkscape:connector-curvature="0" />
	<path style="fill:none;stroke:red;stroke-width:1px;stroke-linecap:butt;stroke-linejoin:miter;stroke-opacity:1" d="M 527.906,4 545.909,9.40109 z" id="boundary" inkscape:connector-curvature="0" />
	<path style="fill:none;stroke:red;stroke-width:1px;stroke-linecap:butt;stroke-linejoin:miter;stroke-opacity:1" d="M 535.107,765.554 536.907,743.949 z" id="boundary" inkscape:connector-curvature="0" />
	<path style="fill:none;stroke:red;stroke-width:1px;stroke-linecap:butt;stroke-linejoin:miter;stroke-opacity:1" d="M 536.907,743.949 545.909,716.944 z" id="boundary" inkscape:connector-curvature="0" />
	<path style="fill:none;stroke:red;stroke-width:1px;stroke-linecap:butt;stroke-linejoin:miter;stroke-opacity:1" d="M 545.909,9.40109 563.913,13.0018 z" id="boundary" inkscape:connector-curvature="0" />
	<path style="fill:none;stroke:red;stroke-width:1px;stroke-linecap:butt;stroke-linejoin:miter;stroke-opacity:1" d="M 545.909,698.94 545.909,716.944 z" id="boundary" inkscape:connector-curvature="0" />
	<path style="fill:none;stroke:red;stroke-width:1px;stroke-linecap:butt;stroke-linejoin:miter;stroke-opacity:1" d="M 545.909,698.94 563.913,689.938 z" id="boundary" inkscape:connector-curvature="0" />
	<path style="fill:none;stroke:red;stroke-width:1px;stroke-linecap:butt;stroke-linejoin:miter;stroke-opacity:1" d="M 563.913,13.0018 581.917,13.0018 z" id="boundary" inkscape:connector-curvature="0" />
	<path style="fill:none;stroke:red;stroke-width:1px;stroke-linecap:butt;stroke-linejoin:miter;stroke-opacity:1" d="M 563.913,671.935 563.913,689.938 z" id="boundary" inkscape:connector-curvature="0" />
	<path style="fill:none;stroke:red;stroke-width:1px;stroke-linecap:butt;stroke-linejoin:miter;stroke-opacity:1" d="M 563.913,671.935 572.915,653.931 z" id="boundary" inkscape:connector-curvature="0" />
	<path style="fill:none;stroke:red;stroke-width:1px;stroke-linecap:butt;stroke-linejoin:miter;stroke-opacity:1" d="M 572.915,653.931 590.918,644.929 z" id="boundary" inkscape:connector-curvature="0" />
	<path style="fill:none;stroke:red;stroke-width:1px;stroke-linecap:butt;stroke-linejoin:miter;stroke-opacity:1" d="M 581.917,13.0018 599.92,13.0018 z" id="boundary" inkscape:connector-curvature="0" />
	<path style="fill:none;stroke:red;stroke-width:1px;stroke-linecap:butt;stroke-linejoin:miter;stroke-opacity:1" d="M 590.918,608.922 590.918,626.926 z" id="boundary" inkscape:connector-curvature="0" />
	<path style="fill:none;stroke:red;stroke-width:1px;stroke-linecap:butt;stroke-linejoin:miter;stroke-opacity:1" d="M 590.918,608.922 599.92,581.917 z" id="boundary" inkscape:connector-curvature="0" />
	<path style="fill:none;stroke:red;stroke-width:1px;stroke-linecap:butt;stroke-linejoin:miter;stroke-opacity:1" d="M 590.918,626.926 590.918,644.929 z" id="boundary" inkscape:connector-curvature="0" />
	<path style="fill:none;stroke:red;stroke-width:1px;stroke-linecap:butt;stroke-linejoin:miter;stroke-opacity:1" d="M 599.92,13.0018 617.924,13.0018 z" id="boundary" inkscape:connector-curvature="0" />
	<path style="fill:none;stroke:red;stroke-width:1px;stroke-linecap:butt;stroke-linejoin:miter;stroke-opacity:1" d="M 599.92,581.917 617.924,572.915 z" id="boundary" inkscape:connector-curvature="0" />
	<path style="fill:none;stroke:red;stroke-width:1px;stroke-linecap:butt;stroke-linejoin:miter;stroke-opacity:1" d="M 617.924,13.0018 635.927,13.0018 z" id="boundary" inkscape:connector-curvature="0" />
	<path style="fill:none;stroke:red;stroke-width:1px;stroke-linecap:butt;stroke-linejoin:miter;stroke-opacity:1" d="M 617.924,572.915 626.926,554.911 z" id="boundary" inkscape:connector-curvature="0" />
	<path style="fill:none;stroke:red;stroke-width:1px;stroke-linecap:butt;stroke-linejoin:miter;stroke-opacity:1" d="M 626.926,554.911 644.929,554.911 z" id="boundary" inkscape:connector-curvature="0" />
	<path style="fill:none;stroke:red;stroke-width:1px;stroke-linecap:butt;stroke-linejoin:miter;stroke-opacity:1" d="M 635.927,13.0018 653.931,18.4029 z" id="boundary" inkscape:connector-curvature="0" />
	<path style="fill:none;stroke:red;stroke-width:1px;stroke-linecap:butt;stroke-linejoin:miter;stroke-opacity:1" d="M 644.929,554.911 662.933,554.911 z" id="boundary" inkscape:connector-curvature="0" />
	<path style="fill:none;stroke:red;stroke-width:1px;stroke-linecap:butt;stroke-linejoin:miter;stroke-opacity:1" d="M 653.931,18.4029 668.334,31.0054 z" id="boundary" inkscape:connector-curvature="0" />
	<path style="fill:none;stroke:red;stroke-width:1px;stroke-linecap:butt;stroke-linejoin:miter;stroke-opacity:1" d="M 662.933,554.911 680.936,545.909 z" id="boundary" inkscape:connector-curvature="0" />
	<path style="fill:none;stroke:red;stroke-width:1px;stroke-linecap:butt;stroke-linejoin:miter;stroke-opacity:1" d="M 668.334,31.0054 686.338,31.0054 z" id="boundary" inkscape:connector-curvature="0" />
	<path style="fill:none;stroke:red;stroke-width:1px;stroke-linecap:butt;stroke-linejoin:miter;stroke-opacity:1" d="M 680.936,545.909 698.94,545.909 z" id="boundary" inkscape:connector-curvature="0" />
	<path style="fill:none;stroke:red;stroke-width:1px;stroke-linecap:butt;stroke-linejoin:miter;stroke-opacity:1" d="M 686.338,31.0054 704.341,31.0054 z" id="boundary" inkscape:connector-curvature="0" />
	<path style="fill:none;stroke:red;stroke-width:1px;stroke-linecap:butt;stroke-linejoin:miter;stroke-opacity:1" d="M 698.94,545.909 716.944,545.909 z" id="boundary" inkscape:connector-curvature="0" />
	<path style="fill:none;stroke:red;stroke-width:1px;stroke-linecap:butt;stroke-linejoin:miter;stroke-opacity:1" d="M 704.341,31.0054 720.544,40.0073 z" id="boundary" inkscape:connector-curvature="0" />
	<path style="fill:none;stroke:red;stroke-width:1px;stroke-linecap:butt;stroke-linejoin:miter;stroke-opacity:1" d="M 716.944,545.909 734.947,527.906 z" id="boundary" inkscape:connector-curvature="0" />
	<path style="fill:none;stroke:red;stroke-width:1px;stroke-linecap:butt;stroke-linejoin:miter;stroke-opacity:1" d="M 720.544,40.0073 738.548,40.0073 z" id="boundary" inkscape:connector-curvature="0" />
	<path style="fill:none;stroke:red;stroke-width:1px;stroke-linecap:butt;stroke-linejoin:miter;stroke-opacity:1" d="M 734.947,527.906 752.951,527.906 z" id="boundary" inkscape:connector-curvature="0" />
	<path style="fill:none;stroke:red;stroke-width:1px;stroke-linecap:butt;stroke-linejoin:miter;stroke-opacity:1" d="M 738.548,40.0073 756.552,40.0073 z" id="boundary" inkscape:connector-curvature="0" />
	<path style="fill:none;stroke:red;stroke-width:1px;stroke-linecap:butt;stroke-linejoin:miter;stroke-opacity:1" d="M 752.951,527.906 770.955,527.906 z" id="boundary" inkscape:connector-curvature="0" />
	<path style="fill:none;stroke:red;stroke-width:1px;stroke-linecap:butt;stroke-linejoin:miter;stroke-opacity:1" d="M 756.552,40.0073 761.953,58.0109 z" id="boundary" inkscape:connector-curvature="0" />
	<path style="fill:none;stroke:red;stroke-width:1px;stroke-linecap:butt;stroke-linejoin:miter;stroke-opacity:1" d="M 761.953,58.0109 779.956,58.0109 z" id="boundary" inkscape:connector-curvature="0" />
	<path style="fill:none;stroke:red;stroke-width:1px;stroke-linecap:butt;stroke-linejoin:miter;stroke-opacity:1" d="M 770.955,527.906 788.958,518.904 z" id="boundary" inkscape:connector-curvature="0" />
	<path style="fill:none;stroke:red;stroke-width:1px;stroke-linecap:butt;stroke-linejoin:miter;stroke-opacity:1" d="M 779.956,58.0109 797.96,63.412 z" id="boundary" inkscape:connector-curvature="0" />
	<path style="fill:none;stroke:red;stroke-width:1px;stroke-linecap:butt;stroke-linejoin:miter;stroke-opacity:1" d="M 788.958,518.904 806.962,500.9 z" id="boundary" inkscape:connector-curvature="0" />
	<path style="fill:none;stroke:red;stroke-width:1px;stroke-linecap:butt;stroke-linejoin:miter;stroke-opacity:1" d="M 797.96,63.412 815.964,67.0127 z" id="boundary" inkscape:connector-curvature="0" />
	<path style="fill:none;stroke:red;stroke-width:1px;stroke-linecap:butt;stroke-linejoin:miter;stroke-opacity:1" d="M 806.962,500.9 824.966,500.9 z" id="boundary" inkscape:connector-curvature="0" />
	<path style="fill:none;stroke:red;stroke-width:1px;stroke-linecap:butt;stroke-linejoin:miter;stroke-opacity:1" d="M 815.964,67.0127 833.967,72.4138 z" id="boundary" inkscape:connector-curvature="0" />
	<path style="fill:none;stroke:red;stroke-width:1px;stroke-linecap:butt;stroke-linejoin:miter;stroke-opacity:1" d="M 824.966,500.9 841.169,491.898 z" id="boundary" inkscape:connector-curvature="0" />
	<path style="fill:none;stroke:red;stroke-width:1px;stroke-linecap:butt;stroke-linejoin:miter;stroke-opacity:1" d="M 833.967,72.4138 848.37,85.0163 z" id="boundary" inkscape:connector-curvature="0" />
	<path style="fill:none;stroke:red;stroke-width:1px;stroke-linecap:butt;stroke-linejoin:miter;stroke-opacity:1" d="M 841.169,491.898 859.172,486.497 z" id="boundary" inkscape:connector-curvature="0" />
	<path style="fill:none;stroke:red;stroke-width:1px;stroke-linecap:butt;stroke-linejoin:miter;stroke-opacity:1" d="M 848.37,85.0163 864.574,94.0181 z" id="boundary" inkscape:connector-curvature="0" />
	<path style="fill:none;stroke:red;stroke-width:1px;stroke-linecap:butt;stroke-linejoin:miter;stroke-opacity:1" d="M 859.172,486.497 877.176,482.897 z" id="boundary" inkscape:connector-curvature="0" />
	<path style="fill:none;stroke:red;stroke-width:1px;stroke-linecap:butt;stroke-linejoin:miter;stroke-opacity:1" d="M 864.574,94.0181 878.976,104.82 z" id="boundary" inkscape:connector-curvature="0" />
	<path style="fill:none;stroke:red;stroke-width:1px;stroke-linecap:butt;stroke-linejoin:miter;stroke-opacity:1" d="M 877.176,482.897 887.978,464.893 z" id="boundary" inkscape:connector-curvature="0" />
	<path style="fill:none;stroke:red;stroke-width:1px;stroke-linecap:butt;stroke-linejoin:miter;stroke-opacity:1" d="M 878.976,104.82 896.98,112.022 z" id="boundary" inkscape:connector-curvature="0" />
	<path style="fill:none;stroke:red;stroke-width:1px;stroke-linecap:butt;stroke-linejoin:miter;stroke-opacity:1" d="M 887.978,464.893 905.982,455.891 z" id="boundary" inkscape:connector-curvature="0" />
	<path style="fill:none;stroke:red;stroke-width:1px;stroke-linecap:butt;stroke-linejoin:miter;stroke-opacity:1" d="M 896.98,112.022 911.383,122.824 z" id="boundary" inkscape:connector-curvature="0" />
	<path style="fill:none;stroke:red;stroke-width:1px;stroke-linecap:butt;stroke-linejoin:miter;stroke-opacity:1" d="M 905.982,455.891 923.985,455.891 z" id="boundary" inkscape:connector-curvature="0" />
	<path style="fill:none;stroke:red;stroke-width:1px;stroke-linecap:butt;stroke-linejoin:miter;stroke-opacity:1" d="M 911.383,122.824 920.385,139.027 z" id="boundary" inkscape:connector-curvature="0" />
	<path style="fill:none;stroke:red;stroke-width:1px;stroke-linecap:butt;stroke-linejoin:miter;stroke-opacity:1" d="M 920.385,139.027 936.588,148.029 z" id="boundary" inkscape:connector-curvature="0" />
	<path style="fill:none;stroke:red;stroke-width:1px;stroke-linecap:butt;stroke-linejoin:miter;stroke-opacity:1" d="M 923.985,455.891 932.987,437.887 z" id="boundary" inkscape:connector-curvature="0" />
	<path style="fill:none;stroke:red;stroke-width:1px;stroke-linecap:butt;stroke-linejoin:miter;stroke-opacity:1" d="M 932.987,437.887 949.191,428.886 z" id="boundary" inkscape:connector-curvature="0" />
	<path style="fill:none;stroke:red;stroke-width:1px;stroke-linecap:butt;stroke-linejoin:miter;stroke-opacity:1" d="M 936.588,148.029 941.989,166.033 z" id="boundary" inkscape:connector-curvature="0" />
	<path style="fill:none;stroke:red;stroke-width:1px;stroke-linecap:butt;stroke-linejoin:miter;stroke-opacity:1" d="M 941.989,166.033 959.993,171.434 z" id="boundary" inkscape:connector-curvature="0" />
	<path style="fill:none;stroke:red;stroke-width:1px;stroke-linecap:butt;stroke-linejoin:miter;stroke-opacity:1" d="M 949.191,428.886 959.993,410.882 z" id="boundary" inkscape:connector-curvature="0" />
	<path style="fill:none;stroke:red;stroke-width:1px;stroke-linecap:butt;stroke-linejoin:miter;stroke-opacity:1" d="M 959.993,171.434 968.995,187.637 z" id="boundary" inkscape:connector-curvature="0" />
	<path style="fill:none;stroke:red;stroke-width:1px;stroke-linecap:butt;stroke-linejoin:miter;stroke-opacity:1" d="M 959.993,410.882 974.396,398.279 z" id="boundary" inkscape:connector-curvature="0" />
	<path style="fill:none;stroke:red;stroke-width:1px;stroke-linecap:butt;stroke-linejoin:miter;stroke-opacity:1" d="M 968.995,187.637 974.396,205.641 z" id="boundary" inkscape:connector-curvature="0" />
	<path style="fill:none;stroke:red;stroke-width:1px;stroke-linecap:butt;stroke-linejoin:miter;stroke-opacity:1" d="M 974.396,205.641 977.996,223.644 z" id="boundary" inkscape:connector-curvature="0" />
	<path style="fill:none;stroke:red;stroke-width:1px;stroke-linecap:butt;stroke-linejoin:miter;stroke-opacity:1" d="M 974.396,398.279 977.996,374.875 z" id="boundary" inkscape:connector-curvature="0" />
	<path style="fill:none;stroke:red;stroke-width:1px;stroke-linecap:butt;stroke-linejoin:miter;stroke-opacity:1" d="M 977.996,223.644 994.2,232.646 z" id="boundary" inkscape:connector-curvature="0" />
	<path style="fill:none;stroke:red;stroke-width:1px;stroke-linecap:butt;stroke-linejoin:miter;stroke-opacity:1" d="M 977.996,374.875 996,358.672 z" id="boundary" inkscape:connector-curvature="0" />
	<path style="fill:none;stroke:red;stroke-width:1px;stroke-linecap:butt;stroke-linejoin:miter;stroke-opacity:1" d="M 994.2,232.646 996,250.65 z" id="boundary" inkscape:connector-curvature="0" />
	<path style="fill:none;stroke:red;stroke-width:1px;stroke-linecap:butt;stroke-linejoin:miter;stroke-opacity:1" d="M 996,250.65 996,268.653 z" id="boundary" inkscape:connector-curvature="0" />
	<path style="fill:none;stroke:red;stroke-width:1px;stroke-linecap:butt;stroke-linejoin:miter;stroke-opacity:1" d="M 996,268.653 996,286.657 z" id="boundary" inkscape:connector-curvature="0" />
	<path style="fill:none;stroke:red;stroke-width:1px;stroke-linecap:butt;stroke-linejoin:miter;stroke-opacity:1" d="M 996,286.657 996,304.661 z" id="boundary" inkscape:connector-curvature="0" />
	<path style="fill:none;stroke:red;stroke-width:1px;stroke-linecap:butt;stroke-linejoin:miter;stroke-opacity:1" d="M 996,304.661 996,322.664 z" id="boundary" inkscape:connector-curvature="0" />
	<path style="fill:none;stroke:red;stroke-width:1px;stroke-linecap:butt;stroke-linejoin:miter;stroke-opacity:1" d="M 996,322.664 996,340.668 z" id="boundary" inkscape:connector-curvature="0" />
	<path style="fill:none;stroke:red;stroke-width:1px;stroke-linecap:butt;stroke-linejoin:miter;stroke-opacity:1" d="M 996,340.668 996,358.672 z" id="boundary" inkscape:connector-curvature="0" />
	<circle cx="4" cy="270.454" r="4" fill="#0" id="circle0"/>
	<circle cx="4" cy="288.457" r="4" fill="#0" id="circle1"/>
	<circle cx="4" cy="306.461" r="4" fill="#0" id="circle2"/>
	<circle cx="14.8022" cy="320.864" r="4" fill="#0" id="circle3"/>
	<circle cx="22.0036" cy="234.446" r="4" fill="#0" id="circle4"/>
	<circle cx="22.0036" cy="252.45" r="4" fill="#0" id="circle5"/>
	<circle cx="22.0036" cy="338.868" r="4" fill="#0" id="circle6"/>
	<circle cx="22.0036" cy="356.871" r="4" fill="#0" id="circle7"/>
	<circle cx="27.4047" cy="374.875" r="4" fill="#0" id="circle8"/>
	<circle cx="31.0054" cy="207.441" r="4" fill="#0" id="circle9"/>
	<circle cx="31.0054" cy="392.878" r="4" fill="#0" id="circle10"/>
	<circle cx="47.2087" cy="401.88" r="4" fill="#0" id="circle11"/>
	<circle cx="49.0091" cy="180.436" r="4" fill="#0" id="circle12"/>
	<circle cx="49.0091" cy="198.439" r="4" fill="#0" id="circle13"/>
	<circle cx="58.0109" cy="416.283" r="4" fill="#0" id="circle14"/>
	<circle cx="63.412" cy="166.033" r="4" fill="#0" id="circle15"/>
	<circle cx="72.4138" cy="428.886" r="4" fill="#0" id="circle16"/>
	<circle cx="77.8149" cy="151.63" r="4" fill="#0" id="circle17"/>
	<circle cx="85.0163" cy="443.289" r="4" fill="#0" id="circle18"/>
	<circle cx="92.2178" cy="139.027" r="4" fill="#0" id="circle19"/>
	<circle cx="99.4192" cy="455.891" r="4" fill="#0" id="circle20"/>
	<circle cx="104.82" cy="124.624" r="4" fill="#0" id="circle21"/>
	<circle cx="117.423" cy="463.093" r="4" fill="#0" id="circle22"/>
	<circle cx="119.223" cy="112.022" r="4" fill="#0" id="circle23"/>
	<circle cx="130.025" cy="477.495" r="4" fill="#0" id="circle24"/>
	<circle cx="137.227" cy="112.022" r="4" fill="#0" id="circle25"/>
	<circle cx="144.428" cy="94.0181" r="4" fill="#0" id="circle26"/>
	<circle cx="148.029" cy="482.897" r="4" fill="#0" id="circle27"/>
	<circle cx="162.432" cy="85.0163" r="4" fill="#0" id="circle28"/>
	<circle cx="164.232" cy="491.898" r="4" fill="#0" id="circle29"/>
	<circle cx="176.835" cy="70.6134" r="4" fill="#0" id="circle30"/>
	<circle cx="180.436" cy="500.9" r="4" fill="#0" id="circle31"/>
	<circle cx="194.838" cy="67.0127" r="4" fill="#0" id="circle32"/>
	<circle cx="198.439" cy="500.9" r="4" fill="#0" id="circle33"/>
	<circle cx="207.441" cy="517.103" r="4" fill="#0" id="circle34"/>
	<circle cx="212.842" cy="67.0127" r="4" fill="#0" id="circle35"/>
	<circle cx="225.445" cy="518.904" r="4" fill="#0" id="circle36"/>
	<circle cx="229.045" cy="58.0109" r="4" fill="#0" id="circle37"/>
	<circle cx="241.648" cy="527.906" r="4" fill="#0" id="circle38"/>
	<circle cx="247.049" cy="45.4083" r="4" fill="#0" id="circle39"/>
	<circle cx="256.051" cy="538.708" r="4" fill="#0" id="circle40"/>
	<circle cx="265.053" cy="40.0073" r="4" fill="#0" id="circle41"/>
	<circle cx="274.054" cy="545.909" r="4" fill="#0" id="circle42"/>
	<circle cx="283.056" cy="36.4065" r="4" fill="#0" id="circle43"/>
	<circle cx="292.058" cy="545.909" r="4" fill="#0" id="circle44"/>
	<circle cx="301.06" cy="31.0054" r="4" fill="#0" id="circle45"/>
	<circle cx="310.062" cy="545.909" r="4" fill="#0" id="circle46"/>
	<circle cx="319.064" cy="31.0054" r="4" fill="#0" id="circle47"/>
	<circle cx="326.265" cy="554.911" r="4" fill="#0" id="circle48"/>
	<circle cx="337.067" cy="31.0054" r="4" fill="#0" id="circle49"/>
	<circle cx="344.269" cy="554.911" r="4" fill="#0" id="circle50"/>
	<circle cx="347.869" cy="16.6025" r="4" fill="#0" id="circle51"/>
	<circle cx="362.272" cy="554.911" r="4" fill="#0" id="circle52"/>
	<circle cx="365.873" cy="13.0018" r="4" fill="#0" id="circle53"/>
	<circle cx="380.276" cy="554.911" r="4" fill="#0" id="circle54"/>
	<circle cx="383.877" cy="13.0018" r="4" fill="#0" id="circle55"/>
	<circle cx="392.878" cy="569.314" r="4" fill="#0" id="circle56"/>
	<circle cx="401.88" cy="13.0018" r="4" fill="#0" id="circle57"/>
	<circle cx="410.882" cy="572.915" r="4" fill="#0" id="circle58"/>
	<circle cx="419.884" cy="13.0018" r="4" fill="#0" id="circle59"/>
	<circle cx="427.085" cy="581.917" r="4" fill="#0" id="circle60"/>
	<circle cx="427.085" cy="599.92" r="4" fill="#0" id="circle61"/>
	<circle cx="437.887" cy="13.0018" r="4" fill="#0" id="circle62"/>
	<circle cx="443.289" cy="608.922" r="4" fill="#0" id="circle63"/>
	<circle cx="445.089" cy="626.926" r="4" fill="#0" id="circle64"/>
	<circle cx="445.089" cy="644.929" r="4" fill="#0" id="circle65"/>
	<circle cx="454.091" cy="661.132" r="4" fill="#0" id="circle66"/>
	<circle cx="455.891" cy="7.60073" r="4" fill="#0" id="circle67"/>
	<circle cx="468.494" cy="671.935" r="4" fill="#0" id="circle68"/>
	<circle cx="472.094" cy="689.938" r="4" fill="#0" id="circle69"/>
	<circle cx="473.895" cy="4" r="4" fill="#0" id="circle70"/>
	<circle cx="481.096" cy="706.142" r="4" fill="#0" id="circle71"/>
	<circle cx="481.096" cy="724.145" r="4" fill="#0" id="circle72"/>
	<circle cx="484.697" cy="742.149" r="4" fill="#0" id="circle73"/>
	<circle cx="490.098" cy="760.152" r="4" fill="#0" id="circle74"/>
	<circle cx="491.898" cy="4" r="4" fill="#0" id="circle75"/>
	<circle cx="499.1" cy="776.356" r="4" fill="#0" id="circle76"/>
	<circle cx="508.102" cy="792.559" r="4" fill="#0" id="circle77"/>
	<circle cx="509.902" cy="4" r="4" fill="#0" id="circle78"/>
	<circle cx="526.105" cy="783.557" r="4" fill="#0" id="circle79"/>
	<circle cx="527.906" cy="4" r="4" fill="#0" id="circle80"/>
	<circle cx="535.107" cy="765.554" r="4" fill="#0" id="circle81"/>
	<circle cx="536.907" cy="743.949" r="4" fill="#0" id="circle82"/>
	<circle cx="545.909" cy="9.40109" r="4" fill="#0" id="circle83"/>
	<circle cx="545.909" cy="698.94" r="4" fill="#0" id="circle84"/>
	<circle cx="545.909" cy="716.944" r="4" fill="#0" id="circle85"/>
	<circle cx="563.913" cy="13.0018" r="4" fill="#0" id="circle86"/>
	<circle cx="563.913" cy="671.935" r="4" fill="#0" id="circle87"/>
	<circle cx="563.913" cy="689.938" r="4" fill="#0" id="circle88"/>
	<circle cx="572.915" cy="653.931" r="4" fill="#0" id="circle89"/>
	<circle cx="581.917" cy="13.0018" r="4" fill="#0" id="circle90"/>
	<circle cx="590.918" cy="608.922" r="4" fill="#0" id="circle91"/>
	<circle cx="590.918" cy="626.926" r="4" fill="#0" id="circle92"/>
	<circle cx="590.918" cy="644.929" r="4" fill="#0" id="circle93"/>
	<circle cx="599.92" cy="13.0018" r="4" fill="#0" id="circle94"/>
	<circle cx="599.92" cy="581.917" r="4" fill="#0" id="circle95"/>
	<circle cx="617.924" cy="13.0018" r="4" fill="#0" id="circle96"/>
	<circle cx="617.924" cy="572.915" r="4" fill="#0" id="circle97"/>
	<circle cx="626.926" cy="554.911" r="4" fill="#0" id="circle98"/>
	<circle cx="635.927" cy="13.0018" r="4" fill="#0" id="circle99"/>
	<circle cx="644.929" cy="554.911" r="4" fill="#0" id="circle100"/>
	<circle cx="653.931" cy="18.4029" r="4" fill="#0" id="circle101"/>
	<circle cx="662.933" cy="554.911" r="4" fill="#0" id="circle102"/>
	<circle cx="668.334" cy="31.0054" r="4" fill="#0" id="circle103"/>
	<circle cx="680.936" cy="545.909" r="4" fill="#0" id="circle104"/>
	<circle cx="686.338" cy="31.0054" r="4" fill="#0" id="circle105"/>
	<circle cx="698.94" cy="545.909" r="4" fill="#0" id="circle106"/>
	<circle cx="704.341" cy="31.0054" r="4" fill="#0" id="circle107"/>
	<circle cx="716.944" cy="545.909" r="4" fill="#0" id="circle108"/>
	<circle cx="720.544" cy="40.0073" r="4" fill="#0" id="circle109"/>
	<circle cx="734.947" cy="527.906" r="4" fill="#0" id="circle110"/>
	<circle cx="738.548" cy="40.0073" r="4" fill="#0" id="circle111"/>
	<circle cx="752.951" cy="527.906" r="4" fill="#0" id="circle112"/>
	<circle cx="756.552" cy="40.0073" r="4" fill="#0" id="circle113"/>
	<circle cx="761.953" cy="58.0109" r="4" fill="#0" id="circle114"/>
	<circle cx="770.955" cy="527.906" r="4" fill="#0" id="circle115"/>
	<circle cx="779.956" cy="58.0109" r="4" fill="#0" id="circle116"/>
	<circle cx="788.958" cy="518.904" r="4" fill="#0" id="circle117"/>
	<circle cx="797.96" cy="63.412" r="4" fill="#0" id="circle118"/>
	<circle cx="806.962" cy="500.9" r="4" fill="#0" id="circle119"/>
	<circle cx="815.964" cy="67.0127" r="4" fill="#0" id="circle120"/>
	<circle cx="824.966" cy="500.9" r="4" fill="#0" id="circle121"/>
	<circle cx="833.967" cy="72.4138" r="4" fill="#0" id="circle122"/>
	<circle cx="841.169" cy="491.898" r="4" fill="#0" id="circle123"/>
	<circle cx="848.37" cy="85.0163" r="4" fill="#0" id="circle124"/>
	<circle cx="859.172" cy="486.497" r="4" fill="#0" id="circle125"/>
	<circle cx="864.574" cy="94.0181" r="4" fill="#0" id="circle126"/>
	<circle cx="877.176" cy="482.897" r="4" fill="#0" id="circle127"/>
	<circle cx="878.976" cy="104.82" r="4" fill="#0" id="circle128"/>
	<circle cx="887.978" cy="464.893" r="4" fill="#0" id="circle129"/>
	<circle cx="896.98" cy="112.022" r="4" fill="#0" id="circle130"/>
	<circle cx="905.982" cy="455.891" r="4" fill="#0" id="circle131"/>
	<circle cx="911.383" cy="122.824" r="4" fill="#0" id="circle132"/>
	<circle cx="920.385" cy="139.027" r="4" fill="#0" id="circle133"/>
	<circle cx="923.985" cy="455.891" r="4" fill="#0" id="circle134"/>
	<circle cx="932.987" cy="437.887" r="4" fill="#0" id="circle135"/>
	<circle cx="936.588" cy="148.029" r="4" fill="#0" id="circle136"/>
	<circle cx="941.989" cy="166.033" r="4" fill="#0" id="circle137"/>
	<circle cx="949.191" cy="428.886" r="4" fill="#0" id="circle138"/>
	<circle cx="959.993" cy="171.434" r="4" fill="#0" id="circle139"/>
	<circle cx="959.993" cy="410.882" r="4" fill="#0" id="circle140"/>
	<circle cx="968.995" cy="187.637" r="4" fill="#0" id="circle141"/>
	<circle cx="974.396" cy="205.641" r="4" fill="#0" id="circle142"/>
	<circle cx="974.396" cy="398.279" r="4" fill="#0" id="circle143"/>
	<circle cx="977.996" cy="223.644" r="4" fill="#0" id="circle144"/>
	<circle cx="977.996" cy="374.875" r="4" fill="#0" id="circle145"/>
	<circle cx="994.2" cy="232.646" r="4" fill="#0" id="circle146"/>
	<circle cx="996" cy="250.65" r="4" fill="#0" id="circle147"/>
	<circle cx="996" cy="268.653" r="4" fill="#0" id="circle148"/>
	<circle cx="996" cy="286.657" r="4" fill="#0" id="circle149"/>
	<circle cx="996" cy="304.661" r="4" fill="#0" id="circle150"/>
	<circle cx="996" cy="322.664" r="4" fill="#0" id="circle151"/>
	<circle cx="996" cy="340.668" r="4" fill="#0" id="circle152"/>
	<circle cx="996" cy="358.672" r="4" fill="#0" id="circle153"/>
	</g>
</svg>