<?xml version="1.0" encoding="UTF-8" standalone="no"?>
<!-- Created with CurveBenchmark -->
<svg
	xmlns:dc="http://purl.org/dc/elements/1.1/"
	xmlns:cc="http://creativecommons.org/ns#"
	xmlns:rdf="http://www.w3.org/1999/02/22-rdf-syntax-ns#"
	xmlns:svg="http://www.w3.org/2000/svg"
	xmlns="http://www.w3.org/2000/svg"
	xmlns:sodipodi="http://sodipodi.sourceforge.net/DTD/sodipodi-0.dtd"
	xmlns:inkscape="http://www.inkscape.org/namespaces/inkscape"
	width="1000"
	height="1000"
	id="svg2"
	version="1.1"
	sodipodi:docname="manifold/hnncrust-guitar320.png.txt">
<defs
	id="defs4" />
<metadata
	id="metadata7">
	<rdf:RDF>
		<cc:Work
			rdf:about="">
			<dc:format>image/svg+xml</dc:format>
			<dc:type
				rdf:resource="http://purl.org/dc/dcmitype/StillImage" />
			<dc:title></dc:title>
		</cc:Work>
	</rdf:RDF>
</metadata>
<g
	inkscape:label="Layer 1"
	inkscape:groupmode="layer"
	id="layer1">
	<path style="fill:none;stroke:red;stroke-width:1px;stroke-linecap:butt;stroke-linejoin:miter;stroke-opacity:1" d="M 4,817.23 4,852.283 z" id="boundary" inkscape:connector-curvature="0" />
	<path style="fill:none;stroke:red;stroke-width:1px;stroke-linecap:butt;stroke-linejoin:miter;stroke-opacity:1" d="M 4,817.23 11.0106,782.177 z" id="boundary" inkscape:connector-curvature="0" />
	<path style="fill:none;stroke:red;stroke-width:1px;stroke-linecap:butt;stroke-linejoin:miter;stroke-opacity:1" d="M 4,852.283 11.0106,887.336 z" id="boundary" inkscape:connector-curvature="0" />
	<path style="fill:none;stroke:red;stroke-width:1px;stroke-linecap:butt;stroke-linejoin:miter;stroke-opacity:1" d="M 11.0106,782.177 28.5371,750.629 z" id="boundary" inkscape:connector-curvature="0" />
	<path style="fill:none;stroke:red;stroke-width:1px;stroke-linecap:butt;stroke-linejoin:miter;stroke-opacity:1" d="M 11.0106,887.336 25.0318,922.389 z" id="boundary" inkscape:connector-curvature="0" />
	<path style="fill:none;stroke:red;stroke-width:1px;stroke-linecap:butt;stroke-linejoin:miter;stroke-opacity:1" d="M 25.0318,922.389 49.5689,950.431 z" id="boundary" inkscape:connector-curvature="0" />
	<path style="fill:none;stroke:red;stroke-width:1px;stroke-linecap:butt;stroke-linejoin:miter;stroke-opacity:1" d="M 28.5371,750.629 46.0636,712.071 z" id="boundary" inkscape:connector-curvature="0" />
	<path style="fill:none;stroke:red;stroke-width:1px;stroke-linecap:butt;stroke-linejoin:miter;stroke-opacity:1" d="M 39.053,571.859 46.0636,606.912 z" id="boundary" inkscape:connector-curvature="0" />
	<path style="fill:none;stroke:red;stroke-width:1px;stroke-linecap:butt;stroke-linejoin:miter;stroke-opacity:1" d="M 39.053,571.859 53.0742,536.806 z" id="boundary" inkscape:connector-curvature="0" />
	<path style="fill:none;stroke:red;stroke-width:1px;stroke-linecap:butt;stroke-linejoin:miter;stroke-opacity:1" d="M 46.0636,606.912 56.5795,641.965 z" id="boundary" inkscape:connector-curvature="0" />
	<path style="fill:none;stroke:red;stroke-width:1px;stroke-linecap:butt;stroke-linejoin:miter;stroke-opacity:1" d="M 46.0636,712.071 60.0848,677.018 z" id="boundary" inkscape:connector-curvature="0" />
	<path style="fill:none;stroke:red;stroke-width:1px;stroke-linecap:butt;stroke-linejoin:miter;stroke-opacity:1" d="M 49.5689,950.431 77.6113,971.463 z" id="boundary" inkscape:connector-curvature="0" />
	<path style="fill:none;stroke:red;stroke-width:1px;stroke-linecap:butt;stroke-linejoin:miter;stroke-opacity:1" d="M 53.0742,536.806 81.1166,508.763 z" id="boundary" inkscape:connector-curvature="0" />
	<path style="fill:none;stroke:red;stroke-width:1px;stroke-linecap:butt;stroke-linejoin:miter;stroke-opacity:1" d="M 56.5795,641.965 60.0848,677.018 z" id="boundary" inkscape:connector-curvature="0" />
	<path style="fill:none;stroke:red;stroke-width:1px;stroke-linecap:butt;stroke-linejoin:miter;stroke-opacity:1" d="M 77.6113,971.463 112.664,981.979 z" id="boundary" inkscape:connector-curvature="0" />
	<path style="fill:none;stroke:red;stroke-width:1px;stroke-linecap:butt;stroke-linejoin:miter;stroke-opacity:1" d="M 81.1166,508.763 116.17,501.753 z" id="boundary" inkscape:connector-curvature="0" />
	<path style="fill:none;stroke:red;stroke-width:1px;stroke-linecap:butt;stroke-linejoin:miter;stroke-opacity:1" d="M 112.664,981.979 147.717,988.989 z" id="boundary" inkscape:connector-curvature="0" />
	<path style="fill:none;stroke:red;stroke-width:1px;stroke-linecap:butt;stroke-linejoin:miter;stroke-opacity:1" d="M 116.17,501.753 130.191,459.689 z" id="boundary" inkscape:connector-curvature="0" />
	<path style="fill:none;stroke:red;stroke-width:1px;stroke-linecap:butt;stroke-linejoin:miter;stroke-opacity:1" d="M 130.191,95.1378 137.201,130.191 z" id="boundary" inkscape:connector-curvature="0" />
	<path style="fill:none;stroke:red;stroke-width:1px;stroke-linecap:butt;stroke-linejoin:miter;stroke-opacity:1" d="M 130.191,95.1378 144.212,32.0424 z" id="boundary" inkscape:connector-curvature="0" />
	<path style="fill:none;stroke:red;stroke-width:1px;stroke-linecap:butt;stroke-linejoin:miter;stroke-opacity:1" d="M 130.191,214.318 130.191,249.371 z" id="boundary" inkscape:connector-curvature="0" />
	<path style="fill:none;stroke:red;stroke-width:1px;stroke-linecap:butt;stroke-linejoin:miter;stroke-opacity:1" d="M 130.191,249.371 130.191,284.424 z" id="boundary" inkscape:connector-curvature="0" />
	<path style="fill:none;stroke:red;stroke-width:1px;stroke-linecap:butt;stroke-linejoin:miter;stroke-opacity:1" d="M 130.191,284.424 130.191,319.477 z" id="boundary" inkscape:connector-curvature="0" />
	<path style="fill:none;stroke:red;stroke-width:1px;stroke-linecap:butt;stroke-linejoin:miter;stroke-opacity:1" d="M 130.191,319.477 130.191,354.53 z" id="boundary" inkscape:connector-curvature="0" />
	<path style="fill:none;stroke:red;stroke-width:1px;stroke-linecap:butt;stroke-linejoin:miter;stroke-opacity:1" d="M 130.191,354.53 130.191,389.583 z" id="boundary" inkscape:connector-curvature="0" />
	<path style="fill:none;stroke:red;stroke-width:1px;stroke-linecap:butt;stroke-linejoin:miter;stroke-opacity:1" d="M 130.191,389.583 130.191,424.636 z" id="boundary" inkscape:connector-curvature="0" />
	<path style="fill:none;stroke:red;stroke-width:1px;stroke-linecap:butt;stroke-linejoin:miter;stroke-opacity:1" d="M 130.191,424.636 130.191,459.689 z" id="boundary" inkscape:connector-curvature="0" />
	<path style="fill:none;stroke:red;stroke-width:1px;stroke-linecap:butt;stroke-linejoin:miter;stroke-opacity:1" d="M 137.201,130.191 137.201,165.244 z" id="boundary" inkscape:connector-curvature="0" />
	<path style="fill:none;stroke:red;stroke-width:1px;stroke-linecap:butt;stroke-linejoin:miter;stroke-opacity:1" d="M 144.212,32.0424 172.254,4 z" id="boundary" inkscape:connector-curvature="0" />
	<path style="fill:none;stroke:red;stroke-width:1px;stroke-linecap:butt;stroke-linejoin:miter;stroke-opacity:1" d="M 147.717,988.989 182.77,996 z" id="boundary" inkscape:connector-curvature="0" />
	<path style="fill:none;stroke:red;stroke-width:1px;stroke-linecap:butt;stroke-linejoin:miter;stroke-opacity:1" d="M 172.254,4 207.307,11.0106 z" id="boundary" inkscape:connector-curvature="0" />
	<path style="fill:none;stroke:red;stroke-width:1px;stroke-linecap:butt;stroke-linejoin:miter;stroke-opacity:1" d="M 175.76,137.201 175.76,172.254 z" id="boundary" inkscape:connector-curvature="0" />
	<path style="fill:none;stroke:red;stroke-width:1px;stroke-linecap:butt;stroke-linejoin:miter;stroke-opacity:1" d="M 175.76,172.254 175.76,207.307 z" id="boundary" inkscape:connector-curvature="0" />
	<path style="fill:none;stroke:red;stroke-width:1px;stroke-linecap:butt;stroke-linejoin:miter;stroke-opacity:1" d="M 175.76,207.307 175.76,242.36 z" id="boundary" inkscape:connector-curvature="0" />
	<path style="fill:none;stroke:red;stroke-width:1px;stroke-linecap:butt;stroke-linejoin:miter;stroke-opacity:1" d="M 175.76,242.36 182.77,277.413 z" id="boundary" inkscape:connector-curvature="0" />
	<path style="fill:none;stroke:red;stroke-width:1px;stroke-linecap:butt;stroke-linejoin:miter;stroke-opacity:1" d="M 182.77,277.413 182.77,312.466 z" id="boundary" inkscape:connector-curvature="0" />
	<path style="fill:none;stroke:red;stroke-width:1px;stroke-linecap:butt;stroke-linejoin:miter;stroke-opacity:1" d="M 182.77,312.466 182.77,347.519 z" id="boundary" inkscape:connector-curvature="0" />
	<path style="fill:none;stroke:red;stroke-width:1px;stroke-linecap:butt;stroke-linejoin:miter;stroke-opacity:1" d="M 182.77,347.519 182.77,382.572 z" id="boundary" inkscape:connector-curvature="0" />
	<path style="fill:none;stroke:red;stroke-width:1px;stroke-linecap:butt;stroke-linejoin:miter;stroke-opacity:1" d="M 182.77,382.572 182.77,417.625 z" id="boundary" inkscape:connector-curvature="0" />
	<path style="fill:none;stroke:red;stroke-width:1px;stroke-linecap:butt;stroke-linejoin:miter;stroke-opacity:1" d="M 182.77,417.625 182.77,452.678 z" id="boundary" inkscape:connector-curvature="0" />
	<path style="fill:none;stroke:red;stroke-width:1px;stroke-linecap:butt;stroke-linejoin:miter;stroke-opacity:1" d="M 182.77,452.678 203.802,480.721 z" id="boundary" inkscape:connector-curvature="0" />
	<path style="fill:none;stroke:red;stroke-width:1px;stroke-linecap:butt;stroke-linejoin:miter;stroke-opacity:1" d="M 182.77,996 217.823,988.989 z" id="boundary" inkscape:connector-curvature="0" />
	<path style="fill:none;stroke:red;stroke-width:1px;stroke-linecap:butt;stroke-linejoin:miter;stroke-opacity:1" d="M 196.792,81.1166 203.802,46.0636 z" id="boundary" inkscape:connector-curvature="0" />
	<path style="fill:none;stroke:red;stroke-width:1px;stroke-linecap:butt;stroke-linejoin:miter;stroke-opacity:1" d="M 203.802,46.0636 207.307,11.0106 z" id="boundary" inkscape:connector-curvature="0" />
	<path style="fill:none;stroke:red;stroke-width:1px;stroke-linecap:butt;stroke-linejoin:miter;stroke-opacity:1" d="M 203.802,480.721 238.855,494.742 z" id="boundary" inkscape:connector-curvature="0" />
	<path style="fill:none;stroke:red;stroke-width:1px;stroke-linecap:butt;stroke-linejoin:miter;stroke-opacity:1" d="M 217.823,988.989 252.876,985.484 z" id="boundary" inkscape:connector-curvature="0" />
	<path style="fill:none;stroke:red;stroke-width:1px;stroke-linecap:butt;stroke-linejoin:miter;stroke-opacity:1" d="M 238.855,494.742 238.855,529.795 z" id="boundary" inkscape:connector-curvature="0" />
	<path style="fill:none;stroke:red;stroke-width:1px;stroke-linecap:butt;stroke-linejoin:miter;stroke-opacity:1" d="M 238.855,529.795 273.908,543.816 z" id="boundary" inkscape:connector-curvature="0" />
	<path style="fill:none;stroke:red;stroke-width:1px;stroke-linecap:butt;stroke-linejoin:miter;stroke-opacity:1" d="M 252.876,985.484 287.929,974.968 z" id="boundary" inkscape:connector-curvature="0" />
	<path style="fill:none;stroke:red;stroke-width:1px;stroke-linecap:butt;stroke-linejoin:miter;stroke-opacity:1" d="M 273.908,543.816 308.961,543.816 z" id="boundary" inkscape:connector-curvature="0" />
	<path style="fill:none;stroke:red;stroke-width:1px;stroke-linecap:butt;stroke-linejoin:miter;stroke-opacity:1" d="M 287.929,974.968 315.972,950.431 z" id="boundary" inkscape:connector-curvature="0" />
	<path style="fill:none;stroke:red;stroke-width:1px;stroke-linecap:butt;stroke-linejoin:miter;stroke-opacity:1" d="M 308.961,543.816 329.993,571.859 z" id="boundary" inkscape:connector-curvature="0" />
	<path style="fill:none;stroke:red;stroke-width:1px;stroke-linecap:butt;stroke-linejoin:miter;stroke-opacity:1" d="M 308.961,655.986 315.972,691.039 z" id="boundary" inkscape:connector-curvature="0" />
	<path style="fill:none;stroke:red;stroke-width:1px;stroke-linecap:butt;stroke-linejoin:miter;stroke-opacity:1" d="M 308.961,655.986 322.982,620.933 z" id="boundary" inkscape:connector-curvature="0" />
	<path style="fill:none;stroke:red;stroke-width:1px;stroke-linecap:butt;stroke-linejoin:miter;stroke-opacity:1" d="M 315.972,691.039 329.993,726.092 z" id="boundary" inkscape:connector-curvature="0" />
	<path style="fill:none;stroke:red;stroke-width:1px;stroke-linecap:butt;stroke-linejoin:miter;stroke-opacity:1" d="M 315.972,950.431 337.004,922.389 z" id="boundary" inkscape:connector-curvature="0" />
	<path style="fill:none;stroke:red;stroke-width:1px;stroke-linecap:butt;stroke-linejoin:miter;stroke-opacity:1" d="M 322.982,620.933 329.993,571.859 z" id="boundary" inkscape:connector-curvature="0" />
	<path style="fill:none;stroke:red;stroke-width:1px;stroke-linecap:butt;stroke-linejoin:miter;stroke-opacity:1" d="M 329.993,726.092 347.519,757.64 z" id="boundary" inkscape:connector-curvature="0" />
	<path style="fill:none;stroke:red;stroke-width:1px;stroke-linecap:butt;stroke-linejoin:miter;stroke-opacity:1" d="M 337.004,922.389 354.53,890.841 z" id="boundary" inkscape:connector-curvature="0" />
	<path style="fill:none;stroke:red;stroke-width:1px;stroke-linecap:butt;stroke-linejoin:miter;stroke-opacity:1" d="M 347.519,757.64 358.035,792.693 z" id="boundary" inkscape:connector-curvature="0" />
	<path style="fill:none;stroke:red;stroke-width:1px;stroke-linecap:butt;stroke-linejoin:miter;stroke-opacity:1" d="M 354.53,890.841 365.046,827.746 z" id="boundary" inkscape:connector-curvature="0" />
	<path style="fill:none;stroke:red;stroke-width:1px;stroke-linecap:butt;stroke-linejoin:miter;stroke-opacity:1" d="M 358.035,792.693 365.046,827.746 z" id="boundary" inkscape:connector-curvature="0" />
	<circle cx="4" cy="817.23" r="4" fill="#0" id="circle0"/>
	<circle cx="4" cy="852.283" r="4" fill="#0" id="circle1"/>
	<circle cx="11.0106" cy="782.177" r="4" fill="#0" id="circle2"/>
	<circle cx="11.0106" cy="887.336" r="4" fill="#0" id="circle3"/>
	<circle cx="25.0318" cy="922.389" r="4" fill="#0" id="circle4"/>
	<circle cx="28.5371" cy="750.629" r="4" fill="#0" id="circle5"/>
	<circle cx="39.053" cy="571.859" r="4" fill="#0" id="circle6"/>
	<circle cx="46.0636" cy="606.912" r="4" fill="#0" id="circle7"/>
	<circle cx="46.0636" cy="712.071" r="4" fill="#0" id="circle8"/>
	<circle cx="49.5689" cy="950.431" r="4" fill="#0" id="circle9"/>
	<circle cx="53.0742" cy="536.806" r="4" fill="#0" id="circle10"/>
	<circle cx="56.5795" cy="641.965" r="4" fill="#0" id="circle11"/>
	<circle cx="60.0848" cy="677.018" r="4" fill="#0" id="circle12"/>
	<circle cx="77.6113" cy="971.463" r="4" fill="#0" id="circle13"/>
	<circle cx="81.1166" cy="508.763" r="4" fill="#0" id="circle14"/>
	<circle cx="112.664" cy="981.979" r="4" fill="#0" id="circle15"/>
	<circle cx="116.17" cy="501.753" r="4" fill="#0" id="circle16"/>
	<circle cx="130.191" cy="95.1378" r="4" fill="#0" id="circle17"/>
	<circle cx="130.191" cy="214.318" r="4" fill="#0" id="circle18"/>
	<circle cx="130.191" cy="249.371" r="4" fill="#0" id="circle19"/>
	<circle cx="130.191" cy="284.424" r="4" fill="#0" id="circle20"/>
	<circle cx="130.191" cy="319.477" r="4" fill="#0" id="circle21"/>
	<circle cx="130.191" cy="354.53" r="4" fill="#0" id="circle22"/>
	<circle cx="130.191" cy="389.583" r="4" fill="#0" id="circle23"/>
	<circle cx="130.191" cy="424.636" r="4" fill="#0" id="circle24"/>
	<circle cx="130.191" cy="459.689" r="4" fill="#0" id="circle25"/>
	<circle cx="137.201" cy="130.191" r="4" fill="#0" id="circle26"/>
	<circle cx="137.201" cy="165.244" r="4" fill="#0" id="circle27"/>
	<circle cx="144.212" cy="32.0424" r="4" fill="#0" id="circle28"/>
	<circle cx="147.717" cy="988.989" r="4" fill="#0" id="circle29"/>
	<circle cx="172.254" cy="4" r="4" fill="#0" id="circle30"/>
	<circle cx="175.76" cy="137.201" r="4" fill="#0" id="circle31"/>
	<circle cx="175.76" cy="172.254" r="4" fill="#0" id="circle32"/>
	<circle cx="175.76" cy="207.307" r="4" fill="#0" id="circle33"/>
	<circle cx="175.76" cy="242.36" r="4" fill="#0" id="circle34"/>
	<circle cx="182.77" cy="277.413" r="4" fill="#0" id="circle35"/>
	<circle cx="182.77" cy="312.466" r="4" fill="#0" id="circle36"/>
	<circle cx="182.77" cy="347.519" r="4" fill="#0" id="circle37"/>
	<circle cx="182.77" cy="382.572" r="4" fill="#0" id="circle38"/>
	<circle cx="182.77" cy="417.625" r="4" fill="#0" id="circle39"/>
	<circle cx="182.77" cy="452.678" r="4" fill="#0" id="circle40"/>
	<circle cx="182.77" cy="996" r="4" fill="#0" id="circle41"/>
	<circle cx="196.792" cy="81.1166" r="4" fill="#0" id="circle42"/>
	<circle cx="203.802" cy="46.0636" r="4" fill="#0" id="circle43"/>
	<circle cx="203.802" cy="480.721" r="4" fill="#0" id="circle44"/>
	<circle cx="207.307" cy="11.0106" r="4" fill="#0" id="circle45"/>
	<circle cx="217.823" cy="988.989" r="4" fill="#0" id="circle46"/>
	<circle cx="238.855" cy="494.742" r="4" fill="#0" id="circle47"/>
	<circle cx="238.855" cy="529.795" r="4" fill="#0" id="circle48"/>
	<circle cx="252.876" cy="985.484" r="4" fill="#0" id="circle49"/>
	<circle cx="273.908" cy="543.816" r="4" fill="#0" id="circle50"/>
	<circle cx="287.929" cy="974.968" r="4" fill="#0" id="circle51"/>
	<circle cx="308.961" cy="543.816" r="4" fill="#0" id="circle52"/>
	<circle cx="308.961" cy="655.986" r="4" fill="#0" id="circle53"/>
	<circle cx="315.972" cy="691.039" r="4" fill="#0" id="circle54"/>
	<circle cx="315.972" cy="950.431" r="4" fill="#0" id="circle55"/>
	<circle cx="322.982" cy="620.933" r="4" fill="#0" id="circle56"/>
	<circle cx="329.993" cy="571.859" r="4" fill="#0" id="circle57"/>
	<circle cx="329.993" cy="726.092" r="4" fill="#0" id="circle58"/>
	<circle cx="337.004" cy="922.389" r="4" fill="#0" id="circle59"/>
	<circle cx="347.519" cy="757.64" r="4" fill="#0" id="circle60"/>
	<circle cx="354.53" cy="890.841" r="4" fill="#0" id="circle61"/>
	<circle cx="358.035" cy="792.693" r="4" fill="#0" id="circle62"/>
	<circle cx="365.046" cy="827.746" r="4" fill="#0" id="circle63"/>
	</g>
</svg>