<?xml version="1.0" encoding="UTF-8" standalone="no"?>
<!-- Created with CurveBenchmark -->
<svg
	xmlns:dc="http://purl.org/dc/elements/1.1/"
	xmlns:cc="http://creativecommons.org/ns#"
	xmlns:rdf="http://www.w3.org/1999/02/22-rdf-syntax-ns#"
	xmlns:svg="http://www.w3.org/2000/svg"
	xmlns="http://www.w3.org/2000/svg"
	xmlns:sodipodi="http://sodipodi.sourceforge.net/DTD/sodipodi-0.dtd"
	xmlns:inkscape="http://www.inkscape.org/namespaces/inkscape"
	width="1000"
	height="1000"
	id="svg2"
	version="1.1"
	sodipodi:docname="manifold/hnncrust-Glas03.png.txt">
<defs
	id="defs4" />
<metadata
	id="metadata7">
	<rdf:RDF>
		<cc:Work
			rdf:about="">
			<dc:format>image/svg+xml</dc:format>
			<dc:type
				rdf:resource="http://purl.org/dc/dcmitype/StillImage" />
			<dc:title></dc:title>
		</cc:Work>
	</rdf:RDF>
</metadata>
<g
	inkscape:label="Layer 1"
	inkscape:groupmode="layer"
	id="layer1">
	<path style="fill:none;stroke:red;stroke-width:1px;stroke-linecap:butt;stroke-linejoin:miter;stroke-opacity:1" d="M 4,10.4555 4,31.974 z" id="boundary" inkscape:connector-curvature="0" />
	<path style="fill:none;stroke:red;stroke-width:1px;stroke-linecap:butt;stroke-linejoin:miter;stroke-opacity:1" d="M 4,10.4555 25.5184,4 z" id="boundary" inkscape:connector-curvature="0" />
	<path style="fill:none;stroke:red;stroke-width:1px;stroke-linecap:butt;stroke-linejoin:miter;stroke-opacity:1" d="M 4,31.974 14.7592,51.3406 z" id="boundary" inkscape:connector-curvature="0" />
	<path style="fill:none;stroke:red;stroke-width:1px;stroke-linecap:butt;stroke-linejoin:miter;stroke-opacity:1" d="M 14.7592,51.3406 25.5184,70.7072 z" id="boundary" inkscape:connector-curvature="0" />
	<path style="fill:none;stroke:red;stroke-width:1px;stroke-linecap:butt;stroke-linejoin:miter;stroke-opacity:1" d="M 25.5184,4 47.0369,4 z" id="boundary" inkscape:connector-curvature="0" />
	<path style="fill:none;stroke:red;stroke-width:1px;stroke-linecap:butt;stroke-linejoin:miter;stroke-opacity:1" d="M 25.5184,70.7072 31.974,92.2256 z" id="boundary" inkscape:connector-curvature="0" />
	<path style="fill:none;stroke:red;stroke-width:1px;stroke-linecap:butt;stroke-linejoin:miter;stroke-opacity:1" d="M 31.974,92.2256 36.2777,113.744 z" id="boundary" inkscape:connector-curvature="0" />
	<path style="fill:none;stroke:red;stroke-width:1px;stroke-linecap:butt;stroke-linejoin:miter;stroke-opacity:1" d="M 36.2777,113.744 36.2777,135.262 z" id="boundary" inkscape:connector-curvature="0" />
	<path style="fill:none;stroke:red;stroke-width:1px;stroke-linecap:butt;stroke-linejoin:miter;stroke-opacity:1" d="M 36.2777,135.262 47.0369,154.629 z" id="boundary" inkscape:connector-curvature="0" />
	<path style="fill:none;stroke:red;stroke-width:1px;stroke-linecap:butt;stroke-linejoin:miter;stroke-opacity:1" d="M 47.0369,4 68.5553,4 z" id="boundary" inkscape:connector-curvature="0" />
	<path style="fill:none;stroke:red;stroke-width:1px;stroke-linecap:butt;stroke-linejoin:miter;stroke-opacity:1" d="M 47.0369,154.629 51.3406,176.148 z" id="boundary" inkscape:connector-curvature="0" />
	<path style="fill:none;stroke:red;stroke-width:1px;stroke-linecap:butt;stroke-linejoin:miter;stroke-opacity:1" d="M 51.3406,176.148 57.7961,197.666 z" id="boundary" inkscape:connector-curvature="0" />
	<path style="fill:none;stroke:red;stroke-width:1px;stroke-linecap:butt;stroke-linejoin:miter;stroke-opacity:1" d="M 57.7961,197.666 62.0998,219.184 z" id="boundary" inkscape:connector-curvature="0" />
	<path style="fill:none;stroke:red;stroke-width:1px;stroke-linecap:butt;stroke-linejoin:miter;stroke-opacity:1" d="M 57.7961,983.089 75.0108,996 z" id="boundary" inkscape:connector-curvature="0" />
	<path style="fill:none;stroke:red;stroke-width:1px;stroke-linecap:butt;stroke-linejoin:miter;stroke-opacity:1" d="M 57.7961,983.089 77.1627,972.33 z" id="boundary" inkscape:connector-curvature="0" />
	<path style="fill:none;stroke:red;stroke-width:1px;stroke-linecap:butt;stroke-linejoin:miter;stroke-opacity:1" d="M 62.0998,219.184 79.3145,232.095 z" id="boundary" inkscape:connector-curvature="0" />
	<path style="fill:none;stroke:red;stroke-width:1px;stroke-linecap:butt;stroke-linejoin:miter;stroke-opacity:1" d="M 68.5553,4 90.0738,4 z" id="boundary" inkscape:connector-curvature="0" />
	<path style="fill:none;stroke:red;stroke-width:1px;stroke-linecap:butt;stroke-linejoin:miter;stroke-opacity:1" d="M 75.0108,996 96.5293,996 z" id="boundary" inkscape:connector-curvature="0" />
	<path style="fill:none;stroke:red;stroke-width:1px;stroke-linecap:butt;stroke-linejoin:miter;stroke-opacity:1" d="M 77.1627,972.33 96.5293,961.57 z" id="boundary" inkscape:connector-curvature="0" />
	<path style="fill:none;stroke:red;stroke-width:1px;stroke-linecap:butt;stroke-linejoin:miter;stroke-opacity:1" d="M 79.3145,232.095 90.0738,251.462 z" id="boundary" inkscape:connector-curvature="0" />
	<path style="fill:none;stroke:red;stroke-width:1px;stroke-linecap:butt;stroke-linejoin:miter;stroke-opacity:1" d="M 90.0738,4 111.592,4 z" id="boundary" inkscape:connector-curvature="0" />
	<path style="fill:none;stroke:red;stroke-width:1px;stroke-linecap:butt;stroke-linejoin:miter;stroke-opacity:1" d="M 90.0738,251.462 102.985,268.677 z" id="boundary" inkscape:connector-curvature="0" />
	<path style="fill:none;stroke:red;stroke-width:1px;stroke-linecap:butt;stroke-linejoin:miter;stroke-opacity:1" d="M 96.5293,961.57 118.048,961.57 z" id="boundary" inkscape:connector-curvature="0" />
	<path style="fill:none;stroke:red;stroke-width:1px;stroke-linecap:butt;stroke-linejoin:miter;stroke-opacity:1" d="M 96.5293,996 118.048,996 z" id="boundary" inkscape:connector-curvature="0" />
	<path style="fill:none;stroke:red;stroke-width:1px;stroke-linecap:butt;stroke-linejoin:miter;stroke-opacity:1" d="M 102.985,268.677 118.048,285.892 z" id="boundary" inkscape:connector-curvature="0" />
	<path style="fill:none;stroke:red;stroke-width:1px;stroke-linecap:butt;stroke-linejoin:miter;stroke-opacity:1" d="M 111.592,4 133.111,4 z" id="boundary" inkscape:connector-curvature="0" />
	<path style="fill:none;stroke:red;stroke-width:1px;stroke-linecap:butt;stroke-linejoin:miter;stroke-opacity:1" d="M 118.048,285.892 122.351,307.41 z" id="boundary" inkscape:connector-curvature="0" />
	<path style="fill:none;stroke:red;stroke-width:1px;stroke-linecap:butt;stroke-linejoin:miter;stroke-opacity:1" d="M 118.048,961.57 137.414,950.811 z" id="boundary" inkscape:connector-curvature="0" />
	<path style="fill:none;stroke:red;stroke-width:1px;stroke-linecap:butt;stroke-linejoin:miter;stroke-opacity:1" d="M 118.048,996 139.566,996 z" id="boundary" inkscape:connector-curvature="0" />
	<path style="fill:none;stroke:red;stroke-width:1px;stroke-linecap:butt;stroke-linejoin:miter;stroke-opacity:1" d="M 122.351,307.41 133.111,326.777 z" id="boundary" inkscape:connector-curvature="0" />
	<path style="fill:none;stroke:red;stroke-width:1px;stroke-linecap:butt;stroke-linejoin:miter;stroke-opacity:1" d="M 133.111,4 154.629,4 z" id="boundary" inkscape:connector-curvature="0" />
	<path style="fill:none;stroke:red;stroke-width:1px;stroke-linecap:butt;stroke-linejoin:miter;stroke-opacity:1" d="M 133.111,326.777 150.325,339.688 z" id="boundary" inkscape:connector-curvature="0" />
	<path style="fill:none;stroke:red;stroke-width:1px;stroke-linecap:butt;stroke-linejoin:miter;stroke-opacity:1" d="M 137.414,950.811 156.781,940.052 z" id="boundary" inkscape:connector-curvature="0" />
	<path style="fill:none;stroke:red;stroke-width:1px;stroke-linecap:butt;stroke-linejoin:miter;stroke-opacity:1" d="M 139.566,996 161.085,996 z" id="boundary" inkscape:connector-curvature="0" />
	<path style="fill:none;stroke:red;stroke-width:1px;stroke-linecap:butt;stroke-linejoin:miter;stroke-opacity:1" d="M 150.325,339.688 169.692,350.447 z" id="boundary" inkscape:connector-curvature="0" />
	<path style="fill:none;stroke:red;stroke-width:1px;stroke-linecap:butt;stroke-linejoin:miter;stroke-opacity:1" d="M 154.629,4 176.148,4 z" id="boundary" inkscape:connector-curvature="0" />
	<path style="fill:none;stroke:red;stroke-width:1px;stroke-linecap:butt;stroke-linejoin:miter;stroke-opacity:1" d="M 156.781,940.052 178.299,933.597 z" id="boundary" inkscape:connector-curvature="0" />
	<path style="fill:none;stroke:red;stroke-width:1px;stroke-linecap:butt;stroke-linejoin:miter;stroke-opacity:1" d="M 161.085,996 182.603,996 z" id="boundary" inkscape:connector-curvature="0" />
	<path style="fill:none;stroke:red;stroke-width:1px;stroke-linecap:butt;stroke-linejoin:miter;stroke-opacity:1" d="M 169.692,350.447 189.059,361.206 z" id="boundary" inkscape:connector-curvature="0" />
	<path style="fill:none;stroke:red;stroke-width:1px;stroke-linecap:butt;stroke-linejoin:miter;stroke-opacity:1" d="M 176.148,4 197.666,4 z" id="boundary" inkscape:connector-curvature="0" />
	<path style="fill:none;stroke:red;stroke-width:1px;stroke-linecap:butt;stroke-linejoin:miter;stroke-opacity:1" d="M 178.299,933.597 199.818,922.837 z" id="boundary" inkscape:connector-curvature="0" />
	<path style="fill:none;stroke:red;stroke-width:1px;stroke-linecap:butt;stroke-linejoin:miter;stroke-opacity:1" d="M 182.603,996 204.121,996 z" id="boundary" inkscape:connector-curvature="0" />
	<path style="fill:none;stroke:red;stroke-width:1px;stroke-linecap:butt;stroke-linejoin:miter;stroke-opacity:1" d="M 189.059,361.206 210.577,361.206 z" id="boundary" inkscape:connector-curvature="0" />
	<path style="fill:none;stroke:red;stroke-width:1px;stroke-linecap:butt;stroke-linejoin:miter;stroke-opacity:1" d="M 197.666,4 219.184,4 z" id="boundary" inkscape:connector-curvature="0" />
	<path style="fill:none;stroke:red;stroke-width:1px;stroke-linecap:butt;stroke-linejoin:miter;stroke-opacity:1" d="M 199.818,922.837 221.336,912.078 z" id="boundary" inkscape:connector-curvature="0" />
	<path style="fill:none;stroke:red;stroke-width:1px;stroke-linecap:butt;stroke-linejoin:miter;stroke-opacity:1" d="M 204.121,996 225.64,996 z" id="boundary" inkscape:connector-curvature="0" />
	<path style="fill:none;stroke:red;stroke-width:1px;stroke-linecap:butt;stroke-linejoin:miter;stroke-opacity:1" d="M 210.577,361.206 232.095,365.51 z" id="boundary" inkscape:connector-curvature="0" />
	<path style="fill:none;stroke:red;stroke-width:1px;stroke-linecap:butt;stroke-linejoin:miter;stroke-opacity:1" d="M 219.184,4 240.703,4 z" id="boundary" inkscape:connector-curvature="0" />
	<path style="fill:none;stroke:red;stroke-width:1px;stroke-linecap:butt;stroke-linejoin:miter;stroke-opacity:1" d="M 221.336,912.078 242.855,907.774 z" id="boundary" inkscape:connector-curvature="0" />
	<path style="fill:none;stroke:red;stroke-width:1px;stroke-linecap:butt;stroke-linejoin:miter;stroke-opacity:1" d="M 225.64,996 247.158,996 z" id="boundary" inkscape:connector-curvature="0" />
	<path style="fill:none;stroke:red;stroke-width:1px;stroke-linecap:butt;stroke-linejoin:miter;stroke-opacity:1" d="M 232.095,365.51 253.614,371.965 z" id="boundary" inkscape:connector-curvature="0" />
	<path style="fill:none;stroke:red;stroke-width:1px;stroke-linecap:butt;stroke-linejoin:miter;stroke-opacity:1" d="M 240.703,4 262.221,4 z" id="boundary" inkscape:connector-curvature="0" />
	<path style="fill:none;stroke:red;stroke-width:1px;stroke-linecap:butt;stroke-linejoin:miter;stroke-opacity:1" d="M 242.855,907.774 264.373,907.774 z" id="boundary" inkscape:connector-curvature="0" />
	<path style="fill:none;stroke:red;stroke-width:1px;stroke-linecap:butt;stroke-linejoin:miter;stroke-opacity:1" d="M 247.158,996 268.677,996 z" id="boundary" inkscape:connector-curvature="0" />
	<path style="fill:none;stroke:red;stroke-width:1px;stroke-linecap:butt;stroke-linejoin:miter;stroke-opacity:1" d="M 253.614,371.965 272.98,382.725 z" id="boundary" inkscape:connector-curvature="0" />
	<path style="fill:none;stroke:red;stroke-width:1px;stroke-linecap:butt;stroke-linejoin:miter;stroke-opacity:1" d="M 262.221,4 283.74,4 z" id="boundary" inkscape:connector-curvature="0" />
	<path style="fill:none;stroke:red;stroke-width:1px;stroke-linecap:butt;stroke-linejoin:miter;stroke-opacity:1" d="M 264.373,907.774 283.74,897.015 z" id="boundary" inkscape:connector-curvature="0" />
	<path style="fill:none;stroke:red;stroke-width:1px;stroke-linecap:butt;stroke-linejoin:miter;stroke-opacity:1" d="M 268.677,996 290.195,996 z" id="boundary" inkscape:connector-curvature="0" />
	<path style="fill:none;stroke:red;stroke-width:1px;stroke-linecap:butt;stroke-linejoin:miter;stroke-opacity:1" d="M 272.98,382.725 292.347,393.484 z" id="boundary" inkscape:connector-curvature="0" />
	<path style="fill:none;stroke:red;stroke-width:1px;stroke-linecap:butt;stroke-linejoin:miter;stroke-opacity:1" d="M 283.74,4 305.258,4 z" id="boundary" inkscape:connector-curvature="0" />
	<path style="fill:none;stroke:red;stroke-width:1px;stroke-linecap:butt;stroke-linejoin:miter;stroke-opacity:1" d="M 283.74,897.015 305.258,892.711 z" id="boundary" inkscape:connector-curvature="0" />
	<path style="fill:none;stroke:red;stroke-width:1px;stroke-linecap:butt;stroke-linejoin:miter;stroke-opacity:1" d="M 290.195,996 311.714,996 z" id="boundary" inkscape:connector-curvature="0" />
	<path style="fill:none;stroke:red;stroke-width:1px;stroke-linecap:butt;stroke-linejoin:miter;stroke-opacity:1" d="M 292.347,393.484 313.866,393.484 z" id="boundary" inkscape:connector-curvature="0" />
	<path style="fill:none;stroke:red;stroke-width:1px;stroke-linecap:butt;stroke-linejoin:miter;stroke-opacity:1" d="M 305.258,4 326.777,4 z" id="boundary" inkscape:connector-curvature="0" />
	<path style="fill:none;stroke:red;stroke-width:1px;stroke-linecap:butt;stroke-linejoin:miter;stroke-opacity:1" d="M 305.258,892.711 326.777,881.952 z" id="boundary" inkscape:connector-curvature="0" />
	<path style="fill:none;stroke:red;stroke-width:1px;stroke-linecap:butt;stroke-linejoin:miter;stroke-opacity:1" d="M 311.714,996 333.232,996 z" id="boundary" inkscape:connector-curvature="0" />
	<path style="fill:none;stroke:red;stroke-width:1px;stroke-linecap:butt;stroke-linejoin:miter;stroke-opacity:1" d="M 313.866,393.484 335.384,393.484 z" id="boundary" inkscape:connector-curvature="0" />
	<path style="fill:none;stroke:red;stroke-width:1px;stroke-linecap:butt;stroke-linejoin:miter;stroke-opacity:1" d="M 326.777,4 348.295,4 z" id="boundary" inkscape:connector-curvature="0" />
	<path style="fill:none;stroke:red;stroke-width:1px;stroke-linecap:butt;stroke-linejoin:miter;stroke-opacity:1" d="M 326.777,881.952 348.295,875.497 z" id="boundary" inkscape:connector-curvature="0" />
	<path style="fill:none;stroke:red;stroke-width:1px;stroke-linecap:butt;stroke-linejoin:miter;stroke-opacity:1" d="M 333.232,996 354.751,996 z" id="boundary" inkscape:connector-curvature="0" />
	<path style="fill:none;stroke:red;stroke-width:1px;stroke-linecap:butt;stroke-linejoin:miter;stroke-opacity:1" d="M 335.384,393.484 354.751,404.243 z" id="boundary" inkscape:connector-curvature="0" />
	<path style="fill:none;stroke:red;stroke-width:1px;stroke-linecap:butt;stroke-linejoin:miter;stroke-opacity:1" d="M 348.295,4 369.813,4 z" id="boundary" inkscape:connector-curvature="0" />
	<path style="fill:none;stroke:red;stroke-width:1px;stroke-linecap:butt;stroke-linejoin:miter;stroke-opacity:1" d="M 348.295,875.497 367.662,864.738 z" id="boundary" inkscape:connector-curvature="0" />
	<path style="fill:none;stroke:red;stroke-width:1px;stroke-linecap:butt;stroke-linejoin:miter;stroke-opacity:1" d="M 354.751,404.243 376.269,412.85 z" id="boundary" inkscape:connector-curvature="0" />
	<path style="fill:none;stroke:red;stroke-width:1px;stroke-linecap:butt;stroke-linejoin:miter;stroke-opacity:1" d="M 354.751,996 376.269,996 z" id="boundary" inkscape:connector-curvature="0" />
	<path style="fill:none;stroke:red;stroke-width:1px;stroke-linecap:butt;stroke-linejoin:miter;stroke-opacity:1" d="M 367.662,864.738 387.028,853.978 z" id="boundary" inkscape:connector-curvature="0" />
	<path style="fill:none;stroke:red;stroke-width:1px;stroke-linecap:butt;stroke-linejoin:miter;stroke-opacity:1" d="M 369.813,4 391.332,4 z" id="boundary" inkscape:connector-curvature="0" />
	<path style="fill:none;stroke:red;stroke-width:1px;stroke-linecap:butt;stroke-linejoin:miter;stroke-opacity:1" d="M 376.269,412.85 380.573,434.369 z" id="boundary" inkscape:connector-curvature="0" />
	<path style="fill:none;stroke:red;stroke-width:1px;stroke-linecap:butt;stroke-linejoin:miter;stroke-opacity:1" d="M 376.269,996 397.787,996 z" id="boundary" inkscape:connector-curvature="0" />
	<path style="fill:none;stroke:red;stroke-width:1px;stroke-linecap:butt;stroke-linejoin:miter;stroke-opacity:1" d="M 380.573,434.369 380.573,455.887 z" id="boundary" inkscape:connector-curvature="0" />
	<path style="fill:none;stroke:red;stroke-width:1px;stroke-linecap:butt;stroke-linejoin:miter;stroke-opacity:1" d="M 380.573,455.887 380.573,477.406 z" id="boundary" inkscape:connector-curvature="0" />
	<path style="fill:none;stroke:red;stroke-width:1px;stroke-linecap:butt;stroke-linejoin:miter;stroke-opacity:1" d="M 380.573,477.406 380.573,498.924 z" id="boundary" inkscape:connector-curvature="0" />
	<path style="fill:none;stroke:red;stroke-width:1px;stroke-linecap:butt;stroke-linejoin:miter;stroke-opacity:1" d="M 380.573,498.924 380.573,520.443 z" id="boundary" inkscape:connector-curvature="0" />
	<path style="fill:none;stroke:red;stroke-width:1px;stroke-linecap:butt;stroke-linejoin:miter;stroke-opacity:1" d="M 380.573,520.443 391.332,539.809 z" id="boundary" inkscape:connector-curvature="0" />
	<path style="fill:none;stroke:red;stroke-width:1px;stroke-linecap:butt;stroke-linejoin:miter;stroke-opacity:1" d="M 387.028,853.978 402.091,817.397 z" id="boundary" inkscape:connector-curvature="0" />
	<path style="fill:none;stroke:red;stroke-width:1px;stroke-linecap:butt;stroke-linejoin:miter;stroke-opacity:1" d="M 391.332,4 412.85,4 z" id="boundary" inkscape:connector-curvature="0" />
	<path style="fill:none;stroke:red;stroke-width:1px;stroke-linecap:butt;stroke-linejoin:miter;stroke-opacity:1" d="M 391.332,539.809 391.332,561.328 z" id="boundary" inkscape:connector-curvature="0" />
	<path style="fill:none;stroke:red;stroke-width:1px;stroke-linecap:butt;stroke-linejoin:miter;stroke-opacity:1" d="M 391.332,561.328 391.332,582.846 z" id="boundary" inkscape:connector-curvature="0" />
	<path style="fill:none;stroke:red;stroke-width:1px;stroke-linecap:butt;stroke-linejoin:miter;stroke-opacity:1" d="M 391.332,582.846 391.332,604.364 z" id="boundary" inkscape:connector-curvature="0" />
	<path style="fill:none;stroke:red;stroke-width:1px;stroke-linecap:butt;stroke-linejoin:miter;stroke-opacity:1" d="M 391.332,604.364 391.332,625.883 z" id="boundary" inkscape:connector-curvature="0" />
	<path style="fill:none;stroke:red;stroke-width:1px;stroke-linecap:butt;stroke-linejoin:miter;stroke-opacity:1" d="M 391.332,625.883 391.332,647.401 z" id="boundary" inkscape:connector-curvature="0" />
	<path style="fill:none;stroke:red;stroke-width:1px;stroke-linecap:butt;stroke-linejoin:miter;stroke-opacity:1" d="M 391.332,647.401 391.332,668.92 z" id="boundary" inkscape:connector-curvature="0" />
	<path style="fill:none;stroke:red;stroke-width:1px;stroke-linecap:butt;stroke-linejoin:miter;stroke-opacity:1" d="M 391.332,668.92 391.332,690.438 z" id="boundary" inkscape:connector-curvature="0" />
	<path style="fill:none;stroke:red;stroke-width:1px;stroke-linecap:butt;stroke-linejoin:miter;stroke-opacity:1" d="M 391.332,690.438 391.332,711.957 z" id="boundary" inkscape:connector-curvature="0" />
	<path style="fill:none;stroke:red;stroke-width:1px;stroke-linecap:butt;stroke-linejoin:miter;stroke-opacity:1" d="M 391.332,711.957 402.091,731.323 z" id="boundary" inkscape:connector-curvature="0" />
	<path style="fill:none;stroke:red;stroke-width:1px;stroke-linecap:butt;stroke-linejoin:miter;stroke-opacity:1" d="M 397.787,996 419.306,996 z" id="boundary" inkscape:connector-curvature="0" />
	<path style="fill:none;stroke:red;stroke-width:1px;stroke-linecap:butt;stroke-linejoin:miter;stroke-opacity:1" d="M 402.091,731.323 402.091,752.842 z" id="boundary" inkscape:connector-curvature="0" />
	<path style="fill:none;stroke:red;stroke-width:1px;stroke-linecap:butt;stroke-linejoin:miter;stroke-opacity:1" d="M 402.091,752.842 402.091,774.36 z" id="boundary" inkscape:connector-curvature="0" />
	<path style="fill:none;stroke:red;stroke-width:1px;stroke-linecap:butt;stroke-linejoin:miter;stroke-opacity:1" d="M 402.091,774.36 402.091,795.879 z" id="boundary" inkscape:connector-curvature="0" />
	<path style="fill:none;stroke:red;stroke-width:1px;stroke-linecap:butt;stroke-linejoin:miter;stroke-opacity:1" d="M 402.091,795.879 402.091,817.397 z" id="boundary" inkscape:connector-curvature="0" />
	<path style="fill:none;stroke:red;stroke-width:1px;stroke-linecap:butt;stroke-linejoin:miter;stroke-opacity:1" d="M 412.85,4 434.369,4 z" id="boundary" inkscape:connector-curvature="0" />
	<path style="fill:none;stroke:red;stroke-width:1px;stroke-linecap:butt;stroke-linejoin:miter;stroke-opacity:1" d="M 419.306,996 440.824,996 z" id="boundary" inkscape:connector-curvature="0" />
	<path style="fill:none;stroke:red;stroke-width:1px;stroke-linecap:butt;stroke-linejoin:miter;stroke-opacity:1" d="M 434.369,4 455.887,4 z" id="boundary" inkscape:connector-curvature="0" />
	<path style="fill:none;stroke:red;stroke-width:1px;stroke-linecap:butt;stroke-linejoin:miter;stroke-opacity:1" d="M 440.824,996 462.343,996 z" id="boundary" inkscape:connector-curvature="0" />
	<path style="fill:none;stroke:red;stroke-width:1px;stroke-linecap:butt;stroke-linejoin:miter;stroke-opacity:1" d="M 455.887,4 477.406,4 z" id="boundary" inkscape:connector-curvature="0" />
	<path style="fill:none;stroke:red;stroke-width:1px;stroke-linecap:butt;stroke-linejoin:miter;stroke-opacity:1" d="M 462.343,996 483.861,996 z" id="boundary" inkscape:connector-curvature="0" />
	<path style="fill:none;stroke:red;stroke-width:1px;stroke-linecap:butt;stroke-linejoin:miter;stroke-opacity:1" d="M 477.406,4 498.924,4 z" id="boundary" inkscape:connector-curvature="0" />
	<path style="fill:none;stroke:red;stroke-width:1px;stroke-linecap:butt;stroke-linejoin:miter;stroke-opacity:1" d="M 483.861,996 505.38,996 z" id="boundary" inkscape:connector-curvature="0" />
	<path style="fill:none;stroke:red;stroke-width:1px;stroke-linecap:butt;stroke-linejoin:miter;stroke-opacity:1" d="M 498.924,4 520.443,4 z" id="boundary" inkscape:connector-curvature="0" />
	<path style="fill:none;stroke:red;stroke-width:1px;stroke-linecap:butt;stroke-linejoin:miter;stroke-opacity:1" d="M 505.38,996 526.898,996 z" id="boundary" inkscape:connector-curvature="0" />
	<path style="fill:none;stroke:red;stroke-width:1px;stroke-linecap:butt;stroke-linejoin:miter;stroke-opacity:1" d="M 520.443,4 541.961,4 z" id="boundary" inkscape:connector-curvature="0" />
	<path style="fill:none;stroke:red;stroke-width:1px;stroke-linecap:butt;stroke-linejoin:miter;stroke-opacity:1" d="M 526.898,996 548.416,996 z" id="boundary" inkscape:connector-curvature="0" />
	<path style="fill:none;stroke:red;stroke-width:1px;stroke-linecap:butt;stroke-linejoin:miter;stroke-opacity:1" d="M 541.961,4 563.479,4 z" id="boundary" inkscape:connector-curvature="0" />
	<path style="fill:none;stroke:red;stroke-width:1px;stroke-linecap:butt;stroke-linejoin:miter;stroke-opacity:1" d="M 548.416,996 569.935,996 z" id="boundary" inkscape:connector-curvature="0" />
	<path style="fill:none;stroke:red;stroke-width:1px;stroke-linecap:butt;stroke-linejoin:miter;stroke-opacity:1" d="M 554.872,404.243 554.872,425.761 z" id="boundary" inkscape:connector-curvature="0" />
	<path style="fill:none;stroke:red;stroke-width:1px;stroke-linecap:butt;stroke-linejoin:miter;stroke-opacity:1" d="M 554.872,404.243 576.39,393.484 z" id="boundary" inkscape:connector-curvature="0" />
	<path style="fill:none;stroke:red;stroke-width:1px;stroke-linecap:butt;stroke-linejoin:miter;stroke-opacity:1" d="M 554.872,425.761 554.872,447.28 z" id="boundary" inkscape:connector-curvature="0" />
	<path style="fill:none;stroke:red;stroke-width:1px;stroke-linecap:butt;stroke-linejoin:miter;stroke-opacity:1" d="M 554.872,447.28 554.872,468.798 z" id="boundary" inkscape:connector-curvature="0" />
	<path style="fill:none;stroke:red;stroke-width:1px;stroke-linecap:butt;stroke-linejoin:miter;stroke-opacity:1" d="M 554.872,468.798 554.872,490.317 z" id="boundary" inkscape:connector-curvature="0" />
	<path style="fill:none;stroke:red;stroke-width:1px;stroke-linecap:butt;stroke-linejoin:miter;stroke-opacity:1" d="M 554.872,490.317 554.872,511.835 z" id="boundary" inkscape:connector-curvature="0" />
	<path style="fill:none;stroke:red;stroke-width:1px;stroke-linecap:butt;stroke-linejoin:miter;stroke-opacity:1" d="M 554.872,511.835 554.872,533.354 z" id="boundary" inkscape:connector-curvature="0" />
	<path style="fill:none;stroke:red;stroke-width:1px;stroke-linecap:butt;stroke-linejoin:miter;stroke-opacity:1" d="M 554.872,533.354 554.872,554.872 z" id="boundary" inkscape:connector-curvature="0" />
	<path style="fill:none;stroke:red;stroke-width:1px;stroke-linecap:butt;stroke-linejoin:miter;stroke-opacity:1" d="M 554.872,554.872 554.872,576.39 z" id="boundary" inkscape:connector-curvature="0" />
	<path style="fill:none;stroke:red;stroke-width:1px;stroke-linecap:butt;stroke-linejoin:miter;stroke-opacity:1" d="M 554.872,576.39 554.872,597.909 z" id="boundary" inkscape:connector-curvature="0" />
	<path style="fill:none;stroke:red;stroke-width:1px;stroke-linecap:butt;stroke-linejoin:miter;stroke-opacity:1" d="M 554.872,597.909 554.872,619.427 z" id="boundary" inkscape:connector-curvature="0" />
	<path style="fill:none;stroke:red;stroke-width:1px;stroke-linecap:butt;stroke-linejoin:miter;stroke-opacity:1" d="M 554.872,619.427 554.872,640.946 z" id="boundary" inkscape:connector-curvature="0" />
	<path style="fill:none;stroke:red;stroke-width:1px;stroke-linecap:butt;stroke-linejoin:miter;stroke-opacity:1" d="M 554.872,640.946 554.872,662.464 z" id="boundary" inkscape:connector-curvature="0" />
	<path style="fill:none;stroke:red;stroke-width:1px;stroke-linecap:butt;stroke-linejoin:miter;stroke-opacity:1" d="M 554.872,662.464 554.872,683.983 z" id="boundary" inkscape:connector-curvature="0" />
	<path style="fill:none;stroke:red;stroke-width:1px;stroke-linecap:butt;stroke-linejoin:miter;stroke-opacity:1" d="M 554.872,683.983 554.872,705.501 z" id="boundary" inkscape:connector-curvature="0" />
	<path style="fill:none;stroke:red;stroke-width:1px;stroke-linecap:butt;stroke-linejoin:miter;stroke-opacity:1" d="M 554.872,705.501 554.872,727.02 z" id="boundary" inkscape:connector-curvature="0" />
	<path style="fill:none;stroke:red;stroke-width:1px;stroke-linecap:butt;stroke-linejoin:miter;stroke-opacity:1" d="M 554.872,727.02 554.872,748.538 z" id="boundary" inkscape:connector-curvature="0" />
	<path style="fill:none;stroke:red;stroke-width:1px;stroke-linecap:butt;stroke-linejoin:miter;stroke-opacity:1" d="M 554.872,748.538 554.872,770.056 z" id="boundary" inkscape:connector-curvature="0" />
	<path style="fill:none;stroke:red;stroke-width:1px;stroke-linecap:butt;stroke-linejoin:miter;stroke-opacity:1" d="M 554.872,770.056 554.872,791.575 z" id="boundary" inkscape:connector-curvature="0" />
	<path style="fill:none;stroke:red;stroke-width:1px;stroke-linecap:butt;stroke-linejoin:miter;stroke-opacity:1" d="M 554.872,791.575 554.872,813.093 z" id="boundary" inkscape:connector-curvature="0" />
	<path style="fill:none;stroke:red;stroke-width:1px;stroke-linecap:butt;stroke-linejoin:miter;stroke-opacity:1" d="M 554.872,813.093 554.872,834.612 z" id="boundary" inkscape:connector-curvature="0" />
	<path style="fill:none;stroke:red;stroke-width:1px;stroke-linecap:butt;stroke-linejoin:miter;stroke-opacity:1" d="M 554.872,834.612 559.176,856.13 z" id="boundary" inkscape:connector-curvature="0" />
	<path style="fill:none;stroke:red;stroke-width:1px;stroke-linecap:butt;stroke-linejoin:miter;stroke-opacity:1" d="M 559.176,856.13 580.694,864.738 z" id="boundary" inkscape:connector-curvature="0" />
	<path style="fill:none;stroke:red;stroke-width:1px;stroke-linecap:butt;stroke-linejoin:miter;stroke-opacity:1" d="M 563.479,4 584.998,4 z" id="boundary" inkscape:connector-curvature="0" />
	<path style="fill:none;stroke:red;stroke-width:1px;stroke-linecap:butt;stroke-linejoin:miter;stroke-opacity:1" d="M 569.935,996 591.453,996 z" id="boundary" inkscape:connector-curvature="0" />
	<path style="fill:none;stroke:red;stroke-width:1px;stroke-linecap:butt;stroke-linejoin:miter;stroke-opacity:1" d="M 576.39,393.484 597.909,382.725 z" id="boundary" inkscape:connector-curvature="0" />
	<path style="fill:none;stroke:red;stroke-width:1px;stroke-linecap:butt;stroke-linejoin:miter;stroke-opacity:1" d="M 580.694,864.738 600.061,875.497 z" id="boundary" inkscape:connector-curvature="0" />
	<path style="fill:none;stroke:red;stroke-width:1px;stroke-linecap:butt;stroke-linejoin:miter;stroke-opacity:1" d="M 584.998,4 606.516,4 z" id="boundary" inkscape:connector-curvature="0" />
	<path style="fill:none;stroke:red;stroke-width:1px;stroke-linecap:butt;stroke-linejoin:miter;stroke-opacity:1" d="M 591.453,996 612.972,996 z" id="boundary" inkscape:connector-curvature="0" />
	<path style="fill:none;stroke:red;stroke-width:1px;stroke-linecap:butt;stroke-linejoin:miter;stroke-opacity:1" d="M 597.909,382.725 617.275,371.965 z" id="boundary" inkscape:connector-curvature="0" />
	<path style="fill:none;stroke:red;stroke-width:1px;stroke-linecap:butt;stroke-linejoin:miter;stroke-opacity:1" d="M 600.061,875.497 619.427,886.256 z" id="boundary" inkscape:connector-curvature="0" />
	<path style="fill:none;stroke:red;stroke-width:1px;stroke-linecap:butt;stroke-linejoin:miter;stroke-opacity:1" d="M 606.516,4 628.035,4 z" id="boundary" inkscape:connector-curvature="0" />
	<path style="fill:none;stroke:red;stroke-width:1px;stroke-linecap:butt;stroke-linejoin:miter;stroke-opacity:1" d="M 612.972,996 634.49,996 z" id="boundary" inkscape:connector-curvature="0" />
	<path style="fill:none;stroke:red;stroke-width:1px;stroke-linecap:butt;stroke-linejoin:miter;stroke-opacity:1" d="M 617.275,371.965 636.642,361.206 z" id="boundary" inkscape:connector-curvature="0" />
	<path style="fill:none;stroke:red;stroke-width:1px;stroke-linecap:butt;stroke-linejoin:miter;stroke-opacity:1" d="M 619.427,886.256 640.946,892.711 z" id="boundary" inkscape:connector-curvature="0" />
	<path style="fill:none;stroke:red;stroke-width:1px;stroke-linecap:butt;stroke-linejoin:miter;stroke-opacity:1" d="M 628.035,4 649.553,4 z" id="boundary" inkscape:connector-curvature="0" />
	<path style="fill:none;stroke:red;stroke-width:1px;stroke-linecap:butt;stroke-linejoin:miter;stroke-opacity:1" d="M 634.49,996 656.009,996 z" id="boundary" inkscape:connector-curvature="0" />
	<path style="fill:none;stroke:red;stroke-width:1px;stroke-linecap:butt;stroke-linejoin:miter;stroke-opacity:1" d="M 636.642,361.206 656.009,350.447 z" id="boundary" inkscape:connector-curvature="0" />
	<path style="fill:none;stroke:red;stroke-width:1px;stroke-linecap:butt;stroke-linejoin:miter;stroke-opacity:1" d="M 640.946,892.711 660.312,903.471 z" id="boundary" inkscape:connector-curvature="0" />
	<path style="fill:none;stroke:red;stroke-width:1px;stroke-linecap:butt;stroke-linejoin:miter;stroke-opacity:1" d="M 649.553,4 671.072,4 z" id="boundary" inkscape:connector-curvature="0" />
	<path style="fill:none;stroke:red;stroke-width:1px;stroke-linecap:butt;stroke-linejoin:miter;stroke-opacity:1" d="M 656.009,350.447 675.375,339.688 z" id="boundary" inkscape:connector-curvature="0" />
	<path style="fill:none;stroke:red;stroke-width:1px;stroke-linecap:butt;stroke-linejoin:miter;stroke-opacity:1" d="M 656.009,996 677.527,996 z" id="boundary" inkscape:connector-curvature="0" />
	<path style="fill:none;stroke:red;stroke-width:1px;stroke-linecap:butt;stroke-linejoin:miter;stroke-opacity:1" d="M 660.312,903.471 681.831,907.774 z" id="boundary" inkscape:connector-curvature="0" />
	<path style="fill:none;stroke:red;stroke-width:1px;stroke-linecap:butt;stroke-linejoin:miter;stroke-opacity:1" d="M 671.072,4 692.59,4 z" id="boundary" inkscape:connector-curvature="0" />
	<path style="fill:none;stroke:red;stroke-width:1px;stroke-linecap:butt;stroke-linejoin:miter;stroke-opacity:1" d="M 675.375,339.688 694.742,328.928 z" id="boundary" inkscape:connector-curvature="0" />
	<path style="fill:none;stroke:red;stroke-width:1px;stroke-linecap:butt;stroke-linejoin:miter;stroke-opacity:1" d="M 677.527,996 699.046,996 z" id="boundary" inkscape:connector-curvature="0" />
	<path style="fill:none;stroke:red;stroke-width:1px;stroke-linecap:butt;stroke-linejoin:miter;stroke-opacity:1" d="M 681.831,907.774 703.349,907.774 z" id="boundary" inkscape:connector-curvature="0" />
	<path style="fill:none;stroke:red;stroke-width:1px;stroke-linecap:butt;stroke-linejoin:miter;stroke-opacity:1" d="M 692.59,4 714.108,4 z" id="boundary" inkscape:connector-curvature="0" />
	<path style="fill:none;stroke:red;stroke-width:1px;stroke-linecap:butt;stroke-linejoin:miter;stroke-opacity:1" d="M 694.742,328.928 716.26,328.928 z" id="boundary" inkscape:connector-curvature="0" />
	<path style="fill:none;stroke:red;stroke-width:1px;stroke-linecap:butt;stroke-linejoin:miter;stroke-opacity:1" d="M 699.046,996 720.564,996 z" id="boundary" inkscape:connector-curvature="0" />
	<path style="fill:none;stroke:red;stroke-width:1px;stroke-linecap:butt;stroke-linejoin:miter;stroke-opacity:1" d="M 703.349,907.774 722.716,918.534 z" id="boundary" inkscape:connector-curvature="0" />
	<path style="fill:none;stroke:red;stroke-width:1px;stroke-linecap:butt;stroke-linejoin:miter;stroke-opacity:1" d="M 714.108,4 735.627,4 z" id="boundary" inkscape:connector-curvature="0" />
	<path style="fill:none;stroke:red;stroke-width:1px;stroke-linecap:butt;stroke-linejoin:miter;stroke-opacity:1" d="M 716.26,328.928 733.475,313.866 z" id="boundary" inkscape:connector-curvature="0" />
	<path style="fill:none;stroke:red;stroke-width:1px;stroke-linecap:butt;stroke-linejoin:miter;stroke-opacity:1" d="M 720.564,996 742.082,996 z" id="boundary" inkscape:connector-curvature="0" />
	<path style="fill:none;stroke:red;stroke-width:1px;stroke-linecap:butt;stroke-linejoin:miter;stroke-opacity:1" d="M 722.716,918.534 742.082,929.293 z" id="boundary" inkscape:connector-curvature="0" />
	<path style="fill:none;stroke:red;stroke-width:1px;stroke-linecap:butt;stroke-linejoin:miter;stroke-opacity:1" d="M 733.475,313.866 748.538,296.651 z" id="boundary" inkscape:connector-curvature="0" />
	<path style="fill:none;stroke:red;stroke-width:1px;stroke-linecap:butt;stroke-linejoin:miter;stroke-opacity:1" d="M 735.627,4 757.145,4 z" id="boundary" inkscape:connector-curvature="0" />
	<path style="fill:none;stroke:red;stroke-width:1px;stroke-linecap:butt;stroke-linejoin:miter;stroke-opacity:1" d="M 742.082,929.293 763.601,929.293 z" id="boundary" inkscape:connector-curvature="0" />
	<path style="fill:none;stroke:red;stroke-width:1px;stroke-linecap:butt;stroke-linejoin:miter;stroke-opacity:1" d="M 742.082,996 763.601,996 z" id="boundary" inkscape:connector-curvature="0" />
	<path style="fill:none;stroke:red;stroke-width:1px;stroke-linecap:butt;stroke-linejoin:miter;stroke-opacity:1" d="M 748.538,296.651 765.753,281.588 z" id="boundary" inkscape:connector-curvature="0" />
	<path style="fill:none;stroke:red;stroke-width:1px;stroke-linecap:butt;stroke-linejoin:miter;stroke-opacity:1" d="M 757.145,4 778.664,4 z" id="boundary" inkscape:connector-curvature="0" />
	<path style="fill:none;stroke:red;stroke-width:1px;stroke-linecap:butt;stroke-linejoin:miter;stroke-opacity:1" d="M 763.601,929.293 782.967,940.052 z" id="boundary" inkscape:connector-curvature="0" />
	<path style="fill:none;stroke:red;stroke-width:1px;stroke-linecap:butt;stroke-linejoin:miter;stroke-opacity:1" d="M 763.601,996 785.119,996 z" id="boundary" inkscape:connector-curvature="0" />
	<path style="fill:none;stroke:red;stroke-width:1px;stroke-linecap:butt;stroke-linejoin:miter;stroke-opacity:1" d="M 765.753,281.588 787.271,270.829 z" id="boundary" inkscape:connector-curvature="0" />
	<path style="fill:none;stroke:red;stroke-width:1px;stroke-linecap:butt;stroke-linejoin:miter;stroke-opacity:1" d="M 778.664,4 800.182,4 z" id="boundary" inkscape:connector-curvature="0" />
	<path style="fill:none;stroke:red;stroke-width:1px;stroke-linecap:butt;stroke-linejoin:miter;stroke-opacity:1" d="M 782.967,940.052 802.334,950.811 z" id="boundary" inkscape:connector-curvature="0" />
	<path style="fill:none;stroke:red;stroke-width:1px;stroke-linecap:butt;stroke-linejoin:miter;stroke-opacity:1" d="M 785.119,996 806.638,996 z" id="boundary" inkscape:connector-curvature="0" />
	<path style="fill:none;stroke:red;stroke-width:1px;stroke-linecap:butt;stroke-linejoin:miter;stroke-opacity:1" d="M 787.271,270.829 802.334,242.855 z" id="boundary" inkscape:connector-curvature="0" />
	<path style="fill:none;stroke:red;stroke-width:1px;stroke-linecap:butt;stroke-linejoin:miter;stroke-opacity:1" d="M 800.182,4 821.701,8.30369 z" id="boundary" inkscape:connector-curvature="0" />
	<path style="fill:none;stroke:red;stroke-width:1px;stroke-linecap:butt;stroke-linejoin:miter;stroke-opacity:1" d="M 802.334,242.855 813.093,221.336 z" id="boundary" inkscape:connector-curvature="0" />
	<path style="fill:none;stroke:red;stroke-width:1px;stroke-linecap:butt;stroke-linejoin:miter;stroke-opacity:1" d="M 802.334,950.811 821.701,961.57 z" id="boundary" inkscape:connector-curvature="0" />
	<path style="fill:none;stroke:red;stroke-width:1px;stroke-linecap:butt;stroke-linejoin:miter;stroke-opacity:1" d="M 806.638,996 828.156,996 z" id="boundary" inkscape:connector-curvature="0" />
	<path style="fill:none;stroke:red;stroke-width:1px;stroke-linecap:butt;stroke-linejoin:miter;stroke-opacity:1" d="M 813.093,221.336 830.308,206.273 z" id="boundary" inkscape:connector-curvature="0" />
	<path style="fill:none;stroke:red;stroke-width:1px;stroke-linecap:butt;stroke-linejoin:miter;stroke-opacity:1" d="M 821.701,8.30369 830.308,29.8221 z" id="boundary" inkscape:connector-curvature="0" />
	<path style="fill:none;stroke:red;stroke-width:1px;stroke-linecap:butt;stroke-linejoin:miter;stroke-opacity:1" d="M 821.701,961.57 843.219,965.874 z" id="boundary" inkscape:connector-curvature="0" />
	<path style="fill:none;stroke:red;stroke-width:1px;stroke-linecap:butt;stroke-linejoin:miter;stroke-opacity:1" d="M 828.156,996 849.675,996 z" id="boundary" inkscape:connector-curvature="0" />
	<path style="fill:none;stroke:red;stroke-width:1px;stroke-linecap:butt;stroke-linejoin:miter;stroke-opacity:1" d="M 830.308,29.8221 834.612,51.3406 z" id="boundary" inkscape:connector-curvature="0" />
	<path style="fill:none;stroke:red;stroke-width:1px;stroke-linecap:butt;stroke-linejoin:miter;stroke-opacity:1" d="M 830.308,206.273 834.612,180.451 z" id="boundary" inkscape:connector-curvature="0" />
	<path style="fill:none;stroke:red;stroke-width:1px;stroke-linecap:butt;stroke-linejoin:miter;stroke-opacity:1" d="M 834.612,51.3406 834.612,72.859 z" id="boundary" inkscape:connector-curvature="0" />
	<path style="fill:none;stroke:red;stroke-width:1px;stroke-linecap:butt;stroke-linejoin:miter;stroke-opacity:1" d="M 834.612,72.859 834.612,94.3774 z" id="boundary" inkscape:connector-curvature="0" />
	<path style="fill:none;stroke:red;stroke-width:1px;stroke-linecap:butt;stroke-linejoin:miter;stroke-opacity:1" d="M 834.612,94.3774 834.612,115.896 z" id="boundary" inkscape:connector-curvature="0" />
	<path style="fill:none;stroke:red;stroke-width:1px;stroke-linecap:butt;stroke-linejoin:miter;stroke-opacity:1" d="M 834.612,115.896 834.612,137.414 z" id="boundary" inkscape:connector-curvature="0" />
	<path style="fill:none;stroke:red;stroke-width:1px;stroke-linecap:butt;stroke-linejoin:miter;stroke-opacity:1" d="M 834.612,137.414 834.612,158.933 z" id="boundary" inkscape:connector-curvature="0" />
	<path style="fill:none;stroke:red;stroke-width:1px;stroke-linecap:butt;stroke-linejoin:miter;stroke-opacity:1" d="M 834.612,158.933 834.612,180.451 z" id="boundary" inkscape:connector-curvature="0" />
	<path style="fill:none;stroke:red;stroke-width:1px;stroke-linecap:butt;stroke-linejoin:miter;stroke-opacity:1" d="M 843.219,965.874 862.586,976.633 z" id="boundary" inkscape:connector-curvature="0" />
	<path style="fill:none;stroke:red;stroke-width:1px;stroke-linecap:butt;stroke-linejoin:miter;stroke-opacity:1" d="M 849.675,996 862.586,976.633 z" id="boundary" inkscape:connector-curvature="0" />
	<circle cx="4" cy="10.4555" r="4" fill="#0" id="circle0"/>
	<circle cx="4" cy="31.974" r="4" fill="#0" id="circle1"/>
	<circle cx="14.7592" cy="51.3406" r="4" fill="#0" id="circle2"/>
	<circle cx="25.5184" cy="4" r="4" fill="#0" id="circle3"/>
	<circle cx="25.5184" cy="70.7072" r="4" fill="#0" id="circle4"/>
	<circle cx="31.974" cy="92.2256" r="4" fill="#0" id="circle5"/>
	<circle cx="36.2777" cy="113.744" r="4" fill="#0" id="circle6"/>
	<circle cx="36.2777" cy="135.262" r="4" fill="#0" id="circle7"/>
	<circle cx="36.2777" cy="989.544" r="4" fill="#0" id="circle8"/>
	<circle cx="47.0369" cy="4" r="4" fill="#0" id="circle9"/>
	<circle cx="47.0369" cy="154.629" r="4" fill="#0" id="circle10"/>
	<circle cx="51.3406" cy="176.148" r="4" fill="#0" id="circle11"/>
	<circle cx="57.7961" cy="197.666" r="4" fill="#0" id="circle12"/>
	<circle cx="57.7961" cy="983.089" r="4" fill="#0" id="circle13"/>
	<circle cx="62.0998" cy="219.184" r="4" fill="#0" id="circle14"/>
	<circle cx="68.5553" cy="4" r="4" fill="#0" id="circle15"/>
	<circle cx="75.0108" cy="996" r="4" fill="#0" id="circle16"/>
	<circle cx="77.1627" cy="972.33" r="4" fill="#0" id="circle17"/>
	<circle cx="79.3145" cy="232.095" r="4" fill="#0" id="circle18"/>
	<circle cx="90.0738" cy="4" r="4" fill="#0" id="circle19"/>
	<circle cx="90.0738" cy="251.462" r="4" fill="#0" id="circle20"/>
	<circle cx="96.5293" cy="961.57" r="4" fill="#0" id="circle21"/>
	<circle cx="96.5293" cy="996" r="4" fill="#0" id="circle22"/>
	<circle cx="102.985" cy="268.677" r="4" fill="#0" id="circle23"/>
	<circle cx="111.592" cy="4" r="4" fill="#0" id="circle24"/>
	<circle cx="118.048" cy="285.892" r="4" fill="#0" id="circle25"/>
	<circle cx="118.048" cy="961.57" r="4" fill="#0" id="circle26"/>
	<circle cx="118.048" cy="996" r="4" fill="#0" id="circle27"/>
	<circle cx="122.351" cy="307.41" r="4" fill="#0" id="circle28"/>
	<circle cx="133.111" cy="4" r="4" fill="#0" id="circle29"/>
	<circle cx="133.111" cy="326.777" r="4" fill="#0" id="circle30"/>
	<circle cx="137.414" cy="950.811" r="4" fill="#0" id="circle31"/>
	<circle cx="139.566" cy="996" r="4" fill="#0" id="circle32"/>
	<circle cx="150.325" cy="339.688" r="4" fill="#0" id="circle33"/>
	<circle cx="154.629" cy="4" r="4" fill="#0" id="circle34"/>
	<circle cx="156.781" cy="940.052" r="4" fill="#0" id="circle35"/>
	<circle cx="161.085" cy="996" r="4" fill="#0" id="circle36"/>
	<circle cx="169.692" cy="350.447" r="4" fill="#0" id="circle37"/>
	<circle cx="176.148" cy="4" r="4" fill="#0" id="circle38"/>
	<circle cx="178.299" cy="933.597" r="4" fill="#0" id="circle39"/>
	<circle cx="182.603" cy="996" r="4" fill="#0" id="circle40"/>
	<circle cx="189.059" cy="361.206" r="4" fill="#0" id="circle41"/>
	<circle cx="197.666" cy="4" r="4" fill="#0" id="circle42"/>
	<circle cx="199.818" cy="922.837" r="4" fill="#0" id="circle43"/>
	<circle cx="204.121" cy="996" r="4" fill="#0" id="circle44"/>
	<circle cx="210.577" cy="361.206" r="4" fill="#0" id="circle45"/>
	<circle cx="219.184" cy="4" r="4" fill="#0" id="circle46"/>
	<circle cx="221.336" cy="912.078" r="4" fill="#0" id="circle47"/>
	<circle cx="225.64" cy="996" r="4" fill="#0" id="circle48"/>
	<circle cx="232.095" cy="365.51" r="4" fill="#0" id="circle49"/>
	<circle cx="240.703" cy="4" r="4" fill="#0" id="circle50"/>
	<circle cx="242.855" cy="907.774" r="4" fill="#0" id="circle51"/>
	<circle cx="247.158" cy="996" r="4" fill="#0" id="circle52"/>
	<circle cx="253.614" cy="371.965" r="4" fill="#0" id="circle53"/>
	<circle cx="262.221" cy="4" r="4" fill="#0" id="circle54"/>
	<circle cx="264.373" cy="907.774" r="4" fill="#0" id="circle55"/>
	<circle cx="268.677" cy="996" r="4" fill="#0" id="circle56"/>
	<circle cx="272.98" cy="382.725" r="4" fill="#0" id="circle57"/>
	<circle cx="283.74" cy="4" r="4" fill="#0" id="circle58"/>
	<circle cx="283.74" cy="897.015" r="4" fill="#0" id="circle59"/>
	<circle cx="290.195" cy="996" r="4" fill="#0" id="circle60"/>
	<circle cx="292.347" cy="393.484" r="4" fill="#0" id="circle61"/>
	<circle cx="305.258" cy="4" r="4" fill="#0" id="circle62"/>
	<circle cx="305.258" cy="892.711" r="4" fill="#0" id="circle63"/>
	<circle cx="311.714" cy="996" r="4" fill="#0" id="circle64"/>
	<circle cx="313.866" cy="393.484" r="4" fill="#0" id="circle65"/>
	<circle cx="326.777" cy="4" r="4" fill="#0" id="circle66"/>
	<circle cx="326.777" cy="881.952" r="4" fill="#0" id="circle67"/>
	<circle cx="333.232" cy="996" r="4" fill="#0" id="circle68"/>
	<circle cx="335.384" cy="393.484" r="4" fill="#0" id="circle69"/>
	<circle cx="348.295" cy="4" r="4" fill="#0" id="circle70"/>
	<circle cx="348.295" cy="875.497" r="4" fill="#0" id="circle71"/>
	<circle cx="354.751" cy="404.243" r="4" fill="#0" id="circle72"/>
	<circle cx="354.751" cy="996" r="4" fill="#0" id="circle73"/>
	<circle cx="367.662" cy="864.738" r="4" fill="#0" id="circle74"/>
	<circle cx="369.813" cy="4" r="4" fill="#0" id="circle75"/>
	<circle cx="376.269" cy="412.85" r="4" fill="#0" id="circle76"/>
	<circle cx="376.269" cy="996" r="4" fill="#0" id="circle77"/>
	<circle cx="380.573" cy="434.369" r="4" fill="#0" id="circle78"/>
	<circle cx="380.573" cy="455.887" r="4" fill="#0" id="circle79"/>
	<circle cx="380.573" cy="477.406" r="4" fill="#0" id="circle80"/>
	<circle cx="380.573" cy="498.924" r="4" fill="#0" id="circle81"/>
	<circle cx="380.573" cy="520.443" r="4" fill="#0" id="circle82"/>
	<circle cx="387.028" cy="853.978" r="4" fill="#0" id="circle83"/>
	<circle cx="391.332" cy="4" r="4" fill="#0" id="circle84"/>
	<circle cx="391.332" cy="539.809" r="4" fill="#0" id="circle85"/>
	<circle cx="391.332" cy="561.328" r="4" fill="#0" id="circle86"/>
	<circle cx="391.332" cy="582.846" r="4" fill="#0" id="circle87"/>
	<circle cx="391.332" cy="604.364" r="4" fill="#0" id="circle88"/>
	<circle cx="391.332" cy="625.883" r="4" fill="#0" id="circle89"/>
	<circle cx="391.332" cy="647.401" r="4" fill="#0" id="circle90"/>
	<circle cx="391.332" cy="668.92" r="4" fill="#0" id="circle91"/>
	<circle cx="391.332" cy="690.438" r="4" fill="#0" id="circle92"/>
	<circle cx="391.332" cy="711.957" r="4" fill="#0" id="circle93"/>
	<circle cx="397.787" cy="996" r="4" fill="#0" id="circle94"/>
	<circle cx="402.091" cy="731.323" r="4" fill="#0" id="circle95"/>
	<circle cx="402.091" cy="752.842" r="4" fill="#0" id="circle96"/>
	<circle cx="402.091" cy="774.36" r="4" fill="#0" id="circle97"/>
	<circle cx="402.091" cy="795.879" r="4" fill="#0" id="circle98"/>
	<circle cx="402.091" cy="817.397" r="4" fill="#0" id="circle99"/>
	<circle cx="412.85" cy="4" r="4" fill="#0" id="circle100"/>
	<circle cx="419.306" cy="996" r="4" fill="#0" id="circle101"/>
	<circle cx="434.369" cy="4" r="4" fill="#0" id="circle102"/>
	<circle cx="440.824" cy="996" r="4" fill="#0" id="circle103"/>
	<circle cx="455.887" cy="4" r="4" fill="#0" id="circle104"/>
	<circle cx="462.343" cy="996" r="4" fill="#0" id="circle105"/>
	<circle cx="477.406" cy="4" r="4" fill="#0" id="circle106"/>
	<circle cx="483.861" cy="996" r="4" fill="#0" id="circle107"/>
	<circle cx="498.924" cy="4" r="4" fill="#0" id="circle108"/>
	<circle cx="505.38" cy="996" r="4" fill="#0" id="circle109"/>
	<circle cx="520.443" cy="4" r="4" fill="#0" id="circle110"/>
	<circle cx="526.898" cy="996" r="4" fill="#0" id="circle111"/>
	<circle cx="541.961" cy="4" r="4" fill="#0" id="circle112"/>
	<circle cx="548.416" cy="996" r="4" fill="#0" id="circle113"/>
	<circle cx="554.872" cy="404.243" r="4" fill="#0" id="circle114"/>
	<circle cx="554.872" cy="425.761" r="4" fill="#0" id="circle115"/>
	<circle cx="554.872" cy="447.28" r="4" fill="#0" id="circle116"/>
	<circle cx="554.872" cy="468.798" r="4" fill="#0" id="circle117"/>
	<circle cx="554.872" cy="490.317" r="4" fill="#0" id="circle118"/>
	<circle cx="554.872" cy="511.835" r="4" fill="#0" id="circle119"/>
	<circle cx="554.872" cy="533.354" r="4" fill="#0" id="circle120"/>
	<circle cx="554.872" cy="554.872" r="4" fill="#0" id="circle121"/>
	<circle cx="554.872" cy="576.39" r="4" fill="#0" id="circle122"/>
	<circle cx="554.872" cy="597.909" r="4" fill="#0" id="circle123"/>
	<circle cx="554.872" cy="619.427" r="4" fill="#0" id="circle124"/>
	<circle cx="554.872" cy="640.946" r="4" fill="#0" id="circle125"/>
	<circle cx="554.872" cy="662.464" r="4" fill="#0" id="circle126"/>
	<circle cx="554.872" cy="683.983" r="4" fill="#0" id="circle127"/>
	<circle cx="554.872" cy="705.501" r="4" fill="#0" id="circle128"/>
	<circle cx="554.872" cy="727.02" r="4" fill="#0" id="circle129"/>
	<circle cx="554.872" cy="748.538" r="4" fill="#0" id="circle130"/>
	<circle cx="554.872" cy="770.056" r="4" fill="#0" id="circle131"/>
	<circle cx="554.872" cy="791.575" r="4" fill="#0" id="circle132"/>
	<circle cx="554.872" cy="813.093" r="4" fill="#0" id="circle133"/>
	<circle cx="554.872" cy="834.612" r="4" fill="#0" id="circle134"/>
	<circle cx="559.176" cy="856.13" r="4" fill="#0" id="circle135"/>
	<circle cx="563.479" cy="4" r="4" fill="#0" id="circle136"/>
	<circle cx="569.935" cy="996" r="4" fill="#0" id="circle137"/>
	<circle cx="576.39" cy="393.484" r="4" fill="#0" id="circle138"/>
	<circle cx="580.694" cy="864.738" r="4" fill="#0" id="circle139"/>
	<circle cx="584.998" cy="4" r="4" fill="#0" id="circle140"/>
	<circle cx="591.453" cy="996" r="4" fill="#0" id="circle141"/>
	<circle cx="597.909" cy="382.725" r="4" fill="#0" id="circle142"/>
	<circle cx="600.061" cy="875.497" r="4" fill="#0" id="circle143"/>
	<circle cx="606.516" cy="4" r="4" fill="#0" id="circle144"/>
	<circle cx="612.972" cy="996" r="4" fill="#0" id="circle145"/>
	<circle cx="617.275" cy="371.965" r="4" fill="#0" id="circle146"/>
	<circle cx="619.427" cy="886.256" r="4" fill="#0" id="circle147"/>
	<circle cx="628.035" cy="4" r="4" fill="#0" id="circle148"/>
	<circle cx="634.49" cy="996" r="4" fill="#0" id="circle149"/>
	<circle cx="636.642" cy="361.206" r="4" fill="#0" id="circle150"/>
	<circle cx="640.946" cy="892.711" r="4" fill="#0" id="circle151"/>
	<circle cx="649.553" cy="4" r="4" fill="#0" id="circle152"/>
	<circle cx="656.009" cy="350.447" r="4" fill="#0" id="circle153"/>
	<circle cx="656.009" cy="996" r="4" fill="#0" id="circle154"/>
	<circle cx="660.312" cy="903.471" r="4" fill="#0" id="circle155"/>
	<circle cx="671.072" cy="4" r="4" fill="#0" id="circle156"/>
	<circle cx="675.375" cy="339.688" r="4" fill="#0" id="circle157"/>
	<circle cx="677.527" cy="996" r="4" fill="#0" id="circle158"/>
	<circle cx="681.831" cy="907.774" r="4" fill="#0" id="circle159"/>
	<circle cx="692.59" cy="4" r="4" fill="#0" id="circle160"/>
	<circle cx="694.742" cy="328.928" r="4" fill="#0" id="circle161"/>
	<circle cx="699.046" cy="996" r="4" fill="#0" id="circle162"/>
	<circle cx="703.349" cy="907.774" r="4" fill="#0" id="circle163"/>
	<circle cx="714.108" cy="4" r="4" fill="#0" id="circle164"/>
	<circle cx="716.26" cy="328.928" r="4" fill="#0" id="circle165"/>
	<circle cx="720.564" cy="996" r="4" fill="#0" id="circle166"/>
	<circle cx="722.716" cy="918.534" r="4" fill="#0" id="circle167"/>
	<circle cx="733.475" cy="313.866" r="4" fill="#0" id="circle168"/>
	<circle cx="735.627" cy="4" r="4" fill="#0" id="circle169"/>
	<circle cx="742.082" cy="929.293" r="4" fill="#0" id="circle170"/>
	<circle cx="742.082" cy="996" r="4" fill="#0" id="circle171"/>
	<circle cx="748.538" cy="296.651" r="4" fill="#0" id="circle172"/>
	<circle cx="757.145" cy="4" r="4" fill="#0" id="circle173"/>
	<circle cx="763.601" cy="929.293" r="4" fill="#0" id="circle174"/>
	<circle cx="763.601" cy="996" r="4" fill="#0" id="circle175"/>
	<circle cx="765.753" cy="281.588" r="4" fill="#0" id="circle176"/>
	<circle cx="778.664" cy="4" r="4" fill="#0" id="circle177"/>
	<circle cx="782.967" cy="940.052" r="4" fill="#0" id="circle178"/>
	<circle cx="785.119" cy="996" r="4" fill="#0" id="circle179"/>
	<circle cx="787.271" cy="270.829" r="4" fill="#0" id="circle180"/>
	<circle cx="800.182" cy="4" r="4" fill="#0" id="circle181"/>
	<circle cx="802.334" cy="242.855" r="4" fill="#0" id="circle182"/>
	<circle cx="802.334" cy="950.811" r="4" fill="#0" id="circle183"/>
	<circle cx="806.638" cy="996" r="4" fill="#0" id="circle184"/>
	<circle cx="813.093" cy="221.336" r="4" fill="#0" id="circle185"/>
	<circle cx="821.701" cy="8.30369" r="4" fill="#0" id="circle186"/>
	<circle cx="821.701" cy="961.57" r="4" fill="#0" id="circle187"/>
	<circle cx="828.156" cy="996" r="4" fill="#0" id="circle188"/>
	<circle cx="830.308" cy="29.8221" r="4" fill="#0" id="circle189"/>
	<circle cx="830.308" cy="206.273" r="4" fill="#0" id="circle190"/>
	<circle cx="834.612" cy="51.3406" r="4" fill="#0" id="circle191"/>
	<circle cx="834.612" cy="72.859" r="4" fill="#0" id="circle192"/>
	<circle cx="834.612" cy="94.3774" r="4" fill="#0" id="circle193"/>
	<circle cx="834.612" cy="115.896" r="4" fill="#0" id="circle194"/>
	<circle cx="834.612" cy="137.414" r="4" fill="#0" id="circle195"/>
	<circle cx="834.612" cy="158.933" r="4" fill="#0" id="circle196"/>
	<circle cx="834.612" cy="180.451" r="4" fill="#0" id="circle197"/>
	<circle cx="843.219" cy="965.874" r="4" fill="#0" id="circle198"/>
	<circle cx="849.675" cy="996" r="4" fill="#0" id="circle199"/>
	<circle cx="862.586" cy="976.633" r="4" fill="#0" id="circle200"/>
	</g>
</svg>