<?xml version="1.0" encoding="UTF-8" standalone="no"?>
<!-- Created with CurveBenchmark -->
<svg
	xmlns:dc="http://purl.org/dc/elements/1.1/"
	xmlns:cc="http://creativecommons.org/ns#"
	xmlns:rdf="http://www.w3.org/1999/02/22-rdf-syntax-ns#"
	xmlns:svg="http://www.w3.org/2000/svg"
	xmlns="http://www.w3.org/2000/svg"
	xmlns:sodipodi="http://sodipodi.sourceforge.net/DTD/sodipodi-0.dtd"
	xmlns:inkscape="http://www.inkscape.org/namespaces/inkscape"
	width="1000"
	height="1000"
	id="svg2"
	version="1.1"
	sodipodi:docname="manifold/hnncrust-car10.png.txt">
<defs
	id="defs4" />
<metadata
	id="metadata7">
	<rdf:RDF>
		<cc:Work
			rdf:about="">
			<dc:format>image/svg+xml</dc:format>
			<dc:type
				rdf:resource="http://purl.org/dc/dcmitype/StillImage" />
			<dc:title></dc:title>
		</cc:Work>
	</rdf:RDF>
</metadata>
<g
	inkscape:label="Layer 1"
	inkscape:groupmode="layer"
	id="layer1">
	<path style="fill:none;stroke:red;stroke-width:1px;stroke-linecap:butt;stroke-linejoin:miter;stroke-opacity:1" d="M 4,268.058 12.9209,250.216 z" id="boundary" inkscape:connector-curvature="0" />
	<path style="fill:none;stroke:red;stroke-width:1px;stroke-linecap:butt;stroke-linejoin:miter;stroke-opacity:1" d="M 4,268.058 12.9209,284.115 z" id="boundary" inkscape:connector-curvature="0" />
	<path style="fill:none;stroke:red;stroke-width:1px;stroke-linecap:butt;stroke-linejoin:miter;stroke-opacity:1" d="M 12.9209,250.216 30.7626,241.295 z" id="boundary" inkscape:connector-curvature="0" />
	<path style="fill:none;stroke:red;stroke-width:1px;stroke-linecap:butt;stroke-linejoin:miter;stroke-opacity:1" d="M 12.9209,284.115 21.8417,300.173 z" id="boundary" inkscape:connector-curvature="0" />
	<path style="fill:none;stroke:red;stroke-width:1px;stroke-linecap:butt;stroke-linejoin:miter;stroke-opacity:1" d="M 21.8417,300.173 32.5468,314.446 z" id="boundary" inkscape:connector-curvature="0" />
	<path style="fill:none;stroke:red;stroke-width:1px;stroke-linecap:butt;stroke-linejoin:miter;stroke-opacity:1" d="M 30.7626,241.295 45.036,227.022 z" id="boundary" inkscape:connector-curvature="0" />
	<path style="fill:none;stroke:red;stroke-width:1px;stroke-linecap:butt;stroke-linejoin:miter;stroke-opacity:1" d="M 32.5468,314.446 39.6835,332.288 z" id="boundary" inkscape:connector-curvature="0" />
	<path style="fill:none;stroke:red;stroke-width:1px;stroke-linecap:butt;stroke-linejoin:miter;stroke-opacity:1" d="M 39.6835,332.288 39.6835,350.129 z" id="boundary" inkscape:connector-curvature="0" />
	<path style="fill:none;stroke:red;stroke-width:1px;stroke-linecap:butt;stroke-linejoin:miter;stroke-opacity:1" d="M 39.6835,350.129 39.6835,367.971 z" id="boundary" inkscape:connector-curvature="0" />
	<path style="fill:none;stroke:red;stroke-width:1px;stroke-linecap:butt;stroke-linejoin:miter;stroke-opacity:1" d="M 39.6835,367.971 39.6835,385.813 z" id="boundary" inkscape:connector-curvature="0" />
	<path style="fill:none;stroke:red;stroke-width:1px;stroke-linecap:butt;stroke-linejoin:miter;stroke-opacity:1" d="M 39.6835,385.813 39.6835,403.655 z" id="boundary" inkscape:connector-curvature="0" />
	<path style="fill:none;stroke:red;stroke-width:1px;stroke-linecap:butt;stroke-linejoin:miter;stroke-opacity:1" d="M 39.6835,403.655 48.6043,419.712 z" id="boundary" inkscape:connector-curvature="0" />
	<path style="fill:none;stroke:red;stroke-width:1px;stroke-linecap:butt;stroke-linejoin:miter;stroke-opacity:1" d="M 45.036,227.022 62.8777,218.101 z" id="boundary" inkscape:connector-curvature="0" />
	<path style="fill:none;stroke:red;stroke-width:1px;stroke-linecap:butt;stroke-linejoin:miter;stroke-opacity:1" d="M 48.6043,419.712 48.6043,437.554 z" id="boundary" inkscape:connector-curvature="0" />
	<path style="fill:none;stroke:red;stroke-width:1px;stroke-linecap:butt;stroke-linejoin:miter;stroke-opacity:1" d="M 48.6043,437.554 48.6043,455.396 z" id="boundary" inkscape:connector-curvature="0" />
	<path style="fill:none;stroke:red;stroke-width:1px;stroke-linecap:butt;stroke-linejoin:miter;stroke-opacity:1" d="M 48.6043,455.396 66.446,460.748 z" id="boundary" inkscape:connector-curvature="0" />
	<path style="fill:none;stroke:red;stroke-width:1px;stroke-linecap:butt;stroke-linejoin:miter;stroke-opacity:1" d="M 62.8777,218.101 78.9353,209.18 z" id="boundary" inkscape:connector-curvature="0" />
	<path style="fill:none;stroke:red;stroke-width:1px;stroke-linecap:butt;stroke-linejoin:miter;stroke-opacity:1" d="M 66.446,460.748 82.5036,469.669 z" id="boundary" inkscape:connector-curvature="0" />
	<path style="fill:none;stroke:red;stroke-width:1px;stroke-linecap:butt;stroke-linejoin:miter;stroke-opacity:1" d="M 78.9353,209.18 94.9928,200.259 z" id="boundary" inkscape:connector-curvature="0" />
	<path style="fill:none;stroke:red;stroke-width:1px;stroke-linecap:butt;stroke-linejoin:miter;stroke-opacity:1" d="M 82.5036,469.669 98.5612,478.59 z" id="boundary" inkscape:connector-curvature="0" />
	<path style="fill:none;stroke:red;stroke-width:1px;stroke-linecap:butt;stroke-linejoin:miter;stroke-opacity:1" d="M 94.9928,200.259 111.05,191.338 z" id="boundary" inkscape:connector-curvature="0" />
	<path style="fill:none;stroke:red;stroke-width:1px;stroke-linecap:butt;stroke-linejoin:miter;stroke-opacity:1" d="M 98.5612,478.59 116.403,478.59 z" id="boundary" inkscape:connector-curvature="0" />
	<path style="fill:none;stroke:red;stroke-width:1px;stroke-linecap:butt;stroke-linejoin:miter;stroke-opacity:1" d="M 111.05,191.338 128.892,191.338 z" id="boundary" inkscape:connector-curvature="0" />
	<path style="fill:none;stroke:red;stroke-width:1px;stroke-linecap:butt;stroke-linejoin:miter;stroke-opacity:1" d="M 116.403,478.59 134.245,478.59 z" id="boundary" inkscape:connector-curvature="0" />
	<path style="fill:none;stroke:red;stroke-width:1px;stroke-linecap:butt;stroke-linejoin:miter;stroke-opacity:1" d="M 128.892,191.338 146.734,187.77 z" id="boundary" inkscape:connector-curvature="0" />
	<path style="fill:none;stroke:red;stroke-width:1px;stroke-linecap:butt;stroke-linejoin:miter;stroke-opacity:1" d="M 134.245,478.59 152.086,485.727 z" id="boundary" inkscape:connector-curvature="0" />
	<path style="fill:none;stroke:red;stroke-width:1px;stroke-linecap:butt;stroke-linejoin:miter;stroke-opacity:1" d="M 146.734,187.77 164.576,187.77 z" id="boundary" inkscape:connector-curvature="0" />
	<path style="fill:none;stroke:red;stroke-width:1px;stroke-linecap:butt;stroke-linejoin:miter;stroke-opacity:1" d="M 152.086,485.727 169.928,476.806 z" id="boundary" inkscape:connector-curvature="0" />
	<path style="fill:none;stroke:red;stroke-width:1px;stroke-linecap:butt;stroke-linejoin:miter;stroke-opacity:1" d="M 164.576,187.77 182.417,178.849 z" id="boundary" inkscape:connector-curvature="0" />
	<path style="fill:none;stroke:red;stroke-width:1px;stroke-linecap:butt;stroke-linejoin:miter;stroke-opacity:1" d="M 169.928,476.806 184.201,460.748 z" id="boundary" inkscape:connector-curvature="0" />
	<path style="fill:none;stroke:red;stroke-width:1px;stroke-linecap:butt;stroke-linejoin:miter;stroke-opacity:1" d="M 182.417,178.849 200.259,173.496 z" id="boundary" inkscape:connector-curvature="0" />
	<path style="fill:none;stroke:red;stroke-width:1px;stroke-linecap:butt;stroke-linejoin:miter;stroke-opacity:1" d="M 193.122,442.906 203.827,457.18 z" id="boundary" inkscape:connector-curvature="0" />
	<path style="fill:none;stroke:red;stroke-width:1px;stroke-linecap:butt;stroke-linejoin:miter;stroke-opacity:1" d="M 200.259,173.496 218.101,173.496 z" id="boundary" inkscape:connector-curvature="0" />
	<path style="fill:none;stroke:red;stroke-width:1px;stroke-linecap:butt;stroke-linejoin:miter;stroke-opacity:1" d="M 203.827,457.18 218.101,446.475 z" id="boundary" inkscape:connector-curvature="0" />
	<path style="fill:none;stroke:red;stroke-width:1px;stroke-linecap:butt;stroke-linejoin:miter;stroke-opacity:1" d="M 218.101,173.496 235.942,169.928 z" id="boundary" inkscape:connector-curvature="0" />
	<path style="fill:none;stroke:red;stroke-width:1px;stroke-linecap:butt;stroke-linejoin:miter;stroke-opacity:1" d="M 218.101,446.475 235.942,446.475 z" id="boundary" inkscape:connector-curvature="0" />
	<path style="fill:none;stroke:red;stroke-width:1px;stroke-linecap:butt;stroke-linejoin:miter;stroke-opacity:1" d="M 235.942,169.928 253.784,169.928 z" id="boundary" inkscape:connector-curvature="0" />
	<path style="fill:none;stroke:red;stroke-width:1px;stroke-linecap:butt;stroke-linejoin:miter;stroke-opacity:1" d="M 235.942,446.475 253.784,446.475 z" id="boundary" inkscape:connector-curvature="0" />
	<path style="fill:none;stroke:red;stroke-width:1px;stroke-linecap:butt;stroke-linejoin:miter;stroke-opacity:1" d="M 253.784,169.928 262.705,152.086 z" id="boundary" inkscape:connector-curvature="0" />
	<path style="fill:none;stroke:red;stroke-width:1px;stroke-linecap:butt;stroke-linejoin:miter;stroke-opacity:1" d="M 253.784,446.475 271.626,442.906 z" id="boundary" inkscape:connector-curvature="0" />
	<path style="fill:none;stroke:red;stroke-width:1px;stroke-linecap:butt;stroke-linejoin:miter;stroke-opacity:1" d="M 262.705,152.086 280.547,143.165 z" id="boundary" inkscape:connector-curvature="0" />
	<path style="fill:none;stroke:red;stroke-width:1px;stroke-linecap:butt;stroke-linejoin:miter;stroke-opacity:1" d="M 271.626,442.906 289.468,442.906 z" id="boundary" inkscape:connector-curvature="0" />
	<path style="fill:none;stroke:red;stroke-width:1px;stroke-linecap:butt;stroke-linejoin:miter;stroke-opacity:1" d="M 280.547,143.165 298.388,141.381 z" id="boundary" inkscape:connector-curvature="0" />
	<path style="fill:none;stroke:red;stroke-width:1px;stroke-linecap:butt;stroke-linejoin:miter;stroke-opacity:1" d="M 289.468,442.906 307.309,442.906 z" id="boundary" inkscape:connector-curvature="0" />
	<path style="fill:none;stroke:red;stroke-width:1px;stroke-linecap:butt;stroke-linejoin:miter;stroke-opacity:1" d="M 298.388,141.381 316.23,134.245 z" id="boundary" inkscape:connector-curvature="0" />
	<path style="fill:none;stroke:red;stroke-width:1px;stroke-linecap:butt;stroke-linejoin:miter;stroke-opacity:1" d="M 307.309,442.906 325.151,442.906 z" id="boundary" inkscape:connector-curvature="0" />
	<path style="fill:none;stroke:red;stroke-width:1px;stroke-linecap:butt;stroke-linejoin:miter;stroke-opacity:1" d="M 316.23,134.245 330.504,119.971 z" id="boundary" inkscape:connector-curvature="0" />
	<path style="fill:none;stroke:red;stroke-width:1px;stroke-linecap:butt;stroke-linejoin:miter;stroke-opacity:1" d="M 325.151,442.906 342.993,442.906 z" id="boundary" inkscape:connector-curvature="0" />
	<path style="fill:none;stroke:red;stroke-width:1px;stroke-linecap:butt;stroke-linejoin:miter;stroke-opacity:1" d="M 330.504,119.971 348.345,111.05 z" id="boundary" inkscape:connector-curvature="0" />
	<path style="fill:none;stroke:red;stroke-width:1px;stroke-linecap:butt;stroke-linejoin:miter;stroke-opacity:1" d="M 342.993,442.906 360.835,442.906 z" id="boundary" inkscape:connector-curvature="0" />
	<path style="fill:none;stroke:red;stroke-width:1px;stroke-linecap:butt;stroke-linejoin:miter;stroke-opacity:1" d="M 348.345,111.05 366.187,111.05 z" id="boundary" inkscape:connector-curvature="0" />
	<path style="fill:none;stroke:red;stroke-width:1px;stroke-linecap:butt;stroke-linejoin:miter;stroke-opacity:1" d="M 360.835,442.906 378.676,442.906 z" id="boundary" inkscape:connector-curvature="0" />
	<path style="fill:none;stroke:red;stroke-width:1px;stroke-linecap:butt;stroke-linejoin:miter;stroke-opacity:1" d="M 366.187,111.05 384.029,111.05 z" id="boundary" inkscape:connector-curvature="0" />
	<path style="fill:none;stroke:red;stroke-width:1px;stroke-linecap:butt;stroke-linejoin:miter;stroke-opacity:1" d="M 378.676,442.906 396.518,442.906 z" id="boundary" inkscape:connector-curvature="0" />
	<path style="fill:none;stroke:red;stroke-width:1px;stroke-linecap:butt;stroke-linejoin:miter;stroke-opacity:1" d="M 384.029,111.05 400.086,119.971 z" id="boundary" inkscape:connector-curvature="0" />
	<path style="fill:none;stroke:red;stroke-width:1px;stroke-linecap:butt;stroke-linejoin:miter;stroke-opacity:1" d="M 396.518,442.906 414.36,442.906 z" id="boundary" inkscape:connector-curvature="0" />
	<path style="fill:none;stroke:red;stroke-width:1px;stroke-linecap:butt;stroke-linejoin:miter;stroke-opacity:1" d="M 400.086,119.971 407.223,137.813 z" id="boundary" inkscape:connector-curvature="0" />
	<path style="fill:none;stroke:red;stroke-width:1px;stroke-linecap:butt;stroke-linejoin:miter;stroke-opacity:1" d="M 407.223,137.813 425.065,134.245 z" id="boundary" inkscape:connector-curvature="0" />
	<path style="fill:none;stroke:red;stroke-width:1px;stroke-linecap:butt;stroke-linejoin:miter;stroke-opacity:1" d="M 414.36,442.906 425.065,457.18 z" id="boundary" inkscape:connector-curvature="0" />
	<path style="fill:none;stroke:red;stroke-width:1px;stroke-linecap:butt;stroke-linejoin:miter;stroke-opacity:1" d="M 425.065,134.245 442.906,134.245 z" id="boundary" inkscape:connector-curvature="0" />
	<path style="fill:none;stroke:red;stroke-width:1px;stroke-linecap:butt;stroke-linejoin:miter;stroke-opacity:1" d="M 425.065,457.18 433.986,473.237 z" id="boundary" inkscape:connector-curvature="0" />
	<path style="fill:none;stroke:red;stroke-width:1px;stroke-linecap:butt;stroke-linejoin:miter;stroke-opacity:1" d="M 433.986,473.237 450.043,482.158 z" id="boundary" inkscape:connector-curvature="0" />
	<path style="fill:none;stroke:red;stroke-width:1px;stroke-linecap:butt;stroke-linejoin:miter;stroke-opacity:1" d="M 442.906,134.245 460.748,132.46 z" id="boundary" inkscape:connector-curvature="0" />
	<path style="fill:none;stroke:red;stroke-width:1px;stroke-linecap:butt;stroke-linejoin:miter;stroke-opacity:1" d="M 450.043,98.5612 458.964,114.619 z" id="boundary" inkscape:connector-curvature="0" />
	<path style="fill:none;stroke:red;stroke-width:1px;stroke-linecap:butt;stroke-linejoin:miter;stroke-opacity:1" d="M 450.043,98.5612 467.885,87.8561 z" id="boundary" inkscape:connector-curvature="0" />
	<path style="fill:none;stroke:red;stroke-width:1px;stroke-linecap:butt;stroke-linejoin:miter;stroke-opacity:1" d="M 450.043,482.158 464.317,494.647 z" id="boundary" inkscape:connector-curvature="0" />
	<path style="fill:none;stroke:red;stroke-width:1px;stroke-linecap:butt;stroke-linejoin:miter;stroke-opacity:1" d="M 458.964,53.9568 458.964,71.7986 z" id="boundary" inkscape:connector-curvature="0" />
	<path style="fill:none;stroke:red;stroke-width:1px;stroke-linecap:butt;stroke-linejoin:miter;stroke-opacity:1" d="M 458.964,53.9568 473.237,39.6835 z" id="boundary" inkscape:connector-curvature="0" />
	<path style="fill:none;stroke:red;stroke-width:1px;stroke-linecap:butt;stroke-linejoin:miter;stroke-opacity:1" d="M 458.964,71.7986 467.885,87.8561 z" id="boundary" inkscape:connector-curvature="0" />
	<path style="fill:none;stroke:red;stroke-width:1px;stroke-linecap:butt;stroke-linejoin:miter;stroke-opacity:1" d="M 458.964,114.619 460.748,132.46 z" id="boundary" inkscape:connector-curvature="0" />
	<path style="fill:none;stroke:red;stroke-width:1px;stroke-linecap:butt;stroke-linejoin:miter;stroke-opacity:1" d="M 464.317,494.647 482.158,496.432 z" id="boundary" inkscape:connector-curvature="0" />
	<path style="fill:none;stroke:red;stroke-width:1px;stroke-linecap:butt;stroke-linejoin:miter;stroke-opacity:1" d="M 473.237,39.6835 482.158,21.8417 z" id="boundary" inkscape:connector-curvature="0" />
	<path style="fill:none;stroke:red;stroke-width:1px;stroke-linecap:butt;stroke-linejoin:miter;stroke-opacity:1" d="M 482.158,21.8417 498.216,12.9209 z" id="boundary" inkscape:connector-curvature="0" />
	<path style="fill:none;stroke:red;stroke-width:1px;stroke-linecap:butt;stroke-linejoin:miter;stroke-opacity:1" d="M 482.158,496.432 500,503.568 z" id="boundary" inkscape:connector-curvature="0" />
	<path style="fill:none;stroke:red;stroke-width:1px;stroke-linecap:butt;stroke-linejoin:miter;stroke-opacity:1" d="M 498.216,12.9209 516.058,12.9209 z" id="boundary" inkscape:connector-curvature="0" />
	<path style="fill:none;stroke:red;stroke-width:1px;stroke-linecap:butt;stroke-linejoin:miter;stroke-opacity:1" d="M 500,503.568 517.842,503.568 z" id="boundary" inkscape:connector-curvature="0" />
	<path style="fill:none;stroke:red;stroke-width:1px;stroke-linecap:butt;stroke-linejoin:miter;stroke-opacity:1" d="M 516.058,12.9209 533.899,5.78417 z" id="boundary" inkscape:connector-curvature="0" />
	<path style="fill:none;stroke:red;stroke-width:1px;stroke-linecap:butt;stroke-linejoin:miter;stroke-opacity:1" d="M 517.842,503.568 535.683,496.432 z" id="boundary" inkscape:connector-curvature="0" />
	<path style="fill:none;stroke:red;stroke-width:1px;stroke-linecap:butt;stroke-linejoin:miter;stroke-opacity:1" d="M 533.899,5.78417 551.741,4 z" id="boundary" inkscape:connector-curvature="0" />
	<path style="fill:none;stroke:red;stroke-width:1px;stroke-linecap:butt;stroke-linejoin:miter;stroke-opacity:1" d="M 535.683,496.432 541.036,478.59 z" id="boundary" inkscape:connector-curvature="0" />
	<path style="fill:none;stroke:red;stroke-width:1px;stroke-linecap:butt;stroke-linejoin:miter;stroke-opacity:1" d="M 541.036,478.59 549.957,460.748 z" id="boundary" inkscape:connector-curvature="0" />
	<path style="fill:none;stroke:red;stroke-width:1px;stroke-linecap:butt;stroke-linejoin:miter;stroke-opacity:1" d="M 549.957,460.748 564.23,448.259 z" id="boundary" inkscape:connector-curvature="0" />
	<path style="fill:none;stroke:red;stroke-width:1px;stroke-linecap:butt;stroke-linejoin:miter;stroke-opacity:1" d="M 551.741,4 567.799,12.9209 z" id="boundary" inkscape:connector-curvature="0" />
	<path style="fill:none;stroke:red;stroke-width:1px;stroke-linecap:butt;stroke-linejoin:miter;stroke-opacity:1" d="M 564.23,448.259 576.719,433.986 z" id="boundary" inkscape:connector-curvature="0" />
	<path style="fill:none;stroke:red;stroke-width:1px;stroke-linecap:butt;stroke-linejoin:miter;stroke-opacity:1" d="M 567.799,12.9209 583.856,4 z" id="boundary" inkscape:connector-curvature="0" />
	<path style="fill:none;stroke:red;stroke-width:1px;stroke-linecap:butt;stroke-linejoin:miter;stroke-opacity:1" d="M 576.719,433.986 594.561,433.986 z" id="boundary" inkscape:connector-curvature="0" />
	<path style="fill:none;stroke:red;stroke-width:1px;stroke-linecap:butt;stroke-linejoin:miter;stroke-opacity:1" d="M 583.856,4 599.914,12.9209 z" id="boundary" inkscape:connector-curvature="0" />
	<path style="fill:none;stroke:red;stroke-width:1px;stroke-linecap:butt;stroke-linejoin:miter;stroke-opacity:1" d="M 594.561,433.986 612.403,433.986 z" id="boundary" inkscape:connector-curvature="0" />
	<path style="fill:none;stroke:red;stroke-width:1px;stroke-linecap:butt;stroke-linejoin:miter;stroke-opacity:1" d="M 599.914,12.9209 615.971,4 z" id="boundary" inkscape:connector-curvature="0" />
	<path style="fill:none;stroke:red;stroke-width:1px;stroke-linecap:butt;stroke-linejoin:miter;stroke-opacity:1" d="M 612.403,433.986 630.245,433.986 z" id="boundary" inkscape:connector-curvature="0" />
	<path style="fill:none;stroke:red;stroke-width:1px;stroke-linecap:butt;stroke-linejoin:miter;stroke-opacity:1" d="M 615.971,4 632.029,12.9209 z" id="boundary" inkscape:connector-curvature="0" />
	<path style="fill:none;stroke:red;stroke-width:1px;stroke-linecap:butt;stroke-linejoin:miter;stroke-opacity:1" d="M 630.245,433.986 648.086,433.986 z" id="boundary" inkscape:connector-curvature="0" />
	<path style="fill:none;stroke:red;stroke-width:1px;stroke-linecap:butt;stroke-linejoin:miter;stroke-opacity:1" d="M 632.029,12.9209 648.086,21.8417 z" id="boundary" inkscape:connector-curvature="0" />
	<path style="fill:none;stroke:red;stroke-width:1px;stroke-linecap:butt;stroke-linejoin:miter;stroke-opacity:1" d="M 648.086,21.8417 665.928,21.8417 z" id="boundary" inkscape:connector-curvature="0" />
	<path style="fill:none;stroke:red;stroke-width:1px;stroke-linecap:butt;stroke-linejoin:miter;stroke-opacity:1" d="M 648.086,433.986 665.928,433.986 z" id="boundary" inkscape:connector-curvature="0" />
	<path style="fill:none;stroke:red;stroke-width:1px;stroke-linecap:butt;stroke-linejoin:miter;stroke-opacity:1" d="M 665.928,21.8417 683.77,27.1942 z" id="boundary" inkscape:connector-curvature="0" />
	<path style="fill:none;stroke:red;stroke-width:1px;stroke-linecap:butt;stroke-linejoin:miter;stroke-opacity:1" d="M 665.928,433.986 683.77,433.986 z" id="boundary" inkscape:connector-curvature="0" />
	<path style="fill:none;stroke:red;stroke-width:1px;stroke-linecap:butt;stroke-linejoin:miter;stroke-opacity:1" d="M 683.77,27.1942 701.612,30.7626 z" id="boundary" inkscape:connector-curvature="0" />
	<path style="fill:none;stroke:red;stroke-width:1px;stroke-linecap:butt;stroke-linejoin:miter;stroke-opacity:1" d="M 683.77,433.986 701.612,433.986 z" id="boundary" inkscape:connector-curvature="0" />
	<path style="fill:none;stroke:red;stroke-width:1px;stroke-linecap:butt;stroke-linejoin:miter;stroke-opacity:1" d="M 701.612,30.7626 719.453,30.7626 z" id="boundary" inkscape:connector-curvature="0" />
	<path style="fill:none;stroke:red;stroke-width:1px;stroke-linecap:butt;stroke-linejoin:miter;stroke-opacity:1" d="M 701.612,433.986 719.453,433.986 z" id="boundary" inkscape:connector-curvature="0" />
	<path style="fill:none;stroke:red;stroke-width:1px;stroke-linecap:butt;stroke-linejoin:miter;stroke-opacity:1" d="M 719.453,30.7626 735.511,39.6835 z" id="boundary" inkscape:connector-curvature="0" />
	<path style="fill:none;stroke:red;stroke-width:1px;stroke-linecap:butt;stroke-linejoin:miter;stroke-opacity:1" d="M 719.453,433.986 737.295,433.986 z" id="boundary" inkscape:connector-curvature="0" />
	<path style="fill:none;stroke:red;stroke-width:1px;stroke-linecap:butt;stroke-linejoin:miter;stroke-opacity:1" d="M 735.511,39.6835 753.353,43.2518 z" id="boundary" inkscape:connector-curvature="0" />
	<path style="fill:none;stroke:red;stroke-width:1px;stroke-linecap:butt;stroke-linejoin:miter;stroke-opacity:1" d="M 737.295,433.986 755.137,433.986 z" id="boundary" inkscape:connector-curvature="0" />
	<path style="fill:none;stroke:red;stroke-width:1px;stroke-linecap:butt;stroke-linejoin:miter;stroke-opacity:1" d="M 753.353,43.2518 764.058,57.5252 z" id="boundary" inkscape:connector-curvature="0" />
	<path style="fill:none;stroke:red;stroke-width:1px;stroke-linecap:butt;stroke-linejoin:miter;stroke-opacity:1" d="M 755.137,433.986 772.978,433.986 z" id="boundary" inkscape:connector-curvature="0" />
	<path style="fill:none;stroke:red;stroke-width:1px;stroke-linecap:butt;stroke-linejoin:miter;stroke-opacity:1" d="M 764.058,57.5252 764.058,77.1511 z" id="boundary" inkscape:connector-curvature="0" />
	<path style="fill:none;stroke:red;stroke-width:1px;stroke-linecap:butt;stroke-linejoin:miter;stroke-opacity:1" d="M 764.058,77.1511 764.058,103.914 z" id="boundary" inkscape:connector-curvature="0" />
	<path style="fill:none;stroke:red;stroke-width:1px;stroke-linecap:butt;stroke-linejoin:miter;stroke-opacity:1" d="M 764.058,103.914 772.978,119.971 z" id="boundary" inkscape:connector-curvature="0" />
	<path style="fill:none;stroke:red;stroke-width:1px;stroke-linecap:butt;stroke-linejoin:miter;stroke-opacity:1" d="M 772.978,119.971 772.978,137.813 z" id="boundary" inkscape:connector-curvature="0" />
	<path style="fill:none;stroke:red;stroke-width:1px;stroke-linecap:butt;stroke-linejoin:miter;stroke-opacity:1" d="M 772.978,137.813 789.036,146.734 z" id="boundary" inkscape:connector-curvature="0" />
	<path style="fill:none;stroke:red;stroke-width:1px;stroke-linecap:butt;stroke-linejoin:miter;stroke-opacity:1" d="M 772.978,433.986 790.82,433.986 z" id="boundary" inkscape:connector-curvature="0" />
	<path style="fill:none;stroke:red;stroke-width:1px;stroke-linecap:butt;stroke-linejoin:miter;stroke-opacity:1" d="M 789.036,146.734 806.878,150.302 z" id="boundary" inkscape:connector-curvature="0" />
	<path style="fill:none;stroke:red;stroke-width:1px;stroke-linecap:butt;stroke-linejoin:miter;stroke-opacity:1" d="M 790.82,433.986 806.878,442.906 z" id="boundary" inkscape:connector-curvature="0" />
	<path style="fill:none;stroke:red;stroke-width:1px;stroke-linecap:butt;stroke-linejoin:miter;stroke-opacity:1" d="M 806.878,150.302 822.935,159.223 z" id="boundary" inkscape:connector-curvature="0" />
	<path style="fill:none;stroke:red;stroke-width:1px;stroke-linecap:butt;stroke-linejoin:miter;stroke-opacity:1" d="M 806.878,442.906 817.583,457.18 z" id="boundary" inkscape:connector-curvature="0" />
	<path style="fill:none;stroke:red;stroke-width:1px;stroke-linecap:butt;stroke-linejoin:miter;stroke-opacity:1" d="M 817.583,457.18 835.424,460.748 z" id="boundary" inkscape:connector-curvature="0" />
	<path style="fill:none;stroke:red;stroke-width:1px;stroke-linecap:butt;stroke-linejoin:miter;stroke-opacity:1" d="M 822.935,159.223 840.777,164.576 z" id="boundary" inkscape:connector-curvature="0" />
	<path style="fill:none;stroke:red;stroke-width:1px;stroke-linecap:butt;stroke-linejoin:miter;stroke-opacity:1" d="M 835.424,460.748 853.266,451.827 z" id="boundary" inkscape:connector-curvature="0" />
	<path style="fill:none;stroke:red;stroke-width:1px;stroke-linecap:butt;stroke-linejoin:miter;stroke-opacity:1" d="M 840.777,164.576 858.619,164.576 z" id="boundary" inkscape:connector-curvature="0" />
	<path style="fill:none;stroke:red;stroke-width:1px;stroke-linecap:butt;stroke-linejoin:miter;stroke-opacity:1" d="M 853.266,451.827 869.324,442.906 z" id="boundary" inkscape:connector-curvature="0" />
	<path style="fill:none;stroke:red;stroke-width:1px;stroke-linecap:butt;stroke-linejoin:miter;stroke-opacity:1" d="M 858.619,164.576 876.46,164.576 z" id="boundary" inkscape:connector-curvature="0" />
	<path style="fill:none;stroke:red;stroke-width:1px;stroke-linecap:butt;stroke-linejoin:miter;stroke-opacity:1" d="M 869.324,442.906 883.597,432.201 z" id="boundary" inkscape:connector-curvature="0" />
	<path style="fill:none;stroke:red;stroke-width:1px;stroke-linecap:butt;stroke-linejoin:miter;stroke-opacity:1" d="M 876.46,164.576 894.302,164.576 z" id="boundary" inkscape:connector-curvature="0" />
	<path style="fill:none;stroke:red;stroke-width:1px;stroke-linecap:butt;stroke-linejoin:miter;stroke-opacity:1" d="M 883.597,432.201 897.871,416.144 z" id="boundary" inkscape:connector-curvature="0" />
	<path style="fill:none;stroke:red;stroke-width:1px;stroke-linecap:butt;stroke-linejoin:miter;stroke-opacity:1" d="M 894.302,164.576 912.144,164.576 z" id="boundary" inkscape:connector-curvature="0" />
	<path style="fill:none;stroke:red;stroke-width:1px;stroke-linecap:butt;stroke-linejoin:miter;stroke-opacity:1" d="M 897.871,416.144 906.791,398.302 z" id="boundary" inkscape:connector-curvature="0" />
	<path style="fill:none;stroke:red;stroke-width:1px;stroke-linecap:butt;stroke-linejoin:miter;stroke-opacity:1" d="M 906.791,398.302 915.712,380.46 z" id="boundary" inkscape:connector-curvature="0" />
	<path style="fill:none;stroke:red;stroke-width:1px;stroke-linecap:butt;stroke-linejoin:miter;stroke-opacity:1" d="M 912.144,164.576 929.986,164.576 z" id="boundary" inkscape:connector-curvature="0" />
	<path style="fill:none;stroke:red;stroke-width:1px;stroke-linecap:butt;stroke-linejoin:miter;stroke-opacity:1" d="M 915.712,380.46 924.633,353.698 z" id="boundary" inkscape:connector-curvature="0" />
	<path style="fill:none;stroke:red;stroke-width:1px;stroke-linecap:butt;stroke-linejoin:miter;stroke-opacity:1" d="M 924.633,353.698 940.691,362.619 z" id="boundary" inkscape:connector-curvature="0" />
	<path style="fill:none;stroke:red;stroke-width:1px;stroke-linecap:butt;stroke-linejoin:miter;stroke-opacity:1" d="M 929.986,164.576 947.827,164.576 z" id="boundary" inkscape:connector-curvature="0" />
	<path style="fill:none;stroke:red;stroke-width:1px;stroke-linecap:butt;stroke-linejoin:miter;stroke-opacity:1" d="M 940.691,362.619 954.964,351.914 z" id="boundary" inkscape:connector-curvature="0" />
	<path style="fill:none;stroke:red;stroke-width:1px;stroke-linecap:butt;stroke-linejoin:miter;stroke-opacity:1" d="M 947.827,164.576 965.669,164.576 z" id="boundary" inkscape:connector-curvature="0" />
	<path style="fill:none;stroke:red;stroke-width:1px;stroke-linecap:butt;stroke-linejoin:miter;stroke-opacity:1" d="M 954.964,351.914 960.317,318.014 z" id="boundary" inkscape:connector-curvature="0" />
	<path style="fill:none;stroke:red;stroke-width:1px;stroke-linecap:butt;stroke-linejoin:miter;stroke-opacity:1" d="M 960.317,291.252 960.317,318.014 z" id="boundary" inkscape:connector-curvature="0" />
	<path style="fill:none;stroke:red;stroke-width:1px;stroke-linecap:butt;stroke-linejoin:miter;stroke-opacity:1" d="M 960.317,291.252 969.237,264.489 z" id="boundary" inkscape:connector-curvature="0" />
	<path style="fill:none;stroke:red;stroke-width:1px;stroke-linecap:butt;stroke-linejoin:miter;stroke-opacity:1" d="M 965.669,164.576 983.511,166.36 z" id="boundary" inkscape:connector-curvature="0" />
	<path style="fill:none;stroke:red;stroke-width:1px;stroke-linecap:butt;stroke-linejoin:miter;stroke-opacity:1" d="M 969.237,264.489 983.511,252 z" id="boundary" inkscape:connector-curvature="0" />
	<path style="fill:none;stroke:red;stroke-width:1px;stroke-linecap:butt;stroke-linejoin:miter;stroke-opacity:1" d="M 983.511,166.36 996,180.633 z" id="boundary" inkscape:connector-curvature="0" />
	<path style="fill:none;stroke:red;stroke-width:1px;stroke-linecap:butt;stroke-linejoin:miter;stroke-opacity:1" d="M 983.511,252 994.216,237.727 z" id="boundary" inkscape:connector-curvature="0" />
	<path style="fill:none;stroke:red;stroke-width:1px;stroke-linecap:butt;stroke-linejoin:miter;stroke-opacity:1" d="M 994.216,237.727 996,216.317 z" id="boundary" inkscape:connector-curvature="0" />
	<path style="fill:none;stroke:red;stroke-width:1px;stroke-linecap:butt;stroke-linejoin:miter;stroke-opacity:1" d="M 996,180.633 996,198.475 z" id="boundary" inkscape:connector-curvature="0" />
	<path style="fill:none;stroke:red;stroke-width:1px;stroke-linecap:butt;stroke-linejoin:miter;stroke-opacity:1" d="M 996,198.475 996,216.317 z" id="boundary" inkscape:connector-curvature="0" />
	<circle cx="4" cy="268.058" r="4" fill="#0" id="circle0"/>
	<circle cx="12.9209" cy="250.216" r="4" fill="#0" id="circle1"/>
	<circle cx="12.9209" cy="284.115" r="4" fill="#0" id="circle2"/>
	<circle cx="21.8417" cy="300.173" r="4" fill="#0" id="circle3"/>
	<circle cx="30.7626" cy="241.295" r="4" fill="#0" id="circle4"/>
	<circle cx="32.5468" cy="314.446" r="4" fill="#0" id="circle5"/>
	<circle cx="39.6835" cy="332.288" r="4" fill="#0" id="circle6"/>
	<circle cx="39.6835" cy="350.129" r="4" fill="#0" id="circle7"/>
	<circle cx="39.6835" cy="367.971" r="4" fill="#0" id="circle8"/>
	<circle cx="39.6835" cy="385.813" r="4" fill="#0" id="circle9"/>
	<circle cx="39.6835" cy="403.655" r="4" fill="#0" id="circle10"/>
	<circle cx="45.036" cy="227.022" r="4" fill="#0" id="circle11"/>
	<circle cx="48.6043" cy="419.712" r="4" fill="#0" id="circle12"/>
	<circle cx="48.6043" cy="437.554" r="4" fill="#0" id="circle13"/>
	<circle cx="48.6043" cy="455.396" r="4" fill="#0" id="circle14"/>
	<circle cx="62.8777" cy="218.101" r="4" fill="#0" id="circle15"/>
	<circle cx="66.446" cy="460.748" r="4" fill="#0" id="circle16"/>
	<circle cx="78.9353" cy="209.18" r="4" fill="#0" id="circle17"/>
	<circle cx="82.5036" cy="469.669" r="4" fill="#0" id="circle18"/>
	<circle cx="94.9928" cy="200.259" r="4" fill="#0" id="circle19"/>
	<circle cx="98.5612" cy="478.59" r="4" fill="#0" id="circle20"/>
	<circle cx="111.05" cy="191.338" r="4" fill="#0" id="circle21"/>
	<circle cx="116.403" cy="478.59" r="4" fill="#0" id="circle22"/>
	<circle cx="128.892" cy="191.338" r="4" fill="#0" id="circle23"/>
	<circle cx="134.245" cy="478.59" r="4" fill="#0" id="circle24"/>
	<circle cx="146.734" cy="187.77" r="4" fill="#0" id="circle25"/>
	<circle cx="152.086" cy="485.727" r="4" fill="#0" id="circle26"/>
	<circle cx="164.576" cy="187.77" r="4" fill="#0" id="circle27"/>
	<circle cx="169.928" cy="476.806" r="4" fill="#0" id="circle28"/>
	<circle cx="182.417" cy="178.849" r="4" fill="#0" id="circle29"/>
	<circle cx="184.201" cy="460.748" r="4" fill="#0" id="circle30"/>
	<circle cx="193.122" cy="442.906" r="4" fill="#0" id="circle31"/>
	<circle cx="200.259" cy="173.496" r="4" fill="#0" id="circle32"/>
	<circle cx="203.827" cy="457.18" r="4" fill="#0" id="circle33"/>
	<circle cx="218.101" cy="173.496" r="4" fill="#0" id="circle34"/>
	<circle cx="218.101" cy="446.475" r="4" fill="#0" id="circle35"/>
	<circle cx="235.942" cy="169.928" r="4" fill="#0" id="circle36"/>
	<circle cx="235.942" cy="446.475" r="4" fill="#0" id="circle37"/>
	<circle cx="253.784" cy="169.928" r="4" fill="#0" id="circle38"/>
	<circle cx="253.784" cy="446.475" r="4" fill="#0" id="circle39"/>
	<circle cx="262.705" cy="152.086" r="4" fill="#0" id="circle40"/>
	<circle cx="271.626" cy="442.906" r="4" fill="#0" id="circle41"/>
	<circle cx="280.547" cy="143.165" r="4" fill="#0" id="circle42"/>
	<circle cx="289.468" cy="442.906" r="4" fill="#0" id="circle43"/>
	<circle cx="298.388" cy="141.381" r="4" fill="#0" id="circle44"/>
	<circle cx="307.309" cy="442.906" r="4" fill="#0" id="circle45"/>
	<circle cx="316.23" cy="134.245" r="4" fill="#0" id="circle46"/>
	<circle cx="325.151" cy="442.906" r="4" fill="#0" id="circle47"/>
	<circle cx="330.504" cy="119.971" r="4" fill="#0" id="circle48"/>
	<circle cx="342.993" cy="442.906" r="4" fill="#0" id="circle49"/>
	<circle cx="348.345" cy="111.05" r="4" fill="#0" id="circle50"/>
	<circle cx="360.835" cy="442.906" r="4" fill="#0" id="circle51"/>
	<circle cx="366.187" cy="111.05" r="4" fill="#0" id="circle52"/>
	<circle cx="378.676" cy="442.906" r="4" fill="#0" id="circle53"/>
	<circle cx="384.029" cy="111.05" r="4" fill="#0" id="circle54"/>
	<circle cx="396.518" cy="442.906" r="4" fill="#0" id="circle55"/>
	<circle cx="400.086" cy="119.971" r="4" fill="#0" id="circle56"/>
	<circle cx="407.223" cy="137.813" r="4" fill="#0" id="circle57"/>
	<circle cx="414.36" cy="442.906" r="4" fill="#0" id="circle58"/>
	<circle cx="425.065" cy="134.245" r="4" fill="#0" id="circle59"/>
	<circle cx="425.065" cy="457.18" r="4" fill="#0" id="circle60"/>
	<circle cx="433.986" cy="473.237" r="4" fill="#0" id="circle61"/>
	<circle cx="442.906" cy="134.245" r="4" fill="#0" id="circle62"/>
	<circle cx="450.043" cy="98.5612" r="4" fill="#0" id="circle63"/>
	<circle cx="450.043" cy="482.158" r="4" fill="#0" id="circle64"/>
	<circle cx="458.964" cy="53.9568" r="4" fill="#0" id="circle65"/>
	<circle cx="458.964" cy="71.7986" r="4" fill="#0" id="circle66"/>
	<circle cx="458.964" cy="114.619" r="4" fill="#0" id="circle67"/>
	<circle cx="460.748" cy="132.46" r="4" fill="#0" id="circle68"/>
	<circle cx="464.317" cy="494.647" r="4" fill="#0" id="circle69"/>
	<circle cx="467.885" cy="87.8561" r="4" fill="#0" id="circle70"/>
	<circle cx="473.237" cy="39.6835" r="4" fill="#0" id="circle71"/>
	<circle cx="482.158" cy="21.8417" r="4" fill="#0" id="circle72"/>
	<circle cx="482.158" cy="496.432" r="4" fill="#0" id="circle73"/>
	<circle cx="498.216" cy="12.9209" r="4" fill="#0" id="circle74"/>
	<circle cx="500" cy="503.568" r="4" fill="#0" id="circle75"/>
	<circle cx="516.058" cy="12.9209" r="4" fill="#0" id="circle76"/>
	<circle cx="517.842" cy="503.568" r="4" fill="#0" id="circle77"/>
	<circle cx="533.899" cy="5.78417" r="4" fill="#0" id="circle78"/>
	<circle cx="535.683" cy="496.432" r="4" fill="#0" id="circle79"/>
	<circle cx="541.036" cy="478.59" r="4" fill="#0" id="circle80"/>
	<circle cx="549.957" cy="460.748" r="4" fill="#0" id="circle81"/>
	<circle cx="551.741" cy="4" r="4" fill="#0" id="circle82"/>
	<circle cx="564.23" cy="448.259" r="4" fill="#0" id="circle83"/>
	<circle cx="567.799" cy="12.9209" r="4" fill="#0" id="circle84"/>
	<circle cx="576.719" cy="433.986" r="4" fill="#0" id="circle85"/>
	<circle cx="583.856" cy="4" r="4" fill="#0" id="circle86"/>
	<circle cx="594.561" cy="433.986" r="4" fill="#0" id="circle87"/>
	<circle cx="599.914" cy="12.9209" r="4" fill="#0" id="circle88"/>
	<circle cx="612.403" cy="433.986" r="4" fill="#0" id="circle89"/>
	<circle cx="615.971" cy="4" r="4" fill="#0" id="circle90"/>
	<circle cx="630.245" cy="433.986" r="4" fill="#0" id="circle91"/>
	<circle cx="632.029" cy="12.9209" r="4" fill="#0" id="circle92"/>
	<circle cx="648.086" cy="21.8417" r="4" fill="#0" id="circle93"/>
	<circle cx="648.086" cy="433.986" r="4" fill="#0" id="circle94"/>
	<circle cx="665.928" cy="21.8417" r="4" fill="#0" id="circle95"/>
	<circle cx="665.928" cy="433.986" r="4" fill="#0" id="circle96"/>
	<circle cx="683.77" cy="27.1942" r="4" fill="#0" id="circle97"/>
	<circle cx="683.77" cy="433.986" r="4" fill="#0" id="circle98"/>
	<circle cx="701.612" cy="30.7626" r="4" fill="#0" id="circle99"/>
	<circle cx="701.612" cy="433.986" r="4" fill="#0" id="circle100"/>
	<circle cx="719.453" cy="30.7626" r="4" fill="#0" id="circle101"/>
	<circle cx="719.453" cy="433.986" r="4" fill="#0" id="circle102"/>
	<circle cx="735.511" cy="39.6835" r="4" fill="#0" id="circle103"/>
	<circle cx="737.295" cy="433.986" r="4" fill="#0" id="circle104"/>
	<circle cx="753.353" cy="43.2518" r="4" fill="#0" id="circle105"/>
	<circle cx="755.137" cy="433.986" r="4" fill="#0" id="circle106"/>
	<circle cx="764.058" cy="57.5252" r="4" fill="#0" id="circle107"/>
	<circle cx="764.058" cy="77.1511" r="4" fill="#0" id="circle108"/>
	<circle cx="764.058" cy="103.914" r="4" fill="#0" id="circle109"/>
	<circle cx="772.978" cy="119.971" r="4" fill="#0" id="circle110"/>
	<circle cx="772.978" cy="137.813" r="4" fill="#0" id="circle111"/>
	<circle cx="772.978" cy="433.986" r="4" fill="#0" id="circle112"/>
	<circle cx="789.036" cy="146.734" r="4" fill="#0" id="circle113"/>
	<circle cx="790.82" cy="433.986" r="4" fill="#0" id="circle114"/>
	<circle cx="806.878" cy="150.302" r="4" fill="#0" id="circle115"/>
	<circle cx="806.878" cy="442.906" r="4" fill="#0" id="circle116"/>
	<circle cx="817.583" cy="457.18" r="4" fill="#0" id="circle117"/>
	<circle cx="822.935" cy="159.223" r="4" fill="#0" id="circle118"/>
	<circle cx="835.424" cy="460.748" r="4" fill="#0" id="circle119"/>
	<circle cx="840.777" cy="164.576" r="4" fill="#0" id="circle120"/>
	<circle cx="853.266" cy="451.827" r="4" fill="#0" id="circle121"/>
	<circle cx="858.619" cy="164.576" r="4" fill="#0" id="circle122"/>
	<circle cx="869.324" cy="442.906" r="4" fill="#0" id="circle123"/>
	<circle cx="876.46" cy="164.576" r="4" fill="#0" id="circle124"/>
	<circle cx="883.597" cy="432.201" r="4" fill="#0" id="circle125"/>
	<circle cx="894.302" cy="164.576" r="4" fill="#0" id="circle126"/>
	<circle cx="897.871" cy="416.144" r="4" fill="#0" id="circle127"/>
	<circle cx="906.791" cy="398.302" r="4" fill="#0" id="circle128"/>
	<circle cx="912.144" cy="164.576" r="4" fill="#0" id="circle129"/>
	<circle cx="915.712" cy="380.46" r="4" fill="#0" id="circle130"/>
	<circle cx="924.633" cy="353.698" r="4" fill="#0" id="circle131"/>
	<circle cx="929.986" cy="164.576" r="4" fill="#0" id="circle132"/>
	<circle cx="940.691" cy="362.619" r="4" fill="#0" id="circle133"/>
	<circle cx="947.827" cy="164.576" r="4" fill="#0" id="circle134"/>
	<circle cx="954.964" cy="351.914" r="4" fill="#0" id="circle135"/>
	<circle cx="960.317" cy="291.252" r="4" fill="#0" id="circle136"/>
	<circle cx="960.317" cy="318.014" r="4" fill="#0" id="circle137"/>
	<circle cx="965.669" cy="164.576" r="4" fill="#0" id="circle138"/>
	<circle cx="969.237" cy="264.489" r="4" fill="#0" id="circle139"/>
	<circle cx="983.511" cy="166.36" r="4" fill="#0" id="circle140"/>
	<circle cx="983.511" cy="252" r="4" fill="#0" id="circle141"/>
	<circle cx="994.216" cy="237.727" r="4" fill="#0" id="circle142"/>
	<circle cx="996" cy="180.633" r="4" fill="#0" id="circle143"/>
	<circle cx="996" cy="198.475" r="4" fill="#0" id="circle144"/>
	<circle cx="996" cy="216.317" r="4" fill="#0" id="circle145"/>
	</g>
</svg>