<?xml version="1.0" encoding="UTF-8" standalone="no"?>
<!-- Created with CurveBenchmark -->
<svg
	xmlns:dc="http://purl.org/dc/elements/1.1/"
	xmlns:cc="http://creativecommons.org/ns#"
	xmlns:rdf="http://www.w3.org/1999/02/22-rdf-syntax-ns#"
	xmlns:svg="http://www.w3.org/2000/svg"
	xmlns="http://www.w3.org/2000/svg"
	xmlns:sodipodi="http://sodipodi.sourceforge.net/DTD/sodipodi-0.dtd"
	xmlns:inkscape="http://www.inkscape.org/namespaces/inkscape"
	width="1000"
	height="1000"
	id="svg2"
	version="1.1"
	sodipodi:docname="manifold/hnncrust-tool18.png.txt">
<defs
	id="defs4" />
<metadata
	id="metadata7">
	<rdf:RDF>
		<cc:Work
			rdf:about="">
			<dc:format>image/svg+xml</dc:format>
			<dc:type
				rdf:resource="http://purl.org/dc/dcmitype/StillImage" />
			<dc:title></dc:title>
		</cc:Work>
	</rdf:RDF>
</metadata>
<g
	inkscape:label="Layer 1"
	inkscape:groupmode="layer"
	id="layer1">
	<path style="fill:none;stroke:red;stroke-width:1px;stroke-linecap:butt;stroke-linejoin:miter;stroke-opacity:1" d="M 4,550.909 4,580 z" id="boundary" inkscape:connector-curvature="0" />
	<path style="fill:none;stroke:red;stroke-width:1px;stroke-linecap:butt;stroke-linejoin:miter;stroke-opacity:1" d="M 4,550.909 27.2727,527.636 z" id="boundary" inkscape:connector-curvature="0" />
	<path style="fill:none;stroke:red;stroke-width:1px;stroke-linecap:butt;stroke-linejoin:miter;stroke-opacity:1" d="M 4,580 27.2727,600.364 z" id="boundary" inkscape:connector-curvature="0" />
	<path style="fill:none;stroke:red;stroke-width:1px;stroke-linecap:butt;stroke-linejoin:miter;stroke-opacity:1" d="M 27.2727,527.636 56.3636,513.091 z" id="boundary" inkscape:connector-curvature="0" />
	<path style="fill:none;stroke:red;stroke-width:1px;stroke-linecap:butt;stroke-linejoin:miter;stroke-opacity:1" d="M 27.2727,600.364 50.5455,617.818 z" id="boundary" inkscape:connector-curvature="0" />
	<path style="fill:none;stroke:red;stroke-width:1px;stroke-linecap:butt;stroke-linejoin:miter;stroke-opacity:1" d="M 50.5455,617.818 79.6364,617.818 z" id="boundary" inkscape:connector-curvature="0" />
	<path style="fill:none;stroke:red;stroke-width:1px;stroke-linecap:butt;stroke-linejoin:miter;stroke-opacity:1" d="M 56.3636,513.091 82.5455,498.545 z" id="boundary" inkscape:connector-curvature="0" />
	<path style="fill:none;stroke:red;stroke-width:1px;stroke-linecap:butt;stroke-linejoin:miter;stroke-opacity:1" d="M 79.6364,617.818 105.818,603.273 z" id="boundary" inkscape:connector-curvature="0" />
	<path style="fill:none;stroke:red;stroke-width:1px;stroke-linecap:butt;stroke-linejoin:miter;stroke-opacity:1" d="M 82.5455,498.545 111.636,486.909 z" id="boundary" inkscape:connector-curvature="0" />
	<path style="fill:none;stroke:red;stroke-width:1px;stroke-linecap:butt;stroke-linejoin:miter;stroke-opacity:1" d="M 105.818,603.273 129.091,585.818 z" id="boundary" inkscape:connector-curvature="0" />
	<path style="fill:none;stroke:red;stroke-width:1px;stroke-linecap:butt;stroke-linejoin:miter;stroke-opacity:1" d="M 111.636,486.909 134.909,469.455 z" id="boundary" inkscape:connector-curvature="0" />
	<path style="fill:none;stroke:red;stroke-width:1px;stroke-linecap:butt;stroke-linejoin:miter;stroke-opacity:1" d="M 129.091,585.818 158.182,571.273 z" id="boundary" inkscape:connector-curvature="0" />
	<path style="fill:none;stroke:red;stroke-width:1px;stroke-linecap:butt;stroke-linejoin:miter;stroke-opacity:1" d="M 134.909,469.455 161.091,454.909 z" id="boundary" inkscape:connector-curvature="0" />
	<path style="fill:none;stroke:red;stroke-width:1px;stroke-linecap:butt;stroke-linejoin:miter;stroke-opacity:1" d="M 158.182,571.273 187.273,559.636 z" id="boundary" inkscape:connector-curvature="0" />
	<path style="fill:none;stroke:red;stroke-width:1px;stroke-linecap:butt;stroke-linejoin:miter;stroke-opacity:1" d="M 161.091,454.909 187.273,440.364 z" id="boundary" inkscape:connector-curvature="0" />
	<path style="fill:none;stroke:red;stroke-width:1px;stroke-linecap:butt;stroke-linejoin:miter;stroke-opacity:1" d="M 187.273,440.364 216.364,440.364 z" id="boundary" inkscape:connector-curvature="0" />
	<path style="fill:none;stroke:red;stroke-width:1px;stroke-linecap:butt;stroke-linejoin:miter;stroke-opacity:1" d="M 187.273,559.636 213.455,545.091 z" id="boundary" inkscape:connector-curvature="0" />
	<path style="fill:none;stroke:red;stroke-width:1px;stroke-linecap:butt;stroke-linejoin:miter;stroke-opacity:1" d="M 213.455,545.091 239.636,530.545 z" id="boundary" inkscape:connector-curvature="0" />
	<path style="fill:none;stroke:red;stroke-width:1px;stroke-linecap:butt;stroke-linejoin:miter;stroke-opacity:1" d="M 216.364,440.364 239.636,417.091 z" id="boundary" inkscape:connector-curvature="0" />
	<path style="fill:none;stroke:red;stroke-width:1px;stroke-linecap:butt;stroke-linejoin:miter;stroke-opacity:1" d="M 239.636,417.091 268.727,402.545 z" id="boundary" inkscape:connector-curvature="0" />
	<path style="fill:none;stroke:red;stroke-width:1px;stroke-linecap:butt;stroke-linejoin:miter;stroke-opacity:1" d="M 239.636,530.545 265.818,516 z" id="boundary" inkscape:connector-curvature="0" />
	<path style="fill:none;stroke:red;stroke-width:1px;stroke-linecap:butt;stroke-linejoin:miter;stroke-opacity:1" d="M 265.818,516 292,501.455 z" id="boundary" inkscape:connector-curvature="0" />
	<path style="fill:none;stroke:red;stroke-width:1px;stroke-linecap:butt;stroke-linejoin:miter;stroke-opacity:1" d="M 268.727,402.545 297.818,388 z" id="boundary" inkscape:connector-curvature="0" />
	<path style="fill:none;stroke:red;stroke-width:1px;stroke-linecap:butt;stroke-linejoin:miter;stroke-opacity:1" d="M 292,501.455 321.091,495.636 z" id="boundary" inkscape:connector-curvature="0" />
	<path style="fill:none;stroke:red;stroke-width:1px;stroke-linecap:butt;stroke-linejoin:miter;stroke-opacity:1" d="M 297.818,388 326.909,373.455 z" id="boundary" inkscape:connector-curvature="0" />
	<path style="fill:none;stroke:red;stroke-width:1px;stroke-linecap:butt;stroke-linejoin:miter;stroke-opacity:1" d="M 321.091,495.636 350.182,481.091 z" id="boundary" inkscape:connector-curvature="0" />
	<path style="fill:none;stroke:red;stroke-width:1px;stroke-linecap:butt;stroke-linejoin:miter;stroke-opacity:1" d="M 326.909,373.455 356,358.909 z" id="boundary" inkscape:connector-curvature="0" />
	<path style="fill:none;stroke:red;stroke-width:1px;stroke-linecap:butt;stroke-linejoin:miter;stroke-opacity:1" d="M 350.182,481.091 370.545,457.818 z" id="boundary" inkscape:connector-curvature="0" />
	<path style="fill:none;stroke:red;stroke-width:1px;stroke-linecap:butt;stroke-linejoin:miter;stroke-opacity:1" d="M 356,358.909 379.273,338.545 z" id="boundary" inkscape:connector-curvature="0" />
	<path style="fill:none;stroke:red;stroke-width:1px;stroke-linecap:butt;stroke-linejoin:miter;stroke-opacity:1" d="M 370.545,457.818 399.636,443.273 z" id="boundary" inkscape:connector-curvature="0" />
	<path style="fill:none;stroke:red;stroke-width:1px;stroke-linecap:butt;stroke-linejoin:miter;stroke-opacity:1" d="M 379.273,338.545 405.455,324 z" id="boundary" inkscape:connector-curvature="0" />
	<path style="fill:none;stroke:red;stroke-width:1px;stroke-linecap:butt;stroke-linejoin:miter;stroke-opacity:1" d="M 399.636,443.273 428.727,428.727 z" id="boundary" inkscape:connector-curvature="0" />
	<path style="fill:none;stroke:red;stroke-width:1px;stroke-linecap:butt;stroke-linejoin:miter;stroke-opacity:1" d="M 405.455,324 434.545,309.455 z" id="boundary" inkscape:connector-curvature="0" />
	<path style="fill:none;stroke:red;stroke-width:1px;stroke-linecap:butt;stroke-linejoin:miter;stroke-opacity:1" d="M 428.727,428.727 457.818,414.182 z" id="boundary" inkscape:connector-curvature="0" />
	<path style="fill:none;stroke:red;stroke-width:1px;stroke-linecap:butt;stroke-linejoin:miter;stroke-opacity:1" d="M 434.545,309.455 463.636,294.909 z" id="boundary" inkscape:connector-curvature="0" />
	<path style="fill:none;stroke:red;stroke-width:1px;stroke-linecap:butt;stroke-linejoin:miter;stroke-opacity:1" d="M 457.818,414.182 486.909,385.091 z" id="boundary" inkscape:connector-curvature="0" />
	<path style="fill:none;stroke:red;stroke-width:1px;stroke-linecap:butt;stroke-linejoin:miter;stroke-opacity:1" d="M 463.636,294.909 486.909,271.636 z" id="boundary" inkscape:connector-curvature="0" />
	<path style="fill:none;stroke:red;stroke-width:1px;stroke-linecap:butt;stroke-linejoin:miter;stroke-opacity:1" d="M 486.909,271.636 516,257.091 z" id="boundary" inkscape:connector-curvature="0" />
	<path style="fill:none;stroke:red;stroke-width:1px;stroke-linecap:butt;stroke-linejoin:miter;stroke-opacity:1" d="M 486.909,385.091 516,385.091 z" id="boundary" inkscape:connector-curvature="0" />
	<path style="fill:none;stroke:red;stroke-width:1px;stroke-linecap:butt;stroke-linejoin:miter;stroke-opacity:1" d="M 516,257.091 545.091,251.273 z" id="boundary" inkscape:connector-curvature="0" />
	<path style="fill:none;stroke:red;stroke-width:1px;stroke-linecap:butt;stroke-linejoin:miter;stroke-opacity:1" d="M 516,385.091 545.091,356 z" id="boundary" inkscape:connector-curvature="0" />
	<path style="fill:none;stroke:red;stroke-width:1px;stroke-linecap:butt;stroke-linejoin:miter;stroke-opacity:1" d="M 545.091,251.273 571.273,230.909 z" id="boundary" inkscape:connector-curvature="0" />
	<path style="fill:none;stroke:red;stroke-width:1px;stroke-linecap:butt;stroke-linejoin:miter;stroke-opacity:1" d="M 545.091,356 574.182,341.455 z" id="boundary" inkscape:connector-curvature="0" />
	<path style="fill:none;stroke:red;stroke-width:1px;stroke-linecap:butt;stroke-linejoin:miter;stroke-opacity:1" d="M 571.273,230.909 600.364,216.364 z" id="boundary" inkscape:connector-curvature="0" />
	<path style="fill:none;stroke:red;stroke-width:1px;stroke-linecap:butt;stroke-linejoin:miter;stroke-opacity:1" d="M 574.182,341.455 603.273,326.909 z" id="boundary" inkscape:connector-curvature="0" />
	<path style="fill:none;stroke:red;stroke-width:1px;stroke-linecap:butt;stroke-linejoin:miter;stroke-opacity:1" d="M 600.364,216.364 623.636,193.091 z" id="boundary" inkscape:connector-curvature="0" />
	<path style="fill:none;stroke:red;stroke-width:1px;stroke-linecap:butt;stroke-linejoin:miter;stroke-opacity:1" d="M 603.273,326.909 629.455,312.364 z" id="boundary" inkscape:connector-curvature="0" />
	<path style="fill:none;stroke:red;stroke-width:1px;stroke-linecap:butt;stroke-linejoin:miter;stroke-opacity:1" d="M 623.636,193.091 652.727,193.091 z" id="boundary" inkscape:connector-curvature="0" />
	<path style="fill:none;stroke:red;stroke-width:1px;stroke-linecap:butt;stroke-linejoin:miter;stroke-opacity:1" d="M 629.455,312.364 658.545,303.636 z" id="boundary" inkscape:connector-curvature="0" />
	<path style="fill:none;stroke:red;stroke-width:1px;stroke-linecap:butt;stroke-linejoin:miter;stroke-opacity:1" d="M 652.727,193.091 676,169.818 z" id="boundary" inkscape:connector-curvature="0" />
	<path style="fill:none;stroke:red;stroke-width:1px;stroke-linecap:butt;stroke-linejoin:miter;stroke-opacity:1" d="M 658.545,303.636 687.636,289.091 z" id="boundary" inkscape:connector-curvature="0" />
	<path style="fill:none;stroke:red;stroke-width:1px;stroke-linecap:butt;stroke-linejoin:miter;stroke-opacity:1" d="M 676,169.818 699.273,149.455 z" id="boundary" inkscape:connector-curvature="0" />
	<path style="fill:none;stroke:red;stroke-width:1px;stroke-linecap:butt;stroke-linejoin:miter;stroke-opacity:1" d="M 687.636,289.091 716.727,274.545 z" id="boundary" inkscape:connector-curvature="0" />
	<path style="fill:none;stroke:red;stroke-width:1px;stroke-linecap:butt;stroke-linejoin:miter;stroke-opacity:1" d="M 699.273,149.455 719.636,126.182 z" id="boundary" inkscape:connector-curvature="0" />
	<path style="fill:none;stroke:red;stroke-width:1px;stroke-linecap:butt;stroke-linejoin:miter;stroke-opacity:1" d="M 716.727,274.545 745.818,268.727 z" id="boundary" inkscape:connector-curvature="0" />
	<path style="fill:none;stroke:red;stroke-width:1px;stroke-linecap:butt;stroke-linejoin:miter;stroke-opacity:1" d="M 719.636,126.182 742.909,105.818 z" id="boundary" inkscape:connector-curvature="0" />
	<path style="fill:none;stroke:red;stroke-width:1px;stroke-linecap:butt;stroke-linejoin:miter;stroke-opacity:1" d="M 742.909,105.818 754.545,76.7273 z" id="boundary" inkscape:connector-curvature="0" />
	<path style="fill:none;stroke:red;stroke-width:1px;stroke-linecap:butt;stroke-linejoin:miter;stroke-opacity:1" d="M 745.818,268.727 774.909,268.727 z" id="boundary" inkscape:connector-curvature="0" />
	<path style="fill:none;stroke:red;stroke-width:1px;stroke-linecap:butt;stroke-linejoin:miter;stroke-opacity:1" d="M 754.545,76.7273 774.909,41.8182 z" id="boundary" inkscape:connector-curvature="0" />
	<path style="fill:none;stroke:red;stroke-width:1px;stroke-linecap:butt;stroke-linejoin:miter;stroke-opacity:1" d="M 774.909,41.8182 798.182,18.5455 z" id="boundary" inkscape:connector-curvature="0" />
	<path style="fill:none;stroke:red;stroke-width:1px;stroke-linecap:butt;stroke-linejoin:miter;stroke-opacity:1" d="M 774.909,268.727 804,268.727 z" id="boundary" inkscape:connector-curvature="0" />
	<path style="fill:none;stroke:red;stroke-width:1px;stroke-linecap:butt;stroke-linejoin:miter;stroke-opacity:1" d="M 798.182,18.5455 827.273,18.5455 z" id="boundary" inkscape:connector-curvature="0" />
	<path style="fill:none;stroke:red;stroke-width:1px;stroke-linecap:butt;stroke-linejoin:miter;stroke-opacity:1" d="M 804,268.727 830.182,283.273 z" id="boundary" inkscape:connector-curvature="0" />
	<path style="fill:none;stroke:red;stroke-width:1px;stroke-linecap:butt;stroke-linejoin:miter;stroke-opacity:1" d="M 827.273,18.5455 853.455,4 z" id="boundary" inkscape:connector-curvature="0" />
	<path style="fill:none;stroke:red;stroke-width:1px;stroke-linecap:butt;stroke-linejoin:miter;stroke-opacity:1" d="M 830.182,283.273 859.273,283.273 z" id="boundary" inkscape:connector-curvature="0" />
	<path style="fill:none;stroke:red;stroke-width:1px;stroke-linecap:butt;stroke-linejoin:miter;stroke-opacity:1" d="M 853.455,4 882.545,4 z" id="boundary" inkscape:connector-curvature="0" />
	<path style="fill:none;stroke:red;stroke-width:1px;stroke-linecap:butt;stroke-linejoin:miter;stroke-opacity:1" d="M 859.273,283.273 885.455,297.818 z" id="boundary" inkscape:connector-curvature="0" />
	<path style="fill:none;stroke:red;stroke-width:1px;stroke-linecap:butt;stroke-linejoin:miter;stroke-opacity:1" d="M 865.091,94.1818 865.091,123.273 z" id="boundary" inkscape:connector-curvature="0" />
	<path style="fill:none;stroke:red;stroke-width:1px;stroke-linecap:butt;stroke-linejoin:miter;stroke-opacity:1" d="M 865.091,94.1818 891.273,79.6364 z" id="boundary" inkscape:connector-curvature="0" />
	<path style="fill:none;stroke:red;stroke-width:1px;stroke-linecap:butt;stroke-linejoin:miter;stroke-opacity:1" d="M 865.091,123.273 888.364,140.727 z" id="boundary" inkscape:connector-curvature="0" />
	<path style="fill:none;stroke:red;stroke-width:1px;stroke-linecap:butt;stroke-linejoin:miter;stroke-opacity:1" d="M 882.545,4 908.727,18.5455 z" id="boundary" inkscape:connector-curvature="0" />
	<path style="fill:none;stroke:red;stroke-width:1px;stroke-linecap:butt;stroke-linejoin:miter;stroke-opacity:1" d="M 885.455,297.818 894.182,268.727 z" id="boundary" inkscape:connector-curvature="0" />
	<path style="fill:none;stroke:red;stroke-width:1px;stroke-linecap:butt;stroke-linejoin:miter;stroke-opacity:1" d="M 888.364,140.727 917.455,152.364 z" id="boundary" inkscape:connector-curvature="0" />
	<path style="fill:none;stroke:red;stroke-width:1px;stroke-linecap:butt;stroke-linejoin:miter;stroke-opacity:1" d="M 891.273,79.6364 920.364,79.6364 z" id="boundary" inkscape:connector-curvature="0" />
	<path style="fill:none;stroke:red;stroke-width:1px;stroke-linecap:butt;stroke-linejoin:miter;stroke-opacity:1" d="M 894.182,268.727 923.273,268.727 z" id="boundary" inkscape:connector-curvature="0" />
	<path style="fill:none;stroke:red;stroke-width:1px;stroke-linecap:butt;stroke-linejoin:miter;stroke-opacity:1" d="M 908.727,18.5455 937.818,18.5455 z" id="boundary" inkscape:connector-curvature="0" />
	<path style="fill:none;stroke:red;stroke-width:1px;stroke-linecap:butt;stroke-linejoin:miter;stroke-opacity:1" d="M 917.455,152.364 946.545,164 z" id="boundary" inkscape:connector-curvature="0" />
	<path style="fill:none;stroke:red;stroke-width:1px;stroke-linecap:butt;stroke-linejoin:miter;stroke-opacity:1" d="M 920.364,79.6364 949.455,70.9091 z" id="boundary" inkscape:connector-curvature="0" />
	<path style="fill:none;stroke:red;stroke-width:1px;stroke-linecap:butt;stroke-linejoin:miter;stroke-opacity:1" d="M 923.273,268.727 949.455,254.182 z" id="boundary" inkscape:connector-curvature="0" />
	<path style="fill:none;stroke:red;stroke-width:1px;stroke-linecap:butt;stroke-linejoin:miter;stroke-opacity:1" d="M 937.818,18.5455 949.455,70.9091 z" id="boundary" inkscape:connector-curvature="0" />
	<path style="fill:none;stroke:red;stroke-width:1px;stroke-linecap:butt;stroke-linejoin:miter;stroke-opacity:1" d="M 946.545,164 972.727,149.455 z" id="boundary" inkscape:connector-curvature="0" />
	<path style="fill:none;stroke:red;stroke-width:1px;stroke-linecap:butt;stroke-linejoin:miter;stroke-opacity:1" d="M 949.455,254.182 966.909,225.091 z" id="boundary" inkscape:connector-curvature="0" />
	<path style="fill:none;stroke:red;stroke-width:1px;stroke-linecap:butt;stroke-linejoin:miter;stroke-opacity:1" d="M 966.909,225.091 981.455,196 z" id="boundary" inkscape:connector-curvature="0" />
	<path style="fill:none;stroke:red;stroke-width:1px;stroke-linecap:butt;stroke-linejoin:miter;stroke-opacity:1" d="M 972.727,149.455 996,166.909 z" id="boundary" inkscape:connector-curvature="0" />
	<path style="fill:none;stroke:red;stroke-width:1px;stroke-linecap:butt;stroke-linejoin:miter;stroke-opacity:1" d="M 981.455,196 996,166.909 z" id="boundary" inkscape:connector-curvature="0" />
	<circle cx="4" cy="550.909" r="4" fill="#0" id="circle0"/>
	<circle cx="4" cy="580" r="4" fill="#0" id="circle1"/>
	<circle cx="27.2727" cy="527.636" r="4" fill="#0" id="circle2"/>
	<circle cx="27.2727" cy="600.364" r="4" fill="#0" id="circle3"/>
	<circle cx="50.5455" cy="617.818" r="4" fill="#0" id="circle4"/>
	<circle cx="56.3636" cy="513.091" r="4" fill="#0" id="circle5"/>
	<circle cx="79.6364" cy="617.818" r="4" fill="#0" id="circle6"/>
	<circle cx="82.5455" cy="498.545" r="4" fill="#0" id="circle7"/>
	<circle cx="105.818" cy="603.273" r="4" fill="#0" id="circle8"/>
	<circle cx="111.636" cy="486.909" r="4" fill="#0" id="circle9"/>
	<circle cx="129.091" cy="585.818" r="4" fill="#0" id="circle10"/>
	<circle cx="134.909" cy="469.455" r="4" fill="#0" id="circle11"/>
	<circle cx="158.182" cy="571.273" r="4" fill="#0" id="circle12"/>
	<circle cx="161.091" cy="454.909" r="4" fill="#0" id="circle13"/>
	<circle cx="187.273" cy="440.364" r="4" fill="#0" id="circle14"/>
	<circle cx="187.273" cy="559.636" r="4" fill="#0" id="circle15"/>
	<circle cx="213.455" cy="545.091" r="4" fill="#0" id="circle16"/>
	<circle cx="216.364" cy="440.364" r="4" fill="#0" id="circle17"/>
	<circle cx="239.636" cy="417.091" r="4" fill="#0" id="circle18"/>
	<circle cx="239.636" cy="530.545" r="4" fill="#0" id="circle19"/>
	<circle cx="265.818" cy="516" r="4" fill="#0" id="circle20"/>
	<circle cx="268.727" cy="402.545" r="4" fill="#0" id="circle21"/>
	<circle cx="292" cy="501.455" r="4" fill="#0" id="circle22"/>
	<circle cx="297.818" cy="388" r="4" fill="#0" id="circle23"/>
	<circle cx="321.091" cy="495.636" r="4" fill="#0" id="circle24"/>
	<circle cx="326.909" cy="373.455" r="4" fill="#0" id="circle25"/>
	<circle cx="350.182" cy="481.091" r="4" fill="#0" id="circle26"/>
	<circle cx="356" cy="358.909" r="4" fill="#0" id="circle27"/>
	<circle cx="370.545" cy="457.818" r="4" fill="#0" id="circle28"/>
	<circle cx="379.273" cy="338.545" r="4" fill="#0" id="circle29"/>
	<circle cx="399.636" cy="443.273" r="4" fill="#0" id="circle30"/>
	<circle cx="405.455" cy="324" r="4" fill="#0" id="circle31"/>
	<circle cx="428.727" cy="428.727" r="4" fill="#0" id="circle32"/>
	<circle cx="434.545" cy="309.455" r="4" fill="#0" id="circle33"/>
	<circle cx="457.818" cy="414.182" r="4" fill="#0" id="circle34"/>
	<circle cx="463.636" cy="294.909" r="4" fill="#0" id="circle35"/>
	<circle cx="486.909" cy="271.636" r="4" fill="#0" id="circle36"/>
	<circle cx="486.909" cy="385.091" r="4" fill="#0" id="circle37"/>
	<circle cx="516" cy="257.091" r="4" fill="#0" id="circle38"/>
	<circle cx="516" cy="385.091" r="4" fill="#0" id="circle39"/>
	<circle cx="545.091" cy="251.273" r="4" fill="#0" id="circle40"/>
	<circle cx="545.091" cy="356" r="4" fill="#0" id="circle41"/>
	<circle cx="571.273" cy="230.909" r="4" fill="#0" id="circle42"/>
	<circle cx="574.182" cy="341.455" r="4" fill="#0" id="circle43"/>
	<circle cx="600.364" cy="216.364" r="4" fill="#0" id="circle44"/>
	<circle cx="603.273" cy="326.909" r="4" fill="#0" id="circle45"/>
	<circle cx="623.636" cy="193.091" r="4" fill="#0" id="circle46"/>
	<circle cx="629.455" cy="312.364" r="4" fill="#0" id="circle47"/>
	<circle cx="652.727" cy="193.091" r="4" fill="#0" id="circle48"/>
	<circle cx="658.545" cy="303.636" r="4" fill="#0" id="circle49"/>
	<circle cx="676" cy="169.818" r="4" fill="#0" id="circle50"/>
	<circle cx="687.636" cy="289.091" r="4" fill="#0" id="circle51"/>
	<circle cx="699.273" cy="149.455" r="4" fill="#0" id="circle52"/>
	<circle cx="716.727" cy="274.545" r="4" fill="#0" id="circle53"/>
	<circle cx="719.636" cy="126.182" r="4" fill="#0" id="circle54"/>
	<circle cx="742.909" cy="105.818" r="4" fill="#0" id="circle55"/>
	<circle cx="745.818" cy="268.727" r="4" fill="#0" id="circle56"/>
	<circle cx="754.545" cy="76.7273" r="4" fill="#0" id="circle57"/>
	<circle cx="774.909" cy="41.8182" r="4" fill="#0" id="circle58"/>
	<circle cx="774.909" cy="268.727" r="4" fill="#0" id="circle59"/>
	<circle cx="798.182" cy="18.5455" r="4" fill="#0" id="circle60"/>
	<circle cx="804" cy="268.727" r="4" fill="#0" id="circle61"/>
	<circle cx="827.273" cy="18.5455" r="4" fill="#0" id="circle62"/>
	<circle cx="830.182" cy="283.273" r="4" fill="#0" id="circle63"/>
	<circle cx="853.455" cy="4" r="4" fill="#0" id="circle64"/>
	<circle cx="859.273" cy="283.273" r="4" fill="#0" id="circle65"/>
	<circle cx="865.091" cy="94.1818" r="4" fill="#0" id="circle66"/>
	<circle cx="865.091" cy="123.273" r="4" fill="#0" id="circle67"/>
	<circle cx="882.545" cy="4" r="4" fill="#0" id="circle68"/>
	<circle cx="885.455" cy="297.818" r="4" fill="#0" id="circle69"/>
	<circle cx="888.364" cy="140.727" r="4" fill="#0" id="circle70"/>
	<circle cx="891.273" cy="79.6364" r="4" fill="#0" id="circle71"/>
	<circle cx="894.182" cy="268.727" r="4" fill="#0" id="circle72"/>
	<circle cx="908.727" cy="18.5455" r="4" fill="#0" id="circle73"/>
	<circle cx="917.455" cy="152.364" r="4" fill="#0" id="circle74"/>
	<circle cx="920.364" cy="79.6364" r="4" fill="#0" id="circle75"/>
	<circle cx="923.273" cy="268.727" r="4" fill="#0" id="circle76"/>
	<circle cx="937.818" cy="18.5455" r="4" fill="#0" id="circle77"/>
	<circle cx="946.545" cy="164" r="4" fill="#0" id="circle78"/>
	<circle cx="949.455" cy="70.9091" r="4" fill="#0" id="circle79"/>
	<circle cx="949.455" cy="254.182" r="4" fill="#0" id="circle80"/>
	<circle cx="966.909" cy="225.091" r="4" fill="#0" id="circle81"/>
	<circle cx="972.727" cy="149.455" r="4" fill="#0" id="circle82"/>
	<circle cx="981.455" cy="196" r="4" fill="#0" id="circle83"/>
	<circle cx="996" cy="166.909" r="4" fill="#0" id="circle84"/>
	</g>
</svg>