<?xml version="1.0" encoding="UTF-8" standalone="no"?>
<!-- Created with CurveBenchmark -->
<svg
	xmlns:dc="http://purl.org/dc/elements/1.1/"
	xmlns:cc="http://creativecommons.org/ns#"
	xmlns:rdf="http://www.w3.org/1999/02/22-rdf-syntax-ns#"
	xmlns:svg="http://www.w3.org/2000/svg"
	xmlns="http://www.w3.org/2000/svg"
	xmlns:sodipodi="http://sodipodi.sourceforge.net/DTD/sodipodi-0.dtd"
	xmlns:inkscape="http://www.inkscape.org/namespaces/inkscape"
	width="1000"
	height="1000"
	id="svg2"
	version="1.1"
	sodipodi:docname="manifold/hnncrust-bird49.png.txt">
<defs
	id="defs4" />
<metadata
	id="metadata7">
	<rdf:RDF>
		<cc:Work
			rdf:about="">
			<dc:format>image/svg+xml</dc:format>
			<dc:type
				rdf:resource="http://purl.org/dc/dcmitype/StillImage" />
			<dc:title></dc:title>
		</cc:Work>
	</rdf:RDF>
</metadata>
<g
	inkscape:label="Layer 1"
	inkscape:groupmode="layer"
	id="layer1">
	<path style="fill:none;stroke:red;stroke-width:1px;stroke-linecap:butt;stroke-linejoin:miter;stroke-opacity:1" d="M 4,121.111 14.3333,134.889 z" id="boundary" inkscape:connector-curvature="0" />
	<path style="fill:none;stroke:red;stroke-width:1px;stroke-linecap:butt;stroke-linejoin:miter;stroke-opacity:1" d="M 4,121.111 17.7778,107.333 z" id="boundary" inkscape:connector-curvature="0" />
	<path style="fill:none;stroke:red;stroke-width:1px;stroke-linecap:butt;stroke-linejoin:miter;stroke-opacity:1" d="M 14.3333,134.889 31.5556,134.889 z" id="boundary" inkscape:connector-curvature="0" />
	<path style="fill:none;stroke:red;stroke-width:1px;stroke-linecap:butt;stroke-linejoin:miter;stroke-opacity:1" d="M 17.7778,107.333 33.2778,98.7222 z" id="boundary" inkscape:connector-curvature="0" />
	<path style="fill:none;stroke:red;stroke-width:1px;stroke-linecap:butt;stroke-linejoin:miter;stroke-opacity:1" d="M 31.5556,134.889 48.7778,126.278 z" id="boundary" inkscape:connector-curvature="0" />
	<path style="fill:none;stroke:red;stroke-width:1px;stroke-linecap:butt;stroke-linejoin:miter;stroke-opacity:1" d="M 33.2778,98.7222 50.5,91.8333 z" id="boundary" inkscape:connector-curvature="0" />
	<path style="fill:none;stroke:red;stroke-width:1px;stroke-linecap:butt;stroke-linejoin:miter;stroke-opacity:1" d="M 48.7778,126.278 66,126.278 z" id="boundary" inkscape:connector-curvature="0" />
	<path style="fill:none;stroke:red;stroke-width:1px;stroke-linecap:butt;stroke-linejoin:miter;stroke-opacity:1" d="M 50.5,91.8333 67.7222,83.2222 z" id="boundary" inkscape:connector-curvature="0" />
	<path style="fill:none;stroke:red;stroke-width:1px;stroke-linecap:butt;stroke-linejoin:miter;stroke-opacity:1" d="M 66,126.278 83.2222,126.278 z" id="boundary" inkscape:connector-curvature="0" />
	<path style="fill:none;stroke:red;stroke-width:1px;stroke-linecap:butt;stroke-linejoin:miter;stroke-opacity:1" d="M 67.7222,83.2222 76.3333,66 z" id="boundary" inkscape:connector-curvature="0" />
	<path style="fill:none;stroke:red;stroke-width:1px;stroke-linecap:butt;stroke-linejoin:miter;stroke-opacity:1" d="M 76.3333,66 81.5,43.6111 z" id="boundary" inkscape:connector-curvature="0" />
	<path style="fill:none;stroke:red;stroke-width:1px;stroke-linecap:butt;stroke-linejoin:miter;stroke-opacity:1" d="M 81.5,43.6111 95.2778,29.8333 z" id="boundary" inkscape:connector-curvature="0" />
	<path style="fill:none;stroke:red;stroke-width:1px;stroke-linecap:butt;stroke-linejoin:miter;stroke-opacity:1" d="M 83.2222,126.278 100.444,129.722 z" id="boundary" inkscape:connector-curvature="0" />
	<path style="fill:none;stroke:red;stroke-width:1px;stroke-linecap:butt;stroke-linejoin:miter;stroke-opacity:1" d="M 95.2778,29.8333 109.056,16.0556 z" id="boundary" inkscape:connector-curvature="0" />
	<path style="fill:none;stroke:red;stroke-width:1px;stroke-linecap:butt;stroke-linejoin:miter;stroke-opacity:1" d="M 100.444,129.722 112.5,143.5 z" id="boundary" inkscape:connector-curvature="0" />
	<path style="fill:none;stroke:red;stroke-width:1px;stroke-linecap:butt;stroke-linejoin:miter;stroke-opacity:1" d="M 107.333,198.611 107.333,215.833 z" id="boundary" inkscape:connector-curvature="0" />
	<path style="fill:none;stroke:red;stroke-width:1px;stroke-linecap:butt;stroke-linejoin:miter;stroke-opacity:1" d="M 107.333,198.611 115.944,177.944 z" id="boundary" inkscape:connector-curvature="0" />
	<path style="fill:none;stroke:red;stroke-width:1px;stroke-linecap:butt;stroke-linejoin:miter;stroke-opacity:1" d="M 107.333,215.833 107.333,233.056 z" id="boundary" inkscape:connector-curvature="0" />
	<path style="fill:none;stroke:red;stroke-width:1px;stroke-linecap:butt;stroke-linejoin:miter;stroke-opacity:1" d="M 107.333,233.056 107.333,250.278 z" id="boundary" inkscape:connector-curvature="0" />
	<path style="fill:none;stroke:red;stroke-width:1px;stroke-linecap:butt;stroke-linejoin:miter;stroke-opacity:1" d="M 107.333,250.278 115.944,265.778 z" id="boundary" inkscape:connector-curvature="0" />
	<path style="fill:none;stroke:red;stroke-width:1px;stroke-linecap:butt;stroke-linejoin:miter;stroke-opacity:1" d="M 109.056,16.0556 126.278,7.44444 z" id="boundary" inkscape:connector-curvature="0" />
	<path style="fill:none;stroke:red;stroke-width:1px;stroke-linecap:butt;stroke-linejoin:miter;stroke-opacity:1" d="M 112.5,143.5 115.944,160.722 z" id="boundary" inkscape:connector-curvature="0" />
	<path style="fill:none;stroke:red;stroke-width:1px;stroke-linecap:butt;stroke-linejoin:miter;stroke-opacity:1" d="M 115.944,160.722 115.944,177.944 z" id="boundary" inkscape:connector-curvature="0" />
	<path style="fill:none;stroke:red;stroke-width:1px;stroke-linecap:butt;stroke-linejoin:miter;stroke-opacity:1" d="M 115.944,265.778 115.944,283 z" id="boundary" inkscape:connector-curvature="0" />
	<path style="fill:none;stroke:red;stroke-width:1px;stroke-linecap:butt;stroke-linejoin:miter;stroke-opacity:1" d="M 115.944,283 124.556,298.5 z" id="boundary" inkscape:connector-curvature="0" />
	<path style="fill:none;stroke:red;stroke-width:1px;stroke-linecap:butt;stroke-linejoin:miter;stroke-opacity:1" d="M 124.556,298.5 129.722,315.722 z" id="boundary" inkscape:connector-curvature="0" />
	<path style="fill:none;stroke:red;stroke-width:1px;stroke-linecap:butt;stroke-linejoin:miter;stroke-opacity:1" d="M 126.278,7.44444 143.5,4 z" id="boundary" inkscape:connector-curvature="0" />
	<path style="fill:none;stroke:red;stroke-width:1px;stroke-linecap:butt;stroke-linejoin:miter;stroke-opacity:1" d="M 129.722,315.722 133.167,332.944 z" id="boundary" inkscape:connector-curvature="0" />
	<path style="fill:none;stroke:red;stroke-width:1px;stroke-linecap:butt;stroke-linejoin:miter;stroke-opacity:1" d="M 133.167,332.944 143.5,346.722 z" id="boundary" inkscape:connector-curvature="0" />
	<path style="fill:none;stroke:red;stroke-width:1px;stroke-linecap:butt;stroke-linejoin:miter;stroke-opacity:1" d="M 143.5,4 160.722,4 z" id="boundary" inkscape:connector-curvature="0" />
	<path style="fill:none;stroke:red;stroke-width:1px;stroke-linecap:butt;stroke-linejoin:miter;stroke-opacity:1" d="M 143.5,346.722 152.111,362.222 z" id="boundary" inkscape:connector-curvature="0" />
	<path style="fill:none;stroke:red;stroke-width:1px;stroke-linecap:butt;stroke-linejoin:miter;stroke-opacity:1" d="M 152.111,362.222 164.167,376 z" id="boundary" inkscape:connector-curvature="0" />
	<path style="fill:none;stroke:red;stroke-width:1px;stroke-linecap:butt;stroke-linejoin:miter;stroke-opacity:1" d="M 160.722,4 177.944,4 z" id="boundary" inkscape:connector-curvature="0" />
	<path style="fill:none;stroke:red;stroke-width:1px;stroke-linecap:butt;stroke-linejoin:miter;stroke-opacity:1" d="M 164.167,376 177.944,388.056 z" id="boundary" inkscape:connector-curvature="0" />
	<path style="fill:none;stroke:red;stroke-width:1px;stroke-linecap:butt;stroke-linejoin:miter;stroke-opacity:1" d="M 177.944,4 195.167,4 z" id="boundary" inkscape:connector-curvature="0" />
	<path style="fill:none;stroke:red;stroke-width:1px;stroke-linecap:butt;stroke-linejoin:miter;stroke-opacity:1" d="M 177.944,388.056 190,401.833 z" id="boundary" inkscape:connector-curvature="0" />
	<path style="fill:none;stroke:red;stroke-width:1px;stroke-linecap:butt;stroke-linejoin:miter;stroke-opacity:1" d="M 190,401.833 203.778,413.889 z" id="boundary" inkscape:connector-curvature="0" />
	<path style="fill:none;stroke:red;stroke-width:1px;stroke-linecap:butt;stroke-linejoin:miter;stroke-opacity:1" d="M 195.167,4 212.389,9.16667 z" id="boundary" inkscape:connector-curvature="0" />
	<path style="fill:none;stroke:red;stroke-width:1px;stroke-linecap:butt;stroke-linejoin:miter;stroke-opacity:1" d="M 203.778,413.889 215.833,427.667 z" id="boundary" inkscape:connector-curvature="0" />
	<path style="fill:none;stroke:red;stroke-width:1px;stroke-linecap:butt;stroke-linejoin:miter;stroke-opacity:1" d="M 212.389,9.16667 229.611,12.6111 z" id="boundary" inkscape:connector-curvature="0" />
	<path style="fill:none;stroke:red;stroke-width:1px;stroke-linecap:butt;stroke-linejoin:miter;stroke-opacity:1" d="M 215.833,427.667 229.611,439.722 z" id="boundary" inkscape:connector-curvature="0" />
	<path style="fill:none;stroke:red;stroke-width:1px;stroke-linecap:butt;stroke-linejoin:miter;stroke-opacity:1" d="M 229.611,12.6111 245.111,21.2222 z" id="boundary" inkscape:connector-curvature="0" />
	<path style="fill:none;stroke:red;stroke-width:1px;stroke-linecap:butt;stroke-linejoin:miter;stroke-opacity:1" d="M 229.611,439.722 245.111,448.333 z" id="boundary" inkscape:connector-curvature="0" />
	<path style="fill:none;stroke:red;stroke-width:1px;stroke-linecap:butt;stroke-linejoin:miter;stroke-opacity:1" d="M 245.111,21.2222 262.333,24.6667 z" id="boundary" inkscape:connector-curvature="0" />
	<path style="fill:none;stroke:red;stroke-width:1px;stroke-linecap:butt;stroke-linejoin:miter;stroke-opacity:1" d="M 245.111,448.333 258.889,460.389 z" id="boundary" inkscape:connector-curvature="0" />
	<path style="fill:none;stroke:red;stroke-width:1px;stroke-linecap:butt;stroke-linejoin:miter;stroke-opacity:1" d="M 258.889,460.389 274.389,469 z" id="boundary" inkscape:connector-curvature="0" />
	<path style="fill:none;stroke:red;stroke-width:1px;stroke-linecap:butt;stroke-linejoin:miter;stroke-opacity:1" d="M 262.333,24.6667 272.667,38.4444 z" id="boundary" inkscape:connector-curvature="0" />
	<path style="fill:none;stroke:red;stroke-width:1px;stroke-linecap:butt;stroke-linejoin:miter;stroke-opacity:1" d="M 272.667,38.4444 289.889,43.6111 z" id="boundary" inkscape:connector-curvature="0" />
	<path style="fill:none;stroke:red;stroke-width:1px;stroke-linecap:butt;stroke-linejoin:miter;stroke-opacity:1" d="M 274.389,469 288.167,479.333 z" id="boundary" inkscape:connector-curvature="0" />
	<path style="fill:none;stroke:red;stroke-width:1px;stroke-linecap:butt;stroke-linejoin:miter;stroke-opacity:1" d="M 288.167,479.333 303.667,487.944 z" id="boundary" inkscape:connector-curvature="0" />
	<path style="fill:none;stroke:red;stroke-width:1px;stroke-linecap:butt;stroke-linejoin:miter;stroke-opacity:1" d="M 289.889,43.6111 301.944,57.3889 z" id="boundary" inkscape:connector-curvature="0" />
	<path style="fill:none;stroke:red;stroke-width:1px;stroke-linecap:butt;stroke-linejoin:miter;stroke-opacity:1" d="M 301.944,57.3889 310.556,72.8889 z" id="boundary" inkscape:connector-curvature="0" />
	<path style="fill:none;stroke:red;stroke-width:1px;stroke-linecap:butt;stroke-linejoin:miter;stroke-opacity:1" d="M 303.667,487.944 315.722,501.722 z" id="boundary" inkscape:connector-curvature="0" />
	<path style="fill:none;stroke:red;stroke-width:1px;stroke-linecap:butt;stroke-linejoin:miter;stroke-opacity:1" d="M 310.556,72.8889 315.722,90.1111 z" id="boundary" inkscape:connector-curvature="0" />
	<path style="fill:none;stroke:red;stroke-width:1px;stroke-linecap:butt;stroke-linejoin:miter;stroke-opacity:1" d="M 314,887.5 324.333,901.278 z" id="boundary" inkscape:connector-curvature="0" />
	<path style="fill:none;stroke:red;stroke-width:1px;stroke-linecap:butt;stroke-linejoin:miter;stroke-opacity:1" d="M 314,887.5 331.222,882.333 z" id="boundary" inkscape:connector-curvature="0" />
	<path style="fill:none;stroke:red;stroke-width:1px;stroke-linecap:butt;stroke-linejoin:miter;stroke-opacity:1" d="M 315.722,90.1111 324.333,105.611 z" id="boundary" inkscape:connector-curvature="0" />
	<path style="fill:none;stroke:red;stroke-width:1px;stroke-linecap:butt;stroke-linejoin:miter;stroke-opacity:1" d="M 315.722,501.722 332.944,505.167 z" id="boundary" inkscape:connector-curvature="0" />
	<path style="fill:none;stroke:red;stroke-width:1px;stroke-linecap:butt;stroke-linejoin:miter;stroke-opacity:1" d="M 324.333,105.611 338.111,117.667 z" id="boundary" inkscape:connector-curvature="0" />
	<path style="fill:none;stroke:red;stroke-width:1px;stroke-linecap:butt;stroke-linejoin:miter;stroke-opacity:1" d="M 324.333,901.278 341.556,901.278 z" id="boundary" inkscape:connector-curvature="0" />
	<path style="fill:none;stroke:red;stroke-width:1px;stroke-linecap:butt;stroke-linejoin:miter;stroke-opacity:1" d="M 331.222,882.333 346.722,873.722 z" id="boundary" inkscape:connector-curvature="0" />
	<path style="fill:none;stroke:red;stroke-width:1px;stroke-linecap:butt;stroke-linejoin:miter;stroke-opacity:1" d="M 332.944,505.167 348.444,513.778 z" id="boundary" inkscape:connector-curvature="0" />
	<path style="fill:none;stroke:red;stroke-width:1px;stroke-linecap:butt;stroke-linejoin:miter;stroke-opacity:1" d="M 338.111,117.667 346.722,133.167 z" id="boundary" inkscape:connector-curvature="0" />
	<path style="fill:none;stroke:red;stroke-width:1px;stroke-linecap:butt;stroke-linejoin:miter;stroke-opacity:1" d="M 341.556,901.278 357.056,892.667 z" id="boundary" inkscape:connector-curvature="0" />
	<path style="fill:none;stroke:red;stroke-width:1px;stroke-linecap:butt;stroke-linejoin:miter;stroke-opacity:1" d="M 346.722,133.167 363.944,133.167 z" id="boundary" inkscape:connector-curvature="0" />
	<path style="fill:none;stroke:red;stroke-width:1px;stroke-linecap:butt;stroke-linejoin:miter;stroke-opacity:1" d="M 346.722,873.722 363.944,873.722 z" id="boundary" inkscape:connector-curvature="0" />
	<path style="fill:none;stroke:red;stroke-width:1px;stroke-linecap:butt;stroke-linejoin:miter;stroke-opacity:1" d="M 348.444,513.778 363.944,522.389 z" id="boundary" inkscape:connector-curvature="0" />
	<path style="fill:none;stroke:red;stroke-width:1px;stroke-linecap:butt;stroke-linejoin:miter;stroke-opacity:1" d="M 363.944,133.167 381.167,133.167 z" id="boundary" inkscape:connector-curvature="0" />
	<path style="fill:none;stroke:red;stroke-width:1px;stroke-linecap:butt;stroke-linejoin:miter;stroke-opacity:1" d="M 363.944,522.389 379.444,531 z" id="boundary" inkscape:connector-curvature="0" />
	<path style="fill:none;stroke:red;stroke-width:1px;stroke-linecap:butt;stroke-linejoin:miter;stroke-opacity:1" d="M 363.944,873.722 377.722,884.056 z" id="boundary" inkscape:connector-curvature="0" />
	<path style="fill:none;stroke:red;stroke-width:1px;stroke-linecap:butt;stroke-linejoin:miter;stroke-opacity:1" d="M 376,859.944 391.5,844.444 z" id="boundary" inkscape:connector-curvature="0" />
	<path style="fill:none;stroke:red;stroke-width:1px;stroke-linecap:butt;stroke-linejoin:miter;stroke-opacity:1" d="M 377.722,884.056 393.222,875.444 z" id="boundary" inkscape:connector-curvature="0" />
	<path style="fill:none;stroke:red;stroke-width:1px;stroke-linecap:butt;stroke-linejoin:miter;stroke-opacity:1" d="M 379.444,531 394.944,539.611 z" id="boundary" inkscape:connector-curvature="0" />
	<path style="fill:none;stroke:red;stroke-width:1px;stroke-linecap:butt;stroke-linejoin:miter;stroke-opacity:1" d="M 381.167,133.167 396.667,141.778 z" id="boundary" inkscape:connector-curvature="0" />
	<path style="fill:none;stroke:red;stroke-width:1px;stroke-linecap:butt;stroke-linejoin:miter;stroke-opacity:1" d="M 391.5,844.444 405.278,830.667 z" id="boundary" inkscape:connector-curvature="0" />
	<path style="fill:none;stroke:red;stroke-width:1px;stroke-linecap:butt;stroke-linejoin:miter;stroke-opacity:1" d="M 393.222,875.444 410.444,875.444 z" id="boundary" inkscape:connector-curvature="0" />
	<path style="fill:none;stroke:red;stroke-width:1px;stroke-linecap:butt;stroke-linejoin:miter;stroke-opacity:1" d="M 394.944,539.611 408.722,549.944 z" id="boundary" inkscape:connector-curvature="0" />
	<path style="fill:none;stroke:red;stroke-width:1px;stroke-linecap:butt;stroke-linejoin:miter;stroke-opacity:1" d="M 396.667,141.778 413.889,141.778 z" id="boundary" inkscape:connector-curvature="0" />
	<path style="fill:none;stroke:red;stroke-width:1px;stroke-linecap:butt;stroke-linejoin:miter;stroke-opacity:1" d="M 405.278,830.667 427.667,841 z" id="boundary" inkscape:connector-curvature="0" />
	<path style="fill:none;stroke:red;stroke-width:1px;stroke-linecap:butt;stroke-linejoin:miter;stroke-opacity:1" d="M 408.722,549.944 417.333,565.444 z" id="boundary" inkscape:connector-curvature="0" />
	<path style="fill:none;stroke:red;stroke-width:1px;stroke-linecap:butt;stroke-linejoin:miter;stroke-opacity:1" d="M 408.722,801.389 417.333,784.167 z" id="boundary" inkscape:connector-curvature="0" />
	<path style="fill:none;stroke:red;stroke-width:1px;stroke-linecap:butt;stroke-linejoin:miter;stroke-opacity:1" d="M 410.444,875.444 424.222,863.389 z" id="boundary" inkscape:connector-curvature="0" />
	<path style="fill:none;stroke:red;stroke-width:1px;stroke-linecap:butt;stroke-linejoin:miter;stroke-opacity:1" d="M 413.889,141.778 429.389,150.389 z" id="boundary" inkscape:connector-curvature="0" />
	<path style="fill:none;stroke:red;stroke-width:1px;stroke-linecap:butt;stroke-linejoin:miter;stroke-opacity:1" d="M 417.333,565.444 432.833,556.833 z" id="boundary" inkscape:connector-curvature="0" />
	<path style="fill:none;stroke:red;stroke-width:1px;stroke-linecap:butt;stroke-linejoin:miter;stroke-opacity:1" d="M 417.333,784.167 425.944,766.944 z" id="boundary" inkscape:connector-curvature="0" />
	<path style="fill:none;stroke:red;stroke-width:1px;stroke-linecap:butt;stroke-linejoin:miter;stroke-opacity:1" d="M 422.5,582.667 431.111,598.167 z" id="boundary" inkscape:connector-curvature="0" />
	<path style="fill:none;stroke:red;stroke-width:1px;stroke-linecap:butt;stroke-linejoin:miter;stroke-opacity:1" d="M 424.222,863.389 427.667,841 z" id="boundary" inkscape:connector-curvature="0" />
	<path style="fill:none;stroke:red;stroke-width:1px;stroke-linecap:butt;stroke-linejoin:miter;stroke-opacity:1" d="M 425.944,749.722 425.944,766.944 z" id="boundary" inkscape:connector-curvature="0" />
	<path style="fill:none;stroke:red;stroke-width:1px;stroke-linecap:butt;stroke-linejoin:miter;stroke-opacity:1" d="M 427.667,539.611 432.833,556.833 z" id="boundary" inkscape:connector-curvature="0" />
	<path style="fill:none;stroke:red;stroke-width:1px;stroke-linecap:butt;stroke-linejoin:miter;stroke-opacity:1" d="M 427.667,539.611 443.167,531 z" id="boundary" inkscape:connector-curvature="0" />
	<path style="fill:none;stroke:red;stroke-width:1px;stroke-linecap:butt;stroke-linejoin:miter;stroke-opacity:1" d="M 429.389,150.389 446.611,150.389 z" id="boundary" inkscape:connector-curvature="0" />
	<path style="fill:none;stroke:red;stroke-width:1px;stroke-linecap:butt;stroke-linejoin:miter;stroke-opacity:1" d="M 431.111,598.167 438,615.389 z" id="boundary" inkscape:connector-curvature="0" />
	<path style="fill:none;stroke:red;stroke-width:1px;stroke-linecap:butt;stroke-linejoin:miter;stroke-opacity:1" d="M 434.556,723.889 453.5,737.667 z" id="boundary" inkscape:connector-curvature="0" />
	<path style="fill:none;stroke:red;stroke-width:1px;stroke-linecap:butt;stroke-linejoin:miter;stroke-opacity:1" d="M 436.278,797.944 436.278,815.167 z" id="boundary" inkscape:connector-curvature="0" />
	<path style="fill:none;stroke:red;stroke-width:1px;stroke-linecap:butt;stroke-linejoin:miter;stroke-opacity:1" d="M 436.278,797.944 444.889,780.722 z" id="boundary" inkscape:connector-curvature="0" />
	<path style="fill:none;stroke:red;stroke-width:1px;stroke-linecap:butt;stroke-linejoin:miter;stroke-opacity:1" d="M 438,615.389 443.167,632.611 z" id="boundary" inkscape:connector-curvature="0" />
	<path style="fill:none;stroke:red;stroke-width:1px;stroke-linecap:butt;stroke-linejoin:miter;stroke-opacity:1" d="M 439.722,574.056 453.5,586.111 z" id="boundary" inkscape:connector-curvature="0" />
	<path style="fill:none;stroke:red;stroke-width:1px;stroke-linecap:butt;stroke-linejoin:miter;stroke-opacity:1" d="M 443.167,531 460.389,531 z" id="boundary" inkscape:connector-curvature="0" />
	<path style="fill:none;stroke:red;stroke-width:1px;stroke-linecap:butt;stroke-linejoin:miter;stroke-opacity:1" d="M 443.167,632.611 443.167,649.833 z" id="boundary" inkscape:connector-curvature="0" />
	<path style="fill:none;stroke:red;stroke-width:1px;stroke-linecap:butt;stroke-linejoin:miter;stroke-opacity:1" d="M 443.167,649.833 443.167,667.056 z" id="boundary" inkscape:connector-curvature="0" />
	<path style="fill:none;stroke:red;stroke-width:1px;stroke-linecap:butt;stroke-linejoin:miter;stroke-opacity:1" d="M 443.167,667.056 443.167,684.278 z" id="boundary" inkscape:connector-curvature="0" />
	<path style="fill:none;stroke:red;stroke-width:1px;stroke-linecap:butt;stroke-linejoin:miter;stroke-opacity:1" d="M 443.167,684.278 443.167,701.5 z" id="boundary" inkscape:connector-curvature="0" />
	<path style="fill:none;stroke:red;stroke-width:1px;stroke-linecap:butt;stroke-linejoin:miter;stroke-opacity:1" d="M 443.167,701.5 462.111,711.833 z" id="boundary" inkscape:connector-curvature="0" />
	<path style="fill:none;stroke:red;stroke-width:1px;stroke-linecap:butt;stroke-linejoin:miter;stroke-opacity:1" d="M 444.889,763.5 444.889,780.722 z" id="boundary" inkscape:connector-curvature="0" />
	<path style="fill:none;stroke:red;stroke-width:1px;stroke-linecap:butt;stroke-linejoin:miter;stroke-opacity:1" d="M 446.611,150.389 463.833,150.389 z" id="boundary" inkscape:connector-curvature="0" />
	<path style="fill:none;stroke:red;stroke-width:1px;stroke-linecap:butt;stroke-linejoin:miter;stroke-opacity:1" d="M 453.5,586.111 460.389,603.333 z" id="boundary" inkscape:connector-curvature="0" />
	<path style="fill:none;stroke:red;stroke-width:1px;stroke-linecap:butt;stroke-linejoin:miter;stroke-opacity:1" d="M 460.389,531 477.611,531 z" id="boundary" inkscape:connector-curvature="0" />
	<path style="fill:none;stroke:red;stroke-width:1px;stroke-linecap:butt;stroke-linejoin:miter;stroke-opacity:1" d="M 460.389,603.333 469,618.833 z" id="boundary" inkscape:connector-curvature="0" />
	<path style="fill:none;stroke:red;stroke-width:1px;stroke-linecap:butt;stroke-linejoin:miter;stroke-opacity:1" d="M 462.111,711.833 470.722,694.611 z" id="boundary" inkscape:connector-curvature="0" />
	<path style="fill:none;stroke:red;stroke-width:1px;stroke-linecap:butt;stroke-linejoin:miter;stroke-opacity:1" d="M 463.833,150.389 479.333,159 z" id="boundary" inkscape:connector-curvature="0" />
	<path style="fill:none;stroke:red;stroke-width:1px;stroke-linecap:butt;stroke-linejoin:miter;stroke-opacity:1" d="M 469,618.833 470.722,636.056 z" id="boundary" inkscape:connector-curvature="0" />
	<path style="fill:none;stroke:red;stroke-width:1px;stroke-linecap:butt;stroke-linejoin:miter;stroke-opacity:1" d="M 470.722,636.056 479.333,651.556 z" id="boundary" inkscape:connector-curvature="0" />
	<path style="fill:none;stroke:red;stroke-width:1px;stroke-linecap:butt;stroke-linejoin:miter;stroke-opacity:1" d="M 470.722,677.389 470.722,694.611 z" id="boundary" inkscape:connector-curvature="0" />
	<path style="fill:none;stroke:red;stroke-width:1px;stroke-linecap:butt;stroke-linejoin:miter;stroke-opacity:1" d="M 470.722,677.389 479.333,651.556 z" id="boundary" inkscape:connector-curvature="0" />
	<path style="fill:none;stroke:red;stroke-width:1px;stroke-linecap:butt;stroke-linejoin:miter;stroke-opacity:1" d="M 477.611,531 494.833,531 z" id="boundary" inkscape:connector-curvature="0" />
	<path style="fill:none;stroke:red;stroke-width:1px;stroke-linecap:butt;stroke-linejoin:miter;stroke-opacity:1" d="M 477.611,878.889 494.833,870.278 z" id="boundary" inkscape:connector-curvature="0" />
	<path style="fill:none;stroke:red;stroke-width:1px;stroke-linecap:butt;stroke-linejoin:miter;stroke-opacity:1" d="M 479.333,159 496.556,159 z" id="boundary" inkscape:connector-curvature="0" />
	<path style="fill:none;stroke:red;stroke-width:1px;stroke-linecap:butt;stroke-linejoin:miter;stroke-opacity:1" d="M 494.833,531 512.056,531 z" id="boundary" inkscape:connector-curvature="0" />
	<path style="fill:none;stroke:red;stroke-width:1px;stroke-linecap:butt;stroke-linejoin:miter;stroke-opacity:1" d="M 494.833,870.278 505.167,884.056 z" id="boundary" inkscape:connector-curvature="0" />
	<path style="fill:none;stroke:red;stroke-width:1px;stroke-linecap:butt;stroke-linejoin:miter;stroke-opacity:1" d="M 496.556,159 513.778,159 z" id="boundary" inkscape:connector-curvature="0" />
	<path style="fill:none;stroke:red;stroke-width:1px;stroke-linecap:butt;stroke-linejoin:miter;stroke-opacity:1" d="M 505.167,884.056 522.389,884.056 z" id="boundary" inkscape:connector-curvature="0" />
	<path style="fill:none;stroke:red;stroke-width:1px;stroke-linecap:butt;stroke-linejoin:miter;stroke-opacity:1" d="M 512.056,531 529.278,531 z" id="boundary" inkscape:connector-curvature="0" />
	<path style="fill:none;stroke:red;stroke-width:1px;stroke-linecap:butt;stroke-linejoin:miter;stroke-opacity:1" d="M 512.056,861.667 529.278,856.5 z" id="boundary" inkscape:connector-curvature="0" />
	<path style="fill:none;stroke:red;stroke-width:1px;stroke-linecap:butt;stroke-linejoin:miter;stroke-opacity:1" d="M 513.778,159 531,164.167 z" id="boundary" inkscape:connector-curvature="0" />
	<path style="fill:none;stroke:red;stroke-width:1px;stroke-linecap:butt;stroke-linejoin:miter;stroke-opacity:1" d="M 522.389,884.056 537.889,875.444 z" id="boundary" inkscape:connector-curvature="0" />
	<path style="fill:none;stroke:red;stroke-width:1px;stroke-linecap:butt;stroke-linejoin:miter;stroke-opacity:1" d="M 529.278,531 546.5,531 z" id="boundary" inkscape:connector-curvature="0" />
	<path style="fill:none;stroke:red;stroke-width:1px;stroke-linecap:butt;stroke-linejoin:miter;stroke-opacity:1" d="M 529.278,856.5 544.778,847.889 z" id="boundary" inkscape:connector-curvature="0" />
	<path style="fill:none;stroke:red;stroke-width:1px;stroke-linecap:butt;stroke-linejoin:miter;stroke-opacity:1" d="M 531,164.167 546.5,172.778 z" id="boundary" inkscape:connector-curvature="0" />
	<path style="fill:none;stroke:red;stroke-width:1px;stroke-linecap:butt;stroke-linejoin:miter;stroke-opacity:1" d="M 537.889,875.444 555.111,870.278 z" id="boundary" inkscape:connector-curvature="0" />
	<path style="fill:none;stroke:red;stroke-width:1px;stroke-linecap:butt;stroke-linejoin:miter;stroke-opacity:1" d="M 544.778,847.889 562,847.889 z" id="boundary" inkscape:connector-curvature="0" />
	<path style="fill:none;stroke:red;stroke-width:1px;stroke-linecap:butt;stroke-linejoin:miter;stroke-opacity:1" d="M 546.5,172.778 563.722,176.222 z" id="boundary" inkscape:connector-curvature="0" />
	<path style="fill:none;stroke:red;stroke-width:1px;stroke-linecap:butt;stroke-linejoin:miter;stroke-opacity:1" d="M 546.5,531 562,539.611 z" id="boundary" inkscape:connector-curvature="0" />
	<path style="fill:none;stroke:red;stroke-width:1px;stroke-linecap:butt;stroke-linejoin:miter;stroke-opacity:1" d="M 555.111,870.278 572.333,866.833 z" id="boundary" inkscape:connector-curvature="0" />
	<path style="fill:none;stroke:red;stroke-width:1px;stroke-linecap:butt;stroke-linejoin:miter;stroke-opacity:1" d="M 562,539.611 563.722,556.833 z" id="boundary" inkscape:connector-curvature="0" />
	<path style="fill:none;stroke:red;stroke-width:1px;stroke-linecap:butt;stroke-linejoin:miter;stroke-opacity:1" d="M 563.722,176.222 580.944,179.667 z" id="boundary" inkscape:connector-curvature="0" />
	<path style="fill:none;stroke:red;stroke-width:1px;stroke-linecap:butt;stroke-linejoin:miter;stroke-opacity:1" d="M 563.722,556.833 563.722,574.056 z" id="boundary" inkscape:connector-curvature="0" />
	<path style="fill:none;stroke:red;stroke-width:1px;stroke-linecap:butt;stroke-linejoin:miter;stroke-opacity:1" d="M 563.722,574.056 568.889,591.278 z" id="boundary" inkscape:connector-curvature="0" />
	<path style="fill:none;stroke:red;stroke-width:1px;stroke-linecap:butt;stroke-linejoin:miter;stroke-opacity:1" d="M 568.889,591.278 572.333,608.5 z" id="boundary" inkscape:connector-curvature="0" />
	<path style="fill:none;stroke:red;stroke-width:1px;stroke-linecap:butt;stroke-linejoin:miter;stroke-opacity:1" d="M 572.333,608.5 572.333,625.722 z" id="boundary" inkscape:connector-curvature="0" />
	<path style="fill:none;stroke:red;stroke-width:1px;stroke-linecap:butt;stroke-linejoin:miter;stroke-opacity:1" d="M 572.333,625.722 572.333,642.944 z" id="boundary" inkscape:connector-curvature="0" />
	<path style="fill:none;stroke:red;stroke-width:1px;stroke-linecap:butt;stroke-linejoin:miter;stroke-opacity:1" d="M 572.333,642.944 572.333,660.167 z" id="boundary" inkscape:connector-curvature="0" />
	<path style="fill:none;stroke:red;stroke-width:1px;stroke-linecap:butt;stroke-linejoin:miter;stroke-opacity:1" d="M 572.333,660.167 577.5,677.389 z" id="boundary" inkscape:connector-curvature="0" />
	<path style="fill:none;stroke:red;stroke-width:1px;stroke-linecap:butt;stroke-linejoin:miter;stroke-opacity:1" d="M 572.333,758.333 572.333,775.556 z" id="boundary" inkscape:connector-curvature="0" />
	<path style="fill:none;stroke:red;stroke-width:1px;stroke-linecap:butt;stroke-linejoin:miter;stroke-opacity:1" d="M 572.333,758.333 580.944,741.111 z" id="boundary" inkscape:connector-curvature="0" />
	<path style="fill:none;stroke:red;stroke-width:1px;stroke-linecap:butt;stroke-linejoin:miter;stroke-opacity:1" d="M 572.333,775.556 572.333,792.778 z" id="boundary" inkscape:connector-curvature="0" />
	<path style="fill:none;stroke:red;stroke-width:1px;stroke-linecap:butt;stroke-linejoin:miter;stroke-opacity:1" d="M 572.333,792.778 572.333,810 z" id="boundary" inkscape:connector-curvature="0" />
	<path style="fill:none;stroke:red;stroke-width:1px;stroke-linecap:butt;stroke-linejoin:miter;stroke-opacity:1" d="M 572.333,810 572.333,827.222 z" id="boundary" inkscape:connector-curvature="0" />
	<path style="fill:none;stroke:red;stroke-width:1px;stroke-linecap:butt;stroke-linejoin:miter;stroke-opacity:1" d="M 572.333,866.833 587.833,875.444 z" id="boundary" inkscape:connector-curvature="0" />
	<path style="fill:none;stroke:red;stroke-width:1px;stroke-linecap:butt;stroke-linejoin:miter;stroke-opacity:1" d="M 577.5,677.389 580.944,694.611 z" id="boundary" inkscape:connector-curvature="0" />
	<path style="fill:none;stroke:red;stroke-width:1px;stroke-linecap:butt;stroke-linejoin:miter;stroke-opacity:1" d="M 580.944,179.667 596.444,188.278 z" id="boundary" inkscape:connector-curvature="0" />
	<path style="fill:none;stroke:red;stroke-width:1px;stroke-linecap:butt;stroke-linejoin:miter;stroke-opacity:1" d="M 580.944,694.611 608.5,703.222 z" id="boundary" inkscape:connector-curvature="0" />
	<path style="fill:none;stroke:red;stroke-width:1px;stroke-linecap:butt;stroke-linejoin:miter;stroke-opacity:1" d="M 580.944,723.889 580.944,741.111 z" id="boundary" inkscape:connector-curvature="0" />
	<path style="fill:none;stroke:red;stroke-width:1px;stroke-linecap:butt;stroke-linejoin:miter;stroke-opacity:1" d="M 587.833,875.444 603.333,865.111 z" id="boundary" inkscape:connector-curvature="0" />
	<path style="fill:none;stroke:red;stroke-width:1px;stroke-linecap:butt;stroke-linejoin:miter;stroke-opacity:1" d="M 596.444,188.278 613.667,195.167 z" id="boundary" inkscape:connector-curvature="0" />
	<path style="fill:none;stroke:red;stroke-width:1px;stroke-linecap:butt;stroke-linejoin:miter;stroke-opacity:1" d="M 599.889,522.389 599.889,539.611 z" id="boundary" inkscape:connector-curvature="0" />
	<path style="fill:none;stroke:red;stroke-width:1px;stroke-linecap:butt;stroke-linejoin:miter;stroke-opacity:1" d="M 599.889,522.389 617.111,513.778 z" id="boundary" inkscape:connector-curvature="0" />
	<path style="fill:none;stroke:red;stroke-width:1px;stroke-linecap:butt;stroke-linejoin:miter;stroke-opacity:1" d="M 599.889,539.611 599.889,556.833 z" id="boundary" inkscape:connector-curvature="0" />
	<path style="fill:none;stroke:red;stroke-width:1px;stroke-linecap:butt;stroke-linejoin:miter;stroke-opacity:1" d="M 599.889,556.833 599.889,574.056 z" id="boundary" inkscape:connector-curvature="0" />
	<path style="fill:none;stroke:red;stroke-width:1px;stroke-linecap:butt;stroke-linejoin:miter;stroke-opacity:1" d="M 599.889,574.056 599.889,591.278 z" id="boundary" inkscape:connector-curvature="0" />
	<path style="fill:none;stroke:red;stroke-width:1px;stroke-linecap:butt;stroke-linejoin:miter;stroke-opacity:1" d="M 599.889,591.278 608.5,606.778 z" id="boundary" inkscape:connector-curvature="0" />
	<path style="fill:none;stroke:red;stroke-width:1px;stroke-linecap:butt;stroke-linejoin:miter;stroke-opacity:1" d="M 599.889,763.5 599.889,780.722 z" id="boundary" inkscape:connector-curvature="0" />
	<path style="fill:none;stroke:red;stroke-width:1px;stroke-linecap:butt;stroke-linejoin:miter;stroke-opacity:1" d="M 599.889,763.5 608.5,737.667 z" id="boundary" inkscape:connector-curvature="0" />
	<path style="fill:none;stroke:red;stroke-width:1px;stroke-linecap:butt;stroke-linejoin:miter;stroke-opacity:1" d="M 599.889,780.722 599.889,797.944 z" id="boundary" inkscape:connector-curvature="0" />
	<path style="fill:none;stroke:red;stroke-width:1px;stroke-linecap:butt;stroke-linejoin:miter;stroke-opacity:1" d="M 599.889,797.944 599.889,815.167 z" id="boundary" inkscape:connector-curvature="0" />
	<path style="fill:none;stroke:red;stroke-width:1px;stroke-linecap:butt;stroke-linejoin:miter;stroke-opacity:1" d="M 599.889,815.167 599.889,832.389 z" id="boundary" inkscape:connector-curvature="0" />
	<path style="fill:none;stroke:red;stroke-width:1px;stroke-linecap:butt;stroke-linejoin:miter;stroke-opacity:1" d="M 599.889,832.389 608.5,847.889 z" id="boundary" inkscape:connector-curvature="0" />
	<path style="fill:none;stroke:red;stroke-width:1px;stroke-linecap:butt;stroke-linejoin:miter;stroke-opacity:1" d="M 603.333,865.111 608.5,847.889 z" id="boundary" inkscape:connector-curvature="0" />
	<path style="fill:none;stroke:red;stroke-width:1px;stroke-linecap:butt;stroke-linejoin:miter;stroke-opacity:1" d="M 608.5,606.778 608.5,624 z" id="boundary" inkscape:connector-curvature="0" />
	<path style="fill:none;stroke:red;stroke-width:1px;stroke-linecap:butt;stroke-linejoin:miter;stroke-opacity:1" d="M 608.5,624 617.111,639.5 z" id="boundary" inkscape:connector-curvature="0" />
	<path style="fill:none;stroke:red;stroke-width:1px;stroke-linecap:butt;stroke-linejoin:miter;stroke-opacity:1" d="M 608.5,703.222 608.5,720.444 z" id="boundary" inkscape:connector-curvature="0" />
	<path style="fill:none;stroke:red;stroke-width:1px;stroke-linecap:butt;stroke-linejoin:miter;stroke-opacity:1" d="M 608.5,720.444 608.5,737.667 z" id="boundary" inkscape:connector-curvature="0" />
	<path style="fill:none;stroke:red;stroke-width:1px;stroke-linecap:butt;stroke-linejoin:miter;stroke-opacity:1" d="M 613.667,195.167 629.167,203.778 z" id="boundary" inkscape:connector-curvature="0" />
	<path style="fill:none;stroke:red;stroke-width:1px;stroke-linecap:butt;stroke-linejoin:miter;stroke-opacity:1" d="M 617.111,513.778 632.611,505.167 z" id="boundary" inkscape:connector-curvature="0" />
	<path style="fill:none;stroke:red;stroke-width:1px;stroke-linecap:butt;stroke-linejoin:miter;stroke-opacity:1" d="M 617.111,639.5 617.111,656.722 z" id="boundary" inkscape:connector-curvature="0" />
	<path style="fill:none;stroke:red;stroke-width:1px;stroke-linecap:butt;stroke-linejoin:miter;stroke-opacity:1" d="M 617.111,656.722 617.111,673.944 z" id="boundary" inkscape:connector-curvature="0" />
	<path style="fill:none;stroke:red;stroke-width:1px;stroke-linecap:butt;stroke-linejoin:miter;stroke-opacity:1" d="M 629.167,203.778 646.389,210.667 z" id="boundary" inkscape:connector-curvature="0" />
	<path style="fill:none;stroke:red;stroke-width:1px;stroke-linecap:butt;stroke-linejoin:miter;stroke-opacity:1" d="M 632.611,505.167 649.833,500 z" id="boundary" inkscape:connector-curvature="0" />
	<path style="fill:none;stroke:red;stroke-width:1px;stroke-linecap:butt;stroke-linejoin:miter;stroke-opacity:1" d="M 646.389,210.667 661.889,219.278 z" id="boundary" inkscape:connector-curvature="0" />
	<path style="fill:none;stroke:red;stroke-width:1px;stroke-linecap:butt;stroke-linejoin:miter;stroke-opacity:1" d="M 649.833,500 663.611,486.222 z" id="boundary" inkscape:connector-curvature="0" />
	<path style="fill:none;stroke:red;stroke-width:1px;stroke-linecap:butt;stroke-linejoin:miter;stroke-opacity:1" d="M 661.889,219.278 677.389,227.889 z" id="boundary" inkscape:connector-curvature="0" />
	<path style="fill:none;stroke:red;stroke-width:1px;stroke-linecap:butt;stroke-linejoin:miter;stroke-opacity:1" d="M 663.611,486.222 680.833,477.611 z" id="boundary" inkscape:connector-curvature="0" />
	<path style="fill:none;stroke:red;stroke-width:1px;stroke-linecap:butt;stroke-linejoin:miter;stroke-opacity:1" d="M 677.389,227.889 694.611,233.056 z" id="boundary" inkscape:connector-curvature="0" />
	<path style="fill:none;stroke:red;stroke-width:1px;stroke-linecap:butt;stroke-linejoin:miter;stroke-opacity:1" d="M 680.833,477.611 694.611,462.111 z" id="boundary" inkscape:connector-curvature="0" />
	<path style="fill:none;stroke:red;stroke-width:1px;stroke-linecap:butt;stroke-linejoin:miter;stroke-opacity:1" d="M 694.611,233.056 708.389,245.111 z" id="boundary" inkscape:connector-curvature="0" />
	<path style="fill:none;stroke:red;stroke-width:1px;stroke-linecap:butt;stroke-linejoin:miter;stroke-opacity:1" d="M 694.611,462.111 708.389,450.056 z" id="boundary" inkscape:connector-curvature="0" />
	<path style="fill:none;stroke:red;stroke-width:1px;stroke-linecap:butt;stroke-linejoin:miter;stroke-opacity:1" d="M 708.389,245.111 723.889,253.722 z" id="boundary" inkscape:connector-curvature="0" />
	<path style="fill:none;stroke:red;stroke-width:1px;stroke-linecap:butt;stroke-linejoin:miter;stroke-opacity:1" d="M 708.389,450.056 725.611,441.444 z" id="boundary" inkscape:connector-curvature="0" />
	<path style="fill:none;stroke:red;stroke-width:1px;stroke-linecap:butt;stroke-linejoin:miter;stroke-opacity:1" d="M 723.889,253.722 739.389,262.333 z" id="boundary" inkscape:connector-curvature="0" />
	<path style="fill:none;stroke:red;stroke-width:1px;stroke-linecap:butt;stroke-linejoin:miter;stroke-opacity:1" d="M 725.611,441.444 742.833,432.833 z" id="boundary" inkscape:connector-curvature="0" />
	<path style="fill:none;stroke:red;stroke-width:1px;stroke-linecap:butt;stroke-linejoin:miter;stroke-opacity:1" d="M 739.389,262.333 754.889,270.944 z" id="boundary" inkscape:connector-curvature="0" />
	<path style="fill:none;stroke:red;stroke-width:1px;stroke-linecap:butt;stroke-linejoin:miter;stroke-opacity:1" d="M 742.833,432.833 760.056,427.667 z" id="boundary" inkscape:connector-curvature="0" />
	<path style="fill:none;stroke:red;stroke-width:1px;stroke-linecap:butt;stroke-linejoin:miter;stroke-opacity:1" d="M 754.889,270.944 772.111,270.944 z" id="boundary" inkscape:connector-curvature="0" />
	<path style="fill:none;stroke:red;stroke-width:1px;stroke-linecap:butt;stroke-linejoin:miter;stroke-opacity:1" d="M 760.056,427.667 775.556,417.333 z" id="boundary" inkscape:connector-curvature="0" />
	<path style="fill:none;stroke:red;stroke-width:1px;stroke-linecap:butt;stroke-linejoin:miter;stroke-opacity:1" d="M 772.111,270.944 787.611,279.556 z" id="boundary" inkscape:connector-curvature="0" />
	<path style="fill:none;stroke:red;stroke-width:1px;stroke-linecap:butt;stroke-linejoin:miter;stroke-opacity:1" d="M 775.556,417.333 792.778,408.722 z" id="boundary" inkscape:connector-curvature="0" />
	<path style="fill:none;stroke:red;stroke-width:1px;stroke-linecap:butt;stroke-linejoin:miter;stroke-opacity:1" d="M 787.611,279.556 804.833,279.556 z" id="boundary" inkscape:connector-curvature="0" />
	<path style="fill:none;stroke:red;stroke-width:1px;stroke-linecap:butt;stroke-linejoin:miter;stroke-opacity:1" d="M 792.778,408.722 810,400.111 z" id="boundary" inkscape:connector-curvature="0" />
	<path style="fill:none;stroke:red;stroke-width:1px;stroke-linecap:butt;stroke-linejoin:miter;stroke-opacity:1" d="M 804.833,279.556 822.056,283 z" id="boundary" inkscape:connector-curvature="0" />
	<path style="fill:none;stroke:red;stroke-width:1px;stroke-linecap:butt;stroke-linejoin:miter;stroke-opacity:1" d="M 810,400.111 827.222,391.5 z" id="boundary" inkscape:connector-curvature="0" />
	<path style="fill:none;stroke:red;stroke-width:1px;stroke-linecap:butt;stroke-linejoin:miter;stroke-opacity:1" d="M 822.056,283 839.278,288.167 z" id="boundary" inkscape:connector-curvature="0" />
	<path style="fill:none;stroke:red;stroke-width:1px;stroke-linecap:butt;stroke-linejoin:miter;stroke-opacity:1" d="M 827.222,391.5 844.444,384.611 z" id="boundary" inkscape:connector-curvature="0" />
	<path style="fill:none;stroke:red;stroke-width:1px;stroke-linecap:butt;stroke-linejoin:miter;stroke-opacity:1" d="M 839.278,288.167 856.5,284.722 z" id="boundary" inkscape:connector-curvature="0" />
	<path style="fill:none;stroke:red;stroke-width:1px;stroke-linecap:butt;stroke-linejoin:miter;stroke-opacity:1" d="M 844.444,384.611 861.667,382.889 z" id="boundary" inkscape:connector-curvature="0" />
	<path style="fill:none;stroke:red;stroke-width:1px;stroke-linecap:butt;stroke-linejoin:miter;stroke-opacity:1" d="M 856.5,284.722 873.722,279.556 z" id="boundary" inkscape:connector-curvature="0" />
	<path style="fill:none;stroke:red;stroke-width:1px;stroke-linecap:butt;stroke-linejoin:miter;stroke-opacity:1" d="M 861.667,382.889 875.444,367.389 z" id="boundary" inkscape:connector-curvature="0" />
	<path style="fill:none;stroke:red;stroke-width:1px;stroke-linecap:butt;stroke-linejoin:miter;stroke-opacity:1" d="M 873.722,279.556 890.944,279.556 z" id="boundary" inkscape:connector-curvature="0" />
	<path style="fill:none;stroke:red;stroke-width:1px;stroke-linecap:butt;stroke-linejoin:miter;stroke-opacity:1" d="M 875.444,367.389 892.667,358.778 z" id="boundary" inkscape:connector-curvature="0" />
	<path style="fill:none;stroke:red;stroke-width:1px;stroke-linecap:butt;stroke-linejoin:miter;stroke-opacity:1" d="M 890.944,279.556 906.444,270.944 z" id="boundary" inkscape:connector-curvature="0" />
	<path style="fill:none;stroke:red;stroke-width:1px;stroke-linecap:butt;stroke-linejoin:miter;stroke-opacity:1" d="M 892.667,358.778 909.889,358.778 z" id="boundary" inkscape:connector-curvature="0" />
	<path style="fill:none;stroke:red;stroke-width:1px;stroke-linecap:butt;stroke-linejoin:miter;stroke-opacity:1" d="M 906.444,270.944 923.667,270.944 z" id="boundary" inkscape:connector-curvature="0" />
	<path style="fill:none;stroke:red;stroke-width:1px;stroke-linecap:butt;stroke-linejoin:miter;stroke-opacity:1" d="M 909.889,358.778 927.111,358.778 z" id="boundary" inkscape:connector-curvature="0" />
	<path style="fill:none;stroke:red;stroke-width:1px;stroke-linecap:butt;stroke-linejoin:miter;stroke-opacity:1" d="M 923.667,270.944 939.167,279.556 z" id="boundary" inkscape:connector-curvature="0" />
	<path style="fill:none;stroke:red;stroke-width:1px;stroke-linecap:butt;stroke-linejoin:miter;stroke-opacity:1" d="M 927.111,358.778 944.333,350.167 z" id="boundary" inkscape:connector-curvature="0" />
	<path style="fill:none;stroke:red;stroke-width:1px;stroke-linecap:butt;stroke-linejoin:miter;stroke-opacity:1" d="M 939.167,279.556 954.667,288.167 z" id="boundary" inkscape:connector-curvature="0" />
	<path style="fill:none;stroke:red;stroke-width:1px;stroke-linecap:butt;stroke-linejoin:miter;stroke-opacity:1" d="M 944.333,350.167 961.556,350.167 z" id="boundary" inkscape:connector-curvature="0" />
	<path style="fill:none;stroke:red;stroke-width:1px;stroke-linecap:butt;stroke-linejoin:miter;stroke-opacity:1" d="M 954.667,288.167 971.889,288.167 z" id="boundary" inkscape:connector-curvature="0" />
	<path style="fill:none;stroke:red;stroke-width:1px;stroke-linecap:butt;stroke-linejoin:miter;stroke-opacity:1" d="M 961.556,350.167 978.778,341.556 z" id="boundary" inkscape:connector-curvature="0" />
	<path style="fill:none;stroke:red;stroke-width:1px;stroke-linecap:butt;stroke-linejoin:miter;stroke-opacity:1" d="M 971.889,288.167 985.667,300.222 z" id="boundary" inkscape:connector-curvature="0" />
	<path style="fill:none;stroke:red;stroke-width:1px;stroke-linecap:butt;stroke-linejoin:miter;stroke-opacity:1" d="M 978.778,341.556 996,331.222 z" id="boundary" inkscape:connector-curvature="0" />
	<path style="fill:none;stroke:red;stroke-width:1px;stroke-linecap:butt;stroke-linejoin:miter;stroke-opacity:1" d="M 985.667,300.222 996,314 z" id="boundary" inkscape:connector-curvature="0" />
	<path style="fill:none;stroke:red;stroke-width:1px;stroke-linecap:butt;stroke-linejoin:miter;stroke-opacity:1" d="M 996,314 996,331.222 z" id="boundary" inkscape:connector-curvature="0" />
	<circle cx="4" cy="121.111" r="4" fill="#0" id="circle0"/>
	<circle cx="14.3333" cy="134.889" r="4" fill="#0" id="circle1"/>
	<circle cx="17.7778" cy="107.333" r="4" fill="#0" id="circle2"/>
	<circle cx="31.5556" cy="134.889" r="4" fill="#0" id="circle3"/>
	<circle cx="33.2778" cy="98.7222" r="4" fill="#0" id="circle4"/>
	<circle cx="48.7778" cy="126.278" r="4" fill="#0" id="circle5"/>
	<circle cx="50.5" cy="91.8333" r="4" fill="#0" id="circle6"/>
	<circle cx="66" cy="126.278" r="4" fill="#0" id="circle7"/>
	<circle cx="67.7222" cy="83.2222" r="4" fill="#0" id="circle8"/>
	<circle cx="76.3333" cy="66" r="4" fill="#0" id="circle9"/>
	<circle cx="81.5" cy="43.6111" r="4" fill="#0" id="circle10"/>
	<circle cx="83.2222" cy="126.278" r="4" fill="#0" id="circle11"/>
	<circle cx="95.2778" cy="29.8333" r="4" fill="#0" id="circle12"/>
	<circle cx="100.444" cy="129.722" r="4" fill="#0" id="circle13"/>
	<circle cx="107.333" cy="198.611" r="4" fill="#0" id="circle14"/>
	<circle cx="107.333" cy="215.833" r="4" fill="#0" id="circle15"/>
	<circle cx="107.333" cy="233.056" r="4" fill="#0" id="circle16"/>
	<circle cx="107.333" cy="250.278" r="4" fill="#0" id="circle17"/>
	<circle cx="109.056" cy="16.0556" r="4" fill="#0" id="circle18"/>
	<circle cx="112.5" cy="143.5" r="4" fill="#0" id="circle19"/>
	<circle cx="115.944" cy="160.722" r="4" fill="#0" id="circle20"/>
	<circle cx="115.944" cy="177.944" r="4" fill="#0" id="circle21"/>
	<circle cx="115.944" cy="265.778" r="4" fill="#0" id="circle22"/>
	<circle cx="115.944" cy="283" r="4" fill="#0" id="circle23"/>
	<circle cx="124.556" cy="298.5" r="4" fill="#0" id="circle24"/>
	<circle cx="126.278" cy="7.44444" r="4" fill="#0" id="circle25"/>
	<circle cx="129.722" cy="315.722" r="4" fill="#0" id="circle26"/>
	<circle cx="133.167" cy="332.944" r="4" fill="#0" id="circle27"/>
	<circle cx="143.5" cy="4" r="4" fill="#0" id="circle28"/>
	<circle cx="143.5" cy="346.722" r="4" fill="#0" id="circle29"/>
	<circle cx="152.111" cy="362.222" r="4" fill="#0" id="circle30"/>
	<circle cx="160.722" cy="4" r="4" fill="#0" id="circle31"/>
	<circle cx="164.167" cy="376" r="4" fill="#0" id="circle32"/>
	<circle cx="177.944" cy="4" r="4" fill="#0" id="circle33"/>
	<circle cx="177.944" cy="388.056" r="4" fill="#0" id="circle34"/>
	<circle cx="190" cy="401.833" r="4" fill="#0" id="circle35"/>
	<circle cx="195.167" cy="4" r="4" fill="#0" id="circle36"/>
	<circle cx="203.778" cy="413.889" r="4" fill="#0" id="circle37"/>
	<circle cx="212.389" cy="9.16667" r="4" fill="#0" id="circle38"/>
	<circle cx="215.833" cy="427.667" r="4" fill="#0" id="circle39"/>
	<circle cx="229.611" cy="12.6111" r="4" fill="#0" id="circle40"/>
	<circle cx="229.611" cy="439.722" r="4" fill="#0" id="circle41"/>
	<circle cx="245.111" cy="21.2222" r="4" fill="#0" id="circle42"/>
	<circle cx="245.111" cy="448.333" r="4" fill="#0" id="circle43"/>
	<circle cx="258.889" cy="460.389" r="4" fill="#0" id="circle44"/>
	<circle cx="262.333" cy="24.6667" r="4" fill="#0" id="circle45"/>
	<circle cx="272.667" cy="38.4444" r="4" fill="#0" id="circle46"/>
	<circle cx="274.389" cy="469" r="4" fill="#0" id="circle47"/>
	<circle cx="288.167" cy="479.333" r="4" fill="#0" id="circle48"/>
	<circle cx="289.889" cy="43.6111" r="4" fill="#0" id="circle49"/>
	<circle cx="301.944" cy="57.3889" r="4" fill="#0" id="circle50"/>
	<circle cx="303.667" cy="487.944" r="4" fill="#0" id="circle51"/>
	<circle cx="310.556" cy="72.8889" r="4" fill="#0" id="circle52"/>
	<circle cx="314" cy="887.5" r="4" fill="#0" id="circle53"/>
	<circle cx="315.722" cy="90.1111" r="4" fill="#0" id="circle54"/>
	<circle cx="315.722" cy="501.722" r="4" fill="#0" id="circle55"/>
	<circle cx="324.333" cy="105.611" r="4" fill="#0" id="circle56"/>
	<circle cx="324.333" cy="901.278" r="4" fill="#0" id="circle57"/>
	<circle cx="331.222" cy="882.333" r="4" fill="#0" id="circle58"/>
	<circle cx="332.944" cy="505.167" r="4" fill="#0" id="circle59"/>
	<circle cx="338.111" cy="117.667" r="4" fill="#0" id="circle60"/>
	<circle cx="341.556" cy="901.278" r="4" fill="#0" id="circle61"/>
	<circle cx="346.722" cy="133.167" r="4" fill="#0" id="circle62"/>
	<circle cx="346.722" cy="873.722" r="4" fill="#0" id="circle63"/>
	<circle cx="348.444" cy="513.778" r="4" fill="#0" id="circle64"/>
	<circle cx="357.056" cy="892.667" r="4" fill="#0" id="circle65"/>
	<circle cx="363.944" cy="133.167" r="4" fill="#0" id="circle66"/>
	<circle cx="363.944" cy="522.389" r="4" fill="#0" id="circle67"/>
	<circle cx="363.944" cy="873.722" r="4" fill="#0" id="circle68"/>
	<circle cx="376" cy="859.944" r="4" fill="#0" id="circle69"/>
	<circle cx="377.722" cy="884.056" r="4" fill="#0" id="circle70"/>
	<circle cx="379.444" cy="531" r="4" fill="#0" id="circle71"/>
	<circle cx="381.167" cy="133.167" r="4" fill="#0" id="circle72"/>
	<circle cx="391.5" cy="844.444" r="4" fill="#0" id="circle73"/>
	<circle cx="393.222" cy="875.444" r="4" fill="#0" id="circle74"/>
	<circle cx="394.944" cy="539.611" r="4" fill="#0" id="circle75"/>
	<circle cx="396.667" cy="141.778" r="4" fill="#0" id="circle76"/>
	<circle cx="405.278" cy="830.667" r="4" fill="#0" id="circle77"/>
	<circle cx="408.722" cy="549.944" r="4" fill="#0" id="circle78"/>
	<circle cx="408.722" cy="801.389" r="4" fill="#0" id="circle79"/>
	<circle cx="410.444" cy="875.444" r="4" fill="#0" id="circle80"/>
	<circle cx="413.889" cy="141.778" r="4" fill="#0" id="circle81"/>
	<circle cx="417.333" cy="565.444" r="4" fill="#0" id="circle82"/>
	<circle cx="417.333" cy="784.167" r="4" fill="#0" id="circle83"/>
	<circle cx="422.5" cy="582.667" r="4" fill="#0" id="circle84"/>
	<circle cx="424.222" cy="863.389" r="4" fill="#0" id="circle85"/>
	<circle cx="425.944" cy="749.722" r="4" fill="#0" id="circle86"/>
	<circle cx="425.944" cy="766.944" r="4" fill="#0" id="circle87"/>
	<circle cx="427.667" cy="539.611" r="4" fill="#0" id="circle88"/>
	<circle cx="427.667" cy="841" r="4" fill="#0" id="circle89"/>
	<circle cx="429.389" cy="150.389" r="4" fill="#0" id="circle90"/>
	<circle cx="431.111" cy="598.167" r="4" fill="#0" id="circle91"/>
	<circle cx="432.833" cy="556.833" r="4" fill="#0" id="circle92"/>
	<circle cx="434.556" cy="723.889" r="4" fill="#0" id="circle93"/>
	<circle cx="436.278" cy="797.944" r="4" fill="#0" id="circle94"/>
	<circle cx="436.278" cy="815.167" r="4" fill="#0" id="circle95"/>
	<circle cx="438" cy="615.389" r="4" fill="#0" id="circle96"/>
	<circle cx="439.722" cy="574.056" r="4" fill="#0" id="circle97"/>
	<circle cx="443.167" cy="531" r="4" fill="#0" id="circle98"/>
	<circle cx="443.167" cy="632.611" r="4" fill="#0" id="circle99"/>
	<circle cx="443.167" cy="649.833" r="4" fill="#0" id="circle100"/>
	<circle cx="443.167" cy="667.056" r="4" fill="#0" id="circle101"/>
	<circle cx="443.167" cy="684.278" r="4" fill="#0" id="circle102"/>
	<circle cx="443.167" cy="701.5" r="4" fill="#0" id="circle103"/>
	<circle cx="444.889" cy="763.5" r="4" fill="#0" id="circle104"/>
	<circle cx="444.889" cy="780.722" r="4" fill="#0" id="circle105"/>
	<circle cx="446.611" cy="150.389" r="4" fill="#0" id="circle106"/>
	<circle cx="453.5" cy="586.111" r="4" fill="#0" id="circle107"/>
	<circle cx="453.5" cy="737.667" r="4" fill="#0" id="circle108"/>
	<circle cx="460.389" cy="531" r="4" fill="#0" id="circle109"/>
	<circle cx="460.389" cy="603.333" r="4" fill="#0" id="circle110"/>
	<circle cx="462.111" cy="711.833" r="4" fill="#0" id="circle111"/>
	<circle cx="463.833" cy="150.389" r="4" fill="#0" id="circle112"/>
	<circle cx="469" cy="618.833" r="4" fill="#0" id="circle113"/>
	<circle cx="470.722" cy="636.056" r="4" fill="#0" id="circle114"/>
	<circle cx="470.722" cy="677.389" r="4" fill="#0" id="circle115"/>
	<circle cx="470.722" cy="694.611" r="4" fill="#0" id="circle116"/>
	<circle cx="477.611" cy="531" r="4" fill="#0" id="circle117"/>
	<circle cx="477.611" cy="878.889" r="4" fill="#0" id="circle118"/>
	<circle cx="479.333" cy="159" r="4" fill="#0" id="circle119"/>
	<circle cx="479.333" cy="651.556" r="4" fill="#0" id="circle120"/>
	<circle cx="494.833" cy="531" r="4" fill="#0" id="circle121"/>
	<circle cx="494.833" cy="870.278" r="4" fill="#0" id="circle122"/>
	<circle cx="496.556" cy="159" r="4" fill="#0" id="circle123"/>
	<circle cx="505.167" cy="884.056" r="4" fill="#0" id="circle124"/>
	<circle cx="512.056" cy="531" r="4" fill="#0" id="circle125"/>
	<circle cx="512.056" cy="861.667" r="4" fill="#0" id="circle126"/>
	<circle cx="513.778" cy="159" r="4" fill="#0" id="circle127"/>
	<circle cx="522.389" cy="884.056" r="4" fill="#0" id="circle128"/>
	<circle cx="529.278" cy="531" r="4" fill="#0" id="circle129"/>
	<circle cx="529.278" cy="856.5" r="4" fill="#0" id="circle130"/>
	<circle cx="531" cy="164.167" r="4" fill="#0" id="circle131"/>
	<circle cx="537.889" cy="875.444" r="4" fill="#0" id="circle132"/>
	<circle cx="544.778" cy="847.889" r="4" fill="#0" id="circle133"/>
	<circle cx="546.5" cy="172.778" r="4" fill="#0" id="circle134"/>
	<circle cx="546.5" cy="531" r="4" fill="#0" id="circle135"/>
	<circle cx="555.111" cy="870.278" r="4" fill="#0" id="circle136"/>
	<circle cx="562" cy="539.611" r="4" fill="#0" id="circle137"/>
	<circle cx="562" cy="847.889" r="4" fill="#0" id="circle138"/>
	<circle cx="563.722" cy="176.222" r="4" fill="#0" id="circle139"/>
	<circle cx="563.722" cy="556.833" r="4" fill="#0" id="circle140"/>
	<circle cx="563.722" cy="574.056" r="4" fill="#0" id="circle141"/>
	<circle cx="568.889" cy="591.278" r="4" fill="#0" id="circle142"/>
	<circle cx="572.333" cy="608.5" r="4" fill="#0" id="circle143"/>
	<circle cx="572.333" cy="625.722" r="4" fill="#0" id="circle144"/>
	<circle cx="572.333" cy="642.944" r="4" fill="#0" id="circle145"/>
	<circle cx="572.333" cy="660.167" r="4" fill="#0" id="circle146"/>
	<circle cx="572.333" cy="758.333" r="4" fill="#0" id="circle147"/>
	<circle cx="572.333" cy="775.556" r="4" fill="#0" id="circle148"/>
	<circle cx="572.333" cy="792.778" r="4" fill="#0" id="circle149"/>
	<circle cx="572.333" cy="810" r="4" fill="#0" id="circle150"/>
	<circle cx="572.333" cy="827.222" r="4" fill="#0" id="circle151"/>
	<circle cx="572.333" cy="866.833" r="4" fill="#0" id="circle152"/>
	<circle cx="577.5" cy="677.389" r="4" fill="#0" id="circle153"/>
	<circle cx="580.944" cy="179.667" r="4" fill="#0" id="circle154"/>
	<circle cx="580.944" cy="694.611" r="4" fill="#0" id="circle155"/>
	<circle cx="580.944" cy="723.889" r="4" fill="#0" id="circle156"/>
	<circle cx="580.944" cy="741.111" r="4" fill="#0" id="circle157"/>
	<circle cx="587.833" cy="875.444" r="4" fill="#0" id="circle158"/>
	<circle cx="596.444" cy="188.278" r="4" fill="#0" id="circle159"/>
	<circle cx="599.889" cy="522.389" r="4" fill="#0" id="circle160"/>
	<circle cx="599.889" cy="539.611" r="4" fill="#0" id="circle161"/>
	<circle cx="599.889" cy="556.833" r="4" fill="#0" id="circle162"/>
	<circle cx="599.889" cy="574.056" r="4" fill="#0" id="circle163"/>
	<circle cx="599.889" cy="591.278" r="4" fill="#0" id="circle164"/>
	<circle cx="599.889" cy="763.5" r="4" fill="#0" id="circle165"/>
	<circle cx="599.889" cy="780.722" r="4" fill="#0" id="circle166"/>
	<circle cx="599.889" cy="797.944" r="4" fill="#0" id="circle167"/>
	<circle cx="599.889" cy="815.167" r="4" fill="#0" id="circle168"/>
	<circle cx="599.889" cy="832.389" r="4" fill="#0" id="circle169"/>
	<circle cx="603.333" cy="865.111" r="4" fill="#0" id="circle170"/>
	<circle cx="608.5" cy="606.778" r="4" fill="#0" id="circle171"/>
	<circle cx="608.5" cy="624" r="4" fill="#0" id="circle172"/>
	<circle cx="608.5" cy="703.222" r="4" fill="#0" id="circle173"/>
	<circle cx="608.5" cy="720.444" r="4" fill="#0" id="circle174"/>
	<circle cx="608.5" cy="737.667" r="4" fill="#0" id="circle175"/>
	<circle cx="608.5" cy="847.889" r="4" fill="#0" id="circle176"/>
	<circle cx="613.667" cy="195.167" r="4" fill="#0" id="circle177"/>
	<circle cx="617.111" cy="513.778" r="4" fill="#0" id="circle178"/>
	<circle cx="617.111" cy="639.5" r="4" fill="#0" id="circle179"/>
	<circle cx="617.111" cy="656.722" r="4" fill="#0" id="circle180"/>
	<circle cx="617.111" cy="673.944" r="4" fill="#0" id="circle181"/>
	<circle cx="629.167" cy="203.778" r="4" fill="#0" id="circle182"/>
	<circle cx="632.611" cy="505.167" r="4" fill="#0" id="circle183"/>
	<circle cx="646.389" cy="210.667" r="4" fill="#0" id="circle184"/>
	<circle cx="649.833" cy="500" r="4" fill="#0" id="circle185"/>
	<circle cx="661.889" cy="219.278" r="4" fill="#0" id="circle186"/>
	<circle cx="663.611" cy="486.222" r="4" fill="#0" id="circle187"/>
	<circle cx="677.389" cy="227.889" r="4" fill="#0" id="circle188"/>
	<circle cx="680.833" cy="477.611" r="4" fill="#0" id="circle189"/>
	<circle cx="694.611" cy="233.056" r="4" fill="#0" id="circle190"/>
	<circle cx="694.611" cy="462.111" r="4" fill="#0" id="circle191"/>
	<circle cx="708.389" cy="245.111" r="4" fill="#0" id="circle192"/>
	<circle cx="708.389" cy="450.056" r="4" fill="#0" id="circle193"/>
	<circle cx="723.889" cy="253.722" r="4" fill="#0" id="circle194"/>
	<circle cx="725.611" cy="441.444" r="4" fill="#0" id="circle195"/>
	<circle cx="739.389" cy="262.333" r="4" fill="#0" id="circle196"/>
	<circle cx="742.833" cy="432.833" r="4" fill="#0" id="circle197"/>
	<circle cx="754.889" cy="270.944" r="4" fill="#0" id="circle198"/>
	<circle cx="760.056" cy="427.667" r="4" fill="#0" id="circle199"/>
	<circle cx="772.111" cy="270.944" r="4" fill="#0" id="circle200"/>
	<circle cx="775.556" cy="417.333" r="4" fill="#0" id="circle201"/>
	<circle cx="787.611" cy="279.556" r="4" fill="#0" id="circle202"/>
	<circle cx="792.778" cy="408.722" r="4" fill="#0" id="circle203"/>
	<circle cx="804.833" cy="279.556" r="4" fill="#0" id="circle204"/>
	<circle cx="810" cy="400.111" r="4" fill="#0" id="circle205"/>
	<circle cx="822.056" cy="283" r="4" fill="#0" id="circle206"/>
	<circle cx="827.222" cy="391.5" r="4" fill="#0" id="circle207"/>
	<circle cx="839.278" cy="288.167" r="4" fill="#0" id="circle208"/>
	<circle cx="844.444" cy="384.611" r="4" fill="#0" id="circle209"/>
	<circle cx="856.5" cy="284.722" r="4" fill="#0" id="circle210"/>
	<circle cx="861.667" cy="382.889" r="4" fill="#0" id="circle211"/>
	<circle cx="873.722" cy="279.556" r="4" fill="#0" id="circle212"/>
	<circle cx="875.444" cy="367.389" r="4" fill="#0" id="circle213"/>
	<circle cx="890.944" cy="279.556" r="4" fill="#0" id="circle214"/>
	<circle cx="892.667" cy="358.778" r="4" fill="#0" id="circle215"/>
	<circle cx="906.444" cy="270.944" r="4" fill="#0" id="circle216"/>
	<circle cx="909.889" cy="358.778" r="4" fill="#0" id="circle217"/>
	<circle cx="923.667" cy="270.944" r="4" fill="#0" id="circle218"/>
	<circle cx="927.111" cy="358.778" r="4" fill="#0" id="circle219"/>
	<circle cx="939.167" cy="279.556" r="4" fill="#0" id="circle220"/>
	<circle cx="944.333" cy="350.167" r="4" fill="#0" id="circle221"/>
	<circle cx="954.667" cy="288.167" r="4" fill="#0" id="circle222"/>
	<circle cx="961.556" cy="350.167" r="4" fill="#0" id="circle223"/>
	<circle cx="971.889" cy="288.167" r="4" fill="#0" id="circle224"/>
	<circle cx="978.778" cy="341.556" r="4" fill="#0" id="circle225"/>
	<circle cx="985.667" cy="300.222" r="4" fill="#0" id="circle226"/>
	<circle cx="996" cy="314" r="4" fill="#0" id="circle227"/>
	<circle cx="996" cy="331.222" r="4" fill="#0" id="circle228"/>
	</g>
</svg>