<?xml version="1.0" encoding="UTF-8" standalone="no"?>
<!-- Created with CurveBenchmark -->
<svg
	xmlns:dc="http://purl.org/dc/elements/1.1/"
	xmlns:cc="http://creativecommons.org/ns#"
	xmlns:rdf="http://www.w3.org/1999/02/22-rdf-syntax-ns#"
	xmlns:svg="http://www.w3.org/2000/svg"
	xmlns="http://www.w3.org/2000/svg"
	xmlns:sodipodi="http://sodipodi.sourceforge.net/DTD/sodipodi-0.dtd"
	xmlns:inkscape="http://www.inkscape.org/namespaces/inkscape"
	width="1000"
	height="1000"
	id="svg2"
	version="1.1"
	sodipodi:docname="manifold/hnncrust-hammer19.png.txt">
<defs
	id="defs4" />
<metadata
	id="metadata7">
	<rdf:RDF>
		<cc:Work
			rdf:about="">
			<dc:format>image/svg+xml</dc:format>
			<dc:type
				rdf:resource="http://purl.org/dc/dcmitype/StillImage" />
			<dc:title></dc:title>
		</cc:Work>
	</rdf:RDF>
</metadata>
<g
	inkscape:label="Layer 1"
	inkscape:groupmode="layer"
	id="layer1">
	<path style="fill:none;stroke:red;stroke-width:1px;stroke-linecap:butt;stroke-linejoin:miter;stroke-opacity:1" d="M 4,423.485 4,441.488 z" id="boundary" inkscape:connector-curvature="0" />
	<path style="fill:none;stroke:red;stroke-width:1px;stroke-linecap:butt;stroke-linejoin:miter;stroke-opacity:1" d="M 4,423.485 13.0018,396.479 z" id="boundary" inkscape:connector-curvature="0" />
	<path style="fill:none;stroke:red;stroke-width:1px;stroke-linecap:butt;stroke-linejoin:miter;stroke-opacity:1" d="M 4,441.488 14.8022,455.891 z" id="boundary" inkscape:connector-curvature="0" />
	<path style="fill:none;stroke:red;stroke-width:1px;stroke-linecap:butt;stroke-linejoin:miter;stroke-opacity:1" d="M 13.0018,396.479 22.0036,378.475 z" id="boundary" inkscape:connector-curvature="0" />
	<path style="fill:none;stroke:red;stroke-width:1px;stroke-linecap:butt;stroke-linejoin:miter;stroke-opacity:1" d="M 14.8022,455.891 32.8058,459.492 z" id="boundary" inkscape:connector-curvature="0" />
	<path style="fill:none;stroke:red;stroke-width:1px;stroke-linecap:butt;stroke-linejoin:miter;stroke-opacity:1" d="M 22.0036,378.475 31.0054,351.47 z" id="boundary" inkscape:connector-curvature="0" />
	<path style="fill:none;stroke:red;stroke-width:1px;stroke-linecap:butt;stroke-linejoin:miter;stroke-opacity:1" d="M 31.0054,351.47 40.0073,324.465 z" id="boundary" inkscape:connector-curvature="0" />
	<path style="fill:none;stroke:red;stroke-width:1px;stroke-linecap:butt;stroke-linejoin:miter;stroke-opacity:1" d="M 32.8058,459.492 49.0091,468.494 z" id="boundary" inkscape:connector-curvature="0" />
	<path style="fill:none;stroke:red;stroke-width:1px;stroke-linecap:butt;stroke-linejoin:miter;stroke-opacity:1" d="M 40.0073,324.465 54.4102,310.062 z" id="boundary" inkscape:connector-curvature="0" />
	<path style="fill:none;stroke:red;stroke-width:1px;stroke-linecap:butt;stroke-linejoin:miter;stroke-opacity:1" d="M 49.0091,468.494 67.0127,473.895 z" id="boundary" inkscape:connector-curvature="0" />
	<path style="fill:none;stroke:red;stroke-width:1px;stroke-linecap:butt;stroke-linejoin:miter;stroke-opacity:1" d="M 54.4102,310.062 70.6134,319.064 z" id="boundary" inkscape:connector-curvature="0" />
	<path style="fill:none;stroke:red;stroke-width:1px;stroke-linecap:butt;stroke-linejoin:miter;stroke-opacity:1" d="M 67.0127,270.454 68.8131,295.659 z" id="boundary" inkscape:connector-curvature="0" />
	<path style="fill:none;stroke:red;stroke-width:1px;stroke-linecap:butt;stroke-linejoin:miter;stroke-opacity:1" d="M 67.0127,270.454 76.0145,243.448 z" id="boundary" inkscape:connector-curvature="0" />
	<path style="fill:none;stroke:red;stroke-width:1px;stroke-linecap:butt;stroke-linejoin:miter;stroke-opacity:1" d="M 67.0127,473.895 83.216,482.897 z" id="boundary" inkscape:connector-curvature="0" />
	<path style="fill:none;stroke:red;stroke-width:1px;stroke-linecap:butt;stroke-linejoin:miter;stroke-opacity:1" d="M 76.0145,243.448 85.0163,216.443 z" id="boundary" inkscape:connector-curvature="0" />
	<path style="fill:none;stroke:red;stroke-width:1px;stroke-linecap:butt;stroke-linejoin:miter;stroke-opacity:1" d="M 83.216,482.897 101.22,482.897 z" id="boundary" inkscape:connector-curvature="0" />
	<path style="fill:none;stroke:red;stroke-width:1px;stroke-linecap:butt;stroke-linejoin:miter;stroke-opacity:1" d="M 85.0163,216.443 94.0181,189.437 z" id="boundary" inkscape:connector-curvature="0" />
	<path style="fill:none;stroke:red;stroke-width:1px;stroke-linecap:butt;stroke-linejoin:miter;stroke-opacity:1" d="M 94.0181,189.437 112.022,180.436 z" id="boundary" inkscape:connector-curvature="0" />
	<path style="fill:none;stroke:red;stroke-width:1px;stroke-linecap:butt;stroke-linejoin:miter;stroke-opacity:1" d="M 101.22,482.897 117.423,491.898 z" id="boundary" inkscape:connector-curvature="0" />
	<path style="fill:none;stroke:red;stroke-width:1px;stroke-linecap:butt;stroke-linejoin:miter;stroke-opacity:1" d="M 112.022,162.432 112.022,180.436 z" id="boundary" inkscape:connector-curvature="0" />
	<path style="fill:none;stroke:red;stroke-width:1px;stroke-linecap:butt;stroke-linejoin:miter;stroke-opacity:1" d="M 112.022,162.432 121.024,135.426 z" id="boundary" inkscape:connector-curvature="0" />
	<path style="fill:none;stroke:red;stroke-width:1px;stroke-linecap:butt;stroke-linejoin:miter;stroke-opacity:1" d="M 117.423,491.898 133.626,500.9 z" id="boundary" inkscape:connector-curvature="0" />
	<path style="fill:none;stroke:red;stroke-width:1px;stroke-linecap:butt;stroke-linejoin:miter;stroke-opacity:1" d="M 121.024,135.426 139.027,126.425 z" id="boundary" inkscape:connector-curvature="0" />
	<path style="fill:none;stroke:red;stroke-width:1px;stroke-linecap:butt;stroke-linejoin:miter;stroke-opacity:1" d="M 133.626,500.9 151.63,506.301 z" id="boundary" inkscape:connector-curvature="0" />
	<path style="fill:none;stroke:red;stroke-width:1px;stroke-linecap:butt;stroke-linejoin:miter;stroke-opacity:1" d="M 139.027,126.425 148.029,108.421 z" id="boundary" inkscape:connector-curvature="0" />
	<path style="fill:none;stroke:red;stroke-width:1px;stroke-linecap:butt;stroke-linejoin:miter;stroke-opacity:1" d="M 148.029,108.421 162.432,94.0181 z" id="boundary" inkscape:connector-curvature="0" />
	<path style="fill:none;stroke:red;stroke-width:1px;stroke-linecap:butt;stroke-linejoin:miter;stroke-opacity:1" d="M 151.63,506.301 169.633,509.902 z" id="boundary" inkscape:connector-curvature="0" />
	<path style="fill:none;stroke:red;stroke-width:1px;stroke-linecap:butt;stroke-linejoin:miter;stroke-opacity:1" d="M 162.432,94.0181 176.835,79.6152 z" id="boundary" inkscape:connector-curvature="0" />
	<path style="fill:none;stroke:red;stroke-width:1px;stroke-linecap:butt;stroke-linejoin:miter;stroke-opacity:1" d="M 169.633,509.902 185.837,518.904 z" id="boundary" inkscape:connector-curvature="0" />
	<path style="fill:none;stroke:red;stroke-width:1px;stroke-linecap:butt;stroke-linejoin:miter;stroke-opacity:1" d="M 176.835,79.6152 191.238,67.0127 z" id="boundary" inkscape:connector-curvature="0" />
	<path style="fill:none;stroke:red;stroke-width:1px;stroke-linecap:butt;stroke-linejoin:miter;stroke-opacity:1" d="M 185.837,518.904 203.84,509.902 z" id="boundary" inkscape:connector-curvature="0" />
	<path style="fill:none;stroke:red;stroke-width:1px;stroke-linecap:butt;stroke-linejoin:miter;stroke-opacity:1" d="M 191.238,67.0127 203.84,52.6098 z" id="boundary" inkscape:connector-curvature="0" />
	<path style="fill:none;stroke:red;stroke-width:1px;stroke-linecap:butt;stroke-linejoin:miter;stroke-opacity:1" d="M 203.84,52.6098 218.243,40.0073 z" id="boundary" inkscape:connector-curvature="0" />
	<path style="fill:none;stroke:red;stroke-width:1px;stroke-linecap:butt;stroke-linejoin:miter;stroke-opacity:1" d="M 203.84,491.898 203.84,509.902 z" id="boundary" inkscape:connector-curvature="0" />
	<path style="fill:none;stroke:red;stroke-width:1px;stroke-linecap:butt;stroke-linejoin:miter;stroke-opacity:1" d="M 203.84,491.898 212.842,464.893 z" id="boundary" inkscape:connector-curvature="0" />
	<path style="fill:none;stroke:red;stroke-width:1px;stroke-linecap:butt;stroke-linejoin:miter;stroke-opacity:1" d="M 212.842,464.893 221.844,437.887 z" id="boundary" inkscape:connector-curvature="0" />
	<path style="fill:none;stroke:red;stroke-width:1px;stroke-linecap:butt;stroke-linejoin:miter;stroke-opacity:1" d="M 218.243,40.0073 234.446,31.0054 z" id="boundary" inkscape:connector-curvature="0" />
	<path style="fill:none;stroke:red;stroke-width:1px;stroke-linecap:butt;stroke-linejoin:miter;stroke-opacity:1" d="M 221.844,365.873 236.247,353.27 z" id="boundary" inkscape:connector-curvature="0" />
	<path style="fill:none;stroke:red;stroke-width:1px;stroke-linecap:butt;stroke-linejoin:miter;stroke-opacity:1" d="M 221.844,365.873 236.247,376.675 z" id="boundary" inkscape:connector-curvature="0" />
	<path style="fill:none;stroke:red;stroke-width:1px;stroke-linecap:butt;stroke-linejoin:miter;stroke-opacity:1" d="M 221.844,437.887 230.846,410.882 z" id="boundary" inkscape:connector-curvature="0" />
	<path style="fill:none;stroke:red;stroke-width:1px;stroke-linecap:butt;stroke-linejoin:miter;stroke-opacity:1" d="M 230.846,410.882 239.848,394.679 z" id="boundary" inkscape:connector-curvature="0" />
	<path style="fill:none;stroke:red;stroke-width:1px;stroke-linecap:butt;stroke-linejoin:miter;stroke-opacity:1" d="M 234.446,31.0054 250.65,22.0036 z" id="boundary" inkscape:connector-curvature="0" />
	<path style="fill:none;stroke:red;stroke-width:1px;stroke-linecap:butt;stroke-linejoin:miter;stroke-opacity:1" d="M 236.247,353.27 254.25,347.869 z" id="boundary" inkscape:connector-curvature="0" />
	<path style="fill:none;stroke:red;stroke-width:1px;stroke-linecap:butt;stroke-linejoin:miter;stroke-opacity:1" d="M 236.247,376.675 239.848,394.679 z" id="boundary" inkscape:connector-curvature="0" />
	<path style="fill:none;stroke:red;stroke-width:1px;stroke-linecap:butt;stroke-linejoin:miter;stroke-opacity:1" d="M 250.65,22.0036 268.653,22.0036 z" id="boundary" inkscape:connector-curvature="0" />
	<path style="fill:none;stroke:red;stroke-width:1px;stroke-linecap:butt;stroke-linejoin:miter;stroke-opacity:1" d="M 254.25,347.869 270.454,356.871 z" id="boundary" inkscape:connector-curvature="0" />
	<path style="fill:none;stroke:red;stroke-width:1px;stroke-linecap:butt;stroke-linejoin:miter;stroke-opacity:1" d="M 266.853,140.828 266.853,158.831 z" id="boundary" inkscape:connector-curvature="0" />
	<path style="fill:none;stroke:red;stroke-width:1px;stroke-linecap:butt;stroke-linejoin:miter;stroke-opacity:1" d="M 266.853,140.828 275.855,113.822 z" id="boundary" inkscape:connector-curvature="0" />
	<path style="fill:none;stroke:red;stroke-width:1px;stroke-linecap:butt;stroke-linejoin:miter;stroke-opacity:1" d="M 266.853,158.831 266.853,176.835 z" id="boundary" inkscape:connector-curvature="0" />
	<path style="fill:none;stroke:red;stroke-width:1px;stroke-linecap:butt;stroke-linejoin:miter;stroke-opacity:1" d="M 266.853,176.835 270.454,194.838 z" id="boundary" inkscape:connector-curvature="0" />
	<path style="fill:none;stroke:red;stroke-width:1px;stroke-linecap:butt;stroke-linejoin:miter;stroke-opacity:1" d="M 268.653,22.0036 284.857,13.0018 z" id="boundary" inkscape:connector-curvature="0" />
	<path style="fill:none;stroke:red;stroke-width:1px;stroke-linecap:butt;stroke-linejoin:miter;stroke-opacity:1" d="M 270.454,194.838 275.855,212.842 z" id="boundary" inkscape:connector-curvature="0" />
	<path style="fill:none;stroke:red;stroke-width:1px;stroke-linecap:butt;stroke-linejoin:miter;stroke-opacity:1" d="M 270.454,356.871 288.457,364.073 z" id="boundary" inkscape:connector-curvature="0" />
	<path style="fill:none;stroke:red;stroke-width:1px;stroke-linecap:butt;stroke-linejoin:miter;stroke-opacity:1" d="M 275.855,113.822 284.857,86.8167 z" id="boundary" inkscape:connector-curvature="0" />
	<path style="fill:none;stroke:red;stroke-width:1px;stroke-linecap:butt;stroke-linejoin:miter;stroke-opacity:1" d="M 275.855,212.842 284.857,229.045 z" id="boundary" inkscape:connector-curvature="0" />
	<path style="fill:none;stroke:red;stroke-width:1px;stroke-linecap:butt;stroke-linejoin:miter;stroke-opacity:1" d="M 284.857,13.0018 302.86,13.0018 z" id="boundary" inkscape:connector-curvature="0" />
	<path style="fill:none;stroke:red;stroke-width:1px;stroke-linecap:butt;stroke-linejoin:miter;stroke-opacity:1" d="M 284.857,86.8167 293.858,68.8131 z" id="boundary" inkscape:connector-curvature="0" />
	<path style="fill:none;stroke:red;stroke-width:1px;stroke-linecap:butt;stroke-linejoin:miter;stroke-opacity:1" d="M 284.857,229.045 284.857,247.049 z" id="boundary" inkscape:connector-curvature="0" />
	<path style="fill:none;stroke:red;stroke-width:1px;stroke-linecap:butt;stroke-linejoin:miter;stroke-opacity:1" d="M 284.857,247.049 301.06,256.051 z" id="boundary" inkscape:connector-curvature="0" />
	<path style="fill:none;stroke:red;stroke-width:1px;stroke-linecap:butt;stroke-linejoin:miter;stroke-opacity:1" d="M 288.457,364.073 304.661,373.074 z" id="boundary" inkscape:connector-curvature="0" />
	<path style="fill:none;stroke:red;stroke-width:1px;stroke-linecap:butt;stroke-linejoin:miter;stroke-opacity:1" d="M 293.858,68.8131 310.062,59.8113 z" id="boundary" inkscape:connector-curvature="0" />
	<path style="fill:none;stroke:red;stroke-width:1px;stroke-linecap:butt;stroke-linejoin:miter;stroke-opacity:1" d="M 301.06,256.051 319.064,259.652 z" id="boundary" inkscape:connector-curvature="0" />
	<path style="fill:none;stroke:red;stroke-width:1px;stroke-linecap:butt;stroke-linejoin:miter;stroke-opacity:1" d="M 302.86,13.0018 320.864,7.60073 z" id="boundary" inkscape:connector-curvature="0" />
	<path style="fill:none;stroke:red;stroke-width:1px;stroke-linecap:butt;stroke-linejoin:miter;stroke-opacity:1" d="M 304.661,373.074 322.664,374.875 z" id="boundary" inkscape:connector-curvature="0" />
	<path style="fill:none;stroke:red;stroke-width:1px;stroke-linecap:butt;stroke-linejoin:miter;stroke-opacity:1" d="M 310.062,59.8113 324.465,49.0091 z" id="boundary" inkscape:connector-curvature="0" />
	<path style="fill:none;stroke:red;stroke-width:1px;stroke-linecap:butt;stroke-linejoin:miter;stroke-opacity:1" d="M 319.064,259.652 329.866,274.054 z" id="boundary" inkscape:connector-curvature="0" />
	<path style="fill:none;stroke:red;stroke-width:1px;stroke-linecap:butt;stroke-linejoin:miter;stroke-opacity:1" d="M 320.864,7.60073 338.868,7.60073 z" id="boundary" inkscape:connector-curvature="0" />
	<path style="fill:none;stroke:red;stroke-width:1px;stroke-linecap:butt;stroke-linejoin:miter;stroke-opacity:1" d="M 322.664,374.875 338.868,383.877 z" id="boundary" inkscape:connector-curvature="0" />
	<path style="fill:none;stroke:red;stroke-width:1px;stroke-linecap:butt;stroke-linejoin:miter;stroke-opacity:1" d="M 324.465,49.0091 333.466,32.8058 z" id="boundary" inkscape:connector-curvature="0" />
	<path style="fill:none;stroke:red;stroke-width:1px;stroke-linecap:butt;stroke-linejoin:miter;stroke-opacity:1" d="M 329.866,274.054 347.869,270.454 z" id="boundary" inkscape:connector-curvature="0" />
	<path style="fill:none;stroke:red;stroke-width:1px;stroke-linecap:butt;stroke-linejoin:miter;stroke-opacity:1" d="M 333.466,32.8058 349.67,23.804 z" id="boundary" inkscape:connector-curvature="0" />
	<path style="fill:none;stroke:red;stroke-width:1px;stroke-linecap:butt;stroke-linejoin:miter;stroke-opacity:1" d="M 338.868,7.60073 356.871,4 z" id="boundary" inkscape:connector-curvature="0" />
	<path style="fill:none;stroke:red;stroke-width:1px;stroke-linecap:butt;stroke-linejoin:miter;stroke-opacity:1" d="M 338.868,383.877 356.871,383.877 z" id="boundary" inkscape:connector-curvature="0" />
	<path style="fill:none;stroke:red;stroke-width:1px;stroke-linecap:butt;stroke-linejoin:miter;stroke-opacity:1" d="M 347.869,270.454 364.073,279.456 z" id="boundary" inkscape:connector-curvature="0" />
	<path style="fill:none;stroke:red;stroke-width:1px;stroke-linecap:butt;stroke-linejoin:miter;stroke-opacity:1" d="M 356.871,383.877 373.074,392.878 z" id="boundary" inkscape:connector-curvature="0" />
	<path style="fill:none;stroke:red;stroke-width:1px;stroke-linecap:butt;stroke-linejoin:miter;stroke-opacity:1" d="M 364.073,279.456 382.076,283.056 z" id="boundary" inkscape:connector-curvature="0" />
	<path style="fill:none;stroke:red;stroke-width:1px;stroke-linecap:butt;stroke-linejoin:miter;stroke-opacity:1" d="M 373.074,392.878 389.278,401.88 z" id="boundary" inkscape:connector-curvature="0" />
	<path style="fill:none;stroke:red;stroke-width:1px;stroke-linecap:butt;stroke-linejoin:miter;stroke-opacity:1" d="M 382.076,283.056 398.279,292.058 z" id="boundary" inkscape:connector-curvature="0" />
	<path style="fill:none;stroke:red;stroke-width:1px;stroke-linecap:butt;stroke-linejoin:miter;stroke-opacity:1" d="M 389.278,401.88 407.281,401.88 z" id="boundary" inkscape:connector-curvature="0" />
	<path style="fill:none;stroke:red;stroke-width:1px;stroke-linecap:butt;stroke-linejoin:miter;stroke-opacity:1" d="M 398.279,292.058 414.483,301.06 z" id="boundary" inkscape:connector-curvature="0" />
	<path style="fill:none;stroke:red;stroke-width:1px;stroke-linecap:butt;stroke-linejoin:miter;stroke-opacity:1" d="M 407.281,401.88 423.485,410.882 z" id="boundary" inkscape:connector-curvature="0" />
	<path style="fill:none;stroke:red;stroke-width:1px;stroke-linecap:butt;stroke-linejoin:miter;stroke-opacity:1" d="M 414.483,301.06 432.486,301.06 z" id="boundary" inkscape:connector-curvature="0" />
	<path style="fill:none;stroke:red;stroke-width:1px;stroke-linecap:butt;stroke-linejoin:miter;stroke-opacity:1" d="M 423.485,410.882 441.488,418.083 z" id="boundary" inkscape:connector-curvature="0" />
	<path style="fill:none;stroke:red;stroke-width:1px;stroke-linecap:butt;stroke-linejoin:miter;stroke-opacity:1" d="M 432.486,301.06 448.69,310.062 z" id="boundary" inkscape:connector-curvature="0" />
	<path style="fill:none;stroke:red;stroke-width:1px;stroke-linecap:butt;stroke-linejoin:miter;stroke-opacity:1" d="M 441.488,418.083 457.691,427.085 z" id="boundary" inkscape:connector-curvature="0" />
	<path style="fill:none;stroke:red;stroke-width:1px;stroke-linecap:butt;stroke-linejoin:miter;stroke-opacity:1" d="M 448.69,310.062 464.893,319.064 z" id="boundary" inkscape:connector-curvature="0" />
	<path style="fill:none;stroke:red;stroke-width:1px;stroke-linecap:butt;stroke-linejoin:miter;stroke-opacity:1" d="M 457.691,427.085 475.695,434.287 z" id="boundary" inkscape:connector-curvature="0" />
	<path style="fill:none;stroke:red;stroke-width:1px;stroke-linecap:butt;stroke-linejoin:miter;stroke-opacity:1" d="M 464.893,319.064 482.897,324.465 z" id="boundary" inkscape:connector-curvature="0" />
	<path style="fill:none;stroke:red;stroke-width:1px;stroke-linecap:butt;stroke-linejoin:miter;stroke-opacity:1" d="M 475.695,434.287 493.699,437.887 z" id="boundary" inkscape:connector-curvature="0" />
	<path style="fill:none;stroke:red;stroke-width:1px;stroke-linecap:butt;stroke-linejoin:miter;stroke-opacity:1" d="M 482.897,324.465 500.9,328.065 z" id="boundary" inkscape:connector-curvature="0" />
	<path style="fill:none;stroke:red;stroke-width:1px;stroke-linecap:butt;stroke-linejoin:miter;stroke-opacity:1" d="M 493.699,437.887 511.702,443.289 z" id="boundary" inkscape:connector-curvature="0" />
	<path style="fill:none;stroke:red;stroke-width:1px;stroke-linecap:butt;stroke-linejoin:miter;stroke-opacity:1" d="M 500.9,328.065 518.904,333.466 z" id="boundary" inkscape:connector-curvature="0" />
	<path style="fill:none;stroke:red;stroke-width:1px;stroke-linecap:butt;stroke-linejoin:miter;stroke-opacity:1" d="M 511.702,443.289 527.906,452.29 z" id="boundary" inkscape:connector-curvature="0" />
	<path style="fill:none;stroke:red;stroke-width:1px;stroke-linecap:butt;stroke-linejoin:miter;stroke-opacity:1" d="M 518.904,333.466 535.107,342.468 z" id="boundary" inkscape:connector-curvature="0" />
	<path style="fill:none;stroke:red;stroke-width:1px;stroke-linecap:butt;stroke-linejoin:miter;stroke-opacity:1" d="M 527.906,452.29 545.909,455.891 z" id="boundary" inkscape:connector-curvature="0" />
	<path style="fill:none;stroke:red;stroke-width:1px;stroke-linecap:butt;stroke-linejoin:miter;stroke-opacity:1" d="M 535.107,342.468 553.111,346.069 z" id="boundary" inkscape:connector-curvature="0" />
	<path style="fill:none;stroke:red;stroke-width:1px;stroke-linecap:butt;stroke-linejoin:miter;stroke-opacity:1" d="M 545.909,455.891 563.913,459.492 z" id="boundary" inkscape:connector-curvature="0" />
	<path style="fill:none;stroke:red;stroke-width:1px;stroke-linecap:butt;stroke-linejoin:miter;stroke-opacity:1" d="M 553.111,346.069 569.314,355.071 z" id="boundary" inkscape:connector-curvature="0" />
	<path style="fill:none;stroke:red;stroke-width:1px;stroke-linecap:butt;stroke-linejoin:miter;stroke-opacity:1" d="M 563.913,459.492 580.116,468.494 z" id="boundary" inkscape:connector-curvature="0" />
	<path style="fill:none;stroke:red;stroke-width:1px;stroke-linecap:butt;stroke-linejoin:miter;stroke-opacity:1" d="M 569.314,355.071 585.517,364.073 z" id="boundary" inkscape:connector-curvature="0" />
	<path style="fill:none;stroke:red;stroke-width:1px;stroke-linecap:butt;stroke-linejoin:miter;stroke-opacity:1" d="M 580.116,468.494 598.12,473.895 z" id="boundary" inkscape:connector-curvature="0" />
	<path style="fill:none;stroke:red;stroke-width:1px;stroke-linecap:butt;stroke-linejoin:miter;stroke-opacity:1" d="M 585.517,364.073 603.521,364.073 z" id="boundary" inkscape:connector-curvature="0" />
	<path style="fill:none;stroke:red;stroke-width:1px;stroke-linecap:butt;stroke-linejoin:miter;stroke-opacity:1" d="M 598.12,473.895 614.323,482.897 z" id="boundary" inkscape:connector-curvature="0" />
	<path style="fill:none;stroke:red;stroke-width:1px;stroke-linecap:butt;stroke-linejoin:miter;stroke-opacity:1" d="M 603.521,364.073 619.724,373.074 z" id="boundary" inkscape:connector-curvature="0" />
	<path style="fill:none;stroke:red;stroke-width:1px;stroke-linecap:butt;stroke-linejoin:miter;stroke-opacity:1" d="M 614.323,482.897 632.327,482.897 z" id="boundary" inkscape:connector-curvature="0" />
	<path style="fill:none;stroke:red;stroke-width:1px;stroke-linecap:butt;stroke-linejoin:miter;stroke-opacity:1" d="M 619.724,373.074 635.927,382.076 z" id="boundary" inkscape:connector-curvature="0" />
	<path style="fill:none;stroke:red;stroke-width:1px;stroke-linecap:butt;stroke-linejoin:miter;stroke-opacity:1" d="M 632.327,482.897 648.53,491.898 z" id="boundary" inkscape:connector-curvature="0" />
	<path style="fill:none;stroke:red;stroke-width:1px;stroke-linecap:butt;stroke-linejoin:miter;stroke-opacity:1" d="M 635.927,382.076 653.931,382.076 z" id="boundary" inkscape:connector-curvature="0" />
	<path style="fill:none;stroke:red;stroke-width:1px;stroke-linecap:butt;stroke-linejoin:miter;stroke-opacity:1" d="M 648.53,491.898 664.733,500.9 z" id="boundary" inkscape:connector-curvature="0" />
	<path style="fill:none;stroke:red;stroke-width:1px;stroke-linecap:butt;stroke-linejoin:miter;stroke-opacity:1" d="M 653.931,382.076 670.134,391.078 z" id="boundary" inkscape:connector-curvature="0" />
	<path style="fill:none;stroke:red;stroke-width:1px;stroke-linecap:butt;stroke-linejoin:miter;stroke-opacity:1" d="M 664.733,500.9 682.737,506.301 z" id="boundary" inkscape:connector-curvature="0" />
	<path style="fill:none;stroke:red;stroke-width:1px;stroke-linecap:butt;stroke-linejoin:miter;stroke-opacity:1" d="M 670.134,391.078 688.138,394.679 z" id="boundary" inkscape:connector-curvature="0" />
	<path style="fill:none;stroke:red;stroke-width:1px;stroke-linecap:butt;stroke-linejoin:miter;stroke-opacity:1" d="M 682.737,506.301 700.74,509.902 z" id="boundary" inkscape:connector-curvature="0" />
	<path style="fill:none;stroke:red;stroke-width:1px;stroke-linecap:butt;stroke-linejoin:miter;stroke-opacity:1" d="M 688.138,394.679 706.142,400.08 z" id="boundary" inkscape:connector-curvature="0" />
	<path style="fill:none;stroke:red;stroke-width:1px;stroke-linecap:butt;stroke-linejoin:miter;stroke-opacity:1" d="M 700.74,509.902 716.944,518.904 z" id="boundary" inkscape:connector-curvature="0" />
	<path style="fill:none;stroke:red;stroke-width:1px;stroke-linecap:butt;stroke-linejoin:miter;stroke-opacity:1" d="M 706.142,400.08 722.345,409.082 z" id="boundary" inkscape:connector-curvature="0" />
	<path style="fill:none;stroke:red;stroke-width:1px;stroke-linecap:butt;stroke-linejoin:miter;stroke-opacity:1" d="M 716.944,518.904 734.947,522.505 z" id="boundary" inkscape:connector-curvature="0" />
	<path style="fill:none;stroke:red;stroke-width:1px;stroke-linecap:butt;stroke-linejoin:miter;stroke-opacity:1" d="M 722.345,409.082 738.548,418.083 z" id="boundary" inkscape:connector-curvature="0" />
	<path style="fill:none;stroke:red;stroke-width:1px;stroke-linecap:butt;stroke-linejoin:miter;stroke-opacity:1" d="M 734.947,522.505 752.951,527.906 z" id="boundary" inkscape:connector-curvature="0" />
	<path style="fill:none;stroke:red;stroke-width:1px;stroke-linecap:butt;stroke-linejoin:miter;stroke-opacity:1" d="M 738.548,418.083 756.552,418.083 z" id="boundary" inkscape:connector-curvature="0" />
	<path style="fill:none;stroke:red;stroke-width:1px;stroke-linecap:butt;stroke-linejoin:miter;stroke-opacity:1" d="M 752.951,527.906 769.154,536.907 z" id="boundary" inkscape:connector-curvature="0" />
	<path style="fill:none;stroke:red;stroke-width:1px;stroke-linecap:butt;stroke-linejoin:miter;stroke-opacity:1" d="M 756.552,418.083 772.755,427.085 z" id="boundary" inkscape:connector-curvature="0" />
	<path style="fill:none;stroke:red;stroke-width:1px;stroke-linecap:butt;stroke-linejoin:miter;stroke-opacity:1" d="M 769.154,536.907 785.358,545.909 z" id="boundary" inkscape:connector-curvature="0" />
	<path style="fill:none;stroke:red;stroke-width:1px;stroke-linecap:butt;stroke-linejoin:miter;stroke-opacity:1" d="M 772.755,427.085 788.958,436.087 z" id="boundary" inkscape:connector-curvature="0" />
	<path style="fill:none;stroke:red;stroke-width:1px;stroke-linecap:butt;stroke-linejoin:miter;stroke-opacity:1" d="M 785.358,545.909 803.361,545.909 z" id="boundary" inkscape:connector-curvature="0" />
	<path style="fill:none;stroke:red;stroke-width:1px;stroke-linecap:butt;stroke-linejoin:miter;stroke-opacity:1" d="M 788.958,436.087 806.962,441.488 z" id="boundary" inkscape:connector-curvature="0" />
	<path style="fill:none;stroke:red;stroke-width:1px;stroke-linecap:butt;stroke-linejoin:miter;stroke-opacity:1" d="M 803.361,545.909 819.564,554.911 z" id="boundary" inkscape:connector-curvature="0" />
	<path style="fill:none;stroke:red;stroke-width:1px;stroke-linecap:butt;stroke-linejoin:miter;stroke-opacity:1" d="M 806.962,441.488 824.966,445.089 z" id="boundary" inkscape:connector-curvature="0" />
	<path style="fill:none;stroke:red;stroke-width:1px;stroke-linecap:butt;stroke-linejoin:miter;stroke-opacity:1" d="M 819.564,554.911 835.768,563.913 z" id="boundary" inkscape:connector-curvature="0" />
	<path style="fill:none;stroke:red;stroke-width:1px;stroke-linecap:butt;stroke-linejoin:miter;stroke-opacity:1" d="M 824.966,445.089 841.169,454.091 z" id="boundary" inkscape:connector-curvature="0" />
	<path style="fill:none;stroke:red;stroke-width:1px;stroke-linecap:butt;stroke-linejoin:miter;stroke-opacity:1" d="M 835.768,563.913 853.771,563.913 z" id="boundary" inkscape:connector-curvature="0" />
	<path style="fill:none;stroke:red;stroke-width:1px;stroke-linecap:butt;stroke-linejoin:miter;stroke-opacity:1" d="M 841.169,454.091 859.172,454.091 z" id="boundary" inkscape:connector-curvature="0" />
	<path style="fill:none;stroke:red;stroke-width:1px;stroke-linecap:butt;stroke-linejoin:miter;stroke-opacity:1" d="M 853.771,563.913 869.975,572.915 z" id="boundary" inkscape:connector-curvature="0" />
	<path style="fill:none;stroke:red;stroke-width:1px;stroke-linecap:butt;stroke-linejoin:miter;stroke-opacity:1" d="M 859.172,454.091 873.575,464.893 z" id="boundary" inkscape:connector-curvature="0" />
	<path style="fill:none;stroke:red;stroke-width:1px;stroke-linecap:butt;stroke-linejoin:miter;stroke-opacity:1" d="M 869.975,572.915 886.178,581.917 z" id="boundary" inkscape:connector-curvature="0" />
	<path style="fill:none;stroke:red;stroke-width:1px;stroke-linecap:butt;stroke-linejoin:miter;stroke-opacity:1" d="M 873.575,464.893 891.579,472.094 z" id="boundary" inkscape:connector-curvature="0" />
	<path style="fill:none;stroke:red;stroke-width:1px;stroke-linecap:butt;stroke-linejoin:miter;stroke-opacity:1" d="M 886.178,581.917 904.181,581.917 z" id="boundary" inkscape:connector-curvature="0" />
	<path style="fill:none;stroke:red;stroke-width:1px;stroke-linecap:butt;stroke-linejoin:miter;stroke-opacity:1" d="M 891.579,472.094 909.583,472.094 z" id="boundary" inkscape:connector-curvature="0" />
	<path style="fill:none;stroke:red;stroke-width:1px;stroke-linecap:butt;stroke-linejoin:miter;stroke-opacity:1" d="M 904.181,581.917 920.385,590.918 z" id="boundary" inkscape:connector-curvature="0" />
	<path style="fill:none;stroke:red;stroke-width:1px;stroke-linecap:butt;stroke-linejoin:miter;stroke-opacity:1" d="M 909.583,472.094 925.786,481.096 z" id="boundary" inkscape:connector-curvature="0" />
	<path style="fill:none;stroke:red;stroke-width:1px;stroke-linecap:butt;stroke-linejoin:miter;stroke-opacity:1" d="M 920.385,590.918 936.588,599.92 z" id="boundary" inkscape:connector-curvature="0" />
	<path style="fill:none;stroke:red;stroke-width:1px;stroke-linecap:butt;stroke-linejoin:miter;stroke-opacity:1" d="M 925.786,481.096 941.989,490.098 z" id="boundary" inkscape:connector-curvature="0" />
	<path style="fill:none;stroke:red;stroke-width:1px;stroke-linecap:butt;stroke-linejoin:miter;stroke-opacity:1" d="M 936.588,599.92 954.592,607.122 z" id="boundary" inkscape:connector-curvature="0" />
	<path style="fill:none;stroke:red;stroke-width:1px;stroke-linecap:butt;stroke-linejoin:miter;stroke-opacity:1" d="M 941.989,490.098 958.192,499.1 z" id="boundary" inkscape:connector-curvature="0" />
	<path style="fill:none;stroke:red;stroke-width:1px;stroke-linecap:butt;stroke-linejoin:miter;stroke-opacity:1" d="M 954.592,607.122 972.595,607.122 z" id="boundary" inkscape:connector-curvature="0" />
	<path style="fill:none;stroke:red;stroke-width:1px;stroke-linecap:butt;stroke-linejoin:miter;stroke-opacity:1" d="M 958.192,499.1 976.196,502.701 z" id="boundary" inkscape:connector-curvature="0" />
	<path style="fill:none;stroke:red;stroke-width:1px;stroke-linecap:butt;stroke-linejoin:miter;stroke-opacity:1" d="M 972.595,607.122 977.996,581.917 z" id="boundary" inkscape:connector-curvature="0" />
	<path style="fill:none;stroke:red;stroke-width:1px;stroke-linecap:butt;stroke-linejoin:miter;stroke-opacity:1" d="M 976.196,502.701 994.2,508.102 z" id="boundary" inkscape:connector-curvature="0" />
	<path style="fill:none;stroke:red;stroke-width:1px;stroke-linecap:butt;stroke-linejoin:miter;stroke-opacity:1" d="M 977.996,581.917 986.998,554.911 z" id="boundary" inkscape:connector-curvature="0" />
	<path style="fill:none;stroke:red;stroke-width:1px;stroke-linecap:butt;stroke-linejoin:miter;stroke-opacity:1" d="M 986.998,554.911 996,527.906 z" id="boundary" inkscape:connector-curvature="0" />
	<path style="fill:none;stroke:red;stroke-width:1px;stroke-linecap:butt;stroke-linejoin:miter;stroke-opacity:1" d="M 994.2,508.102 996,527.906 z" id="boundary" inkscape:connector-curvature="0" />
	<circle cx="4" cy="423.485" r="4" fill="#0" id="circle0"/>
	<circle cx="4" cy="441.488" r="4" fill="#0" id="circle1"/>
	<circle cx="13.0018" cy="396.479" r="4" fill="#0" id="circle2"/>
	<circle cx="14.8022" cy="455.891" r="4" fill="#0" id="circle3"/>
	<circle cx="22.0036" cy="378.475" r="4" fill="#0" id="circle4"/>
	<circle cx="31.0054" cy="351.47" r="4" fill="#0" id="circle5"/>
	<circle cx="32.8058" cy="459.492" r="4" fill="#0" id="circle6"/>
	<circle cx="40.0073" cy="324.465" r="4" fill="#0" id="circle7"/>
	<circle cx="49.0091" cy="468.494" r="4" fill="#0" id="circle8"/>
	<circle cx="54.4102" cy="310.062" r="4" fill="#0" id="circle9"/>
	<circle cx="67.0127" cy="270.454" r="4" fill="#0" id="circle10"/>
	<circle cx="67.0127" cy="473.895" r="4" fill="#0" id="circle11"/>
	<circle cx="68.8131" cy="295.659" r="4" fill="#0" id="circle12"/>
	<circle cx="70.6134" cy="319.064" r="4" fill="#0" id="circle13"/>
	<circle cx="76.0145" cy="243.448" r="4" fill="#0" id="circle14"/>
	<circle cx="83.216" cy="482.897" r="4" fill="#0" id="circle15"/>
	<circle cx="85.0163" cy="216.443" r="4" fill="#0" id="circle16"/>
	<circle cx="94.0181" cy="189.437" r="4" fill="#0" id="circle17"/>
	<circle cx="101.22" cy="482.897" r="4" fill="#0" id="circle18"/>
	<circle cx="112.022" cy="162.432" r="4" fill="#0" id="circle19"/>
	<circle cx="112.022" cy="180.436" r="4" fill="#0" id="circle20"/>
	<circle cx="117.423" cy="491.898" r="4" fill="#0" id="circle21"/>
	<circle cx="121.024" cy="135.426" r="4" fill="#0" id="circle22"/>
	<circle cx="133.626" cy="500.9" r="4" fill="#0" id="circle23"/>
	<circle cx="139.027" cy="126.425" r="4" fill="#0" id="circle24"/>
	<circle cx="148.029" cy="108.421" r="4" fill="#0" id="circle25"/>
	<circle cx="151.63" cy="506.301" r="4" fill="#0" id="circle26"/>
	<circle cx="162.432" cy="94.0181" r="4" fill="#0" id="circle27"/>
	<circle cx="169.633" cy="509.902" r="4" fill="#0" id="circle28"/>
	<circle cx="176.835" cy="79.6152" r="4" fill="#0" id="circle29"/>
	<circle cx="185.837" cy="518.904" r="4" fill="#0" id="circle30"/>
	<circle cx="191.238" cy="67.0127" r="4" fill="#0" id="circle31"/>
	<circle cx="203.84" cy="52.6098" r="4" fill="#0" id="circle32"/>
	<circle cx="203.84" cy="491.898" r="4" fill="#0" id="circle33"/>
	<circle cx="203.84" cy="509.902" r="4" fill="#0" id="circle34"/>
	<circle cx="212.842" cy="464.893" r="4" fill="#0" id="circle35"/>
	<circle cx="218.243" cy="40.0073" r="4" fill="#0" id="circle36"/>
	<circle cx="221.844" cy="365.873" r="4" fill="#0" id="circle37"/>
	<circle cx="221.844" cy="437.887" r="4" fill="#0" id="circle38"/>
	<circle cx="230.846" cy="410.882" r="4" fill="#0" id="circle39"/>
	<circle cx="234.446" cy="31.0054" r="4" fill="#0" id="circle40"/>
	<circle cx="236.247" cy="353.27" r="4" fill="#0" id="circle41"/>
	<circle cx="236.247" cy="376.675" r="4" fill="#0" id="circle42"/>
	<circle cx="239.848" cy="394.679" r="4" fill="#0" id="circle43"/>
	<circle cx="250.65" cy="22.0036" r="4" fill="#0" id="circle44"/>
	<circle cx="254.25" cy="347.869" r="4" fill="#0" id="circle45"/>
	<circle cx="266.853" cy="140.828" r="4" fill="#0" id="circle46"/>
	<circle cx="266.853" cy="158.831" r="4" fill="#0" id="circle47"/>
	<circle cx="266.853" cy="176.835" r="4" fill="#0" id="circle48"/>
	<circle cx="268.653" cy="22.0036" r="4" fill="#0" id="circle49"/>
	<circle cx="270.454" cy="194.838" r="4" fill="#0" id="circle50"/>
	<circle cx="270.454" cy="356.871" r="4" fill="#0" id="circle51"/>
	<circle cx="275.855" cy="113.822" r="4" fill="#0" id="circle52"/>
	<circle cx="275.855" cy="212.842" r="4" fill="#0" id="circle53"/>
	<circle cx="284.857" cy="13.0018" r="4" fill="#0" id="circle54"/>
	<circle cx="284.857" cy="86.8167" r="4" fill="#0" id="circle55"/>
	<circle cx="284.857" cy="229.045" r="4" fill="#0" id="circle56"/>
	<circle cx="284.857" cy="247.049" r="4" fill="#0" id="circle57"/>
	<circle cx="288.457" cy="364.073" r="4" fill="#0" id="circle58"/>
	<circle cx="293.858" cy="68.8131" r="4" fill="#0" id="circle59"/>
	<circle cx="301.06" cy="256.051" r="4" fill="#0" id="circle60"/>
	<circle cx="302.86" cy="13.0018" r="4" fill="#0" id="circle61"/>
	<circle cx="304.661" cy="373.074" r="4" fill="#0" id="circle62"/>
	<circle cx="310.062" cy="59.8113" r="4" fill="#0" id="circle63"/>
	<circle cx="319.064" cy="259.652" r="4" fill="#0" id="circle64"/>
	<circle cx="320.864" cy="7.60073" r="4" fill="#0" id="circle65"/>
	<circle cx="322.664" cy="374.875" r="4" fill="#0" id="circle66"/>
	<circle cx="324.465" cy="49.0091" r="4" fill="#0" id="circle67"/>
	<circle cx="329.866" cy="274.054" r="4" fill="#0" id="circle68"/>
	<circle cx="333.466" cy="32.8058" r="4" fill="#0" id="circle69"/>
	<circle cx="338.868" cy="7.60073" r="4" fill="#0" id="circle70"/>
	<circle cx="338.868" cy="383.877" r="4" fill="#0" id="circle71"/>
	<circle cx="347.869" cy="270.454" r="4" fill="#0" id="circle72"/>
	<circle cx="349.67" cy="23.804" r="4" fill="#0" id="circle73"/>
	<circle cx="356.871" cy="4" r="4" fill="#0" id="circle74"/>
	<circle cx="356.871" cy="383.877" r="4" fill="#0" id="circle75"/>
	<circle cx="364.073" cy="279.456" r="4" fill="#0" id="circle76"/>
	<circle cx="373.074" cy="392.878" r="4" fill="#0" id="circle77"/>
	<circle cx="382.076" cy="283.056" r="4" fill="#0" id="circle78"/>
	<circle cx="389.278" cy="401.88" r="4" fill="#0" id="circle79"/>
	<circle cx="398.279" cy="292.058" r="4" fill="#0" id="circle80"/>
	<circle cx="407.281" cy="401.88" r="4" fill="#0" id="circle81"/>
	<circle cx="414.483" cy="301.06" r="4" fill="#0" id="circle82"/>
	<circle cx="423.485" cy="410.882" r="4" fill="#0" id="circle83"/>
	<circle cx="432.486" cy="301.06" r="4" fill="#0" id="circle84"/>
	<circle cx="441.488" cy="418.083" r="4" fill="#0" id="circle85"/>
	<circle cx="448.69" cy="310.062" r="4" fill="#0" id="circle86"/>
	<circle cx="457.691" cy="427.085" r="4" fill="#0" id="circle87"/>
	<circle cx="464.893" cy="319.064" r="4" fill="#0" id="circle88"/>
	<circle cx="475.695" cy="434.287" r="4" fill="#0" id="circle89"/>
	<circle cx="482.897" cy="324.465" r="4" fill="#0" id="circle90"/>
	<circle cx="493.699" cy="437.887" r="4" fill="#0" id="circle91"/>
	<circle cx="500.9" cy="328.065" r="4" fill="#0" id="circle92"/>
	<circle cx="511.702" cy="443.289" r="4" fill="#0" id="circle93"/>
	<circle cx="518.904" cy="333.466" r="4" fill="#0" id="circle94"/>
	<circle cx="527.906" cy="452.29" r="4" fill="#0" id="circle95"/>
	<circle cx="535.107" cy="342.468" r="4" fill="#0" id="circle96"/>
	<circle cx="545.909" cy="455.891" r="4" fill="#0" id="circle97"/>
	<circle cx="553.111" cy="346.069" r="4" fill="#0" id="circle98"/>
	<circle cx="563.913" cy="459.492" r="4" fill="#0" id="circle99"/>
	<circle cx="569.314" cy="355.071" r="4" fill="#0" id="circle100"/>
	<circle cx="580.116" cy="468.494" r="4" fill="#0" id="circle101"/>
	<circle cx="585.517" cy="364.073" r="4" fill="#0" id="circle102"/>
	<circle cx="598.12" cy="473.895" r="4" fill="#0" id="circle103"/>
	<circle cx="603.521" cy="364.073" r="4" fill="#0" id="circle104"/>
	<circle cx="614.323" cy="482.897" r="4" fill="#0" id="circle105"/>
	<circle cx="619.724" cy="373.074" r="4" fill="#0" id="circle106"/>
	<circle cx="632.327" cy="482.897" r="4" fill="#0" id="circle107"/>
	<circle cx="635.927" cy="382.076" r="4" fill="#0" id="circle108"/>
	<circle cx="648.53" cy="491.898" r="4" fill="#0" id="circle109"/>
	<circle cx="653.931" cy="382.076" r="4" fill="#0" id="circle110"/>
	<circle cx="664.733" cy="500.9" r="4" fill="#0" id="circle111"/>
	<circle cx="670.134" cy="391.078" r="4" fill="#0" id="circle112"/>
	<circle cx="682.737" cy="506.301" r="4" fill="#0" id="circle113"/>
	<circle cx="688.138" cy="394.679" r="4" fill="#0" id="circle114"/>
	<circle cx="700.74" cy="509.902" r="4" fill="#0" id="circle115"/>
	<circle cx="706.142" cy="400.08" r="4" fill="#0" id="circle116"/>
	<circle cx="716.944" cy="518.904" r="4" fill="#0" id="circle117"/>
	<circle cx="722.345" cy="409.082" r="4" fill="#0" id="circle118"/>
	<circle cx="734.947" cy="522.505" r="4" fill="#0" id="circle119"/>
	<circle cx="738.548" cy="418.083" r="4" fill="#0" id="circle120"/>
	<circle cx="752.951" cy="527.906" r="4" fill="#0" id="circle121"/>
	<circle cx="756.552" cy="418.083" r="4" fill="#0" id="circle122"/>
	<circle cx="769.154" cy="536.907" r="4" fill="#0" id="circle123"/>
	<circle cx="772.755" cy="427.085" r="4" fill="#0" id="circle124"/>
	<circle cx="785.358" cy="545.909" r="4" fill="#0" id="circle125"/>
	<circle cx="788.958" cy="436.087" r="4" fill="#0" id="circle126"/>
	<circle cx="803.361" cy="545.909" r="4" fill="#0" id="circle127"/>
	<circle cx="806.962" cy="441.488" r="4" fill="#0" id="circle128"/>
	<circle cx="819.564" cy="554.911" r="4" fill="#0" id="circle129"/>
	<circle cx="824.966" cy="445.089" r="4" fill="#0" id="circle130"/>
	<circle cx="835.768" cy="563.913" r="4" fill="#0" id="circle131"/>
	<circle cx="841.169" cy="454.091" r="4" fill="#0" id="circle132"/>
	<circle cx="853.771" cy="563.913" r="4" fill="#0" id="circle133"/>
	<circle cx="859.172" cy="454.091" r="4" fill="#0" id="circle134"/>
	<circle cx="869.975" cy="572.915" r="4" fill="#0" id="circle135"/>
	<circle cx="873.575" cy="464.893" r="4" fill="#0" id="circle136"/>
	<circle cx="886.178" cy="581.917" r="4" fill="#0" id="circle137"/>
	<circle cx="891.579" cy="472.094" r="4" fill="#0" id="circle138"/>
	<circle cx="904.181" cy="581.917" r="4" fill="#0" id="circle139"/>
	<circle cx="909.583" cy="472.094" r="4" fill="#0" id="circle140"/>
	<circle cx="920.385" cy="590.918" r="4" fill="#0" id="circle141"/>
	<circle cx="925.786" cy="481.096" r="4" fill="#0" id="circle142"/>
	<circle cx="936.588" cy="599.92" r="4" fill="#0" id="circle143"/>
	<circle cx="941.989" cy="490.098" r="4" fill="#0" id="circle144"/>
	<circle cx="954.592" cy="607.122" r="4" fill="#0" id="circle145"/>
	<circle cx="958.192" cy="499.1" r="4" fill="#0" id="circle146"/>
	<circle cx="972.595" cy="607.122" r="4" fill="#0" id="circle147"/>
	<circle cx="976.196" cy="502.701" r="4" fill="#0" id="circle148"/>
	<circle cx="977.996" cy="581.917" r="4" fill="#0" id="circle149"/>
	<circle cx="986.998" cy="554.911" r="4" fill="#0" id="circle150"/>
	<circle cx="994.2" cy="508.102" r="4" fill="#0" id="circle151"/>
	<circle cx="996" cy="527.906" r="4" fill="#0" id="circle152"/>
	</g>
</svg>