<?xml version="1.0" encoding="UTF-8" standalone="no"?>
<!-- Created with CurveBenchmark -->
<svg
	xmlns:dc="http://purl.org/dc/elements/1.1/"
	xmlns:cc="http://creativecommons.org/ns#"
	xmlns:rdf="http://www.w3.org/1999/02/22-rdf-syntax-ns#"
	xmlns:svg="http://www.w3.org/2000/svg"
	xmlns="http://www.w3.org/2000/svg"
	xmlns:sodipodi="http://sodipodi.sourceforge.net/DTD/sodipodi-0.dtd"
	xmlns:inkscape="http://www.inkscape.org/namespaces/inkscape"
	width="1000"
	height="1000"
	id="svg2"
	version="1.1"
	sodipodi:docname="manifold/hnncrust-teddy140.png.txt">
<defs
	id="defs4" />
<metadata
	id="metadata7">
	<rdf:RDF>
		<cc:Work
			rdf:about="">
			<dc:format>image/svg+xml</dc:format>
			<dc:type
				rdf:resource="http://purl.org/dc/dcmitype/StillImage" />
			<dc:title></dc:title>
		</cc:Work>
	</rdf:RDF>
</metadata>
<g
	inkscape:label="Layer 1"
	inkscape:groupmode="layer"
	id="layer1">
	<path style="fill:none;stroke:red;stroke-width:1px;stroke-linecap:butt;stroke-linejoin:miter;stroke-opacity:1" d="M 4,224.444 4,252.707 z" id="boundary" inkscape:connector-curvature="0" />
	<path style="fill:none;stroke:red;stroke-width:1px;stroke-linecap:butt;stroke-linejoin:miter;stroke-opacity:1" d="M 4,224.444 9.65242,190.53 z" id="boundary" inkscape:connector-curvature="0" />
	<path style="fill:none;stroke:red;stroke-width:1px;stroke-linecap:butt;stroke-linejoin:miter;stroke-opacity:1" d="M 4,252.707 4,280.969 z" id="boundary" inkscape:connector-curvature="0" />
	<path style="fill:none;stroke:red;stroke-width:1px;stroke-linecap:butt;stroke-linejoin:miter;stroke-opacity:1" d="M 4,280.969 12.4786,309.231 z" id="boundary" inkscape:connector-curvature="0" />
	<path style="fill:none;stroke:red;stroke-width:1px;stroke-linecap:butt;stroke-linejoin:miter;stroke-opacity:1" d="M 9.65242,190.53 20.9573,156.615 z" id="boundary" inkscape:connector-curvature="0" />
	<path style="fill:none;stroke:red;stroke-width:1px;stroke-linecap:butt;stroke-linejoin:miter;stroke-opacity:1" d="M 12.4786,309.231 26.6097,334.667 z" id="boundary" inkscape:connector-curvature="0" />
	<path style="fill:none;stroke:red;stroke-width:1px;stroke-linecap:butt;stroke-linejoin:miter;stroke-opacity:1" d="M 20.9573,156.615 35.0883,131.179 z" id="boundary" inkscape:connector-curvature="0" />
	<path style="fill:none;stroke:red;stroke-width:1px;stroke-linecap:butt;stroke-linejoin:miter;stroke-opacity:1" d="M 26.6097,334.667 43.567,357.276 z" id="boundary" inkscape:connector-curvature="0" />
	<path style="fill:none;stroke:red;stroke-width:1px;stroke-linecap:butt;stroke-linejoin:miter;stroke-opacity:1" d="M 35.0883,131.179 52.0456,108.57 z" id="boundary" inkscape:connector-curvature="0" />
	<path style="fill:none;stroke:red;stroke-width:1px;stroke-linecap:butt;stroke-linejoin:miter;stroke-opacity:1" d="M 43.567,357.276 57.698,382.712 z" id="boundary" inkscape:connector-curvature="0" />
	<path style="fill:none;stroke:red;stroke-width:1px;stroke-linecap:butt;stroke-linejoin:miter;stroke-opacity:1" d="M 52.0456,108.57 74.6553,85.9601 z" id="boundary" inkscape:connector-curvature="0" />
	<path style="fill:none;stroke:red;stroke-width:1px;stroke-linecap:butt;stroke-linejoin:miter;stroke-opacity:1" d="M 54.8718,580.547 54.8718,608.809 z" id="boundary" inkscape:connector-curvature="0" />
	<path style="fill:none;stroke:red;stroke-width:1px;stroke-linecap:butt;stroke-linejoin:miter;stroke-opacity:1" d="M 54.8718,580.547 60.5242,529.675 z" id="boundary" inkscape:connector-curvature="0" />
	<path style="fill:none;stroke:red;stroke-width:1px;stroke-linecap:butt;stroke-linejoin:miter;stroke-opacity:1" d="M 54.8718,608.809 54.8718,637.071 z" id="boundary" inkscape:connector-curvature="0" />
	<path style="fill:none;stroke:red;stroke-width:1px;stroke-linecap:butt;stroke-linejoin:miter;stroke-opacity:1" d="M 54.8718,637.071 54.8718,665.333 z" id="boundary" inkscape:connector-curvature="0" />
	<path style="fill:none;stroke:red;stroke-width:1px;stroke-linecap:butt;stroke-linejoin:miter;stroke-opacity:1" d="M 54.8718,665.333 54.8718,693.595 z" id="boundary" inkscape:connector-curvature="0" />
	<path style="fill:none;stroke:red;stroke-width:1px;stroke-linecap:butt;stroke-linejoin:miter;stroke-opacity:1" d="M 54.8718,693.595 54.8718,721.858 z" id="boundary" inkscape:connector-curvature="0" />
	<path style="fill:none;stroke:red;stroke-width:1px;stroke-linecap:butt;stroke-linejoin:miter;stroke-opacity:1" d="M 54.8718,721.858 54.8718,750.12 z" id="boundary" inkscape:connector-curvature="0" />
	<path style="fill:none;stroke:red;stroke-width:1px;stroke-linecap:butt;stroke-linejoin:miter;stroke-opacity:1" d="M 54.8718,750.12 54.8718,778.382 z" id="boundary" inkscape:connector-curvature="0" />
	<path style="fill:none;stroke:red;stroke-width:1px;stroke-linecap:butt;stroke-linejoin:miter;stroke-opacity:1" d="M 54.8718,778.382 66.1766,806.644 z" id="boundary" inkscape:connector-curvature="0" />
	<path style="fill:none;stroke:red;stroke-width:1px;stroke-linecap:butt;stroke-linejoin:miter;stroke-opacity:1" d="M 57.698,382.712 60.5242,416.627 z" id="boundary" inkscape:connector-curvature="0" />
	<path style="fill:none;stroke:red;stroke-width:1px;stroke-linecap:butt;stroke-linejoin:miter;stroke-opacity:1" d="M 60.5242,416.627 60.5242,444.889 z" id="boundary" inkscape:connector-curvature="0" />
	<path style="fill:none;stroke:red;stroke-width:1px;stroke-linecap:butt;stroke-linejoin:miter;stroke-opacity:1" d="M 60.5242,444.889 60.5242,473.151 z" id="boundary" inkscape:connector-curvature="0" />
	<path style="fill:none;stroke:red;stroke-width:1px;stroke-linecap:butt;stroke-linejoin:miter;stroke-opacity:1" d="M 60.5242,473.151 60.5242,501.413 z" id="boundary" inkscape:connector-curvature="0" />
	<path style="fill:none;stroke:red;stroke-width:1px;stroke-linecap:butt;stroke-linejoin:miter;stroke-opacity:1" d="M 60.5242,501.413 60.5242,529.675 z" id="boundary" inkscape:connector-curvature="0" />
	<path style="fill:none;stroke:red;stroke-width:1px;stroke-linecap:butt;stroke-linejoin:miter;stroke-opacity:1" d="M 66.1766,806.644 66.1766,834.906 z" id="boundary" inkscape:connector-curvature="0" />
	<path style="fill:none;stroke:red;stroke-width:1px;stroke-linecap:butt;stroke-linejoin:miter;stroke-opacity:1" d="M 66.1766,834.906 66.1766,863.168 z" id="boundary" inkscape:connector-curvature="0" />
	<path style="fill:none;stroke:red;stroke-width:1px;stroke-linecap:butt;stroke-linejoin:miter;stroke-opacity:1" d="M 66.1766,863.168 66.1766,891.43 z" id="boundary" inkscape:connector-curvature="0" />
	<path style="fill:none;stroke:red;stroke-width:1px;stroke-linecap:butt;stroke-linejoin:miter;stroke-opacity:1" d="M 66.1766,891.43 71.8291,919.692 z" id="boundary" inkscape:connector-curvature="0" />
	<path style="fill:none;stroke:red;stroke-width:1px;stroke-linecap:butt;stroke-linejoin:miter;stroke-opacity:1" d="M 71.8291,919.692 77.4815,947.954 z" id="boundary" inkscape:connector-curvature="0" />
	<path style="fill:none;stroke:red;stroke-width:1px;stroke-linecap:butt;stroke-linejoin:miter;stroke-opacity:1" d="M 74.6553,85.9601 100.091,71.8291 z" id="boundary" inkscape:connector-curvature="0" />
	<path style="fill:none;stroke:red;stroke-width:1px;stroke-linecap:butt;stroke-linejoin:miter;stroke-opacity:1" d="M 77.4815,947.954 91.6125,973.39 z" id="boundary" inkscape:connector-curvature="0" />
	<path style="fill:none;stroke:red;stroke-width:1px;stroke-linecap:butt;stroke-linejoin:miter;stroke-opacity:1" d="M 91.6125,973.39 119.875,984.695 z" id="boundary" inkscape:connector-curvature="0" />
	<path style="fill:none;stroke:red;stroke-width:1px;stroke-linecap:butt;stroke-linejoin:miter;stroke-opacity:1" d="M 100.091,71.8291 105.744,32.2621 z" id="boundary" inkscape:connector-curvature="0" />
	<path style="fill:none;stroke:red;stroke-width:1px;stroke-linecap:butt;stroke-linejoin:miter;stroke-opacity:1" d="M 105.744,32.2621 122.701,9.65242 z" id="boundary" inkscape:connector-curvature="0" />
	<path style="fill:none;stroke:red;stroke-width:1px;stroke-linecap:butt;stroke-linejoin:miter;stroke-opacity:1" d="M 119.875,984.695 148.137,996 z" id="boundary" inkscape:connector-curvature="0" />
	<path style="fill:none;stroke:red;stroke-width:1px;stroke-linecap:butt;stroke-linejoin:miter;stroke-opacity:1" d="M 122.701,9.65242 150.963,4 z" id="boundary" inkscape:connector-curvature="0" />
	<path style="fill:none;stroke:red;stroke-width:1px;stroke-linecap:butt;stroke-linejoin:miter;stroke-opacity:1" d="M 148.137,996 176.399,996 z" id="boundary" inkscape:connector-curvature="0" />
	<path style="fill:none;stroke:red;stroke-width:1px;stroke-linecap:butt;stroke-linejoin:miter;stroke-opacity:1" d="M 150.963,4 179.225,6.82621 z" id="boundary" inkscape:connector-curvature="0" />
	<path style="fill:none;stroke:red;stroke-width:1px;stroke-linecap:butt;stroke-linejoin:miter;stroke-opacity:1" d="M 176.399,996 204.661,990.348 z" id="boundary" inkscape:connector-curvature="0" />
	<path style="fill:none;stroke:red;stroke-width:1px;stroke-linecap:butt;stroke-linejoin:miter;stroke-opacity:1" d="M 179.225,6.82621 207.487,9.65242 z" id="boundary" inkscape:connector-curvature="0" />
	<path style="fill:none;stroke:red;stroke-width:1px;stroke-linecap:butt;stroke-linejoin:miter;stroke-opacity:1" d="M 204.661,990.348 232.923,990.348 z" id="boundary" inkscape:connector-curvature="0" />
	<path style="fill:none;stroke:red;stroke-width:1px;stroke-linecap:butt;stroke-linejoin:miter;stroke-opacity:1" d="M 207.487,9.65242 235.749,4 z" id="boundary" inkscape:connector-curvature="0" />
	<path style="fill:none;stroke:red;stroke-width:1px;stroke-linecap:butt;stroke-linejoin:miter;stroke-opacity:1" d="M 232.923,990.348 261.185,984.695 z" id="boundary" inkscape:connector-curvature="0" />
	<path style="fill:none;stroke:red;stroke-width:1px;stroke-linecap:butt;stroke-linejoin:miter;stroke-opacity:1" d="M 235.749,4 261.185,18.1311 z" id="boundary" inkscape:connector-curvature="0" />
	<path style="fill:none;stroke:red;stroke-width:1px;stroke-linecap:butt;stroke-linejoin:miter;stroke-opacity:1" d="M 261.185,18.1311 278.142,40.7407 z" id="boundary" inkscape:connector-curvature="0" />
	<path style="fill:none;stroke:red;stroke-width:1px;stroke-linecap:butt;stroke-linejoin:miter;stroke-opacity:1" d="M 261.185,984.695 289.447,984.695 z" id="boundary" inkscape:connector-curvature="0" />
	<path style="fill:none;stroke:red;stroke-width:1px;stroke-linecap:butt;stroke-linejoin:miter;stroke-opacity:1" d="M 278.142,40.7407 292.274,66.1766 z" id="boundary" inkscape:connector-curvature="0" />
	<path style="fill:none;stroke:red;stroke-width:1px;stroke-linecap:butt;stroke-linejoin:miter;stroke-opacity:1" d="M 289.447,984.695 317.709,979.043 z" id="boundary" inkscape:connector-curvature="0" />
	<path style="fill:none;stroke:red;stroke-width:1px;stroke-linecap:butt;stroke-linejoin:miter;stroke-opacity:1" d="M 292.274,66.1766 314.883,85.9601 z" id="boundary" inkscape:connector-curvature="0" />
	<path style="fill:none;stroke:red;stroke-width:1px;stroke-linecap:butt;stroke-linejoin:miter;stroke-opacity:1" d="M 314.883,85.9601 334.667,108.57 z" id="boundary" inkscape:connector-curvature="0" />
	<path style="fill:none;stroke:red;stroke-width:1px;stroke-linecap:butt;stroke-linejoin:miter;stroke-opacity:1" d="M 317.709,979.043 345.972,979.043 z" id="boundary" inkscape:connector-curvature="0" />
	<path style="fill:none;stroke:red;stroke-width:1px;stroke-linecap:butt;stroke-linejoin:miter;stroke-opacity:1" d="M 334.667,108.57 351.624,131.179 z" id="boundary" inkscape:connector-curvature="0" />
	<path style="fill:none;stroke:red;stroke-width:1px;stroke-linecap:butt;stroke-linejoin:miter;stroke-opacity:1" d="M 345.972,979.043 371.407,993.174 z" id="boundary" inkscape:connector-curvature="0" />
	<path style="fill:none;stroke:red;stroke-width:1px;stroke-linecap:butt;stroke-linejoin:miter;stroke-opacity:1" d="M 351.624,131.179 365.755,156.615 z" id="boundary" inkscape:connector-curvature="0" />
	<path style="fill:none;stroke:red;stroke-width:1px;stroke-linecap:butt;stroke-linejoin:miter;stroke-opacity:1" d="M 365.755,156.615 382.712,179.225 z" id="boundary" inkscape:connector-curvature="0" />
	<path style="fill:none;stroke:red;stroke-width:1px;stroke-linecap:butt;stroke-linejoin:miter;stroke-opacity:1" d="M 371.407,993.174 399.67,996 z" id="boundary" inkscape:connector-curvature="0" />
	<path style="fill:none;stroke:red;stroke-width:1px;stroke-linecap:butt;stroke-linejoin:miter;stroke-opacity:1" d="M 382.712,179.225 410.974,187.704 z" id="boundary" inkscape:connector-curvature="0" />
	<path style="fill:none;stroke:red;stroke-width:1px;stroke-linecap:butt;stroke-linejoin:miter;stroke-opacity:1" d="M 394.017,396.843 408.148,422.279 z" id="boundary" inkscape:connector-curvature="0" />
	<path style="fill:none;stroke:red;stroke-width:1px;stroke-linecap:butt;stroke-linejoin:miter;stroke-opacity:1" d="M 394.017,396.843 416.627,379.886 z" id="boundary" inkscape:connector-curvature="0" />
	<path style="fill:none;stroke:red;stroke-width:1px;stroke-linecap:butt;stroke-linejoin:miter;stroke-opacity:1" d="M 399.67,996 427.932,996 z" id="boundary" inkscape:connector-curvature="0" />
	<path style="fill:none;stroke:red;stroke-width:1px;stroke-linecap:butt;stroke-linejoin:miter;stroke-opacity:1" d="M 408.148,422.279 436.41,433.584 z" id="boundary" inkscape:connector-curvature="0" />
	<path style="fill:none;stroke:red;stroke-width:1px;stroke-linecap:butt;stroke-linejoin:miter;stroke-opacity:1" d="M 410.974,187.704 439.236,190.53 z" id="boundary" inkscape:connector-curvature="0" />
	<path style="fill:none;stroke:red;stroke-width:1px;stroke-linecap:butt;stroke-linejoin:miter;stroke-opacity:1" d="M 416.627,379.886 442.063,365.755 z" id="boundary" inkscape:connector-curvature="0" />
	<path style="fill:none;stroke:red;stroke-width:1px;stroke-linecap:butt;stroke-linejoin:miter;stroke-opacity:1" d="M 427.932,996 456.194,996 z" id="boundary" inkscape:connector-curvature="0" />
	<path style="fill:none;stroke:red;stroke-width:1px;stroke-linecap:butt;stroke-linejoin:miter;stroke-opacity:1" d="M 436.41,433.584 464.672,439.236 z" id="boundary" inkscape:connector-curvature="0" />
	<path style="fill:none;stroke:red;stroke-width:1px;stroke-linecap:butt;stroke-linejoin:miter;stroke-opacity:1" d="M 439.236,190.53 464.672,204.661 z" id="boundary" inkscape:connector-curvature="0" />
	<path style="fill:none;stroke:red;stroke-width:1px;stroke-linecap:butt;stroke-linejoin:miter;stroke-opacity:1" d="M 442.063,365.755 470.325,354.45 z" id="boundary" inkscape:connector-curvature="0" />
	<path style="fill:none;stroke:red;stroke-width:1px;stroke-linecap:butt;stroke-linejoin:miter;stroke-opacity:1" d="M 456.194,996 484.456,990.348 z" id="boundary" inkscape:connector-curvature="0" />
	<path style="fill:none;stroke:red;stroke-width:1px;stroke-linecap:butt;stroke-linejoin:miter;stroke-opacity:1" d="M 464.672,204.661 490.108,218.792 z" id="boundary" inkscape:connector-curvature="0" />
	<path style="fill:none;stroke:red;stroke-width:1px;stroke-linecap:butt;stroke-linejoin:miter;stroke-opacity:1" d="M 464.672,439.236 492.934,450.541 z" id="boundary" inkscape:connector-curvature="0" />
	<path style="fill:none;stroke:red;stroke-width:1px;stroke-linecap:butt;stroke-linejoin:miter;stroke-opacity:1" d="M 470.325,354.45 487.282,326.188 z" id="boundary" inkscape:connector-curvature="0" />
	<path style="fill:none;stroke:red;stroke-width:1px;stroke-linecap:butt;stroke-linejoin:miter;stroke-opacity:1" d="M 484.456,990.348 512.718,996 z" id="boundary" inkscape:connector-curvature="0" />
	<path style="fill:none;stroke:red;stroke-width:1px;stroke-linecap:butt;stroke-linejoin:miter;stroke-opacity:1" d="M 487.282,326.188 492.934,280.969 z" id="boundary" inkscape:connector-curvature="0" />
	<path style="fill:none;stroke:red;stroke-width:1px;stroke-linecap:butt;stroke-linejoin:miter;stroke-opacity:1" d="M 490.108,218.792 504.239,244.228 z" id="boundary" inkscape:connector-curvature="0" />
	<path style="fill:none;stroke:red;stroke-width:1px;stroke-linecap:butt;stroke-linejoin:miter;stroke-opacity:1" d="M 492.934,280.969 504.239,244.228 z" id="boundary" inkscape:connector-curvature="0" />
	<path style="fill:none;stroke:red;stroke-width:1px;stroke-linecap:butt;stroke-linejoin:miter;stroke-opacity:1" d="M 492.934,450.541 521.197,461.846 z" id="boundary" inkscape:connector-curvature="0" />
	<path style="fill:none;stroke:red;stroke-width:1px;stroke-linecap:butt;stroke-linejoin:miter;stroke-opacity:1" d="M 492.934,614.462 492.934,642.724 z" id="boundary" inkscape:connector-curvature="0" />
	<path style="fill:none;stroke:red;stroke-width:1px;stroke-linecap:butt;stroke-linejoin:miter;stroke-opacity:1" d="M 492.934,614.462 515.544,591.852 z" id="boundary" inkscape:connector-curvature="0" />
	<path style="fill:none;stroke:red;stroke-width:1px;stroke-linecap:butt;stroke-linejoin:miter;stroke-opacity:1" d="M 492.934,642.724 492.934,693.595 z" id="boundary" inkscape:connector-curvature="0" />
	<path style="fill:none;stroke:red;stroke-width:1px;stroke-linecap:butt;stroke-linejoin:miter;stroke-opacity:1" d="M 492.934,693.595 492.934,721.858 z" id="boundary" inkscape:connector-curvature="0" />
	<path style="fill:none;stroke:red;stroke-width:1px;stroke-linecap:butt;stroke-linejoin:miter;stroke-opacity:1" d="M 492.934,721.858 521.197,727.51 z" id="boundary" inkscape:connector-curvature="0" />
	<path style="fill:none;stroke:red;stroke-width:1px;stroke-linecap:butt;stroke-linejoin:miter;stroke-opacity:1" d="M 512.718,996 540.98,996 z" id="boundary" inkscape:connector-curvature="0" />
	<path style="fill:none;stroke:red;stroke-width:1px;stroke-linecap:butt;stroke-linejoin:miter;stroke-opacity:1" d="M 515.544,591.852 526.849,563.59 z" id="boundary" inkscape:connector-curvature="0" />
	<path style="fill:none;stroke:red;stroke-width:1px;stroke-linecap:butt;stroke-linejoin:miter;stroke-opacity:1" d="M 521.197,461.846 535.328,487.282 z" id="boundary" inkscape:connector-curvature="0" />
	<path style="fill:none;stroke:red;stroke-width:1px;stroke-linecap:butt;stroke-linejoin:miter;stroke-opacity:1" d="M 521.197,727.51 549.459,727.51 z" id="boundary" inkscape:connector-curvature="0" />
	<path style="fill:none;stroke:red;stroke-width:1px;stroke-linecap:butt;stroke-linejoin:miter;stroke-opacity:1" d="M 526.849,563.59 538.154,524.023 z" id="boundary" inkscape:connector-curvature="0" />
	<path style="fill:none;stroke:red;stroke-width:1px;stroke-linecap:butt;stroke-linejoin:miter;stroke-opacity:1" d="M 535.328,487.282 538.154,524.023 z" id="boundary" inkscape:connector-curvature="0" />
	<path style="fill:none;stroke:red;stroke-width:1px;stroke-linecap:butt;stroke-linejoin:miter;stroke-opacity:1" d="M 540.98,996 569.242,990.348 z" id="boundary" inkscape:connector-curvature="0" />
	<path style="fill:none;stroke:red;stroke-width:1px;stroke-linecap:butt;stroke-linejoin:miter;stroke-opacity:1" d="M 549.459,727.51 577.721,727.51 z" id="boundary" inkscape:connector-curvature="0" />
	<path style="fill:none;stroke:red;stroke-width:1px;stroke-linecap:butt;stroke-linejoin:miter;stroke-opacity:1" d="M 569.242,990.348 591.852,973.39 z" id="boundary" inkscape:connector-curvature="0" />
	<path style="fill:none;stroke:red;stroke-width:1px;stroke-linecap:butt;stroke-linejoin:miter;stroke-opacity:1" d="M 577.721,727.51 605.983,733.162 z" id="boundary" inkscape:connector-curvature="0" />
	<path style="fill:none;stroke:red;stroke-width:1px;stroke-linecap:butt;stroke-linejoin:miter;stroke-opacity:1" d="M 591.852,973.39 608.809,950.781 z" id="boundary" inkscape:connector-curvature="0" />
	<path style="fill:none;stroke:red;stroke-width:1px;stroke-linecap:butt;stroke-linejoin:miter;stroke-opacity:1" d="M 605.983,733.162 617.288,761.425 z" id="boundary" inkscape:connector-curvature="0" />
	<path style="fill:none;stroke:red;stroke-width:1px;stroke-linecap:butt;stroke-linejoin:miter;stroke-opacity:1" d="M 608.809,950.781 617.288,897.083 z" id="boundary" inkscape:connector-curvature="0" />
	<path style="fill:none;stroke:red;stroke-width:1px;stroke-linecap:butt;stroke-linejoin:miter;stroke-opacity:1" d="M 617.288,761.425 622.94,789.687 z" id="boundary" inkscape:connector-curvature="0" />
	<path style="fill:none;stroke:red;stroke-width:1px;stroke-linecap:butt;stroke-linejoin:miter;stroke-opacity:1" d="M 617.288,897.083 622.94,846.211 z" id="boundary" inkscape:connector-curvature="0" />
	<path style="fill:none;stroke:red;stroke-width:1px;stroke-linecap:butt;stroke-linejoin:miter;stroke-opacity:1" d="M 622.94,789.687 622.94,817.949 z" id="boundary" inkscape:connector-curvature="0" />
	<path style="fill:none;stroke:red;stroke-width:1px;stroke-linecap:butt;stroke-linejoin:miter;stroke-opacity:1" d="M 622.94,817.949 622.94,846.211 z" id="boundary" inkscape:connector-curvature="0" />
	<circle cx="4" cy="224.444" r="4" fill="#0" id="circle0"/>
	<circle cx="4" cy="252.707" r="4" fill="#0" id="circle1"/>
	<circle cx="4" cy="280.969" r="4" fill="#0" id="circle2"/>
	<circle cx="9.65242" cy="190.53" r="4" fill="#0" id="circle3"/>
	<circle cx="12.4786" cy="309.231" r="4" fill="#0" id="circle4"/>
	<circle cx="20.9573" cy="156.615" r="4" fill="#0" id="circle5"/>
	<circle cx="26.6097" cy="334.667" r="4" fill="#0" id="circle6"/>
	<circle cx="35.0883" cy="131.179" r="4" fill="#0" id="circle7"/>
	<circle cx="43.567" cy="357.276" r="4" fill="#0" id="circle8"/>
	<circle cx="52.0456" cy="108.57" r="4" fill="#0" id="circle9"/>
	<circle cx="54.8718" cy="580.547" r="4" fill="#0" id="circle10"/>
	<circle cx="54.8718" cy="608.809" r="4" fill="#0" id="circle11"/>
	<circle cx="54.8718" cy="637.071" r="4" fill="#0" id="circle12"/>
	<circle cx="54.8718" cy="665.333" r="4" fill="#0" id="circle13"/>
	<circle cx="54.8718" cy="693.595" r="4" fill="#0" id="circle14"/>
	<circle cx="54.8718" cy="721.858" r="4" fill="#0" id="circle15"/>
	<circle cx="54.8718" cy="750.12" r="4" fill="#0" id="circle16"/>
	<circle cx="54.8718" cy="778.382" r="4" fill="#0" id="circle17"/>
	<circle cx="57.698" cy="382.712" r="4" fill="#0" id="circle18"/>
	<circle cx="60.5242" cy="416.627" r="4" fill="#0" id="circle19"/>
	<circle cx="60.5242" cy="444.889" r="4" fill="#0" id="circle20"/>
	<circle cx="60.5242" cy="473.151" r="4" fill="#0" id="circle21"/>
	<circle cx="60.5242" cy="501.413" r="4" fill="#0" id="circle22"/>
	<circle cx="60.5242" cy="529.675" r="4" fill="#0" id="circle23"/>
	<circle cx="66.1766" cy="806.644" r="4" fill="#0" id="circle24"/>
	<circle cx="66.1766" cy="834.906" r="4" fill="#0" id="circle25"/>
	<circle cx="66.1766" cy="863.168" r="4" fill="#0" id="circle26"/>
	<circle cx="66.1766" cy="891.43" r="4" fill="#0" id="circle27"/>
	<circle cx="71.8291" cy="919.692" r="4" fill="#0" id="circle28"/>
	<circle cx="74.6553" cy="85.9601" r="4" fill="#0" id="circle29"/>
	<circle cx="77.4815" cy="947.954" r="4" fill="#0" id="circle30"/>
	<circle cx="91.6125" cy="973.39" r="4" fill="#0" id="circle31"/>
	<circle cx="100.091" cy="71.8291" r="4" fill="#0" id="circle32"/>
	<circle cx="105.744" cy="32.2621" r="4" fill="#0" id="circle33"/>
	<circle cx="119.875" cy="984.695" r="4" fill="#0" id="circle34"/>
	<circle cx="122.701" cy="9.65242" r="4" fill="#0" id="circle35"/>
	<circle cx="148.137" cy="996" r="4" fill="#0" id="circle36"/>
	<circle cx="150.963" cy="4" r="4" fill="#0" id="circle37"/>
	<circle cx="176.399" cy="996" r="4" fill="#0" id="circle38"/>
	<circle cx="179.225" cy="6.82621" r="4" fill="#0" id="circle39"/>
	<circle cx="204.661" cy="990.348" r="4" fill="#0" id="circle40"/>
	<circle cx="207.487" cy="9.65242" r="4" fill="#0" id="circle41"/>
	<circle cx="232.923" cy="990.348" r="4" fill="#0" id="circle42"/>
	<circle cx="235.749" cy="4" r="4" fill="#0" id="circle43"/>
	<circle cx="261.185" cy="18.1311" r="4" fill="#0" id="circle44"/>
	<circle cx="261.185" cy="984.695" r="4" fill="#0" id="circle45"/>
	<circle cx="278.142" cy="40.7407" r="4" fill="#0" id="circle46"/>
	<circle cx="289.447" cy="984.695" r="4" fill="#0" id="circle47"/>
	<circle cx="292.274" cy="66.1766" r="4" fill="#0" id="circle48"/>
	<circle cx="314.883" cy="85.9601" r="4" fill="#0" id="circle49"/>
	<circle cx="317.709" cy="979.043" r="4" fill="#0" id="circle50"/>
	<circle cx="334.667" cy="108.57" r="4" fill="#0" id="circle51"/>
	<circle cx="345.972" cy="979.043" r="4" fill="#0" id="circle52"/>
	<circle cx="351.624" cy="131.179" r="4" fill="#0" id="circle53"/>
	<circle cx="365.755" cy="156.615" r="4" fill="#0" id="circle54"/>
	<circle cx="371.407" cy="993.174" r="4" fill="#0" id="circle55"/>
	<circle cx="382.712" cy="179.225" r="4" fill="#0" id="circle56"/>
	<circle cx="394.017" cy="396.843" r="4" fill="#0" id="circle57"/>
	<circle cx="399.67" cy="996" r="4" fill="#0" id="circle58"/>
	<circle cx="408.148" cy="422.279" r="4" fill="#0" id="circle59"/>
	<circle cx="410.974" cy="187.704" r="4" fill="#0" id="circle60"/>
	<circle cx="416.627" cy="379.886" r="4" fill="#0" id="circle61"/>
	<circle cx="427.932" cy="996" r="4" fill="#0" id="circle62"/>
	<circle cx="436.41" cy="433.584" r="4" fill="#0" id="circle63"/>
	<circle cx="439.236" cy="190.53" r="4" fill="#0" id="circle64"/>
	<circle cx="442.063" cy="365.755" r="4" fill="#0" id="circle65"/>
	<circle cx="456.194" cy="996" r="4" fill="#0" id="circle66"/>
	<circle cx="464.672" cy="204.661" r="4" fill="#0" id="circle67"/>
	<circle cx="464.672" cy="439.236" r="4" fill="#0" id="circle68"/>
	<circle cx="470.325" cy="354.45" r="4" fill="#0" id="circle69"/>
	<circle cx="484.456" cy="990.348" r="4" fill="#0" id="circle70"/>
	<circle cx="487.282" cy="326.188" r="4" fill="#0" id="circle71"/>
	<circle cx="490.108" cy="218.792" r="4" fill="#0" id="circle72"/>
	<circle cx="492.934" cy="280.969" r="4" fill="#0" id="circle73"/>
	<circle cx="492.934" cy="450.541" r="4" fill="#0" id="circle74"/>
	<circle cx="492.934" cy="614.462" r="4" fill="#0" id="circle75"/>
	<circle cx="492.934" cy="642.724" r="4" fill="#0" id="circle76"/>
	<circle cx="492.934" cy="693.595" r="4" fill="#0" id="circle77"/>
	<circle cx="492.934" cy="721.858" r="4" fill="#0" id="circle78"/>
	<circle cx="504.239" cy="244.228" r="4" fill="#0" id="circle79"/>
	<circle cx="512.718" cy="996" r="4" fill="#0" id="circle80"/>
	<circle cx="515.544" cy="591.852" r="4" fill="#0" id="circle81"/>
	<circle cx="521.197" cy="461.846" r="4" fill="#0" id="circle82"/>
	<circle cx="521.197" cy="727.51" r="4" fill="#0" id="circle83"/>
	<circle cx="526.849" cy="563.59" r="4" fill="#0" id="circle84"/>
	<circle cx="535.328" cy="487.282" r="4" fill="#0" id="circle85"/>
	<circle cx="538.154" cy="524.023" r="4" fill="#0" id="circle86"/>
	<circle cx="540.98" cy="996" r="4" fill="#0" id="circle87"/>
	<circle cx="549.459" cy="727.51" r="4" fill="#0" id="circle88"/>
	<circle cx="569.242" cy="990.348" r="4" fill="#0" id="circle89"/>
	<circle cx="577.721" cy="727.51" r="4" fill="#0" id="circle90"/>
	<circle cx="591.852" cy="973.39" r="4" fill="#0" id="circle91"/>
	<circle cx="605.983" cy="733.162" r="4" fill="#0" id="circle92"/>
	<circle cx="608.809" cy="950.781" r="4" fill="#0" id="circle93"/>
	<circle cx="617.288" cy="761.425" r="4" fill="#0" id="circle94"/>
	<circle cx="617.288" cy="897.083" r="4" fill="#0" id="circle95"/>
	<circle cx="622.94" cy="789.687" r="4" fill="#0" id="circle96"/>
	<circle cx="622.94" cy="817.949" r="4" fill="#0" id="circle97"/>
	<circle cx="622.94" cy="846.211" r="4" fill="#0" id="circle98"/>
	</g>
</svg>