<?xml version="1.0" encoding="UTF-8" standalone="no"?>
<!-- Created with CurveBenchmark -->
<svg
	xmlns:dc="http://purl.org/dc/elements/1.1/"
	xmlns:cc="http://creativecommons.org/ns#"
	xmlns:rdf="http://www.w3.org/1999/02/22-rdf-syntax-ns#"
	xmlns:svg="http://www.w3.org/2000/svg"
	xmlns="http://www.w3.org/2000/svg"
	xmlns:sodipodi="http://sodipodi.sourceforge.net/DTD/sodipodi-0.dtd"
	xmlns:inkscape="http://www.inkscape.org/namespaces/inkscape"
	width="1000"
	height="1000"
	id="svg2"
	version="1.1"
	sodipodi:docname="manifold/hnncrust-elephant25.png.txt">
<defs
	id="defs4" />
<metadata
	id="metadata7">
	<rdf:RDF>
		<cc:Work
			rdf:about="">
			<dc:format>image/svg+xml</dc:format>
			<dc:type
				rdf:resource="http://purl.org/dc/dcmitype/StillImage" />
			<dc:title></dc:title>
		</cc:Work>
	</rdf:RDF>
</metadata>
<g
	inkscape:label="Layer 1"
	inkscape:groupmode="layer"
	id="layer1">
	<path style="fill:none;stroke:red;stroke-width:1px;stroke-linecap:butt;stroke-linejoin:miter;stroke-opacity:1" d="M 4,364.557 4,383.239 z" id="boundary" inkscape:connector-curvature="0" />
	<path style="fill:none;stroke:red;stroke-width:1px;stroke-linecap:butt;stroke-linejoin:miter;stroke-opacity:1" d="M 4,364.557 13.3409,345.876 z" id="boundary" inkscape:connector-curvature="0" />
	<path style="fill:none;stroke:red;stroke-width:1px;stroke-linecap:butt;stroke-linejoin:miter;stroke-opacity:1" d="M 4,383.239 4,401.921 z" id="boundary" inkscape:connector-curvature="0" />
	<path style="fill:none;stroke:red;stroke-width:1px;stroke-linecap:butt;stroke-linejoin:miter;stroke-opacity:1" d="M 4,401.921 13.3409,418.734 z" id="boundary" inkscape:connector-curvature="0" />
	<path style="fill:none;stroke:red;stroke-width:1px;stroke-linecap:butt;stroke-linejoin:miter;stroke-opacity:1" d="M 13.3409,280.49 13.3409,308.512 z" id="boundary" inkscape:connector-curvature="0" />
	<path style="fill:none;stroke:red;stroke-width:1px;stroke-linecap:butt;stroke-linejoin:miter;stroke-opacity:1" d="M 13.3409,280.49 22.6817,252.467 z" id="boundary" inkscape:connector-curvature="0" />
	<path style="fill:none;stroke:red;stroke-width:1px;stroke-linecap:butt;stroke-linejoin:miter;stroke-opacity:1" d="M 13.3409,308.512 13.3409,327.194 z" id="boundary" inkscape:connector-curvature="0" />
	<path style="fill:none;stroke:red;stroke-width:1px;stroke-linecap:butt;stroke-linejoin:miter;stroke-opacity:1" d="M 13.3409,327.194 13.3409,345.876 z" id="boundary" inkscape:connector-curvature="0" />
	<path style="fill:none;stroke:red;stroke-width:1px;stroke-linecap:butt;stroke-linejoin:miter;stroke-opacity:1" d="M 13.3409,418.734 13.3409,437.416 z" id="boundary" inkscape:connector-curvature="0" />
	<path style="fill:none;stroke:red;stroke-width:1px;stroke-linecap:butt;stroke-linejoin:miter;stroke-opacity:1" d="M 13.3409,437.416 13.3409,456.098 z" id="boundary" inkscape:connector-curvature="0" />
	<path style="fill:none;stroke:red;stroke-width:1px;stroke-linecap:butt;stroke-linejoin:miter;stroke-opacity:1" d="M 13.3409,456.098 13.3409,474.78 z" id="boundary" inkscape:connector-curvature="0" />
	<path style="fill:none;stroke:red;stroke-width:1px;stroke-linecap:butt;stroke-linejoin:miter;stroke-opacity:1" d="M 13.3409,474.78 13.3409,493.461 z" id="boundary" inkscape:connector-curvature="0" />
	<path style="fill:none;stroke:red;stroke-width:1px;stroke-linecap:butt;stroke-linejoin:miter;stroke-opacity:1" d="M 13.3409,493.461 22.6817,510.275 z" id="boundary" inkscape:connector-curvature="0" />
	<path style="fill:none;stroke:red;stroke-width:1px;stroke-linecap:butt;stroke-linejoin:miter;stroke-opacity:1" d="M 22.6817,233.785 22.6817,252.467 z" id="boundary" inkscape:connector-curvature="0" />
	<path style="fill:none;stroke:red;stroke-width:1px;stroke-linecap:butt;stroke-linejoin:miter;stroke-opacity:1" d="M 22.6817,233.785 32.0226,205.763 z" id="boundary" inkscape:connector-curvature="0" />
	<path style="fill:none;stroke:red;stroke-width:1px;stroke-linecap:butt;stroke-linejoin:miter;stroke-opacity:1" d="M 22.6817,510.275 22.6817,528.957 z" id="boundary" inkscape:connector-curvature="0" />
	<path style="fill:none;stroke:red;stroke-width:1px;stroke-linecap:butt;stroke-linejoin:miter;stroke-opacity:1" d="M 22.6817,528.957 32.0226,545.77 z" id="boundary" inkscape:connector-curvature="0" />
	<path style="fill:none;stroke:red;stroke-width:1px;stroke-linecap:butt;stroke-linejoin:miter;stroke-opacity:1" d="M 32.0226,187.081 32.0226,205.763 z" id="boundary" inkscape:connector-curvature="0" />
	<path style="fill:none;stroke:red;stroke-width:1px;stroke-linecap:butt;stroke-linejoin:miter;stroke-opacity:1" d="M 32.0226,187.081 41.3635,159.058 z" id="boundary" inkscape:connector-curvature="0" />
	<path style="fill:none;stroke:red;stroke-width:1px;stroke-linecap:butt;stroke-linejoin:miter;stroke-opacity:1" d="M 32.0226,545.77 41.3635,562.584 z" id="boundary" inkscape:connector-curvature="0" />
	<path style="fill:none;stroke:red;stroke-width:1px;stroke-linecap:butt;stroke-linejoin:miter;stroke-opacity:1" d="M 41.3635,159.058 50.7043,140.377 z" id="boundary" inkscape:connector-curvature="0" />
	<path style="fill:none;stroke:red;stroke-width:1px;stroke-linecap:butt;stroke-linejoin:miter;stroke-opacity:1" d="M 41.3635,562.584 41.3635,581.266 z" id="boundary" inkscape:connector-curvature="0" />
	<path style="fill:none;stroke:red;stroke-width:1px;stroke-linecap:butt;stroke-linejoin:miter;stroke-opacity:1" d="M 41.3635,581.266 50.7043,598.079 z" id="boundary" inkscape:connector-curvature="0" />
	<path style="fill:none;stroke:red;stroke-width:1px;stroke-linecap:butt;stroke-linejoin:miter;stroke-opacity:1" d="M 50.7043,140.377 60.0452,121.695 z" id="boundary" inkscape:connector-curvature="0" />
	<path style="fill:none;stroke:red;stroke-width:1px;stroke-linecap:butt;stroke-linejoin:miter;stroke-opacity:1" d="M 50.7043,598.079 60.0452,614.893 z" id="boundary" inkscape:connector-curvature="0" />
	<path style="fill:none;stroke:red;stroke-width:1px;stroke-linecap:butt;stroke-linejoin:miter;stroke-opacity:1" d="M 60.0452,121.695 69.3861,103.013 z" id="boundary" inkscape:connector-curvature="0" />
	<path style="fill:none;stroke:red;stroke-width:1px;stroke-linecap:butt;stroke-linejoin:miter;stroke-opacity:1" d="M 60.0452,614.893 73.1224,629.838 z" id="boundary" inkscape:connector-curvature="0" />
	<path style="fill:none;stroke:red;stroke-width:1px;stroke-linecap:butt;stroke-linejoin:miter;stroke-opacity:1" d="M 69.3861,103.013 84.3315,88.0678 z" id="boundary" inkscape:connector-curvature="0" />
	<path style="fill:none;stroke:red;stroke-width:1px;stroke-linecap:butt;stroke-linejoin:miter;stroke-opacity:1" d="M 73.1224,629.838 88.0678,641.047 z" id="boundary" inkscape:connector-curvature="0" />
	<path style="fill:none;stroke:red;stroke-width:1px;stroke-linecap:butt;stroke-linejoin:miter;stroke-opacity:1" d="M 84.3315,88.0678 93.6723,69.3861 z" id="boundary" inkscape:connector-curvature="0" />
	<path style="fill:none;stroke:red;stroke-width:1px;stroke-linecap:butt;stroke-linejoin:miter;stroke-opacity:1" d="M 88.0678,641.047 99.2768,655.992 z" id="boundary" inkscape:connector-curvature="0" />
	<path style="fill:none;stroke:red;stroke-width:1px;stroke-linecap:butt;stroke-linejoin:miter;stroke-opacity:1" d="M 89.936,435.548 89.936,454.23 z" id="boundary" inkscape:connector-curvature="0" />
	<path style="fill:none;stroke:red;stroke-width:1px;stroke-linecap:butt;stroke-linejoin:miter;stroke-opacity:1" d="M 89.936,435.548 99.2768,416.866 z" id="boundary" inkscape:connector-curvature="0" />
	<path style="fill:none;stroke:red;stroke-width:1px;stroke-linecap:butt;stroke-linejoin:miter;stroke-opacity:1" d="M 89.936,454.23 89.936,472.911 z" id="boundary" inkscape:connector-curvature="0" />
	<path style="fill:none;stroke:red;stroke-width:1px;stroke-linecap:butt;stroke-linejoin:miter;stroke-opacity:1" d="M 89.936,472.911 89.936,491.593 z" id="boundary" inkscape:connector-curvature="0" />
	<path style="fill:none;stroke:red;stroke-width:1px;stroke-linecap:butt;stroke-linejoin:miter;stroke-opacity:1" d="M 89.936,491.593 93.6723,510.275 z" id="boundary" inkscape:connector-curvature="0" />
	<path style="fill:none;stroke:red;stroke-width:1px;stroke-linecap:butt;stroke-linejoin:miter;stroke-opacity:1" d="M 93.6723,69.3861 108.618,54.4407 z" id="boundary" inkscape:connector-curvature="0" />
	<path style="fill:none;stroke:red;stroke-width:1px;stroke-linecap:butt;stroke-linejoin:miter;stroke-opacity:1" d="M 93.6723,510.275 99.2768,528.957 z" id="boundary" inkscape:connector-curvature="0" />
	<path style="fill:none;stroke:red;stroke-width:1px;stroke-linecap:butt;stroke-linejoin:miter;stroke-opacity:1" d="M 99.2768,416.866 108.618,398.185 z" id="boundary" inkscape:connector-curvature="0" />
	<path style="fill:none;stroke:red;stroke-width:1px;stroke-linecap:butt;stroke-linejoin:miter;stroke-opacity:1" d="M 99.2768,528.957 99.2768,547.638 z" id="boundary" inkscape:connector-curvature="0" />
	<path style="fill:none;stroke:red;stroke-width:1px;stroke-linecap:butt;stroke-linejoin:miter;stroke-opacity:1" d="M 99.2768,547.638 99.2768,566.32 z" id="boundary" inkscape:connector-curvature="0" />
	<path style="fill:none;stroke:red;stroke-width:1px;stroke-linecap:butt;stroke-linejoin:miter;stroke-opacity:1" d="M 99.2768,566.32 103.013,585.002 z" id="boundary" inkscape:connector-curvature="0" />
	<path style="fill:none;stroke:red;stroke-width:1px;stroke-linecap:butt;stroke-linejoin:miter;stroke-opacity:1" d="M 99.2768,655.992 114.222,669.07 z" id="boundary" inkscape:connector-curvature="0" />
	<path style="fill:none;stroke:red;stroke-width:1px;stroke-linecap:butt;stroke-linejoin:miter;stroke-opacity:1" d="M 103.013,585.002 121.695,592.475 z" id="boundary" inkscape:connector-curvature="0" />
	<path style="fill:none;stroke:red;stroke-width:1px;stroke-linecap:butt;stroke-linejoin:miter;stroke-opacity:1" d="M 108.618,54.4407 127.299,45.0998 z" id="boundary" inkscape:connector-curvature="0" />
	<path style="fill:none;stroke:red;stroke-width:1px;stroke-linecap:butt;stroke-linejoin:miter;stroke-opacity:1" d="M 108.618,398.185 127.299,401.921 z" id="boundary" inkscape:connector-curvature="0" />
	<path style="fill:none;stroke:red;stroke-width:1px;stroke-linecap:butt;stroke-linejoin:miter;stroke-opacity:1" d="M 114.222,669.07 132.904,669.07 z" id="boundary" inkscape:connector-curvature="0" />
	<path style="fill:none;stroke:red;stroke-width:1px;stroke-linecap:butt;stroke-linejoin:miter;stroke-opacity:1" d="M 121.695,592.475 140.377,592.475 z" id="boundary" inkscape:connector-curvature="0" />
	<path style="fill:none;stroke:red;stroke-width:1px;stroke-linecap:butt;stroke-linejoin:miter;stroke-opacity:1" d="M 127.299,45.0998 145.981,41.3635 z" id="boundary" inkscape:connector-curvature="0" />
	<path style="fill:none;stroke:red;stroke-width:1px;stroke-linecap:butt;stroke-linejoin:miter;stroke-opacity:1" d="M 127.299,401.921 145.981,388.844 z" id="boundary" inkscape:connector-curvature="0" />
	<path style="fill:none;stroke:red;stroke-width:1px;stroke-linecap:butt;stroke-linejoin:miter;stroke-opacity:1" d="M 132.904,669.07 151.586,665.333 z" id="boundary" inkscape:connector-curvature="0" />
	<path style="fill:none;stroke:red;stroke-width:1px;stroke-linecap:butt;stroke-linejoin:miter;stroke-opacity:1" d="M 140.377,592.475 159.058,592.475 z" id="boundary" inkscape:connector-curvature="0" />
	<path style="fill:none;stroke:red;stroke-width:1px;stroke-linecap:butt;stroke-linejoin:miter;stroke-opacity:1" d="M 145.981,41.3635 164.663,41.3635 z" id="boundary" inkscape:connector-curvature="0" />
	<path style="fill:none;stroke:red;stroke-width:1px;stroke-linecap:butt;stroke-linejoin:miter;stroke-opacity:1" d="M 145.981,370.162 145.981,388.844 z" id="boundary" inkscape:connector-curvature="0" />
	<path style="fill:none;stroke:red;stroke-width:1px;stroke-linecap:butt;stroke-linejoin:miter;stroke-opacity:1" d="M 145.981,370.162 155.322,351.48 z" id="boundary" inkscape:connector-curvature="0" />
	<path style="fill:none;stroke:red;stroke-width:1px;stroke-linecap:butt;stroke-linejoin:miter;stroke-opacity:1" d="M 151.586,665.333 164.663,650.388 z" id="boundary" inkscape:connector-curvature="0" />
	<path style="fill:none;stroke:red;stroke-width:1px;stroke-linecap:butt;stroke-linejoin:miter;stroke-opacity:1" d="M 155.322,351.48 172.136,342.139 z" id="boundary" inkscape:connector-curvature="0" />
	<path style="fill:none;stroke:red;stroke-width:1px;stroke-linecap:butt;stroke-linejoin:miter;stroke-opacity:1" d="M 159.058,592.475 164.663,611.156 z" id="boundary" inkscape:connector-curvature="0" />
	<path style="fill:none;stroke:red;stroke-width:1px;stroke-linecap:butt;stroke-linejoin:miter;stroke-opacity:1" d="M 164.663,41.3635 183.345,46.968 z" id="boundary" inkscape:connector-curvature="0" />
	<path style="fill:none;stroke:red;stroke-width:1px;stroke-linecap:butt;stroke-linejoin:miter;stroke-opacity:1" d="M 164.663,611.156 174.004,631.706 z" id="boundary" inkscape:connector-curvature="0" />
	<path style="fill:none;stroke:red;stroke-width:1px;stroke-linecap:butt;stroke-linejoin:miter;stroke-opacity:1" d="M 164.663,650.388 174.004,631.706 z" id="boundary" inkscape:connector-curvature="0" />
	<path style="fill:none;stroke:red;stroke-width:1px;stroke-linecap:butt;stroke-linejoin:miter;stroke-opacity:1" d="M 172.136,342.139 190.817,336.535 z" id="boundary" inkscape:connector-curvature="0" />
	<path style="fill:none;stroke:red;stroke-width:1px;stroke-linecap:butt;stroke-linejoin:miter;stroke-opacity:1" d="M 183.345,46.968 200.158,56.3089 z" id="boundary" inkscape:connector-curvature="0" />
	<path style="fill:none;stroke:red;stroke-width:1px;stroke-linecap:butt;stroke-linejoin:miter;stroke-opacity:1" d="M 190.817,336.535 209.499,327.194 z" id="boundary" inkscape:connector-curvature="0" />
	<path style="fill:none;stroke:red;stroke-width:1px;stroke-linecap:butt;stroke-linejoin:miter;stroke-opacity:1" d="M 200.158,56.3089 218.84,60.0452 z" id="boundary" inkscape:connector-curvature="0" />
	<path style="fill:none;stroke:red;stroke-width:1px;stroke-linecap:butt;stroke-linejoin:miter;stroke-opacity:1" d="M 209.499,327.194 228.181,332.798 z" id="boundary" inkscape:connector-curvature="0" />
	<path style="fill:none;stroke:red;stroke-width:1px;stroke-linecap:butt;stroke-linejoin:miter;stroke-opacity:1" d="M 218.84,60.0452 237.522,56.3089 z" id="boundary" inkscape:connector-curvature="0" />
	<path style="fill:none;stroke:red;stroke-width:1px;stroke-linecap:butt;stroke-linejoin:miter;stroke-opacity:1" d="M 228.181,332.798 246.863,336.535 z" id="boundary" inkscape:connector-curvature="0" />
	<path style="fill:none;stroke:red;stroke-width:1px;stroke-linecap:butt;stroke-linejoin:miter;stroke-opacity:1" d="M 237.522,56.3089 256.203,50.7043 z" id="boundary" inkscape:connector-curvature="0" />
	<path style="fill:none;stroke:red;stroke-width:1px;stroke-linecap:butt;stroke-linejoin:miter;stroke-opacity:1" d="M 246.863,336.535 265.544,332.798 z" id="boundary" inkscape:connector-curvature="0" />
	<path style="fill:none;stroke:red;stroke-width:1px;stroke-linecap:butt;stroke-linejoin:miter;stroke-opacity:1" d="M 256.203,50.7043 274.885,50.7043 z" id="boundary" inkscape:connector-curvature="0" />
	<path style="fill:none;stroke:red;stroke-width:1px;stroke-linecap:butt;stroke-linejoin:miter;stroke-opacity:1" d="M 265.544,332.798 265.544,351.48 z" id="boundary" inkscape:connector-curvature="0" />
	<path style="fill:none;stroke:red;stroke-width:1px;stroke-linecap:butt;stroke-linejoin:miter;stroke-opacity:1" d="M 265.544,351.48 274.885,368.294 z" id="boundary" inkscape:connector-curvature="0" />
	<path style="fill:none;stroke:red;stroke-width:1px;stroke-linecap:butt;stroke-linejoin:miter;stroke-opacity:1" d="M 274.885,50.7043 293.567,46.968 z" id="boundary" inkscape:connector-curvature="0" />
	<path style="fill:none;stroke:red;stroke-width:1px;stroke-linecap:butt;stroke-linejoin:miter;stroke-opacity:1" d="M 274.885,368.294 286.094,383.239 z" id="boundary" inkscape:connector-curvature="0" />
	<path style="fill:none;stroke:red;stroke-width:1px;stroke-linecap:butt;stroke-linejoin:miter;stroke-opacity:1" d="M 286.094,383.239 293.567,401.921 z" id="boundary" inkscape:connector-curvature="0" />
	<path style="fill:none;stroke:red;stroke-width:1px;stroke-linecap:butt;stroke-linejoin:miter;stroke-opacity:1" d="M 293.567,46.968 312.249,41.3635 z" id="boundary" inkscape:connector-curvature="0" />
	<path style="fill:none;stroke:red;stroke-width:1px;stroke-linecap:butt;stroke-linejoin:miter;stroke-opacity:1" d="M 293.567,401.921 293.567,420.603 z" id="boundary" inkscape:connector-curvature="0" />
	<path style="fill:none;stroke:red;stroke-width:1px;stroke-linecap:butt;stroke-linejoin:miter;stroke-opacity:1" d="M 293.567,420.603 302.908,437.416 z" id="boundary" inkscape:connector-curvature="0" />
	<path style="fill:none;stroke:red;stroke-width:1px;stroke-linecap:butt;stroke-linejoin:miter;stroke-opacity:1" d="M 302.908,437.416 302.908,456.098 z" id="boundary" inkscape:connector-curvature="0" />
	<path style="fill:none;stroke:red;stroke-width:1px;stroke-linecap:butt;stroke-linejoin:miter;stroke-opacity:1" d="M 302.908,456.098 302.908,474.78 z" id="boundary" inkscape:connector-curvature="0" />
	<path style="fill:none;stroke:red;stroke-width:1px;stroke-linecap:butt;stroke-linejoin:miter;stroke-opacity:1" d="M 302.908,474.78 312.249,491.593 z" id="boundary" inkscape:connector-curvature="0" />
	<path style="fill:none;stroke:red;stroke-width:1px;stroke-linecap:butt;stroke-linejoin:miter;stroke-opacity:1" d="M 312.249,41.3635 330.93,41.3635 z" id="boundary" inkscape:connector-curvature="0" />
	<path style="fill:none;stroke:red;stroke-width:1px;stroke-linecap:butt;stroke-linejoin:miter;stroke-opacity:1" d="M 312.249,491.593 321.589,508.407 z" id="boundary" inkscape:connector-curvature="0" />
	<path style="fill:none;stroke:red;stroke-width:1px;stroke-linecap:butt;stroke-linejoin:miter;stroke-opacity:1" d="M 321.589,508.407 325.326,527.089 z" id="boundary" inkscape:connector-curvature="0" />
	<path style="fill:none;stroke:red;stroke-width:1px;stroke-linecap:butt;stroke-linejoin:miter;stroke-opacity:1" d="M 325.326,527.089 330.93,545.77 z" id="boundary" inkscape:connector-curvature="0" />
	<path style="fill:none;stroke:red;stroke-width:1px;stroke-linecap:butt;stroke-linejoin:miter;stroke-opacity:1" d="M 330.93,41.3635 342.139,26.4181 z" id="boundary" inkscape:connector-curvature="0" />
	<path style="fill:none;stroke:red;stroke-width:1px;stroke-linecap:butt;stroke-linejoin:miter;stroke-opacity:1" d="M 330.93,545.77 334.667,564.452 z" id="boundary" inkscape:connector-curvature="0" />
	<path style="fill:none;stroke:red;stroke-width:1px;stroke-linecap:butt;stroke-linejoin:miter;stroke-opacity:1" d="M 334.667,564.452 340.271,583.134 z" id="boundary" inkscape:connector-curvature="0" />
	<path style="fill:none;stroke:red;stroke-width:1px;stroke-linecap:butt;stroke-linejoin:miter;stroke-opacity:1" d="M 340.271,583.134 344.008,601.815 z" id="boundary" inkscape:connector-curvature="0" />
	<path style="fill:none;stroke:red;stroke-width:1px;stroke-linecap:butt;stroke-linejoin:miter;stroke-opacity:1" d="M 340.271,766.215 358.953,771.819 z" id="boundary" inkscape:connector-curvature="0" />
	<path style="fill:none;stroke:red;stroke-width:1px;stroke-linecap:butt;stroke-linejoin:miter;stroke-opacity:1" d="M 342.139,26.4181 360.821,32.0226 z" id="boundary" inkscape:connector-curvature="0" />
	<path style="fill:none;stroke:red;stroke-width:1px;stroke-linecap:butt;stroke-linejoin:miter;stroke-opacity:1" d="M 344.008,601.815 349.612,620.497 z" id="boundary" inkscape:connector-curvature="0" />
	<path style="fill:none;stroke:red;stroke-width:1px;stroke-linecap:butt;stroke-linejoin:miter;stroke-opacity:1" d="M 349.612,620.497 358.953,637.311 z" id="boundary" inkscape:connector-curvature="0" />
	<path style="fill:none;stroke:red;stroke-width:1px;stroke-linecap:butt;stroke-linejoin:miter;stroke-opacity:1" d="M 355.217,751.269 364.557,732.588 z" id="boundary" inkscape:connector-curvature="0" />
	<path style="fill:none;stroke:red;stroke-width:1px;stroke-linecap:butt;stroke-linejoin:miter;stroke-opacity:1" d="M 358.953,637.311 358.953,655.992 z" id="boundary" inkscape:connector-curvature="0" />
	<path style="fill:none;stroke:red;stroke-width:1px;stroke-linecap:butt;stroke-linejoin:miter;stroke-opacity:1" d="M 358.953,655.992 360.821,674.674 z" id="boundary" inkscape:connector-curvature="0" />
	<path style="fill:none;stroke:red;stroke-width:1px;stroke-linecap:butt;stroke-linejoin:miter;stroke-opacity:1" d="M 358.953,771.819 377.635,771.819 z" id="boundary" inkscape:connector-curvature="0" />
	<path style="fill:none;stroke:red;stroke-width:1px;stroke-linecap:butt;stroke-linejoin:miter;stroke-opacity:1" d="M 360.821,32.0226 379.503,32.0226 z" id="boundary" inkscape:connector-curvature="0" />
	<path style="fill:none;stroke:red;stroke-width:1px;stroke-linecap:butt;stroke-linejoin:miter;stroke-opacity:1" d="M 360.821,674.674 370.162,691.488 z" id="boundary" inkscape:connector-curvature="0" />
	<path style="fill:none;stroke:red;stroke-width:1px;stroke-linecap:butt;stroke-linejoin:miter;stroke-opacity:1" d="M 364.557,732.588 379.503,717.642 z" id="boundary" inkscape:connector-curvature="0" />
	<path style="fill:none;stroke:red;stroke-width:1px;stroke-linecap:butt;stroke-linejoin:miter;stroke-opacity:1" d="M 370.162,691.488 379.503,717.642 z" id="boundary" inkscape:connector-curvature="0" />
	<path style="fill:none;stroke:red;stroke-width:1px;stroke-linecap:butt;stroke-linejoin:miter;stroke-opacity:1" d="M 377.635,771.819 396.316,771.819 z" id="boundary" inkscape:connector-curvature="0" />
	<path style="fill:none;stroke:red;stroke-width:1px;stroke-linecap:butt;stroke-linejoin:miter;stroke-opacity:1" d="M 379.503,32.0226 398.185,32.0226 z" id="boundary" inkscape:connector-curvature="0" />
	<path style="fill:none;stroke:red;stroke-width:1px;stroke-linecap:butt;stroke-linejoin:miter;stroke-opacity:1" d="M 396.316,771.819 414.998,771.819 z" id="boundary" inkscape:connector-curvature="0" />
	<path style="fill:none;stroke:red;stroke-width:1px;stroke-linecap:butt;stroke-linejoin:miter;stroke-opacity:1" d="M 398.185,32.0226 416.866,26.4181 z" id="boundary" inkscape:connector-curvature="0" />
	<path style="fill:none;stroke:red;stroke-width:1px;stroke-linecap:butt;stroke-linejoin:miter;stroke-opacity:1" d="M 414.998,771.819 433.68,771.819 z" id="boundary" inkscape:connector-curvature="0" />
	<path style="fill:none;stroke:red;stroke-width:1px;stroke-linecap:butt;stroke-linejoin:miter;stroke-opacity:1" d="M 416.866,26.4181 435.548,22.6817 z" id="boundary" inkscape:connector-curvature="0" />
	<path style="fill:none;stroke:red;stroke-width:1px;stroke-linecap:butt;stroke-linejoin:miter;stroke-opacity:1" d="M 433.68,771.819 450.493,762.478 z" id="boundary" inkscape:connector-curvature="0" />
	<path style="fill:none;stroke:red;stroke-width:1px;stroke-linecap:butt;stroke-linejoin:miter;stroke-opacity:1" d="M 435.548,22.6817 452.362,13.3409 z" id="boundary" inkscape:connector-curvature="0" />
	<path style="fill:none;stroke:red;stroke-width:1px;stroke-linecap:butt;stroke-linejoin:miter;stroke-opacity:1" d="M 450.493,762.478 467.307,753.137 z" id="boundary" inkscape:connector-curvature="0" />
	<path style="fill:none;stroke:red;stroke-width:1px;stroke-linecap:butt;stroke-linejoin:miter;stroke-opacity:1" d="M 452.362,13.3409 471.043,13.3409 z" id="boundary" inkscape:connector-curvature="0" />
	<path style="fill:none;stroke:red;stroke-width:1px;stroke-linecap:butt;stroke-linejoin:miter;stroke-opacity:1" d="M 454.23,622.365 454.23,641.047 z" id="boundary" inkscape:connector-curvature="0" />
	<path style="fill:none;stroke:red;stroke-width:1px;stroke-linecap:butt;stroke-linejoin:miter;stroke-opacity:1" d="M 454.23,622.365 472.911,626.102 z" id="boundary" inkscape:connector-curvature="0" />
	<path style="fill:none;stroke:red;stroke-width:1px;stroke-linecap:butt;stroke-linejoin:miter;stroke-opacity:1" d="M 454.23,641.047 457.966,659.729 z" id="boundary" inkscape:connector-curvature="0" />
	<path style="fill:none;stroke:red;stroke-width:1px;stroke-linecap:butt;stroke-linejoin:miter;stroke-opacity:1" d="M 457.966,659.729 463.571,678.411 z" id="boundary" inkscape:connector-curvature="0" />
	<path style="fill:none;stroke:red;stroke-width:1px;stroke-linecap:butt;stroke-linejoin:miter;stroke-opacity:1" d="M 463.571,678.411 463.571,697.092 z" id="boundary" inkscape:connector-curvature="0" />
	<path style="fill:none;stroke:red;stroke-width:1px;stroke-linecap:butt;stroke-linejoin:miter;stroke-opacity:1" d="M 463.571,697.092 472.911,713.906 z" id="boundary" inkscape:connector-curvature="0" />
	<path style="fill:none;stroke:red;stroke-width:1px;stroke-linecap:butt;stroke-linejoin:miter;stroke-opacity:1" d="M 467.307,753.137 482.252,730.719 z" id="boundary" inkscape:connector-curvature="0" />
	<path style="fill:none;stroke:red;stroke-width:1px;stroke-linecap:butt;stroke-linejoin:miter;stroke-opacity:1" d="M 471.043,13.3409 489.725,13.3409 z" id="boundary" inkscape:connector-curvature="0" />
	<path style="fill:none;stroke:red;stroke-width:1px;stroke-linecap:butt;stroke-linejoin:miter;stroke-opacity:1" d="M 472.911,626.102 480.384,644.783 z" id="boundary" inkscape:connector-curvature="0" />
	<path style="fill:none;stroke:red;stroke-width:1px;stroke-linecap:butt;stroke-linejoin:miter;stroke-opacity:1" d="M 472.911,713.906 482.252,730.719 z" id="boundary" inkscape:connector-curvature="0" />
	<path style="fill:none;stroke:red;stroke-width:1px;stroke-linecap:butt;stroke-linejoin:miter;stroke-opacity:1" d="M 480.384,644.783 489.725,661.597 z" id="boundary" inkscape:connector-curvature="0" />
	<path style="fill:none;stroke:red;stroke-width:1px;stroke-linecap:butt;stroke-linejoin:miter;stroke-opacity:1" d="M 489.725,13.3409 508.407,13.3409 z" id="boundary" inkscape:connector-curvature="0" />
	<path style="fill:none;stroke:red;stroke-width:1px;stroke-linecap:butt;stroke-linejoin:miter;stroke-opacity:1" d="M 489.725,661.597 499.066,678.411 z" id="boundary" inkscape:connector-curvature="0" />
	<path style="fill:none;stroke:red;stroke-width:1px;stroke-linecap:butt;stroke-linejoin:miter;stroke-opacity:1" d="M 499.066,678.411 510.275,693.356 z" id="boundary" inkscape:connector-curvature="0" />
	<path style="fill:none;stroke:red;stroke-width:1px;stroke-linecap:butt;stroke-linejoin:miter;stroke-opacity:1" d="M 508.407,13.3409 527.089,13.3409 z" id="boundary" inkscape:connector-curvature="0" />
	<path style="fill:none;stroke:red;stroke-width:1px;stroke-linecap:butt;stroke-linejoin:miter;stroke-opacity:1" d="M 510.275,693.356 528.957,700.829 z" id="boundary" inkscape:connector-curvature="0" />
	<path style="fill:none;stroke:red;stroke-width:1px;stroke-linecap:butt;stroke-linejoin:miter;stroke-opacity:1" d="M 519.616,454.23 519.616,472.911 z" id="boundary" inkscape:connector-curvature="0" />
	<path style="fill:none;stroke:red;stroke-width:1px;stroke-linecap:butt;stroke-linejoin:miter;stroke-opacity:1" d="M 519.616,454.23 538.298,454.23 z" id="boundary" inkscape:connector-curvature="0" />
	<path style="fill:none;stroke:red;stroke-width:1px;stroke-linecap:butt;stroke-linejoin:miter;stroke-opacity:1" d="M 519.616,472.911 528.957,489.725 z" id="boundary" inkscape:connector-curvature="0" />
	<path style="fill:none;stroke:red;stroke-width:1px;stroke-linecap:butt;stroke-linejoin:miter;stroke-opacity:1" d="M 527.089,13.3409 545.77,13.3409 z" id="boundary" inkscape:connector-curvature="0" />
	<path style="fill:none;stroke:red;stroke-width:1px;stroke-linecap:butt;stroke-linejoin:miter;stroke-opacity:1" d="M 528.957,489.725 538.298,506.539 z" id="boundary" inkscape:connector-curvature="0" />
	<path style="fill:none;stroke:red;stroke-width:1px;stroke-linecap:butt;stroke-linejoin:miter;stroke-opacity:1" d="M 528.957,700.829 545.77,710.169 z" id="boundary" inkscape:connector-curvature="0" />
	<path style="fill:none;stroke:red;stroke-width:1px;stroke-linecap:butt;stroke-linejoin:miter;stroke-opacity:1" d="M 538.298,454.23 556.979,457.966 z" id="boundary" inkscape:connector-curvature="0" />
	<path style="fill:none;stroke:red;stroke-width:1px;stroke-linecap:butt;stroke-linejoin:miter;stroke-opacity:1" d="M 538.298,506.539 538.298,525.22 z" id="boundary" inkscape:connector-curvature="0" />
	<path style="fill:none;stroke:red;stroke-width:1px;stroke-linecap:butt;stroke-linejoin:miter;stroke-opacity:1" d="M 538.298,525.22 547.638,542.034 z" id="boundary" inkscape:connector-curvature="0" />
	<path style="fill:none;stroke:red;stroke-width:1px;stroke-linecap:butt;stroke-linejoin:miter;stroke-opacity:1" d="M 545.77,13.3409 562.584,4 z" id="boundary" inkscape:connector-curvature="0" />
	<path style="fill:none;stroke:red;stroke-width:1px;stroke-linecap:butt;stroke-linejoin:miter;stroke-opacity:1" d="M 545.77,710.169 545.77,728.851 z" id="boundary" inkscape:connector-curvature="0" />
	<path style="fill:none;stroke:red;stroke-width:1px;stroke-linecap:butt;stroke-linejoin:miter;stroke-opacity:1" d="M 545.77,728.851 555.111,745.665 z" id="boundary" inkscape:connector-curvature="0" />
	<path style="fill:none;stroke:red;stroke-width:1px;stroke-linecap:butt;stroke-linejoin:miter;stroke-opacity:1" d="M 547.638,542.034 547.638,560.716 z" id="boundary" inkscape:connector-curvature="0" />
	<path style="fill:none;stroke:red;stroke-width:1px;stroke-linecap:butt;stroke-linejoin:miter;stroke-opacity:1" d="M 547.638,560.716 547.638,579.397 z" id="boundary" inkscape:connector-curvature="0" />
	<path style="fill:none;stroke:red;stroke-width:1px;stroke-linecap:butt;stroke-linejoin:miter;stroke-opacity:1" d="M 547.638,579.397 555.111,598.079 z" id="boundary" inkscape:connector-curvature="0" />
	<path style="fill:none;stroke:red;stroke-width:1px;stroke-linecap:butt;stroke-linejoin:miter;stroke-opacity:1" d="M 555.111,598.079 566.32,613.024 z" id="boundary" inkscape:connector-curvature="0" />
	<path style="fill:none;stroke:red;stroke-width:1px;stroke-linecap:butt;stroke-linejoin:miter;stroke-opacity:1" d="M 555.111,745.665 573.793,738.192 z" id="boundary" inkscape:connector-curvature="0" />
	<path style="fill:none;stroke:red;stroke-width:1px;stroke-linecap:butt;stroke-linejoin:miter;stroke-opacity:1" d="M 556.979,457.966 575.661,454.23 z" id="boundary" inkscape:connector-curvature="0" />
	<path style="fill:none;stroke:red;stroke-width:1px;stroke-linecap:butt;stroke-linejoin:miter;stroke-opacity:1" d="M 562.584,4 581.266,4 z" id="boundary" inkscape:connector-curvature="0" />
	<path style="fill:none;stroke:red;stroke-width:1px;stroke-linecap:butt;stroke-linejoin:miter;stroke-opacity:1" d="M 566.32,613.024 570.056,631.706 z" id="boundary" inkscape:connector-curvature="0" />
	<path style="fill:none;stroke:red;stroke-width:1px;stroke-linecap:butt;stroke-linejoin:miter;stroke-opacity:1" d="M 570.056,631.706 588.738,629.838 z" id="boundary" inkscape:connector-curvature="0" />
	<path style="fill:none;stroke:red;stroke-width:1px;stroke-linecap:butt;stroke-linejoin:miter;stroke-opacity:1" d="M 573.793,738.192 585.002,715.774 z" id="boundary" inkscape:connector-curvature="0" />
	<path style="fill:none;stroke:red;stroke-width:1px;stroke-linecap:butt;stroke-linejoin:miter;stroke-opacity:1" d="M 575.661,454.23 594.343,454.23 z" id="boundary" inkscape:connector-curvature="0" />
	<path style="fill:none;stroke:red;stroke-width:1px;stroke-linecap:butt;stroke-linejoin:miter;stroke-opacity:1" d="M 581.266,4 599.947,4 z" id="boundary" inkscape:connector-curvature="0" />
	<path style="fill:none;stroke:red;stroke-width:1px;stroke-linecap:butt;stroke-linejoin:miter;stroke-opacity:1" d="M 585.002,715.774 599.947,702.697 z" id="boundary" inkscape:connector-curvature="0" />
	<path style="fill:none;stroke:red;stroke-width:1px;stroke-linecap:butt;stroke-linejoin:miter;stroke-opacity:1" d="M 588.738,629.838 605.552,639.179 z" id="boundary" inkscape:connector-curvature="0" />
	<path style="fill:none;stroke:red;stroke-width:1px;stroke-linecap:butt;stroke-linejoin:miter;stroke-opacity:1" d="M 594.343,454.23 611.156,463.571 z" id="boundary" inkscape:connector-curvature="0" />
	<path style="fill:none;stroke:red;stroke-width:1px;stroke-linecap:butt;stroke-linejoin:miter;stroke-opacity:1" d="M 599.947,4 618.629,4 z" id="boundary" inkscape:connector-curvature="0" />
	<path style="fill:none;stroke:red;stroke-width:1px;stroke-linecap:butt;stroke-linejoin:miter;stroke-opacity:1" d="M 599.947,702.697 603.684,678.411 z" id="boundary" inkscape:connector-curvature="0" />
	<path style="fill:none;stroke:red;stroke-width:1px;stroke-linecap:butt;stroke-linejoin:miter;stroke-opacity:1" d="M 603.684,678.411 613.024,657.861 z" id="boundary" inkscape:connector-curvature="0" />
	<path style="fill:none;stroke:red;stroke-width:1px;stroke-linecap:butt;stroke-linejoin:miter;stroke-opacity:1" d="M 605.552,639.179 613.024,657.861 z" id="boundary" inkscape:connector-curvature="0" />
	<path style="fill:none;stroke:red;stroke-width:1px;stroke-linecap:butt;stroke-linejoin:miter;stroke-opacity:1" d="M 611.156,463.571 629.838,457.966 z" id="boundary" inkscape:connector-curvature="0" />
	<path style="fill:none;stroke:red;stroke-width:1px;stroke-linecap:butt;stroke-linejoin:miter;stroke-opacity:1" d="M 618.629,4 637.311,5.86817 z" id="boundary" inkscape:connector-curvature="0" />
	<path style="fill:none;stroke:red;stroke-width:1px;stroke-linecap:butt;stroke-linejoin:miter;stroke-opacity:1" d="M 629.838,457.966 648.52,454.23 z" id="boundary" inkscape:connector-curvature="0" />
	<path style="fill:none;stroke:red;stroke-width:1px;stroke-linecap:butt;stroke-linejoin:miter;stroke-opacity:1" d="M 637.311,5.86817 655.992,13.3409 z" id="boundary" inkscape:connector-curvature="0" />
	<path style="fill:none;stroke:red;stroke-width:1px;stroke-linecap:butt;stroke-linejoin:miter;stroke-opacity:1" d="M 639.179,691.488 648.52,672.806 z" id="boundary" inkscape:connector-curvature="0" />
	<path style="fill:none;stroke:red;stroke-width:1px;stroke-linecap:butt;stroke-linejoin:miter;stroke-opacity:1" d="M 639.179,691.488 648.52,708.301 z" id="boundary" inkscape:connector-curvature="0" />
	<path style="fill:none;stroke:red;stroke-width:1px;stroke-linecap:butt;stroke-linejoin:miter;stroke-opacity:1" d="M 648.52,454.23 667.202,454.23 z" id="boundary" inkscape:connector-curvature="0" />
	<path style="fill:none;stroke:red;stroke-width:1px;stroke-linecap:butt;stroke-linejoin:miter;stroke-opacity:1" d="M 648.52,672.806 657.861,644.783 z" id="boundary" inkscape:connector-curvature="0" />
	<path style="fill:none;stroke:red;stroke-width:1px;stroke-linecap:butt;stroke-linejoin:miter;stroke-opacity:1" d="M 648.52,708.301 661.597,723.247 z" id="boundary" inkscape:connector-curvature="0" />
	<path style="fill:none;stroke:red;stroke-width:1px;stroke-linecap:butt;stroke-linejoin:miter;stroke-opacity:1" d="M 655.992,13.3409 674.674,13.3409 z" id="boundary" inkscape:connector-curvature="0" />
	<path style="fill:none;stroke:red;stroke-width:1px;stroke-linecap:butt;stroke-linejoin:miter;stroke-opacity:1" d="M 657.861,644.783 667.202,626.102 z" id="boundary" inkscape:connector-curvature="0" />
	<path style="fill:none;stroke:red;stroke-width:1px;stroke-linecap:butt;stroke-linejoin:miter;stroke-opacity:1" d="M 661.597,723.247 680.279,725.115 z" id="boundary" inkscape:connector-curvature="0" />
	<path style="fill:none;stroke:red;stroke-width:1px;stroke-linecap:butt;stroke-linejoin:miter;stroke-opacity:1" d="M 667.202,454.23 676.542,471.043 z" id="boundary" inkscape:connector-curvature="0" />
	<path style="fill:none;stroke:red;stroke-width:1px;stroke-linecap:butt;stroke-linejoin:miter;stroke-opacity:1" d="M 667.202,579.397 676.542,560.716 z" id="boundary" inkscape:connector-curvature="0" />
	<path style="fill:none;stroke:red;stroke-width:1px;stroke-linecap:butt;stroke-linejoin:miter;stroke-opacity:1" d="M 667.202,579.397 676.542,596.211 z" id="boundary" inkscape:connector-curvature="0" />
	<path style="fill:none;stroke:red;stroke-width:1px;stroke-linecap:butt;stroke-linejoin:miter;stroke-opacity:1" d="M 667.202,626.102 676.542,596.211 z" id="boundary" inkscape:connector-curvature="0" />
	<path style="fill:none;stroke:red;stroke-width:1px;stroke-linecap:butt;stroke-linejoin:miter;stroke-opacity:1" d="M 674.674,13.3409 693.356,15.209 z" id="boundary" inkscape:connector-curvature="0" />
	<path style="fill:none;stroke:red;stroke-width:1px;stroke-linecap:butt;stroke-linejoin:miter;stroke-opacity:1" d="M 676.542,471.043 685.883,487.857 z" id="boundary" inkscape:connector-curvature="0" />
	<path style="fill:none;stroke:red;stroke-width:1px;stroke-linecap:butt;stroke-linejoin:miter;stroke-opacity:1" d="M 676.542,523.352 676.542,542.034 z" id="boundary" inkscape:connector-curvature="0" />
	<path style="fill:none;stroke:red;stroke-width:1px;stroke-linecap:butt;stroke-linejoin:miter;stroke-opacity:1" d="M 676.542,523.352 685.883,506.539 z" id="boundary" inkscape:connector-curvature="0" />
	<path style="fill:none;stroke:red;stroke-width:1px;stroke-linecap:butt;stroke-linejoin:miter;stroke-opacity:1" d="M 676.542,542.034 676.542,560.716 z" id="boundary" inkscape:connector-curvature="0" />
	<path style="fill:none;stroke:red;stroke-width:1px;stroke-linecap:butt;stroke-linejoin:miter;stroke-opacity:1" d="M 680.279,725.115 697.092,715.774 z" id="boundary" inkscape:connector-curvature="0" />
	<path style="fill:none;stroke:red;stroke-width:1px;stroke-linecap:butt;stroke-linejoin:miter;stroke-opacity:1" d="M 685.883,487.857 685.883,506.539 z" id="boundary" inkscape:connector-curvature="0" />
	<path style="fill:none;stroke:red;stroke-width:1px;stroke-linecap:butt;stroke-linejoin:miter;stroke-opacity:1" d="M 693.356,15.209 712.038,22.6817 z" id="boundary" inkscape:connector-curvature="0" />
	<path style="fill:none;stroke:red;stroke-width:1px;stroke-linecap:butt;stroke-linejoin:miter;stroke-opacity:1" d="M 697.092,715.774 715.774,719.51 z" id="boundary" inkscape:connector-curvature="0" />
	<path style="fill:none;stroke:red;stroke-width:1px;stroke-linecap:butt;stroke-linejoin:miter;stroke-opacity:1" d="M 712.038,22.6817 730.719,24.5499 z" id="boundary" inkscape:connector-curvature="0" />
	<path style="fill:none;stroke:red;stroke-width:1px;stroke-linecap:butt;stroke-linejoin:miter;stroke-opacity:1" d="M 715.774,719.51 734.456,725.115 z" id="boundary" inkscape:connector-curvature="0" />
	<path style="fill:none;stroke:red;stroke-width:1px;stroke-linecap:butt;stroke-linejoin:miter;stroke-opacity:1" d="M 730.719,24.5499 747.533,33.8908 z" id="boundary" inkscape:connector-curvature="0" />
	<path style="fill:none;stroke:red;stroke-width:1px;stroke-linecap:butt;stroke-linejoin:miter;stroke-opacity:1" d="M 734.456,725.115 753.137,715.774 z" id="boundary" inkscape:connector-curvature="0" />
	<path style="fill:none;stroke:red;stroke-width:1px;stroke-linecap:butt;stroke-linejoin:miter;stroke-opacity:1" d="M 747.533,33.8908 766.215,41.3635 z" id="boundary" inkscape:connector-curvature="0" />
	<path style="fill:none;stroke:red;stroke-width:1px;stroke-linecap:butt;stroke-linejoin:miter;stroke-opacity:1" d="M 762.478,650.388 762.478,669.07 z" id="boundary" inkscape:connector-curvature="0" />
	<path style="fill:none;stroke:red;stroke-width:1px;stroke-linecap:butt;stroke-linejoin:miter;stroke-opacity:1" d="M 762.478,669.07 762.478,687.751 z" id="boundary" inkscape:connector-curvature="0" />
	<path style="fill:none;stroke:red;stroke-width:1px;stroke-linecap:butt;stroke-linejoin:miter;stroke-opacity:1" d="M 766.215,41.3635 784.896,41.3635 z" id="boundary" inkscape:connector-curvature="0" />
	<path style="fill:none;stroke:red;stroke-width:1px;stroke-linecap:butt;stroke-linejoin:miter;stroke-opacity:1" d="M 769.951,728.851 779.292,710.169 z" id="boundary" inkscape:connector-curvature="0" />
	<path style="fill:none;stroke:red;stroke-width:1px;stroke-linecap:butt;stroke-linejoin:miter;stroke-opacity:1" d="M 769.951,728.851 788.633,734.456 z" id="boundary" inkscape:connector-curvature="0" />
	<path style="fill:none;stroke:red;stroke-width:1px;stroke-linecap:butt;stroke-linejoin:miter;stroke-opacity:1" d="M 771.819,585.002 771.819,603.684 z" id="boundary" inkscape:connector-curvature="0" />
	<path style="fill:none;stroke:red;stroke-width:1px;stroke-linecap:butt;stroke-linejoin:miter;stroke-opacity:1" d="M 771.819,585.002 790.501,585.002 z" id="boundary" inkscape:connector-curvature="0" />
	<path style="fill:none;stroke:red;stroke-width:1px;stroke-linecap:butt;stroke-linejoin:miter;stroke-opacity:1" d="M 771.819,603.684 771.819,622.365 z" id="boundary" inkscape:connector-curvature="0" />
	<path style="fill:none;stroke:red;stroke-width:1px;stroke-linecap:butt;stroke-linejoin:miter;stroke-opacity:1" d="M 771.819,622.365 797.974,616.761 z" id="boundary" inkscape:connector-curvature="0" />
	<path style="fill:none;stroke:red;stroke-width:1px;stroke-linecap:butt;stroke-linejoin:miter;stroke-opacity:1" d="M 779.292,710.169 797.974,691.488 z" id="boundary" inkscape:connector-curvature="0" />
	<path style="fill:none;stroke:red;stroke-width:1px;stroke-linecap:butt;stroke-linejoin:miter;stroke-opacity:1" d="M 784.896,41.3635 803.578,41.3635 z" id="boundary" inkscape:connector-curvature="0" />
	<path style="fill:none;stroke:red;stroke-width:1px;stroke-linecap:butt;stroke-linejoin:miter;stroke-opacity:1" d="M 788.633,734.456 807.315,734.456 z" id="boundary" inkscape:connector-curvature="0" />
	<path style="fill:none;stroke:red;stroke-width:1px;stroke-linecap:butt;stroke-linejoin:miter;stroke-opacity:1" d="M 797.974,616.761 797.974,635.443 z" id="boundary" inkscape:connector-curvature="0" />
	<path style="fill:none;stroke:red;stroke-width:1px;stroke-linecap:butt;stroke-linejoin:miter;stroke-opacity:1" d="M 797.974,635.443 797.974,654.124 z" id="boundary" inkscape:connector-curvature="0" />
	<path style="fill:none;stroke:red;stroke-width:1px;stroke-linecap:butt;stroke-linejoin:miter;stroke-opacity:1" d="M 797.974,654.124 797.974,672.806 z" id="boundary" inkscape:connector-curvature="0" />
	<path style="fill:none;stroke:red;stroke-width:1px;stroke-linecap:butt;stroke-linejoin:miter;stroke-opacity:1" d="M 797.974,672.806 797.974,691.488 z" id="boundary" inkscape:connector-curvature="0" />
	<path style="fill:none;stroke:red;stroke-width:1px;stroke-linecap:butt;stroke-linejoin:miter;stroke-opacity:1" d="M 803.578,41.3635 816.655,56.3089 z" id="boundary" inkscape:connector-curvature="0" />
	<path style="fill:none;stroke:red;stroke-width:1px;stroke-linecap:butt;stroke-linejoin:miter;stroke-opacity:1" d="M 807.315,734.456 825.996,734.456 z" id="boundary" inkscape:connector-curvature="0" />
	<path style="fill:none;stroke:red;stroke-width:1px;stroke-linecap:butt;stroke-linejoin:miter;stroke-opacity:1" d="M 816.655,56.3089 835.337,63.7815 z" id="boundary" inkscape:connector-curvature="0" />
	<path style="fill:none;stroke:red;stroke-width:1px;stroke-linecap:butt;stroke-linejoin:miter;stroke-opacity:1" d="M 825.996,734.456 844.678,734.456 z" id="boundary" inkscape:connector-curvature="0" />
	<path style="fill:none;stroke:red;stroke-width:1px;stroke-linecap:butt;stroke-linejoin:miter;stroke-opacity:1" d="M 835.337,63.7815 846.546,78.7269 z" id="boundary" inkscape:connector-curvature="0" />
	<path style="fill:none;stroke:red;stroke-width:1px;stroke-linecap:butt;stroke-linejoin:miter;stroke-opacity:1" d="M 844.678,734.456 863.36,734.456 z" id="boundary" inkscape:connector-curvature="0" />
	<path style="fill:none;stroke:red;stroke-width:1px;stroke-linecap:butt;stroke-linejoin:miter;stroke-opacity:1" d="M 846.546,78.7269 865.228,84.3315 z" id="boundary" inkscape:connector-curvature="0" />
	<path style="fill:none;stroke:red;stroke-width:1px;stroke-linecap:butt;stroke-linejoin:miter;stroke-opacity:1" d="M 863.36,734.456 882.041,734.456 z" id="boundary" inkscape:connector-curvature="0" />
	<path style="fill:none;stroke:red;stroke-width:1px;stroke-linecap:butt;stroke-linejoin:miter;stroke-opacity:1" d="M 865.228,84.3315 880.173,97.4087 z" id="boundary" inkscape:connector-curvature="0" />
	<path style="fill:none;stroke:red;stroke-width:1px;stroke-linecap:butt;stroke-linejoin:miter;stroke-opacity:1" d="M 880.173,97.4087 896.987,106.75 z" id="boundary" inkscape:connector-curvature="0" />
	<path style="fill:none;stroke:red;stroke-width:1px;stroke-linecap:butt;stroke-linejoin:miter;stroke-opacity:1" d="M 882.041,734.456 900.723,728.851 z" id="boundary" inkscape:connector-curvature="0" />
	<path style="fill:none;stroke:red;stroke-width:1px;stroke-linecap:butt;stroke-linejoin:miter;stroke-opacity:1" d="M 893.25,482.252 893.25,500.934 z" id="boundary" inkscape:connector-curvature="0" />
	<path style="fill:none;stroke:red;stroke-width:1px;stroke-linecap:butt;stroke-linejoin:miter;stroke-opacity:1" d="M 893.25,482.252 902.591,463.571 z" id="boundary" inkscape:connector-curvature="0" />
	<path style="fill:none;stroke:red;stroke-width:1px;stroke-linecap:butt;stroke-linejoin:miter;stroke-opacity:1" d="M 893.25,500.934 893.25,519.616 z" id="boundary" inkscape:connector-curvature="0" />
	<path style="fill:none;stroke:red;stroke-width:1px;stroke-linecap:butt;stroke-linejoin:miter;stroke-opacity:1" d="M 893.25,519.616 893.25,538.298 z" id="boundary" inkscape:connector-curvature="0" />
	<path style="fill:none;stroke:red;stroke-width:1px;stroke-linecap:butt;stroke-linejoin:miter;stroke-opacity:1" d="M 893.25,538.298 893.25,556.979 z" id="boundary" inkscape:connector-curvature="0" />
	<path style="fill:none;stroke:red;stroke-width:1px;stroke-linecap:butt;stroke-linejoin:miter;stroke-opacity:1" d="M 893.25,556.979 896.987,575.661 z" id="boundary" inkscape:connector-curvature="0" />
	<path style="fill:none;stroke:red;stroke-width:1px;stroke-linecap:butt;stroke-linejoin:miter;stroke-opacity:1" d="M 896.987,106.75 910.064,121.695 z" id="boundary" inkscape:connector-curvature="0" />
	<path style="fill:none;stroke:red;stroke-width:1px;stroke-linecap:butt;stroke-linejoin:miter;stroke-opacity:1" d="M 896.987,575.661 902.591,594.343 z" id="boundary" inkscape:connector-curvature="0" />
	<path style="fill:none;stroke:red;stroke-width:1px;stroke-linecap:butt;stroke-linejoin:miter;stroke-opacity:1" d="M 900.723,728.851 902.591,706.433 z" id="boundary" inkscape:connector-curvature="0" />
	<path style="fill:none;stroke:red;stroke-width:1px;stroke-linecap:butt;stroke-linejoin:miter;stroke-opacity:1" d="M 902.591,444.889 902.591,463.571 z" id="boundary" inkscape:connector-curvature="0" />
	<path style="fill:none;stroke:red;stroke-width:1px;stroke-linecap:butt;stroke-linejoin:miter;stroke-opacity:1" d="M 902.591,444.889 911.932,416.866 z" id="boundary" inkscape:connector-curvature="0" />
	<path style="fill:none;stroke:red;stroke-width:1px;stroke-linecap:butt;stroke-linejoin:miter;stroke-opacity:1" d="M 902.591,594.343 906.328,613.024 z" id="boundary" inkscape:connector-curvature="0" />
	<path style="fill:none;stroke:red;stroke-width:1px;stroke-linecap:butt;stroke-linejoin:miter;stroke-opacity:1" d="M 902.591,641.047 902.591,659.729 z" id="boundary" inkscape:connector-curvature="0" />
	<path style="fill:none;stroke:red;stroke-width:1px;stroke-linecap:butt;stroke-linejoin:miter;stroke-opacity:1" d="M 902.591,641.047 906.328,613.024 z" id="boundary" inkscape:connector-curvature="0" />
	<path style="fill:none;stroke:red;stroke-width:1px;stroke-linecap:butt;stroke-linejoin:miter;stroke-opacity:1" d="M 902.591,659.729 902.591,678.411 z" id="boundary" inkscape:connector-curvature="0" />
	<path style="fill:none;stroke:red;stroke-width:1px;stroke-linecap:butt;stroke-linejoin:miter;stroke-opacity:1" d="M 902.591,678.411 902.591,706.433 z" id="boundary" inkscape:connector-curvature="0" />
	<path style="fill:none;stroke:red;stroke-width:1px;stroke-linecap:butt;stroke-linejoin:miter;stroke-opacity:1" d="M 910.064,121.695 911.932,140.377 z" id="boundary" inkscape:connector-curvature="0" />
	<path style="fill:none;stroke:red;stroke-width:1px;stroke-linecap:butt;stroke-linejoin:miter;stroke-opacity:1" d="M 911.932,140.377 928.746,149.718 z" id="boundary" inkscape:connector-curvature="0" />
	<path style="fill:none;stroke:red;stroke-width:1px;stroke-linecap:butt;stroke-linejoin:miter;stroke-opacity:1" d="M 921.273,379.503 921.273,398.185 z" id="boundary" inkscape:connector-curvature="0" />
	<path style="fill:none;stroke:red;stroke-width:1px;stroke-linecap:butt;stroke-linejoin:miter;stroke-opacity:1" d="M 928.746,149.718 938.087,166.531 z" id="boundary" inkscape:connector-curvature="0" />
	<path style="fill:none;stroke:red;stroke-width:1px;stroke-linecap:butt;stroke-linejoin:miter;stroke-opacity:1" d="M 938.087,166.531 939.955,185.213 z" id="boundary" inkscape:connector-curvature="0" />
	<path style="fill:none;stroke:red;stroke-width:1px;stroke-linecap:butt;stroke-linejoin:miter;stroke-opacity:1" d="M 938.087,370.162 938.087,388.844 z" id="boundary" inkscape:connector-curvature="0" />
	<path style="fill:none;stroke:red;stroke-width:1px;stroke-linecap:butt;stroke-linejoin:miter;stroke-opacity:1" d="M 938.087,388.844 938.087,407.525 z" id="boundary" inkscape:connector-curvature="0" />
	<path style="fill:none;stroke:red;stroke-width:1px;stroke-linecap:butt;stroke-linejoin:miter;stroke-opacity:1" d="M 939.955,185.213 939.955,203.895 z" id="boundary" inkscape:connector-curvature="0" />
	<path style="fill:none;stroke:red;stroke-width:1px;stroke-linecap:butt;stroke-linejoin:miter;stroke-opacity:1" d="M 939.955,203.895 949.296,220.708 z" id="boundary" inkscape:connector-curvature="0" />
	<path style="fill:none;stroke:red;stroke-width:1px;stroke-linecap:butt;stroke-linejoin:miter;stroke-opacity:1" d="M 943.691,426.207 947.427,444.889 z" id="boundary" inkscape:connector-curvature="0" />
	<path style="fill:none;stroke:red;stroke-width:1px;stroke-linecap:butt;stroke-linejoin:miter;stroke-opacity:1" d="M 943.691,426.207 962.373,426.207 z" id="boundary" inkscape:connector-curvature="0" />
	<path style="fill:none;stroke:red;stroke-width:1px;stroke-linecap:butt;stroke-linejoin:miter;stroke-opacity:1" d="M 947.427,444.889 953.032,463.571 z" id="boundary" inkscape:connector-curvature="0" />
	<path style="fill:none;stroke:red;stroke-width:1px;stroke-linecap:butt;stroke-linejoin:miter;stroke-opacity:1" d="M 949.296,220.708 949.296,239.39 z" id="boundary" inkscape:connector-curvature="0" />
	<path style="fill:none;stroke:red;stroke-width:1px;stroke-linecap:butt;stroke-linejoin:miter;stroke-opacity:1" d="M 949.296,239.39 953.032,258.072 z" id="boundary" inkscape:connector-curvature="0" />
	<path style="fill:none;stroke:red;stroke-width:1px;stroke-linecap:butt;stroke-linejoin:miter;stroke-opacity:1" d="M 953.032,258.072 958.637,276.753 z" id="boundary" inkscape:connector-curvature="0" />
	<path style="fill:none;stroke:red;stroke-width:1px;stroke-linecap:butt;stroke-linejoin:miter;stroke-opacity:1" d="M 953.032,463.571 966.109,478.516 z" id="boundary" inkscape:connector-curvature="0" />
	<path style="fill:none;stroke:red;stroke-width:1px;stroke-linecap:butt;stroke-linejoin:miter;stroke-opacity:1" d="M 958.637,276.753 958.637,295.435 z" id="boundary" inkscape:connector-curvature="0" />
	<path style="fill:none;stroke:red;stroke-width:1px;stroke-linecap:butt;stroke-linejoin:miter;stroke-opacity:1" d="M 958.637,295.435 958.637,314.117 z" id="boundary" inkscape:connector-curvature="0" />
	<path style="fill:none;stroke:red;stroke-width:1px;stroke-linecap:butt;stroke-linejoin:miter;stroke-opacity:1" d="M 958.637,314.117 958.637,332.798 z" id="boundary" inkscape:connector-curvature="0" />
	<path style="fill:none;stroke:red;stroke-width:1px;stroke-linecap:butt;stroke-linejoin:miter;stroke-opacity:1" d="M 958.637,332.798 958.637,351.48 z" id="boundary" inkscape:connector-curvature="0" />
	<path style="fill:none;stroke:red;stroke-width:1px;stroke-linecap:butt;stroke-linejoin:miter;stroke-opacity:1" d="M 958.637,351.48 967.977,368.294 z" id="boundary" inkscape:connector-curvature="0" />
	<path style="fill:none;stroke:red;stroke-width:1px;stroke-linecap:butt;stroke-linejoin:miter;stroke-opacity:1" d="M 958.637,388.844 958.637,407.525 z" id="boundary" inkscape:connector-curvature="0" />
	<path style="fill:none;stroke:red;stroke-width:1px;stroke-linecap:butt;stroke-linejoin:miter;stroke-opacity:1" d="M 958.637,407.525 962.373,426.207 z" id="boundary" inkscape:connector-curvature="0" />
	<path style="fill:none;stroke:red;stroke-width:1px;stroke-linecap:butt;stroke-linejoin:miter;stroke-opacity:1" d="M 966.109,478.516 966.109,497.198 z" id="boundary" inkscape:connector-curvature="0" />
	<path style="fill:none;stroke:red;stroke-width:1px;stroke-linecap:butt;stroke-linejoin:miter;stroke-opacity:1" d="M 966.109,497.198 966.109,515.879 z" id="boundary" inkscape:connector-curvature="0" />
	<path style="fill:none;stroke:red;stroke-width:1px;stroke-linecap:butt;stroke-linejoin:miter;stroke-opacity:1" d="M 966.109,515.879 975.45,532.693 z" id="boundary" inkscape:connector-curvature="0" />
	<path style="fill:none;stroke:red;stroke-width:1px;stroke-linecap:butt;stroke-linejoin:miter;stroke-opacity:1" d="M 967.977,444.889 977.318,461.702 z" id="boundary" inkscape:connector-curvature="0" />
	<path style="fill:none;stroke:red;stroke-width:1px;stroke-linecap:butt;stroke-linejoin:miter;stroke-opacity:1" d="M 975.45,532.693 994.132,532.693 z" id="boundary" inkscape:connector-curvature="0" />
	<path style="fill:none;stroke:red;stroke-width:1px;stroke-linecap:butt;stroke-linejoin:miter;stroke-opacity:1" d="M 977.318,461.702 986.659,478.516 z" id="boundary" inkscape:connector-curvature="0" />
	<path style="fill:none;stroke:red;stroke-width:1px;stroke-linecap:butt;stroke-linejoin:miter;stroke-opacity:1" d="M 986.659,478.516 996,495.33 z" id="boundary" inkscape:connector-curvature="0" />
	<path style="fill:none;stroke:red;stroke-width:1px;stroke-linecap:butt;stroke-linejoin:miter;stroke-opacity:1" d="M 994.132,532.693 996,514.011 z" id="boundary" inkscape:connector-curvature="0" />
	<path style="fill:none;stroke:red;stroke-width:1px;stroke-linecap:butt;stroke-linejoin:miter;stroke-opacity:1" d="M 996,495.33 996,514.011 z" id="boundary" inkscape:connector-curvature="0" />
	<circle cx="4" cy="364.557" r="4" fill="#0" id="circle0"/>
	<circle cx="4" cy="383.239" r="4" fill="#0" id="circle1"/>
	<circle cx="4" cy="401.921" r="4" fill="#0" id="circle2"/>
	<circle cx="13.3409" cy="280.49" r="4" fill="#0" id="circle3"/>
	<circle cx="13.3409" cy="308.512" r="4" fill="#0" id="circle4"/>
	<circle cx="13.3409" cy="327.194" r="4" fill="#0" id="circle5"/>
	<circle cx="13.3409" cy="345.876" r="4" fill="#0" id="circle6"/>
	<circle cx="13.3409" cy="418.734" r="4" fill="#0" id="circle7"/>
	<circle cx="13.3409" cy="437.416" r="4" fill="#0" id="circle8"/>
	<circle cx="13.3409" cy="456.098" r="4" fill="#0" id="circle9"/>
	<circle cx="13.3409" cy="474.78" r="4" fill="#0" id="circle10"/>
	<circle cx="13.3409" cy="493.461" r="4" fill="#0" id="circle11"/>
	<circle cx="22.6817" cy="233.785" r="4" fill="#0" id="circle12"/>
	<circle cx="22.6817" cy="252.467" r="4" fill="#0" id="circle13"/>
	<circle cx="22.6817" cy="510.275" r="4" fill="#0" id="circle14"/>
	<circle cx="22.6817" cy="528.957" r="4" fill="#0" id="circle15"/>
	<circle cx="32.0226" cy="187.081" r="4" fill="#0" id="circle16"/>
	<circle cx="32.0226" cy="205.763" r="4" fill="#0" id="circle17"/>
	<circle cx="32.0226" cy="545.77" r="4" fill="#0" id="circle18"/>
	<circle cx="41.3635" cy="159.058" r="4" fill="#0" id="circle19"/>
	<circle cx="41.3635" cy="562.584" r="4" fill="#0" id="circle20"/>
	<circle cx="41.3635" cy="581.266" r="4" fill="#0" id="circle21"/>
	<circle cx="50.7043" cy="140.377" r="4" fill="#0" id="circle22"/>
	<circle cx="50.7043" cy="598.079" r="4" fill="#0" id="circle23"/>
	<circle cx="60.0452" cy="121.695" r="4" fill="#0" id="circle24"/>
	<circle cx="60.0452" cy="614.893" r="4" fill="#0" id="circle25"/>
	<circle cx="69.3861" cy="103.013" r="4" fill="#0" id="circle26"/>
	<circle cx="73.1224" cy="629.838" r="4" fill="#0" id="circle27"/>
	<circle cx="84.3315" cy="88.0678" r="4" fill="#0" id="circle28"/>
	<circle cx="88.0678" cy="641.047" r="4" fill="#0" id="circle29"/>
	<circle cx="89.936" cy="435.548" r="4" fill="#0" id="circle30"/>
	<circle cx="89.936" cy="454.23" r="4" fill="#0" id="circle31"/>
	<circle cx="89.936" cy="472.911" r="4" fill="#0" id="circle32"/>
	<circle cx="89.936" cy="491.593" r="4" fill="#0" id="circle33"/>
	<circle cx="93.6723" cy="69.3861" r="4" fill="#0" id="circle34"/>
	<circle cx="93.6723" cy="510.275" r="4" fill="#0" id="circle35"/>
	<circle cx="99.2768" cy="416.866" r="4" fill="#0" id="circle36"/>
	<circle cx="99.2768" cy="528.957" r="4" fill="#0" id="circle37"/>
	<circle cx="99.2768" cy="547.638" r="4" fill="#0" id="circle38"/>
	<circle cx="99.2768" cy="566.32" r="4" fill="#0" id="circle39"/>
	<circle cx="99.2768" cy="655.992" r="4" fill="#0" id="circle40"/>
	<circle cx="103.013" cy="585.002" r="4" fill="#0" id="circle41"/>
	<circle cx="108.618" cy="54.4407" r="4" fill="#0" id="circle42"/>
	<circle cx="108.618" cy="398.185" r="4" fill="#0" id="circle43"/>
	<circle cx="114.222" cy="669.07" r="4" fill="#0" id="circle44"/>
	<circle cx="121.695" cy="592.475" r="4" fill="#0" id="circle45"/>
	<circle cx="127.299" cy="45.0998" r="4" fill="#0" id="circle46"/>
	<circle cx="127.299" cy="401.921" r="4" fill="#0" id="circle47"/>
	<circle cx="132.904" cy="669.07" r="4" fill="#0" id="circle48"/>
	<circle cx="140.377" cy="592.475" r="4" fill="#0" id="circle49"/>
	<circle cx="145.981" cy="41.3635" r="4" fill="#0" id="circle50"/>
	<circle cx="145.981" cy="370.162" r="4" fill="#0" id="circle51"/>
	<circle cx="145.981" cy="388.844" r="4" fill="#0" id="circle52"/>
	<circle cx="151.586" cy="665.333" r="4" fill="#0" id="circle53"/>
	<circle cx="155.322" cy="351.48" r="4" fill="#0" id="circle54"/>
	<circle cx="159.058" cy="592.475" r="4" fill="#0" id="circle55"/>
	<circle cx="164.663" cy="41.3635" r="4" fill="#0" id="circle56"/>
	<circle cx="164.663" cy="611.156" r="4" fill="#0" id="circle57"/>
	<circle cx="164.663" cy="650.388" r="4" fill="#0" id="circle58"/>
	<circle cx="172.136" cy="342.139" r="4" fill="#0" id="circle59"/>
	<circle cx="174.004" cy="631.706" r="4" fill="#0" id="circle60"/>
	<circle cx="183.345" cy="46.968" r="4" fill="#0" id="circle61"/>
	<circle cx="190.817" cy="336.535" r="4" fill="#0" id="circle62"/>
	<circle cx="200.158" cy="56.3089" r="4" fill="#0" id="circle63"/>
	<circle cx="209.499" cy="327.194" r="4" fill="#0" id="circle64"/>
	<circle cx="218.84" cy="60.0452" r="4" fill="#0" id="circle65"/>
	<circle cx="228.181" cy="332.798" r="4" fill="#0" id="circle66"/>
	<circle cx="237.522" cy="56.3089" r="4" fill="#0" id="circle67"/>
	<circle cx="246.863" cy="336.535" r="4" fill="#0" id="circle68"/>
	<circle cx="256.203" cy="50.7043" r="4" fill="#0" id="circle69"/>
	<circle cx="265.544" cy="332.798" r="4" fill="#0" id="circle70"/>
	<circle cx="265.544" cy="351.48" r="4" fill="#0" id="circle71"/>
	<circle cx="274.885" cy="50.7043" r="4" fill="#0" id="circle72"/>
	<circle cx="274.885" cy="368.294" r="4" fill="#0" id="circle73"/>
	<circle cx="286.094" cy="383.239" r="4" fill="#0" id="circle74"/>
	<circle cx="293.567" cy="46.968" r="4" fill="#0" id="circle75"/>
	<circle cx="293.567" cy="401.921" r="4" fill="#0" id="circle76"/>
	<circle cx="293.567" cy="420.603" r="4" fill="#0" id="circle77"/>
	<circle cx="302.908" cy="437.416" r="4" fill="#0" id="circle78"/>
	<circle cx="302.908" cy="456.098" r="4" fill="#0" id="circle79"/>
	<circle cx="302.908" cy="474.78" r="4" fill="#0" id="circle80"/>
	<circle cx="312.249" cy="41.3635" r="4" fill="#0" id="circle81"/>
	<circle cx="312.249" cy="491.593" r="4" fill="#0" id="circle82"/>
	<circle cx="321.589" cy="508.407" r="4" fill="#0" id="circle83"/>
	<circle cx="325.326" cy="527.089" r="4" fill="#0" id="circle84"/>
	<circle cx="330.93" cy="41.3635" r="4" fill="#0" id="circle85"/>
	<circle cx="330.93" cy="545.77" r="4" fill="#0" id="circle86"/>
	<circle cx="334.667" cy="564.452" r="4" fill="#0" id="circle87"/>
	<circle cx="340.271" cy="583.134" r="4" fill="#0" id="circle88"/>
	<circle cx="340.271" cy="766.215" r="4" fill="#0" id="circle89"/>
	<circle cx="342.139" cy="26.4181" r="4" fill="#0" id="circle90"/>
	<circle cx="344.008" cy="601.815" r="4" fill="#0" id="circle91"/>
	<circle cx="349.612" cy="620.497" r="4" fill="#0" id="circle92"/>
	<circle cx="355.217" cy="751.269" r="4" fill="#0" id="circle93"/>
	<circle cx="358.953" cy="637.311" r="4" fill="#0" id="circle94"/>
	<circle cx="358.953" cy="655.992" r="4" fill="#0" id="circle95"/>
	<circle cx="358.953" cy="771.819" r="4" fill="#0" id="circle96"/>
	<circle cx="360.821" cy="32.0226" r="4" fill="#0" id="circle97"/>
	<circle cx="360.821" cy="674.674" r="4" fill="#0" id="circle98"/>
	<circle cx="364.557" cy="732.588" r="4" fill="#0" id="circle99"/>
	<circle cx="370.162" cy="691.488" r="4" fill="#0" id="circle100"/>
	<circle cx="377.635" cy="771.819" r="4" fill="#0" id="circle101"/>
	<circle cx="379.503" cy="32.0226" r="4" fill="#0" id="circle102"/>
	<circle cx="379.503" cy="717.642" r="4" fill="#0" id="circle103"/>
	<circle cx="396.316" cy="771.819" r="4" fill="#0" id="circle104"/>
	<circle cx="398.185" cy="32.0226" r="4" fill="#0" id="circle105"/>
	<circle cx="414.998" cy="771.819" r="4" fill="#0" id="circle106"/>
	<circle cx="416.866" cy="26.4181" r="4" fill="#0" id="circle107"/>
	<circle cx="433.68" cy="771.819" r="4" fill="#0" id="circle108"/>
	<circle cx="435.548" cy="22.6817" r="4" fill="#0" id="circle109"/>
	<circle cx="450.493" cy="762.478" r="4" fill="#0" id="circle110"/>
	<circle cx="452.362" cy="13.3409" r="4" fill="#0" id="circle111"/>
	<circle cx="454.23" cy="622.365" r="4" fill="#0" id="circle112"/>
	<circle cx="454.23" cy="641.047" r="4" fill="#0" id="circle113"/>
	<circle cx="457.966" cy="659.729" r="4" fill="#0" id="circle114"/>
	<circle cx="463.571" cy="678.411" r="4" fill="#0" id="circle115"/>
	<circle cx="463.571" cy="697.092" r="4" fill="#0" id="circle116"/>
	<circle cx="467.307" cy="753.137" r="4" fill="#0" id="circle117"/>
	<circle cx="471.043" cy="13.3409" r="4" fill="#0" id="circle118"/>
	<circle cx="472.911" cy="626.102" r="4" fill="#0" id="circle119"/>
	<circle cx="472.911" cy="713.906" r="4" fill="#0" id="circle120"/>
	<circle cx="480.384" cy="644.783" r="4" fill="#0" id="circle121"/>
	<circle cx="482.252" cy="730.719" r="4" fill="#0" id="circle122"/>
	<circle cx="489.725" cy="13.3409" r="4" fill="#0" id="circle123"/>
	<circle cx="489.725" cy="661.597" r="4" fill="#0" id="circle124"/>
	<circle cx="499.066" cy="678.411" r="4" fill="#0" id="circle125"/>
	<circle cx="508.407" cy="13.3409" r="4" fill="#0" id="circle126"/>
	<circle cx="510.275" cy="693.356" r="4" fill="#0" id="circle127"/>
	<circle cx="519.616" cy="454.23" r="4" fill="#0" id="circle128"/>
	<circle cx="519.616" cy="472.911" r="4" fill="#0" id="circle129"/>
	<circle cx="527.089" cy="13.3409" r="4" fill="#0" id="circle130"/>
	<circle cx="528.957" cy="489.725" r="4" fill="#0" id="circle131"/>
	<circle cx="528.957" cy="700.829" r="4" fill="#0" id="circle132"/>
	<circle cx="538.298" cy="454.23" r="4" fill="#0" id="circle133"/>
	<circle cx="538.298" cy="506.539" r="4" fill="#0" id="circle134"/>
	<circle cx="538.298" cy="525.22" r="4" fill="#0" id="circle135"/>
	<circle cx="545.77" cy="13.3409" r="4" fill="#0" id="circle136"/>
	<circle cx="545.77" cy="710.169" r="4" fill="#0" id="circle137"/>
	<circle cx="545.77" cy="728.851" r="4" fill="#0" id="circle138"/>
	<circle cx="547.638" cy="542.034" r="4" fill="#0" id="circle139"/>
	<circle cx="547.638" cy="560.716" r="4" fill="#0" id="circle140"/>
	<circle cx="547.638" cy="579.397" r="4" fill="#0" id="circle141"/>
	<circle cx="555.111" cy="598.079" r="4" fill="#0" id="circle142"/>
	<circle cx="555.111" cy="745.665" r="4" fill="#0" id="circle143"/>
	<circle cx="556.979" cy="457.966" r="4" fill="#0" id="circle144"/>
	<circle cx="562.584" cy="4" r="4" fill="#0" id="circle145"/>
	<circle cx="566.32" cy="613.024" r="4" fill="#0" id="circle146"/>
	<circle cx="570.056" cy="631.706" r="4" fill="#0" id="circle147"/>
	<circle cx="573.793" cy="738.192" r="4" fill="#0" id="circle148"/>
	<circle cx="575.661" cy="454.23" r="4" fill="#0" id="circle149"/>
	<circle cx="581.266" cy="4" r="4" fill="#0" id="circle150"/>
	<circle cx="585.002" cy="715.774" r="4" fill="#0" id="circle151"/>
	<circle cx="588.738" cy="629.838" r="4" fill="#0" id="circle152"/>
	<circle cx="594.343" cy="454.23" r="4" fill="#0" id="circle153"/>
	<circle cx="599.947" cy="4" r="4" fill="#0" id="circle154"/>
	<circle cx="599.947" cy="702.697" r="4" fill="#0" id="circle155"/>
	<circle cx="603.684" cy="678.411" r="4" fill="#0" id="circle156"/>
	<circle cx="605.552" cy="639.179" r="4" fill="#0" id="circle157"/>
	<circle cx="611.156" cy="463.571" r="4" fill="#0" id="circle158"/>
	<circle cx="613.024" cy="657.861" r="4" fill="#0" id="circle159"/>
	<circle cx="618.629" cy="4" r="4" fill="#0" id="circle160"/>
	<circle cx="629.838" cy="457.966" r="4" fill="#0" id="circle161"/>
	<circle cx="637.311" cy="5.86817" r="4" fill="#0" id="circle162"/>
	<circle cx="639.179" cy="691.488" r="4" fill="#0" id="circle163"/>
	<circle cx="648.52" cy="454.23" r="4" fill="#0" id="circle164"/>
	<circle cx="648.52" cy="672.806" r="4" fill="#0" id="circle165"/>
	<circle cx="648.52" cy="708.301" r="4" fill="#0" id="circle166"/>
	<circle cx="655.992" cy="13.3409" r="4" fill="#0" id="circle167"/>
	<circle cx="657.861" cy="644.783" r="4" fill="#0" id="circle168"/>
	<circle cx="661.597" cy="723.247" r="4" fill="#0" id="circle169"/>
	<circle cx="667.202" cy="454.23" r="4" fill="#0" id="circle170"/>
	<circle cx="667.202" cy="579.397" r="4" fill="#0" id="circle171"/>
	<circle cx="667.202" cy="626.102" r="4" fill="#0" id="circle172"/>
	<circle cx="674.674" cy="13.3409" r="4" fill="#0" id="circle173"/>
	<circle cx="676.542" cy="471.043" r="4" fill="#0" id="circle174"/>
	<circle cx="676.542" cy="523.352" r="4" fill="#0" id="circle175"/>
	<circle cx="676.542" cy="542.034" r="4" fill="#0" id="circle176"/>
	<circle cx="676.542" cy="560.716" r="4" fill="#0" id="circle177"/>
	<circle cx="676.542" cy="596.211" r="4" fill="#0" id="circle178"/>
	<circle cx="680.279" cy="725.115" r="4" fill="#0" id="circle179"/>
	<circle cx="685.883" cy="487.857" r="4" fill="#0" id="circle180"/>
	<circle cx="685.883" cy="506.539" r="4" fill="#0" id="circle181"/>
	<circle cx="693.356" cy="15.209" r="4" fill="#0" id="circle182"/>
	<circle cx="697.092" cy="715.774" r="4" fill="#0" id="circle183"/>
	<circle cx="712.038" cy="22.6817" r="4" fill="#0" id="circle184"/>
	<circle cx="715.774" cy="719.51" r="4" fill="#0" id="circle185"/>
	<circle cx="730.719" cy="24.5499" r="4" fill="#0" id="circle186"/>
	<circle cx="734.456" cy="725.115" r="4" fill="#0" id="circle187"/>
	<circle cx="747.533" cy="33.8908" r="4" fill="#0" id="circle188"/>
	<circle cx="753.137" cy="715.774" r="4" fill="#0" id="circle189"/>
	<circle cx="762.478" cy="650.388" r="4" fill="#0" id="circle190"/>
	<circle cx="762.478" cy="669.07" r="4" fill="#0" id="circle191"/>
	<circle cx="762.478" cy="687.751" r="4" fill="#0" id="circle192"/>
	<circle cx="766.215" cy="41.3635" r="4" fill="#0" id="circle193"/>
	<circle cx="769.951" cy="728.851" r="4" fill="#0" id="circle194"/>
	<circle cx="771.819" cy="585.002" r="4" fill="#0" id="circle195"/>
	<circle cx="771.819" cy="603.684" r="4" fill="#0" id="circle196"/>
	<circle cx="771.819" cy="622.365" r="4" fill="#0" id="circle197"/>
	<circle cx="779.292" cy="710.169" r="4" fill="#0" id="circle198"/>
	<circle cx="784.896" cy="41.3635" r="4" fill="#0" id="circle199"/>
	<circle cx="788.633" cy="734.456" r="4" fill="#0" id="circle200"/>
	<circle cx="790.501" cy="585.002" r="4" fill="#0" id="circle201"/>
	<circle cx="797.974" cy="616.761" r="4" fill="#0" id="circle202"/>
	<circle cx="797.974" cy="635.443" r="4" fill="#0" id="circle203"/>
	<circle cx="797.974" cy="654.124" r="4" fill="#0" id="circle204"/>
	<circle cx="797.974" cy="672.806" r="4" fill="#0" id="circle205"/>
	<circle cx="797.974" cy="691.488" r="4" fill="#0" id="circle206"/>
	<circle cx="803.578" cy="41.3635" r="4" fill="#0" id="circle207"/>
	<circle cx="807.315" cy="734.456" r="4" fill="#0" id="circle208"/>
	<circle cx="816.655" cy="56.3089" r="4" fill="#0" id="circle209"/>
	<circle cx="825.996" cy="734.456" r="4" fill="#0" id="circle210"/>
	<circle cx="835.337" cy="63.7815" r="4" fill="#0" id="circle211"/>
	<circle cx="844.678" cy="734.456" r="4" fill="#0" id="circle212"/>
	<circle cx="846.546" cy="78.7269" r="4" fill="#0" id="circle213"/>
	<circle cx="863.36" cy="734.456" r="4" fill="#0" id="circle214"/>
	<circle cx="865.228" cy="84.3315" r="4" fill="#0" id="circle215"/>
	<circle cx="880.173" cy="97.4087" r="4" fill="#0" id="circle216"/>
	<circle cx="882.041" cy="734.456" r="4" fill="#0" id="circle217"/>
	<circle cx="893.25" cy="482.252" r="4" fill="#0" id="circle218"/>
	<circle cx="893.25" cy="500.934" r="4" fill="#0" id="circle219"/>
	<circle cx="893.25" cy="519.616" r="4" fill="#0" id="circle220"/>
	<circle cx="893.25" cy="538.298" r="4" fill="#0" id="circle221"/>
	<circle cx="893.25" cy="556.979" r="4" fill="#0" id="circle222"/>
	<circle cx="896.987" cy="106.75" r="4" fill="#0" id="circle223"/>
	<circle cx="896.987" cy="575.661" r="4" fill="#0" id="circle224"/>
	<circle cx="900.723" cy="728.851" r="4" fill="#0" id="circle225"/>
	<circle cx="902.591" cy="444.889" r="4" fill="#0" id="circle226"/>
	<circle cx="902.591" cy="463.571" r="4" fill="#0" id="circle227"/>
	<circle cx="902.591" cy="594.343" r="4" fill="#0" id="circle228"/>
	<circle cx="902.591" cy="641.047" r="4" fill="#0" id="circle229"/>
	<circle cx="902.591" cy="659.729" r="4" fill="#0" id="circle230"/>
	<circle cx="902.591" cy="678.411" r="4" fill="#0" id="circle231"/>
	<circle cx="902.591" cy="706.433" r="4" fill="#0" id="circle232"/>
	<circle cx="906.328" cy="613.024" r="4" fill="#0" id="circle233"/>
	<circle cx="910.064" cy="121.695" r="4" fill="#0" id="circle234"/>
	<circle cx="911.932" cy="140.377" r="4" fill="#0" id="circle235"/>
	<circle cx="911.932" cy="416.866" r="4" fill="#0" id="circle236"/>
	<circle cx="921.273" cy="379.503" r="4" fill="#0" id="circle237"/>
	<circle cx="921.273" cy="398.185" r="4" fill="#0" id="circle238"/>
	<circle cx="928.746" cy="149.718" r="4" fill="#0" id="circle239"/>
	<circle cx="938.087" cy="166.531" r="4" fill="#0" id="circle240"/>
	<circle cx="938.087" cy="370.162" r="4" fill="#0" id="circle241"/>
	<circle cx="938.087" cy="388.844" r="4" fill="#0" id="circle242"/>
	<circle cx="938.087" cy="407.525" r="4" fill="#0" id="circle243"/>
	<circle cx="939.955" cy="185.213" r="4" fill="#0" id="circle244"/>
	<circle cx="939.955" cy="203.895" r="4" fill="#0" id="circle245"/>
	<circle cx="943.691" cy="426.207" r="4" fill="#0" id="circle246"/>
	<circle cx="947.427" cy="444.889" r="4" fill="#0" id="circle247"/>
	<circle cx="949.296" cy="220.708" r="4" fill="#0" id="circle248"/>
	<circle cx="949.296" cy="239.39" r="4" fill="#0" id="circle249"/>
	<circle cx="953.032" cy="258.072" r="4" fill="#0" id="circle250"/>
	<circle cx="953.032" cy="463.571" r="4" fill="#0" id="circle251"/>
	<circle cx="958.637" cy="276.753" r="4" fill="#0" id="circle252"/>
	<circle cx="958.637" cy="295.435" r="4" fill="#0" id="circle253"/>
	<circle cx="958.637" cy="314.117" r="4" fill="#0" id="circle254"/>
	<circle cx="958.637" cy="332.798" r="4" fill="#0" id="circle255"/>
	<circle cx="958.637" cy="351.48" r="4" fill="#0" id="circle256"/>
	<circle cx="958.637" cy="388.844" r="4" fill="#0" id="circle257"/>
	<circle cx="958.637" cy="407.525" r="4" fill="#0" id="circle258"/>
	<circle cx="962.373" cy="426.207" r="4" fill="#0" id="circle259"/>
	<circle cx="966.109" cy="478.516" r="4" fill="#0" id="circle260"/>
	<circle cx="966.109" cy="497.198" r="4" fill="#0" id="circle261"/>
	<circle cx="966.109" cy="515.879" r="4" fill="#0" id="circle262"/>
	<circle cx="967.977" cy="368.294" r="4" fill="#0" id="circle263"/>
	<circle cx="967.977" cy="444.889" r="4" fill="#0" id="circle264"/>
	<circle cx="975.45" cy="532.693" r="4" fill="#0" id="circle265"/>
	<circle cx="977.318" cy="461.702" r="4" fill="#0" id="circle266"/>
	<circle cx="986.659" cy="478.516" r="4" fill="#0" id="circle267"/>
	<circle cx="994.132" cy="532.693" r="4" fill="#0" id="circle268"/>
	<circle cx="996" cy="495.33" r="4" fill="#0" id="circle269"/>
	<circle cx="996" cy="514.011" r="4" fill="#0" id="circle270"/>
	</g>
</svg>