<?xml version="1.0" encoding="UTF-8" standalone="no"?>
<!-- Created with CurveBenchmark -->
<svg
	xmlns:dc="http://purl.org/dc/elements/1.1/"
	xmlns:cc="http://creativecommons.org/ns#"
	xmlns:rdf="http://www.w3.org/1999/02/22-rdf-syntax-ns#"
	xmlns:svg="http://www.w3.org/2000/svg"
	xmlns="http://www.w3.org/2000/svg"
	xmlns:sodipodi="http://sodipodi.sourceforge.net/DTD/sodipodi-0.dtd"
	xmlns:inkscape="http://www.inkscape.org/namespaces/inkscape"
	width="1000"
	height="1000"
	id="svg2"
	version="1.1"
	sodipodi:docname="manifold/hnncrust-chopper-07.png.txt">
<defs
	id="defs4" />
<metadata
	id="metadata7">
	<rdf:RDF>
		<cc:Work
			rdf:about="">
			<dc:format>image/svg+xml</dc:format>
			<dc:type
				rdf:resource="http://purl.org/dc/dcmitype/StillImage" />
			<dc:title></dc:title>
		</cc:Work>
	</rdf:RDF>
</metadata>
<g
	inkscape:label="Layer 1"
	inkscape:groupmode="layer"
	id="layer1">
	<path style="fill:none;stroke:red;stroke-width:1px;stroke-linecap:butt;stroke-linejoin:miter;stroke-opacity:1" d="M 4,634.895 4,645.272 z" id="boundary" inkscape:connector-curvature="0" />
	<path style="fill:none;stroke:red;stroke-width:1px;stroke-linecap:butt;stroke-linejoin:miter;stroke-opacity:1" d="M 4,634.895 9.18828,624.519 z" id="boundary" inkscape:connector-curvature="0" />
	<path style="fill:none;stroke:red;stroke-width:1px;stroke-linecap:butt;stroke-linejoin:miter;stroke-opacity:1" d="M 4,645.272 4,655.649 z" id="boundary" inkscape:connector-curvature="0" />
	<path style="fill:none;stroke:red;stroke-width:1px;stroke-linecap:butt;stroke-linejoin:miter;stroke-opacity:1" d="M 4,655.649 9.18828,664.987 z" id="boundary" inkscape:connector-curvature="0" />
	<path style="fill:none;stroke:red;stroke-width:1px;stroke-linecap:butt;stroke-linejoin:miter;stroke-opacity:1" d="M 9.18828,624.519 17.4895,616.218 z" id="boundary" inkscape:connector-curvature="0" />
	<path style="fill:none;stroke:red;stroke-width:1px;stroke-linecap:butt;stroke-linejoin:miter;stroke-opacity:1" d="M 9.18828,664.987 16.4519,673.289 z" id="boundary" inkscape:connector-curvature="0" />
	<path style="fill:none;stroke:red;stroke-width:1px;stroke-linecap:butt;stroke-linejoin:miter;stroke-opacity:1" d="M 16.4519,673.289 26.8285,677.439 z" id="boundary" inkscape:connector-curvature="0" />
	<path style="fill:none;stroke:red;stroke-width:1px;stroke-linecap:butt;stroke-linejoin:miter;stroke-opacity:1" d="M 17.4895,616.218 27.8661,611.029 z" id="boundary" inkscape:connector-curvature="0" />
	<path style="fill:none;stroke:red;stroke-width:1px;stroke-linecap:butt;stroke-linejoin:miter;stroke-opacity:1" d="M 24.7531,453.305 24.7531,463.682 z" id="boundary" inkscape:connector-curvature="0" />
	<path style="fill:none;stroke:red;stroke-width:1px;stroke-linecap:butt;stroke-linejoin:miter;stroke-opacity:1" d="M 24.7531,453.305 29.9414,442.929 z" id="boundary" inkscape:connector-curvature="0" />
	<path style="fill:none;stroke:red;stroke-width:1px;stroke-linecap:butt;stroke-linejoin:miter;stroke-opacity:1" d="M 24.7531,463.682 24.7531,474.059 z" id="boundary" inkscape:connector-curvature="0" />
	<path style="fill:none;stroke:red;stroke-width:1px;stroke-linecap:butt;stroke-linejoin:miter;stroke-opacity:1" d="M 24.7531,474.059 24.7531,484.435 z" id="boundary" inkscape:connector-curvature="0" />
	<path style="fill:none;stroke:red;stroke-width:1px;stroke-linecap:butt;stroke-linejoin:miter;stroke-opacity:1" d="M 24.7531,484.435 24.7531,494.812 z" id="boundary" inkscape:connector-curvature="0" />
	<path style="fill:none;stroke:red;stroke-width:1px;stroke-linecap:butt;stroke-linejoin:miter;stroke-opacity:1" d="M 24.7531,494.812 24.7531,505.188 z" id="boundary" inkscape:connector-curvature="0" />
	<path style="fill:none;stroke:red;stroke-width:1px;stroke-linecap:butt;stroke-linejoin:miter;stroke-opacity:1" d="M 24.7531,505.188 24.7531,515.565 z" id="boundary" inkscape:connector-curvature="0" />
	<path style="fill:none;stroke:red;stroke-width:1px;stroke-linecap:butt;stroke-linejoin:miter;stroke-opacity:1" d="M 24.7531,515.565 24.7531,525.941 z" id="boundary" inkscape:connector-curvature="0" />
	<path style="fill:none;stroke:red;stroke-width:1px;stroke-linecap:butt;stroke-linejoin:miter;stroke-opacity:1" d="M 24.7531,525.941 24.7531,536.318 z" id="boundary" inkscape:connector-curvature="0" />
	<path style="fill:none;stroke:red;stroke-width:1px;stroke-linecap:butt;stroke-linejoin:miter;stroke-opacity:1" d="M 24.7531,536.318 29.9414,545.657 z" id="boundary" inkscape:connector-curvature="0" />
	<path style="fill:none;stroke:red;stroke-width:1px;stroke-linecap:butt;stroke-linejoin:miter;stroke-opacity:1" d="M 26.8285,677.439 37.205,679.515 z" id="boundary" inkscape:connector-curvature="0" />
	<path style="fill:none;stroke:red;stroke-width:1px;stroke-linecap:butt;stroke-linejoin:miter;stroke-opacity:1" d="M 27.8661,611.029 37.205,616.218 z" id="boundary" inkscape:connector-curvature="0" />
	<path style="fill:none;stroke:red;stroke-width:1px;stroke-linecap:butt;stroke-linejoin:miter;stroke-opacity:1" d="M 29.9414,432.552 29.9414,442.929 z" id="boundary" inkscape:connector-curvature="0" />
	<path style="fill:none;stroke:red;stroke-width:1px;stroke-linecap:butt;stroke-linejoin:miter;stroke-opacity:1" d="M 29.9414,432.552 35.1297,422.176 z" id="boundary" inkscape:connector-curvature="0" />
	<path style="fill:none;stroke:red;stroke-width:1px;stroke-linecap:butt;stroke-linejoin:miter;stroke-opacity:1" d="M 29.9414,545.657 35.1297,554.996 z" id="boundary" inkscape:connector-curvature="0" />
	<path style="fill:none;stroke:red;stroke-width:1px;stroke-linecap:butt;stroke-linejoin:miter;stroke-opacity:1" d="M 35.1297,401.423 35.1297,411.799 z" id="boundary" inkscape:connector-curvature="0" />
	<path style="fill:none;stroke:red;stroke-width:1px;stroke-linecap:butt;stroke-linejoin:miter;stroke-opacity:1" d="M 35.1297,401.423 40.318,385.858 z" id="boundary" inkscape:connector-curvature="0" />
	<path style="fill:none;stroke:red;stroke-width:1px;stroke-linecap:butt;stroke-linejoin:miter;stroke-opacity:1" d="M 35.1297,411.799 35.1297,422.176 z" id="boundary" inkscape:connector-curvature="0" />
	<path style="fill:none;stroke:red;stroke-width:1px;stroke-linecap:butt;stroke-linejoin:miter;stroke-opacity:1" d="M 35.1297,554.996 44.4686,560.184 z" id="boundary" inkscape:connector-curvature="0" />
	<path style="fill:none;stroke:red;stroke-width:1px;stroke-linecap:butt;stroke-linejoin:miter;stroke-opacity:1" d="M 37.205,616.218 46.5439,621.406 z" id="boundary" inkscape:connector-curvature="0" />
	<path style="fill:none;stroke:red;stroke-width:1px;stroke-linecap:butt;stroke-linejoin:miter;stroke-opacity:1" d="M 37.205,679.515 47.5816,682.628 z" id="boundary" inkscape:connector-curvature="0" />
	<path style="fill:none;stroke:red;stroke-width:1px;stroke-linecap:butt;stroke-linejoin:miter;stroke-opacity:1" d="M 40.318,375.481 40.318,385.858 z" id="boundary" inkscape:connector-curvature="0" />
	<path style="fill:none;stroke:red;stroke-width:1px;stroke-linecap:butt;stroke-linejoin:miter;stroke-opacity:1" d="M 40.318,375.481 45.5063,359.916 z" id="boundary" inkscape:connector-curvature="0" />
	<path style="fill:none;stroke:red;stroke-width:1px;stroke-linecap:butt;stroke-linejoin:miter;stroke-opacity:1" d="M 44.4686,560.184 53.8075,565.372 z" id="boundary" inkscape:connector-curvature="0" />
	<path style="fill:none;stroke:red;stroke-width:1px;stroke-linecap:butt;stroke-linejoin:miter;stroke-opacity:1" d="M 45.5063,359.916 50.6946,344.351 z" id="boundary" inkscape:connector-curvature="0" />
	<path style="fill:none;stroke:red;stroke-width:1px;stroke-linecap:butt;stroke-linejoin:miter;stroke-opacity:1" d="M 46.5439,621.406 54.8452,627.632 z" id="boundary" inkscape:connector-curvature="0" />
	<path style="fill:none;stroke:red;stroke-width:1px;stroke-linecap:butt;stroke-linejoin:miter;stroke-opacity:1" d="M 47.5816,682.628 57.9582,684.703 z" id="boundary" inkscape:connector-curvature="0" />
	<path style="fill:none;stroke:red;stroke-width:1px;stroke-linecap:butt;stroke-linejoin:miter;stroke-opacity:1" d="M 50.6946,333.975 50.6946,344.351 z" id="boundary" inkscape:connector-curvature="0" />
	<path style="fill:none;stroke:red;stroke-width:1px;stroke-linecap:butt;stroke-linejoin:miter;stroke-opacity:1" d="M 50.6946,333.975 55.8828,318.41 z" id="boundary" inkscape:connector-curvature="0" />
	<path style="fill:none;stroke:red;stroke-width:1px;stroke-linecap:butt;stroke-linejoin:miter;stroke-opacity:1" d="M 53.8075,565.372 64.1841,569.523 z" id="boundary" inkscape:connector-curvature="0" />
	<path style="fill:none;stroke:red;stroke-width:1px;stroke-linecap:butt;stroke-linejoin:miter;stroke-opacity:1" d="M 54.8452,627.632 56.9205,638.008 z" id="boundary" inkscape:connector-curvature="0" />
	<path style="fill:none;stroke:red;stroke-width:1px;stroke-linecap:butt;stroke-linejoin:miter;stroke-opacity:1" d="M 55.8828,308.033 55.8828,318.41 z" id="boundary" inkscape:connector-curvature="0" />
	<path style="fill:none;stroke:red;stroke-width:1px;stroke-linecap:butt;stroke-linejoin:miter;stroke-opacity:1" d="M 55.8828,308.033 61.0711,297.657 z" id="boundary" inkscape:connector-curvature="0" />
	<path style="fill:none;stroke:red;stroke-width:1px;stroke-linecap:butt;stroke-linejoin:miter;stroke-opacity:1" d="M 56.9205,638.008 56.9205,648.385 z" id="boundary" inkscape:connector-curvature="0" />
	<path style="fill:none;stroke:red;stroke-width:1px;stroke-linecap:butt;stroke-linejoin:miter;stroke-opacity:1" d="M 56.9205,648.385 62.1088,657.724 z" id="boundary" inkscape:connector-curvature="0" />
	<path style="fill:none;stroke:red;stroke-width:1px;stroke-linecap:butt;stroke-linejoin:miter;stroke-opacity:1" d="M 57.9582,684.703 68.3347,684.703 z" id="boundary" inkscape:connector-curvature="0" />
	<path style="fill:none;stroke:red;stroke-width:1px;stroke-linecap:butt;stroke-linejoin:miter;stroke-opacity:1" d="M 61.0711,297.657 66.2594,287.28 z" id="boundary" inkscape:connector-curvature="0" />
	<path style="fill:none;stroke:red;stroke-width:1px;stroke-linecap:butt;stroke-linejoin:miter;stroke-opacity:1" d="M 62.1088,657.724 72.4854,657.724 z" id="boundary" inkscape:connector-curvature="0" />
	<path style="fill:none;stroke:red;stroke-width:1px;stroke-linecap:butt;stroke-linejoin:miter;stroke-opacity:1" d="M 64.1841,569.523 74.5607,570.561 z" id="boundary" inkscape:connector-curvature="0" />
	<path style="fill:none;stroke:red;stroke-width:1px;stroke-linecap:butt;stroke-linejoin:miter;stroke-opacity:1" d="M 66.2594,287.28 74.5607,278.979 z" id="boundary" inkscape:connector-curvature="0" />
	<path style="fill:none;stroke:red;stroke-width:1px;stroke-linecap:butt;stroke-linejoin:miter;stroke-opacity:1" d="M 68.3347,684.703 77.6736,689.891 z" id="boundary" inkscape:connector-curvature="0" />
	<path style="fill:none;stroke:red;stroke-width:1px;stroke-linecap:butt;stroke-linejoin:miter;stroke-opacity:1" d="M 72.4854,657.724 82.8619,657.724 z" id="boundary" inkscape:connector-curvature="0" />
	<path style="fill:none;stroke:red;stroke-width:1px;stroke-linecap:butt;stroke-linejoin:miter;stroke-opacity:1" d="M 74.5607,278.979 79.749,268.603 z" id="boundary" inkscape:connector-curvature="0" />
	<path style="fill:none;stroke:red;stroke-width:1px;stroke-linecap:butt;stroke-linejoin:miter;stroke-opacity:1" d="M 74.5607,570.561 84.9372,570.561 z" id="boundary" inkscape:connector-curvature="0" />
	<path style="fill:none;stroke:red;stroke-width:1px;stroke-linecap:butt;stroke-linejoin:miter;stroke-opacity:1" d="M 77.6736,689.891 88.0502,689.891 z" id="boundary" inkscape:connector-curvature="0" />
	<path style="fill:none;stroke:red;stroke-width:1px;stroke-linecap:butt;stroke-linejoin:miter;stroke-opacity:1" d="M 79.749,268.603 87.0126,256.151 z" id="boundary" inkscape:connector-curvature="0" />
	<path style="fill:none;stroke:red;stroke-width:1px;stroke-linecap:butt;stroke-linejoin:miter;stroke-opacity:1" d="M 82.8619,657.724 93.2385,657.724 z" id="boundary" inkscape:connector-curvature="0" />
	<path style="fill:none;stroke:red;stroke-width:1px;stroke-linecap:butt;stroke-linejoin:miter;stroke-opacity:1" d="M 84.9372,570.561 94.2762,575.749 z" id="boundary" inkscape:connector-curvature="0" />
	<path style="fill:none;stroke:red;stroke-width:1px;stroke-linecap:butt;stroke-linejoin:miter;stroke-opacity:1" d="M 87.0126,256.151 95.3138,247.849 z" id="boundary" inkscape:connector-curvature="0" />
	<path style="fill:none;stroke:red;stroke-width:1px;stroke-linecap:butt;stroke-linejoin:miter;stroke-opacity:1" d="M 88.0502,689.891 98.4268,689.891 z" id="boundary" inkscape:connector-curvature="0" />
	<path style="fill:none;stroke:red;stroke-width:1px;stroke-linecap:butt;stroke-linejoin:miter;stroke-opacity:1" d="M 93.2385,657.724 103.615,657.724 z" id="boundary" inkscape:connector-curvature="0" />
	<path style="fill:none;stroke:red;stroke-width:1px;stroke-linecap:butt;stroke-linejoin:miter;stroke-opacity:1" d="M 94.2762,575.749 104.653,578.862 z" id="boundary" inkscape:connector-curvature="0" />
	<path style="fill:none;stroke:red;stroke-width:1px;stroke-linecap:butt;stroke-linejoin:miter;stroke-opacity:1" d="M 95.3138,247.849 102.577,235.397 z" id="boundary" inkscape:connector-curvature="0" />
	<path style="fill:none;stroke:red;stroke-width:1px;stroke-linecap:butt;stroke-linejoin:miter;stroke-opacity:1" d="M 98.4268,689.891 108.803,689.891 z" id="boundary" inkscape:connector-curvature="0" />
	<path style="fill:none;stroke:red;stroke-width:1px;stroke-linecap:butt;stroke-linejoin:miter;stroke-opacity:1" d="M 102.577,235.397 110.879,227.096 z" id="boundary" inkscape:connector-curvature="0" />
	<path style="fill:none;stroke:red;stroke-width:1px;stroke-linecap:butt;stroke-linejoin:miter;stroke-opacity:1" d="M 103.615,657.724 113.992,657.724 z" id="boundary" inkscape:connector-curvature="0" />
	<path style="fill:none;stroke:red;stroke-width:1px;stroke-linecap:butt;stroke-linejoin:miter;stroke-opacity:1" d="M 104.653,578.862 115.029,580.937 z" id="boundary" inkscape:connector-curvature="0" />
	<path style="fill:none;stroke:red;stroke-width:1px;stroke-linecap:butt;stroke-linejoin:miter;stroke-opacity:1" d="M 108.803,689.891 119.18,689.891 z" id="boundary" inkscape:connector-curvature="0" />
	<path style="fill:none;stroke:red;stroke-width:1px;stroke-linecap:butt;stroke-linejoin:miter;stroke-opacity:1" d="M 110.879,227.096 119.18,218.795 z" id="boundary" inkscape:connector-curvature="0" />
	<path style="fill:none;stroke:red;stroke-width:1px;stroke-linecap:butt;stroke-linejoin:miter;stroke-opacity:1" d="M 113.992,657.724 124.368,654.611 z" id="boundary" inkscape:connector-curvature="0" />
	<path style="fill:none;stroke:red;stroke-width:1px;stroke-linecap:butt;stroke-linejoin:miter;stroke-opacity:1" d="M 115.029,580.937 125.406,580.937 z" id="boundary" inkscape:connector-curvature="0" />
	<path style="fill:none;stroke:red;stroke-width:1px;stroke-linecap:butt;stroke-linejoin:miter;stroke-opacity:1" d="M 119.18,218.795 127.481,211.531 z" id="boundary" inkscape:connector-curvature="0" />
	<path style="fill:none;stroke:red;stroke-width:1px;stroke-linecap:butt;stroke-linejoin:miter;stroke-opacity:1" d="M 119.18,689.891 129.556,689.891 z" id="boundary" inkscape:connector-curvature="0" />
	<path style="fill:none;stroke:red;stroke-width:1px;stroke-linecap:butt;stroke-linejoin:miter;stroke-opacity:1" d="M 124.368,654.611 134.745,652.536 z" id="boundary" inkscape:connector-curvature="0" />
	<path style="fill:none;stroke:red;stroke-width:1px;stroke-linecap:butt;stroke-linejoin:miter;stroke-opacity:1" d="M 125.406,580.937 135.782,580.937 z" id="boundary" inkscape:connector-curvature="0" />
	<path style="fill:none;stroke:red;stroke-width:1px;stroke-linecap:butt;stroke-linejoin:miter;stroke-opacity:1" d="M 127.481,211.531 134.745,203.23 z" id="boundary" inkscape:connector-curvature="0" />
	<path style="fill:none;stroke:red;stroke-width:1px;stroke-linecap:butt;stroke-linejoin:miter;stroke-opacity:1" d="M 129.556,689.891 139.933,684.703 z" id="boundary" inkscape:connector-curvature="0" />
	<path style="fill:none;stroke:red;stroke-width:1px;stroke-linecap:butt;stroke-linejoin:miter;stroke-opacity:1" d="M 134.745,203.23 145.121,198.042 z" id="boundary" inkscape:connector-curvature="0" />
	<path style="fill:none;stroke:red;stroke-width:1px;stroke-linecap:butt;stroke-linejoin:miter;stroke-opacity:1" d="M 134.745,652.536 145.121,652.536 z" id="boundary" inkscape:connector-curvature="0" />
	<path style="fill:none;stroke:red;stroke-width:1px;stroke-linecap:butt;stroke-linejoin:miter;stroke-opacity:1" d="M 135.782,580.937 146.159,580.937 z" id="boundary" inkscape:connector-curvature="0" />
	<path style="fill:none;stroke:red;stroke-width:1px;stroke-linecap:butt;stroke-linejoin:miter;stroke-opacity:1" d="M 139.933,684.703 150.31,679.515 z" id="boundary" inkscape:connector-curvature="0" />
	<path style="fill:none;stroke:red;stroke-width:1px;stroke-linecap:butt;stroke-linejoin:miter;stroke-opacity:1" d="M 145.121,198.042 153.423,190.778 z" id="boundary" inkscape:connector-curvature="0" />
	<path style="fill:none;stroke:red;stroke-width:1px;stroke-linecap:butt;stroke-linejoin:miter;stroke-opacity:1" d="M 145.121,652.536 155.498,649.423 z" id="boundary" inkscape:connector-curvature="0" />
	<path style="fill:none;stroke:red;stroke-width:1px;stroke-linecap:butt;stroke-linejoin:miter;stroke-opacity:1" d="M 146.159,580.937 156.536,580.937 z" id="boundary" inkscape:connector-curvature="0" />
	<path style="fill:none;stroke:red;stroke-width:1px;stroke-linecap:butt;stroke-linejoin:miter;stroke-opacity:1" d="M 150.31,679.515 160.686,674.326 z" id="boundary" inkscape:connector-curvature="0" />
	<path style="fill:none;stroke:red;stroke-width:1px;stroke-linecap:butt;stroke-linejoin:miter;stroke-opacity:1" d="M 153.423,190.778 162.762,185.59 z" id="boundary" inkscape:connector-curvature="0" />
	<path style="fill:none;stroke:red;stroke-width:1px;stroke-linecap:butt;stroke-linejoin:miter;stroke-opacity:1" d="M 155.498,649.423 165.874,647.347 z" id="boundary" inkscape:connector-curvature="0" />
	<path style="fill:none;stroke:red;stroke-width:1px;stroke-linecap:butt;stroke-linejoin:miter;stroke-opacity:1" d="M 156.536,580.937 166.912,580.937 z" id="boundary" inkscape:connector-curvature="0" />
	<path style="fill:none;stroke:red;stroke-width:1px;stroke-linecap:butt;stroke-linejoin:miter;stroke-opacity:1" d="M 160.686,674.326 171.063,674.326 z" id="boundary" inkscape:connector-curvature="0" />
	<path style="fill:none;stroke:red;stroke-width:1px;stroke-linecap:butt;stroke-linejoin:miter;stroke-opacity:1" d="M 162.762,185.59 173.138,180.402 z" id="boundary" inkscape:connector-curvature="0" />
	<path style="fill:none;stroke:red;stroke-width:1px;stroke-linecap:butt;stroke-linejoin:miter;stroke-opacity:1" d="M 165.874,647.347 175.213,642.159 z" id="boundary" inkscape:connector-curvature="0" />
	<path style="fill:none;stroke:red;stroke-width:1px;stroke-linecap:butt;stroke-linejoin:miter;stroke-opacity:1" d="M 166.912,580.937 177.289,580.937 z" id="boundary" inkscape:connector-curvature="0" />
	<path style="fill:none;stroke:red;stroke-width:1px;stroke-linecap:butt;stroke-linejoin:miter;stroke-opacity:1" d="M 171.063,674.326 180.402,669.138 z" id="boundary" inkscape:connector-curvature="0" />
	<path style="fill:none;stroke:red;stroke-width:1px;stroke-linecap:butt;stroke-linejoin:miter;stroke-opacity:1" d="M 173.138,180.402 183.515,175.213 z" id="boundary" inkscape:connector-curvature="0" />
	<path style="fill:none;stroke:red;stroke-width:1px;stroke-linecap:butt;stroke-linejoin:miter;stroke-opacity:1" d="M 175.213,642.159 184.552,636.971 z" id="boundary" inkscape:connector-curvature="0" />
	<path style="fill:none;stroke:red;stroke-width:1px;stroke-linecap:butt;stroke-linejoin:miter;stroke-opacity:1" d="M 177.289,580.937 187.665,580.937 z" id="boundary" inkscape:connector-curvature="0" />
	<path style="fill:none;stroke:red;stroke-width:1px;stroke-linecap:butt;stroke-linejoin:miter;stroke-opacity:1" d="M 180.402,669.138 190.778,669.138 z" id="boundary" inkscape:connector-curvature="0" />
	<path style="fill:none;stroke:red;stroke-width:1px;stroke-linecap:butt;stroke-linejoin:miter;stroke-opacity:1" d="M 183.515,175.213 193.891,175.213 z" id="boundary" inkscape:connector-curvature="0" />
	<path style="fill:none;stroke:red;stroke-width:1px;stroke-linecap:butt;stroke-linejoin:miter;stroke-opacity:1" d="M 184.552,636.971 190.778,622.444 z" id="boundary" inkscape:connector-curvature="0" />
	<path style="fill:none;stroke:red;stroke-width:1px;stroke-linecap:butt;stroke-linejoin:miter;stroke-opacity:1" d="M 187.665,580.937 190.778,591.314 z" id="boundary" inkscape:connector-curvature="0" />
	<path style="fill:none;stroke:red;stroke-width:1px;stroke-linecap:butt;stroke-linejoin:miter;stroke-opacity:1" d="M 190.778,591.314 190.778,601.69 z" id="boundary" inkscape:connector-curvature="0" />
	<path style="fill:none;stroke:red;stroke-width:1px;stroke-linecap:butt;stroke-linejoin:miter;stroke-opacity:1" d="M 190.778,601.69 190.778,612.067 z" id="boundary" inkscape:connector-curvature="0" />
	<path style="fill:none;stroke:red;stroke-width:1px;stroke-linecap:butt;stroke-linejoin:miter;stroke-opacity:1" d="M 190.778,612.067 190.778,622.444 z" id="boundary" inkscape:connector-curvature="0" />
	<path style="fill:none;stroke:red;stroke-width:1px;stroke-linecap:butt;stroke-linejoin:miter;stroke-opacity:1" d="M 190.778,669.138 200.117,663.95 z" id="boundary" inkscape:connector-curvature="0" />
	<path style="fill:none;stroke:red;stroke-width:1px;stroke-linecap:butt;stroke-linejoin:miter;stroke-opacity:1" d="M 193.891,175.213 204.268,170.025 z" id="boundary" inkscape:connector-curvature="0" />
	<path style="fill:none;stroke:red;stroke-width:1px;stroke-linecap:butt;stroke-linejoin:miter;stroke-opacity:1" d="M 200.117,663.95 210.494,661.874 z" id="boundary" inkscape:connector-curvature="0" />
	<path style="fill:none;stroke:red;stroke-width:1px;stroke-linecap:butt;stroke-linejoin:miter;stroke-opacity:1" d="M 204.268,170.025 214.644,170.025 z" id="boundary" inkscape:connector-curvature="0" />
	<path style="fill:none;stroke:red;stroke-width:1px;stroke-linecap:butt;stroke-linejoin:miter;stroke-opacity:1" d="M 210.494,661.874 220.87,658.762 z" id="boundary" inkscape:connector-curvature="0" />
	<path style="fill:none;stroke:red;stroke-width:1px;stroke-linecap:butt;stroke-linejoin:miter;stroke-opacity:1" d="M 214.644,170.025 223.983,164.837 z" id="boundary" inkscape:connector-curvature="0" />
	<path style="fill:none;stroke:red;stroke-width:1px;stroke-linecap:butt;stroke-linejoin:miter;stroke-opacity:1" d="M 220.87,658.762 231.247,658.762 z" id="boundary" inkscape:connector-curvature="0" />
	<path style="fill:none;stroke:red;stroke-width:1px;stroke-linecap:butt;stroke-linejoin:miter;stroke-opacity:1" d="M 223.983,164.837 234.36,160.686 z" id="boundary" inkscape:connector-curvature="0" />
	<path style="fill:none;stroke:red;stroke-width:1px;stroke-linecap:butt;stroke-linejoin:miter;stroke-opacity:1" d="M 231.247,658.762 240.586,653.573 z" id="boundary" inkscape:connector-curvature="0" />
	<path style="fill:none;stroke:red;stroke-width:1px;stroke-linecap:butt;stroke-linejoin:miter;stroke-opacity:1" d="M 234.36,160.686 244.736,159.649 z" id="boundary" inkscape:connector-curvature="0" />
	<path style="fill:none;stroke:red;stroke-width:1px;stroke-linecap:butt;stroke-linejoin:miter;stroke-opacity:1" d="M 240.586,653.573 250.962,653.573 z" id="boundary" inkscape:connector-curvature="0" />
	<path style="fill:none;stroke:red;stroke-width:1px;stroke-linecap:butt;stroke-linejoin:miter;stroke-opacity:1" d="M 244.736,159.649 254.075,154.46 z" id="boundary" inkscape:connector-curvature="0" />
	<path style="fill:none;stroke:red;stroke-width:1px;stroke-linecap:butt;stroke-linejoin:miter;stroke-opacity:1" d="M 250.962,653.573 261.339,652.536 z" id="boundary" inkscape:connector-curvature="0" />
	<path style="fill:none;stroke:red;stroke-width:1px;stroke-linecap:butt;stroke-linejoin:miter;stroke-opacity:1" d="M 254.075,154.46 264.452,151.347 z" id="boundary" inkscape:connector-curvature="0" />
	<path style="fill:none;stroke:red;stroke-width:1px;stroke-linecap:butt;stroke-linejoin:miter;stroke-opacity:1" d="M 261.339,652.536 271.715,648.385 z" id="boundary" inkscape:connector-curvature="0" />
	<path style="fill:none;stroke:red;stroke-width:1px;stroke-linecap:butt;stroke-linejoin:miter;stroke-opacity:1" d="M 264.452,151.347 274.828,149.272 z" id="boundary" inkscape:connector-curvature="0" />
	<path style="fill:none;stroke:red;stroke-width:1px;stroke-linecap:butt;stroke-linejoin:miter;stroke-opacity:1" d="M 271.715,648.385 282.092,648.385 z" id="boundary" inkscape:connector-curvature="0" />
	<path style="fill:none;stroke:red;stroke-width:1px;stroke-linecap:butt;stroke-linejoin:miter;stroke-opacity:1" d="M 274.828,149.272 285.205,146.159 z" id="boundary" inkscape:connector-curvature="0" />
	<path style="fill:none;stroke:red;stroke-width:1px;stroke-linecap:butt;stroke-linejoin:miter;stroke-opacity:1" d="M 282.092,648.385 292.469,648.385 z" id="boundary" inkscape:connector-curvature="0" />
	<path style="fill:none;stroke:red;stroke-width:1px;stroke-linecap:butt;stroke-linejoin:miter;stroke-opacity:1" d="M 285.205,146.159 295.582,144.084 z" id="boundary" inkscape:connector-curvature="0" />
	<path style="fill:none;stroke:red;stroke-width:1px;stroke-linecap:butt;stroke-linejoin:miter;stroke-opacity:1" d="M 292.469,648.385 302.845,648.385 z" id="boundary" inkscape:connector-curvature="0" />
	<path style="fill:none;stroke:red;stroke-width:1px;stroke-linecap:butt;stroke-linejoin:miter;stroke-opacity:1" d="M 295.582,144.084 304.921,138.895 z" id="boundary" inkscape:connector-curvature="0" />
	<path style="fill:none;stroke:red;stroke-width:1px;stroke-linecap:butt;stroke-linejoin:miter;stroke-opacity:1" d="M 302.845,648.385 313.222,648.385 z" id="boundary" inkscape:connector-curvature="0" />
	<path style="fill:none;stroke:red;stroke-width:1px;stroke-linecap:butt;stroke-linejoin:miter;stroke-opacity:1" d="M 304.921,138.895 315.297,138.895 z" id="boundary" inkscape:connector-curvature="0" />
	<path style="fill:none;stroke:red;stroke-width:1px;stroke-linecap:butt;stroke-linejoin:miter;stroke-opacity:1" d="M 313.222,648.385 323.598,648.385 z" id="boundary" inkscape:connector-curvature="0" />
	<path style="fill:none;stroke:red;stroke-width:1px;stroke-linecap:butt;stroke-linejoin:miter;stroke-opacity:1" d="M 315.297,33.0544 315.297,43.431 z" id="boundary" inkscape:connector-curvature="0" />
	<path style="fill:none;stroke:red;stroke-width:1px;stroke-linecap:butt;stroke-linejoin:miter;stroke-opacity:1" d="M 315.297,33.0544 320.485,22.6778 z" id="boundary" inkscape:connector-curvature="0" />
	<path style="fill:none;stroke:red;stroke-width:1px;stroke-linecap:butt;stroke-linejoin:miter;stroke-opacity:1" d="M 315.297,43.431 323.598,50.6946 z" id="boundary" inkscape:connector-curvature="0" />
	<path style="fill:none;stroke:red;stroke-width:1px;stroke-linecap:butt;stroke-linejoin:miter;stroke-opacity:1" d="M 315.297,138.895 325.674,138.895 z" id="boundary" inkscape:connector-curvature="0" />
	<path style="fill:none;stroke:red;stroke-width:1px;stroke-linecap:butt;stroke-linejoin:miter;stroke-opacity:1" d="M 320.485,22.6778 325.674,12.3013 z" id="boundary" inkscape:connector-curvature="0" />
	<path style="fill:none;stroke:red;stroke-width:1px;stroke-linecap:butt;stroke-linejoin:miter;stroke-opacity:1" d="M 323.598,50.6946 333.975,51.7322 z" id="boundary" inkscape:connector-curvature="0" />
	<path style="fill:none;stroke:red;stroke-width:1px;stroke-linecap:butt;stroke-linejoin:miter;stroke-opacity:1" d="M 323.598,648.385 333.975,648.385 z" id="boundary" inkscape:connector-curvature="0" />
	<path style="fill:none;stroke:red;stroke-width:1px;stroke-linecap:butt;stroke-linejoin:miter;stroke-opacity:1" d="M 325.674,12.3013 336.05,7.11297 z" id="boundary" inkscape:connector-curvature="0" />
	<path style="fill:none;stroke:red;stroke-width:1px;stroke-linecap:butt;stroke-linejoin:miter;stroke-opacity:1" d="M 325.674,138.895 336.05,138.895 z" id="boundary" inkscape:connector-curvature="0" />
	<path style="fill:none;stroke:red;stroke-width:1px;stroke-linecap:butt;stroke-linejoin:miter;stroke-opacity:1" d="M 333.975,51.7322 344.351,51.7322 z" id="boundary" inkscape:connector-curvature="0" />
	<path style="fill:none;stroke:red;stroke-width:1px;stroke-linecap:butt;stroke-linejoin:miter;stroke-opacity:1" d="M 333.975,648.385 344.351,648.385 z" id="boundary" inkscape:connector-curvature="0" />
	<path style="fill:none;stroke:red;stroke-width:1px;stroke-linecap:butt;stroke-linejoin:miter;stroke-opacity:1" d="M 336.05,7.11297 346.427,4 z" id="boundary" inkscape:connector-curvature="0" />
	<path style="fill:none;stroke:red;stroke-width:1px;stroke-linecap:butt;stroke-linejoin:miter;stroke-opacity:1" d="M 336.05,138.895 345.389,133.707 z" id="boundary" inkscape:connector-curvature="0" />
	<path style="fill:none;stroke:red;stroke-width:1px;stroke-linecap:butt;stroke-linejoin:miter;stroke-opacity:1" d="M 344.351,51.7322 354.728,51.7322 z" id="boundary" inkscape:connector-curvature="0" />
	<path style="fill:none;stroke:red;stroke-width:1px;stroke-linecap:butt;stroke-linejoin:miter;stroke-opacity:1" d="M 344.351,648.385 353.69,643.197 z" id="boundary" inkscape:connector-curvature="0" />
	<path style="fill:none;stroke:red;stroke-width:1px;stroke-linecap:butt;stroke-linejoin:miter;stroke-opacity:1" d="M 345.389,133.707 355.766,133.707 z" id="boundary" inkscape:connector-curvature="0" />
	<path style="fill:none;stroke:red;stroke-width:1px;stroke-linecap:butt;stroke-linejoin:miter;stroke-opacity:1" d="M 346.427,4 356.803,4 z" id="boundary" inkscape:connector-curvature="0" />
	<path style="fill:none;stroke:red;stroke-width:1px;stroke-linecap:butt;stroke-linejoin:miter;stroke-opacity:1" d="M 353.69,643.197 364.067,643.197 z" id="boundary" inkscape:connector-curvature="0" />
	<path style="fill:none;stroke:red;stroke-width:1px;stroke-linecap:butt;stroke-linejoin:miter;stroke-opacity:1" d="M 354.728,51.7322 365.105,51.7322 z" id="boundary" inkscape:connector-curvature="0" />
	<path style="fill:none;stroke:red;stroke-width:1px;stroke-linecap:butt;stroke-linejoin:miter;stroke-opacity:1" d="M 355.766,133.707 365.105,128.519 z" id="boundary" inkscape:connector-curvature="0" />
	<path style="fill:none;stroke:red;stroke-width:1px;stroke-linecap:butt;stroke-linejoin:miter;stroke-opacity:1" d="M 356.803,4 367.18,4 z" id="boundary" inkscape:connector-curvature="0" />
	<path style="fill:none;stroke:red;stroke-width:1px;stroke-linecap:butt;stroke-linejoin:miter;stroke-opacity:1" d="M 356.803,84.9372 356.803,95.3138 z" id="boundary" inkscape:connector-curvature="0" />
	<path style="fill:none;stroke:red;stroke-width:1px;stroke-linecap:butt;stroke-linejoin:miter;stroke-opacity:1" d="M 356.803,84.9372 365.105,76.636 z" id="boundary" inkscape:connector-curvature="0" />
	<path style="fill:none;stroke:red;stroke-width:1px;stroke-linecap:butt;stroke-linejoin:miter;stroke-opacity:1" d="M 356.803,95.3138 367.18,98.4268 z" id="boundary" inkscape:connector-curvature="0" />
	<path style="fill:none;stroke:red;stroke-width:1px;stroke-linecap:butt;stroke-linejoin:miter;stroke-opacity:1" d="M 364.067,643.197 374.444,643.197 z" id="boundary" inkscape:connector-curvature="0" />
	<path style="fill:none;stroke:red;stroke-width:1px;stroke-linecap:butt;stroke-linejoin:miter;stroke-opacity:1" d="M 365.105,51.7322 367.18,62.1088 z" id="boundary" inkscape:connector-curvature="0" />
	<path style="fill:none;stroke:red;stroke-width:1px;stroke-linecap:butt;stroke-linejoin:miter;stroke-opacity:1" d="M 365.105,76.636 367.18,62.1088 z" id="boundary" inkscape:connector-curvature="0" />
	<path style="fill:none;stroke:red;stroke-width:1px;stroke-linecap:butt;stroke-linejoin:miter;stroke-opacity:1" d="M 365.105,128.519 375.481,123.331 z" id="boundary" inkscape:connector-curvature="0" />
	<path style="fill:none;stroke:red;stroke-width:1px;stroke-linecap:butt;stroke-linejoin:miter;stroke-opacity:1" d="M 367.18,4 377.556,4 z" id="boundary" inkscape:connector-curvature="0" />
	<path style="fill:none;stroke:red;stroke-width:1px;stroke-linecap:butt;stroke-linejoin:miter;stroke-opacity:1" d="M 367.18,98.4268 376.519,103.615 z" id="boundary" inkscape:connector-curvature="0" />
	<path style="fill:none;stroke:red;stroke-width:1px;stroke-linecap:butt;stroke-linejoin:miter;stroke-opacity:1" d="M 374.444,643.197 384.82,643.197 z" id="boundary" inkscape:connector-curvature="0" />
	<path style="fill:none;stroke:red;stroke-width:1px;stroke-linecap:butt;stroke-linejoin:miter;stroke-opacity:1" d="M 375.481,123.331 385.858,123.331 z" id="boundary" inkscape:connector-curvature="0" />
	<path style="fill:none;stroke:red;stroke-width:1px;stroke-linecap:butt;stroke-linejoin:miter;stroke-opacity:1" d="M 376.519,103.615 386.895,103.615 z" id="boundary" inkscape:connector-curvature="0" />
	<path style="fill:none;stroke:red;stroke-width:1px;stroke-linecap:butt;stroke-linejoin:miter;stroke-opacity:1" d="M 377.556,4 387.933,4 z" id="boundary" inkscape:connector-curvature="0" />
	<path style="fill:none;stroke:red;stroke-width:1px;stroke-linecap:butt;stroke-linejoin:miter;stroke-opacity:1" d="M 384.82,643.197 395.197,643.197 z" id="boundary" inkscape:connector-curvature="0" />
	<path style="fill:none;stroke:red;stroke-width:1px;stroke-linecap:butt;stroke-linejoin:miter;stroke-opacity:1" d="M 385.858,123.331 386.895,103.615 z" id="boundary" inkscape:connector-curvature="0" />
	<path style="fill:none;stroke:red;stroke-width:1px;stroke-linecap:butt;stroke-linejoin:miter;stroke-opacity:1" d="M 387.933,4 398.31,4 z" id="boundary" inkscape:connector-curvature="0" />
	<path style="fill:none;stroke:red;stroke-width:1px;stroke-linecap:butt;stroke-linejoin:miter;stroke-opacity:1" d="M 395.197,643.197 405.573,643.197 z" id="boundary" inkscape:connector-curvature="0" />
	<path style="fill:none;stroke:red;stroke-width:1px;stroke-linecap:butt;stroke-linejoin:miter;stroke-opacity:1" d="M 398.31,4 408.686,4 z" id="boundary" inkscape:connector-curvature="0" />
	<path style="fill:none;stroke:red;stroke-width:1px;stroke-linecap:butt;stroke-linejoin:miter;stroke-opacity:1" d="M 405.573,643.197 415.95,643.197 z" id="boundary" inkscape:connector-curvature="0" />
	<path style="fill:none;stroke:red;stroke-width:1px;stroke-linecap:butt;stroke-linejoin:miter;stroke-opacity:1" d="M 408.686,4 419.063,4 z" id="boundary" inkscape:connector-curvature="0" />
	<path style="fill:none;stroke:red;stroke-width:1px;stroke-linecap:butt;stroke-linejoin:miter;stroke-opacity:1" d="M 415.95,643.197 425.289,638.008 z" id="boundary" inkscape:connector-curvature="0" />
	<path style="fill:none;stroke:red;stroke-width:1px;stroke-linecap:butt;stroke-linejoin:miter;stroke-opacity:1" d="M 419.063,4 429.439,4 z" id="boundary" inkscape:connector-curvature="0" />
	<path style="fill:none;stroke:red;stroke-width:1px;stroke-linecap:butt;stroke-linejoin:miter;stroke-opacity:1" d="M 420.1,36.1674 420.1,46.5439 z" id="boundary" inkscape:connector-curvature="0" />
	<path style="fill:none;stroke:red;stroke-width:1px;stroke-linecap:butt;stroke-linejoin:miter;stroke-opacity:1" d="M 420.1,36.1674 430.477,30.9791 z" id="boundary" inkscape:connector-curvature="0" />
	<path style="fill:none;stroke:red;stroke-width:1px;stroke-linecap:butt;stroke-linejoin:miter;stroke-opacity:1" d="M 420.1,46.5439 425.289,55.8828 z" id="boundary" inkscape:connector-curvature="0" />
	<path style="fill:none;stroke:red;stroke-width:1px;stroke-linecap:butt;stroke-linejoin:miter;stroke-opacity:1" d="M 425.289,55.8828 435.665,55.8828 z" id="boundary" inkscape:connector-curvature="0" />
	<path style="fill:none;stroke:red;stroke-width:1px;stroke-linecap:butt;stroke-linejoin:miter;stroke-opacity:1" d="M 425.289,638.008 435.665,638.008 z" id="boundary" inkscape:connector-curvature="0" />
	<path style="fill:none;stroke:red;stroke-width:1px;stroke-linecap:butt;stroke-linejoin:miter;stroke-opacity:1" d="M 429.439,4 439.816,4 z" id="boundary" inkscape:connector-curvature="0" />
	<path style="fill:none;stroke:red;stroke-width:1px;stroke-linecap:butt;stroke-linejoin:miter;stroke-opacity:1" d="M 430.477,30.9791 440.854,30.9791 z" id="boundary" inkscape:connector-curvature="0" />
	<path style="fill:none;stroke:red;stroke-width:1px;stroke-linecap:butt;stroke-linejoin:miter;stroke-opacity:1" d="M 435.665,55.8828 446.042,58.9958 z" id="boundary" inkscape:connector-curvature="0" />
	<path style="fill:none;stroke:red;stroke-width:1px;stroke-linecap:butt;stroke-linejoin:miter;stroke-opacity:1" d="M 435.665,638.008 446.042,632.82 z" id="boundary" inkscape:connector-curvature="0" />
	<path style="fill:none;stroke:red;stroke-width:1px;stroke-linecap:butt;stroke-linejoin:miter;stroke-opacity:1" d="M 439.816,4 450.192,4 z" id="boundary" inkscape:connector-curvature="0" />
	<path style="fill:none;stroke:red;stroke-width:1px;stroke-linecap:butt;stroke-linejoin:miter;stroke-opacity:1" d="M 440.854,30.9791 450.192,25.7908 z" id="boundary" inkscape:connector-curvature="0" />
	<path style="fill:none;stroke:red;stroke-width:1px;stroke-linecap:butt;stroke-linejoin:miter;stroke-opacity:1" d="M 440.854,93.2385 440.854,103.615 z" id="boundary" inkscape:connector-curvature="0" />
	<path style="fill:none;stroke:red;stroke-width:1px;stroke-linecap:butt;stroke-linejoin:miter;stroke-opacity:1" d="M 440.854,93.2385 449.155,85.9749 z" id="boundary" inkscape:connector-curvature="0" />
	<path style="fill:none;stroke:red;stroke-width:1px;stroke-linecap:butt;stroke-linejoin:miter;stroke-opacity:1" d="M 440.854,103.615 440.854,113.992 z" id="boundary" inkscape:connector-curvature="0" />
	<path style="fill:none;stroke:red;stroke-width:1px;stroke-linecap:butt;stroke-linejoin:miter;stroke-opacity:1" d="M 440.854,113.992 451.23,118.142 z" id="boundary" inkscape:connector-curvature="0" />
	<path style="fill:none;stroke:red;stroke-width:1px;stroke-linecap:butt;stroke-linejoin:miter;stroke-opacity:1" d="M 446.042,58.9958 453.305,67.2971 z" id="boundary" inkscape:connector-curvature="0" />
	<path style="fill:none;stroke:red;stroke-width:1px;stroke-linecap:butt;stroke-linejoin:miter;stroke-opacity:1" d="M 446.042,570.561 446.042,580.937 z" id="boundary" inkscape:connector-curvature="0" />
	<path style="fill:none;stroke:red;stroke-width:1px;stroke-linecap:butt;stroke-linejoin:miter;stroke-opacity:1" d="M 446.042,570.561 451.23,560.184 z" id="boundary" inkscape:connector-curvature="0" />
	<path style="fill:none;stroke:red;stroke-width:1px;stroke-linecap:butt;stroke-linejoin:miter;stroke-opacity:1" d="M 446.042,580.937 446.042,591.314 z" id="boundary" inkscape:connector-curvature="0" />
	<path style="fill:none;stroke:red;stroke-width:1px;stroke-linecap:butt;stroke-linejoin:miter;stroke-opacity:1" d="M 446.042,591.314 451.23,600.653 z" id="boundary" inkscape:connector-curvature="0" />
	<path style="fill:none;stroke:red;stroke-width:1px;stroke-linecap:butt;stroke-linejoin:miter;stroke-opacity:1" d="M 446.042,632.82 454.343,625.556 z" id="boundary" inkscape:connector-curvature="0" />
	<path style="fill:none;stroke:red;stroke-width:1px;stroke-linecap:butt;stroke-linejoin:miter;stroke-opacity:1" d="M 449.155,85.9749 456.418,77.6736 z" id="boundary" inkscape:connector-curvature="0" />
	<path style="fill:none;stroke:red;stroke-width:1px;stroke-linecap:butt;stroke-linejoin:miter;stroke-opacity:1" d="M 450.192,4 460.569,6.07531 z" id="boundary" inkscape:connector-curvature="0" />
	<path style="fill:none;stroke:red;stroke-width:1px;stroke-linecap:butt;stroke-linejoin:miter;stroke-opacity:1" d="M 450.192,25.7908 459.531,20.6025 z" id="boundary" inkscape:connector-curvature="0" />
	<path style="fill:none;stroke:red;stroke-width:1px;stroke-linecap:butt;stroke-linejoin:miter;stroke-opacity:1" d="M 451.23,118.142 460.569,123.331 z" id="boundary" inkscape:connector-curvature="0" />
	<path style="fill:none;stroke:red;stroke-width:1px;stroke-linecap:butt;stroke-linejoin:miter;stroke-opacity:1" d="M 451.23,560.184 461.607,554.996 z" id="boundary" inkscape:connector-curvature="0" />
	<path style="fill:none;stroke:red;stroke-width:1px;stroke-linecap:butt;stroke-linejoin:miter;stroke-opacity:1" d="M 451.23,600.653 451.23,611.029 z" id="boundary" inkscape:connector-curvature="0" />
	<path style="fill:none;stroke:red;stroke-width:1px;stroke-linecap:butt;stroke-linejoin:miter;stroke-opacity:1" d="M 451.23,611.029 454.343,625.556 z" id="boundary" inkscape:connector-curvature="0" />
	<path style="fill:none;stroke:red;stroke-width:1px;stroke-linecap:butt;stroke-linejoin:miter;stroke-opacity:1" d="M 453.305,67.2971 456.418,77.6736 z" id="boundary" inkscape:connector-curvature="0" />
	<path style="fill:none;stroke:red;stroke-width:1px;stroke-linecap:butt;stroke-linejoin:miter;stroke-opacity:1" d="M 459.531,20.6025 460.569,6.07531 z" id="boundary" inkscape:connector-curvature="0" />
	<path style="fill:none;stroke:red;stroke-width:1px;stroke-linecap:butt;stroke-linejoin:miter;stroke-opacity:1" d="M 460.569,123.331 470.946,123.331 z" id="boundary" inkscape:connector-curvature="0" />
	<path style="fill:none;stroke:red;stroke-width:1px;stroke-linecap:butt;stroke-linejoin:miter;stroke-opacity:1" d="M 461.607,554.996 471.983,554.996 z" id="boundary" inkscape:connector-curvature="0" />
	<path style="fill:none;stroke:red;stroke-width:1px;stroke-linecap:butt;stroke-linejoin:miter;stroke-opacity:1" d="M 470.946,123.331 481.322,123.331 z" id="boundary" inkscape:connector-curvature="0" />
	<path style="fill:none;stroke:red;stroke-width:1px;stroke-linecap:butt;stroke-linejoin:miter;stroke-opacity:1" d="M 471.983,554.996 482.36,554.996 z" id="boundary" inkscape:connector-curvature="0" />
	<path style="fill:none;stroke:red;stroke-width:1px;stroke-linecap:butt;stroke-linejoin:miter;stroke-opacity:1" d="M 481.322,123.331 490.661,128.519 z" id="boundary" inkscape:connector-curvature="0" />
	<path style="fill:none;stroke:red;stroke-width:1px;stroke-linecap:butt;stroke-linejoin:miter;stroke-opacity:1" d="M 482.36,554.996 491.699,549.808 z" id="boundary" inkscape:connector-curvature="0" />
	<path style="fill:none;stroke:red;stroke-width:1px;stroke-linecap:butt;stroke-linejoin:miter;stroke-opacity:1" d="M 490.661,128.519 501.038,129.556 z" id="boundary" inkscape:connector-curvature="0" />
	<path style="fill:none;stroke:red;stroke-width:1px;stroke-linecap:butt;stroke-linejoin:miter;stroke-opacity:1" d="M 491.699,549.808 502.075,549.808 z" id="boundary" inkscape:connector-curvature="0" />
	<path style="fill:none;stroke:red;stroke-width:1px;stroke-linecap:butt;stroke-linejoin:miter;stroke-opacity:1" d="M 501.038,129.556 511.414,133.707 z" id="boundary" inkscape:connector-curvature="0" />
	<path style="fill:none;stroke:red;stroke-width:1px;stroke-linecap:butt;stroke-linejoin:miter;stroke-opacity:1" d="M 502.075,549.808 512.452,549.808 z" id="boundary" inkscape:connector-curvature="0" />
	<path style="fill:none;stroke:red;stroke-width:1px;stroke-linecap:butt;stroke-linejoin:miter;stroke-opacity:1" d="M 511.414,133.707 521.791,133.707 z" id="boundary" inkscape:connector-curvature="0" />
	<path style="fill:none;stroke:red;stroke-width:1px;stroke-linecap:butt;stroke-linejoin:miter;stroke-opacity:1" d="M 512.452,549.808 522.828,549.808 z" id="boundary" inkscape:connector-curvature="0" />
	<path style="fill:none;stroke:red;stroke-width:1px;stroke-linecap:butt;stroke-linejoin:miter;stroke-opacity:1" d="M 521.791,133.707 532.167,133.707 z" id="boundary" inkscape:connector-curvature="0" />
	<path style="fill:none;stroke:red;stroke-width:1px;stroke-linecap:butt;stroke-linejoin:miter;stroke-opacity:1" d="M 522.828,549.808 533.205,549.808 z" id="boundary" inkscape:connector-curvature="0" />
	<path style="fill:none;stroke:red;stroke-width:1px;stroke-linecap:butt;stroke-linejoin:miter;stroke-opacity:1" d="M 532.167,133.707 542.544,133.707 z" id="boundary" inkscape:connector-curvature="0" />
	<path style="fill:none;stroke:red;stroke-width:1px;stroke-linecap:butt;stroke-linejoin:miter;stroke-opacity:1" d="M 533.205,549.808 543.582,549.808 z" id="boundary" inkscape:connector-curvature="0" />
	<path style="fill:none;stroke:red;stroke-width:1px;stroke-linecap:butt;stroke-linejoin:miter;stroke-opacity:1" d="M 542.544,133.707 552.921,133.707 z" id="boundary" inkscape:connector-curvature="0" />
	<path style="fill:none;stroke:red;stroke-width:1px;stroke-linecap:butt;stroke-linejoin:miter;stroke-opacity:1" d="M 543.582,549.808 553.958,546.695 z" id="boundary" inkscape:connector-curvature="0" />
	<path style="fill:none;stroke:red;stroke-width:1px;stroke-linecap:butt;stroke-linejoin:miter;stroke-opacity:1" d="M 552.921,133.707 563.297,133.707 z" id="boundary" inkscape:connector-curvature="0" />
	<path style="fill:none;stroke:red;stroke-width:1px;stroke-linecap:butt;stroke-linejoin:miter;stroke-opacity:1" d="M 553.958,546.695 564.335,544.619 z" id="boundary" inkscape:connector-curvature="0" />
	<path style="fill:none;stroke:red;stroke-width:1px;stroke-linecap:butt;stroke-linejoin:miter;stroke-opacity:1" d="M 563.297,133.707 573.674,133.707 z" id="boundary" inkscape:connector-curvature="0" />
	<path style="fill:none;stroke:red;stroke-width:1px;stroke-linecap:butt;stroke-linejoin:miter;stroke-opacity:1" d="M 564.335,544.619 574.711,544.619 z" id="boundary" inkscape:connector-curvature="0" />
	<path style="fill:none;stroke:red;stroke-width:1px;stroke-linecap:butt;stroke-linejoin:miter;stroke-opacity:1" d="M 573.674,133.707 584.05,133.707 z" id="boundary" inkscape:connector-curvature="0" />
	<path style="fill:none;stroke:red;stroke-width:1px;stroke-linecap:butt;stroke-linejoin:miter;stroke-opacity:1" d="M 574.711,544.619 585.088,544.619 z" id="boundary" inkscape:connector-curvature="0" />
	<path style="fill:none;stroke:red;stroke-width:1px;stroke-linecap:butt;stroke-linejoin:miter;stroke-opacity:1" d="M 584.05,133.707 594.427,134.745 z" id="boundary" inkscape:connector-curvature="0" />
	<path style="fill:none;stroke:red;stroke-width:1px;stroke-linecap:butt;stroke-linejoin:miter;stroke-opacity:1" d="M 585.088,544.619 595.464,544.619 z" id="boundary" inkscape:connector-curvature="0" />
	<path style="fill:none;stroke:red;stroke-width:1px;stroke-linecap:butt;stroke-linejoin:miter;stroke-opacity:1" d="M 594.427,134.745 603.766,139.933 z" id="boundary" inkscape:connector-curvature="0" />
	<path style="fill:none;stroke:red;stroke-width:1px;stroke-linecap:butt;stroke-linejoin:miter;stroke-opacity:1" d="M 595.464,544.619 605.841,544.619 z" id="boundary" inkscape:connector-curvature="0" />
	<path style="fill:none;stroke:red;stroke-width:1px;stroke-linecap:butt;stroke-linejoin:miter;stroke-opacity:1" d="M 603.766,139.933 612.067,147.197 z" id="boundary" inkscape:connector-curvature="0" />
	<path style="fill:none;stroke:red;stroke-width:1px;stroke-linecap:butt;stroke-linejoin:miter;stroke-opacity:1" d="M 605.841,544.619 616.218,544.619 z" id="boundary" inkscape:connector-curvature="0" />
	<path style="fill:none;stroke:red;stroke-width:1px;stroke-linecap:butt;stroke-linejoin:miter;stroke-opacity:1" d="M 612.067,147.197 616.218,157.573 z" id="boundary" inkscape:connector-curvature="0" />
	<path style="fill:none;stroke:red;stroke-width:1px;stroke-linecap:butt;stroke-linejoin:miter;stroke-opacity:1" d="M 616.218,157.573 626.594,159.649 z" id="boundary" inkscape:connector-curvature="0" />
	<path style="fill:none;stroke:red;stroke-width:1px;stroke-linecap:butt;stroke-linejoin:miter;stroke-opacity:1" d="M 616.218,544.619 626.594,544.619 z" id="boundary" inkscape:connector-curvature="0" />
	<path style="fill:none;stroke:red;stroke-width:1px;stroke-linecap:butt;stroke-linejoin:miter;stroke-opacity:1" d="M 626.594,159.649 636.971,159.649 z" id="boundary" inkscape:connector-curvature="0" />
	<path style="fill:none;stroke:red;stroke-width:1px;stroke-linecap:butt;stroke-linejoin:miter;stroke-opacity:1" d="M 626.594,544.619 636.971,544.619 z" id="boundary" inkscape:connector-curvature="0" />
	<path style="fill:none;stroke:red;stroke-width:1px;stroke-linecap:butt;stroke-linejoin:miter;stroke-opacity:1" d="M 627.632,248.887 632.82,258.226 z" id="boundary" inkscape:connector-curvature="0" />
	<path style="fill:none;stroke:red;stroke-width:1px;stroke-linecap:butt;stroke-linejoin:miter;stroke-opacity:1" d="M 627.632,248.887 636.971,243.699 z" id="boundary" inkscape:connector-curvature="0" />
	<path style="fill:none;stroke:red;stroke-width:1px;stroke-linecap:butt;stroke-linejoin:miter;stroke-opacity:1" d="M 632.82,258.226 641.121,264.452 z" id="boundary" inkscape:connector-curvature="0" />
	<path style="fill:none;stroke:red;stroke-width:1px;stroke-linecap:butt;stroke-linejoin:miter;stroke-opacity:1" d="M 636.971,159.649 647.347,159.649 z" id="boundary" inkscape:connector-curvature="0" />
	<path style="fill:none;stroke:red;stroke-width:1px;stroke-linecap:butt;stroke-linejoin:miter;stroke-opacity:1" d="M 636.971,243.699 646.31,238.51 z" id="boundary" inkscape:connector-curvature="0" />
	<path style="fill:none;stroke:red;stroke-width:1px;stroke-linecap:butt;stroke-linejoin:miter;stroke-opacity:1" d="M 636.971,544.619 647.347,544.619 z" id="boundary" inkscape:connector-curvature="0" />
	<path style="fill:none;stroke:red;stroke-width:1px;stroke-linecap:butt;stroke-linejoin:miter;stroke-opacity:1" d="M 641.121,264.452 650.46,269.64 z" id="boundary" inkscape:connector-curvature="0" />
	<path style="fill:none;stroke:red;stroke-width:1px;stroke-linecap:butt;stroke-linejoin:miter;stroke-opacity:1" d="M 646.31,238.51 655.649,233.322 z" id="boundary" inkscape:connector-curvature="0" />
	<path style="fill:none;stroke:red;stroke-width:1px;stroke-linecap:butt;stroke-linejoin:miter;stroke-opacity:1" d="M 647.347,159.649 657.724,159.649 z" id="boundary" inkscape:connector-curvature="0" />
	<path style="fill:none;stroke:red;stroke-width:1px;stroke-linecap:butt;stroke-linejoin:miter;stroke-opacity:1" d="M 647.347,544.619 657.724,544.619 z" id="boundary" inkscape:connector-curvature="0" />
	<path style="fill:none;stroke:red;stroke-width:1px;stroke-linecap:butt;stroke-linejoin:miter;stroke-opacity:1" d="M 650.46,269.64 660.837,273.791 z" id="boundary" inkscape:connector-curvature="0" />
	<path style="fill:none;stroke:red;stroke-width:1px;stroke-linecap:butt;stroke-linejoin:miter;stroke-opacity:1" d="M 655.649,233.322 666.025,233.322 z" id="boundary" inkscape:connector-curvature="0" />
	<path style="fill:none;stroke:red;stroke-width:1px;stroke-linecap:butt;stroke-linejoin:miter;stroke-opacity:1" d="M 657.724,159.649 668.1,159.649 z" id="boundary" inkscape:connector-curvature="0" />
	<path style="fill:none;stroke:red;stroke-width:1px;stroke-linecap:butt;stroke-linejoin:miter;stroke-opacity:1" d="M 657.724,544.619 668.1,544.619 z" id="boundary" inkscape:connector-curvature="0" />
	<path style="fill:none;stroke:red;stroke-width:1px;stroke-linecap:butt;stroke-linejoin:miter;stroke-opacity:1" d="M 660.837,273.791 670.176,278.979 z" id="boundary" inkscape:connector-curvature="0" />
	<path style="fill:none;stroke:red;stroke-width:1px;stroke-linecap:butt;stroke-linejoin:miter;stroke-opacity:1" d="M 666.025,233.322 675.364,228.134 z" id="boundary" inkscape:connector-curvature="0" />
	<path style="fill:none;stroke:red;stroke-width:1px;stroke-linecap:butt;stroke-linejoin:miter;stroke-opacity:1" d="M 668.1,159.649 678.477,161.724 z" id="boundary" inkscape:connector-curvature="0" />
	<path style="fill:none;stroke:red;stroke-width:1px;stroke-linecap:butt;stroke-linejoin:miter;stroke-opacity:1" d="M 668.1,544.619 678.477,544.619 z" id="boundary" inkscape:connector-curvature="0" />
	<path style="fill:none;stroke:red;stroke-width:1px;stroke-linecap:butt;stroke-linejoin:miter;stroke-opacity:1" d="M 670.176,278.979 680.552,278.979 z" id="boundary" inkscape:connector-curvature="0" />
	<path style="fill:none;stroke:red;stroke-width:1px;stroke-linecap:butt;stroke-linejoin:miter;stroke-opacity:1" d="M 675.364,228.134 683.665,219.833 z" id="boundary" inkscape:connector-curvature="0" />
	<path style="fill:none;stroke:red;stroke-width:1px;stroke-linecap:butt;stroke-linejoin:miter;stroke-opacity:1" d="M 678.477,161.724 684.703,170.025 z" id="boundary" inkscape:connector-curvature="0" />
	<path style="fill:none;stroke:red;stroke-width:1px;stroke-linecap:butt;stroke-linejoin:miter;stroke-opacity:1" d="M 678.477,544.619 688.854,544.619 z" id="boundary" inkscape:connector-curvature="0" />
	<path style="fill:none;stroke:red;stroke-width:1px;stroke-linecap:butt;stroke-linejoin:miter;stroke-opacity:1" d="M 680.552,278.979 690.929,278.979 z" id="boundary" inkscape:connector-curvature="0" />
	<path style="fill:none;stroke:red;stroke-width:1px;stroke-linecap:butt;stroke-linejoin:miter;stroke-opacity:1" d="M 683.665,219.833 688.854,209.456 z" id="boundary" inkscape:connector-curvature="0" />
	<path style="fill:none;stroke:red;stroke-width:1px;stroke-linecap:butt;stroke-linejoin:miter;stroke-opacity:1" d="M 684.703,170.025 689.891,179.364 z" id="boundary" inkscape:connector-curvature="0" />
	<path style="fill:none;stroke:red;stroke-width:1px;stroke-linecap:butt;stroke-linejoin:miter;stroke-opacity:1" d="M 688.854,209.456 689.891,189.741 z" id="boundary" inkscape:connector-curvature="0" />
	<path style="fill:none;stroke:red;stroke-width:1px;stroke-linecap:butt;stroke-linejoin:miter;stroke-opacity:1" d="M 688.854,544.619 699.23,544.619 z" id="boundary" inkscape:connector-curvature="0" />
	<path style="fill:none;stroke:red;stroke-width:1px;stroke-linecap:butt;stroke-linejoin:miter;stroke-opacity:1" d="M 689.891,179.364 689.891,189.741 z" id="boundary" inkscape:connector-curvature="0" />
	<path style="fill:none;stroke:red;stroke-width:1px;stroke-linecap:butt;stroke-linejoin:miter;stroke-opacity:1" d="M 690.929,278.979 701.305,278.979 z" id="boundary" inkscape:connector-curvature="0" />
	<path style="fill:none;stroke:red;stroke-width:1px;stroke-linecap:butt;stroke-linejoin:miter;stroke-opacity:1" d="M 695.079,409.724 695.079,420.1 z" id="boundary" inkscape:connector-curvature="0" />
	<path style="fill:none;stroke:red;stroke-width:1px;stroke-linecap:butt;stroke-linejoin:miter;stroke-opacity:1" d="M 695.079,409.724 703.381,402.46 z" id="boundary" inkscape:connector-curvature="0" />
	<path style="fill:none;stroke:red;stroke-width:1px;stroke-linecap:butt;stroke-linejoin:miter;stroke-opacity:1" d="M 695.079,420.1 695.079,430.477 z" id="boundary" inkscape:connector-curvature="0" />
	<path style="fill:none;stroke:red;stroke-width:1px;stroke-linecap:butt;stroke-linejoin:miter;stroke-opacity:1" d="M 695.079,430.477 695.079,440.854 z" id="boundary" inkscape:connector-curvature="0" />
	<path style="fill:none;stroke:red;stroke-width:1px;stroke-linecap:butt;stroke-linejoin:miter;stroke-opacity:1" d="M 695.079,440.854 695.079,451.23 z" id="boundary" inkscape:connector-curvature="0" />
	<path style="fill:none;stroke:red;stroke-width:1px;stroke-linecap:butt;stroke-linejoin:miter;stroke-opacity:1" d="M 695.079,451.23 705.456,455.381 z" id="boundary" inkscape:connector-curvature="0" />
	<path style="fill:none;stroke:red;stroke-width:1px;stroke-linecap:butt;stroke-linejoin:miter;stroke-opacity:1" d="M 699.23,544.619 709.607,544.619 z" id="boundary" inkscape:connector-curvature="0" />
	<path style="fill:none;stroke:red;stroke-width:1px;stroke-linecap:butt;stroke-linejoin:miter;stroke-opacity:1" d="M 701.305,278.979 711.682,278.979 z" id="boundary" inkscape:connector-curvature="0" />
	<path style="fill:none;stroke:red;stroke-width:1px;stroke-linecap:butt;stroke-linejoin:miter;stroke-opacity:1" d="M 703.381,402.46 713.757,399.347 z" id="boundary" inkscape:connector-curvature="0" />
	<path style="fill:none;stroke:red;stroke-width:1px;stroke-linecap:butt;stroke-linejoin:miter;stroke-opacity:1" d="M 705.456,455.381 715.833,455.381 z" id="boundary" inkscape:connector-curvature="0" />
	<path style="fill:none;stroke:red;stroke-width:1px;stroke-linecap:butt;stroke-linejoin:miter;stroke-opacity:1" d="M 709.607,544.619 719.983,544.619 z" id="boundary" inkscape:connector-curvature="0" />
	<path style="fill:none;stroke:red;stroke-width:1px;stroke-linecap:butt;stroke-linejoin:miter;stroke-opacity:1" d="M 711.682,278.979 722.059,278.979 z" id="boundary" inkscape:connector-curvature="0" />
	<path style="fill:none;stroke:red;stroke-width:1px;stroke-linecap:butt;stroke-linejoin:miter;stroke-opacity:1" d="M 713.757,399.347 723.096,394.159 z" id="boundary" inkscape:connector-curvature="0" />
	<path style="fill:none;stroke:red;stroke-width:1px;stroke-linecap:butt;stroke-linejoin:miter;stroke-opacity:1" d="M 715.833,455.381 726.209,455.381 z" id="boundary" inkscape:connector-curvature="0" />
	<path style="fill:none;stroke:red;stroke-width:1px;stroke-linecap:butt;stroke-linejoin:miter;stroke-opacity:1" d="M 719.983,544.619 730.36,544.619 z" id="boundary" inkscape:connector-curvature="0" />
	<path style="fill:none;stroke:red;stroke-width:1px;stroke-linecap:butt;stroke-linejoin:miter;stroke-opacity:1" d="M 722.059,278.979 732.435,278.979 z" id="boundary" inkscape:connector-curvature="0" />
	<path style="fill:none;stroke:red;stroke-width:1px;stroke-linecap:butt;stroke-linejoin:miter;stroke-opacity:1" d="M 723.096,394.159 733.473,394.159 z" id="boundary" inkscape:connector-curvature="0" />
	<path style="fill:none;stroke:red;stroke-width:1px;stroke-linecap:butt;stroke-linejoin:miter;stroke-opacity:1" d="M 726.209,455.381 736.586,458.494 z" id="boundary" inkscape:connector-curvature="0" />
	<path style="fill:none;stroke:red;stroke-width:1px;stroke-linecap:butt;stroke-linejoin:miter;stroke-opacity:1" d="M 730.36,544.619 740.736,544.619 z" id="boundary" inkscape:connector-curvature="0" />
	<path style="fill:none;stroke:red;stroke-width:1px;stroke-linecap:butt;stroke-linejoin:miter;stroke-opacity:1" d="M 732.435,278.979 742.812,278.979 z" id="boundary" inkscape:connector-curvature="0" />
	<path style="fill:none;stroke:red;stroke-width:1px;stroke-linecap:butt;stroke-linejoin:miter;stroke-opacity:1" d="M 733.473,394.159 742.812,388.971 z" id="boundary" inkscape:connector-curvature="0" />
	<path style="fill:none;stroke:red;stroke-width:1px;stroke-linecap:butt;stroke-linejoin:miter;stroke-opacity:1" d="M 736.586,458.494 743.849,466.795 z" id="boundary" inkscape:connector-curvature="0" />
	<path style="fill:none;stroke:red;stroke-width:1px;stroke-linecap:butt;stroke-linejoin:miter;stroke-opacity:1" d="M 740.736,544.619 751.113,541.506 z" id="boundary" inkscape:connector-curvature="0" />
	<path style="fill:none;stroke:red;stroke-width:1px;stroke-linecap:butt;stroke-linejoin:miter;stroke-opacity:1" d="M 742.812,278.979 753.188,278.979 z" id="boundary" inkscape:connector-curvature="0" />
	<path style="fill:none;stroke:red;stroke-width:1px;stroke-linecap:butt;stroke-linejoin:miter;stroke-opacity:1" d="M 742.812,388.971 752.151,383.782 z" id="boundary" inkscape:connector-curvature="0" />
	<path style="fill:none;stroke:red;stroke-width:1px;stroke-linecap:butt;stroke-linejoin:miter;stroke-opacity:1" d="M 743.849,466.795 746.962,477.172 z" id="boundary" inkscape:connector-curvature="0" />
	<path style="fill:none;stroke:red;stroke-width:1px;stroke-linecap:butt;stroke-linejoin:miter;stroke-opacity:1" d="M 746.962,477.172 746.962,487.548 z" id="boundary" inkscape:connector-curvature="0" />
	<path style="fill:none;stroke:red;stroke-width:1px;stroke-linecap:butt;stroke-linejoin:miter;stroke-opacity:1" d="M 746.962,487.548 746.962,497.925 z" id="boundary" inkscape:connector-curvature="0" />
	<path style="fill:none;stroke:red;stroke-width:1px;stroke-linecap:butt;stroke-linejoin:miter;stroke-opacity:1" d="M 746.962,497.925 755.264,504.151 z" id="boundary" inkscape:connector-curvature="0" />
	<path style="fill:none;stroke:red;stroke-width:1px;stroke-linecap:butt;stroke-linejoin:miter;stroke-opacity:1" d="M 751.113,541.506 761.49,536.318 z" id="boundary" inkscape:connector-curvature="0" />
	<path style="fill:none;stroke:red;stroke-width:1px;stroke-linecap:butt;stroke-linejoin:miter;stroke-opacity:1" d="M 752.151,383.782 762.527,383.782 z" id="boundary" inkscape:connector-curvature="0" />
	<path style="fill:none;stroke:red;stroke-width:1px;stroke-linecap:butt;stroke-linejoin:miter;stroke-opacity:1" d="M 753.188,278.979 763.565,274.828 z" id="boundary" inkscape:connector-curvature="0" />
	<path style="fill:none;stroke:red;stroke-width:1px;stroke-linecap:butt;stroke-linejoin:miter;stroke-opacity:1" d="M 755.264,504.151 762.527,512.452 z" id="boundary" inkscape:connector-curvature="0" />
	<path style="fill:none;stroke:red;stroke-width:1px;stroke-linecap:butt;stroke-linejoin:miter;stroke-opacity:1" d="M 761.49,536.318 766.678,525.941 z" id="boundary" inkscape:connector-curvature="0" />
	<path style="fill:none;stroke:red;stroke-width:1px;stroke-linecap:butt;stroke-linejoin:miter;stroke-opacity:1" d="M 762.527,383.782 771.866,378.594 z" id="boundary" inkscape:connector-curvature="0" />
	<path style="fill:none;stroke:red;stroke-width:1px;stroke-linecap:butt;stroke-linejoin:miter;stroke-opacity:1" d="M 762.527,512.452 766.678,525.941 z" id="boundary" inkscape:connector-curvature="0" />
	<path style="fill:none;stroke:red;stroke-width:1px;stroke-linecap:butt;stroke-linejoin:miter;stroke-opacity:1" d="M 763.565,274.828 773.941,273.791 z" id="boundary" inkscape:connector-curvature="0" />
	<path style="fill:none;stroke:red;stroke-width:1px;stroke-linecap:butt;stroke-linejoin:miter;stroke-opacity:1" d="M 771.866,378.594 781.205,373.406 z" id="boundary" inkscape:connector-curvature="0" />
	<path style="fill:none;stroke:red;stroke-width:1px;stroke-linecap:butt;stroke-linejoin:miter;stroke-opacity:1" d="M 773.941,273.791 784.318,273.791 z" id="boundary" inkscape:connector-curvature="0" />
	<path style="fill:none;stroke:red;stroke-width:1px;stroke-linecap:butt;stroke-linejoin:miter;stroke-opacity:1" d="M 781.205,373.406 791.582,371.331 z" id="boundary" inkscape:connector-curvature="0" />
	<path style="fill:none;stroke:red;stroke-width:1px;stroke-linecap:butt;stroke-linejoin:miter;stroke-opacity:1" d="M 784.318,273.791 794.695,273.791 z" id="boundary" inkscape:connector-curvature="0" />
	<path style="fill:none;stroke:red;stroke-width:1px;stroke-linecap:butt;stroke-linejoin:miter;stroke-opacity:1" d="M 791.582,371.331 801.958,368.218 z" id="boundary" inkscape:connector-curvature="0" />
	<path style="fill:none;stroke:red;stroke-width:1px;stroke-linecap:butt;stroke-linejoin:miter;stroke-opacity:1" d="M 794.695,273.791 805.071,273.791 z" id="boundary" inkscape:connector-curvature="0" />
	<path style="fill:none;stroke:red;stroke-width:1px;stroke-linecap:butt;stroke-linejoin:miter;stroke-opacity:1" d="M 801.958,368.218 811.297,363.029 z" id="boundary" inkscape:connector-curvature="0" />
	<path style="fill:none;stroke:red;stroke-width:1px;stroke-linecap:butt;stroke-linejoin:miter;stroke-opacity:1" d="M 805.071,273.791 815.448,273.791 z" id="boundary" inkscape:connector-curvature="0" />
	<path style="fill:none;stroke:red;stroke-width:1px;stroke-linecap:butt;stroke-linejoin:miter;stroke-opacity:1" d="M 811.297,363.029 820.636,357.841 z" id="boundary" inkscape:connector-curvature="0" />
	<path style="fill:none;stroke:red;stroke-width:1px;stroke-linecap:butt;stroke-linejoin:miter;stroke-opacity:1" d="M 815.448,273.791 825.824,269.64 z" id="boundary" inkscape:connector-curvature="0" />
	<path style="fill:none;stroke:red;stroke-width:1px;stroke-linecap:butt;stroke-linejoin:miter;stroke-opacity:1" d="M 820.636,357.841 829.975,352.653 z" id="boundary" inkscape:connector-curvature="0" />
	<path style="fill:none;stroke:red;stroke-width:1px;stroke-linecap:butt;stroke-linejoin:miter;stroke-opacity:1" d="M 825.824,269.64 836.201,268.603 z" id="boundary" inkscape:connector-curvature="0" />
	<path style="fill:none;stroke:red;stroke-width:1px;stroke-linecap:butt;stroke-linejoin:miter;stroke-opacity:1" d="M 829.975,352.653 839.314,347.464 z" id="boundary" inkscape:connector-curvature="0" />
	<path style="fill:none;stroke:red;stroke-width:1px;stroke-linecap:butt;stroke-linejoin:miter;stroke-opacity:1" d="M 836.201,268.603 845.54,263.414 z" id="boundary" inkscape:connector-curvature="0" />
	<path style="fill:none;stroke:red;stroke-width:1px;stroke-linecap:butt;stroke-linejoin:miter;stroke-opacity:1" d="M 839.314,347.464 848.653,342.276 z" id="boundary" inkscape:connector-curvature="0" />
	<path style="fill:none;stroke:red;stroke-width:1px;stroke-linecap:butt;stroke-linejoin:miter;stroke-opacity:1" d="M 845.54,263.414 854.879,258.226 z" id="boundary" inkscape:connector-curvature="0" />
	<path style="fill:none;stroke:red;stroke-width:1px;stroke-linecap:butt;stroke-linejoin:miter;stroke-opacity:1" d="M 848.653,342.276 857.992,337.088 z" id="boundary" inkscape:connector-curvature="0" />
	<path style="fill:none;stroke:red;stroke-width:1px;stroke-linecap:butt;stroke-linejoin:miter;stroke-opacity:1" d="M 854.879,258.226 865.255,256.151 z" id="boundary" inkscape:connector-curvature="0" />
	<path style="fill:none;stroke:red;stroke-width:1px;stroke-linecap:butt;stroke-linejoin:miter;stroke-opacity:1" d="M 857.992,337.088 867.331,331.9 z" id="boundary" inkscape:connector-curvature="0" />
	<path style="fill:none;stroke:red;stroke-width:1px;stroke-linecap:butt;stroke-linejoin:miter;stroke-opacity:1" d="M 865.255,256.151 875.632,250.962 z" id="boundary" inkscape:connector-curvature="0" />
	<path style="fill:none;stroke:red;stroke-width:1px;stroke-linecap:butt;stroke-linejoin:miter;stroke-opacity:1" d="M 867.331,331.9 876.669,326.711 z" id="boundary" inkscape:connector-curvature="0" />
	<path style="fill:none;stroke:red;stroke-width:1px;stroke-linecap:butt;stroke-linejoin:miter;stroke-opacity:1" d="M 875.632,250.962 886.008,245.774 z" id="boundary" inkscape:connector-curvature="0" />
	<path style="fill:none;stroke:red;stroke-width:1px;stroke-linecap:butt;stroke-linejoin:miter;stroke-opacity:1" d="M 876.669,326.711 887.046,321.523 z" id="boundary" inkscape:connector-curvature="0" />
	<path style="fill:none;stroke:red;stroke-width:1px;stroke-linecap:butt;stroke-linejoin:miter;stroke-opacity:1" d="M 886.008,245.774 896.385,242.661 z" id="boundary" inkscape:connector-curvature="0" />
	<path style="fill:none;stroke:red;stroke-width:1px;stroke-linecap:butt;stroke-linejoin:miter;stroke-opacity:1" d="M 887.046,321.523 896.385,316.335 z" id="boundary" inkscape:connector-curvature="0" />
	<path style="fill:none;stroke:red;stroke-width:1px;stroke-linecap:butt;stroke-linejoin:miter;stroke-opacity:1" d="M 896.385,242.661 906.762,240.586 z" id="boundary" inkscape:connector-curvature="0" />
	<path style="fill:none;stroke:red;stroke-width:1px;stroke-linecap:butt;stroke-linejoin:miter;stroke-opacity:1" d="M 896.385,316.335 905.724,311.146 z" id="boundary" inkscape:connector-curvature="0" />
	<path style="fill:none;stroke:red;stroke-width:1px;stroke-linecap:butt;stroke-linejoin:miter;stroke-opacity:1" d="M 905.724,311.146 915.063,304.921 z" id="boundary" inkscape:connector-curvature="0" />
	<path style="fill:none;stroke:red;stroke-width:1px;stroke-linecap:butt;stroke-linejoin:miter;stroke-opacity:1" d="M 906.762,240.586 917.138,235.397 z" id="boundary" inkscape:connector-curvature="0" />
	<path style="fill:none;stroke:red;stroke-width:1px;stroke-linecap:butt;stroke-linejoin:miter;stroke-opacity:1" d="M 915.063,304.921 925.439,300.77 z" id="boundary" inkscape:connector-curvature="0" />
	<path style="fill:none;stroke:red;stroke-width:1px;stroke-linecap:butt;stroke-linejoin:miter;stroke-opacity:1" d="M 917.138,235.397 927.515,230.209 z" id="boundary" inkscape:connector-curvature="0" />
	<path style="fill:none;stroke:red;stroke-width:1px;stroke-linecap:butt;stroke-linejoin:miter;stroke-opacity:1" d="M 925.439,300.77 935.816,299.732 z" id="boundary" inkscape:connector-curvature="0" />
	<path style="fill:none;stroke:red;stroke-width:1px;stroke-linecap:butt;stroke-linejoin:miter;stroke-opacity:1" d="M 927.515,230.209 937.891,227.096 z" id="boundary" inkscape:connector-curvature="0" />
	<path style="fill:none;stroke:red;stroke-width:1px;stroke-linecap:butt;stroke-linejoin:miter;stroke-opacity:1" d="M 935.816,299.732 946.192,295.582 z" id="boundary" inkscape:connector-curvature="0" />
	<path style="fill:none;stroke:red;stroke-width:1px;stroke-linecap:butt;stroke-linejoin:miter;stroke-opacity:1" d="M 937.891,227.096 948.268,227.096 z" id="boundary" inkscape:connector-curvature="0" />
	<path style="fill:none;stroke:red;stroke-width:1px;stroke-linecap:butt;stroke-linejoin:miter;stroke-opacity:1" d="M 946.192,295.582 955.531,290.393 z" id="boundary" inkscape:connector-curvature="0" />
	<path style="fill:none;stroke:red;stroke-width:1px;stroke-linecap:butt;stroke-linejoin:miter;stroke-opacity:1" d="M 948.268,227.096 958.644,227.096 z" id="boundary" inkscape:connector-curvature="0" />
	<path style="fill:none;stroke:red;stroke-width:1px;stroke-linecap:butt;stroke-linejoin:miter;stroke-opacity:1" d="M 955.531,290.393 964.87,285.205 z" id="boundary" inkscape:connector-curvature="0" />
	<path style="fill:none;stroke:red;stroke-width:1px;stroke-linecap:butt;stroke-linejoin:miter;stroke-opacity:1" d="M 958.644,227.096 969.021,227.096 z" id="boundary" inkscape:connector-curvature="0" />
	<path style="fill:none;stroke:red;stroke-width:1px;stroke-linecap:butt;stroke-linejoin:miter;stroke-opacity:1" d="M 964.87,285.205 975.247,280.017 z" id="boundary" inkscape:connector-curvature="0" />
	<path style="fill:none;stroke:red;stroke-width:1px;stroke-linecap:butt;stroke-linejoin:miter;stroke-opacity:1" d="M 969.021,227.096 979.397,227.096 z" id="boundary" inkscape:connector-curvature="0" />
	<path style="fill:none;stroke:red;stroke-width:1px;stroke-linecap:butt;stroke-linejoin:miter;stroke-opacity:1" d="M 975.247,280.017 983.548,272.753 z" id="boundary" inkscape:connector-curvature="0" />
	<path style="fill:none;stroke:red;stroke-width:1px;stroke-linecap:butt;stroke-linejoin:miter;stroke-opacity:1" d="M 979.397,227.096 987.699,233.322 z" id="boundary" inkscape:connector-curvature="0" />
	<path style="fill:none;stroke:red;stroke-width:1px;stroke-linecap:butt;stroke-linejoin:miter;stroke-opacity:1" d="M 983.548,272.753 990.812,264.452 z" id="boundary" inkscape:connector-curvature="0" />
	<path style="fill:none;stroke:red;stroke-width:1px;stroke-linecap:butt;stroke-linejoin:miter;stroke-opacity:1" d="M 987.699,233.322 996,240.586 z" id="boundary" inkscape:connector-curvature="0" />
	<path style="fill:none;stroke:red;stroke-width:1px;stroke-linecap:butt;stroke-linejoin:miter;stroke-opacity:1" d="M 990.812,254.075 990.812,264.452 z" id="boundary" inkscape:connector-curvature="0" />
	<path style="fill:none;stroke:red;stroke-width:1px;stroke-linecap:butt;stroke-linejoin:miter;stroke-opacity:1" d="M 990.812,254.075 996,240.586 z" id="boundary" inkscape:connector-curvature="0" />
	<circle cx="4" cy="634.895" r="4" fill="#0" id="circle0"/>
	<circle cx="4" cy="645.272" r="4" fill="#0" id="circle1"/>
	<circle cx="4" cy="655.649" r="4" fill="#0" id="circle2"/>
	<circle cx="9.18828" cy="624.519" r="4" fill="#0" id="circle3"/>
	<circle cx="9.18828" cy="664.987" r="4" fill="#0" id="circle4"/>
	<circle cx="16.4519" cy="673.289" r="4" fill="#0" id="circle5"/>
	<circle cx="17.4895" cy="616.218" r="4" fill="#0" id="circle6"/>
	<circle cx="24.7531" cy="453.305" r="4" fill="#0" id="circle7"/>
	<circle cx="24.7531" cy="463.682" r="4" fill="#0" id="circle8"/>
	<circle cx="24.7531" cy="474.059" r="4" fill="#0" id="circle9"/>
	<circle cx="24.7531" cy="484.435" r="4" fill="#0" id="circle10"/>
	<circle cx="24.7531" cy="494.812" r="4" fill="#0" id="circle11"/>
	<circle cx="24.7531" cy="505.188" r="4" fill="#0" id="circle12"/>
	<circle cx="24.7531" cy="515.565" r="4" fill="#0" id="circle13"/>
	<circle cx="24.7531" cy="525.941" r="4" fill="#0" id="circle14"/>
	<circle cx="24.7531" cy="536.318" r="4" fill="#0" id="circle15"/>
	<circle cx="26.8285" cy="677.439" r="4" fill="#0" id="circle16"/>
	<circle cx="27.8661" cy="611.029" r="4" fill="#0" id="circle17"/>
	<circle cx="29.9414" cy="432.552" r="4" fill="#0" id="circle18"/>
	<circle cx="29.9414" cy="442.929" r="4" fill="#0" id="circle19"/>
	<circle cx="29.9414" cy="545.657" r="4" fill="#0" id="circle20"/>
	<circle cx="35.1297" cy="401.423" r="4" fill="#0" id="circle21"/>
	<circle cx="35.1297" cy="411.799" r="4" fill="#0" id="circle22"/>
	<circle cx="35.1297" cy="422.176" r="4" fill="#0" id="circle23"/>
	<circle cx="35.1297" cy="554.996" r="4" fill="#0" id="circle24"/>
	<circle cx="37.205" cy="616.218" r="4" fill="#0" id="circle25"/>
	<circle cx="37.205" cy="679.515" r="4" fill="#0" id="circle26"/>
	<circle cx="40.318" cy="375.481" r="4" fill="#0" id="circle27"/>
	<circle cx="40.318" cy="385.858" r="4" fill="#0" id="circle28"/>
	<circle cx="44.4686" cy="560.184" r="4" fill="#0" id="circle29"/>
	<circle cx="45.5063" cy="359.916" r="4" fill="#0" id="circle30"/>
	<circle cx="46.5439" cy="621.406" r="4" fill="#0" id="circle31"/>
	<circle cx="47.5816" cy="682.628" r="4" fill="#0" id="circle32"/>
	<circle cx="50.6946" cy="333.975" r="4" fill="#0" id="circle33"/>
	<circle cx="50.6946" cy="344.351" r="4" fill="#0" id="circle34"/>
	<circle cx="53.8075" cy="565.372" r="4" fill="#0" id="circle35"/>
	<circle cx="54.8452" cy="627.632" r="4" fill="#0" id="circle36"/>
	<circle cx="55.8828" cy="308.033" r="4" fill="#0" id="circle37"/>
	<circle cx="55.8828" cy="318.41" r="4" fill="#0" id="circle38"/>
	<circle cx="56.9205" cy="638.008" r="4" fill="#0" id="circle39"/>
	<circle cx="56.9205" cy="648.385" r="4" fill="#0" id="circle40"/>
	<circle cx="57.9582" cy="684.703" r="4" fill="#0" id="circle41"/>
	<circle cx="61.0711" cy="297.657" r="4" fill="#0" id="circle42"/>
	<circle cx="62.1088" cy="657.724" r="4" fill="#0" id="circle43"/>
	<circle cx="64.1841" cy="569.523" r="4" fill="#0" id="circle44"/>
	<circle cx="66.2594" cy="287.28" r="4" fill="#0" id="circle45"/>
	<circle cx="68.3347" cy="684.703" r="4" fill="#0" id="circle46"/>
	<circle cx="72.4854" cy="657.724" r="4" fill="#0" id="circle47"/>
	<circle cx="74.5607" cy="278.979" r="4" fill="#0" id="circle48"/>
	<circle cx="74.5607" cy="570.561" r="4" fill="#0" id="circle49"/>
	<circle cx="77.6736" cy="689.891" r="4" fill="#0" id="circle50"/>
	<circle cx="79.749" cy="268.603" r="4" fill="#0" id="circle51"/>
	<circle cx="82.8619" cy="657.724" r="4" fill="#0" id="circle52"/>
	<circle cx="84.9372" cy="570.561" r="4" fill="#0" id="circle53"/>
	<circle cx="87.0126" cy="256.151" r="4" fill="#0" id="circle54"/>
	<circle cx="88.0502" cy="689.891" r="4" fill="#0" id="circle55"/>
	<circle cx="93.2385" cy="657.724" r="4" fill="#0" id="circle56"/>
	<circle cx="94.2762" cy="575.749" r="4" fill="#0" id="circle57"/>
	<circle cx="95.3138" cy="247.849" r="4" fill="#0" id="circle58"/>
	<circle cx="98.4268" cy="689.891" r="4" fill="#0" id="circle59"/>
	<circle cx="102.577" cy="235.397" r="4" fill="#0" id="circle60"/>
	<circle cx="103.615" cy="657.724" r="4" fill="#0" id="circle61"/>
	<circle cx="104.653" cy="578.862" r="4" fill="#0" id="circle62"/>
	<circle cx="108.803" cy="689.891" r="4" fill="#0" id="circle63"/>
	<circle cx="110.879" cy="227.096" r="4" fill="#0" id="circle64"/>
	<circle cx="113.992" cy="657.724" r="4" fill="#0" id="circle65"/>
	<circle cx="115.029" cy="580.937" r="4" fill="#0" id="circle66"/>
	<circle cx="119.18" cy="218.795" r="4" fill="#0" id="circle67"/>
	<circle cx="119.18" cy="689.891" r="4" fill="#0" id="circle68"/>
	<circle cx="124.368" cy="654.611" r="4" fill="#0" id="circle69"/>
	<circle cx="125.406" cy="580.937" r="4" fill="#0" id="circle70"/>
	<circle cx="127.481" cy="211.531" r="4" fill="#0" id="circle71"/>
	<circle cx="129.556" cy="689.891" r="4" fill="#0" id="circle72"/>
	<circle cx="134.745" cy="203.23" r="4" fill="#0" id="circle73"/>
	<circle cx="134.745" cy="652.536" r="4" fill="#0" id="circle74"/>
	<circle cx="135.782" cy="580.937" r="4" fill="#0" id="circle75"/>
	<circle cx="139.933" cy="684.703" r="4" fill="#0" id="circle76"/>
	<circle cx="145.121" cy="198.042" r="4" fill="#0" id="circle77"/>
	<circle cx="145.121" cy="652.536" r="4" fill="#0" id="circle78"/>
	<circle cx="146.159" cy="580.937" r="4" fill="#0" id="circle79"/>
	<circle cx="150.31" cy="679.515" r="4" fill="#0" id="circle80"/>
	<circle cx="153.423" cy="190.778" r="4" fill="#0" id="circle81"/>
	<circle cx="155.498" cy="649.423" r="4" fill="#0" id="circle82"/>
	<circle cx="156.536" cy="580.937" r="4" fill="#0" id="circle83"/>
	<circle cx="160.686" cy="674.326" r="4" fill="#0" id="circle84"/>
	<circle cx="162.762" cy="185.59" r="4" fill="#0" id="circle85"/>
	<circle cx="165.874" cy="647.347" r="4" fill="#0" id="circle86"/>
	<circle cx="166.912" cy="580.937" r="4" fill="#0" id="circle87"/>
	<circle cx="171.063" cy="674.326" r="4" fill="#0" id="circle88"/>
	<circle cx="173.138" cy="180.402" r="4" fill="#0" id="circle89"/>
	<circle cx="175.213" cy="642.159" r="4" fill="#0" id="circle90"/>
	<circle cx="177.289" cy="580.937" r="4" fill="#0" id="circle91"/>
	<circle cx="180.402" cy="669.138" r="4" fill="#0" id="circle92"/>
	<circle cx="183.515" cy="175.213" r="4" fill="#0" id="circle93"/>
	<circle cx="184.552" cy="636.971" r="4" fill="#0" id="circle94"/>
	<circle cx="187.665" cy="580.937" r="4" fill="#0" id="circle95"/>
	<circle cx="190.778" cy="591.314" r="4" fill="#0" id="circle96"/>
	<circle cx="190.778" cy="601.69" r="4" fill="#0" id="circle97"/>
	<circle cx="190.778" cy="612.067" r="4" fill="#0" id="circle98"/>
	<circle cx="190.778" cy="622.444" r="4" fill="#0" id="circle99"/>
	<circle cx="190.778" cy="669.138" r="4" fill="#0" id="circle100"/>
	<circle cx="193.891" cy="175.213" r="4" fill="#0" id="circle101"/>
	<circle cx="200.117" cy="663.95" r="4" fill="#0" id="circle102"/>
	<circle cx="204.268" cy="170.025" r="4" fill="#0" id="circle103"/>
	<circle cx="210.494" cy="661.874" r="4" fill="#0" id="circle104"/>
	<circle cx="214.644" cy="170.025" r="4" fill="#0" id="circle105"/>
	<circle cx="220.87" cy="658.762" r="4" fill="#0" id="circle106"/>
	<circle cx="223.983" cy="164.837" r="4" fill="#0" id="circle107"/>
	<circle cx="231.247" cy="658.762" r="4" fill="#0" id="circle108"/>
	<circle cx="234.36" cy="160.686" r="4" fill="#0" id="circle109"/>
	<circle cx="240.586" cy="653.573" r="4" fill="#0" id="circle110"/>
	<circle cx="244.736" cy="159.649" r="4" fill="#0" id="circle111"/>
	<circle cx="250.962" cy="653.573" r="4" fill="#0" id="circle112"/>
	<circle cx="254.075" cy="154.46" r="4" fill="#0" id="circle113"/>
	<circle cx="261.339" cy="652.536" r="4" fill="#0" id="circle114"/>
	<circle cx="264.452" cy="151.347" r="4" fill="#0" id="circle115"/>
	<circle cx="271.715" cy="648.385" r="4" fill="#0" id="circle116"/>
	<circle cx="274.828" cy="149.272" r="4" fill="#0" id="circle117"/>
	<circle cx="282.092" cy="648.385" r="4" fill="#0" id="circle118"/>
	<circle cx="285.205" cy="146.159" r="4" fill="#0" id="circle119"/>
	<circle cx="292.469" cy="648.385" r="4" fill="#0" id="circle120"/>
	<circle cx="295.582" cy="144.084" r="4" fill="#0" id="circle121"/>
	<circle cx="302.845" cy="648.385" r="4" fill="#0" id="circle122"/>
	<circle cx="304.921" cy="138.895" r="4" fill="#0" id="circle123"/>
	<circle cx="313.222" cy="648.385" r="4" fill="#0" id="circle124"/>
	<circle cx="315.297" cy="33.0544" r="4" fill="#0" id="circle125"/>
	<circle cx="315.297" cy="43.431" r="4" fill="#0" id="circle126"/>
	<circle cx="315.297" cy="138.895" r="4" fill="#0" id="circle127"/>
	<circle cx="320.485" cy="22.6778" r="4" fill="#0" id="circle128"/>
	<circle cx="323.598" cy="50.6946" r="4" fill="#0" id="circle129"/>
	<circle cx="323.598" cy="648.385" r="4" fill="#0" id="circle130"/>
	<circle cx="325.674" cy="12.3013" r="4" fill="#0" id="circle131"/>
	<circle cx="325.674" cy="138.895" r="4" fill="#0" id="circle132"/>
	<circle cx="333.975" cy="51.7322" r="4" fill="#0" id="circle133"/>
	<circle cx="333.975" cy="648.385" r="4" fill="#0" id="circle134"/>
	<circle cx="336.05" cy="7.11297" r="4" fill="#0" id="circle135"/>
	<circle cx="336.05" cy="138.895" r="4" fill="#0" id="circle136"/>
	<circle cx="344.351" cy="51.7322" r="4" fill="#0" id="circle137"/>
	<circle cx="344.351" cy="648.385" r="4" fill="#0" id="circle138"/>
	<circle cx="345.389" cy="133.707" r="4" fill="#0" id="circle139"/>
	<circle cx="346.427" cy="4" r="4" fill="#0" id="circle140"/>
	<circle cx="353.69" cy="643.197" r="4" fill="#0" id="circle141"/>
	<circle cx="354.728" cy="51.7322" r="4" fill="#0" id="circle142"/>
	<circle cx="355.766" cy="133.707" r="4" fill="#0" id="circle143"/>
	<circle cx="356.803" cy="4" r="4" fill="#0" id="circle144"/>
	<circle cx="356.803" cy="84.9372" r="4" fill="#0" id="circle145"/>
	<circle cx="356.803" cy="95.3138" r="4" fill="#0" id="circle146"/>
	<circle cx="364.067" cy="643.197" r="4" fill="#0" id="circle147"/>
	<circle cx="365.105" cy="51.7322" r="4" fill="#0" id="circle148"/>
	<circle cx="365.105" cy="76.636" r="4" fill="#0" id="circle149"/>
	<circle cx="365.105" cy="128.519" r="4" fill="#0" id="circle150"/>
	<circle cx="367.18" cy="4" r="4" fill="#0" id="circle151"/>
	<circle cx="367.18" cy="62.1088" r="4" fill="#0" id="circle152"/>
	<circle cx="367.18" cy="98.4268" r="4" fill="#0" id="circle153"/>
	<circle cx="374.444" cy="643.197" r="4" fill="#0" id="circle154"/>
	<circle cx="375.481" cy="123.331" r="4" fill="#0" id="circle155"/>
	<circle cx="376.519" cy="103.615" r="4" fill="#0" id="circle156"/>
	<circle cx="377.556" cy="4" r="4" fill="#0" id="circle157"/>
	<circle cx="384.82" cy="643.197" r="4" fill="#0" id="circle158"/>
	<circle cx="385.858" cy="123.331" r="4" fill="#0" id="circle159"/>
	<circle cx="386.895" cy="103.615" r="4" fill="#0" id="circle160"/>
	<circle cx="387.933" cy="4" r="4" fill="#0" id="circle161"/>
	<circle cx="395.197" cy="643.197" r="4" fill="#0" id="circle162"/>
	<circle cx="398.31" cy="4" r="4" fill="#0" id="circle163"/>
	<circle cx="405.573" cy="643.197" r="4" fill="#0" id="circle164"/>
	<circle cx="408.686" cy="4" r="4" fill="#0" id="circle165"/>
	<circle cx="415.95" cy="643.197" r="4" fill="#0" id="circle166"/>
	<circle cx="419.063" cy="4" r="4" fill="#0" id="circle167"/>
	<circle cx="420.1" cy="36.1674" r="4" fill="#0" id="circle168"/>
	<circle cx="420.1" cy="46.5439" r="4" fill="#0" id="circle169"/>
	<circle cx="425.289" cy="55.8828" r="4" fill="#0" id="circle170"/>
	<circle cx="425.289" cy="638.008" r="4" fill="#0" id="circle171"/>
	<circle cx="429.439" cy="4" r="4" fill="#0" id="circle172"/>
	<circle cx="430.477" cy="30.9791" r="4" fill="#0" id="circle173"/>
	<circle cx="435.665" cy="55.8828" r="4" fill="#0" id="circle174"/>
	<circle cx="435.665" cy="638.008" r="4" fill="#0" id="circle175"/>
	<circle cx="439.816" cy="4" r="4" fill="#0" id="circle176"/>
	<circle cx="440.854" cy="30.9791" r="4" fill="#0" id="circle177"/>
	<circle cx="440.854" cy="93.2385" r="4" fill="#0" id="circle178"/>
	<circle cx="440.854" cy="103.615" r="4" fill="#0" id="circle179"/>
	<circle cx="440.854" cy="113.992" r="4" fill="#0" id="circle180"/>
	<circle cx="446.042" cy="58.9958" r="4" fill="#0" id="circle181"/>
	<circle cx="446.042" cy="570.561" r="4" fill="#0" id="circle182"/>
	<circle cx="446.042" cy="580.937" r="4" fill="#0" id="circle183"/>
	<circle cx="446.042" cy="591.314" r="4" fill="#0" id="circle184"/>
	<circle cx="446.042" cy="632.82" r="4" fill="#0" id="circle185"/>
	<circle cx="449.155" cy="85.9749" r="4" fill="#0" id="circle186"/>
	<circle cx="450.192" cy="4" r="4" fill="#0" id="circle187"/>
	<circle cx="450.192" cy="25.7908" r="4" fill="#0" id="circle188"/>
	<circle cx="451.23" cy="118.142" r="4" fill="#0" id="circle189"/>
	<circle cx="451.23" cy="560.184" r="4" fill="#0" id="circle190"/>
	<circle cx="451.23" cy="600.653" r="4" fill="#0" id="circle191"/>
	<circle cx="451.23" cy="611.029" r="4" fill="#0" id="circle192"/>
	<circle cx="453.305" cy="67.2971" r="4" fill="#0" id="circle193"/>
	<circle cx="454.343" cy="625.556" r="4" fill="#0" id="circle194"/>
	<circle cx="456.418" cy="77.6736" r="4" fill="#0" id="circle195"/>
	<circle cx="459.531" cy="20.6025" r="4" fill="#0" id="circle196"/>
	<circle cx="460.569" cy="6.07531" r="4" fill="#0" id="circle197"/>
	<circle cx="460.569" cy="123.331" r="4" fill="#0" id="circle198"/>
	<circle cx="461.607" cy="554.996" r="4" fill="#0" id="circle199"/>
	<circle cx="470.946" cy="123.331" r="4" fill="#0" id="circle200"/>
	<circle cx="471.983" cy="554.996" r="4" fill="#0" id="circle201"/>
	<circle cx="481.322" cy="123.331" r="4" fill="#0" id="circle202"/>
	<circle cx="482.36" cy="554.996" r="4" fill="#0" id="circle203"/>
	<circle cx="490.661" cy="128.519" r="4" fill="#0" id="circle204"/>
	<circle cx="491.699" cy="549.808" r="4" fill="#0" id="circle205"/>
	<circle cx="501.038" cy="129.556" r="4" fill="#0" id="circle206"/>
	<circle cx="502.075" cy="549.808" r="4" fill="#0" id="circle207"/>
	<circle cx="511.414" cy="133.707" r="4" fill="#0" id="circle208"/>
	<circle cx="512.452" cy="549.808" r="4" fill="#0" id="circle209"/>
	<circle cx="521.791" cy="133.707" r="4" fill="#0" id="circle210"/>
	<circle cx="522.828" cy="549.808" r="4" fill="#0" id="circle211"/>
	<circle cx="532.167" cy="133.707" r="4" fill="#0" id="circle212"/>
	<circle cx="533.205" cy="549.808" r="4" fill="#0" id="circle213"/>
	<circle cx="542.544" cy="133.707" r="4" fill="#0" id="circle214"/>
	<circle cx="543.582" cy="549.808" r="4" fill="#0" id="circle215"/>
	<circle cx="552.921" cy="133.707" r="4" fill="#0" id="circle216"/>
	<circle cx="553.958" cy="546.695" r="4" fill="#0" id="circle217"/>
	<circle cx="563.297" cy="133.707" r="4" fill="#0" id="circle218"/>
	<circle cx="564.335" cy="544.619" r="4" fill="#0" id="circle219"/>
	<circle cx="573.674" cy="133.707" r="4" fill="#0" id="circle220"/>
	<circle cx="574.711" cy="544.619" r="4" fill="#0" id="circle221"/>
	<circle cx="584.05" cy="133.707" r="4" fill="#0" id="circle222"/>
	<circle cx="585.088" cy="544.619" r="4" fill="#0" id="circle223"/>
	<circle cx="594.427" cy="134.745" r="4" fill="#0" id="circle224"/>
	<circle cx="595.464" cy="544.619" r="4" fill="#0" id="circle225"/>
	<circle cx="603.766" cy="139.933" r="4" fill="#0" id="circle226"/>
	<circle cx="605.841" cy="544.619" r="4" fill="#0" id="circle227"/>
	<circle cx="612.067" cy="147.197" r="4" fill="#0" id="circle228"/>
	<circle cx="616.218" cy="157.573" r="4" fill="#0" id="circle229"/>
	<circle cx="616.218" cy="544.619" r="4" fill="#0" id="circle230"/>
	<circle cx="626.594" cy="159.649" r="4" fill="#0" id="circle231"/>
	<circle cx="626.594" cy="544.619" r="4" fill="#0" id="circle232"/>
	<circle cx="627.632" cy="248.887" r="4" fill="#0" id="circle233"/>
	<circle cx="632.82" cy="258.226" r="4" fill="#0" id="circle234"/>
	<circle cx="636.971" cy="159.649" r="4" fill="#0" id="circle235"/>
	<circle cx="636.971" cy="243.699" r="4" fill="#0" id="circle236"/>
	<circle cx="636.971" cy="544.619" r="4" fill="#0" id="circle237"/>
	<circle cx="641.121" cy="264.452" r="4" fill="#0" id="circle238"/>
	<circle cx="646.31" cy="238.51" r="4" fill="#0" id="circle239"/>
	<circle cx="647.347" cy="159.649" r="4" fill="#0" id="circle240"/>
	<circle cx="647.347" cy="544.619" r="4" fill="#0" id="circle241"/>
	<circle cx="650.46" cy="269.64" r="4" fill="#0" id="circle242"/>
	<circle cx="655.649" cy="233.322" r="4" fill="#0" id="circle243"/>
	<circle cx="657.724" cy="159.649" r="4" fill="#0" id="circle244"/>
	<circle cx="657.724" cy="544.619" r="4" fill="#0" id="circle245"/>
	<circle cx="660.837" cy="273.791" r="4" fill="#0" id="circle246"/>
	<circle cx="666.025" cy="233.322" r="4" fill="#0" id="circle247"/>
	<circle cx="668.1" cy="159.649" r="4" fill="#0" id="circle248"/>
	<circle cx="668.1" cy="544.619" r="4" fill="#0" id="circle249"/>
	<circle cx="670.176" cy="278.979" r="4" fill="#0" id="circle250"/>
	<circle cx="675.364" cy="228.134" r="4" fill="#0" id="circle251"/>
	<circle cx="678.477" cy="161.724" r="4" fill="#0" id="circle252"/>
	<circle cx="678.477" cy="544.619" r="4" fill="#0" id="circle253"/>
	<circle cx="680.552" cy="278.979" r="4" fill="#0" id="circle254"/>
	<circle cx="683.665" cy="219.833" r="4" fill="#0" id="circle255"/>
	<circle cx="684.703" cy="170.025" r="4" fill="#0" id="circle256"/>
	<circle cx="688.854" cy="209.456" r="4" fill="#0" id="circle257"/>
	<circle cx="688.854" cy="544.619" r="4" fill="#0" id="circle258"/>
	<circle cx="689.891" cy="179.364" r="4" fill="#0" id="circle259"/>
	<circle cx="689.891" cy="189.741" r="4" fill="#0" id="circle260"/>
	<circle cx="690.929" cy="278.979" r="4" fill="#0" id="circle261"/>
	<circle cx="695.079" cy="409.724" r="4" fill="#0" id="circle262"/>
	<circle cx="695.079" cy="420.1" r="4" fill="#0" id="circle263"/>
	<circle cx="695.079" cy="430.477" r="4" fill="#0" id="circle264"/>
	<circle cx="695.079" cy="440.854" r="4" fill="#0" id="circle265"/>
	<circle cx="695.079" cy="451.23" r="4" fill="#0" id="circle266"/>
	<circle cx="699.23" cy="544.619" r="4" fill="#0" id="circle267"/>
	<circle cx="701.305" cy="278.979" r="4" fill="#0" id="circle268"/>
	<circle cx="703.381" cy="402.46" r="4" fill="#0" id="circle269"/>
	<circle cx="705.456" cy="455.381" r="4" fill="#0" id="circle270"/>
	<circle cx="709.607" cy="544.619" r="4" fill="#0" id="circle271"/>
	<circle cx="711.682" cy="278.979" r="4" fill="#0" id="circle272"/>
	<circle cx="713.757" cy="399.347" r="4" fill="#0" id="circle273"/>
	<circle cx="715.833" cy="455.381" r="4" fill="#0" id="circle274"/>
	<circle cx="719.983" cy="544.619" r="4" fill="#0" id="circle275"/>
	<circle cx="722.059" cy="278.979" r="4" fill="#0" id="circle276"/>
	<circle cx="723.096" cy="394.159" r="4" fill="#0" id="circle277"/>
	<circle cx="726.209" cy="455.381" r="4" fill="#0" id="circle278"/>
	<circle cx="730.36" cy="544.619" r="4" fill="#0" id="circle279"/>
	<circle cx="732.435" cy="278.979" r="4" fill="#0" id="circle280"/>
	<circle cx="733.473" cy="394.159" r="4" fill="#0" id="circle281"/>
	<circle cx="736.586" cy="458.494" r="4" fill="#0" id="circle282"/>
	<circle cx="740.736" cy="544.619" r="4" fill="#0" id="circle283"/>
	<circle cx="742.812" cy="278.979" r="4" fill="#0" id="circle284"/>
	<circle cx="742.812" cy="388.971" r="4" fill="#0" id="circle285"/>
	<circle cx="743.849" cy="466.795" r="4" fill="#0" id="circle286"/>
	<circle cx="746.962" cy="477.172" r="4" fill="#0" id="circle287"/>
	<circle cx="746.962" cy="487.548" r="4" fill="#0" id="circle288"/>
	<circle cx="746.962" cy="497.925" r="4" fill="#0" id="circle289"/>
	<circle cx="751.113" cy="541.506" r="4" fill="#0" id="circle290"/>
	<circle cx="752.151" cy="383.782" r="4" fill="#0" id="circle291"/>
	<circle cx="753.188" cy="278.979" r="4" fill="#0" id="circle292"/>
	<circle cx="755.264" cy="504.151" r="4" fill="#0" id="circle293"/>
	<circle cx="761.49" cy="536.318" r="4" fill="#0" id="circle294"/>
	<circle cx="762.527" cy="383.782" r="4" fill="#0" id="circle295"/>
	<circle cx="762.527" cy="512.452" r="4" fill="#0" id="circle296"/>
	<circle cx="763.565" cy="274.828" r="4" fill="#0" id="circle297"/>
	<circle cx="766.678" cy="525.941" r="4" fill="#0" id="circle298"/>
	<circle cx="771.866" cy="378.594" r="4" fill="#0" id="circle299"/>
	<circle cx="773.941" cy="273.791" r="4" fill="#0" id="circle300"/>
	<circle cx="781.205" cy="373.406" r="4" fill="#0" id="circle301"/>
	<circle cx="784.318" cy="273.791" r="4" fill="#0" id="circle302"/>
	<circle cx="791.582" cy="371.331" r="4" fill="#0" id="circle303"/>
	<circle cx="794.695" cy="273.791" r="4" fill="#0" id="circle304"/>
	<circle cx="801.958" cy="368.218" r="4" fill="#0" id="circle305"/>
	<circle cx="805.071" cy="273.791" r="4" fill="#0" id="circle306"/>
	<circle cx="811.297" cy="363.029" r="4" fill="#0" id="circle307"/>
	<circle cx="815.448" cy="273.791" r="4" fill="#0" id="circle308"/>
	<circle cx="820.636" cy="357.841" r="4" fill="#0" id="circle309"/>
	<circle cx="825.824" cy="269.64" r="4" fill="#0" id="circle310"/>
	<circle cx="829.975" cy="352.653" r="4" fill="#0" id="circle311"/>
	<circle cx="836.201" cy="268.603" r="4" fill="#0" id="circle312"/>
	<circle cx="839.314" cy="347.464" r="4" fill="#0" id="circle313"/>
	<circle cx="845.54" cy="263.414" r="4" fill="#0" id="circle314"/>
	<circle cx="848.653" cy="342.276" r="4" fill="#0" id="circle315"/>
	<circle cx="854.879" cy="258.226" r="4" fill="#0" id="circle316"/>
	<circle cx="857.992" cy="337.088" r="4" fill="#0" id="circle317"/>
	<circle cx="865.255" cy="256.151" r="4" fill="#0" id="circle318"/>
	<circle cx="867.331" cy="331.9" r="4" fill="#0" id="circle319"/>
	<circle cx="875.632" cy="250.962" r="4" fill="#0" id="circle320"/>
	<circle cx="876.669" cy="326.711" r="4" fill="#0" id="circle321"/>
	<circle cx="886.008" cy="245.774" r="4" fill="#0" id="circle322"/>
	<circle cx="887.046" cy="321.523" r="4" fill="#0" id="circle323"/>
	<circle cx="896.385" cy="242.661" r="4" fill="#0" id="circle324"/>
	<circle cx="896.385" cy="316.335" r="4" fill="#0" id="circle325"/>
	<circle cx="905.724" cy="311.146" r="4" fill="#0" id="circle326"/>
	<circle cx="906.762" cy="240.586" r="4" fill="#0" id="circle327"/>
	<circle cx="915.063" cy="304.921" r="4" fill="#0" id="circle328"/>
	<circle cx="917.138" cy="235.397" r="4" fill="#0" id="circle329"/>
	<circle cx="925.439" cy="300.77" r="4" fill="#0" id="circle330"/>
	<circle cx="927.515" cy="230.209" r="4" fill="#0" id="circle331"/>
	<circle cx="935.816" cy="299.732" r="4" fill="#0" id="circle332"/>
	<circle cx="937.891" cy="227.096" r="4" fill="#0" id="circle333"/>
	<circle cx="946.192" cy="295.582" r="4" fill="#0" id="circle334"/>
	<circle cx="948.268" cy="227.096" r="4" fill="#0" id="circle335"/>
	<circle cx="955.531" cy="290.393" r="4" fill="#0" id="circle336"/>
	<circle cx="958.644" cy="227.096" r="4" fill="#0" id="circle337"/>
	<circle cx="964.87" cy="285.205" r="4" fill="#0" id="circle338"/>
	<circle cx="969.021" cy="227.096" r="4" fill="#0" id="circle339"/>
	<circle cx="975.247" cy="280.017" r="4" fill="#0" id="circle340"/>
	<circle cx="979.397" cy="227.096" r="4" fill="#0" id="circle341"/>
	<circle cx="983.548" cy="272.753" r="4" fill="#0" id="circle342"/>
	<circle cx="987.699" cy="233.322" r="4" fill="#0" id="circle343"/>
	<circle cx="990.812" cy="254.075" r="4" fill="#0" id="circle344"/>
	<circle cx="990.812" cy="264.452" r="4" fill="#0" id="circle345"/>
	<circle cx="996" cy="240.586" r="4" fill="#0" id="circle346"/>
	</g>
</svg>