<?xml version="1.0" encoding="UTF-8" standalone="no"?>
<!-- Created with CurveBenchmark -->
<svg
	xmlns:dc="http://purl.org/dc/elements/1.1/"
	xmlns:cc="http://creativecommons.org/ns#"
	xmlns:rdf="http://www.w3.org/1999/02/22-rdf-syntax-ns#"
	xmlns:svg="http://www.w3.org/2000/svg"
	xmlns="http://www.w3.org/2000/svg"
	xmlns:sodipodi="http://sodipodi.sourceforge.net/DTD/sodipodi-0.dtd"
	xmlns:inkscape="http://www.inkscape.org/namespaces/inkscape"
	width="1000"
	height="1000"
	id="svg2"
	version="1.1"
	sodipodi:docname="manifold/hnncrust-fork09.png.txt">
<defs
	id="defs4" />
<metadata
	id="metadata7">
	<rdf:RDF>
		<cc:Work
			rdf:about="">
			<dc:format>image/svg+xml</dc:format>
			<dc:type
				rdf:resource="http://purl.org/dc/dcmitype/StillImage" />
			<dc:title></dc:title>
		</cc:Work>
	</rdf:RDF>
</metadata>
<g
	inkscape:label="Layer 1"
	inkscape:groupmode="layer"
	id="layer1">
	<path style="fill:none;stroke:red;stroke-width:1px;stroke-linecap:butt;stroke-linejoin:miter;stroke-opacity:1" d="M 4,495.416 13.1682,511.919 z" id="boundary" inkscape:connector-curvature="0" />
	<path style="fill:none;stroke:red;stroke-width:1px;stroke-linecap:butt;stroke-linejoin:miter;stroke-opacity:1" d="M 4,495.416 22.3364,486.248 z" id="boundary" inkscape:connector-curvature="0" />
	<path style="fill:none;stroke:red;stroke-width:1px;stroke-linecap:butt;stroke-linejoin:miter;stroke-opacity:1" d="M 13.1682,511.919 26.0037,526.588 z" id="boundary" inkscape:connector-curvature="0" />
	<path style="fill:none;stroke:red;stroke-width:1px;stroke-linecap:butt;stroke-linejoin:miter;stroke-opacity:1" d="M 22.3364,486.248 40.6728,477.079 z" id="boundary" inkscape:connector-curvature="0" />
	<path style="fill:none;stroke:red;stroke-width:1px;stroke-linecap:butt;stroke-linejoin:miter;stroke-opacity:1" d="M 26.0037,526.588 44.3401,519.253 z" id="boundary" inkscape:connector-curvature="0" />
	<path style="fill:none;stroke:red;stroke-width:1px;stroke-linecap:butt;stroke-linejoin:miter;stroke-opacity:1" d="M 31.5046,330.388 40.6728,346.891 z" id="boundary" inkscape:connector-curvature="0" />
	<path style="fill:none;stroke:red;stroke-width:1px;stroke-linecap:butt;stroke-linejoin:miter;stroke-opacity:1" d="M 31.5046,330.388 46.1738,315.719 z" id="boundary" inkscape:connector-curvature="0" />
	<path style="fill:none;stroke:red;stroke-width:1px;stroke-linecap:butt;stroke-linejoin:miter;stroke-opacity:1" d="M 40.6728,346.891 59.0092,354.226 z" id="boundary" inkscape:connector-curvature="0" />
	<path style="fill:none;stroke:red;stroke-width:1px;stroke-linecap:butt;stroke-linejoin:miter;stroke-opacity:1" d="M 40.6728,477.079 59.0092,467.911 z" id="boundary" inkscape:connector-curvature="0" />
	<path style="fill:none;stroke:red;stroke-width:1px;stroke-linecap:butt;stroke-linejoin:miter;stroke-opacity:1" d="M 44.3401,519.253 60.8429,510.085 z" id="boundary" inkscape:connector-curvature="0" />
	<path style="fill:none;stroke:red;stroke-width:1px;stroke-linecap:butt;stroke-linejoin:miter;stroke-opacity:1" d="M 46.1738,315.719 64.5102,306.551 z" id="boundary" inkscape:connector-curvature="0" />
	<path style="fill:none;stroke:red;stroke-width:1px;stroke-linecap:butt;stroke-linejoin:miter;stroke-opacity:1" d="M 59.0092,354.226 70.0111,335.889 z" id="boundary" inkscape:connector-curvature="0" />
	<path style="fill:none;stroke:red;stroke-width:1px;stroke-linecap:butt;stroke-linejoin:miter;stroke-opacity:1" d="M 59.0092,467.911 77.3457,467.911 z" id="boundary" inkscape:connector-curvature="0" />
	<path style="fill:none;stroke:red;stroke-width:1px;stroke-linecap:butt;stroke-linejoin:miter;stroke-opacity:1" d="M 60.8429,510.085 77.3457,500.917 z" id="boundary" inkscape:connector-curvature="0" />
	<path style="fill:none;stroke:red;stroke-width:1px;stroke-linecap:butt;stroke-linejoin:miter;stroke-opacity:1" d="M 64.5102,306.551 79.1793,291.882 z" id="boundary" inkscape:connector-curvature="0" />
	<path style="fill:none;stroke:red;stroke-width:1px;stroke-linecap:butt;stroke-linejoin:miter;stroke-opacity:1" d="M 70.0111,335.889 88.3475,326.721 z" id="boundary" inkscape:connector-curvature="0" />
	<path style="fill:none;stroke:red;stroke-width:1px;stroke-linecap:butt;stroke-linejoin:miter;stroke-opacity:1" d="M 77.3457,467.911 95.6821,462.41 z" id="boundary" inkscape:connector-curvature="0" />
	<path style="fill:none;stroke:red;stroke-width:1px;stroke-linecap:butt;stroke-linejoin:miter;stroke-opacity:1" d="M 77.3457,500.917 95.6821,500.917 z" id="boundary" inkscape:connector-curvature="0" />
	<path style="fill:none;stroke:red;stroke-width:1px;stroke-linecap:butt;stroke-linejoin:miter;stroke-opacity:1" d="M 79.1793,291.882 93.8484,279.046 z" id="boundary" inkscape:connector-curvature="0" />
	<path style="fill:none;stroke:red;stroke-width:1px;stroke-linecap:butt;stroke-linejoin:miter;stroke-opacity:1" d="M 86.5139,18.6691 97.5157,33.3383 z" id="boundary" inkscape:connector-curvature="0" />
	<path style="fill:none;stroke:red;stroke-width:1px;stroke-linecap:butt;stroke-linejoin:miter;stroke-opacity:1" d="M 86.5139,18.6691 101.183,4 z" id="boundary" inkscape:connector-curvature="0" />
	<path style="fill:none;stroke:red;stroke-width:1px;stroke-linecap:butt;stroke-linejoin:miter;stroke-opacity:1" d="M 88.3475,326.721 103.017,313.885 z" id="boundary" inkscape:connector-curvature="0" />
	<path style="fill:none;stroke:red;stroke-width:1px;stroke-linecap:butt;stroke-linejoin:miter;stroke-opacity:1" d="M 93.8484,279.046 106.684,264.377 z" id="boundary" inkscape:connector-curvature="0" />
	<path style="fill:none;stroke:red;stroke-width:1px;stroke-linecap:butt;stroke-linejoin:miter;stroke-opacity:1" d="M 95.6821,462.41 112.185,453.242 z" id="boundary" inkscape:connector-curvature="0" />
	<path style="fill:none;stroke:red;stroke-width:1px;stroke-linecap:butt;stroke-linejoin:miter;stroke-opacity:1" d="M 95.6821,500.917 112.185,491.749 z" id="boundary" inkscape:connector-curvature="0" />
	<path style="fill:none;stroke:red;stroke-width:1px;stroke-linecap:butt;stroke-linejoin:miter;stroke-opacity:1" d="M 97.5157,33.3383 114.018,42.5065 z" id="boundary" inkscape:connector-curvature="0" />
	<path style="fill:none;stroke:red;stroke-width:1px;stroke-linecap:butt;stroke-linejoin:miter;stroke-opacity:1" d="M 101.183,4 119.519,4 z" id="boundary" inkscape:connector-curvature="0" />
	<path style="fill:none;stroke:red;stroke-width:1px;stroke-linecap:butt;stroke-linejoin:miter;stroke-opacity:1" d="M 103.017,313.885 121.353,308.384 z" id="boundary" inkscape:connector-curvature="0" />
	<path style="fill:none;stroke:red;stroke-width:1px;stroke-linecap:butt;stroke-linejoin:miter;stroke-opacity:1" d="M 104.85,119.519 114.018,136.022 z" id="boundary" inkscape:connector-curvature="0" />
	<path style="fill:none;stroke:red;stroke-width:1px;stroke-linecap:butt;stroke-linejoin:miter;stroke-opacity:1" d="M 104.85,119.519 119.519,104.85 z" id="boundary" inkscape:connector-curvature="0" />
	<path style="fill:none;stroke:red;stroke-width:1px;stroke-linecap:butt;stroke-linejoin:miter;stroke-opacity:1" d="M 106.684,264.377 125.02,266.211 z" id="boundary" inkscape:connector-curvature="0" />
	<path style="fill:none;stroke:red;stroke-width:1px;stroke-linecap:butt;stroke-linejoin:miter;stroke-opacity:1" d="M 112.185,453.242 128.688,444.074 z" id="boundary" inkscape:connector-curvature="0" />
	<path style="fill:none;stroke:red;stroke-width:1px;stroke-linecap:butt;stroke-linejoin:miter;stroke-opacity:1" d="M 112.185,491.749 128.688,482.58 z" id="boundary" inkscape:connector-curvature="0" />
	<path style="fill:none;stroke:red;stroke-width:1px;stroke-linecap:butt;stroke-linejoin:miter;stroke-opacity:1" d="M 114.018,42.5065 130.521,51.6747 z" id="boundary" inkscape:connector-curvature="0" />
	<path style="fill:none;stroke:red;stroke-width:1px;stroke-linecap:butt;stroke-linejoin:miter;stroke-opacity:1" d="M 114.018,136.022 123.187,152.525 z" id="boundary" inkscape:connector-curvature="0" />
	<path style="fill:none;stroke:red;stroke-width:1px;stroke-linecap:butt;stroke-linejoin:miter;stroke-opacity:1" d="M 119.519,4 136.022,13.1682 z" id="boundary" inkscape:connector-curvature="0" />
	<path style="fill:none;stroke:red;stroke-width:1px;stroke-linecap:butt;stroke-linejoin:miter;stroke-opacity:1" d="M 119.519,104.85 136.022,114.018 z" id="boundary" inkscape:connector-curvature="0" />
	<path style="fill:none;stroke:red;stroke-width:1px;stroke-linecap:butt;stroke-linejoin:miter;stroke-opacity:1" d="M 121.353,308.384 137.856,317.553 z" id="boundary" inkscape:connector-curvature="0" />
	<path style="fill:none;stroke:red;stroke-width:1px;stroke-linecap:butt;stroke-linejoin:miter;stroke-opacity:1" d="M 123.187,152.525 123.187,170.861 z" id="boundary" inkscape:connector-curvature="0" />
	<path style="fill:none;stroke:red;stroke-width:1px;stroke-linecap:butt;stroke-linejoin:miter;stroke-opacity:1" d="M 123.187,170.861 134.189,185.53 z" id="boundary" inkscape:connector-curvature="0" />
	<path style="fill:none;stroke:red;stroke-width:1px;stroke-linecap:butt;stroke-linejoin:miter;stroke-opacity:1" d="M 125.02,266.211 141.523,275.379 z" id="boundary" inkscape:connector-curvature="0" />
	<path style="fill:none;stroke:red;stroke-width:1px;stroke-linecap:butt;stroke-linejoin:miter;stroke-opacity:1" d="M 128.688,444.074 147.024,434.906 z" id="boundary" inkscape:connector-curvature="0" />
	<path style="fill:none;stroke:red;stroke-width:1px;stroke-linecap:butt;stroke-linejoin:miter;stroke-opacity:1" d="M 128.688,482.58 147.024,480.747 z" id="boundary" inkscape:connector-curvature="0" />
	<path style="fill:none;stroke:red;stroke-width:1px;stroke-linecap:butt;stroke-linejoin:miter;stroke-opacity:1" d="M 130.521,51.6747 147.024,60.8429 z" id="boundary" inkscape:connector-curvature="0" />
	<path style="fill:none;stroke:red;stroke-width:1px;stroke-linecap:butt;stroke-linejoin:miter;stroke-opacity:1" d="M 134.189,185.53 148.858,198.366 z" id="boundary" inkscape:connector-curvature="0" />
	<path style="fill:none;stroke:red;stroke-width:1px;stroke-linecap:butt;stroke-linejoin:miter;stroke-opacity:1" d="M 136.022,13.1682 152.525,22.3364 z" id="boundary" inkscape:connector-curvature="0" />
	<path style="fill:none;stroke:red;stroke-width:1px;stroke-linecap:butt;stroke-linejoin:miter;stroke-opacity:1" d="M 136.022,114.018 143.357,132.355 z" id="boundary" inkscape:connector-curvature="0" />
	<path style="fill:none;stroke:red;stroke-width:1px;stroke-linecap:butt;stroke-linejoin:miter;stroke-opacity:1" d="M 137.856,317.553 156.192,324.887 z" id="boundary" inkscape:connector-curvature="0" />
	<path style="fill:none;stroke:red;stroke-width:1px;stroke-linecap:butt;stroke-linejoin:miter;stroke-opacity:1" d="M 141.523,275.379 159.86,282.713 z" id="boundary" inkscape:connector-curvature="0" />
	<path style="fill:none;stroke:red;stroke-width:1px;stroke-linecap:butt;stroke-linejoin:miter;stroke-opacity:1" d="M 143.357,132.355 152.525,148.858 z" id="boundary" inkscape:connector-curvature="0" />
	<path style="fill:none;stroke:red;stroke-width:1px;stroke-linecap:butt;stroke-linejoin:miter;stroke-opacity:1" d="M 147.024,60.8429 161.693,73.6784 z" id="boundary" inkscape:connector-curvature="0" />
	<path style="fill:none;stroke:red;stroke-width:1px;stroke-linecap:butt;stroke-linejoin:miter;stroke-opacity:1" d="M 147.024,434.906 165.36,434.906 z" id="boundary" inkscape:connector-curvature="0" />
	<path style="fill:none;stroke:red;stroke-width:1px;stroke-linecap:butt;stroke-linejoin:miter;stroke-opacity:1" d="M 147.024,480.747 161.693,464.244 z" id="boundary" inkscape:connector-curvature="0" />
	<path style="fill:none;stroke:red;stroke-width:1px;stroke-linecap:butt;stroke-linejoin:miter;stroke-opacity:1" d="M 148.858,198.366 156.192,216.702 z" id="boundary" inkscape:connector-curvature="0" />
	<path style="fill:none;stroke:red;stroke-width:1px;stroke-linecap:butt;stroke-linejoin:miter;stroke-opacity:1" d="M 152.525,22.3364 167.194,33.3383 z" id="boundary" inkscape:connector-curvature="0" />
	<path style="fill:none;stroke:red;stroke-width:1px;stroke-linecap:butt;stroke-linejoin:miter;stroke-opacity:1" d="M 152.525,148.858 161.693,165.36 z" id="boundary" inkscape:connector-curvature="0" />
	<path style="fill:none;stroke:red;stroke-width:1px;stroke-linecap:butt;stroke-linejoin:miter;stroke-opacity:1" d="M 156.192,216.702 174.529,224.037 z" id="boundary" inkscape:connector-curvature="0" />
	<path style="fill:none;stroke:red;stroke-width:1px;stroke-linecap:butt;stroke-linejoin:miter;stroke-opacity:1" d="M 156.192,324.887 170.861,335.889 z" id="boundary" inkscape:connector-curvature="0" />
	<path style="fill:none;stroke:red;stroke-width:1px;stroke-linecap:butt;stroke-linejoin:miter;stroke-opacity:1" d="M 159.86,282.713 170.861,297.383 z" id="boundary" inkscape:connector-curvature="0" />
	<path style="fill:none;stroke:red;stroke-width:1px;stroke-linecap:butt;stroke-linejoin:miter;stroke-opacity:1" d="M 161.693,73.6784 174.529,88.3475 z" id="boundary" inkscape:connector-curvature="0" />
	<path style="fill:none;stroke:red;stroke-width:1px;stroke-linecap:butt;stroke-linejoin:miter;stroke-opacity:1" d="M 161.693,165.36 174.529,180.03 z" id="boundary" inkscape:connector-curvature="0" />
	<path style="fill:none;stroke:red;stroke-width:1px;stroke-linecap:butt;stroke-linejoin:miter;stroke-opacity:1" d="M 161.693,464.244 180.03,464.244 z" id="boundary" inkscape:connector-curvature="0" />
	<path style="fill:none;stroke:red;stroke-width:1px;stroke-linecap:butt;stroke-linejoin:miter;stroke-opacity:1" d="M 165.36,434.906 183.697,425.738 z" id="boundary" inkscape:connector-curvature="0" />
	<path style="fill:none;stroke:red;stroke-width:1px;stroke-linecap:butt;stroke-linejoin:miter;stroke-opacity:1" d="M 167.194,33.3383 180.03,48.0074 z" id="boundary" inkscape:connector-curvature="0" />
	<path style="fill:none;stroke:red;stroke-width:1px;stroke-linecap:butt;stroke-linejoin:miter;stroke-opacity:1" d="M 170.861,297.383 189.198,302.884 z" id="boundary" inkscape:connector-curvature="0" />
	<path style="fill:none;stroke:red;stroke-width:1px;stroke-linecap:butt;stroke-linejoin:miter;stroke-opacity:1" d="M 170.861,335.889 189.198,339.556 z" id="boundary" inkscape:connector-curvature="0" />
	<path style="fill:none;stroke:red;stroke-width:1px;stroke-linecap:butt;stroke-linejoin:miter;stroke-opacity:1" d="M 174.529,88.3475 189.198,101.183 z" id="boundary" inkscape:connector-curvature="0" />
	<path style="fill:none;stroke:red;stroke-width:1px;stroke-linecap:butt;stroke-linejoin:miter;stroke-opacity:1" d="M 174.529,180.03 189.198,192.865 z" id="boundary" inkscape:connector-curvature="0" />
	<path style="fill:none;stroke:red;stroke-width:1px;stroke-linecap:butt;stroke-linejoin:miter;stroke-opacity:1" d="M 174.529,224.037 187.364,238.706 z" id="boundary" inkscape:connector-curvature="0" />
	<path style="fill:none;stroke:red;stroke-width:1px;stroke-linecap:butt;stroke-linejoin:miter;stroke-opacity:1" d="M 180.03,48.0074 194.699,60.8429 z" id="boundary" inkscape:connector-curvature="0" />
	<path style="fill:none;stroke:red;stroke-width:1px;stroke-linecap:butt;stroke-linejoin:miter;stroke-opacity:1" d="M 180.03,464.244 198.366,464.244 z" id="boundary" inkscape:connector-curvature="0" />
	<path style="fill:none;stroke:red;stroke-width:1px;stroke-linecap:butt;stroke-linejoin:miter;stroke-opacity:1" d="M 183.697,425.738 202.033,416.569 z" id="boundary" inkscape:connector-curvature="0" />
	<path style="fill:none;stroke:red;stroke-width:1px;stroke-linecap:butt;stroke-linejoin:miter;stroke-opacity:1" d="M 187.364,238.706 202.033,251.542 z" id="boundary" inkscape:connector-curvature="0" />
	<path style="fill:none;stroke:red;stroke-width:1px;stroke-linecap:butt;stroke-linejoin:miter;stroke-opacity:1" d="M 189.198,101.183 205.701,110.351 z" id="boundary" inkscape:connector-curvature="0" />
	<path style="fill:none;stroke:red;stroke-width:1px;stroke-linecap:butt;stroke-linejoin:miter;stroke-opacity:1" d="M 189.198,192.865 205.701,202.033 z" id="boundary" inkscape:connector-curvature="0" />
	<path style="fill:none;stroke:red;stroke-width:1px;stroke-linecap:butt;stroke-linejoin:miter;stroke-opacity:1" d="M 189.198,302.884 207.534,306.551 z" id="boundary" inkscape:connector-curvature="0" />
	<path style="fill:none;stroke:red;stroke-width:1px;stroke-linecap:butt;stroke-linejoin:miter;stroke-opacity:1" d="M 189.198,339.556 207.534,345.057 z" id="boundary" inkscape:connector-curvature="0" />
	<path style="fill:none;stroke:red;stroke-width:1px;stroke-linecap:butt;stroke-linejoin:miter;stroke-opacity:1" d="M 194.699,60.8429 207.534,75.512 z" id="boundary" inkscape:connector-curvature="0" />
	<path style="fill:none;stroke:red;stroke-width:1px;stroke-linecap:butt;stroke-linejoin:miter;stroke-opacity:1" d="M 198.366,464.244 214.869,455.076 z" id="boundary" inkscape:connector-curvature="0" />
	<path style="fill:none;stroke:red;stroke-width:1px;stroke-linecap:butt;stroke-linejoin:miter;stroke-opacity:1" d="M 202.033,251.542 218.536,260.71 z" id="boundary" inkscape:connector-curvature="0" />
	<path style="fill:none;stroke:red;stroke-width:1px;stroke-linecap:butt;stroke-linejoin:miter;stroke-opacity:1" d="M 202.033,416.569 220.37,416.569 z" id="boundary" inkscape:connector-curvature="0" />
	<path style="fill:none;stroke:red;stroke-width:1px;stroke-linecap:butt;stroke-linejoin:miter;stroke-opacity:1" d="M 205.701,110.351 214.869,126.854 z" id="boundary" inkscape:connector-curvature="0" />
	<path style="fill:none;stroke:red;stroke-width:1px;stroke-linecap:butt;stroke-linejoin:miter;stroke-opacity:1" d="M 205.701,202.033 220.37,214.869 z" id="boundary" inkscape:connector-curvature="0" />
	<path style="fill:none;stroke:red;stroke-width:1px;stroke-linecap:butt;stroke-linejoin:miter;stroke-opacity:1" d="M 207.534,75.512 222.203,86.5139 z" id="boundary" inkscape:connector-curvature="0" />
	<path style="fill:none;stroke:red;stroke-width:1px;stroke-linecap:butt;stroke-linejoin:miter;stroke-opacity:1" d="M 207.534,306.551 225.871,312.052 z" id="boundary" inkscape:connector-curvature="0" />
	<path style="fill:none;stroke:red;stroke-width:1px;stroke-linecap:butt;stroke-linejoin:miter;stroke-opacity:1" d="M 207.534,345.057 225.871,345.057 z" id="boundary" inkscape:connector-curvature="0" />
	<path style="fill:none;stroke:red;stroke-width:1px;stroke-linecap:butt;stroke-linejoin:miter;stroke-opacity:1" d="M 214.869,126.854 233.205,134.189 z" id="boundary" inkscape:connector-curvature="0" />
	<path style="fill:none;stroke:red;stroke-width:1px;stroke-linecap:butt;stroke-linejoin:miter;stroke-opacity:1" d="M 214.869,455.076 231.372,445.908 z" id="boundary" inkscape:connector-curvature="0" />
	<path style="fill:none;stroke:red;stroke-width:1px;stroke-linecap:butt;stroke-linejoin:miter;stroke-opacity:1" d="M 218.536,260.71 236.872,268.044 z" id="boundary" inkscape:connector-curvature="0" />
	<path style="fill:none;stroke:red;stroke-width:1px;stroke-linecap:butt;stroke-linejoin:miter;stroke-opacity:1" d="M 220.37,214.869 233.205,229.538 z" id="boundary" inkscape:connector-curvature="0" />
	<path style="fill:none;stroke:red;stroke-width:1px;stroke-linecap:butt;stroke-linejoin:miter;stroke-opacity:1" d="M 220.37,416.569 236.872,407.401 z" id="boundary" inkscape:connector-curvature="0" />
	<path style="fill:none;stroke:red;stroke-width:1px;stroke-linecap:butt;stroke-linejoin:miter;stroke-opacity:1" d="M 222.203,86.5139 235.039,101.183 z" id="boundary" inkscape:connector-curvature="0" />
	<path style="fill:none;stroke:red;stroke-width:1px;stroke-linecap:butt;stroke-linejoin:miter;stroke-opacity:1" d="M 225.871,312.052 244.207,312.052 z" id="boundary" inkscape:connector-curvature="0" />
	<path style="fill:none;stroke:red;stroke-width:1px;stroke-linecap:butt;stroke-linejoin:miter;stroke-opacity:1" d="M 225.871,345.057 242.373,354.226 z" id="boundary" inkscape:connector-curvature="0" />
	<path style="fill:none;stroke:red;stroke-width:1px;stroke-linecap:butt;stroke-linejoin:miter;stroke-opacity:1" d="M 231.372,445.908 249.708,442.24 z" id="boundary" inkscape:connector-curvature="0" />
	<path style="fill:none;stroke:red;stroke-width:1px;stroke-linecap:butt;stroke-linejoin:miter;stroke-opacity:1" d="M 233.205,134.189 249.708,143.357 z" id="boundary" inkscape:connector-curvature="0" />
	<path style="fill:none;stroke:red;stroke-width:1px;stroke-linecap:butt;stroke-linejoin:miter;stroke-opacity:1" d="M 233.205,229.538 251.542,236.872 z" id="boundary" inkscape:connector-curvature="0" />
	<path style="fill:none;stroke:red;stroke-width:1px;stroke-linecap:butt;stroke-linejoin:miter;stroke-opacity:1" d="M 235.039,101.183 253.375,104.85 z" id="boundary" inkscape:connector-curvature="0" />
	<path style="fill:none;stroke:red;stroke-width:1px;stroke-linecap:butt;stroke-linejoin:miter;stroke-opacity:1" d="M 236.872,268.044 251.542,280.88 z" id="boundary" inkscape:connector-curvature="0" />
	<path style="fill:none;stroke:red;stroke-width:1px;stroke-linecap:butt;stroke-linejoin:miter;stroke-opacity:1" d="M 236.872,407.401 255.209,400.067 z" id="boundary" inkscape:connector-curvature="0" />
	<path style="fill:none;stroke:red;stroke-width:1px;stroke-linecap:butt;stroke-linejoin:miter;stroke-opacity:1" d="M 242.373,354.226 258.876,345.057 z" id="boundary" inkscape:connector-curvature="0" />
	<path style="fill:none;stroke:red;stroke-width:1px;stroke-linecap:butt;stroke-linejoin:miter;stroke-opacity:1" d="M 244.207,312.052 262.543,312.052 z" id="boundary" inkscape:connector-curvature="0" />
	<path style="fill:none;stroke:red;stroke-width:1px;stroke-linecap:butt;stroke-linejoin:miter;stroke-opacity:1" d="M 249.708,143.357 262.543,158.026 z" id="boundary" inkscape:connector-curvature="0" />
	<path style="fill:none;stroke:red;stroke-width:1px;stroke-linecap:butt;stroke-linejoin:miter;stroke-opacity:1" d="M 249.708,442.24 268.044,436.739 z" id="boundary" inkscape:connector-curvature="0" />
	<path style="fill:none;stroke:red;stroke-width:1px;stroke-linecap:butt;stroke-linejoin:miter;stroke-opacity:1" d="M 251.542,236.872 268.044,246.041 z" id="boundary" inkscape:connector-curvature="0" />
	<path style="fill:none;stroke:red;stroke-width:1px;stroke-linecap:butt;stroke-linejoin:miter;stroke-opacity:1" d="M 251.542,280.88 269.878,280.88 z" id="boundary" inkscape:connector-curvature="0" />
	<path style="fill:none;stroke:red;stroke-width:1px;stroke-linecap:butt;stroke-linejoin:miter;stroke-opacity:1" d="M 253.375,104.85 262.543,121.353 z" id="boundary" inkscape:connector-curvature="0" />
	<path style="fill:none;stroke:red;stroke-width:1px;stroke-linecap:butt;stroke-linejoin:miter;stroke-opacity:1" d="M 255.209,400.067 273.545,398.233 z" id="boundary" inkscape:connector-curvature="0" />
	<path style="fill:none;stroke:red;stroke-width:1px;stroke-linecap:butt;stroke-linejoin:miter;stroke-opacity:1" d="M 258.876,345.057 275.379,354.226 z" id="boundary" inkscape:connector-curvature="0" />
	<path style="fill:none;stroke:red;stroke-width:1px;stroke-linecap:butt;stroke-linejoin:miter;stroke-opacity:1" d="M 262.543,121.353 280.88,128.688 z" id="boundary" inkscape:connector-curvature="0" />
	<path style="fill:none;stroke:red;stroke-width:1px;stroke-linecap:butt;stroke-linejoin:miter;stroke-opacity:1" d="M 262.543,158.026 277.213,170.861 z" id="boundary" inkscape:connector-curvature="0" />
	<path style="fill:none;stroke:red;stroke-width:1px;stroke-linecap:butt;stroke-linejoin:miter;stroke-opacity:1" d="M 262.543,312.052 280.88,312.052 z" id="boundary" inkscape:connector-curvature="0" />
	<path style="fill:none;stroke:red;stroke-width:1px;stroke-linecap:butt;stroke-linejoin:miter;stroke-opacity:1" d="M 268.044,246.041 286.381,253.375 z" id="boundary" inkscape:connector-curvature="0" />
	<path style="fill:none;stroke:red;stroke-width:1px;stroke-linecap:butt;stroke-linejoin:miter;stroke-opacity:1" d="M 268.044,436.739 284.547,427.571 z" id="boundary" inkscape:connector-curvature="0" />
	<path style="fill:none;stroke:red;stroke-width:1px;stroke-linecap:butt;stroke-linejoin:miter;stroke-opacity:1" d="M 269.878,280.88 286.381,290.048 z" id="boundary" inkscape:connector-curvature="0" />
	<path style="fill:none;stroke:red;stroke-width:1px;stroke-linecap:butt;stroke-linejoin:miter;stroke-opacity:1" d="M 273.545,398.233 290.048,389.065 z" id="boundary" inkscape:connector-curvature="0" />
	<path style="fill:none;stroke:red;stroke-width:1px;stroke-linecap:butt;stroke-linejoin:miter;stroke-opacity:1" d="M 275.379,354.226 291.882,363.394 z" id="boundary" inkscape:connector-curvature="0" />
	<path style="fill:none;stroke:red;stroke-width:1px;stroke-linecap:butt;stroke-linejoin:miter;stroke-opacity:1" d="M 277.213,170.861 293.715,180.03 z" id="boundary" inkscape:connector-curvature="0" />
	<path style="fill:none;stroke:red;stroke-width:1px;stroke-linecap:butt;stroke-linejoin:miter;stroke-opacity:1" d="M 280.88,128.688 297.383,137.856 z" id="boundary" inkscape:connector-curvature="0" />
	<path style="fill:none;stroke:red;stroke-width:1px;stroke-linecap:butt;stroke-linejoin:miter;stroke-opacity:1" d="M 280.88,312.052 297.383,321.22 z" id="boundary" inkscape:connector-curvature="0" />
	<path style="fill:none;stroke:red;stroke-width:1px;stroke-linecap:butt;stroke-linejoin:miter;stroke-opacity:1" d="M 284.547,427.571 302.884,434.906 z" id="boundary" inkscape:connector-curvature="0" />
	<path style="fill:none;stroke:red;stroke-width:1px;stroke-linecap:butt;stroke-linejoin:miter;stroke-opacity:1" d="M 286.381,253.375 302.884,262.543 z" id="boundary" inkscape:connector-curvature="0" />
	<path style="fill:none;stroke:red;stroke-width:1px;stroke-linecap:butt;stroke-linejoin:miter;stroke-opacity:1" d="M 291.882,363.394 308.384,372.562 z" id="boundary" inkscape:connector-curvature="0" />
	<path style="fill:none;stroke:red;stroke-width:1px;stroke-linecap:butt;stroke-linejoin:miter;stroke-opacity:1" d="M 293.715,180.03 312.052,187.364 z" id="boundary" inkscape:connector-curvature="0" />
	<path style="fill:none;stroke:red;stroke-width:1px;stroke-linecap:butt;stroke-linejoin:miter;stroke-opacity:1" d="M 297.383,137.856 312.052,150.691 z" id="boundary" inkscape:connector-curvature="0" />
	<path style="fill:none;stroke:red;stroke-width:1px;stroke-linecap:butt;stroke-linejoin:miter;stroke-opacity:1" d="M 297.383,321.22 312.052,308.384 z" id="boundary" inkscape:connector-curvature="0" />
	<path style="fill:none;stroke:red;stroke-width:1px;stroke-linecap:butt;stroke-linejoin:miter;stroke-opacity:1" d="M 302.884,262.543 321.22,269.878 z" id="boundary" inkscape:connector-curvature="0" />
	<path style="fill:none;stroke:red;stroke-width:1px;stroke-linecap:butt;stroke-linejoin:miter;stroke-opacity:1" d="M 302.884,434.906 321.22,427.571 z" id="boundary" inkscape:connector-curvature="0" />
	<path style="fill:none;stroke:red;stroke-width:1px;stroke-linecap:butt;stroke-linejoin:miter;stroke-opacity:1" d="M 308.384,372.562 326.721,372.562 z" id="boundary" inkscape:connector-curvature="0" />
	<path style="fill:none;stroke:red;stroke-width:1px;stroke-linecap:butt;stroke-linejoin:miter;stroke-opacity:1" d="M 312.052,150.691 330.388,150.691 z" id="boundary" inkscape:connector-curvature="0" />
	<path style="fill:none;stroke:red;stroke-width:1px;stroke-linecap:butt;stroke-linejoin:miter;stroke-opacity:1" d="M 312.052,187.364 328.555,196.532 z" id="boundary" inkscape:connector-curvature="0" />
	<path style="fill:none;stroke:red;stroke-width:1px;stroke-linecap:butt;stroke-linejoin:miter;stroke-opacity:1" d="M 312.052,308.384 328.555,317.553 z" id="boundary" inkscape:connector-curvature="0" />
	<path style="fill:none;stroke:red;stroke-width:1px;stroke-linecap:butt;stroke-linejoin:miter;stroke-opacity:1" d="M 321.22,269.878 337.723,279.046 z" id="boundary" inkscape:connector-curvature="0" />
	<path style="fill:none;stroke:red;stroke-width:1px;stroke-linecap:butt;stroke-linejoin:miter;stroke-opacity:1" d="M 321.22,427.571 339.556,427.571 z" id="boundary" inkscape:connector-curvature="0" />
	<path style="fill:none;stroke:red;stroke-width:1px;stroke-linecap:butt;stroke-linejoin:miter;stroke-opacity:1" d="M 326.721,372.562 337.723,334.055 z" id="boundary" inkscape:connector-curvature="0" />
	<path style="fill:none;stroke:red;stroke-width:1px;stroke-linecap:butt;stroke-linejoin:miter;stroke-opacity:1" d="M 328.555,196.532 343.224,207.534 z" id="boundary" inkscape:connector-curvature="0" />
	<path style="fill:none;stroke:red;stroke-width:1px;stroke-linecap:butt;stroke-linejoin:miter;stroke-opacity:1" d="M 328.555,317.553 337.723,334.055 z" id="boundary" inkscape:connector-curvature="0" />
	<path style="fill:none;stroke:red;stroke-width:1px;stroke-linecap:butt;stroke-linejoin:miter;stroke-opacity:1" d="M 330.388,150.691 343.224,165.36 z" id="boundary" inkscape:connector-curvature="0" />
	<path style="fill:none;stroke:red;stroke-width:1px;stroke-linecap:butt;stroke-linejoin:miter;stroke-opacity:1" d="M 337.723,279.046 354.226,288.214 z" id="boundary" inkscape:connector-curvature="0" />
	<path style="fill:none;stroke:red;stroke-width:1px;stroke-linecap:butt;stroke-linejoin:miter;stroke-opacity:1" d="M 339.556,427.571 357.893,425.738 z" id="boundary" inkscape:connector-curvature="0" />
	<path style="fill:none;stroke:red;stroke-width:1px;stroke-linecap:butt;stroke-linejoin:miter;stroke-opacity:1" d="M 343.224,165.36 361.56,172.695 z" id="boundary" inkscape:connector-curvature="0" />
	<path style="fill:none;stroke:red;stroke-width:1px;stroke-linecap:butt;stroke-linejoin:miter;stroke-opacity:1" d="M 343.224,207.534 359.726,216.702 z" id="boundary" inkscape:connector-curvature="0" />
	<path style="fill:none;stroke:red;stroke-width:1px;stroke-linecap:butt;stroke-linejoin:miter;stroke-opacity:1" d="M 354.226,288.214 370.728,266.211 z" id="boundary" inkscape:connector-curvature="0" />
	<path style="fill:none;stroke:red;stroke-width:1px;stroke-linecap:butt;stroke-linejoin:miter;stroke-opacity:1" d="M 357.893,425.738 363.394,390.898 z" id="boundary" inkscape:connector-curvature="0" />
	<path style="fill:none;stroke:red;stroke-width:1px;stroke-linecap:butt;stroke-linejoin:miter;stroke-opacity:1" d="M 359.726,216.702 376.229,225.871 z" id="boundary" inkscape:connector-curvature="0" />
	<path style="fill:none;stroke:red;stroke-width:1px;stroke-linecap:butt;stroke-linejoin:miter;stroke-opacity:1" d="M 361.56,172.695 372.562,187.364 z" id="boundary" inkscape:connector-curvature="0" />
	<path style="fill:none;stroke:red;stroke-width:1px;stroke-linecap:butt;stroke-linejoin:miter;stroke-opacity:1" d="M 363.394,390.898 372.562,363.394 z" id="boundary" inkscape:connector-curvature="0" />
	<path style="fill:none;stroke:red;stroke-width:1px;stroke-linecap:butt;stroke-linejoin:miter;stroke-opacity:1" d="M 370.728,266.211 379.896,244.207 z" id="boundary" inkscape:connector-curvature="0" />
	<path style="fill:none;stroke:red;stroke-width:1px;stroke-linecap:butt;stroke-linejoin:miter;stroke-opacity:1" d="M 372.562,187.364 389.065,196.532 z" id="boundary" inkscape:connector-curvature="0" />
	<path style="fill:none;stroke:red;stroke-width:1px;stroke-linecap:butt;stroke-linejoin:miter;stroke-opacity:1" d="M 372.562,363.394 390.898,354.226 z" id="boundary" inkscape:connector-curvature="0" />
	<path style="fill:none;stroke:red;stroke-width:1px;stroke-linecap:butt;stroke-linejoin:miter;stroke-opacity:1" d="M 376.229,225.871 379.896,244.207 z" id="boundary" inkscape:connector-curvature="0" />
	<path style="fill:none;stroke:red;stroke-width:1px;stroke-linecap:butt;stroke-linejoin:miter;stroke-opacity:1" d="M 389.065,196.532 407.401,196.532 z" id="boundary" inkscape:connector-curvature="0" />
	<path style="fill:none;stroke:red;stroke-width:1px;stroke-linecap:butt;stroke-linejoin:miter;stroke-opacity:1" d="M 390.898,354.226 409.235,357.893 z" id="boundary" inkscape:connector-curvature="0" />
	<path style="fill:none;stroke:red;stroke-width:1px;stroke-linecap:butt;stroke-linejoin:miter;stroke-opacity:1" d="M 407.401,196.532 422.07,207.534 z" id="boundary" inkscape:connector-curvature="0" />
	<path style="fill:none;stroke:red;stroke-width:1px;stroke-linecap:butt;stroke-linejoin:miter;stroke-opacity:1" d="M 409.235,253.375 409.235,271.712 z" id="boundary" inkscape:connector-curvature="0" />
	<path style="fill:none;stroke:red;stroke-width:1px;stroke-linecap:butt;stroke-linejoin:miter;stroke-opacity:1" d="M 409.235,253.375 418.403,225.871 z" id="boundary" inkscape:connector-curvature="0" />
	<path style="fill:none;stroke:red;stroke-width:1px;stroke-linecap:butt;stroke-linejoin:miter;stroke-opacity:1" d="M 409.235,271.712 427.571,279.046 z" id="boundary" inkscape:connector-curvature="0" />
	<path style="fill:none;stroke:red;stroke-width:1px;stroke-linecap:butt;stroke-linejoin:miter;stroke-opacity:1" d="M 409.235,357.893 427.571,363.394 z" id="boundary" inkscape:connector-curvature="0" />
	<path style="fill:none;stroke:red;stroke-width:1px;stroke-linecap:butt;stroke-linejoin:miter;stroke-opacity:1" d="M 418.403,225.871 422.07,207.534 z" id="boundary" inkscape:connector-curvature="0" />
	<path style="fill:none;stroke:red;stroke-width:1px;stroke-linecap:butt;stroke-linejoin:miter;stroke-opacity:1" d="M 427.571,279.046 445.908,279.046 z" id="boundary" inkscape:connector-curvature="0" />
	<path style="fill:none;stroke:red;stroke-width:1px;stroke-linecap:butt;stroke-linejoin:miter;stroke-opacity:1" d="M 427.571,363.394 444.074,372.562 z" id="boundary" inkscape:connector-curvature="0" />
	<path style="fill:none;stroke:red;stroke-width:1px;stroke-linecap:butt;stroke-linejoin:miter;stroke-opacity:1" d="M 444.074,372.562 462.41,372.562 z" id="boundary" inkscape:connector-curvature="0" />
	<path style="fill:none;stroke:red;stroke-width:1px;stroke-linecap:butt;stroke-linejoin:miter;stroke-opacity:1" d="M 445.908,279.046 464.244,279.046 z" id="boundary" inkscape:connector-curvature="0" />
	<path style="fill:none;stroke:red;stroke-width:1px;stroke-linecap:butt;stroke-linejoin:miter;stroke-opacity:1" d="M 462.41,372.562 478.913,381.73 z" id="boundary" inkscape:connector-curvature="0" />
	<path style="fill:none;stroke:red;stroke-width:1px;stroke-linecap:butt;stroke-linejoin:miter;stroke-opacity:1" d="M 464.244,279.046 482.58,279.046 z" id="boundary" inkscape:connector-curvature="0" />
	<path style="fill:none;stroke:red;stroke-width:1px;stroke-linecap:butt;stroke-linejoin:miter;stroke-opacity:1" d="M 478.913,381.73 495.416,390.898 z" id="boundary" inkscape:connector-curvature="0" />
	<path style="fill:none;stroke:red;stroke-width:1px;stroke-linecap:butt;stroke-linejoin:miter;stroke-opacity:1" d="M 482.58,279.046 497.25,290.048 z" id="boundary" inkscape:connector-curvature="0" />
	<path style="fill:none;stroke:red;stroke-width:1px;stroke-linecap:butt;stroke-linejoin:miter;stroke-opacity:1" d="M 495.416,390.898 513.752,390.898 z" id="boundary" inkscape:connector-curvature="0" />
	<path style="fill:none;stroke:red;stroke-width:1px;stroke-linecap:butt;stroke-linejoin:miter;stroke-opacity:1" d="M 497.25,290.048 513.752,299.216 z" id="boundary" inkscape:connector-curvature="0" />
	<path style="fill:none;stroke:red;stroke-width:1px;stroke-linecap:butt;stroke-linejoin:miter;stroke-opacity:1" d="M 513.752,299.216 532.089,306.551 z" id="boundary" inkscape:connector-curvature="0" />
	<path style="fill:none;stroke:red;stroke-width:1px;stroke-linecap:butt;stroke-linejoin:miter;stroke-opacity:1" d="M 513.752,390.898 532.089,398.233 z" id="boundary" inkscape:connector-curvature="0" />
	<path style="fill:none;stroke:red;stroke-width:1px;stroke-linecap:butt;stroke-linejoin:miter;stroke-opacity:1" d="M 532.089,306.551 548.591,315.719 z" id="boundary" inkscape:connector-curvature="0" />
	<path style="fill:none;stroke:red;stroke-width:1px;stroke-linecap:butt;stroke-linejoin:miter;stroke-opacity:1" d="M 532.089,398.233 550.425,400.067 z" id="boundary" inkscape:connector-curvature="0" />
	<path style="fill:none;stroke:red;stroke-width:1px;stroke-linecap:butt;stroke-linejoin:miter;stroke-opacity:1" d="M 548.591,315.719 565.094,324.887 z" id="boundary" inkscape:connector-curvature="0" />
	<path style="fill:none;stroke:red;stroke-width:1px;stroke-linecap:butt;stroke-linejoin:miter;stroke-opacity:1" d="M 550.425,400.067 565.094,412.902 z" id="boundary" inkscape:connector-curvature="0" />
	<path style="fill:none;stroke:red;stroke-width:1px;stroke-linecap:butt;stroke-linejoin:miter;stroke-opacity:1" d="M 565.094,324.887 581.597,334.055 z" id="boundary" inkscape:connector-curvature="0" />
	<path style="fill:none;stroke:red;stroke-width:1px;stroke-linecap:butt;stroke-linejoin:miter;stroke-opacity:1" d="M 565.094,412.902 583.431,412.902 z" id="boundary" inkscape:connector-curvature="0" />
	<path style="fill:none;stroke:red;stroke-width:1px;stroke-linecap:butt;stroke-linejoin:miter;stroke-opacity:1" d="M 581.597,334.055 598.1,343.224 z" id="boundary" inkscape:connector-curvature="0" />
	<path style="fill:none;stroke:red;stroke-width:1px;stroke-linecap:butt;stroke-linejoin:miter;stroke-opacity:1" d="M 583.431,412.902 599.933,422.07 z" id="boundary" inkscape:connector-curvature="0" />
	<path style="fill:none;stroke:red;stroke-width:1px;stroke-linecap:butt;stroke-linejoin:miter;stroke-opacity:1" d="M 598.1,343.224 614.603,352.392 z" id="boundary" inkscape:connector-curvature="0" />
	<path style="fill:none;stroke:red;stroke-width:1px;stroke-linecap:butt;stroke-linejoin:miter;stroke-opacity:1" d="M 599.933,422.07 618.27,427.571 z" id="boundary" inkscape:connector-curvature="0" />
	<path style="fill:none;stroke:red;stroke-width:1px;stroke-linecap:butt;stroke-linejoin:miter;stroke-opacity:1" d="M 614.603,352.392 631.105,361.56 z" id="boundary" inkscape:connector-curvature="0" />
	<path style="fill:none;stroke:red;stroke-width:1px;stroke-linecap:butt;stroke-linejoin:miter;stroke-opacity:1" d="M 618.27,427.571 636.606,427.571 z" id="boundary" inkscape:connector-curvature="0" />
	<path style="fill:none;stroke:red;stroke-width:1px;stroke-linecap:butt;stroke-linejoin:miter;stroke-opacity:1" d="M 631.105,361.56 647.608,370.728 z" id="boundary" inkscape:connector-curvature="0" />
	<path style="fill:none;stroke:red;stroke-width:1px;stroke-linecap:butt;stroke-linejoin:miter;stroke-opacity:1" d="M 636.606,427.571 653.109,436.739 z" id="boundary" inkscape:connector-curvature="0" />
	<path style="fill:none;stroke:red;stroke-width:1px;stroke-linecap:butt;stroke-linejoin:miter;stroke-opacity:1" d="M 647.608,370.728 665.945,376.229 z" id="boundary" inkscape:connector-curvature="0" />
	<path style="fill:none;stroke:red;stroke-width:1px;stroke-linecap:butt;stroke-linejoin:miter;stroke-opacity:1" d="M 653.109,436.739 669.612,445.908 z" id="boundary" inkscape:connector-curvature="0" />
	<path style="fill:none;stroke:red;stroke-width:1px;stroke-linecap:butt;stroke-linejoin:miter;stroke-opacity:1" d="M 665.945,376.229 684.281,379.896 z" id="boundary" inkscape:connector-curvature="0" />
	<path style="fill:none;stroke:red;stroke-width:1px;stroke-linecap:butt;stroke-linejoin:miter;stroke-opacity:1" d="M 669.612,445.908 687.948,453.242 z" id="boundary" inkscape:connector-curvature="0" />
	<path style="fill:none;stroke:red;stroke-width:1px;stroke-linecap:butt;stroke-linejoin:miter;stroke-opacity:1" d="M 684.281,379.896 702.617,385.397 z" id="boundary" inkscape:connector-curvature="0" />
	<path style="fill:none;stroke:red;stroke-width:1px;stroke-linecap:butt;stroke-linejoin:miter;stroke-opacity:1" d="M 687.948,453.242 706.285,455.076 z" id="boundary" inkscape:connector-curvature="0" />
	<path style="fill:none;stroke:red;stroke-width:1px;stroke-linecap:butt;stroke-linejoin:miter;stroke-opacity:1" d="M 702.617,385.397 719.12,394.566 z" id="boundary" inkscape:connector-curvature="0" />
	<path style="fill:none;stroke:red;stroke-width:1px;stroke-linecap:butt;stroke-linejoin:miter;stroke-opacity:1" d="M 706.285,455.076 724.621,455.076 z" id="boundary" inkscape:connector-curvature="0" />
	<path style="fill:none;stroke:red;stroke-width:1px;stroke-linecap:butt;stroke-linejoin:miter;stroke-opacity:1" d="M 719.12,394.566 737.457,392.732 z" id="boundary" inkscape:connector-curvature="0" />
	<path style="fill:none;stroke:red;stroke-width:1px;stroke-linecap:butt;stroke-linejoin:miter;stroke-opacity:1" d="M 724.621,455.076 742.957,462.41 z" id="boundary" inkscape:connector-curvature="0" />
	<path style="fill:none;stroke:red;stroke-width:1px;stroke-linecap:butt;stroke-linejoin:miter;stroke-opacity:1" d="M 737.457,392.732 753.959,401.9 z" id="boundary" inkscape:connector-curvature="0" />
	<path style="fill:none;stroke:red;stroke-width:1px;stroke-linecap:butt;stroke-linejoin:miter;stroke-opacity:1" d="M 742.957,462.41 761.294,464.244 z" id="boundary" inkscape:connector-curvature="0" />
	<path style="fill:none;stroke:red;stroke-width:1px;stroke-linecap:butt;stroke-linejoin:miter;stroke-opacity:1" d="M 753.959,401.9 772.296,407.401 z" id="boundary" inkscape:connector-curvature="0" />
	<path style="fill:none;stroke:red;stroke-width:1px;stroke-linecap:butt;stroke-linejoin:miter;stroke-opacity:1" d="M 761.294,464.244 777.797,473.412 z" id="boundary" inkscape:connector-curvature="0" />
	<path style="fill:none;stroke:red;stroke-width:1px;stroke-linecap:butt;stroke-linejoin:miter;stroke-opacity:1" d="M 772.296,407.401 790.632,409.235 z" id="boundary" inkscape:connector-curvature="0" />
	<path style="fill:none;stroke:red;stroke-width:1px;stroke-linecap:butt;stroke-linejoin:miter;stroke-opacity:1" d="M 777.797,473.412 796.133,473.412 z" id="boundary" inkscape:connector-curvature="0" />
	<path style="fill:none;stroke:red;stroke-width:1px;stroke-linecap:butt;stroke-linejoin:miter;stroke-opacity:1" d="M 790.632,409.235 807.135,418.403 z" id="boundary" inkscape:connector-curvature="0" />
	<path style="fill:none;stroke:red;stroke-width:1px;stroke-linecap:butt;stroke-linejoin:miter;stroke-opacity:1" d="M 796.133,473.412 812.636,482.58 z" id="boundary" inkscape:connector-curvature="0" />
	<path style="fill:none;stroke:red;stroke-width:1px;stroke-linecap:butt;stroke-linejoin:miter;stroke-opacity:1" d="M 807.135,418.403 825.471,425.738 z" id="boundary" inkscape:connector-curvature="0" />
	<path style="fill:none;stroke:red;stroke-width:1px;stroke-linecap:butt;stroke-linejoin:miter;stroke-opacity:1" d="M 812.636,482.58 830.972,482.58 z" id="boundary" inkscape:connector-curvature="0" />
	<path style="fill:none;stroke:red;stroke-width:1px;stroke-linecap:butt;stroke-linejoin:miter;stroke-opacity:1" d="M 825.471,425.738 843.808,425.738 z" id="boundary" inkscape:connector-curvature="0" />
	<path style="fill:none;stroke:red;stroke-width:1px;stroke-linecap:butt;stroke-linejoin:miter;stroke-opacity:1" d="M 830.972,482.58 849.309,486.248 z" id="boundary" inkscape:connector-curvature="0" />
	<path style="fill:none;stroke:red;stroke-width:1px;stroke-linecap:butt;stroke-linejoin:miter;stroke-opacity:1" d="M 843.808,425.738 860.311,434.906 z" id="boundary" inkscape:connector-curvature="0" />
	<path style="fill:none;stroke:red;stroke-width:1px;stroke-linecap:butt;stroke-linejoin:miter;stroke-opacity:1" d="M 849.309,486.248 867.645,491.749 z" id="boundary" inkscape:connector-curvature="0" />
	<path style="fill:none;stroke:red;stroke-width:1px;stroke-linecap:butt;stroke-linejoin:miter;stroke-opacity:1" d="M 860.311,434.906 878.647,434.906 z" id="boundary" inkscape:connector-curvature="0" />
	<path style="fill:none;stroke:red;stroke-width:1px;stroke-linecap:butt;stroke-linejoin:miter;stroke-opacity:1" d="M 867.645,491.749 884.148,500.917 z" id="boundary" inkscape:connector-curvature="0" />
	<path style="fill:none;stroke:red;stroke-width:1px;stroke-linecap:butt;stroke-linejoin:miter;stroke-opacity:1" d="M 878.647,434.906 896.983,434.906 z" id="boundary" inkscape:connector-curvature="0" />
	<path style="fill:none;stroke:red;stroke-width:1px;stroke-linecap:butt;stroke-linejoin:miter;stroke-opacity:1" d="M 884.148,500.917 902.484,500.917 z" id="boundary" inkscape:connector-curvature="0" />
	<path style="fill:none;stroke:red;stroke-width:1px;stroke-linecap:butt;stroke-linejoin:miter;stroke-opacity:1" d="M 896.983,434.906 913.486,444.074 z" id="boundary" inkscape:connector-curvature="0" />
	<path style="fill:none;stroke:red;stroke-width:1px;stroke-linecap:butt;stroke-linejoin:miter;stroke-opacity:1" d="M 902.484,500.917 918.987,510.085 z" id="boundary" inkscape:connector-curvature="0" />
	<path style="fill:none;stroke:red;stroke-width:1px;stroke-linecap:butt;stroke-linejoin:miter;stroke-opacity:1" d="M 913.486,444.074 931.823,444.074 z" id="boundary" inkscape:connector-curvature="0" />
	<path style="fill:none;stroke:red;stroke-width:1px;stroke-linecap:butt;stroke-linejoin:miter;stroke-opacity:1" d="M 918.987,510.085 937.323,510.085 z" id="boundary" inkscape:connector-curvature="0" />
	<path style="fill:none;stroke:red;stroke-width:1px;stroke-linecap:butt;stroke-linejoin:miter;stroke-opacity:1" d="M 931.823,444.074 950.159,444.074 z" id="boundary" inkscape:connector-curvature="0" />
	<path style="fill:none;stroke:red;stroke-width:1px;stroke-linecap:butt;stroke-linejoin:miter;stroke-opacity:1" d="M 937.323,510.085 953.826,519.253 z" id="boundary" inkscape:connector-curvature="0" />
	<path style="fill:none;stroke:red;stroke-width:1px;stroke-linecap:butt;stroke-linejoin:miter;stroke-opacity:1" d="M 950.159,444.074 966.662,453.242 z" id="boundary" inkscape:connector-curvature="0" />
	<path style="fill:none;stroke:red;stroke-width:1px;stroke-linecap:butt;stroke-linejoin:miter;stroke-opacity:1" d="M 953.826,519.253 972.163,519.253 z" id="boundary" inkscape:connector-curvature="0" />
	<path style="fill:none;stroke:red;stroke-width:1px;stroke-linecap:butt;stroke-linejoin:miter;stroke-opacity:1" d="M 966.662,453.242 984.998,456.909 z" id="boundary" inkscape:connector-curvature="0" />
	<path style="fill:none;stroke:red;stroke-width:1px;stroke-linecap:butt;stroke-linejoin:miter;stroke-opacity:1" d="M 972.163,519.253 990.499,517.42 z" id="boundary" inkscape:connector-curvature="0" />
	<path style="fill:none;stroke:red;stroke-width:1px;stroke-linecap:butt;stroke-linejoin:miter;stroke-opacity:1" d="M 984.998,456.909 996,471.579 z" id="boundary" inkscape:connector-curvature="0" />
	<path style="fill:none;stroke:red;stroke-width:1px;stroke-linecap:butt;stroke-linejoin:miter;stroke-opacity:1" d="M 990.499,517.42 996,491.749 z" id="boundary" inkscape:connector-curvature="0" />
	<path style="fill:none;stroke:red;stroke-width:1px;stroke-linecap:butt;stroke-linejoin:miter;stroke-opacity:1" d="M 996,471.579 996,491.749 z" id="boundary" inkscape:connector-curvature="0" />
	<circle cx="4" cy="495.416" r="4" fill="#0" id="circle0"/>
	<circle cx="13.1682" cy="511.919" r="4" fill="#0" id="circle1"/>
	<circle cx="22.3364" cy="486.248" r="4" fill="#0" id="circle2"/>
	<circle cx="26.0037" cy="526.588" r="4" fill="#0" id="circle3"/>
	<circle cx="31.5046" cy="330.388" r="4" fill="#0" id="circle4"/>
	<circle cx="40.6728" cy="346.891" r="4" fill="#0" id="circle5"/>
	<circle cx="40.6728" cy="477.079" r="4" fill="#0" id="circle6"/>
	<circle cx="44.3401" cy="519.253" r="4" fill="#0" id="circle7"/>
	<circle cx="46.1738" cy="315.719" r="4" fill="#0" id="circle8"/>
	<circle cx="59.0092" cy="354.226" r="4" fill="#0" id="circle9"/>
	<circle cx="59.0092" cy="467.911" r="4" fill="#0" id="circle10"/>
	<circle cx="60.8429" cy="510.085" r="4" fill="#0" id="circle11"/>
	<circle cx="64.5102" cy="306.551" r="4" fill="#0" id="circle12"/>
	<circle cx="70.0111" cy="335.889" r="4" fill="#0" id="circle13"/>
	<circle cx="77.3457" cy="467.911" r="4" fill="#0" id="circle14"/>
	<circle cx="77.3457" cy="500.917" r="4" fill="#0" id="circle15"/>
	<circle cx="79.1793" cy="291.882" r="4" fill="#0" id="circle16"/>
	<circle cx="86.5139" cy="18.6691" r="4" fill="#0" id="circle17"/>
	<circle cx="88.3475" cy="326.721" r="4" fill="#0" id="circle18"/>
	<circle cx="93.8484" cy="279.046" r="4" fill="#0" id="circle19"/>
	<circle cx="95.6821" cy="462.41" r="4" fill="#0" id="circle20"/>
	<circle cx="95.6821" cy="500.917" r="4" fill="#0" id="circle21"/>
	<circle cx="97.5157" cy="33.3383" r="4" fill="#0" id="circle22"/>
	<circle cx="101.183" cy="4" r="4" fill="#0" id="circle23"/>
	<circle cx="103.017" cy="313.885" r="4" fill="#0" id="circle24"/>
	<circle cx="104.85" cy="119.519" r="4" fill="#0" id="circle25"/>
	<circle cx="106.684" cy="264.377" r="4" fill="#0" id="circle26"/>
	<circle cx="112.185" cy="453.242" r="4" fill="#0" id="circle27"/>
	<circle cx="112.185" cy="491.749" r="4" fill="#0" id="circle28"/>
	<circle cx="114.018" cy="42.5065" r="4" fill="#0" id="circle29"/>
	<circle cx="114.018" cy="136.022" r="4" fill="#0" id="circle30"/>
	<circle cx="119.519" cy="4" r="4" fill="#0" id="circle31"/>
	<circle cx="119.519" cy="104.85" r="4" fill="#0" id="circle32"/>
	<circle cx="121.353" cy="308.384" r="4" fill="#0" id="circle33"/>
	<circle cx="123.187" cy="152.525" r="4" fill="#0" id="circle34"/>
	<circle cx="123.187" cy="170.861" r="4" fill="#0" id="circle35"/>
	<circle cx="125.02" cy="266.211" r="4" fill="#0" id="circle36"/>
	<circle cx="128.688" cy="444.074" r="4" fill="#0" id="circle37"/>
	<circle cx="128.688" cy="482.58" r="4" fill="#0" id="circle38"/>
	<circle cx="130.521" cy="51.6747" r="4" fill="#0" id="circle39"/>
	<circle cx="134.189" cy="185.53" r="4" fill="#0" id="circle40"/>
	<circle cx="136.022" cy="13.1682" r="4" fill="#0" id="circle41"/>
	<circle cx="136.022" cy="114.018" r="4" fill="#0" id="circle42"/>
	<circle cx="137.856" cy="317.553" r="4" fill="#0" id="circle43"/>
	<circle cx="141.523" cy="275.379" r="4" fill="#0" id="circle44"/>
	<circle cx="143.357" cy="132.355" r="4" fill="#0" id="circle45"/>
	<circle cx="147.024" cy="60.8429" r="4" fill="#0" id="circle46"/>
	<circle cx="147.024" cy="434.906" r="4" fill="#0" id="circle47"/>
	<circle cx="147.024" cy="480.747" r="4" fill="#0" id="circle48"/>
	<circle cx="148.858" cy="198.366" r="4" fill="#0" id="circle49"/>
	<circle cx="152.525" cy="22.3364" r="4" fill="#0" id="circle50"/>
	<circle cx="152.525" cy="148.858" r="4" fill="#0" id="circle51"/>
	<circle cx="156.192" cy="216.702" r="4" fill="#0" id="circle52"/>
	<circle cx="156.192" cy="324.887" r="4" fill="#0" id="circle53"/>
	<circle cx="159.86" cy="282.713" r="4" fill="#0" id="circle54"/>
	<circle cx="161.693" cy="73.6784" r="4" fill="#0" id="circle55"/>
	<circle cx="161.693" cy="165.36" r="4" fill="#0" id="circle56"/>
	<circle cx="161.693" cy="464.244" r="4" fill="#0" id="circle57"/>
	<circle cx="165.36" cy="434.906" r="4" fill="#0" id="circle58"/>
	<circle cx="167.194" cy="33.3383" r="4" fill="#0" id="circle59"/>
	<circle cx="170.861" cy="297.383" r="4" fill="#0" id="circle60"/>
	<circle cx="170.861" cy="335.889" r="4" fill="#0" id="circle61"/>
	<circle cx="174.529" cy="88.3475" r="4" fill="#0" id="circle62"/>
	<circle cx="174.529" cy="180.03" r="4" fill="#0" id="circle63"/>
	<circle cx="174.529" cy="224.037" r="4" fill="#0" id="circle64"/>
	<circle cx="180.03" cy="48.0074" r="4" fill="#0" id="circle65"/>
	<circle cx="180.03" cy="464.244" r="4" fill="#0" id="circle66"/>
	<circle cx="183.697" cy="425.738" r="4" fill="#0" id="circle67"/>
	<circle cx="187.364" cy="238.706" r="4" fill="#0" id="circle68"/>
	<circle cx="189.198" cy="101.183" r="4" fill="#0" id="circle69"/>
	<circle cx="189.198" cy="192.865" r="4" fill="#0" id="circle70"/>
	<circle cx="189.198" cy="302.884" r="4" fill="#0" id="circle71"/>
	<circle cx="189.198" cy="339.556" r="4" fill="#0" id="circle72"/>
	<circle cx="194.699" cy="60.8429" r="4" fill="#0" id="circle73"/>
	<circle cx="198.366" cy="464.244" r="4" fill="#0" id="circle74"/>
	<circle cx="202.033" cy="251.542" r="4" fill="#0" id="circle75"/>
	<circle cx="202.033" cy="416.569" r="4" fill="#0" id="circle76"/>
	<circle cx="205.701" cy="110.351" r="4" fill="#0" id="circle77"/>
	<circle cx="205.701" cy="202.033" r="4" fill="#0" id="circle78"/>
	<circle cx="207.534" cy="75.512" r="4" fill="#0" id="circle79"/>
	<circle cx="207.534" cy="306.551" r="4" fill="#0" id="circle80"/>
	<circle cx="207.534" cy="345.057" r="4" fill="#0" id="circle81"/>
	<circle cx="214.869" cy="126.854" r="4" fill="#0" id="circle82"/>
	<circle cx="214.869" cy="455.076" r="4" fill="#0" id="circle83"/>
	<circle cx="218.536" cy="260.71" r="4" fill="#0" id="circle84"/>
	<circle cx="220.37" cy="214.869" r="4" fill="#0" id="circle85"/>
	<circle cx="220.37" cy="416.569" r="4" fill="#0" id="circle86"/>
	<circle cx="222.203" cy="86.5139" r="4" fill="#0" id="circle87"/>
	<circle cx="225.871" cy="312.052" r="4" fill="#0" id="circle88"/>
	<circle cx="225.871" cy="345.057" r="4" fill="#0" id="circle89"/>
	<circle cx="231.372" cy="445.908" r="4" fill="#0" id="circle90"/>
	<circle cx="233.205" cy="134.189" r="4" fill="#0" id="circle91"/>
	<circle cx="233.205" cy="229.538" r="4" fill="#0" id="circle92"/>
	<circle cx="235.039" cy="101.183" r="4" fill="#0" id="circle93"/>
	<circle cx="236.872" cy="268.044" r="4" fill="#0" id="circle94"/>
	<circle cx="236.872" cy="407.401" r="4" fill="#0" id="circle95"/>
	<circle cx="242.373" cy="354.226" r="4" fill="#0" id="circle96"/>
	<circle cx="244.207" cy="312.052" r="4" fill="#0" id="circle97"/>
	<circle cx="249.708" cy="143.357" r="4" fill="#0" id="circle98"/>
	<circle cx="249.708" cy="442.24" r="4" fill="#0" id="circle99"/>
	<circle cx="251.542" cy="236.872" r="4" fill="#0" id="circle100"/>
	<circle cx="251.542" cy="280.88" r="4" fill="#0" id="circle101"/>
	<circle cx="253.375" cy="104.85" r="4" fill="#0" id="circle102"/>
	<circle cx="255.209" cy="400.067" r="4" fill="#0" id="circle103"/>
	<circle cx="258.876" cy="345.057" r="4" fill="#0" id="circle104"/>
	<circle cx="262.543" cy="121.353" r="4" fill="#0" id="circle105"/>
	<circle cx="262.543" cy="158.026" r="4" fill="#0" id="circle106"/>
	<circle cx="262.543" cy="312.052" r="4" fill="#0" id="circle107"/>
	<circle cx="268.044" cy="246.041" r="4" fill="#0" id="circle108"/>
	<circle cx="268.044" cy="436.739" r="4" fill="#0" id="circle109"/>
	<circle cx="269.878" cy="280.88" r="4" fill="#0" id="circle110"/>
	<circle cx="273.545" cy="398.233" r="4" fill="#0" id="circle111"/>
	<circle cx="275.379" cy="354.226" r="4" fill="#0" id="circle112"/>
	<circle cx="277.213" cy="170.861" r="4" fill="#0" id="circle113"/>
	<circle cx="280.88" cy="128.688" r="4" fill="#0" id="circle114"/>
	<circle cx="280.88" cy="312.052" r="4" fill="#0" id="circle115"/>
	<circle cx="284.547" cy="427.571" r="4" fill="#0" id="circle116"/>
	<circle cx="286.381" cy="253.375" r="4" fill="#0" id="circle117"/>
	<circle cx="286.381" cy="290.048" r="4" fill="#0" id="circle118"/>
	<circle cx="290.048" cy="389.065" r="4" fill="#0" id="circle119"/>
	<circle cx="291.882" cy="363.394" r="4" fill="#0" id="circle120"/>
	<circle cx="293.715" cy="180.03" r="4" fill="#0" id="circle121"/>
	<circle cx="297.383" cy="137.856" r="4" fill="#0" id="circle122"/>
	<circle cx="297.383" cy="321.22" r="4" fill="#0" id="circle123"/>
	<circle cx="302.884" cy="262.543" r="4" fill="#0" id="circle124"/>
	<circle cx="302.884" cy="434.906" r="4" fill="#0" id="circle125"/>
	<circle cx="308.384" cy="372.562" r="4" fill="#0" id="circle126"/>
	<circle cx="312.052" cy="150.691" r="4" fill="#0" id="circle127"/>
	<circle cx="312.052" cy="187.364" r="4" fill="#0" id="circle128"/>
	<circle cx="312.052" cy="308.384" r="4" fill="#0" id="circle129"/>
	<circle cx="312.052" cy="334.055" r="4" fill="#0" id="circle130"/>
	<circle cx="317.553" cy="389.065" r="4" fill="#0" id="circle131"/>
	<circle cx="321.22" cy="269.878" r="4" fill="#0" id="circle132"/>
	<circle cx="321.22" cy="427.571" r="4" fill="#0" id="circle133"/>
	<circle cx="326.721" cy="372.562" r="4" fill="#0" id="circle134"/>
	<circle cx="328.555" cy="196.532" r="4" fill="#0" id="circle135"/>
	<circle cx="328.555" cy="317.553" r="4" fill="#0" id="circle136"/>
	<circle cx="330.388" cy="150.691" r="4" fill="#0" id="circle137"/>
	<circle cx="337.723" cy="279.046" r="4" fill="#0" id="circle138"/>
	<circle cx="337.723" cy="334.055" r="4" fill="#0" id="circle139"/>
	<circle cx="339.556" cy="427.571" r="4" fill="#0" id="circle140"/>
	<circle cx="343.224" cy="165.36" r="4" fill="#0" id="circle141"/>
	<circle cx="343.224" cy="207.534" r="4" fill="#0" id="circle142"/>
	<circle cx="354.226" cy="288.214" r="4" fill="#0" id="circle143"/>
	<circle cx="357.893" cy="425.738" r="4" fill="#0" id="circle144"/>
	<circle cx="359.726" cy="216.702" r="4" fill="#0" id="circle145"/>
	<circle cx="361.56" cy="172.695" r="4" fill="#0" id="circle146"/>
	<circle cx="363.394" cy="390.898" r="4" fill="#0" id="circle147"/>
	<circle cx="370.728" cy="266.211" r="4" fill="#0" id="circle148"/>
	<circle cx="372.562" cy="187.364" r="4" fill="#0" id="circle149"/>
	<circle cx="372.562" cy="363.394" r="4" fill="#0" id="circle150"/>
	<circle cx="376.229" cy="225.871" r="4" fill="#0" id="circle151"/>
	<circle cx="379.896" cy="244.207" r="4" fill="#0" id="circle152"/>
	<circle cx="389.065" cy="196.532" r="4" fill="#0" id="circle153"/>
	<circle cx="390.898" cy="354.226" r="4" fill="#0" id="circle154"/>
	<circle cx="407.401" cy="196.532" r="4" fill="#0" id="circle155"/>
	<circle cx="409.235" cy="253.375" r="4" fill="#0" id="circle156"/>
	<circle cx="409.235" cy="271.712" r="4" fill="#0" id="circle157"/>
	<circle cx="409.235" cy="357.893" r="4" fill="#0" id="circle158"/>
	<circle cx="418.403" cy="225.871" r="4" fill="#0" id="circle159"/>
	<circle cx="422.07" cy="207.534" r="4" fill="#0" id="circle160"/>
	<circle cx="427.571" cy="279.046" r="4" fill="#0" id="circle161"/>
	<circle cx="427.571" cy="363.394" r="4" fill="#0" id="circle162"/>
	<circle cx="444.074" cy="372.562" r="4" fill="#0" id="circle163"/>
	<circle cx="445.908" cy="279.046" r="4" fill="#0" id="circle164"/>
	<circle cx="462.41" cy="372.562" r="4" fill="#0" id="circle165"/>
	<circle cx="464.244" cy="279.046" r="4" fill="#0" id="circle166"/>
	<circle cx="478.913" cy="381.73" r="4" fill="#0" id="circle167"/>
	<circle cx="482.58" cy="279.046" r="4" fill="#0" id="circle168"/>
	<circle cx="495.416" cy="390.898" r="4" fill="#0" id="circle169"/>
	<circle cx="497.25" cy="290.048" r="4" fill="#0" id="circle170"/>
	<circle cx="513.752" cy="299.216" r="4" fill="#0" id="circle171"/>
	<circle cx="513.752" cy="390.898" r="4" fill="#0" id="circle172"/>
	<circle cx="532.089" cy="306.551" r="4" fill="#0" id="circle173"/>
	<circle cx="532.089" cy="398.233" r="4" fill="#0" id="circle174"/>
	<circle cx="548.591" cy="315.719" r="4" fill="#0" id="circle175"/>
	<circle cx="550.425" cy="400.067" r="4" fill="#0" id="circle176"/>
	<circle cx="565.094" cy="324.887" r="4" fill="#0" id="circle177"/>
	<circle cx="565.094" cy="412.902" r="4" fill="#0" id="circle178"/>
	<circle cx="581.597" cy="334.055" r="4" fill="#0" id="circle179"/>
	<circle cx="583.431" cy="412.902" r="4" fill="#0" id="circle180"/>
	<circle cx="598.1" cy="343.224" r="4" fill="#0" id="circle181"/>
	<circle cx="599.933" cy="422.07" r="4" fill="#0" id="circle182"/>
	<circle cx="614.603" cy="352.392" r="4" fill="#0" id="circle183"/>
	<circle cx="618.27" cy="427.571" r="4" fill="#0" id="circle184"/>
	<circle cx="631.105" cy="361.56" r="4" fill="#0" id="circle185"/>
	<circle cx="636.606" cy="427.571" r="4" fill="#0" id="circle186"/>
	<circle cx="647.608" cy="370.728" r="4" fill="#0" id="circle187"/>
	<circle cx="653.109" cy="436.739" r="4" fill="#0" id="circle188"/>
	<circle cx="665.945" cy="376.229" r="4" fill="#0" id="circle189"/>
	<circle cx="669.612" cy="445.908" r="4" fill="#0" id="circle190"/>
	<circle cx="684.281" cy="379.896" r="4" fill="#0" id="circle191"/>
	<circle cx="687.948" cy="453.242" r="4" fill="#0" id="circle192"/>
	<circle cx="702.617" cy="385.397" r="4" fill="#0" id="circle193"/>
	<circle cx="706.285" cy="455.076" r="4" fill="#0" id="circle194"/>
	<circle cx="719.12" cy="394.566" r="4" fill="#0" id="circle195"/>
	<circle cx="724.621" cy="455.076" r="4" fill="#0" id="circle196"/>
	<circle cx="737.457" cy="392.732" r="4" fill="#0" id="circle197"/>
	<circle cx="742.957" cy="462.41" r="4" fill="#0" id="circle198"/>
	<circle cx="753.959" cy="401.9" r="4" fill="#0" id="circle199"/>
	<circle cx="761.294" cy="464.244" r="4" fill="#0" id="circle200"/>
	<circle cx="772.296" cy="407.401" r="4" fill="#0" id="circle201"/>
	<circle cx="777.797" cy="473.412" r="4" fill="#0" id="circle202"/>
	<circle cx="790.632" cy="409.235" r="4" fill="#0" id="circle203"/>
	<circle cx="796.133" cy="473.412" r="4" fill="#0" id="circle204"/>
	<circle cx="807.135" cy="418.403" r="4" fill="#0" id="circle205"/>
	<circle cx="812.636" cy="482.58" r="4" fill="#0" id="circle206"/>
	<circle cx="825.471" cy="425.738" r="4" fill="#0" id="circle207"/>
	<circle cx="830.972" cy="482.58" r="4" fill="#0" id="circle208"/>
	<circle cx="843.808" cy="425.738" r="4" fill="#0" id="circle209"/>
	<circle cx="849.309" cy="486.248" r="4" fill="#0" id="circle210"/>
	<circle cx="860.311" cy="434.906" r="4" fill="#0" id="circle211"/>
	<circle cx="867.645" cy="491.749" r="4" fill="#0" id="circle212"/>
	<circle cx="878.647" cy="434.906" r="4" fill="#0" id="circle213"/>
	<circle cx="884.148" cy="500.917" r="4" fill="#0" id="circle214"/>
	<circle cx="896.983" cy="434.906" r="4" fill="#0" id="circle215"/>
	<circle cx="902.484" cy="500.917" r="4" fill="#0" id="circle216"/>
	<circle cx="913.486" cy="444.074" r="4" fill="#0" id="circle217"/>
	<circle cx="918.987" cy="510.085" r="4" fill="#0" id="circle218"/>
	<circle cx="931.823" cy="444.074" r="4" fill="#0" id="circle219"/>
	<circle cx="937.323" cy="510.085" r="4" fill="#0" id="circle220"/>
	<circle cx="950.159" cy="444.074" r="4" fill="#0" id="circle221"/>
	<circle cx="953.826" cy="519.253" r="4" fill="#0" id="circle222"/>
	<circle cx="966.662" cy="453.242" r="4" fill="#0" id="circle223"/>
	<circle cx="972.163" cy="519.253" r="4" fill="#0" id="circle224"/>
	<circle cx="984.998" cy="456.909" r="4" fill="#0" id="circle225"/>
	<circle cx="990.499" cy="517.42" r="4" fill="#0" id="circle226"/>
	<circle cx="996" cy="471.579" r="4" fill="#0" id="circle227"/>
	<circle cx="996" cy="491.749" r="4" fill="#0" id="circle228"/>
	</g>
</svg>