<?xml version="1.0" encoding="UTF-8" standalone="no"?>
<!-- Created with CurveBenchmark -->
<svg
	xmlns:dc="http://purl.org/dc/elements/1.1/"
	xmlns:cc="http://creativecommons.org/ns#"
	xmlns:rdf="http://www.w3.org/1999/02/22-rdf-syntax-ns#"
	xmlns:svg="http://www.w3.org/2000/svg"
	xmlns="http://www.w3.org/2000/svg"
	xmlns:sodipodi="http://sodipodi.sourceforge.net/DTD/sodipodi-0.dtd"
	xmlns:inkscape="http://www.inkscape.org/namespaces/inkscape"
	width="1000"
	height="1000"
	id="svg2"
	version="1.1"
	sodipodi:docname="manifold/hnncrust-fgen5dp.png.txt">
<defs
	id="defs4" />
<metadata
	id="metadata7">
	<rdf:RDF>
		<cc:Work
			rdf:about="">
			<dc:format>image/svg+xml</dc:format>
			<dc:type
				rdf:resource="http://purl.org/dc/dcmitype/StillImage" />
			<dc:title></dc:title>
		</cc:Work>
	</rdf:RDF>
</metadata>
<g
	inkscape:label="Layer 1"
	inkscape:groupmode="layer"
	id="layer1">
	<path style="fill:none;stroke:red;stroke-width:1px;stroke-linecap:butt;stroke-linejoin:miter;stroke-opacity:1" d="M 4,120.706 14.0609,138.815 z" id="boundary" inkscape:connector-curvature="0" />
	<path style="fill:none;stroke:red;stroke-width:1px;stroke-linecap:butt;stroke-linejoin:miter;stroke-opacity:1" d="M 4,120.706 20.0974,104.609 z" id="boundary" inkscape:connector-curvature="0" />
	<path style="fill:none;stroke:red;stroke-width:1px;stroke-linecap:butt;stroke-linejoin:miter;stroke-opacity:1" d="M 14.0609,138.815 14.0609,158.937 z" id="boundary" inkscape:connector-curvature="0" />
	<path style="fill:none;stroke:red;stroke-width:1px;stroke-linecap:butt;stroke-linejoin:miter;stroke-opacity:1" d="M 14.0609,158.937 28.146,175.034 z" id="boundary" inkscape:connector-curvature="0" />
	<path style="fill:none;stroke:red;stroke-width:1px;stroke-linecap:butt;stroke-linejoin:miter;stroke-opacity:1" d="M 20.0974,104.609 36.1947,88.5112 z" id="boundary" inkscape:connector-curvature="0" />
	<path style="fill:none;stroke:red;stroke-width:1px;stroke-linecap:butt;stroke-linejoin:miter;stroke-opacity:1" d="M 28.146,175.034 38.2069,156.925 z" id="boundary" inkscape:connector-curvature="0" />
	<path style="fill:none;stroke:red;stroke-width:1px;stroke-linecap:butt;stroke-linejoin:miter;stroke-opacity:1" d="M 36.1947,88.5112 56.3164,84.4868 z" id="boundary" inkscape:connector-curvature="0" />
	<path style="fill:none;stroke:red;stroke-width:1px;stroke-linecap:butt;stroke-linejoin:miter;stroke-opacity:1" d="M 38.2069,156.925 54.3043,140.828 z" id="boundary" inkscape:connector-curvature="0" />
	<path style="fill:none;stroke:red;stroke-width:1px;stroke-linecap:butt;stroke-linejoin:miter;stroke-opacity:1" d="M 54.3043,140.828 74.426,136.803 z" id="boundary" inkscape:connector-curvature="0" />
	<path style="fill:none;stroke:red;stroke-width:1px;stroke-linecap:butt;stroke-linejoin:miter;stroke-opacity:1" d="M 56.3164,84.4868 74.426,74.426 z" id="boundary" inkscape:connector-curvature="0" />
	<path style="fill:none;stroke:red;stroke-width:1px;stroke-linecap:butt;stroke-linejoin:miter;stroke-opacity:1" d="M 74.426,74.426 94.5477,70.4016 z" id="boundary" inkscape:connector-curvature="0" />
	<path style="fill:none;stroke:red;stroke-width:1px;stroke-linecap:butt;stroke-linejoin:miter;stroke-opacity:1" d="M 74.426,136.803 94.5477,136.803 z" id="boundary" inkscape:connector-curvature="0" />
	<path style="fill:none;stroke:red;stroke-width:1px;stroke-linecap:butt;stroke-linejoin:miter;stroke-opacity:1" d="M 94.5477,70.4016 114.669,64.3651 z" id="boundary" inkscape:connector-curvature="0" />
	<path style="fill:none;stroke:red;stroke-width:1px;stroke-linecap:butt;stroke-linejoin:miter;stroke-opacity:1" d="M 94.5477,136.803 112.657,146.864 z" id="boundary" inkscape:connector-curvature="0" />
	<path style="fill:none;stroke:red;stroke-width:1px;stroke-linecap:butt;stroke-linejoin:miter;stroke-opacity:1" d="M 112.657,146.864 124.73,162.961 z" id="boundary" inkscape:connector-curvature="0" />
	<path style="fill:none;stroke:red;stroke-width:1px;stroke-linecap:butt;stroke-linejoin:miter;stroke-opacity:1" d="M 114.669,64.3651 134.791,64.3651 z" id="boundary" inkscape:connector-curvature="0" />
	<path style="fill:none;stroke:red;stroke-width:1px;stroke-linecap:butt;stroke-linejoin:miter;stroke-opacity:1" d="M 114.669,181.071 124.73,162.961 z" id="boundary" inkscape:connector-curvature="0" />
	<path style="fill:none;stroke:red;stroke-width:1px;stroke-linecap:butt;stroke-linejoin:miter;stroke-opacity:1" d="M 114.669,181.071 130.767,195.156 z" id="boundary" inkscape:connector-curvature="0" />
	<path style="fill:none;stroke:red;stroke-width:1px;stroke-linecap:butt;stroke-linejoin:miter;stroke-opacity:1" d="M 124.73,291.74 124.73,311.862 z" id="boundary" inkscape:connector-curvature="0" />
	<path style="fill:none;stroke:red;stroke-width:1px;stroke-linecap:butt;stroke-linejoin:miter;stroke-opacity:1" d="M 124.73,291.74 134.791,261.558 z" id="boundary" inkscape:connector-curvature="0" />
	<path style="fill:none;stroke:red;stroke-width:1px;stroke-linecap:butt;stroke-linejoin:miter;stroke-opacity:1" d="M 124.73,311.862 124.73,331.984 z" id="boundary" inkscape:connector-curvature="0" />
	<path style="fill:none;stroke:red;stroke-width:1px;stroke-linecap:butt;stroke-linejoin:miter;stroke-opacity:1" d="M 124.73,331.984 124.73,352.105 z" id="boundary" inkscape:connector-curvature="0" />
	<path style="fill:none;stroke:red;stroke-width:1px;stroke-linecap:butt;stroke-linejoin:miter;stroke-opacity:1" d="M 124.73,352.105 124.73,382.288 z" id="boundary" inkscape:connector-curvature="0" />
	<path style="fill:none;stroke:red;stroke-width:1px;stroke-linecap:butt;stroke-linejoin:miter;stroke-opacity:1" d="M 124.73,382.288 140.828,396.373 z" id="boundary" inkscape:connector-curvature="0" />
	<path style="fill:none;stroke:red;stroke-width:1px;stroke-linecap:butt;stroke-linejoin:miter;stroke-opacity:1" d="M 124.73,704.235 124.73,724.357 z" id="boundary" inkscape:connector-curvature="0" />
	<path style="fill:none;stroke:red;stroke-width:1px;stroke-linecap:butt;stroke-linejoin:miter;stroke-opacity:1" d="M 124.73,704.235 134.791,684.114 z" id="boundary" inkscape:connector-curvature="0" />
	<path style="fill:none;stroke:red;stroke-width:1px;stroke-linecap:butt;stroke-linejoin:miter;stroke-opacity:1" d="M 124.73,724.357 124.73,744.479 z" id="boundary" inkscape:connector-curvature="0" />
	<path style="fill:none;stroke:red;stroke-width:1px;stroke-linecap:butt;stroke-linejoin:miter;stroke-opacity:1" d="M 124.73,744.479 134.791,762.588 z" id="boundary" inkscape:connector-curvature="0" />
	<path style="fill:none;stroke:red;stroke-width:1px;stroke-linecap:butt;stroke-linejoin:miter;stroke-opacity:1" d="M 130.767,195.156 138.815,215.278 z" id="boundary" inkscape:connector-curvature="0" />
	<path style="fill:none;stroke:red;stroke-width:1px;stroke-linecap:butt;stroke-linejoin:miter;stroke-opacity:1" d="M 134.791,64.3651 154.913,60.3408 z" id="boundary" inkscape:connector-curvature="0" />
	<path style="fill:none;stroke:red;stroke-width:1px;stroke-linecap:butt;stroke-linejoin:miter;stroke-opacity:1" d="M 134.791,241.436 134.791,261.558 z" id="boundary" inkscape:connector-curvature="0" />
	<path style="fill:none;stroke:red;stroke-width:1px;stroke-linecap:butt;stroke-linejoin:miter;stroke-opacity:1" d="M 134.791,241.436 138.815,215.278 z" id="boundary" inkscape:connector-curvature="0" />
	<path style="fill:none;stroke:red;stroke-width:1px;stroke-linecap:butt;stroke-linejoin:miter;stroke-opacity:1" d="M 134.791,663.992 134.791,684.114 z" id="boundary" inkscape:connector-curvature="0" />
	<path style="fill:none;stroke:red;stroke-width:1px;stroke-linecap:butt;stroke-linejoin:miter;stroke-opacity:1" d="M 134.791,663.992 144.852,633.809 z" id="boundary" inkscape:connector-curvature="0" />
	<path style="fill:none;stroke:red;stroke-width:1px;stroke-linecap:butt;stroke-linejoin:miter;stroke-opacity:1" d="M 134.791,762.588 134.791,782.71 z" id="boundary" inkscape:connector-curvature="0" />
	<path style="fill:none;stroke:red;stroke-width:1px;stroke-linecap:butt;stroke-linejoin:miter;stroke-opacity:1" d="M 134.791,782.71 134.791,802.832 z" id="boundary" inkscape:connector-curvature="0" />
	<path style="fill:none;stroke:red;stroke-width:1px;stroke-linecap:butt;stroke-linejoin:miter;stroke-opacity:1" d="M 134.791,802.832 154.913,794.783 z" id="boundary" inkscape:connector-curvature="0" />
	<path style="fill:none;stroke:red;stroke-width:1px;stroke-linecap:butt;stroke-linejoin:miter;stroke-opacity:1" d="M 140.828,396.373 150.888,376.252 z" id="boundary" inkscape:connector-curvature="0" />
	<path style="fill:none;stroke:red;stroke-width:1px;stroke-linecap:butt;stroke-linejoin:miter;stroke-opacity:1" d="M 144.852,633.809 154.913,613.688 z" id="boundary" inkscape:connector-curvature="0" />
	<path style="fill:none;stroke:red;stroke-width:1px;stroke-linecap:butt;stroke-linejoin:miter;stroke-opacity:1" d="M 150.888,376.252 171.01,366.191 z" id="boundary" inkscape:connector-curvature="0" />
	<path style="fill:none;stroke:red;stroke-width:1px;stroke-linecap:butt;stroke-linejoin:miter;stroke-opacity:1" d="M 154.913,60.3408 175.034,54.3043 z" id="boundary" inkscape:connector-curvature="0" />
	<path style="fill:none;stroke:red;stroke-width:1px;stroke-linecap:butt;stroke-linejoin:miter;stroke-opacity:1" d="M 154.913,613.688 164.974,583.505 z" id="boundary" inkscape:connector-curvature="0" />
	<path style="fill:none;stroke:red;stroke-width:1px;stroke-linecap:butt;stroke-linejoin:miter;stroke-opacity:1" d="M 154.913,794.783 166.986,770.637 z" id="boundary" inkscape:connector-curvature="0" />
	<path style="fill:none;stroke:red;stroke-width:1px;stroke-linecap:butt;stroke-linejoin:miter;stroke-opacity:1" d="M 164.974,523.14 175.034,492.957 z" id="boundary" inkscape:connector-curvature="0" />
	<path style="fill:none;stroke:red;stroke-width:1px;stroke-linecap:butt;stroke-linejoin:miter;stroke-opacity:1" d="M 164.974,523.14 175.034,541.249 z" id="boundary" inkscape:connector-curvature="0" />
	<path style="fill:none;stroke:red;stroke-width:1px;stroke-linecap:butt;stroke-linejoin:miter;stroke-opacity:1" d="M 164.974,583.505 175.034,561.371 z" id="boundary" inkscape:connector-curvature="0" />
	<path style="fill:none;stroke:red;stroke-width:1px;stroke-linecap:butt;stroke-linejoin:miter;stroke-opacity:1" d="M 166.986,770.637 183.083,756.552 z" id="boundary" inkscape:connector-curvature="0" />
	<path style="fill:none;stroke:red;stroke-width:1px;stroke-linecap:butt;stroke-linejoin:miter;stroke-opacity:1" d="M 171.01,366.191 181.071,348.081 z" id="boundary" inkscape:connector-curvature="0" />
	<path style="fill:none;stroke:red;stroke-width:1px;stroke-linecap:butt;stroke-linejoin:miter;stroke-opacity:1" d="M 175.034,54.3043 195.156,54.3043 z" id="boundary" inkscape:connector-curvature="0" />
	<path style="fill:none;stroke:red;stroke-width:1px;stroke-linecap:butt;stroke-linejoin:miter;stroke-opacity:1" d="M 175.034,452.714 175.034,472.836 z" id="boundary" inkscape:connector-curvature="0" />
	<path style="fill:none;stroke:red;stroke-width:1px;stroke-linecap:butt;stroke-linejoin:miter;stroke-opacity:1" d="M 175.034,452.714 185.095,422.531 z" id="boundary" inkscape:connector-curvature="0" />
	<path style="fill:none;stroke:red;stroke-width:1px;stroke-linecap:butt;stroke-linejoin:miter;stroke-opacity:1" d="M 175.034,472.836 175.034,492.957 z" id="boundary" inkscape:connector-curvature="0" />
	<path style="fill:none;stroke:red;stroke-width:1px;stroke-linecap:butt;stroke-linejoin:miter;stroke-opacity:1" d="M 175.034,541.249 175.034,561.371 z" id="boundary" inkscape:connector-curvature="0" />
	<path style="fill:none;stroke:red;stroke-width:1px;stroke-linecap:butt;stroke-linejoin:miter;stroke-opacity:1" d="M 181.071,348.081 199.181,338.02 z" id="boundary" inkscape:connector-curvature="0" />
	<path style="fill:none;stroke:red;stroke-width:1px;stroke-linecap:butt;stroke-linejoin:miter;stroke-opacity:1" d="M 183.083,756.552 203.205,746.491 z" id="boundary" inkscape:connector-curvature="0" />
	<path style="fill:none;stroke:red;stroke-width:1px;stroke-linecap:butt;stroke-linejoin:miter;stroke-opacity:1" d="M 185.095,422.531 195.156,402.41 z" id="boundary" inkscape:connector-curvature="0" />
	<path style="fill:none;stroke:red;stroke-width:1px;stroke-linecap:butt;stroke-linejoin:miter;stroke-opacity:1" d="M 195.156,54.3043 215.278,50.2799 z" id="boundary" inkscape:connector-curvature="0" />
	<path style="fill:none;stroke:red;stroke-width:1px;stroke-linecap:butt;stroke-linejoin:miter;stroke-opacity:1" d="M 195.156,382.288 195.156,402.41 z" id="boundary" inkscape:connector-curvature="0" />
	<path style="fill:none;stroke:red;stroke-width:1px;stroke-linecap:butt;stroke-linejoin:miter;stroke-opacity:1" d="M 195.156,382.288 211.254,366.191 z" id="boundary" inkscape:connector-curvature="0" />
	<path style="fill:none;stroke:red;stroke-width:1px;stroke-linecap:butt;stroke-linejoin:miter;stroke-opacity:1" d="M 199.181,338.02 215.278,321.923 z" id="boundary" inkscape:connector-curvature="0" />
	<path style="fill:none;stroke:red;stroke-width:1px;stroke-linecap:butt;stroke-linejoin:miter;stroke-opacity:1" d="M 203.205,746.491 217.29,730.394 z" id="boundary" inkscape:connector-curvature="0" />
	<path style="fill:none;stroke:red;stroke-width:1px;stroke-linecap:butt;stroke-linejoin:miter;stroke-opacity:1" d="M 211.254,366.191 221.314,346.069 z" id="boundary" inkscape:connector-curvature="0" />
	<path style="fill:none;stroke:red;stroke-width:1px;stroke-linecap:butt;stroke-linejoin:miter;stroke-opacity:1" d="M 215.278,50.2799 235.4,40.2191 z" id="boundary" inkscape:connector-curvature="0" />
	<path style="fill:none;stroke:red;stroke-width:1px;stroke-linecap:butt;stroke-linejoin:miter;stroke-opacity:1" d="M 215.278,321.923 235.4,317.899 z" id="boundary" inkscape:connector-curvature="0" />
	<path style="fill:none;stroke:red;stroke-width:1px;stroke-linecap:butt;stroke-linejoin:miter;stroke-opacity:1" d="M 217.29,730.394 235.4,740.454 z" id="boundary" inkscape:connector-curvature="0" />
	<path style="fill:none;stroke:red;stroke-width:1px;stroke-linecap:butt;stroke-linejoin:miter;stroke-opacity:1" d="M 225.339,764.6 235.4,740.454 z" id="boundary" inkscape:connector-curvature="0" />
	<path style="fill:none;stroke:red;stroke-width:1px;stroke-linecap:butt;stroke-linejoin:miter;stroke-opacity:1" d="M 225.339,764.6 235.4,782.71 z" id="boundary" inkscape:connector-curvature="0" />
	<path style="fill:none;stroke:red;stroke-width:1px;stroke-linecap:butt;stroke-linejoin:miter;stroke-opacity:1" d="M 235.4,40.2191 255.521,34.1826 z" id="boundary" inkscape:connector-curvature="0" />
	<path style="fill:none;stroke:red;stroke-width:1px;stroke-linecap:butt;stroke-linejoin:miter;stroke-opacity:1" d="M 235.4,782.71 235.4,802.832 z" id="boundary" inkscape:connector-curvature="0" />
	<path style="fill:none;stroke:red;stroke-width:1px;stroke-linecap:butt;stroke-linejoin:miter;stroke-opacity:1" d="M 235.4,802.832 235.4,835.026 z" id="boundary" inkscape:connector-curvature="0" />
	<path style="fill:none;stroke:red;stroke-width:1px;stroke-linecap:butt;stroke-linejoin:miter;stroke-opacity:1" d="M 235.4,835.026 245.46,853.136 z" id="boundary" inkscape:connector-curvature="0" />
	<path style="fill:none;stroke:red;stroke-width:1px;stroke-linecap:butt;stroke-linejoin:miter;stroke-opacity:1" d="M 245.46,853.136 255.521,871.245 z" id="boundary" inkscape:connector-curvature="0" />
	<path style="fill:none;stroke:red;stroke-width:1px;stroke-linecap:butt;stroke-linejoin:miter;stroke-opacity:1" d="M 255.521,34.1826 273.631,24.1217 z" id="boundary" inkscape:connector-curvature="0" />
	<path style="fill:none;stroke:red;stroke-width:1px;stroke-linecap:butt;stroke-linejoin:miter;stroke-opacity:1" d="M 255.521,871.245 261.558,891.367 z" id="boundary" inkscape:connector-curvature="0" />
	<path style="fill:none;stroke:red;stroke-width:1px;stroke-linecap:butt;stroke-linejoin:miter;stroke-opacity:1" d="M 261.558,891.367 265.582,911.489 z" id="boundary" inkscape:connector-curvature="0" />
	<path style="fill:none;stroke:red;stroke-width:1px;stroke-linecap:butt;stroke-linejoin:miter;stroke-opacity:1" d="M 265.582,911.489 275.643,929.598 z" id="boundary" inkscape:connector-curvature="0" />
	<path style="fill:none;stroke:red;stroke-width:1px;stroke-linecap:butt;stroke-linejoin:miter;stroke-opacity:1" d="M 273.631,24.1217 293.753,24.1217 z" id="boundary" inkscape:connector-curvature="0" />
	<path style="fill:none;stroke:red;stroke-width:1px;stroke-linecap:butt;stroke-linejoin:miter;stroke-opacity:1" d="M 275.643,929.598 287.716,945.696 z" id="boundary" inkscape:connector-curvature="0" />
	<path style="fill:none;stroke:red;stroke-width:1px;stroke-linecap:butt;stroke-linejoin:miter;stroke-opacity:1" d="M 287.716,945.696 301.801,961.793 z" id="boundary" inkscape:connector-curvature="0" />
	<path style="fill:none;stroke:red;stroke-width:1px;stroke-linecap:butt;stroke-linejoin:miter;stroke-opacity:1" d="M 293.753,24.1217 311.862,14.0609 z" id="boundary" inkscape:connector-curvature="0" />
	<path style="fill:none;stroke:red;stroke-width:1px;stroke-linecap:butt;stroke-linejoin:miter;stroke-opacity:1" d="M 301.801,961.793 319.911,971.854 z" id="boundary" inkscape:connector-curvature="0" />
	<path style="fill:none;stroke:red;stroke-width:1px;stroke-linecap:butt;stroke-linejoin:miter;stroke-opacity:1" d="M 311.862,14.0609 331.984,14.0609 z" id="boundary" inkscape:connector-curvature="0" />
	<path style="fill:none;stroke:red;stroke-width:1px;stroke-linecap:butt;stroke-linejoin:miter;stroke-opacity:1" d="M 319.911,971.854 338.02,981.915 z" id="boundary" inkscape:connector-curvature="0" />
	<path style="fill:none;stroke:red;stroke-width:1px;stroke-linecap:butt;stroke-linejoin:miter;stroke-opacity:1" d="M 331.984,14.0609 352.105,4 z" id="boundary" inkscape:connector-curvature="0" />
	<path style="fill:none;stroke:red;stroke-width:1px;stroke-linecap:butt;stroke-linejoin:miter;stroke-opacity:1" d="M 338.02,981.915 358.142,985.939 z" id="boundary" inkscape:connector-curvature="0" />
	<path style="fill:none;stroke:red;stroke-width:1px;stroke-linecap:butt;stroke-linejoin:miter;stroke-opacity:1" d="M 352.105,4 372.227,4 z" id="boundary" inkscape:connector-curvature="0" />
	<path style="fill:none;stroke:red;stroke-width:1px;stroke-linecap:butt;stroke-linejoin:miter;stroke-opacity:1" d="M 358.142,985.939 378.264,991.976 z" id="boundary" inkscape:connector-curvature="0" />
	<path style="fill:none;stroke:red;stroke-width:1px;stroke-linecap:butt;stroke-linejoin:miter;stroke-opacity:1" d="M 372.227,4 392.349,4 z" id="boundary" inkscape:connector-curvature="0" />
	<path style="fill:none;stroke:red;stroke-width:1px;stroke-linecap:butt;stroke-linejoin:miter;stroke-opacity:1" d="M 378.264,991.976 398.385,996 z" id="boundary" inkscape:connector-curvature="0" />
	<path style="fill:none;stroke:red;stroke-width:1px;stroke-linecap:butt;stroke-linejoin:miter;stroke-opacity:1" d="M 392.349,4 412.471,4 z" id="boundary" inkscape:connector-curvature="0" />
	<path style="fill:none;stroke:red;stroke-width:1px;stroke-linecap:butt;stroke-linejoin:miter;stroke-opacity:1" d="M 398.385,996 418.507,991.976 z" id="boundary" inkscape:connector-curvature="0" />
	<path style="fill:none;stroke:red;stroke-width:1px;stroke-linecap:butt;stroke-linejoin:miter;stroke-opacity:1" d="M 412.471,4 432.592,4 z" id="boundary" inkscape:connector-curvature="0" />
	<path style="fill:none;stroke:red;stroke-width:1px;stroke-linecap:butt;stroke-linejoin:miter;stroke-opacity:1" d="M 418.507,991.976 438.629,991.976 z" id="boundary" inkscape:connector-curvature="0" />
	<path style="fill:none;stroke:red;stroke-width:1px;stroke-linecap:butt;stroke-linejoin:miter;stroke-opacity:1" d="M 432.592,4 452.714,4 z" id="boundary" inkscape:connector-curvature="0" />
	<path style="fill:none;stroke:red;stroke-width:1px;stroke-linecap:butt;stroke-linejoin:miter;stroke-opacity:1" d="M 438.629,991.976 458.751,991.976 z" id="boundary" inkscape:connector-curvature="0" />
	<path style="fill:none;stroke:red;stroke-width:1px;stroke-linecap:butt;stroke-linejoin:miter;stroke-opacity:1" d="M 452.714,4 472.836,4 z" id="boundary" inkscape:connector-curvature="0" />
	<path style="fill:none;stroke:red;stroke-width:1px;stroke-linecap:butt;stroke-linejoin:miter;stroke-opacity:1" d="M 458.751,991.976 478.872,981.915 z" id="boundary" inkscape:connector-curvature="0" />
	<path style="fill:none;stroke:red;stroke-width:1px;stroke-linecap:butt;stroke-linejoin:miter;stroke-opacity:1" d="M 472.836,4 492.957,4 z" id="boundary" inkscape:connector-curvature="0" />
	<path style="fill:none;stroke:red;stroke-width:1px;stroke-linecap:butt;stroke-linejoin:miter;stroke-opacity:1" d="M 478.872,981.915 498.994,971.854 z" id="boundary" inkscape:connector-curvature="0" />
	<path style="fill:none;stroke:red;stroke-width:1px;stroke-linecap:butt;stroke-linejoin:miter;stroke-opacity:1" d="M 492.957,4 511.067,14.0609 z" id="boundary" inkscape:connector-curvature="0" />
	<path style="fill:none;stroke:red;stroke-width:1px;stroke-linecap:butt;stroke-linejoin:miter;stroke-opacity:1" d="M 498.994,971.854 519.116,961.793 z" id="boundary" inkscape:connector-curvature="0" />
	<path style="fill:none;stroke:red;stroke-width:1px;stroke-linecap:butt;stroke-linejoin:miter;stroke-opacity:1" d="M 511.067,14.0609 531.189,14.0609 z" id="boundary" inkscape:connector-curvature="0" />
	<path style="fill:none;stroke:red;stroke-width:1px;stroke-linecap:butt;stroke-linejoin:miter;stroke-opacity:1" d="M 519.116,961.793 539.237,951.732 z" id="boundary" inkscape:connector-curvature="0" />
	<path style="fill:none;stroke:red;stroke-width:1px;stroke-linecap:butt;stroke-linejoin:miter;stroke-opacity:1" d="M 531.189,14.0609 549.298,24.1217 z" id="boundary" inkscape:connector-curvature="0" />
	<path style="fill:none;stroke:red;stroke-width:1px;stroke-linecap:butt;stroke-linejoin:miter;stroke-opacity:1" d="M 539.237,951.732 549.298,931.611 z" id="boundary" inkscape:connector-curvature="0" />
	<path style="fill:none;stroke:red;stroke-width:1px;stroke-linecap:butt;stroke-linejoin:miter;stroke-opacity:1" d="M 549.298,24.1217 569.42,30.1582 z" id="boundary" inkscape:connector-curvature="0" />
	<path style="fill:none;stroke:red;stroke-width:1px;stroke-linecap:butt;stroke-linejoin:miter;stroke-opacity:1" d="M 549.298,931.611 559.359,911.489 z" id="boundary" inkscape:connector-curvature="0" />
	<path style="fill:none;stroke:red;stroke-width:1px;stroke-linecap:butt;stroke-linejoin:miter;stroke-opacity:1" d="M 559.359,911.489 569.42,881.306 z" id="boundary" inkscape:connector-curvature="0" />
	<path style="fill:none;stroke:red;stroke-width:1px;stroke-linecap:butt;stroke-linejoin:miter;stroke-opacity:1" d="M 569.42,30.1582 587.529,40.2191 z" id="boundary" inkscape:connector-curvature="0" />
	<path style="fill:none;stroke:red;stroke-width:1px;stroke-linecap:butt;stroke-linejoin:miter;stroke-opacity:1" d="M 569.42,881.306 583.505,861.185 z" id="boundary" inkscape:connector-curvature="0" />
	<path style="fill:none;stroke:red;stroke-width:1px;stroke-linecap:butt;stroke-linejoin:miter;stroke-opacity:1" d="M 579.481,841.063 583.505,861.185 z" id="boundary" inkscape:connector-curvature="0" />
	<path style="fill:none;stroke:red;stroke-width:1px;stroke-linecap:butt;stroke-linejoin:miter;stroke-opacity:1" d="M 579.481,841.063 589.542,810.88 z" id="boundary" inkscape:connector-curvature="0" />
	<path style="fill:none;stroke:red;stroke-width:1px;stroke-linecap:butt;stroke-linejoin:miter;stroke-opacity:1" d="M 587.529,40.2191 607.651,44.2434 z" id="boundary" inkscape:connector-curvature="0" />
	<path style="fill:none;stroke:red;stroke-width:1px;stroke-linecap:butt;stroke-linejoin:miter;stroke-opacity:1" d="M 589.542,780.698 589.542,810.88 z" id="boundary" inkscape:connector-curvature="0" />
	<path style="fill:none;stroke:red;stroke-width:1px;stroke-linecap:butt;stroke-linejoin:miter;stroke-opacity:1" d="M 589.542,780.698 599.602,750.515 z" id="boundary" inkscape:connector-curvature="0" />
	<path style="fill:none;stroke:red;stroke-width:1px;stroke-linecap:butt;stroke-linejoin:miter;stroke-opacity:1" d="M 599.602,317.899 603.627,338.02 z" id="boundary" inkscape:connector-curvature="0" />
	<path style="fill:none;stroke:red;stroke-width:1px;stroke-linecap:butt;stroke-linejoin:miter;stroke-opacity:1" d="M 599.602,317.899 617.712,307.838 z" id="boundary" inkscape:connector-curvature="0" />
	<path style="fill:none;stroke:red;stroke-width:1px;stroke-linecap:butt;stroke-linejoin:miter;stroke-opacity:1" d="M 599.602,720.333 599.602,750.515 z" id="boundary" inkscape:connector-curvature="0" />
	<path style="fill:none;stroke:red;stroke-width:1px;stroke-linecap:butt;stroke-linejoin:miter;stroke-opacity:1" d="M 599.602,720.333 609.663,700.211 z" id="boundary" inkscape:connector-curvature="0" />
	<path style="fill:none;stroke:red;stroke-width:1px;stroke-linecap:butt;stroke-linejoin:miter;stroke-opacity:1" d="M 603.627,338.02 613.688,356.13 z" id="boundary" inkscape:connector-curvature="0" />
	<path style="fill:none;stroke:red;stroke-width:1px;stroke-linecap:butt;stroke-linejoin:miter;stroke-opacity:1" d="M 607.651,44.2434 625.761,54.3043 z" id="boundary" inkscape:connector-curvature="0" />
	<path style="fill:none;stroke:red;stroke-width:1px;stroke-linecap:butt;stroke-linejoin:miter;stroke-opacity:1" d="M 609.663,680.089 609.663,700.211 z" id="boundary" inkscape:connector-curvature="0" />
	<path style="fill:none;stroke:red;stroke-width:1px;stroke-linecap:butt;stroke-linejoin:miter;stroke-opacity:1" d="M 609.663,680.089 619.724,659.968 z" id="boundary" inkscape:connector-curvature="0" />
	<path style="fill:none;stroke:red;stroke-width:1px;stroke-linecap:butt;stroke-linejoin:miter;stroke-opacity:1" d="M 613.688,356.13 627.773,372.227 z" id="boundary" inkscape:connector-curvature="0" />
	<path style="fill:none;stroke:red;stroke-width:1px;stroke-linecap:butt;stroke-linejoin:miter;stroke-opacity:1" d="M 617.712,307.838 633.809,295.765 z" id="boundary" inkscape:connector-curvature="0" />
	<path style="fill:none;stroke:red;stroke-width:1px;stroke-linecap:butt;stroke-linejoin:miter;stroke-opacity:1" d="M 619.724,659.968 629.785,639.846 z" id="boundary" inkscape:connector-curvature="0" />
	<path style="fill:none;stroke:red;stroke-width:1px;stroke-linecap:butt;stroke-linejoin:miter;stroke-opacity:1" d="M 625.761,54.3043 643.87,64.3651 z" id="boundary" inkscape:connector-curvature="0" />
	<path style="fill:none;stroke:red;stroke-width:1px;stroke-linecap:butt;stroke-linejoin:miter;stroke-opacity:1" d="M 627.773,372.227 637.834,390.337 z" id="boundary" inkscape:connector-curvature="0" />
	<path style="fill:none;stroke:red;stroke-width:1px;stroke-linecap:butt;stroke-linejoin:miter;stroke-opacity:1" d="M 629.785,639.846 639.846,609.663 z" id="boundary" inkscape:connector-curvature="0" />
	<path style="fill:none;stroke:red;stroke-width:1px;stroke-linecap:butt;stroke-linejoin:miter;stroke-opacity:1" d="M 633.809,295.765 649.907,277.655 z" id="boundary" inkscape:connector-curvature="0" />
	<path style="fill:none;stroke:red;stroke-width:1px;stroke-linecap:butt;stroke-linejoin:miter;stroke-opacity:1" d="M 637.834,390.337 645.882,410.458 z" id="boundary" inkscape:connector-curvature="0" />
	<path style="fill:none;stroke:red;stroke-width:1px;stroke-linecap:butt;stroke-linejoin:miter;stroke-opacity:1" d="M 639.846,609.663 649.907,579.481 z" id="boundary" inkscape:connector-curvature="0" />
	<path style="fill:none;stroke:red;stroke-width:1px;stroke-linecap:butt;stroke-linejoin:miter;stroke-opacity:1" d="M 643.87,64.3651 661.98,74.426 z" id="boundary" inkscape:connector-curvature="0" />
	<path style="fill:none;stroke:red;stroke-width:1px;stroke-linecap:butt;stroke-linejoin:miter;stroke-opacity:1" d="M 645.882,410.458 649.907,430.58 z" id="boundary" inkscape:connector-curvature="0" />
	<path style="fill:none;stroke:red;stroke-width:1px;stroke-linecap:butt;stroke-linejoin:miter;stroke-opacity:1" d="M 649.907,277.655 670.028,257.533 z" id="boundary" inkscape:connector-curvature="0" />
	<path style="fill:none;stroke:red;stroke-width:1px;stroke-linecap:butt;stroke-linejoin:miter;stroke-opacity:1" d="M 649.907,430.58 649.907,458.751 z" id="boundary" inkscape:connector-curvature="0" />
	<path style="fill:none;stroke:red;stroke-width:1px;stroke-linecap:butt;stroke-linejoin:miter;stroke-opacity:1" d="M 649.907,458.751 659.968,476.86 z" id="boundary" inkscape:connector-curvature="0" />
	<path style="fill:none;stroke:red;stroke-width:1px;stroke-linecap:butt;stroke-linejoin:miter;stroke-opacity:1" d="M 649.907,559.359 649.907,579.481 z" id="boundary" inkscape:connector-curvature="0" />
	<path style="fill:none;stroke:red;stroke-width:1px;stroke-linecap:butt;stroke-linejoin:miter;stroke-opacity:1" d="M 649.907,559.359 659.968,537.225 z" id="boundary" inkscape:connector-curvature="0" />
	<path style="fill:none;stroke:red;stroke-width:1px;stroke-linecap:butt;stroke-linejoin:miter;stroke-opacity:1" d="M 659.968,476.86 659.968,496.982 z" id="boundary" inkscape:connector-curvature="0" />
	<path style="fill:none;stroke:red;stroke-width:1px;stroke-linecap:butt;stroke-linejoin:miter;stroke-opacity:1" d="M 659.968,496.982 659.968,517.103 z" id="boundary" inkscape:connector-curvature="0" />
	<path style="fill:none;stroke:red;stroke-width:1px;stroke-linecap:butt;stroke-linejoin:miter;stroke-opacity:1" d="M 659.968,517.103 659.968,537.225 z" id="boundary" inkscape:connector-curvature="0" />
	<path style="fill:none;stroke:red;stroke-width:1px;stroke-linecap:butt;stroke-linejoin:miter;stroke-opacity:1" d="M 661.98,74.426 678.077,88.5112 z" id="boundary" inkscape:connector-curvature="0" />
	<path style="fill:none;stroke:red;stroke-width:1px;stroke-linecap:butt;stroke-linejoin:miter;stroke-opacity:1" d="M 670.028,257.533 690.15,247.473 z" id="boundary" inkscape:connector-curvature="0" />
	<path style="fill:none;stroke:red;stroke-width:1px;stroke-linecap:butt;stroke-linejoin:miter;stroke-opacity:1" d="M 678.077,88.5112 690.15,104.609 z" id="boundary" inkscape:connector-curvature="0" />
	<path style="fill:none;stroke:red;stroke-width:1px;stroke-linecap:butt;stroke-linejoin:miter;stroke-opacity:1" d="M 690.15,104.609 700.211,122.718 z" id="boundary" inkscape:connector-curvature="0" />
	<path style="fill:none;stroke:red;stroke-width:1px;stroke-linecap:butt;stroke-linejoin:miter;stroke-opacity:1" d="M 690.15,247.473 710.272,247.473 z" id="boundary" inkscape:connector-curvature="0" />
	<path style="fill:none;stroke:red;stroke-width:1px;stroke-linecap:butt;stroke-linejoin:miter;stroke-opacity:1" d="M 700.211,122.718 720.333,130.767 z" id="boundary" inkscape:connector-curvature="0" />
	<path style="fill:none;stroke:red;stroke-width:1px;stroke-linecap:butt;stroke-linejoin:miter;stroke-opacity:1" d="M 710.272,247.473 730.394,247.473 z" id="boundary" inkscape:connector-curvature="0" />
	<path style="fill:none;stroke:red;stroke-width:1px;stroke-linecap:butt;stroke-linejoin:miter;stroke-opacity:1" d="M 720.333,130.767 736.43,144.852 z" id="boundary" inkscape:connector-curvature="0" />
	<path style="fill:none;stroke:red;stroke-width:1px;stroke-linecap:butt;stroke-linejoin:miter;stroke-opacity:1" d="M 730.394,247.473 750.515,247.473 z" id="boundary" inkscape:connector-curvature="0" />
	<path style="fill:none;stroke:red;stroke-width:1px;stroke-linecap:butt;stroke-linejoin:miter;stroke-opacity:1" d="M 736.43,144.852 756.552,146.864 z" id="boundary" inkscape:connector-curvature="0" />
	<path style="fill:none;stroke:red;stroke-width:1px;stroke-linecap:butt;stroke-linejoin:miter;stroke-opacity:1" d="M 750.515,247.473 768.625,257.533 z" id="boundary" inkscape:connector-curvature="0" />
	<path style="fill:none;stroke:red;stroke-width:1px;stroke-linecap:butt;stroke-linejoin:miter;stroke-opacity:1" d="M 756.552,146.864 774.661,156.925 z" id="boundary" inkscape:connector-curvature="0" />
	<path style="fill:none;stroke:red;stroke-width:1px;stroke-linecap:butt;stroke-linejoin:miter;stroke-opacity:1" d="M 768.625,257.533 788.746,257.533 z" id="boundary" inkscape:connector-curvature="0" />
	<path style="fill:none;stroke:red;stroke-width:1px;stroke-linecap:butt;stroke-linejoin:miter;stroke-opacity:1" d="M 774.661,156.925 794.783,164.974 z" id="boundary" inkscape:connector-curvature="0" />
	<path style="fill:none;stroke:red;stroke-width:1px;stroke-linecap:butt;stroke-linejoin:miter;stroke-opacity:1" d="M 788.746,257.533 808.868,257.533 z" id="boundary" inkscape:connector-curvature="0" />
	<path style="fill:none;stroke:red;stroke-width:1px;stroke-linecap:butt;stroke-linejoin:miter;stroke-opacity:1" d="M 794.783,164.974 812.892,175.034 z" id="boundary" inkscape:connector-curvature="0" />
	<path style="fill:none;stroke:red;stroke-width:1px;stroke-linecap:butt;stroke-linejoin:miter;stroke-opacity:1" d="M 808.868,257.533 826.978,267.594 z" id="boundary" inkscape:connector-curvature="0" />
	<path style="fill:none;stroke:red;stroke-width:1px;stroke-linecap:butt;stroke-linejoin:miter;stroke-opacity:1" d="M 812.892,175.034 831.002,185.095 z" id="boundary" inkscape:connector-curvature="0" />
	<path style="fill:none;stroke:red;stroke-width:1px;stroke-linecap:butt;stroke-linejoin:miter;stroke-opacity:1" d="M 826.978,267.594 845.087,277.655 z" id="boundary" inkscape:connector-curvature="0" />
	<path style="fill:none;stroke:red;stroke-width:1px;stroke-linecap:butt;stroke-linejoin:miter;stroke-opacity:1" d="M 831.002,185.095 849.112,195.156 z" id="boundary" inkscape:connector-curvature="0" />
	<path style="fill:none;stroke:red;stroke-width:1px;stroke-linecap:butt;stroke-linejoin:miter;stroke-opacity:1" d="M 845.087,277.655 865.209,277.655 z" id="boundary" inkscape:connector-curvature="0" />
	<path style="fill:none;stroke:red;stroke-width:1px;stroke-linecap:butt;stroke-linejoin:miter;stroke-opacity:1" d="M 849.112,195.156 867.221,205.217 z" id="boundary" inkscape:connector-curvature="0" />
	<path style="fill:none;stroke:red;stroke-width:1px;stroke-linecap:butt;stroke-linejoin:miter;stroke-opacity:1" d="M 865.209,277.655 875.27,295.765 z" id="boundary" inkscape:connector-curvature="0" />
	<path style="fill:none;stroke:red;stroke-width:1px;stroke-linecap:butt;stroke-linejoin:miter;stroke-opacity:1" d="M 867.221,205.217 885.331,215.278 z" id="boundary" inkscape:connector-curvature="0" />
	<path style="fill:none;stroke:red;stroke-width:1px;stroke-linecap:butt;stroke-linejoin:miter;stroke-opacity:1" d="M 875.27,295.765 889.355,311.862 z" id="boundary" inkscape:connector-curvature="0" />
	<path style="fill:none;stroke:red;stroke-width:1px;stroke-linecap:butt;stroke-linejoin:miter;stroke-opacity:1" d="M 885.331,215.278 899.416,231.375 z" id="boundary" inkscape:connector-curvature="0" />
	<path style="fill:none;stroke:red;stroke-width:1px;stroke-linecap:butt;stroke-linejoin:miter;stroke-opacity:1" d="M 889.355,311.862 889.355,331.984 z" id="boundary" inkscape:connector-curvature="0" />
	<path style="fill:none;stroke:red;stroke-width:1px;stroke-linecap:butt;stroke-linejoin:miter;stroke-opacity:1" d="M 899.416,231.375 911.489,247.473 z" id="boundary" inkscape:connector-curvature="0" />
	<path style="fill:none;stroke:red;stroke-width:1px;stroke-linecap:butt;stroke-linejoin:miter;stroke-opacity:1" d="M 909.477,321.923 919.538,301.801 z" id="boundary" inkscape:connector-curvature="0" />
	<path style="fill:none;stroke:red;stroke-width:1px;stroke-linecap:butt;stroke-linejoin:miter;stroke-opacity:1" d="M 911.489,247.473 921.55,265.582 z" id="boundary" inkscape:connector-curvature="0" />
	<path style="fill:none;stroke:red;stroke-width:1px;stroke-linecap:butt;stroke-linejoin:miter;stroke-opacity:1" d="M 919.538,301.801 921.55,265.582 z" id="boundary" inkscape:connector-curvature="0" />
	<circle cx="4" cy="120.706" r="4" fill="#0" id="circle0"/>
	<circle cx="14.0609" cy="138.815" r="4" fill="#0" id="circle1"/>
	<circle cx="14.0609" cy="158.937" r="4" fill="#0" id="circle2"/>
	<circle cx="20.0974" cy="104.609" r="4" fill="#0" id="circle3"/>
	<circle cx="28.146" cy="175.034" r="4" fill="#0" id="circle4"/>
	<circle cx="36.1947" cy="88.5112" r="4" fill="#0" id="circle5"/>
	<circle cx="38.2069" cy="156.925" r="4" fill="#0" id="circle6"/>
	<circle cx="54.3043" cy="140.828" r="4" fill="#0" id="circle7"/>
	<circle cx="56.3164" cy="84.4868" r="4" fill="#0" id="circle8"/>
	<circle cx="74.426" cy="74.426" r="4" fill="#0" id="circle9"/>
	<circle cx="74.426" cy="136.803" r="4" fill="#0" id="circle10"/>
	<circle cx="94.5477" cy="70.4016" r="4" fill="#0" id="circle11"/>
	<circle cx="94.5477" cy="136.803" r="4" fill="#0" id="circle12"/>
	<circle cx="112.657" cy="146.864" r="4" fill="#0" id="circle13"/>
	<circle cx="114.669" cy="64.3651" r="4" fill="#0" id="circle14"/>
	<circle cx="114.669" cy="181.071" r="4" fill="#0" id="circle15"/>
	<circle cx="124.73" cy="162.961" r="4" fill="#0" id="circle16"/>
	<circle cx="124.73" cy="291.74" r="4" fill="#0" id="circle17"/>
	<circle cx="124.73" cy="311.862" r="4" fill="#0" id="circle18"/>
	<circle cx="124.73" cy="331.984" r="4" fill="#0" id="circle19"/>
	<circle cx="124.73" cy="352.105" r="4" fill="#0" id="circle20"/>
	<circle cx="124.73" cy="382.288" r="4" fill="#0" id="circle21"/>
	<circle cx="124.73" cy="704.235" r="4" fill="#0" id="circle22"/>
	<circle cx="124.73" cy="724.357" r="4" fill="#0" id="circle23"/>
	<circle cx="124.73" cy="744.479" r="4" fill="#0" id="circle24"/>
	<circle cx="130.767" cy="195.156" r="4" fill="#0" id="circle25"/>
	<circle cx="134.791" cy="64.3651" r="4" fill="#0" id="circle26"/>
	<circle cx="134.791" cy="241.436" r="4" fill="#0" id="circle27"/>
	<circle cx="134.791" cy="261.558" r="4" fill="#0" id="circle28"/>
	<circle cx="134.791" cy="663.992" r="4" fill="#0" id="circle29"/>
	<circle cx="134.791" cy="684.114" r="4" fill="#0" id="circle30"/>
	<circle cx="134.791" cy="762.588" r="4" fill="#0" id="circle31"/>
	<circle cx="134.791" cy="782.71" r="4" fill="#0" id="circle32"/>
	<circle cx="134.791" cy="802.832" r="4" fill="#0" id="circle33"/>
	<circle cx="138.815" cy="215.278" r="4" fill="#0" id="circle34"/>
	<circle cx="140.828" cy="396.373" r="4" fill="#0" id="circle35"/>
	<circle cx="144.852" cy="633.809" r="4" fill="#0" id="circle36"/>
	<circle cx="150.888" cy="376.252" r="4" fill="#0" id="circle37"/>
	<circle cx="154.913" cy="60.3408" r="4" fill="#0" id="circle38"/>
	<circle cx="154.913" cy="613.688" r="4" fill="#0" id="circle39"/>
	<circle cx="154.913" cy="794.783" r="4" fill="#0" id="circle40"/>
	<circle cx="164.974" cy="523.14" r="4" fill="#0" id="circle41"/>
	<circle cx="164.974" cy="583.505" r="4" fill="#0" id="circle42"/>
	<circle cx="166.986" cy="770.637" r="4" fill="#0" id="circle43"/>
	<circle cx="171.01" cy="366.191" r="4" fill="#0" id="circle44"/>
	<circle cx="175.034" cy="54.3043" r="4" fill="#0" id="circle45"/>
	<circle cx="175.034" cy="452.714" r="4" fill="#0" id="circle46"/>
	<circle cx="175.034" cy="472.836" r="4" fill="#0" id="circle47"/>
	<circle cx="175.034" cy="492.957" r="4" fill="#0" id="circle48"/>
	<circle cx="175.034" cy="541.249" r="4" fill="#0" id="circle49"/>
	<circle cx="175.034" cy="561.371" r="4" fill="#0" id="circle50"/>
	<circle cx="181.071" cy="348.081" r="4" fill="#0" id="circle51"/>
	<circle cx="183.083" cy="756.552" r="4" fill="#0" id="circle52"/>
	<circle cx="185.095" cy="422.531" r="4" fill="#0" id="circle53"/>
	<circle cx="195.156" cy="54.3043" r="4" fill="#0" id="circle54"/>
	<circle cx="195.156" cy="382.288" r="4" fill="#0" id="circle55"/>
	<circle cx="195.156" cy="402.41" r="4" fill="#0" id="circle56"/>
	<circle cx="199.181" cy="338.02" r="4" fill="#0" id="circle57"/>
	<circle cx="203.205" cy="746.491" r="4" fill="#0" id="circle58"/>
	<circle cx="211.254" cy="366.191" r="4" fill="#0" id="circle59"/>
	<circle cx="215.278" cy="50.2799" r="4" fill="#0" id="circle60"/>
	<circle cx="215.278" cy="321.923" r="4" fill="#0" id="circle61"/>
	<circle cx="217.29" cy="730.394" r="4" fill="#0" id="circle62"/>
	<circle cx="221.314" cy="346.069" r="4" fill="#0" id="circle63"/>
	<circle cx="225.339" cy="764.6" r="4" fill="#0" id="circle64"/>
	<circle cx="235.4" cy="40.2191" r="4" fill="#0" id="circle65"/>
	<circle cx="235.4" cy="317.899" r="4" fill="#0" id="circle66"/>
	<circle cx="235.4" cy="740.454" r="4" fill="#0" id="circle67"/>
	<circle cx="235.4" cy="782.71" r="4" fill="#0" id="circle68"/>
	<circle cx="235.4" cy="802.832" r="4" fill="#0" id="circle69"/>
	<circle cx="235.4" cy="835.026" r="4" fill="#0" id="circle70"/>
	<circle cx="245.46" cy="853.136" r="4" fill="#0" id="circle71"/>
	<circle cx="255.521" cy="34.1826" r="4" fill="#0" id="circle72"/>
	<circle cx="255.521" cy="871.245" r="4" fill="#0" id="circle73"/>
	<circle cx="261.558" cy="891.367" r="4" fill="#0" id="circle74"/>
	<circle cx="265.582" cy="911.489" r="4" fill="#0" id="circle75"/>
	<circle cx="273.631" cy="24.1217" r="4" fill="#0" id="circle76"/>
	<circle cx="275.643" cy="929.598" r="4" fill="#0" id="circle77"/>
	<circle cx="287.716" cy="945.696" r="4" fill="#0" id="circle78"/>
	<circle cx="293.753" cy="24.1217" r="4" fill="#0" id="circle79"/>
	<circle cx="301.801" cy="961.793" r="4" fill="#0" id="circle80"/>
	<circle cx="311.862" cy="14.0609" r="4" fill="#0" id="circle81"/>
	<circle cx="319.911" cy="971.854" r="4" fill="#0" id="circle82"/>
	<circle cx="331.984" cy="14.0609" r="4" fill="#0" id="circle83"/>
	<circle cx="338.02" cy="981.915" r="4" fill="#0" id="circle84"/>
	<circle cx="352.105" cy="4" r="4" fill="#0" id="circle85"/>
	<circle cx="358.142" cy="985.939" r="4" fill="#0" id="circle86"/>
	<circle cx="372.227" cy="4" r="4" fill="#0" id="circle87"/>
	<circle cx="378.264" cy="991.976" r="4" fill="#0" id="circle88"/>
	<circle cx="392.349" cy="4" r="4" fill="#0" id="circle89"/>
	<circle cx="398.385" cy="996" r="4" fill="#0" id="circle90"/>
	<circle cx="412.471" cy="4" r="4" fill="#0" id="circle91"/>
	<circle cx="418.507" cy="991.976" r="4" fill="#0" id="circle92"/>
	<circle cx="432.592" cy="4" r="4" fill="#0" id="circle93"/>
	<circle cx="438.629" cy="991.976" r="4" fill="#0" id="circle94"/>
	<circle cx="452.714" cy="4" r="4" fill="#0" id="circle95"/>
	<circle cx="458.751" cy="991.976" r="4" fill="#0" id="circle96"/>
	<circle cx="472.836" cy="4" r="4" fill="#0" id="circle97"/>
	<circle cx="478.872" cy="981.915" r="4" fill="#0" id="circle98"/>
	<circle cx="492.957" cy="4" r="4" fill="#0" id="circle99"/>
	<circle cx="498.994" cy="971.854" r="4" fill="#0" id="circle100"/>
	<circle cx="511.067" cy="14.0609" r="4" fill="#0" id="circle101"/>
	<circle cx="519.116" cy="961.793" r="4" fill="#0" id="circle102"/>
	<circle cx="531.189" cy="14.0609" r="4" fill="#0" id="circle103"/>
	<circle cx="539.237" cy="951.732" r="4" fill="#0" id="circle104"/>
	<circle cx="549.298" cy="24.1217" r="4" fill="#0" id="circle105"/>
	<circle cx="549.298" cy="931.611" r="4" fill="#0" id="circle106"/>
	<circle cx="559.359" cy="911.489" r="4" fill="#0" id="circle107"/>
	<circle cx="569.42" cy="30.1582" r="4" fill="#0" id="circle108"/>
	<circle cx="569.42" cy="881.306" r="4" fill="#0" id="circle109"/>
	<circle cx="579.481" cy="841.063" r="4" fill="#0" id="circle110"/>
	<circle cx="583.505" cy="861.185" r="4" fill="#0" id="circle111"/>
	<circle cx="587.529" cy="40.2191" r="4" fill="#0" id="circle112"/>
	<circle cx="589.542" cy="780.698" r="4" fill="#0" id="circle113"/>
	<circle cx="589.542" cy="810.88" r="4" fill="#0" id="circle114"/>
	<circle cx="599.602" cy="317.899" r="4" fill="#0" id="circle115"/>
	<circle cx="599.602" cy="720.333" r="4" fill="#0" id="circle116"/>
	<circle cx="599.602" cy="750.515" r="4" fill="#0" id="circle117"/>
	<circle cx="603.627" cy="338.02" r="4" fill="#0" id="circle118"/>
	<circle cx="607.651" cy="44.2434" r="4" fill="#0" id="circle119"/>
	<circle cx="609.663" cy="680.089" r="4" fill="#0" id="circle120"/>
	<circle cx="609.663" cy="700.211" r="4" fill="#0" id="circle121"/>
	<circle cx="613.688" cy="356.13" r="4" fill="#0" id="circle122"/>
	<circle cx="617.712" cy="307.838" r="4" fill="#0" id="circle123"/>
	<circle cx="619.724" cy="659.968" r="4" fill="#0" id="circle124"/>
	<circle cx="625.761" cy="54.3043" r="4" fill="#0" id="circle125"/>
	<circle cx="627.773" cy="372.227" r="4" fill="#0" id="circle126"/>
	<circle cx="629.785" cy="639.846" r="4" fill="#0" id="circle127"/>
	<circle cx="633.809" cy="295.765" r="4" fill="#0" id="circle128"/>
	<circle cx="637.834" cy="390.337" r="4" fill="#0" id="circle129"/>
	<circle cx="639.846" cy="609.663" r="4" fill="#0" id="circle130"/>
	<circle cx="643.87" cy="64.3651" r="4" fill="#0" id="circle131"/>
	<circle cx="645.882" cy="410.458" r="4" fill="#0" id="circle132"/>
	<circle cx="649.907" cy="277.655" r="4" fill="#0" id="circle133"/>
	<circle cx="649.907" cy="430.58" r="4" fill="#0" id="circle134"/>
	<circle cx="649.907" cy="458.751" r="4" fill="#0" id="circle135"/>
	<circle cx="649.907" cy="559.359" r="4" fill="#0" id="circle136"/>
	<circle cx="649.907" cy="579.481" r="4" fill="#0" id="circle137"/>
	<circle cx="659.968" cy="476.86" r="4" fill="#0" id="circle138"/>
	<circle cx="659.968" cy="496.982" r="4" fill="#0" id="circle139"/>
	<circle cx="659.968" cy="517.103" r="4" fill="#0" id="circle140"/>
	<circle cx="659.968" cy="537.225" r="4" fill="#0" id="circle141"/>
	<circle cx="661.98" cy="74.426" r="4" fill="#0" id="circle142"/>
	<circle cx="670.028" cy="257.533" r="4" fill="#0" id="circle143"/>
	<circle cx="678.077" cy="88.5112" r="4" fill="#0" id="circle144"/>
	<circle cx="690.15" cy="104.609" r="4" fill="#0" id="circle145"/>
	<circle cx="690.15" cy="247.473" r="4" fill="#0" id="circle146"/>
	<circle cx="700.211" cy="122.718" r="4" fill="#0" id="circle147"/>
	<circle cx="710.272" cy="247.473" r="4" fill="#0" id="circle148"/>
	<circle cx="720.333" cy="130.767" r="4" fill="#0" id="circle149"/>
	<circle cx="730.394" cy="247.473" r="4" fill="#0" id="circle150"/>
	<circle cx="736.43" cy="144.852" r="4" fill="#0" id="circle151"/>
	<circle cx="750.515" cy="247.473" r="4" fill="#0" id="circle152"/>
	<circle cx="756.552" cy="146.864" r="4" fill="#0" id="circle153"/>
	<circle cx="768.625" cy="257.533" r="4" fill="#0" id="circle154"/>
	<circle cx="774.661" cy="156.925" r="4" fill="#0" id="circle155"/>
	<circle cx="788.746" cy="257.533" r="4" fill="#0" id="circle156"/>
	<circle cx="794.783" cy="164.974" r="4" fill="#0" id="circle157"/>
	<circle cx="808.868" cy="257.533" r="4" fill="#0" id="circle158"/>
	<circle cx="812.892" cy="175.034" r="4" fill="#0" id="circle159"/>
	<circle cx="826.978" cy="267.594" r="4" fill="#0" id="circle160"/>
	<circle cx="831.002" cy="185.095" r="4" fill="#0" id="circle161"/>
	<circle cx="845.087" cy="277.655" r="4" fill="#0" id="circle162"/>
	<circle cx="849.112" cy="195.156" r="4" fill="#0" id="circle163"/>
	<circle cx="865.209" cy="277.655" r="4" fill="#0" id="circle164"/>
	<circle cx="867.221" cy="205.217" r="4" fill="#0" id="circle165"/>
	<circle cx="875.27" cy="295.765" r="4" fill="#0" id="circle166"/>
	<circle cx="885.331" cy="215.278" r="4" fill="#0" id="circle167"/>
	<circle cx="889.355" cy="311.862" r="4" fill="#0" id="circle168"/>
	<circle cx="889.355" cy="331.984" r="4" fill="#0" id="circle169"/>
	<circle cx="899.416" cy="231.375" r="4" fill="#0" id="circle170"/>
	<circle cx="909.477" cy="321.923" r="4" fill="#0" id="circle171"/>
	<circle cx="911.489" cy="247.473" r="4" fill="#0" id="circle172"/>
	<circle cx="919.538" cy="301.801" r="4" fill="#0" id="circle173"/>
	<circle cx="921.55" cy="265.582" r="4" fill="#0" id="circle174"/>
	</g>
</svg>