<?xml version="1.0" encoding="UTF-8" standalone="no"?>
<!-- Created with CurveBenchmark -->
<svg
	xmlns:dc="http://purl.org/dc/elements/1.1/"
	xmlns:cc="http://creativecommons.org/ns#"
	xmlns:rdf="http://www.w3.org/1999/02/22-rdf-syntax-ns#"
	xmlns:svg="http://www.w3.org/2000/svg"
	xmlns="http://www.w3.org/2000/svg"
	xmlns:sodipodi="http://sodipodi.sourceforge.net/DTD/sodipodi-0.dtd"
	xmlns:inkscape="http://www.inkscape.org/namespaces/inkscape"
	width="1000"
	height="1000"
	id="svg2"
	version="1.1"
	sodipodi:docname="manifold/hnncrust-chopper-03.png.txt">
<defs
	id="defs4" />
<metadata
	id="metadata7">
	<rdf:RDF>
		<cc:Work
			rdf:about="">
			<dc:format>image/svg+xml</dc:format>
			<dc:type
				rdf:resource="http://purl.org/dc/dcmitype/StillImage" />
			<dc:title></dc:title>
		</cc:Work>
	</rdf:RDF>
</metadata>
<g
	inkscape:label="Layer 1"
	inkscape:groupmode="layer"
	id="layer1">
	<path style="fill:none;stroke:red;stroke-width:1px;stroke-linecap:butt;stroke-linejoin:miter;stroke-opacity:1" d="M 4,667.742 4,678.065 z" id="boundary" inkscape:connector-curvature="0" />
	<path style="fill:none;stroke:red;stroke-width:1px;stroke-linecap:butt;stroke-linejoin:miter;stroke-opacity:1" d="M 4,667.742 9.16129,657.419 z" id="boundary" inkscape:connector-curvature="0" />
	<path style="fill:none;stroke:red;stroke-width:1px;stroke-linecap:butt;stroke-linejoin:miter;stroke-opacity:1" d="M 4,678.065 4,688.387 z" id="boundary" inkscape:connector-curvature="0" />
	<path style="fill:none;stroke:red;stroke-width:1px;stroke-linecap:butt;stroke-linejoin:miter;stroke-opacity:1" d="M 4,688.387 4,698.71 z" id="boundary" inkscape:connector-curvature="0" />
	<path style="fill:none;stroke:red;stroke-width:1px;stroke-linecap:butt;stroke-linejoin:miter;stroke-opacity:1" d="M 4,698.71 9.16129,708 z" id="boundary" inkscape:connector-curvature="0" />
	<path style="fill:none;stroke:red;stroke-width:1px;stroke-linecap:butt;stroke-linejoin:miter;stroke-opacity:1" d="M 9.16129,657.419 19.4839,652.258 z" id="boundary" inkscape:connector-curvature="0" />
	<path style="fill:none;stroke:red;stroke-width:1px;stroke-linecap:butt;stroke-linejoin:miter;stroke-opacity:1" d="M 9.16129,708 16.3871,716.258 z" id="boundary" inkscape:connector-curvature="0" />
	<path style="fill:none;stroke:red;stroke-width:1px;stroke-linecap:butt;stroke-linejoin:miter;stroke-opacity:1" d="M 16.3871,716.258 26.7097,717.29 z" id="boundary" inkscape:connector-curvature="0" />
	<path style="fill:none;stroke:red;stroke-width:1px;stroke-linecap:butt;stroke-linejoin:miter;stroke-opacity:1" d="M 19.4839,652.258 29.8065,647.097 z" id="boundary" inkscape:connector-curvature="0" />
	<path style="fill:none;stroke:red;stroke-width:1px;stroke-linecap:butt;stroke-linejoin:miter;stroke-opacity:1" d="M 26.7097,717.29 36,712.129 z" id="boundary" inkscape:connector-curvature="0" />
	<path style="fill:none;stroke:red;stroke-width:1px;stroke-linecap:butt;stroke-linejoin:miter;stroke-opacity:1" d="M 29.8065,440.645 29.8065,450.968 z" id="boundary" inkscape:connector-curvature="0" />
	<path style="fill:none;stroke:red;stroke-width:1px;stroke-linecap:butt;stroke-linejoin:miter;stroke-opacity:1" d="M 29.8065,440.645 34.9677,430.323 z" id="boundary" inkscape:connector-curvature="0" />
	<path style="fill:none;stroke:red;stroke-width:1px;stroke-linecap:butt;stroke-linejoin:miter;stroke-opacity:1" d="M 29.8065,450.968 29.8065,461.29 z" id="boundary" inkscape:connector-curvature="0" />
	<path style="fill:none;stroke:red;stroke-width:1px;stroke-linecap:butt;stroke-linejoin:miter;stroke-opacity:1" d="M 29.8065,461.29 29.8065,471.613 z" id="boundary" inkscape:connector-curvature="0" />
	<path style="fill:none;stroke:red;stroke-width:1px;stroke-linecap:butt;stroke-linejoin:miter;stroke-opacity:1" d="M 29.8065,471.613 29.8065,481.935 z" id="boundary" inkscape:connector-curvature="0" />
	<path style="fill:none;stroke:red;stroke-width:1px;stroke-linecap:butt;stroke-linejoin:miter;stroke-opacity:1" d="M 29.8065,481.935 29.8065,492.258 z" id="boundary" inkscape:connector-curvature="0" />
	<path style="fill:none;stroke:red;stroke-width:1px;stroke-linecap:butt;stroke-linejoin:miter;stroke-opacity:1" d="M 29.8065,492.258 29.8065,502.581 z" id="boundary" inkscape:connector-curvature="0" />
	<path style="fill:none;stroke:red;stroke-width:1px;stroke-linecap:butt;stroke-linejoin:miter;stroke-opacity:1" d="M 29.8065,502.581 29.8065,512.903 z" id="boundary" inkscape:connector-curvature="0" />
	<path style="fill:none;stroke:red;stroke-width:1px;stroke-linecap:butt;stroke-linejoin:miter;stroke-opacity:1" d="M 29.8065,512.903 29.8065,523.226 z" id="boundary" inkscape:connector-curvature="0" />
	<path style="fill:none;stroke:red;stroke-width:1px;stroke-linecap:butt;stroke-linejoin:miter;stroke-opacity:1" d="M 29.8065,523.226 29.8065,533.548 z" id="boundary" inkscape:connector-curvature="0" />
	<path style="fill:none;stroke:red;stroke-width:1px;stroke-linecap:butt;stroke-linejoin:miter;stroke-opacity:1" d="M 29.8065,533.548 29.8065,543.871 z" id="boundary" inkscape:connector-curvature="0" />
	<path style="fill:none;stroke:red;stroke-width:1px;stroke-linecap:butt;stroke-linejoin:miter;stroke-opacity:1" d="M 29.8065,543.871 34.9677,553.161 z" id="boundary" inkscape:connector-curvature="0" />
	<path style="fill:none;stroke:red;stroke-width:1px;stroke-linecap:butt;stroke-linejoin:miter;stroke-opacity:1" d="M 29.8065,647.097 40.129,644 z" id="boundary" inkscape:connector-curvature="0" />
	<path style="fill:none;stroke:red;stroke-width:1px;stroke-linecap:butt;stroke-linejoin:miter;stroke-opacity:1" d="M 34.9677,409.677 34.9677,420 z" id="boundary" inkscape:connector-curvature="0" />
	<path style="fill:none;stroke:red;stroke-width:1px;stroke-linecap:butt;stroke-linejoin:miter;stroke-opacity:1" d="M 34.9677,409.677 40.129,399.355 z" id="boundary" inkscape:connector-curvature="0" />
	<path style="fill:none;stroke:red;stroke-width:1px;stroke-linecap:butt;stroke-linejoin:miter;stroke-opacity:1" d="M 34.9677,420 34.9677,430.323 z" id="boundary" inkscape:connector-curvature="0" />
	<path style="fill:none;stroke:red;stroke-width:1px;stroke-linecap:butt;stroke-linejoin:miter;stroke-opacity:1" d="M 34.9677,553.161 34.9677,563.484 z" id="boundary" inkscape:connector-curvature="0" />
	<path style="fill:none;stroke:red;stroke-width:1px;stroke-linecap:butt;stroke-linejoin:miter;stroke-opacity:1" d="M 34.9677,563.484 40.129,572.774 z" id="boundary" inkscape:connector-curvature="0" />
	<path style="fill:none;stroke:red;stroke-width:1px;stroke-linecap:butt;stroke-linejoin:miter;stroke-opacity:1" d="M 36,712.129 46.3226,706.968 z" id="boundary" inkscape:connector-curvature="0" />
	<path style="fill:none;stroke:red;stroke-width:1px;stroke-linecap:butt;stroke-linejoin:miter;stroke-opacity:1" d="M 40.129,389.032 40.129,399.355 z" id="boundary" inkscape:connector-curvature="0" />
	<path style="fill:none;stroke:red;stroke-width:1px;stroke-linecap:butt;stroke-linejoin:miter;stroke-opacity:1" d="M 40.129,389.032 45.2903,373.548 z" id="boundary" inkscape:connector-curvature="0" />
	<path style="fill:none;stroke:red;stroke-width:1px;stroke-linecap:butt;stroke-linejoin:miter;stroke-opacity:1" d="M 40.129,572.774 46.3226,581.032 z" id="boundary" inkscape:connector-curvature="0" />
	<path style="fill:none;stroke:red;stroke-width:1px;stroke-linecap:butt;stroke-linejoin:miter;stroke-opacity:1" d="M 40.129,644 50.4516,641.935 z" id="boundary" inkscape:connector-curvature="0" />
	<path style="fill:none;stroke:red;stroke-width:1px;stroke-linecap:butt;stroke-linejoin:miter;stroke-opacity:1" d="M 45.2903,373.548 50.4516,363.226 z" id="boundary" inkscape:connector-curvature="0" />
	<path style="fill:none;stroke:red;stroke-width:1px;stroke-linecap:butt;stroke-linejoin:miter;stroke-opacity:1" d="M 46.3226,581.032 56.6452,585.161 z" id="boundary" inkscape:connector-curvature="0" />
	<path style="fill:none;stroke:red;stroke-width:1px;stroke-linecap:butt;stroke-linejoin:miter;stroke-opacity:1" d="M 46.3226,706.968 56.6452,701.806 z" id="boundary" inkscape:connector-curvature="0" />
	<path style="fill:none;stroke:red;stroke-width:1px;stroke-linecap:butt;stroke-linejoin:miter;stroke-opacity:1" d="M 50.4516,352.903 50.4516,363.226 z" id="boundary" inkscape:connector-curvature="0" />
	<path style="fill:none;stroke:red;stroke-width:1px;stroke-linecap:butt;stroke-linejoin:miter;stroke-opacity:1" d="M 50.4516,352.903 55.6129,342.581 z" id="boundary" inkscape:connector-curvature="0" />
	<path style="fill:none;stroke:red;stroke-width:1px;stroke-linecap:butt;stroke-linejoin:miter;stroke-opacity:1" d="M 50.4516,641.935 60.7742,640.903 z" id="boundary" inkscape:connector-curvature="0" />
	<path style="fill:none;stroke:red;stroke-width:1px;stroke-linecap:butt;stroke-linejoin:miter;stroke-opacity:1" d="M 55.6129,321.935 55.6129,332.258 z" id="boundary" inkscape:connector-curvature="0" />
	<path style="fill:none;stroke:red;stroke-width:1px;stroke-linecap:butt;stroke-linejoin:miter;stroke-opacity:1" d="M 55.6129,321.935 60.7742,311.613 z" id="boundary" inkscape:connector-curvature="0" />
	<path style="fill:none;stroke:red;stroke-width:1px;stroke-linecap:butt;stroke-linejoin:miter;stroke-opacity:1" d="M 55.6129,332.258 55.6129,342.581 z" id="boundary" inkscape:connector-curvature="0" />
	<path style="fill:none;stroke:red;stroke-width:1px;stroke-linecap:butt;stroke-linejoin:miter;stroke-opacity:1" d="M 56.6452,585.161 66.9677,588.258 z" id="boundary" inkscape:connector-curvature="0" />
	<path style="fill:none;stroke:red;stroke-width:1px;stroke-linecap:butt;stroke-linejoin:miter;stroke-opacity:1" d="M 56.6452,701.806 66.9677,701.806 z" id="boundary" inkscape:connector-curvature="0" />
	<path style="fill:none;stroke:red;stroke-width:1px;stroke-linecap:butt;stroke-linejoin:miter;stroke-opacity:1" d="M 60.7742,311.613 65.9355,301.29 z" id="boundary" inkscape:connector-curvature="0" />
	<path style="fill:none;stroke:red;stroke-width:1px;stroke-linecap:butt;stroke-linejoin:miter;stroke-opacity:1" d="M 60.7742,640.903 66.9677,649.161 z" id="boundary" inkscape:connector-curvature="0" />
	<path style="fill:none;stroke:red;stroke-width:1px;stroke-linecap:butt;stroke-linejoin:miter;stroke-opacity:1" d="M 65.9355,301.29 71.0968,290.968 z" id="boundary" inkscape:connector-curvature="0" />
	<path style="fill:none;stroke:red;stroke-width:1px;stroke-linecap:butt;stroke-linejoin:miter;stroke-opacity:1" d="M 66.9677,588.258 77.2903,588.258 z" id="boundary" inkscape:connector-curvature="0" />
	<path style="fill:none;stroke:red;stroke-width:1px;stroke-linecap:butt;stroke-linejoin:miter;stroke-opacity:1" d="M 66.9677,649.161 72.129,658.452 z" id="boundary" inkscape:connector-curvature="0" />
	<path style="fill:none;stroke:red;stroke-width:1px;stroke-linecap:butt;stroke-linejoin:miter;stroke-opacity:1" d="M 66.9677,701.806 77.2903,696.645 z" id="boundary" inkscape:connector-curvature="0" />
	<path style="fill:none;stroke:red;stroke-width:1px;stroke-linecap:butt;stroke-linejoin:miter;stroke-opacity:1" d="M 71.0968,290.968 79.3548,282.71 z" id="boundary" inkscape:connector-curvature="0" />
	<path style="fill:none;stroke:red;stroke-width:1px;stroke-linecap:butt;stroke-linejoin:miter;stroke-opacity:1" d="M 72.129,658.452 72.129,668.774 z" id="boundary" inkscape:connector-curvature="0" />
	<path style="fill:none;stroke:red;stroke-width:1px;stroke-linecap:butt;stroke-linejoin:miter;stroke-opacity:1" d="M 72.129,668.774 82.4516,669.806 z" id="boundary" inkscape:connector-curvature="0" />
	<path style="fill:none;stroke:red;stroke-width:1px;stroke-linecap:butt;stroke-linejoin:miter;stroke-opacity:1" d="M 77.2903,588.258 87.6129,588.258 z" id="boundary" inkscape:connector-curvature="0" />
	<path style="fill:none;stroke:red;stroke-width:1px;stroke-linecap:butt;stroke-linejoin:miter;stroke-opacity:1" d="M 77.2903,696.645 87.6129,696.645 z" id="boundary" inkscape:connector-curvature="0" />
	<path style="fill:none;stroke:red;stroke-width:1px;stroke-linecap:butt;stroke-linejoin:miter;stroke-opacity:1" d="M 79.3548,282.71 84.5161,272.387 z" id="boundary" inkscape:connector-curvature="0" />
	<path style="fill:none;stroke:red;stroke-width:1px;stroke-linecap:butt;stroke-linejoin:miter;stroke-opacity:1" d="M 82.4516,669.806 92.7742,669.806 z" id="boundary" inkscape:connector-curvature="0" />
	<path style="fill:none;stroke:red;stroke-width:1px;stroke-linecap:butt;stroke-linejoin:miter;stroke-opacity:1" d="M 84.5161,272.387 92.7742,264.129 z" id="boundary" inkscape:connector-curvature="0" />
	<path style="fill:none;stroke:red;stroke-width:1px;stroke-linecap:butt;stroke-linejoin:miter;stroke-opacity:1" d="M 87.6129,588.258 97.9355,588.258 z" id="boundary" inkscape:connector-curvature="0" />
	<path style="fill:none;stroke:red;stroke-width:1px;stroke-linecap:butt;stroke-linejoin:miter;stroke-opacity:1" d="M 87.6129,696.645 97.9355,691.484 z" id="boundary" inkscape:connector-curvature="0" />
	<path style="fill:none;stroke:red;stroke-width:1px;stroke-linecap:butt;stroke-linejoin:miter;stroke-opacity:1" d="M 92.7742,264.129 101.032,256.903 z" id="boundary" inkscape:connector-curvature="0" />
	<path style="fill:none;stroke:red;stroke-width:1px;stroke-linecap:butt;stroke-linejoin:miter;stroke-opacity:1" d="M 92.7742,669.806 103.097,666.71 z" id="boundary" inkscape:connector-curvature="0" />
	<path style="fill:none;stroke:red;stroke-width:1px;stroke-linecap:butt;stroke-linejoin:miter;stroke-opacity:1" d="M 97.9355,588.258 108.258,588.258 z" id="boundary" inkscape:connector-curvature="0" />
	<path style="fill:none;stroke:red;stroke-width:1px;stroke-linecap:butt;stroke-linejoin:miter;stroke-opacity:1" d="M 97.9355,691.484 108.258,691.484 z" id="boundary" inkscape:connector-curvature="0" />
	<path style="fill:none;stroke:red;stroke-width:1px;stroke-linecap:butt;stroke-linejoin:miter;stroke-opacity:1" d="M 101.032,256.903 110.323,251.742 z" id="boundary" inkscape:connector-curvature="0" />
	<path style="fill:none;stroke:red;stroke-width:1px;stroke-linecap:butt;stroke-linejoin:miter;stroke-opacity:1" d="M 103.097,666.71 113.419,661.548 z" id="boundary" inkscape:connector-curvature="0" />
	<path style="fill:none;stroke:red;stroke-width:1px;stroke-linecap:butt;stroke-linejoin:miter;stroke-opacity:1" d="M 108.258,588.258 118.581,590.323 z" id="boundary" inkscape:connector-curvature="0" />
	<path style="fill:none;stroke:red;stroke-width:1px;stroke-linecap:butt;stroke-linejoin:miter;stroke-opacity:1" d="M 108.258,691.484 118.581,686.323 z" id="boundary" inkscape:connector-curvature="0" />
	<path style="fill:none;stroke:red;stroke-width:1px;stroke-linecap:butt;stroke-linejoin:miter;stroke-opacity:1" d="M 110.323,251.742 118.581,243.484 z" id="boundary" inkscape:connector-curvature="0" />
	<path style="fill:none;stroke:red;stroke-width:1px;stroke-linecap:butt;stroke-linejoin:miter;stroke-opacity:1" d="M 113.419,661.548 123.742,659.484 z" id="boundary" inkscape:connector-curvature="0" />
	<path style="fill:none;stroke:red;stroke-width:1px;stroke-linecap:butt;stroke-linejoin:miter;stroke-opacity:1" d="M 118.581,243.484 126.839,236.258 z" id="boundary" inkscape:connector-curvature="0" />
	<path style="fill:none;stroke:red;stroke-width:1px;stroke-linecap:butt;stroke-linejoin:miter;stroke-opacity:1" d="M 118.581,590.323 128.903,593.419 z" id="boundary" inkscape:connector-curvature="0" />
	<path style="fill:none;stroke:red;stroke-width:1px;stroke-linecap:butt;stroke-linejoin:miter;stroke-opacity:1" d="M 118.581,686.323 128.903,686.323 z" id="boundary" inkscape:connector-curvature="0" />
	<path style="fill:none;stroke:red;stroke-width:1px;stroke-linecap:butt;stroke-linejoin:miter;stroke-opacity:1" d="M 123.742,659.484 134.065,659.484 z" id="boundary" inkscape:connector-curvature="0" />
	<path style="fill:none;stroke:red;stroke-width:1px;stroke-linecap:butt;stroke-linejoin:miter;stroke-opacity:1" d="M 126.839,236.258 136.129,231.097 z" id="boundary" inkscape:connector-curvature="0" />
	<path style="fill:none;stroke:red;stroke-width:1px;stroke-linecap:butt;stroke-linejoin:miter;stroke-opacity:1" d="M 128.903,593.419 138.194,598.581 z" id="boundary" inkscape:connector-curvature="0" />
	<path style="fill:none;stroke:red;stroke-width:1px;stroke-linecap:butt;stroke-linejoin:miter;stroke-opacity:1" d="M 128.903,686.323 139.226,686.323 z" id="boundary" inkscape:connector-curvature="0" />
	<path style="fill:none;stroke:red;stroke-width:1px;stroke-linecap:butt;stroke-linejoin:miter;stroke-opacity:1" d="M 134.065,659.484 144.387,656.387 z" id="boundary" inkscape:connector-curvature="0" />
	<path style="fill:none;stroke:red;stroke-width:1px;stroke-linecap:butt;stroke-linejoin:miter;stroke-opacity:1" d="M 136.129,231.097 145.419,225.935 z" id="boundary" inkscape:connector-curvature="0" />
	<path style="fill:none;stroke:red;stroke-width:1px;stroke-linecap:butt;stroke-linejoin:miter;stroke-opacity:1" d="M 138.194,598.581 147.484,603.742 z" id="boundary" inkscape:connector-curvature="0" />
	<path style="fill:none;stroke:red;stroke-width:1px;stroke-linecap:butt;stroke-linejoin:miter;stroke-opacity:1" d="M 139.226,686.323 149.548,681.161 z" id="boundary" inkscape:connector-curvature="0" />
	<path style="fill:none;stroke:red;stroke-width:1px;stroke-linecap:butt;stroke-linejoin:miter;stroke-opacity:1" d="M 144.387,656.387 154.71,654.323 z" id="boundary" inkscape:connector-curvature="0" />
	<path style="fill:none;stroke:red;stroke-width:1px;stroke-linecap:butt;stroke-linejoin:miter;stroke-opacity:1" d="M 145.419,225.935 153.677,218.71 z" id="boundary" inkscape:connector-curvature="0" />
	<path style="fill:none;stroke:red;stroke-width:1px;stroke-linecap:butt;stroke-linejoin:miter;stroke-opacity:1" d="M 147.484,603.742 157.806,603.742 z" id="boundary" inkscape:connector-curvature="0" />
	<path style="fill:none;stroke:red;stroke-width:1px;stroke-linecap:butt;stroke-linejoin:miter;stroke-opacity:1" d="M 149.548,681.161 159.871,681.161 z" id="boundary" inkscape:connector-curvature="0" />
	<path style="fill:none;stroke:red;stroke-width:1px;stroke-linecap:butt;stroke-linejoin:miter;stroke-opacity:1" d="M 153.677,218.71 161.935,210.452 z" id="boundary" inkscape:connector-curvature="0" />
	<path style="fill:none;stroke:red;stroke-width:1px;stroke-linecap:butt;stroke-linejoin:miter;stroke-opacity:1" d="M 154.71,654.323 165.032,654.323 z" id="boundary" inkscape:connector-curvature="0" />
	<path style="fill:none;stroke:red;stroke-width:1px;stroke-linecap:butt;stroke-linejoin:miter;stroke-opacity:1" d="M 157.806,603.742 168.129,603.742 z" id="boundary" inkscape:connector-curvature="0" />
	<path style="fill:none;stroke:red;stroke-width:1px;stroke-linecap:butt;stroke-linejoin:miter;stroke-opacity:1" d="M 159.871,681.161 170.194,681.161 z" id="boundary" inkscape:connector-curvature="0" />
	<path style="fill:none;stroke:red;stroke-width:1px;stroke-linecap:butt;stroke-linejoin:miter;stroke-opacity:1" d="M 161.935,210.452 172.258,205.29 z" id="boundary" inkscape:connector-curvature="0" />
	<path style="fill:none;stroke:red;stroke-width:1px;stroke-linecap:butt;stroke-linejoin:miter;stroke-opacity:1" d="M 165.032,654.323 174.323,649.161 z" id="boundary" inkscape:connector-curvature="0" />
	<path style="fill:none;stroke:red;stroke-width:1px;stroke-linecap:butt;stroke-linejoin:miter;stroke-opacity:1" d="M 168.129,603.742 172.258,614.065 z" id="boundary" inkscape:connector-curvature="0" />
	<path style="fill:none;stroke:red;stroke-width:1px;stroke-linecap:butt;stroke-linejoin:miter;stroke-opacity:1" d="M 170.194,681.161 180.516,681.161 z" id="boundary" inkscape:connector-curvature="0" />
	<path style="fill:none;stroke:red;stroke-width:1px;stroke-linecap:butt;stroke-linejoin:miter;stroke-opacity:1" d="M 172.258,205.29 182.581,205.29 z" id="boundary" inkscape:connector-curvature="0" />
	<path style="fill:none;stroke:red;stroke-width:1px;stroke-linecap:butt;stroke-linejoin:miter;stroke-opacity:1" d="M 172.258,614.065 180.516,621.29 z" id="boundary" inkscape:connector-curvature="0" />
	<path style="fill:none;stroke:red;stroke-width:1px;stroke-linecap:butt;stroke-linejoin:miter;stroke-opacity:1" d="M 174.323,649.161 183.613,644 z" id="boundary" inkscape:connector-curvature="0" />
	<path style="fill:none;stroke:red;stroke-width:1px;stroke-linecap:butt;stroke-linejoin:miter;stroke-opacity:1" d="M 180.516,621.29 184.645,631.613 z" id="boundary" inkscape:connector-curvature="0" />
	<path style="fill:none;stroke:red;stroke-width:1px;stroke-linecap:butt;stroke-linejoin:miter;stroke-opacity:1" d="M 180.516,681.161 190.839,681.161 z" id="boundary" inkscape:connector-curvature="0" />
	<path style="fill:none;stroke:red;stroke-width:1px;stroke-linecap:butt;stroke-linejoin:miter;stroke-opacity:1" d="M 182.581,205.29 191.871,200.129 z" id="boundary" inkscape:connector-curvature="0" />
	<path style="fill:none;stroke:red;stroke-width:1px;stroke-linecap:butt;stroke-linejoin:miter;stroke-opacity:1" d="M 183.613,644 184.645,631.613 z" id="boundary" inkscape:connector-curvature="0" />
	<path style="fill:none;stroke:red;stroke-width:1px;stroke-linecap:butt;stroke-linejoin:miter;stroke-opacity:1" d="M 190.839,681.161 201.161,681.161 z" id="boundary" inkscape:connector-curvature="0" />
	<path style="fill:none;stroke:red;stroke-width:1px;stroke-linecap:butt;stroke-linejoin:miter;stroke-opacity:1" d="M 191.871,200.129 202.194,196 z" id="boundary" inkscape:connector-curvature="0" />
	<path style="fill:none;stroke:red;stroke-width:1px;stroke-linecap:butt;stroke-linejoin:miter;stroke-opacity:1" d="M 201.161,681.161 211.484,681.161 z" id="boundary" inkscape:connector-curvature="0" />
	<path style="fill:none;stroke:red;stroke-width:1px;stroke-linecap:butt;stroke-linejoin:miter;stroke-opacity:1" d="M 202.194,196 212.516,194.968 z" id="boundary" inkscape:connector-curvature="0" />
	<path style="fill:none;stroke:red;stroke-width:1px;stroke-linecap:butt;stroke-linejoin:miter;stroke-opacity:1" d="M 211.484,681.161 221.806,676 z" id="boundary" inkscape:connector-curvature="0" />
	<path style="fill:none;stroke:red;stroke-width:1px;stroke-linecap:butt;stroke-linejoin:miter;stroke-opacity:1" d="M 212.516,194.968 222.839,190.839 z" id="boundary" inkscape:connector-curvature="0" />
	<path style="fill:none;stroke:red;stroke-width:1px;stroke-linecap:butt;stroke-linejoin:miter;stroke-opacity:1" d="M 221.806,676 232.129,676 z" id="boundary" inkscape:connector-curvature="0" />
	<path style="fill:none;stroke:red;stroke-width:1px;stroke-linecap:butt;stroke-linejoin:miter;stroke-opacity:1" d="M 222.839,190.839 233.161,189.806 z" id="boundary" inkscape:connector-curvature="0" />
	<path style="fill:none;stroke:red;stroke-width:1px;stroke-linecap:butt;stroke-linejoin:miter;stroke-opacity:1" d="M 232.129,676 242.452,676 z" id="boundary" inkscape:connector-curvature="0" />
	<path style="fill:none;stroke:red;stroke-width:1px;stroke-linecap:butt;stroke-linejoin:miter;stroke-opacity:1" d="M 233.161,189.806 243.484,185.677 z" id="boundary" inkscape:connector-curvature="0" />
	<path style="fill:none;stroke:red;stroke-width:1px;stroke-linecap:butt;stroke-linejoin:miter;stroke-opacity:1" d="M 242.452,676 252.774,676 z" id="boundary" inkscape:connector-curvature="0" />
	<path style="fill:none;stroke:red;stroke-width:1px;stroke-linecap:butt;stroke-linejoin:miter;stroke-opacity:1" d="M 243.484,185.677 253.806,184.645 z" id="boundary" inkscape:connector-curvature="0" />
	<path style="fill:none;stroke:red;stroke-width:1px;stroke-linecap:butt;stroke-linejoin:miter;stroke-opacity:1" d="M 252.774,676 263.097,676 z" id="boundary" inkscape:connector-curvature="0" />
	<path style="fill:none;stroke:red;stroke-width:1px;stroke-linecap:butt;stroke-linejoin:miter;stroke-opacity:1" d="M 253.806,184.645 264.129,184.645 z" id="boundary" inkscape:connector-curvature="0" />
	<path style="fill:none;stroke:red;stroke-width:1px;stroke-linecap:butt;stroke-linejoin:miter;stroke-opacity:1" d="M 263.097,676 272.387,670.839 z" id="boundary" inkscape:connector-curvature="0" />
	<path style="fill:none;stroke:red;stroke-width:1px;stroke-linecap:butt;stroke-linejoin:miter;stroke-opacity:1" d="M 264.129,184.645 274.452,180.516 z" id="boundary" inkscape:connector-curvature="0" />
	<path style="fill:none;stroke:red;stroke-width:1px;stroke-linecap:butt;stroke-linejoin:miter;stroke-opacity:1" d="M 272.387,670.839 282.71,670.839 z" id="boundary" inkscape:connector-curvature="0" />
	<path style="fill:none;stroke:red;stroke-width:1px;stroke-linecap:butt;stroke-linejoin:miter;stroke-opacity:1" d="M 274.452,180.516 284.774,179.484 z" id="boundary" inkscape:connector-curvature="0" />
	<path style="fill:none;stroke:red;stroke-width:1px;stroke-linecap:butt;stroke-linejoin:miter;stroke-opacity:1" d="M 282.71,670.839 293.032,670.839 z" id="boundary" inkscape:connector-curvature="0" />
	<path style="fill:none;stroke:red;stroke-width:1px;stroke-linecap:butt;stroke-linejoin:miter;stroke-opacity:1" d="M 284.774,179.484 295.097,179.484 z" id="boundary" inkscape:connector-curvature="0" />
	<path style="fill:none;stroke:red;stroke-width:1px;stroke-linecap:butt;stroke-linejoin:miter;stroke-opacity:1" d="M 293.032,670.839 303.355,670.839 z" id="boundary" inkscape:connector-curvature="0" />
	<path style="fill:none;stroke:red;stroke-width:1px;stroke-linecap:butt;stroke-linejoin:miter;stroke-opacity:1" d="M 295.097,179.484 305.419,179.484 z" id="boundary" inkscape:connector-curvature="0" />
	<path style="fill:none;stroke:red;stroke-width:1px;stroke-linecap:butt;stroke-linejoin:miter;stroke-opacity:1" d="M 303.355,670.839 313.677,670.839 z" id="boundary" inkscape:connector-curvature="0" />
	<path style="fill:none;stroke:red;stroke-width:1px;stroke-linecap:butt;stroke-linejoin:miter;stroke-opacity:1" d="M 305.419,179.484 314.71,174.323 z" id="boundary" inkscape:connector-curvature="0" />
	<path style="fill:none;stroke:red;stroke-width:1px;stroke-linecap:butt;stroke-linejoin:miter;stroke-opacity:1" d="M 313.677,670.839 322.968,665.677 z" id="boundary" inkscape:connector-curvature="0" />
	<path style="fill:none;stroke:red;stroke-width:1px;stroke-linecap:butt;stroke-linejoin:miter;stroke-opacity:1" d="M 314.71,174.323 325.032,174.323 z" id="boundary" inkscape:connector-curvature="0" />
	<path style="fill:none;stroke:red;stroke-width:1px;stroke-linecap:butt;stroke-linejoin:miter;stroke-opacity:1" d="M 322.968,665.677 333.29,665.677 z" id="boundary" inkscape:connector-curvature="0" />
	<path style="fill:none;stroke:red;stroke-width:1px;stroke-linecap:butt;stroke-linejoin:miter;stroke-opacity:1" d="M 325.032,174.323 335.355,171.226 z" id="boundary" inkscape:connector-curvature="0" />
	<path style="fill:none;stroke:red;stroke-width:1px;stroke-linecap:butt;stroke-linejoin:miter;stroke-opacity:1" d="M 329.161,43.2258 329.161,53.5484 z" id="boundary" inkscape:connector-curvature="0" />
	<path style="fill:none;stroke:red;stroke-width:1px;stroke-linecap:butt;stroke-linejoin:miter;stroke-opacity:1" d="M 329.161,43.2258 337.419,34.9677 z" id="boundary" inkscape:connector-curvature="0" />
	<path style="fill:none;stroke:red;stroke-width:1px;stroke-linecap:butt;stroke-linejoin:miter;stroke-opacity:1" d="M 329.161,53.5484 329.161,63.871 z" id="boundary" inkscape:connector-curvature="0" />
	<path style="fill:none;stroke:red;stroke-width:1px;stroke-linecap:butt;stroke-linejoin:miter;stroke-opacity:1" d="M 329.161,63.871 337.419,71.0968 z" id="boundary" inkscape:connector-curvature="0" />
	<path style="fill:none;stroke:red;stroke-width:1px;stroke-linecap:butt;stroke-linejoin:miter;stroke-opacity:1" d="M 333.29,665.677 343.613,665.677 z" id="boundary" inkscape:connector-curvature="0" />
	<path style="fill:none;stroke:red;stroke-width:1px;stroke-linecap:butt;stroke-linejoin:miter;stroke-opacity:1" d="M 335.355,171.226 345.677,169.161 z" id="boundary" inkscape:connector-curvature="0" />
	<path style="fill:none;stroke:red;stroke-width:1px;stroke-linecap:butt;stroke-linejoin:miter;stroke-opacity:1" d="M 337.419,34.9677 346.71,29.8065 z" id="boundary" inkscape:connector-curvature="0" />
	<path style="fill:none;stroke:red;stroke-width:1px;stroke-linecap:butt;stroke-linejoin:miter;stroke-opacity:1" d="M 337.419,71.0968 345.677,77.2903 z" id="boundary" inkscape:connector-curvature="0" />
	<path style="fill:none;stroke:red;stroke-width:1px;stroke-linecap:butt;stroke-linejoin:miter;stroke-opacity:1" d="M 343.613,665.677 353.935,665.677 z" id="boundary" inkscape:connector-curvature="0" />
	<path style="fill:none;stroke:red;stroke-width:1px;stroke-linecap:butt;stroke-linejoin:miter;stroke-opacity:1" d="M 345.677,77.2903 356,77.2903 z" id="boundary" inkscape:connector-curvature="0" />
	<path style="fill:none;stroke:red;stroke-width:1px;stroke-linecap:butt;stroke-linejoin:miter;stroke-opacity:1" d="M 345.677,169.161 356,166.065 z" id="boundary" inkscape:connector-curvature="0" />
	<path style="fill:none;stroke:red;stroke-width:1px;stroke-linecap:butt;stroke-linejoin:miter;stroke-opacity:1" d="M 346.71,29.8065 356,24.6452 z" id="boundary" inkscape:connector-curvature="0" />
	<path style="fill:none;stroke:red;stroke-width:1px;stroke-linecap:butt;stroke-linejoin:miter;stroke-opacity:1" d="M 353.935,665.677 364.258,665.677 z" id="boundary" inkscape:connector-curvature="0" />
	<path style="fill:none;stroke:red;stroke-width:1px;stroke-linecap:butt;stroke-linejoin:miter;stroke-opacity:1" d="M 356,24.6452 366.323,24.6452 z" id="boundary" inkscape:connector-curvature="0" />
	<path style="fill:none;stroke:red;stroke-width:1px;stroke-linecap:butt;stroke-linejoin:miter;stroke-opacity:1" d="M 356,77.2903 365.29,82.4516 z" id="boundary" inkscape:connector-curvature="0" />
	<path style="fill:none;stroke:red;stroke-width:1px;stroke-linecap:butt;stroke-linejoin:miter;stroke-opacity:1" d="M 356,166.065 366.323,164 z" id="boundary" inkscape:connector-curvature="0" />
	<path style="fill:none;stroke:red;stroke-width:1px;stroke-linecap:butt;stroke-linejoin:miter;stroke-opacity:1" d="M 364.258,665.677 374.581,663.613 z" id="boundary" inkscape:connector-curvature="0" />
	<path style="fill:none;stroke:red;stroke-width:1px;stroke-linecap:butt;stroke-linejoin:miter;stroke-opacity:1" d="M 365.29,82.4516 365.29,92.7742 z" id="boundary" inkscape:connector-curvature="0" />
	<path style="fill:none;stroke:red;stroke-width:1px;stroke-linecap:butt;stroke-linejoin:miter;stroke-opacity:1" d="M 365.29,92.7742 365.29,103.097 z" id="boundary" inkscape:connector-curvature="0" />
	<path style="fill:none;stroke:red;stroke-width:1px;stroke-linecap:butt;stroke-linejoin:miter;stroke-opacity:1" d="M 365.29,103.097 371.484,111.355 z" id="boundary" inkscape:connector-curvature="0" />
	<path style="fill:none;stroke:red;stroke-width:1px;stroke-linecap:butt;stroke-linejoin:miter;stroke-opacity:1" d="M 366.323,24.6452 376.645,24.6452 z" id="boundary" inkscape:connector-curvature="0" />
	<path style="fill:none;stroke:red;stroke-width:1px;stroke-linecap:butt;stroke-linejoin:miter;stroke-opacity:1" d="M 366.323,164 376.645,164 z" id="boundary" inkscape:connector-curvature="0" />
	<path style="fill:none;stroke:red;stroke-width:1px;stroke-linecap:butt;stroke-linejoin:miter;stroke-opacity:1" d="M 371.484,111.355 379.742,118.581 z" id="boundary" inkscape:connector-curvature="0" />
	<path style="fill:none;stroke:red;stroke-width:1px;stroke-linecap:butt;stroke-linejoin:miter;stroke-opacity:1" d="M 374.581,663.613 384.903,660.516 z" id="boundary" inkscape:connector-curvature="0" />
	<path style="fill:none;stroke:red;stroke-width:1px;stroke-linecap:butt;stroke-linejoin:miter;stroke-opacity:1" d="M 376.645,24.6452 386.968,24.6452 z" id="boundary" inkscape:connector-curvature="0" />
	<path style="fill:none;stroke:red;stroke-width:1px;stroke-linecap:butt;stroke-linejoin:miter;stroke-opacity:1" d="M 376.645,164 386.968,160.903 z" id="boundary" inkscape:connector-curvature="0" />
	<path style="fill:none;stroke:red;stroke-width:1px;stroke-linecap:butt;stroke-linejoin:miter;stroke-opacity:1" d="M 379.742,118.581 389.032,123.742 z" id="boundary" inkscape:connector-curvature="0" />
	<path style="fill:none;stroke:red;stroke-width:1px;stroke-linecap:butt;stroke-linejoin:miter;stroke-opacity:1" d="M 384.903,660.516 395.226,660.516 z" id="boundary" inkscape:connector-curvature="0" />
	<path style="fill:none;stroke:red;stroke-width:1px;stroke-linecap:butt;stroke-linejoin:miter;stroke-opacity:1" d="M 386.968,24.6452 397.29,21.5484 z" id="boundary" inkscape:connector-curvature="0" />
	<path style="fill:none;stroke:red;stroke-width:1px;stroke-linecap:butt;stroke-linejoin:miter;stroke-opacity:1" d="M 386.968,160.903 391.097,144.387 z" id="boundary" inkscape:connector-curvature="0" />
	<path style="fill:none;stroke:red;stroke-width:1px;stroke-linecap:butt;stroke-linejoin:miter;stroke-opacity:1" d="M 389.032,123.742 391.097,134.065 z" id="boundary" inkscape:connector-curvature="0" />
	<path style="fill:none;stroke:red;stroke-width:1px;stroke-linecap:butt;stroke-linejoin:miter;stroke-opacity:1" d="M 391.097,134.065 391.097,144.387 z" id="boundary" inkscape:connector-curvature="0" />
	<path style="fill:none;stroke:red;stroke-width:1px;stroke-linecap:butt;stroke-linejoin:miter;stroke-opacity:1" d="M 395.226,660.516 404.516,655.355 z" id="boundary" inkscape:connector-curvature="0" />
	<path style="fill:none;stroke:red;stroke-width:1px;stroke-linecap:butt;stroke-linejoin:miter;stroke-opacity:1" d="M 397.29,21.5484 407.613,19.4839 z" id="boundary" inkscape:connector-curvature="0" />
	<path style="fill:none;stroke:red;stroke-width:1px;stroke-linecap:butt;stroke-linejoin:miter;stroke-opacity:1" d="M 404.516,655.355 413.806,650.194 z" id="boundary" inkscape:connector-curvature="0" />
	<path style="fill:none;stroke:red;stroke-width:1px;stroke-linecap:butt;stroke-linejoin:miter;stroke-opacity:1" d="M 407.613,19.4839 416.903,14.3226 z" id="boundary" inkscape:connector-curvature="0" />
	<path style="fill:none;stroke:red;stroke-width:1px;stroke-linecap:butt;stroke-linejoin:miter;stroke-opacity:1" d="M 413.806,650.194 417.935,639.871 z" id="boundary" inkscape:connector-curvature="0" />
	<path style="fill:none;stroke:red;stroke-width:1px;stroke-linecap:butt;stroke-linejoin:miter;stroke-opacity:1" d="M 416.903,14.3226 427.226,14.3226 z" id="boundary" inkscape:connector-curvature="0" />
	<path style="fill:none;stroke:red;stroke-width:1px;stroke-linecap:butt;stroke-linejoin:miter;stroke-opacity:1" d="M 417.935,639.871 423.097,629.548 z" id="boundary" inkscape:connector-curvature="0" />
	<path style="fill:none;stroke:red;stroke-width:1px;stroke-linecap:butt;stroke-linejoin:miter;stroke-opacity:1" d="M 423.097,629.548 428.258,619.226 z" id="boundary" inkscape:connector-curvature="0" />
	<path style="fill:none;stroke:red;stroke-width:1px;stroke-linecap:butt;stroke-linejoin:miter;stroke-opacity:1" d="M 427.226,14.3226 436.516,9.16129 z" id="boundary" inkscape:connector-curvature="0" />
	<path style="fill:none;stroke:red;stroke-width:1px;stroke-linecap:butt;stroke-linejoin:miter;stroke-opacity:1" d="M 428.258,56.6452 428.258,66.9677 z" id="boundary" inkscape:connector-curvature="0" />
	<path style="fill:none;stroke:red;stroke-width:1px;stroke-linecap:butt;stroke-linejoin:miter;stroke-opacity:1" d="M 428.258,56.6452 438.581,51.4839 z" id="boundary" inkscape:connector-curvature="0" />
	<path style="fill:none;stroke:red;stroke-width:1px;stroke-linecap:butt;stroke-linejoin:miter;stroke-opacity:1" d="M 428.258,66.9677 428.258,77.2903 z" id="boundary" inkscape:connector-curvature="0" />
	<path style="fill:none;stroke:red;stroke-width:1px;stroke-linecap:butt;stroke-linejoin:miter;stroke-opacity:1" d="M 428.258,77.2903 428.258,87.6129 z" id="boundary" inkscape:connector-curvature="0" />
	<path style="fill:none;stroke:red;stroke-width:1px;stroke-linecap:butt;stroke-linejoin:miter;stroke-opacity:1" d="M 428.258,87.6129 433.419,96.9032 z" id="boundary" inkscape:connector-curvature="0" />
	<path style="fill:none;stroke:red;stroke-width:1px;stroke-linecap:butt;stroke-linejoin:miter;stroke-opacity:1" d="M 428.258,619.226 438.581,614.065 z" id="boundary" inkscape:connector-curvature="0" />
	<path style="fill:none;stroke:red;stroke-width:1px;stroke-linecap:butt;stroke-linejoin:miter;stroke-opacity:1" d="M 433.419,96.9032 438.581,106.194 z" id="boundary" inkscape:connector-curvature="0" />
	<path style="fill:none;stroke:red;stroke-width:1px;stroke-linecap:butt;stroke-linejoin:miter;stroke-opacity:1" d="M 436.516,9.16129 446.839,9.16129 z" id="boundary" inkscape:connector-curvature="0" />
	<path style="fill:none;stroke:red;stroke-width:1px;stroke-linecap:butt;stroke-linejoin:miter;stroke-opacity:1" d="M 438.581,51.4839 448.903,46.3226 z" id="boundary" inkscape:connector-curvature="0" />
	<path style="fill:none;stroke:red;stroke-width:1px;stroke-linecap:butt;stroke-linejoin:miter;stroke-opacity:1" d="M 438.581,106.194 443.742,115.484 z" id="boundary" inkscape:connector-curvature="0" />
	<path style="fill:none;stroke:red;stroke-width:1px;stroke-linecap:butt;stroke-linejoin:miter;stroke-opacity:1" d="M 438.581,614.065 448.903,614.065 z" id="boundary" inkscape:connector-curvature="0" />
	<path style="fill:none;stroke:red;stroke-width:1px;stroke-linecap:butt;stroke-linejoin:miter;stroke-opacity:1" d="M 443.742,115.484 443.742,125.806 z" id="boundary" inkscape:connector-curvature="0" />
	<path style="fill:none;stroke:red;stroke-width:1px;stroke-linecap:butt;stroke-linejoin:miter;stroke-opacity:1" d="M 443.742,125.806 448.903,135.097 z" id="boundary" inkscape:connector-curvature="0" />
	<path style="fill:none;stroke:red;stroke-width:1px;stroke-linecap:butt;stroke-linejoin:miter;stroke-opacity:1" d="M 446.839,9.16129 456.129,4 z" id="boundary" inkscape:connector-curvature="0" />
	<path style="fill:none;stroke:red;stroke-width:1px;stroke-linecap:butt;stroke-linejoin:miter;stroke-opacity:1" d="M 448.903,46.3226 459.226,41.1613 z" id="boundary" inkscape:connector-curvature="0" />
	<path style="fill:none;stroke:red;stroke-width:1px;stroke-linecap:butt;stroke-linejoin:miter;stroke-opacity:1" d="M 448.903,135.097 454.065,144.387 z" id="boundary" inkscape:connector-curvature="0" />
	<path style="fill:none;stroke:red;stroke-width:1px;stroke-linecap:butt;stroke-linejoin:miter;stroke-opacity:1" d="M 448.903,614.065 459.226,608.903 z" id="boundary" inkscape:connector-curvature="0" />
	<path style="fill:none;stroke:red;stroke-width:1px;stroke-linecap:butt;stroke-linejoin:miter;stroke-opacity:1" d="M 454.065,144.387 459.226,153.677 z" id="boundary" inkscape:connector-curvature="0" />
	<path style="fill:none;stroke:red;stroke-width:1px;stroke-linecap:butt;stroke-linejoin:miter;stroke-opacity:1" d="M 456.129,4 463.355,12.2581 z" id="boundary" inkscape:connector-curvature="0" />
	<path style="fill:none;stroke:red;stroke-width:1px;stroke-linecap:butt;stroke-linejoin:miter;stroke-opacity:1" d="M 459.226,41.1613 467.484,33.9355 z" id="boundary" inkscape:connector-curvature="0" />
	<path style="fill:none;stroke:red;stroke-width:1px;stroke-linecap:butt;stroke-linejoin:miter;stroke-opacity:1" d="M 459.226,153.677 467.484,159.871 z" id="boundary" inkscape:connector-curvature="0" />
	<path style="fill:none;stroke:red;stroke-width:1px;stroke-linecap:butt;stroke-linejoin:miter;stroke-opacity:1" d="M 459.226,608.903 469.548,608.903 z" id="boundary" inkscape:connector-curvature="0" />
	<path style="fill:none;stroke:red;stroke-width:1px;stroke-linecap:butt;stroke-linejoin:miter;stroke-opacity:1" d="M 463.355,12.2581 469.548,20.5161 z" id="boundary" inkscape:connector-curvature="0" />
	<path style="fill:none;stroke:red;stroke-width:1px;stroke-linecap:butt;stroke-linejoin:miter;stroke-opacity:1" d="M 467.484,33.9355 469.548,20.5161 z" id="boundary" inkscape:connector-curvature="0" />
	<path style="fill:none;stroke:red;stroke-width:1px;stroke-linecap:butt;stroke-linejoin:miter;stroke-opacity:1" d="M 467.484,159.871 477.806,164 z" id="boundary" inkscape:connector-curvature="0" />
	<path style="fill:none;stroke:red;stroke-width:1px;stroke-linecap:butt;stroke-linejoin:miter;stroke-opacity:1" d="M 469.548,608.903 479.871,608.903 z" id="boundary" inkscape:connector-curvature="0" />
	<path style="fill:none;stroke:red;stroke-width:1px;stroke-linecap:butt;stroke-linejoin:miter;stroke-opacity:1" d="M 477.806,164 488.129,164 z" id="boundary" inkscape:connector-curvature="0" />
	<path style="fill:none;stroke:red;stroke-width:1px;stroke-linecap:butt;stroke-linejoin:miter;stroke-opacity:1" d="M 479.871,608.903 490.194,608.903 z" id="boundary" inkscape:connector-curvature="0" />
	<path style="fill:none;stroke:red;stroke-width:1px;stroke-linecap:butt;stroke-linejoin:miter;stroke-opacity:1" d="M 488.129,164 498.452,164 z" id="boundary" inkscape:connector-curvature="0" />
	<path style="fill:none;stroke:red;stroke-width:1px;stroke-linecap:butt;stroke-linejoin:miter;stroke-opacity:1" d="M 490.194,608.903 499.484,603.742 z" id="boundary" inkscape:connector-curvature="0" />
	<path style="fill:none;stroke:red;stroke-width:1px;stroke-linecap:butt;stroke-linejoin:miter;stroke-opacity:1" d="M 498.452,164 508.774,164 z" id="boundary" inkscape:connector-curvature="0" />
	<path style="fill:none;stroke:red;stroke-width:1px;stroke-linecap:butt;stroke-linejoin:miter;stroke-opacity:1" d="M 499.484,603.742 509.806,603.742 z" id="boundary" inkscape:connector-curvature="0" />
	<path style="fill:none;stroke:red;stroke-width:1px;stroke-linecap:butt;stroke-linejoin:miter;stroke-opacity:1" d="M 508.774,164 519.097,164 z" id="boundary" inkscape:connector-curvature="0" />
	<path style="fill:none;stroke:red;stroke-width:1px;stroke-linecap:butt;stroke-linejoin:miter;stroke-opacity:1" d="M 509.806,603.742 520.129,603.742 z" id="boundary" inkscape:connector-curvature="0" />
	<path style="fill:none;stroke:red;stroke-width:1px;stroke-linecap:butt;stroke-linejoin:miter;stroke-opacity:1" d="M 519.097,164 529.419,164 z" id="boundary" inkscape:connector-curvature="0" />
	<path style="fill:none;stroke:red;stroke-width:1px;stroke-linecap:butt;stroke-linejoin:miter;stroke-opacity:1" d="M 520.129,603.742 530.452,603.742 z" id="boundary" inkscape:connector-curvature="0" />
	<path style="fill:none;stroke:red;stroke-width:1px;stroke-linecap:butt;stroke-linejoin:miter;stroke-opacity:1" d="M 529.419,164 539.742,164 z" id="boundary" inkscape:connector-curvature="0" />
	<path style="fill:none;stroke:red;stroke-width:1px;stroke-linecap:butt;stroke-linejoin:miter;stroke-opacity:1" d="M 530.452,603.742 540.774,603.742 z" id="boundary" inkscape:connector-curvature="0" />
	<path style="fill:none;stroke:red;stroke-width:1px;stroke-linecap:butt;stroke-linejoin:miter;stroke-opacity:1" d="M 539.742,164 550.065,164 z" id="boundary" inkscape:connector-curvature="0" />
	<path style="fill:none;stroke:red;stroke-width:1px;stroke-linecap:butt;stroke-linejoin:miter;stroke-opacity:1" d="M 540.774,603.742 551.097,603.742 z" id="boundary" inkscape:connector-curvature="0" />
	<path style="fill:none;stroke:red;stroke-width:1px;stroke-linecap:butt;stroke-linejoin:miter;stroke-opacity:1" d="M 550.065,164 559.355,158.839 z" id="boundary" inkscape:connector-curvature="0" />
	<path style="fill:none;stroke:red;stroke-width:1px;stroke-linecap:butt;stroke-linejoin:miter;stroke-opacity:1" d="M 551.097,603.742 561.419,603.742 z" id="boundary" inkscape:connector-curvature="0" />
	<path style="fill:none;stroke:red;stroke-width:1px;stroke-linecap:butt;stroke-linejoin:miter;stroke-opacity:1" d="M 559.355,158.839 567.613,150.581 z" id="boundary" inkscape:connector-curvature="0" />
	<path style="fill:none;stroke:red;stroke-width:1px;stroke-linecap:butt;stroke-linejoin:miter;stroke-opacity:1" d="M 561.419,603.742 571.742,603.742 z" id="boundary" inkscape:connector-curvature="0" />
	<path style="fill:none;stroke:red;stroke-width:1px;stroke-linecap:butt;stroke-linejoin:miter;stroke-opacity:1" d="M 567.613,150.581 577.935,145.419 z" id="boundary" inkscape:connector-curvature="0" />
	<path style="fill:none;stroke:red;stroke-width:1px;stroke-linecap:butt;stroke-linejoin:miter;stroke-opacity:1" d="M 571.742,603.742 582.065,603.742 z" id="boundary" inkscape:connector-curvature="0" />
	<path style="fill:none;stroke:red;stroke-width:1px;stroke-linecap:butt;stroke-linejoin:miter;stroke-opacity:1" d="M 577.935,145.419 588.258,148.516 z" id="boundary" inkscape:connector-curvature="0" />
	<path style="fill:none;stroke:red;stroke-width:1px;stroke-linecap:butt;stroke-linejoin:miter;stroke-opacity:1" d="M 582.065,603.742 592.387,603.742 z" id="boundary" inkscape:connector-curvature="0" />
	<path style="fill:none;stroke:red;stroke-width:1px;stroke-linecap:butt;stroke-linejoin:miter;stroke-opacity:1" d="M 588.258,148.516 596.516,154.71 z" id="boundary" inkscape:connector-curvature="0" />
	<path style="fill:none;stroke:red;stroke-width:1px;stroke-linecap:butt;stroke-linejoin:miter;stroke-opacity:1" d="M 592.387,603.742 602.71,603.742 z" id="boundary" inkscape:connector-curvature="0" />
	<path style="fill:none;stroke:red;stroke-width:1px;stroke-linecap:butt;stroke-linejoin:miter;stroke-opacity:1" d="M 596.516,154.71 600.645,165.032 z" id="boundary" inkscape:connector-curvature="0" />
	<path style="fill:none;stroke:red;stroke-width:1px;stroke-linecap:butt;stroke-linejoin:miter;stroke-opacity:1" d="M 600.645,165.032 605.806,174.323 z" id="boundary" inkscape:connector-curvature="0" />
	<path style="fill:none;stroke:red;stroke-width:1px;stroke-linecap:butt;stroke-linejoin:miter;stroke-opacity:1" d="M 602.71,603.742 613.032,603.742 z" id="boundary" inkscape:connector-curvature="0" />
	<path style="fill:none;stroke:red;stroke-width:1px;stroke-linecap:butt;stroke-linejoin:miter;stroke-opacity:1" d="M 605.806,174.323 615.097,179.484 z" id="boundary" inkscape:connector-curvature="0" />
	<path style="fill:none;stroke:red;stroke-width:1px;stroke-linecap:butt;stroke-linejoin:miter;stroke-opacity:1" d="M 613.032,603.742 623.355,603.742 z" id="boundary" inkscape:connector-curvature="0" />
	<path style="fill:none;stroke:red;stroke-width:1px;stroke-linecap:butt;stroke-linejoin:miter;stroke-opacity:1" d="M 615.097,179.484 624.387,184.645 z" id="boundary" inkscape:connector-curvature="0" />
	<path style="fill:none;stroke:red;stroke-width:1px;stroke-linecap:butt;stroke-linejoin:miter;stroke-opacity:1" d="M 623.355,603.742 633.677,603.742 z" id="boundary" inkscape:connector-curvature="0" />
	<path style="fill:none;stroke:red;stroke-width:1px;stroke-linecap:butt;stroke-linejoin:miter;stroke-opacity:1" d="M 624.387,184.645 633.677,189.806 z" id="boundary" inkscape:connector-curvature="0" />
	<path style="fill:none;stroke:red;stroke-width:1px;stroke-linecap:butt;stroke-linejoin:miter;stroke-opacity:1" d="M 624.387,273.419 624.387,283.742 z" id="boundary" inkscape:connector-curvature="0" />
	<path style="fill:none;stroke:red;stroke-width:1px;stroke-linecap:butt;stroke-linejoin:miter;stroke-opacity:1" d="M 624.387,273.419 634.71,273.419 z" id="boundary" inkscape:connector-curvature="0" />
	<path style="fill:none;stroke:red;stroke-width:1px;stroke-linecap:butt;stroke-linejoin:miter;stroke-opacity:1" d="M 624.387,283.742 629.548,293.032 z" id="boundary" inkscape:connector-curvature="0" />
	<path style="fill:none;stroke:red;stroke-width:1px;stroke-linecap:butt;stroke-linejoin:miter;stroke-opacity:1" d="M 629.548,293.032 639.871,296.129 z" id="boundary" inkscape:connector-curvature="0" />
	<path style="fill:none;stroke:red;stroke-width:1px;stroke-linecap:butt;stroke-linejoin:miter;stroke-opacity:1" d="M 633.677,189.806 641.935,196 z" id="boundary" inkscape:connector-curvature="0" />
	<path style="fill:none;stroke:red;stroke-width:1px;stroke-linecap:butt;stroke-linejoin:miter;stroke-opacity:1" d="M 633.677,603.742 644,603.742 z" id="boundary" inkscape:connector-curvature="0" />
	<path style="fill:none;stroke:red;stroke-width:1px;stroke-linecap:butt;stroke-linejoin:miter;stroke-opacity:1" d="M 634.71,273.419 645.032,273.419 z" id="boundary" inkscape:connector-curvature="0" />
	<path style="fill:none;stroke:red;stroke-width:1px;stroke-linecap:butt;stroke-linejoin:miter;stroke-opacity:1" d="M 639.871,296.129 648.129,303.355 z" id="boundary" inkscape:connector-curvature="0" />
	<path style="fill:none;stroke:red;stroke-width:1px;stroke-linecap:butt;stroke-linejoin:miter;stroke-opacity:1" d="M 641.935,196 652.258,200.129 z" id="boundary" inkscape:connector-curvature="0" />
	<path style="fill:none;stroke:red;stroke-width:1px;stroke-linecap:butt;stroke-linejoin:miter;stroke-opacity:1" d="M 644,603.742 654.323,603.742 z" id="boundary" inkscape:connector-curvature="0" />
	<path style="fill:none;stroke:red;stroke-width:1px;stroke-linecap:butt;stroke-linejoin:miter;stroke-opacity:1" d="M 645.032,273.419 655.355,273.419 z" id="boundary" inkscape:connector-curvature="0" />
	<path style="fill:none;stroke:red;stroke-width:1px;stroke-linecap:butt;stroke-linejoin:miter;stroke-opacity:1" d="M 648.129,303.355 658.452,303.355 z" id="boundary" inkscape:connector-curvature="0" />
	<path style="fill:none;stroke:red;stroke-width:1px;stroke-linecap:butt;stroke-linejoin:miter;stroke-opacity:1" d="M 652.258,200.129 661.548,205.29 z" id="boundary" inkscape:connector-curvature="0" />
	<path style="fill:none;stroke:red;stroke-width:1px;stroke-linecap:butt;stroke-linejoin:miter;stroke-opacity:1" d="M 654.323,603.742 664.645,603.742 z" id="boundary" inkscape:connector-curvature="0" />
	<path style="fill:none;stroke:red;stroke-width:1px;stroke-linecap:butt;stroke-linejoin:miter;stroke-opacity:1" d="M 655.355,273.419 664.645,268.258 z" id="boundary" inkscape:connector-curvature="0" />
	<path style="fill:none;stroke:red;stroke-width:1px;stroke-linecap:butt;stroke-linejoin:miter;stroke-opacity:1" d="M 658.452,303.355 667.742,298.194 z" id="boundary" inkscape:connector-curvature="0" />
	<path style="fill:none;stroke:red;stroke-width:1px;stroke-linecap:butt;stroke-linejoin:miter;stroke-opacity:1" d="M 661.548,205.29 669.806,212.516 z" id="boundary" inkscape:connector-curvature="0" />
	<path style="fill:none;stroke:red;stroke-width:1px;stroke-linecap:butt;stroke-linejoin:miter;stroke-opacity:1" d="M 664.645,268.258 670.839,257.935 z" id="boundary" inkscape:connector-curvature="0" />
	<path style="fill:none;stroke:red;stroke-width:1px;stroke-linecap:butt;stroke-linejoin:miter;stroke-opacity:1" d="M 664.645,603.742 674.968,600.645 z" id="boundary" inkscape:connector-curvature="0" />
	<path style="fill:none;stroke:red;stroke-width:1px;stroke-linecap:butt;stroke-linejoin:miter;stroke-opacity:1" d="M 667.742,298.194 678.065,293.032 z" id="boundary" inkscape:connector-curvature="0" />
	<path style="fill:none;stroke:red;stroke-width:1px;stroke-linecap:butt;stroke-linejoin:miter;stroke-opacity:1" d="M 669.806,212.516 673.935,222.839 z" id="boundary" inkscape:connector-curvature="0" />
	<path style="fill:none;stroke:red;stroke-width:1px;stroke-linecap:butt;stroke-linejoin:miter;stroke-opacity:1" d="M 670.839,257.935 676,243.484 z" id="boundary" inkscape:connector-curvature="0" />
	<path style="fill:none;stroke:red;stroke-width:1px;stroke-linecap:butt;stroke-linejoin:miter;stroke-opacity:1" d="M 673.935,222.839 676,233.161 z" id="boundary" inkscape:connector-curvature="0" />
	<path style="fill:none;stroke:red;stroke-width:1px;stroke-linecap:butt;stroke-linejoin:miter;stroke-opacity:1" d="M 674.968,600.645 685.29,598.581 z" id="boundary" inkscape:connector-curvature="0" />
	<path style="fill:none;stroke:red;stroke-width:1px;stroke-linecap:butt;stroke-linejoin:miter;stroke-opacity:1" d="M 676,233.161 676,243.484 z" id="boundary" inkscape:connector-curvature="0" />
	<path style="fill:none;stroke:red;stroke-width:1px;stroke-linecap:butt;stroke-linejoin:miter;stroke-opacity:1" d="M 678.065,293.032 688.387,293.032 z" id="boundary" inkscape:connector-curvature="0" />
	<path style="fill:none;stroke:red;stroke-width:1px;stroke-linecap:butt;stroke-linejoin:miter;stroke-opacity:1" d="M 685.29,598.581 695.613,598.581 z" id="boundary" inkscape:connector-curvature="0" />
	<path style="fill:none;stroke:red;stroke-width:1px;stroke-linecap:butt;stroke-linejoin:miter;stroke-opacity:1" d="M 686.323,448.903 686.323,459.226 z" id="boundary" inkscape:connector-curvature="0" />
	<path style="fill:none;stroke:red;stroke-width:1px;stroke-linecap:butt;stroke-linejoin:miter;stroke-opacity:1" d="M 686.323,448.903 691.484,438.581 z" id="boundary" inkscape:connector-curvature="0" />
	<path style="fill:none;stroke:red;stroke-width:1px;stroke-linecap:butt;stroke-linejoin:miter;stroke-opacity:1" d="M 686.323,459.226 696.645,463.355 z" id="boundary" inkscape:connector-curvature="0" />
	<path style="fill:none;stroke:red;stroke-width:1px;stroke-linecap:butt;stroke-linejoin:miter;stroke-opacity:1" d="M 688.387,293.032 698.71,287.871 z" id="boundary" inkscape:connector-curvature="0" />
	<path style="fill:none;stroke:red;stroke-width:1px;stroke-linecap:butt;stroke-linejoin:miter;stroke-opacity:1" d="M 691.484,438.581 701.806,433.419 z" id="boundary" inkscape:connector-curvature="0" />
	<path style="fill:none;stroke:red;stroke-width:1px;stroke-linecap:butt;stroke-linejoin:miter;stroke-opacity:1" d="M 695.613,598.581 705.935,598.581 z" id="boundary" inkscape:connector-curvature="0" />
	<path style="fill:none;stroke:red;stroke-width:1px;stroke-linecap:butt;stroke-linejoin:miter;stroke-opacity:1" d="M 696.645,463.355 706.968,463.355 z" id="boundary" inkscape:connector-curvature="0" />
	<path style="fill:none;stroke:red;stroke-width:1px;stroke-linecap:butt;stroke-linejoin:miter;stroke-opacity:1" d="M 698.71,287.871 709.032,287.871 z" id="boundary" inkscape:connector-curvature="0" />
	<path style="fill:none;stroke:red;stroke-width:1px;stroke-linecap:butt;stroke-linejoin:miter;stroke-opacity:1" d="M 701.806,433.419 712.129,428.258 z" id="boundary" inkscape:connector-curvature="0" />
	<path style="fill:none;stroke:red;stroke-width:1px;stroke-linecap:butt;stroke-linejoin:miter;stroke-opacity:1" d="M 705.935,598.581 715.226,593.419 z" id="boundary" inkscape:connector-curvature="0" />
	<path style="fill:none;stroke:red;stroke-width:1px;stroke-linecap:butt;stroke-linejoin:miter;stroke-opacity:1" d="M 706.968,463.355 717.29,463.355 z" id="boundary" inkscape:connector-curvature="0" />
	<path style="fill:none;stroke:red;stroke-width:1px;stroke-linecap:butt;stroke-linejoin:miter;stroke-opacity:1" d="M 709.032,287.871 719.355,287.871 z" id="boundary" inkscape:connector-curvature="0" />
	<path style="fill:none;stroke:red;stroke-width:1px;stroke-linecap:butt;stroke-linejoin:miter;stroke-opacity:1" d="M 712.129,428.258 722.452,428.258 z" id="boundary" inkscape:connector-curvature="0" />
	<path style="fill:none;stroke:red;stroke-width:1px;stroke-linecap:butt;stroke-linejoin:miter;stroke-opacity:1" d="M 715.226,593.419 725.548,593.419 z" id="boundary" inkscape:connector-curvature="0" />
	<path style="fill:none;stroke:red;stroke-width:1px;stroke-linecap:butt;stroke-linejoin:miter;stroke-opacity:1" d="M 717.29,463.355 727.613,463.355 z" id="boundary" inkscape:connector-curvature="0" />
	<path style="fill:none;stroke:red;stroke-width:1px;stroke-linecap:butt;stroke-linejoin:miter;stroke-opacity:1" d="M 719.355,287.871 729.677,287.871 z" id="boundary" inkscape:connector-curvature="0" />
	<path style="fill:none;stroke:red;stroke-width:1px;stroke-linecap:butt;stroke-linejoin:miter;stroke-opacity:1" d="M 722.452,428.258 731.742,423.097 z" id="boundary" inkscape:connector-curvature="0" />
	<path style="fill:none;stroke:red;stroke-width:1px;stroke-linecap:butt;stroke-linejoin:miter;stroke-opacity:1" d="M 725.548,593.419 735.871,593.419 z" id="boundary" inkscape:connector-curvature="0" />
	<path style="fill:none;stroke:red;stroke-width:1px;stroke-linecap:butt;stroke-linejoin:miter;stroke-opacity:1" d="M 727.613,463.355 737.935,463.355 z" id="boundary" inkscape:connector-curvature="0" />
	<path style="fill:none;stroke:red;stroke-width:1px;stroke-linecap:butt;stroke-linejoin:miter;stroke-opacity:1" d="M 729.677,287.871 740,287.871 z" id="boundary" inkscape:connector-curvature="0" />
	<path style="fill:none;stroke:red;stroke-width:1px;stroke-linecap:butt;stroke-linejoin:miter;stroke-opacity:1" d="M 731.742,423.097 741.032,417.935 z" id="boundary" inkscape:connector-curvature="0" />
	<path style="fill:none;stroke:red;stroke-width:1px;stroke-linecap:butt;stroke-linejoin:miter;stroke-opacity:1" d="M 735.871,593.419 745.161,588.258 z" id="boundary" inkscape:connector-curvature="0" />
	<path style="fill:none;stroke:red;stroke-width:1px;stroke-linecap:butt;stroke-linejoin:miter;stroke-opacity:1" d="M 737.935,463.355 748.258,466.452 z" id="boundary" inkscape:connector-curvature="0" />
	<path style="fill:none;stroke:red;stroke-width:1px;stroke-linecap:butt;stroke-linejoin:miter;stroke-opacity:1" d="M 740,287.871 750.323,287.871 z" id="boundary" inkscape:connector-curvature="0" />
	<path style="fill:none;stroke:red;stroke-width:1px;stroke-linecap:butt;stroke-linejoin:miter;stroke-opacity:1" d="M 741.032,417.935 750.323,411.742 z" id="boundary" inkscape:connector-curvature="0" />
	<path style="fill:none;stroke:red;stroke-width:1px;stroke-linecap:butt;stroke-linejoin:miter;stroke-opacity:1" d="M 745.161,588.258 755.484,588.258 z" id="boundary" inkscape:connector-curvature="0" />
	<path style="fill:none;stroke:red;stroke-width:1px;stroke-linecap:butt;stroke-linejoin:miter;stroke-opacity:1" d="M 748.258,466.452 758.581,468.516 z" id="boundary" inkscape:connector-curvature="0" />
	<path style="fill:none;stroke:red;stroke-width:1px;stroke-linecap:butt;stroke-linejoin:miter;stroke-opacity:1" d="M 750.323,287.871 760.645,287.871 z" id="boundary" inkscape:connector-curvature="0" />
	<path style="fill:none;stroke:red;stroke-width:1px;stroke-linecap:butt;stroke-linejoin:miter;stroke-opacity:1" d="M 750.323,411.742 760.645,406.581 z" id="boundary" inkscape:connector-curvature="0" />
	<path style="fill:none;stroke:red;stroke-width:1px;stroke-linecap:butt;stroke-linejoin:miter;stroke-opacity:1" d="M 755.484,588.258 764.774,583.097 z" id="boundary" inkscape:connector-curvature="0" />
	<path style="fill:none;stroke:red;stroke-width:1px;stroke-linecap:butt;stroke-linejoin:miter;stroke-opacity:1" d="M 758.581,468.516 767.871,473.677 z" id="boundary" inkscape:connector-curvature="0" />
	<path style="fill:none;stroke:red;stroke-width:1px;stroke-linecap:butt;stroke-linejoin:miter;stroke-opacity:1" d="M 760.645,287.871 770.968,287.871 z" id="boundary" inkscape:connector-curvature="0" />
	<path style="fill:none;stroke:red;stroke-width:1px;stroke-linecap:butt;stroke-linejoin:miter;stroke-opacity:1" d="M 760.645,406.581 768.903,392.129 z" id="boundary" inkscape:connector-curvature="0" />
	<path style="fill:none;stroke:red;stroke-width:1px;stroke-linecap:butt;stroke-linejoin:miter;stroke-opacity:1" d="M 764.774,583.097 774.065,577.935 z" id="boundary" inkscape:connector-curvature="0" />
	<path style="fill:none;stroke:red;stroke-width:1px;stroke-linecap:butt;stroke-linejoin:miter;stroke-opacity:1" d="M 767.871,473.677 776.129,479.871 z" id="boundary" inkscape:connector-curvature="0" />
	<path style="fill:none;stroke:red;stroke-width:1px;stroke-linecap:butt;stroke-linejoin:miter;stroke-opacity:1" d="M 768.903,392.129 778.194,386.968 z" id="boundary" inkscape:connector-curvature="0" />
	<path style="fill:none;stroke:red;stroke-width:1px;stroke-linecap:butt;stroke-linejoin:miter;stroke-opacity:1" d="M 770.968,287.871 781.29,287.871 z" id="boundary" inkscape:connector-curvature="0" />
	<path style="fill:none;stroke:red;stroke-width:1px;stroke-linecap:butt;stroke-linejoin:miter;stroke-opacity:1" d="M 774.065,577.935 784.387,572.774 z" id="boundary" inkscape:connector-curvature="0" />
	<path style="fill:none;stroke:red;stroke-width:1px;stroke-linecap:butt;stroke-linejoin:miter;stroke-opacity:1" d="M 776.129,479.871 781.29,489.161 z" id="boundary" inkscape:connector-curvature="0" />
	<path style="fill:none;stroke:red;stroke-width:1px;stroke-linecap:butt;stroke-linejoin:miter;stroke-opacity:1" d="M 778.194,386.968 786.452,380.774 z" id="boundary" inkscape:connector-curvature="0" />
	<path style="fill:none;stroke:red;stroke-width:1px;stroke-linecap:butt;stroke-linejoin:miter;stroke-opacity:1" d="M 781.29,287.871 790.581,282.71 z" id="boundary" inkscape:connector-curvature="0" />
	<path style="fill:none;stroke:red;stroke-width:1px;stroke-linecap:butt;stroke-linejoin:miter;stroke-opacity:1" d="M 781.29,489.161 788.516,497.419 z" id="boundary" inkscape:connector-curvature="0" />
	<path style="fill:none;stroke:red;stroke-width:1px;stroke-linecap:butt;stroke-linejoin:miter;stroke-opacity:1" d="M 784.387,572.774 792.645,565.548 z" id="boundary" inkscape:connector-curvature="0" />
	<path style="fill:none;stroke:red;stroke-width:1px;stroke-linecap:butt;stroke-linejoin:miter;stroke-opacity:1" d="M 786.452,380.774 794.71,371.484 z" id="boundary" inkscape:connector-curvature="0" />
	<path style="fill:none;stroke:red;stroke-width:1px;stroke-linecap:butt;stroke-linejoin:miter;stroke-opacity:1" d="M 788.516,497.419 794.71,505.677 z" id="boundary" inkscape:connector-curvature="0" />
	<path style="fill:none;stroke:red;stroke-width:1px;stroke-linecap:butt;stroke-linejoin:miter;stroke-opacity:1" d="M 790.581,282.71 800.903,282.71 z" id="boundary" inkscape:connector-curvature="0" />
	<path style="fill:none;stroke:red;stroke-width:1px;stroke-linecap:butt;stroke-linejoin:miter;stroke-opacity:1" d="M 792.645,565.548 794.71,546.968 z" id="boundary" inkscape:connector-curvature="0" />
	<path style="fill:none;stroke:red;stroke-width:1px;stroke-linecap:butt;stroke-linejoin:miter;stroke-opacity:1" d="M 794.71,371.484 804,366.323 z" id="boundary" inkscape:connector-curvature="0" />
	<path style="fill:none;stroke:red;stroke-width:1px;stroke-linecap:butt;stroke-linejoin:miter;stroke-opacity:1" d="M 794.71,505.677 794.71,516 z" id="boundary" inkscape:connector-curvature="0" />
	<path style="fill:none;stroke:red;stroke-width:1px;stroke-linecap:butt;stroke-linejoin:miter;stroke-opacity:1" d="M 794.71,516 794.71,526.323 z" id="boundary" inkscape:connector-curvature="0" />
	<path style="fill:none;stroke:red;stroke-width:1px;stroke-linecap:butt;stroke-linejoin:miter;stroke-opacity:1" d="M 794.71,526.323 794.71,536.645 z" id="boundary" inkscape:connector-curvature="0" />
	<path style="fill:none;stroke:red;stroke-width:1px;stroke-linecap:butt;stroke-linejoin:miter;stroke-opacity:1" d="M 794.71,536.645 794.71,546.968 z" id="boundary" inkscape:connector-curvature="0" />
	<path style="fill:none;stroke:red;stroke-width:1px;stroke-linecap:butt;stroke-linejoin:miter;stroke-opacity:1" d="M 800.903,282.71 810.194,277.548 z" id="boundary" inkscape:connector-curvature="0" />
	<path style="fill:none;stroke:red;stroke-width:1px;stroke-linecap:butt;stroke-linejoin:miter;stroke-opacity:1" d="M 804,366.323 812.258,360.129 z" id="boundary" inkscape:connector-curvature="0" />
	<path style="fill:none;stroke:red;stroke-width:1px;stroke-linecap:butt;stroke-linejoin:miter;stroke-opacity:1" d="M 810.194,277.548 820.516,277.548 z" id="boundary" inkscape:connector-curvature="0" />
	<path style="fill:none;stroke:red;stroke-width:1px;stroke-linecap:butt;stroke-linejoin:miter;stroke-opacity:1" d="M 812.258,360.129 820.516,350.839 z" id="boundary" inkscape:connector-curvature="0" />
	<path style="fill:none;stroke:red;stroke-width:1px;stroke-linecap:butt;stroke-linejoin:miter;stroke-opacity:1" d="M 820.516,277.548 829.806,272.387 z" id="boundary" inkscape:connector-curvature="0" />
	<path style="fill:none;stroke:red;stroke-width:1px;stroke-linecap:butt;stroke-linejoin:miter;stroke-opacity:1" d="M 820.516,350.839 829.806,345.677 z" id="boundary" inkscape:connector-curvature="0" />
	<path style="fill:none;stroke:red;stroke-width:1px;stroke-linecap:butt;stroke-linejoin:miter;stroke-opacity:1" d="M 829.806,272.387 839.097,267.226 z" id="boundary" inkscape:connector-curvature="0" />
	<path style="fill:none;stroke:red;stroke-width:1px;stroke-linecap:butt;stroke-linejoin:miter;stroke-opacity:1" d="M 829.806,345.677 840.129,345.677 z" id="boundary" inkscape:connector-curvature="0" />
	<path style="fill:none;stroke:red;stroke-width:1px;stroke-linecap:butt;stroke-linejoin:miter;stroke-opacity:1" d="M 839.097,267.226 849.419,267.226 z" id="boundary" inkscape:connector-curvature="0" />
	<path style="fill:none;stroke:red;stroke-width:1px;stroke-linecap:butt;stroke-linejoin:miter;stroke-opacity:1" d="M 840.129,345.677 850.452,345.677 z" id="boundary" inkscape:connector-curvature="0" />
	<path style="fill:none;stroke:red;stroke-width:1px;stroke-linecap:butt;stroke-linejoin:miter;stroke-opacity:1" d="M 849.419,267.226 859.742,267.226 z" id="boundary" inkscape:connector-curvature="0" />
	<path style="fill:none;stroke:red;stroke-width:1px;stroke-linecap:butt;stroke-linejoin:miter;stroke-opacity:1" d="M 850.452,345.677 860.774,342.581 z" id="boundary" inkscape:connector-curvature="0" />
	<path style="fill:none;stroke:red;stroke-width:1px;stroke-linecap:butt;stroke-linejoin:miter;stroke-opacity:1" d="M 859.742,267.226 870.065,267.226 z" id="boundary" inkscape:connector-curvature="0" />
	<path style="fill:none;stroke:red;stroke-width:1px;stroke-linecap:butt;stroke-linejoin:miter;stroke-opacity:1" d="M 860.774,342.581 871.097,340.516 z" id="boundary" inkscape:connector-curvature="0" />
	<path style="fill:none;stroke:red;stroke-width:1px;stroke-linecap:butt;stroke-linejoin:miter;stroke-opacity:1" d="M 870.065,267.226 879.355,262.065 z" id="boundary" inkscape:connector-curvature="0" />
	<path style="fill:none;stroke:red;stroke-width:1px;stroke-linecap:butt;stroke-linejoin:miter;stroke-opacity:1" d="M 871.097,340.516 881.419,340.516 z" id="boundary" inkscape:connector-curvature="0" />
	<path style="fill:none;stroke:red;stroke-width:1px;stroke-linecap:butt;stroke-linejoin:miter;stroke-opacity:1" d="M 879.355,262.065 889.677,262.065 z" id="boundary" inkscape:connector-curvature="0" />
	<path style="fill:none;stroke:red;stroke-width:1px;stroke-linecap:butt;stroke-linejoin:miter;stroke-opacity:1" d="M 881.419,340.516 890.71,335.355 z" id="boundary" inkscape:connector-curvature="0" />
	<path style="fill:none;stroke:red;stroke-width:1px;stroke-linecap:butt;stroke-linejoin:miter;stroke-opacity:1" d="M 889.677,262.065 900,262.065 z" id="boundary" inkscape:connector-curvature="0" />
	<path style="fill:none;stroke:red;stroke-width:1px;stroke-linecap:butt;stroke-linejoin:miter;stroke-opacity:1" d="M 890.71,335.355 901.032,335.355 z" id="boundary" inkscape:connector-curvature="0" />
	<path style="fill:none;stroke:red;stroke-width:1px;stroke-linecap:butt;stroke-linejoin:miter;stroke-opacity:1" d="M 900,262.065 909.29,256.903 z" id="boundary" inkscape:connector-curvature="0" />
	<path style="fill:none;stroke:red;stroke-width:1px;stroke-linecap:butt;stroke-linejoin:miter;stroke-opacity:1" d="M 901.032,335.355 911.355,335.355 z" id="boundary" inkscape:connector-curvature="0" />
	<path style="fill:none;stroke:red;stroke-width:1px;stroke-linecap:butt;stroke-linejoin:miter;stroke-opacity:1" d="M 909.29,256.903 918.581,251.742 z" id="boundary" inkscape:connector-curvature="0" />
	<path style="fill:none;stroke:red;stroke-width:1px;stroke-linecap:butt;stroke-linejoin:miter;stroke-opacity:1" d="M 911.355,335.355 920.645,330.194 z" id="boundary" inkscape:connector-curvature="0" />
	<path style="fill:none;stroke:red;stroke-width:1px;stroke-linecap:butt;stroke-linejoin:miter;stroke-opacity:1" d="M 918.581,251.742 928.903,251.742 z" id="boundary" inkscape:connector-curvature="0" />
	<path style="fill:none;stroke:red;stroke-width:1px;stroke-linecap:butt;stroke-linejoin:miter;stroke-opacity:1" d="M 920.645,330.194 930.968,330.194 z" id="boundary" inkscape:connector-curvature="0" />
	<path style="fill:none;stroke:red;stroke-width:1px;stroke-linecap:butt;stroke-linejoin:miter;stroke-opacity:1" d="M 928.903,251.742 938.194,246.581 z" id="boundary" inkscape:connector-curvature="0" />
	<path style="fill:none;stroke:red;stroke-width:1px;stroke-linecap:butt;stroke-linejoin:miter;stroke-opacity:1" d="M 930.968,330.194 940.258,325.032 z" id="boundary" inkscape:connector-curvature="0" />
	<path style="fill:none;stroke:red;stroke-width:1px;stroke-linecap:butt;stroke-linejoin:miter;stroke-opacity:1" d="M 938.194,246.581 948.516,244.516 z" id="boundary" inkscape:connector-curvature="0" />
	<path style="fill:none;stroke:red;stroke-width:1px;stroke-linecap:butt;stroke-linejoin:miter;stroke-opacity:1" d="M 940.258,325.032 950.581,325.032 z" id="boundary" inkscape:connector-curvature="0" />
	<path style="fill:none;stroke:red;stroke-width:1px;stroke-linecap:butt;stroke-linejoin:miter;stroke-opacity:1" d="M 948.516,244.516 958.839,241.419 z" id="boundary" inkscape:connector-curvature="0" />
	<path style="fill:none;stroke:red;stroke-width:1px;stroke-linecap:butt;stroke-linejoin:miter;stroke-opacity:1" d="M 950.581,325.032 959.871,319.871 z" id="boundary" inkscape:connector-curvature="0" />
	<path style="fill:none;stroke:red;stroke-width:1px;stroke-linecap:butt;stroke-linejoin:miter;stroke-opacity:1" d="M 958.839,241.419 969.161,241.419 z" id="boundary" inkscape:connector-curvature="0" />
	<path style="fill:none;stroke:red;stroke-width:1px;stroke-linecap:butt;stroke-linejoin:miter;stroke-opacity:1" d="M 959.871,319.871 968.129,312.645 z" id="boundary" inkscape:connector-curvature="0" />
	<path style="fill:none;stroke:red;stroke-width:1px;stroke-linecap:butt;stroke-linejoin:miter;stroke-opacity:1" d="M 968.129,312.645 975.355,304.387 z" id="boundary" inkscape:connector-curvature="0" />
	<path style="fill:none;stroke:red;stroke-width:1px;stroke-linecap:butt;stroke-linejoin:miter;stroke-opacity:1" d="M 969.161,241.419 979.484,241.419 z" id="boundary" inkscape:connector-curvature="0" />
	<path style="fill:none;stroke:red;stroke-width:1px;stroke-linecap:butt;stroke-linejoin:miter;stroke-opacity:1" d="M 975.355,304.387 983.613,297.161 z" id="boundary" inkscape:connector-curvature="0" />
	<path style="fill:none;stroke:red;stroke-width:1px;stroke-linecap:butt;stroke-linejoin:miter;stroke-opacity:1" d="M 979.484,241.419 987.742,247.613 z" id="boundary" inkscape:connector-curvature="0" />
	<path style="fill:none;stroke:red;stroke-width:1px;stroke-linecap:butt;stroke-linejoin:miter;stroke-opacity:1" d="M 983.613,297.161 988.774,286.839 z" id="boundary" inkscape:connector-curvature="0" />
	<path style="fill:none;stroke:red;stroke-width:1px;stroke-linecap:butt;stroke-linejoin:miter;stroke-opacity:1" d="M 987.742,247.613 996,254.839 z" id="boundary" inkscape:connector-curvature="0" />
	<path style="fill:none;stroke:red;stroke-width:1px;stroke-linecap:butt;stroke-linejoin:miter;stroke-opacity:1" d="M 988.774,286.839 993.935,276.516 z" id="boundary" inkscape:connector-curvature="0" />
	<path style="fill:none;stroke:red;stroke-width:1px;stroke-linecap:butt;stroke-linejoin:miter;stroke-opacity:1" d="M 993.935,276.516 996,265.161 z" id="boundary" inkscape:connector-curvature="0" />
	<path style="fill:none;stroke:red;stroke-width:1px;stroke-linecap:butt;stroke-linejoin:miter;stroke-opacity:1" d="M 996,254.839 996,265.161 z" id="boundary" inkscape:connector-curvature="0" />
	<circle cx="4" cy="667.742" r="4" fill="#0" id="circle0"/>
	<circle cx="4" cy="678.065" r="4" fill="#0" id="circle1"/>
	<circle cx="4" cy="688.387" r="4" fill="#0" id="circle2"/>
	<circle cx="4" cy="698.71" r="4" fill="#0" id="circle3"/>
	<circle cx="9.16129" cy="657.419" r="4" fill="#0" id="circle4"/>
	<circle cx="9.16129" cy="708" r="4" fill="#0" id="circle5"/>
	<circle cx="16.3871" cy="716.258" r="4" fill="#0" id="circle6"/>
	<circle cx="19.4839" cy="652.258" r="4" fill="#0" id="circle7"/>
	<circle cx="26.7097" cy="717.29" r="4" fill="#0" id="circle8"/>
	<circle cx="29.8065" cy="440.645" r="4" fill="#0" id="circle9"/>
	<circle cx="29.8065" cy="450.968" r="4" fill="#0" id="circle10"/>
	<circle cx="29.8065" cy="461.29" r="4" fill="#0" id="circle11"/>
	<circle cx="29.8065" cy="471.613" r="4" fill="#0" id="circle12"/>
	<circle cx="29.8065" cy="481.935" r="4" fill="#0" id="circle13"/>
	<circle cx="29.8065" cy="492.258" r="4" fill="#0" id="circle14"/>
	<circle cx="29.8065" cy="502.581" r="4" fill="#0" id="circle15"/>
	<circle cx="29.8065" cy="512.903" r="4" fill="#0" id="circle16"/>
	<circle cx="29.8065" cy="523.226" r="4" fill="#0" id="circle17"/>
	<circle cx="29.8065" cy="533.548" r="4" fill="#0" id="circle18"/>
	<circle cx="29.8065" cy="543.871" r="4" fill="#0" id="circle19"/>
	<circle cx="29.8065" cy="647.097" r="4" fill="#0" id="circle20"/>
	<circle cx="34.9677" cy="409.677" r="4" fill="#0" id="circle21"/>
	<circle cx="34.9677" cy="420" r="4" fill="#0" id="circle22"/>
	<circle cx="34.9677" cy="430.323" r="4" fill="#0" id="circle23"/>
	<circle cx="34.9677" cy="553.161" r="4" fill="#0" id="circle24"/>
	<circle cx="34.9677" cy="563.484" r="4" fill="#0" id="circle25"/>
	<circle cx="36" cy="712.129" r="4" fill="#0" id="circle26"/>
	<circle cx="40.129" cy="389.032" r="4" fill="#0" id="circle27"/>
	<circle cx="40.129" cy="399.355" r="4" fill="#0" id="circle28"/>
	<circle cx="40.129" cy="572.774" r="4" fill="#0" id="circle29"/>
	<circle cx="40.129" cy="644" r="4" fill="#0" id="circle30"/>
	<circle cx="45.2903" cy="373.548" r="4" fill="#0" id="circle31"/>
	<circle cx="46.3226" cy="581.032" r="4" fill="#0" id="circle32"/>
	<circle cx="46.3226" cy="706.968" r="4" fill="#0" id="circle33"/>
	<circle cx="50.4516" cy="352.903" r="4" fill="#0" id="circle34"/>
	<circle cx="50.4516" cy="363.226" r="4" fill="#0" id="circle35"/>
	<circle cx="50.4516" cy="641.935" r="4" fill="#0" id="circle36"/>
	<circle cx="55.6129" cy="321.935" r="4" fill="#0" id="circle37"/>
	<circle cx="55.6129" cy="332.258" r="4" fill="#0" id="circle38"/>
	<circle cx="55.6129" cy="342.581" r="4" fill="#0" id="circle39"/>
	<circle cx="56.6452" cy="585.161" r="4" fill="#0" id="circle40"/>
	<circle cx="56.6452" cy="701.806" r="4" fill="#0" id="circle41"/>
	<circle cx="60.7742" cy="311.613" r="4" fill="#0" id="circle42"/>
	<circle cx="60.7742" cy="640.903" r="4" fill="#0" id="circle43"/>
	<circle cx="65.9355" cy="301.29" r="4" fill="#0" id="circle44"/>
	<circle cx="66.9677" cy="588.258" r="4" fill="#0" id="circle45"/>
	<circle cx="66.9677" cy="649.161" r="4" fill="#0" id="circle46"/>
	<circle cx="66.9677" cy="701.806" r="4" fill="#0" id="circle47"/>
	<circle cx="71.0968" cy="290.968" r="4" fill="#0" id="circle48"/>
	<circle cx="72.129" cy="658.452" r="4" fill="#0" id="circle49"/>
	<circle cx="72.129" cy="668.774" r="4" fill="#0" id="circle50"/>
	<circle cx="77.2903" cy="588.258" r="4" fill="#0" id="circle51"/>
	<circle cx="77.2903" cy="696.645" r="4" fill="#0" id="circle52"/>
	<circle cx="79.3548" cy="282.71" r="4" fill="#0" id="circle53"/>
	<circle cx="82.4516" cy="669.806" r="4" fill="#0" id="circle54"/>
	<circle cx="84.5161" cy="272.387" r="4" fill="#0" id="circle55"/>
	<circle cx="87.6129" cy="588.258" r="4" fill="#0" id="circle56"/>
	<circle cx="87.6129" cy="696.645" r="4" fill="#0" id="circle57"/>
	<circle cx="92.7742" cy="264.129" r="4" fill="#0" id="circle58"/>
	<circle cx="92.7742" cy="669.806" r="4" fill="#0" id="circle59"/>
	<circle cx="97.9355" cy="588.258" r="4" fill="#0" id="circle60"/>
	<circle cx="97.9355" cy="691.484" r="4" fill="#0" id="circle61"/>
	<circle cx="101.032" cy="256.903" r="4" fill="#0" id="circle62"/>
	<circle cx="103.097" cy="666.71" r="4" fill="#0" id="circle63"/>
	<circle cx="108.258" cy="588.258" r="4" fill="#0" id="circle64"/>
	<circle cx="108.258" cy="691.484" r="4" fill="#0" id="circle65"/>
	<circle cx="110.323" cy="251.742" r="4" fill="#0" id="circle66"/>
	<circle cx="113.419" cy="661.548" r="4" fill="#0" id="circle67"/>
	<circle cx="118.581" cy="243.484" r="4" fill="#0" id="circle68"/>
	<circle cx="118.581" cy="590.323" r="4" fill="#0" id="circle69"/>
	<circle cx="118.581" cy="686.323" r="4" fill="#0" id="circle70"/>
	<circle cx="123.742" cy="659.484" r="4" fill="#0" id="circle71"/>
	<circle cx="126.839" cy="236.258" r="4" fill="#0" id="circle72"/>
	<circle cx="128.903" cy="593.419" r="4" fill="#0" id="circle73"/>
	<circle cx="128.903" cy="686.323" r="4" fill="#0" id="circle74"/>
	<circle cx="134.065" cy="659.484" r="4" fill="#0" id="circle75"/>
	<circle cx="136.129" cy="231.097" r="4" fill="#0" id="circle76"/>
	<circle cx="138.194" cy="598.581" r="4" fill="#0" id="circle77"/>
	<circle cx="139.226" cy="686.323" r="4" fill="#0" id="circle78"/>
	<circle cx="144.387" cy="656.387" r="4" fill="#0" id="circle79"/>
	<circle cx="145.419" cy="225.935" r="4" fill="#0" id="circle80"/>
	<circle cx="147.484" cy="603.742" r="4" fill="#0" id="circle81"/>
	<circle cx="149.548" cy="681.161" r="4" fill="#0" id="circle82"/>
	<circle cx="153.677" cy="218.71" r="4" fill="#0" id="circle83"/>
	<circle cx="154.71" cy="654.323" r="4" fill="#0" id="circle84"/>
	<circle cx="157.806" cy="603.742" r="4" fill="#0" id="circle85"/>
	<circle cx="159.871" cy="681.161" r="4" fill="#0" id="circle86"/>
	<circle cx="161.935" cy="210.452" r="4" fill="#0" id="circle87"/>
	<circle cx="165.032" cy="654.323" r="4" fill="#0" id="circle88"/>
	<circle cx="168.129" cy="603.742" r="4" fill="#0" id="circle89"/>
	<circle cx="170.194" cy="681.161" r="4" fill="#0" id="circle90"/>
	<circle cx="172.258" cy="205.29" r="4" fill="#0" id="circle91"/>
	<circle cx="172.258" cy="614.065" r="4" fill="#0" id="circle92"/>
	<circle cx="174.323" cy="649.161" r="4" fill="#0" id="circle93"/>
	<circle cx="180.516" cy="621.29" r="4" fill="#0" id="circle94"/>
	<circle cx="180.516" cy="681.161" r="4" fill="#0" id="circle95"/>
	<circle cx="182.581" cy="205.29" r="4" fill="#0" id="circle96"/>
	<circle cx="183.613" cy="644" r="4" fill="#0" id="circle97"/>
	<circle cx="184.645" cy="631.613" r="4" fill="#0" id="circle98"/>
	<circle cx="190.839" cy="681.161" r="4" fill="#0" id="circle99"/>
	<circle cx="191.871" cy="200.129" r="4" fill="#0" id="circle100"/>
	<circle cx="201.161" cy="681.161" r="4" fill="#0" id="circle101"/>
	<circle cx="202.194" cy="196" r="4" fill="#0" id="circle102"/>
	<circle cx="211.484" cy="681.161" r="4" fill="#0" id="circle103"/>
	<circle cx="212.516" cy="194.968" r="4" fill="#0" id="circle104"/>
	<circle cx="221.806" cy="676" r="4" fill="#0" id="circle105"/>
	<circle cx="222.839" cy="190.839" r="4" fill="#0" id="circle106"/>
	<circle cx="232.129" cy="676" r="4" fill="#0" id="circle107"/>
	<circle cx="233.161" cy="189.806" r="4" fill="#0" id="circle108"/>
	<circle cx="242.452" cy="676" r="4" fill="#0" id="circle109"/>
	<circle cx="243.484" cy="185.677" r="4" fill="#0" id="circle110"/>
	<circle cx="252.774" cy="676" r="4" fill="#0" id="circle111"/>
	<circle cx="253.806" cy="184.645" r="4" fill="#0" id="circle112"/>
	<circle cx="263.097" cy="676" r="4" fill="#0" id="circle113"/>
	<circle cx="264.129" cy="184.645" r="4" fill="#0" id="circle114"/>
	<circle cx="272.387" cy="670.839" r="4" fill="#0" id="circle115"/>
	<circle cx="274.452" cy="180.516" r="4" fill="#0" id="circle116"/>
	<circle cx="282.71" cy="670.839" r="4" fill="#0" id="circle117"/>
	<circle cx="284.774" cy="179.484" r="4" fill="#0" id="circle118"/>
	<circle cx="293.032" cy="670.839" r="4" fill="#0" id="circle119"/>
	<circle cx="295.097" cy="179.484" r="4" fill="#0" id="circle120"/>
	<circle cx="303.355" cy="670.839" r="4" fill="#0" id="circle121"/>
	<circle cx="305.419" cy="179.484" r="4" fill="#0" id="circle122"/>
	<circle cx="313.677" cy="670.839" r="4" fill="#0" id="circle123"/>
	<circle cx="314.71" cy="174.323" r="4" fill="#0" id="circle124"/>
	<circle cx="322.968" cy="665.677" r="4" fill="#0" id="circle125"/>
	<circle cx="325.032" cy="174.323" r="4" fill="#0" id="circle126"/>
	<circle cx="329.161" cy="43.2258" r="4" fill="#0" id="circle127"/>
	<circle cx="329.161" cy="53.5484" r="4" fill="#0" id="circle128"/>
	<circle cx="329.161" cy="63.871" r="4" fill="#0" id="circle129"/>
	<circle cx="333.29" cy="665.677" r="4" fill="#0" id="circle130"/>
	<circle cx="335.355" cy="171.226" r="4" fill="#0" id="circle131"/>
	<circle cx="337.419" cy="34.9677" r="4" fill="#0" id="circle132"/>
	<circle cx="337.419" cy="71.0968" r="4" fill="#0" id="circle133"/>
	<circle cx="343.613" cy="665.677" r="4" fill="#0" id="circle134"/>
	<circle cx="345.677" cy="77.2903" r="4" fill="#0" id="circle135"/>
	<circle cx="345.677" cy="169.161" r="4" fill="#0" id="circle136"/>
	<circle cx="346.71" cy="29.8065" r="4" fill="#0" id="circle137"/>
	<circle cx="353.935" cy="665.677" r="4" fill="#0" id="circle138"/>
	<circle cx="356" cy="24.6452" r="4" fill="#0" id="circle139"/>
	<circle cx="356" cy="77.2903" r="4" fill="#0" id="circle140"/>
	<circle cx="356" cy="166.065" r="4" fill="#0" id="circle141"/>
	<circle cx="364.258" cy="665.677" r="4" fill="#0" id="circle142"/>
	<circle cx="365.29" cy="82.4516" r="4" fill="#0" id="circle143"/>
	<circle cx="365.29" cy="92.7742" r="4" fill="#0" id="circle144"/>
	<circle cx="365.29" cy="103.097" r="4" fill="#0" id="circle145"/>
	<circle cx="366.323" cy="24.6452" r="4" fill="#0" id="circle146"/>
	<circle cx="366.323" cy="164" r="4" fill="#0" id="circle147"/>
	<circle cx="371.484" cy="111.355" r="4" fill="#0" id="circle148"/>
	<circle cx="374.581" cy="663.613" r="4" fill="#0" id="circle149"/>
	<circle cx="376.645" cy="24.6452" r="4" fill="#0" id="circle150"/>
	<circle cx="376.645" cy="164" r="4" fill="#0" id="circle151"/>
	<circle cx="379.742" cy="118.581" r="4" fill="#0" id="circle152"/>
	<circle cx="384.903" cy="660.516" r="4" fill="#0" id="circle153"/>
	<circle cx="386.968" cy="24.6452" r="4" fill="#0" id="circle154"/>
	<circle cx="386.968" cy="160.903" r="4" fill="#0" id="circle155"/>
	<circle cx="389.032" cy="123.742" r="4" fill="#0" id="circle156"/>
	<circle cx="391.097" cy="134.065" r="4" fill="#0" id="circle157"/>
	<circle cx="391.097" cy="144.387" r="4" fill="#0" id="circle158"/>
	<circle cx="395.226" cy="660.516" r="4" fill="#0" id="circle159"/>
	<circle cx="397.29" cy="21.5484" r="4" fill="#0" id="circle160"/>
	<circle cx="404.516" cy="655.355" r="4" fill="#0" id="circle161"/>
	<circle cx="407.613" cy="19.4839" r="4" fill="#0" id="circle162"/>
	<circle cx="413.806" cy="650.194" r="4" fill="#0" id="circle163"/>
	<circle cx="416.903" cy="14.3226" r="4" fill="#0" id="circle164"/>
	<circle cx="417.935" cy="639.871" r="4" fill="#0" id="circle165"/>
	<circle cx="423.097" cy="629.548" r="4" fill="#0" id="circle166"/>
	<circle cx="427.226" cy="14.3226" r="4" fill="#0" id="circle167"/>
	<circle cx="428.258" cy="56.6452" r="4" fill="#0" id="circle168"/>
	<circle cx="428.258" cy="66.9677" r="4" fill="#0" id="circle169"/>
	<circle cx="428.258" cy="77.2903" r="4" fill="#0" id="circle170"/>
	<circle cx="428.258" cy="87.6129" r="4" fill="#0" id="circle171"/>
	<circle cx="428.258" cy="619.226" r="4" fill="#0" id="circle172"/>
	<circle cx="433.419" cy="96.9032" r="4" fill="#0" id="circle173"/>
	<circle cx="436.516" cy="9.16129" r="4" fill="#0" id="circle174"/>
	<circle cx="438.581" cy="51.4839" r="4" fill="#0" id="circle175"/>
	<circle cx="438.581" cy="106.194" r="4" fill="#0" id="circle176"/>
	<circle cx="438.581" cy="614.065" r="4" fill="#0" id="circle177"/>
	<circle cx="443.742" cy="115.484" r="4" fill="#0" id="circle178"/>
	<circle cx="443.742" cy="125.806" r="4" fill="#0" id="circle179"/>
	<circle cx="446.839" cy="9.16129" r="4" fill="#0" id="circle180"/>
	<circle cx="448.903" cy="46.3226" r="4" fill="#0" id="circle181"/>
	<circle cx="448.903" cy="135.097" r="4" fill="#0" id="circle182"/>
	<circle cx="448.903" cy="614.065" r="4" fill="#0" id="circle183"/>
	<circle cx="454.065" cy="144.387" r="4" fill="#0" id="circle184"/>
	<circle cx="456.129" cy="4" r="4" fill="#0" id="circle185"/>
	<circle cx="459.226" cy="41.1613" r="4" fill="#0" id="circle186"/>
	<circle cx="459.226" cy="153.677" r="4" fill="#0" id="circle187"/>
	<circle cx="459.226" cy="608.903" r="4" fill="#0" id="circle188"/>
	<circle cx="463.355" cy="12.2581" r="4" fill="#0" id="circle189"/>
	<circle cx="467.484" cy="33.9355" r="4" fill="#0" id="circle190"/>
	<circle cx="467.484" cy="159.871" r="4" fill="#0" id="circle191"/>
	<circle cx="469.548" cy="20.5161" r="4" fill="#0" id="circle192"/>
	<circle cx="469.548" cy="608.903" r="4" fill="#0" id="circle193"/>
	<circle cx="477.806" cy="164" r="4" fill="#0" id="circle194"/>
	<circle cx="479.871" cy="608.903" r="4" fill="#0" id="circle195"/>
	<circle cx="488.129" cy="164" r="4" fill="#0" id="circle196"/>
	<circle cx="490.194" cy="608.903" r="4" fill="#0" id="circle197"/>
	<circle cx="498.452" cy="164" r="4" fill="#0" id="circle198"/>
	<circle cx="499.484" cy="603.742" r="4" fill="#0" id="circle199"/>
	<circle cx="508.774" cy="164" r="4" fill="#0" id="circle200"/>
	<circle cx="509.806" cy="603.742" r="4" fill="#0" id="circle201"/>
	<circle cx="519.097" cy="164" r="4" fill="#0" id="circle202"/>
	<circle cx="520.129" cy="603.742" r="4" fill="#0" id="circle203"/>
	<circle cx="529.419" cy="164" r="4" fill="#0" id="circle204"/>
	<circle cx="530.452" cy="603.742" r="4" fill="#0" id="circle205"/>
	<circle cx="539.742" cy="164" r="4" fill="#0" id="circle206"/>
	<circle cx="540.774" cy="603.742" r="4" fill="#0" id="circle207"/>
	<circle cx="550.065" cy="164" r="4" fill="#0" id="circle208"/>
	<circle cx="551.097" cy="603.742" r="4" fill="#0" id="circle209"/>
	<circle cx="559.355" cy="158.839" r="4" fill="#0" id="circle210"/>
	<circle cx="561.419" cy="603.742" r="4" fill="#0" id="circle211"/>
	<circle cx="567.613" cy="150.581" r="4" fill="#0" id="circle212"/>
	<circle cx="571.742" cy="603.742" r="4" fill="#0" id="circle213"/>
	<circle cx="577.935" cy="145.419" r="4" fill="#0" id="circle214"/>
	<circle cx="582.065" cy="603.742" r="4" fill="#0" id="circle215"/>
	<circle cx="588.258" cy="148.516" r="4" fill="#0" id="circle216"/>
	<circle cx="592.387" cy="603.742" r="4" fill="#0" id="circle217"/>
	<circle cx="596.516" cy="154.71" r="4" fill="#0" id="circle218"/>
	<circle cx="600.645" cy="165.032" r="4" fill="#0" id="circle219"/>
	<circle cx="602.71" cy="603.742" r="4" fill="#0" id="circle220"/>
	<circle cx="605.806" cy="174.323" r="4" fill="#0" id="circle221"/>
	<circle cx="613.032" cy="603.742" r="4" fill="#0" id="circle222"/>
	<circle cx="615.097" cy="179.484" r="4" fill="#0" id="circle223"/>
	<circle cx="623.355" cy="603.742" r="4" fill="#0" id="circle224"/>
	<circle cx="624.387" cy="184.645" r="4" fill="#0" id="circle225"/>
	<circle cx="624.387" cy="273.419" r="4" fill="#0" id="circle226"/>
	<circle cx="624.387" cy="283.742" r="4" fill="#0" id="circle227"/>
	<circle cx="629.548" cy="293.032" r="4" fill="#0" id="circle228"/>
	<circle cx="633.677" cy="189.806" r="4" fill="#0" id="circle229"/>
	<circle cx="633.677" cy="603.742" r="4" fill="#0" id="circle230"/>
	<circle cx="634.71" cy="273.419" r="4" fill="#0" id="circle231"/>
	<circle cx="639.871" cy="296.129" r="4" fill="#0" id="circle232"/>
	<circle cx="641.935" cy="196" r="4" fill="#0" id="circle233"/>
	<circle cx="644" cy="603.742" r="4" fill="#0" id="circle234"/>
	<circle cx="645.032" cy="273.419" r="4" fill="#0" id="circle235"/>
	<circle cx="648.129" cy="303.355" r="4" fill="#0" id="circle236"/>
	<circle cx="652.258" cy="200.129" r="4" fill="#0" id="circle237"/>
	<circle cx="654.323" cy="603.742" r="4" fill="#0" id="circle238"/>
	<circle cx="655.355" cy="273.419" r="4" fill="#0" id="circle239"/>
	<circle cx="658.452" cy="303.355" r="4" fill="#0" id="circle240"/>
	<circle cx="661.548" cy="205.29" r="4" fill="#0" id="circle241"/>
	<circle cx="664.645" cy="268.258" r="4" fill="#0" id="circle242"/>
	<circle cx="664.645" cy="603.742" r="4" fill="#0" id="circle243"/>
	<circle cx="667.742" cy="298.194" r="4" fill="#0" id="circle244"/>
	<circle cx="669.806" cy="212.516" r="4" fill="#0" id="circle245"/>
	<circle cx="670.839" cy="257.935" r="4" fill="#0" id="circle246"/>
	<circle cx="673.935" cy="222.839" r="4" fill="#0" id="circle247"/>
	<circle cx="674.968" cy="600.645" r="4" fill="#0" id="circle248"/>
	<circle cx="676" cy="233.161" r="4" fill="#0" id="circle249"/>
	<circle cx="676" cy="243.484" r="4" fill="#0" id="circle250"/>
	<circle cx="678.065" cy="293.032" r="4" fill="#0" id="circle251"/>
	<circle cx="685.29" cy="598.581" r="4" fill="#0" id="circle252"/>
	<circle cx="686.323" cy="448.903" r="4" fill="#0" id="circle253"/>
	<circle cx="686.323" cy="459.226" r="4" fill="#0" id="circle254"/>
	<circle cx="688.387" cy="293.032" r="4" fill="#0" id="circle255"/>
	<circle cx="691.484" cy="438.581" r="4" fill="#0" id="circle256"/>
	<circle cx="695.613" cy="598.581" r="4" fill="#0" id="circle257"/>
	<circle cx="696.645" cy="463.355" r="4" fill="#0" id="circle258"/>
	<circle cx="698.71" cy="287.871" r="4" fill="#0" id="circle259"/>
	<circle cx="701.806" cy="433.419" r="4" fill="#0" id="circle260"/>
	<circle cx="705.935" cy="598.581" r="4" fill="#0" id="circle261"/>
	<circle cx="706.968" cy="463.355" r="4" fill="#0" id="circle262"/>
	<circle cx="709.032" cy="287.871" r="4" fill="#0" id="circle263"/>
	<circle cx="712.129" cy="428.258" r="4" fill="#0" id="circle264"/>
	<circle cx="715.226" cy="593.419" r="4" fill="#0" id="circle265"/>
	<circle cx="717.29" cy="463.355" r="4" fill="#0" id="circle266"/>
	<circle cx="719.355" cy="287.871" r="4" fill="#0" id="circle267"/>
	<circle cx="722.452" cy="428.258" r="4" fill="#0" id="circle268"/>
	<circle cx="725.548" cy="593.419" r="4" fill="#0" id="circle269"/>
	<circle cx="727.613" cy="463.355" r="4" fill="#0" id="circle270"/>
	<circle cx="729.677" cy="287.871" r="4" fill="#0" id="circle271"/>
	<circle cx="731.742" cy="423.097" r="4" fill="#0" id="circle272"/>
	<circle cx="735.871" cy="593.419" r="4" fill="#0" id="circle273"/>
	<circle cx="737.935" cy="463.355" r="4" fill="#0" id="circle274"/>
	<circle cx="740" cy="287.871" r="4" fill="#0" id="circle275"/>
	<circle cx="741.032" cy="417.935" r="4" fill="#0" id="circle276"/>
	<circle cx="745.161" cy="588.258" r="4" fill="#0" id="circle277"/>
	<circle cx="748.258" cy="466.452" r="4" fill="#0" id="circle278"/>
	<circle cx="750.323" cy="287.871" r="4" fill="#0" id="circle279"/>
	<circle cx="750.323" cy="411.742" r="4" fill="#0" id="circle280"/>
	<circle cx="755.484" cy="588.258" r="4" fill="#0" id="circle281"/>
	<circle cx="758.581" cy="468.516" r="4" fill="#0" id="circle282"/>
	<circle cx="760.645" cy="287.871" r="4" fill="#0" id="circle283"/>
	<circle cx="760.645" cy="406.581" r="4" fill="#0" id="circle284"/>
	<circle cx="764.774" cy="583.097" r="4" fill="#0" id="circle285"/>
	<circle cx="767.871" cy="473.677" r="4" fill="#0" id="circle286"/>
	<circle cx="768.903" cy="392.129" r="4" fill="#0" id="circle287"/>
	<circle cx="770.968" cy="287.871" r="4" fill="#0" id="circle288"/>
	<circle cx="774.065" cy="577.935" r="4" fill="#0" id="circle289"/>
	<circle cx="776.129" cy="479.871" r="4" fill="#0" id="circle290"/>
	<circle cx="778.194" cy="386.968" r="4" fill="#0" id="circle291"/>
	<circle cx="781.29" cy="287.871" r="4" fill="#0" id="circle292"/>
	<circle cx="781.29" cy="489.161" r="4" fill="#0" id="circle293"/>
	<circle cx="784.387" cy="572.774" r="4" fill="#0" id="circle294"/>
	<circle cx="786.452" cy="380.774" r="4" fill="#0" id="circle295"/>
	<circle cx="788.516" cy="497.419" r="4" fill="#0" id="circle296"/>
	<circle cx="790.581" cy="282.71" r="4" fill="#0" id="circle297"/>
	<circle cx="792.645" cy="565.548" r="4" fill="#0" id="circle298"/>
	<circle cx="794.71" cy="371.484" r="4" fill="#0" id="circle299"/>
	<circle cx="794.71" cy="505.677" r="4" fill="#0" id="circle300"/>
	<circle cx="794.71" cy="516" r="4" fill="#0" id="circle301"/>
	<circle cx="794.71" cy="526.323" r="4" fill="#0" id="circle302"/>
	<circle cx="794.71" cy="536.645" r="4" fill="#0" id="circle303"/>
	<circle cx="794.71" cy="546.968" r="4" fill="#0" id="circle304"/>
	<circle cx="800.903" cy="282.71" r="4" fill="#0" id="circle305"/>
	<circle cx="804" cy="366.323" r="4" fill="#0" id="circle306"/>
	<circle cx="810.194" cy="277.548" r="4" fill="#0" id="circle307"/>
	<circle cx="812.258" cy="360.129" r="4" fill="#0" id="circle308"/>
	<circle cx="820.516" cy="277.548" r="4" fill="#0" id="circle309"/>
	<circle cx="820.516" cy="350.839" r="4" fill="#0" id="circle310"/>
	<circle cx="829.806" cy="272.387" r="4" fill="#0" id="circle311"/>
	<circle cx="829.806" cy="345.677" r="4" fill="#0" id="circle312"/>
	<circle cx="839.097" cy="267.226" r="4" fill="#0" id="circle313"/>
	<circle cx="840.129" cy="345.677" r="4" fill="#0" id="circle314"/>
	<circle cx="849.419" cy="267.226" r="4" fill="#0" id="circle315"/>
	<circle cx="850.452" cy="345.677" r="4" fill="#0" id="circle316"/>
	<circle cx="859.742" cy="267.226" r="4" fill="#0" id="circle317"/>
	<circle cx="860.774" cy="342.581" r="4" fill="#0" id="circle318"/>
	<circle cx="870.065" cy="267.226" r="4" fill="#0" id="circle319"/>
	<circle cx="871.097" cy="340.516" r="4" fill="#0" id="circle320"/>
	<circle cx="879.355" cy="262.065" r="4" fill="#0" id="circle321"/>
	<circle cx="881.419" cy="340.516" r="4" fill="#0" id="circle322"/>
	<circle cx="889.677" cy="262.065" r="4" fill="#0" id="circle323"/>
	<circle cx="890.71" cy="335.355" r="4" fill="#0" id="circle324"/>
	<circle cx="900" cy="262.065" r="4" fill="#0" id="circle325"/>
	<circle cx="901.032" cy="335.355" r="4" fill="#0" id="circle326"/>
	<circle cx="909.29" cy="256.903" r="4" fill="#0" id="circle327"/>
	<circle cx="911.355" cy="335.355" r="4" fill="#0" id="circle328"/>
	<circle cx="918.581" cy="251.742" r="4" fill="#0" id="circle329"/>
	<circle cx="920.645" cy="330.194" r="4" fill="#0" id="circle330"/>
	<circle cx="928.903" cy="251.742" r="4" fill="#0" id="circle331"/>
	<circle cx="930.968" cy="330.194" r="4" fill="#0" id="circle332"/>
	<circle cx="938.194" cy="246.581" r="4" fill="#0" id="circle333"/>
	<circle cx="940.258" cy="325.032" r="4" fill="#0" id="circle334"/>
	<circle cx="948.516" cy="244.516" r="4" fill="#0" id="circle335"/>
	<circle cx="950.581" cy="325.032" r="4" fill="#0" id="circle336"/>
	<circle cx="958.839" cy="241.419" r="4" fill="#0" id="circle337"/>
	<circle cx="959.871" cy="319.871" r="4" fill="#0" id="circle338"/>
	<circle cx="968.129" cy="312.645" r="4" fill="#0" id="circle339"/>
	<circle cx="969.161" cy="241.419" r="4" fill="#0" id="circle340"/>
	<circle cx="975.355" cy="304.387" r="4" fill="#0" id="circle341"/>
	<circle cx="979.484" cy="241.419" r="4" fill="#0" id="circle342"/>
	<circle cx="983.613" cy="297.161" r="4" fill="#0" id="circle343"/>
	<circle cx="987.742" cy="247.613" r="4" fill="#0" id="circle344"/>
	<circle cx="988.774" cy="286.839" r="4" fill="#0" id="circle345"/>
	<circle cx="993.935" cy="276.516" r="4" fill="#0" id="circle346"/>
	<circle cx="996" cy="254.839" r="4" fill="#0" id="circle347"/>
	<circle cx="996" cy="265.161" r="4" fill="#0" id="circle348"/>
	</g>
</svg>