<?xml version="1.0" encoding="UTF-8" standalone="no"?>
<!-- Created with CurveBenchmark -->
<svg
	xmlns:dc="http://purl.org/dc/elements/1.1/"
	xmlns:cc="http://creativecommons.org/ns#"
	xmlns:rdf="http://www.w3.org/1999/02/22-rdf-syntax-ns#"
	xmlns:svg="http://www.w3.org/2000/svg"
	xmlns="http://www.w3.org/2000/svg"
	xmlns:sodipodi="http://sodipodi.sourceforge.net/DTD/sodipodi-0.dtd"
	xmlns:inkscape="http://www.inkscape.org/namespaces/inkscape"
	width="1000"
	height="1000"
	id="svg2"
	version="1.1"
	sodipodi:docname="manifold/hnncrust-mc11.txt">
<defs
	id="defs4" />
<metadata
	id="metadata7">
	<rdf:RDF>
		<cc:Work
			rdf:about="">
			<dc:format>image/svg+xml</dc:format>
			<dc:type
				rdf:resource="http://purl.org/dc/dcmitype/StillImage" />
			<dc:title></dc:title>
		</cc:Work>
	</rdf:RDF>
</metadata>
<g
	inkscape:label="Layer 1"
	inkscape:groupmode="layer"
	id="layer1">
	<path style="fill:none;stroke:red;stroke-width:1px;stroke-linecap:butt;stroke-linejoin:miter;stroke-opacity:1" d="M 298.343,4 318.384,4 z" id="boundary" inkscape:connector-curvature="0" />
	<path style="fill:none;stroke:red;stroke-width:1px;stroke-linecap:butt;stroke-linejoin:miter;stroke-opacity:1" d="M 298.343,4 295.838,21.5354 z" id="boundary" inkscape:connector-curvature="0" />
	<path style="fill:none;stroke:red;stroke-width:1px;stroke-linecap:butt;stroke-linejoin:miter;stroke-opacity:1" d="M 318.384,4 338.424,4 z" id="boundary" inkscape:connector-curvature="0" />
	<path style="fill:none;stroke:red;stroke-width:1px;stroke-linecap:butt;stroke-linejoin:miter;stroke-opacity:1" d="M 338.424,4 354.707,5.25253 z" id="boundary" inkscape:connector-curvature="0" />
	<path style="fill:none;stroke:red;stroke-width:1px;stroke-linecap:butt;stroke-linejoin:miter;stroke-opacity:1" d="M 354.707,5.25253 377.253,5.25253 z" id="boundary" inkscape:connector-curvature="0" />
	<path style="fill:none;stroke:red;stroke-width:1px;stroke-linecap:butt;stroke-linejoin:miter;stroke-opacity:1" d="M 377.253,5.25253 393.535,4 z" id="boundary" inkscape:connector-curvature="0" />
	<path style="fill:none;stroke:red;stroke-width:1px;stroke-linecap:butt;stroke-linejoin:miter;stroke-opacity:1" d="M 393.535,4 412.323,4 z" id="boundary" inkscape:connector-curvature="0" />
	<path style="fill:none;stroke:red;stroke-width:1px;stroke-linecap:butt;stroke-linejoin:miter;stroke-opacity:1" d="M 412.323,4 413.576,24.0404 z" id="boundary" inkscape:connector-curvature="0" />
	<path style="fill:none;stroke:red;stroke-width:1px;stroke-linecap:butt;stroke-linejoin:miter;stroke-opacity:1" d="M 295.838,21.5354 295.838,37.8182 z" id="boundary" inkscape:connector-curvature="0" />
	<path style="fill:none;stroke:red;stroke-width:1px;stroke-linecap:butt;stroke-linejoin:miter;stroke-opacity:1" d="M 295.838,37.8182 295.838,56.6061 z" id="boundary" inkscape:connector-curvature="0" />
	<path style="fill:none;stroke:red;stroke-width:1px;stroke-linecap:butt;stroke-linejoin:miter;stroke-opacity:1" d="M 295.838,56.6061 294.586,74.1414 z" id="boundary" inkscape:connector-curvature="0" />
	<path style="fill:none;stroke:red;stroke-width:1px;stroke-linecap:butt;stroke-linejoin:miter;stroke-opacity:1" d="M 294.586,74.1414 294.586,94.1818 z" id="boundary" inkscape:connector-curvature="0" />
	<path style="fill:none;stroke:red;stroke-width:1px;stroke-linecap:butt;stroke-linejoin:miter;stroke-opacity:1" d="M 294.586,94.1818 294.586,115.475 z" id="boundary" inkscape:connector-curvature="0" />
	<path style="fill:none;stroke:red;stroke-width:1px;stroke-linecap:butt;stroke-linejoin:miter;stroke-opacity:1" d="M 294.586,115.475 275.798,122.99 z" id="boundary" inkscape:connector-curvature="0" />
	<path style="fill:none;stroke:red;stroke-width:1px;stroke-linecap:butt;stroke-linejoin:miter;stroke-opacity:1" d="M 275.798,122.99 259.515,131.758 z" id="boundary" inkscape:connector-curvature="0" />
	<path style="fill:none;stroke:red;stroke-width:1px;stroke-linecap:butt;stroke-linejoin:miter;stroke-opacity:1" d="M 259.515,131.758 239.475,145.535 z" id="boundary" inkscape:connector-curvature="0" />
	<path style="fill:none;stroke:red;stroke-width:1px;stroke-linecap:butt;stroke-linejoin:miter;stroke-opacity:1" d="M 239.475,145.535 223.192,155.556 z" id="boundary" inkscape:connector-curvature="0" />
	<path style="fill:none;stroke:red;stroke-width:1px;stroke-linecap:butt;stroke-linejoin:miter;stroke-opacity:1" d="M 223.192,155.556 204.404,164.323 z" id="boundary" inkscape:connector-curvature="0" />
	<path style="fill:none;stroke:red;stroke-width:1px;stroke-linecap:butt;stroke-linejoin:miter;stroke-opacity:1" d="M 204.404,164.323 186.869,175.596 z" id="boundary" inkscape:connector-curvature="0" />
	<path style="fill:none;stroke:red;stroke-width:1px;stroke-linecap:butt;stroke-linejoin:miter;stroke-opacity:1" d="M 186.869,175.596 170.586,190.626 z" id="boundary" inkscape:connector-curvature="0" />
	<path style="fill:none;stroke:red;stroke-width:1px;stroke-linecap:butt;stroke-linejoin:miter;stroke-opacity:1" d="M 170.586,190.626 154.303,208.162 z" id="boundary" inkscape:connector-curvature="0" />
	<path style="fill:none;stroke:red;stroke-width:1px;stroke-linecap:butt;stroke-linejoin:miter;stroke-opacity:1" d="M 154.303,208.162 140.525,223.192 z" id="boundary" inkscape:connector-curvature="0" />
	<path style="fill:none;stroke:red;stroke-width:1px;stroke-linecap:butt;stroke-linejoin:miter;stroke-opacity:1" d="M 140.525,223.192 125.495,236.97 z" id="boundary" inkscape:connector-curvature="0" />
	<path style="fill:none;stroke:red;stroke-width:1px;stroke-linecap:butt;stroke-linejoin:miter;stroke-opacity:1" d="M 125.495,236.97 111.717,253.253 z" id="boundary" inkscape:connector-curvature="0" />
	<path style="fill:none;stroke:red;stroke-width:1px;stroke-linecap:butt;stroke-linejoin:miter;stroke-opacity:1" d="M 111.717,253.253 97.9394,269.535 z" id="boundary" inkscape:connector-curvature="0" />
	<path style="fill:none;stroke:red;stroke-width:1px;stroke-linecap:butt;stroke-linejoin:miter;stroke-opacity:1" d="M 97.9394,269.535 82.9091,287.071 z" id="boundary" inkscape:connector-curvature="0" />
	<path style="fill:none;stroke:red;stroke-width:1px;stroke-linecap:butt;stroke-linejoin:miter;stroke-opacity:1" d="M 82.9091,287.071 72.8889,303.354 z" id="boundary" inkscape:connector-curvature="0" />
	<path style="fill:none;stroke:red;stroke-width:1px;stroke-linecap:butt;stroke-linejoin:miter;stroke-opacity:1" d="M 72.8889,303.354 62.8687,324.646 z" id="boundary" inkscape:connector-curvature="0" />
	<path style="fill:none;stroke:red;stroke-width:1px;stroke-linecap:butt;stroke-linejoin:miter;stroke-opacity:1" d="M 62.8687,324.646 46.5859,348.444 z" id="boundary" inkscape:connector-curvature="0" />
	<path style="fill:none;stroke:red;stroke-width:1px;stroke-linecap:butt;stroke-linejoin:miter;stroke-opacity:1" d="M 46.5859,348.444 34.0606,377.253 z" id="boundary" inkscape:connector-curvature="0" />
	<path style="fill:none;stroke:red;stroke-width:1px;stroke-linecap:butt;stroke-linejoin:miter;stroke-opacity:1" d="M 34.0606,377.253 27.798,404.808 z" id="boundary" inkscape:connector-curvature="0" />
	<path style="fill:none;stroke:red;stroke-width:1px;stroke-linecap:butt;stroke-linejoin:miter;stroke-opacity:1" d="M 27.798,404.808 20.2828,436.121 z" id="boundary" inkscape:connector-curvature="0" />
	<path style="fill:none;stroke:red;stroke-width:1px;stroke-linecap:butt;stroke-linejoin:miter;stroke-opacity:1" d="M 20.2828,436.121 11.5152,463.677 z" id="boundary" inkscape:connector-curvature="0" />
	<path style="fill:none;stroke:red;stroke-width:1px;stroke-linecap:butt;stroke-linejoin:miter;stroke-opacity:1" d="M 11.5152,463.677 7.75758,494.99 z" id="boundary" inkscape:connector-curvature="0" />
	<path style="fill:none;stroke:red;stroke-width:1px;stroke-linecap:butt;stroke-linejoin:miter;stroke-opacity:1" d="M 7.75758,494.99 4,527.556 z" id="boundary" inkscape:connector-curvature="0" />
	<path style="fill:none;stroke:red;stroke-width:1px;stroke-linecap:butt;stroke-linejoin:miter;stroke-opacity:1" d="M 4,527.556 4,557.616 z" id="boundary" inkscape:connector-curvature="0" />
	<path style="fill:none;stroke:red;stroke-width:1px;stroke-linecap:butt;stroke-linejoin:miter;stroke-opacity:1" d="M 4,557.616 6.50505,586.424 z" id="boundary" inkscape:connector-curvature="0" />
	<path style="fill:none;stroke:red;stroke-width:1px;stroke-linecap:butt;stroke-linejoin:miter;stroke-opacity:1" d="M 6.50505,586.424 10.2626,613.98 z" id="boundary" inkscape:connector-curvature="0" />
	<path style="fill:none;stroke:red;stroke-width:1px;stroke-linecap:butt;stroke-linejoin:miter;stroke-opacity:1" d="M 10.2626,613.98 14.0202,641.535 z" id="boundary" inkscape:connector-curvature="0" />
	<path style="fill:none;stroke:red;stroke-width:1px;stroke-linecap:butt;stroke-linejoin:miter;stroke-opacity:1" d="M 14.0202,641.535 20.2828,669.091 z" id="boundary" inkscape:connector-curvature="0" />
	<path style="fill:none;stroke:red;stroke-width:1px;stroke-linecap:butt;stroke-linejoin:miter;stroke-opacity:1" d="M 20.2828,669.091 27.798,695.394 z" id="boundary" inkscape:connector-curvature="0" />
	<path style="fill:none;stroke:red;stroke-width:1px;stroke-linecap:butt;stroke-linejoin:miter;stroke-opacity:1" d="M 27.798,695.394 40.3232,721.697 z" id="boundary" inkscape:connector-curvature="0" />
	<path style="fill:none;stroke:red;stroke-width:1px;stroke-linecap:butt;stroke-linejoin:miter;stroke-opacity:1" d="M 40.3232,721.697 52.8485,746.747 z" id="boundary" inkscape:connector-curvature="0" />
	<path style="fill:none;stroke:red;stroke-width:1px;stroke-linecap:butt;stroke-linejoin:miter;stroke-opacity:1" d="M 52.8485,746.747 60.3636,770.545 z" id="boundary" inkscape:connector-curvature="0" />
	<path style="fill:none;stroke:red;stroke-width:1px;stroke-linecap:butt;stroke-linejoin:miter;stroke-opacity:1" d="M 60.3636,770.545 76.6465,793.091 z" id="boundary" inkscape:connector-curvature="0" />
	<path style="fill:none;stroke:red;stroke-width:1px;stroke-linecap:butt;stroke-linejoin:miter;stroke-opacity:1" d="M 76.6465,793.091 91.6768,815.636 z" id="boundary" inkscape:connector-curvature="0" />
	<path style="fill:none;stroke:red;stroke-width:1px;stroke-linecap:butt;stroke-linejoin:miter;stroke-opacity:1" d="M 91.6768,815.636 107.96,831.919 z" id="boundary" inkscape:connector-curvature="0" />
	<path style="fill:none;stroke:red;stroke-width:1px;stroke-linecap:butt;stroke-linejoin:miter;stroke-opacity:1" d="M 107.96,831.919 121.737,851.96 z" id="boundary" inkscape:connector-curvature="0" />
	<path style="fill:none;stroke:red;stroke-width:1px;stroke-linecap:butt;stroke-linejoin:miter;stroke-opacity:1" d="M 121.737,851.96 141.778,872 z" id="boundary" inkscape:connector-curvature="0" />
	<path style="fill:none;stroke:red;stroke-width:1px;stroke-linecap:butt;stroke-linejoin:miter;stroke-opacity:1" d="M 141.778,872 161.818,888.283 z" id="boundary" inkscape:connector-curvature="0" />
	<path style="fill:none;stroke:red;stroke-width:1px;stroke-linecap:butt;stroke-linejoin:miter;stroke-opacity:1" d="M 161.818,888.283 183.111,907.071 z" id="boundary" inkscape:connector-curvature="0" />
	<path style="fill:none;stroke:red;stroke-width:1px;stroke-linecap:butt;stroke-linejoin:miter;stroke-opacity:1" d="M 183.111,907.071 204.404,923.354 z" id="boundary" inkscape:connector-curvature="0" />
	<path style="fill:none;stroke:red;stroke-width:1px;stroke-linecap:butt;stroke-linejoin:miter;stroke-opacity:1" d="M 204.404,923.354 229.455,937.131 z" id="boundary" inkscape:connector-curvature="0" />
	<path style="fill:none;stroke:red;stroke-width:1px;stroke-linecap:butt;stroke-linejoin:miter;stroke-opacity:1" d="M 229.455,937.131 253.253,949.657 z" id="boundary" inkscape:connector-curvature="0" />
	<path style="fill:none;stroke:red;stroke-width:1px;stroke-linecap:butt;stroke-linejoin:miter;stroke-opacity:1" d="M 253.253,949.657 282.061,963.434 z" id="boundary" inkscape:connector-curvature="0" />
	<path style="fill:none;stroke:red;stroke-width:1px;stroke-linecap:butt;stroke-linejoin:miter;stroke-opacity:1" d="M 282.061,963.434 308.364,973.455 z" id="boundary" inkscape:connector-curvature="0" />
	<path style="fill:none;stroke:red;stroke-width:1px;stroke-linecap:butt;stroke-linejoin:miter;stroke-opacity:1" d="M 308.364,973.455 334.667,979.717 z" id="boundary" inkscape:connector-curvature="0" />
	<path style="fill:none;stroke:red;stroke-width:1px;stroke-linecap:butt;stroke-linejoin:miter;stroke-opacity:1" d="M 334.667,979.717 360.97,985.98 z" id="boundary" inkscape:connector-curvature="0" />
	<path style="fill:none;stroke:red;stroke-width:1px;stroke-linecap:butt;stroke-linejoin:miter;stroke-opacity:1" d="M 360.97,985.98 387.273,992.242 z" id="boundary" inkscape:connector-curvature="0" />
	<path style="fill:none;stroke:red;stroke-width:1px;stroke-linecap:butt;stroke-linejoin:miter;stroke-opacity:1" d="M 387.273,992.242 412.323,994.747 z" id="boundary" inkscape:connector-curvature="0" />
	<path style="fill:none;stroke:red;stroke-width:1px;stroke-linecap:butt;stroke-linejoin:miter;stroke-opacity:1" d="M 412.323,994.747 439.879,996 z" id="boundary" inkscape:connector-curvature="0" />
	<path style="fill:none;stroke:red;stroke-width:1px;stroke-linecap:butt;stroke-linejoin:miter;stroke-opacity:1" d="M 439.879,996 468.687,996 z" id="boundary" inkscape:connector-curvature="0" />
	<path style="fill:none;stroke:red;stroke-width:1px;stroke-linecap:butt;stroke-linejoin:miter;stroke-opacity:1" d="M 468.687,996 501.253,996 z" id="boundary" inkscape:connector-curvature="0" />
	<path style="fill:none;stroke:red;stroke-width:1px;stroke-linecap:butt;stroke-linejoin:miter;stroke-opacity:1" d="M 501.253,996 526.303,992.242 z" id="boundary" inkscape:connector-curvature="0" />
	<path style="fill:none;stroke:red;stroke-width:1px;stroke-linecap:butt;stroke-linejoin:miter;stroke-opacity:1" d="M 526.303,992.242 550.101,988.485 z" id="boundary" inkscape:connector-curvature="0" />
	<path style="fill:none;stroke:red;stroke-width:1px;stroke-linecap:butt;stroke-linejoin:miter;stroke-opacity:1" d="M 550.101,988.485 576.404,982.222 z" id="boundary" inkscape:connector-curvature="0" />
	<path style="fill:none;stroke:red;stroke-width:1px;stroke-linecap:butt;stroke-linejoin:miter;stroke-opacity:1" d="M 576.404,982.222 601.455,973.455 z" id="boundary" inkscape:connector-curvature="0" />
	<path style="fill:none;stroke:red;stroke-width:1px;stroke-linecap:butt;stroke-linejoin:miter;stroke-opacity:1" d="M 601.455,973.455 627.758,965.939 z" id="boundary" inkscape:connector-curvature="0" />
	<path style="fill:none;stroke:red;stroke-width:1px;stroke-linecap:butt;stroke-linejoin:miter;stroke-opacity:1" d="M 627.758,965.939 654.061,955.919 z" id="boundary" inkscape:connector-curvature="0" />
	<path style="fill:none;stroke:red;stroke-width:1px;stroke-linecap:butt;stroke-linejoin:miter;stroke-opacity:1" d="M 654.061,955.919 676.606,940.889 z" id="boundary" inkscape:connector-curvature="0" />
	<path style="fill:none;stroke:red;stroke-width:1px;stroke-linecap:butt;stroke-linejoin:miter;stroke-opacity:1" d="M 676.606,940.889 700.404,927.111 z" id="boundary" inkscape:connector-curvature="0" />
	<path style="fill:none;stroke:red;stroke-width:1px;stroke-linecap:butt;stroke-linejoin:miter;stroke-opacity:1" d="M 700.404,927.111 724.202,914.586 z" id="boundary" inkscape:connector-curvature="0" />
	<path style="fill:none;stroke:red;stroke-width:1px;stroke-linecap:butt;stroke-linejoin:miter;stroke-opacity:1" d="M 724.202,914.586 742.99,898.303 z" id="boundary" inkscape:connector-curvature="0" />
	<path style="fill:none;stroke:red;stroke-width:1px;stroke-linecap:butt;stroke-linejoin:miter;stroke-opacity:1" d="M 742.99,898.303 763.03,878.263 z" id="boundary" inkscape:connector-curvature="0" />
	<path style="fill:none;stroke:red;stroke-width:1px;stroke-linecap:butt;stroke-linejoin:miter;stroke-opacity:1" d="M 763.03,878.263 783.071,858.222 z" id="boundary" inkscape:connector-curvature="0" />
	<path style="fill:none;stroke:red;stroke-width:1px;stroke-linecap:butt;stroke-linejoin:miter;stroke-opacity:1" d="M 783.071,858.222 804.364,835.677 z" id="boundary" inkscape:connector-curvature="0" />
	<path style="fill:none;stroke:red;stroke-width:1px;stroke-linecap:butt;stroke-linejoin:miter;stroke-opacity:1" d="M 804.364,835.677 821.899,813.131 z" id="boundary" inkscape:connector-curvature="0" />
	<path style="fill:none;stroke:red;stroke-width:1px;stroke-linecap:butt;stroke-linejoin:miter;stroke-opacity:1" d="M 821.899,813.131 838.182,786.828 z" id="boundary" inkscape:connector-curvature="0" />
	<path style="fill:none;stroke:red;stroke-width:1px;stroke-linecap:butt;stroke-linejoin:miter;stroke-opacity:1" d="M 838.182,786.828 854.465,763.03 z" id="boundary" inkscape:connector-curvature="0" />
	<path style="fill:none;stroke:red;stroke-width:1px;stroke-linecap:butt;stroke-linejoin:miter;stroke-opacity:1" d="M 527.556,5.25253 552.606,5.25253 z" id="boundary" inkscape:connector-curvature="0" />
	<path style="fill:none;stroke:red;stroke-width:1px;stroke-linecap:butt;stroke-linejoin:miter;stroke-opacity:1" d="M 527.556,5.25253 526.303,31.5556 z" id="boundary" inkscape:connector-curvature="0" />
	<path style="fill:none;stroke:red;stroke-width:1px;stroke-linecap:butt;stroke-linejoin:miter;stroke-opacity:1" d="M 552.606,5.25253 573.899,7.75758 z" id="boundary" inkscape:connector-curvature="0" />
	<path style="fill:none;stroke:red;stroke-width:1px;stroke-linecap:butt;stroke-linejoin:miter;stroke-opacity:1" d="M 573.899,7.75758 595.192,7.75758 z" id="boundary" inkscape:connector-curvature="0" />
	<path style="fill:none;stroke:red;stroke-width:1px;stroke-linecap:butt;stroke-linejoin:miter;stroke-opacity:1" d="M 595.192,7.75758 616.485,7.75758 z" id="boundary" inkscape:connector-curvature="0" />
	<path style="fill:none;stroke:red;stroke-width:1px;stroke-linecap:butt;stroke-linejoin:miter;stroke-opacity:1" d="M 616.485,7.75758 637.778,5.25253 z" id="boundary" inkscape:connector-curvature="0" />
	<path style="fill:none;stroke:red;stroke-width:1px;stroke-linecap:butt;stroke-linejoin:miter;stroke-opacity:1" d="M 637.778,5.25253 639.03,27.798 z" id="boundary" inkscape:connector-curvature="0" />
	<path style="fill:none;stroke:red;stroke-width:1px;stroke-linecap:butt;stroke-linejoin:miter;stroke-opacity:1" d="M 639.03,27.798 637.778,51.596 z" id="boundary" inkscape:connector-curvature="0" />
	<path style="fill:none;stroke:red;stroke-width:1px;stroke-linecap:butt;stroke-linejoin:miter;stroke-opacity:1" d="M 637.778,51.596 637.778,72.8889 z" id="boundary" inkscape:connector-curvature="0" />
	<path style="fill:none;stroke:red;stroke-width:1px;stroke-linecap:butt;stroke-linejoin:miter;stroke-opacity:1" d="M 637.778,72.8889 637.778,96.6869 z" id="boundary" inkscape:connector-curvature="0" />
	<path style="fill:none;stroke:red;stroke-width:1px;stroke-linecap:butt;stroke-linejoin:miter;stroke-opacity:1" d="M 637.778,96.6869 637.778,119.232 z" id="boundary" inkscape:connector-curvature="0" />
	<path style="fill:none;stroke:red;stroke-width:1px;stroke-linecap:butt;stroke-linejoin:miter;stroke-opacity:1" d="M 637.778,119.232 655.313,131.758 z" id="boundary" inkscape:connector-curvature="0" />
	<path style="fill:none;stroke:red;stroke-width:1px;stroke-linecap:butt;stroke-linejoin:miter;stroke-opacity:1" d="M 655.313,131.758 677.859,141.778 z" id="boundary" inkscape:connector-curvature="0" />
	<path style="fill:none;stroke:red;stroke-width:1px;stroke-linecap:butt;stroke-linejoin:miter;stroke-opacity:1" d="M 677.859,141.778 700.404,155.556 z" id="boundary" inkscape:connector-curvature="0" />
	<path style="fill:none;stroke:red;stroke-width:1px;stroke-linecap:butt;stroke-linejoin:miter;stroke-opacity:1" d="M 700.404,155.556 729.212,171.838 z" id="boundary" inkscape:connector-curvature="0" />
	<path style="fill:none;stroke:red;stroke-width:1px;stroke-linecap:butt;stroke-linejoin:miter;stroke-opacity:1" d="M 729.212,171.838 749.253,188.121 z" id="boundary" inkscape:connector-curvature="0" />
	<path style="fill:none;stroke:red;stroke-width:1px;stroke-linecap:butt;stroke-linejoin:miter;stroke-opacity:1" d="M 749.253,188.121 769.293,204.404 z" id="boundary" inkscape:connector-curvature="0" />
	<path style="fill:none;stroke:red;stroke-width:1px;stroke-linecap:butt;stroke-linejoin:miter;stroke-opacity:1" d="M 769.293,204.404 788.081,224.444 z" id="boundary" inkscape:connector-curvature="0" />
	<path style="fill:none;stroke:red;stroke-width:1px;stroke-linecap:butt;stroke-linejoin:miter;stroke-opacity:1" d="M 788.081,224.444 805.616,243.232 z" id="boundary" inkscape:connector-curvature="0" />
	<path style="fill:none;stroke:red;stroke-width:1px;stroke-linecap:butt;stroke-linejoin:miter;stroke-opacity:1" d="M 805.616,243.232 824.404,265.778 z" id="boundary" inkscape:connector-curvature="0" />
	<path style="fill:none;stroke:red;stroke-width:1px;stroke-linecap:butt;stroke-linejoin:miter;stroke-opacity:1" d="M 824.404,265.778 838.182,287.071 z" id="boundary" inkscape:connector-curvature="0" />
	<path style="fill:none;stroke:red;stroke-width:1px;stroke-linecap:butt;stroke-linejoin:miter;stroke-opacity:1" d="M 838.182,287.071 854.465,312.121 z" id="boundary" inkscape:connector-curvature="0" />
	<path style="fill:none;stroke:red;stroke-width:1px;stroke-linecap:butt;stroke-linejoin:miter;stroke-opacity:1" d="M 854.465,312.121 866.99,334.667 z" id="boundary" inkscape:connector-curvature="0" />
	<path style="fill:none;stroke:red;stroke-width:1px;stroke-linecap:butt;stroke-linejoin:miter;stroke-opacity:1" d="M 866.99,334.667 879.515,358.465 z" id="boundary" inkscape:connector-curvature="0" />
	<path style="fill:none;stroke:red;stroke-width:1px;stroke-linecap:butt;stroke-linejoin:miter;stroke-opacity:1" d="M 879.515,358.465 887.03,387.273 z" id="boundary" inkscape:connector-curvature="0" />
	<path style="fill:none;stroke:red;stroke-width:1px;stroke-linecap:butt;stroke-linejoin:miter;stroke-opacity:1" d="M 887.03,387.273 897.051,409.818 z" id="boundary" inkscape:connector-curvature="0" />
	<path style="fill:none;stroke:red;stroke-width:1px;stroke-linecap:butt;stroke-linejoin:miter;stroke-opacity:1" d="M 897.051,409.818 903.313,436.121 z" id="boundary" inkscape:connector-curvature="0" />
	<path style="fill:none;stroke:red;stroke-width:1px;stroke-linecap:butt;stroke-linejoin:miter;stroke-opacity:1" d="M 903.313,436.121 909.576,463.677 z" id="boundary" inkscape:connector-curvature="0" />
	<path style="fill:none;stroke:red;stroke-width:1px;stroke-linecap:butt;stroke-linejoin:miter;stroke-opacity:1" d="M 909.576,463.677 912.081,494.99 z" id="boundary" inkscape:connector-curvature="0" />
	<path style="fill:none;stroke:red;stroke-width:1px;stroke-linecap:butt;stroke-linejoin:miter;stroke-opacity:1" d="M 912.081,494.99 913.333,521.293 z" id="boundary" inkscape:connector-curvature="0" />
	<path style="fill:none;stroke:red;stroke-width:1px;stroke-linecap:butt;stroke-linejoin:miter;stroke-opacity:1" d="M 913.333,521.293 913.333,550.101 z" id="boundary" inkscape:connector-curvature="0" />
	<path style="fill:none;stroke:red;stroke-width:1px;stroke-linecap:butt;stroke-linejoin:miter;stroke-opacity:1" d="M 913.333,550.101 913.333,573.899 z" id="boundary" inkscape:connector-curvature="0" />
	<path style="fill:none;stroke:red;stroke-width:1px;stroke-linecap:butt;stroke-linejoin:miter;stroke-opacity:1" d="M 913.333,573.899 909.576,600.202 z" id="boundary" inkscape:connector-curvature="0" />
	<path style="fill:none;stroke:red;stroke-width:1px;stroke-linecap:butt;stroke-linejoin:miter;stroke-opacity:1" d="M 909.576,600.202 905.818,626.505 z" id="boundary" inkscape:connector-curvature="0" />
	<path style="fill:none;stroke:red;stroke-width:1px;stroke-linecap:butt;stroke-linejoin:miter;stroke-opacity:1" d="M 905.818,626.505 897.051,656.566 z" id="boundary" inkscape:connector-curvature="0" />
	<path style="fill:none;stroke:red;stroke-width:1px;stroke-linecap:butt;stroke-linejoin:miter;stroke-opacity:1" d="M 897.051,656.566 889.535,684.121 z" id="boundary" inkscape:connector-curvature="0" />
	<path style="fill:none;stroke:red;stroke-width:1px;stroke-linecap:butt;stroke-linejoin:miter;stroke-opacity:1" d="M 889.535,684.121 879.515,710.424 z" id="boundary" inkscape:connector-curvature="0" />
	<path style="fill:none;stroke:red;stroke-width:1px;stroke-linecap:butt;stroke-linejoin:miter;stroke-opacity:1" d="M 879.515,710.424 869.495,736.727 z" id="boundary" inkscape:connector-curvature="0" />
	<path style="fill:none;stroke:red;stroke-width:1px;stroke-linecap:butt;stroke-linejoin:miter;stroke-opacity:1" d="M 869.495,736.727 854.465,763.03 z" id="boundary" inkscape:connector-curvature="0" />
	<path style="fill:none;stroke:red;stroke-width:1px;stroke-linecap:butt;stroke-linejoin:miter;stroke-opacity:1" d="M 413.576,24.0404 412.323,46.5859 z" id="boundary" inkscape:connector-curvature="0" />
	<path style="fill:none;stroke:red;stroke-width:1px;stroke-linecap:butt;stroke-linejoin:miter;stroke-opacity:1" d="M 412.323,46.5859 409.818,70.3838 z" id="boundary" inkscape:connector-curvature="0" />
	<path style="fill:none;stroke:red;stroke-width:1px;stroke-linecap:butt;stroke-linejoin:miter;stroke-opacity:1" d="M 409.818,70.3838 409.818,94.1818 z" id="boundary" inkscape:connector-curvature="0" />
	<path style="fill:none;stroke:red;stroke-width:1px;stroke-linecap:butt;stroke-linejoin:miter;stroke-opacity:1" d="M 409.818,94.1818 409.818,116.727 z" id="boundary" inkscape:connector-curvature="0" />
	<path style="fill:none;stroke:red;stroke-width:1px;stroke-linecap:butt;stroke-linejoin:miter;stroke-opacity:1" d="M 409.818,116.727 408.566,141.778 z" id="boundary" inkscape:connector-curvature="0" />
	<path style="fill:none;stroke:red;stroke-width:1px;stroke-linecap:butt;stroke-linejoin:miter;stroke-opacity:1" d="M 408.566,141.778 409.818,169.333 z" id="boundary" inkscape:connector-curvature="0" />
	<path style="fill:none;stroke:red;stroke-width:1px;stroke-linecap:butt;stroke-linejoin:miter;stroke-opacity:1" d="M 409.818,169.333 408.566,190.626 z" id="boundary" inkscape:connector-curvature="0" />
	<path style="fill:none;stroke:red;stroke-width:1px;stroke-linecap:butt;stroke-linejoin:miter;stroke-opacity:1" d="M 408.566,190.626 408.566,214.424 z" id="boundary" inkscape:connector-curvature="0" />
	<path style="fill:none;stroke:red;stroke-width:1px;stroke-linecap:butt;stroke-linejoin:miter;stroke-opacity:1" d="M 408.566,214.424 386.02,220.687 z" id="boundary" inkscape:connector-curvature="0" />
	<path style="fill:none;stroke:red;stroke-width:1px;stroke-linecap:butt;stroke-linejoin:miter;stroke-opacity:1" d="M 526.303,31.5556 523.798,56.6061 z" id="boundary" inkscape:connector-curvature="0" />
	<path style="fill:none;stroke:red;stroke-width:1px;stroke-linecap:butt;stroke-linejoin:miter;stroke-opacity:1" d="M 523.798,56.6061 523.798,72.8889 z" id="boundary" inkscape:connector-curvature="0" />
	<path style="fill:none;stroke:red;stroke-width:1px;stroke-linecap:butt;stroke-linejoin:miter;stroke-opacity:1" d="M 523.798,72.8889 523.798,96.6869 z" id="boundary" inkscape:connector-curvature="0" />
	<path style="fill:none;stroke:red;stroke-width:1px;stroke-linecap:butt;stroke-linejoin:miter;stroke-opacity:1" d="M 523.798,96.6869 523.798,116.727 z" id="boundary" inkscape:connector-curvature="0" />
	<path style="fill:none;stroke:red;stroke-width:1px;stroke-linecap:butt;stroke-linejoin:miter;stroke-opacity:1" d="M 523.798,116.727 521.293,139.273 z" id="boundary" inkscape:connector-curvature="0" />
	<path style="fill:none;stroke:red;stroke-width:1px;stroke-linecap:butt;stroke-linejoin:miter;stroke-opacity:1" d="M 521.293,139.273 521.293,161.818 z" id="boundary" inkscape:connector-curvature="0" />
	<path style="fill:none;stroke:red;stroke-width:1px;stroke-linecap:butt;stroke-linejoin:miter;stroke-opacity:1" d="M 521.293,161.818 521.293,185.616 z" id="boundary" inkscape:connector-curvature="0" />
	<path style="fill:none;stroke:red;stroke-width:1px;stroke-linecap:butt;stroke-linejoin:miter;stroke-opacity:1" d="M 521.293,185.616 520.04,210.667 z" id="boundary" inkscape:connector-curvature="0" />
	<path style="fill:none;stroke:red;stroke-width:1px;stroke-linecap:butt;stroke-linejoin:miter;stroke-opacity:1" d="M 520.04,210.667 537.576,223.192 z" id="boundary" inkscape:connector-curvature="0" />
	<path style="fill:none;stroke:red;stroke-width:1px;stroke-linecap:butt;stroke-linejoin:miter;stroke-opacity:1" d="M 537.576,223.192 562.626,228.202 z" id="boundary" inkscape:connector-curvature="0" />
	<path style="fill:none;stroke:red;stroke-width:1px;stroke-linecap:butt;stroke-linejoin:miter;stroke-opacity:1" d="M 562.626,228.202 585.172,239.475 z" id="boundary" inkscape:connector-curvature="0" />
	<path style="fill:none;stroke:red;stroke-width:1px;stroke-linecap:butt;stroke-linejoin:miter;stroke-opacity:1" d="M 585.172,239.475 611.475,250.747 z" id="boundary" inkscape:connector-curvature="0" />
	<path style="fill:none;stroke:red;stroke-width:1px;stroke-linecap:butt;stroke-linejoin:miter;stroke-opacity:1" d="M 611.475,250.747 635.273,263.273 z" id="boundary" inkscape:connector-curvature="0" />
	<path style="fill:none;stroke:red;stroke-width:1px;stroke-linecap:butt;stroke-linejoin:miter;stroke-opacity:1" d="M 635.273,263.273 655.313,279.556 z" id="boundary" inkscape:connector-curvature="0" />
	<path style="fill:none;stroke:red;stroke-width:1px;stroke-linecap:butt;stroke-linejoin:miter;stroke-opacity:1" d="M 655.313,279.556 671.596,293.333 z" id="boundary" inkscape:connector-curvature="0" />
	<path style="fill:none;stroke:red;stroke-width:1px;stroke-linecap:butt;stroke-linejoin:miter;stroke-opacity:1" d="M 671.596,293.333 690.384,309.616 z" id="boundary" inkscape:connector-curvature="0" />
	<path style="fill:none;stroke:red;stroke-width:1px;stroke-linecap:butt;stroke-linejoin:miter;stroke-opacity:1" d="M 690.384,309.616 706.667,328.404 z" id="boundary" inkscape:connector-curvature="0" />
	<path style="fill:none;stroke:red;stroke-width:1px;stroke-linecap:butt;stroke-linejoin:miter;stroke-opacity:1" d="M 706.667,328.404 722.949,348.444 z" id="boundary" inkscape:connector-curvature="0" />
	<path style="fill:none;stroke:red;stroke-width:1px;stroke-linecap:butt;stroke-linejoin:miter;stroke-opacity:1" d="M 722.949,348.444 736.727,367.232 z" id="boundary" inkscape:connector-curvature="0" />
	<path style="fill:none;stroke:red;stroke-width:1px;stroke-linecap:butt;stroke-linejoin:miter;stroke-opacity:1" d="M 736.727,367.232 745.495,389.778 z" id="boundary" inkscape:connector-curvature="0" />
	<path style="fill:none;stroke:red;stroke-width:1px;stroke-linecap:butt;stroke-linejoin:miter;stroke-opacity:1" d="M 745.495,389.778 756.768,404.808 z" id="boundary" inkscape:connector-curvature="0" />
	<path style="fill:none;stroke:red;stroke-width:1px;stroke-linecap:butt;stroke-linejoin:miter;stroke-opacity:1" d="M 756.768,404.808 766.788,426.101 z" id="boundary" inkscape:connector-curvature="0" />
	<path style="fill:none;stroke:red;stroke-width:1px;stroke-linecap:butt;stroke-linejoin:miter;stroke-opacity:1" d="M 766.788,426.101 773.051,452.404 z" id="boundary" inkscape:connector-curvature="0" />
	<path style="fill:none;stroke:red;stroke-width:1px;stroke-linecap:butt;stroke-linejoin:miter;stroke-opacity:1" d="M 773.051,452.404 779.313,478.707 z" id="boundary" inkscape:connector-curvature="0" />
	<path style="fill:none;stroke:red;stroke-width:1px;stroke-linecap:butt;stroke-linejoin:miter;stroke-opacity:1" d="M 779.313,478.707 785.576,502.505 z" id="boundary" inkscape:connector-curvature="0" />
	<path style="fill:none;stroke:red;stroke-width:1px;stroke-linecap:butt;stroke-linejoin:miter;stroke-opacity:1" d="M 785.576,502.505 785.576,531.313 z" id="boundary" inkscape:connector-curvature="0" />
	<path style="fill:none;stroke:red;stroke-width:1px;stroke-linecap:butt;stroke-linejoin:miter;stroke-opacity:1" d="M 785.576,531.313 785.576,561.374 z" id="boundary" inkscape:connector-curvature="0" />
	<path style="fill:none;stroke:red;stroke-width:1px;stroke-linecap:butt;stroke-linejoin:miter;stroke-opacity:1" d="M 785.576,561.374 783.071,590.182 z" id="boundary" inkscape:connector-curvature="0" />
	<path style="fill:none;stroke:red;stroke-width:1px;stroke-linecap:butt;stroke-linejoin:miter;stroke-opacity:1" d="M 783.071,590.182 778.061,616.485 z" id="boundary" inkscape:connector-curvature="0" />
	<path style="fill:none;stroke:red;stroke-width:1px;stroke-linecap:butt;stroke-linejoin:miter;stroke-opacity:1" d="M 778.061,616.485 766.788,645.293 z" id="boundary" inkscape:connector-curvature="0" />
	<path style="fill:none;stroke:red;stroke-width:1px;stroke-linecap:butt;stroke-linejoin:miter;stroke-opacity:1" d="M 766.788,645.293 759.273,669.091 z" id="boundary" inkscape:connector-curvature="0" />
	<path style="fill:none;stroke:red;stroke-width:1px;stroke-linecap:butt;stroke-linejoin:miter;stroke-opacity:1" d="M 759.273,669.091 749.253,691.636 z" id="boundary" inkscape:connector-curvature="0" />
	<path style="fill:none;stroke:red;stroke-width:1px;stroke-linecap:butt;stroke-linejoin:miter;stroke-opacity:1" d="M 749.253,691.636 736.727,714.182 z" id="boundary" inkscape:connector-curvature="0" />
	<path style="fill:none;stroke:red;stroke-width:1px;stroke-linecap:butt;stroke-linejoin:miter;stroke-opacity:1" d="M 736.727,714.182 724.202,730.465 z" id="boundary" inkscape:connector-curvature="0" />
	<path style="fill:none;stroke:red;stroke-width:1px;stroke-linecap:butt;stroke-linejoin:miter;stroke-opacity:1" d="M 724.202,730.465 710.424,750.505 z" id="boundary" inkscape:connector-curvature="0" />
	<path style="fill:none;stroke:red;stroke-width:1px;stroke-linecap:butt;stroke-linejoin:miter;stroke-opacity:1" d="M 710.424,750.505 690.384,769.293 z" id="boundary" inkscape:connector-curvature="0" />
	<path style="fill:none;stroke:red;stroke-width:1px;stroke-linecap:butt;stroke-linejoin:miter;stroke-opacity:1" d="M 690.384,769.293 670.343,790.586 z" id="boundary" inkscape:connector-curvature="0" />
	<path style="fill:none;stroke:red;stroke-width:1px;stroke-linecap:butt;stroke-linejoin:miter;stroke-opacity:1" d="M 670.343,790.586 649.051,809.374 z" id="boundary" inkscape:connector-curvature="0" />
	<path style="fill:none;stroke:red;stroke-width:1px;stroke-linecap:butt;stroke-linejoin:miter;stroke-opacity:1" d="M 649.051,809.374 627.758,819.394 z" id="boundary" inkscape:connector-curvature="0" />
	<path style="fill:none;stroke:red;stroke-width:1px;stroke-linecap:butt;stroke-linejoin:miter;stroke-opacity:1" d="M 627.758,819.394 605.212,834.424 z" id="boundary" inkscape:connector-curvature="0" />
	<path style="fill:none;stroke:red;stroke-width:1px;stroke-linecap:butt;stroke-linejoin:miter;stroke-opacity:1" d="M 605.212,834.424 573.899,845.697 z" id="boundary" inkscape:connector-curvature="0" />
	<path style="fill:none;stroke:red;stroke-width:1px;stroke-linecap:butt;stroke-linejoin:miter;stroke-opacity:1" d="M 573.899,845.697 546.343,855.717 z" id="boundary" inkscape:connector-curvature="0" />
	<path style="fill:none;stroke:red;stroke-width:1px;stroke-linecap:butt;stroke-linejoin:miter;stroke-opacity:1" d="M 546.343,855.717 517.535,861.98 z" id="boundary" inkscape:connector-curvature="0" />
	<path style="fill:none;stroke:red;stroke-width:1px;stroke-linecap:butt;stroke-linejoin:miter;stroke-opacity:1" d="M 517.535,861.98 488.727,865.737 z" id="boundary" inkscape:connector-curvature="0" />
	<path style="fill:none;stroke:red;stroke-width:1px;stroke-linecap:butt;stroke-linejoin:miter;stroke-opacity:1" d="M 488.727,865.737 461.172,865.737 z" id="boundary" inkscape:connector-curvature="0" />
	<path style="fill:none;stroke:red;stroke-width:1px;stroke-linecap:butt;stroke-linejoin:miter;stroke-opacity:1" d="M 461.172,865.737 434.869,865.737 z" id="boundary" inkscape:connector-curvature="0" />
	<path style="fill:none;stroke:red;stroke-width:1px;stroke-linecap:butt;stroke-linejoin:miter;stroke-opacity:1" d="M 434.869,865.737 399.798,861.98 z" id="boundary" inkscape:connector-curvature="0" />
	<path style="fill:none;stroke:red;stroke-width:1px;stroke-linecap:butt;stroke-linejoin:miter;stroke-opacity:1" d="M 399.798,861.98 369.737,851.96 z" id="boundary" inkscape:connector-curvature="0" />
	<path style="fill:none;stroke:red;stroke-width:1px;stroke-linecap:butt;stroke-linejoin:miter;stroke-opacity:1" d="M 369.737,851.96 340.929,841.939 z" id="boundary" inkscape:connector-curvature="0" />
	<path style="fill:none;stroke:red;stroke-width:1px;stroke-linecap:butt;stroke-linejoin:miter;stroke-opacity:1" d="M 386.02,220.687 359.717,230.707 z" id="boundary" inkscape:connector-curvature="0" />
	<path style="fill:none;stroke:red;stroke-width:1px;stroke-linecap:butt;stroke-linejoin:miter;stroke-opacity:1" d="M 359.717,230.707 333.414,239.475 z" id="boundary" inkscape:connector-curvature="0" />
	<path style="fill:none;stroke:red;stroke-width:1px;stroke-linecap:butt;stroke-linejoin:miter;stroke-opacity:1" d="M 333.414,239.475 304.606,253.253 z" id="boundary" inkscape:connector-curvature="0" />
	<path style="fill:none;stroke:red;stroke-width:1px;stroke-linecap:butt;stroke-linejoin:miter;stroke-opacity:1" d="M 304.606,253.253 282.061,269.535 z" id="boundary" inkscape:connector-curvature="0" />
	<path style="fill:none;stroke:red;stroke-width:1px;stroke-linecap:butt;stroke-linejoin:miter;stroke-opacity:1" d="M 282.061,269.535 253.253,287.071 z" id="boundary" inkscape:connector-curvature="0" />
	<path style="fill:none;stroke:red;stroke-width:1px;stroke-linecap:butt;stroke-linejoin:miter;stroke-opacity:1" d="M 253.253,287.071 233.212,305.859 z" id="boundary" inkscape:connector-curvature="0" />
	<path style="fill:none;stroke:red;stroke-width:1px;stroke-linecap:butt;stroke-linejoin:miter;stroke-opacity:1" d="M 233.212,305.859 213.172,325.899 z" id="boundary" inkscape:connector-curvature="0" />
	<path style="fill:none;stroke:red;stroke-width:1px;stroke-linecap:butt;stroke-linejoin:miter;stroke-opacity:1" d="M 213.172,325.899 200.646,345.939 z" id="boundary" inkscape:connector-curvature="0" />
	<path style="fill:none;stroke:red;stroke-width:1px;stroke-linecap:butt;stroke-linejoin:miter;stroke-opacity:1" d="M 200.646,345.939 184.364,367.232 z" id="boundary" inkscape:connector-curvature="0" />
	<path style="fill:none;stroke:red;stroke-width:1px;stroke-linecap:butt;stroke-linejoin:miter;stroke-opacity:1" d="M 184.364,367.232 171.838,393.535 z" id="boundary" inkscape:connector-curvature="0" />
	<path style="fill:none;stroke:red;stroke-width:1px;stroke-linecap:butt;stroke-linejoin:miter;stroke-opacity:1" d="M 171.838,393.535 160.566,419.838 z" id="boundary" inkscape:connector-curvature="0" />
	<path style="fill:none;stroke:red;stroke-width:1px;stroke-linecap:butt;stroke-linejoin:miter;stroke-opacity:1" d="M 160.566,419.838 148.04,448.646 z" id="boundary" inkscape:connector-curvature="0" />
	<path style="fill:none;stroke:red;stroke-width:1px;stroke-linecap:butt;stroke-linejoin:miter;stroke-opacity:1" d="M 148.04,448.646 141.778,482.465 z" id="boundary" inkscape:connector-curvature="0" />
	<path style="fill:none;stroke:red;stroke-width:1px;stroke-linecap:butt;stroke-linejoin:miter;stroke-opacity:1" d="M 141.778,482.465 138.02,515.03 z" id="boundary" inkscape:connector-curvature="0" />
	<path style="fill:none;stroke:red;stroke-width:1px;stroke-linecap:butt;stroke-linejoin:miter;stroke-opacity:1" d="M 138.02,515.03 135.515,547.596 z" id="boundary" inkscape:connector-curvature="0" />
	<path style="fill:none;stroke:red;stroke-width:1px;stroke-linecap:butt;stroke-linejoin:miter;stroke-opacity:1" d="M 135.515,547.596 138.02,576.404 z" id="boundary" inkscape:connector-curvature="0" />
	<path style="fill:none;stroke:red;stroke-width:1px;stroke-linecap:butt;stroke-linejoin:miter;stroke-opacity:1" d="M 138.02,576.404 144.283,602.707 z" id="boundary" inkscape:connector-curvature="0" />
	<path style="fill:none;stroke:red;stroke-width:1px;stroke-linecap:butt;stroke-linejoin:miter;stroke-opacity:1" d="M 144.283,602.707 148.04,629.01 z" id="boundary" inkscape:connector-curvature="0" />
	<path style="fill:none;stroke:red;stroke-width:1px;stroke-linecap:butt;stroke-linejoin:miter;stroke-opacity:1" d="M 148.04,629.01 158.061,655.313 z" id="boundary" inkscape:connector-curvature="0" />
	<path style="fill:none;stroke:red;stroke-width:1px;stroke-linecap:butt;stroke-linejoin:miter;stroke-opacity:1" d="M 158.061,655.313 170.586,681.616 z" id="boundary" inkscape:connector-curvature="0" />
	<path style="fill:none;stroke:red;stroke-width:1px;stroke-linecap:butt;stroke-linejoin:miter;stroke-opacity:1" d="M 170.586,681.616 184.364,707.919 z" id="boundary" inkscape:connector-curvature="0" />
	<path style="fill:none;stroke:red;stroke-width:1px;stroke-linecap:butt;stroke-linejoin:miter;stroke-opacity:1" d="M 184.364,707.919 196.889,727.96 z" id="boundary" inkscape:connector-curvature="0" />
	<path style="fill:none;stroke:red;stroke-width:1px;stroke-linecap:butt;stroke-linejoin:miter;stroke-opacity:1" d="M 196.889,727.96 213.172,750.505 z" id="boundary" inkscape:connector-curvature="0" />
	<path style="fill:none;stroke:red;stroke-width:1px;stroke-linecap:butt;stroke-linejoin:miter;stroke-opacity:1" d="M 213.172,750.505 231.96,770.545 z" id="boundary" inkscape:connector-curvature="0" />
	<path style="fill:none;stroke:red;stroke-width:1px;stroke-linecap:butt;stroke-linejoin:miter;stroke-opacity:1" d="M 231.96,770.545 246.99,786.828 z" id="boundary" inkscape:connector-curvature="0" />
	<path style="fill:none;stroke:red;stroke-width:1px;stroke-linecap:butt;stroke-linejoin:miter;stroke-opacity:1" d="M 246.99,786.828 268.283,801.859 z" id="boundary" inkscape:connector-curvature="0" />
	<path style="fill:none;stroke:red;stroke-width:1px;stroke-linecap:butt;stroke-linejoin:miter;stroke-opacity:1" d="M 268.283,801.859 290.828,818.141 z" id="boundary" inkscape:connector-curvature="0" />
	<path style="fill:none;stroke:red;stroke-width:1px;stroke-linecap:butt;stroke-linejoin:miter;stroke-opacity:1" d="M 290.828,818.141 318.384,831.919 z" id="boundary" inkscape:connector-curvature="0" />
	<path style="fill:none;stroke:red;stroke-width:1px;stroke-linecap:butt;stroke-linejoin:miter;stroke-opacity:1" d="M 318.384,831.919 340.929,841.939 z" id="boundary" inkscape:connector-curvature="0" />
	<path style="fill:none;stroke:red;stroke-width:1px;stroke-linecap:butt;stroke-linejoin:miter;stroke-opacity:1" d="M 328.404,50.3434 343.434,34.0606 z" id="boundary" inkscape:connector-curvature="0" />
	<path style="fill:none;stroke:red;stroke-width:1px;stroke-linecap:butt;stroke-linejoin:miter;stroke-opacity:1" d="M 328.404,50.3434 328.404,67.8788 z" id="boundary" inkscape:connector-curvature="0" />
	<path style="fill:none;stroke:red;stroke-width:1px;stroke-linecap:butt;stroke-linejoin:miter;stroke-opacity:1" d="M 343.434,34.0606 360.97,31.5556 z" id="boundary" inkscape:connector-curvature="0" />
	<path style="fill:none;stroke:red;stroke-width:1px;stroke-linecap:butt;stroke-linejoin:miter;stroke-opacity:1" d="M 360.97,31.5556 376,41.5758 z" id="boundary" inkscape:connector-curvature="0" />
	<path style="fill:none;stroke:red;stroke-width:1px;stroke-linecap:butt;stroke-linejoin:miter;stroke-opacity:1" d="M 376,41.5758 379.758,54.101 z" id="boundary" inkscape:connector-curvature="0" />
	<path style="fill:none;stroke:red;stroke-width:1px;stroke-linecap:butt;stroke-linejoin:miter;stroke-opacity:1" d="M 379.758,54.101 381.01,67.8788 z" id="boundary" inkscape:connector-curvature="0" />
	<path style="fill:none;stroke:red;stroke-width:1px;stroke-linecap:butt;stroke-linejoin:miter;stroke-opacity:1" d="M 328.404,67.8788 338.424,82.9091 z" id="boundary" inkscape:connector-curvature="0" />
	<path style="fill:none;stroke:red;stroke-width:1px;stroke-linecap:butt;stroke-linejoin:miter;stroke-opacity:1" d="M 338.424,82.9091 354.707,86.6667 z" id="boundary" inkscape:connector-curvature="0" />
	<path style="fill:none;stroke:red;stroke-width:1px;stroke-linecap:butt;stroke-linejoin:miter;stroke-opacity:1" d="M 354.707,86.6667 373.495,84.1616 z" id="boundary" inkscape:connector-curvature="0" />
	<path style="fill:none;stroke:red;stroke-width:1px;stroke-linecap:butt;stroke-linejoin:miter;stroke-opacity:1" d="M 373.495,84.1616 381.01,67.8788 z" id="boundary" inkscape:connector-curvature="0" />
	<path style="fill:none;stroke:red;stroke-width:1px;stroke-linecap:butt;stroke-linejoin:miter;stroke-opacity:1" d="M 566.384,41.5758 585.172,35.3131 z" id="boundary" inkscape:connector-curvature="0" />
	<path style="fill:none;stroke:red;stroke-width:1px;stroke-linecap:butt;stroke-linejoin:miter;stroke-opacity:1" d="M 566.384,41.5758 556.364,54.101 z" id="boundary" inkscape:connector-curvature="0" />
	<path style="fill:none;stroke:red;stroke-width:1px;stroke-linecap:butt;stroke-linejoin:miter;stroke-opacity:1" d="M 585.172,35.3131 601.455,41.5758 z" id="boundary" inkscape:connector-curvature="0" />
	<path style="fill:none;stroke:red;stroke-width:1px;stroke-linecap:butt;stroke-linejoin:miter;stroke-opacity:1" d="M 601.455,41.5758 608.97,57.8586 z" id="boundary" inkscape:connector-curvature="0" />
	<path style="fill:none;stroke:red;stroke-width:1px;stroke-linecap:butt;stroke-linejoin:miter;stroke-opacity:1" d="M 608.97,57.8586 605.212,74.1414 z" id="boundary" inkscape:connector-curvature="0" />
	<path style="fill:none;stroke:red;stroke-width:1px;stroke-linecap:butt;stroke-linejoin:miter;stroke-opacity:1" d="M 605.212,74.1414 596.444,89.1717 z" id="boundary" inkscape:connector-curvature="0" />
	<path style="fill:none;stroke:red;stroke-width:1px;stroke-linecap:butt;stroke-linejoin:miter;stroke-opacity:1" d="M 556.364,54.101 553.859,70.3838 z" id="boundary" inkscape:connector-curvature="0" />
	<path style="fill:none;stroke:red;stroke-width:1px;stroke-linecap:butt;stroke-linejoin:miter;stroke-opacity:1" d="M 553.859,70.3838 562.626,82.9091 z" id="boundary" inkscape:connector-curvature="0" />
	<path style="fill:none;stroke:red;stroke-width:1px;stroke-linecap:butt;stroke-linejoin:miter;stroke-opacity:1" d="M 562.626,82.9091 578.909,92.9293 z" id="boundary" inkscape:connector-curvature="0" />
	<path style="fill:none;stroke:red;stroke-width:1px;stroke-linecap:butt;stroke-linejoin:miter;stroke-opacity:1" d="M 578.909,92.9293 596.444,89.1717 z" id="boundary" inkscape:connector-curvature="0" />
	<circle cx="298.343" cy="4" r="4" fill="#0" id="circle0"/>
	<circle cx="318.384" cy="4" r="4" fill="#0" id="circle1"/>
	<circle cx="338.424" cy="4" r="4" fill="#0" id="circle2"/>
	<circle cx="354.707" cy="5.25253" r="4" fill="#0" id="circle3"/>
	<circle cx="377.253" cy="5.25253" r="4" fill="#0" id="circle4"/>
	<circle cx="393.535" cy="4" r="4" fill="#0" id="circle5"/>
	<circle cx="412.323" cy="4" r="4" fill="#0" id="circle6"/>
	<circle cx="295.838" cy="21.5354" r="4" fill="#0" id="circle7"/>
	<circle cx="295.838" cy="37.8182" r="4" fill="#0" id="circle8"/>
	<circle cx="295.838" cy="56.6061" r="4" fill="#0" id="circle9"/>
	<circle cx="294.586" cy="74.1414" r="4" fill="#0" id="circle10"/>
	<circle cx="294.586" cy="94.1818" r="4" fill="#0" id="circle11"/>
	<circle cx="294.586" cy="115.475" r="4" fill="#0" id="circle12"/>
	<circle cx="275.798" cy="122.99" r="4" fill="#0" id="circle13"/>
	<circle cx="259.515" cy="131.758" r="4" fill="#0" id="circle14"/>
	<circle cx="239.475" cy="145.535" r="4" fill="#0" id="circle15"/>
	<circle cx="223.192" cy="155.556" r="4" fill="#0" id="circle16"/>
	<circle cx="204.404" cy="164.323" r="4" fill="#0" id="circle17"/>
	<circle cx="186.869" cy="175.596" r="4" fill="#0" id="circle18"/>
	<circle cx="170.586" cy="190.626" r="4" fill="#0" id="circle19"/>
	<circle cx="154.303" cy="208.162" r="4" fill="#0" id="circle20"/>
	<circle cx="140.525" cy="223.192" r="4" fill="#0" id="circle21"/>
	<circle cx="125.495" cy="236.97" r="4" fill="#0" id="circle22"/>
	<circle cx="111.717" cy="253.253" r="4" fill="#0" id="circle23"/>
	<circle cx="97.9394" cy="269.535" r="4" fill="#0" id="circle24"/>
	<circle cx="82.9091" cy="287.071" r="4" fill="#0" id="circle25"/>
	<circle cx="72.8889" cy="303.354" r="4" fill="#0" id="circle26"/>
	<circle cx="62.8687" cy="324.646" r="4" fill="#0" id="circle27"/>
	<circle cx="46.5859" cy="348.444" r="4" fill="#0" id="circle28"/>
	<circle cx="34.0606" cy="377.253" r="4" fill="#0" id="circle29"/>
	<circle cx="27.798" cy="404.808" r="4" fill="#0" id="circle30"/>
	<circle cx="20.2828" cy="436.121" r="4" fill="#0" id="circle31"/>
	<circle cx="11.5152" cy="463.677" r="4" fill="#0" id="circle32"/>
	<circle cx="7.75758" cy="494.99" r="4" fill="#0" id="circle33"/>
	<circle cx="4" cy="527.556" r="4" fill="#0" id="circle34"/>
	<circle cx="4" cy="557.616" r="4" fill="#0" id="circle35"/>
	<circle cx="6.50505" cy="586.424" r="4" fill="#0" id="circle36"/>
	<circle cx="10.2626" cy="613.98" r="4" fill="#0" id="circle37"/>
	<circle cx="14.0202" cy="641.535" r="4" fill="#0" id="circle38"/>
	<circle cx="20.2828" cy="669.091" r="4" fill="#0" id="circle39"/>
	<circle cx="27.798" cy="695.394" r="4" fill="#0" id="circle40"/>
	<circle cx="40.3232" cy="721.697" r="4" fill="#0" id="circle41"/>
	<circle cx="52.8485" cy="746.747" r="4" fill="#0" id="circle42"/>
	<circle cx="60.3636" cy="770.545" r="4" fill="#0" id="circle43"/>
	<circle cx="76.6465" cy="793.091" r="4" fill="#0" id="circle44"/>
	<circle cx="91.6768" cy="815.636" r="4" fill="#0" id="circle45"/>
	<circle cx="107.96" cy="831.919" r="4" fill="#0" id="circle46"/>
	<circle cx="121.737" cy="851.96" r="4" fill="#0" id="circle47"/>
	<circle cx="141.778" cy="872" r="4" fill="#0" id="circle48"/>
	<circle cx="161.818" cy="888.283" r="4" fill="#0" id="circle49"/>
	<circle cx="183.111" cy="907.071" r="4" fill="#0" id="circle50"/>
	<circle cx="204.404" cy="923.354" r="4" fill="#0" id="circle51"/>
	<circle cx="229.455" cy="937.131" r="4" fill="#0" id="circle52"/>
	<circle cx="253.253" cy="949.657" r="4" fill="#0" id="circle53"/>
	<circle cx="282.061" cy="963.434" r="4" fill="#0" id="circle54"/>
	<circle cx="308.364" cy="973.455" r="4" fill="#0" id="circle55"/>
	<circle cx="334.667" cy="979.717" r="4" fill="#0" id="circle56"/>
	<circle cx="360.97" cy="985.98" r="4" fill="#0" id="circle57"/>
	<circle cx="387.273" cy="992.242" r="4" fill="#0" id="circle58"/>
	<circle cx="412.323" cy="994.747" r="4" fill="#0" id="circle59"/>
	<circle cx="439.879" cy="996" r="4" fill="#0" id="circle60"/>
	<circle cx="468.687" cy="996" r="4" fill="#0" id="circle61"/>
	<circle cx="501.253" cy="996" r="4" fill="#0" id="circle62"/>
	<circle cx="526.303" cy="992.242" r="4" fill="#0" id="circle63"/>
	<circle cx="550.101" cy="988.485" r="4" fill="#0" id="circle64"/>
	<circle cx="576.404" cy="982.222" r="4" fill="#0" id="circle65"/>
	<circle cx="601.455" cy="973.455" r="4" fill="#0" id="circle66"/>
	<circle cx="627.758" cy="965.939" r="4" fill="#0" id="circle67"/>
	<circle cx="654.061" cy="955.919" r="4" fill="#0" id="circle68"/>
	<circle cx="676.606" cy="940.889" r="4" fill="#0" id="circle69"/>
	<circle cx="700.404" cy="927.111" r="4" fill="#0" id="circle70"/>
	<circle cx="724.202" cy="914.586" r="4" fill="#0" id="circle71"/>
	<circle cx="742.99" cy="898.303" r="4" fill="#0" id="circle72"/>
	<circle cx="763.03" cy="878.263" r="4" fill="#0" id="circle73"/>
	<circle cx="783.071" cy="858.222" r="4" fill="#0" id="circle74"/>
	<circle cx="804.364" cy="835.677" r="4" fill="#0" id="circle75"/>
	<circle cx="821.899" cy="813.131" r="4" fill="#0" id="circle76"/>
	<circle cx="838.182" cy="786.828" r="4" fill="#0" id="circle77"/>
	<circle cx="527.556" cy="5.25253" r="4" fill="#0" id="circle78"/>
	<circle cx="552.606" cy="5.25253" r="4" fill="#0" id="circle79"/>
	<circle cx="573.899" cy="7.75758" r="4" fill="#0" id="circle80"/>
	<circle cx="595.192" cy="7.75758" r="4" fill="#0" id="circle81"/>
	<circle cx="616.485" cy="7.75758" r="4" fill="#0" id="circle82"/>
	<circle cx="637.778" cy="5.25253" r="4" fill="#0" id="circle83"/>
	<circle cx="639.03" cy="27.798" r="4" fill="#0" id="circle84"/>
	<circle cx="637.778" cy="51.596" r="4" fill="#0" id="circle85"/>
	<circle cx="637.778" cy="72.8889" r="4" fill="#0" id="circle86"/>
	<circle cx="637.778" cy="96.6869" r="4" fill="#0" id="circle87"/>
	<circle cx="637.778" cy="119.232" r="4" fill="#0" id="circle88"/>
	<circle cx="655.313" cy="131.758" r="4" fill="#0" id="circle89"/>
	<circle cx="677.859" cy="141.778" r="4" fill="#0" id="circle90"/>
	<circle cx="700.404" cy="155.556" r="4" fill="#0" id="circle91"/>
	<circle cx="729.212" cy="171.838" r="4" fill="#0" id="circle92"/>
	<circle cx="749.253" cy="188.121" r="4" fill="#0" id="circle93"/>
	<circle cx="769.293" cy="204.404" r="4" fill="#0" id="circle94"/>
	<circle cx="788.081" cy="224.444" r="4" fill="#0" id="circle95"/>
	<circle cx="805.616" cy="243.232" r="4" fill="#0" id="circle96"/>
	<circle cx="824.404" cy="265.778" r="4" fill="#0" id="circle97"/>
	<circle cx="838.182" cy="287.071" r="4" fill="#0" id="circle98"/>
	<circle cx="854.465" cy="312.121" r="4" fill="#0" id="circle99"/>
	<circle cx="866.99" cy="334.667" r="4" fill="#0" id="circle100"/>
	<circle cx="879.515" cy="358.465" r="4" fill="#0" id="circle101"/>
	<circle cx="887.03" cy="387.273" r="4" fill="#0" id="circle102"/>
	<circle cx="897.051" cy="409.818" r="4" fill="#0" id="circle103"/>
	<circle cx="903.313" cy="436.121" r="4" fill="#0" id="circle104"/>
	<circle cx="909.576" cy="463.677" r="4" fill="#0" id="circle105"/>
	<circle cx="912.081" cy="494.99" r="4" fill="#0" id="circle106"/>
	<circle cx="913.333" cy="521.293" r="4" fill="#0" id="circle107"/>
	<circle cx="913.333" cy="550.101" r="4" fill="#0" id="circle108"/>
	<circle cx="913.333" cy="573.899" r="4" fill="#0" id="circle109"/>
	<circle cx="909.576" cy="600.202" r="4" fill="#0" id="circle110"/>
	<circle cx="905.818" cy="626.505" r="4" fill="#0" id="circle111"/>
	<circle cx="897.051" cy="656.566" r="4" fill="#0" id="circle112"/>
	<circle cx="889.535" cy="684.121" r="4" fill="#0" id="circle113"/>
	<circle cx="879.515" cy="710.424" r="4" fill="#0" id="circle114"/>
	<circle cx="869.495" cy="736.727" r="4" fill="#0" id="circle115"/>
	<circle cx="854.465" cy="763.03" r="4" fill="#0" id="circle116"/>
	<circle cx="413.576" cy="24.0404" r="4" fill="#0" id="circle117"/>
	<circle cx="412.323" cy="46.5859" r="4" fill="#0" id="circle118"/>
	<circle cx="409.818" cy="70.3838" r="4" fill="#0" id="circle119"/>
	<circle cx="409.818" cy="94.1818" r="4" fill="#0" id="circle120"/>
	<circle cx="409.818" cy="116.727" r="4" fill="#0" id="circle121"/>
	<circle cx="408.566" cy="141.778" r="4" fill="#0" id="circle122"/>
	<circle cx="409.818" cy="169.333" r="4" fill="#0" id="circle123"/>
	<circle cx="408.566" cy="190.626" r="4" fill="#0" id="circle124"/>
	<circle cx="408.566" cy="214.424" r="4" fill="#0" id="circle125"/>
	<circle cx="526.303" cy="31.5556" r="4" fill="#0" id="circle126"/>
	<circle cx="523.798" cy="56.6061" r="4" fill="#0" id="circle127"/>
	<circle cx="523.798" cy="72.8889" r="4" fill="#0" id="circle128"/>
	<circle cx="523.798" cy="96.6869" r="4" fill="#0" id="circle129"/>
	<circle cx="523.798" cy="116.727" r="4" fill="#0" id="circle130"/>
	<circle cx="521.293" cy="139.273" r="4" fill="#0" id="circle131"/>
	<circle cx="521.293" cy="161.818" r="4" fill="#0" id="circle132"/>
	<circle cx="521.293" cy="185.616" r="4" fill="#0" id="circle133"/>
	<circle cx="520.04" cy="210.667" r="4" fill="#0" id="circle134"/>
	<circle cx="537.576" cy="223.192" r="4" fill="#0" id="circle135"/>
	<circle cx="562.626" cy="228.202" r="4" fill="#0" id="circle136"/>
	<circle cx="585.172" cy="239.475" r="4" fill="#0" id="circle137"/>
	<circle cx="611.475" cy="250.747" r="4" fill="#0" id="circle138"/>
	<circle cx="635.273" cy="263.273" r="4" fill="#0" id="circle139"/>
	<circle cx="655.313" cy="279.556" r="4" fill="#0" id="circle140"/>
	<circle cx="671.596" cy="293.333" r="4" fill="#0" id="circle141"/>
	<circle cx="690.384" cy="309.616" r="4" fill="#0" id="circle142"/>
	<circle cx="706.667" cy="328.404" r="4" fill="#0" id="circle143"/>
	<circle cx="722.949" cy="348.444" r="4" fill="#0" id="circle144"/>
	<circle cx="736.727" cy="367.232" r="4" fill="#0" id="circle145"/>
	<circle cx="745.495" cy="389.778" r="4" fill="#0" id="circle146"/>
	<circle cx="756.768" cy="404.808" r="4" fill="#0" id="circle147"/>
	<circle cx="766.788" cy="426.101" r="4" fill="#0" id="circle148"/>
	<circle cx="773.051" cy="452.404" r="4" fill="#0" id="circle149"/>
	<circle cx="779.313" cy="478.707" r="4" fill="#0" id="circle150"/>
	<circle cx="785.576" cy="502.505" r="4" fill="#0" id="circle151"/>
	<circle cx="785.576" cy="531.313" r="4" fill="#0" id="circle152"/>
	<circle cx="785.576" cy="561.374" r="4" fill="#0" id="circle153"/>
	<circle cx="783.071" cy="590.182" r="4" fill="#0" id="circle154"/>
	<circle cx="778.061" cy="616.485" r="4" fill="#0" id="circle155"/>
	<circle cx="766.788" cy="645.293" r="4" fill="#0" id="circle156"/>
	<circle cx="759.273" cy="669.091" r="4" fill="#0" id="circle157"/>
	<circle cx="749.253" cy="691.636" r="4" fill="#0" id="circle158"/>
	<circle cx="736.727" cy="714.182" r="4" fill="#0" id="circle159"/>
	<circle cx="724.202" cy="730.465" r="4" fill="#0" id="circle160"/>
	<circle cx="710.424" cy="750.505" r="4" fill="#0" id="circle161"/>
	<circle cx="690.384" cy="769.293" r="4" fill="#0" id="circle162"/>
	<circle cx="670.343" cy="790.586" r="4" fill="#0" id="circle163"/>
	<circle cx="649.051" cy="809.374" r="4" fill="#0" id="circle164"/>
	<circle cx="627.758" cy="819.394" r="4" fill="#0" id="circle165"/>
	<circle cx="605.212" cy="834.424" r="4" fill="#0" id="circle166"/>
	<circle cx="573.899" cy="845.697" r="4" fill="#0" id="circle167"/>
	<circle cx="546.343" cy="855.717" r="4" fill="#0" id="circle168"/>
	<circle cx="517.535" cy="861.98" r="4" fill="#0" id="circle169"/>
	<circle cx="488.727" cy="865.737" r="4" fill="#0" id="circle170"/>
	<circle cx="461.172" cy="865.737" r="4" fill="#0" id="circle171"/>
	<circle cx="434.869" cy="865.737" r="4" fill="#0" id="circle172"/>
	<circle cx="399.798" cy="861.98" r="4" fill="#0" id="circle173"/>
	<circle cx="369.737" cy="851.96" r="4" fill="#0" id="circle174"/>
	<circle cx="386.02" cy="220.687" r="4" fill="#0" id="circle175"/>
	<circle cx="359.717" cy="230.707" r="4" fill="#0" id="circle176"/>
	<circle cx="333.414" cy="239.475" r="4" fill="#0" id="circle177"/>
	<circle cx="304.606" cy="253.253" r="4" fill="#0" id="circle178"/>
	<circle cx="282.061" cy="269.535" r="4" fill="#0" id="circle179"/>
	<circle cx="253.253" cy="287.071" r="4" fill="#0" id="circle180"/>
	<circle cx="233.212" cy="305.859" r="4" fill="#0" id="circle181"/>
	<circle cx="213.172" cy="325.899" r="4" fill="#0" id="circle182"/>
	<circle cx="200.646" cy="345.939" r="4" fill="#0" id="circle183"/>
	<circle cx="184.364" cy="367.232" r="4" fill="#0" id="circle184"/>
	<circle cx="171.838" cy="393.535" r="4" fill="#0" id="circle185"/>
	<circle cx="160.566" cy="419.838" r="4" fill="#0" id="circle186"/>
	<circle cx="148.04" cy="448.646" r="4" fill="#0" id="circle187"/>
	<circle cx="141.778" cy="482.465" r="4" fill="#0" id="circle188"/>
	<circle cx="138.02" cy="515.03" r="4" fill="#0" id="circle189"/>
	<circle cx="135.515" cy="547.596" r="4" fill="#0" id="circle190"/>
	<circle cx="138.02" cy="576.404" r="4" fill="#0" id="circle191"/>
	<circle cx="144.283" cy="602.707" r="4" fill="#0" id="circle192"/>
	<circle cx="148.04" cy="629.01" r="4" fill="#0" id="circle193"/>
	<circle cx="158.061" cy="655.313" r="4" fill="#0" id="circle194"/>
	<circle cx="170.586" cy="681.616" r="4" fill="#0" id="circle195"/>
	<circle cx="184.364" cy="707.919" r="4" fill="#0" id="circle196"/>
	<circle cx="196.889" cy="727.96" r="4" fill="#0" id="circle197"/>
	<circle cx="213.172" cy="750.505" r="4" fill="#0" id="circle198"/>
	<circle cx="231.96" cy="770.545" r="4" fill="#0" id="circle199"/>
	<circle cx="246.99" cy="786.828" r="4" fill="#0" id="circle200"/>
	<circle cx="268.283" cy="801.859" r="4" fill="#0" id="circle201"/>
	<circle cx="290.828" cy="818.141" r="4" fill="#0" id="circle202"/>
	<circle cx="318.384" cy="831.919" r="4" fill="#0" id="circle203"/>
	<circle cx="340.929" cy="841.939" r="4" fill="#0" id="circle204"/>
	<circle cx="328.404" cy="50.3434" r="4" fill="#0" id="circle205"/>
	<circle cx="343.434" cy="34.0606" r="4" fill="#0" id="circle206"/>
	<circle cx="360.97" cy="31.5556" r="4" fill="#0" id="circle207"/>
	<circle cx="376" cy="41.5758" r="4" fill="#0" id="circle208"/>
	<circle cx="379.758" cy="54.101" r="4" fill="#0" id="circle209"/>
	<circle cx="328.404" cy="67.8788" r="4" fill="#0" id="circle210"/>
	<circle cx="338.424" cy="82.9091" r="4" fill="#0" id="circle211"/>
	<circle cx="354.707" cy="86.6667" r="4" fill="#0" id="circle212"/>
	<circle cx="373.495" cy="84.1616" r="4" fill="#0" id="circle213"/>
	<circle cx="381.01" cy="67.8788" r="4" fill="#0" id="circle214"/>
	<circle cx="566.384" cy="41.5758" r="4" fill="#0" id="circle215"/>
	<circle cx="585.172" cy="35.3131" r="4" fill="#0" id="circle216"/>
	<circle cx="601.455" cy="41.5758" r="4" fill="#0" id="circle217"/>
	<circle cx="608.97" cy="57.8586" r="4" fill="#0" id="circle218"/>
	<circle cx="605.212" cy="74.1414" r="4" fill="#0" id="circle219"/>
	<circle cx="556.364" cy="54.101" r="4" fill="#0" id="circle220"/>
	<circle cx="553.859" cy="70.3838" r="4" fill="#0" id="circle221"/>
	<circle cx="562.626" cy="82.9091" r="4" fill="#0" id="circle222"/>
	<circle cx="578.909" cy="92.9293" r="4" fill="#0" id="circle223"/>
	<circle cx="596.444" cy="89.1717" r="4" fill="#0" id="circle224"/>
	</g>
</svg>