<?xml version="1.0" encoding="UTF-8" standalone="no"?>
<!-- Created with CurveBenchmark -->
<svg
	xmlns:dc="http://purl.org/dc/elements/1.1/"
	xmlns:cc="http://creativecommons.org/ns#"
	xmlns:rdf="http://www.w3.org/1999/02/22-rdf-syntax-ns#"
	xmlns:svg="http://www.w3.org/2000/svg"
	xmlns="http://www.w3.org/2000/svg"
	xmlns:sodipodi="http://sodipodi.sourceforge.net/DTD/sodipodi-0.dtd"
	xmlns:inkscape="http://www.inkscape.org/namespaces/inkscape"
	width="1000"
	height="1000"
	id="svg2"
	version="1.1"
	sodipodi:docname="manifold/hnncrust-textbox38.png.txt">
<defs
	id="defs4" />
<metadata
	id="metadata7">
	<rdf:RDF>
		<cc:Work
			rdf:about="">
			<dc:format>image/svg+xml</dc:format>
			<dc:type
				rdf:resource="http://purl.org/dc/dcmitype/StillImage" />
			<dc:title></dc:title>
		</cc:Work>
	</rdf:RDF>
</metadata>
<g
	inkscape:label="Layer 1"
	inkscape:groupmode="layer"
	id="layer1">
	<path style="fill:none;stroke:red;stroke-width:1px;stroke-linecap:butt;stroke-linejoin:miter;stroke-opacity:1" d="M 4,133.929 4,154.553 z" id="boundary" inkscape:connector-curvature="0" />
	<path style="fill:none;stroke:red;stroke-width:1px;stroke-linecap:butt;stroke-linejoin:miter;stroke-opacity:1" d="M 4,133.929 24.6237,123.617 z" id="boundary" inkscape:connector-curvature="0" />
	<path style="fill:none;stroke:red;stroke-width:1px;stroke-linecap:butt;stroke-linejoin:miter;stroke-opacity:1" d="M 4,154.553 4,175.177 z" id="boundary" inkscape:connector-curvature="0" />
	<path style="fill:none;stroke:red;stroke-width:1px;stroke-linecap:butt;stroke-linejoin:miter;stroke-opacity:1" d="M 4,175.177 4,195.8 z" id="boundary" inkscape:connector-curvature="0" />
	<path style="fill:none;stroke:red;stroke-width:1px;stroke-linecap:butt;stroke-linejoin:miter;stroke-opacity:1" d="M 4,195.8 4,216.424 z" id="boundary" inkscape:connector-curvature="0" />
	<path style="fill:none;stroke:red;stroke-width:1px;stroke-linecap:butt;stroke-linejoin:miter;stroke-opacity:1" d="M 4,216.424 4,237.048 z" id="boundary" inkscape:connector-curvature="0" />
	<path style="fill:none;stroke:red;stroke-width:1px;stroke-linecap:butt;stroke-linejoin:miter;stroke-opacity:1" d="M 4,237.048 24.6237,243.235 z" id="boundary" inkscape:connector-curvature="0" />
	<path style="fill:none;stroke:red;stroke-width:1px;stroke-linecap:butt;stroke-linejoin:miter;stroke-opacity:1" d="M 24.6237,102.994 24.6237,123.617 z" id="boundary" inkscape:connector-curvature="0" />
	<path style="fill:none;stroke:red;stroke-width:1px;stroke-linecap:butt;stroke-linejoin:miter;stroke-opacity:1" d="M 24.6237,102.994 34.9356,82.3701 z" id="boundary" inkscape:connector-curvature="0" />
	<path style="fill:none;stroke:red;stroke-width:1px;stroke-linecap:butt;stroke-linejoin:miter;stroke-opacity:1" d="M 24.6237,243.235 24.6237,263.859 z" id="boundary" inkscape:connector-curvature="0" />
	<path style="fill:none;stroke:red;stroke-width:1px;stroke-linecap:butt;stroke-linejoin:miter;stroke-opacity:1" d="M 24.6237,263.859 24.6237,284.482 z" id="boundary" inkscape:connector-curvature="0" />
	<path style="fill:none;stroke:red;stroke-width:1px;stroke-linecap:butt;stroke-linejoin:miter;stroke-opacity:1" d="M 24.6237,284.482 24.6237,305.106 z" id="boundary" inkscape:connector-curvature="0" />
	<path style="fill:none;stroke:red;stroke-width:1px;stroke-linecap:butt;stroke-linejoin:miter;stroke-opacity:1" d="M 24.6237,305.106 24.6237,325.73 z" id="boundary" inkscape:connector-curvature="0" />
	<path style="fill:none;stroke:red;stroke-width:1px;stroke-linecap:butt;stroke-linejoin:miter;stroke-opacity:1" d="M 24.6237,325.73 24.6237,346.353 z" id="boundary" inkscape:connector-curvature="0" />
	<path style="fill:none;stroke:red;stroke-width:1px;stroke-linecap:butt;stroke-linejoin:miter;stroke-opacity:1" d="M 24.6237,346.353 24.6237,366.977 z" id="boundary" inkscape:connector-curvature="0" />
	<path style="fill:none;stroke:red;stroke-width:1px;stroke-linecap:butt;stroke-linejoin:miter;stroke-opacity:1" d="M 24.6237,366.977 24.6237,387.601 z" id="boundary" inkscape:connector-curvature="0" />
	<path style="fill:none;stroke:red;stroke-width:1px;stroke-linecap:butt;stroke-linejoin:miter;stroke-opacity:1" d="M 24.6237,387.601 24.6237,408.225 z" id="boundary" inkscape:connector-curvature="0" />
	<path style="fill:none;stroke:red;stroke-width:1px;stroke-linecap:butt;stroke-linejoin:miter;stroke-opacity:1" d="M 24.6237,408.225 24.6237,428.848 z" id="boundary" inkscape:connector-curvature="0" />
	<path style="fill:none;stroke:red;stroke-width:1px;stroke-linecap:butt;stroke-linejoin:miter;stroke-opacity:1" d="M 24.6237,428.848 24.6237,449.472 z" id="boundary" inkscape:connector-curvature="0" />
	<path style="fill:none;stroke:red;stroke-width:1px;stroke-linecap:butt;stroke-linejoin:miter;stroke-opacity:1" d="M 24.6237,449.472 24.6237,470.096 z" id="boundary" inkscape:connector-curvature="0" />
	<path style="fill:none;stroke:red;stroke-width:1px;stroke-linecap:butt;stroke-linejoin:miter;stroke-opacity:1" d="M 24.6237,470.096 24.6237,490.719 z" id="boundary" inkscape:connector-curvature="0" />
	<path style="fill:none;stroke:red;stroke-width:1px;stroke-linecap:butt;stroke-linejoin:miter;stroke-opacity:1" d="M 24.6237,490.719 24.6237,511.343 z" id="boundary" inkscape:connector-curvature="0" />
	<path style="fill:none;stroke:red;stroke-width:1px;stroke-linecap:butt;stroke-linejoin:miter;stroke-opacity:1" d="M 24.6237,511.343 24.6237,531.967 z" id="boundary" inkscape:connector-curvature="0" />
	<path style="fill:none;stroke:red;stroke-width:1px;stroke-linecap:butt;stroke-linejoin:miter;stroke-opacity:1" d="M 24.6237,531.967 43.185,542.279 z" id="boundary" inkscape:connector-curvature="0" />
	<path style="fill:none;stroke:red;stroke-width:1px;stroke-linecap:butt;stroke-linejoin:miter;stroke-opacity:1" d="M 34.9356,82.3701 55.5593,61.7464 z" id="boundary" inkscape:connector-curvature="0" />
	<path style="fill:none;stroke:red;stroke-width:1px;stroke-linecap:butt;stroke-linejoin:miter;stroke-opacity:1" d="M 43.185,542.279 57.6216,558.778 z" id="boundary" inkscape:connector-curvature="0" />
	<path style="fill:none;stroke:red;stroke-width:1px;stroke-linecap:butt;stroke-linejoin:miter;stroke-opacity:1" d="M 55.5593,61.7464 76.183,51.4345 z" id="boundary" inkscape:connector-curvature="0" />
	<path style="fill:none;stroke:red;stroke-width:1px;stroke-linecap:butt;stroke-linejoin:miter;stroke-opacity:1" d="M 57.6216,558.778 65.8711,579.401 z" id="boundary" inkscape:connector-curvature="0" />
	<path style="fill:none;stroke:red;stroke-width:1px;stroke-linecap:butt;stroke-linejoin:miter;stroke-opacity:1" d="M 65.8711,579.401 76.183,597.963 z" id="boundary" inkscape:connector-curvature="0" />
	<path style="fill:none;stroke:red;stroke-width:1px;stroke-linecap:butt;stroke-linejoin:miter;stroke-opacity:1" d="M 76.183,51.4345 96.8067,45.2474 z" id="boundary" inkscape:connector-curvature="0" />
	<path style="fill:none;stroke:red;stroke-width:1px;stroke-linecap:butt;stroke-linejoin:miter;stroke-opacity:1" d="M 76.183,597.963 96.8067,604.15 z" id="boundary" inkscape:connector-curvature="0" />
	<path style="fill:none;stroke:red;stroke-width:1px;stroke-linecap:butt;stroke-linejoin:miter;stroke-opacity:1" d="M 96.8067,45.2474 117.43,45.2474 z" id="boundary" inkscape:connector-curvature="0" />
	<path style="fill:none;stroke:red;stroke-width:1px;stroke-linecap:butt;stroke-linejoin:miter;stroke-opacity:1" d="M 96.8067,604.15 117.43,604.15 z" id="boundary" inkscape:connector-curvature="0" />
	<path style="fill:none;stroke:red;stroke-width:1px;stroke-linecap:butt;stroke-linejoin:miter;stroke-opacity:1" d="M 117.43,45.2474 138.054,45.2474 z" id="boundary" inkscape:connector-curvature="0" />
	<path style="fill:none;stroke:red;stroke-width:1px;stroke-linecap:butt;stroke-linejoin:miter;stroke-opacity:1" d="M 117.43,604.15 138.054,604.15 z" id="boundary" inkscape:connector-curvature="0" />
	<path style="fill:none;stroke:red;stroke-width:1px;stroke-linecap:butt;stroke-linejoin:miter;stroke-opacity:1" d="M 138.054,45.2474 156.615,34.9356 z" id="boundary" inkscape:connector-curvature="0" />
	<path style="fill:none;stroke:red;stroke-width:1px;stroke-linecap:butt;stroke-linejoin:miter;stroke-opacity:1" d="M 138.054,604.15 158.678,604.15 z" id="boundary" inkscape:connector-curvature="0" />
	<path style="fill:none;stroke:red;stroke-width:1px;stroke-linecap:butt;stroke-linejoin:miter;stroke-opacity:1" d="M 156.615,34.9356 177.239,34.9356 z" id="boundary" inkscape:connector-curvature="0" />
	<path style="fill:none;stroke:red;stroke-width:1px;stroke-linecap:butt;stroke-linejoin:miter;stroke-opacity:1" d="M 158.678,604.15 179.301,604.15 z" id="boundary" inkscape:connector-curvature="0" />
	<path style="fill:none;stroke:red;stroke-width:1px;stroke-linecap:butt;stroke-linejoin:miter;stroke-opacity:1" d="M 177.239,34.9356 197.863,34.9356 z" id="boundary" inkscape:connector-curvature="0" />
	<path style="fill:none;stroke:red;stroke-width:1px;stroke-linecap:butt;stroke-linejoin:miter;stroke-opacity:1" d="M 179.301,604.15 197.863,614.462 z" id="boundary" inkscape:connector-curvature="0" />
	<path style="fill:none;stroke:red;stroke-width:1px;stroke-linecap:butt;stroke-linejoin:miter;stroke-opacity:1" d="M 197.863,34.9356 218.486,34.9356 z" id="boundary" inkscape:connector-curvature="0" />
	<path style="fill:none;stroke:red;stroke-width:1px;stroke-linecap:butt;stroke-linejoin:miter;stroke-opacity:1" d="M 197.863,614.462 199.925,635.085 z" id="boundary" inkscape:connector-curvature="0" />
	<path style="fill:none;stroke:red;stroke-width:1px;stroke-linecap:butt;stroke-linejoin:miter;stroke-opacity:1" d="M 199.925,635.085 199.925,655.709 z" id="boundary" inkscape:connector-curvature="0" />
	<path style="fill:none;stroke:red;stroke-width:1px;stroke-linecap:butt;stroke-linejoin:miter;stroke-opacity:1" d="M 199.925,655.709 199.925,676.333 z" id="boundary" inkscape:connector-curvature="0" />
	<path style="fill:none;stroke:red;stroke-width:1px;stroke-linecap:butt;stroke-linejoin:miter;stroke-opacity:1" d="M 199.925,676.333 218.486,686.644 z" id="boundary" inkscape:connector-curvature="0" />
	<path style="fill:none;stroke:red;stroke-width:1px;stroke-linecap:butt;stroke-linejoin:miter;stroke-opacity:1" d="M 218.486,34.9356 239.11,34.9356 z" id="boundary" inkscape:connector-curvature="0" />
	<path style="fill:none;stroke:red;stroke-width:1px;stroke-linecap:butt;stroke-linejoin:miter;stroke-opacity:1" d="M 218.486,686.644 230.861,703.143 z" id="boundary" inkscape:connector-curvature="0" />
	<path style="fill:none;stroke:red;stroke-width:1px;stroke-linecap:butt;stroke-linejoin:miter;stroke-opacity:1" d="M 230.861,703.143 230.861,723.767 z" id="boundary" inkscape:connector-curvature="0" />
	<path style="fill:none;stroke:red;stroke-width:1px;stroke-linecap:butt;stroke-linejoin:miter;stroke-opacity:1" d="M 230.861,723.767 247.36,738.204 z" id="boundary" inkscape:connector-curvature="0" />
	<path style="fill:none;stroke:red;stroke-width:1px;stroke-linecap:butt;stroke-linejoin:miter;stroke-opacity:1" d="M 239.11,34.9356 259.734,34.9356 z" id="boundary" inkscape:connector-curvature="0" />
	<path style="fill:none;stroke:red;stroke-width:1px;stroke-linecap:butt;stroke-linejoin:miter;stroke-opacity:1" d="M 247.36,738.204 251.484,758.827 z" id="boundary" inkscape:connector-curvature="0" />
	<path style="fill:none;stroke:red;stroke-width:1px;stroke-linecap:butt;stroke-linejoin:miter;stroke-opacity:1" d="M 251.484,758.827 251.484,779.451 z" id="boundary" inkscape:connector-curvature="0" />
	<path style="fill:none;stroke:red;stroke-width:1px;stroke-linecap:butt;stroke-linejoin:miter;stroke-opacity:1" d="M 251.484,779.451 257.672,800.075 z" id="boundary" inkscape:connector-curvature="0" />
	<path style="fill:none;stroke:red;stroke-width:1px;stroke-linecap:butt;stroke-linejoin:miter;stroke-opacity:1" d="M 257.672,800.075 261.796,820.699 z" id="boundary" inkscape:connector-curvature="0" />
	<path style="fill:none;stroke:red;stroke-width:1px;stroke-linecap:butt;stroke-linejoin:miter;stroke-opacity:1" d="M 259.734,34.9356 280.358,34.9356 z" id="boundary" inkscape:connector-curvature="0" />
	<path style="fill:none;stroke:red;stroke-width:1px;stroke-linecap:butt;stroke-linejoin:miter;stroke-opacity:1" d="M 261.796,820.699 282.42,824.823 z" id="boundary" inkscape:connector-curvature="0" />
	<path style="fill:none;stroke:red;stroke-width:1px;stroke-linecap:butt;stroke-linejoin:miter;stroke-opacity:1" d="M 280.358,34.9356 300.981,34.9356 z" id="boundary" inkscape:connector-curvature="0" />
	<path style="fill:none;stroke:red;stroke-width:1px;stroke-linecap:butt;stroke-linejoin:miter;stroke-opacity:1" d="M 282.42,824.823 292.732,804.2 z" id="boundary" inkscape:connector-curvature="0" />
	<path style="fill:none;stroke:red;stroke-width:1px;stroke-linecap:butt;stroke-linejoin:miter;stroke-opacity:1" d="M 292.732,804.2 305.106,779.451 z" id="boundary" inkscape:connector-curvature="0" />
	<path style="fill:none;stroke:red;stroke-width:1px;stroke-linecap:butt;stroke-linejoin:miter;stroke-opacity:1" d="M 300.981,34.9356 321.605,34.9356 z" id="boundary" inkscape:connector-curvature="0" />
	<path style="fill:none;stroke:red;stroke-width:1px;stroke-linecap:butt;stroke-linejoin:miter;stroke-opacity:1" d="M 305.106,758.827 305.106,779.451 z" id="boundary" inkscape:connector-curvature="0" />
	<path style="fill:none;stroke:red;stroke-width:1px;stroke-linecap:butt;stroke-linejoin:miter;stroke-opacity:1" d="M 305.106,758.827 325.73,748.516 z" id="boundary" inkscape:connector-curvature="0" />
	<path style="fill:none;stroke:red;stroke-width:1px;stroke-linecap:butt;stroke-linejoin:miter;stroke-opacity:1" d="M 321.605,34.9356 336.042,18.4366 z" id="boundary" inkscape:connector-curvature="0" />
	<path style="fill:none;stroke:red;stroke-width:1px;stroke-linecap:butt;stroke-linejoin:miter;stroke-opacity:1" d="M 325.73,748.516 342.229,734.079 z" id="boundary" inkscape:connector-curvature="0" />
	<path style="fill:none;stroke:red;stroke-width:1px;stroke-linecap:butt;stroke-linejoin:miter;stroke-opacity:1" d="M 336.042,18.4366 356.665,14.3119 z" id="boundary" inkscape:connector-curvature="0" />
	<path style="fill:none;stroke:red;stroke-width:1px;stroke-linecap:butt;stroke-linejoin:miter;stroke-opacity:1" d="M 342.229,734.079 356.665,717.58 z" id="boundary" inkscape:connector-curvature="0" />
	<path style="fill:none;stroke:red;stroke-width:1px;stroke-linecap:butt;stroke-linejoin:miter;stroke-opacity:1" d="M 356.665,14.3119 377.289,14.3119 z" id="boundary" inkscape:connector-curvature="0" />
	<path style="fill:none;stroke:red;stroke-width:1px;stroke-linecap:butt;stroke-linejoin:miter;stroke-opacity:1" d="M 356.665,696.956 356.665,717.58 z" id="boundary" inkscape:connector-curvature="0" />
	<path style="fill:none;stroke:red;stroke-width:1px;stroke-linecap:butt;stroke-linejoin:miter;stroke-opacity:1" d="M 356.665,696.956 377.289,696.956 z" id="boundary" inkscape:connector-curvature="0" />
	<path style="fill:none;stroke:red;stroke-width:1px;stroke-linecap:butt;stroke-linejoin:miter;stroke-opacity:1" d="M 377.289,14.3119 397.913,14.3119 z" id="boundary" inkscape:connector-curvature="0" />
	<path style="fill:none;stroke:red;stroke-width:1px;stroke-linecap:butt;stroke-linejoin:miter;stroke-opacity:1" d="M 377.289,696.956 393.788,682.52 z" id="boundary" inkscape:connector-curvature="0" />
	<path style="fill:none;stroke:red;stroke-width:1px;stroke-linecap:butt;stroke-linejoin:miter;stroke-opacity:1" d="M 393.788,682.52 397.913,655.709 z" id="boundary" inkscape:connector-curvature="0" />
	<path style="fill:none;stroke:red;stroke-width:1px;stroke-linecap:butt;stroke-linejoin:miter;stroke-opacity:1" d="M 397.913,14.3119 418.536,14.3119 z" id="boundary" inkscape:connector-curvature="0" />
	<path style="fill:none;stroke:red;stroke-width:1px;stroke-linecap:butt;stroke-linejoin:miter;stroke-opacity:1" d="M 397.913,655.709 416.474,645.397 z" id="boundary" inkscape:connector-curvature="0" />
	<path style="fill:none;stroke:red;stroke-width:1px;stroke-linecap:butt;stroke-linejoin:miter;stroke-opacity:1" d="M 416.474,645.397 428.848,614.462 z" id="boundary" inkscape:connector-curvature="0" />
	<path style="fill:none;stroke:red;stroke-width:1px;stroke-linecap:butt;stroke-linejoin:miter;stroke-opacity:1" d="M 418.536,14.3119 439.16,14.3119 z" id="boundary" inkscape:connector-curvature="0" />
	<path style="fill:none;stroke:red;stroke-width:1px;stroke-linecap:butt;stroke-linejoin:miter;stroke-opacity:1" d="M 428.848,614.462 447.41,604.15 z" id="boundary" inkscape:connector-curvature="0" />
	<path style="fill:none;stroke:red;stroke-width:1px;stroke-linecap:butt;stroke-linejoin:miter;stroke-opacity:1" d="M 439.16,14.3119 459.784,14.3119 z" id="boundary" inkscape:connector-curvature="0" />
	<path style="fill:none;stroke:red;stroke-width:1px;stroke-linecap:butt;stroke-linejoin:miter;stroke-opacity:1" d="M 447.41,604.15 468.033,604.15 z" id="boundary" inkscape:connector-curvature="0" />
	<path style="fill:none;stroke:red;stroke-width:1px;stroke-linecap:butt;stroke-linejoin:miter;stroke-opacity:1" d="M 459.784,14.3119 480.407,14.3119 z" id="boundary" inkscape:connector-curvature="0" />
	<path style="fill:none;stroke:red;stroke-width:1px;stroke-linecap:butt;stroke-linejoin:miter;stroke-opacity:1" d="M 468.033,604.15 488.657,604.15 z" id="boundary" inkscape:connector-curvature="0" />
	<path style="fill:none;stroke:red;stroke-width:1px;stroke-linecap:butt;stroke-linejoin:miter;stroke-opacity:1" d="M 480.407,14.3119 501.031,14.3119 z" id="boundary" inkscape:connector-curvature="0" />
	<path style="fill:none;stroke:red;stroke-width:1px;stroke-linecap:butt;stroke-linejoin:miter;stroke-opacity:1" d="M 488.657,604.15 509.281,604.15 z" id="boundary" inkscape:connector-curvature="0" />
	<path style="fill:none;stroke:red;stroke-width:1px;stroke-linecap:butt;stroke-linejoin:miter;stroke-opacity:1" d="M 501.031,14.3119 521.655,14.3119 z" id="boundary" inkscape:connector-curvature="0" />
	<path style="fill:none;stroke:red;stroke-width:1px;stroke-linecap:butt;stroke-linejoin:miter;stroke-opacity:1" d="M 509.281,604.15 529.904,604.15 z" id="boundary" inkscape:connector-curvature="0" />
	<path style="fill:none;stroke:red;stroke-width:1px;stroke-linecap:butt;stroke-linejoin:miter;stroke-opacity:1" d="M 521.655,14.3119 542.279,14.3119 z" id="boundary" inkscape:connector-curvature="0" />
	<path style="fill:none;stroke:red;stroke-width:1px;stroke-linecap:butt;stroke-linejoin:miter;stroke-opacity:1" d="M 529.904,604.15 550.528,604.15 z" id="boundary" inkscape:connector-curvature="0" />
	<path style="fill:none;stroke:red;stroke-width:1px;stroke-linecap:butt;stroke-linejoin:miter;stroke-opacity:1" d="M 542.279,14.3119 562.902,14.3119 z" id="boundary" inkscape:connector-curvature="0" />
	<path style="fill:none;stroke:red;stroke-width:1px;stroke-linecap:butt;stroke-linejoin:miter;stroke-opacity:1" d="M 550.528,604.15 569.089,593.838 z" id="boundary" inkscape:connector-curvature="0" />
	<path style="fill:none;stroke:red;stroke-width:1px;stroke-linecap:butt;stroke-linejoin:miter;stroke-opacity:1" d="M 562.902,14.3119 583.526,14.3119 z" id="boundary" inkscape:connector-curvature="0" />
	<path style="fill:none;stroke:red;stroke-width:1px;stroke-linecap:butt;stroke-linejoin:miter;stroke-opacity:1" d="M 569.089,593.838 589.713,593.838 z" id="boundary" inkscape:connector-curvature="0" />
	<path style="fill:none;stroke:red;stroke-width:1px;stroke-linecap:butt;stroke-linejoin:miter;stroke-opacity:1" d="M 583.526,14.3119 604.15,14.3119 z" id="boundary" inkscape:connector-curvature="0" />
	<path style="fill:none;stroke:red;stroke-width:1px;stroke-linecap:butt;stroke-linejoin:miter;stroke-opacity:1" d="M 589.713,593.838 610.337,593.838 z" id="boundary" inkscape:connector-curvature="0" />
	<path style="fill:none;stroke:red;stroke-width:1px;stroke-linecap:butt;stroke-linejoin:miter;stroke-opacity:1" d="M 604.15,14.3119 624.773,14.3119 z" id="boundary" inkscape:connector-curvature="0" />
	<path style="fill:none;stroke:red;stroke-width:1px;stroke-linecap:butt;stroke-linejoin:miter;stroke-opacity:1" d="M 610.337,593.838 630.96,593.838 z" id="boundary" inkscape:connector-curvature="0" />
	<path style="fill:none;stroke:red;stroke-width:1px;stroke-linecap:butt;stroke-linejoin:miter;stroke-opacity:1" d="M 624.773,14.3119 645.397,14.3119 z" id="boundary" inkscape:connector-curvature="0" />
	<path style="fill:none;stroke:red;stroke-width:1px;stroke-linecap:butt;stroke-linejoin:miter;stroke-opacity:1" d="M 630.96,593.838 651.584,593.838 z" id="boundary" inkscape:connector-curvature="0" />
	<path style="fill:none;stroke:red;stroke-width:1px;stroke-linecap:butt;stroke-linejoin:miter;stroke-opacity:1" d="M 645.397,14.3119 666.021,14.3119 z" id="boundary" inkscape:connector-curvature="0" />
	<path style="fill:none;stroke:red;stroke-width:1px;stroke-linecap:butt;stroke-linejoin:miter;stroke-opacity:1" d="M 651.584,593.838 672.208,593.838 z" id="boundary" inkscape:connector-curvature="0" />
	<path style="fill:none;stroke:red;stroke-width:1px;stroke-linecap:butt;stroke-linejoin:miter;stroke-opacity:1" d="M 666.021,14.3119 686.644,14.3119 z" id="boundary" inkscape:connector-curvature="0" />
	<path style="fill:none;stroke:red;stroke-width:1px;stroke-linecap:butt;stroke-linejoin:miter;stroke-opacity:1" d="M 672.208,593.838 692.832,593.838 z" id="boundary" inkscape:connector-curvature="0" />
	<path style="fill:none;stroke:red;stroke-width:1px;stroke-linecap:butt;stroke-linejoin:miter;stroke-opacity:1" d="M 686.644,14.3119 707.268,14.3119 z" id="boundary" inkscape:connector-curvature="0" />
	<path style="fill:none;stroke:red;stroke-width:1px;stroke-linecap:butt;stroke-linejoin:miter;stroke-opacity:1" d="M 692.832,593.838 713.455,593.838 z" id="boundary" inkscape:connector-curvature="0" />
	<path style="fill:none;stroke:red;stroke-width:1px;stroke-linecap:butt;stroke-linejoin:miter;stroke-opacity:1" d="M 707.268,14.3119 727.892,14.3119 z" id="boundary" inkscape:connector-curvature="0" />
	<path style="fill:none;stroke:red;stroke-width:1px;stroke-linecap:butt;stroke-linejoin:miter;stroke-opacity:1" d="M 713.455,593.838 734.079,593.838 z" id="boundary" inkscape:connector-curvature="0" />
	<path style="fill:none;stroke:red;stroke-width:1px;stroke-linecap:butt;stroke-linejoin:miter;stroke-opacity:1" d="M 727.892,14.3119 748.516,14.3119 z" id="boundary" inkscape:connector-curvature="0" />
	<path style="fill:none;stroke:red;stroke-width:1px;stroke-linecap:butt;stroke-linejoin:miter;stroke-opacity:1" d="M 734.079,593.838 754.703,593.838 z" id="boundary" inkscape:connector-curvature="0" />
	<path style="fill:none;stroke:red;stroke-width:1px;stroke-linecap:butt;stroke-linejoin:miter;stroke-opacity:1" d="M 748.516,14.3119 767.077,4 z" id="boundary" inkscape:connector-curvature="0" />
	<path style="fill:none;stroke:red;stroke-width:1px;stroke-linecap:butt;stroke-linejoin:miter;stroke-opacity:1" d="M 754.703,593.838 775.326,593.838 z" id="boundary" inkscape:connector-curvature="0" />
	<path style="fill:none;stroke:red;stroke-width:1px;stroke-linecap:butt;stroke-linejoin:miter;stroke-opacity:1" d="M 767.077,4 787.701,4 z" id="boundary" inkscape:connector-curvature="0" />
	<path style="fill:none;stroke:red;stroke-width:1px;stroke-linecap:butt;stroke-linejoin:miter;stroke-opacity:1" d="M 775.326,593.838 795.95,593.838 z" id="boundary" inkscape:connector-curvature="0" />
	<path style="fill:none;stroke:red;stroke-width:1px;stroke-linecap:butt;stroke-linejoin:miter;stroke-opacity:1" d="M 787.701,4 808.324,4 z" id="boundary" inkscape:connector-curvature="0" />
	<path style="fill:none;stroke:red;stroke-width:1px;stroke-linecap:butt;stroke-linejoin:miter;stroke-opacity:1" d="M 795.95,593.838 816.574,593.838 z" id="boundary" inkscape:connector-curvature="0" />
	<path style="fill:none;stroke:red;stroke-width:1px;stroke-linecap:butt;stroke-linejoin:miter;stroke-opacity:1" d="M 808.324,4 828.948,4 z" id="boundary" inkscape:connector-curvature="0" />
	<path style="fill:none;stroke:red;stroke-width:1px;stroke-linecap:butt;stroke-linejoin:miter;stroke-opacity:1" d="M 816.574,593.838 837.198,593.838 z" id="boundary" inkscape:connector-curvature="0" />
	<path style="fill:none;stroke:red;stroke-width:1px;stroke-linecap:butt;stroke-linejoin:miter;stroke-opacity:1" d="M 828.948,4 849.572,8.12474 z" id="boundary" inkscape:connector-curvature="0" />
	<path style="fill:none;stroke:red;stroke-width:1px;stroke-linecap:butt;stroke-linejoin:miter;stroke-opacity:1" d="M 837.198,593.838 857.821,593.838 z" id="boundary" inkscape:connector-curvature="0" />
	<path style="fill:none;stroke:red;stroke-width:1px;stroke-linecap:butt;stroke-linejoin:miter;stroke-opacity:1" d="M 849.572,8.12474 870.195,14.3119 z" id="boundary" inkscape:connector-curvature="0" />
	<path style="fill:none;stroke:red;stroke-width:1px;stroke-linecap:butt;stroke-linejoin:miter;stroke-opacity:1" d="M 857.821,593.838 878.445,593.838 z" id="boundary" inkscape:connector-curvature="0" />
	<path style="fill:none;stroke:red;stroke-width:1px;stroke-linecap:butt;stroke-linejoin:miter;stroke-opacity:1" d="M 870.195,14.3119 890.819,18.4366 z" id="boundary" inkscape:connector-curvature="0" />
	<path style="fill:none;stroke:red;stroke-width:1px;stroke-linecap:butt;stroke-linejoin:miter;stroke-opacity:1" d="M 878.445,593.838 899.069,589.713 z" id="boundary" inkscape:connector-curvature="0" />
	<path style="fill:none;stroke:red;stroke-width:1px;stroke-linecap:butt;stroke-linejoin:miter;stroke-opacity:1" d="M 890.819,18.4366 903.193,34.9356 z" id="boundary" inkscape:connector-curvature="0" />
	<path style="fill:none;stroke:red;stroke-width:1px;stroke-linecap:butt;stroke-linejoin:miter;stroke-opacity:1" d="M 899.069,589.713 911.443,573.214 z" id="boundary" inkscape:connector-curvature="0" />
	<path style="fill:none;stroke:red;stroke-width:1px;stroke-linecap:butt;stroke-linejoin:miter;stroke-opacity:1" d="M 903.193,34.9356 923.817,41.1227 z" id="boundary" inkscape:connector-curvature="0" />
	<path style="fill:none;stroke:red;stroke-width:1px;stroke-linecap:butt;stroke-linejoin:miter;stroke-opacity:1" d="M 911.443,573.214 930.004,562.902 z" id="boundary" inkscape:connector-curvature="0" />
	<path style="fill:none;stroke:red;stroke-width:1px;stroke-linecap:butt;stroke-linejoin:miter;stroke-opacity:1" d="M 923.817,41.1227 942.378,51.4345 z" id="boundary" inkscape:connector-curvature="0" />
	<path style="fill:none;stroke:red;stroke-width:1px;stroke-linecap:butt;stroke-linejoin:miter;stroke-opacity:1" d="M 930.004,562.902 944.441,542.279 z" id="boundary" inkscape:connector-curvature="0" />
	<path style="fill:none;stroke:red;stroke-width:1px;stroke-linecap:butt;stroke-linejoin:miter;stroke-opacity:1" d="M 942.378,51.4345 963.002,55.5593 z" id="boundary" inkscape:connector-curvature="0" />
	<path style="fill:none;stroke:red;stroke-width:1px;stroke-linecap:butt;stroke-linejoin:miter;stroke-opacity:1" d="M 944.441,542.279 954.753,521.655 z" id="boundary" inkscape:connector-curvature="0" />
	<path style="fill:none;stroke:red;stroke-width:1px;stroke-linecap:butt;stroke-linejoin:miter;stroke-opacity:1" d="M 954.753,521.655 975.376,511.343 z" id="boundary" inkscape:connector-curvature="0" />
	<path style="fill:none;stroke:red;stroke-width:1px;stroke-linecap:butt;stroke-linejoin:miter;stroke-opacity:1" d="M 963.002,55.5593 975.376,72.0582 z" id="boundary" inkscape:connector-curvature="0" />
	<path style="fill:none;stroke:red;stroke-width:1px;stroke-linecap:butt;stroke-linejoin:miter;stroke-opacity:1" d="M 975.376,72.0582 975.376,92.6819 z" id="boundary" inkscape:connector-curvature="0" />
	<path style="fill:none;stroke:red;stroke-width:1px;stroke-linecap:butt;stroke-linejoin:miter;stroke-opacity:1" d="M 975.376,92.6819 985.688,111.243 z" id="boundary" inkscape:connector-curvature="0" />
	<path style="fill:none;stroke:red;stroke-width:1px;stroke-linecap:butt;stroke-linejoin:miter;stroke-opacity:1" d="M 975.376,511.343 991.875,496.906 z" id="boundary" inkscape:connector-curvature="0" />
	<path style="fill:none;stroke:red;stroke-width:1px;stroke-linecap:butt;stroke-linejoin:miter;stroke-opacity:1" d="M 985.688,111.243 985.688,131.867 z" id="boundary" inkscape:connector-curvature="0" />
	<path style="fill:none;stroke:red;stroke-width:1px;stroke-linecap:butt;stroke-linejoin:miter;stroke-opacity:1" d="M 985.688,131.867 985.688,152.491 z" id="boundary" inkscape:connector-curvature="0" />
	<path style="fill:none;stroke:red;stroke-width:1px;stroke-linecap:butt;stroke-linejoin:miter;stroke-opacity:1" d="M 985.688,152.491 985.688,173.114 z" id="boundary" inkscape:connector-curvature="0" />
	<path style="fill:none;stroke:red;stroke-width:1px;stroke-linecap:butt;stroke-linejoin:miter;stroke-opacity:1" d="M 985.688,173.114 985.688,193.738 z" id="boundary" inkscape:connector-curvature="0" />
	<path style="fill:none;stroke:red;stroke-width:1px;stroke-linecap:butt;stroke-linejoin:miter;stroke-opacity:1" d="M 985.688,193.738 985.688,214.362 z" id="boundary" inkscape:connector-curvature="0" />
	<path style="fill:none;stroke:red;stroke-width:1px;stroke-linecap:butt;stroke-linejoin:miter;stroke-opacity:1" d="M 985.688,214.362 985.688,234.985 z" id="boundary" inkscape:connector-curvature="0" />
	<path style="fill:none;stroke:red;stroke-width:1px;stroke-linecap:butt;stroke-linejoin:miter;stroke-opacity:1" d="M 985.688,234.985 985.688,255.609 z" id="boundary" inkscape:connector-curvature="0" />
	<path style="fill:none;stroke:red;stroke-width:1px;stroke-linecap:butt;stroke-linejoin:miter;stroke-opacity:1" d="M 985.688,255.609 985.688,276.233 z" id="boundary" inkscape:connector-curvature="0" />
	<path style="fill:none;stroke:red;stroke-width:1px;stroke-linecap:butt;stroke-linejoin:miter;stroke-opacity:1" d="M 985.688,276.233 985.688,296.857 z" id="boundary" inkscape:connector-curvature="0" />
	<path style="fill:none;stroke:red;stroke-width:1px;stroke-linecap:butt;stroke-linejoin:miter;stroke-opacity:1" d="M 985.688,296.857 985.688,317.48 z" id="boundary" inkscape:connector-curvature="0" />
	<path style="fill:none;stroke:red;stroke-width:1px;stroke-linecap:butt;stroke-linejoin:miter;stroke-opacity:1" d="M 985.688,317.48 985.688,338.104 z" id="boundary" inkscape:connector-curvature="0" />
	<path style="fill:none;stroke:red;stroke-width:1px;stroke-linecap:butt;stroke-linejoin:miter;stroke-opacity:1" d="M 985.688,338.104 985.688,358.728 z" id="boundary" inkscape:connector-curvature="0" />
	<path style="fill:none;stroke:red;stroke-width:1px;stroke-linecap:butt;stroke-linejoin:miter;stroke-opacity:1" d="M 985.688,358.728 985.688,379.351 z" id="boundary" inkscape:connector-curvature="0" />
	<path style="fill:none;stroke:red;stroke-width:1px;stroke-linecap:butt;stroke-linejoin:miter;stroke-opacity:1" d="M 985.688,379.351 985.688,399.975 z" id="boundary" inkscape:connector-curvature="0" />
	<path style="fill:none;stroke:red;stroke-width:1px;stroke-linecap:butt;stroke-linejoin:miter;stroke-opacity:1" d="M 985.688,399.975 985.688,420.599 z" id="boundary" inkscape:connector-curvature="0" />
	<path style="fill:none;stroke:red;stroke-width:1px;stroke-linecap:butt;stroke-linejoin:miter;stroke-opacity:1" d="M 985.688,420.599 991.875,441.222 z" id="boundary" inkscape:connector-curvature="0" />
	<path style="fill:none;stroke:red;stroke-width:1px;stroke-linecap:butt;stroke-linejoin:miter;stroke-opacity:1" d="M 991.875,441.222 996,461.846 z" id="boundary" inkscape:connector-curvature="0" />
	<path style="fill:none;stroke:red;stroke-width:1px;stroke-linecap:butt;stroke-linejoin:miter;stroke-opacity:1" d="M 991.875,496.906 996,461.846 z" id="boundary" inkscape:connector-curvature="0" />
	<circle cx="4" cy="133.929" r="4" fill="#0" id="circle0"/>
	<circle cx="4" cy="154.553" r="4" fill="#0" id="circle1"/>
	<circle cx="4" cy="175.177" r="4" fill="#0" id="circle2"/>
	<circle cx="4" cy="195.8" r="4" fill="#0" id="circle3"/>
	<circle cx="4" cy="216.424" r="4" fill="#0" id="circle4"/>
	<circle cx="4" cy="237.048" r="4" fill="#0" id="circle5"/>
	<circle cx="24.6237" cy="102.994" r="4" fill="#0" id="circle6"/>
	<circle cx="24.6237" cy="123.617" r="4" fill="#0" id="circle7"/>
	<circle cx="24.6237" cy="243.235" r="4" fill="#0" id="circle8"/>
	<circle cx="24.6237" cy="263.859" r="4" fill="#0" id="circle9"/>
	<circle cx="24.6237" cy="284.482" r="4" fill="#0" id="circle10"/>
	<circle cx="24.6237" cy="305.106" r="4" fill="#0" id="circle11"/>
	<circle cx="24.6237" cy="325.73" r="4" fill="#0" id="circle12"/>
	<circle cx="24.6237" cy="346.353" r="4" fill="#0" id="circle13"/>
	<circle cx="24.6237" cy="366.977" r="4" fill="#0" id="circle14"/>
	<circle cx="24.6237" cy="387.601" r="4" fill="#0" id="circle15"/>
	<circle cx="24.6237" cy="408.225" r="4" fill="#0" id="circle16"/>
	<circle cx="24.6237" cy="428.848" r="4" fill="#0" id="circle17"/>
	<circle cx="24.6237" cy="449.472" r="4" fill="#0" id="circle18"/>
	<circle cx="24.6237" cy="470.096" r="4" fill="#0" id="circle19"/>
	<circle cx="24.6237" cy="490.719" r="4" fill="#0" id="circle20"/>
	<circle cx="24.6237" cy="511.343" r="4" fill="#0" id="circle21"/>
	<circle cx="24.6237" cy="531.967" r="4" fill="#0" id="circle22"/>
	<circle cx="34.9356" cy="82.3701" r="4" fill="#0" id="circle23"/>
	<circle cx="43.185" cy="542.279" r="4" fill="#0" id="circle24"/>
	<circle cx="55.5593" cy="61.7464" r="4" fill="#0" id="circle25"/>
	<circle cx="57.6216" cy="558.778" r="4" fill="#0" id="circle26"/>
	<circle cx="65.8711" cy="579.401" r="4" fill="#0" id="circle27"/>
	<circle cx="76.183" cy="51.4345" r="4" fill="#0" id="circle28"/>
	<circle cx="76.183" cy="597.963" r="4" fill="#0" id="circle29"/>
	<circle cx="96.8067" cy="45.2474" r="4" fill="#0" id="circle30"/>
	<circle cx="96.8067" cy="604.15" r="4" fill="#0" id="circle31"/>
	<circle cx="117.43" cy="45.2474" r="4" fill="#0" id="circle32"/>
	<circle cx="117.43" cy="604.15" r="4" fill="#0" id="circle33"/>
	<circle cx="138.054" cy="45.2474" r="4" fill="#0" id="circle34"/>
	<circle cx="138.054" cy="604.15" r="4" fill="#0" id="circle35"/>
	<circle cx="156.615" cy="34.9356" r="4" fill="#0" id="circle36"/>
	<circle cx="158.678" cy="604.15" r="4" fill="#0" id="circle37"/>
	<circle cx="177.239" cy="34.9356" r="4" fill="#0" id="circle38"/>
	<circle cx="179.301" cy="604.15" r="4" fill="#0" id="circle39"/>
	<circle cx="197.863" cy="34.9356" r="4" fill="#0" id="circle40"/>
	<circle cx="197.863" cy="614.462" r="4" fill="#0" id="circle41"/>
	<circle cx="199.925" cy="635.085" r="4" fill="#0" id="circle42"/>
	<circle cx="199.925" cy="655.709" r="4" fill="#0" id="circle43"/>
	<circle cx="199.925" cy="676.333" r="4" fill="#0" id="circle44"/>
	<circle cx="218.486" cy="34.9356" r="4" fill="#0" id="circle45"/>
	<circle cx="218.486" cy="686.644" r="4" fill="#0" id="circle46"/>
	<circle cx="230.861" cy="703.143" r="4" fill="#0" id="circle47"/>
	<circle cx="230.861" cy="723.767" r="4" fill="#0" id="circle48"/>
	<circle cx="239.11" cy="34.9356" r="4" fill="#0" id="circle49"/>
	<circle cx="247.36" cy="738.204" r="4" fill="#0" id="circle50"/>
	<circle cx="251.484" cy="758.827" r="4" fill="#0" id="circle51"/>
	<circle cx="251.484" cy="779.451" r="4" fill="#0" id="circle52"/>
	<circle cx="257.672" cy="800.075" r="4" fill="#0" id="circle53"/>
	<circle cx="259.734" cy="34.9356" r="4" fill="#0" id="circle54"/>
	<circle cx="261.796" cy="820.699" r="4" fill="#0" id="circle55"/>
	<circle cx="280.358" cy="34.9356" r="4" fill="#0" id="circle56"/>
	<circle cx="282.42" cy="824.823" r="4" fill="#0" id="circle57"/>
	<circle cx="292.732" cy="804.2" r="4" fill="#0" id="circle58"/>
	<circle cx="300.981" cy="34.9356" r="4" fill="#0" id="circle59"/>
	<circle cx="305.106" cy="758.827" r="4" fill="#0" id="circle60"/>
	<circle cx="305.106" cy="779.451" r="4" fill="#0" id="circle61"/>
	<circle cx="321.605" cy="34.9356" r="4" fill="#0" id="circle62"/>
	<circle cx="325.73" cy="748.516" r="4" fill="#0" id="circle63"/>
	<circle cx="336.042" cy="18.4366" r="4" fill="#0" id="circle64"/>
	<circle cx="342.229" cy="734.079" r="4" fill="#0" id="circle65"/>
	<circle cx="356.665" cy="14.3119" r="4" fill="#0" id="circle66"/>
	<circle cx="356.665" cy="696.956" r="4" fill="#0" id="circle67"/>
	<circle cx="356.665" cy="717.58" r="4" fill="#0" id="circle68"/>
	<circle cx="377.289" cy="14.3119" r="4" fill="#0" id="circle69"/>
	<circle cx="377.289" cy="696.956" r="4" fill="#0" id="circle70"/>
	<circle cx="393.788" cy="682.52" r="4" fill="#0" id="circle71"/>
	<circle cx="397.913" cy="14.3119" r="4" fill="#0" id="circle72"/>
	<circle cx="397.913" cy="655.709" r="4" fill="#0" id="circle73"/>
	<circle cx="416.474" cy="645.397" r="4" fill="#0" id="circle74"/>
	<circle cx="418.536" cy="14.3119" r="4" fill="#0" id="circle75"/>
	<circle cx="428.848" cy="614.462" r="4" fill="#0" id="circle76"/>
	<circle cx="439.16" cy="14.3119" r="4" fill="#0" id="circle77"/>
	<circle cx="447.41" cy="604.15" r="4" fill="#0" id="circle78"/>
	<circle cx="459.784" cy="14.3119" r="4" fill="#0" id="circle79"/>
	<circle cx="468.033" cy="604.15" r="4" fill="#0" id="circle80"/>
	<circle cx="480.407" cy="14.3119" r="4" fill="#0" id="circle81"/>
	<circle cx="488.657" cy="604.15" r="4" fill="#0" id="circle82"/>
	<circle cx="501.031" cy="14.3119" r="4" fill="#0" id="circle83"/>
	<circle cx="509.281" cy="604.15" r="4" fill="#0" id="circle84"/>
	<circle cx="521.655" cy="14.3119" r="4" fill="#0" id="circle85"/>
	<circle cx="529.904" cy="604.15" r="4" fill="#0" id="circle86"/>
	<circle cx="542.279" cy="14.3119" r="4" fill="#0" id="circle87"/>
	<circle cx="550.528" cy="604.15" r="4" fill="#0" id="circle88"/>
	<circle cx="562.902" cy="14.3119" r="4" fill="#0" id="circle89"/>
	<circle cx="569.089" cy="593.838" r="4" fill="#0" id="circle90"/>
	<circle cx="583.526" cy="14.3119" r="4" fill="#0" id="circle91"/>
	<circle cx="589.713" cy="593.838" r="4" fill="#0" id="circle92"/>
	<circle cx="604.15" cy="14.3119" r="4" fill="#0" id="circle93"/>
	<circle cx="610.337" cy="593.838" r="4" fill="#0" id="circle94"/>
	<circle cx="624.773" cy="14.3119" r="4" fill="#0" id="circle95"/>
	<circle cx="630.96" cy="593.838" r="4" fill="#0" id="circle96"/>
	<circle cx="645.397" cy="14.3119" r="4" fill="#0" id="circle97"/>
	<circle cx="651.584" cy="593.838" r="4" fill="#0" id="circle98"/>
	<circle cx="666.021" cy="14.3119" r="4" fill="#0" id="circle99"/>
	<circle cx="672.208" cy="593.838" r="4" fill="#0" id="circle100"/>
	<circle cx="686.644" cy="14.3119" r="4" fill="#0" id="circle101"/>
	<circle cx="692.832" cy="593.838" r="4" fill="#0" id="circle102"/>
	<circle cx="707.268" cy="14.3119" r="4" fill="#0" id="circle103"/>
	<circle cx="713.455" cy="593.838" r="4" fill="#0" id="circle104"/>
	<circle cx="727.892" cy="14.3119" r="4" fill="#0" id="circle105"/>
	<circle cx="734.079" cy="593.838" r="4" fill="#0" id="circle106"/>
	<circle cx="748.516" cy="14.3119" r="4" fill="#0" id="circle107"/>
	<circle cx="754.703" cy="593.838" r="4" fill="#0" id="circle108"/>
	<circle cx="767.077" cy="4" r="4" fill="#0" id="circle109"/>
	<circle cx="775.326" cy="593.838" r="4" fill="#0" id="circle110"/>
	<circle cx="787.701" cy="4" r="4" fill="#0" id="circle111"/>
	<circle cx="795.95" cy="593.838" r="4" fill="#0" id="circle112"/>
	<circle cx="808.324" cy="4" r="4" fill="#0" id="circle113"/>
	<circle cx="816.574" cy="593.838" r="4" fill="#0" id="circle114"/>
	<circle cx="828.948" cy="4" r="4" fill="#0" id="circle115"/>
	<circle cx="837.198" cy="593.838" r="4" fill="#0" id="circle116"/>
	<circle cx="849.572" cy="8.12474" r="4" fill="#0" id="circle117"/>
	<circle cx="857.821" cy="593.838" r="4" fill="#0" id="circle118"/>
	<circle cx="870.195" cy="14.3119" r="4" fill="#0" id="circle119"/>
	<circle cx="878.445" cy="593.838" r="4" fill="#0" id="circle120"/>
	<circle cx="890.819" cy="18.4366" r="4" fill="#0" id="circle121"/>
	<circle cx="899.069" cy="589.713" r="4" fill="#0" id="circle122"/>
	<circle cx="903.193" cy="34.9356" r="4" fill="#0" id="circle123"/>
	<circle cx="911.443" cy="573.214" r="4" fill="#0" id="circle124"/>
	<circle cx="923.817" cy="41.1227" r="4" fill="#0" id="circle125"/>
	<circle cx="930.004" cy="562.902" r="4" fill="#0" id="circle126"/>
	<circle cx="942.378" cy="51.4345" r="4" fill="#0" id="circle127"/>
	<circle cx="944.441" cy="542.279" r="4" fill="#0" id="circle128"/>
	<circle cx="954.753" cy="521.655" r="4" fill="#0" id="circle129"/>
	<circle cx="963.002" cy="55.5593" r="4" fill="#0" id="circle130"/>
	<circle cx="975.376" cy="72.0582" r="4" fill="#0" id="circle131"/>
	<circle cx="975.376" cy="92.6819" r="4" fill="#0" id="circle132"/>
	<circle cx="975.376" cy="511.343" r="4" fill="#0" id="circle133"/>
	<circle cx="985.688" cy="111.243" r="4" fill="#0" id="circle134"/>
	<circle cx="985.688" cy="131.867" r="4" fill="#0" id="circle135"/>
	<circle cx="985.688" cy="152.491" r="4" fill="#0" id="circle136"/>
	<circle cx="985.688" cy="173.114" r="4" fill="#0" id="circle137"/>
	<circle cx="985.688" cy="193.738" r="4" fill="#0" id="circle138"/>
	<circle cx="985.688" cy="214.362" r="4" fill="#0" id="circle139"/>
	<circle cx="985.688" cy="234.985" r="4" fill="#0" id="circle140"/>
	<circle cx="985.688" cy="255.609" r="4" fill="#0" id="circle141"/>
	<circle cx="985.688" cy="276.233" r="4" fill="#0" id="circle142"/>
	<circle cx="985.688" cy="296.857" r="4" fill="#0" id="circle143"/>
	<circle cx="985.688" cy="317.48" r="4" fill="#0" id="circle144"/>
	<circle cx="985.688" cy="338.104" r="4" fill="#0" id="circle145"/>
	<circle cx="985.688" cy="358.728" r="4" fill="#0" id="circle146"/>
	<circle cx="985.688" cy="379.351" r="4" fill="#0" id="circle147"/>
	<circle cx="985.688" cy="399.975" r="4" fill="#0" id="circle148"/>
	<circle cx="985.688" cy="420.599" r="4" fill="#0" id="circle149"/>
	<circle cx="991.875" cy="441.222" r="4" fill="#0" id="circle150"/>
	<circle cx="991.875" cy="496.906" r="4" fill="#0" id="circle151"/>
	<circle cx="996" cy="461.846" r="4" fill="#0" id="circle152"/>
	</g>
</svg>