<?xml version="1.0" encoding="UTF-8" standalone="no"?>
<!-- Created with CurveBenchmark -->
<svg
	xmlns:dc="http://purl.org/dc/elements/1.1/"
	xmlns:cc="http://creativecommons.org/ns#"
	xmlns:rdf="http://www.w3.org/1999/02/22-rdf-syntax-ns#"
	xmlns:svg="http://www.w3.org/2000/svg"
	xmlns="http://www.w3.org/2000/svg"
	xmlns:sodipodi="http://sodipodi.sourceforge.net/DTD/sodipodi-0.dtd"
	xmlns:inkscape="http://www.inkscape.org/namespaces/inkscape"
	width="1000"
	height="1000"
	id="svg2"
	version="1.1"
	sodipodi:docname="manifold/hnncrust-tool62.png.txt">
<defs
	id="defs4" />
<metadata
	id="metadata7">
	<rdf:RDF>
		<cc:Work
			rdf:about="">
			<dc:format>image/svg+xml</dc:format>
			<dc:type
				rdf:resource="http://purl.org/dc/dcmitype/StillImage" />
			<dc:title></dc:title>
		</cc:Work>
	</rdf:RDF>
</metadata>
<g
	inkscape:label="Layer 1"
	inkscape:groupmode="layer"
	id="layer1">
	<path style="fill:none;stroke:red;stroke-width:1px;stroke-linecap:butt;stroke-linejoin:miter;stroke-opacity:1" d="M 4,114.545 4,143.636 z" id="boundary" inkscape:connector-curvature="0" />
	<path style="fill:none;stroke:red;stroke-width:1px;stroke-linecap:butt;stroke-linejoin:miter;stroke-opacity:1" d="M 4,114.545 33.0909,105.818 z" id="boundary" inkscape:connector-curvature="0" />
	<path style="fill:none;stroke:red;stroke-width:1px;stroke-linecap:butt;stroke-linejoin:miter;stroke-opacity:1" d="M 4,143.636 4,172.727 z" id="boundary" inkscape:connector-curvature="0" />
	<path style="fill:none;stroke:red;stroke-width:1px;stroke-linecap:butt;stroke-linejoin:miter;stroke-opacity:1" d="M 4,172.727 18.5455,198.909 z" id="boundary" inkscape:connector-curvature="0" />
	<path style="fill:none;stroke:red;stroke-width:1px;stroke-linecap:butt;stroke-linejoin:miter;stroke-opacity:1" d="M 18.5455,198.909 33.0909,225.091 z" id="boundary" inkscape:connector-curvature="0" />
	<path style="fill:none;stroke:red;stroke-width:1px;stroke-linecap:butt;stroke-linejoin:miter;stroke-opacity:1" d="M 33.0909,105.818 59.2727,91.2727 z" id="boundary" inkscape:connector-curvature="0" />
	<path style="fill:none;stroke:red;stroke-width:1px;stroke-linecap:butt;stroke-linejoin:miter;stroke-opacity:1" d="M 33.0909,225.091 59.2727,239.636 z" id="boundary" inkscape:connector-curvature="0" />
	<path style="fill:none;stroke:red;stroke-width:1px;stroke-linecap:butt;stroke-linejoin:miter;stroke-opacity:1" d="M 59.2727,91.2727 79.6364,114.545 z" id="boundary" inkscape:connector-curvature="0" />
	<path style="fill:none;stroke:red;stroke-width:1px;stroke-linecap:butt;stroke-linejoin:miter;stroke-opacity:1" d="M 59.2727,239.636 79.6364,262.909 z" id="boundary" inkscape:connector-curvature="0" />
	<path style="fill:none;stroke:red;stroke-width:1px;stroke-linecap:butt;stroke-linejoin:miter;stroke-opacity:1" d="M 79.6364,114.545 94.1818,140.727 z" id="boundary" inkscape:connector-curvature="0" />
	<path style="fill:none;stroke:red;stroke-width:1px;stroke-linecap:butt;stroke-linejoin:miter;stroke-opacity:1" d="M 79.6364,262.909 108.727,268.727 z" id="boundary" inkscape:connector-curvature="0" />
	<path style="fill:none;stroke:red;stroke-width:1px;stroke-linecap:butt;stroke-linejoin:miter;stroke-opacity:1" d="M 94.1818,140.727 102.909,169.818 z" id="boundary" inkscape:connector-curvature="0" />
	<path style="fill:none;stroke:red;stroke-width:1px;stroke-linecap:butt;stroke-linejoin:miter;stroke-opacity:1" d="M 102.909,169.818 132,178.545 z" id="boundary" inkscape:connector-curvature="0" />
	<path style="fill:none;stroke:red;stroke-width:1px;stroke-linecap:butt;stroke-linejoin:miter;stroke-opacity:1" d="M 108.727,268.727 137.818,268.727 z" id="boundary" inkscape:connector-curvature="0" />
	<path style="fill:none;stroke:red;stroke-width:1px;stroke-linecap:butt;stroke-linejoin:miter;stroke-opacity:1" d="M 120.364,27.2727 134.909,53.4545 z" id="boundary" inkscape:connector-curvature="0" />
	<path style="fill:none;stroke:red;stroke-width:1px;stroke-linecap:butt;stroke-linejoin:miter;stroke-opacity:1" d="M 120.364,27.2727 149.455,18.5455 z" id="boundary" inkscape:connector-curvature="0" />
	<path style="fill:none;stroke:red;stroke-width:1px;stroke-linecap:butt;stroke-linejoin:miter;stroke-opacity:1" d="M 132,178.545 158.182,164 z" id="boundary" inkscape:connector-curvature="0" />
	<path style="fill:none;stroke:red;stroke-width:1px;stroke-linecap:butt;stroke-linejoin:miter;stroke-opacity:1" d="M 134.909,53.4545 155.273,76.7273 z" id="boundary" inkscape:connector-curvature="0" />
	<path style="fill:none;stroke:red;stroke-width:1px;stroke-linecap:butt;stroke-linejoin:miter;stroke-opacity:1" d="M 137.818,268.727 166.909,268.727 z" id="boundary" inkscape:connector-curvature="0" />
	<path style="fill:none;stroke:red;stroke-width:1px;stroke-linecap:butt;stroke-linejoin:miter;stroke-opacity:1" d="M 149.455,18.5455 175.636,4 z" id="boundary" inkscape:connector-curvature="0" />
	<path style="fill:none;stroke:red;stroke-width:1px;stroke-linecap:butt;stroke-linejoin:miter;stroke-opacity:1" d="M 155.273,76.7273 169.818,102.909 z" id="boundary" inkscape:connector-curvature="0" />
	<path style="fill:none;stroke:red;stroke-width:1px;stroke-linecap:butt;stroke-linejoin:miter;stroke-opacity:1" d="M 158.182,164 178.545,132 z" id="boundary" inkscape:connector-curvature="0" />
	<path style="fill:none;stroke:red;stroke-width:1px;stroke-linecap:butt;stroke-linejoin:miter;stroke-opacity:1" d="M 166.909,268.727 196,274.545 z" id="boundary" inkscape:connector-curvature="0" />
	<path style="fill:none;stroke:red;stroke-width:1px;stroke-linecap:butt;stroke-linejoin:miter;stroke-opacity:1" d="M 169.818,102.909 178.545,132 z" id="boundary" inkscape:connector-curvature="0" />
	<path style="fill:none;stroke:red;stroke-width:1px;stroke-linecap:butt;stroke-linejoin:miter;stroke-opacity:1" d="M 175.636,4 201.818,18.5455 z" id="boundary" inkscape:connector-curvature="0" />
	<path style="fill:none;stroke:red;stroke-width:1px;stroke-linecap:butt;stroke-linejoin:miter;stroke-opacity:1" d="M 196,274.545 222.182,289.091 z" id="boundary" inkscape:connector-curvature="0" />
	<path style="fill:none;stroke:red;stroke-width:1px;stroke-linecap:butt;stroke-linejoin:miter;stroke-opacity:1" d="M 201.818,18.5455 228,33.0909 z" id="boundary" inkscape:connector-curvature="0" />
	<path style="fill:none;stroke:red;stroke-width:1px;stroke-linecap:butt;stroke-linejoin:miter;stroke-opacity:1" d="M 222.182,289.091 245.455,309.455 z" id="boundary" inkscape:connector-curvature="0" />
	<path style="fill:none;stroke:red;stroke-width:1px;stroke-linecap:butt;stroke-linejoin:miter;stroke-opacity:1" d="M 228,33.0909 251.273,53.4545 z" id="boundary" inkscape:connector-curvature="0" />
	<path style="fill:none;stroke:red;stroke-width:1px;stroke-linecap:butt;stroke-linejoin:miter;stroke-opacity:1" d="M 245.455,309.455 274.545,312.364 z" id="boundary" inkscape:connector-curvature="0" />
	<path style="fill:none;stroke:red;stroke-width:1px;stroke-linecap:butt;stroke-linejoin:miter;stroke-opacity:1" d="M 251.273,53.4545 268.727,76.7273 z" id="boundary" inkscape:connector-curvature="0" />
	<path style="fill:none;stroke:red;stroke-width:1px;stroke-linecap:butt;stroke-linejoin:miter;stroke-opacity:1" d="M 268.727,76.7273 268.727,105.818 z" id="boundary" inkscape:connector-curvature="0" />
	<path style="fill:none;stroke:red;stroke-width:1px;stroke-linecap:butt;stroke-linejoin:miter;stroke-opacity:1" d="M 268.727,105.818 283.273,132 z" id="boundary" inkscape:connector-curvature="0" />
	<path style="fill:none;stroke:red;stroke-width:1px;stroke-linecap:butt;stroke-linejoin:miter;stroke-opacity:1" d="M 274.545,312.364 297.818,332.727 z" id="boundary" inkscape:connector-curvature="0" />
	<path style="fill:none;stroke:red;stroke-width:1px;stroke-linecap:butt;stroke-linejoin:miter;stroke-opacity:1" d="M 283.273,132 283.273,161.091 z" id="boundary" inkscape:connector-curvature="0" />
	<path style="fill:none;stroke:red;stroke-width:1px;stroke-linecap:butt;stroke-linejoin:miter;stroke-opacity:1" d="M 283.273,161.091 297.818,187.273 z" id="boundary" inkscape:connector-curvature="0" />
	<path style="fill:none;stroke:red;stroke-width:1px;stroke-linecap:butt;stroke-linejoin:miter;stroke-opacity:1" d="M 297.818,187.273 318.182,210.545 z" id="boundary" inkscape:connector-curvature="0" />
	<path style="fill:none;stroke:red;stroke-width:1px;stroke-linecap:butt;stroke-linejoin:miter;stroke-opacity:1" d="M 297.818,332.727 318.182,356 z" id="boundary" inkscape:connector-curvature="0" />
	<path style="fill:none;stroke:red;stroke-width:1px;stroke-linecap:butt;stroke-linejoin:miter;stroke-opacity:1" d="M 318.182,210.545 347.273,222.182 z" id="boundary" inkscape:connector-curvature="0" />
	<path style="fill:none;stroke:red;stroke-width:1px;stroke-linecap:butt;stroke-linejoin:miter;stroke-opacity:1" d="M 318.182,356 341.455,376.364 z" id="boundary" inkscape:connector-curvature="0" />
	<path style="fill:none;stroke:red;stroke-width:1px;stroke-linecap:butt;stroke-linejoin:miter;stroke-opacity:1" d="M 341.455,376.364 353.091,405.455 z" id="boundary" inkscape:connector-curvature="0" />
	<path style="fill:none;stroke:red;stroke-width:1px;stroke-linecap:butt;stroke-linejoin:miter;stroke-opacity:1" d="M 347.273,222.182 356,251.273 z" id="boundary" inkscape:connector-curvature="0" />
	<path style="fill:none;stroke:red;stroke-width:1px;stroke-linecap:butt;stroke-linejoin:miter;stroke-opacity:1" d="M 353.091,405.455 382.182,414.182 z" id="boundary" inkscape:connector-curvature="0" />
	<path style="fill:none;stroke:red;stroke-width:1px;stroke-linecap:butt;stroke-linejoin:miter;stroke-opacity:1" d="M 356,251.273 379.273,268.727 z" id="boundary" inkscape:connector-curvature="0" />
	<path style="fill:none;stroke:red;stroke-width:1px;stroke-linecap:butt;stroke-linejoin:miter;stroke-opacity:1" d="M 379.273,268.727 405.455,283.273 z" id="boundary" inkscape:connector-curvature="0" />
	<path style="fill:none;stroke:red;stroke-width:1px;stroke-linecap:butt;stroke-linejoin:miter;stroke-opacity:1" d="M 382.182,414.182 399.636,437.455 z" id="boundary" inkscape:connector-curvature="0" />
	<path style="fill:none;stroke:red;stroke-width:1px;stroke-linecap:butt;stroke-linejoin:miter;stroke-opacity:1" d="M 399.636,437.455 428.727,449.091 z" id="boundary" inkscape:connector-curvature="0" />
	<path style="fill:none;stroke:red;stroke-width:1px;stroke-linecap:butt;stroke-linejoin:miter;stroke-opacity:1" d="M 405.455,283.273 428.727,303.636 z" id="boundary" inkscape:connector-curvature="0" />
	<path style="fill:none;stroke:red;stroke-width:1px;stroke-linecap:butt;stroke-linejoin:miter;stroke-opacity:1" d="M 428.727,303.636 454.909,318.182 z" id="boundary" inkscape:connector-curvature="0" />
	<path style="fill:none;stroke:red;stroke-width:1px;stroke-linecap:butt;stroke-linejoin:miter;stroke-opacity:1" d="M 428.727,449.091 449.091,472.364 z" id="boundary" inkscape:connector-curvature="0" />
	<path style="fill:none;stroke:red;stroke-width:1px;stroke-linecap:butt;stroke-linejoin:miter;stroke-opacity:1" d="M 449.091,472.364 472.364,492.727 z" id="boundary" inkscape:connector-curvature="0" />
	<path style="fill:none;stroke:red;stroke-width:1px;stroke-linecap:butt;stroke-linejoin:miter;stroke-opacity:1" d="M 454.909,318.182 484,329.818 z" id="boundary" inkscape:connector-curvature="0" />
	<path style="fill:none;stroke:red;stroke-width:1px;stroke-linecap:butt;stroke-linejoin:miter;stroke-opacity:1" d="M 472.364,492.727 492.727,516 z" id="boundary" inkscape:connector-curvature="0" />
	<path style="fill:none;stroke:red;stroke-width:1px;stroke-linecap:butt;stroke-linejoin:miter;stroke-opacity:1" d="M 484,329.818 495.636,358.909 z" id="boundary" inkscape:connector-curvature="0" />
	<path style="fill:none;stroke:red;stroke-width:1px;stroke-linecap:butt;stroke-linejoin:miter;stroke-opacity:1" d="M 492.727,516 516,536.364 z" id="boundary" inkscape:connector-curvature="0" />
	<path style="fill:none;stroke:red;stroke-width:1px;stroke-linecap:butt;stroke-linejoin:miter;stroke-opacity:1" d="M 495.636,358.909 516,382.182 z" id="boundary" inkscape:connector-curvature="0" />
	<path style="fill:none;stroke:red;stroke-width:1px;stroke-linecap:butt;stroke-linejoin:miter;stroke-opacity:1" d="M 516,382.182 545.091,390.909 z" id="boundary" inkscape:connector-curvature="0" />
	<path style="fill:none;stroke:red;stroke-width:1px;stroke-linecap:butt;stroke-linejoin:miter;stroke-opacity:1" d="M 516,536.364 536.364,559.636 z" id="boundary" inkscape:connector-curvature="0" />
	<path style="fill:none;stroke:red;stroke-width:1px;stroke-linecap:butt;stroke-linejoin:miter;stroke-opacity:1" d="M 536.364,559.636 562.545,574.182 z" id="boundary" inkscape:connector-curvature="0" />
	<path style="fill:none;stroke:red;stroke-width:1px;stroke-linecap:butt;stroke-linejoin:miter;stroke-opacity:1" d="M 545.091,390.909 565.455,414.182 z" id="boundary" inkscape:connector-curvature="0" />
	<path style="fill:none;stroke:red;stroke-width:1px;stroke-linecap:butt;stroke-linejoin:miter;stroke-opacity:1" d="M 562.545,574.182 588.727,588.727 z" id="boundary" inkscape:connector-curvature="0" />
	<path style="fill:none;stroke:red;stroke-width:1px;stroke-linecap:butt;stroke-linejoin:miter;stroke-opacity:1" d="M 565.455,414.182 594.545,425.818 z" id="boundary" inkscape:connector-curvature="0" />
	<path style="fill:none;stroke:red;stroke-width:1px;stroke-linecap:butt;stroke-linejoin:miter;stroke-opacity:1" d="M 588.727,588.727 614.909,603.273 z" id="boundary" inkscape:connector-curvature="0" />
	<path style="fill:none;stroke:red;stroke-width:1px;stroke-linecap:butt;stroke-linejoin:miter;stroke-opacity:1" d="M 594.545,425.818 620.727,440.364 z" id="boundary" inkscape:connector-curvature="0" />
	<path style="fill:none;stroke:red;stroke-width:1px;stroke-linecap:butt;stroke-linejoin:miter;stroke-opacity:1" d="M 614.909,603.273 623.636,632.364 z" id="boundary" inkscape:connector-curvature="0" />
	<path style="fill:none;stroke:red;stroke-width:1px;stroke-linecap:butt;stroke-linejoin:miter;stroke-opacity:1" d="M 620.727,440.364 644,460.727 z" id="boundary" inkscape:connector-curvature="0" />
	<path style="fill:none;stroke:red;stroke-width:1px;stroke-linecap:butt;stroke-linejoin:miter;stroke-opacity:1" d="M 623.636,632.364 638.182,658.545 z" id="boundary" inkscape:connector-curvature="0" />
	<path style="fill:none;stroke:red;stroke-width:1px;stroke-linecap:butt;stroke-linejoin:miter;stroke-opacity:1" d="M 638.182,658.545 649.818,687.636 z" id="boundary" inkscape:connector-curvature="0" />
	<path style="fill:none;stroke:red;stroke-width:1px;stroke-linecap:butt;stroke-linejoin:miter;stroke-opacity:1" d="M 644,460.727 661.455,484 z" id="boundary" inkscape:connector-curvature="0" />
	<path style="fill:none;stroke:red;stroke-width:1px;stroke-linecap:butt;stroke-linejoin:miter;stroke-opacity:1" d="M 649.818,687.636 673.091,705.091 z" id="boundary" inkscape:connector-curvature="0" />
	<path style="fill:none;stroke:red;stroke-width:1px;stroke-linecap:butt;stroke-linejoin:miter;stroke-opacity:1" d="M 661.455,484 690.545,492.727 z" id="boundary" inkscape:connector-curvature="0" />
	<path style="fill:none;stroke:red;stroke-width:1px;stroke-linecap:butt;stroke-linejoin:miter;stroke-opacity:1" d="M 673.091,705.091 681.818,734.182 z" id="boundary" inkscape:connector-curvature="0" />
	<path style="fill:none;stroke:red;stroke-width:1px;stroke-linecap:butt;stroke-linejoin:miter;stroke-opacity:1" d="M 681.818,734.182 705.091,754.545 z" id="boundary" inkscape:connector-curvature="0" />
	<path style="fill:none;stroke:red;stroke-width:1px;stroke-linecap:butt;stroke-linejoin:miter;stroke-opacity:1" d="M 690.545,492.727 710.909,516 z" id="boundary" inkscape:connector-curvature="0" />
	<path style="fill:none;stroke:red;stroke-width:1px;stroke-linecap:butt;stroke-linejoin:miter;stroke-opacity:1" d="M 705.091,754.545 716.727,783.636 z" id="boundary" inkscape:connector-curvature="0" />
	<path style="fill:none;stroke:red;stroke-width:1px;stroke-linecap:butt;stroke-linejoin:miter;stroke-opacity:1" d="M 710.909,516 734.182,536.364 z" id="boundary" inkscape:connector-curvature="0" />
	<path style="fill:none;stroke:red;stroke-width:1px;stroke-linecap:butt;stroke-linejoin:miter;stroke-opacity:1" d="M 716.727,783.636 740,804 z" id="boundary" inkscape:connector-curvature="0" />
	<path style="fill:none;stroke:red;stroke-width:1px;stroke-linecap:butt;stroke-linejoin:miter;stroke-opacity:1" d="M 734.182,536.364 754.545,559.636 z" id="boundary" inkscape:connector-curvature="0" />
	<path style="fill:none;stroke:red;stroke-width:1px;stroke-linecap:butt;stroke-linejoin:miter;stroke-opacity:1" d="M 740,804 763.273,821.455 z" id="boundary" inkscape:connector-curvature="0" />
	<path style="fill:none;stroke:red;stroke-width:1px;stroke-linecap:butt;stroke-linejoin:miter;stroke-opacity:1" d="M 754.545,559.636 783.636,571.273 z" id="boundary" inkscape:connector-curvature="0" />
	<path style="fill:none;stroke:red;stroke-width:1px;stroke-linecap:butt;stroke-linejoin:miter;stroke-opacity:1" d="M 763.273,821.455 789.455,836 z" id="boundary" inkscape:connector-curvature="0" />
	<path style="fill:none;stroke:red;stroke-width:1px;stroke-linecap:butt;stroke-linejoin:miter;stroke-opacity:1" d="M 783.636,571.273 812.727,571.273 z" id="boundary" inkscape:connector-curvature="0" />
	<path style="fill:none;stroke:red;stroke-width:1px;stroke-linecap:butt;stroke-linejoin:miter;stroke-opacity:1" d="M 789.455,836 815.636,821.455 z" id="boundary" inkscape:connector-curvature="0" />
	<path style="fill:none;stroke:red;stroke-width:1px;stroke-linecap:butt;stroke-linejoin:miter;stroke-opacity:1" d="M 806.909,719.636 812.727,748.727 z" id="boundary" inkscape:connector-curvature="0" />
	<path style="fill:none;stroke:red;stroke-width:1px;stroke-linecap:butt;stroke-linejoin:miter;stroke-opacity:1" d="M 812.727,571.273 838.909,585.818 z" id="boundary" inkscape:connector-curvature="0" />
	<path style="fill:none;stroke:red;stroke-width:1px;stroke-linecap:butt;stroke-linejoin:miter;stroke-opacity:1" d="M 812.727,748.727 841.818,745.818 z" id="boundary" inkscape:connector-curvature="0" />
	<path style="fill:none;stroke:red;stroke-width:1px;stroke-linecap:butt;stroke-linejoin:miter;stroke-opacity:1" d="M 838.909,585.818 868,585.818 z" id="boundary" inkscape:connector-curvature="0" />
	<path style="fill:none;stroke:red;stroke-width:1px;stroke-linecap:butt;stroke-linejoin:miter;stroke-opacity:1" d="M 841.818,745.818 862.182,769.091 z" id="boundary" inkscape:connector-curvature="0" />
	<path style="fill:none;stroke:red;stroke-width:1px;stroke-linecap:butt;stroke-linejoin:miter;stroke-opacity:1" d="M 862.182,769.091 891.273,769.091 z" id="boundary" inkscape:connector-curvature="0" />
	<path style="fill:none;stroke:red;stroke-width:1px;stroke-linecap:butt;stroke-linejoin:miter;stroke-opacity:1" d="M 865.091,676 879.636,702.182 z" id="boundary" inkscape:connector-curvature="0" />
	<path style="fill:none;stroke:red;stroke-width:1px;stroke-linecap:butt;stroke-linejoin:miter;stroke-opacity:1" d="M 865.091,676 891.273,661.455 z" id="boundary" inkscape:connector-curvature="0" />
	<path style="fill:none;stroke:red;stroke-width:1px;stroke-linecap:butt;stroke-linejoin:miter;stroke-opacity:1" d="M 868,585.818 897.091,585.818 z" id="boundary" inkscape:connector-curvature="0" />
	<path style="fill:none;stroke:red;stroke-width:1px;stroke-linecap:butt;stroke-linejoin:miter;stroke-opacity:1" d="M 879.636,702.182 894.182,728.364 z" id="boundary" inkscape:connector-curvature="0" />
	<path style="fill:none;stroke:red;stroke-width:1px;stroke-linecap:butt;stroke-linejoin:miter;stroke-opacity:1" d="M 891.273,661.455 920.364,661.455 z" id="boundary" inkscape:connector-curvature="0" />
	<path style="fill:none;stroke:red;stroke-width:1px;stroke-linecap:butt;stroke-linejoin:miter;stroke-opacity:1" d="M 891.273,769.091 894.182,728.364 z" id="boundary" inkscape:connector-curvature="0" />
	<path style="fill:none;stroke:red;stroke-width:1px;stroke-linecap:butt;stroke-linejoin:miter;stroke-opacity:1" d="M 897.091,585.818 926.182,585.818 z" id="boundary" inkscape:connector-curvature="0" />
	<path style="fill:none;stroke:red;stroke-width:1px;stroke-linecap:butt;stroke-linejoin:miter;stroke-opacity:1" d="M 920.364,661.455 937.818,684.727 z" id="boundary" inkscape:connector-curvature="0" />
	<path style="fill:none;stroke:red;stroke-width:1px;stroke-linecap:butt;stroke-linejoin:miter;stroke-opacity:1" d="M 926.182,585.818 949.455,606.182 z" id="boundary" inkscape:connector-curvature="0" />
	<path style="fill:none;stroke:red;stroke-width:1px;stroke-linecap:butt;stroke-linejoin:miter;stroke-opacity:1" d="M 937.818,684.727 961.091,705.091 z" id="boundary" inkscape:connector-curvature="0" />
	<path style="fill:none;stroke:red;stroke-width:1px;stroke-linecap:butt;stroke-linejoin:miter;stroke-opacity:1" d="M 949.455,606.182 975.636,620.727 z" id="boundary" inkscape:connector-curvature="0" />
	<path style="fill:none;stroke:red;stroke-width:1px;stroke-linecap:butt;stroke-linejoin:miter;stroke-opacity:1" d="M 961.091,705.091 987.273,719.636 z" id="boundary" inkscape:connector-curvature="0" />
	<path style="fill:none;stroke:red;stroke-width:1px;stroke-linecap:butt;stroke-linejoin:miter;stroke-opacity:1" d="M 975.636,620.727 990.182,646.909 z" id="boundary" inkscape:connector-curvature="0" />
	<path style="fill:none;stroke:red;stroke-width:1px;stroke-linecap:butt;stroke-linejoin:miter;stroke-opacity:1" d="M 987.273,719.636 996,676 z" id="boundary" inkscape:connector-curvature="0" />
	<path style="fill:none;stroke:red;stroke-width:1px;stroke-linecap:butt;stroke-linejoin:miter;stroke-opacity:1" d="M 990.182,646.909 996,676 z" id="boundary" inkscape:connector-curvature="0" />
	<circle cx="4" cy="114.545" r="4" fill="#0" id="circle0"/>
	<circle cx="4" cy="143.636" r="4" fill="#0" id="circle1"/>
	<circle cx="4" cy="172.727" r="4" fill="#0" id="circle2"/>
	<circle cx="18.5455" cy="198.909" r="4" fill="#0" id="circle3"/>
	<circle cx="33.0909" cy="105.818" r="4" fill="#0" id="circle4"/>
	<circle cx="33.0909" cy="225.091" r="4" fill="#0" id="circle5"/>
	<circle cx="59.2727" cy="91.2727" r="4" fill="#0" id="circle6"/>
	<circle cx="59.2727" cy="239.636" r="4" fill="#0" id="circle7"/>
	<circle cx="79.6364" cy="114.545" r="4" fill="#0" id="circle8"/>
	<circle cx="79.6364" cy="262.909" r="4" fill="#0" id="circle9"/>
	<circle cx="94.1818" cy="140.727" r="4" fill="#0" id="circle10"/>
	<circle cx="102.909" cy="169.818" r="4" fill="#0" id="circle11"/>
	<circle cx="108.727" cy="268.727" r="4" fill="#0" id="circle12"/>
	<circle cx="120.364" cy="27.2727" r="4" fill="#0" id="circle13"/>
	<circle cx="132" cy="178.545" r="4" fill="#0" id="circle14"/>
	<circle cx="134.909" cy="53.4545" r="4" fill="#0" id="circle15"/>
	<circle cx="137.818" cy="268.727" r="4" fill="#0" id="circle16"/>
	<circle cx="149.455" cy="18.5455" r="4" fill="#0" id="circle17"/>
	<circle cx="155.273" cy="76.7273" r="4" fill="#0" id="circle18"/>
	<circle cx="158.182" cy="164" r="4" fill="#0" id="circle19"/>
	<circle cx="166.909" cy="268.727" r="4" fill="#0" id="circle20"/>
	<circle cx="169.818" cy="102.909" r="4" fill="#0" id="circle21"/>
	<circle cx="175.636" cy="4" r="4" fill="#0" id="circle22"/>
	<circle cx="178.545" cy="132" r="4" fill="#0" id="circle23"/>
	<circle cx="196" cy="274.545" r="4" fill="#0" id="circle24"/>
	<circle cx="201.818" cy="18.5455" r="4" fill="#0" id="circle25"/>
	<circle cx="222.182" cy="289.091" r="4" fill="#0" id="circle26"/>
	<circle cx="228" cy="33.0909" r="4" fill="#0" id="circle27"/>
	<circle cx="245.455" cy="309.455" r="4" fill="#0" id="circle28"/>
	<circle cx="251.273" cy="53.4545" r="4" fill="#0" id="circle29"/>
	<circle cx="268.727" cy="76.7273" r="4" fill="#0" id="circle30"/>
	<circle cx="268.727" cy="105.818" r="4" fill="#0" id="circle31"/>
	<circle cx="274.545" cy="312.364" r="4" fill="#0" id="circle32"/>
	<circle cx="283.273" cy="132" r="4" fill="#0" id="circle33"/>
	<circle cx="283.273" cy="161.091" r="4" fill="#0" id="circle34"/>
	<circle cx="297.818" cy="187.273" r="4" fill="#0" id="circle35"/>
	<circle cx="297.818" cy="332.727" r="4" fill="#0" id="circle36"/>
	<circle cx="318.182" cy="210.545" r="4" fill="#0" id="circle37"/>
	<circle cx="318.182" cy="356" r="4" fill="#0" id="circle38"/>
	<circle cx="341.455" cy="376.364" r="4" fill="#0" id="circle39"/>
	<circle cx="347.273" cy="222.182" r="4" fill="#0" id="circle40"/>
	<circle cx="353.091" cy="405.455" r="4" fill="#0" id="circle41"/>
	<circle cx="356" cy="251.273" r="4" fill="#0" id="circle42"/>
	<circle cx="379.273" cy="268.727" r="4" fill="#0" id="circle43"/>
	<circle cx="382.182" cy="414.182" r="4" fill="#0" id="circle44"/>
	<circle cx="399.636" cy="437.455" r="4" fill="#0" id="circle45"/>
	<circle cx="405.455" cy="283.273" r="4" fill="#0" id="circle46"/>
	<circle cx="428.727" cy="303.636" r="4" fill="#0" id="circle47"/>
	<circle cx="428.727" cy="449.091" r="4" fill="#0" id="circle48"/>
	<circle cx="449.091" cy="472.364" r="4" fill="#0" id="circle49"/>
	<circle cx="454.909" cy="318.182" r="4" fill="#0" id="circle50"/>
	<circle cx="472.364" cy="492.727" r="4" fill="#0" id="circle51"/>
	<circle cx="484" cy="329.818" r="4" fill="#0" id="circle52"/>
	<circle cx="492.727" cy="516" r="4" fill="#0" id="circle53"/>
	<circle cx="495.636" cy="358.909" r="4" fill="#0" id="circle54"/>
	<circle cx="516" cy="382.182" r="4" fill="#0" id="circle55"/>
	<circle cx="516" cy="536.364" r="4" fill="#0" id="circle56"/>
	<circle cx="536.364" cy="559.636" r="4" fill="#0" id="circle57"/>
	<circle cx="545.091" cy="390.909" r="4" fill="#0" id="circle58"/>
	<circle cx="562.545" cy="574.182" r="4" fill="#0" id="circle59"/>
	<circle cx="565.455" cy="414.182" r="4" fill="#0" id="circle60"/>
	<circle cx="588.727" cy="588.727" r="4" fill="#0" id="circle61"/>
	<circle cx="594.545" cy="425.818" r="4" fill="#0" id="circle62"/>
	<circle cx="614.909" cy="603.273" r="4" fill="#0" id="circle63"/>
	<circle cx="620.727" cy="440.364" r="4" fill="#0" id="circle64"/>
	<circle cx="623.636" cy="632.364" r="4" fill="#0" id="circle65"/>
	<circle cx="638.182" cy="658.545" r="4" fill="#0" id="circle66"/>
	<circle cx="644" cy="460.727" r="4" fill="#0" id="circle67"/>
	<circle cx="649.818" cy="687.636" r="4" fill="#0" id="circle68"/>
	<circle cx="661.455" cy="484" r="4" fill="#0" id="circle69"/>
	<circle cx="673.091" cy="705.091" r="4" fill="#0" id="circle70"/>
	<circle cx="681.818" cy="734.182" r="4" fill="#0" id="circle71"/>
	<circle cx="690.545" cy="492.727" r="4" fill="#0" id="circle72"/>
	<circle cx="705.091" cy="754.545" r="4" fill="#0" id="circle73"/>
	<circle cx="710.909" cy="516" r="4" fill="#0" id="circle74"/>
	<circle cx="716.727" cy="783.636" r="4" fill="#0" id="circle75"/>
	<circle cx="734.182" cy="536.364" r="4" fill="#0" id="circle76"/>
	<circle cx="740" cy="804" r="4" fill="#0" id="circle77"/>
	<circle cx="754.545" cy="559.636" r="4" fill="#0" id="circle78"/>
	<circle cx="763.273" cy="821.455" r="4" fill="#0" id="circle79"/>
	<circle cx="783.636" cy="571.273" r="4" fill="#0" id="circle80"/>
	<circle cx="789.455" cy="836" r="4" fill="#0" id="circle81"/>
	<circle cx="806.909" cy="719.636" r="4" fill="#0" id="circle82"/>
	<circle cx="812.727" cy="571.273" r="4" fill="#0" id="circle83"/>
	<circle cx="812.727" cy="748.727" r="4" fill="#0" id="circle84"/>
	<circle cx="815.636" cy="821.455" r="4" fill="#0" id="circle85"/>
	<circle cx="827.273" cy="774.909" r="4" fill="#0" id="circle86"/>
	<circle cx="838.909" cy="585.818" r="4" fill="#0" id="circle87"/>
	<circle cx="841.818" cy="745.818" r="4" fill="#0" id="circle88"/>
	<circle cx="862.182" cy="769.091" r="4" fill="#0" id="circle89"/>
	<circle cx="865.091" cy="676" r="4" fill="#0" id="circle90"/>
	<circle cx="868" cy="585.818" r="4" fill="#0" id="circle91"/>
	<circle cx="879.636" cy="702.182" r="4" fill="#0" id="circle92"/>
	<circle cx="891.273" cy="661.455" r="4" fill="#0" id="circle93"/>
	<circle cx="891.273" cy="769.091" r="4" fill="#0" id="circle94"/>
	<circle cx="894.182" cy="728.364" r="4" fill="#0" id="circle95"/>
	<circle cx="897.091" cy="585.818" r="4" fill="#0" id="circle96"/>
	<circle cx="920.364" cy="661.455" r="4" fill="#0" id="circle97"/>
	<circle cx="926.182" cy="585.818" r="4" fill="#0" id="circle98"/>
	<circle cx="937.818" cy="684.727" r="4" fill="#0" id="circle99"/>
	<circle cx="949.455" cy="606.182" r="4" fill="#0" id="circle100"/>
	<circle cx="961.091" cy="705.091" r="4" fill="#0" id="circle101"/>
	<circle cx="975.636" cy="620.727" r="4" fill="#0" id="circle102"/>
	<circle cx="987.273" cy="719.636" r="4" fill="#0" id="circle103"/>
	<circle cx="990.182" cy="646.909" r="4" fill="#0" id="circle104"/>
	<circle cx="996" cy="676" r="4" fill="#0" id="circle105"/>
	</g>
</svg>