<?xml version="1.0" encoding="UTF-8" standalone="no"?>
<!-- Created with CurveBenchmark -->
<svg
	xmlns:dc="http://purl.org/dc/elements/1.1/"
	xmlns:cc="http://creativecommons.org/ns#"
	xmlns:rdf="http://www.w3.org/1999/02/22-rdf-syntax-ns#"
	xmlns:svg="http://www.w3.org/2000/svg"
	xmlns="http://www.w3.org/2000/svg"
	xmlns:sodipodi="http://sodipodi.sourceforge.net/DTD/sodipodi-0.dtd"
	xmlns:inkscape="http://www.inkscape.org/namespaces/inkscape"
	width="1000"
	height="1000"
	id="svg2"
	version="1.1"
	sodipodi:docname="manifold/hnncrust-cthand04.png.txt">
<defs
	id="defs4" />
<metadata
	id="metadata7">
	<rdf:RDF>
		<cc:Work
			rdf:about="">
			<dc:format>image/svg+xml</dc:format>
			<dc:type
				rdf:resource="http://purl.org/dc/dcmitype/StillImage" />
			<dc:title></dc:title>
		</cc:Work>
	</rdf:RDF>
</metadata>
<g
	inkscape:label="Layer 1"
	inkscape:groupmode="layer"
	id="layer1">
	<path style="fill:none;stroke:red;stroke-width:1px;stroke-linecap:butt;stroke-linejoin:miter;stroke-opacity:1" d="M 4,250.39 4,266.494 z" id="boundary" inkscape:connector-curvature="0" />
	<path style="fill:none;stroke:red;stroke-width:1px;stroke-linecap:butt;stroke-linejoin:miter;stroke-opacity:1" d="M 4,250.39 12.0519,234.286 z" id="boundary" inkscape:connector-curvature="0" />
	<path style="fill:none;stroke:red;stroke-width:1px;stroke-linecap:butt;stroke-linejoin:miter;stroke-opacity:1" d="M 4,266.494 12.0519,280.987 z" id="boundary" inkscape:connector-curvature="0" />
	<path style="fill:none;stroke:red;stroke-width:1px;stroke-linecap:butt;stroke-linejoin:miter;stroke-opacity:1" d="M 12.0519,234.286 24.9351,221.403 z" id="boundary" inkscape:connector-curvature="0" />
	<path style="fill:none;stroke:red;stroke-width:1px;stroke-linecap:butt;stroke-linejoin:miter;stroke-opacity:1" d="M 12.0519,280.987 12.0519,297.091 z" id="boundary" inkscape:connector-curvature="0" />
	<path style="fill:none;stroke:red;stroke-width:1px;stroke-linecap:butt;stroke-linejoin:miter;stroke-opacity:1" d="M 12.0519,297.091 12.0519,313.195 z" id="boundary" inkscape:connector-curvature="0" />
	<path style="fill:none;stroke:red;stroke-width:1px;stroke-linecap:butt;stroke-linejoin:miter;stroke-opacity:1" d="M 12.0519,313.195 12.0519,329.299 z" id="boundary" inkscape:connector-curvature="0" />
	<path style="fill:none;stroke:red;stroke-width:1px;stroke-linecap:butt;stroke-linejoin:miter;stroke-opacity:1" d="M 12.0519,329.299 12.0519,345.403 z" id="boundary" inkscape:connector-curvature="0" />
	<path style="fill:none;stroke:red;stroke-width:1px;stroke-linecap:butt;stroke-linejoin:miter;stroke-opacity:1" d="M 12.0519,345.403 20.1039,359.896 z" id="boundary" inkscape:connector-curvature="0" />
	<path style="fill:none;stroke:red;stroke-width:1px;stroke-linecap:butt;stroke-linejoin:miter;stroke-opacity:1" d="M 20.1039,359.896 20.1039,376 z" id="boundary" inkscape:connector-curvature="0" />
	<path style="fill:none;stroke:red;stroke-width:1px;stroke-linecap:butt;stroke-linejoin:miter;stroke-opacity:1" d="M 20.1039,376 20.1039,392.104 z" id="boundary" inkscape:connector-curvature="0" />
	<path style="fill:none;stroke:red;stroke-width:1px;stroke-linecap:butt;stroke-linejoin:miter;stroke-opacity:1" d="M 20.1039,392.104 24.9351,408.208 z" id="boundary" inkscape:connector-curvature="0" />
	<path style="fill:none;stroke:red;stroke-width:1px;stroke-linecap:butt;stroke-linejoin:miter;stroke-opacity:1" d="M 24.9351,221.403 28.1558,202.078 z" id="boundary" inkscape:connector-curvature="0" />
	<path style="fill:none;stroke:red;stroke-width:1px;stroke-linecap:butt;stroke-linejoin:miter;stroke-opacity:1" d="M 24.9351,408.208 28.1558,424.312 z" id="boundary" inkscape:connector-curvature="0" />
	<path style="fill:none;stroke:red;stroke-width:1px;stroke-linecap:butt;stroke-linejoin:miter;stroke-opacity:1" d="M 28.1558,202.078 41.039,189.195 z" id="boundary" inkscape:connector-curvature="0" />
	<path style="fill:none;stroke:red;stroke-width:1px;stroke-linecap:butt;stroke-linejoin:miter;stroke-opacity:1" d="M 28.1558,424.312 32.987,440.416 z" id="boundary" inkscape:connector-curvature="0" />
	<path style="fill:none;stroke:red;stroke-width:1px;stroke-linecap:butt;stroke-linejoin:miter;stroke-opacity:1" d="M 32.987,440.416 36.2078,456.519 z" id="boundary" inkscape:connector-curvature="0" />
	<path style="fill:none;stroke:red;stroke-width:1px;stroke-linecap:butt;stroke-linejoin:miter;stroke-opacity:1" d="M 36.2078,456.519 44.2597,471.013 z" id="boundary" inkscape:connector-curvature="0" />
	<path style="fill:none;stroke:red;stroke-width:1px;stroke-linecap:butt;stroke-linejoin:miter;stroke-opacity:1" d="M 41.039,189.195 55.5325,197.247 z" id="boundary" inkscape:connector-curvature="0" />
	<path style="fill:none;stroke:red;stroke-width:1px;stroke-linecap:butt;stroke-linejoin:miter;stroke-opacity:1" d="M 44.2597,471.013 47.4805,487.117 z" id="boundary" inkscape:connector-curvature="0" />
	<path style="fill:none;stroke:red;stroke-width:1px;stroke-linecap:butt;stroke-linejoin:miter;stroke-opacity:1" d="M 47.4805,487.117 52.3117,503.221 z" id="boundary" inkscape:connector-curvature="0" />
	<path style="fill:none;stroke:red;stroke-width:1px;stroke-linecap:butt;stroke-linejoin:miter;stroke-opacity:1" d="M 52.3117,503.221 52.3117,519.325 z" id="boundary" inkscape:connector-curvature="0" />
	<path style="fill:none;stroke:red;stroke-width:1px;stroke-linecap:butt;stroke-linejoin:miter;stroke-opacity:1" d="M 52.3117,519.325 60.3636,533.818 z" id="boundary" inkscape:connector-curvature="0" />
	<path style="fill:none;stroke:red;stroke-width:1px;stroke-linecap:butt;stroke-linejoin:miter;stroke-opacity:1" d="M 55.5325,197.247 61.974,213.351 z" id="boundary" inkscape:connector-curvature="0" />
	<path style="fill:none;stroke:red;stroke-width:1px;stroke-linecap:butt;stroke-linejoin:miter;stroke-opacity:1" d="M 60.3636,533.818 60.3636,549.922 z" id="boundary" inkscape:connector-curvature="0" />
	<path style="fill:none;stroke:red;stroke-width:1px;stroke-linecap:butt;stroke-linejoin:miter;stroke-opacity:1" d="M 60.3636,549.922 60.3636,566.026 z" id="boundary" inkscape:connector-curvature="0" />
	<path style="fill:none;stroke:red;stroke-width:1px;stroke-linecap:butt;stroke-linejoin:miter;stroke-opacity:1" d="M 60.3636,566.026 60.3636,582.13 z" id="boundary" inkscape:connector-curvature="0" />
	<path style="fill:none;stroke:red;stroke-width:1px;stroke-linecap:butt;stroke-linejoin:miter;stroke-opacity:1" d="M 60.3636,582.13 61.974,598.234 z" id="boundary" inkscape:connector-curvature="0" />
	<path style="fill:none;stroke:red;stroke-width:1px;stroke-linecap:butt;stroke-linejoin:miter;stroke-opacity:1" d="M 61.974,213.351 70.026,227.844 z" id="boundary" inkscape:connector-curvature="0" />
	<path style="fill:none;stroke:red;stroke-width:1px;stroke-linecap:butt;stroke-linejoin:miter;stroke-opacity:1" d="M 61.974,598.234 68.4156,614.338 z" id="boundary" inkscape:connector-curvature="0" />
	<path style="fill:none;stroke:red;stroke-width:1px;stroke-linecap:butt;stroke-linejoin:miter;stroke-opacity:1" d="M 68.4156,614.338 68.4156,630.442 z" id="boundary" inkscape:connector-curvature="0" />
	<path style="fill:none;stroke:red;stroke-width:1px;stroke-linecap:butt;stroke-linejoin:miter;stroke-opacity:1" d="M 68.4156,630.442 68.4156,646.545 z" id="boundary" inkscape:connector-curvature="0" />
	<path style="fill:none;stroke:red;stroke-width:1px;stroke-linecap:butt;stroke-linejoin:miter;stroke-opacity:1" d="M 68.4156,646.545 68.4156,662.649 z" id="boundary" inkscape:connector-curvature="0" />
	<path style="fill:none;stroke:red;stroke-width:1px;stroke-linecap:butt;stroke-linejoin:miter;stroke-opacity:1" d="M 68.4156,662.649 68.4156,678.753 z" id="boundary" inkscape:connector-curvature="0" />
	<path style="fill:none;stroke:red;stroke-width:1px;stroke-linecap:butt;stroke-linejoin:miter;stroke-opacity:1" d="M 68.4156,678.753 68.4156,694.857 z" id="boundary" inkscape:connector-curvature="0" />
	<path style="fill:none;stroke:red;stroke-width:1px;stroke-linecap:butt;stroke-linejoin:miter;stroke-opacity:1" d="M 68.4156,694.857 70.026,710.961 z" id="boundary" inkscape:connector-curvature="0" />
	<path style="fill:none;stroke:red;stroke-width:1px;stroke-linecap:butt;stroke-linejoin:miter;stroke-opacity:1" d="M 70.026,227.844 78.0779,242.338 z" id="boundary" inkscape:connector-curvature="0" />
	<path style="fill:none;stroke:red;stroke-width:1px;stroke-linecap:butt;stroke-linejoin:miter;stroke-opacity:1" d="M 70.026,710.961 76.4675,727.065 z" id="boundary" inkscape:connector-curvature="0" />
	<path style="fill:none;stroke:red;stroke-width:1px;stroke-linecap:butt;stroke-linejoin:miter;stroke-opacity:1" d="M 76.4675,727.065 76.4675,743.169 z" id="boundary" inkscape:connector-curvature="0" />
	<path style="fill:none;stroke:red;stroke-width:1px;stroke-linecap:butt;stroke-linejoin:miter;stroke-opacity:1" d="M 76.4675,743.169 84.5195,757.662 z" id="boundary" inkscape:connector-curvature="0" />
	<path style="fill:none;stroke:red;stroke-width:1px;stroke-linecap:butt;stroke-linejoin:miter;stroke-opacity:1" d="M 78.0779,242.338 78.0779,258.442 z" id="boundary" inkscape:connector-curvature="0" />
	<path style="fill:none;stroke:red;stroke-width:1px;stroke-linecap:butt;stroke-linejoin:miter;stroke-opacity:1" d="M 78.0779,258.442 78.0779,274.545 z" id="boundary" inkscape:connector-curvature="0" />
	<path style="fill:none;stroke:red;stroke-width:1px;stroke-linecap:butt;stroke-linejoin:miter;stroke-opacity:1" d="M 78.0779,274.545 78.0779,290.649 z" id="boundary" inkscape:connector-curvature="0" />
	<path style="fill:none;stroke:red;stroke-width:1px;stroke-linecap:butt;stroke-linejoin:miter;stroke-opacity:1" d="M 78.0779,290.649 86.1299,305.143 z" id="boundary" inkscape:connector-curvature="0" />
	<path style="fill:none;stroke:red;stroke-width:1px;stroke-linecap:butt;stroke-linejoin:miter;stroke-opacity:1" d="M 84.5195,757.662 84.5195,773.766 z" id="boundary" inkscape:connector-curvature="0" />
	<path style="fill:none;stroke:red;stroke-width:1px;stroke-linecap:butt;stroke-linejoin:miter;stroke-opacity:1" d="M 84.5195,773.766 92.5714,788.26 z" id="boundary" inkscape:connector-curvature="0" />
	<path style="fill:none;stroke:red;stroke-width:1px;stroke-linecap:butt;stroke-linejoin:miter;stroke-opacity:1" d="M 86.1299,305.143 86.1299,321.247 z" id="boundary" inkscape:connector-curvature="0" />
	<path style="fill:none;stroke:red;stroke-width:1px;stroke-linecap:butt;stroke-linejoin:miter;stroke-opacity:1" d="M 86.1299,321.247 90.961,337.351 z" id="boundary" inkscape:connector-curvature="0" />
	<path style="fill:none;stroke:red;stroke-width:1px;stroke-linecap:butt;stroke-linejoin:miter;stroke-opacity:1" d="M 90.961,337.351 94.1818,353.455 z" id="boundary" inkscape:connector-curvature="0" />
	<path style="fill:none;stroke:red;stroke-width:1px;stroke-linecap:butt;stroke-linejoin:miter;stroke-opacity:1" d="M 92.5714,788.26 92.5714,804.364 z" id="boundary" inkscape:connector-curvature="0" />
	<path style="fill:none;stroke:red;stroke-width:1px;stroke-linecap:butt;stroke-linejoin:miter;stroke-opacity:1" d="M 92.5714,804.364 92.5714,820.468 z" id="boundary" inkscape:connector-curvature="0" />
	<path style="fill:none;stroke:red;stroke-width:1px;stroke-linecap:butt;stroke-linejoin:miter;stroke-opacity:1" d="M 92.5714,820.468 92.5714,836.571 z" id="boundary" inkscape:connector-curvature="0" />
	<path style="fill:none;stroke:red;stroke-width:1px;stroke-linecap:butt;stroke-linejoin:miter;stroke-opacity:1" d="M 92.5714,836.571 100.623,851.065 z" id="boundary" inkscape:connector-curvature="0" />
	<path style="fill:none;stroke:red;stroke-width:1px;stroke-linecap:butt;stroke-linejoin:miter;stroke-opacity:1" d="M 94.1818,353.455 94.1818,369.558 z" id="boundary" inkscape:connector-curvature="0" />
	<path style="fill:none;stroke:red;stroke-width:1px;stroke-linecap:butt;stroke-linejoin:miter;stroke-opacity:1" d="M 94.1818,369.558 102.234,384.052 z" id="boundary" inkscape:connector-curvature="0" />
	<path style="fill:none;stroke:red;stroke-width:1px;stroke-linecap:butt;stroke-linejoin:miter;stroke-opacity:1" d="M 100.623,851.065 108.675,865.558 z" id="boundary" inkscape:connector-curvature="0" />
	<path style="fill:none;stroke:red;stroke-width:1px;stroke-linecap:butt;stroke-linejoin:miter;stroke-opacity:1" d="M 100.623,991.169 108.675,967.013 z" id="boundary" inkscape:connector-curvature="0" />
	<path style="fill:none;stroke:red;stroke-width:1px;stroke-linecap:butt;stroke-linejoin:miter;stroke-opacity:1" d="M 100.623,991.169 116.727,996 z" id="boundary" inkscape:connector-curvature="0" />
	<path style="fill:none;stroke:red;stroke-width:1px;stroke-linecap:butt;stroke-linejoin:miter;stroke-opacity:1" d="M 102.234,384.052 105.455,400.156 z" id="boundary" inkscape:connector-curvature="0" />
	<path style="fill:none;stroke:red;stroke-width:1px;stroke-linecap:butt;stroke-linejoin:miter;stroke-opacity:1" d="M 105.455,400.156 110.286,416.26 z" id="boundary" inkscape:connector-curvature="0" />
	<path style="fill:none;stroke:red;stroke-width:1px;stroke-linecap:butt;stroke-linejoin:miter;stroke-opacity:1" d="M 108.675,865.558 111.896,881.662 z" id="boundary" inkscape:connector-curvature="0" />
	<path style="fill:none;stroke:red;stroke-width:1px;stroke-linecap:butt;stroke-linejoin:miter;stroke-opacity:1" d="M 108.675,967.013 116.727,942.857 z" id="boundary" inkscape:connector-curvature="0" />
	<path style="fill:none;stroke:red;stroke-width:1px;stroke-linecap:butt;stroke-linejoin:miter;stroke-opacity:1" d="M 110.286,416.26 118.338,430.753 z" id="boundary" inkscape:connector-curvature="0" />
	<path style="fill:none;stroke:red;stroke-width:1px;stroke-linecap:butt;stroke-linejoin:miter;stroke-opacity:1" d="M 111.896,881.662 116.727,897.766 z" id="boundary" inkscape:connector-curvature="0" />
	<path style="fill:none;stroke:red;stroke-width:1px;stroke-linecap:butt;stroke-linejoin:miter;stroke-opacity:1" d="M 116.727,897.766 119.948,913.87 z" id="boundary" inkscape:connector-curvature="0" />
	<path style="fill:none;stroke:red;stroke-width:1px;stroke-linecap:butt;stroke-linejoin:miter;stroke-opacity:1" d="M 116.727,942.857 119.948,913.87 z" id="boundary" inkscape:connector-curvature="0" />
	<path style="fill:none;stroke:red;stroke-width:1px;stroke-linecap:butt;stroke-linejoin:miter;stroke-opacity:1" d="M 116.727,996 132.831,996 z" id="boundary" inkscape:connector-curvature="0" />
	<path style="fill:none;stroke:red;stroke-width:1px;stroke-linecap:butt;stroke-linejoin:miter;stroke-opacity:1" d="M 118.338,430.753 131.221,440.416 z" id="boundary" inkscape:connector-curvature="0" />
	<path style="fill:none;stroke:red;stroke-width:1px;stroke-linecap:butt;stroke-linejoin:miter;stroke-opacity:1" d="M 124.779,282.597 124.779,298.701 z" id="boundary" inkscape:connector-curvature="0" />
	<path style="fill:none;stroke:red;stroke-width:1px;stroke-linecap:butt;stroke-linejoin:miter;stroke-opacity:1" d="M 124.779,282.597 132.831,258.442 z" id="boundary" inkscape:connector-curvature="0" />
	<path style="fill:none;stroke:red;stroke-width:1px;stroke-linecap:butt;stroke-linejoin:miter;stroke-opacity:1" d="M 124.779,298.701 124.779,314.805 z" id="boundary" inkscape:connector-curvature="0" />
	<path style="fill:none;stroke:red;stroke-width:1px;stroke-linecap:butt;stroke-linejoin:miter;stroke-opacity:1" d="M 124.779,314.805 132.831,329.299 z" id="boundary" inkscape:connector-curvature="0" />
	<path style="fill:none;stroke:red;stroke-width:1px;stroke-linecap:butt;stroke-linejoin:miter;stroke-opacity:1" d="M 131.221,440.416 140.883,424.312 z" id="boundary" inkscape:connector-curvature="0" />
	<path style="fill:none;stroke:red;stroke-width:1px;stroke-linecap:butt;stroke-linejoin:miter;stroke-opacity:1" d="M 132.831,226.234 132.831,242.338 z" id="boundary" inkscape:connector-curvature="0" />
	<path style="fill:none;stroke:red;stroke-width:1px;stroke-linecap:butt;stroke-linejoin:miter;stroke-opacity:1" d="M 132.831,226.234 140.883,202.078 z" id="boundary" inkscape:connector-curvature="0" />
	<path style="fill:none;stroke:red;stroke-width:1px;stroke-linecap:butt;stroke-linejoin:miter;stroke-opacity:1" d="M 132.831,242.338 132.831,258.442 z" id="boundary" inkscape:connector-curvature="0" />
	<path style="fill:none;stroke:red;stroke-width:1px;stroke-linecap:butt;stroke-linejoin:miter;stroke-opacity:1" d="M 132.831,329.299 132.831,345.403 z" id="boundary" inkscape:connector-curvature="0" />
	<path style="fill:none;stroke:red;stroke-width:1px;stroke-linecap:butt;stroke-linejoin:miter;stroke-opacity:1" d="M 132.831,345.403 132.831,361.506 z" id="boundary" inkscape:connector-curvature="0" />
	<path style="fill:none;stroke:red;stroke-width:1px;stroke-linecap:butt;stroke-linejoin:miter;stroke-opacity:1" d="M 132.831,361.506 140.883,376 z" id="boundary" inkscape:connector-curvature="0" />
	<path style="fill:none;stroke:red;stroke-width:1px;stroke-linecap:butt;stroke-linejoin:miter;stroke-opacity:1" d="M 132.831,996 148.935,996 z" id="boundary" inkscape:connector-curvature="0" />
	<path style="fill:none;stroke:red;stroke-width:1px;stroke-linecap:butt;stroke-linejoin:miter;stroke-opacity:1" d="M 140.883,185.974 140.883,202.078 z" id="boundary" inkscape:connector-curvature="0" />
	<path style="fill:none;stroke:red;stroke-width:1px;stroke-linecap:butt;stroke-linejoin:miter;stroke-opacity:1" d="M 140.883,185.974 148.935,161.818 z" id="boundary" inkscape:connector-curvature="0" />
	<path style="fill:none;stroke:red;stroke-width:1px;stroke-linecap:butt;stroke-linejoin:miter;stroke-opacity:1" d="M 140.883,376 140.883,392.104 z" id="boundary" inkscape:connector-curvature="0" />
	<path style="fill:none;stroke:red;stroke-width:1px;stroke-linecap:butt;stroke-linejoin:miter;stroke-opacity:1" d="M 140.883,392.104 140.883,408.208 z" id="boundary" inkscape:connector-curvature="0" />
	<path style="fill:none;stroke:red;stroke-width:1px;stroke-linecap:butt;stroke-linejoin:miter;stroke-opacity:1" d="M 140.883,408.208 140.883,424.312 z" id="boundary" inkscape:connector-curvature="0" />
	<path style="fill:none;stroke:red;stroke-width:1px;stroke-linecap:butt;stroke-linejoin:miter;stroke-opacity:1" d="M 148.935,161.818 156.987,145.714 z" id="boundary" inkscape:connector-curvature="0" />
	<path style="fill:none;stroke:red;stroke-width:1px;stroke-linecap:butt;stroke-linejoin:miter;stroke-opacity:1" d="M 148.935,996 165.039,996 z" id="boundary" inkscape:connector-curvature="0" />
	<path style="fill:none;stroke:red;stroke-width:1px;stroke-linecap:butt;stroke-linejoin:miter;stroke-opacity:1" d="M 156.987,129.61 156.987,145.714 z" id="boundary" inkscape:connector-curvature="0" />
	<path style="fill:none;stroke:red;stroke-width:1px;stroke-linecap:butt;stroke-linejoin:miter;stroke-opacity:1" d="M 156.987,129.61 165.039,113.506 z" id="boundary" inkscape:connector-curvature="0" />
	<path style="fill:none;stroke:red;stroke-width:1px;stroke-linecap:butt;stroke-linejoin:miter;stroke-opacity:1" d="M 165.039,97.4026 165.039,113.506 z" id="boundary" inkscape:connector-curvature="0" />
	<path style="fill:none;stroke:red;stroke-width:1px;stroke-linecap:butt;stroke-linejoin:miter;stroke-opacity:1" d="M 165.039,97.4026 177.922,84.5195 z" id="boundary" inkscape:connector-curvature="0" />
	<path style="fill:none;stroke:red;stroke-width:1px;stroke-linecap:butt;stroke-linejoin:miter;stroke-opacity:1" d="M 165.039,996 181.143,996 z" id="boundary" inkscape:connector-curvature="0" />
	<path style="fill:none;stroke:red;stroke-width:1px;stroke-linecap:butt;stroke-linejoin:miter;stroke-opacity:1" d="M 177.922,84.5195 194.026,76.4675 z" id="boundary" inkscape:connector-curvature="0" />
	<path style="fill:none;stroke:red;stroke-width:1px;stroke-linecap:butt;stroke-linejoin:miter;stroke-opacity:1" d="M 181.143,996 195.636,987.948 z" id="boundary" inkscape:connector-curvature="0" />
	<path style="fill:none;stroke:red;stroke-width:1px;stroke-linecap:butt;stroke-linejoin:miter;stroke-opacity:1" d="M 194.026,76.4675 202.078,60.3636 z" id="boundary" inkscape:connector-curvature="0" />
	<path style="fill:none;stroke:red;stroke-width:1px;stroke-linecap:butt;stroke-linejoin:miter;stroke-opacity:1" d="M 195.636,987.948 211.74,987.948 z" id="boundary" inkscape:connector-curvature="0" />
	<path style="fill:none;stroke:red;stroke-width:1px;stroke-linecap:butt;stroke-linejoin:miter;stroke-opacity:1" d="M 202.078,60.3636 218.182,60.3636 z" id="boundary" inkscape:connector-curvature="0" />
	<path style="fill:none;stroke:red;stroke-width:1px;stroke-linecap:butt;stroke-linejoin:miter;stroke-opacity:1" d="M 211.74,987.948 227.844,987.948 z" id="boundary" inkscape:connector-curvature="0" />
	<path style="fill:none;stroke:red;stroke-width:1px;stroke-linecap:butt;stroke-linejoin:miter;stroke-opacity:1" d="M 218.182,60.3636 231.065,70.026 z" id="boundary" inkscape:connector-curvature="0" />
	<path style="fill:none;stroke:red;stroke-width:1px;stroke-linecap:butt;stroke-linejoin:miter;stroke-opacity:1" d="M 223.013,231.065 223.013,247.169 z" id="boundary" inkscape:connector-curvature="0" />
	<path style="fill:none;stroke:red;stroke-width:1px;stroke-linecap:butt;stroke-linejoin:miter;stroke-opacity:1" d="M 223.013,231.065 245.558,231.065 z" id="boundary" inkscape:connector-curvature="0" />
	<path style="fill:none;stroke:red;stroke-width:1px;stroke-linecap:butt;stroke-linejoin:miter;stroke-opacity:1" d="M 223.013,247.169 223.013,263.273 z" id="boundary" inkscape:connector-curvature="0" />
	<path style="fill:none;stroke:red;stroke-width:1px;stroke-linecap:butt;stroke-linejoin:miter;stroke-opacity:1" d="M 223.013,263.273 223.013,279.377 z" id="boundary" inkscape:connector-curvature="0" />
	<path style="fill:none;stroke:red;stroke-width:1px;stroke-linecap:butt;stroke-linejoin:miter;stroke-opacity:1" d="M 223.013,279.377 226.234,295.481 z" id="boundary" inkscape:connector-curvature="0" />
	<path style="fill:none;stroke:red;stroke-width:1px;stroke-linecap:butt;stroke-linejoin:miter;stroke-opacity:1" d="M 226.234,295.481 231.065,311.584 z" id="boundary" inkscape:connector-curvature="0" />
	<path style="fill:none;stroke:red;stroke-width:1px;stroke-linecap:butt;stroke-linejoin:miter;stroke-opacity:1" d="M 227.844,987.948 243.948,987.948 z" id="boundary" inkscape:connector-curvature="0" />
	<path style="fill:none;stroke:red;stroke-width:1px;stroke-linecap:butt;stroke-linejoin:miter;stroke-opacity:1" d="M 231.065,70.026 239.117,84.5195 z" id="boundary" inkscape:connector-curvature="0" />
	<path style="fill:none;stroke:red;stroke-width:1px;stroke-linecap:butt;stroke-linejoin:miter;stroke-opacity:1" d="M 231.065,142.494 231.065,158.597 z" id="boundary" inkscape:connector-curvature="0" />
	<path style="fill:none;stroke:red;stroke-width:1px;stroke-linecap:butt;stroke-linejoin:miter;stroke-opacity:1" d="M 231.065,158.597 231.065,174.701 z" id="boundary" inkscape:connector-curvature="0" />
	<path style="fill:none;stroke:red;stroke-width:1px;stroke-linecap:butt;stroke-linejoin:miter;stroke-opacity:1" d="M 231.065,174.701 231.065,190.805 z" id="boundary" inkscape:connector-curvature="0" />
	<path style="fill:none;stroke:red;stroke-width:1px;stroke-linecap:butt;stroke-linejoin:miter;stroke-opacity:1" d="M 231.065,190.805 231.065,206.909 z" id="boundary" inkscape:connector-curvature="0" />
	<path style="fill:none;stroke:red;stroke-width:1px;stroke-linecap:butt;stroke-linejoin:miter;stroke-opacity:1" d="M 231.065,206.909 245.558,214.961 z" id="boundary" inkscape:connector-curvature="0" />
	<path style="fill:none;stroke:red;stroke-width:1px;stroke-linecap:butt;stroke-linejoin:miter;stroke-opacity:1" d="M 231.065,311.584 231.065,327.688 z" id="boundary" inkscape:connector-curvature="0" />
	<path style="fill:none;stroke:red;stroke-width:1px;stroke-linecap:butt;stroke-linejoin:miter;stroke-opacity:1" d="M 231.065,327.688 231.065,343.792 z" id="boundary" inkscape:connector-curvature="0" />
	<path style="fill:none;stroke:red;stroke-width:1px;stroke-linecap:butt;stroke-linejoin:miter;stroke-opacity:1" d="M 231.065,343.792 239.117,358.286 z" id="boundary" inkscape:connector-curvature="0" />
	<path style="fill:none;stroke:red;stroke-width:1px;stroke-linecap:butt;stroke-linejoin:miter;stroke-opacity:1" d="M 239.117,84.5195 247.169,99.013 z" id="boundary" inkscape:connector-curvature="0" />
	<path style="fill:none;stroke:red;stroke-width:1px;stroke-linecap:butt;stroke-linejoin:miter;stroke-opacity:1" d="M 239.117,256.831 245.558,272.935 z" id="boundary" inkscape:connector-curvature="0" />
	<path style="fill:none;stroke:red;stroke-width:1px;stroke-linecap:butt;stroke-linejoin:miter;stroke-opacity:1" d="M 243.948,987.948 260.052,987.948 z" id="boundary" inkscape:connector-curvature="0" />
	<path style="fill:none;stroke:red;stroke-width:1px;stroke-linecap:butt;stroke-linejoin:miter;stroke-opacity:1" d="M 245.558,214.961 245.558,231.065 z" id="boundary" inkscape:connector-curvature="0" />
	<path style="fill:none;stroke:red;stroke-width:1px;stroke-linecap:butt;stroke-linejoin:miter;stroke-opacity:1" d="M 245.558,272.935 245.558,289.039 z" id="boundary" inkscape:connector-curvature="0" />
	<path style="fill:none;stroke:red;stroke-width:1px;stroke-linecap:butt;stroke-linejoin:miter;stroke-opacity:1" d="M 245.558,319.636 245.558,335.74 z" id="boundary" inkscape:connector-curvature="0" />
	<path style="fill:none;stroke:red;stroke-width:1px;stroke-linecap:butt;stroke-linejoin:miter;stroke-opacity:1" d="M 247.169,99.013 261.662,107.065 z" id="boundary" inkscape:connector-curvature="0" />
	<path style="fill:none;stroke:red;stroke-width:1px;stroke-linecap:butt;stroke-linejoin:miter;stroke-opacity:1" d="M 253.61,185.974 261.662,171.481 z" id="boundary" inkscape:connector-curvature="0" />
	<path style="fill:none;stroke:red;stroke-width:1px;stroke-linecap:butt;stroke-linejoin:miter;stroke-opacity:1" d="M 260.052,987.948 276.156,987.948 z" id="boundary" inkscape:connector-curvature="0" />
	<path style="fill:none;stroke:red;stroke-width:1px;stroke-linecap:butt;stroke-linejoin:miter;stroke-opacity:1" d="M 261.662,107.065 261.662,123.169 z" id="boundary" inkscape:connector-curvature="0" />
	<path style="fill:none;stroke:red;stroke-width:1px;stroke-linecap:butt;stroke-linejoin:miter;stroke-opacity:1" d="M 261.662,123.169 261.662,139.273 z" id="boundary" inkscape:connector-curvature="0" />
	<path style="fill:none;stroke:red;stroke-width:1px;stroke-linecap:butt;stroke-linejoin:miter;stroke-opacity:1" d="M 261.662,139.273 261.662,155.377 z" id="boundary" inkscape:connector-curvature="0" />
	<path style="fill:none;stroke:red;stroke-width:1px;stroke-linecap:butt;stroke-linejoin:miter;stroke-opacity:1" d="M 261.662,155.377 261.662,171.481 z" id="boundary" inkscape:connector-curvature="0" />
	<path style="fill:none;stroke:red;stroke-width:1px;stroke-linecap:butt;stroke-linejoin:miter;stroke-opacity:1" d="M 269.714,81.2987 277.766,57.1429 z" id="boundary" inkscape:connector-curvature="0" />
	<path style="fill:none;stroke:red;stroke-width:1px;stroke-linecap:butt;stroke-linejoin:miter;stroke-opacity:1" d="M 276.156,987.948 292.26,987.948 z" id="boundary" inkscape:connector-curvature="0" />
	<path style="fill:none;stroke:red;stroke-width:1px;stroke-linecap:butt;stroke-linejoin:miter;stroke-opacity:1" d="M 277.766,57.1429 285.818,41.039 z" id="boundary" inkscape:connector-curvature="0" />
	<path style="fill:none;stroke:red;stroke-width:1px;stroke-linecap:butt;stroke-linejoin:miter;stroke-opacity:1" d="M 285.818,41.039 298.701,28.1558 z" id="boundary" inkscape:connector-curvature="0" />
	<path style="fill:none;stroke:red;stroke-width:1px;stroke-linecap:butt;stroke-linejoin:miter;stroke-opacity:1" d="M 292.26,987.948 308.364,987.948 z" id="boundary" inkscape:connector-curvature="0" />
	<path style="fill:none;stroke:red;stroke-width:1px;stroke-linecap:butt;stroke-linejoin:miter;stroke-opacity:1" d="M 298.701,28.1558 311.584,15.2727 z" id="boundary" inkscape:connector-curvature="0" />
	<path style="fill:none;stroke:red;stroke-width:1px;stroke-linecap:butt;stroke-linejoin:miter;stroke-opacity:1" d="M 308.364,987.948 324.468,987.948 z" id="boundary" inkscape:connector-curvature="0" />
	<path style="fill:none;stroke:red;stroke-width:1px;stroke-linecap:butt;stroke-linejoin:miter;stroke-opacity:1" d="M 311.584,15.2727 324.468,4 z" id="boundary" inkscape:connector-curvature="0" />
	<path style="fill:none;stroke:red;stroke-width:1px;stroke-linecap:butt;stroke-linejoin:miter;stroke-opacity:1" d="M 324.468,4 340.571,5.61039 z" id="boundary" inkscape:connector-curvature="0" />
	<path style="fill:none;stroke:red;stroke-width:1px;stroke-linecap:butt;stroke-linejoin:miter;stroke-opacity:1" d="M 324.468,987.948 340.571,987.948 z" id="boundary" inkscape:connector-curvature="0" />
	<path style="fill:none;stroke:red;stroke-width:1px;stroke-linecap:butt;stroke-linejoin:miter;stroke-opacity:1" d="M 335.74,239.117 335.74,255.221 z" id="boundary" inkscape:connector-curvature="0" />
	<path style="fill:none;stroke:red;stroke-width:1px;stroke-linecap:butt;stroke-linejoin:miter;stroke-opacity:1" d="M 335.74,239.117 343.792,214.961 z" id="boundary" inkscape:connector-curvature="0" />
	<path style="fill:none;stroke:red;stroke-width:1px;stroke-linecap:butt;stroke-linejoin:miter;stroke-opacity:1" d="M 335.74,255.221 335.74,271.325 z" id="boundary" inkscape:connector-curvature="0" />
	<path style="fill:none;stroke:red;stroke-width:1px;stroke-linecap:butt;stroke-linejoin:miter;stroke-opacity:1" d="M 335.74,271.325 338.961,287.429 z" id="boundary" inkscape:connector-curvature="0" />
	<path style="fill:none;stroke:red;stroke-width:1px;stroke-linecap:butt;stroke-linejoin:miter;stroke-opacity:1" d="M 338.961,287.429 343.792,303.532 z" id="boundary" inkscape:connector-curvature="0" />
	<path style="fill:none;stroke:red;stroke-width:1px;stroke-linecap:butt;stroke-linejoin:miter;stroke-opacity:1" d="M 340.571,5.61039 351.844,18.4935 z" id="boundary" inkscape:connector-curvature="0" />
	<path style="fill:none;stroke:red;stroke-width:1px;stroke-linecap:butt;stroke-linejoin:miter;stroke-opacity:1" d="M 340.571,987.948 356.675,987.948 z" id="boundary" inkscape:connector-curvature="0" />
	<path style="fill:none;stroke:red;stroke-width:1px;stroke-linecap:butt;stroke-linejoin:miter;stroke-opacity:1" d="M 343.792,198.857 343.792,214.961 z" id="boundary" inkscape:connector-curvature="0" />
	<path style="fill:none;stroke:red;stroke-width:1px;stroke-linecap:butt;stroke-linejoin:miter;stroke-opacity:1" d="M 343.792,198.857 351.844,174.701 z" id="boundary" inkscape:connector-curvature="0" />
	<path style="fill:none;stroke:red;stroke-width:1px;stroke-linecap:butt;stroke-linejoin:miter;stroke-opacity:1" d="M 343.792,303.532 343.792,319.636 z" id="boundary" inkscape:connector-curvature="0" />
	<path style="fill:none;stroke:red;stroke-width:1px;stroke-linecap:butt;stroke-linejoin:miter;stroke-opacity:1" d="M 343.792,319.636 347.013,335.74 z" id="boundary" inkscape:connector-curvature="0" />
	<path style="fill:none;stroke:red;stroke-width:1px;stroke-linecap:butt;stroke-linejoin:miter;stroke-opacity:1" d="M 347.013,335.74 355.065,350.234 z" id="boundary" inkscape:connector-curvature="0" />
	<path style="fill:none;stroke:red;stroke-width:1px;stroke-linecap:butt;stroke-linejoin:miter;stroke-opacity:1" d="M 351.844,18.4935 359.896,32.987 z" id="boundary" inkscape:connector-curvature="0" />
	<path style="fill:none;stroke:red;stroke-width:1px;stroke-linecap:butt;stroke-linejoin:miter;stroke-opacity:1" d="M 351.844,158.597 351.844,174.701 z" id="boundary" inkscape:connector-curvature="0" />
	<path style="fill:none;stroke:red;stroke-width:1px;stroke-linecap:butt;stroke-linejoin:miter;stroke-opacity:1" d="M 351.844,158.597 359.896,134.442 z" id="boundary" inkscape:connector-curvature="0" />
	<path style="fill:none;stroke:red;stroke-width:1px;stroke-linecap:butt;stroke-linejoin:miter;stroke-opacity:1" d="M 355.065,350.234 359.896,366.338 z" id="boundary" inkscape:connector-curvature="0" />
	<path style="fill:none;stroke:red;stroke-width:1px;stroke-linecap:butt;stroke-linejoin:miter;stroke-opacity:1" d="M 356.675,987.948 372.779,987.948 z" id="boundary" inkscape:connector-curvature="0" />
	<path style="fill:none;stroke:red;stroke-width:1px;stroke-linecap:butt;stroke-linejoin:miter;stroke-opacity:1" d="M 359.896,32.987 367.948,47.4805 z" id="boundary" inkscape:connector-curvature="0" />
	<path style="fill:none;stroke:red;stroke-width:1px;stroke-linecap:butt;stroke-linejoin:miter;stroke-opacity:1" d="M 359.896,86.1299 359.896,102.234 z" id="boundary" inkscape:connector-curvature="0" />
	<path style="fill:none;stroke:red;stroke-width:1px;stroke-linecap:butt;stroke-linejoin:miter;stroke-opacity:1" d="M 359.896,86.1299 367.948,63.5844 z" id="boundary" inkscape:connector-curvature="0" />
	<path style="fill:none;stroke:red;stroke-width:1px;stroke-linecap:butt;stroke-linejoin:miter;stroke-opacity:1" d="M 359.896,102.234 359.896,118.338 z" id="boundary" inkscape:connector-curvature="0" />
	<path style="fill:none;stroke:red;stroke-width:1px;stroke-linecap:butt;stroke-linejoin:miter;stroke-opacity:1" d="M 359.896,118.338 359.896,134.442 z" id="boundary" inkscape:connector-curvature="0" />
	<path style="fill:none;stroke:red;stroke-width:1px;stroke-linecap:butt;stroke-linejoin:miter;stroke-opacity:1" d="M 359.896,366.338 376,361.506 z" id="boundary" inkscape:connector-curvature="0" />
	<path style="fill:none;stroke:red;stroke-width:1px;stroke-linecap:butt;stroke-linejoin:miter;stroke-opacity:1" d="M 367.948,47.4805 367.948,63.5844 z" id="boundary" inkscape:connector-curvature="0" />
	<path style="fill:none;stroke:red;stroke-width:1px;stroke-linecap:butt;stroke-linejoin:miter;stroke-opacity:1" d="M 372.779,987.948 388.883,987.948 z" id="boundary" inkscape:connector-curvature="0" />
	<path style="fill:none;stroke:red;stroke-width:1px;stroke-linecap:butt;stroke-linejoin:miter;stroke-opacity:1" d="M 376,361.506 384.052,345.403 z" id="boundary" inkscape:connector-curvature="0" />
	<path style="fill:none;stroke:red;stroke-width:1px;stroke-linecap:butt;stroke-linejoin:miter;stroke-opacity:1" d="M 384.052,345.403 390.494,314.805 z" id="boundary" inkscape:connector-curvature="0" />
	<path style="fill:none;stroke:red;stroke-width:1px;stroke-linecap:butt;stroke-linejoin:miter;stroke-opacity:1" d="M 388.883,987.948 404.987,987.948 z" id="boundary" inkscape:connector-curvature="0" />
	<path style="fill:none;stroke:red;stroke-width:1px;stroke-linecap:butt;stroke-linejoin:miter;stroke-opacity:1" d="M 390.494,314.805 398.545,298.701 z" id="boundary" inkscape:connector-curvature="0" />
	<path style="fill:none;stroke:red;stroke-width:1px;stroke-linecap:butt;stroke-linejoin:miter;stroke-opacity:1" d="M 398.545,202.078 398.545,218.182 z" id="boundary" inkscape:connector-curvature="0" />
	<path style="fill:none;stroke:red;stroke-width:1px;stroke-linecap:butt;stroke-linejoin:miter;stroke-opacity:1" d="M 398.545,202.078 406.597,177.922 z" id="boundary" inkscape:connector-curvature="0" />
	<path style="fill:none;stroke:red;stroke-width:1px;stroke-linecap:butt;stroke-linejoin:miter;stroke-opacity:1" d="M 398.545,218.182 398.545,234.286 z" id="boundary" inkscape:connector-curvature="0" />
	<path style="fill:none;stroke:red;stroke-width:1px;stroke-linecap:butt;stroke-linejoin:miter;stroke-opacity:1" d="M 398.545,234.286 398.545,250.39 z" id="boundary" inkscape:connector-curvature="0" />
	<path style="fill:none;stroke:red;stroke-width:1px;stroke-linecap:butt;stroke-linejoin:miter;stroke-opacity:1" d="M 398.545,250.39 398.545,266.494 z" id="boundary" inkscape:connector-curvature="0" />
	<path style="fill:none;stroke:red;stroke-width:1px;stroke-linecap:butt;stroke-linejoin:miter;stroke-opacity:1" d="M 398.545,266.494 398.545,282.597 z" id="boundary" inkscape:connector-curvature="0" />
	<path style="fill:none;stroke:red;stroke-width:1px;stroke-linecap:butt;stroke-linejoin:miter;stroke-opacity:1" d="M 398.545,282.597 398.545,298.701 z" id="boundary" inkscape:connector-curvature="0" />
	<path style="fill:none;stroke:red;stroke-width:1px;stroke-linecap:butt;stroke-linejoin:miter;stroke-opacity:1" d="M 404.987,987.948 421.091,987.948 z" id="boundary" inkscape:connector-curvature="0" />
	<path style="fill:none;stroke:red;stroke-width:1px;stroke-linecap:butt;stroke-linejoin:miter;stroke-opacity:1" d="M 406.597,161.818 406.597,177.922 z" id="boundary" inkscape:connector-curvature="0" />
	<path style="fill:none;stroke:red;stroke-width:1px;stroke-linecap:butt;stroke-linejoin:miter;stroke-opacity:1" d="M 406.597,161.818 414.649,145.714 z" id="boundary" inkscape:connector-curvature="0" />
	<path style="fill:none;stroke:red;stroke-width:1px;stroke-linecap:butt;stroke-linejoin:miter;stroke-opacity:1" d="M 414.649,113.506 414.649,129.61 z" id="boundary" inkscape:connector-curvature="0" />
	<path style="fill:none;stroke:red;stroke-width:1px;stroke-linecap:butt;stroke-linejoin:miter;stroke-opacity:1" d="M 414.649,113.506 422.701,89.3506 z" id="boundary" inkscape:connector-curvature="0" />
	<path style="fill:none;stroke:red;stroke-width:1px;stroke-linecap:butt;stroke-linejoin:miter;stroke-opacity:1" d="M 414.649,129.61 414.649,145.714 z" id="boundary" inkscape:connector-curvature="0" />
	<path style="fill:none;stroke:red;stroke-width:1px;stroke-linecap:butt;stroke-linejoin:miter;stroke-opacity:1" d="M 421.091,987.948 437.195,984.727 z" id="boundary" inkscape:connector-curvature="0" />
	<path style="fill:none;stroke:red;stroke-width:1px;stroke-linecap:butt;stroke-linejoin:miter;stroke-opacity:1" d="M 422.701,73.2468 422.701,89.3506 z" id="boundary" inkscape:connector-curvature="0" />
	<path style="fill:none;stroke:red;stroke-width:1px;stroke-linecap:butt;stroke-linejoin:miter;stroke-opacity:1" d="M 422.701,73.2468 435.584,60.3636 z" id="boundary" inkscape:connector-curvature="0" />
	<path style="fill:none;stroke:red;stroke-width:1px;stroke-linecap:butt;stroke-linejoin:miter;stroke-opacity:1" d="M 435.584,60.3636 450.078,52.3117 z" id="boundary" inkscape:connector-curvature="0" />
	<path style="fill:none;stroke:red;stroke-width:1px;stroke-linecap:butt;stroke-linejoin:miter;stroke-opacity:1" d="M 437.195,984.727 440.416,955.74 z" id="boundary" inkscape:connector-curvature="0" />
	<path style="fill:none;stroke:red;stroke-width:1px;stroke-linecap:butt;stroke-linejoin:miter;stroke-opacity:1" d="M 440.416,955.74 453.299,944.468 z" id="boundary" inkscape:connector-curvature="0" />
	<path style="fill:none;stroke:red;stroke-width:1px;stroke-linecap:butt;stroke-linejoin:miter;stroke-opacity:1" d="M 450.078,52.3117 462.961,41.039 z" id="boundary" inkscape:connector-curvature="0" />
	<path style="fill:none;stroke:red;stroke-width:1px;stroke-linecap:butt;stroke-linejoin:miter;stroke-opacity:1" d="M 453.299,944.468 461.351,928.364 z" id="boundary" inkscape:connector-curvature="0" />
	<path style="fill:none;stroke:red;stroke-width:1px;stroke-linecap:butt;stroke-linejoin:miter;stroke-opacity:1" d="M 461.351,928.364 472.623,915.481 z" id="boundary" inkscape:connector-curvature="0" />
	<path style="fill:none;stroke:red;stroke-width:1px;stroke-linecap:butt;stroke-linejoin:miter;stroke-opacity:1" d="M 462.961,41.039 475.844,52.3117 z" id="boundary" inkscape:connector-curvature="0" />
	<path style="fill:none;stroke:red;stroke-width:1px;stroke-linecap:butt;stroke-linejoin:miter;stroke-opacity:1" d="M 472.623,915.481 488.727,907.429 z" id="boundary" inkscape:connector-curvature="0" />
	<path style="fill:none;stroke:red;stroke-width:1px;stroke-linecap:butt;stroke-linejoin:miter;stroke-opacity:1" d="M 475.844,52.3117 480.675,68.4156 z" id="boundary" inkscape:connector-curvature="0" />
	<path style="fill:none;stroke:red;stroke-width:1px;stroke-linecap:butt;stroke-linejoin:miter;stroke-opacity:1" d="M 480.675,68.4156 488.727,82.9091 z" id="boundary" inkscape:connector-curvature="0" />
	<path style="fill:none;stroke:red;stroke-width:1px;stroke-linecap:butt;stroke-linejoin:miter;stroke-opacity:1" d="M 488.727,82.9091 496.779,97.4026 z" id="boundary" inkscape:connector-curvature="0" />
	<path style="fill:none;stroke:red;stroke-width:1px;stroke-linecap:butt;stroke-linejoin:miter;stroke-opacity:1" d="M 488.727,367.948 488.727,384.052 z" id="boundary" inkscape:connector-curvature="0" />
	<path style="fill:none;stroke:red;stroke-width:1px;stroke-linecap:butt;stroke-linejoin:miter;stroke-opacity:1" d="M 488.727,367.948 496.779,343.792 z" id="boundary" inkscape:connector-curvature="0" />
	<path style="fill:none;stroke:red;stroke-width:1px;stroke-linecap:butt;stroke-linejoin:miter;stroke-opacity:1" d="M 488.727,384.052 488.727,400.156 z" id="boundary" inkscape:connector-curvature="0" />
	<path style="fill:none;stroke:red;stroke-width:1px;stroke-linecap:butt;stroke-linejoin:miter;stroke-opacity:1" d="M 488.727,400.156 488.727,416.26 z" id="boundary" inkscape:connector-curvature="0" />
	<path style="fill:none;stroke:red;stroke-width:1px;stroke-linecap:butt;stroke-linejoin:miter;stroke-opacity:1" d="M 488.727,416.26 488.727,432.364 z" id="boundary" inkscape:connector-curvature="0" />
	<path style="fill:none;stroke:red;stroke-width:1px;stroke-linecap:butt;stroke-linejoin:miter;stroke-opacity:1" d="M 488.727,432.364 496.779,446.857 z" id="boundary" inkscape:connector-curvature="0" />
	<path style="fill:none;stroke:red;stroke-width:1px;stroke-linecap:butt;stroke-linejoin:miter;stroke-opacity:1" d="M 488.727,907.429 504.831,899.377 z" id="boundary" inkscape:connector-curvature="0" />
	<path style="fill:none;stroke:red;stroke-width:1px;stroke-linecap:butt;stroke-linejoin:miter;stroke-opacity:1" d="M 496.779,97.4026 504.831,111.896 z" id="boundary" inkscape:connector-curvature="0" />
	<path style="fill:none;stroke:red;stroke-width:1px;stroke-linecap:butt;stroke-linejoin:miter;stroke-opacity:1" d="M 496.779,263.273 496.779,279.377 z" id="boundary" inkscape:connector-curvature="0" />
	<path style="fill:none;stroke:red;stroke-width:1px;stroke-linecap:butt;stroke-linejoin:miter;stroke-opacity:1" d="M 496.779,263.273 504.831,240.727 z" id="boundary" inkscape:connector-curvature="0" />
	<path style="fill:none;stroke:red;stroke-width:1px;stroke-linecap:butt;stroke-linejoin:miter;stroke-opacity:1" d="M 496.779,279.377 496.779,295.481 z" id="boundary" inkscape:connector-curvature="0" />
	<path style="fill:none;stroke:red;stroke-width:1px;stroke-linecap:butt;stroke-linejoin:miter;stroke-opacity:1" d="M 496.779,295.481 496.779,311.584 z" id="boundary" inkscape:connector-curvature="0" />
	<path style="fill:none;stroke:red;stroke-width:1px;stroke-linecap:butt;stroke-linejoin:miter;stroke-opacity:1" d="M 496.779,311.584 496.779,327.688 z" id="boundary" inkscape:connector-curvature="0" />
	<path style="fill:none;stroke:red;stroke-width:1px;stroke-linecap:butt;stroke-linejoin:miter;stroke-opacity:1" d="M 496.779,327.688 496.779,343.792 z" id="boundary" inkscape:connector-curvature="0" />
	<path style="fill:none;stroke:red;stroke-width:1px;stroke-linecap:butt;stroke-linejoin:miter;stroke-opacity:1" d="M 496.779,446.857 496.779,462.961 z" id="boundary" inkscape:connector-curvature="0" />
	<path style="fill:none;stroke:red;stroke-width:1px;stroke-linecap:butt;stroke-linejoin:miter;stroke-opacity:1" d="M 496.779,462.961 496.779,479.065 z" id="boundary" inkscape:connector-curvature="0" />
	<path style="fill:none;stroke:red;stroke-width:1px;stroke-linecap:butt;stroke-linejoin:miter;stroke-opacity:1" d="M 496.779,479.065 504.831,493.558 z" id="boundary" inkscape:connector-curvature="0" />
	<path style="fill:none;stroke:red;stroke-width:1px;stroke-linecap:butt;stroke-linejoin:miter;stroke-opacity:1" d="M 504.831,111.896 504.831,128 z" id="boundary" inkscape:connector-curvature="0" />
	<path style="fill:none;stroke:red;stroke-width:1px;stroke-linecap:butt;stroke-linejoin:miter;stroke-opacity:1" d="M 504.831,128 504.831,144.104 z" id="boundary" inkscape:connector-curvature="0" />
	<path style="fill:none;stroke:red;stroke-width:1px;stroke-linecap:butt;stroke-linejoin:miter;stroke-opacity:1" d="M 504.831,144.104 504.831,160.208 z" id="boundary" inkscape:connector-curvature="0" />
	<path style="fill:none;stroke:red;stroke-width:1px;stroke-linecap:butt;stroke-linejoin:miter;stroke-opacity:1" d="M 504.831,160.208 504.831,176.312 z" id="boundary" inkscape:connector-curvature="0" />
	<path style="fill:none;stroke:red;stroke-width:1px;stroke-linecap:butt;stroke-linejoin:miter;stroke-opacity:1" d="M 504.831,176.312 504.831,192.416 z" id="boundary" inkscape:connector-curvature="0" />
	<path style="fill:none;stroke:red;stroke-width:1px;stroke-linecap:butt;stroke-linejoin:miter;stroke-opacity:1" d="M 504.831,192.416 504.831,208.519 z" id="boundary" inkscape:connector-curvature="0" />
	<path style="fill:none;stroke:red;stroke-width:1px;stroke-linecap:butt;stroke-linejoin:miter;stroke-opacity:1" d="M 504.831,208.519 504.831,224.623 z" id="boundary" inkscape:connector-curvature="0" />
	<path style="fill:none;stroke:red;stroke-width:1px;stroke-linecap:butt;stroke-linejoin:miter;stroke-opacity:1" d="M 504.831,224.623 504.831,240.727 z" id="boundary" inkscape:connector-curvature="0" />
	<path style="fill:none;stroke:red;stroke-width:1px;stroke-linecap:butt;stroke-linejoin:miter;stroke-opacity:1" d="M 504.831,493.558 504.831,509.662 z" id="boundary" inkscape:connector-curvature="0" />
	<path style="fill:none;stroke:red;stroke-width:1px;stroke-linecap:butt;stroke-linejoin:miter;stroke-opacity:1" d="M 504.831,509.662 504.831,525.766 z" id="boundary" inkscape:connector-curvature="0" />
	<path style="fill:none;stroke:red;stroke-width:1px;stroke-linecap:butt;stroke-linejoin:miter;stroke-opacity:1" d="M 504.831,525.766 504.831,541.87 z" id="boundary" inkscape:connector-curvature="0" />
	<path style="fill:none;stroke:red;stroke-width:1px;stroke-linecap:butt;stroke-linejoin:miter;stroke-opacity:1" d="M 504.831,541.87 504.831,557.974 z" id="boundary" inkscape:connector-curvature="0" />
	<path style="fill:none;stroke:red;stroke-width:1px;stroke-linecap:butt;stroke-linejoin:miter;stroke-opacity:1" d="M 504.831,557.974 504.831,574.078 z" id="boundary" inkscape:connector-curvature="0" />
	<path style="fill:none;stroke:red;stroke-width:1px;stroke-linecap:butt;stroke-linejoin:miter;stroke-opacity:1" d="M 504.831,574.078 512.883,588.571 z" id="boundary" inkscape:connector-curvature="0" />
	<path style="fill:none;stroke:red;stroke-width:1px;stroke-linecap:butt;stroke-linejoin:miter;stroke-opacity:1" d="M 504.831,883.273 504.831,899.377 z" id="boundary" inkscape:connector-curvature="0" />
	<path style="fill:none;stroke:red;stroke-width:1px;stroke-linecap:butt;stroke-linejoin:miter;stroke-opacity:1" d="M 504.831,883.273 517.714,872 z" id="boundary" inkscape:connector-curvature="0" />
	<path style="fill:none;stroke:red;stroke-width:1px;stroke-linecap:butt;stroke-linejoin:miter;stroke-opacity:1" d="M 512.883,588.571 512.883,604.675 z" id="boundary" inkscape:connector-curvature="0" />
	<path style="fill:none;stroke:red;stroke-width:1px;stroke-linecap:butt;stroke-linejoin:miter;stroke-opacity:1" d="M 512.883,604.675 528.987,603.065 z" id="boundary" inkscape:connector-curvature="0" />
	<path style="fill:none;stroke:red;stroke-width:1px;stroke-linecap:butt;stroke-linejoin:miter;stroke-opacity:1" d="M 517.714,872 525.766,855.896 z" id="boundary" inkscape:connector-curvature="0" />
	<path style="fill:none;stroke:red;stroke-width:1px;stroke-linecap:butt;stroke-linejoin:miter;stroke-opacity:1" d="M 525.766,855.896 537.039,834.961 z" id="boundary" inkscape:connector-curvature="0" />
	<path style="fill:none;stroke:red;stroke-width:1px;stroke-linecap:butt;stroke-linejoin:miter;stroke-opacity:1" d="M 528.987,603.065 537.039,586.961 z" id="boundary" inkscape:connector-curvature="0" />
	<path style="fill:none;stroke:red;stroke-width:1px;stroke-linecap:butt;stroke-linejoin:miter;stroke-opacity:1" d="M 537.039,586.961 545.091,570.857 z" id="boundary" inkscape:connector-curvature="0" />
	<path style="fill:none;stroke:red;stroke-width:1px;stroke-linecap:butt;stroke-linejoin:miter;stroke-opacity:1" d="M 537.039,834.961 545.091,818.857 z" id="boundary" inkscape:connector-curvature="0" />
	<path style="fill:none;stroke:red;stroke-width:1px;stroke-linecap:butt;stroke-linejoin:miter;stroke-opacity:1" d="M 545.091,570.857 551.532,540.26 z" id="boundary" inkscape:connector-curvature="0" />
	<path style="fill:none;stroke:red;stroke-width:1px;stroke-linecap:butt;stroke-linejoin:miter;stroke-opacity:1" d="M 545.091,818.857 557.974,807.584 z" id="boundary" inkscape:connector-curvature="0" />
	<path style="fill:none;stroke:red;stroke-width:1px;stroke-linecap:butt;stroke-linejoin:miter;stroke-opacity:1" d="M 551.532,540.26 559.584,524.156 z" id="boundary" inkscape:connector-curvature="0" />
	<path style="fill:none;stroke:red;stroke-width:1px;stroke-linecap:butt;stroke-linejoin:miter;stroke-opacity:1" d="M 557.974,807.584 569.247,786.649 z" id="boundary" inkscape:connector-curvature="0" />
	<path style="fill:none;stroke:red;stroke-width:1px;stroke-linecap:butt;stroke-linejoin:miter;stroke-opacity:1" d="M 559.584,508.052 559.584,524.156 z" id="boundary" inkscape:connector-curvature="0" />
	<path style="fill:none;stroke:red;stroke-width:1px;stroke-linecap:butt;stroke-linejoin:miter;stroke-opacity:1" d="M 559.584,508.052 567.636,491.948 z" id="boundary" inkscape:connector-curvature="0" />
	<path style="fill:none;stroke:red;stroke-width:1px;stroke-linecap:butt;stroke-linejoin:miter;stroke-opacity:1" d="M 567.636,459.74 567.636,475.844 z" id="boundary" inkscape:connector-curvature="0" />
	<path style="fill:none;stroke:red;stroke-width:1px;stroke-linecap:butt;stroke-linejoin:miter;stroke-opacity:1" d="M 567.636,459.74 575.688,435.584 z" id="boundary" inkscape:connector-curvature="0" />
	<path style="fill:none;stroke:red;stroke-width:1px;stroke-linecap:butt;stroke-linejoin:miter;stroke-opacity:1" d="M 567.636,475.844 567.636,491.948 z" id="boundary" inkscape:connector-curvature="0" />
	<path style="fill:none;stroke:red;stroke-width:1px;stroke-linecap:butt;stroke-linejoin:miter;stroke-opacity:1" d="M 569.247,786.649 577.299,770.545 z" id="boundary" inkscape:connector-curvature="0" />
	<path style="fill:none;stroke:red;stroke-width:1px;stroke-linecap:butt;stroke-linejoin:miter;stroke-opacity:1" d="M 575.688,403.377 575.688,419.481 z" id="boundary" inkscape:connector-curvature="0" />
	<path style="fill:none;stroke:red;stroke-width:1px;stroke-linecap:butt;stroke-linejoin:miter;stroke-opacity:1" d="M 575.688,403.377 588.571,390.494 z" id="boundary" inkscape:connector-curvature="0" />
	<path style="fill:none;stroke:red;stroke-width:1px;stroke-linecap:butt;stroke-linejoin:miter;stroke-opacity:1" d="M 575.688,419.481 575.688,435.584 z" id="boundary" inkscape:connector-curvature="0" />
	<path style="fill:none;stroke:red;stroke-width:1px;stroke-linecap:butt;stroke-linejoin:miter;stroke-opacity:1" d="M 577.299,770.545 585.351,754.442 z" id="boundary" inkscape:connector-curvature="0" />
	<path style="fill:none;stroke:red;stroke-width:1px;stroke-linecap:butt;stroke-linejoin:miter;stroke-opacity:1" d="M 585.351,754.442 598.234,743.169 z" id="boundary" inkscape:connector-curvature="0" />
	<path style="fill:none;stroke:red;stroke-width:1px;stroke-linecap:butt;stroke-linejoin:miter;stroke-opacity:1" d="M 588.571,390.494 596.623,374.39 z" id="boundary" inkscape:connector-curvature="0" />
	<path style="fill:none;stroke:red;stroke-width:1px;stroke-linecap:butt;stroke-linejoin:miter;stroke-opacity:1" d="M 596.623,374.39 612.727,366.338 z" id="boundary" inkscape:connector-curvature="0" />
	<path style="fill:none;stroke:red;stroke-width:1px;stroke-linecap:butt;stroke-linejoin:miter;stroke-opacity:1" d="M 598.234,743.169 609.506,730.286 z" id="boundary" inkscape:connector-curvature="0" />
	<path style="fill:none;stroke:red;stroke-width:1px;stroke-linecap:butt;stroke-linejoin:miter;stroke-opacity:1" d="M 609.506,714.182 609.506,730.286 z" id="boundary" inkscape:connector-curvature="0" />
	<path style="fill:none;stroke:red;stroke-width:1px;stroke-linecap:butt;stroke-linejoin:miter;stroke-opacity:1" d="M 609.506,714.182 617.558,690.026 z" id="boundary" inkscape:connector-curvature="0" />
	<path style="fill:none;stroke:red;stroke-width:1px;stroke-linecap:butt;stroke-linejoin:miter;stroke-opacity:1" d="M 612.727,366.338 628.831,366.338 z" id="boundary" inkscape:connector-curvature="0" />
	<path style="fill:none;stroke:red;stroke-width:1px;stroke-linecap:butt;stroke-linejoin:miter;stroke-opacity:1" d="M 617.558,673.922 617.558,690.026 z" id="boundary" inkscape:connector-curvature="0" />
	<path style="fill:none;stroke:red;stroke-width:1px;stroke-linecap:butt;stroke-linejoin:miter;stroke-opacity:1" d="M 617.558,673.922 625.61,657.818 z" id="boundary" inkscape:connector-curvature="0" />
	<path style="fill:none;stroke:red;stroke-width:1px;stroke-linecap:butt;stroke-linejoin:miter;stroke-opacity:1" d="M 625.61,641.714 625.61,657.818 z" id="boundary" inkscape:connector-curvature="0" />
	<path style="fill:none;stroke:red;stroke-width:1px;stroke-linecap:butt;stroke-linejoin:miter;stroke-opacity:1" d="M 625.61,641.714 633.662,617.558 z" id="boundary" inkscape:connector-curvature="0" />
	<path style="fill:none;stroke:red;stroke-width:1px;stroke-linecap:butt;stroke-linejoin:miter;stroke-opacity:1" d="M 628.831,366.338 641.714,376 z" id="boundary" inkscape:connector-curvature="0" />
	<path style="fill:none;stroke:red;stroke-width:1px;stroke-linecap:butt;stroke-linejoin:miter;stroke-opacity:1" d="M 633.662,617.558 641.714,593.403 z" id="boundary" inkscape:connector-curvature="0" />
	<path style="fill:none;stroke:red;stroke-width:1px;stroke-linecap:butt;stroke-linejoin:miter;stroke-opacity:1" d="M 641.714,376 649.766,390.494 z" id="boundary" inkscape:connector-curvature="0" />
	<path style="fill:none;stroke:red;stroke-width:1px;stroke-linecap:butt;stroke-linejoin:miter;stroke-opacity:1" d="M 641.714,577.299 641.714,593.403 z" id="boundary" inkscape:connector-curvature="0" />
	<path style="fill:none;stroke:red;stroke-width:1px;stroke-linecap:butt;stroke-linejoin:miter;stroke-opacity:1" d="M 641.714,577.299 649.766,561.195 z" id="boundary" inkscape:connector-curvature="0" />
	<path style="fill:none;stroke:red;stroke-width:1px;stroke-linecap:butt;stroke-linejoin:miter;stroke-opacity:1" d="M 649.766,390.494 657.818,404.987 z" id="boundary" inkscape:connector-curvature="0" />
	<path style="fill:none;stroke:red;stroke-width:1px;stroke-linecap:butt;stroke-linejoin:miter;stroke-opacity:1" d="M 649.766,561.195 657.818,537.039 z" id="boundary" inkscape:connector-curvature="0" />
	<path style="fill:none;stroke:red;stroke-width:1px;stroke-linecap:butt;stroke-linejoin:miter;stroke-opacity:1" d="M 657.818,404.987 657.818,421.091 z" id="boundary" inkscape:connector-curvature="0" />
	<path style="fill:none;stroke:red;stroke-width:1px;stroke-linecap:butt;stroke-linejoin:miter;stroke-opacity:1" d="M 657.818,421.091 657.818,437.195 z" id="boundary" inkscape:connector-curvature="0" />
	<path style="fill:none;stroke:red;stroke-width:1px;stroke-linecap:butt;stroke-linejoin:miter;stroke-opacity:1" d="M 657.818,437.195 657.818,453.299 z" id="boundary" inkscape:connector-curvature="0" />
	<path style="fill:none;stroke:red;stroke-width:1px;stroke-linecap:butt;stroke-linejoin:miter;stroke-opacity:1" d="M 657.818,453.299 657.818,469.403 z" id="boundary" inkscape:connector-curvature="0" />
	<path style="fill:none;stroke:red;stroke-width:1px;stroke-linecap:butt;stroke-linejoin:miter;stroke-opacity:1" d="M 657.818,469.403 657.818,485.506 z" id="boundary" inkscape:connector-curvature="0" />
	<path style="fill:none;stroke:red;stroke-width:1px;stroke-linecap:butt;stroke-linejoin:miter;stroke-opacity:1" d="M 657.818,485.506 665.87,500 z" id="boundary" inkscape:connector-curvature="0" />
	<path style="fill:none;stroke:red;stroke-width:1px;stroke-linecap:butt;stroke-linejoin:miter;stroke-opacity:1" d="M 657.818,537.039 665.87,516.104 z" id="boundary" inkscape:connector-curvature="0" />
	<path style="fill:none;stroke:red;stroke-width:1px;stroke-linecap:butt;stroke-linejoin:miter;stroke-opacity:1" d="M 665.87,500 665.87,516.104 z" id="boundary" inkscape:connector-curvature="0" />
	<circle cx="4" cy="250.39" r="4" fill="#0" id="circle0"/>
	<circle cx="4" cy="266.494" r="4" fill="#0" id="circle1"/>
	<circle cx="12.0519" cy="234.286" r="4" fill="#0" id="circle2"/>
	<circle cx="12.0519" cy="280.987" r="4" fill="#0" id="circle3"/>
	<circle cx="12.0519" cy="297.091" r="4" fill="#0" id="circle4"/>
	<circle cx="12.0519" cy="313.195" r="4" fill="#0" id="circle5"/>
	<circle cx="12.0519" cy="329.299" r="4" fill="#0" id="circle6"/>
	<circle cx="12.0519" cy="345.403" r="4" fill="#0" id="circle7"/>
	<circle cx="20.1039" cy="359.896" r="4" fill="#0" id="circle8"/>
	<circle cx="20.1039" cy="376" r="4" fill="#0" id="circle9"/>
	<circle cx="20.1039" cy="392.104" r="4" fill="#0" id="circle10"/>
	<circle cx="24.9351" cy="221.403" r="4" fill="#0" id="circle11"/>
	<circle cx="24.9351" cy="408.208" r="4" fill="#0" id="circle12"/>
	<circle cx="28.1558" cy="202.078" r="4" fill="#0" id="circle13"/>
	<circle cx="28.1558" cy="424.312" r="4" fill="#0" id="circle14"/>
	<circle cx="32.987" cy="440.416" r="4" fill="#0" id="circle15"/>
	<circle cx="36.2078" cy="456.519" r="4" fill="#0" id="circle16"/>
	<circle cx="41.039" cy="189.195" r="4" fill="#0" id="circle17"/>
	<circle cx="44.2597" cy="471.013" r="4" fill="#0" id="circle18"/>
	<circle cx="47.4805" cy="487.117" r="4" fill="#0" id="circle19"/>
	<circle cx="52.3117" cy="503.221" r="4" fill="#0" id="circle20"/>
	<circle cx="52.3117" cy="519.325" r="4" fill="#0" id="circle21"/>
	<circle cx="55.5325" cy="197.247" r="4" fill="#0" id="circle22"/>
	<circle cx="60.3636" cy="533.818" r="4" fill="#0" id="circle23"/>
	<circle cx="60.3636" cy="549.922" r="4" fill="#0" id="circle24"/>
	<circle cx="60.3636" cy="566.026" r="4" fill="#0" id="circle25"/>
	<circle cx="60.3636" cy="582.13" r="4" fill="#0" id="circle26"/>
	<circle cx="61.974" cy="213.351" r="4" fill="#0" id="circle27"/>
	<circle cx="61.974" cy="598.234" r="4" fill="#0" id="circle28"/>
	<circle cx="68.4156" cy="614.338" r="4" fill="#0" id="circle29"/>
	<circle cx="68.4156" cy="630.442" r="4" fill="#0" id="circle30"/>
	<circle cx="68.4156" cy="646.545" r="4" fill="#0" id="circle31"/>
	<circle cx="68.4156" cy="662.649" r="4" fill="#0" id="circle32"/>
	<circle cx="68.4156" cy="678.753" r="4" fill="#0" id="circle33"/>
	<circle cx="68.4156" cy="694.857" r="4" fill="#0" id="circle34"/>
	<circle cx="70.026" cy="227.844" r="4" fill="#0" id="circle35"/>
	<circle cx="70.026" cy="710.961" r="4" fill="#0" id="circle36"/>
	<circle cx="76.4675" cy="727.065" r="4" fill="#0" id="circle37"/>
	<circle cx="76.4675" cy="743.169" r="4" fill="#0" id="circle38"/>
	<circle cx="78.0779" cy="242.338" r="4" fill="#0" id="circle39"/>
	<circle cx="78.0779" cy="258.442" r="4" fill="#0" id="circle40"/>
	<circle cx="78.0779" cy="274.545" r="4" fill="#0" id="circle41"/>
	<circle cx="78.0779" cy="290.649" r="4" fill="#0" id="circle42"/>
	<circle cx="84.5195" cy="757.662" r="4" fill="#0" id="circle43"/>
	<circle cx="84.5195" cy="773.766" r="4" fill="#0" id="circle44"/>
	<circle cx="86.1299" cy="305.143" r="4" fill="#0" id="circle45"/>
	<circle cx="86.1299" cy="321.247" r="4" fill="#0" id="circle46"/>
	<circle cx="90.961" cy="337.351" r="4" fill="#0" id="circle47"/>
	<circle cx="92.5714" cy="788.26" r="4" fill="#0" id="circle48"/>
	<circle cx="92.5714" cy="804.364" r="4" fill="#0" id="circle49"/>
	<circle cx="92.5714" cy="820.468" r="4" fill="#0" id="circle50"/>
	<circle cx="92.5714" cy="836.571" r="4" fill="#0" id="circle51"/>
	<circle cx="94.1818" cy="353.455" r="4" fill="#0" id="circle52"/>
	<circle cx="94.1818" cy="369.558" r="4" fill="#0" id="circle53"/>
	<circle cx="100.623" cy="851.065" r="4" fill="#0" id="circle54"/>
	<circle cx="100.623" cy="991.169" r="4" fill="#0" id="circle55"/>
	<circle cx="102.234" cy="384.052" r="4" fill="#0" id="circle56"/>
	<circle cx="105.455" cy="400.156" r="4" fill="#0" id="circle57"/>
	<circle cx="108.675" cy="865.558" r="4" fill="#0" id="circle58"/>
	<circle cx="108.675" cy="967.013" r="4" fill="#0" id="circle59"/>
	<circle cx="110.286" cy="416.26" r="4" fill="#0" id="circle60"/>
	<circle cx="111.896" cy="881.662" r="4" fill="#0" id="circle61"/>
	<circle cx="116.727" cy="897.766" r="4" fill="#0" id="circle62"/>
	<circle cx="116.727" cy="942.857" r="4" fill="#0" id="circle63"/>
	<circle cx="116.727" cy="996" r="4" fill="#0" id="circle64"/>
	<circle cx="118.338" cy="430.753" r="4" fill="#0" id="circle65"/>
	<circle cx="119.948" cy="913.87" r="4" fill="#0" id="circle66"/>
	<circle cx="124.779" cy="282.597" r="4" fill="#0" id="circle67"/>
	<circle cx="124.779" cy="298.701" r="4" fill="#0" id="circle68"/>
	<circle cx="124.779" cy="314.805" r="4" fill="#0" id="circle69"/>
	<circle cx="131.221" cy="440.416" r="4" fill="#0" id="circle70"/>
	<circle cx="132.831" cy="226.234" r="4" fill="#0" id="circle71"/>
	<circle cx="132.831" cy="242.338" r="4" fill="#0" id="circle72"/>
	<circle cx="132.831" cy="258.442" r="4" fill="#0" id="circle73"/>
	<circle cx="132.831" cy="329.299" r="4" fill="#0" id="circle74"/>
	<circle cx="132.831" cy="345.403" r="4" fill="#0" id="circle75"/>
	<circle cx="132.831" cy="361.506" r="4" fill="#0" id="circle76"/>
	<circle cx="132.831" cy="996" r="4" fill="#0" id="circle77"/>
	<circle cx="140.883" cy="185.974" r="4" fill="#0" id="circle78"/>
	<circle cx="140.883" cy="202.078" r="4" fill="#0" id="circle79"/>
	<circle cx="140.883" cy="376" r="4" fill="#0" id="circle80"/>
	<circle cx="140.883" cy="392.104" r="4" fill="#0" id="circle81"/>
	<circle cx="140.883" cy="408.208" r="4" fill="#0" id="circle82"/>
	<circle cx="140.883" cy="424.312" r="4" fill="#0" id="circle83"/>
	<circle cx="148.935" cy="161.818" r="4" fill="#0" id="circle84"/>
	<circle cx="148.935" cy="996" r="4" fill="#0" id="circle85"/>
	<circle cx="156.987" cy="129.61" r="4" fill="#0" id="circle86"/>
	<circle cx="156.987" cy="145.714" r="4" fill="#0" id="circle87"/>
	<circle cx="165.039" cy="97.4026" r="4" fill="#0" id="circle88"/>
	<circle cx="165.039" cy="113.506" r="4" fill="#0" id="circle89"/>
	<circle cx="165.039" cy="996" r="4" fill="#0" id="circle90"/>
	<circle cx="177.922" cy="84.5195" r="4" fill="#0" id="circle91"/>
	<circle cx="181.143" cy="996" r="4" fill="#0" id="circle92"/>
	<circle cx="194.026" cy="76.4675" r="4" fill="#0" id="circle93"/>
	<circle cx="195.636" cy="987.948" r="4" fill="#0" id="circle94"/>
	<circle cx="202.078" cy="60.3636" r="4" fill="#0" id="circle95"/>
	<circle cx="211.74" cy="987.948" r="4" fill="#0" id="circle96"/>
	<circle cx="218.182" cy="60.3636" r="4" fill="#0" id="circle97"/>
	<circle cx="223.013" cy="231.065" r="4" fill="#0" id="circle98"/>
	<circle cx="223.013" cy="247.169" r="4" fill="#0" id="circle99"/>
	<circle cx="223.013" cy="263.273" r="4" fill="#0" id="circle100"/>
	<circle cx="223.013" cy="279.377" r="4" fill="#0" id="circle101"/>
	<circle cx="226.234" cy="295.481" r="4" fill="#0" id="circle102"/>
	<circle cx="227.844" cy="987.948" r="4" fill="#0" id="circle103"/>
	<circle cx="231.065" cy="70.026" r="4" fill="#0" id="circle104"/>
	<circle cx="231.065" cy="142.494" r="4" fill="#0" id="circle105"/>
	<circle cx="231.065" cy="158.597" r="4" fill="#0" id="circle106"/>
	<circle cx="231.065" cy="174.701" r="4" fill="#0" id="circle107"/>
	<circle cx="231.065" cy="190.805" r="4" fill="#0" id="circle108"/>
	<circle cx="231.065" cy="206.909" r="4" fill="#0" id="circle109"/>
	<circle cx="231.065" cy="311.584" r="4" fill="#0" id="circle110"/>
	<circle cx="231.065" cy="327.688" r="4" fill="#0" id="circle111"/>
	<circle cx="231.065" cy="343.792" r="4" fill="#0" id="circle112"/>
	<circle cx="239.117" cy="84.5195" r="4" fill="#0" id="circle113"/>
	<circle cx="239.117" cy="118.338" r="4" fill="#0" id="circle114"/>
	<circle cx="239.117" cy="256.831" r="4" fill="#0" id="circle115"/>
	<circle cx="239.117" cy="358.286" r="4" fill="#0" id="circle116"/>
	<circle cx="243.948" cy="987.948" r="4" fill="#0" id="circle117"/>
	<circle cx="245.558" cy="214.961" r="4" fill="#0" id="circle118"/>
	<circle cx="245.558" cy="231.065" r="4" fill="#0" id="circle119"/>
	<circle cx="245.558" cy="272.935" r="4" fill="#0" id="circle120"/>
	<circle cx="245.558" cy="289.039" r="4" fill="#0" id="circle121"/>
	<circle cx="245.558" cy="319.636" r="4" fill="#0" id="circle122"/>
	<circle cx="245.558" cy="335.74" r="4" fill="#0" id="circle123"/>
	<circle cx="247.169" cy="99.013" r="4" fill="#0" id="circle124"/>
	<circle cx="253.61" cy="185.974" r="4" fill="#0" id="circle125"/>
	<circle cx="260.052" cy="987.948" r="4" fill="#0" id="circle126"/>
	<circle cx="261.662" cy="107.065" r="4" fill="#0" id="circle127"/>
	<circle cx="261.662" cy="123.169" r="4" fill="#0" id="circle128"/>
	<circle cx="261.662" cy="139.273" r="4" fill="#0" id="circle129"/>
	<circle cx="261.662" cy="155.377" r="4" fill="#0" id="circle130"/>
	<circle cx="261.662" cy="171.481" r="4" fill="#0" id="circle131"/>
	<circle cx="269.714" cy="81.2987" r="4" fill="#0" id="circle132"/>
	<circle cx="276.156" cy="987.948" r="4" fill="#0" id="circle133"/>
	<circle cx="277.766" cy="57.1429" r="4" fill="#0" id="circle134"/>
	<circle cx="285.818" cy="41.039" r="4" fill="#0" id="circle135"/>
	<circle cx="292.26" cy="987.948" r="4" fill="#0" id="circle136"/>
	<circle cx="298.701" cy="28.1558" r="4" fill="#0" id="circle137"/>
	<circle cx="308.364" cy="987.948" r="4" fill="#0" id="circle138"/>
	<circle cx="311.584" cy="15.2727" r="4" fill="#0" id="circle139"/>
	<circle cx="324.468" cy="4" r="4" fill="#0" id="circle140"/>
	<circle cx="324.468" cy="987.948" r="4" fill="#0" id="circle141"/>
	<circle cx="335.74" cy="239.117" r="4" fill="#0" id="circle142"/>
	<circle cx="335.74" cy="255.221" r="4" fill="#0" id="circle143"/>
	<circle cx="335.74" cy="271.325" r="4" fill="#0" id="circle144"/>
	<circle cx="338.961" cy="287.429" r="4" fill="#0" id="circle145"/>
	<circle cx="340.571" cy="5.61039" r="4" fill="#0" id="circle146"/>
	<circle cx="340.571" cy="987.948" r="4" fill="#0" id="circle147"/>
	<circle cx="343.792" cy="198.857" r="4" fill="#0" id="circle148"/>
	<circle cx="343.792" cy="214.961" r="4" fill="#0" id="circle149"/>
	<circle cx="343.792" cy="303.532" r="4" fill="#0" id="circle150"/>
	<circle cx="343.792" cy="319.636" r="4" fill="#0" id="circle151"/>
	<circle cx="347.013" cy="335.74" r="4" fill="#0" id="circle152"/>
	<circle cx="351.844" cy="18.4935" r="4" fill="#0" id="circle153"/>
	<circle cx="351.844" cy="158.597" r="4" fill="#0" id="circle154"/>
	<circle cx="351.844" cy="174.701" r="4" fill="#0" id="circle155"/>
	<circle cx="355.065" cy="350.234" r="4" fill="#0" id="circle156"/>
	<circle cx="356.675" cy="987.948" r="4" fill="#0" id="circle157"/>
	<circle cx="359.896" cy="32.987" r="4" fill="#0" id="circle158"/>
	<circle cx="359.896" cy="86.1299" r="4" fill="#0" id="circle159"/>
	<circle cx="359.896" cy="102.234" r="4" fill="#0" id="circle160"/>
	<circle cx="359.896" cy="118.338" r="4" fill="#0" id="circle161"/>
	<circle cx="359.896" cy="134.442" r="4" fill="#0" id="circle162"/>
	<circle cx="359.896" cy="366.338" r="4" fill="#0" id="circle163"/>
	<circle cx="367.948" cy="47.4805" r="4" fill="#0" id="circle164"/>
	<circle cx="367.948" cy="63.5844" r="4" fill="#0" id="circle165"/>
	<circle cx="372.779" cy="987.948" r="4" fill="#0" id="circle166"/>
	<circle cx="376" cy="361.506" r="4" fill="#0" id="circle167"/>
	<circle cx="384.052" cy="345.403" r="4" fill="#0" id="circle168"/>
	<circle cx="388.883" cy="987.948" r="4" fill="#0" id="circle169"/>
	<circle cx="390.494" cy="314.805" r="4" fill="#0" id="circle170"/>
	<circle cx="398.545" cy="202.078" r="4" fill="#0" id="circle171"/>
	<circle cx="398.545" cy="218.182" r="4" fill="#0" id="circle172"/>
	<circle cx="398.545" cy="234.286" r="4" fill="#0" id="circle173"/>
	<circle cx="398.545" cy="250.39" r="4" fill="#0" id="circle174"/>
	<circle cx="398.545" cy="266.494" r="4" fill="#0" id="circle175"/>
	<circle cx="398.545" cy="282.597" r="4" fill="#0" id="circle176"/>
	<circle cx="398.545" cy="298.701" r="4" fill="#0" id="circle177"/>
	<circle cx="404.987" cy="987.948" r="4" fill="#0" id="circle178"/>
	<circle cx="406.597" cy="161.818" r="4" fill="#0" id="circle179"/>
	<circle cx="406.597" cy="177.922" r="4" fill="#0" id="circle180"/>
	<circle cx="414.649" cy="113.506" r="4" fill="#0" id="circle181"/>
	<circle cx="414.649" cy="129.61" r="4" fill="#0" id="circle182"/>
	<circle cx="414.649" cy="145.714" r="4" fill="#0" id="circle183"/>
	<circle cx="421.091" cy="987.948" r="4" fill="#0" id="circle184"/>
	<circle cx="422.701" cy="73.2468" r="4" fill="#0" id="circle185"/>
	<circle cx="422.701" cy="89.3506" r="4" fill="#0" id="circle186"/>
	<circle cx="435.584" cy="60.3636" r="4" fill="#0" id="circle187"/>
	<circle cx="437.195" cy="984.727" r="4" fill="#0" id="circle188"/>
	<circle cx="440.416" cy="955.74" r="4" fill="#0" id="circle189"/>
	<circle cx="450.078" cy="52.3117" r="4" fill="#0" id="circle190"/>
	<circle cx="453.299" cy="944.468" r="4" fill="#0" id="circle191"/>
	<circle cx="461.351" cy="928.364" r="4" fill="#0" id="circle192"/>
	<circle cx="462.961" cy="41.039" r="4" fill="#0" id="circle193"/>
	<circle cx="472.623" cy="915.481" r="4" fill="#0" id="circle194"/>
	<circle cx="475.844" cy="52.3117" r="4" fill="#0" id="circle195"/>
	<circle cx="480.675" cy="68.4156" r="4" fill="#0" id="circle196"/>
	<circle cx="488.727" cy="82.9091" r="4" fill="#0" id="circle197"/>
	<circle cx="488.727" cy="367.948" r="4" fill="#0" id="circle198"/>
	<circle cx="488.727" cy="384.052" r="4" fill="#0" id="circle199"/>
	<circle cx="488.727" cy="400.156" r="4" fill="#0" id="circle200"/>
	<circle cx="488.727" cy="416.26" r="4" fill="#0" id="circle201"/>
	<circle cx="488.727" cy="432.364" r="4" fill="#0" id="circle202"/>
	<circle cx="488.727" cy="907.429" r="4" fill="#0" id="circle203"/>
	<circle cx="496.779" cy="97.4026" r="4" fill="#0" id="circle204"/>
	<circle cx="496.779" cy="263.273" r="4" fill="#0" id="circle205"/>
	<circle cx="496.779" cy="279.377" r="4" fill="#0" id="circle206"/>
	<circle cx="496.779" cy="295.481" r="4" fill="#0" id="circle207"/>
	<circle cx="496.779" cy="311.584" r="4" fill="#0" id="circle208"/>
	<circle cx="496.779" cy="327.688" r="4" fill="#0" id="circle209"/>
	<circle cx="496.779" cy="343.792" r="4" fill="#0" id="circle210"/>
	<circle cx="496.779" cy="446.857" r="4" fill="#0" id="circle211"/>
	<circle cx="496.779" cy="462.961" r="4" fill="#0" id="circle212"/>
	<circle cx="496.779" cy="479.065" r="4" fill="#0" id="circle213"/>
	<circle cx="504.831" cy="111.896" r="4" fill="#0" id="circle214"/>
	<circle cx="504.831" cy="128" r="4" fill="#0" id="circle215"/>
	<circle cx="504.831" cy="144.104" r="4" fill="#0" id="circle216"/>
	<circle cx="504.831" cy="160.208" r="4" fill="#0" id="circle217"/>
	<circle cx="504.831" cy="176.312" r="4" fill="#0" id="circle218"/>
	<circle cx="504.831" cy="192.416" r="4" fill="#0" id="circle219"/>
	<circle cx="504.831" cy="208.519" r="4" fill="#0" id="circle220"/>
	<circle cx="504.831" cy="224.623" r="4" fill="#0" id="circle221"/>
	<circle cx="504.831" cy="240.727" r="4" fill="#0" id="circle222"/>
	<circle cx="504.831" cy="493.558" r="4" fill="#0" id="circle223"/>
	<circle cx="504.831" cy="509.662" r="4" fill="#0" id="circle224"/>
	<circle cx="504.831" cy="525.766" r="4" fill="#0" id="circle225"/>
	<circle cx="504.831" cy="541.87" r="4" fill="#0" id="circle226"/>
	<circle cx="504.831" cy="557.974" r="4" fill="#0" id="circle227"/>
	<circle cx="504.831" cy="574.078" r="4" fill="#0" id="circle228"/>
	<circle cx="504.831" cy="883.273" r="4" fill="#0" id="circle229"/>
	<circle cx="504.831" cy="899.377" r="4" fill="#0" id="circle230"/>
	<circle cx="512.883" cy="588.571" r="4" fill="#0" id="circle231"/>
	<circle cx="512.883" cy="604.675" r="4" fill="#0" id="circle232"/>
	<circle cx="517.714" cy="872" r="4" fill="#0" id="circle233"/>
	<circle cx="525.766" cy="855.896" r="4" fill="#0" id="circle234"/>
	<circle cx="528.987" cy="603.065" r="4" fill="#0" id="circle235"/>
	<circle cx="537.039" cy="586.961" r="4" fill="#0" id="circle236"/>
	<circle cx="537.039" cy="834.961" r="4" fill="#0" id="circle237"/>
	<circle cx="545.091" cy="570.857" r="4" fill="#0" id="circle238"/>
	<circle cx="545.091" cy="818.857" r="4" fill="#0" id="circle239"/>
	<circle cx="551.532" cy="540.26" r="4" fill="#0" id="circle240"/>
	<circle cx="557.974" cy="807.584" r="4" fill="#0" id="circle241"/>
	<circle cx="559.584" cy="508.052" r="4" fill="#0" id="circle242"/>
	<circle cx="559.584" cy="524.156" r="4" fill="#0" id="circle243"/>
	<circle cx="567.636" cy="459.74" r="4" fill="#0" id="circle244"/>
	<circle cx="567.636" cy="475.844" r="4" fill="#0" id="circle245"/>
	<circle cx="567.636" cy="491.948" r="4" fill="#0" id="circle246"/>
	<circle cx="569.247" cy="786.649" r="4" fill="#0" id="circle247"/>
	<circle cx="575.688" cy="403.377" r="4" fill="#0" id="circle248"/>
	<circle cx="575.688" cy="419.481" r="4" fill="#0" id="circle249"/>
	<circle cx="575.688" cy="435.584" r="4" fill="#0" id="circle250"/>
	<circle cx="577.299" cy="770.545" r="4" fill="#0" id="circle251"/>
	<circle cx="585.351" cy="754.442" r="4" fill="#0" id="circle252"/>
	<circle cx="588.571" cy="390.494" r="4" fill="#0" id="circle253"/>
	<circle cx="596.623" cy="374.39" r="4" fill="#0" id="circle254"/>
	<circle cx="598.234" cy="743.169" r="4" fill="#0" id="circle255"/>
	<circle cx="609.506" cy="714.182" r="4" fill="#0" id="circle256"/>
	<circle cx="609.506" cy="730.286" r="4" fill="#0" id="circle257"/>
	<circle cx="612.727" cy="366.338" r="4" fill="#0" id="circle258"/>
	<circle cx="617.558" cy="673.922" r="4" fill="#0" id="circle259"/>
	<circle cx="617.558" cy="690.026" r="4" fill="#0" id="circle260"/>
	<circle cx="625.61" cy="641.714" r="4" fill="#0" id="circle261"/>
	<circle cx="625.61" cy="657.818" r="4" fill="#0" id="circle262"/>
	<circle cx="628.831" cy="366.338" r="4" fill="#0" id="circle263"/>
	<circle cx="633.662" cy="617.558" r="4" fill="#0" id="circle264"/>
	<circle cx="641.714" cy="376" r="4" fill="#0" id="circle265"/>
	<circle cx="641.714" cy="577.299" r="4" fill="#0" id="circle266"/>
	<circle cx="641.714" cy="593.403" r="4" fill="#0" id="circle267"/>
	<circle cx="649.766" cy="390.494" r="4" fill="#0" id="circle268"/>
	<circle cx="649.766" cy="561.195" r="4" fill="#0" id="circle269"/>
	<circle cx="657.818" cy="404.987" r="4" fill="#0" id="circle270"/>
	<circle cx="657.818" cy="421.091" r="4" fill="#0" id="circle271"/>
	<circle cx="657.818" cy="437.195" r="4" fill="#0" id="circle272"/>
	<circle cx="657.818" cy="453.299" r="4" fill="#0" id="circle273"/>
	<circle cx="657.818" cy="469.403" r="4" fill="#0" id="circle274"/>
	<circle cx="657.818" cy="485.506" r="4" fill="#0" id="circle275"/>
	<circle cx="657.818" cy="537.039" r="4" fill="#0" id="circle276"/>
	<circle cx="665.87" cy="500" r="4" fill="#0" id="circle277"/>
	<circle cx="665.87" cy="516.104" r="4" fill="#0" id="circle278"/>
	</g>
</svg>