<?xml version="1.0" encoding="UTF-8" standalone="no"?>
<!-- Created with CurveBenchmark -->
<svg
	xmlns:dc="http://purl.org/dc/elements/1.1/"
	xmlns:cc="http://creativecommons.org/ns#"
	xmlns:rdf="http://www.w3.org/1999/02/22-rdf-syntax-ns#"
	xmlns:svg="http://www.w3.org/2000/svg"
	xmlns="http://www.w3.org/2000/svg"
	xmlns:sodipodi="http://sodipodi.sourceforge.net/DTD/sodipodi-0.dtd"
	xmlns:inkscape="http://www.inkscape.org/namespaces/inkscape"
	width="1000"
	height="1000"
	id="svg2"
	version="1.1"
	sodipodi:docname="manifold/hnncrust-hammer-4.png.txt">
<defs
	id="defs4" />
<metadata
	id="metadata7">
	<rdf:RDF>
		<cc:Work
			rdf:about="">
			<dc:format>image/svg+xml</dc:format>
			<dc:type
				rdf:resource="http://purl.org/dc/dcmitype/StillImage" />
			<dc:title></dc:title>
		</cc:Work>
	</rdf:RDF>
</metadata>
<g
	inkscape:label="Layer 1"
	inkscape:groupmode="layer"
	id="layer1">
	<path style="fill:none;stroke:red;stroke-width:1px;stroke-linecap:butt;stroke-linejoin:miter;stroke-opacity:1" d="M 4,6.75301 4,15.9297 z" id="boundary" inkscape:connector-curvature="0" />
	<path style="fill:none;stroke:red;stroke-width:1px;stroke-linecap:butt;stroke-linejoin:miter;stroke-opacity:1" d="M 4,6.75301 13.1767,4 z" id="boundary" inkscape:connector-curvature="0" />
	<path style="fill:none;stroke:red;stroke-width:1px;stroke-linecap:butt;stroke-linejoin:miter;stroke-opacity:1" d="M 4,15.9297 4,25.1064 z" id="boundary" inkscape:connector-curvature="0" />
	<path style="fill:none;stroke:red;stroke-width:1px;stroke-linecap:butt;stroke-linejoin:miter;stroke-opacity:1" d="M 4,25.1064 4,34.2831 z" id="boundary" inkscape:connector-curvature="0" />
	<path style="fill:none;stroke:red;stroke-width:1px;stroke-linecap:butt;stroke-linejoin:miter;stroke-opacity:1" d="M 4,34.2831 4,43.4598 z" id="boundary" inkscape:connector-curvature="0" />
	<path style="fill:none;stroke:red;stroke-width:1px;stroke-linecap:butt;stroke-linejoin:miter;stroke-opacity:1" d="M 4,43.4598 4,52.6364 z" id="boundary" inkscape:connector-curvature="0" />
	<path style="fill:none;stroke:red;stroke-width:1px;stroke-linecap:butt;stroke-linejoin:miter;stroke-opacity:1" d="M 4,52.6364 4,61.8131 z" id="boundary" inkscape:connector-curvature="0" />
	<path style="fill:none;stroke:red;stroke-width:1px;stroke-linecap:butt;stroke-linejoin:miter;stroke-opacity:1" d="M 4,61.8131 4,70.9898 z" id="boundary" inkscape:connector-curvature="0" />
	<path style="fill:none;stroke:red;stroke-width:1px;stroke-linecap:butt;stroke-linejoin:miter;stroke-opacity:1" d="M 4,70.9898 4,80.1665 z" id="boundary" inkscape:connector-curvature="0" />
	<path style="fill:none;stroke:red;stroke-width:1px;stroke-linecap:butt;stroke-linejoin:miter;stroke-opacity:1" d="M 4,80.1665 4,89.3432 z" id="boundary" inkscape:connector-curvature="0" />
	<path style="fill:none;stroke:red;stroke-width:1px;stroke-linecap:butt;stroke-linejoin:miter;stroke-opacity:1" d="M 4,89.3432 4,98.5199 z" id="boundary" inkscape:connector-curvature="0" />
	<path style="fill:none;stroke:red;stroke-width:1px;stroke-linecap:butt;stroke-linejoin:miter;stroke-opacity:1" d="M 4,98.5199 4,107.697 z" id="boundary" inkscape:connector-curvature="0" />
	<path style="fill:none;stroke:red;stroke-width:1px;stroke-linecap:butt;stroke-linejoin:miter;stroke-opacity:1" d="M 4,107.697 4,116.873 z" id="boundary" inkscape:connector-curvature="0" />
	<path style="fill:none;stroke:red;stroke-width:1px;stroke-linecap:butt;stroke-linejoin:miter;stroke-opacity:1" d="M 4,116.873 4,126.05 z" id="boundary" inkscape:connector-curvature="0" />
	<path style="fill:none;stroke:red;stroke-width:1px;stroke-linecap:butt;stroke-linejoin:miter;stroke-opacity:1" d="M 4,126.05 4,135.227 z" id="boundary" inkscape:connector-curvature="0" />
	<path style="fill:none;stroke:red;stroke-width:1px;stroke-linecap:butt;stroke-linejoin:miter;stroke-opacity:1" d="M 4,135.227 4,144.403 z" id="boundary" inkscape:connector-curvature="0" />
	<path style="fill:none;stroke:red;stroke-width:1px;stroke-linecap:butt;stroke-linejoin:miter;stroke-opacity:1" d="M 4,144.403 4,153.58 z" id="boundary" inkscape:connector-curvature="0" />
	<path style="fill:none;stroke:red;stroke-width:1px;stroke-linecap:butt;stroke-linejoin:miter;stroke-opacity:1" d="M 4,153.58 4,162.757 z" id="boundary" inkscape:connector-curvature="0" />
	<path style="fill:none;stroke:red;stroke-width:1px;stroke-linecap:butt;stroke-linejoin:miter;stroke-opacity:1" d="M 4,162.757 4,171.933 z" id="boundary" inkscape:connector-curvature="0" />
	<path style="fill:none;stroke:red;stroke-width:1px;stroke-linecap:butt;stroke-linejoin:miter;stroke-opacity:1" d="M 4,171.933 4,181.11 z" id="boundary" inkscape:connector-curvature="0" />
	<path style="fill:none;stroke:red;stroke-width:1px;stroke-linecap:butt;stroke-linejoin:miter;stroke-opacity:1" d="M 4,181.11 4,190.287 z" id="boundary" inkscape:connector-curvature="0" />
	<path style="fill:none;stroke:red;stroke-width:1px;stroke-linecap:butt;stroke-linejoin:miter;stroke-opacity:1" d="M 4,190.287 4,199.463 z" id="boundary" inkscape:connector-curvature="0" />
	<path style="fill:none;stroke:red;stroke-width:1px;stroke-linecap:butt;stroke-linejoin:miter;stroke-opacity:1" d="M 4,199.463 4,208.64 z" id="boundary" inkscape:connector-curvature="0" />
	<path style="fill:none;stroke:red;stroke-width:1px;stroke-linecap:butt;stroke-linejoin:miter;stroke-opacity:1" d="M 4,208.64 4,217.817 z" id="boundary" inkscape:connector-curvature="0" />
	<path style="fill:none;stroke:red;stroke-width:1px;stroke-linecap:butt;stroke-linejoin:miter;stroke-opacity:1" d="M 4,217.817 9.50601,225.158 z" id="boundary" inkscape:connector-curvature="0" />
	<path style="fill:none;stroke:red;stroke-width:1px;stroke-linecap:butt;stroke-linejoin:miter;stroke-opacity:1" d="M 9.50601,225.158 18.6827,225.158 z" id="boundary" inkscape:connector-curvature="0" />
	<path style="fill:none;stroke:red;stroke-width:1px;stroke-linecap:butt;stroke-linejoin:miter;stroke-opacity:1" d="M 13.1767,4 22.3534,4 z" id="boundary" inkscape:connector-curvature="0" />
	<path style="fill:none;stroke:red;stroke-width:1px;stroke-linecap:butt;stroke-linejoin:miter;stroke-opacity:1" d="M 18.6827,225.158 27.8594,225.158 z" id="boundary" inkscape:connector-curvature="0" />
	<path style="fill:none;stroke:red;stroke-width:1px;stroke-linecap:butt;stroke-linejoin:miter;stroke-opacity:1" d="M 22.3534,4 31.5301,4 z" id="boundary" inkscape:connector-curvature="0" />
	<path style="fill:none;stroke:red;stroke-width:1px;stroke-linecap:butt;stroke-linejoin:miter;stroke-opacity:1" d="M 27.8594,225.158 37.0361,225.158 z" id="boundary" inkscape:connector-curvature="0" />
	<path style="fill:none;stroke:red;stroke-width:1px;stroke-linecap:butt;stroke-linejoin:miter;stroke-opacity:1" d="M 31.5301,4 40.7068,4 z" id="boundary" inkscape:connector-curvature="0" />
	<path style="fill:none;stroke:red;stroke-width:1px;stroke-linecap:butt;stroke-linejoin:miter;stroke-opacity:1" d="M 37.0361,225.158 46.2128,225.158 z" id="boundary" inkscape:connector-curvature="0" />
	<path style="fill:none;stroke:red;stroke-width:1px;stroke-linecap:butt;stroke-linejoin:miter;stroke-opacity:1" d="M 40.7068,4 49.8834,4 z" id="boundary" inkscape:connector-curvature="0" />
	<path style="fill:none;stroke:red;stroke-width:1px;stroke-linecap:butt;stroke-linejoin:miter;stroke-opacity:1" d="M 46.2128,225.158 55.3895,225.158 z" id="boundary" inkscape:connector-curvature="0" />
	<path style="fill:none;stroke:red;stroke-width:1px;stroke-linecap:butt;stroke-linejoin:miter;stroke-opacity:1" d="M 49.8834,4 59.0601,4 z" id="boundary" inkscape:connector-curvature="0" />
	<path style="fill:none;stroke:red;stroke-width:1px;stroke-linecap:butt;stroke-linejoin:miter;stroke-opacity:1" d="M 55.3895,225.158 64.5661,225.158 z" id="boundary" inkscape:connector-curvature="0" />
	<path style="fill:none;stroke:red;stroke-width:1px;stroke-linecap:butt;stroke-linejoin:miter;stroke-opacity:1" d="M 59.0601,4 68.2368,4 z" id="boundary" inkscape:connector-curvature="0" />
	<path style="fill:none;stroke:red;stroke-width:1px;stroke-linecap:butt;stroke-linejoin:miter;stroke-opacity:1" d="M 64.5661,225.158 73.7428,225.158 z" id="boundary" inkscape:connector-curvature="0" />
	<path style="fill:none;stroke:red;stroke-width:1px;stroke-linecap:butt;stroke-linejoin:miter;stroke-opacity:1" d="M 68.2368,4 77.4135,4 z" id="boundary" inkscape:connector-curvature="0" />
	<path style="fill:none;stroke:red;stroke-width:1px;stroke-linecap:butt;stroke-linejoin:miter;stroke-opacity:1" d="M 73.7428,225.158 82.9195,225.158 z" id="boundary" inkscape:connector-curvature="0" />
	<path style="fill:none;stroke:red;stroke-width:1px;stroke-linecap:butt;stroke-linejoin:miter;stroke-opacity:1" d="M 77.4135,4 86.5902,4 z" id="boundary" inkscape:connector-curvature="0" />
	<path style="fill:none;stroke:red;stroke-width:1px;stroke-linecap:butt;stroke-linejoin:miter;stroke-opacity:1" d="M 82.9195,225.158 92.0962,225.158 z" id="boundary" inkscape:connector-curvature="0" />
	<path style="fill:none;stroke:red;stroke-width:1px;stroke-linecap:butt;stroke-linejoin:miter;stroke-opacity:1" d="M 86.5902,4 95.7669,4 z" id="boundary" inkscape:connector-curvature="0" />
	<path style="fill:none;stroke:red;stroke-width:1px;stroke-linecap:butt;stroke-linejoin:miter;stroke-opacity:1" d="M 92.0962,225.158 101.273,225.158 z" id="boundary" inkscape:connector-curvature="0" />
	<path style="fill:none;stroke:red;stroke-width:1px;stroke-linecap:butt;stroke-linejoin:miter;stroke-opacity:1" d="M 95.7669,4 104.944,4 z" id="boundary" inkscape:connector-curvature="0" />
	<path style="fill:none;stroke:red;stroke-width:1px;stroke-linecap:butt;stroke-linejoin:miter;stroke-opacity:1" d="M 101.273,225.158 110.45,225.158 z" id="boundary" inkscape:connector-curvature="0" />
	<path style="fill:none;stroke:red;stroke-width:1px;stroke-linecap:butt;stroke-linejoin:miter;stroke-opacity:1" d="M 104.944,4 114.12,4 z" id="boundary" inkscape:connector-curvature="0" />
	<path style="fill:none;stroke:red;stroke-width:1px;stroke-linecap:butt;stroke-linejoin:miter;stroke-opacity:1" d="M 110.45,225.158 119.626,225.158 z" id="boundary" inkscape:connector-curvature="0" />
	<path style="fill:none;stroke:red;stroke-width:1px;stroke-linecap:butt;stroke-linejoin:miter;stroke-opacity:1" d="M 114.12,4 123.297,5.83534 z" id="boundary" inkscape:connector-curvature="0" />
	<path style="fill:none;stroke:red;stroke-width:1px;stroke-linecap:butt;stroke-linejoin:miter;stroke-opacity:1" d="M 119.626,225.158 124.215,215.981 z" id="boundary" inkscape:connector-curvature="0" />
	<path style="fill:none;stroke:red;stroke-width:1px;stroke-linecap:butt;stroke-linejoin:miter;stroke-opacity:1" d="M 123.297,5.83534 124.215,15.012 z" id="boundary" inkscape:connector-curvature="0" />
	<path style="fill:none;stroke:red;stroke-width:1px;stroke-linecap:butt;stroke-linejoin:miter;stroke-opacity:1" d="M 124.215,15.012 129.721,22.3534 z" id="boundary" inkscape:connector-curvature="0" />
	<path style="fill:none;stroke:red;stroke-width:1px;stroke-linecap:butt;stroke-linejoin:miter;stroke-opacity:1" d="M 124.215,206.805 124.215,215.981 z" id="boundary" inkscape:connector-curvature="0" />
	<path style="fill:none;stroke:red;stroke-width:1px;stroke-linecap:butt;stroke-linejoin:miter;stroke-opacity:1" d="M 124.215,206.805 133.391,206.805 z" id="boundary" inkscape:connector-curvature="0" />
	<path style="fill:none;stroke:red;stroke-width:1px;stroke-linecap:butt;stroke-linejoin:miter;stroke-opacity:1" d="M 129.721,22.3534 138.897,22.3534 z" id="boundary" inkscape:connector-curvature="0" />
	<path style="fill:none;stroke:red;stroke-width:1px;stroke-linecap:butt;stroke-linejoin:miter;stroke-opacity:1" d="M 133.391,206.805 142.568,206.805 z" id="boundary" inkscape:connector-curvature="0" />
	<path style="fill:none;stroke:red;stroke-width:1px;stroke-linecap:butt;stroke-linejoin:miter;stroke-opacity:1" d="M 138.897,22.3534 148.074,22.3534 z" id="boundary" inkscape:connector-curvature="0" />
	<path style="fill:none;stroke:red;stroke-width:1px;stroke-linecap:butt;stroke-linejoin:miter;stroke-opacity:1" d="M 142.568,206.805 146.239,215.981 z" id="boundary" inkscape:connector-curvature="0" />
	<path style="fill:none;stroke:red;stroke-width:1px;stroke-linecap:butt;stroke-linejoin:miter;stroke-opacity:1" d="M 146.239,215.981 146.239,225.158 z" id="boundary" inkscape:connector-curvature="0" />
	<path style="fill:none;stroke:red;stroke-width:1px;stroke-linecap:butt;stroke-linejoin:miter;stroke-opacity:1" d="M 146.239,225.158 146.239,234.335 z" id="boundary" inkscape:connector-curvature="0" />
	<path style="fill:none;stroke:red;stroke-width:1px;stroke-linecap:butt;stroke-linejoin:miter;stroke-opacity:1" d="M 146.239,234.335 146.239,243.512 z" id="boundary" inkscape:connector-curvature="0" />
	<path style="fill:none;stroke:red;stroke-width:1px;stroke-linecap:butt;stroke-linejoin:miter;stroke-opacity:1" d="M 146.239,243.512 146.239,252.688 z" id="boundary" inkscape:connector-curvature="0" />
	<path style="fill:none;stroke:red;stroke-width:1px;stroke-linecap:butt;stroke-linejoin:miter;stroke-opacity:1" d="M 146.239,252.688 146.239,261.865 z" id="boundary" inkscape:connector-curvature="0" />
	<path style="fill:none;stroke:red;stroke-width:1px;stroke-linecap:butt;stroke-linejoin:miter;stroke-opacity:1" d="M 146.239,261.865 146.239,271.042 z" id="boundary" inkscape:connector-curvature="0" />
	<path style="fill:none;stroke:red;stroke-width:1px;stroke-linecap:butt;stroke-linejoin:miter;stroke-opacity:1" d="M 146.239,271.042 146.239,280.218 z" id="boundary" inkscape:connector-curvature="0" />
	<path style="fill:none;stroke:red;stroke-width:1px;stroke-linecap:butt;stroke-linejoin:miter;stroke-opacity:1" d="M 146.239,280.218 146.239,289.395 z" id="boundary" inkscape:connector-curvature="0" />
	<path style="fill:none;stroke:red;stroke-width:1px;stroke-linecap:butt;stroke-linejoin:miter;stroke-opacity:1" d="M 146.239,289.395 146.239,298.572 z" id="boundary" inkscape:connector-curvature="0" />
	<path style="fill:none;stroke:red;stroke-width:1px;stroke-linecap:butt;stroke-linejoin:miter;stroke-opacity:1" d="M 146.239,298.572 146.239,307.748 z" id="boundary" inkscape:connector-curvature="0" />
	<path style="fill:none;stroke:red;stroke-width:1px;stroke-linecap:butt;stroke-linejoin:miter;stroke-opacity:1" d="M 146.239,307.748 146.239,316.925 z" id="boundary" inkscape:connector-curvature="0" />
	<path style="fill:none;stroke:red;stroke-width:1px;stroke-linecap:butt;stroke-linejoin:miter;stroke-opacity:1" d="M 146.239,316.925 146.239,326.102 z" id="boundary" inkscape:connector-curvature="0" />
	<path style="fill:none;stroke:red;stroke-width:1px;stroke-linecap:butt;stroke-linejoin:miter;stroke-opacity:1" d="M 146.239,326.102 146.239,335.278 z" id="boundary" inkscape:connector-curvature="0" />
	<path style="fill:none;stroke:red;stroke-width:1px;stroke-linecap:butt;stroke-linejoin:miter;stroke-opacity:1" d="M 146.239,335.278 146.239,344.455 z" id="boundary" inkscape:connector-curvature="0" />
	<path style="fill:none;stroke:red;stroke-width:1px;stroke-linecap:butt;stroke-linejoin:miter;stroke-opacity:1" d="M 146.239,344.455 146.239,353.632 z" id="boundary" inkscape:connector-curvature="0" />
	<path style="fill:none;stroke:red;stroke-width:1px;stroke-linecap:butt;stroke-linejoin:miter;stroke-opacity:1" d="M 146.239,353.632 146.239,362.809 z" id="boundary" inkscape:connector-curvature="0" />
	<path style="fill:none;stroke:red;stroke-width:1px;stroke-linecap:butt;stroke-linejoin:miter;stroke-opacity:1" d="M 146.239,362.809 146.239,371.985 z" id="boundary" inkscape:connector-curvature="0" />
	<path style="fill:none;stroke:red;stroke-width:1px;stroke-linecap:butt;stroke-linejoin:miter;stroke-opacity:1" d="M 146.239,371.985 146.239,381.162 z" id="boundary" inkscape:connector-curvature="0" />
	<path style="fill:none;stroke:red;stroke-width:1px;stroke-linecap:butt;stroke-linejoin:miter;stroke-opacity:1" d="M 146.239,381.162 146.239,390.339 z" id="boundary" inkscape:connector-curvature="0" />
	<path style="fill:none;stroke:red;stroke-width:1px;stroke-linecap:butt;stroke-linejoin:miter;stroke-opacity:1" d="M 146.239,390.339 146.239,399.515 z" id="boundary" inkscape:connector-curvature="0" />
	<path style="fill:none;stroke:red;stroke-width:1px;stroke-linecap:butt;stroke-linejoin:miter;stroke-opacity:1" d="M 146.239,399.515 146.239,408.692 z" id="boundary" inkscape:connector-curvature="0" />
	<path style="fill:none;stroke:red;stroke-width:1px;stroke-linecap:butt;stroke-linejoin:miter;stroke-opacity:1" d="M 146.239,408.692 146.239,417.869 z" id="boundary" inkscape:connector-curvature="0" />
	<path style="fill:none;stroke:red;stroke-width:1px;stroke-linecap:butt;stroke-linejoin:miter;stroke-opacity:1" d="M 146.239,417.869 146.239,427.045 z" id="boundary" inkscape:connector-curvature="0" />
	<path style="fill:none;stroke:red;stroke-width:1px;stroke-linecap:butt;stroke-linejoin:miter;stroke-opacity:1" d="M 146.239,427.045 146.239,436.222 z" id="boundary" inkscape:connector-curvature="0" />
	<path style="fill:none;stroke:red;stroke-width:1px;stroke-linecap:butt;stroke-linejoin:miter;stroke-opacity:1" d="M 146.239,436.222 146.239,445.399 z" id="boundary" inkscape:connector-curvature="0" />
	<path style="fill:none;stroke:red;stroke-width:1px;stroke-linecap:butt;stroke-linejoin:miter;stroke-opacity:1" d="M 146.239,445.399 146.239,454.575 z" id="boundary" inkscape:connector-curvature="0" />
	<path style="fill:none;stroke:red;stroke-width:1px;stroke-linecap:butt;stroke-linejoin:miter;stroke-opacity:1" d="M 146.239,454.575 146.239,463.752 z" id="boundary" inkscape:connector-curvature="0" />
	<path style="fill:none;stroke:red;stroke-width:1px;stroke-linecap:butt;stroke-linejoin:miter;stroke-opacity:1" d="M 146.239,463.752 146.239,472.929 z" id="boundary" inkscape:connector-curvature="0" />
	<path style="fill:none;stroke:red;stroke-width:1px;stroke-linecap:butt;stroke-linejoin:miter;stroke-opacity:1" d="M 146.239,472.929 146.239,482.105 z" id="boundary" inkscape:connector-curvature="0" />
	<path style="fill:none;stroke:red;stroke-width:1px;stroke-linecap:butt;stroke-linejoin:miter;stroke-opacity:1" d="M 146.239,482.105 146.239,491.282 z" id="boundary" inkscape:connector-curvature="0" />
	<path style="fill:none;stroke:red;stroke-width:1px;stroke-linecap:butt;stroke-linejoin:miter;stroke-opacity:1" d="M 146.239,491.282 146.239,500.459 z" id="boundary" inkscape:connector-curvature="0" />
	<path style="fill:none;stroke:red;stroke-width:1px;stroke-linecap:butt;stroke-linejoin:miter;stroke-opacity:1" d="M 146.239,500.459 146.239,509.636 z" id="boundary" inkscape:connector-curvature="0" />
	<path style="fill:none;stroke:red;stroke-width:1px;stroke-linecap:butt;stroke-linejoin:miter;stroke-opacity:1" d="M 146.239,509.636 146.239,518.812 z" id="boundary" inkscape:connector-curvature="0" />
	<path style="fill:none;stroke:red;stroke-width:1px;stroke-linecap:butt;stroke-linejoin:miter;stroke-opacity:1" d="M 146.239,518.812 146.239,527.989 z" id="boundary" inkscape:connector-curvature="0" />
	<path style="fill:none;stroke:red;stroke-width:1px;stroke-linecap:butt;stroke-linejoin:miter;stroke-opacity:1" d="M 146.239,527.989 146.239,537.166 z" id="boundary" inkscape:connector-curvature="0" />
	<path style="fill:none;stroke:red;stroke-width:1px;stroke-linecap:butt;stroke-linejoin:miter;stroke-opacity:1" d="M 146.239,537.166 146.239,546.342 z" id="boundary" inkscape:connector-curvature="0" />
	<path style="fill:none;stroke:red;stroke-width:1px;stroke-linecap:butt;stroke-linejoin:miter;stroke-opacity:1" d="M 146.239,546.342 146.239,555.519 z" id="boundary" inkscape:connector-curvature="0" />
	<path style="fill:none;stroke:red;stroke-width:1px;stroke-linecap:butt;stroke-linejoin:miter;stroke-opacity:1" d="M 146.239,555.519 146.239,564.696 z" id="boundary" inkscape:connector-curvature="0" />
	<path style="fill:none;stroke:red;stroke-width:1px;stroke-linecap:butt;stroke-linejoin:miter;stroke-opacity:1" d="M 146.239,564.696 146.239,573.872 z" id="boundary" inkscape:connector-curvature="0" />
	<path style="fill:none;stroke:red;stroke-width:1px;stroke-linecap:butt;stroke-linejoin:miter;stroke-opacity:1" d="M 146.239,573.872 146.239,583.049 z" id="boundary" inkscape:connector-curvature="0" />
	<path style="fill:none;stroke:red;stroke-width:1px;stroke-linecap:butt;stroke-linejoin:miter;stroke-opacity:1" d="M 146.239,583.049 146.239,592.226 z" id="boundary" inkscape:connector-curvature="0" />
	<path style="fill:none;stroke:red;stroke-width:1px;stroke-linecap:butt;stroke-linejoin:miter;stroke-opacity:1" d="M 146.239,592.226 146.239,601.402 z" id="boundary" inkscape:connector-curvature="0" />
	<path style="fill:none;stroke:red;stroke-width:1px;stroke-linecap:butt;stroke-linejoin:miter;stroke-opacity:1" d="M 146.239,601.402 146.239,610.579 z" id="boundary" inkscape:connector-curvature="0" />
	<path style="fill:none;stroke:red;stroke-width:1px;stroke-linecap:butt;stroke-linejoin:miter;stroke-opacity:1" d="M 146.239,610.579 146.239,619.756 z" id="boundary" inkscape:connector-curvature="0" />
	<path style="fill:none;stroke:red;stroke-width:1px;stroke-linecap:butt;stroke-linejoin:miter;stroke-opacity:1" d="M 146.239,619.756 146.239,628.932 z" id="boundary" inkscape:connector-curvature="0" />
	<path style="fill:none;stroke:red;stroke-width:1px;stroke-linecap:butt;stroke-linejoin:miter;stroke-opacity:1" d="M 146.239,628.932 146.239,638.109 z" id="boundary" inkscape:connector-curvature="0" />
	<path style="fill:none;stroke:red;stroke-width:1px;stroke-linecap:butt;stroke-linejoin:miter;stroke-opacity:1" d="M 146.239,638.109 146.239,647.286 z" id="boundary" inkscape:connector-curvature="0" />
	<path style="fill:none;stroke:red;stroke-width:1px;stroke-linecap:butt;stroke-linejoin:miter;stroke-opacity:1" d="M 146.239,647.286 146.239,656.463 z" id="boundary" inkscape:connector-curvature="0" />
	<path style="fill:none;stroke:red;stroke-width:1px;stroke-linecap:butt;stroke-linejoin:miter;stroke-opacity:1" d="M 146.239,656.463 146.239,665.639 z" id="boundary" inkscape:connector-curvature="0" />
	<path style="fill:none;stroke:red;stroke-width:1px;stroke-linecap:butt;stroke-linejoin:miter;stroke-opacity:1" d="M 146.239,665.639 146.239,674.816 z" id="boundary" inkscape:connector-curvature="0" />
	<path style="fill:none;stroke:red;stroke-width:1px;stroke-linecap:butt;stroke-linejoin:miter;stroke-opacity:1" d="M 146.239,674.816 146.239,683.993 z" id="boundary" inkscape:connector-curvature="0" />
	<path style="fill:none;stroke:red;stroke-width:1px;stroke-linecap:butt;stroke-linejoin:miter;stroke-opacity:1" d="M 146.239,683.993 146.239,693.169 z" id="boundary" inkscape:connector-curvature="0" />
	<path style="fill:none;stroke:red;stroke-width:1px;stroke-linecap:butt;stroke-linejoin:miter;stroke-opacity:1" d="M 146.239,693.169 146.239,702.346 z" id="boundary" inkscape:connector-curvature="0" />
	<path style="fill:none;stroke:red;stroke-width:1px;stroke-linecap:butt;stroke-linejoin:miter;stroke-opacity:1" d="M 146.239,702.346 146.239,711.523 z" id="boundary" inkscape:connector-curvature="0" />
	<path style="fill:none;stroke:red;stroke-width:1px;stroke-linecap:butt;stroke-linejoin:miter;stroke-opacity:1" d="M 146.239,711.523 146.239,720.699 z" id="boundary" inkscape:connector-curvature="0" />
	<path style="fill:none;stroke:red;stroke-width:1px;stroke-linecap:butt;stroke-linejoin:miter;stroke-opacity:1" d="M 146.239,720.699 146.239,729.876 z" id="boundary" inkscape:connector-curvature="0" />
	<path style="fill:none;stroke:red;stroke-width:1px;stroke-linecap:butt;stroke-linejoin:miter;stroke-opacity:1" d="M 146.239,729.876 146.239,739.053 z" id="boundary" inkscape:connector-curvature="0" />
	<path style="fill:none;stroke:red;stroke-width:1px;stroke-linecap:butt;stroke-linejoin:miter;stroke-opacity:1" d="M 146.239,739.053 146.239,748.229 z" id="boundary" inkscape:connector-curvature="0" />
	<path style="fill:none;stroke:red;stroke-width:1px;stroke-linecap:butt;stroke-linejoin:miter;stroke-opacity:1" d="M 146.239,748.229 146.239,757.406 z" id="boundary" inkscape:connector-curvature="0" />
	<path style="fill:none;stroke:red;stroke-width:1px;stroke-linecap:butt;stroke-linejoin:miter;stroke-opacity:1" d="M 146.239,757.406 146.239,766.583 z" id="boundary" inkscape:connector-curvature="0" />
	<path style="fill:none;stroke:red;stroke-width:1px;stroke-linecap:butt;stroke-linejoin:miter;stroke-opacity:1" d="M 146.239,766.583 146.239,775.759 z" id="boundary" inkscape:connector-curvature="0" />
	<path style="fill:none;stroke:red;stroke-width:1px;stroke-linecap:butt;stroke-linejoin:miter;stroke-opacity:1" d="M 146.239,775.759 146.239,784.936 z" id="boundary" inkscape:connector-curvature="0" />
	<path style="fill:none;stroke:red;stroke-width:1px;stroke-linecap:butt;stroke-linejoin:miter;stroke-opacity:1" d="M 146.239,784.936 146.239,794.113 z" id="boundary" inkscape:connector-curvature="0" />
	<path style="fill:none;stroke:red;stroke-width:1px;stroke-linecap:butt;stroke-linejoin:miter;stroke-opacity:1" d="M 146.239,794.113 146.239,803.29 z" id="boundary" inkscape:connector-curvature="0" />
	<path style="fill:none;stroke:red;stroke-width:1px;stroke-linecap:butt;stroke-linejoin:miter;stroke-opacity:1" d="M 146.239,803.29 146.239,812.466 z" id="boundary" inkscape:connector-curvature="0" />
	<path style="fill:none;stroke:red;stroke-width:1px;stroke-linecap:butt;stroke-linejoin:miter;stroke-opacity:1" d="M 146.239,812.466 146.239,821.643 z" id="boundary" inkscape:connector-curvature="0" />
	<path style="fill:none;stroke:red;stroke-width:1px;stroke-linecap:butt;stroke-linejoin:miter;stroke-opacity:1" d="M 146.239,821.643 146.239,830.82 z" id="boundary" inkscape:connector-curvature="0" />
	<path style="fill:none;stroke:red;stroke-width:1px;stroke-linecap:butt;stroke-linejoin:miter;stroke-opacity:1" d="M 146.239,830.82 146.239,839.996 z" id="boundary" inkscape:connector-curvature="0" />
	<path style="fill:none;stroke:red;stroke-width:1px;stroke-linecap:butt;stroke-linejoin:miter;stroke-opacity:1" d="M 146.239,839.996 146.239,849.173 z" id="boundary" inkscape:connector-curvature="0" />
	<path style="fill:none;stroke:red;stroke-width:1px;stroke-linecap:butt;stroke-linejoin:miter;stroke-opacity:1" d="M 146.239,849.173 146.239,858.35 z" id="boundary" inkscape:connector-curvature="0" />
	<path style="fill:none;stroke:red;stroke-width:1px;stroke-linecap:butt;stroke-linejoin:miter;stroke-opacity:1" d="M 146.239,858.35 146.239,867.526 z" id="boundary" inkscape:connector-curvature="0" />
	<path style="fill:none;stroke:red;stroke-width:1px;stroke-linecap:butt;stroke-linejoin:miter;stroke-opacity:1" d="M 146.239,867.526 146.239,876.703 z" id="boundary" inkscape:connector-curvature="0" />
	<path style="fill:none;stroke:red;stroke-width:1px;stroke-linecap:butt;stroke-linejoin:miter;stroke-opacity:1" d="M 146.239,876.703 146.239,885.88 z" id="boundary" inkscape:connector-curvature="0" />
	<path style="fill:none;stroke:red;stroke-width:1px;stroke-linecap:butt;stroke-linejoin:miter;stroke-opacity:1" d="M 146.239,885.88 146.239,895.056 z" id="boundary" inkscape:connector-curvature="0" />
	<path style="fill:none;stroke:red;stroke-width:1px;stroke-linecap:butt;stroke-linejoin:miter;stroke-opacity:1" d="M 146.239,895.056 146.239,904.233 z" id="boundary" inkscape:connector-curvature="0" />
	<path style="fill:none;stroke:red;stroke-width:1px;stroke-linecap:butt;stroke-linejoin:miter;stroke-opacity:1" d="M 146.239,904.233 146.239,913.41 z" id="boundary" inkscape:connector-curvature="0" />
	<path style="fill:none;stroke:red;stroke-width:1px;stroke-linecap:butt;stroke-linejoin:miter;stroke-opacity:1" d="M 146.239,913.41 146.239,922.586 z" id="boundary" inkscape:connector-curvature="0" />
	<path style="fill:none;stroke:red;stroke-width:1px;stroke-linecap:butt;stroke-linejoin:miter;stroke-opacity:1" d="M 146.239,922.586 146.239,931.763 z" id="boundary" inkscape:connector-curvature="0" />
	<path style="fill:none;stroke:red;stroke-width:1px;stroke-linecap:butt;stroke-linejoin:miter;stroke-opacity:1" d="M 146.239,931.763 146.239,940.94 z" id="boundary" inkscape:connector-curvature="0" />
	<path style="fill:none;stroke:red;stroke-width:1px;stroke-linecap:butt;stroke-linejoin:miter;stroke-opacity:1" d="M 146.239,940.94 146.239,950.117 z" id="boundary" inkscape:connector-curvature="0" />
	<path style="fill:none;stroke:red;stroke-width:1px;stroke-linecap:butt;stroke-linejoin:miter;stroke-opacity:1" d="M 146.239,950.117 146.239,959.293 z" id="boundary" inkscape:connector-curvature="0" />
	<path style="fill:none;stroke:red;stroke-width:1px;stroke-linecap:butt;stroke-linejoin:miter;stroke-opacity:1" d="M 146.239,959.293 146.239,968.47 z" id="boundary" inkscape:connector-curvature="0" />
	<path style="fill:none;stroke:red;stroke-width:1px;stroke-linecap:butt;stroke-linejoin:miter;stroke-opacity:1" d="M 146.239,968.47 146.239,977.647 z" id="boundary" inkscape:connector-curvature="0" />
	<path style="fill:none;stroke:red;stroke-width:1px;stroke-linecap:butt;stroke-linejoin:miter;stroke-opacity:1" d="M 146.239,977.647 146.239,986.823 z" id="boundary" inkscape:connector-curvature="0" />
	<path style="fill:none;stroke:red;stroke-width:1px;stroke-linecap:butt;stroke-linejoin:miter;stroke-opacity:1" d="M 146.239,986.823 148.992,996 z" id="boundary" inkscape:connector-curvature="0" />
	<path style="fill:none;stroke:red;stroke-width:1px;stroke-linecap:butt;stroke-linejoin:miter;stroke-opacity:1" d="M 148.074,22.3534 157.251,22.3534 z" id="boundary" inkscape:connector-curvature="0" />
	<path style="fill:none;stroke:red;stroke-width:1px;stroke-linecap:butt;stroke-linejoin:miter;stroke-opacity:1" d="M 148.992,996 158.168,996 z" id="boundary" inkscape:connector-curvature="0" />
	<path style="fill:none;stroke:red;stroke-width:1px;stroke-linecap:butt;stroke-linejoin:miter;stroke-opacity:1" d="M 157.251,22.3534 166.427,22.3534 z" id="boundary" inkscape:connector-curvature="0" />
	<path style="fill:none;stroke:red;stroke-width:1px;stroke-linecap:butt;stroke-linejoin:miter;stroke-opacity:1" d="M 158.168,996 167.345,996 z" id="boundary" inkscape:connector-curvature="0" />
	<path style="fill:none;stroke:red;stroke-width:1px;stroke-linecap:butt;stroke-linejoin:miter;stroke-opacity:1" d="M 166.427,22.3534 175.604,22.3534 z" id="boundary" inkscape:connector-curvature="0" />
	<path style="fill:none;stroke:red;stroke-width:1px;stroke-linecap:butt;stroke-linejoin:miter;stroke-opacity:1" d="M 167.345,996 176.522,996 z" id="boundary" inkscape:connector-curvature="0" />
	<path style="fill:none;stroke:red;stroke-width:1px;stroke-linecap:butt;stroke-linejoin:miter;stroke-opacity:1" d="M 175.604,22.3534 184.781,22.3534 z" id="boundary" inkscape:connector-curvature="0" />
	<path style="fill:none;stroke:red;stroke-width:1px;stroke-linecap:butt;stroke-linejoin:miter;stroke-opacity:1" d="M 176.522,996 185.698,996 z" id="boundary" inkscape:connector-curvature="0" />
	<path style="fill:none;stroke:red;stroke-width:1px;stroke-linecap:butt;stroke-linejoin:miter;stroke-opacity:1" d="M 184.781,22.3534 193.957,22.3534 z" id="boundary" inkscape:connector-curvature="0" />
	<path style="fill:none;stroke:red;stroke-width:1px;stroke-linecap:butt;stroke-linejoin:miter;stroke-opacity:1" d="M 185.698,996 194.875,996 z" id="boundary" inkscape:connector-curvature="0" />
	<path style="fill:none;stroke:red;stroke-width:1px;stroke-linecap:butt;stroke-linejoin:miter;stroke-opacity:1" d="M 193.957,22.3534 203.134,22.3534 z" id="boundary" inkscape:connector-curvature="0" />
	<path style="fill:none;stroke:red;stroke-width:1px;stroke-linecap:butt;stroke-linejoin:miter;stroke-opacity:1" d="M 194.875,996 204.052,996 z" id="boundary" inkscape:connector-curvature="0" />
	<path style="fill:none;stroke:red;stroke-width:1px;stroke-linecap:butt;stroke-linejoin:miter;stroke-opacity:1" d="M 203.134,22.3534 212.311,22.3534 z" id="boundary" inkscape:connector-curvature="0" />
	<path style="fill:none;stroke:red;stroke-width:1px;stroke-linecap:butt;stroke-linejoin:miter;stroke-opacity:1" d="M 204.052,996 213.228,996 z" id="boundary" inkscape:connector-curvature="0" />
	<path style="fill:none;stroke:red;stroke-width:1px;stroke-linecap:butt;stroke-linejoin:miter;stroke-opacity:1" d="M 212.311,22.3534 221.488,22.3534 z" id="boundary" inkscape:connector-curvature="0" />
	<path style="fill:none;stroke:red;stroke-width:1px;stroke-linecap:butt;stroke-linejoin:miter;stroke-opacity:1" d="M 213.228,996 222.405,996 z" id="boundary" inkscape:connector-curvature="0" />
	<path style="fill:none;stroke:red;stroke-width:1px;stroke-linecap:butt;stroke-linejoin:miter;stroke-opacity:1" d="M 221.488,22.3534 230.664,22.3534 z" id="boundary" inkscape:connector-curvature="0" />
	<path style="fill:none;stroke:red;stroke-width:1px;stroke-linecap:butt;stroke-linejoin:miter;stroke-opacity:1" d="M 222.405,996 231.582,996 z" id="boundary" inkscape:connector-curvature="0" />
	<path style="fill:none;stroke:red;stroke-width:1px;stroke-linecap:butt;stroke-linejoin:miter;stroke-opacity:1" d="M 230.664,22.3534 239.841,22.3534 z" id="boundary" inkscape:connector-curvature="0" />
	<path style="fill:none;stroke:red;stroke-width:1px;stroke-linecap:butt;stroke-linejoin:miter;stroke-opacity:1" d="M 231.582,996 240.759,996 z" id="boundary" inkscape:connector-curvature="0" />
	<path style="fill:none;stroke:red;stroke-width:1px;stroke-linecap:butt;stroke-linejoin:miter;stroke-opacity:1" d="M 239.841,22.3534 249.018,22.3534 z" id="boundary" inkscape:connector-curvature="0" />
	<path style="fill:none;stroke:red;stroke-width:1px;stroke-linecap:butt;stroke-linejoin:miter;stroke-opacity:1" d="M 240.759,996 249.935,996 z" id="boundary" inkscape:connector-curvature="0" />
	<path style="fill:none;stroke:red;stroke-width:1px;stroke-linecap:butt;stroke-linejoin:miter;stroke-opacity:1" d="M 249.018,22.3534 257.277,26.9417 z" id="boundary" inkscape:connector-curvature="0" />
	<path style="fill:none;stroke:red;stroke-width:1px;stroke-linecap:butt;stroke-linejoin:miter;stroke-opacity:1" d="M 249.935,996 257.277,982.235 z" id="boundary" inkscape:connector-curvature="0" />
	<path style="fill:none;stroke:red;stroke-width:1px;stroke-linecap:butt;stroke-linejoin:miter;stroke-opacity:1" d="M 257.277,26.9417 266.453,26.9417 z" id="boundary" inkscape:connector-curvature="0" />
	<path style="fill:none;stroke:red;stroke-width:1px;stroke-linecap:butt;stroke-linejoin:miter;stroke-opacity:1" d="M 257.277,202.216 257.277,211.393 z" id="boundary" inkscape:connector-curvature="0" />
	<path style="fill:none;stroke:red;stroke-width:1px;stroke-linecap:butt;stroke-linejoin:miter;stroke-opacity:1" d="M 257.277,202.216 266.453,202.216 z" id="boundary" inkscape:connector-curvature="0" />
	<path style="fill:none;stroke:red;stroke-width:1px;stroke-linecap:butt;stroke-linejoin:miter;stroke-opacity:1" d="M 257.277,211.393 257.277,220.57 z" id="boundary" inkscape:connector-curvature="0" />
	<path style="fill:none;stroke:red;stroke-width:1px;stroke-linecap:butt;stroke-linejoin:miter;stroke-opacity:1" d="M 257.277,220.57 257.277,229.747 z" id="boundary" inkscape:connector-curvature="0" />
	<path style="fill:none;stroke:red;stroke-width:1px;stroke-linecap:butt;stroke-linejoin:miter;stroke-opacity:1" d="M 257.277,229.747 257.277,238.923 z" id="boundary" inkscape:connector-curvature="0" />
	<path style="fill:none;stroke:red;stroke-width:1px;stroke-linecap:butt;stroke-linejoin:miter;stroke-opacity:1" d="M 257.277,238.923 257.277,248.1 z" id="boundary" inkscape:connector-curvature="0" />
	<path style="fill:none;stroke:red;stroke-width:1px;stroke-linecap:butt;stroke-linejoin:miter;stroke-opacity:1" d="M 257.277,248.1 257.277,257.277 z" id="boundary" inkscape:connector-curvature="0" />
	<path style="fill:none;stroke:red;stroke-width:1px;stroke-linecap:butt;stroke-linejoin:miter;stroke-opacity:1" d="M 257.277,257.277 257.277,266.453 z" id="boundary" inkscape:connector-curvature="0" />
	<path style="fill:none;stroke:red;stroke-width:1px;stroke-linecap:butt;stroke-linejoin:miter;stroke-opacity:1" d="M 257.277,266.453 257.277,275.63 z" id="boundary" inkscape:connector-curvature="0" />
	<path style="fill:none;stroke:red;stroke-width:1px;stroke-linecap:butt;stroke-linejoin:miter;stroke-opacity:1" d="M 257.277,275.63 257.277,284.807 z" id="boundary" inkscape:connector-curvature="0" />
	<path style="fill:none;stroke:red;stroke-width:1px;stroke-linecap:butt;stroke-linejoin:miter;stroke-opacity:1" d="M 257.277,284.807 257.277,293.983 z" id="boundary" inkscape:connector-curvature="0" />
	<path style="fill:none;stroke:red;stroke-width:1px;stroke-linecap:butt;stroke-linejoin:miter;stroke-opacity:1" d="M 257.277,293.983 257.277,303.16 z" id="boundary" inkscape:connector-curvature="0" />
	<path style="fill:none;stroke:red;stroke-width:1px;stroke-linecap:butt;stroke-linejoin:miter;stroke-opacity:1" d="M 257.277,303.16 257.277,312.337 z" id="boundary" inkscape:connector-curvature="0" />
	<path style="fill:none;stroke:red;stroke-width:1px;stroke-linecap:butt;stroke-linejoin:miter;stroke-opacity:1" d="M 257.277,312.337 257.277,321.513 z" id="boundary" inkscape:connector-curvature="0" />
	<path style="fill:none;stroke:red;stroke-width:1px;stroke-linecap:butt;stroke-linejoin:miter;stroke-opacity:1" d="M 257.277,321.513 257.277,330.69 z" id="boundary" inkscape:connector-curvature="0" />
	<path style="fill:none;stroke:red;stroke-width:1px;stroke-linecap:butt;stroke-linejoin:miter;stroke-opacity:1" d="M 257.277,330.69 257.277,339.867 z" id="boundary" inkscape:connector-curvature="0" />
	<path style="fill:none;stroke:red;stroke-width:1px;stroke-linecap:butt;stroke-linejoin:miter;stroke-opacity:1" d="M 257.277,339.867 257.277,349.043 z" id="boundary" inkscape:connector-curvature="0" />
	<path style="fill:none;stroke:red;stroke-width:1px;stroke-linecap:butt;stroke-linejoin:miter;stroke-opacity:1" d="M 257.277,349.043 257.277,358.22 z" id="boundary" inkscape:connector-curvature="0" />
	<path style="fill:none;stroke:red;stroke-width:1px;stroke-linecap:butt;stroke-linejoin:miter;stroke-opacity:1" d="M 257.277,358.22 257.277,367.397 z" id="boundary" inkscape:connector-curvature="0" />
	<path style="fill:none;stroke:red;stroke-width:1px;stroke-linecap:butt;stroke-linejoin:miter;stroke-opacity:1" d="M 257.277,367.397 257.277,376.574 z" id="boundary" inkscape:connector-curvature="0" />
	<path style="fill:none;stroke:red;stroke-width:1px;stroke-linecap:butt;stroke-linejoin:miter;stroke-opacity:1" d="M 257.277,376.574 257.277,385.75 z" id="boundary" inkscape:connector-curvature="0" />
	<path style="fill:none;stroke:red;stroke-width:1px;stroke-linecap:butt;stroke-linejoin:miter;stroke-opacity:1" d="M 257.277,385.75 257.277,394.927 z" id="boundary" inkscape:connector-curvature="0" />
	<path style="fill:none;stroke:red;stroke-width:1px;stroke-linecap:butt;stroke-linejoin:miter;stroke-opacity:1" d="M 257.277,394.927 257.277,404.104 z" id="boundary" inkscape:connector-curvature="0" />
	<path style="fill:none;stroke:red;stroke-width:1px;stroke-linecap:butt;stroke-linejoin:miter;stroke-opacity:1" d="M 257.277,404.104 257.277,413.28 z" id="boundary" inkscape:connector-curvature="0" />
	<path style="fill:none;stroke:red;stroke-width:1px;stroke-linecap:butt;stroke-linejoin:miter;stroke-opacity:1" d="M 257.277,413.28 257.277,422.457 z" id="boundary" inkscape:connector-curvature="0" />
	<path style="fill:none;stroke:red;stroke-width:1px;stroke-linecap:butt;stroke-linejoin:miter;stroke-opacity:1" d="M 257.277,422.457 257.277,431.634 z" id="boundary" inkscape:connector-curvature="0" />
	<path style="fill:none;stroke:red;stroke-width:1px;stroke-linecap:butt;stroke-linejoin:miter;stroke-opacity:1" d="M 257.277,431.634 257.277,440.81 z" id="boundary" inkscape:connector-curvature="0" />
	<path style="fill:none;stroke:red;stroke-width:1px;stroke-linecap:butt;stroke-linejoin:miter;stroke-opacity:1" d="M 257.277,440.81 257.277,449.987 z" id="boundary" inkscape:connector-curvature="0" />
	<path style="fill:none;stroke:red;stroke-width:1px;stroke-linecap:butt;stroke-linejoin:miter;stroke-opacity:1" d="M 257.277,449.987 257.277,459.164 z" id="boundary" inkscape:connector-curvature="0" />
	<path style="fill:none;stroke:red;stroke-width:1px;stroke-linecap:butt;stroke-linejoin:miter;stroke-opacity:1" d="M 257.277,459.164 257.277,468.34 z" id="boundary" inkscape:connector-curvature="0" />
	<path style="fill:none;stroke:red;stroke-width:1px;stroke-linecap:butt;stroke-linejoin:miter;stroke-opacity:1" d="M 257.277,468.34 257.277,477.517 z" id="boundary" inkscape:connector-curvature="0" />
	<path style="fill:none;stroke:red;stroke-width:1px;stroke-linecap:butt;stroke-linejoin:miter;stroke-opacity:1" d="M 257.277,477.517 257.277,486.694 z" id="boundary" inkscape:connector-curvature="0" />
	<path style="fill:none;stroke:red;stroke-width:1px;stroke-linecap:butt;stroke-linejoin:miter;stroke-opacity:1" d="M 257.277,486.694 257.277,495.87 z" id="boundary" inkscape:connector-curvature="0" />
	<path style="fill:none;stroke:red;stroke-width:1px;stroke-linecap:butt;stroke-linejoin:miter;stroke-opacity:1" d="M 257.277,495.87 257.277,505.047 z" id="boundary" inkscape:connector-curvature="0" />
	<path style="fill:none;stroke:red;stroke-width:1px;stroke-linecap:butt;stroke-linejoin:miter;stroke-opacity:1" d="M 257.277,505.047 257.277,514.224 z" id="boundary" inkscape:connector-curvature="0" />
	<path style="fill:none;stroke:red;stroke-width:1px;stroke-linecap:butt;stroke-linejoin:miter;stroke-opacity:1" d="M 257.277,514.224 257.277,523.401 z" id="boundary" inkscape:connector-curvature="0" />
	<path style="fill:none;stroke:red;stroke-width:1px;stroke-linecap:butt;stroke-linejoin:miter;stroke-opacity:1" d="M 257.277,523.401 257.277,532.577 z" id="boundary" inkscape:connector-curvature="0" />
	<path style="fill:none;stroke:red;stroke-width:1px;stroke-linecap:butt;stroke-linejoin:miter;stroke-opacity:1" d="M 257.277,532.577 257.277,541.754 z" id="boundary" inkscape:connector-curvature="0" />
	<path style="fill:none;stroke:red;stroke-width:1px;stroke-linecap:butt;stroke-linejoin:miter;stroke-opacity:1" d="M 257.277,541.754 257.277,550.931 z" id="boundary" inkscape:connector-curvature="0" />
	<path style="fill:none;stroke:red;stroke-width:1px;stroke-linecap:butt;stroke-linejoin:miter;stroke-opacity:1" d="M 257.277,550.931 257.277,560.107 z" id="boundary" inkscape:connector-curvature="0" />
	<path style="fill:none;stroke:red;stroke-width:1px;stroke-linecap:butt;stroke-linejoin:miter;stroke-opacity:1" d="M 257.277,560.107 257.277,569.284 z" id="boundary" inkscape:connector-curvature="0" />
	<path style="fill:none;stroke:red;stroke-width:1px;stroke-linecap:butt;stroke-linejoin:miter;stroke-opacity:1" d="M 257.277,569.284 257.277,578.461 z" id="boundary" inkscape:connector-curvature="0" />
	<path style="fill:none;stroke:red;stroke-width:1px;stroke-linecap:butt;stroke-linejoin:miter;stroke-opacity:1" d="M 257.277,578.461 257.277,587.637 z" id="boundary" inkscape:connector-curvature="0" />
	<path style="fill:none;stroke:red;stroke-width:1px;stroke-linecap:butt;stroke-linejoin:miter;stroke-opacity:1" d="M 257.277,587.637 257.277,596.814 z" id="boundary" inkscape:connector-curvature="0" />
	<path style="fill:none;stroke:red;stroke-width:1px;stroke-linecap:butt;stroke-linejoin:miter;stroke-opacity:1" d="M 257.277,596.814 257.277,605.991 z" id="boundary" inkscape:connector-curvature="0" />
	<path style="fill:none;stroke:red;stroke-width:1px;stroke-linecap:butt;stroke-linejoin:miter;stroke-opacity:1" d="M 257.277,605.991 257.277,615.167 z" id="boundary" inkscape:connector-curvature="0" />
	<path style="fill:none;stroke:red;stroke-width:1px;stroke-linecap:butt;stroke-linejoin:miter;stroke-opacity:1" d="M 257.277,615.167 257.277,624.344 z" id="boundary" inkscape:connector-curvature="0" />
	<path style="fill:none;stroke:red;stroke-width:1px;stroke-linecap:butt;stroke-linejoin:miter;stroke-opacity:1" d="M 257.277,624.344 257.277,633.521 z" id="boundary" inkscape:connector-curvature="0" />
	<path style="fill:none;stroke:red;stroke-width:1px;stroke-linecap:butt;stroke-linejoin:miter;stroke-opacity:1" d="M 257.277,633.521 257.277,642.698 z" id="boundary" inkscape:connector-curvature="0" />
	<path style="fill:none;stroke:red;stroke-width:1px;stroke-linecap:butt;stroke-linejoin:miter;stroke-opacity:1" d="M 257.277,642.698 257.277,651.874 z" id="boundary" inkscape:connector-curvature="0" />
	<path style="fill:none;stroke:red;stroke-width:1px;stroke-linecap:butt;stroke-linejoin:miter;stroke-opacity:1" d="M 257.277,651.874 257.277,661.051 z" id="boundary" inkscape:connector-curvature="0" />
	<path style="fill:none;stroke:red;stroke-width:1px;stroke-linecap:butt;stroke-linejoin:miter;stroke-opacity:1" d="M 257.277,661.051 257.277,670.228 z" id="boundary" inkscape:connector-curvature="0" />
	<path style="fill:none;stroke:red;stroke-width:1px;stroke-linecap:butt;stroke-linejoin:miter;stroke-opacity:1" d="M 257.277,670.228 257.277,679.404 z" id="boundary" inkscape:connector-curvature="0" />
	<path style="fill:none;stroke:red;stroke-width:1px;stroke-linecap:butt;stroke-linejoin:miter;stroke-opacity:1" d="M 257.277,679.404 257.277,688.581 z" id="boundary" inkscape:connector-curvature="0" />
	<path style="fill:none;stroke:red;stroke-width:1px;stroke-linecap:butt;stroke-linejoin:miter;stroke-opacity:1" d="M 257.277,688.581 257.277,697.758 z" id="boundary" inkscape:connector-curvature="0" />
	<path style="fill:none;stroke:red;stroke-width:1px;stroke-linecap:butt;stroke-linejoin:miter;stroke-opacity:1" d="M 257.277,697.758 257.277,706.934 z" id="boundary" inkscape:connector-curvature="0" />
	<path style="fill:none;stroke:red;stroke-width:1px;stroke-linecap:butt;stroke-linejoin:miter;stroke-opacity:1" d="M 257.277,706.934 257.277,716.111 z" id="boundary" inkscape:connector-curvature="0" />
	<path style="fill:none;stroke:red;stroke-width:1px;stroke-linecap:butt;stroke-linejoin:miter;stroke-opacity:1" d="M 257.277,716.111 257.277,725.288 z" id="boundary" inkscape:connector-curvature="0" />
	<path style="fill:none;stroke:red;stroke-width:1px;stroke-linecap:butt;stroke-linejoin:miter;stroke-opacity:1" d="M 257.277,725.288 257.277,734.464 z" id="boundary" inkscape:connector-curvature="0" />
	<path style="fill:none;stroke:red;stroke-width:1px;stroke-linecap:butt;stroke-linejoin:miter;stroke-opacity:1" d="M 257.277,734.464 257.277,743.641 z" id="boundary" inkscape:connector-curvature="0" />
	<path style="fill:none;stroke:red;stroke-width:1px;stroke-linecap:butt;stroke-linejoin:miter;stroke-opacity:1" d="M 257.277,743.641 257.277,752.818 z" id="boundary" inkscape:connector-curvature="0" />
	<path style="fill:none;stroke:red;stroke-width:1px;stroke-linecap:butt;stroke-linejoin:miter;stroke-opacity:1" d="M 257.277,752.818 257.277,761.994 z" id="boundary" inkscape:connector-curvature="0" />
	<path style="fill:none;stroke:red;stroke-width:1px;stroke-linecap:butt;stroke-linejoin:miter;stroke-opacity:1" d="M 257.277,761.994 257.277,771.171 z" id="boundary" inkscape:connector-curvature="0" />
	<path style="fill:none;stroke:red;stroke-width:1px;stroke-linecap:butt;stroke-linejoin:miter;stroke-opacity:1" d="M 257.277,771.171 257.277,780.348 z" id="boundary" inkscape:connector-curvature="0" />
	<path style="fill:none;stroke:red;stroke-width:1px;stroke-linecap:butt;stroke-linejoin:miter;stroke-opacity:1" d="M 257.277,780.348 257.277,789.525 z" id="boundary" inkscape:connector-curvature="0" />
	<path style="fill:none;stroke:red;stroke-width:1px;stroke-linecap:butt;stroke-linejoin:miter;stroke-opacity:1" d="M 257.277,789.525 257.277,798.701 z" id="boundary" inkscape:connector-curvature="0" />
	<path style="fill:none;stroke:red;stroke-width:1px;stroke-linecap:butt;stroke-linejoin:miter;stroke-opacity:1" d="M 257.277,798.701 257.277,807.878 z" id="boundary" inkscape:connector-curvature="0" />
	<path style="fill:none;stroke:red;stroke-width:1px;stroke-linecap:butt;stroke-linejoin:miter;stroke-opacity:1" d="M 257.277,807.878 257.277,817.055 z" id="boundary" inkscape:connector-curvature="0" />
	<path style="fill:none;stroke:red;stroke-width:1px;stroke-linecap:butt;stroke-linejoin:miter;stroke-opacity:1" d="M 257.277,817.055 257.277,826.231 z" id="boundary" inkscape:connector-curvature="0" />
	<path style="fill:none;stroke:red;stroke-width:1px;stroke-linecap:butt;stroke-linejoin:miter;stroke-opacity:1" d="M 257.277,826.231 257.277,835.408 z" id="boundary" inkscape:connector-curvature="0" />
	<path style="fill:none;stroke:red;stroke-width:1px;stroke-linecap:butt;stroke-linejoin:miter;stroke-opacity:1" d="M 257.277,835.408 257.277,844.585 z" id="boundary" inkscape:connector-curvature="0" />
	<path style="fill:none;stroke:red;stroke-width:1px;stroke-linecap:butt;stroke-linejoin:miter;stroke-opacity:1" d="M 257.277,844.585 257.277,853.761 z" id="boundary" inkscape:connector-curvature="0" />
	<path style="fill:none;stroke:red;stroke-width:1px;stroke-linecap:butt;stroke-linejoin:miter;stroke-opacity:1" d="M 257.277,853.761 257.277,862.938 z" id="boundary" inkscape:connector-curvature="0" />
	<path style="fill:none;stroke:red;stroke-width:1px;stroke-linecap:butt;stroke-linejoin:miter;stroke-opacity:1" d="M 257.277,862.938 257.277,872.115 z" id="boundary" inkscape:connector-curvature="0" />
	<path style="fill:none;stroke:red;stroke-width:1px;stroke-linecap:butt;stroke-linejoin:miter;stroke-opacity:1" d="M 257.277,872.115 257.277,881.291 z" id="boundary" inkscape:connector-curvature="0" />
	<path style="fill:none;stroke:red;stroke-width:1px;stroke-linecap:butt;stroke-linejoin:miter;stroke-opacity:1" d="M 257.277,881.291 257.277,890.468 z" id="boundary" inkscape:connector-curvature="0" />
	<path style="fill:none;stroke:red;stroke-width:1px;stroke-linecap:butt;stroke-linejoin:miter;stroke-opacity:1" d="M 257.277,890.468 257.277,899.645 z" id="boundary" inkscape:connector-curvature="0" />
	<path style="fill:none;stroke:red;stroke-width:1px;stroke-linecap:butt;stroke-linejoin:miter;stroke-opacity:1" d="M 257.277,899.645 257.277,908.821 z" id="boundary" inkscape:connector-curvature="0" />
	<path style="fill:none;stroke:red;stroke-width:1px;stroke-linecap:butt;stroke-linejoin:miter;stroke-opacity:1" d="M 257.277,908.821 257.277,917.998 z" id="boundary" inkscape:connector-curvature="0" />
	<path style="fill:none;stroke:red;stroke-width:1px;stroke-linecap:butt;stroke-linejoin:miter;stroke-opacity:1" d="M 257.277,917.998 257.277,927.175 z" id="boundary" inkscape:connector-curvature="0" />
	<path style="fill:none;stroke:red;stroke-width:1px;stroke-linecap:butt;stroke-linejoin:miter;stroke-opacity:1" d="M 257.277,927.175 257.277,936.352 z" id="boundary" inkscape:connector-curvature="0" />
	<path style="fill:none;stroke:red;stroke-width:1px;stroke-linecap:butt;stroke-linejoin:miter;stroke-opacity:1" d="M 257.277,936.352 257.277,945.528 z" id="boundary" inkscape:connector-curvature="0" />
	<path style="fill:none;stroke:red;stroke-width:1px;stroke-linecap:butt;stroke-linejoin:miter;stroke-opacity:1" d="M 257.277,945.528 257.277,954.705 z" id="boundary" inkscape:connector-curvature="0" />
	<path style="fill:none;stroke:red;stroke-width:1px;stroke-linecap:butt;stroke-linejoin:miter;stroke-opacity:1" d="M 257.277,954.705 257.277,963.882 z" id="boundary" inkscape:connector-curvature="0" />
	<path style="fill:none;stroke:red;stroke-width:1px;stroke-linecap:butt;stroke-linejoin:miter;stroke-opacity:1" d="M 257.277,963.882 257.277,973.058 z" id="boundary" inkscape:connector-curvature="0" />
	<path style="fill:none;stroke:red;stroke-width:1px;stroke-linecap:butt;stroke-linejoin:miter;stroke-opacity:1" d="M 257.277,973.058 257.277,982.235 z" id="boundary" inkscape:connector-curvature="0" />
	<path style="fill:none;stroke:red;stroke-width:1px;stroke-linecap:butt;stroke-linejoin:miter;stroke-opacity:1" d="M 266.453,26.9417 275.63,29.6947 z" id="boundary" inkscape:connector-curvature="0" />
	<path style="fill:none;stroke:red;stroke-width:1px;stroke-linecap:butt;stroke-linejoin:miter;stroke-opacity:1" d="M 266.453,202.216 275.63,202.216 z" id="boundary" inkscape:connector-curvature="0" />
	<path style="fill:none;stroke:red;stroke-width:1px;stroke-linecap:butt;stroke-linejoin:miter;stroke-opacity:1" d="M 275.63,29.6947 283.889,34.2831 z" id="boundary" inkscape:connector-curvature="0" />
	<path style="fill:none;stroke:red;stroke-width:1px;stroke-linecap:butt;stroke-linejoin:miter;stroke-opacity:1" d="M 275.63,202.216 284.807,202.216 z" id="boundary" inkscape:connector-curvature="0" />
	<path style="fill:none;stroke:red;stroke-width:1px;stroke-linecap:butt;stroke-linejoin:miter;stroke-opacity:1" d="M 283.889,34.2831 293.066,37.9537 z" id="boundary" inkscape:connector-curvature="0" />
	<path style="fill:none;stroke:red;stroke-width:1px;stroke-linecap:butt;stroke-linejoin:miter;stroke-opacity:1" d="M 284.807,202.216 293.983,202.216 z" id="boundary" inkscape:connector-curvature="0" />
	<path style="fill:none;stroke:red;stroke-width:1px;stroke-linecap:butt;stroke-linejoin:miter;stroke-opacity:1" d="M 293.066,37.9537 302.242,40.7068 z" id="boundary" inkscape:connector-curvature="0" />
	<path style="fill:none;stroke:red;stroke-width:1px;stroke-linecap:butt;stroke-linejoin:miter;stroke-opacity:1" d="M 293.983,202.216 303.16,204.052 z" id="boundary" inkscape:connector-curvature="0" />
	<path style="fill:none;stroke:red;stroke-width:1px;stroke-linecap:butt;stroke-linejoin:miter;stroke-opacity:1" d="M 302.242,40.7068 311.419,42.5421 z" id="boundary" inkscape:connector-curvature="0" />
	<path style="fill:none;stroke:red;stroke-width:1px;stroke-linecap:butt;stroke-linejoin:miter;stroke-opacity:1" d="M 303.16,204.052 312.337,206.805 z" id="boundary" inkscape:connector-curvature="0" />
	<path style="fill:none;stroke:red;stroke-width:1px;stroke-linecap:butt;stroke-linejoin:miter;stroke-opacity:1" d="M 311.419,42.5421 316.925,49.8834 z" id="boundary" inkscape:connector-curvature="0" />
	<path style="fill:none;stroke:red;stroke-width:1px;stroke-linecap:butt;stroke-linejoin:miter;stroke-opacity:1" d="M 312.337,206.805 321.513,206.805 z" id="boundary" inkscape:connector-curvature="0" />
	<path style="fill:none;stroke:red;stroke-width:1px;stroke-linecap:butt;stroke-linejoin:miter;stroke-opacity:1" d="M 316.925,49.8834 326.102,52.6364 z" id="boundary" inkscape:connector-curvature="0" />
	<path style="fill:none;stroke:red;stroke-width:1px;stroke-linecap:butt;stroke-linejoin:miter;stroke-opacity:1" d="M 321.513,206.805 330.69,206.805 z" id="boundary" inkscape:connector-curvature="0" />
	<path style="fill:none;stroke:red;stroke-width:1px;stroke-linecap:butt;stroke-linejoin:miter;stroke-opacity:1" d="M 326.102,52.6364 333.443,59.0601 z" id="boundary" inkscape:connector-curvature="0" />
	<path style="fill:none;stroke:red;stroke-width:1px;stroke-linecap:butt;stroke-linejoin:miter;stroke-opacity:1" d="M 330.69,206.805 339.867,208.64 z" id="boundary" inkscape:connector-curvature="0" />
	<path style="fill:none;stroke:red;stroke-width:1px;stroke-linecap:butt;stroke-linejoin:miter;stroke-opacity:1" d="M 333.443,59.0601 341.702,63.6485 z" id="boundary" inkscape:connector-curvature="0" />
	<path style="fill:none;stroke:red;stroke-width:1px;stroke-linecap:butt;stroke-linejoin:miter;stroke-opacity:1" d="M 339.867,208.64 349.043,211.393 z" id="boundary" inkscape:connector-curvature="0" />
	<path style="fill:none;stroke:red;stroke-width:1px;stroke-linecap:butt;stroke-linejoin:miter;stroke-opacity:1" d="M 341.702,63.6485 349.961,68.2368 z" id="boundary" inkscape:connector-curvature="0" />
	<path style="fill:none;stroke:red;stroke-width:1px;stroke-linecap:butt;stroke-linejoin:miter;stroke-opacity:1" d="M 349.043,211.393 358.22,211.393 z" id="boundary" inkscape:connector-curvature="0" />
	<path style="fill:none;stroke:red;stroke-width:1px;stroke-linecap:butt;stroke-linejoin:miter;stroke-opacity:1" d="M 349.961,68.2368 357.302,74.6605 z" id="boundary" inkscape:connector-curvature="0" />
	<path style="fill:none;stroke:red;stroke-width:1px;stroke-linecap:butt;stroke-linejoin:miter;stroke-opacity:1" d="M 357.302,74.6605 365.562,79.2488 z" id="boundary" inkscape:connector-curvature="0" />
	<path style="fill:none;stroke:red;stroke-width:1px;stroke-linecap:butt;stroke-linejoin:miter;stroke-opacity:1" d="M 358.22,211.393 367.397,213.228 z" id="boundary" inkscape:connector-curvature="0" />
	<path style="fill:none;stroke:red;stroke-width:1px;stroke-linecap:butt;stroke-linejoin:miter;stroke-opacity:1" d="M 365.562,79.2488 374.738,82.9195 z" id="boundary" inkscape:connector-curvature="0" />
	<path style="fill:none;stroke:red;stroke-width:1px;stroke-linecap:butt;stroke-linejoin:miter;stroke-opacity:1" d="M 367.397,213.228 376.574,215.981 z" id="boundary" inkscape:connector-curvature="0" />
	<path style="fill:none;stroke:red;stroke-width:1px;stroke-linecap:butt;stroke-linejoin:miter;stroke-opacity:1" d="M 374.738,82.9195 381.162,90.2609 z" id="boundary" inkscape:connector-curvature="0" />
	<path style="fill:none;stroke:red;stroke-width:1px;stroke-linecap:butt;stroke-linejoin:miter;stroke-opacity:1" d="M 376.574,215.981 385.75,217.817 z" id="boundary" inkscape:connector-curvature="0" />
	<path style="fill:none;stroke:red;stroke-width:1px;stroke-linecap:butt;stroke-linejoin:miter;stroke-opacity:1" d="M 381.162,90.2609 390.339,93.9315 z" id="boundary" inkscape:connector-curvature="0" />
	<path style="fill:none;stroke:red;stroke-width:1px;stroke-linecap:butt;stroke-linejoin:miter;stroke-opacity:1" d="M 385.75,217.817 394.927,220.57 z" id="boundary" inkscape:connector-curvature="0" />
	<path style="fill:none;stroke:red;stroke-width:1px;stroke-linecap:butt;stroke-linejoin:miter;stroke-opacity:1" d="M 390.339,93.9315 396.762,101.273 z" id="boundary" inkscape:connector-curvature="0" />
	<path style="fill:none;stroke:red;stroke-width:1px;stroke-linecap:butt;stroke-linejoin:miter;stroke-opacity:1" d="M 394.927,220.57 404.104,220.57 z" id="boundary" inkscape:connector-curvature="0" />
	<path style="fill:none;stroke:red;stroke-width:1px;stroke-linecap:butt;stroke-linejoin:miter;stroke-opacity:1" d="M 396.762,101.273 404.104,107.697 z" id="boundary" inkscape:connector-curvature="0" />
	<path style="fill:none;stroke:red;stroke-width:1px;stroke-linecap:butt;stroke-linejoin:miter;stroke-opacity:1" d="M 404.104,107.697 410.527,115.038 z" id="boundary" inkscape:connector-curvature="0" />
	<path style="fill:none;stroke:red;stroke-width:1px;stroke-linecap:butt;stroke-linejoin:miter;stroke-opacity:1" d="M 404.104,220.57 413.28,222.405 z" id="boundary" inkscape:connector-curvature="0" />
	<path style="fill:none;stroke:red;stroke-width:1px;stroke-linecap:butt;stroke-linejoin:miter;stroke-opacity:1" d="M 410.527,115.038 415.116,123.297 z" id="boundary" inkscape:connector-curvature="0" />
	<path style="fill:none;stroke:red;stroke-width:1px;stroke-linecap:butt;stroke-linejoin:miter;stroke-opacity:1" d="M 413.28,222.405 422.457,225.158 z" id="boundary" inkscape:connector-curvature="0" />
	<path style="fill:none;stroke:red;stroke-width:1px;stroke-linecap:butt;stroke-linejoin:miter;stroke-opacity:1" d="M 415.116,123.297 421.539,130.638 z" id="boundary" inkscape:connector-curvature="0" />
	<path style="fill:none;stroke:red;stroke-width:1px;stroke-linecap:butt;stroke-linejoin:miter;stroke-opacity:1" d="M 421.539,130.638 427.045,137.98 z" id="boundary" inkscape:connector-curvature="0" />
	<path style="fill:none;stroke:red;stroke-width:1px;stroke-linecap:butt;stroke-linejoin:miter;stroke-opacity:1" d="M 422.457,225.158 430.716,229.747 z" id="boundary" inkscape:connector-curvature="0" />
	<path style="fill:none;stroke:red;stroke-width:1px;stroke-linecap:butt;stroke-linejoin:miter;stroke-opacity:1" d="M 427.045,137.98 428.881,147.156 z" id="boundary" inkscape:connector-curvature="0" />
	<path style="fill:none;stroke:red;stroke-width:1px;stroke-linecap:butt;stroke-linejoin:miter;stroke-opacity:1" d="M 428.881,147.156 433.469,155.415 z" id="boundary" inkscape:connector-curvature="0" />
	<path style="fill:none;stroke:red;stroke-width:1px;stroke-linecap:butt;stroke-linejoin:miter;stroke-opacity:1" d="M 430.716,229.747 439.893,229.747 z" id="boundary" inkscape:connector-curvature="0" />
	<path style="fill:none;stroke:red;stroke-width:1px;stroke-linecap:butt;stroke-linejoin:miter;stroke-opacity:1" d="M 433.469,155.415 439.893,162.757 z" id="boundary" inkscape:connector-curvature="0" />
	<path style="fill:none;stroke:red;stroke-width:1px;stroke-linecap:butt;stroke-linejoin:miter;stroke-opacity:1" d="M 439.893,162.757 444.481,171.016 z" id="boundary" inkscape:connector-curvature="0" />
	<path style="fill:none;stroke:red;stroke-width:1px;stroke-linecap:butt;stroke-linejoin:miter;stroke-opacity:1" d="M 439.893,229.747 448.152,234.335 z" id="boundary" inkscape:connector-curvature="0" />
	<path style="fill:none;stroke:red;stroke-width:1px;stroke-linecap:butt;stroke-linejoin:miter;stroke-opacity:1" d="M 444.481,171.016 449.987,178.357 z" id="boundary" inkscape:connector-curvature="0" />
	<path style="fill:none;stroke:red;stroke-width:1px;stroke-linecap:butt;stroke-linejoin:miter;stroke-opacity:1" d="M 448.152,234.335 456.411,238.923 z" id="boundary" inkscape:connector-curvature="0" />
	<path style="fill:none;stroke:red;stroke-width:1px;stroke-linecap:butt;stroke-linejoin:miter;stroke-opacity:1" d="M 449.987,178.357 449.987,187.534 z" id="boundary" inkscape:connector-curvature="0" />
	<path style="fill:none;stroke:red;stroke-width:1px;stroke-linecap:butt;stroke-linejoin:miter;stroke-opacity:1" d="M 449.987,187.534 454.575,195.793 z" id="boundary" inkscape:connector-curvature="0" />
	<path style="fill:none;stroke:red;stroke-width:1px;stroke-linecap:butt;stroke-linejoin:miter;stroke-opacity:1" d="M 454.575,195.793 459.164,204.052 z" id="boundary" inkscape:connector-curvature="0" />
	<path style="fill:none;stroke:red;stroke-width:1px;stroke-linecap:butt;stroke-linejoin:miter;stroke-opacity:1" d="M 456.411,238.923 465.587,242.594 z" id="boundary" inkscape:connector-curvature="0" />
	<path style="fill:none;stroke:red;stroke-width:1px;stroke-linecap:butt;stroke-linejoin:miter;stroke-opacity:1" d="M 459.164,204.052 462.834,213.228 z" id="boundary" inkscape:connector-curvature="0" />
	<path style="fill:none;stroke:red;stroke-width:1px;stroke-linecap:butt;stroke-linejoin:miter;stroke-opacity:1" d="M 462.834,213.228 463.752,222.405 z" id="boundary" inkscape:connector-curvature="0" />
	<path style="fill:none;stroke:red;stroke-width:1px;stroke-linecap:butt;stroke-linejoin:miter;stroke-opacity:1" d="M 463.752,222.405 468.34,230.664 z" id="boundary" inkscape:connector-curvature="0" />
	<path style="fill:none;stroke:red;stroke-width:1px;stroke-linecap:butt;stroke-linejoin:miter;stroke-opacity:1" d="M 465.587,242.594 468.34,230.664 z" id="boundary" inkscape:connector-curvature="0" />
	<circle cx="4" cy="6.75301" r="4" fill="#0" id="circle0"/>
	<circle cx="4" cy="15.9297" r="4" fill="#0" id="circle1"/>
	<circle cx="4" cy="25.1064" r="4" fill="#0" id="circle2"/>
	<circle cx="4" cy="34.2831" r="4" fill="#0" id="circle3"/>
	<circle cx="4" cy="43.4598" r="4" fill="#0" id="circle4"/>
	<circle cx="4" cy="52.6364" r="4" fill="#0" id="circle5"/>
	<circle cx="4" cy="61.8131" r="4" fill="#0" id="circle6"/>
	<circle cx="4" cy="70.9898" r="4" fill="#0" id="circle7"/>
	<circle cx="4" cy="80.1665" r="4" fill="#0" id="circle8"/>
	<circle cx="4" cy="89.3432" r="4" fill="#0" id="circle9"/>
	<circle cx="4" cy="98.5199" r="4" fill="#0" id="circle10"/>
	<circle cx="4" cy="107.697" r="4" fill="#0" id="circle11"/>
	<circle cx="4" cy="116.873" r="4" fill="#0" id="circle12"/>
	<circle cx="4" cy="126.05" r="4" fill="#0" id="circle13"/>
	<circle cx="4" cy="135.227" r="4" fill="#0" id="circle14"/>
	<circle cx="4" cy="144.403" r="4" fill="#0" id="circle15"/>
	<circle cx="4" cy="153.58" r="4" fill="#0" id="circle16"/>
	<circle cx="4" cy="162.757" r="4" fill="#0" id="circle17"/>
	<circle cx="4" cy="171.933" r="4" fill="#0" id="circle18"/>
	<circle cx="4" cy="181.11" r="4" fill="#0" id="circle19"/>
	<circle cx="4" cy="190.287" r="4" fill="#0" id="circle20"/>
	<circle cx="4" cy="199.463" r="4" fill="#0" id="circle21"/>
	<circle cx="4" cy="208.64" r="4" fill="#0" id="circle22"/>
	<circle cx="4" cy="217.817" r="4" fill="#0" id="circle23"/>
	<circle cx="9.50601" cy="225.158" r="4" fill="#0" id="circle24"/>
	<circle cx="13.1767" cy="4" r="4" fill="#0" id="circle25"/>
	<circle cx="18.6827" cy="225.158" r="4" fill="#0" id="circle26"/>
	<circle cx="22.3534" cy="4" r="4" fill="#0" id="circle27"/>
	<circle cx="27.8594" cy="225.158" r="4" fill="#0" id="circle28"/>
	<circle cx="31.5301" cy="4" r="4" fill="#0" id="circle29"/>
	<circle cx="37.0361" cy="225.158" r="4" fill="#0" id="circle30"/>
	<circle cx="40.7068" cy="4" r="4" fill="#0" id="circle31"/>
	<circle cx="46.2128" cy="225.158" r="4" fill="#0" id="circle32"/>
	<circle cx="49.8834" cy="4" r="4" fill="#0" id="circle33"/>
	<circle cx="55.3895" cy="225.158" r="4" fill="#0" id="circle34"/>
	<circle cx="59.0601" cy="4" r="4" fill="#0" id="circle35"/>
	<circle cx="64.5661" cy="225.158" r="4" fill="#0" id="circle36"/>
	<circle cx="68.2368" cy="4" r="4" fill="#0" id="circle37"/>
	<circle cx="73.7428" cy="225.158" r="4" fill="#0" id="circle38"/>
	<circle cx="77.4135" cy="4" r="4" fill="#0" id="circle39"/>
	<circle cx="82.9195" cy="225.158" r="4" fill="#0" id="circle40"/>
	<circle cx="86.5902" cy="4" r="4" fill="#0" id="circle41"/>
	<circle cx="92.0962" cy="225.158" r="4" fill="#0" id="circle42"/>
	<circle cx="95.7669" cy="4" r="4" fill="#0" id="circle43"/>
	<circle cx="101.273" cy="225.158" r="4" fill="#0" id="circle44"/>
	<circle cx="104.944" cy="4" r="4" fill="#0" id="circle45"/>
	<circle cx="110.45" cy="225.158" r="4" fill="#0" id="circle46"/>
	<circle cx="114.12" cy="4" r="4" fill="#0" id="circle47"/>
	<circle cx="119.626" cy="225.158" r="4" fill="#0" id="circle48"/>
	<circle cx="123.297" cy="5.83534" r="4" fill="#0" id="circle49"/>
	<circle cx="124.215" cy="15.012" r="4" fill="#0" id="circle50"/>
	<circle cx="124.215" cy="206.805" r="4" fill="#0" id="circle51"/>
	<circle cx="124.215" cy="215.981" r="4" fill="#0" id="circle52"/>
	<circle cx="129.721" cy="22.3534" r="4" fill="#0" id="circle53"/>
	<circle cx="133.391" cy="206.805" r="4" fill="#0" id="circle54"/>
	<circle cx="138.897" cy="22.3534" r="4" fill="#0" id="circle55"/>
	<circle cx="142.568" cy="206.805" r="4" fill="#0" id="circle56"/>
	<circle cx="146.239" cy="215.981" r="4" fill="#0" id="circle57"/>
	<circle cx="146.239" cy="225.158" r="4" fill="#0" id="circle58"/>
	<circle cx="146.239" cy="234.335" r="4" fill="#0" id="circle59"/>
	<circle cx="146.239" cy="243.512" r="4" fill="#0" id="circle60"/>
	<circle cx="146.239" cy="252.688" r="4" fill="#0" id="circle61"/>
	<circle cx="146.239" cy="261.865" r="4" fill="#0" id="circle62"/>
	<circle cx="146.239" cy="271.042" r="4" fill="#0" id="circle63"/>
	<circle cx="146.239" cy="280.218" r="4" fill="#0" id="circle64"/>
	<circle cx="146.239" cy="289.395" r="4" fill="#0" id="circle65"/>
	<circle cx="146.239" cy="298.572" r="4" fill="#0" id="circle66"/>
	<circle cx="146.239" cy="307.748" r="4" fill="#0" id="circle67"/>
	<circle cx="146.239" cy="316.925" r="4" fill="#0" id="circle68"/>
	<circle cx="146.239" cy="326.102" r="4" fill="#0" id="circle69"/>
	<circle cx="146.239" cy="335.278" r="4" fill="#0" id="circle70"/>
	<circle cx="146.239" cy="344.455" r="4" fill="#0" id="circle71"/>
	<circle cx="146.239" cy="353.632" r="4" fill="#0" id="circle72"/>
	<circle cx="146.239" cy="362.809" r="4" fill="#0" id="circle73"/>
	<circle cx="146.239" cy="371.985" r="4" fill="#0" id="circle74"/>
	<circle cx="146.239" cy="381.162" r="4" fill="#0" id="circle75"/>
	<circle cx="146.239" cy="390.339" r="4" fill="#0" id="circle76"/>
	<circle cx="146.239" cy="399.515" r="4" fill="#0" id="circle77"/>
	<circle cx="146.239" cy="408.692" r="4" fill="#0" id="circle78"/>
	<circle cx="146.239" cy="417.869" r="4" fill="#0" id="circle79"/>
	<circle cx="146.239" cy="427.045" r="4" fill="#0" id="circle80"/>
	<circle cx="146.239" cy="436.222" r="4" fill="#0" id="circle81"/>
	<circle cx="146.239" cy="445.399" r="4" fill="#0" id="circle82"/>
	<circle cx="146.239" cy="454.575" r="4" fill="#0" id="circle83"/>
	<circle cx="146.239" cy="463.752" r="4" fill="#0" id="circle84"/>
	<circle cx="146.239" cy="472.929" r="4" fill="#0" id="circle85"/>
	<circle cx="146.239" cy="482.105" r="4" fill="#0" id="circle86"/>
	<circle cx="146.239" cy="491.282" r="4" fill="#0" id="circle87"/>
	<circle cx="146.239" cy="500.459" r="4" fill="#0" id="circle88"/>
	<circle cx="146.239" cy="509.636" r="4" fill="#0" id="circle89"/>
	<circle cx="146.239" cy="518.812" r="4" fill="#0" id="circle90"/>
	<circle cx="146.239" cy="527.989" r="4" fill="#0" id="circle91"/>
	<circle cx="146.239" cy="537.166" r="4" fill="#0" id="circle92"/>
	<circle cx="146.239" cy="546.342" r="4" fill="#0" id="circle93"/>
	<circle cx="146.239" cy="555.519" r="4" fill="#0" id="circle94"/>
	<circle cx="146.239" cy="564.696" r="4" fill="#0" id="circle95"/>
	<circle cx="146.239" cy="573.872" r="4" fill="#0" id="circle96"/>
	<circle cx="146.239" cy="583.049" r="4" fill="#0" id="circle97"/>
	<circle cx="146.239" cy="592.226" r="4" fill="#0" id="circle98"/>
	<circle cx="146.239" cy="601.402" r="4" fill="#0" id="circle99"/>
	<circle cx="146.239" cy="610.579" r="4" fill="#0" id="circle100"/>
	<circle cx="146.239" cy="619.756" r="4" fill="#0" id="circle101"/>
	<circle cx="146.239" cy="628.932" r="4" fill="#0" id="circle102"/>
	<circle cx="146.239" cy="638.109" r="4" fill="#0" id="circle103"/>
	<circle cx="146.239" cy="647.286" r="4" fill="#0" id="circle104"/>
	<circle cx="146.239" cy="656.463" r="4" fill="#0" id="circle105"/>
	<circle cx="146.239" cy="665.639" r="4" fill="#0" id="circle106"/>
	<circle cx="146.239" cy="674.816" r="4" fill="#0" id="circle107"/>
	<circle cx="146.239" cy="683.993" r="4" fill="#0" id="circle108"/>
	<circle cx="146.239" cy="693.169" r="4" fill="#0" id="circle109"/>
	<circle cx="146.239" cy="702.346" r="4" fill="#0" id="circle110"/>
	<circle cx="146.239" cy="711.523" r="4" fill="#0" id="circle111"/>
	<circle cx="146.239" cy="720.699" r="4" fill="#0" id="circle112"/>
	<circle cx="146.239" cy="729.876" r="4" fill="#0" id="circle113"/>
	<circle cx="146.239" cy="739.053" r="4" fill="#0" id="circle114"/>
	<circle cx="146.239" cy="748.229" r="4" fill="#0" id="circle115"/>
	<circle cx="146.239" cy="757.406" r="4" fill="#0" id="circle116"/>
	<circle cx="146.239" cy="766.583" r="4" fill="#0" id="circle117"/>
	<circle cx="146.239" cy="775.759" r="4" fill="#0" id="circle118"/>
	<circle cx="146.239" cy="784.936" r="4" fill="#0" id="circle119"/>
	<circle cx="146.239" cy="794.113" r="4" fill="#0" id="circle120"/>
	<circle cx="146.239" cy="803.29" r="4" fill="#0" id="circle121"/>
	<circle cx="146.239" cy="812.466" r="4" fill="#0" id="circle122"/>
	<circle cx="146.239" cy="821.643" r="4" fill="#0" id="circle123"/>
	<circle cx="146.239" cy="830.82" r="4" fill="#0" id="circle124"/>
	<circle cx="146.239" cy="839.996" r="4" fill="#0" id="circle125"/>
	<circle cx="146.239" cy="849.173" r="4" fill="#0" id="circle126"/>
	<circle cx="146.239" cy="858.35" r="4" fill="#0" id="circle127"/>
	<circle cx="146.239" cy="867.526" r="4" fill="#0" id="circle128"/>
	<circle cx="146.239" cy="876.703" r="4" fill="#0" id="circle129"/>
	<circle cx="146.239" cy="885.88" r="4" fill="#0" id="circle130"/>
	<circle cx="146.239" cy="895.056" r="4" fill="#0" id="circle131"/>
	<circle cx="146.239" cy="904.233" r="4" fill="#0" id="circle132"/>
	<circle cx="146.239" cy="913.41" r="4" fill="#0" id="circle133"/>
	<circle cx="146.239" cy="922.586" r="4" fill="#0" id="circle134"/>
	<circle cx="146.239" cy="931.763" r="4" fill="#0" id="circle135"/>
	<circle cx="146.239" cy="940.94" r="4" fill="#0" id="circle136"/>
	<circle cx="146.239" cy="950.117" r="4" fill="#0" id="circle137"/>
	<circle cx="146.239" cy="959.293" r="4" fill="#0" id="circle138"/>
	<circle cx="146.239" cy="968.47" r="4" fill="#0" id="circle139"/>
	<circle cx="146.239" cy="977.647" r="4" fill="#0" id="circle140"/>
	<circle cx="146.239" cy="986.823" r="4" fill="#0" id="circle141"/>
	<circle cx="148.074" cy="22.3534" r="4" fill="#0" id="circle142"/>
	<circle cx="148.992" cy="996" r="4" fill="#0" id="circle143"/>
	<circle cx="157.251" cy="22.3534" r="4" fill="#0" id="circle144"/>
	<circle cx="158.168" cy="996" r="4" fill="#0" id="circle145"/>
	<circle cx="166.427" cy="22.3534" r="4" fill="#0" id="circle146"/>
	<circle cx="167.345" cy="996" r="4" fill="#0" id="circle147"/>
	<circle cx="175.604" cy="22.3534" r="4" fill="#0" id="circle148"/>
	<circle cx="176.522" cy="996" r="4" fill="#0" id="circle149"/>
	<circle cx="184.781" cy="22.3534" r="4" fill="#0" id="circle150"/>
	<circle cx="185.698" cy="996" r="4" fill="#0" id="circle151"/>
	<circle cx="193.957" cy="22.3534" r="4" fill="#0" id="circle152"/>
	<circle cx="194.875" cy="996" r="4" fill="#0" id="circle153"/>
	<circle cx="203.134" cy="22.3534" r="4" fill="#0" id="circle154"/>
	<circle cx="204.052" cy="996" r="4" fill="#0" id="circle155"/>
	<circle cx="212.311" cy="22.3534" r="4" fill="#0" id="circle156"/>
	<circle cx="213.228" cy="996" r="4" fill="#0" id="circle157"/>
	<circle cx="221.488" cy="22.3534" r="4" fill="#0" id="circle158"/>
	<circle cx="222.405" cy="996" r="4" fill="#0" id="circle159"/>
	<circle cx="230.664" cy="22.3534" r="4" fill="#0" id="circle160"/>
	<circle cx="231.582" cy="996" r="4" fill="#0" id="circle161"/>
	<circle cx="239.841" cy="22.3534" r="4" fill="#0" id="circle162"/>
	<circle cx="240.759" cy="996" r="4" fill="#0" id="circle163"/>
	<circle cx="249.018" cy="22.3534" r="4" fill="#0" id="circle164"/>
	<circle cx="249.935" cy="996" r="4" fill="#0" id="circle165"/>
	<circle cx="257.277" cy="26.9417" r="4" fill="#0" id="circle166"/>
	<circle cx="257.277" cy="202.216" r="4" fill="#0" id="circle167"/>
	<circle cx="257.277" cy="211.393" r="4" fill="#0" id="circle168"/>
	<circle cx="257.277" cy="220.57" r="4" fill="#0" id="circle169"/>
	<circle cx="257.277" cy="229.747" r="4" fill="#0" id="circle170"/>
	<circle cx="257.277" cy="238.923" r="4" fill="#0" id="circle171"/>
	<circle cx="257.277" cy="248.1" r="4" fill="#0" id="circle172"/>
	<circle cx="257.277" cy="257.277" r="4" fill="#0" id="circle173"/>
	<circle cx="257.277" cy="266.453" r="4" fill="#0" id="circle174"/>
	<circle cx="257.277" cy="275.63" r="4" fill="#0" id="circle175"/>
	<circle cx="257.277" cy="284.807" r="4" fill="#0" id="circle176"/>
	<circle cx="257.277" cy="293.983" r="4" fill="#0" id="circle177"/>
	<circle cx="257.277" cy="303.16" r="4" fill="#0" id="circle178"/>
	<circle cx="257.277" cy="312.337" r="4" fill="#0" id="circle179"/>
	<circle cx="257.277" cy="321.513" r="4" fill="#0" id="circle180"/>
	<circle cx="257.277" cy="330.69" r="4" fill="#0" id="circle181"/>
	<circle cx="257.277" cy="339.867" r="4" fill="#0" id="circle182"/>
	<circle cx="257.277" cy="349.043" r="4" fill="#0" id="circle183"/>
	<circle cx="257.277" cy="358.22" r="4" fill="#0" id="circle184"/>
	<circle cx="257.277" cy="367.397" r="4" fill="#0" id="circle185"/>
	<circle cx="257.277" cy="376.574" r="4" fill="#0" id="circle186"/>
	<circle cx="257.277" cy="385.75" r="4" fill="#0" id="circle187"/>
	<circle cx="257.277" cy="394.927" r="4" fill="#0" id="circle188"/>
	<circle cx="257.277" cy="404.104" r="4" fill="#0" id="circle189"/>
	<circle cx="257.277" cy="413.28" r="4" fill="#0" id="circle190"/>
	<circle cx="257.277" cy="422.457" r="4" fill="#0" id="circle191"/>
	<circle cx="257.277" cy="431.634" r="4" fill="#0" id="circle192"/>
	<circle cx="257.277" cy="440.81" r="4" fill="#0" id="circle193"/>
	<circle cx="257.277" cy="449.987" r="4" fill="#0" id="circle194"/>
	<circle cx="257.277" cy="459.164" r="4" fill="#0" id="circle195"/>
	<circle cx="257.277" cy="468.34" r="4" fill="#0" id="circle196"/>
	<circle cx="257.277" cy="477.517" r="4" fill="#0" id="circle197"/>
	<circle cx="257.277" cy="486.694" r="4" fill="#0" id="circle198"/>
	<circle cx="257.277" cy="495.87" r="4" fill="#0" id="circle199"/>
	<circle cx="257.277" cy="505.047" r="4" fill="#0" id="circle200"/>
	<circle cx="257.277" cy="514.224" r="4" fill="#0" id="circle201"/>
	<circle cx="257.277" cy="523.401" r="4" fill="#0" id="circle202"/>
	<circle cx="257.277" cy="532.577" r="4" fill="#0" id="circle203"/>
	<circle cx="257.277" cy="541.754" r="4" fill="#0" id="circle204"/>
	<circle cx="257.277" cy="550.931" r="4" fill="#0" id="circle205"/>
	<circle cx="257.277" cy="560.107" r="4" fill="#0" id="circle206"/>
	<circle cx="257.277" cy="569.284" r="4" fill="#0" id="circle207"/>
	<circle cx="257.277" cy="578.461" r="4" fill="#0" id="circle208"/>
	<circle cx="257.277" cy="587.637" r="4" fill="#0" id="circle209"/>
	<circle cx="257.277" cy="596.814" r="4" fill="#0" id="circle210"/>
	<circle cx="257.277" cy="605.991" r="4" fill="#0" id="circle211"/>
	<circle cx="257.277" cy="615.167" r="4" fill="#0" id="circle212"/>
	<circle cx="257.277" cy="624.344" r="4" fill="#0" id="circle213"/>
	<circle cx="257.277" cy="633.521" r="4" fill="#0" id="circle214"/>
	<circle cx="257.277" cy="642.698" r="4" fill="#0" id="circle215"/>
	<circle cx="257.277" cy="651.874" r="4" fill="#0" id="circle216"/>
	<circle cx="257.277" cy="661.051" r="4" fill="#0" id="circle217"/>
	<circle cx="257.277" cy="670.228" r="4" fill="#0" id="circle218"/>
	<circle cx="257.277" cy="679.404" r="4" fill="#0" id="circle219"/>
	<circle cx="257.277" cy="688.581" r="4" fill="#0" id="circle220"/>
	<circle cx="257.277" cy="697.758" r="4" fill="#0" id="circle221"/>
	<circle cx="257.277" cy="706.934" r="4" fill="#0" id="circle222"/>
	<circle cx="257.277" cy="716.111" r="4" fill="#0" id="circle223"/>
	<circle cx="257.277" cy="725.288" r="4" fill="#0" id="circle224"/>
	<circle cx="257.277" cy="734.464" r="4" fill="#0" id="circle225"/>
	<circle cx="257.277" cy="743.641" r="4" fill="#0" id="circle226"/>
	<circle cx="257.277" cy="752.818" r="4" fill="#0" id="circle227"/>
	<circle cx="257.277" cy="761.994" r="4" fill="#0" id="circle228"/>
	<circle cx="257.277" cy="771.171" r="4" fill="#0" id="circle229"/>
	<circle cx="257.277" cy="780.348" r="4" fill="#0" id="circle230"/>
	<circle cx="257.277" cy="789.525" r="4" fill="#0" id="circle231"/>
	<circle cx="257.277" cy="798.701" r="4" fill="#0" id="circle232"/>
	<circle cx="257.277" cy="807.878" r="4" fill="#0" id="circle233"/>
	<circle cx="257.277" cy="817.055" r="4" fill="#0" id="circle234"/>
	<circle cx="257.277" cy="826.231" r="4" fill="#0" id="circle235"/>
	<circle cx="257.277" cy="835.408" r="4" fill="#0" id="circle236"/>
	<circle cx="257.277" cy="844.585" r="4" fill="#0" id="circle237"/>
	<circle cx="257.277" cy="853.761" r="4" fill="#0" id="circle238"/>
	<circle cx="257.277" cy="862.938" r="4" fill="#0" id="circle239"/>
	<circle cx="257.277" cy="872.115" r="4" fill="#0" id="circle240"/>
	<circle cx="257.277" cy="881.291" r="4" fill="#0" id="circle241"/>
	<circle cx="257.277" cy="890.468" r="4" fill="#0" id="circle242"/>
	<circle cx="257.277" cy="899.645" r="4" fill="#0" id="circle243"/>
	<circle cx="257.277" cy="908.821" r="4" fill="#0" id="circle244"/>
	<circle cx="257.277" cy="917.998" r="4" fill="#0" id="circle245"/>
	<circle cx="257.277" cy="927.175" r="4" fill="#0" id="circle246"/>
	<circle cx="257.277" cy="936.352" r="4" fill="#0" id="circle247"/>
	<circle cx="257.277" cy="945.528" r="4" fill="#0" id="circle248"/>
	<circle cx="257.277" cy="954.705" r="4" fill="#0" id="circle249"/>
	<circle cx="257.277" cy="963.882" r="4" fill="#0" id="circle250"/>
	<circle cx="257.277" cy="973.058" r="4" fill="#0" id="circle251"/>
	<circle cx="257.277" cy="982.235" r="4" fill="#0" id="circle252"/>
	<circle cx="266.453" cy="26.9417" r="4" fill="#0" id="circle253"/>
	<circle cx="266.453" cy="202.216" r="4" fill="#0" id="circle254"/>
	<circle cx="275.63" cy="29.6947" r="4" fill="#0" id="circle255"/>
	<circle cx="275.63" cy="202.216" r="4" fill="#0" id="circle256"/>
	<circle cx="283.889" cy="34.2831" r="4" fill="#0" id="circle257"/>
	<circle cx="284.807" cy="202.216" r="4" fill="#0" id="circle258"/>
	<circle cx="293.066" cy="37.9537" r="4" fill="#0" id="circle259"/>
	<circle cx="293.983" cy="202.216" r="4" fill="#0" id="circle260"/>
	<circle cx="302.242" cy="40.7068" r="4" fill="#0" id="circle261"/>
	<circle cx="303.16" cy="204.052" r="4" fill="#0" id="circle262"/>
	<circle cx="311.419" cy="42.5421" r="4" fill="#0" id="circle263"/>
	<circle cx="312.337" cy="206.805" r="4" fill="#0" id="circle264"/>
	<circle cx="316.925" cy="49.8834" r="4" fill="#0" id="circle265"/>
	<circle cx="321.513" cy="206.805" r="4" fill="#0" id="circle266"/>
	<circle cx="326.102" cy="52.6364" r="4" fill="#0" id="circle267"/>
	<circle cx="330.69" cy="206.805" r="4" fill="#0" id="circle268"/>
	<circle cx="333.443" cy="59.0601" r="4" fill="#0" id="circle269"/>
	<circle cx="339.867" cy="208.64" r="4" fill="#0" id="circle270"/>
	<circle cx="341.702" cy="63.6485" r="4" fill="#0" id="circle271"/>
	<circle cx="349.043" cy="211.393" r="4" fill="#0" id="circle272"/>
	<circle cx="349.961" cy="68.2368" r="4" fill="#0" id="circle273"/>
	<circle cx="357.302" cy="74.6605" r="4" fill="#0" id="circle274"/>
	<circle cx="358.22" cy="211.393" r="4" fill="#0" id="circle275"/>
	<circle cx="365.562" cy="79.2488" r="4" fill="#0" id="circle276"/>
	<circle cx="367.397" cy="213.228" r="4" fill="#0" id="circle277"/>
	<circle cx="374.738" cy="82.9195" r="4" fill="#0" id="circle278"/>
	<circle cx="376.574" cy="215.981" r="4" fill="#0" id="circle279"/>
	<circle cx="381.162" cy="90.2609" r="4" fill="#0" id="circle280"/>
	<circle cx="385.75" cy="217.817" r="4" fill="#0" id="circle281"/>
	<circle cx="390.339" cy="93.9315" r="4" fill="#0" id="circle282"/>
	<circle cx="394.927" cy="220.57" r="4" fill="#0" id="circle283"/>
	<circle cx="396.762" cy="101.273" r="4" fill="#0" id="circle284"/>
	<circle cx="404.104" cy="107.697" r="4" fill="#0" id="circle285"/>
	<circle cx="404.104" cy="220.57" r="4" fill="#0" id="circle286"/>
	<circle cx="410.527" cy="115.038" r="4" fill="#0" id="circle287"/>
	<circle cx="413.28" cy="222.405" r="4" fill="#0" id="circle288"/>
	<circle cx="415.116" cy="123.297" r="4" fill="#0" id="circle289"/>
	<circle cx="421.539" cy="130.638" r="4" fill="#0" id="circle290"/>
	<circle cx="422.457" cy="225.158" r="4" fill="#0" id="circle291"/>
	<circle cx="427.045" cy="137.98" r="4" fill="#0" id="circle292"/>
	<circle cx="428.881" cy="147.156" r="4" fill="#0" id="circle293"/>
	<circle cx="430.716" cy="229.747" r="4" fill="#0" id="circle294"/>
	<circle cx="433.469" cy="155.415" r="4" fill="#0" id="circle295"/>
	<circle cx="439.893" cy="162.757" r="4" fill="#0" id="circle296"/>
	<circle cx="439.893" cy="229.747" r="4" fill="#0" id="circle297"/>
	<circle cx="444.481" cy="171.016" r="4" fill="#0" id="circle298"/>
	<circle cx="448.152" cy="234.335" r="4" fill="#0" id="circle299"/>
	<circle cx="449.987" cy="178.357" r="4" fill="#0" id="circle300"/>
	<circle cx="449.987" cy="187.534" r="4" fill="#0" id="circle301"/>
	<circle cx="454.575" cy="195.793" r="4" fill="#0" id="circle302"/>
	<circle cx="456.411" cy="238.923" r="4" fill="#0" id="circle303"/>
	<circle cx="459.164" cy="204.052" r="4" fill="#0" id="circle304"/>
	<circle cx="462.834" cy="213.228" r="4" fill="#0" id="circle305"/>
	<circle cx="463.752" cy="222.405" r="4" fill="#0" id="circle306"/>
	<circle cx="465.587" cy="242.594" r="4" fill="#0" id="circle307"/>
	<circle cx="468.34" cy="230.664" r="4" fill="#0" id="circle308"/>
	</g>
</svg>