<?xml version="1.0" encoding="UTF-8" standalone="no"?>
<!-- Created with CurveBenchmark -->
<svg
	xmlns:dc="http://purl.org/dc/elements/1.1/"
	xmlns:cc="http://creativecommons.org/ns#"
	xmlns:rdf="http://www.w3.org/1999/02/22-rdf-syntax-ns#"
	xmlns:svg="http://www.w3.org/2000/svg"
	xmlns="http://www.w3.org/2000/svg"
	xmlns:sodipodi="http://sodipodi.sourceforge.net/DTD/sodipodi-0.dtd"
	xmlns:inkscape="http://www.inkscape.org/namespaces/inkscape"
	width="1000"
	height="1000"
	id="svg2"
	version="1.1"
	sodipodi:docname="manifold/hnncrust-fa18c.png.txt">
<defs
	id="defs4" />
<metadata
	id="metadata7">
	<rdf:RDF>
		<cc:Work
			rdf:about="">
			<dc:format>image/svg+xml</dc:format>
			<dc:type
				rdf:resource="http://purl.org/dc/dcmitype/StillImage" />
			<dc:title></dc:title>
		</cc:Work>
	</rdf:RDF>
</metadata>
<g
	inkscape:label="Layer 1"
	inkscape:groupmode="layer"
	id="layer1">
	<path style="fill:none;stroke:red;stroke-width:1px;stroke-linecap:butt;stroke-linejoin:miter;stroke-opacity:1" d="M 22.5075,383.403 33.6119,398.209 z" id="boundary" inkscape:connector-curvature="0" />
	<path style="fill:none;stroke:red;stroke-width:1px;stroke-linecap:butt;stroke-linejoin:miter;stroke-opacity:1" d="M 22.5075,383.403 39.1642,374.149 z" id="boundary" inkscape:connector-curvature="0" />
	<path style="fill:none;stroke:red;stroke-width:1px;stroke-linecap:butt;stroke-linejoin:miter;stroke-opacity:1" d="M 33.6119,398.209 50.2687,407.463 z" id="boundary" inkscape:connector-curvature="0" />
	<path style="fill:none;stroke:red;stroke-width:1px;stroke-linecap:butt;stroke-linejoin:miter;stroke-opacity:1" d="M 39.1642,374.149 55.8209,364.896 z" id="boundary" inkscape:connector-curvature="0" />
	<path style="fill:none;stroke:red;stroke-width:1px;stroke-linecap:butt;stroke-linejoin:miter;stroke-opacity:1" d="M 50.2687,407.463 68.7761,413.015 z" id="boundary" inkscape:connector-curvature="0" />
	<path style="fill:none;stroke:red;stroke-width:1px;stroke-linecap:butt;stroke-linejoin:miter;stroke-opacity:1" d="M 55.8209,364.896 74.3284,364.896 z" id="boundary" inkscape:connector-curvature="0" />
	<path style="fill:none;stroke:red;stroke-width:1px;stroke-linecap:butt;stroke-linejoin:miter;stroke-opacity:1" d="M 68.7761,413.015 87.2836,413.015 z" id="boundary" inkscape:connector-curvature="0" />
	<path style="fill:none;stroke:red;stroke-width:1px;stroke-linecap:butt;stroke-linejoin:miter;stroke-opacity:1" d="M 74.3284,364.896 92.8358,364.896 z" id="boundary" inkscape:connector-curvature="0" />
	<path style="fill:none;stroke:red;stroke-width:1px;stroke-linecap:butt;stroke-linejoin:miter;stroke-opacity:1" d="M 87.2836,413.015 105.791,413.015 z" id="boundary" inkscape:connector-curvature="0" />
	<path style="fill:none;stroke:red;stroke-width:1px;stroke-linecap:butt;stroke-linejoin:miter;stroke-opacity:1" d="M 92.8358,364.896 111.343,364.896 z" id="boundary" inkscape:connector-curvature="0" />
	<path style="fill:none;stroke:red;stroke-width:1px;stroke-linecap:butt;stroke-linejoin:miter;stroke-opacity:1" d="M 105.791,413.015 124.299,413.015 z" id="boundary" inkscape:connector-curvature="0" />
	<path style="fill:none;stroke:red;stroke-width:1px;stroke-linecap:butt;stroke-linejoin:miter;stroke-opacity:1" d="M 111.343,364.896 129.851,364.896 z" id="boundary" inkscape:connector-curvature="0" />
	<path style="fill:none;stroke:red;stroke-width:1px;stroke-linecap:butt;stroke-linejoin:miter;stroke-opacity:1" d="M 124.299,413.015 140.955,422.269 z" id="boundary" inkscape:connector-curvature="0" />
	<path style="fill:none;stroke:red;stroke-width:1px;stroke-linecap:butt;stroke-linejoin:miter;stroke-opacity:1" d="M 129.851,364.896 148.358,355.642 z" id="boundary" inkscape:connector-curvature="0" />
	<path style="fill:none;stroke:red;stroke-width:1px;stroke-linecap:butt;stroke-linejoin:miter;stroke-opacity:1" d="M 140.955,422.269 159.463,422.269 z" id="boundary" inkscape:connector-curvature="0" />
	<path style="fill:none;stroke:red;stroke-width:1px;stroke-linecap:butt;stroke-linejoin:miter;stroke-opacity:1" d="M 148.358,355.642 166.866,355.642 z" id="boundary" inkscape:connector-curvature="0" />
	<path style="fill:none;stroke:red;stroke-width:1px;stroke-linecap:butt;stroke-linejoin:miter;stroke-opacity:1" d="M 159.463,422.269 177.97,422.269 z" id="boundary" inkscape:connector-curvature="0" />
	<path style="fill:none;stroke:red;stroke-width:1px;stroke-linecap:butt;stroke-linejoin:miter;stroke-opacity:1" d="M 166.866,355.642 185.373,355.642 z" id="boundary" inkscape:connector-curvature="0" />
	<path style="fill:none;stroke:red;stroke-width:1px;stroke-linecap:butt;stroke-linejoin:miter;stroke-opacity:1" d="M 177.97,422.269 196.478,422.269 z" id="boundary" inkscape:connector-curvature="0" />
	<path style="fill:none;stroke:red;stroke-width:1px;stroke-linecap:butt;stroke-linejoin:miter;stroke-opacity:1" d="M 185.373,355.642 203.881,355.642 z" id="boundary" inkscape:connector-curvature="0" />
	<path style="fill:none;stroke:red;stroke-width:1px;stroke-linecap:butt;stroke-linejoin:miter;stroke-opacity:1" d="M 196.478,422.269 213.134,431.522 z" id="boundary" inkscape:connector-curvature="0" />
	<path style="fill:none;stroke:red;stroke-width:1px;stroke-linecap:butt;stroke-linejoin:miter;stroke-opacity:1" d="M 203.881,355.642 220.537,346.388 z" id="boundary" inkscape:connector-curvature="0" />
	<path style="fill:none;stroke:red;stroke-width:1px;stroke-linecap:butt;stroke-linejoin:miter;stroke-opacity:1" d="M 213.134,431.522 231.642,431.522 z" id="boundary" inkscape:connector-curvature="0" />
	<path style="fill:none;stroke:red;stroke-width:1px;stroke-linecap:butt;stroke-linejoin:miter;stroke-opacity:1" d="M 220.537,346.388 239.045,346.388 z" id="boundary" inkscape:connector-curvature="0" />
	<path style="fill:none;stroke:red;stroke-width:1px;stroke-linecap:butt;stroke-linejoin:miter;stroke-opacity:1" d="M 231.642,431.522 246.448,444.478 z" id="boundary" inkscape:connector-curvature="0" />
	<path style="fill:none;stroke:red;stroke-width:1px;stroke-linecap:butt;stroke-linejoin:miter;stroke-opacity:1" d="M 239.045,346.388 248.299,329.731 z" id="boundary" inkscape:connector-curvature="0" />
	<path style="fill:none;stroke:red;stroke-width:1px;stroke-linecap:butt;stroke-linejoin:miter;stroke-opacity:1" d="M 246.448,444.478 264.955,450.03 z" id="boundary" inkscape:connector-curvature="0" />
	<path style="fill:none;stroke:red;stroke-width:1px;stroke-linecap:butt;stroke-linejoin:miter;stroke-opacity:1" d="M 248.299,329.731 266.806,327.881 z" id="boundary" inkscape:connector-curvature="0" />
	<path style="fill:none;stroke:red;stroke-width:1px;stroke-linecap:butt;stroke-linejoin:miter;stroke-opacity:1" d="M 264.955,450.03 283.463,453.731 z" id="boundary" inkscape:connector-curvature="0" />
	<path style="fill:none;stroke:red;stroke-width:1px;stroke-linecap:butt;stroke-linejoin:miter;stroke-opacity:1" d="M 266.806,327.881 285.313,320.478 z" id="boundary" inkscape:connector-curvature="0" />
	<path style="fill:none;stroke:red;stroke-width:1px;stroke-linecap:butt;stroke-linejoin:miter;stroke-opacity:1" d="M 283.463,453.731 301.97,459.284 z" id="boundary" inkscape:connector-curvature="0" />
	<path style="fill:none;stroke:red;stroke-width:1px;stroke-linecap:butt;stroke-linejoin:miter;stroke-opacity:1" d="M 285.313,320.478 303.821,318.627 z" id="boundary" inkscape:connector-curvature="0" />
	<path style="fill:none;stroke:red;stroke-width:1px;stroke-linecap:butt;stroke-linejoin:miter;stroke-opacity:1" d="M 301.97,459.284 320.478,459.284 z" id="boundary" inkscape:connector-curvature="0" />
	<path style="fill:none;stroke:red;stroke-width:1px;stroke-linecap:butt;stroke-linejoin:miter;stroke-opacity:1" d="M 303.821,318.627 322.328,318.627 z" id="boundary" inkscape:connector-curvature="0" />
	<path style="fill:none;stroke:red;stroke-width:1px;stroke-linecap:butt;stroke-linejoin:miter;stroke-opacity:1" d="M 320.478,459.284 337.134,468.537 z" id="boundary" inkscape:connector-curvature="0" />
	<path style="fill:none;stroke:red;stroke-width:1px;stroke-linecap:butt;stroke-linejoin:miter;stroke-opacity:1" d="M 322.328,318.627 338.985,309.373 z" id="boundary" inkscape:connector-curvature="0" />
	<path style="fill:none;stroke:red;stroke-width:1px;stroke-linecap:butt;stroke-linejoin:miter;stroke-opacity:1" d="M 337.134,468.537 355.642,468.537 z" id="boundary" inkscape:connector-curvature="0" />
	<path style="fill:none;stroke:red;stroke-width:1px;stroke-linecap:butt;stroke-linejoin:miter;stroke-opacity:1" d="M 338.985,309.373 357.493,309.373 z" id="boundary" inkscape:connector-curvature="0" />
	<path style="fill:none;stroke:red;stroke-width:1px;stroke-linecap:butt;stroke-linejoin:miter;stroke-opacity:1" d="M 355.642,468.537 372.299,477.791 z" id="boundary" inkscape:connector-curvature="0" />
	<path style="fill:none;stroke:red;stroke-width:1px;stroke-linecap:butt;stroke-linejoin:miter;stroke-opacity:1" d="M 357.493,309.373 374.149,300.119 z" id="boundary" inkscape:connector-curvature="0" />
	<path style="fill:none;stroke:red;stroke-width:1px;stroke-linecap:butt;stroke-linejoin:miter;stroke-opacity:1" d="M 372.299,477.791 390.806,477.791 z" id="boundary" inkscape:connector-curvature="0" />
	<path style="fill:none;stroke:red;stroke-width:1px;stroke-linecap:butt;stroke-linejoin:miter;stroke-opacity:1" d="M 374.149,300.119 392.657,300.119 z" id="boundary" inkscape:connector-curvature="0" />
	<path style="fill:none;stroke:red;stroke-width:1px;stroke-linecap:butt;stroke-linejoin:miter;stroke-opacity:1" d="M 390.806,477.791 409.313,477.791 z" id="boundary" inkscape:connector-curvature="0" />
	<path style="fill:none;stroke:red;stroke-width:1px;stroke-linecap:butt;stroke-linejoin:miter;stroke-opacity:1" d="M 392.657,300.119 411.164,296.418 z" id="boundary" inkscape:connector-curvature="0" />
	<path style="fill:none;stroke:red;stroke-width:1px;stroke-linecap:butt;stroke-linejoin:miter;stroke-opacity:1" d="M 409.313,477.791 425.97,487.045 z" id="boundary" inkscape:connector-curvature="0" />
	<path style="fill:none;stroke:red;stroke-width:1px;stroke-linecap:butt;stroke-linejoin:miter;stroke-opacity:1" d="M 411.164,296.418 429.672,290.866 z" id="boundary" inkscape:connector-curvature="0" />
	<path style="fill:none;stroke:red;stroke-width:1px;stroke-linecap:butt;stroke-linejoin:miter;stroke-opacity:1" d="M 425.97,487.045 444.478,487.045 z" id="boundary" inkscape:connector-curvature="0" />
	<path style="fill:none;stroke:red;stroke-width:1px;stroke-linecap:butt;stroke-linejoin:miter;stroke-opacity:1" d="M 429.672,290.866 448.179,287.164 z" id="boundary" inkscape:connector-curvature="0" />
	<path style="fill:none;stroke:red;stroke-width:1px;stroke-linecap:butt;stroke-linejoin:miter;stroke-opacity:1" d="M 444.478,487.045 461.134,496.299 z" id="boundary" inkscape:connector-curvature="0" />
	<path style="fill:none;stroke:red;stroke-width:1px;stroke-linecap:butt;stroke-linejoin:miter;stroke-opacity:1" d="M 448.179,287.164 466.687,281.612 z" id="boundary" inkscape:connector-curvature="0" />
	<path style="fill:none;stroke:red;stroke-width:1px;stroke-linecap:butt;stroke-linejoin:miter;stroke-opacity:1" d="M 461.134,496.299 479.642,496.299 z" id="boundary" inkscape:connector-curvature="0" />
	<path style="fill:none;stroke:red;stroke-width:1px;stroke-linecap:butt;stroke-linejoin:miter;stroke-opacity:1" d="M 466.687,281.612 485.194,277.91 z" id="boundary" inkscape:connector-curvature="0" />
	<path style="fill:none;stroke:red;stroke-width:1px;stroke-linecap:butt;stroke-linejoin:miter;stroke-opacity:1" d="M 479.642,496.299 496.299,505.552 z" id="boundary" inkscape:connector-curvature="0" />
	<path style="fill:none;stroke:red;stroke-width:1px;stroke-linecap:butt;stroke-linejoin:miter;stroke-opacity:1" d="M 485.194,277.91 503.701,272.358 z" id="boundary" inkscape:connector-curvature="0" />
	<path style="fill:none;stroke:red;stroke-width:1px;stroke-linecap:butt;stroke-linejoin:miter;stroke-opacity:1" d="M 496.299,505.552 514.806,505.552 z" id="boundary" inkscape:connector-curvature="0" />
	<path style="fill:none;stroke:red;stroke-width:1px;stroke-linecap:butt;stroke-linejoin:miter;stroke-opacity:1" d="M 503.701,272.358 522.209,272.358 z" id="boundary" inkscape:connector-curvature="0" />
	<path style="fill:none;stroke:red;stroke-width:1px;stroke-linecap:butt;stroke-linejoin:miter;stroke-opacity:1" d="M 514.806,505.552 531.463,514.806 z" id="boundary" inkscape:connector-curvature="0" />
	<path style="fill:none;stroke:red;stroke-width:1px;stroke-linecap:butt;stroke-linejoin:miter;stroke-opacity:1" d="M 522.209,272.358 533.313,257.552 z" id="boundary" inkscape:connector-curvature="0" />
	<path style="fill:none;stroke:red;stroke-width:1px;stroke-linecap:butt;stroke-linejoin:miter;stroke-opacity:1" d="M 531.463,514.806 540.716,531.463 z" id="boundary" inkscape:connector-curvature="0" />
	<path style="fill:none;stroke:red;stroke-width:1px;stroke-linecap:butt;stroke-linejoin:miter;stroke-opacity:1" d="M 533.313,257.552 542.567,239.045 z" id="boundary" inkscape:connector-curvature="0" />
	<path style="fill:none;stroke:red;stroke-width:1px;stroke-linecap:butt;stroke-linejoin:miter;stroke-opacity:1" d="M 540.716,531.463 549.97,548.119 z" id="boundary" inkscape:connector-curvature="0" />
	<path style="fill:none;stroke:red;stroke-width:1px;stroke-linecap:butt;stroke-linejoin:miter;stroke-opacity:1" d="M 542.567,239.045 549.97,213.134 z" id="boundary" inkscape:connector-curvature="0" />
	<path style="fill:none;stroke:red;stroke-width:1px;stroke-linecap:butt;stroke-linejoin:miter;stroke-opacity:1" d="M 549.97,213.134 559.224,194.627 z" id="boundary" inkscape:connector-curvature="0" />
	<path style="fill:none;stroke:red;stroke-width:1px;stroke-linecap:butt;stroke-linejoin:miter;stroke-opacity:1" d="M 549.97,548.119 551.821,566.627 z" id="boundary" inkscape:connector-curvature="0" />
	<path style="fill:none;stroke:red;stroke-width:1px;stroke-linecap:butt;stroke-linejoin:miter;stroke-opacity:1" d="M 551.821,566.627 561.075,583.284 z" id="boundary" inkscape:connector-curvature="0" />
	<path style="fill:none;stroke:red;stroke-width:1px;stroke-linecap:butt;stroke-linejoin:miter;stroke-opacity:1" d="M 559.224,194.627 568.478,176.119 z" id="boundary" inkscape:connector-curvature="0" />
	<path style="fill:none;stroke:red;stroke-width:1px;stroke-linecap:butt;stroke-linejoin:miter;stroke-opacity:1" d="M 561.075,583.284 568.478,601.791 z" id="boundary" inkscape:connector-curvature="0" />
	<path style="fill:none;stroke:red;stroke-width:1px;stroke-linecap:butt;stroke-linejoin:miter;stroke-opacity:1" d="M 568.478,176.119 577.731,157.612 z" id="boundary" inkscape:connector-curvature="0" />
	<path style="fill:none;stroke:red;stroke-width:1px;stroke-linecap:butt;stroke-linejoin:miter;stroke-opacity:1" d="M 568.478,601.791 577.731,618.448 z" id="boundary" inkscape:connector-curvature="0" />
	<path style="fill:none;stroke:red;stroke-width:1px;stroke-linecap:butt;stroke-linejoin:miter;stroke-opacity:1" d="M 577.731,157.612 586.985,139.104 z" id="boundary" inkscape:connector-curvature="0" />
	<path style="fill:none;stroke:red;stroke-width:1px;stroke-linecap:butt;stroke-linejoin:miter;stroke-opacity:1" d="M 577.731,618.448 586.985,635.104 z" id="boundary" inkscape:connector-curvature="0" />
	<path style="fill:none;stroke:red;stroke-width:1px;stroke-linecap:butt;stroke-linejoin:miter;stroke-opacity:1" d="M 586.985,139.104 596.239,111.343 z" id="boundary" inkscape:connector-curvature="0" />
	<path style="fill:none;stroke:red;stroke-width:1px;stroke-linecap:butt;stroke-linejoin:miter;stroke-opacity:1" d="M 586.985,635.104 596.239,651.761 z" id="boundary" inkscape:connector-curvature="0" />
	<path style="fill:none;stroke:red;stroke-width:1px;stroke-linecap:butt;stroke-linejoin:miter;stroke-opacity:1" d="M 596.239,111.343 614.746,92.8358 z" id="boundary" inkscape:connector-curvature="0" />
	<path style="fill:none;stroke:red;stroke-width:1px;stroke-linecap:butt;stroke-linejoin:miter;stroke-opacity:1" d="M 596.239,651.761 599.94,670.269 z" id="boundary" inkscape:connector-curvature="0" />
	<path style="fill:none;stroke:red;stroke-width:1px;stroke-linecap:butt;stroke-linejoin:miter;stroke-opacity:1" d="M 599.94,670.269 614.746,681.373 z" id="boundary" inkscape:connector-curvature="0" />
	<path style="fill:none;stroke:red;stroke-width:1px;stroke-linecap:butt;stroke-linejoin:miter;stroke-opacity:1" d="M 614.746,92.8358 624,74.3284 z" id="boundary" inkscape:connector-curvature="0" />
	<path style="fill:none;stroke:red;stroke-width:1px;stroke-linecap:butt;stroke-linejoin:miter;stroke-opacity:1" d="M 614.746,681.373 624,698.03 z" id="boundary" inkscape:connector-curvature="0" />
	<path style="fill:none;stroke:red;stroke-width:1px;stroke-linecap:butt;stroke-linejoin:miter;stroke-opacity:1" d="M 624,74.3284 633.254,55.8209 z" id="boundary" inkscape:connector-curvature="0" />
	<path style="fill:none;stroke:red;stroke-width:1px;stroke-linecap:butt;stroke-linejoin:miter;stroke-opacity:1" d="M 624,698.03 633.254,714.687 z" id="boundary" inkscape:connector-curvature="0" />
	<path style="fill:none;stroke:red;stroke-width:1px;stroke-linecap:butt;stroke-linejoin:miter;stroke-opacity:1" d="M 633.254,55.8209 642.507,37.3134 z" id="boundary" inkscape:connector-curvature="0" />
	<path style="fill:none;stroke:red;stroke-width:1px;stroke-linecap:butt;stroke-linejoin:miter;stroke-opacity:1" d="M 633.254,714.687 642.507,731.343 z" id="boundary" inkscape:connector-curvature="0" />
	<path style="fill:none;stroke:red;stroke-width:1px;stroke-linecap:butt;stroke-linejoin:miter;stroke-opacity:1" d="M 642.507,37.3134 651.761,9.55224 z" id="boundary" inkscape:connector-curvature="0" />
	<path style="fill:none;stroke:red;stroke-width:1px;stroke-linecap:butt;stroke-linejoin:miter;stroke-opacity:1" d="M 642.507,731.343 642.507,749.851 z" id="boundary" inkscape:connector-curvature="0" />
	<path style="fill:none;stroke:red;stroke-width:1px;stroke-linecap:butt;stroke-linejoin:miter;stroke-opacity:1" d="M 642.507,749.851 661.015,755.403 z" id="boundary" inkscape:connector-curvature="0" />
	<path style="fill:none;stroke:red;stroke-width:1px;stroke-linecap:butt;stroke-linejoin:miter;stroke-opacity:1" d="M 651.761,9.55224 670.269,4 z" id="boundary" inkscape:connector-curvature="0" />
	<path style="fill:none;stroke:red;stroke-width:1px;stroke-linecap:butt;stroke-linejoin:miter;stroke-opacity:1" d="M 661.015,755.403 666.567,773.91 z" id="boundary" inkscape:connector-curvature="0" />
	<path style="fill:none;stroke:red;stroke-width:1px;stroke-linecap:butt;stroke-linejoin:miter;stroke-opacity:1" d="M 666.567,773.91 685.075,773.91 z" id="boundary" inkscape:connector-curvature="0" />
	<path style="fill:none;stroke:red;stroke-width:1px;stroke-linecap:butt;stroke-linejoin:miter;stroke-opacity:1" d="M 670.269,4 688.776,4 z" id="boundary" inkscape:connector-curvature="0" />
	<path style="fill:none;stroke:red;stroke-width:1px;stroke-linecap:butt;stroke-linejoin:miter;stroke-opacity:1" d="M 685.075,773.91 703.582,773.91 z" id="boundary" inkscape:connector-curvature="0" />
	<path style="fill:none;stroke:red;stroke-width:1px;stroke-linecap:butt;stroke-linejoin:miter;stroke-opacity:1" d="M 688.776,4 707.284,4 z" id="boundary" inkscape:connector-curvature="0" />
	<path style="fill:none;stroke:red;stroke-width:1px;stroke-linecap:butt;stroke-linejoin:miter;stroke-opacity:1" d="M 703.582,773.91 722.09,773.91 z" id="boundary" inkscape:connector-curvature="0" />
	<path style="fill:none;stroke:red;stroke-width:1px;stroke-linecap:butt;stroke-linejoin:miter;stroke-opacity:1" d="M 707.284,4 725.791,4 z" id="boundary" inkscape:connector-curvature="0" />
	<path style="fill:none;stroke:red;stroke-width:1px;stroke-linecap:butt;stroke-linejoin:miter;stroke-opacity:1" d="M 722.09,773.91 736.896,755.403 z" id="boundary" inkscape:connector-curvature="0" />
	<path style="fill:none;stroke:red;stroke-width:1px;stroke-linecap:butt;stroke-linejoin:miter;stroke-opacity:1" d="M 725.791,4 736.896,18.806 z" id="boundary" inkscape:connector-curvature="0" />
	<path style="fill:none;stroke:red;stroke-width:1px;stroke-linecap:butt;stroke-linejoin:miter;stroke-opacity:1" d="M 736.896,18.806 736.896,37.3134 z" id="boundary" inkscape:connector-curvature="0" />
	<path style="fill:none;stroke:red;stroke-width:1px;stroke-linecap:butt;stroke-linejoin:miter;stroke-opacity:1" d="M 736.896,37.3134 736.896,55.8209 z" id="boundary" inkscape:connector-curvature="0" />
	<path style="fill:none;stroke:red;stroke-width:1px;stroke-linecap:butt;stroke-linejoin:miter;stroke-opacity:1" d="M 736.896,55.8209 746.149,72.4776 z" id="boundary" inkscape:connector-curvature="0" />
	<path style="fill:none;stroke:red;stroke-width:1px;stroke-linecap:butt;stroke-linejoin:miter;stroke-opacity:1" d="M 736.896,718.388 736.896,736.896 z" id="boundary" inkscape:connector-curvature="0" />
	<path style="fill:none;stroke:red;stroke-width:1px;stroke-linecap:butt;stroke-linejoin:miter;stroke-opacity:1" d="M 736.896,718.388 746.149,690.627 z" id="boundary" inkscape:connector-curvature="0" />
	<path style="fill:none;stroke:red;stroke-width:1px;stroke-linecap:butt;stroke-linejoin:miter;stroke-opacity:1" d="M 736.896,736.896 736.896,755.403 z" id="boundary" inkscape:connector-curvature="0" />
	<path style="fill:none;stroke:red;stroke-width:1px;stroke-linecap:butt;stroke-linejoin:miter;stroke-opacity:1" d="M 746.149,72.4776 746.149,90.9851 z" id="boundary" inkscape:connector-curvature="0" />
	<path style="fill:none;stroke:red;stroke-width:1px;stroke-linecap:butt;stroke-linejoin:miter;stroke-opacity:1" d="M 746.149,90.9851 746.149,109.493 z" id="boundary" inkscape:connector-curvature="0" />
	<path style="fill:none;stroke:red;stroke-width:1px;stroke-linecap:butt;stroke-linejoin:miter;stroke-opacity:1" d="M 746.149,109.493 746.149,128 z" id="boundary" inkscape:connector-curvature="0" />
	<path style="fill:none;stroke:red;stroke-width:1px;stroke-linecap:butt;stroke-linejoin:miter;stroke-opacity:1" d="M 746.149,128 746.149,146.507 z" id="boundary" inkscape:connector-curvature="0" />
	<path style="fill:none;stroke:red;stroke-width:1px;stroke-linecap:butt;stroke-linejoin:miter;stroke-opacity:1" d="M 746.149,146.507 751.701,165.015 z" id="boundary" inkscape:connector-curvature="0" />
	<path style="fill:none;stroke:red;stroke-width:1px;stroke-linecap:butt;stroke-linejoin:miter;stroke-opacity:1" d="M 746.149,616.597 746.149,635.104 z" id="boundary" inkscape:connector-curvature="0" />
	<path style="fill:none;stroke:red;stroke-width:1px;stroke-linecap:butt;stroke-linejoin:miter;stroke-opacity:1" d="M 746.149,616.597 755.403,588.836 z" id="boundary" inkscape:connector-curvature="0" />
	<path style="fill:none;stroke:red;stroke-width:1px;stroke-linecap:butt;stroke-linejoin:miter;stroke-opacity:1" d="M 746.149,635.104 746.149,653.612 z" id="boundary" inkscape:connector-curvature="0" />
	<path style="fill:none;stroke:red;stroke-width:1px;stroke-linecap:butt;stroke-linejoin:miter;stroke-opacity:1" d="M 746.149,653.612 746.149,672.119 z" id="boundary" inkscape:connector-curvature="0" />
	<path style="fill:none;stroke:red;stroke-width:1px;stroke-linecap:butt;stroke-linejoin:miter;stroke-opacity:1" d="M 746.149,672.119 746.149,690.627 z" id="boundary" inkscape:connector-curvature="0" />
	<path style="fill:none;stroke:red;stroke-width:1px;stroke-linecap:butt;stroke-linejoin:miter;stroke-opacity:1" d="M 751.701,165.015 755.403,183.522 z" id="boundary" inkscape:connector-curvature="0" />
	<path style="fill:none;stroke:red;stroke-width:1px;stroke-linecap:butt;stroke-linejoin:miter;stroke-opacity:1" d="M 755.403,183.522 755.403,202.03 z" id="boundary" inkscape:connector-curvature="0" />
	<path style="fill:none;stroke:red;stroke-width:1px;stroke-linecap:butt;stroke-linejoin:miter;stroke-opacity:1" d="M 755.403,202.03 755.403,220.537 z" id="boundary" inkscape:connector-curvature="0" />
	<path style="fill:none;stroke:red;stroke-width:1px;stroke-linecap:butt;stroke-linejoin:miter;stroke-opacity:1" d="M 755.403,220.537 755.403,239.045 z" id="boundary" inkscape:connector-curvature="0" />
	<path style="fill:none;stroke:red;stroke-width:1px;stroke-linecap:butt;stroke-linejoin:miter;stroke-opacity:1" d="M 755.403,239.045 755.403,257.552 z" id="boundary" inkscape:connector-curvature="0" />
	<path style="fill:none;stroke:red;stroke-width:1px;stroke-linecap:butt;stroke-linejoin:miter;stroke-opacity:1" d="M 755.403,257.552 764.657,274.209 z" id="boundary" inkscape:connector-curvature="0" />
	<path style="fill:none;stroke:red;stroke-width:1px;stroke-linecap:butt;stroke-linejoin:miter;stroke-opacity:1" d="M 755.403,514.806 755.403,533.313 z" id="boundary" inkscape:connector-curvature="0" />
	<path style="fill:none;stroke:red;stroke-width:1px;stroke-linecap:butt;stroke-linejoin:miter;stroke-opacity:1" d="M 755.403,514.806 764.657,496.299 z" id="boundary" inkscape:connector-curvature="0" />
	<path style="fill:none;stroke:red;stroke-width:1px;stroke-linecap:butt;stroke-linejoin:miter;stroke-opacity:1" d="M 755.403,533.313 755.403,551.821 z" id="boundary" inkscape:connector-curvature="0" />
	<path style="fill:none;stroke:red;stroke-width:1px;stroke-linecap:butt;stroke-linejoin:miter;stroke-opacity:1" d="M 755.403,551.821 755.403,570.328 z" id="boundary" inkscape:connector-curvature="0" />
	<path style="fill:none;stroke:red;stroke-width:1px;stroke-linecap:butt;stroke-linejoin:miter;stroke-opacity:1" d="M 755.403,570.328 755.403,588.836 z" id="boundary" inkscape:connector-curvature="0" />
	<path style="fill:none;stroke:red;stroke-width:1px;stroke-linecap:butt;stroke-linejoin:miter;stroke-opacity:1" d="M 764.657,274.209 764.657,292.716 z" id="boundary" inkscape:connector-curvature="0" />
	<path style="fill:none;stroke:red;stroke-width:1px;stroke-linecap:butt;stroke-linejoin:miter;stroke-opacity:1" d="M 764.657,292.716 783.164,290.866 z" id="boundary" inkscape:connector-curvature="0" />
	<path style="fill:none;stroke:red;stroke-width:1px;stroke-linecap:butt;stroke-linejoin:miter;stroke-opacity:1" d="M 764.657,477.791 764.657,496.299 z" id="boundary" inkscape:connector-curvature="0" />
	<path style="fill:none;stroke:red;stroke-width:1px;stroke-linecap:butt;stroke-linejoin:miter;stroke-opacity:1" d="M 781.313,487.045 799.821,487.045 z" id="boundary" inkscape:connector-curvature="0" />
	<path style="fill:none;stroke:red;stroke-width:1px;stroke-linecap:butt;stroke-linejoin:miter;stroke-opacity:1" d="M 783.164,290.866 801.672,285.313 z" id="boundary" inkscape:connector-curvature="0" />
	<path style="fill:none;stroke:red;stroke-width:1px;stroke-linecap:butt;stroke-linejoin:miter;stroke-opacity:1" d="M 799.821,487.045 816.478,496.299 z" id="boundary" inkscape:connector-curvature="0" />
	<path style="fill:none;stroke:red;stroke-width:1px;stroke-linecap:butt;stroke-linejoin:miter;stroke-opacity:1" d="M 801.672,285.313 820.179,281.612 z" id="boundary" inkscape:connector-curvature="0" />
	<path style="fill:none;stroke:red;stroke-width:1px;stroke-linecap:butt;stroke-linejoin:miter;stroke-opacity:1" d="M 816.478,496.299 834.985,496.299 z" id="boundary" inkscape:connector-curvature="0" />
	<path style="fill:none;stroke:red;stroke-width:1px;stroke-linecap:butt;stroke-linejoin:miter;stroke-opacity:1" d="M 820.179,281.612 838.687,281.612 z" id="boundary" inkscape:connector-curvature="0" />
	<path style="fill:none;stroke:red;stroke-width:1px;stroke-linecap:butt;stroke-linejoin:miter;stroke-opacity:1" d="M 834.985,496.299 851.642,505.552 z" id="boundary" inkscape:connector-curvature="0" />
	<path style="fill:none;stroke:red;stroke-width:1px;stroke-linecap:butt;stroke-linejoin:miter;stroke-opacity:1" d="M 838.687,281.612 855.343,272.358 z" id="boundary" inkscape:connector-curvature="0" />
	<path style="fill:none;stroke:red;stroke-width:1px;stroke-linecap:butt;stroke-linejoin:miter;stroke-opacity:1" d="M 851.642,505.552 870.149,512.955 z" id="boundary" inkscape:connector-curvature="0" />
	<path style="fill:none;stroke:red;stroke-width:1px;stroke-linecap:butt;stroke-linejoin:miter;stroke-opacity:1" d="M 855.343,272.358 872,263.104 z" id="boundary" inkscape:connector-curvature="0" />
	<path style="fill:none;stroke:red;stroke-width:1px;stroke-linecap:butt;stroke-linejoin:miter;stroke-opacity:1" d="M 870.149,512.955 884.955,524.06 z" id="boundary" inkscape:connector-curvature="0" />
	<path style="fill:none;stroke:red;stroke-width:1px;stroke-linecap:butt;stroke-linejoin:miter;stroke-opacity:1" d="M 872,263.104 888.657,253.851 z" id="boundary" inkscape:connector-curvature="0" />
	<path style="fill:none;stroke:red;stroke-width:1px;stroke-linecap:butt;stroke-linejoin:miter;stroke-opacity:1" d="M 884.955,524.06 901.612,533.313 z" id="boundary" inkscape:connector-curvature="0" />
	<path style="fill:none;stroke:red;stroke-width:1px;stroke-linecap:butt;stroke-linejoin:miter;stroke-opacity:1" d="M 888.657,253.851 903.463,239.045 z" id="boundary" inkscape:connector-curvature="0" />
	<path style="fill:none;stroke:red;stroke-width:1px;stroke-linecap:butt;stroke-linejoin:miter;stroke-opacity:1" d="M 901.612,533.313 918.269,542.567 z" id="boundary" inkscape:connector-curvature="0" />
	<path style="fill:none;stroke:red;stroke-width:1px;stroke-linecap:butt;stroke-linejoin:miter;stroke-opacity:1" d="M 903.463,239.045 921.97,235.343 z" id="boundary" inkscape:connector-curvature="0" />
	<path style="fill:none;stroke:red;stroke-width:1px;stroke-linecap:butt;stroke-linejoin:miter;stroke-opacity:1" d="M 918.269,542.567 931.224,557.373 z" id="boundary" inkscape:connector-curvature="0" />
	<path style="fill:none;stroke:red;stroke-width:1px;stroke-linecap:butt;stroke-linejoin:miter;stroke-opacity:1" d="M 921.97,235.343 933.075,218.687 z" id="boundary" inkscape:connector-curvature="0" />
	<path style="fill:none;stroke:red;stroke-width:1px;stroke-linecap:butt;stroke-linejoin:miter;stroke-opacity:1" d="M 931.224,557.373 946.03,570.328 z" id="boundary" inkscape:connector-curvature="0" />
	<path style="fill:none;stroke:red;stroke-width:1px;stroke-linecap:butt;stroke-linejoin:miter;stroke-opacity:1" d="M 933.075,218.687 947.881,207.582 z" id="boundary" inkscape:connector-curvature="0" />
	<path style="fill:none;stroke:red;stroke-width:1px;stroke-linecap:butt;stroke-linejoin:miter;stroke-opacity:1" d="M 946.03,570.328 964.537,570.328 z" id="boundary" inkscape:connector-curvature="0" />
	<path style="fill:none;stroke:red;stroke-width:1px;stroke-linecap:butt;stroke-linejoin:miter;stroke-opacity:1" d="M 947.881,207.582 966.388,207.582 z" id="boundary" inkscape:connector-curvature="0" />
	<path style="fill:none;stroke:red;stroke-width:1px;stroke-linecap:butt;stroke-linejoin:miter;stroke-opacity:1" d="M 964.537,570.328 983.045,570.328 z" id="boundary" inkscape:connector-curvature="0" />
	<path style="fill:none;stroke:red;stroke-width:1px;stroke-linecap:butt;stroke-linejoin:miter;stroke-opacity:1" d="M 966.388,207.582 984.896,207.582 z" id="boundary" inkscape:connector-curvature="0" />
	<path style="fill:none;stroke:red;stroke-width:1px;stroke-linecap:butt;stroke-linejoin:miter;stroke-opacity:1" d="M 968.239,283.463 968.239,301.97 z" id="boundary" inkscape:connector-curvature="0" />
	<path style="fill:none;stroke:red;stroke-width:1px;stroke-linecap:butt;stroke-linejoin:miter;stroke-opacity:1" d="M 968.239,283.463 977.493,264.955 z" id="boundary" inkscape:connector-curvature="0" />
	<path style="fill:none;stroke:red;stroke-width:1px;stroke-linecap:butt;stroke-linejoin:miter;stroke-opacity:1" d="M 968.239,301.97 968.239,320.478 z" id="boundary" inkscape:connector-curvature="0" />
	<path style="fill:none;stroke:red;stroke-width:1px;stroke-linecap:butt;stroke-linejoin:miter;stroke-opacity:1" d="M 968.239,320.478 977.493,337.134 z" id="boundary" inkscape:connector-curvature="0" />
	<path style="fill:none;stroke:red;stroke-width:1px;stroke-linecap:butt;stroke-linejoin:miter;stroke-opacity:1" d="M 968.239,376 968.239,394.507 z" id="boundary" inkscape:connector-curvature="0" />
	<path style="fill:none;stroke:red;stroke-width:1px;stroke-linecap:butt;stroke-linejoin:miter;stroke-opacity:1" d="M 968.239,376 977.493,355.642 z" id="boundary" inkscape:connector-curvature="0" />
	<path style="fill:none;stroke:red;stroke-width:1px;stroke-linecap:butt;stroke-linejoin:miter;stroke-opacity:1" d="M 968.239,394.507 977.493,411.164 z" id="boundary" inkscape:connector-curvature="0" />
	<path style="fill:none;stroke:red;stroke-width:1px;stroke-linecap:butt;stroke-linejoin:miter;stroke-opacity:1" d="M 968.239,450.03 968.239,468.537 z" id="boundary" inkscape:connector-curvature="0" />
	<path style="fill:none;stroke:red;stroke-width:1px;stroke-linecap:butt;stroke-linejoin:miter;stroke-opacity:1" d="M 968.239,450.03 977.493,429.672 z" id="boundary" inkscape:connector-curvature="0" />
	<path style="fill:none;stroke:red;stroke-width:1px;stroke-linecap:butt;stroke-linejoin:miter;stroke-opacity:1" d="M 968.239,468.537 968.239,487.045 z" id="boundary" inkscape:connector-curvature="0" />
	<path style="fill:none;stroke:red;stroke-width:1px;stroke-linecap:butt;stroke-linejoin:miter;stroke-opacity:1" d="M 968.239,487.045 977.493,503.701 z" id="boundary" inkscape:connector-curvature="0" />
	<path style="fill:none;stroke:red;stroke-width:1px;stroke-linecap:butt;stroke-linejoin:miter;stroke-opacity:1" d="M 977.493,264.955 986.746,237.194 z" id="boundary" inkscape:connector-curvature="0" />
	<path style="fill:none;stroke:red;stroke-width:1px;stroke-linecap:butt;stroke-linejoin:miter;stroke-opacity:1" d="M 977.493,337.134 977.493,355.642 z" id="boundary" inkscape:connector-curvature="0" />
	<path style="fill:none;stroke:red;stroke-width:1px;stroke-linecap:butt;stroke-linejoin:miter;stroke-opacity:1" d="M 977.493,411.164 977.493,429.672 z" id="boundary" inkscape:connector-curvature="0" />
	<path style="fill:none;stroke:red;stroke-width:1px;stroke-linecap:butt;stroke-linejoin:miter;stroke-opacity:1" d="M 977.493,503.701 986.746,520.358 z" id="boundary" inkscape:connector-curvature="0" />
	<path style="fill:none;stroke:red;stroke-width:1px;stroke-linecap:butt;stroke-linejoin:miter;stroke-opacity:1" d="M 983.045,570.328 996,555.522 z" id="boundary" inkscape:connector-curvature="0" />
	<path style="fill:none;stroke:red;stroke-width:1px;stroke-linecap:butt;stroke-linejoin:miter;stroke-opacity:1" d="M 984.896,207.582 986.746,237.194 z" id="boundary" inkscape:connector-curvature="0" />
	<path style="fill:none;stroke:red;stroke-width:1px;stroke-linecap:butt;stroke-linejoin:miter;stroke-opacity:1" d="M 986.746,520.358 986.746,538.866 z" id="boundary" inkscape:connector-curvature="0" />
	<path style="fill:none;stroke:red;stroke-width:1px;stroke-linecap:butt;stroke-linejoin:miter;stroke-opacity:1" d="M 986.746,538.866 996,555.522 z" id="boundary" inkscape:connector-curvature="0" />
	<circle cx="4" cy="388.955" r="4" fill="#0" id="circle0"/>
	<circle cx="22.5075" cy="383.403" r="4" fill="#0" id="circle1"/>
	<circle cx="33.6119" cy="398.209" r="4" fill="#0" id="circle2"/>
	<circle cx="39.1642" cy="374.149" r="4" fill="#0" id="circle3"/>
	<circle cx="50.2687" cy="407.463" r="4" fill="#0" id="circle4"/>
	<circle cx="55.8209" cy="364.896" r="4" fill="#0" id="circle5"/>
	<circle cx="68.7761" cy="413.015" r="4" fill="#0" id="circle6"/>
	<circle cx="74.3284" cy="364.896" r="4" fill="#0" id="circle7"/>
	<circle cx="87.2836" cy="413.015" r="4" fill="#0" id="circle8"/>
	<circle cx="92.8358" cy="364.896" r="4" fill="#0" id="circle9"/>
	<circle cx="105.791" cy="413.015" r="4" fill="#0" id="circle10"/>
	<circle cx="111.343" cy="364.896" r="4" fill="#0" id="circle11"/>
	<circle cx="124.299" cy="413.015" r="4" fill="#0" id="circle12"/>
	<circle cx="129.851" cy="364.896" r="4" fill="#0" id="circle13"/>
	<circle cx="140.955" cy="422.269" r="4" fill="#0" id="circle14"/>
	<circle cx="148.358" cy="355.642" r="4" fill="#0" id="circle15"/>
	<circle cx="159.463" cy="422.269" r="4" fill="#0" id="circle16"/>
	<circle cx="166.866" cy="355.642" r="4" fill="#0" id="circle17"/>
	<circle cx="177.97" cy="422.269" r="4" fill="#0" id="circle18"/>
	<circle cx="185.373" cy="355.642" r="4" fill="#0" id="circle19"/>
	<circle cx="196.478" cy="422.269" r="4" fill="#0" id="circle20"/>
	<circle cx="203.881" cy="355.642" r="4" fill="#0" id="circle21"/>
	<circle cx="213.134" cy="431.522" r="4" fill="#0" id="circle22"/>
	<circle cx="220.537" cy="346.388" r="4" fill="#0" id="circle23"/>
	<circle cx="231.642" cy="431.522" r="4" fill="#0" id="circle24"/>
	<circle cx="239.045" cy="346.388" r="4" fill="#0" id="circle25"/>
	<circle cx="246.448" cy="444.478" r="4" fill="#0" id="circle26"/>
	<circle cx="248.299" cy="329.731" r="4" fill="#0" id="circle27"/>
	<circle cx="264.955" cy="450.03" r="4" fill="#0" id="circle28"/>
	<circle cx="266.806" cy="327.881" r="4" fill="#0" id="circle29"/>
	<circle cx="283.463" cy="453.731" r="4" fill="#0" id="circle30"/>
	<circle cx="285.313" cy="320.478" r="4" fill="#0" id="circle31"/>
	<circle cx="301.97" cy="459.284" r="4" fill="#0" id="circle32"/>
	<circle cx="303.821" cy="318.627" r="4" fill="#0" id="circle33"/>
	<circle cx="320.478" cy="459.284" r="4" fill="#0" id="circle34"/>
	<circle cx="322.328" cy="318.627" r="4" fill="#0" id="circle35"/>
	<circle cx="337.134" cy="468.537" r="4" fill="#0" id="circle36"/>
	<circle cx="338.985" cy="309.373" r="4" fill="#0" id="circle37"/>
	<circle cx="355.642" cy="468.537" r="4" fill="#0" id="circle38"/>
	<circle cx="357.493" cy="309.373" r="4" fill="#0" id="circle39"/>
	<circle cx="372.299" cy="477.791" r="4" fill="#0" id="circle40"/>
	<circle cx="374.149" cy="300.119" r="4" fill="#0" id="circle41"/>
	<circle cx="390.806" cy="477.791" r="4" fill="#0" id="circle42"/>
	<circle cx="392.657" cy="300.119" r="4" fill="#0" id="circle43"/>
	<circle cx="409.313" cy="477.791" r="4" fill="#0" id="circle44"/>
	<circle cx="411.164" cy="296.418" r="4" fill="#0" id="circle45"/>
	<circle cx="425.97" cy="487.045" r="4" fill="#0" id="circle46"/>
	<circle cx="429.672" cy="290.866" r="4" fill="#0" id="circle47"/>
	<circle cx="444.478" cy="487.045" r="4" fill="#0" id="circle48"/>
	<circle cx="448.179" cy="287.164" r="4" fill="#0" id="circle49"/>
	<circle cx="461.134" cy="496.299" r="4" fill="#0" id="circle50"/>
	<circle cx="466.687" cy="281.612" r="4" fill="#0" id="circle51"/>
	<circle cx="479.642" cy="496.299" r="4" fill="#0" id="circle52"/>
	<circle cx="485.194" cy="277.91" r="4" fill="#0" id="circle53"/>
	<circle cx="496.299" cy="505.552" r="4" fill="#0" id="circle54"/>
	<circle cx="503.701" cy="272.358" r="4" fill="#0" id="circle55"/>
	<circle cx="514.806" cy="505.552" r="4" fill="#0" id="circle56"/>
	<circle cx="522.209" cy="272.358" r="4" fill="#0" id="circle57"/>
	<circle cx="531.463" cy="514.806" r="4" fill="#0" id="circle58"/>
	<circle cx="533.313" cy="257.552" r="4" fill="#0" id="circle59"/>
	<circle cx="540.716" cy="531.463" r="4" fill="#0" id="circle60"/>
	<circle cx="542.567" cy="239.045" r="4" fill="#0" id="circle61"/>
	<circle cx="549.97" cy="213.134" r="4" fill="#0" id="circle62"/>
	<circle cx="549.97" cy="548.119" r="4" fill="#0" id="circle63"/>
	<circle cx="551.821" cy="566.627" r="4" fill="#0" id="circle64"/>
	<circle cx="559.224" cy="194.627" r="4" fill="#0" id="circle65"/>
	<circle cx="561.075" cy="583.284" r="4" fill="#0" id="circle66"/>
	<circle cx="568.478" cy="176.119" r="4" fill="#0" id="circle67"/>
	<circle cx="568.478" cy="601.791" r="4" fill="#0" id="circle68"/>
	<circle cx="577.731" cy="157.612" r="4" fill="#0" id="circle69"/>
	<circle cx="577.731" cy="618.448" r="4" fill="#0" id="circle70"/>
	<circle cx="586.985" cy="139.104" r="4" fill="#0" id="circle71"/>
	<circle cx="586.985" cy="635.104" r="4" fill="#0" id="circle72"/>
	<circle cx="596.239" cy="111.343" r="4" fill="#0" id="circle73"/>
	<circle cx="596.239" cy="651.761" r="4" fill="#0" id="circle74"/>
	<circle cx="599.94" cy="670.269" r="4" fill="#0" id="circle75"/>
	<circle cx="614.746" cy="92.8358" r="4" fill="#0" id="circle76"/>
	<circle cx="614.746" cy="681.373" r="4" fill="#0" id="circle77"/>
	<circle cx="624" cy="74.3284" r="4" fill="#0" id="circle78"/>
	<circle cx="624" cy="698.03" r="4" fill="#0" id="circle79"/>
	<circle cx="633.254" cy="55.8209" r="4" fill="#0" id="circle80"/>
	<circle cx="633.254" cy="714.687" r="4" fill="#0" id="circle81"/>
	<circle cx="642.507" cy="37.3134" r="4" fill="#0" id="circle82"/>
	<circle cx="642.507" cy="731.343" r="4" fill="#0" id="circle83"/>
	<circle cx="642.507" cy="749.851" r="4" fill="#0" id="circle84"/>
	<circle cx="651.761" cy="9.55224" r="4" fill="#0" id="circle85"/>
	<circle cx="661.015" cy="755.403" r="4" fill="#0" id="circle86"/>
	<circle cx="666.567" cy="773.91" r="4" fill="#0" id="circle87"/>
	<circle cx="670.269" cy="4" r="4" fill="#0" id="circle88"/>
	<circle cx="685.075" cy="773.91" r="4" fill="#0" id="circle89"/>
	<circle cx="688.776" cy="4" r="4" fill="#0" id="circle90"/>
	<circle cx="703.582" cy="773.91" r="4" fill="#0" id="circle91"/>
	<circle cx="707.284" cy="4" r="4" fill="#0" id="circle92"/>
	<circle cx="722.09" cy="773.91" r="4" fill="#0" id="circle93"/>
	<circle cx="725.791" cy="4" r="4" fill="#0" id="circle94"/>
	<circle cx="736.896" cy="18.806" r="4" fill="#0" id="circle95"/>
	<circle cx="736.896" cy="37.3134" r="4" fill="#0" id="circle96"/>
	<circle cx="736.896" cy="55.8209" r="4" fill="#0" id="circle97"/>
	<circle cx="736.896" cy="718.388" r="4" fill="#0" id="circle98"/>
	<circle cx="736.896" cy="736.896" r="4" fill="#0" id="circle99"/>
	<circle cx="736.896" cy="755.403" r="4" fill="#0" id="circle100"/>
	<circle cx="746.149" cy="72.4776" r="4" fill="#0" id="circle101"/>
	<circle cx="746.149" cy="90.9851" r="4" fill="#0" id="circle102"/>
	<circle cx="746.149" cy="109.493" r="4" fill="#0" id="circle103"/>
	<circle cx="746.149" cy="128" r="4" fill="#0" id="circle104"/>
	<circle cx="746.149" cy="146.507" r="4" fill="#0" id="circle105"/>
	<circle cx="746.149" cy="616.597" r="4" fill="#0" id="circle106"/>
	<circle cx="746.149" cy="635.104" r="4" fill="#0" id="circle107"/>
	<circle cx="746.149" cy="653.612" r="4" fill="#0" id="circle108"/>
	<circle cx="746.149" cy="672.119" r="4" fill="#0" id="circle109"/>
	<circle cx="746.149" cy="690.627" r="4" fill="#0" id="circle110"/>
	<circle cx="751.701" cy="165.015" r="4" fill="#0" id="circle111"/>
	<circle cx="755.403" cy="183.522" r="4" fill="#0" id="circle112"/>
	<circle cx="755.403" cy="202.03" r="4" fill="#0" id="circle113"/>
	<circle cx="755.403" cy="220.537" r="4" fill="#0" id="circle114"/>
	<circle cx="755.403" cy="239.045" r="4" fill="#0" id="circle115"/>
	<circle cx="755.403" cy="257.552" r="4" fill="#0" id="circle116"/>
	<circle cx="755.403" cy="514.806" r="4" fill="#0" id="circle117"/>
	<circle cx="755.403" cy="533.313" r="4" fill="#0" id="circle118"/>
	<circle cx="755.403" cy="551.821" r="4" fill="#0" id="circle119"/>
	<circle cx="755.403" cy="570.328" r="4" fill="#0" id="circle120"/>
	<circle cx="755.403" cy="588.836" r="4" fill="#0" id="circle121"/>
	<circle cx="764.657" cy="274.209" r="4" fill="#0" id="circle122"/>
	<circle cx="764.657" cy="292.716" r="4" fill="#0" id="circle123"/>
	<circle cx="764.657" cy="477.791" r="4" fill="#0" id="circle124"/>
	<circle cx="764.657" cy="496.299" r="4" fill="#0" id="circle125"/>
	<circle cx="781.313" cy="487.045" r="4" fill="#0" id="circle126"/>
	<circle cx="783.164" cy="290.866" r="4" fill="#0" id="circle127"/>
	<circle cx="799.821" cy="487.045" r="4" fill="#0" id="circle128"/>
	<circle cx="801.672" cy="285.313" r="4" fill="#0" id="circle129"/>
	<circle cx="816.478" cy="496.299" r="4" fill="#0" id="circle130"/>
	<circle cx="820.179" cy="281.612" r="4" fill="#0" id="circle131"/>
	<circle cx="834.985" cy="496.299" r="4" fill="#0" id="circle132"/>
	<circle cx="838.687" cy="281.612" r="4" fill="#0" id="circle133"/>
	<circle cx="851.642" cy="505.552" r="4" fill="#0" id="circle134"/>
	<circle cx="855.343" cy="272.358" r="4" fill="#0" id="circle135"/>
	<circle cx="870.149" cy="512.955" r="4" fill="#0" id="circle136"/>
	<circle cx="872" cy="263.104" r="4" fill="#0" id="circle137"/>
	<circle cx="884.955" cy="524.06" r="4" fill="#0" id="circle138"/>
	<circle cx="888.657" cy="253.851" r="4" fill="#0" id="circle139"/>
	<circle cx="901.612" cy="533.313" r="4" fill="#0" id="circle140"/>
	<circle cx="903.463" cy="239.045" r="4" fill="#0" id="circle141"/>
	<circle cx="918.269" cy="542.567" r="4" fill="#0" id="circle142"/>
	<circle cx="921.97" cy="235.343" r="4" fill="#0" id="circle143"/>
	<circle cx="931.224" cy="557.373" r="4" fill="#0" id="circle144"/>
	<circle cx="933.075" cy="218.687" r="4" fill="#0" id="circle145"/>
	<circle cx="946.03" cy="570.328" r="4" fill="#0" id="circle146"/>
	<circle cx="947.881" cy="207.582" r="4" fill="#0" id="circle147"/>
	<circle cx="964.537" cy="570.328" r="4" fill="#0" id="circle148"/>
	<circle cx="966.388" cy="207.582" r="4" fill="#0" id="circle149"/>
	<circle cx="968.239" cy="283.463" r="4" fill="#0" id="circle150"/>
	<circle cx="968.239" cy="301.97" r="4" fill="#0" id="circle151"/>
	<circle cx="968.239" cy="320.478" r="4" fill="#0" id="circle152"/>
	<circle cx="968.239" cy="376" r="4" fill="#0" id="circle153"/>
	<circle cx="968.239" cy="394.507" r="4" fill="#0" id="circle154"/>
	<circle cx="968.239" cy="450.03" r="4" fill="#0" id="circle155"/>
	<circle cx="968.239" cy="468.537" r="4" fill="#0" id="circle156"/>
	<circle cx="968.239" cy="487.045" r="4" fill="#0" id="circle157"/>
	<circle cx="977.493" cy="264.955" r="4" fill="#0" id="circle158"/>
	<circle cx="977.493" cy="337.134" r="4" fill="#0" id="circle159"/>
	<circle cx="977.493" cy="355.642" r="4" fill="#0" id="circle160"/>
	<circle cx="977.493" cy="411.164" r="4" fill="#0" id="circle161"/>
	<circle cx="977.493" cy="429.672" r="4" fill="#0" id="circle162"/>
	<circle cx="977.493" cy="503.701" r="4" fill="#0" id="circle163"/>
	<circle cx="983.045" cy="570.328" r="4" fill="#0" id="circle164"/>
	<circle cx="984.896" cy="207.582" r="4" fill="#0" id="circle165"/>
	<circle cx="986.746" cy="237.194" r="4" fill="#0" id="circle166"/>
	<circle cx="986.746" cy="520.358" r="4" fill="#0" id="circle167"/>
	<circle cx="986.746" cy="538.866" r="4" fill="#0" id="circle168"/>
	<circle cx="996" cy="555.522" r="4" fill="#0" id="circle169"/>
	</g>
</svg>