<?xml version="1.0" encoding="UTF-8" standalone="no"?>
<!-- Created with CurveBenchmark -->
<svg
	xmlns:dc="http://purl.org/dc/elements/1.1/"
	xmlns:cc="http://creativecommons.org/ns#"
	xmlns:rdf="http://www.w3.org/1999/02/22-rdf-syntax-ns#"
	xmlns:svg="http://www.w3.org/2000/svg"
	xmlns="http://www.w3.org/2000/svg"
	xmlns:sodipodi="http://sodipodi.sourceforge.net/DTD/sodipodi-0.dtd"
	xmlns:inkscape="http://www.inkscape.org/namespaces/inkscape"
	width="1000"
	height="1000"
	id="svg2"
	version="1.1"
	sodipodi:docname="manifold/hnncrust-tool13.png.txt">
<defs
	id="defs4" />
<metadata
	id="metadata7">
	<rdf:RDF>
		<cc:Work
			rdf:about="">
			<dc:format>image/svg+xml</dc:format>
			<dc:type
				rdf:resource="http://purl.org/dc/dcmitype/StillImage" />
			<dc:title></dc:title>
		</cc:Work>
	</rdf:RDF>
</metadata>
<g
	inkscape:label="Layer 1"
	inkscape:groupmode="layer"
	id="layer1">
	<path style="fill:none;stroke:red;stroke-width:1px;stroke-linecap:butt;stroke-linejoin:miter;stroke-opacity:1" d="M 4,26.2921 4,54.1573 z" id="boundary" inkscape:connector-curvature="0" />
	<path style="fill:none;stroke:red;stroke-width:1px;stroke-linecap:butt;stroke-linejoin:miter;stroke-opacity:1" d="M 4,26.2921 26.2921,4 z" id="boundary" inkscape:connector-curvature="0" />
	<path style="fill:none;stroke:red;stroke-width:1px;stroke-linecap:butt;stroke-linejoin:miter;stroke-opacity:1" d="M 4,54.1573 17.9326,79.236 z" id="boundary" inkscape:connector-curvature="0" />
	<path style="fill:none;stroke:red;stroke-width:1px;stroke-linecap:butt;stroke-linejoin:miter;stroke-opacity:1" d="M 17.9326,79.236 31.8652,104.315 z" id="boundary" inkscape:connector-curvature="0" />
	<path style="fill:none;stroke:red;stroke-width:1px;stroke-linecap:butt;stroke-linejoin:miter;stroke-opacity:1" d="M 26.2921,4 54.1573,4 z" id="boundary" inkscape:connector-curvature="0" />
	<path style="fill:none;stroke:red;stroke-width:1px;stroke-linecap:butt;stroke-linejoin:miter;stroke-opacity:1" d="M 31.8652,104.315 40.2247,132.18 z" id="boundary" inkscape:connector-curvature="0" />
	<path style="fill:none;stroke:red;stroke-width:1px;stroke-linecap:butt;stroke-linejoin:miter;stroke-opacity:1" d="M 40.2247,132.18 45.7978,160.045 z" id="boundary" inkscape:connector-curvature="0" />
	<path style="fill:none;stroke:red;stroke-width:1px;stroke-linecap:butt;stroke-linejoin:miter;stroke-opacity:1" d="M 45.7978,160.045 62.5169,182.337 z" id="boundary" inkscape:connector-curvature="0" />
	<path style="fill:none;stroke:red;stroke-width:1px;stroke-linecap:butt;stroke-linejoin:miter;stroke-opacity:1" d="M 54.1573,4 82.0225,4 z" id="boundary" inkscape:connector-curvature="0" />
	<path style="fill:none;stroke:red;stroke-width:1px;stroke-linecap:butt;stroke-linejoin:miter;stroke-opacity:1" d="M 62.5169,182.337 76.4494,207.416 z" id="boundary" inkscape:connector-curvature="0" />
	<path style="fill:none;stroke:red;stroke-width:1px;stroke-linecap:butt;stroke-linejoin:miter;stroke-opacity:1" d="M 76.4494,207.416 87.5955,235.281 z" id="boundary" inkscape:connector-curvature="0" />
	<path style="fill:none;stroke:red;stroke-width:1px;stroke-linecap:butt;stroke-linejoin:miter;stroke-opacity:1" d="M 82.0225,4 104.315,20.7191 z" id="boundary" inkscape:connector-curvature="0" />
	<path style="fill:none;stroke:red;stroke-width:1px;stroke-linecap:butt;stroke-linejoin:miter;stroke-opacity:1" d="M 87.5955,235.281 101.528,260.36 z" id="boundary" inkscape:connector-curvature="0" />
	<path style="fill:none;stroke:red;stroke-width:1px;stroke-linecap:butt;stroke-linejoin:miter;stroke-opacity:1" d="M 101.528,260.36 115.461,285.438 z" id="boundary" inkscape:connector-curvature="0" />
	<path style="fill:none;stroke:red;stroke-width:1px;stroke-linecap:butt;stroke-linejoin:miter;stroke-opacity:1" d="M 104.315,20.7191 118.247,45.7978 z" id="boundary" inkscape:connector-curvature="0" />
	<path style="fill:none;stroke:red;stroke-width:1px;stroke-linecap:butt;stroke-linejoin:miter;stroke-opacity:1" d="M 115.461,285.438 129.393,310.517 z" id="boundary" inkscape:connector-curvature="0" />
	<path style="fill:none;stroke:red;stroke-width:1px;stroke-linecap:butt;stroke-linejoin:miter;stroke-opacity:1" d="M 118.247,45.7978 132.18,70.8764 z" id="boundary" inkscape:connector-curvature="0" />
	<path style="fill:none;stroke:red;stroke-width:1px;stroke-linecap:butt;stroke-linejoin:miter;stroke-opacity:1" d="M 129.393,310.517 146.112,332.809 z" id="boundary" inkscape:connector-curvature="0" />
	<path style="fill:none;stroke:red;stroke-width:1px;stroke-linecap:butt;stroke-linejoin:miter;stroke-opacity:1" d="M 132.18,70.8764 154.472,90.382 z" id="boundary" inkscape:connector-curvature="0" />
	<path style="fill:none;stroke:red;stroke-width:1px;stroke-linecap:butt;stroke-linejoin:miter;stroke-opacity:1" d="M 146.112,332.809 157.258,360.674 z" id="boundary" inkscape:connector-curvature="0" />
	<path style="fill:none;stroke:red;stroke-width:1px;stroke-linecap:butt;stroke-linejoin:miter;stroke-opacity:1" d="M 154.472,90.382 165.618,118.247 z" id="boundary" inkscape:connector-curvature="0" />
	<path style="fill:none;stroke:red;stroke-width:1px;stroke-linecap:butt;stroke-linejoin:miter;stroke-opacity:1" d="M 157.258,360.674 171.191,385.753 z" id="boundary" inkscape:connector-curvature="0" />
	<path style="fill:none;stroke:red;stroke-width:1px;stroke-linecap:butt;stroke-linejoin:miter;stroke-opacity:1" d="M 165.618,118.247 173.978,146.112 z" id="boundary" inkscape:connector-curvature="0" />
	<path style="fill:none;stroke:red;stroke-width:1px;stroke-linecap:butt;stroke-linejoin:miter;stroke-opacity:1" d="M 171.191,385.753 185.124,410.831 z" id="boundary" inkscape:connector-curvature="0" />
	<path style="fill:none;stroke:red;stroke-width:1px;stroke-linecap:butt;stroke-linejoin:miter;stroke-opacity:1" d="M 173.978,146.112 187.91,171.191 z" id="boundary" inkscape:connector-curvature="0" />
	<path style="fill:none;stroke:red;stroke-width:1px;stroke-linecap:butt;stroke-linejoin:miter;stroke-opacity:1" d="M 185.124,410.831 199.056,435.91 z" id="boundary" inkscape:connector-curvature="0" />
	<path style="fill:none;stroke:red;stroke-width:1px;stroke-linecap:butt;stroke-linejoin:miter;stroke-opacity:1" d="M 187.91,171.191 210.202,187.91 z" id="boundary" inkscape:connector-curvature="0" />
	<path style="fill:none;stroke:red;stroke-width:1px;stroke-linecap:butt;stroke-linejoin:miter;stroke-opacity:1" d="M 199.056,435.91 212.989,460.989 z" id="boundary" inkscape:connector-curvature="0" />
	<path style="fill:none;stroke:red;stroke-width:1px;stroke-linecap:butt;stroke-linejoin:miter;stroke-opacity:1" d="M 210.202,187.91 221.348,215.775 z" id="boundary" inkscape:connector-curvature="0" />
	<path style="fill:none;stroke:red;stroke-width:1px;stroke-linecap:butt;stroke-linejoin:miter;stroke-opacity:1" d="M 212.989,460.989 226.921,486.067 z" id="boundary" inkscape:connector-curvature="0" />
	<path style="fill:none;stroke:red;stroke-width:1px;stroke-linecap:butt;stroke-linejoin:miter;stroke-opacity:1" d="M 221.348,215.775 235.281,240.854 z" id="boundary" inkscape:connector-curvature="0" />
	<path style="fill:none;stroke:red;stroke-width:1px;stroke-linecap:butt;stroke-linejoin:miter;stroke-opacity:1" d="M 226.921,486.067 226.921,513.933 z" id="boundary" inkscape:connector-curvature="0" />
	<path style="fill:none;stroke:red;stroke-width:1px;stroke-linecap:butt;stroke-linejoin:miter;stroke-opacity:1" d="M 226.921,513.933 249.213,533.438 z" id="boundary" inkscape:connector-curvature="0" />
	<path style="fill:none;stroke:red;stroke-width:1px;stroke-linecap:butt;stroke-linejoin:miter;stroke-opacity:1" d="M 235.281,240.854 243.64,268.719 z" id="boundary" inkscape:connector-curvature="0" />
	<path style="fill:none;stroke:red;stroke-width:1px;stroke-linecap:butt;stroke-linejoin:miter;stroke-opacity:1" d="M 243.64,268.719 257.573,293.798 z" id="boundary" inkscape:connector-curvature="0" />
	<path style="fill:none;stroke:red;stroke-width:1px;stroke-linecap:butt;stroke-linejoin:miter;stroke-opacity:1" d="M 249.213,533.438 260.36,561.303 z" id="boundary" inkscape:connector-curvature="0" />
	<path style="fill:none;stroke:red;stroke-width:1px;stroke-linecap:butt;stroke-linejoin:miter;stroke-opacity:1" d="M 257.573,293.798 285.438,304.944 z" id="boundary" inkscape:connector-curvature="0" />
	<path style="fill:none;stroke:red;stroke-width:1px;stroke-linecap:butt;stroke-linejoin:miter;stroke-opacity:1" d="M 260.36,561.303 274.292,586.382 z" id="boundary" inkscape:connector-curvature="0" />
	<path style="fill:none;stroke:red;stroke-width:1px;stroke-linecap:butt;stroke-linejoin:miter;stroke-opacity:1" d="M 274.292,586.382 282.652,614.247 z" id="boundary" inkscape:connector-curvature="0" />
	<path style="fill:none;stroke:red;stroke-width:1px;stroke-linecap:butt;stroke-linejoin:miter;stroke-opacity:1" d="M 282.652,614.247 296.584,639.326 z" id="boundary" inkscape:connector-curvature="0" />
	<path style="fill:none;stroke:red;stroke-width:1px;stroke-linecap:butt;stroke-linejoin:miter;stroke-opacity:1" d="M 282.652,778.652 282.652,806.517 z" id="boundary" inkscape:connector-curvature="0" />
	<path style="fill:none;stroke:red;stroke-width:1px;stroke-linecap:butt;stroke-linejoin:miter;stroke-opacity:1" d="M 282.652,778.652 304.944,756.36 z" id="boundary" inkscape:connector-curvature="0" />
	<path style="fill:none;stroke:red;stroke-width:1px;stroke-linecap:butt;stroke-linejoin:miter;stroke-opacity:1" d="M 282.652,806.517 282.652,834.382 z" id="boundary" inkscape:connector-curvature="0" />
	<path style="fill:none;stroke:red;stroke-width:1px;stroke-linecap:butt;stroke-linejoin:miter;stroke-opacity:1" d="M 282.652,834.382 296.584,859.461 z" id="boundary" inkscape:connector-curvature="0" />
	<path style="fill:none;stroke:red;stroke-width:1px;stroke-linecap:butt;stroke-linejoin:miter;stroke-opacity:1" d="M 285.438,304.944 285.438,332.809 z" id="boundary" inkscape:connector-curvature="0" />
	<path style="fill:none;stroke:red;stroke-width:1px;stroke-linecap:butt;stroke-linejoin:miter;stroke-opacity:1" d="M 285.438,332.809 296.584,360.674 z" id="boundary" inkscape:connector-curvature="0" />
	<path style="fill:none;stroke:red;stroke-width:1px;stroke-linecap:butt;stroke-linejoin:miter;stroke-opacity:1" d="M 296.584,360.674 313.303,382.966 z" id="boundary" inkscape:connector-curvature="0" />
	<path style="fill:none;stroke:red;stroke-width:1px;stroke-linecap:butt;stroke-linejoin:miter;stroke-opacity:1" d="M 296.584,639.326 310.517,664.404 z" id="boundary" inkscape:connector-curvature="0" />
	<path style="fill:none;stroke:red;stroke-width:1px;stroke-linecap:butt;stroke-linejoin:miter;stroke-opacity:1" d="M 296.584,859.461 296.584,887.326 z" id="boundary" inkscape:connector-curvature="0" />
	<path style="fill:none;stroke:red;stroke-width:1px;stroke-linecap:butt;stroke-linejoin:miter;stroke-opacity:1" d="M 296.584,887.326 310.517,912.404 z" id="boundary" inkscape:connector-curvature="0" />
	<path style="fill:none;stroke:red;stroke-width:1px;stroke-linecap:butt;stroke-linejoin:miter;stroke-opacity:1" d="M 304.944,756.36 318.876,728.494 z" id="boundary" inkscape:connector-curvature="0" />
	<path style="fill:none;stroke:red;stroke-width:1px;stroke-linecap:butt;stroke-linejoin:miter;stroke-opacity:1" d="M 310.517,664.404 324.449,689.483 z" id="boundary" inkscape:connector-curvature="0" />
	<path style="fill:none;stroke:red;stroke-width:1px;stroke-linecap:butt;stroke-linejoin:miter;stroke-opacity:1" d="M 310.517,912.404 318.876,940.27 z" id="boundary" inkscape:connector-curvature="0" />
	<path style="fill:none;stroke:red;stroke-width:1px;stroke-linecap:butt;stroke-linejoin:miter;stroke-opacity:1" d="M 313.303,382.966 327.236,408.045 z" id="boundary" inkscape:connector-curvature="0" />
	<path style="fill:none;stroke:red;stroke-width:1px;stroke-linecap:butt;stroke-linejoin:miter;stroke-opacity:1" d="M 318.876,728.494 324.449,689.483 z" id="boundary" inkscape:connector-curvature="0" />
	<path style="fill:none;stroke:red;stroke-width:1px;stroke-linecap:butt;stroke-linejoin:miter;stroke-opacity:1" d="M 318.876,940.27 341.169,959.775 z" id="boundary" inkscape:connector-curvature="0" />
	<path style="fill:none;stroke:red;stroke-width:1px;stroke-linecap:butt;stroke-linejoin:miter;stroke-opacity:1" d="M 327.236,408.045 341.169,433.124 z" id="boundary" inkscape:connector-curvature="0" />
	<path style="fill:none;stroke:red;stroke-width:1px;stroke-linecap:butt;stroke-linejoin:miter;stroke-opacity:1" d="M 341.169,433.124 355.101,458.202 z" id="boundary" inkscape:connector-curvature="0" />
	<path style="fill:none;stroke:red;stroke-width:1px;stroke-linecap:butt;stroke-linejoin:miter;stroke-opacity:1" d="M 341.169,959.775 360.674,982.067 z" id="boundary" inkscape:connector-curvature="0" />
	<path style="fill:none;stroke:red;stroke-width:1px;stroke-linecap:butt;stroke-linejoin:miter;stroke-opacity:1" d="M 355.101,458.202 366.247,486.067 z" id="boundary" inkscape:connector-curvature="0" />
	<path style="fill:none;stroke:red;stroke-width:1px;stroke-linecap:butt;stroke-linejoin:miter;stroke-opacity:1" d="M 360.674,982.067 385.753,996 z" id="boundary" inkscape:connector-curvature="0" />
	<path style="fill:none;stroke:red;stroke-width:1px;stroke-linecap:butt;stroke-linejoin:miter;stroke-opacity:1" d="M 366.247,486.067 388.539,505.573 z" id="boundary" inkscape:connector-curvature="0" />
	<path style="fill:none;stroke:red;stroke-width:1px;stroke-linecap:butt;stroke-linejoin:miter;stroke-opacity:1" d="M 385.753,996 408.045,973.708 z" id="boundary" inkscape:connector-curvature="0" />
	<path style="fill:none;stroke:red;stroke-width:1px;stroke-linecap:butt;stroke-linejoin:miter;stroke-opacity:1" d="M 388.539,505.573 396.899,533.438 z" id="boundary" inkscape:connector-curvature="0" />
	<path style="fill:none;stroke:red;stroke-width:1px;stroke-linecap:butt;stroke-linejoin:miter;stroke-opacity:1" d="M 396.899,533.438 410.831,558.517 z" id="boundary" inkscape:connector-curvature="0" />
	<path style="fill:none;stroke:red;stroke-width:1px;stroke-linecap:butt;stroke-linejoin:miter;stroke-opacity:1" d="M 396.899,898.472 402.472,926.337 z" id="boundary" inkscape:connector-curvature="0" />
	<path style="fill:none;stroke:red;stroke-width:1px;stroke-linecap:butt;stroke-linejoin:miter;stroke-opacity:1" d="M 396.899,898.472 421.978,884.539 z" id="boundary" inkscape:connector-curvature="0" />
	<path style="fill:none;stroke:red;stroke-width:1px;stroke-linecap:butt;stroke-linejoin:miter;stroke-opacity:1" d="M 402.472,926.337 408.045,973.708 z" id="boundary" inkscape:connector-curvature="0" />
	<path style="fill:none;stroke:red;stroke-width:1px;stroke-linecap:butt;stroke-linejoin:miter;stroke-opacity:1" d="M 410.831,558.517 424.764,583.596 z" id="boundary" inkscape:connector-curvature="0" />
	<path style="fill:none;stroke:red;stroke-width:1px;stroke-linecap:butt;stroke-linejoin:miter;stroke-opacity:1" d="M 421.978,884.539 449.843,884.539 z" id="boundary" inkscape:connector-curvature="0" />
	<path style="fill:none;stroke:red;stroke-width:1px;stroke-linecap:butt;stroke-linejoin:miter;stroke-opacity:1" d="M 424.764,583.596 444.27,605.888 z" id="boundary" inkscape:connector-curvature="0" />
	<path style="fill:none;stroke:red;stroke-width:1px;stroke-linecap:butt;stroke-linejoin:miter;stroke-opacity:1" d="M 444.27,605.888 452.629,633.753 z" id="boundary" inkscape:connector-curvature="0" />
	<path style="fill:none;stroke:red;stroke-width:1px;stroke-linecap:butt;stroke-linejoin:miter;stroke-opacity:1" d="M 449.843,884.539 474.921,898.472 z" id="boundary" inkscape:connector-curvature="0" />
	<path style="fill:none;stroke:red;stroke-width:1px;stroke-linecap:butt;stroke-linejoin:miter;stroke-opacity:1" d="M 452.629,633.753 466.562,658.831 z" id="boundary" inkscape:connector-curvature="0" />
	<path style="fill:none;stroke:red;stroke-width:1px;stroke-linecap:butt;stroke-linejoin:miter;stroke-opacity:1" d="M 466.562,658.831 480.494,683.91 z" id="boundary" inkscape:connector-curvature="0" />
	<path style="fill:none;stroke:red;stroke-width:1px;stroke-linecap:butt;stroke-linejoin:miter;stroke-opacity:1" d="M 474.921,898.472 486.067,926.337 z" id="boundary" inkscape:connector-curvature="0" />
	<path style="fill:none;stroke:red;stroke-width:1px;stroke-linecap:butt;stroke-linejoin:miter;stroke-opacity:1" d="M 480.494,683.91 494.427,708.989 z" id="boundary" inkscape:connector-curvature="0" />
	<path style="fill:none;stroke:red;stroke-width:1px;stroke-linecap:butt;stroke-linejoin:miter;stroke-opacity:1" d="M 486.067,926.337 491.64,954.202 z" id="boundary" inkscape:connector-curvature="0" />
	<path style="fill:none;stroke:red;stroke-width:1px;stroke-linecap:butt;stroke-linejoin:miter;stroke-opacity:1" d="M 491.64,954.202 519.506,959.775 z" id="boundary" inkscape:connector-curvature="0" />
	<path style="fill:none;stroke:red;stroke-width:1px;stroke-linecap:butt;stroke-linejoin:miter;stroke-opacity:1" d="M 494.427,708.989 508.36,734.067 z" id="boundary" inkscape:connector-curvature="0" />
	<path style="fill:none;stroke:red;stroke-width:1px;stroke-linecap:butt;stroke-linejoin:miter;stroke-opacity:1" d="M 508.36,734.067 525.079,756.36 z" id="boundary" inkscape:connector-curvature="0" />
	<path style="fill:none;stroke:red;stroke-width:1px;stroke-linecap:butt;stroke-linejoin:miter;stroke-opacity:1" d="M 519.506,959.775 541.798,940.27 z" id="boundary" inkscape:connector-curvature="0" />
	<path style="fill:none;stroke:red;stroke-width:1px;stroke-linecap:butt;stroke-linejoin:miter;stroke-opacity:1" d="M 525.079,756.36 550.157,770.292 z" id="boundary" inkscape:connector-curvature="0" />
	<path style="fill:none;stroke:red;stroke-width:1px;stroke-linecap:butt;stroke-linejoin:miter;stroke-opacity:1" d="M 541.798,940.27 564.09,912.404 z" id="boundary" inkscape:connector-curvature="0" />
	<path style="fill:none;stroke:red;stroke-width:1px;stroke-linecap:butt;stroke-linejoin:miter;stroke-opacity:1" d="M 550.157,770.292 564.09,795.371 z" id="boundary" inkscape:connector-curvature="0" />
	<path style="fill:none;stroke:red;stroke-width:1px;stroke-linecap:butt;stroke-linejoin:miter;stroke-opacity:1" d="M 564.09,795.371 578.022,820.449 z" id="boundary" inkscape:connector-curvature="0" />
	<path style="fill:none;stroke:red;stroke-width:1px;stroke-linecap:butt;stroke-linejoin:miter;stroke-opacity:1" d="M 564.09,912.404 578.022,884.539 z" id="boundary" inkscape:connector-curvature="0" />
	<path style="fill:none;stroke:red;stroke-width:1px;stroke-linecap:butt;stroke-linejoin:miter;stroke-opacity:1" d="M 578.022,820.449 591.955,845.528 z" id="boundary" inkscape:connector-curvature="0" />
	<path style="fill:none;stroke:red;stroke-width:1px;stroke-linecap:butt;stroke-linejoin:miter;stroke-opacity:1" d="M 578.022,884.539 591.955,845.528 z" id="boundary" inkscape:connector-curvature="0" />
	<circle cx="4" cy="26.2921" r="4" fill="#0" id="circle0"/>
	<circle cx="4" cy="54.1573" r="4" fill="#0" id="circle1"/>
	<circle cx="17.9326" cy="79.236" r="4" fill="#0" id="circle2"/>
	<circle cx="26.2921" cy="4" r="4" fill="#0" id="circle3"/>
	<circle cx="31.8652" cy="104.315" r="4" fill="#0" id="circle4"/>
	<circle cx="40.2247" cy="132.18" r="4" fill="#0" id="circle5"/>
	<circle cx="45.7978" cy="160.045" r="4" fill="#0" id="circle6"/>
	<circle cx="54.1573" cy="4" r="4" fill="#0" id="circle7"/>
	<circle cx="62.5169" cy="182.337" r="4" fill="#0" id="circle8"/>
	<circle cx="76.4494" cy="207.416" r="4" fill="#0" id="circle9"/>
	<circle cx="82.0225" cy="4" r="4" fill="#0" id="circle10"/>
	<circle cx="87.5955" cy="235.281" r="4" fill="#0" id="circle11"/>
	<circle cx="101.528" cy="260.36" r="4" fill="#0" id="circle12"/>
	<circle cx="104.315" cy="20.7191" r="4" fill="#0" id="circle13"/>
	<circle cx="115.461" cy="285.438" r="4" fill="#0" id="circle14"/>
	<circle cx="118.247" cy="45.7978" r="4" fill="#0" id="circle15"/>
	<circle cx="129.393" cy="310.517" r="4" fill="#0" id="circle16"/>
	<circle cx="132.18" cy="70.8764" r="4" fill="#0" id="circle17"/>
	<circle cx="146.112" cy="332.809" r="4" fill="#0" id="circle18"/>
	<circle cx="154.472" cy="90.382" r="4" fill="#0" id="circle19"/>
	<circle cx="157.258" cy="360.674" r="4" fill="#0" id="circle20"/>
	<circle cx="165.618" cy="118.247" r="4" fill="#0" id="circle21"/>
	<circle cx="171.191" cy="385.753" r="4" fill="#0" id="circle22"/>
	<circle cx="173.978" cy="146.112" r="4" fill="#0" id="circle23"/>
	<circle cx="185.124" cy="410.831" r="4" fill="#0" id="circle24"/>
	<circle cx="187.91" cy="171.191" r="4" fill="#0" id="circle25"/>
	<circle cx="199.056" cy="435.91" r="4" fill="#0" id="circle26"/>
	<circle cx="210.202" cy="187.91" r="4" fill="#0" id="circle27"/>
	<circle cx="212.989" cy="460.989" r="4" fill="#0" id="circle28"/>
	<circle cx="221.348" cy="215.775" r="4" fill="#0" id="circle29"/>
	<circle cx="226.921" cy="486.067" r="4" fill="#0" id="circle30"/>
	<circle cx="226.921" cy="513.933" r="4" fill="#0" id="circle31"/>
	<circle cx="235.281" cy="240.854" r="4" fill="#0" id="circle32"/>
	<circle cx="243.64" cy="268.719" r="4" fill="#0" id="circle33"/>
	<circle cx="249.213" cy="533.438" r="4" fill="#0" id="circle34"/>
	<circle cx="257.573" cy="293.798" r="4" fill="#0" id="circle35"/>
	<circle cx="260.36" cy="561.303" r="4" fill="#0" id="circle36"/>
	<circle cx="274.292" cy="586.382" r="4" fill="#0" id="circle37"/>
	<circle cx="282.652" cy="614.247" r="4" fill="#0" id="circle38"/>
	<circle cx="282.652" cy="778.652" r="4" fill="#0" id="circle39"/>
	<circle cx="282.652" cy="806.517" r="4" fill="#0" id="circle40"/>
	<circle cx="282.652" cy="834.382" r="4" fill="#0" id="circle41"/>
	<circle cx="285.438" cy="304.944" r="4" fill="#0" id="circle42"/>
	<circle cx="285.438" cy="332.809" r="4" fill="#0" id="circle43"/>
	<circle cx="296.584" cy="360.674" r="4" fill="#0" id="circle44"/>
	<circle cx="296.584" cy="639.326" r="4" fill="#0" id="circle45"/>
	<circle cx="296.584" cy="859.461" r="4" fill="#0" id="circle46"/>
	<circle cx="296.584" cy="887.326" r="4" fill="#0" id="circle47"/>
	<circle cx="304.944" cy="756.36" r="4" fill="#0" id="circle48"/>
	<circle cx="310.517" cy="664.404" r="4" fill="#0" id="circle49"/>
	<circle cx="310.517" cy="912.404" r="4" fill="#0" id="circle50"/>
	<circle cx="313.303" cy="382.966" r="4" fill="#0" id="circle51"/>
	<circle cx="318.876" cy="728.494" r="4" fill="#0" id="circle52"/>
	<circle cx="318.876" cy="940.27" r="4" fill="#0" id="circle53"/>
	<circle cx="324.449" cy="689.483" r="4" fill="#0" id="circle54"/>
	<circle cx="327.236" cy="408.045" r="4" fill="#0" id="circle55"/>
	<circle cx="341.169" cy="433.124" r="4" fill="#0" id="circle56"/>
	<circle cx="341.169" cy="959.775" r="4" fill="#0" id="circle57"/>
	<circle cx="355.101" cy="458.202" r="4" fill="#0" id="circle58"/>
	<circle cx="360.674" cy="982.067" r="4" fill="#0" id="circle59"/>
	<circle cx="366.247" cy="486.067" r="4" fill="#0" id="circle60"/>
	<circle cx="385.753" cy="996" r="4" fill="#0" id="circle61"/>
	<circle cx="388.539" cy="505.573" r="4" fill="#0" id="circle62"/>
	<circle cx="396.899" cy="533.438" r="4" fill="#0" id="circle63"/>
	<circle cx="396.899" cy="898.472" r="4" fill="#0" id="circle64"/>
	<circle cx="402.472" cy="926.337" r="4" fill="#0" id="circle65"/>
	<circle cx="408.045" cy="973.708" r="4" fill="#0" id="circle66"/>
	<circle cx="410.831" cy="558.517" r="4" fill="#0" id="circle67"/>
	<circle cx="421.978" cy="884.539" r="4" fill="#0" id="circle68"/>
	<circle cx="424.764" cy="583.596" r="4" fill="#0" id="circle69"/>
	<circle cx="444.27" cy="605.888" r="4" fill="#0" id="circle70"/>
	<circle cx="449.843" cy="884.539" r="4" fill="#0" id="circle71"/>
	<circle cx="452.629" cy="633.753" r="4" fill="#0" id="circle72"/>
	<circle cx="466.562" cy="658.831" r="4" fill="#0" id="circle73"/>
	<circle cx="474.921" cy="898.472" r="4" fill="#0" id="circle74"/>
	<circle cx="480.494" cy="683.91" r="4" fill="#0" id="circle75"/>
	<circle cx="486.067" cy="926.337" r="4" fill="#0" id="circle76"/>
	<circle cx="491.64" cy="954.202" r="4" fill="#0" id="circle77"/>
	<circle cx="494.427" cy="708.989" r="4" fill="#0" id="circle78"/>
	<circle cx="508.36" cy="734.067" r="4" fill="#0" id="circle79"/>
	<circle cx="519.506" cy="959.775" r="4" fill="#0" id="circle80"/>
	<circle cx="525.079" cy="756.36" r="4" fill="#0" id="circle81"/>
	<circle cx="541.798" cy="940.27" r="4" fill="#0" id="circle82"/>
	<circle cx="550.157" cy="770.292" r="4" fill="#0" id="circle83"/>
	<circle cx="564.09" cy="795.371" r="4" fill="#0" id="circle84"/>
	<circle cx="564.09" cy="912.404" r="4" fill="#0" id="circle85"/>
	<circle cx="578.022" cy="820.449" r="4" fill="#0" id="circle86"/>
	<circle cx="578.022" cy="884.539" r="4" fill="#0" id="circle87"/>
	<circle cx="591.955" cy="845.528" r="4" fill="#0" id="circle88"/>
	</g>
</svg>