<?xml version="1.0" encoding="UTF-8" standalone="no"?>
<!-- Created with CurveBenchmark -->
<svg
	xmlns:dc="http://purl.org/dc/elements/1.1/"
	xmlns:cc="http://creativecommons.org/ns#"
	xmlns:rdf="http://www.w3.org/1999/02/22-rdf-syntax-ns#"
	xmlns:svg="http://www.w3.org/2000/svg"
	xmlns="http://www.w3.org/2000/svg"
	xmlns:sodipodi="http://sodipodi.sourceforge.net/DTD/sodipodi-0.dtd"
	xmlns:inkscape="http://www.inkscape.org/namespaces/inkscape"
	width="1000"
	height="1000"
	id="svg2"
	version="1.1"
	sodipodi:docname="manifold/hnncrust-guitar095.png.txt">
<defs
	id="defs4" />
<metadata
	id="metadata7">
	<rdf:RDF>
		<cc:Work
			rdf:about="">
			<dc:format>image/svg+xml</dc:format>
			<dc:type
				rdf:resource="http://purl.org/dc/dcmitype/StillImage" />
			<dc:title></dc:title>
		</cc:Work>
	</rdf:RDF>
</metadata>
<g
	inkscape:label="Layer 1"
	inkscape:groupmode="layer"
	id="layer1">
	<path style="fill:none;stroke:red;stroke-width:1px;stroke-linecap:butt;stroke-linejoin:miter;stroke-opacity:1" d="M 4,543.816 4,578.869 z" id="boundary" inkscape:connector-curvature="0" />
	<path style="fill:none;stroke:red;stroke-width:1px;stroke-linecap:butt;stroke-linejoin:miter;stroke-opacity:1" d="M 4,543.816 18.0212,487.731 z" id="boundary" inkscape:connector-curvature="0" />
	<path style="fill:none;stroke:red;stroke-width:1px;stroke-linecap:butt;stroke-linejoin:miter;stroke-opacity:1" d="M 4,578.869 4,613.922 z" id="boundary" inkscape:connector-curvature="0" />
	<path style="fill:none;stroke:red;stroke-width:1px;stroke-linecap:butt;stroke-linejoin:miter;stroke-opacity:1" d="M 4,613.922 4,648.975 z" id="boundary" inkscape:connector-curvature="0" />
	<path style="fill:none;stroke:red;stroke-width:1px;stroke-linecap:butt;stroke-linejoin:miter;stroke-opacity:1" d="M 4,648.975 4,684.028 z" id="boundary" inkscape:connector-curvature="0" />
	<path style="fill:none;stroke:red;stroke-width:1px;stroke-linecap:butt;stroke-linejoin:miter;stroke-opacity:1" d="M 4,684.028 4,719.081 z" id="boundary" inkscape:connector-curvature="0" />
	<path style="fill:none;stroke:red;stroke-width:1px;stroke-linecap:butt;stroke-linejoin:miter;stroke-opacity:1" d="M 4,719.081 4,754.134 z" id="boundary" inkscape:connector-curvature="0" />
	<path style="fill:none;stroke:red;stroke-width:1px;stroke-linecap:butt;stroke-linejoin:miter;stroke-opacity:1" d="M 4,754.134 4,789.187 z" id="boundary" inkscape:connector-curvature="0" />
	<path style="fill:none;stroke:red;stroke-width:1px;stroke-linecap:butt;stroke-linejoin:miter;stroke-opacity:1" d="M 4,789.187 4,824.24 z" id="boundary" inkscape:connector-curvature="0" />
	<path style="fill:none;stroke:red;stroke-width:1px;stroke-linecap:butt;stroke-linejoin:miter;stroke-opacity:1" d="M 4,824.24 4,859.293 z" id="boundary" inkscape:connector-curvature="0" />
	<path style="fill:none;stroke:red;stroke-width:1px;stroke-linecap:butt;stroke-linejoin:miter;stroke-opacity:1" d="M 4,859.293 4,894.346 z" id="boundary" inkscape:connector-curvature="0" />
	<path style="fill:none;stroke:red;stroke-width:1px;stroke-linecap:butt;stroke-linejoin:miter;stroke-opacity:1" d="M 4,894.346 4,929.399 z" id="boundary" inkscape:connector-curvature="0" />
	<path style="fill:none;stroke:red;stroke-width:1px;stroke-linecap:butt;stroke-linejoin:miter;stroke-opacity:1" d="M 4,929.399 11.0106,964.452 z" id="boundary" inkscape:connector-curvature="0" />
	<path style="fill:none;stroke:red;stroke-width:1px;stroke-linecap:butt;stroke-linejoin:miter;stroke-opacity:1" d="M 11.0106,964.452 39.053,988.989 z" id="boundary" inkscape:connector-curvature="0" />
	<path style="fill:none;stroke:red;stroke-width:1px;stroke-linecap:butt;stroke-linejoin:miter;stroke-opacity:1" d="M 18.0212,487.731 53.0742,480.721 z" id="boundary" inkscape:connector-curvature="0" />
	<path style="fill:none;stroke:red;stroke-width:1px;stroke-linecap:butt;stroke-linejoin:miter;stroke-opacity:1" d="M 39.053,988.989 74.106,996 z" id="boundary" inkscape:connector-curvature="0" />
	<path style="fill:none;stroke:red;stroke-width:1px;stroke-linecap:butt;stroke-linejoin:miter;stroke-opacity:1" d="M 53.0742,480.721 88.1272,466.7 z" id="boundary" inkscape:connector-curvature="0" />
	<path style="fill:none;stroke:red;stroke-width:1px;stroke-linecap:butt;stroke-linejoin:miter;stroke-opacity:1" d="M 60.0848,32.0424 81.1166,4 z" id="boundary" inkscape:connector-curvature="0" />
	<path style="fill:none;stroke:red;stroke-width:1px;stroke-linecap:butt;stroke-linejoin:miter;stroke-opacity:1" d="M 74.106,74.106 109.159,67.0954 z" id="boundary" inkscape:connector-curvature="0" />
	<path style="fill:none;stroke:red;stroke-width:1px;stroke-linecap:butt;stroke-linejoin:miter;stroke-opacity:1" d="M 74.106,996 109.159,988.989 z" id="boundary" inkscape:connector-curvature="0" />
	<path style="fill:none;stroke:red;stroke-width:1px;stroke-linecap:butt;stroke-linejoin:miter;stroke-opacity:1" d="M 81.1166,4 102.148,32.0424 z" id="boundary" inkscape:connector-curvature="0" />
	<path style="fill:none;stroke:red;stroke-width:1px;stroke-linecap:butt;stroke-linejoin:miter;stroke-opacity:1" d="M 84.6219,109.159 102.148,140.707 z" id="boundary" inkscape:connector-curvature="0" />
	<path style="fill:none;stroke:red;stroke-width:1px;stroke-linecap:butt;stroke-linejoin:miter;stroke-opacity:1" d="M 84.6219,109.159 119.675,102.148 z" id="boundary" inkscape:connector-curvature="0" />
	<path style="fill:none;stroke:red;stroke-width:1px;stroke-linecap:butt;stroke-linejoin:miter;stroke-opacity:1" d="M 95.1378,340.509 95.1378,375.562 z" id="boundary" inkscape:connector-curvature="0" />
	<path style="fill:none;stroke:red;stroke-width:1px;stroke-linecap:butt;stroke-linejoin:miter;stroke-opacity:1" d="M 95.1378,340.509 126.686,308.961 z" id="boundary" inkscape:connector-curvature="0" />
	<path style="fill:none;stroke:red;stroke-width:1px;stroke-linecap:butt;stroke-linejoin:miter;stroke-opacity:1" d="M 95.1378,375.562 95.1378,410.615 z" id="boundary" inkscape:connector-curvature="0" />
	<path style="fill:none;stroke:red;stroke-width:1px;stroke-linecap:butt;stroke-linejoin:miter;stroke-opacity:1" d="M 102.148,32.0424 109.159,67.0954 z" id="boundary" inkscape:connector-curvature="0" />
	<path style="fill:none;stroke:red;stroke-width:1px;stroke-linecap:butt;stroke-linejoin:miter;stroke-opacity:1" d="M 102.148,140.707 102.148,175.76 z" id="boundary" inkscape:connector-curvature="0" />
	<path style="fill:none;stroke:red;stroke-width:1px;stroke-linecap:butt;stroke-linejoin:miter;stroke-opacity:1" d="M 102.148,175.76 102.148,210.813 z" id="boundary" inkscape:connector-curvature="0" />
	<path style="fill:none;stroke:red;stroke-width:1px;stroke-linecap:butt;stroke-linejoin:miter;stroke-opacity:1" d="M 102.148,210.813 102.148,245.866 z" id="boundary" inkscape:connector-curvature="0" />
	<path style="fill:none;stroke:red;stroke-width:1px;stroke-linecap:butt;stroke-linejoin:miter;stroke-opacity:1" d="M 102.148,245.866 102.148,280.919 z" id="boundary" inkscape:connector-curvature="0" />
	<path style="fill:none;stroke:red;stroke-width:1px;stroke-linecap:butt;stroke-linejoin:miter;stroke-opacity:1" d="M 102.148,280.919 126.686,308.961 z" id="boundary" inkscape:connector-curvature="0" />
	<path style="fill:none;stroke:red;stroke-width:1px;stroke-linecap:butt;stroke-linejoin:miter;stroke-opacity:1" d="M 109.159,988.989 126.686,950.431 z" id="boundary" inkscape:connector-curvature="0" />
	<path style="fill:none;stroke:red;stroke-width:1px;stroke-linecap:butt;stroke-linejoin:miter;stroke-opacity:1" d="M 126.686,358.035 133.696,393.088 z" id="boundary" inkscape:connector-curvature="0" />
	<path style="fill:none;stroke:red;stroke-width:1px;stroke-linecap:butt;stroke-linejoin:miter;stroke-opacity:1" d="M 126.686,950.431 133.696,883.83 z" id="boundary" inkscape:connector-curvature="0" />
	<path style="fill:none;stroke:red;stroke-width:1px;stroke-linecap:butt;stroke-linejoin:miter;stroke-opacity:1" d="M 133.696,393.088 133.696,428.141 z" id="boundary" inkscape:connector-curvature="0" />
	<path style="fill:none;stroke:red;stroke-width:1px;stroke-linecap:butt;stroke-linejoin:miter;stroke-opacity:1" d="M 133.696,428.141 133.696,463.194 z" id="boundary" inkscape:connector-curvature="0" />
	<path style="fill:none;stroke:red;stroke-width:1px;stroke-linecap:butt;stroke-linejoin:miter;stroke-opacity:1" d="M 133.696,463.194 133.696,498.247 z" id="boundary" inkscape:connector-curvature="0" />
	<path style="fill:none;stroke:red;stroke-width:1px;stroke-linecap:butt;stroke-linejoin:miter;stroke-opacity:1" d="M 133.696,498.247 133.696,533.3 z" id="boundary" inkscape:connector-curvature="0" />
	<path style="fill:none;stroke:red;stroke-width:1px;stroke-linecap:butt;stroke-linejoin:miter;stroke-opacity:1" d="M 133.696,533.3 133.696,568.353 z" id="boundary" inkscape:connector-curvature="0" />
	<path style="fill:none;stroke:red;stroke-width:1px;stroke-linecap:butt;stroke-linejoin:miter;stroke-opacity:1" d="M 133.696,568.353 133.696,603.406 z" id="boundary" inkscape:connector-curvature="0" />
	<path style="fill:none;stroke:red;stroke-width:1px;stroke-linecap:butt;stroke-linejoin:miter;stroke-opacity:1" d="M 133.696,603.406 133.696,638.459 z" id="boundary" inkscape:connector-curvature="0" />
	<path style="fill:none;stroke:red;stroke-width:1px;stroke-linecap:butt;stroke-linejoin:miter;stroke-opacity:1" d="M 133.696,638.459 133.696,673.512 z" id="boundary" inkscape:connector-curvature="0" />
	<path style="fill:none;stroke:red;stroke-width:1px;stroke-linecap:butt;stroke-linejoin:miter;stroke-opacity:1" d="M 133.696,673.512 133.696,708.565 z" id="boundary" inkscape:connector-curvature="0" />
	<path style="fill:none;stroke:red;stroke-width:1px;stroke-linecap:butt;stroke-linejoin:miter;stroke-opacity:1" d="M 133.696,708.565 133.696,743.618 z" id="boundary" inkscape:connector-curvature="0" />
	<path style="fill:none;stroke:red;stroke-width:1px;stroke-linecap:butt;stroke-linejoin:miter;stroke-opacity:1" d="M 133.696,743.618 133.696,778.671 z" id="boundary" inkscape:connector-curvature="0" />
	<path style="fill:none;stroke:red;stroke-width:1px;stroke-linecap:butt;stroke-linejoin:miter;stroke-opacity:1" d="M 133.696,778.671 133.696,813.724 z" id="boundary" inkscape:connector-curvature="0" />
	<path style="fill:none;stroke:red;stroke-width:1px;stroke-linecap:butt;stroke-linejoin:miter;stroke-opacity:1" d="M 133.696,813.724 133.696,848.777 z" id="boundary" inkscape:connector-curvature="0" />
	<path style="fill:none;stroke:red;stroke-width:1px;stroke-linecap:butt;stroke-linejoin:miter;stroke-opacity:1" d="M 133.696,848.777 133.696,883.83 z" id="boundary" inkscape:connector-curvature="0" />
	<circle cx="4" cy="543.816" r="4" fill="#0" id="circle0"/>
	<circle cx="4" cy="578.869" r="4" fill="#0" id="circle1"/>
	<circle cx="4" cy="613.922" r="4" fill="#0" id="circle2"/>
	<circle cx="4" cy="648.975" r="4" fill="#0" id="circle3"/>
	<circle cx="4" cy="684.028" r="4" fill="#0" id="circle4"/>
	<circle cx="4" cy="719.081" r="4" fill="#0" id="circle5"/>
	<circle cx="4" cy="754.134" r="4" fill="#0" id="circle6"/>
	<circle cx="4" cy="789.187" r="4" fill="#0" id="circle7"/>
	<circle cx="4" cy="824.24" r="4" fill="#0" id="circle8"/>
	<circle cx="4" cy="859.293" r="4" fill="#0" id="circle9"/>
	<circle cx="4" cy="894.346" r="4" fill="#0" id="circle10"/>
	<circle cx="4" cy="929.399" r="4" fill="#0" id="circle11"/>
	<circle cx="11.0106" cy="964.452" r="4" fill="#0" id="circle12"/>
	<circle cx="18.0212" cy="487.731" r="4" fill="#0" id="circle13"/>
	<circle cx="39.053" cy="988.989" r="4" fill="#0" id="circle14"/>
	<circle cx="53.0742" cy="480.721" r="4" fill="#0" id="circle15"/>
	<circle cx="60.0848" cy="32.0424" r="4" fill="#0" id="circle16"/>
	<circle cx="74.106" cy="74.106" r="4" fill="#0" id="circle17"/>
	<circle cx="74.106" cy="996" r="4" fill="#0" id="circle18"/>
	<circle cx="81.1166" cy="4" r="4" fill="#0" id="circle19"/>
	<circle cx="84.6219" cy="109.159" r="4" fill="#0" id="circle20"/>
	<circle cx="88.1272" cy="466.7" r="4" fill="#0" id="circle21"/>
	<circle cx="95.1378" cy="340.509" r="4" fill="#0" id="circle22"/>
	<circle cx="95.1378" cy="375.562" r="4" fill="#0" id="circle23"/>
	<circle cx="95.1378" cy="410.615" r="4" fill="#0" id="circle24"/>
	<circle cx="102.148" cy="32.0424" r="4" fill="#0" id="circle25"/>
	<circle cx="102.148" cy="140.707" r="4" fill="#0" id="circle26"/>
	<circle cx="102.148" cy="175.76" r="4" fill="#0" id="circle27"/>
	<circle cx="102.148" cy="210.813" r="4" fill="#0" id="circle28"/>
	<circle cx="102.148" cy="245.866" r="4" fill="#0" id="circle29"/>
	<circle cx="102.148" cy="280.919" r="4" fill="#0" id="circle30"/>
	<circle cx="109.159" cy="67.0954" r="4" fill="#0" id="circle31"/>
	<circle cx="109.159" cy="988.989" r="4" fill="#0" id="circle32"/>
	<circle cx="119.675" cy="102.148" r="4" fill="#0" id="circle33"/>
	<circle cx="126.686" cy="308.961" r="4" fill="#0" id="circle34"/>
	<circle cx="126.686" cy="358.035" r="4" fill="#0" id="circle35"/>
	<circle cx="126.686" cy="950.431" r="4" fill="#0" id="circle36"/>
	<circle cx="133.696" cy="393.088" r="4" fill="#0" id="circle37"/>
	<circle cx="133.696" cy="428.141" r="4" fill="#0" id="circle38"/>
	<circle cx="133.696" cy="463.194" r="4" fill="#0" id="circle39"/>
	<circle cx="133.696" cy="498.247" r="4" fill="#0" id="circle40"/>
	<circle cx="133.696" cy="533.3" r="4" fill="#0" id="circle41"/>
	<circle cx="133.696" cy="568.353" r="4" fill="#0" id="circle42"/>
	<circle cx="133.696" cy="603.406" r="4" fill="#0" id="circle43"/>
	<circle cx="133.696" cy="638.459" r="4" fill="#0" id="circle44"/>
	<circle cx="133.696" cy="673.512" r="4" fill="#0" id="circle45"/>
	<circle cx="133.696" cy="708.565" r="4" fill="#0" id="circle46"/>
	<circle cx="133.696" cy="743.618" r="4" fill="#0" id="circle47"/>
	<circle cx="133.696" cy="778.671" r="4" fill="#0" id="circle48"/>
	<circle cx="133.696" cy="813.724" r="4" fill="#0" id="circle49"/>
	<circle cx="133.696" cy="848.777" r="4" fill="#0" id="circle50"/>
	<circle cx="133.696" cy="883.83" r="4" fill="#0" id="circle51"/>
	</g>
</svg>