<?xml version="1.0" encoding="UTF-8" standalone="no"?>
<!-- Created with CurveBenchmark -->
<svg
	xmlns:dc="http://purl.org/dc/elements/1.1/"
	xmlns:cc="http://creativecommons.org/ns#"
	xmlns:rdf="http://www.w3.org/1999/02/22-rdf-syntax-ns#"
	xmlns:svg="http://www.w3.org/2000/svg"
	xmlns="http://www.w3.org/2000/svg"
	xmlns:sodipodi="http://sodipodi.sourceforge.net/DTD/sodipodi-0.dtd"
	xmlns:inkscape="http://www.inkscape.org/namespaces/inkscape"
	width="1000"
	height="1000"
	id="svg2"
	version="1.1"
	sodipodi:docname="manifold/hnncrust-bed345.png.txt">
<defs
	id="defs4" />
<metadata
	id="metadata7">
	<rdf:RDF>
		<cc:Work
			rdf:about="">
			<dc:format>image/svg+xml</dc:format>
			<dc:type
				rdf:resource="http://purl.org/dc/dcmitype/StillImage" />
			<dc:title></dc:title>
		</cc:Work>
	</rdf:RDF>
</metadata>
<g
	inkscape:label="Layer 1"
	inkscape:groupmode="layer"
	id="layer1">
	<path style="fill:none;stroke:red;stroke-width:1px;stroke-linecap:butt;stroke-linejoin:miter;stroke-opacity:1" d="M 4,396.709 6.04536,417.163 z" id="boundary" inkscape:connector-curvature="0" />
	<path style="fill:none;stroke:red;stroke-width:1px;stroke-linecap:butt;stroke-linejoin:miter;stroke-opacity:1" d="M 4,396.709 14.2268,378.301 z" id="boundary" inkscape:connector-curvature="0" />
	<path style="fill:none;stroke:red;stroke-width:1px;stroke-linecap:butt;stroke-linejoin:miter;stroke-opacity:1" d="M 6.04536,417.163 18.3175,433.526 z" id="boundary" inkscape:connector-curvature="0" />
	<path style="fill:none;stroke:red;stroke-width:1px;stroke-linecap:butt;stroke-linejoin:miter;stroke-opacity:1" d="M 14.2268,378.301 32.6351,368.074 z" id="boundary" inkscape:connector-curvature="0" />
	<path style="fill:none;stroke:red;stroke-width:1px;stroke-linecap:butt;stroke-linejoin:miter;stroke-opacity:1" d="M 16.2722,580.792 24.4536,556.247 z" id="boundary" inkscape:connector-curvature="0" />
	<path style="fill:none;stroke:red;stroke-width:1px;stroke-linecap:butt;stroke-linejoin:miter;stroke-opacity:1" d="M 18.3175,433.526 28.5443,451.934 z" id="boundary" inkscape:connector-curvature="0" />
	<path style="fill:none;stroke:red;stroke-width:1px;stroke-linecap:butt;stroke-linejoin:miter;stroke-opacity:1" d="M 20.3629,617.608 30.5897,636.016 z" id="boundary" inkscape:connector-curvature="0" />
	<path style="fill:none;stroke:red;stroke-width:1px;stroke-linecap:butt;stroke-linejoin:miter;stroke-opacity:1" d="M 24.4536,556.247 28.5443,533.748 z" id="boundary" inkscape:connector-curvature="0" />
	<path style="fill:none;stroke:red;stroke-width:1px;stroke-linecap:butt;stroke-linejoin:miter;stroke-opacity:1" d="M 28.5443,451.934 28.5443,472.388 z" id="boundary" inkscape:connector-curvature="0" />
	<path style="fill:none;stroke:red;stroke-width:1px;stroke-linecap:butt;stroke-linejoin:miter;stroke-opacity:1" d="M 28.5443,472.388 28.5443,492.841 z" id="boundary" inkscape:connector-curvature="0" />
	<path style="fill:none;stroke:red;stroke-width:1px;stroke-linecap:butt;stroke-linejoin:miter;stroke-opacity:1" d="M 28.5443,492.841 28.5443,513.295 z" id="boundary" inkscape:connector-curvature="0" />
	<path style="fill:none;stroke:red;stroke-width:1px;stroke-linecap:butt;stroke-linejoin:miter;stroke-opacity:1" d="M 28.5443,513.295 28.5443,533.748 z" id="boundary" inkscape:connector-curvature="0" />
	<path style="fill:none;stroke:red;stroke-width:1px;stroke-linecap:butt;stroke-linejoin:miter;stroke-opacity:1" d="M 30.5897,636.016 51.0433,621.699 z" id="boundary" inkscape:connector-curvature="0" />
	<path style="fill:none;stroke:red;stroke-width:1px;stroke-linecap:butt;stroke-linejoin:miter;stroke-opacity:1" d="M 32.6351,368.074 53.0887,359.893 z" id="boundary" inkscape:connector-curvature="0" />
	<path style="fill:none;stroke:red;stroke-width:1px;stroke-linecap:butt;stroke-linejoin:miter;stroke-opacity:1" d="M 51.0433,580.792 51.0433,601.245 z" id="boundary" inkscape:connector-curvature="0" />
	<path style="fill:none;stroke:red;stroke-width:1px;stroke-linecap:butt;stroke-linejoin:miter;stroke-opacity:1" d="M 51.0433,580.792 61.2701,562.384 z" id="boundary" inkscape:connector-curvature="0" />
	<path style="fill:none;stroke:red;stroke-width:1px;stroke-linecap:butt;stroke-linejoin:miter;stroke-opacity:1" d="M 51.0433,601.245 51.0433,621.699 z" id="boundary" inkscape:connector-curvature="0" />
	<path style="fill:none;stroke:red;stroke-width:1px;stroke-linecap:butt;stroke-linejoin:miter;stroke-opacity:1" d="M 53.0887,359.893 73.5423,351.711 z" id="boundary" inkscape:connector-curvature="0" />
	<path style="fill:none;stroke:red;stroke-width:1px;stroke-linecap:butt;stroke-linejoin:miter;stroke-opacity:1" d="M 61.2701,562.384 81.7237,562.384 z" id="boundary" inkscape:connector-curvature="0" />
	<path style="fill:none;stroke:red;stroke-width:1px;stroke-linecap:butt;stroke-linejoin:miter;stroke-opacity:1" d="M 73.5423,351.711 93.9959,347.621 z" id="boundary" inkscape:connector-curvature="0" />
	<path style="fill:none;stroke:red;stroke-width:1px;stroke-linecap:butt;stroke-linejoin:miter;stroke-opacity:1" d="M 81.7237,562.384 102.177,562.384 z" id="boundary" inkscape:connector-curvature="0" />
	<path style="fill:none;stroke:red;stroke-width:1px;stroke-linecap:butt;stroke-linejoin:miter;stroke-opacity:1" d="M 93.9959,347.621 114.449,343.53 z" id="boundary" inkscape:connector-curvature="0" />
	<path style="fill:none;stroke:red;stroke-width:1px;stroke-linecap:butt;stroke-linejoin:miter;stroke-opacity:1" d="M 102.177,562.384 122.631,566.474 z" id="boundary" inkscape:connector-curvature="0" />
	<path style="fill:none;stroke:red;stroke-width:1px;stroke-linecap:butt;stroke-linejoin:miter;stroke-opacity:1" d="M 114.449,343.53 134.903,339.439 z" id="boundary" inkscape:connector-curvature="0" />
	<path style="fill:none;stroke:red;stroke-width:1px;stroke-linecap:butt;stroke-linejoin:miter;stroke-opacity:1" d="M 122.631,566.474 143.085,570.565 z" id="boundary" inkscape:connector-curvature="0" />
	<path style="fill:none;stroke:red;stroke-width:1px;stroke-linecap:butt;stroke-linejoin:miter;stroke-opacity:1" d="M 134.903,339.439 155.357,335.348 z" id="boundary" inkscape:connector-curvature="0" />
	<path style="fill:none;stroke:red;stroke-width:1px;stroke-linecap:butt;stroke-linejoin:miter;stroke-opacity:1" d="M 143.085,570.565 163.538,578.746 z" id="boundary" inkscape:connector-curvature="0" />
	<path style="fill:none;stroke:red;stroke-width:1px;stroke-linecap:butt;stroke-linejoin:miter;stroke-opacity:1" d="M 155.357,335.348 175.81,331.258 z" id="boundary" inkscape:connector-curvature="0" />
	<path style="fill:none;stroke:red;stroke-width:1px;stroke-linecap:butt;stroke-linejoin:miter;stroke-opacity:1" d="M 163.538,578.746 181.946,568.52 z" id="boundary" inkscape:connector-curvature="0" />
	<path style="fill:none;stroke:red;stroke-width:1px;stroke-linecap:butt;stroke-linejoin:miter;stroke-opacity:1" d="M 175.81,331.258 196.264,331.258 z" id="boundary" inkscape:connector-curvature="0" />
	<path style="fill:none;stroke:red;stroke-width:1px;stroke-linecap:butt;stroke-linejoin:miter;stroke-opacity:1" d="M 181.946,568.52 200.355,558.293 z" id="boundary" inkscape:connector-curvature="0" />
	<path style="fill:none;stroke:red;stroke-width:1px;stroke-linecap:butt;stroke-linejoin:miter;stroke-opacity:1" d="M 196.264,331.258 216.718,327.167 z" id="boundary" inkscape:connector-curvature="0" />
	<path style="fill:none;stroke:red;stroke-width:1px;stroke-linecap:butt;stroke-linejoin:miter;stroke-opacity:1" d="M 200.355,558.293 220.808,558.293 z" id="boundary" inkscape:connector-curvature="0" />
	<path style="fill:none;stroke:red;stroke-width:1px;stroke-linecap:butt;stroke-linejoin:miter;stroke-opacity:1" d="M 216.718,327.167 237.171,327.167 z" id="boundary" inkscape:connector-curvature="0" />
	<path style="fill:none;stroke:red;stroke-width:1px;stroke-linecap:butt;stroke-linejoin:miter;stroke-opacity:1" d="M 220.808,558.293 241.262,560.338 z" id="boundary" inkscape:connector-curvature="0" />
	<path style="fill:none;stroke:red;stroke-width:1px;stroke-linecap:butt;stroke-linejoin:miter;stroke-opacity:1" d="M 237.171,327.167 257.625,327.167 z" id="boundary" inkscape:connector-curvature="0" />
	<path style="fill:none;stroke:red;stroke-width:1px;stroke-linecap:butt;stroke-linejoin:miter;stroke-opacity:1" d="M 241.262,560.338 261.715,566.474 z" id="boundary" inkscape:connector-curvature="0" />
	<path style="fill:none;stroke:red;stroke-width:1px;stroke-linecap:butt;stroke-linejoin:miter;stroke-opacity:1" d="M 257.625,327.167 278.078,323.076 z" id="boundary" inkscape:connector-curvature="0" />
	<path style="fill:none;stroke:red;stroke-width:1px;stroke-linecap:butt;stroke-linejoin:miter;stroke-opacity:1" d="M 261.715,566.474 282.169,572.61 z" id="boundary" inkscape:connector-curvature="0" />
	<path style="fill:none;stroke:red;stroke-width:1px;stroke-linecap:butt;stroke-linejoin:miter;stroke-opacity:1" d="M 278.078,323.076 298.532,314.895 z" id="boundary" inkscape:connector-curvature="0" />
	<path style="fill:none;stroke:red;stroke-width:1px;stroke-linecap:butt;stroke-linejoin:miter;stroke-opacity:1" d="M 282.169,572.61 302.623,580.792 z" id="boundary" inkscape:connector-curvature="0" />
	<path style="fill:none;stroke:red;stroke-width:1px;stroke-linecap:butt;stroke-linejoin:miter;stroke-opacity:1" d="M 298.532,314.895 314.895,302.623 z" id="boundary" inkscape:connector-curvature="0" />
	<path style="fill:none;stroke:red;stroke-width:1px;stroke-linecap:butt;stroke-linejoin:miter;stroke-opacity:1" d="M 302.623,163.538 306.713,183.992 z" id="boundary" inkscape:connector-curvature="0" />
	<path style="fill:none;stroke:red;stroke-width:1px;stroke-linecap:butt;stroke-linejoin:miter;stroke-opacity:1" d="M 302.623,163.538 310.804,143.085 z" id="boundary" inkscape:connector-curvature="0" />
	<path style="fill:none;stroke:red;stroke-width:1px;stroke-linecap:butt;stroke-linejoin:miter;stroke-opacity:1" d="M 302.623,580.792 310.804,601.245 z" id="boundary" inkscape:connector-curvature="0" />
	<path style="fill:none;stroke:red;stroke-width:1px;stroke-linecap:butt;stroke-linejoin:miter;stroke-opacity:1" d="M 306.713,183.992 321.031,200.355 z" id="boundary" inkscape:connector-curvature="0" />
	<path style="fill:none;stroke:red;stroke-width:1px;stroke-linecap:butt;stroke-linejoin:miter;stroke-opacity:1" d="M 306.713,621.699 310.804,601.245 z" id="boundary" inkscape:connector-curvature="0" />
	<path style="fill:none;stroke:red;stroke-width:1px;stroke-linecap:butt;stroke-linejoin:miter;stroke-opacity:1" d="M 306.713,621.699 323.076,636.016 z" id="boundary" inkscape:connector-curvature="0" />
	<path style="fill:none;stroke:red;stroke-width:1px;stroke-linecap:butt;stroke-linejoin:miter;stroke-opacity:1" d="M 310.804,143.085 327.167,130.812 z" id="boundary" inkscape:connector-curvature="0" />
	<path style="fill:none;stroke:red;stroke-width:1px;stroke-linecap:butt;stroke-linejoin:miter;stroke-opacity:1" d="M 314.895,302.623 327.167,282.169 z" id="boundary" inkscape:connector-curvature="0" />
	<path style="fill:none;stroke:red;stroke-width:1px;stroke-linecap:butt;stroke-linejoin:miter;stroke-opacity:1" d="M 321.031,200.355 323.076,220.808 z" id="boundary" inkscape:connector-curvature="0" />
	<path style="fill:none;stroke:red;stroke-width:1px;stroke-linecap:butt;stroke-linejoin:miter;stroke-opacity:1" d="M 323.076,220.808 323.076,241.262 z" id="boundary" inkscape:connector-curvature="0" />
	<path style="fill:none;stroke:red;stroke-width:1px;stroke-linecap:butt;stroke-linejoin:miter;stroke-opacity:1" d="M 323.076,241.262 327.167,261.715 z" id="boundary" inkscape:connector-curvature="0" />
	<path style="fill:none;stroke:red;stroke-width:1px;stroke-linecap:butt;stroke-linejoin:miter;stroke-opacity:1" d="M 323.076,636.016 333.303,613.518 z" id="boundary" inkscape:connector-curvature="0" />
	<path style="fill:none;stroke:red;stroke-width:1px;stroke-linecap:butt;stroke-linejoin:miter;stroke-opacity:1" d="M 327.167,130.812 347.621,122.631 z" id="boundary" inkscape:connector-curvature="0" />
	<path style="fill:none;stroke:red;stroke-width:1px;stroke-linecap:butt;stroke-linejoin:miter;stroke-opacity:1" d="M 327.167,261.715 327.167,282.169 z" id="boundary" inkscape:connector-curvature="0" />
	<path style="fill:none;stroke:red;stroke-width:1px;stroke-linecap:butt;stroke-linejoin:miter;stroke-opacity:1" d="M 333.303,613.518 337.394,593.064 z" id="boundary" inkscape:connector-curvature="0" />
	<path style="fill:none;stroke:red;stroke-width:1px;stroke-linecap:butt;stroke-linejoin:miter;stroke-opacity:1" d="M 337.394,593.064 357.847,595.109 z" id="boundary" inkscape:connector-curvature="0" />
	<path style="fill:none;stroke:red;stroke-width:1px;stroke-linecap:butt;stroke-linejoin:miter;stroke-opacity:1" d="M 347.621,122.631 368.074,114.449 z" id="boundary" inkscape:connector-curvature="0" />
	<path style="fill:none;stroke:red;stroke-width:1px;stroke-linecap:butt;stroke-linejoin:miter;stroke-opacity:1" d="M 357.847,595.109 378.301,599.2 z" id="boundary" inkscape:connector-curvature="0" />
	<path style="fill:none;stroke:red;stroke-width:1px;stroke-linecap:butt;stroke-linejoin:miter;stroke-opacity:1" d="M 368.074,114.449 388.528,106.268 z" id="boundary" inkscape:connector-curvature="0" />
	<path style="fill:none;stroke:red;stroke-width:1px;stroke-linecap:butt;stroke-linejoin:miter;stroke-opacity:1" d="M 378.301,599.2 398.755,599.2 z" id="boundary" inkscape:connector-curvature="0" />
	<path style="fill:none;stroke:red;stroke-width:1px;stroke-linecap:butt;stroke-linejoin:miter;stroke-opacity:1" d="M 388.528,106.268 408.981,102.177 z" id="boundary" inkscape:connector-curvature="0" />
	<path style="fill:none;stroke:red;stroke-width:1px;stroke-linecap:butt;stroke-linejoin:miter;stroke-opacity:1" d="M 398.755,599.2 419.208,599.2 z" id="boundary" inkscape:connector-curvature="0" />
	<path style="fill:none;stroke:red;stroke-width:1px;stroke-linecap:butt;stroke-linejoin:miter;stroke-opacity:1" d="M 408.981,102.177 429.435,93.9959 z" id="boundary" inkscape:connector-curvature="0" />
	<path style="fill:none;stroke:red;stroke-width:1px;stroke-linecap:butt;stroke-linejoin:miter;stroke-opacity:1" d="M 419.208,599.2 439.662,595.109 z" id="boundary" inkscape:connector-curvature="0" />
	<path style="fill:none;stroke:red;stroke-width:1px;stroke-linecap:butt;stroke-linejoin:miter;stroke-opacity:1" d="M 429.435,93.9959 449.889,89.9052 z" id="boundary" inkscape:connector-curvature="0" />
	<path style="fill:none;stroke:red;stroke-width:1px;stroke-linecap:butt;stroke-linejoin:miter;stroke-opacity:1" d="M 439.662,595.109 460.115,588.973 z" id="boundary" inkscape:connector-curvature="0" />
	<path style="fill:none;stroke:red;stroke-width:1px;stroke-linecap:butt;stroke-linejoin:miter;stroke-opacity:1" d="M 449.889,89.9052 470.342,85.8144 z" id="boundary" inkscape:connector-curvature="0" />
	<path style="fill:none;stroke:red;stroke-width:1px;stroke-linecap:butt;stroke-linejoin:miter;stroke-opacity:1" d="M 460.115,588.973 480.569,580.792 z" id="boundary" inkscape:connector-curvature="0" />
	<path style="fill:none;stroke:red;stroke-width:1px;stroke-linecap:butt;stroke-linejoin:miter;stroke-opacity:1" d="M 470.342,85.8144 490.796,81.7237 z" id="boundary" inkscape:connector-curvature="0" />
	<path style="fill:none;stroke:red;stroke-width:1px;stroke-linecap:butt;stroke-linejoin:miter;stroke-opacity:1" d="M 480.569,580.792 501.023,574.656 z" id="boundary" inkscape:connector-curvature="0" />
	<path style="fill:none;stroke:red;stroke-width:1px;stroke-linecap:butt;stroke-linejoin:miter;stroke-opacity:1" d="M 490.796,81.7237 511.249,77.633 z" id="boundary" inkscape:connector-curvature="0" />
	<path style="fill:none;stroke:red;stroke-width:1px;stroke-linecap:butt;stroke-linejoin:miter;stroke-opacity:1" d="M 501.023,574.656 521.476,568.52 z" id="boundary" inkscape:connector-curvature="0" />
	<path style="fill:none;stroke:red;stroke-width:1px;stroke-linecap:butt;stroke-linejoin:miter;stroke-opacity:1" d="M 511.249,77.633 531.703,73.5423 z" id="boundary" inkscape:connector-curvature="0" />
	<path style="fill:none;stroke:red;stroke-width:1px;stroke-linecap:butt;stroke-linejoin:miter;stroke-opacity:1" d="M 521.476,568.52 541.93,562.384 z" id="boundary" inkscape:connector-curvature="0" />
	<path style="fill:none;stroke:red;stroke-width:1px;stroke-linecap:butt;stroke-linejoin:miter;stroke-opacity:1" d="M 531.703,73.5423 548.066,57.1794 z" id="boundary" inkscape:connector-curvature="0" />
	<path style="fill:none;stroke:red;stroke-width:1px;stroke-linecap:butt;stroke-linejoin:miter;stroke-opacity:1" d="M 541.93,562.384 562.384,558.293 z" id="boundary" inkscape:connector-curvature="0" />
	<path style="fill:none;stroke:red;stroke-width:1px;stroke-linecap:butt;stroke-linejoin:miter;stroke-opacity:1" d="M 548.066,57.1794 568.52,48.9979 z" id="boundary" inkscape:connector-curvature="0" />
	<path style="fill:none;stroke:red;stroke-width:1px;stroke-linecap:butt;stroke-linejoin:miter;stroke-opacity:1" d="M 562.384,558.293 582.837,558.293 z" id="boundary" inkscape:connector-curvature="0" />
	<path style="fill:none;stroke:red;stroke-width:1px;stroke-linecap:butt;stroke-linejoin:miter;stroke-opacity:1" d="M 568.52,48.9979 588.973,40.8165 z" id="boundary" inkscape:connector-curvature="0" />
	<path style="fill:none;stroke:red;stroke-width:1px;stroke-linecap:butt;stroke-linejoin:miter;stroke-opacity:1" d="M 582.837,558.293 603.291,566.474 z" id="boundary" inkscape:connector-curvature="0" />
	<path style="fill:none;stroke:red;stroke-width:1px;stroke-linecap:butt;stroke-linejoin:miter;stroke-opacity:1" d="M 588.973,40.8165 609.427,28.5443 z" id="boundary" inkscape:connector-curvature="0" />
	<path style="fill:none;stroke:red;stroke-width:1px;stroke-linecap:butt;stroke-linejoin:miter;stroke-opacity:1" d="M 603.291,566.474 619.654,578.746 z" id="boundary" inkscape:connector-curvature="0" />
	<path style="fill:none;stroke:red;stroke-width:1px;stroke-linecap:butt;stroke-linejoin:miter;stroke-opacity:1" d="M 609.427,28.5443 625.79,8.09072 z" id="boundary" inkscape:connector-curvature="0" />
	<path style="fill:none;stroke:red;stroke-width:1px;stroke-linecap:butt;stroke-linejoin:miter;stroke-opacity:1" d="M 619.654,578.746 640.107,574.656 z" id="boundary" inkscape:connector-curvature="0" />
	<path style="fill:none;stroke:red;stroke-width:1px;stroke-linecap:butt;stroke-linejoin:miter;stroke-opacity:1" d="M 625.79,8.09072 646.243,4 z" id="boundary" inkscape:connector-curvature="0" />
	<path style="fill:none;stroke:red;stroke-width:1px;stroke-linecap:butt;stroke-linejoin:miter;stroke-opacity:1" d="M 640.107,574.656 660.561,568.52 z" id="boundary" inkscape:connector-curvature="0" />
	<path style="fill:none;stroke:red;stroke-width:1px;stroke-linecap:butt;stroke-linejoin:miter;stroke-opacity:1" d="M 646.243,4 666.697,6.04536 z" id="boundary" inkscape:connector-curvature="0" />
	<path style="fill:none;stroke:red;stroke-width:1px;stroke-linecap:butt;stroke-linejoin:miter;stroke-opacity:1" d="M 660.561,568.52 681.014,562.384 z" id="boundary" inkscape:connector-curvature="0" />
	<path style="fill:none;stroke:red;stroke-width:1px;stroke-linecap:butt;stroke-linejoin:miter;stroke-opacity:1" d="M 666.697,6.04536 678.969,22.4082 z" id="boundary" inkscape:connector-curvature="0" />
	<path style="fill:none;stroke:red;stroke-width:1px;stroke-linecap:butt;stroke-linejoin:miter;stroke-opacity:1" d="M 678.969,22.4082 689.196,40.8165 z" id="boundary" inkscape:connector-curvature="0" />
	<path style="fill:none;stroke:red;stroke-width:1px;stroke-linecap:butt;stroke-linejoin:miter;stroke-opacity:1" d="M 681.014,562.384 701.468,562.384 z" id="boundary" inkscape:connector-curvature="0" />
	<path style="fill:none;stroke:red;stroke-width:1px;stroke-linecap:butt;stroke-linejoin:miter;stroke-opacity:1" d="M 689.196,40.8165 709.649,44.9072 z" id="boundary" inkscape:connector-curvature="0" />
	<path style="fill:none;stroke:red;stroke-width:1px;stroke-linecap:butt;stroke-linejoin:miter;stroke-opacity:1" d="M 701.468,562.384 721.922,562.384 z" id="boundary" inkscape:connector-curvature="0" />
	<path style="fill:none;stroke:red;stroke-width:1px;stroke-linecap:butt;stroke-linejoin:miter;stroke-opacity:1" d="M 709.649,44.9072 730.103,53.0887 z" id="boundary" inkscape:connector-curvature="0" />
	<path style="fill:none;stroke:red;stroke-width:1px;stroke-linecap:butt;stroke-linejoin:miter;stroke-opacity:1" d="M 721.922,562.384 740.33,572.61 z" id="boundary" inkscape:connector-curvature="0" />
	<path style="fill:none;stroke:red;stroke-width:1px;stroke-linecap:butt;stroke-linejoin:miter;stroke-opacity:1" d="M 730.103,53.0887 750.557,61.2701 z" id="boundary" inkscape:connector-curvature="0" />
	<path style="fill:none;stroke:red;stroke-width:1px;stroke-linecap:butt;stroke-linejoin:miter;stroke-opacity:1" d="M 740.33,572.61 744.421,593.064 z" id="boundary" inkscape:connector-curvature="0" />
	<path style="fill:none;stroke:red;stroke-width:1px;stroke-linecap:butt;stroke-linejoin:miter;stroke-opacity:1" d="M 744.421,593.064 744.421,613.518 z" id="boundary" inkscape:connector-curvature="0" />
	<path style="fill:none;stroke:red;stroke-width:1px;stroke-linecap:butt;stroke-linejoin:miter;stroke-opacity:1" d="M 744.421,613.518 750.557,633.971 z" id="boundary" inkscape:connector-curvature="0" />
	<path style="fill:none;stroke:red;stroke-width:1px;stroke-linecap:butt;stroke-linejoin:miter;stroke-opacity:1" d="M 750.557,61.2701 766.92,73.5423 z" id="boundary" inkscape:connector-curvature="0" />
	<path style="fill:none;stroke:red;stroke-width:1px;stroke-linecap:butt;stroke-linejoin:miter;stroke-opacity:1" d="M 750.557,633.971 771.01,633.971 z" id="boundary" inkscape:connector-curvature="0" />
	<path style="fill:none;stroke:red;stroke-width:1px;stroke-linecap:butt;stroke-linejoin:miter;stroke-opacity:1" d="M 766.92,73.5423 787.373,77.633 z" id="boundary" inkscape:connector-curvature="0" />
	<path style="fill:none;stroke:red;stroke-width:1px;stroke-linecap:butt;stroke-linejoin:miter;stroke-opacity:1" d="M 771.01,609.427 771.01,633.971 z" id="boundary" inkscape:connector-curvature="0" />
	<path style="fill:none;stroke:red;stroke-width:1px;stroke-linecap:butt;stroke-linejoin:miter;stroke-opacity:1" d="M 775.101,556.247 779.192,576.701 z" id="boundary" inkscape:connector-curvature="0" />
	<path style="fill:none;stroke:red;stroke-width:1px;stroke-linecap:butt;stroke-linejoin:miter;stroke-opacity:1" d="M 775.101,556.247 795.555,554.202 z" id="boundary" inkscape:connector-curvature="0" />
	<path style="fill:none;stroke:red;stroke-width:1px;stroke-linecap:butt;stroke-linejoin:miter;stroke-opacity:1" d="M 787.373,77.633 807.827,81.7237 z" id="boundary" inkscape:connector-curvature="0" />
	<path style="fill:none;stroke:red;stroke-width:1px;stroke-linecap:butt;stroke-linejoin:miter;stroke-opacity:1" d="M 795.555,554.202 816.008,554.202 z" id="boundary" inkscape:connector-curvature="0" />
	<path style="fill:none;stroke:red;stroke-width:1px;stroke-linecap:butt;stroke-linejoin:miter;stroke-opacity:1" d="M 807.827,81.7237 828.28,85.8144 z" id="boundary" inkscape:connector-curvature="0" />
	<path style="fill:none;stroke:red;stroke-width:1px;stroke-linecap:butt;stroke-linejoin:miter;stroke-opacity:1" d="M 816.008,554.202 836.462,554.202 z" id="boundary" inkscape:connector-curvature="0" />
	<path style="fill:none;stroke:red;stroke-width:1px;stroke-linecap:butt;stroke-linejoin:miter;stroke-opacity:1" d="M 828.28,85.8144 848.734,89.9052 z" id="boundary" inkscape:connector-curvature="0" />
	<path style="fill:none;stroke:red;stroke-width:1px;stroke-linecap:butt;stroke-linejoin:miter;stroke-opacity:1" d="M 836.462,554.202 856.915,554.202 z" id="boundary" inkscape:connector-curvature="0" />
	<path style="fill:none;stroke:red;stroke-width:1px;stroke-linecap:butt;stroke-linejoin:miter;stroke-opacity:1" d="M 848.734,89.9052 869.188,93.9959 z" id="boundary" inkscape:connector-curvature="0" />
	<path style="fill:none;stroke:red;stroke-width:1px;stroke-linecap:butt;stroke-linejoin:miter;stroke-opacity:1" d="M 856.915,554.202 877.369,554.202 z" id="boundary" inkscape:connector-curvature="0" />
	<path style="fill:none;stroke:red;stroke-width:1px;stroke-linecap:butt;stroke-linejoin:miter;stroke-opacity:1" d="M 869.188,93.9959 889.641,98.0866 z" id="boundary" inkscape:connector-curvature="0" />
	<path style="fill:none;stroke:red;stroke-width:1px;stroke-linecap:butt;stroke-linejoin:miter;stroke-opacity:1" d="M 877.369,554.202 897.823,554.202 z" id="boundary" inkscape:connector-curvature="0" />
	<path style="fill:none;stroke:red;stroke-width:1px;stroke-linecap:butt;stroke-linejoin:miter;stroke-opacity:1" d="M 889.641,98.0866 910.095,106.268 z" id="boundary" inkscape:connector-curvature="0" />
	<path style="fill:none;stroke:red;stroke-width:1px;stroke-linecap:butt;stroke-linejoin:miter;stroke-opacity:1" d="M 897.823,554.202 918.276,554.202 z" id="boundary" inkscape:connector-curvature="0" />
	<path style="fill:none;stroke:red;stroke-width:1px;stroke-linecap:butt;stroke-linejoin:miter;stroke-opacity:1" d="M 910.095,106.268 930.548,114.449 z" id="boundary" inkscape:connector-curvature="0" />
	<path style="fill:none;stroke:red;stroke-width:1px;stroke-linecap:butt;stroke-linejoin:miter;stroke-opacity:1" d="M 918.276,554.202 938.73,554.202 z" id="boundary" inkscape:connector-curvature="0" />
	<path style="fill:none;stroke:red;stroke-width:1px;stroke-linecap:butt;stroke-linejoin:miter;stroke-opacity:1" d="M 930.548,114.449 951.002,122.631 z" id="boundary" inkscape:connector-curvature="0" />
	<path style="fill:none;stroke:red;stroke-width:1px;stroke-linecap:butt;stroke-linejoin:miter;stroke-opacity:1" d="M 938.73,554.202 957.138,564.429 z" id="boundary" inkscape:connector-curvature="0" />
	<path style="fill:none;stroke:red;stroke-width:1px;stroke-linecap:butt;stroke-linejoin:miter;stroke-opacity:1" d="M 951.002,122.631 971.456,130.812 z" id="boundary" inkscape:connector-curvature="0" />
	<path style="fill:none;stroke:red;stroke-width:1px;stroke-linecap:butt;stroke-linejoin:miter;stroke-opacity:1" d="M 957.138,564.429 957.138,584.882 z" id="boundary" inkscape:connector-curvature="0" />
	<path style="fill:none;stroke:red;stroke-width:1px;stroke-linecap:butt;stroke-linejoin:miter;stroke-opacity:1" d="M 957.138,584.882 961.229,605.336 z" id="boundary" inkscape:connector-curvature="0" />
	<path style="fill:none;stroke:red;stroke-width:1px;stroke-linecap:butt;stroke-linejoin:miter;stroke-opacity:1" d="M 961.229,605.336 961.229,625.79 z" id="boundary" inkscape:connector-curvature="0" />
	<path style="fill:none;stroke:red;stroke-width:1px;stroke-linecap:butt;stroke-linejoin:miter;stroke-opacity:1" d="M 961.229,625.79 979.637,636.016 z" id="boundary" inkscape:connector-curvature="0" />
	<path style="fill:none;stroke:red;stroke-width:1px;stroke-linecap:butt;stroke-linejoin:miter;stroke-opacity:1" d="M 971.456,130.812 987.819,143.085 z" id="boundary" inkscape:connector-curvature="0" />
	<path style="fill:none;stroke:red;stroke-width:1px;stroke-linecap:butt;stroke-linejoin:miter;stroke-opacity:1" d="M 975.546,224.899 975.546,245.353 z" id="boundary" inkscape:connector-curvature="0" />
	<path style="fill:none;stroke:red;stroke-width:1px;stroke-linecap:butt;stroke-linejoin:miter;stroke-opacity:1" d="M 975.546,224.899 979.637,196.264 z" id="boundary" inkscape:connector-curvature="0" />
	<path style="fill:none;stroke:red;stroke-width:1px;stroke-linecap:butt;stroke-linejoin:miter;stroke-opacity:1" d="M 975.546,245.353 975.546,265.806 z" id="boundary" inkscape:connector-curvature="0" />
	<path style="fill:none;stroke:red;stroke-width:1px;stroke-linecap:butt;stroke-linejoin:miter;stroke-opacity:1" d="M 975.546,265.806 975.546,286.26 z" id="boundary" inkscape:connector-curvature="0" />
	<path style="fill:none;stroke:red;stroke-width:1px;stroke-linecap:butt;stroke-linejoin:miter;stroke-opacity:1" d="M 975.546,286.26 975.546,306.713 z" id="boundary" inkscape:connector-curvature="0" />
	<path style="fill:none;stroke:red;stroke-width:1px;stroke-linecap:butt;stroke-linejoin:miter;stroke-opacity:1" d="M 975.546,306.713 975.546,327.167 z" id="boundary" inkscape:connector-curvature="0" />
	<path style="fill:none;stroke:red;stroke-width:1px;stroke-linecap:butt;stroke-linejoin:miter;stroke-opacity:1" d="M 975.546,327.167 979.637,347.621 z" id="boundary" inkscape:connector-curvature="0" />
	<path style="fill:none;stroke:red;stroke-width:1px;stroke-linecap:butt;stroke-linejoin:miter;stroke-opacity:1" d="M 979.637,196.264 996,163.538 z" id="boundary" inkscape:connector-curvature="0" />
	<path style="fill:none;stroke:red;stroke-width:1px;stroke-linecap:butt;stroke-linejoin:miter;stroke-opacity:1" d="M 979.637,347.621 981.682,368.074 z" id="boundary" inkscape:connector-curvature="0" />
	<path style="fill:none;stroke:red;stroke-width:1px;stroke-linecap:butt;stroke-linejoin:miter;stroke-opacity:1" d="M 979.637,636.016 985.773,615.563 z" id="boundary" inkscape:connector-curvature="0" />
	<path style="fill:none;stroke:red;stroke-width:1px;stroke-linecap:butt;stroke-linejoin:miter;stroke-opacity:1" d="M 981.682,368.074 983.728,388.528 z" id="boundary" inkscape:connector-curvature="0" />
	<path style="fill:none;stroke:red;stroke-width:1px;stroke-linecap:butt;stroke-linejoin:miter;stroke-opacity:1" d="M 983.728,388.528 987.819,408.981 z" id="boundary" inkscape:connector-curvature="0" />
	<path style="fill:none;stroke:red;stroke-width:1px;stroke-linecap:butt;stroke-linejoin:miter;stroke-opacity:1" d="M 987.819,143.085 996,163.538 z" id="boundary" inkscape:connector-curvature="0" />
	<path style="fill:none;stroke:red;stroke-width:1px;stroke-linecap:butt;stroke-linejoin:miter;stroke-opacity:1" d="M 987.819,408.981 987.819,429.435 z" id="boundary" inkscape:connector-curvature="0" />
	<path style="fill:none;stroke:red;stroke-width:1px;stroke-linecap:butt;stroke-linejoin:miter;stroke-opacity:1" d="M 987.819,429.435 987.819,449.889 z" id="boundary" inkscape:connector-curvature="0" />
	<path style="fill:none;stroke:red;stroke-width:1px;stroke-linecap:butt;stroke-linejoin:miter;stroke-opacity:1" d="M 987.819,449.889 991.909,470.342 z" id="boundary" inkscape:connector-curvature="0" />
	<path style="fill:none;stroke:red;stroke-width:1px;stroke-linecap:butt;stroke-linejoin:miter;stroke-opacity:1" d="M 987.819,527.612 987.819,548.066 z" id="boundary" inkscape:connector-curvature="0" />
	<path style="fill:none;stroke:red;stroke-width:1px;stroke-linecap:butt;stroke-linejoin:miter;stroke-opacity:1" d="M 987.819,527.612 991.909,490.796 z" id="boundary" inkscape:connector-curvature="0" />
	<path style="fill:none;stroke:red;stroke-width:1px;stroke-linecap:butt;stroke-linejoin:miter;stroke-opacity:1" d="M 987.819,548.066 987.819,568.52 z" id="boundary" inkscape:connector-curvature="0" />
	<path style="fill:none;stroke:red;stroke-width:1px;stroke-linecap:butt;stroke-linejoin:miter;stroke-opacity:1" d="M 987.819,568.52 987.819,588.973 z" id="boundary" inkscape:connector-curvature="0" />
	<path style="fill:none;stroke:red;stroke-width:1px;stroke-linecap:butt;stroke-linejoin:miter;stroke-opacity:1" d="M 991.909,470.342 991.909,490.796 z" id="boundary" inkscape:connector-curvature="0" />
	<circle cx="4" cy="396.709" r="4" fill="#0" id="circle0"/>
	<circle cx="6.04536" cy="417.163" r="4" fill="#0" id="circle1"/>
	<circle cx="14.2268" cy="378.301" r="4" fill="#0" id="circle2"/>
	<circle cx="16.2722" cy="580.792" r="4" fill="#0" id="circle3"/>
	<circle cx="18.3175" cy="433.526" r="4" fill="#0" id="circle4"/>
	<circle cx="20.3629" cy="617.608" r="4" fill="#0" id="circle5"/>
	<circle cx="24.4536" cy="556.247" r="4" fill="#0" id="circle6"/>
	<circle cx="28.5443" cy="451.934" r="4" fill="#0" id="circle7"/>
	<circle cx="28.5443" cy="472.388" r="4" fill="#0" id="circle8"/>
	<circle cx="28.5443" cy="492.841" r="4" fill="#0" id="circle9"/>
	<circle cx="28.5443" cy="513.295" r="4" fill="#0" id="circle10"/>
	<circle cx="28.5443" cy="533.748" r="4" fill="#0" id="circle11"/>
	<circle cx="30.5897" cy="636.016" r="4" fill="#0" id="circle12"/>
	<circle cx="32.6351" cy="368.074" r="4" fill="#0" id="circle13"/>
	<circle cx="51.0433" cy="580.792" r="4" fill="#0" id="circle14"/>
	<circle cx="51.0433" cy="601.245" r="4" fill="#0" id="circle15"/>
	<circle cx="51.0433" cy="621.699" r="4" fill="#0" id="circle16"/>
	<circle cx="53.0887" cy="359.893" r="4" fill="#0" id="circle17"/>
	<circle cx="61.2701" cy="562.384" r="4" fill="#0" id="circle18"/>
	<circle cx="73.5423" cy="351.711" r="4" fill="#0" id="circle19"/>
	<circle cx="81.7237" cy="562.384" r="4" fill="#0" id="circle20"/>
	<circle cx="93.9959" cy="347.621" r="4" fill="#0" id="circle21"/>
	<circle cx="102.177" cy="562.384" r="4" fill="#0" id="circle22"/>
	<circle cx="114.449" cy="343.53" r="4" fill="#0" id="circle23"/>
	<circle cx="122.631" cy="566.474" r="4" fill="#0" id="circle24"/>
	<circle cx="134.903" cy="339.439" r="4" fill="#0" id="circle25"/>
	<circle cx="143.085" cy="570.565" r="4" fill="#0" id="circle26"/>
	<circle cx="155.357" cy="335.348" r="4" fill="#0" id="circle27"/>
	<circle cx="163.538" cy="578.746" r="4" fill="#0" id="circle28"/>
	<circle cx="175.81" cy="331.258" r="4" fill="#0" id="circle29"/>
	<circle cx="181.946" cy="568.52" r="4" fill="#0" id="circle30"/>
	<circle cx="196.264" cy="331.258" r="4" fill="#0" id="circle31"/>
	<circle cx="200.355" cy="558.293" r="4" fill="#0" id="circle32"/>
	<circle cx="216.718" cy="327.167" r="4" fill="#0" id="circle33"/>
	<circle cx="220.808" cy="558.293" r="4" fill="#0" id="circle34"/>
	<circle cx="237.171" cy="327.167" r="4" fill="#0" id="circle35"/>
	<circle cx="241.262" cy="560.338" r="4" fill="#0" id="circle36"/>
	<circle cx="257.625" cy="327.167" r="4" fill="#0" id="circle37"/>
	<circle cx="261.715" cy="566.474" r="4" fill="#0" id="circle38"/>
	<circle cx="278.078" cy="323.076" r="4" fill="#0" id="circle39"/>
	<circle cx="282.169" cy="572.61" r="4" fill="#0" id="circle40"/>
	<circle cx="298.532" cy="314.895" r="4" fill="#0" id="circle41"/>
	<circle cx="302.623" cy="163.538" r="4" fill="#0" id="circle42"/>
	<circle cx="302.623" cy="580.792" r="4" fill="#0" id="circle43"/>
	<circle cx="306.713" cy="183.992" r="4" fill="#0" id="circle44"/>
	<circle cx="306.713" cy="621.699" r="4" fill="#0" id="circle45"/>
	<circle cx="310.804" cy="143.085" r="4" fill="#0" id="circle46"/>
	<circle cx="310.804" cy="601.245" r="4" fill="#0" id="circle47"/>
	<circle cx="314.895" cy="302.623" r="4" fill="#0" id="circle48"/>
	<circle cx="321.031" cy="200.355" r="4" fill="#0" id="circle49"/>
	<circle cx="323.076" cy="220.808" r="4" fill="#0" id="circle50"/>
	<circle cx="323.076" cy="241.262" r="4" fill="#0" id="circle51"/>
	<circle cx="323.076" cy="636.016" r="4" fill="#0" id="circle52"/>
	<circle cx="327.167" cy="130.812" r="4" fill="#0" id="circle53"/>
	<circle cx="327.167" cy="261.715" r="4" fill="#0" id="circle54"/>
	<circle cx="327.167" cy="282.169" r="4" fill="#0" id="circle55"/>
	<circle cx="333.303" cy="613.518" r="4" fill="#0" id="circle56"/>
	<circle cx="337.394" cy="593.064" r="4" fill="#0" id="circle57"/>
	<circle cx="347.621" cy="122.631" r="4" fill="#0" id="circle58"/>
	<circle cx="357.847" cy="595.109" r="4" fill="#0" id="circle59"/>
	<circle cx="368.074" cy="114.449" r="4" fill="#0" id="circle60"/>
	<circle cx="378.301" cy="599.2" r="4" fill="#0" id="circle61"/>
	<circle cx="388.528" cy="106.268" r="4" fill="#0" id="circle62"/>
	<circle cx="398.755" cy="599.2" r="4" fill="#0" id="circle63"/>
	<circle cx="408.981" cy="102.177" r="4" fill="#0" id="circle64"/>
	<circle cx="419.208" cy="599.2" r="4" fill="#0" id="circle65"/>
	<circle cx="429.435" cy="93.9959" r="4" fill="#0" id="circle66"/>
	<circle cx="439.662" cy="595.109" r="4" fill="#0" id="circle67"/>
	<circle cx="449.889" cy="89.9052" r="4" fill="#0" id="circle68"/>
	<circle cx="460.115" cy="588.973" r="4" fill="#0" id="circle69"/>
	<circle cx="470.342" cy="85.8144" r="4" fill="#0" id="circle70"/>
	<circle cx="480.569" cy="580.792" r="4" fill="#0" id="circle71"/>
	<circle cx="490.796" cy="81.7237" r="4" fill="#0" id="circle72"/>
	<circle cx="501.023" cy="574.656" r="4" fill="#0" id="circle73"/>
	<circle cx="511.249" cy="77.633" r="4" fill="#0" id="circle74"/>
	<circle cx="521.476" cy="568.52" r="4" fill="#0" id="circle75"/>
	<circle cx="531.703" cy="73.5423" r="4" fill="#0" id="circle76"/>
	<circle cx="541.93" cy="562.384" r="4" fill="#0" id="circle77"/>
	<circle cx="548.066" cy="57.1794" r="4" fill="#0" id="circle78"/>
	<circle cx="562.384" cy="558.293" r="4" fill="#0" id="circle79"/>
	<circle cx="568.52" cy="48.9979" r="4" fill="#0" id="circle80"/>
	<circle cx="582.837" cy="558.293" r="4" fill="#0" id="circle81"/>
	<circle cx="588.973" cy="40.8165" r="4" fill="#0" id="circle82"/>
	<circle cx="603.291" cy="566.474" r="4" fill="#0" id="circle83"/>
	<circle cx="609.427" cy="28.5443" r="4" fill="#0" id="circle84"/>
	<circle cx="619.654" cy="578.746" r="4" fill="#0" id="circle85"/>
	<circle cx="625.79" cy="8.09072" r="4" fill="#0" id="circle86"/>
	<circle cx="640.107" cy="574.656" r="4" fill="#0" id="circle87"/>
	<circle cx="646.243" cy="4" r="4" fill="#0" id="circle88"/>
	<circle cx="660.561" cy="568.52" r="4" fill="#0" id="circle89"/>
	<circle cx="666.697" cy="6.04536" r="4" fill="#0" id="circle90"/>
	<circle cx="678.969" cy="22.4082" r="4" fill="#0" id="circle91"/>
	<circle cx="681.014" cy="562.384" r="4" fill="#0" id="circle92"/>
	<circle cx="689.196" cy="40.8165" r="4" fill="#0" id="circle93"/>
	<circle cx="701.468" cy="562.384" r="4" fill="#0" id="circle94"/>
	<circle cx="709.649" cy="44.9072" r="4" fill="#0" id="circle95"/>
	<circle cx="721.922" cy="562.384" r="4" fill="#0" id="circle96"/>
	<circle cx="730.103" cy="53.0887" r="4" fill="#0" id="circle97"/>
	<circle cx="740.33" cy="572.61" r="4" fill="#0" id="circle98"/>
	<circle cx="744.421" cy="593.064" r="4" fill="#0" id="circle99"/>
	<circle cx="744.421" cy="613.518" r="4" fill="#0" id="circle100"/>
	<circle cx="750.557" cy="61.2701" r="4" fill="#0" id="circle101"/>
	<circle cx="750.557" cy="633.971" r="4" fill="#0" id="circle102"/>
	<circle cx="766.92" cy="73.5423" r="4" fill="#0" id="circle103"/>
	<circle cx="771.01" cy="609.427" r="4" fill="#0" id="circle104"/>
	<circle cx="771.01" cy="633.971" r="4" fill="#0" id="circle105"/>
	<circle cx="775.101" cy="556.247" r="4" fill="#0" id="circle106"/>
	<circle cx="779.192" cy="576.701" r="4" fill="#0" id="circle107"/>
	<circle cx="787.373" cy="77.633" r="4" fill="#0" id="circle108"/>
	<circle cx="795.555" cy="554.202" r="4" fill="#0" id="circle109"/>
	<circle cx="807.827" cy="81.7237" r="4" fill="#0" id="circle110"/>
	<circle cx="816.008" cy="554.202" r="4" fill="#0" id="circle111"/>
	<circle cx="828.28" cy="85.8144" r="4" fill="#0" id="circle112"/>
	<circle cx="836.462" cy="554.202" r="4" fill="#0" id="circle113"/>
	<circle cx="848.734" cy="89.9052" r="4" fill="#0" id="circle114"/>
	<circle cx="856.915" cy="554.202" r="4" fill="#0" id="circle115"/>
	<circle cx="869.188" cy="93.9959" r="4" fill="#0" id="circle116"/>
	<circle cx="877.369" cy="554.202" r="4" fill="#0" id="circle117"/>
	<circle cx="889.641" cy="98.0866" r="4" fill="#0" id="circle118"/>
	<circle cx="897.823" cy="554.202" r="4" fill="#0" id="circle119"/>
	<circle cx="910.095" cy="106.268" r="4" fill="#0" id="circle120"/>
	<circle cx="918.276" cy="554.202" r="4" fill="#0" id="circle121"/>
	<circle cx="930.548" cy="114.449" r="4" fill="#0" id="circle122"/>
	<circle cx="938.73" cy="554.202" r="4" fill="#0" id="circle123"/>
	<circle cx="951.002" cy="122.631" r="4" fill="#0" id="circle124"/>
	<circle cx="957.138" cy="564.429" r="4" fill="#0" id="circle125"/>
	<circle cx="957.138" cy="584.882" r="4" fill="#0" id="circle126"/>
	<circle cx="961.229" cy="605.336" r="4" fill="#0" id="circle127"/>
	<circle cx="961.229" cy="625.79" r="4" fill="#0" id="circle128"/>
	<circle cx="971.456" cy="130.812" r="4" fill="#0" id="circle129"/>
	<circle cx="975.546" cy="224.899" r="4" fill="#0" id="circle130"/>
	<circle cx="975.546" cy="245.353" r="4" fill="#0" id="circle131"/>
	<circle cx="975.546" cy="265.806" r="4" fill="#0" id="circle132"/>
	<circle cx="975.546" cy="286.26" r="4" fill="#0" id="circle133"/>
	<circle cx="975.546" cy="306.713" r="4" fill="#0" id="circle134"/>
	<circle cx="975.546" cy="327.167" r="4" fill="#0" id="circle135"/>
	<circle cx="979.637" cy="196.264" r="4" fill="#0" id="circle136"/>
	<circle cx="979.637" cy="347.621" r="4" fill="#0" id="circle137"/>
	<circle cx="979.637" cy="636.016" r="4" fill="#0" id="circle138"/>
	<circle cx="981.682" cy="368.074" r="4" fill="#0" id="circle139"/>
	<circle cx="983.728" cy="388.528" r="4" fill="#0" id="circle140"/>
	<circle cx="985.773" cy="615.563" r="4" fill="#0" id="circle141"/>
	<circle cx="987.819" cy="143.085" r="4" fill="#0" id="circle142"/>
	<circle cx="987.819" cy="408.981" r="4" fill="#0" id="circle143"/>
	<circle cx="987.819" cy="429.435" r="4" fill="#0" id="circle144"/>
	<circle cx="987.819" cy="449.889" r="4" fill="#0" id="circle145"/>
	<circle cx="987.819" cy="527.612" r="4" fill="#0" id="circle146"/>
	<circle cx="987.819" cy="548.066" r="4" fill="#0" id="circle147"/>
	<circle cx="987.819" cy="568.52" r="4" fill="#0" id="circle148"/>
	<circle cx="987.819" cy="588.973" r="4" fill="#0" id="circle149"/>
	<circle cx="991.909" cy="470.342" r="4" fill="#0" id="circle150"/>
	<circle cx="991.909" cy="490.796" r="4" fill="#0" id="circle151"/>
	<circle cx="996" cy="163.538" r="4" fill="#0" id="circle152"/>
	</g>
</svg>