<?xml version="1.0" encoding="UTF-8" standalone="no"?>
<!-- Created with CurveBenchmark -->
<svg
	xmlns:dc="http://purl.org/dc/elements/1.1/"
	xmlns:cc="http://creativecommons.org/ns#"
	xmlns:rdf="http://www.w3.org/1999/02/22-rdf-syntax-ns#"
	xmlns:svg="http://www.w3.org/2000/svg"
	xmlns="http://www.w3.org/2000/svg"
	xmlns:sodipodi="http://sodipodi.sourceforge.net/DTD/sodipodi-0.dtd"
	xmlns:inkscape="http://www.inkscape.org/namespaces/inkscape"
	width="1000"
	height="1000"
	id="svg2"
	version="1.1"
	sodipodi:docname="manifold/hnncrust-television240.png.txt">
<defs
	id="defs4" />
<metadata
	id="metadata7">
	<rdf:RDF>
		<cc:Work
			rdf:about="">
			<dc:format>image/svg+xml</dc:format>
			<dc:type
				rdf:resource="http://purl.org/dc/dcmitype/StillImage" />
			<dc:title></dc:title>
		</cc:Work>
	</rdf:RDF>
</metadata>
<g
	inkscape:label="Layer 1"
	inkscape:groupmode="layer"
	id="layer1">
	<path style="fill:none;stroke:red;stroke-width:1px;stroke-linecap:butt;stroke-linejoin:miter;stroke-opacity:1" d="M 4,913.66 4,952.87 z" id="boundary" inkscape:connector-curvature="0" />
	<path style="fill:none;stroke:red;stroke-width:1px;stroke-linecap:butt;stroke-linejoin:miter;stroke-opacity:1" d="M 4,913.66 43.2095,897.976 z" id="boundary" inkscape:connector-curvature="0" />
	<path style="fill:none;stroke:red;stroke-width:1px;stroke-linecap:butt;stroke-linejoin:miter;stroke-opacity:1" d="M 4,952.87 35.3676,980.316 z" id="boundary" inkscape:connector-curvature="0" />
	<path style="fill:none;stroke:red;stroke-width:1px;stroke-linecap:butt;stroke-linejoin:miter;stroke-opacity:1" d="M 35.3676,980.316 74.5771,980.316 z" id="boundary" inkscape:connector-curvature="0" />
	<path style="fill:none;stroke:red;stroke-width:1px;stroke-linecap:butt;stroke-linejoin:miter;stroke-opacity:1" d="M 43.2095,897.976 74.5771,921.502 z" id="boundary" inkscape:connector-curvature="0" />
	<path style="fill:none;stroke:red;stroke-width:1px;stroke-linecap:butt;stroke-linejoin:miter;stroke-opacity:1" d="M 74.5771,921.502 105.945,897.976 z" id="boundary" inkscape:connector-curvature="0" />
	<path style="fill:none;stroke:red;stroke-width:1px;stroke-linecap:butt;stroke-linejoin:miter;stroke-opacity:1" d="M 74.5771,980.316 113.787,980.316 z" id="boundary" inkscape:connector-curvature="0" />
	<path style="fill:none;stroke:red;stroke-width:1px;stroke-linecap:butt;stroke-linejoin:miter;stroke-opacity:1" d="M 105.945,897.976 137.312,921.502 z" id="boundary" inkscape:connector-curvature="0" />
	<path style="fill:none;stroke:red;stroke-width:1px;stroke-linecap:butt;stroke-linejoin:miter;stroke-opacity:1" d="M 113.787,980.316 152.996,980.316 z" id="boundary" inkscape:connector-curvature="0" />
	<path style="fill:none;stroke:red;stroke-width:1px;stroke-linecap:butt;stroke-linejoin:miter;stroke-opacity:1" d="M 137.312,670.561 172.601,690.166 z" id="boundary" inkscape:connector-curvature="0" />
	<path style="fill:none;stroke:red;stroke-width:1px;stroke-linecap:butt;stroke-linejoin:miter;stroke-opacity:1" d="M 137.312,788.19 168.68,815.636 z" id="boundary" inkscape:connector-curvature="0" />
	<path style="fill:none;stroke:red;stroke-width:1px;stroke-linecap:butt;stroke-linejoin:miter;stroke-opacity:1" d="M 137.312,921.502 168.68,897.976 z" id="boundary" inkscape:connector-curvature="0" />
	<path style="fill:none;stroke:red;stroke-width:1px;stroke-linecap:butt;stroke-linejoin:miter;stroke-opacity:1" d="M 152.996,980.316 192.206,980.316 z" id="boundary" inkscape:connector-curvature="0" />
	<path style="fill:none;stroke:red;stroke-width:1px;stroke-linecap:butt;stroke-linejoin:miter;stroke-opacity:1" d="M 168.68,815.636 207.889,815.636 z" id="boundary" inkscape:connector-curvature="0" />
	<path style="fill:none;stroke:red;stroke-width:1px;stroke-linecap:butt;stroke-linejoin:miter;stroke-opacity:1" d="M 168.68,897.976 200.047,921.502 z" id="boundary" inkscape:connector-curvature="0" />
	<path style="fill:none;stroke:red;stroke-width:1px;stroke-linecap:butt;stroke-linejoin:miter;stroke-opacity:1" d="M 172.601,690.166 211.81,690.166 z" id="boundary" inkscape:connector-curvature="0" />
	<path style="fill:none;stroke:red;stroke-width:1px;stroke-linecap:butt;stroke-linejoin:miter;stroke-opacity:1" d="M 188.285,780.348 227.494,780.348 z" id="boundary" inkscape:connector-curvature="0" />
	<path style="fill:none;stroke:red;stroke-width:1px;stroke-linecap:butt;stroke-linejoin:miter;stroke-opacity:1" d="M 192.206,11.8419 192.206,51.0514 z" id="boundary" inkscape:connector-curvature="0" />
	<path style="fill:none;stroke:red;stroke-width:1px;stroke-linecap:butt;stroke-linejoin:miter;stroke-opacity:1" d="M 192.206,11.8419 231.415,4 z" id="boundary" inkscape:connector-curvature="0" />
	<path style="fill:none;stroke:red;stroke-width:1px;stroke-linecap:butt;stroke-linejoin:miter;stroke-opacity:1" d="M 192.206,51.0514 192.206,90.2609 z" id="boundary" inkscape:connector-curvature="0" />
	<path style="fill:none;stroke:red;stroke-width:1px;stroke-linecap:butt;stroke-linejoin:miter;stroke-opacity:1" d="M 192.206,90.2609 192.206,129.47 z" id="boundary" inkscape:connector-curvature="0" />
	<path style="fill:none;stroke:red;stroke-width:1px;stroke-linecap:butt;stroke-linejoin:miter;stroke-opacity:1" d="M 192.206,129.47 192.206,168.68 z" id="boundary" inkscape:connector-curvature="0" />
	<path style="fill:none;stroke:red;stroke-width:1px;stroke-linecap:butt;stroke-linejoin:miter;stroke-opacity:1" d="M 192.206,168.68 192.206,207.889 z" id="boundary" inkscape:connector-curvature="0" />
	<path style="fill:none;stroke:red;stroke-width:1px;stroke-linecap:butt;stroke-linejoin:miter;stroke-opacity:1" d="M 192.206,207.889 192.206,247.099 z" id="boundary" inkscape:connector-curvature="0" />
	<path style="fill:none;stroke:red;stroke-width:1px;stroke-linecap:butt;stroke-linejoin:miter;stroke-opacity:1" d="M 192.206,247.099 192.206,286.308 z" id="boundary" inkscape:connector-curvature="0" />
	<path style="fill:none;stroke:red;stroke-width:1px;stroke-linecap:butt;stroke-linejoin:miter;stroke-opacity:1" d="M 192.206,286.308 192.206,325.518 z" id="boundary" inkscape:connector-curvature="0" />
	<path style="fill:none;stroke:red;stroke-width:1px;stroke-linecap:butt;stroke-linejoin:miter;stroke-opacity:1" d="M 192.206,325.518 192.206,364.727 z" id="boundary" inkscape:connector-curvature="0" />
	<path style="fill:none;stroke:red;stroke-width:1px;stroke-linecap:butt;stroke-linejoin:miter;stroke-opacity:1" d="M 192.206,364.727 192.206,403.937 z" id="boundary" inkscape:connector-curvature="0" />
	<path style="fill:none;stroke:red;stroke-width:1px;stroke-linecap:butt;stroke-linejoin:miter;stroke-opacity:1" d="M 192.206,403.937 192.206,443.146 z" id="boundary" inkscape:connector-curvature="0" />
	<path style="fill:none;stroke:red;stroke-width:1px;stroke-linecap:butt;stroke-linejoin:miter;stroke-opacity:1" d="M 192.206,443.146 192.206,482.356 z" id="boundary" inkscape:connector-curvature="0" />
	<path style="fill:none;stroke:red;stroke-width:1px;stroke-linecap:butt;stroke-linejoin:miter;stroke-opacity:1" d="M 192.206,482.356 203.968,521.565 z" id="boundary" inkscape:connector-curvature="0" />
	<path style="fill:none;stroke:red;stroke-width:1px;stroke-linecap:butt;stroke-linejoin:miter;stroke-opacity:1" d="M 192.206,654.877 231.415,654.877 z" id="boundary" inkscape:connector-curvature="0" />
	<path style="fill:none;stroke:red;stroke-width:1px;stroke-linecap:butt;stroke-linejoin:miter;stroke-opacity:1" d="M 192.206,980.316 231.415,980.316 z" id="boundary" inkscape:connector-curvature="0" />
	<path style="fill:none;stroke:red;stroke-width:1px;stroke-linecap:butt;stroke-linejoin:miter;stroke-opacity:1" d="M 200.047,921.502 231.415,897.976 z" id="boundary" inkscape:connector-curvature="0" />
	<path style="fill:none;stroke:red;stroke-width:1px;stroke-linecap:butt;stroke-linejoin:miter;stroke-opacity:1" d="M 203.968,521.565 243.178,525.486 z" id="boundary" inkscape:connector-curvature="0" />
	<path style="fill:none;stroke:red;stroke-width:1px;stroke-linecap:butt;stroke-linejoin:miter;stroke-opacity:1" d="M 207.889,815.636 247.099,815.636 z" id="boundary" inkscape:connector-curvature="0" />
	<path style="fill:none;stroke:red;stroke-width:1px;stroke-linecap:butt;stroke-linejoin:miter;stroke-opacity:1" d="M 211.81,690.166 251.02,690.166 z" id="boundary" inkscape:connector-curvature="0" />
	<path style="fill:none;stroke:red;stroke-width:1px;stroke-linecap:butt;stroke-linejoin:miter;stroke-opacity:1" d="M 227.494,780.348 266.704,780.348 z" id="boundary" inkscape:connector-curvature="0" />
	<path style="fill:none;stroke:red;stroke-width:1px;stroke-linecap:butt;stroke-linejoin:miter;stroke-opacity:1" d="M 231.415,4 270.625,4 z" id="boundary" inkscape:connector-curvature="0" />
	<path style="fill:none;stroke:red;stroke-width:1px;stroke-linecap:butt;stroke-linejoin:miter;stroke-opacity:1" d="M 231.415,654.877 270.625,654.877 z" id="boundary" inkscape:connector-curvature="0" />
	<path style="fill:none;stroke:red;stroke-width:1px;stroke-linecap:butt;stroke-linejoin:miter;stroke-opacity:1" d="M 231.415,897.976 262.783,921.502 z" id="boundary" inkscape:connector-curvature="0" />
	<path style="fill:none;stroke:red;stroke-width:1px;stroke-linecap:butt;stroke-linejoin:miter;stroke-opacity:1" d="M 231.415,980.316 270.625,980.316 z" id="boundary" inkscape:connector-curvature="0" />
	<path style="fill:none;stroke:red;stroke-width:1px;stroke-linecap:butt;stroke-linejoin:miter;stroke-opacity:1" d="M 243.178,525.486 282.387,525.486 z" id="boundary" inkscape:connector-curvature="0" />
	<path style="fill:none;stroke:red;stroke-width:1px;stroke-linecap:butt;stroke-linejoin:miter;stroke-opacity:1" d="M 247.099,815.636 286.308,819.557 z" id="boundary" inkscape:connector-curvature="0" />
	<path style="fill:none;stroke:red;stroke-width:1px;stroke-linecap:butt;stroke-linejoin:miter;stroke-opacity:1" d="M 270.625,4 309.834,4 z" id="boundary" inkscape:connector-curvature="0" />
	<path style="fill:none;stroke:red;stroke-width:1px;stroke-linecap:butt;stroke-linejoin:miter;stroke-opacity:1" d="M 270.625,654.877 286.308,603.905 z" id="boundary" inkscape:connector-curvature="0" />
	<path style="fill:none;stroke:red;stroke-width:1px;stroke-linecap:butt;stroke-linejoin:miter;stroke-opacity:1" d="M 270.625,980.316 309.834,996 z" id="boundary" inkscape:connector-curvature="0" />
	<path style="fill:none;stroke:red;stroke-width:1px;stroke-linecap:butt;stroke-linejoin:miter;stroke-opacity:1" d="M 282.387,525.486 286.308,564.696 z" id="boundary" inkscape:connector-curvature="0" />
	<path style="fill:none;stroke:red;stroke-width:1px;stroke-linecap:butt;stroke-linejoin:miter;stroke-opacity:1" d="M 286.308,564.696 286.308,603.905 z" id="boundary" inkscape:connector-curvature="0" />
	<path style="fill:none;stroke:red;stroke-width:1px;stroke-linecap:butt;stroke-linejoin:miter;stroke-opacity:1" d="M 286.308,819.557 286.308,858.767 z" id="boundary" inkscape:connector-curvature="0" />
	<path style="fill:none;stroke:red;stroke-width:1px;stroke-linecap:butt;stroke-linejoin:miter;stroke-opacity:1" d="M 309.834,4 349.043,4 z" id="boundary" inkscape:connector-curvature="0" />
	<path style="fill:none;stroke:red;stroke-width:1px;stroke-linecap:butt;stroke-linejoin:miter;stroke-opacity:1" d="M 309.834,996 349.043,980.316 z" id="boundary" inkscape:connector-curvature="0" />
	<path style="fill:none;stroke:red;stroke-width:1px;stroke-linecap:butt;stroke-linejoin:miter;stroke-opacity:1" d="M 349.043,4 388.253,4 z" id="boundary" inkscape:connector-curvature="0" />
	<path style="fill:none;stroke:red;stroke-width:1px;stroke-linecap:butt;stroke-linejoin:miter;stroke-opacity:1" d="M 349.043,980.316 388.253,980.316 z" id="boundary" inkscape:connector-curvature="0" />
	<path style="fill:none;stroke:red;stroke-width:1px;stroke-linecap:butt;stroke-linejoin:miter;stroke-opacity:1" d="M 388.253,4 427.462,4 z" id="boundary" inkscape:connector-curvature="0" />
	<path style="fill:none;stroke:red;stroke-width:1px;stroke-linecap:butt;stroke-linejoin:miter;stroke-opacity:1" d="M 388.253,980.316 427.462,980.316 z" id="boundary" inkscape:connector-curvature="0" />
	<path style="fill:none;stroke:red;stroke-width:1px;stroke-linecap:butt;stroke-linejoin:miter;stroke-opacity:1" d="M 427.462,4 466.672,4 z" id="boundary" inkscape:connector-curvature="0" />
	<path style="fill:none;stroke:red;stroke-width:1px;stroke-linecap:butt;stroke-linejoin:miter;stroke-opacity:1" d="M 427.462,980.316 466.672,980.316 z" id="boundary" inkscape:connector-curvature="0" />
	<path style="fill:none;stroke:red;stroke-width:1px;stroke-linecap:butt;stroke-linejoin:miter;stroke-opacity:1" d="M 462.751,529.407 462.751,568.617 z" id="boundary" inkscape:connector-curvature="0" />
	<path style="fill:none;stroke:red;stroke-width:1px;stroke-linecap:butt;stroke-linejoin:miter;stroke-opacity:1" d="M 462.751,529.407 501.96,525.486 z" id="boundary" inkscape:connector-curvature="0" />
	<path style="fill:none;stroke:red;stroke-width:1px;stroke-linecap:butt;stroke-linejoin:miter;stroke-opacity:1" d="M 462.751,568.617 462.751,607.826 z" id="boundary" inkscape:connector-curvature="0" />
	<path style="fill:none;stroke:red;stroke-width:1px;stroke-linecap:butt;stroke-linejoin:miter;stroke-opacity:1" d="M 462.751,607.826 462.751,647.036 z" id="boundary" inkscape:connector-curvature="0" />
	<path style="fill:none;stroke:red;stroke-width:1px;stroke-linecap:butt;stroke-linejoin:miter;stroke-opacity:1" d="M 462.751,647.036 501.96,654.877 z" id="boundary" inkscape:connector-curvature="0" />
	<path style="fill:none;stroke:red;stroke-width:1px;stroke-linecap:butt;stroke-linejoin:miter;stroke-opacity:1" d="M 462.751,694.087 462.751,733.296 z" id="boundary" inkscape:connector-curvature="0" />
	<path style="fill:none;stroke:red;stroke-width:1px;stroke-linecap:butt;stroke-linejoin:miter;stroke-opacity:1" d="M 462.751,733.296 462.751,772.506 z" id="boundary" inkscape:connector-curvature="0" />
	<path style="fill:none;stroke:red;stroke-width:1px;stroke-linecap:butt;stroke-linejoin:miter;stroke-opacity:1" d="M 462.751,772.506 501.96,780.348 z" id="boundary" inkscape:connector-curvature="0" />
	<path style="fill:none;stroke:red;stroke-width:1px;stroke-linecap:butt;stroke-linejoin:miter;stroke-opacity:1" d="M 462.751,819.557 462.751,858.767 z" id="boundary" inkscape:connector-curvature="0" />
	<path style="fill:none;stroke:red;stroke-width:1px;stroke-linecap:butt;stroke-linejoin:miter;stroke-opacity:1" d="M 462.751,858.767 466.672,897.976 z" id="boundary" inkscape:connector-curvature="0" />
	<path style="fill:none;stroke:red;stroke-width:1px;stroke-linecap:butt;stroke-linejoin:miter;stroke-opacity:1" d="M 466.672,4 505.881,4 z" id="boundary" inkscape:connector-curvature="0" />
	<path style="fill:none;stroke:red;stroke-width:1px;stroke-linecap:butt;stroke-linejoin:miter;stroke-opacity:1" d="M 466.672,897.976 505.881,897.976 z" id="boundary" inkscape:connector-curvature="0" />
	<path style="fill:none;stroke:red;stroke-width:1px;stroke-linecap:butt;stroke-linejoin:miter;stroke-opacity:1" d="M 466.672,980.316 505.881,980.316 z" id="boundary" inkscape:connector-curvature="0" />
	<path style="fill:none;stroke:red;stroke-width:1px;stroke-linecap:butt;stroke-linejoin:miter;stroke-opacity:1" d="M 501.96,525.486 541.17,525.486 z" id="boundary" inkscape:connector-curvature="0" />
	<path style="fill:none;stroke:red;stroke-width:1px;stroke-linecap:butt;stroke-linejoin:miter;stroke-opacity:1" d="M 501.96,654.877 541.17,654.877 z" id="boundary" inkscape:connector-curvature="0" />
	<path style="fill:none;stroke:red;stroke-width:1px;stroke-linecap:butt;stroke-linejoin:miter;stroke-opacity:1" d="M 501.96,780.348 541.17,780.348 z" id="boundary" inkscape:connector-curvature="0" />
	<path style="fill:none;stroke:red;stroke-width:1px;stroke-linecap:butt;stroke-linejoin:miter;stroke-opacity:1" d="M 505.881,4 545.091,4 z" id="boundary" inkscape:connector-curvature="0" />
	<path style="fill:none;stroke:red;stroke-width:1px;stroke-linecap:butt;stroke-linejoin:miter;stroke-opacity:1" d="M 505.881,897.976 545.091,897.976 z" id="boundary" inkscape:connector-curvature="0" />
	<path style="fill:none;stroke:red;stroke-width:1px;stroke-linecap:butt;stroke-linejoin:miter;stroke-opacity:1" d="M 505.881,980.316 545.091,980.316 z" id="boundary" inkscape:connector-curvature="0" />
	<path style="fill:none;stroke:red;stroke-width:1px;stroke-linecap:butt;stroke-linejoin:miter;stroke-opacity:1" d="M 521.565,690.166 560.775,690.166 z" id="boundary" inkscape:connector-curvature="0" />
	<path style="fill:none;stroke:red;stroke-width:1px;stroke-linecap:butt;stroke-linejoin:miter;stroke-opacity:1" d="M 521.565,815.636 560.775,815.636 z" id="boundary" inkscape:connector-curvature="0" />
	<path style="fill:none;stroke:red;stroke-width:1px;stroke-linecap:butt;stroke-linejoin:miter;stroke-opacity:1" d="M 541.17,525.486 580.379,525.486 z" id="boundary" inkscape:connector-curvature="0" />
	<path style="fill:none;stroke:red;stroke-width:1px;stroke-linecap:butt;stroke-linejoin:miter;stroke-opacity:1" d="M 541.17,654.877 580.379,654.877 z" id="boundary" inkscape:connector-curvature="0" />
	<path style="fill:none;stroke:red;stroke-width:1px;stroke-linecap:butt;stroke-linejoin:miter;stroke-opacity:1" d="M 541.17,780.348 580.379,780.348 z" id="boundary" inkscape:connector-curvature="0" />
	<path style="fill:none;stroke:red;stroke-width:1px;stroke-linecap:butt;stroke-linejoin:miter;stroke-opacity:1" d="M 545.091,4 584.3,4 z" id="boundary" inkscape:connector-curvature="0" />
	<path style="fill:none;stroke:red;stroke-width:1px;stroke-linecap:butt;stroke-linejoin:miter;stroke-opacity:1" d="M 545.091,897.976 584.3,897.976 z" id="boundary" inkscape:connector-curvature="0" />
	<path style="fill:none;stroke:red;stroke-width:1px;stroke-linecap:butt;stroke-linejoin:miter;stroke-opacity:1" d="M 545.091,980.316 584.3,996 z" id="boundary" inkscape:connector-curvature="0" />
	<path style="fill:none;stroke:red;stroke-width:1px;stroke-linecap:butt;stroke-linejoin:miter;stroke-opacity:1" d="M 560.775,690.166 599.984,690.166 z" id="boundary" inkscape:connector-curvature="0" />
	<path style="fill:none;stroke:red;stroke-width:1px;stroke-linecap:butt;stroke-linejoin:miter;stroke-opacity:1" d="M 560.775,815.636 599.984,815.636 z" id="boundary" inkscape:connector-curvature="0" />
	<path style="fill:none;stroke:red;stroke-width:1px;stroke-linecap:butt;stroke-linejoin:miter;stroke-opacity:1" d="M 580.379,525.486 619.589,525.486 z" id="boundary" inkscape:connector-curvature="0" />
	<path style="fill:none;stroke:red;stroke-width:1px;stroke-linecap:butt;stroke-linejoin:miter;stroke-opacity:1" d="M 580.379,654.877 619.589,654.877 z" id="boundary" inkscape:connector-curvature="0" />
	<path style="fill:none;stroke:red;stroke-width:1px;stroke-linecap:butt;stroke-linejoin:miter;stroke-opacity:1" d="M 580.379,780.348 619.589,780.348 z" id="boundary" inkscape:connector-curvature="0" />
	<path style="fill:none;stroke:red;stroke-width:1px;stroke-linecap:butt;stroke-linejoin:miter;stroke-opacity:1" d="M 584.3,4 623.51,4 z" id="boundary" inkscape:connector-curvature="0" />
	<path style="fill:none;stroke:red;stroke-width:1px;stroke-linecap:butt;stroke-linejoin:miter;stroke-opacity:1" d="M 584.3,897.976 615.668,921.502 z" id="boundary" inkscape:connector-curvature="0" />
	<path style="fill:none;stroke:red;stroke-width:1px;stroke-linecap:butt;stroke-linejoin:miter;stroke-opacity:1" d="M 584.3,996 623.51,980.316 z" id="boundary" inkscape:connector-curvature="0" />
	<path style="fill:none;stroke:red;stroke-width:1px;stroke-linecap:butt;stroke-linejoin:miter;stroke-opacity:1" d="M 599.984,690.166 639.194,690.166 z" id="boundary" inkscape:connector-curvature="0" />
	<path style="fill:none;stroke:red;stroke-width:1px;stroke-linecap:butt;stroke-linejoin:miter;stroke-opacity:1" d="M 599.984,815.636 639.194,815.636 z" id="boundary" inkscape:connector-curvature="0" />
	<path style="fill:none;stroke:red;stroke-width:1px;stroke-linecap:butt;stroke-linejoin:miter;stroke-opacity:1" d="M 615.668,921.502 647.036,897.976 z" id="boundary" inkscape:connector-curvature="0" />
	<path style="fill:none;stroke:red;stroke-width:1px;stroke-linecap:butt;stroke-linejoin:miter;stroke-opacity:1" d="M 619.589,525.486 658.798,525.486 z" id="boundary" inkscape:connector-curvature="0" />
	<path style="fill:none;stroke:red;stroke-width:1px;stroke-linecap:butt;stroke-linejoin:miter;stroke-opacity:1" d="M 619.589,654.877 658.798,654.877 z" id="boundary" inkscape:connector-curvature="0" />
	<path style="fill:none;stroke:red;stroke-width:1px;stroke-linecap:butt;stroke-linejoin:miter;stroke-opacity:1" d="M 619.589,780.348 658.798,780.348 z" id="boundary" inkscape:connector-curvature="0" />
	<path style="fill:none;stroke:red;stroke-width:1px;stroke-linecap:butt;stroke-linejoin:miter;stroke-opacity:1" d="M 623.51,4 662.719,4 z" id="boundary" inkscape:connector-curvature="0" />
	<path style="fill:none;stroke:red;stroke-width:1px;stroke-linecap:butt;stroke-linejoin:miter;stroke-opacity:1" d="M 623.51,980.316 662.719,980.316 z" id="boundary" inkscape:connector-curvature="0" />
	<path style="fill:none;stroke:red;stroke-width:1px;stroke-linecap:butt;stroke-linejoin:miter;stroke-opacity:1" d="M 639.194,690.166 678.403,690.166 z" id="boundary" inkscape:connector-curvature="0" />
	<path style="fill:none;stroke:red;stroke-width:1px;stroke-linecap:butt;stroke-linejoin:miter;stroke-opacity:1" d="M 639.194,815.636 678.403,815.636 z" id="boundary" inkscape:connector-curvature="0" />
	<path style="fill:none;stroke:red;stroke-width:1px;stroke-linecap:butt;stroke-linejoin:miter;stroke-opacity:1" d="M 647.036,897.976 678.403,921.502 z" id="boundary" inkscape:connector-curvature="0" />
	<path style="fill:none;stroke:red;stroke-width:1px;stroke-linecap:butt;stroke-linejoin:miter;stroke-opacity:1" d="M 658.798,525.486 690.166,466.672 z" id="boundary" inkscape:connector-curvature="0" />
	<path style="fill:none;stroke:red;stroke-width:1px;stroke-linecap:butt;stroke-linejoin:miter;stroke-opacity:1" d="M 658.798,654.877 698.008,654.877 z" id="boundary" inkscape:connector-curvature="0" />
	<path style="fill:none;stroke:red;stroke-width:1px;stroke-linecap:butt;stroke-linejoin:miter;stroke-opacity:1" d="M 658.798,780.348 698.008,780.348 z" id="boundary" inkscape:connector-curvature="0" />
	<path style="fill:none;stroke:red;stroke-width:1px;stroke-linecap:butt;stroke-linejoin:miter;stroke-opacity:1" d="M 662.719,4 690.166,35.3676 z" id="boundary" inkscape:connector-curvature="0" />
	<path style="fill:none;stroke:red;stroke-width:1px;stroke-linecap:butt;stroke-linejoin:miter;stroke-opacity:1" d="M 662.719,980.316 701.929,980.316 z" id="boundary" inkscape:connector-curvature="0" />
	<path style="fill:none;stroke:red;stroke-width:1px;stroke-linecap:butt;stroke-linejoin:miter;stroke-opacity:1" d="M 678.403,690.166 717.613,690.166 z" id="boundary" inkscape:connector-curvature="0" />
	<path style="fill:none;stroke:red;stroke-width:1px;stroke-linecap:butt;stroke-linejoin:miter;stroke-opacity:1" d="M 678.403,815.636 717.613,815.636 z" id="boundary" inkscape:connector-curvature="0" />
	<path style="fill:none;stroke:red;stroke-width:1px;stroke-linecap:butt;stroke-linejoin:miter;stroke-opacity:1" d="M 678.403,921.502 709.771,897.976 z" id="boundary" inkscape:connector-curvature="0" />
	<path style="fill:none;stroke:red;stroke-width:1px;stroke-linecap:butt;stroke-linejoin:miter;stroke-opacity:1" d="M 690.166,35.3676 690.166,74.5771 z" id="boundary" inkscape:connector-curvature="0" />
	<path style="fill:none;stroke:red;stroke-width:1px;stroke-linecap:butt;stroke-linejoin:miter;stroke-opacity:1" d="M 690.166,74.5771 690.166,113.787 z" id="boundary" inkscape:connector-curvature="0" />
	<path style="fill:none;stroke:red;stroke-width:1px;stroke-linecap:butt;stroke-linejoin:miter;stroke-opacity:1" d="M 690.166,113.787 690.166,152.996 z" id="boundary" inkscape:connector-curvature="0" />
	<path style="fill:none;stroke:red;stroke-width:1px;stroke-linecap:butt;stroke-linejoin:miter;stroke-opacity:1" d="M 690.166,152.996 690.166,192.206 z" id="boundary" inkscape:connector-curvature="0" />
	<path style="fill:none;stroke:red;stroke-width:1px;stroke-linecap:butt;stroke-linejoin:miter;stroke-opacity:1" d="M 690.166,192.206 690.166,231.415 z" id="boundary" inkscape:connector-curvature="0" />
	<path style="fill:none;stroke:red;stroke-width:1px;stroke-linecap:butt;stroke-linejoin:miter;stroke-opacity:1" d="M 690.166,231.415 690.166,270.625 z" id="boundary" inkscape:connector-curvature="0" />
	<path style="fill:none;stroke:red;stroke-width:1px;stroke-linecap:butt;stroke-linejoin:miter;stroke-opacity:1" d="M 690.166,270.625 690.166,309.834 z" id="boundary" inkscape:connector-curvature="0" />
	<path style="fill:none;stroke:red;stroke-width:1px;stroke-linecap:butt;stroke-linejoin:miter;stroke-opacity:1" d="M 690.166,309.834 690.166,349.043 z" id="boundary" inkscape:connector-curvature="0" />
	<path style="fill:none;stroke:red;stroke-width:1px;stroke-linecap:butt;stroke-linejoin:miter;stroke-opacity:1" d="M 690.166,349.043 690.166,388.253 z" id="boundary" inkscape:connector-curvature="0" />
	<path style="fill:none;stroke:red;stroke-width:1px;stroke-linecap:butt;stroke-linejoin:miter;stroke-opacity:1" d="M 690.166,388.253 690.166,427.462 z" id="boundary" inkscape:connector-curvature="0" />
	<path style="fill:none;stroke:red;stroke-width:1px;stroke-linecap:butt;stroke-linejoin:miter;stroke-opacity:1" d="M 690.166,427.462 690.166,466.672 z" id="boundary" inkscape:connector-curvature="0" />
	<path style="fill:none;stroke:red;stroke-width:1px;stroke-linecap:butt;stroke-linejoin:miter;stroke-opacity:1" d="M 698.008,654.877 737.217,654.877 z" id="boundary" inkscape:connector-curvature="0" />
	<path style="fill:none;stroke:red;stroke-width:1px;stroke-linecap:butt;stroke-linejoin:miter;stroke-opacity:1" d="M 698.008,780.348 737.217,780.348 z" id="boundary" inkscape:connector-curvature="0" />
	<path style="fill:none;stroke:red;stroke-width:1px;stroke-linecap:butt;stroke-linejoin:miter;stroke-opacity:1" d="M 701.929,980.316 741.138,980.316 z" id="boundary" inkscape:connector-curvature="0" />
	<path style="fill:none;stroke:red;stroke-width:1px;stroke-linecap:butt;stroke-linejoin:miter;stroke-opacity:1" d="M 709.771,897.976 741.138,921.502 z" id="boundary" inkscape:connector-curvature="0" />
	<path style="fill:none;stroke:red;stroke-width:1px;stroke-linecap:butt;stroke-linejoin:miter;stroke-opacity:1" d="M 717.613,690.166 756.822,690.166 z" id="boundary" inkscape:connector-curvature="0" />
	<path style="fill:none;stroke:red;stroke-width:1px;stroke-linecap:butt;stroke-linejoin:miter;stroke-opacity:1" d="M 717.613,815.636 756.822,815.636 z" id="boundary" inkscape:connector-curvature="0" />
	<path style="fill:none;stroke:red;stroke-width:1px;stroke-linecap:butt;stroke-linejoin:miter;stroke-opacity:1" d="M 737.217,654.877 776.427,654.877 z" id="boundary" inkscape:connector-curvature="0" />
	<path style="fill:none;stroke:red;stroke-width:1px;stroke-linecap:butt;stroke-linejoin:miter;stroke-opacity:1" d="M 737.217,780.348 776.427,780.348 z" id="boundary" inkscape:connector-curvature="0" />
	<path style="fill:none;stroke:red;stroke-width:1px;stroke-linecap:butt;stroke-linejoin:miter;stroke-opacity:1" d="M 741.138,921.502 772.506,897.976 z" id="boundary" inkscape:connector-curvature="0" />
	<path style="fill:none;stroke:red;stroke-width:1px;stroke-linecap:butt;stroke-linejoin:miter;stroke-opacity:1" d="M 741.138,980.316 780.348,980.316 z" id="boundary" inkscape:connector-curvature="0" />
	<path style="fill:none;stroke:red;stroke-width:1px;stroke-linecap:butt;stroke-linejoin:miter;stroke-opacity:1" d="M 756.822,690.166 796.032,690.166 z" id="boundary" inkscape:connector-curvature="0" />
	<path style="fill:none;stroke:red;stroke-width:1px;stroke-linecap:butt;stroke-linejoin:miter;stroke-opacity:1" d="M 756.822,815.636 796.032,815.636 z" id="boundary" inkscape:connector-curvature="0" />
	<path style="fill:none;stroke:red;stroke-width:1px;stroke-linecap:butt;stroke-linejoin:miter;stroke-opacity:1" d="M 772.506,897.976 811.715,897.976 z" id="boundary" inkscape:connector-curvature="0" />
	<path style="fill:none;stroke:red;stroke-width:1px;stroke-linecap:butt;stroke-linejoin:miter;stroke-opacity:1" d="M 776.427,654.877 815.636,654.877 z" id="boundary" inkscape:connector-curvature="0" />
	<path style="fill:none;stroke:red;stroke-width:1px;stroke-linecap:butt;stroke-linejoin:miter;stroke-opacity:1" d="M 776.427,780.348 815.636,780.348 z" id="boundary" inkscape:connector-curvature="0" />
	<path style="fill:none;stroke:red;stroke-width:1px;stroke-linecap:butt;stroke-linejoin:miter;stroke-opacity:1" d="M 780.348,980.316 819.557,984.237 z" id="boundary" inkscape:connector-curvature="0" />
	<path style="fill:none;stroke:red;stroke-width:1px;stroke-linecap:butt;stroke-linejoin:miter;stroke-opacity:1" d="M 796.032,690.166 835.241,690.166 z" id="boundary" inkscape:connector-curvature="0" />
	<path style="fill:none;stroke:red;stroke-width:1px;stroke-linecap:butt;stroke-linejoin:miter;stroke-opacity:1" d="M 796.032,815.636 835.241,815.636 z" id="boundary" inkscape:connector-curvature="0" />
	<path style="fill:none;stroke:red;stroke-width:1px;stroke-linecap:butt;stroke-linejoin:miter;stroke-opacity:1" d="M 811.715,897.976 850.925,897.976 z" id="boundary" inkscape:connector-curvature="0" />
	<path style="fill:none;stroke:red;stroke-width:1px;stroke-linecap:butt;stroke-linejoin:miter;stroke-opacity:1" d="M 815.636,654.877 854.846,654.877 z" id="boundary" inkscape:connector-curvature="0" />
	<path style="fill:none;stroke:red;stroke-width:1px;stroke-linecap:butt;stroke-linejoin:miter;stroke-opacity:1" d="M 815.636,780.348 854.846,780.348 z" id="boundary" inkscape:connector-curvature="0" />
	<path style="fill:none;stroke:red;stroke-width:1px;stroke-linecap:butt;stroke-linejoin:miter;stroke-opacity:1" d="M 819.557,984.237 858.767,988.158 z" id="boundary" inkscape:connector-curvature="0" />
	<path style="fill:none;stroke:red;stroke-width:1px;stroke-linecap:butt;stroke-linejoin:miter;stroke-opacity:1" d="M 850.925,897.976 890.134,901.897 z" id="boundary" inkscape:connector-curvature="0" />
	<path style="fill:none;stroke:red;stroke-width:1px;stroke-linecap:butt;stroke-linejoin:miter;stroke-opacity:1" d="M 858.767,988.158 897.976,972.474 z" id="boundary" inkscape:connector-curvature="0" />
	<path style="fill:none;stroke:red;stroke-width:1px;stroke-linecap:butt;stroke-linejoin:miter;stroke-opacity:1" d="M 890.134,901.897 897.976,972.474 z" id="boundary" inkscape:connector-curvature="0" />
	<circle cx="4" cy="913.66" r="4" fill="#0" id="circle0"/>
	<circle cx="4" cy="952.87" r="4" fill="#0" id="circle1"/>
	<circle cx="35.3676" cy="980.316" r="4" fill="#0" id="circle2"/>
	<circle cx="43.2095" cy="897.976" r="4" fill="#0" id="circle3"/>
	<circle cx="74.5771" cy="921.502" r="4" fill="#0" id="circle4"/>
	<circle cx="74.5771" cy="980.316" r="4" fill="#0" id="circle5"/>
	<circle cx="105.945" cy="897.976" r="4" fill="#0" id="circle6"/>
	<circle cx="113.787" cy="980.316" r="4" fill="#0" id="circle7"/>
	<circle cx="137.312" cy="670.561" r="4" fill="#0" id="circle8"/>
	<circle cx="137.312" cy="788.19" r="4" fill="#0" id="circle9"/>
	<circle cx="137.312" cy="921.502" r="4" fill="#0" id="circle10"/>
	<circle cx="152.996" cy="980.316" r="4" fill="#0" id="circle11"/>
	<circle cx="168.68" cy="815.636" r="4" fill="#0" id="circle12"/>
	<circle cx="168.68" cy="897.976" r="4" fill="#0" id="circle13"/>
	<circle cx="172.601" cy="690.166" r="4" fill="#0" id="circle14"/>
	<circle cx="188.285" cy="780.348" r="4" fill="#0" id="circle15"/>
	<circle cx="192.206" cy="11.8419" r="4" fill="#0" id="circle16"/>
	<circle cx="192.206" cy="51.0514" r="4" fill="#0" id="circle17"/>
	<circle cx="192.206" cy="90.2609" r="4" fill="#0" id="circle18"/>
	<circle cx="192.206" cy="129.47" r="4" fill="#0" id="circle19"/>
	<circle cx="192.206" cy="168.68" r="4" fill="#0" id="circle20"/>
	<circle cx="192.206" cy="207.889" r="4" fill="#0" id="circle21"/>
	<circle cx="192.206" cy="247.099" r="4" fill="#0" id="circle22"/>
	<circle cx="192.206" cy="286.308" r="4" fill="#0" id="circle23"/>
	<circle cx="192.206" cy="325.518" r="4" fill="#0" id="circle24"/>
	<circle cx="192.206" cy="364.727" r="4" fill="#0" id="circle25"/>
	<circle cx="192.206" cy="403.937" r="4" fill="#0" id="circle26"/>
	<circle cx="192.206" cy="443.146" r="4" fill="#0" id="circle27"/>
	<circle cx="192.206" cy="482.356" r="4" fill="#0" id="circle28"/>
	<circle cx="192.206" cy="654.877" r="4" fill="#0" id="circle29"/>
	<circle cx="192.206" cy="980.316" r="4" fill="#0" id="circle30"/>
	<circle cx="200.047" cy="921.502" r="4" fill="#0" id="circle31"/>
	<circle cx="203.968" cy="521.565" r="4" fill="#0" id="circle32"/>
	<circle cx="207.889" cy="815.636" r="4" fill="#0" id="circle33"/>
	<circle cx="211.81" cy="690.166" r="4" fill="#0" id="circle34"/>
	<circle cx="227.494" cy="780.348" r="4" fill="#0" id="circle35"/>
	<circle cx="231.415" cy="4" r="4" fill="#0" id="circle36"/>
	<circle cx="231.415" cy="654.877" r="4" fill="#0" id="circle37"/>
	<circle cx="231.415" cy="897.976" r="4" fill="#0" id="circle38"/>
	<circle cx="231.415" cy="980.316" r="4" fill="#0" id="circle39"/>
	<circle cx="243.178" cy="525.486" r="4" fill="#0" id="circle40"/>
	<circle cx="247.099" cy="815.636" r="4" fill="#0" id="circle41"/>
	<circle cx="251.02" cy="690.166" r="4" fill="#0" id="circle42"/>
	<circle cx="262.783" cy="921.502" r="4" fill="#0" id="circle43"/>
	<circle cx="266.704" cy="780.348" r="4" fill="#0" id="circle44"/>
	<circle cx="270.625" cy="4" r="4" fill="#0" id="circle45"/>
	<circle cx="270.625" cy="654.877" r="4" fill="#0" id="circle46"/>
	<circle cx="270.625" cy="980.316" r="4" fill="#0" id="circle47"/>
	<circle cx="282.387" cy="525.486" r="4" fill="#0" id="circle48"/>
	<circle cx="286.308" cy="564.696" r="4" fill="#0" id="circle49"/>
	<circle cx="286.308" cy="603.905" r="4" fill="#0" id="circle50"/>
	<circle cx="286.308" cy="709.771" r="4" fill="#0" id="circle51"/>
	<circle cx="286.308" cy="819.557" r="4" fill="#0" id="circle52"/>
	<circle cx="286.308" cy="858.767" r="4" fill="#0" id="circle53"/>
	<circle cx="309.834" cy="4" r="4" fill="#0" id="circle54"/>
	<circle cx="309.834" cy="996" r="4" fill="#0" id="circle55"/>
	<circle cx="349.043" cy="4" r="4" fill="#0" id="circle56"/>
	<circle cx="349.043" cy="980.316" r="4" fill="#0" id="circle57"/>
	<circle cx="388.253" cy="4" r="4" fill="#0" id="circle58"/>
	<circle cx="388.253" cy="980.316" r="4" fill="#0" id="circle59"/>
	<circle cx="427.462" cy="4" r="4" fill="#0" id="circle60"/>
	<circle cx="427.462" cy="980.316" r="4" fill="#0" id="circle61"/>
	<circle cx="462.751" cy="529.407" r="4" fill="#0" id="circle62"/>
	<circle cx="462.751" cy="568.617" r="4" fill="#0" id="circle63"/>
	<circle cx="462.751" cy="607.826" r="4" fill="#0" id="circle64"/>
	<circle cx="462.751" cy="647.036" r="4" fill="#0" id="circle65"/>
	<circle cx="462.751" cy="694.087" r="4" fill="#0" id="circle66"/>
	<circle cx="462.751" cy="733.296" r="4" fill="#0" id="circle67"/>
	<circle cx="462.751" cy="772.506" r="4" fill="#0" id="circle68"/>
	<circle cx="462.751" cy="819.557" r="4" fill="#0" id="circle69"/>
	<circle cx="462.751" cy="858.767" r="4" fill="#0" id="circle70"/>
	<circle cx="466.672" cy="4" r="4" fill="#0" id="circle71"/>
	<circle cx="466.672" cy="897.976" r="4" fill="#0" id="circle72"/>
	<circle cx="466.672" cy="980.316" r="4" fill="#0" id="circle73"/>
	<circle cx="501.96" cy="525.486" r="4" fill="#0" id="circle74"/>
	<circle cx="501.96" cy="654.877" r="4" fill="#0" id="circle75"/>
	<circle cx="501.96" cy="780.348" r="4" fill="#0" id="circle76"/>
	<circle cx="505.881" cy="4" r="4" fill="#0" id="circle77"/>
	<circle cx="505.881" cy="897.976" r="4" fill="#0" id="circle78"/>
	<circle cx="505.881" cy="980.316" r="4" fill="#0" id="circle79"/>
	<circle cx="521.565" cy="690.166" r="4" fill="#0" id="circle80"/>
	<circle cx="521.565" cy="815.636" r="4" fill="#0" id="circle81"/>
	<circle cx="541.17" cy="525.486" r="4" fill="#0" id="circle82"/>
	<circle cx="541.17" cy="654.877" r="4" fill="#0" id="circle83"/>
	<circle cx="541.17" cy="780.348" r="4" fill="#0" id="circle84"/>
	<circle cx="545.091" cy="4" r="4" fill="#0" id="circle85"/>
	<circle cx="545.091" cy="897.976" r="4" fill="#0" id="circle86"/>
	<circle cx="545.091" cy="980.316" r="4" fill="#0" id="circle87"/>
	<circle cx="560.775" cy="690.166" r="4" fill="#0" id="circle88"/>
	<circle cx="560.775" cy="815.636" r="4" fill="#0" id="circle89"/>
	<circle cx="580.379" cy="525.486" r="4" fill="#0" id="circle90"/>
	<circle cx="580.379" cy="654.877" r="4" fill="#0" id="circle91"/>
	<circle cx="580.379" cy="780.348" r="4" fill="#0" id="circle92"/>
	<circle cx="584.3" cy="4" r="4" fill="#0" id="circle93"/>
	<circle cx="584.3" cy="897.976" r="4" fill="#0" id="circle94"/>
	<circle cx="584.3" cy="996" r="4" fill="#0" id="circle95"/>
	<circle cx="599.984" cy="690.166" r="4" fill="#0" id="circle96"/>
	<circle cx="599.984" cy="815.636" r="4" fill="#0" id="circle97"/>
	<circle cx="615.668" cy="921.502" r="4" fill="#0" id="circle98"/>
	<circle cx="619.589" cy="525.486" r="4" fill="#0" id="circle99"/>
	<circle cx="619.589" cy="654.877" r="4" fill="#0" id="circle100"/>
	<circle cx="619.589" cy="780.348" r="4" fill="#0" id="circle101"/>
	<circle cx="623.51" cy="4" r="4" fill="#0" id="circle102"/>
	<circle cx="623.51" cy="980.316" r="4" fill="#0" id="circle103"/>
	<circle cx="639.194" cy="690.166" r="4" fill="#0" id="circle104"/>
	<circle cx="639.194" cy="815.636" r="4" fill="#0" id="circle105"/>
	<circle cx="647.036" cy="897.976" r="4" fill="#0" id="circle106"/>
	<circle cx="658.798" cy="525.486" r="4" fill="#0" id="circle107"/>
	<circle cx="658.798" cy="654.877" r="4" fill="#0" id="circle108"/>
	<circle cx="658.798" cy="780.348" r="4" fill="#0" id="circle109"/>
	<circle cx="662.719" cy="4" r="4" fill="#0" id="circle110"/>
	<circle cx="662.719" cy="980.316" r="4" fill="#0" id="circle111"/>
	<circle cx="678.403" cy="690.166" r="4" fill="#0" id="circle112"/>
	<circle cx="678.403" cy="815.636" r="4" fill="#0" id="circle113"/>
	<circle cx="678.403" cy="921.502" r="4" fill="#0" id="circle114"/>
	<circle cx="690.166" cy="35.3676" r="4" fill="#0" id="circle115"/>
	<circle cx="690.166" cy="74.5771" r="4" fill="#0" id="circle116"/>
	<circle cx="690.166" cy="113.787" r="4" fill="#0" id="circle117"/>
	<circle cx="690.166" cy="152.996" r="4" fill="#0" id="circle118"/>
	<circle cx="690.166" cy="192.206" r="4" fill="#0" id="circle119"/>
	<circle cx="690.166" cy="231.415" r="4" fill="#0" id="circle120"/>
	<circle cx="690.166" cy="270.625" r="4" fill="#0" id="circle121"/>
	<circle cx="690.166" cy="309.834" r="4" fill="#0" id="circle122"/>
	<circle cx="690.166" cy="349.043" r="4" fill="#0" id="circle123"/>
	<circle cx="690.166" cy="388.253" r="4" fill="#0" id="circle124"/>
	<circle cx="690.166" cy="427.462" r="4" fill="#0" id="circle125"/>
	<circle cx="690.166" cy="466.672" r="4" fill="#0" id="circle126"/>
	<circle cx="698.008" cy="654.877" r="4" fill="#0" id="circle127"/>
	<circle cx="698.008" cy="780.348" r="4" fill="#0" id="circle128"/>
	<circle cx="701.929" cy="980.316" r="4" fill="#0" id="circle129"/>
	<circle cx="709.771" cy="897.976" r="4" fill="#0" id="circle130"/>
	<circle cx="717.613" cy="690.166" r="4" fill="#0" id="circle131"/>
	<circle cx="717.613" cy="815.636" r="4" fill="#0" id="circle132"/>
	<circle cx="737.217" cy="654.877" r="4" fill="#0" id="circle133"/>
	<circle cx="737.217" cy="780.348" r="4" fill="#0" id="circle134"/>
	<circle cx="741.138" cy="921.502" r="4" fill="#0" id="circle135"/>
	<circle cx="741.138" cy="980.316" r="4" fill="#0" id="circle136"/>
	<circle cx="756.822" cy="690.166" r="4" fill="#0" id="circle137"/>
	<circle cx="756.822" cy="815.636" r="4" fill="#0" id="circle138"/>
	<circle cx="772.506" cy="897.976" r="4" fill="#0" id="circle139"/>
	<circle cx="776.427" cy="654.877" r="4" fill="#0" id="circle140"/>
	<circle cx="776.427" cy="780.348" r="4" fill="#0" id="circle141"/>
	<circle cx="780.348" cy="980.316" r="4" fill="#0" id="circle142"/>
	<circle cx="796.032" cy="690.166" r="4" fill="#0" id="circle143"/>
	<circle cx="796.032" cy="815.636" r="4" fill="#0" id="circle144"/>
	<circle cx="811.715" cy="897.976" r="4" fill="#0" id="circle145"/>
	<circle cx="815.636" cy="654.877" r="4" fill="#0" id="circle146"/>
	<circle cx="815.636" cy="780.348" r="4" fill="#0" id="circle147"/>
	<circle cx="819.557" cy="984.237" r="4" fill="#0" id="circle148"/>
	<circle cx="835.241" cy="690.166" r="4" fill="#0" id="circle149"/>
	<circle cx="835.241" cy="815.636" r="4" fill="#0" id="circle150"/>
	<circle cx="850.925" cy="897.976" r="4" fill="#0" id="circle151"/>
	<circle cx="854.846" cy="654.877" r="4" fill="#0" id="circle152"/>
	<circle cx="854.846" cy="780.348" r="4" fill="#0" id="circle153"/>
	<circle cx="858.767" cy="988.158" r="4" fill="#0" id="circle154"/>
	<circle cx="890.134" cy="901.897" r="4" fill="#0" id="circle155"/>
	<circle cx="897.976" cy="972.474" r="4" fill="#0" id="circle156"/>
	</g>
</svg>