<?xml version="1.0" encoding="UTF-8" standalone="no"?>
<!-- Created with CurveBenchmark -->
<svg
	xmlns:dc="http://purl.org/dc/elements/1.1/"
	xmlns:cc="http://creativecommons.org/ns#"
	xmlns:rdf="http://www.w3.org/1999/02/22-rdf-syntax-ns#"
	xmlns:svg="http://www.w3.org/2000/svg"
	xmlns="http://www.w3.org/2000/svg"
	xmlns:sodipodi="http://sodipodi.sourceforge.net/DTD/sodipodi-0.dtd"
	xmlns:inkscape="http://www.inkscape.org/namespaces/inkscape"
	width="1000"
	height="1000"
	id="svg2"
	version="1.1"
	sodipodi:docname="manifold/hnncrust-spoon-15.png.txt">
<defs
	id="defs4" />
<metadata
	id="metadata7">
	<rdf:RDF>
		<cc:Work
			rdf:about="">
			<dc:format>image/svg+xml</dc:format>
			<dc:type
				rdf:resource="http://purl.org/dc/dcmitype/StillImage" />
			<dc:title></dc:title>
		</cc:Work>
	</rdf:RDF>
</metadata>
<g
	inkscape:label="Layer 1"
	inkscape:groupmode="layer"
	id="layer1">
	<path style="fill:none;stroke:red;stroke-width:1px;stroke-linecap:butt;stroke-linejoin:miter;stroke-opacity:1" d="M 4,166.736 4,175.393 z" id="boundary" inkscape:connector-curvature="0" />
	<path style="fill:none;stroke:red;stroke-width:1px;stroke-linecap:butt;stroke-linejoin:miter;stroke-opacity:1" d="M 4,166.736 8.3281,153.752 z" id="boundary" inkscape:connector-curvature="0" />
	<path style="fill:none;stroke:red;stroke-width:1px;stroke-linecap:butt;stroke-linejoin:miter;stroke-opacity:1" d="M 4,175.393 4,184.049 z" id="boundary" inkscape:connector-curvature="0" />
	<path style="fill:none;stroke:red;stroke-width:1px;stroke-linecap:butt;stroke-linejoin:miter;stroke-opacity:1" d="M 4,184.049 4,192.705 z" id="boundary" inkscape:connector-curvature="0" />
	<path style="fill:none;stroke:red;stroke-width:1px;stroke-linecap:butt;stroke-linejoin:miter;stroke-opacity:1" d="M 4,192.705 8.3281,200.496 z" id="boundary" inkscape:connector-curvature="0" />
	<path style="fill:none;stroke:red;stroke-width:1px;stroke-linecap:butt;stroke-linejoin:miter;stroke-opacity:1" d="M 8.3281,145.096 8.3281,153.752 z" id="boundary" inkscape:connector-curvature="0" />
	<path style="fill:none;stroke:red;stroke-width:1px;stroke-linecap:butt;stroke-linejoin:miter;stroke-opacity:1" d="M 8.3281,145.096 12.6562,136.44 z" id="boundary" inkscape:connector-curvature="0" />
	<path style="fill:none;stroke:red;stroke-width:1px;stroke-linecap:butt;stroke-linejoin:miter;stroke-opacity:1" d="M 8.3281,200.496 12.6562,208.286 z" id="boundary" inkscape:connector-curvature="0" />
	<path style="fill:none;stroke:red;stroke-width:1px;stroke-linecap:butt;stroke-linejoin:miter;stroke-opacity:1" d="M 12.6562,136.44 19.5812,129.515 z" id="boundary" inkscape:connector-curvature="0" />
	<path style="fill:none;stroke:red;stroke-width:1px;stroke-linecap:butt;stroke-linejoin:miter;stroke-opacity:1" d="M 12.6562,208.286 17.8499,215.211 z" id="boundary" inkscape:connector-curvature="0" />
	<path style="fill:none;stroke:red;stroke-width:1px;stroke-linecap:butt;stroke-linejoin:miter;stroke-opacity:1" d="M 17.8499,215.211 22.178,223.002 z" id="boundary" inkscape:connector-curvature="0" />
	<path style="fill:none;stroke:red;stroke-width:1px;stroke-linecap:butt;stroke-linejoin:miter;stroke-opacity:1" d="M 19.5812,129.515 26.5061,122.59 z" id="boundary" inkscape:connector-curvature="0" />
	<path style="fill:none;stroke:red;stroke-width:1px;stroke-linecap:butt;stroke-linejoin:miter;stroke-opacity:1" d="M 22.178,223.002 28.2373,229.927 z" id="boundary" inkscape:connector-curvature="0" />
	<path style="fill:none;stroke:red;stroke-width:1px;stroke-linecap:butt;stroke-linejoin:miter;stroke-opacity:1" d="M 26.5061,122.59 33.4311,116.531 z" id="boundary" inkscape:connector-curvature="0" />
	<path style="fill:none;stroke:red;stroke-width:1px;stroke-linecap:butt;stroke-linejoin:miter;stroke-opacity:1" d="M 28.2373,229.927 35.1623,235.986 z" id="boundary" inkscape:connector-curvature="0" />
	<path style="fill:none;stroke:red;stroke-width:1px;stroke-linecap:butt;stroke-linejoin:miter;stroke-opacity:1" d="M 33.4311,116.531 39.4904,109.606 z" id="boundary" inkscape:connector-curvature="0" />
	<path style="fill:none;stroke:red;stroke-width:1px;stroke-linecap:butt;stroke-linejoin:miter;stroke-opacity:1" d="M 35.1623,235.986 42.9529,240.314 z" id="boundary" inkscape:connector-curvature="0" />
	<path style="fill:none;stroke:red;stroke-width:1px;stroke-linecap:butt;stroke-linejoin:miter;stroke-opacity:1" d="M 39.4904,109.606 48.1466,105.277 z" id="boundary" inkscape:connector-curvature="0" />
	<path style="fill:none;stroke:red;stroke-width:1px;stroke-linecap:butt;stroke-linejoin:miter;stroke-opacity:1" d="M 42.9529,240.314 51.6091,242.911 z" id="boundary" inkscape:connector-curvature="0" />
	<path style="fill:none;stroke:red;stroke-width:1px;stroke-linecap:butt;stroke-linejoin:miter;stroke-opacity:1" d="M 48.1466,105.277 55.0716,99.2182 z" id="boundary" inkscape:connector-curvature="0" />
	<path style="fill:none;stroke:red;stroke-width:1px;stroke-linecap:butt;stroke-linejoin:miter;stroke-opacity:1" d="M 51.6091,242.911 56.8028,249.836 z" id="boundary" inkscape:connector-curvature="0" />
	<path style="fill:none;stroke:red;stroke-width:1px;stroke-linecap:butt;stroke-linejoin:miter;stroke-opacity:1" d="M 55.0716,99.2182 62.8621,94.8901 z" id="boundary" inkscape:connector-curvature="0" />
	<path style="fill:none;stroke:red;stroke-width:1px;stroke-linecap:butt;stroke-linejoin:miter;stroke-opacity:1" d="M 56.8028,249.836 65.459,253.298 z" id="boundary" inkscape:connector-curvature="0" />
	<path style="fill:none;stroke:red;stroke-width:1px;stroke-linecap:butt;stroke-linejoin:miter;stroke-opacity:1" d="M 62.8621,94.8901 70.6527,90.562 z" id="boundary" inkscape:connector-curvature="0" />
	<path style="fill:none;stroke:red;stroke-width:1px;stroke-linecap:butt;stroke-linejoin:miter;stroke-opacity:1" d="M 65.459,253.298 74.1152,255.895 z" id="boundary" inkscape:connector-curvature="0" />
	<path style="fill:none;stroke:red;stroke-width:1px;stroke-linecap:butt;stroke-linejoin:miter;stroke-opacity:1" d="M 70.6527,90.562 78.4433,86.2339 z" id="boundary" inkscape:connector-curvature="0" />
	<path style="fill:none;stroke:red;stroke-width:1px;stroke-linecap:butt;stroke-linejoin:miter;stroke-opacity:1" d="M 74.1152,255.895 81.9058,260.223 z" id="boundary" inkscape:connector-curvature="0" />
	<path style="fill:none;stroke:red;stroke-width:1px;stroke-linecap:butt;stroke-linejoin:miter;stroke-opacity:1" d="M 78.4433,86.2339 86.2339,81.9058 z" id="boundary" inkscape:connector-curvature="0" />
	<path style="fill:none;stroke:red;stroke-width:1px;stroke-linecap:butt;stroke-linejoin:miter;stroke-opacity:1" d="M 81.9058,260.223 90.562,260.223 z" id="boundary" inkscape:connector-curvature="0" />
	<path style="fill:none;stroke:red;stroke-width:1px;stroke-linecap:butt;stroke-linejoin:miter;stroke-opacity:1" d="M 86.2339,81.9058 94.0244,77.5777 z" id="boundary" inkscape:connector-curvature="0" />
	<path style="fill:none;stroke:red;stroke-width:1px;stroke-linecap:butt;stroke-linejoin:miter;stroke-opacity:1" d="M 90.562,260.223 98.3525,264.551 z" id="boundary" inkscape:connector-curvature="0" />
	<path style="fill:none;stroke:red;stroke-width:1px;stroke-linecap:butt;stroke-linejoin:miter;stroke-opacity:1" d="M 94.0244,77.5777 101.815,73.2496 z" id="boundary" inkscape:connector-curvature="0" />
	<path style="fill:none;stroke:red;stroke-width:1px;stroke-linecap:butt;stroke-linejoin:miter;stroke-opacity:1" d="M 98.3525,264.551 106.143,268.88 z" id="boundary" inkscape:connector-curvature="0" />
	<path style="fill:none;stroke:red;stroke-width:1px;stroke-linecap:butt;stroke-linejoin:miter;stroke-opacity:1" d="M 101.815,73.2496 110.471,73.2496 z" id="boundary" inkscape:connector-curvature="0" />
	<path style="fill:none;stroke:red;stroke-width:1px;stroke-linecap:butt;stroke-linejoin:miter;stroke-opacity:1" d="M 106.143,268.88 114.799,268.88 z" id="boundary" inkscape:connector-curvature="0" />
	<path style="fill:none;stroke:red;stroke-width:1px;stroke-linecap:butt;stroke-linejoin:miter;stroke-opacity:1" d="M 110.471,73.2496 119.127,73.2496 z" id="boundary" inkscape:connector-curvature="0" />
	<path style="fill:none;stroke:red;stroke-width:1px;stroke-linecap:butt;stroke-linejoin:miter;stroke-opacity:1" d="M 114.799,268.88 122.59,273.208 z" id="boundary" inkscape:connector-curvature="0" />
	<path style="fill:none;stroke:red;stroke-width:1px;stroke-linecap:butt;stroke-linejoin:miter;stroke-opacity:1" d="M 119.127,73.2496 126.918,68.9215 z" id="boundary" inkscape:connector-curvature="0" />
	<path style="fill:none;stroke:red;stroke-width:1px;stroke-linecap:butt;stroke-linejoin:miter;stroke-opacity:1" d="M 122.59,273.208 131.246,273.208 z" id="boundary" inkscape:connector-curvature="0" />
	<path style="fill:none;stroke:red;stroke-width:1px;stroke-linecap:butt;stroke-linejoin:miter;stroke-opacity:1" d="M 126.918,68.9215 135.574,68.9215 z" id="boundary" inkscape:connector-curvature="0" />
	<path style="fill:none;stroke:red;stroke-width:1px;stroke-linecap:butt;stroke-linejoin:miter;stroke-opacity:1" d="M 131.246,273.208 139.902,273.208 z" id="boundary" inkscape:connector-curvature="0" />
	<path style="fill:none;stroke:red;stroke-width:1px;stroke-linecap:butt;stroke-linejoin:miter;stroke-opacity:1" d="M 135.574,68.9215 144.23,68.9215 z" id="boundary" inkscape:connector-curvature="0" />
	<path style="fill:none;stroke:red;stroke-width:1px;stroke-linecap:butt;stroke-linejoin:miter;stroke-opacity:1" d="M 139.902,273.208 148.558,273.208 z" id="boundary" inkscape:connector-curvature="0" />
	<path style="fill:none;stroke:red;stroke-width:1px;stroke-linecap:butt;stroke-linejoin:miter;stroke-opacity:1" d="M 144.23,68.9215 152.887,68.9215 z" id="boundary" inkscape:connector-curvature="0" />
	<path style="fill:none;stroke:red;stroke-width:1px;stroke-linecap:butt;stroke-linejoin:miter;stroke-opacity:1" d="M 148.558,273.208 157.215,273.208 z" id="boundary" inkscape:connector-curvature="0" />
	<path style="fill:none;stroke:red;stroke-width:1px;stroke-linecap:butt;stroke-linejoin:miter;stroke-opacity:1" d="M 152.887,68.9215 161.543,68.9215 z" id="boundary" inkscape:connector-curvature="0" />
	<path style="fill:none;stroke:red;stroke-width:1px;stroke-linecap:butt;stroke-linejoin:miter;stroke-opacity:1" d="M 157.215,273.208 165.871,273.208 z" id="boundary" inkscape:connector-curvature="0" />
	<path style="fill:none;stroke:red;stroke-width:1px;stroke-linecap:butt;stroke-linejoin:miter;stroke-opacity:1" d="M 161.543,68.9215 169.333,73.2496 z" id="boundary" inkscape:connector-curvature="0" />
	<path style="fill:none;stroke:red;stroke-width:1px;stroke-linecap:butt;stroke-linejoin:miter;stroke-opacity:1" d="M 165.871,273.208 174.527,273.208 z" id="boundary" inkscape:connector-curvature="0" />
	<path style="fill:none;stroke:red;stroke-width:1px;stroke-linecap:butt;stroke-linejoin:miter;stroke-opacity:1" d="M 169.333,73.2496 177.99,73.2496 z" id="boundary" inkscape:connector-curvature="0" />
	<path style="fill:none;stroke:red;stroke-width:1px;stroke-linecap:butt;stroke-linejoin:miter;stroke-opacity:1" d="M 174.527,273.208 183.183,273.208 z" id="boundary" inkscape:connector-curvature="0" />
	<path style="fill:none;stroke:red;stroke-width:1px;stroke-linecap:butt;stroke-linejoin:miter;stroke-opacity:1" d="M 177.99,73.2496 186.646,73.2496 z" id="boundary" inkscape:connector-curvature="0" />
	<path style="fill:none;stroke:red;stroke-width:1px;stroke-linecap:butt;stroke-linejoin:miter;stroke-opacity:1" d="M 183.183,273.208 191.839,273.208 z" id="boundary" inkscape:connector-curvature="0" />
	<path style="fill:none;stroke:red;stroke-width:1px;stroke-linecap:butt;stroke-linejoin:miter;stroke-opacity:1" d="M 186.646,73.2496 195.302,73.2496 z" id="boundary" inkscape:connector-curvature="0" />
	<path style="fill:none;stroke:red;stroke-width:1px;stroke-linecap:butt;stroke-linejoin:miter;stroke-opacity:1" d="M 191.839,273.208 199.63,268.88 z" id="boundary" inkscape:connector-curvature="0" />
	<path style="fill:none;stroke:red;stroke-width:1px;stroke-linecap:butt;stroke-linejoin:miter;stroke-opacity:1" d="M 195.302,73.2496 203.958,73.2496 z" id="boundary" inkscape:connector-curvature="0" />
	<path style="fill:none;stroke:red;stroke-width:1px;stroke-linecap:butt;stroke-linejoin:miter;stroke-opacity:1" d="M 199.63,268.88 208.286,268.88 z" id="boundary" inkscape:connector-curvature="0" />
	<path style="fill:none;stroke:red;stroke-width:1px;stroke-linecap:butt;stroke-linejoin:miter;stroke-opacity:1" d="M 203.958,73.2496 212.614,75.8464 z" id="boundary" inkscape:connector-curvature="0" />
	<path style="fill:none;stroke:red;stroke-width:1px;stroke-linecap:butt;stroke-linejoin:miter;stroke-opacity:1" d="M 208.286,268.88 216.942,268.88 z" id="boundary" inkscape:connector-curvature="0" />
	<path style="fill:none;stroke:red;stroke-width:1px;stroke-linecap:butt;stroke-linejoin:miter;stroke-opacity:1" d="M 212.614,75.8464 221.271,77.5777 z" id="boundary" inkscape:connector-curvature="0" />
	<path style="fill:none;stroke:red;stroke-width:1px;stroke-linecap:butt;stroke-linejoin:miter;stroke-opacity:1" d="M 216.942,268.88 225.599,268.88 z" id="boundary" inkscape:connector-curvature="0" />
	<path style="fill:none;stroke:red;stroke-width:1px;stroke-linecap:butt;stroke-linejoin:miter;stroke-opacity:1" d="M 221.271,77.5777 229.927,80.1745 z" id="boundary" inkscape:connector-curvature="0" />
	<path style="fill:none;stroke:red;stroke-width:1px;stroke-linecap:butt;stroke-linejoin:miter;stroke-opacity:1" d="M 225.599,268.88 234.255,268.88 z" id="boundary" inkscape:connector-curvature="0" />
	<path style="fill:none;stroke:red;stroke-width:1px;stroke-linecap:butt;stroke-linejoin:miter;stroke-opacity:1" d="M 229.927,80.1745 238.583,81.9058 z" id="boundary" inkscape:connector-curvature="0" />
	<path style="fill:none;stroke:red;stroke-width:1px;stroke-linecap:butt;stroke-linejoin:miter;stroke-opacity:1" d="M 234.255,268.88 242.045,264.551 z" id="boundary" inkscape:connector-curvature="0" />
	<path style="fill:none;stroke:red;stroke-width:1px;stroke-linecap:butt;stroke-linejoin:miter;stroke-opacity:1" d="M 238.583,81.9058 247.239,81.9058 z" id="boundary" inkscape:connector-curvature="0" />
	<path style="fill:none;stroke:red;stroke-width:1px;stroke-linecap:butt;stroke-linejoin:miter;stroke-opacity:1" d="M 242.045,264.551 250.702,264.551 z" id="boundary" inkscape:connector-curvature="0" />
	<path style="fill:none;stroke:red;stroke-width:1px;stroke-linecap:butt;stroke-linejoin:miter;stroke-opacity:1" d="M 247.239,81.9058 255.03,86.2339 z" id="boundary" inkscape:connector-curvature="0" />
	<path style="fill:none;stroke:red;stroke-width:1px;stroke-linecap:butt;stroke-linejoin:miter;stroke-opacity:1" d="M 250.702,264.551 258.492,260.223 z" id="boundary" inkscape:connector-curvature="0" />
	<path style="fill:none;stroke:red;stroke-width:1px;stroke-linecap:butt;stroke-linejoin:miter;stroke-opacity:1" d="M 255.03,86.2339 262.82,90.562 z" id="boundary" inkscape:connector-curvature="0" />
	<path style="fill:none;stroke:red;stroke-width:1px;stroke-linecap:butt;stroke-linejoin:miter;stroke-opacity:1" d="M 258.492,260.223 266.283,255.895 z" id="boundary" inkscape:connector-curvature="0" />
	<path style="fill:none;stroke:red;stroke-width:1px;stroke-linecap:butt;stroke-linejoin:miter;stroke-opacity:1" d="M 262.82,90.562 270.611,94.8901 z" id="boundary" inkscape:connector-curvature="0" />
	<path style="fill:none;stroke:red;stroke-width:1px;stroke-linecap:butt;stroke-linejoin:miter;stroke-opacity:1" d="M 266.283,255.895 274.073,251.567 z" id="boundary" inkscape:connector-curvature="0" />
	<path style="fill:none;stroke:red;stroke-width:1px;stroke-linecap:butt;stroke-linejoin:miter;stroke-opacity:1" d="M 270.611,94.8901 278.401,99.2182 z" id="boundary" inkscape:connector-curvature="0" />
	<path style="fill:none;stroke:red;stroke-width:1px;stroke-linecap:butt;stroke-linejoin:miter;stroke-opacity:1" d="M 274.073,251.567 281.864,247.239 z" id="boundary" inkscape:connector-curvature="0" />
	<path style="fill:none;stroke:red;stroke-width:1px;stroke-linecap:butt;stroke-linejoin:miter;stroke-opacity:1" d="M 278.401,99.2182 287.058,99.2182 z" id="boundary" inkscape:connector-curvature="0" />
	<path style="fill:none;stroke:red;stroke-width:1px;stroke-linecap:butt;stroke-linejoin:miter;stroke-opacity:1" d="M 281.864,247.239 288.789,241.18 z" id="boundary" inkscape:connector-curvature="0" />
	<path style="fill:none;stroke:red;stroke-width:1px;stroke-linecap:butt;stroke-linejoin:miter;stroke-opacity:1" d="M 287.058,99.2182 295.714,99.2182 z" id="boundary" inkscape:connector-curvature="0" />
	<path style="fill:none;stroke:red;stroke-width:1px;stroke-linecap:butt;stroke-linejoin:miter;stroke-opacity:1" d="M 288.789,241.18 297.445,236.852 z" id="boundary" inkscape:connector-curvature="0" />
	<path style="fill:none;stroke:red;stroke-width:1px;stroke-linecap:butt;stroke-linejoin:miter;stroke-opacity:1" d="M 295.714,99.2182 304.37,99.2182 z" id="boundary" inkscape:connector-curvature="0" />
	<path style="fill:none;stroke:red;stroke-width:1px;stroke-linecap:butt;stroke-linejoin:miter;stroke-opacity:1" d="M 297.445,236.852 306.101,234.255 z" id="boundary" inkscape:connector-curvature="0" />
	<path style="fill:none;stroke:red;stroke-width:1px;stroke-linecap:butt;stroke-linejoin:miter;stroke-opacity:1" d="M 304.37,99.2182 313.026,99.2182 z" id="boundary" inkscape:connector-curvature="0" />
	<path style="fill:none;stroke:red;stroke-width:1px;stroke-linecap:butt;stroke-linejoin:miter;stroke-opacity:1" d="M 306.101,234.255 314.757,232.524 z" id="boundary" inkscape:connector-curvature="0" />
	<path style="fill:none;stroke:red;stroke-width:1px;stroke-linecap:butt;stroke-linejoin:miter;stroke-opacity:1" d="M 313.026,99.2182 321.682,99.2182 z" id="boundary" inkscape:connector-curvature="0" />
	<path style="fill:none;stroke:red;stroke-width:1px;stroke-linecap:butt;stroke-linejoin:miter;stroke-opacity:1" d="M 314.757,232.524 323.414,229.927 z" id="boundary" inkscape:connector-curvature="0" />
	<path style="fill:none;stroke:red;stroke-width:1px;stroke-linecap:butt;stroke-linejoin:miter;stroke-opacity:1" d="M 321.682,99.2182 330.339,99.2182 z" id="boundary" inkscape:connector-curvature="0" />
	<path style="fill:none;stroke:red;stroke-width:1px;stroke-linecap:butt;stroke-linejoin:miter;stroke-opacity:1" d="M 323.414,229.927 331.204,225.599 z" id="boundary" inkscape:connector-curvature="0" />
	<path style="fill:none;stroke:red;stroke-width:1px;stroke-linecap:butt;stroke-linejoin:miter;stroke-opacity:1" d="M 330.339,99.2182 338.995,99.2182 z" id="boundary" inkscape:connector-curvature="0" />
	<path style="fill:none;stroke:red;stroke-width:1px;stroke-linecap:butt;stroke-linejoin:miter;stroke-opacity:1" d="M 331.204,225.599 339.86,225.599 z" id="boundary" inkscape:connector-curvature="0" />
	<path style="fill:none;stroke:red;stroke-width:1px;stroke-linecap:butt;stroke-linejoin:miter;stroke-opacity:1" d="M 338.995,99.2182 347.651,99.2182 z" id="boundary" inkscape:connector-curvature="0" />
	<path style="fill:none;stroke:red;stroke-width:1px;stroke-linecap:butt;stroke-linejoin:miter;stroke-opacity:1" d="M 339.86,225.599 348.517,225.599 z" id="boundary" inkscape:connector-curvature="0" />
	<path style="fill:none;stroke:red;stroke-width:1px;stroke-linecap:butt;stroke-linejoin:miter;stroke-opacity:1" d="M 347.651,99.2182 356.307,99.2182 z" id="boundary" inkscape:connector-curvature="0" />
	<path style="fill:none;stroke:red;stroke-width:1px;stroke-linecap:butt;stroke-linejoin:miter;stroke-opacity:1" d="M 348.517,225.599 357.173,225.599 z" id="boundary" inkscape:connector-curvature="0" />
	<path style="fill:none;stroke:red;stroke-width:1px;stroke-linecap:butt;stroke-linejoin:miter;stroke-opacity:1" d="M 356.307,99.2182 364.963,99.2182 z" id="boundary" inkscape:connector-curvature="0" />
	<path style="fill:none;stroke:red;stroke-width:1px;stroke-linecap:butt;stroke-linejoin:miter;stroke-opacity:1" d="M 357.173,225.599 365.829,225.599 z" id="boundary" inkscape:connector-curvature="0" />
	<path style="fill:none;stroke:red;stroke-width:1px;stroke-linecap:butt;stroke-linejoin:miter;stroke-opacity:1" d="M 364.963,99.2182 373.62,99.2182 z" id="boundary" inkscape:connector-curvature="0" />
	<path style="fill:none;stroke:red;stroke-width:1px;stroke-linecap:butt;stroke-linejoin:miter;stroke-opacity:1" d="M 365.829,225.599 374.485,225.599 z" id="boundary" inkscape:connector-curvature="0" />
	<path style="fill:none;stroke:red;stroke-width:1px;stroke-linecap:butt;stroke-linejoin:miter;stroke-opacity:1" d="M 373.62,99.2182 382.276,99.2182 z" id="boundary" inkscape:connector-curvature="0" />
	<path style="fill:none;stroke:red;stroke-width:1px;stroke-linecap:butt;stroke-linejoin:miter;stroke-opacity:1" d="M 374.485,225.599 383.141,225.599 z" id="boundary" inkscape:connector-curvature="0" />
	<path style="fill:none;stroke:red;stroke-width:1px;stroke-linecap:butt;stroke-linejoin:miter;stroke-opacity:1" d="M 382.276,99.2182 390.066,103.546 z" id="boundary" inkscape:connector-curvature="0" />
	<path style="fill:none;stroke:red;stroke-width:1px;stroke-linecap:butt;stroke-linejoin:miter;stroke-opacity:1" d="M 383.141,225.599 391.798,225.599 z" id="boundary" inkscape:connector-curvature="0" />
	<path style="fill:none;stroke:red;stroke-width:1px;stroke-linecap:butt;stroke-linejoin:miter;stroke-opacity:1" d="M 390.066,103.546 398.723,103.546 z" id="boundary" inkscape:connector-curvature="0" />
	<path style="fill:none;stroke:red;stroke-width:1px;stroke-linecap:butt;stroke-linejoin:miter;stroke-opacity:1" d="M 391.798,225.599 400.454,225.599 z" id="boundary" inkscape:connector-curvature="0" />
	<path style="fill:none;stroke:red;stroke-width:1px;stroke-linecap:butt;stroke-linejoin:miter;stroke-opacity:1" d="M 398.723,103.546 407.379,103.546 z" id="boundary" inkscape:connector-curvature="0" />
	<path style="fill:none;stroke:red;stroke-width:1px;stroke-linecap:butt;stroke-linejoin:miter;stroke-opacity:1" d="M 400.454,225.599 409.11,225.599 z" id="boundary" inkscape:connector-curvature="0" />
	<path style="fill:none;stroke:red;stroke-width:1px;stroke-linecap:butt;stroke-linejoin:miter;stroke-opacity:1" d="M 407.379,103.546 416.035,103.546 z" id="boundary" inkscape:connector-curvature="0" />
	<path style="fill:none;stroke:red;stroke-width:1px;stroke-linecap:butt;stroke-linejoin:miter;stroke-opacity:1" d="M 409.11,225.599 417.766,225.599 z" id="boundary" inkscape:connector-curvature="0" />
	<path style="fill:none;stroke:red;stroke-width:1px;stroke-linecap:butt;stroke-linejoin:miter;stroke-opacity:1" d="M 416.035,103.546 424.691,103.546 z" id="boundary" inkscape:connector-curvature="0" />
	<path style="fill:none;stroke:red;stroke-width:1px;stroke-linecap:butt;stroke-linejoin:miter;stroke-opacity:1" d="M 417.766,225.599 426.422,225.599 z" id="boundary" inkscape:connector-curvature="0" />
	<path style="fill:none;stroke:red;stroke-width:1px;stroke-linecap:butt;stroke-linejoin:miter;stroke-opacity:1" d="M 424.691,103.546 432.482,107.874 z" id="boundary" inkscape:connector-curvature="0" />
	<path style="fill:none;stroke:red;stroke-width:1px;stroke-linecap:butt;stroke-linejoin:miter;stroke-opacity:1" d="M 426.422,225.599 435.079,225.599 z" id="boundary" inkscape:connector-curvature="0" />
	<path style="fill:none;stroke:red;stroke-width:1px;stroke-linecap:butt;stroke-linejoin:miter;stroke-opacity:1" d="M 432.482,107.874 441.138,107.874 z" id="boundary" inkscape:connector-curvature="0" />
	<path style="fill:none;stroke:red;stroke-width:1px;stroke-linecap:butt;stroke-linejoin:miter;stroke-opacity:1" d="M 435.079,225.599 443.735,225.599 z" id="boundary" inkscape:connector-curvature="0" />
	<path style="fill:none;stroke:red;stroke-width:1px;stroke-linecap:butt;stroke-linejoin:miter;stroke-opacity:1" d="M 441.138,107.874 449.794,107.874 z" id="boundary" inkscape:connector-curvature="0" />
	<path style="fill:none;stroke:red;stroke-width:1px;stroke-linecap:butt;stroke-linejoin:miter;stroke-opacity:1" d="M 443.735,225.599 452.391,225.599 z" id="boundary" inkscape:connector-curvature="0" />
	<path style="fill:none;stroke:red;stroke-width:1px;stroke-linecap:butt;stroke-linejoin:miter;stroke-opacity:1" d="M 449.794,107.874 458.45,107.874 z" id="boundary" inkscape:connector-curvature="0" />
	<path style="fill:none;stroke:red;stroke-width:1px;stroke-linecap:butt;stroke-linejoin:miter;stroke-opacity:1" d="M 452.391,225.599 461.047,229.061 z" id="boundary" inkscape:connector-curvature="0" />
	<path style="fill:none;stroke:red;stroke-width:1px;stroke-linecap:butt;stroke-linejoin:miter;stroke-opacity:1" d="M 458.45,107.874 467.106,107.874 z" id="boundary" inkscape:connector-curvature="0" />
	<path style="fill:none;stroke:red;stroke-width:1px;stroke-linecap:butt;stroke-linejoin:miter;stroke-opacity:1" d="M 461.047,229.061 469.703,229.927 z" id="boundary" inkscape:connector-curvature="0" />
	<path style="fill:none;stroke:red;stroke-width:1px;stroke-linecap:butt;stroke-linejoin:miter;stroke-opacity:1" d="M 467.106,107.874 475.763,107.874 z" id="boundary" inkscape:connector-curvature="0" />
	<path style="fill:none;stroke:red;stroke-width:1px;stroke-linecap:butt;stroke-linejoin:miter;stroke-opacity:1" d="M 469.703,229.927 478.36,229.927 z" id="boundary" inkscape:connector-curvature="0" />
	<path style="fill:none;stroke:red;stroke-width:1px;stroke-linecap:butt;stroke-linejoin:miter;stroke-opacity:1" d="M 475.763,107.874 484.419,107.874 z" id="boundary" inkscape:connector-curvature="0" />
	<path style="fill:none;stroke:red;stroke-width:1px;stroke-linecap:butt;stroke-linejoin:miter;stroke-opacity:1" d="M 478.36,229.927 487.016,233.389 z" id="boundary" inkscape:connector-curvature="0" />
	<path style="fill:none;stroke:red;stroke-width:1px;stroke-linecap:butt;stroke-linejoin:miter;stroke-opacity:1" d="M 484.419,107.874 493.075,107.874 z" id="boundary" inkscape:connector-curvature="0" />
	<path style="fill:none;stroke:red;stroke-width:1px;stroke-linecap:butt;stroke-linejoin:miter;stroke-opacity:1" d="M 487.016,233.389 490.478,242.045 z" id="boundary" inkscape:connector-curvature="0" />
	<path style="fill:none;stroke:red;stroke-width:1px;stroke-linecap:butt;stroke-linejoin:miter;stroke-opacity:1" d="M 490.478,242.045 497.403,247.239 z" id="boundary" inkscape:connector-curvature="0" />
	<path style="fill:none;stroke:red;stroke-width:1px;stroke-linecap:butt;stroke-linejoin:miter;stroke-opacity:1" d="M 493.075,107.874 501.731,107.874 z" id="boundary" inkscape:connector-curvature="0" />
	<path style="fill:none;stroke:red;stroke-width:1px;stroke-linecap:butt;stroke-linejoin:miter;stroke-opacity:1" d="M 497.403,247.239 500,255.895 z" id="boundary" inkscape:connector-curvature="0" />
	<path style="fill:none;stroke:red;stroke-width:1px;stroke-linecap:butt;stroke-linejoin:miter;stroke-opacity:1" d="M 500,255.895 504.328,263.686 z" id="boundary" inkscape:connector-curvature="0" />
	<path style="fill:none;stroke:red;stroke-width:1px;stroke-linecap:butt;stroke-linejoin:miter;stroke-opacity:1" d="M 501.731,107.874 506.925,100.949 z" id="boundary" inkscape:connector-curvature="0" />
	<path style="fill:none;stroke:red;stroke-width:1px;stroke-linecap:butt;stroke-linejoin:miter;stroke-opacity:1" d="M 504.328,263.686 510.387,270.611 z" id="boundary" inkscape:connector-curvature="0" />
	<path style="fill:none;stroke:red;stroke-width:1px;stroke-linecap:butt;stroke-linejoin:miter;stroke-opacity:1" d="M 506.925,100.949 511.253,92.2932 z" id="boundary" inkscape:connector-curvature="0" />
	<path style="fill:none;stroke:red;stroke-width:1px;stroke-linecap:butt;stroke-linejoin:miter;stroke-opacity:1" d="M 510.387,270.611 517.312,276.67 z" id="boundary" inkscape:connector-curvature="0" />
	<path style="fill:none;stroke:red;stroke-width:1px;stroke-linecap:butt;stroke-linejoin:miter;stroke-opacity:1" d="M 511.253,92.2932 518.178,86.2339 z" id="boundary" inkscape:connector-curvature="0" />
	<path style="fill:none;stroke:red;stroke-width:1px;stroke-linecap:butt;stroke-linejoin:miter;stroke-opacity:1" d="M 517.312,276.67 525.103,280.998 z" id="boundary" inkscape:connector-curvature="0" />
	<path style="fill:none;stroke:red;stroke-width:1px;stroke-linecap:butt;stroke-linejoin:miter;stroke-opacity:1" d="M 518.178,86.2339 524.237,79.3089 z" id="boundary" inkscape:connector-curvature="0" />
	<path style="fill:none;stroke:red;stroke-width:1px;stroke-linecap:butt;stroke-linejoin:miter;stroke-opacity:1" d="M 524.237,79.3089 532.894,74.9808 z" id="boundary" inkscape:connector-curvature="0" />
	<path style="fill:none;stroke:red;stroke-width:1px;stroke-linecap:butt;stroke-linejoin:miter;stroke-opacity:1" d="M 525.103,280.998 532.028,286.192 z" id="boundary" inkscape:connector-curvature="0" />
	<path style="fill:none;stroke:red;stroke-width:1px;stroke-linecap:butt;stroke-linejoin:miter;stroke-opacity:1" d="M 532.028,286.192 539.818,290.52 z" id="boundary" inkscape:connector-curvature="0" />
	<path style="fill:none;stroke:red;stroke-width:1px;stroke-linecap:butt;stroke-linejoin:miter;stroke-opacity:1" d="M 532.894,74.9808 539.818,68.9215 z" id="boundary" inkscape:connector-curvature="0" />
	<path style="fill:none;stroke:red;stroke-width:1px;stroke-linecap:butt;stroke-linejoin:miter;stroke-opacity:1" d="M 539.818,68.9215 545.878,61.9965 z" id="boundary" inkscape:connector-curvature="0" />
	<path style="fill:none;stroke:red;stroke-width:1px;stroke-linecap:butt;stroke-linejoin:miter;stroke-opacity:1" d="M 539.818,290.52 545.878,297.445 z" id="boundary" inkscape:connector-curvature="0" />
	<path style="fill:none;stroke:red;stroke-width:1px;stroke-linecap:butt;stroke-linejoin:miter;stroke-opacity:1" d="M 545.878,61.9965 554.534,57.6684 z" id="boundary" inkscape:connector-curvature="0" />
	<path style="fill:none;stroke:red;stroke-width:1px;stroke-linecap:butt;stroke-linejoin:miter;stroke-opacity:1" d="M 545.878,297.445 554.534,300.908 z" id="boundary" inkscape:connector-curvature="0" />
	<path style="fill:none;stroke:red;stroke-width:1px;stroke-linecap:butt;stroke-linejoin:miter;stroke-opacity:1" d="M 554.534,57.6684 561.459,51.6091 z" id="boundary" inkscape:connector-curvature="0" />
	<path style="fill:none;stroke:red;stroke-width:1px;stroke-linecap:butt;stroke-linejoin:miter;stroke-opacity:1" d="M 554.534,300.908 563.19,303.504 z" id="boundary" inkscape:connector-curvature="0" />
	<path style="fill:none;stroke:red;stroke-width:1px;stroke-linecap:butt;stroke-linejoin:miter;stroke-opacity:1" d="M 561.459,51.6091 569.25,47.281 z" id="boundary" inkscape:connector-curvature="0" />
	<path style="fill:none;stroke:red;stroke-width:1px;stroke-linecap:butt;stroke-linejoin:miter;stroke-opacity:1" d="M 563.19,303.504 570.981,307.832 z" id="boundary" inkscape:connector-curvature="0" />
	<path style="fill:none;stroke:red;stroke-width:1px;stroke-linecap:butt;stroke-linejoin:miter;stroke-opacity:1" d="M 569.25,47.281 577.04,42.9529 z" id="boundary" inkscape:connector-curvature="0" />
	<path style="fill:none;stroke:red;stroke-width:1px;stroke-linecap:butt;stroke-linejoin:miter;stroke-opacity:1" d="M 570.981,307.832 578.771,312.161 z" id="boundary" inkscape:connector-curvature="0" />
	<path style="fill:none;stroke:red;stroke-width:1px;stroke-linecap:butt;stroke-linejoin:miter;stroke-opacity:1" d="M 577.04,42.9529 584.831,38.6248 z" id="boundary" inkscape:connector-curvature="0" />
	<path style="fill:none;stroke:red;stroke-width:1px;stroke-linecap:butt;stroke-linejoin:miter;stroke-opacity:1" d="M 578.771,312.161 587.428,312.161 z" id="boundary" inkscape:connector-curvature="0" />
	<path style="fill:none;stroke:red;stroke-width:1px;stroke-linecap:butt;stroke-linejoin:miter;stroke-opacity:1" d="M 584.831,38.6248 592.621,34.2967 z" id="boundary" inkscape:connector-curvature="0" />
	<path style="fill:none;stroke:red;stroke-width:1px;stroke-linecap:butt;stroke-linejoin:miter;stroke-opacity:1" d="M 587.428,312.161 595.218,316.489 z" id="boundary" inkscape:connector-curvature="0" />
	<path style="fill:none;stroke:red;stroke-width:1px;stroke-linecap:butt;stroke-linejoin:miter;stroke-opacity:1" d="M 592.621,34.2967 600.412,29.9686 z" id="boundary" inkscape:connector-curvature="0" />
	<path style="fill:none;stroke:red;stroke-width:1px;stroke-linecap:butt;stroke-linejoin:miter;stroke-opacity:1" d="M 595.218,316.489 603.874,316.489 z" id="boundary" inkscape:connector-curvature="0" />
	<path style="fill:none;stroke:red;stroke-width:1px;stroke-linecap:butt;stroke-linejoin:miter;stroke-opacity:1" d="M 600.412,29.9686 608.202,25.6405 z" id="boundary" inkscape:connector-curvature="0" />
	<path style="fill:none;stroke:red;stroke-width:1px;stroke-linecap:butt;stroke-linejoin:miter;stroke-opacity:1" d="M 603.874,316.489 611.665,320.817 z" id="boundary" inkscape:connector-curvature="0" />
	<path style="fill:none;stroke:red;stroke-width:1px;stroke-linecap:butt;stroke-linejoin:miter;stroke-opacity:1" d="M 608.202,25.6405 616.859,25.6405 z" id="boundary" inkscape:connector-curvature="0" />
	<path style="fill:none;stroke:red;stroke-width:1px;stroke-linecap:butt;stroke-linejoin:miter;stroke-opacity:1" d="M 611.665,320.817 619.455,325.145 z" id="boundary" inkscape:connector-curvature="0" />
	<path style="fill:none;stroke:red;stroke-width:1px;stroke-linecap:butt;stroke-linejoin:miter;stroke-opacity:1" d="M 616.859,25.6405 624.649,21.3124 z" id="boundary" inkscape:connector-curvature="0" />
	<path style="fill:none;stroke:red;stroke-width:1px;stroke-linecap:butt;stroke-linejoin:miter;stroke-opacity:1" d="M 619.455,325.145 628.112,325.145 z" id="boundary" inkscape:connector-curvature="0" />
	<path style="fill:none;stroke:red;stroke-width:1px;stroke-linecap:butt;stroke-linejoin:miter;stroke-opacity:1" d="M 624.649,21.3124 632.44,16.9843 z" id="boundary" inkscape:connector-curvature="0" />
	<path style="fill:none;stroke:red;stroke-width:1px;stroke-linecap:butt;stroke-linejoin:miter;stroke-opacity:1" d="M 628.112,325.145 635.902,329.473 z" id="boundary" inkscape:connector-curvature="0" />
	<path style="fill:none;stroke:red;stroke-width:1px;stroke-linecap:butt;stroke-linejoin:miter;stroke-opacity:1" d="M 632.44,16.9843 640.23,12.6562 z" id="boundary" inkscape:connector-curvature="0" />
	<path style="fill:none;stroke:red;stroke-width:1px;stroke-linecap:butt;stroke-linejoin:miter;stroke-opacity:1" d="M 635.902,329.473 644.558,329.473 z" id="boundary" inkscape:connector-curvature="0" />
	<path style="fill:none;stroke:red;stroke-width:1px;stroke-linecap:butt;stroke-linejoin:miter;stroke-opacity:1" d="M 640.23,12.6562 648.021,8.3281 z" id="boundary" inkscape:connector-curvature="0" />
	<path style="fill:none;stroke:red;stroke-width:1px;stroke-linecap:butt;stroke-linejoin:miter;stroke-opacity:1" d="M 644.558,329.473 653.215,329.473 z" id="boundary" inkscape:connector-curvature="0" />
	<path style="fill:none;stroke:red;stroke-width:1px;stroke-linecap:butt;stroke-linejoin:miter;stroke-opacity:1" d="M 648.021,8.3281 656.677,8.3281 z" id="boundary" inkscape:connector-curvature="0" />
	<path style="fill:none;stroke:red;stroke-width:1px;stroke-linecap:butt;stroke-linejoin:miter;stroke-opacity:1" d="M 653.215,329.473 661.871,329.473 z" id="boundary" inkscape:connector-curvature="0" />
	<path style="fill:none;stroke:red;stroke-width:1px;stroke-linecap:butt;stroke-linejoin:miter;stroke-opacity:1" d="M 656.677,8.3281 665.333,8.3281 z" id="boundary" inkscape:connector-curvature="0" />
	<path style="fill:none;stroke:red;stroke-width:1px;stroke-linecap:butt;stroke-linejoin:miter;stroke-opacity:1" d="M 661.871,329.473 670.527,329.473 z" id="boundary" inkscape:connector-curvature="0" />
	<path style="fill:none;stroke:red;stroke-width:1px;stroke-linecap:butt;stroke-linejoin:miter;stroke-opacity:1" d="M 665.333,8.3281 673.99,8.3281 z" id="boundary" inkscape:connector-curvature="0" />
	<path style="fill:none;stroke:red;stroke-width:1px;stroke-linecap:butt;stroke-linejoin:miter;stroke-opacity:1" d="M 670.527,329.473 678.318,333.801 z" id="boundary" inkscape:connector-curvature="0" />
	<path style="fill:none;stroke:red;stroke-width:1px;stroke-linecap:butt;stroke-linejoin:miter;stroke-opacity:1" d="M 673.99,8.3281 681.78,4 z" id="boundary" inkscape:connector-curvature="0" />
	<path style="fill:none;stroke:red;stroke-width:1px;stroke-linecap:butt;stroke-linejoin:miter;stroke-opacity:1" d="M 678.318,333.801 686.974,333.801 z" id="boundary" inkscape:connector-curvature="0" />
	<path style="fill:none;stroke:red;stroke-width:1px;stroke-linecap:butt;stroke-linejoin:miter;stroke-opacity:1" d="M 681.78,4 690.436,4 z" id="boundary" inkscape:connector-curvature="0" />
	<path style="fill:none;stroke:red;stroke-width:1px;stroke-linecap:butt;stroke-linejoin:miter;stroke-opacity:1" d="M 686.974,333.801 695.63,333.801 z" id="boundary" inkscape:connector-curvature="0" />
	<path style="fill:none;stroke:red;stroke-width:1px;stroke-linecap:butt;stroke-linejoin:miter;stroke-opacity:1" d="M 690.436,4 699.092,4 z" id="boundary" inkscape:connector-curvature="0" />
	<path style="fill:none;stroke:red;stroke-width:1px;stroke-linecap:butt;stroke-linejoin:miter;stroke-opacity:1" d="M 695.63,333.801 704.286,333.801 z" id="boundary" inkscape:connector-curvature="0" />
	<path style="fill:none;stroke:red;stroke-width:1px;stroke-linecap:butt;stroke-linejoin:miter;stroke-opacity:1" d="M 699.092,4 707.749,4 z" id="boundary" inkscape:connector-curvature="0" />
	<path style="fill:none;stroke:red;stroke-width:1px;stroke-linecap:butt;stroke-linejoin:miter;stroke-opacity:1" d="M 704.286,333.801 712.942,333.801 z" id="boundary" inkscape:connector-curvature="0" />
	<path style="fill:none;stroke:red;stroke-width:1px;stroke-linecap:butt;stroke-linejoin:miter;stroke-opacity:1" d="M 707.749,4 716.405,4 z" id="boundary" inkscape:connector-curvature="0" />
	<path style="fill:none;stroke:red;stroke-width:1px;stroke-linecap:butt;stroke-linejoin:miter;stroke-opacity:1" d="M 712.942,333.801 721.599,333.801 z" id="boundary" inkscape:connector-curvature="0" />
	<path style="fill:none;stroke:red;stroke-width:1px;stroke-linecap:butt;stroke-linejoin:miter;stroke-opacity:1" d="M 716.405,4 725.061,4 z" id="boundary" inkscape:connector-curvature="0" />
	<path style="fill:none;stroke:red;stroke-width:1px;stroke-linecap:butt;stroke-linejoin:miter;stroke-opacity:1" d="M 721.599,333.801 730.255,333.801 z" id="boundary" inkscape:connector-curvature="0" />
	<path style="fill:none;stroke:red;stroke-width:1px;stroke-linecap:butt;stroke-linejoin:miter;stroke-opacity:1" d="M 725.061,4 733.717,4 z" id="boundary" inkscape:connector-curvature="0" />
	<path style="fill:none;stroke:red;stroke-width:1px;stroke-linecap:butt;stroke-linejoin:miter;stroke-opacity:1" d="M 730.255,333.801 738.911,333.801 z" id="boundary" inkscape:connector-curvature="0" />
	<path style="fill:none;stroke:red;stroke-width:1px;stroke-linecap:butt;stroke-linejoin:miter;stroke-opacity:1" d="M 733.717,4 742.373,4 z" id="boundary" inkscape:connector-curvature="0" />
	<path style="fill:none;stroke:red;stroke-width:1px;stroke-linecap:butt;stroke-linejoin:miter;stroke-opacity:1" d="M 738.911,333.801 747.567,333.801 z" id="boundary" inkscape:connector-curvature="0" />
	<path style="fill:none;stroke:red;stroke-width:1px;stroke-linecap:butt;stroke-linejoin:miter;stroke-opacity:1" d="M 742.373,4 751.03,4 z" id="boundary" inkscape:connector-curvature="0" />
	<path style="fill:none;stroke:red;stroke-width:1px;stroke-linecap:butt;stroke-linejoin:miter;stroke-opacity:1" d="M 747.567,333.801 756.223,333.801 z" id="boundary" inkscape:connector-curvature="0" />
	<path style="fill:none;stroke:red;stroke-width:1px;stroke-linecap:butt;stroke-linejoin:miter;stroke-opacity:1" d="M 751.03,4 759.686,4 z" id="boundary" inkscape:connector-curvature="0" />
	<path style="fill:none;stroke:red;stroke-width:1px;stroke-linecap:butt;stroke-linejoin:miter;stroke-opacity:1" d="M 756.223,333.801 764.88,333.801 z" id="boundary" inkscape:connector-curvature="0" />
	<path style="fill:none;stroke:red;stroke-width:1px;stroke-linecap:butt;stroke-linejoin:miter;stroke-opacity:1" d="M 759.686,4 767.476,8.3281 z" id="boundary" inkscape:connector-curvature="0" />
	<path style="fill:none;stroke:red;stroke-width:1px;stroke-linecap:butt;stroke-linejoin:miter;stroke-opacity:1" d="M 764.88,333.801 773.536,333.801 z" id="boundary" inkscape:connector-curvature="0" />
	<path style="fill:none;stroke:red;stroke-width:1px;stroke-linecap:butt;stroke-linejoin:miter;stroke-opacity:1" d="M 767.476,8.3281 776.133,8.3281 z" id="boundary" inkscape:connector-curvature="0" />
	<path style="fill:none;stroke:red;stroke-width:1px;stroke-linecap:butt;stroke-linejoin:miter;stroke-opacity:1" d="M 773.536,333.801 782.192,333.801 z" id="boundary" inkscape:connector-curvature="0" />
	<path style="fill:none;stroke:red;stroke-width:1px;stroke-linecap:butt;stroke-linejoin:miter;stroke-opacity:1" d="M 776.133,8.3281 784.789,8.3281 z" id="boundary" inkscape:connector-curvature="0" />
	<path style="fill:none;stroke:red;stroke-width:1px;stroke-linecap:butt;stroke-linejoin:miter;stroke-opacity:1" d="M 782.192,333.801 790.848,333.801 z" id="boundary" inkscape:connector-curvature="0" />
	<path style="fill:none;stroke:red;stroke-width:1px;stroke-linecap:butt;stroke-linejoin:miter;stroke-opacity:1" d="M 784.789,8.3281 793.445,8.3281 z" id="boundary" inkscape:connector-curvature="0" />
	<path style="fill:none;stroke:red;stroke-width:1px;stroke-linecap:butt;stroke-linejoin:miter;stroke-opacity:1" d="M 790.848,333.801 799.504,333.801 z" id="boundary" inkscape:connector-curvature="0" />
	<path style="fill:none;stroke:red;stroke-width:1px;stroke-linecap:butt;stroke-linejoin:miter;stroke-opacity:1" d="M 793.445,8.3281 802.101,8.3281 z" id="boundary" inkscape:connector-curvature="0" />
	<path style="fill:none;stroke:red;stroke-width:1px;stroke-linecap:butt;stroke-linejoin:miter;stroke-opacity:1" d="M 799.504,333.801 807.295,329.473 z" id="boundary" inkscape:connector-curvature="0" />
	<path style="fill:none;stroke:red;stroke-width:1px;stroke-linecap:butt;stroke-linejoin:miter;stroke-opacity:1" d="M 802.101,8.3281 809.892,12.6562 z" id="boundary" inkscape:connector-curvature="0" />
	<path style="fill:none;stroke:red;stroke-width:1px;stroke-linecap:butt;stroke-linejoin:miter;stroke-opacity:1" d="M 807.295,329.473 815.086,325.145 z" id="boundary" inkscape:connector-curvature="0" />
	<path style="fill:none;stroke:red;stroke-width:1px;stroke-linecap:butt;stroke-linejoin:miter;stroke-opacity:1" d="M 809.892,12.6562 818.548,12.6562 z" id="boundary" inkscape:connector-curvature="0" />
	<path style="fill:none;stroke:red;stroke-width:1px;stroke-linecap:butt;stroke-linejoin:miter;stroke-opacity:1" d="M 815.086,325.145 823.742,325.145 z" id="boundary" inkscape:connector-curvature="0" />
	<path style="fill:none;stroke:red;stroke-width:1px;stroke-linecap:butt;stroke-linejoin:miter;stroke-opacity:1" d="M 818.548,12.6562 827.204,15.2531 z" id="boundary" inkscape:connector-curvature="0" />
	<path style="fill:none;stroke:red;stroke-width:1px;stroke-linecap:butt;stroke-linejoin:miter;stroke-opacity:1" d="M 823.742,325.145 831.532,320.817 z" id="boundary" inkscape:connector-curvature="0" />
	<path style="fill:none;stroke:red;stroke-width:1px;stroke-linecap:butt;stroke-linejoin:miter;stroke-opacity:1" d="M 827.204,15.2531 835.86,16.9843 z" id="boundary" inkscape:connector-curvature="0" />
	<path style="fill:none;stroke:red;stroke-width:1px;stroke-linecap:butt;stroke-linejoin:miter;stroke-opacity:1" d="M 831.532,320.817 840.188,320.817 z" id="boundary" inkscape:connector-curvature="0" />
	<path style="fill:none;stroke:red;stroke-width:1px;stroke-linecap:butt;stroke-linejoin:miter;stroke-opacity:1" d="M 835.86,16.9843 844.517,16.9843 z" id="boundary" inkscape:connector-curvature="0" />
	<path style="fill:none;stroke:red;stroke-width:1px;stroke-linecap:butt;stroke-linejoin:miter;stroke-opacity:1" d="M 840.188,320.817 847.979,316.489 z" id="boundary" inkscape:connector-curvature="0" />
	<path style="fill:none;stroke:red;stroke-width:1px;stroke-linecap:butt;stroke-linejoin:miter;stroke-opacity:1" d="M 844.517,16.9843 852.307,21.3124 z" id="boundary" inkscape:connector-curvature="0" />
	<path style="fill:none;stroke:red;stroke-width:1px;stroke-linecap:butt;stroke-linejoin:miter;stroke-opacity:1" d="M 847.979,316.489 856.635,316.489 z" id="boundary" inkscape:connector-curvature="0" />
	<path style="fill:none;stroke:red;stroke-width:1px;stroke-linecap:butt;stroke-linejoin:miter;stroke-opacity:1" d="M 852.307,21.3124 860.963,21.3124 z" id="boundary" inkscape:connector-curvature="0" />
	<path style="fill:none;stroke:red;stroke-width:1px;stroke-linecap:butt;stroke-linejoin:miter;stroke-opacity:1" d="M 856.635,316.489 865.291,313.892 z" id="boundary" inkscape:connector-curvature="0" />
	<path style="fill:none;stroke:red;stroke-width:1px;stroke-linecap:butt;stroke-linejoin:miter;stroke-opacity:1" d="M 860.963,21.3124 868.754,25.6405 z" id="boundary" inkscape:connector-curvature="0" />
	<path style="fill:none;stroke:red;stroke-width:1px;stroke-linecap:butt;stroke-linejoin:miter;stroke-opacity:1" d="M 865.291,313.892 873.948,309.564 z" id="boundary" inkscape:connector-curvature="0" />
	<path style="fill:none;stroke:red;stroke-width:1px;stroke-linecap:butt;stroke-linejoin:miter;stroke-opacity:1" d="M 868.754,25.6405 876.545,29.9686 z" id="boundary" inkscape:connector-curvature="0" />
	<path style="fill:none;stroke:red;stroke-width:1px;stroke-linecap:butt;stroke-linejoin:miter;stroke-opacity:1" d="M 873.948,309.564 882.604,305.236 z" id="boundary" inkscape:connector-curvature="0" />
	<path style="fill:none;stroke:red;stroke-width:1px;stroke-linecap:butt;stroke-linejoin:miter;stroke-opacity:1" d="M 876.545,29.9686 884.335,34.2967 z" id="boundary" inkscape:connector-curvature="0" />
	<path style="fill:none;stroke:red;stroke-width:1px;stroke-linecap:butt;stroke-linejoin:miter;stroke-opacity:1" d="M 882.604,305.236 891.26,300.908 z" id="boundary" inkscape:connector-curvature="0" />
	<path style="fill:none;stroke:red;stroke-width:1px;stroke-linecap:butt;stroke-linejoin:miter;stroke-opacity:1" d="M 884.335,34.2967 892.126,38.6248 z" id="boundary" inkscape:connector-curvature="0" />
	<path style="fill:none;stroke:red;stroke-width:1px;stroke-linecap:butt;stroke-linejoin:miter;stroke-opacity:1" d="M 891.26,300.908 899.916,296.579 z" id="boundary" inkscape:connector-curvature="0" />
	<path style="fill:none;stroke:red;stroke-width:1px;stroke-linecap:butt;stroke-linejoin:miter;stroke-opacity:1" d="M 892.126,38.6248 899.051,43.8185 z" id="boundary" inkscape:connector-curvature="0" />
	<path style="fill:none;stroke:red;stroke-width:1px;stroke-linecap:butt;stroke-linejoin:miter;stroke-opacity:1" d="M 899.051,43.8185 906.841,48.1466 z" id="boundary" inkscape:connector-curvature="0" />
	<path style="fill:none;stroke:red;stroke-width:1px;stroke-linecap:butt;stroke-linejoin:miter;stroke-opacity:1" d="M 899.916,296.579 908.572,292.251 z" id="boundary" inkscape:connector-curvature="0" />
	<path style="fill:none;stroke:red;stroke-width:1px;stroke-linecap:butt;stroke-linejoin:miter;stroke-opacity:1" d="M 906.841,48.1466 915.497,51.6091 z" id="boundary" inkscape:connector-curvature="0" />
	<path style="fill:none;stroke:red;stroke-width:1px;stroke-linecap:butt;stroke-linejoin:miter;stroke-opacity:1" d="M 908.572,292.251 915.497,285.326 z" id="boundary" inkscape:connector-curvature="0" />
	<path style="fill:none;stroke:red;stroke-width:1px;stroke-linecap:butt;stroke-linejoin:miter;stroke-opacity:1" d="M 915.497,51.6091 923.288,55.9372 z" id="boundary" inkscape:connector-curvature="0" />
	<path style="fill:none;stroke:red;stroke-width:1px;stroke-linecap:butt;stroke-linejoin:miter;stroke-opacity:1" d="M 915.497,285.326 922.422,277.536 z" id="boundary" inkscape:connector-curvature="0" />
	<path style="fill:none;stroke:red;stroke-width:1px;stroke-linecap:butt;stroke-linejoin:miter;stroke-opacity:1" d="M 922.422,277.536 929.347,271.476 z" id="boundary" inkscape:connector-curvature="0" />
	<path style="fill:none;stroke:red;stroke-width:1px;stroke-linecap:butt;stroke-linejoin:miter;stroke-opacity:1" d="M 923.288,55.9372 930.213,61.9965 z" id="boundary" inkscape:connector-curvature="0" />
	<path style="fill:none;stroke:red;stroke-width:1px;stroke-linecap:butt;stroke-linejoin:miter;stroke-opacity:1" d="M 929.347,271.476 938.003,267.148 z" id="boundary" inkscape:connector-curvature="0" />
	<path style="fill:none;stroke:red;stroke-width:1px;stroke-linecap:butt;stroke-linejoin:miter;stroke-opacity:1" d="M 930.213,61.9965 935.407,68.9215 z" id="boundary" inkscape:connector-curvature="0" />
	<path style="fill:none;stroke:red;stroke-width:1px;stroke-linecap:butt;stroke-linejoin:miter;stroke-opacity:1" d="M 935.407,68.9215 942.332,74.1152 z" id="boundary" inkscape:connector-curvature="0" />
	<path style="fill:none;stroke:red;stroke-width:1px;stroke-linecap:butt;stroke-linejoin:miter;stroke-opacity:1" d="M 938.003,267.148 944.063,260.223 z" id="boundary" inkscape:connector-curvature="0" />
	<path style="fill:none;stroke:red;stroke-width:1px;stroke-linecap:butt;stroke-linejoin:miter;stroke-opacity:1" d="M 942.332,74.1152 948.391,81.0401 z" id="boundary" inkscape:connector-curvature="0" />
	<path style="fill:none;stroke:red;stroke-width:1px;stroke-linecap:butt;stroke-linejoin:miter;stroke-opacity:1" d="M 944.063,260.223 951.853,255.895 z" id="boundary" inkscape:connector-curvature="0" />
	<path style="fill:none;stroke:red;stroke-width:1px;stroke-linecap:butt;stroke-linejoin:miter;stroke-opacity:1" d="M 948.391,81.0401 955.316,87.0995 z" id="boundary" inkscape:connector-curvature="0" />
	<path style="fill:none;stroke:red;stroke-width:1px;stroke-linecap:butt;stroke-linejoin:miter;stroke-opacity:1" d="M 951.853,255.895 958.778,250.702 z" id="boundary" inkscape:connector-curvature="0" />
	<path style="fill:none;stroke:red;stroke-width:1px;stroke-linecap:butt;stroke-linejoin:miter;stroke-opacity:1" d="M 955.316,87.0995 961.375,94.0244 z" id="boundary" inkscape:connector-curvature="0" />
	<path style="fill:none;stroke:red;stroke-width:1px;stroke-linecap:butt;stroke-linejoin:miter;stroke-opacity:1" d="M 958.778,250.702 965.703,242.911 z" id="boundary" inkscape:connector-curvature="0" />
	<path style="fill:none;stroke:red;stroke-width:1px;stroke-linecap:butt;stroke-linejoin:miter;stroke-opacity:1" d="M 961.375,94.0244 968.3,100.084 z" id="boundary" inkscape:connector-curvature="0" />
	<path style="fill:none;stroke:red;stroke-width:1px;stroke-linecap:butt;stroke-linejoin:miter;stroke-opacity:1" d="M 965.703,242.911 972.628,236.852 z" id="boundary" inkscape:connector-curvature="0" />
	<path style="fill:none;stroke:red;stroke-width:1px;stroke-linecap:butt;stroke-linejoin:miter;stroke-opacity:1" d="M 968.3,100.084 971.763,108.74 z" id="boundary" inkscape:connector-curvature="0" />
	<path style="fill:none;stroke:red;stroke-width:1px;stroke-linecap:butt;stroke-linejoin:miter;stroke-opacity:1" d="M 971.763,108.74 976.091,116.531 z" id="boundary" inkscape:connector-curvature="0" />
	<path style="fill:none;stroke:red;stroke-width:1px;stroke-linecap:butt;stroke-linejoin:miter;stroke-opacity:1" d="M 972.628,236.852 978.688,225.599 z" id="boundary" inkscape:connector-curvature="0" />
	<path style="fill:none;stroke:red;stroke-width:1px;stroke-linecap:butt;stroke-linejoin:miter;stroke-opacity:1" d="M 976.091,116.531 978.688,125.187 z" id="boundary" inkscape:connector-curvature="0" />
	<path style="fill:none;stroke:red;stroke-width:1px;stroke-linecap:butt;stroke-linejoin:miter;stroke-opacity:1" d="M 978.688,125.187 985.613,130.38 z" id="boundary" inkscape:connector-curvature="0" />
	<path style="fill:none;stroke:red;stroke-width:1px;stroke-linecap:butt;stroke-linejoin:miter;stroke-opacity:1" d="M 978.688,225.599 983.016,216.942 z" id="boundary" inkscape:connector-curvature="0" />
	<path style="fill:none;stroke:red;stroke-width:1px;stroke-linecap:butt;stroke-linejoin:miter;stroke-opacity:1" d="M 983.016,216.942 987.344,208.286 z" id="boundary" inkscape:connector-curvature="0" />
	<path style="fill:none;stroke:red;stroke-width:1px;stroke-linecap:butt;stroke-linejoin:miter;stroke-opacity:1" d="M 985.613,130.38 989.075,139.037 z" id="boundary" inkscape:connector-curvature="0" />
	<path style="fill:none;stroke:red;stroke-width:1px;stroke-linecap:butt;stroke-linejoin:miter;stroke-opacity:1" d="M 987.344,208.286 991.672,199.63 z" id="boundary" inkscape:connector-curvature="0" />
	<path style="fill:none;stroke:red;stroke-width:1px;stroke-linecap:butt;stroke-linejoin:miter;stroke-opacity:1" d="M 989.075,139.037 991.672,147.693 z" id="boundary" inkscape:connector-curvature="0" />
	<path style="fill:none;stroke:red;stroke-width:1px;stroke-linecap:butt;stroke-linejoin:miter;stroke-opacity:1" d="M 991.672,147.693 991.672,156.349 z" id="boundary" inkscape:connector-curvature="0" />
	<path style="fill:none;stroke:red;stroke-width:1px;stroke-linecap:butt;stroke-linejoin:miter;stroke-opacity:1" d="M 991.672,156.349 996,164.14 z" id="boundary" inkscape:connector-curvature="0" />
	<path style="fill:none;stroke:red;stroke-width:1px;stroke-linecap:butt;stroke-linejoin:miter;stroke-opacity:1" d="M 991.672,190.974 991.672,199.63 z" id="boundary" inkscape:connector-curvature="0" />
	<path style="fill:none;stroke:red;stroke-width:1px;stroke-linecap:butt;stroke-linejoin:miter;stroke-opacity:1" d="M 991.672,190.974 996,181.452 z" id="boundary" inkscape:connector-curvature="0" />
	<path style="fill:none;stroke:red;stroke-width:1px;stroke-linecap:butt;stroke-linejoin:miter;stroke-opacity:1" d="M 996,164.14 996,172.796 z" id="boundary" inkscape:connector-curvature="0" />
	<path style="fill:none;stroke:red;stroke-width:1px;stroke-linecap:butt;stroke-linejoin:miter;stroke-opacity:1" d="M 996,172.796 996,181.452 z" id="boundary" inkscape:connector-curvature="0" />
	<circle cx="4" cy="166.736" r="4" fill="#0" id="circle0"/>
	<circle cx="4" cy="175.393" r="4" fill="#0" id="circle1"/>
	<circle cx="4" cy="184.049" r="4" fill="#0" id="circle2"/>
	<circle cx="4" cy="192.705" r="4" fill="#0" id="circle3"/>
	<circle cx="8.3281" cy="145.096" r="4" fill="#0" id="circle4"/>
	<circle cx="8.3281" cy="153.752" r="4" fill="#0" id="circle5"/>
	<circle cx="8.3281" cy="200.496" r="4" fill="#0" id="circle6"/>
	<circle cx="12.6562" cy="136.44" r="4" fill="#0" id="circle7"/>
	<circle cx="12.6562" cy="208.286" r="4" fill="#0" id="circle8"/>
	<circle cx="17.8499" cy="215.211" r="4" fill="#0" id="circle9"/>
	<circle cx="19.5812" cy="129.515" r="4" fill="#0" id="circle10"/>
	<circle cx="22.178" cy="223.002" r="4" fill="#0" id="circle11"/>
	<circle cx="26.5061" cy="122.59" r="4" fill="#0" id="circle12"/>
	<circle cx="28.2373" cy="229.927" r="4" fill="#0" id="circle13"/>
	<circle cx="33.4311" cy="116.531" r="4" fill="#0" id="circle14"/>
	<circle cx="35.1623" cy="235.986" r="4" fill="#0" id="circle15"/>
	<circle cx="39.4904" cy="109.606" r="4" fill="#0" id="circle16"/>
	<circle cx="42.9529" cy="240.314" r="4" fill="#0" id="circle17"/>
	<circle cx="48.1466" cy="105.277" r="4" fill="#0" id="circle18"/>
	<circle cx="51.6091" cy="242.911" r="4" fill="#0" id="circle19"/>
	<circle cx="55.0716" cy="99.2182" r="4" fill="#0" id="circle20"/>
	<circle cx="56.8028" cy="249.836" r="4" fill="#0" id="circle21"/>
	<circle cx="62.8621" cy="94.8901" r="4" fill="#0" id="circle22"/>
	<circle cx="65.459" cy="253.298" r="4" fill="#0" id="circle23"/>
	<circle cx="70.6527" cy="90.562" r="4" fill="#0" id="circle24"/>
	<circle cx="74.1152" cy="255.895" r="4" fill="#0" id="circle25"/>
	<circle cx="78.4433" cy="86.2339" r="4" fill="#0" id="circle26"/>
	<circle cx="81.9058" cy="260.223" r="4" fill="#0" id="circle27"/>
	<circle cx="86.2339" cy="81.9058" r="4" fill="#0" id="circle28"/>
	<circle cx="90.562" cy="260.223" r="4" fill="#0" id="circle29"/>
	<circle cx="94.0244" cy="77.5777" r="4" fill="#0" id="circle30"/>
	<circle cx="98.3525" cy="264.551" r="4" fill="#0" id="circle31"/>
	<circle cx="101.815" cy="73.2496" r="4" fill="#0" id="circle32"/>
	<circle cx="106.143" cy="268.88" r="4" fill="#0" id="circle33"/>
	<circle cx="110.471" cy="73.2496" r="4" fill="#0" id="circle34"/>
	<circle cx="114.799" cy="268.88" r="4" fill="#0" id="circle35"/>
	<circle cx="119.127" cy="73.2496" r="4" fill="#0" id="circle36"/>
	<circle cx="122.59" cy="273.208" r="4" fill="#0" id="circle37"/>
	<circle cx="126.918" cy="68.9215" r="4" fill="#0" id="circle38"/>
	<circle cx="131.246" cy="273.208" r="4" fill="#0" id="circle39"/>
	<circle cx="135.574" cy="68.9215" r="4" fill="#0" id="circle40"/>
	<circle cx="139.902" cy="273.208" r="4" fill="#0" id="circle41"/>
	<circle cx="144.23" cy="68.9215" r="4" fill="#0" id="circle42"/>
	<circle cx="148.558" cy="273.208" r="4" fill="#0" id="circle43"/>
	<circle cx="152.887" cy="68.9215" r="4" fill="#0" id="circle44"/>
	<circle cx="157.215" cy="273.208" r="4" fill="#0" id="circle45"/>
	<circle cx="161.543" cy="68.9215" r="4" fill="#0" id="circle46"/>
	<circle cx="165.871" cy="273.208" r="4" fill="#0" id="circle47"/>
	<circle cx="169.333" cy="73.2496" r="4" fill="#0" id="circle48"/>
	<circle cx="174.527" cy="273.208" r="4" fill="#0" id="circle49"/>
	<circle cx="177.99" cy="73.2496" r="4" fill="#0" id="circle50"/>
	<circle cx="183.183" cy="273.208" r="4" fill="#0" id="circle51"/>
	<circle cx="186.646" cy="73.2496" r="4" fill="#0" id="circle52"/>
	<circle cx="191.839" cy="273.208" r="4" fill="#0" id="circle53"/>
	<circle cx="195.302" cy="73.2496" r="4" fill="#0" id="circle54"/>
	<circle cx="199.63" cy="268.88" r="4" fill="#0" id="circle55"/>
	<circle cx="203.958" cy="73.2496" r="4" fill="#0" id="circle56"/>
	<circle cx="208.286" cy="268.88" r="4" fill="#0" id="circle57"/>
	<circle cx="212.614" cy="75.8464" r="4" fill="#0" id="circle58"/>
	<circle cx="216.942" cy="268.88" r="4" fill="#0" id="circle59"/>
	<circle cx="221.271" cy="77.5777" r="4" fill="#0" id="circle60"/>
	<circle cx="225.599" cy="268.88" r="4" fill="#0" id="circle61"/>
	<circle cx="229.927" cy="80.1745" r="4" fill="#0" id="circle62"/>
	<circle cx="234.255" cy="268.88" r="4" fill="#0" id="circle63"/>
	<circle cx="238.583" cy="81.9058" r="4" fill="#0" id="circle64"/>
	<circle cx="242.045" cy="264.551" r="4" fill="#0" id="circle65"/>
	<circle cx="247.239" cy="81.9058" r="4" fill="#0" id="circle66"/>
	<circle cx="250.702" cy="264.551" r="4" fill="#0" id="circle67"/>
	<circle cx="255.03" cy="86.2339" r="4" fill="#0" id="circle68"/>
	<circle cx="258.492" cy="260.223" r="4" fill="#0" id="circle69"/>
	<circle cx="262.82" cy="90.562" r="4" fill="#0" id="circle70"/>
	<circle cx="266.283" cy="255.895" r="4" fill="#0" id="circle71"/>
	<circle cx="270.611" cy="94.8901" r="4" fill="#0" id="circle72"/>
	<circle cx="274.073" cy="251.567" r="4" fill="#0" id="circle73"/>
	<circle cx="278.401" cy="99.2182" r="4" fill="#0" id="circle74"/>
	<circle cx="281.864" cy="247.239" r="4" fill="#0" id="circle75"/>
	<circle cx="287.058" cy="99.2182" r="4" fill="#0" id="circle76"/>
	<circle cx="288.789" cy="241.18" r="4" fill="#0" id="circle77"/>
	<circle cx="295.714" cy="99.2182" r="4" fill="#0" id="circle78"/>
	<circle cx="297.445" cy="236.852" r="4" fill="#0" id="circle79"/>
	<circle cx="304.37" cy="99.2182" r="4" fill="#0" id="circle80"/>
	<circle cx="306.101" cy="234.255" r="4" fill="#0" id="circle81"/>
	<circle cx="313.026" cy="99.2182" r="4" fill="#0" id="circle82"/>
	<circle cx="314.757" cy="232.524" r="4" fill="#0" id="circle83"/>
	<circle cx="321.682" cy="99.2182" r="4" fill="#0" id="circle84"/>
	<circle cx="323.414" cy="229.927" r="4" fill="#0" id="circle85"/>
	<circle cx="330.339" cy="99.2182" r="4" fill="#0" id="circle86"/>
	<circle cx="331.204" cy="225.599" r="4" fill="#0" id="circle87"/>
	<circle cx="338.995" cy="99.2182" r="4" fill="#0" id="circle88"/>
	<circle cx="339.86" cy="225.599" r="4" fill="#0" id="circle89"/>
	<circle cx="347.651" cy="99.2182" r="4" fill="#0" id="circle90"/>
	<circle cx="348.517" cy="225.599" r="4" fill="#0" id="circle91"/>
	<circle cx="356.307" cy="99.2182" r="4" fill="#0" id="circle92"/>
	<circle cx="357.173" cy="225.599" r="4" fill="#0" id="circle93"/>
	<circle cx="364.963" cy="99.2182" r="4" fill="#0" id="circle94"/>
	<circle cx="365.829" cy="225.599" r="4" fill="#0" id="circle95"/>
	<circle cx="373.62" cy="99.2182" r="4" fill="#0" id="circle96"/>
	<circle cx="374.485" cy="225.599" r="4" fill="#0" id="circle97"/>
	<circle cx="382.276" cy="99.2182" r="4" fill="#0" id="circle98"/>
	<circle cx="383.141" cy="225.599" r="4" fill="#0" id="circle99"/>
	<circle cx="390.066" cy="103.546" r="4" fill="#0" id="circle100"/>
	<circle cx="391.798" cy="225.599" r="4" fill="#0" id="circle101"/>
	<circle cx="398.723" cy="103.546" r="4" fill="#0" id="circle102"/>
	<circle cx="400.454" cy="225.599" r="4" fill="#0" id="circle103"/>
	<circle cx="407.379" cy="103.546" r="4" fill="#0" id="circle104"/>
	<circle cx="409.11" cy="225.599" r="4" fill="#0" id="circle105"/>
	<circle cx="416.035" cy="103.546" r="4" fill="#0" id="circle106"/>
	<circle cx="417.766" cy="225.599" r="4" fill="#0" id="circle107"/>
	<circle cx="424.691" cy="103.546" r="4" fill="#0" id="circle108"/>
	<circle cx="426.422" cy="225.599" r="4" fill="#0" id="circle109"/>
	<circle cx="432.482" cy="107.874" r="4" fill="#0" id="circle110"/>
	<circle cx="435.079" cy="225.599" r="4" fill="#0" id="circle111"/>
	<circle cx="441.138" cy="107.874" r="4" fill="#0" id="circle112"/>
	<circle cx="443.735" cy="225.599" r="4" fill="#0" id="circle113"/>
	<circle cx="449.794" cy="107.874" r="4" fill="#0" id="circle114"/>
	<circle cx="452.391" cy="225.599" r="4" fill="#0" id="circle115"/>
	<circle cx="458.45" cy="107.874" r="4" fill="#0" id="circle116"/>
	<circle cx="461.047" cy="229.061" r="4" fill="#0" id="circle117"/>
	<circle cx="467.106" cy="107.874" r="4" fill="#0" id="circle118"/>
	<circle cx="469.703" cy="229.927" r="4" fill="#0" id="circle119"/>
	<circle cx="475.763" cy="107.874" r="4" fill="#0" id="circle120"/>
	<circle cx="478.36" cy="229.927" r="4" fill="#0" id="circle121"/>
	<circle cx="484.419" cy="107.874" r="4" fill="#0" id="circle122"/>
	<circle cx="487.016" cy="233.389" r="4" fill="#0" id="circle123"/>
	<circle cx="490.478" cy="242.045" r="4" fill="#0" id="circle124"/>
	<circle cx="493.075" cy="107.874" r="4" fill="#0" id="circle125"/>
	<circle cx="497.403" cy="247.239" r="4" fill="#0" id="circle126"/>
	<circle cx="500" cy="255.895" r="4" fill="#0" id="circle127"/>
	<circle cx="501.731" cy="107.874" r="4" fill="#0" id="circle128"/>
	<circle cx="504.328" cy="263.686" r="4" fill="#0" id="circle129"/>
	<circle cx="506.925" cy="100.949" r="4" fill="#0" id="circle130"/>
	<circle cx="510.387" cy="270.611" r="4" fill="#0" id="circle131"/>
	<circle cx="511.253" cy="92.2932" r="4" fill="#0" id="circle132"/>
	<circle cx="517.312" cy="276.67" r="4" fill="#0" id="circle133"/>
	<circle cx="518.178" cy="86.2339" r="4" fill="#0" id="circle134"/>
	<circle cx="524.237" cy="79.3089" r="4" fill="#0" id="circle135"/>
	<circle cx="525.103" cy="280.998" r="4" fill="#0" id="circle136"/>
	<circle cx="532.028" cy="286.192" r="4" fill="#0" id="circle137"/>
	<circle cx="532.894" cy="74.9808" r="4" fill="#0" id="circle138"/>
	<circle cx="539.818" cy="68.9215" r="4" fill="#0" id="circle139"/>
	<circle cx="539.818" cy="290.52" r="4" fill="#0" id="circle140"/>
	<circle cx="545.878" cy="61.9965" r="4" fill="#0" id="circle141"/>
	<circle cx="545.878" cy="297.445" r="4" fill="#0" id="circle142"/>
	<circle cx="554.534" cy="57.6684" r="4" fill="#0" id="circle143"/>
	<circle cx="554.534" cy="300.908" r="4" fill="#0" id="circle144"/>
	<circle cx="561.459" cy="51.6091" r="4" fill="#0" id="circle145"/>
	<circle cx="563.19" cy="303.504" r="4" fill="#0" id="circle146"/>
	<circle cx="569.25" cy="47.281" r="4" fill="#0" id="circle147"/>
	<circle cx="570.981" cy="307.832" r="4" fill="#0" id="circle148"/>
	<circle cx="577.04" cy="42.9529" r="4" fill="#0" id="circle149"/>
	<circle cx="578.771" cy="312.161" r="4" fill="#0" id="circle150"/>
	<circle cx="584.831" cy="38.6248" r="4" fill="#0" id="circle151"/>
	<circle cx="587.428" cy="312.161" r="4" fill="#0" id="circle152"/>
	<circle cx="592.621" cy="34.2967" r="4" fill="#0" id="circle153"/>
	<circle cx="595.218" cy="316.489" r="4" fill="#0" id="circle154"/>
	<circle cx="600.412" cy="29.9686" r="4" fill="#0" id="circle155"/>
	<circle cx="603.874" cy="316.489" r="4" fill="#0" id="circle156"/>
	<circle cx="608.202" cy="25.6405" r="4" fill="#0" id="circle157"/>
	<circle cx="611.665" cy="320.817" r="4" fill="#0" id="circle158"/>
	<circle cx="616.859" cy="25.6405" r="4" fill="#0" id="circle159"/>
	<circle cx="619.455" cy="325.145" r="4" fill="#0" id="circle160"/>
	<circle cx="624.649" cy="21.3124" r="4" fill="#0" id="circle161"/>
	<circle cx="628.112" cy="325.145" r="4" fill="#0" id="circle162"/>
	<circle cx="632.44" cy="16.9843" r="4" fill="#0" id="circle163"/>
	<circle cx="635.902" cy="329.473" r="4" fill="#0" id="circle164"/>
	<circle cx="640.23" cy="12.6562" r="4" fill="#0" id="circle165"/>
	<circle cx="644.558" cy="329.473" r="4" fill="#0" id="circle166"/>
	<circle cx="648.021" cy="8.3281" r="4" fill="#0" id="circle167"/>
	<circle cx="653.215" cy="329.473" r="4" fill="#0" id="circle168"/>
	<circle cx="656.677" cy="8.3281" r="4" fill="#0" id="circle169"/>
	<circle cx="661.871" cy="329.473" r="4" fill="#0" id="circle170"/>
	<circle cx="665.333" cy="8.3281" r="4" fill="#0" id="circle171"/>
	<circle cx="670.527" cy="329.473" r="4" fill="#0" id="circle172"/>
	<circle cx="673.99" cy="8.3281" r="4" fill="#0" id="circle173"/>
	<circle cx="678.318" cy="333.801" r="4" fill="#0" id="circle174"/>
	<circle cx="681.78" cy="4" r="4" fill="#0" id="circle175"/>
	<circle cx="686.974" cy="333.801" r="4" fill="#0" id="circle176"/>
	<circle cx="690.436" cy="4" r="4" fill="#0" id="circle177"/>
	<circle cx="695.63" cy="333.801" r="4" fill="#0" id="circle178"/>
	<circle cx="699.092" cy="4" r="4" fill="#0" id="circle179"/>
	<circle cx="704.286" cy="333.801" r="4" fill="#0" id="circle180"/>
	<circle cx="707.749" cy="4" r="4" fill="#0" id="circle181"/>
	<circle cx="712.942" cy="333.801" r="4" fill="#0" id="circle182"/>
	<circle cx="716.405" cy="4" r="4" fill="#0" id="circle183"/>
	<circle cx="721.599" cy="333.801" r="4" fill="#0" id="circle184"/>
	<circle cx="725.061" cy="4" r="4" fill="#0" id="circle185"/>
	<circle cx="730.255" cy="333.801" r="4" fill="#0" id="circle186"/>
	<circle cx="733.717" cy="4" r="4" fill="#0" id="circle187"/>
	<circle cx="738.911" cy="333.801" r="4" fill="#0" id="circle188"/>
	<circle cx="742.373" cy="4" r="4" fill="#0" id="circle189"/>
	<circle cx="747.567" cy="333.801" r="4" fill="#0" id="circle190"/>
	<circle cx="751.03" cy="4" r="4" fill="#0" id="circle191"/>
	<circle cx="756.223" cy="333.801" r="4" fill="#0" id="circle192"/>
	<circle cx="759.686" cy="4" r="4" fill="#0" id="circle193"/>
	<circle cx="764.88" cy="333.801" r="4" fill="#0" id="circle194"/>
	<circle cx="767.476" cy="8.3281" r="4" fill="#0" id="circle195"/>
	<circle cx="773.536" cy="333.801" r="4" fill="#0" id="circle196"/>
	<circle cx="776.133" cy="8.3281" r="4" fill="#0" id="circle197"/>
	<circle cx="782.192" cy="333.801" r="4" fill="#0" id="circle198"/>
	<circle cx="784.789" cy="8.3281" r="4" fill="#0" id="circle199"/>
	<circle cx="790.848" cy="333.801" r="4" fill="#0" id="circle200"/>
	<circle cx="793.445" cy="8.3281" r="4" fill="#0" id="circle201"/>
	<circle cx="799.504" cy="333.801" r="4" fill="#0" id="circle202"/>
	<circle cx="802.101" cy="8.3281" r="4" fill="#0" id="circle203"/>
	<circle cx="807.295" cy="329.473" r="4" fill="#0" id="circle204"/>
	<circle cx="809.892" cy="12.6562" r="4" fill="#0" id="circle205"/>
	<circle cx="815.086" cy="325.145" r="4" fill="#0" id="circle206"/>
	<circle cx="818.548" cy="12.6562" r="4" fill="#0" id="circle207"/>
	<circle cx="823.742" cy="325.145" r="4" fill="#0" id="circle208"/>
	<circle cx="827.204" cy="15.2531" r="4" fill="#0" id="circle209"/>
	<circle cx="831.532" cy="320.817" r="4" fill="#0" id="circle210"/>
	<circle cx="835.86" cy="16.9843" r="4" fill="#0" id="circle211"/>
	<circle cx="840.188" cy="320.817" r="4" fill="#0" id="circle212"/>
	<circle cx="844.517" cy="16.9843" r="4" fill="#0" id="circle213"/>
	<circle cx="847.979" cy="316.489" r="4" fill="#0" id="circle214"/>
	<circle cx="852.307" cy="21.3124" r="4" fill="#0" id="circle215"/>
	<circle cx="856.635" cy="316.489" r="4" fill="#0" id="circle216"/>
	<circle cx="860.963" cy="21.3124" r="4" fill="#0" id="circle217"/>
	<circle cx="865.291" cy="313.892" r="4" fill="#0" id="circle218"/>
	<circle cx="868.754" cy="25.6405" r="4" fill="#0" id="circle219"/>
	<circle cx="873.948" cy="309.564" r="4" fill="#0" id="circle220"/>
	<circle cx="876.545" cy="29.9686" r="4" fill="#0" id="circle221"/>
	<circle cx="882.604" cy="305.236" r="4" fill="#0" id="circle222"/>
	<circle cx="884.335" cy="34.2967" r="4" fill="#0" id="circle223"/>
	<circle cx="891.26" cy="300.908" r="4" fill="#0" id="circle224"/>
	<circle cx="892.126" cy="38.6248" r="4" fill="#0" id="circle225"/>
	<circle cx="899.051" cy="43.8185" r="4" fill="#0" id="circle226"/>
	<circle cx="899.916" cy="296.579" r="4" fill="#0" id="circle227"/>
	<circle cx="906.841" cy="48.1466" r="4" fill="#0" id="circle228"/>
	<circle cx="908.572" cy="292.251" r="4" fill="#0" id="circle229"/>
	<circle cx="915.497" cy="51.6091" r="4" fill="#0" id="circle230"/>
	<circle cx="915.497" cy="285.326" r="4" fill="#0" id="circle231"/>
	<circle cx="922.422" cy="277.536" r="4" fill="#0" id="circle232"/>
	<circle cx="923.288" cy="55.9372" r="4" fill="#0" id="circle233"/>
	<circle cx="929.347" cy="271.476" r="4" fill="#0" id="circle234"/>
	<circle cx="930.213" cy="61.9965" r="4" fill="#0" id="circle235"/>
	<circle cx="935.407" cy="68.9215" r="4" fill="#0" id="circle236"/>
	<circle cx="938.003" cy="267.148" r="4" fill="#0" id="circle237"/>
	<circle cx="942.332" cy="74.1152" r="4" fill="#0" id="circle238"/>
	<circle cx="944.063" cy="260.223" r="4" fill="#0" id="circle239"/>
	<circle cx="948.391" cy="81.0401" r="4" fill="#0" id="circle240"/>
	<circle cx="951.853" cy="255.895" r="4" fill="#0" id="circle241"/>
	<circle cx="955.316" cy="87.0995" r="4" fill="#0" id="circle242"/>
	<circle cx="958.778" cy="250.702" r="4" fill="#0" id="circle243"/>
	<circle cx="961.375" cy="94.0244" r="4" fill="#0" id="circle244"/>
	<circle cx="965.703" cy="242.911" r="4" fill="#0" id="circle245"/>
	<circle cx="968.3" cy="100.084" r="4" fill="#0" id="circle246"/>
	<circle cx="971.763" cy="108.74" r="4" fill="#0" id="circle247"/>
	<circle cx="972.628" cy="236.852" r="4" fill="#0" id="circle248"/>
	<circle cx="976.091" cy="116.531" r="4" fill="#0" id="circle249"/>
	<circle cx="978.688" cy="125.187" r="4" fill="#0" id="circle250"/>
	<circle cx="978.688" cy="225.599" r="4" fill="#0" id="circle251"/>
	<circle cx="983.016" cy="216.942" r="4" fill="#0" id="circle252"/>
	<circle cx="985.613" cy="130.38" r="4" fill="#0" id="circle253"/>
	<circle cx="987.344" cy="208.286" r="4" fill="#0" id="circle254"/>
	<circle cx="989.075" cy="139.037" r="4" fill="#0" id="circle255"/>
	<circle cx="991.672" cy="147.693" r="4" fill="#0" id="circle256"/>
	<circle cx="991.672" cy="156.349" r="4" fill="#0" id="circle257"/>
	<circle cx="991.672" cy="190.974" r="4" fill="#0" id="circle258"/>
	<circle cx="991.672" cy="199.63" r="4" fill="#0" id="circle259"/>
	<circle cx="996" cy="164.14" r="4" fill="#0" id="circle260"/>
	<circle cx="996" cy="172.796" r="4" fill="#0" id="circle261"/>
	<circle cx="996" cy="181.452" r="4" fill="#0" id="circle262"/>
	</g>
</svg>