<?xml version="1.0" encoding="UTF-8" standalone="no"?>
<!-- Created with CurveBenchmark -->
<svg
	xmlns:dc="http://purl.org/dc/elements/1.1/"
	xmlns:cc="http://creativecommons.org/ns#"
	xmlns:rdf="http://www.w3.org/1999/02/22-rdf-syntax-ns#"
	xmlns:svg="http://www.w3.org/2000/svg"
	xmlns="http://www.w3.org/2000/svg"
	xmlns:sodipodi="http://sodipodi.sourceforge.net/DTD/sodipodi-0.dtd"
	xmlns:inkscape="http://www.inkscape.org/namespaces/inkscape"
	width="1000"
	height="1000"
	id="svg2"
	version="1.1"
	sodipodi:docname="manifold/hnncrust-spoon-6.png.txt">
<defs
	id="defs4" />
<metadata
	id="metadata7">
	<rdf:RDF>
		<cc:Work
			rdf:about="">
			<dc:format>image/svg+xml</dc:format>
			<dc:type
				rdf:resource="http://purl.org/dc/dcmitype/StillImage" />
			<dc:title></dc:title>
		</cc:Work>
	</rdf:RDF>
</metadata>
<g
	inkscape:label="Layer 1"
	inkscape:groupmode="layer"
	id="layer1">
	<path style="fill:none;stroke:red;stroke-width:1px;stroke-linecap:butt;stroke-linejoin:miter;stroke-opacity:1" d="M 4,81.5275 4,90.3375 z" id="boundary" inkscape:connector-curvature="0" />
	<path style="fill:none;stroke:red;stroke-width:1px;stroke-linecap:butt;stroke-linejoin:miter;stroke-opacity:1" d="M 4,81.5275 8.40497,72.7176 z" id="boundary" inkscape:connector-curvature="0" />
	<path style="fill:none;stroke:red;stroke-width:1px;stroke-linecap:butt;stroke-linejoin:miter;stroke-opacity:1" d="M 4,90.3375 4,99.1474 z" id="boundary" inkscape:connector-curvature="0" />
	<path style="fill:none;stroke:red;stroke-width:1px;stroke-linecap:butt;stroke-linejoin:miter;stroke-opacity:1" d="M 4,99.1474 4,107.957 z" id="boundary" inkscape:connector-curvature="0" />
	<path style="fill:none;stroke:red;stroke-width:1px;stroke-linecap:butt;stroke-linejoin:miter;stroke-opacity:1" d="M 4,107.957 4,116.767 z" id="boundary" inkscape:connector-curvature="0" />
	<path style="fill:none;stroke:red;stroke-width:1px;stroke-linecap:butt;stroke-linejoin:miter;stroke-opacity:1" d="M 4,116.767 4,125.577 z" id="boundary" inkscape:connector-curvature="0" />
	<path style="fill:none;stroke:red;stroke-width:1px;stroke-linecap:butt;stroke-linejoin:miter;stroke-opacity:1" d="M 4,125.577 4,134.387 z" id="boundary" inkscape:connector-curvature="0" />
	<path style="fill:none;stroke:red;stroke-width:1px;stroke-linecap:butt;stroke-linejoin:miter;stroke-opacity:1" d="M 4,134.387 4,143.197 z" id="boundary" inkscape:connector-curvature="0" />
	<path style="fill:none;stroke:red;stroke-width:1px;stroke-linecap:butt;stroke-linejoin:miter;stroke-opacity:1" d="M 4,143.197 8.40497,151.126 z" id="boundary" inkscape:connector-curvature="0" />
	<path style="fill:none;stroke:red;stroke-width:1px;stroke-linecap:butt;stroke-linejoin:miter;stroke-opacity:1" d="M 8.40497,72.7176 12.8099,63.9076 z" id="boundary" inkscape:connector-curvature="0" />
	<path style="fill:none;stroke:red;stroke-width:1px;stroke-linecap:butt;stroke-linejoin:miter;stroke-opacity:1" d="M 8.40497,151.126 12.8099,159.055 z" id="boundary" inkscape:connector-curvature="0" />
	<path style="fill:none;stroke:red;stroke-width:1px;stroke-linecap:butt;stroke-linejoin:miter;stroke-opacity:1" d="M 12.8099,63.9076 17.2149,55.0977 z" id="boundary" inkscape:connector-curvature="0" />
	<path style="fill:none;stroke:red;stroke-width:1px;stroke-linecap:butt;stroke-linejoin:miter;stroke-opacity:1" d="M 12.8099,159.055 15.4529,167.865 z" id="boundary" inkscape:connector-curvature="0" />
	<path style="fill:none;stroke:red;stroke-width:1px;stroke-linecap:butt;stroke-linejoin:miter;stroke-opacity:1" d="M 15.4529,167.865 17.2149,176.675 z" id="boundary" inkscape:connector-curvature="0" />
	<path style="fill:none;stroke:red;stroke-width:1px;stroke-linecap:butt;stroke-linejoin:miter;stroke-opacity:1" d="M 17.2149,55.0977 24.2629,48.0497 z" id="boundary" inkscape:connector-curvature="0" />
	<path style="fill:none;stroke:red;stroke-width:1px;stroke-linecap:butt;stroke-linejoin:miter;stroke-opacity:1" d="M 17.2149,176.675 17.2149,185.485 z" id="boundary" inkscape:connector-curvature="0" />
	<path style="fill:none;stroke:red;stroke-width:1px;stroke-linecap:butt;stroke-linejoin:miter;stroke-opacity:1" d="M 17.2149,185.485 21.6199,193.414 z" id="boundary" inkscape:connector-curvature="0" />
	<path style="fill:none;stroke:red;stroke-width:1px;stroke-linecap:butt;stroke-linejoin:miter;stroke-opacity:1" d="M 21.6199,193.414 26.0249,201.343 z" id="boundary" inkscape:connector-curvature="0" />
	<path style="fill:none;stroke:red;stroke-width:1px;stroke-linecap:butt;stroke-linejoin:miter;stroke-opacity:1" d="M 24.2629,48.0497 31.3108,41.0018 z" id="boundary" inkscape:connector-curvature="0" />
	<path style="fill:none;stroke:red;stroke-width:1px;stroke-linecap:butt;stroke-linejoin:miter;stroke-opacity:1" d="M 26.0249,201.343 30.4298,209.272 z" id="boundary" inkscape:connector-curvature="0" />
	<path style="fill:none;stroke:red;stroke-width:1px;stroke-linecap:butt;stroke-linejoin:miter;stroke-opacity:1" d="M 30.4298,209.272 34.8348,217.201 z" id="boundary" inkscape:connector-curvature="0" />
	<path style="fill:none;stroke:red;stroke-width:1px;stroke-linecap:butt;stroke-linejoin:miter;stroke-opacity:1" d="M 31.3108,41.0018 38.3588,34.8348 z" id="boundary" inkscape:connector-curvature="0" />
	<path style="fill:none;stroke:red;stroke-width:1px;stroke-linecap:butt;stroke-linejoin:miter;stroke-opacity:1" d="M 34.8348,217.201 39.2398,225.13 z" id="boundary" inkscape:connector-curvature="0" />
	<path style="fill:none;stroke:red;stroke-width:1px;stroke-linecap:butt;stroke-linejoin:miter;stroke-opacity:1" d="M 38.3588,34.8348 44.5258,27.7869 z" id="boundary" inkscape:connector-curvature="0" />
	<path style="fill:none;stroke:red;stroke-width:1px;stroke-linecap:butt;stroke-linejoin:miter;stroke-opacity:1" d="M 39.2398,225.13 43.6448,233.059 z" id="boundary" inkscape:connector-curvature="0" />
	<path style="fill:none;stroke:red;stroke-width:1px;stroke-linecap:butt;stroke-linejoin:miter;stroke-opacity:1" d="M 43.6448,233.059 48.0497,240.988 z" id="boundary" inkscape:connector-curvature="0" />
	<path style="fill:none;stroke:red;stroke-width:1px;stroke-linecap:butt;stroke-linejoin:miter;stroke-opacity:1" d="M 44.5258,27.7869 53.3357,23.3819 z" id="boundary" inkscape:connector-curvature="0" />
	<path style="fill:none;stroke:red;stroke-width:1px;stroke-linecap:butt;stroke-linejoin:miter;stroke-opacity:1" d="M 48.0497,240.988 52.4547,248.917 z" id="boundary" inkscape:connector-curvature="0" />
	<path style="fill:none;stroke:red;stroke-width:1px;stroke-linecap:butt;stroke-linejoin:miter;stroke-opacity:1" d="M 52.4547,248.917 59.5027,255.083 z" id="boundary" inkscape:connector-curvature="0" />
	<path style="fill:none;stroke:red;stroke-width:1px;stroke-linecap:butt;stroke-linejoin:miter;stroke-opacity:1" d="M 53.3357,23.3819 60.3837,17.2149 z" id="boundary" inkscape:connector-curvature="0" />
	<path style="fill:none;stroke:red;stroke-width:1px;stroke-linecap:butt;stroke-linejoin:miter;stroke-opacity:1" d="M 59.5027,255.083 65.6696,262.131 z" id="boundary" inkscape:connector-curvature="0" />
	<path style="fill:none;stroke:red;stroke-width:1px;stroke-linecap:butt;stroke-linejoin:miter;stroke-opacity:1" d="M 60.3837,17.2149 68.3126,12.8099 z" id="boundary" inkscape:connector-curvature="0" />
	<path style="fill:none;stroke:red;stroke-width:1px;stroke-linecap:butt;stroke-linejoin:miter;stroke-opacity:1" d="M 65.6696,262.131 72.7176,268.298 z" id="boundary" inkscape:connector-curvature="0" />
	<path style="fill:none;stroke:red;stroke-width:1px;stroke-linecap:butt;stroke-linejoin:miter;stroke-opacity:1" d="M 68.3126,12.8099 76.2416,8.40497 z" id="boundary" inkscape:connector-curvature="0" />
	<path style="fill:none;stroke:red;stroke-width:1px;stroke-linecap:butt;stroke-linejoin:miter;stroke-opacity:1" d="M 72.7176,268.298 78.8845,275.346 z" id="boundary" inkscape:connector-curvature="0" />
	<path style="fill:none;stroke:red;stroke-width:1px;stroke-linecap:butt;stroke-linejoin:miter;stroke-opacity:1" d="M 76.2416,8.40497 85.0515,8.40497 z" id="boundary" inkscape:connector-curvature="0" />
	<path style="fill:none;stroke:red;stroke-width:1px;stroke-linecap:butt;stroke-linejoin:miter;stroke-opacity:1" d="M 78.8845,275.346 85.9325,281.513 z" id="boundary" inkscape:connector-curvature="0" />
	<path style="fill:none;stroke:red;stroke-width:1px;stroke-linecap:butt;stroke-linejoin:miter;stroke-opacity:1" d="M 85.0515,8.40497 92.9805,4 z" id="boundary" inkscape:connector-curvature="0" />
	<path style="fill:none;stroke:red;stroke-width:1px;stroke-linecap:butt;stroke-linejoin:miter;stroke-opacity:1" d="M 85.9325,281.513 92.0995,288.561 z" id="boundary" inkscape:connector-curvature="0" />
	<path style="fill:none;stroke:red;stroke-width:1px;stroke-linecap:butt;stroke-linejoin:miter;stroke-opacity:1" d="M 92.0995,288.561 99.1474,294.728 z" id="boundary" inkscape:connector-curvature="0" />
	<path style="fill:none;stroke:red;stroke-width:1px;stroke-linecap:butt;stroke-linejoin:miter;stroke-opacity:1" d="M 92.9805,4 101.79,4 z" id="boundary" inkscape:connector-curvature="0" />
	<path style="fill:none;stroke:red;stroke-width:1px;stroke-linecap:butt;stroke-linejoin:miter;stroke-opacity:1" d="M 99.1474,294.728 105.314,301.776 z" id="boundary" inkscape:connector-curvature="0" />
	<path style="fill:none;stroke:red;stroke-width:1px;stroke-linecap:butt;stroke-linejoin:miter;stroke-opacity:1" d="M 101.79,4 110.6,4 z" id="boundary" inkscape:connector-curvature="0" />
	<path style="fill:none;stroke:red;stroke-width:1px;stroke-linecap:butt;stroke-linejoin:miter;stroke-opacity:1" d="M 105.314,301.776 114.124,304.419 z" id="boundary" inkscape:connector-curvature="0" />
	<path style="fill:none;stroke:red;stroke-width:1px;stroke-linecap:butt;stroke-linejoin:miter;stroke-opacity:1" d="M 110.6,4 119.41,4 z" id="boundary" inkscape:connector-curvature="0" />
	<path style="fill:none;stroke:red;stroke-width:1px;stroke-linecap:butt;stroke-linejoin:miter;stroke-opacity:1" d="M 114.124,304.419 119.41,311.467 z" id="boundary" inkscape:connector-curvature="0" />
	<path style="fill:none;stroke:red;stroke-width:1px;stroke-linecap:butt;stroke-linejoin:miter;stroke-opacity:1" d="M 119.41,4 128.22,4 z" id="boundary" inkscape:connector-curvature="0" />
	<path style="fill:none;stroke:red;stroke-width:1px;stroke-linecap:butt;stroke-linejoin:miter;stroke-opacity:1" d="M 119.41,311.467 126.458,317.634 z" id="boundary" inkscape:connector-curvature="0" />
	<path style="fill:none;stroke:red;stroke-width:1px;stroke-linecap:butt;stroke-linejoin:miter;stroke-opacity:1" d="M 126.458,317.634 132.625,324.682 z" id="boundary" inkscape:connector-curvature="0" />
	<path style="fill:none;stroke:red;stroke-width:1px;stroke-linecap:butt;stroke-linejoin:miter;stroke-opacity:1" d="M 128.22,4 137.03,4 z" id="boundary" inkscape:connector-curvature="0" />
	<path style="fill:none;stroke:red;stroke-width:1px;stroke-linecap:butt;stroke-linejoin:miter;stroke-opacity:1" d="M 132.625,324.682 139.673,330.849 z" id="boundary" inkscape:connector-curvature="0" />
	<path style="fill:none;stroke:red;stroke-width:1px;stroke-linecap:butt;stroke-linejoin:miter;stroke-opacity:1" d="M 137.03,4 145.84,4 z" id="boundary" inkscape:connector-curvature="0" />
	<path style="fill:none;stroke:red;stroke-width:1px;stroke-linecap:butt;stroke-linejoin:miter;stroke-opacity:1" d="M 139.673,330.849 147.602,335.254 z" id="boundary" inkscape:connector-curvature="0" />
	<path style="fill:none;stroke:red;stroke-width:1px;stroke-linecap:butt;stroke-linejoin:miter;stroke-opacity:1" d="M 145.84,4 154.65,4 z" id="boundary" inkscape:connector-curvature="0" />
	<path style="fill:none;stroke:red;stroke-width:1px;stroke-linecap:butt;stroke-linejoin:miter;stroke-opacity:1" d="M 147.602,335.254 154.65,341.421 z" id="boundary" inkscape:connector-curvature="0" />
	<path style="fill:none;stroke:red;stroke-width:1px;stroke-linecap:butt;stroke-linejoin:miter;stroke-opacity:1" d="M 154.65,4 162.579,8.40497 z" id="boundary" inkscape:connector-curvature="0" />
	<path style="fill:none;stroke:red;stroke-width:1px;stroke-linecap:butt;stroke-linejoin:miter;stroke-opacity:1" d="M 154.65,341.421 162.579,345.826 z" id="boundary" inkscape:connector-curvature="0" />
	<path style="fill:none;stroke:red;stroke-width:1px;stroke-linecap:butt;stroke-linejoin:miter;stroke-opacity:1" d="M 162.579,8.40497 171.389,8.40497 z" id="boundary" inkscape:connector-curvature="0" />
	<path style="fill:none;stroke:red;stroke-width:1px;stroke-linecap:butt;stroke-linejoin:miter;stroke-opacity:1" d="M 162.579,345.826 169.627,351.993 z" id="boundary" inkscape:connector-curvature="0" />
	<path style="fill:none;stroke:red;stroke-width:1px;stroke-linecap:butt;stroke-linejoin:miter;stroke-opacity:1" d="M 169.627,351.993 176.675,357.279 z" id="boundary" inkscape:connector-curvature="0" />
	<path style="fill:none;stroke:red;stroke-width:1px;stroke-linecap:butt;stroke-linejoin:miter;stroke-opacity:1" d="M 171.389,8.40497 180.199,10.167 z" id="boundary" inkscape:connector-curvature="0" />
	<path style="fill:none;stroke:red;stroke-width:1px;stroke-linecap:butt;stroke-linejoin:miter;stroke-opacity:1" d="M 176.675,357.279 184.604,361.684 z" id="boundary" inkscape:connector-curvature="0" />
	<path style="fill:none;stroke:red;stroke-width:1px;stroke-linecap:butt;stroke-linejoin:miter;stroke-opacity:1" d="M 180.199,10.167 189.009,12.8099 z" id="boundary" inkscape:connector-curvature="0" />
	<path style="fill:none;stroke:red;stroke-width:1px;stroke-linecap:butt;stroke-linejoin:miter;stroke-opacity:1" d="M 184.604,361.684 192.533,366.089 z" id="boundary" inkscape:connector-curvature="0" />
	<path style="fill:none;stroke:red;stroke-width:1px;stroke-linecap:butt;stroke-linejoin:miter;stroke-opacity:1" d="M 189.009,12.8099 197.819,14.5719 z" id="boundary" inkscape:connector-curvature="0" />
	<path style="fill:none;stroke:red;stroke-width:1px;stroke-linecap:butt;stroke-linejoin:miter;stroke-opacity:1" d="M 192.533,366.089 200.462,370.494 z" id="boundary" inkscape:connector-curvature="0" />
	<path style="fill:none;stroke:red;stroke-width:1px;stroke-linecap:butt;stroke-linejoin:miter;stroke-opacity:1" d="M 197.819,14.5719 205.748,18.9769 z" id="boundary" inkscape:connector-curvature="0" />
	<path style="fill:none;stroke:red;stroke-width:1px;stroke-linecap:butt;stroke-linejoin:miter;stroke-opacity:1" d="M 200.462,370.494 209.272,374.018 z" id="boundary" inkscape:connector-curvature="0" />
	<path style="fill:none;stroke:red;stroke-width:1px;stroke-linecap:butt;stroke-linejoin:miter;stroke-opacity:1" d="M 205.748,18.9769 214.558,21.6199 z" id="boundary" inkscape:connector-curvature="0" />
	<path style="fill:none;stroke:red;stroke-width:1px;stroke-linecap:butt;stroke-linejoin:miter;stroke-opacity:1" d="M 209.272,374.018 217.201,378.423 z" id="boundary" inkscape:connector-curvature="0" />
	<path style="fill:none;stroke:red;stroke-width:1px;stroke-linecap:butt;stroke-linejoin:miter;stroke-opacity:1" d="M 214.558,21.6199 222.487,26.0249 z" id="boundary" inkscape:connector-curvature="0" />
	<path style="fill:none;stroke:red;stroke-width:1px;stroke-linecap:butt;stroke-linejoin:miter;stroke-opacity:1" d="M 217.201,378.423 226.011,381.947 z" id="boundary" inkscape:connector-curvature="0" />
	<path style="fill:none;stroke:red;stroke-width:1px;stroke-linecap:butt;stroke-linejoin:miter;stroke-opacity:1" d="M 222.487,26.0249 231.297,26.0249 z" id="boundary" inkscape:connector-curvature="0" />
	<path style="fill:none;stroke:red;stroke-width:1px;stroke-linecap:butt;stroke-linejoin:miter;stroke-opacity:1" d="M 226.011,381.947 233.94,386.352 z" id="boundary" inkscape:connector-curvature="0" />
	<path style="fill:none;stroke:red;stroke-width:1px;stroke-linecap:butt;stroke-linejoin:miter;stroke-opacity:1" d="M 231.297,26.0249 239.226,30.4298 z" id="boundary" inkscape:connector-curvature="0" />
	<path style="fill:none;stroke:red;stroke-width:1px;stroke-linecap:butt;stroke-linejoin:miter;stroke-opacity:1" d="M 233.94,386.352 242.75,388.114 z" id="boundary" inkscape:connector-curvature="0" />
	<path style="fill:none;stroke:red;stroke-width:1px;stroke-linecap:butt;stroke-linejoin:miter;stroke-opacity:1" d="M 239.226,30.4298 247.155,34.8348 z" id="boundary" inkscape:connector-curvature="0" />
	<path style="fill:none;stroke:red;stroke-width:1px;stroke-linecap:butt;stroke-linejoin:miter;stroke-opacity:1" d="M 242.75,388.114 251.56,388.114 z" id="boundary" inkscape:connector-curvature="0" />
	<path style="fill:none;stroke:red;stroke-width:1px;stroke-linecap:butt;stroke-linejoin:miter;stroke-opacity:1" d="M 247.155,34.8348 255.964,37.4778 z" id="boundary" inkscape:connector-curvature="0" />
	<path style="fill:none;stroke:red;stroke-width:1px;stroke-linecap:butt;stroke-linejoin:miter;stroke-opacity:1" d="M 251.56,388.114 259.488,392.519 z" id="boundary" inkscape:connector-curvature="0" />
	<path style="fill:none;stroke:red;stroke-width:1px;stroke-linecap:butt;stroke-linejoin:miter;stroke-opacity:1" d="M 255.964,37.4778 264.774,39.2398 z" id="boundary" inkscape:connector-curvature="0" />
	<path style="fill:none;stroke:red;stroke-width:1px;stroke-linecap:butt;stroke-linejoin:miter;stroke-opacity:1" d="M 259.488,392.519 268.298,392.519 z" id="boundary" inkscape:connector-curvature="0" />
	<path style="fill:none;stroke:red;stroke-width:1px;stroke-linecap:butt;stroke-linejoin:miter;stroke-opacity:1" d="M 264.774,39.2398 273.584,41.8828 z" id="boundary" inkscape:connector-curvature="0" />
	<path style="fill:none;stroke:red;stroke-width:1px;stroke-linecap:butt;stroke-linejoin:miter;stroke-opacity:1" d="M 268.298,392.519 277.108,392.519 z" id="boundary" inkscape:connector-curvature="0" />
	<path style="fill:none;stroke:red;stroke-width:1px;stroke-linecap:butt;stroke-linejoin:miter;stroke-opacity:1" d="M 273.584,41.8828 281.513,46.2877 z" id="boundary" inkscape:connector-curvature="0" />
	<path style="fill:none;stroke:red;stroke-width:1px;stroke-linecap:butt;stroke-linejoin:miter;stroke-opacity:1" d="M 277.108,392.519 285.918,392.519 z" id="boundary" inkscape:connector-curvature="0" />
	<path style="fill:none;stroke:red;stroke-width:1px;stroke-linecap:butt;stroke-linejoin:miter;stroke-opacity:1" d="M 281.513,46.2877 290.323,49.8117 z" id="boundary" inkscape:connector-curvature="0" />
	<path style="fill:none;stroke:red;stroke-width:1px;stroke-linecap:butt;stroke-linejoin:miter;stroke-opacity:1" d="M 285.918,392.519 294.728,392.519 z" id="boundary" inkscape:connector-curvature="0" />
	<path style="fill:none;stroke:red;stroke-width:1px;stroke-linecap:butt;stroke-linejoin:miter;stroke-opacity:1" d="M 290.323,49.8117 298.252,54.2167 z" id="boundary" inkscape:connector-curvature="0" />
	<path style="fill:none;stroke:red;stroke-width:1px;stroke-linecap:butt;stroke-linejoin:miter;stroke-opacity:1" d="M 294.728,392.519 303.538,392.519 z" id="boundary" inkscape:connector-curvature="0" />
	<path style="fill:none;stroke:red;stroke-width:1px;stroke-linecap:butt;stroke-linejoin:miter;stroke-opacity:1" d="M 298.252,54.2167 307.062,57.7407 z" id="boundary" inkscape:connector-curvature="0" />
	<path style="fill:none;stroke:red;stroke-width:1px;stroke-linecap:butt;stroke-linejoin:miter;stroke-opacity:1" d="M 303.538,392.519 312.348,392.519 z" id="boundary" inkscape:connector-curvature="0" />
	<path style="fill:none;stroke:red;stroke-width:1px;stroke-linecap:butt;stroke-linejoin:miter;stroke-opacity:1" d="M 307.062,57.7407 314.991,62.1456 z" id="boundary" inkscape:connector-curvature="0" />
	<path style="fill:none;stroke:red;stroke-width:1px;stroke-linecap:butt;stroke-linejoin:miter;stroke-opacity:1" d="M 312.348,392.519 321.158,392.519 z" id="boundary" inkscape:connector-curvature="0" />
	<path style="fill:none;stroke:red;stroke-width:1px;stroke-linecap:butt;stroke-linejoin:miter;stroke-opacity:1" d="M 314.991,62.1456 323.801,65.6696 z" id="boundary" inkscape:connector-curvature="0" />
	<path style="fill:none;stroke:red;stroke-width:1px;stroke-linecap:butt;stroke-linejoin:miter;stroke-opacity:1" d="M 321.158,392.519 329.087,388.114 z" id="boundary" inkscape:connector-curvature="0" />
	<path style="fill:none;stroke:red;stroke-width:1px;stroke-linecap:butt;stroke-linejoin:miter;stroke-opacity:1" d="M 323.801,65.6696 331.73,70.0746 z" id="boundary" inkscape:connector-curvature="0" />
	<path style="fill:none;stroke:red;stroke-width:1px;stroke-linecap:butt;stroke-linejoin:miter;stroke-opacity:1" d="M 329.087,388.114 337.897,388.114 z" id="boundary" inkscape:connector-curvature="0" />
	<path style="fill:none;stroke:red;stroke-width:1px;stroke-linecap:butt;stroke-linejoin:miter;stroke-opacity:1" d="M 331.73,70.0746 339.659,74.4796 z" id="boundary" inkscape:connector-curvature="0" />
	<path style="fill:none;stroke:red;stroke-width:1px;stroke-linecap:butt;stroke-linejoin:miter;stroke-opacity:1" d="M 337.897,388.114 346.707,388.114 z" id="boundary" inkscape:connector-curvature="0" />
	<path style="fill:none;stroke:red;stroke-width:1px;stroke-linecap:butt;stroke-linejoin:miter;stroke-opacity:1" d="M 339.659,74.4796 346.707,79.7655 z" id="boundary" inkscape:connector-curvature="0" />
	<path style="fill:none;stroke:red;stroke-width:1px;stroke-linecap:butt;stroke-linejoin:miter;stroke-opacity:1" d="M 346.707,79.7655 352.874,86.8135 z" id="boundary" inkscape:connector-curvature="0" />
	<path style="fill:none;stroke:red;stroke-width:1px;stroke-linecap:butt;stroke-linejoin:miter;stroke-opacity:1" d="M 346.707,388.114 355.517,388.114 z" id="boundary" inkscape:connector-curvature="0" />
	<path style="fill:none;stroke:red;stroke-width:1px;stroke-linecap:butt;stroke-linejoin:miter;stroke-opacity:1" d="M 352.874,86.8135 361.684,90.3375 z" id="boundary" inkscape:connector-curvature="0" />
	<path style="fill:none;stroke:red;stroke-width:1px;stroke-linecap:butt;stroke-linejoin:miter;stroke-opacity:1" d="M 355.517,388.114 364.327,388.114 z" id="boundary" inkscape:connector-curvature="0" />
	<path style="fill:none;stroke:red;stroke-width:1px;stroke-linecap:butt;stroke-linejoin:miter;stroke-opacity:1" d="M 361.684,90.3375 367.851,97.3854 z" id="boundary" inkscape:connector-curvature="0" />
	<path style="fill:none;stroke:red;stroke-width:1px;stroke-linecap:butt;stroke-linejoin:miter;stroke-opacity:1" d="M 364.327,388.114 372.256,383.709 z" id="boundary" inkscape:connector-curvature="0" />
	<path style="fill:none;stroke:red;stroke-width:1px;stroke-linecap:butt;stroke-linejoin:miter;stroke-opacity:1" d="M 367.851,97.3854 374.899,103.552 z" id="boundary" inkscape:connector-curvature="0" />
	<path style="fill:none;stroke:red;stroke-width:1px;stroke-linecap:butt;stroke-linejoin:miter;stroke-opacity:1" d="M 372.256,383.709 380.185,379.304 z" id="boundary" inkscape:connector-curvature="0" />
	<path style="fill:none;stroke:red;stroke-width:1px;stroke-linecap:butt;stroke-linejoin:miter;stroke-opacity:1" d="M 374.899,103.552 381.066,110.6 z" id="boundary" inkscape:connector-curvature="0" />
	<path style="fill:none;stroke:red;stroke-width:1px;stroke-linecap:butt;stroke-linejoin:miter;stroke-opacity:1" d="M 380.185,379.304 388.114,374.899 z" id="boundary" inkscape:connector-curvature="0" />
	<path style="fill:none;stroke:red;stroke-width:1px;stroke-linecap:butt;stroke-linejoin:miter;stroke-opacity:1" d="M 381.066,110.6 388.114,116.767 z" id="boundary" inkscape:connector-curvature="0" />
	<path style="fill:none;stroke:red;stroke-width:1px;stroke-linecap:butt;stroke-linejoin:miter;stroke-opacity:1" d="M 388.114,116.767 394.281,123.815 z" id="boundary" inkscape:connector-curvature="0" />
	<path style="fill:none;stroke:red;stroke-width:1px;stroke-linecap:butt;stroke-linejoin:miter;stroke-opacity:1" d="M 388.114,374.899 396.043,379.304 z" id="boundary" inkscape:connector-curvature="0" />
	<path style="fill:none;stroke:red;stroke-width:1px;stroke-linecap:butt;stroke-linejoin:miter;stroke-opacity:1" d="M 394.281,123.815 401.329,129.982 z" id="boundary" inkscape:connector-curvature="0" />
	<path style="fill:none;stroke:red;stroke-width:1px;stroke-linecap:butt;stroke-linejoin:miter;stroke-opacity:1" d="M 396.043,379.304 403.972,383.709 z" id="boundary" inkscape:connector-curvature="0" />
	<path style="fill:none;stroke:red;stroke-width:1px;stroke-linecap:butt;stroke-linejoin:miter;stroke-opacity:1" d="M 401.329,129.982 404.853,138.792 z" id="boundary" inkscape:connector-curvature="0" />
	<path style="fill:none;stroke:red;stroke-width:1px;stroke-linecap:butt;stroke-linejoin:miter;stroke-opacity:1" d="M 403.972,383.709 409.258,390.757 z" id="boundary" inkscape:connector-curvature="0" />
	<path style="fill:none;stroke:red;stroke-width:1px;stroke-linecap:butt;stroke-linejoin:miter;stroke-opacity:1" d="M 404.853,138.792 411.901,144.959 z" id="boundary" inkscape:connector-curvature="0" />
	<path style="fill:none;stroke:red;stroke-width:1px;stroke-linecap:butt;stroke-linejoin:miter;stroke-opacity:1" d="M 409.258,390.757 413.663,398.686 z" id="boundary" inkscape:connector-curvature="0" />
	<path style="fill:none;stroke:red;stroke-width:1px;stroke-linecap:butt;stroke-linejoin:miter;stroke-opacity:1" d="M 411.901,144.959 414.544,153.769 z" id="boundary" inkscape:connector-curvature="0" />
	<path style="fill:none;stroke:red;stroke-width:1px;stroke-linecap:butt;stroke-linejoin:miter;stroke-opacity:1" d="M 413.663,398.686 418.067,406.615 z" id="boundary" inkscape:connector-curvature="0" />
	<path style="fill:none;stroke:red;stroke-width:1px;stroke-linecap:butt;stroke-linejoin:miter;stroke-opacity:1" d="M 414.544,153.769 421.591,159.055 z" id="boundary" inkscape:connector-curvature="0" />
	<path style="fill:none;stroke:red;stroke-width:1px;stroke-linecap:butt;stroke-linejoin:miter;stroke-opacity:1" d="M 418.067,406.615 424.234,413.663 z" id="boundary" inkscape:connector-curvature="0" />
	<path style="fill:none;stroke:red;stroke-width:1px;stroke-linecap:butt;stroke-linejoin:miter;stroke-opacity:1" d="M 421.591,159.055 427.758,166.103 z" id="boundary" inkscape:connector-curvature="0" />
	<path style="fill:none;stroke:red;stroke-width:1px;stroke-linecap:butt;stroke-linejoin:miter;stroke-opacity:1" d="M 424.234,413.663 431.282,418.948 z" id="boundary" inkscape:connector-curvature="0" />
	<path style="fill:none;stroke:red;stroke-width:1px;stroke-linecap:butt;stroke-linejoin:miter;stroke-opacity:1" d="M 427.758,166.103 432.163,174.032 z" id="boundary" inkscape:connector-curvature="0" />
	<path style="fill:none;stroke:red;stroke-width:1px;stroke-linecap:butt;stroke-linejoin:miter;stroke-opacity:1" d="M 431.282,418.948 439.211,423.353 z" id="boundary" inkscape:connector-curvature="0" />
	<path style="fill:none;stroke:red;stroke-width:1px;stroke-linecap:butt;stroke-linejoin:miter;stroke-opacity:1" d="M 432.163,174.032 435.687,182.842 z" id="boundary" inkscape:connector-curvature="0" />
	<path style="fill:none;stroke:red;stroke-width:1px;stroke-linecap:butt;stroke-linejoin:miter;stroke-opacity:1" d="M 435.687,182.842 440.092,190.771 z" id="boundary" inkscape:connector-curvature="0" />
	<path style="fill:none;stroke:red;stroke-width:1px;stroke-linecap:butt;stroke-linejoin:miter;stroke-opacity:1" d="M 439.211,423.353 445.378,430.401 z" id="boundary" inkscape:connector-curvature="0" />
	<path style="fill:none;stroke:red;stroke-width:1px;stroke-linecap:butt;stroke-linejoin:miter;stroke-opacity:1" d="M 440.092,190.771 440.973,199.581 z" id="boundary" inkscape:connector-curvature="0" />
	<path style="fill:none;stroke:red;stroke-width:1px;stroke-linecap:butt;stroke-linejoin:miter;stroke-opacity:1" d="M 440.973,199.581 443.616,208.391 z" id="boundary" inkscape:connector-curvature="0" />
	<path style="fill:none;stroke:red;stroke-width:1px;stroke-linecap:butt;stroke-linejoin:miter;stroke-opacity:1" d="M 440.973,300.014 445.378,291.204 z" id="boundary" inkscape:connector-curvature="0" />
	<path style="fill:none;stroke:red;stroke-width:1px;stroke-linecap:butt;stroke-linejoin:miter;stroke-opacity:1" d="M 440.973,300.014 445.378,307.943 z" id="boundary" inkscape:connector-curvature="0" />
	<path style="fill:none;stroke:red;stroke-width:1px;stroke-linecap:butt;stroke-linejoin:miter;stroke-opacity:1" d="M 443.616,208.391 445.378,217.201 z" id="boundary" inkscape:connector-curvature="0" />
	<path style="fill:none;stroke:red;stroke-width:1px;stroke-linecap:butt;stroke-linejoin:miter;stroke-opacity:1" d="M 445.378,217.201 445.378,226.011 z" id="boundary" inkscape:connector-curvature="0" />
	<path style="fill:none;stroke:red;stroke-width:1px;stroke-linecap:butt;stroke-linejoin:miter;stroke-opacity:1" d="M 445.378,226.011 449.783,233.94 z" id="boundary" inkscape:connector-curvature="0" />
	<path style="fill:none;stroke:red;stroke-width:1px;stroke-linecap:butt;stroke-linejoin:miter;stroke-opacity:1" d="M 445.378,282.394 445.378,291.204 z" id="boundary" inkscape:connector-curvature="0" />
	<path style="fill:none;stroke:red;stroke-width:1px;stroke-linecap:butt;stroke-linejoin:miter;stroke-opacity:1" d="M 445.378,282.394 449.783,269.179 z" id="boundary" inkscape:connector-curvature="0" />
	<path style="fill:none;stroke:red;stroke-width:1px;stroke-linecap:butt;stroke-linejoin:miter;stroke-opacity:1" d="M 445.378,307.943 452.426,313.229 z" id="boundary" inkscape:connector-curvature="0" />
	<path style="fill:none;stroke:red;stroke-width:1px;stroke-linecap:butt;stroke-linejoin:miter;stroke-opacity:1" d="M 445.378,430.401 452.426,436.568 z" id="boundary" inkscape:connector-curvature="0" />
	<path style="fill:none;stroke:red;stroke-width:1px;stroke-linecap:butt;stroke-linejoin:miter;stroke-opacity:1" d="M 449.783,233.94 449.783,242.75 z" id="boundary" inkscape:connector-curvature="0" />
	<path style="fill:none;stroke:red;stroke-width:1px;stroke-linecap:butt;stroke-linejoin:miter;stroke-opacity:1" d="M 449.783,242.75 449.783,251.56 z" id="boundary" inkscape:connector-curvature="0" />
	<path style="fill:none;stroke:red;stroke-width:1px;stroke-linecap:butt;stroke-linejoin:miter;stroke-opacity:1" d="M 449.783,251.56 449.783,260.369 z" id="boundary" inkscape:connector-curvature="0" />
	<path style="fill:none;stroke:red;stroke-width:1px;stroke-linecap:butt;stroke-linejoin:miter;stroke-opacity:1" d="M 449.783,260.369 449.783,269.179 z" id="boundary" inkscape:connector-curvature="0" />
	<path style="fill:none;stroke:red;stroke-width:1px;stroke-linecap:butt;stroke-linejoin:miter;stroke-opacity:1" d="M 452.426,313.229 458.593,320.277 z" id="boundary" inkscape:connector-curvature="0" />
	<path style="fill:none;stroke:red;stroke-width:1px;stroke-linecap:butt;stroke-linejoin:miter;stroke-opacity:1" d="M 452.426,436.568 458.593,443.616 z" id="boundary" inkscape:connector-curvature="0" />
	<path style="fill:none;stroke:red;stroke-width:1px;stroke-linecap:butt;stroke-linejoin:miter;stroke-opacity:1" d="M 458.593,320.277 465.641,326.444 z" id="boundary" inkscape:connector-curvature="0" />
	<path style="fill:none;stroke:red;stroke-width:1px;stroke-linecap:butt;stroke-linejoin:miter;stroke-opacity:1" d="M 458.593,443.616 465.641,449.783 z" id="boundary" inkscape:connector-curvature="0" />
	<path style="fill:none;stroke:red;stroke-width:1px;stroke-linecap:butt;stroke-linejoin:miter;stroke-opacity:1" d="M 465.641,326.444 471.808,333.492 z" id="boundary" inkscape:connector-curvature="0" />
	<path style="fill:none;stroke:red;stroke-width:1px;stroke-linecap:butt;stroke-linejoin:miter;stroke-opacity:1" d="M 465.641,449.783 471.808,456.831 z" id="boundary" inkscape:connector-curvature="0" />
	<path style="fill:none;stroke:red;stroke-width:1px;stroke-linecap:butt;stroke-linejoin:miter;stroke-opacity:1" d="M 471.808,333.492 478.856,339.659 z" id="boundary" inkscape:connector-curvature="0" />
	<path style="fill:none;stroke:red;stroke-width:1px;stroke-linecap:butt;stroke-linejoin:miter;stroke-opacity:1" d="M 471.808,456.831 478.856,462.998 z" id="boundary" inkscape:connector-curvature="0" />
	<path style="fill:none;stroke:red;stroke-width:1px;stroke-linecap:butt;stroke-linejoin:miter;stroke-opacity:1" d="M 478.856,339.659 486.785,344.064 z" id="boundary" inkscape:connector-curvature="0" />
	<path style="fill:none;stroke:red;stroke-width:1px;stroke-linecap:butt;stroke-linejoin:miter;stroke-opacity:1" d="M 478.856,462.998 485.023,470.046 z" id="boundary" inkscape:connector-curvature="0" />
	<path style="fill:none;stroke:red;stroke-width:1px;stroke-linecap:butt;stroke-linejoin:miter;stroke-opacity:1" d="M 485.023,470.046 492.071,476.213 z" id="boundary" inkscape:connector-curvature="0" />
	<path style="fill:none;stroke:red;stroke-width:1px;stroke-linecap:butt;stroke-linejoin:miter;stroke-opacity:1" d="M 486.785,344.064 495.595,347.588 z" id="boundary" inkscape:connector-curvature="0" />
	<path style="fill:none;stroke:red;stroke-width:1px;stroke-linecap:butt;stroke-linejoin:miter;stroke-opacity:1" d="M 492.071,476.213 500,480.618 z" id="boundary" inkscape:connector-curvature="0" />
	<path style="fill:none;stroke:red;stroke-width:1px;stroke-linecap:butt;stroke-linejoin:miter;stroke-opacity:1" d="M 495.595,347.588 503.524,351.993 z" id="boundary" inkscape:connector-curvature="0" />
	<path style="fill:none;stroke:red;stroke-width:1px;stroke-linecap:butt;stroke-linejoin:miter;stroke-opacity:1" d="M 500,480.618 507.048,486.785 z" id="boundary" inkscape:connector-curvature="0" />
	<path style="fill:none;stroke:red;stroke-width:1px;stroke-linecap:butt;stroke-linejoin:miter;stroke-opacity:1" d="M 503.524,351.993 510.572,358.16 z" id="boundary" inkscape:connector-curvature="0" />
	<path style="fill:none;stroke:red;stroke-width:1px;stroke-linecap:butt;stroke-linejoin:miter;stroke-opacity:1" d="M 507.048,486.785 513.215,493.833 z" id="boundary" inkscape:connector-curvature="0" />
	<path style="fill:none;stroke:red;stroke-width:1px;stroke-linecap:butt;stroke-linejoin:miter;stroke-opacity:1" d="M 510.572,358.16 515.858,365.208 z" id="boundary" inkscape:connector-curvature="0" />
	<path style="fill:none;stroke:red;stroke-width:1px;stroke-linecap:butt;stroke-linejoin:miter;stroke-opacity:1" d="M 513.215,493.833 520.263,500 z" id="boundary" inkscape:connector-curvature="0" />
	<path style="fill:none;stroke:red;stroke-width:1px;stroke-linecap:butt;stroke-linejoin:miter;stroke-opacity:1" d="M 515.858,365.208 522.906,370.494 z" id="boundary" inkscape:connector-curvature="0" />
	<path style="fill:none;stroke:red;stroke-width:1px;stroke-linecap:butt;stroke-linejoin:miter;stroke-opacity:1" d="M 520.263,500 526.43,507.048 z" id="boundary" inkscape:connector-curvature="0" />
	<path style="fill:none;stroke:red;stroke-width:1px;stroke-linecap:butt;stroke-linejoin:miter;stroke-opacity:1" d="M 522.906,370.494 529.073,377.542 z" id="boundary" inkscape:connector-curvature="0" />
	<path style="fill:none;stroke:red;stroke-width:1px;stroke-linecap:butt;stroke-linejoin:miter;stroke-opacity:1" d="M 526.43,507.048 533.478,513.215 z" id="boundary" inkscape:connector-curvature="0" />
	<path style="fill:none;stroke:red;stroke-width:1px;stroke-linecap:butt;stroke-linejoin:miter;stroke-opacity:1" d="M 529.073,377.542 537.883,381.066 z" id="boundary" inkscape:connector-curvature="0" />
	<path style="fill:none;stroke:red;stroke-width:1px;stroke-linecap:butt;stroke-linejoin:miter;stroke-opacity:1" d="M 533.478,513.215 541.407,517.62 z" id="boundary" inkscape:connector-curvature="0" />
	<path style="fill:none;stroke:red;stroke-width:1px;stroke-linecap:butt;stroke-linejoin:miter;stroke-opacity:1" d="M 537.883,381.066 545.812,385.471 z" id="boundary" inkscape:connector-curvature="0" />
	<path style="fill:none;stroke:red;stroke-width:1px;stroke-linecap:butt;stroke-linejoin:miter;stroke-opacity:1" d="M 541.407,517.62 548.455,523.787 z" id="boundary" inkscape:connector-curvature="0" />
	<path style="fill:none;stroke:red;stroke-width:1px;stroke-linecap:butt;stroke-linejoin:miter;stroke-opacity:1" d="M 545.812,385.471 554.622,388.995 z" id="boundary" inkscape:connector-curvature="0" />
	<path style="fill:none;stroke:red;stroke-width:1px;stroke-linecap:butt;stroke-linejoin:miter;stroke-opacity:1" d="M 548.455,523.787 555.503,529.073 z" id="boundary" inkscape:connector-curvature="0" />
	<path style="fill:none;stroke:red;stroke-width:1px;stroke-linecap:butt;stroke-linejoin:miter;stroke-opacity:1" d="M 554.622,388.995 562.551,393.4 z" id="boundary" inkscape:connector-curvature="0" />
	<path style="fill:none;stroke:red;stroke-width:1px;stroke-linecap:butt;stroke-linejoin:miter;stroke-opacity:1" d="M 555.503,529.073 563.432,533.478 z" id="boundary" inkscape:connector-curvature="0" />
	<path style="fill:none;stroke:red;stroke-width:1px;stroke-linecap:butt;stroke-linejoin:miter;stroke-opacity:1" d="M 562.551,393.4 571.361,396.924 z" id="boundary" inkscape:connector-curvature="0" />
	<path style="fill:none;stroke:red;stroke-width:1px;stroke-linecap:butt;stroke-linejoin:miter;stroke-opacity:1" d="M 563.432,533.478 571.361,537.883 z" id="boundary" inkscape:connector-curvature="0" />
	<path style="fill:none;stroke:red;stroke-width:1px;stroke-linecap:butt;stroke-linejoin:miter;stroke-opacity:1" d="M 571.361,396.924 579.29,401.329 z" id="boundary" inkscape:connector-curvature="0" />
	<path style="fill:none;stroke:red;stroke-width:1px;stroke-linecap:butt;stroke-linejoin:miter;stroke-opacity:1" d="M 571.361,537.883 579.29,542.288 z" id="boundary" inkscape:connector-curvature="0" />
	<path style="fill:none;stroke:red;stroke-width:1px;stroke-linecap:butt;stroke-linejoin:miter;stroke-opacity:1" d="M 579.29,401.329 588.099,404.853 z" id="boundary" inkscape:connector-curvature="0" />
	<path style="fill:none;stroke:red;stroke-width:1px;stroke-linecap:butt;stroke-linejoin:miter;stroke-opacity:1" d="M 579.29,542.288 586.337,548.455 z" id="boundary" inkscape:connector-curvature="0" />
	<path style="fill:none;stroke:red;stroke-width:1px;stroke-linecap:butt;stroke-linejoin:miter;stroke-opacity:1" d="M 586.337,548.455 594.266,552.86 z" id="boundary" inkscape:connector-curvature="0" />
	<path style="fill:none;stroke:red;stroke-width:1px;stroke-linecap:butt;stroke-linejoin:miter;stroke-opacity:1" d="M 588.099,404.853 594.266,411.901 z" id="boundary" inkscape:connector-curvature="0" />
	<path style="fill:none;stroke:red;stroke-width:1px;stroke-linecap:butt;stroke-linejoin:miter;stroke-opacity:1" d="M 594.266,411.901 601.314,418.067 z" id="boundary" inkscape:connector-curvature="0" />
	<path style="fill:none;stroke:red;stroke-width:1px;stroke-linecap:butt;stroke-linejoin:miter;stroke-opacity:1" d="M 594.266,552.86 601.314,559.027 z" id="boundary" inkscape:connector-curvature="0" />
	<path style="fill:none;stroke:red;stroke-width:1px;stroke-linecap:butt;stroke-linejoin:miter;stroke-opacity:1" d="M 601.314,418.067 609.243,422.472 z" id="boundary" inkscape:connector-curvature="0" />
	<path style="fill:none;stroke:red;stroke-width:1px;stroke-linecap:butt;stroke-linejoin:miter;stroke-opacity:1" d="M 601.314,559.027 608.362,564.313 z" id="boundary" inkscape:connector-curvature="0" />
	<path style="fill:none;stroke:red;stroke-width:1px;stroke-linecap:butt;stroke-linejoin:miter;stroke-opacity:1" d="M 608.362,564.313 616.291,568.718 z" id="boundary" inkscape:connector-curvature="0" />
	<path style="fill:none;stroke:red;stroke-width:1px;stroke-linecap:butt;stroke-linejoin:miter;stroke-opacity:1" d="M 609.243,422.472 616.291,428.639 z" id="boundary" inkscape:connector-curvature="0" />
	<path style="fill:none;stroke:red;stroke-width:1px;stroke-linecap:butt;stroke-linejoin:miter;stroke-opacity:1" d="M 616.291,428.639 624.22,433.044 z" id="boundary" inkscape:connector-curvature="0" />
	<path style="fill:none;stroke:red;stroke-width:1px;stroke-linecap:butt;stroke-linejoin:miter;stroke-opacity:1" d="M 616.291,568.718 621.577,575.766 z" id="boundary" inkscape:connector-curvature="0" />
	<path style="fill:none;stroke:red;stroke-width:1px;stroke-linecap:butt;stroke-linejoin:miter;stroke-opacity:1" d="M 621.577,575.766 628.625,581.933 z" id="boundary" inkscape:connector-curvature="0" />
	<path style="fill:none;stroke:red;stroke-width:1px;stroke-linecap:butt;stroke-linejoin:miter;stroke-opacity:1" d="M 624.22,433.044 630.387,440.092 z" id="boundary" inkscape:connector-curvature="0" />
	<path style="fill:none;stroke:red;stroke-width:1px;stroke-linecap:butt;stroke-linejoin:miter;stroke-opacity:1" d="M 628.625,581.933 634.792,588.98 z" id="boundary" inkscape:connector-curvature="0" />
	<path style="fill:none;stroke:red;stroke-width:1px;stroke-linecap:butt;stroke-linejoin:miter;stroke-opacity:1" d="M 630.387,440.092 638.316,444.497 z" id="boundary" inkscape:connector-curvature="0" />
	<path style="fill:none;stroke:red;stroke-width:1px;stroke-linecap:butt;stroke-linejoin:miter;stroke-opacity:1" d="M 634.792,588.98 643.602,592.504 z" id="boundary" inkscape:connector-curvature="0" />
	<path style="fill:none;stroke:red;stroke-width:1px;stroke-linecap:butt;stroke-linejoin:miter;stroke-opacity:1" d="M 638.316,444.497 645.364,449.783 z" id="boundary" inkscape:connector-curvature="0" />
	<path style="fill:none;stroke:red;stroke-width:1px;stroke-linecap:butt;stroke-linejoin:miter;stroke-opacity:1" d="M 643.602,592.504 649.769,599.552 z" id="boundary" inkscape:connector-curvature="0" />
	<path style="fill:none;stroke:red;stroke-width:1px;stroke-linecap:butt;stroke-linejoin:miter;stroke-opacity:1" d="M 645.364,449.783 652.412,455.95 z" id="boundary" inkscape:connector-curvature="0" />
	<path style="fill:none;stroke:red;stroke-width:1px;stroke-linecap:butt;stroke-linejoin:miter;stroke-opacity:1" d="M 649.769,599.552 656.817,605.719 z" id="boundary" inkscape:connector-curvature="0" />
	<path style="fill:none;stroke:red;stroke-width:1px;stroke-linecap:butt;stroke-linejoin:miter;stroke-opacity:1" d="M 652.412,455.95 659.46,462.117 z" id="boundary" inkscape:connector-curvature="0" />
	<path style="fill:none;stroke:red;stroke-width:1px;stroke-linecap:butt;stroke-linejoin:miter;stroke-opacity:1" d="M 656.817,605.719 662.984,612.767 z" id="boundary" inkscape:connector-curvature="0" />
	<path style="fill:none;stroke:red;stroke-width:1px;stroke-linecap:butt;stroke-linejoin:miter;stroke-opacity:1" d="M 659.46,462.117 667.389,466.522 z" id="boundary" inkscape:connector-curvature="0" />
	<path style="fill:none;stroke:red;stroke-width:1px;stroke-linecap:butt;stroke-linejoin:miter;stroke-opacity:1" d="M 662.984,612.767 670.913,617.172 z" id="boundary" inkscape:connector-curvature="0" />
	<path style="fill:none;stroke:red;stroke-width:1px;stroke-linecap:butt;stroke-linejoin:miter;stroke-opacity:1" d="M 667.389,466.522 675.318,470.927 z" id="boundary" inkscape:connector-curvature="0" />
	<path style="fill:none;stroke:red;stroke-width:1px;stroke-linecap:butt;stroke-linejoin:miter;stroke-opacity:1" d="M 670.913,617.172 677.961,622.458 z" id="boundary" inkscape:connector-curvature="0" />
	<path style="fill:none;stroke:red;stroke-width:1px;stroke-linecap:butt;stroke-linejoin:miter;stroke-opacity:1" d="M 675.318,470.927 682.366,477.094 z" id="boundary" inkscape:connector-curvature="0" />
	<path style="fill:none;stroke:red;stroke-width:1px;stroke-linecap:butt;stroke-linejoin:miter;stroke-opacity:1" d="M 677.961,622.458 684.128,629.506 z" id="boundary" inkscape:connector-curvature="0" />
	<path style="fill:none;stroke:red;stroke-width:1px;stroke-linecap:butt;stroke-linejoin:miter;stroke-opacity:1" d="M 682.366,477.094 687.652,484.142 z" id="boundary" inkscape:connector-curvature="0" />
	<path style="fill:none;stroke:red;stroke-width:1px;stroke-linecap:butt;stroke-linejoin:miter;stroke-opacity:1" d="M 684.128,629.506 691.176,634.792 z" id="boundary" inkscape:connector-curvature="0" />
	<path style="fill:none;stroke:red;stroke-width:1px;stroke-linecap:butt;stroke-linejoin:miter;stroke-opacity:1" d="M 687.652,484.142 694.7,489.428 z" id="boundary" inkscape:connector-curvature="0" />
	<path style="fill:none;stroke:red;stroke-width:1px;stroke-linecap:butt;stroke-linejoin:miter;stroke-opacity:1" d="M 691.176,634.792 696.462,641.84 z" id="boundary" inkscape:connector-curvature="0" />
	<path style="fill:none;stroke:red;stroke-width:1px;stroke-linecap:butt;stroke-linejoin:miter;stroke-opacity:1" d="M 694.7,489.428 702.629,493.833 z" id="boundary" inkscape:connector-curvature="0" />
	<path style="fill:none;stroke:red;stroke-width:1px;stroke-linecap:butt;stroke-linejoin:miter;stroke-opacity:1" d="M 696.462,641.84 705.272,645.364 z" id="boundary" inkscape:connector-curvature="0" />
	<path style="fill:none;stroke:red;stroke-width:1px;stroke-linecap:butt;stroke-linejoin:miter;stroke-opacity:1" d="M 702.629,493.833 709.677,500 z" id="boundary" inkscape:connector-curvature="0" />
	<path style="fill:none;stroke:red;stroke-width:1px;stroke-linecap:butt;stroke-linejoin:miter;stroke-opacity:1" d="M 705.272,645.364 713.201,649.769 z" id="boundary" inkscape:connector-curvature="0" />
	<path style="fill:none;stroke:red;stroke-width:1px;stroke-linecap:butt;stroke-linejoin:miter;stroke-opacity:1" d="M 709.677,500 716.725,506.167 z" id="boundary" inkscape:connector-curvature="0" />
	<path style="fill:none;stroke:red;stroke-width:1px;stroke-linecap:butt;stroke-linejoin:miter;stroke-opacity:1" d="M 713.201,649.769 720.249,655.936 z" id="boundary" inkscape:connector-curvature="0" />
	<path style="fill:none;stroke:red;stroke-width:1px;stroke-linecap:butt;stroke-linejoin:miter;stroke-opacity:1" d="M 716.725,506.167 724.654,510.572 z" id="boundary" inkscape:connector-curvature="0" />
	<path style="fill:none;stroke:red;stroke-width:1px;stroke-linecap:butt;stroke-linejoin:miter;stroke-opacity:1" d="M 720.249,655.936 726.416,662.984 z" id="boundary" inkscape:connector-curvature="0" />
	<path style="fill:none;stroke:red;stroke-width:1px;stroke-linecap:butt;stroke-linejoin:miter;stroke-opacity:1" d="M 724.654,510.572 732.583,514.977 z" id="boundary" inkscape:connector-curvature="0" />
	<path style="fill:none;stroke:red;stroke-width:1px;stroke-linecap:butt;stroke-linejoin:miter;stroke-opacity:1" d="M 726.416,662.984 735.226,665.627 z" id="boundary" inkscape:connector-curvature="0" />
	<path style="fill:none;stroke:red;stroke-width:1px;stroke-linecap:butt;stroke-linejoin:miter;stroke-opacity:1" d="M 732.583,514.977 740.512,519.382 z" id="boundary" inkscape:connector-curvature="0" />
	<path style="fill:none;stroke:red;stroke-width:1px;stroke-linecap:butt;stroke-linejoin:miter;stroke-opacity:1" d="M 735.226,665.627 740.512,672.675 z" id="boundary" inkscape:connector-curvature="0" />
	<path style="fill:none;stroke:red;stroke-width:1px;stroke-linecap:butt;stroke-linejoin:miter;stroke-opacity:1" d="M 740.512,519.382 747.56,524.668 z" id="boundary" inkscape:connector-curvature="0" />
	<path style="fill:none;stroke:red;stroke-width:1px;stroke-linecap:butt;stroke-linejoin:miter;stroke-opacity:1" d="M 740.512,672.675 747.56,678.842 z" id="boundary" inkscape:connector-curvature="0" />
	<path style="fill:none;stroke:red;stroke-width:1px;stroke-linecap:butt;stroke-linejoin:miter;stroke-opacity:1" d="M 747.56,524.668 755.488,529.073 z" id="boundary" inkscape:connector-curvature="0" />
	<path style="fill:none;stroke:red;stroke-width:1px;stroke-linecap:butt;stroke-linejoin:miter;stroke-opacity:1" d="M 747.56,678.842 755.488,683.247 z" id="boundary" inkscape:connector-curvature="0" />
	<path style="fill:none;stroke:red;stroke-width:1px;stroke-linecap:butt;stroke-linejoin:miter;stroke-opacity:1" d="M 755.488,529.073 762.536,535.24 z" id="boundary" inkscape:connector-curvature="0" />
	<path style="fill:none;stroke:red;stroke-width:1px;stroke-linecap:butt;stroke-linejoin:miter;stroke-opacity:1" d="M 755.488,683.247 764.298,686.771 z" id="boundary" inkscape:connector-curvature="0" />
	<path style="fill:none;stroke:red;stroke-width:1px;stroke-linecap:butt;stroke-linejoin:miter;stroke-opacity:1" d="M 762.536,535.24 769.584,541.407 z" id="boundary" inkscape:connector-curvature="0" />
	<path style="fill:none;stroke:red;stroke-width:1px;stroke-linecap:butt;stroke-linejoin:miter;stroke-opacity:1" d="M 764.298,686.771 772.227,691.176 z" id="boundary" inkscape:connector-curvature="0" />
	<path style="fill:none;stroke:red;stroke-width:1px;stroke-linecap:butt;stroke-linejoin:miter;stroke-opacity:1" d="M 769.584,541.407 777.513,545.812 z" id="boundary" inkscape:connector-curvature="0" />
	<path style="fill:none;stroke:red;stroke-width:1px;stroke-linecap:butt;stroke-linejoin:miter;stroke-opacity:1" d="M 772.227,691.176 779.275,696.462 z" id="boundary" inkscape:connector-curvature="0" />
	<path style="fill:none;stroke:red;stroke-width:1px;stroke-linecap:butt;stroke-linejoin:miter;stroke-opacity:1" d="M 777.513,545.812 785.442,550.217 z" id="boundary" inkscape:connector-curvature="0" />
	<path style="fill:none;stroke:red;stroke-width:1px;stroke-linecap:butt;stroke-linejoin:miter;stroke-opacity:1" d="M 779.275,696.462 784.561,703.51 z" id="boundary" inkscape:connector-curvature="0" />
	<path style="fill:none;stroke:red;stroke-width:1px;stroke-linecap:butt;stroke-linejoin:miter;stroke-opacity:1" d="M 784.561,703.51 791.609,709.677 z" id="boundary" inkscape:connector-curvature="0" />
	<path style="fill:none;stroke:red;stroke-width:1px;stroke-linecap:butt;stroke-linejoin:miter;stroke-opacity:1" d="M 785.442,550.217 793.371,554.622 z" id="boundary" inkscape:connector-curvature="0" />
	<path style="fill:none;stroke:red;stroke-width:1px;stroke-linecap:butt;stroke-linejoin:miter;stroke-opacity:1" d="M 791.609,709.677 799.538,714.082 z" id="boundary" inkscape:connector-curvature="0" />
	<path style="fill:none;stroke:red;stroke-width:1px;stroke-linecap:butt;stroke-linejoin:miter;stroke-opacity:1" d="M 793.371,554.622 800.419,559.908 z" id="boundary" inkscape:connector-curvature="0" />
	<path style="fill:none;stroke:red;stroke-width:1px;stroke-linecap:butt;stroke-linejoin:miter;stroke-opacity:1" d="M 799.538,714.082 807.467,718.487 z" id="boundary" inkscape:connector-curvature="0" />
	<path style="fill:none;stroke:red;stroke-width:1px;stroke-linecap:butt;stroke-linejoin:miter;stroke-opacity:1" d="M 800.419,559.908 808.348,564.313 z" id="boundary" inkscape:connector-curvature="0" />
	<path style="fill:none;stroke:red;stroke-width:1px;stroke-linecap:butt;stroke-linejoin:miter;stroke-opacity:1" d="M 807.467,718.487 815.396,722.892 z" id="boundary" inkscape:connector-curvature="0" />
	<path style="fill:none;stroke:red;stroke-width:1px;stroke-linecap:butt;stroke-linejoin:miter;stroke-opacity:1" d="M 808.348,564.313 817.158,567.837 z" id="boundary" inkscape:connector-curvature="0" />
	<path style="fill:none;stroke:red;stroke-width:1px;stroke-linecap:butt;stroke-linejoin:miter;stroke-opacity:1" d="M 815.396,722.892 823.325,727.297 z" id="boundary" inkscape:connector-curvature="0" />
	<path style="fill:none;stroke:red;stroke-width:1px;stroke-linecap:butt;stroke-linejoin:miter;stroke-opacity:1" d="M 817.158,567.837 825.087,572.242 z" id="boundary" inkscape:connector-curvature="0" />
	<path style="fill:none;stroke:red;stroke-width:1px;stroke-linecap:butt;stroke-linejoin:miter;stroke-opacity:1" d="M 823.325,727.297 828.611,734.345 z" id="boundary" inkscape:connector-curvature="0" />
	<path style="fill:none;stroke:red;stroke-width:1px;stroke-linecap:butt;stroke-linejoin:miter;stroke-opacity:1" d="M 825.087,572.242 832.135,578.409 z" id="boundary" inkscape:connector-curvature="0" />
	<path style="fill:none;stroke:red;stroke-width:1px;stroke-linecap:butt;stroke-linejoin:miter;stroke-opacity:1" d="M 828.611,734.345 837.421,737.869 z" id="boundary" inkscape:connector-curvature="0" />
	<path style="fill:none;stroke:red;stroke-width:1px;stroke-linecap:butt;stroke-linejoin:miter;stroke-opacity:1" d="M 832.135,578.409 837.421,585.456 z" id="boundary" inkscape:connector-curvature="0" />
	<path style="fill:none;stroke:red;stroke-width:1px;stroke-linecap:butt;stroke-linejoin:miter;stroke-opacity:1" d="M 837.421,585.456 845.35,589.861 z" id="boundary" inkscape:connector-curvature="0" />
	<path style="fill:none;stroke:red;stroke-width:1px;stroke-linecap:butt;stroke-linejoin:miter;stroke-opacity:1" d="M 837.421,737.869 845.35,742.274 z" id="boundary" inkscape:connector-curvature="0" />
	<path style="fill:none;stroke:red;stroke-width:1px;stroke-linecap:butt;stroke-linejoin:miter;stroke-opacity:1" d="M 845.35,589.861 853.279,594.266 z" id="boundary" inkscape:connector-curvature="0" />
	<path style="fill:none;stroke:red;stroke-width:1px;stroke-linecap:butt;stroke-linejoin:miter;stroke-opacity:1" d="M 845.35,742.274 854.16,744.917 z" id="boundary" inkscape:connector-curvature="0" />
	<path style="fill:none;stroke:red;stroke-width:1px;stroke-linecap:butt;stroke-linejoin:miter;stroke-opacity:1" d="M 853.279,594.266 861.208,598.671 z" id="boundary" inkscape:connector-curvature="0" />
	<path style="fill:none;stroke:red;stroke-width:1px;stroke-linecap:butt;stroke-linejoin:miter;stroke-opacity:1" d="M 854.16,744.917 862.089,749.321 z" id="boundary" inkscape:connector-curvature="0" />
	<path style="fill:none;stroke:red;stroke-width:1px;stroke-linecap:butt;stroke-linejoin:miter;stroke-opacity:1" d="M 861.208,598.671 867.375,605.719 z" id="boundary" inkscape:connector-curvature="0" />
	<path style="fill:none;stroke:red;stroke-width:1px;stroke-linecap:butt;stroke-linejoin:miter;stroke-opacity:1" d="M 862.089,749.321 870.018,753.726 z" id="boundary" inkscape:connector-curvature="0" />
	<path style="fill:none;stroke:red;stroke-width:1px;stroke-linecap:butt;stroke-linejoin:miter;stroke-opacity:1" d="M 867.375,605.719 876.185,609.243 z" id="boundary" inkscape:connector-curvature="0" />
	<path style="fill:none;stroke:red;stroke-width:1px;stroke-linecap:butt;stroke-linejoin:miter;stroke-opacity:1" d="M 870.018,753.726 877.947,758.131 z" id="boundary" inkscape:connector-curvature="0" />
	<path style="fill:none;stroke:red;stroke-width:1px;stroke-linecap:butt;stroke-linejoin:miter;stroke-opacity:1" d="M 876.185,609.243 881.471,616.291 z" id="boundary" inkscape:connector-curvature="0" />
	<path style="fill:none;stroke:red;stroke-width:1px;stroke-linecap:butt;stroke-linejoin:miter;stroke-opacity:1" d="M 877.947,758.131 885.876,762.536 z" id="boundary" inkscape:connector-curvature="0" />
	<path style="fill:none;stroke:red;stroke-width:1px;stroke-linecap:butt;stroke-linejoin:miter;stroke-opacity:1" d="M 881.471,616.291 889.4,620.696 z" id="boundary" inkscape:connector-curvature="0" />
	<path style="fill:none;stroke:red;stroke-width:1px;stroke-linecap:butt;stroke-linejoin:miter;stroke-opacity:1" d="M 885.876,762.536 893.805,766.941 z" id="boundary" inkscape:connector-curvature="0" />
	<path style="fill:none;stroke:red;stroke-width:1px;stroke-linecap:butt;stroke-linejoin:miter;stroke-opacity:1" d="M 889.4,620.696 897.329,625.101 z" id="boundary" inkscape:connector-curvature="0" />
	<path style="fill:none;stroke:red;stroke-width:1px;stroke-linecap:butt;stroke-linejoin:miter;stroke-opacity:1" d="M 893.805,766.941 902.615,766.941 z" id="boundary" inkscape:connector-curvature="0" />
	<path style="fill:none;stroke:red;stroke-width:1px;stroke-linecap:butt;stroke-linejoin:miter;stroke-opacity:1" d="M 897.329,625.101 905.258,629.506 z" id="boundary" inkscape:connector-curvature="0" />
	<path style="fill:none;stroke:red;stroke-width:1px;stroke-linecap:butt;stroke-linejoin:miter;stroke-opacity:1" d="M 902.615,766.941 910.544,771.346 z" id="boundary" inkscape:connector-curvature="0" />
	<path style="fill:none;stroke:red;stroke-width:1px;stroke-linecap:butt;stroke-linejoin:miter;stroke-opacity:1" d="M 905.258,629.506 913.187,633.911 z" id="boundary" inkscape:connector-curvature="0" />
	<path style="fill:none;stroke:red;stroke-width:1px;stroke-linecap:butt;stroke-linejoin:miter;stroke-opacity:1" d="M 910.544,771.346 919.353,771.346 z" id="boundary" inkscape:connector-curvature="0" />
	<path style="fill:none;stroke:red;stroke-width:1px;stroke-linecap:butt;stroke-linejoin:miter;stroke-opacity:1" d="M 913.187,633.911 921.115,638.316 z" id="boundary" inkscape:connector-curvature="0" />
	<path style="fill:none;stroke:red;stroke-width:1px;stroke-linecap:butt;stroke-linejoin:miter;stroke-opacity:1" d="M 919.353,771.346 928.163,771.346 z" id="boundary" inkscape:connector-curvature="0" />
	<path style="fill:none;stroke:red;stroke-width:1px;stroke-linecap:butt;stroke-linejoin:miter;stroke-opacity:1" d="M 921.115,638.316 929.925,640.959 z" id="boundary" inkscape:connector-curvature="0" />
	<path style="fill:none;stroke:red;stroke-width:1px;stroke-linecap:butt;stroke-linejoin:miter;stroke-opacity:1" d="M 928.163,771.346 936.973,769.584 z" id="boundary" inkscape:connector-curvature="0" />
	<path style="fill:none;stroke:red;stroke-width:1px;stroke-linecap:butt;stroke-linejoin:miter;stroke-opacity:1" d="M 929.925,640.959 937.854,645.364 z" id="boundary" inkscape:connector-curvature="0" />
	<path style="fill:none;stroke:red;stroke-width:1px;stroke-linecap:butt;stroke-linejoin:miter;stroke-opacity:1" d="M 936.973,769.584 945.783,766.941 z" id="boundary" inkscape:connector-curvature="0" />
	<path style="fill:none;stroke:red;stroke-width:1px;stroke-linecap:butt;stroke-linejoin:miter;stroke-opacity:1" d="M 937.854,645.364 946.664,648.888 z" id="boundary" inkscape:connector-curvature="0" />
	<path style="fill:none;stroke:red;stroke-width:1px;stroke-linecap:butt;stroke-linejoin:miter;stroke-opacity:1" d="M 945.783,766.941 954.593,765.179 z" id="boundary" inkscape:connector-curvature="0" />
	<path style="fill:none;stroke:red;stroke-width:1px;stroke-linecap:butt;stroke-linejoin:miter;stroke-opacity:1" d="M 946.664,648.888 951.95,655.936 z" id="boundary" inkscape:connector-curvature="0" />
	<path style="fill:none;stroke:red;stroke-width:1px;stroke-linecap:butt;stroke-linejoin:miter;stroke-opacity:1" d="M 951.95,655.936 959.879,660.341 z" id="boundary" inkscape:connector-curvature="0" />
	<path style="fill:none;stroke:red;stroke-width:1px;stroke-linecap:butt;stroke-linejoin:miter;stroke-opacity:1" d="M 954.593,765.179 963.403,760.774 z" id="boundary" inkscape:connector-curvature="0" />
	<path style="fill:none;stroke:red;stroke-width:1px;stroke-linecap:butt;stroke-linejoin:miter;stroke-opacity:1" d="M 959.879,660.341 966.927,665.627 z" id="boundary" inkscape:connector-curvature="0" />
	<path style="fill:none;stroke:red;stroke-width:1px;stroke-linecap:butt;stroke-linejoin:miter;stroke-opacity:1" d="M 963.403,760.774 969.57,753.726 z" id="boundary" inkscape:connector-curvature="0" />
	<path style="fill:none;stroke:red;stroke-width:1px;stroke-linecap:butt;stroke-linejoin:miter;stroke-opacity:1" d="M 966.927,665.627 973.975,671.794 z" id="boundary" inkscape:connector-curvature="0" />
	<path style="fill:none;stroke:red;stroke-width:1px;stroke-linecap:butt;stroke-linejoin:miter;stroke-opacity:1" d="M 969.57,753.726 976.618,747.56 z" id="boundary" inkscape:connector-curvature="0" />
	<path style="fill:none;stroke:red;stroke-width:1px;stroke-linecap:butt;stroke-linejoin:miter;stroke-opacity:1" d="M 973.975,671.794 980.142,678.842 z" id="boundary" inkscape:connector-curvature="0" />
	<path style="fill:none;stroke:red;stroke-width:1px;stroke-linecap:butt;stroke-linejoin:miter;stroke-opacity:1" d="M 976.618,747.56 982.785,740.512 z" id="boundary" inkscape:connector-curvature="0" />
	<path style="fill:none;stroke:red;stroke-width:1px;stroke-linecap:butt;stroke-linejoin:miter;stroke-opacity:1" d="M 980.142,678.842 987.19,685.009 z" id="boundary" inkscape:connector-curvature="0" />
	<path style="fill:none;stroke:red;stroke-width:1px;stroke-linecap:butt;stroke-linejoin:miter;stroke-opacity:1" d="M 982.785,740.512 989.833,734.345 z" id="boundary" inkscape:connector-curvature="0" />
	<path style="fill:none;stroke:red;stroke-width:1px;stroke-linecap:butt;stroke-linejoin:miter;stroke-opacity:1" d="M 987.19,685.009 991.595,692.938 z" id="boundary" inkscape:connector-curvature="0" />
	<path style="fill:none;stroke:red;stroke-width:1px;stroke-linecap:butt;stroke-linejoin:miter;stroke-opacity:1" d="M 989.833,734.345 994.238,725.535 z" id="boundary" inkscape:connector-curvature="0" />
	<path style="fill:none;stroke:red;stroke-width:1px;stroke-linecap:butt;stroke-linejoin:miter;stroke-opacity:1" d="M 991.595,692.938 996,700.867 z" id="boundary" inkscape:connector-curvature="0" />
	<path style="fill:none;stroke:red;stroke-width:1px;stroke-linecap:butt;stroke-linejoin:miter;stroke-opacity:1" d="M 994.238,725.535 996,709.677 z" id="boundary" inkscape:connector-curvature="0" />
	<path style="fill:none;stroke:red;stroke-width:1px;stroke-linecap:butt;stroke-linejoin:miter;stroke-opacity:1" d="M 996,700.867 996,709.677 z" id="boundary" inkscape:connector-curvature="0" />
	<circle cx="4" cy="81.5275" r="4" fill="#0" id="circle0"/>
	<circle cx="4" cy="90.3375" r="4" fill="#0" id="circle1"/>
	<circle cx="4" cy="99.1474" r="4" fill="#0" id="circle2"/>
	<circle cx="4" cy="107.957" r="4" fill="#0" id="circle3"/>
	<circle cx="4" cy="116.767" r="4" fill="#0" id="circle4"/>
	<circle cx="4" cy="125.577" r="4" fill="#0" id="circle5"/>
	<circle cx="4" cy="134.387" r="4" fill="#0" id="circle6"/>
	<circle cx="4" cy="143.197" r="4" fill="#0" id="circle7"/>
	<circle cx="8.40497" cy="72.7176" r="4" fill="#0" id="circle8"/>
	<circle cx="8.40497" cy="151.126" r="4" fill="#0" id="circle9"/>
	<circle cx="12.8099" cy="63.9076" r="4" fill="#0" id="circle10"/>
	<circle cx="12.8099" cy="159.055" r="4" fill="#0" id="circle11"/>
	<circle cx="15.4529" cy="167.865" r="4" fill="#0" id="circle12"/>
	<circle cx="17.2149" cy="55.0977" r="4" fill="#0" id="circle13"/>
	<circle cx="17.2149" cy="176.675" r="4" fill="#0" id="circle14"/>
	<circle cx="17.2149" cy="185.485" r="4" fill="#0" id="circle15"/>
	<circle cx="21.6199" cy="193.414" r="4" fill="#0" id="circle16"/>
	<circle cx="24.2629" cy="48.0497" r="4" fill="#0" id="circle17"/>
	<circle cx="26.0249" cy="201.343" r="4" fill="#0" id="circle18"/>
	<circle cx="30.4298" cy="209.272" r="4" fill="#0" id="circle19"/>
	<circle cx="31.3108" cy="41.0018" r="4" fill="#0" id="circle20"/>
	<circle cx="34.8348" cy="217.201" r="4" fill="#0" id="circle21"/>
	<circle cx="38.3588" cy="34.8348" r="4" fill="#0" id="circle22"/>
	<circle cx="39.2398" cy="225.13" r="4" fill="#0" id="circle23"/>
	<circle cx="43.6448" cy="233.059" r="4" fill="#0" id="circle24"/>
	<circle cx="44.5258" cy="27.7869" r="4" fill="#0" id="circle25"/>
	<circle cx="48.0497" cy="240.988" r="4" fill="#0" id="circle26"/>
	<circle cx="52.4547" cy="248.917" r="4" fill="#0" id="circle27"/>
	<circle cx="53.3357" cy="23.3819" r="4" fill="#0" id="circle28"/>
	<circle cx="59.5027" cy="255.083" r="4" fill="#0" id="circle29"/>
	<circle cx="60.3837" cy="17.2149" r="4" fill="#0" id="circle30"/>
	<circle cx="65.6696" cy="262.131" r="4" fill="#0" id="circle31"/>
	<circle cx="68.3126" cy="12.8099" r="4" fill="#0" id="circle32"/>
	<circle cx="72.7176" cy="268.298" r="4" fill="#0" id="circle33"/>
	<circle cx="76.2416" cy="8.40497" r="4" fill="#0" id="circle34"/>
	<circle cx="78.8845" cy="275.346" r="4" fill="#0" id="circle35"/>
	<circle cx="85.0515" cy="8.40497" r="4" fill="#0" id="circle36"/>
	<circle cx="85.9325" cy="281.513" r="4" fill="#0" id="circle37"/>
	<circle cx="92.0995" cy="288.561" r="4" fill="#0" id="circle38"/>
	<circle cx="92.9805" cy="4" r="4" fill="#0" id="circle39"/>
	<circle cx="99.1474" cy="294.728" r="4" fill="#0" id="circle40"/>
	<circle cx="101.79" cy="4" r="4" fill="#0" id="circle41"/>
	<circle cx="105.314" cy="301.776" r="4" fill="#0" id="circle42"/>
	<circle cx="110.6" cy="4" r="4" fill="#0" id="circle43"/>
	<circle cx="114.124" cy="304.419" r="4" fill="#0" id="circle44"/>
	<circle cx="119.41" cy="4" r="4" fill="#0" id="circle45"/>
	<circle cx="119.41" cy="311.467" r="4" fill="#0" id="circle46"/>
	<circle cx="126.458" cy="317.634" r="4" fill="#0" id="circle47"/>
	<circle cx="128.22" cy="4" r="4" fill="#0" id="circle48"/>
	<circle cx="132.625" cy="324.682" r="4" fill="#0" id="circle49"/>
	<circle cx="137.03" cy="4" r="4" fill="#0" id="circle50"/>
	<circle cx="139.673" cy="330.849" r="4" fill="#0" id="circle51"/>
	<circle cx="145.84" cy="4" r="4" fill="#0" id="circle52"/>
	<circle cx="147.602" cy="335.254" r="4" fill="#0" id="circle53"/>
	<circle cx="154.65" cy="4" r="4" fill="#0" id="circle54"/>
	<circle cx="154.65" cy="341.421" r="4" fill="#0" id="circle55"/>
	<circle cx="162.579" cy="8.40497" r="4" fill="#0" id="circle56"/>
	<circle cx="162.579" cy="345.826" r="4" fill="#0" id="circle57"/>
	<circle cx="169.627" cy="351.993" r="4" fill="#0" id="circle58"/>
	<circle cx="171.389" cy="8.40497" r="4" fill="#0" id="circle59"/>
	<circle cx="176.675" cy="357.279" r="4" fill="#0" id="circle60"/>
	<circle cx="180.199" cy="10.167" r="4" fill="#0" id="circle61"/>
	<circle cx="184.604" cy="361.684" r="4" fill="#0" id="circle62"/>
	<circle cx="189.009" cy="12.8099" r="4" fill="#0" id="circle63"/>
	<circle cx="192.533" cy="366.089" r="4" fill="#0" id="circle64"/>
	<circle cx="197.819" cy="14.5719" r="4" fill="#0" id="circle65"/>
	<circle cx="200.462" cy="370.494" r="4" fill="#0" id="circle66"/>
	<circle cx="205.748" cy="18.9769" r="4" fill="#0" id="circle67"/>
	<circle cx="209.272" cy="374.018" r="4" fill="#0" id="circle68"/>
	<circle cx="214.558" cy="21.6199" r="4" fill="#0" id="circle69"/>
	<circle cx="217.201" cy="378.423" r="4" fill="#0" id="circle70"/>
	<circle cx="222.487" cy="26.0249" r="4" fill="#0" id="circle71"/>
	<circle cx="226.011" cy="381.947" r="4" fill="#0" id="circle72"/>
	<circle cx="231.297" cy="26.0249" r="4" fill="#0" id="circle73"/>
	<circle cx="233.94" cy="386.352" r="4" fill="#0" id="circle74"/>
	<circle cx="239.226" cy="30.4298" r="4" fill="#0" id="circle75"/>
	<circle cx="242.75" cy="388.114" r="4" fill="#0" id="circle76"/>
	<circle cx="247.155" cy="34.8348" r="4" fill="#0" id="circle77"/>
	<circle cx="251.56" cy="388.114" r="4" fill="#0" id="circle78"/>
	<circle cx="255.964" cy="37.4778" r="4" fill="#0" id="circle79"/>
	<circle cx="259.488" cy="392.519" r="4" fill="#0" id="circle80"/>
	<circle cx="264.774" cy="39.2398" r="4" fill="#0" id="circle81"/>
	<circle cx="268.298" cy="392.519" r="4" fill="#0" id="circle82"/>
	<circle cx="273.584" cy="41.8828" r="4" fill="#0" id="circle83"/>
	<circle cx="277.108" cy="392.519" r="4" fill="#0" id="circle84"/>
	<circle cx="281.513" cy="46.2877" r="4" fill="#0" id="circle85"/>
	<circle cx="285.918" cy="392.519" r="4" fill="#0" id="circle86"/>
	<circle cx="290.323" cy="49.8117" r="4" fill="#0" id="circle87"/>
	<circle cx="294.728" cy="392.519" r="4" fill="#0" id="circle88"/>
	<circle cx="298.252" cy="54.2167" r="4" fill="#0" id="circle89"/>
	<circle cx="303.538" cy="392.519" r="4" fill="#0" id="circle90"/>
	<circle cx="307.062" cy="57.7407" r="4" fill="#0" id="circle91"/>
	<circle cx="312.348" cy="392.519" r="4" fill="#0" id="circle92"/>
	<circle cx="314.991" cy="62.1456" r="4" fill="#0" id="circle93"/>
	<circle cx="321.158" cy="392.519" r="4" fill="#0" id="circle94"/>
	<circle cx="323.801" cy="65.6696" r="4" fill="#0" id="circle95"/>
	<circle cx="329.087" cy="388.114" r="4" fill="#0" id="circle96"/>
	<circle cx="331.73" cy="70.0746" r="4" fill="#0" id="circle97"/>
	<circle cx="337.897" cy="388.114" r="4" fill="#0" id="circle98"/>
	<circle cx="339.659" cy="74.4796" r="4" fill="#0" id="circle99"/>
	<circle cx="346.707" cy="79.7655" r="4" fill="#0" id="circle100"/>
	<circle cx="346.707" cy="388.114" r="4" fill="#0" id="circle101"/>
	<circle cx="352.874" cy="86.8135" r="4" fill="#0" id="circle102"/>
	<circle cx="355.517" cy="388.114" r="4" fill="#0" id="circle103"/>
	<circle cx="361.684" cy="90.3375" r="4" fill="#0" id="circle104"/>
	<circle cx="364.327" cy="388.114" r="4" fill="#0" id="circle105"/>
	<circle cx="367.851" cy="97.3854" r="4" fill="#0" id="circle106"/>
	<circle cx="372.256" cy="383.709" r="4" fill="#0" id="circle107"/>
	<circle cx="374.899" cy="103.552" r="4" fill="#0" id="circle108"/>
	<circle cx="380.185" cy="379.304" r="4" fill="#0" id="circle109"/>
	<circle cx="381.066" cy="110.6" r="4" fill="#0" id="circle110"/>
	<circle cx="388.114" cy="116.767" r="4" fill="#0" id="circle111"/>
	<circle cx="388.114" cy="374.899" r="4" fill="#0" id="circle112"/>
	<circle cx="394.281" cy="123.815" r="4" fill="#0" id="circle113"/>
	<circle cx="396.043" cy="379.304" r="4" fill="#0" id="circle114"/>
	<circle cx="401.329" cy="129.982" r="4" fill="#0" id="circle115"/>
	<circle cx="403.972" cy="383.709" r="4" fill="#0" id="circle116"/>
	<circle cx="404.853" cy="138.792" r="4" fill="#0" id="circle117"/>
	<circle cx="409.258" cy="390.757" r="4" fill="#0" id="circle118"/>
	<circle cx="411.901" cy="144.959" r="4" fill="#0" id="circle119"/>
	<circle cx="413.663" cy="398.686" r="4" fill="#0" id="circle120"/>
	<circle cx="414.544" cy="153.769" r="4" fill="#0" id="circle121"/>
	<circle cx="418.067" cy="406.615" r="4" fill="#0" id="circle122"/>
	<circle cx="421.591" cy="159.055" r="4" fill="#0" id="circle123"/>
	<circle cx="424.234" cy="413.663" r="4" fill="#0" id="circle124"/>
	<circle cx="427.758" cy="166.103" r="4" fill="#0" id="circle125"/>
	<circle cx="431.282" cy="418.948" r="4" fill="#0" id="circle126"/>
	<circle cx="432.163" cy="174.032" r="4" fill="#0" id="circle127"/>
	<circle cx="435.687" cy="182.842" r="4" fill="#0" id="circle128"/>
	<circle cx="439.211" cy="423.353" r="4" fill="#0" id="circle129"/>
	<circle cx="440.092" cy="190.771" r="4" fill="#0" id="circle130"/>
	<circle cx="440.973" cy="199.581" r="4" fill="#0" id="circle131"/>
	<circle cx="440.973" cy="300.014" r="4" fill="#0" id="circle132"/>
	<circle cx="443.616" cy="208.391" r="4" fill="#0" id="circle133"/>
	<circle cx="445.378" cy="217.201" r="4" fill="#0" id="circle134"/>
	<circle cx="445.378" cy="226.011" r="4" fill="#0" id="circle135"/>
	<circle cx="445.378" cy="282.394" r="4" fill="#0" id="circle136"/>
	<circle cx="445.378" cy="291.204" r="4" fill="#0" id="circle137"/>
	<circle cx="445.378" cy="307.943" r="4" fill="#0" id="circle138"/>
	<circle cx="445.378" cy="430.401" r="4" fill="#0" id="circle139"/>
	<circle cx="449.783" cy="233.94" r="4" fill="#0" id="circle140"/>
	<circle cx="449.783" cy="242.75" r="4" fill="#0" id="circle141"/>
	<circle cx="449.783" cy="251.56" r="4" fill="#0" id="circle142"/>
	<circle cx="449.783" cy="260.369" r="4" fill="#0" id="circle143"/>
	<circle cx="449.783" cy="269.179" r="4" fill="#0" id="circle144"/>
	<circle cx="452.426" cy="313.229" r="4" fill="#0" id="circle145"/>
	<circle cx="452.426" cy="436.568" r="4" fill="#0" id="circle146"/>
	<circle cx="458.593" cy="320.277" r="4" fill="#0" id="circle147"/>
	<circle cx="458.593" cy="443.616" r="4" fill="#0" id="circle148"/>
	<circle cx="465.641" cy="326.444" r="4" fill="#0" id="circle149"/>
	<circle cx="465.641" cy="449.783" r="4" fill="#0" id="circle150"/>
	<circle cx="471.808" cy="333.492" r="4" fill="#0" id="circle151"/>
	<circle cx="471.808" cy="456.831" r="4" fill="#0" id="circle152"/>
	<circle cx="478.856" cy="339.659" r="4" fill="#0" id="circle153"/>
	<circle cx="478.856" cy="462.998" r="4" fill="#0" id="circle154"/>
	<circle cx="485.023" cy="470.046" r="4" fill="#0" id="circle155"/>
	<circle cx="486.785" cy="344.064" r="4" fill="#0" id="circle156"/>
	<circle cx="492.071" cy="476.213" r="4" fill="#0" id="circle157"/>
	<circle cx="495.595" cy="347.588" r="4" fill="#0" id="circle158"/>
	<circle cx="500" cy="480.618" r="4" fill="#0" id="circle159"/>
	<circle cx="503.524" cy="351.993" r="4" fill="#0" id="circle160"/>
	<circle cx="507.048" cy="486.785" r="4" fill="#0" id="circle161"/>
	<circle cx="510.572" cy="358.16" r="4" fill="#0" id="circle162"/>
	<circle cx="513.215" cy="493.833" r="4" fill="#0" id="circle163"/>
	<circle cx="515.858" cy="365.208" r="4" fill="#0" id="circle164"/>
	<circle cx="520.263" cy="500" r="4" fill="#0" id="circle165"/>
	<circle cx="522.906" cy="370.494" r="4" fill="#0" id="circle166"/>
	<circle cx="526.43" cy="507.048" r="4" fill="#0" id="circle167"/>
	<circle cx="529.073" cy="377.542" r="4" fill="#0" id="circle168"/>
	<circle cx="533.478" cy="513.215" r="4" fill="#0" id="circle169"/>
	<circle cx="537.883" cy="381.066" r="4" fill="#0" id="circle170"/>
	<circle cx="541.407" cy="517.62" r="4" fill="#0" id="circle171"/>
	<circle cx="545.812" cy="385.471" r="4" fill="#0" id="circle172"/>
	<circle cx="548.455" cy="523.787" r="4" fill="#0" id="circle173"/>
	<circle cx="554.622" cy="388.995" r="4" fill="#0" id="circle174"/>
	<circle cx="555.503" cy="529.073" r="4" fill="#0" id="circle175"/>
	<circle cx="562.551" cy="393.4" r="4" fill="#0" id="circle176"/>
	<circle cx="563.432" cy="533.478" r="4" fill="#0" id="circle177"/>
	<circle cx="571.361" cy="396.924" r="4" fill="#0" id="circle178"/>
	<circle cx="571.361" cy="537.883" r="4" fill="#0" id="circle179"/>
	<circle cx="579.29" cy="401.329" r="4" fill="#0" id="circle180"/>
	<circle cx="579.29" cy="542.288" r="4" fill="#0" id="circle181"/>
	<circle cx="586.337" cy="548.455" r="4" fill="#0" id="circle182"/>
	<circle cx="588.099" cy="404.853" r="4" fill="#0" id="circle183"/>
	<circle cx="594.266" cy="411.901" r="4" fill="#0" id="circle184"/>
	<circle cx="594.266" cy="552.86" r="4" fill="#0" id="circle185"/>
	<circle cx="601.314" cy="418.067" r="4" fill="#0" id="circle186"/>
	<circle cx="601.314" cy="559.027" r="4" fill="#0" id="circle187"/>
	<circle cx="608.362" cy="564.313" r="4" fill="#0" id="circle188"/>
	<circle cx="609.243" cy="422.472" r="4" fill="#0" id="circle189"/>
	<circle cx="616.291" cy="428.639" r="4" fill="#0" id="circle190"/>
	<circle cx="616.291" cy="568.718" r="4" fill="#0" id="circle191"/>
	<circle cx="621.577" cy="575.766" r="4" fill="#0" id="circle192"/>
	<circle cx="624.22" cy="433.044" r="4" fill="#0" id="circle193"/>
	<circle cx="628.625" cy="581.933" r="4" fill="#0" id="circle194"/>
	<circle cx="630.387" cy="440.092" r="4" fill="#0" id="circle195"/>
	<circle cx="634.792" cy="588.98" r="4" fill="#0" id="circle196"/>
	<circle cx="638.316" cy="444.497" r="4" fill="#0" id="circle197"/>
	<circle cx="643.602" cy="592.504" r="4" fill="#0" id="circle198"/>
	<circle cx="645.364" cy="449.783" r="4" fill="#0" id="circle199"/>
	<circle cx="649.769" cy="599.552" r="4" fill="#0" id="circle200"/>
	<circle cx="652.412" cy="455.95" r="4" fill="#0" id="circle201"/>
	<circle cx="656.817" cy="605.719" r="4" fill="#0" id="circle202"/>
	<circle cx="659.46" cy="462.117" r="4" fill="#0" id="circle203"/>
	<circle cx="662.984" cy="612.767" r="4" fill="#0" id="circle204"/>
	<circle cx="667.389" cy="466.522" r="4" fill="#0" id="circle205"/>
	<circle cx="670.913" cy="617.172" r="4" fill="#0" id="circle206"/>
	<circle cx="675.318" cy="470.927" r="4" fill="#0" id="circle207"/>
	<circle cx="677.961" cy="622.458" r="4" fill="#0" id="circle208"/>
	<circle cx="682.366" cy="477.094" r="4" fill="#0" id="circle209"/>
	<circle cx="684.128" cy="629.506" r="4" fill="#0" id="circle210"/>
	<circle cx="687.652" cy="484.142" r="4" fill="#0" id="circle211"/>
	<circle cx="691.176" cy="634.792" r="4" fill="#0" id="circle212"/>
	<circle cx="694.7" cy="489.428" r="4" fill="#0" id="circle213"/>
	<circle cx="696.462" cy="641.84" r="4" fill="#0" id="circle214"/>
	<circle cx="702.629" cy="493.833" r="4" fill="#0" id="circle215"/>
	<circle cx="705.272" cy="645.364" r="4" fill="#0" id="circle216"/>
	<circle cx="709.677" cy="500" r="4" fill="#0" id="circle217"/>
	<circle cx="713.201" cy="649.769" r="4" fill="#0" id="circle218"/>
	<circle cx="716.725" cy="506.167" r="4" fill="#0" id="circle219"/>
	<circle cx="720.249" cy="655.936" r="4" fill="#0" id="circle220"/>
	<circle cx="724.654" cy="510.572" r="4" fill="#0" id="circle221"/>
	<circle cx="726.416" cy="662.984" r="4" fill="#0" id="circle222"/>
	<circle cx="732.583" cy="514.977" r="4" fill="#0" id="circle223"/>
	<circle cx="735.226" cy="665.627" r="4" fill="#0" id="circle224"/>
	<circle cx="740.512" cy="519.382" r="4" fill="#0" id="circle225"/>
	<circle cx="740.512" cy="672.675" r="4" fill="#0" id="circle226"/>
	<circle cx="747.56" cy="524.668" r="4" fill="#0" id="circle227"/>
	<circle cx="747.56" cy="678.842" r="4" fill="#0" id="circle228"/>
	<circle cx="755.488" cy="529.073" r="4" fill="#0" id="circle229"/>
	<circle cx="755.488" cy="683.247" r="4" fill="#0" id="circle230"/>
	<circle cx="762.536" cy="535.24" r="4" fill="#0" id="circle231"/>
	<circle cx="764.298" cy="686.771" r="4" fill="#0" id="circle232"/>
	<circle cx="769.584" cy="541.407" r="4" fill="#0" id="circle233"/>
	<circle cx="772.227" cy="691.176" r="4" fill="#0" id="circle234"/>
	<circle cx="777.513" cy="545.812" r="4" fill="#0" id="circle235"/>
	<circle cx="779.275" cy="696.462" r="4" fill="#0" id="circle236"/>
	<circle cx="784.561" cy="703.51" r="4" fill="#0" id="circle237"/>
	<circle cx="785.442" cy="550.217" r="4" fill="#0" id="circle238"/>
	<circle cx="791.609" cy="709.677" r="4" fill="#0" id="circle239"/>
	<circle cx="793.371" cy="554.622" r="4" fill="#0" id="circle240"/>
	<circle cx="799.538" cy="714.082" r="4" fill="#0" id="circle241"/>
	<circle cx="800.419" cy="559.908" r="4" fill="#0" id="circle242"/>
	<circle cx="807.467" cy="718.487" r="4" fill="#0" id="circle243"/>
	<circle cx="808.348" cy="564.313" r="4" fill="#0" id="circle244"/>
	<circle cx="815.396" cy="722.892" r="4" fill="#0" id="circle245"/>
	<circle cx="817.158" cy="567.837" r="4" fill="#0" id="circle246"/>
	<circle cx="823.325" cy="727.297" r="4" fill="#0" id="circle247"/>
	<circle cx="825.087" cy="572.242" r="4" fill="#0" id="circle248"/>
	<circle cx="828.611" cy="734.345" r="4" fill="#0" id="circle249"/>
	<circle cx="832.135" cy="578.409" r="4" fill="#0" id="circle250"/>
	<circle cx="837.421" cy="585.456" r="4" fill="#0" id="circle251"/>
	<circle cx="837.421" cy="737.869" r="4" fill="#0" id="circle252"/>
	<circle cx="845.35" cy="589.861" r="4" fill="#0" id="circle253"/>
	<circle cx="845.35" cy="742.274" r="4" fill="#0" id="circle254"/>
	<circle cx="853.279" cy="594.266" r="4" fill="#0" id="circle255"/>
	<circle cx="854.16" cy="744.917" r="4" fill="#0" id="circle256"/>
	<circle cx="861.208" cy="598.671" r="4" fill="#0" id="circle257"/>
	<circle cx="862.089" cy="749.321" r="4" fill="#0" id="circle258"/>
	<circle cx="867.375" cy="605.719" r="4" fill="#0" id="circle259"/>
	<circle cx="870.018" cy="753.726" r="4" fill="#0" id="circle260"/>
	<circle cx="876.185" cy="609.243" r="4" fill="#0" id="circle261"/>
	<circle cx="877.947" cy="758.131" r="4" fill="#0" id="circle262"/>
	<circle cx="881.471" cy="616.291" r="4" fill="#0" id="circle263"/>
	<circle cx="885.876" cy="762.536" r="4" fill="#0" id="circle264"/>
	<circle cx="889.4" cy="620.696" r="4" fill="#0" id="circle265"/>
	<circle cx="893.805" cy="766.941" r="4" fill="#0" id="circle266"/>
	<circle cx="897.329" cy="625.101" r="4" fill="#0" id="circle267"/>
	<circle cx="902.615" cy="766.941" r="4" fill="#0" id="circle268"/>
	<circle cx="905.258" cy="629.506" r="4" fill="#0" id="circle269"/>
	<circle cx="910.544" cy="771.346" r="4" fill="#0" id="circle270"/>
	<circle cx="913.187" cy="633.911" r="4" fill="#0" id="circle271"/>
	<circle cx="919.353" cy="771.346" r="4" fill="#0" id="circle272"/>
	<circle cx="921.115" cy="638.316" r="4" fill="#0" id="circle273"/>
	<circle cx="928.163" cy="771.346" r="4" fill="#0" id="circle274"/>
	<circle cx="929.925" cy="640.959" r="4" fill="#0" id="circle275"/>
	<circle cx="936.973" cy="769.584" r="4" fill="#0" id="circle276"/>
	<circle cx="937.854" cy="645.364" r="4" fill="#0" id="circle277"/>
	<circle cx="945.783" cy="766.941" r="4" fill="#0" id="circle278"/>
	<circle cx="946.664" cy="648.888" r="4" fill="#0" id="circle279"/>
	<circle cx="951.95" cy="655.936" r="4" fill="#0" id="circle280"/>
	<circle cx="954.593" cy="765.179" r="4" fill="#0" id="circle281"/>
	<circle cx="959.879" cy="660.341" r="4" fill="#0" id="circle282"/>
	<circle cx="963.403" cy="760.774" r="4" fill="#0" id="circle283"/>
	<circle cx="966.927" cy="665.627" r="4" fill="#0" id="circle284"/>
	<circle cx="969.57" cy="753.726" r="4" fill="#0" id="circle285"/>
	<circle cx="973.975" cy="671.794" r="4" fill="#0" id="circle286"/>
	<circle cx="976.618" cy="747.56" r="4" fill="#0" id="circle287"/>
	<circle cx="980.142" cy="678.842" r="4" fill="#0" id="circle288"/>
	<circle cx="982.785" cy="740.512" r="4" fill="#0" id="circle289"/>
	<circle cx="987.19" cy="685.009" r="4" fill="#0" id="circle290"/>
	<circle cx="989.833" cy="734.345" r="4" fill="#0" id="circle291"/>
	<circle cx="991.595" cy="692.938" r="4" fill="#0" id="circle292"/>
	<circle cx="994.238" cy="725.535" r="4" fill="#0" id="circle293"/>
	<circle cx="996" cy="700.867" r="4" fill="#0" id="circle294"/>
	<circle cx="996" cy="709.677" r="4" fill="#0" id="circle295"/>
	</g>
</svg>