<?xml version="1.0" encoding="UTF-8" standalone="no"?>
<!-- Created with CurveBenchmark -->
<svg
	xmlns:dc="http://purl.org/dc/elements/1.1/"
	xmlns:cc="http://creativecommons.org/ns#"
	xmlns:rdf="http://www.w3.org/1999/02/22-rdf-syntax-ns#"
	xmlns:svg="http://www.w3.org/2000/svg"
	xmlns="http://www.w3.org/2000/svg"
	xmlns:sodipodi="http://sodipodi.sourceforge.net/DTD/sodipodi-0.dtd"
	xmlns:inkscape="http://www.inkscape.org/namespaces/inkscape"
	width="1000"
	height="1000"
	id="svg2"
	version="1.1"
	sodipodi:docname="manifold/hnncrust-brick-20.png.txt">
<defs
	id="defs4" />
<metadata
	id="metadata7">
	<rdf:RDF>
		<cc:Work
			rdf:about="">
			<dc:format>image/svg+xml</dc:format>
			<dc:type
				rdf:resource="http://purl.org/dc/dcmitype/StillImage" />
			<dc:title></dc:title>
		</cc:Work>
	</rdf:RDF>
</metadata>
<g
	inkscape:label="Layer 1"
	inkscape:groupmode="layer"
	id="layer1">
	<path style="fill:none;stroke:red;stroke-width:1px;stroke-linecap:butt;stroke-linejoin:miter;stroke-opacity:1" d="M 4,209.591 4,218.81 z" id="boundary" inkscape:connector-curvature="0" />
	<path style="fill:none;stroke:red;stroke-width:1px;stroke-linecap:butt;stroke-linejoin:miter;stroke-opacity:1" d="M 4,209.591 11.3755,202.216 z" id="boundary" inkscape:connector-curvature="0" />
	<path style="fill:none;stroke:red;stroke-width:1px;stroke-linecap:butt;stroke-linejoin:miter;stroke-opacity:1" d="M 4,218.81 4,228.03 z" id="boundary" inkscape:connector-curvature="0" />
	<path style="fill:none;stroke:red;stroke-width:1px;stroke-linecap:butt;stroke-linejoin:miter;stroke-opacity:1" d="M 4,228.03 4,237.249 z" id="boundary" inkscape:connector-curvature="0" />
	<path style="fill:none;stroke:red;stroke-width:1px;stroke-linecap:butt;stroke-linejoin:miter;stroke-opacity:1" d="M 4,237.249 4,246.468 z" id="boundary" inkscape:connector-curvature="0" />
	<path style="fill:none;stroke:red;stroke-width:1px;stroke-linecap:butt;stroke-linejoin:miter;stroke-opacity:1" d="M 4,246.468 4,255.688 z" id="boundary" inkscape:connector-curvature="0" />
	<path style="fill:none;stroke:red;stroke-width:1px;stroke-linecap:butt;stroke-linejoin:miter;stroke-opacity:1" d="M 4,255.688 8.60967,263.985 z" id="boundary" inkscape:connector-curvature="0" />
	<path style="fill:none;stroke:red;stroke-width:1px;stroke-linecap:butt;stroke-linejoin:miter;stroke-opacity:1" d="M 8.60967,263.985 15.0632,271.361 z" id="boundary" inkscape:connector-curvature="0" />
	<path style="fill:none;stroke:red;stroke-width:1px;stroke-linecap:butt;stroke-linejoin:miter;stroke-opacity:1" d="M 11.3755,202.216 19.6729,197.606 z" id="boundary" inkscape:connector-curvature="0" />
	<path style="fill:none;stroke:red;stroke-width:1px;stroke-linecap:butt;stroke-linejoin:miter;stroke-opacity:1" d="M 15.0632,271.361 24.2825,272.283 z" id="boundary" inkscape:connector-curvature="0" />
	<path style="fill:none;stroke:red;stroke-width:1px;stroke-linecap:butt;stroke-linejoin:miter;stroke-opacity:1" d="M 19.6729,197.606 28.8922,193.918 z" id="boundary" inkscape:connector-curvature="0" />
	<path style="fill:none;stroke:red;stroke-width:1px;stroke-linecap:butt;stroke-linejoin:miter;stroke-opacity:1" d="M 24.2825,272.283 33.5019,272.283 z" id="boundary" inkscape:connector-curvature="0" />
	<path style="fill:none;stroke:red;stroke-width:1px;stroke-linecap:butt;stroke-linejoin:miter;stroke-opacity:1" d="M 28.8922,193.918 38.1115,189.309 z" id="boundary" inkscape:connector-curvature="0" />
	<path style="fill:none;stroke:red;stroke-width:1px;stroke-linecap:butt;stroke-linejoin:miter;stroke-opacity:1" d="M 33.5019,272.283 42.7212,272.283 z" id="boundary" inkscape:connector-curvature="0" />
	<path style="fill:none;stroke:red;stroke-width:1px;stroke-linecap:butt;stroke-linejoin:miter;stroke-opacity:1" d="M 38.1115,189.309 47.3309,184.699 z" id="boundary" inkscape:connector-curvature="0" />
	<path style="fill:none;stroke:red;stroke-width:1px;stroke-linecap:butt;stroke-linejoin:miter;stroke-opacity:1" d="M 42.7212,272.283 51.9405,272.283 z" id="boundary" inkscape:connector-curvature="0" />
	<path style="fill:none;stroke:red;stroke-width:1px;stroke-linecap:butt;stroke-linejoin:miter;stroke-opacity:1" d="M 47.3309,184.699 54.7063,177.323 z" id="boundary" inkscape:connector-curvature="0" />
	<path style="fill:none;stroke:red;stroke-width:1px;stroke-linecap:butt;stroke-linejoin:miter;stroke-opacity:1" d="M 51.9405,272.283 61.1599,272.283 z" id="boundary" inkscape:connector-curvature="0" />
	<path style="fill:none;stroke:red;stroke-width:1px;stroke-linecap:butt;stroke-linejoin:miter;stroke-opacity:1" d="M 54.7063,177.323 62.0818,169.948 z" id="boundary" inkscape:connector-curvature="0" />
	<path style="fill:none;stroke:red;stroke-width:1px;stroke-linecap:butt;stroke-linejoin:miter;stroke-opacity:1" d="M 61.1599,272.283 69.4572,267.673 z" id="boundary" inkscape:connector-curvature="0" />
	<path style="fill:none;stroke:red;stroke-width:1px;stroke-linecap:butt;stroke-linejoin:miter;stroke-opacity:1" d="M 62.0818,169.948 70.3792,165.338 z" id="boundary" inkscape:connector-curvature="0" />
	<path style="fill:none;stroke:red;stroke-width:1px;stroke-linecap:butt;stroke-linejoin:miter;stroke-opacity:1" d="M 69.4572,267.673 78.6766,267.673 z" id="boundary" inkscape:connector-curvature="0" />
	<path style="fill:none;stroke:red;stroke-width:1px;stroke-linecap:butt;stroke-linejoin:miter;stroke-opacity:1" d="M 70.3792,165.338 78.6766,160.729 z" id="boundary" inkscape:connector-curvature="0" />
	<path style="fill:none;stroke:red;stroke-width:1px;stroke-linecap:butt;stroke-linejoin:miter;stroke-opacity:1" d="M 78.6766,160.729 86.974,154.275 z" id="boundary" inkscape:connector-curvature="0" />
	<path style="fill:none;stroke:red;stroke-width:1px;stroke-linecap:butt;stroke-linejoin:miter;stroke-opacity:1" d="M 78.6766,267.673 87.8959,267.673 z" id="boundary" inkscape:connector-curvature="0" />
	<path style="fill:none;stroke:red;stroke-width:1px;stroke-linecap:butt;stroke-linejoin:miter;stroke-opacity:1" d="M 86.974,20.5948 86.974,29.8141 z" id="boundary" inkscape:connector-curvature="0" />
	<path style="fill:none;stroke:red;stroke-width:1px;stroke-linecap:butt;stroke-linejoin:miter;stroke-opacity:1" d="M 86.974,20.5948 94.3494,13.2193 z" id="boundary" inkscape:connector-curvature="0" />
	<path style="fill:none;stroke:red;stroke-width:1px;stroke-linecap:butt;stroke-linejoin:miter;stroke-opacity:1" d="M 86.974,29.8141 86.974,39.0335 z" id="boundary" inkscape:connector-curvature="0" />
	<path style="fill:none;stroke:red;stroke-width:1px;stroke-linecap:butt;stroke-linejoin:miter;stroke-opacity:1" d="M 86.974,39.0335 91.5836,47.3309 z" id="boundary" inkscape:connector-curvature="0" />
	<path style="fill:none;stroke:red;stroke-width:1px;stroke-linecap:butt;stroke-linejoin:miter;stroke-opacity:1" d="M 86.974,154.275 94.3494,146.9 z" id="boundary" inkscape:connector-curvature="0" />
	<path style="fill:none;stroke:red;stroke-width:1px;stroke-linecap:butt;stroke-linejoin:miter;stroke-opacity:1" d="M 87.8959,267.673 97.1152,267.673 z" id="boundary" inkscape:connector-curvature="0" />
	<path style="fill:none;stroke:red;stroke-width:1px;stroke-linecap:butt;stroke-linejoin:miter;stroke-opacity:1" d="M 91.5836,47.3309 96.1933,55.6283 z" id="boundary" inkscape:connector-curvature="0" />
	<path style="fill:none;stroke:red;stroke-width:1px;stroke-linecap:butt;stroke-linejoin:miter;stroke-opacity:1" d="M 94.3494,13.2193 102.647,8.60967 z" id="boundary" inkscape:connector-curvature="0" />
	<path style="fill:none;stroke:red;stroke-width:1px;stroke-linecap:butt;stroke-linejoin:miter;stroke-opacity:1" d="M 94.3494,146.9 103.569,142.29 z" id="boundary" inkscape:connector-curvature="0" />
	<path style="fill:none;stroke:red;stroke-width:1px;stroke-linecap:butt;stroke-linejoin:miter;stroke-opacity:1" d="M 96.1933,55.6283 100.803,63.9257 z" id="boundary" inkscape:connector-curvature="0" />
	<path style="fill:none;stroke:red;stroke-width:1px;stroke-linecap:butt;stroke-linejoin:miter;stroke-opacity:1" d="M 97.1152,267.673 106.335,267.673 z" id="boundary" inkscape:connector-curvature="0" />
	<path style="fill:none;stroke:red;stroke-width:1px;stroke-linecap:butt;stroke-linejoin:miter;stroke-opacity:1" d="M 100.803,63.9257 102.647,73.145 z" id="boundary" inkscape:connector-curvature="0" />
	<path style="fill:none;stroke:red;stroke-width:1px;stroke-linecap:butt;stroke-linejoin:miter;stroke-opacity:1" d="M 102.647,8.60967 111.866,8.60967 z" id="boundary" inkscape:connector-curvature="0" />
	<path style="fill:none;stroke:red;stroke-width:1px;stroke-linecap:butt;stroke-linejoin:miter;stroke-opacity:1" d="M 102.647,73.145 105.413,82.3643 z" id="boundary" inkscape:connector-curvature="0" />
	<path style="fill:none;stroke:red;stroke-width:1px;stroke-linecap:butt;stroke-linejoin:miter;stroke-opacity:1" d="M 103.569,142.29 111.866,137.68 z" id="boundary" inkscape:connector-curvature="0" />
	<path style="fill:none;stroke:red;stroke-width:1px;stroke-linecap:butt;stroke-linejoin:miter;stroke-opacity:1" d="M 105.413,82.3643 107.257,91.5836 z" id="boundary" inkscape:connector-curvature="0" />
	<path style="fill:none;stroke:red;stroke-width:1px;stroke-linecap:butt;stroke-linejoin:miter;stroke-opacity:1" d="M 106.335,267.673 115.554,267.673 z" id="boundary" inkscape:connector-curvature="0" />
	<path style="fill:none;stroke:red;stroke-width:1px;stroke-linecap:butt;stroke-linejoin:miter;stroke-opacity:1" d="M 107.257,91.5836 111.866,99.881 z" id="boundary" inkscape:connector-curvature="0" />
	<path style="fill:none;stroke:red;stroke-width:1px;stroke-linecap:butt;stroke-linejoin:miter;stroke-opacity:1" d="M 111.866,8.60967 121.086,8.60967 z" id="boundary" inkscape:connector-curvature="0" />
	<path style="fill:none;stroke:red;stroke-width:1px;stroke-linecap:butt;stroke-linejoin:miter;stroke-opacity:1" d="M 111.866,99.881 119.242,106.335 z" id="boundary" inkscape:connector-curvature="0" />
	<path style="fill:none;stroke:red;stroke-width:1px;stroke-linecap:butt;stroke-linejoin:miter;stroke-opacity:1" d="M 111.866,137.68 119.242,131.227 z" id="boundary" inkscape:connector-curvature="0" />
	<path style="fill:none;stroke:red;stroke-width:1px;stroke-linecap:butt;stroke-linejoin:miter;stroke-opacity:1" d="M 115.554,267.673 124.773,267.673 z" id="boundary" inkscape:connector-curvature="0" />
	<path style="fill:none;stroke:red;stroke-width:1px;stroke-linecap:butt;stroke-linejoin:miter;stroke-opacity:1" d="M 119.242,106.335 123.851,114.632 z" id="boundary" inkscape:connector-curvature="0" />
	<path style="fill:none;stroke:red;stroke-width:1px;stroke-linecap:butt;stroke-linejoin:miter;stroke-opacity:1" d="M 119.242,131.227 123.851,114.632 z" id="boundary" inkscape:connector-curvature="0" />
	<path style="fill:none;stroke:red;stroke-width:1px;stroke-linecap:butt;stroke-linejoin:miter;stroke-opacity:1" d="M 121.086,8.60967 130.305,8.60967 z" id="boundary" inkscape:connector-curvature="0" />
	<path style="fill:none;stroke:red;stroke-width:1px;stroke-linecap:butt;stroke-linejoin:miter;stroke-opacity:1" d="M 124.773,267.673 133.993,267.673 z" id="boundary" inkscape:connector-curvature="0" />
	<path style="fill:none;stroke:red;stroke-width:1px;stroke-linecap:butt;stroke-linejoin:miter;stroke-opacity:1" d="M 130.305,8.60967 139.524,8.60967 z" id="boundary" inkscape:connector-curvature="0" />
	<path style="fill:none;stroke:red;stroke-width:1px;stroke-linecap:butt;stroke-linejoin:miter;stroke-opacity:1" d="M 133.993,267.673 143.212,267.673 z" id="boundary" inkscape:connector-curvature="0" />
	<path style="fill:none;stroke:red;stroke-width:1px;stroke-linecap:butt;stroke-linejoin:miter;stroke-opacity:1" d="M 139.524,8.60967 148.743,8.60967 z" id="boundary" inkscape:connector-curvature="0" />
	<path style="fill:none;stroke:red;stroke-width:1px;stroke-linecap:butt;stroke-linejoin:miter;stroke-opacity:1" d="M 143.212,267.673 152.431,267.673 z" id="boundary" inkscape:connector-curvature="0" />
	<path style="fill:none;stroke:red;stroke-width:1px;stroke-linecap:butt;stroke-linejoin:miter;stroke-opacity:1" d="M 148.743,8.60967 157.963,8.60967 z" id="boundary" inkscape:connector-curvature="0" />
	<path style="fill:none;stroke:red;stroke-width:1px;stroke-linecap:butt;stroke-linejoin:miter;stroke-opacity:1" d="M 152.431,267.673 161.651,267.673 z" id="boundary" inkscape:connector-curvature="0" />
	<path style="fill:none;stroke:red;stroke-width:1px;stroke-linecap:butt;stroke-linejoin:miter;stroke-opacity:1" d="M 157.963,8.60967 167.182,8.60967 z" id="boundary" inkscape:connector-curvature="0" />
	<path style="fill:none;stroke:red;stroke-width:1px;stroke-linecap:butt;stroke-linejoin:miter;stroke-opacity:1" d="M 161.651,267.673 170.87,267.673 z" id="boundary" inkscape:connector-curvature="0" />
	<path style="fill:none;stroke:red;stroke-width:1px;stroke-linecap:butt;stroke-linejoin:miter;stroke-opacity:1" d="M 167.182,8.60967 176.401,8.60967 z" id="boundary" inkscape:connector-curvature="0" />
	<path style="fill:none;stroke:red;stroke-width:1px;stroke-linecap:butt;stroke-linejoin:miter;stroke-opacity:1" d="M 170.87,267.673 179.167,272.283 z" id="boundary" inkscape:connector-curvature="0" />
	<path style="fill:none;stroke:red;stroke-width:1px;stroke-linecap:butt;stroke-linejoin:miter;stroke-opacity:1" d="M 176.401,8.60967 185.621,8.60967 z" id="boundary" inkscape:connector-curvature="0" />
	<path style="fill:none;stroke:red;stroke-width:1px;stroke-linecap:butt;stroke-linejoin:miter;stroke-opacity:1" d="M 179.167,272.283 188.387,272.283 z" id="boundary" inkscape:connector-curvature="0" />
	<path style="fill:none;stroke:red;stroke-width:1px;stroke-linecap:butt;stroke-linejoin:miter;stroke-opacity:1" d="M 185.621,8.60967 194.84,8.60967 z" id="boundary" inkscape:connector-curvature="0" />
	<path style="fill:none;stroke:red;stroke-width:1px;stroke-linecap:butt;stroke-linejoin:miter;stroke-opacity:1" d="M 188.387,272.283 196.684,276.892 z" id="boundary" inkscape:connector-curvature="0" />
	<path style="fill:none;stroke:red;stroke-width:1px;stroke-linecap:butt;stroke-linejoin:miter;stroke-opacity:1" d="M 194.84,8.60967 204.059,8.60967 z" id="boundary" inkscape:connector-curvature="0" />
	<path style="fill:none;stroke:red;stroke-width:1px;stroke-linecap:butt;stroke-linejoin:miter;stroke-opacity:1" d="M 196.684,276.892 205.903,276.892 z" id="boundary" inkscape:connector-curvature="0" />
	<path style="fill:none;stroke:red;stroke-width:1px;stroke-linecap:butt;stroke-linejoin:miter;stroke-opacity:1" d="M 204.059,8.60967 213.279,8.60967 z" id="boundary" inkscape:connector-curvature="0" />
	<path style="fill:none;stroke:red;stroke-width:1px;stroke-linecap:butt;stroke-linejoin:miter;stroke-opacity:1" d="M 205.903,276.892 215.123,276.892 z" id="boundary" inkscape:connector-curvature="0" />
	<path style="fill:none;stroke:red;stroke-width:1px;stroke-linecap:butt;stroke-linejoin:miter;stroke-opacity:1" d="M 213.279,8.60967 222.498,8.60967 z" id="boundary" inkscape:connector-curvature="0" />
	<path style="fill:none;stroke:red;stroke-width:1px;stroke-linecap:butt;stroke-linejoin:miter;stroke-opacity:1" d="M 215.123,276.892 223.42,281.502 z" id="boundary" inkscape:connector-curvature="0" />
	<path style="fill:none;stroke:red;stroke-width:1px;stroke-linecap:butt;stroke-linejoin:miter;stroke-opacity:1" d="M 222.498,8.60967 231.717,8.60967 z" id="boundary" inkscape:connector-curvature="0" />
	<path style="fill:none;stroke:red;stroke-width:1px;stroke-linecap:butt;stroke-linejoin:miter;stroke-opacity:1" d="M 223.42,281.502 231.717,286.112 z" id="boundary" inkscape:connector-curvature="0" />
	<path style="fill:none;stroke:red;stroke-width:1px;stroke-linecap:butt;stroke-linejoin:miter;stroke-opacity:1" d="M 231.717,8.60967 240.015,4 z" id="boundary" inkscape:connector-curvature="0" />
	<path style="fill:none;stroke:red;stroke-width:1px;stroke-linecap:butt;stroke-linejoin:miter;stroke-opacity:1" d="M 231.717,286.112 239.093,291.643 z" id="boundary" inkscape:connector-curvature="0" />
	<path style="fill:none;stroke:red;stroke-width:1px;stroke-linecap:butt;stroke-linejoin:miter;stroke-opacity:1" d="M 239.093,291.643 248.312,295.331 z" id="boundary" inkscape:connector-curvature="0" />
	<path style="fill:none;stroke:red;stroke-width:1px;stroke-linecap:butt;stroke-linejoin:miter;stroke-opacity:1" d="M 240.015,4 249.234,4 z" id="boundary" inkscape:connector-curvature="0" />
	<path style="fill:none;stroke:red;stroke-width:1px;stroke-linecap:butt;stroke-linejoin:miter;stroke-opacity:1" d="M 248.312,295.331 256.61,299.941 z" id="boundary" inkscape:connector-curvature="0" />
	<path style="fill:none;stroke:red;stroke-width:1px;stroke-linecap:butt;stroke-linejoin:miter;stroke-opacity:1" d="M 249.234,4 258.454,4 z" id="boundary" inkscape:connector-curvature="0" />
	<path style="fill:none;stroke:red;stroke-width:1px;stroke-linecap:butt;stroke-linejoin:miter;stroke-opacity:1" d="M 256.61,299.941 264.907,304.55 z" id="boundary" inkscape:connector-curvature="0" />
	<path style="fill:none;stroke:red;stroke-width:1px;stroke-linecap:butt;stroke-linejoin:miter;stroke-opacity:1" d="M 258.454,4 267.673,4 z" id="boundary" inkscape:connector-curvature="0" />
	<path style="fill:none;stroke:red;stroke-width:1px;stroke-linecap:butt;stroke-linejoin:miter;stroke-opacity:1" d="M 264.907,304.55 273.204,309.16 z" id="boundary" inkscape:connector-curvature="0" />
	<path style="fill:none;stroke:red;stroke-width:1px;stroke-linecap:butt;stroke-linejoin:miter;stroke-opacity:1" d="M 267.673,4 276.892,4 z" id="boundary" inkscape:connector-curvature="0" />
	<path style="fill:none;stroke:red;stroke-width:1px;stroke-linecap:butt;stroke-linejoin:miter;stroke-opacity:1" d="M 273.204,309.16 282.424,311.926 z" id="boundary" inkscape:connector-curvature="0" />
	<path style="fill:none;stroke:red;stroke-width:1px;stroke-linecap:butt;stroke-linejoin:miter;stroke-opacity:1" d="M 276.892,4 286.112,4 z" id="boundary" inkscape:connector-curvature="0" />
	<path style="fill:none;stroke:red;stroke-width:1px;stroke-linecap:butt;stroke-linejoin:miter;stroke-opacity:1" d="M 282.424,311.926 291.643,313.77 z" id="boundary" inkscape:connector-curvature="0" />
	<path style="fill:none;stroke:red;stroke-width:1px;stroke-linecap:butt;stroke-linejoin:miter;stroke-opacity:1" d="M 286.112,4 294.409,8.60967 z" id="boundary" inkscape:connector-curvature="0" />
	<path style="fill:none;stroke:red;stroke-width:1px;stroke-linecap:butt;stroke-linejoin:miter;stroke-opacity:1" d="M 291.643,313.77 299.941,318.379 z" id="boundary" inkscape:connector-curvature="0" />
	<path style="fill:none;stroke:red;stroke-width:1px;stroke-linecap:butt;stroke-linejoin:miter;stroke-opacity:1" d="M 294.409,8.60967 303.628,10.4535 z" id="boundary" inkscape:connector-curvature="0" />
	<path style="fill:none;stroke:red;stroke-width:1px;stroke-linecap:butt;stroke-linejoin:miter;stroke-opacity:1" d="M 299.941,318.379 308.238,322.989 z" id="boundary" inkscape:connector-curvature="0" />
	<path style="fill:none;stroke:red;stroke-width:1px;stroke-linecap:butt;stroke-linejoin:miter;stroke-opacity:1" d="M 303.628,10.4535 311.926,15.0632 z" id="boundary" inkscape:connector-curvature="0" />
	<path style="fill:none;stroke:red;stroke-width:1px;stroke-linecap:butt;stroke-linejoin:miter;stroke-opacity:1" d="M 308.238,322.989 317.457,322.989 z" id="boundary" inkscape:connector-curvature="0" />
	<path style="fill:none;stroke:red;stroke-width:1px;stroke-linecap:butt;stroke-linejoin:miter;stroke-opacity:1" d="M 311.926,15.0632 321.145,18.7509 z" id="boundary" inkscape:connector-curvature="0" />
	<path style="fill:none;stroke:red;stroke-width:1px;stroke-linecap:butt;stroke-linejoin:miter;stroke-opacity:1" d="M 317.457,322.989 326.677,322.989 z" id="boundary" inkscape:connector-curvature="0" />
	<path style="fill:none;stroke:red;stroke-width:1px;stroke-linecap:butt;stroke-linejoin:miter;stroke-opacity:1" d="M 321.145,18.7509 329.442,23.3606 z" id="boundary" inkscape:connector-curvature="0" />
	<path style="fill:none;stroke:red;stroke-width:1px;stroke-linecap:butt;stroke-linejoin:miter;stroke-opacity:1" d="M 326.677,322.989 335.896,322.989 z" id="boundary" inkscape:connector-curvature="0" />
	<path style="fill:none;stroke:red;stroke-width:1px;stroke-linecap:butt;stroke-linejoin:miter;stroke-opacity:1" d="M 329.442,23.3606 336.818,29.8141 z" id="boundary" inkscape:connector-curvature="0" />
	<path style="fill:none;stroke:red;stroke-width:1px;stroke-linecap:butt;stroke-linejoin:miter;stroke-opacity:1" d="M 335.896,322.989 345.115,322.989 z" id="boundary" inkscape:connector-curvature="0" />
	<path style="fill:none;stroke:red;stroke-width:1px;stroke-linecap:butt;stroke-linejoin:miter;stroke-opacity:1" d="M 336.818,29.8141 345.115,34.4238 z" id="boundary" inkscape:connector-curvature="0" />
	<path style="fill:none;stroke:red;stroke-width:1px;stroke-linecap:butt;stroke-linejoin:miter;stroke-opacity:1" d="M 345.115,34.4238 354.335,38.1115 z" id="boundary" inkscape:connector-curvature="0" />
	<path style="fill:none;stroke:red;stroke-width:1px;stroke-linecap:butt;stroke-linejoin:miter;stroke-opacity:1" d="M 345.115,322.989 354.335,322.989 z" id="boundary" inkscape:connector-curvature="0" />
	<path style="fill:none;stroke:red;stroke-width:1px;stroke-linecap:butt;stroke-linejoin:miter;stroke-opacity:1" d="M 354.335,38.1115 362.632,42.7212 z" id="boundary" inkscape:connector-curvature="0" />
	<path style="fill:none;stroke:red;stroke-width:1px;stroke-linecap:butt;stroke-linejoin:miter;stroke-opacity:1" d="M 354.335,322.989 363.554,322.989 z" id="boundary" inkscape:connector-curvature="0" />
	<path style="fill:none;stroke:red;stroke-width:1px;stroke-linecap:butt;stroke-linejoin:miter;stroke-opacity:1" d="M 362.632,42.7212 371.851,46.4089 z" id="boundary" inkscape:connector-curvature="0" />
	<path style="fill:none;stroke:red;stroke-width:1px;stroke-linecap:butt;stroke-linejoin:miter;stroke-opacity:1" d="M 363.554,322.989 372.773,322.989 z" id="boundary" inkscape:connector-curvature="0" />
	<path style="fill:none;stroke:red;stroke-width:1px;stroke-linecap:butt;stroke-linejoin:miter;stroke-opacity:1" d="M 371.851,46.4089 380.149,51.0186 z" id="boundary" inkscape:connector-curvature="0" />
	<path style="fill:none;stroke:red;stroke-width:1px;stroke-linecap:butt;stroke-linejoin:miter;stroke-opacity:1" d="M 372.773,322.989 381.993,322.989 z" id="boundary" inkscape:connector-curvature="0" />
	<path style="fill:none;stroke:red;stroke-width:1px;stroke-linecap:butt;stroke-linejoin:miter;stroke-opacity:1" d="M 380.149,51.0186 389.368,54.7063 z" id="boundary" inkscape:connector-curvature="0" />
	<path style="fill:none;stroke:red;stroke-width:1px;stroke-linecap:butt;stroke-linejoin:miter;stroke-opacity:1" d="M 381.993,322.989 391.212,322.989 z" id="boundary" inkscape:connector-curvature="0" />
	<path style="fill:none;stroke:red;stroke-width:1px;stroke-linecap:butt;stroke-linejoin:miter;stroke-opacity:1" d="M 389.368,54.7063 398.587,54.7063 z" id="boundary" inkscape:connector-curvature="0" />
	<path style="fill:none;stroke:red;stroke-width:1px;stroke-linecap:butt;stroke-linejoin:miter;stroke-opacity:1" d="M 391.212,322.989 400.431,322.989 z" id="boundary" inkscape:connector-curvature="0" />
	<path style="fill:none;stroke:red;stroke-width:1px;stroke-linecap:butt;stroke-linejoin:miter;stroke-opacity:1" d="M 398.587,54.7063 407.807,54.7063 z" id="boundary" inkscape:connector-curvature="0" />
	<path style="fill:none;stroke:red;stroke-width:1px;stroke-linecap:butt;stroke-linejoin:miter;stroke-opacity:1" d="M 400.431,322.989 409.651,322.989 z" id="boundary" inkscape:connector-curvature="0" />
	<path style="fill:none;stroke:red;stroke-width:1px;stroke-linecap:butt;stroke-linejoin:miter;stroke-opacity:1" d="M 407.807,54.7063 417.026,54.7063 z" id="boundary" inkscape:connector-curvature="0" />
	<path style="fill:none;stroke:red;stroke-width:1px;stroke-linecap:butt;stroke-linejoin:miter;stroke-opacity:1" d="M 409.651,322.989 418.87,322.989 z" id="boundary" inkscape:connector-curvature="0" />
	<path style="fill:none;stroke:red;stroke-width:1px;stroke-linecap:butt;stroke-linejoin:miter;stroke-opacity:1" d="M 417.026,54.7063 426.245,54.7063 z" id="boundary" inkscape:connector-curvature="0" />
	<path style="fill:none;stroke:red;stroke-width:1px;stroke-linecap:butt;stroke-linejoin:miter;stroke-opacity:1" d="M 418.87,322.989 428.089,322.989 z" id="boundary" inkscape:connector-curvature="0" />
	<path style="fill:none;stroke:red;stroke-width:1px;stroke-linecap:butt;stroke-linejoin:miter;stroke-opacity:1" d="M 426.245,54.7063 435.465,54.7063 z" id="boundary" inkscape:connector-curvature="0" />
	<path style="fill:none;stroke:red;stroke-width:1px;stroke-linecap:butt;stroke-linejoin:miter;stroke-opacity:1" d="M 428.089,322.989 437.309,322.989 z" id="boundary" inkscape:connector-curvature="0" />
	<path style="fill:none;stroke:red;stroke-width:1px;stroke-linecap:butt;stroke-linejoin:miter;stroke-opacity:1" d="M 435.465,54.7063 443.762,50.0967 z" id="boundary" inkscape:connector-curvature="0" />
	<path style="fill:none;stroke:red;stroke-width:1px;stroke-linecap:butt;stroke-linejoin:miter;stroke-opacity:1" d="M 437.309,322.989 445.606,318.379 z" id="boundary" inkscape:connector-curvature="0" />
	<path style="fill:none;stroke:red;stroke-width:1px;stroke-linecap:butt;stroke-linejoin:miter;stroke-opacity:1" d="M 443.762,50.0967 452.981,50.0967 z" id="boundary" inkscape:connector-curvature="0" />
	<path style="fill:none;stroke:red;stroke-width:1px;stroke-linecap:butt;stroke-linejoin:miter;stroke-opacity:1" d="M 445.606,318.379 454.825,316.535 z" id="boundary" inkscape:connector-curvature="0" />
	<path style="fill:none;stroke:red;stroke-width:1px;stroke-linecap:butt;stroke-linejoin:miter;stroke-opacity:1" d="M 452.981,50.0967 462.201,50.0967 z" id="boundary" inkscape:connector-curvature="0" />
	<path style="fill:none;stroke:red;stroke-width:1px;stroke-linecap:butt;stroke-linejoin:miter;stroke-opacity:1" d="M 454.825,316.535 464.045,313.77 z" id="boundary" inkscape:connector-curvature="0" />
	<path style="fill:none;stroke:red;stroke-width:1px;stroke-linecap:butt;stroke-linejoin:miter;stroke-opacity:1" d="M 462.201,50.0967 471.42,50.0967 z" id="boundary" inkscape:connector-curvature="0" />
	<path style="fill:none;stroke:red;stroke-width:1px;stroke-linecap:butt;stroke-linejoin:miter;stroke-opacity:1" d="M 464.045,313.77 473.264,311.926 z" id="boundary" inkscape:connector-curvature="0" />
	<path style="fill:none;stroke:red;stroke-width:1px;stroke-linecap:butt;stroke-linejoin:miter;stroke-opacity:1" d="M 471.42,50.0967 480.639,46.4089 z" id="boundary" inkscape:connector-curvature="0" />
	<path style="fill:none;stroke:red;stroke-width:1px;stroke-linecap:butt;stroke-linejoin:miter;stroke-opacity:1" d="M 473.264,311.926 482.483,309.16 z" id="boundary" inkscape:connector-curvature="0" />
	<path style="fill:none;stroke:red;stroke-width:1px;stroke-linecap:butt;stroke-linejoin:miter;stroke-opacity:1" d="M 480.639,46.4089 489.859,45.487 z" id="boundary" inkscape:connector-curvature="0" />
	<path style="fill:none;stroke:red;stroke-width:1px;stroke-linecap:butt;stroke-linejoin:miter;stroke-opacity:1" d="M 482.483,309.16 491.703,309.16 z" id="boundary" inkscape:connector-curvature="0" />
	<path style="fill:none;stroke:red;stroke-width:1px;stroke-linecap:butt;stroke-linejoin:miter;stroke-opacity:1" d="M 489.859,45.487 499.078,45.487 z" id="boundary" inkscape:connector-curvature="0" />
	<path style="fill:none;stroke:red;stroke-width:1px;stroke-linecap:butt;stroke-linejoin:miter;stroke-opacity:1" d="M 491.703,309.16 500.922,309.16 z" id="boundary" inkscape:connector-curvature="0" />
	<path style="fill:none;stroke:red;stroke-width:1px;stroke-linecap:butt;stroke-linejoin:miter;stroke-opacity:1" d="M 499.078,45.487 508.297,45.487 z" id="boundary" inkscape:connector-curvature="0" />
	<path style="fill:none;stroke:red;stroke-width:1px;stroke-linecap:butt;stroke-linejoin:miter;stroke-opacity:1" d="M 500.922,309.16 510.141,309.16 z" id="boundary" inkscape:connector-curvature="0" />
	<path style="fill:none;stroke:red;stroke-width:1px;stroke-linecap:butt;stroke-linejoin:miter;stroke-opacity:1" d="M 508.297,45.487 517.517,41.7993 z" id="boundary" inkscape:connector-curvature="0" />
	<path style="fill:none;stroke:red;stroke-width:1px;stroke-linecap:butt;stroke-linejoin:miter;stroke-opacity:1" d="M 510.141,309.16 519.361,309.16 z" id="boundary" inkscape:connector-curvature="0" />
	<path style="fill:none;stroke:red;stroke-width:1px;stroke-linecap:butt;stroke-linejoin:miter;stroke-opacity:1" d="M 517.517,41.7993 526.736,40.8773 z" id="boundary" inkscape:connector-curvature="0" />
	<path style="fill:none;stroke:red;stroke-width:1px;stroke-linecap:butt;stroke-linejoin:miter;stroke-opacity:1" d="M 519.361,309.16 528.58,309.16 z" id="boundary" inkscape:connector-curvature="0" />
	<path style="fill:none;stroke:red;stroke-width:1px;stroke-linecap:butt;stroke-linejoin:miter;stroke-opacity:1" d="M 526.736,40.8773 535.955,40.8773 z" id="boundary" inkscape:connector-curvature="0" />
	<path style="fill:none;stroke:red;stroke-width:1px;stroke-linecap:butt;stroke-linejoin:miter;stroke-opacity:1" d="M 528.58,309.16 537.799,309.16 z" id="boundary" inkscape:connector-curvature="0" />
	<path style="fill:none;stroke:red;stroke-width:1px;stroke-linecap:butt;stroke-linejoin:miter;stroke-opacity:1" d="M 535.955,40.8773 545.175,40.8773 z" id="boundary" inkscape:connector-curvature="0" />
	<path style="fill:none;stroke:red;stroke-width:1px;stroke-linecap:butt;stroke-linejoin:miter;stroke-opacity:1" d="M 537.799,309.16 547.019,309.16 z" id="boundary" inkscape:connector-curvature="0" />
	<path style="fill:none;stroke:red;stroke-width:1px;stroke-linecap:butt;stroke-linejoin:miter;stroke-opacity:1" d="M 545.175,40.8773 553.472,36.2677 z" id="boundary" inkscape:connector-curvature="0" />
	<path style="fill:none;stroke:red;stroke-width:1px;stroke-linecap:butt;stroke-linejoin:miter;stroke-opacity:1" d="M 547.019,309.16 556.238,309.16 z" id="boundary" inkscape:connector-curvature="0" />
	<path style="fill:none;stroke:red;stroke-width:1px;stroke-linecap:butt;stroke-linejoin:miter;stroke-opacity:1" d="M 553.472,36.2677 562.691,36.2677 z" id="boundary" inkscape:connector-curvature="0" />
	<path style="fill:none;stroke:red;stroke-width:1px;stroke-linecap:butt;stroke-linejoin:miter;stroke-opacity:1" d="M 556.238,309.16 565.457,309.16 z" id="boundary" inkscape:connector-curvature="0" />
	<path style="fill:none;stroke:red;stroke-width:1px;stroke-linecap:butt;stroke-linejoin:miter;stroke-opacity:1" d="M 562.691,36.2677 571.911,36.2677 z" id="boundary" inkscape:connector-curvature="0" />
	<path style="fill:none;stroke:red;stroke-width:1px;stroke-linecap:butt;stroke-linejoin:miter;stroke-opacity:1" d="M 565.457,309.16 574.677,309.16 z" id="boundary" inkscape:connector-curvature="0" />
	<path style="fill:none;stroke:red;stroke-width:1px;stroke-linecap:butt;stroke-linejoin:miter;stroke-opacity:1" d="M 571.911,36.2677 581.13,36.2677 z" id="boundary" inkscape:connector-curvature="0" />
	<path style="fill:none;stroke:red;stroke-width:1px;stroke-linecap:butt;stroke-linejoin:miter;stroke-opacity:1" d="M 574.677,309.16 583.896,309.16 z" id="boundary" inkscape:connector-curvature="0" />
	<path style="fill:none;stroke:red;stroke-width:1px;stroke-linecap:butt;stroke-linejoin:miter;stroke-opacity:1" d="M 581.13,36.2677 590.349,36.2677 z" id="boundary" inkscape:connector-curvature="0" />
	<path style="fill:none;stroke:red;stroke-width:1px;stroke-linecap:butt;stroke-linejoin:miter;stroke-opacity:1" d="M 583.896,309.16 593.115,309.16 z" id="boundary" inkscape:connector-curvature="0" />
	<path style="fill:none;stroke:red;stroke-width:1px;stroke-linecap:butt;stroke-linejoin:miter;stroke-opacity:1" d="M 590.349,36.2677 598.647,31.658 z" id="boundary" inkscape:connector-curvature="0" />
	<path style="fill:none;stroke:red;stroke-width:1px;stroke-linecap:butt;stroke-linejoin:miter;stroke-opacity:1" d="M 593.115,309.16 602.335,309.16 z" id="boundary" inkscape:connector-curvature="0" />
	<path style="fill:none;stroke:red;stroke-width:1px;stroke-linecap:butt;stroke-linejoin:miter;stroke-opacity:1" d="M 598.647,31.658 607.866,31.658 z" id="boundary" inkscape:connector-curvature="0" />
	<path style="fill:none;stroke:red;stroke-width:1px;stroke-linecap:butt;stroke-linejoin:miter;stroke-opacity:1" d="M 602.335,309.16 611.554,309.16 z" id="boundary" inkscape:connector-curvature="0" />
	<path style="fill:none;stroke:red;stroke-width:1px;stroke-linecap:butt;stroke-linejoin:miter;stroke-opacity:1" d="M 607.866,31.658 616.164,27.0483 z" id="boundary" inkscape:connector-curvature="0" />
	<path style="fill:none;stroke:red;stroke-width:1px;stroke-linecap:butt;stroke-linejoin:miter;stroke-opacity:1" d="M 611.554,309.16 620.773,309.16 z" id="boundary" inkscape:connector-curvature="0" />
	<path style="fill:none;stroke:red;stroke-width:1px;stroke-linecap:butt;stroke-linejoin:miter;stroke-opacity:1" d="M 616.164,27.0483 625.383,27.0483 z" id="boundary" inkscape:connector-curvature="0" />
	<path style="fill:none;stroke:red;stroke-width:1px;stroke-linecap:butt;stroke-linejoin:miter;stroke-opacity:1" d="M 620.773,309.16 629.993,309.16 z" id="boundary" inkscape:connector-curvature="0" />
	<path style="fill:none;stroke:red;stroke-width:1px;stroke-linecap:butt;stroke-linejoin:miter;stroke-opacity:1" d="M 625.383,27.0483 634.602,27.0483 z" id="boundary" inkscape:connector-curvature="0" />
	<path style="fill:none;stroke:red;stroke-width:1px;stroke-linecap:butt;stroke-linejoin:miter;stroke-opacity:1" d="M 629.993,309.16 639.212,309.16 z" id="boundary" inkscape:connector-curvature="0" />
	<path style="fill:none;stroke:red;stroke-width:1px;stroke-linecap:butt;stroke-linejoin:miter;stroke-opacity:1" d="M 634.602,27.0483 643.822,27.0483 z" id="boundary" inkscape:connector-curvature="0" />
	<path style="fill:none;stroke:red;stroke-width:1px;stroke-linecap:butt;stroke-linejoin:miter;stroke-opacity:1" d="M 639.212,309.16 647.509,313.77 z" id="boundary" inkscape:connector-curvature="0" />
	<path style="fill:none;stroke:red;stroke-width:1px;stroke-linecap:butt;stroke-linejoin:miter;stroke-opacity:1" d="M 643.822,27.0483 652.119,22.4387 z" id="boundary" inkscape:connector-curvature="0" />
	<path style="fill:none;stroke:red;stroke-width:1px;stroke-linecap:butt;stroke-linejoin:miter;stroke-opacity:1" d="M 647.509,313.77 656.729,313.77 z" id="boundary" inkscape:connector-curvature="0" />
	<path style="fill:none;stroke:red;stroke-width:1px;stroke-linecap:butt;stroke-linejoin:miter;stroke-opacity:1" d="M 652.119,22.4387 661.338,22.4387 z" id="boundary" inkscape:connector-curvature="0" />
	<path style="fill:none;stroke:red;stroke-width:1px;stroke-linecap:butt;stroke-linejoin:miter;stroke-opacity:1" d="M 656.729,313.77 665.026,318.379 z" id="boundary" inkscape:connector-curvature="0" />
	<path style="fill:none;stroke:red;stroke-width:1px;stroke-linecap:butt;stroke-linejoin:miter;stroke-opacity:1" d="M 661.338,22.4387 670.558,22.4387 z" id="boundary" inkscape:connector-curvature="0" />
	<path style="fill:none;stroke:red;stroke-width:1px;stroke-linecap:butt;stroke-linejoin:miter;stroke-opacity:1" d="M 665.026,318.379 674.245,318.379 z" id="boundary" inkscape:connector-curvature="0" />
	<path style="fill:none;stroke:red;stroke-width:1px;stroke-linecap:butt;stroke-linejoin:miter;stroke-opacity:1" d="M 670.558,22.4387 679.777,22.4387 z" id="boundary" inkscape:connector-curvature="0" />
	<path style="fill:none;stroke:red;stroke-width:1px;stroke-linecap:butt;stroke-linejoin:miter;stroke-opacity:1" d="M 674.245,318.379 681.621,323.911 z" id="boundary" inkscape:connector-curvature="0" />
	<path style="fill:none;stroke:red;stroke-width:1px;stroke-linecap:butt;stroke-linejoin:miter;stroke-opacity:1" d="M 679.777,22.4387 688.074,27.0483 z" id="boundary" inkscape:connector-curvature="0" />
	<path style="fill:none;stroke:red;stroke-width:1px;stroke-linecap:butt;stroke-linejoin:miter;stroke-opacity:1" d="M 681.621,323.911 690.84,327.599 z" id="boundary" inkscape:connector-curvature="0" />
	<path style="fill:none;stroke:red;stroke-width:1px;stroke-linecap:butt;stroke-linejoin:miter;stroke-opacity:1" d="M 688.074,27.0483 695.45,33.5019 z" id="boundary" inkscape:connector-curvature="0" />
	<path style="fill:none;stroke:red;stroke-width:1px;stroke-linecap:butt;stroke-linejoin:miter;stroke-opacity:1" d="M 690.84,327.599 696.372,334.974 z" id="boundary" inkscape:connector-curvature="0" />
	<path style="fill:none;stroke:red;stroke-width:1px;stroke-linecap:butt;stroke-linejoin:miter;stroke-opacity:1" d="M 695.45,33.5019 700.981,40.8773 z" id="boundary" inkscape:connector-curvature="0" />
	<path style="fill:none;stroke:red;stroke-width:1px;stroke-linecap:butt;stroke-linejoin:miter;stroke-opacity:1" d="M 696.372,334.974 703.747,341.428 z" id="boundary" inkscape:connector-curvature="0" />
	<path style="fill:none;stroke:red;stroke-width:1px;stroke-linecap:butt;stroke-linejoin:miter;stroke-opacity:1" d="M 700.981,40.8773 710.201,43.6431 z" id="boundary" inkscape:connector-curvature="0" />
	<path style="fill:none;stroke:red;stroke-width:1px;stroke-linecap:butt;stroke-linejoin:miter;stroke-opacity:1" d="M 703.747,341.428 710.201,348.803 z" id="boundary" inkscape:connector-curvature="0" />
	<path style="fill:none;stroke:red;stroke-width:1px;stroke-linecap:butt;stroke-linejoin:miter;stroke-opacity:1" d="M 710.201,43.6431 718.498,48.2528 z" id="boundary" inkscape:connector-curvature="0" />
	<path style="fill:none;stroke:red;stroke-width:1px;stroke-linecap:butt;stroke-linejoin:miter;stroke-opacity:1" d="M 710.201,348.803 719.42,352.491 z" id="boundary" inkscape:connector-curvature="0" />
	<path style="fill:none;stroke:red;stroke-width:1px;stroke-linecap:butt;stroke-linejoin:miter;stroke-opacity:1" d="M 718.498,48.2528 727.717,51.9405 z" id="boundary" inkscape:connector-curvature="0" />
	<path style="fill:none;stroke:red;stroke-width:1px;stroke-linecap:butt;stroke-linejoin:miter;stroke-opacity:1" d="M 719.42,352.491 725.874,359.866 z" id="boundary" inkscape:connector-curvature="0" />
	<path style="fill:none;stroke:red;stroke-width:1px;stroke-linecap:butt;stroke-linejoin:miter;stroke-opacity:1" d="M 725.874,359.866 735.093,363.554 z" id="boundary" inkscape:connector-curvature="0" />
	<path style="fill:none;stroke:red;stroke-width:1px;stroke-linecap:butt;stroke-linejoin:miter;stroke-opacity:1" d="M 727.717,51.9405 736.015,56.5502 z" id="boundary" inkscape:connector-curvature="0" />
	<path style="fill:none;stroke:red;stroke-width:1px;stroke-linecap:butt;stroke-linejoin:miter;stroke-opacity:1" d="M 735.093,363.554 743.39,368.164 z" id="boundary" inkscape:connector-curvature="0" />
	<path style="fill:none;stroke:red;stroke-width:1px;stroke-linecap:butt;stroke-linejoin:miter;stroke-opacity:1" d="M 736.015,56.5502 745.234,60.2379 z" id="boundary" inkscape:connector-curvature="0" />
	<path style="fill:none;stroke:red;stroke-width:1px;stroke-linecap:butt;stroke-linejoin:miter;stroke-opacity:1" d="M 743.39,368.164 752.61,369.086 z" id="boundary" inkscape:connector-curvature="0" />
	<path style="fill:none;stroke:red;stroke-width:1px;stroke-linecap:butt;stroke-linejoin:miter;stroke-opacity:1" d="M 745.234,60.2379 753.532,64.8476 z" id="boundary" inkscape:connector-curvature="0" />
	<path style="fill:none;stroke:red;stroke-width:1px;stroke-linecap:butt;stroke-linejoin:miter;stroke-opacity:1" d="M 752.61,369.086 761.829,369.086 z" id="boundary" inkscape:connector-curvature="0" />
	<path style="fill:none;stroke:red;stroke-width:1px;stroke-linecap:butt;stroke-linejoin:miter;stroke-opacity:1" d="M 753.532,64.8476 760.907,71.3011 z" id="boundary" inkscape:connector-curvature="0" />
	<path style="fill:none;stroke:red;stroke-width:1px;stroke-linecap:butt;stroke-linejoin:miter;stroke-opacity:1" d="M 760.907,71.3011 770.126,73.145 z" id="boundary" inkscape:connector-curvature="0" />
	<path style="fill:none;stroke:red;stroke-width:1px;stroke-linecap:butt;stroke-linejoin:miter;stroke-opacity:1" d="M 761.829,369.086 770.126,364.476 z" id="boundary" inkscape:connector-curvature="0" />
	<path style="fill:none;stroke:red;stroke-width:1px;stroke-linecap:butt;stroke-linejoin:miter;stroke-opacity:1" d="M 770.126,73.145 779.346,75.9108 z" id="boundary" inkscape:connector-curvature="0" />
	<path style="fill:none;stroke:red;stroke-width:1px;stroke-linecap:butt;stroke-linejoin:miter;stroke-opacity:1" d="M 770.126,364.476 779.346,364.476 z" id="boundary" inkscape:connector-curvature="0" />
	<path style="fill:none;stroke:red;stroke-width:1px;stroke-linecap:butt;stroke-linejoin:miter;stroke-opacity:1" d="M 779.346,75.9108 787.643,80.5204 z" id="boundary" inkscape:connector-curvature="0" />
	<path style="fill:none;stroke:red;stroke-width:1px;stroke-linecap:butt;stroke-linejoin:miter;stroke-opacity:1" d="M 779.346,364.476 788.565,364.476 z" id="boundary" inkscape:connector-curvature="0" />
	<path style="fill:none;stroke:red;stroke-width:1px;stroke-linecap:butt;stroke-linejoin:miter;stroke-opacity:1" d="M 787.643,80.5204 796.862,84.2082 z" id="boundary" inkscape:connector-curvature="0" />
	<path style="fill:none;stroke:red;stroke-width:1px;stroke-linecap:butt;stroke-linejoin:miter;stroke-opacity:1" d="M 788.565,364.476 797.784,364.476 z" id="boundary" inkscape:connector-curvature="0" />
	<path style="fill:none;stroke:red;stroke-width:1px;stroke-linecap:butt;stroke-linejoin:miter;stroke-opacity:1" d="M 796.862,84.2082 806.082,86.974 z" id="boundary" inkscape:connector-curvature="0" />
	<path style="fill:none;stroke:red;stroke-width:1px;stroke-linecap:butt;stroke-linejoin:miter;stroke-opacity:1" d="M 797.784,364.476 807.004,364.476 z" id="boundary" inkscape:connector-curvature="0" />
	<path style="fill:none;stroke:red;stroke-width:1px;stroke-linecap:butt;stroke-linejoin:miter;stroke-opacity:1" d="M 806.082,86.974 815.301,86.974 z" id="boundary" inkscape:connector-curvature="0" />
	<path style="fill:none;stroke:red;stroke-width:1px;stroke-linecap:butt;stroke-linejoin:miter;stroke-opacity:1" d="M 807.004,364.476 816.223,364.476 z" id="boundary" inkscape:connector-curvature="0" />
	<path style="fill:none;stroke:red;stroke-width:1px;stroke-linecap:butt;stroke-linejoin:miter;stroke-opacity:1" d="M 815.301,86.974 823.599,82.3643 z" id="boundary" inkscape:connector-curvature="0" />
	<path style="fill:none;stroke:red;stroke-width:1px;stroke-linecap:butt;stroke-linejoin:miter;stroke-opacity:1" d="M 816.223,364.476 825.442,364.476 z" id="boundary" inkscape:connector-curvature="0" />
	<path style="fill:none;stroke:red;stroke-width:1px;stroke-linecap:butt;stroke-linejoin:miter;stroke-opacity:1" d="M 823.599,82.3643 831.896,77.7546 z" id="boundary" inkscape:connector-curvature="0" />
	<path style="fill:none;stroke:red;stroke-width:1px;stroke-linecap:butt;stroke-linejoin:miter;stroke-opacity:1" d="M 825.442,364.476 834.662,364.476 z" id="boundary" inkscape:connector-curvature="0" />
	<path style="fill:none;stroke:red;stroke-width:1px;stroke-linecap:butt;stroke-linejoin:miter;stroke-opacity:1" d="M 831.896,77.7546 841.115,77.7546 z" id="boundary" inkscape:connector-curvature="0" />
	<path style="fill:none;stroke:red;stroke-width:1px;stroke-linecap:butt;stroke-linejoin:miter;stroke-opacity:1" d="M 834.662,364.476 843.881,364.476 z" id="boundary" inkscape:connector-curvature="0" />
	<path style="fill:none;stroke:red;stroke-width:1px;stroke-linecap:butt;stroke-linejoin:miter;stroke-opacity:1" d="M 841.115,77.7546 849.413,73.145 z" id="boundary" inkscape:connector-curvature="0" />
	<path style="fill:none;stroke:red;stroke-width:1px;stroke-linecap:butt;stroke-linejoin:miter;stroke-opacity:1" d="M 843.881,364.476 853.1,364.476 z" id="boundary" inkscape:connector-curvature="0" />
	<path style="fill:none;stroke:red;stroke-width:1px;stroke-linecap:butt;stroke-linejoin:miter;stroke-opacity:1" d="M 849.413,73.145 858.632,69.4572 z" id="boundary" inkscape:connector-curvature="0" />
	<path style="fill:none;stroke:red;stroke-width:1px;stroke-linecap:butt;stroke-linejoin:miter;stroke-opacity:1" d="M 853.1,364.476 862.32,364.476 z" id="boundary" inkscape:connector-curvature="0" />
	<path style="fill:none;stroke:red;stroke-width:1px;stroke-linecap:butt;stroke-linejoin:miter;stroke-opacity:1" d="M 858.632,69.4572 867.851,68.5353 z" id="boundary" inkscape:connector-curvature="0" />
	<path style="fill:none;stroke:red;stroke-width:1px;stroke-linecap:butt;stroke-linejoin:miter;stroke-opacity:1" d="M 862.32,364.476 871.539,364.476 z" id="boundary" inkscape:connector-curvature="0" />
	<path style="fill:none;stroke:red;stroke-width:1px;stroke-linecap:butt;stroke-linejoin:miter;stroke-opacity:1" d="M 867.851,68.5353 877.071,64.8476 z" id="boundary" inkscape:connector-curvature="0" />
	<path style="fill:none;stroke:red;stroke-width:1px;stroke-linecap:butt;stroke-linejoin:miter;stroke-opacity:1" d="M 871.539,364.476 880.758,359.866 z" id="boundary" inkscape:connector-curvature="0" />
	<path style="fill:none;stroke:red;stroke-width:1px;stroke-linecap:butt;stroke-linejoin:miter;stroke-opacity:1" d="M 877.071,64.8476 886.29,60.2379 z" id="boundary" inkscape:connector-curvature="0" />
	<path style="fill:none;stroke:red;stroke-width:1px;stroke-linecap:butt;stroke-linejoin:miter;stroke-opacity:1" d="M 880.758,359.866 889.978,359.866 z" id="boundary" inkscape:connector-curvature="0" />
	<path style="fill:none;stroke:red;stroke-width:1px;stroke-linecap:butt;stroke-linejoin:miter;stroke-opacity:1" d="M 885.368,249.234 887.212,258.454 z" id="boundary" inkscape:connector-curvature="0" />
	<path style="fill:none;stroke:red;stroke-width:1px;stroke-linecap:butt;stroke-linejoin:miter;stroke-opacity:1" d="M 885.368,249.234 892.743,242.781 z" id="boundary" inkscape:connector-curvature="0" />
	<path style="fill:none;stroke:red;stroke-width:1px;stroke-linecap:butt;stroke-linejoin:miter;stroke-opacity:1" d="M 886.29,60.2379 895.509,59.316 z" id="boundary" inkscape:connector-curvature="0" />
	<path style="fill:none;stroke:red;stroke-width:1px;stroke-linecap:butt;stroke-linejoin:miter;stroke-opacity:1" d="M 887.212,258.454 894.587,264.907 z" id="boundary" inkscape:connector-curvature="0" />
	<path style="fill:none;stroke:red;stroke-width:1px;stroke-linecap:butt;stroke-linejoin:miter;stroke-opacity:1" d="M 889.978,359.866 899.197,359.866 z" id="boundary" inkscape:connector-curvature="0" />
	<path style="fill:none;stroke:red;stroke-width:1px;stroke-linecap:butt;stroke-linejoin:miter;stroke-opacity:1" d="M 892.743,242.781 899.197,235.405 z" id="boundary" inkscape:connector-curvature="0" />
	<path style="fill:none;stroke:red;stroke-width:1px;stroke-linecap:butt;stroke-linejoin:miter;stroke-opacity:1" d="M 894.587,264.907 898.275,274.126 z" id="boundary" inkscape:connector-curvature="0" />
	<path style="fill:none;stroke:red;stroke-width:1px;stroke-linecap:butt;stroke-linejoin:miter;stroke-opacity:1" d="M 895.509,59.316 904.729,59.316 z" id="boundary" inkscape:connector-curvature="0" />
	<path style="fill:none;stroke:red;stroke-width:1px;stroke-linecap:butt;stroke-linejoin:miter;stroke-opacity:1" d="M 898.275,274.126 902.885,282.424 z" id="boundary" inkscape:connector-curvature="0" />
	<path style="fill:none;stroke:red;stroke-width:1px;stroke-linecap:butt;stroke-linejoin:miter;stroke-opacity:1" d="M 899.197,235.405 906.572,228.952 z" id="boundary" inkscape:connector-curvature="0" />
	<path style="fill:none;stroke:red;stroke-width:1px;stroke-linecap:butt;stroke-linejoin:miter;stroke-opacity:1" d="M 899.197,359.866 908.416,359.866 z" id="boundary" inkscape:connector-curvature="0" />
	<path style="fill:none;stroke:red;stroke-width:1px;stroke-linecap:butt;stroke-linejoin:miter;stroke-opacity:1" d="M 902.885,282.424 903.807,291.643 z" id="boundary" inkscape:connector-curvature="0" />
	<path style="fill:none;stroke:red;stroke-width:1px;stroke-linecap:butt;stroke-linejoin:miter;stroke-opacity:1" d="M 903.807,291.643 908.416,299.941 z" id="boundary" inkscape:connector-curvature="0" />
	<path style="fill:none;stroke:red;stroke-width:1px;stroke-linecap:butt;stroke-linejoin:miter;stroke-opacity:1" d="M 904.729,59.316 913.026,54.7063 z" id="boundary" inkscape:connector-curvature="0" />
	<path style="fill:none;stroke:red;stroke-width:1px;stroke-linecap:butt;stroke-linejoin:miter;stroke-opacity:1" d="M 906.572,228.952 913.026,221.576 z" id="boundary" inkscape:connector-curvature="0" />
	<path style="fill:none;stroke:red;stroke-width:1px;stroke-linecap:butt;stroke-linejoin:miter;stroke-opacity:1" d="M 908.416,299.941 913.026,308.238 z" id="boundary" inkscape:connector-curvature="0" />
	<path style="fill:none;stroke:red;stroke-width:1px;stroke-linecap:butt;stroke-linejoin:miter;stroke-opacity:1" d="M 908.416,359.866 916.714,355.257 z" id="boundary" inkscape:connector-curvature="0" />
	<path style="fill:none;stroke:red;stroke-width:1px;stroke-linecap:butt;stroke-linejoin:miter;stroke-opacity:1" d="M 913.026,54.7063 922.245,51.9405 z" id="boundary" inkscape:connector-curvature="0" />
	<path style="fill:none;stroke:red;stroke-width:1px;stroke-linecap:butt;stroke-linejoin:miter;stroke-opacity:1" d="M 913.026,221.576 920.401,215.123 z" id="boundary" inkscape:connector-curvature="0" />
	<path style="fill:none;stroke:red;stroke-width:1px;stroke-linecap:butt;stroke-linejoin:miter;stroke-opacity:1" d="M 913.026,308.238 917.636,316.535 z" id="boundary" inkscape:connector-curvature="0" />
	<path style="fill:none;stroke:red;stroke-width:1px;stroke-linecap:butt;stroke-linejoin:miter;stroke-opacity:1" d="M 916.714,355.257 925.933,352.491 z" id="boundary" inkscape:connector-curvature="0" />
	<path style="fill:none;stroke:red;stroke-width:1px;stroke-linecap:butt;stroke-linejoin:miter;stroke-opacity:1" d="M 917.636,316.535 922.245,324.833 z" id="boundary" inkscape:connector-curvature="0" />
	<path style="fill:none;stroke:red;stroke-width:1px;stroke-linecap:butt;stroke-linejoin:miter;stroke-opacity:1" d="M 920.401,215.123 926.855,207.747 z" id="boundary" inkscape:connector-curvature="0" />
	<path style="fill:none;stroke:red;stroke-width:1px;stroke-linecap:butt;stroke-linejoin:miter;stroke-opacity:1" d="M 922.245,51.9405 931.465,50.0967 z" id="boundary" inkscape:connector-curvature="0" />
	<path style="fill:none;stroke:red;stroke-width:1px;stroke-linecap:butt;stroke-linejoin:miter;stroke-opacity:1" d="M 922.245,324.833 926.855,333.13 z" id="boundary" inkscape:connector-curvature="0" />
	<path style="fill:none;stroke:red;stroke-width:1px;stroke-linecap:butt;stroke-linejoin:miter;stroke-opacity:1" d="M 925.933,352.491 930.543,343.271 z" id="boundary" inkscape:connector-curvature="0" />
	<path style="fill:none;stroke:red;stroke-width:1px;stroke-linecap:butt;stroke-linejoin:miter;stroke-opacity:1" d="M 926.855,207.747 934.23,201.294 z" id="boundary" inkscape:connector-curvature="0" />
	<path style="fill:none;stroke:red;stroke-width:1px;stroke-linecap:butt;stroke-linejoin:miter;stroke-opacity:1" d="M 926.855,333.13 930.543,343.271 z" id="boundary" inkscape:connector-curvature="0" />
	<path style="fill:none;stroke:red;stroke-width:1px;stroke-linecap:butt;stroke-linejoin:miter;stroke-opacity:1" d="M 931.465,50.0967 939.762,45.487 z" id="boundary" inkscape:connector-curvature="0" />
	<path style="fill:none;stroke:red;stroke-width:1px;stroke-linecap:butt;stroke-linejoin:miter;stroke-opacity:1" d="M 934.23,201.294 940.684,193.918 z" id="boundary" inkscape:connector-curvature="0" />
	<path style="fill:none;stroke:red;stroke-width:1px;stroke-linecap:butt;stroke-linejoin:miter;stroke-opacity:1" d="M 939.762,45.487 948.981,45.487 z" id="boundary" inkscape:connector-curvature="0" />
	<path style="fill:none;stroke:red;stroke-width:1px;stroke-linecap:butt;stroke-linejoin:miter;stroke-opacity:1" d="M 940.684,193.918 948.059,187.465 z" id="boundary" inkscape:connector-curvature="0" />
	<path style="fill:none;stroke:red;stroke-width:1px;stroke-linecap:butt;stroke-linejoin:miter;stroke-opacity:1" d="M 948.059,187.465 954.513,180.089 z" id="boundary" inkscape:connector-curvature="0" />
	<path style="fill:none;stroke:red;stroke-width:1px;stroke-linecap:butt;stroke-linejoin:miter;stroke-opacity:1" d="M 948.981,45.487 958.201,47.3309 z" id="boundary" inkscape:connector-curvature="0" />
	<path style="fill:none;stroke:red;stroke-width:1px;stroke-linecap:butt;stroke-linejoin:miter;stroke-opacity:1" d="M 954.513,180.089 961.888,173.636 z" id="boundary" inkscape:connector-curvature="0" />
	<path style="fill:none;stroke:red;stroke-width:1px;stroke-linecap:butt;stroke-linejoin:miter;stroke-opacity:1" d="M 958.201,47.3309 961.888,56.5502 z" id="boundary" inkscape:connector-curvature="0" />
	<path style="fill:none;stroke:red;stroke-width:1px;stroke-linecap:butt;stroke-linejoin:miter;stroke-opacity:1" d="M 961.888,56.5502 968.342,63.9257 z" id="boundary" inkscape:connector-curvature="0" />
	<path style="fill:none;stroke:red;stroke-width:1px;stroke-linecap:butt;stroke-linejoin:miter;stroke-opacity:1" d="M 961.888,173.636 966.498,164.416 z" id="boundary" inkscape:connector-curvature="0" />
	<path style="fill:none;stroke:red;stroke-width:1px;stroke-linecap:butt;stroke-linejoin:miter;stroke-opacity:1" d="M 966.498,164.416 972.952,157.041 z" id="boundary" inkscape:connector-curvature="0" />
	<path style="fill:none;stroke:red;stroke-width:1px;stroke-linecap:butt;stroke-linejoin:miter;stroke-opacity:1" d="M 968.342,63.9257 972.952,72.223 z" id="boundary" inkscape:connector-curvature="0" />
	<path style="fill:none;stroke:red;stroke-width:1px;stroke-linecap:butt;stroke-linejoin:miter;stroke-opacity:1" d="M 972.952,72.223 977.561,80.5204 z" id="boundary" inkscape:connector-curvature="0" />
	<path style="fill:none;stroke:red;stroke-width:1px;stroke-linecap:butt;stroke-linejoin:miter;stroke-opacity:1" d="M 972.952,157.041 980.327,150.587 z" id="boundary" inkscape:connector-curvature="0" />
	<path style="fill:none;stroke:red;stroke-width:1px;stroke-linecap:butt;stroke-linejoin:miter;stroke-opacity:1" d="M 977.561,80.5204 984.015,87.8959 z" id="boundary" inkscape:connector-curvature="0" />
	<path style="fill:none;stroke:red;stroke-width:1px;stroke-linecap:butt;stroke-linejoin:miter;stroke-opacity:1" d="M 980.327,150.587 986.781,138.602 z" id="boundary" inkscape:connector-curvature="0" />
	<path style="fill:none;stroke:red;stroke-width:1px;stroke-linecap:butt;stroke-linejoin:miter;stroke-opacity:1" d="M 984.015,87.8959 988.625,96.1933 z" id="boundary" inkscape:connector-curvature="0" />
	<path style="fill:none;stroke:red;stroke-width:1px;stroke-linecap:butt;stroke-linejoin:miter;stroke-opacity:1" d="M 986.781,138.602 991.39,129.383 z" id="boundary" inkscape:connector-curvature="0" />
	<path style="fill:none;stroke:red;stroke-width:1px;stroke-linecap:butt;stroke-linejoin:miter;stroke-opacity:1" d="M 988.625,96.1933 991.39,105.413 z" id="boundary" inkscape:connector-curvature="0" />
	<path style="fill:none;stroke:red;stroke-width:1px;stroke-linecap:butt;stroke-linejoin:miter;stroke-opacity:1" d="M 991.39,105.413 996,113.71 z" id="boundary" inkscape:connector-curvature="0" />
	<path style="fill:none;stroke:red;stroke-width:1px;stroke-linecap:butt;stroke-linejoin:miter;stroke-opacity:1" d="M 991.39,129.383 996,113.71 z" id="boundary" inkscape:connector-curvature="0" />
	<circle cx="4" cy="209.591" r="4" fill="#0" id="circle0"/>
	<circle cx="4" cy="218.81" r="4" fill="#0" id="circle1"/>
	<circle cx="4" cy="228.03" r="4" fill="#0" id="circle2"/>
	<circle cx="4" cy="237.249" r="4" fill="#0" id="circle3"/>
	<circle cx="4" cy="246.468" r="4" fill="#0" id="circle4"/>
	<circle cx="4" cy="255.688" r="4" fill="#0" id="circle5"/>
	<circle cx="8.60967" cy="263.985" r="4" fill="#0" id="circle6"/>
	<circle cx="11.3755" cy="202.216" r="4" fill="#0" id="circle7"/>
	<circle cx="15.0632" cy="271.361" r="4" fill="#0" id="circle8"/>
	<circle cx="19.6729" cy="197.606" r="4" fill="#0" id="circle9"/>
	<circle cx="24.2825" cy="272.283" r="4" fill="#0" id="circle10"/>
	<circle cx="28.8922" cy="193.918" r="4" fill="#0" id="circle11"/>
	<circle cx="33.5019" cy="272.283" r="4" fill="#0" id="circle12"/>
	<circle cx="38.1115" cy="189.309" r="4" fill="#0" id="circle13"/>
	<circle cx="42.7212" cy="272.283" r="4" fill="#0" id="circle14"/>
	<circle cx="47.3309" cy="184.699" r="4" fill="#0" id="circle15"/>
	<circle cx="51.9405" cy="272.283" r="4" fill="#0" id="circle16"/>
	<circle cx="54.7063" cy="177.323" r="4" fill="#0" id="circle17"/>
	<circle cx="61.1599" cy="272.283" r="4" fill="#0" id="circle18"/>
	<circle cx="62.0818" cy="169.948" r="4" fill="#0" id="circle19"/>
	<circle cx="69.4572" cy="267.673" r="4" fill="#0" id="circle20"/>
	<circle cx="70.3792" cy="165.338" r="4" fill="#0" id="circle21"/>
	<circle cx="78.6766" cy="160.729" r="4" fill="#0" id="circle22"/>
	<circle cx="78.6766" cy="267.673" r="4" fill="#0" id="circle23"/>
	<circle cx="86.974" cy="20.5948" r="4" fill="#0" id="circle24"/>
	<circle cx="86.974" cy="29.8141" r="4" fill="#0" id="circle25"/>
	<circle cx="86.974" cy="39.0335" r="4" fill="#0" id="circle26"/>
	<circle cx="86.974" cy="154.275" r="4" fill="#0" id="circle27"/>
	<circle cx="87.8959" cy="267.673" r="4" fill="#0" id="circle28"/>
	<circle cx="91.5836" cy="47.3309" r="4" fill="#0" id="circle29"/>
	<circle cx="94.3494" cy="13.2193" r="4" fill="#0" id="circle30"/>
	<circle cx="94.3494" cy="146.9" r="4" fill="#0" id="circle31"/>
	<circle cx="96.1933" cy="55.6283" r="4" fill="#0" id="circle32"/>
	<circle cx="97.1152" cy="267.673" r="4" fill="#0" id="circle33"/>
	<circle cx="100.803" cy="63.9257" r="4" fill="#0" id="circle34"/>
	<circle cx="102.647" cy="8.60967" r="4" fill="#0" id="circle35"/>
	<circle cx="102.647" cy="73.145" r="4" fill="#0" id="circle36"/>
	<circle cx="103.569" cy="142.29" r="4" fill="#0" id="circle37"/>
	<circle cx="105.413" cy="82.3643" r="4" fill="#0" id="circle38"/>
	<circle cx="106.335" cy="267.673" r="4" fill="#0" id="circle39"/>
	<circle cx="107.257" cy="91.5836" r="4" fill="#0" id="circle40"/>
	<circle cx="111.866" cy="8.60967" r="4" fill="#0" id="circle41"/>
	<circle cx="111.866" cy="99.881" r="4" fill="#0" id="circle42"/>
	<circle cx="111.866" cy="137.68" r="4" fill="#0" id="circle43"/>
	<circle cx="115.554" cy="267.673" r="4" fill="#0" id="circle44"/>
	<circle cx="119.242" cy="106.335" r="4" fill="#0" id="circle45"/>
	<circle cx="119.242" cy="131.227" r="4" fill="#0" id="circle46"/>
	<circle cx="121.086" cy="8.60967" r="4" fill="#0" id="circle47"/>
	<circle cx="123.851" cy="114.632" r="4" fill="#0" id="circle48"/>
	<circle cx="124.773" cy="267.673" r="4" fill="#0" id="circle49"/>
	<circle cx="130.305" cy="8.60967" r="4" fill="#0" id="circle50"/>
	<circle cx="133.993" cy="267.673" r="4" fill="#0" id="circle51"/>
	<circle cx="139.524" cy="8.60967" r="4" fill="#0" id="circle52"/>
	<circle cx="143.212" cy="267.673" r="4" fill="#0" id="circle53"/>
	<circle cx="148.743" cy="8.60967" r="4" fill="#0" id="circle54"/>
	<circle cx="152.431" cy="267.673" r="4" fill="#0" id="circle55"/>
	<circle cx="157.963" cy="8.60967" r="4" fill="#0" id="circle56"/>
	<circle cx="161.651" cy="267.673" r="4" fill="#0" id="circle57"/>
	<circle cx="167.182" cy="8.60967" r="4" fill="#0" id="circle58"/>
	<circle cx="170.87" cy="267.673" r="4" fill="#0" id="circle59"/>
	<circle cx="176.401" cy="8.60967" r="4" fill="#0" id="circle60"/>
	<circle cx="179.167" cy="272.283" r="4" fill="#0" id="circle61"/>
	<circle cx="185.621" cy="8.60967" r="4" fill="#0" id="circle62"/>
	<circle cx="188.387" cy="272.283" r="4" fill="#0" id="circle63"/>
	<circle cx="194.84" cy="8.60967" r="4" fill="#0" id="circle64"/>
	<circle cx="196.684" cy="276.892" r="4" fill="#0" id="circle65"/>
	<circle cx="204.059" cy="8.60967" r="4" fill="#0" id="circle66"/>
	<circle cx="205.903" cy="276.892" r="4" fill="#0" id="circle67"/>
	<circle cx="213.279" cy="8.60967" r="4" fill="#0" id="circle68"/>
	<circle cx="215.123" cy="276.892" r="4" fill="#0" id="circle69"/>
	<circle cx="222.498" cy="8.60967" r="4" fill="#0" id="circle70"/>
	<circle cx="223.42" cy="281.502" r="4" fill="#0" id="circle71"/>
	<circle cx="231.717" cy="8.60967" r="4" fill="#0" id="circle72"/>
	<circle cx="231.717" cy="286.112" r="4" fill="#0" id="circle73"/>
	<circle cx="239.093" cy="291.643" r="4" fill="#0" id="circle74"/>
	<circle cx="240.015" cy="4" r="4" fill="#0" id="circle75"/>
	<circle cx="248.312" cy="295.331" r="4" fill="#0" id="circle76"/>
	<circle cx="249.234" cy="4" r="4" fill="#0" id="circle77"/>
	<circle cx="256.61" cy="299.941" r="4" fill="#0" id="circle78"/>
	<circle cx="258.454" cy="4" r="4" fill="#0" id="circle79"/>
	<circle cx="264.907" cy="304.55" r="4" fill="#0" id="circle80"/>
	<circle cx="267.673" cy="4" r="4" fill="#0" id="circle81"/>
	<circle cx="273.204" cy="309.16" r="4" fill="#0" id="circle82"/>
	<circle cx="276.892" cy="4" r="4" fill="#0" id="circle83"/>
	<circle cx="282.424" cy="311.926" r="4" fill="#0" id="circle84"/>
	<circle cx="286.112" cy="4" r="4" fill="#0" id="circle85"/>
	<circle cx="291.643" cy="313.77" r="4" fill="#0" id="circle86"/>
	<circle cx="294.409" cy="8.60967" r="4" fill="#0" id="circle87"/>
	<circle cx="299.941" cy="318.379" r="4" fill="#0" id="circle88"/>
	<circle cx="303.628" cy="10.4535" r="4" fill="#0" id="circle89"/>
	<circle cx="308.238" cy="322.989" r="4" fill="#0" id="circle90"/>
	<circle cx="311.926" cy="15.0632" r="4" fill="#0" id="circle91"/>
	<circle cx="317.457" cy="322.989" r="4" fill="#0" id="circle92"/>
	<circle cx="321.145" cy="18.7509" r="4" fill="#0" id="circle93"/>
	<circle cx="326.677" cy="322.989" r="4" fill="#0" id="circle94"/>
	<circle cx="329.442" cy="23.3606" r="4" fill="#0" id="circle95"/>
	<circle cx="335.896" cy="322.989" r="4" fill="#0" id="circle96"/>
	<circle cx="336.818" cy="29.8141" r="4" fill="#0" id="circle97"/>
	<circle cx="345.115" cy="34.4238" r="4" fill="#0" id="circle98"/>
	<circle cx="345.115" cy="322.989" r="4" fill="#0" id="circle99"/>
	<circle cx="354.335" cy="38.1115" r="4" fill="#0" id="circle100"/>
	<circle cx="354.335" cy="322.989" r="4" fill="#0" id="circle101"/>
	<circle cx="362.632" cy="42.7212" r="4" fill="#0" id="circle102"/>
	<circle cx="363.554" cy="322.989" r="4" fill="#0" id="circle103"/>
	<circle cx="371.851" cy="46.4089" r="4" fill="#0" id="circle104"/>
	<circle cx="372.773" cy="322.989" r="4" fill="#0" id="circle105"/>
	<circle cx="380.149" cy="51.0186" r="4" fill="#0" id="circle106"/>
	<circle cx="381.993" cy="322.989" r="4" fill="#0" id="circle107"/>
	<circle cx="389.368" cy="54.7063" r="4" fill="#0" id="circle108"/>
	<circle cx="391.212" cy="322.989" r="4" fill="#0" id="circle109"/>
	<circle cx="398.587" cy="54.7063" r="4" fill="#0" id="circle110"/>
	<circle cx="400.431" cy="322.989" r="4" fill="#0" id="circle111"/>
	<circle cx="407.807" cy="54.7063" r="4" fill="#0" id="circle112"/>
	<circle cx="409.651" cy="322.989" r="4" fill="#0" id="circle113"/>
	<circle cx="417.026" cy="54.7063" r="4" fill="#0" id="circle114"/>
	<circle cx="418.87" cy="322.989" r="4" fill="#0" id="circle115"/>
	<circle cx="426.245" cy="54.7063" r="4" fill="#0" id="circle116"/>
	<circle cx="428.089" cy="322.989" r="4" fill="#0" id="circle117"/>
	<circle cx="435.465" cy="54.7063" r="4" fill="#0" id="circle118"/>
	<circle cx="437.309" cy="322.989" r="4" fill="#0" id="circle119"/>
	<circle cx="443.762" cy="50.0967" r="4" fill="#0" id="circle120"/>
	<circle cx="445.606" cy="318.379" r="4" fill="#0" id="circle121"/>
	<circle cx="452.981" cy="50.0967" r="4" fill="#0" id="circle122"/>
	<circle cx="454.825" cy="316.535" r="4" fill="#0" id="circle123"/>
	<circle cx="462.201" cy="50.0967" r="4" fill="#0" id="circle124"/>
	<circle cx="464.045" cy="313.77" r="4" fill="#0" id="circle125"/>
	<circle cx="471.42" cy="50.0967" r="4" fill="#0" id="circle126"/>
	<circle cx="473.264" cy="311.926" r="4" fill="#0" id="circle127"/>
	<circle cx="480.639" cy="46.4089" r="4" fill="#0" id="circle128"/>
	<circle cx="482.483" cy="309.16" r="4" fill="#0" id="circle129"/>
	<circle cx="489.859" cy="45.487" r="4" fill="#0" id="circle130"/>
	<circle cx="491.703" cy="309.16" r="4" fill="#0" id="circle131"/>
	<circle cx="499.078" cy="45.487" r="4" fill="#0" id="circle132"/>
	<circle cx="500.922" cy="309.16" r="4" fill="#0" id="circle133"/>
	<circle cx="508.297" cy="45.487" r="4" fill="#0" id="circle134"/>
	<circle cx="510.141" cy="309.16" r="4" fill="#0" id="circle135"/>
	<circle cx="517.517" cy="41.7993" r="4" fill="#0" id="circle136"/>
	<circle cx="519.361" cy="309.16" r="4" fill="#0" id="circle137"/>
	<circle cx="526.736" cy="40.8773" r="4" fill="#0" id="circle138"/>
	<circle cx="528.58" cy="309.16" r="4" fill="#0" id="circle139"/>
	<circle cx="535.955" cy="40.8773" r="4" fill="#0" id="circle140"/>
	<circle cx="537.799" cy="309.16" r="4" fill="#0" id="circle141"/>
	<circle cx="545.175" cy="40.8773" r="4" fill="#0" id="circle142"/>
	<circle cx="547.019" cy="309.16" r="4" fill="#0" id="circle143"/>
	<circle cx="553.472" cy="36.2677" r="4" fill="#0" id="circle144"/>
	<circle cx="556.238" cy="309.16" r="4" fill="#0" id="circle145"/>
	<circle cx="562.691" cy="36.2677" r="4" fill="#0" id="circle146"/>
	<circle cx="565.457" cy="309.16" r="4" fill="#0" id="circle147"/>
	<circle cx="571.911" cy="36.2677" r="4" fill="#0" id="circle148"/>
	<circle cx="574.677" cy="309.16" r="4" fill="#0" id="circle149"/>
	<circle cx="581.13" cy="36.2677" r="4" fill="#0" id="circle150"/>
	<circle cx="583.896" cy="309.16" r="4" fill="#0" id="circle151"/>
	<circle cx="590.349" cy="36.2677" r="4" fill="#0" id="circle152"/>
	<circle cx="593.115" cy="309.16" r="4" fill="#0" id="circle153"/>
	<circle cx="598.647" cy="31.658" r="4" fill="#0" id="circle154"/>
	<circle cx="602.335" cy="309.16" r="4" fill="#0" id="circle155"/>
	<circle cx="607.866" cy="31.658" r="4" fill="#0" id="circle156"/>
	<circle cx="611.554" cy="309.16" r="4" fill="#0" id="circle157"/>
	<circle cx="616.164" cy="27.0483" r="4" fill="#0" id="circle158"/>
	<circle cx="620.773" cy="309.16" r="4" fill="#0" id="circle159"/>
	<circle cx="625.383" cy="27.0483" r="4" fill="#0" id="circle160"/>
	<circle cx="629.993" cy="309.16" r="4" fill="#0" id="circle161"/>
	<circle cx="634.602" cy="27.0483" r="4" fill="#0" id="circle162"/>
	<circle cx="639.212" cy="309.16" r="4" fill="#0" id="circle163"/>
	<circle cx="643.822" cy="27.0483" r="4" fill="#0" id="circle164"/>
	<circle cx="647.509" cy="313.77" r="4" fill="#0" id="circle165"/>
	<circle cx="652.119" cy="22.4387" r="4" fill="#0" id="circle166"/>
	<circle cx="656.729" cy="313.77" r="4" fill="#0" id="circle167"/>
	<circle cx="661.338" cy="22.4387" r="4" fill="#0" id="circle168"/>
	<circle cx="665.026" cy="318.379" r="4" fill="#0" id="circle169"/>
	<circle cx="670.558" cy="22.4387" r="4" fill="#0" id="circle170"/>
	<circle cx="674.245" cy="318.379" r="4" fill="#0" id="circle171"/>
	<circle cx="679.777" cy="22.4387" r="4" fill="#0" id="circle172"/>
	<circle cx="681.621" cy="323.911" r="4" fill="#0" id="circle173"/>
	<circle cx="688.074" cy="27.0483" r="4" fill="#0" id="circle174"/>
	<circle cx="690.84" cy="327.599" r="4" fill="#0" id="circle175"/>
	<circle cx="695.45" cy="33.5019" r="4" fill="#0" id="circle176"/>
	<circle cx="696.372" cy="334.974" r="4" fill="#0" id="circle177"/>
	<circle cx="700.981" cy="40.8773" r="4" fill="#0" id="circle178"/>
	<circle cx="703.747" cy="341.428" r="4" fill="#0" id="circle179"/>
	<circle cx="710.201" cy="43.6431" r="4" fill="#0" id="circle180"/>
	<circle cx="710.201" cy="348.803" r="4" fill="#0" id="circle181"/>
	<circle cx="718.498" cy="48.2528" r="4" fill="#0" id="circle182"/>
	<circle cx="719.42" cy="352.491" r="4" fill="#0" id="circle183"/>
	<circle cx="725.874" cy="359.866" r="4" fill="#0" id="circle184"/>
	<circle cx="727.717" cy="51.9405" r="4" fill="#0" id="circle185"/>
	<circle cx="735.093" cy="363.554" r="4" fill="#0" id="circle186"/>
	<circle cx="736.015" cy="56.5502" r="4" fill="#0" id="circle187"/>
	<circle cx="743.39" cy="368.164" r="4" fill="#0" id="circle188"/>
	<circle cx="745.234" cy="60.2379" r="4" fill="#0" id="circle189"/>
	<circle cx="752.61" cy="369.086" r="4" fill="#0" id="circle190"/>
	<circle cx="753.532" cy="64.8476" r="4" fill="#0" id="circle191"/>
	<circle cx="760.907" cy="71.3011" r="4" fill="#0" id="circle192"/>
	<circle cx="761.829" cy="369.086" r="4" fill="#0" id="circle193"/>
	<circle cx="770.126" cy="73.145" r="4" fill="#0" id="circle194"/>
	<circle cx="770.126" cy="364.476" r="4" fill="#0" id="circle195"/>
	<circle cx="779.346" cy="75.9108" r="4" fill="#0" id="circle196"/>
	<circle cx="779.346" cy="364.476" r="4" fill="#0" id="circle197"/>
	<circle cx="787.643" cy="80.5204" r="4" fill="#0" id="circle198"/>
	<circle cx="788.565" cy="364.476" r="4" fill="#0" id="circle199"/>
	<circle cx="796.862" cy="84.2082" r="4" fill="#0" id="circle200"/>
	<circle cx="797.784" cy="364.476" r="4" fill="#0" id="circle201"/>
	<circle cx="806.082" cy="86.974" r="4" fill="#0" id="circle202"/>
	<circle cx="807.004" cy="364.476" r="4" fill="#0" id="circle203"/>
	<circle cx="815.301" cy="86.974" r="4" fill="#0" id="circle204"/>
	<circle cx="816.223" cy="364.476" r="4" fill="#0" id="circle205"/>
	<circle cx="823.599" cy="82.3643" r="4" fill="#0" id="circle206"/>
	<circle cx="825.442" cy="364.476" r="4" fill="#0" id="circle207"/>
	<circle cx="831.896" cy="77.7546" r="4" fill="#0" id="circle208"/>
	<circle cx="834.662" cy="364.476" r="4" fill="#0" id="circle209"/>
	<circle cx="841.115" cy="77.7546" r="4" fill="#0" id="circle210"/>
	<circle cx="843.881" cy="364.476" r="4" fill="#0" id="circle211"/>
	<circle cx="849.413" cy="73.145" r="4" fill="#0" id="circle212"/>
	<circle cx="853.1" cy="364.476" r="4" fill="#0" id="circle213"/>
	<circle cx="858.632" cy="69.4572" r="4" fill="#0" id="circle214"/>
	<circle cx="862.32" cy="364.476" r="4" fill="#0" id="circle215"/>
	<circle cx="867.851" cy="68.5353" r="4" fill="#0" id="circle216"/>
	<circle cx="871.539" cy="364.476" r="4" fill="#0" id="circle217"/>
	<circle cx="877.071" cy="64.8476" r="4" fill="#0" id="circle218"/>
	<circle cx="880.758" cy="359.866" r="4" fill="#0" id="circle219"/>
	<circle cx="885.368" cy="249.234" r="4" fill="#0" id="circle220"/>
	<circle cx="886.29" cy="60.2379" r="4" fill="#0" id="circle221"/>
	<circle cx="887.212" cy="258.454" r="4" fill="#0" id="circle222"/>
	<circle cx="889.978" cy="359.866" r="4" fill="#0" id="circle223"/>
	<circle cx="892.743" cy="242.781" r="4" fill="#0" id="circle224"/>
	<circle cx="894.587" cy="264.907" r="4" fill="#0" id="circle225"/>
	<circle cx="895.509" cy="59.316" r="4" fill="#0" id="circle226"/>
	<circle cx="898.275" cy="274.126" r="4" fill="#0" id="circle227"/>
	<circle cx="899.197" cy="235.405" r="4" fill="#0" id="circle228"/>
	<circle cx="899.197" cy="359.866" r="4" fill="#0" id="circle229"/>
	<circle cx="902.885" cy="282.424" r="4" fill="#0" id="circle230"/>
	<circle cx="903.807" cy="291.643" r="4" fill="#0" id="circle231"/>
	<circle cx="904.729" cy="59.316" r="4" fill="#0" id="circle232"/>
	<circle cx="906.572" cy="228.952" r="4" fill="#0" id="circle233"/>
	<circle cx="908.416" cy="299.941" r="4" fill="#0" id="circle234"/>
	<circle cx="908.416" cy="359.866" r="4" fill="#0" id="circle235"/>
	<circle cx="913.026" cy="54.7063" r="4" fill="#0" id="circle236"/>
	<circle cx="913.026" cy="221.576" r="4" fill="#0" id="circle237"/>
	<circle cx="913.026" cy="308.238" r="4" fill="#0" id="circle238"/>
	<circle cx="916.714" cy="355.257" r="4" fill="#0" id="circle239"/>
	<circle cx="917.636" cy="316.535" r="4" fill="#0" id="circle240"/>
	<circle cx="920.401" cy="215.123" r="4" fill="#0" id="circle241"/>
	<circle cx="922.245" cy="51.9405" r="4" fill="#0" id="circle242"/>
	<circle cx="922.245" cy="324.833" r="4" fill="#0" id="circle243"/>
	<circle cx="925.933" cy="352.491" r="4" fill="#0" id="circle244"/>
	<circle cx="926.855" cy="207.747" r="4" fill="#0" id="circle245"/>
	<circle cx="926.855" cy="333.13" r="4" fill="#0" id="circle246"/>
	<circle cx="930.543" cy="343.271" r="4" fill="#0" id="circle247"/>
	<circle cx="931.465" cy="50.0967" r="4" fill="#0" id="circle248"/>
	<circle cx="934.23" cy="201.294" r="4" fill="#0" id="circle249"/>
	<circle cx="939.762" cy="45.487" r="4" fill="#0" id="circle250"/>
	<circle cx="940.684" cy="193.918" r="4" fill="#0" id="circle251"/>
	<circle cx="948.059" cy="187.465" r="4" fill="#0" id="circle252"/>
	<circle cx="948.981" cy="45.487" r="4" fill="#0" id="circle253"/>
	<circle cx="954.513" cy="180.089" r="4" fill="#0" id="circle254"/>
	<circle cx="958.201" cy="47.3309" r="4" fill="#0" id="circle255"/>
	<circle cx="961.888" cy="56.5502" r="4" fill="#0" id="circle256"/>
	<circle cx="961.888" cy="173.636" r="4" fill="#0" id="circle257"/>
	<circle cx="966.498" cy="164.416" r="4" fill="#0" id="circle258"/>
	<circle cx="968.342" cy="63.9257" r="4" fill="#0" id="circle259"/>
	<circle cx="972.952" cy="72.223" r="4" fill="#0" id="circle260"/>
	<circle cx="972.952" cy="157.041" r="4" fill="#0" id="circle261"/>
	<circle cx="977.561" cy="80.5204" r="4" fill="#0" id="circle262"/>
	<circle cx="980.327" cy="150.587" r="4" fill="#0" id="circle263"/>
	<circle cx="984.015" cy="87.8959" r="4" fill="#0" id="circle264"/>
	<circle cx="986.781" cy="138.602" r="4" fill="#0" id="circle265"/>
	<circle cx="988.625" cy="96.1933" r="4" fill="#0" id="circle266"/>
	<circle cx="991.39" cy="105.413" r="4" fill="#0" id="circle267"/>
	<circle cx="991.39" cy="129.383" r="4" fill="#0" id="circle268"/>
	<circle cx="996" cy="113.71" r="4" fill="#0" id="circle269"/>
	</g>
</svg>