<?xml version="1.0" encoding="UTF-8" standalone="no"?>
<!-- Created with CurveBenchmark -->
<svg
	xmlns:dc="http://purl.org/dc/elements/1.1/"
	xmlns:cc="http://creativecommons.org/ns#"
	xmlns:rdf="http://www.w3.org/1999/02/22-rdf-syntax-ns#"
	xmlns:svg="http://www.w3.org/2000/svg"
	xmlns="http://www.w3.org/2000/svg"
	xmlns:sodipodi="http://sodipodi.sourceforge.net/DTD/sodipodi-0.dtd"
	xmlns:inkscape="http://www.inkscape.org/namespaces/inkscape"
	width="1000"
	height="1000"
	id="svg2"
	version="1.1"
	sodipodi:docname="manifold/hnncrust-truck-03.png.txt">
<defs
	id="defs4" />
<metadata
	id="metadata7">
	<rdf:RDF>
		<cc:Work
			rdf:about="">
			<dc:format>image/svg+xml</dc:format>
			<dc:type
				rdf:resource="http://purl.org/dc/dcmitype/StillImage" />
			<dc:title></dc:title>
		</cc:Work>
	</rdf:RDF>
</metadata>
<g
	inkscape:label="Layer 1"
	inkscape:groupmode="layer"
	id="layer1">
	<path style="fill:none;stroke:red;stroke-width:1px;stroke-linecap:butt;stroke-linejoin:miter;stroke-opacity:1" d="M 4,226.736 4,247.36 z" id="boundary" inkscape:connector-curvature="0" />
	<path style="fill:none;stroke:red;stroke-width:1px;stroke-linecap:butt;stroke-linejoin:miter;stroke-opacity:1" d="M 4,226.736 20.499,210.237 z" id="boundary" inkscape:connector-curvature="0" />
	<path style="fill:none;stroke:red;stroke-width:1px;stroke-linecap:butt;stroke-linejoin:miter;stroke-opacity:1" d="M 4,247.36 4,267.983 z" id="boundary" inkscape:connector-curvature="0" />
	<path style="fill:none;stroke:red;stroke-width:1px;stroke-linecap:butt;stroke-linejoin:miter;stroke-opacity:1" d="M 4,267.983 14.3119,286.545 z" id="boundary" inkscape:connector-curvature="0" />
	<path style="fill:none;stroke:red;stroke-width:1px;stroke-linecap:butt;stroke-linejoin:miter;stroke-opacity:1" d="M 14.3119,286.545 24.6237,305.106 z" id="boundary" inkscape:connector-curvature="0" />
	<path style="fill:none;stroke:red;stroke-width:1px;stroke-linecap:butt;stroke-linejoin:miter;stroke-opacity:1" d="M 20.499,210.237 36.9979,193.738 z" id="boundary" inkscape:connector-curvature="0" />
	<path style="fill:none;stroke:red;stroke-width:1px;stroke-linecap:butt;stroke-linejoin:miter;stroke-opacity:1" d="M 24.6237,305.106 43.185,315.418 z" id="boundary" inkscape:connector-curvature="0" />
	<path style="fill:none;stroke:red;stroke-width:1px;stroke-linecap:butt;stroke-linejoin:miter;stroke-opacity:1" d="M 36.9979,193.738 53.4969,179.301 z" id="boundary" inkscape:connector-curvature="0" />
	<path style="fill:none;stroke:red;stroke-width:1px;stroke-linecap:butt;stroke-linejoin:miter;stroke-opacity:1" d="M 43.185,315.418 61.7464,325.73 z" id="boundary" inkscape:connector-curvature="0" />
	<path style="fill:none;stroke:red;stroke-width:1px;stroke-linecap:butt;stroke-linejoin:miter;stroke-opacity:1" d="M 53.4969,179.301 72.0582,168.99 z" id="boundary" inkscape:connector-curvature="0" />
	<path style="fill:none;stroke:red;stroke-width:1px;stroke-linecap:butt;stroke-linejoin:miter;stroke-opacity:1" d="M 55.5593,432.973 55.5593,453.597 z" id="boundary" inkscape:connector-curvature="0" />
	<path style="fill:none;stroke:red;stroke-width:1px;stroke-linecap:butt;stroke-linejoin:miter;stroke-opacity:1" d="M 55.5593,432.973 65.8711,412.349 z" id="boundary" inkscape:connector-curvature="0" />
	<path style="fill:none;stroke:red;stroke-width:1px;stroke-linecap:butt;stroke-linejoin:miter;stroke-opacity:1" d="M 55.5593,453.597 55.5593,474.22 z" id="boundary" inkscape:connector-curvature="0" />
	<path style="fill:none;stroke:red;stroke-width:1px;stroke-linecap:butt;stroke-linejoin:miter;stroke-opacity:1" d="M 55.5593,474.22 55.5593,494.844 z" id="boundary" inkscape:connector-curvature="0" />
	<path style="fill:none;stroke:red;stroke-width:1px;stroke-linecap:butt;stroke-linejoin:miter;stroke-opacity:1" d="M 55.5593,494.844 55.5593,515.468 z" id="boundary" inkscape:connector-curvature="0" />
	<path style="fill:none;stroke:red;stroke-width:1px;stroke-linecap:butt;stroke-linejoin:miter;stroke-opacity:1" d="M 55.5593,515.468 65.8711,534.029 z" id="boundary" inkscape:connector-curvature="0" />
	<path style="fill:none;stroke:red;stroke-width:1px;stroke-linecap:butt;stroke-linejoin:miter;stroke-opacity:1" d="M 61.7464,325.73 82.3701,325.73 z" id="boundary" inkscape:connector-curvature="0" />
	<path style="fill:none;stroke:red;stroke-width:1px;stroke-linecap:butt;stroke-linejoin:miter;stroke-opacity:1" d="M 65.8711,412.349 86.4948,402.037 z" id="boundary" inkscape:connector-curvature="0" />
	<path style="fill:none;stroke:red;stroke-width:1px;stroke-linecap:butt;stroke-linejoin:miter;stroke-opacity:1" d="M 65.8711,534.029 80.3077,550.528 z" id="boundary" inkscape:connector-curvature="0" />
	<path style="fill:none;stroke:red;stroke-width:1px;stroke-linecap:butt;stroke-linejoin:miter;stroke-opacity:1" d="M 72.0582,168.99 92.6819,158.678 z" id="boundary" inkscape:connector-curvature="0" />
	<path style="fill:none;stroke:red;stroke-width:1px;stroke-linecap:butt;stroke-linejoin:miter;stroke-opacity:1" d="M 80.3077,550.528 100.931,542.279 z" id="boundary" inkscape:connector-curvature="0" />
	<path style="fill:none;stroke:red;stroke-width:1px;stroke-linecap:butt;stroke-linejoin:miter;stroke-opacity:1" d="M 82.3701,325.73 102.994,325.73 z" id="boundary" inkscape:connector-curvature="0" />
	<path style="fill:none;stroke:red;stroke-width:1px;stroke-linecap:butt;stroke-linejoin:miter;stroke-opacity:1" d="M 86.4948,402.037 107.119,395.85 z" id="boundary" inkscape:connector-curvature="0" />
	<path style="fill:none;stroke:red;stroke-width:1px;stroke-linecap:butt;stroke-linejoin:miter;stroke-opacity:1" d="M 92.6819,158.678 113.306,158.678 z" id="boundary" inkscape:connector-curvature="0" />
	<path style="fill:none;stroke:red;stroke-width:1px;stroke-linecap:butt;stroke-linejoin:miter;stroke-opacity:1" d="M 100.931,542.279 121.555,542.279 z" id="boundary" inkscape:connector-curvature="0" />
	<path style="fill:none;stroke:red;stroke-width:1px;stroke-linecap:butt;stroke-linejoin:miter;stroke-opacity:1" d="M 102.994,325.73 123.617,325.73 z" id="boundary" inkscape:connector-curvature="0" />
	<path style="fill:none;stroke:red;stroke-width:1px;stroke-linecap:butt;stroke-linejoin:miter;stroke-opacity:1" d="M 107.119,395.85 125.68,385.538 z" id="boundary" inkscape:connector-curvature="0" />
	<path style="fill:none;stroke:red;stroke-width:1px;stroke-linecap:butt;stroke-linejoin:miter;stroke-opacity:1" d="M 113.306,158.678 133.929,158.678 z" id="boundary" inkscape:connector-curvature="0" />
	<path style="fill:none;stroke:red;stroke-width:1px;stroke-linecap:butt;stroke-linejoin:miter;stroke-opacity:1" d="M 121.555,542.279 142.179,542.279 z" id="boundary" inkscape:connector-curvature="0" />
	<path style="fill:none;stroke:red;stroke-width:1px;stroke-linecap:butt;stroke-linejoin:miter;stroke-opacity:1" d="M 123.617,325.73 144.241,325.73 z" id="boundary" inkscape:connector-curvature="0" />
	<path style="fill:none;stroke:red;stroke-width:1px;stroke-linecap:butt;stroke-linejoin:miter;stroke-opacity:1" d="M 125.68,385.538 146.304,385.538 z" id="boundary" inkscape:connector-curvature="0" />
	<path style="fill:none;stroke:red;stroke-width:1px;stroke-linecap:butt;stroke-linejoin:miter;stroke-opacity:1" d="M 133.929,158.678 154.553,158.678 z" id="boundary" inkscape:connector-curvature="0" />
	<path style="fill:none;stroke:red;stroke-width:1px;stroke-linecap:butt;stroke-linejoin:miter;stroke-opacity:1" d="M 142.179,542.279 162.802,548.466 z" id="boundary" inkscape:connector-curvature="0" />
	<path style="fill:none;stroke:red;stroke-width:1px;stroke-linecap:butt;stroke-linejoin:miter;stroke-opacity:1" d="M 144.241,325.73 158.678,342.229 z" id="boundary" inkscape:connector-curvature="0" />
	<path style="fill:none;stroke:red;stroke-width:1px;stroke-linecap:butt;stroke-linejoin:miter;stroke-opacity:1" d="M 146.304,385.538 158.678,362.852 z" id="boundary" inkscape:connector-curvature="0" />
	<path style="fill:none;stroke:red;stroke-width:1px;stroke-linecap:butt;stroke-linejoin:miter;stroke-opacity:1" d="M 154.553,158.678 175.177,158.678 z" id="boundary" inkscape:connector-curvature="0" />
	<path style="fill:none;stroke:red;stroke-width:1px;stroke-linecap:butt;stroke-linejoin:miter;stroke-opacity:1" d="M 158.678,342.229 158.678,362.852 z" id="boundary" inkscape:connector-curvature="0" />
	<path style="fill:none;stroke:red;stroke-width:1px;stroke-linecap:butt;stroke-linejoin:miter;stroke-opacity:1" d="M 162.802,548.466 183.426,552.59 z" id="boundary" inkscape:connector-curvature="0" />
	<path style="fill:none;stroke:red;stroke-width:1px;stroke-linecap:butt;stroke-linejoin:miter;stroke-opacity:1" d="M 175.177,158.678 195.8,158.678 z" id="boundary" inkscape:connector-curvature="0" />
	<path style="fill:none;stroke:red;stroke-width:1px;stroke-linecap:butt;stroke-linejoin:miter;stroke-opacity:1" d="M 183.426,552.59 204.05,552.59 z" id="boundary" inkscape:connector-curvature="0" />
	<path style="fill:none;stroke:red;stroke-width:1px;stroke-linecap:butt;stroke-linejoin:miter;stroke-opacity:1" d="M 195.8,158.678 216.424,158.678 z" id="boundary" inkscape:connector-curvature="0" />
	<path style="fill:none;stroke:red;stroke-width:1px;stroke-linecap:butt;stroke-linejoin:miter;stroke-opacity:1" d="M 204.05,552.59 222.611,542.279 z" id="boundary" inkscape:connector-curvature="0" />
	<path style="fill:none;stroke:red;stroke-width:1px;stroke-linecap:butt;stroke-linejoin:miter;stroke-opacity:1" d="M 216.424,158.678 237.048,158.678 z" id="boundary" inkscape:connector-curvature="0" />
	<path style="fill:none;stroke:red;stroke-width:1px;stroke-linecap:butt;stroke-linejoin:miter;stroke-opacity:1" d="M 222.611,542.279 243.235,542.279 z" id="boundary" inkscape:connector-curvature="0" />
	<path style="fill:none;stroke:red;stroke-width:1px;stroke-linecap:butt;stroke-linejoin:miter;stroke-opacity:1" d="M 237.048,158.678 257.672,158.678 z" id="boundary" inkscape:connector-curvature="0" />
	<path style="fill:none;stroke:red;stroke-width:1px;stroke-linecap:butt;stroke-linejoin:miter;stroke-opacity:1" d="M 243.235,542.279 263.859,531.967 z" id="boundary" inkscape:connector-curvature="0" />
	<path style="fill:none;stroke:red;stroke-width:1px;stroke-linecap:butt;stroke-linejoin:miter;stroke-opacity:1" d="M 257.672,158.678 278.295,158.678 z" id="boundary" inkscape:connector-curvature="0" />
	<path style="fill:none;stroke:red;stroke-width:1px;stroke-linecap:butt;stroke-linejoin:miter;stroke-opacity:1" d="M 263.859,531.967 280.358,517.53 z" id="boundary" inkscape:connector-curvature="0" />
	<path style="fill:none;stroke:red;stroke-width:1px;stroke-linecap:butt;stroke-linejoin:miter;stroke-opacity:1" d="M 278.295,158.678 298.919,158.678 z" id="boundary" inkscape:connector-curvature="0" />
	<path style="fill:none;stroke:red;stroke-width:1px;stroke-linecap:butt;stroke-linejoin:miter;stroke-opacity:1" d="M 280.358,517.53 292.732,501.031 z" id="boundary" inkscape:connector-curvature="0" />
	<path style="fill:none;stroke:red;stroke-width:1px;stroke-linecap:butt;stroke-linejoin:miter;stroke-opacity:1" d="M 292.732,501.031 313.356,501.031 z" id="boundary" inkscape:connector-curvature="0" />
	<path style="fill:none;stroke:red;stroke-width:1px;stroke-linecap:butt;stroke-linejoin:miter;stroke-opacity:1" d="M 298.919,158.678 319.543,158.678 z" id="boundary" inkscape:connector-curvature="0" />
	<path style="fill:none;stroke:red;stroke-width:1px;stroke-linecap:butt;stroke-linejoin:miter;stroke-opacity:1" d="M 313.356,501.031 333.979,501.031 z" id="boundary" inkscape:connector-curvature="0" />
	<path style="fill:none;stroke:red;stroke-width:1px;stroke-linecap:butt;stroke-linejoin:miter;stroke-opacity:1" d="M 319.543,158.678 340.166,158.678 z" id="boundary" inkscape:connector-curvature="0" />
	<path style="fill:none;stroke:red;stroke-width:1px;stroke-linecap:butt;stroke-linejoin:miter;stroke-opacity:1" d="M 333.979,501.031 354.603,501.031 z" id="boundary" inkscape:connector-curvature="0" />
	<path style="fill:none;stroke:red;stroke-width:1px;stroke-linecap:butt;stroke-linejoin:miter;stroke-opacity:1" d="M 340.166,158.678 360.79,158.678 z" id="boundary" inkscape:connector-curvature="0" />
	<path style="fill:none;stroke:red;stroke-width:1px;stroke-linecap:butt;stroke-linejoin:miter;stroke-opacity:1" d="M 354.603,501.031 375.227,501.031 z" id="boundary" inkscape:connector-curvature="0" />
	<path style="fill:none;stroke:red;stroke-width:1px;stroke-linecap:butt;stroke-linejoin:miter;stroke-opacity:1" d="M 360.79,158.678 381.414,158.678 z" id="boundary" inkscape:connector-curvature="0" />
	<path style="fill:none;stroke:red;stroke-width:1px;stroke-linecap:butt;stroke-linejoin:miter;stroke-opacity:1" d="M 375.227,501.031 395.85,501.031 z" id="boundary" inkscape:connector-curvature="0" />
	<path style="fill:none;stroke:red;stroke-width:1px;stroke-linecap:butt;stroke-linejoin:miter;stroke-opacity:1" d="M 381.414,158.678 399.975,148.366 z" id="boundary" inkscape:connector-curvature="0" />
	<path style="fill:none;stroke:red;stroke-width:1px;stroke-linecap:butt;stroke-linejoin:miter;stroke-opacity:1" d="M 395.85,501.031 416.474,501.031 z" id="boundary" inkscape:connector-curvature="0" />
	<path style="fill:none;stroke:red;stroke-width:1px;stroke-linecap:butt;stroke-linejoin:miter;stroke-opacity:1" d="M 399.975,148.366 420.599,148.366 z" id="boundary" inkscape:connector-curvature="0" />
	<path style="fill:none;stroke:red;stroke-width:1px;stroke-linecap:butt;stroke-linejoin:miter;stroke-opacity:1" d="M 416.474,501.031 437.098,501.031 z" id="boundary" inkscape:connector-curvature="0" />
	<path style="fill:none;stroke:red;stroke-width:1px;stroke-linecap:butt;stroke-linejoin:miter;stroke-opacity:1" d="M 420.599,148.366 441.222,140.116 z" id="boundary" inkscape:connector-curvature="0" />
	<path style="fill:none;stroke:red;stroke-width:1px;stroke-linecap:butt;stroke-linejoin:miter;stroke-opacity:1" d="M 437.098,501.031 455.659,511.343 z" id="boundary" inkscape:connector-curvature="0" />
	<path style="fill:none;stroke:red;stroke-width:1px;stroke-linecap:butt;stroke-linejoin:miter;stroke-opacity:1" d="M 441.222,140.116 451.534,119.493 z" id="boundary" inkscape:connector-curvature="0" />
	<path style="fill:none;stroke:red;stroke-width:1px;stroke-linecap:butt;stroke-linejoin:miter;stroke-opacity:1" d="M 451.534,119.493 457.721,82.3701 z" id="boundary" inkscape:connector-curvature="0" />
	<path style="fill:none;stroke:red;stroke-width:1px;stroke-linecap:butt;stroke-linejoin:miter;stroke-opacity:1" d="M 455.659,511.343 470.096,527.842 z" id="boundary" inkscape:connector-curvature="0" />
	<path style="fill:none;stroke:red;stroke-width:1px;stroke-linecap:butt;stroke-linejoin:miter;stroke-opacity:1" d="M 457.721,61.7464 457.721,82.3701 z" id="boundary" inkscape:connector-curvature="0" />
	<path style="fill:none;stroke:red;stroke-width:1px;stroke-linecap:butt;stroke-linejoin:miter;stroke-opacity:1" d="M 457.721,61.7464 468.033,41.1227 z" id="boundary" inkscape:connector-curvature="0" />
	<path style="fill:none;stroke:red;stroke-width:1px;stroke-linecap:butt;stroke-linejoin:miter;stroke-opacity:1" d="M 468.033,41.1227 488.657,30.8108 z" id="boundary" inkscape:connector-curvature="0" />
	<path style="fill:none;stroke:red;stroke-width:1px;stroke-linecap:butt;stroke-linejoin:miter;stroke-opacity:1" d="M 470.096,527.842 486.595,542.279 z" id="boundary" inkscape:connector-curvature="0" />
	<path style="fill:none;stroke:red;stroke-width:1px;stroke-linecap:butt;stroke-linejoin:miter;stroke-opacity:1" d="M 486.595,542.279 505.156,552.59 z" id="boundary" inkscape:connector-curvature="0" />
	<path style="fill:none;stroke:red;stroke-width:1px;stroke-linecap:butt;stroke-linejoin:miter;stroke-opacity:1" d="M 488.657,30.8108 509.281,20.499 z" id="boundary" inkscape:connector-curvature="0" />
	<path style="fill:none;stroke:red;stroke-width:1px;stroke-linecap:butt;stroke-linejoin:miter;stroke-opacity:1" d="M 505.156,552.59 525.78,552.59 z" id="boundary" inkscape:connector-curvature="0" />
	<path style="fill:none;stroke:red;stroke-width:1px;stroke-linecap:butt;stroke-linejoin:miter;stroke-opacity:1" d="M 509.281,20.499 529.904,14.3119 z" id="boundary" inkscape:connector-curvature="0" />
	<path style="fill:none;stroke:red;stroke-width:1px;stroke-linecap:butt;stroke-linejoin:miter;stroke-opacity:1" d="M 525.78,552.59 546.403,552.59 z" id="boundary" inkscape:connector-curvature="0" />
	<path style="fill:none;stroke:red;stroke-width:1px;stroke-linecap:butt;stroke-linejoin:miter;stroke-opacity:1" d="M 529.904,14.3119 550.528,14.3119 z" id="boundary" inkscape:connector-curvature="0" />
	<path style="fill:none;stroke:red;stroke-width:1px;stroke-linecap:butt;stroke-linejoin:miter;stroke-opacity:1" d="M 546.403,552.59 567.027,552.59 z" id="boundary" inkscape:connector-curvature="0" />
	<path style="fill:none;stroke:red;stroke-width:1px;stroke-linecap:butt;stroke-linejoin:miter;stroke-opacity:1" d="M 550.528,14.3119 571.152,14.3119 z" id="boundary" inkscape:connector-curvature="0" />
	<path style="fill:none;stroke:red;stroke-width:1px;stroke-linecap:butt;stroke-linejoin:miter;stroke-opacity:1" d="M 567.027,552.59 587.651,552.59 z" id="boundary" inkscape:connector-curvature="0" />
	<path style="fill:none;stroke:red;stroke-width:1px;stroke-linecap:butt;stroke-linejoin:miter;stroke-opacity:1" d="M 571.152,14.3119 589.713,4 z" id="boundary" inkscape:connector-curvature="0" />
	<path style="fill:none;stroke:red;stroke-width:1px;stroke-linecap:butt;stroke-linejoin:miter;stroke-opacity:1" d="M 587.651,552.59 608.274,550.528 z" id="boundary" inkscape:connector-curvature="0" />
	<path style="fill:none;stroke:red;stroke-width:1px;stroke-linecap:butt;stroke-linejoin:miter;stroke-opacity:1" d="M 589.713,4 610.337,4 z" id="boundary" inkscape:connector-curvature="0" />
	<path style="fill:none;stroke:red;stroke-width:1px;stroke-linecap:butt;stroke-linejoin:miter;stroke-opacity:1" d="M 608.274,550.528 628.898,540.216 z" id="boundary" inkscape:connector-curvature="0" />
	<path style="fill:none;stroke:red;stroke-width:1px;stroke-linecap:butt;stroke-linejoin:miter;stroke-opacity:1" d="M 610.337,4 630.96,4 z" id="boundary" inkscape:connector-curvature="0" />
	<path style="fill:none;stroke:red;stroke-width:1px;stroke-linecap:butt;stroke-linejoin:miter;stroke-opacity:1" d="M 628.898,540.216 645.397,521.655 z" id="boundary" inkscape:connector-curvature="0" />
	<path style="fill:none;stroke:red;stroke-width:1px;stroke-linecap:butt;stroke-linejoin:miter;stroke-opacity:1" d="M 630.96,4 651.584,4 z" id="boundary" inkscape:connector-curvature="0" />
	<path style="fill:none;stroke:red;stroke-width:1px;stroke-linecap:butt;stroke-linejoin:miter;stroke-opacity:1" d="M 645.397,521.655 661.896,507.218 z" id="boundary" inkscape:connector-curvature="0" />
	<path style="fill:none;stroke:red;stroke-width:1px;stroke-linecap:butt;stroke-linejoin:miter;stroke-opacity:1" d="M 651.584,4 672.208,4 z" id="boundary" inkscape:connector-curvature="0" />
	<path style="fill:none;stroke:red;stroke-width:1px;stroke-linecap:butt;stroke-linejoin:miter;stroke-opacity:1" d="M 661.896,507.218 682.52,501.031 z" id="boundary" inkscape:connector-curvature="0" />
	<path style="fill:none;stroke:red;stroke-width:1px;stroke-linecap:butt;stroke-linejoin:miter;stroke-opacity:1" d="M 672.208,4 692.832,4 z" id="boundary" inkscape:connector-curvature="0" />
	<path style="fill:none;stroke:red;stroke-width:1px;stroke-linecap:butt;stroke-linejoin:miter;stroke-opacity:1" d="M 682.52,501.031 701.081,490.719 z" id="boundary" inkscape:connector-curvature="0" />
	<path style="fill:none;stroke:red;stroke-width:1px;stroke-linecap:butt;stroke-linejoin:miter;stroke-opacity:1" d="M 692.832,4 713.455,4 z" id="boundary" inkscape:connector-curvature="0" />
	<path style="fill:none;stroke:red;stroke-width:1px;stroke-linecap:butt;stroke-linejoin:miter;stroke-opacity:1" d="M 701.081,490.719 721.705,490.719 z" id="boundary" inkscape:connector-curvature="0" />
	<path style="fill:none;stroke:red;stroke-width:1px;stroke-linecap:butt;stroke-linejoin:miter;stroke-opacity:1" d="M 713.455,4 734.079,4 z" id="boundary" inkscape:connector-curvature="0" />
	<path style="fill:none;stroke:red;stroke-width:1px;stroke-linecap:butt;stroke-linejoin:miter;stroke-opacity:1" d="M 721.705,490.719 742.328,490.719 z" id="boundary" inkscape:connector-curvature="0" />
	<path style="fill:none;stroke:red;stroke-width:1px;stroke-linecap:butt;stroke-linejoin:miter;stroke-opacity:1" d="M 734.079,4 752.64,14.3119 z" id="boundary" inkscape:connector-curvature="0" />
	<path style="fill:none;stroke:red;stroke-width:1px;stroke-linecap:butt;stroke-linejoin:miter;stroke-opacity:1" d="M 742.328,490.719 762.952,490.719 z" id="boundary" inkscape:connector-curvature="0" />
	<path style="fill:none;stroke:red;stroke-width:1px;stroke-linecap:butt;stroke-linejoin:miter;stroke-opacity:1" d="M 752.64,14.3119 767.077,30.8108 z" id="boundary" inkscape:connector-curvature="0" />
	<path style="fill:none;stroke:red;stroke-width:1px;stroke-linecap:butt;stroke-linejoin:miter;stroke-opacity:1" d="M 762.952,490.719 783.576,490.719 z" id="boundary" inkscape:connector-curvature="0" />
	<path style="fill:none;stroke:red;stroke-width:1px;stroke-linecap:butt;stroke-linejoin:miter;stroke-opacity:1" d="M 767.077,30.8108 769.139,51.4345 z" id="boundary" inkscape:connector-curvature="0" />
	<path style="fill:none;stroke:red;stroke-width:1px;stroke-linecap:butt;stroke-linejoin:miter;stroke-opacity:1" d="M 769.139,51.4345 769.139,72.0582 z" id="boundary" inkscape:connector-curvature="0" />
	<path style="fill:none;stroke:red;stroke-width:1px;stroke-linecap:butt;stroke-linejoin:miter;stroke-opacity:1" d="M 769.139,72.0582 769.139,92.6819 z" id="boundary" inkscape:connector-curvature="0" />
	<path style="fill:none;stroke:red;stroke-width:1px;stroke-linecap:butt;stroke-linejoin:miter;stroke-opacity:1" d="M 769.139,92.6819 769.139,113.306 z" id="boundary" inkscape:connector-curvature="0" />
	<path style="fill:none;stroke:red;stroke-width:1px;stroke-linecap:butt;stroke-linejoin:miter;stroke-opacity:1" d="M 769.139,113.306 769.139,133.929 z" id="boundary" inkscape:connector-curvature="0" />
	<path style="fill:none;stroke:red;stroke-width:1px;stroke-linecap:butt;stroke-linejoin:miter;stroke-opacity:1" d="M 769.139,133.929 787.701,144.241 z" id="boundary" inkscape:connector-curvature="0" />
	<path style="fill:none;stroke:red;stroke-width:1px;stroke-linecap:butt;stroke-linejoin:miter;stroke-opacity:1" d="M 783.576,490.719 804.2,490.719 z" id="boundary" inkscape:connector-curvature="0" />
	<path style="fill:none;stroke:red;stroke-width:1px;stroke-linecap:butt;stroke-linejoin:miter;stroke-opacity:1" d="M 787.701,144.241 798.012,162.802 z" id="boundary" inkscape:connector-curvature="0" />
	<path style="fill:none;stroke:red;stroke-width:1px;stroke-linecap:butt;stroke-linejoin:miter;stroke-opacity:1" d="M 798.012,162.802 810.387,179.301 z" id="boundary" inkscape:connector-curvature="0" />
	<path style="fill:none;stroke:red;stroke-width:1px;stroke-linecap:butt;stroke-linejoin:miter;stroke-opacity:1" d="M 804.2,490.719 820.699,505.156 z" id="boundary" inkscape:connector-curvature="0" />
	<path style="fill:none;stroke:red;stroke-width:1px;stroke-linecap:butt;stroke-linejoin:miter;stroke-opacity:1" d="M 810.387,179.301 831.01,185.489 z" id="boundary" inkscape:connector-curvature="0" />
	<path style="fill:none;stroke:red;stroke-width:1px;stroke-linecap:butt;stroke-linejoin:miter;stroke-opacity:1" d="M 820.699,505.156 828.948,525.78 z" id="boundary" inkscape:connector-curvature="0" />
	<path style="fill:none;stroke:red;stroke-width:1px;stroke-linecap:butt;stroke-linejoin:miter;stroke-opacity:1" d="M 828.948,525.78 839.26,544.341 z" id="boundary" inkscape:connector-curvature="0" />
	<path style="fill:none;stroke:red;stroke-width:1px;stroke-linecap:butt;stroke-linejoin:miter;stroke-opacity:1" d="M 831.01,185.489 839.26,206.112 z" id="boundary" inkscape:connector-curvature="0" />
	<path style="fill:none;stroke:red;stroke-width:1px;stroke-linecap:butt;stroke-linejoin:miter;stroke-opacity:1" d="M 839.26,206.112 855.759,220.549 z" id="boundary" inkscape:connector-curvature="0" />
	<path style="fill:none;stroke:red;stroke-width:1px;stroke-linecap:butt;stroke-linejoin:miter;stroke-opacity:1" d="M 839.26,544.341 859.884,552.59 z" id="boundary" inkscape:connector-curvature="0" />
	<path style="fill:none;stroke:red;stroke-width:1px;stroke-linecap:butt;stroke-linejoin:miter;stroke-opacity:1" d="M 855.759,220.549 861.946,241.173 z" id="boundary" inkscape:connector-curvature="0" />
	<path style="fill:none;stroke:red;stroke-width:1px;stroke-linecap:butt;stroke-linejoin:miter;stroke-opacity:1" d="M 859.884,552.59 880.507,556.715 z" id="boundary" inkscape:connector-curvature="0" />
	<path style="fill:none;stroke:red;stroke-width:1px;stroke-linecap:butt;stroke-linejoin:miter;stroke-opacity:1" d="M 861.946,241.173 880.507,251.484 z" id="boundary" inkscape:connector-curvature="0" />
	<path style="fill:none;stroke:red;stroke-width:1px;stroke-linecap:butt;stroke-linejoin:miter;stroke-opacity:1" d="M 880.507,251.484 897.006,263.859 z" id="boundary" inkscape:connector-curvature="0" />
	<path style="fill:none;stroke:red;stroke-width:1px;stroke-linecap:butt;stroke-linejoin:miter;stroke-opacity:1" d="M 880.507,556.715 901.131,546.403 z" id="boundary" inkscape:connector-curvature="0" />
	<path style="fill:none;stroke:red;stroke-width:1px;stroke-linecap:butt;stroke-linejoin:miter;stroke-opacity:1" d="M 897.006,263.859 913.505,278.295 z" id="boundary" inkscape:connector-curvature="0" />
	<path style="fill:none;stroke:red;stroke-width:1px;stroke-linecap:butt;stroke-linejoin:miter;stroke-opacity:1" d="M 901.131,546.403 921.755,536.091 z" id="boundary" inkscape:connector-curvature="0" />
	<path style="fill:none;stroke:red;stroke-width:1px;stroke-linecap:butt;stroke-linejoin:miter;stroke-opacity:1" d="M 913.505,278.295 913.505,298.919 z" id="boundary" inkscape:connector-curvature="0" />
	<path style="fill:none;stroke:red;stroke-width:1px;stroke-linecap:butt;stroke-linejoin:miter;stroke-opacity:1" d="M 913.505,298.919 930.004,313.356 z" id="boundary" inkscape:connector-curvature="0" />
	<path style="fill:none;stroke:red;stroke-width:1px;stroke-linecap:butt;stroke-linejoin:miter;stroke-opacity:1" d="M 921.755,536.091 938.254,519.593 z" id="boundary" inkscape:connector-curvature="0" />
	<path style="fill:none;stroke:red;stroke-width:1px;stroke-linecap:butt;stroke-linejoin:miter;stroke-opacity:1" d="M 930.004,313.356 950.628,313.356 z" id="boundary" inkscape:connector-curvature="0" />
	<path style="fill:none;stroke:red;stroke-width:1px;stroke-linecap:butt;stroke-linejoin:miter;stroke-opacity:1" d="M 938.254,519.593 948.565,498.969 z" id="boundary" inkscape:connector-curvature="0" />
	<path style="fill:none;stroke:red;stroke-width:1px;stroke-linecap:butt;stroke-linejoin:miter;stroke-opacity:1" d="M 948.565,498.969 954.753,470.096 z" id="boundary" inkscape:connector-curvature="0" />
	<path style="fill:none;stroke:red;stroke-width:1px;stroke-linecap:butt;stroke-linejoin:miter;stroke-opacity:1" d="M 950.628,313.356 971.252,315.418 z" id="boundary" inkscape:connector-curvature="0" />
	<path style="fill:none;stroke:red;stroke-width:1px;stroke-linecap:butt;stroke-linejoin:miter;stroke-opacity:1" d="M 954.753,449.472 954.753,470.096 z" id="boundary" inkscape:connector-curvature="0" />
	<path style="fill:none;stroke:red;stroke-width:1px;stroke-linecap:butt;stroke-linejoin:miter;stroke-opacity:1" d="M 954.753,449.472 975.376,439.16 z" id="boundary" inkscape:connector-curvature="0" />
	<path style="fill:none;stroke:red;stroke-width:1px;stroke-linecap:butt;stroke-linejoin:miter;stroke-opacity:1" d="M 971.252,315.418 985.688,331.917 z" id="boundary" inkscape:connector-curvature="0" />
	<path style="fill:none;stroke:red;stroke-width:1px;stroke-linecap:butt;stroke-linejoin:miter;stroke-opacity:1" d="M 975.376,439.16 991.875,424.723 z" id="boundary" inkscape:connector-curvature="0" />
	<path style="fill:none;stroke:red;stroke-width:1px;stroke-linecap:butt;stroke-linejoin:miter;stroke-opacity:1" d="M 985.688,331.917 996,350.478 z" id="boundary" inkscape:connector-curvature="0" />
	<path style="fill:none;stroke:red;stroke-width:1px;stroke-linecap:butt;stroke-linejoin:miter;stroke-opacity:1" d="M 991.875,424.723 996,391.726 z" id="boundary" inkscape:connector-curvature="0" />
	<path style="fill:none;stroke:red;stroke-width:1px;stroke-linecap:butt;stroke-linejoin:miter;stroke-opacity:1" d="M 996,350.478 996,371.102 z" id="boundary" inkscape:connector-curvature="0" />
	<path style="fill:none;stroke:red;stroke-width:1px;stroke-linecap:butt;stroke-linejoin:miter;stroke-opacity:1" d="M 996,371.102 996,391.726 z" id="boundary" inkscape:connector-curvature="0" />
	<circle cx="4" cy="226.736" r="4" fill="#0" id="circle0"/>
	<circle cx="4" cy="247.36" r="4" fill="#0" id="circle1"/>
	<circle cx="4" cy="267.983" r="4" fill="#0" id="circle2"/>
	<circle cx="14.3119" cy="286.545" r="4" fill="#0" id="circle3"/>
	<circle cx="20.499" cy="210.237" r="4" fill="#0" id="circle4"/>
	<circle cx="24.6237" cy="305.106" r="4" fill="#0" id="circle5"/>
	<circle cx="36.9979" cy="193.738" r="4" fill="#0" id="circle6"/>
	<circle cx="43.185" cy="315.418" r="4" fill="#0" id="circle7"/>
	<circle cx="53.4969" cy="179.301" r="4" fill="#0" id="circle8"/>
	<circle cx="55.5593" cy="432.973" r="4" fill="#0" id="circle9"/>
	<circle cx="55.5593" cy="453.597" r="4" fill="#0" id="circle10"/>
	<circle cx="55.5593" cy="474.22" r="4" fill="#0" id="circle11"/>
	<circle cx="55.5593" cy="494.844" r="4" fill="#0" id="circle12"/>
	<circle cx="55.5593" cy="515.468" r="4" fill="#0" id="circle13"/>
	<circle cx="61.7464" cy="325.73" r="4" fill="#0" id="circle14"/>
	<circle cx="65.8711" cy="412.349" r="4" fill="#0" id="circle15"/>
	<circle cx="65.8711" cy="534.029" r="4" fill="#0" id="circle16"/>
	<circle cx="72.0582" cy="168.99" r="4" fill="#0" id="circle17"/>
	<circle cx="80.3077" cy="550.528" r="4" fill="#0" id="circle18"/>
	<circle cx="82.3701" cy="325.73" r="4" fill="#0" id="circle19"/>
	<circle cx="86.4948" cy="402.037" r="4" fill="#0" id="circle20"/>
	<circle cx="92.6819" cy="158.678" r="4" fill="#0" id="circle21"/>
	<circle cx="100.931" cy="542.279" r="4" fill="#0" id="circle22"/>
	<circle cx="102.994" cy="325.73" r="4" fill="#0" id="circle23"/>
	<circle cx="107.119" cy="395.85" r="4" fill="#0" id="circle24"/>
	<circle cx="113.306" cy="158.678" r="4" fill="#0" id="circle25"/>
	<circle cx="121.555" cy="542.279" r="4" fill="#0" id="circle26"/>
	<circle cx="123.617" cy="325.73" r="4" fill="#0" id="circle27"/>
	<circle cx="125.68" cy="385.538" r="4" fill="#0" id="circle28"/>
	<circle cx="133.929" cy="158.678" r="4" fill="#0" id="circle29"/>
	<circle cx="142.179" cy="542.279" r="4" fill="#0" id="circle30"/>
	<circle cx="144.241" cy="325.73" r="4" fill="#0" id="circle31"/>
	<circle cx="146.304" cy="385.538" r="4" fill="#0" id="circle32"/>
	<circle cx="154.553" cy="158.678" r="4" fill="#0" id="circle33"/>
	<circle cx="158.678" cy="342.229" r="4" fill="#0" id="circle34"/>
	<circle cx="158.678" cy="362.852" r="4" fill="#0" id="circle35"/>
	<circle cx="162.802" cy="548.466" r="4" fill="#0" id="circle36"/>
	<circle cx="175.177" cy="158.678" r="4" fill="#0" id="circle37"/>
	<circle cx="183.426" cy="552.59" r="4" fill="#0" id="circle38"/>
	<circle cx="195.8" cy="158.678" r="4" fill="#0" id="circle39"/>
	<circle cx="204.05" cy="552.59" r="4" fill="#0" id="circle40"/>
	<circle cx="216.424" cy="158.678" r="4" fill="#0" id="circle41"/>
	<circle cx="222.611" cy="542.279" r="4" fill="#0" id="circle42"/>
	<circle cx="237.048" cy="158.678" r="4" fill="#0" id="circle43"/>
	<circle cx="243.235" cy="542.279" r="4" fill="#0" id="circle44"/>
	<circle cx="257.672" cy="158.678" r="4" fill="#0" id="circle45"/>
	<circle cx="263.859" cy="531.967" r="4" fill="#0" id="circle46"/>
	<circle cx="278.295" cy="158.678" r="4" fill="#0" id="circle47"/>
	<circle cx="280.358" cy="517.53" r="4" fill="#0" id="circle48"/>
	<circle cx="292.732" cy="501.031" r="4" fill="#0" id="circle49"/>
	<circle cx="298.919" cy="158.678" r="4" fill="#0" id="circle50"/>
	<circle cx="313.356" cy="501.031" r="4" fill="#0" id="circle51"/>
	<circle cx="319.543" cy="158.678" r="4" fill="#0" id="circle52"/>
	<circle cx="333.979" cy="501.031" r="4" fill="#0" id="circle53"/>
	<circle cx="340.166" cy="158.678" r="4" fill="#0" id="circle54"/>
	<circle cx="354.603" cy="501.031" r="4" fill="#0" id="circle55"/>
	<circle cx="360.79" cy="158.678" r="4" fill="#0" id="circle56"/>
	<circle cx="375.227" cy="501.031" r="4" fill="#0" id="circle57"/>
	<circle cx="381.414" cy="158.678" r="4" fill="#0" id="circle58"/>
	<circle cx="395.85" cy="501.031" r="4" fill="#0" id="circle59"/>
	<circle cx="399.975" cy="148.366" r="4" fill="#0" id="circle60"/>
	<circle cx="416.474" cy="501.031" r="4" fill="#0" id="circle61"/>
	<circle cx="420.599" cy="148.366" r="4" fill="#0" id="circle62"/>
	<circle cx="437.098" cy="501.031" r="4" fill="#0" id="circle63"/>
	<circle cx="441.222" cy="140.116" r="4" fill="#0" id="circle64"/>
	<circle cx="451.534" cy="119.493" r="4" fill="#0" id="circle65"/>
	<circle cx="455.659" cy="511.343" r="4" fill="#0" id="circle66"/>
	<circle cx="457.721" cy="61.7464" r="4" fill="#0" id="circle67"/>
	<circle cx="457.721" cy="82.3701" r="4" fill="#0" id="circle68"/>
	<circle cx="468.033" cy="41.1227" r="4" fill="#0" id="circle69"/>
	<circle cx="470.096" cy="527.842" r="4" fill="#0" id="circle70"/>
	<circle cx="486.595" cy="542.279" r="4" fill="#0" id="circle71"/>
	<circle cx="488.657" cy="30.8108" r="4" fill="#0" id="circle72"/>
	<circle cx="505.156" cy="552.59" r="4" fill="#0" id="circle73"/>
	<circle cx="509.281" cy="20.499" r="4" fill="#0" id="circle74"/>
	<circle cx="525.78" cy="552.59" r="4" fill="#0" id="circle75"/>
	<circle cx="529.904" cy="14.3119" r="4" fill="#0" id="circle76"/>
	<circle cx="546.403" cy="552.59" r="4" fill="#0" id="circle77"/>
	<circle cx="550.528" cy="14.3119" r="4" fill="#0" id="circle78"/>
	<circle cx="567.027" cy="552.59" r="4" fill="#0" id="circle79"/>
	<circle cx="571.152" cy="14.3119" r="4" fill="#0" id="circle80"/>
	<circle cx="587.651" cy="552.59" r="4" fill="#0" id="circle81"/>
	<circle cx="589.713" cy="4" r="4" fill="#0" id="circle82"/>
	<circle cx="608.274" cy="550.528" r="4" fill="#0" id="circle83"/>
	<circle cx="610.337" cy="4" r="4" fill="#0" id="circle84"/>
	<circle cx="628.898" cy="540.216" r="4" fill="#0" id="circle85"/>
	<circle cx="630.96" cy="4" r="4" fill="#0" id="circle86"/>
	<circle cx="645.397" cy="521.655" r="4" fill="#0" id="circle87"/>
	<circle cx="651.584" cy="4" r="4" fill="#0" id="circle88"/>
	<circle cx="661.896" cy="507.218" r="4" fill="#0" id="circle89"/>
	<circle cx="672.208" cy="4" r="4" fill="#0" id="circle90"/>
	<circle cx="682.52" cy="501.031" r="4" fill="#0" id="circle91"/>
	<circle cx="692.832" cy="4" r="4" fill="#0" id="circle92"/>
	<circle cx="701.081" cy="490.719" r="4" fill="#0" id="circle93"/>
	<circle cx="713.455" cy="4" r="4" fill="#0" id="circle94"/>
	<circle cx="721.705" cy="490.719" r="4" fill="#0" id="circle95"/>
	<circle cx="734.079" cy="4" r="4" fill="#0" id="circle96"/>
	<circle cx="742.328" cy="490.719" r="4" fill="#0" id="circle97"/>
	<circle cx="752.64" cy="14.3119" r="4" fill="#0" id="circle98"/>
	<circle cx="762.952" cy="490.719" r="4" fill="#0" id="circle99"/>
	<circle cx="767.077" cy="30.8108" r="4" fill="#0" id="circle100"/>
	<circle cx="769.139" cy="51.4345" r="4" fill="#0" id="circle101"/>
	<circle cx="769.139" cy="72.0582" r="4" fill="#0" id="circle102"/>
	<circle cx="769.139" cy="92.6819" r="4" fill="#0" id="circle103"/>
	<circle cx="769.139" cy="113.306" r="4" fill="#0" id="circle104"/>
	<circle cx="769.139" cy="133.929" r="4" fill="#0" id="circle105"/>
	<circle cx="783.576" cy="490.719" r="4" fill="#0" id="circle106"/>
	<circle cx="787.701" cy="144.241" r="4" fill="#0" id="circle107"/>
	<circle cx="798.012" cy="162.802" r="4" fill="#0" id="circle108"/>
	<circle cx="804.2" cy="490.719" r="4" fill="#0" id="circle109"/>
	<circle cx="810.387" cy="179.301" r="4" fill="#0" id="circle110"/>
	<circle cx="820.699" cy="505.156" r="4" fill="#0" id="circle111"/>
	<circle cx="828.948" cy="525.78" r="4" fill="#0" id="circle112"/>
	<circle cx="831.01" cy="185.489" r="4" fill="#0" id="circle113"/>
	<circle cx="839.26" cy="206.112" r="4" fill="#0" id="circle114"/>
	<circle cx="839.26" cy="544.341" r="4" fill="#0" id="circle115"/>
	<circle cx="855.759" cy="220.549" r="4" fill="#0" id="circle116"/>
	<circle cx="859.884" cy="552.59" r="4" fill="#0" id="circle117"/>
	<circle cx="861.946" cy="241.173" r="4" fill="#0" id="circle118"/>
	<circle cx="880.507" cy="251.484" r="4" fill="#0" id="circle119"/>
	<circle cx="880.507" cy="556.715" r="4" fill="#0" id="circle120"/>
	<circle cx="897.006" cy="263.859" r="4" fill="#0" id="circle121"/>
	<circle cx="901.131" cy="546.403" r="4" fill="#0" id="circle122"/>
	<circle cx="913.505" cy="278.295" r="4" fill="#0" id="circle123"/>
	<circle cx="913.505" cy="298.919" r="4" fill="#0" id="circle124"/>
	<circle cx="921.755" cy="536.091" r="4" fill="#0" id="circle125"/>
	<circle cx="930.004" cy="313.356" r="4" fill="#0" id="circle126"/>
	<circle cx="938.254" cy="519.593" r="4" fill="#0" id="circle127"/>
	<circle cx="948.565" cy="498.969" r="4" fill="#0" id="circle128"/>
	<circle cx="950.628" cy="313.356" r="4" fill="#0" id="circle129"/>
	<circle cx="954.753" cy="449.472" r="4" fill="#0" id="circle130"/>
	<circle cx="954.753" cy="470.096" r="4" fill="#0" id="circle131"/>
	<circle cx="971.252" cy="315.418" r="4" fill="#0" id="circle132"/>
	<circle cx="975.376" cy="439.16" r="4" fill="#0" id="circle133"/>
	<circle cx="985.688" cy="331.917" r="4" fill="#0" id="circle134"/>
	<circle cx="991.875" cy="424.723" r="4" fill="#0" id="circle135"/>
	<circle cx="996" cy="350.478" r="4" fill="#0" id="circle136"/>
	<circle cx="996" cy="371.102" r="4" fill="#0" id="circle137"/>
	<circle cx="996" cy="391.726" r="4" fill="#0" id="circle138"/>
	</g>
</svg>