<?xml version="1.0" encoding="UTF-8" standalone="no"?>
<!-- Created with CurveBenchmark -->
<svg
	xmlns:dc="http://purl.org/dc/elements/1.1/"
	xmlns:cc="http://creativecommons.org/ns#"
	xmlns:rdf="http://www.w3.org/1999/02/22-rdf-syntax-ns#"
	xmlns:svg="http://www.w3.org/2000/svg"
	xmlns="http://www.w3.org/2000/svg"
	xmlns:sodipodi="http://sodipodi.sourceforge.net/DTD/sodipodi-0.dtd"
	xmlns:inkscape="http://www.inkscape.org/namespaces/inkscape"
	width="1000"
	height="1000"
	id="svg2"
	version="1.1"
	sodipodi:docname="manifold/hnncrust-face03.png.txt">
<defs
	id="defs4" />
<metadata
	id="metadata7">
	<rdf:RDF>
		<cc:Work
			rdf:about="">
			<dc:format>image/svg+xml</dc:format>
			<dc:type
				rdf:resource="http://purl.org/dc/dcmitype/StillImage" />
			<dc:title></dc:title>
		</cc:Work>
	</rdf:RDF>
</metadata>
<g
	inkscape:label="Layer 1"
	inkscape:groupmode="layer"
	id="layer1">
	<path style="fill:none;stroke:red;stroke-width:1px;stroke-linecap:butt;stroke-linejoin:miter;stroke-opacity:1" d="M 4,467.261 4,483.63 z" id="boundary" inkscape:connector-curvature="0" />
	<path style="fill:none;stroke:red;stroke-width:1px;stroke-linecap:butt;stroke-linejoin:miter;stroke-opacity:1" d="M 4,467.261 17.0957,454.165 z" id="boundary" inkscape:connector-curvature="0" />
	<path style="fill:none;stroke:red;stroke-width:1px;stroke-linecap:butt;stroke-linejoin:miter;stroke-opacity:1" d="M 4,483.63 12.1848,498.363 z" id="boundary" inkscape:connector-curvature="0" />
	<path style="fill:none;stroke:red;stroke-width:1px;stroke-linecap:butt;stroke-linejoin:miter;stroke-opacity:1" d="M 12.1848,498.363 20.3696,513.096 z" id="boundary" inkscape:connector-curvature="0" />
	<path style="fill:none;stroke:red;stroke-width:1px;stroke-linecap:butt;stroke-linejoin:miter;stroke-opacity:1" d="M 17.0957,454.165 31.8284,445.98 z" id="boundary" inkscape:connector-curvature="0" />
	<path style="fill:none;stroke:red;stroke-width:1px;stroke-linecap:butt;stroke-linejoin:miter;stroke-opacity:1" d="M 20.3696,513.096 25.2805,529.465 z" id="boundary" inkscape:connector-curvature="0" />
	<path style="fill:none;stroke:red;stroke-width:1px;stroke-linecap:butt;stroke-linejoin:miter;stroke-opacity:1" d="M 25.2805,529.465 38.3762,540.924 z" id="boundary" inkscape:connector-curvature="0" />
	<path style="fill:none;stroke:red;stroke-width:1px;stroke-linecap:butt;stroke-linejoin:miter;stroke-opacity:1" d="M 31.8284,445.98 46.5611,437.795 z" id="boundary" inkscape:connector-curvature="0" />
	<path style="fill:none;stroke:red;stroke-width:1px;stroke-linecap:butt;stroke-linejoin:miter;stroke-opacity:1" d="M 38.3762,540.924 44.9241,557.294 z" id="boundary" inkscape:connector-curvature="0" />
	<path style="fill:none;stroke:red;stroke-width:1px;stroke-linecap:butt;stroke-linejoin:miter;stroke-opacity:1" d="M 44.9241,557.294 53.1089,572.026 z" id="boundary" inkscape:connector-curvature="0" />
	<path style="fill:none;stroke:red;stroke-width:1px;stroke-linecap:butt;stroke-linejoin:miter;stroke-opacity:1" d="M 46.5611,437.795 61.2937,424.7 z" id="boundary" inkscape:connector-curvature="0" />
	<path style="fill:none;stroke:red;stroke-width:1px;stroke-linecap:butt;stroke-linejoin:miter;stroke-opacity:1" d="M 53.1089,279.01 53.1089,295.38 z" id="boundary" inkscape:connector-curvature="0" />
	<path style="fill:none;stroke:red;stroke-width:1px;stroke-linecap:butt;stroke-linejoin:miter;stroke-opacity:1" d="M 53.1089,279.01 61.2937,254.455 z" id="boundary" inkscape:connector-curvature="0" />
	<path style="fill:none;stroke:red;stroke-width:1px;stroke-linecap:butt;stroke-linejoin:miter;stroke-opacity:1" d="M 53.1089,295.38 53.1089,311.749 z" id="boundary" inkscape:connector-curvature="0" />
	<path style="fill:none;stroke:red;stroke-width:1px;stroke-linecap:butt;stroke-linejoin:miter;stroke-opacity:1" d="M 53.1089,311.749 53.1089,328.119 z" id="boundary" inkscape:connector-curvature="0" />
	<path style="fill:none;stroke:red;stroke-width:1px;stroke-linecap:butt;stroke-linejoin:miter;stroke-opacity:1" d="M 53.1089,328.119 53.1089,344.488 z" id="boundary" inkscape:connector-curvature="0" />
	<path style="fill:none;stroke:red;stroke-width:1px;stroke-linecap:butt;stroke-linejoin:miter;stroke-opacity:1" d="M 53.1089,344.488 53.1089,360.858 z" id="boundary" inkscape:connector-curvature="0" />
	<path style="fill:none;stroke:red;stroke-width:1px;stroke-linecap:butt;stroke-linejoin:miter;stroke-opacity:1" d="M 53.1089,360.858 53.1089,377.228 z" id="boundary" inkscape:connector-curvature="0" />
	<path style="fill:none;stroke:red;stroke-width:1px;stroke-linecap:butt;stroke-linejoin:miter;stroke-opacity:1" d="M 53.1089,377.228 53.1089,393.597 z" id="boundary" inkscape:connector-curvature="0" />
	<path style="fill:none;stroke:red;stroke-width:1px;stroke-linecap:butt;stroke-linejoin:miter;stroke-opacity:1" d="M 53.1089,393.597 53.1089,409.967 z" id="boundary" inkscape:connector-curvature="0" />
	<path style="fill:none;stroke:red;stroke-width:1px;stroke-linecap:butt;stroke-linejoin:miter;stroke-opacity:1" d="M 53.1089,409.967 61.2937,424.7 z" id="boundary" inkscape:connector-curvature="0" />
	<path style="fill:none;stroke:red;stroke-width:1px;stroke-linecap:butt;stroke-linejoin:miter;stroke-opacity:1" d="M 53.1089,572.026 61.2937,586.759 z" id="boundary" inkscape:connector-curvature="0" />
	<path style="fill:none;stroke:red;stroke-width:1px;stroke-linecap:butt;stroke-linejoin:miter;stroke-opacity:1" d="M 61.2937,238.086 61.2937,254.455 z" id="boundary" inkscape:connector-curvature="0" />
	<path style="fill:none;stroke:red;stroke-width:1px;stroke-linecap:butt;stroke-linejoin:miter;stroke-opacity:1" d="M 61.2937,238.086 69.4785,221.716 z" id="boundary" inkscape:connector-curvature="0" />
	<path style="fill:none;stroke:red;stroke-width:1px;stroke-linecap:butt;stroke-linejoin:miter;stroke-opacity:1" d="M 61.2937,586.759 66.2046,603.129 z" id="boundary" inkscape:connector-curvature="0" />
	<path style="fill:none;stroke:red;stroke-width:1px;stroke-linecap:butt;stroke-linejoin:miter;stroke-opacity:1" d="M 66.2046,603.129 79.3003,614.587 z" id="boundary" inkscape:connector-curvature="0" />
	<path style="fill:none;stroke:red;stroke-width:1px;stroke-linecap:butt;stroke-linejoin:miter;stroke-opacity:1" d="M 69.4785,205.347 69.4785,221.716 z" id="boundary" inkscape:connector-curvature="0" />
	<path style="fill:none;stroke:red;stroke-width:1px;stroke-linecap:butt;stroke-linejoin:miter;stroke-opacity:1" d="M 69.4785,205.347 77.6634,180.792 z" id="boundary" inkscape:connector-curvature="0" />
	<path style="fill:none;stroke:red;stroke-width:1px;stroke-linecap:butt;stroke-linejoin:miter;stroke-opacity:1" d="M 77.6634,180.792 85.8482,164.422 z" id="boundary" inkscape:connector-curvature="0" />
	<path style="fill:none;stroke:red;stroke-width:1px;stroke-linecap:butt;stroke-linejoin:miter;stroke-opacity:1" d="M 79.3003,614.587 85.8482,630.957 z" id="boundary" inkscape:connector-curvature="0" />
	<path style="fill:none;stroke:red;stroke-width:1px;stroke-linecap:butt;stroke-linejoin:miter;stroke-opacity:1" d="M 85.8482,164.422 94.033,148.053 z" id="boundary" inkscape:connector-curvature="0" />
	<path style="fill:none;stroke:red;stroke-width:1px;stroke-linecap:butt;stroke-linejoin:miter;stroke-opacity:1" d="M 85.8482,630.957 98.9439,642.416 z" id="boundary" inkscape:connector-curvature="0" />
	<path style="fill:none;stroke:red;stroke-width:1px;stroke-linecap:butt;stroke-linejoin:miter;stroke-opacity:1" d="M 94.033,148.053 102.218,131.683 z" id="boundary" inkscape:connector-curvature="0" />
	<path style="fill:none;stroke:red;stroke-width:1px;stroke-linecap:butt;stroke-linejoin:miter;stroke-opacity:1" d="M 98.9439,642.416 110.403,655.512 z" id="boundary" inkscape:connector-curvature="0" />
	<path style="fill:none;stroke:red;stroke-width:1px;stroke-linecap:butt;stroke-linejoin:miter;stroke-opacity:1" d="M 102.218,131.683 115.314,118.587 z" id="boundary" inkscape:connector-curvature="0" />
	<path style="fill:none;stroke:red;stroke-width:1px;stroke-linecap:butt;stroke-linejoin:miter;stroke-opacity:1" d="M 110.403,655.512 110.403,671.881 z" id="boundary" inkscape:connector-curvature="0" />
	<path style="fill:none;stroke:red;stroke-width:1px;stroke-linecap:butt;stroke-linejoin:miter;stroke-opacity:1" d="M 110.403,671.881 110.403,688.251 z" id="boundary" inkscape:connector-curvature="0" />
	<path style="fill:none;stroke:red;stroke-width:1px;stroke-linecap:butt;stroke-linejoin:miter;stroke-opacity:1" d="M 110.403,688.251 110.403,704.62 z" id="boundary" inkscape:connector-curvature="0" />
	<path style="fill:none;stroke:red;stroke-width:1px;stroke-linecap:butt;stroke-linejoin:miter;stroke-opacity:1" d="M 110.403,704.62 118.587,719.353 z" id="boundary" inkscape:connector-curvature="0" />
	<path style="fill:none;stroke:red;stroke-width:1px;stroke-linecap:butt;stroke-linejoin:miter;stroke-opacity:1" d="M 115.314,118.587 126.772,98.9439 z" id="boundary" inkscape:connector-curvature="0" />
	<path style="fill:none;stroke:red;stroke-width:1px;stroke-linecap:butt;stroke-linejoin:miter;stroke-opacity:1" d="M 118.587,719.353 126.772,734.086 z" id="boundary" inkscape:connector-curvature="0" />
	<path style="fill:none;stroke:red;stroke-width:1px;stroke-linecap:butt;stroke-linejoin:miter;stroke-opacity:1" d="M 126.772,98.9439 139.868,85.8482 z" id="boundary" inkscape:connector-curvature="0" />
	<path style="fill:none;stroke:red;stroke-width:1px;stroke-linecap:butt;stroke-linejoin:miter;stroke-opacity:1" d="M 126.772,734.086 136.594,747.182 z" id="boundary" inkscape:connector-curvature="0" />
	<path style="fill:none;stroke:red;stroke-width:1px;stroke-linecap:butt;stroke-linejoin:miter;stroke-opacity:1" d="M 136.594,747.182 149.69,758.64 z" id="boundary" inkscape:connector-curvature="0" />
	<path style="fill:none;stroke:red;stroke-width:1px;stroke-linecap:butt;stroke-linejoin:miter;stroke-opacity:1" d="M 139.868,85.8482 152.964,72.7525 z" id="boundary" inkscape:connector-curvature="0" />
	<path style="fill:none;stroke:red;stroke-width:1px;stroke-linecap:butt;stroke-linejoin:miter;stroke-opacity:1" d="M 149.69,758.64 159.512,771.736 z" id="boundary" inkscape:connector-curvature="0" />
	<path style="fill:none;stroke:red;stroke-width:1px;stroke-linecap:butt;stroke-linejoin:miter;stroke-opacity:1" d="M 152.964,72.7525 166.059,61.2937 z" id="boundary" inkscape:connector-curvature="0" />
	<path style="fill:none;stroke:red;stroke-width:1px;stroke-linecap:butt;stroke-linejoin:miter;stroke-opacity:1" d="M 159.512,771.736 159.512,788.106 z" id="boundary" inkscape:connector-curvature="0" />
	<path style="fill:none;stroke:red;stroke-width:1px;stroke-linecap:butt;stroke-linejoin:miter;stroke-opacity:1" d="M 159.512,788.106 159.512,804.475 z" id="boundary" inkscape:connector-curvature="0" />
	<path style="fill:none;stroke:red;stroke-width:1px;stroke-linecap:butt;stroke-linejoin:miter;stroke-opacity:1" d="M 159.512,804.475 159.512,820.845 z" id="boundary" inkscape:connector-curvature="0" />
	<path style="fill:none;stroke:red;stroke-width:1px;stroke-linecap:butt;stroke-linejoin:miter;stroke-opacity:1" d="M 159.512,820.845 159.512,837.215 z" id="boundary" inkscape:connector-curvature="0" />
	<path style="fill:none;stroke:red;stroke-width:1px;stroke-linecap:butt;stroke-linejoin:miter;stroke-opacity:1" d="M 159.512,837.215 167.696,851.947 z" id="boundary" inkscape:connector-curvature="0" />
	<path style="fill:none;stroke:red;stroke-width:1px;stroke-linecap:butt;stroke-linejoin:miter;stroke-opacity:1" d="M 166.059,61.2937 177.518,48.198 z" id="boundary" inkscape:connector-curvature="0" />
	<path style="fill:none;stroke:red;stroke-width:1px;stroke-linecap:butt;stroke-linejoin:miter;stroke-opacity:1" d="M 167.696,851.947 175.881,866.68 z" id="boundary" inkscape:connector-curvature="0" />
	<path style="fill:none;stroke:red;stroke-width:1px;stroke-linecap:butt;stroke-linejoin:miter;stroke-opacity:1" d="M 175.881,866.68 184.066,881.413 z" id="boundary" inkscape:connector-curvature="0" />
	<path style="fill:none;stroke:red;stroke-width:1px;stroke-linecap:butt;stroke-linejoin:miter;stroke-opacity:1" d="M 177.518,48.198 190.614,36.7393 z" id="boundary" inkscape:connector-curvature="0" />
	<path style="fill:none;stroke:red;stroke-width:1px;stroke-linecap:butt;stroke-linejoin:miter;stroke-opacity:1" d="M 184.066,881.413 193.888,894.508 z" id="boundary" inkscape:connector-curvature="0" />
	<path style="fill:none;stroke:red;stroke-width:1px;stroke-linecap:butt;stroke-linejoin:miter;stroke-opacity:1" d="M 190.614,36.7393 205.347,28.5545 z" id="boundary" inkscape:connector-curvature="0" />
	<path style="fill:none;stroke:red;stroke-width:1px;stroke-linecap:butt;stroke-linejoin:miter;stroke-opacity:1" d="M 193.888,894.508 206.983,905.967 z" id="boundary" inkscape:connector-curvature="0" />
	<path style="fill:none;stroke:red;stroke-width:1px;stroke-linecap:butt;stroke-linejoin:miter;stroke-opacity:1" d="M 205.347,28.5545 220.079,20.3696 z" id="boundary" inkscape:connector-curvature="0" />
	<path style="fill:none;stroke:red;stroke-width:1px;stroke-linecap:butt;stroke-linejoin:miter;stroke-opacity:1" d="M 206.983,905.967 216.805,919.063 z" id="boundary" inkscape:connector-curvature="0" />
	<path style="fill:none;stroke:red;stroke-width:1px;stroke-linecap:butt;stroke-linejoin:miter;stroke-opacity:1" d="M 216.805,919.063 229.901,930.521 z" id="boundary" inkscape:connector-curvature="0" />
	<path style="fill:none;stroke:red;stroke-width:1px;stroke-linecap:butt;stroke-linejoin:miter;stroke-opacity:1" d="M 220.079,20.3696 234.812,12.1848 z" id="boundary" inkscape:connector-curvature="0" />
	<path style="fill:none;stroke:red;stroke-width:1px;stroke-linecap:butt;stroke-linejoin:miter;stroke-opacity:1" d="M 229.901,930.521 244.634,938.706 z" id="boundary" inkscape:connector-curvature="0" />
	<path style="fill:none;stroke:red;stroke-width:1px;stroke-linecap:butt;stroke-linejoin:miter;stroke-opacity:1" d="M 234.812,12.1848 249.545,4 z" id="boundary" inkscape:connector-curvature="0" />
	<path style="fill:none;stroke:red;stroke-width:1px;stroke-linecap:butt;stroke-linejoin:miter;stroke-opacity:1" d="M 244.634,938.706 257.729,948.528 z" id="boundary" inkscape:connector-curvature="0" />
	<path style="fill:none;stroke:red;stroke-width:1px;stroke-linecap:butt;stroke-linejoin:miter;stroke-opacity:1" d="M 249.545,4 265.914,4 z" id="boundary" inkscape:connector-curvature="0" />
	<path style="fill:none;stroke:red;stroke-width:1px;stroke-linecap:butt;stroke-linejoin:miter;stroke-opacity:1" d="M 257.729,948.528 269.188,961.624 z" id="boundary" inkscape:connector-curvature="0" />
	<path style="fill:none;stroke:red;stroke-width:1px;stroke-linecap:butt;stroke-linejoin:miter;stroke-opacity:1" d="M 265.914,4 282.284,4 z" id="boundary" inkscape:connector-curvature="0" />
	<path style="fill:none;stroke:red;stroke-width:1px;stroke-linecap:butt;stroke-linejoin:miter;stroke-opacity:1" d="M 269.188,961.624 285.558,968.172 z" id="boundary" inkscape:connector-curvature="0" />
	<path style="fill:none;stroke:red;stroke-width:1px;stroke-linecap:butt;stroke-linejoin:miter;stroke-opacity:1" d="M 282.284,4 298.653,4 z" id="boundary" inkscape:connector-curvature="0" />
	<path style="fill:none;stroke:red;stroke-width:1px;stroke-linecap:butt;stroke-linejoin:miter;stroke-opacity:1" d="M 285.558,968.172 298.653,979.63 z" id="boundary" inkscape:connector-curvature="0" />
	<path style="fill:none;stroke:red;stroke-width:1px;stroke-linecap:butt;stroke-linejoin:miter;stroke-opacity:1" d="M 298.653,4 315.023,4 z" id="boundary" inkscape:connector-curvature="0" />
	<path style="fill:none;stroke:red;stroke-width:1px;stroke-linecap:butt;stroke-linejoin:miter;stroke-opacity:1" d="M 298.653,979.63 313.386,987.815 z" id="boundary" inkscape:connector-curvature="0" />
	<path style="fill:none;stroke:red;stroke-width:1px;stroke-linecap:butt;stroke-linejoin:miter;stroke-opacity:1" d="M 313.386,987.815 328.119,996 z" id="boundary" inkscape:connector-curvature="0" />
	<path style="fill:none;stroke:red;stroke-width:1px;stroke-linecap:butt;stroke-linejoin:miter;stroke-opacity:1" d="M 315.023,4 331.393,7.27393 z" id="boundary" inkscape:connector-curvature="0" />
	<path style="fill:none;stroke:red;stroke-width:1px;stroke-linecap:butt;stroke-linejoin:miter;stroke-opacity:1" d="M 328.119,996 344.488,996 z" id="boundary" inkscape:connector-curvature="0" />
	<path style="fill:none;stroke:red;stroke-width:1px;stroke-linecap:butt;stroke-linejoin:miter;stroke-opacity:1" d="M 331.393,7.27393 347.762,12.1848 z" id="boundary" inkscape:connector-curvature="0" />
	<path style="fill:none;stroke:red;stroke-width:1px;stroke-linecap:butt;stroke-linejoin:miter;stroke-opacity:1" d="M 344.488,996 360.858,994.363 z" id="boundary" inkscape:connector-curvature="0" />
	<path style="fill:none;stroke:red;stroke-width:1px;stroke-linecap:butt;stroke-linejoin:miter;stroke-opacity:1" d="M 347.762,12.1848 362.495,20.3696 z" id="boundary" inkscape:connector-curvature="0" />
	<path style="fill:none;stroke:red;stroke-width:1px;stroke-linecap:butt;stroke-linejoin:miter;stroke-opacity:1" d="M 360.858,994.363 377.228,986.178 z" id="boundary" inkscape:connector-curvature="0" />
	<path style="fill:none;stroke:red;stroke-width:1px;stroke-linecap:butt;stroke-linejoin:miter;stroke-opacity:1" d="M 362.495,20.3696 377.228,28.5545 z" id="boundary" inkscape:connector-curvature="0" />
	<path style="fill:none;stroke:red;stroke-width:1px;stroke-linecap:butt;stroke-linejoin:miter;stroke-opacity:1" d="M 377.228,28.5545 391.96,36.7393 z" id="boundary" inkscape:connector-curvature="0" />
	<path style="fill:none;stroke:red;stroke-width:1px;stroke-linecap:butt;stroke-linejoin:miter;stroke-opacity:1" d="M 377.228,986.178 393.597,977.993 z" id="boundary" inkscape:connector-curvature="0" />
	<path style="fill:none;stroke:red;stroke-width:1px;stroke-linecap:butt;stroke-linejoin:miter;stroke-opacity:1" d="M 391.96,36.7393 406.693,44.9241 z" id="boundary" inkscape:connector-curvature="0" />
	<path style="fill:none;stroke:red;stroke-width:1px;stroke-linecap:butt;stroke-linejoin:miter;stroke-opacity:1" d="M 393.597,977.993 406.693,963.261 z" id="boundary" inkscape:connector-curvature="0" />
	<path style="fill:none;stroke:red;stroke-width:1px;stroke-linecap:butt;stroke-linejoin:miter;stroke-opacity:1" d="M 406.693,44.9241 421.426,53.1089 z" id="boundary" inkscape:connector-curvature="0" />
	<path style="fill:none;stroke:red;stroke-width:1px;stroke-linecap:butt;stroke-linejoin:miter;stroke-opacity:1" d="M 406.693,963.261 423.063,955.076 z" id="boundary" inkscape:connector-curvature="0" />
	<path style="fill:none;stroke:red;stroke-width:1px;stroke-linecap:butt;stroke-linejoin:miter;stroke-opacity:1" d="M 421.426,53.1089 436.158,44.9241 z" id="boundary" inkscape:connector-curvature="0" />
	<path style="fill:none;stroke:red;stroke-width:1px;stroke-linecap:butt;stroke-linejoin:miter;stroke-opacity:1" d="M 423.063,955.076 436.158,943.617 z" id="boundary" inkscape:connector-curvature="0" />
	<path style="fill:none;stroke:red;stroke-width:1px;stroke-linecap:butt;stroke-linejoin:miter;stroke-opacity:1" d="M 436.158,44.9241 450.891,36.7393 z" id="boundary" inkscape:connector-curvature="0" />
	<path style="fill:none;stroke:red;stroke-width:1px;stroke-linecap:butt;stroke-linejoin:miter;stroke-opacity:1" d="M 436.158,943.617 447.617,930.521 z" id="boundary" inkscape:connector-curvature="0" />
	<path style="fill:none;stroke:red;stroke-width:1px;stroke-linecap:butt;stroke-linejoin:miter;stroke-opacity:1" d="M 447.617,930.521 460.713,919.063 z" id="boundary" inkscape:connector-curvature="0" />
	<path style="fill:none;stroke:red;stroke-width:1px;stroke-linecap:butt;stroke-linejoin:miter;stroke-opacity:1" d="M 450.891,36.7393 467.261,36.7393 z" id="boundary" inkscape:connector-curvature="0" />
	<path style="fill:none;stroke:red;stroke-width:1px;stroke-linecap:butt;stroke-linejoin:miter;stroke-opacity:1" d="M 460.713,919.063 472.172,905.967 z" id="boundary" inkscape:connector-curvature="0" />
	<path style="fill:none;stroke:red;stroke-width:1px;stroke-linecap:butt;stroke-linejoin:miter;stroke-opacity:1" d="M 467.261,36.7393 483.63,36.7393 z" id="boundary" inkscape:connector-curvature="0" />
	<path style="fill:none;stroke:red;stroke-width:1px;stroke-linecap:butt;stroke-linejoin:miter;stroke-opacity:1" d="M 472.172,905.967 480.356,889.597 z" id="boundary" inkscape:connector-curvature="0" />
	<path style="fill:none;stroke:red;stroke-width:1px;stroke-linecap:butt;stroke-linejoin:miter;stroke-opacity:1" d="M 480.356,889.597 493.452,878.139 z" id="boundary" inkscape:connector-curvature="0" />
	<path style="fill:none;stroke:red;stroke-width:1px;stroke-linecap:butt;stroke-linejoin:miter;stroke-opacity:1" d="M 483.63,36.7393 500,36.7393 z" id="boundary" inkscape:connector-curvature="0" />
	<path style="fill:none;stroke:red;stroke-width:1px;stroke-linecap:butt;stroke-linejoin:miter;stroke-opacity:1" d="M 493.452,878.139 504.911,856.858 z" id="boundary" inkscape:connector-curvature="0" />
	<path style="fill:none;stroke:red;stroke-width:1px;stroke-linecap:butt;stroke-linejoin:miter;stroke-opacity:1" d="M 500,36.7393 514.733,44.9241 z" id="boundary" inkscape:connector-curvature="0" />
	<path style="fill:none;stroke:red;stroke-width:1px;stroke-linecap:butt;stroke-linejoin:miter;stroke-opacity:1" d="M 504.911,856.858 513.096,832.304 z" id="boundary" inkscape:connector-curvature="0" />
	<path style="fill:none;stroke:red;stroke-width:1px;stroke-linecap:butt;stroke-linejoin:miter;stroke-opacity:1" d="M 513.096,832.304 521.281,815.934 z" id="boundary" inkscape:connector-curvature="0" />
	<path style="fill:none;stroke:red;stroke-width:1px;stroke-linecap:butt;stroke-linejoin:miter;stroke-opacity:1" d="M 514.733,44.9241 529.465,53.1089 z" id="boundary" inkscape:connector-curvature="0" />
	<path style="fill:none;stroke:red;stroke-width:1px;stroke-linecap:butt;stroke-linejoin:miter;stroke-opacity:1" d="M 521.281,750.455 521.281,766.825 z" id="boundary" inkscape:connector-curvature="0" />
	<path style="fill:none;stroke:red;stroke-width:1px;stroke-linecap:butt;stroke-linejoin:miter;stroke-opacity:1" d="M 521.281,750.455 529.465,725.901 z" id="boundary" inkscape:connector-curvature="0" />
	<path style="fill:none;stroke:red;stroke-width:1px;stroke-linecap:butt;stroke-linejoin:miter;stroke-opacity:1" d="M 521.281,766.825 521.281,783.195 z" id="boundary" inkscape:connector-curvature="0" />
	<path style="fill:none;stroke:red;stroke-width:1px;stroke-linecap:butt;stroke-linejoin:miter;stroke-opacity:1" d="M 521.281,783.195 521.281,799.564 z" id="boundary" inkscape:connector-curvature="0" />
	<path style="fill:none;stroke:red;stroke-width:1px;stroke-linecap:butt;stroke-linejoin:miter;stroke-opacity:1" d="M 521.281,799.564 521.281,815.934 z" id="boundary" inkscape:connector-curvature="0" />
	<path style="fill:none;stroke:red;stroke-width:1px;stroke-linecap:butt;stroke-linejoin:miter;stroke-opacity:1" d="M 529.465,53.1089 542.561,62.9307 z" id="boundary" inkscape:connector-curvature="0" />
	<path style="fill:none;stroke:red;stroke-width:1px;stroke-linecap:butt;stroke-linejoin:miter;stroke-opacity:1" d="M 529.465,725.901 537.65,709.531 z" id="boundary" inkscape:connector-curvature="0" />
	<path style="fill:none;stroke:red;stroke-width:1px;stroke-linecap:butt;stroke-linejoin:miter;stroke-opacity:1" d="M 537.65,709.531 545.835,684.977 z" id="boundary" inkscape:connector-curvature="0" />
	<path style="fill:none;stroke:red;stroke-width:1px;stroke-linecap:butt;stroke-linejoin:miter;stroke-opacity:1" d="M 542.561,62.9307 554.02,76.0264 z" id="boundary" inkscape:connector-curvature="0" />
	<path style="fill:none;stroke:red;stroke-width:1px;stroke-linecap:butt;stroke-linejoin:miter;stroke-opacity:1" d="M 545.835,684.977 554.02,668.607 z" id="boundary" inkscape:connector-curvature="0" />
	<path style="fill:none;stroke:red;stroke-width:1px;stroke-linecap:butt;stroke-linejoin:miter;stroke-opacity:1" d="M 554.02,76.0264 562.205,90.7591 z" id="boundary" inkscape:connector-curvature="0" />
	<path style="fill:none;stroke:red;stroke-width:1px;stroke-linecap:butt;stroke-linejoin:miter;stroke-opacity:1" d="M 554.02,668.607 562.205,644.053 z" id="boundary" inkscape:connector-curvature="0" />
	<path style="fill:none;stroke:red;stroke-width:1px;stroke-linecap:butt;stroke-linejoin:miter;stroke-opacity:1" d="M 562.205,90.7591 570.389,105.492 z" id="boundary" inkscape:connector-curvature="0" />
	<path style="fill:none;stroke:red;stroke-width:1px;stroke-linecap:butt;stroke-linejoin:miter;stroke-opacity:1" d="M 562.205,611.314 562.205,627.683 z" id="boundary" inkscape:connector-curvature="0" />
	<path style="fill:none;stroke:red;stroke-width:1px;stroke-linecap:butt;stroke-linejoin:miter;stroke-opacity:1" d="M 562.205,611.314 578.574,603.129 z" id="boundary" inkscape:connector-curvature="0" />
	<path style="fill:none;stroke:red;stroke-width:1px;stroke-linecap:butt;stroke-linejoin:miter;stroke-opacity:1" d="M 562.205,627.683 562.205,644.053 z" id="boundary" inkscape:connector-curvature="0" />
	<path style="fill:none;stroke:red;stroke-width:1px;stroke-linecap:butt;stroke-linejoin:miter;stroke-opacity:1" d="M 570.389,105.492 578.574,120.224 z" id="boundary" inkscape:connector-curvature="0" />
	<path style="fill:none;stroke:red;stroke-width:1px;stroke-linecap:butt;stroke-linejoin:miter;stroke-opacity:1" d="M 578.574,120.224 586.759,134.957 z" id="boundary" inkscape:connector-curvature="0" />
	<path style="fill:none;stroke:red;stroke-width:1px;stroke-linecap:butt;stroke-linejoin:miter;stroke-opacity:1" d="M 578.574,603.129 594.944,586.759 z" id="boundary" inkscape:connector-curvature="0" />
	<path style="fill:none;stroke:red;stroke-width:1px;stroke-linecap:butt;stroke-linejoin:miter;stroke-opacity:1" d="M 586.759,134.957 586.759,151.327 z" id="boundary" inkscape:connector-curvature="0" />
	<path style="fill:none;stroke:red;stroke-width:1px;stroke-linecap:butt;stroke-linejoin:miter;stroke-opacity:1" d="M 586.759,151.327 586.759,167.696 z" id="boundary" inkscape:connector-curvature="0" />
	<path style="fill:none;stroke:red;stroke-width:1px;stroke-linecap:butt;stroke-linejoin:miter;stroke-opacity:1" d="M 586.759,167.696 586.759,184.066 z" id="boundary" inkscape:connector-curvature="0" />
	<path style="fill:none;stroke:red;stroke-width:1px;stroke-linecap:butt;stroke-linejoin:miter;stroke-opacity:1" d="M 586.759,184.066 586.759,200.436 z" id="boundary" inkscape:connector-curvature="0" />
	<path style="fill:none;stroke:red;stroke-width:1px;stroke-linecap:butt;stroke-linejoin:miter;stroke-opacity:1" d="M 586.759,200.436 586.759,216.805 z" id="boundary" inkscape:connector-curvature="0" />
	<path style="fill:none;stroke:red;stroke-width:1px;stroke-linecap:butt;stroke-linejoin:miter;stroke-opacity:1" d="M 586.759,216.805 586.759,233.175 z" id="boundary" inkscape:connector-curvature="0" />
	<path style="fill:none;stroke:red;stroke-width:1px;stroke-linecap:butt;stroke-linejoin:miter;stroke-opacity:1" d="M 586.759,233.175 586.759,249.545 z" id="boundary" inkscape:connector-curvature="0" />
	<path style="fill:none;stroke:red;stroke-width:1px;stroke-linecap:butt;stroke-linejoin:miter;stroke-opacity:1" d="M 586.759,249.545 586.759,265.914 z" id="boundary" inkscape:connector-curvature="0" />
	<path style="fill:none;stroke:red;stroke-width:1px;stroke-linecap:butt;stroke-linejoin:miter;stroke-opacity:1" d="M 586.759,265.914 586.759,282.284 z" id="boundary" inkscape:connector-curvature="0" />
	<path style="fill:none;stroke:red;stroke-width:1px;stroke-linecap:butt;stroke-linejoin:miter;stroke-opacity:1" d="M 586.759,282.284 586.759,298.653 z" id="boundary" inkscape:connector-curvature="0" />
	<path style="fill:none;stroke:red;stroke-width:1px;stroke-linecap:butt;stroke-linejoin:miter;stroke-opacity:1" d="M 586.759,298.653 586.759,315.023 z" id="boundary" inkscape:connector-curvature="0" />
	<path style="fill:none;stroke:red;stroke-width:1px;stroke-linecap:butt;stroke-linejoin:miter;stroke-opacity:1" d="M 586.759,315.023 586.759,331.393 z" id="boundary" inkscape:connector-curvature="0" />
	<path style="fill:none;stroke:red;stroke-width:1px;stroke-linecap:butt;stroke-linejoin:miter;stroke-opacity:1" d="M 586.759,331.393 586.759,347.762 z" id="boundary" inkscape:connector-curvature="0" />
	<path style="fill:none;stroke:red;stroke-width:1px;stroke-linecap:butt;stroke-linejoin:miter;stroke-opacity:1" d="M 586.759,347.762 586.759,364.132 z" id="boundary" inkscape:connector-curvature="0" />
	<path style="fill:none;stroke:red;stroke-width:1px;stroke-linecap:butt;stroke-linejoin:miter;stroke-opacity:1" d="M 586.759,364.132 594.944,378.865 z" id="boundary" inkscape:connector-curvature="0" />
	<path style="fill:none;stroke:red;stroke-width:1px;stroke-linecap:butt;stroke-linejoin:miter;stroke-opacity:1" d="M 594.944,378.865 603.129,393.597 z" id="boundary" inkscape:connector-curvature="0" />
	<path style="fill:none;stroke:red;stroke-width:1px;stroke-linecap:butt;stroke-linejoin:miter;stroke-opacity:1" d="M 594.944,586.759 603.129,562.205 z" id="boundary" inkscape:connector-curvature="0" />
	<path style="fill:none;stroke:red;stroke-width:1px;stroke-linecap:butt;stroke-linejoin:miter;stroke-opacity:1" d="M 603.129,393.597 614.587,406.693 z" id="boundary" inkscape:connector-curvature="0" />
	<path style="fill:none;stroke:red;stroke-width:1px;stroke-linecap:butt;stroke-linejoin:miter;stroke-opacity:1" d="M 603.129,562.205 611.314,537.65 z" id="boundary" inkscape:connector-curvature="0" />
	<path style="fill:none;stroke:red;stroke-width:1px;stroke-linecap:butt;stroke-linejoin:miter;stroke-opacity:1" d="M 611.314,455.802 611.314,472.172 z" id="boundary" inkscape:connector-curvature="0" />
	<path style="fill:none;stroke:red;stroke-width:1px;stroke-linecap:butt;stroke-linejoin:miter;stroke-opacity:1" d="M 611.314,455.802 619.498,439.432 z" id="boundary" inkscape:connector-curvature="0" />
	<path style="fill:none;stroke:red;stroke-width:1px;stroke-linecap:butt;stroke-linejoin:miter;stroke-opacity:1" d="M 611.314,472.172 611.314,488.541 z" id="boundary" inkscape:connector-curvature="0" />
	<path style="fill:none;stroke:red;stroke-width:1px;stroke-linecap:butt;stroke-linejoin:miter;stroke-opacity:1" d="M 611.314,488.541 611.314,504.911 z" id="boundary" inkscape:connector-curvature="0" />
	<path style="fill:none;stroke:red;stroke-width:1px;stroke-linecap:butt;stroke-linejoin:miter;stroke-opacity:1" d="M 611.314,504.911 611.314,521.281 z" id="boundary" inkscape:connector-curvature="0" />
	<path style="fill:none;stroke:red;stroke-width:1px;stroke-linecap:butt;stroke-linejoin:miter;stroke-opacity:1" d="M 611.314,521.281 611.314,537.65 z" id="boundary" inkscape:connector-curvature="0" />
	<path style="fill:none;stroke:red;stroke-width:1px;stroke-linecap:butt;stroke-linejoin:miter;stroke-opacity:1" d="M 614.587,406.693 619.498,423.063 z" id="boundary" inkscape:connector-curvature="0" />
	<path style="fill:none;stroke:red;stroke-width:1px;stroke-linecap:butt;stroke-linejoin:miter;stroke-opacity:1" d="M 619.498,423.063 619.498,439.432 z" id="boundary" inkscape:connector-curvature="0" />
	<circle cx="4" cy="467.261" r="4" fill="#0" id="circle0"/>
	<circle cx="4" cy="483.63" r="4" fill="#0" id="circle1"/>
	<circle cx="12.1848" cy="498.363" r="4" fill="#0" id="circle2"/>
	<circle cx="17.0957" cy="454.165" r="4" fill="#0" id="circle3"/>
	<circle cx="20.3696" cy="513.096" r="4" fill="#0" id="circle4"/>
	<circle cx="25.2805" cy="529.465" r="4" fill="#0" id="circle5"/>
	<circle cx="31.8284" cy="445.98" r="4" fill="#0" id="circle6"/>
	<circle cx="38.3762" cy="540.924" r="4" fill="#0" id="circle7"/>
	<circle cx="44.9241" cy="557.294" r="4" fill="#0" id="circle8"/>
	<circle cx="46.5611" cy="437.795" r="4" fill="#0" id="circle9"/>
	<circle cx="53.1089" cy="279.01" r="4" fill="#0" id="circle10"/>
	<circle cx="53.1089" cy="295.38" r="4" fill="#0" id="circle11"/>
	<circle cx="53.1089" cy="311.749" r="4" fill="#0" id="circle12"/>
	<circle cx="53.1089" cy="328.119" r="4" fill="#0" id="circle13"/>
	<circle cx="53.1089" cy="344.488" r="4" fill="#0" id="circle14"/>
	<circle cx="53.1089" cy="360.858" r="4" fill="#0" id="circle15"/>
	<circle cx="53.1089" cy="377.228" r="4" fill="#0" id="circle16"/>
	<circle cx="53.1089" cy="393.597" r="4" fill="#0" id="circle17"/>
	<circle cx="53.1089" cy="409.967" r="4" fill="#0" id="circle18"/>
	<circle cx="53.1089" cy="572.026" r="4" fill="#0" id="circle19"/>
	<circle cx="61.2937" cy="238.086" r="4" fill="#0" id="circle20"/>
	<circle cx="61.2937" cy="254.455" r="4" fill="#0" id="circle21"/>
	<circle cx="61.2937" cy="424.7" r="4" fill="#0" id="circle22"/>
	<circle cx="61.2937" cy="586.759" r="4" fill="#0" id="circle23"/>
	<circle cx="66.2046" cy="603.129" r="4" fill="#0" id="circle24"/>
	<circle cx="69.4785" cy="205.347" r="4" fill="#0" id="circle25"/>
	<circle cx="69.4785" cy="221.716" r="4" fill="#0" id="circle26"/>
	<circle cx="77.6634" cy="180.792" r="4" fill="#0" id="circle27"/>
	<circle cx="79.3003" cy="614.587" r="4" fill="#0" id="circle28"/>
	<circle cx="85.8482" cy="164.422" r="4" fill="#0" id="circle29"/>
	<circle cx="85.8482" cy="630.957" r="4" fill="#0" id="circle30"/>
	<circle cx="94.033" cy="148.053" r="4" fill="#0" id="circle31"/>
	<circle cx="98.9439" cy="642.416" r="4" fill="#0" id="circle32"/>
	<circle cx="102.218" cy="131.683" r="4" fill="#0" id="circle33"/>
	<circle cx="110.403" cy="655.512" r="4" fill="#0" id="circle34"/>
	<circle cx="110.403" cy="671.881" r="4" fill="#0" id="circle35"/>
	<circle cx="110.403" cy="688.251" r="4" fill="#0" id="circle36"/>
	<circle cx="110.403" cy="704.62" r="4" fill="#0" id="circle37"/>
	<circle cx="115.314" cy="118.587" r="4" fill="#0" id="circle38"/>
	<circle cx="118.587" cy="719.353" r="4" fill="#0" id="circle39"/>
	<circle cx="126.772" cy="98.9439" r="4" fill="#0" id="circle40"/>
	<circle cx="126.772" cy="734.086" r="4" fill="#0" id="circle41"/>
	<circle cx="136.594" cy="747.182" r="4" fill="#0" id="circle42"/>
	<circle cx="139.868" cy="85.8482" r="4" fill="#0" id="circle43"/>
	<circle cx="149.69" cy="758.64" r="4" fill="#0" id="circle44"/>
	<circle cx="152.964" cy="72.7525" r="4" fill="#0" id="circle45"/>
	<circle cx="159.512" cy="771.736" r="4" fill="#0" id="circle46"/>
	<circle cx="159.512" cy="788.106" r="4" fill="#0" id="circle47"/>
	<circle cx="159.512" cy="804.475" r="4" fill="#0" id="circle48"/>
	<circle cx="159.512" cy="820.845" r="4" fill="#0" id="circle49"/>
	<circle cx="159.512" cy="837.215" r="4" fill="#0" id="circle50"/>
	<circle cx="166.059" cy="61.2937" r="4" fill="#0" id="circle51"/>
	<circle cx="167.696" cy="851.947" r="4" fill="#0" id="circle52"/>
	<circle cx="175.881" cy="866.68" r="4" fill="#0" id="circle53"/>
	<circle cx="177.518" cy="48.198" r="4" fill="#0" id="circle54"/>
	<circle cx="184.066" cy="881.413" r="4" fill="#0" id="circle55"/>
	<circle cx="190.614" cy="36.7393" r="4" fill="#0" id="circle56"/>
	<circle cx="193.888" cy="894.508" r="4" fill="#0" id="circle57"/>
	<circle cx="205.347" cy="28.5545" r="4" fill="#0" id="circle58"/>
	<circle cx="206.983" cy="905.967" r="4" fill="#0" id="circle59"/>
	<circle cx="216.805" cy="919.063" r="4" fill="#0" id="circle60"/>
	<circle cx="220.079" cy="20.3696" r="4" fill="#0" id="circle61"/>
	<circle cx="229.901" cy="930.521" r="4" fill="#0" id="circle62"/>
	<circle cx="234.812" cy="12.1848" r="4" fill="#0" id="circle63"/>
	<circle cx="244.634" cy="938.706" r="4" fill="#0" id="circle64"/>
	<circle cx="249.545" cy="4" r="4" fill="#0" id="circle65"/>
	<circle cx="257.729" cy="948.528" r="4" fill="#0" id="circle66"/>
	<circle cx="265.914" cy="4" r="4" fill="#0" id="circle67"/>
	<circle cx="269.188" cy="961.624" r="4" fill="#0" id="circle68"/>
	<circle cx="282.284" cy="4" r="4" fill="#0" id="circle69"/>
	<circle cx="285.558" cy="968.172" r="4" fill="#0" id="circle70"/>
	<circle cx="298.653" cy="4" r="4" fill="#0" id="circle71"/>
	<circle cx="298.653" cy="979.63" r="4" fill="#0" id="circle72"/>
	<circle cx="313.386" cy="987.815" r="4" fill="#0" id="circle73"/>
	<circle cx="315.023" cy="4" r="4" fill="#0" id="circle74"/>
	<circle cx="328.119" cy="996" r="4" fill="#0" id="circle75"/>
	<circle cx="331.393" cy="7.27393" r="4" fill="#0" id="circle76"/>
	<circle cx="344.488" cy="996" r="4" fill="#0" id="circle77"/>
	<circle cx="347.762" cy="12.1848" r="4" fill="#0" id="circle78"/>
	<circle cx="360.858" cy="994.363" r="4" fill="#0" id="circle79"/>
	<circle cx="362.495" cy="20.3696" r="4" fill="#0" id="circle80"/>
	<circle cx="377.228" cy="28.5545" r="4" fill="#0" id="circle81"/>
	<circle cx="377.228" cy="986.178" r="4" fill="#0" id="circle82"/>
	<circle cx="391.96" cy="36.7393" r="4" fill="#0" id="circle83"/>
	<circle cx="393.597" cy="977.993" r="4" fill="#0" id="circle84"/>
	<circle cx="406.693" cy="44.9241" r="4" fill="#0" id="circle85"/>
	<circle cx="406.693" cy="963.261" r="4" fill="#0" id="circle86"/>
	<circle cx="421.426" cy="53.1089" r="4" fill="#0" id="circle87"/>
	<circle cx="423.063" cy="955.076" r="4" fill="#0" id="circle88"/>
	<circle cx="436.158" cy="44.9241" r="4" fill="#0" id="circle89"/>
	<circle cx="436.158" cy="943.617" r="4" fill="#0" id="circle90"/>
	<circle cx="447.617" cy="930.521" r="4" fill="#0" id="circle91"/>
	<circle cx="450.891" cy="36.7393" r="4" fill="#0" id="circle92"/>
	<circle cx="460.713" cy="919.063" r="4" fill="#0" id="circle93"/>
	<circle cx="467.261" cy="36.7393" r="4" fill="#0" id="circle94"/>
	<circle cx="472.172" cy="905.967" r="4" fill="#0" id="circle95"/>
	<circle cx="480.356" cy="889.597" r="4" fill="#0" id="circle96"/>
	<circle cx="483.63" cy="36.7393" r="4" fill="#0" id="circle97"/>
	<circle cx="493.452" cy="878.139" r="4" fill="#0" id="circle98"/>
	<circle cx="500" cy="36.7393" r="4" fill="#0" id="circle99"/>
	<circle cx="504.911" cy="856.858" r="4" fill="#0" id="circle100"/>
	<circle cx="513.096" cy="832.304" r="4" fill="#0" id="circle101"/>
	<circle cx="514.733" cy="44.9241" r="4" fill="#0" id="circle102"/>
	<circle cx="521.281" cy="750.455" r="4" fill="#0" id="circle103"/>
	<circle cx="521.281" cy="766.825" r="4" fill="#0" id="circle104"/>
	<circle cx="521.281" cy="783.195" r="4" fill="#0" id="circle105"/>
	<circle cx="521.281" cy="799.564" r="4" fill="#0" id="circle106"/>
	<circle cx="521.281" cy="815.934" r="4" fill="#0" id="circle107"/>
	<circle cx="529.465" cy="53.1089" r="4" fill="#0" id="circle108"/>
	<circle cx="529.465" cy="725.901" r="4" fill="#0" id="circle109"/>
	<circle cx="537.65" cy="709.531" r="4" fill="#0" id="circle110"/>
	<circle cx="542.561" cy="62.9307" r="4" fill="#0" id="circle111"/>
	<circle cx="545.835" cy="684.977" r="4" fill="#0" id="circle112"/>
	<circle cx="554.02" cy="76.0264" r="4" fill="#0" id="circle113"/>
	<circle cx="554.02" cy="668.607" r="4" fill="#0" id="circle114"/>
	<circle cx="562.205" cy="90.7591" r="4" fill="#0" id="circle115"/>
	<circle cx="562.205" cy="611.314" r="4" fill="#0" id="circle116"/>
	<circle cx="562.205" cy="627.683" r="4" fill="#0" id="circle117"/>
	<circle cx="562.205" cy="644.053" r="4" fill="#0" id="circle118"/>
	<circle cx="570.389" cy="105.492" r="4" fill="#0" id="circle119"/>
	<circle cx="578.574" cy="120.224" r="4" fill="#0" id="circle120"/>
	<circle cx="578.574" cy="603.129" r="4" fill="#0" id="circle121"/>
	<circle cx="586.759" cy="134.957" r="4" fill="#0" id="circle122"/>
	<circle cx="586.759" cy="151.327" r="4" fill="#0" id="circle123"/>
	<circle cx="586.759" cy="167.696" r="4" fill="#0" id="circle124"/>
	<circle cx="586.759" cy="184.066" r="4" fill="#0" id="circle125"/>
	<circle cx="586.759" cy="200.436" r="4" fill="#0" id="circle126"/>
	<circle cx="586.759" cy="216.805" r="4" fill="#0" id="circle127"/>
	<circle cx="586.759" cy="233.175" r="4" fill="#0" id="circle128"/>
	<circle cx="586.759" cy="249.545" r="4" fill="#0" id="circle129"/>
	<circle cx="586.759" cy="265.914" r="4" fill="#0" id="circle130"/>
	<circle cx="586.759" cy="282.284" r="4" fill="#0" id="circle131"/>
	<circle cx="586.759" cy="298.653" r="4" fill="#0" id="circle132"/>
	<circle cx="586.759" cy="315.023" r="4" fill="#0" id="circle133"/>
	<circle cx="586.759" cy="331.393" r="4" fill="#0" id="circle134"/>
	<circle cx="586.759" cy="347.762" r="4" fill="#0" id="circle135"/>
	<circle cx="586.759" cy="364.132" r="4" fill="#0" id="circle136"/>
	<circle cx="594.944" cy="378.865" r="4" fill="#0" id="circle137"/>
	<circle cx="594.944" cy="586.759" r="4" fill="#0" id="circle138"/>
	<circle cx="603.129" cy="393.597" r="4" fill="#0" id="circle139"/>
	<circle cx="603.129" cy="562.205" r="4" fill="#0" id="circle140"/>
	<circle cx="611.314" cy="455.802" r="4" fill="#0" id="circle141"/>
	<circle cx="611.314" cy="472.172" r="4" fill="#0" id="circle142"/>
	<circle cx="611.314" cy="488.541" r="4" fill="#0" id="circle143"/>
	<circle cx="611.314" cy="504.911" r="4" fill="#0" id="circle144"/>
	<circle cx="611.314" cy="521.281" r="4" fill="#0" id="circle145"/>
	<circle cx="611.314" cy="537.65" r="4" fill="#0" id="circle146"/>
	<circle cx="614.587" cy="406.693" r="4" fill="#0" id="circle147"/>
	<circle cx="619.498" cy="423.063" r="4" fill="#0" id="circle148"/>
	<circle cx="619.498" cy="439.432" r="4" fill="#0" id="circle149"/>
	</g>
</svg>