<?xml version="1.0" encoding="UTF-8" standalone="no"?>
<!-- Created with CurveBenchmark -->
<svg
	xmlns:dc="http://purl.org/dc/elements/1.1/"
	xmlns:cc="http://creativecommons.org/ns#"
	xmlns:rdf="http://www.w3.org/1999/02/22-rdf-syntax-ns#"
	xmlns:svg="http://www.w3.org/2000/svg"
	xmlns="http://www.w3.org/2000/svg"
	xmlns:sodipodi="http://sodipodi.sourceforge.net/DTD/sodipodi-0.dtd"
	xmlns:inkscape="http://www.inkscape.org/namespaces/inkscape"
	width="1000"
	height="1000"
	id="svg2"
	version="1.1"
	sodipodi:docname="manifold/nncrust-guitar345.png.txt">
<defs
	id="defs4" />
<metadata
	id="metadata7">
	<rdf:RDF>
		<cc:Work
			rdf:about="">
			<dc:format>image/svg+xml</dc:format>
			<dc:type
				rdf:resource="http://purl.org/dc/dcmitype/StillImage" />
			<dc:title></dc:title>
		</cc:Work>
	</rdf:RDF>
</metadata>
<g
	inkscape:label="Layer 1"
	inkscape:groupmode="layer"
	id="layer1">
	<path style="fill:none;stroke:red;stroke-width:1px;stroke-linecap:butt;stroke-linejoin:miter;stroke-opacity:1" d="M 160.444,25.3333 153.333,89.3333 z" id="boundary" inkscape:connector-curvature="0" />
	<path style="fill:none;stroke:red;stroke-width:1px;stroke-linecap:butt;stroke-linejoin:miter;stroke-opacity:1" d="M 167.556,295.556 167.556,260 z" id="boundary" inkscape:connector-curvature="0" />
	<path style="fill:none;stroke:red;stroke-width:1px;stroke-linecap:butt;stroke-linejoin:miter;stroke-opacity:1" d="M 103.556,508.889 139.111,501.778 z" id="boundary" inkscape:connector-curvature="0" />
	<path style="fill:none;stroke:red;stroke-width:1px;stroke-linecap:butt;stroke-linejoin:miter;stroke-opacity:1" d="M 75.1111,530.222 103.556,508.889 z" id="boundary" inkscape:connector-curvature="0" />
	<path style="fill:none;stroke:red;stroke-width:1px;stroke-linecap:butt;stroke-linejoin:miter;stroke-opacity:1" d="M 167.556,331.111 167.556,366.667 z" id="boundary" inkscape:connector-curvature="0" />
	<path style="fill:none;stroke:red;stroke-width:1px;stroke-linecap:butt;stroke-linejoin:miter;stroke-opacity:1" d="M 167.556,295.556 167.556,331.111 z" id="boundary" inkscape:connector-curvature="0" />
	<path style="fill:none;stroke:red;stroke-width:1px;stroke-linecap:butt;stroke-linejoin:miter;stroke-opacity:1" d="M 167.556,366.667 167.556,402.222 z" id="boundary" inkscape:connector-curvature="0" />
	<path style="fill:none;stroke:red;stroke-width:1px;stroke-linecap:butt;stroke-linejoin:miter;stroke-opacity:1" d="M 174.667,153.333 174.667,188.889 z" id="boundary" inkscape:connector-curvature="0" />
	<path style="fill:none;stroke:red;stroke-width:1px;stroke-linecap:butt;stroke-linejoin:miter;stroke-opacity:1" d="M 174.667,153.333 174.667,117.778 z" id="boundary" inkscape:connector-curvature="0" />
	<path style="fill:none;stroke:red;stroke-width:1px;stroke-linecap:butt;stroke-linejoin:miter;stroke-opacity:1" d="M 174.667,117.778 220.889,124.889 z" id="boundary" inkscape:connector-curvature="0" />
	<path style="fill:none;stroke:red;stroke-width:1px;stroke-linecap:butt;stroke-linejoin:miter;stroke-opacity:1" d="M 174.667,224.444 174.667,188.889 z" id="boundary" inkscape:connector-curvature="0" />
	<path style="fill:none;stroke:red;stroke-width:1px;stroke-linecap:butt;stroke-linejoin:miter;stroke-opacity:1" d="M 174.667,117.778 153.333,89.3333 z" id="boundary" inkscape:connector-curvature="0" />
	<path style="fill:none;stroke:red;stroke-width:1px;stroke-linecap:butt;stroke-linejoin:miter;stroke-opacity:1" d="M 174.667,224.444 167.556,260 z" id="boundary" inkscape:connector-curvature="0" />
	<path style="fill:none;stroke:red;stroke-width:1px;stroke-linecap:butt;stroke-linejoin:miter;stroke-opacity:1" d="M 167.556,402.222 167.556,437.778 z" id="boundary" inkscape:connector-curvature="0" />
	<path style="fill:none;stroke:red;stroke-width:1px;stroke-linecap:butt;stroke-linejoin:miter;stroke-opacity:1" d="M 139.111,501.778 167.556,473.333 z" id="boundary" inkscape:connector-curvature="0" />
	<path style="fill:none;stroke:red;stroke-width:1px;stroke-linecap:butt;stroke-linejoin:miter;stroke-opacity:1" d="M 167.556,473.333 167.556,437.778 z" id="boundary" inkscape:connector-curvature="0" />
	<path style="fill:none;stroke:red;stroke-width:1px;stroke-linecap:butt;stroke-linejoin:miter;stroke-opacity:1" d="M 53.7778,953.333 28.8889,924.889 z" id="boundary" inkscape:connector-curvature="0" />
	<path style="fill:none;stroke:red;stroke-width:1px;stroke-linecap:butt;stroke-linejoin:miter;stroke-opacity:1" d="M 36,747.111 18.2222,779.111 z" id="boundary" inkscape:connector-curvature="0" />
	<path style="fill:none;stroke:red;stroke-width:1px;stroke-linecap:butt;stroke-linejoin:miter;stroke-opacity:1" d="M 53.7778,558.667 53.7778,594.222 z" id="boundary" inkscape:connector-curvature="0" />
	<path style="fill:none;stroke:red;stroke-width:1px;stroke-linecap:butt;stroke-linejoin:miter;stroke-opacity:1" d="M 53.7778,558.667 75.1111,530.222 z" id="boundary" inkscape:connector-curvature="0" />
	<path style="fill:none;stroke:red;stroke-width:1px;stroke-linecap:butt;stroke-linejoin:miter;stroke-opacity:1" d="M 18.2222,779.111 4,821.778 z" id="boundary" inkscape:connector-curvature="0" />
	<path style="fill:none;stroke:red;stroke-width:1px;stroke-linecap:butt;stroke-linejoin:miter;stroke-opacity:1" d="M 4,857.333 4,821.778 z" id="boundary" inkscape:connector-curvature="0" />
	<path style="fill:none;stroke:red;stroke-width:1px;stroke-linecap:butt;stroke-linejoin:miter;stroke-opacity:1" d="M 28.8889,924.889 11.1111,892.889 z" id="boundary" inkscape:connector-curvature="0" />
	<path style="fill:none;stroke:red;stroke-width:1px;stroke-linecap:butt;stroke-linejoin:miter;stroke-opacity:1" d="M 11.1111,892.889 4,857.333 z" id="boundary" inkscape:connector-curvature="0" />
	<path style="fill:none;stroke:red;stroke-width:1px;stroke-linecap:butt;stroke-linejoin:miter;stroke-opacity:1" d="M 53.7778,594.222 60.8889,629.778 z" id="boundary" inkscape:connector-curvature="0" />
	<path style="fill:none;stroke:red;stroke-width:1px;stroke-linecap:butt;stroke-linejoin:miter;stroke-opacity:1" d="M 60.8889,629.778 75.1111,665.333 z" id="boundary" inkscape:connector-curvature="0" />
	<path style="fill:none;stroke:red;stroke-width:1px;stroke-linecap:butt;stroke-linejoin:miter;stroke-opacity:1" d="M 75.1111,665.333 57.3333,718.667 z" id="boundary" inkscape:connector-curvature="0" />
	<path style="fill:none;stroke:red;stroke-width:1px;stroke-linecap:butt;stroke-linejoin:miter;stroke-opacity:1" d="M 57.3333,718.667 36,747.111 z" id="boundary" inkscape:connector-curvature="0" />
	<path style="fill:none;stroke:red;stroke-width:1px;stroke-linecap:butt;stroke-linejoin:miter;stroke-opacity:1" d="M 224.444,996 188.889,996 z" id="boundary" inkscape:connector-curvature="0" />
	<path style="fill:none;stroke:red;stroke-width:1px;stroke-linecap:butt;stroke-linejoin:miter;stroke-opacity:1" d="M 82.2222,974.667 53.7778,953.333 z" id="boundary" inkscape:connector-curvature="0" />
	<path style="fill:none;stroke:red;stroke-width:1px;stroke-linecap:butt;stroke-linejoin:miter;stroke-opacity:1" d="M 117.778,988.889 82.2222,974.667 z" id="boundary" inkscape:connector-curvature="0" />
	<path style="fill:none;stroke:red;stroke-width:1px;stroke-linecap:butt;stroke-linejoin:miter;stroke-opacity:1" d="M 153.333,996 117.778,988.889 z" id="boundary" inkscape:connector-curvature="0" />
	<path style="fill:none;stroke:red;stroke-width:1px;stroke-linecap:butt;stroke-linejoin:miter;stroke-opacity:1" d="M 188.889,996 153.333,996 z" id="boundary" inkscape:connector-curvature="0" />
	<path style="fill:none;stroke:red;stroke-width:1px;stroke-linecap:butt;stroke-linejoin:miter;stroke-opacity:1" d="M 160.444,25.3333 188.889,4 z" id="boundary" inkscape:connector-curvature="0" />
	<path style="fill:none;stroke:red;stroke-width:1px;stroke-linecap:butt;stroke-linejoin:miter;stroke-opacity:1" d="M 220.889,124.889 220.889,160.444 z" id="boundary" inkscape:connector-curvature="0" />
	<path style="fill:none;stroke:red;stroke-width:1px;stroke-linecap:butt;stroke-linejoin:miter;stroke-opacity:1" d="M 220.889,196 220.889,160.444 z" id="boundary" inkscape:connector-curvature="0" />
	<path style="fill:none;stroke:red;stroke-width:1px;stroke-linecap:butt;stroke-linejoin:miter;stroke-opacity:1" d="M 220.889,124.889 235.111,75.1111 z" id="boundary" inkscape:connector-curvature="0" />
	<path style="fill:none;stroke:red;stroke-width:1px;stroke-linecap:butt;stroke-linejoin:miter;stroke-opacity:1" d="M 224.444,4 235.111,39.5556 z" id="boundary" inkscape:connector-curvature="0" />
	<path style="fill:none;stroke:red;stroke-width:1px;stroke-linecap:butt;stroke-linejoin:miter;stroke-opacity:1" d="M 188.889,4 224.444,4 z" id="boundary" inkscape:connector-curvature="0" />
	<path style="fill:none;stroke:red;stroke-width:1px;stroke-linecap:butt;stroke-linejoin:miter;stroke-opacity:1" d="M 228,267.111 228,302.667 z" id="boundary" inkscape:connector-curvature="0" />
	<path style="fill:none;stroke:red;stroke-width:1px;stroke-linecap:butt;stroke-linejoin:miter;stroke-opacity:1" d="M 228,267.111 220.889,231.556 z" id="boundary" inkscape:connector-curvature="0" />
	<path style="fill:none;stroke:red;stroke-width:1px;stroke-linecap:butt;stroke-linejoin:miter;stroke-opacity:1" d="M 220.889,231.556 220.889,196 z" id="boundary" inkscape:connector-curvature="0" />
	<path style="fill:none;stroke:red;stroke-width:1px;stroke-linecap:butt;stroke-linejoin:miter;stroke-opacity:1" d="M 228,302.667 228,338.222 z" id="boundary" inkscape:connector-curvature="0" />
	<path style="fill:none;stroke:red;stroke-width:1px;stroke-linecap:butt;stroke-linejoin:miter;stroke-opacity:1" d="M 228,338.222 228,373.778 z" id="boundary" inkscape:connector-curvature="0" />
	<path style="fill:none;stroke:red;stroke-width:1px;stroke-linecap:butt;stroke-linejoin:miter;stroke-opacity:1" d="M 228,373.778 228,409.333 z" id="boundary" inkscape:connector-curvature="0" />
	<path style="fill:none;stroke:red;stroke-width:1px;stroke-linecap:butt;stroke-linejoin:miter;stroke-opacity:1" d="M 366.667,572.889 345.333,544.444 z" id="boundary" inkscape:connector-curvature="0" />
	<path style="fill:none;stroke:red;stroke-width:1px;stroke-linecap:butt;stroke-linejoin:miter;stroke-opacity:1" d="M 235.111,39.5556 235.111,75.1111 z" id="boundary" inkscape:connector-curvature="0" />
	<path style="fill:none;stroke:red;stroke-width:1px;stroke-linecap:butt;stroke-linejoin:miter;stroke-opacity:1" d="M 238.667,480.444 249.333,516 z" id="boundary" inkscape:connector-curvature="0" />
	<path style="fill:none;stroke:red;stroke-width:1px;stroke-linecap:butt;stroke-linejoin:miter;stroke-opacity:1" d="M 238.667,480.444 228,444.889 z" id="boundary" inkscape:connector-curvature="0" />
	<path style="fill:none;stroke:red;stroke-width:1px;stroke-linecap:butt;stroke-linejoin:miter;stroke-opacity:1" d="M 256.444,551.556 249.333,516 z" id="boundary" inkscape:connector-curvature="0" />
	<path style="fill:none;stroke:red;stroke-width:1px;stroke-linecap:butt;stroke-linejoin:miter;stroke-opacity:1" d="M 345.333,544.444 313.333,562.222 z" id="boundary" inkscape:connector-curvature="0" />
	<path style="fill:none;stroke:red;stroke-width:1px;stroke-linecap:butt;stroke-linejoin:miter;stroke-opacity:1" d="M 228,444.889 228,409.333 z" id="boundary" inkscape:connector-curvature="0" />
	<path style="fill:none;stroke:red;stroke-width:1px;stroke-linecap:butt;stroke-linejoin:miter;stroke-opacity:1" d="M 256.444,551.556 281.333,580 z" id="boundary" inkscape:connector-curvature="0" />
	<path style="fill:none;stroke:red;stroke-width:1px;stroke-linecap:butt;stroke-linejoin:miter;stroke-opacity:1" d="M 356,622.667 341.778,658.222 z" id="boundary" inkscape:connector-curvature="0" />
	<path style="fill:none;stroke:red;stroke-width:1px;stroke-linecap:butt;stroke-linejoin:miter;stroke-opacity:1" d="M 313.333,562.222 281.333,580 z" id="boundary" inkscape:connector-curvature="0" />
	<path style="fill:none;stroke:red;stroke-width:1px;stroke-linecap:butt;stroke-linejoin:miter;stroke-opacity:1" d="M 341.778,658.222 345.333,693.778 z" id="boundary" inkscape:connector-curvature="0" />
	<path style="fill:none;stroke:red;stroke-width:1px;stroke-linecap:butt;stroke-linejoin:miter;stroke-opacity:1" d="M 345.333,693.778 363.111,725.778 z" id="boundary" inkscape:connector-curvature="0" />
	<path style="fill:none;stroke:red;stroke-width:1px;stroke-linecap:butt;stroke-linejoin:miter;stroke-opacity:1" d="M 260,996 224.444,996 z" id="boundary" inkscape:connector-curvature="0" />
	<path style="fill:none;stroke:red;stroke-width:1px;stroke-linecap:butt;stroke-linejoin:miter;stroke-opacity:1" d="M 327.556,971.111 295.556,988.889 z" id="boundary" inkscape:connector-curvature="0" />
	<path style="fill:none;stroke:red;stroke-width:1px;stroke-linecap:butt;stroke-linejoin:miter;stroke-opacity:1" d="M 295.556,988.889 260,996 z" id="boundary" inkscape:connector-curvature="0" />
	<path style="fill:none;stroke:red;stroke-width:1px;stroke-linecap:butt;stroke-linejoin:miter;stroke-opacity:1" d="M 363.111,725.778 380.889,757.778 z" id="boundary" inkscape:connector-curvature="0" />
	<path style="fill:none;stroke:red;stroke-width:1px;stroke-linecap:butt;stroke-linejoin:miter;stroke-opacity:1" d="M 356,622.667 366.667,572.889 z" id="boundary" inkscape:connector-curvature="0" />
	<path style="fill:none;stroke:red;stroke-width:1px;stroke-linecap:butt;stroke-linejoin:miter;stroke-opacity:1" d="M 398.667,789.778 380.889,757.778 z" id="boundary" inkscape:connector-curvature="0" />
	<path style="fill:none;stroke:red;stroke-width:1px;stroke-linecap:butt;stroke-linejoin:miter;stroke-opacity:1" d="M 356,949.778 327.556,971.111 z" id="boundary" inkscape:connector-curvature="0" />
	<path style="fill:none;stroke:red;stroke-width:1px;stroke-linecap:butt;stroke-linejoin:miter;stroke-opacity:1" d="M 384.444,921.333 356,949.778 z" id="boundary" inkscape:connector-curvature="0" />
	<path style="fill:none;stroke:red;stroke-width:1px;stroke-linecap:butt;stroke-linejoin:miter;stroke-opacity:1" d="M 405.778,825.333 402.222,889.333 z" id="boundary" inkscape:connector-curvature="0" />
	<path style="fill:none;stroke:red;stroke-width:1px;stroke-linecap:butt;stroke-linejoin:miter;stroke-opacity:1" d="M 402.222,889.333 384.444,921.333 z" id="boundary" inkscape:connector-curvature="0" />
	<path style="fill:none;stroke:red;stroke-width:1px;stroke-linecap:butt;stroke-linejoin:miter;stroke-opacity:1" d="M 405.778,825.333 398.667,789.778 z" id="boundary" inkscape:connector-curvature="0" />
	<circle cx="4" cy="821.778" r="4" fill="#0" id="circle0"/>
	<circle cx="4" cy="857.333" r="4" fill="#0" id="circle1"/>
	<circle cx="11.1111" cy="892.889" r="4" fill="#0" id="circle2"/>
	<circle cx="18.2222" cy="779.111" r="4" fill="#0" id="circle3"/>
	<circle cx="28.8889" cy="924.889" r="4" fill="#0" id="circle4"/>
	<circle cx="36" cy="747.111" r="4" fill="#0" id="circle5"/>
	<circle cx="53.7778" cy="558.667" r="4" fill="#0" id="circle6"/>
	<circle cx="53.7778" cy="594.222" r="4" fill="#0" id="circle7"/>
	<circle cx="53.7778" cy="953.333" r="4" fill="#0" id="circle8"/>
	<circle cx="57.3333" cy="718.667" r="4" fill="#0" id="circle9"/>
	<circle cx="60.8889" cy="629.778" r="4" fill="#0" id="circle10"/>
	<circle cx="75.1111" cy="530.222" r="4" fill="#0" id="circle11"/>
	<circle cx="75.1111" cy="665.333" r="4" fill="#0" id="circle12"/>
	<circle cx="82.2222" cy="974.667" r="4" fill="#0" id="circle13"/>
	<circle cx="103.556" cy="508.889" r="4" fill="#0" id="circle14"/>
	<circle cx="117.778" cy="988.889" r="4" fill="#0" id="circle15"/>
	<circle cx="139.111" cy="501.778" r="4" fill="#0" id="circle16"/>
	<circle cx="153.333" cy="89.3333" r="4" fill="#0" id="circle17"/>
	<circle cx="153.333" cy="996" r="4" fill="#0" id="circle18"/>
	<circle cx="160.444" cy="25.3333" r="4" fill="#0" id="circle19"/>
	<circle cx="167.556" cy="260" r="4" fill="#0" id="circle20"/>
	<circle cx="167.556" cy="295.556" r="4" fill="#0" id="circle21"/>
	<circle cx="167.556" cy="331.111" r="4" fill="#0" id="circle22"/>
	<circle cx="167.556" cy="366.667" r="4" fill="#0" id="circle23"/>
	<circle cx="167.556" cy="402.222" r="4" fill="#0" id="circle24"/>
	<circle cx="167.556" cy="437.778" r="4" fill="#0" id="circle25"/>
	<circle cx="167.556" cy="473.333" r="4" fill="#0" id="circle26"/>
	<circle cx="174.667" cy="117.778" r="4" fill="#0" id="circle27"/>
	<circle cx="174.667" cy="153.333" r="4" fill="#0" id="circle28"/>
	<circle cx="174.667" cy="188.889" r="4" fill="#0" id="circle29"/>
	<circle cx="174.667" cy="224.444" r="4" fill="#0" id="circle30"/>
	<circle cx="188.889" cy="4" r="4" fill="#0" id="circle31"/>
	<circle cx="188.889" cy="996" r="4" fill="#0" id="circle32"/>
	<circle cx="220.889" cy="124.889" r="4" fill="#0" id="circle33"/>
	<circle cx="220.889" cy="160.444" r="4" fill="#0" id="circle34"/>
	<circle cx="220.889" cy="196" r="4" fill="#0" id="circle35"/>
	<circle cx="220.889" cy="231.556" r="4" fill="#0" id="circle36"/>
	<circle cx="224.444" cy="4" r="4" fill="#0" id="circle37"/>
	<circle cx="224.444" cy="996" r="4" fill="#0" id="circle38"/>
	<circle cx="228" cy="267.111" r="4" fill="#0" id="circle39"/>
	<circle cx="228" cy="302.667" r="4" fill="#0" id="circle40"/>
	<circle cx="228" cy="338.222" r="4" fill="#0" id="circle41"/>
	<circle cx="228" cy="373.778" r="4" fill="#0" id="circle42"/>
	<circle cx="228" cy="409.333" r="4" fill="#0" id="circle43"/>
	<circle cx="228" cy="444.889" r="4" fill="#0" id="circle44"/>
	<circle cx="235.111" cy="39.5556" r="4" fill="#0" id="circle45"/>
	<circle cx="235.111" cy="75.1111" r="4" fill="#0" id="circle46"/>
	<circle cx="238.667" cy="480.444" r="4" fill="#0" id="circle47"/>
	<circle cx="249.333" cy="516" r="4" fill="#0" id="circle48"/>
	<circle cx="256.444" cy="551.556" r="4" fill="#0" id="circle49"/>
	<circle cx="260" cy="996" r="4" fill="#0" id="circle50"/>
	<circle cx="281.333" cy="580" r="4" fill="#0" id="circle51"/>
	<circle cx="295.556" cy="988.889" r="4" fill="#0" id="circle52"/>
	<circle cx="313.333" cy="562.222" r="4" fill="#0" id="circle53"/>
	<circle cx="327.556" cy="971.111" r="4" fill="#0" id="circle54"/>
	<circle cx="341.778" cy="658.222" r="4" fill="#0" id="circle55"/>
	<circle cx="345.333" cy="544.444" r="4" fill="#0" id="circle56"/>
	<circle cx="345.333" cy="693.778" r="4" fill="#0" id="circle57"/>
	<circle cx="356" cy="622.667" r="4" fill="#0" id="circle58"/>
	<circle cx="356" cy="949.778" r="4" fill="#0" id="circle59"/>
	<circle cx="363.111" cy="725.778" r="4" fill="#0" id="circle60"/>
	<circle cx="366.667" cy="572.889" r="4" fill="#0" id="circle61"/>
	<circle cx="380.889" cy="757.778" r="4" fill="#0" id="circle62"/>
	<circle cx="384.444" cy="921.333" r="4" fill="#0" id="circle63"/>
	<circle cx="398.667" cy="789.778" r="4" fill="#0" id="circle64"/>
	<circle cx="402.222" cy="889.333" r="4" fill="#0" id="circle65"/>
	<circle cx="405.778" cy="825.333" r="4" fill="#0" id="circle66"/>
	</g>
</svg>