<?xml version="1.0" encoding="UTF-8" standalone="no"?>
<!-- Created with CurveBenchmark -->
<svg
	xmlns:dc="http://purl.org/dc/elements/1.1/"
	xmlns:cc="http://creativecommons.org/ns#"
	xmlns:rdf="http://www.w3.org/1999/02/22-rdf-syntax-ns#"
	xmlns:svg="http://www.w3.org/2000/svg"
	xmlns="http://www.w3.org/2000/svg"
	xmlns:sodipodi="http://sodipodi.sourceforge.net/DTD/sodipodi-0.dtd"
	xmlns:inkscape="http://www.inkscape.org/namespaces/inkscape"
	width="1000"
	height="1000"
	id="svg2"
	version="1.1"
	sodipodi:docname="manifold/nncrust-fish-6.png.txt">
<defs
	id="defs4" />
<metadata
	id="metadata7">
	<rdf:RDF>
		<cc:Work
			rdf:about="">
			<dc:format>image/svg+xml</dc:format>
			<dc:type
				rdf:resource="http://purl.org/dc/dcmitype/StillImage" />
			<dc:title></dc:title>
		</cc:Work>
	</rdf:RDF>
</metadata>
<g
	inkscape:label="Layer 1"
	inkscape:groupmode="layer"
	id="layer1">
	<path style="fill:none;stroke:red;stroke-width:1px;stroke-linecap:butt;stroke-linejoin:miter;stroke-opacity:1" d="M 182.33,51.1517 188.375,49.3382 z" id="boundary" inkscape:connector-curvature="0" />
	<path style="fill:none;stroke:red;stroke-width:1px;stroke-linecap:butt;stroke-linejoin:miter;stroke-opacity:1" d="M 205.906,46.3157 200.466,49.3382 z" id="boundary" inkscape:connector-curvature="0" />
	<path style="fill:none;stroke:red;stroke-width:1px;stroke-linecap:butt;stroke-linejoin:miter;stroke-opacity:1" d="M 200.466,49.3382 194.42,49.3382 z" id="boundary" inkscape:connector-curvature="0" />
	<path style="fill:none;stroke:red;stroke-width:1px;stroke-linecap:butt;stroke-linejoin:miter;stroke-opacity:1" d="M 194.42,49.3382 188.375,49.3382 z" id="boundary" inkscape:connector-curvature="0" />
	<path style="fill:none;stroke:red;stroke-width:1px;stroke-linecap:butt;stroke-linejoin:miter;stroke-opacity:1" d="M 205.906,46.3157 211.951,46.3157 z" id="boundary" inkscape:connector-curvature="0" />
	<path style="fill:none;stroke:red;stroke-width:1px;stroke-linecap:butt;stroke-linejoin:miter;stroke-opacity:1" d="M 176.285,52.3608 182.33,51.1517 z" id="boundary" inkscape:connector-curvature="0" />
	<path style="fill:none;stroke:red;stroke-width:1px;stroke-linecap:butt;stroke-linejoin:miter;stroke-opacity:1" d="M 69.287,58.4059 75.3321,55.3833 z" id="boundary" inkscape:connector-curvature="0" />
	<path style="fill:none;stroke:red;stroke-width:1px;stroke-linecap:butt;stroke-linejoin:miter;stroke-opacity:1" d="M 81.3772,55.3833 75.3321,55.3833 z" id="boundary" inkscape:connector-curvature="0" />
	<path style="fill:none;stroke:red;stroke-width:1px;stroke-linecap:butt;stroke-linejoin:miter;stroke-opacity:1" d="M 87.4223,55.3833 81.3772,55.3833 z" id="boundary" inkscape:connector-curvature="0" />
	<path style="fill:none;stroke:red;stroke-width:1px;stroke-linecap:butt;stroke-linejoin:miter;stroke-opacity:1" d="M 170.24,52.3608 164.195,52.3608 z" id="boundary" inkscape:connector-curvature="0" />
	<path style="fill:none;stroke:red;stroke-width:1px;stroke-linecap:butt;stroke-linejoin:miter;stroke-opacity:1" d="M 176.285,52.3608 170.24,52.3608 z" id="boundary" inkscape:connector-curvature="0" />
	<path style="fill:none;stroke:red;stroke-width:1px;stroke-linecap:butt;stroke-linejoin:miter;stroke-opacity:1" d="M 158.754,55.3833 164.195,52.3608 z" id="boundary" inkscape:connector-curvature="0" />
	<path style="fill:none;stroke:red;stroke-width:1px;stroke-linecap:butt;stroke-linejoin:miter;stroke-opacity:1" d="M 93.4674,55.3833 87.4223,55.3833 z" id="boundary" inkscape:connector-curvature="0" />
	<path style="fill:none;stroke:red;stroke-width:1px;stroke-linecap:butt;stroke-linejoin:miter;stroke-opacity:1" d="M 247.617,43.2931 253.662,43.2931 z" id="boundary" inkscape:connector-curvature="0" />
	<path style="fill:none;stroke:red;stroke-width:1px;stroke-linecap:butt;stroke-linejoin:miter;stroke-opacity:1" d="M 242.177,46.3157 247.617,43.2931 z" id="boundary" inkscape:connector-curvature="0" />
	<path style="fill:none;stroke:red;stroke-width:1px;stroke-linecap:butt;stroke-linejoin:miter;stroke-opacity:1" d="M 253.662,43.2931 259.707,43.2931 z" id="boundary" inkscape:connector-curvature="0" />
	<path style="fill:none;stroke:red;stroke-width:1px;stroke-linecap:butt;stroke-linejoin:miter;stroke-opacity:1" d="M 265.753,43.2931 259.707,43.2931 z" id="boundary" inkscape:connector-curvature="0" />
	<path style="fill:none;stroke:red;stroke-width:1px;stroke-linecap:butt;stroke-linejoin:miter;stroke-opacity:1" d="M 271.798,43.2931 265.753,43.2931 z" id="boundary" inkscape:connector-curvature="0" />
	<path style="fill:none;stroke:red;stroke-width:1px;stroke-linecap:butt;stroke-linejoin:miter;stroke-opacity:1" d="M 217.996,46.3157 211.951,46.3157 z" id="boundary" inkscape:connector-curvature="0" />
	<path style="fill:none;stroke:red;stroke-width:1px;stroke-linecap:butt;stroke-linejoin:miter;stroke-opacity:1" d="M 224.041,46.3157 217.996,46.3157 z" id="boundary" inkscape:connector-curvature="0" />
	<path style="fill:none;stroke:red;stroke-width:1px;stroke-linecap:butt;stroke-linejoin:miter;stroke-opacity:1" d="M 224.041,46.3157 230.087,46.3157 z" id="boundary" inkscape:connector-curvature="0" />
	<path style="fill:none;stroke:red;stroke-width:1px;stroke-linecap:butt;stroke-linejoin:miter;stroke-opacity:1" d="M 236.132,46.3157 230.087,46.3157 z" id="boundary" inkscape:connector-curvature="0" />
	<path style="fill:none;stroke:red;stroke-width:1px;stroke-linecap:butt;stroke-linejoin:miter;stroke-opacity:1" d="M 242.177,46.3157 236.132,46.3157 z" id="boundary" inkscape:connector-curvature="0" />
	<path style="fill:none;stroke:red;stroke-width:1px;stroke-linecap:butt;stroke-linejoin:miter;stroke-opacity:1" d="M 8.83608,58.4059 14.8812,58.4059 z" id="boundary" inkscape:connector-curvature="0" />
	<path style="fill:none;stroke:red;stroke-width:1px;stroke-linecap:butt;stroke-linejoin:miter;stroke-opacity:1" d="M 20.9263,58.4059 26.9714,58.4059 z" id="boundary" inkscape:connector-curvature="0" />
	<path style="fill:none;stroke:red;stroke-width:1px;stroke-linecap:butt;stroke-linejoin:miter;stroke-opacity:1" d="M 33.0165,58.4059 26.9714,58.4059 z" id="boundary" inkscape:connector-curvature="0" />
	<path style="fill:none;stroke:red;stroke-width:1px;stroke-linecap:butt;stroke-linejoin:miter;stroke-opacity:1" d="M 20.9263,58.4059 14.8812,58.4059 z" id="boundary" inkscape:connector-curvature="0" />
	<path style="fill:none;stroke:red;stroke-width:1px;stroke-linecap:butt;stroke-linejoin:miter;stroke-opacity:1" d="M 39.0615,58.4059 45.1066,58.4059 z" id="boundary" inkscape:connector-curvature="0" />
	<path style="fill:none;stroke:red;stroke-width:1px;stroke-linecap:butt;stroke-linejoin:miter;stroke-opacity:1" d="M 51.1517,58.4059 45.1066,58.4059 z" id="boundary" inkscape:connector-curvature="0" />
	<path style="fill:none;stroke:red;stroke-width:1px;stroke-linecap:butt;stroke-linejoin:miter;stroke-opacity:1" d="M 57.1968,58.4059 63.2419,58.4059 z" id="boundary" inkscape:connector-curvature="0" />
	<path style="fill:none;stroke:red;stroke-width:1px;stroke-linecap:butt;stroke-linejoin:miter;stroke-opacity:1" d="M 69.287,58.4059 63.2419,58.4059 z" id="boundary" inkscape:connector-curvature="0" />
	<path style="fill:none;stroke:red;stroke-width:1px;stroke-linecap:butt;stroke-linejoin:miter;stroke-opacity:1" d="M 57.1968,58.4059 51.1517,58.4059 z" id="boundary" inkscape:connector-curvature="0" />
	<path style="fill:none;stroke:red;stroke-width:1px;stroke-linecap:butt;stroke-linejoin:miter;stroke-opacity:1" d="M 39.0615,58.4059 33.0165,58.4059 z" id="boundary" inkscape:connector-curvature="0" />
	<path style="fill:none;stroke:red;stroke-width:1px;stroke-linecap:butt;stroke-linejoin:miter;stroke-opacity:1" d="M 93.4674,55.3833 99.5125,55.3833 z" id="boundary" inkscape:connector-curvature="0" />
	<path style="fill:none;stroke:red;stroke-width:1px;stroke-linecap:butt;stroke-linejoin:miter;stroke-opacity:1" d="M 110.394,55.3833 104.953,58.4059 z" id="boundary" inkscape:connector-curvature="0" />
	<path style="fill:none;stroke:red;stroke-width:1px;stroke-linecap:butt;stroke-linejoin:miter;stroke-opacity:1" d="M 104.953,58.4059 99.5125,55.3833 z" id="boundary" inkscape:connector-curvature="0" />
	<path style="fill:none;stroke:red;stroke-width:1px;stroke-linecap:butt;stroke-linejoin:miter;stroke-opacity:1" d="M 110.394,55.3833 116.439,55.3833 z" id="boundary" inkscape:connector-curvature="0" />
	<path style="fill:none;stroke:red;stroke-width:1px;stroke-linecap:butt;stroke-linejoin:miter;stroke-opacity:1" d="M 122.484,55.3833 116.439,55.3833 z" id="boundary" inkscape:connector-curvature="0" />
	<path style="fill:none;stroke:red;stroke-width:1px;stroke-linecap:butt;stroke-linejoin:miter;stroke-opacity:1" d="M 128.529,55.3833 122.484,55.3833 z" id="boundary" inkscape:connector-curvature="0" />
	<path style="fill:none;stroke:red;stroke-width:1px;stroke-linecap:butt;stroke-linejoin:miter;stroke-opacity:1" d="M 128.529,55.3833 134.574,55.3833 z" id="boundary" inkscape:connector-curvature="0" />
	<path style="fill:none;stroke:red;stroke-width:1px;stroke-linecap:butt;stroke-linejoin:miter;stroke-opacity:1" d="M 140.619,55.3833 134.574,55.3833 z" id="boundary" inkscape:connector-curvature="0" />
	<path style="fill:none;stroke:red;stroke-width:1px;stroke-linecap:butt;stroke-linejoin:miter;stroke-opacity:1" d="M 140.619,55.3833 146.664,55.3833 z" id="boundary" inkscape:connector-curvature="0" />
	<path style="fill:none;stroke:red;stroke-width:1px;stroke-linecap:butt;stroke-linejoin:miter;stroke-opacity:1" d="M 152.709,55.3833 146.664,55.3833 z" id="boundary" inkscape:connector-curvature="0" />
	<path style="fill:none;stroke:red;stroke-width:1px;stroke-linecap:butt;stroke-linejoin:miter;stroke-opacity:1" d="M 158.754,55.3833 152.709,55.3833 z" id="boundary" inkscape:connector-curvature="0" />
	<path style="fill:none;stroke:red;stroke-width:1px;stroke-linecap:butt;stroke-linejoin:miter;stroke-opacity:1" d="M 277.843,43.2931 283.888,43.2931 z" id="boundary" inkscape:connector-curvature="0" />
	<path style="fill:none;stroke:red;stroke-width:1px;stroke-linecap:butt;stroke-linejoin:miter;stroke-opacity:1" d="M 289.933,43.2931 295.978,43.2931 z" id="boundary" inkscape:connector-curvature="0" />
	<path style="fill:none;stroke:red;stroke-width:1px;stroke-linecap:butt;stroke-linejoin:miter;stroke-opacity:1" d="M 295.978,43.2931 301.419,46.3157 z" id="boundary" inkscape:connector-curvature="0" />
	<path style="fill:none;stroke:red;stroke-width:1px;stroke-linecap:butt;stroke-linejoin:miter;stroke-opacity:1" d="M 307.464,46.3157 301.419,46.3157 z" id="boundary" inkscape:connector-curvature="0" />
	<path style="fill:none;stroke:red;stroke-width:1px;stroke-linecap:butt;stroke-linejoin:miter;stroke-opacity:1" d="M 283.888,43.2931 289.933,43.2931 z" id="boundary" inkscape:connector-curvature="0" />
	<path style="fill:none;stroke:red;stroke-width:1px;stroke-linecap:butt;stroke-linejoin:miter;stroke-opacity:1" d="M 271.798,43.2931 277.843,43.2931 z" id="boundary" inkscape:connector-curvature="0" />
	<path style="fill:none;stroke:red;stroke-width:1px;stroke-linecap:butt;stroke-linejoin:miter;stroke-opacity:1" d="M 307.464,46.3157 313.509,46.3157 z" id="boundary" inkscape:connector-curvature="0" />
	<path style="fill:none;stroke:red;stroke-width:1px;stroke-linecap:butt;stroke-linejoin:miter;stroke-opacity:1" d="M 319.554,46.3157 313.509,46.3157 z" id="boundary" inkscape:connector-curvature="0" />
	<path style="fill:none;stroke:red;stroke-width:1px;stroke-linecap:butt;stroke-linejoin:miter;stroke-opacity:1" d="M 325.599,46.3157 331.644,46.3157 z" id="boundary" inkscape:connector-curvature="0" />
	<path style="fill:none;stroke:red;stroke-width:1px;stroke-linecap:butt;stroke-linejoin:miter;stroke-opacity:1" d="M 337.689,46.3157 331.644,46.3157 z" id="boundary" inkscape:connector-curvature="0" />
	<path style="fill:none;stroke:red;stroke-width:1px;stroke-linecap:butt;stroke-linejoin:miter;stroke-opacity:1" d="M 325.599,46.3157 319.554,46.3157 z" id="boundary" inkscape:connector-curvature="0" />
	<path style="fill:none;stroke:red;stroke-width:1px;stroke-linecap:butt;stroke-linejoin:miter;stroke-opacity:1" d="M 343.734,46.3157 337.689,46.3157 z" id="boundary" inkscape:connector-curvature="0" />
	<path style="fill:none;stroke:red;stroke-width:1px;stroke-linecap:butt;stroke-linejoin:miter;stroke-opacity:1" d="M 457.382,45.1066 463.427,43.2931 z" id="boundary" inkscape:connector-curvature="0" />
	<path style="fill:none;stroke:red;stroke-width:1px;stroke-linecap:butt;stroke-linejoin:miter;stroke-opacity:1" d="M 469.472,43.2931 463.427,43.2931 z" id="boundary" inkscape:connector-curvature="0" />
	<path style="fill:none;stroke:red;stroke-width:1px;stroke-linecap:butt;stroke-linejoin:miter;stroke-opacity:1" d="M 504.534,43.2931 498.489,43.2931 z" id="boundary" inkscape:connector-curvature="0" />
	<path style="fill:none;stroke:red;stroke-width:1px;stroke-linecap:butt;stroke-linejoin:miter;stroke-opacity:1" d="M 510.579,43.2931 504.534,43.2931 z" id="boundary" inkscape:connector-curvature="0" />
	<path style="fill:none;stroke:red;stroke-width:1px;stroke-linecap:butt;stroke-linejoin:miter;stroke-opacity:1" d="M 493.048,46.3157 498.489,43.2931 z" id="boundary" inkscape:connector-curvature="0" />
	<path style="fill:none;stroke:red;stroke-width:1px;stroke-linecap:butt;stroke-linejoin:miter;stroke-opacity:1" d="M 469.472,43.2931 474.913,46.3157 z" id="boundary" inkscape:connector-curvature="0" />
	<path style="fill:none;stroke:red;stroke-width:1px;stroke-linecap:butt;stroke-linejoin:miter;stroke-opacity:1" d="M 522.669,43.2931 516.624,43.2931 z" id="boundary" inkscape:connector-curvature="0" />
	<path style="fill:none;stroke:red;stroke-width:1px;stroke-linecap:butt;stroke-linejoin:miter;stroke-opacity:1" d="M 510.579,43.2931 516.624,43.2931 z" id="boundary" inkscape:connector-curvature="0" />
	<path style="fill:none;stroke:red;stroke-width:1px;stroke-linecap:butt;stroke-linejoin:miter;stroke-opacity:1" d="M 534.759,43.2931 528.714,43.2931 z" id="boundary" inkscape:connector-curvature="0" />
	<path style="fill:none;stroke:red;stroke-width:1px;stroke-linecap:butt;stroke-linejoin:miter;stroke-opacity:1" d="M 540.804,43.2931 534.759,43.2931 z" id="boundary" inkscape:connector-curvature="0" />
	<path style="fill:none;stroke:red;stroke-width:1px;stroke-linecap:butt;stroke-linejoin:miter;stroke-opacity:1" d="M 522.669,43.2931 528.714,43.2931 z" id="boundary" inkscape:connector-curvature="0" />
	<path style="fill:none;stroke:red;stroke-width:1px;stroke-linecap:butt;stroke-linejoin:miter;stroke-opacity:1" d="M 343.734,46.3157 349.779,46.3157 z" id="boundary" inkscape:connector-curvature="0" />
	<path style="fill:none;stroke:red;stroke-width:1px;stroke-linecap:butt;stroke-linejoin:miter;stroke-opacity:1" d="M 361.265,49.3382 355.824,46.3157 z" id="boundary" inkscape:connector-curvature="0" />
	<path style="fill:none;stroke:red;stroke-width:1px;stroke-linecap:butt;stroke-linejoin:miter;stroke-opacity:1" d="M 367.31,49.3382 361.265,49.3382 z" id="boundary" inkscape:connector-curvature="0" />
	<path style="fill:none;stroke:red;stroke-width:1px;stroke-linecap:butt;stroke-linejoin:miter;stroke-opacity:1" d="M 349.779,46.3157 355.824,46.3157 z" id="boundary" inkscape:connector-curvature="0" />
	<path style="fill:none;stroke:red;stroke-width:1px;stroke-linecap:butt;stroke-linejoin:miter;stroke-opacity:1" d="M 373.355,49.3382 367.31,49.3382 z" id="boundary" inkscape:connector-curvature="0" />
	<path style="fill:none;stroke:red;stroke-width:1px;stroke-linecap:butt;stroke-linejoin:miter;stroke-opacity:1" d="M 379.4,49.3382 373.355,49.3382 z" id="boundary" inkscape:connector-curvature="0" />
	<path style="fill:none;stroke:red;stroke-width:1px;stroke-linecap:butt;stroke-linejoin:miter;stroke-opacity:1" d="M 379.4,49.3382 385.445,49.3382 z" id="boundary" inkscape:connector-curvature="0" />
	<path style="fill:none;stroke:red;stroke-width:1px;stroke-linecap:butt;stroke-linejoin:miter;stroke-opacity:1" d="M 391.491,49.3382 385.445,49.3382 z" id="boundary" inkscape:connector-curvature="0" />
	<path style="fill:none;stroke:red;stroke-width:1px;stroke-linecap:butt;stroke-linejoin:miter;stroke-opacity:1" d="M 397.536,49.3382 391.491,49.3382 z" id="boundary" inkscape:connector-curvature="0" />
	<path style="fill:none;stroke:red;stroke-width:1px;stroke-linecap:butt;stroke-linejoin:miter;stroke-opacity:1" d="M 402.976,46.3157 397.536,49.3382 z" id="boundary" inkscape:connector-curvature="0" />
	<path style="fill:none;stroke:red;stroke-width:1px;stroke-linecap:butt;stroke-linejoin:miter;stroke-opacity:1" d="M 402.976,46.3157 409.021,46.3157 z" id="boundary" inkscape:connector-curvature="0" />
	<path style="fill:none;stroke:red;stroke-width:1px;stroke-linecap:butt;stroke-linejoin:miter;stroke-opacity:1" d="M 415.066,46.3157 409.021,46.3157 z" id="boundary" inkscape:connector-curvature="0" />
	<path style="fill:none;stroke:red;stroke-width:1px;stroke-linecap:butt;stroke-linejoin:miter;stroke-opacity:1" d="M 421.112,46.3157 415.066,46.3157 z" id="boundary" inkscape:connector-curvature="0" />
	<path style="fill:none;stroke:red;stroke-width:1px;stroke-linecap:butt;stroke-linejoin:miter;stroke-opacity:1" d="M 421.112,46.3157 427.157,46.3157 z" id="boundary" inkscape:connector-curvature="0" />
	<path style="fill:none;stroke:red;stroke-width:1px;stroke-linecap:butt;stroke-linejoin:miter;stroke-opacity:1" d="M 433.202,46.3157 427.157,46.3157 z" id="boundary" inkscape:connector-curvature="0" />
	<path style="fill:none;stroke:red;stroke-width:1px;stroke-linecap:butt;stroke-linejoin:miter;stroke-opacity:1" d="M 439.247,46.3157 433.202,46.3157 z" id="boundary" inkscape:connector-curvature="0" />
	<path style="fill:none;stroke:red;stroke-width:1px;stroke-linecap:butt;stroke-linejoin:miter;stroke-opacity:1" d="M 439.247,46.3157 445.292,46.3157 z" id="boundary" inkscape:connector-curvature="0" />
	<path style="fill:none;stroke:red;stroke-width:1px;stroke-linecap:butt;stroke-linejoin:miter;stroke-opacity:1" d="M 451.337,46.3157 445.292,46.3157 z" id="boundary" inkscape:connector-curvature="0" />
	<path style="fill:none;stroke:red;stroke-width:1px;stroke-linecap:butt;stroke-linejoin:miter;stroke-opacity:1" d="M 457.382,45.1066 451.337,46.3157 z" id="boundary" inkscape:connector-curvature="0" />
	<path style="fill:none;stroke:red;stroke-width:1px;stroke-linecap:butt;stroke-linejoin:miter;stroke-opacity:1" d="M 474.913,46.3157 480.958,46.3157 z" id="boundary" inkscape:connector-curvature="0" />
	<path style="fill:none;stroke:red;stroke-width:1px;stroke-linecap:butt;stroke-linejoin:miter;stroke-opacity:1" d="M 487.003,46.3157 480.958,46.3157 z" id="boundary" inkscape:connector-curvature="0" />
	<path style="fill:none;stroke:red;stroke-width:1px;stroke-linecap:butt;stroke-linejoin:miter;stroke-opacity:1" d="M 493.048,46.3157 487.003,46.3157 z" id="boundary" inkscape:connector-curvature="0" />
	<path style="fill:none;stroke:red;stroke-width:1px;stroke-linecap:butt;stroke-linejoin:miter;stroke-opacity:1" d="M 4,63.2419 8.83608,58.4059 z" id="boundary" inkscape:connector-curvature="0" />
	<path style="fill:none;stroke:red;stroke-width:1px;stroke-linecap:butt;stroke-linejoin:miter;stroke-opacity:1" d="M 8.83608,67.4735 4,63.2419 z" id="boundary" inkscape:connector-curvature="0" />
	<path style="fill:none;stroke:red;stroke-width:1px;stroke-linecap:butt;stroke-linejoin:miter;stroke-opacity:1" d="M 14.8812,68.078 20.9263,68.078 z" id="boundary" inkscape:connector-curvature="0" />
	<path style="fill:none;stroke:red;stroke-width:1px;stroke-linecap:butt;stroke-linejoin:miter;stroke-opacity:1" d="M 20.9263,68.078 26.3668,71.1005 z" id="boundary" inkscape:connector-curvature="0" />
	<path style="fill:none;stroke:red;stroke-width:1px;stroke-linecap:butt;stroke-linejoin:miter;stroke-opacity:1" d="M 14.8812,68.078 8.83608,67.4735 z" id="boundary" inkscape:connector-curvature="0" />
	<path style="fill:none;stroke:red;stroke-width:1px;stroke-linecap:butt;stroke-linejoin:miter;stroke-opacity:1" d="M 32.4119,71.1005 38.457,71.1005 z" id="boundary" inkscape:connector-curvature="0" />
	<path style="fill:none;stroke:red;stroke-width:1px;stroke-linecap:butt;stroke-linejoin:miter;stroke-opacity:1" d="M 32.4119,71.1005 26.3668,71.1005 z" id="boundary" inkscape:connector-curvature="0" />
	<path style="fill:none;stroke:red;stroke-width:1px;stroke-linecap:butt;stroke-linejoin:miter;stroke-opacity:1" d="M 38.457,71.1005 44.5021,71.1005 z" id="boundary" inkscape:connector-curvature="0" />
	<path style="fill:none;stroke:red;stroke-width:1px;stroke-linecap:butt;stroke-linejoin:miter;stroke-opacity:1" d="M 44.5021,71.1005 47.5247,76.5411 z" id="boundary" inkscape:connector-curvature="0" />
	<path style="fill:none;stroke:red;stroke-width:1px;stroke-linecap:butt;stroke-linejoin:miter;stroke-opacity:1" d="M 58.4059,80.1682 52.3608,80.1682 z" id="boundary" inkscape:connector-curvature="0" />
	<path style="fill:none;stroke:red;stroke-width:1px;stroke-linecap:butt;stroke-linejoin:miter;stroke-opacity:1" d="M 52.3608,80.1682 47.5247,76.5411 z" id="boundary" inkscape:connector-curvature="0" />
	<path style="fill:none;stroke:red;stroke-width:1px;stroke-linecap:butt;stroke-linejoin:miter;stroke-opacity:1" d="M 70.496,77.1456 76.5411,77.1456 z" id="boundary" inkscape:connector-curvature="0" />
	<path style="fill:none;stroke:red;stroke-width:1px;stroke-linecap:butt;stroke-linejoin:miter;stroke-opacity:1" d="M 64.4509,78.3547 70.496,77.1456 z" id="boundary" inkscape:connector-curvature="0" />
	<path style="fill:none;stroke:red;stroke-width:1px;stroke-linecap:butt;stroke-linejoin:miter;stroke-opacity:1" d="M 82.5862,77.1456 88.6313,77.1456 z" id="boundary" inkscape:connector-curvature="0" />
	<path style="fill:none;stroke:red;stroke-width:1px;stroke-linecap:butt;stroke-linejoin:miter;stroke-opacity:1" d="M 82.5862,77.1456 76.5411,77.1456 z" id="boundary" inkscape:connector-curvature="0" />
	<path style="fill:none;stroke:red;stroke-width:1px;stroke-linecap:butt;stroke-linejoin:miter;stroke-opacity:1" d="M 88.6313,77.1456 94.6764,77.1456 z" id="boundary" inkscape:connector-curvature="0" />
	<path style="fill:none;stroke:red;stroke-width:1px;stroke-linecap:butt;stroke-linejoin:miter;stroke-opacity:1" d="M 94.6764,77.1456 100.722,77.1456 z" id="boundary" inkscape:connector-curvature="0" />
	<path style="fill:none;stroke:red;stroke-width:1px;stroke-linecap:butt;stroke-linejoin:miter;stroke-opacity:1" d="M 100.722,77.1456 106.767,77.1456 z" id="boundary" inkscape:connector-curvature="0" />
	<path style="fill:none;stroke:red;stroke-width:1px;stroke-linecap:butt;stroke-linejoin:miter;stroke-opacity:1" d="M 112.812,77.1456 118.857,77.1456 z" id="boundary" inkscape:connector-curvature="0" />
	<path style="fill:none;stroke:red;stroke-width:1px;stroke-linecap:butt;stroke-linejoin:miter;stroke-opacity:1" d="M 118.857,77.1456 124.297,80.1682 z" id="boundary" inkscape:connector-curvature="0" />
	<path style="fill:none;stroke:red;stroke-width:1px;stroke-linecap:butt;stroke-linejoin:miter;stroke-opacity:1" d="M 112.812,77.1456 106.767,77.1456 z" id="boundary" inkscape:connector-curvature="0" />
	<path style="fill:none;stroke:red;stroke-width:1px;stroke-linecap:butt;stroke-linejoin:miter;stroke-opacity:1" d="M 130.342,80.1682 124.297,80.1682 z" id="boundary" inkscape:connector-curvature="0" />
	<path style="fill:none;stroke:red;stroke-width:1px;stroke-linecap:butt;stroke-linejoin:miter;stroke-opacity:1" d="M 58.4059,80.1682 64.4509,78.3547 z" id="boundary" inkscape:connector-curvature="0" />
	<path style="fill:none;stroke:red;stroke-width:1px;stroke-linecap:butt;stroke-linejoin:miter;stroke-opacity:1" d="M 130.342,80.1682 136.388,80.1682 z" id="boundary" inkscape:connector-curvature="0" />
	<path style="fill:none;stroke:red;stroke-width:1px;stroke-linecap:butt;stroke-linejoin:miter;stroke-opacity:1" d="M 142.433,80.1682 148.478,80.1682 z" id="boundary" inkscape:connector-curvature="0" />
	<path style="fill:none;stroke:red;stroke-width:1px;stroke-linecap:butt;stroke-linejoin:miter;stroke-opacity:1" d="M 142.433,80.1682 136.388,80.1682 z" id="boundary" inkscape:connector-curvature="0" />
	<path style="fill:none;stroke:red;stroke-width:1px;stroke-linecap:butt;stroke-linejoin:miter;stroke-opacity:1" d="M 148.478,80.1682 154.523,80.1682 z" id="boundary" inkscape:connector-curvature="0" />
	<path style="fill:none;stroke:red;stroke-width:1px;stroke-linecap:butt;stroke-linejoin:miter;stroke-opacity:1" d="M 160.568,80.1682 166.613,80.1682 z" id="boundary" inkscape:connector-curvature="0" />
	<path style="fill:none;stroke:red;stroke-width:1px;stroke-linecap:butt;stroke-linejoin:miter;stroke-opacity:1" d="M 166.613,80.1682 172.054,83.1907 z" id="boundary" inkscape:connector-curvature="0" />
	<path style="fill:none;stroke:red;stroke-width:1px;stroke-linecap:butt;stroke-linejoin:miter;stroke-opacity:1" d="M 160.568,80.1682 154.523,80.1682 z" id="boundary" inkscape:connector-curvature="0" />
	<path style="fill:none;stroke:red;stroke-width:1px;stroke-linecap:butt;stroke-linejoin:miter;stroke-opacity:1" d="M 178.099,83.1907 172.054,83.1907 z" id="boundary" inkscape:connector-curvature="0" />
	<path style="fill:none;stroke:red;stroke-width:1px;stroke-linecap:butt;stroke-linejoin:miter;stroke-opacity:1" d="M 178.099,83.1907 184.144,83.1907 z" id="boundary" inkscape:connector-curvature="0" />
	<path style="fill:none;stroke:red;stroke-width:1px;stroke-linecap:butt;stroke-linejoin:miter;stroke-opacity:1" d="M 184.144,83.1907 190.189,83.1907 z" id="boundary" inkscape:connector-curvature="0" />
	<path style="fill:none;stroke:red;stroke-width:1px;stroke-linecap:butt;stroke-linejoin:miter;stroke-opacity:1" d="M 207.72,86.2133 201.675,86.2133 z" id="boundary" inkscape:connector-curvature="0" />
	<path style="fill:none;stroke:red;stroke-width:1px;stroke-linecap:butt;stroke-linejoin:miter;stroke-opacity:1" d="M 201.675,86.2133 196.234,83.1907 z" id="boundary" inkscape:connector-curvature="0" />
	<path style="fill:none;stroke:red;stroke-width:1px;stroke-linecap:butt;stroke-linejoin:miter;stroke-opacity:1" d="M 190.189,83.1907 196.234,83.1907 z" id="boundary" inkscape:connector-curvature="0" />
	<path style="fill:none;stroke:red;stroke-width:1px;stroke-linecap:butt;stroke-linejoin:miter;stroke-opacity:1" d="M 225.855,89.2358 219.81,88.0268 z" id="boundary" inkscape:connector-curvature="0" />
	<path style="fill:none;stroke:red;stroke-width:1px;stroke-linecap:butt;stroke-linejoin:miter;stroke-opacity:1" d="M 219.81,88.0268 213.765,86.2133 z" id="boundary" inkscape:connector-curvature="0" />
	<path style="fill:none;stroke:red;stroke-width:1px;stroke-linecap:butt;stroke-linejoin:miter;stroke-opacity:1" d="M 207.72,86.2133 213.765,86.2133 z" id="boundary" inkscape:connector-curvature="0" />
	<path style="fill:none;stroke:red;stroke-width:1px;stroke-linecap:butt;stroke-linejoin:miter;stroke-opacity:1" d="M 231.9,89.2358 225.855,89.2358 z" id="boundary" inkscape:connector-curvature="0" />
	<path style="fill:none;stroke:red;stroke-width:1px;stroke-linecap:butt;stroke-linejoin:miter;stroke-opacity:1" d="M 243.99,92.2584 237.945,91.0494 z" id="boundary" inkscape:connector-curvature="0" />
	<path style="fill:none;stroke:red;stroke-width:1px;stroke-linecap:butt;stroke-linejoin:miter;stroke-opacity:1" d="M 237.945,91.0494 231.9,89.2358 z" id="boundary" inkscape:connector-curvature="0" />
	<path style="fill:none;stroke:red;stroke-width:1px;stroke-linecap:butt;stroke-linejoin:miter;stroke-opacity:1" d="M 250.035,92.2584 256.08,92.2584 z" id="boundary" inkscape:connector-curvature="0" />
	<path style="fill:none;stroke:red;stroke-width:1px;stroke-linecap:butt;stroke-linejoin:miter;stroke-opacity:1" d="M 250.035,92.2584 243.99,92.2584 z" id="boundary" inkscape:connector-curvature="0" />
	<path style="fill:none;stroke:red;stroke-width:1px;stroke-linecap:butt;stroke-linejoin:miter;stroke-opacity:1" d="M 256.08,92.2584 262.126,92.2584 z" id="boundary" inkscape:connector-curvature="0" />
	<path style="fill:none;stroke:red;stroke-width:1px;stroke-linecap:butt;stroke-linejoin:miter;stroke-opacity:1" d="M 268.171,92.2584 274.216,92.2584 z" id="boundary" inkscape:connector-curvature="0" />
	<path style="fill:none;stroke:red;stroke-width:1px;stroke-linecap:butt;stroke-linejoin:miter;stroke-opacity:1" d="M 274.216,92.2584 279.656,95.2809 z" id="boundary" inkscape:connector-curvature="0" />
	<path style="fill:none;stroke:red;stroke-width:1px;stroke-linecap:butt;stroke-linejoin:miter;stroke-opacity:1" d="M 268.171,92.2584 262.126,92.2584 z" id="boundary" inkscape:connector-curvature="0" />
	<path style="fill:none;stroke:red;stroke-width:1px;stroke-linecap:butt;stroke-linejoin:miter;stroke-opacity:1" d="M 279.656,95.2809 285.701,95.2809 z" id="boundary" inkscape:connector-curvature="0" />
	<path style="fill:none;stroke:red;stroke-width:1px;stroke-linecap:butt;stroke-linejoin:miter;stroke-opacity:1" d="M 285.701,95.2809 291.746,95.2809 z" id="boundary" inkscape:connector-curvature="0" />
	<path style="fill:none;stroke:red;stroke-width:1px;stroke-linecap:butt;stroke-linejoin:miter;stroke-opacity:1" d="M 297.792,95.2809 303.837,95.2809 z" id="boundary" inkscape:connector-curvature="0" />
	<path style="fill:none;stroke:red;stroke-width:1px;stroke-linecap:butt;stroke-linejoin:miter;stroke-opacity:1" d="M 297.792,95.2809 291.746,95.2809 z" id="boundary" inkscape:connector-curvature="0" />
	<path style="fill:none;stroke:red;stroke-width:1px;stroke-linecap:butt;stroke-linejoin:miter;stroke-opacity:1" d="M 303.837,95.2809 309.882,95.2809 z" id="boundary" inkscape:connector-curvature="0" />
	<path style="fill:none;stroke:red;stroke-width:1px;stroke-linecap:butt;stroke-linejoin:miter;stroke-opacity:1" d="M 309.882,95.2809 315.322,98.3035 z" id="boundary" inkscape:connector-curvature="0" />
	<path style="fill:none;stroke:red;stroke-width:1px;stroke-linecap:butt;stroke-linejoin:miter;stroke-opacity:1" d="M 315.322,98.3035 321.367,98.3035 z" id="boundary" inkscape:connector-curvature="0" />
	<path style="fill:none;stroke:red;stroke-width:1px;stroke-linecap:butt;stroke-linejoin:miter;stroke-opacity:1" d="M 321.367,98.3035 327.413,98.3035 z" id="boundary" inkscape:connector-curvature="0" />
	<path style="fill:none;stroke:red;stroke-width:1px;stroke-linecap:butt;stroke-linejoin:miter;stroke-opacity:1" d="M 459.8,98.3035 453.755,98.3035 z" id="boundary" inkscape:connector-curvature="0" />
	<path style="fill:none;stroke:red;stroke-width:1px;stroke-linecap:butt;stroke-linejoin:miter;stroke-opacity:1" d="M 496.071,98.3035 501.511,95.2809 z" id="boundary" inkscape:connector-curvature="0" />
	<path style="fill:none;stroke:red;stroke-width:1px;stroke-linecap:butt;stroke-linejoin:miter;stroke-opacity:1" d="M 501.511,95.2809 507.556,95.2809 z" id="boundary" inkscape:connector-curvature="0" />
	<path style="fill:none;stroke:red;stroke-width:1px;stroke-linecap:butt;stroke-linejoin:miter;stroke-opacity:1" d="M 513.601,95.2809 519.647,95.2809 z" id="boundary" inkscape:connector-curvature="0" />
	<path style="fill:none;stroke:red;stroke-width:1px;stroke-linecap:butt;stroke-linejoin:miter;stroke-opacity:1" d="M 513.601,95.2809 507.556,95.2809 z" id="boundary" inkscape:connector-curvature="0" />
	<path style="fill:none;stroke:red;stroke-width:1px;stroke-linecap:butt;stroke-linejoin:miter;stroke-opacity:1" d="M 519.647,95.2809 525.692,95.2809 z" id="boundary" inkscape:connector-curvature="0" />
	<path style="fill:none;stroke:red;stroke-width:1px;stroke-linecap:butt;stroke-linejoin:miter;stroke-opacity:1" d="M 333.458,98.3035 339.503,98.3035 z" id="boundary" inkscape:connector-curvature="0" />
	<path style="fill:none;stroke:red;stroke-width:1px;stroke-linecap:butt;stroke-linejoin:miter;stroke-opacity:1" d="M 333.458,98.3035 327.413,98.3035 z" id="boundary" inkscape:connector-curvature="0" />
	<path style="fill:none;stroke:red;stroke-width:1px;stroke-linecap:butt;stroke-linejoin:miter;stroke-opacity:1" d="M 339.503,98.3035 345.548,98.3035 z" id="boundary" inkscape:connector-curvature="0" />
	<path style="fill:none;stroke:red;stroke-width:1px;stroke-linecap:butt;stroke-linejoin:miter;stroke-opacity:1" d="M 351.593,98.3035 345.548,98.3035 z" id="boundary" inkscape:connector-curvature="0" />
	<path style="fill:none;stroke:red;stroke-width:1px;stroke-linecap:butt;stroke-linejoin:miter;stroke-opacity:1" d="M 531.737,95.2809 537.782,95.2809 z" id="boundary" inkscape:connector-curvature="0" />
	<path style="fill:none;stroke:red;stroke-width:1px;stroke-linecap:butt;stroke-linejoin:miter;stroke-opacity:1" d="M 405.394,101.326 399.349,101.326 z" id="boundary" inkscape:connector-curvature="0" />
	<path style="fill:none;stroke:red;stroke-width:1px;stroke-linecap:butt;stroke-linejoin:miter;stroke-opacity:1" d="M 525.692,95.2809 531.737,95.2809 z" id="boundary" inkscape:connector-curvature="0" />
	<path style="fill:none;stroke:red;stroke-width:1px;stroke-linecap:butt;stroke-linejoin:miter;stroke-opacity:1" d="M 351.593,98.3035 357.034,101.326 z" id="boundary" inkscape:connector-curvature="0" />
	<path style="fill:none;stroke:red;stroke-width:1px;stroke-linecap:butt;stroke-linejoin:miter;stroke-opacity:1" d="M 453.755,98.3035 447.71,100.117 z" id="boundary" inkscape:connector-curvature="0" />
	<path style="fill:none;stroke:red;stroke-width:1px;stroke-linecap:butt;stroke-linejoin:miter;stroke-opacity:1" d="M 357.034,101.326 363.079,101.326 z" id="boundary" inkscape:connector-curvature="0" />
	<path style="fill:none;stroke:red;stroke-width:1px;stroke-linecap:butt;stroke-linejoin:miter;stroke-opacity:1" d="M 369.124,101.326 375.169,101.326 z" id="boundary" inkscape:connector-curvature="0" />
	<path style="fill:none;stroke:red;stroke-width:1px;stroke-linecap:butt;stroke-linejoin:miter;stroke-opacity:1" d="M 369.124,101.326 363.079,101.326 z" id="boundary" inkscape:connector-curvature="0" />
	<path style="fill:none;stroke:red;stroke-width:1px;stroke-linecap:butt;stroke-linejoin:miter;stroke-opacity:1" d="M 375.169,101.326 381.214,101.326 z" id="boundary" inkscape:connector-curvature="0" />
	<path style="fill:none;stroke:red;stroke-width:1px;stroke-linecap:butt;stroke-linejoin:miter;stroke-opacity:1" d="M 387.259,101.326 393.304,101.326 z" id="boundary" inkscape:connector-curvature="0" />
	<path style="fill:none;stroke:red;stroke-width:1px;stroke-linecap:butt;stroke-linejoin:miter;stroke-opacity:1" d="M 387.259,101.326 381.214,101.326 z" id="boundary" inkscape:connector-curvature="0" />
	<path style="fill:none;stroke:red;stroke-width:1px;stroke-linecap:butt;stroke-linejoin:miter;stroke-opacity:1" d="M 393.304,101.326 399.349,101.326 z" id="boundary" inkscape:connector-curvature="0" />
	<path style="fill:none;stroke:red;stroke-width:1px;stroke-linecap:butt;stroke-linejoin:miter;stroke-opacity:1" d="M 405.394,101.326 411.439,101.326 z" id="boundary" inkscape:connector-curvature="0" />
	<path style="fill:none;stroke:red;stroke-width:1px;stroke-linecap:butt;stroke-linejoin:miter;stroke-opacity:1" d="M 417.484,101.326 411.439,101.326 z" id="boundary" inkscape:connector-curvature="0" />
	<path style="fill:none;stroke:red;stroke-width:1px;stroke-linecap:butt;stroke-linejoin:miter;stroke-opacity:1" d="M 459.8,98.3035 465.845,98.3035 z" id="boundary" inkscape:connector-curvature="0" />
	<path style="fill:none;stroke:red;stroke-width:1px;stroke-linecap:butt;stroke-linejoin:miter;stroke-opacity:1" d="M 471.89,98.3035 465.845,98.3035 z" id="boundary" inkscape:connector-curvature="0" />
	<path style="fill:none;stroke:red;stroke-width:1px;stroke-linecap:butt;stroke-linejoin:miter;stroke-opacity:1" d="M 477.935,98.3035 483.98,98.3035 z" id="boundary" inkscape:connector-curvature="0" />
	<path style="fill:none;stroke:red;stroke-width:1px;stroke-linecap:butt;stroke-linejoin:miter;stroke-opacity:1" d="M 490.026,98.3035 483.98,98.3035 z" id="boundary" inkscape:connector-curvature="0" />
	<path style="fill:none;stroke:red;stroke-width:1px;stroke-linecap:butt;stroke-linejoin:miter;stroke-opacity:1" d="M 477.935,98.3035 471.89,98.3035 z" id="boundary" inkscape:connector-curvature="0" />
	<path style="fill:none;stroke:red;stroke-width:1px;stroke-linecap:butt;stroke-linejoin:miter;stroke-opacity:1" d="M 423.53,101.326 429.575,101.326 z" id="boundary" inkscape:connector-curvature="0" />
	<path style="fill:none;stroke:red;stroke-width:1px;stroke-linecap:butt;stroke-linejoin:miter;stroke-opacity:1" d="M 435.62,101.326 429.575,101.326 z" id="boundary" inkscape:connector-curvature="0" />
	<path style="fill:none;stroke:red;stroke-width:1px;stroke-linecap:butt;stroke-linejoin:miter;stroke-opacity:1" d="M 441.665,101.326 447.71,100.117 z" id="boundary" inkscape:connector-curvature="0" />
	<path style="fill:none;stroke:red;stroke-width:1px;stroke-linecap:butt;stroke-linejoin:miter;stroke-opacity:1" d="M 441.665,101.326 435.62,101.326 z" id="boundary" inkscape:connector-curvature="0" />
	<path style="fill:none;stroke:red;stroke-width:1px;stroke-linecap:butt;stroke-linejoin:miter;stroke-opacity:1" d="M 490.026,98.3035 496.071,98.3035 z" id="boundary" inkscape:connector-curvature="0" />
	<path style="fill:none;stroke:red;stroke-width:1px;stroke-linecap:butt;stroke-linejoin:miter;stroke-opacity:1" d="M 423.53,101.326 417.484,101.326 z" id="boundary" inkscape:connector-curvature="0" />
	<path style="fill:none;stroke:red;stroke-width:1px;stroke-linecap:butt;stroke-linejoin:miter;stroke-opacity:1" d="M 537.782,95.2809 543.827,95.2809 z" id="boundary" inkscape:connector-curvature="0" />
	<path style="fill:none;stroke:red;stroke-width:1px;stroke-linecap:butt;stroke-linejoin:miter;stroke-opacity:1" d="M 642.966,37.248 636.921,37.248 z" id="boundary" inkscape:connector-curvature="0" />
	<path style="fill:none;stroke:red;stroke-width:1px;stroke-linecap:butt;stroke-linejoin:miter;stroke-opacity:1" d="M 649.012,34.83 642.966,37.248 z" id="boundary" inkscape:connector-curvature="0" />
	<path style="fill:none;stroke:red;stroke-width:1px;stroke-linecap:butt;stroke-linejoin:miter;stroke-opacity:1" d="M 655.057,31.8074 659.893,28.1804 z" id="boundary" inkscape:connector-curvature="0" />
	<path style="fill:none;stroke:red;stroke-width:1px;stroke-linecap:butt;stroke-linejoin:miter;stroke-opacity:1" d="M 659.893,28.1804 664.729,31.8074 z" id="boundary" inkscape:connector-curvature="0" />
	<path style="fill:none;stroke:red;stroke-width:1px;stroke-linecap:butt;stroke-linejoin:miter;stroke-opacity:1" d="M 655.057,31.8074 649.012,34.83 z" id="boundary" inkscape:connector-curvature="0" />
	<path style="fill:none;stroke:red;stroke-width:1px;stroke-linecap:butt;stroke-linejoin:miter;stroke-opacity:1" d="M 607.3,40.2706 601.255,40.2706 z" id="boundary" inkscape:connector-curvature="0" />
	<path style="fill:none;stroke:red;stroke-width:1px;stroke-linecap:butt;stroke-linejoin:miter;stroke-opacity:1" d="M 664.729,31.8074 666.542,37.8525 z" id="boundary" inkscape:connector-curvature="0" />
	<path style="fill:none;stroke:red;stroke-width:1px;stroke-linecap:butt;stroke-linejoin:miter;stroke-opacity:1" d="M 583.12,40.2706 589.165,40.2706 z" id="boundary" inkscape:connector-curvature="0" />
	<path style="fill:none;stroke:red;stroke-width:1px;stroke-linecap:butt;stroke-linejoin:miter;stroke-opacity:1" d="M 577.075,43.2931 583.12,40.2706 z" id="boundary" inkscape:connector-curvature="0" />
	<path style="fill:none;stroke:red;stroke-width:1px;stroke-linecap:butt;stroke-linejoin:miter;stroke-opacity:1" d="M 595.21,40.2706 589.165,40.2706 z" id="boundary" inkscape:connector-curvature="0" />
	<path style="fill:none;stroke:red;stroke-width:1px;stroke-linecap:butt;stroke-linejoin:miter;stroke-opacity:1" d="M 631.481,40.2706 636.921,37.248 z" id="boundary" inkscape:connector-curvature="0" />
	<path style="fill:none;stroke:red;stroke-width:1px;stroke-linecap:butt;stroke-linejoin:miter;stroke-opacity:1" d="M 601.255,40.2706 595.21,40.2706 z" id="boundary" inkscape:connector-curvature="0" />
	<path style="fill:none;stroke:red;stroke-width:1px;stroke-linecap:butt;stroke-linejoin:miter;stroke-opacity:1" d="M 666.542,37.8525 669.565,43.2931 z" id="boundary" inkscape:connector-curvature="0" />
	<path style="fill:none;stroke:red;stroke-width:1px;stroke-linecap:butt;stroke-linejoin:miter;stroke-opacity:1" d="M 546.849,43.2931 540.804,43.2931 z" id="boundary" inkscape:connector-curvature="0" />
	<path style="fill:none;stroke:red;stroke-width:1px;stroke-linecap:butt;stroke-linejoin:miter;stroke-opacity:1" d="M 769.309,23.3443 774.145,19.1127 z" id="boundary" inkscape:connector-curvature="0" />
	<path style="fill:none;stroke:red;stroke-width:1px;stroke-linecap:butt;stroke-linejoin:miter;stroke-opacity:1" d="M 779.586,16.0902 785.026,13.0676 z" id="boundary" inkscape:connector-curvature="0" />
	<path style="fill:none;stroke:red;stroke-width:1px;stroke-linecap:butt;stroke-linejoin:miter;stroke-opacity:1" d="M 779.586,16.0902 774.145,19.1127 z" id="boundary" inkscape:connector-curvature="0" />
	<path style="fill:none;stroke:red;stroke-width:1px;stroke-linecap:butt;stroke-linejoin:miter;stroke-opacity:1" d="M 764.473,28.1804 769.309,23.3443 z" id="boundary" inkscape:connector-curvature="0" />
	<path style="fill:none;stroke:red;stroke-width:1px;stroke-linecap:butt;stroke-linejoin:miter;stroke-opacity:1" d="M 717.926,40.2706 723.366,37.248 z" id="boundary" inkscape:connector-curvature="0" />
	<path style="fill:none;stroke:red;stroke-width:1px;stroke-linecap:butt;stroke-linejoin:miter;stroke-opacity:1" d="M 723.366,37.248 729.411,37.248 z" id="boundary" inkscape:connector-curvature="0" />
	<path style="fill:none;stroke:red;stroke-width:1px;stroke-linecap:butt;stroke-linejoin:miter;stroke-opacity:1" d="M 735.456,38.457 729.411,37.248 z" id="boundary" inkscape:connector-curvature="0" />
	<path style="fill:none;stroke:red;stroke-width:1px;stroke-linecap:butt;stroke-linejoin:miter;stroke-opacity:1" d="M 754.196,35.4345 759.032,31.2029 z" id="boundary" inkscape:connector-curvature="0" />
	<path style="fill:none;stroke:red;stroke-width:1px;stroke-linecap:butt;stroke-linejoin:miter;stroke-opacity:1" d="M 759.032,31.2029 764.473,28.1804 z" id="boundary" inkscape:connector-curvature="0" />
	<path style="fill:none;stroke:red;stroke-width:1px;stroke-linecap:butt;stroke-linejoin:miter;stroke-opacity:1" d="M 750.569,40.2706 754.196,35.4345 z" id="boundary" inkscape:connector-curvature="0" />
	<path style="fill:none;stroke:red;stroke-width:1px;stroke-linecap:butt;stroke-linejoin:miter;stroke-opacity:1" d="M 791.071,10.6496 785.026,13.0676 z" id="boundary" inkscape:connector-curvature="0" />
	<path style="fill:none;stroke:red;stroke-width:1px;stroke-linecap:butt;stroke-linejoin:miter;stroke-opacity:1" d="M 795.907,7.02255 791.071,10.6496 z" id="boundary" inkscape:connector-curvature="0" />
	<path style="fill:none;stroke:red;stroke-width:1px;stroke-linecap:butt;stroke-linejoin:miter;stroke-opacity:1" d="M 735.456,38.457 739.083,43.2931 z" id="boundary" inkscape:connector-curvature="0" />
	<path style="fill:none;stroke:red;stroke-width:1px;stroke-linecap:butt;stroke-linejoin:miter;stroke-opacity:1" d="M 613.346,40.2706 607.3,40.2706 z" id="boundary" inkscape:connector-curvature="0" />
	<path style="fill:none;stroke:red;stroke-width:1px;stroke-linecap:butt;stroke-linejoin:miter;stroke-opacity:1" d="M 613.346,40.2706 619.391,40.2706 z" id="boundary" inkscape:connector-curvature="0" />
	<path style="fill:none;stroke:red;stroke-width:1px;stroke-linecap:butt;stroke-linejoin:miter;stroke-opacity:1" d="M 625.436,40.2706 619.391,40.2706 z" id="boundary" inkscape:connector-curvature="0" />
	<path style="fill:none;stroke:red;stroke-width:1px;stroke-linecap:butt;stroke-linejoin:miter;stroke-opacity:1" d="M 631.481,40.2706 625.436,40.2706 z" id="boundary" inkscape:connector-curvature="0" />
	<path style="fill:none;stroke:red;stroke-width:1px;stroke-linecap:butt;stroke-linejoin:miter;stroke-opacity:1" d="M 546.849,43.2931 552.895,43.2931 z" id="boundary" inkscape:connector-curvature="0" />
	<path style="fill:none;stroke:red;stroke-width:1px;stroke-linecap:butt;stroke-linejoin:miter;stroke-opacity:1" d="M 558.94,43.2931 552.895,43.2931 z" id="boundary" inkscape:connector-curvature="0" />
	<path style="fill:none;stroke:red;stroke-width:1px;stroke-linecap:butt;stroke-linejoin:miter;stroke-opacity:1" d="M 564.985,43.2931 571.03,43.2931 z" id="boundary" inkscape:connector-curvature="0" />
	<path style="fill:none;stroke:red;stroke-width:1px;stroke-linecap:butt;stroke-linejoin:miter;stroke-opacity:1" d="M 577.075,43.2931 571.03,43.2931 z" id="boundary" inkscape:connector-curvature="0" />
	<path style="fill:none;stroke:red;stroke-width:1px;stroke-linecap:butt;stroke-linejoin:miter;stroke-opacity:1" d="M 564.985,43.2931 558.94,43.2931 z" id="boundary" inkscape:connector-curvature="0" />
	<path style="fill:none;stroke:red;stroke-width:1px;stroke-linecap:butt;stroke-linejoin:miter;stroke-opacity:1" d="M 681.655,41.4796 687.7,40.2706 z" id="boundary" inkscape:connector-curvature="0" />
	<path style="fill:none;stroke:red;stroke-width:1px;stroke-linecap:butt;stroke-linejoin:miter;stroke-opacity:1" d="M 693.745,40.2706 687.7,40.2706 z" id="boundary" inkscape:connector-curvature="0" />
	<path style="fill:none;stroke:red;stroke-width:1px;stroke-linecap:butt;stroke-linejoin:miter;stroke-opacity:1" d="M 693.745,40.2706 699.79,42.0841 z" id="boundary" inkscape:connector-curvature="0" />
	<path style="fill:none;stroke:red;stroke-width:1px;stroke-linecap:butt;stroke-linejoin:miter;stroke-opacity:1" d="M 711.881,41.4796 717.926,40.2706 z" id="boundary" inkscape:connector-curvature="0" />
	<path style="fill:none;stroke:red;stroke-width:1px;stroke-linecap:butt;stroke-linejoin:miter;stroke-opacity:1" d="M 750.569,40.2706 745.129,43.2931 z" id="boundary" inkscape:connector-curvature="0" />
	<path style="fill:none;stroke:red;stroke-width:1px;stroke-linecap:butt;stroke-linejoin:miter;stroke-opacity:1" d="M 675.61,43.2931 669.565,43.2931 z" id="boundary" inkscape:connector-curvature="0" />
	<path style="fill:none;stroke:red;stroke-width:1px;stroke-linecap:butt;stroke-linejoin:miter;stroke-opacity:1" d="M 675.61,43.2931 681.655,41.4796 z" id="boundary" inkscape:connector-curvature="0" />
	<path style="fill:none;stroke:red;stroke-width:1px;stroke-linecap:butt;stroke-linejoin:miter;stroke-opacity:1" d="M 705.835,43.2931 699.79,42.0841 z" id="boundary" inkscape:connector-curvature="0" />
	<path style="fill:none;stroke:red;stroke-width:1px;stroke-linecap:butt;stroke-linejoin:miter;stroke-opacity:1" d="M 711.881,41.4796 705.835,43.2931 z" id="boundary" inkscape:connector-curvature="0" />
	<path style="fill:none;stroke:red;stroke-width:1px;stroke-linecap:butt;stroke-linejoin:miter;stroke-opacity:1" d="M 739.083,43.2931 745.129,43.2931 z" id="boundary" inkscape:connector-curvature="0" />
	<path style="fill:none;stroke:red;stroke-width:1px;stroke-linecap:butt;stroke-linejoin:miter;stroke-opacity:1" d="M 801.952,7.02255 795.907,7.02255 z" id="boundary" inkscape:connector-curvature="0" />
	<path style="fill:none;stroke:red;stroke-width:1px;stroke-linecap:butt;stroke-linejoin:miter;stroke-opacity:1" d="M 807.393,4 801.952,7.02255 z" id="boundary" inkscape:connector-curvature="0" />
	<path style="fill:none;stroke:red;stroke-width:1px;stroke-linecap:butt;stroke-linejoin:miter;stroke-opacity:1" d="M 807.393,4 813.438,4.60451 z" id="boundary" inkscape:connector-curvature="0" />
	<path style="fill:none;stroke:red;stroke-width:1px;stroke-linecap:butt;stroke-linejoin:miter;stroke-opacity:1" d="M 813.438,4.60451 814.647,10.6496 z" id="boundary" inkscape:connector-curvature="0" />
	<path style="fill:none;stroke:red;stroke-width:1px;stroke-linecap:butt;stroke-linejoin:miter;stroke-opacity:1" d="M 814.647,10.6496 811.625,19.7172 z" id="boundary" inkscape:connector-curvature="0" />
	<path style="fill:none;stroke:red;stroke-width:1px;stroke-linecap:butt;stroke-linejoin:miter;stroke-opacity:1" d="M 811.625,19.7172 811.625,25.7623 z" id="boundary" inkscape:connector-curvature="0" />
	<path style="fill:none;stroke:red;stroke-width:1px;stroke-linecap:butt;stroke-linejoin:miter;stroke-opacity:1" d="M 811.625,31.8074 811.625,25.7623 z" id="boundary" inkscape:connector-curvature="0" />
	<path style="fill:none;stroke:red;stroke-width:1px;stroke-linecap:butt;stroke-linejoin:miter;stroke-opacity:1" d="M 811.625,37.8525 811.625,31.8074 z" id="boundary" inkscape:connector-curvature="0" />
	<path style="fill:none;stroke:red;stroke-width:1px;stroke-linecap:butt;stroke-linejoin:miter;stroke-opacity:1" d="M 941.594,41.4796 946.43,37.248 z" id="boundary" inkscape:connector-curvature="0" />
	<path style="fill:none;stroke:red;stroke-width:1px;stroke-linecap:butt;stroke-linejoin:miter;stroke-opacity:1" d="M 811.625,37.8525 811.625,43.8976 z" id="boundary" inkscape:connector-curvature="0" />
	<path style="fill:none;stroke:red;stroke-width:1px;stroke-linecap:butt;stroke-linejoin:miter;stroke-opacity:1" d="M 968.797,25.1578 974.238,22.1353 z" id="boundary" inkscape:connector-curvature="0" />
	<path style="fill:none;stroke:red;stroke-width:1px;stroke-linecap:butt;stroke-linejoin:miter;stroke-opacity:1" d="M 968.797,25.1578 962.752,26.3668 z" id="boundary" inkscape:connector-curvature="0" />
	<path style="fill:none;stroke:red;stroke-width:1px;stroke-linecap:butt;stroke-linejoin:miter;stroke-opacity:1" d="M 980.283,20.9263 974.238,22.1353 z" id="boundary" inkscape:connector-curvature="0" />
	<path style="fill:none;stroke:red;stroke-width:1px;stroke-linecap:butt;stroke-linejoin:miter;stroke-opacity:1" d="M 986.328,19.1127 980.283,20.9263 z" id="boundary" inkscape:connector-curvature="0" />
	<path style="fill:none;stroke:red;stroke-width:1px;stroke-linecap:butt;stroke-linejoin:miter;stroke-opacity:1" d="M 986.328,19.1127 992.373,19.1127 z" id="boundary" inkscape:connector-curvature="0" />
	<path style="fill:none;stroke:red;stroke-width:1px;stroke-linecap:butt;stroke-linejoin:miter;stroke-opacity:1" d="M 992.373,19.1127 996,23.9488 z" id="boundary" inkscape:connector-curvature="0" />
	<path style="fill:none;stroke:red;stroke-width:1px;stroke-linecap:butt;stroke-linejoin:miter;stroke-opacity:1" d="M 996,23.9488 994.186,34.2255 z" id="boundary" inkscape:connector-curvature="0" />
	<path style="fill:none;stroke:red;stroke-width:1px;stroke-linecap:butt;stroke-linejoin:miter;stroke-opacity:1" d="M 951.871,34.2255 956.707,29.3894 z" id="boundary" inkscape:connector-curvature="0" />
	<path style="fill:none;stroke:red;stroke-width:1px;stroke-linecap:butt;stroke-linejoin:miter;stroke-opacity:1" d="M 951.871,34.2255 946.43,37.248 z" id="boundary" inkscape:connector-curvature="0" />
	<path style="fill:none;stroke:red;stroke-width:1px;stroke-linecap:butt;stroke-linejoin:miter;stroke-opacity:1" d="M 962.752,26.3668 956.707,29.3894 z" id="boundary" inkscape:connector-curvature="0" />
	<path style="fill:none;stroke:red;stroke-width:1px;stroke-linecap:butt;stroke-linejoin:miter;stroke-opacity:1" d="M 985.723,42.6886 989.35,37.8525 z" id="boundary" inkscape:connector-curvature="0" />
	<path style="fill:none;stroke:red;stroke-width:1px;stroke-linecap:butt;stroke-linejoin:miter;stroke-opacity:1" d="M 989.35,37.8525 994.186,34.2255 z" id="boundary" inkscape:connector-curvature="0" />
	<path style="fill:none;stroke:red;stroke-width:1px;stroke-linecap:butt;stroke-linejoin:miter;stroke-opacity:1" d="M 982.701,48.7337 985.723,42.6886 z" id="boundary" inkscape:connector-curvature="0" />
	<path style="fill:none;stroke:red;stroke-width:1px;stroke-linecap:butt;stroke-linejoin:miter;stroke-opacity:1" d="M 816.461,47.5247 811.625,43.8976 z" id="boundary" inkscape:connector-curvature="0" />
	<path style="fill:none;stroke:red;stroke-width:1px;stroke-linecap:butt;stroke-linejoin:miter;stroke-opacity:1" d="M 828.551,49.9427 822.506,49.3382 z" id="boundary" inkscape:connector-curvature="0" />
	<path style="fill:none;stroke:red;stroke-width:1px;stroke-linecap:butt;stroke-linejoin:miter;stroke-opacity:1" d="M 822.506,49.3382 816.461,47.5247 z" id="boundary" inkscape:connector-curvature="0" />
	<path style="fill:none;stroke:red;stroke-width:1px;stroke-linecap:butt;stroke-linejoin:miter;stroke-opacity:1" d="M 840.037,46.3157 846.082,46.3157 z" id="boundary" inkscape:connector-curvature="0" />
	<path style="fill:none;stroke:red;stroke-width:1px;stroke-linecap:butt;stroke-linejoin:miter;stroke-opacity:1" d="M 846.082,46.3157 847.895,52.3608 z" id="boundary" inkscape:connector-curvature="0" />
	<path style="fill:none;stroke:red;stroke-width:1px;stroke-linecap:butt;stroke-linejoin:miter;stroke-opacity:1" d="M 828.551,49.9427 834.596,49.3382 z" id="boundary" inkscape:connector-curvature="0" />
	<path style="fill:none;stroke:red;stroke-width:1px;stroke-linecap:butt;stroke-linejoin:miter;stroke-opacity:1" d="M 840.037,46.3157 834.596,49.3382 z" id="boundary" inkscape:connector-curvature="0" />
	<path style="fill:none;stroke:red;stroke-width:1px;stroke-linecap:butt;stroke-linejoin:miter;stroke-opacity:1" d="M 853.94,52.3608 859.985,52.3608 z" id="boundary" inkscape:connector-curvature="0" />
	<path style="fill:none;stroke:red;stroke-width:1px;stroke-linecap:butt;stroke-linejoin:miter;stroke-opacity:1" d="M 853.94,52.3608 847.895,52.3608 z" id="boundary" inkscape:connector-curvature="0" />
	<path style="fill:none;stroke:red;stroke-width:1px;stroke-linecap:butt;stroke-linejoin:miter;stroke-opacity:1" d="M 859.985,52.3608 866.03,52.3608 z" id="boundary" inkscape:connector-curvature="0" />
	<path style="fill:none;stroke:red;stroke-width:1px;stroke-linecap:butt;stroke-linejoin:miter;stroke-opacity:1" d="M 872.076,52.3608 866.03,52.3608 z" id="boundary" inkscape:connector-curvature="0" />
	<path style="fill:none;stroke:red;stroke-width:1px;stroke-linecap:butt;stroke-linejoin:miter;stroke-opacity:1" d="M 901.697,55.3833 895.651,55.3833 z" id="boundary" inkscape:connector-curvature="0" />
	<path style="fill:none;stroke:red;stroke-width:1px;stroke-linecap:butt;stroke-linejoin:miter;stroke-opacity:1" d="M 925.877,52.3608 919.832,52.3608 z" id="boundary" inkscape:connector-curvature="0" />
	<path style="fill:none;stroke:red;stroke-width:1px;stroke-linecap:butt;stroke-linejoin:miter;stroke-opacity:1" d="M 931.317,49.3382 925.877,52.3608 z" id="boundary" inkscape:connector-curvature="0" />
	<path style="fill:none;stroke:red;stroke-width:1px;stroke-linecap:butt;stroke-linejoin:miter;stroke-opacity:1" d="M 913.787,54.1743 919.832,52.3608 z" id="boundary" inkscape:connector-curvature="0" />
	<path style="fill:none;stroke:red;stroke-width:1px;stroke-linecap:butt;stroke-linejoin:miter;stroke-opacity:1" d="M 931.317,49.3382 936.758,46.3157 z" id="boundary" inkscape:connector-curvature="0" />
	<path style="fill:none;stroke:red;stroke-width:1px;stroke-linecap:butt;stroke-linejoin:miter;stroke-opacity:1" d="M 982.701,48.7337 977.865,52.9653 z" id="boundary" inkscape:connector-curvature="0" />
	<path style="fill:none;stroke:red;stroke-width:1px;stroke-linecap:butt;stroke-linejoin:miter;stroke-opacity:1" d="M 936.758,46.3157 941.594,41.4796 z" id="boundary" inkscape:connector-curvature="0" />
	<path style="fill:none;stroke:red;stroke-width:1px;stroke-linecap:butt;stroke-linejoin:miter;stroke-opacity:1" d="M 877.516,55.3833 883.561,55.3833 z" id="boundary" inkscape:connector-curvature="0" />
	<path style="fill:none;stroke:red;stroke-width:1px;stroke-linecap:butt;stroke-linejoin:miter;stroke-opacity:1" d="M 877.516,55.3833 872.076,52.3608 z" id="boundary" inkscape:connector-curvature="0" />
	<path style="fill:none;stroke:red;stroke-width:1px;stroke-linecap:butt;stroke-linejoin:miter;stroke-opacity:1" d="M 889.606,55.3833 883.561,55.3833 z" id="boundary" inkscape:connector-curvature="0" />
	<path style="fill:none;stroke:red;stroke-width:1px;stroke-linecap:butt;stroke-linejoin:miter;stroke-opacity:1" d="M 895.651,55.3833 889.606,55.3833 z" id="boundary" inkscape:connector-curvature="0" />
	<path style="fill:none;stroke:red;stroke-width:1px;stroke-linecap:butt;stroke-linejoin:miter;stroke-opacity:1" d="M 977.865,52.9653 977.865,59.0104 z" id="boundary" inkscape:connector-curvature="0" />
	<path style="fill:none;stroke:red;stroke-width:1px;stroke-linecap:butt;stroke-linejoin:miter;stroke-opacity:1" d="M 609.718,89.2358 603.673,89.2358 z" id="boundary" inkscape:connector-curvature="0" />
	<path style="fill:none;stroke:red;stroke-width:1px;stroke-linecap:butt;stroke-linejoin:miter;stroke-opacity:1" d="M 645.989,89.2358 639.944,89.2358 z" id="boundary" inkscape:connector-curvature="0" />
	<path style="fill:none;stroke:red;stroke-width:1px;stroke-linecap:butt;stroke-linejoin:miter;stroke-opacity:1" d="M 669.565,86.2133 663.52,86.2133 z" id="boundary" inkscape:connector-curvature="0" />
	<path style="fill:none;stroke:red;stroke-width:1px;stroke-linecap:butt;stroke-linejoin:miter;stroke-opacity:1" d="M 675.61,86.2133 669.565,86.2133 z" id="boundary" inkscape:connector-curvature="0" />
	<path style="fill:none;stroke:red;stroke-width:1px;stroke-linecap:butt;stroke-linejoin:miter;stroke-opacity:1" d="M 652.034,89.2358 657.475,86.2133 z" id="boundary" inkscape:connector-curvature="0" />
	<path style="fill:none;stroke:red;stroke-width:1px;stroke-linecap:butt;stroke-linejoin:miter;stroke-opacity:1" d="M 657.475,86.2133 663.52,86.2133 z" id="boundary" inkscape:connector-curvature="0" />
	<path style="fill:none;stroke:red;stroke-width:1px;stroke-linecap:butt;stroke-linejoin:miter;stroke-opacity:1" d="M 609.718,89.2358 615.764,89.2358 z" id="boundary" inkscape:connector-curvature="0" />
	<path style="fill:none;stroke:red;stroke-width:1px;stroke-linecap:butt;stroke-linejoin:miter;stroke-opacity:1" d="M 621.809,89.2358 615.764,89.2358 z" id="boundary" inkscape:connector-curvature="0" />
	<path style="fill:none;stroke:red;stroke-width:1px;stroke-linecap:butt;stroke-linejoin:miter;stroke-opacity:1" d="M 627.854,89.2358 633.899,89.2358 z" id="boundary" inkscape:connector-curvature="0" />
	<path style="fill:none;stroke:red;stroke-width:1px;stroke-linecap:butt;stroke-linejoin:miter;stroke-opacity:1" d="M 639.944,89.2358 633.899,89.2358 z" id="boundary" inkscape:connector-curvature="0" />
	<path style="fill:none;stroke:red;stroke-width:1px;stroke-linecap:butt;stroke-linejoin:miter;stroke-opacity:1" d="M 627.854,89.2358 621.809,89.2358 z" id="boundary" inkscape:connector-curvature="0" />
	<path style="fill:none;stroke:red;stroke-width:1px;stroke-linecap:butt;stroke-linejoin:miter;stroke-opacity:1" d="M 598.233,92.2584 603.673,89.2358 z" id="boundary" inkscape:connector-curvature="0" />
	<path style="fill:none;stroke:red;stroke-width:1px;stroke-linecap:butt;stroke-linejoin:miter;stroke-opacity:1" d="M 681.655,86.2133 687.7,86.2133 z" id="boundary" inkscape:connector-curvature="0" />
	<path style="fill:none;stroke:red;stroke-width:1px;stroke-linecap:butt;stroke-linejoin:miter;stroke-opacity:1" d="M 693.745,86.2133 699.79,86.2133 z" id="boundary" inkscape:connector-curvature="0" />
	<path style="fill:none;stroke:red;stroke-width:1px;stroke-linecap:butt;stroke-linejoin:miter;stroke-opacity:1" d="M 705.835,86.2133 699.79,86.2133 z" id="boundary" inkscape:connector-curvature="0" />
	<path style="fill:none;stroke:red;stroke-width:1px;stroke-linecap:butt;stroke-linejoin:miter;stroke-opacity:1" d="M 705.835,86.2133 711.276,89.2358 z" id="boundary" inkscape:connector-curvature="0" />
	<path style="fill:none;stroke:red;stroke-width:1px;stroke-linecap:butt;stroke-linejoin:miter;stroke-opacity:1" d="M 693.745,86.2133 687.7,86.2133 z" id="boundary" inkscape:connector-curvature="0" />
	<path style="fill:none;stroke:red;stroke-width:1px;stroke-linecap:butt;stroke-linejoin:miter;stroke-opacity:1" d="M 741.502,87.4223 747.547,86.2133 z" id="boundary" inkscape:connector-curvature="0" />
	<path style="fill:none;stroke:red;stroke-width:1px;stroke-linecap:butt;stroke-linejoin:miter;stroke-opacity:1" d="M 723.366,87.4223 717.321,89.2358 z" id="boundary" inkscape:connector-curvature="0" />
	<path style="fill:none;stroke:red;stroke-width:1px;stroke-linecap:butt;stroke-linejoin:miter;stroke-opacity:1" d="M 747.547,86.2133 753.592,86.2133 z" id="boundary" inkscape:connector-curvature="0" />
	<path style="fill:none;stroke:red;stroke-width:1px;stroke-linecap:butt;stroke-linejoin:miter;stroke-opacity:1" d="M 759.637,86.2133 753.592,86.2133 z" id="boundary" inkscape:connector-curvature="0" />
	<path style="fill:none;stroke:red;stroke-width:1px;stroke-linecap:butt;stroke-linejoin:miter;stroke-opacity:1" d="M 765.682,86.2133 759.637,86.2133 z" id="boundary" inkscape:connector-curvature="0" />
	<path style="fill:none;stroke:red;stroke-width:1px;stroke-linecap:butt;stroke-linejoin:miter;stroke-opacity:1" d="M 765.682,86.2133 767.495,92.2584 z" id="boundary" inkscape:connector-curvature="0" />
	<path style="fill:none;stroke:red;stroke-width:1px;stroke-linecap:butt;stroke-linejoin:miter;stroke-opacity:1" d="M 675.61,86.2133 681.655,86.2133 z" id="boundary" inkscape:connector-curvature="0" />
	<path style="fill:none;stroke:red;stroke-width:1px;stroke-linecap:butt;stroke-linejoin:miter;stroke-opacity:1" d="M 741.502,87.4223 735.456,89.2358 z" id="boundary" inkscape:connector-curvature="0" />
	<path style="fill:none;stroke:red;stroke-width:1px;stroke-linecap:butt;stroke-linejoin:miter;stroke-opacity:1" d="M 555.917,92.2584 561.962,92.2584 z" id="boundary" inkscape:connector-curvature="0" />
	<path style="fill:none;stroke:red;stroke-width:1px;stroke-linecap:butt;stroke-linejoin:miter;stroke-opacity:1" d="M 549.872,94.6764 555.917,92.2584 z" id="boundary" inkscape:connector-curvature="0" />
	<path style="fill:none;stroke:red;stroke-width:1px;stroke-linecap:butt;stroke-linejoin:miter;stroke-opacity:1" d="M 574.052,92.2584 568.007,92.2584 z" id="boundary" inkscape:connector-curvature="0" />
	<path style="fill:none;stroke:red;stroke-width:1px;stroke-linecap:butt;stroke-linejoin:miter;stroke-opacity:1" d="M 568.007,92.2584 561.962,92.2584 z" id="boundary" inkscape:connector-curvature="0" />
	<path style="fill:none;stroke:red;stroke-width:1px;stroke-linecap:butt;stroke-linejoin:miter;stroke-opacity:1" d="M 580.098,92.2584 574.052,92.2584 z" id="boundary" inkscape:connector-curvature="0" />
	<path style="fill:none;stroke:red;stroke-width:1px;stroke-linecap:butt;stroke-linejoin:miter;stroke-opacity:1" d="M 543.827,95.2809 549.872,94.6764 z" id="boundary" inkscape:connector-curvature="0" />
	<path style="fill:none;stroke:red;stroke-width:1px;stroke-linecap:butt;stroke-linejoin:miter;stroke-opacity:1" d="M 580.098,92.2584 586.143,92.2584 z" id="boundary" inkscape:connector-curvature="0" />
	<path style="fill:none;stroke:red;stroke-width:1px;stroke-linecap:butt;stroke-linejoin:miter;stroke-opacity:1" d="M 586.143,92.2584 592.188,92.2584 z" id="boundary" inkscape:connector-curvature="0" />
	<path style="fill:none;stroke:red;stroke-width:1px;stroke-linecap:butt;stroke-linejoin:miter;stroke-opacity:1" d="M 598.233,92.2584 592.188,92.2584 z" id="boundary" inkscape:connector-curvature="0" />
	<path style="fill:none;stroke:red;stroke-width:1px;stroke-linecap:butt;stroke-linejoin:miter;stroke-opacity:1" d="M 717.321,89.2358 711.276,89.2358 z" id="boundary" inkscape:connector-curvature="0" />
	<path style="fill:none;stroke:red;stroke-width:1px;stroke-linecap:butt;stroke-linejoin:miter;stroke-opacity:1" d="M 729.411,89.2358 735.456,89.2358 z" id="boundary" inkscape:connector-curvature="0" />
	<path style="fill:none;stroke:red;stroke-width:1px;stroke-linecap:butt;stroke-linejoin:miter;stroke-opacity:1" d="M 729.411,89.2358 723.366,87.4223 z" id="boundary" inkscape:connector-curvature="0" />
	<path style="fill:none;stroke:red;stroke-width:1px;stroke-linecap:butt;stroke-linejoin:miter;stroke-opacity:1" d="M 767.495,92.2584 771.727,97.0945 z" id="boundary" inkscape:connector-curvature="0" />
	<path style="fill:none;stroke:red;stroke-width:1px;stroke-linecap:butt;stroke-linejoin:miter;stroke-opacity:1" d="M 771.727,97.0945 774.75,102.535 z" id="boundary" inkscape:connector-curvature="0" />
	<path style="fill:none;stroke:red;stroke-width:1px;stroke-linecap:butt;stroke-linejoin:miter;stroke-opacity:1" d="M 779.586,106.767 774.75,102.535 z" id="boundary" inkscape:connector-curvature="0" />
	<path style="fill:none;stroke:red;stroke-width:1px;stroke-linecap:butt;stroke-linejoin:miter;stroke-opacity:1" d="M 784.422,110.394 779.586,106.767 z" id="boundary" inkscape:connector-curvature="0" />
	<path style="fill:none;stroke:red;stroke-width:1px;stroke-linecap:butt;stroke-linejoin:miter;stroke-opacity:1" d="M 784.422,110.394 789.862,113.416 z" id="boundary" inkscape:connector-curvature="0" />
	<path style="fill:none;stroke:red;stroke-width:1px;stroke-linecap:butt;stroke-linejoin:miter;stroke-opacity:1" d="M 789.862,113.416 795.303,116.439 z" id="boundary" inkscape:connector-curvature="0" />
	<path style="fill:none;stroke:red;stroke-width:1px;stroke-linecap:butt;stroke-linejoin:miter;stroke-opacity:1" d="M 645.989,89.2358 652.034,89.2358 z" id="boundary" inkscape:connector-curvature="0" />
	<path style="fill:none;stroke:red;stroke-width:1px;stroke-linecap:butt;stroke-linejoin:miter;stroke-opacity:1" d="M 795.303,116.439 800.743,119.461 z" id="boundary" inkscape:connector-curvature="0" />
	<path style="fill:none;stroke:red;stroke-width:1px;stroke-linecap:butt;stroke-linejoin:miter;stroke-opacity:1" d="M 874.494,80.1682 868.449,80.1682 z" id="boundary" inkscape:connector-curvature="0" />
	<path style="fill:none;stroke:red;stroke-width:1px;stroke-linecap:butt;stroke-linejoin:miter;stroke-opacity:1" d="M 901.697,77.1456 895.651,77.1456 z" id="boundary" inkscape:connector-curvature="0" />
	<path style="fill:none;stroke:red;stroke-width:1px;stroke-linecap:butt;stroke-linejoin:miter;stroke-opacity:1" d="M 895.651,77.1456 889.606,77.1456 z" id="boundary" inkscape:connector-curvature="0" />
	<path style="fill:none;stroke:red;stroke-width:1px;stroke-linecap:butt;stroke-linejoin:miter;stroke-opacity:1" d="M 907.137,74.1231 901.697,77.1456 z" id="boundary" inkscape:connector-curvature="0" />
	<path style="fill:none;stroke:red;stroke-width:1px;stroke-linecap:butt;stroke-linejoin:miter;stroke-opacity:1" d="M 885.979,81.9817 889.606,77.1456 z" id="boundary" inkscape:connector-curvature="0" />
	<path style="fill:none;stroke:red;stroke-width:1px;stroke-linecap:butt;stroke-linejoin:miter;stroke-opacity:1" d="M 838.828,83.1907 844.873,83.1907 z" id="boundary" inkscape:connector-curvature="0" />
	<path style="fill:none;stroke:red;stroke-width:1px;stroke-linecap:butt;stroke-linejoin:miter;stroke-opacity:1" d="M 832.782,86.2133 838.828,83.1907 z" id="boundary" inkscape:connector-curvature="0" />
	<path style="fill:none;stroke:red;stroke-width:1px;stroke-linecap:butt;stroke-linejoin:miter;stroke-opacity:1" d="M 850.918,83.1907 844.873,83.1907 z" id="boundary" inkscape:connector-curvature="0" />
	<path style="fill:none;stroke:red;stroke-width:1px;stroke-linecap:butt;stroke-linejoin:miter;stroke-opacity:1" d="M 874.494,80.1682 879.934,83.1907 z" id="boundary" inkscape:connector-curvature="0" />
	<path style="fill:none;stroke:red;stroke-width:1px;stroke-linecap:butt;stroke-linejoin:miter;stroke-opacity:1" d="M 856.963,83.1907 850.918,83.1907 z" id="boundary" inkscape:connector-curvature="0" />
	<path style="fill:none;stroke:red;stroke-width:1px;stroke-linecap:butt;stroke-linejoin:miter;stroke-opacity:1" d="M 885.979,81.9817 879.934,83.1907 z" id="boundary" inkscape:connector-curvature="0" />
	<path style="fill:none;stroke:red;stroke-width:1px;stroke-linecap:butt;stroke-linejoin:miter;stroke-opacity:1" d="M 863.008,83.1907 856.963,83.1907 z" id="boundary" inkscape:connector-curvature="0" />
	<path style="fill:none;stroke:red;stroke-width:1px;stroke-linecap:butt;stroke-linejoin:miter;stroke-opacity:1" d="M 868.449,80.1682 863.008,83.1907 z" id="boundary" inkscape:connector-curvature="0" />
	<path style="fill:none;stroke:red;stroke-width:1px;stroke-linecap:butt;stroke-linejoin:miter;stroke-opacity:1" d="M 907.742,55.3833 913.787,54.1743 z" id="boundary" inkscape:connector-curvature="0" />
	<path style="fill:none;stroke:red;stroke-width:1px;stroke-linecap:butt;stroke-linejoin:miter;stroke-opacity:1" d="M 901.697,55.3833 907.742,55.3833 z" id="boundary" inkscape:connector-curvature="0" />
	<path style="fill:none;stroke:red;stroke-width:1px;stroke-linecap:butt;stroke-linejoin:miter;stroke-opacity:1" d="M 977.865,59.0104 977.865,65.0555 z" id="boundary" inkscape:connector-curvature="0" />
	<path style="fill:none;stroke:red;stroke-width:1px;stroke-linecap:butt;stroke-linejoin:miter;stroke-opacity:1" d="M 924.668,77.1456 918.623,77.1456 z" id="boundary" inkscape:connector-curvature="0" />
	<path style="fill:none;stroke:red;stroke-width:1px;stroke-linecap:butt;stroke-linejoin:miter;stroke-opacity:1" d="M 940.99,86.2133 936.154,81.9817 z" id="boundary" inkscape:connector-curvature="0" />
	<path style="fill:none;stroke:red;stroke-width:1px;stroke-linecap:butt;stroke-linejoin:miter;stroke-opacity:1" d="M 982.701,68.6825 977.865,65.0555 z" id="boundary" inkscape:connector-curvature="0" />
	<path style="fill:none;stroke:red;stroke-width:1px;stroke-linecap:butt;stroke-linejoin:miter;stroke-opacity:1" d="M 986.932,73.5186 982.701,68.6825 z" id="boundary" inkscape:connector-curvature="0" />
	<path style="fill:none;stroke:red;stroke-width:1px;stroke-linecap:butt;stroke-linejoin:miter;stroke-opacity:1" d="M 912.578,77.1456 918.623,77.1456 z" id="boundary" inkscape:connector-curvature="0" />
	<path style="fill:none;stroke:red;stroke-width:1px;stroke-linecap:butt;stroke-linejoin:miter;stroke-opacity:1" d="M 912.578,77.1456 907.137,74.1231 z" id="boundary" inkscape:connector-curvature="0" />
	<path style="fill:none;stroke:red;stroke-width:1px;stroke-linecap:butt;stroke-linejoin:miter;stroke-opacity:1" d="M 924.668,77.1456 930.108,80.1682 z" id="boundary" inkscape:connector-curvature="0" />
	<path style="fill:none;stroke:red;stroke-width:1px;stroke-linecap:butt;stroke-linejoin:miter;stroke-opacity:1" d="M 936.154,81.9817 930.108,80.1682 z" id="boundary" inkscape:connector-curvature="0" />
	<path style="fill:none;stroke:red;stroke-width:1px;stroke-linecap:butt;stroke-linejoin:miter;stroke-opacity:1" d="M 986.932,73.5186 989.955,78.9592 z" id="boundary" inkscape:connector-curvature="0" />
	<path style="fill:none;stroke:red;stroke-width:1px;stroke-linecap:butt;stroke-linejoin:miter;stroke-opacity:1" d="M 994.791,83.1907 989.955,78.9592 z" id="boundary" inkscape:connector-curvature="0" />
	<path style="fill:none;stroke:red;stroke-width:1px;stroke-linecap:butt;stroke-linejoin:miter;stroke-opacity:1" d="M 820.692,86.2133 826.737,86.2133 z" id="boundary" inkscape:connector-curvature="0" />
	<path style="fill:none;stroke:red;stroke-width:1px;stroke-linecap:butt;stroke-linejoin:miter;stroke-opacity:1" d="M 817.67,92.2584 820.692,86.2133 z" id="boundary" inkscape:connector-curvature="0" />
	<path style="fill:none;stroke:red;stroke-width:1px;stroke-linecap:butt;stroke-linejoin:miter;stroke-opacity:1" d="M 832.782,86.2133 826.737,86.2133 z" id="boundary" inkscape:connector-curvature="0" />
	<path style="fill:none;stroke:red;stroke-width:1px;stroke-linecap:butt;stroke-linejoin:miter;stroke-opacity:1" d="M 806.789,119.461 800.743,119.461 z" id="boundary" inkscape:connector-curvature="0" />
	<path style="fill:none;stroke:red;stroke-width:1px;stroke-linecap:butt;stroke-linejoin:miter;stroke-opacity:1" d="M 811.625,110.394 806.789,119.461 z" id="boundary" inkscape:connector-curvature="0" />
	<path style="fill:none;stroke:red;stroke-width:1px;stroke-linecap:butt;stroke-linejoin:miter;stroke-opacity:1" d="M 811.625,104.349 811.625,110.394 z" id="boundary" inkscape:connector-curvature="0" />
	<path style="fill:none;stroke:red;stroke-width:1px;stroke-linecap:butt;stroke-linejoin:miter;stroke-opacity:1" d="M 811.625,104.349 816.461,100.117 z" id="boundary" inkscape:connector-curvature="0" />
	<path style="fill:none;stroke:red;stroke-width:1px;stroke-linecap:butt;stroke-linejoin:miter;stroke-opacity:1" d="M 817.67,92.2584 816.461,100.117 z" id="boundary" inkscape:connector-curvature="0" />
	<path style="fill:none;stroke:red;stroke-width:1px;stroke-linecap:butt;stroke-linejoin:miter;stroke-opacity:1" d="M 946.43,89.2358 951.871,92.2584 z" id="boundary" inkscape:connector-curvature="0" />
	<path style="fill:none;stroke:red;stroke-width:1px;stroke-linecap:butt;stroke-linejoin:miter;stroke-opacity:1" d="M 946.43,89.2358 940.99,86.2133 z" id="boundary" inkscape:connector-curvature="0" />
	<path style="fill:none;stroke:red;stroke-width:1px;stroke-linecap:butt;stroke-linejoin:miter;stroke-opacity:1" d="M 963.356,95.2809 957.311,95.2809 z" id="boundary" inkscape:connector-curvature="0" />
	<path style="fill:none;stroke:red;stroke-width:1px;stroke-linecap:butt;stroke-linejoin:miter;stroke-opacity:1" d="M 957.311,95.2809 951.871,92.2584 z" id="boundary" inkscape:connector-curvature="0" />
	<path style="fill:none;stroke:red;stroke-width:1px;stroke-linecap:butt;stroke-linejoin:miter;stroke-opacity:1" d="M 996,89.2358 994.791,83.1907 z" id="boundary" inkscape:connector-curvature="0" />
	<path style="fill:none;stroke:red;stroke-width:1px;stroke-linecap:butt;stroke-linejoin:miter;stroke-opacity:1" d="M 974.842,98.3035 968.797,98.3035 z" id="boundary" inkscape:connector-curvature="0" />
	<path style="fill:none;stroke:red;stroke-width:1px;stroke-linecap:butt;stroke-linejoin:miter;stroke-opacity:1" d="M 968.797,98.3035 963.356,95.2809 z" id="boundary" inkscape:connector-curvature="0" />
	<path style="fill:none;stroke:red;stroke-width:1px;stroke-linecap:butt;stroke-linejoin:miter;stroke-opacity:1" d="M 980.887,98.3035 986.932,98.3035 z" id="boundary" inkscape:connector-curvature="0" />
	<path style="fill:none;stroke:red;stroke-width:1px;stroke-linecap:butt;stroke-linejoin:miter;stroke-opacity:1" d="M 980.887,98.3035 974.842,98.3035 z" id="boundary" inkscape:connector-curvature="0" />
	<path style="fill:none;stroke:red;stroke-width:1px;stroke-linecap:butt;stroke-linejoin:miter;stroke-opacity:1" d="M 986.932,98.3035 992.977,98.3035 z" id="boundary" inkscape:connector-curvature="0" />
	<path style="fill:none;stroke:red;stroke-width:1px;stroke-linecap:butt;stroke-linejoin:miter;stroke-opacity:1" d="M 996,89.2358 992.977,98.3035 z" id="boundary" inkscape:connector-curvature="0" />
	<circle cx="4" cy="63.2419" r="4" fill="#0" id="circle0"/>
	<circle cx="8.83608" cy="58.4059" r="4" fill="#0" id="circle1"/>
	<circle cx="8.83608" cy="67.4735" r="4" fill="#0" id="circle2"/>
	<circle cx="14.8812" cy="58.4059" r="4" fill="#0" id="circle3"/>
	<circle cx="14.8812" cy="68.078" r="4" fill="#0" id="circle4"/>
	<circle cx="20.9263" cy="58.4059" r="4" fill="#0" id="circle5"/>
	<circle cx="20.9263" cy="68.078" r="4" fill="#0" id="circle6"/>
	<circle cx="26.3668" cy="71.1005" r="4" fill="#0" id="circle7"/>
	<circle cx="26.9714" cy="58.4059" r="4" fill="#0" id="circle8"/>
	<circle cx="32.4119" cy="71.1005" r="4" fill="#0" id="circle9"/>
	<circle cx="33.0165" cy="58.4059" r="4" fill="#0" id="circle10"/>
	<circle cx="38.457" cy="71.1005" r="4" fill="#0" id="circle11"/>
	<circle cx="39.0615" cy="58.4059" r="4" fill="#0" id="circle12"/>
	<circle cx="44.5021" cy="71.1005" r="4" fill="#0" id="circle13"/>
	<circle cx="45.1066" cy="58.4059" r="4" fill="#0" id="circle14"/>
	<circle cx="47.5247" cy="76.5411" r="4" fill="#0" id="circle15"/>
	<circle cx="51.1517" cy="58.4059" r="4" fill="#0" id="circle16"/>
	<circle cx="52.3608" cy="80.1682" r="4" fill="#0" id="circle17"/>
	<circle cx="57.1968" cy="58.4059" r="4" fill="#0" id="circle18"/>
	<circle cx="58.4059" cy="80.1682" r="4" fill="#0" id="circle19"/>
	<circle cx="63.2419" cy="58.4059" r="4" fill="#0" id="circle20"/>
	<circle cx="64.4509" cy="78.3547" r="4" fill="#0" id="circle21"/>
	<circle cx="69.287" cy="58.4059" r="4" fill="#0" id="circle22"/>
	<circle cx="70.496" cy="77.1456" r="4" fill="#0" id="circle23"/>
	<circle cx="75.3321" cy="55.3833" r="4" fill="#0" id="circle24"/>
	<circle cx="76.5411" cy="77.1456" r="4" fill="#0" id="circle25"/>
	<circle cx="81.3772" cy="55.3833" r="4" fill="#0" id="circle26"/>
	<circle cx="82.5862" cy="77.1456" r="4" fill="#0" id="circle27"/>
	<circle cx="87.4223" cy="55.3833" r="4" fill="#0" id="circle28"/>
	<circle cx="88.6313" cy="77.1456" r="4" fill="#0" id="circle29"/>
	<circle cx="93.4674" cy="55.3833" r="4" fill="#0" id="circle30"/>
	<circle cx="94.6764" cy="77.1456" r="4" fill="#0" id="circle31"/>
	<circle cx="99.5125" cy="55.3833" r="4" fill="#0" id="circle32"/>
	<circle cx="100.722" cy="77.1456" r="4" fill="#0" id="circle33"/>
	<circle cx="104.953" cy="58.4059" r="4" fill="#0" id="circle34"/>
	<circle cx="106.767" cy="77.1456" r="4" fill="#0" id="circle35"/>
	<circle cx="110.394" cy="55.3833" r="4" fill="#0" id="circle36"/>
	<circle cx="112.812" cy="77.1456" r="4" fill="#0" id="circle37"/>
	<circle cx="116.439" cy="55.3833" r="4" fill="#0" id="circle38"/>
	<circle cx="118.857" cy="77.1456" r="4" fill="#0" id="circle39"/>
	<circle cx="122.484" cy="55.3833" r="4" fill="#0" id="circle40"/>
	<circle cx="124.297" cy="80.1682" r="4" fill="#0" id="circle41"/>
	<circle cx="128.529" cy="55.3833" r="4" fill="#0" id="circle42"/>
	<circle cx="130.342" cy="80.1682" r="4" fill="#0" id="circle43"/>
	<circle cx="134.574" cy="55.3833" r="4" fill="#0" id="circle44"/>
	<circle cx="136.388" cy="80.1682" r="4" fill="#0" id="circle45"/>
	<circle cx="140.619" cy="55.3833" r="4" fill="#0" id="circle46"/>
	<circle cx="142.433" cy="80.1682" r="4" fill="#0" id="circle47"/>
	<circle cx="146.664" cy="55.3833" r="4" fill="#0" id="circle48"/>
	<circle cx="148.478" cy="80.1682" r="4" fill="#0" id="circle49"/>
	<circle cx="152.709" cy="55.3833" r="4" fill="#0" id="circle50"/>
	<circle cx="154.523" cy="80.1682" r="4" fill="#0" id="circle51"/>
	<circle cx="158.754" cy="55.3833" r="4" fill="#0" id="circle52"/>
	<circle cx="160.568" cy="80.1682" r="4" fill="#0" id="circle53"/>
	<circle cx="164.195" cy="52.3608" r="4" fill="#0" id="circle54"/>
	<circle cx="166.613" cy="80.1682" r="4" fill="#0" id="circle55"/>
	<circle cx="170.24" cy="52.3608" r="4" fill="#0" id="circle56"/>
	<circle cx="172.054" cy="83.1907" r="4" fill="#0" id="circle57"/>
	<circle cx="176.285" cy="52.3608" r="4" fill="#0" id="circle58"/>
	<circle cx="178.099" cy="83.1907" r="4" fill="#0" id="circle59"/>
	<circle cx="182.33" cy="51.1517" r="4" fill="#0" id="circle60"/>
	<circle cx="184.144" cy="83.1907" r="4" fill="#0" id="circle61"/>
	<circle cx="188.375" cy="49.3382" r="4" fill="#0" id="circle62"/>
	<circle cx="190.189" cy="83.1907" r="4" fill="#0" id="circle63"/>
	<circle cx="194.42" cy="49.3382" r="4" fill="#0" id="circle64"/>
	<circle cx="196.234" cy="83.1907" r="4" fill="#0" id="circle65"/>
	<circle cx="200.466" cy="49.3382" r="4" fill="#0" id="circle66"/>
	<circle cx="201.675" cy="86.2133" r="4" fill="#0" id="circle67"/>
	<circle cx="205.906" cy="46.3157" r="4" fill="#0" id="circle68"/>
	<circle cx="207.72" cy="86.2133" r="4" fill="#0" id="circle69"/>
	<circle cx="211.951" cy="46.3157" r="4" fill="#0" id="circle70"/>
	<circle cx="213.765" cy="86.2133" r="4" fill="#0" id="circle71"/>
	<circle cx="217.996" cy="46.3157" r="4" fill="#0" id="circle72"/>
	<circle cx="219.81" cy="88.0268" r="4" fill="#0" id="circle73"/>
	<circle cx="224.041" cy="46.3157" r="4" fill="#0" id="circle74"/>
	<circle cx="225.855" cy="89.2358" r="4" fill="#0" id="circle75"/>
	<circle cx="230.087" cy="46.3157" r="4" fill="#0" id="circle76"/>
	<circle cx="231.9" cy="89.2358" r="4" fill="#0" id="circle77"/>
	<circle cx="236.132" cy="46.3157" r="4" fill="#0" id="circle78"/>
	<circle cx="237.945" cy="91.0494" r="4" fill="#0" id="circle79"/>
	<circle cx="242.177" cy="46.3157" r="4" fill="#0" id="circle80"/>
	<circle cx="243.99" cy="92.2584" r="4" fill="#0" id="circle81"/>
	<circle cx="247.617" cy="43.2931" r="4" fill="#0" id="circle82"/>
	<circle cx="250.035" cy="92.2584" r="4" fill="#0" id="circle83"/>
	<circle cx="253.662" cy="43.2931" r="4" fill="#0" id="circle84"/>
	<circle cx="256.08" cy="92.2584" r="4" fill="#0" id="circle85"/>
	<circle cx="259.707" cy="43.2931" r="4" fill="#0" id="circle86"/>
	<circle cx="262.126" cy="92.2584" r="4" fill="#0" id="circle87"/>
	<circle cx="265.753" cy="43.2931" r="4" fill="#0" id="circle88"/>
	<circle cx="268.171" cy="92.2584" r="4" fill="#0" id="circle89"/>
	<circle cx="271.798" cy="43.2931" r="4" fill="#0" id="circle90"/>
	<circle cx="274.216" cy="92.2584" r="4" fill="#0" id="circle91"/>
	<circle cx="277.843" cy="43.2931" r="4" fill="#0" id="circle92"/>
	<circle cx="279.656" cy="95.2809" r="4" fill="#0" id="circle93"/>
	<circle cx="283.888" cy="43.2931" r="4" fill="#0" id="circle94"/>
	<circle cx="285.701" cy="95.2809" r="4" fill="#0" id="circle95"/>
	<circle cx="289.933" cy="43.2931" r="4" fill="#0" id="circle96"/>
	<circle cx="291.746" cy="95.2809" r="4" fill="#0" id="circle97"/>
	<circle cx="295.978" cy="43.2931" r="4" fill="#0" id="circle98"/>
	<circle cx="297.792" cy="95.2809" r="4" fill="#0" id="circle99"/>
	<circle cx="301.419" cy="46.3157" r="4" fill="#0" id="circle100"/>
	<circle cx="303.837" cy="95.2809" r="4" fill="#0" id="circle101"/>
	<circle cx="307.464" cy="46.3157" r="4" fill="#0" id="circle102"/>
	<circle cx="309.882" cy="95.2809" r="4" fill="#0" id="circle103"/>
	<circle cx="313.509" cy="46.3157" r="4" fill="#0" id="circle104"/>
	<circle cx="315.322" cy="98.3035" r="4" fill="#0" id="circle105"/>
	<circle cx="319.554" cy="46.3157" r="4" fill="#0" id="circle106"/>
	<circle cx="321.367" cy="98.3035" r="4" fill="#0" id="circle107"/>
	<circle cx="325.599" cy="46.3157" r="4" fill="#0" id="circle108"/>
	<circle cx="327.413" cy="98.3035" r="4" fill="#0" id="circle109"/>
	<circle cx="331.644" cy="46.3157" r="4" fill="#0" id="circle110"/>
	<circle cx="333.458" cy="98.3035" r="4" fill="#0" id="circle111"/>
	<circle cx="337.689" cy="46.3157" r="4" fill="#0" id="circle112"/>
	<circle cx="339.503" cy="98.3035" r="4" fill="#0" id="circle113"/>
	<circle cx="343.734" cy="46.3157" r="4" fill="#0" id="circle114"/>
	<circle cx="345.548" cy="98.3035" r="4" fill="#0" id="circle115"/>
	<circle cx="349.779" cy="46.3157" r="4" fill="#0" id="circle116"/>
	<circle cx="351.593" cy="98.3035" r="4" fill="#0" id="circle117"/>
	<circle cx="355.824" cy="46.3157" r="4" fill="#0" id="circle118"/>
	<circle cx="357.034" cy="101.326" r="4" fill="#0" id="circle119"/>
	<circle cx="361.265" cy="49.3382" r="4" fill="#0" id="circle120"/>
	<circle cx="363.079" cy="101.326" r="4" fill="#0" id="circle121"/>
	<circle cx="367.31" cy="49.3382" r="4" fill="#0" id="circle122"/>
	<circle cx="369.124" cy="101.326" r="4" fill="#0" id="circle123"/>
	<circle cx="373.355" cy="49.3382" r="4" fill="#0" id="circle124"/>
	<circle cx="375.169" cy="101.326" r="4" fill="#0" id="circle125"/>
	<circle cx="379.4" cy="49.3382" r="4" fill="#0" id="circle126"/>
	<circle cx="381.214" cy="101.326" r="4" fill="#0" id="circle127"/>
	<circle cx="385.445" cy="49.3382" r="4" fill="#0" id="circle128"/>
	<circle cx="387.259" cy="101.326" r="4" fill="#0" id="circle129"/>
	<circle cx="391.491" cy="49.3382" r="4" fill="#0" id="circle130"/>
	<circle cx="393.304" cy="101.326" r="4" fill="#0" id="circle131"/>
	<circle cx="397.536" cy="49.3382" r="4" fill="#0" id="circle132"/>
	<circle cx="399.349" cy="101.326" r="4" fill="#0" id="circle133"/>
	<circle cx="402.976" cy="46.3157" r="4" fill="#0" id="circle134"/>
	<circle cx="405.394" cy="101.326" r="4" fill="#0" id="circle135"/>
	<circle cx="409.021" cy="46.3157" r="4" fill="#0" id="circle136"/>
	<circle cx="411.439" cy="101.326" r="4" fill="#0" id="circle137"/>
	<circle cx="415.066" cy="46.3157" r="4" fill="#0" id="circle138"/>
	<circle cx="417.484" cy="101.326" r="4" fill="#0" id="circle139"/>
	<circle cx="421.112" cy="46.3157" r="4" fill="#0" id="circle140"/>
	<circle cx="423.53" cy="101.326" r="4" fill="#0" id="circle141"/>
	<circle cx="427.157" cy="46.3157" r="4" fill="#0" id="circle142"/>
	<circle cx="429.575" cy="101.326" r="4" fill="#0" id="circle143"/>
	<circle cx="433.202" cy="46.3157" r="4" fill="#0" id="circle144"/>
	<circle cx="435.62" cy="101.326" r="4" fill="#0" id="circle145"/>
	<circle cx="439.247" cy="46.3157" r="4" fill="#0" id="circle146"/>
	<circle cx="441.665" cy="101.326" r="4" fill="#0" id="circle147"/>
	<circle cx="445.292" cy="46.3157" r="4" fill="#0" id="circle148"/>
	<circle cx="447.71" cy="100.117" r="4" fill="#0" id="circle149"/>
	<circle cx="451.337" cy="46.3157" r="4" fill="#0" id="circle150"/>
	<circle cx="453.755" cy="98.3035" r="4" fill="#0" id="circle151"/>
	<circle cx="457.382" cy="45.1066" r="4" fill="#0" id="circle152"/>
	<circle cx="459.8" cy="98.3035" r="4" fill="#0" id="circle153"/>
	<circle cx="463.427" cy="43.2931" r="4" fill="#0" id="circle154"/>
	<circle cx="465.845" cy="98.3035" r="4" fill="#0" id="circle155"/>
	<circle cx="469.472" cy="43.2931" r="4" fill="#0" id="circle156"/>
	<circle cx="471.89" cy="98.3035" r="4" fill="#0" id="circle157"/>
	<circle cx="474.913" cy="46.3157" r="4" fill="#0" id="circle158"/>
	<circle cx="477.935" cy="98.3035" r="4" fill="#0" id="circle159"/>
	<circle cx="480.958" cy="46.3157" r="4" fill="#0" id="circle160"/>
	<circle cx="483.98" cy="98.3035" r="4" fill="#0" id="circle161"/>
	<circle cx="487.003" cy="46.3157" r="4" fill="#0" id="circle162"/>
	<circle cx="490.026" cy="98.3035" r="4" fill="#0" id="circle163"/>
	<circle cx="493.048" cy="46.3157" r="4" fill="#0" id="circle164"/>
	<circle cx="496.071" cy="98.3035" r="4" fill="#0" id="circle165"/>
	<circle cx="498.489" cy="43.2931" r="4" fill="#0" id="circle166"/>
	<circle cx="501.511" cy="95.2809" r="4" fill="#0" id="circle167"/>
	<circle cx="504.534" cy="43.2931" r="4" fill="#0" id="circle168"/>
	<circle cx="507.556" cy="95.2809" r="4" fill="#0" id="circle169"/>
	<circle cx="510.579" cy="43.2931" r="4" fill="#0" id="circle170"/>
	<circle cx="513.601" cy="95.2809" r="4" fill="#0" id="circle171"/>
	<circle cx="516.624" cy="43.2931" r="4" fill="#0" id="circle172"/>
	<circle cx="519.647" cy="95.2809" r="4" fill="#0" id="circle173"/>
	<circle cx="522.669" cy="43.2931" r="4" fill="#0" id="circle174"/>
	<circle cx="525.692" cy="95.2809" r="4" fill="#0" id="circle175"/>
	<circle cx="528.714" cy="43.2931" r="4" fill="#0" id="circle176"/>
	<circle cx="531.737" cy="95.2809" r="4" fill="#0" id="circle177"/>
	<circle cx="534.759" cy="43.2931" r="4" fill="#0" id="circle178"/>
	<circle cx="537.782" cy="95.2809" r="4" fill="#0" id="circle179"/>
	<circle cx="540.804" cy="43.2931" r="4" fill="#0" id="circle180"/>
	<circle cx="543.827" cy="95.2809" r="4" fill="#0" id="circle181"/>
	<circle cx="546.849" cy="43.2931" r="4" fill="#0" id="circle182"/>
	<circle cx="549.872" cy="94.6764" r="4" fill="#0" id="circle183"/>
	<circle cx="552.895" cy="43.2931" r="4" fill="#0" id="circle184"/>
	<circle cx="555.917" cy="92.2584" r="4" fill="#0" id="circle185"/>
	<circle cx="558.94" cy="43.2931" r="4" fill="#0" id="circle186"/>
	<circle cx="561.962" cy="92.2584" r="4" fill="#0" id="circle187"/>
	<circle cx="564.985" cy="43.2931" r="4" fill="#0" id="circle188"/>
	<circle cx="568.007" cy="92.2584" r="4" fill="#0" id="circle189"/>
	<circle cx="571.03" cy="43.2931" r="4" fill="#0" id="circle190"/>
	<circle cx="574.052" cy="92.2584" r="4" fill="#0" id="circle191"/>
	<circle cx="577.075" cy="43.2931" r="4" fill="#0" id="circle192"/>
	<circle cx="580.098" cy="92.2584" r="4" fill="#0" id="circle193"/>
	<circle cx="583.12" cy="40.2706" r="4" fill="#0" id="circle194"/>
	<circle cx="586.143" cy="92.2584" r="4" fill="#0" id="circle195"/>
	<circle cx="589.165" cy="40.2706" r="4" fill="#0" id="circle196"/>
	<circle cx="592.188" cy="92.2584" r="4" fill="#0" id="circle197"/>
	<circle cx="595.21" cy="40.2706" r="4" fill="#0" id="circle198"/>
	<circle cx="598.233" cy="92.2584" r="4" fill="#0" id="circle199"/>
	<circle cx="601.255" cy="40.2706" r="4" fill="#0" id="circle200"/>
	<circle cx="603.673" cy="89.2358" r="4" fill="#0" id="circle201"/>
	<circle cx="607.3" cy="40.2706" r="4" fill="#0" id="circle202"/>
	<circle cx="609.718" cy="89.2358" r="4" fill="#0" id="circle203"/>
	<circle cx="613.346" cy="40.2706" r="4" fill="#0" id="circle204"/>
	<circle cx="615.764" cy="89.2358" r="4" fill="#0" id="circle205"/>
	<circle cx="619.391" cy="40.2706" r="4" fill="#0" id="circle206"/>
	<circle cx="621.809" cy="89.2358" r="4" fill="#0" id="circle207"/>
	<circle cx="625.436" cy="40.2706" r="4" fill="#0" id="circle208"/>
	<circle cx="627.854" cy="89.2358" r="4" fill="#0" id="circle209"/>
	<circle cx="631.481" cy="40.2706" r="4" fill="#0" id="circle210"/>
	<circle cx="633.899" cy="89.2358" r="4" fill="#0" id="circle211"/>
	<circle cx="636.921" cy="37.248" r="4" fill="#0" id="circle212"/>
	<circle cx="639.944" cy="89.2358" r="4" fill="#0" id="circle213"/>
	<circle cx="642.966" cy="37.248" r="4" fill="#0" id="circle214"/>
	<circle cx="645.989" cy="89.2358" r="4" fill="#0" id="circle215"/>
	<circle cx="649.012" cy="34.83" r="4" fill="#0" id="circle216"/>
	<circle cx="652.034" cy="89.2358" r="4" fill="#0" id="circle217"/>
	<circle cx="655.057" cy="31.8074" r="4" fill="#0" id="circle218"/>
	<circle cx="657.475" cy="86.2133" r="4" fill="#0" id="circle219"/>
	<circle cx="659.893" cy="28.1804" r="4" fill="#0" id="circle220"/>
	<circle cx="663.52" cy="86.2133" r="4" fill="#0" id="circle221"/>
	<circle cx="664.729" cy="31.8074" r="4" fill="#0" id="circle222"/>
	<circle cx="666.542" cy="37.8525" r="4" fill="#0" id="circle223"/>
	<circle cx="669.565" cy="43.2931" r="4" fill="#0" id="circle224"/>
	<circle cx="669.565" cy="86.2133" r="4" fill="#0" id="circle225"/>
	<circle cx="675.61" cy="43.2931" r="4" fill="#0" id="circle226"/>
	<circle cx="675.61" cy="86.2133" r="4" fill="#0" id="circle227"/>
	<circle cx="681.655" cy="41.4796" r="4" fill="#0" id="circle228"/>
	<circle cx="681.655" cy="86.2133" r="4" fill="#0" id="circle229"/>
	<circle cx="687.7" cy="40.2706" r="4" fill="#0" id="circle230"/>
	<circle cx="687.7" cy="86.2133" r="4" fill="#0" id="circle231"/>
	<circle cx="693.745" cy="40.2706" r="4" fill="#0" id="circle232"/>
	<circle cx="693.745" cy="86.2133" r="4" fill="#0" id="circle233"/>
	<circle cx="699.79" cy="42.0841" r="4" fill="#0" id="circle234"/>
	<circle cx="699.79" cy="86.2133" r="4" fill="#0" id="circle235"/>
	<circle cx="705.835" cy="43.2931" r="4" fill="#0" id="circle236"/>
	<circle cx="705.835" cy="86.2133" r="4" fill="#0" id="circle237"/>
	<circle cx="711.276" cy="89.2358" r="4" fill="#0" id="circle238"/>
	<circle cx="711.881" cy="41.4796" r="4" fill="#0" id="circle239"/>
	<circle cx="717.321" cy="89.2358" r="4" fill="#0" id="circle240"/>
	<circle cx="717.926" cy="40.2706" r="4" fill="#0" id="circle241"/>
	<circle cx="723.366" cy="37.248" r="4" fill="#0" id="circle242"/>
	<circle cx="723.366" cy="87.4223" r="4" fill="#0" id="circle243"/>
	<circle cx="729.411" cy="37.248" r="4" fill="#0" id="circle244"/>
	<circle cx="729.411" cy="89.2358" r="4" fill="#0" id="circle245"/>
	<circle cx="735.456" cy="38.457" r="4" fill="#0" id="circle246"/>
	<circle cx="735.456" cy="89.2358" r="4" fill="#0" id="circle247"/>
	<circle cx="739.083" cy="43.2931" r="4" fill="#0" id="circle248"/>
	<circle cx="741.502" cy="87.4223" r="4" fill="#0" id="circle249"/>
	<circle cx="745.129" cy="43.2931" r="4" fill="#0" id="circle250"/>
	<circle cx="747.547" cy="86.2133" r="4" fill="#0" id="circle251"/>
	<circle cx="750.569" cy="40.2706" r="4" fill="#0" id="circle252"/>
	<circle cx="753.592" cy="86.2133" r="4" fill="#0" id="circle253"/>
	<circle cx="754.196" cy="35.4345" r="4" fill="#0" id="circle254"/>
	<circle cx="759.032" cy="31.2029" r="4" fill="#0" id="circle255"/>
	<circle cx="759.637" cy="86.2133" r="4" fill="#0" id="circle256"/>
	<circle cx="764.473" cy="28.1804" r="4" fill="#0" id="circle257"/>
	<circle cx="765.682" cy="86.2133" r="4" fill="#0" id="circle258"/>
	<circle cx="767.495" cy="92.2584" r="4" fill="#0" id="circle259"/>
	<circle cx="769.309" cy="23.3443" r="4" fill="#0" id="circle260"/>
	<circle cx="771.727" cy="97.0945" r="4" fill="#0" id="circle261"/>
	<circle cx="774.145" cy="19.1127" r="4" fill="#0" id="circle262"/>
	<circle cx="774.75" cy="102.535" r="4" fill="#0" id="circle263"/>
	<circle cx="779.586" cy="16.0902" r="4" fill="#0" id="circle264"/>
	<circle cx="779.586" cy="106.767" r="4" fill="#0" id="circle265"/>
	<circle cx="784.422" cy="110.394" r="4" fill="#0" id="circle266"/>
	<circle cx="785.026" cy="13.0676" r="4" fill="#0" id="circle267"/>
	<circle cx="789.862" cy="113.416" r="4" fill="#0" id="circle268"/>
	<circle cx="791.071" cy="10.6496" r="4" fill="#0" id="circle269"/>
	<circle cx="795.303" cy="116.439" r="4" fill="#0" id="circle270"/>
	<circle cx="795.907" cy="7.02255" r="4" fill="#0" id="circle271"/>
	<circle cx="800.743" cy="119.461" r="4" fill="#0" id="circle272"/>
	<circle cx="801.952" cy="7.02255" r="4" fill="#0" id="circle273"/>
	<circle cx="806.789" cy="119.461" r="4" fill="#0" id="circle274"/>
	<circle cx="807.393" cy="4" r="4" fill="#0" id="circle275"/>
	<circle cx="811.625" cy="19.7172" r="4" fill="#0" id="circle276"/>
	<circle cx="811.625" cy="25.7623" r="4" fill="#0" id="circle277"/>
	<circle cx="811.625" cy="31.8074" r="4" fill="#0" id="circle278"/>
	<circle cx="811.625" cy="37.8525" r="4" fill="#0" id="circle279"/>
	<circle cx="811.625" cy="43.8976" r="4" fill="#0" id="circle280"/>
	<circle cx="811.625" cy="104.349" r="4" fill="#0" id="circle281"/>
	<circle cx="811.625" cy="110.394" r="4" fill="#0" id="circle282"/>
	<circle cx="813.438" cy="4.60451" r="4" fill="#0" id="circle283"/>
	<circle cx="814.647" cy="10.6496" r="4" fill="#0" id="circle284"/>
	<circle cx="816.461" cy="47.5247" r="4" fill="#0" id="circle285"/>
	<circle cx="816.461" cy="100.117" r="4" fill="#0" id="circle286"/>
	<circle cx="817.67" cy="92.2584" r="4" fill="#0" id="circle287"/>
	<circle cx="820.692" cy="86.2133" r="4" fill="#0" id="circle288"/>
	<circle cx="822.506" cy="49.3382" r="4" fill="#0" id="circle289"/>
	<circle cx="826.737" cy="86.2133" r="4" fill="#0" id="circle290"/>
	<circle cx="828.551" cy="49.9427" r="4" fill="#0" id="circle291"/>
	<circle cx="832.782" cy="86.2133" r="4" fill="#0" id="circle292"/>
	<circle cx="834.596" cy="49.3382" r="4" fill="#0" id="circle293"/>
	<circle cx="838.828" cy="83.1907" r="4" fill="#0" id="circle294"/>
	<circle cx="840.037" cy="46.3157" r="4" fill="#0" id="circle295"/>
	<circle cx="844.873" cy="83.1907" r="4" fill="#0" id="circle296"/>
	<circle cx="846.082" cy="46.3157" r="4" fill="#0" id="circle297"/>
	<circle cx="847.895" cy="52.3608" r="4" fill="#0" id="circle298"/>
	<circle cx="850.918" cy="83.1907" r="4" fill="#0" id="circle299"/>
	<circle cx="853.94" cy="52.3608" r="4" fill="#0" id="circle300"/>
	<circle cx="856.963" cy="83.1907" r="4" fill="#0" id="circle301"/>
	<circle cx="859.985" cy="52.3608" r="4" fill="#0" id="circle302"/>
	<circle cx="863.008" cy="83.1907" r="4" fill="#0" id="circle303"/>
	<circle cx="866.03" cy="52.3608" r="4" fill="#0" id="circle304"/>
	<circle cx="868.449" cy="80.1682" r="4" fill="#0" id="circle305"/>
	<circle cx="872.076" cy="52.3608" r="4" fill="#0" id="circle306"/>
	<circle cx="874.494" cy="80.1682" r="4" fill="#0" id="circle307"/>
	<circle cx="877.516" cy="55.3833" r="4" fill="#0" id="circle308"/>
	<circle cx="879.934" cy="83.1907" r="4" fill="#0" id="circle309"/>
	<circle cx="883.561" cy="55.3833" r="4" fill="#0" id="circle310"/>
	<circle cx="885.979" cy="81.9817" r="4" fill="#0" id="circle311"/>
	<circle cx="889.606" cy="55.3833" r="4" fill="#0" id="circle312"/>
	<circle cx="889.606" cy="77.1456" r="4" fill="#0" id="circle313"/>
	<circle cx="895.651" cy="55.3833" r="4" fill="#0" id="circle314"/>
	<circle cx="895.651" cy="77.1456" r="4" fill="#0" id="circle315"/>
	<circle cx="901.697" cy="55.3833" r="4" fill="#0" id="circle316"/>
	<circle cx="901.697" cy="77.1456" r="4" fill="#0" id="circle317"/>
	<circle cx="907.137" cy="74.1231" r="4" fill="#0" id="circle318"/>
	<circle cx="907.742" cy="55.3833" r="4" fill="#0" id="circle319"/>
	<circle cx="912.578" cy="77.1456" r="4" fill="#0" id="circle320"/>
	<circle cx="913.787" cy="54.1743" r="4" fill="#0" id="circle321"/>
	<circle cx="918.623" cy="77.1456" r="4" fill="#0" id="circle322"/>
	<circle cx="919.832" cy="52.3608" r="4" fill="#0" id="circle323"/>
	<circle cx="924.668" cy="77.1456" r="4" fill="#0" id="circle324"/>
	<circle cx="925.877" cy="52.3608" r="4" fill="#0" id="circle325"/>
	<circle cx="930.108" cy="80.1682" r="4" fill="#0" id="circle326"/>
	<circle cx="931.317" cy="49.3382" r="4" fill="#0" id="circle327"/>
	<circle cx="936.154" cy="81.9817" r="4" fill="#0" id="circle328"/>
	<circle cx="936.758" cy="46.3157" r="4" fill="#0" id="circle329"/>
	<circle cx="940.99" cy="86.2133" r="4" fill="#0" id="circle330"/>
	<circle cx="941.594" cy="41.4796" r="4" fill="#0" id="circle331"/>
	<circle cx="946.43" cy="37.248" r="4" fill="#0" id="circle332"/>
	<circle cx="946.43" cy="89.2358" r="4" fill="#0" id="circle333"/>
	<circle cx="951.871" cy="34.2255" r="4" fill="#0" id="circle334"/>
	<circle cx="951.871" cy="92.2584" r="4" fill="#0" id="circle335"/>
	<circle cx="956.707" cy="29.3894" r="4" fill="#0" id="circle336"/>
	<circle cx="957.311" cy="95.2809" r="4" fill="#0" id="circle337"/>
	<circle cx="962.752" cy="26.3668" r="4" fill="#0" id="circle338"/>
	<circle cx="963.356" cy="95.2809" r="4" fill="#0" id="circle339"/>
	<circle cx="968.797" cy="25.1578" r="4" fill="#0" id="circle340"/>
	<circle cx="968.797" cy="98.3035" r="4" fill="#0" id="circle341"/>
	<circle cx="974.238" cy="22.1353" r="4" fill="#0" id="circle342"/>
	<circle cx="974.842" cy="98.3035" r="4" fill="#0" id="circle343"/>
	<circle cx="977.865" cy="52.9653" r="4" fill="#0" id="circle344"/>
	<circle cx="977.865" cy="59.0104" r="4" fill="#0" id="circle345"/>
	<circle cx="977.865" cy="65.0555" r="4" fill="#0" id="circle346"/>
	<circle cx="980.283" cy="20.9263" r="4" fill="#0" id="circle347"/>
	<circle cx="980.887" cy="98.3035" r="4" fill="#0" id="circle348"/>
	<circle cx="982.701" cy="48.7337" r="4" fill="#0" id="circle349"/>
	<circle cx="982.701" cy="68.6825" r="4" fill="#0" id="circle350"/>
	<circle cx="985.723" cy="42.6886" r="4" fill="#0" id="circle351"/>
	<circle cx="986.328" cy="19.1127" r="4" fill="#0" id="circle352"/>
	<circle cx="986.932" cy="73.5186" r="4" fill="#0" id="circle353"/>
	<circle cx="986.932" cy="98.3035" r="4" fill="#0" id="circle354"/>
	<circle cx="989.35" cy="37.8525" r="4" fill="#0" id="circle355"/>
	<circle cx="989.955" cy="78.9592" r="4" fill="#0" id="circle356"/>
	<circle cx="992.373" cy="19.1127" r="4" fill="#0" id="circle357"/>
	<circle cx="992.977" cy="98.3035" r="4" fill="#0" id="circle358"/>
	<circle cx="994.186" cy="34.2255" r="4" fill="#0" id="circle359"/>
	<circle cx="994.791" cy="83.1907" r="4" fill="#0" id="circle360"/>
	<circle cx="996" cy="23.9488" r="4" fill="#0" id="circle361"/>
	<circle cx="996" cy="89.2358" r="4" fill="#0" id="circle362"/>
	</g>
</svg>