<?xml version="1.0" encoding="UTF-8" standalone="no"?>
<!-- Created with CurveBenchmark -->
<svg
	xmlns:dc="http://purl.org/dc/elements/1.1/"
	xmlns:cc="http://creativecommons.org/ns#"
	xmlns:rdf="http://www.w3.org/1999/02/22-rdf-syntax-ns#"
	xmlns:svg="http://www.w3.org/2000/svg"
	xmlns="http://www.w3.org/2000/svg"
	xmlns:sodipodi="http://sodipodi.sourceforge.net/DTD/sodipodi-0.dtd"
	xmlns:inkscape="http://www.inkscape.org/namespaces/inkscape"
	width="1000"
	height="1000"
	id="svg2"
	version="1.1"
	sodipodi:docname="manifold/nncrust-woodenspoonbinary10.png.txt">
<defs
	id="defs4" />
<metadata
	id="metadata7">
	<rdf:RDF>
		<cc:Work
			rdf:about="">
			<dc:format>image/svg+xml</dc:format>
			<dc:type
				rdf:resource="http://purl.org/dc/dcmitype/StillImage" />
			<dc:title></dc:title>
		</cc:Work>
	</rdf:RDF>
</metadata>
<g
	inkscape:label="Layer 1"
	inkscape:groupmode="layer"
	id="layer1">
	<path style="fill:none;stroke:red;stroke-width:1px;stroke-linecap:butt;stroke-linejoin:miter;stroke-opacity:1" d="M 29.3801,32.2807 33.731,25.7544 z" id="boundary" inkscape:connector-curvature="0" />
	<path style="fill:none;stroke:red;stroke-width:1px;stroke-linecap:butt;stroke-linejoin:miter;stroke-opacity:1" d="M 33.731,25.7544 39.5322,20.6784 z" id="boundary" inkscape:connector-curvature="0" />
	<path style="fill:none;stroke:red;stroke-width:1px;stroke-linecap:butt;stroke-linejoin:miter;stroke-opacity:1" d="M 44.6082,14.8772 39.5322,20.6784 z" id="boundary" inkscape:connector-curvature="0" />
	<path style="fill:none;stroke:red;stroke-width:1px;stroke-linecap:butt;stroke-linejoin:miter;stroke-opacity:1" d="M 57.6608,6.17544 51.8596,11.2515 z" id="boundary" inkscape:connector-curvature="0" />
	<path style="fill:none;stroke:red;stroke-width:1px;stroke-linecap:butt;stroke-linejoin:miter;stroke-opacity:1" d="M 51.8596,11.2515 44.6082,14.8772 z" id="boundary" inkscape:connector-curvature="0" />
	<path style="fill:none;stroke:red;stroke-width:1px;stroke-linecap:butt;stroke-linejoin:miter;stroke-opacity:1" d="M 17.0526,62.7368 18.5029,53.3099 z" id="boundary" inkscape:connector-curvature="0" />
	<path style="fill:none;stroke:red;stroke-width:1px;stroke-linecap:butt;stroke-linejoin:miter;stroke-opacity:1" d="M 17.0526,62.7368 11.9766,68.538 z" id="boundary" inkscape:connector-curvature="0" />
	<path style="fill:none;stroke:red;stroke-width:1px;stroke-linecap:butt;stroke-linejoin:miter;stroke-opacity:1" d="M 20.6784,46.0585 24.3041,38.807 z" id="boundary" inkscape:connector-curvature="0" />
	<path style="fill:none;stroke:red;stroke-width:1px;stroke-linecap:butt;stroke-linejoin:miter;stroke-opacity:1" d="M 24.3041,38.807 29.3801,32.2807 z" id="boundary" inkscape:connector-curvature="0" />
	<path style="fill:none;stroke:red;stroke-width:1px;stroke-linecap:butt;stroke-linejoin:miter;stroke-opacity:1" d="M 18.5029,53.3099 20.6784,46.0585 z" id="boundary" inkscape:connector-curvature="0" />
	<path style="fill:none;stroke:red;stroke-width:1px;stroke-linecap:butt;stroke-linejoin:miter;stroke-opacity:1" d="M 57.6608,6.17544 64.9123,6.17544 z" id="boundary" inkscape:connector-curvature="0" />
	<path style="fill:none;stroke:red;stroke-width:1px;stroke-linecap:butt;stroke-linejoin:miter;stroke-opacity:1" d="M 72.1637,6.17544 64.9123,6.17544 z" id="boundary" inkscape:connector-curvature="0" />
	<path style="fill:none;stroke:red;stroke-width:1px;stroke-linecap:butt;stroke-linejoin:miter;stroke-opacity:1" d="M 79.4152,4.72515 72.1637,6.17544 z" id="boundary" inkscape:connector-curvature="0" />
	<path style="fill:none;stroke:red;stroke-width:1px;stroke-linecap:butt;stroke-linejoin:miter;stroke-opacity:1" d="M 79.4152,4.72515 86.6667,4 z" id="boundary" inkscape:connector-curvature="0" />
	<path style="fill:none;stroke:red;stroke-width:1px;stroke-linecap:butt;stroke-linejoin:miter;stroke-opacity:1" d="M 86.6667,4 93.9181,6.17544 z" id="boundary" inkscape:connector-curvature="0" />
	<path style="fill:none;stroke:red;stroke-width:1px;stroke-linecap:butt;stroke-linejoin:miter;stroke-opacity:1" d="M 93.9181,6.17544 101.17,7.62573 z" id="boundary" inkscape:connector-curvature="0" />
	<path style="fill:none;stroke:red;stroke-width:1px;stroke-linecap:butt;stroke-linejoin:miter;stroke-opacity:1" d="M 115.673,8.35088 108.421,8.35088 z" id="boundary" inkscape:connector-curvature="0" />
	<path style="fill:none;stroke:red;stroke-width:1px;stroke-linecap:butt;stroke-linejoin:miter;stroke-opacity:1" d="M 108.421,8.35088 101.17,7.62573 z" id="boundary" inkscape:connector-curvature="0" />
	<path style="fill:none;stroke:red;stroke-width:1px;stroke-linecap:butt;stroke-linejoin:miter;stroke-opacity:1" d="M 115.673,8.35088 122.924,11.2515 z" id="boundary" inkscape:connector-curvature="0" />
	<path style="fill:none;stroke:red;stroke-width:1px;stroke-linecap:butt;stroke-linejoin:miter;stroke-opacity:1" d="M 137.427,12.7018 130.175,12.7018 z" id="boundary" inkscape:connector-curvature="0" />
	<path style="fill:none;stroke:red;stroke-width:1px;stroke-linecap:butt;stroke-linejoin:miter;stroke-opacity:1" d="M 130.175,12.7018 122.924,11.2515 z" id="boundary" inkscape:connector-curvature="0" />
	<path style="fill:none;stroke:red;stroke-width:1px;stroke-linecap:butt;stroke-linejoin:miter;stroke-opacity:1" d="M 4,111.322 4.72515,100.444 z" id="boundary" inkscape:connector-curvature="0" />
	<path style="fill:none;stroke:red;stroke-width:1px;stroke-linecap:butt;stroke-linejoin:miter;stroke-opacity:1" d="M 4.72515,100.444 8.35088,93.9181 z" id="boundary" inkscape:connector-curvature="0" />
	<path style="fill:none;stroke:red;stroke-width:1px;stroke-linecap:butt;stroke-linejoin:miter;stroke-opacity:1" d="M 8.35088,93.9181 6.90058,85.9415 z" id="boundary" inkscape:connector-curvature="0" />
	<path style="fill:none;stroke:red;stroke-width:1px;stroke-linecap:butt;stroke-linejoin:miter;stroke-opacity:1" d="M 15.6023,80.8655 8.35088,93.9181 z" id="boundary" inkscape:connector-curvature="0" />
	<path style="fill:none;stroke:red;stroke-width:1px;stroke-linecap:butt;stroke-linejoin:miter;stroke-opacity:1" d="M 9.80117,76.5146 6.90058,85.9415 z" id="boundary" inkscape:connector-curvature="0" />
	<path style="fill:none;stroke:red;stroke-width:1px;stroke-linecap:butt;stroke-linejoin:miter;stroke-opacity:1" d="M 11.9766,68.538 9.80117,76.5146 z" id="boundary" inkscape:connector-curvature="0" />
	<path style="fill:none;stroke:red;stroke-width:1px;stroke-linecap:butt;stroke-linejoin:miter;stroke-opacity:1" d="M 5.45029,118.573 4,111.322 z" id="boundary" inkscape:connector-curvature="0" />
	<path style="fill:none;stroke:red;stroke-width:1px;stroke-linecap:butt;stroke-linejoin:miter;stroke-opacity:1" d="M 5.45029,118.573 5.45029,125.825 z" id="boundary" inkscape:connector-curvature="0" />
	<path style="fill:none;stroke:red;stroke-width:1px;stroke-linecap:butt;stroke-linejoin:miter;stroke-opacity:1" d="M 6.17544,133.076 9.80117,139.602 z" id="boundary" inkscape:connector-curvature="0" />
	<path style="fill:none;stroke:red;stroke-width:1px;stroke-linecap:butt;stroke-linejoin:miter;stroke-opacity:1" d="M 9.80117,139.602 10.5263,146.854 z" id="boundary" inkscape:connector-curvature="0" />
	<path style="fill:none;stroke:red;stroke-width:1px;stroke-linecap:butt;stroke-linejoin:miter;stroke-opacity:1" d="M 6.17544,133.076 5.45029,125.825 z" id="boundary" inkscape:connector-curvature="0" />
	<path style="fill:none;stroke:red;stroke-width:1px;stroke-linecap:butt;stroke-linejoin:miter;stroke-opacity:1" d="M 15.6023,154.105 10.5263,146.854 z" id="boundary" inkscape:connector-curvature="0" />
	<path style="fill:none;stroke:red;stroke-width:1px;stroke-linecap:butt;stroke-linejoin:miter;stroke-opacity:1" d="M 9.80117,76.5146 15.6023,80.8655 z" id="boundary" inkscape:connector-curvature="0" />
	<path style="fill:none;stroke:red;stroke-width:1px;stroke-linecap:butt;stroke-linejoin:miter;stroke-opacity:1" d="M 23.5789,167.158 18.5029,161.357 z" id="boundary" inkscape:connector-curvature="0" />
	<path style="fill:none;stroke:red;stroke-width:1px;stroke-linecap:butt;stroke-linejoin:miter;stroke-opacity:1" d="M 18.5029,161.357 15.6023,154.105 z" id="boundary" inkscape:connector-curvature="0" />
	<path style="fill:none;stroke:red;stroke-width:1px;stroke-linecap:butt;stroke-linejoin:miter;stroke-opacity:1" d="M 29.3801,172.234 23.5789,167.158 z" id="boundary" inkscape:connector-curvature="0" />
	<path style="fill:none;stroke:red;stroke-width:1px;stroke-linecap:butt;stroke-linejoin:miter;stroke-opacity:1" d="M 37.3567,184.561 33.0058,178.76 z" id="boundary" inkscape:connector-curvature="0" />
	<path style="fill:none;stroke:red;stroke-width:1px;stroke-linecap:butt;stroke-linejoin:miter;stroke-opacity:1" d="M 33.0058,178.76 29.3801,172.234 z" id="boundary" inkscape:connector-curvature="0" />
	<path style="fill:none;stroke:red;stroke-width:1px;stroke-linecap:butt;stroke-linejoin:miter;stroke-opacity:1" d="M 42.4327,190.363 48.9591,193.988 z" id="boundary" inkscape:connector-curvature="0" />
	<path style="fill:none;stroke:red;stroke-width:1px;stroke-linecap:butt;stroke-linejoin:miter;stroke-opacity:1" d="M 48.9591,193.988 52.5848,200.515 z" id="boundary" inkscape:connector-curvature="0" />
	<path style="fill:none;stroke:red;stroke-width:1px;stroke-linecap:butt;stroke-linejoin:miter;stroke-opacity:1" d="M 42.4327,190.363 37.3567,184.561 z" id="boundary" inkscape:connector-curvature="0" />
	<path style="fill:none;stroke:red;stroke-width:1px;stroke-linecap:butt;stroke-linejoin:miter;stroke-opacity:1" d="M 58.386,204.865 52.5848,200.515 z" id="boundary" inkscape:connector-curvature="0" />
	<path style="fill:none;stroke:red;stroke-width:1px;stroke-linecap:butt;stroke-linejoin:miter;stroke-opacity:1" d="M 137.427,12.7018 143.228,17.0526 z" id="boundary" inkscape:connector-curvature="0" />
	<path style="fill:none;stroke:red;stroke-width:1px;stroke-linecap:butt;stroke-linejoin:miter;stroke-opacity:1" d="M 143.228,17.0526 150.48,17.0526 z" id="boundary" inkscape:connector-curvature="0" />
	<path style="fill:none;stroke:red;stroke-width:1px;stroke-linecap:butt;stroke-linejoin:miter;stroke-opacity:1" d="M 150.48,17.0526 157.006,20.6784 z" id="boundary" inkscape:connector-curvature="0" />
	<path style="fill:none;stroke:red;stroke-width:1px;stroke-linecap:butt;stroke-linejoin:miter;stroke-opacity:1" d="M 164.257,22.8538 157.006,20.6784 z" id="boundary" inkscape:connector-curvature="0" />
	<path style="fill:none;stroke:red;stroke-width:1px;stroke-linecap:butt;stroke-linejoin:miter;stroke-opacity:1" d="M 171.509,24.3041 164.257,22.8538 z" id="boundary" inkscape:connector-curvature="0" />
	<path style="fill:none;stroke:red;stroke-width:1px;stroke-linecap:butt;stroke-linejoin:miter;stroke-opacity:1" d="M 171.509,24.3041 178.035,27.9298 z" id="boundary" inkscape:connector-curvature="0" />
	<path style="fill:none;stroke:red;stroke-width:1px;stroke-linecap:butt;stroke-linejoin:miter;stroke-opacity:1" d="M 178.035,27.9298 185.287,29.3801 z" id="boundary" inkscape:connector-curvature="0" />
	<path style="fill:none;stroke:red;stroke-width:1px;stroke-linecap:butt;stroke-linejoin:miter;stroke-opacity:1" d="M 185.287,29.3801 191.813,33.0058 z" id="boundary" inkscape:connector-curvature="0" />
	<path style="fill:none;stroke:red;stroke-width:1px;stroke-linecap:butt;stroke-linejoin:miter;stroke-opacity:1" d="M 191.813,33.0058 199.064,35.9064 z" id="boundary" inkscape:connector-curvature="0" />
	<path style="fill:none;stroke:red;stroke-width:1px;stroke-linecap:butt;stroke-linejoin:miter;stroke-opacity:1" d="M 199.064,35.9064 205.591,39.5322 z" id="boundary" inkscape:connector-curvature="0" />
	<path style="fill:none;stroke:red;stroke-width:1px;stroke-linecap:butt;stroke-linejoin:miter;stroke-opacity:1" d="M 212.117,43.1579 219.368,45.3333 z" id="boundary" inkscape:connector-curvature="0" />
	<path style="fill:none;stroke:red;stroke-width:1px;stroke-linecap:butt;stroke-linejoin:miter;stroke-opacity:1" d="M 219.368,45.3333 225.17,49.6842 z" id="boundary" inkscape:connector-curvature="0" />
	<path style="fill:none;stroke:red;stroke-width:1px;stroke-linecap:butt;stroke-linejoin:miter;stroke-opacity:1" d="M 212.117,43.1579 205.591,39.5322 z" id="boundary" inkscape:connector-curvature="0" />
	<path style="fill:none;stroke:red;stroke-width:1px;stroke-linecap:butt;stroke-linejoin:miter;stroke-opacity:1" d="M 225.17,49.6842 232.421,52.5848 z" id="boundary" inkscape:connector-curvature="0" />
	<path style="fill:none;stroke:red;stroke-width:1px;stroke-linecap:butt;stroke-linejoin:miter;stroke-opacity:1" d="M 232.421,52.5848 238.947,56.2105 z" id="boundary" inkscape:connector-curvature="0" />
	<path style="fill:none;stroke:red;stroke-width:1px;stroke-linecap:butt;stroke-linejoin:miter;stroke-opacity:1" d="M 238.947,56.2105 244.749,61.2865 z" id="boundary" inkscape:connector-curvature="0" />
	<path style="fill:none;stroke:red;stroke-width:1px;stroke-linecap:butt;stroke-linejoin:miter;stroke-opacity:1" d="M 257.076,69.2632 250.55,65.6374 z" id="boundary" inkscape:connector-curvature="0" />
	<path style="fill:none;stroke:red;stroke-width:1px;stroke-linecap:butt;stroke-linejoin:miter;stroke-opacity:1" d="M 250.55,65.6374 244.749,61.2865 z" id="boundary" inkscape:connector-curvature="0" />
	<path style="fill:none;stroke:red;stroke-width:1px;stroke-linecap:butt;stroke-linejoin:miter;stroke-opacity:1" d="M 257.076,69.2632 262.877,74.3392 z" id="boundary" inkscape:connector-curvature="0" />
	<path style="fill:none;stroke:red;stroke-width:1px;stroke-linecap:butt;stroke-linejoin:miter;stroke-opacity:1" d="M 269.404,77.9649 262.877,74.3392 z" id="boundary" inkscape:connector-curvature="0" />
	<path style="fill:none;stroke:red;stroke-width:1px;stroke-linecap:butt;stroke-linejoin:miter;stroke-opacity:1" d="M 275.93,81.5906 269.404,77.9649 z" id="boundary" inkscape:connector-curvature="0" />
	<path style="fill:none;stroke:red;stroke-width:1px;stroke-linecap:butt;stroke-linejoin:miter;stroke-opacity:1" d="M 275.93,81.5906 281.731,85.9415 z" id="boundary" inkscape:connector-curvature="0" />
	<path style="fill:none;stroke:red;stroke-width:1px;stroke-linecap:butt;stroke-linejoin:miter;stroke-opacity:1" d="M 281.731,85.9415 287.532,90.2924 z" id="boundary" inkscape:connector-curvature="0" />
	<path style="fill:none;stroke:red;stroke-width:1px;stroke-linecap:butt;stroke-linejoin:miter;stroke-opacity:1" d="M 294.784,92.4678 287.532,90.2924 z" id="boundary" inkscape:connector-curvature="0" />
	<path style="fill:none;stroke:red;stroke-width:1px;stroke-linecap:butt;stroke-linejoin:miter;stroke-opacity:1" d="M 304.936,103.345 299.135,98.269 z" id="boundary" inkscape:connector-curvature="0" />
	<path style="fill:none;stroke:red;stroke-width:1px;stroke-linecap:butt;stroke-linejoin:miter;stroke-opacity:1" d="M 299.135,98.269 294.784,92.4678 z" id="boundary" inkscape:connector-curvature="0" />
	<path style="fill:none;stroke:red;stroke-width:1px;stroke-linecap:butt;stroke-linejoin:miter;stroke-opacity:1" d="M 304.936,103.345 309.287,109.146 z" id="boundary" inkscape:connector-curvature="0" />
	<path style="fill:none;stroke:red;stroke-width:1px;stroke-linecap:butt;stroke-linejoin:miter;stroke-opacity:1" d="M 309.287,109.146 315.088,113.497 z" id="boundary" inkscape:connector-curvature="0" />
	<path style="fill:none;stroke:red;stroke-width:1px;stroke-linecap:butt;stroke-linejoin:miter;stroke-opacity:1" d="M 315.088,113.497 319.439,119.298 z" id="boundary" inkscape:connector-curvature="0" />
	<path style="fill:none;stroke:red;stroke-width:1px;stroke-linecap:butt;stroke-linejoin:miter;stroke-opacity:1" d="M 329.591,130.175 323.789,125.099 z" id="boundary" inkscape:connector-curvature="0" />
	<path style="fill:none;stroke:red;stroke-width:1px;stroke-linecap:butt;stroke-linejoin:miter;stroke-opacity:1" d="M 323.789,125.099 319.439,119.298 z" id="boundary" inkscape:connector-curvature="0" />
	<path style="fill:none;stroke:red;stroke-width:1px;stroke-linecap:butt;stroke-linejoin:miter;stroke-opacity:1" d="M 329.591,130.175 333.942,135.977 z" id="boundary" inkscape:connector-curvature="0" />
	<path style="fill:none;stroke:red;stroke-width:1px;stroke-linecap:butt;stroke-linejoin:miter;stroke-opacity:1" d="M 341.193,149.029 337.567,142.503 z" id="boundary" inkscape:connector-curvature="0" />
	<path style="fill:none;stroke:red;stroke-width:1px;stroke-linecap:butt;stroke-linejoin:miter;stroke-opacity:1" d="M 346.994,162.807 343.368,156.281 z" id="boundary" inkscape:connector-curvature="0" />
	<path style="fill:none;stroke:red;stroke-width:1px;stroke-linecap:butt;stroke-linejoin:miter;stroke-opacity:1" d="M 343.368,156.281 341.193,149.029 z" id="boundary" inkscape:connector-curvature="0" />
	<path style="fill:none;stroke:red;stroke-width:1px;stroke-linecap:butt;stroke-linejoin:miter;stroke-opacity:1" d="M 346.994,162.807 349.895,170.058 z" id="boundary" inkscape:connector-curvature="0" />
	<path style="fill:none;stroke:red;stroke-width:1px;stroke-linecap:butt;stroke-linejoin:miter;stroke-opacity:1" d="M 333.942,135.977 337.567,142.503 z" id="boundary" inkscape:connector-curvature="0" />
	<path style="fill:none;stroke:red;stroke-width:1px;stroke-linecap:butt;stroke-linejoin:miter;stroke-opacity:1" d="M 349.895,170.058 353.52,176.585 z" id="boundary" inkscape:connector-curvature="0" />
	<path style="fill:none;stroke:red;stroke-width:1px;stroke-linecap:butt;stroke-linejoin:miter;stroke-opacity:1" d="M 353.52,176.585 356.421,183.836 z" id="boundary" inkscape:connector-curvature="0" />
	<path style="fill:none;stroke:red;stroke-width:1px;stroke-linecap:butt;stroke-linejoin:miter;stroke-opacity:1" d="M 360.047,190.363 356.421,183.836 z" id="boundary" inkscape:connector-curvature="0" />
	<path style="fill:none;stroke:red;stroke-width:1px;stroke-linecap:butt;stroke-linejoin:miter;stroke-opacity:1" d="M 372.374,208.491 366.573,204.14 z" id="boundary" inkscape:connector-curvature="0" />
	<path style="fill:none;stroke:red;stroke-width:1px;stroke-linecap:butt;stroke-linejoin:miter;stroke-opacity:1" d="M 366.573,204.14 362.947,197.614 z" id="boundary" inkscape:connector-curvature="0" />
	<path style="fill:none;stroke:red;stroke-width:1px;stroke-linecap:butt;stroke-linejoin:miter;stroke-opacity:1" d="M 362.947,197.614 360.047,190.363 z" id="boundary" inkscape:connector-curvature="0" />
	<path style="fill:none;stroke:red;stroke-width:1px;stroke-linecap:butt;stroke-linejoin:miter;stroke-opacity:1" d="M 58.386,204.865 62.7368,210.667 z" id="boundary" inkscape:connector-curvature="0" />
	<path style="fill:none;stroke:red;stroke-width:1px;stroke-linecap:butt;stroke-linejoin:miter;stroke-opacity:1" d="M 68.538,215.743 62.7368,210.667 z" id="boundary" inkscape:connector-curvature="0" />
	<path style="fill:none;stroke:red;stroke-width:1px;stroke-linecap:butt;stroke-linejoin:miter;stroke-opacity:1" d="M 80.8655,224.444 74.3392,220.819 z" id="boundary" inkscape:connector-curvature="0" />
	<path style="fill:none;stroke:red;stroke-width:1px;stroke-linecap:butt;stroke-linejoin:miter;stroke-opacity:1" d="M 74.3392,220.819 68.538,215.743 z" id="boundary" inkscape:connector-curvature="0" />
	<path style="fill:none;stroke:red;stroke-width:1px;stroke-linecap:butt;stroke-linejoin:miter;stroke-opacity:1" d="M 87.3918,228.07 80.8655,224.444 z" id="boundary" inkscape:connector-curvature="0" />
	<path style="fill:none;stroke:red;stroke-width:1px;stroke-linecap:butt;stroke-linejoin:miter;stroke-opacity:1" d="M 87.3918,228.07 92.4678,233.871 z" id="boundary" inkscape:connector-curvature="0" />
	<path style="fill:none;stroke:red;stroke-width:1px;stroke-linecap:butt;stroke-linejoin:miter;stroke-opacity:1" d="M 98.269,238.222 105.52,239.673 z" id="boundary" inkscape:connector-curvature="0" />
	<path style="fill:none;stroke:red;stroke-width:1px;stroke-linecap:butt;stroke-linejoin:miter;stroke-opacity:1" d="M 105.52,239.673 110.596,245.474 z" id="boundary" inkscape:connector-curvature="0" />
	<path style="fill:none;stroke:red;stroke-width:1px;stroke-linecap:butt;stroke-linejoin:miter;stroke-opacity:1" d="M 98.269,238.222 92.4678,233.871 z" id="boundary" inkscape:connector-curvature="0" />
	<path style="fill:none;stroke:red;stroke-width:1px;stroke-linecap:butt;stroke-linejoin:miter;stroke-opacity:1" d="M 117.123,249.099 110.596,245.474 z" id="boundary" inkscape:connector-curvature="0" />
	<path style="fill:none;stroke:red;stroke-width:1px;stroke-linecap:butt;stroke-linejoin:miter;stroke-opacity:1" d="M 149.754,267.228 143.228,263.602 z" id="boundary" inkscape:connector-curvature="0" />
	<path style="fill:none;stroke:red;stroke-width:1px;stroke-linecap:butt;stroke-linejoin:miter;stroke-opacity:1" d="M 117.123,249.099 123.649,252.725 z" id="boundary" inkscape:connector-curvature="0" />
	<path style="fill:none;stroke:red;stroke-width:1px;stroke-linecap:butt;stroke-linejoin:miter;stroke-opacity:1" d="M 123.649,252.725 129.45,257.076 z" id="boundary" inkscape:connector-curvature="0" />
	<path style="fill:none;stroke:red;stroke-width:1px;stroke-linecap:butt;stroke-linejoin:miter;stroke-opacity:1" d="M 135.977,260.702 129.45,257.076 z" id="boundary" inkscape:connector-curvature="0" />
	<path style="fill:none;stroke:red;stroke-width:1px;stroke-linecap:butt;stroke-linejoin:miter;stroke-opacity:1" d="M 143.228,263.602 135.977,260.702 z" id="boundary" inkscape:connector-curvature="0" />
	<path style="fill:none;stroke:red;stroke-width:1px;stroke-linecap:butt;stroke-linejoin:miter;stroke-opacity:1" d="M 162.807,274.48 155.556,271.579 z" id="boundary" inkscape:connector-curvature="0" />
	<path style="fill:none;stroke:red;stroke-width:1px;stroke-linecap:butt;stroke-linejoin:miter;stroke-opacity:1" d="M 155.556,271.579 149.754,267.228 z" id="boundary" inkscape:connector-curvature="0" />
	<path style="fill:none;stroke:red;stroke-width:1px;stroke-linecap:butt;stroke-linejoin:miter;stroke-opacity:1" d="M 170.058,277.38 162.807,274.48 z" id="boundary" inkscape:connector-curvature="0" />
	<path style="fill:none;stroke:red;stroke-width:1px;stroke-linecap:butt;stroke-linejoin:miter;stroke-opacity:1" d="M 183.111,281.006 175.86,281.731 z" id="boundary" inkscape:connector-curvature="0" />
	<path style="fill:none;stroke:red;stroke-width:1px;stroke-linecap:butt;stroke-linejoin:miter;stroke-opacity:1" d="M 175.86,281.731 170.058,277.38 z" id="boundary" inkscape:connector-curvature="0" />
	<path style="fill:none;stroke:red;stroke-width:1px;stroke-linecap:butt;stroke-linejoin:miter;stroke-opacity:1" d="M 183.111,281.006 188.912,285.357 z" id="boundary" inkscape:connector-curvature="0" />
	<path style="fill:none;stroke:red;stroke-width:1px;stroke-linecap:butt;stroke-linejoin:miter;stroke-opacity:1" d="M 188.912,285.357 196.164,287.532 z" id="boundary" inkscape:connector-curvature="0" />
	<path style="fill:none;stroke:red;stroke-width:1px;stroke-linecap:butt;stroke-linejoin:miter;stroke-opacity:1" d="M 196.164,287.532 201.965,291.883 z" id="boundary" inkscape:connector-curvature="0" />
	<path style="fill:none;stroke:red;stroke-width:1px;stroke-linecap:butt;stroke-linejoin:miter;stroke-opacity:1" d="M 230.971,296.959 223.719,295.509 z" id="boundary" inkscape:connector-curvature="0" />
	<path style="fill:none;stroke:red;stroke-width:1px;stroke-linecap:butt;stroke-linejoin:miter;stroke-opacity:1" d="M 201.965,291.883 209.216,291.158 z" id="boundary" inkscape:connector-curvature="0" />
	<path style="fill:none;stroke:red;stroke-width:1px;stroke-linecap:butt;stroke-linejoin:miter;stroke-opacity:1" d="M 209.216,291.158 216.468,294.058 z" id="boundary" inkscape:connector-curvature="0" />
	<path style="fill:none;stroke:red;stroke-width:1px;stroke-linecap:butt;stroke-linejoin:miter;stroke-opacity:1" d="M 223.719,295.509 216.468,294.058 z" id="boundary" inkscape:connector-curvature="0" />
	<path style="fill:none;stroke:red;stroke-width:1px;stroke-linecap:butt;stroke-linejoin:miter;stroke-opacity:1" d="M 230.971,296.959 238.222,299.135 z" id="boundary" inkscape:connector-curvature="0" />
	<path style="fill:none;stroke:red;stroke-width:1px;stroke-linecap:butt;stroke-linejoin:miter;stroke-opacity:1" d="M 238.222,299.135 245.474,299.135 z" id="boundary" inkscape:connector-curvature="0" />
	<path style="fill:none;stroke:red;stroke-width:1px;stroke-linecap:butt;stroke-linejoin:miter;stroke-opacity:1" d="M 259.977,298.409 252.725,299.135 z" id="boundary" inkscape:connector-curvature="0" />
	<path style="fill:none;stroke:red;stroke-width:1px;stroke-linecap:butt;stroke-linejoin:miter;stroke-opacity:1" d="M 252.725,299.135 245.474,299.135 z" id="boundary" inkscape:connector-curvature="0" />
	<path style="fill:none;stroke:red;stroke-width:1px;stroke-linecap:butt;stroke-linejoin:miter;stroke-opacity:1" d="M 281.731,295.509 288.982,296.234 z" id="boundary" inkscape:connector-curvature="0" />
	<path style="fill:none;stroke:red;stroke-width:1px;stroke-linecap:butt;stroke-linejoin:miter;stroke-opacity:1" d="M 274.48,297.684 281.731,295.509 z" id="boundary" inkscape:connector-curvature="0" />
	<path style="fill:none;stroke:red;stroke-width:1px;stroke-linecap:butt;stroke-linejoin:miter;stroke-opacity:1" d="M 317.988,294.784 310.737,295.509 z" id="boundary" inkscape:connector-curvature="0" />
	<path style="fill:none;stroke:red;stroke-width:1px;stroke-linecap:butt;stroke-linejoin:miter;stroke-opacity:1" d="M 317.988,294.784 325.24,297.684 z" id="boundary" inkscape:connector-curvature="0" />
	<path style="fill:none;stroke:red;stroke-width:1px;stroke-linecap:butt;stroke-linejoin:miter;stroke-opacity:1" d="M 303.485,295.509 296.234,296.234 z" id="boundary" inkscape:connector-curvature="0" />
	<path style="fill:none;stroke:red;stroke-width:1px;stroke-linecap:butt;stroke-linejoin:miter;stroke-opacity:1" d="M 296.234,296.234 288.982,296.234 z" id="boundary" inkscape:connector-curvature="0" />
	<path style="fill:none;stroke:red;stroke-width:1px;stroke-linecap:butt;stroke-linejoin:miter;stroke-opacity:1" d="M 267.228,297.684 259.977,298.409 z" id="boundary" inkscape:connector-curvature="0" />
	<path style="fill:none;stroke:red;stroke-width:1px;stroke-linecap:butt;stroke-linejoin:miter;stroke-opacity:1" d="M 303.485,295.509 310.737,295.509 z" id="boundary" inkscape:connector-curvature="0" />
	<path style="fill:none;stroke:red;stroke-width:1px;stroke-linecap:butt;stroke-linejoin:miter;stroke-opacity:1" d="M 267.228,297.684 274.48,297.684 z" id="boundary" inkscape:connector-curvature="0" />
	<path style="fill:none;stroke:red;stroke-width:1px;stroke-linecap:butt;stroke-linejoin:miter;stroke-opacity:1" d="M 332.491,296.959 325.24,297.684 z" id="boundary" inkscape:connector-curvature="0" />
	<path style="fill:none;stroke:red;stroke-width:1px;stroke-linecap:butt;stroke-linejoin:miter;stroke-opacity:1" d="M 332.491,296.959 339.743,297.684 z" id="boundary" inkscape:connector-curvature="0" />
	<path style="fill:none;stroke:red;stroke-width:1px;stroke-linecap:butt;stroke-linejoin:miter;stroke-opacity:1" d="M 374.55,215.743 378.175,222.269 z" id="boundary" inkscape:connector-curvature="0" />
	<path style="fill:none;stroke:red;stroke-width:1px;stroke-linecap:butt;stroke-linejoin:miter;stroke-opacity:1" d="M 374.55,215.743 372.374,208.491 z" id="boundary" inkscape:connector-curvature="0" />
	<path style="fill:none;stroke:red;stroke-width:1px;stroke-linecap:butt;stroke-linejoin:miter;stroke-opacity:1" d="M 382.526,228.07 378.175,222.269 z" id="boundary" inkscape:connector-curvature="0" />
	<path style="fill:none;stroke:red;stroke-width:1px;stroke-linecap:butt;stroke-linejoin:miter;stroke-opacity:1" d="M 387.602,233.871 382.526,228.07 z" id="boundary" inkscape:connector-curvature="0" />
	<path style="fill:none;stroke:red;stroke-width:1px;stroke-linecap:butt;stroke-linejoin:miter;stroke-opacity:1" d="M 387.602,233.871 393.404,238.947 z" id="boundary" inkscape:connector-curvature="0" />
	<path style="fill:none;stroke:red;stroke-width:1px;stroke-linecap:butt;stroke-linejoin:miter;stroke-opacity:1" d="M 346.994,299.86 339.743,297.684 z" id="boundary" inkscape:connector-curvature="0" />
	<path style="fill:none;stroke:red;stroke-width:1px;stroke-linecap:butt;stroke-linejoin:miter;stroke-opacity:1" d="M 410.082,252.725 403.556,249.099 z" id="boundary" inkscape:connector-curvature="0" />
	<path style="fill:none;stroke:red;stroke-width:1px;stroke-linecap:butt;stroke-linejoin:miter;stroke-opacity:1" d="M 403.556,249.099 399.93,242.573 z" id="boundary" inkscape:connector-curvature="0" />
	<path style="fill:none;stroke:red;stroke-width:1px;stroke-linecap:butt;stroke-linejoin:miter;stroke-opacity:1" d="M 393.404,238.947 399.93,242.573 z" id="boundary" inkscape:connector-curvature="0" />
	<path style="fill:none;stroke:red;stroke-width:1px;stroke-linecap:butt;stroke-linejoin:miter;stroke-opacity:1" d="M 410.082,252.725 415.883,257.076 z" id="boundary" inkscape:connector-curvature="0" />
	<path style="fill:none;stroke:red;stroke-width:1px;stroke-linecap:butt;stroke-linejoin:miter;stroke-opacity:1" d="M 421.684,261.427 415.883,257.076 z" id="boundary" inkscape:connector-curvature="0" />
	<path style="fill:none;stroke:red;stroke-width:1px;stroke-linecap:butt;stroke-linejoin:miter;stroke-opacity:1" d="M 428.211,265.053 435.462,266.503 z" id="boundary" inkscape:connector-curvature="0" />
	<path style="fill:none;stroke:red;stroke-width:1px;stroke-linecap:butt;stroke-linejoin:miter;stroke-opacity:1" d="M 435.462,266.503 440.538,272.304 z" id="boundary" inkscape:connector-curvature="0" />
	<path style="fill:none;stroke:red;stroke-width:1px;stroke-linecap:butt;stroke-linejoin:miter;stroke-opacity:1" d="M 428.211,265.053 421.684,261.427 z" id="boundary" inkscape:connector-curvature="0" />
	<path style="fill:none;stroke:red;stroke-width:1px;stroke-linecap:butt;stroke-linejoin:miter;stroke-opacity:1" d="M 447.064,275.93 440.538,272.304 z" id="boundary" inkscape:connector-curvature="0" />
	<path style="fill:none;stroke:red;stroke-width:1px;stroke-linecap:butt;stroke-linejoin:miter;stroke-opacity:1" d="M 447.064,275.93 454.316,278.83 z" id="boundary" inkscape:connector-curvature="0" />
	<path style="fill:none;stroke:red;stroke-width:1px;stroke-linecap:butt;stroke-linejoin:miter;stroke-opacity:1" d="M 461.567,281.731 454.316,278.83 z" id="boundary" inkscape:connector-curvature="0" />
	<path style="fill:none;stroke:red;stroke-width:1px;stroke-linecap:butt;stroke-linejoin:miter;stroke-opacity:1" d="M 480.421,290.433 473.17,289.708 z" id="boundary" inkscape:connector-curvature="0" />
	<path style="fill:none;stroke:red;stroke-width:1px;stroke-linecap:butt;stroke-linejoin:miter;stroke-opacity:1" d="M 473.17,289.708 468.819,283.906 z" id="boundary" inkscape:connector-curvature="0" />
	<path style="fill:none;stroke:red;stroke-width:1px;stroke-linecap:butt;stroke-linejoin:miter;stroke-opacity:1" d="M 461.567,281.731 468.819,283.906 z" id="boundary" inkscape:connector-curvature="0" />
	<path style="fill:none;stroke:red;stroke-width:1px;stroke-linecap:butt;stroke-linejoin:miter;stroke-opacity:1" d="M 354.246,302.76 346.994,299.86 z" id="boundary" inkscape:connector-curvature="0" />
	<path style="fill:none;stroke:red;stroke-width:1px;stroke-linecap:butt;stroke-linejoin:miter;stroke-opacity:1" d="M 361.497,302.76 354.246,302.76 z" id="boundary" inkscape:connector-curvature="0" />
	<path style="fill:none;stroke:red;stroke-width:1px;stroke-linecap:butt;stroke-linejoin:miter;stroke-opacity:1" d="M 361.497,302.76 368.749,304.936 z" id="boundary" inkscape:connector-curvature="0" />
	<path style="fill:none;stroke:red;stroke-width:1px;stroke-linecap:butt;stroke-linejoin:miter;stroke-opacity:1" d="M 376,307.111 368.749,304.936 z" id="boundary" inkscape:connector-curvature="0" />
	<path style="fill:none;stroke:red;stroke-width:1px;stroke-linecap:butt;stroke-linejoin:miter;stroke-opacity:1" d="M 376,307.111 381.801,311.462 z" id="boundary" inkscape:connector-curvature="0" />
	<path style="fill:none;stroke:red;stroke-width:1px;stroke-linecap:butt;stroke-linejoin:miter;stroke-opacity:1" d="M 381.801,311.462 389.053,312.187 z" id="boundary" inkscape:connector-curvature="0" />
	<path style="fill:none;stroke:red;stroke-width:1px;stroke-linecap:butt;stroke-linejoin:miter;stroke-opacity:1" d="M 389.053,312.187 396.304,315.088 z" id="boundary" inkscape:connector-curvature="0" />
	<path style="fill:none;stroke:red;stroke-width:1px;stroke-linecap:butt;stroke-linejoin:miter;stroke-opacity:1" d="M 402.83,318.713 396.304,315.088 z" id="boundary" inkscape:connector-curvature="0" />
	<path style="fill:none;stroke:red;stroke-width:1px;stroke-linecap:butt;stroke-linejoin:miter;stroke-opacity:1" d="M 410.082,321.614 402.83,318.713 z" id="boundary" inkscape:connector-curvature="0" />
	<path style="fill:none;stroke:red;stroke-width:1px;stroke-linecap:butt;stroke-linejoin:miter;stroke-opacity:1" d="M 410.082,321.614 415.883,325.965 z" id="boundary" inkscape:connector-curvature="0" />
	<path style="fill:none;stroke:red;stroke-width:1px;stroke-linecap:butt;stroke-linejoin:miter;stroke-opacity:1" d="M 415.883,325.965 423.135,328.14 z" id="boundary" inkscape:connector-curvature="0" />
	<path style="fill:none;stroke:red;stroke-width:1px;stroke-linecap:butt;stroke-linejoin:miter;stroke-opacity:1" d="M 430.386,331.041 437.637,333.942 z" id="boundary" inkscape:connector-curvature="0" />
	<path style="fill:none;stroke:red;stroke-width:1px;stroke-linecap:butt;stroke-linejoin:miter;stroke-opacity:1" d="M 430.386,331.041 423.135,328.14 z" id="boundary" inkscape:connector-curvature="0" />
	<path style="fill:none;stroke:red;stroke-width:1px;stroke-linecap:butt;stroke-linejoin:miter;stroke-opacity:1" d="M 443.439,338.292 437.637,333.942 z" id="boundary" inkscape:connector-curvature="0" />
	<path style="fill:none;stroke:red;stroke-width:1px;stroke-linecap:butt;stroke-linejoin:miter;stroke-opacity:1" d="M 443.439,338.292 447.789,344.094 z" id="boundary" inkscape:connector-curvature="0" />
	<path style="fill:none;stroke:red;stroke-width:1px;stroke-linecap:butt;stroke-linejoin:miter;stroke-opacity:1" d="M 447.789,344.094 455.041,342.643 z" id="boundary" inkscape:connector-curvature="0" />
	<path style="fill:none;stroke:red;stroke-width:1px;stroke-linecap:butt;stroke-linejoin:miter;stroke-opacity:1" d="M 455.041,342.643 459.392,348.444 z" id="boundary" inkscape:connector-curvature="0" />
	<path style="fill:none;stroke:red;stroke-width:1px;stroke-linecap:butt;stroke-linejoin:miter;stroke-opacity:1" d="M 465.193,352.795 459.392,348.444 z" id="boundary" inkscape:connector-curvature="0" />
	<path style="fill:none;stroke:red;stroke-width:1px;stroke-linecap:butt;stroke-linejoin:miter;stroke-opacity:1" d="M 470.994,357.146 476.795,362.222 z" id="boundary" inkscape:connector-curvature="0" />
	<path style="fill:none;stroke:red;stroke-width:1px;stroke-linecap:butt;stroke-linejoin:miter;stroke-opacity:1" d="M 470.994,357.146 465.193,352.795 z" id="boundary" inkscape:connector-curvature="0" />
	<path style="fill:none;stroke:red;stroke-width:1px;stroke-linecap:butt;stroke-linejoin:miter;stroke-opacity:1" d="M 480.421,290.433 486.222,294.784 z" id="boundary" inkscape:connector-curvature="0" />
	<path style="fill:none;stroke:red;stroke-width:1px;stroke-linecap:butt;stroke-linejoin:miter;stroke-opacity:1" d="M 492.749,298.409 500,301.31 z" id="boundary" inkscape:connector-curvature="0" />
	<path style="fill:none;stroke:red;stroke-width:1px;stroke-linecap:butt;stroke-linejoin:miter;stroke-opacity:1" d="M 492.749,298.409 486.222,294.784 z" id="boundary" inkscape:connector-curvature="0" />
	<path style="fill:none;stroke:red;stroke-width:1px;stroke-linecap:butt;stroke-linejoin:miter;stroke-opacity:1" d="M 500,301.31 507.251,302.76 z" id="boundary" inkscape:connector-curvature="0" />
	<path style="fill:none;stroke:red;stroke-width:1px;stroke-linecap:butt;stroke-linejoin:miter;stroke-opacity:1" d="M 507.251,302.76 513.778,306.386 z" id="boundary" inkscape:connector-curvature="0" />
	<path style="fill:none;stroke:red;stroke-width:1px;stroke-linecap:butt;stroke-linejoin:miter;stroke-opacity:1" d="M 483.322,365.848 476.795,362.222 z" id="boundary" inkscape:connector-curvature="0" />
	<path style="fill:none;stroke:red;stroke-width:1px;stroke-linecap:butt;stroke-linejoin:miter;stroke-opacity:1" d="M 489.848,369.474 483.322,365.848 z" id="boundary" inkscape:connector-curvature="0" />
	<path style="fill:none;stroke:red;stroke-width:1px;stroke-linecap:butt;stroke-linejoin:miter;stroke-opacity:1" d="M 513.778,306.386 519.579,310.737 z" id="boundary" inkscape:connector-curvature="0" />
	<path style="fill:none;stroke:red;stroke-width:1px;stroke-linecap:butt;stroke-linejoin:miter;stroke-opacity:1" d="M 519.579,310.737 526.83,312.912 z" id="boundary" inkscape:connector-curvature="0" />
	<path style="fill:none;stroke:red;stroke-width:1px;stroke-linecap:butt;stroke-linejoin:miter;stroke-opacity:1" d="M 533.357,316.538 526.83,312.912 z" id="boundary" inkscape:connector-curvature="0" />
	<path style="fill:none;stroke:red;stroke-width:1px;stroke-linecap:butt;stroke-linejoin:miter;stroke-opacity:1" d="M 539.883,320.164 533.357,316.538 z" id="boundary" inkscape:connector-curvature="0" />
	<path style="fill:none;stroke:red;stroke-width:1px;stroke-linecap:butt;stroke-linejoin:miter;stroke-opacity:1" d="M 547.135,323.064 539.883,320.164 z" id="boundary" inkscape:connector-curvature="0" />
	<path style="fill:none;stroke:red;stroke-width:1px;stroke-linecap:butt;stroke-linejoin:miter;stroke-opacity:1" d="M 547.135,323.064 554.386,325.24 z" id="boundary" inkscape:connector-curvature="0" />
	<path style="fill:none;stroke:red;stroke-width:1px;stroke-linecap:butt;stroke-linejoin:miter;stroke-opacity:1" d="M 573.24,335.392 565.988,333.216 z" id="boundary" inkscape:connector-curvature="0" />
	<path style="fill:none;stroke:red;stroke-width:1px;stroke-linecap:butt;stroke-linejoin:miter;stroke-opacity:1" d="M 565.988,333.216 561.637,327.415 z" id="boundary" inkscape:connector-curvature="0" />
	<path style="fill:none;stroke:red;stroke-width:1px;stroke-linecap:butt;stroke-linejoin:miter;stroke-opacity:1" d="M 579.766,339.018 573.24,335.392 z" id="boundary" inkscape:connector-curvature="0" />
	<path style="fill:none;stroke:red;stroke-width:1px;stroke-linecap:butt;stroke-linejoin:miter;stroke-opacity:1" d="M 554.386,325.24 561.637,327.415 z" id="boundary" inkscape:connector-curvature="0" />
	<path style="fill:none;stroke:red;stroke-width:1px;stroke-linecap:butt;stroke-linejoin:miter;stroke-opacity:1" d="M 593.544,345.544 586.292,342.643 z" id="boundary" inkscape:connector-curvature="0" />
	<path style="fill:none;stroke:red;stroke-width:1px;stroke-linecap:butt;stroke-linejoin:miter;stroke-opacity:1" d="M 586.292,342.643 579.766,339.018 z" id="boundary" inkscape:connector-curvature="0" />
	<path style="fill:none;stroke:red;stroke-width:1px;stroke-linecap:butt;stroke-linejoin:miter;stroke-opacity:1" d="M 593.544,345.544 599.345,349.895 z" id="boundary" inkscape:connector-curvature="0" />
	<path style="fill:none;stroke:red;stroke-width:1px;stroke-linecap:butt;stroke-linejoin:miter;stroke-opacity:1" d="M 599.345,349.895 606.596,352.795 z" id="boundary" inkscape:connector-curvature="0" />
	<path style="fill:none;stroke:red;stroke-width:1px;stroke-linecap:butt;stroke-linejoin:miter;stroke-opacity:1" d="M 613.123,356.421 606.596,352.795 z" id="boundary" inkscape:connector-curvature="0" />
	<path style="fill:none;stroke:red;stroke-width:1px;stroke-linecap:butt;stroke-linejoin:miter;stroke-opacity:1" d="M 489.848,369.474 497.099,372.374 z" id="boundary" inkscape:connector-curvature="0" />
	<path style="fill:none;stroke:red;stroke-width:1px;stroke-linecap:butt;stroke-linejoin:miter;stroke-opacity:1" d="M 497.099,372.374 502.901,376.725 z" id="boundary" inkscape:connector-curvature="0" />
	<path style="fill:none;stroke:red;stroke-width:1px;stroke-linecap:butt;stroke-linejoin:miter;stroke-opacity:1" d="M 515.953,383.977 508.702,381.801 z" id="boundary" inkscape:connector-curvature="0" />
	<path style="fill:none;stroke:red;stroke-width:1px;stroke-linecap:butt;stroke-linejoin:miter;stroke-opacity:1" d="M 508.702,381.801 502.901,376.725 z" id="boundary" inkscape:connector-curvature="0" />
	<path style="fill:none;stroke:red;stroke-width:1px;stroke-linecap:butt;stroke-linejoin:miter;stroke-opacity:1" d="M 515.953,383.977 520.304,389.778 z" id="boundary" inkscape:connector-curvature="0" />
	<path style="fill:none;stroke:red;stroke-width:1px;stroke-linecap:butt;stroke-linejoin:miter;stroke-opacity:1" d="M 520.304,389.778 527.556,392.678 z" id="boundary" inkscape:connector-curvature="0" />
	<path style="fill:none;stroke:red;stroke-width:1px;stroke-linecap:butt;stroke-linejoin:miter;stroke-opacity:1" d="M 527.556,392.678 533.357,397.029 z" id="boundary" inkscape:connector-curvature="0" />
	<path style="fill:none;stroke:red;stroke-width:1px;stroke-linecap:butt;stroke-linejoin:miter;stroke-opacity:1" d="M 539.158,401.38 533.357,397.029 z" id="boundary" inkscape:connector-curvature="0" />
	<path style="fill:none;stroke:red;stroke-width:1px;stroke-linecap:butt;stroke-linejoin:miter;stroke-opacity:1" d="M 539.158,401.38 545.684,405.006 z" id="boundary" inkscape:connector-curvature="0" />
	<path style="fill:none;stroke:red;stroke-width:1px;stroke-linecap:butt;stroke-linejoin:miter;stroke-opacity:1" d="M 545.684,405.006 551.485,409.357 z" id="boundary" inkscape:connector-curvature="0" />
	<path style="fill:none;stroke:red;stroke-width:1px;stroke-linecap:butt;stroke-linejoin:miter;stroke-opacity:1" d="M 551.485,409.357 558.737,412.257 z" id="boundary" inkscape:connector-curvature="0" />
	<path style="fill:none;stroke:red;stroke-width:1px;stroke-linecap:butt;stroke-linejoin:miter;stroke-opacity:1" d="M 558.737,412.257 563.088,418.058 z" id="boundary" inkscape:connector-curvature="0" />
	<path style="fill:none;stroke:red;stroke-width:1px;stroke-linecap:butt;stroke-linejoin:miter;stroke-opacity:1" d="M 569.614,421.684 563.088,418.058 z" id="boundary" inkscape:connector-curvature="0" />
	<path style="fill:none;stroke:red;stroke-width:1px;stroke-linecap:butt;stroke-linejoin:miter;stroke-opacity:1" d="M 576.865,423.135 569.614,421.684 z" id="boundary" inkscape:connector-curvature="0" />
	<path style="fill:none;stroke:red;stroke-width:1px;stroke-linecap:butt;stroke-linejoin:miter;stroke-opacity:1" d="M 576.865,423.135 582.667,427.485 z" id="boundary" inkscape:connector-curvature="0" />
	<path style="fill:none;stroke:red;stroke-width:1px;stroke-linecap:butt;stroke-linejoin:miter;stroke-opacity:1" d="M 593.544,436.912 587.018,433.287 z" id="boundary" inkscape:connector-curvature="0" />
	<path style="fill:none;stroke:red;stroke-width:1px;stroke-linecap:butt;stroke-linejoin:miter;stroke-opacity:1" d="M 587.018,433.287 582.667,427.485 z" id="boundary" inkscape:connector-curvature="0" />
	<path style="fill:none;stroke:red;stroke-width:1px;stroke-linecap:butt;stroke-linejoin:miter;stroke-opacity:1" d="M 600.795,439.813 593.544,436.912 z" id="boundary" inkscape:connector-curvature="0" />
	<path style="fill:none;stroke:red;stroke-width:1px;stroke-linecap:butt;stroke-linejoin:miter;stroke-opacity:1" d="M 600.795,439.813 606.596,444.164 z" id="boundary" inkscape:connector-curvature="0" />
	<path style="fill:none;stroke:red;stroke-width:1px;stroke-linecap:butt;stroke-linejoin:miter;stroke-opacity:1" d="M 612.398,448.515 606.596,444.164 z" id="boundary" inkscape:connector-curvature="0" />
	<path style="fill:none;stroke:red;stroke-width:1px;stroke-linecap:butt;stroke-linejoin:miter;stroke-opacity:1" d="M 613.123,356.421 618.924,360.772 z" id="boundary" inkscape:connector-curvature="0" />
	<path style="fill:none;stroke:red;stroke-width:1px;stroke-linecap:butt;stroke-linejoin:miter;stroke-opacity:1" d="M 626.175,363.673 632.702,367.298 z" id="boundary" inkscape:connector-curvature="0" />
	<path style="fill:none;stroke:red;stroke-width:1px;stroke-linecap:butt;stroke-linejoin:miter;stroke-opacity:1" d="M 626.175,363.673 618.924,360.772 z" id="boundary" inkscape:connector-curvature="0" />
	<path style="fill:none;stroke:red;stroke-width:1px;stroke-linecap:butt;stroke-linejoin:miter;stroke-opacity:1" d="M 646.48,371.649 639.228,370.924 z" id="boundary" inkscape:connector-curvature="0" />
	<path style="fill:none;stroke:red;stroke-width:1px;stroke-linecap:butt;stroke-linejoin:miter;stroke-opacity:1" d="M 639.228,370.924 632.702,367.298 z" id="boundary" inkscape:connector-curvature="0" />
	<path style="fill:none;stroke:red;stroke-width:1px;stroke-linecap:butt;stroke-linejoin:miter;stroke-opacity:1" d="M 646.48,371.649 651.556,377.45 z" id="boundary" inkscape:connector-curvature="0" />
	<path style="fill:none;stroke:red;stroke-width:1px;stroke-linecap:butt;stroke-linejoin:miter;stroke-opacity:1" d="M 651.556,377.45 658.082,381.076 z" id="boundary" inkscape:connector-curvature="0" />
	<path style="fill:none;stroke:red;stroke-width:1px;stroke-linecap:butt;stroke-linejoin:miter;stroke-opacity:1" d="M 665.333,383.977 671.86,387.602 z" id="boundary" inkscape:connector-curvature="0" />
	<path style="fill:none;stroke:red;stroke-width:1px;stroke-linecap:butt;stroke-linejoin:miter;stroke-opacity:1" d="M 677.661,391.953 671.86,387.602 z" id="boundary" inkscape:connector-curvature="0" />
	<path style="fill:none;stroke:red;stroke-width:1px;stroke-linecap:butt;stroke-linejoin:miter;stroke-opacity:1" d="M 684.912,392.678 677.661,391.953 z" id="boundary" inkscape:connector-curvature="0" />
	<path style="fill:none;stroke:red;stroke-width:1px;stroke-linecap:butt;stroke-linejoin:miter;stroke-opacity:1" d="M 658.082,381.076 665.333,383.977 z" id="boundary" inkscape:connector-curvature="0" />
	<path style="fill:none;stroke:red;stroke-width:1px;stroke-linecap:butt;stroke-linejoin:miter;stroke-opacity:1" d="M 618.924,452.14 612.398,448.515 z" id="boundary" inkscape:connector-curvature="0" />
	<path style="fill:none;stroke:red;stroke-width:1px;stroke-linecap:butt;stroke-linejoin:miter;stroke-opacity:1" d="M 684.912,392.678 690.713,397.029 z" id="boundary" inkscape:connector-curvature="0" />
	<path style="fill:none;stroke:red;stroke-width:1px;stroke-linecap:butt;stroke-linejoin:miter;stroke-opacity:1" d="M 697.24,400.655 690.713,397.029 z" id="boundary" inkscape:connector-curvature="0" />
	<path style="fill:none;stroke:red;stroke-width:1px;stroke-linecap:butt;stroke-linejoin:miter;stroke-opacity:1" d="M 710.292,407.181 703.041,405.006 z" id="boundary" inkscape:connector-curvature="0" />
	<path style="fill:none;stroke:red;stroke-width:1px;stroke-linecap:butt;stroke-linejoin:miter;stroke-opacity:1" d="M 703.041,405.006 697.24,400.655 z" id="boundary" inkscape:connector-curvature="0" />
	<path style="fill:none;stroke:red;stroke-width:1px;stroke-linecap:butt;stroke-linejoin:miter;stroke-opacity:1" d="M 710.292,407.181 716.819,410.807 z" id="boundary" inkscape:connector-curvature="0" />
	<path style="fill:none;stroke:red;stroke-width:1px;stroke-linecap:butt;stroke-linejoin:miter;stroke-opacity:1" d="M 729.871,418.784 722.62,415.883 z" id="boundary" inkscape:connector-curvature="0" />
	<path style="fill:none;stroke:red;stroke-width:1px;stroke-linecap:butt;stroke-linejoin:miter;stroke-opacity:1" d="M 722.62,415.883 716.819,410.807 z" id="boundary" inkscape:connector-curvature="0" />
	<path style="fill:none;stroke:red;stroke-width:1px;stroke-linecap:butt;stroke-linejoin:miter;stroke-opacity:1" d="M 737.123,421.684 729.871,418.784 z" id="boundary" inkscape:connector-curvature="0" />
	<path style="fill:none;stroke:red;stroke-width:1px;stroke-linecap:butt;stroke-linejoin:miter;stroke-opacity:1" d="M 750.901,427.485 743.649,425.31 z" id="boundary" inkscape:connector-curvature="0" />
	<path style="fill:none;stroke:red;stroke-width:1px;stroke-linecap:butt;stroke-linejoin:miter;stroke-opacity:1" d="M 743.649,425.31 737.123,421.684 z" id="boundary" inkscape:connector-curvature="0" />
	<path style="fill:none;stroke:red;stroke-width:1px;stroke-linecap:butt;stroke-linejoin:miter;stroke-opacity:1" d="M 750.901,427.485 756.702,432.561 z" id="boundary" inkscape:connector-curvature="0" />
	<path style="fill:none;stroke:red;stroke-width:1px;stroke-linecap:butt;stroke-linejoin:miter;stroke-opacity:1" d="M 618.924,452.14 624.725,456.491 z" id="boundary" inkscape:connector-curvature="0" />
	<path style="fill:none;stroke:red;stroke-width:1px;stroke-linecap:butt;stroke-linejoin:miter;stroke-opacity:1" d="M 756.702,432.561 763.953,434.012 z" id="boundary" inkscape:connector-curvature="0" />
	<path style="fill:none;stroke:red;stroke-width:1px;stroke-linecap:butt;stroke-linejoin:miter;stroke-opacity:1" d="M 763.953,434.012 769.754,438.363 z" id="boundary" inkscape:connector-curvature="0" />
	<path style="fill:none;stroke:red;stroke-width:1px;stroke-linecap:butt;stroke-linejoin:miter;stroke-opacity:1" d="M 630.526,460.842 636.327,465.193 z" id="boundary" inkscape:connector-curvature="0" />
	<path style="fill:none;stroke:red;stroke-width:1px;stroke-linecap:butt;stroke-linejoin:miter;stroke-opacity:1" d="M 643.579,468.094 636.327,465.193 z" id="boundary" inkscape:connector-curvature="0" />
	<path style="fill:none;stroke:red;stroke-width:1px;stroke-linecap:butt;stroke-linejoin:miter;stroke-opacity:1" d="M 649.38,472.444 655.181,477.52 z" id="boundary" inkscape:connector-curvature="0" />
	<path style="fill:none;stroke:red;stroke-width:1px;stroke-linecap:butt;stroke-linejoin:miter;stroke-opacity:1" d="M 649.38,472.444 643.579,468.094 z" id="boundary" inkscape:connector-curvature="0" />
	<path style="fill:none;stroke:red;stroke-width:1px;stroke-linecap:butt;stroke-linejoin:miter;stroke-opacity:1" d="M 661.708,481.146 655.181,477.52 z" id="boundary" inkscape:connector-curvature="0" />
	<path style="fill:none;stroke:red;stroke-width:1px;stroke-linecap:butt;stroke-linejoin:miter;stroke-opacity:1" d="M 630.526,460.842 624.725,456.491 z" id="boundary" inkscape:connector-curvature="0" />
	<path style="fill:none;stroke:red;stroke-width:1px;stroke-linecap:butt;stroke-linejoin:miter;stroke-opacity:1" d="M 776.281,441.988 783.532,444.889 z" id="boundary" inkscape:connector-curvature="0" />
	<path style="fill:none;stroke:red;stroke-width:1px;stroke-linecap:butt;stroke-linejoin:miter;stroke-opacity:1" d="M 790.784,445.614 783.532,444.889 z" id="boundary" inkscape:connector-curvature="0" />
	<path style="fill:none;stroke:red;stroke-width:1px;stroke-linecap:butt;stroke-linejoin:miter;stroke-opacity:1" d="M 802.386,455.041 795.86,451.415 z" id="boundary" inkscape:connector-curvature="0" />
	<path style="fill:none;stroke:red;stroke-width:1px;stroke-linecap:butt;stroke-linejoin:miter;stroke-opacity:1" d="M 795.86,451.415 790.784,445.614 z" id="boundary" inkscape:connector-curvature="0" />
	<path style="fill:none;stroke:red;stroke-width:1px;stroke-linecap:butt;stroke-linejoin:miter;stroke-opacity:1" d="M 809.637,457.216 802.386,455.041 z" id="boundary" inkscape:connector-curvature="0" />
	<path style="fill:none;stroke:red;stroke-width:1px;stroke-linecap:butt;stroke-linejoin:miter;stroke-opacity:1" d="M 776.281,441.988 769.754,438.363 z" id="boundary" inkscape:connector-curvature="0" />
	<path style="fill:none;stroke:red;stroke-width:1px;stroke-linecap:butt;stroke-linejoin:miter;stroke-opacity:1" d="M 822.69,464.468 815.439,461.567 z" id="boundary" inkscape:connector-curvature="0" />
	<path style="fill:none;stroke:red;stroke-width:1px;stroke-linecap:butt;stroke-linejoin:miter;stroke-opacity:1" d="M 815.439,461.567 809.637,457.216 z" id="boundary" inkscape:connector-curvature="0" />
	<path style="fill:none;stroke:red;stroke-width:1px;stroke-linecap:butt;stroke-linejoin:miter;stroke-opacity:1" d="M 822.69,464.468 828.491,468.819 z" id="boundary" inkscape:connector-curvature="0" />
	<path style="fill:none;stroke:red;stroke-width:1px;stroke-linecap:butt;stroke-linejoin:miter;stroke-opacity:1" d="M 828.491,468.819 835.743,471.719 z" id="boundary" inkscape:connector-curvature="0" />
	<path style="fill:none;stroke:red;stroke-width:1px;stroke-linecap:butt;stroke-linejoin:miter;stroke-opacity:1" d="M 835.743,471.719 841.544,476.07 z" id="boundary" inkscape:connector-curvature="0" />
	<path style="fill:none;stroke:red;stroke-width:1px;stroke-linecap:butt;stroke-linejoin:miter;stroke-opacity:1" d="M 848.795,478.246 841.544,476.07 z" id="boundary" inkscape:connector-curvature="0" />
	<path style="fill:none;stroke:red;stroke-width:1px;stroke-linecap:butt;stroke-linejoin:miter;stroke-opacity:1" d="M 692.164,502.175 685.637,498.55 z" id="boundary" inkscape:connector-curvature="0" />
	<path style="fill:none;stroke:red;stroke-width:1px;stroke-linecap:butt;stroke-linejoin:miter;stroke-opacity:1" d="M 685.637,498.55 679.111,494.924 z" id="boundary" inkscape:connector-curvature="0" />
	<path style="fill:none;stroke:red;stroke-width:1px;stroke-linecap:butt;stroke-linejoin:miter;stroke-opacity:1" d="M 679.111,494.924 673.31,489.848 z" id="boundary" inkscape:connector-curvature="0" />
	<path style="fill:none;stroke:red;stroke-width:1px;stroke-linecap:butt;stroke-linejoin:miter;stroke-opacity:1" d="M 667.509,485.497 673.31,489.848 z" id="boundary" inkscape:connector-curvature="0" />
	<path style="fill:none;stroke:red;stroke-width:1px;stroke-linecap:butt;stroke-linejoin:miter;stroke-opacity:1" d="M 661.708,481.146 667.509,485.497 z" id="boundary" inkscape:connector-curvature="0" />
	<path style="fill:none;stroke:red;stroke-width:1px;stroke-linecap:butt;stroke-linejoin:miter;stroke-opacity:1" d="M 692.164,502.175 697.965,507.251 z" id="boundary" inkscape:connector-curvature="0" />
	<path style="fill:none;stroke:red;stroke-width:1px;stroke-linecap:butt;stroke-linejoin:miter;stroke-opacity:1" d="M 705.216,509.427 697.965,507.251 z" id="boundary" inkscape:connector-curvature="0" />
	<path style="fill:none;stroke:red;stroke-width:1px;stroke-linecap:butt;stroke-linejoin:miter;stroke-opacity:1" d="M 705.216,509.427 711.743,513.053 z" id="boundary" inkscape:connector-curvature="0" />
	<path style="fill:none;stroke:red;stroke-width:1px;stroke-linecap:butt;stroke-linejoin:miter;stroke-opacity:1" d="M 711.743,513.053 716.819,518.854 z" id="boundary" inkscape:connector-curvature="0" />
	<path style="fill:none;stroke:red;stroke-width:1px;stroke-linecap:butt;stroke-linejoin:miter;stroke-opacity:1" d="M 722.62,523.205 716.819,518.854 z" id="boundary" inkscape:connector-curvature="0" />
	<path style="fill:none;stroke:red;stroke-width:1px;stroke-linecap:butt;stroke-linejoin:miter;stroke-opacity:1" d="M 854.596,482.596 848.795,478.246 z" id="boundary" inkscape:connector-curvature="0" />
	<path style="fill:none;stroke:red;stroke-width:1px;stroke-linecap:butt;stroke-linejoin:miter;stroke-opacity:1" d="M 861.123,486.222 854.596,482.596 z" id="boundary" inkscape:connector-curvature="0" />
	<path style="fill:none;stroke:red;stroke-width:1px;stroke-linecap:butt;stroke-linejoin:miter;stroke-opacity:1" d="M 861.123,486.222 868.374,489.123 z" id="boundary" inkscape:connector-curvature="0" />
	<path style="fill:none;stroke:red;stroke-width:1px;stroke-linecap:butt;stroke-linejoin:miter;stroke-opacity:1" d="M 874.901,492.749 868.374,489.123 z" id="boundary" inkscape:connector-curvature="0" />
	<path style="fill:none;stroke:red;stroke-width:1px;stroke-linecap:butt;stroke-linejoin:miter;stroke-opacity:1" d="M 882.152,494.924 874.901,492.749 z" id="boundary" inkscape:connector-curvature="0" />
	<path style="fill:none;stroke:red;stroke-width:1px;stroke-linecap:butt;stroke-linejoin:miter;stroke-opacity:1" d="M 722.62,523.205 729.146,526.83 z" id="boundary" inkscape:connector-curvature="0" />
	<path style="fill:none;stroke:red;stroke-width:1px;stroke-linecap:butt;stroke-linejoin:miter;stroke-opacity:1" d="M 735.673,530.456 729.146,526.83 z" id="boundary" inkscape:connector-curvature="0" />
	<path style="fill:none;stroke:red;stroke-width:1px;stroke-linecap:butt;stroke-linejoin:miter;stroke-opacity:1" d="M 735.673,530.456 741.474,535.532 z" id="boundary" inkscape:connector-curvature="0" />
	<path style="fill:none;stroke:red;stroke-width:1px;stroke-linecap:butt;stroke-linejoin:miter;stroke-opacity:1" d="M 748.725,538.433 741.474,535.532 z" id="boundary" inkscape:connector-curvature="0" />
	<path style="fill:none;stroke:red;stroke-width:1px;stroke-linecap:butt;stroke-linejoin:miter;stroke-opacity:1" d="M 748.725,538.433 754.526,542.784 z" id="boundary" inkscape:connector-curvature="0" />
	<path style="fill:none;stroke:red;stroke-width:1px;stroke-linecap:butt;stroke-linejoin:miter;stroke-opacity:1" d="M 754.526,542.784 761.778,544.234 z" id="boundary" inkscape:connector-curvature="0" />
	<path style="fill:none;stroke:red;stroke-width:1px;stroke-linecap:butt;stroke-linejoin:miter;stroke-opacity:1" d="M 761.778,544.234 766.854,550.035 z" id="boundary" inkscape:connector-curvature="0" />
	<path style="fill:none;stroke:red;stroke-width:1px;stroke-linecap:butt;stroke-linejoin:miter;stroke-opacity:1" d="M 766.854,550.035 773.38,553.661 z" id="boundary" inkscape:connector-curvature="0" />
	<path style="fill:none;stroke:red;stroke-width:1px;stroke-linecap:butt;stroke-linejoin:miter;stroke-opacity:1" d="M 773.38,553.661 779.181,558.737 z" id="boundary" inkscape:connector-curvature="0" />
	<path style="fill:none;stroke:red;stroke-width:1px;stroke-linecap:butt;stroke-linejoin:miter;stroke-opacity:1" d="M 785.708,562.363 779.181,558.737 z" id="boundary" inkscape:connector-curvature="0" />
	<path style="fill:none;stroke:red;stroke-width:1px;stroke-linecap:butt;stroke-linejoin:miter;stroke-opacity:1" d="M 785.708,562.363 792.234,565.988 z" id="boundary" inkscape:connector-curvature="0" />
	<path style="fill:none;stroke:red;stroke-width:1px;stroke-linecap:butt;stroke-linejoin:miter;stroke-opacity:1" d="M 799.485,568.164 792.234,565.988 z" id="boundary" inkscape:connector-curvature="0" />
	<path style="fill:none;stroke:red;stroke-width:1px;stroke-linecap:butt;stroke-linejoin:miter;stroke-opacity:1" d="M 811.813,576.865 804.561,573.965 z" id="boundary" inkscape:connector-curvature="0" />
	<path style="fill:none;stroke:red;stroke-width:1px;stroke-linecap:butt;stroke-linejoin:miter;stroke-opacity:1" d="M 804.561,573.965 799.485,568.164 z" id="boundary" inkscape:connector-curvature="0" />
	<path style="fill:none;stroke:red;stroke-width:1px;stroke-linecap:butt;stroke-linejoin:miter;stroke-opacity:1" d="M 811.813,576.865 816.164,582.667 z" id="boundary" inkscape:connector-curvature="0" />
	<path style="fill:none;stroke:red;stroke-width:1px;stroke-linecap:butt;stroke-linejoin:miter;stroke-opacity:1" d="M 816.164,582.667 821.965,587.018 z" id="boundary" inkscape:connector-curvature="0" />
	<path style="fill:none;stroke:red;stroke-width:1px;stroke-linecap:butt;stroke-linejoin:miter;stroke-opacity:1" d="M 834.292,594.994 827.766,591.368 z" id="boundary" inkscape:connector-curvature="0" />
	<path style="fill:none;stroke:red;stroke-width:1px;stroke-linecap:butt;stroke-linejoin:miter;stroke-opacity:1" d="M 827.766,591.368 821.965,587.018 z" id="boundary" inkscape:connector-curvature="0" />
	<path style="fill:none;stroke:red;stroke-width:1px;stroke-linecap:butt;stroke-linejoin:miter;stroke-opacity:1" d="M 834.292,594.994 841.544,597.895 z" id="boundary" inkscape:connector-curvature="0" />
	<path style="fill:none;stroke:red;stroke-width:1px;stroke-linecap:butt;stroke-linejoin:miter;stroke-opacity:1" d="M 841.544,597.895 848.07,601.52 z" id="boundary" inkscape:connector-curvature="0" />
	<path style="fill:none;stroke:red;stroke-width:1px;stroke-linecap:butt;stroke-linejoin:miter;stroke-opacity:1" d="M 848.07,601.52 854.596,605.146 z" id="boundary" inkscape:connector-curvature="0" />
	<path style="fill:none;stroke:red;stroke-width:1px;stroke-linecap:butt;stroke-linejoin:miter;stroke-opacity:1" d="M 854.596,605.146 860.398,609.497 z" id="boundary" inkscape:connector-curvature="0" />
	<path style="fill:none;stroke:red;stroke-width:1px;stroke-linecap:butt;stroke-linejoin:miter;stroke-opacity:1" d="M 867.649,612.398 860.398,609.497 z" id="boundary" inkscape:connector-curvature="0" />
	<path style="fill:none;stroke:red;stroke-width:1px;stroke-linecap:butt;stroke-linejoin:miter;stroke-opacity:1" d="M 878.526,622.55 872.725,618.199 z" id="boundary" inkscape:connector-curvature="0" />
	<path style="fill:none;stroke:red;stroke-width:1px;stroke-linecap:butt;stroke-linejoin:miter;stroke-opacity:1" d="M 872.725,618.199 867.649,612.398 z" id="boundary" inkscape:connector-curvature="0" />
	<path style="fill:none;stroke:red;stroke-width:1px;stroke-linecap:butt;stroke-linejoin:miter;stroke-opacity:1" d="M 885.053,626.175 878.526,622.55 z" id="boundary" inkscape:connector-curvature="0" />
	<path style="fill:none;stroke:red;stroke-width:1px;stroke-linecap:butt;stroke-linejoin:miter;stroke-opacity:1" d="M 882.152,494.924 887.953,499.275 z" id="boundary" inkscape:connector-curvature="0" />
	<path style="fill:none;stroke:red;stroke-width:1px;stroke-linecap:butt;stroke-linejoin:miter;stroke-opacity:1" d="M 887.953,499.275 894.48,502.901 z" id="boundary" inkscape:connector-curvature="0" />
	<path style="fill:none;stroke:red;stroke-width:1px;stroke-linecap:butt;stroke-linejoin:miter;stroke-opacity:1" d="M 894.48,502.901 900.281,507.977 z" id="boundary" inkscape:connector-curvature="0" />
	<path style="fill:none;stroke:red;stroke-width:1px;stroke-linecap:butt;stroke-linejoin:miter;stroke-opacity:1" d="M 900.281,507.977 907.532,507.251 z" id="boundary" inkscape:connector-curvature="0" />
	<path style="fill:none;stroke:red;stroke-width:1px;stroke-linecap:butt;stroke-linejoin:miter;stroke-opacity:1" d="M 907.532,507.251 912.608,513.053 z" id="boundary" inkscape:connector-curvature="0" />
	<path style="fill:none;stroke:red;stroke-width:1px;stroke-linecap:butt;stroke-linejoin:miter;stroke-opacity:1" d="M 919.86,513.778 912.608,513.053 z" id="boundary" inkscape:connector-curvature="0" />
	<path style="fill:none;stroke:red;stroke-width:1px;stroke-linecap:butt;stroke-linejoin:miter;stroke-opacity:1" d="M 919.86,513.778 925.661,518.129 z" id="boundary" inkscape:connector-curvature="0" />
	<path style="fill:none;stroke:red;stroke-width:1px;stroke-linecap:butt;stroke-linejoin:miter;stroke-opacity:1" d="M 931.462,522.48 925.661,518.129 z" id="boundary" inkscape:connector-curvature="0" />
	<path style="fill:none;stroke:red;stroke-width:1px;stroke-linecap:butt;stroke-linejoin:miter;stroke-opacity:1" d="M 944.515,529.006 937.263,526.83 z" id="boundary" inkscape:connector-curvature="0" />
	<path style="fill:none;stroke:red;stroke-width:1px;stroke-linecap:butt;stroke-linejoin:miter;stroke-opacity:1" d="M 937.263,526.83 931.462,522.48 z" id="boundary" inkscape:connector-curvature="0" />
	<path style="fill:none;stroke:red;stroke-width:1px;stroke-linecap:butt;stroke-linejoin:miter;stroke-opacity:1" d="M 951.766,530.456 944.515,529.006 z" id="boundary" inkscape:connector-curvature="0" />
	<path style="fill:none;stroke:red;stroke-width:1px;stroke-linecap:butt;stroke-linejoin:miter;stroke-opacity:1" d="M 957.567,535.532 951.766,530.456 z" id="boundary" inkscape:connector-curvature="0" />
	<path style="fill:none;stroke:red;stroke-width:1px;stroke-linecap:butt;stroke-linejoin:miter;stroke-opacity:1" d="M 964.094,539.158 957.567,535.532 z" id="boundary" inkscape:connector-curvature="0" />
	<path style="fill:none;stroke:red;stroke-width:1px;stroke-linecap:butt;stroke-linejoin:miter;stroke-opacity:1" d="M 977.146,543.509 969.895,543.509 z" id="boundary" inkscape:connector-curvature="0" />
	<path style="fill:none;stroke:red;stroke-width:1px;stroke-linecap:butt;stroke-linejoin:miter;stroke-opacity:1" d="M 969.895,543.509 964.094,539.158 z" id="boundary" inkscape:connector-curvature="0" />
	<path style="fill:none;stroke:red;stroke-width:1px;stroke-linecap:butt;stroke-linejoin:miter;stroke-opacity:1" d="M 977.146,543.509 979.322,550.76 z" id="boundary" inkscape:connector-curvature="0" />
	<path style="fill:none;stroke:red;stroke-width:1px;stroke-linecap:butt;stroke-linejoin:miter;stroke-opacity:1" d="M 979.322,550.76 985.123,555.836 z" id="boundary" inkscape:connector-curvature="0" />
	<path style="fill:none;stroke:red;stroke-width:1px;stroke-linecap:butt;stroke-linejoin:miter;stroke-opacity:1" d="M 989.474,561.637 985.123,555.836 z" id="boundary" inkscape:connector-curvature="0" />
	<path style="fill:none;stroke:red;stroke-width:1px;stroke-linecap:butt;stroke-linejoin:miter;stroke-opacity:1" d="M 995.275,566.713 989.474,561.637 z" id="boundary" inkscape:connector-curvature="0" />
	<path style="fill:none;stroke:red;stroke-width:1px;stroke-linecap:butt;stroke-linejoin:miter;stroke-opacity:1" d="M 996,584.842 995.275,576.14 z" id="boundary" inkscape:connector-curvature="0" />
	<path style="fill:none;stroke:red;stroke-width:1px;stroke-linecap:butt;stroke-linejoin:miter;stroke-opacity:1" d="M 995.275,576.14 995.275,566.713 z" id="boundary" inkscape:connector-curvature="0" />
	<path style="fill:none;stroke:red;stroke-width:1px;stroke-linecap:butt;stroke-linejoin:miter;stroke-opacity:1" d="M 996,584.842 991.649,592.819 z" id="boundary" inkscape:connector-curvature="0" />
	<path style="fill:none;stroke:red;stroke-width:1px;stroke-linecap:butt;stroke-linejoin:miter;stroke-opacity:1" d="M 885.053,626.175 890.854,630.526 z" id="boundary" inkscape:connector-curvature="0" />
	<path style="fill:none;stroke:red;stroke-width:1px;stroke-linecap:butt;stroke-linejoin:miter;stroke-opacity:1" d="M 898.105,633.427 890.854,630.526 z" id="boundary" inkscape:connector-curvature="0" />
	<path style="fill:none;stroke:red;stroke-width:1px;stroke-linecap:butt;stroke-linejoin:miter;stroke-opacity:1" d="M 911.883,637.778 904.632,637.053 z" id="boundary" inkscape:connector-curvature="0" />
	<path style="fill:none;stroke:red;stroke-width:1px;stroke-linecap:butt;stroke-linejoin:miter;stroke-opacity:1" d="M 904.632,637.053 898.105,633.427 z" id="boundary" inkscape:connector-curvature="0" />
	<path style="fill:none;stroke:red;stroke-width:1px;stroke-linecap:butt;stroke-linejoin:miter;stroke-opacity:1" d="M 911.883,637.778 916.234,643.579 z" id="boundary" inkscape:connector-curvature="0" />
	<path style="fill:none;stroke:red;stroke-width:1px;stroke-linecap:butt;stroke-linejoin:miter;stroke-opacity:1" d="M 916.234,643.579 923.485,645.029 z" id="boundary" inkscape:connector-curvature="0" />
	<path style="fill:none;stroke:red;stroke-width:1px;stroke-linecap:butt;stroke-linejoin:miter;stroke-opacity:1" d="M 944.515,651.556 937.263,650.83 z" id="boundary" inkscape:connector-curvature="0" />
	<path style="fill:none;stroke:red;stroke-width:1px;stroke-linecap:butt;stroke-linejoin:miter;stroke-opacity:1" d="M 937.263,650.83 930.737,647.205 z" id="boundary" inkscape:connector-curvature="0" />
	<path style="fill:none;stroke:red;stroke-width:1px;stroke-linecap:butt;stroke-linejoin:miter;stroke-opacity:1" d="M 944.515,651.556 951.766,653.006 z" id="boundary" inkscape:connector-curvature="0" />
	<path style="fill:none;stroke:red;stroke-width:1px;stroke-linecap:butt;stroke-linejoin:miter;stroke-opacity:1" d="M 923.485,645.029 930.737,647.205 z" id="boundary" inkscape:connector-curvature="0" />
	<path style="fill:none;stroke:red;stroke-width:1px;stroke-linecap:butt;stroke-linejoin:miter;stroke-opacity:1" d="M 978.596,622.55 983.673,616.749 z" id="boundary" inkscape:connector-curvature="0" />
	<path style="fill:none;stroke:red;stroke-width:1px;stroke-linecap:butt;stroke-linejoin:miter;stroke-opacity:1" d="M 975.696,629.801 978.596,622.55 z" id="boundary" inkscape:connector-curvature="0" />
	<path style="fill:none;stroke:red;stroke-width:1px;stroke-linecap:butt;stroke-linejoin:miter;stroke-opacity:1" d="M 986.573,608.772 983.673,616.749 z" id="boundary" inkscape:connector-curvature="0" />
	<path style="fill:none;stroke:red;stroke-width:1px;stroke-linecap:butt;stroke-linejoin:miter;stroke-opacity:1" d="M 986.573,608.772 988.749,600.07 z" id="boundary" inkscape:connector-curvature="0" />
	<path style="fill:none;stroke:red;stroke-width:1px;stroke-linecap:butt;stroke-linejoin:miter;stroke-opacity:1" d="M 988.749,600.07 991.649,592.819 z" id="boundary" inkscape:connector-curvature="0" />
	<path style="fill:none;stroke:red;stroke-width:1px;stroke-linecap:butt;stroke-linejoin:miter;stroke-opacity:1" d="M 953.942,639.953 957.567,647.93 z" id="boundary" inkscape:connector-curvature="0" />
	<path style="fill:none;stroke:red;stroke-width:1px;stroke-linecap:butt;stroke-linejoin:miter;stroke-opacity:1" d="M 957.567,647.93 951.766,653.006 z" id="boundary" inkscape:connector-curvature="0" />
	<path style="fill:none;stroke:red;stroke-width:1px;stroke-linecap:butt;stroke-linejoin:miter;stroke-opacity:1" d="M 964.094,642.129 957.567,647.93 z" id="boundary" inkscape:connector-curvature="0" />
	<path style="fill:none;stroke:red;stroke-width:1px;stroke-linecap:butt;stroke-linejoin:miter;stroke-opacity:1" d="M 969.895,636.327 964.094,642.129 z" id="boundary" inkscape:connector-curvature="0" />
	<path style="fill:none;stroke:red;stroke-width:1px;stroke-linecap:butt;stroke-linejoin:miter;stroke-opacity:1" d="M 953.942,639.953 975.696,629.801 z" id="boundary" inkscape:connector-curvature="0" />
	<path style="fill:none;stroke:red;stroke-width:1px;stroke-linecap:butt;stroke-linejoin:miter;stroke-opacity:1" d="M 975.696,629.801 969.895,636.327 z" id="boundary" inkscape:connector-curvature="0" />
	<circle cx="4" cy="111.322" r="4" fill="#0" id="circle0"/>
	<circle cx="4.72515" cy="100.444" r="4" fill="#0" id="circle1"/>
	<circle cx="5.45029" cy="118.573" r="4" fill="#0" id="circle2"/>
	<circle cx="5.45029" cy="125.825" r="4" fill="#0" id="circle3"/>
	<circle cx="6.17544" cy="133.076" r="4" fill="#0" id="circle4"/>
	<circle cx="6.90058" cy="85.9415" r="4" fill="#0" id="circle5"/>
	<circle cx="8.35088" cy="93.9181" r="4" fill="#0" id="circle6"/>
	<circle cx="9.80117" cy="76.5146" r="4" fill="#0" id="circle7"/>
	<circle cx="9.80117" cy="139.602" r="4" fill="#0" id="circle8"/>
	<circle cx="10.5263" cy="146.854" r="4" fill="#0" id="circle9"/>
	<circle cx="11.9766" cy="68.538" r="4" fill="#0" id="circle10"/>
	<circle cx="15.6023" cy="80.8655" r="4" fill="#0" id="circle11"/>
	<circle cx="15.6023" cy="154.105" r="4" fill="#0" id="circle12"/>
	<circle cx="17.0526" cy="62.7368" r="4" fill="#0" id="circle13"/>
	<circle cx="18.5029" cy="53.3099" r="4" fill="#0" id="circle14"/>
	<circle cx="18.5029" cy="161.357" r="4" fill="#0" id="circle15"/>
	<circle cx="20.6784" cy="46.0585" r="4" fill="#0" id="circle16"/>
	<circle cx="23.5789" cy="167.158" r="4" fill="#0" id="circle17"/>
	<circle cx="24.3041" cy="38.807" r="4" fill="#0" id="circle18"/>
	<circle cx="29.3801" cy="32.2807" r="4" fill="#0" id="circle19"/>
	<circle cx="29.3801" cy="172.234" r="4" fill="#0" id="circle20"/>
	<circle cx="33.0058" cy="178.76" r="4" fill="#0" id="circle21"/>
	<circle cx="33.731" cy="25.7544" r="4" fill="#0" id="circle22"/>
	<circle cx="37.3567" cy="184.561" r="4" fill="#0" id="circle23"/>
	<circle cx="39.5322" cy="20.6784" r="4" fill="#0" id="circle24"/>
	<circle cx="42.4327" cy="190.363" r="4" fill="#0" id="circle25"/>
	<circle cx="44.6082" cy="14.8772" r="4" fill="#0" id="circle26"/>
	<circle cx="48.9591" cy="193.988" r="4" fill="#0" id="circle27"/>
	<circle cx="51.8596" cy="11.2515" r="4" fill="#0" id="circle28"/>
	<circle cx="52.5848" cy="200.515" r="4" fill="#0" id="circle29"/>
	<circle cx="57.6608" cy="6.17544" r="4" fill="#0" id="circle30"/>
	<circle cx="58.386" cy="204.865" r="4" fill="#0" id="circle31"/>
	<circle cx="62.7368" cy="210.667" r="4" fill="#0" id="circle32"/>
	<circle cx="64.9123" cy="6.17544" r="4" fill="#0" id="circle33"/>
	<circle cx="68.538" cy="215.743" r="4" fill="#0" id="circle34"/>
	<circle cx="72.1637" cy="6.17544" r="4" fill="#0" id="circle35"/>
	<circle cx="74.3392" cy="220.819" r="4" fill="#0" id="circle36"/>
	<circle cx="79.4152" cy="4.72515" r="4" fill="#0" id="circle37"/>
	<circle cx="80.8655" cy="224.444" r="4" fill="#0" id="circle38"/>
	<circle cx="86.6667" cy="4" r="4" fill="#0" id="circle39"/>
	<circle cx="87.3918" cy="228.07" r="4" fill="#0" id="circle40"/>
	<circle cx="92.4678" cy="233.871" r="4" fill="#0" id="circle41"/>
	<circle cx="93.9181" cy="6.17544" r="4" fill="#0" id="circle42"/>
	<circle cx="98.269" cy="238.222" r="4" fill="#0" id="circle43"/>
	<circle cx="101.17" cy="7.62573" r="4" fill="#0" id="circle44"/>
	<circle cx="105.52" cy="239.673" r="4" fill="#0" id="circle45"/>
	<circle cx="108.421" cy="8.35088" r="4" fill="#0" id="circle46"/>
	<circle cx="110.596" cy="245.474" r="4" fill="#0" id="circle47"/>
	<circle cx="115.673" cy="8.35088" r="4" fill="#0" id="circle48"/>
	<circle cx="117.123" cy="249.099" r="4" fill="#0" id="circle49"/>
	<circle cx="122.924" cy="11.2515" r="4" fill="#0" id="circle50"/>
	<circle cx="123.649" cy="252.725" r="4" fill="#0" id="circle51"/>
	<circle cx="129.45" cy="257.076" r="4" fill="#0" id="circle52"/>
	<circle cx="130.175" cy="12.7018" r="4" fill="#0" id="circle53"/>
	<circle cx="135.977" cy="260.702" r="4" fill="#0" id="circle54"/>
	<circle cx="137.427" cy="12.7018" r="4" fill="#0" id="circle55"/>
	<circle cx="143.228" cy="17.0526" r="4" fill="#0" id="circle56"/>
	<circle cx="143.228" cy="263.602" r="4" fill="#0" id="circle57"/>
	<circle cx="149.754" cy="267.228" r="4" fill="#0" id="circle58"/>
	<circle cx="150.48" cy="17.0526" r="4" fill="#0" id="circle59"/>
	<circle cx="155.556" cy="271.579" r="4" fill="#0" id="circle60"/>
	<circle cx="157.006" cy="20.6784" r="4" fill="#0" id="circle61"/>
	<circle cx="162.807" cy="274.48" r="4" fill="#0" id="circle62"/>
	<circle cx="164.257" cy="22.8538" r="4" fill="#0" id="circle63"/>
	<circle cx="170.058" cy="277.38" r="4" fill="#0" id="circle64"/>
	<circle cx="171.509" cy="24.3041" r="4" fill="#0" id="circle65"/>
	<circle cx="175.86" cy="281.731" r="4" fill="#0" id="circle66"/>
	<circle cx="178.035" cy="27.9298" r="4" fill="#0" id="circle67"/>
	<circle cx="183.111" cy="281.006" r="4" fill="#0" id="circle68"/>
	<circle cx="185.287" cy="29.3801" r="4" fill="#0" id="circle69"/>
	<circle cx="188.912" cy="285.357" r="4" fill="#0" id="circle70"/>
	<circle cx="191.813" cy="33.0058" r="4" fill="#0" id="circle71"/>
	<circle cx="196.164" cy="287.532" r="4" fill="#0" id="circle72"/>
	<circle cx="199.064" cy="35.9064" r="4" fill="#0" id="circle73"/>
	<circle cx="201.965" cy="291.883" r="4" fill="#0" id="circle74"/>
	<circle cx="205.591" cy="39.5322" r="4" fill="#0" id="circle75"/>
	<circle cx="209.216" cy="291.158" r="4" fill="#0" id="circle76"/>
	<circle cx="212.117" cy="43.1579" r="4" fill="#0" id="circle77"/>
	<circle cx="216.468" cy="294.058" r="4" fill="#0" id="circle78"/>
	<circle cx="219.368" cy="45.3333" r="4" fill="#0" id="circle79"/>
	<circle cx="223.719" cy="295.509" r="4" fill="#0" id="circle80"/>
	<circle cx="225.17" cy="49.6842" r="4" fill="#0" id="circle81"/>
	<circle cx="230.971" cy="296.959" r="4" fill="#0" id="circle82"/>
	<circle cx="232.421" cy="52.5848" r="4" fill="#0" id="circle83"/>
	<circle cx="238.222" cy="299.135" r="4" fill="#0" id="circle84"/>
	<circle cx="238.947" cy="56.2105" r="4" fill="#0" id="circle85"/>
	<circle cx="244.749" cy="61.2865" r="4" fill="#0" id="circle86"/>
	<circle cx="245.474" cy="299.135" r="4" fill="#0" id="circle87"/>
	<circle cx="250.55" cy="65.6374" r="4" fill="#0" id="circle88"/>
	<circle cx="252.725" cy="299.135" r="4" fill="#0" id="circle89"/>
	<circle cx="257.076" cy="69.2632" r="4" fill="#0" id="circle90"/>
	<circle cx="259.977" cy="298.409" r="4" fill="#0" id="circle91"/>
	<circle cx="262.877" cy="74.3392" r="4" fill="#0" id="circle92"/>
	<circle cx="267.228" cy="297.684" r="4" fill="#0" id="circle93"/>
	<circle cx="269.404" cy="77.9649" r="4" fill="#0" id="circle94"/>
	<circle cx="274.48" cy="297.684" r="4" fill="#0" id="circle95"/>
	<circle cx="275.93" cy="81.5906" r="4" fill="#0" id="circle96"/>
	<circle cx="281.731" cy="85.9415" r="4" fill="#0" id="circle97"/>
	<circle cx="281.731" cy="295.509" r="4" fill="#0" id="circle98"/>
	<circle cx="287.532" cy="90.2924" r="4" fill="#0" id="circle99"/>
	<circle cx="288.982" cy="296.234" r="4" fill="#0" id="circle100"/>
	<circle cx="294.784" cy="92.4678" r="4" fill="#0" id="circle101"/>
	<circle cx="296.234" cy="296.234" r="4" fill="#0" id="circle102"/>
	<circle cx="299.135" cy="98.269" r="4" fill="#0" id="circle103"/>
	<circle cx="303.485" cy="295.509" r="4" fill="#0" id="circle104"/>
	<circle cx="304.936" cy="103.345" r="4" fill="#0" id="circle105"/>
	<circle cx="309.287" cy="109.146" r="4" fill="#0" id="circle106"/>
	<circle cx="310.737" cy="295.509" r="4" fill="#0" id="circle107"/>
	<circle cx="315.088" cy="113.497" r="4" fill="#0" id="circle108"/>
	<circle cx="317.988" cy="294.784" r="4" fill="#0" id="circle109"/>
	<circle cx="319.439" cy="119.298" r="4" fill="#0" id="circle110"/>
	<circle cx="323.789" cy="125.099" r="4" fill="#0" id="circle111"/>
	<circle cx="325.24" cy="297.684" r="4" fill="#0" id="circle112"/>
	<circle cx="329.591" cy="130.175" r="4" fill="#0" id="circle113"/>
	<circle cx="332.491" cy="296.959" r="4" fill="#0" id="circle114"/>
	<circle cx="333.942" cy="135.977" r="4" fill="#0" id="circle115"/>
	<circle cx="337.567" cy="142.503" r="4" fill="#0" id="circle116"/>
	<circle cx="339.743" cy="297.684" r="4" fill="#0" id="circle117"/>
	<circle cx="341.193" cy="149.029" r="4" fill="#0" id="circle118"/>
	<circle cx="343.368" cy="156.281" r="4" fill="#0" id="circle119"/>
	<circle cx="346.994" cy="162.807" r="4" fill="#0" id="circle120"/>
	<circle cx="346.994" cy="299.86" r="4" fill="#0" id="circle121"/>
	<circle cx="349.895" cy="170.058" r="4" fill="#0" id="circle122"/>
	<circle cx="353.52" cy="176.585" r="4" fill="#0" id="circle123"/>
	<circle cx="354.246" cy="302.76" r="4" fill="#0" id="circle124"/>
	<circle cx="356.421" cy="183.836" r="4" fill="#0" id="circle125"/>
	<circle cx="360.047" cy="190.363" r="4" fill="#0" id="circle126"/>
	<circle cx="361.497" cy="302.76" r="4" fill="#0" id="circle127"/>
	<circle cx="362.947" cy="197.614" r="4" fill="#0" id="circle128"/>
	<circle cx="366.573" cy="204.14" r="4" fill="#0" id="circle129"/>
	<circle cx="368.749" cy="304.936" r="4" fill="#0" id="circle130"/>
	<circle cx="372.374" cy="208.491" r="4" fill="#0" id="circle131"/>
	<circle cx="374.55" cy="215.743" r="4" fill="#0" id="circle132"/>
	<circle cx="376" cy="307.111" r="4" fill="#0" id="circle133"/>
	<circle cx="378.175" cy="222.269" r="4" fill="#0" id="circle134"/>
	<circle cx="381.801" cy="311.462" r="4" fill="#0" id="circle135"/>
	<circle cx="382.526" cy="228.07" r="4" fill="#0" id="circle136"/>
	<circle cx="387.602" cy="233.871" r="4" fill="#0" id="circle137"/>
	<circle cx="389.053" cy="312.187" r="4" fill="#0" id="circle138"/>
	<circle cx="393.404" cy="238.947" r="4" fill="#0" id="circle139"/>
	<circle cx="396.304" cy="315.088" r="4" fill="#0" id="circle140"/>
	<circle cx="399.93" cy="242.573" r="4" fill="#0" id="circle141"/>
	<circle cx="402.83" cy="318.713" r="4" fill="#0" id="circle142"/>
	<circle cx="403.556" cy="249.099" r="4" fill="#0" id="circle143"/>
	<circle cx="410.082" cy="252.725" r="4" fill="#0" id="circle144"/>
	<circle cx="410.082" cy="321.614" r="4" fill="#0" id="circle145"/>
	<circle cx="415.883" cy="257.076" r="4" fill="#0" id="circle146"/>
	<circle cx="415.883" cy="325.965" r="4" fill="#0" id="circle147"/>
	<circle cx="421.684" cy="261.427" r="4" fill="#0" id="circle148"/>
	<circle cx="423.135" cy="328.14" r="4" fill="#0" id="circle149"/>
	<circle cx="428.211" cy="265.053" r="4" fill="#0" id="circle150"/>
	<circle cx="430.386" cy="331.041" r="4" fill="#0" id="circle151"/>
	<circle cx="435.462" cy="266.503" r="4" fill="#0" id="circle152"/>
	<circle cx="437.637" cy="333.942" r="4" fill="#0" id="circle153"/>
	<circle cx="440.538" cy="272.304" r="4" fill="#0" id="circle154"/>
	<circle cx="443.439" cy="338.292" r="4" fill="#0" id="circle155"/>
	<circle cx="447.064" cy="275.93" r="4" fill="#0" id="circle156"/>
	<circle cx="447.789" cy="344.094" r="4" fill="#0" id="circle157"/>
	<circle cx="454.316" cy="278.83" r="4" fill="#0" id="circle158"/>
	<circle cx="455.041" cy="342.643" r="4" fill="#0" id="circle159"/>
	<circle cx="459.392" cy="348.444" r="4" fill="#0" id="circle160"/>
	<circle cx="461.567" cy="281.731" r="4" fill="#0" id="circle161"/>
	<circle cx="465.193" cy="352.795" r="4" fill="#0" id="circle162"/>
	<circle cx="468.819" cy="283.906" r="4" fill="#0" id="circle163"/>
	<circle cx="470.994" cy="357.146" r="4" fill="#0" id="circle164"/>
	<circle cx="473.17" cy="289.708" r="4" fill="#0" id="circle165"/>
	<circle cx="476.795" cy="362.222" r="4" fill="#0" id="circle166"/>
	<circle cx="480.421" cy="290.433" r="4" fill="#0" id="circle167"/>
	<circle cx="483.322" cy="365.848" r="4" fill="#0" id="circle168"/>
	<circle cx="486.222" cy="294.784" r="4" fill="#0" id="circle169"/>
	<circle cx="489.848" cy="369.474" r="4" fill="#0" id="circle170"/>
	<circle cx="492.749" cy="298.409" r="4" fill="#0" id="circle171"/>
	<circle cx="497.099" cy="372.374" r="4" fill="#0" id="circle172"/>
	<circle cx="500" cy="301.31" r="4" fill="#0" id="circle173"/>
	<circle cx="502.901" cy="376.725" r="4" fill="#0" id="circle174"/>
	<circle cx="507.251" cy="302.76" r="4" fill="#0" id="circle175"/>
	<circle cx="508.702" cy="381.801" r="4" fill="#0" id="circle176"/>
	<circle cx="513.778" cy="306.386" r="4" fill="#0" id="circle177"/>
	<circle cx="515.953" cy="383.977" r="4" fill="#0" id="circle178"/>
	<circle cx="519.579" cy="310.737" r="4" fill="#0" id="circle179"/>
	<circle cx="520.304" cy="389.778" r="4" fill="#0" id="circle180"/>
	<circle cx="526.83" cy="312.912" r="4" fill="#0" id="circle181"/>
	<circle cx="527.556" cy="392.678" r="4" fill="#0" id="circle182"/>
	<circle cx="533.357" cy="316.538" r="4" fill="#0" id="circle183"/>
	<circle cx="533.357" cy="397.029" r="4" fill="#0" id="circle184"/>
	<circle cx="539.158" cy="401.38" r="4" fill="#0" id="circle185"/>
	<circle cx="539.883" cy="320.164" r="4" fill="#0" id="circle186"/>
	<circle cx="545.684" cy="405.006" r="4" fill="#0" id="circle187"/>
	<circle cx="547.135" cy="323.064" r="4" fill="#0" id="circle188"/>
	<circle cx="551.485" cy="409.357" r="4" fill="#0" id="circle189"/>
	<circle cx="554.386" cy="325.24" r="4" fill="#0" id="circle190"/>
	<circle cx="558.737" cy="412.257" r="4" fill="#0" id="circle191"/>
	<circle cx="561.637" cy="327.415" r="4" fill="#0" id="circle192"/>
	<circle cx="563.088" cy="418.058" r="4" fill="#0" id="circle193"/>
	<circle cx="565.988" cy="333.216" r="4" fill="#0" id="circle194"/>
	<circle cx="569.614" cy="421.684" r="4" fill="#0" id="circle195"/>
	<circle cx="573.24" cy="335.392" r="4" fill="#0" id="circle196"/>
	<circle cx="576.865" cy="423.135" r="4" fill="#0" id="circle197"/>
	<circle cx="579.766" cy="339.018" r="4" fill="#0" id="circle198"/>
	<circle cx="582.667" cy="427.485" r="4" fill="#0" id="circle199"/>
	<circle cx="586.292" cy="342.643" r="4" fill="#0" id="circle200"/>
	<circle cx="587.018" cy="433.287" r="4" fill="#0" id="circle201"/>
	<circle cx="593.544" cy="345.544" r="4" fill="#0" id="circle202"/>
	<circle cx="593.544" cy="436.912" r="4" fill="#0" id="circle203"/>
	<circle cx="599.345" cy="349.895" r="4" fill="#0" id="circle204"/>
	<circle cx="600.795" cy="439.813" r="4" fill="#0" id="circle205"/>
	<circle cx="606.596" cy="352.795" r="4" fill="#0" id="circle206"/>
	<circle cx="606.596" cy="444.164" r="4" fill="#0" id="circle207"/>
	<circle cx="612.398" cy="448.515" r="4" fill="#0" id="circle208"/>
	<circle cx="613.123" cy="356.421" r="4" fill="#0" id="circle209"/>
	<circle cx="618.924" cy="360.772" r="4" fill="#0" id="circle210"/>
	<circle cx="618.924" cy="452.14" r="4" fill="#0" id="circle211"/>
	<circle cx="624.725" cy="456.491" r="4" fill="#0" id="circle212"/>
	<circle cx="626.175" cy="363.673" r="4" fill="#0" id="circle213"/>
	<circle cx="630.526" cy="460.842" r="4" fill="#0" id="circle214"/>
	<circle cx="632.702" cy="367.298" r="4" fill="#0" id="circle215"/>
	<circle cx="636.327" cy="465.193" r="4" fill="#0" id="circle216"/>
	<circle cx="639.228" cy="370.924" r="4" fill="#0" id="circle217"/>
	<circle cx="643.579" cy="468.094" r="4" fill="#0" id="circle218"/>
	<circle cx="646.48" cy="371.649" r="4" fill="#0" id="circle219"/>
	<circle cx="649.38" cy="472.444" r="4" fill="#0" id="circle220"/>
	<circle cx="651.556" cy="377.45" r="4" fill="#0" id="circle221"/>
	<circle cx="655.181" cy="477.52" r="4" fill="#0" id="circle222"/>
	<circle cx="658.082" cy="381.076" r="4" fill="#0" id="circle223"/>
	<circle cx="661.708" cy="481.146" r="4" fill="#0" id="circle224"/>
	<circle cx="665.333" cy="383.977" r="4" fill="#0" id="circle225"/>
	<circle cx="667.509" cy="485.497" r="4" fill="#0" id="circle226"/>
	<circle cx="671.86" cy="387.602" r="4" fill="#0" id="circle227"/>
	<circle cx="673.31" cy="489.848" r="4" fill="#0" id="circle228"/>
	<circle cx="677.661" cy="391.953" r="4" fill="#0" id="circle229"/>
	<circle cx="679.111" cy="494.924" r="4" fill="#0" id="circle230"/>
	<circle cx="684.912" cy="392.678" r="4" fill="#0" id="circle231"/>
	<circle cx="685.637" cy="498.55" r="4" fill="#0" id="circle232"/>
	<circle cx="690.713" cy="397.029" r="4" fill="#0" id="circle233"/>
	<circle cx="692.164" cy="502.175" r="4" fill="#0" id="circle234"/>
	<circle cx="697.24" cy="400.655" r="4" fill="#0" id="circle235"/>
	<circle cx="697.965" cy="507.251" r="4" fill="#0" id="circle236"/>
	<circle cx="703.041" cy="405.006" r="4" fill="#0" id="circle237"/>
	<circle cx="705.216" cy="509.427" r="4" fill="#0" id="circle238"/>
	<circle cx="710.292" cy="407.181" r="4" fill="#0" id="circle239"/>
	<circle cx="711.743" cy="513.053" r="4" fill="#0" id="circle240"/>
	<circle cx="716.819" cy="410.807" r="4" fill="#0" id="circle241"/>
	<circle cx="716.819" cy="518.854" r="4" fill="#0" id="circle242"/>
	<circle cx="722.62" cy="415.883" r="4" fill="#0" id="circle243"/>
	<circle cx="722.62" cy="523.205" r="4" fill="#0" id="circle244"/>
	<circle cx="729.146" cy="526.83" r="4" fill="#0" id="circle245"/>
	<circle cx="729.871" cy="418.784" r="4" fill="#0" id="circle246"/>
	<circle cx="735.673" cy="530.456" r="4" fill="#0" id="circle247"/>
	<circle cx="737.123" cy="421.684" r="4" fill="#0" id="circle248"/>
	<circle cx="741.474" cy="535.532" r="4" fill="#0" id="circle249"/>
	<circle cx="743.649" cy="425.31" r="4" fill="#0" id="circle250"/>
	<circle cx="748.725" cy="538.433" r="4" fill="#0" id="circle251"/>
	<circle cx="750.901" cy="427.485" r="4" fill="#0" id="circle252"/>
	<circle cx="754.526" cy="542.784" r="4" fill="#0" id="circle253"/>
	<circle cx="756.702" cy="432.561" r="4" fill="#0" id="circle254"/>
	<circle cx="761.778" cy="544.234" r="4" fill="#0" id="circle255"/>
	<circle cx="763.953" cy="434.012" r="4" fill="#0" id="circle256"/>
	<circle cx="766.854" cy="550.035" r="4" fill="#0" id="circle257"/>
	<circle cx="769.754" cy="438.363" r="4" fill="#0" id="circle258"/>
	<circle cx="773.38" cy="553.661" r="4" fill="#0" id="circle259"/>
	<circle cx="776.281" cy="441.988" r="4" fill="#0" id="circle260"/>
	<circle cx="779.181" cy="558.737" r="4" fill="#0" id="circle261"/>
	<circle cx="783.532" cy="444.889" r="4" fill="#0" id="circle262"/>
	<circle cx="785.708" cy="562.363" r="4" fill="#0" id="circle263"/>
	<circle cx="790.784" cy="445.614" r="4" fill="#0" id="circle264"/>
	<circle cx="792.234" cy="565.988" r="4" fill="#0" id="circle265"/>
	<circle cx="795.86" cy="451.415" r="4" fill="#0" id="circle266"/>
	<circle cx="799.485" cy="568.164" r="4" fill="#0" id="circle267"/>
	<circle cx="802.386" cy="455.041" r="4" fill="#0" id="circle268"/>
	<circle cx="804.561" cy="573.965" r="4" fill="#0" id="circle269"/>
	<circle cx="809.637" cy="457.216" r="4" fill="#0" id="circle270"/>
	<circle cx="811.813" cy="576.865" r="4" fill="#0" id="circle271"/>
	<circle cx="815.439" cy="461.567" r="4" fill="#0" id="circle272"/>
	<circle cx="816.164" cy="582.667" r="4" fill="#0" id="circle273"/>
	<circle cx="821.965" cy="587.018" r="4" fill="#0" id="circle274"/>
	<circle cx="822.69" cy="464.468" r="4" fill="#0" id="circle275"/>
	<circle cx="827.766" cy="591.368" r="4" fill="#0" id="circle276"/>
	<circle cx="828.491" cy="468.819" r="4" fill="#0" id="circle277"/>
	<circle cx="834.292" cy="594.994" r="4" fill="#0" id="circle278"/>
	<circle cx="835.743" cy="471.719" r="4" fill="#0" id="circle279"/>
	<circle cx="841.544" cy="476.07" r="4" fill="#0" id="circle280"/>
	<circle cx="841.544" cy="597.895" r="4" fill="#0" id="circle281"/>
	<circle cx="848.07" cy="601.52" r="4" fill="#0" id="circle282"/>
	<circle cx="848.795" cy="478.246" r="4" fill="#0" id="circle283"/>
	<circle cx="854.596" cy="482.596" r="4" fill="#0" id="circle284"/>
	<circle cx="854.596" cy="605.146" r="4" fill="#0" id="circle285"/>
	<circle cx="860.398" cy="609.497" r="4" fill="#0" id="circle286"/>
	<circle cx="861.123" cy="486.222" r="4" fill="#0" id="circle287"/>
	<circle cx="867.649" cy="612.398" r="4" fill="#0" id="circle288"/>
	<circle cx="868.374" cy="489.123" r="4" fill="#0" id="circle289"/>
	<circle cx="872.725" cy="618.199" r="4" fill="#0" id="circle290"/>
	<circle cx="874.901" cy="492.749" r="4" fill="#0" id="circle291"/>
	<circle cx="878.526" cy="622.55" r="4" fill="#0" id="circle292"/>
	<circle cx="882.152" cy="494.924" r="4" fill="#0" id="circle293"/>
	<circle cx="885.053" cy="626.175" r="4" fill="#0" id="circle294"/>
	<circle cx="887.953" cy="499.275" r="4" fill="#0" id="circle295"/>
	<circle cx="890.854" cy="630.526" r="4" fill="#0" id="circle296"/>
	<circle cx="894.48" cy="502.901" r="4" fill="#0" id="circle297"/>
	<circle cx="898.105" cy="633.427" r="4" fill="#0" id="circle298"/>
	<circle cx="900.281" cy="507.977" r="4" fill="#0" id="circle299"/>
	<circle cx="904.632" cy="637.053" r="4" fill="#0" id="circle300"/>
	<circle cx="907.532" cy="507.251" r="4" fill="#0" id="circle301"/>
	<circle cx="911.883" cy="637.778" r="4" fill="#0" id="circle302"/>
	<circle cx="912.608" cy="513.053" r="4" fill="#0" id="circle303"/>
	<circle cx="916.234" cy="643.579" r="4" fill="#0" id="circle304"/>
	<circle cx="919.86" cy="513.778" r="4" fill="#0" id="circle305"/>
	<circle cx="923.485" cy="645.029" r="4" fill="#0" id="circle306"/>
	<circle cx="925.661" cy="518.129" r="4" fill="#0" id="circle307"/>
	<circle cx="930.737" cy="647.205" r="4" fill="#0" id="circle308"/>
	<circle cx="931.462" cy="522.48" r="4" fill="#0" id="circle309"/>
	<circle cx="937.263" cy="526.83" r="4" fill="#0" id="circle310"/>
	<circle cx="937.263" cy="650.83" r="4" fill="#0" id="circle311"/>
	<circle cx="944.515" cy="529.006" r="4" fill="#0" id="circle312"/>
	<circle cx="944.515" cy="651.556" r="4" fill="#0" id="circle313"/>
	<circle cx="951.766" cy="530.456" r="4" fill="#0" id="circle314"/>
	<circle cx="951.766" cy="653.006" r="4" fill="#0" id="circle315"/>
	<circle cx="953.942" cy="639.953" r="4" fill="#0" id="circle316"/>
	<circle cx="957.567" cy="535.532" r="4" fill="#0" id="circle317"/>
	<circle cx="957.567" cy="647.93" r="4" fill="#0" id="circle318"/>
	<circle cx="964.094" cy="539.158" r="4" fill="#0" id="circle319"/>
	<circle cx="964.094" cy="642.129" r="4" fill="#0" id="circle320"/>
	<circle cx="969.895" cy="543.509" r="4" fill="#0" id="circle321"/>
	<circle cx="969.895" cy="636.327" r="4" fill="#0" id="circle322"/>
	<circle cx="975.696" cy="629.801" r="4" fill="#0" id="circle323"/>
	<circle cx="977.146" cy="543.509" r="4" fill="#0" id="circle324"/>
	<circle cx="978.596" cy="622.55" r="4" fill="#0" id="circle325"/>
	<circle cx="979.322" cy="550.76" r="4" fill="#0" id="circle326"/>
	<circle cx="983.673" cy="616.749" r="4" fill="#0" id="circle327"/>
	<circle cx="985.123" cy="555.836" r="4" fill="#0" id="circle328"/>
	<circle cx="986.573" cy="608.772" r="4" fill="#0" id="circle329"/>
	<circle cx="988.749" cy="600.07" r="4" fill="#0" id="circle330"/>
	<circle cx="989.474" cy="561.637" r="4" fill="#0" id="circle331"/>
	<circle cx="991.649" cy="592.819" r="4" fill="#0" id="circle332"/>
	<circle cx="995.275" cy="566.713" r="4" fill="#0" id="circle333"/>
	<circle cx="995.275" cy="576.14" r="4" fill="#0" id="circle334"/>
	<circle cx="996" cy="584.842" r="4" fill="#0" id="circle335"/>
	</g>
</svg>