<?xml version="1.0" encoding="UTF-8" standalone="no"?>
<!-- Created with CurveBenchmark -->
<svg
	xmlns:dc="http://purl.org/dc/elements/1.1/"
	xmlns:cc="http://creativecommons.org/ns#"
	xmlns:rdf="http://www.w3.org/1999/02/22-rdf-syntax-ns#"
	xmlns:svg="http://www.w3.org/2000/svg"
	xmlns="http://www.w3.org/2000/svg"
	xmlns:sodipodi="http://sodipodi.sourceforge.net/DTD/sodipodi-0.dtd"
	xmlns:inkscape="http://www.inkscape.org/namespaces/inkscape"
	width="1000"
	height="1000"
	id="svg2"
	version="1.1"
	sodipodi:docname="manifold/nncrust-bird210.png.txt">
<defs
	id="defs4" />
<metadata
	id="metadata7">
	<rdf:RDF>
		<cc:Work
			rdf:about="">
			<dc:format>image/svg+xml</dc:format>
			<dc:type
				rdf:resource="http://purl.org/dc/dcmitype/StillImage" />
			<dc:title></dc:title>
		</cc:Work>
	</rdf:RDF>
</metadata>
<g
	inkscape:label="Layer 1"
	inkscape:groupmode="layer"
	id="layer1">
	<path style="fill:none;stroke:red;stroke-width:1px;stroke-linecap:butt;stroke-linejoin:miter;stroke-opacity:1" d="M 74.0235,167.388 81.8039,128.486 z" id="boundary" inkscape:connector-curvature="0" />
	<path style="fill:none;stroke:red;stroke-width:1px;stroke-linecap:butt;stroke-linejoin:miter;stroke-opacity:1" d="M 74.0235,167.388 50.6824,198.51 z" id="boundary" inkscape:connector-curvature="0" />
	<path style="fill:none;stroke:red;stroke-width:1px;stroke-linecap:butt;stroke-linejoin:miter;stroke-opacity:1" d="M 81.8039,128.486 105.145,97.3647 z" id="boundary" inkscape:connector-curvature="0" />
	<path style="fill:none;stroke:red;stroke-width:1px;stroke-linecap:butt;stroke-linejoin:miter;stroke-opacity:1" d="M 144.047,81.8039 182.949,74.0235 z" id="boundary" inkscape:connector-curvature="0" />
	<path style="fill:none;stroke:red;stroke-width:1px;stroke-linecap:butt;stroke-linejoin:miter;stroke-opacity:1" d="M 221.851,74.0235 182.949,74.0235 z" id="boundary" inkscape:connector-curvature="0" />
	<path style="fill:none;stroke:red;stroke-width:1px;stroke-linecap:butt;stroke-linejoin:miter;stroke-opacity:1" d="M 105.145,97.3647 144.047,81.8039 z" id="boundary" inkscape:connector-curvature="0" />
	<path style="fill:none;stroke:red;stroke-width:1px;stroke-linecap:butt;stroke-linejoin:miter;stroke-opacity:1" d="M 23.451,233.522 50.6824,198.51 z" id="boundary" inkscape:connector-curvature="0" />
	<path style="fill:none;stroke:red;stroke-width:1px;stroke-linecap:butt;stroke-linejoin:miter;stroke-opacity:1" d="M 97.3647,241.302 66.2431,272.424 z" id="boundary" inkscape:connector-curvature="0" />
	<path style="fill:none;stroke:red;stroke-width:1px;stroke-linecap:butt;stroke-linejoin:miter;stroke-opacity:1" d="M 132.376,221.851 97.3647,241.302 z" id="boundary" inkscape:connector-curvature="0" />
	<path style="fill:none;stroke:red;stroke-width:1px;stroke-linecap:butt;stroke-linejoin:miter;stroke-opacity:1" d="M 167.388,202.4 132.376,221.851 z" id="boundary" inkscape:connector-curvature="0" />
	<path style="fill:none;stroke:red;stroke-width:1px;stroke-linecap:butt;stroke-linejoin:miter;stroke-opacity:1" d="M 167.388,202.4 198.51,179.059 z" id="boundary" inkscape:connector-curvature="0" />
	<path style="fill:none;stroke:red;stroke-width:1px;stroke-linecap:butt;stroke-linejoin:miter;stroke-opacity:1" d="M 198.51,179.059 221.851,210.18 z" id="boundary" inkscape:connector-curvature="0" />
	<path style="fill:none;stroke:red;stroke-width:1px;stroke-linecap:butt;stroke-linejoin:miter;stroke-opacity:1" d="M 221.851,74.0235 256.863,93.4745 z" id="boundary" inkscape:connector-curvature="0" />
	<path style="fill:none;stroke:red;stroke-width:1px;stroke-linecap:butt;stroke-linejoin:miter;stroke-opacity:1" d="M 369.678,50.6824 338.557,81.8039 z" id="boundary" inkscape:connector-curvature="0" />
	<path style="fill:none;stroke:red;stroke-width:1px;stroke-linecap:butt;stroke-linejoin:miter;stroke-opacity:1" d="M 280.204,124.596 256.863,93.4745 z" id="boundary" inkscape:connector-curvature="0" />
	<path style="fill:none;stroke:red;stroke-width:1px;stroke-linecap:butt;stroke-linejoin:miter;stroke-opacity:1" d="M 404.69,31.2314 443.592,15.6706 z" id="boundary" inkscape:connector-curvature="0" />
	<path style="fill:none;stroke:red;stroke-width:1px;stroke-linecap:butt;stroke-linejoin:miter;stroke-opacity:1" d="M 482.494,4 443.592,15.6706 z" id="boundary" inkscape:connector-curvature="0" />
	<path style="fill:none;stroke:red;stroke-width:1px;stroke-linecap:butt;stroke-linejoin:miter;stroke-opacity:1" d="M 369.678,50.6824 404.69,31.2314 z" id="boundary" inkscape:connector-curvature="0" />
	<path style="fill:none;stroke:red;stroke-width:1px;stroke-linecap:butt;stroke-linejoin:miter;stroke-opacity:1" d="M 280.204,124.596 303.545,155.718 z" id="boundary" inkscape:connector-curvature="0" />
	<path style="fill:none;stroke:red;stroke-width:1px;stroke-linecap:butt;stroke-linejoin:miter;stroke-opacity:1" d="M 198.51,179.059 280.204,124.596 z" id="boundary" inkscape:connector-curvature="0" />
	<path style="fill:none;stroke:red;stroke-width:1px;stroke-linecap:butt;stroke-linejoin:miter;stroke-opacity:1" d="M 322.996,120.706 303.545,155.718 z" id="boundary" inkscape:connector-curvature="0" />
	<path style="fill:none;stroke:red;stroke-width:1px;stroke-linecap:butt;stroke-linejoin:miter;stroke-opacity:1" d="M 221.851,249.082 221.851,210.18 z" id="boundary" inkscape:connector-curvature="0" />
	<path style="fill:none;stroke:red;stroke-width:1px;stroke-linecap:butt;stroke-linejoin:miter;stroke-opacity:1" d="M 420.251,233.522 381.349,245.192 z" id="boundary" inkscape:connector-curvature="0" />
	<path style="fill:none;stroke:red;stroke-width:1px;stroke-linecap:butt;stroke-linejoin:miter;stroke-opacity:1" d="M 322.996,120.706 338.557,81.8039 z" id="boundary" inkscape:connector-curvature="0" />
	<path style="fill:none;stroke:red;stroke-width:1px;stroke-linecap:butt;stroke-linejoin:miter;stroke-opacity:1" d="M 420.251,233.522 439.702,268.533 z" id="boundary" inkscape:connector-curvature="0" />
	<path style="fill:none;stroke:red;stroke-width:1px;stroke-linecap:butt;stroke-linejoin:miter;stroke-opacity:1" d="M 381.349,245.192 303.545,155.718 z" id="boundary" inkscape:connector-curvature="0" />
	<path style="fill:none;stroke:red;stroke-width:1px;stroke-linecap:butt;stroke-linejoin:miter;stroke-opacity:1" d="M 66.2431,272.424 35.1216,295.765 z" id="boundary" inkscape:connector-curvature="0" />
	<path style="fill:none;stroke:red;stroke-width:1px;stroke-linecap:butt;stroke-linejoin:miter;stroke-opacity:1" d="M 35.1216,295.765 4,268.533 z" id="boundary" inkscape:connector-curvature="0" />
	<path style="fill:none;stroke:red;stroke-width:1px;stroke-linecap:butt;stroke-linejoin:miter;stroke-opacity:1" d="M 4,268.533 23.451,233.522 z" id="boundary" inkscape:connector-curvature="0" />
	<path style="fill:none;stroke:red;stroke-width:1px;stroke-linecap:butt;stroke-linejoin:miter;stroke-opacity:1" d="M 221.851,287.984 221.851,249.082 z" id="boundary" inkscape:connector-curvature="0" />
	<path style="fill:none;stroke:red;stroke-width:1px;stroke-linecap:butt;stroke-linejoin:miter;stroke-opacity:1" d="M 381.349,245.192 377.459,295.765 z" id="boundary" inkscape:connector-curvature="0" />
	<path style="fill:none;stroke:red;stroke-width:1px;stroke-linecap:butt;stroke-linejoin:miter;stroke-opacity:1" d="M 221.851,287.984 229.631,326.886 z" id="boundary" inkscape:connector-curvature="0" />
	<path style="fill:none;stroke:red;stroke-width:1px;stroke-linecap:butt;stroke-linejoin:miter;stroke-opacity:1" d="M 377.459,295.765 361.898,334.667 z" id="boundary" inkscape:connector-curvature="0" />
	<path style="fill:none;stroke:red;stroke-width:1px;stroke-linecap:butt;stroke-linejoin:miter;stroke-opacity:1" d="M 330.776,365.788 291.875,373.569 z" id="boundary" inkscape:connector-curvature="0" />
	<path style="fill:none;stroke:red;stroke-width:1px;stroke-linecap:butt;stroke-linejoin:miter;stroke-opacity:1" d="M 291.875,373.569 252.973,358.008 z" id="boundary" inkscape:connector-curvature="0" />
	<path style="fill:none;stroke:red;stroke-width:1px;stroke-linecap:butt;stroke-linejoin:miter;stroke-opacity:1" d="M 252.973,358.008 229.631,326.886 z" id="boundary" inkscape:connector-curvature="0" />
	<path style="fill:none;stroke:red;stroke-width:1px;stroke-linecap:butt;stroke-linejoin:miter;stroke-opacity:1" d="M 361.898,334.667 330.776,365.788 z" id="boundary" inkscape:connector-curvature="0" />
	<path style="fill:none;stroke:red;stroke-width:1px;stroke-linecap:butt;stroke-linejoin:miter;stroke-opacity:1" d="M 455.263,307.435 463.043,346.337 z" id="boundary" inkscape:connector-curvature="0" />
	<path style="fill:none;stroke:red;stroke-width:1px;stroke-linecap:butt;stroke-linejoin:miter;stroke-opacity:1" d="M 455.263,307.435 439.702,268.533 z" id="boundary" inkscape:connector-curvature="0" />
	<path style="fill:none;stroke:red;stroke-width:1px;stroke-linecap:butt;stroke-linejoin:miter;stroke-opacity:1" d="M 463.043,346.337 470.824,385.239 z" id="boundary" inkscape:connector-curvature="0" />
	<path style="fill:none;stroke:red;stroke-width:1px;stroke-linecap:butt;stroke-linejoin:miter;stroke-opacity:1" d="M 486.384,463.043 474.714,424.141 z" id="boundary" inkscape:connector-curvature="0" />
	<path style="fill:none;stroke:red;stroke-width:1px;stroke-linecap:butt;stroke-linejoin:miter;stroke-opacity:1" d="M 470.824,385.239 622.541,369.678 z" id="boundary" inkscape:connector-curvature="0" />
	<path style="fill:none;stroke:red;stroke-width:1px;stroke-linecap:butt;stroke-linejoin:miter;stroke-opacity:1" d="M 474.714,424.141 470.824,385.239 z" id="boundary" inkscape:connector-curvature="0" />
	<path style="fill:none;stroke:red;stroke-width:1px;stroke-linecap:butt;stroke-linejoin:miter;stroke-opacity:1" d="M 486.384,463.043 494.165,501.945 z" id="boundary" inkscape:connector-curvature="0" />
	<path style="fill:none;stroke:red;stroke-width:1px;stroke-linecap:butt;stroke-linejoin:miter;stroke-opacity:1" d="M 400.8,988.22 420.251,953.208 z" id="boundary" inkscape:connector-curvature="0" />
	<path style="fill:none;stroke:red;stroke-width:1px;stroke-linecap:butt;stroke-linejoin:miter;stroke-opacity:1" d="M 439.702,996 400.8,988.22 z" id="boundary" inkscape:connector-curvature="0" />
	<path style="fill:none;stroke:red;stroke-width:1px;stroke-linecap:butt;stroke-linejoin:miter;stroke-opacity:1" d="M 400.8,988.22 369.678,960.988 z" id="boundary" inkscape:connector-curvature="0" />
	<path style="fill:none;stroke:red;stroke-width:1px;stroke-linecap:butt;stroke-linejoin:miter;stroke-opacity:1" d="M 420.251,953.208 459.153,945.427 z" id="boundary" inkscape:connector-curvature="0" />
	<path style="fill:none;stroke:red;stroke-width:1px;stroke-linecap:butt;stroke-linejoin:miter;stroke-opacity:1" d="M 478.604,996 459.153,945.427 z" id="boundary" inkscape:connector-curvature="0" />
	<path style="fill:none;stroke:red;stroke-width:1px;stroke-linecap:butt;stroke-linejoin:miter;stroke-opacity:1" d="M 517.506,996 478.604,996 z" id="boundary" inkscape:connector-curvature="0" />
	<path style="fill:none;stroke:red;stroke-width:1px;stroke-linecap:butt;stroke-linejoin:miter;stroke-opacity:1" d="M 494.165,898.745 459.153,945.427 z" id="boundary" inkscape:connector-curvature="0" />
	<path style="fill:none;stroke:red;stroke-width:1px;stroke-linecap:butt;stroke-linejoin:miter;stroke-opacity:1" d="M 494.165,501.945 501.945,540.847 z" id="boundary" inkscape:connector-curvature="0" />
	<path style="fill:none;stroke:red;stroke-width:1px;stroke-linecap:butt;stroke-linejoin:miter;stroke-opacity:1" d="M 478.604,996 439.702,996 z" id="boundary" inkscape:connector-curvature="0" />
	<path style="fill:none;stroke:red;stroke-width:1px;stroke-linecap:butt;stroke-linejoin:miter;stroke-opacity:1" d="M 482.494,4 521.396,4 z" id="boundary" inkscape:connector-curvature="0" />
	<path style="fill:none;stroke:red;stroke-width:1px;stroke-linecap:butt;stroke-linejoin:miter;stroke-opacity:1" d="M 560.298,4 599.2,11.7804 z" id="boundary" inkscape:connector-curvature="0" />
	<path style="fill:none;stroke:red;stroke-width:1px;stroke-linecap:butt;stroke-linejoin:miter;stroke-opacity:1" d="M 599.2,11.7804 638.102,27.3412 z" id="boundary" inkscape:connector-curvature="0" />
	<path style="fill:none;stroke:red;stroke-width:1px;stroke-linecap:butt;stroke-linejoin:miter;stroke-opacity:1" d="M 673.114,46.7922 704.235,70.1333 z" id="boundary" inkscape:connector-curvature="0" />
	<path style="fill:none;stroke:red;stroke-width:1px;stroke-linecap:butt;stroke-linejoin:miter;stroke-opacity:1" d="M 638.102,27.3412 673.114,46.7922 z" id="boundary" inkscape:connector-curvature="0" />
	<path style="fill:none;stroke:red;stroke-width:1px;stroke-linecap:butt;stroke-linejoin:miter;stroke-opacity:1" d="M 622.541,431.922 622.541,369.678 z" id="boundary" inkscape:connector-curvature="0" />
	<path style="fill:none;stroke:red;stroke-width:1px;stroke-linecap:butt;stroke-linejoin:miter;stroke-opacity:1" d="M 622.541,369.678 661.443,373.569 z" id="boundary" inkscape:connector-curvature="0" />
	<path style="fill:none;stroke:red;stroke-width:1px;stroke-linecap:butt;stroke-linejoin:miter;stroke-opacity:1" d="M 692.565,396.91 661.443,373.569 z" id="boundary" inkscape:connector-curvature="0" />
	<path style="fill:none;stroke:red;stroke-width:1px;stroke-linecap:butt;stroke-linejoin:miter;stroke-opacity:1" d="M 731.467,412.471 692.565,396.91 z" id="boundary" inkscape:connector-curvature="0" />
	<path style="fill:none;stroke:red;stroke-width:1px;stroke-linecap:butt;stroke-linejoin:miter;stroke-opacity:1" d="M 735.357,93.4745 762.588,124.596 z" id="boundary" inkscape:connector-curvature="0" />
	<path style="fill:none;stroke:red;stroke-width:1px;stroke-linecap:butt;stroke-linejoin:miter;stroke-opacity:1" d="M 762.588,124.596 785.929,155.718 z" id="boundary" inkscape:connector-curvature="0" />
	<path style="fill:none;stroke:red;stroke-width:1px;stroke-linecap:butt;stroke-linejoin:miter;stroke-opacity:1" d="M 704.235,70.1333 735.357,93.4745 z" id="boundary" inkscape:connector-curvature="0" />
	<path style="fill:none;stroke:red;stroke-width:1px;stroke-linecap:butt;stroke-linejoin:miter;stroke-opacity:1" d="M 817.051,182.949 840.392,214.071 z" id="boundary" inkscape:connector-curvature="0" />
	<path style="fill:none;stroke:red;stroke-width:1px;stroke-linecap:butt;stroke-linejoin:miter;stroke-opacity:1" d="M 817.051,182.949 785.929,155.718 z" id="boundary" inkscape:connector-curvature="0" />
	<path style="fill:none;stroke:red;stroke-width:1px;stroke-linecap:butt;stroke-linejoin:miter;stroke-opacity:1" d="M 867.624,245.192 840.392,214.071 z" id="boundary" inkscape:connector-curvature="0" />
	<path style="fill:none;stroke:red;stroke-width:1px;stroke-linecap:butt;stroke-linejoin:miter;stroke-opacity:1" d="M 910.416,311.325 887.075,280.204 z" id="boundary" inkscape:connector-curvature="0" />
	<path style="fill:none;stroke:red;stroke-width:1px;stroke-linecap:butt;stroke-linejoin:miter;stroke-opacity:1" d="M 887.075,280.204 867.624,245.192 z" id="boundary" inkscape:connector-curvature="0" />
	<path style="fill:none;stroke:red;stroke-width:1px;stroke-linecap:butt;stroke-linejoin:miter;stroke-opacity:1" d="M 770.369,428.031 731.467,412.471 z" id="boundary" inkscape:connector-curvature="0" />
	<path style="fill:none;stroke:red;stroke-width:1px;stroke-linecap:butt;stroke-linejoin:miter;stroke-opacity:1" d="M 848.173,424.141 809.271,428.031 z" id="boundary" inkscape:connector-curvature="0" />
	<path style="fill:none;stroke:red;stroke-width:1px;stroke-linecap:butt;stroke-linejoin:miter;stroke-opacity:1" d="M 809.271,428.031 770.369,428.031 z" id="boundary" inkscape:connector-curvature="0" />
	<path style="fill:none;stroke:red;stroke-width:1px;stroke-linecap:butt;stroke-linejoin:miter;stroke-opacity:1" d="M 848.173,424.141 887.075,435.812 z" id="boundary" inkscape:connector-curvature="0" />
	<path style="fill:none;stroke:red;stroke-width:1px;stroke-linecap:butt;stroke-linejoin:miter;stroke-opacity:1" d="M 925.976,350.227 941.537,389.129 z" id="boundary" inkscape:connector-curvature="0" />
	<path style="fill:none;stroke:red;stroke-width:1px;stroke-linecap:butt;stroke-linejoin:miter;stroke-opacity:1" d="M 910.416,311.325 925.976,350.227 z" id="boundary" inkscape:connector-curvature="0" />
	<path style="fill:none;stroke:red;stroke-width:1px;stroke-linecap:butt;stroke-linejoin:miter;stroke-opacity:1" d="M 925.976,428.031 887.075,435.812 z" id="boundary" inkscape:connector-curvature="0" />
	<path style="fill:none;stroke:red;stroke-width:1px;stroke-linecap:butt;stroke-linejoin:miter;stroke-opacity:1" d="M 941.537,389.129 925.976,428.031 z" id="boundary" inkscape:connector-curvature="0" />
	<path style="fill:none;stroke:red;stroke-width:1px;stroke-linecap:butt;stroke-linejoin:miter;stroke-opacity:1" d="M 509.725,579.749 517.506,618.651 z" id="boundary" inkscape:connector-curvature="0" />
	<path style="fill:none;stroke:red;stroke-width:1px;stroke-linecap:butt;stroke-linejoin:miter;stroke-opacity:1" d="M 525.286,657.553 517.506,618.651 z" id="boundary" inkscape:connector-curvature="0" />
	<path style="fill:none;stroke:red;stroke-width:1px;stroke-linecap:butt;stroke-linejoin:miter;stroke-opacity:1" d="M 525.286,657.553 525.286,696.455 z" id="boundary" inkscape:connector-curvature="0" />
	<path style="fill:none;stroke:red;stroke-width:1px;stroke-linecap:butt;stroke-linejoin:miter;stroke-opacity:1" d="M 525.286,696.455 517.506,735.357 z" id="boundary" inkscape:connector-curvature="0" />
	<path style="fill:none;stroke:red;stroke-width:1px;stroke-linecap:butt;stroke-linejoin:miter;stroke-opacity:1" d="M 509.725,789.82 517.506,735.357 z" id="boundary" inkscape:connector-curvature="0" />
	<path style="fill:none;stroke:red;stroke-width:1px;stroke-linecap:butt;stroke-linejoin:miter;stroke-opacity:1" d="M 509.725,789.82 369.678,960.988 z" id="boundary" inkscape:connector-curvature="0" />
	<path style="fill:none;stroke:red;stroke-width:1px;stroke-linecap:butt;stroke-linejoin:miter;stroke-opacity:1" d="M 494.165,898.745 501.945,844.282 z" id="boundary" inkscape:connector-curvature="0" />
	<path style="fill:none;stroke:red;stroke-width:1px;stroke-linecap:butt;stroke-linejoin:miter;stroke-opacity:1" d="M 509.725,789.82 501.945,844.282 z" id="boundary" inkscape:connector-curvature="0" />
	<path style="fill:none;stroke:red;stroke-width:1px;stroke-linecap:butt;stroke-linejoin:miter;stroke-opacity:1" d="M 599.2,852.063 591.42,906.525 z" id="boundary" inkscape:connector-curvature="0" />
	<path style="fill:none;stroke:red;stroke-width:1px;stroke-linecap:butt;stroke-linejoin:miter;stroke-opacity:1" d="M 591.42,945.427 556.408,996 z" id="boundary" inkscape:connector-curvature="0" />
	<path style="fill:none;stroke:red;stroke-width:1px;stroke-linecap:butt;stroke-linejoin:miter;stroke-opacity:1" d="M 556.408,996 517.506,996 z" id="boundary" inkscape:connector-curvature="0" />
	<path style="fill:none;stroke:red;stroke-width:1px;stroke-linecap:butt;stroke-linejoin:miter;stroke-opacity:1" d="M 591.42,906.525 591.42,945.427 z" id="boundary" inkscape:connector-curvature="0" />
	<path style="fill:none;stroke:red;stroke-width:1px;stroke-linecap:butt;stroke-linejoin:miter;stroke-opacity:1" d="M 509.725,579.749 501.945,540.847 z" id="boundary" inkscape:connector-curvature="0" />
	<path style="fill:none;stroke:red;stroke-width:1px;stroke-linecap:butt;stroke-linejoin:miter;stroke-opacity:1" d="M 622.541,470.824 622.541,431.922 z" id="boundary" inkscape:connector-curvature="0" />
	<path style="fill:none;stroke:red;stroke-width:1px;stroke-linecap:butt;stroke-linejoin:miter;stroke-opacity:1" d="M 622.541,509.725 622.541,470.824 z" id="boundary" inkscape:connector-curvature="0" />
	<path style="fill:none;stroke:red;stroke-width:1px;stroke-linecap:butt;stroke-linejoin:miter;stroke-opacity:1" d="M 622.541,509.725 622.541,548.627 z" id="boundary" inkscape:connector-curvature="0" />
	<path style="fill:none;stroke:red;stroke-width:1px;stroke-linecap:butt;stroke-linejoin:miter;stroke-opacity:1" d="M 622.541,587.529 622.541,548.627 z" id="boundary" inkscape:connector-curvature="0" />
	<path style="fill:none;stroke:red;stroke-width:1px;stroke-linecap:butt;stroke-linejoin:miter;stroke-opacity:1" d="M 622.541,626.431 622.541,587.529 z" id="boundary" inkscape:connector-curvature="0" />
	<path style="fill:none;stroke:red;stroke-width:1px;stroke-linecap:butt;stroke-linejoin:miter;stroke-opacity:1" d="M 606.98,789.82 614.761,735.357 z" id="boundary" inkscape:connector-curvature="0" />
	<path style="fill:none;stroke:red;stroke-width:1px;stroke-linecap:butt;stroke-linejoin:miter;stroke-opacity:1" d="M 606.98,789.82 599.2,852.063 z" id="boundary" inkscape:connector-curvature="0" />
	<path style="fill:none;stroke:red;stroke-width:1px;stroke-linecap:butt;stroke-linejoin:miter;stroke-opacity:1" d="M 622.541,665.333 614.761,735.357 z" id="boundary" inkscape:connector-curvature="0" />
	<path style="fill:none;stroke:red;stroke-width:1px;stroke-linecap:butt;stroke-linejoin:miter;stroke-opacity:1" d="M 622.541,665.333 622.541,626.431 z" id="boundary" inkscape:connector-curvature="0" />
	<path style="fill:none;stroke:red;stroke-width:1px;stroke-linecap:butt;stroke-linejoin:miter;stroke-opacity:1" d="M 521.396,4 560.298,4 z" id="boundary" inkscape:connector-curvature="0" />
	<circle cx="4" cy="268.533" r="4" fill="#0" id="circle0"/>
	<circle cx="23.451" cy="233.522" r="4" fill="#0" id="circle1"/>
	<circle cx="35.1216" cy="295.765" r="4" fill="#0" id="circle2"/>
	<circle cx="50.6824" cy="198.51" r="4" fill="#0" id="circle3"/>
	<circle cx="66.2431" cy="272.424" r="4" fill="#0" id="circle4"/>
	<circle cx="74.0235" cy="167.388" r="4" fill="#0" id="circle5"/>
	<circle cx="81.8039" cy="128.486" r="4" fill="#0" id="circle6"/>
	<circle cx="97.3647" cy="241.302" r="4" fill="#0" id="circle7"/>
	<circle cx="105.145" cy="97.3647" r="4" fill="#0" id="circle8"/>
	<circle cx="132.376" cy="221.851" r="4" fill="#0" id="circle9"/>
	<circle cx="144.047" cy="81.8039" r="4" fill="#0" id="circle10"/>
	<circle cx="167.388" cy="202.4" r="4" fill="#0" id="circle11"/>
	<circle cx="182.949" cy="74.0235" r="4" fill="#0" id="circle12"/>
	<circle cx="198.51" cy="179.059" r="4" fill="#0" id="circle13"/>
	<circle cx="221.851" cy="74.0235" r="4" fill="#0" id="circle14"/>
	<circle cx="221.851" cy="210.18" r="4" fill="#0" id="circle15"/>
	<circle cx="221.851" cy="249.082" r="4" fill="#0" id="circle16"/>
	<circle cx="221.851" cy="287.984" r="4" fill="#0" id="circle17"/>
	<circle cx="229.631" cy="326.886" r="4" fill="#0" id="circle18"/>
	<circle cx="252.973" cy="358.008" r="4" fill="#0" id="circle19"/>
	<circle cx="256.863" cy="93.4745" r="4" fill="#0" id="circle20"/>
	<circle cx="280.204" cy="124.596" r="4" fill="#0" id="circle21"/>
	<circle cx="291.875" cy="373.569" r="4" fill="#0" id="circle22"/>
	<circle cx="303.545" cy="155.718" r="4" fill="#0" id="circle23"/>
	<circle cx="322.996" cy="120.706" r="4" fill="#0" id="circle24"/>
	<circle cx="330.776" cy="365.788" r="4" fill="#0" id="circle25"/>
	<circle cx="338.557" cy="81.8039" r="4" fill="#0" id="circle26"/>
	<circle cx="361.898" cy="334.667" r="4" fill="#0" id="circle27"/>
	<circle cx="369.678" cy="50.6824" r="4" fill="#0" id="circle28"/>
	<circle cx="369.678" cy="960.988" r="4" fill="#0" id="circle29"/>
	<circle cx="377.459" cy="295.765" r="4" fill="#0" id="circle30"/>
	<circle cx="381.349" cy="245.192" r="4" fill="#0" id="circle31"/>
	<circle cx="400.8" cy="988.22" r="4" fill="#0" id="circle32"/>
	<circle cx="404.69" cy="31.2314" r="4" fill="#0" id="circle33"/>
	<circle cx="420.251" cy="233.522" r="4" fill="#0" id="circle34"/>
	<circle cx="420.251" cy="953.208" r="4" fill="#0" id="circle35"/>
	<circle cx="439.702" cy="268.533" r="4" fill="#0" id="circle36"/>
	<circle cx="439.702" cy="996" r="4" fill="#0" id="circle37"/>
	<circle cx="443.592" cy="15.6706" r="4" fill="#0" id="circle38"/>
	<circle cx="455.263" cy="307.435" r="4" fill="#0" id="circle39"/>
	<circle cx="459.153" cy="945.427" r="4" fill="#0" id="circle40"/>
	<circle cx="463.043" cy="346.337" r="4" fill="#0" id="circle41"/>
	<circle cx="470.824" cy="385.239" r="4" fill="#0" id="circle42"/>
	<circle cx="474.714" cy="424.141" r="4" fill="#0" id="circle43"/>
	<circle cx="478.604" cy="996" r="4" fill="#0" id="circle44"/>
	<circle cx="482.494" cy="4" r="4" fill="#0" id="circle45"/>
	<circle cx="486.384" cy="463.043" r="4" fill="#0" id="circle46"/>
	<circle cx="494.165" cy="501.945" r="4" fill="#0" id="circle47"/>
	<circle cx="494.165" cy="898.745" r="4" fill="#0" id="circle48"/>
	<circle cx="501.945" cy="540.847" r="4" fill="#0" id="circle49"/>
	<circle cx="501.945" cy="844.282" r="4" fill="#0" id="circle50"/>
	<circle cx="509.725" cy="579.749" r="4" fill="#0" id="circle51"/>
	<circle cx="509.725" cy="789.82" r="4" fill="#0" id="circle52"/>
	<circle cx="517.506" cy="618.651" r="4" fill="#0" id="circle53"/>
	<circle cx="517.506" cy="735.357" r="4" fill="#0" id="circle54"/>
	<circle cx="517.506" cy="996" r="4" fill="#0" id="circle55"/>
	<circle cx="521.396" cy="4" r="4" fill="#0" id="circle56"/>
	<circle cx="525.286" cy="657.553" r="4" fill="#0" id="circle57"/>
	<circle cx="525.286" cy="696.455" r="4" fill="#0" id="circle58"/>
	<circle cx="556.408" cy="996" r="4" fill="#0" id="circle59"/>
	<circle cx="560.298" cy="4" r="4" fill="#0" id="circle60"/>
	<circle cx="591.42" cy="906.525" r="4" fill="#0" id="circle61"/>
	<circle cx="591.42" cy="945.427" r="4" fill="#0" id="circle62"/>
	<circle cx="599.2" cy="11.7804" r="4" fill="#0" id="circle63"/>
	<circle cx="599.2" cy="852.063" r="4" fill="#0" id="circle64"/>
	<circle cx="606.98" cy="789.82" r="4" fill="#0" id="circle65"/>
	<circle cx="614.761" cy="735.357" r="4" fill="#0" id="circle66"/>
	<circle cx="622.541" cy="369.678" r="4" fill="#0" id="circle67"/>
	<circle cx="622.541" cy="431.922" r="4" fill="#0" id="circle68"/>
	<circle cx="622.541" cy="470.824" r="4" fill="#0" id="circle69"/>
	<circle cx="622.541" cy="509.725" r="4" fill="#0" id="circle70"/>
	<circle cx="622.541" cy="548.627" r="4" fill="#0" id="circle71"/>
	<circle cx="622.541" cy="587.529" r="4" fill="#0" id="circle72"/>
	<circle cx="622.541" cy="626.431" r="4" fill="#0" id="circle73"/>
	<circle cx="622.541" cy="665.333" r="4" fill="#0" id="circle74"/>
	<circle cx="638.102" cy="27.3412" r="4" fill="#0" id="circle75"/>
	<circle cx="661.443" cy="373.569" r="4" fill="#0" id="circle76"/>
	<circle cx="673.114" cy="46.7922" r="4" fill="#0" id="circle77"/>
	<circle cx="692.565" cy="396.91" r="4" fill="#0" id="circle78"/>
	<circle cx="704.235" cy="70.1333" r="4" fill="#0" id="circle79"/>
	<circle cx="731.467" cy="412.471" r="4" fill="#0" id="circle80"/>
	<circle cx="735.357" cy="93.4745" r="4" fill="#0" id="circle81"/>
	<circle cx="762.588" cy="124.596" r="4" fill="#0" id="circle82"/>
	<circle cx="770.369" cy="428.031" r="4" fill="#0" id="circle83"/>
	<circle cx="785.929" cy="155.718" r="4" fill="#0" id="circle84"/>
	<circle cx="809.271" cy="428.031" r="4" fill="#0" id="circle85"/>
	<circle cx="817.051" cy="182.949" r="4" fill="#0" id="circle86"/>
	<circle cx="840.392" cy="214.071" r="4" fill="#0" id="circle87"/>
	<circle cx="848.173" cy="424.141" r="4" fill="#0" id="circle88"/>
	<circle cx="867.624" cy="245.192" r="4" fill="#0" id="circle89"/>
	<circle cx="887.075" cy="280.204" r="4" fill="#0" id="circle90"/>
	<circle cx="887.075" cy="435.812" r="4" fill="#0" id="circle91"/>
	<circle cx="910.416" cy="311.325" r="4" fill="#0" id="circle92"/>
	<circle cx="925.976" cy="350.227" r="4" fill="#0" id="circle93"/>
	<circle cx="925.976" cy="428.031" r="4" fill="#0" id="circle94"/>
	<circle cx="941.537" cy="389.129" r="4" fill="#0" id="circle95"/>
	</g>
</svg>