<?xml version="1.0" encoding="UTF-8" standalone="no"?>
<!-- Created with CurveBenchmark -->
<svg
	xmlns:dc="http://purl.org/dc/elements/1.1/"
	xmlns:cc="http://creativecommons.org/ns#"
	xmlns:rdf="http://www.w3.org/1999/02/22-rdf-syntax-ns#"
	xmlns:svg="http://www.w3.org/2000/svg"
	xmlns="http://www.w3.org/2000/svg"
	xmlns:sodipodi="http://sodipodi.sourceforge.net/DTD/sodipodi-0.dtd"
	xmlns:inkscape="http://www.inkscape.org/namespaces/inkscape"
	width="1000"
	height="1000"
	id="svg2"
	version="1.1"
	sodipodi:docname="manifold/nncrust-fish145.png.txt">
<defs
	id="defs4" />
<metadata
	id="metadata7">
	<rdf:RDF>
		<cc:Work
			rdf:about="">
			<dc:format>image/svg+xml</dc:format>
			<dc:type
				rdf:resource="http://purl.org/dc/dcmitype/StillImage" />
			<dc:title></dc:title>
		</cc:Work>
	</rdf:RDF>
</metadata>
<g
	inkscape:label="Layer 1"
	inkscape:groupmode="layer"
	id="layer1">
	<path style="fill:none;stroke:red;stroke-width:1px;stroke-linecap:butt;stroke-linejoin:miter;stroke-opacity:1" d="M 10.7254,185.586 4,151.959 z" id="boundary" inkscape:connector-curvature="0" />
	<path style="fill:none;stroke:red;stroke-width:1px;stroke-linecap:butt;stroke-linejoin:miter;stroke-opacity:1" d="M 4,151.959 37.6271,145.234 z" id="boundary" inkscape:connector-curvature="0" />
	<path style="fill:none;stroke:red;stroke-width:1px;stroke-linecap:butt;stroke-linejoin:miter;stroke-opacity:1" d="M 4,151.959 609.288,10.7254 z" id="boundary" inkscape:connector-curvature="0" />
	<path style="fill:none;stroke:red;stroke-width:1px;stroke-linecap:butt;stroke-linejoin:miter;stroke-opacity:1" d="M 37.6271,145.234 71.2542,155.322 z" id="boundary" inkscape:connector-curvature="0" />
	<path style="fill:none;stroke:red;stroke-width:1px;stroke-linecap:butt;stroke-linejoin:miter;stroke-opacity:1" d="M 135.146,185.586 101.519,172.136 z" id="boundary" inkscape:connector-curvature="0" />
	<path style="fill:none;stroke:red;stroke-width:1px;stroke-linecap:butt;stroke-linejoin:miter;stroke-opacity:1" d="M 71.2542,155.322 101.519,172.136 z" id="boundary" inkscape:connector-curvature="0" />
	<path style="fill:none;stroke:red;stroke-width:1px;stroke-linecap:butt;stroke-linejoin:miter;stroke-opacity:1" d="M 10.7254,185.586 17.4508,219.214 z" id="boundary" inkscape:connector-curvature="0" />
	<path style="fill:none;stroke:red;stroke-width:1px;stroke-linecap:butt;stroke-linejoin:miter;stroke-opacity:1" d="M 165.41,202.4 135.146,185.586 z" id="boundary" inkscape:connector-curvature="0" />
	<path style="fill:none;stroke:red;stroke-width:1px;stroke-linecap:butt;stroke-linejoin:miter;stroke-opacity:1" d="M 195.675,219.214 165.41,202.4 z" id="boundary" inkscape:connector-curvature="0" />
	<path style="fill:none;stroke:red;stroke-width:1px;stroke-linecap:butt;stroke-linejoin:miter;stroke-opacity:1" d="M 222.576,195.675 195.675,219.214 z" id="boundary" inkscape:connector-curvature="0" />
	<path style="fill:none;stroke:red;stroke-width:1px;stroke-linecap:butt;stroke-linejoin:miter;stroke-opacity:1" d="M 24.1763,252.841 17.4508,219.214 z" id="boundary" inkscape:connector-curvature="0" />
	<path style="fill:none;stroke:red;stroke-width:1px;stroke-linecap:butt;stroke-linejoin:miter;stroke-opacity:1" d="M 293.193,111.607 323.458,94.7932 z" id="boundary" inkscape:connector-curvature="0" />
	<path style="fill:none;stroke:red;stroke-width:1px;stroke-linecap:butt;stroke-linejoin:miter;stroke-opacity:1" d="M 323.458,94.7932 357.085,98.1559 z" id="boundary" inkscape:connector-curvature="0" />
	<path style="fill:none;stroke:red;stroke-width:1px;stroke-linecap:butt;stroke-linejoin:miter;stroke-opacity:1" d="M 478.142,71.2542 451.241,94.7932 z" id="boundary" inkscape:connector-curvature="0" />
	<path style="fill:none;stroke:red;stroke-width:1px;stroke-linecap:butt;stroke-linejoin:miter;stroke-opacity:1" d="M 481.505,417.614 447.878,417.614 z" id="boundary" inkscape:connector-curvature="0" />
	<path style="fill:none;stroke:red;stroke-width:1px;stroke-linecap:butt;stroke-linejoin:miter;stroke-opacity:1" d="M 357.085,98.1559 390.712,111.607 z" id="boundary" inkscape:connector-curvature="0" />
	<path style="fill:none;stroke:red;stroke-width:1px;stroke-linecap:butt;stroke-linejoin:miter;stroke-opacity:1" d="M 222.576,195.675 239.39,165.41 z" id="boundary" inkscape:connector-curvature="0" />
	<path style="fill:none;stroke:red;stroke-width:1px;stroke-linecap:butt;stroke-linejoin:miter;stroke-opacity:1" d="M 239.39,165.41 266.292,138.508 z" id="boundary" inkscape:connector-curvature="0" />
	<path style="fill:none;stroke:red;stroke-width:1px;stroke-linecap:butt;stroke-linejoin:miter;stroke-opacity:1" d="M 266.292,138.508 293.193,111.607 z" id="boundary" inkscape:connector-curvature="0" />
	<path style="fill:none;stroke:red;stroke-width:1px;stroke-linecap:butt;stroke-linejoin:miter;stroke-opacity:1" d="M 424.339,121.695 390.712,111.607 z" id="boundary" inkscape:connector-curvature="0" />
	<path style="fill:none;stroke:red;stroke-width:1px;stroke-linecap:butt;stroke-linejoin:miter;stroke-opacity:1" d="M 451.241,94.7932 424.339,121.695 z" id="boundary" inkscape:connector-curvature="0" />
	<path style="fill:none;stroke:red;stroke-width:1px;stroke-linecap:butt;stroke-linejoin:miter;stroke-opacity:1" d="M 215.851,330.183 195.675,219.214 z" id="boundary" inkscape:connector-curvature="0" />
	<path style="fill:none;stroke:red;stroke-width:1px;stroke-linecap:butt;stroke-linejoin:miter;stroke-opacity:1" d="M 24.1763,286.468 17.4508,333.546 z" id="boundary" inkscape:connector-curvature="0" />
	<path style="fill:none;stroke:red;stroke-width:1px;stroke-linecap:butt;stroke-linejoin:miter;stroke-opacity:1" d="M 17.4508,333.546 4,380.624 z" id="boundary" inkscape:connector-curvature="0" />
	<path style="fill:none;stroke:red;stroke-width:1px;stroke-linecap:butt;stroke-linejoin:miter;stroke-opacity:1" d="M 24.1763,286.468 24.1763,252.841 z" id="boundary" inkscape:connector-curvature="0" />
	<path style="fill:none;stroke:red;stroke-width:1px;stroke-linecap:butt;stroke-linejoin:miter;stroke-opacity:1" d="M 155.322,353.722 182.224,333.546 z" id="boundary" inkscape:connector-curvature="0" />
	<path style="fill:none;stroke:red;stroke-width:1px;stroke-linecap:butt;stroke-linejoin:miter;stroke-opacity:1" d="M 155.322,353.722 125.058,370.536 z" id="boundary" inkscape:connector-curvature="0" />
	<path style="fill:none;stroke:red;stroke-width:1px;stroke-linecap:butt;stroke-linejoin:miter;stroke-opacity:1" d="M 30.9017,404.163 4,380.624 z" id="boundary" inkscape:connector-curvature="0" />
	<path style="fill:none;stroke:red;stroke-width:1px;stroke-linecap:butt;stroke-linejoin:miter;stroke-opacity:1" d="M 64.5288,404.163 30.9017,404.163 z" id="boundary" inkscape:connector-curvature="0" />
	<path style="fill:none;stroke:red;stroke-width:1px;stroke-linecap:butt;stroke-linejoin:miter;stroke-opacity:1" d="M 98.1559,390.712 64.5288,404.163 z" id="boundary" inkscape:connector-curvature="0" />
	<path style="fill:none;stroke:red;stroke-width:1px;stroke-linecap:butt;stroke-linejoin:miter;stroke-opacity:1" d="M 98.1559,390.712 125.058,370.536 z" id="boundary" inkscape:connector-curvature="0" />
	<path style="fill:none;stroke:red;stroke-width:1px;stroke-linecap:butt;stroke-linejoin:miter;stroke-opacity:1" d="M 215.851,330.183 219.214,363.81 z" id="boundary" inkscape:connector-curvature="0" />
	<path style="fill:none;stroke:red;stroke-width:1px;stroke-linecap:butt;stroke-linejoin:miter;stroke-opacity:1" d="M 182.224,333.546 215.851,330.183 z" id="boundary" inkscape:connector-curvature="0" />
	<path style="fill:none;stroke:red;stroke-width:1px;stroke-linecap:butt;stroke-linejoin:miter;stroke-opacity:1" d="M 380.624,410.888 346.997,424.339 z" id="boundary" inkscape:connector-curvature="0" />
	<path style="fill:none;stroke:red;stroke-width:1px;stroke-linecap:butt;stroke-linejoin:miter;stroke-opacity:1" d="M 232.664,397.437 219.214,363.81 z" id="boundary" inkscape:connector-curvature="0" />
	<path style="fill:none;stroke:red;stroke-width:1px;stroke-linecap:butt;stroke-linejoin:miter;stroke-opacity:1" d="M 414.251,417.614 380.624,410.888 z" id="boundary" inkscape:connector-curvature="0" />
	<path style="fill:none;stroke:red;stroke-width:1px;stroke-linecap:butt;stroke-linejoin:miter;stroke-opacity:1" d="M 246.115,431.064 232.664,397.437 z" id="boundary" inkscape:connector-curvature="0" />
	<path style="fill:none;stroke:red;stroke-width:1px;stroke-linecap:butt;stroke-linejoin:miter;stroke-opacity:1" d="M 279.742,437.79 246.115,431.064 z" id="boundary" inkscape:connector-curvature="0" />
	<path style="fill:none;stroke:red;stroke-width:1px;stroke-linecap:butt;stroke-linejoin:miter;stroke-opacity:1" d="M 313.369,437.79 346.997,424.339 z" id="boundary" inkscape:connector-curvature="0" />
	<path style="fill:none;stroke:red;stroke-width:1px;stroke-linecap:butt;stroke-linejoin:miter;stroke-opacity:1" d="M 313.369,437.79 279.742,437.79 z" id="boundary" inkscape:connector-curvature="0" />
	<path style="fill:none;stroke:red;stroke-width:1px;stroke-linecap:butt;stroke-linejoin:miter;stroke-opacity:1" d="M 414.251,417.614 447.878,417.614 z" id="boundary" inkscape:connector-curvature="0" />
	<path style="fill:none;stroke:red;stroke-width:1px;stroke-linecap:butt;stroke-linejoin:miter;stroke-opacity:1" d="M 478.142,71.2542 511.769,61.1661 z" id="boundary" inkscape:connector-curvature="0" />
	<path style="fill:none;stroke:red;stroke-width:1px;stroke-linecap:butt;stroke-linejoin:miter;stroke-opacity:1" d="M 575.661,24.1763 609.288,10.7254 z" id="boundary" inkscape:connector-curvature="0" />
	<path style="fill:none;stroke:red;stroke-width:1px;stroke-linecap:butt;stroke-linejoin:miter;stroke-opacity:1" d="M 642.915,4 663.092,30.9017 z" id="boundary" inkscape:connector-curvature="0" />
	<path style="fill:none;stroke:red;stroke-width:1px;stroke-linecap:butt;stroke-linejoin:miter;stroke-opacity:1" d="M 609.288,10.7254 642.915,4 z" id="boundary" inkscape:connector-curvature="0" />
	<path style="fill:none;stroke:red;stroke-width:1px;stroke-linecap:butt;stroke-linejoin:miter;stroke-opacity:1" d="M 663.092,30.9017 679.905,61.1661 z" id="boundary" inkscape:connector-curvature="0" />
	<path style="fill:none;stroke:red;stroke-width:1px;stroke-linecap:butt;stroke-linejoin:miter;stroke-opacity:1" d="M 511.769,61.1661 542.034,37.6271 z" id="boundary" inkscape:connector-curvature="0" />
	<path style="fill:none;stroke:red;stroke-width:1px;stroke-linecap:butt;stroke-linejoin:miter;stroke-opacity:1" d="M 700.081,88.0678 716.895,118.332 z" id="boundary" inkscape:connector-curvature="0" />
	<path style="fill:none;stroke:red;stroke-width:1px;stroke-linecap:butt;stroke-linejoin:miter;stroke-opacity:1" d="M 700.081,88.0678 679.905,61.1661 z" id="boundary" inkscape:connector-curvature="0" />
	<path style="fill:none;stroke:red;stroke-width:1px;stroke-linecap:butt;stroke-linejoin:miter;stroke-opacity:1" d="M 750.522,128.42 716.895,118.332 z" id="boundary" inkscape:connector-curvature="0" />
	<path style="fill:none;stroke:red;stroke-width:1px;stroke-linecap:butt;stroke-linejoin:miter;stroke-opacity:1" d="M 542.034,37.6271 575.661,24.1763 z" id="boundary" inkscape:connector-curvature="0" />
	<path style="fill:none;stroke:red;stroke-width:1px;stroke-linecap:butt;stroke-linejoin:miter;stroke-opacity:1" d="M 750.522,128.42 784.149,138.508 z" id="boundary" inkscape:connector-curvature="0" />
	<path style="fill:none;stroke:red;stroke-width:1px;stroke-linecap:butt;stroke-linejoin:miter;stroke-opacity:1" d="M 885.031,172.136 851.403,165.41 z" id="boundary" inkscape:connector-curvature="0" />
	<path style="fill:none;stroke:red;stroke-width:1px;stroke-linecap:butt;stroke-linejoin:miter;stroke-opacity:1" d="M 851.403,165.41 817.776,151.959 z" id="boundary" inkscape:connector-curvature="0" />
	<path style="fill:none;stroke:red;stroke-width:1px;stroke-linecap:butt;stroke-linejoin:miter;stroke-opacity:1" d="M 817.776,151.959 784.149,138.508 z" id="boundary" inkscape:connector-curvature="0" />
	<path style="fill:none;stroke:red;stroke-width:1px;stroke-linecap:butt;stroke-linejoin:miter;stroke-opacity:1" d="M 885.031,172.136 911.932,192.312 z" id="boundary" inkscape:connector-curvature="0" />
	<path style="fill:none;stroke:red;stroke-width:1px;stroke-linecap:butt;stroke-linejoin:miter;stroke-opacity:1" d="M 911.932,192.312 938.834,212.488 z" id="boundary" inkscape:connector-curvature="0" />
	<path style="fill:none;stroke:red;stroke-width:1px;stroke-linecap:butt;stroke-linejoin:miter;stroke-opacity:1" d="M 969.098,229.302 938.834,212.488 z" id="boundary" inkscape:connector-curvature="0" />
	<path style="fill:none;stroke:red;stroke-width:1px;stroke-linecap:butt;stroke-linejoin:miter;stroke-opacity:1" d="M 969.098,229.302 996,249.478 z" id="boundary" inkscape:connector-curvature="0" />
	<path style="fill:none;stroke:red;stroke-width:1px;stroke-linecap:butt;stroke-linejoin:miter;stroke-opacity:1" d="M 996,249.478 975.824,299.919 z" id="boundary" inkscape:connector-curvature="0" />
	<path style="fill:none;stroke:red;stroke-width:1px;stroke-linecap:butt;stroke-linejoin:miter;stroke-opacity:1" d="M 975.824,299.919 948.922,326.82 z" id="boundary" inkscape:connector-curvature="0" />
	<path style="fill:none;stroke:red;stroke-width:1px;stroke-linecap:butt;stroke-linejoin:miter;stroke-opacity:1" d="M 481.505,417.614 515.132,424.339 z" id="boundary" inkscape:connector-curvature="0" />
	<path style="fill:none;stroke:red;stroke-width:1px;stroke-linecap:butt;stroke-linejoin:miter;stroke-opacity:1" d="M 515.132,424.339 521.858,461.329 z" id="boundary" inkscape:connector-curvature="0" />
	<path style="fill:none;stroke:red;stroke-width:1px;stroke-linecap:butt;stroke-linejoin:miter;stroke-opacity:1" d="M 515.132,494.956 521.858,461.329 z" id="boundary" inkscape:connector-curvature="0" />
	<path style="fill:none;stroke:red;stroke-width:1px;stroke-linecap:butt;stroke-linejoin:miter;stroke-opacity:1" d="M 616.014,518.495 582.386,531.946 z" id="boundary" inkscape:connector-curvature="0" />
	<path style="fill:none;stroke:red;stroke-width:1px;stroke-linecap:butt;stroke-linejoin:miter;stroke-opacity:1" d="M 696.719,525.22 669.817,545.397 z" id="boundary" inkscape:connector-curvature="0" />
	<path style="fill:none;stroke:red;stroke-width:1px;stroke-linecap:butt;stroke-linejoin:miter;stroke-opacity:1" d="M 515.132,494.956 521.858,528.583 z" id="boundary" inkscape:connector-curvature="0" />
	<path style="fill:none;stroke:red;stroke-width:1px;stroke-linecap:butt;stroke-linejoin:miter;stroke-opacity:1" d="M 521.858,528.583 548.759,548.759 z" id="boundary" inkscape:connector-curvature="0" />
	<path style="fill:none;stroke:red;stroke-width:1px;stroke-linecap:butt;stroke-linejoin:miter;stroke-opacity:1" d="M 582.386,531.946 548.759,548.759 z" id="boundary" inkscape:connector-curvature="0" />
	<path style="fill:none;stroke:red;stroke-width:1px;stroke-linecap:butt;stroke-linejoin:miter;stroke-opacity:1" d="M 616.014,518.495 636.19,545.397 z" id="boundary" inkscape:connector-curvature="0" />
	<path style="fill:none;stroke:red;stroke-width:1px;stroke-linecap:butt;stroke-linejoin:miter;stroke-opacity:1" d="M 669.817,545.397 636.19,545.397 z" id="boundary" inkscape:connector-curvature="0" />
	<path style="fill:none;stroke:red;stroke-width:1px;stroke-linecap:butt;stroke-linejoin:miter;stroke-opacity:1" d="M 824.502,404.163 858.129,390.712 z" id="boundary" inkscape:connector-curvature="0" />
	<path style="fill:none;stroke:red;stroke-width:1px;stroke-linecap:butt;stroke-linejoin:miter;stroke-opacity:1" d="M 948.922,326.82 922.02,360.447 z" id="boundary" inkscape:connector-curvature="0" />
	<path style="fill:none;stroke:red;stroke-width:1px;stroke-linecap:butt;stroke-linejoin:miter;stroke-opacity:1" d="M 922.02,360.447 891.756,377.261 z" id="boundary" inkscape:connector-curvature="0" />
	<path style="fill:none;stroke:red;stroke-width:1px;stroke-linecap:butt;stroke-linejoin:miter;stroke-opacity:1" d="M 891.756,377.261 858.129,390.712 z" id="boundary" inkscape:connector-curvature="0" />
	<path style="fill:none;stroke:red;stroke-width:1px;stroke-linecap:butt;stroke-linejoin:miter;stroke-opacity:1" d="M 790.875,417.614 757.247,431.064 z" id="boundary" inkscape:connector-curvature="0" />
	<path style="fill:none;stroke:red;stroke-width:1px;stroke-linecap:butt;stroke-linejoin:miter;stroke-opacity:1" d="M 790.875,417.614 824.502,404.163 z" id="boundary" inkscape:connector-curvature="0" />
	<path style="fill:none;stroke:red;stroke-width:1px;stroke-linecap:butt;stroke-linejoin:miter;stroke-opacity:1" d="M 713.532,494.956 696.719,525.22 z" id="boundary" inkscape:connector-curvature="0" />
	<path style="fill:none;stroke:red;stroke-width:1px;stroke-linecap:butt;stroke-linejoin:miter;stroke-opacity:1" d="M 757.247,431.064 726.983,447.878 z" id="boundary" inkscape:connector-curvature="0" />
	<path style="fill:none;stroke:red;stroke-width:1px;stroke-linecap:butt;stroke-linejoin:miter;stroke-opacity:1" d="M 713.532,494.956 726.983,447.878 z" id="boundary" inkscape:connector-curvature="0" />
	<circle cx="4" cy="151.959" r="4" fill="#0" id="circle0"/>
	<circle cx="4" cy="380.624" r="4" fill="#0" id="circle1"/>
	<circle cx="10.7254" cy="185.586" r="4" fill="#0" id="circle2"/>
	<circle cx="17.4508" cy="219.214" r="4" fill="#0" id="circle3"/>
	<circle cx="17.4508" cy="333.546" r="4" fill="#0" id="circle4"/>
	<circle cx="24.1763" cy="252.841" r="4" fill="#0" id="circle5"/>
	<circle cx="24.1763" cy="286.468" r="4" fill="#0" id="circle6"/>
	<circle cx="30.9017" cy="404.163" r="4" fill="#0" id="circle7"/>
	<circle cx="37.6271" cy="145.234" r="4" fill="#0" id="circle8"/>
	<circle cx="64.5288" cy="404.163" r="4" fill="#0" id="circle9"/>
	<circle cx="71.2542" cy="155.322" r="4" fill="#0" id="circle10"/>
	<circle cx="98.1559" cy="390.712" r="4" fill="#0" id="circle11"/>
	<circle cx="101.519" cy="172.136" r="4" fill="#0" id="circle12"/>
	<circle cx="125.058" cy="370.536" r="4" fill="#0" id="circle13"/>
	<circle cx="135.146" cy="185.586" r="4" fill="#0" id="circle14"/>
	<circle cx="155.322" cy="353.722" r="4" fill="#0" id="circle15"/>
	<circle cx="165.41" cy="202.4" r="4" fill="#0" id="circle16"/>
	<circle cx="182.224" cy="333.546" r="4" fill="#0" id="circle17"/>
	<circle cx="195.675" cy="219.214" r="4" fill="#0" id="circle18"/>
	<circle cx="215.851" cy="330.183" r="4" fill="#0" id="circle19"/>
	<circle cx="219.214" cy="363.81" r="4" fill="#0" id="circle20"/>
	<circle cx="222.576" cy="195.675" r="4" fill="#0" id="circle21"/>
	<circle cx="232.664" cy="397.437" r="4" fill="#0" id="circle22"/>
	<circle cx="239.39" cy="165.41" r="4" fill="#0" id="circle23"/>
	<circle cx="246.115" cy="431.064" r="4" fill="#0" id="circle24"/>
	<circle cx="266.292" cy="138.508" r="4" fill="#0" id="circle25"/>
	<circle cx="279.742" cy="437.79" r="4" fill="#0" id="circle26"/>
	<circle cx="293.193" cy="111.607" r="4" fill="#0" id="circle27"/>
	<circle cx="313.369" cy="437.79" r="4" fill="#0" id="circle28"/>
	<circle cx="323.458" cy="94.7932" r="4" fill="#0" id="circle29"/>
	<circle cx="346.997" cy="424.339" r="4" fill="#0" id="circle30"/>
	<circle cx="357.085" cy="98.1559" r="4" fill="#0" id="circle31"/>
	<circle cx="380.624" cy="410.888" r="4" fill="#0" id="circle32"/>
	<circle cx="390.712" cy="111.607" r="4" fill="#0" id="circle33"/>
	<circle cx="414.251" cy="417.614" r="4" fill="#0" id="circle34"/>
	<circle cx="424.339" cy="121.695" r="4" fill="#0" id="circle35"/>
	<circle cx="447.878" cy="417.614" r="4" fill="#0" id="circle36"/>
	<circle cx="451.241" cy="94.7932" r="4" fill="#0" id="circle37"/>
	<circle cx="478.142" cy="71.2542" r="4" fill="#0" id="circle38"/>
	<circle cx="481.505" cy="417.614" r="4" fill="#0" id="circle39"/>
	<circle cx="511.769" cy="61.1661" r="4" fill="#0" id="circle40"/>
	<circle cx="515.132" cy="424.339" r="4" fill="#0" id="circle41"/>
	<circle cx="515.132" cy="494.956" r="4" fill="#0" id="circle42"/>
	<circle cx="521.858" cy="461.329" r="4" fill="#0" id="circle43"/>
	<circle cx="521.858" cy="528.583" r="4" fill="#0" id="circle44"/>
	<circle cx="542.034" cy="37.6271" r="4" fill="#0" id="circle45"/>
	<circle cx="548.759" cy="548.759" r="4" fill="#0" id="circle46"/>
	<circle cx="575.661" cy="24.1763" r="4" fill="#0" id="circle47"/>
	<circle cx="582.386" cy="531.946" r="4" fill="#0" id="circle48"/>
	<circle cx="609.288" cy="10.7254" r="4" fill="#0" id="circle49"/>
	<circle cx="616.014" cy="518.495" r="4" fill="#0" id="circle50"/>
	<circle cx="636.19" cy="545.397" r="4" fill="#0" id="circle51"/>
	<circle cx="642.915" cy="4" r="4" fill="#0" id="circle52"/>
	<circle cx="663.092" cy="30.9017" r="4" fill="#0" id="circle53"/>
	<circle cx="669.817" cy="545.397" r="4" fill="#0" id="circle54"/>
	<circle cx="679.905" cy="61.1661" r="4" fill="#0" id="circle55"/>
	<circle cx="696.719" cy="525.22" r="4" fill="#0" id="circle56"/>
	<circle cx="700.081" cy="88.0678" r="4" fill="#0" id="circle57"/>
	<circle cx="713.532" cy="494.956" r="4" fill="#0" id="circle58"/>
	<circle cx="716.895" cy="118.332" r="4" fill="#0" id="circle59"/>
	<circle cx="726.983" cy="447.878" r="4" fill="#0" id="circle60"/>
	<circle cx="750.522" cy="128.42" r="4" fill="#0" id="circle61"/>
	<circle cx="757.247" cy="431.064" r="4" fill="#0" id="circle62"/>
	<circle cx="784.149" cy="138.508" r="4" fill="#0" id="circle63"/>
	<circle cx="790.875" cy="417.614" r="4" fill="#0" id="circle64"/>
	<circle cx="817.776" cy="151.959" r="4" fill="#0" id="circle65"/>
	<circle cx="824.502" cy="404.163" r="4" fill="#0" id="circle66"/>
	<circle cx="851.403" cy="165.41" r="4" fill="#0" id="circle67"/>
	<circle cx="858.129" cy="390.712" r="4" fill="#0" id="circle68"/>
	<circle cx="885.031" cy="172.136" r="4" fill="#0" id="circle69"/>
	<circle cx="891.756" cy="377.261" r="4" fill="#0" id="circle70"/>
	<circle cx="911.932" cy="192.312" r="4" fill="#0" id="circle71"/>
	<circle cx="922.02" cy="360.447" r="4" fill="#0" id="circle72"/>
	<circle cx="938.834" cy="212.488" r="4" fill="#0" id="circle73"/>
	<circle cx="948.922" cy="326.82" r="4" fill="#0" id="circle74"/>
	<circle cx="969.098" cy="229.302" r="4" fill="#0" id="circle75"/>
	<circle cx="975.824" cy="299.919" r="4" fill="#0" id="circle76"/>
	<circle cx="996" cy="249.478" r="4" fill="#0" id="circle77"/>
	</g>
</svg>