<?xml version="1.0" encoding="UTF-8" standalone="no"?>
<!-- Created with CurveBenchmark -->
<svg
	xmlns:dc="http://purl.org/dc/elements/1.1/"
	xmlns:cc="http://creativecommons.org/ns#"
	xmlns:rdf="http://www.w3.org/1999/02/22-rdf-syntax-ns#"
	xmlns:svg="http://www.w3.org/2000/svg"
	xmlns="http://www.w3.org/2000/svg"
	xmlns:sodipodi="http://sodipodi.sourceforge.net/DTD/sodipodi-0.dtd"
	xmlns:inkscape="http://www.inkscape.org/namespaces/inkscape"
	width="1000"
	height="1000"
	id="svg2"
	version="1.1"
	sodipodi:docname="manifold/nncrust-car20.png.txt">
<defs
	id="defs4" />
<metadata
	id="metadata7">
	<rdf:RDF>
		<cc:Work
			rdf:about="">
			<dc:format>image/svg+xml</dc:format>
			<dc:type
				rdf:resource="http://purl.org/dc/dcmitype/StillImage" />
			<dc:title></dc:title>
		</cc:Work>
	</rdf:RDF>
</metadata>
<g
	inkscape:label="Layer 1"
	inkscape:groupmode="layer"
	id="layer1">
	<path style="fill:none;stroke:red;stroke-width:1px;stroke-linecap:butt;stroke-linejoin:miter;stroke-opacity:1" d="M 119.675,179.265 137.201,179.265 z" id="boundary" inkscape:connector-curvature="0" />
	<path style="fill:none;stroke:red;stroke-width:1px;stroke-linecap:butt;stroke-linejoin:miter;stroke-opacity:1" d="M 102.148,182.77 119.675,179.265 z" id="boundary" inkscape:connector-curvature="0" />
	<path style="fill:none;stroke:red;stroke-width:1px;stroke-linecap:butt;stroke-linejoin:miter;stroke-opacity:1" d="M 84.6219,188.028 102.148,182.77 z" id="boundary" inkscape:connector-curvature="0" />
	<path style="fill:none;stroke:red;stroke-width:1px;stroke-linecap:butt;stroke-linejoin:miter;stroke-opacity:1" d="M 84.6219,188.028 67.0954,191.534 z" id="boundary" inkscape:connector-curvature="0" />
	<path style="fill:none;stroke:red;stroke-width:1px;stroke-linecap:butt;stroke-linejoin:miter;stroke-opacity:1" d="M 172.254,179.265 154.728,179.265 z" id="boundary" inkscape:connector-curvature="0" />
	<path style="fill:none;stroke:red;stroke-width:1px;stroke-linecap:butt;stroke-linejoin:miter;stroke-opacity:1" d="M 207.307,179.265 189.781,179.265 z" id="boundary" inkscape:connector-curvature="0" />
	<path style="fill:none;stroke:red;stroke-width:1px;stroke-linecap:butt;stroke-linejoin:miter;stroke-opacity:1" d="M 224.834,179.265 207.307,179.265 z" id="boundary" inkscape:connector-curvature="0" />
	<path style="fill:none;stroke:red;stroke-width:1px;stroke-linecap:butt;stroke-linejoin:miter;stroke-opacity:1" d="M 172.254,179.265 189.781,179.265 z" id="boundary" inkscape:connector-curvature="0" />
	<path style="fill:none;stroke:red;stroke-width:1px;stroke-linecap:butt;stroke-linejoin:miter;stroke-opacity:1" d="M 137.201,179.265 154.728,179.265 z" id="boundary" inkscape:connector-curvature="0" />
	<path style="fill:none;stroke:red;stroke-width:1px;stroke-linecap:butt;stroke-linejoin:miter;stroke-opacity:1" d="M 4,237.102 18.0212,223.081 z" id="boundary" inkscape:connector-curvature="0" />
	<path style="fill:none;stroke:red;stroke-width:1px;stroke-linecap:butt;stroke-linejoin:miter;stroke-opacity:1" d="M 4,254.629 4,237.102 z" id="boundary" inkscape:connector-curvature="0" />
	<path style="fill:none;stroke:red;stroke-width:1px;stroke-linecap:butt;stroke-linejoin:miter;stroke-opacity:1" d="M 4,254.629 12.7633,270.403 z" id="boundary" inkscape:connector-curvature="0" />
	<path style="fill:none;stroke:red;stroke-width:1px;stroke-linecap:butt;stroke-linejoin:miter;stroke-opacity:1" d="M 12.7633,270.403 12.7633,287.929 z" id="boundary" inkscape:connector-curvature="0" />
	<path style="fill:none;stroke:red;stroke-width:1px;stroke-linecap:butt;stroke-linejoin:miter;stroke-opacity:1" d="M 21.5265,303.703 12.7633,287.929 z" id="boundary" inkscape:connector-curvature="0" />
	<path style="fill:none;stroke:red;stroke-width:1px;stroke-linecap:butt;stroke-linejoin:miter;stroke-opacity:1" d="M 18.0212,223.081 35.5477,214.318 z" id="boundary" inkscape:connector-curvature="0" />
	<path style="fill:none;stroke:red;stroke-width:1px;stroke-linecap:butt;stroke-linejoin:miter;stroke-opacity:1" d="M 49.5689,200.297 67.0954,191.534 z" id="boundary" inkscape:connector-curvature="0" />
	<path style="fill:none;stroke:red;stroke-width:1px;stroke-linecap:butt;stroke-linejoin:miter;stroke-opacity:1" d="M 35.5477,214.318 49.5689,200.297 z" id="boundary" inkscape:connector-curvature="0" />
	<path style="fill:none;stroke:red;stroke-width:1px;stroke-linecap:butt;stroke-linejoin:miter;stroke-opacity:1" d="M 21.5265,303.703 21.5265,321.23 z" id="boundary" inkscape:connector-curvature="0" />
	<path style="fill:none;stroke:red;stroke-width:1px;stroke-linecap:butt;stroke-linejoin:miter;stroke-opacity:1" d="M 21.5265,321.23 21.5265,338.756 z" id="boundary" inkscape:connector-curvature="0" />
	<path style="fill:none;stroke:red;stroke-width:1px;stroke-linecap:butt;stroke-linejoin:miter;stroke-opacity:1" d="M 394.841,91.6325 379.067,100.396 z" id="boundary" inkscape:connector-curvature="0" />
	<path style="fill:none;stroke:red;stroke-width:1px;stroke-linecap:butt;stroke-linejoin:miter;stroke-opacity:1" d="M 379.067,100.396 361.541,100.396 z" id="boundary" inkscape:connector-curvature="0" />
	<path style="fill:none;stroke:red;stroke-width:1px;stroke-linecap:butt;stroke-linejoin:miter;stroke-opacity:1" d="M 347.519,112.664 361.541,100.396 z" id="boundary" inkscape:connector-curvature="0" />
	<path style="fill:none;stroke:red;stroke-width:1px;stroke-linecap:butt;stroke-linejoin:miter;stroke-opacity:1" d="M 394.841,91.6325 410.615,100.396 z" id="boundary" inkscape:connector-curvature="0" />
	<path style="fill:none;stroke:red;stroke-width:1px;stroke-linecap:butt;stroke-linejoin:miter;stroke-opacity:1" d="M 410.615,100.396 417.625,117.922 z" id="boundary" inkscape:connector-curvature="0" />
	<path style="fill:none;stroke:red;stroke-width:1px;stroke-linecap:butt;stroke-linejoin:miter;stroke-opacity:1" d="M 459.689,35.5477 473.71,21.5265 z" id="boundary" inkscape:connector-curvature="0" />
	<path style="fill:none;stroke:red;stroke-width:1px;stroke-linecap:butt;stroke-linejoin:miter;stroke-opacity:1" d="M 450.926,53.0742 450.926,70.6007 z" id="boundary" inkscape:connector-curvature="0" />
	<path style="fill:none;stroke:red;stroke-width:1px;stroke-linecap:butt;stroke-linejoin:miter;stroke-opacity:1" d="M 450.926,53.0742 459.689,35.5477 z" id="boundary" inkscape:connector-curvature="0" />
	<path style="fill:none;stroke:red;stroke-width:1px;stroke-linecap:butt;stroke-linejoin:miter;stroke-opacity:1" d="M 450.926,88.1272 450.926,70.6007 z" id="boundary" inkscape:connector-curvature="0" />
	<path style="fill:none;stroke:red;stroke-width:1px;stroke-linecap:butt;stroke-linejoin:miter;stroke-opacity:1" d="M 449.173,117.922 450.926,88.1272 z" id="boundary" inkscape:connector-curvature="0" />
	<path style="fill:none;stroke:red;stroke-width:1px;stroke-linecap:butt;stroke-linejoin:miter;stroke-opacity:1" d="M 298.445,126.686 280.919,135.449 z" id="boundary" inkscape:connector-curvature="0" />
	<path style="fill:none;stroke:red;stroke-width:1px;stroke-linecap:butt;stroke-linejoin:miter;stroke-opacity:1" d="M 266.898,149.47 259.887,174.007 z" id="boundary" inkscape:connector-curvature="0" />
	<path style="fill:none;stroke:red;stroke-width:1px;stroke-linecap:butt;stroke-linejoin:miter;stroke-opacity:1" d="M 259.887,174.007 242.36,179.265 z" id="boundary" inkscape:connector-curvature="0" />
	<path style="fill:none;stroke:red;stroke-width:1px;stroke-linecap:butt;stroke-linejoin:miter;stroke-opacity:1" d="M 242.36,179.265 224.834,179.265 z" id="boundary" inkscape:connector-curvature="0" />
	<path style="fill:none;stroke:red;stroke-width:1px;stroke-linecap:butt;stroke-linejoin:miter;stroke-opacity:1" d="M 266.898,149.47 280.919,135.449 z" id="boundary" inkscape:connector-curvature="0" />
	<path style="fill:none;stroke:red;stroke-width:1px;stroke-linecap:butt;stroke-linejoin:miter;stroke-opacity:1" d="M 298.445,126.686 315.972,126.686 z" id="boundary" inkscape:connector-curvature="0" />
	<path style="fill:none;stroke:red;stroke-width:1px;stroke-linecap:butt;stroke-linejoin:miter;stroke-opacity:1" d="M 449.173,117.922 433.399,126.686 z" id="boundary" inkscape:connector-curvature="0" />
	<path style="fill:none;stroke:red;stroke-width:1px;stroke-linecap:butt;stroke-linejoin:miter;stroke-opacity:1" d="M 433.399,126.686 417.625,117.922 z" id="boundary" inkscape:connector-curvature="0" />
	<path style="fill:none;stroke:red;stroke-width:1px;stroke-linecap:butt;stroke-linejoin:miter;stroke-opacity:1" d="M 315.972,126.686 333.498,126.686 z" id="boundary" inkscape:connector-curvature="0" />
	<path style="fill:none;stroke:red;stroke-width:1px;stroke-linecap:butt;stroke-linejoin:miter;stroke-opacity:1" d="M 347.519,112.664 333.498,126.686 z" id="boundary" inkscape:connector-curvature="0" />
	<path style="fill:none;stroke:red;stroke-width:1px;stroke-linecap:butt;stroke-linejoin:miter;stroke-opacity:1" d="M 489.484,12.7633 473.71,21.5265 z" id="boundary" inkscape:connector-curvature="0" />
	<path style="fill:none;stroke:red;stroke-width:1px;stroke-linecap:butt;stroke-linejoin:miter;stroke-opacity:1" d="M 21.5265,338.756 21.5265,356.283 z" id="boundary" inkscape:connector-curvature="0" />
	<path style="fill:none;stroke:red;stroke-width:1px;stroke-linecap:butt;stroke-linejoin:miter;stroke-opacity:1" d="M 21.5265,373.809 30.2898,389.583 z" id="boundary" inkscape:connector-curvature="0" />
	<path style="fill:none;stroke:red;stroke-width:1px;stroke-linecap:butt;stroke-linejoin:miter;stroke-opacity:1" d="M 30.2898,389.583 30.2898,407.11 z" id="boundary" inkscape:connector-curvature="0" />
	<path style="fill:none;stroke:red;stroke-width:1px;stroke-linecap:butt;stroke-linejoin:miter;stroke-opacity:1" d="M 21.5265,373.809 21.5265,356.283 z" id="boundary" inkscape:connector-curvature="0" />
	<path style="fill:none;stroke:red;stroke-width:1px;stroke-linecap:butt;stroke-linejoin:miter;stroke-opacity:1" d="M 30.2898,407.11 33.7951,424.636 z" id="boundary" inkscape:connector-curvature="0" />
	<path style="fill:none;stroke:red;stroke-width:1px;stroke-linecap:butt;stroke-linejoin:miter;stroke-opacity:1" d="M 144.212,443.915 128.438,435.152 z" id="boundary" inkscape:connector-curvature="0" />
	<path style="fill:none;stroke:red;stroke-width:1px;stroke-linecap:butt;stroke-linejoin:miter;stroke-opacity:1" d="M 128.438,435.152 154.728,426.389 z" id="boundary" inkscape:connector-curvature="0" />
	<path style="fill:none;stroke:red;stroke-width:1px;stroke-linecap:butt;stroke-linejoin:miter;stroke-opacity:1" d="M 154.728,426.389 144.212,443.915 z" id="boundary" inkscape:connector-curvature="0" />
	<path style="fill:none;stroke:red;stroke-width:1px;stroke-linecap:butt;stroke-linejoin:miter;stroke-opacity:1" d="M 165.244,440.41 154.728,426.389 z" id="boundary" inkscape:connector-curvature="0" />
	<path style="fill:none;stroke:red;stroke-width:1px;stroke-linecap:butt;stroke-linejoin:miter;stroke-opacity:1" d="M 181.018,426.389 165.244,440.41 z" id="boundary" inkscape:connector-curvature="0" />
	<path style="fill:none;stroke:red;stroke-width:1px;stroke-linecap:butt;stroke-linejoin:miter;stroke-opacity:1" d="M 230.092,426.389 214.318,435.152 z" id="boundary" inkscape:connector-curvature="0" />
	<path style="fill:none;stroke:red;stroke-width:1px;stroke-linecap:butt;stroke-linejoin:miter;stroke-opacity:1" d="M 68.8481,461.442 86.3746,461.442 z" id="boundary" inkscape:connector-curvature="0" />
	<path style="fill:none;stroke:red;stroke-width:1px;stroke-linecap:butt;stroke-linejoin:miter;stroke-opacity:1" d="M 68.8481,461.442 53.0742,452.678 z" id="boundary" inkscape:connector-curvature="0" />
	<path style="fill:none;stroke:red;stroke-width:1px;stroke-linecap:butt;stroke-linejoin:miter;stroke-opacity:1" d="M 103.901,461.442 86.3746,461.442 z" id="boundary" inkscape:connector-curvature="0" />
	<path style="fill:none;stroke:red;stroke-width:1px;stroke-linecap:butt;stroke-linejoin:miter;stroke-opacity:1" d="M 128.438,435.152 103.901,461.442 z" id="boundary" inkscape:connector-curvature="0" />
	<path style="fill:none;stroke:red;stroke-width:1px;stroke-linecap:butt;stroke-linejoin:miter;stroke-opacity:1" d="M 53.0742,452.678 39.053,442.163 z" id="boundary" inkscape:connector-curvature="0" />
	<path style="fill:none;stroke:red;stroke-width:1px;stroke-linecap:butt;stroke-linejoin:miter;stroke-opacity:1" d="M 39.053,442.163 33.7951,424.636 z" id="boundary" inkscape:connector-curvature="0" />
	<path style="fill:none;stroke:red;stroke-width:1px;stroke-linecap:butt;stroke-linejoin:miter;stroke-opacity:1" d="M 165.244,440.41 196.792,435.152 z" id="boundary" inkscape:connector-curvature="0" />
	<path style="fill:none;stroke:red;stroke-width:1px;stroke-linecap:butt;stroke-linejoin:miter;stroke-opacity:1" d="M 214.318,435.152 196.792,435.152 z" id="boundary" inkscape:connector-curvature="0" />
	<path style="fill:none;stroke:red;stroke-width:1px;stroke-linecap:butt;stroke-linejoin:miter;stroke-opacity:1" d="M 196.792,435.152 181.018,426.389 z" id="boundary" inkscape:connector-curvature="0" />
	<path style="fill:none;stroke:red;stroke-width:1px;stroke-linecap:butt;stroke-linejoin:miter;stroke-opacity:1" d="M 119.675,452.678 103.901,461.442 z" id="boundary" inkscape:connector-curvature="0" />
	<path style="fill:none;stroke:red;stroke-width:1px;stroke-linecap:butt;stroke-linejoin:miter;stroke-opacity:1" d="M 128.438,435.152 119.675,452.678 z" id="boundary" inkscape:connector-curvature="0" />
	<path style="fill:none;stroke:red;stroke-width:1px;stroke-linecap:butt;stroke-linejoin:miter;stroke-opacity:1" d="M 300.198,426.389 284.424,435.152 z" id="boundary" inkscape:connector-curvature="0" />
	<path style="fill:none;stroke:red;stroke-width:1px;stroke-linecap:butt;stroke-linejoin:miter;stroke-opacity:1" d="M 317.724,426.389 300.198,426.389 z" id="boundary" inkscape:connector-curvature="0" />
	<path style="fill:none;stroke:red;stroke-width:1px;stroke-linecap:butt;stroke-linejoin:miter;stroke-opacity:1" d="M 384.325,408.862 368.551,417.625 z" id="boundary" inkscape:connector-curvature="0" />
	<path style="fill:none;stroke:red;stroke-width:1px;stroke-linecap:butt;stroke-linejoin:miter;stroke-opacity:1" d="M 307.208,443.915 300.198,426.389 z" id="boundary" inkscape:connector-curvature="0" />
	<path style="fill:none;stroke:red;stroke-width:1px;stroke-linecap:butt;stroke-linejoin:miter;stroke-opacity:1" d="M 335.251,426.389 317.724,426.389 z" id="boundary" inkscape:connector-curvature="0" />
	<path style="fill:none;stroke:red;stroke-width:1px;stroke-linecap:butt;stroke-linejoin:miter;stroke-opacity:1" d="M 230.092,426.389 251.124,426.389 z" id="boundary" inkscape:connector-curvature="0" />
	<path style="fill:none;stroke:red;stroke-width:1px;stroke-linecap:butt;stroke-linejoin:miter;stroke-opacity:1" d="M 237.102,443.915 230.092,426.389 z" id="boundary" inkscape:connector-curvature="0" />
	<path style="fill:none;stroke:red;stroke-width:1px;stroke-linecap:butt;stroke-linejoin:miter;stroke-opacity:1" d="M 400.099,400.099 415.873,391.336 z" id="boundary" inkscape:connector-curvature="0" />
	<path style="fill:none;stroke:red;stroke-width:1px;stroke-linecap:butt;stroke-linejoin:miter;stroke-opacity:1" d="M 415.873,391.336 431.647,400.099 z" id="boundary" inkscape:connector-curvature="0" />
	<path style="fill:none;stroke:red;stroke-width:1px;stroke-linecap:butt;stroke-linejoin:miter;stroke-opacity:1" d="M 400.099,400.099 384.325,408.862 z" id="boundary" inkscape:connector-curvature="0" />
	<path style="fill:none;stroke:red;stroke-width:1px;stroke-linecap:butt;stroke-linejoin:miter;stroke-opacity:1" d="M 431.647,400.099 433.399,417.625 z" id="boundary" inkscape:connector-curvature="0" />
	<path style="fill:none;stroke:red;stroke-width:1px;stroke-linecap:butt;stroke-linejoin:miter;stroke-opacity:1" d="M 433.399,417.625 433.399,435.152 z" id="boundary" inkscape:connector-curvature="0" />
	<path style="fill:none;stroke:red;stroke-width:1px;stroke-linecap:butt;stroke-linejoin:miter;stroke-opacity:1" d="M 284.424,435.152 266.898,435.152 z" id="boundary" inkscape:connector-curvature="0" />
	<path style="fill:none;stroke:red;stroke-width:1px;stroke-linecap:butt;stroke-linejoin:miter;stroke-opacity:1" d="M 266.898,435.152 251.124,426.389 z" id="boundary" inkscape:connector-curvature="0" />
	<path style="fill:none;stroke:red;stroke-width:1px;stroke-linecap:butt;stroke-linejoin:miter;stroke-opacity:1" d="M 237.102,443.915 266.898,435.152 z" id="boundary" inkscape:connector-curvature="0" />
	<path style="fill:none;stroke:red;stroke-width:1px;stroke-linecap:butt;stroke-linejoin:miter;stroke-opacity:1" d="M 335.251,426.389 352.777,426.389 z" id="boundary" inkscape:connector-curvature="0" />
	<path style="fill:none;stroke:red;stroke-width:1px;stroke-linecap:butt;stroke-linejoin:miter;stroke-opacity:1" d="M 352.777,426.389 307.208,443.915 z" id="boundary" inkscape:connector-curvature="0" />
	<path style="fill:none;stroke:red;stroke-width:1px;stroke-linecap:butt;stroke-linejoin:miter;stroke-opacity:1" d="M 442.163,450.926 445.668,468.452 z" id="boundary" inkscape:connector-curvature="0" />
	<path style="fill:none;stroke:red;stroke-width:1px;stroke-linecap:butt;stroke-linejoin:miter;stroke-opacity:1" d="M 433.399,435.152 442.163,450.926 z" id="boundary" inkscape:connector-curvature="0" />
	<path style="fill:none;stroke:red;stroke-width:1px;stroke-linecap:butt;stroke-linejoin:miter;stroke-opacity:1" d="M 459.689,478.968 445.668,468.452 z" id="boundary" inkscape:connector-curvature="0" />
	<path style="fill:none;stroke:red;stroke-width:1px;stroke-linecap:butt;stroke-linejoin:miter;stroke-opacity:1" d="M 352.777,426.389 368.551,417.625 z" id="boundary" inkscape:connector-curvature="0" />
	<path style="fill:none;stroke:red;stroke-width:1px;stroke-linecap:butt;stroke-linejoin:miter;stroke-opacity:1" d="M 459.689,478.968 475.463,487.731 z" id="boundary" inkscape:connector-curvature="0" />
	<path style="fill:none;stroke:red;stroke-width:1px;stroke-linecap:butt;stroke-linejoin:miter;stroke-opacity:1" d="M 505.258,4 522.784,4 z" id="boundary" inkscape:connector-curvature="0" />
	<path style="fill:none;stroke:red;stroke-width:1px;stroke-linecap:butt;stroke-linejoin:miter;stroke-opacity:1" d="M 489.484,12.7633 505.258,4 z" id="boundary" inkscape:connector-curvature="0" />
	<path style="fill:none;stroke:red;stroke-width:1px;stroke-linecap:butt;stroke-linejoin:miter;stroke-opacity:1" d="M 522.784,4 540.311,4 z" id="boundary" inkscape:connector-curvature="0" />
	<path style="fill:none;stroke:red;stroke-width:1px;stroke-linecap:butt;stroke-linejoin:miter;stroke-opacity:1" d="M 540.311,4 556.085,12.7633 z" id="boundary" inkscape:connector-curvature="0" />
	<path style="fill:none;stroke:red;stroke-width:1px;stroke-linecap:butt;stroke-linejoin:miter;stroke-opacity:1" d="M 556.085,12.7633 573.611,12.7633 z" id="boundary" inkscape:connector-curvature="0" />
	<path style="fill:none;stroke:red;stroke-width:1px;stroke-linecap:butt;stroke-linejoin:miter;stroke-opacity:1" d="M 573.611,12.7633 591.138,16.2686 z" id="boundary" inkscape:connector-curvature="0" />
	<path style="fill:none;stroke:red;stroke-width:1px;stroke-linecap:butt;stroke-linejoin:miter;stroke-opacity:1" d="M 626.191,25.0318 608.664,21.5265 z" id="boundary" inkscape:connector-curvature="0" />
	<path style="fill:none;stroke:red;stroke-width:1px;stroke-linecap:butt;stroke-linejoin:miter;stroke-opacity:1" d="M 608.664,21.5265 591.138,16.2686 z" id="boundary" inkscape:connector-curvature="0" />
	<path style="fill:none;stroke:red;stroke-width:1px;stroke-linecap:butt;stroke-linejoin:miter;stroke-opacity:1" d="M 626.191,25.0318 636.707,39.053 z" id="boundary" inkscape:connector-curvature="0" />
	<path style="fill:none;stroke:red;stroke-width:1px;stroke-linecap:butt;stroke-linejoin:miter;stroke-opacity:1" d="M 636.707,39.053 654.233,39.053 z" id="boundary" inkscape:connector-curvature="0" />
	<path style="fill:none;stroke:red;stroke-width:1px;stroke-linecap:butt;stroke-linejoin:miter;stroke-opacity:1" d="M 671.76,39.053 689.286,39.053 z" id="boundary" inkscape:connector-curvature="0" />
	<path style="fill:none;stroke:red;stroke-width:1px;stroke-linecap:butt;stroke-linejoin:miter;stroke-opacity:1" d="M 689.286,39.053 706.813,44.311 z" id="boundary" inkscape:connector-curvature="0" />
	<path style="fill:none;stroke:red;stroke-width:1px;stroke-linecap:butt;stroke-linejoin:miter;stroke-opacity:1" d="M 654.233,39.053 671.76,39.053 z" id="boundary" inkscape:connector-curvature="0" />
	<path style="fill:none;stroke:red;stroke-width:1px;stroke-linecap:butt;stroke-linejoin:miter;stroke-opacity:1" d="M 741.866,42.5583 759.392,44.311 z" id="boundary" inkscape:connector-curvature="0" />
	<path style="fill:none;stroke:red;stroke-width:1px;stroke-linecap:butt;stroke-linejoin:miter;stroke-opacity:1" d="M 759.392,44.311 759.392,61.8375 z" id="boundary" inkscape:connector-curvature="0" />
	<path style="fill:none;stroke:red;stroke-width:1px;stroke-linecap:butt;stroke-linejoin:miter;stroke-opacity:1" d="M 759.392,61.8375 759.392,84.6219 z" id="boundary" inkscape:connector-curvature="0" />
	<path style="fill:none;stroke:red;stroke-width:1px;stroke-linecap:butt;stroke-linejoin:miter;stroke-opacity:1" d="M 724.339,47.8163 741.866,42.5583 z" id="boundary" inkscape:connector-curvature="0" />
	<path style="fill:none;stroke:red;stroke-width:1px;stroke-linecap:butt;stroke-linejoin:miter;stroke-opacity:1" d="M 706.813,44.311 724.339,47.8163 z" id="boundary" inkscape:connector-curvature="0" />
	<path style="fill:none;stroke:red;stroke-width:1px;stroke-linecap:butt;stroke-linejoin:miter;stroke-opacity:1" d="M 759.392,84.6219 759.392,110.912 z" id="boundary" inkscape:connector-curvature="0" />
	<path style="fill:none;stroke:red;stroke-width:1px;stroke-linecap:butt;stroke-linejoin:miter;stroke-opacity:1" d="M 759.392,110.912 768.155,126.686 z" id="boundary" inkscape:connector-curvature="0" />
	<path style="fill:none;stroke:red;stroke-width:1px;stroke-linecap:butt;stroke-linejoin:miter;stroke-opacity:1" d="M 776.919,142.459 794.445,140.707 z" id="boundary" inkscape:connector-curvature="0" />
	<path style="fill:none;stroke:red;stroke-width:1px;stroke-linecap:butt;stroke-linejoin:miter;stroke-opacity:1" d="M 794.445,140.707 808.466,152.975 z" id="boundary" inkscape:connector-curvature="0" />
	<path style="fill:none;stroke:red;stroke-width:1px;stroke-linecap:butt;stroke-linejoin:miter;stroke-opacity:1" d="M 776.919,142.459 768.155,126.686 z" id="boundary" inkscape:connector-curvature="0" />
	<path style="fill:none;stroke:red;stroke-width:1px;stroke-linecap:butt;stroke-linejoin:miter;stroke-opacity:1" d="M 825.993,154.728 808.466,152.975 z" id="boundary" inkscape:connector-curvature="0" />
	<path style="fill:none;stroke:red;stroke-width:1px;stroke-linecap:butt;stroke-linejoin:miter;stroke-opacity:1" d="M 825.993,154.728 843.519,161.739 z" id="boundary" inkscape:connector-curvature="0" />
	<path style="fill:none;stroke:red;stroke-width:1px;stroke-linecap:butt;stroke-linejoin:miter;stroke-opacity:1" d="M 861.046,161.739 843.519,161.739 z" id="boundary" inkscape:connector-curvature="0" />
	<path style="fill:none;stroke:red;stroke-width:1px;stroke-linecap:butt;stroke-linejoin:miter;stroke-opacity:1" d="M 911.873,161.739 894.346,170.502 z" id="boundary" inkscape:connector-curvature="0" />
	<path style="fill:none;stroke:red;stroke-width:1px;stroke-linecap:butt;stroke-linejoin:miter;stroke-opacity:1" d="M 943.42,161.739 927.647,170.502 z" id="boundary" inkscape:connector-curvature="0" />
	<path style="fill:none;stroke:red;stroke-width:1px;stroke-linecap:butt;stroke-linejoin:miter;stroke-opacity:1" d="M 927.647,170.502 911.873,161.739 z" id="boundary" inkscape:connector-curvature="0" />
	<path style="fill:none;stroke:red;stroke-width:1px;stroke-linecap:butt;stroke-linejoin:miter;stroke-opacity:1" d="M 861.046,161.739 876.82,170.502 z" id="boundary" inkscape:connector-curvature="0" />
	<path style="fill:none;stroke:red;stroke-width:1px;stroke-linecap:butt;stroke-linejoin:miter;stroke-opacity:1" d="M 876.82,170.502 894.346,170.502 z" id="boundary" inkscape:connector-curvature="0" />
	<path style="fill:none;stroke:red;stroke-width:1px;stroke-linecap:butt;stroke-linejoin:miter;stroke-opacity:1" d="M 943.42,161.739 959.194,170.502 z" id="boundary" inkscape:connector-curvature="0" />
	<path style="fill:none;stroke:red;stroke-width:1px;stroke-linecap:butt;stroke-linejoin:miter;stroke-opacity:1" d="M 976.721,174.007 959.194,170.502 z" id="boundary" inkscape:connector-curvature="0" />
	<path style="fill:none;stroke:red;stroke-width:1px;stroke-linecap:butt;stroke-linejoin:miter;stroke-opacity:1" d="M 976.721,174.007 978.473,191.534 z" id="boundary" inkscape:connector-curvature="0" />
	<path style="fill:none;stroke:red;stroke-width:1px;stroke-linecap:butt;stroke-linejoin:miter;stroke-opacity:1" d="M 978.473,191.534 994.247,200.297 z" id="boundary" inkscape:connector-curvature="0" />
	<path style="fill:none;stroke:red;stroke-width:1px;stroke-linecap:butt;stroke-linejoin:miter;stroke-opacity:1" d="M 994.247,200.297 996,217.823 z" id="boundary" inkscape:connector-curvature="0" />
	<path style="fill:none;stroke:red;stroke-width:1px;stroke-linecap:butt;stroke-linejoin:miter;stroke-opacity:1" d="M 996,217.823 996,235.35 z" id="boundary" inkscape:connector-curvature="0" />
	<path style="fill:none;stroke:red;stroke-width:1px;stroke-linecap:butt;stroke-linejoin:miter;stroke-opacity:1" d="M 987.237,251.124 996,235.35 z" id="boundary" inkscape:connector-curvature="0" />
	<path style="fill:none;stroke:red;stroke-width:1px;stroke-linecap:butt;stroke-linejoin:miter;stroke-opacity:1" d="M 987.237,251.124 969.71,259.887 z" id="boundary" inkscape:connector-curvature="0" />
	<path style="fill:none;stroke:red;stroke-width:1px;stroke-linecap:butt;stroke-linejoin:miter;stroke-opacity:1" d="M 599.901,391.336 617.428,391.336 z" id="boundary" inkscape:connector-curvature="0" />
	<path style="fill:none;stroke:red;stroke-width:1px;stroke-linecap:butt;stroke-linejoin:miter;stroke-opacity:1" d="M 634.954,391.336 652.481,391.336 z" id="boundary" inkscape:connector-curvature="0" />
	<path style="fill:none;stroke:red;stroke-width:1px;stroke-linecap:butt;stroke-linejoin:miter;stroke-opacity:1" d="M 634.954,391.336 617.428,391.336 z" id="boundary" inkscape:connector-curvature="0" />
	<path style="fill:none;stroke:red;stroke-width:1px;stroke-linecap:butt;stroke-linejoin:miter;stroke-opacity:1" d="M 687.534,391.336 670.007,391.336 z" id="boundary" inkscape:connector-curvature="0" />
	<path style="fill:none;stroke:red;stroke-width:1px;stroke-linecap:butt;stroke-linejoin:miter;stroke-opacity:1" d="M 687.534,391.336 705.06,391.336 z" id="boundary" inkscape:connector-curvature="0" />
	<path style="fill:none;stroke:red;stroke-width:1px;stroke-linecap:butt;stroke-linejoin:miter;stroke-opacity:1" d="M 722.587,391.336 705.06,391.336 z" id="boundary" inkscape:connector-curvature="0" />
	<path style="fill:none;stroke:red;stroke-width:1px;stroke-linecap:butt;stroke-linejoin:miter;stroke-opacity:1" d="M 740.113,391.336 722.587,391.336 z" id="boundary" inkscape:connector-curvature="0" />
	<path style="fill:none;stroke:red;stroke-width:1px;stroke-linecap:butt;stroke-linejoin:miter;stroke-opacity:1" d="M 670.007,391.336 652.481,391.336 z" id="boundary" inkscape:connector-curvature="0" />
	<path style="fill:none;stroke:red;stroke-width:1px;stroke-linecap:butt;stroke-linejoin:miter;stroke-opacity:1" d="M 526.29,468.452 535.053,452.678 z" id="boundary" inkscape:connector-curvature="0" />
	<path style="fill:none;stroke:red;stroke-width:1px;stroke-linecap:butt;stroke-linejoin:miter;stroke-opacity:1" d="M 535.053,452.678 550.827,443.915 z" id="boundary" inkscape:connector-curvature="0" />
	<path style="fill:none;stroke:red;stroke-width:1px;stroke-linecap:butt;stroke-linejoin:miter;stroke-opacity:1" d="M 526.29,468.452 508.763,477.216 z" id="boundary" inkscape:connector-curvature="0" />
	<path style="fill:none;stroke:red;stroke-width:1px;stroke-linecap:butt;stroke-linejoin:miter;stroke-opacity:1" d="M 508.763,477.216 492.989,487.731 z" id="boundary" inkscape:connector-curvature="0" />
	<path style="fill:none;stroke:red;stroke-width:1px;stroke-linecap:butt;stroke-linejoin:miter;stroke-opacity:1" d="M 492.989,487.731 475.463,487.731 z" id="boundary" inkscape:connector-curvature="0" />
	<path style="fill:none;stroke:red;stroke-width:1px;stroke-linecap:butt;stroke-linejoin:miter;stroke-opacity:1" d="M 566.601,400.099 584.127,400.099 z" id="boundary" inkscape:connector-curvature="0" />
	<path style="fill:none;stroke:red;stroke-width:1px;stroke-linecap:butt;stroke-linejoin:miter;stroke-opacity:1" d="M 584.127,400.099 575.364,421.131 z" id="boundary" inkscape:connector-curvature="0" />
	<path style="fill:none;stroke:red;stroke-width:1px;stroke-linecap:butt;stroke-linejoin:miter;stroke-opacity:1" d="M 599.901,391.336 584.127,400.099 z" id="boundary" inkscape:connector-curvature="0" />
	<path style="fill:none;stroke:red;stroke-width:1px;stroke-linecap:butt;stroke-linejoin:miter;stroke-opacity:1" d="M 550.827,443.915 557.837,426.389 z" id="boundary" inkscape:connector-curvature="0" />
	<path style="fill:none;stroke:red;stroke-width:1px;stroke-linecap:butt;stroke-linejoin:miter;stroke-opacity:1" d="M 557.837,426.389 575.364,421.131 z" id="boundary" inkscape:connector-curvature="0" />
	<path style="fill:none;stroke:red;stroke-width:1px;stroke-linecap:butt;stroke-linejoin:miter;stroke-opacity:1" d="M 557.837,426.389 566.601,400.099 z" id="boundary" inkscape:connector-curvature="0" />
	<path style="fill:none;stroke:red;stroke-width:1px;stroke-linecap:butt;stroke-linejoin:miter;stroke-opacity:1" d="M 890.841,391.336 890.841,373.809 z" id="boundary" inkscape:connector-curvature="0" />
	<path style="fill:none;stroke:red;stroke-width:1px;stroke-linecap:butt;stroke-linejoin:miter;stroke-opacity:1" d="M 922.389,338.756 906.615,347.519 z" id="boundary" inkscape:connector-curvature="0" />
	<path style="fill:none;stroke:red;stroke-width:1px;stroke-linecap:butt;stroke-linejoin:miter;stroke-opacity:1" d="M 890.841,356.283 890.841,373.809 z" id="boundary" inkscape:connector-curvature="0" />
	<path style="fill:none;stroke:red;stroke-width:1px;stroke-linecap:butt;stroke-linejoin:miter;stroke-opacity:1" d="M 906.615,347.519 890.841,356.283 z" id="boundary" inkscape:connector-curvature="0" />
	<path style="fill:none;stroke:red;stroke-width:1px;stroke-linecap:butt;stroke-linejoin:miter;stroke-opacity:1" d="M 960.947,277.413 969.71,259.887 z" id="boundary" inkscape:connector-curvature="0" />
	<path style="fill:none;stroke:red;stroke-width:1px;stroke-linecap:butt;stroke-linejoin:miter;stroke-opacity:1" d="M 960.947,294.94 957.442,326.488 z" id="boundary" inkscape:connector-curvature="0" />
	<path style="fill:none;stroke:red;stroke-width:1px;stroke-linecap:butt;stroke-linejoin:miter;stroke-opacity:1" d="M 957.442,326.488 939.915,335.251 z" id="boundary" inkscape:connector-curvature="0" />
	<path style="fill:none;stroke:red;stroke-width:1px;stroke-linecap:butt;stroke-linejoin:miter;stroke-opacity:1" d="M 939.915,335.251 922.389,338.756 z" id="boundary" inkscape:connector-curvature="0" />
	<path style="fill:none;stroke:red;stroke-width:1px;stroke-linecap:butt;stroke-linejoin:miter;stroke-opacity:1" d="M 960.947,294.94 960.947,277.413 z" id="boundary" inkscape:connector-curvature="0" />
	<path style="fill:none;stroke:red;stroke-width:1px;stroke-linecap:butt;stroke-linejoin:miter;stroke-opacity:1" d="M 757.64,391.336 740.113,391.336 z" id="boundary" inkscape:connector-curvature="0" />
	<path style="fill:none;stroke:red;stroke-width:1px;stroke-linecap:butt;stroke-linejoin:miter;stroke-opacity:1" d="M 776.919,421.131 789.187,435.152 z" id="boundary" inkscape:connector-curvature="0" />
	<path style="fill:none;stroke:red;stroke-width:1px;stroke-linecap:butt;stroke-linejoin:miter;stroke-opacity:1" d="M 822.488,443.915 804.961,443.915 z" id="boundary" inkscape:connector-curvature="0" />
	<path style="fill:none;stroke:red;stroke-width:1px;stroke-linecap:butt;stroke-linejoin:miter;stroke-opacity:1" d="M 804.961,443.915 789.187,435.152 z" id="boundary" inkscape:connector-curvature="0" />
	<path style="fill:none;stroke:red;stroke-width:1px;stroke-linecap:butt;stroke-linejoin:miter;stroke-opacity:1" d="M 762.898,408.862 757.64,391.336 z" id="boundary" inkscape:connector-curvature="0" />
	<path style="fill:none;stroke:red;stroke-width:1px;stroke-linecap:butt;stroke-linejoin:miter;stroke-opacity:1" d="M 776.919,421.131 762.898,408.862 z" id="boundary" inkscape:connector-curvature="0" />
	<path style="fill:none;stroke:red;stroke-width:1px;stroke-linecap:butt;stroke-linejoin:miter;stroke-opacity:1" d="M 887.336,414.12 890.841,391.336 z" id="boundary" inkscape:connector-curvature="0" />
	<path style="fill:none;stroke:red;stroke-width:1px;stroke-linecap:butt;stroke-linejoin:miter;stroke-opacity:1" d="M 887.336,414.12 873.314,426.389 z" id="boundary" inkscape:connector-curvature="0" />
	<path style="fill:none;stroke:red;stroke-width:1px;stroke-linecap:butt;stroke-linejoin:miter;stroke-opacity:1" d="M 840.014,443.915 855.788,435.152 z" id="boundary" inkscape:connector-curvature="0" />
	<path style="fill:none;stroke:red;stroke-width:1px;stroke-linecap:butt;stroke-linejoin:miter;stroke-opacity:1" d="M 855.788,435.152 873.314,426.389 z" id="boundary" inkscape:connector-curvature="0" />
	<path style="fill:none;stroke:red;stroke-width:1px;stroke-linecap:butt;stroke-linejoin:miter;stroke-opacity:1" d="M 840.014,443.915 822.488,443.915 z" id="boundary" inkscape:connector-curvature="0" />
	<circle cx="4" cy="237.102" r="4" fill="#0" id="circle0"/>
	<circle cx="4" cy="254.629" r="4" fill="#0" id="circle1"/>
	<circle cx="12.7633" cy="270.403" r="4" fill="#0" id="circle2"/>
	<circle cx="12.7633" cy="287.929" r="4" fill="#0" id="circle3"/>
	<circle cx="18.0212" cy="223.081" r="4" fill="#0" id="circle4"/>
	<circle cx="21.5265" cy="303.703" r="4" fill="#0" id="circle5"/>
	<circle cx="21.5265" cy="321.23" r="4" fill="#0" id="circle6"/>
	<circle cx="21.5265" cy="338.756" r="4" fill="#0" id="circle7"/>
	<circle cx="21.5265" cy="356.283" r="4" fill="#0" id="circle8"/>
	<circle cx="21.5265" cy="373.809" r="4" fill="#0" id="circle9"/>
	<circle cx="30.2898" cy="389.583" r="4" fill="#0" id="circle10"/>
	<circle cx="30.2898" cy="407.11" r="4" fill="#0" id="circle11"/>
	<circle cx="33.7951" cy="424.636" r="4" fill="#0" id="circle12"/>
	<circle cx="35.5477" cy="214.318" r="4" fill="#0" id="circle13"/>
	<circle cx="39.053" cy="442.163" r="4" fill="#0" id="circle14"/>
	<circle cx="49.5689" cy="200.297" r="4" fill="#0" id="circle15"/>
	<circle cx="53.0742" cy="452.678" r="4" fill="#0" id="circle16"/>
	<circle cx="67.0954" cy="191.534" r="4" fill="#0" id="circle17"/>
	<circle cx="68.8481" cy="461.442" r="4" fill="#0" id="circle18"/>
	<circle cx="84.6219" cy="188.028" r="4" fill="#0" id="circle19"/>
	<circle cx="86.3746" cy="461.442" r="4" fill="#0" id="circle20"/>
	<circle cx="102.148" cy="182.77" r="4" fill="#0" id="circle21"/>
	<circle cx="103.901" cy="461.442" r="4" fill="#0" id="circle22"/>
	<circle cx="119.675" cy="179.265" r="4" fill="#0" id="circle23"/>
	<circle cx="119.675" cy="452.678" r="4" fill="#0" id="circle24"/>
	<circle cx="128.438" cy="435.152" r="4" fill="#0" id="circle25"/>
	<circle cx="137.201" cy="179.265" r="4" fill="#0" id="circle26"/>
	<circle cx="144.212" cy="443.915" r="4" fill="#0" id="circle27"/>
	<circle cx="154.728" cy="179.265" r="4" fill="#0" id="circle28"/>
	<circle cx="154.728" cy="426.389" r="4" fill="#0" id="circle29"/>
	<circle cx="165.244" cy="440.41" r="4" fill="#0" id="circle30"/>
	<circle cx="172.254" cy="179.265" r="4" fill="#0" id="circle31"/>
	<circle cx="181.018" cy="426.389" r="4" fill="#0" id="circle32"/>
	<circle cx="189.781" cy="179.265" r="4" fill="#0" id="circle33"/>
	<circle cx="196.792" cy="435.152" r="4" fill="#0" id="circle34"/>
	<circle cx="207.307" cy="179.265" r="4" fill="#0" id="circle35"/>
	<circle cx="214.318" cy="435.152" r="4" fill="#0" id="circle36"/>
	<circle cx="224.834" cy="179.265" r="4" fill="#0" id="circle37"/>
	<circle cx="230.092" cy="426.389" r="4" fill="#0" id="circle38"/>
	<circle cx="237.102" cy="443.915" r="4" fill="#0" id="circle39"/>
	<circle cx="242.36" cy="179.265" r="4" fill="#0" id="circle40"/>
	<circle cx="251.124" cy="426.389" r="4" fill="#0" id="circle41"/>
	<circle cx="259.887" cy="174.007" r="4" fill="#0" id="circle42"/>
	<circle cx="266.898" cy="149.47" r="4" fill="#0" id="circle43"/>
	<circle cx="266.898" cy="435.152" r="4" fill="#0" id="circle44"/>
	<circle cx="280.919" cy="135.449" r="4" fill="#0" id="circle45"/>
	<circle cx="284.424" cy="435.152" r="4" fill="#0" id="circle46"/>
	<circle cx="298.445" cy="126.686" r="4" fill="#0" id="circle47"/>
	<circle cx="300.198" cy="426.389" r="4" fill="#0" id="circle48"/>
	<circle cx="307.208" cy="443.915" r="4" fill="#0" id="circle49"/>
	<circle cx="315.972" cy="126.686" r="4" fill="#0" id="circle50"/>
	<circle cx="317.724" cy="426.389" r="4" fill="#0" id="circle51"/>
	<circle cx="333.498" cy="126.686" r="4" fill="#0" id="circle52"/>
	<circle cx="335.251" cy="426.389" r="4" fill="#0" id="circle53"/>
	<circle cx="347.519" cy="112.664" r="4" fill="#0" id="circle54"/>
	<circle cx="352.777" cy="426.389" r="4" fill="#0" id="circle55"/>
	<circle cx="361.541" cy="100.396" r="4" fill="#0" id="circle56"/>
	<circle cx="368.551" cy="417.625" r="4" fill="#0" id="circle57"/>
	<circle cx="379.067" cy="100.396" r="4" fill="#0" id="circle58"/>
	<circle cx="384.325" cy="408.862" r="4" fill="#0" id="circle59"/>
	<circle cx="394.841" cy="91.6325" r="4" fill="#0" id="circle60"/>
	<circle cx="400.099" cy="400.099" r="4" fill="#0" id="circle61"/>
	<circle cx="410.615" cy="100.396" r="4" fill="#0" id="circle62"/>
	<circle cx="415.873" cy="391.336" r="4" fill="#0" id="circle63"/>
	<circle cx="417.625" cy="117.922" r="4" fill="#0" id="circle64"/>
	<circle cx="431.647" cy="400.099" r="4" fill="#0" id="circle65"/>
	<circle cx="433.399" cy="126.686" r="4" fill="#0" id="circle66"/>
	<circle cx="433.399" cy="417.625" r="4" fill="#0" id="circle67"/>
	<circle cx="433.399" cy="435.152" r="4" fill="#0" id="circle68"/>
	<circle cx="442.163" cy="450.926" r="4" fill="#0" id="circle69"/>
	<circle cx="445.668" cy="468.452" r="4" fill="#0" id="circle70"/>
	<circle cx="449.173" cy="117.922" r="4" fill="#0" id="circle71"/>
	<circle cx="450.926" cy="53.0742" r="4" fill="#0" id="circle72"/>
	<circle cx="450.926" cy="70.6007" r="4" fill="#0" id="circle73"/>
	<circle cx="450.926" cy="88.1272" r="4" fill="#0" id="circle74"/>
	<circle cx="459.689" cy="35.5477" r="4" fill="#0" id="circle75"/>
	<circle cx="459.689" cy="478.968" r="4" fill="#0" id="circle76"/>
	<circle cx="473.71" cy="21.5265" r="4" fill="#0" id="circle77"/>
	<circle cx="475.463" cy="487.731" r="4" fill="#0" id="circle78"/>
	<circle cx="489.484" cy="12.7633" r="4" fill="#0" id="circle79"/>
	<circle cx="492.989" cy="487.731" r="4" fill="#0" id="circle80"/>
	<circle cx="505.258" cy="4" r="4" fill="#0" id="circle81"/>
	<circle cx="508.763" cy="477.216" r="4" fill="#0" id="circle82"/>
	<circle cx="522.784" cy="4" r="4" fill="#0" id="circle83"/>
	<circle cx="526.29" cy="468.452" r="4" fill="#0" id="circle84"/>
	<circle cx="535.053" cy="452.678" r="4" fill="#0" id="circle85"/>
	<circle cx="540.311" cy="4" r="4" fill="#0" id="circle86"/>
	<circle cx="550.827" cy="443.915" r="4" fill="#0" id="circle87"/>
	<circle cx="556.085" cy="12.7633" r="4" fill="#0" id="circle88"/>
	<circle cx="557.837" cy="426.389" r="4" fill="#0" id="circle89"/>
	<circle cx="566.601" cy="400.099" r="4" fill="#0" id="circle90"/>
	<circle cx="573.611" cy="12.7633" r="4" fill="#0" id="circle91"/>
	<circle cx="575.364" cy="421.131" r="4" fill="#0" id="circle92"/>
	<circle cx="584.127" cy="400.099" r="4" fill="#0" id="circle93"/>
	<circle cx="591.138" cy="16.2686" r="4" fill="#0" id="circle94"/>
	<circle cx="599.901" cy="391.336" r="4" fill="#0" id="circle95"/>
	<circle cx="608.664" cy="21.5265" r="4" fill="#0" id="circle96"/>
	<circle cx="617.428" cy="391.336" r="4" fill="#0" id="circle97"/>
	<circle cx="626.191" cy="25.0318" r="4" fill="#0" id="circle98"/>
	<circle cx="634.954" cy="391.336" r="4" fill="#0" id="circle99"/>
	<circle cx="636.707" cy="39.053" r="4" fill="#0" id="circle100"/>
	<circle cx="652.481" cy="391.336" r="4" fill="#0" id="circle101"/>
	<circle cx="654.233" cy="39.053" r="4" fill="#0" id="circle102"/>
	<circle cx="670.007" cy="391.336" r="4" fill="#0" id="circle103"/>
	<circle cx="671.76" cy="39.053" r="4" fill="#0" id="circle104"/>
	<circle cx="687.534" cy="391.336" r="4" fill="#0" id="circle105"/>
	<circle cx="689.286" cy="39.053" r="4" fill="#0" id="circle106"/>
	<circle cx="705.06" cy="391.336" r="4" fill="#0" id="circle107"/>
	<circle cx="706.813" cy="44.311" r="4" fill="#0" id="circle108"/>
	<circle cx="722.587" cy="391.336" r="4" fill="#0" id="circle109"/>
	<circle cx="724.339" cy="47.8163" r="4" fill="#0" id="circle110"/>
	<circle cx="740.113" cy="391.336" r="4" fill="#0" id="circle111"/>
	<circle cx="741.866" cy="42.5583" r="4" fill="#0" id="circle112"/>
	<circle cx="757.64" cy="391.336" r="4" fill="#0" id="circle113"/>
	<circle cx="759.392" cy="44.311" r="4" fill="#0" id="circle114"/>
	<circle cx="759.392" cy="61.8375" r="4" fill="#0" id="circle115"/>
	<circle cx="759.392" cy="84.6219" r="4" fill="#0" id="circle116"/>
	<circle cx="759.392" cy="110.912" r="4" fill="#0" id="circle117"/>
	<circle cx="762.898" cy="408.862" r="4" fill="#0" id="circle118"/>
	<circle cx="768.155" cy="126.686" r="4" fill="#0" id="circle119"/>
	<circle cx="776.919" cy="142.459" r="4" fill="#0" id="circle120"/>
	<circle cx="776.919" cy="421.131" r="4" fill="#0" id="circle121"/>
	<circle cx="789.187" cy="435.152" r="4" fill="#0" id="circle122"/>
	<circle cx="794.445" cy="140.707" r="4" fill="#0" id="circle123"/>
	<circle cx="804.961" cy="443.915" r="4" fill="#0" id="circle124"/>
	<circle cx="808.466" cy="152.975" r="4" fill="#0" id="circle125"/>
	<circle cx="822.488" cy="443.915" r="4" fill="#0" id="circle126"/>
	<circle cx="825.993" cy="154.728" r="4" fill="#0" id="circle127"/>
	<circle cx="840.014" cy="443.915" r="4" fill="#0" id="circle128"/>
	<circle cx="843.519" cy="161.739" r="4" fill="#0" id="circle129"/>
	<circle cx="855.788" cy="435.152" r="4" fill="#0" id="circle130"/>
	<circle cx="861.046" cy="161.739" r="4" fill="#0" id="circle131"/>
	<circle cx="873.314" cy="426.389" r="4" fill="#0" id="circle132"/>
	<circle cx="876.82" cy="170.502" r="4" fill="#0" id="circle133"/>
	<circle cx="887.336" cy="414.12" r="4" fill="#0" id="circle134"/>
	<circle cx="890.841" cy="356.283" r="4" fill="#0" id="circle135"/>
	<circle cx="890.841" cy="373.809" r="4" fill="#0" id="circle136"/>
	<circle cx="890.841" cy="391.336" r="4" fill="#0" id="circle137"/>
	<circle cx="894.346" cy="170.502" r="4" fill="#0" id="circle138"/>
	<circle cx="906.615" cy="347.519" r="4" fill="#0" id="circle139"/>
	<circle cx="911.873" cy="161.739" r="4" fill="#0" id="circle140"/>
	<circle cx="922.389" cy="338.756" r="4" fill="#0" id="circle141"/>
	<circle cx="927.647" cy="170.502" r="4" fill="#0" id="circle142"/>
	<circle cx="939.915" cy="335.251" r="4" fill="#0" id="circle143"/>
	<circle cx="943.42" cy="161.739" r="4" fill="#0" id="circle144"/>
	<circle cx="957.442" cy="326.488" r="4" fill="#0" id="circle145"/>
	<circle cx="959.194" cy="170.502" r="4" fill="#0" id="circle146"/>
	<circle cx="960.947" cy="277.413" r="4" fill="#0" id="circle147"/>
	<circle cx="960.947" cy="294.94" r="4" fill="#0" id="circle148"/>
	<circle cx="969.71" cy="259.887" r="4" fill="#0" id="circle149"/>
	<circle cx="976.721" cy="174.007" r="4" fill="#0" id="circle150"/>
	<circle cx="978.473" cy="191.534" r="4" fill="#0" id="circle151"/>
	<circle cx="987.237" cy="251.124" r="4" fill="#0" id="circle152"/>
	<circle cx="994.247" cy="200.297" r="4" fill="#0" id="circle153"/>
	<circle cx="996" cy="217.823" r="4" fill="#0" id="circle154"/>
	<circle cx="996" cy="235.35" r="4" fill="#0" id="circle155"/>
	</g>
</svg>