<?xml version="1.0" encoding="UTF-8" standalone="no"?>
<!-- Created with CurveBenchmark -->
<svg
	xmlns:dc="http://purl.org/dc/elements/1.1/"
	xmlns:cc="http://creativecommons.org/ns#"
	xmlns:rdf="http://www.w3.org/1999/02/22-rdf-syntax-ns#"
	xmlns:svg="http://www.w3.org/2000/svg"
	xmlns="http://www.w3.org/2000/svg"
	xmlns:sodipodi="http://sodipodi.sourceforge.net/DTD/sodipodi-0.dtd"
	xmlns:inkscape="http://www.inkscape.org/namespaces/inkscape"
	width="1000"
	height="1000"
	id="svg2"
	version="1.1"
	sodipodi:docname="manifold/nncrust-bell-20.png.txt">
<defs
	id="defs4" />
<metadata
	id="metadata7">
	<rdf:RDF>
		<cc:Work
			rdf:about="">
			<dc:format>image/svg+xml</dc:format>
			<dc:type
				rdf:resource="http://purl.org/dc/dcmitype/StillImage" />
			<dc:title></dc:title>
		</cc:Work>
	</rdf:RDF>
</metadata>
<g
	inkscape:label="Layer 1"
	inkscape:groupmode="layer"
	id="layer1">
	<path style="fill:none;stroke:red;stroke-width:1px;stroke-linecap:butt;stroke-linejoin:miter;stroke-opacity:1" d="M 169.848,349.58 169.848,357.294 z" id="boundary" inkscape:connector-curvature="0" />
	<path style="fill:none;stroke:red;stroke-width:1px;stroke-linecap:butt;stroke-linejoin:miter;stroke-opacity:1" d="M 169.848,357.294 165.991,368.865 z" id="boundary" inkscape:connector-curvature="0" />
	<path style="fill:none;stroke:red;stroke-width:1px;stroke-linecap:butt;stroke-linejoin:miter;stroke-opacity:1" d="M 169.848,349.58 173.705,338.009 z" id="boundary" inkscape:connector-curvature="0" />
	<path style="fill:none;stroke:red;stroke-width:1px;stroke-linecap:butt;stroke-linejoin:miter;stroke-opacity:1" d="M 173.705,314.868 173.705,322.582 z" id="boundary" inkscape:connector-curvature="0" />
	<path style="fill:none;stroke:red;stroke-width:1px;stroke-linecap:butt;stroke-linejoin:miter;stroke-opacity:1" d="M 173.705,314.868 177.561,307.154 z" id="boundary" inkscape:connector-curvature="0" />
	<path style="fill:none;stroke:red;stroke-width:1px;stroke-linecap:butt;stroke-linejoin:miter;stroke-opacity:1" d="M 173.705,330.295 173.705,322.582 z" id="boundary" inkscape:connector-curvature="0" />
	<path style="fill:none;stroke:red;stroke-width:1px;stroke-linecap:butt;stroke-linejoin:miter;stroke-opacity:1" d="M 173.705,330.295 173.705,338.009 z" id="boundary" inkscape:connector-curvature="0" />
	<path style="fill:none;stroke:red;stroke-width:1px;stroke-linecap:butt;stroke-linejoin:miter;stroke-opacity:1" d="M 162.134,388.149 162.134,395.863 z" id="boundary" inkscape:connector-curvature="0" />
	<path style="fill:none;stroke:red;stroke-width:1px;stroke-linecap:butt;stroke-linejoin:miter;stroke-opacity:1" d="M 162.134,395.863 158.277,403.577 z" id="boundary" inkscape:connector-curvature="0" />
	<path style="fill:none;stroke:red;stroke-width:1px;stroke-linecap:butt;stroke-linejoin:miter;stroke-opacity:1" d="M 162.134,388.149 165.991,376.579 z" id="boundary" inkscape:connector-curvature="0" />
	<path style="fill:none;stroke:red;stroke-width:1px;stroke-linecap:butt;stroke-linejoin:miter;stroke-opacity:1" d="M 165.991,368.865 165.991,376.579 z" id="boundary" inkscape:connector-curvature="0" />
	<path style="fill:none;stroke:red;stroke-width:1px;stroke-linecap:butt;stroke-linejoin:miter;stroke-opacity:1" d="M 158.277,411.291 158.277,403.577 z" id="boundary" inkscape:connector-curvature="0" />
	<path style="fill:none;stroke:red;stroke-width:1px;stroke-linecap:butt;stroke-linejoin:miter;stroke-opacity:1" d="M 181.418,230.016 181.418,237.729 z" id="boundary" inkscape:connector-curvature="0" />
	<path style="fill:none;stroke:red;stroke-width:1px;stroke-linecap:butt;stroke-linejoin:miter;stroke-opacity:1" d="M 181.418,230.016 181.418,222.302 z" id="boundary" inkscape:connector-curvature="0" />
	<path style="fill:none;stroke:red;stroke-width:1px;stroke-linecap:butt;stroke-linejoin:miter;stroke-opacity:1" d="M 181.418,222.302 185.275,214.588 z" id="boundary" inkscape:connector-curvature="0" />
	<path style="fill:none;stroke:red;stroke-width:1px;stroke-linecap:butt;stroke-linejoin:miter;stroke-opacity:1" d="M 181.418,237.729 181.418,245.443 z" id="boundary" inkscape:connector-curvature="0" />
	<path style="fill:none;stroke:red;stroke-width:1px;stroke-linecap:butt;stroke-linejoin:miter;stroke-opacity:1" d="M 181.418,253.157 181.418,245.443 z" id="boundary" inkscape:connector-curvature="0" />
	<path style="fill:none;stroke:red;stroke-width:1px;stroke-linecap:butt;stroke-linejoin:miter;stroke-opacity:1" d="M 177.561,299.44 177.561,307.154 z" id="boundary" inkscape:connector-curvature="0" />
	<path style="fill:none;stroke:red;stroke-width:1px;stroke-linecap:butt;stroke-linejoin:miter;stroke-opacity:1" d="M 177.561,291.726 177.561,299.44 z" id="boundary" inkscape:connector-curvature="0" />
	<path style="fill:none;stroke:red;stroke-width:1px;stroke-linecap:butt;stroke-linejoin:miter;stroke-opacity:1" d="M 177.561,291.726 181.418,284.012 z" id="boundary" inkscape:connector-curvature="0" />
	<path style="fill:none;stroke:red;stroke-width:1px;stroke-linecap:butt;stroke-linejoin:miter;stroke-opacity:1" d="M 181.418,260.871 181.418,268.585 z" id="boundary" inkscape:connector-curvature="0" />
	<path style="fill:none;stroke:red;stroke-width:1px;stroke-linecap:butt;stroke-linejoin:miter;stroke-opacity:1" d="M 181.418,253.157 181.418,260.871 z" id="boundary" inkscape:connector-curvature="0" />
	<path style="fill:none;stroke:red;stroke-width:1px;stroke-linecap:butt;stroke-linejoin:miter;stroke-opacity:1" d="M 119.708,534.712 123.565,526.998 z" id="boundary" inkscape:connector-curvature="0" />
	<path style="fill:none;stroke:red;stroke-width:1px;stroke-linecap:butt;stroke-linejoin:miter;stroke-opacity:1" d="M 119.708,542.426 119.708,534.712 z" id="boundary" inkscape:connector-curvature="0" />
	<path style="fill:none;stroke:red;stroke-width:1px;stroke-linecap:butt;stroke-linejoin:miter;stroke-opacity:1" d="M 127.421,519.285 127.421,511.571 z" id="boundary" inkscape:connector-curvature="0" />
	<path style="fill:none;stroke:red;stroke-width:1px;stroke-linecap:butt;stroke-linejoin:miter;stroke-opacity:1" d="M 127.421,511.571 131.278,500 z" id="boundary" inkscape:connector-curvature="0" />
	<path style="fill:none;stroke:red;stroke-width:1px;stroke-linecap:butt;stroke-linejoin:miter;stroke-opacity:1" d="M 131.278,492.286 131.278,500 z" id="boundary" inkscape:connector-curvature="0" />
	<path style="fill:none;stroke:red;stroke-width:1px;stroke-linecap:butt;stroke-linejoin:miter;stroke-opacity:1" d="M 127.421,519.285 123.565,526.998 z" id="boundary" inkscape:connector-curvature="0" />
	<path style="fill:none;stroke:red;stroke-width:1px;stroke-linecap:butt;stroke-linejoin:miter;stroke-opacity:1" d="M 119.708,542.426 119.708,550.14 z" id="boundary" inkscape:connector-curvature="0" />
	<path style="fill:none;stroke:red;stroke-width:1px;stroke-linecap:butt;stroke-linejoin:miter;stroke-opacity:1" d="M 119.708,550.14 119.708,557.854 z" id="boundary" inkscape:connector-curvature="0" />
	<path style="fill:none;stroke:red;stroke-width:1px;stroke-linecap:butt;stroke-linejoin:miter;stroke-opacity:1" d="M 119.708,565.568 119.708,557.854 z" id="boundary" inkscape:connector-curvature="0" />
	<path style="fill:none;stroke:red;stroke-width:1px;stroke-linecap:butt;stroke-linejoin:miter;stroke-opacity:1" d="M 119.708,565.568 115.851,577.138 z" id="boundary" inkscape:connector-curvature="0" />
	<path style="fill:none;stroke:red;stroke-width:1px;stroke-linecap:butt;stroke-linejoin:miter;stroke-opacity:1" d="M 115.851,577.138 111.994,584.852 z" id="boundary" inkscape:connector-curvature="0" />
	<path style="fill:none;stroke:red;stroke-width:1px;stroke-linecap:butt;stroke-linejoin:miter;stroke-opacity:1" d="M 142.849,446.003 146.706,438.289 z" id="boundary" inkscape:connector-curvature="0" />
	<path style="fill:none;stroke:red;stroke-width:1px;stroke-linecap:butt;stroke-linejoin:miter;stroke-opacity:1" d="M 142.849,453.717 142.849,446.003 z" id="boundary" inkscape:connector-curvature="0" />
	<path style="fill:none;stroke:red;stroke-width:1px;stroke-linecap:butt;stroke-linejoin:miter;stroke-opacity:1" d="M 150.563,426.719 146.706,438.289 z" id="boundary" inkscape:connector-curvature="0" />
	<path style="fill:none;stroke:red;stroke-width:1px;stroke-linecap:butt;stroke-linejoin:miter;stroke-opacity:1" d="M 150.563,426.719 154.42,419.005 z" id="boundary" inkscape:connector-curvature="0" />
	<path style="fill:none;stroke:red;stroke-width:1px;stroke-linecap:butt;stroke-linejoin:miter;stroke-opacity:1" d="M 158.277,411.291 154.42,419.005 z" id="boundary" inkscape:connector-curvature="0" />
	<path style="fill:none;stroke:red;stroke-width:1px;stroke-linecap:butt;stroke-linejoin:miter;stroke-opacity:1" d="M 135.135,476.858 135.135,484.572 z" id="boundary" inkscape:connector-curvature="0" />
	<path style="fill:none;stroke:red;stroke-width:1px;stroke-linecap:butt;stroke-linejoin:miter;stroke-opacity:1" d="M 135.135,484.572 131.278,492.286 z" id="boundary" inkscape:connector-curvature="0" />
	<path style="fill:none;stroke:red;stroke-width:1px;stroke-linecap:butt;stroke-linejoin:miter;stroke-opacity:1" d="M 135.135,469.145 135.135,476.858 z" id="boundary" inkscape:connector-curvature="0" />
	<path style="fill:none;stroke:red;stroke-width:1px;stroke-linecap:butt;stroke-linejoin:miter;stroke-opacity:1" d="M 135.135,469.145 138.992,461.431 z" id="boundary" inkscape:connector-curvature="0" />
	<path style="fill:none;stroke:red;stroke-width:1px;stroke-linecap:butt;stroke-linejoin:miter;stroke-opacity:1" d="M 138.992,461.431 142.849,453.717 z" id="boundary" inkscape:connector-curvature="0" />
	<path style="fill:none;stroke:red;stroke-width:1px;stroke-linecap:butt;stroke-linejoin:miter;stroke-opacity:1" d="M 258.557,64.168 262.414,56.4541 z" id="boundary" inkscape:connector-curvature="0" />
	<path style="fill:none;stroke:red;stroke-width:1px;stroke-linecap:butt;stroke-linejoin:miter;stroke-opacity:1" d="M 262.414,56.4541 268.585,50.283 z" id="boundary" inkscape:connector-curvature="0" />
	<path style="fill:none;stroke:red;stroke-width:1px;stroke-linecap:butt;stroke-linejoin:miter;stroke-opacity:1" d="M 274.756,44.112 280.927,38.7123 z" id="boundary" inkscape:connector-curvature="0" />
	<path style="fill:none;stroke:red;stroke-width:1px;stroke-linecap:butt;stroke-linejoin:miter;stroke-opacity:1" d="M 280.927,38.7123 287.869,34.8554 z" id="boundary" inkscape:connector-curvature="0" />
	<path style="fill:none;stroke:red;stroke-width:1px;stroke-linecap:butt;stroke-linejoin:miter;stroke-opacity:1" d="M 294.04,28.6843 287.869,34.8554 z" id="boundary" inkscape:connector-curvature="0" />
	<path style="fill:none;stroke:red;stroke-width:1px;stroke-linecap:butt;stroke-linejoin:miter;stroke-opacity:1" d="M 268.585,50.283 274.756,44.112 z" id="boundary" inkscape:connector-curvature="0" />
	<path style="fill:none;stroke:red;stroke-width:1px;stroke-linecap:butt;stroke-linejoin:miter;stroke-opacity:1" d="M 250.843,83.4526 250.843,91.1664 z" id="boundary" inkscape:connector-curvature="0" />
	<path style="fill:none;stroke:red;stroke-width:1px;stroke-linecap:butt;stroke-linejoin:miter;stroke-opacity:1" d="M 250.843,91.1664 246.986,102.737 z" id="boundary" inkscape:connector-curvature="0" />
	<path style="fill:none;stroke:red;stroke-width:1px;stroke-linecap:butt;stroke-linejoin:miter;stroke-opacity:1" d="M 254.7,71.8818 258.557,64.168 z" id="boundary" inkscape:connector-curvature="0" />
	<path style="fill:none;stroke:red;stroke-width:1px;stroke-linecap:butt;stroke-linejoin:miter;stroke-opacity:1" d="M 250.843,83.4526 254.7,71.8818 z" id="boundary" inkscape:connector-curvature="0" />
	<path style="fill:none;stroke:red;stroke-width:1px;stroke-linecap:butt;stroke-linejoin:miter;stroke-opacity:1" d="M 250.843,109.68 246.986,102.737 z" id="boundary" inkscape:connector-curvature="0" />
	<path style="fill:none;stroke:red;stroke-width:1px;stroke-linecap:butt;stroke-linejoin:miter;stroke-opacity:1" d="M 336.467,4 344.18,4 z" id="boundary" inkscape:connector-curvature="0" />
	<path style="fill:none;stroke:red;stroke-width:1px;stroke-linecap:butt;stroke-linejoin:miter;stroke-opacity:1" d="M 351.894,4 359.608,4 z" id="boundary" inkscape:connector-curvature="0" />
	<path style="fill:none;stroke:red;stroke-width:1px;stroke-linecap:butt;stroke-linejoin:miter;stroke-opacity:1" d="M 344.18,4 351.894,4 z" id="boundary" inkscape:connector-curvature="0" />
	<path style="fill:none;stroke:red;stroke-width:1px;stroke-linecap:butt;stroke-linejoin:miter;stroke-opacity:1" d="M 305.611,17.1135 300.212,23.2846 z" id="boundary" inkscape:connector-curvature="0" />
	<path style="fill:none;stroke:red;stroke-width:1px;stroke-linecap:butt;stroke-linejoin:miter;stroke-opacity:1" d="M 300.212,23.2846 294.04,28.6843 z" id="boundary" inkscape:connector-curvature="0" />
	<path style="fill:none;stroke:red;stroke-width:1px;stroke-linecap:butt;stroke-linejoin:miter;stroke-opacity:1" d="M 305.611,17.1135 313.325,13.2566 z" id="boundary" inkscape:connector-curvature="0" />
	<path style="fill:none;stroke:red;stroke-width:1px;stroke-linecap:butt;stroke-linejoin:miter;stroke-opacity:1" d="M 313.325,13.2566 321.039,9.39969 z" id="boundary" inkscape:connector-curvature="0" />
	<path style="fill:none;stroke:red;stroke-width:1px;stroke-linecap:butt;stroke-linejoin:miter;stroke-opacity:1" d="M 328.753,5.54277 336.467,4 z" id="boundary" inkscape:connector-curvature="0" />
	<path style="fill:none;stroke:red;stroke-width:1px;stroke-linecap:butt;stroke-linejoin:miter;stroke-opacity:1" d="M 321.039,9.39969 328.753,5.54277 z" id="boundary" inkscape:connector-curvature="0" />
	<path style="fill:none;stroke:red;stroke-width:1px;stroke-linecap:butt;stroke-linejoin:miter;stroke-opacity:1" d="M 191.446,200.703 195.303,192.989 z" id="boundary" inkscape:connector-curvature="0" />
	<path style="fill:none;stroke:red;stroke-width:1px;stroke-linecap:butt;stroke-linejoin:miter;stroke-opacity:1" d="M 195.303,192.989 201.474,186.818 z" id="boundary" inkscape:connector-curvature="0" />
	<path style="fill:none;stroke:red;stroke-width:1px;stroke-linecap:butt;stroke-linejoin:miter;stroke-opacity:1" d="M 191.446,200.703 185.275,206.874 z" id="boundary" inkscape:connector-curvature="0" />
	<path style="fill:none;stroke:red;stroke-width:1px;stroke-linecap:butt;stroke-linejoin:miter;stroke-opacity:1" d="M 201.474,186.818 207.645,181.418 z" id="boundary" inkscape:connector-curvature="0" />
	<path style="fill:none;stroke:red;stroke-width:1px;stroke-linecap:butt;stroke-linejoin:miter;stroke-opacity:1" d="M 207.645,181.418 214.588,177.561 z" id="boundary" inkscape:connector-curvature="0" />
	<path style="fill:none;stroke:red;stroke-width:1px;stroke-linecap:butt;stroke-linejoin:miter;stroke-opacity:1" d="M 181.418,268.585 181.418,276.299 z" id="boundary" inkscape:connector-curvature="0" />
	<path style="fill:none;stroke:red;stroke-width:1px;stroke-linecap:butt;stroke-linejoin:miter;stroke-opacity:1" d="M 229.244,173.705 236.958,170.619 z" id="boundary" inkscape:connector-curvature="0" />
	<path style="fill:none;stroke:red;stroke-width:1px;stroke-linecap:butt;stroke-linejoin:miter;stroke-opacity:1" d="M 185.275,214.588 185.275,206.874 z" id="boundary" inkscape:connector-curvature="0" />
	<path style="fill:none;stroke:red;stroke-width:1px;stroke-linecap:butt;stroke-linejoin:miter;stroke-opacity:1" d="M 181.418,284.012 181.418,276.299 z" id="boundary" inkscape:connector-curvature="0" />
	<path style="fill:none;stroke:red;stroke-width:1px;stroke-linecap:butt;stroke-linejoin:miter;stroke-opacity:1" d="M 250.843,109.68 254.7,116.622 z" id="boundary" inkscape:connector-curvature="0" />
	<path style="fill:none;stroke:red;stroke-width:1px;stroke-linecap:butt;stroke-linejoin:miter;stroke-opacity:1" d="M 254.7,116.622 257.014,124.336 z" id="boundary" inkscape:connector-curvature="0" />
	<path style="fill:none;stroke:red;stroke-width:1px;stroke-linecap:butt;stroke-linejoin:miter;stroke-opacity:1" d="M 257.014,124.336 258.557,132.05 z" id="boundary" inkscape:connector-curvature="0" />
	<path style="fill:none;stroke:red;stroke-width:1px;stroke-linecap:butt;stroke-linejoin:miter;stroke-opacity:1" d="M 258.557,139.764 258.557,132.05 z" id="boundary" inkscape:connector-curvature="0" />
	<path style="fill:none;stroke:red;stroke-width:1px;stroke-linecap:butt;stroke-linejoin:miter;stroke-opacity:1" d="M 258.557,139.764 254.7,152.877 z" id="boundary" inkscape:connector-curvature="0" />
	<path style="fill:none;stroke:red;stroke-width:1px;stroke-linecap:butt;stroke-linejoin:miter;stroke-opacity:1" d="M 229.244,173.705 221.53,173.705 z" id="boundary" inkscape:connector-curvature="0" />
	<path style="fill:none;stroke:red;stroke-width:1px;stroke-linecap:butt;stroke-linejoin:miter;stroke-opacity:1" d="M 214.588,177.561 221.53,173.705 z" id="boundary" inkscape:connector-curvature="0" />
	<path style="fill:none;stroke:red;stroke-width:1px;stroke-linecap:butt;stroke-linejoin:miter;stroke-opacity:1" d="M 254.7,152.877 250.843,160.591 z" id="boundary" inkscape:connector-curvature="0" />
	<path style="fill:none;stroke:red;stroke-width:1px;stroke-linecap:butt;stroke-linejoin:miter;stroke-opacity:1" d="M 250.843,160.591 244.672,166.762 z" id="boundary" inkscape:connector-curvature="0" />
	<path style="fill:none;stroke:red;stroke-width:1px;stroke-linecap:butt;stroke-linejoin:miter;stroke-opacity:1" d="M 244.672,166.762 236.958,170.619 z" id="boundary" inkscape:connector-curvature="0" />
	<path style="fill:none;stroke:red;stroke-width:1px;stroke-linecap:butt;stroke-linejoin:miter;stroke-opacity:1" d="M 54.14,742.986 54.14,750.7 z" id="boundary" inkscape:connector-curvature="0" />
	<path style="fill:none;stroke:red;stroke-width:1px;stroke-linecap:butt;stroke-linejoin:miter;stroke-opacity:1" d="M 54.14,750.7 50.283,758.414 z" id="boundary" inkscape:connector-curvature="0" />
	<path style="fill:none;stroke:red;stroke-width:1px;stroke-linecap:butt;stroke-linejoin:miter;stroke-opacity:1" d="M 54.14,742.986 57.9969,735.272 z" id="boundary" inkscape:connector-curvature="0" />
	<path style="fill:none;stroke:red;stroke-width:1px;stroke-linecap:butt;stroke-linejoin:miter;stroke-opacity:1" d="M 65.7107,715.988 61.8538,727.558 z" id="boundary" inkscape:connector-curvature="0" />
	<path style="fill:none;stroke:red;stroke-width:1px;stroke-linecap:butt;stroke-linejoin:miter;stroke-opacity:1" d="M 61.8538,727.558 57.9969,735.272 z" id="boundary" inkscape:connector-curvature="0" />
	<path style="fill:none;stroke:red;stroke-width:1px;stroke-linecap:butt;stroke-linejoin:miter;stroke-opacity:1" d="M 65.7107,715.988 69.5677,708.274 z" id="boundary" inkscape:connector-curvature="0" />
	<path style="fill:none;stroke:red;stroke-width:1px;stroke-linecap:butt;stroke-linejoin:miter;stroke-opacity:1" d="M 29.4557,790.812 34.8554,781.555 z" id="boundary" inkscape:connector-curvature="0" />
	<path style="fill:none;stroke:red;stroke-width:1px;stroke-linecap:butt;stroke-linejoin:miter;stroke-opacity:1" d="M 38.7123,773.841 34.8554,781.555 z" id="boundary" inkscape:connector-curvature="0" />
	<path style="fill:none;stroke:red;stroke-width:1px;stroke-linecap:butt;stroke-linejoin:miter;stroke-opacity:1" d="M 50.283,758.414 44.8834,767.67 z" id="boundary" inkscape:connector-curvature="0" />
	<path style="fill:none;stroke:red;stroke-width:1px;stroke-linecap:butt;stroke-linejoin:miter;stroke-opacity:1" d="M 44.8834,767.67 38.7123,773.841 z" id="boundary" inkscape:connector-curvature="0" />
	<path style="fill:none;stroke:red;stroke-width:1px;stroke-linecap:butt;stroke-linejoin:miter;stroke-opacity:1" d="M 88.8523,650.42 92.7092,642.706 z" id="boundary" inkscape:connector-curvature="0" />
	<path style="fill:none;stroke:red;stroke-width:1px;stroke-linecap:butt;stroke-linejoin:miter;stroke-opacity:1" d="M 100.423,623.421 96.5661,634.992 z" id="boundary" inkscape:connector-curvature="0" />
	<path style="fill:none;stroke:red;stroke-width:1px;stroke-linecap:butt;stroke-linejoin:miter;stroke-opacity:1" d="M 96.5661,634.992 92.7092,642.706 z" id="boundary" inkscape:connector-curvature="0" />
	<path style="fill:none;stroke:red;stroke-width:1px;stroke-linecap:butt;stroke-linejoin:miter;stroke-opacity:1" d="M 104.28,611.851 100.423,623.421 z" id="boundary" inkscape:connector-curvature="0" />
	<path style="fill:none;stroke:red;stroke-width:1px;stroke-linecap:butt;stroke-linejoin:miter;stroke-opacity:1" d="M 69.5677,708.274 73.4246,696.703 z" id="boundary" inkscape:connector-curvature="0" />
	<path style="fill:none;stroke:red;stroke-width:1px;stroke-linecap:butt;stroke-linejoin:miter;stroke-opacity:1" d="M 73.4246,696.703 77.2815,688.989 z" id="boundary" inkscape:connector-curvature="0" />
	<path style="fill:none;stroke:red;stroke-width:1px;stroke-linecap:butt;stroke-linejoin:miter;stroke-opacity:1" d="M 84.9953,661.991 84.9953,669.705 z" id="boundary" inkscape:connector-curvature="0" />
	<path style="fill:none;stroke:red;stroke-width:1px;stroke-linecap:butt;stroke-linejoin:miter;stroke-opacity:1" d="M 84.9953,669.705 81.1384,681.275 z" id="boundary" inkscape:connector-curvature="0" />
	<path style="fill:none;stroke:red;stroke-width:1px;stroke-linecap:butt;stroke-linejoin:miter;stroke-opacity:1" d="M 81.1384,681.275 77.2815,688.989 z" id="boundary" inkscape:connector-curvature="0" />
	<path style="fill:none;stroke:red;stroke-width:1px;stroke-linecap:butt;stroke-linejoin:miter;stroke-opacity:1" d="M 84.9953,661.991 88.8523,650.42 z" id="boundary" inkscape:connector-curvature="0" />
	<path style="fill:none;stroke:red;stroke-width:1px;stroke-linecap:butt;stroke-linejoin:miter;stroke-opacity:1" d="M 29.4557,790.812 23.2846,796.983 z" id="boundary" inkscape:connector-curvature="0" />
	<path style="fill:none;stroke:red;stroke-width:1px;stroke-linecap:butt;stroke-linejoin:miter;stroke-opacity:1" d="M 7.85692,831.695 11.7138,820.124 z" id="boundary" inkscape:connector-curvature="0" />
	<path style="fill:none;stroke:red;stroke-width:1px;stroke-linecap:butt;stroke-linejoin:miter;stroke-opacity:1" d="M 7.85692,831.695 4,839.409 z" id="boundary" inkscape:connector-curvature="0" />
	<path style="fill:none;stroke:red;stroke-width:1px;stroke-linecap:butt;stroke-linejoin:miter;stroke-opacity:1" d="M 11.7138,820.124 15.5708,812.411 z" id="boundary" inkscape:connector-curvature="0" />
	<path style="fill:none;stroke:red;stroke-width:1px;stroke-linecap:butt;stroke-linejoin:miter;stroke-opacity:1" d="M 23.2846,796.983 19.4277,804.697 z" id="boundary" inkscape:connector-curvature="0" />
	<path style="fill:none;stroke:red;stroke-width:1px;stroke-linecap:butt;stroke-linejoin:miter;stroke-opacity:1" d="M 36.3981,861.008 29.4557,857.151 z" id="boundary" inkscape:connector-curvature="0" />
	<path style="fill:none;stroke:red;stroke-width:1px;stroke-linecap:butt;stroke-linejoin:miter;stroke-opacity:1" d="M 19.4277,804.697 15.5708,812.411 z" id="boundary" inkscape:connector-curvature="0" />
	<path style="fill:none;stroke:red;stroke-width:1px;stroke-linecap:butt;stroke-linejoin:miter;stroke-opacity:1" d="M 8.6283,845.58 4,839.409 z" id="boundary" inkscape:connector-curvature="0" />
	<path style="fill:none;stroke:red;stroke-width:1px;stroke-linecap:butt;stroke-linejoin:miter;stroke-opacity:1" d="M 15.5708,849.437 22.5132,853.294 z" id="boundary" inkscape:connector-curvature="0" />
	<path style="fill:none;stroke:red;stroke-width:1px;stroke-linecap:butt;stroke-linejoin:miter;stroke-opacity:1" d="M 15.5708,849.437 8.6283,845.58 z" id="boundary" inkscape:connector-curvature="0" />
	<path style="fill:none;stroke:red;stroke-width:1px;stroke-linecap:butt;stroke-linejoin:miter;stroke-opacity:1" d="M 22.5132,853.294 29.4557,857.151 z" id="boundary" inkscape:connector-curvature="0" />
	<path style="fill:none;stroke:red;stroke-width:1px;stroke-linecap:butt;stroke-linejoin:miter;stroke-opacity:1" d="M 36.3981,861.008 42.5692,865.636 z" id="boundary" inkscape:connector-curvature="0" />
	<path style="fill:none;stroke:red;stroke-width:1px;stroke-linecap:butt;stroke-linejoin:miter;stroke-opacity:1" d="M 42.5692,865.636 47.9689,871.807 z" id="boundary" inkscape:connector-curvature="0" />
	<path style="fill:none;stroke:red;stroke-width:1px;stroke-linecap:butt;stroke-linejoin:miter;stroke-opacity:1" d="M 55.6827,872.579 47.9689,871.807 z" id="boundary" inkscape:connector-curvature="0" />
	<path style="fill:none;stroke:red;stroke-width:1px;stroke-linecap:butt;stroke-linejoin:miter;stroke-opacity:1" d="M 63.3966,872.579 55.6827,872.579 z" id="boundary" inkscape:connector-curvature="0" />
	<path style="fill:none;stroke:red;stroke-width:1px;stroke-linecap:butt;stroke-linejoin:miter;stroke-opacity:1" d="M 63.3966,872.579 70.339,876.435 z" id="boundary" inkscape:connector-curvature="0" />
	<path style="fill:none;stroke:red;stroke-width:1px;stroke-linecap:butt;stroke-linejoin:miter;stroke-opacity:1" d="M 70.339,876.435 77.2815,880.292 z" id="boundary" inkscape:connector-curvature="0" />
	<path style="fill:none;stroke:red;stroke-width:1px;stroke-linecap:butt;stroke-linejoin:miter;stroke-opacity:1" d="M 77.2815,880.292 84.224,884.149 z" id="boundary" inkscape:connector-curvature="0" />
	<path style="fill:none;stroke:red;stroke-width:1px;stroke-linecap:butt;stroke-linejoin:miter;stroke-opacity:1" d="M 91.1664,888.006 98.8802,891.092 z" id="boundary" inkscape:connector-curvature="0" />
	<path style="fill:none;stroke:red;stroke-width:1px;stroke-linecap:butt;stroke-linejoin:miter;stroke-opacity:1" d="M 98.8802,891.092 105.823,894.949 z" id="boundary" inkscape:connector-curvature="0" />
	<path style="fill:none;stroke:red;stroke-width:1px;stroke-linecap:butt;stroke-linejoin:miter;stroke-opacity:1" d="M 91.1664,888.006 84.224,884.149 z" id="boundary" inkscape:connector-curvature="0" />
	<path style="fill:none;stroke:red;stroke-width:1px;stroke-linecap:butt;stroke-linejoin:miter;stroke-opacity:1" d="M 113.537,895.72 105.823,894.949 z" id="boundary" inkscape:connector-curvature="0" />
	<path style="fill:none;stroke:red;stroke-width:1px;stroke-linecap:butt;stroke-linejoin:miter;stroke-opacity:1" d="M 104.28,611.851 108.137,604.137 z" id="boundary" inkscape:connector-curvature="0" />
	<path style="fill:none;stroke:red;stroke-width:1px;stroke-linecap:butt;stroke-linejoin:miter;stroke-opacity:1" d="M 108.137,596.423 108.137,604.137 z" id="boundary" inkscape:connector-curvature="0" />
	<path style="fill:none;stroke:red;stroke-width:1px;stroke-linecap:butt;stroke-linejoin:miter;stroke-opacity:1" d="M 108.137,596.423 111.994,584.852 z" id="boundary" inkscape:connector-curvature="0" />
	<path style="fill:none;stroke:red;stroke-width:1px;stroke-linecap:butt;stroke-linejoin:miter;stroke-opacity:1" d="M 128.193,899.577 120.479,899.577 z" id="boundary" inkscape:connector-curvature="0" />
	<path style="fill:none;stroke:red;stroke-width:1px;stroke-linecap:butt;stroke-linejoin:miter;stroke-opacity:1" d="M 120.479,899.577 113.537,895.72 z" id="boundary" inkscape:connector-curvature="0" />
	<path style="fill:none;stroke:red;stroke-width:1px;stroke-linecap:butt;stroke-linejoin:miter;stroke-opacity:1" d="M 128.193,899.577 135.135,903.434 z" id="boundary" inkscape:connector-curvature="0" />
	<path style="fill:none;stroke:red;stroke-width:1px;stroke-linecap:butt;stroke-linejoin:miter;stroke-opacity:1" d="M 142.078,907.291 149.792,907.291 z" id="boundary" inkscape:connector-curvature="0" />
	<path style="fill:none;stroke:red;stroke-width:1px;stroke-linecap:butt;stroke-linejoin:miter;stroke-opacity:1" d="M 142.078,907.291 135.135,903.434 z" id="boundary" inkscape:connector-curvature="0" />
	<path style="fill:none;stroke:red;stroke-width:1px;stroke-linecap:butt;stroke-linejoin:miter;stroke-opacity:1" d="M 157.505,907.291 149.792,907.291 z" id="boundary" inkscape:connector-curvature="0" />
	<path style="fill:none;stroke:red;stroke-width:1px;stroke-linecap:butt;stroke-linejoin:miter;stroke-opacity:1" d="M 165.219,907.291 157.505,907.291 z" id="boundary" inkscape:connector-curvature="0" />
	<path style="fill:none;stroke:red;stroke-width:1px;stroke-linecap:butt;stroke-linejoin:miter;stroke-opacity:1" d="M 165.219,907.291 172.162,911.148 z" id="boundary" inkscape:connector-curvature="0" />
	<path style="fill:none;stroke:red;stroke-width:1px;stroke-linecap:butt;stroke-linejoin:miter;stroke-opacity:1" d="M 186.818,917.319 179.104,915.005 z" id="boundary" inkscape:connector-curvature="0" />
	<path style="fill:none;stroke:red;stroke-width:1px;stroke-linecap:butt;stroke-linejoin:miter;stroke-opacity:1" d="M 179.104,915.005 172.162,911.148 z" id="boundary" inkscape:connector-curvature="0" />
	<path style="fill:none;stroke:red;stroke-width:1px;stroke-linecap:butt;stroke-linejoin:miter;stroke-opacity:1" d="M 194.532,918.862 186.818,917.319 z" id="boundary" inkscape:connector-curvature="0" />
	<path style="fill:none;stroke:red;stroke-width:1px;stroke-linecap:butt;stroke-linejoin:miter;stroke-opacity:1" d="M 194.532,918.862 202.246,921.176 z" id="boundary" inkscape:connector-curvature="0" />
	<path style="fill:none;stroke:red;stroke-width:1px;stroke-linecap:butt;stroke-linejoin:miter;stroke-opacity:1" d="M 217.673,922.719 209.96,922.719 z" id="boundary" inkscape:connector-curvature="0" />
	<path style="fill:none;stroke:red;stroke-width:1px;stroke-linecap:butt;stroke-linejoin:miter;stroke-opacity:1" d="M 209.96,922.719 202.246,921.176 z" id="boundary" inkscape:connector-curvature="0" />
	<path style="fill:none;stroke:red;stroke-width:1px;stroke-linecap:butt;stroke-linejoin:miter;stroke-opacity:1" d="M 217.673,922.719 224.616,926.575 z" id="boundary" inkscape:connector-curvature="0" />
	<path style="fill:none;stroke:red;stroke-width:1px;stroke-linecap:butt;stroke-linejoin:miter;stroke-opacity:1" d="M 224.616,926.575 232.33,926.575 z" id="boundary" inkscape:connector-curvature="0" />
	<path style="fill:none;stroke:red;stroke-width:1px;stroke-linecap:butt;stroke-linejoin:miter;stroke-opacity:1" d="M 232.33,926.575 239.272,930.432 z" id="boundary" inkscape:connector-curvature="0" />
	<path style="fill:none;stroke:red;stroke-width:1px;stroke-linecap:butt;stroke-linejoin:miter;stroke-opacity:1" d="M 246.986,930.432 239.272,930.432 z" id="boundary" inkscape:connector-curvature="0" />
	<path style="fill:none;stroke:red;stroke-width:1px;stroke-linecap:butt;stroke-linejoin:miter;stroke-opacity:1" d="M 246.986,930.432 254.7,930.432 z" id="boundary" inkscape:connector-curvature="0" />
	<path style="fill:none;stroke:red;stroke-width:1px;stroke-linecap:butt;stroke-linejoin:miter;stroke-opacity:1" d="M 254.7,930.432 261.642,934.289 z" id="boundary" inkscape:connector-curvature="0" />
	<path style="fill:none;stroke:red;stroke-width:1px;stroke-linecap:butt;stroke-linejoin:miter;stroke-opacity:1" d="M 261.642,934.289 269.356,934.289 z" id="boundary" inkscape:connector-curvature="0" />
	<path style="fill:none;stroke:red;stroke-width:1px;stroke-linecap:butt;stroke-linejoin:miter;stroke-opacity:1" d="M 269.356,934.289 276.299,938.146 z" id="boundary" inkscape:connector-curvature="0" />
	<path style="fill:none;stroke:red;stroke-width:1px;stroke-linecap:butt;stroke-linejoin:miter;stroke-opacity:1" d="M 284.012,938.146 276.299,938.146 z" id="boundary" inkscape:connector-curvature="0" />
	<path style="fill:none;stroke:red;stroke-width:1px;stroke-linecap:butt;stroke-linejoin:miter;stroke-opacity:1" d="M 284.012,938.146 291.726,938.146 z" id="boundary" inkscape:connector-curvature="0" />
	<path style="fill:none;stroke:red;stroke-width:1px;stroke-linecap:butt;stroke-linejoin:miter;stroke-opacity:1" d="M 299.44,938.146 307.154,938.146 z" id="boundary" inkscape:connector-curvature="0" />
	<path style="fill:none;stroke:red;stroke-width:1px;stroke-linecap:butt;stroke-linejoin:miter;stroke-opacity:1" d="M 307.154,938.146 308.697,945.86 z" id="boundary" inkscape:connector-curvature="0" />
	<path style="fill:none;stroke:red;stroke-width:1px;stroke-linecap:butt;stroke-linejoin:miter;stroke-opacity:1" d="M 308.697,953.574 308.697,945.86 z" id="boundary" inkscape:connector-curvature="0" />
	<path style="fill:none;stroke:red;stroke-width:1px;stroke-linecap:butt;stroke-linejoin:miter;stroke-opacity:1" d="M 291.726,938.146 299.44,938.146 z" id="boundary" inkscape:connector-curvature="0" />
	<path style="fill:none;stroke:red;stroke-width:1px;stroke-linecap:butt;stroke-linejoin:miter;stroke-opacity:1" d="M 308.697,953.574 308.697,961.288 z" id="boundary" inkscape:connector-curvature="0" />
	<path style="fill:none;stroke:red;stroke-width:1px;stroke-linecap:butt;stroke-linejoin:miter;stroke-opacity:1" d="M 312.554,975.944 308.697,969.002 z" id="boundary" inkscape:connector-curvature="0" />
	<path style="fill:none;stroke:red;stroke-width:1px;stroke-linecap:butt;stroke-linejoin:miter;stroke-opacity:1" d="M 308.697,969.002 308.697,961.288 z" id="boundary" inkscape:connector-curvature="0" />
	<path style="fill:none;stroke:red;stroke-width:1px;stroke-linecap:butt;stroke-linejoin:miter;stroke-opacity:1" d="M 317.182,982.115 312.554,975.944 z" id="boundary" inkscape:connector-curvature="0" />
	<path style="fill:none;stroke:red;stroke-width:1px;stroke-linecap:butt;stroke-linejoin:miter;stroke-opacity:1" d="M 322.582,988.286 329.524,992.143 z" id="boundary" inkscape:connector-curvature="0" />
	<path style="fill:none;stroke:red;stroke-width:1px;stroke-linecap:butt;stroke-linejoin:miter;stroke-opacity:1" d="M 322.582,988.286 317.182,982.115 z" id="boundary" inkscape:connector-curvature="0" />
	<path style="fill:none;stroke:red;stroke-width:1px;stroke-linecap:butt;stroke-linejoin:miter;stroke-opacity:1" d="M 336.467,996 329.524,992.143 z" id="boundary" inkscape:connector-curvature="0" />
	<path style="fill:none;stroke:red;stroke-width:1px;stroke-linecap:butt;stroke-linejoin:miter;stroke-opacity:1" d="M 344.18,996 336.467,996 z" id="boundary" inkscape:connector-curvature="0" />
	<path style="fill:none;stroke:red;stroke-width:1px;stroke-linecap:butt;stroke-linejoin:miter;stroke-opacity:1" d="M 359.608,992.143 351.894,996 z" id="boundary" inkscape:connector-curvature="0" />
	<path style="fill:none;stroke:red;stroke-width:1px;stroke-linecap:butt;stroke-linejoin:miter;stroke-opacity:1" d="M 351.894,996 344.18,996 z" id="boundary" inkscape:connector-curvature="0" />
	<path style="fill:none;stroke:red;stroke-width:1px;stroke-linecap:butt;stroke-linejoin:miter;stroke-opacity:1" d="M 359.608,4 367.322,4 z" id="boundary" inkscape:connector-curvature="0" />
	<path style="fill:none;stroke:red;stroke-width:1px;stroke-linecap:butt;stroke-linejoin:miter;stroke-opacity:1" d="M 375.036,4 382.75,4 z" id="boundary" inkscape:connector-curvature="0" />
	<path style="fill:none;stroke:red;stroke-width:1px;stroke-linecap:butt;stroke-linejoin:miter;stroke-opacity:1" d="M 390.463,4 397.406,7.85692 z" id="boundary" inkscape:connector-curvature="0" />
	<path style="fill:none;stroke:red;stroke-width:1px;stroke-linecap:butt;stroke-linejoin:miter;stroke-opacity:1" d="M 382.75,4 390.463,4 z" id="boundary" inkscape:connector-curvature="0" />
	<path style="fill:none;stroke:red;stroke-width:1px;stroke-linecap:butt;stroke-linejoin:miter;stroke-opacity:1" d="M 397.406,7.85692 404.348,11.7138 z" id="boundary" inkscape:connector-curvature="0" />
	<path style="fill:none;stroke:red;stroke-width:1px;stroke-linecap:butt;stroke-linejoin:miter;stroke-opacity:1" d="M 411.291,15.5708 418.233,19.4277 z" id="boundary" inkscape:connector-curvature="0" />
	<path style="fill:none;stroke:red;stroke-width:1px;stroke-linecap:butt;stroke-linejoin:miter;stroke-opacity:1" d="M 418.233,19.4277 424.404,24.8274 z" id="boundary" inkscape:connector-curvature="0" />
	<path style="fill:none;stroke:red;stroke-width:1px;stroke-linecap:butt;stroke-linejoin:miter;stroke-opacity:1" d="M 435.204,35.6267 429.033,30.9984 z" id="boundary" inkscape:connector-curvature="0" />
	<path style="fill:none;stroke:red;stroke-width:1px;stroke-linecap:butt;stroke-linejoin:miter;stroke-opacity:1" d="M 429.033,30.9984 424.404,24.8274 z" id="boundary" inkscape:connector-curvature="0" />
	<path style="fill:none;stroke:red;stroke-width:1px;stroke-linecap:butt;stroke-linejoin:miter;stroke-opacity:1" d="M 404.348,11.7138 411.291,15.5708 z" id="boundary" inkscape:connector-curvature="0" />
	<path style="fill:none;stroke:red;stroke-width:1px;stroke-linecap:butt;stroke-linejoin:miter;stroke-opacity:1" d="M 444.46,48.7403 440.603,41.7978 z" id="boundary" inkscape:connector-curvature="0" />
	<path style="fill:none;stroke:red;stroke-width:1px;stroke-linecap:butt;stroke-linejoin:miter;stroke-opacity:1" d="M 449.86,54.9114 444.46,48.7403 z" id="boundary" inkscape:connector-curvature="0" />
	<path style="fill:none;stroke:red;stroke-width:1px;stroke-linecap:butt;stroke-linejoin:miter;stroke-opacity:1" d="M 449.86,54.9114 453.717,61.8538 z" id="boundary" inkscape:connector-curvature="0" />
	<path style="fill:none;stroke:red;stroke-width:1px;stroke-linecap:butt;stroke-linejoin:miter;stroke-opacity:1" d="M 453.717,61.8538 456.031,69.5677 z" id="boundary" inkscape:connector-curvature="0" />
	<path style="fill:none;stroke:red;stroke-width:1px;stroke-linecap:butt;stroke-linejoin:miter;stroke-opacity:1" d="M 459.888,76.5101 456.031,69.5677 z" id="boundary" inkscape:connector-curvature="0" />
	<path style="fill:none;stroke:red;stroke-width:1px;stroke-linecap:butt;stroke-linejoin:miter;stroke-opacity:1" d="M 459.888,112.765 456.031,120.479 z" id="boundary" inkscape:connector-curvature="0" />
	<path style="fill:none;stroke:red;stroke-width:1px;stroke-linecap:butt;stroke-linejoin:miter;stroke-opacity:1" d="M 456.031,128.193 456.031,120.479 z" id="boundary" inkscape:connector-curvature="0" />
	<path style="fill:none;stroke:red;stroke-width:1px;stroke-linecap:butt;stroke-linejoin:miter;stroke-opacity:1" d="M 463.745,83.4526 463.745,91.1664 z" id="boundary" inkscape:connector-curvature="0" />
	<path style="fill:none;stroke:red;stroke-width:1px;stroke-linecap:butt;stroke-linejoin:miter;stroke-opacity:1" d="M 459.888,76.5101 463.745,83.4526 z" id="boundary" inkscape:connector-curvature="0" />
	<path style="fill:none;stroke:red;stroke-width:1px;stroke-linecap:butt;stroke-linejoin:miter;stroke-opacity:1" d="M 463.745,98.8802 463.745,91.1664 z" id="boundary" inkscape:connector-curvature="0" />
	<path style="fill:none;stroke:red;stroke-width:1px;stroke-linecap:butt;stroke-linejoin:miter;stroke-opacity:1" d="M 463.745,98.8802 459.888,112.765 z" id="boundary" inkscape:connector-curvature="0" />
	<path style="fill:none;stroke:red;stroke-width:1px;stroke-linecap:butt;stroke-linejoin:miter;stroke-opacity:1" d="M 435.204,35.6267 440.603,41.7978 z" id="boundary" inkscape:connector-curvature="0" />
	<path style="fill:none;stroke:red;stroke-width:1px;stroke-linecap:butt;stroke-linejoin:miter;stroke-opacity:1" d="M 456.031,128.193 456.031,135.907 z" id="boundary" inkscape:connector-curvature="0" />
	<path style="fill:none;stroke:red;stroke-width:1px;stroke-linecap:butt;stroke-linejoin:miter;stroke-opacity:1" d="M 456.031,143.621 459.888,150.563 z" id="boundary" inkscape:connector-curvature="0" />
	<path style="fill:none;stroke:red;stroke-width:1px;stroke-linecap:butt;stroke-linejoin:miter;stroke-opacity:1" d="M 456.031,143.621 456.031,135.907 z" id="boundary" inkscape:connector-curvature="0" />
	<path style="fill:none;stroke:red;stroke-width:1px;stroke-linecap:butt;stroke-linejoin:miter;stroke-opacity:1" d="M 469.916,162.905 463.745,157.505 z" id="boundary" inkscape:connector-curvature="0" />
	<path style="fill:none;stroke:red;stroke-width:1px;stroke-linecap:butt;stroke-linejoin:miter;stroke-opacity:1" d="M 463.745,157.505 459.888,150.563 z" id="boundary" inkscape:connector-curvature="0" />
	<path style="fill:none;stroke:red;stroke-width:1px;stroke-linecap:butt;stroke-linejoin:miter;stroke-opacity:1" d="M 469.916,162.905 475.316,169.076 z" id="boundary" inkscape:connector-curvature="0" />
	<path style="fill:none;stroke:red;stroke-width:1px;stroke-linecap:butt;stroke-linejoin:miter;stroke-opacity:1" d="M 483.03,172.162 475.316,169.076 z" id="boundary" inkscape:connector-curvature="0" />
	<path style="fill:none;stroke:red;stroke-width:1px;stroke-linecap:butt;stroke-linejoin:miter;stroke-opacity:1" d="M 483.03,172.162 489.972,176.019 z" id="boundary" inkscape:connector-curvature="0" />
	<path style="fill:none;stroke:red;stroke-width:1px;stroke-linecap:butt;stroke-linejoin:miter;stroke-opacity:1" d="M 489.972,176.019 496.143,181.418 z" id="boundary" inkscape:connector-curvature="0" />
	<path style="fill:none;stroke:red;stroke-width:1px;stroke-linecap:butt;stroke-linejoin:miter;stroke-opacity:1" d="M 496.143,181.418 501.543,187.589 z" id="boundary" inkscape:connector-curvature="0" />
	<path style="fill:none;stroke:red;stroke-width:1px;stroke-linecap:butt;stroke-linejoin:miter;stroke-opacity:1" d="M 501.543,187.589 507.714,192.989 z" id="boundary" inkscape:connector-curvature="0" />
	<path style="fill:none;stroke:red;stroke-width:1px;stroke-linecap:butt;stroke-linejoin:miter;stroke-opacity:1" d="M 517.742,212.274 513.885,205.331 z" id="boundary" inkscape:connector-curvature="0" />
	<path style="fill:none;stroke:red;stroke-width:1px;stroke-linecap:butt;stroke-linejoin:miter;stroke-opacity:1" d="M 513.885,205.331 513.885,197.617 z" id="boundary" inkscape:connector-curvature="0" />
	<path style="fill:none;stroke:red;stroke-width:1px;stroke-linecap:butt;stroke-linejoin:miter;stroke-opacity:1" d="M 521.599,219.216 517.742,212.274 z" id="boundary" inkscape:connector-curvature="0" />
	<path style="fill:none;stroke:red;stroke-width:1px;stroke-linecap:butt;stroke-linejoin:miter;stroke-opacity:1" d="M 507.714,192.989 513.885,197.617 z" id="boundary" inkscape:connector-curvature="0" />
	<path style="fill:none;stroke:red;stroke-width:1px;stroke-linecap:butt;stroke-linejoin:miter;stroke-opacity:1" d="M 521.599,219.216 521.599,226.93 z" id="boundary" inkscape:connector-curvature="0" />
	<path style="fill:none;stroke:red;stroke-width:1px;stroke-linecap:butt;stroke-linejoin:miter;stroke-opacity:1" d="M 521.599,234.644 521.599,226.93 z" id="boundary" inkscape:connector-curvature="0" />
	<path style="fill:none;stroke:red;stroke-width:1px;stroke-linecap:butt;stroke-linejoin:miter;stroke-opacity:1" d="M 521.599,242.358 521.599,250.072 z" id="boundary" inkscape:connector-curvature="0" />
	<path style="fill:none;stroke:red;stroke-width:1px;stroke-linecap:butt;stroke-linejoin:miter;stroke-opacity:1" d="M 521.599,257.785 521.599,250.072 z" id="boundary" inkscape:connector-curvature="0" />
	<path style="fill:none;stroke:red;stroke-width:1px;stroke-linecap:butt;stroke-linejoin:miter;stroke-opacity:1" d="M 521.599,242.358 521.599,234.644 z" id="boundary" inkscape:connector-curvature="0" />
	<path style="fill:none;stroke:red;stroke-width:1px;stroke-linecap:butt;stroke-linejoin:miter;stroke-opacity:1" d="M 521.599,257.785 521.599,265.499 z" id="boundary" inkscape:connector-curvature="0" />
	<path style="fill:none;stroke:red;stroke-width:1px;stroke-linecap:butt;stroke-linejoin:miter;stroke-opacity:1" d="M 521.599,265.499 521.599,273.213 z" id="boundary" inkscape:connector-curvature="0" />
	<path style="fill:none;stroke:red;stroke-width:1px;stroke-linecap:butt;stroke-linejoin:miter;stroke-opacity:1" d="M 521.599,280.927 525.456,287.869 z" id="boundary" inkscape:connector-curvature="0" />
	<path style="fill:none;stroke:red;stroke-width:1px;stroke-linecap:butt;stroke-linejoin:miter;stroke-opacity:1" d="M 525.456,287.869 525.456,295.583 z" id="boundary" inkscape:connector-curvature="0" />
	<path style="fill:none;stroke:red;stroke-width:1px;stroke-linecap:butt;stroke-linejoin:miter;stroke-opacity:1" d="M 521.599,280.927 521.599,273.213 z" id="boundary" inkscape:connector-curvature="0" />
	<path style="fill:none;stroke:red;stroke-width:1px;stroke-linecap:butt;stroke-linejoin:miter;stroke-opacity:1" d="M 525.456,295.583 525.456,303.297 z" id="boundary" inkscape:connector-curvature="0" />
	<path style="fill:none;stroke:red;stroke-width:1px;stroke-linecap:butt;stroke-linejoin:miter;stroke-opacity:1" d="M 525.456,303.297 525.456,311.011 z" id="boundary" inkscape:connector-curvature="0" />
	<path style="fill:none;stroke:red;stroke-width:1px;stroke-linecap:butt;stroke-linejoin:miter;stroke-opacity:1" d="M 528.541,318.725 525.456,311.011 z" id="boundary" inkscape:connector-curvature="0" />
	<path style="fill:none;stroke:red;stroke-width:1px;stroke-linecap:butt;stroke-linejoin:miter;stroke-opacity:1" d="M 529.313,326.439 529.313,334.152 z" id="boundary" inkscape:connector-curvature="0" />
	<path style="fill:none;stroke:red;stroke-width:1px;stroke-linecap:butt;stroke-linejoin:miter;stroke-opacity:1" d="M 529.313,326.439 528.541,318.725 z" id="boundary" inkscape:connector-curvature="0" />
	<path style="fill:none;stroke:red;stroke-width:1px;stroke-linecap:butt;stroke-linejoin:miter;stroke-opacity:1" d="M 529.313,334.152 529.313,341.866 z" id="boundary" inkscape:connector-curvature="0" />
	<path style="fill:none;stroke:red;stroke-width:1px;stroke-linecap:butt;stroke-linejoin:miter;stroke-opacity:1" d="M 529.313,341.866 529.313,349.58 z" id="boundary" inkscape:connector-curvature="0" />
	<path style="fill:none;stroke:red;stroke-width:1px;stroke-linecap:butt;stroke-linejoin:miter;stroke-opacity:1" d="M 532.398,365.008 529.313,357.294 z" id="boundary" inkscape:connector-curvature="0" />
	<path style="fill:none;stroke:red;stroke-width:1px;stroke-linecap:butt;stroke-linejoin:miter;stroke-opacity:1" d="M 529.313,357.294 529.313,349.58 z" id="boundary" inkscape:connector-curvature="0" />
	<path style="fill:none;stroke:red;stroke-width:1px;stroke-linecap:butt;stroke-linejoin:miter;stroke-opacity:1" d="M 536.255,371.95 532.398,365.008 z" id="boundary" inkscape:connector-curvature="0" />
	<path style="fill:none;stroke:red;stroke-width:1px;stroke-linecap:butt;stroke-linejoin:miter;stroke-opacity:1" d="M 536.255,371.95 537.026,379.664 z" id="boundary" inkscape:connector-curvature="0" />
	<path style="fill:none;stroke:red;stroke-width:1px;stroke-linecap:butt;stroke-linejoin:miter;stroke-opacity:1" d="M 540.883,394.32 537.026,387.378 z" id="boundary" inkscape:connector-curvature="0" />
	<path style="fill:none;stroke:red;stroke-width:1px;stroke-linecap:butt;stroke-linejoin:miter;stroke-opacity:1" d="M 537.026,387.378 537.026,379.664 z" id="boundary" inkscape:connector-curvature="0" />
	<path style="fill:none;stroke:red;stroke-width:1px;stroke-linecap:butt;stroke-linejoin:miter;stroke-opacity:1" d="M 540.883,394.32 540.883,402.034 z" id="boundary" inkscape:connector-curvature="0" />
	<path style="fill:none;stroke:red;stroke-width:1px;stroke-linecap:butt;stroke-linejoin:miter;stroke-opacity:1" d="M 542.426,417.462 540.883,409.748 z" id="boundary" inkscape:connector-curvature="0" />
	<path style="fill:none;stroke:red;stroke-width:1px;stroke-linecap:butt;stroke-linejoin:miter;stroke-opacity:1" d="M 540.883,409.748 540.883,402.034 z" id="boundary" inkscape:connector-curvature="0" />
	<path style="fill:none;stroke:red;stroke-width:1px;stroke-linecap:butt;stroke-linejoin:miter;stroke-opacity:1" d="M 544.74,425.176 542.426,417.462 z" id="boundary" inkscape:connector-curvature="0" />
	<path style="fill:none;stroke:red;stroke-width:1px;stroke-linecap:butt;stroke-linejoin:miter;stroke-opacity:1" d="M 544.74,425.176 544.74,432.89 z" id="boundary" inkscape:connector-curvature="0" />
	<path style="fill:none;stroke:red;stroke-width:1px;stroke-linecap:butt;stroke-linejoin:miter;stroke-opacity:1" d="M 544.74,440.603 548.597,447.546 z" id="boundary" inkscape:connector-curvature="0" />
	<path style="fill:none;stroke:red;stroke-width:1px;stroke-linecap:butt;stroke-linejoin:miter;stroke-opacity:1" d="M 544.74,440.603 544.74,432.89 z" id="boundary" inkscape:connector-curvature="0" />
	<path style="fill:none;stroke:red;stroke-width:1px;stroke-linecap:butt;stroke-linejoin:miter;stroke-opacity:1" d="M 552.454,454.488 548.597,447.546 z" id="boundary" inkscape:connector-curvature="0" />
	<path style="fill:none;stroke:red;stroke-width:1px;stroke-linecap:butt;stroke-linejoin:miter;stroke-opacity:1" d="M 552.454,454.488 552.454,462.202 z" id="boundary" inkscape:connector-curvature="0" />
	<path style="fill:none;stroke:red;stroke-width:1px;stroke-linecap:butt;stroke-linejoin:miter;stroke-opacity:1" d="M 552.454,462.202 552.454,469.916 z" id="boundary" inkscape:connector-curvature="0" />
	<path style="fill:none;stroke:red;stroke-width:1px;stroke-linecap:butt;stroke-linejoin:miter;stroke-opacity:1" d="M 556.311,476.858 552.454,469.916 z" id="boundary" inkscape:connector-curvature="0" />
	<path style="fill:none;stroke:red;stroke-width:1px;stroke-linecap:butt;stroke-linejoin:miter;stroke-opacity:1" d="M 560.168,491.515 556.311,484.572 z" id="boundary" inkscape:connector-curvature="0" />
	<path style="fill:none;stroke:red;stroke-width:1px;stroke-linecap:butt;stroke-linejoin:miter;stroke-opacity:1" d="M 556.311,484.572 556.311,476.858 z" id="boundary" inkscape:connector-curvature="0" />
	<path style="fill:none;stroke:red;stroke-width:1px;stroke-linecap:butt;stroke-linejoin:miter;stroke-opacity:1" d="M 560.168,491.515 560.168,499.229 z" id="boundary" inkscape:connector-curvature="0" />
	<path style="fill:none;stroke:red;stroke-width:1px;stroke-linecap:butt;stroke-linejoin:miter;stroke-opacity:1" d="M 560.168,499.229 564.025,506.171 z" id="boundary" inkscape:connector-curvature="0" />
	<path style="fill:none;stroke:red;stroke-width:1px;stroke-linecap:butt;stroke-linejoin:miter;stroke-opacity:1" d="M 564.025,506.171 564.025,513.885 z" id="boundary" inkscape:connector-curvature="0" />
	<path style="fill:none;stroke:red;stroke-width:1px;stroke-linecap:butt;stroke-linejoin:miter;stroke-opacity:1" d="M 564.025,513.885 567.882,520.827 z" id="boundary" inkscape:connector-curvature="0" />
	<path style="fill:none;stroke:red;stroke-width:1px;stroke-linecap:butt;stroke-linejoin:miter;stroke-opacity:1" d="M 567.882,520.827 567.882,528.541 z" id="boundary" inkscape:connector-curvature="0" />
	<path style="fill:none;stroke:red;stroke-width:1px;stroke-linecap:butt;stroke-linejoin:miter;stroke-opacity:1" d="M 571.739,535.484 567.882,528.541 z" id="boundary" inkscape:connector-curvature="0" />
	<path style="fill:none;stroke:red;stroke-width:1px;stroke-linecap:butt;stroke-linejoin:miter;stroke-opacity:1" d="M 571.739,535.484 571.739,543.198 z" id="boundary" inkscape:connector-curvature="0" />
	<path style="fill:none;stroke:red;stroke-width:1px;stroke-linecap:butt;stroke-linejoin:miter;stroke-opacity:1" d="M 571.739,550.911 571.739,543.198 z" id="boundary" inkscape:connector-curvature="0" />
	<path style="fill:none;stroke:red;stroke-width:1px;stroke-linecap:butt;stroke-linejoin:miter;stroke-opacity:1" d="M 575.596,557.854 571.739,550.911 z" id="boundary" inkscape:connector-curvature="0" />
	<path style="fill:none;stroke:red;stroke-width:1px;stroke-linecap:butt;stroke-linejoin:miter;stroke-opacity:1" d="M 578.681,573.281 575.596,565.568 z" id="boundary" inkscape:connector-curvature="0" />
	<path style="fill:none;stroke:red;stroke-width:1px;stroke-linecap:butt;stroke-linejoin:miter;stroke-opacity:1" d="M 575.596,565.568 575.596,557.854 z" id="boundary" inkscape:connector-curvature="0" />
	<path style="fill:none;stroke:red;stroke-width:1px;stroke-linecap:butt;stroke-linejoin:miter;stroke-opacity:1" d="M 578.681,573.281 579.453,580.995 z" id="boundary" inkscape:connector-curvature="0" />
	<path style="fill:none;stroke:red;stroke-width:1px;stroke-linecap:butt;stroke-linejoin:miter;stroke-opacity:1" d="M 533.17,903.434 540.883,903.434 z" id="boundary" inkscape:connector-curvature="0" />
	<path style="fill:none;stroke:red;stroke-width:1px;stroke-linecap:butt;stroke-linejoin:miter;stroke-opacity:1" d="M 526.227,907.291 533.17,903.434 z" id="boundary" inkscape:connector-curvature="0" />
	<path style="fill:none;stroke:red;stroke-width:1px;stroke-linecap:butt;stroke-linejoin:miter;stroke-opacity:1" d="M 548.597,899.577 540.883,903.434 z" id="boundary" inkscape:connector-curvature="0" />
	<path style="fill:none;stroke:red;stroke-width:1px;stroke-linecap:butt;stroke-linejoin:miter;stroke-opacity:1" d="M 564.025,895.72 556.311,899.577 z" id="boundary" inkscape:connector-curvature="0" />
	<path style="fill:none;stroke:red;stroke-width:1px;stroke-linecap:butt;stroke-linejoin:miter;stroke-opacity:1" d="M 556.311,899.577 548.597,899.577 z" id="boundary" inkscape:connector-curvature="0" />
	<path style="fill:none;stroke:red;stroke-width:1px;stroke-linecap:butt;stroke-linejoin:miter;stroke-opacity:1" d="M 564.025,895.72 571.739,895.72 z" id="boundary" inkscape:connector-curvature="0" />
	<path style="fill:none;stroke:red;stroke-width:1px;stroke-linecap:butt;stroke-linejoin:miter;stroke-opacity:1" d="M 496.143,918.09 503.857,915.005 z" id="boundary" inkscape:connector-curvature="0" />
	<path style="fill:none;stroke:red;stroke-width:1px;stroke-linecap:butt;stroke-linejoin:miter;stroke-opacity:1" d="M 503.857,915.005 511.571,914.233 z" id="boundary" inkscape:connector-curvature="0" />
	<path style="fill:none;stroke:red;stroke-width:1px;stroke-linecap:butt;stroke-linejoin:miter;stroke-opacity:1" d="M 519.285,911.148 511.571,914.233 z" id="boundary" inkscape:connector-curvature="0" />
	<path style="fill:none;stroke:red;stroke-width:1px;stroke-linecap:butt;stroke-linejoin:miter;stroke-opacity:1" d="M 526.227,907.291 519.285,911.148 z" id="boundary" inkscape:connector-curvature="0" />
	<path style="fill:none;stroke:red;stroke-width:1px;stroke-linecap:butt;stroke-linejoin:miter;stroke-opacity:1" d="M 579.453,588.709 579.453,580.995 z" id="boundary" inkscape:connector-curvature="0" />
	<path style="fill:none;stroke:red;stroke-width:1px;stroke-linecap:butt;stroke-linejoin:miter;stroke-opacity:1" d="M 583.309,595.652 579.453,588.709 z" id="boundary" inkscape:connector-curvature="0" />
	<path style="fill:none;stroke:red;stroke-width:1px;stroke-linecap:butt;stroke-linejoin:miter;stroke-opacity:1" d="M 585.624,603.365 587.166,611.079 z" id="boundary" inkscape:connector-curvature="0" />
	<path style="fill:none;stroke:red;stroke-width:1px;stroke-linecap:butt;stroke-linejoin:miter;stroke-opacity:1" d="M 585.624,603.365 583.309,595.652 z" id="boundary" inkscape:connector-curvature="0" />
	<path style="fill:none;stroke:red;stroke-width:1px;stroke-linecap:butt;stroke-linejoin:miter;stroke-opacity:1" d="M 591.023,618.022 587.166,611.079 z" id="boundary" inkscape:connector-curvature="0" />
	<path style="fill:none;stroke:red;stroke-width:1px;stroke-linecap:butt;stroke-linejoin:miter;stroke-opacity:1" d="M 571.739,895.72 579.453,891.863 z" id="boundary" inkscape:connector-curvature="0" />
	<path style="fill:none;stroke:red;stroke-width:1px;stroke-linecap:butt;stroke-linejoin:miter;stroke-opacity:1" d="M 579.453,891.863 587.166,891.863 z" id="boundary" inkscape:connector-curvature="0" />
	<path style="fill:none;stroke:red;stroke-width:1px;stroke-linecap:butt;stroke-linejoin:miter;stroke-opacity:1" d="M 594.109,888.006 587.166,891.863 z" id="boundary" inkscape:connector-curvature="0" />
	<path style="fill:none;stroke:red;stroke-width:1px;stroke-linecap:butt;stroke-linejoin:miter;stroke-opacity:1" d="M 594.88,632.678 591.023,625.736 z" id="boundary" inkscape:connector-curvature="0" />
	<path style="fill:none;stroke:red;stroke-width:1px;stroke-linecap:butt;stroke-linejoin:miter;stroke-opacity:1" d="M 591.023,625.736 591.023,618.022 z" id="boundary" inkscape:connector-curvature="0" />
	<path style="fill:none;stroke:red;stroke-width:1px;stroke-linecap:butt;stroke-linejoin:miter;stroke-opacity:1" d="M 601.051,884.149 594.109,888.006 z" id="boundary" inkscape:connector-curvature="0" />
	<path style="fill:none;stroke:red;stroke-width:1px;stroke-linecap:butt;stroke-linejoin:miter;stroke-opacity:1" d="M 496.143,918.09 488.429,918.862 z" id="boundary" inkscape:connector-curvature="0" />
	<path style="fill:none;stroke:red;stroke-width:1px;stroke-linecap:butt;stroke-linejoin:miter;stroke-opacity:1" d="M 382.75,949.717 382.75,957.431 z" id="boundary" inkscape:connector-curvature="0" />
	<path style="fill:none;stroke:red;stroke-width:1px;stroke-linecap:butt;stroke-linejoin:miter;stroke-opacity:1" d="M 382.75,949.717 382.75,942.003 z" id="boundary" inkscape:connector-curvature="0" />
	<path style="fill:none;stroke:red;stroke-width:1px;stroke-linecap:butt;stroke-linejoin:miter;stroke-opacity:1" d="M 382.75,942.003 390.463,942.003 z" id="boundary" inkscape:connector-curvature="0" />
	<path style="fill:none;stroke:red;stroke-width:1px;stroke-linecap:butt;stroke-linejoin:miter;stroke-opacity:1" d="M 390.463,942.003 398.177,938.146 z" id="boundary" inkscape:connector-curvature="0" />
	<path style="fill:none;stroke:red;stroke-width:1px;stroke-linecap:butt;stroke-linejoin:miter;stroke-opacity:1" d="M 398.177,938.146 405.891,938.146 z" id="boundary" inkscape:connector-curvature="0" />
	<path style="fill:none;stroke:red;stroke-width:1px;stroke-linecap:butt;stroke-linejoin:miter;stroke-opacity:1" d="M 382.75,942.003 398.177,938.146 z" id="boundary" inkscape:connector-curvature="0" />
	<path style="fill:none;stroke:red;stroke-width:1px;stroke-linecap:butt;stroke-linejoin:miter;stroke-opacity:1" d="M 412.834,934.289 405.891,938.146 z" id="boundary" inkscape:connector-curvature="0" />
	<path style="fill:none;stroke:red;stroke-width:1px;stroke-linecap:butt;stroke-linejoin:miter;stroke-opacity:1" d="M 373.493,982.886 367.322,988.286 z" id="boundary" inkscape:connector-curvature="0" />
	<path style="fill:none;stroke:red;stroke-width:1px;stroke-linecap:butt;stroke-linejoin:miter;stroke-opacity:1" d="M 378.893,972.858 373.493,982.886 z" id="boundary" inkscape:connector-curvature="0" />
	<path style="fill:none;stroke:red;stroke-width:1px;stroke-linecap:butt;stroke-linejoin:miter;stroke-opacity:1" d="M 382.75,957.431 382.75,965.145 z" id="boundary" inkscape:connector-curvature="0" />
	<path style="fill:none;stroke:red;stroke-width:1px;stroke-linecap:butt;stroke-linejoin:miter;stroke-opacity:1" d="M 382.75,965.145 378.893,972.858 z" id="boundary" inkscape:connector-curvature="0" />
	<path style="fill:none;stroke:red;stroke-width:1px;stroke-linecap:butt;stroke-linejoin:miter;stroke-opacity:1" d="M 367.322,988.286 359.608,992.143 z" id="boundary" inkscape:connector-curvature="0" />
	<path style="fill:none;stroke:red;stroke-width:1px;stroke-linecap:butt;stroke-linejoin:miter;stroke-opacity:1" d="M 458.345,926.575 465.288,922.719 z" id="boundary" inkscape:connector-curvature="0" />
	<path style="fill:none;stroke:red;stroke-width:1px;stroke-linecap:butt;stroke-linejoin:miter;stroke-opacity:1" d="M 465.288,922.719 473.002,922.719 z" id="boundary" inkscape:connector-curvature="0" />
	<path style="fill:none;stroke:red;stroke-width:1px;stroke-linecap:butt;stroke-linejoin:miter;stroke-opacity:1" d="M 488.429,918.862 480.715,921.947 z" id="boundary" inkscape:connector-curvature="0" />
	<path style="fill:none;stroke:red;stroke-width:1px;stroke-linecap:butt;stroke-linejoin:miter;stroke-opacity:1" d="M 480.715,921.947 473.002,922.719 z" id="boundary" inkscape:connector-curvature="0" />
	<path style="fill:none;stroke:red;stroke-width:1px;stroke-linecap:butt;stroke-linejoin:miter;stroke-opacity:1" d="M 451.403,930.432 458.345,926.575 z" id="boundary" inkscape:connector-curvature="0" />
	<path style="fill:none;stroke:red;stroke-width:1px;stroke-linecap:butt;stroke-linejoin:miter;stroke-opacity:1" d="M 428.261,931.975 420.547,934.289 z" id="boundary" inkscape:connector-curvature="0" />
	<path style="fill:none;stroke:red;stroke-width:1px;stroke-linecap:butt;stroke-linejoin:miter;stroke-opacity:1" d="M 420.547,934.289 412.834,934.289 z" id="boundary" inkscape:connector-curvature="0" />
	<path style="fill:none;stroke:red;stroke-width:1px;stroke-linecap:butt;stroke-linejoin:miter;stroke-opacity:1" d="M 435.975,930.432 443.689,930.432 z" id="boundary" inkscape:connector-curvature="0" />
	<path style="fill:none;stroke:red;stroke-width:1px;stroke-linecap:butt;stroke-linejoin:miter;stroke-opacity:1" d="M 428.261,931.975 435.975,930.432 z" id="boundary" inkscape:connector-curvature="0" />
	<path style="fill:none;stroke:red;stroke-width:1px;stroke-linecap:butt;stroke-linejoin:miter;stroke-opacity:1" d="M 451.403,930.432 443.689,930.432 z" id="boundary" inkscape:connector-curvature="0" />
	<path style="fill:none;stroke:red;stroke-width:1px;stroke-linecap:butt;stroke-linejoin:miter;stroke-opacity:1" d="M 594.88,632.678 598.737,639.621 z" id="boundary" inkscape:connector-curvature="0" />
	<path style="fill:none;stroke:red;stroke-width:1px;stroke-linecap:butt;stroke-linejoin:miter;stroke-opacity:1" d="M 598.737,639.621 598.737,647.334 z" id="boundary" inkscape:connector-curvature="0" />
	<path style="fill:none;stroke:red;stroke-width:1px;stroke-linecap:butt;stroke-linejoin:miter;stroke-opacity:1" d="M 602.594,661.991 598.737,655.048 z" id="boundary" inkscape:connector-curvature="0" />
	<path style="fill:none;stroke:red;stroke-width:1px;stroke-linecap:butt;stroke-linejoin:miter;stroke-opacity:1" d="M 598.737,655.048 598.737,647.334 z" id="boundary" inkscape:connector-curvature="0" />
	<path style="fill:none;stroke:red;stroke-width:1px;stroke-linecap:butt;stroke-linejoin:miter;stroke-opacity:1" d="M 606.451,668.933 602.594,661.991 z" id="boundary" inkscape:connector-curvature="0" />
	<path style="fill:none;stroke:red;stroke-width:1px;stroke-linecap:butt;stroke-linejoin:miter;stroke-opacity:1" d="M 606.451,668.933 610.308,675.876 z" id="boundary" inkscape:connector-curvature="0" />
	<path style="fill:none;stroke:red;stroke-width:1px;stroke-linecap:butt;stroke-linejoin:miter;stroke-opacity:1" d="M 610.308,675.876 611.851,683.589 z" id="boundary" inkscape:connector-curvature="0" />
	<path style="fill:none;stroke:red;stroke-width:1px;stroke-linecap:butt;stroke-linejoin:miter;stroke-opacity:1" d="M 611.851,683.589 614.165,691.303 z" id="boundary" inkscape:connector-curvature="0" />
	<path style="fill:none;stroke:red;stroke-width:1px;stroke-linecap:butt;stroke-linejoin:miter;stroke-opacity:1" d="M 614.165,691.303 614.165,699.017 z" id="boundary" inkscape:connector-curvature="0" />
	<path style="fill:none;stroke:red;stroke-width:1px;stroke-linecap:butt;stroke-linejoin:miter;stroke-opacity:1" d="M 618.022,705.96 614.165,699.017 z" id="boundary" inkscape:connector-curvature="0" />
	<path style="fill:none;stroke:red;stroke-width:1px;stroke-linecap:butt;stroke-linejoin:miter;stroke-opacity:1" d="M 618.022,705.96 621.879,712.902 z" id="boundary" inkscape:connector-curvature="0" />
	<path style="fill:none;stroke:red;stroke-width:1px;stroke-linecap:butt;stroke-linejoin:miter;stroke-opacity:1" d="M 625.736,719.844 628.821,727.558 z" id="boundary" inkscape:connector-curvature="0" />
	<path style="fill:none;stroke:red;stroke-width:1px;stroke-linecap:butt;stroke-linejoin:miter;stroke-opacity:1" d="M 628.821,727.558 629.593,735.272 z" id="boundary" inkscape:connector-curvature="0" />
	<path style="fill:none;stroke:red;stroke-width:1px;stroke-linecap:butt;stroke-linejoin:miter;stroke-opacity:1" d="M 632.678,742.986 629.593,735.272 z" id="boundary" inkscape:connector-curvature="0" />
	<path style="fill:none;stroke:red;stroke-width:1px;stroke-linecap:butt;stroke-linejoin:miter;stroke-opacity:1" d="M 621.879,712.902 625.736,719.844 z" id="boundary" inkscape:connector-curvature="0" />
	<path style="fill:none;stroke:red;stroke-width:1px;stroke-linecap:butt;stroke-linejoin:miter;stroke-opacity:1" d="M 632.678,742.986 636.535,749.928 z" id="boundary" inkscape:connector-curvature="0" />
	<path style="fill:none;stroke:red;stroke-width:1px;stroke-linecap:butt;stroke-linejoin:miter;stroke-opacity:1" d="M 639.621,757.642 636.535,749.928 z" id="boundary" inkscape:connector-curvature="0" />
	<path style="fill:none;stroke:red;stroke-width:1px;stroke-linecap:butt;stroke-linejoin:miter;stroke-opacity:1" d="M 645.02,780.012 641.163,773.07 z" id="boundary" inkscape:connector-curvature="0" />
	<path style="fill:none;stroke:red;stroke-width:1px;stroke-linecap:butt;stroke-linejoin:miter;stroke-opacity:1" d="M 641.163,773.07 641.163,765.356 z" id="boundary" inkscape:connector-curvature="0" />
	<path style="fill:none;stroke:red;stroke-width:1px;stroke-linecap:butt;stroke-linejoin:miter;stroke-opacity:1" d="M 645.02,780.012 645.02,787.726 z" id="boundary" inkscape:connector-curvature="0" />
	<path style="fill:none;stroke:red;stroke-width:1px;stroke-linecap:butt;stroke-linejoin:miter;stroke-opacity:1" d="M 639.621,757.642 641.163,765.356 z" id="boundary" inkscape:connector-curvature="0" />
	<path style="fill:none;stroke:red;stroke-width:1px;stroke-linecap:butt;stroke-linejoin:miter;stroke-opacity:1" d="M 645.02,787.726 648.877,794.669 z" id="boundary" inkscape:connector-curvature="0" />
	<path style="fill:none;stroke:red;stroke-width:1px;stroke-linecap:butt;stroke-linejoin:miter;stroke-opacity:1" d="M 638.849,872.579 631.135,875.664 z" id="boundary" inkscape:connector-curvature="0" />
	<path style="fill:none;stroke:red;stroke-width:1px;stroke-linecap:butt;stroke-linejoin:miter;stroke-opacity:1" d="M 646.563,872.579 638.849,872.579 z" id="boundary" inkscape:connector-curvature="0" />
	<path style="fill:none;stroke:red;stroke-width:1px;stroke-linecap:butt;stroke-linejoin:miter;stroke-opacity:1" d="M 648.877,794.669 652.734,801.611 z" id="boundary" inkscape:connector-curvature="0" />
	<path style="fill:none;stroke:red;stroke-width:1px;stroke-linecap:butt;stroke-linejoin:miter;stroke-opacity:1" d="M 652.734,801.611 656.591,808.554 z" id="boundary" inkscape:connector-curvature="0" />
	<path style="fill:none;stroke:red;stroke-width:1px;stroke-linecap:butt;stroke-linejoin:miter;stroke-opacity:1" d="M 601.051,884.149 608.765,884.149 z" id="boundary" inkscape:connector-curvature="0" />
	<path style="fill:none;stroke:red;stroke-width:1px;stroke-linecap:butt;stroke-linejoin:miter;stroke-opacity:1" d="M 615.708,880.292 608.765,884.149 z" id="boundary" inkscape:connector-curvature="0" />
	<path style="fill:none;stroke:red;stroke-width:1px;stroke-linecap:butt;stroke-linejoin:miter;stroke-opacity:1" d="M 631.135,875.664 623.421,879.521 z" id="boundary" inkscape:connector-curvature="0" />
	<path style="fill:none;stroke:red;stroke-width:1px;stroke-linecap:butt;stroke-linejoin:miter;stroke-opacity:1" d="M 623.421,879.521 615.708,880.292 z" id="boundary" inkscape:connector-curvature="0" />
	<path style="fill:none;stroke:red;stroke-width:1px;stroke-linecap:butt;stroke-linejoin:miter;stroke-opacity:1" d="M 646.563,872.579 654.277,872.579 z" id="boundary" inkscape:connector-curvature="0" />
	<path style="fill:none;stroke:red;stroke-width:1px;stroke-linecap:butt;stroke-linejoin:miter;stroke-opacity:1" d="M 659.677,816.267 663.533,823.21 z" id="boundary" inkscape:connector-curvature="0" />
	<path style="fill:none;stroke:red;stroke-width:1px;stroke-linecap:butt;stroke-linejoin:miter;stroke-opacity:1" d="M 659.677,816.267 656.591,808.554 z" id="boundary" inkscape:connector-curvature="0" />
	<path style="fill:none;stroke:red;stroke-width:1px;stroke-linecap:butt;stroke-linejoin:miter;stroke-opacity:1" d="M 670.476,837.866 666.619,830.924 z" id="boundary" inkscape:connector-curvature="0" />
	<path style="fill:none;stroke:red;stroke-width:1px;stroke-linecap:butt;stroke-linejoin:miter;stroke-opacity:1" d="M 666.619,830.924 663.533,823.21 z" id="boundary" inkscape:connector-curvature="0" />
	<path style="fill:none;stroke:red;stroke-width:1px;stroke-linecap:butt;stroke-linejoin:miter;stroke-opacity:1" d="M 654.277,872.579 661.219,868.722 z" id="boundary" inkscape:connector-curvature="0" />
	<path style="fill:none;stroke:red;stroke-width:1px;stroke-linecap:butt;stroke-linejoin:miter;stroke-opacity:1" d="M 668.162,864.865 661.219,868.722 z" id="boundary" inkscape:connector-curvature="0" />
	<path style="fill:none;stroke:red;stroke-width:1px;stroke-linecap:butt;stroke-linejoin:miter;stroke-opacity:1" d="M 668.162,864.865 675.876,861.008 z" id="boundary" inkscape:connector-curvature="0" />
	<path style="fill:none;stroke:red;stroke-width:1px;stroke-linecap:butt;stroke-linejoin:miter;stroke-opacity:1" d="M 677.418,852.523 675.876,861.008 z" id="boundary" inkscape:connector-curvature="0" />
	<path style="fill:none;stroke:red;stroke-width:1px;stroke-linecap:butt;stroke-linejoin:miter;stroke-opacity:1" d="M 677.418,852.523 673.561,845.58 z" id="boundary" inkscape:connector-curvature="0" />
	<path style="fill:none;stroke:red;stroke-width:1px;stroke-linecap:butt;stroke-linejoin:miter;stroke-opacity:1" d="M 673.561,845.58 670.476,837.866 z" id="boundary" inkscape:connector-curvature="0" />
	<path style="fill:none;stroke:red;stroke-width:1px;stroke-linecap:butt;stroke-linejoin:miter;stroke-opacity:1" d="M 367.322,4 375.036,4 z" id="boundary" inkscape:connector-curvature="0" />
	<circle cx="4" cy="839.409" r="4" fill="#0" id="circle0"/>
	<circle cx="7.85692" cy="831.695" r="4" fill="#0" id="circle1"/>
	<circle cx="8.6283" cy="845.58" r="4" fill="#0" id="circle2"/>
	<circle cx="11.7138" cy="820.124" r="4" fill="#0" id="circle3"/>
	<circle cx="15.5708" cy="812.411" r="4" fill="#0" id="circle4"/>
	<circle cx="15.5708" cy="849.437" r="4" fill="#0" id="circle5"/>
	<circle cx="19.4277" cy="804.697" r="4" fill="#0" id="circle6"/>
	<circle cx="22.5132" cy="853.294" r="4" fill="#0" id="circle7"/>
	<circle cx="23.2846" cy="796.983" r="4" fill="#0" id="circle8"/>
	<circle cx="29.4557" cy="790.812" r="4" fill="#0" id="circle9"/>
	<circle cx="29.4557" cy="857.151" r="4" fill="#0" id="circle10"/>
	<circle cx="34.8554" cy="781.555" r="4" fill="#0" id="circle11"/>
	<circle cx="36.3981" cy="861.008" r="4" fill="#0" id="circle12"/>
	<circle cx="38.7123" cy="773.841" r="4" fill="#0" id="circle13"/>
	<circle cx="42.5692" cy="865.636" r="4" fill="#0" id="circle14"/>
	<circle cx="44.8834" cy="767.67" r="4" fill="#0" id="circle15"/>
	<circle cx="47.9689" cy="871.807" r="4" fill="#0" id="circle16"/>
	<circle cx="50.283" cy="758.414" r="4" fill="#0" id="circle17"/>
	<circle cx="54.14" cy="742.986" r="4" fill="#0" id="circle18"/>
	<circle cx="54.14" cy="750.7" r="4" fill="#0" id="circle19"/>
	<circle cx="55.6827" cy="872.579" r="4" fill="#0" id="circle20"/>
	<circle cx="57.9969" cy="735.272" r="4" fill="#0" id="circle21"/>
	<circle cx="61.8538" cy="727.558" r="4" fill="#0" id="circle22"/>
	<circle cx="63.3966" cy="872.579" r="4" fill="#0" id="circle23"/>
	<circle cx="65.7107" cy="715.988" r="4" fill="#0" id="circle24"/>
	<circle cx="69.5677" cy="708.274" r="4" fill="#0" id="circle25"/>
	<circle cx="70.339" cy="876.435" r="4" fill="#0" id="circle26"/>
	<circle cx="73.4246" cy="696.703" r="4" fill="#0" id="circle27"/>
	<circle cx="77.2815" cy="688.989" r="4" fill="#0" id="circle28"/>
	<circle cx="77.2815" cy="880.292" r="4" fill="#0" id="circle29"/>
	<circle cx="81.1384" cy="681.275" r="4" fill="#0" id="circle30"/>
	<circle cx="84.224" cy="884.149" r="4" fill="#0" id="circle31"/>
	<circle cx="84.9953" cy="661.991" r="4" fill="#0" id="circle32"/>
	<circle cx="84.9953" cy="669.705" r="4" fill="#0" id="circle33"/>
	<circle cx="88.8523" cy="650.42" r="4" fill="#0" id="circle34"/>
	<circle cx="91.1664" cy="888.006" r="4" fill="#0" id="circle35"/>
	<circle cx="92.7092" cy="642.706" r="4" fill="#0" id="circle36"/>
	<circle cx="96.5661" cy="634.992" r="4" fill="#0" id="circle37"/>
	<circle cx="98.8802" cy="891.092" r="4" fill="#0" id="circle38"/>
	<circle cx="100.423" cy="623.421" r="4" fill="#0" id="circle39"/>
	<circle cx="104.28" cy="611.851" r="4" fill="#0" id="circle40"/>
	<circle cx="105.823" cy="894.949" r="4" fill="#0" id="circle41"/>
	<circle cx="108.137" cy="596.423" r="4" fill="#0" id="circle42"/>
	<circle cx="108.137" cy="604.137" r="4" fill="#0" id="circle43"/>
	<circle cx="111.994" cy="584.852" r="4" fill="#0" id="circle44"/>
	<circle cx="113.537" cy="895.72" r="4" fill="#0" id="circle45"/>
	<circle cx="115.851" cy="577.138" r="4" fill="#0" id="circle46"/>
	<circle cx="119.708" cy="534.712" r="4" fill="#0" id="circle47"/>
	<circle cx="119.708" cy="542.426" r="4" fill="#0" id="circle48"/>
	<circle cx="119.708" cy="550.14" r="4" fill="#0" id="circle49"/>
	<circle cx="119.708" cy="557.854" r="4" fill="#0" id="circle50"/>
	<circle cx="119.708" cy="565.568" r="4" fill="#0" id="circle51"/>
	<circle cx="120.479" cy="899.577" r="4" fill="#0" id="circle52"/>
	<circle cx="123.565" cy="526.998" r="4" fill="#0" id="circle53"/>
	<circle cx="127.421" cy="511.571" r="4" fill="#0" id="circle54"/>
	<circle cx="127.421" cy="519.285" r="4" fill="#0" id="circle55"/>
	<circle cx="128.193" cy="899.577" r="4" fill="#0" id="circle56"/>
	<circle cx="131.278" cy="492.286" r="4" fill="#0" id="circle57"/>
	<circle cx="131.278" cy="500" r="4" fill="#0" id="circle58"/>
	<circle cx="135.135" cy="469.145" r="4" fill="#0" id="circle59"/>
	<circle cx="135.135" cy="476.858" r="4" fill="#0" id="circle60"/>
	<circle cx="135.135" cy="484.572" r="4" fill="#0" id="circle61"/>
	<circle cx="135.135" cy="903.434" r="4" fill="#0" id="circle62"/>
	<circle cx="138.992" cy="461.431" r="4" fill="#0" id="circle63"/>
	<circle cx="142.078" cy="907.291" r="4" fill="#0" id="circle64"/>
	<circle cx="142.849" cy="446.003" r="4" fill="#0" id="circle65"/>
	<circle cx="142.849" cy="453.717" r="4" fill="#0" id="circle66"/>
	<circle cx="146.706" cy="438.289" r="4" fill="#0" id="circle67"/>
	<circle cx="149.792" cy="907.291" r="4" fill="#0" id="circle68"/>
	<circle cx="150.563" cy="426.719" r="4" fill="#0" id="circle69"/>
	<circle cx="154.42" cy="419.005" r="4" fill="#0" id="circle70"/>
	<circle cx="157.505" cy="907.291" r="4" fill="#0" id="circle71"/>
	<circle cx="158.277" cy="403.577" r="4" fill="#0" id="circle72"/>
	<circle cx="158.277" cy="411.291" r="4" fill="#0" id="circle73"/>
	<circle cx="162.134" cy="388.149" r="4" fill="#0" id="circle74"/>
	<circle cx="162.134" cy="395.863" r="4" fill="#0" id="circle75"/>
	<circle cx="165.219" cy="907.291" r="4" fill="#0" id="circle76"/>
	<circle cx="165.991" cy="368.865" r="4" fill="#0" id="circle77"/>
	<circle cx="165.991" cy="376.579" r="4" fill="#0" id="circle78"/>
	<circle cx="169.848" cy="349.58" r="4" fill="#0" id="circle79"/>
	<circle cx="169.848" cy="357.294" r="4" fill="#0" id="circle80"/>
	<circle cx="172.162" cy="911.148" r="4" fill="#0" id="circle81"/>
	<circle cx="173.705" cy="314.868" r="4" fill="#0" id="circle82"/>
	<circle cx="173.705" cy="322.582" r="4" fill="#0" id="circle83"/>
	<circle cx="173.705" cy="330.295" r="4" fill="#0" id="circle84"/>
	<circle cx="173.705" cy="338.009" r="4" fill="#0" id="circle85"/>
	<circle cx="177.561" cy="291.726" r="4" fill="#0" id="circle86"/>
	<circle cx="177.561" cy="299.44" r="4" fill="#0" id="circle87"/>
	<circle cx="177.561" cy="307.154" r="4" fill="#0" id="circle88"/>
	<circle cx="179.104" cy="915.005" r="4" fill="#0" id="circle89"/>
	<circle cx="181.418" cy="222.302" r="4" fill="#0" id="circle90"/>
	<circle cx="181.418" cy="230.016" r="4" fill="#0" id="circle91"/>
	<circle cx="181.418" cy="237.729" r="4" fill="#0" id="circle92"/>
	<circle cx="181.418" cy="245.443" r="4" fill="#0" id="circle93"/>
	<circle cx="181.418" cy="253.157" r="4" fill="#0" id="circle94"/>
	<circle cx="181.418" cy="260.871" r="4" fill="#0" id="circle95"/>
	<circle cx="181.418" cy="268.585" r="4" fill="#0" id="circle96"/>
	<circle cx="181.418" cy="276.299" r="4" fill="#0" id="circle97"/>
	<circle cx="181.418" cy="284.012" r="4" fill="#0" id="circle98"/>
	<circle cx="185.275" cy="206.874" r="4" fill="#0" id="circle99"/>
	<circle cx="185.275" cy="214.588" r="4" fill="#0" id="circle100"/>
	<circle cx="186.818" cy="917.319" r="4" fill="#0" id="circle101"/>
	<circle cx="191.446" cy="200.703" r="4" fill="#0" id="circle102"/>
	<circle cx="194.532" cy="918.862" r="4" fill="#0" id="circle103"/>
	<circle cx="195.303" cy="192.989" r="4" fill="#0" id="circle104"/>
	<circle cx="201.474" cy="186.818" r="4" fill="#0" id="circle105"/>
	<circle cx="202.246" cy="921.176" r="4" fill="#0" id="circle106"/>
	<circle cx="207.645" cy="181.418" r="4" fill="#0" id="circle107"/>
	<circle cx="209.96" cy="922.719" r="4" fill="#0" id="circle108"/>
	<circle cx="214.588" cy="177.561" r="4" fill="#0" id="circle109"/>
	<circle cx="217.673" cy="922.719" r="4" fill="#0" id="circle110"/>
	<circle cx="221.53" cy="173.705" r="4" fill="#0" id="circle111"/>
	<circle cx="224.616" cy="926.575" r="4" fill="#0" id="circle112"/>
	<circle cx="229.244" cy="173.705" r="4" fill="#0" id="circle113"/>
	<circle cx="232.33" cy="926.575" r="4" fill="#0" id="circle114"/>
	<circle cx="236.958" cy="170.619" r="4" fill="#0" id="circle115"/>
	<circle cx="239.272" cy="930.432" r="4" fill="#0" id="circle116"/>
	<circle cx="244.672" cy="166.762" r="4" fill="#0" id="circle117"/>
	<circle cx="246.986" cy="102.737" r="4" fill="#0" id="circle118"/>
	<circle cx="246.986" cy="930.432" r="4" fill="#0" id="circle119"/>
	<circle cx="250.843" cy="83.4526" r="4" fill="#0" id="circle120"/>
	<circle cx="250.843" cy="91.1664" r="4" fill="#0" id="circle121"/>
	<circle cx="250.843" cy="109.68" r="4" fill="#0" id="circle122"/>
	<circle cx="250.843" cy="160.591" r="4" fill="#0" id="circle123"/>
	<circle cx="254.7" cy="71.8818" r="4" fill="#0" id="circle124"/>
	<circle cx="254.7" cy="116.622" r="4" fill="#0" id="circle125"/>
	<circle cx="254.7" cy="152.877" r="4" fill="#0" id="circle126"/>
	<circle cx="254.7" cy="930.432" r="4" fill="#0" id="circle127"/>
	<circle cx="257.014" cy="124.336" r="4" fill="#0" id="circle128"/>
	<circle cx="258.557" cy="64.168" r="4" fill="#0" id="circle129"/>
	<circle cx="258.557" cy="132.05" r="4" fill="#0" id="circle130"/>
	<circle cx="258.557" cy="139.764" r="4" fill="#0" id="circle131"/>
	<circle cx="261.642" cy="934.289" r="4" fill="#0" id="circle132"/>
	<circle cx="262.414" cy="56.4541" r="4" fill="#0" id="circle133"/>
	<circle cx="268.585" cy="50.283" r="4" fill="#0" id="circle134"/>
	<circle cx="269.356" cy="934.289" r="4" fill="#0" id="circle135"/>
	<circle cx="274.756" cy="44.112" r="4" fill="#0" id="circle136"/>
	<circle cx="276.299" cy="938.146" r="4" fill="#0" id="circle137"/>
	<circle cx="280.927" cy="38.7123" r="4" fill="#0" id="circle138"/>
	<circle cx="284.012" cy="938.146" r="4" fill="#0" id="circle139"/>
	<circle cx="287.869" cy="34.8554" r="4" fill="#0" id="circle140"/>
	<circle cx="291.726" cy="938.146" r="4" fill="#0" id="circle141"/>
	<circle cx="294.04" cy="28.6843" r="4" fill="#0" id="circle142"/>
	<circle cx="299.44" cy="938.146" r="4" fill="#0" id="circle143"/>
	<circle cx="300.212" cy="23.2846" r="4" fill="#0" id="circle144"/>
	<circle cx="305.611" cy="17.1135" r="4" fill="#0" id="circle145"/>
	<circle cx="307.154" cy="938.146" r="4" fill="#0" id="circle146"/>
	<circle cx="308.697" cy="945.86" r="4" fill="#0" id="circle147"/>
	<circle cx="308.697" cy="953.574" r="4" fill="#0" id="circle148"/>
	<circle cx="308.697" cy="961.288" r="4" fill="#0" id="circle149"/>
	<circle cx="308.697" cy="969.002" r="4" fill="#0" id="circle150"/>
	<circle cx="312.554" cy="975.944" r="4" fill="#0" id="circle151"/>
	<circle cx="313.325" cy="13.2566" r="4" fill="#0" id="circle152"/>
	<circle cx="317.182" cy="982.115" r="4" fill="#0" id="circle153"/>
	<circle cx="321.039" cy="9.39969" r="4" fill="#0" id="circle154"/>
	<circle cx="322.582" cy="988.286" r="4" fill="#0" id="circle155"/>
	<circle cx="328.753" cy="5.54277" r="4" fill="#0" id="circle156"/>
	<circle cx="329.524" cy="992.143" r="4" fill="#0" id="circle157"/>
	<circle cx="336.467" cy="4" r="4" fill="#0" id="circle158"/>
	<circle cx="336.467" cy="996" r="4" fill="#0" id="circle159"/>
	<circle cx="344.18" cy="4" r="4" fill="#0" id="circle160"/>
	<circle cx="344.18" cy="996" r="4" fill="#0" id="circle161"/>
	<circle cx="351.894" cy="4" r="4" fill="#0" id="circle162"/>
	<circle cx="351.894" cy="996" r="4" fill="#0" id="circle163"/>
	<circle cx="359.608" cy="4" r="4" fill="#0" id="circle164"/>
	<circle cx="359.608" cy="992.143" r="4" fill="#0" id="circle165"/>
	<circle cx="367.322" cy="4" r="4" fill="#0" id="circle166"/>
	<circle cx="367.322" cy="988.286" r="4" fill="#0" id="circle167"/>
	<circle cx="373.493" cy="982.886" r="4" fill="#0" id="circle168"/>
	<circle cx="375.036" cy="4" r="4" fill="#0" id="circle169"/>
	<circle cx="378.893" cy="972.858" r="4" fill="#0" id="circle170"/>
	<circle cx="382.75" cy="4" r="4" fill="#0" id="circle171"/>
	<circle cx="382.75" cy="942.003" r="4" fill="#0" id="circle172"/>
	<circle cx="382.75" cy="949.717" r="4" fill="#0" id="circle173"/>
	<circle cx="382.75" cy="957.431" r="4" fill="#0" id="circle174"/>
	<circle cx="382.75" cy="965.145" r="4" fill="#0" id="circle175"/>
	<circle cx="390.463" cy="4" r="4" fill="#0" id="circle176"/>
	<circle cx="390.463" cy="942.003" r="4" fill="#0" id="circle177"/>
	<circle cx="397.406" cy="7.85692" r="4" fill="#0" id="circle178"/>
	<circle cx="398.177" cy="938.146" r="4" fill="#0" id="circle179"/>
	<circle cx="404.348" cy="11.7138" r="4" fill="#0" id="circle180"/>
	<circle cx="405.891" cy="938.146" r="4" fill="#0" id="circle181"/>
	<circle cx="411.291" cy="15.5708" r="4" fill="#0" id="circle182"/>
	<circle cx="412.834" cy="934.289" r="4" fill="#0" id="circle183"/>
	<circle cx="418.233" cy="19.4277" r="4" fill="#0" id="circle184"/>
	<circle cx="420.547" cy="934.289" r="4" fill="#0" id="circle185"/>
	<circle cx="424.404" cy="24.8274" r="4" fill="#0" id="circle186"/>
	<circle cx="428.261" cy="931.975" r="4" fill="#0" id="circle187"/>
	<circle cx="429.033" cy="30.9984" r="4" fill="#0" id="circle188"/>
	<circle cx="435.204" cy="35.6267" r="4" fill="#0" id="circle189"/>
	<circle cx="435.975" cy="930.432" r="4" fill="#0" id="circle190"/>
	<circle cx="440.603" cy="41.7978" r="4" fill="#0" id="circle191"/>
	<circle cx="443.689" cy="930.432" r="4" fill="#0" id="circle192"/>
	<circle cx="444.46" cy="48.7403" r="4" fill="#0" id="circle193"/>
	<circle cx="449.86" cy="54.9114" r="4" fill="#0" id="circle194"/>
	<circle cx="451.403" cy="930.432" r="4" fill="#0" id="circle195"/>
	<circle cx="453.717" cy="61.8538" r="4" fill="#0" id="circle196"/>
	<circle cx="456.031" cy="69.5677" r="4" fill="#0" id="circle197"/>
	<circle cx="456.031" cy="120.479" r="4" fill="#0" id="circle198"/>
	<circle cx="456.031" cy="128.193" r="4" fill="#0" id="circle199"/>
	<circle cx="456.031" cy="135.907" r="4" fill="#0" id="circle200"/>
	<circle cx="456.031" cy="143.621" r="4" fill="#0" id="circle201"/>
	<circle cx="458.345" cy="926.575" r="4" fill="#0" id="circle202"/>
	<circle cx="459.888" cy="76.5101" r="4" fill="#0" id="circle203"/>
	<circle cx="459.888" cy="112.765" r="4" fill="#0" id="circle204"/>
	<circle cx="459.888" cy="150.563" r="4" fill="#0" id="circle205"/>
	<circle cx="463.745" cy="83.4526" r="4" fill="#0" id="circle206"/>
	<circle cx="463.745" cy="91.1664" r="4" fill="#0" id="circle207"/>
	<circle cx="463.745" cy="98.8802" r="4" fill="#0" id="circle208"/>
	<circle cx="463.745" cy="157.505" r="4" fill="#0" id="circle209"/>
	<circle cx="465.288" cy="922.719" r="4" fill="#0" id="circle210"/>
	<circle cx="469.916" cy="162.905" r="4" fill="#0" id="circle211"/>
	<circle cx="473.002" cy="922.719" r="4" fill="#0" id="circle212"/>
	<circle cx="475.316" cy="169.076" r="4" fill="#0" id="circle213"/>
	<circle cx="480.715" cy="921.947" r="4" fill="#0" id="circle214"/>
	<circle cx="483.03" cy="172.162" r="4" fill="#0" id="circle215"/>
	<circle cx="488.429" cy="918.862" r="4" fill="#0" id="circle216"/>
	<circle cx="489.972" cy="176.019" r="4" fill="#0" id="circle217"/>
	<circle cx="496.143" cy="181.418" r="4" fill="#0" id="circle218"/>
	<circle cx="496.143" cy="918.09" r="4" fill="#0" id="circle219"/>
	<circle cx="501.543" cy="187.589" r="4" fill="#0" id="circle220"/>
	<circle cx="503.857" cy="915.005" r="4" fill="#0" id="circle221"/>
	<circle cx="507.714" cy="192.989" r="4" fill="#0" id="circle222"/>
	<circle cx="511.571" cy="914.233" r="4" fill="#0" id="circle223"/>
	<circle cx="513.885" cy="197.617" r="4" fill="#0" id="circle224"/>
	<circle cx="513.885" cy="205.331" r="4" fill="#0" id="circle225"/>
	<circle cx="517.742" cy="212.274" r="4" fill="#0" id="circle226"/>
	<circle cx="519.285" cy="911.148" r="4" fill="#0" id="circle227"/>
	<circle cx="521.599" cy="219.216" r="4" fill="#0" id="circle228"/>
	<circle cx="521.599" cy="226.93" r="4" fill="#0" id="circle229"/>
	<circle cx="521.599" cy="234.644" r="4" fill="#0" id="circle230"/>
	<circle cx="521.599" cy="242.358" r="4" fill="#0" id="circle231"/>
	<circle cx="521.599" cy="250.072" r="4" fill="#0" id="circle232"/>
	<circle cx="521.599" cy="257.785" r="4" fill="#0" id="circle233"/>
	<circle cx="521.599" cy="265.499" r="4" fill="#0" id="circle234"/>
	<circle cx="521.599" cy="273.213" r="4" fill="#0" id="circle235"/>
	<circle cx="521.599" cy="280.927" r="4" fill="#0" id="circle236"/>
	<circle cx="525.456" cy="287.869" r="4" fill="#0" id="circle237"/>
	<circle cx="525.456" cy="295.583" r="4" fill="#0" id="circle238"/>
	<circle cx="525.456" cy="303.297" r="4" fill="#0" id="circle239"/>
	<circle cx="525.456" cy="311.011" r="4" fill="#0" id="circle240"/>
	<circle cx="526.227" cy="907.291" r="4" fill="#0" id="circle241"/>
	<circle cx="528.541" cy="318.725" r="4" fill="#0" id="circle242"/>
	<circle cx="529.313" cy="326.439" r="4" fill="#0" id="circle243"/>
	<circle cx="529.313" cy="334.152" r="4" fill="#0" id="circle244"/>
	<circle cx="529.313" cy="341.866" r="4" fill="#0" id="circle245"/>
	<circle cx="529.313" cy="349.58" r="4" fill="#0" id="circle246"/>
	<circle cx="529.313" cy="357.294" r="4" fill="#0" id="circle247"/>
	<circle cx="532.398" cy="365.008" r="4" fill="#0" id="circle248"/>
	<circle cx="533.17" cy="903.434" r="4" fill="#0" id="circle249"/>
	<circle cx="536.255" cy="371.95" r="4" fill="#0" id="circle250"/>
	<circle cx="537.026" cy="379.664" r="4" fill="#0" id="circle251"/>
	<circle cx="537.026" cy="387.378" r="4" fill="#0" id="circle252"/>
	<circle cx="540.883" cy="394.32" r="4" fill="#0" id="circle253"/>
	<circle cx="540.883" cy="402.034" r="4" fill="#0" id="circle254"/>
	<circle cx="540.883" cy="409.748" r="4" fill="#0" id="circle255"/>
	<circle cx="540.883" cy="903.434" r="4" fill="#0" id="circle256"/>
	<circle cx="542.426" cy="417.462" r="4" fill="#0" id="circle257"/>
	<circle cx="544.74" cy="425.176" r="4" fill="#0" id="circle258"/>
	<circle cx="544.74" cy="432.89" r="4" fill="#0" id="circle259"/>
	<circle cx="544.74" cy="440.603" r="4" fill="#0" id="circle260"/>
	<circle cx="548.597" cy="447.546" r="4" fill="#0" id="circle261"/>
	<circle cx="548.597" cy="899.577" r="4" fill="#0" id="circle262"/>
	<circle cx="552.454" cy="454.488" r="4" fill="#0" id="circle263"/>
	<circle cx="552.454" cy="462.202" r="4" fill="#0" id="circle264"/>
	<circle cx="552.454" cy="469.916" r="4" fill="#0" id="circle265"/>
	<circle cx="556.311" cy="476.858" r="4" fill="#0" id="circle266"/>
	<circle cx="556.311" cy="484.572" r="4" fill="#0" id="circle267"/>
	<circle cx="556.311" cy="899.577" r="4" fill="#0" id="circle268"/>
	<circle cx="560.168" cy="491.515" r="4" fill="#0" id="circle269"/>
	<circle cx="560.168" cy="499.229" r="4" fill="#0" id="circle270"/>
	<circle cx="564.025" cy="506.171" r="4" fill="#0" id="circle271"/>
	<circle cx="564.025" cy="513.885" r="4" fill="#0" id="circle272"/>
	<circle cx="564.025" cy="895.72" r="4" fill="#0" id="circle273"/>
	<circle cx="567.882" cy="520.827" r="4" fill="#0" id="circle274"/>
	<circle cx="567.882" cy="528.541" r="4" fill="#0" id="circle275"/>
	<circle cx="571.739" cy="535.484" r="4" fill="#0" id="circle276"/>
	<circle cx="571.739" cy="543.198" r="4" fill="#0" id="circle277"/>
	<circle cx="571.739" cy="550.911" r="4" fill="#0" id="circle278"/>
	<circle cx="571.739" cy="895.72" r="4" fill="#0" id="circle279"/>
	<circle cx="575.596" cy="557.854" r="4" fill="#0" id="circle280"/>
	<circle cx="575.596" cy="565.568" r="4" fill="#0" id="circle281"/>
	<circle cx="578.681" cy="573.281" r="4" fill="#0" id="circle282"/>
	<circle cx="579.453" cy="580.995" r="4" fill="#0" id="circle283"/>
	<circle cx="579.453" cy="588.709" r="4" fill="#0" id="circle284"/>
	<circle cx="579.453" cy="891.863" r="4" fill="#0" id="circle285"/>
	<circle cx="583.309" cy="595.652" r="4" fill="#0" id="circle286"/>
	<circle cx="585.624" cy="603.365" r="4" fill="#0" id="circle287"/>
	<circle cx="587.166" cy="611.079" r="4" fill="#0" id="circle288"/>
	<circle cx="587.166" cy="891.863" r="4" fill="#0" id="circle289"/>
	<circle cx="591.023" cy="618.022" r="4" fill="#0" id="circle290"/>
	<circle cx="591.023" cy="625.736" r="4" fill="#0" id="circle291"/>
	<circle cx="594.109" cy="888.006" r="4" fill="#0" id="circle292"/>
	<circle cx="594.88" cy="632.678" r="4" fill="#0" id="circle293"/>
	<circle cx="598.737" cy="639.621" r="4" fill="#0" id="circle294"/>
	<circle cx="598.737" cy="647.334" r="4" fill="#0" id="circle295"/>
	<circle cx="598.737" cy="655.048" r="4" fill="#0" id="circle296"/>
	<circle cx="601.051" cy="884.149" r="4" fill="#0" id="circle297"/>
	<circle cx="602.594" cy="661.991" r="4" fill="#0" id="circle298"/>
	<circle cx="606.451" cy="668.933" r="4" fill="#0" id="circle299"/>
	<circle cx="608.765" cy="884.149" r="4" fill="#0" id="circle300"/>
	<circle cx="610.308" cy="675.876" r="4" fill="#0" id="circle301"/>
	<circle cx="611.851" cy="683.589" r="4" fill="#0" id="circle302"/>
	<circle cx="614.165" cy="691.303" r="4" fill="#0" id="circle303"/>
	<circle cx="614.165" cy="699.017" r="4" fill="#0" id="circle304"/>
	<circle cx="615.708" cy="880.292" r="4" fill="#0" id="circle305"/>
	<circle cx="618.022" cy="705.96" r="4" fill="#0" id="circle306"/>
	<circle cx="621.879" cy="712.902" r="4" fill="#0" id="circle307"/>
	<circle cx="623.421" cy="879.521" r="4" fill="#0" id="circle308"/>
	<circle cx="625.736" cy="719.844" r="4" fill="#0" id="circle309"/>
	<circle cx="628.821" cy="727.558" r="4" fill="#0" id="circle310"/>
	<circle cx="629.593" cy="735.272" r="4" fill="#0" id="circle311"/>
	<circle cx="631.135" cy="875.664" r="4" fill="#0" id="circle312"/>
	<circle cx="632.678" cy="742.986" r="4" fill="#0" id="circle313"/>
	<circle cx="636.535" cy="749.928" r="4" fill="#0" id="circle314"/>
	<circle cx="638.849" cy="872.579" r="4" fill="#0" id="circle315"/>
	<circle cx="639.621" cy="757.642" r="4" fill="#0" id="circle316"/>
	<circle cx="641.163" cy="765.356" r="4" fill="#0" id="circle317"/>
	<circle cx="641.163" cy="773.07" r="4" fill="#0" id="circle318"/>
	<circle cx="645.02" cy="780.012" r="4" fill="#0" id="circle319"/>
	<circle cx="645.02" cy="787.726" r="4" fill="#0" id="circle320"/>
	<circle cx="646.563" cy="872.579" r="4" fill="#0" id="circle321"/>
	<circle cx="648.877" cy="794.669" r="4" fill="#0" id="circle322"/>
	<circle cx="652.734" cy="801.611" r="4" fill="#0" id="circle323"/>
	<circle cx="654.277" cy="872.579" r="4" fill="#0" id="circle324"/>
	<circle cx="656.591" cy="808.554" r="4" fill="#0" id="circle325"/>
	<circle cx="659.677" cy="816.267" r="4" fill="#0" id="circle326"/>
	<circle cx="661.219" cy="868.722" r="4" fill="#0" id="circle327"/>
	<circle cx="663.533" cy="823.21" r="4" fill="#0" id="circle328"/>
	<circle cx="666.619" cy="830.924" r="4" fill="#0" id="circle329"/>
	<circle cx="668.162" cy="864.865" r="4" fill="#0" id="circle330"/>
	<circle cx="670.476" cy="837.866" r="4" fill="#0" id="circle331"/>
	<circle cx="673.561" cy="845.58" r="4" fill="#0" id="circle332"/>
	<circle cx="675.876" cy="861.008" r="4" fill="#0" id="circle333"/>
	<circle cx="677.418" cy="852.523" r="4" fill="#0" id="circle334"/>
	</g>
</svg>