<?xml version="1.0" encoding="UTF-8" standalone="no"?>
<!-- Created with CurveBenchmark -->
<svg
	xmlns:dc="http://purl.org/dc/elements/1.1/"
	xmlns:cc="http://creativecommons.org/ns#"
	xmlns:rdf="http://www.w3.org/1999/02/22-rdf-syntax-ns#"
	xmlns:svg="http://www.w3.org/2000/svg"
	xmlns="http://www.w3.org/2000/svg"
	xmlns:sodipodi="http://sodipodi.sourceforge.net/DTD/sodipodi-0.dtd"
	xmlns:inkscape="http://www.inkscape.org/namespaces/inkscape"
	width="1000"
	height="1000"
	id="svg2"
	version="1.1"
	sodipodi:docname="manifold/nncrust-flatfish09.png.txt">
<defs
	id="defs4" />
<metadata
	id="metadata7">
	<rdf:RDF>
		<cc:Work
			rdf:about="">
			<dc:format>image/svg+xml</dc:format>
			<dc:type
				rdf:resource="http://purl.org/dc/dcmitype/StillImage" />
			<dc:title></dc:title>
		</cc:Work>
	</rdf:RDF>
</metadata>
<g
	inkscape:label="Layer 1"
	inkscape:groupmode="layer"
	id="layer1">
	<path style="fill:none;stroke:red;stroke-width:1px;stroke-linecap:butt;stroke-linejoin:miter;stroke-opacity:1" d="M 142.969,144.447 156.274,137.055 z" id="boundary" inkscape:connector-curvature="0" />
	<path style="fill:none;stroke:red;stroke-width:1px;stroke-linecap:butt;stroke-linejoin:miter;stroke-opacity:1" d="M 131.142,154.796 142.969,144.447 z" id="boundary" inkscape:connector-curvature="0" />
	<path style="fill:none;stroke:red;stroke-width:1px;stroke-linecap:butt;stroke-linejoin:miter;stroke-opacity:1" d="M 168.101,125.228 156.274,137.055 z" id="boundary" inkscape:connector-curvature="0" />
	<path style="fill:none;stroke:red;stroke-width:1px;stroke-linecap:butt;stroke-linejoin:miter;stroke-opacity:1" d="M 131.142,154.796 120.793,166.623 z" id="boundary" inkscape:connector-curvature="0" />
	<path style="fill:none;stroke:red;stroke-width:1px;stroke-linecap:butt;stroke-linejoin:miter;stroke-opacity:1" d="M 120.793,166.623 108.966,176.972 z" id="boundary" inkscape:connector-curvature="0" />
	<path style="fill:none;stroke:red;stroke-width:1px;stroke-linecap:butt;stroke-linejoin:miter;stroke-opacity:1" d="M 218.367,89.7466 206.539,100.095 z" id="boundary" inkscape:connector-curvature="0" />
	<path style="fill:none;stroke:red;stroke-width:1px;stroke-linecap:butt;stroke-linejoin:miter;stroke-opacity:1" d="M 206.539,100.095 193.234,107.487 z" id="boundary" inkscape:connector-curvature="0" />
	<path style="fill:none;stroke:red;stroke-width:1px;stroke-linecap:butt;stroke-linejoin:miter;stroke-opacity:1" d="M 168.101,125.228 179.928,114.879 z" id="boundary" inkscape:connector-curvature="0" />
	<path style="fill:none;stroke:red;stroke-width:1px;stroke-linecap:butt;stroke-linejoin:miter;stroke-opacity:1" d="M 179.928,114.879 193.234,107.487 z" id="boundary" inkscape:connector-curvature="0" />
	<path style="fill:none;stroke:red;stroke-width:1px;stroke-linecap:butt;stroke-linejoin:miter;stroke-opacity:1" d="M 230.194,77.9195 218.367,89.7466 z" id="boundary" inkscape:connector-curvature="0" />
	<path style="fill:none;stroke:red;stroke-width:1px;stroke-linecap:butt;stroke-linejoin:miter;stroke-opacity:1" d="M 15.8271,277.502 27.6542,265.675 z" id="boundary" inkscape:connector-curvature="0" />
	<path style="fill:none;stroke:red;stroke-width:1px;stroke-linecap:butt;stroke-linejoin:miter;stroke-opacity:1" d="M 42.4382,258.283 27.6542,265.675 z" id="boundary" inkscape:connector-curvature="0" />
	<path style="fill:none;stroke:red;stroke-width:1px;stroke-linecap:butt;stroke-linejoin:miter;stroke-opacity:1" d="M 4,289.329 15.8271,277.502 z" id="boundary" inkscape:connector-curvature="0" />
	<path style="fill:none;stroke:red;stroke-width:1px;stroke-linecap:butt;stroke-linejoin:miter;stroke-opacity:1" d="M 4,304.113 4,289.329 z" id="boundary" inkscape:connector-curvature="0" />
	<path style="fill:none;stroke:red;stroke-width:1px;stroke-linecap:butt;stroke-linejoin:miter;stroke-opacity:1" d="M 85.3115,200.626 97.1386,188.799 z" id="boundary" inkscape:connector-curvature="0" />
	<path style="fill:none;stroke:red;stroke-width:1px;stroke-linecap:butt;stroke-linejoin:miter;stroke-opacity:1" d="M 85.3115,215.41 85.3115,200.626 z" id="boundary" inkscape:connector-curvature="0" />
	<path style="fill:none;stroke:red;stroke-width:1px;stroke-linecap:butt;stroke-linejoin:miter;stroke-opacity:1" d="M 97.1386,188.799 108.966,176.972 z" id="boundary" inkscape:connector-curvature="0" />
	<path style="fill:none;stroke:red;stroke-width:1px;stroke-linecap:butt;stroke-linejoin:miter;stroke-opacity:1" d="M 85.3115,215.41 77.9195,230.194 z" id="boundary" inkscape:connector-curvature="0" />
	<path style="fill:none;stroke:red;stroke-width:1px;stroke-linecap:butt;stroke-linejoin:miter;stroke-opacity:1" d="M 70.5276,244.978 57.2221,255.326 z" id="boundary" inkscape:connector-curvature="0" />
	<path style="fill:none;stroke:red;stroke-width:1px;stroke-linecap:butt;stroke-linejoin:miter;stroke-opacity:1" d="M 57.2221,255.326 42.4382,258.283 z" id="boundary" inkscape:connector-curvature="0" />
	<path style="fill:none;stroke:red;stroke-width:1px;stroke-linecap:butt;stroke-linejoin:miter;stroke-opacity:1" d="M 77.9195,230.194 70.5276,244.978 z" id="boundary" inkscape:connector-curvature="0" />
	<path style="fill:none;stroke:red;stroke-width:1px;stroke-linecap:butt;stroke-linejoin:miter;stroke-opacity:1" d="M 395.773,4 410.557,4 z" id="boundary" inkscape:connector-curvature="0" />
	<path style="fill:none;stroke:red;stroke-width:1px;stroke-linecap:butt;stroke-linejoin:miter;stroke-opacity:1" d="M 382.468,11.392 395.773,4 z" id="boundary" inkscape:connector-curvature="0" />
	<path style="fill:none;stroke:red;stroke-width:1px;stroke-linecap:butt;stroke-linejoin:miter;stroke-opacity:1" d="M 382.468,11.392 367.684,11.392 z" id="boundary" inkscape:connector-curvature="0" />
	<path style="fill:none;stroke:red;stroke-width:1px;stroke-linecap:butt;stroke-linejoin:miter;stroke-opacity:1" d="M 410.557,4 425.341,4 z" id="boundary" inkscape:connector-curvature="0" />
	<path style="fill:none;stroke:red;stroke-width:1px;stroke-linecap:butt;stroke-linejoin:miter;stroke-opacity:1" d="M 425.341,4 440.125,4 z" id="boundary" inkscape:connector-curvature="0" />
	<path style="fill:none;stroke:red;stroke-width:1px;stroke-linecap:butt;stroke-linejoin:miter;stroke-opacity:1" d="M 352.9,14.3487 367.684,11.392 z" id="boundary" inkscape:connector-curvature="0" />
	<path style="fill:none;stroke:red;stroke-width:1px;stroke-linecap:butt;stroke-linejoin:miter;stroke-opacity:1" d="M 440.125,4 454.909,4 z" id="boundary" inkscape:connector-curvature="0" />
	<path style="fill:none;stroke:red;stroke-width:1px;stroke-linecap:butt;stroke-linejoin:miter;stroke-opacity:1" d="M 469.693,4 484.477,4 z" id="boundary" inkscape:connector-curvature="0" />
	<path style="fill:none;stroke:red;stroke-width:1px;stroke-linecap:butt;stroke-linejoin:miter;stroke-opacity:1" d="M 484.477,4 497.782,11.392 z" id="boundary" inkscape:connector-curvature="0" />
	<path style="fill:none;stroke:red;stroke-width:1px;stroke-linecap:butt;stroke-linejoin:miter;stroke-opacity:1" d="M 512.566,11.392 497.782,11.392 z" id="boundary" inkscape:connector-curvature="0" />
	<path style="fill:none;stroke:red;stroke-width:1px;stroke-linecap:butt;stroke-linejoin:miter;stroke-opacity:1" d="M 454.909,4 469.693,4 z" id="boundary" inkscape:connector-curvature="0" />
	<path style="fill:none;stroke:red;stroke-width:1px;stroke-linecap:butt;stroke-linejoin:miter;stroke-opacity:1" d="M 268.632,48.3517 281.937,40.9598 z" id="boundary" inkscape:connector-curvature="0" />
	<path style="fill:none;stroke:red;stroke-width:1px;stroke-linecap:butt;stroke-linejoin:miter;stroke-opacity:1" d="M 256.805,58.7004 268.632,48.3517 z" id="boundary" inkscape:connector-curvature="0" />
	<path style="fill:none;stroke:red;stroke-width:1px;stroke-linecap:butt;stroke-linejoin:miter;stroke-opacity:1" d="M 230.194,77.9195 242.021,66.0924 z" id="boundary" inkscape:connector-curvature="0" />
	<path style="fill:none;stroke:red;stroke-width:1px;stroke-linecap:butt;stroke-linejoin:miter;stroke-opacity:1" d="M 242.021,66.0924 256.805,58.7004 z" id="boundary" inkscape:connector-curvature="0" />
	<path style="fill:none;stroke:red;stroke-width:1px;stroke-linecap:butt;stroke-linejoin:miter;stroke-opacity:1" d="M 281.937,40.9598 296.721,33.5678 z" id="boundary" inkscape:connector-curvature="0" />
	<path style="fill:none;stroke:red;stroke-width:1px;stroke-linecap:butt;stroke-linejoin:miter;stroke-opacity:1" d="M 338.116,18.7839 323.332,18.7839 z" id="boundary" inkscape:connector-curvature="0" />
	<path style="fill:none;stroke:red;stroke-width:1px;stroke-linecap:butt;stroke-linejoin:miter;stroke-opacity:1" d="M 352.9,14.3487 338.116,18.7839 z" id="boundary" inkscape:connector-curvature="0" />
	<path style="fill:none;stroke:red;stroke-width:1px;stroke-linecap:butt;stroke-linejoin:miter;stroke-opacity:1" d="M 296.721,33.5678 310.027,26.1759 z" id="boundary" inkscape:connector-curvature="0" />
	<path style="fill:none;stroke:red;stroke-width:1px;stroke-linecap:butt;stroke-linejoin:miter;stroke-opacity:1" d="M 310.027,26.1759 323.332,18.7839 z" id="boundary" inkscape:connector-curvature="0" />
	<path style="fill:none;stroke:red;stroke-width:1px;stroke-linecap:butt;stroke-linejoin:miter;stroke-opacity:1" d="M 527.35,12.8703 512.566,11.392 z" id="boundary" inkscape:connector-curvature="0" />
	<path style="fill:none;stroke:red;stroke-width:1px;stroke-linecap:butt;stroke-linejoin:miter;stroke-opacity:1" d="M 4,318.897 15.8271,329.246 z" id="boundary" inkscape:connector-curvature="0" />
	<path style="fill:none;stroke:red;stroke-width:1px;stroke-linecap:butt;stroke-linejoin:miter;stroke-opacity:1" d="M 4,318.897 4,304.113 z" id="boundary" inkscape:connector-curvature="0" />
	<path style="fill:none;stroke:red;stroke-width:1px;stroke-linecap:butt;stroke-linejoin:miter;stroke-opacity:1" d="M 29.1326,336.638 43.9165,342.551 z" id="boundary" inkscape:connector-curvature="0" />
	<path style="fill:none;stroke:red;stroke-width:1px;stroke-linecap:butt;stroke-linejoin:miter;stroke-opacity:1" d="M 43.9165,342.551 55.7437,352.9 z" id="boundary" inkscape:connector-curvature="0" />
	<path style="fill:none;stroke:red;stroke-width:1px;stroke-linecap:butt;stroke-linejoin:miter;stroke-opacity:1" d="M 29.1326,336.638 15.8271,329.246 z" id="boundary" inkscape:connector-curvature="0" />
	<path style="fill:none;stroke:red;stroke-width:1px;stroke-linecap:butt;stroke-linejoin:miter;stroke-opacity:1" d="M 69.0492,360.292 79.3979,372.119 z" id="boundary" inkscape:connector-curvature="0" />
	<path style="fill:none;stroke:red;stroke-width:1px;stroke-linecap:butt;stroke-linejoin:miter;stroke-opacity:1" d="M 55.7437,352.9 69.0492,360.292 z" id="boundary" inkscape:connector-curvature="0" />
	<path style="fill:none;stroke:red;stroke-width:1px;stroke-linecap:butt;stroke-linejoin:miter;stroke-opacity:1" d="M 94.1818,378.033 79.3979,372.119 z" id="boundary" inkscape:connector-curvature="0" />
	<path style="fill:none;stroke:red;stroke-width:1px;stroke-linecap:butt;stroke-linejoin:miter;stroke-opacity:1" d="M 119.314,395.773 104.531,389.86 z" id="boundary" inkscape:connector-curvature="0" />
	<path style="fill:none;stroke:red;stroke-width:1px;stroke-linecap:butt;stroke-linejoin:miter;stroke-opacity:1" d="M 104.531,389.86 94.1818,378.033 z" id="boundary" inkscape:connector-curvature="0" />
	<path style="fill:none;stroke:red;stroke-width:1px;stroke-linecap:butt;stroke-linejoin:miter;stroke-opacity:1" d="M 132.62,403.165 119.314,395.773 z" id="boundary" inkscape:connector-curvature="0" />
	<path style="fill:none;stroke:red;stroke-width:1px;stroke-linecap:butt;stroke-linejoin:miter;stroke-opacity:1" d="M 132.62,403.165 144.447,412.036 z" id="boundary" inkscape:connector-curvature="0" />
	<path style="fill:none;stroke:red;stroke-width:1px;stroke-linecap:butt;stroke-linejoin:miter;stroke-opacity:1" d="M 144.447,412.036 153.317,423.863 z" id="boundary" inkscape:connector-curvature="0" />
	<path style="fill:none;stroke:red;stroke-width:1px;stroke-linecap:butt;stroke-linejoin:miter;stroke-opacity:1" d="M 178.45,441.604 165.145,434.212 z" id="boundary" inkscape:connector-curvature="0" />
	<path style="fill:none;stroke:red;stroke-width:1px;stroke-linecap:butt;stroke-linejoin:miter;stroke-opacity:1" d="M 165.145,434.212 153.317,423.863 z" id="boundary" inkscape:connector-curvature="0" />
	<path style="fill:none;stroke:red;stroke-width:1px;stroke-linecap:butt;stroke-linejoin:miter;stroke-opacity:1" d="M 178.45,441.604 185.842,454.909 z" id="boundary" inkscape:connector-curvature="0" />
	<path style="fill:none;stroke:red;stroke-width:1px;stroke-linecap:butt;stroke-linejoin:miter;stroke-opacity:1" d="M 185.842,454.909 188.799,469.693 z" id="boundary" inkscape:connector-curvature="0" />
	<path style="fill:none;stroke:red;stroke-width:1px;stroke-linecap:butt;stroke-linejoin:miter;stroke-opacity:1" d="M 191.756,484.477 188.799,469.693 z" id="boundary" inkscape:connector-curvature="0" />
	<path style="fill:none;stroke:red;stroke-width:1px;stroke-linecap:butt;stroke-linejoin:miter;stroke-opacity:1" d="M 203.583,493.347 191.756,484.477 z" id="boundary" inkscape:connector-curvature="0" />
	<path style="fill:none;stroke:red;stroke-width:1px;stroke-linecap:butt;stroke-linejoin:miter;stroke-opacity:1" d="M 227.237,511.088 212.453,505.174 z" id="boundary" inkscape:connector-curvature="0" />
	<path style="fill:none;stroke:red;stroke-width:1px;stroke-linecap:butt;stroke-linejoin:miter;stroke-opacity:1" d="M 212.453,505.174 203.583,493.347 z" id="boundary" inkscape:connector-curvature="0" />
	<path style="fill:none;stroke:red;stroke-width:1px;stroke-linecap:butt;stroke-linejoin:miter;stroke-opacity:1" d="M 240.542,518.48 227.237,511.088 z" id="boundary" inkscape:connector-curvature="0" />
	<path style="fill:none;stroke:red;stroke-width:1px;stroke-linecap:butt;stroke-linejoin:miter;stroke-opacity:1" d="M 240.542,518.48 252.37,528.829 z" id="boundary" inkscape:connector-curvature="0" />
	<path style="fill:none;stroke:red;stroke-width:1px;stroke-linecap:butt;stroke-linejoin:miter;stroke-opacity:1" d="M 264.197,537.699 277.502,545.091 z" id="boundary" inkscape:connector-curvature="0" />
	<path style="fill:none;stroke:red;stroke-width:1px;stroke-linecap:butt;stroke-linejoin:miter;stroke-opacity:1" d="M 277.502,545.091 286.373,556.918 z" id="boundary" inkscape:connector-curvature="0" />
	<path style="fill:none;stroke:red;stroke-width:1px;stroke-linecap:butt;stroke-linejoin:miter;stroke-opacity:1" d="M 264.197,537.699 252.37,528.829 z" id="boundary" inkscape:connector-curvature="0" />
	<path style="fill:none;stroke:red;stroke-width:1px;stroke-linecap:butt;stroke-linejoin:miter;stroke-opacity:1" d="M 301.156,562.832 286.373,556.918 z" id="boundary" inkscape:connector-curvature="0" />
	<path style="fill:none;stroke:red;stroke-width:1px;stroke-linecap:butt;stroke-linejoin:miter;stroke-opacity:1" d="M 301.156,562.832 311.505,574.659 z" id="boundary" inkscape:connector-curvature="0" />
	<path style="fill:none;stroke:red;stroke-width:1px;stroke-linecap:butt;stroke-linejoin:miter;stroke-opacity:1" d="M 326.289,574.659 311.505,574.659 z" id="boundary" inkscape:connector-curvature="0" />
	<path style="fill:none;stroke:red;stroke-width:1px;stroke-linecap:butt;stroke-linejoin:miter;stroke-opacity:1" d="M 339.595,582.051 326.289,574.659 z" id="boundary" inkscape:connector-curvature="0" />
	<path style="fill:none;stroke:red;stroke-width:1px;stroke-linecap:butt;stroke-linejoin:miter;stroke-opacity:1" d="M 339.595,582.051 352.9,589.443 z" id="boundary" inkscape:connector-curvature="0" />
	<path style="fill:none;stroke:red;stroke-width:1px;stroke-linecap:butt;stroke-linejoin:miter;stroke-opacity:1" d="M 352.9,589.443 367.684,592.399 z" id="boundary" inkscape:connector-curvature="0" />
	<path style="fill:none;stroke:red;stroke-width:1px;stroke-linecap:butt;stroke-linejoin:miter;stroke-opacity:1" d="M 410.557,604.227 395.773,604.227 z" id="boundary" inkscape:connector-curvature="0" />
	<path style="fill:none;stroke:red;stroke-width:1px;stroke-linecap:butt;stroke-linejoin:miter;stroke-opacity:1" d="M 395.773,604.227 382.468,596.835 z" id="boundary" inkscape:connector-curvature="0" />
	<path style="fill:none;stroke:red;stroke-width:1px;stroke-linecap:butt;stroke-linejoin:miter;stroke-opacity:1" d="M 425.341,604.227 410.557,604.227 z" id="boundary" inkscape:connector-curvature="0" />
	<path style="fill:none;stroke:red;stroke-width:1px;stroke-linecap:butt;stroke-linejoin:miter;stroke-opacity:1" d="M 367.684,592.399 382.468,596.835 z" id="boundary" inkscape:connector-curvature="0" />
	<path style="fill:none;stroke:red;stroke-width:1px;stroke-linecap:butt;stroke-linejoin:miter;stroke-opacity:1" d="M 440.125,604.227 425.341,604.227 z" id="boundary" inkscape:connector-curvature="0" />
	<path style="fill:none;stroke:red;stroke-width:1px;stroke-linecap:butt;stroke-linejoin:miter;stroke-opacity:1" d="M 482.999,596.835 496.304,589.443 z" id="boundary" inkscape:connector-curvature="0" />
	<path style="fill:none;stroke:red;stroke-width:1px;stroke-linecap:butt;stroke-linejoin:miter;stroke-opacity:1" d="M 496.304,589.443 511.088,587.964 z" id="boundary" inkscape:connector-curvature="0" />
	<path style="fill:none;stroke:red;stroke-width:1px;stroke-linecap:butt;stroke-linejoin:miter;stroke-opacity:1" d="M 454.909,604.227 440.125,604.227 z" id="boundary" inkscape:connector-curvature="0" />
	<path style="fill:none;stroke:red;stroke-width:1px;stroke-linecap:butt;stroke-linejoin:miter;stroke-opacity:1" d="M 469.693,604.227 454.909,604.227 z" id="boundary" inkscape:connector-curvature="0" />
	<path style="fill:none;stroke:red;stroke-width:1px;stroke-linecap:butt;stroke-linejoin:miter;stroke-opacity:1" d="M 482.999,596.835 469.693,604.227 z" id="boundary" inkscape:connector-curvature="0" />
	<path style="fill:none;stroke:red;stroke-width:1px;stroke-linecap:butt;stroke-linejoin:miter;stroke-opacity:1" d="M 525.872,580.572 511.088,587.964 z" id="boundary" inkscape:connector-curvature="0" />
	<path style="fill:none;stroke:red;stroke-width:1px;stroke-linecap:butt;stroke-linejoin:miter;stroke-opacity:1" d="M 537.699,24.6975 549.526,33.5678 z" id="boundary" inkscape:connector-curvature="0" />
	<path style="fill:none;stroke:red;stroke-width:1px;stroke-linecap:butt;stroke-linejoin:miter;stroke-opacity:1" d="M 537.699,24.6975 527.35,12.8703 z" id="boundary" inkscape:connector-curvature="0" />
	<path style="fill:none;stroke:red;stroke-width:1px;stroke-linecap:butt;stroke-linejoin:miter;stroke-opacity:1" d="M 549.526,33.5678 562.832,40.9598 z" id="boundary" inkscape:connector-curvature="0" />
	<path style="fill:none;stroke:red;stroke-width:1px;stroke-linecap:butt;stroke-linejoin:miter;stroke-opacity:1" d="M 562.832,40.9598 573.18,52.7869 z" id="boundary" inkscape:connector-curvature="0" />
	<path style="fill:none;stroke:red;stroke-width:1px;stroke-linecap:butt;stroke-linejoin:miter;stroke-opacity:1" d="M 573.18,52.7869 585.007,63.1356 z" id="boundary" inkscape:connector-curvature="0" />
	<path style="fill:none;stroke:red;stroke-width:1px;stroke-linecap:butt;stroke-linejoin:miter;stroke-opacity:1" d="M 585.007,63.1356 598.313,70.5276 z" id="boundary" inkscape:connector-curvature="0" />
	<path style="fill:none;stroke:red;stroke-width:1px;stroke-linecap:butt;stroke-linejoin:miter;stroke-opacity:1" d="M 598.313,70.5276 610.14,80.8763 z" id="boundary" inkscape:connector-curvature="0" />
	<path style="fill:none;stroke:red;stroke-width:1px;stroke-linecap:butt;stroke-linejoin:miter;stroke-opacity:1" d="M 632.316,100.095 619.01,92.7034 z" id="boundary" inkscape:connector-curvature="0" />
	<path style="fill:none;stroke:red;stroke-width:1px;stroke-linecap:butt;stroke-linejoin:miter;stroke-opacity:1" d="M 619.01,92.7034 610.14,80.8763 z" id="boundary" inkscape:connector-curvature="0" />
	<path style="fill:none;stroke:red;stroke-width:1px;stroke-linecap:butt;stroke-linejoin:miter;stroke-opacity:1" d="M 632.316,100.095 644.143,108.966 z" id="boundary" inkscape:connector-curvature="0" />
	<path style="fill:none;stroke:red;stroke-width:1px;stroke-linecap:butt;stroke-linejoin:miter;stroke-opacity:1" d="M 644.143,108.966 658.927,114.879 z" id="boundary" inkscape:connector-curvature="0" />
	<path style="fill:none;stroke:red;stroke-width:1px;stroke-linecap:butt;stroke-linejoin:miter;stroke-opacity:1" d="M 658.927,114.879 669.276,126.706 z" id="boundary" inkscape:connector-curvature="0" />
	<path style="fill:none;stroke:red;stroke-width:1px;stroke-linecap:butt;stroke-linejoin:miter;stroke-opacity:1" d="M 689.973,147.404 676.668,140.012 z" id="boundary" inkscape:connector-curvature="0" />
	<path style="fill:none;stroke:red;stroke-width:1px;stroke-linecap:butt;stroke-linejoin:miter;stroke-opacity:1" d="M 676.668,140.012 669.276,126.706 z" id="boundary" inkscape:connector-curvature="0" />
	<path style="fill:none;stroke:red;stroke-width:1px;stroke-linecap:butt;stroke-linejoin:miter;stroke-opacity:1" d="M 689.973,147.404 700.322,159.231 z" id="boundary" inkscape:connector-curvature="0" />
	<path style="fill:none;stroke:red;stroke-width:1px;stroke-linecap:butt;stroke-linejoin:miter;stroke-opacity:1" d="M 719.541,182.885 707.714,172.537 z" id="boundary" inkscape:connector-curvature="0" />
	<path style="fill:none;stroke:red;stroke-width:1px;stroke-linecap:butt;stroke-linejoin:miter;stroke-opacity:1" d="M 707.714,172.537 700.322,159.231 z" id="boundary" inkscape:connector-curvature="0" />
	<path style="fill:none;stroke:red;stroke-width:1px;stroke-linecap:butt;stroke-linejoin:miter;stroke-opacity:1" d="M 729.89,194.712 719.541,182.885 z" id="boundary" inkscape:connector-curvature="0" />
	<path style="fill:none;stroke:red;stroke-width:1px;stroke-linecap:butt;stroke-linejoin:miter;stroke-opacity:1" d="M 729.89,194.712 737.282,208.018 z" id="boundary" inkscape:connector-curvature="0" />
	<path style="fill:none;stroke:red;stroke-width:1px;stroke-linecap:butt;stroke-linejoin:miter;stroke-opacity:1" d="M 744.674,221.323 737.282,208.018 z" id="boundary" inkscape:connector-curvature="0" />
	<path style="fill:none;stroke:red;stroke-width:1px;stroke-linecap:butt;stroke-linejoin:miter;stroke-opacity:1" d="M 759.458,247.934 752.066,234.629 z" id="boundary" inkscape:connector-curvature="0" />
	<path style="fill:none;stroke:red;stroke-width:1px;stroke-linecap:butt;stroke-linejoin:miter;stroke-opacity:1" d="M 905.818,233.151 892.513,240.542 z" id="boundary" inkscape:connector-curvature="0" />
	<path style="fill:none;stroke:red;stroke-width:1px;stroke-linecap:butt;stroke-linejoin:miter;stroke-opacity:1" d="M 892.513,240.542 877.729,243.499 z" id="boundary" inkscape:connector-curvature="0" />
	<path style="fill:none;stroke:red;stroke-width:1px;stroke-linecap:butt;stroke-linejoin:miter;stroke-opacity:1" d="M 862.945,250.891 877.729,243.499 z" id="boundary" inkscape:connector-curvature="0" />
	<path style="fill:none;stroke:red;stroke-width:1px;stroke-linecap:butt;stroke-linejoin:miter;stroke-opacity:1" d="M 752.066,234.629 744.674,221.323 z" id="boundary" inkscape:connector-curvature="0" />
	<path style="fill:none;stroke:red;stroke-width:1px;stroke-linecap:butt;stroke-linejoin:miter;stroke-opacity:1" d="M 947.213,218.367 933.908,225.759 z" id="boundary" inkscape:connector-curvature="0" />
	<path style="fill:none;stroke:red;stroke-width:1px;stroke-linecap:butt;stroke-linejoin:miter;stroke-opacity:1" d="M 933.908,225.759 919.124,225.759 z" id="boundary" inkscape:connector-curvature="0" />
	<path style="fill:none;stroke:red;stroke-width:1px;stroke-linecap:butt;stroke-linejoin:miter;stroke-opacity:1" d="M 919.124,225.759 905.818,233.151 z" id="boundary" inkscape:connector-curvature="0" />
	<path style="fill:none;stroke:red;stroke-width:1px;stroke-linecap:butt;stroke-linejoin:miter;stroke-opacity:1" d="M 960.519,225.759 966.432,240.542 z" id="boundary" inkscape:connector-curvature="0" />
	<path style="fill:none;stroke:red;stroke-width:1px;stroke-linecap:butt;stroke-linejoin:miter;stroke-opacity:1" d="M 947.213,218.367 960.519,225.759 z" id="boundary" inkscape:connector-curvature="0" />
	<path style="fill:none;stroke:red;stroke-width:1px;stroke-linecap:butt;stroke-linejoin:miter;stroke-opacity:1" d="M 973.824,253.848 966.432,240.542 z" id="boundary" inkscape:connector-curvature="0" />
	<path style="fill:none;stroke:red;stroke-width:1px;stroke-linecap:butt;stroke-linejoin:miter;stroke-opacity:1" d="M 778.677,271.589 766.849,261.24 z" id="boundary" inkscape:connector-curvature="0" />
	<path style="fill:none;stroke:red;stroke-width:1px;stroke-linecap:butt;stroke-linejoin:miter;stroke-opacity:1" d="M 766.849,261.24 759.458,247.934 z" id="boundary" inkscape:connector-curvature="0" />
	<path style="fill:none;stroke:red;stroke-width:1px;stroke-linecap:butt;stroke-linejoin:miter;stroke-opacity:1" d="M 793.461,277.502 778.677,271.589 z" id="boundary" inkscape:connector-curvature="0" />
	<path style="fill:none;stroke:red;stroke-width:1px;stroke-linecap:butt;stroke-linejoin:miter;stroke-opacity:1" d="M 821.55,270.11 808.244,277.502 z" id="boundary" inkscape:connector-curvature="0" />
	<path style="fill:none;stroke:red;stroke-width:1px;stroke-linecap:butt;stroke-linejoin:miter;stroke-opacity:1" d="M 808.244,277.502 793.461,277.502 z" id="boundary" inkscape:connector-curvature="0" />
	<path style="fill:none;stroke:red;stroke-width:1px;stroke-linecap:butt;stroke-linejoin:miter;stroke-opacity:1" d="M 834.855,262.718 848.161,255.326 z" id="boundary" inkscape:connector-curvature="0" />
	<path style="fill:none;stroke:red;stroke-width:1px;stroke-linecap:butt;stroke-linejoin:miter;stroke-opacity:1" d="M 848.161,255.326 862.945,250.891 z" id="boundary" inkscape:connector-curvature="0" />
	<path style="fill:none;stroke:red;stroke-width:1px;stroke-linecap:butt;stroke-linejoin:miter;stroke-opacity:1" d="M 973.824,253.848 981.216,267.154 z" id="boundary" inkscape:connector-curvature="0" />
	<path style="fill:none;stroke:red;stroke-width:1px;stroke-linecap:butt;stroke-linejoin:miter;stroke-opacity:1" d="M 981.216,267.154 981.216,281.937 z" id="boundary" inkscape:connector-curvature="0" />
	<path style="fill:none;stroke:red;stroke-width:1px;stroke-linecap:butt;stroke-linejoin:miter;stroke-opacity:1" d="M 988.608,295.243 981.216,281.937 z" id="boundary" inkscape:connector-curvature="0" />
	<path style="fill:none;stroke:red;stroke-width:1px;stroke-linecap:butt;stroke-linejoin:miter;stroke-opacity:1" d="M 821.55,270.11 834.855,262.718 z" id="boundary" inkscape:connector-curvature="0" />
	<path style="fill:none;stroke:red;stroke-width:1px;stroke-linecap:butt;stroke-linejoin:miter;stroke-opacity:1" d="M 712.149,460.823 722.498,448.996 z" id="boundary" inkscape:connector-curvature="0" />
	<path style="fill:none;stroke:red;stroke-width:1px;stroke-linecap:butt;stroke-linejoin:miter;stroke-opacity:1" d="M 722.498,448.996 734.325,438.647 z" id="boundary" inkscape:connector-curvature="0" />
	<path style="fill:none;stroke:red;stroke-width:1px;stroke-linecap:butt;stroke-linejoin:miter;stroke-opacity:1" d="M 712.149,460.823 697.365,468.215 z" id="boundary" inkscape:connector-curvature="0" />
	<path style="fill:none;stroke:red;stroke-width:1px;stroke-linecap:butt;stroke-linejoin:miter;stroke-opacity:1" d="M 685.538,478.563 697.365,468.215 z" id="boundary" inkscape:connector-curvature="0" />
	<path style="fill:none;stroke:red;stroke-width:1px;stroke-linecap:butt;stroke-linejoin:miter;stroke-opacity:1" d="M 675.189,490.39 685.538,478.563 z" id="boundary" inkscape:connector-curvature="0" />
	<path style="fill:none;stroke:red;stroke-width:1px;stroke-linecap:butt;stroke-linejoin:miter;stroke-opacity:1" d="M 756.501,394.295 771.285,386.903 z" id="boundary" inkscape:connector-curvature="0" />
	<path style="fill:none;stroke:red;stroke-width:1px;stroke-linecap:butt;stroke-linejoin:miter;stroke-opacity:1" d="M 749.109,409.079 756.501,394.295 z" id="boundary" inkscape:connector-curvature="0" />
	<path style="fill:none;stroke:red;stroke-width:1px;stroke-linecap:butt;stroke-linejoin:miter;stroke-opacity:1" d="M 734.325,438.647 741.717,423.863 z" id="boundary" inkscape:connector-curvature="0" />
	<path style="fill:none;stroke:red;stroke-width:1px;stroke-linecap:butt;stroke-linejoin:miter;stroke-opacity:1" d="M 749.109,409.079 741.717,423.863 z" id="boundary" inkscape:connector-curvature="0" />
	<path style="fill:none;stroke:red;stroke-width:1px;stroke-linecap:butt;stroke-linejoin:miter;stroke-opacity:1" d="M 675.189,490.39 660.405,497.782 z" id="boundary" inkscape:connector-curvature="0" />
	<path style="fill:none;stroke:red;stroke-width:1px;stroke-linecap:butt;stroke-linejoin:miter;stroke-opacity:1" d="M 564.31,549.526 579.094,542.134 z" id="boundary" inkscape:connector-curvature="0" />
	<path style="fill:none;stroke:red;stroke-width:1px;stroke-linecap:butt;stroke-linejoin:miter;stroke-opacity:1" d="M 537.699,567.267 549.526,556.918 z" id="boundary" inkscape:connector-curvature="0" />
	<path style="fill:none;stroke:red;stroke-width:1px;stroke-linecap:butt;stroke-linejoin:miter;stroke-opacity:1" d="M 549.526,556.918 564.31,549.526 z" id="boundary" inkscape:connector-curvature="0" />
	<path style="fill:none;stroke:red;stroke-width:1px;stroke-linecap:butt;stroke-linejoin:miter;stroke-opacity:1" d="M 537.699,567.267 525.872,580.572 z" id="boundary" inkscape:connector-curvature="0" />
	<path style="fill:none;stroke:red;stroke-width:1px;stroke-linecap:butt;stroke-linejoin:miter;stroke-opacity:1" d="M 579.094,542.134 593.878,534.742 z" id="boundary" inkscape:connector-curvature="0" />
	<path style="fill:none;stroke:red;stroke-width:1px;stroke-linecap:butt;stroke-linejoin:miter;stroke-opacity:1" d="M 660.405,497.782 645.621,505.174 z" id="boundary" inkscape:connector-curvature="0" />
	<path style="fill:none;stroke:red;stroke-width:1px;stroke-linecap:butt;stroke-linejoin:miter;stroke-opacity:1" d="M 633.794,515.523 645.621,505.174 z" id="boundary" inkscape:connector-curvature="0" />
	<path style="fill:none;stroke:red;stroke-width:1px;stroke-linecap:butt;stroke-linejoin:miter;stroke-opacity:1" d="M 633.794,515.523 619.01,515.523 z" id="boundary" inkscape:connector-curvature="0" />
	<path style="fill:none;stroke:red;stroke-width:1px;stroke-linecap:butt;stroke-linejoin:miter;stroke-opacity:1" d="M 593.878,534.742 604.227,522.915 z" id="boundary" inkscape:connector-curvature="0" />
	<path style="fill:none;stroke:red;stroke-width:1px;stroke-linecap:butt;stroke-linejoin:miter;stroke-opacity:1" d="M 604.227,522.915 619.01,515.523 z" id="boundary" inkscape:connector-curvature="0" />
	<path style="fill:none;stroke:red;stroke-width:1px;stroke-linecap:butt;stroke-linejoin:miter;stroke-opacity:1" d="M 786.069,382.468 771.285,386.903 z" id="boundary" inkscape:connector-curvature="0" />
	<path style="fill:none;stroke:red;stroke-width:1px;stroke-linecap:butt;stroke-linejoin:miter;stroke-opacity:1" d="M 828.942,397.252 814.158,395.773 z" id="boundary" inkscape:connector-curvature="0" />
	<path style="fill:none;stroke:red;stroke-width:1px;stroke-linecap:butt;stroke-linejoin:miter;stroke-opacity:1" d="M 814.158,395.773 799.374,389.86 z" id="boundary" inkscape:connector-curvature="0" />
	<path style="fill:none;stroke:red;stroke-width:1px;stroke-linecap:butt;stroke-linejoin:miter;stroke-opacity:1" d="M 799.374,389.86 786.069,382.468 z" id="boundary" inkscape:connector-curvature="0" />
	<path style="fill:none;stroke:red;stroke-width:1px;stroke-linecap:butt;stroke-linejoin:miter;stroke-opacity:1" d="M 843.726,397.252 828.942,397.252 z" id="boundary" inkscape:connector-curvature="0" />
	<path style="fill:none;stroke:red;stroke-width:1px;stroke-linecap:butt;stroke-linejoin:miter;stroke-opacity:1" d="M 996,338.116 996,352.9 z" id="boundary" inkscape:connector-curvature="0" />
	<path style="fill:none;stroke:red;stroke-width:1px;stroke-linecap:butt;stroke-linejoin:miter;stroke-opacity:1" d="M 996,352.9 988.608,375.076 z" id="boundary" inkscape:connector-curvature="0" />
	<path style="fill:none;stroke:red;stroke-width:1px;stroke-linecap:butt;stroke-linejoin:miter;stroke-opacity:1" d="M 996,323.332 996,338.116 z" id="boundary" inkscape:connector-curvature="0" />
	<path style="fill:none;stroke:red;stroke-width:1px;stroke-linecap:butt;stroke-linejoin:miter;stroke-opacity:1" d="M 988.608,295.243 996,308.548 z" id="boundary" inkscape:connector-curvature="0" />
	<path style="fill:none;stroke:red;stroke-width:1px;stroke-linecap:butt;stroke-linejoin:miter;stroke-opacity:1" d="M 996,308.548 996,323.332 z" id="boundary" inkscape:connector-curvature="0" />
	<path style="fill:none;stroke:red;stroke-width:1px;stroke-linecap:butt;stroke-linejoin:miter;stroke-opacity:1" d="M 858.51,403.165 871.815,410.557 z" id="boundary" inkscape:connector-curvature="0" />
	<path style="fill:none;stroke:red;stroke-width:1px;stroke-linecap:butt;stroke-linejoin:miter;stroke-opacity:1" d="M 871.815,410.557 886.599,412.036 z" id="boundary" inkscape:connector-curvature="0" />
	<path style="fill:none;stroke:red;stroke-width:1px;stroke-linecap:butt;stroke-linejoin:miter;stroke-opacity:1" d="M 886.599,412.036 899.905,419.428 z" id="boundary" inkscape:connector-curvature="0" />
	<path style="fill:none;stroke:red;stroke-width:1px;stroke-linecap:butt;stroke-linejoin:miter;stroke-opacity:1" d="M 914.689,422.385 899.905,419.428 z" id="boundary" inkscape:connector-curvature="0" />
	<path style="fill:none;stroke:red;stroke-width:1px;stroke-linecap:butt;stroke-linejoin:miter;stroke-opacity:1" d="M 858.51,403.165 843.726,397.252 z" id="boundary" inkscape:connector-curvature="0" />
	<path style="fill:none;stroke:red;stroke-width:1px;stroke-linecap:butt;stroke-linejoin:miter;stroke-opacity:1" d="M 929.472,426.82 914.689,422.385 z" id="boundary" inkscape:connector-curvature="0" />
	<path style="fill:none;stroke:red;stroke-width:1px;stroke-linecap:butt;stroke-linejoin:miter;stroke-opacity:1" d="M 981.216,397.252 973.824,412.036 z" id="boundary" inkscape:connector-curvature="0" />
	<path style="fill:none;stroke:red;stroke-width:1px;stroke-linecap:butt;stroke-linejoin:miter;stroke-opacity:1" d="M 929.472,426.82 944.256,426.82 z" id="boundary" inkscape:connector-curvature="0" />
	<path style="fill:none;stroke:red;stroke-width:1px;stroke-linecap:butt;stroke-linejoin:miter;stroke-opacity:1" d="M 959.04,426.82 944.256,426.82 z" id="boundary" inkscape:connector-curvature="0" />
	<path style="fill:none;stroke:red;stroke-width:1px;stroke-linecap:butt;stroke-linejoin:miter;stroke-opacity:1" d="M 973.824,412.036 959.04,426.82 z" id="boundary" inkscape:connector-curvature="0" />
	<path style="fill:none;stroke:red;stroke-width:1px;stroke-linecap:butt;stroke-linejoin:miter;stroke-opacity:1" d="M 988.608,375.076 981.216,397.252 z" id="boundary" inkscape:connector-curvature="0" />
	<circle cx="4" cy="289.329" r="4" fill="#0" id="circle0"/>
	<circle cx="4" cy="304.113" r="4" fill="#0" id="circle1"/>
	<circle cx="4" cy="318.897" r="4" fill="#0" id="circle2"/>
	<circle cx="15.8271" cy="277.502" r="4" fill="#0" id="circle3"/>
	<circle cx="15.8271" cy="329.246" r="4" fill="#0" id="circle4"/>
	<circle cx="27.6542" cy="265.675" r="4" fill="#0" id="circle5"/>
	<circle cx="29.1326" cy="336.638" r="4" fill="#0" id="circle6"/>
	<circle cx="42.4382" cy="258.283" r="4" fill="#0" id="circle7"/>
	<circle cx="43.9165" cy="342.551" r="4" fill="#0" id="circle8"/>
	<circle cx="55.7437" cy="352.9" r="4" fill="#0" id="circle9"/>
	<circle cx="57.2221" cy="255.326" r="4" fill="#0" id="circle10"/>
	<circle cx="69.0492" cy="360.292" r="4" fill="#0" id="circle11"/>
	<circle cx="70.5276" cy="244.978" r="4" fill="#0" id="circle12"/>
	<circle cx="77.9195" cy="230.194" r="4" fill="#0" id="circle13"/>
	<circle cx="79.3979" cy="372.119" r="4" fill="#0" id="circle14"/>
	<circle cx="85.3115" cy="200.626" r="4" fill="#0" id="circle15"/>
	<circle cx="85.3115" cy="215.41" r="4" fill="#0" id="circle16"/>
	<circle cx="94.1818" cy="378.033" r="4" fill="#0" id="circle17"/>
	<circle cx="97.1386" cy="188.799" r="4" fill="#0" id="circle18"/>
	<circle cx="104.531" cy="389.86" r="4" fill="#0" id="circle19"/>
	<circle cx="108.966" cy="176.972" r="4" fill="#0" id="circle20"/>
	<circle cx="119.314" cy="395.773" r="4" fill="#0" id="circle21"/>
	<circle cx="120.793" cy="166.623" r="4" fill="#0" id="circle22"/>
	<circle cx="131.142" cy="154.796" r="4" fill="#0" id="circle23"/>
	<circle cx="132.62" cy="403.165" r="4" fill="#0" id="circle24"/>
	<circle cx="142.969" cy="144.447" r="4" fill="#0" id="circle25"/>
	<circle cx="144.447" cy="412.036" r="4" fill="#0" id="circle26"/>
	<circle cx="153.317" cy="423.863" r="4" fill="#0" id="circle27"/>
	<circle cx="156.274" cy="137.055" r="4" fill="#0" id="circle28"/>
	<circle cx="165.145" cy="434.212" r="4" fill="#0" id="circle29"/>
	<circle cx="168.101" cy="125.228" r="4" fill="#0" id="circle30"/>
	<circle cx="178.45" cy="441.604" r="4" fill="#0" id="circle31"/>
	<circle cx="179.928" cy="114.879" r="4" fill="#0" id="circle32"/>
	<circle cx="185.842" cy="454.909" r="4" fill="#0" id="circle33"/>
	<circle cx="188.799" cy="469.693" r="4" fill="#0" id="circle34"/>
	<circle cx="191.756" cy="484.477" r="4" fill="#0" id="circle35"/>
	<circle cx="193.234" cy="107.487" r="4" fill="#0" id="circle36"/>
	<circle cx="203.583" cy="493.347" r="4" fill="#0" id="circle37"/>
	<circle cx="206.539" cy="100.095" r="4" fill="#0" id="circle38"/>
	<circle cx="212.453" cy="505.174" r="4" fill="#0" id="circle39"/>
	<circle cx="218.367" cy="89.7466" r="4" fill="#0" id="circle40"/>
	<circle cx="227.237" cy="511.088" r="4" fill="#0" id="circle41"/>
	<circle cx="230.194" cy="77.9195" r="4" fill="#0" id="circle42"/>
	<circle cx="240.542" cy="518.48" r="4" fill="#0" id="circle43"/>
	<circle cx="242.021" cy="66.0924" r="4" fill="#0" id="circle44"/>
	<circle cx="252.37" cy="528.829" r="4" fill="#0" id="circle45"/>
	<circle cx="256.805" cy="58.7004" r="4" fill="#0" id="circle46"/>
	<circle cx="264.197" cy="537.699" r="4" fill="#0" id="circle47"/>
	<circle cx="268.632" cy="48.3517" r="4" fill="#0" id="circle48"/>
	<circle cx="277.502" cy="545.091" r="4" fill="#0" id="circle49"/>
	<circle cx="281.937" cy="40.9598" r="4" fill="#0" id="circle50"/>
	<circle cx="286.373" cy="556.918" r="4" fill="#0" id="circle51"/>
	<circle cx="296.721" cy="33.5678" r="4" fill="#0" id="circle52"/>
	<circle cx="301.156" cy="562.832" r="4" fill="#0" id="circle53"/>
	<circle cx="310.027" cy="26.1759" r="4" fill="#0" id="circle54"/>
	<circle cx="311.505" cy="574.659" r="4" fill="#0" id="circle55"/>
	<circle cx="323.332" cy="18.7839" r="4" fill="#0" id="circle56"/>
	<circle cx="326.289" cy="574.659" r="4" fill="#0" id="circle57"/>
	<circle cx="338.116" cy="18.7839" r="4" fill="#0" id="circle58"/>
	<circle cx="339.595" cy="582.051" r="4" fill="#0" id="circle59"/>
	<circle cx="352.9" cy="14.3487" r="4" fill="#0" id="circle60"/>
	<circle cx="352.9" cy="589.443" r="4" fill="#0" id="circle61"/>
	<circle cx="367.684" cy="11.392" r="4" fill="#0" id="circle62"/>
	<circle cx="367.684" cy="592.399" r="4" fill="#0" id="circle63"/>
	<circle cx="382.468" cy="11.392" r="4" fill="#0" id="circle64"/>
	<circle cx="382.468" cy="596.835" r="4" fill="#0" id="circle65"/>
	<circle cx="395.773" cy="4" r="4" fill="#0" id="circle66"/>
	<circle cx="395.773" cy="604.227" r="4" fill="#0" id="circle67"/>
	<circle cx="410.557" cy="4" r="4" fill="#0" id="circle68"/>
	<circle cx="410.557" cy="604.227" r="4" fill="#0" id="circle69"/>
	<circle cx="425.341" cy="4" r="4" fill="#0" id="circle70"/>
	<circle cx="425.341" cy="604.227" r="4" fill="#0" id="circle71"/>
	<circle cx="440.125" cy="4" r="4" fill="#0" id="circle72"/>
	<circle cx="440.125" cy="604.227" r="4" fill="#0" id="circle73"/>
	<circle cx="454.909" cy="4" r="4" fill="#0" id="circle74"/>
	<circle cx="454.909" cy="604.227" r="4" fill="#0" id="circle75"/>
	<circle cx="469.693" cy="4" r="4" fill="#0" id="circle76"/>
	<circle cx="469.693" cy="604.227" r="4" fill="#0" id="circle77"/>
	<circle cx="482.999" cy="596.835" r="4" fill="#0" id="circle78"/>
	<circle cx="484.477" cy="4" r="4" fill="#0" id="circle79"/>
	<circle cx="496.304" cy="589.443" r="4" fill="#0" id="circle80"/>
	<circle cx="497.782" cy="11.392" r="4" fill="#0" id="circle81"/>
	<circle cx="511.088" cy="587.964" r="4" fill="#0" id="circle82"/>
	<circle cx="512.566" cy="11.392" r="4" fill="#0" id="circle83"/>
	<circle cx="525.872" cy="580.572" r="4" fill="#0" id="circle84"/>
	<circle cx="527.35" cy="12.8703" r="4" fill="#0" id="circle85"/>
	<circle cx="537.699" cy="24.6975" r="4" fill="#0" id="circle86"/>
	<circle cx="537.699" cy="567.267" r="4" fill="#0" id="circle87"/>
	<circle cx="549.526" cy="33.5678" r="4" fill="#0" id="circle88"/>
	<circle cx="549.526" cy="556.918" r="4" fill="#0" id="circle89"/>
	<circle cx="562.832" cy="40.9598" r="4" fill="#0" id="circle90"/>
	<circle cx="564.31" cy="549.526" r="4" fill="#0" id="circle91"/>
	<circle cx="573.18" cy="52.7869" r="4" fill="#0" id="circle92"/>
	<circle cx="579.094" cy="542.134" r="4" fill="#0" id="circle93"/>
	<circle cx="585.007" cy="63.1356" r="4" fill="#0" id="circle94"/>
	<circle cx="593.878" cy="534.742" r="4" fill="#0" id="circle95"/>
	<circle cx="598.313" cy="70.5276" r="4" fill="#0" id="circle96"/>
	<circle cx="604.227" cy="522.915" r="4" fill="#0" id="circle97"/>
	<circle cx="610.14" cy="80.8763" r="4" fill="#0" id="circle98"/>
	<circle cx="619.01" cy="92.7034" r="4" fill="#0" id="circle99"/>
	<circle cx="619.01" cy="515.523" r="4" fill="#0" id="circle100"/>
	<circle cx="632.316" cy="100.095" r="4" fill="#0" id="circle101"/>
	<circle cx="633.794" cy="515.523" r="4" fill="#0" id="circle102"/>
	<circle cx="644.143" cy="108.966" r="4" fill="#0" id="circle103"/>
	<circle cx="645.621" cy="505.174" r="4" fill="#0" id="circle104"/>
	<circle cx="658.927" cy="114.879" r="4" fill="#0" id="circle105"/>
	<circle cx="660.405" cy="497.782" r="4" fill="#0" id="circle106"/>
	<circle cx="669.276" cy="126.706" r="4" fill="#0" id="circle107"/>
	<circle cx="675.189" cy="490.39" r="4" fill="#0" id="circle108"/>
	<circle cx="676.668" cy="140.012" r="4" fill="#0" id="circle109"/>
	<circle cx="685.538" cy="478.563" r="4" fill="#0" id="circle110"/>
	<circle cx="689.973" cy="147.404" r="4" fill="#0" id="circle111"/>
	<circle cx="697.365" cy="468.215" r="4" fill="#0" id="circle112"/>
	<circle cx="700.322" cy="159.231" r="4" fill="#0" id="circle113"/>
	<circle cx="707.714" cy="172.537" r="4" fill="#0" id="circle114"/>
	<circle cx="712.149" cy="460.823" r="4" fill="#0" id="circle115"/>
	<circle cx="719.541" cy="182.885" r="4" fill="#0" id="circle116"/>
	<circle cx="722.498" cy="448.996" r="4" fill="#0" id="circle117"/>
	<circle cx="729.89" cy="194.712" r="4" fill="#0" id="circle118"/>
	<circle cx="734.325" cy="438.647" r="4" fill="#0" id="circle119"/>
	<circle cx="737.282" cy="208.018" r="4" fill="#0" id="circle120"/>
	<circle cx="741.717" cy="423.863" r="4" fill="#0" id="circle121"/>
	<circle cx="744.674" cy="221.323" r="4" fill="#0" id="circle122"/>
	<circle cx="749.109" cy="409.079" r="4" fill="#0" id="circle123"/>
	<circle cx="752.066" cy="234.629" r="4" fill="#0" id="circle124"/>
	<circle cx="756.501" cy="394.295" r="4" fill="#0" id="circle125"/>
	<circle cx="759.458" cy="247.934" r="4" fill="#0" id="circle126"/>
	<circle cx="766.849" cy="261.24" r="4" fill="#0" id="circle127"/>
	<circle cx="771.285" cy="386.903" r="4" fill="#0" id="circle128"/>
	<circle cx="778.677" cy="271.589" r="4" fill="#0" id="circle129"/>
	<circle cx="786.069" cy="382.468" r="4" fill="#0" id="circle130"/>
	<circle cx="793.461" cy="277.502" r="4" fill="#0" id="circle131"/>
	<circle cx="799.374" cy="389.86" r="4" fill="#0" id="circle132"/>
	<circle cx="808.244" cy="277.502" r="4" fill="#0" id="circle133"/>
	<circle cx="814.158" cy="395.773" r="4" fill="#0" id="circle134"/>
	<circle cx="821.55" cy="270.11" r="4" fill="#0" id="circle135"/>
	<circle cx="828.942" cy="397.252" r="4" fill="#0" id="circle136"/>
	<circle cx="834.855" cy="262.718" r="4" fill="#0" id="circle137"/>
	<circle cx="843.726" cy="397.252" r="4" fill="#0" id="circle138"/>
	<circle cx="848.161" cy="255.326" r="4" fill="#0" id="circle139"/>
	<circle cx="858.51" cy="403.165" r="4" fill="#0" id="circle140"/>
	<circle cx="862.945" cy="250.891" r="4" fill="#0" id="circle141"/>
	<circle cx="871.815" cy="410.557" r="4" fill="#0" id="circle142"/>
	<circle cx="877.729" cy="243.499" r="4" fill="#0" id="circle143"/>
	<circle cx="886.599" cy="412.036" r="4" fill="#0" id="circle144"/>
	<circle cx="892.513" cy="240.542" r="4" fill="#0" id="circle145"/>
	<circle cx="899.905" cy="419.428" r="4" fill="#0" id="circle146"/>
	<circle cx="905.818" cy="233.151" r="4" fill="#0" id="circle147"/>
	<circle cx="914.689" cy="422.385" r="4" fill="#0" id="circle148"/>
	<circle cx="919.124" cy="225.759" r="4" fill="#0" id="circle149"/>
	<circle cx="929.472" cy="426.82" r="4" fill="#0" id="circle150"/>
	<circle cx="933.908" cy="225.759" r="4" fill="#0" id="circle151"/>
	<circle cx="944.256" cy="426.82" r="4" fill="#0" id="circle152"/>
	<circle cx="947.213" cy="218.367" r="4" fill="#0" id="circle153"/>
	<circle cx="959.04" cy="426.82" r="4" fill="#0" id="circle154"/>
	<circle cx="960.519" cy="225.759" r="4" fill="#0" id="circle155"/>
	<circle cx="966.432" cy="240.542" r="4" fill="#0" id="circle156"/>
	<circle cx="973.824" cy="253.848" r="4" fill="#0" id="circle157"/>
	<circle cx="973.824" cy="412.036" r="4" fill="#0" id="circle158"/>
	<circle cx="981.216" cy="267.154" r="4" fill="#0" id="circle159"/>
	<circle cx="981.216" cy="281.937" r="4" fill="#0" id="circle160"/>
	<circle cx="981.216" cy="397.252" r="4" fill="#0" id="circle161"/>
	<circle cx="988.608" cy="295.243" r="4" fill="#0" id="circle162"/>
	<circle cx="988.608" cy="375.076" r="4" fill="#0" id="circle163"/>
	<circle cx="996" cy="308.548" r="4" fill="#0" id="circle164"/>
	<circle cx="996" cy="323.332" r="4" fill="#0" id="circle165"/>
	<circle cx="996" cy="338.116" r="4" fill="#0" id="circle166"/>
	<circle cx="996" cy="352.9" r="4" fill="#0" id="circle167"/>
	</g>
</svg>