<?xml version="1.0" encoding="UTF-8" standalone="no"?>
<!-- Created with CurveBenchmark -->
<svg
	xmlns:dc="http://purl.org/dc/elements/1.1/"
	xmlns:cc="http://creativecommons.org/ns#"
	xmlns:rdf="http://www.w3.org/1999/02/22-rdf-syntax-ns#"
	xmlns:svg="http://www.w3.org/2000/svg"
	xmlns="http://www.w3.org/2000/svg"
	xmlns:sodipodi="http://sodipodi.sourceforge.net/DTD/sodipodi-0.dtd"
	xmlns:inkscape="http://www.inkscape.org/namespaces/inkscape"
	width="1000"
	height="1000"
	id="svg2"
	version="1.1"
	sodipodi:docname="manifold/nncrust-bed225.png.txt">
<defs
	id="defs4" />
<metadata
	id="metadata7">
	<rdf:RDF>
		<cc:Work
			rdf:about="">
			<dc:format>image/svg+xml</dc:format>
			<dc:type
				rdf:resource="http://purl.org/dc/dcmitype/StillImage" />
			<dc:title></dc:title>
		</cc:Work>
	</rdf:RDF>
</metadata>
<g
	inkscape:label="Layer 1"
	inkscape:groupmode="layer"
	id="layer1">
	<path style="fill:none;stroke:red;stroke-width:1px;stroke-linecap:butt;stroke-linejoin:miter;stroke-opacity:1" d="M 112.218,269.626 128.615,269.626 z" id="boundary" inkscape:connector-curvature="0" />
	<path style="fill:none;stroke:red;stroke-width:1px;stroke-linecap:butt;stroke-linejoin:miter;stroke-opacity:1" d="M 95.8215,272.906 112.218,269.626 z" id="boundary" inkscape:connector-curvature="0" />
	<path style="fill:none;stroke:red;stroke-width:1px;stroke-linecap:butt;stroke-linejoin:miter;stroke-opacity:1" d="M 145.012,266.347 128.615,269.626 z" id="boundary" inkscape:connector-curvature="0" />
	<path style="fill:none;stroke:red;stroke-width:1px;stroke-linecap:butt;stroke-linejoin:miter;stroke-opacity:1" d="M 95.8215,272.906 79.4248,279.464 z" id="boundary" inkscape:connector-curvature="0" />
	<path style="fill:none;stroke:red;stroke-width:1px;stroke-linecap:butt;stroke-linejoin:miter;stroke-opacity:1" d="M 79.4248,279.464 63.0281,282.744 z" id="boundary" inkscape:connector-curvature="0" />
	<path style="fill:none;stroke:red;stroke-width:1px;stroke-linecap:butt;stroke-linejoin:miter;stroke-opacity:1" d="M 233.554,223.716 217.157,230.274 z" id="boundary" inkscape:connector-curvature="0" />
	<path style="fill:none;stroke:red;stroke-width:1px;stroke-linecap:butt;stroke-linejoin:miter;stroke-opacity:1" d="M 176.165,258.149 190.922,249.95 z" id="boundary" inkscape:connector-curvature="0" />
	<path style="fill:none;stroke:red;stroke-width:1px;stroke-linecap:butt;stroke-linejoin:miter;stroke-opacity:1" d="M 204.04,240.112 190.922,249.95 z" id="boundary" inkscape:connector-curvature="0" />
	<path style="fill:none;stroke:red;stroke-width:1px;stroke-linecap:butt;stroke-linejoin:miter;stroke-opacity:1" d="M 176.165,258.149 161.408,266.347 z" id="boundary" inkscape:connector-curvature="0" />
	<path style="fill:none;stroke:red;stroke-width:1px;stroke-linecap:butt;stroke-linejoin:miter;stroke-opacity:1" d="M 161.408,266.347 145.012,266.347 z" id="boundary" inkscape:connector-curvature="0" />
	<path style="fill:none;stroke:red;stroke-width:1px;stroke-linecap:butt;stroke-linejoin:miter;stroke-opacity:1" d="M 217.157,230.274 204.04,240.112 z" id="boundary" inkscape:connector-curvature="0" />
	<path style="fill:none;stroke:red;stroke-width:1px;stroke-linecap:butt;stroke-linejoin:miter;stroke-opacity:1" d="M 4,315.537 13.838,302.42 z" id="boundary" inkscape:connector-curvature="0" />
	<path style="fill:none;stroke:red;stroke-width:1px;stroke-linecap:butt;stroke-linejoin:miter;stroke-opacity:1" d="M 4,331.934 13.838,345.051 z" id="boundary" inkscape:connector-curvature="0" />
	<path style="fill:none;stroke:red;stroke-width:1px;stroke-linecap:butt;stroke-linejoin:miter;stroke-opacity:1" d="M 13.838,345.051 17.1174,361.448 z" id="boundary" inkscape:connector-curvature="0" />
	<path style="fill:none;stroke:red;stroke-width:1px;stroke-linecap:butt;stroke-linejoin:miter;stroke-opacity:1" d="M 4,331.934 4,315.537 z" id="boundary" inkscape:connector-curvature="0" />
	<path style="fill:none;stroke:red;stroke-width:1px;stroke-linecap:butt;stroke-linejoin:miter;stroke-opacity:1" d="M 17.1174,361.448 17.1174,377.845 z" id="boundary" inkscape:connector-curvature="0" />
	<path style="fill:none;stroke:red;stroke-width:1px;stroke-linecap:butt;stroke-linejoin:miter;stroke-opacity:1" d="M 13.838,302.42 30.2347,295.861 z" id="boundary" inkscape:connector-curvature="0" />
	<path style="fill:none;stroke:red;stroke-width:1px;stroke-linecap:butt;stroke-linejoin:miter;stroke-opacity:1" d="M 46.6314,289.302 63.0281,282.744 z" id="boundary" inkscape:connector-curvature="0" />
	<path style="fill:none;stroke:red;stroke-width:1px;stroke-linecap:butt;stroke-linejoin:miter;stroke-opacity:1" d="M 30.2347,295.861 46.6314,289.302 z" id="boundary" inkscape:connector-curvature="0" />
	<path style="fill:none;stroke:red;stroke-width:1px;stroke-linecap:butt;stroke-linejoin:miter;stroke-opacity:1" d="M 17.1174,394.241 22.0364,410.638 z" id="boundary" inkscape:connector-curvature="0" />
	<path style="fill:none;stroke:red;stroke-width:1px;stroke-linecap:butt;stroke-linejoin:miter;stroke-opacity:1" d="M 22.0364,410.638 17.1174,436.873 z" id="boundary" inkscape:connector-curvature="0" />
	<path style="fill:none;stroke:red;stroke-width:1px;stroke-linecap:butt;stroke-linejoin:miter;stroke-opacity:1" d="M 17.1174,394.241 17.1174,377.845 z" id="boundary" inkscape:connector-curvature="0" />
	<path style="fill:none;stroke:red;stroke-width:1px;stroke-linecap:butt;stroke-linejoin:miter;stroke-opacity:1" d="M 248.311,231.914 263.068,240.112 z" id="boundary" inkscape:connector-curvature="0" />
	<path style="fill:none;stroke:red;stroke-width:1px;stroke-linecap:butt;stroke-linejoin:miter;stroke-opacity:1" d="M 290.942,258.149 276.185,249.95 z" id="boundary" inkscape:connector-curvature="0" />
	<path style="fill:none;stroke:red;stroke-width:1px;stroke-linecap:butt;stroke-linejoin:miter;stroke-opacity:1" d="M 276.185,249.95 263.068,240.112 z" id="boundary" inkscape:connector-curvature="0" />
	<path style="fill:none;stroke:red;stroke-width:1px;stroke-linecap:butt;stroke-linejoin:miter;stroke-opacity:1" d="M 233.554,223.716 248.311,231.914 z" id="boundary" inkscape:connector-curvature="0" />
	<path style="fill:none;stroke:red;stroke-width:1px;stroke-linecap:butt;stroke-linejoin:miter;stroke-opacity:1" d="M 541.812,213.878 528.694,223.716 z" id="boundary" inkscape:connector-curvature="0" />
	<path style="fill:none;stroke:red;stroke-width:1px;stroke-linecap:butt;stroke-linejoin:miter;stroke-opacity:1" d="M 528.694,223.716 512.298,230.274 z" id="boundary" inkscape:connector-curvature="0" />
	<path style="fill:none;stroke:red;stroke-width:1px;stroke-linecap:butt;stroke-linejoin:miter;stroke-opacity:1" d="M 500.82,243.392 512.298,230.274 z" id="boundary" inkscape:connector-curvature="0" />
	<path style="fill:none;stroke:red;stroke-width:1px;stroke-linecap:butt;stroke-linejoin:miter;stroke-opacity:1" d="M 500.82,243.392 487.702,254.869 z" id="boundary" inkscape:connector-curvature="0" />
	<path style="fill:none;stroke:red;stroke-width:1px;stroke-linecap:butt;stroke-linejoin:miter;stroke-opacity:1" d="M 487.702,254.869 472.945,263.068 z" id="boundary" inkscape:connector-curvature="0" />
	<path style="fill:none;stroke:red;stroke-width:1px;stroke-linecap:butt;stroke-linejoin:miter;stroke-opacity:1" d="M 572.965,441.792 556.569,441.792 z" id="boundary" inkscape:connector-curvature="0" />
	<path style="fill:none;stroke:red;stroke-width:1px;stroke-linecap:butt;stroke-linejoin:miter;stroke-opacity:1" d="M 305.699,266.347 322.096,266.347 z" id="boundary" inkscape:connector-curvature="0" />
	<path style="fill:none;stroke:red;stroke-width:1px;stroke-linecap:butt;stroke-linejoin:miter;stroke-opacity:1" d="M 322.096,266.347 338.493,269.626 z" id="boundary" inkscape:connector-curvature="0" />
	<path style="fill:none;stroke:red;stroke-width:1px;stroke-linecap:butt;stroke-linejoin:miter;stroke-opacity:1" d="M 305.699,266.347 290.942,258.149 z" id="boundary" inkscape:connector-curvature="0" />
	<path style="fill:none;stroke:red;stroke-width:1px;stroke-linecap:butt;stroke-linejoin:miter;stroke-opacity:1" d="M 338.493,269.626 354.889,269.626 z" id="boundary" inkscape:connector-curvature="0" />
	<path style="fill:none;stroke:red;stroke-width:1px;stroke-linecap:butt;stroke-linejoin:miter;stroke-opacity:1" d="M 354.889,269.626 371.286,272.906 z" id="boundary" inkscape:connector-curvature="0" />
	<path style="fill:none;stroke:red;stroke-width:1px;stroke-linecap:butt;stroke-linejoin:miter;stroke-opacity:1" d="M 404.079,282.744 387.683,279.464 z" id="boundary" inkscape:connector-curvature="0" />
	<path style="fill:none;stroke:red;stroke-width:1px;stroke-linecap:butt;stroke-linejoin:miter;stroke-opacity:1" d="M 387.683,279.464 371.286,272.906 z" id="boundary" inkscape:connector-curvature="0" />
	<path style="fill:none;stroke:red;stroke-width:1px;stroke-linecap:butt;stroke-linejoin:miter;stroke-opacity:1" d="M 420.476,286.023 404.079,282.744 z" id="boundary" inkscape:connector-curvature="0" />
	<path style="fill:none;stroke:red;stroke-width:1px;stroke-linecap:butt;stroke-linejoin:miter;stroke-opacity:1" d="M 436.873,292.582 420.476,286.023 z" id="boundary" inkscape:connector-curvature="0" />
	<path style="fill:none;stroke:red;stroke-width:1px;stroke-linecap:butt;stroke-linejoin:miter;stroke-opacity:1" d="M 459.828,276.185 453.269,292.582 z" id="boundary" inkscape:connector-curvature="0" />
	<path style="fill:none;stroke:red;stroke-width:1px;stroke-linecap:butt;stroke-linejoin:miter;stroke-opacity:1" d="M 453.269,292.582 436.873,292.582 z" id="boundary" inkscape:connector-curvature="0" />
	<path style="fill:none;stroke:red;stroke-width:1px;stroke-linecap:butt;stroke-linejoin:miter;stroke-opacity:1" d="M 459.828,276.185 472.945,263.068 z" id="boundary" inkscape:connector-curvature="0" />
	<path style="fill:none;stroke:red;stroke-width:1px;stroke-linecap:butt;stroke-linejoin:miter;stroke-opacity:1" d="M 28.595,453.269 44.9917,448.35 z" id="boundary" inkscape:connector-curvature="0" />
	<path style="fill:none;stroke:red;stroke-width:1px;stroke-linecap:butt;stroke-linejoin:miter;stroke-opacity:1" d="M 25.3157,471.306 28.595,453.269 z" id="boundary" inkscape:connector-curvature="0" />
	<path style="fill:none;stroke:red;stroke-width:1px;stroke-linecap:butt;stroke-linejoin:miter;stroke-opacity:1" d="M 61.3884,451.63 44.9917,448.35 z" id="boundary" inkscape:connector-curvature="0" />
	<path style="fill:none;stroke:red;stroke-width:1px;stroke-linecap:butt;stroke-linejoin:miter;stroke-opacity:1" d="M 10.5587,463.107 28.595,453.269 z" id="boundary" inkscape:connector-curvature="0" />
	<path style="fill:none;stroke:red;stroke-width:1px;stroke-linecap:butt;stroke-linejoin:miter;stroke-opacity:1" d="M 25.3157,471.306 10.5587,463.107 z" id="boundary" inkscape:connector-curvature="0" />
	<path style="fill:none;stroke:red;stroke-width:1px;stroke-linecap:butt;stroke-linejoin:miter;stroke-opacity:1" d="M 17.1174,436.873 28.595,453.269 z" id="boundary" inkscape:connector-curvature="0" />
	<path style="fill:none;stroke:red;stroke-width:1px;stroke-linecap:butt;stroke-linejoin:miter;stroke-opacity:1" d="M 61.3884,451.63 77.7851,454.909 z" id="boundary" inkscape:connector-curvature="0" />
	<path style="fill:none;stroke:red;stroke-width:1px;stroke-linecap:butt;stroke-linejoin:miter;stroke-opacity:1" d="M 107.299,451.63 123.696,445.071 z" id="boundary" inkscape:connector-curvature="0" />
	<path style="fill:none;stroke:red;stroke-width:1px;stroke-linecap:butt;stroke-linejoin:miter;stroke-opacity:1" d="M 123.696,445.071 140.093,448.35 z" id="boundary" inkscape:connector-curvature="0" />
	<path style="fill:none;stroke:red;stroke-width:1px;stroke-linecap:butt;stroke-linejoin:miter;stroke-opacity:1" d="M 156.489,451.63 140.093,448.35 z" id="boundary" inkscape:connector-curvature="0" />
	<path style="fill:none;stroke:red;stroke-width:1px;stroke-linecap:butt;stroke-linejoin:miter;stroke-opacity:1" d="M 94.1818,461.468 107.299,451.63 z" id="boundary" inkscape:connector-curvature="0" />
	<path style="fill:none;stroke:red;stroke-width:1px;stroke-linecap:butt;stroke-linejoin:miter;stroke-opacity:1" d="M 156.489,451.63 169.607,461.468 z" id="boundary" inkscape:connector-curvature="0" />
	<path style="fill:none;stroke:red;stroke-width:1px;stroke-linecap:butt;stroke-linejoin:miter;stroke-opacity:1" d="M 186.003,468.026 169.607,461.468 z" id="boundary" inkscape:connector-curvature="0" />
	<path style="fill:none;stroke:red;stroke-width:1px;stroke-linecap:butt;stroke-linejoin:miter;stroke-opacity:1" d="M 77.7851,454.909 94.1818,461.468 z" id="boundary" inkscape:connector-curvature="0" />
	<path style="fill:none;stroke:red;stroke-width:1px;stroke-linecap:butt;stroke-linejoin:miter;stroke-opacity:1" d="M 25.3157,471.306 25.3157,487.702 z" id="boundary" inkscape:connector-curvature="0" />
	<path style="fill:none;stroke:red;stroke-width:1px;stroke-linecap:butt;stroke-linejoin:miter;stroke-opacity:1" d="M 25.3157,487.702 10.5587,479.504 z" id="boundary" inkscape:connector-curvature="0" />
	<path style="fill:none;stroke:red;stroke-width:1px;stroke-linecap:butt;stroke-linejoin:miter;stroke-opacity:1" d="M 10.5587,479.504 10.5587,463.107 z" id="boundary" inkscape:connector-curvature="0" />
	<path style="fill:none;stroke:red;stroke-width:1px;stroke-linecap:butt;stroke-linejoin:miter;stroke-opacity:1" d="M 25.3157,487.702 23.676,507.379 z" id="boundary" inkscape:connector-curvature="0" />
	<path style="fill:none;stroke:red;stroke-width:1px;stroke-linecap:butt;stroke-linejoin:miter;stroke-opacity:1" d="M 23.676,507.379 7.27934,505.739 z" id="boundary" inkscape:connector-curvature="0" />
	<path style="fill:none;stroke:red;stroke-width:1px;stroke-linecap:butt;stroke-linejoin:miter;stroke-opacity:1" d="M 94.1818,461.468 23.676,507.379 z" id="boundary" inkscape:connector-curvature="0" />
	<path style="fill:none;stroke:red;stroke-width:1px;stroke-linecap:butt;stroke-linejoin:miter;stroke-opacity:1" d="M 7.27934,505.739 10.5587,463.107 z" id="boundary" inkscape:connector-curvature="0" />
	<path style="fill:none;stroke:red;stroke-width:1px;stroke-linecap:butt;stroke-linejoin:miter;stroke-opacity:1" d="M 202.4,474.585 186.003,468.026 z" id="boundary" inkscape:connector-curvature="0" />
	<path style="fill:none;stroke:red;stroke-width:1px;stroke-linecap:butt;stroke-linejoin:miter;stroke-opacity:1" d="M 218.797,477.864 202.4,474.585 z" id="boundary" inkscape:connector-curvature="0" />
	<path style="fill:none;stroke:red;stroke-width:1px;stroke-linecap:butt;stroke-linejoin:miter;stroke-opacity:1" d="M 251.59,477.864 235.193,481.144 z" id="boundary" inkscape:connector-curvature="0" />
	<path style="fill:none;stroke:red;stroke-width:1px;stroke-linecap:butt;stroke-linejoin:miter;stroke-opacity:1" d="M 235.193,481.144 218.797,477.864 z" id="boundary" inkscape:connector-curvature="0" />
	<path style="fill:none;stroke:red;stroke-width:1px;stroke-linecap:butt;stroke-linejoin:miter;stroke-opacity:1" d="M 267.987,471.306 251.59,477.864 z" id="boundary" inkscape:connector-curvature="0" />
	<path style="fill:none;stroke:red;stroke-width:1px;stroke-linecap:butt;stroke-linejoin:miter;stroke-opacity:1" d="M 410.638,448.35 394.241,451.63 z" id="boundary" inkscape:connector-curvature="0" />
	<path style="fill:none;stroke:red;stroke-width:1px;stroke-linecap:butt;stroke-linejoin:miter;stroke-opacity:1" d="M 346.691,448.35 330.294,445.071 z" id="boundary" inkscape:connector-curvature="0" />
	<path style="fill:none;stroke:red;stroke-width:1px;stroke-linecap:butt;stroke-linejoin:miter;stroke-opacity:1" d="M 427.035,448.35 410.638,448.35 z" id="boundary" inkscape:connector-curvature="0" />
	<path style="fill:none;stroke:red;stroke-width:1px;stroke-linecap:butt;stroke-linejoin:miter;stroke-opacity:1" d="M 427.035,448.35 436.873,461.468 z" id="boundary" inkscape:connector-curvature="0" />
	<path style="fill:none;stroke:red;stroke-width:1px;stroke-linecap:butt;stroke-linejoin:miter;stroke-opacity:1" d="M 313.898,449.99 330.294,445.071 z" id="boundary" inkscape:connector-curvature="0" />
	<path style="fill:none;stroke:red;stroke-width:1px;stroke-linecap:butt;stroke-linejoin:miter;stroke-opacity:1" d="M 458.188,443.431 474.585,441.792 z" id="boundary" inkscape:connector-curvature="0" />
	<path style="fill:none;stroke:red;stroke-width:1px;stroke-linecap:butt;stroke-linejoin:miter;stroke-opacity:1" d="M 458.188,459.828 458.188,443.431 z" id="boundary" inkscape:connector-curvature="0" />
	<path style="fill:none;stroke:red;stroke-width:1px;stroke-linecap:butt;stroke-linejoin:miter;stroke-opacity:1" d="M 490.982,441.792 474.585,441.792 z" id="boundary" inkscape:connector-curvature="0" />
	<path style="fill:none;stroke:red;stroke-width:1px;stroke-linecap:butt;stroke-linejoin:miter;stroke-opacity:1" d="M 507.379,441.792 490.982,441.792 z" id="boundary" inkscape:connector-curvature="0" />
	<path style="fill:none;stroke:red;stroke-width:1px;stroke-linecap:butt;stroke-linejoin:miter;stroke-opacity:1" d="M 507.379,441.792 523.775,441.792 z" id="boundary" inkscape:connector-curvature="0" />
	<path style="fill:none;stroke:red;stroke-width:1px;stroke-linecap:butt;stroke-linejoin:miter;stroke-opacity:1" d="M 540.172,441.792 523.775,441.792 z" id="boundary" inkscape:connector-curvature="0" />
	<path style="fill:none;stroke:red;stroke-width:1px;stroke-linecap:butt;stroke-linejoin:miter;stroke-opacity:1" d="M 556.569,441.792 540.172,441.792 z" id="boundary" inkscape:connector-curvature="0" />
	<path style="fill:none;stroke:red;stroke-width:1px;stroke-linecap:butt;stroke-linejoin:miter;stroke-opacity:1" d="M 540.172,441.792 584.443,505.739 z" id="boundary" inkscape:connector-curvature="0" />
	<path style="fill:none;stroke:red;stroke-width:1px;stroke-linecap:butt;stroke-linejoin:miter;stroke-opacity:1" d="M 346.691,448.35 361.448,456.549 z" id="boundary" inkscape:connector-curvature="0" />
	<path style="fill:none;stroke:red;stroke-width:1px;stroke-linecap:butt;stroke-linejoin:miter;stroke-opacity:1" d="M 394.241,451.63 377.845,458.188 z" id="boundary" inkscape:connector-curvature="0" />
	<path style="fill:none;stroke:red;stroke-width:1px;stroke-linecap:butt;stroke-linejoin:miter;stroke-opacity:1" d="M 377.845,458.188 361.448,456.549 z" id="boundary" inkscape:connector-curvature="0" />
	<path style="fill:none;stroke:red;stroke-width:1px;stroke-linecap:butt;stroke-linejoin:miter;stroke-opacity:1" d="M 299.14,458.188 313.898,449.99 z" id="boundary" inkscape:connector-curvature="0" />
	<path style="fill:none;stroke:red;stroke-width:1px;stroke-linecap:butt;stroke-linejoin:miter;stroke-opacity:1" d="M 284.383,466.387 299.14,458.188 z" id="boundary" inkscape:connector-curvature="0" />
	<path style="fill:none;stroke:red;stroke-width:1px;stroke-linecap:butt;stroke-linejoin:miter;stroke-opacity:1" d="M 284.383,466.387 267.987,471.306 z" id="boundary" inkscape:connector-curvature="0" />
	<path style="fill:none;stroke:red;stroke-width:1px;stroke-linecap:butt;stroke-linejoin:miter;stroke-opacity:1" d="M 436.873,461.468 458.188,459.828 z" id="boundary" inkscape:connector-curvature="0" />
	<path style="fill:none;stroke:red;stroke-width:1px;stroke-linecap:butt;stroke-linejoin:miter;stroke-opacity:1" d="M 436.873,477.864 436.873,461.468 z" id="boundary" inkscape:connector-curvature="0" />
	<path style="fill:none;stroke:red;stroke-width:1px;stroke-linecap:butt;stroke-linejoin:miter;stroke-opacity:1" d="M 458.188,459.828 454.909,486.063 z" id="boundary" inkscape:connector-curvature="0" />
	<path style="fill:none;stroke:red;stroke-width:1px;stroke-linecap:butt;stroke-linejoin:miter;stroke-opacity:1" d="M 440.152,494.261 454.909,486.063 z" id="boundary" inkscape:connector-curvature="0" />
	<path style="fill:none;stroke:red;stroke-width:1px;stroke-linecap:butt;stroke-linejoin:miter;stroke-opacity:1" d="M 443.431,510.658 440.152,494.261 z" id="boundary" inkscape:connector-curvature="0" />
	<path style="fill:none;stroke:red;stroke-width:1px;stroke-linecap:butt;stroke-linejoin:miter;stroke-opacity:1" d="M 440.152,494.261 436.873,477.864 z" id="boundary" inkscape:connector-curvature="0" />
	<path style="fill:none;stroke:red;stroke-width:1px;stroke-linecap:butt;stroke-linejoin:miter;stroke-opacity:1" d="M 584.443,505.739 443.431,510.658 z" id="boundary" inkscape:connector-curvature="0" />
	<path style="fill:none;stroke:red;stroke-width:1px;stroke-linecap:butt;stroke-linejoin:miter;stroke-opacity:1" d="M 672.985,76.1455 689.382,72.8661 z" id="boundary" inkscape:connector-curvature="0" />
	<path style="fill:none;stroke:red;stroke-width:1px;stroke-linecap:butt;stroke-linejoin:miter;stroke-opacity:1" d="M 705.779,69.5868 689.382,72.8661 z" id="boundary" inkscape:connector-curvature="0" />
	<path style="fill:none;stroke:red;stroke-width:1px;stroke-linecap:butt;stroke-linejoin:miter;stroke-opacity:1" d="M 718.896,59.7488 705.779,69.5868 z" id="boundary" inkscape:connector-curvature="0" />
	<path style="fill:none;stroke:red;stroke-width:1px;stroke-linecap:butt;stroke-linejoin:miter;stroke-opacity:1" d="M 640.192,85.9835 656.588,79.4248 z" id="boundary" inkscape:connector-curvature="0" />
	<path style="fill:none;stroke:red;stroke-width:1px;stroke-linecap:butt;stroke-linejoin:miter;stroke-opacity:1" d="M 672.985,76.1455 656.588,79.4248 z" id="boundary" inkscape:connector-curvature="0" />
	<path style="fill:none;stroke:red;stroke-width:1px;stroke-linecap:butt;stroke-linejoin:miter;stroke-opacity:1" d="M 758.248,26.9554 771.365,7.27934 z" id="boundary" inkscape:connector-curvature="0" />
	<path style="fill:none;stroke:red;stroke-width:1px;stroke-linecap:butt;stroke-linejoin:miter;stroke-opacity:1" d="M 745.131,40.0727 758.248,26.9554 z" id="boundary" inkscape:connector-curvature="0" />
	<path style="fill:none;stroke:red;stroke-width:1px;stroke-linecap:butt;stroke-linejoin:miter;stroke-opacity:1" d="M 718.896,59.7488 728.734,46.6314 z" id="boundary" inkscape:connector-curvature="0" />
	<path style="fill:none;stroke:red;stroke-width:1px;stroke-linecap:butt;stroke-linejoin:miter;stroke-opacity:1" d="M 728.734,46.6314 745.131,40.0727 z" id="boundary" inkscape:connector-curvature="0" />
	<path style="fill:none;stroke:red;stroke-width:1px;stroke-linecap:butt;stroke-linejoin:miter;stroke-opacity:1" d="M 640.192,85.9835 623.795,92.5421 z" id="boundary" inkscape:connector-curvature="0" />
	<path style="fill:none;stroke:red;stroke-width:1px;stroke-linecap:butt;stroke-linejoin:miter;stroke-opacity:1" d="M 558.208,207.319 541.812,213.878 z" id="boundary" inkscape:connector-curvature="0" />
	<path style="fill:none;stroke:red;stroke-width:1px;stroke-linecap:butt;stroke-linejoin:miter;stroke-opacity:1" d="M 584.443,141.732 595.921,154.85 z" id="boundary" inkscape:connector-curvature="0" />
	<path style="fill:none;stroke:red;stroke-width:1px;stroke-linecap:butt;stroke-linejoin:miter;stroke-opacity:1" d="M 574.605,207.319 591.002,207.319 z" id="boundary" inkscape:connector-curvature="0" />
	<path style="fill:none;stroke:red;stroke-width:1px;stroke-linecap:butt;stroke-linejoin:miter;stroke-opacity:1" d="M 574.605,207.319 558.208,207.319 z" id="boundary" inkscape:connector-curvature="0" />
	<path style="fill:none;stroke:red;stroke-width:1px;stroke-linecap:butt;stroke-linejoin:miter;stroke-opacity:1" d="M 600.84,187.643 591.002,207.319 z" id="boundary" inkscape:connector-curvature="0" />
	<path style="fill:none;stroke:red;stroke-width:1px;stroke-linecap:butt;stroke-linejoin:miter;stroke-opacity:1" d="M 584.443,141.732 584.443,125.336 z" id="boundary" inkscape:connector-curvature="0" />
	<path style="fill:none;stroke:red;stroke-width:1px;stroke-linecap:butt;stroke-linejoin:miter;stroke-opacity:1" d="M 584.443,125.336 597.56,112.218 z" id="boundary" inkscape:connector-curvature="0" />
	<path style="fill:none;stroke:red;stroke-width:1px;stroke-linecap:butt;stroke-linejoin:miter;stroke-opacity:1" d="M 597.56,112.218 610.678,102.38 z" id="boundary" inkscape:connector-curvature="0" />
	<path style="fill:none;stroke:red;stroke-width:1px;stroke-linecap:butt;stroke-linejoin:miter;stroke-opacity:1" d="M 623.795,92.5421 610.678,102.38 z" id="boundary" inkscape:connector-curvature="0" />
	<path style="fill:none;stroke:red;stroke-width:1px;stroke-linecap:butt;stroke-linejoin:miter;stroke-opacity:1" d="M 600.84,171.246 600.84,187.643 z" id="boundary" inkscape:connector-curvature="0" />
	<path style="fill:none;stroke:red;stroke-width:1px;stroke-linecap:butt;stroke-linejoin:miter;stroke-opacity:1" d="M 600.84,171.246 595.921,154.85 z" id="boundary" inkscape:connector-curvature="0" />
	<path style="fill:none;stroke:red;stroke-width:1px;stroke-linecap:butt;stroke-linejoin:miter;stroke-opacity:1" d="M 787.762,4 797.6,17.1174 z" id="boundary" inkscape:connector-curvature="0" />
	<path style="fill:none;stroke:red;stroke-width:1px;stroke-linecap:butt;stroke-linejoin:miter;stroke-opacity:1" d="M 771.365,7.27934 787.762,4 z" id="boundary" inkscape:connector-curvature="0" />
	<path style="fill:none;stroke:red;stroke-width:1px;stroke-linecap:butt;stroke-linejoin:miter;stroke-opacity:1" d="M 797.6,17.1174 805.798,31.8744 z" id="boundary" inkscape:connector-curvature="0" />
	<path style="fill:none;stroke:red;stroke-width:1px;stroke-linecap:butt;stroke-linejoin:miter;stroke-opacity:1" d="M 820.555,40.0727 805.798,31.8744 z" id="boundary" inkscape:connector-curvature="0" />
	<path style="fill:none;stroke:red;stroke-width:1px;stroke-linecap:butt;stroke-linejoin:miter;stroke-opacity:1" d="M 820.555,40.0727 835.312,48.2711 z" id="boundary" inkscape:connector-curvature="0" />
	<path style="fill:none;stroke:red;stroke-width:1px;stroke-linecap:butt;stroke-linejoin:miter;stroke-opacity:1" d="M 835.312,48.2711 848.43,59.7488 z" id="boundary" inkscape:connector-curvature="0" />
	<path style="fill:none;stroke:red;stroke-width:1px;stroke-linecap:butt;stroke-linejoin:miter;stroke-opacity:1" d="M 864.826,66.3074 848.43,59.7488 z" id="boundary" inkscape:connector-curvature="0" />
	<path style="fill:none;stroke:red;stroke-width:1px;stroke-linecap:butt;stroke-linejoin:miter;stroke-opacity:1" d="M 864.826,66.3074 881.223,69.5868 z" id="boundary" inkscape:connector-curvature="0" />
	<path style="fill:none;stroke:red;stroke-width:1px;stroke-linecap:butt;stroke-linejoin:miter;stroke-opacity:1" d="M 897.62,72.8661 881.223,69.5868 z" id="boundary" inkscape:connector-curvature="0" />
	<path style="fill:none;stroke:red;stroke-width:1px;stroke-linecap:butt;stroke-linejoin:miter;stroke-opacity:1" d="M 914.017,76.1455 930.413,82.7041 z" id="boundary" inkscape:connector-curvature="0" />
	<path style="fill:none;stroke:red;stroke-width:1px;stroke-linecap:butt;stroke-linejoin:miter;stroke-opacity:1" d="M 897.62,72.8661 914.017,76.1455 z" id="boundary" inkscape:connector-curvature="0" />
	<path style="fill:none;stroke:red;stroke-width:1px;stroke-linecap:butt;stroke-linejoin:miter;stroke-opacity:1" d="M 946.81,89.2628 959.927,99.1008 z" id="boundary" inkscape:connector-curvature="0" />
	<path style="fill:none;stroke:red;stroke-width:1px;stroke-linecap:butt;stroke-linejoin:miter;stroke-opacity:1" d="M 930.413,82.7041 946.81,89.2628 z" id="boundary" inkscape:connector-curvature="0" />
	<path style="fill:none;stroke:red;stroke-width:1px;stroke-linecap:butt;stroke-linejoin:miter;stroke-opacity:1" d="M 992.721,145.012 986.162,164.688 z" id="boundary" inkscape:connector-curvature="0" />
	<path style="fill:none;stroke:red;stroke-width:1px;stroke-linecap:butt;stroke-linejoin:miter;stroke-opacity:1" d="M 976.324,105.66 959.927,99.1008 z" id="boundary" inkscape:connector-curvature="0" />
	<path style="fill:none;stroke:red;stroke-width:1px;stroke-linecap:butt;stroke-linejoin:miter;stroke-opacity:1" d="M 986.162,164.688 986.162,181.084 z" id="boundary" inkscape:connector-curvature="0" />
	<path style="fill:none;stroke:red;stroke-width:1px;stroke-linecap:butt;stroke-linejoin:miter;stroke-opacity:1" d="M 986.162,181.084 986.162,197.481 z" id="boundary" inkscape:connector-curvature="0" />
	<path style="fill:none;stroke:red;stroke-width:1px;stroke-linecap:butt;stroke-linejoin:miter;stroke-opacity:1" d="M 986.162,213.878 986.162,197.481 z" id="boundary" inkscape:connector-curvature="0" />
	<path style="fill:none;stroke:red;stroke-width:1px;stroke-linecap:butt;stroke-linejoin:miter;stroke-opacity:1" d="M 986.162,213.878 986.162,230.274 z" id="boundary" inkscape:connector-curvature="0" />
	<path style="fill:none;stroke:red;stroke-width:1px;stroke-linecap:butt;stroke-linejoin:miter;stroke-opacity:1" d="M 976.324,105.66 989.441,115.498 z" id="boundary" inkscape:connector-curvature="0" />
	<path style="fill:none;stroke:red;stroke-width:1px;stroke-linecap:butt;stroke-linejoin:miter;stroke-opacity:1" d="M 989.441,115.498 992.721,145.012 z" id="boundary" inkscape:connector-curvature="0" />
	<path style="fill:none;stroke:red;stroke-width:1px;stroke-linecap:butt;stroke-linejoin:miter;stroke-opacity:1" d="M 986.162,246.671 986.162,230.274 z" id="boundary" inkscape:connector-curvature="0" />
	<path style="fill:none;stroke:red;stroke-width:1px;stroke-linecap:butt;stroke-linejoin:miter;stroke-opacity:1" d="M 986.162,263.068 986.162,246.671 z" id="boundary" inkscape:connector-curvature="0" />
	<path style="fill:none;stroke:red;stroke-width:1px;stroke-linecap:butt;stroke-linejoin:miter;stroke-opacity:1" d="M 989.441,295.861 986.162,279.464 z" id="boundary" inkscape:connector-curvature="0" />
	<path style="fill:none;stroke:red;stroke-width:1px;stroke-linecap:butt;stroke-linejoin:miter;stroke-opacity:1" d="M 986.162,279.464 986.162,263.068 z" id="boundary" inkscape:connector-curvature="0" />
	<path style="fill:none;stroke:red;stroke-width:1px;stroke-linecap:butt;stroke-linejoin:miter;stroke-opacity:1" d="M 620.516,441.792 605.759,449.99 z" id="boundary" inkscape:connector-curvature="0" />
	<path style="fill:none;stroke:red;stroke-width:1px;stroke-linecap:butt;stroke-linejoin:miter;stroke-opacity:1" d="M 636.912,441.792 653.309,441.792 z" id="boundary" inkscape:connector-curvature="0" />
	<path style="fill:none;stroke:red;stroke-width:1px;stroke-linecap:butt;stroke-linejoin:miter;stroke-opacity:1" d="M 669.706,441.792 653.309,441.792 z" id="boundary" inkscape:connector-curvature="0" />
	<path style="fill:none;stroke:red;stroke-width:1px;stroke-linecap:butt;stroke-linejoin:miter;stroke-opacity:1" d="M 636.912,441.792 620.516,441.792 z" id="boundary" inkscape:connector-curvature="0" />
	<path style="fill:none;stroke:red;stroke-width:1px;stroke-linecap:butt;stroke-linejoin:miter;stroke-opacity:1" d="M 686.102,441.792 702.499,441.792 z" id="boundary" inkscape:connector-curvature="0" />
	<path style="fill:none;stroke:red;stroke-width:1px;stroke-linecap:butt;stroke-linejoin:miter;stroke-opacity:1" d="M 718.896,441.792 702.499,441.792 z" id="boundary" inkscape:connector-curvature="0" />
	<path style="fill:none;stroke:red;stroke-width:1px;stroke-linecap:butt;stroke-linejoin:miter;stroke-opacity:1" d="M 735.293,441.792 751.689,441.792 z" id="boundary" inkscape:connector-curvature="0" />
	<path style="fill:none;stroke:red;stroke-width:1px;stroke-linecap:butt;stroke-linejoin:miter;stroke-opacity:1" d="M 768.086,441.792 751.689,441.792 z" id="boundary" inkscape:connector-curvature="0" />
	<path style="fill:none;stroke:red;stroke-width:1px;stroke-linecap:butt;stroke-linejoin:miter;stroke-opacity:1" d="M 735.293,441.792 718.896,441.792 z" id="boundary" inkscape:connector-curvature="0" />
	<path style="fill:none;stroke:red;stroke-width:1px;stroke-linecap:butt;stroke-linejoin:miter;stroke-opacity:1" d="M 686.102,441.792 669.706,441.792 z" id="boundary" inkscape:connector-curvature="0" />
	<path style="fill:none;stroke:red;stroke-width:1px;stroke-linecap:butt;stroke-linejoin:miter;stroke-opacity:1" d="M 600.84,471.306 584.443,472.945 z" id="boundary" inkscape:connector-curvature="0" />
	<path style="fill:none;stroke:red;stroke-width:1px;stroke-linecap:butt;stroke-linejoin:miter;stroke-opacity:1" d="M 587.722,449.99 605.759,449.99 z" id="boundary" inkscape:connector-curvature="0" />
	<path style="fill:none;stroke:red;stroke-width:1px;stroke-linecap:butt;stroke-linejoin:miter;stroke-opacity:1" d="M 605.759,449.99 600.84,471.306 z" id="boundary" inkscape:connector-curvature="0" />
	<path style="fill:none;stroke:red;stroke-width:1px;stroke-linecap:butt;stroke-linejoin:miter;stroke-opacity:1" d="M 584.443,472.945 592.641,487.702 z" id="boundary" inkscape:connector-curvature="0" />
	<path style="fill:none;stroke:red;stroke-width:1px;stroke-linecap:butt;stroke-linejoin:miter;stroke-opacity:1" d="M 584.443,505.739 584.443,472.945 z" id="boundary" inkscape:connector-curvature="0" />
	<path style="fill:none;stroke:red;stroke-width:1px;stroke-linecap:butt;stroke-linejoin:miter;stroke-opacity:1" d="M 600.84,504.099 584.443,505.739 z" id="boundary" inkscape:connector-curvature="0" />
	<path style="fill:none;stroke:red;stroke-width:1px;stroke-linecap:butt;stroke-linejoin:miter;stroke-opacity:1" d="M 592.641,487.702 600.84,504.099 z" id="boundary" inkscape:connector-curvature="0" />
	<path style="fill:none;stroke:red;stroke-width:1px;stroke-linecap:butt;stroke-linejoin:miter;stroke-opacity:1" d="M 600.84,471.306 600.84,504.099 z" id="boundary" inkscape:connector-curvature="0" />
	<path style="fill:none;stroke:red;stroke-width:1px;stroke-linecap:butt;stroke-linejoin:miter;stroke-opacity:1" d="M 572.965,441.792 587.722,449.99 z" id="boundary" inkscape:connector-curvature="0" />
	<path style="fill:none;stroke:red;stroke-width:1px;stroke-linecap:butt;stroke-linejoin:miter;stroke-opacity:1" d="M 800.879,441.792 784.483,441.792 z" id="boundary" inkscape:connector-curvature="0" />
	<path style="fill:none;stroke:red;stroke-width:1px;stroke-linecap:butt;stroke-linejoin:miter;stroke-opacity:1" d="M 817.276,441.792 800.879,441.792 z" id="boundary" inkscape:connector-curvature="0" />
	<path style="fill:none;stroke:red;stroke-width:1px;stroke-linecap:butt;stroke-linejoin:miter;stroke-opacity:1" d="M 817.276,441.792 833.673,441.792 z" id="boundary" inkscape:connector-curvature="0" />
	<path style="fill:none;stroke:red;stroke-width:1px;stroke-linecap:butt;stroke-linejoin:miter;stroke-opacity:1" d="M 768.086,441.792 784.483,441.792 z" id="boundary" inkscape:connector-curvature="0" />
	<path style="fill:none;stroke:red;stroke-width:1px;stroke-linecap:butt;stroke-linejoin:miter;stroke-opacity:1" d="M 989.441,312.258 989.441,295.861 z" id="boundary" inkscape:connector-curvature="0" />
	<path style="fill:none;stroke:red;stroke-width:1px;stroke-linecap:butt;stroke-linejoin:miter;stroke-opacity:1" d="M 992.721,328.655 989.441,312.258 z" id="boundary" inkscape:connector-curvature="0" />
	<path style="fill:none;stroke:red;stroke-width:1px;stroke-linecap:butt;stroke-linejoin:miter;stroke-opacity:1" d="M 866.466,441.792 850.069,441.792 z" id="boundary" inkscape:connector-curvature="0" />
	<path style="fill:none;stroke:red;stroke-width:1px;stroke-linecap:butt;stroke-linejoin:miter;stroke-opacity:1" d="M 882.863,441.792 866.466,441.792 z" id="boundary" inkscape:connector-curvature="0" />
	<path style="fill:none;stroke:red;stroke-width:1px;stroke-linecap:butt;stroke-linejoin:miter;stroke-opacity:1" d="M 992.721,328.655 992.721,345.051 z" id="boundary" inkscape:connector-curvature="0" />
	<path style="fill:none;stroke:red;stroke-width:1px;stroke-linecap:butt;stroke-linejoin:miter;stroke-opacity:1" d="M 850.069,441.792 833.673,441.792 z" id="boundary" inkscape:connector-curvature="0" />
	<path style="fill:none;stroke:red;stroke-width:1px;stroke-linecap:butt;stroke-linejoin:miter;stroke-opacity:1" d="M 992.721,361.448 992.721,345.051 z" id="boundary" inkscape:connector-curvature="0" />
	<path style="fill:none;stroke:red;stroke-width:1px;stroke-linecap:butt;stroke-linejoin:miter;stroke-opacity:1" d="M 992.721,377.845 992.721,361.448 z" id="boundary" inkscape:connector-curvature="0" />
	<path style="fill:none;stroke:red;stroke-width:1px;stroke-linecap:butt;stroke-linejoin:miter;stroke-opacity:1" d="M 996,394.241 992.721,377.845 z" id="boundary" inkscape:connector-curvature="0" />
	<path style="fill:none;stroke:red;stroke-width:1px;stroke-linecap:butt;stroke-linejoin:miter;stroke-opacity:1" d="M 992.721,417.197 996,394.241 z" id="boundary" inkscape:connector-curvature="0" />
	<path style="fill:none;stroke:red;stroke-width:1px;stroke-linecap:butt;stroke-linejoin:miter;stroke-opacity:1" d="M 992.721,433.593 992.721,417.197 z" id="boundary" inkscape:connector-curvature="0" />
	<path style="fill:none;stroke:red;stroke-width:1px;stroke-linecap:butt;stroke-linejoin:miter;stroke-opacity:1" d="M 882.863,441.792 899.26,441.792 z" id="boundary" inkscape:connector-curvature="0" />
	<path style="fill:none;stroke:red;stroke-width:1px;stroke-linecap:butt;stroke-linejoin:miter;stroke-opacity:1" d="M 915.656,441.792 899.26,441.792 z" id="boundary" inkscape:connector-curvature="0" />
	<path style="fill:none;stroke:red;stroke-width:1px;stroke-linecap:butt;stroke-linejoin:miter;stroke-opacity:1" d="M 915.656,441.792 971.405,505.739 z" id="boundary" inkscape:connector-curvature="0" />
	<path style="fill:none;stroke:red;stroke-width:1px;stroke-linecap:butt;stroke-linejoin:miter;stroke-opacity:1" d="M 932.053,441.792 948.45,441.792 z" id="boundary" inkscape:connector-curvature="0" />
	<path style="fill:none;stroke:red;stroke-width:1px;stroke-linecap:butt;stroke-linejoin:miter;stroke-opacity:1" d="M 964.846,441.792 948.45,441.792 z" id="boundary" inkscape:connector-curvature="0" />
	<path style="fill:none;stroke:red;stroke-width:1px;stroke-linecap:butt;stroke-linejoin:miter;stroke-opacity:1" d="M 964.846,441.792 971.405,458.188 z" id="boundary" inkscape:connector-curvature="0" />
	<path style="fill:none;stroke:red;stroke-width:1px;stroke-linecap:butt;stroke-linejoin:miter;stroke-opacity:1" d="M 932.053,441.792 915.656,441.792 z" id="boundary" inkscape:connector-curvature="0" />
	<path style="fill:none;stroke:red;stroke-width:1px;stroke-linecap:butt;stroke-linejoin:miter;stroke-opacity:1" d="M 989.441,449.99 989.441,466.387 z" id="boundary" inkscape:connector-curvature="0" />
	<path style="fill:none;stroke:red;stroke-width:1px;stroke-linecap:butt;stroke-linejoin:miter;stroke-opacity:1" d="M 989.441,449.99 992.721,433.593 z" id="boundary" inkscape:connector-curvature="0" />
	<path style="fill:none;stroke:red;stroke-width:1px;stroke-linecap:butt;stroke-linejoin:miter;stroke-opacity:1" d="M 989.441,466.387 971.405,474.585 z" id="boundary" inkscape:connector-curvature="0" />
	<path style="fill:none;stroke:red;stroke-width:1px;stroke-linecap:butt;stroke-linejoin:miter;stroke-opacity:1" d="M 971.405,474.585 971.405,458.188 z" id="boundary" inkscape:connector-curvature="0" />
	<path style="fill:none;stroke:red;stroke-width:1px;stroke-linecap:butt;stroke-linejoin:miter;stroke-opacity:1" d="M 971.405,474.585 986.162,495.901 z" id="boundary" inkscape:connector-curvature="0" />
	<path style="fill:none;stroke:red;stroke-width:1px;stroke-linecap:butt;stroke-linejoin:miter;stroke-opacity:1" d="M 986.162,495.901 971.405,505.739 z" id="boundary" inkscape:connector-curvature="0" />
	<path style="fill:none;stroke:red;stroke-width:1px;stroke-linecap:butt;stroke-linejoin:miter;stroke-opacity:1" d="M 989.441,466.387 986.162,495.901 z" id="boundary" inkscape:connector-curvature="0" />
	<circle cx="4" cy="315.537" r="4" fill="#0" id="circle0"/>
	<circle cx="4" cy="331.934" r="4" fill="#0" id="circle1"/>
	<circle cx="7.27934" cy="505.739" r="4" fill="#0" id="circle2"/>
	<circle cx="10.5587" cy="463.107" r="4" fill="#0" id="circle3"/>
	<circle cx="10.5587" cy="479.504" r="4" fill="#0" id="circle4"/>
	<circle cx="13.838" cy="302.42" r="4" fill="#0" id="circle5"/>
	<circle cx="13.838" cy="345.051" r="4" fill="#0" id="circle6"/>
	<circle cx="17.1174" cy="361.448" r="4" fill="#0" id="circle7"/>
	<circle cx="17.1174" cy="377.845" r="4" fill="#0" id="circle8"/>
	<circle cx="17.1174" cy="394.241" r="4" fill="#0" id="circle9"/>
	<circle cx="17.1174" cy="436.873" r="4" fill="#0" id="circle10"/>
	<circle cx="22.0364" cy="410.638" r="4" fill="#0" id="circle11"/>
	<circle cx="23.676" cy="507.379" r="4" fill="#0" id="circle12"/>
	<circle cx="25.3157" cy="471.306" r="4" fill="#0" id="circle13"/>
	<circle cx="25.3157" cy="487.702" r="4" fill="#0" id="circle14"/>
	<circle cx="28.595" cy="453.269" r="4" fill="#0" id="circle15"/>
	<circle cx="30.2347" cy="295.861" r="4" fill="#0" id="circle16"/>
	<circle cx="44.9917" cy="448.35" r="4" fill="#0" id="circle17"/>
	<circle cx="46.6314" cy="289.302" r="4" fill="#0" id="circle18"/>
	<circle cx="61.3884" cy="451.63" r="4" fill="#0" id="circle19"/>
	<circle cx="63.0281" cy="282.744" r="4" fill="#0" id="circle20"/>
	<circle cx="77.7851" cy="454.909" r="4" fill="#0" id="circle21"/>
	<circle cx="79.4248" cy="279.464" r="4" fill="#0" id="circle22"/>
	<circle cx="94.1818" cy="461.468" r="4" fill="#0" id="circle23"/>
	<circle cx="95.8215" cy="272.906" r="4" fill="#0" id="circle24"/>
	<circle cx="107.299" cy="451.63" r="4" fill="#0" id="circle25"/>
	<circle cx="112.218" cy="269.626" r="4" fill="#0" id="circle26"/>
	<circle cx="123.696" cy="445.071" r="4" fill="#0" id="circle27"/>
	<circle cx="128.615" cy="269.626" r="4" fill="#0" id="circle28"/>
	<circle cx="140.093" cy="448.35" r="4" fill="#0" id="circle29"/>
	<circle cx="145.012" cy="266.347" r="4" fill="#0" id="circle30"/>
	<circle cx="156.489" cy="451.63" r="4" fill="#0" id="circle31"/>
	<circle cx="161.408" cy="266.347" r="4" fill="#0" id="circle32"/>
	<circle cx="169.607" cy="461.468" r="4" fill="#0" id="circle33"/>
	<circle cx="176.165" cy="258.149" r="4" fill="#0" id="circle34"/>
	<circle cx="186.003" cy="468.026" r="4" fill="#0" id="circle35"/>
	<circle cx="190.922" cy="249.95" r="4" fill="#0" id="circle36"/>
	<circle cx="202.4" cy="474.585" r="4" fill="#0" id="circle37"/>
	<circle cx="204.04" cy="240.112" r="4" fill="#0" id="circle38"/>
	<circle cx="217.157" cy="230.274" r="4" fill="#0" id="circle39"/>
	<circle cx="218.797" cy="477.864" r="4" fill="#0" id="circle40"/>
	<circle cx="233.554" cy="223.716" r="4" fill="#0" id="circle41"/>
	<circle cx="235.193" cy="481.144" r="4" fill="#0" id="circle42"/>
	<circle cx="248.311" cy="231.914" r="4" fill="#0" id="circle43"/>
	<circle cx="251.59" cy="477.864" r="4" fill="#0" id="circle44"/>
	<circle cx="263.068" cy="240.112" r="4" fill="#0" id="circle45"/>
	<circle cx="267.987" cy="471.306" r="4" fill="#0" id="circle46"/>
	<circle cx="276.185" cy="249.95" r="4" fill="#0" id="circle47"/>
	<circle cx="284.383" cy="466.387" r="4" fill="#0" id="circle48"/>
	<circle cx="290.942" cy="258.149" r="4" fill="#0" id="circle49"/>
	<circle cx="299.14" cy="458.188" r="4" fill="#0" id="circle50"/>
	<circle cx="305.699" cy="266.347" r="4" fill="#0" id="circle51"/>
	<circle cx="313.898" cy="449.99" r="4" fill="#0" id="circle52"/>
	<circle cx="322.096" cy="266.347" r="4" fill="#0" id="circle53"/>
	<circle cx="330.294" cy="445.071" r="4" fill="#0" id="circle54"/>
	<circle cx="338.493" cy="269.626" r="4" fill="#0" id="circle55"/>
	<circle cx="346.691" cy="448.35" r="4" fill="#0" id="circle56"/>
	<circle cx="354.889" cy="269.626" r="4" fill="#0" id="circle57"/>
	<circle cx="361.448" cy="456.549" r="4" fill="#0" id="circle58"/>
	<circle cx="371.286" cy="272.906" r="4" fill="#0" id="circle59"/>
	<circle cx="377.845" cy="458.188" r="4" fill="#0" id="circle60"/>
	<circle cx="387.683" cy="279.464" r="4" fill="#0" id="circle61"/>
	<circle cx="394.241" cy="451.63" r="4" fill="#0" id="circle62"/>
	<circle cx="404.079" cy="282.744" r="4" fill="#0" id="circle63"/>
	<circle cx="410.638" cy="448.35" r="4" fill="#0" id="circle64"/>
	<circle cx="420.476" cy="286.023" r="4" fill="#0" id="circle65"/>
	<circle cx="427.035" cy="448.35" r="4" fill="#0" id="circle66"/>
	<circle cx="436.873" cy="292.582" r="4" fill="#0" id="circle67"/>
	<circle cx="436.873" cy="461.468" r="4" fill="#0" id="circle68"/>
	<circle cx="436.873" cy="477.864" r="4" fill="#0" id="circle69"/>
	<circle cx="440.152" cy="494.261" r="4" fill="#0" id="circle70"/>
	<circle cx="443.431" cy="510.658" r="4" fill="#0" id="circle71"/>
	<circle cx="453.269" cy="292.582" r="4" fill="#0" id="circle72"/>
	<circle cx="454.909" cy="486.063" r="4" fill="#0" id="circle73"/>
	<circle cx="458.188" cy="443.431" r="4" fill="#0" id="circle74"/>
	<circle cx="458.188" cy="459.828" r="4" fill="#0" id="circle75"/>
	<circle cx="459.828" cy="276.185" r="4" fill="#0" id="circle76"/>
	<circle cx="472.945" cy="263.068" r="4" fill="#0" id="circle77"/>
	<circle cx="474.585" cy="441.792" r="4" fill="#0" id="circle78"/>
	<circle cx="487.702" cy="254.869" r="4" fill="#0" id="circle79"/>
	<circle cx="490.982" cy="441.792" r="4" fill="#0" id="circle80"/>
	<circle cx="500.82" cy="243.392" r="4" fill="#0" id="circle81"/>
	<circle cx="507.379" cy="441.792" r="4" fill="#0" id="circle82"/>
	<circle cx="512.298" cy="230.274" r="4" fill="#0" id="circle83"/>
	<circle cx="523.775" cy="441.792" r="4" fill="#0" id="circle84"/>
	<circle cx="528.694" cy="223.716" r="4" fill="#0" id="circle85"/>
	<circle cx="540.172" cy="441.792" r="4" fill="#0" id="circle86"/>
	<circle cx="541.812" cy="213.878" r="4" fill="#0" id="circle87"/>
	<circle cx="556.569" cy="441.792" r="4" fill="#0" id="circle88"/>
	<circle cx="558.208" cy="207.319" r="4" fill="#0" id="circle89"/>
	<circle cx="572.965" cy="441.792" r="4" fill="#0" id="circle90"/>
	<circle cx="574.605" cy="207.319" r="4" fill="#0" id="circle91"/>
	<circle cx="584.443" cy="125.336" r="4" fill="#0" id="circle92"/>
	<circle cx="584.443" cy="141.732" r="4" fill="#0" id="circle93"/>
	<circle cx="584.443" cy="472.945" r="4" fill="#0" id="circle94"/>
	<circle cx="584.443" cy="505.739" r="4" fill="#0" id="circle95"/>
	<circle cx="587.722" cy="449.99" r="4" fill="#0" id="circle96"/>
	<circle cx="591.002" cy="207.319" r="4" fill="#0" id="circle97"/>
	<circle cx="592.641" cy="487.702" r="4" fill="#0" id="circle98"/>
	<circle cx="595.921" cy="154.85" r="4" fill="#0" id="circle99"/>
	<circle cx="597.56" cy="112.218" r="4" fill="#0" id="circle100"/>
	<circle cx="600.84" cy="171.246" r="4" fill="#0" id="circle101"/>
	<circle cx="600.84" cy="187.643" r="4" fill="#0" id="circle102"/>
	<circle cx="600.84" cy="471.306" r="4" fill="#0" id="circle103"/>
	<circle cx="600.84" cy="504.099" r="4" fill="#0" id="circle104"/>
	<circle cx="605.759" cy="449.99" r="4" fill="#0" id="circle105"/>
	<circle cx="610.678" cy="102.38" r="4" fill="#0" id="circle106"/>
	<circle cx="620.516" cy="441.792" r="4" fill="#0" id="circle107"/>
	<circle cx="623.795" cy="92.5421" r="4" fill="#0" id="circle108"/>
	<circle cx="636.912" cy="441.792" r="4" fill="#0" id="circle109"/>
	<circle cx="640.192" cy="85.9835" r="4" fill="#0" id="circle110"/>
	<circle cx="653.309" cy="441.792" r="4" fill="#0" id="circle111"/>
	<circle cx="656.588" cy="79.4248" r="4" fill="#0" id="circle112"/>
	<circle cx="669.706" cy="441.792" r="4" fill="#0" id="circle113"/>
	<circle cx="672.985" cy="76.1455" r="4" fill="#0" id="circle114"/>
	<circle cx="686.102" cy="441.792" r="4" fill="#0" id="circle115"/>
	<circle cx="689.382" cy="72.8661" r="4" fill="#0" id="circle116"/>
	<circle cx="702.499" cy="441.792" r="4" fill="#0" id="circle117"/>
	<circle cx="705.779" cy="69.5868" r="4" fill="#0" id="circle118"/>
	<circle cx="718.896" cy="59.7488" r="4" fill="#0" id="circle119"/>
	<circle cx="718.896" cy="441.792" r="4" fill="#0" id="circle120"/>
	<circle cx="728.734" cy="46.6314" r="4" fill="#0" id="circle121"/>
	<circle cx="735.293" cy="441.792" r="4" fill="#0" id="circle122"/>
	<circle cx="745.131" cy="40.0727" r="4" fill="#0" id="circle123"/>
	<circle cx="751.689" cy="441.792" r="4" fill="#0" id="circle124"/>
	<circle cx="758.248" cy="26.9554" r="4" fill="#0" id="circle125"/>
	<circle cx="768.086" cy="441.792" r="4" fill="#0" id="circle126"/>
	<circle cx="771.365" cy="7.27934" r="4" fill="#0" id="circle127"/>
	<circle cx="784.483" cy="441.792" r="4" fill="#0" id="circle128"/>
	<circle cx="787.762" cy="4" r="4" fill="#0" id="circle129"/>
	<circle cx="797.6" cy="17.1174" r="4" fill="#0" id="circle130"/>
	<circle cx="800.879" cy="441.792" r="4" fill="#0" id="circle131"/>
	<circle cx="805.798" cy="31.8744" r="4" fill="#0" id="circle132"/>
	<circle cx="817.276" cy="441.792" r="4" fill="#0" id="circle133"/>
	<circle cx="820.555" cy="40.0727" r="4" fill="#0" id="circle134"/>
	<circle cx="833.673" cy="441.792" r="4" fill="#0" id="circle135"/>
	<circle cx="835.312" cy="48.2711" r="4" fill="#0" id="circle136"/>
	<circle cx="848.43" cy="59.7488" r="4" fill="#0" id="circle137"/>
	<circle cx="850.069" cy="441.792" r="4" fill="#0" id="circle138"/>
	<circle cx="864.826" cy="66.3074" r="4" fill="#0" id="circle139"/>
	<circle cx="866.466" cy="441.792" r="4" fill="#0" id="circle140"/>
	<circle cx="881.223" cy="69.5868" r="4" fill="#0" id="circle141"/>
	<circle cx="882.863" cy="441.792" r="4" fill="#0" id="circle142"/>
	<circle cx="897.62" cy="72.8661" r="4" fill="#0" id="circle143"/>
	<circle cx="899.26" cy="441.792" r="4" fill="#0" id="circle144"/>
	<circle cx="914.017" cy="76.1455" r="4" fill="#0" id="circle145"/>
	<circle cx="915.656" cy="441.792" r="4" fill="#0" id="circle146"/>
	<circle cx="930.413" cy="82.7041" r="4" fill="#0" id="circle147"/>
	<circle cx="932.053" cy="441.792" r="4" fill="#0" id="circle148"/>
	<circle cx="946.81" cy="89.2628" r="4" fill="#0" id="circle149"/>
	<circle cx="948.45" cy="441.792" r="4" fill="#0" id="circle150"/>
	<circle cx="959.927" cy="99.1008" r="4" fill="#0" id="circle151"/>
	<circle cx="964.846" cy="441.792" r="4" fill="#0" id="circle152"/>
	<circle cx="971.405" cy="458.188" r="4" fill="#0" id="circle153"/>
	<circle cx="971.405" cy="474.585" r="4" fill="#0" id="circle154"/>
	<circle cx="971.405" cy="505.739" r="4" fill="#0" id="circle155"/>
	<circle cx="976.324" cy="105.66" r="4" fill="#0" id="circle156"/>
	<circle cx="986.162" cy="164.688" r="4" fill="#0" id="circle157"/>
	<circle cx="986.162" cy="181.084" r="4" fill="#0" id="circle158"/>
	<circle cx="986.162" cy="197.481" r="4" fill="#0" id="circle159"/>
	<circle cx="986.162" cy="213.878" r="4" fill="#0" id="circle160"/>
	<circle cx="986.162" cy="230.274" r="4" fill="#0" id="circle161"/>
	<circle cx="986.162" cy="246.671" r="4" fill="#0" id="circle162"/>
	<circle cx="986.162" cy="263.068" r="4" fill="#0" id="circle163"/>
	<circle cx="986.162" cy="279.464" r="4" fill="#0" id="circle164"/>
	<circle cx="986.162" cy="495.901" r="4" fill="#0" id="circle165"/>
	<circle cx="989.441" cy="115.498" r="4" fill="#0" id="circle166"/>
	<circle cx="989.441" cy="295.861" r="4" fill="#0" id="circle167"/>
	<circle cx="989.441" cy="312.258" r="4" fill="#0" id="circle168"/>
	<circle cx="989.441" cy="449.99" r="4" fill="#0" id="circle169"/>
	<circle cx="989.441" cy="466.387" r="4" fill="#0" id="circle170"/>
	<circle cx="992.721" cy="145.012" r="4" fill="#0" id="circle171"/>
	<circle cx="992.721" cy="328.655" r="4" fill="#0" id="circle172"/>
	<circle cx="992.721" cy="345.051" r="4" fill="#0" id="circle173"/>
	<circle cx="992.721" cy="361.448" r="4" fill="#0" id="circle174"/>
	<circle cx="992.721" cy="377.845" r="4" fill="#0" id="circle175"/>
	<circle cx="992.721" cy="417.197" r="4" fill="#0" id="circle176"/>
	<circle cx="992.721" cy="433.593" r="4" fill="#0" id="circle177"/>
	<circle cx="996" cy="394.241" r="4" fill="#0" id="circle178"/>
	</g>
</svg>