<?xml version="1.0" encoding="UTF-8" standalone="no"?>
<!-- Created with CurveBenchmark -->
<svg
	xmlns:dc="http://purl.org/dc/elements/1.1/"
	xmlns:cc="http://creativecommons.org/ns#"
	xmlns:rdf="http://www.w3.org/1999/02/22-rdf-syntax-ns#"
	xmlns:svg="http://www.w3.org/2000/svg"
	xmlns="http://www.w3.org/2000/svg"
	xmlns:sodipodi="http://sodipodi.sourceforge.net/DTD/sodipodi-0.dtd"
	xmlns:inkscape="http://www.inkscape.org/namespaces/inkscape"
	width="1000"
	height="1000"
	id="svg2"
	version="1.1"
	sodipodi:docname="manifold/nncrust-fgen2dp.png.txt">
<defs
	id="defs4" />
<metadata
	id="metadata7">
	<rdf:RDF>
		<cc:Work
			rdf:about="">
			<dc:format>image/svg+xml</dc:format>
			<dc:type
				rdf:resource="http://purl.org/dc/dcmitype/StillImage" />
			<dc:title></dc:title>
		</cc:Work>
	</rdf:RDF>
</metadata>
<g
	inkscape:label="Layer 1"
	inkscape:groupmode="layer"
	id="layer1">
	<path style="fill:none;stroke:red;stroke-width:1px;stroke-linecap:butt;stroke-linejoin:miter;stroke-opacity:1" d="M 18.9454,134.772 35.7589,125.431 z" id="boundary" inkscape:connector-curvature="0" />
	<path style="fill:none;stroke:red;stroke-width:1px;stroke-linecap:butt;stroke-linejoin:miter;stroke-opacity:1" d="M 4,168.399 4,149.718 z" id="boundary" inkscape:connector-curvature="0" />
	<path style="fill:none;stroke:red;stroke-width:1px;stroke-linecap:butt;stroke-linejoin:miter;stroke-opacity:1" d="M 4,149.718 18.9454,134.772 z" id="boundary" inkscape:connector-curvature="0" />
	<path style="fill:none;stroke:red;stroke-width:1px;stroke-linecap:butt;stroke-linejoin:miter;stroke-opacity:1" d="M 50.7043,174.004 33.8908,183.345 z" id="boundary" inkscape:connector-curvature="0" />
	<path style="fill:none;stroke:red;stroke-width:1px;stroke-linecap:butt;stroke-linejoin:miter;stroke-opacity:1" d="M 35.7589,125.431 54.4407,117.959 z" id="boundary" inkscape:connector-curvature="0" />
	<path style="fill:none;stroke:red;stroke-width:1px;stroke-linecap:butt;stroke-linejoin:miter;stroke-opacity:1" d="M 73.1224,116.09 91.8041,108.618 z" id="boundary" inkscape:connector-curvature="0" />
	<path style="fill:none;stroke:red;stroke-width:1px;stroke-linecap:butt;stroke-linejoin:miter;stroke-opacity:1" d="M 110.486,106.75 91.8041,108.618 z" id="boundary" inkscape:connector-curvature="0" />
	<path style="fill:none;stroke:red;stroke-width:1px;stroke-linecap:butt;stroke-linejoin:miter;stroke-opacity:1" d="M 54.4407,117.959 73.1224,116.09 z" id="boundary" inkscape:connector-curvature="0" />
	<path style="fill:none;stroke:red;stroke-width:1px;stroke-linecap:butt;stroke-linejoin:miter;stroke-opacity:1" d="M 88.0678,174.004 69.3861,174.004 z" id="boundary" inkscape:connector-curvature="0" />
	<path style="fill:none;stroke:red;stroke-width:1px;stroke-linecap:butt;stroke-linejoin:miter;stroke-opacity:1" d="M 69.3861,174.004 50.7043,174.004 z" id="boundary" inkscape:connector-curvature="0" />
	<path style="fill:none;stroke:red;stroke-width:1px;stroke-linecap:butt;stroke-linejoin:miter;stroke-opacity:1" d="M 88.0678,233.785 22.6817,202.026 z" id="boundary" inkscape:connector-curvature="0" />
	<path style="fill:none;stroke:red;stroke-width:1px;stroke-linecap:butt;stroke-linejoin:miter;stroke-opacity:1" d="M 33.8908,183.345 13.3409,185.213 z" id="boundary" inkscape:connector-curvature="0" />
	<path style="fill:none;stroke:red;stroke-width:1px;stroke-linecap:butt;stroke-linejoin:miter;stroke-opacity:1" d="M 13.3409,185.213 4,168.399 z" id="boundary" inkscape:connector-curvature="0" />
	<path style="fill:none;stroke:red;stroke-width:1px;stroke-linecap:butt;stroke-linejoin:miter;stroke-opacity:1" d="M 22.6817,202.026 13.3409,185.213 z" id="boundary" inkscape:connector-curvature="0" />
	<path style="fill:none;stroke:red;stroke-width:1px;stroke-linecap:butt;stroke-linejoin:miter;stroke-opacity:1" d="M 78.7269,261.808 22.6817,202.026 z" id="boundary" inkscape:connector-curvature="0" />
	<path style="fill:none;stroke:red;stroke-width:1px;stroke-linecap:butt;stroke-linejoin:miter;stroke-opacity:1" d="M 88.0678,233.785 78.7269,261.808 z" id="boundary" inkscape:connector-curvature="0" />
	<path style="fill:none;stroke:red;stroke-width:1px;stroke-linecap:butt;stroke-linejoin:miter;stroke-opacity:1" d="M 104.881,183.345 112.354,202.026 z" id="boundary" inkscape:connector-curvature="0" />
	<path style="fill:none;stroke:red;stroke-width:1px;stroke-linecap:butt;stroke-linejoin:miter;stroke-opacity:1" d="M 112.354,202.026 103.013,218.84 z" id="boundary" inkscape:connector-curvature="0" />
	<path style="fill:none;stroke:red;stroke-width:1px;stroke-linecap:butt;stroke-linejoin:miter;stroke-opacity:1" d="M 103.013,218.84 88.0678,233.785 z" id="boundary" inkscape:connector-curvature="0" />
	<path style="fill:none;stroke:red;stroke-width:1px;stroke-linecap:butt;stroke-linejoin:miter;stroke-opacity:1" d="M 104.881,183.345 123.563,183.345 z" id="boundary" inkscape:connector-curvature="0" />
	<path style="fill:none;stroke:red;stroke-width:1px;stroke-linecap:butt;stroke-linejoin:miter;stroke-opacity:1" d="M 134.772,267.412 116.09,267.412 z" id="boundary" inkscape:connector-curvature="0" />
	<path style="fill:none;stroke:red;stroke-width:1px;stroke-linecap:butt;stroke-linejoin:miter;stroke-opacity:1" d="M 116.09,267.412 97.4087,267.412 z" id="boundary" inkscape:connector-curvature="0" />
	<path style="fill:none;stroke:red;stroke-width:1px;stroke-linecap:butt;stroke-linejoin:miter;stroke-opacity:1" d="M 97.4087,267.412 78.7269,261.808 z" id="boundary" inkscape:connector-curvature="0" />
	<path style="fill:none;stroke:red;stroke-width:1px;stroke-linecap:butt;stroke-linejoin:miter;stroke-opacity:1" d="M 88.0678,174.004 104.881,183.345 z" id="boundary" inkscape:connector-curvature="0" />
	<path style="fill:none;stroke:red;stroke-width:1px;stroke-linecap:butt;stroke-linejoin:miter;stroke-opacity:1" d="M 248.731,26.4181 267.412,17.0772 z" id="boundary" inkscape:connector-curvature="0" />
	<path style="fill:none;stroke:red;stroke-width:1px;stroke-linecap:butt;stroke-linejoin:miter;stroke-opacity:1" d="M 267.412,17.0772 286.094,13.3409 z" id="boundary" inkscape:connector-curvature="0" />
	<path style="fill:none;stroke:red;stroke-width:1px;stroke-linecap:butt;stroke-linejoin:miter;stroke-opacity:1" d="M 177.74,69.3861 192.685,54.4407 z" id="boundary" inkscape:connector-curvature="0" />
	<path style="fill:none;stroke:red;stroke-width:1px;stroke-linecap:butt;stroke-linejoin:miter;stroke-opacity:1" d="M 192.685,54.4407 211.367,45.0998 z" id="boundary" inkscape:connector-curvature="0" />
	<path style="fill:none;stroke:red;stroke-width:1px;stroke-linecap:butt;stroke-linejoin:miter;stroke-opacity:1" d="M 230.049,35.7589 211.367,45.0998 z" id="boundary" inkscape:connector-curvature="0" />
	<path style="fill:none;stroke:red;stroke-width:1px;stroke-linecap:butt;stroke-linejoin:miter;stroke-opacity:1" d="M 230.049,35.7589 248.731,26.4181 z" id="boundary" inkscape:connector-curvature="0" />
	<path style="fill:none;stroke:red;stroke-width:1px;stroke-linecap:butt;stroke-linejoin:miter;stroke-opacity:1" d="M 323.458,4 342.139,4 z" id="boundary" inkscape:connector-curvature="0" />
	<path style="fill:none;stroke:red;stroke-width:1px;stroke-linecap:butt;stroke-linejoin:miter;stroke-opacity:1" d="M 304.776,7.73635 323.458,4 z" id="boundary" inkscape:connector-curvature="0" />
	<path style="fill:none;stroke:red;stroke-width:1px;stroke-linecap:butt;stroke-linejoin:miter;stroke-opacity:1" d="M 286.094,13.3409 304.776,7.73635 z" id="boundary" inkscape:connector-curvature="0" />
	<path style="fill:none;stroke:red;stroke-width:1px;stroke-linecap:butt;stroke-linejoin:miter;stroke-opacity:1" d="M 129.168,106.75 123.563,183.345 z" id="boundary" inkscape:connector-curvature="0" />
	<path style="fill:none;stroke:red;stroke-width:1px;stroke-linecap:butt;stroke-linejoin:miter;stroke-opacity:1" d="M 110.486,106.75 129.168,106.75 z" id="boundary" inkscape:connector-curvature="0" />
	<path style="fill:none;stroke:red;stroke-width:1px;stroke-linecap:butt;stroke-linejoin:miter;stroke-opacity:1" d="M 140.377,286.094 144.113,304.776 z" id="boundary" inkscape:connector-curvature="0" />
	<path style="fill:none;stroke:red;stroke-width:1px;stroke-linecap:butt;stroke-linejoin:miter;stroke-opacity:1" d="M 153.454,321.589 144.113,304.776 z" id="boundary" inkscape:connector-curvature="0" />
	<path style="fill:none;stroke:red;stroke-width:1px;stroke-linecap:butt;stroke-linejoin:miter;stroke-opacity:1" d="M 134.772,267.412 140.377,286.094 z" id="boundary" inkscape:connector-curvature="0" />
	<path style="fill:none;stroke:red;stroke-width:1px;stroke-linecap:butt;stroke-linejoin:miter;stroke-opacity:1" d="M 129.168,106.75 145.981,97.4087 z" id="boundary" inkscape:connector-curvature="0" />
	<path style="fill:none;stroke:red;stroke-width:1px;stroke-linecap:butt;stroke-linejoin:miter;stroke-opacity:1" d="M 162.795,84.3315 145.981,97.4087 z" id="boundary" inkscape:connector-curvature="0" />
	<path style="fill:none;stroke:red;stroke-width:1px;stroke-linecap:butt;stroke-linejoin:miter;stroke-opacity:1" d="M 162.795,84.3315 177.74,69.3861 z" id="boundary" inkscape:connector-curvature="0" />
	<path style="fill:none;stroke:red;stroke-width:1px;stroke-linecap:butt;stroke-linejoin:miter;stroke-opacity:1" d="M 153.454,321.589 162.795,338.403 z" id="boundary" inkscape:connector-curvature="0" />
	<path style="fill:none;stroke:red;stroke-width:1px;stroke-linecap:butt;stroke-linejoin:miter;stroke-opacity:1" d="M 162.795,338.403 159.058,358.953 z" id="boundary" inkscape:connector-curvature="0" />
	<path style="fill:none;stroke:red;stroke-width:1px;stroke-linecap:butt;stroke-linejoin:miter;stroke-opacity:1" d="M 159.058,358.953 144.113,373.898 z" id="boundary" inkscape:connector-curvature="0" />
	<path style="fill:none;stroke:red;stroke-width:1px;stroke-linecap:butt;stroke-linejoin:miter;stroke-opacity:1" d="M 97.4087,485.989 97.4087,504.67 z" id="boundary" inkscape:connector-curvature="0" />
	<path style="fill:none;stroke:red;stroke-width:1px;stroke-linecap:butt;stroke-linejoin:miter;stroke-opacity:1" d="M 97.4087,485.989 106.75,457.966 z" id="boundary" inkscape:connector-curvature="0" />
	<path style="fill:none;stroke:red;stroke-width:1px;stroke-linecap:butt;stroke-linejoin:miter;stroke-opacity:1" d="M 97.4087,523.352 97.4087,542.034 z" id="boundary" inkscape:connector-curvature="0" />
	<path style="fill:none;stroke:red;stroke-width:1px;stroke-linecap:butt;stroke-linejoin:miter;stroke-opacity:1" d="M 97.4087,560.716 97.4087,542.034 z" id="boundary" inkscape:connector-curvature="0" />
	<path style="fill:none;stroke:red;stroke-width:1px;stroke-linecap:butt;stroke-linejoin:miter;stroke-opacity:1" d="M 97.4087,523.352 97.4087,504.67 z" id="boundary" inkscape:connector-curvature="0" />
	<path style="fill:none;stroke:red;stroke-width:1px;stroke-linecap:butt;stroke-linejoin:miter;stroke-opacity:1" d="M 116.09,429.944 125.431,411.262 z" id="boundary" inkscape:connector-curvature="0" />
	<path style="fill:none;stroke:red;stroke-width:1px;stroke-linecap:butt;stroke-linejoin:miter;stroke-opacity:1" d="M 106.75,457.966 116.09,429.944 z" id="boundary" inkscape:connector-curvature="0" />
	<path style="fill:none;stroke:red;stroke-width:1px;stroke-linecap:butt;stroke-linejoin:miter;stroke-opacity:1" d="M 97.4087,579.397 97.4087,560.716 z" id="boundary" inkscape:connector-curvature="0" />
	<path style="fill:none;stroke:red;stroke-width:1px;stroke-linecap:butt;stroke-linejoin:miter;stroke-opacity:1" d="M 97.4087,598.079 97.4087,579.397 z" id="boundary" inkscape:connector-curvature="0" />
	<path style="fill:none;stroke:red;stroke-width:1px;stroke-linecap:butt;stroke-linejoin:miter;stroke-opacity:1" d="M 97.4087,616.761 106.75,633.574 z" id="boundary" inkscape:connector-curvature="0" />
	<path style="fill:none;stroke:red;stroke-width:1px;stroke-linecap:butt;stroke-linejoin:miter;stroke-opacity:1" d="M 106.75,633.574 97.4087,663.465 z" id="boundary" inkscape:connector-curvature="0" />
	<path style="fill:none;stroke:red;stroke-width:1px;stroke-linecap:butt;stroke-linejoin:miter;stroke-opacity:1" d="M 97.4087,682.147 97.4087,700.829 z" id="boundary" inkscape:connector-curvature="0" />
	<path style="fill:none;stroke:red;stroke-width:1px;stroke-linecap:butt;stroke-linejoin:miter;stroke-opacity:1" d="M 97.4087,719.51 97.4087,700.829 z" id="boundary" inkscape:connector-curvature="0" />
	<path style="fill:none;stroke:red;stroke-width:1px;stroke-linecap:butt;stroke-linejoin:miter;stroke-opacity:1" d="M 97.4087,682.147 97.4087,663.465 z" id="boundary" inkscape:connector-curvature="0" />
	<path style="fill:none;stroke:red;stroke-width:1px;stroke-linecap:butt;stroke-linejoin:miter;stroke-opacity:1" d="M 97.4087,756.874 97.4087,738.192 z" id="boundary" inkscape:connector-curvature="0" />
	<path style="fill:none;stroke:red;stroke-width:1px;stroke-linecap:butt;stroke-linejoin:miter;stroke-opacity:1" d="M 97.4087,738.192 97.4087,719.51 z" id="boundary" inkscape:connector-curvature="0" />
	<path style="fill:none;stroke:red;stroke-width:1px;stroke-linecap:butt;stroke-linejoin:miter;stroke-opacity:1" d="M 125.431,784.896 106.75,792.369 z" id="boundary" inkscape:connector-curvature="0" />
	<path style="fill:none;stroke:red;stroke-width:1px;stroke-linecap:butt;stroke-linejoin:miter;stroke-opacity:1" d="M 106.75,792.369 97.4087,775.556 z" id="boundary" inkscape:connector-curvature="0" />
	<path style="fill:none;stroke:red;stroke-width:1px;stroke-linecap:butt;stroke-linejoin:miter;stroke-opacity:1" d="M 97.4087,775.556 97.4087,756.874 z" id="boundary" inkscape:connector-curvature="0" />
	<path style="fill:none;stroke:red;stroke-width:1px;stroke-linecap:butt;stroke-linejoin:miter;stroke-opacity:1" d="M 125.431,784.896 134.772,801.71 z" id="boundary" inkscape:connector-curvature="0" />
	<path style="fill:none;stroke:red;stroke-width:1px;stroke-linecap:butt;stroke-linejoin:miter;stroke-opacity:1" d="M 97.4087,616.761 97.4087,598.079 z" id="boundary" inkscape:connector-curvature="0" />
	<path style="fill:none;stroke:red;stroke-width:1px;stroke-linecap:butt;stroke-linejoin:miter;stroke-opacity:1" d="M 125.431,411.262 134.772,392.58 z" id="boundary" inkscape:connector-curvature="0" />
	<path style="fill:none;stroke:red;stroke-width:1px;stroke-linecap:butt;stroke-linejoin:miter;stroke-opacity:1" d="M 144.113,373.898 134.772,392.58 z" id="boundary" inkscape:connector-curvature="0" />
	<path style="fill:none;stroke:red;stroke-width:1px;stroke-linecap:butt;stroke-linejoin:miter;stroke-opacity:1" d="M 144.113,818.524 144.113,837.205 z" id="boundary" inkscape:connector-curvature="0" />
	<path style="fill:none;stroke:red;stroke-width:1px;stroke-linecap:butt;stroke-linejoin:miter;stroke-opacity:1" d="M 144.113,818.524 134.772,801.71 z" id="boundary" inkscape:connector-curvature="0" />
	<path style="fill:none;stroke:red;stroke-width:1px;stroke-linecap:butt;stroke-linejoin:miter;stroke-opacity:1" d="M 153.454,854.019 144.113,837.205 z" id="boundary" inkscape:connector-curvature="0" />
	<path style="fill:none;stroke:red;stroke-width:1px;stroke-linecap:butt;stroke-linejoin:miter;stroke-opacity:1" d="M 153.454,854.019 157.19,872.701 z" id="boundary" inkscape:connector-curvature="0" />
	<path style="fill:none;stroke:red;stroke-width:1px;stroke-linecap:butt;stroke-linejoin:miter;stroke-opacity:1" d="M 166.531,889.514 157.19,872.701 z" id="boundary" inkscape:connector-curvature="0" />
	<path style="fill:none;stroke:red;stroke-width:1px;stroke-linecap:butt;stroke-linejoin:miter;stroke-opacity:1" d="M 188.949,921.273 174.004,908.196 z" id="boundary" inkscape:connector-curvature="0" />
	<path style="fill:none;stroke:red;stroke-width:1px;stroke-linecap:butt;stroke-linejoin:miter;stroke-opacity:1" d="M 174.004,908.196 166.531,889.514 z" id="boundary" inkscape:connector-curvature="0" />
	<path style="fill:none;stroke:red;stroke-width:1px;stroke-linecap:butt;stroke-linejoin:miter;stroke-opacity:1" d="M 188.949,921.273 202.026,936.218 z" id="boundary" inkscape:connector-curvature="0" />
	<path style="fill:none;stroke:red;stroke-width:1px;stroke-linecap:butt;stroke-linejoin:miter;stroke-opacity:1" d="M 216.972,949.296 202.026,936.218 z" id="boundary" inkscape:connector-curvature="0" />
	<path style="fill:none;stroke:red;stroke-width:1px;stroke-linecap:butt;stroke-linejoin:miter;stroke-opacity:1" d="M 233.785,958.637 216.972,949.296 z" id="boundary" inkscape:connector-curvature="0" />
	<path style="fill:none;stroke:red;stroke-width:1px;stroke-linecap:butt;stroke-linejoin:miter;stroke-opacity:1" d="M 250.599,967.977 233.785,958.637 z" id="boundary" inkscape:connector-curvature="0" />
	<path style="fill:none;stroke:red;stroke-width:1px;stroke-linecap:butt;stroke-linejoin:miter;stroke-opacity:1" d="M 286.094,981.055 267.412,977.318 z" id="boundary" inkscape:connector-curvature="0" />
	<path style="fill:none;stroke:red;stroke-width:1px;stroke-linecap:butt;stroke-linejoin:miter;stroke-opacity:1" d="M 267.412,977.318 250.599,967.977 z" id="boundary" inkscape:connector-curvature="0" />
	<path style="fill:none;stroke:red;stroke-width:1px;stroke-linecap:butt;stroke-linejoin:miter;stroke-opacity:1" d="M 323.458,986.659 304.776,986.659 z" id="boundary" inkscape:connector-curvature="0" />
	<path style="fill:none;stroke:red;stroke-width:1px;stroke-linecap:butt;stroke-linejoin:miter;stroke-opacity:1" d="M 304.776,986.659 286.094,981.055 z" id="boundary" inkscape:connector-curvature="0" />
	<path style="fill:none;stroke:red;stroke-width:1px;stroke-linecap:butt;stroke-linejoin:miter;stroke-opacity:1" d="M 375.766,986.659 358.953,996 z" id="boundary" inkscape:connector-curvature="0" />
	<path style="fill:none;stroke:red;stroke-width:1px;stroke-linecap:butt;stroke-linejoin:miter;stroke-opacity:1" d="M 358.953,996 342.139,986.659 z" id="boundary" inkscape:connector-curvature="0" />
	<path style="fill:none;stroke:red;stroke-width:1px;stroke-linecap:butt;stroke-linejoin:miter;stroke-opacity:1" d="M 375.766,986.659 394.448,986.659 z" id="boundary" inkscape:connector-curvature="0" />
	<path style="fill:none;stroke:red;stroke-width:1px;stroke-linecap:butt;stroke-linejoin:miter;stroke-opacity:1" d="M 323.458,986.659 342.139,986.659 z" id="boundary" inkscape:connector-curvature="0" />
	<path style="fill:none;stroke:red;stroke-width:1px;stroke-linecap:butt;stroke-linejoin:miter;stroke-opacity:1" d="M 342.139,4 360.821,4 z" id="boundary" inkscape:connector-curvature="0" />
	<path style="fill:none;stroke:red;stroke-width:1px;stroke-linecap:butt;stroke-linejoin:miter;stroke-opacity:1" d="M 379.503,4 398.185,4 z" id="boundary" inkscape:connector-curvature="0" />
	<path style="fill:none;stroke:red;stroke-width:1px;stroke-linecap:butt;stroke-linejoin:miter;stroke-opacity:1" d="M 398.185,4 414.998,13.3409 z" id="boundary" inkscape:connector-curvature="0" />
	<path style="fill:none;stroke:red;stroke-width:1px;stroke-linecap:butt;stroke-linejoin:miter;stroke-opacity:1" d="M 414.998,13.3409 433.68,13.3409 z" id="boundary" inkscape:connector-curvature="0" />
	<path style="fill:none;stroke:red;stroke-width:1px;stroke-linecap:butt;stroke-linejoin:miter;stroke-opacity:1" d="M 433.68,13.3409 450.493,22.6817 z" id="boundary" inkscape:connector-curvature="0" />
	<path style="fill:none;stroke:red;stroke-width:1px;stroke-linecap:butt;stroke-linejoin:miter;stroke-opacity:1" d="M 469.175,24.5499 450.493,22.6817 z" id="boundary" inkscape:connector-curvature="0" />
	<path style="fill:none;stroke:red;stroke-width:1px;stroke-linecap:butt;stroke-linejoin:miter;stroke-opacity:1" d="M 485.989,33.8908 469.175,24.5499 z" id="boundary" inkscape:connector-curvature="0" />
	<path style="fill:none;stroke:red;stroke-width:1px;stroke-linecap:butt;stroke-linejoin:miter;stroke-opacity:1" d="M 504.67,41.3635 485.989,33.8908 z" id="boundary" inkscape:connector-curvature="0" />
	<path style="fill:none;stroke:red;stroke-width:1px;stroke-linecap:butt;stroke-linejoin:miter;stroke-opacity:1" d="M 532.693,69.3861 517.748,56.3089 z" id="boundary" inkscape:connector-curvature="0" />
	<path style="fill:none;stroke:red;stroke-width:1px;stroke-linecap:butt;stroke-linejoin:miter;stroke-opacity:1" d="M 517.748,56.3089 504.67,41.3635 z" id="boundary" inkscape:connector-curvature="0" />
	<path style="fill:none;stroke:red;stroke-width:1px;stroke-linecap:butt;stroke-linejoin:miter;stroke-opacity:1" d="M 532.693,69.3861 545.77,84.3315 z" id="boundary" inkscape:connector-curvature="0" />
	<path style="fill:none;stroke:red;stroke-width:1px;stroke-linecap:butt;stroke-linejoin:miter;stroke-opacity:1" d="M 545.77,84.3315 560.716,97.4087 z" id="boundary" inkscape:connector-curvature="0" />
	<path style="fill:none;stroke:red;stroke-width:1px;stroke-linecap:butt;stroke-linejoin:miter;stroke-opacity:1" d="M 560.716,97.4087 566.32,116.09 z" id="boundary" inkscape:connector-curvature="0" />
	<path style="fill:none;stroke:red;stroke-width:1px;stroke-linecap:butt;stroke-linejoin:miter;stroke-opacity:1" d="M 566.32,304.776 556.979,323.458 z" id="boundary" inkscape:connector-curvature="0" />
	<path style="fill:none;stroke:red;stroke-width:1px;stroke-linecap:butt;stroke-linejoin:miter;stroke-opacity:1" d="M 566.32,116.09 575.661,132.904 z" id="boundary" inkscape:connector-curvature="0" />
	<path style="fill:none;stroke:red;stroke-width:1px;stroke-linecap:butt;stroke-linejoin:miter;stroke-opacity:1" d="M 575.661,132.904 590.606,145.981 z" id="boundary" inkscape:connector-curvature="0" />
	<path style="fill:none;stroke:red;stroke-width:1px;stroke-linecap:butt;stroke-linejoin:miter;stroke-opacity:1" d="M 618.629,174.004 603.684,160.927 z" id="boundary" inkscape:connector-curvature="0" />
	<path style="fill:none;stroke:red;stroke-width:1px;stroke-linecap:butt;stroke-linejoin:miter;stroke-opacity:1" d="M 635.443,183.345 618.629,174.004 z" id="boundary" inkscape:connector-curvature="0" />
	<path style="fill:none;stroke:red;stroke-width:1px;stroke-linecap:butt;stroke-linejoin:miter;stroke-opacity:1" d="M 590.606,145.981 603.684,160.927 z" id="boundary" inkscape:connector-curvature="0" />
	<path style="fill:none;stroke:red;stroke-width:1px;stroke-linecap:butt;stroke-linejoin:miter;stroke-opacity:1" d="M 599.947,286.094 581.266,291.699 z" id="boundary" inkscape:connector-curvature="0" />
	<path style="fill:none;stroke:red;stroke-width:1px;stroke-linecap:butt;stroke-linejoin:miter;stroke-opacity:1" d="M 566.32,304.776 581.266,291.699 z" id="boundary" inkscape:connector-curvature="0" />
	<path style="fill:none;stroke:red;stroke-width:1px;stroke-linecap:butt;stroke-linejoin:miter;stroke-opacity:1" d="M 599.947,286.094 618.629,286.094 z" id="boundary" inkscape:connector-curvature="0" />
	<path style="fill:none;stroke:red;stroke-width:1px;stroke-linecap:butt;stroke-linejoin:miter;stroke-opacity:1" d="M 556.979,323.458 547.638,342.139 z" id="boundary" inkscape:connector-curvature="0" />
	<path style="fill:none;stroke:red;stroke-width:1px;stroke-linecap:butt;stroke-linejoin:miter;stroke-opacity:1" d="M 650.388,196.422 635.443,183.345 z" id="boundary" inkscape:connector-curvature="0" />
	<path style="fill:none;stroke:red;stroke-width:1px;stroke-linecap:butt;stroke-linejoin:miter;stroke-opacity:1" d="M 667.202,205.763 650.388,196.422 z" id="boundary" inkscape:connector-curvature="0" />
	<path style="fill:none;stroke:red;stroke-width:1px;stroke-linecap:butt;stroke-linejoin:miter;stroke-opacity:1" d="M 698.96,228.181 682.147,218.84 z" id="boundary" inkscape:connector-curvature="0" />
	<path style="fill:none;stroke:red;stroke-width:1px;stroke-linecap:butt;stroke-linejoin:miter;stroke-opacity:1" d="M 682.147,218.84 667.202,205.763 z" id="boundary" inkscape:connector-curvature="0" />
	<path style="fill:none;stroke:red;stroke-width:1px;stroke-linecap:butt;stroke-linejoin:miter;stroke-opacity:1" d="M 715.774,237.522 698.96,228.181 z" id="boundary" inkscape:connector-curvature="0" />
	<path style="fill:none;stroke:red;stroke-width:1px;stroke-linecap:butt;stroke-linejoin:miter;stroke-opacity:1" d="M 715.774,237.522 732.588,246.863 z" id="boundary" inkscape:connector-curvature="0" />
	<path style="fill:none;stroke:red;stroke-width:1px;stroke-linecap:butt;stroke-linejoin:miter;stroke-opacity:1" d="M 747.533,258.072 766.215,265.544 z" id="boundary" inkscape:connector-curvature="0" />
	<path style="fill:none;stroke:red;stroke-width:1px;stroke-linecap:butt;stroke-linejoin:miter;stroke-opacity:1" d="M 747.533,258.072 732.588,246.863 z" id="boundary" inkscape:connector-curvature="0" />
	<path style="fill:none;stroke:red;stroke-width:1px;stroke-linecap:butt;stroke-linejoin:miter;stroke-opacity:1" d="M 766.215,265.544 779.292,280.49 z" id="boundary" inkscape:connector-curvature="0" />
	<path style="fill:none;stroke:red;stroke-width:1px;stroke-linecap:butt;stroke-linejoin:miter;stroke-opacity:1" d="M 618.629,286.094 637.311,286.094 z" id="boundary" inkscape:connector-curvature="0" />
	<path style="fill:none;stroke:red;stroke-width:1px;stroke-linecap:butt;stroke-linejoin:miter;stroke-opacity:1" d="M 637.311,286.094 654.124,295.435 z" id="boundary" inkscape:connector-curvature="0" />
	<path style="fill:none;stroke:red;stroke-width:1px;stroke-linecap:butt;stroke-linejoin:miter;stroke-opacity:1" d="M 654.124,295.435 672.806,295.435 z" id="boundary" inkscape:connector-curvature="0" />
	<path style="fill:none;stroke:red;stroke-width:1px;stroke-linecap:butt;stroke-linejoin:miter;stroke-opacity:1" d="M 672.806,295.435 691.488,295.435 z" id="boundary" inkscape:connector-curvature="0" />
	<path style="fill:none;stroke:red;stroke-width:1px;stroke-linecap:butt;stroke-linejoin:miter;stroke-opacity:1" d="M 691.488,295.435 708.301,304.776 z" id="boundary" inkscape:connector-curvature="0" />
	<path style="fill:none;stroke:red;stroke-width:1px;stroke-linecap:butt;stroke-linejoin:miter;stroke-opacity:1" d="M 725.115,314.117 708.301,304.776 z" id="boundary" inkscape:connector-curvature="0" />
	<path style="fill:none;stroke:red;stroke-width:1px;stroke-linecap:butt;stroke-linejoin:miter;stroke-opacity:1" d="M 741.928,323.458 725.115,314.117 z" id="boundary" inkscape:connector-curvature="0" />
	<path style="fill:none;stroke:red;stroke-width:1px;stroke-linecap:butt;stroke-linejoin:miter;stroke-opacity:1" d="M 751.269,340.271 741.928,323.458 z" id="boundary" inkscape:connector-curvature="0" />
	<path style="fill:none;stroke:red;stroke-width:1px;stroke-linecap:butt;stroke-linejoin:miter;stroke-opacity:1" d="M 796.105,329.062 781.16,342.139 z" id="boundary" inkscape:connector-curvature="0" />
	<path style="fill:none;stroke:red;stroke-width:1px;stroke-linecap:butt;stroke-linejoin:miter;stroke-opacity:1" d="M 788.633,297.303 796.105,329.062 z" id="boundary" inkscape:connector-curvature="0" />
	<path style="fill:none;stroke:red;stroke-width:1px;stroke-linecap:butt;stroke-linejoin:miter;stroke-opacity:1" d="M 779.292,280.49 788.633,297.303 z" id="boundary" inkscape:connector-curvature="0" />
	<path style="fill:none;stroke:red;stroke-width:1px;stroke-linecap:butt;stroke-linejoin:miter;stroke-opacity:1" d="M 751.269,340.271 755.006,358.953 z" id="boundary" inkscape:connector-curvature="0" />
	<path style="fill:none;stroke:red;stroke-width:1px;stroke-linecap:butt;stroke-linejoin:miter;stroke-opacity:1" d="M 575.661,743.797 575.661,762.478 z" id="boundary" inkscape:connector-curvature="0" />
	<path style="fill:none;stroke:red;stroke-width:1px;stroke-linecap:butt;stroke-linejoin:miter;stroke-opacity:1" d="M 556.979,358.953 547.638,342.139 z" id="boundary" inkscape:connector-curvature="0" />
	<path style="fill:none;stroke:red;stroke-width:1px;stroke-linecap:butt;stroke-linejoin:miter;stroke-opacity:1" d="M 556.979,358.953 566.32,375.766 z" id="boundary" inkscape:connector-curvature="0" />
	<path style="fill:none;stroke:red;stroke-width:1px;stroke-linecap:butt;stroke-linejoin:miter;stroke-opacity:1" d="M 562.584,852.151 566.32,818.524 z" id="boundary" inkscape:connector-curvature="0" />
	<path style="fill:none;stroke:red;stroke-width:1px;stroke-linecap:butt;stroke-linejoin:miter;stroke-opacity:1" d="M 566.32,818.524 575.661,799.842 z" id="boundary" inkscape:connector-curvature="0" />
	<path style="fill:none;stroke:red;stroke-width:1px;stroke-linecap:butt;stroke-linejoin:miter;stroke-opacity:1" d="M 562.584,852.151 553.243,870.832 z" id="boundary" inkscape:connector-curvature="0" />
	<path style="fill:none;stroke:red;stroke-width:1px;stroke-linecap:butt;stroke-linejoin:miter;stroke-opacity:1" d="M 566.32,375.766 575.661,392.58 z" id="boundary" inkscape:connector-curvature="0" />
	<path style="fill:none;stroke:red;stroke-width:1px;stroke-linecap:butt;stroke-linejoin:miter;stroke-opacity:1" d="M 575.661,762.478 575.661,781.16 z" id="boundary" inkscape:connector-curvature="0" />
	<path style="fill:none;stroke:red;stroke-width:1px;stroke-linecap:butt;stroke-linejoin:miter;stroke-opacity:1" d="M 575.661,799.842 575.661,781.16 z" id="boundary" inkscape:connector-curvature="0" />
	<path style="fill:none;stroke:red;stroke-width:1px;stroke-linecap:butt;stroke-linejoin:miter;stroke-opacity:1" d="M 575.661,743.797 585.002,725.115 z" id="boundary" inkscape:connector-curvature="0" />
	<path style="fill:none;stroke:red;stroke-width:1px;stroke-linecap:butt;stroke-linejoin:miter;stroke-opacity:1" d="M 467.307,966.109 448.625,975.45 z" id="boundary" inkscape:connector-curvature="0" />
	<path style="fill:none;stroke:red;stroke-width:1px;stroke-linecap:butt;stroke-linejoin:miter;stroke-opacity:1" d="M 448.625,975.45 429.944,977.318 z" id="boundary" inkscape:connector-curvature="0" />
	<path style="fill:none;stroke:red;stroke-width:1px;stroke-linecap:butt;stroke-linejoin:miter;stroke-opacity:1" d="M 429.944,977.318 413.13,986.659 z" id="boundary" inkscape:connector-curvature="0" />
	<path style="fill:none;stroke:red;stroke-width:1px;stroke-linecap:butt;stroke-linejoin:miter;stroke-opacity:1" d="M 413.13,986.659 394.448,986.659 z" id="boundary" inkscape:connector-curvature="0" />
	<path style="fill:none;stroke:red;stroke-width:1px;stroke-linecap:butt;stroke-linejoin:miter;stroke-opacity:1" d="M 482.252,949.296 467.307,966.109 z" id="boundary" inkscape:connector-curvature="0" />
	<path style="fill:none;stroke:red;stroke-width:1px;stroke-linecap:butt;stroke-linejoin:miter;stroke-opacity:1" d="M 553.243,870.832 543.902,889.514 z" id="boundary" inkscape:connector-curvature="0" />
	<path style="fill:none;stroke:red;stroke-width:1px;stroke-linecap:butt;stroke-linejoin:miter;stroke-opacity:1" d="M 543.902,889.514 528.957,902.591 z" id="boundary" inkscape:connector-curvature="0" />
	<path style="fill:none;stroke:red;stroke-width:1px;stroke-linecap:butt;stroke-linejoin:miter;stroke-opacity:1" d="M 514.011,928.746 528.957,902.591 z" id="boundary" inkscape:connector-curvature="0" />
	<path style="fill:none;stroke:red;stroke-width:1px;stroke-linecap:butt;stroke-linejoin:miter;stroke-opacity:1" d="M 499.066,939.955 482.252,949.296 z" id="boundary" inkscape:connector-curvature="0" />
	<path style="fill:none;stroke:red;stroke-width:1px;stroke-linecap:butt;stroke-linejoin:miter;stroke-opacity:1" d="M 514.011,928.746 499.066,939.955 z" id="boundary" inkscape:connector-curvature="0" />
	<path style="fill:none;stroke:red;stroke-width:1px;stroke-linecap:butt;stroke-linejoin:miter;stroke-opacity:1" d="M 585.002,409.394 594.343,426.207 z" id="boundary" inkscape:connector-curvature="0" />
	<path style="fill:none;stroke:red;stroke-width:1px;stroke-linecap:butt;stroke-linejoin:miter;stroke-opacity:1" d="M 613.024,478.516 603.684,461.702 z" id="boundary" inkscape:connector-curvature="0" />
	<path style="fill:none;stroke:red;stroke-width:1px;stroke-linecap:butt;stroke-linejoin:miter;stroke-opacity:1" d="M 603.684,461.702 603.684,443.021 z" id="boundary" inkscape:connector-curvature="0" />
	<path style="fill:none;stroke:red;stroke-width:1px;stroke-linecap:butt;stroke-linejoin:miter;stroke-opacity:1" d="M 613.024,478.516 613.024,497.198 z" id="boundary" inkscape:connector-curvature="0" />
	<path style="fill:none;stroke:red;stroke-width:1px;stroke-linecap:butt;stroke-linejoin:miter;stroke-opacity:1" d="M 594.343,426.207 603.684,443.021 z" id="boundary" inkscape:connector-curvature="0" />
	<path style="fill:none;stroke:red;stroke-width:1px;stroke-linecap:butt;stroke-linejoin:miter;stroke-opacity:1" d="M 773.687,360.821 755.006,358.953 z" id="boundary" inkscape:connector-curvature="0" />
	<path style="fill:none;stroke:red;stroke-width:1px;stroke-linecap:butt;stroke-linejoin:miter;stroke-opacity:1" d="M 585.002,409.394 575.661,392.58 z" id="boundary" inkscape:connector-curvature="0" />
	<path style="fill:none;stroke:red;stroke-width:1px;stroke-linecap:butt;stroke-linejoin:miter;stroke-opacity:1" d="M 613.024,515.879 613.024,497.198 z" id="boundary" inkscape:connector-curvature="0" />
	<path style="fill:none;stroke:red;stroke-width:1px;stroke-linecap:butt;stroke-linejoin:miter;stroke-opacity:1" d="M 613.024,534.561 613.024,515.879 z" id="boundary" inkscape:connector-curvature="0" />
	<path style="fill:none;stroke:red;stroke-width:1px;stroke-linecap:butt;stroke-linejoin:miter;stroke-opacity:1" d="M 773.687,360.821 781.16,342.139 z" id="boundary" inkscape:connector-curvature="0" />
	<path style="fill:none;stroke:red;stroke-width:1px;stroke-linecap:butt;stroke-linejoin:miter;stroke-opacity:1" d="M 603.684,650.388 603.684,669.07 z" id="boundary" inkscape:connector-curvature="0" />
	<path style="fill:none;stroke:red;stroke-width:1px;stroke-linecap:butt;stroke-linejoin:miter;stroke-opacity:1" d="M 603.684,669.07 594.343,687.751 z" id="boundary" inkscape:connector-curvature="0" />
	<path style="fill:none;stroke:red;stroke-width:1px;stroke-linecap:butt;stroke-linejoin:miter;stroke-opacity:1" d="M 603.684,650.388 613.024,627.97 z" id="boundary" inkscape:connector-curvature="0" />
	<path style="fill:none;stroke:red;stroke-width:1px;stroke-linecap:butt;stroke-linejoin:miter;stroke-opacity:1" d="M 594.343,687.751 594.343,706.433 z" id="boundary" inkscape:connector-curvature="0" />
	<path style="fill:none;stroke:red;stroke-width:1px;stroke-linecap:butt;stroke-linejoin:miter;stroke-opacity:1" d="M 594.343,706.433 585.002,725.115 z" id="boundary" inkscape:connector-curvature="0" />
	<path style="fill:none;stroke:red;stroke-width:1px;stroke-linecap:butt;stroke-linejoin:miter;stroke-opacity:1" d="M 613.024,553.243 613.024,571.925 z" id="boundary" inkscape:connector-curvature="0" />
	<path style="fill:none;stroke:red;stroke-width:1px;stroke-linecap:butt;stroke-linejoin:miter;stroke-opacity:1" d="M 613.024,553.243 613.024,534.561 z" id="boundary" inkscape:connector-curvature="0" />
	<path style="fill:none;stroke:red;stroke-width:1px;stroke-linecap:butt;stroke-linejoin:miter;stroke-opacity:1" d="M 613.024,590.606 613.024,609.288 z" id="boundary" inkscape:connector-curvature="0" />
	<path style="fill:none;stroke:red;stroke-width:1px;stroke-linecap:butt;stroke-linejoin:miter;stroke-opacity:1" d="M 613.024,627.97 613.024,609.288 z" id="boundary" inkscape:connector-curvature="0" />
	<path style="fill:none;stroke:red;stroke-width:1px;stroke-linecap:butt;stroke-linejoin:miter;stroke-opacity:1" d="M 613.024,590.606 613.024,571.925 z" id="boundary" inkscape:connector-curvature="0" />
	<path style="fill:none;stroke:red;stroke-width:1px;stroke-linecap:butt;stroke-linejoin:miter;stroke-opacity:1" d="M 360.821,4 379.503,4 z" id="boundary" inkscape:connector-curvature="0" />
	<circle cx="4" cy="149.718" r="4" fill="#0" id="circle0"/>
	<circle cx="4" cy="168.399" r="4" fill="#0" id="circle1"/>
	<circle cx="13.3409" cy="185.213" r="4" fill="#0" id="circle2"/>
	<circle cx="18.9454" cy="134.772" r="4" fill="#0" id="circle3"/>
	<circle cx="22.6817" cy="202.026" r="4" fill="#0" id="circle4"/>
	<circle cx="33.8908" cy="183.345" r="4" fill="#0" id="circle5"/>
	<circle cx="35.7589" cy="125.431" r="4" fill="#0" id="circle6"/>
	<circle cx="50.7043" cy="174.004" r="4" fill="#0" id="circle7"/>
	<circle cx="54.4407" cy="117.959" r="4" fill="#0" id="circle8"/>
	<circle cx="69.3861" cy="174.004" r="4" fill="#0" id="circle9"/>
	<circle cx="73.1224" cy="116.09" r="4" fill="#0" id="circle10"/>
	<circle cx="78.7269" cy="261.808" r="4" fill="#0" id="circle11"/>
	<circle cx="88.0678" cy="174.004" r="4" fill="#0" id="circle12"/>
	<circle cx="88.0678" cy="233.785" r="4" fill="#0" id="circle13"/>
	<circle cx="91.8041" cy="108.618" r="4" fill="#0" id="circle14"/>
	<circle cx="97.4087" cy="267.412" r="4" fill="#0" id="circle15"/>
	<circle cx="97.4087" cy="485.989" r="4" fill="#0" id="circle16"/>
	<circle cx="97.4087" cy="504.67" r="4" fill="#0" id="circle17"/>
	<circle cx="97.4087" cy="523.352" r="4" fill="#0" id="circle18"/>
	<circle cx="97.4087" cy="542.034" r="4" fill="#0" id="circle19"/>
	<circle cx="97.4087" cy="560.716" r="4" fill="#0" id="circle20"/>
	<circle cx="97.4087" cy="579.397" r="4" fill="#0" id="circle21"/>
	<circle cx="97.4087" cy="598.079" r="4" fill="#0" id="circle22"/>
	<circle cx="97.4087" cy="616.761" r="4" fill="#0" id="circle23"/>
	<circle cx="97.4087" cy="663.465" r="4" fill="#0" id="circle24"/>
	<circle cx="97.4087" cy="682.147" r="4" fill="#0" id="circle25"/>
	<circle cx="97.4087" cy="700.829" r="4" fill="#0" id="circle26"/>
	<circle cx="97.4087" cy="719.51" r="4" fill="#0" id="circle27"/>
	<circle cx="97.4087" cy="738.192" r="4" fill="#0" id="circle28"/>
	<circle cx="97.4087" cy="756.874" r="4" fill="#0" id="circle29"/>
	<circle cx="97.4087" cy="775.556" r="4" fill="#0" id="circle30"/>
	<circle cx="103.013" cy="218.84" r="4" fill="#0" id="circle31"/>
	<circle cx="104.881" cy="183.345" r="4" fill="#0" id="circle32"/>
	<circle cx="106.75" cy="457.966" r="4" fill="#0" id="circle33"/>
	<circle cx="106.75" cy="633.574" r="4" fill="#0" id="circle34"/>
	<circle cx="106.75" cy="792.369" r="4" fill="#0" id="circle35"/>
	<circle cx="110.486" cy="106.75" r="4" fill="#0" id="circle36"/>
	<circle cx="112.354" cy="202.026" r="4" fill="#0" id="circle37"/>
	<circle cx="116.09" cy="267.412" r="4" fill="#0" id="circle38"/>
	<circle cx="116.09" cy="429.944" r="4" fill="#0" id="circle39"/>
	<circle cx="123.563" cy="183.345" r="4" fill="#0" id="circle40"/>
	<circle cx="125.431" cy="411.262" r="4" fill="#0" id="circle41"/>
	<circle cx="125.431" cy="784.896" r="4" fill="#0" id="circle42"/>
	<circle cx="129.168" cy="106.75" r="4" fill="#0" id="circle43"/>
	<circle cx="134.772" cy="267.412" r="4" fill="#0" id="circle44"/>
	<circle cx="134.772" cy="392.58" r="4" fill="#0" id="circle45"/>
	<circle cx="134.772" cy="801.71" r="4" fill="#0" id="circle46"/>
	<circle cx="140.377" cy="286.094" r="4" fill="#0" id="circle47"/>
	<circle cx="144.113" cy="304.776" r="4" fill="#0" id="circle48"/>
	<circle cx="144.113" cy="373.898" r="4" fill="#0" id="circle49"/>
	<circle cx="144.113" cy="818.524" r="4" fill="#0" id="circle50"/>
	<circle cx="144.113" cy="837.205" r="4" fill="#0" id="circle51"/>
	<circle cx="145.981" cy="97.4087" r="4" fill="#0" id="circle52"/>
	<circle cx="153.454" cy="321.589" r="4" fill="#0" id="circle53"/>
	<circle cx="153.454" cy="854.019" r="4" fill="#0" id="circle54"/>
	<circle cx="157.19" cy="872.701" r="4" fill="#0" id="circle55"/>
	<circle cx="159.058" cy="358.953" r="4" fill="#0" id="circle56"/>
	<circle cx="162.795" cy="84.3315" r="4" fill="#0" id="circle57"/>
	<circle cx="162.795" cy="338.403" r="4" fill="#0" id="circle58"/>
	<circle cx="166.531" cy="889.514" r="4" fill="#0" id="circle59"/>
	<circle cx="174.004" cy="908.196" r="4" fill="#0" id="circle60"/>
	<circle cx="177.74" cy="69.3861" r="4" fill="#0" id="circle61"/>
	<circle cx="188.949" cy="921.273" r="4" fill="#0" id="circle62"/>
	<circle cx="192.685" cy="54.4407" r="4" fill="#0" id="circle63"/>
	<circle cx="202.026" cy="936.218" r="4" fill="#0" id="circle64"/>
	<circle cx="211.367" cy="45.0998" r="4" fill="#0" id="circle65"/>
	<circle cx="216.972" cy="949.296" r="4" fill="#0" id="circle66"/>
	<circle cx="230.049" cy="35.7589" r="4" fill="#0" id="circle67"/>
	<circle cx="233.785" cy="958.637" r="4" fill="#0" id="circle68"/>
	<circle cx="248.731" cy="26.4181" r="4" fill="#0" id="circle69"/>
	<circle cx="250.599" cy="967.977" r="4" fill="#0" id="circle70"/>
	<circle cx="267.412" cy="17.0772" r="4" fill="#0" id="circle71"/>
	<circle cx="267.412" cy="977.318" r="4" fill="#0" id="circle72"/>
	<circle cx="286.094" cy="13.3409" r="4" fill="#0" id="circle73"/>
	<circle cx="286.094" cy="981.055" r="4" fill="#0" id="circle74"/>
	<circle cx="304.776" cy="7.73635" r="4" fill="#0" id="circle75"/>
	<circle cx="304.776" cy="986.659" r="4" fill="#0" id="circle76"/>
	<circle cx="323.458" cy="4" r="4" fill="#0" id="circle77"/>
	<circle cx="323.458" cy="986.659" r="4" fill="#0" id="circle78"/>
	<circle cx="342.139" cy="4" r="4" fill="#0" id="circle79"/>
	<circle cx="342.139" cy="986.659" r="4" fill="#0" id="circle80"/>
	<circle cx="358.953" cy="996" r="4" fill="#0" id="circle81"/>
	<circle cx="360.821" cy="4" r="4" fill="#0" id="circle82"/>
	<circle cx="375.766" cy="986.659" r="4" fill="#0" id="circle83"/>
	<circle cx="379.503" cy="4" r="4" fill="#0" id="circle84"/>
	<circle cx="394.448" cy="986.659" r="4" fill="#0" id="circle85"/>
	<circle cx="398.185" cy="4" r="4" fill="#0" id="circle86"/>
	<circle cx="413.13" cy="986.659" r="4" fill="#0" id="circle87"/>
	<circle cx="414.998" cy="13.3409" r="4" fill="#0" id="circle88"/>
	<circle cx="429.944" cy="977.318" r="4" fill="#0" id="circle89"/>
	<circle cx="433.68" cy="13.3409" r="4" fill="#0" id="circle90"/>
	<circle cx="448.625" cy="975.45" r="4" fill="#0" id="circle91"/>
	<circle cx="450.493" cy="22.6817" r="4" fill="#0" id="circle92"/>
	<circle cx="467.307" cy="966.109" r="4" fill="#0" id="circle93"/>
	<circle cx="469.175" cy="24.5499" r="4" fill="#0" id="circle94"/>
	<circle cx="482.252" cy="949.296" r="4" fill="#0" id="circle95"/>
	<circle cx="485.989" cy="33.8908" r="4" fill="#0" id="circle96"/>
	<circle cx="499.066" cy="939.955" r="4" fill="#0" id="circle97"/>
	<circle cx="504.67" cy="41.3635" r="4" fill="#0" id="circle98"/>
	<circle cx="514.011" cy="928.746" r="4" fill="#0" id="circle99"/>
	<circle cx="517.748" cy="56.3089" r="4" fill="#0" id="circle100"/>
	<circle cx="528.957" cy="902.591" r="4" fill="#0" id="circle101"/>
	<circle cx="532.693" cy="69.3861" r="4" fill="#0" id="circle102"/>
	<circle cx="543.902" cy="889.514" r="4" fill="#0" id="circle103"/>
	<circle cx="545.77" cy="84.3315" r="4" fill="#0" id="circle104"/>
	<circle cx="547.638" cy="342.139" r="4" fill="#0" id="circle105"/>
	<circle cx="553.243" cy="870.832" r="4" fill="#0" id="circle106"/>
	<circle cx="556.979" cy="323.458" r="4" fill="#0" id="circle107"/>
	<circle cx="556.979" cy="358.953" r="4" fill="#0" id="circle108"/>
	<circle cx="560.716" cy="97.4087" r="4" fill="#0" id="circle109"/>
	<circle cx="562.584" cy="852.151" r="4" fill="#0" id="circle110"/>
	<circle cx="566.32" cy="116.09" r="4" fill="#0" id="circle111"/>
	<circle cx="566.32" cy="304.776" r="4" fill="#0" id="circle112"/>
	<circle cx="566.32" cy="375.766" r="4" fill="#0" id="circle113"/>
	<circle cx="566.32" cy="818.524" r="4" fill="#0" id="circle114"/>
	<circle cx="575.661" cy="132.904" r="4" fill="#0" id="circle115"/>
	<circle cx="575.661" cy="392.58" r="4" fill="#0" id="circle116"/>
	<circle cx="575.661" cy="743.797" r="4" fill="#0" id="circle117"/>
	<circle cx="575.661" cy="762.478" r="4" fill="#0" id="circle118"/>
	<circle cx="575.661" cy="781.16" r="4" fill="#0" id="circle119"/>
	<circle cx="575.661" cy="799.842" r="4" fill="#0" id="circle120"/>
	<circle cx="581.266" cy="291.699" r="4" fill="#0" id="circle121"/>
	<circle cx="585.002" cy="409.394" r="4" fill="#0" id="circle122"/>
	<circle cx="585.002" cy="725.115" r="4" fill="#0" id="circle123"/>
	<circle cx="590.606" cy="145.981" r="4" fill="#0" id="circle124"/>
	<circle cx="594.343" cy="426.207" r="4" fill="#0" id="circle125"/>
	<circle cx="594.343" cy="687.751" r="4" fill="#0" id="circle126"/>
	<circle cx="594.343" cy="706.433" r="4" fill="#0" id="circle127"/>
	<circle cx="599.947" cy="286.094" r="4" fill="#0" id="circle128"/>
	<circle cx="603.684" cy="160.927" r="4" fill="#0" id="circle129"/>
	<circle cx="603.684" cy="443.021" r="4" fill="#0" id="circle130"/>
	<circle cx="603.684" cy="461.702" r="4" fill="#0" id="circle131"/>
	<circle cx="603.684" cy="650.388" r="4" fill="#0" id="circle132"/>
	<circle cx="603.684" cy="669.07" r="4" fill="#0" id="circle133"/>
	<circle cx="613.024" cy="478.516" r="4" fill="#0" id="circle134"/>
	<circle cx="613.024" cy="497.198" r="4" fill="#0" id="circle135"/>
	<circle cx="613.024" cy="515.879" r="4" fill="#0" id="circle136"/>
	<circle cx="613.024" cy="534.561" r="4" fill="#0" id="circle137"/>
	<circle cx="613.024" cy="553.243" r="4" fill="#0" id="circle138"/>
	<circle cx="613.024" cy="571.925" r="4" fill="#0" id="circle139"/>
	<circle cx="613.024" cy="590.606" r="4" fill="#0" id="circle140"/>
	<circle cx="613.024" cy="609.288" r="4" fill="#0" id="circle141"/>
	<circle cx="613.024" cy="627.97" r="4" fill="#0" id="circle142"/>
	<circle cx="618.629" cy="174.004" r="4" fill="#0" id="circle143"/>
	<circle cx="618.629" cy="286.094" r="4" fill="#0" id="circle144"/>
	<circle cx="635.443" cy="183.345" r="4" fill="#0" id="circle145"/>
	<circle cx="637.311" cy="286.094" r="4" fill="#0" id="circle146"/>
	<circle cx="650.388" cy="196.422" r="4" fill="#0" id="circle147"/>
	<circle cx="654.124" cy="295.435" r="4" fill="#0" id="circle148"/>
	<circle cx="667.202" cy="205.763" r="4" fill="#0" id="circle149"/>
	<circle cx="672.806" cy="295.435" r="4" fill="#0" id="circle150"/>
	<circle cx="682.147" cy="218.84" r="4" fill="#0" id="circle151"/>
	<circle cx="691.488" cy="295.435" r="4" fill="#0" id="circle152"/>
	<circle cx="698.96" cy="228.181" r="4" fill="#0" id="circle153"/>
	<circle cx="708.301" cy="304.776" r="4" fill="#0" id="circle154"/>
	<circle cx="715.774" cy="237.522" r="4" fill="#0" id="circle155"/>
	<circle cx="725.115" cy="314.117" r="4" fill="#0" id="circle156"/>
	<circle cx="732.588" cy="246.863" r="4" fill="#0" id="circle157"/>
	<circle cx="741.928" cy="323.458" r="4" fill="#0" id="circle158"/>
	<circle cx="747.533" cy="258.072" r="4" fill="#0" id="circle159"/>
	<circle cx="751.269" cy="340.271" r="4" fill="#0" id="circle160"/>
	<circle cx="755.006" cy="358.953" r="4" fill="#0" id="circle161"/>
	<circle cx="766.215" cy="265.544" r="4" fill="#0" id="circle162"/>
	<circle cx="773.687" cy="360.821" r="4" fill="#0" id="circle163"/>
	<circle cx="779.292" cy="280.49" r="4" fill="#0" id="circle164"/>
	<circle cx="781.16" cy="342.139" r="4" fill="#0" id="circle165"/>
	<circle cx="788.633" cy="297.303" r="4" fill="#0" id="circle166"/>
	<circle cx="796.105" cy="329.062" r="4" fill="#0" id="circle167"/>
	</g>
</svg>