<?xml version="1.0" encoding="UTF-8" standalone="no"?>
<!-- Created with CurveBenchmark -->
<svg
	xmlns:dc="http://purl.org/dc/elements/1.1/"
	xmlns:cc="http://creativecommons.org/ns#"
	xmlns:rdf="http://www.w3.org/1999/02/22-rdf-syntax-ns#"
	xmlns:svg="http://www.w3.org/2000/svg"
	xmlns="http://www.w3.org/2000/svg"
	xmlns:sodipodi="http://sodipodi.sourceforge.net/DTD/sodipodi-0.dtd"
	xmlns:inkscape="http://www.inkscape.org/namespaces/inkscape"
	width="1000"
	height="1000"
	id="svg2"
	version="1.1"
	sodipodi:docname="manifold/nncrust-car04.png.txt">
<defs
	id="defs4" />
<metadata
	id="metadata7">
	<rdf:RDF>
		<cc:Work
			rdf:about="">
			<dc:format>image/svg+xml</dc:format>
			<dc:type
				rdf:resource="http://purl.org/dc/dcmitype/StillImage" />
			<dc:title></dc:title>
		</cc:Work>
	</rdf:RDF>
</metadata>
<g
	inkscape:label="Layer 1"
	inkscape:groupmode="layer"
	id="layer1">
	<path style="fill:none;stroke:red;stroke-width:1px;stroke-linecap:butt;stroke-linejoin:miter;stroke-opacity:1" d="M 108.993,166.92 127.095,166.92 z" id="boundary" inkscape:connector-curvature="0" />
	<path style="fill:none;stroke:red;stroke-width:1px;stroke-linecap:butt;stroke-linejoin:miter;stroke-opacity:1" d="M 90.8905,175.971 108.993,166.92 z" id="boundary" inkscape:connector-curvature="0" />
	<path style="fill:none;stroke:red;stroke-width:1px;stroke-linecap:butt;stroke-linejoin:miter;stroke-opacity:1" d="M 127.095,166.92 145.197,166.92 z" id="boundary" inkscape:connector-curvature="0" />
	<path style="fill:none;stroke:red;stroke-width:1px;stroke-linecap:butt;stroke-linejoin:miter;stroke-opacity:1" d="M 199.504,157.869 217.606,157.869 z" id="boundary" inkscape:connector-curvature="0" />
	<path style="fill:none;stroke:red;stroke-width:1px;stroke-linecap:butt;stroke-linejoin:miter;stroke-opacity:1" d="M 181.401,166.92 199.504,157.869 z" id="boundary" inkscape:connector-curvature="0" />
	<path style="fill:none;stroke:red;stroke-width:1px;stroke-linecap:butt;stroke-linejoin:miter;stroke-opacity:1" d="M 145.197,166.92 163.299,166.92 z" id="boundary" inkscape:connector-curvature="0" />
	<path style="fill:none;stroke:red;stroke-width:1px;stroke-linecap:butt;stroke-linejoin:miter;stroke-opacity:1" d="M 181.401,166.92 163.299,166.92 z" id="boundary" inkscape:connector-curvature="0" />
	<path style="fill:none;stroke:red;stroke-width:1px;stroke-linecap:butt;stroke-linejoin:miter;stroke-opacity:1" d="M 31.1533,268.292 13.0511,261.051 z" id="boundary" inkscape:connector-curvature="0" />
	<path style="fill:none;stroke:red;stroke-width:1px;stroke-linecap:butt;stroke-linejoin:miter;stroke-opacity:1" d="M 4,244.759 13.0511,261.051 z" id="boundary" inkscape:connector-curvature="0" />
	<path style="fill:none;stroke:red;stroke-width:1px;stroke-linecap:butt;stroke-linejoin:miter;stroke-opacity:1" d="M 4,244.759 13.0511,226.657 z" id="boundary" inkscape:connector-curvature="0" />
	<path style="fill:none;stroke:red;stroke-width:1px;stroke-linecap:butt;stroke-linejoin:miter;stroke-opacity:1" d="M 13.0511,226.657 27.5328,212.175 z" id="boundary" inkscape:connector-curvature="0" />
	<path style="fill:none;stroke:red;stroke-width:1px;stroke-linecap:butt;stroke-linejoin:miter;stroke-opacity:1" d="M 54.6861,185.022 72.7883,185.022 z" id="boundary" inkscape:connector-curvature="0" />
	<path style="fill:none;stroke:red;stroke-width:1px;stroke-linecap:butt;stroke-linejoin:miter;stroke-opacity:1" d="M 45.635,203.124 54.6861,185.022 z" id="boundary" inkscape:connector-curvature="0" />
	<path style="fill:none;stroke:red;stroke-width:1px;stroke-linecap:butt;stroke-linejoin:miter;stroke-opacity:1" d="M 90.8905,175.971 72.7883,185.022 z" id="boundary" inkscape:connector-curvature="0" />
	<path style="fill:none;stroke:red;stroke-width:1px;stroke-linecap:butt;stroke-linejoin:miter;stroke-opacity:1" d="M 27.5328,212.175 45.635,203.124 z" id="boundary" inkscape:connector-curvature="0" />
	<path style="fill:none;stroke:red;stroke-width:1px;stroke-linecap:butt;stroke-linejoin:miter;stroke-opacity:1" d="M 40.2044,299.066 31.1533,268.292 z" id="boundary" inkscape:connector-curvature="0" />
	<path style="fill:none;stroke:red;stroke-width:1px;stroke-linecap:butt;stroke-linejoin:miter;stroke-opacity:1" d="M 40.2044,299.066 40.2044,317.168 z" id="boundary" inkscape:connector-curvature="0" />
	<path style="fill:none;stroke:red;stroke-width:1px;stroke-linecap:butt;stroke-linejoin:miter;stroke-opacity:1" d="M 217.606,157.869 235.708,157.869 z" id="boundary" inkscape:connector-curvature="0" />
	<path style="fill:none;stroke:red;stroke-width:1px;stroke-linecap:butt;stroke-linejoin:miter;stroke-opacity:1" d="M 507.241,13.0511 489.139,22.1022 z" id="boundary" inkscape:connector-curvature="0" />
	<path style="fill:none;stroke:red;stroke-width:1px;stroke-linecap:butt;stroke-linejoin:miter;stroke-opacity:1" d="M 423.971,103.562 405.869,103.562 z" id="boundary" inkscape:connector-curvature="0" />
	<path style="fill:none;stroke:red;stroke-width:1px;stroke-linecap:butt;stroke-linejoin:miter;stroke-opacity:1" d="M 405.869,103.562 387.766,96.3212 z" id="boundary" inkscape:connector-curvature="0" />
	<path style="fill:none;stroke:red;stroke-width:1px;stroke-linecap:butt;stroke-linejoin:miter;stroke-opacity:1" d="M 369.664,103.562 387.766,96.3212 z" id="boundary" inkscape:connector-curvature="0" />
	<path style="fill:none;stroke:red;stroke-width:1px;stroke-linecap:butt;stroke-linejoin:miter;stroke-opacity:1" d="M 447.504,63.7372 442.073,96.3212 z" id="boundary" inkscape:connector-curvature="0" />
	<path style="fill:none;stroke:red;stroke-width:1px;stroke-linecap:butt;stroke-linejoin:miter;stroke-opacity:1" d="M 442.073,96.3212 423.971,103.562 z" id="boundary" inkscape:connector-curvature="0" />
	<path style="fill:none;stroke:red;stroke-width:1px;stroke-linecap:butt;stroke-linejoin:miter;stroke-opacity:1" d="M 471.036,31.1533 489.139,22.1022 z" id="boundary" inkscape:connector-curvature="0" />
	<path style="fill:none;stroke:red;stroke-width:1px;stroke-linecap:butt;stroke-linejoin:miter;stroke-opacity:1" d="M 447.504,63.7372 456.555,45.635 z" id="boundary" inkscape:connector-curvature="0" />
	<path style="fill:none;stroke:red;stroke-width:1px;stroke-linecap:butt;stroke-linejoin:miter;stroke-opacity:1" d="M 456.555,45.635 471.036,31.1533 z" id="boundary" inkscape:connector-curvature="0" />
	<path style="fill:none;stroke:red;stroke-width:1px;stroke-linecap:butt;stroke-linejoin:miter;stroke-opacity:1" d="M 369.664,103.562 351.562,105.372 z" id="boundary" inkscape:connector-curvature="0" />
	<path style="fill:none;stroke:red;stroke-width:1px;stroke-linecap:butt;stroke-linejoin:miter;stroke-opacity:1" d="M 253.81,157.869 235.708,157.869 z" id="boundary" inkscape:connector-curvature="0" />
	<path style="fill:none;stroke:red;stroke-width:1px;stroke-linecap:butt;stroke-linejoin:miter;stroke-opacity:1" d="M 271.912,157.869 253.81,157.869 z" id="boundary" inkscape:connector-curvature="0" />
	<path style="fill:none;stroke:red;stroke-width:1px;stroke-linecap:butt;stroke-linejoin:miter;stroke-opacity:1" d="M 280.964,139.766 271.912,157.869 z" id="boundary" inkscape:connector-curvature="0" />
	<path style="fill:none;stroke:red;stroke-width:1px;stroke-linecap:butt;stroke-linejoin:miter;stroke-opacity:1" d="M 280.964,139.766 297.255,130.715 z" id="boundary" inkscape:connector-curvature="0" />
	<path style="fill:none;stroke:red;stroke-width:1px;stroke-linecap:butt;stroke-linejoin:miter;stroke-opacity:1" d="M 333.46,114.423 351.562,105.372 z" id="boundary" inkscape:connector-curvature="0" />
	<path style="fill:none;stroke:red;stroke-width:1px;stroke-linecap:butt;stroke-linejoin:miter;stroke-opacity:1" d="M 333.46,114.423 315.358,123.474 z" id="boundary" inkscape:connector-curvature="0" />
	<path style="fill:none;stroke:red;stroke-width:1px;stroke-linecap:butt;stroke-linejoin:miter;stroke-opacity:1" d="M 315.358,123.474 297.255,130.715 z" id="boundary" inkscape:connector-curvature="0" />
	<path style="fill:none;stroke:red;stroke-width:1px;stroke-linecap:butt;stroke-linejoin:miter;stroke-opacity:1" d="M 40.2044,317.168 40.2044,335.27 z" id="boundary" inkscape:connector-curvature="0" />
	<path style="fill:none;stroke:red;stroke-width:1px;stroke-linecap:butt;stroke-linejoin:miter;stroke-opacity:1" d="M 40.2044,353.372 40.2044,371.474 z" id="boundary" inkscape:connector-curvature="0" />
	<path style="fill:none;stroke:red;stroke-width:1px;stroke-linecap:butt;stroke-linejoin:miter;stroke-opacity:1" d="M 49.2555,387.766 40.2044,371.474 z" id="boundary" inkscape:connector-curvature="0" />
	<path style="fill:none;stroke:red;stroke-width:1px;stroke-linecap:butt;stroke-linejoin:miter;stroke-opacity:1" d="M 40.2044,353.372 40.2044,335.27 z" id="boundary" inkscape:connector-curvature="0" />
	<path style="fill:none;stroke:red;stroke-width:1px;stroke-linecap:butt;stroke-linejoin:miter;stroke-opacity:1" d="M 49.2555,387.766 49.2555,405.869 z" id="boundary" inkscape:connector-curvature="0" />
	<path style="fill:none;stroke:red;stroke-width:1px;stroke-linecap:butt;stroke-linejoin:miter;stroke-opacity:1" d="M 61.927,420.35 49.2555,405.869 z" id="boundary" inkscape:connector-curvature="0" />
	<path style="fill:none;stroke:red;stroke-width:1px;stroke-linecap:butt;stroke-linejoin:miter;stroke-opacity:1" d="M 183.212,413.109 201.314,413.109 z" id="boundary" inkscape:connector-curvature="0" />
	<path style="fill:none;stroke:red;stroke-width:1px;stroke-linecap:butt;stroke-linejoin:miter;stroke-opacity:1" d="M 183.212,413.109 165.109,418.54 z" id="boundary" inkscape:connector-curvature="0" />
	<path style="fill:none;stroke:red;stroke-width:1px;stroke-linecap:butt;stroke-linejoin:miter;stroke-opacity:1" d="M 70.9781,436.642 78.219,454.745 z" id="boundary" inkscape:connector-curvature="0" />
	<path style="fill:none;stroke:red;stroke-width:1px;stroke-linecap:butt;stroke-linejoin:miter;stroke-opacity:1" d="M 114.423,458.365 96.3212,458.365 z" id="boundary" inkscape:connector-curvature="0" />
	<path style="fill:none;stroke:red;stroke-width:1px;stroke-linecap:butt;stroke-linejoin:miter;stroke-opacity:1" d="M 78.219,454.745 96.3212,458.365 z" id="boundary" inkscape:connector-curvature="0" />
	<path style="fill:none;stroke:red;stroke-width:1px;stroke-linecap:butt;stroke-linejoin:miter;stroke-opacity:1" d="M 70.9781,436.642 61.927,420.35 z" id="boundary" inkscape:connector-curvature="0" />
	<path style="fill:none;stroke:red;stroke-width:1px;stroke-linecap:butt;stroke-linejoin:miter;stroke-opacity:1" d="M 150.628,431.212 165.109,418.54 z" id="boundary" inkscape:connector-curvature="0" />
	<path style="fill:none;stroke:red;stroke-width:1px;stroke-linecap:butt;stroke-linejoin:miter;stroke-opacity:1" d="M 141.577,449.314 130.715,467.416 z" id="boundary" inkscape:connector-curvature="0" />
	<path style="fill:none;stroke:red;stroke-width:1px;stroke-linecap:butt;stroke-linejoin:miter;stroke-opacity:1" d="M 130.715,467.416 114.423,458.365 z" id="boundary" inkscape:connector-curvature="0" />
	<path style="fill:none;stroke:red;stroke-width:1px;stroke-linecap:butt;stroke-linejoin:miter;stroke-opacity:1" d="M 150.628,431.212 141.577,449.314 z" id="boundary" inkscape:connector-curvature="0" />
	<path style="fill:none;stroke:red;stroke-width:1px;stroke-linecap:butt;stroke-linejoin:miter;stroke-opacity:1" d="M 219.416,413.109 237.518,413.109 z" id="boundary" inkscape:connector-curvature="0" />
	<path style="fill:none;stroke:red;stroke-width:1px;stroke-linecap:butt;stroke-linejoin:miter;stroke-opacity:1" d="M 237.518,413.109 250.19,427.591 z" id="boundary" inkscape:connector-curvature="0" />
	<path style="fill:none;stroke:red;stroke-width:1px;stroke-linecap:butt;stroke-linejoin:miter;stroke-opacity:1" d="M 219.416,413.109 201.314,413.109 z" id="boundary" inkscape:connector-curvature="0" />
	<path style="fill:none;stroke:red;stroke-width:1px;stroke-linecap:butt;stroke-linejoin:miter;stroke-opacity:1" d="M 250.19,427.591 268.292,422.161 z" id="boundary" inkscape:connector-curvature="0" />
	<path style="fill:none;stroke:red;stroke-width:1px;stroke-linecap:butt;stroke-linejoin:miter;stroke-opacity:1" d="M 268.292,422.161 284.584,431.212 z" id="boundary" inkscape:connector-curvature="0" />
	<path style="fill:none;stroke:red;stroke-width:1px;stroke-linecap:butt;stroke-linejoin:miter;stroke-opacity:1" d="M 436.642,431.212 420.35,440.263 z" id="boundary" inkscape:connector-curvature="0" />
	<path style="fill:none;stroke:red;stroke-width:1px;stroke-linecap:butt;stroke-linejoin:miter;stroke-opacity:1" d="M 420.35,440.263 404.058,431.212 z" id="boundary" inkscape:connector-curvature="0" />
	<path style="fill:none;stroke:red;stroke-width:1px;stroke-linecap:butt;stroke-linejoin:miter;stroke-opacity:1" d="M 385.956,431.212 404.058,431.212 z" id="boundary" inkscape:connector-curvature="0" />
	<path style="fill:none;stroke:red;stroke-width:1px;stroke-linecap:butt;stroke-linejoin:miter;stroke-opacity:1" d="M 371.474,449.314 385.956,431.212 z" id="boundary" inkscape:connector-curvature="0" />
	<path style="fill:none;stroke:red;stroke-width:1px;stroke-linecap:butt;stroke-linejoin:miter;stroke-opacity:1" d="M 284.584,431.212 300.876,440.263 z" id="boundary" inkscape:connector-curvature="0" />
	<path style="fill:none;stroke:red;stroke-width:1px;stroke-linecap:butt;stroke-linejoin:miter;stroke-opacity:1" d="M 300.876,440.263 318.978,440.263 z" id="boundary" inkscape:connector-curvature="0" />
	<path style="fill:none;stroke:red;stroke-width:1px;stroke-linecap:butt;stroke-linejoin:miter;stroke-opacity:1" d="M 318.978,440.263 335.27,449.314 z" id="boundary" inkscape:connector-curvature="0" />
	<path style="fill:none;stroke:red;stroke-width:1px;stroke-linecap:butt;stroke-linejoin:miter;stroke-opacity:1" d="M 335.27,449.314 353.372,449.314 z" id="boundary" inkscape:connector-curvature="0" />
	<path style="fill:none;stroke:red;stroke-width:1px;stroke-linecap:butt;stroke-linejoin:miter;stroke-opacity:1" d="M 371.474,449.314 353.372,449.314 z" id="boundary" inkscape:connector-curvature="0" />
	<path style="fill:none;stroke:red;stroke-width:1px;stroke-linecap:butt;stroke-linejoin:miter;stroke-opacity:1" d="M 480.088,476.467 461.985,474.657 z" id="boundary" inkscape:connector-curvature="0" />
	<path style="fill:none;stroke:red;stroke-width:1px;stroke-linecap:butt;stroke-linejoin:miter;stroke-opacity:1" d="M 461.985,474.657 447.504,461.985 z" id="boundary" inkscape:connector-curvature="0" />
	<path style="fill:none;stroke:red;stroke-width:1px;stroke-linecap:butt;stroke-linejoin:miter;stroke-opacity:1" d="M 436.642,431.212 447.504,461.985 z" id="boundary" inkscape:connector-curvature="0" />
	<path style="fill:none;stroke:red;stroke-width:1px;stroke-linecap:butt;stroke-linejoin:miter;stroke-opacity:1" d="M 436.642,431.212 512.672,458.365 z" id="boundary" inkscape:connector-curvature="0" />
	<path style="fill:none;stroke:red;stroke-width:1px;stroke-linecap:butt;stroke-linejoin:miter;stroke-opacity:1" d="M 525.343,4 543.445,4 z" id="boundary" inkscape:connector-curvature="0" />
	<path style="fill:none;stroke:red;stroke-width:1px;stroke-linecap:butt;stroke-linejoin:miter;stroke-opacity:1" d="M 507.241,13.0511 525.343,4 z" id="boundary" inkscape:connector-curvature="0" />
	<path style="fill:none;stroke:red;stroke-width:1px;stroke-linecap:butt;stroke-linejoin:miter;stroke-opacity:1" d="M 561.547,4 579.65,4 z" id="boundary" inkscape:connector-curvature="0" />
	<path style="fill:none;stroke:red;stroke-width:1px;stroke-linecap:butt;stroke-linejoin:miter;stroke-opacity:1" d="M 543.445,4 561.547,4 z" id="boundary" inkscape:connector-curvature="0" />
	<path style="fill:none;stroke:red;stroke-width:1px;stroke-linecap:butt;stroke-linejoin:miter;stroke-opacity:1" d="M 597.752,4 615.854,4 z" id="boundary" inkscape:connector-curvature="0" />
	<path style="fill:none;stroke:red;stroke-width:1px;stroke-linecap:butt;stroke-linejoin:miter;stroke-opacity:1" d="M 633.956,4 652.058,4 z" id="boundary" inkscape:connector-curvature="0" />
	<path style="fill:none;stroke:red;stroke-width:1px;stroke-linecap:butt;stroke-linejoin:miter;stroke-opacity:1" d="M 615.854,4 633.956,4 z" id="boundary" inkscape:connector-curvature="0" />
	<path style="fill:none;stroke:red;stroke-width:1px;stroke-linecap:butt;stroke-linejoin:miter;stroke-opacity:1" d="M 579.65,4 597.752,4 z" id="boundary" inkscape:connector-curvature="0" />
	<path style="fill:none;stroke:red;stroke-width:1px;stroke-linecap:butt;stroke-linejoin:miter;stroke-opacity:1" d="M 688.263,4 706.365,4 z" id="boundary" inkscape:connector-curvature="0" />
	<path style="fill:none;stroke:red;stroke-width:1px;stroke-linecap:butt;stroke-linejoin:miter;stroke-opacity:1" d="M 706.365,4 722.657,13.0511 z" id="boundary" inkscape:connector-curvature="0" />
	<path style="fill:none;stroke:red;stroke-width:1px;stroke-linecap:butt;stroke-linejoin:miter;stroke-opacity:1" d="M 670.161,4 688.263,4 z" id="boundary" inkscape:connector-curvature="0" />
	<path style="fill:none;stroke:red;stroke-width:1px;stroke-linecap:butt;stroke-linejoin:miter;stroke-opacity:1" d="M 652.058,4 670.161,4 z" id="boundary" inkscape:connector-curvature="0" />
	<path style="fill:none;stroke:red;stroke-width:1px;stroke-linecap:butt;stroke-linejoin:miter;stroke-opacity:1" d="M 722.657,13.0511 738.949,22.1022 z" id="boundary" inkscape:connector-curvature="0" />
	<path style="fill:none;stroke:red;stroke-width:1px;stroke-linecap:butt;stroke-linejoin:miter;stroke-opacity:1" d="M 755.241,31.1533 766.102,45.635 z" id="boundary" inkscape:connector-curvature="0" />
	<path style="fill:none;stroke:red;stroke-width:1px;stroke-linecap:butt;stroke-linejoin:miter;stroke-opacity:1" d="M 766.102,45.635 766.102,63.7372 z" id="boundary" inkscape:connector-curvature="0" />
	<path style="fill:none;stroke:red;stroke-width:1px;stroke-linecap:butt;stroke-linejoin:miter;stroke-opacity:1" d="M 738.949,22.1022 755.241,31.1533 z" id="boundary" inkscape:connector-curvature="0" />
	<path style="fill:none;stroke:red;stroke-width:1px;stroke-linecap:butt;stroke-linejoin:miter;stroke-opacity:1" d="M 766.102,63.7372 766.102,81.8394 z" id="boundary" inkscape:connector-curvature="0" />
	<path style="fill:none;stroke:red;stroke-width:1px;stroke-linecap:butt;stroke-linejoin:miter;stroke-opacity:1" d="M 766.102,81.8394 773.343,99.9416 z" id="boundary" inkscape:connector-curvature="0" />
	<path style="fill:none;stroke:red;stroke-width:1px;stroke-linecap:butt;stroke-linejoin:miter;stroke-opacity:1" d="M 787.825,112.613 773.343,99.9416 z" id="boundary" inkscape:connector-curvature="0" />
	<path style="fill:none;stroke:red;stroke-width:1px;stroke-linecap:butt;stroke-linejoin:miter;stroke-opacity:1" d="M 787.825,112.613 793.255,130.715 z" id="boundary" inkscape:connector-curvature="0" />
	<path style="fill:none;stroke:red;stroke-width:1px;stroke-linecap:butt;stroke-linejoin:miter;stroke-opacity:1" d="M 809.547,139.766 793.255,130.715 z" id="boundary" inkscape:connector-curvature="0" />
	<path style="fill:none;stroke:red;stroke-width:1px;stroke-linecap:butt;stroke-linejoin:miter;stroke-opacity:1" d="M 809.547,139.766 827.65,143.387 z" id="boundary" inkscape:connector-curvature="0" />
	<path style="fill:none;stroke:red;stroke-width:1px;stroke-linecap:butt;stroke-linejoin:miter;stroke-opacity:1" d="M 827.65,143.387 843.942,152.438 z" id="boundary" inkscape:connector-curvature="0" />
	<path style="fill:none;stroke:red;stroke-width:1px;stroke-linecap:butt;stroke-linejoin:miter;stroke-opacity:1" d="M 843.942,152.438 862.044,157.869 z" id="boundary" inkscape:connector-curvature="0" />
	<path style="fill:none;stroke:red;stroke-width:1px;stroke-linecap:butt;stroke-linejoin:miter;stroke-opacity:1" d="M 862.044,157.869 878.336,166.92 z" id="boundary" inkscape:connector-curvature="0" />
	<path style="fill:none;stroke:red;stroke-width:1px;stroke-linecap:butt;stroke-linejoin:miter;stroke-opacity:1" d="M 878.336,166.92 896.438,166.92 z" id="boundary" inkscape:connector-curvature="0" />
	<path style="fill:none;stroke:red;stroke-width:1px;stroke-linecap:butt;stroke-linejoin:miter;stroke-opacity:1" d="M 896.438,166.92 912.73,175.971 z" id="boundary" inkscape:connector-curvature="0" />
	<path style="fill:none;stroke:red;stroke-width:1px;stroke-linecap:butt;stroke-linejoin:miter;stroke-opacity:1" d="M 912.73,175.971 930.832,175.971 z" id="boundary" inkscape:connector-curvature="0" />
	<path style="fill:none;stroke:red;stroke-width:1px;stroke-linecap:butt;stroke-linejoin:miter;stroke-opacity:1" d="M 947.124,166.92 930.832,175.971 z" id="boundary" inkscape:connector-curvature="0" />
	<path style="fill:none;stroke:red;stroke-width:1px;stroke-linecap:butt;stroke-linejoin:miter;stroke-opacity:1" d="M 983.328,172.35 996,186.832 z" id="boundary" inkscape:connector-curvature="0" />
	<path style="fill:none;stroke:red;stroke-width:1px;stroke-linecap:butt;stroke-linejoin:miter;stroke-opacity:1" d="M 996,186.832 992.38,213.985 z" id="boundary" inkscape:connector-curvature="0" />
	<path style="fill:none;stroke:red;stroke-width:1px;stroke-linecap:butt;stroke-linejoin:miter;stroke-opacity:1" d="M 988.759,246.569 992.38,213.985 z" id="boundary" inkscape:connector-curvature="0" />
	<path style="fill:none;stroke:red;stroke-width:1px;stroke-linecap:butt;stroke-linejoin:miter;stroke-opacity:1" d="M 965.226,166.92 983.328,172.35 z" id="boundary" inkscape:connector-curvature="0" />
	<path style="fill:none;stroke:red;stroke-width:1px;stroke-linecap:butt;stroke-linejoin:miter;stroke-opacity:1" d="M 965.226,166.92 947.124,166.92 z" id="boundary" inkscape:connector-curvature="0" />
	<path style="fill:none;stroke:red;stroke-width:1px;stroke-linecap:butt;stroke-linejoin:miter;stroke-opacity:1" d="M 623.095,395.007 606.803,404.058 z" id="boundary" inkscape:connector-curvature="0" />
	<path style="fill:none;stroke:red;stroke-width:1px;stroke-linecap:butt;stroke-linejoin:miter;stroke-opacity:1" d="M 606.803,404.058 590.511,395.007 z" id="boundary" inkscape:connector-curvature="0" />
	<path style="fill:none;stroke:red;stroke-width:1px;stroke-linecap:butt;stroke-linejoin:miter;stroke-opacity:1" d="M 677.401,395.007 659.299,400.438 z" id="boundary" inkscape:connector-curvature="0" />
	<path style="fill:none;stroke:red;stroke-width:1px;stroke-linecap:butt;stroke-linejoin:miter;stroke-opacity:1" d="M 659.299,400.438 641.197,395.007 z" id="boundary" inkscape:connector-curvature="0" />
	<path style="fill:none;stroke:red;stroke-width:1px;stroke-linecap:butt;stroke-linejoin:miter;stroke-opacity:1" d="M 641.197,395.007 623.095,395.007 z" id="boundary" inkscape:connector-curvature="0" />
	<path style="fill:none;stroke:red;stroke-width:1px;stroke-linecap:butt;stroke-linejoin:miter;stroke-opacity:1" d="M 695.504,395.007 713.606,395.007 z" id="boundary" inkscape:connector-curvature="0" />
	<path style="fill:none;stroke:red;stroke-width:1px;stroke-linecap:butt;stroke-linejoin:miter;stroke-opacity:1" d="M 713.606,395.007 731.708,395.007 z" id="boundary" inkscape:connector-curvature="0" />
	<path style="fill:none;stroke:red;stroke-width:1px;stroke-linecap:butt;stroke-linejoin:miter;stroke-opacity:1" d="M 749.81,395.007 731.708,395.007 z" id="boundary" inkscape:connector-curvature="0" />
	<path style="fill:none;stroke:red;stroke-width:1px;stroke-linecap:butt;stroke-linejoin:miter;stroke-opacity:1" d="M 695.504,395.007 677.401,395.007 z" id="boundary" inkscape:connector-curvature="0" />
	<path style="fill:none;stroke:red;stroke-width:1px;stroke-linecap:butt;stroke-linejoin:miter;stroke-opacity:1" d="M 521.723,422.161 521.723,440.263 z" id="boundary" inkscape:connector-curvature="0" />
	<path style="fill:none;stroke:red;stroke-width:1px;stroke-linecap:butt;stroke-linejoin:miter;stroke-opacity:1" d="M 521.723,440.263 512.672,458.365 z" id="boundary" inkscape:connector-curvature="0" />
	<path style="fill:none;stroke:red;stroke-width:1px;stroke-linecap:butt;stroke-linejoin:miter;stroke-opacity:1" d="M 521.723,422.161 539.825,413.109 z" id="boundary" inkscape:connector-curvature="0" />
	<path style="fill:none;stroke:red;stroke-width:1px;stroke-linecap:butt;stroke-linejoin:miter;stroke-opacity:1" d="M 498.19,474.657 512.672,458.365 z" id="boundary" inkscape:connector-curvature="0" />
	<path style="fill:none;stroke:red;stroke-width:1px;stroke-linecap:butt;stroke-linejoin:miter;stroke-opacity:1" d="M 498.19,474.657 480.088,476.467 z" id="boundary" inkscape:connector-curvature="0" />
	<path style="fill:none;stroke:red;stroke-width:1px;stroke-linecap:butt;stroke-linejoin:miter;stroke-opacity:1" d="M 554.307,400.438 572.409,400.438 z" id="boundary" inkscape:connector-curvature="0" />
	<path style="fill:none;stroke:red;stroke-width:1px;stroke-linecap:butt;stroke-linejoin:miter;stroke-opacity:1" d="M 539.825,413.109 554.307,400.438 z" id="boundary" inkscape:connector-curvature="0" />
	<path style="fill:none;stroke:red;stroke-width:1px;stroke-linecap:butt;stroke-linejoin:miter;stroke-opacity:1" d="M 590.511,395.007 572.409,400.438 z" id="boundary" inkscape:connector-curvature="0" />
	<path style="fill:none;stroke:red;stroke-width:1px;stroke-linecap:butt;stroke-linejoin:miter;stroke-opacity:1" d="M 749.81,395.007 767.912,400.438 z" id="boundary" inkscape:connector-curvature="0" />
	<path style="fill:none;stroke:red;stroke-width:1px;stroke-linecap:butt;stroke-linejoin:miter;stroke-opacity:1" d="M 929.022,340.701 947.124,340.701 z" id="boundary" inkscape:connector-curvature="0" />
	<path style="fill:none;stroke:red;stroke-width:1px;stroke-linecap:butt;stroke-linejoin:miter;stroke-opacity:1" d="M 919.971,358.803 929.022,340.701 z" id="boundary" inkscape:connector-curvature="0" />
	<path style="fill:none;stroke:red;stroke-width:1px;stroke-linecap:butt;stroke-linejoin:miter;stroke-opacity:1" d="M 961.606,328.029 947.124,340.701 z" id="boundary" inkscape:connector-curvature="0" />
	<path style="fill:none;stroke:red;stroke-width:1px;stroke-linecap:butt;stroke-linejoin:miter;stroke-opacity:1" d="M 916.35,382.336 919.971,358.803 z" id="boundary" inkscape:connector-curvature="0" />
	<path style="fill:none;stroke:red;stroke-width:1px;stroke-linecap:butt;stroke-linejoin:miter;stroke-opacity:1" d="M 974.277,259.241 988.759,246.569 z" id="boundary" inkscape:connector-curvature="0" />
	<path style="fill:none;stroke:red;stroke-width:1px;stroke-linecap:butt;stroke-linejoin:miter;stroke-opacity:1" d="M 974.277,277.343 974.277,259.241 z" id="boundary" inkscape:connector-curvature="0" />
	<path style="fill:none;stroke:red;stroke-width:1px;stroke-linecap:butt;stroke-linejoin:miter;stroke-opacity:1" d="M 970.657,309.927 961.606,328.029 z" id="boundary" inkscape:connector-curvature="0" />
	<path style="fill:none;stroke:red;stroke-width:1px;stroke-linecap:butt;stroke-linejoin:miter;stroke-opacity:1" d="M 974.277,277.343 970.657,309.927 z" id="boundary" inkscape:connector-curvature="0" />
	<path style="fill:none;stroke:red;stroke-width:1px;stroke-linecap:butt;stroke-linejoin:miter;stroke-opacity:1" d="M 907.299,400.438 916.35,382.336 z" id="boundary" inkscape:connector-curvature="0" />
	<path style="fill:none;stroke:red;stroke-width:1px;stroke-linecap:butt;stroke-linejoin:miter;stroke-opacity:1" d="M 786.015,404.058 767.912,400.438 z" id="boundary" inkscape:connector-curvature="0" />
	<path style="fill:none;stroke:red;stroke-width:1px;stroke-linecap:butt;stroke-linejoin:miter;stroke-opacity:1" d="M 804.117,404.058 786.015,404.058 z" id="boundary" inkscape:connector-curvature="0" />
	<path style="fill:none;stroke:red;stroke-width:1px;stroke-linecap:butt;stroke-linejoin:miter;stroke-opacity:1" d="M 804.117,404.058 820.409,413.109 z" id="boundary" inkscape:connector-curvature="0" />
	<path style="fill:none;stroke:red;stroke-width:1px;stroke-linecap:butt;stroke-linejoin:miter;stroke-opacity:1" d="M 838.511,413.109 820.409,413.109 z" id="boundary" inkscape:connector-curvature="0" />
	<path style="fill:none;stroke:red;stroke-width:1px;stroke-linecap:butt;stroke-linejoin:miter;stroke-opacity:1" d="M 856.613,413.109 838.511,413.109 z" id="boundary" inkscape:connector-curvature="0" />
	<path style="fill:none;stroke:red;stroke-width:1px;stroke-linecap:butt;stroke-linejoin:miter;stroke-opacity:1" d="M 856.613,413.109 874.715,413.109 z" id="boundary" inkscape:connector-curvature="0" />
	<path style="fill:none;stroke:red;stroke-width:1px;stroke-linecap:butt;stroke-linejoin:miter;stroke-opacity:1" d="M 892.818,413.109 874.715,413.109 z" id="boundary" inkscape:connector-curvature="0" />
	<path style="fill:none;stroke:red;stroke-width:1px;stroke-linecap:butt;stroke-linejoin:miter;stroke-opacity:1" d="M 907.299,400.438 892.818,413.109 z" id="boundary" inkscape:connector-curvature="0" />
	<circle cx="4" cy="244.759" r="4" fill="#0" id="circle0"/>
	<circle cx="13.0511" cy="226.657" r="4" fill="#0" id="circle1"/>
	<circle cx="13.0511" cy="261.051" r="4" fill="#0" id="circle2"/>
	<circle cx="27.5328" cy="212.175" r="4" fill="#0" id="circle3"/>
	<circle cx="31.1533" cy="268.292" r="4" fill="#0" id="circle4"/>
	<circle cx="40.2044" cy="299.066" r="4" fill="#0" id="circle5"/>
	<circle cx="40.2044" cy="317.168" r="4" fill="#0" id="circle6"/>
	<circle cx="40.2044" cy="335.27" r="4" fill="#0" id="circle7"/>
	<circle cx="40.2044" cy="353.372" r="4" fill="#0" id="circle8"/>
	<circle cx="40.2044" cy="371.474" r="4" fill="#0" id="circle9"/>
	<circle cx="45.635" cy="203.124" r="4" fill="#0" id="circle10"/>
	<circle cx="49.2555" cy="387.766" r="4" fill="#0" id="circle11"/>
	<circle cx="49.2555" cy="405.869" r="4" fill="#0" id="circle12"/>
	<circle cx="54.6861" cy="185.022" r="4" fill="#0" id="circle13"/>
	<circle cx="61.927" cy="420.35" r="4" fill="#0" id="circle14"/>
	<circle cx="70.9781" cy="436.642" r="4" fill="#0" id="circle15"/>
	<circle cx="72.7883" cy="185.022" r="4" fill="#0" id="circle16"/>
	<circle cx="78.219" cy="454.745" r="4" fill="#0" id="circle17"/>
	<circle cx="90.8905" cy="175.971" r="4" fill="#0" id="circle18"/>
	<circle cx="96.3212" cy="458.365" r="4" fill="#0" id="circle19"/>
	<circle cx="108.993" cy="166.92" r="4" fill="#0" id="circle20"/>
	<circle cx="114.423" cy="458.365" r="4" fill="#0" id="circle21"/>
	<circle cx="127.095" cy="166.92" r="4" fill="#0" id="circle22"/>
	<circle cx="130.715" cy="467.416" r="4" fill="#0" id="circle23"/>
	<circle cx="141.577" cy="449.314" r="4" fill="#0" id="circle24"/>
	<circle cx="145.197" cy="166.92" r="4" fill="#0" id="circle25"/>
	<circle cx="150.628" cy="431.212" r="4" fill="#0" id="circle26"/>
	<circle cx="163.299" cy="166.92" r="4" fill="#0" id="circle27"/>
	<circle cx="165.109" cy="418.54" r="4" fill="#0" id="circle28"/>
	<circle cx="181.401" cy="166.92" r="4" fill="#0" id="circle29"/>
	<circle cx="183.212" cy="413.109" r="4" fill="#0" id="circle30"/>
	<circle cx="199.504" cy="157.869" r="4" fill="#0" id="circle31"/>
	<circle cx="201.314" cy="413.109" r="4" fill="#0" id="circle32"/>
	<circle cx="217.606" cy="157.869" r="4" fill="#0" id="circle33"/>
	<circle cx="219.416" cy="413.109" r="4" fill="#0" id="circle34"/>
	<circle cx="235.708" cy="157.869" r="4" fill="#0" id="circle35"/>
	<circle cx="237.518" cy="413.109" r="4" fill="#0" id="circle36"/>
	<circle cx="250.19" cy="427.591" r="4" fill="#0" id="circle37"/>
	<circle cx="253.81" cy="157.869" r="4" fill="#0" id="circle38"/>
	<circle cx="268.292" cy="422.161" r="4" fill="#0" id="circle39"/>
	<circle cx="271.912" cy="157.869" r="4" fill="#0" id="circle40"/>
	<circle cx="280.964" cy="139.766" r="4" fill="#0" id="circle41"/>
	<circle cx="284.584" cy="431.212" r="4" fill="#0" id="circle42"/>
	<circle cx="297.255" cy="130.715" r="4" fill="#0" id="circle43"/>
	<circle cx="300.876" cy="440.263" r="4" fill="#0" id="circle44"/>
	<circle cx="315.358" cy="123.474" r="4" fill="#0" id="circle45"/>
	<circle cx="318.978" cy="440.263" r="4" fill="#0" id="circle46"/>
	<circle cx="333.46" cy="114.423" r="4" fill="#0" id="circle47"/>
	<circle cx="335.27" cy="449.314" r="4" fill="#0" id="circle48"/>
	<circle cx="351.562" cy="105.372" r="4" fill="#0" id="circle49"/>
	<circle cx="353.372" cy="449.314" r="4" fill="#0" id="circle50"/>
	<circle cx="369.664" cy="103.562" r="4" fill="#0" id="circle51"/>
	<circle cx="371.474" cy="449.314" r="4" fill="#0" id="circle52"/>
	<circle cx="385.956" cy="431.212" r="4" fill="#0" id="circle53"/>
	<circle cx="387.766" cy="96.3212" r="4" fill="#0" id="circle54"/>
	<circle cx="404.058" cy="431.212" r="4" fill="#0" id="circle55"/>
	<circle cx="405.869" cy="103.562" r="4" fill="#0" id="circle56"/>
	<circle cx="420.35" cy="440.263" r="4" fill="#0" id="circle57"/>
	<circle cx="423.971" cy="103.562" r="4" fill="#0" id="circle58"/>
	<circle cx="436.642" cy="431.212" r="4" fill="#0" id="circle59"/>
	<circle cx="442.073" cy="96.3212" r="4" fill="#0" id="circle60"/>
	<circle cx="447.504" cy="63.7372" r="4" fill="#0" id="circle61"/>
	<circle cx="447.504" cy="461.985" r="4" fill="#0" id="circle62"/>
	<circle cx="456.555" cy="45.635" r="4" fill="#0" id="circle63"/>
	<circle cx="461.985" cy="474.657" r="4" fill="#0" id="circle64"/>
	<circle cx="471.036" cy="31.1533" r="4" fill="#0" id="circle65"/>
	<circle cx="480.088" cy="476.467" r="4" fill="#0" id="circle66"/>
	<circle cx="489.139" cy="22.1022" r="4" fill="#0" id="circle67"/>
	<circle cx="498.19" cy="474.657" r="4" fill="#0" id="circle68"/>
	<circle cx="507.241" cy="13.0511" r="4" fill="#0" id="circle69"/>
	<circle cx="512.672" cy="458.365" r="4" fill="#0" id="circle70"/>
	<circle cx="521.723" cy="422.161" r="4" fill="#0" id="circle71"/>
	<circle cx="521.723" cy="440.263" r="4" fill="#0" id="circle72"/>
	<circle cx="525.343" cy="4" r="4" fill="#0" id="circle73"/>
	<circle cx="539.825" cy="413.109" r="4" fill="#0" id="circle74"/>
	<circle cx="543.445" cy="4" r="4" fill="#0" id="circle75"/>
	<circle cx="554.307" cy="400.438" r="4" fill="#0" id="circle76"/>
	<circle cx="561.547" cy="4" r="4" fill="#0" id="circle77"/>
	<circle cx="572.409" cy="400.438" r="4" fill="#0" id="circle78"/>
	<circle cx="579.65" cy="4" r="4" fill="#0" id="circle79"/>
	<circle cx="590.511" cy="395.007" r="4" fill="#0" id="circle80"/>
	<circle cx="597.752" cy="4" r="4" fill="#0" id="circle81"/>
	<circle cx="606.803" cy="404.058" r="4" fill="#0" id="circle82"/>
	<circle cx="615.854" cy="4" r="4" fill="#0" id="circle83"/>
	<circle cx="623.095" cy="395.007" r="4" fill="#0" id="circle84"/>
	<circle cx="633.956" cy="4" r="4" fill="#0" id="circle85"/>
	<circle cx="641.197" cy="395.007" r="4" fill="#0" id="circle86"/>
	<circle cx="652.058" cy="4" r="4" fill="#0" id="circle87"/>
	<circle cx="659.299" cy="400.438" r="4" fill="#0" id="circle88"/>
	<circle cx="670.161" cy="4" r="4" fill="#0" id="circle89"/>
	<circle cx="677.401" cy="395.007" r="4" fill="#0" id="circle90"/>
	<circle cx="688.263" cy="4" r="4" fill="#0" id="circle91"/>
	<circle cx="695.504" cy="395.007" r="4" fill="#0" id="circle92"/>
	<circle cx="706.365" cy="4" r="4" fill="#0" id="circle93"/>
	<circle cx="713.606" cy="395.007" r="4" fill="#0" id="circle94"/>
	<circle cx="722.657" cy="13.0511" r="4" fill="#0" id="circle95"/>
	<circle cx="731.708" cy="395.007" r="4" fill="#0" id="circle96"/>
	<circle cx="738.949" cy="22.1022" r="4" fill="#0" id="circle97"/>
	<circle cx="749.81" cy="395.007" r="4" fill="#0" id="circle98"/>
	<circle cx="755.241" cy="31.1533" r="4" fill="#0" id="circle99"/>
	<circle cx="766.102" cy="45.635" r="4" fill="#0" id="circle100"/>
	<circle cx="766.102" cy="63.7372" r="4" fill="#0" id="circle101"/>
	<circle cx="766.102" cy="81.8394" r="4" fill="#0" id="circle102"/>
	<circle cx="767.912" cy="400.438" r="4" fill="#0" id="circle103"/>
	<circle cx="773.343" cy="99.9416" r="4" fill="#0" id="circle104"/>
	<circle cx="786.015" cy="404.058" r="4" fill="#0" id="circle105"/>
	<circle cx="787.825" cy="112.613" r="4" fill="#0" id="circle106"/>
	<circle cx="793.255" cy="130.715" r="4" fill="#0" id="circle107"/>
	<circle cx="804.117" cy="404.058" r="4" fill="#0" id="circle108"/>
	<circle cx="809.547" cy="139.766" r="4" fill="#0" id="circle109"/>
	<circle cx="820.409" cy="413.109" r="4" fill="#0" id="circle110"/>
	<circle cx="827.65" cy="143.387" r="4" fill="#0" id="circle111"/>
	<circle cx="838.511" cy="413.109" r="4" fill="#0" id="circle112"/>
	<circle cx="843.942" cy="152.438" r="4" fill="#0" id="circle113"/>
	<circle cx="856.613" cy="413.109" r="4" fill="#0" id="circle114"/>
	<circle cx="862.044" cy="157.869" r="4" fill="#0" id="circle115"/>
	<circle cx="874.715" cy="413.109" r="4" fill="#0" id="circle116"/>
	<circle cx="878.336" cy="166.92" r="4" fill="#0" id="circle117"/>
	<circle cx="892.818" cy="413.109" r="4" fill="#0" id="circle118"/>
	<circle cx="896.438" cy="166.92" r="4" fill="#0" id="circle119"/>
	<circle cx="907.299" cy="400.438" r="4" fill="#0" id="circle120"/>
	<circle cx="912.73" cy="175.971" r="4" fill="#0" id="circle121"/>
	<circle cx="916.35" cy="382.336" r="4" fill="#0" id="circle122"/>
	<circle cx="919.971" cy="358.803" r="4" fill="#0" id="circle123"/>
	<circle cx="929.022" cy="340.701" r="4" fill="#0" id="circle124"/>
	<circle cx="930.832" cy="175.971" r="4" fill="#0" id="circle125"/>
	<circle cx="947.124" cy="166.92" r="4" fill="#0" id="circle126"/>
	<circle cx="947.124" cy="340.701" r="4" fill="#0" id="circle127"/>
	<circle cx="961.606" cy="328.029" r="4" fill="#0" id="circle128"/>
	<circle cx="965.226" cy="166.92" r="4" fill="#0" id="circle129"/>
	<circle cx="970.657" cy="309.927" r="4" fill="#0" id="circle130"/>
	<circle cx="974.277" cy="259.241" r="4" fill="#0" id="circle131"/>
	<circle cx="974.277" cy="277.343" r="4" fill="#0" id="circle132"/>
	<circle cx="983.328" cy="172.35" r="4" fill="#0" id="circle133"/>
	<circle cx="988.759" cy="246.569" r="4" fill="#0" id="circle134"/>
	<circle cx="992.38" cy="213.985" r="4" fill="#0" id="circle135"/>
	<circle cx="996" cy="186.832" r="4" fill="#0" id="circle136"/>
	</g>
</svg>