<?xml version="1.0" encoding="UTF-8" standalone="no"?>
<!-- Created with CurveBenchmark -->
<svg
	xmlns:dc="http://purl.org/dc/elements/1.1/"
	xmlns:cc="http://creativecommons.org/ns#"
	xmlns:rdf="http://www.w3.org/1999/02/22-rdf-syntax-ns#"
	xmlns:svg="http://www.w3.org/2000/svg"
	xmlns="http://www.w3.org/2000/svg"
	xmlns:sodipodi="http://sodipodi.sourceforge.net/DTD/sodipodi-0.dtd"
	xmlns:inkscape="http://www.inkscape.org/namespaces/inkscape"
	width="1000"
	height="1000"
	id="svg2"
	version="1.1"
	sodipodi:docname="manifold/nncrust-cat38.png.txt">
<defs
	id="defs4" />
<metadata
	id="metadata7">
	<rdf:RDF>
		<cc:Work
			rdf:about="">
			<dc:format>image/svg+xml</dc:format>
			<dc:type
				rdf:resource="http://purl.org/dc/dcmitype/StillImage" />
			<dc:title></dc:title>
		</cc:Work>
	</rdf:RDF>
</metadata>
<g
	inkscape:label="Layer 1"
	inkscape:groupmode="layer"
	id="layer1">
	<path style="fill:none;stroke:red;stroke-width:1px;stroke-linecap:butt;stroke-linejoin:miter;stroke-opacity:1" d="M 31.0256,279.026 46.9231,279.026 z" id="boundary" inkscape:connector-curvature="0" />
	<path style="fill:none;stroke:red;stroke-width:1px;stroke-linecap:butt;stroke-linejoin:miter;stroke-opacity:1" d="M 16.7179,286.974 31.0256,279.026 z" id="boundary" inkscape:connector-curvature="0" />
	<path style="fill:none;stroke:red;stroke-width:1px;stroke-linecap:butt;stroke-linejoin:miter;stroke-opacity:1" d="M 62.8205,279.026 46.9231,279.026 z" id="boundary" inkscape:connector-curvature="0" />
	<path style="fill:none;stroke:red;stroke-width:1px;stroke-linecap:butt;stroke-linejoin:miter;stroke-opacity:1" d="M 62.8205,279.026 78.7179,279.026 z" id="boundary" inkscape:connector-curvature="0" />
	<path style="fill:none;stroke:red;stroke-width:1px;stroke-linecap:butt;stroke-linejoin:miter;stroke-opacity:1" d="M 94.6154,279.026 108.923,286.974 z" id="boundary" inkscape:connector-curvature="0" />
	<path style="fill:none;stroke:red;stroke-width:1px;stroke-linecap:butt;stroke-linejoin:miter;stroke-opacity:1" d="M 78.7179,279.026 94.6154,279.026 z" id="boundary" inkscape:connector-curvature="0" />
	<path style="fill:none;stroke:red;stroke-width:1px;stroke-linecap:butt;stroke-linejoin:miter;stroke-opacity:1" d="M 124.821,286.974 108.923,286.974 z" id="boundary" inkscape:connector-curvature="0" />
	<path style="fill:none;stroke:red;stroke-width:1px;stroke-linecap:butt;stroke-linejoin:miter;stroke-opacity:1" d="M 162.974,210.667 155.026,196.359 z" id="boundary" inkscape:connector-curvature="0" />
	<path style="fill:none;stroke:red;stroke-width:1px;stroke-linecap:butt;stroke-linejoin:miter;stroke-opacity:1" d="M 155.026,196.359 167.744,183.641 z" id="boundary" inkscape:connector-curvature="0" />
	<path style="fill:none;stroke:red;stroke-width:1px;stroke-linecap:butt;stroke-linejoin:miter;stroke-opacity:1" d="M 167.744,183.641 183.641,183.641 z" id="boundary" inkscape:connector-curvature="0" />
	<path style="fill:none;stroke:red;stroke-width:1px;stroke-linecap:butt;stroke-linejoin:miter;stroke-opacity:1" d="M 199.538,175.692 183.641,183.641 z" id="boundary" inkscape:connector-curvature="0" />
	<path style="fill:none;stroke:red;stroke-width:1px;stroke-linecap:butt;stroke-linejoin:miter;stroke-opacity:1" d="M 170.923,224.974 162.974,210.667 z" id="boundary" inkscape:connector-curvature="0" />
	<path style="fill:none;stroke:red;stroke-width:1px;stroke-linecap:butt;stroke-linejoin:miter;stroke-opacity:1" d="M 140.718,286.974 124.821,286.974 z" id="boundary" inkscape:connector-curvature="0" />
	<path style="fill:none;stroke:red;stroke-width:1px;stroke-linecap:butt;stroke-linejoin:miter;stroke-opacity:1" d="M 170.923,224.974 175.692,240.872 z" id="boundary" inkscape:connector-curvature="0" />
	<path style="fill:none;stroke:red;stroke-width:1px;stroke-linecap:butt;stroke-linejoin:miter;stroke-opacity:1" d="M 190,248.821 175.692,240.872 z" id="boundary" inkscape:connector-curvature="0" />
	<path style="fill:none;stroke:red;stroke-width:1px;stroke-linecap:butt;stroke-linejoin:miter;stroke-opacity:1" d="M 205.897,248.821 190,248.821 z" id="boundary" inkscape:connector-curvature="0" />
	<path style="fill:none;stroke:red;stroke-width:1px;stroke-linecap:butt;stroke-linejoin:miter;stroke-opacity:1" d="M 4,331.487 16.7179,342.615 z" id="boundary" inkscape:connector-curvature="0" />
	<path style="fill:none;stroke:red;stroke-width:1px;stroke-linecap:butt;stroke-linejoin:miter;stroke-opacity:1" d="M 4,331.487 4,315.59 z" id="boundary" inkscape:connector-curvature="0" />
	<path style="fill:none;stroke:red;stroke-width:1px;stroke-linecap:butt;stroke-linejoin:miter;stroke-opacity:1" d="M 4,299.692 16.7179,286.974 z" id="boundary" inkscape:connector-curvature="0" />
	<path style="fill:none;stroke:red;stroke-width:1px;stroke-linecap:butt;stroke-linejoin:miter;stroke-opacity:1" d="M 4,315.59 4,299.692 z" id="boundary" inkscape:connector-curvature="0" />
	<path style="fill:none;stroke:red;stroke-width:1px;stroke-linecap:butt;stroke-linejoin:miter;stroke-opacity:1" d="M 29.4359,352.154 45.3333,352.154 z" id="boundary" inkscape:connector-curvature="0" />
	<path style="fill:none;stroke:red;stroke-width:1px;stroke-linecap:butt;stroke-linejoin:miter;stroke-opacity:1" d="M 29.4359,352.154 16.7179,342.615 z" id="boundary" inkscape:connector-curvature="0" />
	<path style="fill:none;stroke:red;stroke-width:1px;stroke-linecap:butt;stroke-linejoin:miter;stroke-opacity:1" d="M 61.2308,344.205 77.1282,344.205 z" id="boundary" inkscape:connector-curvature="0" />
	<path style="fill:none;stroke:red;stroke-width:1px;stroke-linecap:butt;stroke-linejoin:miter;stroke-opacity:1" d="M 45.3333,352.154 61.2308,344.205 z" id="boundary" inkscape:connector-curvature="0" />
	<path style="fill:none;stroke:red;stroke-width:1px;stroke-linecap:butt;stroke-linejoin:miter;stroke-opacity:1" d="M 77.1282,344.205 93.0256,344.205 z" id="boundary" inkscape:connector-curvature="0" />
	<path style="fill:none;stroke:red;stroke-width:1px;stroke-linecap:butt;stroke-linejoin:miter;stroke-opacity:1" d="M 140.718,286.974 156.615,286.974 z" id="boundary" inkscape:connector-curvature="0" />
	<path style="fill:none;stroke:red;stroke-width:1px;stroke-linecap:butt;stroke-linejoin:miter;stroke-opacity:1" d="M 156.615,286.974 170.923,294.923 z" id="boundary" inkscape:connector-curvature="0" />
	<path style="fill:none;stroke:red;stroke-width:1px;stroke-linecap:butt;stroke-linejoin:miter;stroke-opacity:1" d="M 156.615,355.333 140.718,352.154 z" id="boundary" inkscape:connector-curvature="0" />
	<path style="fill:none;stroke:red;stroke-width:1px;stroke-linecap:butt;stroke-linejoin:miter;stroke-opacity:1" d="M 186.821,298.103 170.923,294.923 z" id="boundary" inkscape:connector-curvature="0" />
	<path style="fill:none;stroke:red;stroke-width:1px;stroke-linecap:butt;stroke-linejoin:miter;stroke-opacity:1" d="M 93.0256,344.205 108.923,344.205 z" id="boundary" inkscape:connector-curvature="0" />
	<path style="fill:none;stroke:red;stroke-width:1px;stroke-linecap:butt;stroke-linejoin:miter;stroke-opacity:1" d="M 108.923,344.205 124.821,347.385 z" id="boundary" inkscape:connector-curvature="0" />
	<path style="fill:none;stroke:red;stroke-width:1px;stroke-linecap:butt;stroke-linejoin:miter;stroke-opacity:1" d="M 124.821,347.385 140.718,352.154 z" id="boundary" inkscape:connector-curvature="0" />
	<path style="fill:none;stroke:red;stroke-width:1px;stroke-linecap:butt;stroke-linejoin:miter;stroke-opacity:1" d="M 215.436,175.692 199.538,175.692 z" id="boundary" inkscape:connector-curvature="0" />
	<path style="fill:none;stroke:red;stroke-width:1px;stroke-linecap:butt;stroke-linejoin:miter;stroke-opacity:1" d="M 229.744,167.744 215.436,175.692 z" id="boundary" inkscape:connector-curvature="0" />
	<path style="fill:none;stroke:red;stroke-width:1px;stroke-linecap:butt;stroke-linejoin:miter;stroke-opacity:1" d="M 314,116.872 306.051,140.718 z" id="boundary" inkscape:connector-curvature="0" />
	<path style="fill:none;stroke:red;stroke-width:1px;stroke-linecap:butt;stroke-linejoin:miter;stroke-opacity:1" d="M 244.051,175.692 229.744,167.744 z" id="boundary" inkscape:connector-curvature="0" />
	<path style="fill:none;stroke:red;stroke-width:1px;stroke-linecap:butt;stroke-linejoin:miter;stroke-opacity:1" d="M 306.051,156.615 306.051,140.718 z" id="boundary" inkscape:connector-curvature="0" />
	<path style="fill:none;stroke:red;stroke-width:1px;stroke-linecap:butt;stroke-linejoin:miter;stroke-opacity:1" d="M 220.205,240.872 215.436,175.692 z" id="boundary" inkscape:connector-curvature="0" />
	<path style="fill:none;stroke:red;stroke-width:1px;stroke-linecap:butt;stroke-linejoin:miter;stroke-opacity:1" d="M 259.949,180.462 271.077,193.179 z" id="boundary" inkscape:connector-curvature="0" />
	<path style="fill:none;stroke:red;stroke-width:1px;stroke-linecap:butt;stroke-linejoin:miter;stroke-opacity:1" d="M 244.051,175.692 259.949,180.462 z" id="boundary" inkscape:connector-curvature="0" />
	<path style="fill:none;stroke:red;stroke-width:1px;stroke-linecap:butt;stroke-linejoin:miter;stroke-opacity:1" d="M 306.051,156.615 306.051,172.513 z" id="boundary" inkscape:connector-curvature="0" />
	<path style="fill:none;stroke:red;stroke-width:1px;stroke-linecap:butt;stroke-linejoin:miter;stroke-opacity:1" d="M 329.897,96.2051 345.795,93.0256 z" id="boundary" inkscape:connector-curvature="0" />
	<path style="fill:none;stroke:red;stroke-width:1px;stroke-linecap:butt;stroke-linejoin:miter;stroke-opacity:1" d="M 358.513,80.3077 345.795,93.0256 z" id="boundary" inkscape:connector-curvature="0" />
	<path style="fill:none;stroke:red;stroke-width:1px;stroke-linecap:butt;stroke-linejoin:miter;stroke-opacity:1" d="M 371.231,67.5897 358.513,80.3077 z" id="boundary" inkscape:connector-curvature="0" />
	<path style="fill:none;stroke:red;stroke-width:1px;stroke-linecap:butt;stroke-linejoin:miter;stroke-opacity:1" d="M 329.897,96.2051 314,100.974 z" id="boundary" inkscape:connector-curvature="0" />
	<path style="fill:none;stroke:red;stroke-width:1px;stroke-linecap:butt;stroke-linejoin:miter;stroke-opacity:1" d="M 329.897,196.359 318.769,183.641 z" id="boundary" inkscape:connector-curvature="0" />
	<path style="fill:none;stroke:red;stroke-width:1px;stroke-linecap:butt;stroke-linejoin:miter;stroke-opacity:1" d="M 314,100.974 314,116.872 z" id="boundary" inkscape:connector-curvature="0" />
	<path style="fill:none;stroke:red;stroke-width:1px;stroke-linecap:butt;stroke-linejoin:miter;stroke-opacity:1" d="M 318.769,183.641 306.051,172.513 z" id="boundary" inkscape:connector-curvature="0" />
	<path style="fill:none;stroke:red;stroke-width:1px;stroke-linecap:butt;stroke-linejoin:miter;stroke-opacity:1" d="M 283.795,204.308 271.077,193.179 z" id="boundary" inkscape:connector-curvature="0" />
	<path style="fill:none;stroke:red;stroke-width:1px;stroke-linecap:butt;stroke-linejoin:miter;stroke-opacity:1" d="M 205.897,248.821 220.205,240.872 z" id="boundary" inkscape:connector-curvature="0" />
	<path style="fill:none;stroke:red;stroke-width:1px;stroke-linecap:butt;stroke-linejoin:miter;stroke-opacity:1" d="M 220.205,240.872 226.564,256.769 z" id="boundary" inkscape:connector-curvature="0" />
	<path style="fill:none;stroke:red;stroke-width:1px;stroke-linecap:butt;stroke-linejoin:miter;stroke-opacity:1" d="M 231.333,272.667 226.564,256.769 z" id="boundary" inkscape:connector-curvature="0" />
	<path style="fill:none;stroke:red;stroke-width:1px;stroke-linecap:butt;stroke-linejoin:miter;stroke-opacity:1" d="M 186.821,298.103 202.718,302.872 z" id="boundary" inkscape:connector-curvature="0" />
	<path style="fill:none;stroke:red;stroke-width:1px;stroke-linecap:butt;stroke-linejoin:miter;stroke-opacity:1" d="M 218.615,302.872 202.718,302.872 z" id="boundary" inkscape:connector-curvature="0" />
	<path style="fill:none;stroke:red;stroke-width:1px;stroke-linecap:butt;stroke-linejoin:miter;stroke-opacity:1" d="M 231.333,272.667 234.513,288.564 z" id="boundary" inkscape:connector-curvature="0" />
	<path style="fill:none;stroke:red;stroke-width:1px;stroke-linecap:butt;stroke-linejoin:miter;stroke-opacity:1" d="M 234.513,288.564 218.615,302.872 z" id="boundary" inkscape:connector-curvature="0" />
	<path style="fill:none;stroke:red;stroke-width:1px;stroke-linecap:butt;stroke-linejoin:miter;stroke-opacity:1" d="M 283.795,204.308 291.744,218.615 z" id="boundary" inkscape:connector-curvature="0" />
	<path style="fill:none;stroke:red;stroke-width:1px;stroke-linecap:butt;stroke-linejoin:miter;stroke-opacity:1" d="M 329.897,196.359 329.897,212.256 z" id="boundary" inkscape:connector-curvature="0" />
	<path style="fill:none;stroke:red;stroke-width:1px;stroke-linecap:butt;stroke-linejoin:miter;stroke-opacity:1" d="M 301.282,231.333 291.744,218.615 z" id="boundary" inkscape:connector-curvature="0" />
	<path style="fill:none;stroke:red;stroke-width:1px;stroke-linecap:butt;stroke-linejoin:miter;stroke-opacity:1" d="M 342.615,223.385 329.897,212.256 z" id="boundary" inkscape:connector-curvature="0" />
	<path style="fill:none;stroke:red;stroke-width:1px;stroke-linecap:butt;stroke-linejoin:miter;stroke-opacity:1" d="M 342.615,223.385 336.256,247.231 z" id="boundary" inkscape:connector-curvature="0" />
	<path style="fill:none;stroke:red;stroke-width:1px;stroke-linecap:butt;stroke-linejoin:miter;stroke-opacity:1" d="M 301.282,231.333 307.641,247.231 z" id="boundary" inkscape:connector-curvature="0" />
	<path style="fill:none;stroke:red;stroke-width:1px;stroke-linecap:butt;stroke-linejoin:miter;stroke-opacity:1" d="M 336.256,247.231 321.949,255.179 z" id="boundary" inkscape:connector-curvature="0" />
	<path style="fill:none;stroke:red;stroke-width:1px;stroke-linecap:butt;stroke-linejoin:miter;stroke-opacity:1" d="M 321.949,255.179 307.641,247.231 z" id="boundary" inkscape:connector-curvature="0" />
	<path style="fill:none;stroke:red;stroke-width:1px;stroke-linecap:butt;stroke-linejoin:miter;stroke-opacity:1" d="M 170.923,363.282 183.641,374.41 z" id="boundary" inkscape:connector-curvature="0" />
	<path style="fill:none;stroke:red;stroke-width:1px;stroke-linecap:butt;stroke-linejoin:miter;stroke-opacity:1" d="M 170.923,363.282 156.615,355.333 z" id="boundary" inkscape:connector-curvature="0" />
	<path style="fill:none;stroke:red;stroke-width:1px;stroke-linecap:butt;stroke-linejoin:miter;stroke-opacity:1" d="M 197.949,382.359 210.667,391.897 z" id="boundary" inkscape:connector-curvature="0" />
	<path style="fill:none;stroke:red;stroke-width:1px;stroke-linecap:butt;stroke-linejoin:miter;stroke-opacity:1" d="M 183.641,374.41 197.949,382.359 z" id="boundary" inkscape:connector-curvature="0" />
	<path style="fill:none;stroke:red;stroke-width:1px;stroke-linecap:butt;stroke-linejoin:miter;stroke-opacity:1" d="M 226.564,391.897 210.667,391.897 z" id="boundary" inkscape:connector-curvature="0" />
	<path style="fill:none;stroke:red;stroke-width:1px;stroke-linecap:butt;stroke-linejoin:miter;stroke-opacity:1" d="M 226.564,391.897 236.103,404.615 z" id="boundary" inkscape:connector-curvature="0" />
	<path style="fill:none;stroke:red;stroke-width:1px;stroke-linecap:butt;stroke-linejoin:miter;stroke-opacity:1" d="M 252,410.974 236.103,404.615 z" id="boundary" inkscape:connector-curvature="0" />
	<path style="fill:none;stroke:red;stroke-width:1px;stroke-linecap:butt;stroke-linejoin:miter;stroke-opacity:1" d="M 252,410.974 266.308,418.923 z" id="boundary" inkscape:connector-curvature="0" />
	<path style="fill:none;stroke:red;stroke-width:1px;stroke-linecap:butt;stroke-linejoin:miter;stroke-opacity:1" d="M 266.308,418.923 266.308,434.821 z" id="boundary" inkscape:connector-curvature="0" />
	<path style="fill:none;stroke:red;stroke-width:1px;stroke-linecap:butt;stroke-linejoin:miter;stroke-opacity:1" d="M 266.308,434.821 266.308,450.718 z" id="boundary" inkscape:connector-curvature="0" />
	<path style="fill:none;stroke:red;stroke-width:1px;stroke-linecap:butt;stroke-linejoin:miter;stroke-opacity:1" d="M 274.256,465.026 266.308,450.718 z" id="boundary" inkscape:connector-curvature="0" />
	<path style="fill:none;stroke:red;stroke-width:1px;stroke-linecap:butt;stroke-linejoin:miter;stroke-opacity:1" d="M 258.359,776.615 258.359,760.718 z" id="boundary" inkscape:connector-curvature="0" />
	<path style="fill:none;stroke:red;stroke-width:1px;stroke-linecap:butt;stroke-linejoin:miter;stroke-opacity:1" d="M 258.359,760.718 266.308,744.821 z" id="boundary" inkscape:connector-curvature="0" />
	<path style="fill:none;stroke:red;stroke-width:1px;stroke-linecap:butt;stroke-linejoin:miter;stroke-opacity:1" d="M 258.359,808.41 258.359,792.513 z" id="boundary" inkscape:connector-curvature="0" />
	<path style="fill:none;stroke:red;stroke-width:1px;stroke-linecap:butt;stroke-linejoin:miter;stroke-opacity:1" d="M 258.359,792.513 258.359,776.615 z" id="boundary" inkscape:connector-curvature="0" />
	<path style="fill:none;stroke:red;stroke-width:1px;stroke-linecap:butt;stroke-linejoin:miter;stroke-opacity:1" d="M 170.923,951.487 183.641,938.769 z" id="boundary" inkscape:connector-curvature="0" />
	<path style="fill:none;stroke:red;stroke-width:1px;stroke-linecap:butt;stroke-linejoin:miter;stroke-opacity:1" d="M 183.641,938.769 199.538,938.769 z" id="boundary" inkscape:connector-curvature="0" />
	<path style="fill:none;stroke:red;stroke-width:1px;stroke-linecap:butt;stroke-linejoin:miter;stroke-opacity:1" d="M 226.564,988.051 210.667,988.051 z" id="boundary" inkscape:connector-curvature="0" />
	<path style="fill:none;stroke:red;stroke-width:1px;stroke-linecap:butt;stroke-linejoin:miter;stroke-opacity:1" d="M 215.436,930.821 199.538,938.769 z" id="boundary" inkscape:connector-curvature="0" />
	<path style="fill:none;stroke:red;stroke-width:1px;stroke-linecap:butt;stroke-linejoin:miter;stroke-opacity:1" d="M 170.923,967.385 170.923,951.487 z" id="boundary" inkscape:connector-curvature="0" />
	<path style="fill:none;stroke:red;stroke-width:1px;stroke-linecap:butt;stroke-linejoin:miter;stroke-opacity:1" d="M 178.872,981.692 170.923,967.385 z" id="boundary" inkscape:connector-curvature="0" />
	<path style="fill:none;stroke:red;stroke-width:1px;stroke-linecap:butt;stroke-linejoin:miter;stroke-opacity:1" d="M 194.769,988.051 210.667,988.051 z" id="boundary" inkscape:connector-curvature="0" />
	<path style="fill:none;stroke:red;stroke-width:1px;stroke-linecap:butt;stroke-linejoin:miter;stroke-opacity:1" d="M 194.769,988.051 178.872,981.692 z" id="boundary" inkscape:connector-curvature="0" />
	<path style="fill:none;stroke:red;stroke-width:1px;stroke-linecap:butt;stroke-linejoin:miter;stroke-opacity:1" d="M 231.333,930.821 215.436,930.821 z" id="boundary" inkscape:connector-curvature="0" />
	<path style="fill:none;stroke:red;stroke-width:1px;stroke-linecap:butt;stroke-linejoin:miter;stroke-opacity:1" d="M 247.231,922.872 231.333,930.821 z" id="boundary" inkscape:connector-curvature="0" />
	<path style="fill:none;stroke:red;stroke-width:1px;stroke-linecap:butt;stroke-linejoin:miter;stroke-opacity:1" d="M 259.949,910.154 247.231,922.872 z" id="boundary" inkscape:connector-curvature="0" />
	<path style="fill:none;stroke:red;stroke-width:1px;stroke-linecap:butt;stroke-linejoin:miter;stroke-opacity:1" d="M 266.308,838.615 258.359,824.308 z" id="boundary" inkscape:connector-curvature="0" />
	<path style="fill:none;stroke:red;stroke-width:1px;stroke-linecap:butt;stroke-linejoin:miter;stroke-opacity:1" d="M 258.359,824.308 258.359,808.41 z" id="boundary" inkscape:connector-curvature="0" />
	<path style="fill:none;stroke:red;stroke-width:1px;stroke-linecap:butt;stroke-linejoin:miter;stroke-opacity:1" d="M 271.077,964.205 255.179,970.564 z" id="boundary" inkscape:connector-curvature="0" />
	<path style="fill:none;stroke:red;stroke-width:1px;stroke-linecap:butt;stroke-linejoin:miter;stroke-opacity:1" d="M 240.872,980.103 226.564,988.051 z" id="boundary" inkscape:connector-curvature="0" />
	<path style="fill:none;stroke:red;stroke-width:1px;stroke-linecap:butt;stroke-linejoin:miter;stroke-opacity:1" d="M 240.872,980.103 255.179,970.564 z" id="boundary" inkscape:connector-curvature="0" />
	<path style="fill:none;stroke:red;stroke-width:1px;stroke-linecap:butt;stroke-linejoin:miter;stroke-opacity:1" d="M 274.256,480.923 274.256,496.821 z" id="boundary" inkscape:connector-curvature="0" />
	<path style="fill:none;stroke:red;stroke-width:1px;stroke-linecap:butt;stroke-linejoin:miter;stroke-opacity:1" d="M 274.256,512.718 274.256,528.615 z" id="boundary" inkscape:connector-curvature="0" />
	<path style="fill:none;stroke:red;stroke-width:1px;stroke-linecap:butt;stroke-linejoin:miter;stroke-opacity:1" d="M 274.256,512.718 274.256,496.821 z" id="boundary" inkscape:connector-curvature="0" />
	<path style="fill:none;stroke:red;stroke-width:1px;stroke-linecap:butt;stroke-linejoin:miter;stroke-opacity:1" d="M 274.256,528.615 282.205,542.923 z" id="boundary" inkscape:connector-curvature="0" />
	<path style="fill:none;stroke:red;stroke-width:1px;stroke-linecap:butt;stroke-linejoin:miter;stroke-opacity:1" d="M 282.205,542.923 282.205,558.821 z" id="boundary" inkscape:connector-curvature="0" />
	<path style="fill:none;stroke:red;stroke-width:1px;stroke-linecap:butt;stroke-linejoin:miter;stroke-opacity:1" d="M 282.205,558.821 290.154,573.128 z" id="boundary" inkscape:connector-curvature="0" />
	<path style="fill:none;stroke:red;stroke-width:1px;stroke-linecap:butt;stroke-linejoin:miter;stroke-opacity:1" d="M 290.154,573.128 290.154,589.026 z" id="boundary" inkscape:connector-curvature="0" />
	<path style="fill:none;stroke:red;stroke-width:1px;stroke-linecap:butt;stroke-linejoin:miter;stroke-opacity:1" d="M 290.154,589.026 290.154,604.923 z" id="boundary" inkscape:connector-curvature="0" />
	<path style="fill:none;stroke:red;stroke-width:1px;stroke-linecap:butt;stroke-linejoin:miter;stroke-opacity:1" d="M 293.333,620.821 301.282,635.128 z" id="boundary" inkscape:connector-curvature="0" />
	<path style="fill:none;stroke:red;stroke-width:1px;stroke-linecap:butt;stroke-linejoin:miter;stroke-opacity:1" d="M 293.333,620.821 290.154,604.923 z" id="boundary" inkscape:connector-curvature="0" />
	<path style="fill:none;stroke:red;stroke-width:1px;stroke-linecap:butt;stroke-linejoin:miter;stroke-opacity:1" d="M 306.051,651.026 306.051,666.923 z" id="boundary" inkscape:connector-curvature="0" />
	<path style="fill:none;stroke:red;stroke-width:1px;stroke-linecap:butt;stroke-linejoin:miter;stroke-opacity:1" d="M 301.282,635.128 306.051,651.026 z" id="boundary" inkscape:connector-curvature="0" />
	<path style="fill:none;stroke:red;stroke-width:1px;stroke-linecap:butt;stroke-linejoin:miter;stroke-opacity:1" d="M 306.051,666.923 306.051,682.821 z" id="boundary" inkscape:connector-curvature="0" />
	<path style="fill:none;stroke:red;stroke-width:1px;stroke-linecap:butt;stroke-linejoin:miter;stroke-opacity:1" d="M 306.051,682.821 290.154,689.179 z" id="boundary" inkscape:connector-curvature="0" />
	<path style="fill:none;stroke:red;stroke-width:1px;stroke-linecap:butt;stroke-linejoin:miter;stroke-opacity:1" d="M 282.205,713.026 290.154,689.179 z" id="boundary" inkscape:connector-curvature="0" />
	<path style="fill:none;stroke:red;stroke-width:1px;stroke-linecap:butt;stroke-linejoin:miter;stroke-opacity:1" d="M 274.256,728.923 266.308,744.821 z" id="boundary" inkscape:connector-curvature="0" />
	<path style="fill:none;stroke:red;stroke-width:1px;stroke-linecap:butt;stroke-linejoin:miter;stroke-opacity:1" d="M 274.256,480.923 274.256,465.026 z" id="boundary" inkscape:connector-curvature="0" />
	<path style="fill:none;stroke:red;stroke-width:1px;stroke-linecap:butt;stroke-linejoin:miter;stroke-opacity:1" d="M 274.256,852.923 266.308,838.615 z" id="boundary" inkscape:connector-curvature="0" />
	<path style="fill:none;stroke:red;stroke-width:1px;stroke-linecap:butt;stroke-linejoin:miter;stroke-opacity:1" d="M 274.256,868.821 274.256,852.923 z" id="boundary" inkscape:connector-curvature="0" />
	<path style="fill:none;stroke:red;stroke-width:1px;stroke-linecap:butt;stroke-linejoin:miter;stroke-opacity:1" d="M 376,876.769 360.103,881.538 z" id="boundary" inkscape:connector-curvature="0" />
	<path style="fill:none;stroke:red;stroke-width:1px;stroke-linecap:butt;stroke-linejoin:miter;stroke-opacity:1" d="M 282.205,713.026 274.256,728.923 z" id="boundary" inkscape:connector-curvature="0" />
	<path style="fill:none;stroke:red;stroke-width:1px;stroke-linecap:butt;stroke-linejoin:miter;stroke-opacity:1" d="M 285.385,956.256 271.077,964.205 z" id="boundary" inkscape:connector-curvature="0" />
	<path style="fill:none;stroke:red;stroke-width:1px;stroke-linecap:butt;stroke-linejoin:miter;stroke-opacity:1" d="M 259.949,910.154 272.667,899.026 z" id="boundary" inkscape:connector-curvature="0" />
	<path style="fill:none;stroke:red;stroke-width:1px;stroke-linecap:butt;stroke-linejoin:miter;stroke-opacity:1" d="M 299.692,948.308 285.385,956.256 z" id="boundary" inkscape:connector-curvature="0" />
	<path style="fill:none;stroke:red;stroke-width:1px;stroke-linecap:butt;stroke-linejoin:miter;stroke-opacity:1" d="M 272.667,899.026 274.256,868.821 z" id="boundary" inkscape:connector-curvature="0" />
	<path style="fill:none;stroke:red;stroke-width:1px;stroke-linecap:butt;stroke-linejoin:miter;stroke-opacity:1" d="M 347.385,908.564 347.385,892.667 z" id="boundary" inkscape:connector-curvature="0" />
	<path style="fill:none;stroke:red;stroke-width:1px;stroke-linecap:butt;stroke-linejoin:miter;stroke-opacity:1" d="M 347.385,892.667 360.103,881.538 z" id="boundary" inkscape:connector-curvature="0" />
	<path style="fill:none;stroke:red;stroke-width:1px;stroke-linecap:butt;stroke-linejoin:miter;stroke-opacity:1" d="M 345.795,927.641 347.385,908.564 z" id="boundary" inkscape:connector-curvature="0" />
	<path style="fill:none;stroke:red;stroke-width:1px;stroke-linecap:butt;stroke-linejoin:miter;stroke-opacity:1" d="M 299.692,948.308 314,940.359 z" id="boundary" inkscape:connector-curvature="0" />
	<path style="fill:none;stroke:red;stroke-width:1px;stroke-linecap:butt;stroke-linejoin:miter;stroke-opacity:1" d="M 314,940.359 329.897,935.59 z" id="boundary" inkscape:connector-curvature="0" />
	<path style="fill:none;stroke:red;stroke-width:1px;stroke-linecap:butt;stroke-linejoin:miter;stroke-opacity:1" d="M 345.795,927.641 329.897,935.59 z" id="boundary" inkscape:connector-curvature="0" />
	<path style="fill:none;stroke:red;stroke-width:1px;stroke-linecap:butt;stroke-linejoin:miter;stroke-opacity:1" d="M 376,876.769 391.897,876.769 z" id="boundary" inkscape:connector-curvature="0" />
	<path style="fill:none;stroke:red;stroke-width:1px;stroke-linecap:butt;stroke-linejoin:miter;stroke-opacity:1" d="M 371.231,67.5897 387.128,59.641 z" id="boundary" inkscape:connector-curvature="0" />
	<path style="fill:none;stroke:red;stroke-width:1px;stroke-linecap:butt;stroke-linejoin:miter;stroke-opacity:1" d="M 417.333,5.58974 433.231,4 z" id="boundary" inkscape:connector-curvature="0" />
	<path style="fill:none;stroke:red;stroke-width:1px;stroke-linecap:butt;stroke-linejoin:miter;stroke-opacity:1" d="M 433.231,4 439.59,19.8974 z" id="boundary" inkscape:connector-curvature="0" />
	<path style="fill:none;stroke:red;stroke-width:1px;stroke-linecap:butt;stroke-linejoin:miter;stroke-opacity:1" d="M 409.385,29.4359 417.333,5.58974 z" id="boundary" inkscape:connector-curvature="0" />
	<path style="fill:none;stroke:red;stroke-width:1px;stroke-linecap:butt;stroke-linejoin:miter;stroke-opacity:1" d="M 387.128,59.641 399.846,48.5128 z" id="boundary" inkscape:connector-curvature="0" />
	<path style="fill:none;stroke:red;stroke-width:1px;stroke-linecap:butt;stroke-linejoin:miter;stroke-opacity:1" d="M 409.385,29.4359 399.846,48.5128 z" id="boundary" inkscape:connector-curvature="0" />
	<path style="fill:none;stroke:red;stroke-width:1px;stroke-linecap:butt;stroke-linejoin:miter;stroke-opacity:1" d="M 439.59,19.8974 442.769,35.7949 z" id="boundary" inkscape:connector-curvature="0" />
	<path style="fill:none;stroke:red;stroke-width:1px;stroke-linecap:butt;stroke-linejoin:miter;stroke-opacity:1" d="M 442.769,35.7949 450.718,50.1026 z" id="boundary" inkscape:connector-curvature="0" />
	<path style="fill:none;stroke:red;stroke-width:1px;stroke-linecap:butt;stroke-linejoin:miter;stroke-opacity:1" d="M 496.821,45.3333 509.538,32.6154 z" id="boundary" inkscape:connector-curvature="0" />
	<path style="fill:none;stroke:red;stroke-width:1px;stroke-linecap:butt;stroke-linejoin:miter;stroke-opacity:1" d="M 525.436,32.6154 530.205,48.5128 z" id="boundary" inkscape:connector-curvature="0" />
	<path style="fill:none;stroke:red;stroke-width:1px;stroke-linecap:butt;stroke-linejoin:miter;stroke-opacity:1" d="M 509.538,32.6154 525.436,32.6154 z" id="boundary" inkscape:connector-curvature="0" />
	<path style="fill:none;stroke:red;stroke-width:1px;stroke-linecap:butt;stroke-linejoin:miter;stroke-opacity:1" d="M 530.205,48.5128 530.205,64.4103 z" id="boundary" inkscape:connector-curvature="0" />
	<path style="fill:none;stroke:red;stroke-width:1px;stroke-linecap:butt;stroke-linejoin:miter;stroke-opacity:1" d="M 450.718,50.1026 466.615,56.4615 z" id="boundary" inkscape:connector-curvature="0" />
	<path style="fill:none;stroke:red;stroke-width:1px;stroke-linecap:butt;stroke-linejoin:miter;stroke-opacity:1" d="M 466.615,56.4615 482.513,56.4615 z" id="boundary" inkscape:connector-curvature="0" />
	<path style="fill:none;stroke:red;stroke-width:1px;stroke-linecap:butt;stroke-linejoin:miter;stroke-opacity:1" d="M 496.821,45.3333 482.513,56.4615 z" id="boundary" inkscape:connector-curvature="0" />
	<path style="fill:none;stroke:red;stroke-width:1px;stroke-linecap:butt;stroke-linejoin:miter;stroke-opacity:1" d="M 546.103,172.513 546.103,188.41 z" id="boundary" inkscape:connector-curvature="0" />
	<path style="fill:none;stroke:red;stroke-width:1px;stroke-linecap:butt;stroke-linejoin:miter;stroke-opacity:1" d="M 538.154,78.7179 530.205,64.4103 z" id="boundary" inkscape:connector-curvature="0" />
	<path style="fill:none;stroke:red;stroke-width:1px;stroke-linecap:butt;stroke-linejoin:miter;stroke-opacity:1" d="M 522.256,336.256 522.256,352.154 z" id="boundary" inkscape:connector-curvature="0" />
	<path style="fill:none;stroke:red;stroke-width:1px;stroke-linecap:butt;stroke-linejoin:miter;stroke-opacity:1" d="M 522.256,352.154 522.256,368.051 z" id="boundary" inkscape:connector-curvature="0" />
	<path style="fill:none;stroke:red;stroke-width:1px;stroke-linecap:butt;stroke-linejoin:miter;stroke-opacity:1" d="M 522.256,368.051 514.308,383.949 z" id="boundary" inkscape:connector-curvature="0" />
	<path style="fill:none;stroke:red;stroke-width:1px;stroke-linecap:butt;stroke-linejoin:miter;stroke-opacity:1" d="M 538.154,457.077 530.205,442.769 z" id="boundary" inkscape:connector-curvature="0" />
	<path style="fill:none;stroke:red;stroke-width:1px;stroke-linecap:butt;stroke-linejoin:miter;stroke-opacity:1" d="M 514.308,399.846 514.308,383.949 z" id="boundary" inkscape:connector-curvature="0" />
	<path style="fill:none;stroke:red;stroke-width:1px;stroke-linecap:butt;stroke-linejoin:miter;stroke-opacity:1" d="M 514.308,399.846 514.308,415.744 z" id="boundary" inkscape:connector-curvature="0" />
	<path style="fill:none;stroke:red;stroke-width:1px;stroke-linecap:butt;stroke-linejoin:miter;stroke-opacity:1" d="M 517.487,431.641 530.205,442.769 z" id="boundary" inkscape:connector-curvature="0" />
	<path style="fill:none;stroke:red;stroke-width:1px;stroke-linecap:butt;stroke-linejoin:miter;stroke-opacity:1" d="M 517.487,431.641 514.308,415.744 z" id="boundary" inkscape:connector-curvature="0" />
	<path style="fill:none;stroke:red;stroke-width:1px;stroke-linecap:butt;stroke-linejoin:miter;stroke-opacity:1" d="M 522.256,336.256 536.564,328.308 z" id="boundary" inkscape:connector-curvature="0" />
	<path style="fill:none;stroke:red;stroke-width:1px;stroke-linecap:butt;stroke-linejoin:miter;stroke-opacity:1" d="M 538.154,94.6154 538.154,78.7179 z" id="boundary" inkscape:connector-curvature="0" />
	<path style="fill:none;stroke:red;stroke-width:1px;stroke-linecap:butt;stroke-linejoin:miter;stroke-opacity:1" d="M 546.103,124.821 538.154,110.513 z" id="boundary" inkscape:connector-curvature="0" />
	<path style="fill:none;stroke:red;stroke-width:1px;stroke-linecap:butt;stroke-linejoin:miter;stroke-opacity:1" d="M 538.154,110.513 538.154,94.6154 z" id="boundary" inkscape:connector-curvature="0" />
	<path style="fill:none;stroke:red;stroke-width:1px;stroke-linecap:butt;stroke-linejoin:miter;stroke-opacity:1" d="M 538.154,224.974 538.154,240.872 z" id="boundary" inkscape:connector-curvature="0" />
	<path style="fill:none;stroke:red;stroke-width:1px;stroke-linecap:butt;stroke-linejoin:miter;stroke-opacity:1" d="M 536.564,328.308 552.462,328.308 z" id="boundary" inkscape:connector-curvature="0" />
	<path style="fill:none;stroke:red;stroke-width:1px;stroke-linecap:butt;stroke-linejoin:miter;stroke-opacity:1" d="M 538.154,457.077 538.154,472.974 z" id="boundary" inkscape:connector-curvature="0" />
	<path style="fill:none;stroke:red;stroke-width:1px;stroke-linecap:butt;stroke-linejoin:miter;stroke-opacity:1" d="M 546.103,487.282 538.154,472.974 z" id="boundary" inkscape:connector-curvature="0" />
	<path style="fill:none;stroke:red;stroke-width:1px;stroke-linecap:butt;stroke-linejoin:miter;stroke-opacity:1" d="M 554.051,242.462 538.154,240.872 z" id="boundary" inkscape:connector-curvature="0" />
	<path style="fill:none;stroke:red;stroke-width:1px;stroke-linecap:butt;stroke-linejoin:miter;stroke-opacity:1" d="M 546.103,124.821 546.103,140.718 z" id="boundary" inkscape:connector-curvature="0" />
	<path style="fill:none;stroke:red;stroke-width:1px;stroke-linecap:butt;stroke-linejoin:miter;stroke-opacity:1" d="M 546.103,156.615 546.103,140.718 z" id="boundary" inkscape:connector-curvature="0" />
	<path style="fill:none;stroke:red;stroke-width:1px;stroke-linecap:butt;stroke-linejoin:miter;stroke-opacity:1" d="M 546.103,156.615 546.103,172.513 z" id="boundary" inkscape:connector-curvature="0" />
	<path style="fill:none;stroke:red;stroke-width:1px;stroke-linecap:butt;stroke-linejoin:miter;stroke-opacity:1" d="M 546.103,188.41 546.103,204.308 z" id="boundary" inkscape:connector-curvature="0" />
	<path style="fill:none;stroke:red;stroke-width:1px;stroke-linecap:butt;stroke-linejoin:miter;stroke-opacity:1" d="M 546.103,204.308 538.154,224.974 z" id="boundary" inkscape:connector-curvature="0" />
	<path style="fill:none;stroke:red;stroke-width:1px;stroke-linecap:butt;stroke-linejoin:miter;stroke-opacity:1" d="M 569.949,239.282 554.051,242.462 z" id="boundary" inkscape:connector-curvature="0" />
	<path style="fill:none;stroke:red;stroke-width:1px;stroke-linecap:butt;stroke-linejoin:miter;stroke-opacity:1" d="M 573.128,304.462 565.179,318.769 z" id="boundary" inkscape:connector-curvature="0" />
	<path style="fill:none;stroke:red;stroke-width:1px;stroke-linecap:butt;stroke-linejoin:miter;stroke-opacity:1" d="M 552.462,328.308 565.179,318.769 z" id="boundary" inkscape:connector-curvature="0" />
	<path style="fill:none;stroke:red;stroke-width:1px;stroke-linecap:butt;stroke-linejoin:miter;stroke-opacity:1" d="M 584.256,247.231 569.949,239.282 z" id="boundary" inkscape:connector-curvature="0" />
	<path style="fill:none;stroke:red;stroke-width:1px;stroke-linecap:butt;stroke-linejoin:miter;stroke-opacity:1" d="M 584.256,247.231 596.974,256.769 z" id="boundary" inkscape:connector-curvature="0" />
	<path style="fill:none;stroke:red;stroke-width:1px;stroke-linecap:butt;stroke-linejoin:miter;stroke-opacity:1" d="M 609.692,267.897 596.974,256.769 z" id="boundary" inkscape:connector-curvature="0" />
	<path style="fill:none;stroke:red;stroke-width:1px;stroke-linecap:butt;stroke-linejoin:miter;stroke-opacity:1" d="M 609.692,267.897 601.744,288.564 z" id="boundary" inkscape:connector-curvature="0" />
	<path style="fill:none;stroke:red;stroke-width:1px;stroke-linecap:butt;stroke-linejoin:miter;stroke-opacity:1" d="M 573.128,304.462 589.026,302.872 z" id="boundary" inkscape:connector-curvature="0" />
	<path style="fill:none;stroke:red;stroke-width:1px;stroke-linecap:butt;stroke-linejoin:miter;stroke-opacity:1" d="M 589.026,302.872 601.744,288.564 z" id="boundary" inkscape:connector-curvature="0" />
	<path style="fill:none;stroke:red;stroke-width:1px;stroke-linecap:butt;stroke-linejoin:miter;stroke-opacity:1" d="M 546.103,487.282 546.103,503.179 z" id="boundary" inkscape:connector-curvature="0" />
	<path style="fill:none;stroke:red;stroke-width:1px;stroke-linecap:butt;stroke-linejoin:miter;stroke-opacity:1" d="M 554.051,517.487 546.103,503.179 z" id="boundary" inkscape:connector-curvature="0" />
	<path style="fill:none;stroke:red;stroke-width:1px;stroke-linecap:butt;stroke-linejoin:miter;stroke-opacity:1" d="M 554.051,517.487 554.051,533.385 z" id="boundary" inkscape:connector-curvature="0" />
	<path style="fill:none;stroke:red;stroke-width:1px;stroke-linecap:butt;stroke-linejoin:miter;stroke-opacity:1" d="M 582.667,549.282 568.359,557.231 z" id="boundary" inkscape:connector-curvature="0" />
	<path style="fill:none;stroke:red;stroke-width:1px;stroke-linecap:butt;stroke-linejoin:miter;stroke-opacity:1" d="M 554.051,533.385 554.051,549.282 z" id="boundary" inkscape:connector-curvature="0" />
	<path style="fill:none;stroke:red;stroke-width:1px;stroke-linecap:butt;stroke-linejoin:miter;stroke-opacity:1" d="M 554.051,549.282 554.051,565.179 z" id="boundary" inkscape:connector-curvature="0" />
	<path style="fill:none;stroke:red;stroke-width:1px;stroke-linecap:butt;stroke-linejoin:miter;stroke-opacity:1" d="M 554.051,549.282 568.359,557.231 z" id="boundary" inkscape:connector-curvature="0" />
	<path style="fill:none;stroke:red;stroke-width:1px;stroke-linecap:butt;stroke-linejoin:miter;stroke-opacity:1" d="M 568.359,557.231 577.897,569.949 z" id="boundary" inkscape:connector-curvature="0" />
	<path style="fill:none;stroke:red;stroke-width:1px;stroke-linecap:butt;stroke-linejoin:miter;stroke-opacity:1" d="M 562,579.487 554.051,565.179 z" id="boundary" inkscape:connector-curvature="0" />
	<path style="fill:none;stroke:red;stroke-width:1px;stroke-linecap:butt;stroke-linejoin:miter;stroke-opacity:1" d="M 582.667,549.282 593.795,562 z" id="boundary" inkscape:connector-curvature="0" />
	<path style="fill:none;stroke:red;stroke-width:1px;stroke-linecap:butt;stroke-linejoin:miter;stroke-opacity:1" d="M 584.256,585.846 577.897,569.949 z" id="boundary" inkscape:connector-curvature="0" />
	<path style="fill:none;stroke:red;stroke-width:1px;stroke-linecap:butt;stroke-linejoin:miter;stroke-opacity:1" d="M 608.103,569.949 593.795,562 z" id="boundary" inkscape:connector-curvature="0" />
	<path style="fill:none;stroke:red;stroke-width:1px;stroke-linecap:butt;stroke-linejoin:miter;stroke-opacity:1" d="M 624,573.128 608.103,569.949 z" id="boundary" inkscape:connector-curvature="0" />
	<path style="fill:none;stroke:red;stroke-width:1px;stroke-linecap:butt;stroke-linejoin:miter;stroke-opacity:1" d="M 592.205,600.154 584.256,585.846 z" id="boundary" inkscape:connector-curvature="0" />
	<path style="fill:none;stroke:red;stroke-width:1px;stroke-linecap:butt;stroke-linejoin:miter;stroke-opacity:1" d="M 639.897,576.308 649.436,589.026 z" id="boundary" inkscape:connector-curvature="0" />
	<path style="fill:none;stroke:red;stroke-width:1px;stroke-linecap:butt;stroke-linejoin:miter;stroke-opacity:1" d="M 624,573.128 639.897,576.308 z" id="boundary" inkscape:connector-curvature="0" />
	<path style="fill:none;stroke:red;stroke-width:1px;stroke-linecap:butt;stroke-linejoin:miter;stroke-opacity:1" d="M 584.256,585.846 569.949,593.795 z" id="boundary" inkscape:connector-curvature="0" />
	<path style="fill:none;stroke:red;stroke-width:1px;stroke-linecap:butt;stroke-linejoin:miter;stroke-opacity:1" d="M 569.949,593.795 562,579.487 z" id="boundary" inkscape:connector-curvature="0" />
	<path style="fill:none;stroke:red;stroke-width:1px;stroke-linecap:butt;stroke-linejoin:miter;stroke-opacity:1" d="M 562,829.077 562,813.179 z" id="boundary" inkscape:connector-curvature="0" />
	<path style="fill:none;stroke:red;stroke-width:1px;stroke-linecap:butt;stroke-linejoin:miter;stroke-opacity:1" d="M 562,813.179 569.949,797.282 z" id="boundary" inkscape:connector-curvature="0" />
	<path style="fill:none;stroke:red;stroke-width:1px;stroke-linecap:butt;stroke-linejoin:miter;stroke-opacity:1" d="M 406.205,867.231 420.513,875.179 z" id="boundary" inkscape:connector-curvature="0" />
	<path style="fill:none;stroke:red;stroke-width:1px;stroke-linecap:butt;stroke-linejoin:miter;stroke-opacity:1" d="M 391.897,876.769 406.205,867.231 z" id="boundary" inkscape:connector-curvature="0" />
	<path style="fill:none;stroke:red;stroke-width:1px;stroke-linecap:butt;stroke-linejoin:miter;stroke-opacity:1" d="M 436.41,876.769 420.513,875.179 z" id="boundary" inkscape:connector-curvature="0" />
	<path style="fill:none;stroke:red;stroke-width:1px;stroke-linecap:butt;stroke-linejoin:miter;stroke-opacity:1" d="M 562,829.077 562,844.974 z" id="boundary" inkscape:connector-curvature="0" />
	<path style="fill:none;stroke:red;stroke-width:1px;stroke-linecap:butt;stroke-linejoin:miter;stroke-opacity:1" d="M 569.949,875.179 562,860.872 z" id="boundary" inkscape:connector-curvature="0" />
	<path style="fill:none;stroke:red;stroke-width:1px;stroke-linecap:butt;stroke-linejoin:miter;stroke-opacity:1" d="M 562,860.872 562,844.974 z" id="boundary" inkscape:connector-curvature="0" />
	<path style="fill:none;stroke:red;stroke-width:1px;stroke-linecap:butt;stroke-linejoin:miter;stroke-opacity:1" d="M 569.949,609.692 577.897,624 z" id="boundary" inkscape:connector-curvature="0" />
	<path style="fill:none;stroke:red;stroke-width:1px;stroke-linecap:butt;stroke-linejoin:miter;stroke-opacity:1" d="M 577.897,624 577.897,639.897 z" id="boundary" inkscape:connector-curvature="0" />
	<path style="fill:none;stroke:red;stroke-width:1px;stroke-linecap:butt;stroke-linejoin:miter;stroke-opacity:1" d="M 577.897,639.897 577.897,655.795 z" id="boundary" inkscape:connector-curvature="0" />
	<path style="fill:none;stroke:red;stroke-width:1px;stroke-linecap:butt;stroke-linejoin:miter;stroke-opacity:1" d="M 577.897,655.795 577.897,671.692 z" id="boundary" inkscape:connector-curvature="0" />
	<path style="fill:none;stroke:red;stroke-width:1px;stroke-linecap:butt;stroke-linejoin:miter;stroke-opacity:1" d="M 577.897,687.59 593.795,692.359 z" id="boundary" inkscape:connector-curvature="0" />
	<path style="fill:none;stroke:red;stroke-width:1px;stroke-linecap:butt;stroke-linejoin:miter;stroke-opacity:1" d="M 593.795,692.359 577.897,757.538 z" id="boundary" inkscape:connector-curvature="0" />
	<path style="fill:none;stroke:red;stroke-width:1px;stroke-linecap:butt;stroke-linejoin:miter;stroke-opacity:1" d="M 577.897,687.59 577.897,671.692 z" id="boundary" inkscape:connector-curvature="0" />
	<path style="fill:none;stroke:red;stroke-width:1px;stroke-linecap:butt;stroke-linejoin:miter;stroke-opacity:1" d="M 569.949,609.692 569.949,593.795 z" id="boundary" inkscape:connector-curvature="0" />
	<path style="fill:none;stroke:red;stroke-width:1px;stroke-linecap:butt;stroke-linejoin:miter;stroke-opacity:1" d="M 436.41,876.769 450.718,884.718 z" id="boundary" inkscape:connector-curvature="0" />
	<path style="fill:none;stroke:red;stroke-width:1px;stroke-linecap:butt;stroke-linejoin:miter;stroke-opacity:1" d="M 450.718,884.718 465.026,892.667 z" id="boundary" inkscape:connector-curvature="0" />
	<path style="fill:none;stroke:red;stroke-width:1px;stroke-linecap:butt;stroke-linejoin:miter;stroke-opacity:1" d="M 479.333,900.615 465.026,892.667 z" id="boundary" inkscape:connector-curvature="0" />
	<path style="fill:none;stroke:red;stroke-width:1px;stroke-linecap:butt;stroke-linejoin:miter;stroke-opacity:1" d="M 493.641,908.564 479.333,900.615 z" id="boundary" inkscape:connector-curvature="0" />
	<path style="fill:none;stroke:red;stroke-width:1px;stroke-linecap:butt;stroke-linejoin:miter;stroke-opacity:1" d="M 509.538,908.564 493.641,908.564 z" id="boundary" inkscape:connector-curvature="0" />
	<path style="fill:none;stroke:red;stroke-width:1px;stroke-linecap:butt;stroke-linejoin:miter;stroke-opacity:1" d="M 509.538,908.564 520.667,921.282 z" id="boundary" inkscape:connector-curvature="0" />
	<path style="fill:none;stroke:red;stroke-width:1px;stroke-linecap:butt;stroke-linejoin:miter;stroke-opacity:1" d="M 520.667,921.282 528.615,935.59 z" id="boundary" inkscape:connector-curvature="0" />
	<path style="fill:none;stroke:red;stroke-width:1px;stroke-linecap:butt;stroke-linejoin:miter;stroke-opacity:1" d="M 528.615,935.59 533.385,962.615 z" id="boundary" inkscape:connector-curvature="0" />
	<path style="fill:none;stroke:red;stroke-width:1px;stroke-linecap:butt;stroke-linejoin:miter;stroke-opacity:1" d="M 533.385,962.615 520.667,975.333 z" id="boundary" inkscape:connector-curvature="0" />
	<path style="fill:none;stroke:red;stroke-width:1px;stroke-linecap:butt;stroke-linejoin:miter;stroke-opacity:1" d="M 520.667,991.231 536.564,996 z" id="boundary" inkscape:connector-curvature="0" />
	<path style="fill:none;stroke:red;stroke-width:1px;stroke-linecap:butt;stroke-linejoin:miter;stroke-opacity:1" d="M 520.667,991.231 520.667,975.333 z" id="boundary" inkscape:connector-curvature="0" />
	<path style="fill:none;stroke:red;stroke-width:1px;stroke-linecap:butt;stroke-linejoin:miter;stroke-opacity:1" d="M 552.462,996 536.564,996 z" id="boundary" inkscape:connector-curvature="0" />
	<path style="fill:none;stroke:red;stroke-width:1px;stroke-linecap:butt;stroke-linejoin:miter;stroke-opacity:1" d="M 568.359,996 552.462,996 z" id="boundary" inkscape:connector-curvature="0" />
	<path style="fill:none;stroke:red;stroke-width:1px;stroke-linecap:butt;stroke-linejoin:miter;stroke-opacity:1" d="M 577.897,773.436 569.949,797.282 z" id="boundary" inkscape:connector-curvature="0" />
	<path style="fill:none;stroke:red;stroke-width:1px;stroke-linecap:butt;stroke-linejoin:miter;stroke-opacity:1" d="M 577.897,757.538 577.897,773.436 z" id="boundary" inkscape:connector-curvature="0" />
	<path style="fill:none;stroke:red;stroke-width:1px;stroke-linecap:butt;stroke-linejoin:miter;stroke-opacity:1" d="M 600.154,614.462 604.923,630.359 z" id="boundary" inkscape:connector-curvature="0" />
	<path style="fill:none;stroke:red;stroke-width:1px;stroke-linecap:butt;stroke-linejoin:miter;stroke-opacity:1" d="M 604.923,630.359 620.821,636.718 z" id="boundary" inkscape:connector-curvature="0" />
	<path style="fill:none;stroke:red;stroke-width:1px;stroke-linecap:butt;stroke-linejoin:miter;stroke-opacity:1" d="M 620.821,636.718 624,652.615 z" id="boundary" inkscape:connector-curvature="0" />
	<path style="fill:none;stroke:red;stroke-width:1px;stroke-linecap:butt;stroke-linejoin:miter;stroke-opacity:1" d="M 600.154,614.462 592.205,600.154 z" id="boundary" inkscape:connector-curvature="0" />
	<path style="fill:none;stroke:red;stroke-width:1px;stroke-linecap:butt;stroke-linejoin:miter;stroke-opacity:1" d="M 593.795,692.359 609.692,692.359 z" id="boundary" inkscape:connector-curvature="0" />
	<path style="fill:none;stroke:red;stroke-width:1px;stroke-linecap:butt;stroke-linejoin:miter;stroke-opacity:1" d="M 624,668.513 624,652.615 z" id="boundary" inkscape:connector-curvature="0" />
	<path style="fill:none;stroke:red;stroke-width:1px;stroke-linecap:butt;stroke-linejoin:miter;stroke-opacity:1" d="M 624,668.513 624,684.41 z" id="boundary" inkscape:connector-curvature="0" />
	<path style="fill:none;stroke:red;stroke-width:1px;stroke-linecap:butt;stroke-linejoin:miter;stroke-opacity:1" d="M 624,684.41 609.692,692.359 z" id="boundary" inkscape:connector-curvature="0" />
	<path style="fill:none;stroke:red;stroke-width:1px;stroke-linecap:butt;stroke-linejoin:miter;stroke-opacity:1" d="M 593.795,757.538 577.897,757.538 z" id="boundary" inkscape:connector-curvature="0" />
	<path style="fill:none;stroke:red;stroke-width:1px;stroke-linecap:butt;stroke-linejoin:miter;stroke-opacity:1" d="M 670.103,614.462 657.385,603.333 z" id="boundary" inkscape:connector-curvature="0" />
	<path style="fill:none;stroke:red;stroke-width:1px;stroke-linecap:butt;stroke-linejoin:miter;stroke-opacity:1" d="M 657.385,603.333 649.436,589.026 z" id="boundary" inkscape:connector-curvature="0" />
	<path style="fill:none;stroke:red;stroke-width:1px;stroke-linecap:butt;stroke-linejoin:miter;stroke-opacity:1" d="M 681.231,627.179 681.231,643.077 z" id="boundary" inkscape:connector-curvature="0" />
	<path style="fill:none;stroke:red;stroke-width:1px;stroke-linecap:butt;stroke-linejoin:miter;stroke-opacity:1" d="M 670.103,614.462 681.231,627.179 z" id="boundary" inkscape:connector-curvature="0" />
	<path style="fill:none;stroke:red;stroke-width:1px;stroke-linecap:butt;stroke-linejoin:miter;stroke-opacity:1" d="M 681.231,643.077 681.231,658.974 z" id="boundary" inkscape:connector-curvature="0" />
	<path style="fill:none;stroke:red;stroke-width:1px;stroke-linecap:butt;stroke-linejoin:miter;stroke-opacity:1" d="M 681.231,658.974 681.231,674.872 z" id="boundary" inkscape:connector-curvature="0" />
	<path style="fill:none;stroke:red;stroke-width:1px;stroke-linecap:butt;stroke-linejoin:miter;stroke-opacity:1" d="M 681.231,674.872 681.231,690.769 z" id="boundary" inkscape:connector-curvature="0" />
	<path style="fill:none;stroke:red;stroke-width:1px;stroke-linecap:butt;stroke-linejoin:miter;stroke-opacity:1" d="M 585.846,919.692 585.846,935.59 z" id="boundary" inkscape:connector-curvature="0" />
	<path style="fill:none;stroke:red;stroke-width:1px;stroke-linecap:butt;stroke-linejoin:miter;stroke-opacity:1" d="M 585.846,919.692 577.897,905.385 z" id="boundary" inkscape:connector-curvature="0" />
	<path style="fill:none;stroke:red;stroke-width:1px;stroke-linecap:butt;stroke-linejoin:miter;stroke-opacity:1" d="M 577.897,905.385 577.897,889.487 z" id="boundary" inkscape:connector-curvature="0" />
	<path style="fill:none;stroke:red;stroke-width:1px;stroke-linecap:butt;stroke-linejoin:miter;stroke-opacity:1" d="M 569.949,875.179 577.897,889.487 z" id="boundary" inkscape:connector-curvature="0" />
	<path style="fill:none;stroke:red;stroke-width:1px;stroke-linecap:butt;stroke-linejoin:miter;stroke-opacity:1" d="M 585.846,951.487 592.205,967.385 z" id="boundary" inkscape:connector-curvature="0" />
	<path style="fill:none;stroke:red;stroke-width:1px;stroke-linecap:butt;stroke-linejoin:miter;stroke-opacity:1" d="M 585.846,935.59 585.846,951.487 z" id="boundary" inkscape:connector-curvature="0" />
	<path style="fill:none;stroke:red;stroke-width:1px;stroke-linecap:butt;stroke-linejoin:miter;stroke-opacity:1" d="M 592.205,967.385 593.795,983.282 z" id="boundary" inkscape:connector-curvature="0" />
	<path style="fill:none;stroke:red;stroke-width:1px;stroke-linecap:butt;stroke-linejoin:miter;stroke-opacity:1" d="M 593.795,983.282 584.256,996 z" id="boundary" inkscape:connector-curvature="0" />
	<path style="fill:none;stroke:red;stroke-width:1px;stroke-linecap:butt;stroke-linejoin:miter;stroke-opacity:1" d="M 584.256,996 568.359,996 z" id="boundary" inkscape:connector-curvature="0" />
	<path style="fill:none;stroke:red;stroke-width:1px;stroke-linecap:butt;stroke-linejoin:miter;stroke-opacity:1" d="M 625.59,749.59 609.692,749.59 z" id="boundary" inkscape:connector-curvature="0" />
	<path style="fill:none;stroke:red;stroke-width:1px;stroke-linecap:butt;stroke-linejoin:miter;stroke-opacity:1" d="M 665.333,725.744 678.051,714.615 z" id="boundary" inkscape:connector-curvature="0" />
	<path style="fill:none;stroke:red;stroke-width:1px;stroke-linecap:butt;stroke-linejoin:miter;stroke-opacity:1" d="M 654.205,738.462 665.333,725.744 z" id="boundary" inkscape:connector-curvature="0" />
	<path style="fill:none;stroke:red;stroke-width:1px;stroke-linecap:butt;stroke-linejoin:miter;stroke-opacity:1" d="M 609.692,749.59 593.795,757.538 z" id="boundary" inkscape:connector-curvature="0" />
	<path style="fill:none;stroke:red;stroke-width:1px;stroke-linecap:butt;stroke-linejoin:miter;stroke-opacity:1" d="M 641.487,749.59 654.205,738.462 z" id="boundary" inkscape:connector-curvature="0" />
	<path style="fill:none;stroke:red;stroke-width:1px;stroke-linecap:butt;stroke-linejoin:miter;stroke-opacity:1" d="M 625.59,749.59 641.487,749.59 z" id="boundary" inkscape:connector-curvature="0" />
	<path style="fill:none;stroke:red;stroke-width:1px;stroke-linecap:butt;stroke-linejoin:miter;stroke-opacity:1" d="M 681.231,690.769 678.051,714.615 z" id="boundary" inkscape:connector-curvature="0" />
	<circle cx="4" cy="299.692" r="4" fill="#0" id="circle0"/>
	<circle cx="4" cy="315.59" r="4" fill="#0" id="circle1"/>
	<circle cx="4" cy="331.487" r="4" fill="#0" id="circle2"/>
	<circle cx="16.7179" cy="286.974" r="4" fill="#0" id="circle3"/>
	<circle cx="16.7179" cy="342.615" r="4" fill="#0" id="circle4"/>
	<circle cx="29.4359" cy="352.154" r="4" fill="#0" id="circle5"/>
	<circle cx="31.0256" cy="279.026" r="4" fill="#0" id="circle6"/>
	<circle cx="45.3333" cy="352.154" r="4" fill="#0" id="circle7"/>
	<circle cx="46.9231" cy="279.026" r="4" fill="#0" id="circle8"/>
	<circle cx="61.2308" cy="344.205" r="4" fill="#0" id="circle9"/>
	<circle cx="62.8205" cy="279.026" r="4" fill="#0" id="circle10"/>
	<circle cx="77.1282" cy="344.205" r="4" fill="#0" id="circle11"/>
	<circle cx="78.7179" cy="279.026" r="4" fill="#0" id="circle12"/>
	<circle cx="93.0256" cy="344.205" r="4" fill="#0" id="circle13"/>
	<circle cx="94.6154" cy="279.026" r="4" fill="#0" id="circle14"/>
	<circle cx="108.923" cy="286.974" r="4" fill="#0" id="circle15"/>
	<circle cx="108.923" cy="344.205" r="4" fill="#0" id="circle16"/>
	<circle cx="124.821" cy="286.974" r="4" fill="#0" id="circle17"/>
	<circle cx="124.821" cy="347.385" r="4" fill="#0" id="circle18"/>
	<circle cx="140.718" cy="286.974" r="4" fill="#0" id="circle19"/>
	<circle cx="140.718" cy="352.154" r="4" fill="#0" id="circle20"/>
	<circle cx="155.026" cy="196.359" r="4" fill="#0" id="circle21"/>
	<circle cx="156.615" cy="286.974" r="4" fill="#0" id="circle22"/>
	<circle cx="156.615" cy="355.333" r="4" fill="#0" id="circle23"/>
	<circle cx="162.974" cy="210.667" r="4" fill="#0" id="circle24"/>
	<circle cx="167.744" cy="183.641" r="4" fill="#0" id="circle25"/>
	<circle cx="170.923" cy="224.974" r="4" fill="#0" id="circle26"/>
	<circle cx="170.923" cy="294.923" r="4" fill="#0" id="circle27"/>
	<circle cx="170.923" cy="363.282" r="4" fill="#0" id="circle28"/>
	<circle cx="170.923" cy="951.487" r="4" fill="#0" id="circle29"/>
	<circle cx="170.923" cy="967.385" r="4" fill="#0" id="circle30"/>
	<circle cx="175.692" cy="240.872" r="4" fill="#0" id="circle31"/>
	<circle cx="178.872" cy="981.692" r="4" fill="#0" id="circle32"/>
	<circle cx="183.641" cy="183.641" r="4" fill="#0" id="circle33"/>
	<circle cx="183.641" cy="374.41" r="4" fill="#0" id="circle34"/>
	<circle cx="183.641" cy="938.769" r="4" fill="#0" id="circle35"/>
	<circle cx="186.821" cy="298.103" r="4" fill="#0" id="circle36"/>
	<circle cx="190" cy="248.821" r="4" fill="#0" id="circle37"/>
	<circle cx="194.769" cy="988.051" r="4" fill="#0" id="circle38"/>
	<circle cx="197.949" cy="382.359" r="4" fill="#0" id="circle39"/>
	<circle cx="199.538" cy="175.692" r="4" fill="#0" id="circle40"/>
	<circle cx="199.538" cy="938.769" r="4" fill="#0" id="circle41"/>
	<circle cx="202.718" cy="302.872" r="4" fill="#0" id="circle42"/>
	<circle cx="205.897" cy="248.821" r="4" fill="#0" id="circle43"/>
	<circle cx="210.667" cy="391.897" r="4" fill="#0" id="circle44"/>
	<circle cx="210.667" cy="988.051" r="4" fill="#0" id="circle45"/>
	<circle cx="215.436" cy="175.692" r="4" fill="#0" id="circle46"/>
	<circle cx="215.436" cy="930.821" r="4" fill="#0" id="circle47"/>
	<circle cx="218.615" cy="302.872" r="4" fill="#0" id="circle48"/>
	<circle cx="220.205" cy="240.872" r="4" fill="#0" id="circle49"/>
	<circle cx="226.564" cy="256.769" r="4" fill="#0" id="circle50"/>
	<circle cx="226.564" cy="391.897" r="4" fill="#0" id="circle51"/>
	<circle cx="226.564" cy="988.051" r="4" fill="#0" id="circle52"/>
	<circle cx="229.744" cy="167.744" r="4" fill="#0" id="circle53"/>
	<circle cx="231.333" cy="272.667" r="4" fill="#0" id="circle54"/>
	<circle cx="231.333" cy="930.821" r="4" fill="#0" id="circle55"/>
	<circle cx="234.513" cy="288.564" r="4" fill="#0" id="circle56"/>
	<circle cx="236.103" cy="404.615" r="4" fill="#0" id="circle57"/>
	<circle cx="240.872" cy="980.103" r="4" fill="#0" id="circle58"/>
	<circle cx="244.051" cy="175.692" r="4" fill="#0" id="circle59"/>
	<circle cx="247.231" cy="922.872" r="4" fill="#0" id="circle60"/>
	<circle cx="252" cy="410.974" r="4" fill="#0" id="circle61"/>
	<circle cx="255.179" cy="970.564" r="4" fill="#0" id="circle62"/>
	<circle cx="258.359" cy="760.718" r="4" fill="#0" id="circle63"/>
	<circle cx="258.359" cy="776.615" r="4" fill="#0" id="circle64"/>
	<circle cx="258.359" cy="792.513" r="4" fill="#0" id="circle65"/>
	<circle cx="258.359" cy="808.41" r="4" fill="#0" id="circle66"/>
	<circle cx="258.359" cy="824.308" r="4" fill="#0" id="circle67"/>
	<circle cx="259.949" cy="180.462" r="4" fill="#0" id="circle68"/>
	<circle cx="259.949" cy="910.154" r="4" fill="#0" id="circle69"/>
	<circle cx="266.308" cy="418.923" r="4" fill="#0" id="circle70"/>
	<circle cx="266.308" cy="434.821" r="4" fill="#0" id="circle71"/>
	<circle cx="266.308" cy="450.718" r="4" fill="#0" id="circle72"/>
	<circle cx="266.308" cy="744.821" r="4" fill="#0" id="circle73"/>
	<circle cx="266.308" cy="838.615" r="4" fill="#0" id="circle74"/>
	<circle cx="271.077" cy="193.179" r="4" fill="#0" id="circle75"/>
	<circle cx="271.077" cy="964.205" r="4" fill="#0" id="circle76"/>
	<circle cx="272.667" cy="899.026" r="4" fill="#0" id="circle77"/>
	<circle cx="274.256" cy="465.026" r="4" fill="#0" id="circle78"/>
	<circle cx="274.256" cy="480.923" r="4" fill="#0" id="circle79"/>
	<circle cx="274.256" cy="496.821" r="4" fill="#0" id="circle80"/>
	<circle cx="274.256" cy="512.718" r="4" fill="#0" id="circle81"/>
	<circle cx="274.256" cy="528.615" r="4" fill="#0" id="circle82"/>
	<circle cx="274.256" cy="728.923" r="4" fill="#0" id="circle83"/>
	<circle cx="274.256" cy="852.923" r="4" fill="#0" id="circle84"/>
	<circle cx="274.256" cy="868.821" r="4" fill="#0" id="circle85"/>
	<circle cx="282.205" cy="542.923" r="4" fill="#0" id="circle86"/>
	<circle cx="282.205" cy="558.821" r="4" fill="#0" id="circle87"/>
	<circle cx="282.205" cy="713.026" r="4" fill="#0" id="circle88"/>
	<circle cx="283.795" cy="204.308" r="4" fill="#0" id="circle89"/>
	<circle cx="285.385" cy="956.256" r="4" fill="#0" id="circle90"/>
	<circle cx="290.154" cy="573.128" r="4" fill="#0" id="circle91"/>
	<circle cx="290.154" cy="589.026" r="4" fill="#0" id="circle92"/>
	<circle cx="290.154" cy="604.923" r="4" fill="#0" id="circle93"/>
	<circle cx="290.154" cy="689.179" r="4" fill="#0" id="circle94"/>
	<circle cx="291.744" cy="218.615" r="4" fill="#0" id="circle95"/>
	<circle cx="293.333" cy="620.821" r="4" fill="#0" id="circle96"/>
	<circle cx="299.692" cy="948.308" r="4" fill="#0" id="circle97"/>
	<circle cx="301.282" cy="231.333" r="4" fill="#0" id="circle98"/>
	<circle cx="301.282" cy="635.128" r="4" fill="#0" id="circle99"/>
	<circle cx="306.051" cy="140.718" r="4" fill="#0" id="circle100"/>
	<circle cx="306.051" cy="156.615" r="4" fill="#0" id="circle101"/>
	<circle cx="306.051" cy="172.513" r="4" fill="#0" id="circle102"/>
	<circle cx="306.051" cy="651.026" r="4" fill="#0" id="circle103"/>
	<circle cx="306.051" cy="666.923" r="4" fill="#0" id="circle104"/>
	<circle cx="306.051" cy="682.821" r="4" fill="#0" id="circle105"/>
	<circle cx="307.641" cy="247.231" r="4" fill="#0" id="circle106"/>
	<circle cx="314" cy="100.974" r="4" fill="#0" id="circle107"/>
	<circle cx="314" cy="116.872" r="4" fill="#0" id="circle108"/>
	<circle cx="314" cy="940.359" r="4" fill="#0" id="circle109"/>
	<circle cx="318.769" cy="183.641" r="4" fill="#0" id="circle110"/>
	<circle cx="321.949" cy="255.179" r="4" fill="#0" id="circle111"/>
	<circle cx="329.897" cy="96.2051" r="4" fill="#0" id="circle112"/>
	<circle cx="329.897" cy="196.359" r="4" fill="#0" id="circle113"/>
	<circle cx="329.897" cy="212.256" r="4" fill="#0" id="circle114"/>
	<circle cx="329.897" cy="935.59" r="4" fill="#0" id="circle115"/>
	<circle cx="336.256" cy="247.231" r="4" fill="#0" id="circle116"/>
	<circle cx="342.615" cy="223.385" r="4" fill="#0" id="circle117"/>
	<circle cx="345.795" cy="93.0256" r="4" fill="#0" id="circle118"/>
	<circle cx="345.795" cy="927.641" r="4" fill="#0" id="circle119"/>
	<circle cx="347.385" cy="892.667" r="4" fill="#0" id="circle120"/>
	<circle cx="347.385" cy="908.564" r="4" fill="#0" id="circle121"/>
	<circle cx="358.513" cy="80.3077" r="4" fill="#0" id="circle122"/>
	<circle cx="360.103" cy="881.538" r="4" fill="#0" id="circle123"/>
	<circle cx="371.231" cy="67.5897" r="4" fill="#0" id="circle124"/>
	<circle cx="376" cy="876.769" r="4" fill="#0" id="circle125"/>
	<circle cx="387.128" cy="59.641" r="4" fill="#0" id="circle126"/>
	<circle cx="391.897" cy="876.769" r="4" fill="#0" id="circle127"/>
	<circle cx="399.846" cy="48.5128" r="4" fill="#0" id="circle128"/>
	<circle cx="406.205" cy="867.231" r="4" fill="#0" id="circle129"/>
	<circle cx="409.385" cy="29.4359" r="4" fill="#0" id="circle130"/>
	<circle cx="417.333" cy="5.58974" r="4" fill="#0" id="circle131"/>
	<circle cx="420.513" cy="875.179" r="4" fill="#0" id="circle132"/>
	<circle cx="433.231" cy="4" r="4" fill="#0" id="circle133"/>
	<circle cx="436.41" cy="876.769" r="4" fill="#0" id="circle134"/>
	<circle cx="439.59" cy="19.8974" r="4" fill="#0" id="circle135"/>
	<circle cx="442.769" cy="35.7949" r="4" fill="#0" id="circle136"/>
	<circle cx="450.718" cy="50.1026" r="4" fill="#0" id="circle137"/>
	<circle cx="450.718" cy="884.718" r="4" fill="#0" id="circle138"/>
	<circle cx="465.026" cy="892.667" r="4" fill="#0" id="circle139"/>
	<circle cx="466.615" cy="56.4615" r="4" fill="#0" id="circle140"/>
	<circle cx="479.333" cy="900.615" r="4" fill="#0" id="circle141"/>
	<circle cx="482.513" cy="56.4615" r="4" fill="#0" id="circle142"/>
	<circle cx="493.641" cy="908.564" r="4" fill="#0" id="circle143"/>
	<circle cx="496.821" cy="45.3333" r="4" fill="#0" id="circle144"/>
	<circle cx="509.538" cy="32.6154" r="4" fill="#0" id="circle145"/>
	<circle cx="509.538" cy="908.564" r="4" fill="#0" id="circle146"/>
	<circle cx="514.308" cy="383.949" r="4" fill="#0" id="circle147"/>
	<circle cx="514.308" cy="399.846" r="4" fill="#0" id="circle148"/>
	<circle cx="514.308" cy="415.744" r="4" fill="#0" id="circle149"/>
	<circle cx="517.487" cy="431.641" r="4" fill="#0" id="circle150"/>
	<circle cx="520.667" cy="921.282" r="4" fill="#0" id="circle151"/>
	<circle cx="520.667" cy="975.333" r="4" fill="#0" id="circle152"/>
	<circle cx="520.667" cy="991.231" r="4" fill="#0" id="circle153"/>
	<circle cx="522.256" cy="336.256" r="4" fill="#0" id="circle154"/>
	<circle cx="522.256" cy="352.154" r="4" fill="#0" id="circle155"/>
	<circle cx="522.256" cy="368.051" r="4" fill="#0" id="circle156"/>
	<circle cx="525.436" cy="32.6154" r="4" fill="#0" id="circle157"/>
	<circle cx="528.615" cy="935.59" r="4" fill="#0" id="circle158"/>
	<circle cx="530.205" cy="48.5128" r="4" fill="#0" id="circle159"/>
	<circle cx="530.205" cy="64.4103" r="4" fill="#0" id="circle160"/>
	<circle cx="530.205" cy="442.769" r="4" fill="#0" id="circle161"/>
	<circle cx="533.385" cy="962.615" r="4" fill="#0" id="circle162"/>
	<circle cx="536.564" cy="328.308" r="4" fill="#0" id="circle163"/>
	<circle cx="536.564" cy="996" r="4" fill="#0" id="circle164"/>
	<circle cx="538.154" cy="78.7179" r="4" fill="#0" id="circle165"/>
	<circle cx="538.154" cy="94.6154" r="4" fill="#0" id="circle166"/>
	<circle cx="538.154" cy="110.513" r="4" fill="#0" id="circle167"/>
	<circle cx="538.154" cy="224.974" r="4" fill="#0" id="circle168"/>
	<circle cx="538.154" cy="240.872" r="4" fill="#0" id="circle169"/>
	<circle cx="538.154" cy="457.077" r="4" fill="#0" id="circle170"/>
	<circle cx="538.154" cy="472.974" r="4" fill="#0" id="circle171"/>
	<circle cx="546.103" cy="124.821" r="4" fill="#0" id="circle172"/>
	<circle cx="546.103" cy="140.718" r="4" fill="#0" id="circle173"/>
	<circle cx="546.103" cy="156.615" r="4" fill="#0" id="circle174"/>
	<circle cx="546.103" cy="172.513" r="4" fill="#0" id="circle175"/>
	<circle cx="546.103" cy="188.41" r="4" fill="#0" id="circle176"/>
	<circle cx="546.103" cy="204.308" r="4" fill="#0" id="circle177"/>
	<circle cx="546.103" cy="487.282" r="4" fill="#0" id="circle178"/>
	<circle cx="546.103" cy="503.179" r="4" fill="#0" id="circle179"/>
	<circle cx="552.462" cy="328.308" r="4" fill="#0" id="circle180"/>
	<circle cx="552.462" cy="996" r="4" fill="#0" id="circle181"/>
	<circle cx="554.051" cy="242.462" r="4" fill="#0" id="circle182"/>
	<circle cx="554.051" cy="517.487" r="4" fill="#0" id="circle183"/>
	<circle cx="554.051" cy="533.385" r="4" fill="#0" id="circle184"/>
	<circle cx="554.051" cy="549.282" r="4" fill="#0" id="circle185"/>
	<circle cx="554.051" cy="565.179" r="4" fill="#0" id="circle186"/>
	<circle cx="562" cy="579.487" r="4" fill="#0" id="circle187"/>
	<circle cx="562" cy="813.179" r="4" fill="#0" id="circle188"/>
	<circle cx="562" cy="829.077" r="4" fill="#0" id="circle189"/>
	<circle cx="562" cy="844.974" r="4" fill="#0" id="circle190"/>
	<circle cx="562" cy="860.872" r="4" fill="#0" id="circle191"/>
	<circle cx="565.179" cy="318.769" r="4" fill="#0" id="circle192"/>
	<circle cx="568.359" cy="557.231" r="4" fill="#0" id="circle193"/>
	<circle cx="568.359" cy="996" r="4" fill="#0" id="circle194"/>
	<circle cx="569.949" cy="239.282" r="4" fill="#0" id="circle195"/>
	<circle cx="569.949" cy="593.795" r="4" fill="#0" id="circle196"/>
	<circle cx="569.949" cy="609.692" r="4" fill="#0" id="circle197"/>
	<circle cx="569.949" cy="797.282" r="4" fill="#0" id="circle198"/>
	<circle cx="569.949" cy="875.179" r="4" fill="#0" id="circle199"/>
	<circle cx="573.128" cy="304.462" r="4" fill="#0" id="circle200"/>
	<circle cx="577.897" cy="569.949" r="4" fill="#0" id="circle201"/>
	<circle cx="577.897" cy="624" r="4" fill="#0" id="circle202"/>
	<circle cx="577.897" cy="639.897" r="4" fill="#0" id="circle203"/>
	<circle cx="577.897" cy="655.795" r="4" fill="#0" id="circle204"/>
	<circle cx="577.897" cy="671.692" r="4" fill="#0" id="circle205"/>
	<circle cx="577.897" cy="687.59" r="4" fill="#0" id="circle206"/>
	<circle cx="577.897" cy="757.538" r="4" fill="#0" id="circle207"/>
	<circle cx="577.897" cy="773.436" r="4" fill="#0" id="circle208"/>
	<circle cx="577.897" cy="889.487" r="4" fill="#0" id="circle209"/>
	<circle cx="577.897" cy="905.385" r="4" fill="#0" id="circle210"/>
	<circle cx="582.667" cy="549.282" r="4" fill="#0" id="circle211"/>
	<circle cx="584.256" cy="247.231" r="4" fill="#0" id="circle212"/>
	<circle cx="584.256" cy="585.846" r="4" fill="#0" id="circle213"/>
	<circle cx="584.256" cy="996" r="4" fill="#0" id="circle214"/>
	<circle cx="585.846" cy="919.692" r="4" fill="#0" id="circle215"/>
	<circle cx="585.846" cy="935.59" r="4" fill="#0" id="circle216"/>
	<circle cx="585.846" cy="951.487" r="4" fill="#0" id="circle217"/>
	<circle cx="589.026" cy="302.872" r="4" fill="#0" id="circle218"/>
	<circle cx="592.205" cy="600.154" r="4" fill="#0" id="circle219"/>
	<circle cx="592.205" cy="967.385" r="4" fill="#0" id="circle220"/>
	<circle cx="593.795" cy="562" r="4" fill="#0" id="circle221"/>
	<circle cx="593.795" cy="692.359" r="4" fill="#0" id="circle222"/>
	<circle cx="593.795" cy="757.538" r="4" fill="#0" id="circle223"/>
	<circle cx="593.795" cy="983.282" r="4" fill="#0" id="circle224"/>
	<circle cx="596.974" cy="256.769" r="4" fill="#0" id="circle225"/>
	<circle cx="600.154" cy="614.462" r="4" fill="#0" id="circle226"/>
	<circle cx="601.744" cy="288.564" r="4" fill="#0" id="circle227"/>
	<circle cx="604.923" cy="630.359" r="4" fill="#0" id="circle228"/>
	<circle cx="608.103" cy="569.949" r="4" fill="#0" id="circle229"/>
	<circle cx="609.692" cy="267.897" r="4" fill="#0" id="circle230"/>
	<circle cx="609.692" cy="692.359" r="4" fill="#0" id="circle231"/>
	<circle cx="609.692" cy="749.59" r="4" fill="#0" id="circle232"/>
	<circle cx="620.821" cy="636.718" r="4" fill="#0" id="circle233"/>
	<circle cx="624" cy="573.128" r="4" fill="#0" id="circle234"/>
	<circle cx="624" cy="652.615" r="4" fill="#0" id="circle235"/>
	<circle cx="624" cy="668.513" r="4" fill="#0" id="circle236"/>
	<circle cx="624" cy="684.41" r="4" fill="#0" id="circle237"/>
	<circle cx="625.59" cy="749.59" r="4" fill="#0" id="circle238"/>
	<circle cx="639.897" cy="576.308" r="4" fill="#0" id="circle239"/>
	<circle cx="641.487" cy="749.59" r="4" fill="#0" id="circle240"/>
	<circle cx="649.436" cy="589.026" r="4" fill="#0" id="circle241"/>
	<circle cx="654.205" cy="738.462" r="4" fill="#0" id="circle242"/>
	<circle cx="657.385" cy="603.333" r="4" fill="#0" id="circle243"/>
	<circle cx="665.333" cy="725.744" r="4" fill="#0" id="circle244"/>
	<circle cx="670.103" cy="614.462" r="4" fill="#0" id="circle245"/>
	<circle cx="678.051" cy="714.615" r="4" fill="#0" id="circle246"/>
	<circle cx="681.231" cy="627.179" r="4" fill="#0" id="circle247"/>
	<circle cx="681.231" cy="643.077" r="4" fill="#0" id="circle248"/>
	<circle cx="681.231" cy="658.974" r="4" fill="#0" id="circle249"/>
	<circle cx="681.231" cy="674.872" r="4" fill="#0" id="circle250"/>
	<circle cx="681.231" cy="690.769" r="4" fill="#0" id="circle251"/>
	</g>
</svg>