<?xml version="1.0" encoding="UTF-8" standalone="no"?>
<!-- Created with CurveBenchmark -->
<svg
	xmlns:dc="http://purl.org/dc/elements/1.1/"
	xmlns:cc="http://creativecommons.org/ns#"
	xmlns:rdf="http://www.w3.org/1999/02/22-rdf-syntax-ns#"
	xmlns:svg="http://www.w3.org/2000/svg"
	xmlns="http://www.w3.org/2000/svg"
	xmlns:sodipodi="http://sodipodi.sourceforge.net/DTD/sodipodi-0.dtd"
	xmlns:inkscape="http://www.inkscape.org/namespaces/inkscape"
	width="1000"
	height="1000"
	id="svg2"
	version="1.1"
	sodipodi:docname="manifold/nncrust-fountain-03.png.txt">
<defs
	id="defs4" />
<metadata
	id="metadata7">
	<rdf:RDF>
		<cc:Work
			rdf:about="">
			<dc:format>image/svg+xml</dc:format>
			<dc:type
				rdf:resource="http://purl.org/dc/dcmitype/StillImage" />
			<dc:title></dc:title>
		</cc:Work>
	</rdf:RDF>
</metadata>
<g
	inkscape:label="Layer 1"
	inkscape:groupmode="layer"
	id="layer1">
	<path style="fill:none;stroke:red;stroke-width:1px;stroke-linecap:butt;stroke-linejoin:miter;stroke-opacity:1" d="M 354.656,179.836 362.787,186.951 z" id="boundary" inkscape:connector-curvature="0" />
	<path style="fill:none;stroke:red;stroke-width:1px;stroke-linecap:butt;stroke-linejoin:miter;stroke-opacity:1" d="M 370.918,193.049 362.787,186.951 z" id="boundary" inkscape:connector-curvature="0" />
	<path style="fill:none;stroke:red;stroke-width:1px;stroke-linecap:butt;stroke-linejoin:miter;stroke-opacity:1" d="M 362.787,171.705 371.934,166.623 z" id="boundary" inkscape:connector-curvature="0" />
	<path style="fill:none;stroke:red;stroke-width:1px;stroke-linecap:butt;stroke-linejoin:miter;stroke-opacity:1" d="M 354.656,179.836 362.787,171.705 z" id="boundary" inkscape:connector-curvature="0" />
	<path style="fill:none;stroke:red;stroke-width:1px;stroke-linecap:butt;stroke-linejoin:miter;stroke-opacity:1" d="M 354.656,179.836 466.459,27.377 z" id="boundary" inkscape:connector-curvature="0" />
	<path style="fill:none;stroke:red;stroke-width:1px;stroke-linecap:butt;stroke-linejoin:miter;stroke-opacity:1" d="M 329.246,385.148 319.082,385.148 z" id="boundary" inkscape:connector-curvature="0" />
	<path style="fill:none;stroke:red;stroke-width:1px;stroke-linecap:butt;stroke-linejoin:miter;stroke-opacity:1" d="M 329.246,385.148 339.41,385.148 z" id="boundary" inkscape:connector-curvature="0" />
	<path style="fill:none;stroke:red;stroke-width:1px;stroke-linecap:butt;stroke-linejoin:miter;stroke-opacity:1" d="M 349.574,385.148 359.738,385.148 z" id="boundary" inkscape:connector-curvature="0" />
	<path style="fill:none;stroke:red;stroke-width:1px;stroke-linecap:butt;stroke-linejoin:miter;stroke-opacity:1" d="M 369.902,385.148 359.738,385.148 z" id="boundary" inkscape:connector-curvature="0" />
	<path style="fill:none;stroke:red;stroke-width:1px;stroke-linecap:butt;stroke-linejoin:miter;stroke-opacity:1" d="M 349.574,385.148 339.41,385.148 z" id="boundary" inkscape:connector-curvature="0" />
	<path style="fill:none;stroke:red;stroke-width:1px;stroke-linecap:butt;stroke-linejoin:miter;stroke-opacity:1" d="M 308.918,388.197 319.082,385.148 z" id="boundary" inkscape:connector-curvature="0" />
	<path style="fill:none;stroke:red;stroke-width:1px;stroke-linecap:butt;stroke-linejoin:miter;stroke-opacity:1" d="M 371.934,166.623 381.082,161.541 z" id="boundary" inkscape:connector-curvature="0" />
	<path style="fill:none;stroke:red;stroke-width:1px;stroke-linecap:butt;stroke-linejoin:miter;stroke-opacity:1" d="M 381.082,161.541 391.246,161.541 z" id="boundary" inkscape:connector-curvature="0" />
	<path style="fill:none;stroke:red;stroke-width:1px;stroke-linecap:butt;stroke-linejoin:miter;stroke-opacity:1" d="M 401.41,161.541 391.246,161.541 z" id="boundary" inkscape:connector-curvature="0" />
	<path style="fill:none;stroke:red;stroke-width:1px;stroke-linecap:butt;stroke-linejoin:miter;stroke-opacity:1" d="M 411.574,161.541 401.41,161.541 z" id="boundary" inkscape:connector-curvature="0" />
	<path style="fill:none;stroke:red;stroke-width:1px;stroke-linecap:butt;stroke-linejoin:miter;stroke-opacity:1" d="M 380.066,198.131 386.164,206.262 z" id="boundary" inkscape:connector-curvature="0" />
	<path style="fill:none;stroke:red;stroke-width:1px;stroke-linecap:butt;stroke-linejoin:miter;stroke-opacity:1" d="M 370.918,193.049 380.066,198.131 z" id="boundary" inkscape:connector-curvature="0" />
	<path style="fill:none;stroke:red;stroke-width:1px;stroke-linecap:butt;stroke-linejoin:miter;stroke-opacity:1" d="M 396.328,210.328 386.164,206.262 z" id="boundary" inkscape:connector-curvature="0" />
	<path style="fill:none;stroke:red;stroke-width:1px;stroke-linecap:butt;stroke-linejoin:miter;stroke-opacity:1" d="M 413.607,222.525 403.443,218.459 z" id="boundary" inkscape:connector-curvature="0" />
	<path style="fill:none;stroke:red;stroke-width:1px;stroke-linecap:butt;stroke-linejoin:miter;stroke-opacity:1" d="M 403.443,218.459 396.328,210.328 z" id="boundary" inkscape:connector-curvature="0" />
	<path style="fill:none;stroke:red;stroke-width:1px;stroke-linecap:butt;stroke-linejoin:miter;stroke-opacity:1" d="M 380.066,385.148 369.902,385.148 z" id="boundary" inkscape:connector-curvature="0" />
	<path style="fill:none;stroke:red;stroke-width:1px;stroke-linecap:butt;stroke-linejoin:miter;stroke-opacity:1" d="M 423.77,223.541 413.607,222.525 z" id="boundary" inkscape:connector-curvature="0" />
	<path style="fill:none;stroke:red;stroke-width:1px;stroke-linecap:butt;stroke-linejoin:miter;stroke-opacity:1" d="M 214.393,436.984 224.557,431.902 z" id="boundary" inkscape:connector-curvature="0" />
	<path style="fill:none;stroke:red;stroke-width:1px;stroke-linecap:butt;stroke-linejoin:miter;stroke-opacity:1" d="M 234.721,426.82 224.557,431.902 z" id="boundary" inkscape:connector-curvature="0" />
	<path style="fill:none;stroke:red;stroke-width:1px;stroke-linecap:butt;stroke-linejoin:miter;stroke-opacity:1" d="M 244.885,421.738 249.967,411.574 z" id="boundary" inkscape:connector-curvature="0" />
	<path style="fill:none;stroke:red;stroke-width:1px;stroke-linecap:butt;stroke-linejoin:miter;stroke-opacity:1" d="M 249.967,411.574 260.131,406.492 z" id="boundary" inkscape:connector-curvature="0" />
	<path style="fill:none;stroke:red;stroke-width:1px;stroke-linecap:butt;stroke-linejoin:miter;stroke-opacity:1" d="M 244.885,421.738 234.721,426.82 z" id="boundary" inkscape:connector-curvature="0" />
	<path style="fill:none;stroke:red;stroke-width:1px;stroke-linecap:butt;stroke-linejoin:miter;stroke-opacity:1" d="M 268.262,398.361 260.131,406.492 z" id="boundary" inkscape:connector-curvature="0" />
	<path style="fill:none;stroke:red;stroke-width:1px;stroke-linecap:butt;stroke-linejoin:miter;stroke-opacity:1" d="M 181.869,474.59 181.869,464.426 z" id="boundary" inkscape:connector-curvature="0" />
	<path style="fill:none;stroke:red;stroke-width:1px;stroke-linecap:butt;stroke-linejoin:miter;stroke-opacity:1" d="M 181.869,464.426 186.951,454.262 z" id="boundary" inkscape:connector-curvature="0" />
	<path style="fill:none;stroke:red;stroke-width:1px;stroke-linecap:butt;stroke-linejoin:miter;stroke-opacity:1" d="M 195.082,446.131 204.23,441.049 z" id="boundary" inkscape:connector-curvature="0" />
	<path style="fill:none;stroke:red;stroke-width:1px;stroke-linecap:butt;stroke-linejoin:miter;stroke-opacity:1" d="M 214.393,436.984 204.23,441.049 z" id="boundary" inkscape:connector-curvature="0" />
	<path style="fill:none;stroke:red;stroke-width:1px;stroke-linecap:butt;stroke-linejoin:miter;stroke-opacity:1" d="M 186.951,454.262 195.082,446.131 z" id="boundary" inkscape:connector-curvature="0" />
	<path style="fill:none;stroke:red;stroke-width:1px;stroke-linecap:butt;stroke-linejoin:miter;stroke-opacity:1" d="M 390.23,385.148 380.066,385.148 z" id="boundary" inkscape:connector-curvature="0" />
	<path style="fill:none;stroke:red;stroke-width:1px;stroke-linecap:butt;stroke-linejoin:miter;stroke-opacity:1" d="M 390.23,385.148 400.393,385.148 z" id="boundary" inkscape:connector-curvature="0" />
	<path style="fill:none;stroke:red;stroke-width:1px;stroke-linecap:butt;stroke-linejoin:miter;stroke-opacity:1" d="M 410.557,385.148 400.393,385.148 z" id="boundary" inkscape:connector-curvature="0" />
	<path style="fill:none;stroke:red;stroke-width:1px;stroke-linecap:butt;stroke-linejoin:miter;stroke-opacity:1" d="M 420.721,385.148 410.557,385.148 z" id="boundary" inkscape:connector-curvature="0" />
	<path style="fill:none;stroke:red;stroke-width:1px;stroke-linecap:butt;stroke-linejoin:miter;stroke-opacity:1" d="M 278.426,393.279 268.262,398.361 z" id="boundary" inkscape:connector-curvature="0" />
	<path style="fill:none;stroke:red;stroke-width:1px;stroke-linecap:butt;stroke-linejoin:miter;stroke-opacity:1" d="M 308.918,388.197 298.754,390.23 z" id="boundary" inkscape:connector-curvature="0" />
	<path style="fill:none;stroke:red;stroke-width:1px;stroke-linecap:butt;stroke-linejoin:miter;stroke-opacity:1" d="M 298.754,390.23 288.59,390.23 z" id="boundary" inkscape:connector-curvature="0" />
	<path style="fill:none;stroke:red;stroke-width:1px;stroke-linecap:butt;stroke-linejoin:miter;stroke-opacity:1" d="M 278.426,393.279 288.59,390.23 z" id="boundary" inkscape:connector-curvature="0" />
	<path style="fill:none;stroke:red;stroke-width:1px;stroke-linecap:butt;stroke-linejoin:miter;stroke-opacity:1" d="M 411.574,161.541 421.738,161.541 z" id="boundary" inkscape:connector-curvature="0" />
	<path style="fill:none;stroke:red;stroke-width:1px;stroke-linecap:butt;stroke-linejoin:miter;stroke-opacity:1" d="M 466.459,37.541 466.459,47.7049 z" id="boundary" inkscape:connector-curvature="0" />
	<path style="fill:none;stroke:red;stroke-width:1px;stroke-linecap:butt;stroke-linejoin:miter;stroke-opacity:1" d="M 466.459,37.541 466.459,27.377 z" id="boundary" inkscape:connector-curvature="0" />
	<path style="fill:none;stroke:red;stroke-width:1px;stroke-linecap:butt;stroke-linejoin:miter;stroke-opacity:1" d="M 466.459,57.8689 466.459,68.0328 z" id="boundary" inkscape:connector-curvature="0" />
	<path style="fill:none;stroke:red;stroke-width:1px;stroke-linecap:butt;stroke-linejoin:miter;stroke-opacity:1" d="M 466.459,57.8689 466.459,47.7049 z" id="boundary" inkscape:connector-curvature="0" />
	<path style="fill:none;stroke:red;stroke-width:1px;stroke-linecap:butt;stroke-linejoin:miter;stroke-opacity:1" d="M 466.459,68.0328 466.459,78.1967 z" id="boundary" inkscape:connector-curvature="0" />
	<path style="fill:none;stroke:red;stroke-width:1px;stroke-linecap:butt;stroke-linejoin:miter;stroke-opacity:1" d="M 441.049,156.459 451.213,154.426 z" id="boundary" inkscape:connector-curvature="0" />
	<path style="fill:none;stroke:red;stroke-width:1px;stroke-linecap:butt;stroke-linejoin:miter;stroke-opacity:1" d="M 431.902,161.541 441.049,156.459 z" id="boundary" inkscape:connector-curvature="0" />
	<path style="fill:none;stroke:red;stroke-width:1px;stroke-linecap:butt;stroke-linejoin:miter;stroke-opacity:1" d="M 461.377,144.262 451.213,154.426 z" id="boundary" inkscape:connector-curvature="0" />
	<path style="fill:none;stroke:red;stroke-width:1px;stroke-linecap:butt;stroke-linejoin:miter;stroke-opacity:1" d="M 466.459,129.016 461.377,144.262 z" id="boundary" inkscape:connector-curvature="0" />
	<path style="fill:none;stroke:red;stroke-width:1px;stroke-linecap:butt;stroke-linejoin:miter;stroke-opacity:1" d="M 466.459,88.3607 466.459,98.5246 z" id="boundary" inkscape:connector-curvature="0" />
	<path style="fill:none;stroke:red;stroke-width:1px;stroke-linecap:butt;stroke-linejoin:miter;stroke-opacity:1" d="M 466.459,88.3607 466.459,78.1967 z" id="boundary" inkscape:connector-curvature="0" />
	<path style="fill:none;stroke:red;stroke-width:1px;stroke-linecap:butt;stroke-linejoin:miter;stroke-opacity:1" d="M 466.459,98.5246 466.459,108.689 z" id="boundary" inkscape:connector-curvature="0" />
	<path style="fill:none;stroke:red;stroke-width:1px;stroke-linecap:butt;stroke-linejoin:miter;stroke-opacity:1" d="M 502.033,7.04918 512.197,4 z" id="boundary" inkscape:connector-curvature="0" />
	<path style="fill:none;stroke:red;stroke-width:1px;stroke-linecap:butt;stroke-linejoin:miter;stroke-opacity:1" d="M 502.033,7.04918 491.869,9.08197 z" id="boundary" inkscape:connector-curvature="0" />
	<path style="fill:none;stroke:red;stroke-width:1px;stroke-linecap:butt;stroke-linejoin:miter;stroke-opacity:1" d="M 481.705,12.1311 491.869,9.08197 z" id="boundary" inkscape:connector-curvature="0" />
	<path style="fill:none;stroke:red;stroke-width:1px;stroke-linecap:butt;stroke-linejoin:miter;stroke-opacity:1" d="M 466.459,118.852 466.459,108.689 z" id="boundary" inkscape:connector-curvature="0" />
	<path style="fill:none;stroke:red;stroke-width:1px;stroke-linecap:butt;stroke-linejoin:miter;stroke-opacity:1" d="M 466.459,129.016 466.459,118.852 z" id="boundary" inkscape:connector-curvature="0" />
	<path style="fill:none;stroke:red;stroke-width:1px;stroke-linecap:butt;stroke-linejoin:miter;stroke-opacity:1" d="M 466.459,27.377 471.541,17.2131 z" id="boundary" inkscape:connector-curvature="0" />
	<path style="fill:none;stroke:red;stroke-width:1px;stroke-linecap:butt;stroke-linejoin:miter;stroke-opacity:1" d="M 471.541,17.2131 481.705,12.1311 z" id="boundary" inkscape:connector-curvature="0" />
	<path style="fill:none;stroke:red;stroke-width:1px;stroke-linecap:butt;stroke-linejoin:miter;stroke-opacity:1" d="M 421.738,161.541 431.902,161.541 z" id="boundary" inkscape:connector-curvature="0" />
	<path style="fill:none;stroke:red;stroke-width:1px;stroke-linecap:butt;stroke-linejoin:miter;stroke-opacity:1" d="M 444.098,223.541 433.934,223.541 z" id="boundary" inkscape:connector-curvature="0" />
	<path style="fill:none;stroke:red;stroke-width:1px;stroke-linecap:butt;stroke-linejoin:miter;stroke-opacity:1" d="M 423.77,223.541 433.934,223.541 z" id="boundary" inkscape:connector-curvature="0" />
	<path style="fill:none;stroke:red;stroke-width:1px;stroke-linecap:butt;stroke-linejoin:miter;stroke-opacity:1" d="M 451.213,332.295 446.131,347.541 z" id="boundary" inkscape:connector-curvature="0" />
	<path style="fill:none;stroke:red;stroke-width:1px;stroke-linecap:butt;stroke-linejoin:miter;stroke-opacity:1" d="M 440.033,380.066 430.885,385.148 z" id="boundary" inkscape:connector-curvature="0" />
	<path style="fill:none;stroke:red;stroke-width:1px;stroke-linecap:butt;stroke-linejoin:miter;stroke-opacity:1" d="M 441.049,367.869 440.033,380.066 z" id="boundary" inkscape:connector-curvature="0" />
	<path style="fill:none;stroke:red;stroke-width:1px;stroke-linecap:butt;stroke-linejoin:miter;stroke-opacity:1" d="M 446.131,347.541 446.131,357.705 z" id="boundary" inkscape:connector-curvature="0" />
	<path style="fill:none;stroke:red;stroke-width:1px;stroke-linecap:butt;stroke-linejoin:miter;stroke-opacity:1" d="M 446.131,357.705 441.049,367.869 z" id="boundary" inkscape:connector-curvature="0" />
	<path style="fill:none;stroke:red;stroke-width:1px;stroke-linecap:butt;stroke-linejoin:miter;stroke-opacity:1" d="M 430.885,385.148 420.721,385.148 z" id="boundary" inkscape:connector-curvature="0" />
	<path style="fill:none;stroke:red;stroke-width:1px;stroke-linecap:butt;stroke-linejoin:miter;stroke-opacity:1" d="M 444.098,223.541 453.246,228.623 z" id="boundary" inkscape:connector-curvature="0" />
	<path style="fill:none;stroke:red;stroke-width:1px;stroke-linecap:butt;stroke-linejoin:miter;stroke-opacity:1" d="M 453.246,228.623 461.377,234.721 z" id="boundary" inkscape:connector-curvature="0" />
	<path style="fill:none;stroke:red;stroke-width:1px;stroke-linecap:butt;stroke-linejoin:miter;stroke-opacity:1" d="M 466.459,243.869 466.459,254.033 z" id="boundary" inkscape:connector-curvature="0" />
	<path style="fill:none;stroke:red;stroke-width:1px;stroke-linecap:butt;stroke-linejoin:miter;stroke-opacity:1" d="M 461.377,234.721 466.459,243.869 z" id="boundary" inkscape:connector-curvature="0" />
	<path style="fill:none;stroke:red;stroke-width:1px;stroke-linecap:butt;stroke-linejoin:miter;stroke-opacity:1" d="M 466.459,264.197 466.459,254.033 z" id="boundary" inkscape:connector-curvature="0" />
	<path style="fill:none;stroke:red;stroke-width:1px;stroke-linecap:butt;stroke-linejoin:miter;stroke-opacity:1" d="M 466.459,264.197 466.459,274.361 z" id="boundary" inkscape:connector-curvature="0" />
	<path style="fill:none;stroke:red;stroke-width:1px;stroke-linecap:butt;stroke-linejoin:miter;stroke-opacity:1" d="M 456.295,317.049 451.213,332.295 z" id="boundary" inkscape:connector-curvature="0" />
	<path style="fill:none;stroke:red;stroke-width:1px;stroke-linecap:butt;stroke-linejoin:miter;stroke-opacity:1" d="M 466.459,274.361 466.459,284.525 z" id="boundary" inkscape:connector-curvature="0" />
	<path style="fill:none;stroke:red;stroke-width:1px;stroke-linecap:butt;stroke-linejoin:miter;stroke-opacity:1" d="M 466.459,284.525 461.377,301.803 z" id="boundary" inkscape:connector-curvature="0" />
	<path style="fill:none;stroke:red;stroke-width:1px;stroke-linecap:butt;stroke-linejoin:miter;stroke-opacity:1" d="M 461.377,301.803 456.295,317.049 z" id="boundary" inkscape:connector-curvature="0" />
	<path style="fill:none;stroke:red;stroke-width:1px;stroke-linecap:butt;stroke-linejoin:miter;stroke-opacity:1" d="M 17.2131,583.344 25.3443,575.213 z" id="boundary" inkscape:connector-curvature="0" />
	<path style="fill:none;stroke:red;stroke-width:1px;stroke-linecap:butt;stroke-linejoin:miter;stroke-opacity:1" d="M 25.3443,575.213 35.5082,570.131 z" id="boundary" inkscape:connector-curvature="0" />
	<path style="fill:none;stroke:red;stroke-width:1px;stroke-linecap:butt;stroke-linejoin:miter;stroke-opacity:1" d="M 35.5082,570.131 43.6393,563.016 z" id="boundary" inkscape:connector-curvature="0" />
	<path style="fill:none;stroke:red;stroke-width:1px;stroke-linecap:butt;stroke-linejoin:miter;stroke-opacity:1" d="M 43.6393,563.016 52.7869,557.934 z" id="boundary" inkscape:connector-curvature="0" />
	<path style="fill:none;stroke:red;stroke-width:1px;stroke-linecap:butt;stroke-linejoin:miter;stroke-opacity:1" d="M 60.918,549.803 52.7869,557.934 z" id="boundary" inkscape:connector-curvature="0" />
	<path style="fill:none;stroke:red;stroke-width:1px;stroke-linecap:butt;stroke-linejoin:miter;stroke-opacity:1" d="M 4,611.803 4,601.639 z" id="boundary" inkscape:connector-curvature="0" />
	<path style="fill:none;stroke:red;stroke-width:1px;stroke-linecap:butt;stroke-linejoin:miter;stroke-opacity:1" d="M 4,601.639 9.08197,591.475 z" id="boundary" inkscape:connector-curvature="0" />
	<path style="fill:none;stroke:red;stroke-width:1px;stroke-linecap:butt;stroke-linejoin:miter;stroke-opacity:1" d="M 4,621.967 4,611.803 z" id="boundary" inkscape:connector-curvature="0" />
	<path style="fill:none;stroke:red;stroke-width:1px;stroke-linecap:butt;stroke-linejoin:miter;stroke-opacity:1" d="M 9.08197,591.475 17.2131,583.344 z" id="boundary" inkscape:connector-curvature="0" />
	<path style="fill:none;stroke:red;stroke-width:1px;stroke-linecap:butt;stroke-linejoin:miter;stroke-opacity:1" d="M 4,632.131 4,621.967 z" id="boundary" inkscape:connector-curvature="0" />
	<path style="fill:none;stroke:red;stroke-width:1px;stroke-linecap:butt;stroke-linejoin:miter;stroke-opacity:1" d="M 111.738,524.393 121.902,519.311 z" id="boundary" inkscape:connector-curvature="0" />
	<path style="fill:none;stroke:red;stroke-width:1px;stroke-linecap:butt;stroke-linejoin:miter;stroke-opacity:1" d="M 121.902,519.311 132.066,517.279 z" id="boundary" inkscape:connector-curvature="0" />
	<path style="fill:none;stroke:red;stroke-width:1px;stroke-linecap:butt;stroke-linejoin:miter;stroke-opacity:1" d="M 141.213,512.197 132.066,517.279 z" id="boundary" inkscape:connector-curvature="0" />
	<path style="fill:none;stroke:red;stroke-width:1px;stroke-linecap:butt;stroke-linejoin:miter;stroke-opacity:1" d="M 150.361,507.115 141.213,512.197 z" id="boundary" inkscape:connector-curvature="0" />
	<path style="fill:none;stroke:red;stroke-width:1px;stroke-linecap:butt;stroke-linejoin:miter;stroke-opacity:1" d="M 101.574,529.475 111.738,524.393 z" id="boundary" inkscape:connector-curvature="0" />
	<path style="fill:none;stroke:red;stroke-width:1px;stroke-linecap:butt;stroke-linejoin:miter;stroke-opacity:1" d="M 71.082,544.721 60.918,549.803 z" id="boundary" inkscape:connector-curvature="0" />
	<path style="fill:none;stroke:red;stroke-width:1px;stroke-linecap:butt;stroke-linejoin:miter;stroke-opacity:1" d="M 81.2459,539.639 91.4098,534.557 z" id="boundary" inkscape:connector-curvature="0" />
	<path style="fill:none;stroke:red;stroke-width:1px;stroke-linecap:butt;stroke-linejoin:miter;stroke-opacity:1" d="M 101.574,529.475 91.4098,534.557 z" id="boundary" inkscape:connector-curvature="0" />
	<path style="fill:none;stroke:red;stroke-width:1px;stroke-linecap:butt;stroke-linejoin:miter;stroke-opacity:1" d="M 81.2459,539.639 71.082,544.721 z" id="boundary" inkscape:connector-curvature="0" />
	<path style="fill:none;stroke:red;stroke-width:1px;stroke-linecap:butt;stroke-linejoin:miter;stroke-opacity:1" d="M 4,652.459 4,642.295 z" id="boundary" inkscape:connector-curvature="0" />
	<path style="fill:none;stroke:red;stroke-width:1px;stroke-linecap:butt;stroke-linejoin:miter;stroke-opacity:1" d="M 9.08197,661.607 4,652.459 z" id="boundary" inkscape:connector-curvature="0" />
	<path style="fill:none;stroke:red;stroke-width:1px;stroke-linecap:butt;stroke-linejoin:miter;stroke-opacity:1" d="M 4,642.295 4,632.131 z" id="boundary" inkscape:connector-curvature="0" />
	<path style="fill:none;stroke:red;stroke-width:1px;stroke-linecap:butt;stroke-linejoin:miter;stroke-opacity:1" d="M 20.2623,678.885 14.1639,670.754 z" id="boundary" inkscape:connector-curvature="0" />
	<path style="fill:none;stroke:red;stroke-width:1px;stroke-linecap:butt;stroke-linejoin:miter;stroke-opacity:1" d="M 28.3934,686 20.2623,678.885 z" id="boundary" inkscape:connector-curvature="0" />
	<path style="fill:none;stroke:red;stroke-width:1px;stroke-linecap:butt;stroke-linejoin:miter;stroke-opacity:1" d="M 14.1639,670.754 9.08197,661.607 z" id="boundary" inkscape:connector-curvature="0" />
	<path style="fill:none;stroke:red;stroke-width:1px;stroke-linecap:butt;stroke-linejoin:miter;stroke-opacity:1" d="M 28.3934,686 35.5082,694.131 z" id="boundary" inkscape:connector-curvature="0" />
	<path style="fill:none;stroke:red;stroke-width:1px;stroke-linecap:butt;stroke-linejoin:miter;stroke-opacity:1" d="M 52.7869,706.328 43.6393,701.246 z" id="boundary" inkscape:connector-curvature="0" />
	<path style="fill:none;stroke:red;stroke-width:1px;stroke-linecap:butt;stroke-linejoin:miter;stroke-opacity:1" d="M 43.6393,701.246 35.5082,694.131 z" id="boundary" inkscape:connector-curvature="0" />
	<path style="fill:none;stroke:red;stroke-width:1px;stroke-linecap:butt;stroke-linejoin:miter;stroke-opacity:1" d="M 61.9344,711.41 52.7869,706.328 z" id="boundary" inkscape:connector-curvature="0" />
	<path style="fill:none;stroke:red;stroke-width:1px;stroke-linecap:butt;stroke-linejoin:miter;stroke-opacity:1" d="M 80.2295,721.574 71.082,716.492 z" id="boundary" inkscape:connector-curvature="0" />
	<path style="fill:none;stroke:red;stroke-width:1px;stroke-linecap:butt;stroke-linejoin:miter;stroke-opacity:1" d="M 90.3934,721.574 80.2295,721.574 z" id="boundary" inkscape:connector-curvature="0" />
	<path style="fill:none;stroke:red;stroke-width:1px;stroke-linecap:butt;stroke-linejoin:miter;stroke-opacity:1" d="M 90.3934,721.574 99.541,726.656 z" id="boundary" inkscape:connector-curvature="0" />
	<path style="fill:none;stroke:red;stroke-width:1px;stroke-linecap:butt;stroke-linejoin:miter;stroke-opacity:1" d="M 108.689,731.738 99.541,726.656 z" id="boundary" inkscape:connector-curvature="0" />
	<path style="fill:none;stroke:red;stroke-width:1px;stroke-linecap:butt;stroke-linejoin:miter;stroke-opacity:1" d="M 118.852,735.803 108.689,731.738 z" id="boundary" inkscape:connector-curvature="0" />
	<path style="fill:none;stroke:red;stroke-width:1px;stroke-linecap:butt;stroke-linejoin:miter;stroke-opacity:1" d="M 71.082,716.492 61.9344,711.41 z" id="boundary" inkscape:connector-curvature="0" />
	<path style="fill:none;stroke:red;stroke-width:1px;stroke-linecap:butt;stroke-linejoin:miter;stroke-opacity:1" d="M 118.852,735.803 128,740.885 z" id="boundary" inkscape:connector-curvature="0" />
	<path style="fill:none;stroke:red;stroke-width:1px;stroke-linecap:butt;stroke-linejoin:miter;stroke-opacity:1" d="M 138.164,744.951 128,740.885 z" id="boundary" inkscape:connector-curvature="0" />
	<path style="fill:none;stroke:red;stroke-width:1px;stroke-linecap:butt;stroke-linejoin:miter;stroke-opacity:1" d="M 157.475,754.098 147.311,750.033 z" id="boundary" inkscape:connector-curvature="0" />
	<path style="fill:none;stroke:red;stroke-width:1px;stroke-linecap:butt;stroke-linejoin:miter;stroke-opacity:1" d="M 147.311,750.033 138.164,744.951 z" id="boundary" inkscape:connector-curvature="0" />
	<path style="fill:none;stroke:red;stroke-width:1px;stroke-linecap:butt;stroke-linejoin:miter;stroke-opacity:1" d="M 150.361,507.115 159.508,502.033 z" id="boundary" inkscape:connector-curvature="0" />
	<path style="fill:none;stroke:red;stroke-width:1px;stroke-linecap:butt;stroke-linejoin:miter;stroke-opacity:1" d="M 166.623,759.18 157.475,754.098 z" id="boundary" inkscape:connector-curvature="0" />
	<path style="fill:none;stroke:red;stroke-width:1px;stroke-linecap:butt;stroke-linejoin:miter;stroke-opacity:1" d="M 159.508,502.033 168.656,496.951 z" id="boundary" inkscape:connector-curvature="0" />
	<path style="fill:none;stroke:red;stroke-width:1px;stroke-linecap:butt;stroke-linejoin:miter;stroke-opacity:1" d="M 181.869,474.59 176.787,489.836 z" id="boundary" inkscape:connector-curvature="0" />
	<path style="fill:none;stroke:red;stroke-width:1px;stroke-linecap:butt;stroke-linejoin:miter;stroke-opacity:1" d="M 176.787,489.836 168.656,496.951 z" id="boundary" inkscape:connector-curvature="0" />
	<path style="fill:none;stroke:red;stroke-width:1px;stroke-linecap:butt;stroke-linejoin:miter;stroke-opacity:1" d="M 174.754,766.295 183.902,771.377 z" id="boundary" inkscape:connector-curvature="0" />
	<path style="fill:none;stroke:red;stroke-width:1px;stroke-linecap:butt;stroke-linejoin:miter;stroke-opacity:1" d="M 174.754,766.295 166.623,759.18 z" id="boundary" inkscape:connector-curvature="0" />
	<path style="fill:none;stroke:red;stroke-width:1px;stroke-linecap:butt;stroke-linejoin:miter;stroke-opacity:1" d="M 213.377,784.59 203.213,780.525 z" id="boundary" inkscape:connector-curvature="0" />
	<path style="fill:none;stroke:red;stroke-width:1px;stroke-linecap:butt;stroke-linejoin:miter;stroke-opacity:1" d="M 203.213,780.525 194.066,775.443 z" id="boundary" inkscape:connector-curvature="0" />
	<path style="fill:none;stroke:red;stroke-width:1px;stroke-linecap:butt;stroke-linejoin:miter;stroke-opacity:1" d="M 213.377,784.59 222.525,789.672 z" id="boundary" inkscape:connector-curvature="0" />
	<path style="fill:none;stroke:red;stroke-width:1px;stroke-linecap:butt;stroke-linejoin:miter;stroke-opacity:1" d="M 183.902,771.377 194.066,775.443 z" id="boundary" inkscape:connector-curvature="0" />
	<path style="fill:none;stroke:red;stroke-width:1px;stroke-linecap:butt;stroke-linejoin:miter;stroke-opacity:1" d="M 222.525,789.672 232.689,792.721 z" id="boundary" inkscape:connector-curvature="0" />
	<path style="fill:none;stroke:red;stroke-width:1px;stroke-linecap:butt;stroke-linejoin:miter;stroke-opacity:1" d="M 232.689,792.721 241.836,797.803 z" id="boundary" inkscape:connector-curvature="0" />
	<path style="fill:none;stroke:red;stroke-width:1px;stroke-linecap:butt;stroke-linejoin:miter;stroke-opacity:1" d="M 241.836,797.803 252,797.803 z" id="boundary" inkscape:connector-curvature="0" />
	<path style="fill:none;stroke:red;stroke-width:1px;stroke-linecap:butt;stroke-linejoin:miter;stroke-opacity:1" d="M 252,797.803 261.148,802.885 z" id="boundary" inkscape:connector-curvature="0" />
	<path style="fill:none;stroke:red;stroke-width:1px;stroke-linecap:butt;stroke-linejoin:miter;stroke-opacity:1" d="M 271.311,802.885 261.148,802.885 z" id="boundary" inkscape:connector-curvature="0" />
	<path style="fill:none;stroke:red;stroke-width:1px;stroke-linecap:butt;stroke-linejoin:miter;stroke-opacity:1" d="M 271.311,802.885 281.475,806.951 z" id="boundary" inkscape:connector-curvature="0" />
	<path style="fill:none;stroke:red;stroke-width:1px;stroke-linecap:butt;stroke-linejoin:miter;stroke-opacity:1" d="M 291.639,807.967 281.475,806.951 z" id="boundary" inkscape:connector-curvature="0" />
	<path style="fill:none;stroke:red;stroke-width:1px;stroke-linecap:butt;stroke-linejoin:miter;stroke-opacity:1" d="M 454.262,807.967 444.098,807.967 z" id="boundary" inkscape:connector-curvature="0" />
	<path style="fill:none;stroke:red;stroke-width:1px;stroke-linecap:butt;stroke-linejoin:miter;stroke-opacity:1" d="M 494.918,806.951 505.082,802.885 z" id="boundary" inkscape:connector-curvature="0" />
	<path style="fill:none;stroke:red;stroke-width:1px;stroke-linecap:butt;stroke-linejoin:miter;stroke-opacity:1" d="M 505.082,802.885 515.246,802.885 z" id="boundary" inkscape:connector-curvature="0" />
	<path style="fill:none;stroke:red;stroke-width:1px;stroke-linecap:butt;stroke-linejoin:miter;stroke-opacity:1" d="M 515.246,802.885 525.41,802.885 z" id="boundary" inkscape:connector-curvature="0" />
	<path style="fill:none;stroke:red;stroke-width:1px;stroke-linecap:butt;stroke-linejoin:miter;stroke-opacity:1" d="M 301.803,807.967 291.639,807.967 z" id="boundary" inkscape:connector-curvature="0" />
	<path style="fill:none;stroke:red;stroke-width:1px;stroke-linecap:butt;stroke-linejoin:miter;stroke-opacity:1" d="M 322.131,807.967 311.967,807.967 z" id="boundary" inkscape:connector-curvature="0" />
	<path style="fill:none;stroke:red;stroke-width:1px;stroke-linecap:butt;stroke-linejoin:miter;stroke-opacity:1" d="M 332.295,807.967 322.131,807.967 z" id="boundary" inkscape:connector-curvature="0" />
	<path style="fill:none;stroke:red;stroke-width:1px;stroke-linecap:butt;stroke-linejoin:miter;stroke-opacity:1" d="M 311.967,807.967 301.803,807.967 z" id="boundary" inkscape:connector-curvature="0" />
	<path style="fill:none;stroke:red;stroke-width:1px;stroke-linecap:butt;stroke-linejoin:miter;stroke-opacity:1" d="M 352.623,807.967 342.459,807.967 z" id="boundary" inkscape:connector-curvature="0" />
	<path style="fill:none;stroke:red;stroke-width:1px;stroke-linecap:butt;stroke-linejoin:miter;stroke-opacity:1" d="M 362.787,807.967 352.623,807.967 z" id="boundary" inkscape:connector-curvature="0" />
	<path style="fill:none;stroke:red;stroke-width:1px;stroke-linecap:butt;stroke-linejoin:miter;stroke-opacity:1" d="M 372.951,807.967 362.787,807.967 z" id="boundary" inkscape:connector-curvature="0" />
	<path style="fill:none;stroke:red;stroke-width:1px;stroke-linecap:butt;stroke-linejoin:miter;stroke-opacity:1" d="M 342.459,807.967 332.295,807.967 z" id="boundary" inkscape:connector-curvature="0" />
	<path style="fill:none;stroke:red;stroke-width:1px;stroke-linecap:butt;stroke-linejoin:miter;stroke-opacity:1" d="M 393.279,807.967 383.115,807.967 z" id="boundary" inkscape:connector-curvature="0" />
	<path style="fill:none;stroke:red;stroke-width:1px;stroke-linecap:butt;stroke-linejoin:miter;stroke-opacity:1" d="M 413.607,807.967 403.443,807.967 z" id="boundary" inkscape:connector-curvature="0" />
	<path style="fill:none;stroke:red;stroke-width:1px;stroke-linecap:butt;stroke-linejoin:miter;stroke-opacity:1" d="M 403.443,807.967 393.279,807.967 z" id="boundary" inkscape:connector-curvature="0" />
	<path style="fill:none;stroke:red;stroke-width:1px;stroke-linecap:butt;stroke-linejoin:miter;stroke-opacity:1" d="M 423.77,807.967 413.607,807.967 z" id="boundary" inkscape:connector-curvature="0" />
	<path style="fill:none;stroke:red;stroke-width:1px;stroke-linecap:butt;stroke-linejoin:miter;stroke-opacity:1" d="M 383.115,807.967 372.951,807.967 z" id="boundary" inkscape:connector-curvature="0" />
	<path style="fill:none;stroke:red;stroke-width:1px;stroke-linecap:butt;stroke-linejoin:miter;stroke-opacity:1" d="M 433.934,807.967 423.77,807.967 z" id="boundary" inkscape:connector-curvature="0" />
	<path style="fill:none;stroke:red;stroke-width:1px;stroke-linecap:butt;stroke-linejoin:miter;stroke-opacity:1" d="M 444.098,807.967 433.934,807.967 z" id="boundary" inkscape:connector-curvature="0" />
	<path style="fill:none;stroke:red;stroke-width:1px;stroke-linecap:butt;stroke-linejoin:miter;stroke-opacity:1" d="M 474.59,807.967 464.426,807.967 z" id="boundary" inkscape:connector-curvature="0" />
	<path style="fill:none;stroke:red;stroke-width:1px;stroke-linecap:butt;stroke-linejoin:miter;stroke-opacity:1" d="M 484.754,807.967 474.59,807.967 z" id="boundary" inkscape:connector-curvature="0" />
	<path style="fill:none;stroke:red;stroke-width:1px;stroke-linecap:butt;stroke-linejoin:miter;stroke-opacity:1" d="M 464.426,807.967 454.262,807.967 z" id="boundary" inkscape:connector-curvature="0" />
	<path style="fill:none;stroke:red;stroke-width:1px;stroke-linecap:butt;stroke-linejoin:miter;stroke-opacity:1" d="M 484.754,807.967 494.918,806.951 z" id="boundary" inkscape:connector-curvature="0" />
	<path style="fill:none;stroke:red;stroke-width:1px;stroke-linecap:butt;stroke-linejoin:miter;stroke-opacity:1" d="M 525.41,802.885 535.574,801.869 z" id="boundary" inkscape:connector-curvature="0" />
	<path style="fill:none;stroke:red;stroke-width:1px;stroke-linecap:butt;stroke-linejoin:miter;stroke-opacity:1" d="M 522.361,6.03279 528.459,14.1639 z" id="boundary" inkscape:connector-curvature="0" />
	<path style="fill:none;stroke:red;stroke-width:1px;stroke-linecap:butt;stroke-linejoin:miter;stroke-opacity:1" d="M 512.197,4 522.361,6.03279 z" id="boundary" inkscape:connector-curvature="0" />
	<path style="fill:none;stroke:red;stroke-width:1px;stroke-linecap:butt;stroke-linejoin:miter;stroke-opacity:1" d="M 533.541,23.3115 528.459,14.1639 z" id="boundary" inkscape:connector-curvature="0" />
	<path style="fill:none;stroke:red;stroke-width:1px;stroke-linecap:butt;stroke-linejoin:miter;stroke-opacity:1" d="M 538.623,32.459 538.623,42.623 z" id="boundary" inkscape:connector-curvature="0" />
	<path style="fill:none;stroke:red;stroke-width:1px;stroke-linecap:butt;stroke-linejoin:miter;stroke-opacity:1" d="M 533.541,23.3115 538.623,32.459 z" id="boundary" inkscape:connector-curvature="0" />
	<path style="fill:none;stroke:red;stroke-width:1px;stroke-linecap:butt;stroke-linejoin:miter;stroke-opacity:1" d="M 538.623,52.7869 538.623,42.623 z" id="boundary" inkscape:connector-curvature="0" />
	<path style="fill:none;stroke:red;stroke-width:1px;stroke-linecap:butt;stroke-linejoin:miter;stroke-opacity:1" d="M 538.623,52.7869 538.623,62.9508 z" id="boundary" inkscape:connector-curvature="0" />
	<path style="fill:none;stroke:red;stroke-width:1px;stroke-linecap:butt;stroke-linejoin:miter;stroke-opacity:1" d="M 538.623,62.9508 543.705,72.0984 z" id="boundary" inkscape:connector-curvature="0" />
	<path style="fill:none;stroke:red;stroke-width:1px;stroke-linecap:butt;stroke-linejoin:miter;stroke-opacity:1" d="M 543.705,72.0984 543.705,82.2623 z" id="boundary" inkscape:connector-curvature="0" />
	<path style="fill:none;stroke:red;stroke-width:1px;stroke-linecap:butt;stroke-linejoin:miter;stroke-opacity:1" d="M 543.705,82.2623 543.705,92.4262 z" id="boundary" inkscape:connector-curvature="0" />
	<path style="fill:none;stroke:red;stroke-width:1px;stroke-linecap:butt;stroke-linejoin:miter;stroke-opacity:1" d="M 543.705,102.59 543.705,92.4262 z" id="boundary" inkscape:connector-curvature="0" />
	<path style="fill:none;stroke:red;stroke-width:1px;stroke-linecap:butt;stroke-linejoin:miter;stroke-opacity:1" d="M 543.705,102.59 543.705,112.754 z" id="boundary" inkscape:connector-curvature="0" />
	<path style="fill:none;stroke:red;stroke-width:1px;stroke-linecap:butt;stroke-linejoin:miter;stroke-opacity:1" d="M 543.705,112.754 543.705,122.918 z" id="boundary" inkscape:connector-curvature="0" />
	<path style="fill:none;stroke:red;stroke-width:1px;stroke-linecap:butt;stroke-linejoin:miter;stroke-opacity:1" d="M 552.852,138.164 543.705,133.082 z" id="boundary" inkscape:connector-curvature="0" />
	<path style="fill:none;stroke:red;stroke-width:1px;stroke-linecap:butt;stroke-linejoin:miter;stroke-opacity:1" d="M 543.705,133.082 543.705,122.918 z" id="boundary" inkscape:connector-curvature="0" />
	<path style="fill:none;stroke:red;stroke-width:1px;stroke-linecap:butt;stroke-linejoin:miter;stroke-opacity:1" d="M 563.016,141.213 552.852,138.164 z" id="boundary" inkscape:connector-curvature="0" />
	<path style="fill:none;stroke:red;stroke-width:1px;stroke-linecap:butt;stroke-linejoin:miter;stroke-opacity:1" d="M 573.18,141.213 563.016,141.213 z" id="boundary" inkscape:connector-curvature="0" />
	<path style="fill:none;stroke:red;stroke-width:1px;stroke-linecap:butt;stroke-linejoin:miter;stroke-opacity:1" d="M 583.344,141.213 593.508,143.246 z" id="boundary" inkscape:connector-curvature="0" />
	<path style="fill:none;stroke:red;stroke-width:1px;stroke-linecap:butt;stroke-linejoin:miter;stroke-opacity:1" d="M 583.344,141.213 573.18,141.213 z" id="boundary" inkscape:connector-curvature="0" />
	<path style="fill:none;stroke:red;stroke-width:1px;stroke-linecap:butt;stroke-linejoin:miter;stroke-opacity:1" d="M 593.508,143.246 603.672,146.295 z" id="boundary" inkscape:connector-curvature="0" />
	<path style="fill:none;stroke:red;stroke-width:1px;stroke-linecap:butt;stroke-linejoin:miter;stroke-opacity:1" d="M 593.508,218.459 584.361,223.541 z" id="boundary" inkscape:connector-curvature="0" />
	<path style="fill:none;stroke:red;stroke-width:1px;stroke-linecap:butt;stroke-linejoin:miter;stroke-opacity:1" d="M 584.361,223.541 574.197,223.541 z" id="boundary" inkscape:connector-curvature="0" />
	<path style="fill:none;stroke:red;stroke-width:1px;stroke-linecap:butt;stroke-linejoin:miter;stroke-opacity:1" d="M 574.197,223.541 564.033,228.623 z" id="boundary" inkscape:connector-curvature="0" />
	<path style="fill:none;stroke:red;stroke-width:1px;stroke-linecap:butt;stroke-linejoin:miter;stroke-opacity:1" d="M 558.951,248.951 558.951,259.115 z" id="boundary" inkscape:connector-curvature="0" />
	<path style="fill:none;stroke:red;stroke-width:1px;stroke-linecap:butt;stroke-linejoin:miter;stroke-opacity:1" d="M 558.951,248.951 564.033,238.787 z" id="boundary" inkscape:connector-curvature="0" />
	<path style="fill:none;stroke:red;stroke-width:1px;stroke-linecap:butt;stroke-linejoin:miter;stroke-opacity:1" d="M 558.951,269.279 558.951,279.443 z" id="boundary" inkscape:connector-curvature="0" />
	<path style="fill:none;stroke:red;stroke-width:1px;stroke-linecap:butt;stroke-linejoin:miter;stroke-opacity:1" d="M 558.951,279.443 558.951,289.607 z" id="boundary" inkscape:connector-curvature="0" />
	<path style="fill:none;stroke:red;stroke-width:1px;stroke-linecap:butt;stroke-linejoin:miter;stroke-opacity:1" d="M 558.951,269.279 558.951,259.115 z" id="boundary" inkscape:connector-curvature="0" />
	<path style="fill:none;stroke:red;stroke-width:1px;stroke-linecap:butt;stroke-linejoin:miter;stroke-opacity:1" d="M 558.951,299.77 558.951,309.934 z" id="boundary" inkscape:connector-curvature="0" />
	<path style="fill:none;stroke:red;stroke-width:1px;stroke-linecap:butt;stroke-linejoin:miter;stroke-opacity:1" d="M 558.951,299.77 558.951,289.607 z" id="boundary" inkscape:connector-curvature="0" />
	<path style="fill:none;stroke:red;stroke-width:1px;stroke-linecap:butt;stroke-linejoin:miter;stroke-opacity:1" d="M 558.951,320.098 558.951,330.262 z" id="boundary" inkscape:connector-curvature="0" />
	<path style="fill:none;stroke:red;stroke-width:1px;stroke-linecap:butt;stroke-linejoin:miter;stroke-opacity:1" d="M 558.951,340.426 558.951,330.262 z" id="boundary" inkscape:connector-curvature="0" />
	<path style="fill:none;stroke:red;stroke-width:1px;stroke-linecap:butt;stroke-linejoin:miter;stroke-opacity:1" d="M 558.951,350.59 558.951,340.426 z" id="boundary" inkscape:connector-curvature="0" />
	<path style="fill:none;stroke:red;stroke-width:1px;stroke-linecap:butt;stroke-linejoin:miter;stroke-opacity:1" d="M 558.951,309.934 558.951,320.098 z" id="boundary" inkscape:connector-curvature="0" />
	<path style="fill:none;stroke:red;stroke-width:1px;stroke-linecap:butt;stroke-linejoin:miter;stroke-opacity:1" d="M 558.951,350.59 558.951,360.754 z" id="boundary" inkscape:connector-curvature="0" />
	<path style="fill:none;stroke:red;stroke-width:1px;stroke-linecap:butt;stroke-linejoin:miter;stroke-opacity:1" d="M 594.525,395.311 584.361,393.279 z" id="boundary" inkscape:connector-curvature="0" />
	<path style="fill:none;stroke:red;stroke-width:1px;stroke-linecap:butt;stroke-linejoin:miter;stroke-opacity:1" d="M 564.033,238.787 564.033,228.623 z" id="boundary" inkscape:connector-curvature="0" />
	<path style="fill:none;stroke:red;stroke-width:1px;stroke-linecap:butt;stroke-linejoin:miter;stroke-opacity:1" d="M 558.951,370.918 558.951,381.082 z" id="boundary" inkscape:connector-curvature="0" />
	<path style="fill:none;stroke:red;stroke-width:1px;stroke-linecap:butt;stroke-linejoin:miter;stroke-opacity:1" d="M 564.033,390.23 574.197,390.23 z" id="boundary" inkscape:connector-curvature="0" />
	<path style="fill:none;stroke:red;stroke-width:1px;stroke-linecap:butt;stroke-linejoin:miter;stroke-opacity:1" d="M 574.197,390.23 584.361,393.279 z" id="boundary" inkscape:connector-curvature="0" />
	<path style="fill:none;stroke:red;stroke-width:1px;stroke-linecap:butt;stroke-linejoin:miter;stroke-opacity:1" d="M 564.033,390.23 558.951,381.082 z" id="boundary" inkscape:connector-curvature="0" />
	<path style="fill:none;stroke:red;stroke-width:1px;stroke-linecap:butt;stroke-linejoin:miter;stroke-opacity:1" d="M 558.951,370.918 558.951,360.754 z" id="boundary" inkscape:connector-curvature="0" />
	<path style="fill:none;stroke:red;stroke-width:1px;stroke-linecap:butt;stroke-linejoin:miter;stroke-opacity:1" d="M 593.508,218.459 603.672,218.459 z" id="boundary" inkscape:connector-curvature="0" />
	<path style="fill:none;stroke:red;stroke-width:1px;stroke-linecap:butt;stroke-linejoin:miter;stroke-opacity:1" d="M 603.672,146.295 613.836,146.295 z" id="boundary" inkscape:connector-curvature="0" />
	<path style="fill:none;stroke:red;stroke-width:1px;stroke-linecap:butt;stroke-linejoin:miter;stroke-opacity:1" d="M 613.836,146.295 622.984,151.377 z" id="boundary" inkscape:connector-curvature="0" />
	<path style="fill:none;stroke:red;stroke-width:1px;stroke-linecap:butt;stroke-linejoin:miter;stroke-opacity:1" d="M 624,213.377 613.836,215.41 z" id="boundary" inkscape:connector-curvature="0" />
	<path style="fill:none;stroke:red;stroke-width:1px;stroke-linecap:butt;stroke-linejoin:miter;stroke-opacity:1" d="M 633.148,208.295 624,213.377 z" id="boundary" inkscape:connector-curvature="0" />
	<path style="fill:none;stroke:red;stroke-width:1px;stroke-linecap:butt;stroke-linejoin:miter;stroke-opacity:1" d="M 633.148,151.377 622.984,151.377 z" id="boundary" inkscape:connector-curvature="0" />
	<path style="fill:none;stroke:red;stroke-width:1px;stroke-linecap:butt;stroke-linejoin:miter;stroke-opacity:1" d="M 613.836,215.41 603.672,218.459 z" id="boundary" inkscape:connector-curvature="0" />
	<path style="fill:none;stroke:red;stroke-width:1px;stroke-linecap:butt;stroke-linejoin:miter;stroke-opacity:1" d="M 604.689,395.311 594.525,395.311 z" id="boundary" inkscape:connector-curvature="0" />
	<path style="fill:none;stroke:red;stroke-width:1px;stroke-linecap:butt;stroke-linejoin:miter;stroke-opacity:1" d="M 604.689,395.311 614.852,395.311 z" id="boundary" inkscape:connector-curvature="0" />
	<path style="fill:none;stroke:red;stroke-width:1px;stroke-linecap:butt;stroke-linejoin:miter;stroke-opacity:1" d="M 625.016,395.311 614.852,395.311 z" id="boundary" inkscape:connector-curvature="0" />
	<path style="fill:none;stroke:red;stroke-width:1px;stroke-linecap:butt;stroke-linejoin:miter;stroke-opacity:1" d="M 635.18,395.311 625.016,395.311 z" id="boundary" inkscape:connector-curvature="0" />
	<path style="fill:none;stroke:red;stroke-width:1px;stroke-linecap:butt;stroke-linejoin:miter;stroke-opacity:1" d="M 633.148,151.377 643.311,151.377 z" id="boundary" inkscape:connector-curvature="0" />
	<path style="fill:none;stroke:red;stroke-width:1px;stroke-linecap:butt;stroke-linejoin:miter;stroke-opacity:1" d="M 643.311,151.377 652.459,156.459 z" id="boundary" inkscape:connector-curvature="0" />
	<path style="fill:none;stroke:red;stroke-width:1px;stroke-linecap:butt;stroke-linejoin:miter;stroke-opacity:1" d="M 652.459,156.459 661.607,161.541 z" id="boundary" inkscape:connector-curvature="0" />
	<path style="fill:none;stroke:red;stroke-width:1px;stroke-linecap:butt;stroke-linejoin:miter;stroke-opacity:1" d="M 669.738,168.656 661.607,161.541 z" id="boundary" inkscape:connector-curvature="0" />
	<path style="fill:none;stroke:red;stroke-width:1px;stroke-linecap:butt;stroke-linejoin:miter;stroke-opacity:1" d="M 669.738,168.656 670.754,178.82 z" id="boundary" inkscape:connector-curvature="0" />
	<path style="fill:none;stroke:red;stroke-width:1px;stroke-linecap:butt;stroke-linejoin:miter;stroke-opacity:1" d="M 633.148,208.295 643.311,206.262 z" id="boundary" inkscape:connector-curvature="0" />
	<path style="fill:none;stroke:red;stroke-width:1px;stroke-linecap:butt;stroke-linejoin:miter;stroke-opacity:1" d="M 670.754,178.82 663.639,196.098 z" id="boundary" inkscape:connector-curvature="0" />
	<path style="fill:none;stroke:red;stroke-width:1px;stroke-linecap:butt;stroke-linejoin:miter;stroke-opacity:1" d="M 663.639,196.098 653.475,201.18 z" id="boundary" inkscape:connector-curvature="0" />
	<path style="fill:none;stroke:red;stroke-width:1px;stroke-linecap:butt;stroke-linejoin:miter;stroke-opacity:1" d="M 653.475,201.18 643.311,206.262 z" id="boundary" inkscape:connector-curvature="0" />
	<path style="fill:none;stroke:red;stroke-width:1px;stroke-linecap:butt;stroke-linejoin:miter;stroke-opacity:1" d="M 635.18,395.311 645.344,395.311 z" id="boundary" inkscape:connector-curvature="0" />
	<path style="fill:none;stroke:red;stroke-width:1px;stroke-linecap:butt;stroke-linejoin:miter;stroke-opacity:1" d="M 655.508,395.311 665.672,395.311 z" id="boundary" inkscape:connector-curvature="0" />
	<path style="fill:none;stroke:red;stroke-width:1px;stroke-linecap:butt;stroke-linejoin:miter;stroke-opacity:1" d="M 675.836,395.311 665.672,395.311 z" id="boundary" inkscape:connector-curvature="0" />
	<path style="fill:none;stroke:red;stroke-width:1px;stroke-linecap:butt;stroke-linejoin:miter;stroke-opacity:1" d="M 655.508,395.311 645.344,395.311 z" id="boundary" inkscape:connector-curvature="0" />
	<path style="fill:none;stroke:red;stroke-width:1px;stroke-linecap:butt;stroke-linejoin:miter;stroke-opacity:1" d="M 686,395.311 696.164,395.311 z" id="boundary" inkscape:connector-curvature="0" />
	<path style="fill:none;stroke:red;stroke-width:1px;stroke-linecap:butt;stroke-linejoin:miter;stroke-opacity:1" d="M 706.328,395.311 716.492,395.311 z" id="boundary" inkscape:connector-curvature="0" />
	<path style="fill:none;stroke:red;stroke-width:1px;stroke-linecap:butt;stroke-linejoin:miter;stroke-opacity:1" d="M 716.492,395.311 726.656,398.361 z" id="boundary" inkscape:connector-curvature="0" />
	<path style="fill:none;stroke:red;stroke-width:1px;stroke-linecap:butt;stroke-linejoin:miter;stroke-opacity:1" d="M 696.164,395.311 706.328,395.311 z" id="boundary" inkscape:connector-curvature="0" />
	<path style="fill:none;stroke:red;stroke-width:1px;stroke-linecap:butt;stroke-linejoin:miter;stroke-opacity:1" d="M 675.836,395.311 686,395.311 z" id="boundary" inkscape:connector-curvature="0" />
	<path style="fill:none;stroke:red;stroke-width:1px;stroke-linecap:butt;stroke-linejoin:miter;stroke-opacity:1" d="M 726.656,398.361 735.803,403.443 z" id="boundary" inkscape:connector-curvature="0" />
	<path style="fill:none;stroke:red;stroke-width:1px;stroke-linecap:butt;stroke-linejoin:miter;stroke-opacity:1" d="M 735.803,403.443 745.967,407.508 z" id="boundary" inkscape:connector-curvature="0" />
	<path style="fill:none;stroke:red;stroke-width:1px;stroke-linecap:butt;stroke-linejoin:miter;stroke-opacity:1" d="M 772.393,423.77 762.23,420.721 z" id="boundary" inkscape:connector-curvature="0" />
	<path style="fill:none;stroke:red;stroke-width:1px;stroke-linecap:butt;stroke-linejoin:miter;stroke-opacity:1" d="M 762.23,420.721 755.115,412.59 z" id="boundary" inkscape:connector-curvature="0" />
	<path style="fill:none;stroke:red;stroke-width:1px;stroke-linecap:butt;stroke-linejoin:miter;stroke-opacity:1" d="M 772.393,423.77 779.508,431.902 z" id="boundary" inkscape:connector-curvature="0" />
	<path style="fill:none;stroke:red;stroke-width:1px;stroke-linecap:butt;stroke-linejoin:miter;stroke-opacity:1" d="M 745.967,407.508 755.115,412.59 z" id="boundary" inkscape:connector-curvature="0" />
	<path style="fill:none;stroke:red;stroke-width:1px;stroke-linecap:butt;stroke-linejoin:miter;stroke-opacity:1" d="M 779.508,431.902 789.672,435.967 z" id="boundary" inkscape:connector-curvature="0" />
	<path style="fill:none;stroke:red;stroke-width:1px;stroke-linecap:butt;stroke-linejoin:miter;stroke-opacity:1" d="M 789.672,435.967 796.787,444.098 z" id="boundary" inkscape:connector-curvature="0" />
	<path style="fill:none;stroke:red;stroke-width:1px;stroke-linecap:butt;stroke-linejoin:miter;stroke-opacity:1" d="M 802.885,452.23 807.967,461.377 z" id="boundary" inkscape:connector-curvature="0" />
	<path style="fill:none;stroke:red;stroke-width:1px;stroke-linecap:butt;stroke-linejoin:miter;stroke-opacity:1" d="M 802.885,452.23 796.787,444.098 z" id="boundary" inkscape:connector-curvature="0" />
	<path style="fill:none;stroke:red;stroke-width:1px;stroke-linecap:butt;stroke-linejoin:miter;stroke-opacity:1" d="M 777.475,787.639 767.311,787.639 z" id="boundary" inkscape:connector-curvature="0" />
	<path style="fill:none;stroke:red;stroke-width:1px;stroke-linecap:butt;stroke-linejoin:miter;stroke-opacity:1" d="M 817.115,782.557 806.951,782.557 z" id="boundary" inkscape:connector-curvature="0" />
	<path style="fill:none;stroke:red;stroke-width:1px;stroke-linecap:butt;stroke-linejoin:miter;stroke-opacity:1" d="M 827.279,779.508 817.115,782.557 z" id="boundary" inkscape:connector-curvature="0" />
	<path style="fill:none;stroke:red;stroke-width:1px;stroke-linecap:butt;stroke-linejoin:miter;stroke-opacity:1" d="M 787.639,787.639 777.475,787.639 z" id="boundary" inkscape:connector-curvature="0" />
	<path style="fill:none;stroke:red;stroke-width:1px;stroke-linecap:butt;stroke-linejoin:miter;stroke-opacity:1" d="M 626.033,792.721 615.869,792.721 z" id="boundary" inkscape:connector-curvature="0" />
	<path style="fill:none;stroke:red;stroke-width:1px;stroke-linecap:butt;stroke-linejoin:miter;stroke-opacity:1" d="M 797.803,787.639 806.951,782.557 z" id="boundary" inkscape:connector-curvature="0" />
	<path style="fill:none;stroke:red;stroke-width:1px;stroke-linecap:butt;stroke-linejoin:miter;stroke-opacity:1" d="M 595.541,792.721 605.705,792.721 z" id="boundary" inkscape:connector-curvature="0" />
	<path style="fill:none;stroke:red;stroke-width:1px;stroke-linecap:butt;stroke-linejoin:miter;stroke-opacity:1" d="M 586.393,797.803 595.541,792.721 z" id="boundary" inkscape:connector-curvature="0" />
	<path style="fill:none;stroke:red;stroke-width:1px;stroke-linecap:butt;stroke-linejoin:miter;stroke-opacity:1" d="M 615.869,792.721 605.705,792.721 z" id="boundary" inkscape:connector-curvature="0" />
	<path style="fill:none;stroke:red;stroke-width:1px;stroke-linecap:butt;stroke-linejoin:miter;stroke-opacity:1" d="M 797.803,787.639 787.639,787.639 z" id="boundary" inkscape:connector-curvature="0" />
	<path style="fill:none;stroke:red;stroke-width:1px;stroke-linecap:butt;stroke-linejoin:miter;stroke-opacity:1" d="M 758.164,792.721 767.311,787.639 z" id="boundary" inkscape:connector-curvature="0" />
	<path style="fill:none;stroke:red;stroke-width:1px;stroke-linecap:butt;stroke-linejoin:miter;stroke-opacity:1" d="M 818.131,479.672 818.131,489.836 z" id="boundary" inkscape:connector-curvature="0" />
	<path style="fill:none;stroke:red;stroke-width:1px;stroke-linecap:butt;stroke-linejoin:miter;stroke-opacity:1" d="M 813.049,470.525 818.131,479.672 z" id="boundary" inkscape:connector-curvature="0" />
	<path style="fill:none;stroke:red;stroke-width:1px;stroke-linecap:butt;stroke-linejoin:miter;stroke-opacity:1" d="M 826.262,507.115 818.131,500 z" id="boundary" inkscape:connector-curvature="0" />
	<path style="fill:none;stroke:red;stroke-width:1px;stroke-linecap:butt;stroke-linejoin:miter;stroke-opacity:1" d="M 818.131,500 818.131,489.836 z" id="boundary" inkscape:connector-curvature="0" />
	<path style="fill:none;stroke:red;stroke-width:1px;stroke-linecap:butt;stroke-linejoin:miter;stroke-opacity:1" d="M 836.426,507.115 826.262,507.115 z" id="boundary" inkscape:connector-curvature="0" />
	<path style="fill:none;stroke:red;stroke-width:1px;stroke-linecap:butt;stroke-linejoin:miter;stroke-opacity:1" d="M 846.59,507.115 836.426,507.115 z" id="boundary" inkscape:connector-curvature="0" />
	<path style="fill:none;stroke:red;stroke-width:1px;stroke-linecap:butt;stroke-linejoin:miter;stroke-opacity:1" d="M 827.279,779.508 837.443,777.475 z" id="boundary" inkscape:connector-curvature="0" />
	<path style="fill:none;stroke:red;stroke-width:1px;stroke-linecap:butt;stroke-linejoin:miter;stroke-opacity:1" d="M 846.59,772.393 837.443,777.475 z" id="boundary" inkscape:connector-curvature="0" />
	<path style="fill:none;stroke:red;stroke-width:1px;stroke-linecap:butt;stroke-linejoin:miter;stroke-opacity:1" d="M 856.754,507.115 846.59,507.115 z" id="boundary" inkscape:connector-curvature="0" />
	<path style="fill:none;stroke:red;stroke-width:1px;stroke-linecap:butt;stroke-linejoin:miter;stroke-opacity:1" d="M 846.59,772.393 856.754,772.393 z" id="boundary" inkscape:connector-curvature="0" />
	<path style="fill:none;stroke:red;stroke-width:1px;stroke-linecap:butt;stroke-linejoin:miter;stroke-opacity:1" d="M 866.918,507.115 856.754,507.115 z" id="boundary" inkscape:connector-curvature="0" />
	<path style="fill:none;stroke:red;stroke-width:1px;stroke-linecap:butt;stroke-linejoin:miter;stroke-opacity:1" d="M 555.902,797.803 545.738,797.803 z" id="boundary" inkscape:connector-curvature="0" />
	<path style="fill:none;stroke:red;stroke-width:1px;stroke-linecap:butt;stroke-linejoin:miter;stroke-opacity:1" d="M 626.033,792.721 636.197,792.721 z" id="boundary" inkscape:connector-curvature="0" />
	<path style="fill:none;stroke:red;stroke-width:1px;stroke-linecap:butt;stroke-linejoin:miter;stroke-opacity:1" d="M 646.361,792.721 636.197,792.721 z" id="boundary" inkscape:connector-curvature="0" />
	<path style="fill:none;stroke:red;stroke-width:1px;stroke-linecap:butt;stroke-linejoin:miter;stroke-opacity:1" d="M 656.525,792.721 646.361,792.721 z" id="boundary" inkscape:connector-curvature="0" />
	<path style="fill:none;stroke:red;stroke-width:1px;stroke-linecap:butt;stroke-linejoin:miter;stroke-opacity:1" d="M 555.902,797.803 566.066,797.803 z" id="boundary" inkscape:connector-curvature="0" />
	<path style="fill:none;stroke:red;stroke-width:1px;stroke-linecap:butt;stroke-linejoin:miter;stroke-opacity:1" d="M 535.574,801.869 545.738,797.803 z" id="boundary" inkscape:connector-curvature="0" />
	<path style="fill:none;stroke:red;stroke-width:1px;stroke-linecap:butt;stroke-linejoin:miter;stroke-opacity:1" d="M 566.066,797.803 576.23,797.803 z" id="boundary" inkscape:connector-curvature="0" />
	<path style="fill:none;stroke:red;stroke-width:1px;stroke-linecap:butt;stroke-linejoin:miter;stroke-opacity:1" d="M 586.393,797.803 576.23,797.803 z" id="boundary" inkscape:connector-curvature="0" />
	<path style="fill:none;stroke:red;stroke-width:1px;stroke-linecap:butt;stroke-linejoin:miter;stroke-opacity:1" d="M 656.525,792.721 666.689,792.721 z" id="boundary" inkscape:connector-curvature="0" />
	<path style="fill:none;stroke:red;stroke-width:1px;stroke-linecap:butt;stroke-linejoin:miter;stroke-opacity:1" d="M 666.689,792.721 676.852,792.721 z" id="boundary" inkscape:connector-curvature="0" />
	<path style="fill:none;stroke:red;stroke-width:1px;stroke-linecap:butt;stroke-linejoin:miter;stroke-opacity:1" d="M 687.016,792.721 697.18,792.721 z" id="boundary" inkscape:connector-curvature="0" />
	<path style="fill:none;stroke:red;stroke-width:1px;stroke-linecap:butt;stroke-linejoin:miter;stroke-opacity:1" d="M 707.344,792.721 697.18,792.721 z" id="boundary" inkscape:connector-curvature="0" />
	<path style="fill:none;stroke:red;stroke-width:1px;stroke-linecap:butt;stroke-linejoin:miter;stroke-opacity:1" d="M 687.016,792.721 676.852,792.721 z" id="boundary" inkscape:connector-curvature="0" />
	<path style="fill:none;stroke:red;stroke-width:1px;stroke-linecap:butt;stroke-linejoin:miter;stroke-opacity:1" d="M 717.508,792.721 727.672,792.721 z" id="boundary" inkscape:connector-curvature="0" />
	<path style="fill:none;stroke:red;stroke-width:1px;stroke-linecap:butt;stroke-linejoin:miter;stroke-opacity:1" d="M 737.836,792.721 748,792.721 z" id="boundary" inkscape:connector-curvature="0" />
	<path style="fill:none;stroke:red;stroke-width:1px;stroke-linecap:butt;stroke-linejoin:miter;stroke-opacity:1" d="M 758.164,792.721 748,792.721 z" id="boundary" inkscape:connector-curvature="0" />
	<path style="fill:none;stroke:red;stroke-width:1px;stroke-linecap:butt;stroke-linejoin:miter;stroke-opacity:1" d="M 737.836,792.721 727.672,792.721 z" id="boundary" inkscape:connector-curvature="0" />
	<path style="fill:none;stroke:red;stroke-width:1px;stroke-linecap:butt;stroke-linejoin:miter;stroke-opacity:1" d="M 717.508,792.721 707.344,792.721 z" id="boundary" inkscape:connector-curvature="0" />
	<path style="fill:none;stroke:red;stroke-width:1px;stroke-linecap:butt;stroke-linejoin:miter;stroke-opacity:1" d="M 807.967,461.377 813.049,470.525 z" id="boundary" inkscape:connector-curvature="0" />
	<path style="fill:none;stroke:red;stroke-width:1px;stroke-linecap:butt;stroke-linejoin:miter;stroke-opacity:1" d="M 866.918,507.115 877.082,507.115 z" id="boundary" inkscape:connector-curvature="0" />
	<path style="fill:none;stroke:red;stroke-width:1px;stroke-linecap:butt;stroke-linejoin:miter;stroke-opacity:1" d="M 877.082,507.115 886.23,512.197 z" id="boundary" inkscape:connector-curvature="0" />
	<path style="fill:none;stroke:red;stroke-width:1px;stroke-linecap:butt;stroke-linejoin:miter;stroke-opacity:1" d="M 886.23,512.197 896.393,512.197 z" id="boundary" inkscape:connector-curvature="0" />
	<path style="fill:none;stroke:red;stroke-width:1px;stroke-linecap:butt;stroke-linejoin:miter;stroke-opacity:1" d="M 896.393,512.197 905.541,517.279 z" id="boundary" inkscape:connector-curvature="0" />
	<path style="fill:none;stroke:red;stroke-width:1px;stroke-linecap:butt;stroke-linejoin:miter;stroke-opacity:1" d="M 905.541,517.279 914.689,522.361 z" id="boundary" inkscape:connector-curvature="0" />
	<path style="fill:none;stroke:red;stroke-width:1px;stroke-linecap:butt;stroke-linejoin:miter;stroke-opacity:1" d="M 914.689,522.361 923.836,527.443 z" id="boundary" inkscape:connector-curvature="0" />
	<path style="fill:none;stroke:red;stroke-width:1px;stroke-linecap:butt;stroke-linejoin:miter;stroke-opacity:1" d="M 923.836,527.443 931.967,533.541 z" id="boundary" inkscape:connector-curvature="0" />
	<path style="fill:none;stroke:red;stroke-width:1px;stroke-linecap:butt;stroke-linejoin:miter;stroke-opacity:1" d="M 931.967,533.541 940.098,540.656 z" id="boundary" inkscape:connector-curvature="0" />
	<path style="fill:none;stroke:red;stroke-width:1px;stroke-linecap:butt;stroke-linejoin:miter;stroke-opacity:1" d="M 940.098,540.656 947.213,548.787 z" id="boundary" inkscape:connector-curvature="0" />
	<path style="fill:none;stroke:red;stroke-width:1px;stroke-linecap:butt;stroke-linejoin:miter;stroke-opacity:1" d="M 955.344,555.902 947.213,548.787 z" id="boundary" inkscape:connector-curvature="0" />
	<path style="fill:none;stroke:red;stroke-width:1px;stroke-linecap:butt;stroke-linejoin:miter;stroke-opacity:1" d="M 960.426,565.049 955.344,555.902 z" id="boundary" inkscape:connector-curvature="0" />
	<path style="fill:none;stroke:red;stroke-width:1px;stroke-linecap:butt;stroke-linejoin:miter;stroke-opacity:1" d="M 966.525,573.18 960.426,565.049 z" id="boundary" inkscape:connector-curvature="0" />
	<path style="fill:none;stroke:red;stroke-width:1px;stroke-linecap:butt;stroke-linejoin:miter;stroke-opacity:1" d="M 975.672,592.492 970.59,583.344 z" id="boundary" inkscape:connector-curvature="0" />
	<path style="fill:none;stroke:red;stroke-width:1px;stroke-linecap:butt;stroke-linejoin:miter;stroke-opacity:1" d="M 970.59,583.344 966.525,573.18 z" id="boundary" inkscape:connector-curvature="0" />
	<path style="fill:none;stroke:red;stroke-width:1px;stroke-linecap:butt;stroke-linejoin:miter;stroke-opacity:1" d="M 975.672,592.492 975.672,602.656 z" id="boundary" inkscape:connector-curvature="0" />
	<path style="fill:none;stroke:red;stroke-width:1px;stroke-linecap:butt;stroke-linejoin:miter;stroke-opacity:1" d="M 975.672,602.656 983.803,609.77 z" id="boundary" inkscape:connector-curvature="0" />
	<path style="fill:none;stroke:red;stroke-width:1px;stroke-linecap:butt;stroke-linejoin:miter;stroke-opacity:1" d="M 983.803,609.77 987.869,619.934 z" id="boundary" inkscape:connector-curvature="0" />
	<path style="fill:none;stroke:red;stroke-width:1px;stroke-linecap:butt;stroke-linejoin:miter;stroke-opacity:1" d="M 996,639.246 990.918,630.098 z" id="boundary" inkscape:connector-curvature="0" />
	<path style="fill:none;stroke:red;stroke-width:1px;stroke-linecap:butt;stroke-linejoin:miter;stroke-opacity:1" d="M 990.918,630.098 987.869,619.934 z" id="boundary" inkscape:connector-curvature="0" />
	<path style="fill:none;stroke:red;stroke-width:1px;stroke-linecap:butt;stroke-linejoin:miter;stroke-opacity:1" d="M 996,639.246 996,649.41 z" id="boundary" inkscape:connector-curvature="0" />
	<path style="fill:none;stroke:red;stroke-width:1px;stroke-linecap:butt;stroke-linejoin:miter;stroke-opacity:1" d="M 895.377,762.23 885.213,762.23 z" id="boundary" inkscape:connector-curvature="0" />
	<path style="fill:none;stroke:red;stroke-width:1px;stroke-linecap:butt;stroke-linejoin:miter;stroke-opacity:1" d="M 924.852,752.066 914.689,757.148 z" id="boundary" inkscape:connector-curvature="0" />
	<path style="fill:none;stroke:red;stroke-width:1px;stroke-linecap:butt;stroke-linejoin:miter;stroke-opacity:1" d="M 944.164,746.984 935.016,752.066 z" id="boundary" inkscape:connector-curvature="0" />
	<path style="fill:none;stroke:red;stroke-width:1px;stroke-linecap:butt;stroke-linejoin:miter;stroke-opacity:1" d="M 935.016,752.066 924.852,752.066 z" id="boundary" inkscape:connector-curvature="0" />
	<path style="fill:none;stroke:red;stroke-width:1px;stroke-linecap:butt;stroke-linejoin:miter;stroke-opacity:1" d="M 953.311,741.902 944.164,746.984 z" id="boundary" inkscape:connector-curvature="0" />
	<path style="fill:none;stroke:red;stroke-width:1px;stroke-linecap:butt;stroke-linejoin:miter;stroke-opacity:1" d="M 905.541,762.23 914.689,757.148 z" id="boundary" inkscape:connector-curvature="0" />
	<path style="fill:none;stroke:red;stroke-width:1px;stroke-linecap:butt;stroke-linejoin:miter;stroke-opacity:1" d="M 856.754,772.393 865.902,767.311 z" id="boundary" inkscape:connector-curvature="0" />
	<path style="fill:none;stroke:red;stroke-width:1px;stroke-linecap:butt;stroke-linejoin:miter;stroke-opacity:1" d="M 865.902,767.311 876.066,767.311 z" id="boundary" inkscape:connector-curvature="0" />
	<path style="fill:none;stroke:red;stroke-width:1px;stroke-linecap:butt;stroke-linejoin:miter;stroke-opacity:1" d="M 895.377,762.23 905.541,762.23 z" id="boundary" inkscape:connector-curvature="0" />
	<path style="fill:none;stroke:red;stroke-width:1px;stroke-linecap:butt;stroke-linejoin:miter;stroke-opacity:1" d="M 885.213,762.23 876.066,767.311 z" id="boundary" inkscape:connector-curvature="0" />
	<path style="fill:none;stroke:red;stroke-width:1px;stroke-linecap:butt;stroke-linejoin:miter;stroke-opacity:1" d="M 996,659.574 996,669.738 z" id="boundary" inkscape:connector-curvature="0" />
	<path style="fill:none;stroke:red;stroke-width:1px;stroke-linecap:butt;stroke-linejoin:miter;stroke-opacity:1" d="M 996,669.738 996,679.902 z" id="boundary" inkscape:connector-curvature="0" />
	<path style="fill:none;stroke:red;stroke-width:1px;stroke-linecap:butt;stroke-linejoin:miter;stroke-opacity:1" d="M 996,679.902 996,690.066 z" id="boundary" inkscape:connector-curvature="0" />
	<path style="fill:none;stroke:red;stroke-width:1px;stroke-linecap:butt;stroke-linejoin:miter;stroke-opacity:1" d="M 980.754,726.656 973.639,734.787 z" id="boundary" inkscape:connector-curvature="0" />
	<path style="fill:none;stroke:red;stroke-width:1px;stroke-linecap:butt;stroke-linejoin:miter;stroke-opacity:1" d="M 973.639,734.787 963.475,739.869 z" id="boundary" inkscape:connector-curvature="0" />
	<path style="fill:none;stroke:red;stroke-width:1px;stroke-linecap:butt;stroke-linejoin:miter;stroke-opacity:1" d="M 963.475,739.869 953.311,741.902 z" id="boundary" inkscape:connector-curvature="0" />
	<path style="fill:none;stroke:red;stroke-width:1px;stroke-linecap:butt;stroke-linejoin:miter;stroke-opacity:1" d="M 993.967,709.377 988.885,719.541 z" id="boundary" inkscape:connector-curvature="0" />
	<path style="fill:none;stroke:red;stroke-width:1px;stroke-linecap:butt;stroke-linejoin:miter;stroke-opacity:1" d="M 988.885,719.541 980.754,726.656 z" id="boundary" inkscape:connector-curvature="0" />
	<path style="fill:none;stroke:red;stroke-width:1px;stroke-linecap:butt;stroke-linejoin:miter;stroke-opacity:1" d="M 996,690.066 993.967,709.377 z" id="boundary" inkscape:connector-curvature="0" />
	<path style="fill:none;stroke:red;stroke-width:1px;stroke-linecap:butt;stroke-linejoin:miter;stroke-opacity:1" d="M 996,649.41 996,659.574 z" id="boundary" inkscape:connector-curvature="0" />
	<circle cx="4" cy="601.639" r="4" fill="#0" id="circle0"/>
	<circle cx="4" cy="611.803" r="4" fill="#0" id="circle1"/>
	<circle cx="4" cy="621.967" r="4" fill="#0" id="circle2"/>
	<circle cx="4" cy="632.131" r="4" fill="#0" id="circle3"/>
	<circle cx="4" cy="642.295" r="4" fill="#0" id="circle4"/>
	<circle cx="4" cy="652.459" r="4" fill="#0" id="circle5"/>
	<circle cx="9.08197" cy="591.475" r="4" fill="#0" id="circle6"/>
	<circle cx="9.08197" cy="661.607" r="4" fill="#0" id="circle7"/>
	<circle cx="14.1639" cy="670.754" r="4" fill="#0" id="circle8"/>
	<circle cx="17.2131" cy="583.344" r="4" fill="#0" id="circle9"/>
	<circle cx="20.2623" cy="678.885" r="4" fill="#0" id="circle10"/>
	<circle cx="25.3443" cy="575.213" r="4" fill="#0" id="circle11"/>
	<circle cx="28.3934" cy="686" r="4" fill="#0" id="circle12"/>
	<circle cx="35.5082" cy="570.131" r="4" fill="#0" id="circle13"/>
	<circle cx="35.5082" cy="694.131" r="4" fill="#0" id="circle14"/>
	<circle cx="43.6393" cy="563.016" r="4" fill="#0" id="circle15"/>
	<circle cx="43.6393" cy="701.246" r="4" fill="#0" id="circle16"/>
	<circle cx="52.7869" cy="557.934" r="4" fill="#0" id="circle17"/>
	<circle cx="52.7869" cy="706.328" r="4" fill="#0" id="circle18"/>
	<circle cx="60.918" cy="549.803" r="4" fill="#0" id="circle19"/>
	<circle cx="61.9344" cy="711.41" r="4" fill="#0" id="circle20"/>
	<circle cx="71.082" cy="544.721" r="4" fill="#0" id="circle21"/>
	<circle cx="71.082" cy="716.492" r="4" fill="#0" id="circle22"/>
	<circle cx="80.2295" cy="721.574" r="4" fill="#0" id="circle23"/>
	<circle cx="81.2459" cy="539.639" r="4" fill="#0" id="circle24"/>
	<circle cx="90.3934" cy="721.574" r="4" fill="#0" id="circle25"/>
	<circle cx="91.4098" cy="534.557" r="4" fill="#0" id="circle26"/>
	<circle cx="99.541" cy="726.656" r="4" fill="#0" id="circle27"/>
	<circle cx="101.574" cy="529.475" r="4" fill="#0" id="circle28"/>
	<circle cx="108.689" cy="731.738" r="4" fill="#0" id="circle29"/>
	<circle cx="111.738" cy="524.393" r="4" fill="#0" id="circle30"/>
	<circle cx="118.852" cy="735.803" r="4" fill="#0" id="circle31"/>
	<circle cx="121.902" cy="519.311" r="4" fill="#0" id="circle32"/>
	<circle cx="128" cy="740.885" r="4" fill="#0" id="circle33"/>
	<circle cx="132.066" cy="517.279" r="4" fill="#0" id="circle34"/>
	<circle cx="138.164" cy="744.951" r="4" fill="#0" id="circle35"/>
	<circle cx="141.213" cy="512.197" r="4" fill="#0" id="circle36"/>
	<circle cx="147.311" cy="750.033" r="4" fill="#0" id="circle37"/>
	<circle cx="150.361" cy="507.115" r="4" fill="#0" id="circle38"/>
	<circle cx="157.475" cy="754.098" r="4" fill="#0" id="circle39"/>
	<circle cx="159.508" cy="502.033" r="4" fill="#0" id="circle40"/>
	<circle cx="166.623" cy="759.18" r="4" fill="#0" id="circle41"/>
	<circle cx="168.656" cy="496.951" r="4" fill="#0" id="circle42"/>
	<circle cx="174.754" cy="766.295" r="4" fill="#0" id="circle43"/>
	<circle cx="176.787" cy="489.836" r="4" fill="#0" id="circle44"/>
	<circle cx="181.869" cy="464.426" r="4" fill="#0" id="circle45"/>
	<circle cx="181.869" cy="474.59" r="4" fill="#0" id="circle46"/>
	<circle cx="183.902" cy="771.377" r="4" fill="#0" id="circle47"/>
	<circle cx="186.951" cy="454.262" r="4" fill="#0" id="circle48"/>
	<circle cx="194.066" cy="775.443" r="4" fill="#0" id="circle49"/>
	<circle cx="195.082" cy="446.131" r="4" fill="#0" id="circle50"/>
	<circle cx="203.213" cy="780.525" r="4" fill="#0" id="circle51"/>
	<circle cx="204.23" cy="441.049" r="4" fill="#0" id="circle52"/>
	<circle cx="213.377" cy="784.59" r="4" fill="#0" id="circle53"/>
	<circle cx="214.393" cy="436.984" r="4" fill="#0" id="circle54"/>
	<circle cx="222.525" cy="789.672" r="4" fill="#0" id="circle55"/>
	<circle cx="224.557" cy="431.902" r="4" fill="#0" id="circle56"/>
	<circle cx="232.689" cy="792.721" r="4" fill="#0" id="circle57"/>
	<circle cx="234.721" cy="426.82" r="4" fill="#0" id="circle58"/>
	<circle cx="241.836" cy="797.803" r="4" fill="#0" id="circle59"/>
	<circle cx="244.885" cy="421.738" r="4" fill="#0" id="circle60"/>
	<circle cx="249.967" cy="411.574" r="4" fill="#0" id="circle61"/>
	<circle cx="252" cy="797.803" r="4" fill="#0" id="circle62"/>
	<circle cx="260.131" cy="406.492" r="4" fill="#0" id="circle63"/>
	<circle cx="261.148" cy="802.885" r="4" fill="#0" id="circle64"/>
	<circle cx="268.262" cy="398.361" r="4" fill="#0" id="circle65"/>
	<circle cx="271.311" cy="802.885" r="4" fill="#0" id="circle66"/>
	<circle cx="278.426" cy="393.279" r="4" fill="#0" id="circle67"/>
	<circle cx="281.475" cy="806.951" r="4" fill="#0" id="circle68"/>
	<circle cx="288.59" cy="390.23" r="4" fill="#0" id="circle69"/>
	<circle cx="291.639" cy="807.967" r="4" fill="#0" id="circle70"/>
	<circle cx="298.754" cy="390.23" r="4" fill="#0" id="circle71"/>
	<circle cx="301.803" cy="807.967" r="4" fill="#0" id="circle72"/>
	<circle cx="308.918" cy="388.197" r="4" fill="#0" id="circle73"/>
	<circle cx="311.967" cy="807.967" r="4" fill="#0" id="circle74"/>
	<circle cx="319.082" cy="385.148" r="4" fill="#0" id="circle75"/>
	<circle cx="322.131" cy="807.967" r="4" fill="#0" id="circle76"/>
	<circle cx="329.246" cy="385.148" r="4" fill="#0" id="circle77"/>
	<circle cx="332.295" cy="807.967" r="4" fill="#0" id="circle78"/>
	<circle cx="339.41" cy="385.148" r="4" fill="#0" id="circle79"/>
	<circle cx="342.459" cy="807.967" r="4" fill="#0" id="circle80"/>
	<circle cx="349.574" cy="385.148" r="4" fill="#0" id="circle81"/>
	<circle cx="352.623" cy="807.967" r="4" fill="#0" id="circle82"/>
	<circle cx="354.656" cy="179.836" r="4" fill="#0" id="circle83"/>
	<circle cx="359.738" cy="385.148" r="4" fill="#0" id="circle84"/>
	<circle cx="362.787" cy="171.705" r="4" fill="#0" id="circle85"/>
	<circle cx="362.787" cy="186.951" r="4" fill="#0" id="circle86"/>
	<circle cx="362.787" cy="807.967" r="4" fill="#0" id="circle87"/>
	<circle cx="369.902" cy="385.148" r="4" fill="#0" id="circle88"/>
	<circle cx="370.918" cy="193.049" r="4" fill="#0" id="circle89"/>
	<circle cx="371.934" cy="166.623" r="4" fill="#0" id="circle90"/>
	<circle cx="372.951" cy="807.967" r="4" fill="#0" id="circle91"/>
	<circle cx="380.066" cy="198.131" r="4" fill="#0" id="circle92"/>
	<circle cx="380.066" cy="385.148" r="4" fill="#0" id="circle93"/>
	<circle cx="381.082" cy="161.541" r="4" fill="#0" id="circle94"/>
	<circle cx="383.115" cy="807.967" r="4" fill="#0" id="circle95"/>
	<circle cx="386.164" cy="206.262" r="4" fill="#0" id="circle96"/>
	<circle cx="390.23" cy="385.148" r="4" fill="#0" id="circle97"/>
	<circle cx="391.246" cy="161.541" r="4" fill="#0" id="circle98"/>
	<circle cx="393.279" cy="807.967" r="4" fill="#0" id="circle99"/>
	<circle cx="396.328" cy="210.328" r="4" fill="#0" id="circle100"/>
	<circle cx="400.393" cy="385.148" r="4" fill="#0" id="circle101"/>
	<circle cx="401.41" cy="161.541" r="4" fill="#0" id="circle102"/>
	<circle cx="403.443" cy="218.459" r="4" fill="#0" id="circle103"/>
	<circle cx="403.443" cy="807.967" r="4" fill="#0" id="circle104"/>
	<circle cx="410.557" cy="385.148" r="4" fill="#0" id="circle105"/>
	<circle cx="411.574" cy="161.541" r="4" fill="#0" id="circle106"/>
	<circle cx="413.607" cy="222.525" r="4" fill="#0" id="circle107"/>
	<circle cx="413.607" cy="807.967" r="4" fill="#0" id="circle108"/>
	<circle cx="420.721" cy="385.148" r="4" fill="#0" id="circle109"/>
	<circle cx="421.738" cy="161.541" r="4" fill="#0" id="circle110"/>
	<circle cx="423.77" cy="223.541" r="4" fill="#0" id="circle111"/>
	<circle cx="423.77" cy="807.967" r="4" fill="#0" id="circle112"/>
	<circle cx="430.885" cy="385.148" r="4" fill="#0" id="circle113"/>
	<circle cx="431.902" cy="161.541" r="4" fill="#0" id="circle114"/>
	<circle cx="433.934" cy="223.541" r="4" fill="#0" id="circle115"/>
	<circle cx="433.934" cy="807.967" r="4" fill="#0" id="circle116"/>
	<circle cx="440.033" cy="380.066" r="4" fill="#0" id="circle117"/>
	<circle cx="441.049" cy="156.459" r="4" fill="#0" id="circle118"/>
	<circle cx="441.049" cy="367.869" r="4" fill="#0" id="circle119"/>
	<circle cx="444.098" cy="223.541" r="4" fill="#0" id="circle120"/>
	<circle cx="444.098" cy="807.967" r="4" fill="#0" id="circle121"/>
	<circle cx="446.131" cy="347.541" r="4" fill="#0" id="circle122"/>
	<circle cx="446.131" cy="357.705" r="4" fill="#0" id="circle123"/>
	<circle cx="451.213" cy="154.426" r="4" fill="#0" id="circle124"/>
	<circle cx="451.213" cy="332.295" r="4" fill="#0" id="circle125"/>
	<circle cx="453.246" cy="228.623" r="4" fill="#0" id="circle126"/>
	<circle cx="454.262" cy="807.967" r="4" fill="#0" id="circle127"/>
	<circle cx="456.295" cy="317.049" r="4" fill="#0" id="circle128"/>
	<circle cx="461.377" cy="144.262" r="4" fill="#0" id="circle129"/>
	<circle cx="461.377" cy="234.721" r="4" fill="#0" id="circle130"/>
	<circle cx="461.377" cy="301.803" r="4" fill="#0" id="circle131"/>
	<circle cx="464.426" cy="807.967" r="4" fill="#0" id="circle132"/>
	<circle cx="466.459" cy="27.377" r="4" fill="#0" id="circle133"/>
	<circle cx="466.459" cy="37.541" r="4" fill="#0" id="circle134"/>
	<circle cx="466.459" cy="47.7049" r="4" fill="#0" id="circle135"/>
	<circle cx="466.459" cy="57.8689" r="4" fill="#0" id="circle136"/>
	<circle cx="466.459" cy="68.0328" r="4" fill="#0" id="circle137"/>
	<circle cx="466.459" cy="78.1967" r="4" fill="#0" id="circle138"/>
	<circle cx="466.459" cy="88.3607" r="4" fill="#0" id="circle139"/>
	<circle cx="466.459" cy="98.5246" r="4" fill="#0" id="circle140"/>
	<circle cx="466.459" cy="108.689" r="4" fill="#0" id="circle141"/>
	<circle cx="466.459" cy="118.852" r="4" fill="#0" id="circle142"/>
	<circle cx="466.459" cy="129.016" r="4" fill="#0" id="circle143"/>
	<circle cx="466.459" cy="243.869" r="4" fill="#0" id="circle144"/>
	<circle cx="466.459" cy="254.033" r="4" fill="#0" id="circle145"/>
	<circle cx="466.459" cy="264.197" r="4" fill="#0" id="circle146"/>
	<circle cx="466.459" cy="274.361" r="4" fill="#0" id="circle147"/>
	<circle cx="466.459" cy="284.525" r="4" fill="#0" id="circle148"/>
	<circle cx="471.541" cy="17.2131" r="4" fill="#0" id="circle149"/>
	<circle cx="474.59" cy="807.967" r="4" fill="#0" id="circle150"/>
	<circle cx="481.705" cy="12.1311" r="4" fill="#0" id="circle151"/>
	<circle cx="484.754" cy="807.967" r="4" fill="#0" id="circle152"/>
	<circle cx="491.869" cy="9.08197" r="4" fill="#0" id="circle153"/>
	<circle cx="494.918" cy="806.951" r="4" fill="#0" id="circle154"/>
	<circle cx="502.033" cy="7.04918" r="4" fill="#0" id="circle155"/>
	<circle cx="505.082" cy="802.885" r="4" fill="#0" id="circle156"/>
	<circle cx="512.197" cy="4" r="4" fill="#0" id="circle157"/>
	<circle cx="515.246" cy="802.885" r="4" fill="#0" id="circle158"/>
	<circle cx="522.361" cy="6.03279" r="4" fill="#0" id="circle159"/>
	<circle cx="525.41" cy="802.885" r="4" fill="#0" id="circle160"/>
	<circle cx="528.459" cy="14.1639" r="4" fill="#0" id="circle161"/>
	<circle cx="533.541" cy="23.3115" r="4" fill="#0" id="circle162"/>
	<circle cx="535.574" cy="801.869" r="4" fill="#0" id="circle163"/>
	<circle cx="538.623" cy="32.459" r="4" fill="#0" id="circle164"/>
	<circle cx="538.623" cy="42.623" r="4" fill="#0" id="circle165"/>
	<circle cx="538.623" cy="52.7869" r="4" fill="#0" id="circle166"/>
	<circle cx="538.623" cy="62.9508" r="4" fill="#0" id="circle167"/>
	<circle cx="543.705" cy="72.0984" r="4" fill="#0" id="circle168"/>
	<circle cx="543.705" cy="82.2623" r="4" fill="#0" id="circle169"/>
	<circle cx="543.705" cy="92.4262" r="4" fill="#0" id="circle170"/>
	<circle cx="543.705" cy="102.59" r="4" fill="#0" id="circle171"/>
	<circle cx="543.705" cy="112.754" r="4" fill="#0" id="circle172"/>
	<circle cx="543.705" cy="122.918" r="4" fill="#0" id="circle173"/>
	<circle cx="543.705" cy="133.082" r="4" fill="#0" id="circle174"/>
	<circle cx="545.738" cy="797.803" r="4" fill="#0" id="circle175"/>
	<circle cx="552.852" cy="138.164" r="4" fill="#0" id="circle176"/>
	<circle cx="555.902" cy="797.803" r="4" fill="#0" id="circle177"/>
	<circle cx="558.951" cy="248.951" r="4" fill="#0" id="circle178"/>
	<circle cx="558.951" cy="259.115" r="4" fill="#0" id="circle179"/>
	<circle cx="558.951" cy="269.279" r="4" fill="#0" id="circle180"/>
	<circle cx="558.951" cy="279.443" r="4" fill="#0" id="circle181"/>
	<circle cx="558.951" cy="289.607" r="4" fill="#0" id="circle182"/>
	<circle cx="558.951" cy="299.77" r="4" fill="#0" id="circle183"/>
	<circle cx="558.951" cy="309.934" r="4" fill="#0" id="circle184"/>
	<circle cx="558.951" cy="320.098" r="4" fill="#0" id="circle185"/>
	<circle cx="558.951" cy="330.262" r="4" fill="#0" id="circle186"/>
	<circle cx="558.951" cy="340.426" r="4" fill="#0" id="circle187"/>
	<circle cx="558.951" cy="350.59" r="4" fill="#0" id="circle188"/>
	<circle cx="558.951" cy="360.754" r="4" fill="#0" id="circle189"/>
	<circle cx="558.951" cy="370.918" r="4" fill="#0" id="circle190"/>
	<circle cx="558.951" cy="381.082" r="4" fill="#0" id="circle191"/>
	<circle cx="563.016" cy="141.213" r="4" fill="#0" id="circle192"/>
	<circle cx="564.033" cy="228.623" r="4" fill="#0" id="circle193"/>
	<circle cx="564.033" cy="238.787" r="4" fill="#0" id="circle194"/>
	<circle cx="564.033" cy="390.23" r="4" fill="#0" id="circle195"/>
	<circle cx="566.066" cy="797.803" r="4" fill="#0" id="circle196"/>
	<circle cx="573.18" cy="141.213" r="4" fill="#0" id="circle197"/>
	<circle cx="574.197" cy="223.541" r="4" fill="#0" id="circle198"/>
	<circle cx="574.197" cy="390.23" r="4" fill="#0" id="circle199"/>
	<circle cx="576.23" cy="797.803" r="4" fill="#0" id="circle200"/>
	<circle cx="583.344" cy="141.213" r="4" fill="#0" id="circle201"/>
	<circle cx="584.361" cy="223.541" r="4" fill="#0" id="circle202"/>
	<circle cx="584.361" cy="393.279" r="4" fill="#0" id="circle203"/>
	<circle cx="586.393" cy="797.803" r="4" fill="#0" id="circle204"/>
	<circle cx="593.508" cy="143.246" r="4" fill="#0" id="circle205"/>
	<circle cx="593.508" cy="218.459" r="4" fill="#0" id="circle206"/>
	<circle cx="594.525" cy="395.311" r="4" fill="#0" id="circle207"/>
	<circle cx="595.541" cy="792.721" r="4" fill="#0" id="circle208"/>
	<circle cx="603.672" cy="146.295" r="4" fill="#0" id="circle209"/>
	<circle cx="603.672" cy="218.459" r="4" fill="#0" id="circle210"/>
	<circle cx="604.689" cy="395.311" r="4" fill="#0" id="circle211"/>
	<circle cx="605.705" cy="792.721" r="4" fill="#0" id="circle212"/>
	<circle cx="613.836" cy="146.295" r="4" fill="#0" id="circle213"/>
	<circle cx="613.836" cy="215.41" r="4" fill="#0" id="circle214"/>
	<circle cx="614.852" cy="395.311" r="4" fill="#0" id="circle215"/>
	<circle cx="615.869" cy="792.721" r="4" fill="#0" id="circle216"/>
	<circle cx="622.984" cy="151.377" r="4" fill="#0" id="circle217"/>
	<circle cx="624" cy="213.377" r="4" fill="#0" id="circle218"/>
	<circle cx="625.016" cy="395.311" r="4" fill="#0" id="circle219"/>
	<circle cx="626.033" cy="792.721" r="4" fill="#0" id="circle220"/>
	<circle cx="633.148" cy="151.377" r="4" fill="#0" id="circle221"/>
	<circle cx="633.148" cy="208.295" r="4" fill="#0" id="circle222"/>
	<circle cx="635.18" cy="395.311" r="4" fill="#0" id="circle223"/>
	<circle cx="636.197" cy="792.721" r="4" fill="#0" id="circle224"/>
	<circle cx="643.311" cy="151.377" r="4" fill="#0" id="circle225"/>
	<circle cx="643.311" cy="206.262" r="4" fill="#0" id="circle226"/>
	<circle cx="645.344" cy="395.311" r="4" fill="#0" id="circle227"/>
	<circle cx="646.361" cy="792.721" r="4" fill="#0" id="circle228"/>
	<circle cx="652.459" cy="156.459" r="4" fill="#0" id="circle229"/>
	<circle cx="653.475" cy="201.18" r="4" fill="#0" id="circle230"/>
	<circle cx="655.508" cy="395.311" r="4" fill="#0" id="circle231"/>
	<circle cx="656.525" cy="792.721" r="4" fill="#0" id="circle232"/>
	<circle cx="661.607" cy="161.541" r="4" fill="#0" id="circle233"/>
	<circle cx="663.639" cy="196.098" r="4" fill="#0" id="circle234"/>
	<circle cx="665.672" cy="395.311" r="4" fill="#0" id="circle235"/>
	<circle cx="666.689" cy="792.721" r="4" fill="#0" id="circle236"/>
	<circle cx="669.738" cy="168.656" r="4" fill="#0" id="circle237"/>
	<circle cx="670.754" cy="178.82" r="4" fill="#0" id="circle238"/>
	<circle cx="675.836" cy="395.311" r="4" fill="#0" id="circle239"/>
	<circle cx="676.852" cy="792.721" r="4" fill="#0" id="circle240"/>
	<circle cx="686" cy="395.311" r="4" fill="#0" id="circle241"/>
	<circle cx="687.016" cy="792.721" r="4" fill="#0" id="circle242"/>
	<circle cx="696.164" cy="395.311" r="4" fill="#0" id="circle243"/>
	<circle cx="697.18" cy="792.721" r="4" fill="#0" id="circle244"/>
	<circle cx="706.328" cy="395.311" r="4" fill="#0" id="circle245"/>
	<circle cx="707.344" cy="792.721" r="4" fill="#0" id="circle246"/>
	<circle cx="716.492" cy="395.311" r="4" fill="#0" id="circle247"/>
	<circle cx="717.508" cy="792.721" r="4" fill="#0" id="circle248"/>
	<circle cx="726.656" cy="398.361" r="4" fill="#0" id="circle249"/>
	<circle cx="727.672" cy="792.721" r="4" fill="#0" id="circle250"/>
	<circle cx="735.803" cy="403.443" r="4" fill="#0" id="circle251"/>
	<circle cx="737.836" cy="792.721" r="4" fill="#0" id="circle252"/>
	<circle cx="745.967" cy="407.508" r="4" fill="#0" id="circle253"/>
	<circle cx="748" cy="792.721" r="4" fill="#0" id="circle254"/>
	<circle cx="755.115" cy="412.59" r="4" fill="#0" id="circle255"/>
	<circle cx="758.164" cy="792.721" r="4" fill="#0" id="circle256"/>
	<circle cx="762.23" cy="420.721" r="4" fill="#0" id="circle257"/>
	<circle cx="767.311" cy="787.639" r="4" fill="#0" id="circle258"/>
	<circle cx="772.393" cy="423.77" r="4" fill="#0" id="circle259"/>
	<circle cx="777.475" cy="787.639" r="4" fill="#0" id="circle260"/>
	<circle cx="779.508" cy="431.902" r="4" fill="#0" id="circle261"/>
	<circle cx="787.639" cy="787.639" r="4" fill="#0" id="circle262"/>
	<circle cx="789.672" cy="435.967" r="4" fill="#0" id="circle263"/>
	<circle cx="796.787" cy="444.098" r="4" fill="#0" id="circle264"/>
	<circle cx="797.803" cy="787.639" r="4" fill="#0" id="circle265"/>
	<circle cx="802.885" cy="452.23" r="4" fill="#0" id="circle266"/>
	<circle cx="806.951" cy="782.557" r="4" fill="#0" id="circle267"/>
	<circle cx="807.967" cy="461.377" r="4" fill="#0" id="circle268"/>
	<circle cx="813.049" cy="470.525" r="4" fill="#0" id="circle269"/>
	<circle cx="817.115" cy="782.557" r="4" fill="#0" id="circle270"/>
	<circle cx="818.131" cy="479.672" r="4" fill="#0" id="circle271"/>
	<circle cx="818.131" cy="489.836" r="4" fill="#0" id="circle272"/>
	<circle cx="818.131" cy="500" r="4" fill="#0" id="circle273"/>
	<circle cx="826.262" cy="507.115" r="4" fill="#0" id="circle274"/>
	<circle cx="827.279" cy="779.508" r="4" fill="#0" id="circle275"/>
	<circle cx="836.426" cy="507.115" r="4" fill="#0" id="circle276"/>
	<circle cx="837.443" cy="777.475" r="4" fill="#0" id="circle277"/>
	<circle cx="846.59" cy="507.115" r="4" fill="#0" id="circle278"/>
	<circle cx="846.59" cy="772.393" r="4" fill="#0" id="circle279"/>
	<circle cx="856.754" cy="507.115" r="4" fill="#0" id="circle280"/>
	<circle cx="856.754" cy="772.393" r="4" fill="#0" id="circle281"/>
	<circle cx="865.902" cy="767.311" r="4" fill="#0" id="circle282"/>
	<circle cx="866.918" cy="507.115" r="4" fill="#0" id="circle283"/>
	<circle cx="876.066" cy="767.311" r="4" fill="#0" id="circle284"/>
	<circle cx="877.082" cy="507.115" r="4" fill="#0" id="circle285"/>
	<circle cx="885.213" cy="762.23" r="4" fill="#0" id="circle286"/>
	<circle cx="886.23" cy="512.197" r="4" fill="#0" id="circle287"/>
	<circle cx="895.377" cy="762.23" r="4" fill="#0" id="circle288"/>
	<circle cx="896.393" cy="512.197" r="4" fill="#0" id="circle289"/>
	<circle cx="905.541" cy="517.279" r="4" fill="#0" id="circle290"/>
	<circle cx="905.541" cy="762.23" r="4" fill="#0" id="circle291"/>
	<circle cx="914.689" cy="522.361" r="4" fill="#0" id="circle292"/>
	<circle cx="914.689" cy="757.148" r="4" fill="#0" id="circle293"/>
	<circle cx="923.836" cy="527.443" r="4" fill="#0" id="circle294"/>
	<circle cx="924.852" cy="752.066" r="4" fill="#0" id="circle295"/>
	<circle cx="931.967" cy="533.541" r="4" fill="#0" id="circle296"/>
	<circle cx="935.016" cy="752.066" r="4" fill="#0" id="circle297"/>
	<circle cx="940.098" cy="540.656" r="4" fill="#0" id="circle298"/>
	<circle cx="944.164" cy="746.984" r="4" fill="#0" id="circle299"/>
	<circle cx="947.213" cy="548.787" r="4" fill="#0" id="circle300"/>
	<circle cx="953.311" cy="741.902" r="4" fill="#0" id="circle301"/>
	<circle cx="955.344" cy="555.902" r="4" fill="#0" id="circle302"/>
	<circle cx="960.426" cy="565.049" r="4" fill="#0" id="circle303"/>
	<circle cx="963.475" cy="739.869" r="4" fill="#0" id="circle304"/>
	<circle cx="966.525" cy="573.18" r="4" fill="#0" id="circle305"/>
	<circle cx="970.59" cy="583.344" r="4" fill="#0" id="circle306"/>
	<circle cx="973.639" cy="734.787" r="4" fill="#0" id="circle307"/>
	<circle cx="975.672" cy="592.492" r="4" fill="#0" id="circle308"/>
	<circle cx="975.672" cy="602.656" r="4" fill="#0" id="circle309"/>
	<circle cx="980.754" cy="726.656" r="4" fill="#0" id="circle310"/>
	<circle cx="983.803" cy="609.77" r="4" fill="#0" id="circle311"/>
	<circle cx="987.869" cy="619.934" r="4" fill="#0" id="circle312"/>
	<circle cx="988.885" cy="719.541" r="4" fill="#0" id="circle313"/>
	<circle cx="990.918" cy="630.098" r="4" fill="#0" id="circle314"/>
	<circle cx="993.967" cy="709.377" r="4" fill="#0" id="circle315"/>
	<circle cx="996" cy="639.246" r="4" fill="#0" id="circle316"/>
	<circle cx="996" cy="649.41" r="4" fill="#0" id="circle317"/>
	<circle cx="996" cy="659.574" r="4" fill="#0" id="circle318"/>
	<circle cx="996" cy="669.738" r="4" fill="#0" id="circle319"/>
	<circle cx="996" cy="679.902" r="4" fill="#0" id="circle320"/>
	<circle cx="996" cy="690.066" r="4" fill="#0" id="circle321"/>
	</g>
</svg>