<?xml version="1.0" encoding="UTF-8" standalone="no"?>
<!-- Created with CurveBenchmark -->
<svg
	xmlns:dc="http://purl.org/dc/elements/1.1/"
	xmlns:cc="http://creativecommons.org/ns#"
	xmlns:rdf="http://www.w3.org/1999/02/22-rdf-syntax-ns#"
	xmlns:svg="http://www.w3.org/2000/svg"
	xmlns="http://www.w3.org/2000/svg"
	xmlns:sodipodi="http://sodipodi.sourceforge.net/DTD/sodipodi-0.dtd"
	xmlns:inkscape="http://www.inkscape.org/namespaces/inkscape"
	width="1000"
	height="1000"
	id="svg2"
	version="1.1"
	sodipodi:docname="manifold/nncrust-tool19.png.txt">
<defs
	id="defs4" />
<metadata
	id="metadata7">
	<rdf:RDF>
		<cc:Work
			rdf:about="">
			<dc:format>image/svg+xml</dc:format>
			<dc:type
				rdf:resource="http://purl.org/dc/dcmitype/StillImage" />
			<dc:title></dc:title>
		</cc:Work>
	</rdf:RDF>
</metadata>
<g
	inkscape:label="Layer 1"
	inkscape:groupmode="layer"
	id="layer1">
	<path style="fill:none;stroke:red;stroke-width:1px;stroke-linecap:butt;stroke-linejoin:miter;stroke-opacity:1" d="M 287.429,210.903 315.771,196.731 z" id="boundary" inkscape:connector-curvature="0" />
	<path style="fill:none;stroke:red;stroke-width:1px;stroke-linecap:butt;stroke-linejoin:miter;stroke-opacity:1" d="M 287.429,210.903 259.086,216.571 z" id="boundary" inkscape:connector-curvature="0" />
	<path style="fill:none;stroke:red;stroke-width:1px;stroke-linecap:butt;stroke-linejoin:miter;stroke-opacity:1" d="M 344.114,182.56 372.457,168.389 z" id="boundary" inkscape:connector-curvature="0" />
	<path style="fill:none;stroke:red;stroke-width:1px;stroke-linecap:butt;stroke-linejoin:miter;stroke-opacity:1" d="M 400.8,154.217 372.457,168.389 z" id="boundary" inkscape:connector-curvature="0" />
	<path style="fill:none;stroke:red;stroke-width:1px;stroke-linecap:butt;stroke-linejoin:miter;stroke-opacity:1" d="M 344.114,182.56 315.771,196.731 z" id="boundary" inkscape:connector-curvature="0" />
	<path style="fill:none;stroke:red;stroke-width:1px;stroke-linecap:butt;stroke-linejoin:miter;stroke-opacity:1" d="M 176.891,230.743 151.383,244.914 z" id="boundary" inkscape:connector-curvature="0" />
	<path style="fill:none;stroke:red;stroke-width:1px;stroke-linecap:butt;stroke-linejoin:miter;stroke-opacity:1" d="M 151.383,244.914 123.04,247.749 z" id="boundary" inkscape:connector-curvature="0" />
	<path style="fill:none;stroke:red;stroke-width:1px;stroke-linecap:butt;stroke-linejoin:miter;stroke-opacity:1" d="M 176.891,230.743 414.971,111.703 z" id="boundary" inkscape:connector-curvature="0" />
	<path style="fill:none;stroke:red;stroke-width:1px;stroke-linecap:butt;stroke-linejoin:miter;stroke-opacity:1" d="M 176.891,230.743 205.234,230.743 z" id="boundary" inkscape:connector-curvature="0" />
	<path style="fill:none;stroke:red;stroke-width:1px;stroke-linecap:butt;stroke-linejoin:miter;stroke-opacity:1" d="M 259.086,216.571 233.577,230.743 z" id="boundary" inkscape:connector-curvature="0" />
	<path style="fill:none;stroke:red;stroke-width:1px;stroke-linecap:butt;stroke-linejoin:miter;stroke-opacity:1" d="M 233.577,230.743 205.234,230.743 z" id="boundary" inkscape:connector-curvature="0" />
	<path style="fill:none;stroke:red;stroke-width:1px;stroke-linecap:butt;stroke-linejoin:miter;stroke-opacity:1" d="M 443.314,103.2 468.823,89.0286 z" id="boundary" inkscape:connector-curvature="0" />
	<path style="fill:none;stroke:red;stroke-width:1px;stroke-linecap:butt;stroke-linejoin:miter;stroke-opacity:1" d="M 443.314,103.2 414.971,111.703 z" id="boundary" inkscape:connector-curvature="0" />
	<path style="fill:none;stroke:red;stroke-width:1px;stroke-linecap:butt;stroke-linejoin:miter;stroke-opacity:1" d="M 468.823,89.0286 497.166,89.0286 z" id="boundary" inkscape:connector-curvature="0" />
	<path style="fill:none;stroke:red;stroke-width:1px;stroke-linecap:butt;stroke-linejoin:miter;stroke-opacity:1" d="M 525.509,89.0286 497.166,89.0286 z" id="boundary" inkscape:connector-curvature="0" />
	<path style="fill:none;stroke:red;stroke-width:1px;stroke-linecap:butt;stroke-linejoin:miter;stroke-opacity:1" d="M 553.851,89.0286 525.509,89.0286 z" id="boundary" inkscape:connector-curvature="0" />
	<path style="fill:none;stroke:red;stroke-width:1px;stroke-linecap:butt;stroke-linejoin:miter;stroke-opacity:1" d="M 429.143,137.211 414.971,111.703 z" id="boundary" inkscape:connector-curvature="0" />
	<path style="fill:none;stroke:red;stroke-width:1px;stroke-linecap:butt;stroke-linejoin:miter;stroke-opacity:1" d="M 400.8,154.217 429.143,137.211 z" id="boundary" inkscape:connector-curvature="0" />
	<path style="fill:none;stroke:red;stroke-width:1px;stroke-linecap:butt;stroke-linejoin:miter;stroke-opacity:1" d="M 514.171,233.577 539.68,219.406 z" id="boundary" inkscape:connector-curvature="0" />
	<path style="fill:none;stroke:red;stroke-width:1px;stroke-linecap:butt;stroke-linejoin:miter;stroke-opacity:1" d="M 539.68,219.406 568.023,219.406 z" id="boundary" inkscape:connector-curvature="0" />
	<path style="fill:none;stroke:red;stroke-width:1px;stroke-linecap:butt;stroke-linejoin:miter;stroke-opacity:1" d="M 514.171,233.577 485.829,233.577 z" id="boundary" inkscape:connector-curvature="0" />
	<path style="fill:none;stroke:red;stroke-width:1px;stroke-linecap:butt;stroke-linejoin:miter;stroke-opacity:1" d="M 460.32,247.749 485.829,233.577 z" id="boundary" inkscape:connector-curvature="0" />
	<path style="fill:none;stroke:red;stroke-width:1px;stroke-linecap:butt;stroke-linejoin:miter;stroke-opacity:1" d="M 26.6743,358.286 4,338.446 z" id="boundary" inkscape:connector-curvature="0" />
	<path style="fill:none;stroke:red;stroke-width:1px;stroke-linecap:butt;stroke-linejoin:miter;stroke-opacity:1" d="M 4,338.446 18.1714,295.931 z" id="boundary" inkscape:connector-curvature="0" />
	<path style="fill:none;stroke:red;stroke-width:1px;stroke-linecap:butt;stroke-linejoin:miter;stroke-opacity:1" d="M 94.6971,259.086 69.1886,273.257 z" id="boundary" inkscape:connector-curvature="0" />
	<path style="fill:none;stroke:red;stroke-width:1px;stroke-linecap:butt;stroke-linejoin:miter;stroke-opacity:1" d="M 69.1886,273.257 40.8457,273.257 z" id="boundary" inkscape:connector-curvature="0" />
	<path style="fill:none;stroke:red;stroke-width:1px;stroke-linecap:butt;stroke-linejoin:miter;stroke-opacity:1" d="M 123.04,247.749 94.6971,259.086 z" id="boundary" inkscape:connector-curvature="0" />
	<path style="fill:none;stroke:red;stroke-width:1px;stroke-linecap:butt;stroke-linejoin:miter;stroke-opacity:1" d="M 18.1714,295.931 40.8457,273.257 z" id="boundary" inkscape:connector-curvature="0" />
	<path style="fill:none;stroke:red;stroke-width:1px;stroke-linecap:butt;stroke-linejoin:miter;stroke-opacity:1" d="M 100.366,375.291 74.8571,389.463 z" id="boundary" inkscape:connector-curvature="0" />
	<path style="fill:none;stroke:red;stroke-width:1px;stroke-linecap:butt;stroke-linejoin:miter;stroke-opacity:1" d="M 74.8571,389.463 49.3486,375.291 z" id="boundary" inkscape:connector-curvature="0" />
	<path style="fill:none;stroke:red;stroke-width:1px;stroke-linecap:butt;stroke-linejoin:miter;stroke-opacity:1" d="M 49.3486,375.291 26.6743,358.286 z" id="boundary" inkscape:connector-curvature="0" />
	<path style="fill:none;stroke:red;stroke-width:1px;stroke-linecap:butt;stroke-linejoin:miter;stroke-opacity:1" d="M 128.709,369.623 100.366,375.291 z" id="boundary" inkscape:connector-curvature="0" />
	<path style="fill:none;stroke:red;stroke-width:1px;stroke-linecap:butt;stroke-linejoin:miter;stroke-opacity:1" d="M 157.051,361.12 128.709,369.623 z" id="boundary" inkscape:connector-curvature="0" />
	<path style="fill:none;stroke:red;stroke-width:1px;stroke-linecap:butt;stroke-linejoin:miter;stroke-opacity:1" d="M 157.051,361.12 185.394,361.12 z" id="boundary" inkscape:connector-curvature="0" />
	<path style="fill:none;stroke:red;stroke-width:1px;stroke-linecap:butt;stroke-linejoin:miter;stroke-opacity:1" d="M 324.274,315.771 346.949,290.263 z" id="boundary" inkscape:connector-curvature="0" />
	<path style="fill:none;stroke:red;stroke-width:1px;stroke-linecap:butt;stroke-linejoin:miter;stroke-opacity:1" d="M 346.949,290.263 375.291,276.091 z" id="boundary" inkscape:connector-curvature="0" />
	<path style="fill:none;stroke:red;stroke-width:1px;stroke-linecap:butt;stroke-linejoin:miter;stroke-opacity:1" d="M 267.589,332.777 242.08,346.949 z" id="boundary" inkscape:connector-curvature="0" />
	<path style="fill:none;stroke:red;stroke-width:1px;stroke-linecap:butt;stroke-linejoin:miter;stroke-opacity:1" d="M 403.634,261.92 431.977,247.749 z" id="boundary" inkscape:connector-curvature="0" />
	<path style="fill:none;stroke:red;stroke-width:1px;stroke-linecap:butt;stroke-linejoin:miter;stroke-opacity:1" d="M 431.977,247.749 460.32,247.749 z" id="boundary" inkscape:connector-curvature="0" />
	<path style="fill:none;stroke:red;stroke-width:1px;stroke-linecap:butt;stroke-linejoin:miter;stroke-opacity:1" d="M 375.291,276.091 403.634,261.92 z" id="boundary" inkscape:connector-curvature="0" />
	<path style="fill:none;stroke:red;stroke-width:1px;stroke-linecap:butt;stroke-linejoin:miter;stroke-opacity:1" d="M 213.737,355.451 185.394,361.12 z" id="boundary" inkscape:connector-curvature="0" />
	<path style="fill:none;stroke:red;stroke-width:1px;stroke-linecap:butt;stroke-linejoin:miter;stroke-opacity:1" d="M 213.737,355.451 242.08,346.949 z" id="boundary" inkscape:connector-curvature="0" />
	<path style="fill:none;stroke:red;stroke-width:1px;stroke-linecap:butt;stroke-linejoin:miter;stroke-opacity:1" d="M 295.931,329.943 267.589,332.777 z" id="boundary" inkscape:connector-curvature="0" />
	<path style="fill:none;stroke:red;stroke-width:1px;stroke-linecap:butt;stroke-linejoin:miter;stroke-opacity:1" d="M 324.274,315.771 295.931,329.943 z" id="boundary" inkscape:connector-curvature="0" />
	<path style="fill:none;stroke:red;stroke-width:1px;stroke-linecap:butt;stroke-linejoin:miter;stroke-opacity:1" d="M 743.749,74.8571 769.257,55.0171 z" id="boundary" inkscape:connector-curvature="0" />
	<path style="fill:none;stroke:red;stroke-width:1px;stroke-linecap:butt;stroke-linejoin:miter;stroke-opacity:1" d="M 797.6,40.8457 820.274,18.1714 z" id="boundary" inkscape:connector-curvature="0" />
	<path style="fill:none;stroke:red;stroke-width:1px;stroke-linecap:butt;stroke-linejoin:miter;stroke-opacity:1" d="M 797.6,40.8457 769.257,55.0171 z" id="boundary" inkscape:connector-curvature="0" />
	<path style="fill:none;stroke:red;stroke-width:1px;stroke-linecap:butt;stroke-linejoin:miter;stroke-opacity:1" d="M 582.194,89.0286 553.851,89.0286 z" id="boundary" inkscape:connector-curvature="0" />
	<path style="fill:none;stroke:red;stroke-width:1px;stroke-linecap:butt;stroke-linejoin:miter;stroke-opacity:1" d="M 820.274,18.1714 848.617,4 z" id="boundary" inkscape:connector-curvature="0" />
	<path style="fill:none;stroke:red;stroke-width:1px;stroke-linecap:butt;stroke-linejoin:miter;stroke-opacity:1" d="M 636.046,103.2 607.703,103.2 z" id="boundary" inkscape:connector-curvature="0" />
	<path style="fill:none;stroke:red;stroke-width:1px;stroke-linecap:butt;stroke-linejoin:miter;stroke-opacity:1" d="M 607.703,103.2 582.194,89.0286 z" id="boundary" inkscape:connector-curvature="0" />
	<path style="fill:none;stroke:red;stroke-width:1px;stroke-linecap:butt;stroke-linejoin:miter;stroke-opacity:1" d="M 596.366,213.737 568.023,219.406 z" id="boundary" inkscape:connector-curvature="0" />
	<path style="fill:none;stroke:red;stroke-width:1px;stroke-linecap:butt;stroke-linejoin:miter;stroke-opacity:1" d="M 664.389,103.2 689.897,89.0286 z" id="boundary" inkscape:connector-curvature="0" />
	<path style="fill:none;stroke:red;stroke-width:1px;stroke-linecap:butt;stroke-linejoin:miter;stroke-opacity:1" d="M 689.897,89.0286 718.24,89.0286 z" id="boundary" inkscape:connector-curvature="0" />
	<path style="fill:none;stroke:red;stroke-width:1px;stroke-linecap:butt;stroke-linejoin:miter;stroke-opacity:1" d="M 664.389,103.2 636.046,103.2 z" id="boundary" inkscape:connector-curvature="0" />
	<path style="fill:none;stroke:red;stroke-width:1px;stroke-linecap:butt;stroke-linejoin:miter;stroke-opacity:1" d="M 743.749,74.8571 718.24,89.0286 z" id="boundary" inkscape:connector-curvature="0" />
	<path style="fill:none;stroke:red;stroke-width:1px;stroke-linecap:butt;stroke-linejoin:miter;stroke-opacity:1" d="M 899.634,106.034 876.96,4 z" id="boundary" inkscape:connector-curvature="0" />
	<path style="fill:none;stroke:red;stroke-width:1px;stroke-linecap:butt;stroke-linejoin:miter;stroke-opacity:1" d="M 876.96,4 905.303,4 z" id="boundary" inkscape:connector-curvature="0" />
	<path style="fill:none;stroke:red;stroke-width:1px;stroke-linecap:butt;stroke-linejoin:miter;stroke-opacity:1" d="M 933.646,4 959.154,18.1714 z" id="boundary" inkscape:connector-curvature="0" />
	<path style="fill:none;stroke:red;stroke-width:1px;stroke-linecap:butt;stroke-linejoin:miter;stroke-opacity:1" d="M 959.154,18.1714 970.491,46.5143 z" id="boundary" inkscape:connector-curvature="0" />
	<path style="fill:none;stroke:red;stroke-width:1px;stroke-linecap:butt;stroke-linejoin:miter;stroke-opacity:1" d="M 984.663,72.0229 970.491,46.5143 z" id="boundary" inkscape:connector-curvature="0" />
	<path style="fill:none;stroke:red;stroke-width:1px;stroke-linecap:butt;stroke-linejoin:miter;stroke-opacity:1" d="M 905.303,4 933.646,4 z" id="boundary" inkscape:connector-curvature="0" />
	<path style="fill:none;stroke:red;stroke-width:1px;stroke-linecap:butt;stroke-linejoin:miter;stroke-opacity:1" d="M 899.634,106.034 927.977,106.034 z" id="boundary" inkscape:connector-curvature="0" />
	<path style="fill:none;stroke:red;stroke-width:1px;stroke-linecap:butt;stroke-linejoin:miter;stroke-opacity:1" d="M 899.634,134.377 899.634,106.034 z" id="boundary" inkscape:connector-curvature="0" />
	<path style="fill:none;stroke:red;stroke-width:1px;stroke-linecap:butt;stroke-linejoin:miter;stroke-opacity:1" d="M 984.663,72.0229 984.663,106.034 z" id="boundary" inkscape:connector-curvature="0" />
	<path style="fill:none;stroke:red;stroke-width:1px;stroke-linecap:butt;stroke-linejoin:miter;stroke-opacity:1" d="M 984.663,106.034 956.32,106.034 z" id="boundary" inkscape:connector-curvature="0" />
	<path style="fill:none;stroke:red;stroke-width:1px;stroke-linecap:butt;stroke-linejoin:miter;stroke-opacity:1" d="M 956.32,106.034 927.977,106.034 z" id="boundary" inkscape:connector-curvature="0" />
	<path style="fill:none;stroke:red;stroke-width:1px;stroke-linecap:butt;stroke-linejoin:miter;stroke-opacity:1" d="M 996,230.743 984.663,106.034 z" id="boundary" inkscape:connector-curvature="0" />
	<path style="fill:none;stroke:red;stroke-width:1px;stroke-linecap:butt;stroke-linejoin:miter;stroke-opacity:1" d="M 848.617,4 876.96,4 z" id="boundary" inkscape:connector-curvature="0" />
	<path style="fill:none;stroke:red;stroke-width:1px;stroke-linecap:butt;stroke-linejoin:miter;stroke-opacity:1" d="M 596.366,213.737 624.709,205.234 z" id="boundary" inkscape:connector-curvature="0" />
	<path style="fill:none;stroke:red;stroke-width:1px;stroke-linecap:butt;stroke-linejoin:miter;stroke-opacity:1" d="M 624.709,205.234 650.217,219.406 z" id="boundary" inkscape:connector-curvature="0" />
	<path style="fill:none;stroke:red;stroke-width:1px;stroke-linecap:butt;stroke-linejoin:miter;stroke-opacity:1" d="M 650.217,219.406 678.56,219.406 z" id="boundary" inkscape:connector-curvature="0" />
	<path style="fill:none;stroke:red;stroke-width:1px;stroke-linecap:butt;stroke-linejoin:miter;stroke-opacity:1" d="M 678.56,219.406 706.903,219.406 z" id="boundary" inkscape:connector-curvature="0" />
	<path style="fill:none;stroke:red;stroke-width:1px;stroke-linecap:butt;stroke-linejoin:miter;stroke-opacity:1" d="M 706.903,219.406 732.411,233.577 z" id="boundary" inkscape:connector-curvature="0" />
	<path style="fill:none;stroke:red;stroke-width:1px;stroke-linecap:butt;stroke-linejoin:miter;stroke-opacity:1" d="M 732.411,233.577 760.754,233.577 z" id="boundary" inkscape:connector-curvature="0" />
	<path style="fill:none;stroke:red;stroke-width:1px;stroke-linecap:butt;stroke-linejoin:miter;stroke-opacity:1" d="M 760.754,233.577 783.429,250.583 z" id="boundary" inkscape:connector-curvature="0" />
	<path style="fill:none;stroke:red;stroke-width:1px;stroke-linecap:butt;stroke-linejoin:miter;stroke-opacity:1" d="M 811.771,261.92 783.429,250.583 z" id="boundary" inkscape:connector-curvature="0" />
	<path style="fill:none;stroke:red;stroke-width:1px;stroke-linecap:butt;stroke-linejoin:miter;stroke-opacity:1" d="M 851.451,304.434 828.777,284.594 z" id="boundary" inkscape:connector-curvature="0" />
	<path style="fill:none;stroke:red;stroke-width:1px;stroke-linecap:butt;stroke-linejoin:miter;stroke-opacity:1" d="M 828.777,284.594 811.771,261.92 z" id="boundary" inkscape:connector-curvature="0" />
	<path style="fill:none;stroke:red;stroke-width:1px;stroke-linecap:butt;stroke-linejoin:miter;stroke-opacity:1" d="M 851.451,304.434 876.96,318.606 z" id="boundary" inkscape:connector-curvature="0" />
	<path style="fill:none;stroke:red;stroke-width:1px;stroke-linecap:butt;stroke-linejoin:miter;stroke-opacity:1" d="M 933.646,174.057 905.303,162.72 z" id="boundary" inkscape:connector-curvature="0" />
	<path style="fill:none;stroke:red;stroke-width:1px;stroke-linecap:butt;stroke-linejoin:miter;stroke-opacity:1" d="M 905.303,162.72 899.634,134.377 z" id="boundary" inkscape:connector-curvature="0" />
	<path style="fill:none;stroke:red;stroke-width:1px;stroke-linecap:butt;stroke-linejoin:miter;stroke-opacity:1" d="M 996,230.743 970.491,216.571 z" id="boundary" inkscape:connector-curvature="0" />
	<path style="fill:none;stroke:red;stroke-width:1px;stroke-linecap:butt;stroke-linejoin:miter;stroke-opacity:1" d="M 970.491,216.571 959.154,188.229 z" id="boundary" inkscape:connector-curvature="0" />
	<path style="fill:none;stroke:red;stroke-width:1px;stroke-linecap:butt;stroke-linejoin:miter;stroke-opacity:1" d="M 996,230.743 993.166,270.423 z" id="boundary" inkscape:connector-curvature="0" />
	<path style="fill:none;stroke:red;stroke-width:1px;stroke-linecap:butt;stroke-linejoin:miter;stroke-opacity:1" d="M 933.646,174.057 959.154,188.229 z" id="boundary" inkscape:connector-curvature="0" />
	<path style="fill:none;stroke:red;stroke-width:1px;stroke-linecap:butt;stroke-linejoin:miter;stroke-opacity:1" d="M 930.811,332.777 902.469,332.777 z" id="boundary" inkscape:connector-curvature="0" />
	<path style="fill:none;stroke:red;stroke-width:1px;stroke-linecap:butt;stroke-linejoin:miter;stroke-opacity:1" d="M 902.469,332.777 876.96,318.606 z" id="boundary" inkscape:connector-curvature="0" />
	<path style="fill:none;stroke:red;stroke-width:1px;stroke-linecap:butt;stroke-linejoin:miter;stroke-opacity:1" d="M 956.32,318.606 970.491,290.263 z" id="boundary" inkscape:connector-curvature="0" />
	<path style="fill:none;stroke:red;stroke-width:1px;stroke-linecap:butt;stroke-linejoin:miter;stroke-opacity:1" d="M 970.491,290.263 993.166,270.423 z" id="boundary" inkscape:connector-curvature="0" />
	<path style="fill:none;stroke:red;stroke-width:1px;stroke-linecap:butt;stroke-linejoin:miter;stroke-opacity:1" d="M 956.32,318.606 930.811,332.777 z" id="boundary" inkscape:connector-curvature="0" />
	<circle cx="4" cy="338.446" r="4" fill="#0" id="circle0"/>
	<circle cx="18.1714" cy="295.931" r="4" fill="#0" id="circle1"/>
	<circle cx="26.6743" cy="358.286" r="4" fill="#0" id="circle2"/>
	<circle cx="40.8457" cy="273.257" r="4" fill="#0" id="circle3"/>
	<circle cx="49.3486" cy="375.291" r="4" fill="#0" id="circle4"/>
	<circle cx="69.1886" cy="273.257" r="4" fill="#0" id="circle5"/>
	<circle cx="74.8571" cy="389.463" r="4" fill="#0" id="circle6"/>
	<circle cx="94.6971" cy="259.086" r="4" fill="#0" id="circle7"/>
	<circle cx="100.366" cy="375.291" r="4" fill="#0" id="circle8"/>
	<circle cx="123.04" cy="247.749" r="4" fill="#0" id="circle9"/>
	<circle cx="128.709" cy="369.623" r="4" fill="#0" id="circle10"/>
	<circle cx="151.383" cy="244.914" r="4" fill="#0" id="circle11"/>
	<circle cx="157.051" cy="361.12" r="4" fill="#0" id="circle12"/>
	<circle cx="176.891" cy="230.743" r="4" fill="#0" id="circle13"/>
	<circle cx="185.394" cy="361.12" r="4" fill="#0" id="circle14"/>
	<circle cx="205.234" cy="230.743" r="4" fill="#0" id="circle15"/>
	<circle cx="213.737" cy="355.451" r="4" fill="#0" id="circle16"/>
	<circle cx="233.577" cy="230.743" r="4" fill="#0" id="circle17"/>
	<circle cx="242.08" cy="346.949" r="4" fill="#0" id="circle18"/>
	<circle cx="259.086" cy="216.571" r="4" fill="#0" id="circle19"/>
	<circle cx="267.589" cy="332.777" r="4" fill="#0" id="circle20"/>
	<circle cx="287.429" cy="210.903" r="4" fill="#0" id="circle21"/>
	<circle cx="295.931" cy="329.943" r="4" fill="#0" id="circle22"/>
	<circle cx="315.771" cy="196.731" r="4" fill="#0" id="circle23"/>
	<circle cx="324.274" cy="315.771" r="4" fill="#0" id="circle24"/>
	<circle cx="344.114" cy="182.56" r="4" fill="#0" id="circle25"/>
	<circle cx="346.949" cy="290.263" r="4" fill="#0" id="circle26"/>
	<circle cx="372.457" cy="168.389" r="4" fill="#0" id="circle27"/>
	<circle cx="375.291" cy="276.091" r="4" fill="#0" id="circle28"/>
	<circle cx="400.8" cy="154.217" r="4" fill="#0" id="circle29"/>
	<circle cx="403.634" cy="261.92" r="4" fill="#0" id="circle30"/>
	<circle cx="414.971" cy="111.703" r="4" fill="#0" id="circle31"/>
	<circle cx="429.143" cy="137.211" r="4" fill="#0" id="circle32"/>
	<circle cx="431.977" cy="247.749" r="4" fill="#0" id="circle33"/>
	<circle cx="443.314" cy="103.2" r="4" fill="#0" id="circle34"/>
	<circle cx="460.32" cy="247.749" r="4" fill="#0" id="circle35"/>
	<circle cx="468.823" cy="89.0286" r="4" fill="#0" id="circle36"/>
	<circle cx="485.829" cy="233.577" r="4" fill="#0" id="circle37"/>
	<circle cx="497.166" cy="89.0286" r="4" fill="#0" id="circle38"/>
	<circle cx="514.171" cy="233.577" r="4" fill="#0" id="circle39"/>
	<circle cx="525.509" cy="89.0286" r="4" fill="#0" id="circle40"/>
	<circle cx="539.68" cy="219.406" r="4" fill="#0" id="circle41"/>
	<circle cx="553.851" cy="89.0286" r="4" fill="#0" id="circle42"/>
	<circle cx="568.023" cy="219.406" r="4" fill="#0" id="circle43"/>
	<circle cx="582.194" cy="89.0286" r="4" fill="#0" id="circle44"/>
	<circle cx="596.366" cy="213.737" r="4" fill="#0" id="circle45"/>
	<circle cx="607.703" cy="103.2" r="4" fill="#0" id="circle46"/>
	<circle cx="624.709" cy="205.234" r="4" fill="#0" id="circle47"/>
	<circle cx="636.046" cy="103.2" r="4" fill="#0" id="circle48"/>
	<circle cx="650.217" cy="219.406" r="4" fill="#0" id="circle49"/>
	<circle cx="664.389" cy="103.2" r="4" fill="#0" id="circle50"/>
	<circle cx="678.56" cy="219.406" r="4" fill="#0" id="circle51"/>
	<circle cx="689.897" cy="89.0286" r="4" fill="#0" id="circle52"/>
	<circle cx="706.903" cy="219.406" r="4" fill="#0" id="circle53"/>
	<circle cx="718.24" cy="89.0286" r="4" fill="#0" id="circle54"/>
	<circle cx="732.411" cy="233.577" r="4" fill="#0" id="circle55"/>
	<circle cx="743.749" cy="74.8571" r="4" fill="#0" id="circle56"/>
	<circle cx="760.754" cy="233.577" r="4" fill="#0" id="circle57"/>
	<circle cx="769.257" cy="55.0171" r="4" fill="#0" id="circle58"/>
	<circle cx="783.429" cy="250.583" r="4" fill="#0" id="circle59"/>
	<circle cx="797.6" cy="40.8457" r="4" fill="#0" id="circle60"/>
	<circle cx="811.771" cy="261.92" r="4" fill="#0" id="circle61"/>
	<circle cx="820.274" cy="18.1714" r="4" fill="#0" id="circle62"/>
	<circle cx="828.777" cy="284.594" r="4" fill="#0" id="circle63"/>
	<circle cx="848.617" cy="4" r="4" fill="#0" id="circle64"/>
	<circle cx="851.451" cy="304.434" r="4" fill="#0" id="circle65"/>
	<circle cx="876.96" cy="4" r="4" fill="#0" id="circle66"/>
	<circle cx="876.96" cy="318.606" r="4" fill="#0" id="circle67"/>
	<circle cx="899.634" cy="106.034" r="4" fill="#0" id="circle68"/>
	<circle cx="899.634" cy="134.377" r="4" fill="#0" id="circle69"/>
	<circle cx="902.469" cy="332.777" r="4" fill="#0" id="circle70"/>
	<circle cx="905.303" cy="4" r="4" fill="#0" id="circle71"/>
	<circle cx="905.303" cy="162.72" r="4" fill="#0" id="circle72"/>
	<circle cx="927.977" cy="106.034" r="4" fill="#0" id="circle73"/>
	<circle cx="930.811" cy="332.777" r="4" fill="#0" id="circle74"/>
	<circle cx="933.646" cy="4" r="4" fill="#0" id="circle75"/>
	<circle cx="933.646" cy="174.057" r="4" fill="#0" id="circle76"/>
	<circle cx="956.32" cy="106.034" r="4" fill="#0" id="circle77"/>
	<circle cx="956.32" cy="318.606" r="4" fill="#0" id="circle78"/>
	<circle cx="959.154" cy="18.1714" r="4" fill="#0" id="circle79"/>
	<circle cx="959.154" cy="188.229" r="4" fill="#0" id="circle80"/>
	<circle cx="970.491" cy="46.5143" r="4" fill="#0" id="circle81"/>
	<circle cx="970.491" cy="216.571" r="4" fill="#0" id="circle82"/>
	<circle cx="970.491" cy="290.263" r="4" fill="#0" id="circle83"/>
	<circle cx="984.663" cy="72.0229" r="4" fill="#0" id="circle84"/>
	<circle cx="984.663" cy="106.034" r="4" fill="#0" id="circle85"/>
	<circle cx="993.166" cy="270.423" r="4" fill="#0" id="circle86"/>
	<circle cx="996" cy="230.743" r="4" fill="#0" id="circle87"/>
	</g>
</svg>