<?xml version="1.0" encoding="UTF-8" standalone="no"?>
<!-- Created with CurveBenchmark -->
<svg
	xmlns:dc="http://purl.org/dc/elements/1.1/"
	xmlns:cc="http://creativecommons.org/ns#"
	xmlns:rdf="http://www.w3.org/1999/02/22-rdf-syntax-ns#"
	xmlns:svg="http://www.w3.org/2000/svg"
	xmlns="http://www.w3.org/2000/svg"
	xmlns:sodipodi="http://sodipodi.sourceforge.net/DTD/sodipodi-0.dtd"
	xmlns:inkscape="http://www.inkscape.org/namespaces/inkscape"
	width="1000"
	height="1000"
	id="svg2"
	version="1.1"
	sodipodi:docname="manifold/nncrust-fa18a.png.txt">
<defs
	id="defs4" />
<metadata
	id="metadata7">
	<rdf:RDF>
		<cc:Work
			rdf:about="">
			<dc:format>image/svg+xml</dc:format>
			<dc:type
				rdf:resource="http://purl.org/dc/dcmitype/StillImage" />
			<dc:title></dc:title>
		</cc:Work>
	</rdf:RDF>
</metadata>
<g
	inkscape:label="Layer 1"
	inkscape:groupmode="layer"
	id="layer1">
	<path style="fill:none;stroke:red;stroke-width:1px;stroke-linecap:butt;stroke-linejoin:miter;stroke-opacity:1" d="M 336.683,190 345.756,202.098 z" id="boundary" inkscape:connector-curvature="0" />
	<path style="fill:none;stroke:red;stroke-width:1px;stroke-linecap:butt;stroke-linejoin:miter;stroke-opacity:1" d="M 336.683,190 351.805,185.463 z" id="boundary" inkscape:connector-curvature="0" />
	<path style="fill:none;stroke:red;stroke-width:1px;stroke-linecap:butt;stroke-linejoin:miter;stroke-opacity:1" d="M 360.878,202.098 345.756,202.098 z" id="boundary" inkscape:connector-curvature="0" />
	<path style="fill:none;stroke:red;stroke-width:1px;stroke-linecap:butt;stroke-linejoin:miter;stroke-opacity:1" d="M 351.805,185.463 366.927,185.463 z" id="boundary" inkscape:connector-curvature="0" />
	<path style="fill:none;stroke:red;stroke-width:1px;stroke-linecap:butt;stroke-linejoin:miter;stroke-opacity:1" d="M 336.683,190 495.463,16.0976 z" id="boundary" inkscape:connector-curvature="0" />
	<path style="fill:none;stroke:red;stroke-width:1px;stroke-linecap:butt;stroke-linejoin:miter;stroke-opacity:1" d="M 336.683,273.171 339.707,315.512 z" id="boundary" inkscape:connector-curvature="0" />
	<path style="fill:none;stroke:red;stroke-width:1px;stroke-linecap:butt;stroke-linejoin:miter;stroke-opacity:1" d="M 339.707,315.512 324.585,321.561 z" id="boundary" inkscape:connector-curvature="0" />
	<path style="fill:none;stroke:red;stroke-width:1px;stroke-linecap:butt;stroke-linejoin:miter;stroke-opacity:1" d="M 354.829,314 339.707,315.512 z" id="boundary" inkscape:connector-curvature="0" />
	<path style="fill:none;stroke:red;stroke-width:1px;stroke-linecap:butt;stroke-linejoin:miter;stroke-opacity:1" d="M 376,268.634 363.902,277.707 z" id="boundary" inkscape:connector-curvature="0" />
	<path style="fill:none;stroke:red;stroke-width:1px;stroke-linecap:butt;stroke-linejoin:miter;stroke-opacity:1" d="M 363.902,277.707 351.805,268.634 z" id="boundary" inkscape:connector-curvature="0" />
	<path style="fill:none;stroke:red;stroke-width:1px;stroke-linecap:butt;stroke-linejoin:miter;stroke-opacity:1" d="M 369.951,314 354.829,314 z" id="boundary" inkscape:connector-curvature="0" />
	<path style="fill:none;stroke:red;stroke-width:1px;stroke-linecap:butt;stroke-linejoin:miter;stroke-opacity:1" d="M 336.683,273.171 351.805,268.634 z" id="boundary" inkscape:connector-curvature="0" />
	<path style="fill:none;stroke:red;stroke-width:1px;stroke-linecap:butt;stroke-linejoin:miter;stroke-opacity:1" d="M 360.878,202.098 376,202.098 z" id="boundary" inkscape:connector-curvature="0" />
	<path style="fill:none;stroke:red;stroke-width:1px;stroke-linecap:butt;stroke-linejoin:miter;stroke-opacity:1" d="M 366.927,185.463 382.049,185.463 z" id="boundary" inkscape:connector-curvature="0" />
	<path style="fill:none;stroke:red;stroke-width:1px;stroke-linecap:butt;stroke-linejoin:miter;stroke-opacity:1" d="M 382.049,185.463 397.171,185.463 z" id="boundary" inkscape:connector-curvature="0" />
	<path style="fill:none;stroke:red;stroke-width:1px;stroke-linecap:butt;stroke-linejoin:miter;stroke-opacity:1" d="M 391.122,202.098 406.244,202.098 z" id="boundary" inkscape:connector-curvature="0" />
	<path style="fill:none;stroke:red;stroke-width:1px;stroke-linecap:butt;stroke-linejoin:miter;stroke-opacity:1" d="M 391.122,202.098 376,202.098 z" id="boundary" inkscape:connector-curvature="0" />
	<path style="fill:none;stroke:red;stroke-width:1px;stroke-linecap:butt;stroke-linejoin:miter;stroke-opacity:1" d="M 376,268.634 388.098,277.707 z" id="boundary" inkscape:connector-curvature="0" />
	<path style="fill:none;stroke:red;stroke-width:1px;stroke-linecap:butt;stroke-linejoin:miter;stroke-opacity:1" d="M 388.098,277.707 401.707,285.268 z" id="boundary" inkscape:connector-curvature="0" />
	<path style="fill:none;stroke:red;stroke-width:1px;stroke-linecap:butt;stroke-linejoin:miter;stroke-opacity:1" d="M 385.073,314 369.951,314 z" id="boundary" inkscape:connector-curvature="0" />
	<path style="fill:none;stroke:red;stroke-width:1px;stroke-linecap:butt;stroke-linejoin:miter;stroke-opacity:1" d="M 400.195,268.634 388.098,277.707 z" id="boundary" inkscape:connector-curvature="0" />
	<path style="fill:none;stroke:red;stroke-width:1px;stroke-linecap:butt;stroke-linejoin:miter;stroke-opacity:1" d="M 47.8537,351.805 61.4634,344.244 z" id="boundary" inkscape:connector-curvature="0" />
	<path style="fill:none;stroke:red;stroke-width:1px;stroke-linecap:butt;stroke-linejoin:miter;stroke-opacity:1" d="M 76.5854,344.244 61.4634,344.244 z" id="boundary" inkscape:connector-curvature="0" />
	<path style="fill:none;stroke:red;stroke-width:1px;stroke-linecap:butt;stroke-linejoin:miter;stroke-opacity:1" d="M 91.7073,344.244 106.829,344.244 z" id="boundary" inkscape:connector-curvature="0" />
	<path style="fill:none;stroke:red;stroke-width:1px;stroke-linecap:butt;stroke-linejoin:miter;stroke-opacity:1" d="M 91.7073,344.244 76.5854,344.244 z" id="boundary" inkscape:connector-curvature="0" />
	<path style="fill:none;stroke:red;stroke-width:1px;stroke-linecap:butt;stroke-linejoin:miter;stroke-opacity:1" d="M 32.7317,351.805 47.8537,351.805 z" id="boundary" inkscape:connector-curvature="0" />
	<path style="fill:none;stroke:red;stroke-width:1px;stroke-linecap:butt;stroke-linejoin:miter;stroke-opacity:1" d="M 120.439,351.805 135.561,345.756 z" id="boundary" inkscape:connector-curvature="0" />
	<path style="fill:none;stroke:red;stroke-width:1px;stroke-linecap:butt;stroke-linejoin:miter;stroke-opacity:1" d="M 135.561,345.756 150.683,351.805 z" id="boundary" inkscape:connector-curvature="0" />
	<path style="fill:none;stroke:red;stroke-width:1px;stroke-linecap:butt;stroke-linejoin:miter;stroke-opacity:1" d="M 120.439,351.805 106.829,344.244 z" id="boundary" inkscape:connector-curvature="0" />
	<path style="fill:none;stroke:red;stroke-width:1px;stroke-linecap:butt;stroke-linejoin:miter;stroke-opacity:1" d="M 179.415,344.244 165.805,351.805 z" id="boundary" inkscape:connector-curvature="0" />
	<path style="fill:none;stroke:red;stroke-width:1px;stroke-linecap:butt;stroke-linejoin:miter;stroke-opacity:1" d="M 165.805,351.805 150.683,351.805 z" id="boundary" inkscape:connector-curvature="0" />
	<path style="fill:none;stroke:red;stroke-width:1px;stroke-linecap:butt;stroke-linejoin:miter;stroke-opacity:1" d="M 233.854,323.073 248.976,321.561 z" id="boundary" inkscape:connector-curvature="0" />
	<path style="fill:none;stroke:red;stroke-width:1px;stroke-linecap:butt;stroke-linejoin:miter;stroke-opacity:1" d="M 264.098,321.561 248.976,321.561 z" id="boundary" inkscape:connector-curvature="0" />
	<path style="fill:none;stroke:red;stroke-width:1px;stroke-linecap:butt;stroke-linejoin:miter;stroke-opacity:1" d="M 264.098,321.561 279.22,321.561 z" id="boundary" inkscape:connector-curvature="0" />
	<path style="fill:none;stroke:red;stroke-width:1px;stroke-linecap:butt;stroke-linejoin:miter;stroke-opacity:1" d="M 294.341,321.561 279.22,321.561 z" id="boundary" inkscape:connector-curvature="0" />
	<path style="fill:none;stroke:red;stroke-width:1px;stroke-linecap:butt;stroke-linejoin:miter;stroke-opacity:1" d="M 309.463,321.561 294.341,321.561 z" id="boundary" inkscape:connector-curvature="0" />
	<path style="fill:none;stroke:red;stroke-width:1px;stroke-linecap:butt;stroke-linejoin:miter;stroke-opacity:1" d="M 194.537,344.244 203.61,330.634 z" id="boundary" inkscape:connector-curvature="0" />
	<path style="fill:none;stroke:red;stroke-width:1px;stroke-linecap:butt;stroke-linejoin:miter;stroke-opacity:1" d="M 203.61,330.634 218.732,329.122 z" id="boundary" inkscape:connector-curvature="0" />
	<path style="fill:none;stroke:red;stroke-width:1px;stroke-linecap:butt;stroke-linejoin:miter;stroke-opacity:1" d="M 194.537,344.244 179.415,344.244 z" id="boundary" inkscape:connector-curvature="0" />
	<path style="fill:none;stroke:red;stroke-width:1px;stroke-linecap:butt;stroke-linejoin:miter;stroke-opacity:1" d="M 233.854,323.073 218.732,329.122 z" id="boundary" inkscape:connector-curvature="0" />
	<path style="fill:none;stroke:red;stroke-width:1px;stroke-linecap:butt;stroke-linejoin:miter;stroke-opacity:1" d="M 309.463,321.561 324.585,321.561 z" id="boundary" inkscape:connector-curvature="0" />
	<path style="fill:none;stroke:red;stroke-width:1px;stroke-linecap:butt;stroke-linejoin:miter;stroke-opacity:1" d="M 32.7317,351.805 495.463,16.0976 z" id="boundary" inkscape:connector-curvature="0" />
	<path style="fill:none;stroke:red;stroke-width:1px;stroke-linecap:butt;stroke-linejoin:miter;stroke-opacity:1" d="M 412.293,185.463 427.415,185.463 z" id="boundary" inkscape:connector-curvature="0" />
	<path style="fill:none;stroke:red;stroke-width:1px;stroke-linecap:butt;stroke-linejoin:miter;stroke-opacity:1" d="M 442.537,182.439 457.659,174.878 z" id="boundary" inkscape:connector-curvature="0" />
	<path style="fill:none;stroke:red;stroke-width:1px;stroke-linecap:butt;stroke-linejoin:miter;stroke-opacity:1" d="M 457.659,174.878 469.756,185.463 z" id="boundary" inkscape:connector-curvature="0" />
	<path style="fill:none;stroke:red;stroke-width:1px;stroke-linecap:butt;stroke-linejoin:miter;stroke-opacity:1" d="M 442.537,182.439 427.415,185.463 z" id="boundary" inkscape:connector-curvature="0" />
	<path style="fill:none;stroke:red;stroke-width:1px;stroke-linecap:butt;stroke-linejoin:miter;stroke-opacity:1" d="M 406.244,202.098 421.366,202.098 z" id="boundary" inkscape:connector-curvature="0" />
	<path style="fill:none;stroke:red;stroke-width:1px;stroke-linecap:butt;stroke-linejoin:miter;stroke-opacity:1" d="M 421.366,202.098 434.976,209.659 z" id="boundary" inkscape:connector-curvature="0" />
	<path style="fill:none;stroke:red;stroke-width:1px;stroke-linecap:butt;stroke-linejoin:miter;stroke-opacity:1" d="M 472.78,209.659 457.659,212.683 z" id="boundary" inkscape:connector-curvature="0" />
	<path style="fill:none;stroke:red;stroke-width:1px;stroke-linecap:butt;stroke-linejoin:miter;stroke-opacity:1" d="M 457.659,212.683 444.049,221.756 z" id="boundary" inkscape:connector-curvature="0" />
	<path style="fill:none;stroke:red;stroke-width:1px;stroke-linecap:butt;stroke-linejoin:miter;stroke-opacity:1" d="M 444.049,221.756 434.976,209.659 z" id="boundary" inkscape:connector-curvature="0" />
	<path style="fill:none;stroke:red;stroke-width:1px;stroke-linecap:butt;stroke-linejoin:miter;stroke-opacity:1" d="M 484.878,185.463 469.756,185.463 z" id="boundary" inkscape:connector-curvature="0" />
	<path style="fill:none;stroke:red;stroke-width:1px;stroke-linecap:butt;stroke-linejoin:miter;stroke-opacity:1" d="M 397.171,185.463 412.293,185.463 z" id="boundary" inkscape:connector-curvature="0" />
	<path style="fill:none;stroke:red;stroke-width:1px;stroke-linecap:butt;stroke-linejoin:miter;stroke-opacity:1" d="M 525.707,144.634 518.146,167.317 z" id="boundary" inkscape:connector-curvature="0" />
	<path style="fill:none;stroke:red;stroke-width:1px;stroke-linecap:butt;stroke-linejoin:miter;stroke-opacity:1" d="M 516.634,19.122 504.537,28.1951 z" id="boundary" inkscape:connector-curvature="0" />
	<path style="fill:none;stroke:red;stroke-width:1px;stroke-linecap:butt;stroke-linejoin:miter;stroke-opacity:1" d="M 504.537,28.1951 495.463,16.0976 z" id="boundary" inkscape:connector-curvature="0" />
	<path style="fill:none;stroke:red;stroke-width:1px;stroke-linecap:butt;stroke-linejoin:miter;stroke-opacity:1" d="M 516.634,19.122 528.732,28.1951 z" id="boundary" inkscape:connector-curvature="0" />
	<path style="fill:none;stroke:red;stroke-width:1px;stroke-linecap:butt;stroke-linejoin:miter;stroke-opacity:1" d="M 530.244,11.561 516.634,19.122 z" id="boundary" inkscape:connector-curvature="0" />
	<path style="fill:none;stroke:red;stroke-width:1px;stroke-linecap:butt;stroke-linejoin:miter;stroke-opacity:1" d="M 500,185.463 484.878,185.463 z" id="boundary" inkscape:connector-curvature="0" />
	<path style="fill:none;stroke:red;stroke-width:1px;stroke-linecap:butt;stroke-linejoin:miter;stroke-opacity:1" d="M 487.902,209.659 472.78,209.659 z" id="boundary" inkscape:connector-curvature="0" />
	<path style="fill:none;stroke:red;stroke-width:1px;stroke-linecap:butt;stroke-linejoin:miter;stroke-opacity:1" d="M 500,185.463 515.122,185.463 z" id="boundary" inkscape:connector-curvature="0" />
	<path style="fill:none;stroke:red;stroke-width:1px;stroke-linecap:butt;stroke-linejoin:miter;stroke-opacity:1" d="M 515.122,185.463 503.024,209.659 z" id="boundary" inkscape:connector-curvature="0" />
	<path style="fill:none;stroke:red;stroke-width:1px;stroke-linecap:butt;stroke-linejoin:miter;stroke-opacity:1" d="M 518.146,167.317 515.122,185.463 z" id="boundary" inkscape:connector-curvature="0" />
	<path style="fill:none;stroke:red;stroke-width:1px;stroke-linecap:butt;stroke-linejoin:miter;stroke-opacity:1" d="M 503.024,209.659 487.902,209.659 z" id="boundary" inkscape:connector-curvature="0" />
	<path style="fill:none;stroke:red;stroke-width:1px;stroke-linecap:butt;stroke-linejoin:miter;stroke-opacity:1" d="M 487.902,209.659 495.463,227.805 z" id="boundary" inkscape:connector-curvature="0" />
	<path style="fill:none;stroke:red;stroke-width:1px;stroke-linecap:butt;stroke-linejoin:miter;stroke-opacity:1" d="M 416.829,285.268 401.707,285.268 z" id="boundary" inkscape:connector-curvature="0" />
	<path style="fill:none;stroke:red;stroke-width:1px;stroke-linecap:butt;stroke-linejoin:miter;stroke-opacity:1" d="M 400.195,268.634 415.317,268.634 z" id="boundary" inkscape:connector-curvature="0" />
	<path style="fill:none;stroke:red;stroke-width:1px;stroke-linecap:butt;stroke-linejoin:miter;stroke-opacity:1" d="M 431.951,285.268 416.829,285.268 z" id="boundary" inkscape:connector-curvature="0" />
	<path style="fill:none;stroke:red;stroke-width:1px;stroke-linecap:butt;stroke-linejoin:miter;stroke-opacity:1" d="M 415.317,268.634 430.439,268.634 z" id="boundary" inkscape:connector-curvature="0" />
	<path style="fill:none;stroke:red;stroke-width:1px;stroke-linecap:butt;stroke-linejoin:miter;stroke-opacity:1" d="M 442.537,258.049 430.439,268.634 z" id="boundary" inkscape:connector-curvature="0" />
	<path style="fill:none;stroke:red;stroke-width:1px;stroke-linecap:butt;stroke-linejoin:miter;stroke-opacity:1" d="M 385.073,314 400.195,314 z" id="boundary" inkscape:connector-curvature="0" />
	<path style="fill:none;stroke:red;stroke-width:1px;stroke-linecap:butt;stroke-linejoin:miter;stroke-opacity:1" d="M 415.317,314 400.195,314 z" id="boundary" inkscape:connector-curvature="0" />
	<path style="fill:none;stroke:red;stroke-width:1px;stroke-linecap:butt;stroke-linejoin:miter;stroke-opacity:1" d="M 431.951,285.268 442.537,297.366 z" id="boundary" inkscape:connector-curvature="0" />
	<path style="fill:none;stroke:red;stroke-width:1px;stroke-linecap:butt;stroke-linejoin:miter;stroke-opacity:1" d="M 430.439,314 415.317,314 z" id="boundary" inkscape:connector-curvature="0" />
	<path style="fill:none;stroke:red;stroke-width:1px;stroke-linecap:butt;stroke-linejoin:miter;stroke-opacity:1" d="M 457.659,292.829 442.537,297.366 z" id="boundary" inkscape:connector-curvature="0" />
	<path style="fill:none;stroke:red;stroke-width:1px;stroke-linecap:butt;stroke-linejoin:miter;stroke-opacity:1" d="M 445.561,314 430.439,314 z" id="boundary" inkscape:connector-curvature="0" />
	<path style="fill:none;stroke:red;stroke-width:1px;stroke-linecap:butt;stroke-linejoin:miter;stroke-opacity:1" d="M 442.537,258.049 457.659,253.512 z" id="boundary" inkscape:connector-curvature="0" />
	<path style="fill:none;stroke:red;stroke-width:1px;stroke-linecap:butt;stroke-linejoin:miter;stroke-opacity:1" d="M 471.268,261.073 457.659,253.512 z" id="boundary" inkscape:connector-curvature="0" />
	<path style="fill:none;stroke:red;stroke-width:1px;stroke-linecap:butt;stroke-linejoin:miter;stroke-opacity:1" d="M 492.439,245.951 495.463,227.805 z" id="boundary" inkscape:connector-curvature="0" />
	<path style="fill:none;stroke:red;stroke-width:1px;stroke-linecap:butt;stroke-linejoin:miter;stroke-opacity:1" d="M 492.439,245.951 486.39,261.073 z" id="boundary" inkscape:connector-curvature="0" />
	<path style="fill:none;stroke:red;stroke-width:1px;stroke-linecap:butt;stroke-linejoin:miter;stroke-opacity:1" d="M 486.39,261.073 471.268,261.073 z" id="boundary" inkscape:connector-curvature="0" />
	<path style="fill:none;stroke:red;stroke-width:1px;stroke-linecap:butt;stroke-linejoin:miter;stroke-opacity:1" d="M 460.683,314 445.561,314 z" id="boundary" inkscape:connector-curvature="0" />
	<path style="fill:none;stroke:red;stroke-width:1px;stroke-linecap:butt;stroke-linejoin:miter;stroke-opacity:1" d="M 457.659,292.829 472.78,292.829 z" id="boundary" inkscape:connector-curvature="0" />
	<path style="fill:none;stroke:red;stroke-width:1px;stroke-linecap:butt;stroke-linejoin:miter;stroke-opacity:1" d="M 472.78,292.829 460.683,314 z" id="boundary" inkscape:connector-curvature="0" />
	<path style="fill:none;stroke:red;stroke-width:1px;stroke-linecap:butt;stroke-linejoin:miter;stroke-opacity:1" d="M 486.39,261.073 472.78,292.829 z" id="boundary" inkscape:connector-curvature="0" />
	<path style="fill:none;stroke:red;stroke-width:1px;stroke-linecap:butt;stroke-linejoin:miter;stroke-opacity:1" d="M 4,363.902 19.122,359.366 z" id="boundary" inkscape:connector-curvature="0" />
	<path style="fill:none;stroke:red;stroke-width:1px;stroke-linecap:butt;stroke-linejoin:miter;stroke-opacity:1" d="M 19.122,359.366 22.1463,374.488 z" id="boundary" inkscape:connector-curvature="0" />
	<path style="fill:none;stroke:red;stroke-width:1px;stroke-linecap:butt;stroke-linejoin:miter;stroke-opacity:1" d="M 32.7317,351.805 19.122,359.366 z" id="boundary" inkscape:connector-curvature="0" />
	<path style="fill:none;stroke:red;stroke-width:1px;stroke-linecap:butt;stroke-linejoin:miter;stroke-opacity:1" d="M 22.1463,374.488 34.2439,383.561 z" id="boundary" inkscape:connector-curvature="0" />
	<path style="fill:none;stroke:red;stroke-width:1px;stroke-linecap:butt;stroke-linejoin:miter;stroke-opacity:1" d="M 49.3659,383.561 62.9756,391.122 z" id="boundary" inkscape:connector-curvature="0" />
	<path style="fill:none;stroke:red;stroke-width:1px;stroke-linecap:butt;stroke-linejoin:miter;stroke-opacity:1" d="M 34.2439,383.561 49.3659,383.561 z" id="boundary" inkscape:connector-curvature="0" />
	<path style="fill:none;stroke:red;stroke-width:1px;stroke-linecap:butt;stroke-linejoin:miter;stroke-opacity:1" d="M 91.7073,398.683 78.0976,391.122 z" id="boundary" inkscape:connector-curvature="0" />
	<path style="fill:none;stroke:red;stroke-width:1px;stroke-linecap:butt;stroke-linejoin:miter;stroke-opacity:1" d="M 106.829,398.683 91.7073,398.683 z" id="boundary" inkscape:connector-curvature="0" />
	<path style="fill:none;stroke:red;stroke-width:1px;stroke-linecap:butt;stroke-linejoin:miter;stroke-opacity:1" d="M 62.9756,391.122 78.0976,391.122 z" id="boundary" inkscape:connector-curvature="0" />
	<path style="fill:none;stroke:red;stroke-width:1px;stroke-linecap:butt;stroke-linejoin:miter;stroke-opacity:1" d="M 121.951,398.683 137.073,398.683 z" id="boundary" inkscape:connector-curvature="0" />
	<path style="fill:none;stroke:red;stroke-width:1px;stroke-linecap:butt;stroke-linejoin:miter;stroke-opacity:1" d="M 167.317,404.732 152.195,398.683 z" id="boundary" inkscape:connector-curvature="0" />
	<path style="fill:none;stroke:red;stroke-width:1px;stroke-linecap:butt;stroke-linejoin:miter;stroke-opacity:1" d="M 152.195,398.683 137.073,398.683 z" id="boundary" inkscape:connector-curvature="0" />
	<path style="fill:none;stroke:red;stroke-width:1px;stroke-linecap:butt;stroke-linejoin:miter;stroke-opacity:1" d="M 182.439,406.244 167.317,404.732 z" id="boundary" inkscape:connector-curvature="0" />
	<path style="fill:none;stroke:red;stroke-width:1px;stroke-linecap:butt;stroke-linejoin:miter;stroke-opacity:1" d="M 121.951,398.683 106.829,398.683 z" id="boundary" inkscape:connector-curvature="0" />
	<path style="fill:none;stroke:red;stroke-width:1px;stroke-linecap:butt;stroke-linejoin:miter;stroke-opacity:1" d="M 182.439,406.244 197.561,406.244 z" id="boundary" inkscape:connector-curvature="0" />
	<path style="fill:none;stroke:red;stroke-width:1px;stroke-linecap:butt;stroke-linejoin:miter;stroke-opacity:1" d="M 212.683,406.244 227.805,406.244 z" id="boundary" inkscape:connector-curvature="0" />
	<path style="fill:none;stroke:red;stroke-width:1px;stroke-linecap:butt;stroke-linejoin:miter;stroke-opacity:1" d="M 227.805,406.244 241.415,413.805 z" id="boundary" inkscape:connector-curvature="0" />
	<path style="fill:none;stroke:red;stroke-width:1px;stroke-linecap:butt;stroke-linejoin:miter;stroke-opacity:1" d="M 212.683,406.244 197.561,406.244 z" id="boundary" inkscape:connector-curvature="0" />
	<path style="fill:none;stroke:red;stroke-width:1px;stroke-linecap:butt;stroke-linejoin:miter;stroke-opacity:1" d="M 241.415,413.805 255.024,421.366 z" id="boundary" inkscape:connector-curvature="0" />
	<path style="fill:none;stroke:red;stroke-width:1px;stroke-linecap:butt;stroke-linejoin:miter;stroke-opacity:1" d="M 255.024,421.366 270.146,421.366 z" id="boundary" inkscape:connector-curvature="0" />
	<path style="fill:none;stroke:red;stroke-width:1px;stroke-linecap:butt;stroke-linejoin:miter;stroke-opacity:1" d="M 270.146,421.366 283.756,428.927 z" id="boundary" inkscape:connector-curvature="0" />
	<path style="fill:none;stroke:red;stroke-width:1px;stroke-linecap:butt;stroke-linejoin:miter;stroke-opacity:1" d="M 283.756,428.927 298.878,428.927 z" id="boundary" inkscape:connector-curvature="0" />
	<path style="fill:none;stroke:red;stroke-width:1px;stroke-linecap:butt;stroke-linejoin:miter;stroke-opacity:1" d="M 298.878,428.927 314,428.927 z" id="boundary" inkscape:connector-curvature="0" />
	<path style="fill:none;stroke:red;stroke-width:1px;stroke-linecap:butt;stroke-linejoin:miter;stroke-opacity:1" d="M 314,428.927 327.61,436.488 z" id="boundary" inkscape:connector-curvature="0" />
	<path style="fill:none;stroke:red;stroke-width:1px;stroke-linecap:butt;stroke-linejoin:miter;stroke-opacity:1" d="M 327.61,436.488 341.22,444.049 z" id="boundary" inkscape:connector-curvature="0" />
	<path style="fill:none;stroke:red;stroke-width:1px;stroke-linecap:butt;stroke-linejoin:miter;stroke-opacity:1" d="M 366.927,552.927 327.61,436.488 z" id="boundary" inkscape:connector-curvature="0" />
	<path style="fill:none;stroke:red;stroke-width:1px;stroke-linecap:butt;stroke-linejoin:miter;stroke-opacity:1" d="M 356.341,450.098 369.951,457.659 z" id="boundary" inkscape:connector-curvature="0" />
	<path style="fill:none;stroke:red;stroke-width:1px;stroke-linecap:butt;stroke-linejoin:miter;stroke-opacity:1" d="M 385.073,459.171 369.951,457.659 z" id="boundary" inkscape:connector-curvature="0" />
	<path style="fill:none;stroke:red;stroke-width:1px;stroke-linecap:butt;stroke-linejoin:miter;stroke-opacity:1" d="M 382.049,548.39 366.927,552.927 z" id="boundary" inkscape:connector-curvature="0" />
	<path style="fill:none;stroke:red;stroke-width:1px;stroke-linecap:butt;stroke-linejoin:miter;stroke-opacity:1" d="M 341.22,444.049 356.341,450.098 z" id="boundary" inkscape:connector-curvature="0" />
	<path style="fill:none;stroke:red;stroke-width:1px;stroke-linecap:butt;stroke-linejoin:miter;stroke-opacity:1" d="M 366.927,552.927 389.61,620.976 z" id="boundary" inkscape:connector-curvature="0" />
	<path style="fill:none;stroke:red;stroke-width:1px;stroke-linecap:butt;stroke-linejoin:miter;stroke-opacity:1" d="M 385.073,459.171 398.683,466.732 z" id="boundary" inkscape:connector-curvature="0" />
	<path style="fill:none;stroke:red;stroke-width:1px;stroke-linecap:butt;stroke-linejoin:miter;stroke-opacity:1" d="M 412.293,548.39 397.171,548.39 z" id="boundary" inkscape:connector-curvature="0" />
	<path style="fill:none;stroke:red;stroke-width:1px;stroke-linecap:butt;stroke-linejoin:miter;stroke-opacity:1" d="M 397.171,548.39 382.049,548.39 z" id="boundary" inkscape:connector-curvature="0" />
	<path style="fill:none;stroke:red;stroke-width:1px;stroke-linecap:butt;stroke-linejoin:miter;stroke-opacity:1" d="M 413.805,466.732 398.683,466.732 z" id="boundary" inkscape:connector-curvature="0" />
	<path style="fill:none;stroke:red;stroke-width:1px;stroke-linecap:butt;stroke-linejoin:miter;stroke-opacity:1" d="M 385.073,563.512 382.049,548.39 z" id="boundary" inkscape:connector-curvature="0" />
	<path style="fill:none;stroke:red;stroke-width:1px;stroke-linecap:butt;stroke-linejoin:miter;stroke-opacity:1" d="M 404.732,616.439 389.61,620.976 z" id="boundary" inkscape:connector-curvature="0" />
	<path style="fill:none;stroke:red;stroke-width:1px;stroke-linecap:butt;stroke-linejoin:miter;stroke-opacity:1" d="M 404.732,616.439 401.707,631.561 z" id="boundary" inkscape:connector-curvature="0" />
	<path style="fill:none;stroke:red;stroke-width:1px;stroke-linecap:butt;stroke-linejoin:miter;stroke-opacity:1" d="M 401.707,631.561 389.61,620.976 z" id="boundary" inkscape:connector-curvature="0" />
	<path style="fill:none;stroke:red;stroke-width:1px;stroke-linecap:butt;stroke-linejoin:miter;stroke-opacity:1" d="M 400.195,565.024 415.317,565.024 z" id="boundary" inkscape:connector-curvature="0" />
	<path style="fill:none;stroke:red;stroke-width:1px;stroke-linecap:butt;stroke-linejoin:miter;stroke-opacity:1" d="M 416.829,633.073 401.707,631.561 z" id="boundary" inkscape:connector-curvature="0" />
	<path style="fill:none;stroke:red;stroke-width:1px;stroke-linecap:butt;stroke-linejoin:miter;stroke-opacity:1" d="M 385.073,563.512 400.195,565.024 z" id="boundary" inkscape:connector-curvature="0" />
	<path style="fill:none;stroke:red;stroke-width:1px;stroke-linecap:butt;stroke-linejoin:miter;stroke-opacity:1" d="M 427.415,548.39 412.293,548.39 z" id="boundary" inkscape:connector-curvature="0" />
	<path style="fill:none;stroke:red;stroke-width:1px;stroke-linecap:butt;stroke-linejoin:miter;stroke-opacity:1" d="M 427.415,474.293 413.805,466.732 z" id="boundary" inkscape:connector-curvature="0" />
	<path style="fill:none;stroke:red;stroke-width:1px;stroke-linecap:butt;stroke-linejoin:miter;stroke-opacity:1" d="M 442.537,474.293 427.415,474.293 z" id="boundary" inkscape:connector-curvature="0" />
	<path style="fill:none;stroke:red;stroke-width:1px;stroke-linecap:butt;stroke-linejoin:miter;stroke-opacity:1" d="M 442.537,548.39 427.415,548.39 z" id="boundary" inkscape:connector-curvature="0" />
	<path style="fill:none;stroke:red;stroke-width:1px;stroke-linecap:butt;stroke-linejoin:miter;stroke-opacity:1" d="M 415.317,565.024 430.439,565.024 z" id="boundary" inkscape:connector-curvature="0" />
	<path style="fill:none;stroke:red;stroke-width:1px;stroke-linecap:butt;stroke-linejoin:miter;stroke-opacity:1" d="M 442.537,548.39 457.659,548.39 z" id="boundary" inkscape:connector-curvature="0" />
	<path style="fill:none;stroke:red;stroke-width:1px;stroke-linecap:butt;stroke-linejoin:miter;stroke-opacity:1" d="M 460.683,569.561 445.561,565.024 z" id="boundary" inkscape:connector-curvature="0" />
	<path style="fill:none;stroke:red;stroke-width:1px;stroke-linecap:butt;stroke-linejoin:miter;stroke-opacity:1" d="M 445.561,565.024 430.439,565.024 z" id="boundary" inkscape:connector-curvature="0" />
	<path style="fill:none;stroke:red;stroke-width:1px;stroke-linecap:butt;stroke-linejoin:miter;stroke-opacity:1" d="M 442.537,474.293 457.659,474.293 z" id="boundary" inkscape:connector-curvature="0" />
	<path style="fill:none;stroke:red;stroke-width:1px;stroke-linecap:butt;stroke-linejoin:miter;stroke-opacity:1" d="M 457.659,474.293 471.268,481.854 z" id="boundary" inkscape:connector-curvature="0" />
	<path style="fill:none;stroke:red;stroke-width:1px;stroke-linecap:butt;stroke-linejoin:miter;stroke-opacity:1" d="M 471.268,481.854 486.39,481.854 z" id="boundary" inkscape:connector-curvature="0" />
	<path style="fill:none;stroke:red;stroke-width:1px;stroke-linecap:butt;stroke-linejoin:miter;stroke-opacity:1" d="M 486.39,481.854 492.439,496.976 z" id="boundary" inkscape:connector-curvature="0" />
	<path style="fill:none;stroke:red;stroke-width:1px;stroke-linecap:butt;stroke-linejoin:miter;stroke-opacity:1" d="M 492.439,496.976 503.024,509.073 z" id="boundary" inkscape:connector-curvature="0" />
	<path style="fill:none;stroke:red;stroke-width:1px;stroke-linecap:butt;stroke-linejoin:miter;stroke-opacity:1" d="M 510.585,522.683 503.024,509.073 z" id="boundary" inkscape:connector-curvature="0" />
	<path style="fill:none;stroke:red;stroke-width:1px;stroke-linecap:butt;stroke-linejoin:miter;stroke-opacity:1" d="M 474.293,577.122 460.683,569.561 z" id="boundary" inkscape:connector-curvature="0" />
	<path style="fill:none;stroke:red;stroke-width:1px;stroke-linecap:butt;stroke-linejoin:miter;stroke-opacity:1" d="M 457.659,548.39 472.78,548.39 z" id="boundary" inkscape:connector-curvature="0" />
	<path style="fill:none;stroke:red;stroke-width:1px;stroke-linecap:butt;stroke-linejoin:miter;stroke-opacity:1" d="M 472.78,548.39 486.39,540.829 z" id="boundary" inkscape:connector-curvature="0" />
	<path style="fill:none;stroke:red;stroke-width:1px;stroke-linecap:butt;stroke-linejoin:miter;stroke-opacity:1" d="M 501.512,540.829 486.39,540.829 z" id="boundary" inkscape:connector-curvature="0" />
	<path style="fill:none;stroke:red;stroke-width:1px;stroke-linecap:butt;stroke-linejoin:miter;stroke-opacity:1" d="M 516.634,540.829 501.512,540.829 z" id="boundary" inkscape:connector-curvature="0" />
	<path style="fill:none;stroke:red;stroke-width:1px;stroke-linecap:butt;stroke-linejoin:miter;stroke-opacity:1" d="M 510.585,522.683 516.634,540.829 z" id="boundary" inkscape:connector-curvature="0" />
	<path style="fill:none;stroke:red;stroke-width:1px;stroke-linecap:butt;stroke-linejoin:miter;stroke-opacity:1" d="M 419.854,616.439 434.976,619.463 z" id="boundary" inkscape:connector-curvature="0" />
	<path style="fill:none;stroke:red;stroke-width:1px;stroke-linecap:butt;stroke-linejoin:miter;stroke-opacity:1" d="M 465.22,624 450.098,624 z" id="boundary" inkscape:connector-curvature="0" />
	<path style="fill:none;stroke:red;stroke-width:1px;stroke-linecap:butt;stroke-linejoin:miter;stroke-opacity:1" d="M 450.098,624 434.976,619.463 z" id="boundary" inkscape:connector-curvature="0" />
	<path style="fill:none;stroke:red;stroke-width:1px;stroke-linecap:butt;stroke-linejoin:miter;stroke-opacity:1" d="M 465.22,624 480.341,624 z" id="boundary" inkscape:connector-curvature="0" />
	<path style="fill:none;stroke:red;stroke-width:1px;stroke-linecap:butt;stroke-linejoin:miter;stroke-opacity:1" d="M 431.951,639.122 416.829,633.073 z" id="boundary" inkscape:connector-curvature="0" />
	<path style="fill:none;stroke:red;stroke-width:1px;stroke-linecap:butt;stroke-linejoin:miter;stroke-opacity:1" d="M 447.073,640.634 462.195,640.634 z" id="boundary" inkscape:connector-curvature="0" />
	<path style="fill:none;stroke:red;stroke-width:1px;stroke-linecap:butt;stroke-linejoin:miter;stroke-opacity:1" d="M 447.073,640.634 431.951,639.122 z" id="boundary" inkscape:connector-curvature="0" />
	<path style="fill:none;stroke:red;stroke-width:1px;stroke-linecap:butt;stroke-linejoin:miter;stroke-opacity:1" d="M 462.195,640.634 477.317,640.634 z" id="boundary" inkscape:connector-curvature="0" />
	<path style="fill:none;stroke:red;stroke-width:1px;stroke-linecap:butt;stroke-linejoin:miter;stroke-opacity:1" d="M 477.317,640.634 487.902,652.732 z" id="boundary" inkscape:connector-curvature="0" />
	<path style="fill:none;stroke:red;stroke-width:1px;stroke-linecap:butt;stroke-linejoin:miter;stroke-opacity:1" d="M 474.293,577.122 486.39,586.195 z" id="boundary" inkscape:connector-curvature="0" />
	<path style="fill:none;stroke:red;stroke-width:1px;stroke-linecap:butt;stroke-linejoin:miter;stroke-opacity:1" d="M 404.732,616.439 419.854,616.439 z" id="boundary" inkscape:connector-curvature="0" />
	<path style="fill:none;stroke:red;stroke-width:1px;stroke-linecap:butt;stroke-linejoin:miter;stroke-opacity:1" d="M 486.39,586.195 493.951,572.585 z" id="boundary" inkscape:connector-curvature="0" />
	<path style="fill:none;stroke:red;stroke-width:1px;stroke-linecap:butt;stroke-linejoin:miter;stroke-opacity:1" d="M 493.951,572.585 509.073,572.585 z" id="boundary" inkscape:connector-curvature="0" />
	<path style="fill:none;stroke:red;stroke-width:1px;stroke-linecap:butt;stroke-linejoin:miter;stroke-opacity:1" d="M 509.073,572.585 486.39,586.195 z" id="boundary" inkscape:connector-curvature="0" />
	<path style="fill:none;stroke:red;stroke-width:1px;stroke-linecap:butt;stroke-linejoin:miter;stroke-opacity:1" d="M 507.561,608.878 493.951,616.439 z" id="boundary" inkscape:connector-curvature="0" />
	<path style="fill:none;stroke:red;stroke-width:1px;stroke-linecap:butt;stroke-linejoin:miter;stroke-opacity:1" d="M 521.171,616.439 507.561,608.878 z" id="boundary" inkscape:connector-curvature="0" />
	<path style="fill:none;stroke:red;stroke-width:1px;stroke-linecap:butt;stroke-linejoin:miter;stroke-opacity:1" d="M 493.951,616.439 480.341,624 z" id="boundary" inkscape:connector-curvature="0" />
	<path style="fill:none;stroke:red;stroke-width:1px;stroke-linecap:butt;stroke-linejoin:miter;stroke-opacity:1" d="M 507.561,654.244 495.463,666.341 z" id="boundary" inkscape:connector-curvature="0" />
	<path style="fill:none;stroke:red;stroke-width:1px;stroke-linecap:butt;stroke-linejoin:miter;stroke-opacity:1" d="M 495.463,666.341 487.902,652.732 z" id="boundary" inkscape:connector-curvature="0" />
	<path style="fill:none;stroke:red;stroke-width:1px;stroke-linecap:butt;stroke-linejoin:miter;stroke-opacity:1" d="M 522.683,648.195 507.561,654.244 z" id="boundary" inkscape:connector-curvature="0" />
	<path style="fill:none;stroke:red;stroke-width:1px;stroke-linecap:butt;stroke-linejoin:miter;stroke-opacity:1" d="M 509.073,572.585 524.195,572.585 z" id="boundary" inkscape:connector-curvature="0" />
	<path style="fill:none;stroke:red;stroke-width:1px;stroke-linecap:butt;stroke-linejoin:miter;stroke-opacity:1" d="M 516.634,540.829 524.195,572.585 z" id="boundary" inkscape:connector-curvature="0" />
	<path style="fill:none;stroke:red;stroke-width:1px;stroke-linecap:butt;stroke-linejoin:miter;stroke-opacity:1" d="M 530.244,11.561 545.366,11.561 z" id="boundary" inkscape:connector-curvature="0" />
	<path style="fill:none;stroke:red;stroke-width:1px;stroke-linecap:butt;stroke-linejoin:miter;stroke-opacity:1" d="M 558.976,19.122 574.098,19.122 z" id="boundary" inkscape:connector-curvature="0" />
	<path style="fill:none;stroke:red;stroke-width:1px;stroke-linecap:butt;stroke-linejoin:miter;stroke-opacity:1" d="M 558.976,19.122 545.366,11.561 z" id="boundary" inkscape:connector-curvature="0" />
	<path style="fill:none;stroke:red;stroke-width:1px;stroke-linecap:butt;stroke-linejoin:miter;stroke-opacity:1" d="M 589.22,19.122 574.098,19.122 z" id="boundary" inkscape:connector-curvature="0" />
	<path style="fill:none;stroke:red;stroke-width:1px;stroke-linecap:butt;stroke-linejoin:miter;stroke-opacity:1" d="M 528.732,28.1951 543.854,32.7317 z" id="boundary" inkscape:connector-curvature="0" />
	<path style="fill:none;stroke:red;stroke-width:1px;stroke-linecap:butt;stroke-linejoin:miter;stroke-opacity:1" d="M 563.512,53.9024 555.951,69.0244 z" id="boundary" inkscape:connector-curvature="0" />
	<path style="fill:none;stroke:red;stroke-width:1px;stroke-linecap:butt;stroke-linejoin:miter;stroke-opacity:1" d="M 543.854,32.7317 558.976,35.7561 z" id="boundary" inkscape:connector-curvature="0" />
	<path style="fill:none;stroke:red;stroke-width:1px;stroke-linecap:butt;stroke-linejoin:miter;stroke-opacity:1" d="M 558.976,35.7561 563.512,53.9024 z" id="boundary" inkscape:connector-curvature="0" />
	<path style="fill:none;stroke:red;stroke-width:1px;stroke-linecap:butt;stroke-linejoin:miter;stroke-opacity:1" d="M 558.976,35.7561 574.098,35.7561 z" id="boundary" inkscape:connector-curvature="0" />
	<path style="fill:none;stroke:red;stroke-width:1px;stroke-linecap:butt;stroke-linejoin:miter;stroke-opacity:1" d="M 555.951,69.0244 548.39,91.7073 z" id="boundary" inkscape:connector-curvature="0" />
	<path style="fill:none;stroke:red;stroke-width:1px;stroke-linecap:butt;stroke-linejoin:miter;stroke-opacity:1" d="M 548.39,91.7073 504.537,28.1951 z" id="boundary" inkscape:connector-curvature="0" />
	<path style="fill:none;stroke:red;stroke-width:1px;stroke-linecap:butt;stroke-linejoin:miter;stroke-opacity:1" d="M 604.341,19.122 589.22,19.122 z" id="boundary" inkscape:connector-curvature="0" />
	<path style="fill:none;stroke:red;stroke-width:1px;stroke-linecap:butt;stroke-linejoin:miter;stroke-opacity:1" d="M 619.463,13.0732 604.341,19.122 z" id="boundary" inkscape:connector-curvature="0" />
	<path style="fill:none;stroke:red;stroke-width:1px;stroke-linecap:butt;stroke-linejoin:miter;stroke-opacity:1" d="M 634.585,11.561 648.195,4 z" id="boundary" inkscape:connector-curvature="0" />
	<path style="fill:none;stroke:red;stroke-width:1px;stroke-linecap:butt;stroke-linejoin:miter;stroke-opacity:1" d="M 648.195,4 660.293,13.0732 z" id="boundary" inkscape:connector-curvature="0" />
	<path style="fill:none;stroke:red;stroke-width:1px;stroke-linecap:butt;stroke-linejoin:miter;stroke-opacity:1" d="M 634.585,11.561 619.463,13.0732 z" id="boundary" inkscape:connector-curvature="0" />
	<path style="fill:none;stroke:red;stroke-width:1px;stroke-linecap:butt;stroke-linejoin:miter;stroke-opacity:1" d="M 660.293,13.0732 663.317,28.1951 z" id="boundary" inkscape:connector-curvature="0" />
	<path style="fill:none;stroke:red;stroke-width:1px;stroke-linecap:butt;stroke-linejoin:miter;stroke-opacity:1" d="M 574.098,35.7561 589.22,19.122 z" id="boundary" inkscape:connector-curvature="0" />
	<path style="fill:none;stroke:red;stroke-width:1px;stroke-linecap:butt;stroke-linejoin:miter;stroke-opacity:1" d="M 670.878,41.8049 663.317,28.1951 z" id="boundary" inkscape:connector-curvature="0" />
	<path style="fill:none;stroke:red;stroke-width:1px;stroke-linecap:butt;stroke-linejoin:miter;stroke-opacity:1" d="M 678.439,55.4146 670.878,41.8049 z" id="boundary" inkscape:connector-curvature="0" />
	<path style="fill:none;stroke:red;stroke-width:1px;stroke-linecap:butt;stroke-linejoin:miter;stroke-opacity:1" d="M 678.439,55.4146 678.439,70.5366 z" id="boundary" inkscape:connector-curvature="0" />
	<path style="fill:none;stroke:red;stroke-width:1px;stroke-linecap:butt;stroke-linejoin:miter;stroke-opacity:1" d="M 540.829,106.829 548.39,91.7073 z" id="boundary" inkscape:connector-curvature="0" />
	<path style="fill:none;stroke:red;stroke-width:1px;stroke-linecap:butt;stroke-linejoin:miter;stroke-opacity:1" d="M 686,99.2683 678.439,85.6585 z" id="boundary" inkscape:connector-curvature="0" />
	<path style="fill:none;stroke:red;stroke-width:1px;stroke-linecap:butt;stroke-linejoin:miter;stroke-opacity:1" d="M 678.439,85.6585 678.439,70.5366 z" id="boundary" inkscape:connector-curvature="0" />
	<path style="fill:none;stroke:red;stroke-width:1px;stroke-linecap:butt;stroke-linejoin:miter;stroke-opacity:1" d="M 686,99.2683 686,114.39 z" id="boundary" inkscape:connector-curvature="0" />
	<path style="fill:none;stroke:red;stroke-width:1px;stroke-linecap:butt;stroke-linejoin:miter;stroke-opacity:1" d="M 525.707,144.634 533.268,129.512 z" id="boundary" inkscape:connector-curvature="0" />
	<path style="fill:none;stroke:red;stroke-width:1px;stroke-linecap:butt;stroke-linejoin:miter;stroke-opacity:1" d="M 686,129.512 686,144.634 z" id="boundary" inkscape:connector-curvature="0" />
	<path style="fill:none;stroke:red;stroke-width:1px;stroke-linecap:butt;stroke-linejoin:miter;stroke-opacity:1" d="M 533.268,129.512 540.829,106.829 z" id="boundary" inkscape:connector-curvature="0" />
	<path style="fill:none;stroke:red;stroke-width:1px;stroke-linecap:butt;stroke-linejoin:miter;stroke-opacity:1" d="M 686,114.39 686,129.512 z" id="boundary" inkscape:connector-curvature="0" />
	<path style="fill:none;stroke:red;stroke-width:1px;stroke-linecap:butt;stroke-linejoin:miter;stroke-opacity:1" d="M 686,144.634 686,159.756 z" id="boundary" inkscape:connector-curvature="0" />
	<path style="fill:none;stroke:red;stroke-width:1px;stroke-linecap:butt;stroke-linejoin:miter;stroke-opacity:1" d="M 686,159.756 692.049,174.878 z" id="boundary" inkscape:connector-curvature="0" />
	<path style="fill:none;stroke:red;stroke-width:1px;stroke-linecap:butt;stroke-linejoin:miter;stroke-opacity:1" d="M 692.049,174.878 693.561,190 z" id="boundary" inkscape:connector-curvature="0" />
	<path style="fill:none;stroke:red;stroke-width:1px;stroke-linecap:butt;stroke-linejoin:miter;stroke-opacity:1" d="M 693.561,190 693.561,205.122 z" id="boundary" inkscape:connector-curvature="0" />
	<path style="fill:none;stroke:red;stroke-width:1px;stroke-linecap:butt;stroke-linejoin:miter;stroke-opacity:1" d="M 693.561,220.244 693.561,205.122 z" id="boundary" inkscape:connector-curvature="0" />
	<path style="fill:none;stroke:red;stroke-width:1px;stroke-linecap:butt;stroke-linejoin:miter;stroke-opacity:1" d="M 701.122,233.854 693.561,220.244 z" id="boundary" inkscape:connector-curvature="0" />
	<path style="fill:none;stroke:red;stroke-width:1px;stroke-linecap:butt;stroke-linejoin:miter;stroke-opacity:1" d="M 701.122,233.854 701.122,248.976 z" id="boundary" inkscape:connector-curvature="0" />
	<path style="fill:none;stroke:red;stroke-width:1px;stroke-linecap:butt;stroke-linejoin:miter;stroke-opacity:1" d="M 701.122,264.098 701.122,248.976 z" id="boundary" inkscape:connector-curvature="0" />
	<path style="fill:none;stroke:red;stroke-width:1px;stroke-linecap:butt;stroke-linejoin:miter;stroke-opacity:1" d="M 708.683,292.829 701.122,279.22 z" id="boundary" inkscape:connector-curvature="0" />
	<path style="fill:none;stroke:red;stroke-width:1px;stroke-linecap:butt;stroke-linejoin:miter;stroke-opacity:1" d="M 701.122,279.22 701.122,264.098 z" id="boundary" inkscape:connector-curvature="0" />
	<path style="fill:none;stroke:red;stroke-width:1px;stroke-linecap:butt;stroke-linejoin:miter;stroke-opacity:1" d="M 708.683,292.829 708.683,307.951 z" id="boundary" inkscape:connector-curvature="0" />
	<path style="fill:none;stroke:red;stroke-width:1px;stroke-linecap:butt;stroke-linejoin:miter;stroke-opacity:1" d="M 852.341,261.073 867.463,261.073 z" id="boundary" inkscape:connector-curvature="0" />
	<path style="fill:none;stroke:red;stroke-width:1px;stroke-linecap:butt;stroke-linejoin:miter;stroke-opacity:1" d="M 838.732,268.634 852.341,261.073 z" id="boundary" inkscape:connector-curvature="0" />
	<path style="fill:none;stroke:red;stroke-width:1px;stroke-linecap:butt;stroke-linejoin:miter;stroke-opacity:1" d="M 881.073,250.488 867.463,261.073 z" id="boundary" inkscape:connector-curvature="0" />
	<path style="fill:none;stroke:red;stroke-width:1px;stroke-linecap:butt;stroke-linejoin:miter;stroke-opacity:1" d="M 881.073,250.488 893.171,238.39 z" id="boundary" inkscape:connector-curvature="0" />
	<path style="fill:none;stroke:red;stroke-width:1px;stroke-linecap:butt;stroke-linejoin:miter;stroke-opacity:1" d="M 905.268,226.293 893.171,238.39 z" id="boundary" inkscape:connector-curvature="0" />
	<path style="fill:none;stroke:red;stroke-width:1px;stroke-linecap:butt;stroke-linejoin:miter;stroke-opacity:1" d="M 782.78,291.317 796.39,283.756 z" id="boundary" inkscape:connector-curvature="0" />
	<path style="fill:none;stroke:red;stroke-width:1px;stroke-linecap:butt;stroke-linejoin:miter;stroke-opacity:1" d="M 782.78,291.317 767.659,295.854 z" id="boundary" inkscape:connector-curvature="0" />
	<path style="fill:none;stroke:red;stroke-width:1px;stroke-linecap:butt;stroke-linejoin:miter;stroke-opacity:1" d="M 838.732,268.634 825.122,276.195 z" id="boundary" inkscape:connector-curvature="0" />
	<path style="fill:none;stroke:red;stroke-width:1px;stroke-linecap:butt;stroke-linejoin:miter;stroke-opacity:1" d="M 825.122,276.195 810,276.195 z" id="boundary" inkscape:connector-curvature="0" />
	<path style="fill:none;stroke:red;stroke-width:1px;stroke-linecap:butt;stroke-linejoin:miter;stroke-opacity:1" d="M 796.39,283.756 810,276.195 z" id="boundary" inkscape:connector-curvature="0" />
	<path style="fill:none;stroke:red;stroke-width:1px;stroke-linecap:butt;stroke-linejoin:miter;stroke-opacity:1" d="M 905.268,226.293 917.366,217.22 z" id="boundary" inkscape:connector-curvature="0" />
	<path style="fill:none;stroke:red;stroke-width:1px;stroke-linecap:butt;stroke-linejoin:miter;stroke-opacity:1" d="M 917.366,217.22 932.488,223.268 z" id="boundary" inkscape:connector-curvature="0" />
	<path style="fill:none;stroke:red;stroke-width:1px;stroke-linecap:butt;stroke-linejoin:miter;stroke-opacity:1" d="M 947.61,223.268 932.488,223.268 z" id="boundary" inkscape:connector-curvature="0" />
	<path style="fill:none;stroke:red;stroke-width:1px;stroke-linecap:butt;stroke-linejoin:miter;stroke-opacity:1" d="M 962.732,223.268 947.61,223.268 z" id="boundary" inkscape:connector-curvature="0" />
	<path style="fill:none;stroke:red;stroke-width:1px;stroke-linecap:butt;stroke-linejoin:miter;stroke-opacity:1" d="M 958.195,292.829 965.756,277.707 z" id="boundary" inkscape:connector-curvature="0" />
	<path style="fill:none;stroke:red;stroke-width:1px;stroke-linecap:butt;stroke-linejoin:miter;stroke-opacity:1" d="M 965.756,277.707 977.854,267.122 z" id="boundary" inkscape:connector-curvature="0" />
	<path style="fill:none;stroke:red;stroke-width:1px;stroke-linecap:butt;stroke-linejoin:miter;stroke-opacity:1" d="M 980.878,245.951 977.854,267.122 z" id="boundary" inkscape:connector-curvature="0" />
	<path style="fill:none;stroke:red;stroke-width:1px;stroke-linecap:butt;stroke-linejoin:miter;stroke-opacity:1" d="M 976.341,230.829 980.878,245.951 z" id="boundary" inkscape:connector-curvature="0" />
	<path style="fill:none;stroke:red;stroke-width:1px;stroke-linecap:butt;stroke-linejoin:miter;stroke-opacity:1" d="M 962.732,223.268 976.341,230.829 z" id="boundary" inkscape:connector-curvature="0" />
	<path style="fill:none;stroke:red;stroke-width:1px;stroke-linecap:butt;stroke-linejoin:miter;stroke-opacity:1" d="M 950.634,315.512 958.195,292.829 z" id="boundary" inkscape:connector-curvature="0" />
	<path style="fill:none;stroke:red;stroke-width:1px;stroke-linecap:butt;stroke-linejoin:miter;stroke-opacity:1" d="M 708.683,307.951 723.805,314 z" id="boundary" inkscape:connector-curvature="0" />
	<path style="fill:none;stroke:red;stroke-width:1px;stroke-linecap:butt;stroke-linejoin:miter;stroke-opacity:1" d="M 767.659,295.854 754.049,306.439 z" id="boundary" inkscape:connector-curvature="0" />
	<path style="fill:none;stroke:red;stroke-width:1px;stroke-linecap:butt;stroke-linejoin:miter;stroke-opacity:1" d="M 754.049,306.439 738.927,309.463 z" id="boundary" inkscape:connector-curvature="0" />
	<path style="fill:none;stroke:red;stroke-width:1px;stroke-linecap:butt;stroke-linejoin:miter;stroke-opacity:1" d="M 738.927,309.463 723.805,314 z" id="boundary" inkscape:connector-curvature="0" />
	<path style="fill:none;stroke:red;stroke-width:1px;stroke-linecap:butt;stroke-linejoin:miter;stroke-opacity:1" d="M 769.171,504.537 754.049,504.537 z" id="boundary" inkscape:connector-curvature="0" />
	<path style="fill:none;stroke:red;stroke-width:1px;stroke-linecap:butt;stroke-linejoin:miter;stroke-opacity:1" d="M 723.805,504.537 738.927,504.537 z" id="boundary" inkscape:connector-curvature="0" />
	<path style="fill:none;stroke:red;stroke-width:1px;stroke-linecap:butt;stroke-linejoin:miter;stroke-opacity:1" d="M 723.805,519.659 723.805,504.537 z" id="boundary" inkscape:connector-curvature="0" />
	<path style="fill:none;stroke:red;stroke-width:1px;stroke-linecap:butt;stroke-linejoin:miter;stroke-opacity:1" d="M 754.049,504.537 738.927,504.537 z" id="boundary" inkscape:connector-curvature="0" />
	<path style="fill:none;stroke:red;stroke-width:1px;stroke-linecap:butt;stroke-linejoin:miter;stroke-opacity:1" d="M 927.951,376 927.951,360.878 z" id="boundary" inkscape:connector-curvature="0" />
	<path style="fill:none;stroke:red;stroke-width:1px;stroke-linecap:butt;stroke-linejoin:miter;stroke-opacity:1" d="M 935.512,389.61 927.951,376 z" id="boundary" inkscape:connector-curvature="0" />
	<path style="fill:none;stroke:red;stroke-width:1px;stroke-linecap:butt;stroke-linejoin:miter;stroke-opacity:1" d="M 927.951,360.878 935.512,345.756 z" id="boundary" inkscape:connector-curvature="0" />
	<path style="fill:none;stroke:red;stroke-width:1px;stroke-linecap:butt;stroke-linejoin:miter;stroke-opacity:1" d="M 943.073,403.22 935.512,389.61 z" id="boundary" inkscape:connector-curvature="0" />
	<path style="fill:none;stroke:red;stroke-width:1px;stroke-linecap:butt;stroke-linejoin:miter;stroke-opacity:1" d="M 943.073,330.634 950.634,315.512 z" id="boundary" inkscape:connector-curvature="0" />
	<path style="fill:none;stroke:red;stroke-width:1px;stroke-linecap:butt;stroke-linejoin:miter;stroke-opacity:1" d="M 943.073,330.634 935.512,345.756 z" id="boundary" inkscape:connector-curvature="0" />
	<path style="fill:none;stroke:red;stroke-width:1px;stroke-linecap:butt;stroke-linejoin:miter;stroke-opacity:1" d="M 943.073,403.22 943.073,418.341 z" id="boundary" inkscape:connector-curvature="0" />
	<path style="fill:none;stroke:red;stroke-width:1px;stroke-linecap:butt;stroke-linejoin:miter;stroke-opacity:1" d="M 935.512,436.488 943.073,418.341 z" id="boundary" inkscape:connector-curvature="0" />
	<path style="fill:none;stroke:red;stroke-width:1px;stroke-linecap:butt;stroke-linejoin:miter;stroke-opacity:1" d="M 943.073,450.098 935.512,436.488 z" id="boundary" inkscape:connector-curvature="0" />
	<path style="fill:none;stroke:red;stroke-width:1px;stroke-linecap:butt;stroke-linejoin:miter;stroke-opacity:1" d="M 943.073,450.098 950.634,463.707 z" id="boundary" inkscape:connector-curvature="0" />
	<path style="fill:none;stroke:red;stroke-width:1px;stroke-linecap:butt;stroke-linejoin:miter;stroke-opacity:1" d="M 950.634,463.707 950.634,478.829 z" id="boundary" inkscape:connector-curvature="0" />
	<path style="fill:none;stroke:red;stroke-width:1px;stroke-linecap:butt;stroke-linejoin:miter;stroke-opacity:1" d="M 723.805,504.537 539.317,572.585 z" id="boundary" inkscape:connector-curvature="0" />
	<path style="fill:none;stroke:red;stroke-width:1px;stroke-linecap:butt;stroke-linejoin:miter;stroke-opacity:1" d="M 524.195,572.585 539.317,572.585 z" id="boundary" inkscape:connector-curvature="0" />
	<path style="fill:none;stroke:red;stroke-width:1px;stroke-linecap:butt;stroke-linejoin:miter;stroke-opacity:1" d="M 539.317,572.585 545.366,587.707 z" id="boundary" inkscape:connector-curvature="0" />
	<path style="fill:none;stroke:red;stroke-width:1px;stroke-linecap:butt;stroke-linejoin:miter;stroke-opacity:1" d="M 536.293,616.439 521.171,616.439 z" id="boundary" inkscape:connector-curvature="0" />
	<path style="fill:none;stroke:red;stroke-width:1px;stroke-linecap:butt;stroke-linejoin:miter;stroke-opacity:1" d="M 552.927,601.317 545.366,587.707 z" id="boundary" inkscape:connector-curvature="0" />
	<path style="fill:none;stroke:red;stroke-width:1px;stroke-linecap:butt;stroke-linejoin:miter;stroke-opacity:1" d="M 537.805,648.195 522.683,648.195 z" id="boundary" inkscape:connector-curvature="0" />
	<path style="fill:none;stroke:red;stroke-width:1px;stroke-linecap:butt;stroke-linejoin:miter;stroke-opacity:1" d="M 552.927,648.195 537.805,648.195 z" id="boundary" inkscape:connector-curvature="0" />
	<path style="fill:none;stroke:red;stroke-width:1px;stroke-linecap:butt;stroke-linejoin:miter;stroke-opacity:1" d="M 536.293,616.439 551.415,616.439 z" id="boundary" inkscape:connector-curvature="0" />
	<path style="fill:none;stroke:red;stroke-width:1px;stroke-linecap:butt;stroke-linejoin:miter;stroke-opacity:1" d="M 568.049,654.244 552.927,648.195 z" id="boundary" inkscape:connector-curvature="0" />
	<path style="fill:none;stroke:red;stroke-width:1px;stroke-linecap:butt;stroke-linejoin:miter;stroke-opacity:1" d="M 552.927,601.317 551.415,616.439 z" id="boundary" inkscape:connector-curvature="0" />
	<path style="fill:none;stroke:red;stroke-width:1px;stroke-linecap:butt;stroke-linejoin:miter;stroke-opacity:1" d="M 495.463,666.341 537.805,648.195 z" id="boundary" inkscape:connector-curvature="0" />
	<path style="fill:none;stroke:red;stroke-width:1px;stroke-linecap:butt;stroke-linejoin:miter;stroke-opacity:1" d="M 723.805,534.78 723.805,549.902 z" id="boundary" inkscape:connector-curvature="0" />
	<path style="fill:none;stroke:red;stroke-width:1px;stroke-linecap:butt;stroke-linejoin:miter;stroke-opacity:1" d="M 723.805,534.78 723.805,519.659 z" id="boundary" inkscape:connector-curvature="0" />
	<path style="fill:none;stroke:red;stroke-width:1px;stroke-linecap:butt;stroke-linejoin:miter;stroke-opacity:1" d="M 723.805,565.024 723.805,580.146 z" id="boundary" inkscape:connector-curvature="0" />
	<path style="fill:none;stroke:red;stroke-width:1px;stroke-linecap:butt;stroke-linejoin:miter;stroke-opacity:1" d="M 723.805,565.024 723.805,549.902 z" id="boundary" inkscape:connector-curvature="0" />
	<path style="fill:none;stroke:red;stroke-width:1px;stroke-linecap:butt;stroke-linejoin:miter;stroke-opacity:1" d="M 723.805,580.146 723.805,595.268 z" id="boundary" inkscape:connector-curvature="0" />
	<path style="fill:none;stroke:red;stroke-width:1px;stroke-linecap:butt;stroke-linejoin:miter;stroke-opacity:1" d="M 568.049,654.244 583.171,654.244 z" id="boundary" inkscape:connector-curvature="0" />
	<path style="fill:none;stroke:red;stroke-width:1px;stroke-linecap:butt;stroke-linejoin:miter;stroke-opacity:1" d="M 583.171,654.244 586.195,669.366 z" id="boundary" inkscape:connector-curvature="0" />
	<path style="fill:none;stroke:red;stroke-width:1px;stroke-linecap:butt;stroke-linejoin:miter;stroke-opacity:1" d="M 598.293,678.439 586.195,669.366 z" id="boundary" inkscape:connector-curvature="0" />
	<path style="fill:none;stroke:red;stroke-width:1px;stroke-linecap:butt;stroke-linejoin:miter;stroke-opacity:1" d="M 723.805,595.268 723.805,610.39 z" id="boundary" inkscape:connector-curvature="0" />
	<path style="fill:none;stroke:red;stroke-width:1px;stroke-linecap:butt;stroke-linejoin:miter;stroke-opacity:1" d="M 731.366,624 723.805,610.39 z" id="boundary" inkscape:connector-curvature="0" />
	<path style="fill:none;stroke:red;stroke-width:1px;stroke-linecap:butt;stroke-linejoin:miter;stroke-opacity:1" d="M 586.195,669.366 563.512,749.512 z" id="boundary" inkscape:connector-curvature="0" />
	<path style="fill:none;stroke:red;stroke-width:1px;stroke-linecap:butt;stroke-linejoin:miter;stroke-opacity:1" d="M 578.634,741.951 593.756,744.976 z" id="boundary" inkscape:connector-curvature="0" />
	<path style="fill:none;stroke:red;stroke-width:1px;stroke-linecap:butt;stroke-linejoin:miter;stroke-opacity:1" d="M 605.854,692.049 611.902,707.171 z" id="boundary" inkscape:connector-curvature="0" />
	<path style="fill:none;stroke:red;stroke-width:1px;stroke-linecap:butt;stroke-linejoin:miter;stroke-opacity:1" d="M 605.854,692.049 598.293,678.439 z" id="boundary" inkscape:connector-curvature="0" />
	<path style="fill:none;stroke:red;stroke-width:1px;stroke-linecap:butt;stroke-linejoin:miter;stroke-opacity:1" d="M 578.634,741.951 563.512,749.512 z" id="boundary" inkscape:connector-curvature="0" />
	<path style="fill:none;stroke:red;stroke-width:1px;stroke-linecap:butt;stroke-linejoin:miter;stroke-opacity:1" d="M 608.878,744.976 593.756,744.976 z" id="boundary" inkscape:connector-curvature="0" />
	<path style="fill:none;stroke:red;stroke-width:1px;stroke-linecap:butt;stroke-linejoin:miter;stroke-opacity:1" d="M 563.512,749.512 571.073,763.122 z" id="boundary" inkscape:connector-curvature="0" />
	<path style="fill:none;stroke:red;stroke-width:1px;stroke-linecap:butt;stroke-linejoin:miter;stroke-opacity:1" d="M 601.317,761.61 586.195,761.61 z" id="boundary" inkscape:connector-curvature="0" />
	<path style="fill:none;stroke:red;stroke-width:1px;stroke-linecap:butt;stroke-linejoin:miter;stroke-opacity:1" d="M 586.195,761.61 571.073,763.122 z" id="boundary" inkscape:connector-curvature="0" />
	<path style="fill:none;stroke:red;stroke-width:1px;stroke-linecap:butt;stroke-linejoin:miter;stroke-opacity:1" d="M 616.439,761.61 601.317,761.61 z" id="boundary" inkscape:connector-curvature="0" />
	<path style="fill:none;stroke:red;stroke-width:1px;stroke-linecap:butt;stroke-linejoin:miter;stroke-opacity:1" d="M 611.902,707.171 619.463,720.78 z" id="boundary" inkscape:connector-curvature="0" />
	<path style="fill:none;stroke:red;stroke-width:1px;stroke-linecap:butt;stroke-linejoin:miter;stroke-opacity:1" d="M 608.878,744.976 622.488,737.415 z" id="boundary" inkscape:connector-curvature="0" />
	<path style="fill:none;stroke:red;stroke-width:1px;stroke-linecap:butt;stroke-linejoin:miter;stroke-opacity:1" d="M 619.463,720.78 622.488,737.415 z" id="boundary" inkscape:connector-curvature="0" />
	<path style="fill:none;stroke:red;stroke-width:1px;stroke-linecap:butt;stroke-linejoin:miter;stroke-opacity:1" d="M 646.683,761.61 631.561,761.61 z" id="boundary" inkscape:connector-curvature="0" />
	<path style="fill:none;stroke:red;stroke-width:1px;stroke-linecap:butt;stroke-linejoin:miter;stroke-opacity:1" d="M 646.683,761.61 660.293,769.171 z" id="boundary" inkscape:connector-curvature="0" />
	<path style="fill:none;stroke:red;stroke-width:1px;stroke-linecap:butt;stroke-linejoin:miter;stroke-opacity:1" d="M 631.561,761.61 616.439,761.61 z" id="boundary" inkscape:connector-curvature="0" />
	<path style="fill:none;stroke:red;stroke-width:1px;stroke-linecap:butt;stroke-linejoin:miter;stroke-opacity:1" d="M 660.293,769.171 675.415,769.171 z" id="boundary" inkscape:connector-curvature="0" />
	<path style="fill:none;stroke:red;stroke-width:1px;stroke-linecap:butt;stroke-linejoin:miter;stroke-opacity:1" d="M 675.415,769.171 689.024,776.732 z" id="boundary" inkscape:connector-curvature="0" />
	<path style="fill:none;stroke:red;stroke-width:1px;stroke-linecap:butt;stroke-linejoin:miter;stroke-opacity:1" d="M 716.244,776.732 702.634,784.293 z" id="boundary" inkscape:connector-curvature="0" />
	<path style="fill:none;stroke:red;stroke-width:1px;stroke-linecap:butt;stroke-linejoin:miter;stroke-opacity:1" d="M 702.634,784.293 689.024,776.732 z" id="boundary" inkscape:connector-curvature="0" />
	<path style="fill:none;stroke:red;stroke-width:1px;stroke-linecap:butt;stroke-linejoin:miter;stroke-opacity:1" d="M 728.341,766.146 716.244,776.732 z" id="boundary" inkscape:connector-curvature="0" />
	<path style="fill:none;stroke:red;stroke-width:1px;stroke-linecap:butt;stroke-linejoin:miter;stroke-opacity:1" d="M 782.78,512.098 796.39,519.659 z" id="boundary" inkscape:connector-curvature="0" />
	<path style="fill:none;stroke:red;stroke-width:1px;stroke-linecap:butt;stroke-linejoin:miter;stroke-opacity:1" d="M 782.78,512.098 769.171,504.537 z" id="boundary" inkscape:connector-curvature="0" />
	<path style="fill:none;stroke:red;stroke-width:1px;stroke-linecap:butt;stroke-linejoin:miter;stroke-opacity:1" d="M 819.073,542.341 806.976,531.756 z" id="boundary" inkscape:connector-curvature="0" />
	<path style="fill:none;stroke:red;stroke-width:1px;stroke-linecap:butt;stroke-linejoin:miter;stroke-opacity:1" d="M 806.976,531.756 796.39,519.659 z" id="boundary" inkscape:connector-curvature="0" />
	<path style="fill:none;stroke:red;stroke-width:1px;stroke-linecap:butt;stroke-linejoin:miter;stroke-opacity:1" d="M 819.073,542.341 829.659,554.439 z" id="boundary" inkscape:connector-curvature="0" />
	<path style="fill:none;stroke:red;stroke-width:1px;stroke-linecap:butt;stroke-linejoin:miter;stroke-opacity:1" d="M 829.659,554.439 841.756,565.024 z" id="boundary" inkscape:connector-curvature="0" />
	<path style="fill:none;stroke:red;stroke-width:1px;stroke-linecap:butt;stroke-linejoin:miter;stroke-opacity:1" d="M 927.951,504.537 841.756,565.024 z" id="boundary" inkscape:connector-curvature="0" />
	<path style="fill:none;stroke:red;stroke-width:1px;stroke-linecap:butt;stroke-linejoin:miter;stroke-opacity:1" d="M 852.341,577.122 864.439,587.707 z" id="boundary" inkscape:connector-curvature="0" />
	<path style="fill:none;stroke:red;stroke-width:1px;stroke-linecap:butt;stroke-linejoin:miter;stroke-opacity:1" d="M 875.024,599.805 864.439,587.707 z" id="boundary" inkscape:connector-curvature="0" />
	<path style="fill:none;stroke:red;stroke-width:1px;stroke-linecap:butt;stroke-linejoin:miter;stroke-opacity:1" d="M 841.756,565.024 852.341,577.122 z" id="boundary" inkscape:connector-curvature="0" />
	<path style="fill:none;stroke:red;stroke-width:1px;stroke-linecap:butt;stroke-linejoin:miter;stroke-opacity:1" d="M 935.512,518.146 943.073,531.756 z" id="boundary" inkscape:connector-curvature="0" />
	<path style="fill:none;stroke:red;stroke-width:1px;stroke-linecap:butt;stroke-linejoin:miter;stroke-opacity:1" d="M 935.512,518.146 927.951,504.537 z" id="boundary" inkscape:connector-curvature="0" />
	<path style="fill:none;stroke:red;stroke-width:1px;stroke-linecap:butt;stroke-linejoin:miter;stroke-opacity:1" d="M 927.951,504.537 943.073,504.537 z" id="boundary" inkscape:connector-curvature="0" />
	<path style="fill:none;stroke:red;stroke-width:1px;stroke-linecap:butt;stroke-linejoin:miter;stroke-opacity:1" d="M 950.634,545.366 943.073,531.756 z" id="boundary" inkscape:connector-curvature="0" />
	<path style="fill:none;stroke:red;stroke-width:1px;stroke-linecap:butt;stroke-linejoin:miter;stroke-opacity:1" d="M 943.073,504.537 950.634,478.829 z" id="boundary" inkscape:connector-curvature="0" />
	<path style="fill:none;stroke:red;stroke-width:1px;stroke-linecap:butt;stroke-linejoin:miter;stroke-opacity:1" d="M 887.122,610.39 875.024,599.805 z" id="boundary" inkscape:connector-curvature="0" />
	<path style="fill:none;stroke:red;stroke-width:1px;stroke-linecap:butt;stroke-linejoin:miter;stroke-opacity:1" d="M 958.195,558.976 962.732,574.098 z" id="boundary" inkscape:connector-curvature="0" />
	<path style="fill:none;stroke:red;stroke-width:1px;stroke-linecap:butt;stroke-linejoin:miter;stroke-opacity:1" d="M 950.634,545.366 958.195,558.976 z" id="boundary" inkscape:connector-curvature="0" />
	<path style="fill:none;stroke:red;stroke-width:1px;stroke-linecap:butt;stroke-linejoin:miter;stroke-opacity:1" d="M 970.293,587.707 962.732,574.098 z" id="boundary" inkscape:connector-curvature="0" />
	<path style="fill:none;stroke:red;stroke-width:1px;stroke-linecap:butt;stroke-linejoin:miter;stroke-opacity:1" d="M 980.878,599.805 970.293,587.707 z" id="boundary" inkscape:connector-curvature="0" />
	<path style="fill:none;stroke:red;stroke-width:1px;stroke-linecap:butt;stroke-linejoin:miter;stroke-opacity:1" d="M 897.707,622.488 887.122,610.39 z" id="boundary" inkscape:connector-curvature="0" />
	<path style="fill:none;stroke:red;stroke-width:1px;stroke-linecap:butt;stroke-linejoin:miter;stroke-opacity:1" d="M 731.366,639.122 731.366,654.244 z" id="boundary" inkscape:connector-curvature="0" />
	<path style="fill:none;stroke:red;stroke-width:1px;stroke-linecap:butt;stroke-linejoin:miter;stroke-opacity:1" d="M 731.366,669.366 731.366,684.488 z" id="boundary" inkscape:connector-curvature="0" />
	<path style="fill:none;stroke:red;stroke-width:1px;stroke-linecap:butt;stroke-linejoin:miter;stroke-opacity:1" d="M 731.366,699.61 731.366,684.488 z" id="boundary" inkscape:connector-curvature="0" />
	<path style="fill:none;stroke:red;stroke-width:1px;stroke-linecap:butt;stroke-linejoin:miter;stroke-opacity:1" d="M 731.366,669.366 731.366,654.244 z" id="boundary" inkscape:connector-curvature="0" />
	<path style="fill:none;stroke:red;stroke-width:1px;stroke-linecap:butt;stroke-linejoin:miter;stroke-opacity:1" d="M 731.366,714.732 731.366,729.854 z" id="boundary" inkscape:connector-curvature="0" />
	<path style="fill:none;stroke:red;stroke-width:1px;stroke-linecap:butt;stroke-linejoin:miter;stroke-opacity:1" d="M 731.366,699.61 731.366,714.732 z" id="boundary" inkscape:connector-curvature="0" />
	<path style="fill:none;stroke:red;stroke-width:1px;stroke-linecap:butt;stroke-linejoin:miter;stroke-opacity:1" d="M 735.902,751.024 731.366,729.854 z" id="boundary" inkscape:connector-curvature="0" />
	<path style="fill:none;stroke:red;stroke-width:1px;stroke-linecap:butt;stroke-linejoin:miter;stroke-opacity:1" d="M 735.902,751.024 728.341,766.146 z" id="boundary" inkscape:connector-curvature="0" />
	<path style="fill:none;stroke:red;stroke-width:1px;stroke-linecap:butt;stroke-linejoin:miter;stroke-opacity:1" d="M 731.366,639.122 731.366,624 z" id="boundary" inkscape:connector-curvature="0" />
	<path style="fill:none;stroke:red;stroke-width:1px;stroke-linecap:butt;stroke-linejoin:miter;stroke-opacity:1" d="M 909.805,633.073 920.39,645.171 z" id="boundary" inkscape:connector-curvature="0" />
	<path style="fill:none;stroke:red;stroke-width:1px;stroke-linecap:butt;stroke-linejoin:miter;stroke-opacity:1" d="M 909.805,633.073 897.707,622.488 z" id="boundary" inkscape:connector-curvature="0" />
	<path style="fill:none;stroke:red;stroke-width:1px;stroke-linecap:butt;stroke-linejoin:miter;stroke-opacity:1" d="M 988.439,613.415 994.488,628.537 z" id="boundary" inkscape:connector-curvature="0" />
	<path style="fill:none;stroke:red;stroke-width:1px;stroke-linecap:butt;stroke-linejoin:miter;stroke-opacity:1" d="M 996,643.659 994.488,628.537 z" id="boundary" inkscape:connector-curvature="0" />
	<path style="fill:none;stroke:red;stroke-width:1px;stroke-linecap:butt;stroke-linejoin:miter;stroke-opacity:1" d="M 996,643.659 980.878,655.756 z" id="boundary" inkscape:connector-curvature="0" />
	<path style="fill:none;stroke:red;stroke-width:1px;stroke-linecap:butt;stroke-linejoin:miter;stroke-opacity:1" d="M 920.39,645.171 935.512,651.22 z" id="boundary" inkscape:connector-curvature="0" />
	<path style="fill:none;stroke:red;stroke-width:1px;stroke-linecap:butt;stroke-linejoin:miter;stroke-opacity:1" d="M 950.634,655.756 965.756,655.756 z" id="boundary" inkscape:connector-curvature="0" />
	<path style="fill:none;stroke:red;stroke-width:1px;stroke-linecap:butt;stroke-linejoin:miter;stroke-opacity:1" d="M 950.634,655.756 935.512,651.22 z" id="boundary" inkscape:connector-curvature="0" />
	<path style="fill:none;stroke:red;stroke-width:1px;stroke-linecap:butt;stroke-linejoin:miter;stroke-opacity:1" d="M 965.756,655.756 980.878,655.756 z" id="boundary" inkscape:connector-curvature="0" />
	<path style="fill:none;stroke:red;stroke-width:1px;stroke-linecap:butt;stroke-linejoin:miter;stroke-opacity:1" d="M 980.878,599.805 988.439,613.415 z" id="boundary" inkscape:connector-curvature="0" />
	<circle cx="4" cy="363.902" r="4" fill="#0" id="circle0"/>
	<circle cx="19.122" cy="359.366" r="4" fill="#0" id="circle1"/>
	<circle cx="22.1463" cy="374.488" r="4" fill="#0" id="circle2"/>
	<circle cx="32.7317" cy="351.805" r="4" fill="#0" id="circle3"/>
	<circle cx="34.2439" cy="383.561" r="4" fill="#0" id="circle4"/>
	<circle cx="47.8537" cy="351.805" r="4" fill="#0" id="circle5"/>
	<circle cx="49.3659" cy="383.561" r="4" fill="#0" id="circle6"/>
	<circle cx="61.4634" cy="344.244" r="4" fill="#0" id="circle7"/>
	<circle cx="62.9756" cy="391.122" r="4" fill="#0" id="circle8"/>
	<circle cx="76.5854" cy="344.244" r="4" fill="#0" id="circle9"/>
	<circle cx="78.0976" cy="391.122" r="4" fill="#0" id="circle10"/>
	<circle cx="91.7073" cy="344.244" r="4" fill="#0" id="circle11"/>
	<circle cx="91.7073" cy="398.683" r="4" fill="#0" id="circle12"/>
	<circle cx="106.829" cy="344.244" r="4" fill="#0" id="circle13"/>
	<circle cx="106.829" cy="398.683" r="4" fill="#0" id="circle14"/>
	<circle cx="120.439" cy="351.805" r="4" fill="#0" id="circle15"/>
	<circle cx="121.951" cy="398.683" r="4" fill="#0" id="circle16"/>
	<circle cx="135.561" cy="345.756" r="4" fill="#0" id="circle17"/>
	<circle cx="137.073" cy="398.683" r="4" fill="#0" id="circle18"/>
	<circle cx="150.683" cy="351.805" r="4" fill="#0" id="circle19"/>
	<circle cx="152.195" cy="398.683" r="4" fill="#0" id="circle20"/>
	<circle cx="165.805" cy="351.805" r="4" fill="#0" id="circle21"/>
	<circle cx="167.317" cy="404.732" r="4" fill="#0" id="circle22"/>
	<circle cx="179.415" cy="344.244" r="4" fill="#0" id="circle23"/>
	<circle cx="182.439" cy="406.244" r="4" fill="#0" id="circle24"/>
	<circle cx="194.537" cy="344.244" r="4" fill="#0" id="circle25"/>
	<circle cx="197.561" cy="406.244" r="4" fill="#0" id="circle26"/>
	<circle cx="203.61" cy="330.634" r="4" fill="#0" id="circle27"/>
	<circle cx="212.683" cy="406.244" r="4" fill="#0" id="circle28"/>
	<circle cx="218.732" cy="329.122" r="4" fill="#0" id="circle29"/>
	<circle cx="227.805" cy="406.244" r="4" fill="#0" id="circle30"/>
	<circle cx="233.854" cy="323.073" r="4" fill="#0" id="circle31"/>
	<circle cx="241.415" cy="413.805" r="4" fill="#0" id="circle32"/>
	<circle cx="248.976" cy="321.561" r="4" fill="#0" id="circle33"/>
	<circle cx="255.024" cy="421.366" r="4" fill="#0" id="circle34"/>
	<circle cx="264.098" cy="321.561" r="4" fill="#0" id="circle35"/>
	<circle cx="270.146" cy="421.366" r="4" fill="#0" id="circle36"/>
	<circle cx="279.22" cy="321.561" r="4" fill="#0" id="circle37"/>
	<circle cx="283.756" cy="428.927" r="4" fill="#0" id="circle38"/>
	<circle cx="294.341" cy="321.561" r="4" fill="#0" id="circle39"/>
	<circle cx="298.878" cy="428.927" r="4" fill="#0" id="circle40"/>
	<circle cx="309.463" cy="321.561" r="4" fill="#0" id="circle41"/>
	<circle cx="314" cy="428.927" r="4" fill="#0" id="circle42"/>
	<circle cx="324.585" cy="321.561" r="4" fill="#0" id="circle43"/>
	<circle cx="327.61" cy="436.488" r="4" fill="#0" id="circle44"/>
	<circle cx="336.683" cy="190" r="4" fill="#0" id="circle45"/>
	<circle cx="336.683" cy="273.171" r="4" fill="#0" id="circle46"/>
	<circle cx="339.707" cy="315.512" r="4" fill="#0" id="circle47"/>
	<circle cx="341.22" cy="444.049" r="4" fill="#0" id="circle48"/>
	<circle cx="345.756" cy="202.098" r="4" fill="#0" id="circle49"/>
	<circle cx="351.805" cy="185.463" r="4" fill="#0" id="circle50"/>
	<circle cx="351.805" cy="268.634" r="4" fill="#0" id="circle51"/>
	<circle cx="354.829" cy="314" r="4" fill="#0" id="circle52"/>
	<circle cx="356.341" cy="450.098" r="4" fill="#0" id="circle53"/>
	<circle cx="360.878" cy="202.098" r="4" fill="#0" id="circle54"/>
	<circle cx="363.902" cy="277.707" r="4" fill="#0" id="circle55"/>
	<circle cx="366.927" cy="185.463" r="4" fill="#0" id="circle56"/>
	<circle cx="366.927" cy="552.927" r="4" fill="#0" id="circle57"/>
	<circle cx="369.951" cy="314" r="4" fill="#0" id="circle58"/>
	<circle cx="369.951" cy="457.659" r="4" fill="#0" id="circle59"/>
	<circle cx="376" cy="202.098" r="4" fill="#0" id="circle60"/>
	<circle cx="376" cy="268.634" r="4" fill="#0" id="circle61"/>
	<circle cx="382.049" cy="185.463" r="4" fill="#0" id="circle62"/>
	<circle cx="382.049" cy="548.39" r="4" fill="#0" id="circle63"/>
	<circle cx="385.073" cy="314" r="4" fill="#0" id="circle64"/>
	<circle cx="385.073" cy="459.171" r="4" fill="#0" id="circle65"/>
	<circle cx="385.073" cy="563.512" r="4" fill="#0" id="circle66"/>
	<circle cx="388.098" cy="277.707" r="4" fill="#0" id="circle67"/>
	<circle cx="389.61" cy="620.976" r="4" fill="#0" id="circle68"/>
	<circle cx="391.122" cy="202.098" r="4" fill="#0" id="circle69"/>
	<circle cx="397.171" cy="185.463" r="4" fill="#0" id="circle70"/>
	<circle cx="397.171" cy="548.39" r="4" fill="#0" id="circle71"/>
	<circle cx="398.683" cy="466.732" r="4" fill="#0" id="circle72"/>
	<circle cx="400.195" cy="268.634" r="4" fill="#0" id="circle73"/>
	<circle cx="400.195" cy="314" r="4" fill="#0" id="circle74"/>
	<circle cx="400.195" cy="565.024" r="4" fill="#0" id="circle75"/>
	<circle cx="401.707" cy="285.268" r="4" fill="#0" id="circle76"/>
	<circle cx="401.707" cy="631.561" r="4" fill="#0" id="circle77"/>
	<circle cx="404.732" cy="616.439" r="4" fill="#0" id="circle78"/>
	<circle cx="406.244" cy="202.098" r="4" fill="#0" id="circle79"/>
	<circle cx="412.293" cy="185.463" r="4" fill="#0" id="circle80"/>
	<circle cx="412.293" cy="548.39" r="4" fill="#0" id="circle81"/>
	<circle cx="413.805" cy="466.732" r="4" fill="#0" id="circle82"/>
	<circle cx="415.317" cy="268.634" r="4" fill="#0" id="circle83"/>
	<circle cx="415.317" cy="314" r="4" fill="#0" id="circle84"/>
	<circle cx="415.317" cy="565.024" r="4" fill="#0" id="circle85"/>
	<circle cx="416.829" cy="285.268" r="4" fill="#0" id="circle86"/>
	<circle cx="416.829" cy="633.073" r="4" fill="#0" id="circle87"/>
	<circle cx="419.854" cy="616.439" r="4" fill="#0" id="circle88"/>
	<circle cx="421.366" cy="202.098" r="4" fill="#0" id="circle89"/>
	<circle cx="427.415" cy="185.463" r="4" fill="#0" id="circle90"/>
	<circle cx="427.415" cy="474.293" r="4" fill="#0" id="circle91"/>
	<circle cx="427.415" cy="548.39" r="4" fill="#0" id="circle92"/>
	<circle cx="430.439" cy="268.634" r="4" fill="#0" id="circle93"/>
	<circle cx="430.439" cy="314" r="4" fill="#0" id="circle94"/>
	<circle cx="430.439" cy="565.024" r="4" fill="#0" id="circle95"/>
	<circle cx="431.951" cy="285.268" r="4" fill="#0" id="circle96"/>
	<circle cx="431.951" cy="639.122" r="4" fill="#0" id="circle97"/>
	<circle cx="434.976" cy="209.659" r="4" fill="#0" id="circle98"/>
	<circle cx="434.976" cy="619.463" r="4" fill="#0" id="circle99"/>
	<circle cx="442.537" cy="182.439" r="4" fill="#0" id="circle100"/>
	<circle cx="442.537" cy="258.049" r="4" fill="#0" id="circle101"/>
	<circle cx="442.537" cy="297.366" r="4" fill="#0" id="circle102"/>
	<circle cx="442.537" cy="474.293" r="4" fill="#0" id="circle103"/>
	<circle cx="442.537" cy="548.39" r="4" fill="#0" id="circle104"/>
	<circle cx="444.049" cy="221.756" r="4" fill="#0" id="circle105"/>
	<circle cx="445.561" cy="314" r="4" fill="#0" id="circle106"/>
	<circle cx="445.561" cy="565.024" r="4" fill="#0" id="circle107"/>
	<circle cx="447.073" cy="640.634" r="4" fill="#0" id="circle108"/>
	<circle cx="450.098" cy="624" r="4" fill="#0" id="circle109"/>
	<circle cx="457.659" cy="174.878" r="4" fill="#0" id="circle110"/>
	<circle cx="457.659" cy="212.683" r="4" fill="#0" id="circle111"/>
	<circle cx="457.659" cy="253.512" r="4" fill="#0" id="circle112"/>
	<circle cx="457.659" cy="292.829" r="4" fill="#0" id="circle113"/>
	<circle cx="457.659" cy="474.293" r="4" fill="#0" id="circle114"/>
	<circle cx="457.659" cy="548.39" r="4" fill="#0" id="circle115"/>
	<circle cx="460.683" cy="314" r="4" fill="#0" id="circle116"/>
	<circle cx="460.683" cy="569.561" r="4" fill="#0" id="circle117"/>
	<circle cx="462.195" cy="640.634" r="4" fill="#0" id="circle118"/>
	<circle cx="465.22" cy="624" r="4" fill="#0" id="circle119"/>
	<circle cx="469.756" cy="185.463" r="4" fill="#0" id="circle120"/>
	<circle cx="471.268" cy="261.073" r="4" fill="#0" id="circle121"/>
	<circle cx="471.268" cy="481.854" r="4" fill="#0" id="circle122"/>
	<circle cx="472.78" cy="209.659" r="4" fill="#0" id="circle123"/>
	<circle cx="472.78" cy="292.829" r="4" fill="#0" id="circle124"/>
	<circle cx="472.78" cy="548.39" r="4" fill="#0" id="circle125"/>
	<circle cx="474.293" cy="577.122" r="4" fill="#0" id="circle126"/>
	<circle cx="477.317" cy="640.634" r="4" fill="#0" id="circle127"/>
	<circle cx="480.341" cy="624" r="4" fill="#0" id="circle128"/>
	<circle cx="484.878" cy="185.463" r="4" fill="#0" id="circle129"/>
	<circle cx="486.39" cy="261.073" r="4" fill="#0" id="circle130"/>
	<circle cx="486.39" cy="481.854" r="4" fill="#0" id="circle131"/>
	<circle cx="486.39" cy="540.829" r="4" fill="#0" id="circle132"/>
	<circle cx="486.39" cy="586.195" r="4" fill="#0" id="circle133"/>
	<circle cx="487.902" cy="209.659" r="4" fill="#0" id="circle134"/>
	<circle cx="487.902" cy="652.732" r="4" fill="#0" id="circle135"/>
	<circle cx="492.439" cy="245.951" r="4" fill="#0" id="circle136"/>
	<circle cx="492.439" cy="496.976" r="4" fill="#0" id="circle137"/>
	<circle cx="493.951" cy="572.585" r="4" fill="#0" id="circle138"/>
	<circle cx="493.951" cy="616.439" r="4" fill="#0" id="circle139"/>
	<circle cx="495.463" cy="16.0976" r="4" fill="#0" id="circle140"/>
	<circle cx="495.463" cy="227.805" r="4" fill="#0" id="circle141"/>
	<circle cx="495.463" cy="666.341" r="4" fill="#0" id="circle142"/>
	<circle cx="500" cy="185.463" r="4" fill="#0" id="circle143"/>
	<circle cx="501.512" cy="540.829" r="4" fill="#0" id="circle144"/>
	<circle cx="503.024" cy="209.659" r="4" fill="#0" id="circle145"/>
	<circle cx="503.024" cy="509.073" r="4" fill="#0" id="circle146"/>
	<circle cx="504.537" cy="28.1951" r="4" fill="#0" id="circle147"/>
	<circle cx="507.561" cy="608.878" r="4" fill="#0" id="circle148"/>
	<circle cx="507.561" cy="654.244" r="4" fill="#0" id="circle149"/>
	<circle cx="509.073" cy="572.585" r="4" fill="#0" id="circle150"/>
	<circle cx="510.585" cy="522.683" r="4" fill="#0" id="circle151"/>
	<circle cx="515.122" cy="185.463" r="4" fill="#0" id="circle152"/>
	<circle cx="516.634" cy="19.122" r="4" fill="#0" id="circle153"/>
	<circle cx="516.634" cy="540.829" r="4" fill="#0" id="circle154"/>
	<circle cx="518.146" cy="167.317" r="4" fill="#0" id="circle155"/>
	<circle cx="521.171" cy="616.439" r="4" fill="#0" id="circle156"/>
	<circle cx="522.683" cy="648.195" r="4" fill="#0" id="circle157"/>
	<circle cx="524.195" cy="572.585" r="4" fill="#0" id="circle158"/>
	<circle cx="525.707" cy="144.634" r="4" fill="#0" id="circle159"/>
	<circle cx="528.732" cy="28.1951" r="4" fill="#0" id="circle160"/>
	<circle cx="530.244" cy="11.561" r="4" fill="#0" id="circle161"/>
	<circle cx="533.268" cy="129.512" r="4" fill="#0" id="circle162"/>
	<circle cx="536.293" cy="616.439" r="4" fill="#0" id="circle163"/>
	<circle cx="537.805" cy="648.195" r="4" fill="#0" id="circle164"/>
	<circle cx="539.317" cy="572.585" r="4" fill="#0" id="circle165"/>
	<circle cx="540.829" cy="106.829" r="4" fill="#0" id="circle166"/>
	<circle cx="543.854" cy="32.7317" r="4" fill="#0" id="circle167"/>
	<circle cx="545.366" cy="11.561" r="4" fill="#0" id="circle168"/>
	<circle cx="545.366" cy="587.707" r="4" fill="#0" id="circle169"/>
	<circle cx="548.39" cy="91.7073" r="4" fill="#0" id="circle170"/>
	<circle cx="551.415" cy="616.439" r="4" fill="#0" id="circle171"/>
	<circle cx="552.927" cy="601.317" r="4" fill="#0" id="circle172"/>
	<circle cx="552.927" cy="648.195" r="4" fill="#0" id="circle173"/>
	<circle cx="555.951" cy="69.0244" r="4" fill="#0" id="circle174"/>
	<circle cx="558.976" cy="19.122" r="4" fill="#0" id="circle175"/>
	<circle cx="558.976" cy="35.7561" r="4" fill="#0" id="circle176"/>
	<circle cx="563.512" cy="53.9024" r="4" fill="#0" id="circle177"/>
	<circle cx="563.512" cy="749.512" r="4" fill="#0" id="circle178"/>
	<circle cx="568.049" cy="654.244" r="4" fill="#0" id="circle179"/>
	<circle cx="571.073" cy="763.122" r="4" fill="#0" id="circle180"/>
	<circle cx="574.098" cy="19.122" r="4" fill="#0" id="circle181"/>
	<circle cx="574.098" cy="35.7561" r="4" fill="#0" id="circle182"/>
	<circle cx="578.634" cy="741.951" r="4" fill="#0" id="circle183"/>
	<circle cx="583.171" cy="654.244" r="4" fill="#0" id="circle184"/>
	<circle cx="586.195" cy="669.366" r="4" fill="#0" id="circle185"/>
	<circle cx="586.195" cy="761.61" r="4" fill="#0" id="circle186"/>
	<circle cx="589.22" cy="19.122" r="4" fill="#0" id="circle187"/>
	<circle cx="593.756" cy="744.976" r="4" fill="#0" id="circle188"/>
	<circle cx="598.293" cy="678.439" r="4" fill="#0" id="circle189"/>
	<circle cx="601.317" cy="761.61" r="4" fill="#0" id="circle190"/>
	<circle cx="604.341" cy="19.122" r="4" fill="#0" id="circle191"/>
	<circle cx="605.854" cy="692.049" r="4" fill="#0" id="circle192"/>
	<circle cx="608.878" cy="744.976" r="4" fill="#0" id="circle193"/>
	<circle cx="611.902" cy="707.171" r="4" fill="#0" id="circle194"/>
	<circle cx="616.439" cy="761.61" r="4" fill="#0" id="circle195"/>
	<circle cx="619.463" cy="13.0732" r="4" fill="#0" id="circle196"/>
	<circle cx="619.463" cy="720.78" r="4" fill="#0" id="circle197"/>
	<circle cx="622.488" cy="737.415" r="4" fill="#0" id="circle198"/>
	<circle cx="631.561" cy="761.61" r="4" fill="#0" id="circle199"/>
	<circle cx="634.585" cy="11.561" r="4" fill="#0" id="circle200"/>
	<circle cx="646.683" cy="761.61" r="4" fill="#0" id="circle201"/>
	<circle cx="648.195" cy="4" r="4" fill="#0" id="circle202"/>
	<circle cx="660.293" cy="13.0732" r="4" fill="#0" id="circle203"/>
	<circle cx="660.293" cy="769.171" r="4" fill="#0" id="circle204"/>
	<circle cx="663.317" cy="28.1951" r="4" fill="#0" id="circle205"/>
	<circle cx="670.878" cy="41.8049" r="4" fill="#0" id="circle206"/>
	<circle cx="675.415" cy="769.171" r="4" fill="#0" id="circle207"/>
	<circle cx="678.439" cy="55.4146" r="4" fill="#0" id="circle208"/>
	<circle cx="678.439" cy="70.5366" r="4" fill="#0" id="circle209"/>
	<circle cx="678.439" cy="85.6585" r="4" fill="#0" id="circle210"/>
	<circle cx="686" cy="99.2683" r="4" fill="#0" id="circle211"/>
	<circle cx="686" cy="114.39" r="4" fill="#0" id="circle212"/>
	<circle cx="686" cy="129.512" r="4" fill="#0" id="circle213"/>
	<circle cx="686" cy="144.634" r="4" fill="#0" id="circle214"/>
	<circle cx="686" cy="159.756" r="4" fill="#0" id="circle215"/>
	<circle cx="689.024" cy="776.732" r="4" fill="#0" id="circle216"/>
	<circle cx="692.049" cy="174.878" r="4" fill="#0" id="circle217"/>
	<circle cx="693.561" cy="190" r="4" fill="#0" id="circle218"/>
	<circle cx="693.561" cy="205.122" r="4" fill="#0" id="circle219"/>
	<circle cx="693.561" cy="220.244" r="4" fill="#0" id="circle220"/>
	<circle cx="701.122" cy="233.854" r="4" fill="#0" id="circle221"/>
	<circle cx="701.122" cy="248.976" r="4" fill="#0" id="circle222"/>
	<circle cx="701.122" cy="264.098" r="4" fill="#0" id="circle223"/>
	<circle cx="701.122" cy="279.22" r="4" fill="#0" id="circle224"/>
	<circle cx="702.634" cy="784.293" r="4" fill="#0" id="circle225"/>
	<circle cx="708.683" cy="292.829" r="4" fill="#0" id="circle226"/>
	<circle cx="708.683" cy="307.951" r="4" fill="#0" id="circle227"/>
	<circle cx="716.244" cy="776.732" r="4" fill="#0" id="circle228"/>
	<circle cx="723.805" cy="314" r="4" fill="#0" id="circle229"/>
	<circle cx="723.805" cy="504.537" r="4" fill="#0" id="circle230"/>
	<circle cx="723.805" cy="519.659" r="4" fill="#0" id="circle231"/>
	<circle cx="723.805" cy="534.78" r="4" fill="#0" id="circle232"/>
	<circle cx="723.805" cy="549.902" r="4" fill="#0" id="circle233"/>
	<circle cx="723.805" cy="565.024" r="4" fill="#0" id="circle234"/>
	<circle cx="723.805" cy="580.146" r="4" fill="#0" id="circle235"/>
	<circle cx="723.805" cy="595.268" r="4" fill="#0" id="circle236"/>
	<circle cx="723.805" cy="610.39" r="4" fill="#0" id="circle237"/>
	<circle cx="728.341" cy="766.146" r="4" fill="#0" id="circle238"/>
	<circle cx="731.366" cy="624" r="4" fill="#0" id="circle239"/>
	<circle cx="731.366" cy="639.122" r="4" fill="#0" id="circle240"/>
	<circle cx="731.366" cy="654.244" r="4" fill="#0" id="circle241"/>
	<circle cx="731.366" cy="669.366" r="4" fill="#0" id="circle242"/>
	<circle cx="731.366" cy="684.488" r="4" fill="#0" id="circle243"/>
	<circle cx="731.366" cy="699.61" r="4" fill="#0" id="circle244"/>
	<circle cx="731.366" cy="714.732" r="4" fill="#0" id="circle245"/>
	<circle cx="731.366" cy="729.854" r="4" fill="#0" id="circle246"/>
	<circle cx="735.902" cy="751.024" r="4" fill="#0" id="circle247"/>
	<circle cx="738.927" cy="309.463" r="4" fill="#0" id="circle248"/>
	<circle cx="738.927" cy="504.537" r="4" fill="#0" id="circle249"/>
	<circle cx="754.049" cy="306.439" r="4" fill="#0" id="circle250"/>
	<circle cx="754.049" cy="504.537" r="4" fill="#0" id="circle251"/>
	<circle cx="767.659" cy="295.854" r="4" fill="#0" id="circle252"/>
	<circle cx="769.171" cy="504.537" r="4" fill="#0" id="circle253"/>
	<circle cx="782.78" cy="291.317" r="4" fill="#0" id="circle254"/>
	<circle cx="782.78" cy="512.098" r="4" fill="#0" id="circle255"/>
	<circle cx="796.39" cy="283.756" r="4" fill="#0" id="circle256"/>
	<circle cx="796.39" cy="519.659" r="4" fill="#0" id="circle257"/>
	<circle cx="806.976" cy="531.756" r="4" fill="#0" id="circle258"/>
	<circle cx="810" cy="276.195" r="4" fill="#0" id="circle259"/>
	<circle cx="819.073" cy="542.341" r="4" fill="#0" id="circle260"/>
	<circle cx="825.122" cy="276.195" r="4" fill="#0" id="circle261"/>
	<circle cx="829.659" cy="554.439" r="4" fill="#0" id="circle262"/>
	<circle cx="838.732" cy="268.634" r="4" fill="#0" id="circle263"/>
	<circle cx="841.756" cy="565.024" r="4" fill="#0" id="circle264"/>
	<circle cx="852.341" cy="261.073" r="4" fill="#0" id="circle265"/>
	<circle cx="852.341" cy="577.122" r="4" fill="#0" id="circle266"/>
	<circle cx="864.439" cy="587.707" r="4" fill="#0" id="circle267"/>
	<circle cx="867.463" cy="261.073" r="4" fill="#0" id="circle268"/>
	<circle cx="875.024" cy="599.805" r="4" fill="#0" id="circle269"/>
	<circle cx="881.073" cy="250.488" r="4" fill="#0" id="circle270"/>
	<circle cx="887.122" cy="610.39" r="4" fill="#0" id="circle271"/>
	<circle cx="893.171" cy="238.39" r="4" fill="#0" id="circle272"/>
	<circle cx="897.707" cy="622.488" r="4" fill="#0" id="circle273"/>
	<circle cx="905.268" cy="226.293" r="4" fill="#0" id="circle274"/>
	<circle cx="909.805" cy="633.073" r="4" fill="#0" id="circle275"/>
	<circle cx="917.366" cy="217.22" r="4" fill="#0" id="circle276"/>
	<circle cx="920.39" cy="645.171" r="4" fill="#0" id="circle277"/>
	<circle cx="927.951" cy="360.878" r="4" fill="#0" id="circle278"/>
	<circle cx="927.951" cy="376" r="4" fill="#0" id="circle279"/>
	<circle cx="927.951" cy="504.537" r="4" fill="#0" id="circle280"/>
	<circle cx="932.488" cy="223.268" r="4" fill="#0" id="circle281"/>
	<circle cx="935.512" cy="345.756" r="4" fill="#0" id="circle282"/>
	<circle cx="935.512" cy="389.61" r="4" fill="#0" id="circle283"/>
	<circle cx="935.512" cy="436.488" r="4" fill="#0" id="circle284"/>
	<circle cx="935.512" cy="518.146" r="4" fill="#0" id="circle285"/>
	<circle cx="935.512" cy="651.22" r="4" fill="#0" id="circle286"/>
	<circle cx="943.073" cy="330.634" r="4" fill="#0" id="circle287"/>
	<circle cx="943.073" cy="403.22" r="4" fill="#0" id="circle288"/>
	<circle cx="943.073" cy="418.341" r="4" fill="#0" id="circle289"/>
	<circle cx="943.073" cy="450.098" r="4" fill="#0" id="circle290"/>
	<circle cx="943.073" cy="504.537" r="4" fill="#0" id="circle291"/>
	<circle cx="943.073" cy="531.756" r="4" fill="#0" id="circle292"/>
	<circle cx="947.61" cy="223.268" r="4" fill="#0" id="circle293"/>
	<circle cx="950.634" cy="315.512" r="4" fill="#0" id="circle294"/>
	<circle cx="950.634" cy="463.707" r="4" fill="#0" id="circle295"/>
	<circle cx="950.634" cy="478.829" r="4" fill="#0" id="circle296"/>
	<circle cx="950.634" cy="545.366" r="4" fill="#0" id="circle297"/>
	<circle cx="950.634" cy="655.756" r="4" fill="#0" id="circle298"/>
	<circle cx="958.195" cy="292.829" r="4" fill="#0" id="circle299"/>
	<circle cx="958.195" cy="558.976" r="4" fill="#0" id="circle300"/>
	<circle cx="962.732" cy="223.268" r="4" fill="#0" id="circle301"/>
	<circle cx="962.732" cy="574.098" r="4" fill="#0" id="circle302"/>
	<circle cx="965.756" cy="277.707" r="4" fill="#0" id="circle303"/>
	<circle cx="965.756" cy="655.756" r="4" fill="#0" id="circle304"/>
	<circle cx="970.293" cy="587.707" r="4" fill="#0" id="circle305"/>
	<circle cx="976.341" cy="230.829" r="4" fill="#0" id="circle306"/>
	<circle cx="977.854" cy="267.122" r="4" fill="#0" id="circle307"/>
	<circle cx="980.878" cy="245.951" r="4" fill="#0" id="circle308"/>
	<circle cx="980.878" cy="599.805" r="4" fill="#0" id="circle309"/>
	<circle cx="980.878" cy="655.756" r="4" fill="#0" id="circle310"/>
	<circle cx="988.439" cy="613.415" r="4" fill="#0" id="circle311"/>
	<circle cx="994.488" cy="628.537" r="4" fill="#0" id="circle312"/>
	<circle cx="996" cy="643.659" r="4" fill="#0" id="circle313"/>
	</g>
</svg>