<?xml version="1.0" encoding="UTF-8" standalone="no"?>
<!-- Created with CurveBenchmark -->
<svg
	xmlns:dc="http://purl.org/dc/elements/1.1/"
	xmlns:cc="http://creativecommons.org/ns#"
	xmlns:rdf="http://www.w3.org/1999/02/22-rdf-syntax-ns#"
	xmlns:svg="http://www.w3.org/2000/svg"
	xmlns="http://www.w3.org/2000/svg"
	xmlns:sodipodi="http://sodipodi.sourceforge.net/DTD/sodipodi-0.dtd"
	xmlns:inkscape="http://www.inkscape.org/namespaces/inkscape"
	width="1000"
	height="1000"
	id="svg2"
	version="1.1"
	sodipodi:docname="manifold/nncrust-carriage13.png.txt">
<defs
	id="defs4" />
<metadata
	id="metadata7">
	<rdf:RDF>
		<cc:Work
			rdf:about="">
			<dc:format>image/svg+xml</dc:format>
			<dc:type
				rdf:resource="http://purl.org/dc/dcmitype/StillImage" />
			<dc:title></dc:title>
		</cc:Work>
	</rdf:RDF>
</metadata>
<g
	inkscape:label="Layer 1"
	inkscape:groupmode="layer"
	id="layer1">
	<path style="fill:none;stroke:red;stroke-width:1px;stroke-linecap:butt;stroke-linejoin:miter;stroke-opacity:1" d="M 82.2282,67.2483 67.2483,75.5705 z" id="boundary" inkscape:connector-curvature="0" />
	<path style="fill:none;stroke:red;stroke-width:1px;stroke-linecap:butt;stroke-linejoin:miter;stroke-opacity:1" d="M 67.2483,75.5705 50.604,75.5705 z" id="boundary" inkscape:connector-curvature="0" />
	<path style="fill:none;stroke:red;stroke-width:1px;stroke-linecap:butt;stroke-linejoin:miter;stroke-opacity:1" d="M 37.2886,88.8859 50.604,75.5705 z" id="boundary" inkscape:connector-curvature="0" />
	<path style="fill:none;stroke:red;stroke-width:1px;stroke-linecap:butt;stroke-linejoin:miter;stroke-opacity:1" d="M 37.2886,88.8859 33.9597,108.859 z" id="boundary" inkscape:connector-curvature="0" />
	<path style="fill:none;stroke:red;stroke-width:1px;stroke-linecap:butt;stroke-linejoin:miter;stroke-opacity:1" d="M 33.9597,108.859 20.6443,122.174 z" id="boundary" inkscape:connector-curvature="0" />
	<path style="fill:none;stroke:red;stroke-width:1px;stroke-linecap:butt;stroke-linejoin:miter;stroke-opacity:1" d="M 82.2282,67.2483 95.5436,78.8993 z" id="boundary" inkscape:connector-curvature="0" />
	<path style="fill:none;stroke:red;stroke-width:1px;stroke-linecap:butt;stroke-linejoin:miter;stroke-opacity:1" d="M 110.523,87.2215 95.5436,78.8993 z" id="boundary" inkscape:connector-curvature="0" />
	<path style="fill:none;stroke:red;stroke-width:1px;stroke-linecap:butt;stroke-linejoin:miter;stroke-opacity:1" d="M 127.168,93.8792 110.523,87.2215 z" id="boundary" inkscape:connector-curvature="0" />
	<path style="fill:none;stroke:red;stroke-width:1px;stroke-linecap:butt;stroke-linejoin:miter;stroke-opacity:1" d="M 127.168,93.8792 138.819,107.195 z" id="boundary" inkscape:connector-curvature="0" />
	<path style="fill:none;stroke:red;stroke-width:1px;stroke-linecap:butt;stroke-linejoin:miter;stroke-opacity:1" d="M 152.134,117.181 138.819,107.195 z" id="boundary" inkscape:connector-curvature="0" />
	<path style="fill:none;stroke:red;stroke-width:1px;stroke-linecap:butt;stroke-linejoin:miter;stroke-opacity:1" d="M 168.779,118.846 152.134,117.181 z" id="boundary" inkscape:connector-curvature="0" />
	<path style="fill:none;stroke:red;stroke-width:1px;stroke-linecap:butt;stroke-linejoin:miter;stroke-opacity:1" d="M 183.758,127.168 168.779,118.846 z" id="boundary" inkscape:connector-curvature="0" />
	<path style="fill:none;stroke:red;stroke-width:1px;stroke-linecap:butt;stroke-linejoin:miter;stroke-opacity:1" d="M 12.3221,170.443 4,155.463 z" id="boundary" inkscape:connector-curvature="0" />
	<path style="fill:none;stroke:red;stroke-width:1px;stroke-linecap:butt;stroke-linejoin:miter;stroke-opacity:1" d="M 4,155.463 12.3221,138.819 z" id="boundary" inkscape:connector-curvature="0" />
	<path style="fill:none;stroke:red;stroke-width:1px;stroke-linecap:butt;stroke-linejoin:miter;stroke-opacity:1" d="M 12.3221,138.819 20.6443,122.174 z" id="boundary" inkscape:connector-curvature="0" />
	<path style="fill:none;stroke:red;stroke-width:1px;stroke-linecap:butt;stroke-linejoin:miter;stroke-opacity:1" d="M 62.255,163.785 45.6107,172.107 z" id="boundary" inkscape:connector-curvature="0" />
	<path style="fill:none;stroke:red;stroke-width:1px;stroke-linecap:butt;stroke-linejoin:miter;stroke-opacity:1" d="M 28.9664,177.101 12.3221,170.443 z" id="boundary" inkscape:connector-curvature="0" />
	<path style="fill:none;stroke:red;stroke-width:1px;stroke-linecap:butt;stroke-linejoin:miter;stroke-opacity:1" d="M 45.6107,172.107 28.9664,177.101 z" id="boundary" inkscape:connector-curvature="0" />
	<path style="fill:none;stroke:red;stroke-width:1px;stroke-linecap:butt;stroke-linejoin:miter;stroke-opacity:1" d="M 88.8859,173.772 95.5436,190.416 z" id="boundary" inkscape:connector-curvature="0" />
	<path style="fill:none;stroke:red;stroke-width:1px;stroke-linecap:butt;stroke-linejoin:miter;stroke-opacity:1" d="M 88.8859,173.772 78.8993,160.456 z" id="boundary" inkscape:connector-curvature="0" />
	<path style="fill:none;stroke:red;stroke-width:1px;stroke-linecap:butt;stroke-linejoin:miter;stroke-opacity:1" d="M 95.5436,190.416 103.866,205.396 z" id="boundary" inkscape:connector-curvature="0" />
	<path style="fill:none;stroke:red;stroke-width:1px;stroke-linecap:butt;stroke-linejoin:miter;stroke-opacity:1" d="M 103.866,205.396 112.188,220.376 z" id="boundary" inkscape:connector-curvature="0" />
	<path style="fill:none;stroke:red;stroke-width:1px;stroke-linecap:butt;stroke-linejoin:miter;stroke-opacity:1" d="M 112.188,220.376 112.188,237.02 z" id="boundary" inkscape:connector-curvature="0" />
	<path style="fill:none;stroke:red;stroke-width:1px;stroke-linecap:butt;stroke-linejoin:miter;stroke-opacity:1" d="M 112.188,253.664 112.188,237.02 z" id="boundary" inkscape:connector-curvature="0" />
	<path style="fill:none;stroke:red;stroke-width:1px;stroke-linecap:butt;stroke-linejoin:miter;stroke-opacity:1" d="M 62.255,163.785 78.8993,160.456 z" id="boundary" inkscape:connector-curvature="0" />
	<path style="fill:none;stroke:red;stroke-width:1px;stroke-linecap:butt;stroke-linejoin:miter;stroke-opacity:1" d="M 112.188,253.664 103.866,271.973 z" id="boundary" inkscape:connector-curvature="0" />
	<path style="fill:none;stroke:red;stroke-width:1px;stroke-linecap:butt;stroke-linejoin:miter;stroke-opacity:1" d="M 183.758,127.168 192.081,142.148 z" id="boundary" inkscape:connector-curvature="0" />
	<path style="fill:none;stroke:red;stroke-width:1px;stroke-linecap:butt;stroke-linejoin:miter;stroke-opacity:1" d="M 207.06,150.47 192.081,142.148 z" id="boundary" inkscape:connector-curvature="0" />
	<path style="fill:none;stroke:red;stroke-width:1px;stroke-linecap:butt;stroke-linejoin:miter;stroke-opacity:1" d="M 223.705,150.47 207.06,150.47 z" id="boundary" inkscape:connector-curvature="0" />
	<path style="fill:none;stroke:red;stroke-width:1px;stroke-linecap:butt;stroke-linejoin:miter;stroke-opacity:1" d="M 240.349,150.47 256.993,150.47 z" id="boundary" inkscape:connector-curvature="0" />
	<path style="fill:none;stroke:red;stroke-width:1px;stroke-linecap:butt;stroke-linejoin:miter;stroke-opacity:1" d="M 240.349,150.47 223.705,150.47 z" id="boundary" inkscape:connector-curvature="0" />
	<path style="fill:none;stroke:red;stroke-width:1px;stroke-linecap:butt;stroke-linejoin:miter;stroke-opacity:1" d="M 256.993,150.47 273.638,150.47 z" id="boundary" inkscape:connector-curvature="0" />
	<path style="fill:none;stroke:red;stroke-width:1px;stroke-linecap:butt;stroke-linejoin:miter;stroke-opacity:1" d="M 290.282,150.47 273.638,150.47 z" id="boundary" inkscape:connector-curvature="0" />
	<path style="fill:none;stroke:red;stroke-width:1px;stroke-linecap:butt;stroke-linejoin:miter;stroke-opacity:1" d="M 340.215,150.47 323.57,150.47 z" id="boundary" inkscape:connector-curvature="0" />
	<path style="fill:none;stroke:red;stroke-width:1px;stroke-linecap:butt;stroke-linejoin:miter;stroke-opacity:1" d="M 306.926,150.47 290.282,150.47 z" id="boundary" inkscape:connector-curvature="0" />
	<path style="fill:none;stroke:red;stroke-width:1px;stroke-linecap:butt;stroke-linejoin:miter;stroke-opacity:1" d="M 306.926,150.47 323.57,150.47 z" id="boundary" inkscape:connector-curvature="0" />
	<path style="fill:none;stroke:red;stroke-width:1px;stroke-linecap:butt;stroke-linejoin:miter;stroke-opacity:1" d="M 340.215,150.47 356.859,150.47 z" id="boundary" inkscape:connector-curvature="0" />
	<path style="fill:none;stroke:red;stroke-width:1px;stroke-linecap:butt;stroke-linejoin:miter;stroke-opacity:1" d="M 356.859,150.47 370.174,162.121 z" id="boundary" inkscape:connector-curvature="0" />
	<path style="fill:none;stroke:red;stroke-width:1px;stroke-linecap:butt;stroke-linejoin:miter;stroke-opacity:1" d="M 500,142.148 486.685,155.463 z" id="boundary" inkscape:connector-curvature="0" />
	<path style="fill:none;stroke:red;stroke-width:1px;stroke-linecap:butt;stroke-linejoin:miter;stroke-opacity:1" d="M 308.591,260.322 291.946,260.322 z" id="boundary" inkscape:connector-curvature="0" />
	<path style="fill:none;stroke:red;stroke-width:1px;stroke-linecap:butt;stroke-linejoin:miter;stroke-opacity:1" d="M 486.685,172.107 486.685,155.463 z" id="boundary" inkscape:connector-curvature="0" />
	<path style="fill:none;stroke:red;stroke-width:1px;stroke-linecap:butt;stroke-linejoin:miter;stroke-opacity:1" d="M 370.174,162.121 385.154,170.443 z" id="boundary" inkscape:connector-curvature="0" />
	<path style="fill:none;stroke:red;stroke-width:1px;stroke-linecap:butt;stroke-linejoin:miter;stroke-opacity:1" d="M 396.805,183.758 385.154,170.443 z" id="boundary" inkscape:connector-curvature="0" />
	<path style="fill:none;stroke:red;stroke-width:1px;stroke-linecap:butt;stroke-linejoin:miter;stroke-opacity:1" d="M 396.805,183.758 396.805,202.067 z" id="boundary" inkscape:connector-curvature="0" />
	<path style="fill:none;stroke:red;stroke-width:1px;stroke-linecap:butt;stroke-linejoin:miter;stroke-opacity:1" d="M 405.128,217.047 405.128,233.691 z" id="boundary" inkscape:connector-curvature="0" />
	<path style="fill:none;stroke:red;stroke-width:1px;stroke-linecap:butt;stroke-linejoin:miter;stroke-opacity:1" d="M 396.805,202.067 405.128,217.047 z" id="boundary" inkscape:connector-curvature="0" />
	<path style="fill:none;stroke:red;stroke-width:1px;stroke-linecap:butt;stroke-linejoin:miter;stroke-opacity:1" d="M 421.772,228.698 405.128,233.691 z" id="boundary" inkscape:connector-curvature="0" />
	<path style="fill:none;stroke:red;stroke-width:1px;stroke-linecap:butt;stroke-linejoin:miter;stroke-opacity:1" d="M 486.685,172.107 486.685,188.752 z" id="boundary" inkscape:connector-curvature="0" />
	<path style="fill:none;stroke:red;stroke-width:1px;stroke-linecap:butt;stroke-linejoin:miter;stroke-opacity:1" d="M 579.893,243.678 486.685,205.396 z" id="boundary" inkscape:connector-curvature="0" />
	<path style="fill:none;stroke:red;stroke-width:1px;stroke-linecap:butt;stroke-linejoin:miter;stroke-opacity:1" d="M 486.685,205.396 486.685,188.752 z" id="boundary" inkscape:connector-curvature="0" />
	<path style="fill:none;stroke:red;stroke-width:1px;stroke-linecap:butt;stroke-linejoin:miter;stroke-opacity:1" d="M 421.772,228.698 438.416,225.369 z" id="boundary" inkscape:connector-curvature="0" />
	<path style="fill:none;stroke:red;stroke-width:1px;stroke-linecap:butt;stroke-linejoin:miter;stroke-opacity:1" d="M 438.416,225.369 455.06,225.369 z" id="boundary" inkscape:connector-curvature="0" />
	<path style="fill:none;stroke:red;stroke-width:1px;stroke-linecap:butt;stroke-linejoin:miter;stroke-opacity:1" d="M 471.705,225.369 455.06,225.369 z" id="boundary" inkscape:connector-curvature="0" />
	<path style="fill:none;stroke:red;stroke-width:1px;stroke-linecap:butt;stroke-linejoin:miter;stroke-opacity:1" d="M 486.685,205.396 471.705,225.369 z" id="boundary" inkscape:connector-curvature="0" />
	<path style="fill:none;stroke:red;stroke-width:1px;stroke-linecap:butt;stroke-linejoin:miter;stroke-opacity:1" d="M 291.946,260.322 275.302,266.98 z" id="boundary" inkscape:connector-curvature="0" />
	<path style="fill:none;stroke:red;stroke-width:1px;stroke-linecap:butt;stroke-linejoin:miter;stroke-opacity:1" d="M 180.43,276.966 168.779,290.282 z" id="boundary" inkscape:connector-curvature="0" />
	<path style="fill:none;stroke:red;stroke-width:1px;stroke-linecap:butt;stroke-linejoin:miter;stroke-opacity:1" d="M 212.054,268.644 197.074,276.966 z" id="boundary" inkscape:connector-curvature="0" />
	<path style="fill:none;stroke:red;stroke-width:1px;stroke-linecap:butt;stroke-linejoin:miter;stroke-opacity:1" d="M 197.074,276.966 180.43,276.966 z" id="boundary" inkscape:connector-curvature="0" />
	<path style="fill:none;stroke:red;stroke-width:1px;stroke-linecap:butt;stroke-linejoin:miter;stroke-opacity:1" d="M 168.779,290.282 155.463,301.933 z" id="boundary" inkscape:connector-curvature="0" />
	<path style="fill:none;stroke:red;stroke-width:1px;stroke-linecap:butt;stroke-linejoin:miter;stroke-opacity:1" d="M 103.866,288.617 103.866,271.973 z" id="boundary" inkscape:connector-curvature="0" />
	<path style="fill:none;stroke:red;stroke-width:1px;stroke-linecap:butt;stroke-linejoin:miter;stroke-opacity:1" d="M 212.054,268.644 227.034,276.966 z" id="boundary" inkscape:connector-curvature="0" />
	<path style="fill:none;stroke:red;stroke-width:1px;stroke-linecap:butt;stroke-linejoin:miter;stroke-opacity:1" d="M 103.866,288.617 87.2215,296.94 z" id="boundary" inkscape:connector-curvature="0" />
	<path style="fill:none;stroke:red;stroke-width:1px;stroke-linecap:butt;stroke-linejoin:miter;stroke-opacity:1" d="M 275.302,266.98 258.658,268.644 z" id="boundary" inkscape:connector-curvature="0" />
	<path style="fill:none;stroke:red;stroke-width:1px;stroke-linecap:butt;stroke-linejoin:miter;stroke-opacity:1" d="M 258.658,268.644 242.013,268.644 z" id="boundary" inkscape:connector-curvature="0" />
	<path style="fill:none;stroke:red;stroke-width:1px;stroke-linecap:butt;stroke-linejoin:miter;stroke-opacity:1" d="M 227.034,276.966 242.013,268.644 z" id="boundary" inkscape:connector-curvature="0" />
	<path style="fill:none;stroke:red;stroke-width:1px;stroke-linecap:butt;stroke-linejoin:miter;stroke-opacity:1" d="M 328.564,288.617 320.242,273.638 z" id="boundary" inkscape:connector-curvature="0" />
	<path style="fill:none;stroke:red;stroke-width:1px;stroke-linecap:butt;stroke-linejoin:miter;stroke-opacity:1" d="M 371.839,293.611 328.564,288.617 z" id="boundary" inkscape:connector-curvature="0" />
	<path style="fill:none;stroke:red;stroke-width:1px;stroke-linecap:butt;stroke-linejoin:miter;stroke-opacity:1" d="M 320.242,273.638 308.591,260.322 z" id="boundary" inkscape:connector-curvature="0" />
	<path style="fill:none;stroke:red;stroke-width:1px;stroke-linecap:butt;stroke-linejoin:miter;stroke-opacity:1" d="M 62.255,355.195 70.5772,338.55 z" id="boundary" inkscape:connector-curvature="0" />
	<path style="fill:none;stroke:red;stroke-width:1px;stroke-linecap:butt;stroke-linejoin:miter;stroke-opacity:1" d="M 87.2215,296.94 78.8993,313.584 z" id="boundary" inkscape:connector-curvature="0" />
	<path style="fill:none;stroke:red;stroke-width:1px;stroke-linecap:butt;stroke-linejoin:miter;stroke-opacity:1" d="M 70.5772,338.55 78.8993,313.584 z" id="boundary" inkscape:connector-curvature="0" />
	<path style="fill:none;stroke:red;stroke-width:1px;stroke-linecap:butt;stroke-linejoin:miter;stroke-opacity:1" d="M 62.255,355.195 62.255,371.839 z" id="boundary" inkscape:connector-curvature="0" />
	<path style="fill:none;stroke:red;stroke-width:1px;stroke-linecap:butt;stroke-linejoin:miter;stroke-opacity:1" d="M 92.2148,393.477 75.5705,400.134 z" id="boundary" inkscape:connector-curvature="0" />
	<path style="fill:none;stroke:red;stroke-width:1px;stroke-linecap:butt;stroke-linejoin:miter;stroke-opacity:1" d="M 75.5705,400.134 62.255,388.483 z" id="boundary" inkscape:connector-curvature="0" />
	<path style="fill:none;stroke:red;stroke-width:1px;stroke-linecap:butt;stroke-linejoin:miter;stroke-opacity:1" d="M 62.255,388.483 62.255,371.839 z" id="boundary" inkscape:connector-curvature="0" />
	<path style="fill:none;stroke:red;stroke-width:1px;stroke-linecap:butt;stroke-linejoin:miter;stroke-opacity:1" d="M 143.812,315.248 130.497,326.899 z" id="boundary" inkscape:connector-curvature="0" />
	<path style="fill:none;stroke:red;stroke-width:1px;stroke-linecap:butt;stroke-linejoin:miter;stroke-opacity:1" d="M 143.812,315.248 155.463,301.933 z" id="boundary" inkscape:connector-curvature="0" />
	<path style="fill:none;stroke:red;stroke-width:1px;stroke-linecap:butt;stroke-linejoin:miter;stroke-opacity:1" d="M 122.174,343.544 130.497,326.899 z" id="boundary" inkscape:connector-curvature="0" />
	<path style="fill:none;stroke:red;stroke-width:1px;stroke-linecap:butt;stroke-linejoin:miter;stroke-opacity:1" d="M 92.2148,393.477 107.195,385.154 z" id="boundary" inkscape:connector-curvature="0" />
	<path style="fill:none;stroke:red;stroke-width:1px;stroke-linecap:butt;stroke-linejoin:miter;stroke-opacity:1" d="M 113.852,368.51 122.174,343.544 z" id="boundary" inkscape:connector-curvature="0" />
	<path style="fill:none;stroke:red;stroke-width:1px;stroke-linecap:butt;stroke-linejoin:miter;stroke-opacity:1" d="M 113.852,368.51 107.195,385.154 z" id="boundary" inkscape:connector-curvature="0" />
	<path style="fill:none;stroke:red;stroke-width:1px;stroke-linecap:butt;stroke-linejoin:miter;stroke-opacity:1" d="M 328.564,288.617 328.564,305.262 z" id="boundary" inkscape:connector-curvature="0" />
	<path style="fill:none;stroke:red;stroke-width:1px;stroke-linecap:butt;stroke-linejoin:miter;stroke-opacity:1" d="M 371.839,293.611 371.839,310.255 z" id="boundary" inkscape:connector-curvature="0" />
	<path style="fill:none;stroke:red;stroke-width:1px;stroke-linecap:butt;stroke-linejoin:miter;stroke-opacity:1" d="M 371.839,293.611 388.483,293.611 z" id="boundary" inkscape:connector-curvature="0" />
	<path style="fill:none;stroke:red;stroke-width:1px;stroke-linecap:butt;stroke-linejoin:miter;stroke-opacity:1" d="M 328.564,321.906 328.564,305.262 z" id="boundary" inkscape:connector-curvature="0" />
	<path style="fill:none;stroke:red;stroke-width:1px;stroke-linecap:butt;stroke-linejoin:miter;stroke-opacity:1" d="M 328.564,338.55 328.564,321.906 z" id="boundary" inkscape:connector-curvature="0" />
	<path style="fill:none;stroke:red;stroke-width:1px;stroke-linecap:butt;stroke-linejoin:miter;stroke-opacity:1" d="M 371.839,310.255 371.839,326.899 z" id="boundary" inkscape:connector-curvature="0" />
	<path style="fill:none;stroke:red;stroke-width:1px;stroke-linecap:butt;stroke-linejoin:miter;stroke-opacity:1" d="M 371.839,326.899 371.839,343.544 z" id="boundary" inkscape:connector-curvature="0" />
	<path style="fill:none;stroke:red;stroke-width:1px;stroke-linecap:butt;stroke-linejoin:miter;stroke-opacity:1" d="M 405.128,233.691 405.128,293.611 z" id="boundary" inkscape:connector-curvature="0" />
	<path style="fill:none;stroke:red;stroke-width:1px;stroke-linecap:butt;stroke-linejoin:miter;stroke-opacity:1" d="M 405.128,293.611 388.483,293.611 z" id="boundary" inkscape:connector-curvature="0" />
	<path style="fill:none;stroke:red;stroke-width:1px;stroke-linecap:butt;stroke-linejoin:miter;stroke-opacity:1" d="M 405.128,293.611 421.772,293.611 z" id="boundary" inkscape:connector-curvature="0" />
	<path style="fill:none;stroke:red;stroke-width:1px;stroke-linecap:butt;stroke-linejoin:miter;stroke-opacity:1" d="M 421.772,293.611 436.752,301.933 z" id="boundary" inkscape:connector-curvature="0" />
	<path style="fill:none;stroke:red;stroke-width:1px;stroke-linecap:butt;stroke-linejoin:miter;stroke-opacity:1" d="M 436.752,338.55 445.074,316.913 z" id="boundary" inkscape:connector-curvature="0" />
	<path style="fill:none;stroke:red;stroke-width:1px;stroke-linecap:butt;stroke-linejoin:miter;stroke-opacity:1" d="M 445.074,353.53 436.752,338.55 z" id="boundary" inkscape:connector-curvature="0" />
	<path style="fill:none;stroke:red;stroke-width:1px;stroke-linecap:butt;stroke-linejoin:miter;stroke-opacity:1" d="M 436.752,301.933 445.074,316.913 z" id="boundary" inkscape:connector-curvature="0" />
	<path style="fill:none;stroke:red;stroke-width:1px;stroke-linecap:butt;stroke-linejoin:miter;stroke-opacity:1" d="M 371.839,343.544 363.517,360.188 z" id="boundary" inkscape:connector-curvature="0" />
	<path style="fill:none;stroke:red;stroke-width:1px;stroke-linecap:butt;stroke-linejoin:miter;stroke-opacity:1" d="M 328.564,355.195 328.564,338.55 z" id="boundary" inkscape:connector-curvature="0" />
	<path style="fill:none;stroke:red;stroke-width:1px;stroke-linecap:butt;stroke-linejoin:miter;stroke-opacity:1" d="M 445.074,353.53 445.074,370.174 z" id="boundary" inkscape:connector-curvature="0" />
	<path style="fill:none;stroke:red;stroke-width:1px;stroke-linecap:butt;stroke-linejoin:miter;stroke-opacity:1" d="M 355.195,376.832 363.517,360.188 z" id="boundary" inkscape:connector-curvature="0" />
	<path style="fill:none;stroke:red;stroke-width:1px;stroke-linecap:butt;stroke-linejoin:miter;stroke-opacity:1" d="M 328.564,371.839 328.564,388.483 z" id="boundary" inkscape:connector-curvature="0" />
	<path style="fill:none;stroke:red;stroke-width:1px;stroke-linecap:butt;stroke-linejoin:miter;stroke-opacity:1" d="M 345.208,393.477 328.564,388.483 z" id="boundary" inkscape:connector-curvature="0" />
	<path style="fill:none;stroke:red;stroke-width:1px;stroke-linecap:butt;stroke-linejoin:miter;stroke-opacity:1" d="M 345.208,393.477 355.195,376.832 z" id="boundary" inkscape:connector-curvature="0" />
	<path style="fill:none;stroke:red;stroke-width:1px;stroke-linecap:butt;stroke-linejoin:miter;stroke-opacity:1" d="M 328.564,371.839 328.564,355.195 z" id="boundary" inkscape:connector-curvature="0" />
	<path style="fill:none;stroke:red;stroke-width:1px;stroke-linecap:butt;stroke-linejoin:miter;stroke-opacity:1" d="M 445.074,370.174 445.074,386.819 z" id="boundary" inkscape:connector-curvature="0" />
	<path style="fill:none;stroke:red;stroke-width:1px;stroke-linecap:butt;stroke-linejoin:miter;stroke-opacity:1" d="M 445.074,403.463 445.074,386.819 z" id="boundary" inkscape:connector-curvature="0" />
	<path style="fill:none;stroke:red;stroke-width:1px;stroke-linecap:butt;stroke-linejoin:miter;stroke-opacity:1" d="M 461.718,410.121 445.074,403.463 z" id="boundary" inkscape:connector-curvature="0" />
	<path style="fill:none;stroke:red;stroke-width:1px;stroke-linecap:butt;stroke-linejoin:miter;stroke-opacity:1" d="M 461.718,410.121 476.698,418.443 z" id="boundary" inkscape:connector-curvature="0" />
	<path style="fill:none;stroke:red;stroke-width:1px;stroke-linecap:butt;stroke-linejoin:miter;stroke-opacity:1" d="M 493.342,418.443 476.698,418.443 z" id="boundary" inkscape:connector-curvature="0" />
	<path style="fill:none;stroke:red;stroke-width:1px;stroke-linecap:butt;stroke-linejoin:miter;stroke-opacity:1" d="M 493.342,418.443 509.987,418.443 z" id="boundary" inkscape:connector-curvature="0" />
	<path style="fill:none;stroke:red;stroke-width:1px;stroke-linecap:butt;stroke-linejoin:miter;stroke-opacity:1" d="M 526.631,415.114 509.987,418.443 z" id="boundary" inkscape:connector-curvature="0" />
	<path style="fill:none;stroke:red;stroke-width:1px;stroke-linecap:butt;stroke-linejoin:miter;stroke-opacity:1" d="M 544.94,38.953 544.94,22.3087 z" id="boundary" inkscape:connector-curvature="0" />
	<path style="fill:none;stroke:red;stroke-width:1px;stroke-linecap:butt;stroke-linejoin:miter;stroke-opacity:1" d="M 553.262,5.66443 544.94,22.3087 z" id="boundary" inkscape:connector-curvature="0" />
	<path style="fill:none;stroke:red;stroke-width:1px;stroke-linecap:butt;stroke-linejoin:miter;stroke-opacity:1" d="M 544.94,55.5973 544.94,38.953 z" id="boundary" inkscape:connector-curvature="0" />
	<path style="fill:none;stroke:red;stroke-width:1px;stroke-linecap:butt;stroke-linejoin:miter;stroke-opacity:1" d="M 553.262,87.2215 544.94,72.2416 z" id="boundary" inkscape:connector-curvature="0" />
	<path style="fill:none;stroke:red;stroke-width:1px;stroke-linecap:butt;stroke-linejoin:miter;stroke-opacity:1" d="M 544.94,72.2416 544.94,55.5973 z" id="boundary" inkscape:connector-curvature="0" />
	<path style="fill:none;stroke:red;stroke-width:1px;stroke-linecap:butt;stroke-linejoin:miter;stroke-opacity:1" d="M 553.262,87.2215 538.282,108.859 z" id="boundary" inkscape:connector-curvature="0" />
	<path style="fill:none;stroke:red;stroke-width:1px;stroke-linecap:butt;stroke-linejoin:miter;stroke-opacity:1" d="M 596.537,22.3087 579.893,17.3154 z" id="boundary" inkscape:connector-curvature="0" />
	<path style="fill:none;stroke:red;stroke-width:1px;stroke-linecap:butt;stroke-linejoin:miter;stroke-opacity:1" d="M 579.893,17.3154 569.906,4 z" id="boundary" inkscape:connector-curvature="0" />
	<path style="fill:none;stroke:red;stroke-width:1px;stroke-linecap:butt;stroke-linejoin:miter;stroke-opacity:1" d="M 596.537,22.3087 603.195,38.953 z" id="boundary" inkscape:connector-curvature="0" />
	<path style="fill:none;stroke:red;stroke-width:1px;stroke-linecap:butt;stroke-linejoin:miter;stroke-opacity:1" d="M 611.517,53.9329 618.174,70.5772 z" id="boundary" inkscape:connector-curvature="0" />
	<path style="fill:none;stroke:red;stroke-width:1px;stroke-linecap:butt;stroke-linejoin:miter;stroke-opacity:1" d="M 611.517,53.9329 603.195,38.953 z" id="boundary" inkscape:connector-curvature="0" />
	<path style="fill:none;stroke:red;stroke-width:1px;stroke-linecap:butt;stroke-linejoin:miter;stroke-opacity:1" d="M 618.174,70.5772 621.503,87.2215 z" id="boundary" inkscape:connector-curvature="0" />
	<path style="fill:none;stroke:red;stroke-width:1px;stroke-linecap:butt;stroke-linejoin:miter;stroke-opacity:1" d="M 629.826,102.201 621.503,87.2215 z" id="boundary" inkscape:connector-curvature="0" />
	<path style="fill:none;stroke:red;stroke-width:1px;stroke-linecap:butt;stroke-linejoin:miter;stroke-opacity:1" d="M 553.262,5.66443 569.906,4 z" id="boundary" inkscape:connector-curvature="0" />
	<path style="fill:none;stroke:red;stroke-width:1px;stroke-linecap:butt;stroke-linejoin:miter;stroke-opacity:1" d="M 513.315,128.832 521.638,112.188 z" id="boundary" inkscape:connector-curvature="0" />
	<path style="fill:none;stroke:red;stroke-width:1px;stroke-linecap:butt;stroke-linejoin:miter;stroke-opacity:1" d="M 521.638,112.188 538.282,108.859 z" id="boundary" inkscape:connector-curvature="0" />
	<path style="fill:none;stroke:red;stroke-width:1px;stroke-linecap:butt;stroke-linejoin:miter;stroke-opacity:1" d="M 629.826,102.201 629.826,118.846 z" id="boundary" inkscape:connector-curvature="0" />
	<path style="fill:none;stroke:red;stroke-width:1px;stroke-linecap:butt;stroke-linejoin:miter;stroke-opacity:1" d="M 629.826,135.49 629.826,152.134 z" id="boundary" inkscape:connector-curvature="0" />
	<path style="fill:none;stroke:red;stroke-width:1px;stroke-linecap:butt;stroke-linejoin:miter;stroke-opacity:1" d="M 629.826,118.846 629.826,135.49 z" id="boundary" inkscape:connector-curvature="0" />
	<path style="fill:none;stroke:red;stroke-width:1px;stroke-linecap:butt;stroke-linejoin:miter;stroke-opacity:1" d="M 629.826,152.134 629.826,168.779 z" id="boundary" inkscape:connector-curvature="0" />
	<path style="fill:none;stroke:red;stroke-width:1px;stroke-linecap:butt;stroke-linejoin:miter;stroke-opacity:1" d="M 513.315,128.832 500,142.148 z" id="boundary" inkscape:connector-curvature="0" />
	<path style="fill:none;stroke:red;stroke-width:1px;stroke-linecap:butt;stroke-linejoin:miter;stroke-opacity:1" d="M 629.826,168.779 638.148,183.758 z" id="boundary" inkscape:connector-curvature="0" />
	<path style="fill:none;stroke:red;stroke-width:1px;stroke-linecap:butt;stroke-linejoin:miter;stroke-opacity:1" d="M 638.148,183.758 638.148,200.403 z" id="boundary" inkscape:connector-curvature="0" />
	<path style="fill:none;stroke:red;stroke-width:1px;stroke-linecap:butt;stroke-linejoin:miter;stroke-opacity:1" d="M 646.47,215.383 638.148,200.403 z" id="boundary" inkscape:connector-curvature="0" />
	<path style="fill:none;stroke:red;stroke-width:1px;stroke-linecap:butt;stroke-linejoin:miter;stroke-opacity:1" d="M 646.47,232.027 646.47,215.383 z" id="boundary" inkscape:connector-curvature="0" />
	<path style="fill:none;stroke:red;stroke-width:1px;stroke-linecap:butt;stroke-linejoin:miter;stroke-opacity:1" d="M 659.785,242.013 646.47,232.027 z" id="boundary" inkscape:connector-curvature="0" />
	<path style="fill:none;stroke:red;stroke-width:1px;stroke-linecap:butt;stroke-linejoin:miter;stroke-opacity:1" d="M 676.43,242.013 659.785,242.013 z" id="boundary" inkscape:connector-curvature="0" />
	<path style="fill:none;stroke:red;stroke-width:1px;stroke-linecap:butt;stroke-linejoin:miter;stroke-opacity:1" d="M 711.383,197.074 704.725,228.698 z" id="boundary" inkscape:connector-curvature="0" />
	<path style="fill:none;stroke:red;stroke-width:1px;stroke-linecap:butt;stroke-linejoin:miter;stroke-opacity:1" d="M 769.638,72.2416 782.953,58.9262 z" id="boundary" inkscape:connector-curvature="0" />
	<path style="fill:none;stroke:red;stroke-width:1px;stroke-linecap:butt;stroke-linejoin:miter;stroke-opacity:1" d="M 782.953,58.9262 799.597,58.9262 z" id="boundary" inkscape:connector-curvature="0" />
	<path style="fill:none;stroke:red;stroke-width:1px;stroke-linecap:butt;stroke-linejoin:miter;stroke-opacity:1" d="M 761.315,88.8859 769.638,72.2416 z" id="boundary" inkscape:connector-curvature="0" />
	<path style="fill:none;stroke:red;stroke-width:1px;stroke-linecap:butt;stroke-linejoin:miter;stroke-opacity:1" d="M 761.315,105.53 761.315,88.8859 z" id="boundary" inkscape:connector-curvature="0" />
	<path style="fill:none;stroke:red;stroke-width:1px;stroke-linecap:butt;stroke-linejoin:miter;stroke-opacity:1" d="M 761.315,122.174 761.315,105.53 z" id="boundary" inkscape:connector-curvature="0" />
	<path style="fill:none;stroke:red;stroke-width:1px;stroke-linecap:butt;stroke-linejoin:miter;stroke-opacity:1" d="M 799.597,58.9262 814.577,67.2483 z" id="boundary" inkscape:connector-curvature="0" />
	<path style="fill:none;stroke:red;stroke-width:1px;stroke-linecap:butt;stroke-linejoin:miter;stroke-opacity:1" d="M 814.577,67.2483 829.557,75.5705 z" id="boundary" inkscape:connector-curvature="0" />
	<path style="fill:none;stroke:red;stroke-width:1px;stroke-linecap:butt;stroke-linejoin:miter;stroke-opacity:1" d="M 829.557,75.5705 837.879,90.5503 z" id="boundary" inkscape:connector-curvature="0" />
	<path style="fill:none;stroke:red;stroke-width:1px;stroke-linecap:butt;stroke-linejoin:miter;stroke-opacity:1" d="M 837.879,90.5503 837.879,107.195 z" id="boundary" inkscape:connector-curvature="0" />
	<path style="fill:none;stroke:red;stroke-width:1px;stroke-linecap:butt;stroke-linejoin:miter;stroke-opacity:1" d="M 762.98,145.477 761.315,122.174 z" id="boundary" inkscape:connector-curvature="0" />
	<path style="fill:none;stroke:red;stroke-width:1px;stroke-linecap:butt;stroke-linejoin:miter;stroke-opacity:1" d="M 846.201,122.174 837.879,107.195 z" id="boundary" inkscape:connector-curvature="0" />
	<path style="fill:none;stroke:red;stroke-width:1px;stroke-linecap:butt;stroke-linejoin:miter;stroke-opacity:1" d="M 846.201,122.174 857.852,135.49 z" id="boundary" inkscape:connector-curvature="0" />
	<path style="fill:none;stroke:red;stroke-width:1px;stroke-linecap:butt;stroke-linejoin:miter;stroke-opacity:1" d="M 874.497,142.148 857.852,135.49 z" id="boundary" inkscape:connector-curvature="0" />
	<path style="fill:none;stroke:red;stroke-width:1px;stroke-linecap:butt;stroke-linejoin:miter;stroke-opacity:1" d="M 891.141,142.148 874.497,142.148 z" id="boundary" inkscape:connector-curvature="0" />
	<path style="fill:none;stroke:red;stroke-width:1px;stroke-linecap:butt;stroke-linejoin:miter;stroke-opacity:1" d="M 751.329,158.792 762.98,145.477 z" id="boundary" inkscape:connector-curvature="0" />
	<path style="fill:none;stroke:red;stroke-width:1px;stroke-linecap:butt;stroke-linejoin:miter;stroke-opacity:1" d="M 907.785,142.148 891.141,142.148 z" id="boundary" inkscape:connector-curvature="0" />
	<path style="fill:none;stroke:red;stroke-width:1px;stroke-linecap:butt;stroke-linejoin:miter;stroke-opacity:1" d="M 711.383,197.074 719.705,172.107 z" id="boundary" inkscape:connector-curvature="0" />
	<path style="fill:none;stroke:red;stroke-width:1px;stroke-linecap:butt;stroke-linejoin:miter;stroke-opacity:1" d="M 719.705,172.107 736.349,167.114 z" id="boundary" inkscape:connector-curvature="0" />
	<path style="fill:none;stroke:red;stroke-width:1px;stroke-linecap:butt;stroke-linejoin:miter;stroke-opacity:1" d="M 736.349,167.114 751.329,158.792 z" id="boundary" inkscape:connector-curvature="0" />
	<path style="fill:none;stroke:red;stroke-width:1px;stroke-linecap:butt;stroke-linejoin:miter;stroke-opacity:1" d="M 907.785,142.148 922.765,150.47 z" id="boundary" inkscape:connector-curvature="0" />
	<path style="fill:none;stroke:red;stroke-width:1px;stroke-linecap:butt;stroke-linejoin:miter;stroke-opacity:1" d="M 922.765,150.47 937.745,158.792 z" id="boundary" inkscape:connector-curvature="0" />
	<path style="fill:none;stroke:red;stroke-width:1px;stroke-linecap:butt;stroke-linejoin:miter;stroke-opacity:1" d="M 937.745,158.792 946.067,173.772 z" id="boundary" inkscape:connector-curvature="0" />
	<path style="fill:none;stroke:red;stroke-width:1px;stroke-linecap:butt;stroke-linejoin:miter;stroke-opacity:1" d="M 946.067,173.772 946.067,190.416 z" id="boundary" inkscape:connector-curvature="0" />
	<path style="fill:none;stroke:red;stroke-width:1px;stroke-linecap:butt;stroke-linejoin:miter;stroke-opacity:1" d="M 946.067,190.416 946.067,207.06 z" id="boundary" inkscape:connector-curvature="0" />
	<path style="fill:none;stroke:red;stroke-width:1px;stroke-linecap:butt;stroke-linejoin:miter;stroke-opacity:1" d="M 946.067,223.705 946.067,240.349 z" id="boundary" inkscape:connector-curvature="0" />
	<path style="fill:none;stroke:red;stroke-width:1px;stroke-linecap:butt;stroke-linejoin:miter;stroke-opacity:1" d="M 954.389,255.329 946.067,240.349 z" id="boundary" inkscape:connector-curvature="0" />
	<path style="fill:none;stroke:red;stroke-width:1px;stroke-linecap:butt;stroke-linejoin:miter;stroke-opacity:1" d="M 946.067,223.705 946.067,207.06 z" id="boundary" inkscape:connector-curvature="0" />
	<path style="fill:none;stroke:red;stroke-width:1px;stroke-linecap:butt;stroke-linejoin:miter;stroke-opacity:1" d="M 579.893,243.678 596.537,243.678 z" id="boundary" inkscape:connector-curvature="0" />
	<path style="fill:none;stroke:red;stroke-width:1px;stroke-linecap:butt;stroke-linejoin:miter;stroke-opacity:1" d="M 579.893,260.322 579.893,243.678 z" id="boundary" inkscape:connector-curvature="0" />
	<path style="fill:none;stroke:red;stroke-width:1px;stroke-linecap:butt;stroke-linejoin:miter;stroke-opacity:1" d="M 579.893,276.966 579.893,260.322 z" id="boundary" inkscape:connector-curvature="0" />
	<path style="fill:none;stroke:red;stroke-width:1px;stroke-linecap:butt;stroke-linejoin:miter;stroke-opacity:1" d="M 588.215,308.591 579.893,293.611 z" id="boundary" inkscape:connector-curvature="0" />
	<path style="fill:none;stroke:red;stroke-width:1px;stroke-linecap:butt;stroke-linejoin:miter;stroke-opacity:1" d="M 579.893,293.611 579.893,276.966 z" id="boundary" inkscape:connector-curvature="0" />
	<path style="fill:none;stroke:red;stroke-width:1px;stroke-linecap:butt;stroke-linejoin:miter;stroke-opacity:1" d="M 596.537,243.678 613.181,247.007 z" id="boundary" inkscape:connector-curvature="0" />
	<path style="fill:none;stroke:red;stroke-width:1px;stroke-linecap:butt;stroke-linejoin:miter;stroke-opacity:1" d="M 624.832,260.322 613.181,247.007 z" id="boundary" inkscape:connector-curvature="0" />
	<path style="fill:none;stroke:red;stroke-width:1px;stroke-linecap:butt;stroke-linejoin:miter;stroke-opacity:1" d="M 693.074,242.013 676.43,242.013 z" id="boundary" inkscape:connector-curvature="0" />
	<path style="fill:none;stroke:red;stroke-width:1px;stroke-linecap:butt;stroke-linejoin:miter;stroke-opacity:1" d="M 704.725,228.698 693.074,242.013 z" id="boundary" inkscape:connector-curvature="0" />
	<path style="fill:none;stroke:red;stroke-width:1px;stroke-linecap:butt;stroke-linejoin:miter;stroke-opacity:1" d="M 636.483,273.638 644.805,288.617 z" id="boundary" inkscape:connector-curvature="0" />
	<path style="fill:none;stroke:red;stroke-width:1px;stroke-linecap:butt;stroke-linejoin:miter;stroke-opacity:1" d="M 636.483,273.638 624.832,260.322 z" id="boundary" inkscape:connector-curvature="0" />
	<path style="fill:none;stroke:red;stroke-width:1px;stroke-linecap:butt;stroke-linejoin:miter;stroke-opacity:1" d="M 596.537,323.57 588.215,308.591 z" id="boundary" inkscape:connector-curvature="0" />
	<path style="fill:none;stroke:red;stroke-width:1px;stroke-linecap:butt;stroke-linejoin:miter;stroke-opacity:1" d="M 653.128,303.597 644.805,288.617 z" id="boundary" inkscape:connector-curvature="0" />
	<path style="fill:none;stroke:red;stroke-width:1px;stroke-linecap:butt;stroke-linejoin:miter;stroke-opacity:1" d="M 661.45,318.577 653.128,303.597 z" id="boundary" inkscape:connector-curvature="0" />
	<path style="fill:none;stroke:red;stroke-width:1px;stroke-linecap:butt;stroke-linejoin:miter;stroke-opacity:1" d="M 588.215,376.832 571.57,393.477 z" id="boundary" inkscape:connector-curvature="0" />
	<path style="fill:none;stroke:red;stroke-width:1px;stroke-linecap:butt;stroke-linejoin:miter;stroke-opacity:1" d="M 596.537,340.215 596.537,323.57 z" id="boundary" inkscape:connector-curvature="0" />
	<path style="fill:none;stroke:red;stroke-width:1px;stroke-linecap:butt;stroke-linejoin:miter;stroke-opacity:1" d="M 596.537,340.215 596.537,356.859 z" id="boundary" inkscape:connector-curvature="0" />
	<path style="fill:none;stroke:red;stroke-width:1px;stroke-linecap:butt;stroke-linejoin:miter;stroke-opacity:1" d="M 596.537,356.859 588.215,376.832 z" id="boundary" inkscape:connector-curvature="0" />
	<path style="fill:none;stroke:red;stroke-width:1px;stroke-linecap:butt;stroke-linejoin:miter;stroke-opacity:1" d="M 526.631,415.114 543.275,410.121 z" id="boundary" inkscape:connector-curvature="0" />
	<path style="fill:none;stroke:red;stroke-width:1px;stroke-linecap:butt;stroke-linejoin:miter;stroke-opacity:1" d="M 543.275,410.121 559.919,406.792 z" id="boundary" inkscape:connector-curvature="0" />
	<path style="fill:none;stroke:red;stroke-width:1px;stroke-linecap:butt;stroke-linejoin:miter;stroke-opacity:1" d="M 559.919,406.792 571.57,393.477 z" id="boundary" inkscape:connector-curvature="0" />
	<path style="fill:none;stroke:red;stroke-width:1px;stroke-linecap:butt;stroke-linejoin:miter;stroke-opacity:1" d="M 681.423,360.188 666.443,351.866 z" id="boundary" inkscape:connector-curvature="0" />
	<path style="fill:none;stroke:red;stroke-width:1px;stroke-linecap:butt;stroke-linejoin:miter;stroke-opacity:1" d="M 666.443,351.866 661.45,335.221 z" id="boundary" inkscape:connector-curvature="0" />
	<path style="fill:none;stroke:red;stroke-width:1px;stroke-linecap:butt;stroke-linejoin:miter;stroke-opacity:1" d="M 661.45,335.221 661.45,318.577 z" id="boundary" inkscape:connector-curvature="0" />
	<path style="fill:none;stroke:red;stroke-width:1px;stroke-linecap:butt;stroke-linejoin:miter;stroke-opacity:1" d="M 681.423,360.188 698.067,360.188 z" id="boundary" inkscape:connector-curvature="0" />
	<path style="fill:none;stroke:red;stroke-width:1px;stroke-linecap:butt;stroke-linejoin:miter;stroke-opacity:1" d="M 714.711,360.188 698.067,360.188 z" id="boundary" inkscape:connector-curvature="0" />
	<path style="fill:none;stroke:red;stroke-width:1px;stroke-linecap:butt;stroke-linejoin:miter;stroke-opacity:1" d="M 731.356,360.188 714.711,360.188 z" id="boundary" inkscape:connector-curvature="0" />
	<path style="fill:none;stroke:red;stroke-width:1px;stroke-linecap:butt;stroke-linejoin:miter;stroke-opacity:1" d="M 748,360.188 731.356,360.188 z" id="boundary" inkscape:connector-curvature="0" />
	<path style="fill:none;stroke:red;stroke-width:1px;stroke-linecap:butt;stroke-linejoin:miter;stroke-opacity:1" d="M 764.644,360.188 748,360.188 z" id="boundary" inkscape:connector-curvature="0" />
	<path style="fill:none;stroke:red;stroke-width:1px;stroke-linecap:butt;stroke-linejoin:miter;stroke-opacity:1" d="M 794.604,376.832 777.96,370.174 z" id="boundary" inkscape:connector-curvature="0" />
	<path style="fill:none;stroke:red;stroke-width:1px;stroke-linecap:butt;stroke-linejoin:miter;stroke-opacity:1" d="M 777.96,370.174 764.644,360.188 z" id="boundary" inkscape:connector-curvature="0" />
	<path style="fill:none;stroke:red;stroke-width:1px;stroke-linecap:butt;stroke-linejoin:miter;stroke-opacity:1" d="M 954.389,255.329 961.047,271.973 z" id="boundary" inkscape:connector-curvature="0" />
	<path style="fill:none;stroke:red;stroke-width:1px;stroke-linecap:butt;stroke-linejoin:miter;stroke-opacity:1" d="M 794.604,376.832 799.597,393.477 z" id="boundary" inkscape:connector-curvature="0" />
	<path style="fill:none;stroke:red;stroke-width:1px;stroke-linecap:butt;stroke-linejoin:miter;stroke-opacity:1" d="M 961.047,271.973 977.691,278.631 z" id="boundary" inkscape:connector-curvature="0" />
	<path style="fill:none;stroke:red;stroke-width:1px;stroke-linecap:butt;stroke-linejoin:miter;stroke-opacity:1" d="M 977.691,278.631 984.349,295.275 z" id="boundary" inkscape:connector-curvature="0" />
	<path style="fill:none;stroke:red;stroke-width:1px;stroke-linecap:butt;stroke-linejoin:miter;stroke-opacity:1" d="M 996,308.591 984.349,295.275 z" id="boundary" inkscape:connector-curvature="0" />
	<path style="fill:none;stroke:red;stroke-width:1px;stroke-linecap:butt;stroke-linejoin:miter;stroke-opacity:1" d="M 979.356,360.188 987.678,343.544 z" id="boundary" inkscape:connector-curvature="0" />
	<path style="fill:none;stroke:red;stroke-width:1px;stroke-linecap:butt;stroke-linejoin:miter;stroke-opacity:1" d="M 979.356,376.832 979.356,360.188 z" id="boundary" inkscape:connector-curvature="0" />
	<path style="fill:none;stroke:red;stroke-width:1px;stroke-linecap:butt;stroke-linejoin:miter;stroke-opacity:1" d="M 996,325.235 987.678,343.544 z" id="boundary" inkscape:connector-curvature="0" />
	<path style="fill:none;stroke:red;stroke-width:1px;stroke-linecap:butt;stroke-linejoin:miter;stroke-opacity:1" d="M 996,308.591 996,325.235 z" id="boundary" inkscape:connector-curvature="0" />
	<path style="fill:none;stroke:red;stroke-width:1px;stroke-linecap:butt;stroke-linejoin:miter;stroke-opacity:1" d="M 799.597,393.477 811.248,406.792 z" id="boundary" inkscape:connector-curvature="0" />
	<path style="fill:none;stroke:red;stroke-width:1px;stroke-linecap:butt;stroke-linejoin:miter;stroke-opacity:1" d="M 811.248,406.792 819.57,421.772 z" id="boundary" inkscape:connector-curvature="0" />
	<path style="fill:none;stroke:red;stroke-width:1px;stroke-linecap:butt;stroke-linejoin:miter;stroke-opacity:1" d="M 832.886,433.423 849.53,435.087 z" id="boundary" inkscape:connector-curvature="0" />
	<path style="fill:none;stroke:red;stroke-width:1px;stroke-linecap:butt;stroke-linejoin:miter;stroke-opacity:1" d="M 849.53,435.087 866.174,441.745 z" id="boundary" inkscape:connector-curvature="0" />
	<path style="fill:none;stroke:red;stroke-width:1px;stroke-linecap:butt;stroke-linejoin:miter;stroke-opacity:1" d="M 832.886,433.423 819.57,421.772 z" id="boundary" inkscape:connector-curvature="0" />
	<path style="fill:none;stroke:red;stroke-width:1px;stroke-linecap:butt;stroke-linejoin:miter;stroke-opacity:1" d="M 866.174,441.745 882.819,443.409 z" id="boundary" inkscape:connector-curvature="0" />
	<path style="fill:none;stroke:red;stroke-width:1px;stroke-linecap:butt;stroke-linejoin:miter;stroke-opacity:1" d="M 897.799,435.087 882.819,443.409 z" id="boundary" inkscape:connector-curvature="0" />
	<path style="fill:none;stroke:red;stroke-width:1px;stroke-linecap:butt;stroke-linejoin:miter;stroke-opacity:1" d="M 954.389,401.799 967.705,390.148 z" id="boundary" inkscape:connector-curvature="0" />
	<path style="fill:none;stroke:red;stroke-width:1px;stroke-linecap:butt;stroke-linejoin:miter;stroke-opacity:1" d="M 942.738,415.114 954.389,401.799 z" id="boundary" inkscape:connector-curvature="0" />
	<path style="fill:none;stroke:red;stroke-width:1px;stroke-linecap:butt;stroke-linejoin:miter;stroke-opacity:1" d="M 897.799,435.087 914.443,435.087 z" id="boundary" inkscape:connector-curvature="0" />
	<path style="fill:none;stroke:red;stroke-width:1px;stroke-linecap:butt;stroke-linejoin:miter;stroke-opacity:1" d="M 929.423,426.765 914.443,435.087 z" id="boundary" inkscape:connector-curvature="0" />
	<path style="fill:none;stroke:red;stroke-width:1px;stroke-linecap:butt;stroke-linejoin:miter;stroke-opacity:1" d="M 942.738,415.114 929.423,426.765 z" id="boundary" inkscape:connector-curvature="0" />
	<path style="fill:none;stroke:red;stroke-width:1px;stroke-linecap:butt;stroke-linejoin:miter;stroke-opacity:1" d="M 979.356,376.832 967.705,390.148 z" id="boundary" inkscape:connector-curvature="0" />
	<circle cx="4" cy="155.463" r="4" fill="#0" id="circle0"/>
	<circle cx="12.3221" cy="138.819" r="4" fill="#0" id="circle1"/>
	<circle cx="12.3221" cy="170.443" r="4" fill="#0" id="circle2"/>
	<circle cx="20.6443" cy="122.174" r="4" fill="#0" id="circle3"/>
	<circle cx="28.9664" cy="177.101" r="4" fill="#0" id="circle4"/>
	<circle cx="33.9597" cy="108.859" r="4" fill="#0" id="circle5"/>
	<circle cx="37.2886" cy="88.8859" r="4" fill="#0" id="circle6"/>
	<circle cx="45.6107" cy="172.107" r="4" fill="#0" id="circle7"/>
	<circle cx="50.604" cy="75.5705" r="4" fill="#0" id="circle8"/>
	<circle cx="62.255" cy="163.785" r="4" fill="#0" id="circle9"/>
	<circle cx="62.255" cy="355.195" r="4" fill="#0" id="circle10"/>
	<circle cx="62.255" cy="371.839" r="4" fill="#0" id="circle11"/>
	<circle cx="62.255" cy="388.483" r="4" fill="#0" id="circle12"/>
	<circle cx="67.2483" cy="75.5705" r="4" fill="#0" id="circle13"/>
	<circle cx="70.5772" cy="338.55" r="4" fill="#0" id="circle14"/>
	<circle cx="75.5705" cy="400.134" r="4" fill="#0" id="circle15"/>
	<circle cx="78.8993" cy="160.456" r="4" fill="#0" id="circle16"/>
	<circle cx="78.8993" cy="313.584" r="4" fill="#0" id="circle17"/>
	<circle cx="82.2282" cy="67.2483" r="4" fill="#0" id="circle18"/>
	<circle cx="87.2215" cy="296.94" r="4" fill="#0" id="circle19"/>
	<circle cx="88.8859" cy="173.772" r="4" fill="#0" id="circle20"/>
	<circle cx="92.2148" cy="393.477" r="4" fill="#0" id="circle21"/>
	<circle cx="95.5436" cy="78.8993" r="4" fill="#0" id="circle22"/>
	<circle cx="95.5436" cy="190.416" r="4" fill="#0" id="circle23"/>
	<circle cx="103.866" cy="205.396" r="4" fill="#0" id="circle24"/>
	<circle cx="103.866" cy="271.973" r="4" fill="#0" id="circle25"/>
	<circle cx="103.866" cy="288.617" r="4" fill="#0" id="circle26"/>
	<circle cx="107.195" cy="385.154" r="4" fill="#0" id="circle27"/>
	<circle cx="110.523" cy="87.2215" r="4" fill="#0" id="circle28"/>
	<circle cx="112.188" cy="220.376" r="4" fill="#0" id="circle29"/>
	<circle cx="112.188" cy="237.02" r="4" fill="#0" id="circle30"/>
	<circle cx="112.188" cy="253.664" r="4" fill="#0" id="circle31"/>
	<circle cx="113.852" cy="368.51" r="4" fill="#0" id="circle32"/>
	<circle cx="122.174" cy="343.544" r="4" fill="#0" id="circle33"/>
	<circle cx="127.168" cy="93.8792" r="4" fill="#0" id="circle34"/>
	<circle cx="130.497" cy="326.899" r="4" fill="#0" id="circle35"/>
	<circle cx="138.819" cy="107.195" r="4" fill="#0" id="circle36"/>
	<circle cx="143.812" cy="315.248" r="4" fill="#0" id="circle37"/>
	<circle cx="152.134" cy="117.181" r="4" fill="#0" id="circle38"/>
	<circle cx="155.463" cy="301.933" r="4" fill="#0" id="circle39"/>
	<circle cx="168.779" cy="118.846" r="4" fill="#0" id="circle40"/>
	<circle cx="168.779" cy="290.282" r="4" fill="#0" id="circle41"/>
	<circle cx="180.43" cy="276.966" r="4" fill="#0" id="circle42"/>
	<circle cx="183.758" cy="127.168" r="4" fill="#0" id="circle43"/>
	<circle cx="192.081" cy="142.148" r="4" fill="#0" id="circle44"/>
	<circle cx="197.074" cy="276.966" r="4" fill="#0" id="circle45"/>
	<circle cx="207.06" cy="150.47" r="4" fill="#0" id="circle46"/>
	<circle cx="212.054" cy="268.644" r="4" fill="#0" id="circle47"/>
	<circle cx="223.705" cy="150.47" r="4" fill="#0" id="circle48"/>
	<circle cx="227.034" cy="276.966" r="4" fill="#0" id="circle49"/>
	<circle cx="240.349" cy="150.47" r="4" fill="#0" id="circle50"/>
	<circle cx="242.013" cy="268.644" r="4" fill="#0" id="circle51"/>
	<circle cx="256.993" cy="150.47" r="4" fill="#0" id="circle52"/>
	<circle cx="258.658" cy="268.644" r="4" fill="#0" id="circle53"/>
	<circle cx="273.638" cy="150.47" r="4" fill="#0" id="circle54"/>
	<circle cx="275.302" cy="266.98" r="4" fill="#0" id="circle55"/>
	<circle cx="290.282" cy="150.47" r="4" fill="#0" id="circle56"/>
	<circle cx="291.946" cy="260.322" r="4" fill="#0" id="circle57"/>
	<circle cx="306.926" cy="150.47" r="4" fill="#0" id="circle58"/>
	<circle cx="308.591" cy="260.322" r="4" fill="#0" id="circle59"/>
	<circle cx="320.242" cy="273.638" r="4" fill="#0" id="circle60"/>
	<circle cx="323.57" cy="150.47" r="4" fill="#0" id="circle61"/>
	<circle cx="328.564" cy="288.617" r="4" fill="#0" id="circle62"/>
	<circle cx="328.564" cy="305.262" r="4" fill="#0" id="circle63"/>
	<circle cx="328.564" cy="321.906" r="4" fill="#0" id="circle64"/>
	<circle cx="328.564" cy="338.55" r="4" fill="#0" id="circle65"/>
	<circle cx="328.564" cy="355.195" r="4" fill="#0" id="circle66"/>
	<circle cx="328.564" cy="371.839" r="4" fill="#0" id="circle67"/>
	<circle cx="328.564" cy="388.483" r="4" fill="#0" id="circle68"/>
	<circle cx="340.215" cy="150.47" r="4" fill="#0" id="circle69"/>
	<circle cx="345.208" cy="393.477" r="4" fill="#0" id="circle70"/>
	<circle cx="355.195" cy="376.832" r="4" fill="#0" id="circle71"/>
	<circle cx="356.859" cy="150.47" r="4" fill="#0" id="circle72"/>
	<circle cx="363.517" cy="360.188" r="4" fill="#0" id="circle73"/>
	<circle cx="370.174" cy="162.121" r="4" fill="#0" id="circle74"/>
	<circle cx="371.839" cy="293.611" r="4" fill="#0" id="circle75"/>
	<circle cx="371.839" cy="310.255" r="4" fill="#0" id="circle76"/>
	<circle cx="371.839" cy="326.899" r="4" fill="#0" id="circle77"/>
	<circle cx="371.839" cy="343.544" r="4" fill="#0" id="circle78"/>
	<circle cx="385.154" cy="170.443" r="4" fill="#0" id="circle79"/>
	<circle cx="388.483" cy="293.611" r="4" fill="#0" id="circle80"/>
	<circle cx="396.805" cy="183.758" r="4" fill="#0" id="circle81"/>
	<circle cx="396.805" cy="202.067" r="4" fill="#0" id="circle82"/>
	<circle cx="405.128" cy="217.047" r="4" fill="#0" id="circle83"/>
	<circle cx="405.128" cy="233.691" r="4" fill="#0" id="circle84"/>
	<circle cx="405.128" cy="293.611" r="4" fill="#0" id="circle85"/>
	<circle cx="421.772" cy="228.698" r="4" fill="#0" id="circle86"/>
	<circle cx="421.772" cy="293.611" r="4" fill="#0" id="circle87"/>
	<circle cx="436.752" cy="301.933" r="4" fill="#0" id="circle88"/>
	<circle cx="436.752" cy="338.55" r="4" fill="#0" id="circle89"/>
	<circle cx="438.416" cy="225.369" r="4" fill="#0" id="circle90"/>
	<circle cx="445.074" cy="316.913" r="4" fill="#0" id="circle91"/>
	<circle cx="445.074" cy="353.53" r="4" fill="#0" id="circle92"/>
	<circle cx="445.074" cy="370.174" r="4" fill="#0" id="circle93"/>
	<circle cx="445.074" cy="386.819" r="4" fill="#0" id="circle94"/>
	<circle cx="445.074" cy="403.463" r="4" fill="#0" id="circle95"/>
	<circle cx="455.06" cy="225.369" r="4" fill="#0" id="circle96"/>
	<circle cx="461.718" cy="410.121" r="4" fill="#0" id="circle97"/>
	<circle cx="471.705" cy="225.369" r="4" fill="#0" id="circle98"/>
	<circle cx="476.698" cy="418.443" r="4" fill="#0" id="circle99"/>
	<circle cx="486.685" cy="155.463" r="4" fill="#0" id="circle100"/>
	<circle cx="486.685" cy="172.107" r="4" fill="#0" id="circle101"/>
	<circle cx="486.685" cy="188.752" r="4" fill="#0" id="circle102"/>
	<circle cx="486.685" cy="205.396" r="4" fill="#0" id="circle103"/>
	<circle cx="493.342" cy="418.443" r="4" fill="#0" id="circle104"/>
	<circle cx="500" cy="142.148" r="4" fill="#0" id="circle105"/>
	<circle cx="509.987" cy="418.443" r="4" fill="#0" id="circle106"/>
	<circle cx="513.315" cy="128.832" r="4" fill="#0" id="circle107"/>
	<circle cx="521.638" cy="112.188" r="4" fill="#0" id="circle108"/>
	<circle cx="526.631" cy="415.114" r="4" fill="#0" id="circle109"/>
	<circle cx="538.282" cy="108.859" r="4" fill="#0" id="circle110"/>
	<circle cx="543.275" cy="410.121" r="4" fill="#0" id="circle111"/>
	<circle cx="544.94" cy="22.3087" r="4" fill="#0" id="circle112"/>
	<circle cx="544.94" cy="38.953" r="4" fill="#0" id="circle113"/>
	<circle cx="544.94" cy="55.5973" r="4" fill="#0" id="circle114"/>
	<circle cx="544.94" cy="72.2416" r="4" fill="#0" id="circle115"/>
	<circle cx="553.262" cy="5.66443" r="4" fill="#0" id="circle116"/>
	<circle cx="553.262" cy="87.2215" r="4" fill="#0" id="circle117"/>
	<circle cx="559.919" cy="406.792" r="4" fill="#0" id="circle118"/>
	<circle cx="569.906" cy="4" r="4" fill="#0" id="circle119"/>
	<circle cx="571.57" cy="393.477" r="4" fill="#0" id="circle120"/>
	<circle cx="579.893" cy="17.3154" r="4" fill="#0" id="circle121"/>
	<circle cx="579.893" cy="243.678" r="4" fill="#0" id="circle122"/>
	<circle cx="579.893" cy="260.322" r="4" fill="#0" id="circle123"/>
	<circle cx="579.893" cy="276.966" r="4" fill="#0" id="circle124"/>
	<circle cx="579.893" cy="293.611" r="4" fill="#0" id="circle125"/>
	<circle cx="588.215" cy="308.591" r="4" fill="#0" id="circle126"/>
	<circle cx="588.215" cy="376.832" r="4" fill="#0" id="circle127"/>
	<circle cx="596.537" cy="22.3087" r="4" fill="#0" id="circle128"/>
	<circle cx="596.537" cy="243.678" r="4" fill="#0" id="circle129"/>
	<circle cx="596.537" cy="323.57" r="4" fill="#0" id="circle130"/>
	<circle cx="596.537" cy="340.215" r="4" fill="#0" id="circle131"/>
	<circle cx="596.537" cy="356.859" r="4" fill="#0" id="circle132"/>
	<circle cx="603.195" cy="38.953" r="4" fill="#0" id="circle133"/>
	<circle cx="611.517" cy="53.9329" r="4" fill="#0" id="circle134"/>
	<circle cx="613.181" cy="247.007" r="4" fill="#0" id="circle135"/>
	<circle cx="618.174" cy="70.5772" r="4" fill="#0" id="circle136"/>
	<circle cx="621.503" cy="87.2215" r="4" fill="#0" id="circle137"/>
	<circle cx="624.832" cy="260.322" r="4" fill="#0" id="circle138"/>
	<circle cx="629.826" cy="102.201" r="4" fill="#0" id="circle139"/>
	<circle cx="629.826" cy="118.846" r="4" fill="#0" id="circle140"/>
	<circle cx="629.826" cy="135.49" r="4" fill="#0" id="circle141"/>
	<circle cx="629.826" cy="152.134" r="4" fill="#0" id="circle142"/>
	<circle cx="629.826" cy="168.779" r="4" fill="#0" id="circle143"/>
	<circle cx="636.483" cy="273.638" r="4" fill="#0" id="circle144"/>
	<circle cx="638.148" cy="183.758" r="4" fill="#0" id="circle145"/>
	<circle cx="638.148" cy="200.403" r="4" fill="#0" id="circle146"/>
	<circle cx="644.805" cy="288.617" r="4" fill="#0" id="circle147"/>
	<circle cx="646.47" cy="215.383" r="4" fill="#0" id="circle148"/>
	<circle cx="646.47" cy="232.027" r="4" fill="#0" id="circle149"/>
	<circle cx="653.128" cy="303.597" r="4" fill="#0" id="circle150"/>
	<circle cx="659.785" cy="242.013" r="4" fill="#0" id="circle151"/>
	<circle cx="661.45" cy="318.577" r="4" fill="#0" id="circle152"/>
	<circle cx="661.45" cy="335.221" r="4" fill="#0" id="circle153"/>
	<circle cx="666.443" cy="351.866" r="4" fill="#0" id="circle154"/>
	<circle cx="676.43" cy="242.013" r="4" fill="#0" id="circle155"/>
	<circle cx="681.423" cy="360.188" r="4" fill="#0" id="circle156"/>
	<circle cx="693.074" cy="242.013" r="4" fill="#0" id="circle157"/>
	<circle cx="698.067" cy="360.188" r="4" fill="#0" id="circle158"/>
	<circle cx="704.725" cy="228.698" r="4" fill="#0" id="circle159"/>
	<circle cx="711.383" cy="197.074" r="4" fill="#0" id="circle160"/>
	<circle cx="714.711" cy="360.188" r="4" fill="#0" id="circle161"/>
	<circle cx="719.705" cy="172.107" r="4" fill="#0" id="circle162"/>
	<circle cx="731.356" cy="360.188" r="4" fill="#0" id="circle163"/>
	<circle cx="736.349" cy="167.114" r="4" fill="#0" id="circle164"/>
	<circle cx="748" cy="360.188" r="4" fill="#0" id="circle165"/>
	<circle cx="751.329" cy="158.792" r="4" fill="#0" id="circle166"/>
	<circle cx="761.315" cy="88.8859" r="4" fill="#0" id="circle167"/>
	<circle cx="761.315" cy="105.53" r="4" fill="#0" id="circle168"/>
	<circle cx="761.315" cy="122.174" r="4" fill="#0" id="circle169"/>
	<circle cx="762.98" cy="145.477" r="4" fill="#0" id="circle170"/>
	<circle cx="764.644" cy="360.188" r="4" fill="#0" id="circle171"/>
	<circle cx="769.638" cy="72.2416" r="4" fill="#0" id="circle172"/>
	<circle cx="777.96" cy="370.174" r="4" fill="#0" id="circle173"/>
	<circle cx="782.953" cy="58.9262" r="4" fill="#0" id="circle174"/>
	<circle cx="794.604" cy="376.832" r="4" fill="#0" id="circle175"/>
	<circle cx="799.597" cy="58.9262" r="4" fill="#0" id="circle176"/>
	<circle cx="799.597" cy="393.477" r="4" fill="#0" id="circle177"/>
	<circle cx="811.248" cy="406.792" r="4" fill="#0" id="circle178"/>
	<circle cx="814.577" cy="67.2483" r="4" fill="#0" id="circle179"/>
	<circle cx="819.57" cy="421.772" r="4" fill="#0" id="circle180"/>
	<circle cx="829.557" cy="75.5705" r="4" fill="#0" id="circle181"/>
	<circle cx="832.886" cy="433.423" r="4" fill="#0" id="circle182"/>
	<circle cx="837.879" cy="90.5503" r="4" fill="#0" id="circle183"/>
	<circle cx="837.879" cy="107.195" r="4" fill="#0" id="circle184"/>
	<circle cx="846.201" cy="122.174" r="4" fill="#0" id="circle185"/>
	<circle cx="849.53" cy="435.087" r="4" fill="#0" id="circle186"/>
	<circle cx="857.852" cy="135.49" r="4" fill="#0" id="circle187"/>
	<circle cx="866.174" cy="441.745" r="4" fill="#0" id="circle188"/>
	<circle cx="874.497" cy="142.148" r="4" fill="#0" id="circle189"/>
	<circle cx="882.819" cy="443.409" r="4" fill="#0" id="circle190"/>
	<circle cx="891.141" cy="142.148" r="4" fill="#0" id="circle191"/>
	<circle cx="897.799" cy="435.087" r="4" fill="#0" id="circle192"/>
	<circle cx="907.785" cy="142.148" r="4" fill="#0" id="circle193"/>
	<circle cx="914.443" cy="435.087" r="4" fill="#0" id="circle194"/>
	<circle cx="922.765" cy="150.47" r="4" fill="#0" id="circle195"/>
	<circle cx="929.423" cy="426.765" r="4" fill="#0" id="circle196"/>
	<circle cx="937.745" cy="158.792" r="4" fill="#0" id="circle197"/>
	<circle cx="942.738" cy="415.114" r="4" fill="#0" id="circle198"/>
	<circle cx="946.067" cy="173.772" r="4" fill="#0" id="circle199"/>
	<circle cx="946.067" cy="190.416" r="4" fill="#0" id="circle200"/>
	<circle cx="946.067" cy="207.06" r="4" fill="#0" id="circle201"/>
	<circle cx="946.067" cy="223.705" r="4" fill="#0" id="circle202"/>
	<circle cx="946.067" cy="240.349" r="4" fill="#0" id="circle203"/>
	<circle cx="954.389" cy="255.329" r="4" fill="#0" id="circle204"/>
	<circle cx="954.389" cy="401.799" r="4" fill="#0" id="circle205"/>
	<circle cx="961.047" cy="271.973" r="4" fill="#0" id="circle206"/>
	<circle cx="967.705" cy="390.148" r="4" fill="#0" id="circle207"/>
	<circle cx="977.691" cy="278.631" r="4" fill="#0" id="circle208"/>
	<circle cx="979.356" cy="360.188" r="4" fill="#0" id="circle209"/>
	<circle cx="979.356" cy="376.832" r="4" fill="#0" id="circle210"/>
	<circle cx="984.349" cy="295.275" r="4" fill="#0" id="circle211"/>
	<circle cx="987.678" cy="343.544" r="4" fill="#0" id="circle212"/>
	<circle cx="996" cy="308.591" r="4" fill="#0" id="circle213"/>
	<circle cx="996" cy="325.235" r="4" fill="#0" id="circle214"/>
	</g>
</svg>