<?xml version="1.0" encoding="UTF-8" standalone="no"?>
<!-- Created with CurveBenchmark -->
<svg
	xmlns:dc="http://purl.org/dc/elements/1.1/"
	xmlns:cc="http://creativecommons.org/ns#"
	xmlns:rdf="http://www.w3.org/1999/02/22-rdf-syntax-ns#"
	xmlns:svg="http://www.w3.org/2000/svg"
	xmlns="http://www.w3.org/2000/svg"
	xmlns:sodipodi="http://sodipodi.sourceforge.net/DTD/sodipodi-0.dtd"
	xmlns:inkscape="http://www.inkscape.org/namespaces/inkscape"
	width="1000"
	height="1000"
	id="svg2"
	version="1.1"
	sodipodi:docname="manifold/nncrust-bed105.png.txt">
<defs
	id="defs4" />
<metadata
	id="metadata7">
	<rdf:RDF>
		<cc:Work
			rdf:about="">
			<dc:format>image/svg+xml</dc:format>
			<dc:type
				rdf:resource="http://purl.org/dc/dcmitype/StillImage" />
			<dc:title></dc:title>
		</cc:Work>
	</rdf:RDF>
</metadata>
<g
	inkscape:label="Layer 1"
	inkscape:groupmode="layer"
	id="layer1">
	<path style="fill:none;stroke:red;stroke-width:1px;stroke-linecap:butt;stroke-linejoin:miter;stroke-opacity:1" d="M 65.4513,68.9628 74.2301,53.1611 z" id="boundary" inkscape:connector-curvature="0" />
	<path style="fill:none;stroke:red;stroke-width:1px;stroke-linecap:butt;stroke-linejoin:miter;stroke-opacity:1" d="M 65.4513,68.9628 49.6496,77.7416 z" id="boundary" inkscape:connector-curvature="0" />
	<path style="fill:none;stroke:red;stroke-width:1px;stroke-linecap:butt;stroke-linejoin:miter;stroke-opacity:1" d="M 25.069,102.322 35.6035,88.2761 z" id="boundary" inkscape:connector-curvature="0" />
	<path style="fill:none;stroke:red;stroke-width:1px;stroke-linecap:butt;stroke-linejoin:miter;stroke-opacity:1" d="M 35.6035,88.2761 49.6496,77.7416 z" id="boundary" inkscape:connector-curvature="0" />
	<path style="fill:none;stroke:red;stroke-width:1px;stroke-linecap:butt;stroke-linejoin:miter;stroke-opacity:1" d="M 91.7876,18.046 102.322,4 z" id="boundary" inkscape:connector-curvature="0" />
	<path style="fill:none;stroke:red;stroke-width:1px;stroke-linecap:butt;stroke-linejoin:miter;stroke-opacity:1" d="M 102.322,4 118.124,12.7788 z" id="boundary" inkscape:connector-curvature="0" />
	<path style="fill:none;stroke:red;stroke-width:1px;stroke-linecap:butt;stroke-linejoin:miter;stroke-opacity:1" d="M 118.124,12.7788 121.635,30.3363 z" id="boundary" inkscape:connector-curvature="0" />
	<path style="fill:none;stroke:red;stroke-width:1px;stroke-linecap:butt;stroke-linejoin:miter;stroke-opacity:1" d="M 121.635,30.3363 132.17,44.3823 z" id="boundary" inkscape:connector-curvature="0" />
	<path style="fill:none;stroke:red;stroke-width:1px;stroke-linecap:butt;stroke-linejoin:miter;stroke-opacity:1" d="M 84.7646,39.115 91.7876,18.046 z" id="boundary" inkscape:connector-curvature="0" />
	<path style="fill:none;stroke:red;stroke-width:1px;stroke-linecap:butt;stroke-linejoin:miter;stroke-opacity:1" d="M 74.2301,53.1611 84.7646,39.115 z" id="boundary" inkscape:connector-curvature="0" />
	<path style="fill:none;stroke:red;stroke-width:1px;stroke-linecap:butt;stroke-linejoin:miter;stroke-opacity:1" d="M 7.5115,133.926 7.5115,151.483 z" id="boundary" inkscape:connector-curvature="0" />
	<path style="fill:none;stroke:red;stroke-width:1px;stroke-linecap:butt;stroke-linejoin:miter;stroke-opacity:1" d="M 14.5345,116.368 25.069,102.322 z" id="boundary" inkscape:connector-curvature="0" />
	<path style="fill:none;stroke:red;stroke-width:1px;stroke-linecap:butt;stroke-linejoin:miter;stroke-opacity:1" d="M 7.5115,169.041 7.5115,151.483 z" id="boundary" inkscape:connector-curvature="0" />
	<path style="fill:none;stroke:red;stroke-width:1px;stroke-linecap:butt;stroke-linejoin:miter;stroke-opacity:1" d="M 7.5115,169.041 9.26726,186.598 z" id="boundary" inkscape:connector-curvature="0" />
	<path style="fill:none;stroke:red;stroke-width:1px;stroke-linecap:butt;stroke-linejoin:miter;stroke-opacity:1" d="M 7.5115,133.926 14.5345,116.368 z" id="boundary" inkscape:connector-curvature="0" />
	<path style="fill:none;stroke:red;stroke-width:1px;stroke-linecap:butt;stroke-linejoin:miter;stroke-opacity:1" d="M 11.023,204.156 9.26726,186.598 z" id="boundary" inkscape:connector-curvature="0" />
	<path style="fill:none;stroke:red;stroke-width:1px;stroke-linecap:butt;stroke-linejoin:miter;stroke-opacity:1" d="M 11.023,221.713 11.023,204.156 z" id="boundary" inkscape:connector-curvature="0" />
	<path style="fill:none;stroke:red;stroke-width:1px;stroke-linecap:butt;stroke-linejoin:miter;stroke-opacity:1" d="M 11.023,239.271 11.023,256.828 z" id="boundary" inkscape:connector-curvature="0" />
	<path style="fill:none;stroke:red;stroke-width:1px;stroke-linecap:butt;stroke-linejoin:miter;stroke-opacity:1" d="M 11.023,239.271 11.023,221.713 z" id="boundary" inkscape:connector-curvature="0" />
	<path style="fill:none;stroke:red;stroke-width:1px;stroke-linecap:butt;stroke-linejoin:miter;stroke-opacity:1" d="M 11.023,256.828 11.023,274.386 z" id="boundary" inkscape:connector-curvature="0" />
	<path style="fill:none;stroke:red;stroke-width:1px;stroke-linecap:butt;stroke-linejoin:miter;stroke-opacity:1" d="M 11.023,274.386 7.5115,298.966 z" id="boundary" inkscape:connector-curvature="0" />
	<path style="fill:none;stroke:red;stroke-width:1px;stroke-linecap:butt;stroke-linejoin:miter;stroke-opacity:1" d="M 132.17,44.3823 139.193,61.9398 z" id="boundary" inkscape:connector-curvature="0" />
	<path style="fill:none;stroke:red;stroke-width:1px;stroke-linecap:butt;stroke-linejoin:miter;stroke-opacity:1" d="M 147.972,77.7416 139.193,61.9398 z" id="boundary" inkscape:connector-curvature="0" />
	<path style="fill:none;stroke:red;stroke-width:1px;stroke-linecap:butt;stroke-linejoin:miter;stroke-opacity:1" d="M 162.018,90.0319 147.972,77.7416 z" id="boundary" inkscape:connector-curvature="0" />
	<path style="fill:none;stroke:red;stroke-width:1px;stroke-linecap:butt;stroke-linejoin:miter;stroke-opacity:1" d="M 174.308,104.078 162.018,90.0319 z" id="boundary" inkscape:connector-curvature="0" />
	<path style="fill:none;stroke:red;stroke-width:1px;stroke-linecap:butt;stroke-linejoin:miter;stroke-opacity:1" d="M 181.331,169.041 177.819,197.133 z" id="boundary" inkscape:connector-curvature="0" />
	<path style="fill:none;stroke:red;stroke-width:1px;stroke-linecap:butt;stroke-linejoin:miter;stroke-opacity:1" d="M 183.087,119.88 188.354,137.437 z" id="boundary" inkscape:connector-curvature="0" />
	<path style="fill:none;stroke:red;stroke-width:1px;stroke-linecap:butt;stroke-linejoin:miter;stroke-opacity:1" d="M 188.354,137.437 181.331,169.041 z" id="boundary" inkscape:connector-curvature="0" />
	<path style="fill:none;stroke:red;stroke-width:1px;stroke-linecap:butt;stroke-linejoin:miter;stroke-opacity:1" d="M 174.308,104.078 183.087,119.88 z" id="boundary" inkscape:connector-curvature="0" />
	<path style="fill:none;stroke:red;stroke-width:1px;stroke-linecap:butt;stroke-linejoin:miter;stroke-opacity:1" d="M 248.05,214.69 230.492,211.179 z" id="boundary" inkscape:connector-curvature="0" />
	<path style="fill:none;stroke:red;stroke-width:1px;stroke-linecap:butt;stroke-linejoin:miter;stroke-opacity:1" d="M 195.377,204.156 212.935,204.156 z" id="boundary" inkscape:connector-curvature="0" />
	<path style="fill:none;stroke:red;stroke-width:1px;stroke-linecap:butt;stroke-linejoin:miter;stroke-opacity:1" d="M 212.935,204.156 230.492,211.179 z" id="boundary" inkscape:connector-curvature="0" />
	<path style="fill:none;stroke:red;stroke-width:1px;stroke-linecap:butt;stroke-linejoin:miter;stroke-opacity:1" d="M 195.377,204.156 177.819,197.133 z" id="boundary" inkscape:connector-curvature="0" />
	<path style="fill:none;stroke:red;stroke-width:1px;stroke-linecap:butt;stroke-linejoin:miter;stroke-opacity:1" d="M 7.5115,316.524 7.5115,298.966 z" id="boundary" inkscape:connector-curvature="0" />
	<path style="fill:none;stroke:red;stroke-width:1px;stroke-linecap:butt;stroke-linejoin:miter;stroke-opacity:1" d="M 248.05,214.69 265.607,218.202 z" id="boundary" inkscape:connector-curvature="0" />
	<path style="fill:none;stroke:red;stroke-width:1px;stroke-linecap:butt;stroke-linejoin:miter;stroke-opacity:1" d="M 283.165,218.202 300.722,218.202 z" id="boundary" inkscape:connector-curvature="0" />
	<path style="fill:none;stroke:red;stroke-width:1px;stroke-linecap:butt;stroke-linejoin:miter;stroke-opacity:1" d="M 300.722,218.202 318.28,221.713 z" id="boundary" inkscape:connector-curvature="0" />
	<path style="fill:none;stroke:red;stroke-width:1px;stroke-linecap:butt;stroke-linejoin:miter;stroke-opacity:1" d="M 283.165,218.202 265.607,218.202 z" id="boundary" inkscape:connector-curvature="0" />
	<path style="fill:none;stroke:red;stroke-width:1px;stroke-linecap:butt;stroke-linejoin:miter;stroke-opacity:1" d="M 318.28,221.713 335.837,228.736 z" id="boundary" inkscape:connector-curvature="0" />
	<path style="fill:none;stroke:red;stroke-width:1px;stroke-linecap:butt;stroke-linejoin:miter;stroke-opacity:1" d="M 351.639,237.515 335.837,228.736 z" id="boundary" inkscape:connector-curvature="0" />
	<path style="fill:none;stroke:red;stroke-width:1px;stroke-linecap:butt;stroke-linejoin:miter;stroke-opacity:1" d="M 351.639,237.515 367.441,246.294 z" id="boundary" inkscape:connector-curvature="0" />
	<path style="fill:none;stroke:red;stroke-width:1px;stroke-linecap:butt;stroke-linejoin:miter;stroke-opacity:1" d="M 393.777,270.874 381.487,256.828 z" id="boundary" inkscape:connector-curvature="0" />
	<path style="fill:none;stroke:red;stroke-width:1px;stroke-linecap:butt;stroke-linejoin:miter;stroke-opacity:1" d="M 416.602,298.966 404.312,284.92 z" id="boundary" inkscape:connector-curvature="0" />
	<path style="fill:none;stroke:red;stroke-width:1px;stroke-linecap:butt;stroke-linejoin:miter;stroke-opacity:1" d="M 367.441,246.294 381.487,256.828 z" id="boundary" inkscape:connector-curvature="0" />
	<path style="fill:none;stroke:red;stroke-width:1px;stroke-linecap:butt;stroke-linejoin:miter;stroke-opacity:1" d="M 393.777,270.874 404.312,284.92 z" id="boundary" inkscape:connector-curvature="0" />
	<path style="fill:none;stroke:red;stroke-width:1px;stroke-linecap:butt;stroke-linejoin:miter;stroke-opacity:1" d="M 4,393.777 4,376.219 z" id="boundary" inkscape:connector-curvature="0" />
	<path style="fill:none;stroke:red;stroke-width:1px;stroke-linecap:butt;stroke-linejoin:miter;stroke-opacity:1" d="M 81.2531,472.786 63.6956,472.786 z" id="boundary" inkscape:connector-curvature="0" />
	<path style="fill:none;stroke:red;stroke-width:1px;stroke-linecap:butt;stroke-linejoin:miter;stroke-opacity:1" d="M 4,428.892 4,411.335 z" id="boundary" inkscape:connector-curvature="0" />
	<path style="fill:none;stroke:red;stroke-width:1px;stroke-linecap:butt;stroke-linejoin:miter;stroke-opacity:1" d="M 4,411.335 4,393.777 z" id="boundary" inkscape:connector-curvature="0" />
	<path style="fill:none;stroke:red;stroke-width:1px;stroke-linecap:butt;stroke-linejoin:miter;stroke-opacity:1" d="M 4,376.219 4,358.662 z" id="boundary" inkscape:connector-curvature="0" />
	<path style="fill:none;stroke:red;stroke-width:1px;stroke-linecap:butt;stroke-linejoin:miter;stroke-opacity:1" d="M 7.5115,334.081 4,358.662 z" id="boundary" inkscape:connector-curvature="0" />
	<path style="fill:none;stroke:red;stroke-width:1px;stroke-linecap:butt;stroke-linejoin:miter;stroke-opacity:1" d="M 7.5115,316.524 7.5115,334.081 z" id="boundary" inkscape:connector-curvature="0" />
	<path style="fill:none;stroke:red;stroke-width:1px;stroke-linecap:butt;stroke-linejoin:miter;stroke-opacity:1" d="M 63.6956,472.786 46.1381,472.786 z" id="boundary" inkscape:connector-curvature="0" />
	<path style="fill:none;stroke:red;stroke-width:1px;stroke-linecap:butt;stroke-linejoin:miter;stroke-opacity:1" d="M 7.5115,464.007 4,446.45 z" id="boundary" inkscape:connector-curvature="0" />
	<path style="fill:none;stroke:red;stroke-width:1px;stroke-linecap:butt;stroke-linejoin:miter;stroke-opacity:1" d="M 4,446.45 4,428.892 z" id="boundary" inkscape:connector-curvature="0" />
	<path style="fill:none;stroke:red;stroke-width:1px;stroke-linecap:butt;stroke-linejoin:miter;stroke-opacity:1" d="M 37.3593,488.588 46.1381,472.786 z" id="boundary" inkscape:connector-curvature="0" />
	<path style="fill:none;stroke:red;stroke-width:1px;stroke-linecap:butt;stroke-linejoin:miter;stroke-opacity:1" d="M 11.023,481.565 7.5115,464.007 z" id="boundary" inkscape:connector-curvature="0" />
	<path style="fill:none;stroke:red;stroke-width:1px;stroke-linecap:butt;stroke-linejoin:miter;stroke-opacity:1" d="M 151.483,472.786 133.926,472.786 z" id="boundary" inkscape:connector-curvature="0" />
	<path style="fill:none;stroke:red;stroke-width:1px;stroke-linecap:butt;stroke-linejoin:miter;stroke-opacity:1" d="M 11.023,481.565 14.5345,499.122 z" id="boundary" inkscape:connector-curvature="0" />
	<path style="fill:none;stroke:red;stroke-width:1px;stroke-linecap:butt;stroke-linejoin:miter;stroke-opacity:1" d="M 14.5345,499.122 14.5345,516.68 z" id="boundary" inkscape:connector-curvature="0" />
	<path style="fill:none;stroke:red;stroke-width:1px;stroke-linecap:butt;stroke-linejoin:miter;stroke-opacity:1" d="M 33.8478,520.191 14.5345,516.68 z" id="boundary" inkscape:connector-curvature="0" />
	<path style="fill:none;stroke:red;stroke-width:1px;stroke-linecap:butt;stroke-linejoin:miter;stroke-opacity:1" d="M 33.8478,520.191 32.092,543.016 z" id="boundary" inkscape:connector-curvature="0" />
	<path style="fill:none;stroke:red;stroke-width:1px;stroke-linecap:butt;stroke-linejoin:miter;stroke-opacity:1" d="M 32.092,543.016 16.2903,534.237 z" id="boundary" inkscape:connector-curvature="0" />
	<path style="fill:none;stroke:red;stroke-width:1px;stroke-linecap:butt;stroke-linejoin:miter;stroke-opacity:1" d="M 16.2903,534.237 14.5345,516.68 z" id="boundary" inkscape:connector-curvature="0" />
	<path style="fill:none;stroke:red;stroke-width:1px;stroke-linecap:butt;stroke-linejoin:miter;stroke-opacity:1" d="M 37.3593,488.588 14.5345,499.122 z" id="boundary" inkscape:connector-curvature="0" />
	<path style="fill:none;stroke:red;stroke-width:1px;stroke-linecap:butt;stroke-linejoin:miter;stroke-opacity:1" d="M 81.2531,472.786 98.8106,472.786 z" id="boundary" inkscape:connector-curvature="0" />
	<path style="fill:none;stroke:red;stroke-width:1px;stroke-linecap:butt;stroke-linejoin:miter;stroke-opacity:1" d="M 116.368,472.786 98.8106,472.786 z" id="boundary" inkscape:connector-curvature="0" />
	<path style="fill:none;stroke:red;stroke-width:1px;stroke-linecap:butt;stroke-linejoin:miter;stroke-opacity:1" d="M 32.092,543.016 98.8106,472.786 z" id="boundary" inkscape:connector-curvature="0" />
	<path style="fill:none;stroke:red;stroke-width:1px;stroke-linecap:butt;stroke-linejoin:miter;stroke-opacity:1" d="M 133.926,472.786 116.368,472.786 z" id="boundary" inkscape:connector-curvature="0" />
	<path style="fill:none;stroke:red;stroke-width:1px;stroke-linecap:butt;stroke-linejoin:miter;stroke-opacity:1" d="M 186.598,472.786 160.262,488.588 z" id="boundary" inkscape:connector-curvature="0" />
	<path style="fill:none;stroke:red;stroke-width:1px;stroke-linecap:butt;stroke-linejoin:miter;stroke-opacity:1" d="M 160.262,488.588 151.483,472.786 z" id="boundary" inkscape:connector-curvature="0" />
	<path style="fill:none;stroke:red;stroke-width:1px;stroke-linecap:butt;stroke-linejoin:miter;stroke-opacity:1" d="M 204.156,472.786 221.713,472.786 z" id="boundary" inkscape:connector-curvature="0" />
	<path style="fill:none;stroke:red;stroke-width:1px;stroke-linecap:butt;stroke-linejoin:miter;stroke-opacity:1" d="M 239.271,472.786 221.713,472.786 z" id="boundary" inkscape:connector-curvature="0" />
	<path style="fill:none;stroke:red;stroke-width:1px;stroke-linecap:butt;stroke-linejoin:miter;stroke-opacity:1" d="M 186.598,472.786 204.156,472.786 z" id="boundary" inkscape:connector-curvature="0" />
	<path style="fill:none;stroke:red;stroke-width:1px;stroke-linecap:butt;stroke-linejoin:miter;stroke-opacity:1" d="M 188.354,490.343 186.598,472.786 z" id="boundary" inkscape:connector-curvature="0" />
	<path style="fill:none;stroke:red;stroke-width:1px;stroke-linecap:butt;stroke-linejoin:miter;stroke-opacity:1" d="M 274.386,472.786 256.828,472.786 z" id="boundary" inkscape:connector-curvature="0" />
	<path style="fill:none;stroke:red;stroke-width:1px;stroke-linecap:butt;stroke-linejoin:miter;stroke-opacity:1" d="M 256.828,472.786 239.271,472.786 z" id="boundary" inkscape:connector-curvature="0" />
	<path style="fill:none;stroke:red;stroke-width:1px;stroke-linecap:butt;stroke-linejoin:miter;stroke-opacity:1" d="M 291.943,472.786 274.386,472.786 z" id="boundary" inkscape:connector-curvature="0" />
	<path style="fill:none;stroke:red;stroke-width:1px;stroke-linecap:butt;stroke-linejoin:miter;stroke-opacity:1" d="M 274.386,472.786 191.865,534.237 z" id="boundary" inkscape:connector-curvature="0" />
	<path style="fill:none;stroke:red;stroke-width:1px;stroke-linecap:butt;stroke-linejoin:miter;stroke-opacity:1" d="M 291.943,472.786 309.501,472.786 z" id="boundary" inkscape:connector-curvature="0" />
	<path style="fill:none;stroke:red;stroke-width:1px;stroke-linecap:butt;stroke-linejoin:miter;stroke-opacity:1" d="M 327.058,472.786 309.501,472.786 z" id="boundary" inkscape:connector-curvature="0" />
	<path style="fill:none;stroke:red;stroke-width:1px;stroke-linecap:butt;stroke-linejoin:miter;stroke-opacity:1" d="M 344.616,472.786 327.058,472.786 z" id="boundary" inkscape:connector-curvature="0" />
	<path style="fill:none;stroke:red;stroke-width:1px;stroke-linecap:butt;stroke-linejoin:miter;stroke-opacity:1" d="M 162.018,513.168 160.262,488.588 z" id="boundary" inkscape:connector-curvature="0" />
	<path style="fill:none;stroke:red;stroke-width:1px;stroke-linecap:butt;stroke-linejoin:miter;stroke-opacity:1" d="M 188.354,490.343 181.331,520.191 z" id="boundary" inkscape:connector-curvature="0" />
	<path style="fill:none;stroke:red;stroke-width:1px;stroke-linecap:butt;stroke-linejoin:miter;stroke-opacity:1" d="M 181.331,520.191 162.018,513.168 z" id="boundary" inkscape:connector-curvature="0" />
	<path style="fill:none;stroke:red;stroke-width:1px;stroke-linecap:butt;stroke-linejoin:miter;stroke-opacity:1" d="M 162.018,513.168 162.018,530.726 z" id="boundary" inkscape:connector-curvature="0" />
	<path style="fill:none;stroke:red;stroke-width:1px;stroke-linecap:butt;stroke-linejoin:miter;stroke-opacity:1" d="M 176.064,543.016 162.018,530.726 z" id="boundary" inkscape:connector-curvature="0" />
	<path style="fill:none;stroke:red;stroke-width:1px;stroke-linecap:butt;stroke-linejoin:miter;stroke-opacity:1" d="M 191.865,534.237 176.064,543.016 z" id="boundary" inkscape:connector-curvature="0" />
	<path style="fill:none;stroke:red;stroke-width:1px;stroke-linecap:butt;stroke-linejoin:miter;stroke-opacity:1" d="M 181.331,520.191 191.865,534.237 z" id="boundary" inkscape:connector-curvature="0" />
	<path style="fill:none;stroke:red;stroke-width:1px;stroke-linecap:butt;stroke-linejoin:miter;stroke-opacity:1" d="M 344.616,472.786 362.173,472.786 z" id="boundary" inkscape:connector-curvature="0" />
	<path style="fill:none;stroke:red;stroke-width:1px;stroke-linecap:butt;stroke-linejoin:miter;stroke-opacity:1" d="M 379.731,472.786 362.173,472.786 z" id="boundary" inkscape:connector-curvature="0" />
	<path style="fill:none;stroke:red;stroke-width:1px;stroke-linecap:butt;stroke-linejoin:miter;stroke-opacity:1" d="M 397.288,472.786 414.846,472.786 z" id="boundary" inkscape:connector-curvature="0" />
	<path style="fill:none;stroke:red;stroke-width:1px;stroke-linecap:butt;stroke-linejoin:miter;stroke-opacity:1" d="M 379.731,472.786 397.288,472.786 z" id="boundary" inkscape:connector-curvature="0" />
	<path style="fill:none;stroke:red;stroke-width:1px;stroke-linecap:butt;stroke-linejoin:miter;stroke-opacity:1" d="M 414.846,472.786 432.404,472.786 z" id="boundary" inkscape:connector-curvature="0" />
	<path style="fill:none;stroke:red;stroke-width:1px;stroke-linecap:butt;stroke-linejoin:miter;stroke-opacity:1" d="M 416.602,298.966 428.892,313.012 z" id="boundary" inkscape:connector-curvature="0" />
	<path style="fill:none;stroke:red;stroke-width:1px;stroke-linecap:butt;stroke-linejoin:miter;stroke-opacity:1" d="M 428.892,313.012 446.45,313.012 z" id="boundary" inkscape:connector-curvature="0" />
	<path style="fill:none;stroke:red;stroke-width:1px;stroke-linecap:butt;stroke-linejoin:miter;stroke-opacity:1" d="M 464.007,313.012 481.565,313.012 z" id="boundary" inkscape:connector-curvature="0" />
	<path style="fill:none;stroke:red;stroke-width:1px;stroke-linecap:butt;stroke-linejoin:miter;stroke-opacity:1" d="M 499.122,313.012 481.565,313.012 z" id="boundary" inkscape:connector-curvature="0" />
	<path style="fill:none;stroke:red;stroke-width:1px;stroke-linecap:butt;stroke-linejoin:miter;stroke-opacity:1" d="M 464.007,313.012 446.45,313.012 z" id="boundary" inkscape:connector-curvature="0" />
	<path style="fill:none;stroke:red;stroke-width:1px;stroke-linecap:butt;stroke-linejoin:miter;stroke-opacity:1" d="M 516.68,313.012 534.237,313.012 z" id="boundary" inkscape:connector-curvature="0" />
	<path style="fill:none;stroke:red;stroke-width:1px;stroke-linecap:butt;stroke-linejoin:miter;stroke-opacity:1" d="M 551.795,313.012 534.237,313.012 z" id="boundary" inkscape:connector-curvature="0" />
	<path style="fill:none;stroke:red;stroke-width:1px;stroke-linecap:butt;stroke-linejoin:miter;stroke-opacity:1" d="M 569.352,313.012 586.91,313.012 z" id="boundary" inkscape:connector-curvature="0" />
	<path style="fill:none;stroke:red;stroke-width:1px;stroke-linecap:butt;stroke-linejoin:miter;stroke-opacity:1" d="M 604.467,313.012 586.91,313.012 z" id="boundary" inkscape:connector-curvature="0" />
	<path style="fill:none;stroke:red;stroke-width:1px;stroke-linecap:butt;stroke-linejoin:miter;stroke-opacity:1" d="M 569.352,313.012 551.795,313.012 z" id="boundary" inkscape:connector-curvature="0" />
	<path style="fill:none;stroke:red;stroke-width:1px;stroke-linecap:butt;stroke-linejoin:miter;stroke-opacity:1" d="M 516.68,313.012 499.122,313.012 z" id="boundary" inkscape:connector-curvature="0" />
	<path style="fill:none;stroke:red;stroke-width:1px;stroke-linecap:butt;stroke-linejoin:miter;stroke-opacity:1" d="M 622.025,313.012 639.582,313.012 z" id="boundary" inkscape:connector-curvature="0" />
	<path style="fill:none;stroke:red;stroke-width:1px;stroke-linecap:butt;stroke-linejoin:miter;stroke-opacity:1" d="M 657.14,316.524 674.697,316.524 z" id="boundary" inkscape:connector-curvature="0" />
	<path style="fill:none;stroke:red;stroke-width:1px;stroke-linecap:butt;stroke-linejoin:miter;stroke-opacity:1" d="M 657.14,316.524 639.582,313.012 z" id="boundary" inkscape:connector-curvature="0" />
	<path style="fill:none;stroke:red;stroke-width:1px;stroke-linecap:butt;stroke-linejoin:miter;stroke-opacity:1" d="M 692.255,316.524 674.697,316.524 z" id="boundary" inkscape:connector-curvature="0" />
	<path style="fill:none;stroke:red;stroke-width:1px;stroke-linecap:butt;stroke-linejoin:miter;stroke-opacity:1" d="M 709.812,316.524 692.255,316.524 z" id="boundary" inkscape:connector-curvature="0" />
	<path style="fill:none;stroke:red;stroke-width:1px;stroke-linecap:butt;stroke-linejoin:miter;stroke-opacity:1" d="M 604.467,313.012 622.025,313.012 z" id="boundary" inkscape:connector-curvature="0" />
	<path style="fill:none;stroke:red;stroke-width:1px;stroke-linecap:butt;stroke-linejoin:miter;stroke-opacity:1" d="M 709.812,316.524 727.37,316.524 z" id="boundary" inkscape:connector-curvature="0" />
	<path style="fill:none;stroke:red;stroke-width:1px;stroke-linecap:butt;stroke-linejoin:miter;stroke-opacity:1" d="M 744.927,316.524 727.37,316.524 z" id="boundary" inkscape:connector-curvature="0" />
	<path style="fill:none;stroke:red;stroke-width:1px;stroke-linecap:butt;stroke-linejoin:miter;stroke-opacity:1" d="M 808.135,305.989 797.6,320.035 z" id="boundary" inkscape:connector-curvature="0" />
	<path style="fill:none;stroke:red;stroke-width:1px;stroke-linecap:butt;stroke-linejoin:miter;stroke-opacity:1" d="M 797.6,320.035 780.042,320.035 z" id="boundary" inkscape:connector-curvature="0" />
	<path style="fill:none;stroke:red;stroke-width:1px;stroke-linecap:butt;stroke-linejoin:miter;stroke-opacity:1" d="M 780.042,320.035 762.485,318.28 z" id="boundary" inkscape:connector-curvature="0" />
	<path style="fill:none;stroke:red;stroke-width:1px;stroke-linecap:butt;stroke-linejoin:miter;stroke-opacity:1" d="M 744.927,316.524 762.485,318.28 z" id="boundary" inkscape:connector-curvature="0" />
	<path style="fill:none;stroke:red;stroke-width:1px;stroke-linecap:butt;stroke-linejoin:miter;stroke-opacity:1" d="M 855.54,281.409 866.074,265.607 z" id="boundary" inkscape:connector-curvature="0" />
	<path style="fill:none;stroke:red;stroke-width:1px;stroke-linecap:butt;stroke-linejoin:miter;stroke-opacity:1" d="M 876.609,251.561 866.074,265.607 z" id="boundary" inkscape:connector-curvature="0" />
	<path style="fill:none;stroke:red;stroke-width:1px;stroke-linecap:butt;stroke-linejoin:miter;stroke-opacity:1" d="M 822.181,295.455 837.982,286.676 z" id="boundary" inkscape:connector-curvature="0" />
	<path style="fill:none;stroke:red;stroke-width:1px;stroke-linecap:butt;stroke-linejoin:miter;stroke-opacity:1" d="M 837.982,286.676 855.54,281.409 z" id="boundary" inkscape:connector-curvature="0" />
	<path style="fill:none;stroke:red;stroke-width:1px;stroke-linecap:butt;stroke-linejoin:miter;stroke-opacity:1" d="M 885.388,235.759 876.609,251.561 z" id="boundary" inkscape:connector-curvature="0" />
	<path style="fill:none;stroke:red;stroke-width:1px;stroke-linecap:butt;stroke-linejoin:miter;stroke-opacity:1" d="M 885.388,235.759 902.945,235.759 z" id="boundary" inkscape:connector-curvature="0" />
	<path style="fill:none;stroke:red;stroke-width:1px;stroke-linecap:butt;stroke-linejoin:miter;stroke-opacity:1" d="M 902.945,235.759 911.724,251.561 z" id="boundary" inkscape:connector-curvature="0" />
	<path style="fill:none;stroke:red;stroke-width:1px;stroke-linecap:butt;stroke-linejoin:miter;stroke-opacity:1" d="M 911.724,251.561 920.503,267.363 z" id="boundary" inkscape:connector-curvature="0" />
	<path style="fill:none;stroke:red;stroke-width:1px;stroke-linecap:butt;stroke-linejoin:miter;stroke-opacity:1" d="M 948.595,284.92 931.037,281.409 z" id="boundary" inkscape:connector-curvature="0" />
	<path style="fill:none;stroke:red;stroke-width:1px;stroke-linecap:butt;stroke-linejoin:miter;stroke-opacity:1" d="M 931.037,281.409 920.503,267.363 z" id="boundary" inkscape:connector-curvature="0" />
	<path style="fill:none;stroke:red;stroke-width:1px;stroke-linecap:butt;stroke-linejoin:miter;stroke-opacity:1" d="M 962.641,295.455 948.595,284.92 z" id="boundary" inkscape:connector-curvature="0" />
	<path style="fill:none;stroke:red;stroke-width:1px;stroke-linecap:butt;stroke-linejoin:miter;stroke-opacity:1" d="M 822.181,295.455 808.135,305.989 z" id="boundary" inkscape:connector-curvature="0" />
	<path style="fill:none;stroke:red;stroke-width:1px;stroke-linecap:butt;stroke-linejoin:miter;stroke-opacity:1" d="M 962.641,295.455 976.687,305.989 z" id="boundary" inkscape:connector-curvature="0" />
	<path style="fill:none;stroke:red;stroke-width:1px;stroke-linecap:butt;stroke-linejoin:miter;stroke-opacity:1" d="M 985.465,421.869 985.465,404.312 z" id="boundary" inkscape:connector-curvature="0" />
	<path style="fill:none;stroke:red;stroke-width:1px;stroke-linecap:butt;stroke-linejoin:miter;stroke-opacity:1" d="M 985.465,404.312 988.977,386.754 z" id="boundary" inkscape:connector-curvature="0" />
	<path style="fill:none;stroke:red;stroke-width:1px;stroke-linecap:butt;stroke-linejoin:miter;stroke-opacity:1" d="M 987.221,320.035 996,335.837 z" id="boundary" inkscape:connector-curvature="0" />
	<path style="fill:none;stroke:red;stroke-width:1px;stroke-linecap:butt;stroke-linejoin:miter;stroke-opacity:1" d="M 996,335.837 988.977,369.196 z" id="boundary" inkscape:connector-curvature="0" />
	<path style="fill:none;stroke:red;stroke-width:1px;stroke-linecap:butt;stroke-linejoin:miter;stroke-opacity:1" d="M 988.977,386.754 988.977,369.196 z" id="boundary" inkscape:connector-curvature="0" />
	<path style="fill:none;stroke:red;stroke-width:1px;stroke-linecap:butt;stroke-linejoin:miter;stroke-opacity:1" d="M 985.465,456.984 985.465,439.427 z" id="boundary" inkscape:connector-curvature="0" />
	<path style="fill:none;stroke:red;stroke-width:1px;stroke-linecap:butt;stroke-linejoin:miter;stroke-opacity:1" d="M 985.465,439.427 985.465,421.869 z" id="boundary" inkscape:connector-curvature="0" />
	<path style="fill:none;stroke:red;stroke-width:1px;stroke-linecap:butt;stroke-linejoin:miter;stroke-opacity:1" d="M 976.687,305.989 987.221,320.035 z" id="boundary" inkscape:connector-curvature="0" />
	<path style="fill:none;stroke:red;stroke-width:1px;stroke-linecap:butt;stroke-linejoin:miter;stroke-opacity:1" d="M 449.961,472.786 467.519,472.786 z" id="boundary" inkscape:connector-curvature="0" />
	<path style="fill:none;stroke:red;stroke-width:1px;stroke-linecap:butt;stroke-linejoin:miter;stroke-opacity:1" d="M 449.961,472.786 432.404,472.786 z" id="boundary" inkscape:connector-curvature="0" />
	<path style="fill:none;stroke:red;stroke-width:1px;stroke-linecap:butt;stroke-linejoin:miter;stroke-opacity:1" d="M 485.076,472.786 467.519,472.786 z" id="boundary" inkscape:connector-curvature="0" />
	<path style="fill:none;stroke:red;stroke-width:1px;stroke-linecap:butt;stroke-linejoin:miter;stroke-opacity:1" d="M 502.634,472.786 485.076,472.786 z" id="boundary" inkscape:connector-curvature="0" />
	<path style="fill:none;stroke:red;stroke-width:1px;stroke-linecap:butt;stroke-linejoin:miter;stroke-opacity:1" d="M 520.191,472.786 537.749,472.786 z" id="boundary" inkscape:connector-curvature="0" />
	<path style="fill:none;stroke:red;stroke-width:1px;stroke-linecap:butt;stroke-linejoin:miter;stroke-opacity:1" d="M 555.306,472.786 537.749,472.786 z" id="boundary" inkscape:connector-curvature="0" />
	<path style="fill:none;stroke:red;stroke-width:1px;stroke-linecap:butt;stroke-linejoin:miter;stroke-opacity:1" d="M 572.864,472.786 590.421,472.786 z" id="boundary" inkscape:connector-curvature="0" />
	<path style="fill:none;stroke:red;stroke-width:1px;stroke-linecap:butt;stroke-linejoin:miter;stroke-opacity:1" d="M 607.979,472.786 590.421,472.786 z" id="boundary" inkscape:connector-curvature="0" />
	<path style="fill:none;stroke:red;stroke-width:1px;stroke-linecap:butt;stroke-linejoin:miter;stroke-opacity:1" d="M 572.864,472.786 555.306,472.786 z" id="boundary" inkscape:connector-curvature="0" />
	<path style="fill:none;stroke:red;stroke-width:1px;stroke-linecap:butt;stroke-linejoin:miter;stroke-opacity:1" d="M 520.191,472.786 502.634,472.786 z" id="boundary" inkscape:connector-curvature="0" />
	<path style="fill:none;stroke:red;stroke-width:1px;stroke-linecap:butt;stroke-linejoin:miter;stroke-opacity:1" d="M 625.536,472.786 643.094,472.786 z" id="boundary" inkscape:connector-curvature="0" />
	<path style="fill:none;stroke:red;stroke-width:1px;stroke-linecap:butt;stroke-linejoin:miter;stroke-opacity:1" d="M 660.651,472.786 678.209,472.786 z" id="boundary" inkscape:connector-curvature="0" />
	<path style="fill:none;stroke:red;stroke-width:1px;stroke-linecap:butt;stroke-linejoin:miter;stroke-opacity:1" d="M 695.766,472.786 678.209,472.786 z" id="boundary" inkscape:connector-curvature="0" />
	<path style="fill:none;stroke:red;stroke-width:1px;stroke-linecap:butt;stroke-linejoin:miter;stroke-opacity:1" d="M 660.651,472.786 643.094,472.786 z" id="boundary" inkscape:connector-curvature="0" />
	<path style="fill:none;stroke:red;stroke-width:1px;stroke-linecap:butt;stroke-linejoin:miter;stroke-opacity:1" d="M 713.324,472.786 730.881,472.786 z" id="boundary" inkscape:connector-curvature="0" />
	<path style="fill:none;stroke:red;stroke-width:1px;stroke-linecap:butt;stroke-linejoin:miter;stroke-opacity:1" d="M 748.439,472.786 730.881,472.786 z" id="boundary" inkscape:connector-curvature="0" />
	<path style="fill:none;stroke:red;stroke-width:1px;stroke-linecap:butt;stroke-linejoin:miter;stroke-opacity:1" d="M 765.996,472.786 783.554,472.786 z" id="boundary" inkscape:connector-curvature="0" />
	<path style="fill:none;stroke:red;stroke-width:1px;stroke-linecap:butt;stroke-linejoin:miter;stroke-opacity:1" d="M 797.6,483.32 783.554,472.786 z" id="boundary" inkscape:connector-curvature="0" />
	<path style="fill:none;stroke:red;stroke-width:1px;stroke-linecap:butt;stroke-linejoin:miter;stroke-opacity:1" d="M 748.439,472.786 765.996,472.786 z" id="boundary" inkscape:connector-curvature="0" />
	<path style="fill:none;stroke:red;stroke-width:1px;stroke-linecap:butt;stroke-linejoin:miter;stroke-opacity:1" d="M 695.766,472.786 713.324,472.786 z" id="boundary" inkscape:connector-curvature="0" />
	<path style="fill:none;stroke:red;stroke-width:1px;stroke-linecap:butt;stroke-linejoin:miter;stroke-opacity:1" d="M 607.979,472.786 625.536,472.786 z" id="boundary" inkscape:connector-curvature="0" />
	<path style="fill:none;stroke:red;stroke-width:1px;stroke-linecap:butt;stroke-linejoin:miter;stroke-opacity:1" d="M 797.6,483.32 801.112,500.878 z" id="boundary" inkscape:connector-curvature="0" />
	<path style="fill:none;stroke:red;stroke-width:1px;stroke-linecap:butt;stroke-linejoin:miter;stroke-opacity:1" d="M 830.959,488.588 855.54,481.565 z" id="boundary" inkscape:connector-curvature="0" />
	<path style="fill:none;stroke:red;stroke-width:1px;stroke-linecap:butt;stroke-linejoin:miter;stroke-opacity:1" d="M 855.54,481.565 846.761,497.366 z" id="boundary" inkscape:connector-curvature="0" />
	<path style="fill:none;stroke:red;stroke-width:1px;stroke-linecap:butt;stroke-linejoin:miter;stroke-opacity:1" d="M 830.959,488.588 830.959,506.145 z" id="boundary" inkscape:connector-curvature="0" />
	<path style="fill:none;stroke:red;stroke-width:1px;stroke-linecap:butt;stroke-linejoin:miter;stroke-opacity:1" d="M 855.54,481.565 869.586,493.855 z" id="boundary" inkscape:connector-curvature="0" />
	<path style="fill:none;stroke:red;stroke-width:1px;stroke-linecap:butt;stroke-linejoin:miter;stroke-opacity:1" d="M 869.586,493.855 880.12,507.901 z" id="boundary" inkscape:connector-curvature="0" />
	<path style="fill:none;stroke:red;stroke-width:1px;stroke-linecap:butt;stroke-linejoin:miter;stroke-opacity:1" d="M 846.761,497.366 830.959,506.145 z" id="boundary" inkscape:connector-curvature="0" />
	<path style="fill:none;stroke:red;stroke-width:1px;stroke-linecap:butt;stroke-linejoin:miter;stroke-opacity:1" d="M 855.54,481.565 925.77,488.588 z" id="boundary" inkscape:connector-curvature="0" />
	<path style="fill:none;stroke:red;stroke-width:1px;stroke-linecap:butt;stroke-linejoin:miter;stroke-opacity:1" d="M 960.885,488.588 987.221,474.542 z" id="boundary" inkscape:connector-curvature="0" />
	<path style="fill:none;stroke:red;stroke-width:1px;stroke-linecap:butt;stroke-linejoin:miter;stroke-opacity:1" d="M 987.221,474.542 992.488,492.099 z" id="boundary" inkscape:connector-curvature="0" />
	<path style="fill:none;stroke:red;stroke-width:1px;stroke-linecap:butt;stroke-linejoin:miter;stroke-opacity:1" d="M 960.885,488.588 943.327,493.855 z" id="boundary" inkscape:connector-curvature="0" />
	<path style="fill:none;stroke:red;stroke-width:1px;stroke-linecap:butt;stroke-linejoin:miter;stroke-opacity:1" d="M 943.327,493.855 925.77,488.588 z" id="boundary" inkscape:connector-curvature="0" />
	<path style="fill:none;stroke:red;stroke-width:1px;stroke-linecap:butt;stroke-linejoin:miter;stroke-opacity:1" d="M 915.235,502.634 925.77,488.588 z" id="boundary" inkscape:connector-curvature="0" />
	<path style="fill:none;stroke:red;stroke-width:1px;stroke-linecap:butt;stroke-linejoin:miter;stroke-opacity:1" d="M 960.885,488.588 966.152,506.145 z" id="boundary" inkscape:connector-curvature="0" />
	<path style="fill:none;stroke:red;stroke-width:1px;stroke-linecap:butt;stroke-linejoin:miter;stroke-opacity:1" d="M 992.488,492.099 966.152,506.145 z" id="boundary" inkscape:connector-curvature="0" />
	<path style="fill:none;stroke:red;stroke-width:1px;stroke-linecap:butt;stroke-linejoin:miter;stroke-opacity:1" d="M 987.221,474.542 985.465,456.984 z" id="boundary" inkscape:connector-curvature="0" />
	<path style="fill:none;stroke:red;stroke-width:1px;stroke-linecap:butt;stroke-linejoin:miter;stroke-opacity:1" d="M 830.959,506.145 823.936,523.703 z" id="boundary" inkscape:connector-curvature="0" />
	<path style="fill:none;stroke:red;stroke-width:1px;stroke-linecap:butt;stroke-linejoin:miter;stroke-opacity:1" d="M 801.112,518.435 801.112,500.878 z" id="boundary" inkscape:connector-curvature="0" />
	<path style="fill:none;stroke:red;stroke-width:1px;stroke-linecap:butt;stroke-linejoin:miter;stroke-opacity:1" d="M 804.623,535.993 823.936,523.703 z" id="boundary" inkscape:connector-curvature="0" />
	<path style="fill:none;stroke:red;stroke-width:1px;stroke-linecap:butt;stroke-linejoin:miter;stroke-opacity:1" d="M 818.669,546.527 804.623,535.993 z" id="boundary" inkscape:connector-curvature="0" />
	<path style="fill:none;stroke:red;stroke-width:1px;stroke-linecap:butt;stroke-linejoin:miter;stroke-opacity:1" d="M 804.623,535.993 801.112,518.435 z" id="boundary" inkscape:connector-curvature="0" />
	<path style="fill:none;stroke:red;stroke-width:1px;stroke-linecap:butt;stroke-linejoin:miter;stroke-opacity:1" d="M 880.12,507.901 818.669,546.527 z" id="boundary" inkscape:connector-curvature="0" />
	<path style="fill:none;stroke:red;stroke-width:1px;stroke-linecap:butt;stroke-linejoin:miter;stroke-opacity:1" d="M 880.12,507.901 897.678,514.924 z" id="boundary" inkscape:connector-curvature="0" />
	<path style="fill:none;stroke:red;stroke-width:1px;stroke-linecap:butt;stroke-linejoin:miter;stroke-opacity:1" d="M 966.152,523.703 969.664,541.26 z" id="boundary" inkscape:connector-curvature="0" />
	<path style="fill:none;stroke:red;stroke-width:1px;stroke-linecap:butt;stroke-linejoin:miter;stroke-opacity:1" d="M 915.235,502.634 897.678,514.924 z" id="boundary" inkscape:connector-curvature="0" />
	<path style="fill:none;stroke:red;stroke-width:1px;stroke-linecap:butt;stroke-linejoin:miter;stroke-opacity:1" d="M 987.221,521.947 966.152,506.145 z" id="boundary" inkscape:connector-curvature="0" />
	<path style="fill:none;stroke:red;stroke-width:1px;stroke-linecap:butt;stroke-linejoin:miter;stroke-opacity:1" d="M 966.152,523.703 966.152,506.145 z" id="boundary" inkscape:connector-curvature="0" />
	<path style="fill:none;stroke:red;stroke-width:1px;stroke-linecap:butt;stroke-linejoin:miter;stroke-opacity:1" d="M 987.221,521.947 987.221,543.016 z" id="boundary" inkscape:connector-curvature="0" />
	<path style="fill:none;stroke:red;stroke-width:1px;stroke-linecap:butt;stroke-linejoin:miter;stroke-opacity:1" d="M 987.221,543.016 969.664,541.26 z" id="boundary" inkscape:connector-curvature="0" />
	<path style="fill:none;stroke:red;stroke-width:1px;stroke-linecap:butt;stroke-linejoin:miter;stroke-opacity:1" d="M 992.488,492.099 987.221,543.016 z" id="boundary" inkscape:connector-curvature="0" />
	<circle cx="4" cy="358.662" r="4" fill="#0" id="circle0"/>
	<circle cx="4" cy="376.219" r="4" fill="#0" id="circle1"/>
	<circle cx="4" cy="393.777" r="4" fill="#0" id="circle2"/>
	<circle cx="4" cy="411.335" r="4" fill="#0" id="circle3"/>
	<circle cx="4" cy="428.892" r="4" fill="#0" id="circle4"/>
	<circle cx="4" cy="446.45" r="4" fill="#0" id="circle5"/>
	<circle cx="7.5115" cy="133.926" r="4" fill="#0" id="circle6"/>
	<circle cx="7.5115" cy="151.483" r="4" fill="#0" id="circle7"/>
	<circle cx="7.5115" cy="169.041" r="4" fill="#0" id="circle8"/>
	<circle cx="7.5115" cy="298.966" r="4" fill="#0" id="circle9"/>
	<circle cx="7.5115" cy="316.524" r="4" fill="#0" id="circle10"/>
	<circle cx="7.5115" cy="334.081" r="4" fill="#0" id="circle11"/>
	<circle cx="7.5115" cy="464.007" r="4" fill="#0" id="circle12"/>
	<circle cx="9.26726" cy="186.598" r="4" fill="#0" id="circle13"/>
	<circle cx="11.023" cy="204.156" r="4" fill="#0" id="circle14"/>
	<circle cx="11.023" cy="221.713" r="4" fill="#0" id="circle15"/>
	<circle cx="11.023" cy="239.271" r="4" fill="#0" id="circle16"/>
	<circle cx="11.023" cy="256.828" r="4" fill="#0" id="circle17"/>
	<circle cx="11.023" cy="274.386" r="4" fill="#0" id="circle18"/>
	<circle cx="11.023" cy="481.565" r="4" fill="#0" id="circle19"/>
	<circle cx="14.5345" cy="116.368" r="4" fill="#0" id="circle20"/>
	<circle cx="14.5345" cy="499.122" r="4" fill="#0" id="circle21"/>
	<circle cx="14.5345" cy="516.68" r="4" fill="#0" id="circle22"/>
	<circle cx="16.2903" cy="534.237" r="4" fill="#0" id="circle23"/>
	<circle cx="25.069" cy="102.322" r="4" fill="#0" id="circle24"/>
	<circle cx="32.092" cy="543.016" r="4" fill="#0" id="circle25"/>
	<circle cx="33.8478" cy="520.191" r="4" fill="#0" id="circle26"/>
	<circle cx="35.6035" cy="88.2761" r="4" fill="#0" id="circle27"/>
	<circle cx="37.3593" cy="488.588" r="4" fill="#0" id="circle28"/>
	<circle cx="46.1381" cy="472.786" r="4" fill="#0" id="circle29"/>
	<circle cx="49.6496" cy="77.7416" r="4" fill="#0" id="circle30"/>
	<circle cx="63.6956" cy="472.786" r="4" fill="#0" id="circle31"/>
	<circle cx="65.4513" cy="68.9628" r="4" fill="#0" id="circle32"/>
	<circle cx="74.2301" cy="53.1611" r="4" fill="#0" id="circle33"/>
	<circle cx="81.2531" cy="472.786" r="4" fill="#0" id="circle34"/>
	<circle cx="84.7646" cy="39.115" r="4" fill="#0" id="circle35"/>
	<circle cx="91.7876" cy="18.046" r="4" fill="#0" id="circle36"/>
	<circle cx="98.8106" cy="472.786" r="4" fill="#0" id="circle37"/>
	<circle cx="102.322" cy="4" r="4" fill="#0" id="circle38"/>
	<circle cx="116.368" cy="472.786" r="4" fill="#0" id="circle39"/>
	<circle cx="118.124" cy="12.7788" r="4" fill="#0" id="circle40"/>
	<circle cx="121.635" cy="30.3363" r="4" fill="#0" id="circle41"/>
	<circle cx="132.17" cy="44.3823" r="4" fill="#0" id="circle42"/>
	<circle cx="133.926" cy="472.786" r="4" fill="#0" id="circle43"/>
	<circle cx="139.193" cy="61.9398" r="4" fill="#0" id="circle44"/>
	<circle cx="147.972" cy="77.7416" r="4" fill="#0" id="circle45"/>
	<circle cx="151.483" cy="472.786" r="4" fill="#0" id="circle46"/>
	<circle cx="160.262" cy="488.588" r="4" fill="#0" id="circle47"/>
	<circle cx="162.018" cy="90.0319" r="4" fill="#0" id="circle48"/>
	<circle cx="162.018" cy="513.168" r="4" fill="#0" id="circle49"/>
	<circle cx="162.018" cy="530.726" r="4" fill="#0" id="circle50"/>
	<circle cx="174.308" cy="104.078" r="4" fill="#0" id="circle51"/>
	<circle cx="176.064" cy="543.016" r="4" fill="#0" id="circle52"/>
	<circle cx="177.819" cy="197.133" r="4" fill="#0" id="circle53"/>
	<circle cx="181.331" cy="169.041" r="4" fill="#0" id="circle54"/>
	<circle cx="181.331" cy="520.191" r="4" fill="#0" id="circle55"/>
	<circle cx="183.087" cy="119.88" r="4" fill="#0" id="circle56"/>
	<circle cx="186.598" cy="472.786" r="4" fill="#0" id="circle57"/>
	<circle cx="188.354" cy="137.437" r="4" fill="#0" id="circle58"/>
	<circle cx="188.354" cy="490.343" r="4" fill="#0" id="circle59"/>
	<circle cx="191.865" cy="534.237" r="4" fill="#0" id="circle60"/>
	<circle cx="195.377" cy="204.156" r="4" fill="#0" id="circle61"/>
	<circle cx="204.156" cy="472.786" r="4" fill="#0" id="circle62"/>
	<circle cx="212.935" cy="204.156" r="4" fill="#0" id="circle63"/>
	<circle cx="221.713" cy="472.786" r="4" fill="#0" id="circle64"/>
	<circle cx="230.492" cy="211.179" r="4" fill="#0" id="circle65"/>
	<circle cx="239.271" cy="472.786" r="4" fill="#0" id="circle66"/>
	<circle cx="248.05" cy="214.69" r="4" fill="#0" id="circle67"/>
	<circle cx="256.828" cy="472.786" r="4" fill="#0" id="circle68"/>
	<circle cx="265.607" cy="218.202" r="4" fill="#0" id="circle69"/>
	<circle cx="274.386" cy="472.786" r="4" fill="#0" id="circle70"/>
	<circle cx="283.165" cy="218.202" r="4" fill="#0" id="circle71"/>
	<circle cx="291.943" cy="472.786" r="4" fill="#0" id="circle72"/>
	<circle cx="300.722" cy="218.202" r="4" fill="#0" id="circle73"/>
	<circle cx="309.501" cy="472.786" r="4" fill="#0" id="circle74"/>
	<circle cx="318.28" cy="221.713" r="4" fill="#0" id="circle75"/>
	<circle cx="327.058" cy="472.786" r="4" fill="#0" id="circle76"/>
	<circle cx="335.837" cy="228.736" r="4" fill="#0" id="circle77"/>
	<circle cx="344.616" cy="472.786" r="4" fill="#0" id="circle78"/>
	<circle cx="351.639" cy="237.515" r="4" fill="#0" id="circle79"/>
	<circle cx="362.173" cy="472.786" r="4" fill="#0" id="circle80"/>
	<circle cx="367.441" cy="246.294" r="4" fill="#0" id="circle81"/>
	<circle cx="379.731" cy="472.786" r="4" fill="#0" id="circle82"/>
	<circle cx="381.487" cy="256.828" r="4" fill="#0" id="circle83"/>
	<circle cx="393.777" cy="270.874" r="4" fill="#0" id="circle84"/>
	<circle cx="397.288" cy="472.786" r="4" fill="#0" id="circle85"/>
	<circle cx="404.312" cy="284.92" r="4" fill="#0" id="circle86"/>
	<circle cx="414.846" cy="472.786" r="4" fill="#0" id="circle87"/>
	<circle cx="416.602" cy="298.966" r="4" fill="#0" id="circle88"/>
	<circle cx="428.892" cy="313.012" r="4" fill="#0" id="circle89"/>
	<circle cx="432.404" cy="472.786" r="4" fill="#0" id="circle90"/>
	<circle cx="446.45" cy="313.012" r="4" fill="#0" id="circle91"/>
	<circle cx="449.961" cy="472.786" r="4" fill="#0" id="circle92"/>
	<circle cx="464.007" cy="313.012" r="4" fill="#0" id="circle93"/>
	<circle cx="467.519" cy="472.786" r="4" fill="#0" id="circle94"/>
	<circle cx="481.565" cy="313.012" r="4" fill="#0" id="circle95"/>
	<circle cx="485.076" cy="472.786" r="4" fill="#0" id="circle96"/>
	<circle cx="499.122" cy="313.012" r="4" fill="#0" id="circle97"/>
	<circle cx="502.634" cy="472.786" r="4" fill="#0" id="circle98"/>
	<circle cx="516.68" cy="313.012" r="4" fill="#0" id="circle99"/>
	<circle cx="520.191" cy="472.786" r="4" fill="#0" id="circle100"/>
	<circle cx="534.237" cy="313.012" r="4" fill="#0" id="circle101"/>
	<circle cx="537.749" cy="472.786" r="4" fill="#0" id="circle102"/>
	<circle cx="551.795" cy="313.012" r="4" fill="#0" id="circle103"/>
	<circle cx="555.306" cy="472.786" r="4" fill="#0" id="circle104"/>
	<circle cx="569.352" cy="313.012" r="4" fill="#0" id="circle105"/>
	<circle cx="572.864" cy="472.786" r="4" fill="#0" id="circle106"/>
	<circle cx="586.91" cy="313.012" r="4" fill="#0" id="circle107"/>
	<circle cx="590.421" cy="472.786" r="4" fill="#0" id="circle108"/>
	<circle cx="604.467" cy="313.012" r="4" fill="#0" id="circle109"/>
	<circle cx="607.979" cy="472.786" r="4" fill="#0" id="circle110"/>
	<circle cx="622.025" cy="313.012" r="4" fill="#0" id="circle111"/>
	<circle cx="625.536" cy="472.786" r="4" fill="#0" id="circle112"/>
	<circle cx="639.582" cy="313.012" r="4" fill="#0" id="circle113"/>
	<circle cx="643.094" cy="472.786" r="4" fill="#0" id="circle114"/>
	<circle cx="657.14" cy="316.524" r="4" fill="#0" id="circle115"/>
	<circle cx="660.651" cy="472.786" r="4" fill="#0" id="circle116"/>
	<circle cx="674.697" cy="316.524" r="4" fill="#0" id="circle117"/>
	<circle cx="678.209" cy="472.786" r="4" fill="#0" id="circle118"/>
	<circle cx="692.255" cy="316.524" r="4" fill="#0" id="circle119"/>
	<circle cx="695.766" cy="472.786" r="4" fill="#0" id="circle120"/>
	<circle cx="709.812" cy="316.524" r="4" fill="#0" id="circle121"/>
	<circle cx="713.324" cy="472.786" r="4" fill="#0" id="circle122"/>
	<circle cx="727.37" cy="316.524" r="4" fill="#0" id="circle123"/>
	<circle cx="730.881" cy="472.786" r="4" fill="#0" id="circle124"/>
	<circle cx="744.927" cy="316.524" r="4" fill="#0" id="circle125"/>
	<circle cx="748.439" cy="472.786" r="4" fill="#0" id="circle126"/>
	<circle cx="762.485" cy="318.28" r="4" fill="#0" id="circle127"/>
	<circle cx="765.996" cy="472.786" r="4" fill="#0" id="circle128"/>
	<circle cx="780.042" cy="320.035" r="4" fill="#0" id="circle129"/>
	<circle cx="783.554" cy="472.786" r="4" fill="#0" id="circle130"/>
	<circle cx="797.6" cy="320.035" r="4" fill="#0" id="circle131"/>
	<circle cx="797.6" cy="483.32" r="4" fill="#0" id="circle132"/>
	<circle cx="801.112" cy="500.878" r="4" fill="#0" id="circle133"/>
	<circle cx="801.112" cy="518.435" r="4" fill="#0" id="circle134"/>
	<circle cx="804.623" cy="535.993" r="4" fill="#0" id="circle135"/>
	<circle cx="808.135" cy="305.989" r="4" fill="#0" id="circle136"/>
	<circle cx="818.669" cy="546.527" r="4" fill="#0" id="circle137"/>
	<circle cx="822.181" cy="295.455" r="4" fill="#0" id="circle138"/>
	<circle cx="823.936" cy="523.703" r="4" fill="#0" id="circle139"/>
	<circle cx="830.959" cy="488.588" r="4" fill="#0" id="circle140"/>
	<circle cx="830.959" cy="506.145" r="4" fill="#0" id="circle141"/>
	<circle cx="837.982" cy="286.676" r="4" fill="#0" id="circle142"/>
	<circle cx="846.761" cy="497.366" r="4" fill="#0" id="circle143"/>
	<circle cx="855.54" cy="281.409" r="4" fill="#0" id="circle144"/>
	<circle cx="855.54" cy="481.565" r="4" fill="#0" id="circle145"/>
	<circle cx="866.074" cy="265.607" r="4" fill="#0" id="circle146"/>
	<circle cx="869.586" cy="493.855" r="4" fill="#0" id="circle147"/>
	<circle cx="876.609" cy="251.561" r="4" fill="#0" id="circle148"/>
	<circle cx="880.12" cy="507.901" r="4" fill="#0" id="circle149"/>
	<circle cx="885.388" cy="235.759" r="4" fill="#0" id="circle150"/>
	<circle cx="897.678" cy="514.924" r="4" fill="#0" id="circle151"/>
	<circle cx="902.945" cy="235.759" r="4" fill="#0" id="circle152"/>
	<circle cx="911.724" cy="251.561" r="4" fill="#0" id="circle153"/>
	<circle cx="915.235" cy="502.634" r="4" fill="#0" id="circle154"/>
	<circle cx="920.503" cy="267.363" r="4" fill="#0" id="circle155"/>
	<circle cx="925.77" cy="488.588" r="4" fill="#0" id="circle156"/>
	<circle cx="931.037" cy="281.409" r="4" fill="#0" id="circle157"/>
	<circle cx="943.327" cy="493.855" r="4" fill="#0" id="circle158"/>
	<circle cx="948.595" cy="284.92" r="4" fill="#0" id="circle159"/>
	<circle cx="960.885" cy="488.588" r="4" fill="#0" id="circle160"/>
	<circle cx="962.641" cy="295.455" r="4" fill="#0" id="circle161"/>
	<circle cx="966.152" cy="506.145" r="4" fill="#0" id="circle162"/>
	<circle cx="966.152" cy="523.703" r="4" fill="#0" id="circle163"/>
	<circle cx="969.664" cy="541.26" r="4" fill="#0" id="circle164"/>
	<circle cx="976.687" cy="305.989" r="4" fill="#0" id="circle165"/>
	<circle cx="985.465" cy="404.312" r="4" fill="#0" id="circle166"/>
	<circle cx="985.465" cy="421.869" r="4" fill="#0" id="circle167"/>
	<circle cx="985.465" cy="439.427" r="4" fill="#0" id="circle168"/>
	<circle cx="985.465" cy="456.984" r="4" fill="#0" id="circle169"/>
	<circle cx="987.221" cy="320.035" r="4" fill="#0" id="circle170"/>
	<circle cx="987.221" cy="474.542" r="4" fill="#0" id="circle171"/>
	<circle cx="987.221" cy="521.947" r="4" fill="#0" id="circle172"/>
	<circle cx="987.221" cy="543.016" r="4" fill="#0" id="circle173"/>
	<circle cx="988.977" cy="369.196" r="4" fill="#0" id="circle174"/>
	<circle cx="988.977" cy="386.754" r="4" fill="#0" id="circle175"/>
	<circle cx="992.488" cy="492.099" r="4" fill="#0" id="circle176"/>
	<circle cx="996" cy="335.837" r="4" fill="#0" id="circle177"/>
	</g>
</svg>