<?xml version="1.0" encoding="UTF-8" standalone="no"?>
<!-- Created with CurveBenchmark -->
<svg
	xmlns:dc="http://purl.org/dc/elements/1.1/"
	xmlns:cc="http://creativecommons.org/ns#"
	xmlns:rdf="http://www.w3.org/1999/02/22-rdf-syntax-ns#"
	xmlns:svg="http://www.w3.org/2000/svg"
	xmlns="http://www.w3.org/2000/svg"
	xmlns:sodipodi="http://sodipodi.sourceforge.net/DTD/sodipodi-0.dtd"
	xmlns:inkscape="http://www.inkscape.org/namespaces/inkscape"
	width="1000"
	height="1000"
	id="svg2"
	version="1.1"
	sodipodi:docname="manifold/nncrust-bird18.png.txt">
<defs
	id="defs4" />
<metadata
	id="metadata7">
	<rdf:RDF>
		<cc:Work
			rdf:about="">
			<dc:format>image/svg+xml</dc:format>
			<dc:type
				rdf:resource="http://purl.org/dc/dcmitype/StillImage" />
			<dc:title></dc:title>
		</cc:Work>
	</rdf:RDF>
</metadata>
<g
	inkscape:label="Layer 1"
	inkscape:groupmode="layer"
	id="layer1">
	<path style="fill:none;stroke:red;stroke-width:1px;stroke-linecap:butt;stroke-linejoin:miter;stroke-opacity:1" d="M 53.5083,121.353 37.0055,130.521 z" id="boundary" inkscape:connector-curvature="0" />
	<path style="fill:none;stroke:red;stroke-width:1px;stroke-linecap:butt;stroke-linejoin:miter;stroke-opacity:1" d="M 27.8373,73.6784 13.1682,88.3475 z" id="boundary" inkscape:connector-curvature="0" />
	<path style="fill:none;stroke:red;stroke-width:1px;stroke-linecap:butt;stroke-linejoin:miter;stroke-opacity:1" d="M 18.6691,128.688 4,115.852 z" id="boundary" inkscape:connector-curvature="0" />
	<path style="fill:none;stroke:red;stroke-width:1px;stroke-linecap:butt;stroke-linejoin:miter;stroke-opacity:1" d="M 4,115.852 13.1682,88.3475 z" id="boundary" inkscape:connector-curvature="0" />
	<path style="fill:none;stroke:red;stroke-width:1px;stroke-linecap:butt;stroke-linejoin:miter;stroke-opacity:1" d="M 37.0055,130.521 18.6691,128.688 z" id="boundary" inkscape:connector-curvature="0" />
	<path style="fill:none;stroke:red;stroke-width:1px;stroke-linecap:butt;stroke-linejoin:miter;stroke-opacity:1" d="M 64.5102,27.8373 81.0129,18.6691 z" id="boundary" inkscape:connector-curvature="0" />
	<path style="fill:none;stroke:red;stroke-width:1px;stroke-linecap:butt;stroke-linejoin:miter;stroke-opacity:1" d="M 57.1756,46.1738 64.5102,27.8373 z" id="boundary" inkscape:connector-curvature="0" />
	<path style="fill:none;stroke:red;stroke-width:1px;stroke-linecap:butt;stroke-linejoin:miter;stroke-opacity:1" d="M 42.5065,59.0092 57.1756,46.1738 z" id="boundary" inkscape:connector-curvature="0" />
	<path style="fill:none;stroke:red;stroke-width:1px;stroke-linecap:butt;stroke-linejoin:miter;stroke-opacity:1" d="M 70.0111,130.521 53.5083,121.353 z" id="boundary" inkscape:connector-curvature="0" />
	<path style="fill:none;stroke:red;stroke-width:1px;stroke-linecap:butt;stroke-linejoin:miter;stroke-opacity:1" d="M 27.8373,73.6784 42.5065,59.0092 z" id="boundary" inkscape:connector-curvature="0" />
	<path style="fill:none;stroke:red;stroke-width:1px;stroke-linecap:butt;stroke-linejoin:miter;stroke-opacity:1" d="M 68.1774,225.871 68.1774,244.207 z" id="boundary" inkscape:connector-curvature="0" />
	<path style="fill:none;stroke:red;stroke-width:1px;stroke-linecap:butt;stroke-linejoin:miter;stroke-opacity:1" d="M 68.1774,225.871 77.3457,198.366 z" id="boundary" inkscape:connector-curvature="0" />
	<path style="fill:none;stroke:red;stroke-width:1px;stroke-linecap:butt;stroke-linejoin:miter;stroke-opacity:1" d="M 59.0092,299.216 59.0092,280.88 z" id="boundary" inkscape:connector-curvature="0" />
	<path style="fill:none;stroke:red;stroke-width:1px;stroke-linecap:butt;stroke-linejoin:miter;stroke-opacity:1" d="M 59.0092,280.88 68.1774,262.543 z" id="boundary" inkscape:connector-curvature="0" />
	<path style="fill:none;stroke:red;stroke-width:1px;stroke-linecap:butt;stroke-linejoin:miter;stroke-opacity:1" d="M 59.0092,317.553 59.0092,299.216 z" id="boundary" inkscape:connector-curvature="0" />
	<path style="fill:none;stroke:red;stroke-width:1px;stroke-linecap:butt;stroke-linejoin:miter;stroke-opacity:1" d="M 68.1774,244.207 68.1774,262.543 z" id="boundary" inkscape:connector-curvature="0" />
	<path style="fill:none;stroke:red;stroke-width:1px;stroke-linecap:butt;stroke-linejoin:miter;stroke-opacity:1" d="M 70.0111,130.521 86.5139,139.689 z" id="boundary" inkscape:connector-curvature="0" />
	<path style="fill:none;stroke:red;stroke-width:1px;stroke-linecap:butt;stroke-linejoin:miter;stroke-opacity:1" d="M 86.5139,139.689 77.3457,161.693 z" id="boundary" inkscape:connector-curvature="0" />
	<path style="fill:none;stroke:red;stroke-width:1px;stroke-linecap:butt;stroke-linejoin:miter;stroke-opacity:1" d="M 77.3457,180.03 77.3457,161.693 z" id="boundary" inkscape:connector-curvature="0" />
	<path style="fill:none;stroke:red;stroke-width:1px;stroke-linecap:butt;stroke-linejoin:miter;stroke-opacity:1" d="M 77.3457,198.366 77.3457,180.03 z" id="boundary" inkscape:connector-curvature="0" />
	<path style="fill:none;stroke:red;stroke-width:1px;stroke-linecap:butt;stroke-linejoin:miter;stroke-opacity:1" d="M 81.0129,18.6691 97.5157,9.50092 z" id="boundary" inkscape:connector-curvature="0" />
	<path style="fill:none;stroke:red;stroke-width:1px;stroke-linecap:butt;stroke-linejoin:miter;stroke-opacity:1" d="M 115.852,4 134.189,4 z" id="boundary" inkscape:connector-curvature="0" />
	<path style="fill:none;stroke:red;stroke-width:1px;stroke-linecap:butt;stroke-linejoin:miter;stroke-opacity:1" d="M 97.5157,9.50092 115.852,4 z" id="boundary" inkscape:connector-curvature="0" />
	<path style="fill:none;stroke:red;stroke-width:1px;stroke-linecap:butt;stroke-linejoin:miter;stroke-opacity:1" d="M 134.189,4 152.525,4 z" id="boundary" inkscape:connector-curvature="0" />
	<path style="fill:none;stroke:red;stroke-width:1px;stroke-linecap:butt;stroke-linejoin:miter;stroke-opacity:1" d="M 152.525,4 170.861,9.50092 z" id="boundary" inkscape:connector-curvature="0" />
	<path style="fill:none;stroke:red;stroke-width:1px;stroke-linecap:butt;stroke-linejoin:miter;stroke-opacity:1" d="M 189.198,15.0018 205.701,24.1701 z" id="boundary" inkscape:connector-curvature="0" />
	<path style="fill:none;stroke:red;stroke-width:1px;stroke-linecap:butt;stroke-linejoin:miter;stroke-opacity:1" d="M 205.701,24.1701 214.869,40.6728 z" id="boundary" inkscape:connector-curvature="0" />
	<path style="fill:none;stroke:red;stroke-width:1px;stroke-linecap:butt;stroke-linejoin:miter;stroke-opacity:1" d="M 214.869,40.6728 222.203,59.0092 z" id="boundary" inkscape:connector-curvature="0" />
	<path style="fill:none;stroke:red;stroke-width:1px;stroke-linecap:butt;stroke-linejoin:miter;stroke-opacity:1" d="M 222.203,59.0092 235.039,73.6784 z" id="boundary" inkscape:connector-curvature="0" />
	<path style="fill:none;stroke:red;stroke-width:1px;stroke-linecap:butt;stroke-linejoin:miter;stroke-opacity:1" d="M 235.039,73.6784 235.039,92.0148 z" id="boundary" inkscape:connector-curvature="0" />
	<path style="fill:none;stroke:red;stroke-width:1px;stroke-linecap:butt;stroke-linejoin:miter;stroke-opacity:1" d="M 244.207,108.518 235.039,92.0148 z" id="boundary" inkscape:connector-curvature="0" />
	<path style="fill:none;stroke:red;stroke-width:1px;stroke-linecap:butt;stroke-linejoin:miter;stroke-opacity:1" d="M 170.861,9.50092 189.198,15.0018 z" id="boundary" inkscape:connector-curvature="0" />
	<path style="fill:none;stroke:red;stroke-width:1px;stroke-linecap:butt;stroke-linejoin:miter;stroke-opacity:1" d="M 244.207,108.518 244.207,126.854 z" id="boundary" inkscape:connector-curvature="0" />
	<path style="fill:none;stroke:red;stroke-width:1px;stroke-linecap:butt;stroke-linejoin:miter;stroke-opacity:1" d="M 244.207,145.19 253.375,161.693 z" id="boundary" inkscape:connector-curvature="0" />
	<path style="fill:none;stroke:red;stroke-width:1px;stroke-linecap:butt;stroke-linejoin:miter;stroke-opacity:1" d="M 253.375,161.693 253.375,180.03 z" id="boundary" inkscape:connector-curvature="0" />
	<path style="fill:none;stroke:red;stroke-width:1px;stroke-linecap:butt;stroke-linejoin:miter;stroke-opacity:1" d="M 244.207,145.19 244.207,126.854 z" id="boundary" inkscape:connector-curvature="0" />
	<path style="fill:none;stroke:red;stroke-width:1px;stroke-linecap:butt;stroke-linejoin:miter;stroke-opacity:1" d="M 262.543,196.532 253.375,180.03 z" id="boundary" inkscape:connector-curvature="0" />
	<path style="fill:none;stroke:red;stroke-width:1px;stroke-linecap:butt;stroke-linejoin:miter;stroke-opacity:1" d="M 271.712,231.372 262.543,214.869 z" id="boundary" inkscape:connector-curvature="0" />
	<path style="fill:none;stroke:red;stroke-width:1px;stroke-linecap:butt;stroke-linejoin:miter;stroke-opacity:1" d="M 262.543,214.869 262.543,196.532 z" id="boundary" inkscape:connector-curvature="0" />
	<path style="fill:none;stroke:red;stroke-width:1px;stroke-linecap:butt;stroke-linejoin:miter;stroke-opacity:1" d="M 280.88,247.874 271.712,231.372 z" id="boundary" inkscape:connector-curvature="0" />
	<path style="fill:none;stroke:red;stroke-width:1px;stroke-linecap:butt;stroke-linejoin:miter;stroke-opacity:1" d="M 304.717,275.379 290.048,264.377 z" id="boundary" inkscape:connector-curvature="0" />
	<path style="fill:none;stroke:red;stroke-width:1px;stroke-linecap:butt;stroke-linejoin:miter;stroke-opacity:1" d="M 290.048,264.377 280.88,247.874 z" id="boundary" inkscape:connector-curvature="0" />
	<path style="fill:none;stroke:red;stroke-width:1px;stroke-linecap:butt;stroke-linejoin:miter;stroke-opacity:1" d="M 321.22,284.547 304.717,275.379 z" id="boundary" inkscape:connector-curvature="0" />
	<path style="fill:none;stroke:red;stroke-width:1px;stroke-linecap:butt;stroke-linejoin:miter;stroke-opacity:1" d="M 59.0092,335.889 59.0092,317.553 z" id="boundary" inkscape:connector-curvature="0" />
	<path style="fill:none;stroke:red;stroke-width:1px;stroke-linecap:butt;stroke-linejoin:miter;stroke-opacity:1" d="M 49.841,363.394 49.841,381.73 z" id="boundary" inkscape:connector-curvature="0" />
	<path style="fill:none;stroke:red;stroke-width:1px;stroke-linecap:butt;stroke-linejoin:miter;stroke-opacity:1" d="M 49.841,363.394 59.0092,335.889 z" id="boundary" inkscape:connector-curvature="0" />
	<path style="fill:none;stroke:red;stroke-width:1px;stroke-linecap:butt;stroke-linejoin:miter;stroke-opacity:1" d="M 49.841,400.067 49.841,418.403 z" id="boundary" inkscape:connector-curvature="0" />
	<path style="fill:none;stroke:red;stroke-width:1px;stroke-linecap:butt;stroke-linejoin:miter;stroke-opacity:1" d="M 49.841,436.739 49.841,418.403 z" id="boundary" inkscape:connector-curvature="0" />
	<path style="fill:none;stroke:red;stroke-width:1px;stroke-linecap:butt;stroke-linejoin:miter;stroke-opacity:1" d="M 49.841,381.73 49.841,400.067 z" id="boundary" inkscape:connector-curvature="0" />
	<path style="fill:none;stroke:red;stroke-width:1px;stroke-linecap:butt;stroke-linejoin:miter;stroke-opacity:1" d="M 59.0092,471.579 49.841,455.076 z" id="boundary" inkscape:connector-curvature="0" />
	<path style="fill:none;stroke:red;stroke-width:1px;stroke-linecap:butt;stroke-linejoin:miter;stroke-opacity:1" d="M 49.841,455.076 49.841,436.739 z" id="boundary" inkscape:connector-curvature="0" />
	<path style="fill:none;stroke:red;stroke-width:1px;stroke-linecap:butt;stroke-linejoin:miter;stroke-opacity:1" d="M 59.0092,471.579 59.0092,491.749 z" id="boundary" inkscape:connector-curvature="0" />
	<path style="fill:none;stroke:red;stroke-width:1px;stroke-linecap:butt;stroke-linejoin:miter;stroke-opacity:1" d="M 59.0092,491.749 68.1774,508.251 z" id="boundary" inkscape:connector-curvature="0" />
	<path style="fill:none;stroke:red;stroke-width:1px;stroke-linecap:butt;stroke-linejoin:miter;stroke-opacity:1" d="M 77.3457,524.754 68.1774,508.251 z" id="boundary" inkscape:connector-curvature="0" />
	<path style="fill:none;stroke:red;stroke-width:1px;stroke-linecap:butt;stroke-linejoin:miter;stroke-opacity:1" d="M 77.3457,524.754 82.8466,543.091 z" id="boundary" inkscape:connector-curvature="0" />
	<path style="fill:none;stroke:red;stroke-width:1px;stroke-linecap:butt;stroke-linejoin:miter;stroke-opacity:1" d="M 82.8466,543.091 95.6821,557.76 z" id="boundary" inkscape:connector-curvature="0" />
	<path style="fill:none;stroke:red;stroke-width:1px;stroke-linecap:butt;stroke-linejoin:miter;stroke-opacity:1" d="M 95.6821,557.76 104.85,574.262 z" id="boundary" inkscape:connector-curvature="0" />
	<path style="fill:none;stroke:red;stroke-width:1px;stroke-linecap:butt;stroke-linejoin:miter;stroke-opacity:1" d="M 104.85,574.262 119.519,587.098 z" id="boundary" inkscape:connector-curvature="0" />
	<path style="fill:none;stroke:red;stroke-width:1px;stroke-linecap:butt;stroke-linejoin:miter;stroke-opacity:1" d="M 119.519,587.098 126.854,605.434 z" id="boundary" inkscape:connector-curvature="0" />
	<path style="fill:none;stroke:red;stroke-width:1px;stroke-linecap:butt;stroke-linejoin:miter;stroke-opacity:1" d="M 141.523,616.436 126.854,605.434 z" id="boundary" inkscape:connector-curvature="0" />
	<path style="fill:none;stroke:red;stroke-width:1px;stroke-linecap:butt;stroke-linejoin:miter;stroke-opacity:1" d="M 141.523,616.436 158.026,625.604 z" id="boundary" inkscape:connector-curvature="0" />
	<path style="fill:none;stroke:red;stroke-width:1px;stroke-linecap:butt;stroke-linejoin:miter;stroke-opacity:1" d="M 158.026,625.604 170.861,640.274 z" id="boundary" inkscape:connector-curvature="0" />
	<path style="fill:none;stroke:red;stroke-width:1px;stroke-linecap:butt;stroke-linejoin:miter;stroke-opacity:1" d="M 189.198,647.608 170.861,640.274 z" id="boundary" inkscape:connector-curvature="0" />
	<path style="fill:none;stroke:red;stroke-width:1px;stroke-linecap:butt;stroke-linejoin:miter;stroke-opacity:1" d="M 159.86,819.97 150.691,803.468 z" id="boundary" inkscape:connector-curvature="0" />
	<path style="fill:none;stroke:red;stroke-width:1px;stroke-linecap:butt;stroke-linejoin:miter;stroke-opacity:1" d="M 178.196,818.137 159.86,819.97 z" id="boundary" inkscape:connector-curvature="0" />
	<path style="fill:none;stroke:red;stroke-width:1px;stroke-linecap:butt;stroke-linejoin:miter;stroke-opacity:1" d="M 159.86,785.131 150.691,803.468 z" id="boundary" inkscape:connector-curvature="0" />
	<path style="fill:none;stroke:red;stroke-width:1px;stroke-linecap:butt;stroke-linejoin:miter;stroke-opacity:1" d="M 178.196,779.63 159.86,785.131 z" id="boundary" inkscape:connector-curvature="0" />
	<path style="fill:none;stroke:red;stroke-width:1px;stroke-linecap:butt;stroke-linejoin:miter;stroke-opacity:1" d="M 189.198,647.608 205.701,656.776 z" id="boundary" inkscape:connector-curvature="0" />
	<path style="fill:none;stroke:red;stroke-width:1px;stroke-linecap:butt;stroke-linejoin:miter;stroke-opacity:1" d="M 224.037,662.277 205.701,656.776 z" id="boundary" inkscape:connector-curvature="0" />
	<path style="fill:none;stroke:red;stroke-width:1px;stroke-linecap:butt;stroke-linejoin:miter;stroke-opacity:1" d="M 196.532,779.63 178.196,779.63 z" id="boundary" inkscape:connector-curvature="0" />
	<path style="fill:none;stroke:red;stroke-width:1px;stroke-linecap:butt;stroke-linejoin:miter;stroke-opacity:1" d="M 214.869,775.963 196.532,779.63 z" id="boundary" inkscape:connector-curvature="0" />
	<path style="fill:none;stroke:red;stroke-width:1px;stroke-linecap:butt;stroke-linejoin:miter;stroke-opacity:1" d="M 240.54,671.445 257.043,680.614 z" id="boundary" inkscape:connector-curvature="0" />
	<path style="fill:none;stroke:red;stroke-width:1px;stroke-linecap:butt;stroke-linejoin:miter;stroke-opacity:1" d="M 257.043,680.614 260.71,698.95 z" id="boundary" inkscape:connector-curvature="0" />
	<path style="fill:none;stroke:red;stroke-width:1px;stroke-linecap:butt;stroke-linejoin:miter;stroke-opacity:1" d="M 240.54,671.445 224.037,662.277 z" id="boundary" inkscape:connector-curvature="0" />
	<path style="fill:none;stroke:red;stroke-width:1px;stroke-linecap:butt;stroke-linejoin:miter;stroke-opacity:1" d="M 251.542,720.954 260.71,698.95 z" id="boundary" inkscape:connector-curvature="0" />
	<path style="fill:none;stroke:red;stroke-width:1px;stroke-linecap:butt;stroke-linejoin:miter;stroke-opacity:1" d="M 244.207,755.793 233.205,770.462 z" id="boundary" inkscape:connector-curvature="0" />
	<path style="fill:none;stroke:red;stroke-width:1px;stroke-linecap:butt;stroke-linejoin:miter;stroke-opacity:1" d="M 233.205,770.462 214.869,775.963 z" id="boundary" inkscape:connector-curvature="0" />
	<path style="fill:none;stroke:red;stroke-width:1px;stroke-linecap:butt;stroke-linejoin:miter;stroke-opacity:1" d="M 251.542,720.954 244.207,755.793 z" id="boundary" inkscape:connector-curvature="0" />
	<path style="fill:none;stroke:red;stroke-width:1px;stroke-linecap:butt;stroke-linejoin:miter;stroke-opacity:1" d="M 213.035,808.969 196.532,818.137 z" id="boundary" inkscape:connector-curvature="0" />
	<path style="fill:none;stroke:red;stroke-width:1px;stroke-linecap:butt;stroke-linejoin:miter;stroke-opacity:1" d="M 196.532,818.137 178.196,818.137 z" id="boundary" inkscape:connector-curvature="0" />
	<path style="fill:none;stroke:red;stroke-width:1px;stroke-linecap:butt;stroke-linejoin:miter;stroke-opacity:1" d="M 213.035,808.969 231.372,808.969 z" id="boundary" inkscape:connector-curvature="0" />
	<path style="fill:none;stroke:red;stroke-width:1px;stroke-linecap:butt;stroke-linejoin:miter;stroke-opacity:1" d="M 231.372,808.969 249.708,808.969 z" id="boundary" inkscape:connector-curvature="0" />
	<path style="fill:none;stroke:red;stroke-width:1px;stroke-linecap:butt;stroke-linejoin:miter;stroke-opacity:1" d="M 268.044,808.969 249.708,808.969 z" id="boundary" inkscape:connector-curvature="0" />
	<path style="fill:none;stroke:red;stroke-width:1px;stroke-linecap:butt;stroke-linejoin:miter;stroke-opacity:1" d="M 317.553,781.464 301.05,808.969 z" id="boundary" inkscape:connector-curvature="0" />
	<path style="fill:none;stroke:red;stroke-width:1px;stroke-linecap:butt;stroke-linejoin:miter;stroke-opacity:1" d="M 268.044,808.969 284.547,818.137 z" id="boundary" inkscape:connector-curvature="0" />
	<path style="fill:none;stroke:red;stroke-width:1px;stroke-linecap:butt;stroke-linejoin:miter;stroke-opacity:1" d="M 284.547,818.137 301.05,808.969 z" id="boundary" inkscape:connector-curvature="0" />
	<path style="fill:none;stroke:red;stroke-width:1px;stroke-linecap:butt;stroke-linejoin:miter;stroke-opacity:1" d="M 301.05,808.969 319.386,808.969 z" id="boundary" inkscape:connector-curvature="0" />
	<path style="fill:none;stroke:red;stroke-width:1px;stroke-linecap:butt;stroke-linejoin:miter;stroke-opacity:1" d="M 317.553,781.464 335.889,788.799 z" id="boundary" inkscape:connector-curvature="0" />
	<path style="fill:none;stroke:red;stroke-width:1px;stroke-linecap:butt;stroke-linejoin:miter;stroke-opacity:1" d="M 334.055,299.216 321.22,284.547 z" id="boundary" inkscape:connector-curvature="0" />
	<path style="fill:none;stroke:red;stroke-width:1px;stroke-linecap:butt;stroke-linejoin:miter;stroke-opacity:1" d="M 352.392,306.551 334.055,299.216 z" id="boundary" inkscape:connector-curvature="0" />
	<path style="fill:none;stroke:red;stroke-width:1px;stroke-linecap:butt;stroke-linejoin:miter;stroke-opacity:1" d="M 352.392,306.551 368.895,315.719 z" id="boundary" inkscape:connector-curvature="0" />
	<path style="fill:none;stroke:red;stroke-width:1px;stroke-linecap:butt;stroke-linejoin:miter;stroke-opacity:1" d="M 368.895,315.719 381.73,330.388 z" id="boundary" inkscape:connector-curvature="0" />
	<path style="fill:none;stroke:red;stroke-width:1px;stroke-linecap:butt;stroke-linejoin:miter;stroke-opacity:1" d="M 400.067,335.889 381.73,330.388 z" id="boundary" inkscape:connector-curvature="0" />
	<path style="fill:none;stroke:red;stroke-width:1px;stroke-linecap:butt;stroke-linejoin:miter;stroke-opacity:1" d="M 416.569,345.057 431.238,357.893 z" id="boundary" inkscape:connector-curvature="0" />
	<path style="fill:none;stroke:red;stroke-width:1px;stroke-linecap:butt;stroke-linejoin:miter;stroke-opacity:1" d="M 447.741,367.061 431.238,357.893 z" id="boundary" inkscape:connector-curvature="0" />
	<path style="fill:none;stroke:red;stroke-width:1px;stroke-linecap:butt;stroke-linejoin:miter;stroke-opacity:1" d="M 400.067,335.889 416.569,345.057 z" id="boundary" inkscape:connector-curvature="0" />
	<path style="fill:none;stroke:red;stroke-width:1px;stroke-linecap:butt;stroke-linejoin:miter;stroke-opacity:1" d="M 464.244,376.229 447.741,367.061 z" id="boundary" inkscape:connector-curvature="0" />
	<path style="fill:none;stroke:red;stroke-width:1px;stroke-linecap:butt;stroke-linejoin:miter;stroke-opacity:1" d="M 464.244,376.229 480.747,385.397 z" id="boundary" inkscape:connector-curvature="0" />
	<path style="fill:none;stroke:red;stroke-width:1px;stroke-linecap:butt;stroke-linejoin:miter;stroke-opacity:1" d="M 480.747,385.397 495.416,396.399 z" id="boundary" inkscape:connector-curvature="0" />
	<path style="fill:none;stroke:red;stroke-width:1px;stroke-linecap:butt;stroke-linejoin:miter;stroke-opacity:1" d="M 495.416,396.399 513.752,403.734 z" id="boundary" inkscape:connector-curvature="0" />
	<path style="fill:none;stroke:red;stroke-width:1px;stroke-linecap:butt;stroke-linejoin:miter;stroke-opacity:1" d="M 513.752,403.734 519.253,422.07 z" id="boundary" inkscape:connector-curvature="0" />
	<path style="fill:none;stroke:red;stroke-width:1px;stroke-linecap:butt;stroke-linejoin:miter;stroke-opacity:1" d="M 519.253,422.07 537.59,427.571 z" id="boundary" inkscape:connector-curvature="0" />
	<path style="fill:none;stroke:red;stroke-width:1px;stroke-linecap:butt;stroke-linejoin:miter;stroke-opacity:1" d="M 537.59,427.571 554.092,436.739 z" id="boundary" inkscape:connector-curvature="0" />
	<path style="fill:none;stroke:red;stroke-width:1px;stroke-linecap:butt;stroke-linejoin:miter;stroke-opacity:1" d="M 572.429,444.074 554.092,436.739 z" id="boundary" inkscape:connector-curvature="0" />
	<path style="fill:none;stroke:red;stroke-width:1px;stroke-linecap:butt;stroke-linejoin:miter;stroke-opacity:1" d="M 572.429,444.074 588.932,453.242 z" id="boundary" inkscape:connector-curvature="0" />
	<path style="fill:none;stroke:red;stroke-width:1px;stroke-linecap:butt;stroke-linejoin:miter;stroke-opacity:1" d="M 588.932,453.242 601.767,467.911 z" id="boundary" inkscape:connector-curvature="0" />
	<path style="fill:none;stroke:red;stroke-width:1px;stroke-linecap:butt;stroke-linejoin:miter;stroke-opacity:1" d="M 620.104,473.412 601.767,467.911 z" id="boundary" inkscape:connector-curvature="0" />
	<path style="fill:none;stroke:red;stroke-width:1px;stroke-linecap:butt;stroke-linejoin:miter;stroke-opacity:1" d="M 651.275,495.416 634.773,486.248 z" id="boundary" inkscape:connector-curvature="0" />
	<path style="fill:none;stroke:red;stroke-width:1px;stroke-linecap:butt;stroke-linejoin:miter;stroke-opacity:1" d="M 634.773,486.248 620.104,473.412 z" id="boundary" inkscape:connector-curvature="0" />
	<path style="fill:none;stroke:red;stroke-width:1px;stroke-linecap:butt;stroke-linejoin:miter;stroke-opacity:1" d="M 667.778,504.584 651.275,495.416 z" id="boundary" inkscape:connector-curvature="0" />
	<path style="fill:none;stroke:red;stroke-width:1px;stroke-linecap:butt;stroke-linejoin:miter;stroke-opacity:1" d="M 667.778,504.584 684.281,513.752 z" id="boundary" inkscape:connector-curvature="0" />
	<path style="fill:none;stroke:red;stroke-width:1px;stroke-linecap:butt;stroke-linejoin:miter;stroke-opacity:1" d="M 700.784,522.921 719.12,526.588 z" id="boundary" inkscape:connector-curvature="0" />
	<path style="fill:none;stroke:red;stroke-width:1px;stroke-linecap:butt;stroke-linejoin:miter;stroke-opacity:1" d="M 719.12,526.588 735.623,535.756 z" id="boundary" inkscape:connector-curvature="0" />
	<path style="fill:none;stroke:red;stroke-width:1px;stroke-linecap:butt;stroke-linejoin:miter;stroke-opacity:1" d="M 700.784,522.921 684.281,513.752 z" id="boundary" inkscape:connector-curvature="0" />
	<path style="fill:none;stroke:red;stroke-width:1px;stroke-linecap:butt;stroke-linejoin:miter;stroke-opacity:1" d="M 753.959,541.257 735.623,535.756 z" id="boundary" inkscape:connector-curvature="0" />
	<path style="fill:none;stroke:red;stroke-width:1px;stroke-linecap:butt;stroke-linejoin:miter;stroke-opacity:1" d="M 788.799,550.425 770.462,550.425 z" id="boundary" inkscape:connector-curvature="0" />
	<path style="fill:none;stroke:red;stroke-width:1px;stroke-linecap:butt;stroke-linejoin:miter;stroke-opacity:1" d="M 770.462,550.425 753.959,541.257 z" id="boundary" inkscape:connector-curvature="0" />
	<path style="fill:none;stroke:red;stroke-width:1px;stroke-linecap:butt;stroke-linejoin:miter;stroke-opacity:1" d="M 788.799,550.425 805.301,559.593 z" id="boundary" inkscape:connector-curvature="0" />
	<path style="fill:none;stroke:red;stroke-width:1px;stroke-linecap:butt;stroke-linejoin:miter;stroke-opacity:1" d="M 805.301,559.593 823.638,559.593 z" id="boundary" inkscape:connector-curvature="0" />
	<path style="fill:none;stroke:red;stroke-width:1px;stroke-linecap:butt;stroke-linejoin:miter;stroke-opacity:1" d="M 841.974,559.593 823.638,559.593 z" id="boundary" inkscape:connector-curvature="0" />
	<path style="fill:none;stroke:red;stroke-width:1px;stroke-linecap:butt;stroke-linejoin:miter;stroke-opacity:1" d="M 841.974,559.593 858.477,568.762 z" id="boundary" inkscape:connector-curvature="0" />
	<path style="fill:none;stroke:red;stroke-width:1px;stroke-linecap:butt;stroke-linejoin:miter;stroke-opacity:1" d="M 858.477,568.762 876.813,568.762 z" id="boundary" inkscape:connector-curvature="0" />
	<path style="fill:none;stroke:red;stroke-width:1px;stroke-linecap:butt;stroke-linejoin:miter;stroke-opacity:1" d="M 909.819,579.763 918.987,596.266 z" id="boundary" inkscape:connector-curvature="0" />
	<path style="fill:none;stroke:red;stroke-width:1px;stroke-linecap:butt;stroke-linejoin:miter;stroke-opacity:1" d="M 909.819,579.763 895.15,568.762 z" id="boundary" inkscape:connector-curvature="0" />
	<path style="fill:none;stroke:red;stroke-width:1px;stroke-linecap:butt;stroke-linejoin:miter;stroke-opacity:1" d="M 937.323,596.266 918.987,596.266 z" id="boundary" inkscape:connector-curvature="0" />
	<path style="fill:none;stroke:red;stroke-width:1px;stroke-linecap:butt;stroke-linejoin:miter;stroke-opacity:1" d="M 876.813,568.762 895.15,568.762 z" id="boundary" inkscape:connector-curvature="0" />
	<path style="fill:none;stroke:red;stroke-width:1px;stroke-linecap:butt;stroke-linejoin:miter;stroke-opacity:1" d="M 937.323,596.266 955.66,598.1 z" id="boundary" inkscape:connector-curvature="0" />
	<path style="fill:none;stroke:red;stroke-width:1px;stroke-linecap:butt;stroke-linejoin:miter;stroke-opacity:1" d="M 955.66,598.1 972.163,607.268 z" id="boundary" inkscape:connector-curvature="0" />
	<path style="fill:none;stroke:red;stroke-width:1px;stroke-linecap:butt;stroke-linejoin:miter;stroke-opacity:1" d="M 990.499,614.603 972.163,607.268 z" id="boundary" inkscape:connector-curvature="0" />
	<path style="fill:none;stroke:red;stroke-width:1px;stroke-linecap:butt;stroke-linejoin:miter;stroke-opacity:1" d="M 996,634.773 996,653.109 z" id="boundary" inkscape:connector-curvature="0" />
	<path style="fill:none;stroke:red;stroke-width:1px;stroke-linecap:butt;stroke-linejoin:miter;stroke-opacity:1" d="M 990.499,614.603 996,634.773 z" id="boundary" inkscape:connector-curvature="0" />
	<path style="fill:none;stroke:red;stroke-width:1px;stroke-linecap:butt;stroke-linejoin:miter;stroke-opacity:1" d="M 510.085,689.782 491.749,708.118 z" id="boundary" inkscape:connector-curvature="0" />
	<path style="fill:none;stroke:red;stroke-width:1px;stroke-linecap:butt;stroke-linejoin:miter;stroke-opacity:1" d="M 456.909,717.287 438.573,717.287 z" id="boundary" inkscape:connector-curvature="0" />
	<path style="fill:none;stroke:red;stroke-width:1px;stroke-linecap:butt;stroke-linejoin:miter;stroke-opacity:1" d="M 422.07,726.455 438.573,717.287 z" id="boundary" inkscape:connector-curvature="0" />
	<path style="fill:none;stroke:red;stroke-width:1px;stroke-linecap:butt;stroke-linejoin:miter;stroke-opacity:1" d="M 422.07,726.455 403.734,726.455 z" id="boundary" inkscape:connector-curvature="0" />
	<path style="fill:none;stroke:red;stroke-width:1px;stroke-linecap:butt;stroke-linejoin:miter;stroke-opacity:1" d="M 475.246,717.287 456.909,717.287 z" id="boundary" inkscape:connector-curvature="0" />
	<path style="fill:none;stroke:red;stroke-width:1px;stroke-linecap:butt;stroke-linejoin:miter;stroke-opacity:1" d="M 491.749,708.118 475.246,717.287 z" id="boundary" inkscape:connector-curvature="0" />
	<path style="fill:none;stroke:red;stroke-width:1px;stroke-linecap:butt;stroke-linejoin:miter;stroke-opacity:1" d="M 528.421,680.614 546.758,680.614 z" id="boundary" inkscape:connector-curvature="0" />
	<path style="fill:none;stroke:red;stroke-width:1px;stroke-linecap:butt;stroke-linejoin:miter;stroke-opacity:1" d="M 510.085,689.782 528.421,680.614 z" id="boundary" inkscape:connector-curvature="0" />
	<path style="fill:none;stroke:red;stroke-width:1px;stroke-linecap:butt;stroke-linejoin:miter;stroke-opacity:1" d="M 565.094,680.614 546.758,680.614 z" id="boundary" inkscape:connector-curvature="0" />
	<path style="fill:none;stroke:red;stroke-width:1px;stroke-linecap:butt;stroke-linejoin:miter;stroke-opacity:1" d="M 583.431,680.614 601.767,680.614 z" id="boundary" inkscape:connector-curvature="0" />
	<path style="fill:none;stroke:red;stroke-width:1px;stroke-linecap:butt;stroke-linejoin:miter;stroke-opacity:1" d="M 565.094,680.614 583.431,680.614 z" id="boundary" inkscape:connector-curvature="0" />
	<path style="fill:none;stroke:red;stroke-width:1px;stroke-linecap:butt;stroke-linejoin:miter;stroke-opacity:1" d="M 618.27,671.445 601.767,680.614 z" id="boundary" inkscape:connector-curvature="0" />
	<path style="fill:none;stroke:red;stroke-width:1px;stroke-linecap:butt;stroke-linejoin:miter;stroke-opacity:1" d="M 335.889,763.128 352.392,753.959 z" id="boundary" inkscape:connector-curvature="0" />
	<path style="fill:none;stroke:red;stroke-width:1px;stroke-linecap:butt;stroke-linejoin:miter;stroke-opacity:1" d="M 335.889,788.799 354.226,788.799 z" id="boundary" inkscape:connector-curvature="0" />
	<path style="fill:none;stroke:red;stroke-width:1px;stroke-linecap:butt;stroke-linejoin:miter;stroke-opacity:1" d="M 335.889,788.799 335.889,763.128 z" id="boundary" inkscape:connector-curvature="0" />
	<path style="fill:none;stroke:red;stroke-width:1px;stroke-linecap:butt;stroke-linejoin:miter;stroke-opacity:1" d="M 356.059,814.47 337.723,808.969 z" id="boundary" inkscape:connector-curvature="0" />
	<path style="fill:none;stroke:red;stroke-width:1px;stroke-linecap:butt;stroke-linejoin:miter;stroke-opacity:1" d="M 337.723,808.969 319.386,808.969 z" id="boundary" inkscape:connector-curvature="0" />
	<path style="fill:none;stroke:red;stroke-width:1px;stroke-linecap:butt;stroke-linejoin:miter;stroke-opacity:1" d="M 352.392,753.959 368.895,744.791 z" id="boundary" inkscape:connector-curvature="0" />
	<path style="fill:none;stroke:red;stroke-width:1px;stroke-linecap:butt;stroke-linejoin:miter;stroke-opacity:1" d="M 368.895,744.791 385.397,733.789 z" id="boundary" inkscape:connector-curvature="0" />
	<path style="fill:none;stroke:red;stroke-width:1px;stroke-linecap:butt;stroke-linejoin:miter;stroke-opacity:1" d="M 385.397,733.789 403.734,726.455 z" id="boundary" inkscape:connector-curvature="0" />
	<path style="fill:none;stroke:red;stroke-width:1px;stroke-linecap:butt;stroke-linejoin:miter;stroke-opacity:1" d="M 368.895,799.8 374.396,818.137 z" id="boundary" inkscape:connector-curvature="0" />
	<path style="fill:none;stroke:red;stroke-width:1px;stroke-linecap:butt;stroke-linejoin:miter;stroke-opacity:1" d="M 374.396,818.137 356.059,814.47 z" id="boundary" inkscape:connector-curvature="0" />
	<path style="fill:none;stroke:red;stroke-width:1px;stroke-linecap:butt;stroke-linejoin:miter;stroke-opacity:1" d="M 354.226,788.799 368.895,799.8 z" id="boundary" inkscape:connector-curvature="0" />
	<path style="fill:none;stroke:red;stroke-width:1px;stroke-linecap:butt;stroke-linejoin:miter;stroke-opacity:1" d="M 422.07,726.455 374.396,818.137 z" id="boundary" inkscape:connector-curvature="0" />
	<path style="fill:none;stroke:red;stroke-width:1px;stroke-linecap:butt;stroke-linejoin:miter;stroke-opacity:1" d="M 636.606,671.445 618.27,671.445 z" id="boundary" inkscape:connector-curvature="0" />
	<path style="fill:none;stroke:red;stroke-width:1px;stroke-linecap:butt;stroke-linejoin:miter;stroke-opacity:1" d="M 689.782,680.614 671.445,680.614 z" id="boundary" inkscape:connector-curvature="0" />
	<path style="fill:none;stroke:red;stroke-width:1px;stroke-linecap:butt;stroke-linejoin:miter;stroke-opacity:1" d="M 671.445,680.614 654.943,671.445 z" id="boundary" inkscape:connector-curvature="0" />
	<path style="fill:none;stroke:red;stroke-width:1px;stroke-linecap:butt;stroke-linejoin:miter;stroke-opacity:1" d="M 689.782,680.614 706.285,689.782 z" id="boundary" inkscape:connector-curvature="0" />
	<path style="fill:none;stroke:red;stroke-width:1px;stroke-linecap:butt;stroke-linejoin:miter;stroke-opacity:1" d="M 636.606,671.445 654.943,671.445 z" id="boundary" inkscape:connector-curvature="0" />
	<path style="fill:none;stroke:red;stroke-width:1px;stroke-linecap:butt;stroke-linejoin:miter;stroke-opacity:1" d="M 724.621,689.782 706.285,689.782 z" id="boundary" inkscape:connector-curvature="0" />
	<path style="fill:none;stroke:red;stroke-width:1px;stroke-linecap:butt;stroke-linejoin:miter;stroke-opacity:1" d="M 724.621,689.782 741.124,698.95 z" id="boundary" inkscape:connector-curvature="0" />
	<path style="fill:none;stroke:red;stroke-width:1px;stroke-linecap:butt;stroke-linejoin:miter;stroke-opacity:1" d="M 759.46,698.95 741.124,698.95 z" id="boundary" inkscape:connector-curvature="0" />
	<path style="fill:none;stroke:red;stroke-width:1px;stroke-linecap:butt;stroke-linejoin:miter;stroke-opacity:1" d="M 968.495,689.782 950.159,708.118 z" id="boundary" inkscape:connector-curvature="0" />
	<path style="fill:none;stroke:red;stroke-width:1px;stroke-linecap:butt;stroke-linejoin:miter;stroke-opacity:1" d="M 759.46,698.95 775.963,708.118 z" id="boundary" inkscape:connector-curvature="0" />
	<path style="fill:none;stroke:red;stroke-width:1px;stroke-linecap:butt;stroke-linejoin:miter;stroke-opacity:1" d="M 968.495,689.782 986.832,680.614 z" id="boundary" inkscape:connector-curvature="0" />
	<path style="fill:none;stroke:red;stroke-width:1px;stroke-linecap:butt;stroke-linejoin:miter;stroke-opacity:1" d="M 996,653.109 986.832,680.614 z" id="boundary" inkscape:connector-curvature="0" />
	<path style="fill:none;stroke:red;stroke-width:1px;stroke-linecap:butt;stroke-linejoin:miter;stroke-opacity:1" d="M 775.963,708.118 794.299,711.786 z" id="boundary" inkscape:connector-curvature="0" />
	<path style="fill:none;stroke:red;stroke-width:1px;stroke-linecap:butt;stroke-linejoin:miter;stroke-opacity:1" d="M 847.475,726.455 829.139,726.455 z" id="boundary" inkscape:connector-curvature="0" />
	<path style="fill:none;stroke:red;stroke-width:1px;stroke-linecap:butt;stroke-linejoin:miter;stroke-opacity:1" d="M 829.139,726.455 812.636,717.287 z" id="boundary" inkscape:connector-curvature="0" />
	<path style="fill:none;stroke:red;stroke-width:1px;stroke-linecap:butt;stroke-linejoin:miter;stroke-opacity:1" d="M 847.475,726.455 863.978,735.623 z" id="boundary" inkscape:connector-curvature="0" />
	<path style="fill:none;stroke:red;stroke-width:1px;stroke-linecap:butt;stroke-linejoin:miter;stroke-opacity:1" d="M 794.299,711.786 812.636,717.287 z" id="boundary" inkscape:connector-curvature="0" />
	<path style="fill:none;stroke:red;stroke-width:1px;stroke-linecap:butt;stroke-linejoin:miter;stroke-opacity:1" d="M 931.823,717.287 950.159,708.118 z" id="boundary" inkscape:connector-curvature="0" />
	<path style="fill:none;stroke:red;stroke-width:1px;stroke-linecap:butt;stroke-linejoin:miter;stroke-opacity:1" d="M 918.987,735.623 931.823,717.287 z" id="boundary" inkscape:connector-curvature="0" />
	<path style="fill:none;stroke:red;stroke-width:1px;stroke-linecap:butt;stroke-linejoin:miter;stroke-opacity:1" d="M 882.314,735.623 863.978,735.623 z" id="boundary" inkscape:connector-curvature="0" />
	<path style="fill:none;stroke:red;stroke-width:1px;stroke-linecap:butt;stroke-linejoin:miter;stroke-opacity:1" d="M 882.314,735.623 900.651,735.623 z" id="boundary" inkscape:connector-curvature="0" />
	<path style="fill:none;stroke:red;stroke-width:1px;stroke-linecap:butt;stroke-linejoin:miter;stroke-opacity:1" d="M 918.987,735.623 900.651,735.623 z" id="boundary" inkscape:connector-curvature="0" />
	<circle cx="4" cy="115.852" r="4" fill="#0" id="circle0"/>
	<circle cx="13.1682" cy="88.3475" r="4" fill="#0" id="circle1"/>
	<circle cx="18.6691" cy="128.688" r="4" fill="#0" id="circle2"/>
	<circle cx="27.8373" cy="73.6784" r="4" fill="#0" id="circle3"/>
	<circle cx="37.0055" cy="130.521" r="4" fill="#0" id="circle4"/>
	<circle cx="42.5065" cy="59.0092" r="4" fill="#0" id="circle5"/>
	<circle cx="49.841" cy="363.394" r="4" fill="#0" id="circle6"/>
	<circle cx="49.841" cy="381.73" r="4" fill="#0" id="circle7"/>
	<circle cx="49.841" cy="400.067" r="4" fill="#0" id="circle8"/>
	<circle cx="49.841" cy="418.403" r="4" fill="#0" id="circle9"/>
	<circle cx="49.841" cy="436.739" r="4" fill="#0" id="circle10"/>
	<circle cx="49.841" cy="455.076" r="4" fill="#0" id="circle11"/>
	<circle cx="53.5083" cy="121.353" r="4" fill="#0" id="circle12"/>
	<circle cx="57.1756" cy="46.1738" r="4" fill="#0" id="circle13"/>
	<circle cx="59.0092" cy="280.88" r="4" fill="#0" id="circle14"/>
	<circle cx="59.0092" cy="299.216" r="4" fill="#0" id="circle15"/>
	<circle cx="59.0092" cy="317.553" r="4" fill="#0" id="circle16"/>
	<circle cx="59.0092" cy="335.889" r="4" fill="#0" id="circle17"/>
	<circle cx="59.0092" cy="471.579" r="4" fill="#0" id="circle18"/>
	<circle cx="59.0092" cy="491.749" r="4" fill="#0" id="circle19"/>
	<circle cx="64.5102" cy="27.8373" r="4" fill="#0" id="circle20"/>
	<circle cx="68.1774" cy="225.871" r="4" fill="#0" id="circle21"/>
	<circle cx="68.1774" cy="244.207" r="4" fill="#0" id="circle22"/>
	<circle cx="68.1774" cy="262.543" r="4" fill="#0" id="circle23"/>
	<circle cx="68.1774" cy="508.251" r="4" fill="#0" id="circle24"/>
	<circle cx="70.0111" cy="130.521" r="4" fill="#0" id="circle25"/>
	<circle cx="77.3457" cy="161.693" r="4" fill="#0" id="circle26"/>
	<circle cx="77.3457" cy="180.03" r="4" fill="#0" id="circle27"/>
	<circle cx="77.3457" cy="198.366" r="4" fill="#0" id="circle28"/>
	<circle cx="77.3457" cy="524.754" r="4" fill="#0" id="circle29"/>
	<circle cx="81.0129" cy="18.6691" r="4" fill="#0" id="circle30"/>
	<circle cx="82.8466" cy="543.091" r="4" fill="#0" id="circle31"/>
	<circle cx="86.5139" cy="139.689" r="4" fill="#0" id="circle32"/>
	<circle cx="95.6821" cy="557.76" r="4" fill="#0" id="circle33"/>
	<circle cx="97.5157" cy="9.50092" r="4" fill="#0" id="circle34"/>
	<circle cx="104.85" cy="574.262" r="4" fill="#0" id="circle35"/>
	<circle cx="115.852" cy="4" r="4" fill="#0" id="circle36"/>
	<circle cx="119.519" cy="587.098" r="4" fill="#0" id="circle37"/>
	<circle cx="126.854" cy="605.434" r="4" fill="#0" id="circle38"/>
	<circle cx="134.189" cy="4" r="4" fill="#0" id="circle39"/>
	<circle cx="141.523" cy="616.436" r="4" fill="#0" id="circle40"/>
	<circle cx="150.691" cy="803.468" r="4" fill="#0" id="circle41"/>
	<circle cx="152.525" cy="4" r="4" fill="#0" id="circle42"/>
	<circle cx="158.026" cy="625.604" r="4" fill="#0" id="circle43"/>
	<circle cx="159.86" cy="785.131" r="4" fill="#0" id="circle44"/>
	<circle cx="159.86" cy="819.97" r="4" fill="#0" id="circle45"/>
	<circle cx="170.861" cy="9.50092" r="4" fill="#0" id="circle46"/>
	<circle cx="170.861" cy="640.274" r="4" fill="#0" id="circle47"/>
	<circle cx="178.196" cy="779.63" r="4" fill="#0" id="circle48"/>
	<circle cx="178.196" cy="818.137" r="4" fill="#0" id="circle49"/>
	<circle cx="189.198" cy="15.0018" r="4" fill="#0" id="circle50"/>
	<circle cx="189.198" cy="647.608" r="4" fill="#0" id="circle51"/>
	<circle cx="196.532" cy="779.63" r="4" fill="#0" id="circle52"/>
	<circle cx="196.532" cy="818.137" r="4" fill="#0" id="circle53"/>
	<circle cx="205.701" cy="24.1701" r="4" fill="#0" id="circle54"/>
	<circle cx="205.701" cy="656.776" r="4" fill="#0" id="circle55"/>
	<circle cx="213.035" cy="808.969" r="4" fill="#0" id="circle56"/>
	<circle cx="214.869" cy="40.6728" r="4" fill="#0" id="circle57"/>
	<circle cx="214.869" cy="775.963" r="4" fill="#0" id="circle58"/>
	<circle cx="222.203" cy="59.0092" r="4" fill="#0" id="circle59"/>
	<circle cx="224.037" cy="662.277" r="4" fill="#0" id="circle60"/>
	<circle cx="231.372" cy="808.969" r="4" fill="#0" id="circle61"/>
	<circle cx="233.205" cy="770.462" r="4" fill="#0" id="circle62"/>
	<circle cx="235.039" cy="73.6784" r="4" fill="#0" id="circle63"/>
	<circle cx="235.039" cy="92.0148" r="4" fill="#0" id="circle64"/>
	<circle cx="240.54" cy="671.445" r="4" fill="#0" id="circle65"/>
	<circle cx="244.207" cy="108.518" r="4" fill="#0" id="circle66"/>
	<circle cx="244.207" cy="126.854" r="4" fill="#0" id="circle67"/>
	<circle cx="244.207" cy="145.19" r="4" fill="#0" id="circle68"/>
	<circle cx="244.207" cy="755.793" r="4" fill="#0" id="circle69"/>
	<circle cx="249.708" cy="808.969" r="4" fill="#0" id="circle70"/>
	<circle cx="251.542" cy="720.954" r="4" fill="#0" id="circle71"/>
	<circle cx="253.375" cy="161.693" r="4" fill="#0" id="circle72"/>
	<circle cx="253.375" cy="180.03" r="4" fill="#0" id="circle73"/>
	<circle cx="257.043" cy="680.614" r="4" fill="#0" id="circle74"/>
	<circle cx="260.71" cy="698.95" r="4" fill="#0" id="circle75"/>
	<circle cx="262.543" cy="196.532" r="4" fill="#0" id="circle76"/>
	<circle cx="262.543" cy="214.869" r="4" fill="#0" id="circle77"/>
	<circle cx="268.044" cy="808.969" r="4" fill="#0" id="circle78"/>
	<circle cx="271.712" cy="231.372" r="4" fill="#0" id="circle79"/>
	<circle cx="280.88" cy="247.874" r="4" fill="#0" id="circle80"/>
	<circle cx="284.547" cy="818.137" r="4" fill="#0" id="circle81"/>
	<circle cx="290.048" cy="264.377" r="4" fill="#0" id="circle82"/>
	<circle cx="301.05" cy="808.969" r="4" fill="#0" id="circle83"/>
	<circle cx="304.717" cy="275.379" r="4" fill="#0" id="circle84"/>
	<circle cx="317.553" cy="781.464" r="4" fill="#0" id="circle85"/>
	<circle cx="319.386" cy="808.969" r="4" fill="#0" id="circle86"/>
	<circle cx="321.22" cy="284.547" r="4" fill="#0" id="circle87"/>
	<circle cx="334.055" cy="299.216" r="4" fill="#0" id="circle88"/>
	<circle cx="335.889" cy="763.128" r="4" fill="#0" id="circle89"/>
	<circle cx="335.889" cy="788.799" r="4" fill="#0" id="circle90"/>
	<circle cx="337.723" cy="808.969" r="4" fill="#0" id="circle91"/>
	<circle cx="352.392" cy="306.551" r="4" fill="#0" id="circle92"/>
	<circle cx="352.392" cy="753.959" r="4" fill="#0" id="circle93"/>
	<circle cx="354.226" cy="788.799" r="4" fill="#0" id="circle94"/>
	<circle cx="356.059" cy="814.47" r="4" fill="#0" id="circle95"/>
	<circle cx="368.895" cy="315.719" r="4" fill="#0" id="circle96"/>
	<circle cx="368.895" cy="744.791" r="4" fill="#0" id="circle97"/>
	<circle cx="368.895" cy="799.8" r="4" fill="#0" id="circle98"/>
	<circle cx="374.396" cy="818.137" r="4" fill="#0" id="circle99"/>
	<circle cx="381.73" cy="330.388" r="4" fill="#0" id="circle100"/>
	<circle cx="385.397" cy="733.789" r="4" fill="#0" id="circle101"/>
	<circle cx="400.067" cy="335.889" r="4" fill="#0" id="circle102"/>
	<circle cx="403.734" cy="726.455" r="4" fill="#0" id="circle103"/>
	<circle cx="416.569" cy="345.057" r="4" fill="#0" id="circle104"/>
	<circle cx="422.07" cy="726.455" r="4" fill="#0" id="circle105"/>
	<circle cx="431.238" cy="357.893" r="4" fill="#0" id="circle106"/>
	<circle cx="438.573" cy="717.287" r="4" fill="#0" id="circle107"/>
	<circle cx="447.741" cy="367.061" r="4" fill="#0" id="circle108"/>
	<circle cx="456.909" cy="717.287" r="4" fill="#0" id="circle109"/>
	<circle cx="464.244" cy="376.229" r="4" fill="#0" id="circle110"/>
	<circle cx="475.246" cy="717.287" r="4" fill="#0" id="circle111"/>
	<circle cx="480.747" cy="385.397" r="4" fill="#0" id="circle112"/>
	<circle cx="491.749" cy="708.118" r="4" fill="#0" id="circle113"/>
	<circle cx="495.416" cy="396.399" r="4" fill="#0" id="circle114"/>
	<circle cx="510.085" cy="689.782" r="4" fill="#0" id="circle115"/>
	<circle cx="513.752" cy="403.734" r="4" fill="#0" id="circle116"/>
	<circle cx="519.253" cy="422.07" r="4" fill="#0" id="circle117"/>
	<circle cx="528.421" cy="680.614" r="4" fill="#0" id="circle118"/>
	<circle cx="537.59" cy="427.571" r="4" fill="#0" id="circle119"/>
	<circle cx="546.758" cy="680.614" r="4" fill="#0" id="circle120"/>
	<circle cx="554.092" cy="436.739" r="4" fill="#0" id="circle121"/>
	<circle cx="565.094" cy="680.614" r="4" fill="#0" id="circle122"/>
	<circle cx="572.429" cy="444.074" r="4" fill="#0" id="circle123"/>
	<circle cx="583.431" cy="680.614" r="4" fill="#0" id="circle124"/>
	<circle cx="588.932" cy="453.242" r="4" fill="#0" id="circle125"/>
	<circle cx="601.767" cy="467.911" r="4" fill="#0" id="circle126"/>
	<circle cx="601.767" cy="680.614" r="4" fill="#0" id="circle127"/>
	<circle cx="618.27" cy="671.445" r="4" fill="#0" id="circle128"/>
	<circle cx="620.104" cy="473.412" r="4" fill="#0" id="circle129"/>
	<circle cx="634.773" cy="486.248" r="4" fill="#0" id="circle130"/>
	<circle cx="636.606" cy="671.445" r="4" fill="#0" id="circle131"/>
	<circle cx="651.275" cy="495.416" r="4" fill="#0" id="circle132"/>
	<circle cx="654.943" cy="671.445" r="4" fill="#0" id="circle133"/>
	<circle cx="667.778" cy="504.584" r="4" fill="#0" id="circle134"/>
	<circle cx="671.445" cy="680.614" r="4" fill="#0" id="circle135"/>
	<circle cx="684.281" cy="513.752" r="4" fill="#0" id="circle136"/>
	<circle cx="689.782" cy="680.614" r="4" fill="#0" id="circle137"/>
	<circle cx="700.784" cy="522.921" r="4" fill="#0" id="circle138"/>
	<circle cx="706.285" cy="689.782" r="4" fill="#0" id="circle139"/>
	<circle cx="719.12" cy="526.588" r="4" fill="#0" id="circle140"/>
	<circle cx="724.621" cy="689.782" r="4" fill="#0" id="circle141"/>
	<circle cx="735.623" cy="535.756" r="4" fill="#0" id="circle142"/>
	<circle cx="741.124" cy="698.95" r="4" fill="#0" id="circle143"/>
	<circle cx="753.959" cy="541.257" r="4" fill="#0" id="circle144"/>
	<circle cx="759.46" cy="698.95" r="4" fill="#0" id="circle145"/>
	<circle cx="770.462" cy="550.425" r="4" fill="#0" id="circle146"/>
	<circle cx="775.963" cy="708.118" r="4" fill="#0" id="circle147"/>
	<circle cx="788.799" cy="550.425" r="4" fill="#0" id="circle148"/>
	<circle cx="794.299" cy="711.786" r="4" fill="#0" id="circle149"/>
	<circle cx="805.301" cy="559.593" r="4" fill="#0" id="circle150"/>
	<circle cx="812.636" cy="717.287" r="4" fill="#0" id="circle151"/>
	<circle cx="823.638" cy="559.593" r="4" fill="#0" id="circle152"/>
	<circle cx="829.139" cy="726.455" r="4" fill="#0" id="circle153"/>
	<circle cx="841.974" cy="559.593" r="4" fill="#0" id="circle154"/>
	<circle cx="847.475" cy="726.455" r="4" fill="#0" id="circle155"/>
	<circle cx="858.477" cy="568.762" r="4" fill="#0" id="circle156"/>
	<circle cx="863.978" cy="735.623" r="4" fill="#0" id="circle157"/>
	<circle cx="876.813" cy="568.762" r="4" fill="#0" id="circle158"/>
	<circle cx="882.314" cy="735.623" r="4" fill="#0" id="circle159"/>
	<circle cx="895.15" cy="568.762" r="4" fill="#0" id="circle160"/>
	<circle cx="900.651" cy="735.623" r="4" fill="#0" id="circle161"/>
	<circle cx="909.819" cy="579.763" r="4" fill="#0" id="circle162"/>
	<circle cx="918.987" cy="596.266" r="4" fill="#0" id="circle163"/>
	<circle cx="918.987" cy="735.623" r="4" fill="#0" id="circle164"/>
	<circle cx="931.823" cy="717.287" r="4" fill="#0" id="circle165"/>
	<circle cx="937.323" cy="596.266" r="4" fill="#0" id="circle166"/>
	<circle cx="950.159" cy="708.118" r="4" fill="#0" id="circle167"/>
	<circle cx="955.66" cy="598.1" r="4" fill="#0" id="circle168"/>
	<circle cx="968.495" cy="689.782" r="4" fill="#0" id="circle169"/>
	<circle cx="972.163" cy="607.268" r="4" fill="#0" id="circle170"/>
	<circle cx="986.832" cy="680.614" r="4" fill="#0" id="circle171"/>
	<circle cx="990.499" cy="614.603" r="4" fill="#0" id="circle172"/>
	<circle cx="996" cy="634.773" r="4" fill="#0" id="circle173"/>
	<circle cx="996" cy="653.109" r="4" fill="#0" id="circle174"/>
	</g>
</svg>