<?xml version="1.0" encoding="UTF-8" standalone="no"?>
<!-- Created with CurveBenchmark -->
<svg
	xmlns:dc="http://purl.org/dc/elements/1.1/"
	xmlns:cc="http://creativecommons.org/ns#"
	xmlns:rdf="http://www.w3.org/1999/02/22-rdf-syntax-ns#"
	xmlns:svg="http://www.w3.org/2000/svg"
	xmlns="http://www.w3.org/2000/svg"
	xmlns:sodipodi="http://sodipodi.sourceforge.net/DTD/sodipodi-0.dtd"
	xmlns:inkscape="http://www.inkscape.org/namespaces/inkscape"
	width="1000"
	height="1000"
	id="svg2"
	version="1.1"
	sodipodi:docname="manifold/nncrust-guitar170.png.txt">
<defs
	id="defs4" />
<metadata
	id="metadata7">
	<rdf:RDF>
		<cc:Work
			rdf:about="">
			<dc:format>image/svg+xml</dc:format>
			<dc:type
				rdf:resource="http://purl.org/dc/dcmitype/StillImage" />
			<dc:title></dc:title>
		</cc:Work>
	</rdf:RDF>
</metadata>
<g
	inkscape:label="Layer 1"
	inkscape:groupmode="layer"
	id="layer1">
	<path style="fill:none;stroke:red;stroke-width:1px;stroke-linecap:butt;stroke-linejoin:miter;stroke-opacity:1" d="M 160.444,25.3333 160.444,60.8889 z" id="boundary" inkscape:connector-curvature="0" />
	<path style="fill:none;stroke:red;stroke-width:1px;stroke-linecap:butt;stroke-linejoin:miter;stroke-opacity:1" d="M 185.333,124.889 160.444,96.4444 z" id="boundary" inkscape:connector-curvature="0" />
	<path style="fill:none;stroke:red;stroke-width:1px;stroke-linecap:butt;stroke-linejoin:miter;stroke-opacity:1" d="M 160.444,25.3333 188.889,4 z" id="boundary" inkscape:connector-curvature="0" />
	<path style="fill:none;stroke:red;stroke-width:1px;stroke-linecap:butt;stroke-linejoin:miter;stroke-opacity:1" d="M 160.444,60.8889 160.444,96.4444 z" id="boundary" inkscape:connector-curvature="0" />
	<path style="fill:none;stroke:red;stroke-width:1px;stroke-linecap:butt;stroke-linejoin:miter;stroke-opacity:1" d="M 103.556,572.889 82.2222,544.444 z" id="boundary" inkscape:connector-curvature="0" />
	<path style="fill:none;stroke:red;stroke-width:1px;stroke-linecap:butt;stroke-linejoin:miter;stroke-opacity:1" d="M 167.556,494.667 160.444,537.333 z" id="boundary" inkscape:connector-curvature="0" />
	<path style="fill:none;stroke:red;stroke-width:1px;stroke-linecap:butt;stroke-linejoin:miter;stroke-opacity:1" d="M 181.778,295.556 181.778,331.111 z" id="boundary" inkscape:connector-curvature="0" />
	<path style="fill:none;stroke:red;stroke-width:1px;stroke-linecap:butt;stroke-linejoin:miter;stroke-opacity:1" d="M 181.778,437.778 167.556,494.667 z" id="boundary" inkscape:connector-curvature="0" />
	<path style="fill:none;stroke:red;stroke-width:1px;stroke-linecap:butt;stroke-linejoin:miter;stroke-opacity:1" d="M 181.778,260 181.778,295.556 z" id="boundary" inkscape:connector-curvature="0" />
	<path style="fill:none;stroke:red;stroke-width:1px;stroke-linecap:butt;stroke-linejoin:miter;stroke-opacity:1" d="M 82.2222,544.444 46.6667,558.667 z" id="boundary" inkscape:connector-curvature="0" />
	<path style="fill:none;stroke:red;stroke-width:1px;stroke-linecap:butt;stroke-linejoin:miter;stroke-opacity:1" d="M 188.889,160.444 185.333,124.889 z" id="boundary" inkscape:connector-curvature="0" />
	<path style="fill:none;stroke:red;stroke-width:1px;stroke-linecap:butt;stroke-linejoin:miter;stroke-opacity:1" d="M 188.889,160.444 188.889,196 z" id="boundary" inkscape:connector-curvature="0" />
	<path style="fill:none;stroke:red;stroke-width:1px;stroke-linecap:butt;stroke-linejoin:miter;stroke-opacity:1" d="M 181.778,331.111 181.778,366.667 z" id="boundary" inkscape:connector-curvature="0" />
	<path style="fill:none;stroke:red;stroke-width:1px;stroke-linecap:butt;stroke-linejoin:miter;stroke-opacity:1" d="M 181.778,402.222 181.778,437.778 z" id="boundary" inkscape:connector-curvature="0" />
	<path style="fill:none;stroke:red;stroke-width:1px;stroke-linecap:butt;stroke-linejoin:miter;stroke-opacity:1" d="M 181.778,402.222 181.778,366.667 z" id="boundary" inkscape:connector-curvature="0" />
	<path style="fill:none;stroke:red;stroke-width:1px;stroke-linecap:butt;stroke-linejoin:miter;stroke-opacity:1" d="M 235.111,231.556 181.778,260 z" id="boundary" inkscape:connector-curvature="0" />
	<path style="fill:none;stroke:red;stroke-width:1px;stroke-linecap:butt;stroke-linejoin:miter;stroke-opacity:1" d="M 188.889,196 235.111,231.556 z" id="boundary" inkscape:connector-curvature="0" />
	<path style="fill:none;stroke:red;stroke-width:1px;stroke-linecap:butt;stroke-linejoin:miter;stroke-opacity:1" d="M 139.111,572.889 160.444,537.333 z" id="boundary" inkscape:connector-curvature="0" />
	<path style="fill:none;stroke:red;stroke-width:1px;stroke-linecap:butt;stroke-linejoin:miter;stroke-opacity:1" d="M 57.3333,949.778 32.4444,921.333 z" id="boundary" inkscape:connector-curvature="0" />
	<path style="fill:none;stroke:red;stroke-width:1px;stroke-linecap:butt;stroke-linejoin:miter;stroke-opacity:1" d="M 36,747.111 18.2222,779.111 z" id="boundary" inkscape:connector-curvature="0" />
	<path style="fill:none;stroke:red;stroke-width:1px;stroke-linecap:butt;stroke-linejoin:miter;stroke-opacity:1" d="M 46.6667,558.667 46.6667,594.222 z" id="boundary" inkscape:connector-curvature="0" />
	<path style="fill:none;stroke:red;stroke-width:1px;stroke-linecap:butt;stroke-linejoin:miter;stroke-opacity:1" d="M 18.2222,779.111 4,821.778 z" id="boundary" inkscape:connector-curvature="0" />
	<path style="fill:none;stroke:red;stroke-width:1px;stroke-linecap:butt;stroke-linejoin:miter;stroke-opacity:1" d="M 4,857.333 4,821.778 z" id="boundary" inkscape:connector-curvature="0" />
	<path style="fill:none;stroke:red;stroke-width:1px;stroke-linecap:butt;stroke-linejoin:miter;stroke-opacity:1" d="M 32.4444,921.333 11.1111,892.889 z" id="boundary" inkscape:connector-curvature="0" />
	<path style="fill:none;stroke:red;stroke-width:1px;stroke-linecap:butt;stroke-linejoin:miter;stroke-opacity:1" d="M 11.1111,892.889 4,857.333 z" id="boundary" inkscape:connector-curvature="0" />
	<path style="fill:none;stroke:red;stroke-width:1px;stroke-linecap:butt;stroke-linejoin:miter;stroke-opacity:1" d="M 46.6667,594.222 60.8889,629.778 z" id="boundary" inkscape:connector-curvature="0" />
	<path style="fill:none;stroke:red;stroke-width:1px;stroke-linecap:butt;stroke-linejoin:miter;stroke-opacity:1" d="M 60.8889,629.778 71.5556,683.111 z" id="boundary" inkscape:connector-curvature="0" />
	<path style="fill:none;stroke:red;stroke-width:1px;stroke-linecap:butt;stroke-linejoin:miter;stroke-opacity:1" d="M 71.5556,683.111 57.3333,718.667 z" id="boundary" inkscape:connector-curvature="0" />
	<path style="fill:none;stroke:red;stroke-width:1px;stroke-linecap:butt;stroke-linejoin:miter;stroke-opacity:1" d="M 103.556,572.889 139.111,572.889 z" id="boundary" inkscape:connector-curvature="0" />
	<path style="fill:none;stroke:red;stroke-width:1px;stroke-linecap:butt;stroke-linejoin:miter;stroke-opacity:1" d="M 36,747.111 57.3333,718.667 z" id="boundary" inkscape:connector-curvature="0" />
	<path style="fill:none;stroke:red;stroke-width:1px;stroke-linecap:butt;stroke-linejoin:miter;stroke-opacity:1" d="M 153.333,992.444 117.778,988.889 z" id="boundary" inkscape:connector-curvature="0" />
	<path style="fill:none;stroke:red;stroke-width:1px;stroke-linecap:butt;stroke-linejoin:miter;stroke-opacity:1" d="M 117.778,988.889 85.7778,971.111 z" id="boundary" inkscape:connector-curvature="0" />
	<path style="fill:none;stroke:red;stroke-width:1px;stroke-linecap:butt;stroke-linejoin:miter;stroke-opacity:1" d="M 85.7778,971.111 57.3333,949.778 z" id="boundary" inkscape:connector-curvature="0" />
	<path style="fill:none;stroke:red;stroke-width:1px;stroke-linecap:butt;stroke-linejoin:miter;stroke-opacity:1" d="M 188.889,996 153.333,992.444 z" id="boundary" inkscape:connector-curvature="0" />
	<path style="fill:none;stroke:red;stroke-width:1px;stroke-linecap:butt;stroke-linejoin:miter;stroke-opacity:1" d="M 235.111,124.889 235.111,160.444 z" id="boundary" inkscape:connector-curvature="0" />
	<path style="fill:none;stroke:red;stroke-width:1px;stroke-linecap:butt;stroke-linejoin:miter;stroke-opacity:1" d="M 242.222,75.1111 235.111,124.889 z" id="boundary" inkscape:connector-curvature="0" />
	<path style="fill:none;stroke:red;stroke-width:1px;stroke-linecap:butt;stroke-linejoin:miter;stroke-opacity:1" d="M 242.222,39.5556 242.222,75.1111 z" id="boundary" inkscape:connector-curvature="0" />
	<path style="fill:none;stroke:red;stroke-width:1px;stroke-linecap:butt;stroke-linejoin:miter;stroke-opacity:1" d="M 235.111,160.444 235.111,196 z" id="boundary" inkscape:connector-curvature="0" />
	<path style="fill:none;stroke:red;stroke-width:1px;stroke-linecap:butt;stroke-linejoin:miter;stroke-opacity:1" d="M 242.222,267.111 242.222,302.667 z" id="boundary" inkscape:connector-curvature="0" />
	<path style="fill:none;stroke:red;stroke-width:1px;stroke-linecap:butt;stroke-linejoin:miter;stroke-opacity:1" d="M 242.222,267.111 235.111,231.556 z" id="boundary" inkscape:connector-curvature="0" />
	<path style="fill:none;stroke:red;stroke-width:1px;stroke-linecap:butt;stroke-linejoin:miter;stroke-opacity:1" d="M 235.111,231.556 235.111,196 z" id="boundary" inkscape:connector-curvature="0" />
	<path style="fill:none;stroke:red;stroke-width:1px;stroke-linecap:butt;stroke-linejoin:miter;stroke-opacity:1" d="M 242.222,302.667 242.222,338.222 z" id="boundary" inkscape:connector-curvature="0" />
	<path style="fill:none;stroke:red;stroke-width:1px;stroke-linecap:butt;stroke-linejoin:miter;stroke-opacity:1" d="M 242.222,373.778 242.222,338.222 z" id="boundary" inkscape:connector-curvature="0" />
	<path style="fill:none;stroke:red;stroke-width:1px;stroke-linecap:butt;stroke-linejoin:miter;stroke-opacity:1" d="M 242.222,373.778 242.222,409.333 z" id="boundary" inkscape:connector-curvature="0" />
	<path style="fill:none;stroke:red;stroke-width:1px;stroke-linecap:butt;stroke-linejoin:miter;stroke-opacity:1" d="M 338.222,526.667 306.222,508.889 z" id="boundary" inkscape:connector-curvature="0" />
	<path style="fill:none;stroke:red;stroke-width:1px;stroke-linecap:butt;stroke-linejoin:miter;stroke-opacity:1" d="M 242.222,444.889 242.222,480.444 z" id="boundary" inkscape:connector-curvature="0" />
	<path style="fill:none;stroke:red;stroke-width:1px;stroke-linecap:butt;stroke-linejoin:miter;stroke-opacity:1" d="M 270.667,501.778 242.222,480.444 z" id="boundary" inkscape:connector-curvature="0" />
	<path style="fill:none;stroke:red;stroke-width:1px;stroke-linecap:butt;stroke-linejoin:miter;stroke-opacity:1" d="M 270.667,501.778 306.222,508.889 z" id="boundary" inkscape:connector-curvature="0" />
	<path style="fill:none;stroke:red;stroke-width:1px;stroke-linecap:butt;stroke-linejoin:miter;stroke-opacity:1" d="M 242.222,444.889 242.222,409.333 z" id="boundary" inkscape:connector-curvature="0" />
	<path style="fill:none;stroke:red;stroke-width:1px;stroke-linecap:butt;stroke-linejoin:miter;stroke-opacity:1" d="M 341.778,693.778 359.556,725.778 z" id="boundary" inkscape:connector-curvature="0" />
	<path style="fill:none;stroke:red;stroke-width:1px;stroke-linecap:butt;stroke-linejoin:miter;stroke-opacity:1" d="M 334.667,658.222 348.889,622.667 z" id="boundary" inkscape:connector-curvature="0" />
	<path style="fill:none;stroke:red;stroke-width:1px;stroke-linecap:butt;stroke-linejoin:miter;stroke-opacity:1" d="M 341.778,693.778 334.667,658.222 z" id="boundary" inkscape:connector-curvature="0" />
	<path style="fill:none;stroke:red;stroke-width:1px;stroke-linecap:butt;stroke-linejoin:miter;stroke-opacity:1" d="M 224.444,996 188.889,996 z" id="boundary" inkscape:connector-curvature="0" />
	<path style="fill:none;stroke:red;stroke-width:1px;stroke-linecap:butt;stroke-linejoin:miter;stroke-opacity:1" d="M 260,996 224.444,996 z" id="boundary" inkscape:connector-curvature="0" />
	<path style="fill:none;stroke:red;stroke-width:1px;stroke-linecap:butt;stroke-linejoin:miter;stroke-opacity:1" d="M 295.556,988.889 260,996 z" id="boundary" inkscape:connector-curvature="0" />
	<path style="fill:none;stroke:red;stroke-width:1px;stroke-linecap:butt;stroke-linejoin:miter;stroke-opacity:1" d="M 327.556,971.111 295.556,988.889 z" id="boundary" inkscape:connector-curvature="0" />
	<path style="fill:none;stroke:red;stroke-width:1px;stroke-linecap:butt;stroke-linejoin:miter;stroke-opacity:1" d="M 338.222,526.667 356,558.667 z" id="boundary" inkscape:connector-curvature="0" />
	<path style="fill:none;stroke:red;stroke-width:1px;stroke-linecap:butt;stroke-linejoin:miter;stroke-opacity:1" d="M 348.889,622.667 356,558.667 z" id="boundary" inkscape:connector-curvature="0" />
	<path style="fill:none;stroke:red;stroke-width:1px;stroke-linecap:butt;stroke-linejoin:miter;stroke-opacity:1" d="M 356,949.778 327.556,971.111 z" id="boundary" inkscape:connector-curvature="0" />
	<path style="fill:none;stroke:red;stroke-width:1px;stroke-linecap:butt;stroke-linejoin:miter;stroke-opacity:1" d="M 380.889,754.222 359.556,725.778 z" id="boundary" inkscape:connector-curvature="0" />
	<path style="fill:none;stroke:red;stroke-width:1px;stroke-linecap:butt;stroke-linejoin:miter;stroke-opacity:1" d="M 398.667,786.222 380.889,754.222 z" id="boundary" inkscape:connector-curvature="0" />
	<path style="fill:none;stroke:red;stroke-width:1px;stroke-linecap:butt;stroke-linejoin:miter;stroke-opacity:1" d="M 384.444,921.333 356,949.778 z" id="boundary" inkscape:connector-curvature="0" />
	<path style="fill:none;stroke:red;stroke-width:1px;stroke-linecap:butt;stroke-linejoin:miter;stroke-opacity:1" d="M 405.778,821.778 402.222,889.333 z" id="boundary" inkscape:connector-curvature="0" />
	<path style="fill:none;stroke:red;stroke-width:1px;stroke-linecap:butt;stroke-linejoin:miter;stroke-opacity:1" d="M 402.222,889.333 384.444,921.333 z" id="boundary" inkscape:connector-curvature="0" />
	<path style="fill:none;stroke:red;stroke-width:1px;stroke-linecap:butt;stroke-linejoin:miter;stroke-opacity:1" d="M 405.778,821.778 398.667,786.222 z" id="boundary" inkscape:connector-curvature="0" />
	<path style="fill:none;stroke:red;stroke-width:1px;stroke-linecap:butt;stroke-linejoin:miter;stroke-opacity:1" d="M 224.444,4 242.222,39.5556 z" id="boundary" inkscape:connector-curvature="0" />
	<path style="fill:none;stroke:red;stroke-width:1px;stroke-linecap:butt;stroke-linejoin:miter;stroke-opacity:1" d="M 188.889,4 224.444,4 z" id="boundary" inkscape:connector-curvature="0" />
	<circle cx="4" cy="821.778" r="4" fill="#0" id="circle0"/>
	<circle cx="4" cy="857.333" r="4" fill="#0" id="circle1"/>
	<circle cx="11.1111" cy="892.889" r="4" fill="#0" id="circle2"/>
	<circle cx="18.2222" cy="779.111" r="4" fill="#0" id="circle3"/>
	<circle cx="32.4444" cy="921.333" r="4" fill="#0" id="circle4"/>
	<circle cx="36" cy="747.111" r="4" fill="#0" id="circle5"/>
	<circle cx="46.6667" cy="558.667" r="4" fill="#0" id="circle6"/>
	<circle cx="46.6667" cy="594.222" r="4" fill="#0" id="circle7"/>
	<circle cx="57.3333" cy="718.667" r="4" fill="#0" id="circle8"/>
	<circle cx="57.3333" cy="949.778" r="4" fill="#0" id="circle9"/>
	<circle cx="60.8889" cy="629.778" r="4" fill="#0" id="circle10"/>
	<circle cx="71.5556" cy="683.111" r="4" fill="#0" id="circle11"/>
	<circle cx="82.2222" cy="544.444" r="4" fill="#0" id="circle12"/>
	<circle cx="85.7778" cy="971.111" r="4" fill="#0" id="circle13"/>
	<circle cx="103.556" cy="572.889" r="4" fill="#0" id="circle14"/>
	<circle cx="117.778" cy="988.889" r="4" fill="#0" id="circle15"/>
	<circle cx="139.111" cy="572.889" r="4" fill="#0" id="circle16"/>
	<circle cx="153.333" cy="992.444" r="4" fill="#0" id="circle17"/>
	<circle cx="160.444" cy="25.3333" r="4" fill="#0" id="circle18"/>
	<circle cx="160.444" cy="60.8889" r="4" fill="#0" id="circle19"/>
	<circle cx="160.444" cy="96.4444" r="4" fill="#0" id="circle20"/>
	<circle cx="160.444" cy="537.333" r="4" fill="#0" id="circle21"/>
	<circle cx="167.556" cy="494.667" r="4" fill="#0" id="circle22"/>
	<circle cx="181.778" cy="260" r="4" fill="#0" id="circle23"/>
	<circle cx="181.778" cy="295.556" r="4" fill="#0" id="circle24"/>
	<circle cx="181.778" cy="331.111" r="4" fill="#0" id="circle25"/>
	<circle cx="181.778" cy="366.667" r="4" fill="#0" id="circle26"/>
	<circle cx="181.778" cy="402.222" r="4" fill="#0" id="circle27"/>
	<circle cx="181.778" cy="437.778" r="4" fill="#0" id="circle28"/>
	<circle cx="185.333" cy="124.889" r="4" fill="#0" id="circle29"/>
	<circle cx="188.889" cy="4" r="4" fill="#0" id="circle30"/>
	<circle cx="188.889" cy="160.444" r="4" fill="#0" id="circle31"/>
	<circle cx="188.889" cy="196" r="4" fill="#0" id="circle32"/>
	<circle cx="188.889" cy="996" r="4" fill="#0" id="circle33"/>
	<circle cx="224.444" cy="4" r="4" fill="#0" id="circle34"/>
	<circle cx="224.444" cy="996" r="4" fill="#0" id="circle35"/>
	<circle cx="235.111" cy="124.889" r="4" fill="#0" id="circle36"/>
	<circle cx="235.111" cy="160.444" r="4" fill="#0" id="circle37"/>
	<circle cx="235.111" cy="196" r="4" fill="#0" id="circle38"/>
	<circle cx="235.111" cy="231.556" r="4" fill="#0" id="circle39"/>
	<circle cx="242.222" cy="39.5556" r="4" fill="#0" id="circle40"/>
	<circle cx="242.222" cy="75.1111" r="4" fill="#0" id="circle41"/>
	<circle cx="242.222" cy="267.111" r="4" fill="#0" id="circle42"/>
	<circle cx="242.222" cy="302.667" r="4" fill="#0" id="circle43"/>
	<circle cx="242.222" cy="338.222" r="4" fill="#0" id="circle44"/>
	<circle cx="242.222" cy="373.778" r="4" fill="#0" id="circle45"/>
	<circle cx="242.222" cy="409.333" r="4" fill="#0" id="circle46"/>
	<circle cx="242.222" cy="444.889" r="4" fill="#0" id="circle47"/>
	<circle cx="242.222" cy="480.444" r="4" fill="#0" id="circle48"/>
	<circle cx="260" cy="996" r="4" fill="#0" id="circle49"/>
	<circle cx="270.667" cy="501.778" r="4" fill="#0" id="circle50"/>
	<circle cx="295.556" cy="988.889" r="4" fill="#0" id="circle51"/>
	<circle cx="306.222" cy="508.889" r="4" fill="#0" id="circle52"/>
	<circle cx="327.556" cy="971.111" r="4" fill="#0" id="circle53"/>
	<circle cx="334.667" cy="658.222" r="4" fill="#0" id="circle54"/>
	<circle cx="338.222" cy="526.667" r="4" fill="#0" id="circle55"/>
	<circle cx="341.778" cy="693.778" r="4" fill="#0" id="circle56"/>
	<circle cx="348.889" cy="622.667" r="4" fill="#0" id="circle57"/>
	<circle cx="356" cy="558.667" r="4" fill="#0" id="circle58"/>
	<circle cx="356" cy="949.778" r="4" fill="#0" id="circle59"/>
	<circle cx="359.556" cy="725.778" r="4" fill="#0" id="circle60"/>
	<circle cx="380.889" cy="754.222" r="4" fill="#0" id="circle61"/>
	<circle cx="384.444" cy="921.333" r="4" fill="#0" id="circle62"/>
	<circle cx="398.667" cy="786.222" r="4" fill="#0" id="circle63"/>
	<circle cx="402.222" cy="889.333" r="4" fill="#0" id="circle64"/>
	<circle cx="405.778" cy="821.778" r="4" fill="#0" id="circle65"/>
	</g>
</svg>