<?xml version="1.0" encoding="UTF-8" standalone="no"?>
<!-- Created with CurveBenchmark -->
<svg
	xmlns:dc="http://purl.org/dc/elements/1.1/"
	xmlns:cc="http://creativecommons.org/ns#"
	xmlns:rdf="http://www.w3.org/1999/02/22-rdf-syntax-ns#"
	xmlns:svg="http://www.w3.org/2000/svg"
	xmlns="http://www.w3.org/2000/svg"
	xmlns:sodipodi="http://sodipodi.sourceforge.net/DTD/sodipodi-0.dtd"
	xmlns:inkscape="http://www.inkscape.org/namespaces/inkscape"
	width="1000"
	height="1000"
	id="svg2"
	version="1.1"
	sodipodi:docname="manifold/nncrust-spoon-4.png.txt">
<defs
	id="defs4" />
<metadata
	id="metadata7">
	<rdf:RDF>
		<cc:Work
			rdf:about="">
			<dc:format>image/svg+xml</dc:format>
			<dc:type
				rdf:resource="http://purl.org/dc/dcmitype/StillImage" />
			<dc:title></dc:title>
		</cc:Work>
	</rdf:RDF>
</metadata>
<g
	inkscape:label="Layer 1"
	inkscape:groupmode="layer"
	id="layer1">
	<path style="fill:none;stroke:red;stroke-width:1px;stroke-linecap:butt;stroke-linejoin:miter;stroke-opacity:1" d="M 137.03,596.028 144.078,589.861 z" id="boundary" inkscape:connector-curvature="0" />
	<path style="fill:none;stroke:red;stroke-width:1px;stroke-linecap:butt;stroke-linejoin:miter;stroke-opacity:1" d="M 144.078,589.861 152.007,585.456 z" id="boundary" inkscape:connector-curvature="0" />
	<path style="fill:none;stroke:red;stroke-width:1px;stroke-linecap:butt;stroke-linejoin:miter;stroke-opacity:1" d="M 137.03,596.028 128.22,600.433 z" id="boundary" inkscape:connector-curvature="0" />
	<path style="fill:none;stroke:red;stroke-width:1px;stroke-linecap:butt;stroke-linejoin:miter;stroke-opacity:1" d="M 152.007,585.456 159.055,578.409 z" id="boundary" inkscape:connector-curvature="0" />
	<path style="fill:none;stroke:red;stroke-width:1px;stroke-linecap:butt;stroke-linejoin:miter;stroke-opacity:1" d="M 166.103,572.242 159.055,578.409 z" id="boundary" inkscape:connector-curvature="0" />
	<path style="fill:none;stroke:red;stroke-width:1px;stroke-linecap:butt;stroke-linejoin:miter;stroke-opacity:1" d="M 108.838,620.696 115.005,613.648 z" id="boundary" inkscape:connector-curvature="0" />
	<path style="fill:none;stroke:red;stroke-width:1px;stroke-linecap:butt;stroke-linejoin:miter;stroke-opacity:1" d="M 115.005,613.648 122.053,607.481 z" id="boundary" inkscape:connector-curvature="0" />
	<path style="fill:none;stroke:red;stroke-width:1px;stroke-linecap:butt;stroke-linejoin:miter;stroke-opacity:1" d="M 108.838,620.696 101.79,626.863 z" id="boundary" inkscape:connector-curvature="0" />
	<path style="fill:none;stroke:red;stroke-width:1px;stroke-linecap:butt;stroke-linejoin:miter;stroke-opacity:1" d="M 122.053,607.481 128.22,600.433 z" id="boundary" inkscape:connector-curvature="0" />
	<path style="fill:none;stroke:red;stroke-width:1px;stroke-linecap:butt;stroke-linejoin:miter;stroke-opacity:1" d="M 209.272,554.622 218.082,554.622 z" id="boundary" inkscape:connector-curvature="0" />
	<path style="fill:none;stroke:red;stroke-width:1px;stroke-linecap:butt;stroke-linejoin:miter;stroke-opacity:1" d="M 200.462,559.027 209.272,554.622 z" id="boundary" inkscape:connector-curvature="0" />
	<path style="fill:none;stroke:red;stroke-width:1px;stroke-linecap:butt;stroke-linejoin:miter;stroke-opacity:1" d="M 234.821,550.217 226.892,554.622 z" id="boundary" inkscape:connector-curvature="0" />
	<path style="fill:none;stroke:red;stroke-width:1px;stroke-linecap:butt;stroke-linejoin:miter;stroke-opacity:1" d="M 226.892,554.622 218.082,554.622 z" id="boundary" inkscape:connector-curvature="0" />
	<path style="fill:none;stroke:red;stroke-width:1px;stroke-linecap:butt;stroke-linejoin:miter;stroke-opacity:1" d="M 392.519,437.449 388.114,446.259 z" id="boundary" inkscape:connector-curvature="0" />
	<path style="fill:none;stroke:red;stroke-width:1px;stroke-linecap:butt;stroke-linejoin:miter;stroke-opacity:1" d="M 182.842,563.432 174.032,567.837 z" id="boundary" inkscape:connector-curvature="0" />
	<path style="fill:none;stroke:red;stroke-width:1px;stroke-linecap:butt;stroke-linejoin:miter;stroke-opacity:1" d="M 182.842,563.432 191.652,559.027 z" id="boundary" inkscape:connector-curvature="0" />
	<path style="fill:none;stroke:red;stroke-width:1px;stroke-linecap:butt;stroke-linejoin:miter;stroke-opacity:1" d="M 191.652,559.027 200.462,559.027 z" id="boundary" inkscape:connector-curvature="0" />
	<path style="fill:none;stroke:red;stroke-width:1px;stroke-linecap:butt;stroke-linejoin:miter;stroke-opacity:1" d="M 166.103,572.242 174.032,567.837 z" id="boundary" inkscape:connector-curvature="0" />
	<path style="fill:none;stroke:red;stroke-width:1px;stroke-linecap:butt;stroke-linejoin:miter;stroke-opacity:1" d="M 39.2398,729.059 43.6448,720.249 z" id="boundary" inkscape:connector-curvature="0" />
	<path style="fill:none;stroke:red;stroke-width:1px;stroke-linecap:butt;stroke-linejoin:miter;stroke-opacity:1" d="M 39.2398,737.869 39.2398,729.059 z" id="boundary" inkscape:connector-curvature="0" />
	<path style="fill:none;stroke:red;stroke-width:1px;stroke-linecap:butt;stroke-linejoin:miter;stroke-opacity:1" d="M 48.0497,711.439 52.4547,702.629 z" id="boundary" inkscape:connector-curvature="0" />
	<path style="fill:none;stroke:red;stroke-width:1px;stroke-linecap:butt;stroke-linejoin:miter;stroke-opacity:1" d="M 43.6448,720.249 48.0497,711.439 z" id="boundary" inkscape:connector-curvature="0" />
	<path style="fill:none;stroke:red;stroke-width:1px;stroke-linecap:butt;stroke-linejoin:miter;stroke-opacity:1" d="M 30.4298,755.488 34.8348,746.679 z" id="boundary" inkscape:connector-curvature="0" />
	<path style="fill:none;stroke:red;stroke-width:1px;stroke-linecap:butt;stroke-linejoin:miter;stroke-opacity:1" d="M 30.4298,755.488 26.0249,764.298 z" id="boundary" inkscape:connector-curvature="0" />
	<path style="fill:none;stroke:red;stroke-width:1px;stroke-linecap:butt;stroke-linejoin:miter;stroke-opacity:1" d="M 52.4547,702.629 56.8597,693.819 z" id="boundary" inkscape:connector-curvature="0" />
	<path style="fill:none;stroke:red;stroke-width:1px;stroke-linecap:butt;stroke-linejoin:miter;stroke-opacity:1" d="M 39.2398,737.869 34.8348,746.679 z" id="boundary" inkscape:connector-curvature="0" />
	<path style="fill:none;stroke:red;stroke-width:1px;stroke-linecap:butt;stroke-linejoin:miter;stroke-opacity:1" d="M 81.5275,651.531 87.6945,640.959 z" id="boundary" inkscape:connector-curvature="0" />
	<path style="fill:none;stroke:red;stroke-width:1px;stroke-linecap:butt;stroke-linejoin:miter;stroke-opacity:1" d="M 87.6945,640.959 94.7425,633.911 z" id="boundary" inkscape:connector-curvature="0" />
	<path style="fill:none;stroke:red;stroke-width:1px;stroke-linecap:butt;stroke-linejoin:miter;stroke-opacity:1" d="M 81.5275,651.531 74.4796,658.579 z" id="boundary" inkscape:connector-curvature="0" />
	<path style="fill:none;stroke:red;stroke-width:1px;stroke-linecap:butt;stroke-linejoin:miter;stroke-opacity:1" d="M 94.7425,633.911 101.79,626.863 z" id="boundary" inkscape:connector-curvature="0" />
	<path style="fill:none;stroke:red;stroke-width:1px;stroke-linecap:butt;stroke-linejoin:miter;stroke-opacity:1" d="M 65.6696,676.199 70.0746,667.389 z" id="boundary" inkscape:connector-curvature="0" />
	<path style="fill:none;stroke:red;stroke-width:1px;stroke-linecap:butt;stroke-linejoin:miter;stroke-opacity:1" d="M 70.0746,667.389 74.4796,658.579 z" id="boundary" inkscape:connector-curvature="0" />
	<path style="fill:none;stroke:red;stroke-width:1px;stroke-linecap:butt;stroke-linejoin:miter;stroke-opacity:1" d="M 61.2647,685.009 65.6696,676.199 z" id="boundary" inkscape:connector-curvature="0" />
	<path style="fill:none;stroke:red;stroke-width:1px;stroke-linecap:butt;stroke-linejoin:miter;stroke-opacity:1" d="M 56.8597,693.819 61.2647,685.009 z" id="boundary" inkscape:connector-curvature="0" />
	<path style="fill:none;stroke:red;stroke-width:1px;stroke-linecap:butt;stroke-linejoin:miter;stroke-opacity:1" d="M 26.0249,773.108 26.0249,764.298 z" id="boundary" inkscape:connector-curvature="0" />
	<path style="fill:none;stroke:red;stroke-width:1px;stroke-linecap:butt;stroke-linejoin:miter;stroke-opacity:1" d="M 234.821,550.217 243.631,550.217 z" id="boundary" inkscape:connector-curvature="0" />
	<path style="fill:none;stroke:red;stroke-width:1px;stroke-linecap:butt;stroke-linejoin:miter;stroke-opacity:1" d="M 315.872,545.812 322.039,538.764 z" id="boundary" inkscape:connector-curvature="0" />
	<path style="fill:none;stroke:red;stroke-width:1px;stroke-linecap:butt;stroke-linejoin:miter;stroke-opacity:1" d="M 329.087,532.597 335.254,525.549 z" id="boundary" inkscape:connector-curvature="0" />
	<path style="fill:none;stroke:red;stroke-width:1px;stroke-linecap:butt;stroke-linejoin:miter;stroke-opacity:1" d="M 345.826,510.572 342.302,519.382 z" id="boundary" inkscape:connector-curvature="0" />
	<path style="fill:none;stroke:red;stroke-width:1px;stroke-linecap:butt;stroke-linejoin:miter;stroke-opacity:1" d="M 342.302,519.382 335.254,525.549 z" id="boundary" inkscape:connector-curvature="0" />
	<path style="fill:none;stroke:red;stroke-width:1px;stroke-linecap:butt;stroke-linejoin:miter;stroke-opacity:1" d="M 261.25,550.217 252.44,550.217 z" id="boundary" inkscape:connector-curvature="0" />
	<path style="fill:none;stroke:red;stroke-width:1px;stroke-linecap:butt;stroke-linejoin:miter;stroke-opacity:1" d="M 350.231,501.762 345.826,510.572 z" id="boundary" inkscape:connector-curvature="0" />
	<path style="fill:none;stroke:red;stroke-width:1px;stroke-linecap:butt;stroke-linejoin:miter;stroke-opacity:1" d="M 329.087,532.597 322.039,538.764 z" id="boundary" inkscape:connector-curvature="0" />
	<path style="fill:none;stroke:red;stroke-width:1px;stroke-linecap:butt;stroke-linejoin:miter;stroke-opacity:1" d="M 252.44,550.217 243.631,550.217 z" id="boundary" inkscape:connector-curvature="0" />
	<path style="fill:none;stroke:red;stroke-width:1px;stroke-linecap:butt;stroke-linejoin:miter;stroke-opacity:1" d="M 368.732,479.737 374.899,472.689 z" id="boundary" inkscape:connector-curvature="0" />
	<path style="fill:none;stroke:red;stroke-width:1px;stroke-linecap:butt;stroke-linejoin:miter;stroke-opacity:1" d="M 379.304,463.879 374.899,472.689 z" id="boundary" inkscape:connector-curvature="0" />
	<path style="fill:none;stroke:red;stroke-width:1px;stroke-linecap:butt;stroke-linejoin:miter;stroke-opacity:1" d="M 379.304,463.879 383.709,455.069 z" id="boundary" inkscape:connector-curvature="0" />
	<path style="fill:none;stroke:red;stroke-width:1px;stroke-linecap:butt;stroke-linejoin:miter;stroke-opacity:1" d="M 388.114,446.259 383.709,455.069 z" id="boundary" inkscape:connector-curvature="0" />
	<path style="fill:none;stroke:red;stroke-width:1px;stroke-linecap:butt;stroke-linejoin:miter;stroke-opacity:1" d="M 354.636,492.952 350.231,501.762 z" id="boundary" inkscape:connector-curvature="0" />
	<path style="fill:none;stroke:red;stroke-width:1px;stroke-linecap:butt;stroke-linejoin:miter;stroke-opacity:1" d="M 361.684,485.904 354.636,492.952 z" id="boundary" inkscape:connector-curvature="0" />
	<path style="fill:none;stroke:red;stroke-width:1px;stroke-linecap:butt;stroke-linejoin:miter;stroke-opacity:1" d="M 368.732,479.737 361.684,485.904 z" id="boundary" inkscape:connector-curvature="0" />
	<path style="fill:none;stroke:red;stroke-width:1px;stroke-linecap:butt;stroke-linejoin:miter;stroke-opacity:1" d="M 270.06,550.217 261.25,550.217 z" id="boundary" inkscape:connector-curvature="0" />
	<path style="fill:none;stroke:red;stroke-width:1px;stroke-linecap:butt;stroke-linejoin:miter;stroke-opacity:1" d="M 395.162,588.98 386.352,593.385 z" id="boundary" inkscape:connector-curvature="0" />
	<path style="fill:none;stroke:red;stroke-width:1px;stroke-linecap:butt;stroke-linejoin:miter;stroke-opacity:1" d="M 270.06,550.217 278.87,550.217 z" id="boundary" inkscape:connector-curvature="0" />
	<path style="fill:none;stroke:red;stroke-width:1px;stroke-linecap:butt;stroke-linejoin:miter;stroke-opacity:1" d="M 278.87,550.217 286.799,554.622 z" id="boundary" inkscape:connector-curvature="0" />
	<path style="fill:none;stroke:red;stroke-width:1px;stroke-linecap:butt;stroke-linejoin:miter;stroke-opacity:1" d="M 295.609,554.622 286.799,554.622 z" id="boundary" inkscape:connector-curvature="0" />
	<path style="fill:none;stroke:red;stroke-width:1px;stroke-linecap:butt;stroke-linejoin:miter;stroke-opacity:1" d="M 315.872,545.812 308.824,551.979 z" id="boundary" inkscape:connector-curvature="0" />
	<path style="fill:none;stroke:red;stroke-width:1px;stroke-linecap:butt;stroke-linejoin:miter;stroke-opacity:1" d="M 308.824,551.979 303.538,559.027 z" id="boundary" inkscape:connector-curvature="0" />
	<path style="fill:none;stroke:red;stroke-width:1px;stroke-linecap:butt;stroke-linejoin:miter;stroke-opacity:1" d="M 303.538,559.027 295.609,554.622 z" id="boundary" inkscape:connector-curvature="0" />
	<path style="fill:none;stroke:red;stroke-width:1px;stroke-linecap:butt;stroke-linejoin:miter;stroke-opacity:1" d="M 374.899,608.362 379.304,599.552 z" id="boundary" inkscape:connector-curvature="0" />
	<path style="fill:none;stroke:red;stroke-width:1px;stroke-linecap:butt;stroke-linejoin:miter;stroke-opacity:1" d="M 379.304,616.291 374.899,608.362 z" id="boundary" inkscape:connector-curvature="0" />
	<path style="fill:none;stroke:red;stroke-width:1px;stroke-linecap:butt;stroke-linejoin:miter;stroke-opacity:1" d="M 379.304,599.552 386.352,593.385 z" id="boundary" inkscape:connector-curvature="0" />
	<path style="fill:none;stroke:red;stroke-width:1px;stroke-linecap:butt;stroke-linejoin:miter;stroke-opacity:1" d="M 388.114,632.149 383.709,624.22 z" id="boundary" inkscape:connector-curvature="0" />
	<path style="fill:none;stroke:red;stroke-width:1px;stroke-linecap:butt;stroke-linejoin:miter;stroke-opacity:1" d="M 383.709,624.22 379.304,616.291 z" id="boundary" inkscape:connector-curvature="0" />
	<path style="fill:none;stroke:red;stroke-width:1px;stroke-linecap:butt;stroke-linejoin:miter;stroke-opacity:1" d="M 388.114,632.149 388.114,640.959 z" id="boundary" inkscape:connector-curvature="0" />
	<path style="fill:none;stroke:red;stroke-width:1px;stroke-linecap:butt;stroke-linejoin:miter;stroke-opacity:1" d="M 388.114,640.959 388.114,649.769 z" id="boundary" inkscape:connector-curvature="0" />
	<path style="fill:none;stroke:red;stroke-width:1px;stroke-linecap:butt;stroke-linejoin:miter;stroke-opacity:1" d="M 388.114,658.579 388.114,667.389 z" id="boundary" inkscape:connector-curvature="0" />
	<path style="fill:none;stroke:red;stroke-width:1px;stroke-linecap:butt;stroke-linejoin:miter;stroke-opacity:1" d="M 388.114,649.769 388.114,658.579 z" id="boundary" inkscape:connector-curvature="0" />
	<path style="fill:none;stroke:red;stroke-width:1px;stroke-linecap:butt;stroke-linejoin:miter;stroke-opacity:1" d="M 391.638,676.199 388.114,667.389 z" id="boundary" inkscape:connector-curvature="0" />
	<path style="fill:none;stroke:red;stroke-width:1px;stroke-linecap:butt;stroke-linejoin:miter;stroke-opacity:1" d="M 388.114,744.917 388.114,753.726 z" id="boundary" inkscape:connector-curvature="0" />
	<path style="fill:none;stroke:red;stroke-width:1px;stroke-linecap:butt;stroke-linejoin:miter;stroke-opacity:1" d="M 388.114,753.726 383.709,766.941 z" id="boundary" inkscape:connector-curvature="0" />
	<path style="fill:none;stroke:red;stroke-width:1px;stroke-linecap:butt;stroke-linejoin:miter;stroke-opacity:1" d="M 383.709,766.941 379.304,775.751 z" id="boundary" inkscape:connector-curvature="0" />
	<path style="fill:none;stroke:red;stroke-width:1px;stroke-linecap:butt;stroke-linejoin:miter;stroke-opacity:1" d="M 4,852.398 4,843.588 z" id="boundary" inkscape:connector-curvature="0" />
	<path style="fill:none;stroke:red;stroke-width:1px;stroke-linecap:butt;stroke-linejoin:miter;stroke-opacity:1" d="M 4,843.588 8.40497,830.373 z" id="boundary" inkscape:connector-curvature="0" />
	<path style="fill:none;stroke:red;stroke-width:1px;stroke-linecap:butt;stroke-linejoin:miter;stroke-opacity:1" d="M 4,878.828 4,870.018 z" id="boundary" inkscape:connector-curvature="0" />
	<path style="fill:none;stroke:red;stroke-width:1px;stroke-linecap:butt;stroke-linejoin:miter;stroke-opacity:1" d="M 4,861.208 4,852.398 z" id="boundary" inkscape:connector-curvature="0" />
	<path style="fill:none;stroke:red;stroke-width:1px;stroke-linecap:butt;stroke-linejoin:miter;stroke-opacity:1" d="M 4,887.638 4,878.828 z" id="boundary" inkscape:connector-curvature="0" />
	<path style="fill:none;stroke:red;stroke-width:1px;stroke-linecap:butt;stroke-linejoin:miter;stroke-opacity:1" d="M 4,905.258 4,896.448 z" id="boundary" inkscape:connector-curvature="0" />
	<path style="fill:none;stroke:red;stroke-width:1px;stroke-linecap:butt;stroke-linejoin:miter;stroke-opacity:1" d="M 8.40497,913.187 4,905.258 z" id="boundary" inkscape:connector-curvature="0" />
	<path style="fill:none;stroke:red;stroke-width:1px;stroke-linecap:butt;stroke-linejoin:miter;stroke-opacity:1" d="M 4,896.448 4,887.638 z" id="boundary" inkscape:connector-curvature="0" />
	<path style="fill:none;stroke:red;stroke-width:1px;stroke-linecap:butt;stroke-linejoin:miter;stroke-opacity:1" d="M 12.8099,803.943 17.2149,795.133 z" id="boundary" inkscape:connector-curvature="0" />
	<path style="fill:none;stroke:red;stroke-width:1px;stroke-linecap:butt;stroke-linejoin:miter;stroke-opacity:1" d="M 12.8099,812.753 12.8099,803.943 z" id="boundary" inkscape:connector-curvature="0" />
	<path style="fill:none;stroke:red;stroke-width:1px;stroke-linecap:butt;stroke-linejoin:miter;stroke-opacity:1" d="M 21.6199,781.918 17.2149,795.133 z" id="boundary" inkscape:connector-curvature="0" />
	<path style="fill:none;stroke:red;stroke-width:1px;stroke-linecap:butt;stroke-linejoin:miter;stroke-opacity:1" d="M 21.6199,781.918 26.0249,773.108 z" id="boundary" inkscape:connector-curvature="0" />
	<path style="fill:none;stroke:red;stroke-width:1px;stroke-linecap:butt;stroke-linejoin:miter;stroke-opacity:1" d="M 8.40497,821.563 8.40497,830.373 z" id="boundary" inkscape:connector-curvature="0" />
	<path style="fill:none;stroke:red;stroke-width:1px;stroke-linecap:butt;stroke-linejoin:miter;stroke-opacity:1" d="M 8.40497,821.563 12.8099,812.753 z" id="boundary" inkscape:connector-curvature="0" />
	<path style="fill:none;stroke:red;stroke-width:1px;stroke-linecap:butt;stroke-linejoin:miter;stroke-opacity:1" d="M 4,870.018 4,861.208 z" id="boundary" inkscape:connector-curvature="0" />
	<path style="fill:none;stroke:red;stroke-width:1px;stroke-linecap:butt;stroke-linejoin:miter;stroke-opacity:1" d="M 8.40497,921.996 8.40497,913.187 z" id="boundary" inkscape:connector-curvature="0" />
	<path style="fill:none;stroke:red;stroke-width:1px;stroke-linecap:butt;stroke-linejoin:miter;stroke-opacity:1" d="M 12.8099,929.925 8.40497,921.996 z" id="boundary" inkscape:connector-curvature="0" />
	<path style="fill:none;stroke:red;stroke-width:1px;stroke-linecap:butt;stroke-linejoin:miter;stroke-opacity:1" d="M 12.8099,929.925 15.4529,938.735 z" id="boundary" inkscape:connector-curvature="0" />
	<path style="fill:none;stroke:red;stroke-width:1px;stroke-linecap:butt;stroke-linejoin:miter;stroke-opacity:1" d="M 22.5009,944.902 15.4529,938.735 z" id="boundary" inkscape:connector-curvature="0" />
	<path style="fill:none;stroke:red;stroke-width:1px;stroke-linecap:butt;stroke-linejoin:miter;stroke-opacity:1" d="M 22.5009,944.902 26.0249,953.712 z" id="boundary" inkscape:connector-curvature="0" />
	<path style="fill:none;stroke:red;stroke-width:1px;stroke-linecap:butt;stroke-linejoin:miter;stroke-opacity:1" d="M 33.0728,959.879 26.0249,953.712 z" id="boundary" inkscape:connector-curvature="0" />
	<path style="fill:none;stroke:red;stroke-width:1px;stroke-linecap:butt;stroke-linejoin:miter;stroke-opacity:1" d="M 33.0728,959.879 39.2398,966.927 z" id="boundary" inkscape:connector-curvature="0" />
	<path style="fill:none;stroke:red;stroke-width:1px;stroke-linecap:butt;stroke-linejoin:miter;stroke-opacity:1" d="M 46.2877,973.094 39.2398,966.927 z" id="boundary" inkscape:connector-curvature="0" />
	<path style="fill:none;stroke:red;stroke-width:1px;stroke-linecap:butt;stroke-linejoin:miter;stroke-opacity:1" d="M 61.2647,982.785 52.4547,980.142 z" id="boundary" inkscape:connector-curvature="0" />
	<path style="fill:none;stroke:red;stroke-width:1px;stroke-linecap:butt;stroke-linejoin:miter;stroke-opacity:1" d="M 52.4547,980.142 46.2877,973.094 z" id="boundary" inkscape:connector-curvature="0" />
	<path style="fill:none;stroke:red;stroke-width:1px;stroke-linecap:butt;stroke-linejoin:miter;stroke-opacity:1" d="M 61.2647,982.785 69.1936,987.19 z" id="boundary" inkscape:connector-curvature="0" />
	<path style="fill:none;stroke:red;stroke-width:1px;stroke-linecap:butt;stroke-linejoin:miter;stroke-opacity:1" d="M 69.1936,987.19 77.1226,991.595 z" id="boundary" inkscape:connector-curvature="0" />
	<path style="fill:none;stroke:red;stroke-width:1px;stroke-linecap:butt;stroke-linejoin:miter;stroke-opacity:1" d="M 102.671,996 93.8615,996 z" id="boundary" inkscape:connector-curvature="0" />
	<path style="fill:none;stroke:red;stroke-width:1px;stroke-linecap:butt;stroke-linejoin:miter;stroke-opacity:1" d="M 93.8615,996 85.0515,996 z" id="boundary" inkscape:connector-curvature="0" />
	<path style="fill:none;stroke:red;stroke-width:1px;stroke-linecap:butt;stroke-linejoin:miter;stroke-opacity:1" d="M 85.0515,996 77.1226,991.595 z" id="boundary" inkscape:connector-curvature="0" />
	<path style="fill:none;stroke:red;stroke-width:1px;stroke-linecap:butt;stroke-linejoin:miter;stroke-opacity:1" d="M 111.481,996 102.671,996 z" id="boundary" inkscape:connector-curvature="0" />
	<path style="fill:none;stroke:red;stroke-width:1px;stroke-linecap:butt;stroke-linejoin:miter;stroke-opacity:1" d="M 120.291,996 111.481,996 z" id="boundary" inkscape:connector-curvature="0" />
	<path style="fill:none;stroke:red;stroke-width:1px;stroke-linecap:butt;stroke-linejoin:miter;stroke-opacity:1" d="M 129.101,996 120.291,996 z" id="boundary" inkscape:connector-curvature="0" />
	<path style="fill:none;stroke:red;stroke-width:1px;stroke-linecap:butt;stroke-linejoin:miter;stroke-opacity:1" d="M 137.911,996 129.101,996 z" id="boundary" inkscape:connector-curvature="0" />
	<path style="fill:none;stroke:red;stroke-width:1px;stroke-linecap:butt;stroke-linejoin:miter;stroke-opacity:1" d="M 311.467,879.709 317.634,872.661 z" id="boundary" inkscape:connector-curvature="0" />
	<path style="fill:none;stroke:red;stroke-width:1px;stroke-linecap:butt;stroke-linejoin:miter;stroke-opacity:1" d="M 317.634,872.661 324.682,866.494 z" id="boundary" inkscape:connector-curvature="0" />
	<path style="fill:none;stroke:red;stroke-width:1px;stroke-linecap:butt;stroke-linejoin:miter;stroke-opacity:1" d="M 324.682,866.494 330.849,855.041 z" id="boundary" inkscape:connector-curvature="0" />
	<path style="fill:none;stroke:red;stroke-width:1px;stroke-linecap:butt;stroke-linejoin:miter;stroke-opacity:1" d="M 330.849,855.041 337.897,848.874 z" id="boundary" inkscape:connector-curvature="0" />
	<path style="fill:none;stroke:red;stroke-width:1px;stroke-linecap:butt;stroke-linejoin:miter;stroke-opacity:1" d="M 311.467,879.709 304.419,885.876 z" id="boundary" inkscape:connector-curvature="0" />
	<path style="fill:none;stroke:red;stroke-width:1px;stroke-linecap:butt;stroke-linejoin:miter;stroke-opacity:1" d="M 286.799,907.901 293.847,901.734 z" id="boundary" inkscape:connector-curvature="0" />
	<path style="fill:none;stroke:red;stroke-width:1px;stroke-linecap:butt;stroke-linejoin:miter;stroke-opacity:1" d="M 280.632,914.948 286.799,907.901 z" id="boundary" inkscape:connector-curvature="0" />
	<path style="fill:none;stroke:red;stroke-width:1px;stroke-linecap:butt;stroke-linejoin:miter;stroke-opacity:1" d="M 300.014,894.686 304.419,885.876 z" id="boundary" inkscape:connector-curvature="0" />
	<path style="fill:none;stroke:red;stroke-width:1px;stroke-linecap:butt;stroke-linejoin:miter;stroke-opacity:1" d="M 300.014,894.686 293.847,901.734 z" id="boundary" inkscape:connector-curvature="0" />
	<path style="fill:none;stroke:red;stroke-width:1px;stroke-linecap:butt;stroke-linejoin:miter;stroke-opacity:1" d="M 366.089,802.181 370.494,793.371 z" id="boundary" inkscape:connector-curvature="0" />
	<path style="fill:none;stroke:red;stroke-width:1px;stroke-linecap:butt;stroke-linejoin:miter;stroke-opacity:1" d="M 374.899,784.561 379.304,775.751 z" id="boundary" inkscape:connector-curvature="0" />
	<path style="fill:none;stroke:red;stroke-width:1px;stroke-linecap:butt;stroke-linejoin:miter;stroke-opacity:1" d="M 366.089,802.181 361.684,810.991 z" id="boundary" inkscape:connector-curvature="0" />
	<path style="fill:none;stroke:red;stroke-width:1px;stroke-linecap:butt;stroke-linejoin:miter;stroke-opacity:1" d="M 370.494,793.371 374.899,784.561 z" id="boundary" inkscape:connector-curvature="0" />
	<path style="fill:none;stroke:red;stroke-width:1px;stroke-linecap:butt;stroke-linejoin:miter;stroke-opacity:1" d="M 337.897,848.874 344.064,837.421 z" id="boundary" inkscape:connector-curvature="0" />
	<path style="fill:none;stroke:red;stroke-width:1px;stroke-linecap:butt;stroke-linejoin:miter;stroke-opacity:1" d="M 344.064,837.421 351.112,831.254 z" id="boundary" inkscape:connector-curvature="0" />
	<path style="fill:none;stroke:red;stroke-width:1px;stroke-linecap:butt;stroke-linejoin:miter;stroke-opacity:1" d="M 357.279,819.801 351.112,831.254 z" id="boundary" inkscape:connector-curvature="0" />
	<path style="fill:none;stroke:red;stroke-width:1px;stroke-linecap:butt;stroke-linejoin:miter;stroke-opacity:1" d="M 361.684,810.991 357.279,819.801 z" id="boundary" inkscape:connector-curvature="0" />
	<path style="fill:none;stroke:red;stroke-width:1px;stroke-linecap:butt;stroke-linejoin:miter;stroke-opacity:1" d="M 196.938,976.618 188.128,981.023 z" id="boundary" inkscape:connector-curvature="0" />
	<path style="fill:none;stroke:red;stroke-width:1px;stroke-linecap:butt;stroke-linejoin:miter;stroke-opacity:1" d="M 188.128,981.023 179.318,982.785 z" id="boundary" inkscape:connector-curvature="0" />
	<path style="fill:none;stroke:red;stroke-width:1px;stroke-linecap:butt;stroke-linejoin:miter;stroke-opacity:1" d="M 220.725,960.76 214.558,967.808 z" id="boundary" inkscape:connector-curvature="0" />
	<path style="fill:none;stroke:red;stroke-width:1px;stroke-linecap:butt;stroke-linejoin:miter;stroke-opacity:1" d="M 214.558,967.808 205.748,972.213 z" id="boundary" inkscape:connector-curvature="0" />
	<path style="fill:none;stroke:red;stroke-width:1px;stroke-linecap:butt;stroke-linejoin:miter;stroke-opacity:1" d="M 205.748,972.213 196.938,976.618 z" id="boundary" inkscape:connector-curvature="0" />
	<path style="fill:none;stroke:red;stroke-width:1px;stroke-linecap:butt;stroke-linejoin:miter;stroke-opacity:1" d="M 146.721,996 154.65,991.595 z" id="boundary" inkscape:connector-curvature="0" />
	<path style="fill:none;stroke:red;stroke-width:1px;stroke-linecap:butt;stroke-linejoin:miter;stroke-opacity:1" d="M 146.721,996 137.911,996 z" id="boundary" inkscape:connector-curvature="0" />
	<path style="fill:none;stroke:red;stroke-width:1px;stroke-linecap:butt;stroke-linejoin:miter;stroke-opacity:1" d="M 162.579,987.19 170.508,982.785 z" id="boundary" inkscape:connector-curvature="0" />
	<path style="fill:none;stroke:red;stroke-width:1px;stroke-linecap:butt;stroke-linejoin:miter;stroke-opacity:1" d="M 170.508,982.785 179.318,982.785 z" id="boundary" inkscape:connector-curvature="0" />
	<path style="fill:none;stroke:red;stroke-width:1px;stroke-linecap:butt;stroke-linejoin:miter;stroke-opacity:1" d="M 154.65,991.595 162.579,987.19 z" id="boundary" inkscape:connector-curvature="0" />
	<path style="fill:none;stroke:red;stroke-width:1px;stroke-linecap:butt;stroke-linejoin:miter;stroke-opacity:1" d="M 260.369,934.33 267.417,928.163 z" id="boundary" inkscape:connector-curvature="0" />
	<path style="fill:none;stroke:red;stroke-width:1px;stroke-linecap:butt;stroke-linejoin:miter;stroke-opacity:1" d="M 254.202,941.378 260.369,934.33 z" id="boundary" inkscape:connector-curvature="0" />
	<path style="fill:none;stroke:red;stroke-width:1px;stroke-linecap:butt;stroke-linejoin:miter;stroke-opacity:1" d="M 273.584,921.115 267.417,928.163 z" id="boundary" inkscape:connector-curvature="0" />
	<path style="fill:none;stroke:red;stroke-width:1px;stroke-linecap:butt;stroke-linejoin:miter;stroke-opacity:1" d="M 273.584,921.115 280.632,914.948 z" id="boundary" inkscape:connector-curvature="0" />
	<path style="fill:none;stroke:red;stroke-width:1px;stroke-linecap:butt;stroke-linejoin:miter;stroke-opacity:1" d="M 220.725,960.76 229.535,956.355 z" id="boundary" inkscape:connector-curvature="0" />
	<path style="fill:none;stroke:red;stroke-width:1px;stroke-linecap:butt;stroke-linejoin:miter;stroke-opacity:1" d="M 254.202,941.378 247.155,947.545 z" id="boundary" inkscape:connector-curvature="0" />
	<path style="fill:none;stroke:red;stroke-width:1px;stroke-linecap:butt;stroke-linejoin:miter;stroke-opacity:1" d="M 247.155,947.545 238.345,951.95 z" id="boundary" inkscape:connector-curvature="0" />
	<path style="fill:none;stroke:red;stroke-width:1px;stroke-linecap:butt;stroke-linejoin:miter;stroke-opacity:1" d="M 238.345,951.95 229.535,956.355 z" id="boundary" inkscape:connector-curvature="0" />
	<path style="fill:none;stroke:red;stroke-width:1px;stroke-linecap:butt;stroke-linejoin:miter;stroke-opacity:1" d="M 607.481,125.577 614.529,118.529 z" id="boundary" inkscape:connector-curvature="0" />
	<path style="fill:none;stroke:red;stroke-width:1px;stroke-linecap:butt;stroke-linejoin:miter;stroke-opacity:1" d="M 602.195,136.149 607.481,125.577 z" id="boundary" inkscape:connector-curvature="0" />
	<path style="fill:none;stroke:red;stroke-width:1px;stroke-linecap:butt;stroke-linejoin:miter;stroke-opacity:1" d="M 620.696,107.957 614.529,118.529 z" id="boundary" inkscape:connector-curvature="0" />
	<path style="fill:none;stroke:red;stroke-width:1px;stroke-linecap:butt;stroke-linejoin:miter;stroke-opacity:1" d="M 625.101,99.1474 620.696,107.957 z" id="boundary" inkscape:connector-curvature="0" />
	<path style="fill:none;stroke:red;stroke-width:1px;stroke-linecap:butt;stroke-linejoin:miter;stroke-opacity:1" d="M 629.506,90.3375 625.101,99.1474 z" id="boundary" inkscape:connector-curvature="0" />
	<path style="fill:none;stroke:red;stroke-width:1px;stroke-linecap:butt;stroke-linejoin:miter;stroke-opacity:1" d="M 579.29,166.984 586.337,159.936 z" id="boundary" inkscape:connector-curvature="0" />
	<path style="fill:none;stroke:red;stroke-width:1px;stroke-linecap:butt;stroke-linejoin:miter;stroke-opacity:1" d="M 590.742,151.126 586.337,159.936 z" id="boundary" inkscape:connector-curvature="0" />
	<path style="fill:none;stroke:red;stroke-width:1px;stroke-linecap:butt;stroke-linejoin:miter;stroke-opacity:1" d="M 595.147,142.316 602.195,136.149 z" id="boundary" inkscape:connector-curvature="0" />
	<path style="fill:none;stroke:red;stroke-width:1px;stroke-linecap:butt;stroke-linejoin:miter;stroke-opacity:1" d="M 590.742,151.126 595.147,142.316 z" id="boundary" inkscape:connector-curvature="0" />
	<path style="fill:none;stroke:red;stroke-width:1px;stroke-linecap:butt;stroke-linejoin:miter;stroke-opacity:1" d="M 654.174,48.0497 660.341,37.4778 z" id="boundary" inkscape:connector-curvature="0" />
	<path style="fill:none;stroke:red;stroke-width:1px;stroke-linecap:butt;stroke-linejoin:miter;stroke-opacity:1" d="M 660.341,37.4778 667.389,30.4298 z" id="boundary" inkscape:connector-curvature="0" />
	<path style="fill:none;stroke:red;stroke-width:1px;stroke-linecap:butt;stroke-linejoin:miter;stroke-opacity:1" d="M 654.174,48.0497 647.126,55.0977 z" id="boundary" inkscape:connector-curvature="0" />
	<path style="fill:none;stroke:red;stroke-width:1px;stroke-linecap:butt;stroke-linejoin:miter;stroke-opacity:1" d="M 633.911,81.5275 638.316,72.7176 z" id="boundary" inkscape:connector-curvature="0" />
	<path style="fill:none;stroke:red;stroke-width:1px;stroke-linecap:butt;stroke-linejoin:miter;stroke-opacity:1" d="M 633.911,81.5275 629.506,90.3375 z" id="boundary" inkscape:connector-curvature="0" />
	<path style="fill:none;stroke:red;stroke-width:1px;stroke-linecap:butt;stroke-linejoin:miter;stroke-opacity:1" d="M 638.316,72.7176 642.721,63.9076 z" id="boundary" inkscape:connector-curvature="0" />
	<path style="fill:none;stroke:red;stroke-width:1px;stroke-linecap:butt;stroke-linejoin:miter;stroke-opacity:1" d="M 647.126,55.0977 642.721,63.9076 z" id="boundary" inkscape:connector-curvature="0" />
	<path style="fill:none;stroke:red;stroke-width:1px;stroke-linecap:butt;stroke-linejoin:miter;stroke-opacity:1" d="M 535.24,237.464 541.407,226.892 z" id="boundary" inkscape:connector-curvature="0" />
	<path style="fill:none;stroke:red;stroke-width:1px;stroke-linecap:butt;stroke-linejoin:miter;stroke-opacity:1" d="M 545.812,218.082 541.407,226.892 z" id="boundary" inkscape:connector-curvature="0" />
	<path style="fill:none;stroke:red;stroke-width:1px;stroke-linecap:butt;stroke-linejoin:miter;stroke-opacity:1" d="M 545.812,218.082 550.217,209.272 z" id="boundary" inkscape:connector-curvature="0" />
	<path style="fill:none;stroke:red;stroke-width:1px;stroke-linecap:butt;stroke-linejoin:miter;stroke-opacity:1" d="M 550.217,209.272 557.265,202.224 z" id="boundary" inkscape:connector-curvature="0" />
	<path style="fill:none;stroke:red;stroke-width:1px;stroke-linecap:butt;stroke-linejoin:miter;stroke-opacity:1" d="M 535.24,237.464 528.192,244.512 z" id="boundary" inkscape:connector-curvature="0" />
	<path style="fill:none;stroke:red;stroke-width:1px;stroke-linecap:butt;stroke-linejoin:miter;stroke-opacity:1" d="M 510.572,270.941 514.977,262.131 z" id="boundary" inkscape:connector-curvature="0" />
	<path style="fill:none;stroke:red;stroke-width:1px;stroke-linecap:butt;stroke-linejoin:miter;stroke-opacity:1" d="M 514.977,262.131 522.025,255.083 z" id="boundary" inkscape:connector-curvature="0" />
	<path style="fill:none;stroke:red;stroke-width:1px;stroke-linecap:butt;stroke-linejoin:miter;stroke-opacity:1" d="M 522.025,255.083 528.192,244.512 z" id="boundary" inkscape:connector-curvature="0" />
	<path style="fill:none;stroke:red;stroke-width:1px;stroke-linecap:butt;stroke-linejoin:miter;stroke-opacity:1" d="M 563.432,191.652 567.837,182.842 z" id="boundary" inkscape:connector-curvature="0" />
	<path style="fill:none;stroke:red;stroke-width:1px;stroke-linecap:butt;stroke-linejoin:miter;stroke-opacity:1" d="M 563.432,191.652 557.265,202.224 z" id="boundary" inkscape:connector-curvature="0" />
	<path style="fill:none;stroke:red;stroke-width:1px;stroke-linecap:butt;stroke-linejoin:miter;stroke-opacity:1" d="M 572.242,174.032 579.29,166.984 z" id="boundary" inkscape:connector-curvature="0" />
	<path style="fill:none;stroke:red;stroke-width:1px;stroke-linecap:butt;stroke-linejoin:miter;stroke-opacity:1" d="M 567.837,182.842 572.242,174.032 z" id="boundary" inkscape:connector-curvature="0" />
	<path style="fill:none;stroke:red;stroke-width:1px;stroke-linecap:butt;stroke-linejoin:miter;stroke-opacity:1" d="M 683.247,238.345 678.842,247.155 z" id="boundary" inkscape:connector-curvature="0" />
	<path style="fill:none;stroke:red;stroke-width:1px;stroke-linecap:butt;stroke-linejoin:miter;stroke-opacity:1" d="M 678.842,247.155 672.675,258.607 z" id="boundary" inkscape:connector-curvature="0" />
	<path style="fill:none;stroke:red;stroke-width:1px;stroke-linecap:butt;stroke-linejoin:miter;stroke-opacity:1" d="M 672.675,258.607 665.627,264.774 z" id="boundary" inkscape:connector-curvature="0" />
	<path style="fill:none;stroke:red;stroke-width:1px;stroke-linecap:butt;stroke-linejoin:miter;stroke-opacity:1" d="M 661.222,273.584 665.627,264.774 z" id="boundary" inkscape:connector-curvature="0" />
	<path style="fill:none;stroke:red;stroke-width:1px;stroke-linecap:butt;stroke-linejoin:miter;stroke-opacity:1" d="M 661.222,273.584 655.055,280.632 z" id="boundary" inkscape:connector-curvature="0" />
	<path style="fill:none;stroke:red;stroke-width:1px;stroke-linecap:butt;stroke-linejoin:miter;stroke-opacity:1" d="M 667.389,30.4298 674.437,23.3819 z" id="boundary" inkscape:connector-curvature="0" />
	<path style="fill:none;stroke:red;stroke-width:1px;stroke-linecap:butt;stroke-linejoin:miter;stroke-opacity:1" d="M 696.462,5.76199 705.272,4 z" id="boundary" inkscape:connector-curvature="0" />
	<path style="fill:none;stroke:red;stroke-width:1px;stroke-linecap:butt;stroke-linejoin:miter;stroke-opacity:1" d="M 705.272,4 714.082,4 z" id="boundary" inkscape:connector-curvature="0" />
	<path style="fill:none;stroke:red;stroke-width:1px;stroke-linecap:butt;stroke-linejoin:miter;stroke-opacity:1" d="M 714.082,4 722.892,4 z" id="boundary" inkscape:connector-curvature="0" />
	<path style="fill:none;stroke:red;stroke-width:1px;stroke-linecap:butt;stroke-linejoin:miter;stroke-opacity:1" d="M 722.892,4 730.821,8.40497 z" id="boundary" inkscape:connector-curvature="0" />
	<path style="fill:none;stroke:red;stroke-width:1px;stroke-linecap:butt;stroke-linejoin:miter;stroke-opacity:1" d="M 687.652,10.167 696.462,5.76199 z" id="boundary" inkscape:connector-curvature="0" />
	<path style="fill:none;stroke:red;stroke-width:1px;stroke-linecap:butt;stroke-linejoin:miter;stroke-opacity:1" d="M 681.485,17.2149 687.652,10.167 z" id="boundary" inkscape:connector-curvature="0" />
	<path style="fill:none;stroke:red;stroke-width:1px;stroke-linecap:butt;stroke-linejoin:miter;stroke-opacity:1" d="M 681.485,17.2149 674.437,23.3819 z" id="boundary" inkscape:connector-curvature="0" />
	<path style="fill:none;stroke:red;stroke-width:1px;stroke-linecap:butt;stroke-linejoin:miter;stroke-opacity:1" d="M 730.821,8.40497 737.869,13.6909 z" id="boundary" inkscape:connector-curvature="0" />
	<path style="fill:none;stroke:red;stroke-width:1px;stroke-linecap:butt;stroke-linejoin:miter;stroke-opacity:1" d="M 737.869,13.6909 744.917,19.8579 z" id="boundary" inkscape:connector-curvature="0" />
	<path style="fill:none;stroke:red;stroke-width:1px;stroke-linecap:butt;stroke-linejoin:miter;stroke-opacity:1" d="M 751.083,26.9059 744.917,19.8579 z" id="boundary" inkscape:connector-curvature="0" />
	<path style="fill:none;stroke:red;stroke-width:1px;stroke-linecap:butt;stroke-linejoin:miter;stroke-opacity:1" d="M 758.131,33.0728 751.083,26.9059 z" id="boundary" inkscape:connector-curvature="0" />
	<path style="fill:none;stroke:red;stroke-width:1px;stroke-linecap:butt;stroke-linejoin:miter;stroke-opacity:1" d="M 758.131,33.0728 762.536,41.0018 z" id="boundary" inkscape:connector-curvature="0" />
	<path style="fill:none;stroke:red;stroke-width:1px;stroke-linecap:butt;stroke-linejoin:miter;stroke-opacity:1" d="M 766.941,48.9307 766.941,57.7407 z" id="boundary" inkscape:connector-curvature="0" />
	<path style="fill:none;stroke:red;stroke-width:1px;stroke-linecap:butt;stroke-linejoin:miter;stroke-opacity:1" d="M 762.536,41.0018 766.941,48.9307 z" id="boundary" inkscape:connector-curvature="0" />
	<path style="fill:none;stroke:red;stroke-width:1px;stroke-linecap:butt;stroke-linejoin:miter;stroke-opacity:1" d="M 771.346,65.6696 766.941,57.7407 z" id="boundary" inkscape:connector-curvature="0" />
	<path style="fill:none;stroke:red;stroke-width:1px;stroke-linecap:butt;stroke-linejoin:miter;stroke-opacity:1" d="M 771.346,65.6696 771.346,74.4796 z" id="boundary" inkscape:connector-curvature="0" />
	<path style="fill:none;stroke:red;stroke-width:1px;stroke-linecap:butt;stroke-linejoin:miter;stroke-opacity:1" d="M 771.346,83.2895 766.941,92.9805 z" id="boundary" inkscape:connector-curvature="0" />
	<path style="fill:none;stroke:red;stroke-width:1px;stroke-linecap:butt;stroke-linejoin:miter;stroke-opacity:1" d="M 771.346,74.4796 771.346,83.2895 z" id="boundary" inkscape:connector-curvature="0" />
	<path style="fill:none;stroke:red;stroke-width:1px;stroke-linecap:butt;stroke-linejoin:miter;stroke-opacity:1" d="M 714.082,198.7 718.487,189.89 z" id="boundary" inkscape:connector-curvature="0" />
	<path style="fill:none;stroke:red;stroke-width:1px;stroke-linecap:butt;stroke-linejoin:miter;stroke-opacity:1" d="M 722.892,181.08 729.94,174.913 z" id="boundary" inkscape:connector-curvature="0" />
	<path style="fill:none;stroke:red;stroke-width:1px;stroke-linecap:butt;stroke-linejoin:miter;stroke-opacity:1" d="M 718.487,189.89 722.892,181.08 z" id="boundary" inkscape:connector-curvature="0" />
	<path style="fill:none;stroke:red;stroke-width:1px;stroke-linecap:butt;stroke-linejoin:miter;stroke-opacity:1" d="M 736.107,163.46 729.94,174.913 z" id="boundary" inkscape:connector-curvature="0" />
	<path style="fill:none;stroke:red;stroke-width:1px;stroke-linecap:butt;stroke-linejoin:miter;stroke-opacity:1" d="M 707.915,210.153 714.082,198.7 z" id="boundary" inkscape:connector-curvature="0" />
	<path style="fill:none;stroke:red;stroke-width:1px;stroke-linecap:butt;stroke-linejoin:miter;stroke-opacity:1" d="M 683.247,238.345 687.652,229.535 z" id="boundary" inkscape:connector-curvature="0" />
	<path style="fill:none;stroke:red;stroke-width:1px;stroke-linecap:butt;stroke-linejoin:miter;stroke-opacity:1" d="M 687.652,229.535 694.7,223.368 z" id="boundary" inkscape:connector-curvature="0" />
	<path style="fill:none;stroke:red;stroke-width:1px;stroke-linecap:butt;stroke-linejoin:miter;stroke-opacity:1" d="M 694.7,223.368 700.867,216.32 z" id="boundary" inkscape:connector-curvature="0" />
	<path style="fill:none;stroke:red;stroke-width:1px;stroke-linecap:butt;stroke-linejoin:miter;stroke-opacity:1" d="M 700.867,216.32 707.915,210.153 z" id="boundary" inkscape:connector-curvature="0" />
	<path style="fill:none;stroke:red;stroke-width:1px;stroke-linecap:butt;stroke-linejoin:miter;stroke-opacity:1" d="M 762.536,110.6 758.131,119.41 z" id="boundary" inkscape:connector-curvature="0" />
	<path style="fill:none;stroke:red;stroke-width:1px;stroke-linecap:butt;stroke-linejoin:miter;stroke-opacity:1" d="M 766.941,92.9805 766.941,101.79 z" id="boundary" inkscape:connector-curvature="0" />
	<path style="fill:none;stroke:red;stroke-width:1px;stroke-linecap:butt;stroke-linejoin:miter;stroke-opacity:1" d="M 766.941,101.79 762.536,110.6 z" id="boundary" inkscape:connector-curvature="0" />
	<path style="fill:none;stroke:red;stroke-width:1px;stroke-linecap:butt;stroke-linejoin:miter;stroke-opacity:1" d="M 758.131,119.41 753.726,128.22 z" id="boundary" inkscape:connector-curvature="0" />
	<path style="fill:none;stroke:red;stroke-width:1px;stroke-linecap:butt;stroke-linejoin:miter;stroke-opacity:1" d="M 744.917,145.84 740.512,154.65 z" id="boundary" inkscape:connector-curvature="0" />
	<path style="fill:none;stroke:red;stroke-width:1px;stroke-linecap:butt;stroke-linejoin:miter;stroke-opacity:1" d="M 753.726,128.22 749.321,137.03 z" id="boundary" inkscape:connector-curvature="0" />
	<path style="fill:none;stroke:red;stroke-width:1px;stroke-linecap:butt;stroke-linejoin:miter;stroke-opacity:1" d="M 740.512,154.65 736.107,163.46 z" id="boundary" inkscape:connector-curvature="0" />
	<path style="fill:none;stroke:red;stroke-width:1px;stroke-linecap:butt;stroke-linejoin:miter;stroke-opacity:1" d="M 749.321,137.03 744.917,145.84 z" id="boundary" inkscape:connector-curvature="0" />
	<path style="fill:none;stroke:red;stroke-width:1px;stroke-linecap:butt;stroke-linejoin:miter;stroke-opacity:1" d="M 412.782,404.853 418.067,394.281 z" id="boundary" inkscape:connector-curvature="0" />
	<path style="fill:none;stroke:red;stroke-width:1px;stroke-linecap:butt;stroke-linejoin:miter;stroke-opacity:1" d="M 418.067,394.281 425.115,387.233 z" id="boundary" inkscape:connector-curvature="0" />
	<path style="fill:none;stroke:red;stroke-width:1px;stroke-linecap:butt;stroke-linejoin:miter;stroke-opacity:1" d="M 412.782,404.853 405.734,411.02 z" id="boundary" inkscape:connector-curvature="0" />
	<path style="fill:none;stroke:red;stroke-width:1px;stroke-linecap:butt;stroke-linejoin:miter;stroke-opacity:1" d="M 425.115,387.233 431.282,376.661 z" id="boundary" inkscape:connector-curvature="0" />
	<path style="fill:none;stroke:red;stroke-width:1px;stroke-linecap:butt;stroke-linejoin:miter;stroke-opacity:1" d="M 431.282,376.661 438.33,369.613 z" id="boundary" inkscape:connector-curvature="0" />
	<path style="fill:none;stroke:red;stroke-width:1px;stroke-linecap:butt;stroke-linejoin:miter;stroke-opacity:1" d="M 396.924,428.639 401.329,419.829 z" id="boundary" inkscape:connector-curvature="0" />
	<path style="fill:none;stroke:red;stroke-width:1px;stroke-linecap:butt;stroke-linejoin:miter;stroke-opacity:1" d="M 396.924,428.639 392.519,437.449 z" id="boundary" inkscape:connector-curvature="0" />
	<path style="fill:none;stroke:red;stroke-width:1px;stroke-linecap:butt;stroke-linejoin:miter;stroke-opacity:1" d="M 401.329,419.829 405.734,411.02 z" id="boundary" inkscape:connector-curvature="0" />
	<path style="fill:none;stroke:red;stroke-width:1px;stroke-linecap:butt;stroke-linejoin:miter;stroke-opacity:1" d="M 458.593,344.945 462.998,336.135 z" id="boundary" inkscape:connector-curvature="0" />
	<path style="fill:none;stroke:red;stroke-width:1px;stroke-linecap:butt;stroke-linejoin:miter;stroke-opacity:1" d="M 458.593,344.945 451.545,351.993 z" id="boundary" inkscape:connector-curvature="0" />
	<path style="fill:none;stroke:red;stroke-width:1px;stroke-linecap:butt;stroke-linejoin:miter;stroke-opacity:1" d="M 467.403,327.325 474.451,321.158 z" id="boundary" inkscape:connector-curvature="0" />
	<path style="fill:none;stroke:red;stroke-width:1px;stroke-linecap:butt;stroke-linejoin:miter;stroke-opacity:1" d="M 462.998,336.135 467.403,327.325 z" id="boundary" inkscape:connector-curvature="0" />
	<path style="fill:none;stroke:red;stroke-width:1px;stroke-linecap:butt;stroke-linejoin:miter;stroke-opacity:1" d="M 480.618,314.11 474.451,321.158 z" id="boundary" inkscape:connector-curvature="0" />
	<path style="fill:none;stroke:red;stroke-width:1px;stroke-linecap:butt;stroke-linejoin:miter;stroke-opacity:1" d="M 438.33,369.613 444.497,359.041 z" id="boundary" inkscape:connector-curvature="0" />
	<path style="fill:none;stroke:red;stroke-width:1px;stroke-linecap:butt;stroke-linejoin:miter;stroke-opacity:1" d="M 444.497,359.041 451.545,351.993 z" id="boundary" inkscape:connector-curvature="0" />
	<path style="fill:none;stroke:red;stroke-width:1px;stroke-linecap:butt;stroke-linejoin:miter;stroke-opacity:1" d="M 467.403,515.858 461.236,522.906 z" id="boundary" inkscape:connector-curvature="0" />
	<path style="fill:none;stroke:red;stroke-width:1px;stroke-linecap:butt;stroke-linejoin:miter;stroke-opacity:1" d="M 461.236,522.906 454.188,529.073 z" id="boundary" inkscape:connector-curvature="0" />
	<path style="fill:none;stroke:red;stroke-width:1px;stroke-linecap:butt;stroke-linejoin:miter;stroke-opacity:1" d="M 392.519,685.009 392.519,693.819 z" id="boundary" inkscape:connector-curvature="0" />
	<path style="fill:none;stroke:red;stroke-width:1px;stroke-linecap:butt;stroke-linejoin:miter;stroke-opacity:1" d="M 392.519,685.009 391.638,676.199 z" id="boundary" inkscape:connector-curvature="0" />
	<path style="fill:none;stroke:red;stroke-width:1px;stroke-linecap:butt;stroke-linejoin:miter;stroke-opacity:1" d="M 392.519,693.819 392.519,702.629 z" id="boundary" inkscape:connector-curvature="0" />
	<path style="fill:none;stroke:red;stroke-width:1px;stroke-linecap:butt;stroke-linejoin:miter;stroke-opacity:1" d="M 392.519,711.439 392.519,720.249 z" id="boundary" inkscape:connector-curvature="0" />
	<path style="fill:none;stroke:red;stroke-width:1px;stroke-linecap:butt;stroke-linejoin:miter;stroke-opacity:1" d="M 392.519,702.629 392.519,711.439 z" id="boundary" inkscape:connector-curvature="0" />
	<path style="fill:none;stroke:red;stroke-width:1px;stroke-linecap:butt;stroke-linejoin:miter;stroke-opacity:1" d="M 392.519,729.059 388.114,744.917 z" id="boundary" inkscape:connector-curvature="0" />
	<path style="fill:none;stroke:red;stroke-width:1px;stroke-linecap:butt;stroke-linejoin:miter;stroke-opacity:1" d="M 392.519,720.249 392.519,729.059 z" id="boundary" inkscape:connector-curvature="0" />
	<path style="fill:none;stroke:red;stroke-width:1px;stroke-linecap:butt;stroke-linejoin:miter;stroke-opacity:1" d="M 395.162,588.98 403.972,584.575 z" id="boundary" inkscape:connector-curvature="0" />
	<path style="fill:none;stroke:red;stroke-width:1px;stroke-linecap:butt;stroke-linejoin:miter;stroke-opacity:1" d="M 434.806,549.336 440.973,542.288 z" id="boundary" inkscape:connector-curvature="0" />
	<path style="fill:none;stroke:red;stroke-width:1px;stroke-linecap:butt;stroke-linejoin:miter;stroke-opacity:1" d="M 440.973,542.288 448.021,536.121 z" id="boundary" inkscape:connector-curvature="0" />
	<path style="fill:none;stroke:red;stroke-width:1px;stroke-linecap:butt;stroke-linejoin:miter;stroke-opacity:1" d="M 434.806,549.336 427.758,555.503 z" id="boundary" inkscape:connector-curvature="0" />
	<path style="fill:none;stroke:red;stroke-width:1px;stroke-linecap:butt;stroke-linejoin:miter;stroke-opacity:1" d="M 448.021,536.121 454.188,529.073 z" id="boundary" inkscape:connector-curvature="0" />
	<path style="fill:none;stroke:red;stroke-width:1px;stroke-linecap:butt;stroke-linejoin:miter;stroke-opacity:1" d="M 403.972,584.575 410.139,577.528 z" id="boundary" inkscape:connector-curvature="0" />
	<path style="fill:none;stroke:red;stroke-width:1px;stroke-linecap:butt;stroke-linejoin:miter;stroke-opacity:1" d="M 410.139,577.528 417.187,571.361 z" id="boundary" inkscape:connector-curvature="0" />
	<path style="fill:none;stroke:red;stroke-width:1px;stroke-linecap:butt;stroke-linejoin:miter;stroke-opacity:1" d="M 417.187,571.361 421.591,562.551 z" id="boundary" inkscape:connector-curvature="0" />
	<path style="fill:none;stroke:red;stroke-width:1px;stroke-linecap:butt;stroke-linejoin:miter;stroke-opacity:1" d="M 421.591,562.551 427.758,555.503 z" id="boundary" inkscape:connector-curvature="0" />
	<path style="fill:none;stroke:red;stroke-width:1px;stroke-linecap:butt;stroke-linejoin:miter;stroke-opacity:1" d="M 467.403,515.858 474.451,509.691 z" id="boundary" inkscape:connector-curvature="0" />
	<path style="fill:none;stroke:red;stroke-width:1px;stroke-linecap:butt;stroke-linejoin:miter;stroke-opacity:1" d="M 487.666,307.943 492.952,297.371 z" id="boundary" inkscape:connector-curvature="0" />
	<path style="fill:none;stroke:red;stroke-width:1px;stroke-linecap:butt;stroke-linejoin:miter;stroke-opacity:1" d="M 492.952,297.371 500,290.323 z" id="boundary" inkscape:connector-curvature="0" />
	<path style="fill:none;stroke:red;stroke-width:1px;stroke-linecap:butt;stroke-linejoin:miter;stroke-opacity:1" d="M 487.666,307.943 480.618,314.11 z" id="boundary" inkscape:connector-curvature="0" />
	<path style="fill:none;stroke:red;stroke-width:1px;stroke-linecap:butt;stroke-linejoin:miter;stroke-opacity:1" d="M 500,290.323 506.167,279.751 z" id="boundary" inkscape:connector-curvature="0" />
	<path style="fill:none;stroke:red;stroke-width:1px;stroke-linecap:butt;stroke-linejoin:miter;stroke-opacity:1" d="M 584.575,368.732 577.528,374.899 z" id="boundary" inkscape:connector-curvature="0" />
	<path style="fill:none;stroke:red;stroke-width:1px;stroke-linecap:butt;stroke-linejoin:miter;stroke-opacity:1" d="M 590.742,357.279 584.575,368.732 z" id="boundary" inkscape:connector-curvature="0" />
	<path style="fill:none;stroke:red;stroke-width:1px;stroke-linecap:butt;stroke-linejoin:miter;stroke-opacity:1" d="M 590.742,357.279 597.79,351.112 z" id="boundary" inkscape:connector-curvature="0" />
	<path style="fill:none;stroke:red;stroke-width:1px;stroke-linecap:butt;stroke-linejoin:miter;stroke-opacity:1" d="M 603.957,344.064 597.79,351.112 z" id="boundary" inkscape:connector-curvature="0" />
	<path style="fill:none;stroke:red;stroke-width:1px;stroke-linecap:butt;stroke-linejoin:miter;stroke-opacity:1" d="M 637.435,307.062 643.602,295.609 z" id="boundary" inkscape:connector-curvature="0" />
	<path style="fill:none;stroke:red;stroke-width:1px;stroke-linecap:butt;stroke-linejoin:miter;stroke-opacity:1" d="M 630.387,313.229 624.22,320.277 z" id="boundary" inkscape:connector-curvature="0" />
	<path style="fill:none;stroke:red;stroke-width:1px;stroke-linecap:butt;stroke-linejoin:miter;stroke-opacity:1" d="M 648.007,286.799 655.055,280.632 z" id="boundary" inkscape:connector-curvature="0" />
	<path style="fill:none;stroke:red;stroke-width:1px;stroke-linecap:butt;stroke-linejoin:miter;stroke-opacity:1" d="M 643.602,295.609 648.007,286.799 z" id="boundary" inkscape:connector-curvature="0" />
	<path style="fill:none;stroke:red;stroke-width:1px;stroke-linecap:butt;stroke-linejoin:miter;stroke-opacity:1" d="M 637.435,307.062 630.387,313.229 z" id="boundary" inkscape:connector-curvature="0" />
	<path style="fill:none;stroke:red;stroke-width:1px;stroke-linecap:butt;stroke-linejoin:miter;stroke-opacity:1" d="M 603.957,344.064 611.005,337.897 z" id="boundary" inkscape:connector-curvature="0" />
	<path style="fill:none;stroke:red;stroke-width:1px;stroke-linecap:butt;stroke-linejoin:miter;stroke-opacity:1" d="M 617.172,326.444 611.005,337.897 z" id="boundary" inkscape:connector-curvature="0" />
	<path style="fill:none;stroke:red;stroke-width:1px;stroke-linecap:butt;stroke-linejoin:miter;stroke-opacity:1" d="M 624.22,320.277 617.172,326.444 z" id="boundary" inkscape:connector-curvature="0" />
	<path style="fill:none;stroke:red;stroke-width:1px;stroke-linecap:butt;stroke-linejoin:miter;stroke-opacity:1" d="M 506.167,279.751 510.572,270.941 z" id="boundary" inkscape:connector-curvature="0" />
	<path style="fill:none;stroke:red;stroke-width:1px;stroke-linecap:butt;stroke-linejoin:miter;stroke-opacity:1" d="M 505.286,474.451 511.453,467.403 z" id="boundary" inkscape:connector-curvature="0" />
	<path style="fill:none;stroke:red;stroke-width:1px;stroke-linecap:butt;stroke-linejoin:miter;stroke-opacity:1" d="M 515.858,458.593 511.453,467.403 z" id="boundary" inkscape:connector-curvature="0" />
	<path style="fill:none;stroke:red;stroke-width:1px;stroke-linecap:butt;stroke-linejoin:miter;stroke-opacity:1" d="M 515.858,458.593 522.906,452.426 z" id="boundary" inkscape:connector-curvature="0" />
	<path style="fill:none;stroke:red;stroke-width:1px;stroke-linecap:butt;stroke-linejoin:miter;stroke-opacity:1" d="M 529.073,440.973 522.906,452.426 z" id="boundary" inkscape:connector-curvature="0" />
	<path style="fill:none;stroke:red;stroke-width:1px;stroke-linecap:butt;stroke-linejoin:miter;stroke-opacity:1" d="M 505.286,474.451 498.238,480.618 z" id="boundary" inkscape:connector-curvature="0" />
	<path style="fill:none;stroke:red;stroke-width:1px;stroke-linecap:butt;stroke-linejoin:miter;stroke-opacity:1" d="M 474.451,509.691 478.856,500.881 z" id="boundary" inkscape:connector-curvature="0" />
	<path style="fill:none;stroke:red;stroke-width:1px;stroke-linecap:butt;stroke-linejoin:miter;stroke-opacity:1" d="M 478.856,500.881 485.023,493.833 z" id="boundary" inkscape:connector-curvature="0" />
	<path style="fill:none;stroke:red;stroke-width:1px;stroke-linecap:butt;stroke-linejoin:miter;stroke-opacity:1" d="M 492.071,487.666 485.023,493.833 z" id="boundary" inkscape:connector-curvature="0" />
	<path style="fill:none;stroke:red;stroke-width:1px;stroke-linecap:butt;stroke-linejoin:miter;stroke-opacity:1" d="M 498.238,480.618 492.071,487.666 z" id="boundary" inkscape:connector-curvature="0" />
	<path style="fill:none;stroke:red;stroke-width:1px;stroke-linecap:butt;stroke-linejoin:miter;stroke-opacity:1" d="M 558.146,399.567 564.313,388.114 z" id="boundary" inkscape:connector-curvature="0" />
	<path style="fill:none;stroke:red;stroke-width:1px;stroke-linecap:butt;stroke-linejoin:miter;stroke-opacity:1" d="M 564.313,388.114 571.361,381.947 z" id="boundary" inkscape:connector-curvature="0" />
	<path style="fill:none;stroke:red;stroke-width:1px;stroke-linecap:butt;stroke-linejoin:miter;stroke-opacity:1" d="M 558.146,399.567 551.098,405.734 z" id="boundary" inkscape:connector-curvature="0" />
	<path style="fill:none;stroke:red;stroke-width:1px;stroke-linecap:butt;stroke-linejoin:miter;stroke-opacity:1" d="M 571.361,381.947 577.528,374.899 z" id="boundary" inkscape:connector-curvature="0" />
	<path style="fill:none;stroke:red;stroke-width:1px;stroke-linecap:butt;stroke-linejoin:miter;stroke-opacity:1" d="M 529.073,440.973 533.478,432.163 z" id="boundary" inkscape:connector-curvature="0" />
	<path style="fill:none;stroke:red;stroke-width:1px;stroke-linecap:butt;stroke-linejoin:miter;stroke-opacity:1" d="M 551.098,405.734 544.931,417.187 z" id="boundary" inkscape:connector-curvature="0" />
	<path style="fill:none;stroke:red;stroke-width:1px;stroke-linecap:butt;stroke-linejoin:miter;stroke-opacity:1" d="M 544.931,417.187 537.883,423.353 z" id="boundary" inkscape:connector-curvature="0" />
	<path style="fill:none;stroke:red;stroke-width:1px;stroke-linecap:butt;stroke-linejoin:miter;stroke-opacity:1" d="M 537.883,423.353 533.478,432.163 z" id="boundary" inkscape:connector-curvature="0" />
	<circle cx="4" cy="843.588" r="4" fill="#0" id="circle0"/>
	<circle cx="4" cy="852.398" r="4" fill="#0" id="circle1"/>
	<circle cx="4" cy="861.208" r="4" fill="#0" id="circle2"/>
	<circle cx="4" cy="870.018" r="4" fill="#0" id="circle3"/>
	<circle cx="4" cy="878.828" r="4" fill="#0" id="circle4"/>
	<circle cx="4" cy="887.638" r="4" fill="#0" id="circle5"/>
	<circle cx="4" cy="896.448" r="4" fill="#0" id="circle6"/>
	<circle cx="4" cy="905.258" r="4" fill="#0" id="circle7"/>
	<circle cx="8.40497" cy="821.563" r="4" fill="#0" id="circle8"/>
	<circle cx="8.40497" cy="830.373" r="4" fill="#0" id="circle9"/>
	<circle cx="8.40497" cy="913.187" r="4" fill="#0" id="circle10"/>
	<circle cx="8.40497" cy="921.996" r="4" fill="#0" id="circle11"/>
	<circle cx="12.8099" cy="803.943" r="4" fill="#0" id="circle12"/>
	<circle cx="12.8099" cy="812.753" r="4" fill="#0" id="circle13"/>
	<circle cx="12.8099" cy="929.925" r="4" fill="#0" id="circle14"/>
	<circle cx="15.4529" cy="938.735" r="4" fill="#0" id="circle15"/>
	<circle cx="17.2149" cy="795.133" r="4" fill="#0" id="circle16"/>
	<circle cx="21.6199" cy="781.918" r="4" fill="#0" id="circle17"/>
	<circle cx="22.5009" cy="944.902" r="4" fill="#0" id="circle18"/>
	<circle cx="26.0249" cy="764.298" r="4" fill="#0" id="circle19"/>
	<circle cx="26.0249" cy="773.108" r="4" fill="#0" id="circle20"/>
	<circle cx="26.0249" cy="953.712" r="4" fill="#0" id="circle21"/>
	<circle cx="30.4298" cy="755.488" r="4" fill="#0" id="circle22"/>
	<circle cx="33.0728" cy="959.879" r="4" fill="#0" id="circle23"/>
	<circle cx="34.8348" cy="746.679" r="4" fill="#0" id="circle24"/>
	<circle cx="39.2398" cy="729.059" r="4" fill="#0" id="circle25"/>
	<circle cx="39.2398" cy="737.869" r="4" fill="#0" id="circle26"/>
	<circle cx="39.2398" cy="966.927" r="4" fill="#0" id="circle27"/>
	<circle cx="43.6448" cy="720.249" r="4" fill="#0" id="circle28"/>
	<circle cx="46.2877" cy="973.094" r="4" fill="#0" id="circle29"/>
	<circle cx="48.0497" cy="711.439" r="4" fill="#0" id="circle30"/>
	<circle cx="52.4547" cy="702.629" r="4" fill="#0" id="circle31"/>
	<circle cx="52.4547" cy="980.142" r="4" fill="#0" id="circle32"/>
	<circle cx="56.8597" cy="693.819" r="4" fill="#0" id="circle33"/>
	<circle cx="61.2647" cy="685.009" r="4" fill="#0" id="circle34"/>
	<circle cx="61.2647" cy="982.785" r="4" fill="#0" id="circle35"/>
	<circle cx="65.6696" cy="676.199" r="4" fill="#0" id="circle36"/>
	<circle cx="69.1936" cy="987.19" r="4" fill="#0" id="circle37"/>
	<circle cx="70.0746" cy="667.389" r="4" fill="#0" id="circle38"/>
	<circle cx="74.4796" cy="658.579" r="4" fill="#0" id="circle39"/>
	<circle cx="77.1226" cy="991.595" r="4" fill="#0" id="circle40"/>
	<circle cx="81.5275" cy="651.531" r="4" fill="#0" id="circle41"/>
	<circle cx="85.0515" cy="996" r="4" fill="#0" id="circle42"/>
	<circle cx="87.6945" cy="640.959" r="4" fill="#0" id="circle43"/>
	<circle cx="93.8615" cy="996" r="4" fill="#0" id="circle44"/>
	<circle cx="94.7425" cy="633.911" r="4" fill="#0" id="circle45"/>
	<circle cx="101.79" cy="626.863" r="4" fill="#0" id="circle46"/>
	<circle cx="102.671" cy="996" r="4" fill="#0" id="circle47"/>
	<circle cx="108.838" cy="620.696" r="4" fill="#0" id="circle48"/>
	<circle cx="111.481" cy="996" r="4" fill="#0" id="circle49"/>
	<circle cx="115.005" cy="613.648" r="4" fill="#0" id="circle50"/>
	<circle cx="120.291" cy="996" r="4" fill="#0" id="circle51"/>
	<circle cx="122.053" cy="607.481" r="4" fill="#0" id="circle52"/>
	<circle cx="128.22" cy="600.433" r="4" fill="#0" id="circle53"/>
	<circle cx="129.101" cy="996" r="4" fill="#0" id="circle54"/>
	<circle cx="137.03" cy="596.028" r="4" fill="#0" id="circle55"/>
	<circle cx="137.911" cy="996" r="4" fill="#0" id="circle56"/>
	<circle cx="144.078" cy="589.861" r="4" fill="#0" id="circle57"/>
	<circle cx="146.721" cy="996" r="4" fill="#0" id="circle58"/>
	<circle cx="152.007" cy="585.456" r="4" fill="#0" id="circle59"/>
	<circle cx="154.65" cy="991.595" r="4" fill="#0" id="circle60"/>
	<circle cx="159.055" cy="578.409" r="4" fill="#0" id="circle61"/>
	<circle cx="162.579" cy="987.19" r="4" fill="#0" id="circle62"/>
	<circle cx="166.103" cy="572.242" r="4" fill="#0" id="circle63"/>
	<circle cx="170.508" cy="982.785" r="4" fill="#0" id="circle64"/>
	<circle cx="174.032" cy="567.837" r="4" fill="#0" id="circle65"/>
	<circle cx="179.318" cy="982.785" r="4" fill="#0" id="circle66"/>
	<circle cx="182.842" cy="563.432" r="4" fill="#0" id="circle67"/>
	<circle cx="188.128" cy="981.023" r="4" fill="#0" id="circle68"/>
	<circle cx="191.652" cy="559.027" r="4" fill="#0" id="circle69"/>
	<circle cx="196.938" cy="976.618" r="4" fill="#0" id="circle70"/>
	<circle cx="200.462" cy="559.027" r="4" fill="#0" id="circle71"/>
	<circle cx="205.748" cy="972.213" r="4" fill="#0" id="circle72"/>
	<circle cx="209.272" cy="554.622" r="4" fill="#0" id="circle73"/>
	<circle cx="214.558" cy="967.808" r="4" fill="#0" id="circle74"/>
	<circle cx="218.082" cy="554.622" r="4" fill="#0" id="circle75"/>
	<circle cx="220.725" cy="960.76" r="4" fill="#0" id="circle76"/>
	<circle cx="226.892" cy="554.622" r="4" fill="#0" id="circle77"/>
	<circle cx="229.535" cy="956.355" r="4" fill="#0" id="circle78"/>
	<circle cx="234.821" cy="550.217" r="4" fill="#0" id="circle79"/>
	<circle cx="238.345" cy="951.95" r="4" fill="#0" id="circle80"/>
	<circle cx="243.631" cy="550.217" r="4" fill="#0" id="circle81"/>
	<circle cx="247.155" cy="947.545" r="4" fill="#0" id="circle82"/>
	<circle cx="252.44" cy="550.217" r="4" fill="#0" id="circle83"/>
	<circle cx="254.202" cy="941.378" r="4" fill="#0" id="circle84"/>
	<circle cx="260.369" cy="934.33" r="4" fill="#0" id="circle85"/>
	<circle cx="261.25" cy="550.217" r="4" fill="#0" id="circle86"/>
	<circle cx="267.417" cy="928.163" r="4" fill="#0" id="circle87"/>
	<circle cx="270.06" cy="550.217" r="4" fill="#0" id="circle88"/>
	<circle cx="273.584" cy="921.115" r="4" fill="#0" id="circle89"/>
	<circle cx="278.87" cy="550.217" r="4" fill="#0" id="circle90"/>
	<circle cx="280.632" cy="914.948" r="4" fill="#0" id="circle91"/>
	<circle cx="286.799" cy="554.622" r="4" fill="#0" id="circle92"/>
	<circle cx="286.799" cy="907.901" r="4" fill="#0" id="circle93"/>
	<circle cx="293.847" cy="901.734" r="4" fill="#0" id="circle94"/>
	<circle cx="295.609" cy="554.622" r="4" fill="#0" id="circle95"/>
	<circle cx="300.014" cy="894.686" r="4" fill="#0" id="circle96"/>
	<circle cx="303.538" cy="559.027" r="4" fill="#0" id="circle97"/>
	<circle cx="304.419" cy="885.876" r="4" fill="#0" id="circle98"/>
	<circle cx="308.824" cy="551.979" r="4" fill="#0" id="circle99"/>
	<circle cx="311.467" cy="879.709" r="4" fill="#0" id="circle100"/>
	<circle cx="315.872" cy="545.812" r="4" fill="#0" id="circle101"/>
	<circle cx="317.634" cy="872.661" r="4" fill="#0" id="circle102"/>
	<circle cx="322.039" cy="538.764" r="4" fill="#0" id="circle103"/>
	<circle cx="324.682" cy="866.494" r="4" fill="#0" id="circle104"/>
	<circle cx="329.087" cy="532.597" r="4" fill="#0" id="circle105"/>
	<circle cx="330.849" cy="855.041" r="4" fill="#0" id="circle106"/>
	<circle cx="335.254" cy="525.549" r="4" fill="#0" id="circle107"/>
	<circle cx="337.897" cy="848.874" r="4" fill="#0" id="circle108"/>
	<circle cx="342.302" cy="519.382" r="4" fill="#0" id="circle109"/>
	<circle cx="344.064" cy="837.421" r="4" fill="#0" id="circle110"/>
	<circle cx="345.826" cy="510.572" r="4" fill="#0" id="circle111"/>
	<circle cx="350.231" cy="501.762" r="4" fill="#0" id="circle112"/>
	<circle cx="351.112" cy="831.254" r="4" fill="#0" id="circle113"/>
	<circle cx="354.636" cy="492.952" r="4" fill="#0" id="circle114"/>
	<circle cx="357.279" cy="819.801" r="4" fill="#0" id="circle115"/>
	<circle cx="361.684" cy="485.904" r="4" fill="#0" id="circle116"/>
	<circle cx="361.684" cy="810.991" r="4" fill="#0" id="circle117"/>
	<circle cx="366.089" cy="802.181" r="4" fill="#0" id="circle118"/>
	<circle cx="368.732" cy="479.737" r="4" fill="#0" id="circle119"/>
	<circle cx="370.494" cy="793.371" r="4" fill="#0" id="circle120"/>
	<circle cx="374.899" cy="472.689" r="4" fill="#0" id="circle121"/>
	<circle cx="374.899" cy="608.362" r="4" fill="#0" id="circle122"/>
	<circle cx="374.899" cy="784.561" r="4" fill="#0" id="circle123"/>
	<circle cx="379.304" cy="463.879" r="4" fill="#0" id="circle124"/>
	<circle cx="379.304" cy="599.552" r="4" fill="#0" id="circle125"/>
	<circle cx="379.304" cy="616.291" r="4" fill="#0" id="circle126"/>
	<circle cx="379.304" cy="775.751" r="4" fill="#0" id="circle127"/>
	<circle cx="383.709" cy="455.069" r="4" fill="#0" id="circle128"/>
	<circle cx="383.709" cy="624.22" r="4" fill="#0" id="circle129"/>
	<circle cx="383.709" cy="766.941" r="4" fill="#0" id="circle130"/>
	<circle cx="386.352" cy="593.385" r="4" fill="#0" id="circle131"/>
	<circle cx="388.114" cy="446.259" r="4" fill="#0" id="circle132"/>
	<circle cx="388.114" cy="632.149" r="4" fill="#0" id="circle133"/>
	<circle cx="388.114" cy="640.959" r="4" fill="#0" id="circle134"/>
	<circle cx="388.114" cy="649.769" r="4" fill="#0" id="circle135"/>
	<circle cx="388.114" cy="658.579" r="4" fill="#0" id="circle136"/>
	<circle cx="388.114" cy="667.389" r="4" fill="#0" id="circle137"/>
	<circle cx="388.114" cy="744.917" r="4" fill="#0" id="circle138"/>
	<circle cx="388.114" cy="753.726" r="4" fill="#0" id="circle139"/>
	<circle cx="391.638" cy="676.199" r="4" fill="#0" id="circle140"/>
	<circle cx="392.519" cy="437.449" r="4" fill="#0" id="circle141"/>
	<circle cx="392.519" cy="685.009" r="4" fill="#0" id="circle142"/>
	<circle cx="392.519" cy="693.819" r="4" fill="#0" id="circle143"/>
	<circle cx="392.519" cy="702.629" r="4" fill="#0" id="circle144"/>
	<circle cx="392.519" cy="711.439" r="4" fill="#0" id="circle145"/>
	<circle cx="392.519" cy="720.249" r="4" fill="#0" id="circle146"/>
	<circle cx="392.519" cy="729.059" r="4" fill="#0" id="circle147"/>
	<circle cx="395.162" cy="588.98" r="4" fill="#0" id="circle148"/>
	<circle cx="396.924" cy="428.639" r="4" fill="#0" id="circle149"/>
	<circle cx="401.329" cy="419.829" r="4" fill="#0" id="circle150"/>
	<circle cx="403.972" cy="584.575" r="4" fill="#0" id="circle151"/>
	<circle cx="405.734" cy="411.02" r="4" fill="#0" id="circle152"/>
	<circle cx="410.139" cy="577.528" r="4" fill="#0" id="circle153"/>
	<circle cx="412.782" cy="404.853" r="4" fill="#0" id="circle154"/>
	<circle cx="417.187" cy="571.361" r="4" fill="#0" id="circle155"/>
	<circle cx="418.067" cy="394.281" r="4" fill="#0" id="circle156"/>
	<circle cx="421.591" cy="562.551" r="4" fill="#0" id="circle157"/>
	<circle cx="425.115" cy="387.233" r="4" fill="#0" id="circle158"/>
	<circle cx="427.758" cy="555.503" r="4" fill="#0" id="circle159"/>
	<circle cx="431.282" cy="376.661" r="4" fill="#0" id="circle160"/>
	<circle cx="434.806" cy="549.336" r="4" fill="#0" id="circle161"/>
	<circle cx="438.33" cy="369.613" r="4" fill="#0" id="circle162"/>
	<circle cx="440.973" cy="542.288" r="4" fill="#0" id="circle163"/>
	<circle cx="444.497" cy="359.041" r="4" fill="#0" id="circle164"/>
	<circle cx="448.021" cy="536.121" r="4" fill="#0" id="circle165"/>
	<circle cx="451.545" cy="351.993" r="4" fill="#0" id="circle166"/>
	<circle cx="454.188" cy="529.073" r="4" fill="#0" id="circle167"/>
	<circle cx="458.593" cy="344.945" r="4" fill="#0" id="circle168"/>
	<circle cx="461.236" cy="522.906" r="4" fill="#0" id="circle169"/>
	<circle cx="462.998" cy="336.135" r="4" fill="#0" id="circle170"/>
	<circle cx="467.403" cy="327.325" r="4" fill="#0" id="circle171"/>
	<circle cx="467.403" cy="515.858" r="4" fill="#0" id="circle172"/>
	<circle cx="474.451" cy="321.158" r="4" fill="#0" id="circle173"/>
	<circle cx="474.451" cy="509.691" r="4" fill="#0" id="circle174"/>
	<circle cx="478.856" cy="500.881" r="4" fill="#0" id="circle175"/>
	<circle cx="480.618" cy="314.11" r="4" fill="#0" id="circle176"/>
	<circle cx="485.023" cy="493.833" r="4" fill="#0" id="circle177"/>
	<circle cx="487.666" cy="307.943" r="4" fill="#0" id="circle178"/>
	<circle cx="492.071" cy="487.666" r="4" fill="#0" id="circle179"/>
	<circle cx="492.952" cy="297.371" r="4" fill="#0" id="circle180"/>
	<circle cx="498.238" cy="480.618" r="4" fill="#0" id="circle181"/>
	<circle cx="500" cy="290.323" r="4" fill="#0" id="circle182"/>
	<circle cx="505.286" cy="474.451" r="4" fill="#0" id="circle183"/>
	<circle cx="506.167" cy="279.751" r="4" fill="#0" id="circle184"/>
	<circle cx="510.572" cy="270.941" r="4" fill="#0" id="circle185"/>
	<circle cx="511.453" cy="467.403" r="4" fill="#0" id="circle186"/>
	<circle cx="514.977" cy="262.131" r="4" fill="#0" id="circle187"/>
	<circle cx="515.858" cy="458.593" r="4" fill="#0" id="circle188"/>
	<circle cx="522.025" cy="255.083" r="4" fill="#0" id="circle189"/>
	<circle cx="522.906" cy="452.426" r="4" fill="#0" id="circle190"/>
	<circle cx="528.192" cy="244.512" r="4" fill="#0" id="circle191"/>
	<circle cx="529.073" cy="440.973" r="4" fill="#0" id="circle192"/>
	<circle cx="533.478" cy="432.163" r="4" fill="#0" id="circle193"/>
	<circle cx="535.24" cy="237.464" r="4" fill="#0" id="circle194"/>
	<circle cx="537.883" cy="423.353" r="4" fill="#0" id="circle195"/>
	<circle cx="541.407" cy="226.892" r="4" fill="#0" id="circle196"/>
	<circle cx="544.931" cy="417.187" r="4" fill="#0" id="circle197"/>
	<circle cx="545.812" cy="218.082" r="4" fill="#0" id="circle198"/>
	<circle cx="550.217" cy="209.272" r="4" fill="#0" id="circle199"/>
	<circle cx="551.098" cy="405.734" r="4" fill="#0" id="circle200"/>
	<circle cx="557.265" cy="202.224" r="4" fill="#0" id="circle201"/>
	<circle cx="558.146" cy="399.567" r="4" fill="#0" id="circle202"/>
	<circle cx="563.432" cy="191.652" r="4" fill="#0" id="circle203"/>
	<circle cx="564.313" cy="388.114" r="4" fill="#0" id="circle204"/>
	<circle cx="567.837" cy="182.842" r="4" fill="#0" id="circle205"/>
	<circle cx="571.361" cy="381.947" r="4" fill="#0" id="circle206"/>
	<circle cx="572.242" cy="174.032" r="4" fill="#0" id="circle207"/>
	<circle cx="577.528" cy="374.899" r="4" fill="#0" id="circle208"/>
	<circle cx="579.29" cy="166.984" r="4" fill="#0" id="circle209"/>
	<circle cx="584.575" cy="368.732" r="4" fill="#0" id="circle210"/>
	<circle cx="586.337" cy="159.936" r="4" fill="#0" id="circle211"/>
	<circle cx="590.742" cy="151.126" r="4" fill="#0" id="circle212"/>
	<circle cx="590.742" cy="357.279" r="4" fill="#0" id="circle213"/>
	<circle cx="595.147" cy="142.316" r="4" fill="#0" id="circle214"/>
	<circle cx="597.79" cy="351.112" r="4" fill="#0" id="circle215"/>
	<circle cx="602.195" cy="136.149" r="4" fill="#0" id="circle216"/>
	<circle cx="603.957" cy="344.064" r="4" fill="#0" id="circle217"/>
	<circle cx="607.481" cy="125.577" r="4" fill="#0" id="circle218"/>
	<circle cx="611.005" cy="337.897" r="4" fill="#0" id="circle219"/>
	<circle cx="614.529" cy="118.529" r="4" fill="#0" id="circle220"/>
	<circle cx="617.172" cy="326.444" r="4" fill="#0" id="circle221"/>
	<circle cx="620.696" cy="107.957" r="4" fill="#0" id="circle222"/>
	<circle cx="624.22" cy="320.277" r="4" fill="#0" id="circle223"/>
	<circle cx="625.101" cy="99.1474" r="4" fill="#0" id="circle224"/>
	<circle cx="629.506" cy="90.3375" r="4" fill="#0" id="circle225"/>
	<circle cx="630.387" cy="313.229" r="4" fill="#0" id="circle226"/>
	<circle cx="633.911" cy="81.5275" r="4" fill="#0" id="circle227"/>
	<circle cx="637.435" cy="307.062" r="4" fill="#0" id="circle228"/>
	<circle cx="638.316" cy="72.7176" r="4" fill="#0" id="circle229"/>
	<circle cx="642.721" cy="63.9076" r="4" fill="#0" id="circle230"/>
	<circle cx="643.602" cy="295.609" r="4" fill="#0" id="circle231"/>
	<circle cx="647.126" cy="55.0977" r="4" fill="#0" id="circle232"/>
	<circle cx="648.007" cy="286.799" r="4" fill="#0" id="circle233"/>
	<circle cx="654.174" cy="48.0497" r="4" fill="#0" id="circle234"/>
	<circle cx="655.055" cy="280.632" r="4" fill="#0" id="circle235"/>
	<circle cx="660.341" cy="37.4778" r="4" fill="#0" id="circle236"/>
	<circle cx="661.222" cy="273.584" r="4" fill="#0" id="circle237"/>
	<circle cx="665.627" cy="264.774" r="4" fill="#0" id="circle238"/>
	<circle cx="667.389" cy="30.4298" r="4" fill="#0" id="circle239"/>
	<circle cx="672.675" cy="258.607" r="4" fill="#0" id="circle240"/>
	<circle cx="674.437" cy="23.3819" r="4" fill="#0" id="circle241"/>
	<circle cx="678.842" cy="247.155" r="4" fill="#0" id="circle242"/>
	<circle cx="681.485" cy="17.2149" r="4" fill="#0" id="circle243"/>
	<circle cx="683.247" cy="238.345" r="4" fill="#0" id="circle244"/>
	<circle cx="687.652" cy="10.167" r="4" fill="#0" id="circle245"/>
	<circle cx="687.652" cy="229.535" r="4" fill="#0" id="circle246"/>
	<circle cx="694.7" cy="223.368" r="4" fill="#0" id="circle247"/>
	<circle cx="696.462" cy="5.76199" r="4" fill="#0" id="circle248"/>
	<circle cx="700.867" cy="216.32" r="4" fill="#0" id="circle249"/>
	<circle cx="705.272" cy="4" r="4" fill="#0" id="circle250"/>
	<circle cx="707.915" cy="210.153" r="4" fill="#0" id="circle251"/>
	<circle cx="714.082" cy="4" r="4" fill="#0" id="circle252"/>
	<circle cx="714.082" cy="198.7" r="4" fill="#0" id="circle253"/>
	<circle cx="718.487" cy="189.89" r="4" fill="#0" id="circle254"/>
	<circle cx="722.892" cy="4" r="4" fill="#0" id="circle255"/>
	<circle cx="722.892" cy="181.08" r="4" fill="#0" id="circle256"/>
	<circle cx="729.94" cy="174.913" r="4" fill="#0" id="circle257"/>
	<circle cx="730.821" cy="8.40497" r="4" fill="#0" id="circle258"/>
	<circle cx="736.107" cy="163.46" r="4" fill="#0" id="circle259"/>
	<circle cx="737.869" cy="13.6909" r="4" fill="#0" id="circle260"/>
	<circle cx="740.512" cy="154.65" r="4" fill="#0" id="circle261"/>
	<circle cx="744.917" cy="19.8579" r="4" fill="#0" id="circle262"/>
	<circle cx="744.917" cy="145.84" r="4" fill="#0" id="circle263"/>
	<circle cx="749.321" cy="137.03" r="4" fill="#0" id="circle264"/>
	<circle cx="751.083" cy="26.9059" r="4" fill="#0" id="circle265"/>
	<circle cx="753.726" cy="128.22" r="4" fill="#0" id="circle266"/>
	<circle cx="758.131" cy="33.0728" r="4" fill="#0" id="circle267"/>
	<circle cx="758.131" cy="119.41" r="4" fill="#0" id="circle268"/>
	<circle cx="762.536" cy="41.0018" r="4" fill="#0" id="circle269"/>
	<circle cx="762.536" cy="110.6" r="4" fill="#0" id="circle270"/>
	<circle cx="766.941" cy="48.9307" r="4" fill="#0" id="circle271"/>
	<circle cx="766.941" cy="57.7407" r="4" fill="#0" id="circle272"/>
	<circle cx="766.941" cy="92.9805" r="4" fill="#0" id="circle273"/>
	<circle cx="766.941" cy="101.79" r="4" fill="#0" id="circle274"/>
	<circle cx="771.346" cy="65.6696" r="4" fill="#0" id="circle275"/>
	<circle cx="771.346" cy="74.4796" r="4" fill="#0" id="circle276"/>
	<circle cx="771.346" cy="83.2895" r="4" fill="#0" id="circle277"/>
	</g>
</svg>