<?xml version="1.0" encoding="UTF-8" standalone="no"?>
<!-- Created with CurveBenchmark -->
<svg
	xmlns:dc="http://purl.org/dc/elements/1.1/"
	xmlns:cc="http://creativecommons.org/ns#"
	xmlns:rdf="http://www.w3.org/1999/02/22-rdf-syntax-ns#"
	xmlns:svg="http://www.w3.org/2000/svg"
	xmlns="http://www.w3.org/2000/svg"
	xmlns:sodipodi="http://sodipodi.sourceforge.net/DTD/sodipodi-0.dtd"
	xmlns:inkscape="http://www.inkscape.org/namespaces/inkscape"
	width="1000"
	height="1000"
	id="svg2"
	version="1.1"
	sodipodi:docname="manifold/nncrust-tool04bent1.png.txt">
<defs
	id="defs4" />
<metadata
	id="metadata7">
	<rdf:RDF>
		<cc:Work
			rdf:about="">
			<dc:format>image/svg+xml</dc:format>
			<dc:type
				rdf:resource="http://purl.org/dc/dcmitype/StillImage" />
			<dc:title></dc:title>
		</cc:Work>
	</rdf:RDF>
</metadata>
<g
	inkscape:label="Layer 1"
	inkscape:groupmode="layer"
	id="layer1">
	<path style="fill:none;stroke:red;stroke-width:1px;stroke-linecap:butt;stroke-linejoin:miter;stroke-opacity:1" d="M 27.619,30.5714 54.1905,15.8095 z" id="boundary" inkscape:connector-curvature="0" />
	<path style="fill:none;stroke:red;stroke-width:1px;stroke-linecap:butt;stroke-linejoin:miter;stroke-opacity:1" d="M 83.7143,15.8095 113.238,4 z" id="boundary" inkscape:connector-curvature="0" />
	<path style="fill:none;stroke:red;stroke-width:1px;stroke-linecap:butt;stroke-linejoin:miter;stroke-opacity:1" d="M 113.238,4 136.857,21.7143 z" id="boundary" inkscape:connector-curvature="0" />
	<path style="fill:none;stroke:red;stroke-width:1px;stroke-linecap:butt;stroke-linejoin:miter;stroke-opacity:1" d="M 83.7143,15.8095 54.1905,15.8095 z" id="boundary" inkscape:connector-curvature="0" />
	<path style="fill:none;stroke:red;stroke-width:1px;stroke-linecap:butt;stroke-linejoin:miter;stroke-opacity:1" d="M 166.381,30.5714 136.857,21.7143 z" id="boundary" inkscape:connector-curvature="0" />
	<path style="fill:none;stroke:red;stroke-width:1px;stroke-linecap:butt;stroke-linejoin:miter;stroke-opacity:1" d="M 18.7619,80.7619 4,54.1905 z" id="boundary" inkscape:connector-curvature="0" />
	<path style="fill:none;stroke:red;stroke-width:1px;stroke-linecap:butt;stroke-linejoin:miter;stroke-opacity:1" d="M 4,54.1905 27.619,30.5714 z" id="boundary" inkscape:connector-curvature="0" />
	<path style="fill:none;stroke:red;stroke-width:1px;stroke-linecap:butt;stroke-linejoin:miter;stroke-opacity:1" d="M 48.2857,77.8095 18.7619,80.7619 z" id="boundary" inkscape:connector-curvature="0" />
	<path style="fill:none;stroke:red;stroke-width:1px;stroke-linecap:butt;stroke-linejoin:miter;stroke-opacity:1" d="M 74.8571,92.5714 104.381,92.5714 z" id="boundary" inkscape:connector-curvature="0" />
	<path style="fill:none;stroke:red;stroke-width:1px;stroke-linecap:butt;stroke-linejoin:miter;stroke-opacity:1" d="M 104.381,92.5714 116.19,122.095 z" id="boundary" inkscape:connector-curvature="0" />
	<path style="fill:none;stroke:red;stroke-width:1px;stroke-linecap:butt;stroke-linejoin:miter;stroke-opacity:1" d="M 74.8571,92.5714 48.2857,77.8095 z" id="boundary" inkscape:connector-curvature="0" />
	<path style="fill:none;stroke:red;stroke-width:1px;stroke-linecap:butt;stroke-linejoin:miter;stroke-opacity:1" d="M 116.19,122.095 89.619,148.667 z" id="boundary" inkscape:connector-curvature="0" />
	<path style="fill:none;stroke:red;stroke-width:1px;stroke-linecap:butt;stroke-linejoin:miter;stroke-opacity:1" d="M 358.286,45.3333 328.762,45.3333 z" id="boundary" inkscape:connector-curvature="0" />
	<path style="fill:none;stroke:red;stroke-width:1px;stroke-linecap:butt;stroke-linejoin:miter;stroke-opacity:1" d="M 299.238,54.1905 328.762,45.3333 z" id="boundary" inkscape:connector-curvature="0" />
	<path style="fill:none;stroke:red;stroke-width:1px;stroke-linecap:butt;stroke-linejoin:miter;stroke-opacity:1" d="M 358.286,45.3333 387.81,45.3333 z" id="boundary" inkscape:connector-curvature="0" />
	<path style="fill:none;stroke:red;stroke-width:1px;stroke-linecap:butt;stroke-linejoin:miter;stroke-opacity:1" d="M 417.333,45.3333 387.81,45.3333 z" id="boundary" inkscape:connector-curvature="0" />
	<path style="fill:none;stroke:red;stroke-width:1px;stroke-linecap:butt;stroke-linejoin:miter;stroke-opacity:1" d="M 446.857,45.3333 417.333,45.3333 z" id="boundary" inkscape:connector-curvature="0" />
	<path style="fill:none;stroke:red;stroke-width:1px;stroke-linecap:butt;stroke-linejoin:miter;stroke-opacity:1" d="M 249.048,60.0952 219.524,60.0952 z" id="boundary" inkscape:connector-curvature="0" />
	<path style="fill:none;stroke:red;stroke-width:1px;stroke-linecap:butt;stroke-linejoin:miter;stroke-opacity:1" d="M 219.524,60.0952 190,48.2857 z" id="boundary" inkscape:connector-curvature="0" />
	<path style="fill:none;stroke:red;stroke-width:1px;stroke-linecap:butt;stroke-linejoin:miter;stroke-opacity:1" d="M 190,48.2857 166.381,30.5714 z" id="boundary" inkscape:connector-curvature="0" />
	<path style="fill:none;stroke:red;stroke-width:1px;stroke-linecap:butt;stroke-linejoin:miter;stroke-opacity:1" d="M 249.048,60.0952 275.619,74.8571 z" id="boundary" inkscape:connector-curvature="0" />
	<path style="fill:none;stroke:red;stroke-width:1px;stroke-linecap:butt;stroke-linejoin:miter;stroke-opacity:1" d="M 275.619,74.8571 299.238,54.1905 z" id="boundary" inkscape:connector-curvature="0" />
	<path style="fill:none;stroke:red;stroke-width:1px;stroke-linecap:butt;stroke-linejoin:miter;stroke-opacity:1" d="M 476.381,45.3333 446.857,45.3333 z" id="boundary" inkscape:connector-curvature="0" />
	<path style="fill:none;stroke:red;stroke-width:1px;stroke-linecap:butt;stroke-linejoin:miter;stroke-opacity:1" d="M 4,216.571 4,187.048 z" id="boundary" inkscape:connector-curvature="0" />
	<path style="fill:none;stroke:red;stroke-width:1px;stroke-linecap:butt;stroke-linejoin:miter;stroke-opacity:1" d="M 4,187.048 33.5238,172.286 z" id="boundary" inkscape:connector-curvature="0" />
	<path style="fill:none;stroke:red;stroke-width:1px;stroke-linecap:butt;stroke-linejoin:miter;stroke-opacity:1" d="M 63.0476,163.429 33.5238,172.286 z" id="boundary" inkscape:connector-curvature="0" />
	<path style="fill:none;stroke:red;stroke-width:1px;stroke-linecap:butt;stroke-linejoin:miter;stroke-opacity:1" d="M 89.619,148.667 63.0476,163.429 z" id="boundary" inkscape:connector-curvature="0" />
	<path style="fill:none;stroke:red;stroke-width:1px;stroke-linecap:butt;stroke-linejoin:miter;stroke-opacity:1" d="M 21.7143,240.19 4,216.571 z" id="boundary" inkscape:connector-curvature="0" />
	<path style="fill:none;stroke:red;stroke-width:1px;stroke-linecap:butt;stroke-linejoin:miter;stroke-opacity:1" d="M 68.9524,269.714 39.4286,263.81 z" id="boundary" inkscape:connector-curvature="0" />
	<path style="fill:none;stroke:red;stroke-width:1px;stroke-linecap:butt;stroke-linejoin:miter;stroke-opacity:1" d="M 39.4286,263.81 21.7143,240.19 z" id="boundary" inkscape:connector-curvature="0" />
	<path style="fill:none;stroke:red;stroke-width:1px;stroke-linecap:butt;stroke-linejoin:miter;stroke-opacity:1" d="M 151.619,260.857 128,278.571 z" id="boundary" inkscape:connector-curvature="0" />
	<path style="fill:none;stroke:red;stroke-width:1px;stroke-linecap:butt;stroke-linejoin:miter;stroke-opacity:1" d="M 128,278.571 98.4762,269.714 z" id="boundary" inkscape:connector-curvature="0" />
	<path style="fill:none;stroke:red;stroke-width:1px;stroke-linecap:butt;stroke-linejoin:miter;stroke-opacity:1" d="M 98.4762,269.714 68.9524,269.714 z" id="boundary" inkscape:connector-curvature="0" />
	<path style="fill:none;stroke:red;stroke-width:1px;stroke-linecap:butt;stroke-linejoin:miter;stroke-opacity:1" d="M 151.619,260.857 181.143,246.095 z" id="boundary" inkscape:connector-curvature="0" />
	<path style="fill:none;stroke:red;stroke-width:1px;stroke-linecap:butt;stroke-linejoin:miter;stroke-opacity:1" d="M 299.238,151.619 328.762,151.619 z" id="boundary" inkscape:connector-curvature="0" />
	<path style="fill:none;stroke:red;stroke-width:1px;stroke-linecap:butt;stroke-linejoin:miter;stroke-opacity:1" d="M 272.667,166.381 299.238,151.619 z" id="boundary" inkscape:connector-curvature="0" />
	<path style="fill:none;stroke:red;stroke-width:1px;stroke-linecap:butt;stroke-linejoin:miter;stroke-opacity:1" d="M 358.286,151.619 328.762,151.619 z" id="boundary" inkscape:connector-curvature="0" />
	<path style="fill:none;stroke:red;stroke-width:1px;stroke-linecap:butt;stroke-linejoin:miter;stroke-opacity:1" d="M 387.81,142.762 417.333,136.857 z" id="boundary" inkscape:connector-curvature="0" />
	<path style="fill:none;stroke:red;stroke-width:1px;stroke-linecap:butt;stroke-linejoin:miter;stroke-opacity:1" d="M 387.81,142.762 358.286,151.619 z" id="boundary" inkscape:connector-curvature="0" />
	<path style="fill:none;stroke:red;stroke-width:1px;stroke-linecap:butt;stroke-linejoin:miter;stroke-opacity:1" d="M 446.857,136.857 417.333,136.857 z" id="boundary" inkscape:connector-curvature="0" />
	<path style="fill:none;stroke:red;stroke-width:1px;stroke-linecap:butt;stroke-linejoin:miter;stroke-opacity:1" d="M 446.857,136.857 473.429,151.619 z" id="boundary" inkscape:connector-curvature="0" />
	<path style="fill:none;stroke:red;stroke-width:1px;stroke-linecap:butt;stroke-linejoin:miter;stroke-opacity:1" d="M 204.762,222.476 181.143,246.095 z" id="boundary" inkscape:connector-curvature="0" />
	<path style="fill:none;stroke:red;stroke-width:1px;stroke-linecap:butt;stroke-linejoin:miter;stroke-opacity:1" d="M 204.762,222.476 219.524,195.905 z" id="boundary" inkscape:connector-curvature="0" />
	<path style="fill:none;stroke:red;stroke-width:1px;stroke-linecap:butt;stroke-linejoin:miter;stroke-opacity:1" d="M 219.524,195.905 246.095,181.143 z" id="boundary" inkscape:connector-curvature="0" />
	<path style="fill:none;stroke:red;stroke-width:1px;stroke-linecap:butt;stroke-linejoin:miter;stroke-opacity:1" d="M 246.095,181.143 272.667,166.381 z" id="boundary" inkscape:connector-curvature="0" />
	<path style="fill:none;stroke:red;stroke-width:1px;stroke-linecap:butt;stroke-linejoin:miter;stroke-opacity:1" d="M 476.381,45.3333 502.952,60.0952 z" id="boundary" inkscape:connector-curvature="0" />
	<path style="fill:none;stroke:red;stroke-width:1px;stroke-linecap:butt;stroke-linejoin:miter;stroke-opacity:1" d="M 502.952,60.0952 532.476,60.0952 z" id="boundary" inkscape:connector-curvature="0" />
	<path style="fill:none;stroke:red;stroke-width:1px;stroke-linecap:butt;stroke-linejoin:miter;stroke-opacity:1" d="M 562,60.0952 591.524,63.0476 z" id="boundary" inkscape:connector-curvature="0" />
	<path style="fill:none;stroke:red;stroke-width:1px;stroke-linecap:butt;stroke-linejoin:miter;stroke-opacity:1" d="M 621.048,74.8571 591.524,63.0476 z" id="boundary" inkscape:connector-curvature="0" />
	<path style="fill:none;stroke:red;stroke-width:1px;stroke-linecap:butt;stroke-linejoin:miter;stroke-opacity:1" d="M 650.571,74.8571 621.048,74.8571 z" id="boundary" inkscape:connector-curvature="0" />
	<path style="fill:none;stroke:red;stroke-width:1px;stroke-linecap:butt;stroke-linejoin:miter;stroke-opacity:1" d="M 532.476,60.0952 562,60.0952 z" id="boundary" inkscape:connector-curvature="0" />
	<path style="fill:none;stroke:red;stroke-width:1px;stroke-linecap:butt;stroke-linejoin:miter;stroke-opacity:1" d="M 529.524,166.381 502.952,151.619 z" id="boundary" inkscape:connector-curvature="0" />
	<path style="fill:none;stroke:red;stroke-width:1px;stroke-linecap:butt;stroke-linejoin:miter;stroke-opacity:1" d="M 559.048,166.381 529.524,166.381 z" id="boundary" inkscape:connector-curvature="0" />
	<path style="fill:none;stroke:red;stroke-width:1px;stroke-linecap:butt;stroke-linejoin:miter;stroke-opacity:1" d="M 559.048,166.381 588.571,178.19 z" id="boundary" inkscape:connector-curvature="0" />
	<path style="fill:none;stroke:red;stroke-width:1px;stroke-linecap:butt;stroke-linejoin:miter;stroke-opacity:1" d="M 618.095,181.143 588.571,178.19 z" id="boundary" inkscape:connector-curvature="0" />
	<path style="fill:none;stroke:red;stroke-width:1px;stroke-linecap:butt;stroke-linejoin:miter;stroke-opacity:1" d="M 650.571,74.8571 677.143,89.619 z" id="boundary" inkscape:connector-curvature="0" />
	<path style="fill:none;stroke:red;stroke-width:1px;stroke-linecap:butt;stroke-linejoin:miter;stroke-opacity:1" d="M 618.095,181.143 647.619,192.952 z" id="boundary" inkscape:connector-curvature="0" />
	<path style="fill:none;stroke:red;stroke-width:1px;stroke-linecap:butt;stroke-linejoin:miter;stroke-opacity:1" d="M 502.952,151.619 473.429,151.619 z" id="boundary" inkscape:connector-curvature="0" />
	<path style="fill:none;stroke:red;stroke-width:1px;stroke-linecap:butt;stroke-linejoin:miter;stroke-opacity:1" d="M 677.143,89.619 706.667,89.619 z" id="boundary" inkscape:connector-curvature="0" />
	<path style="fill:none;stroke:red;stroke-width:1px;stroke-linecap:butt;stroke-linejoin:miter;stroke-opacity:1" d="M 706.667,89.619 727.333,113.238 z" id="boundary" inkscape:connector-curvature="0" />
	<path style="fill:none;stroke:red;stroke-width:1px;stroke-linecap:butt;stroke-linejoin:miter;stroke-opacity:1" d="M 756.857,125.048 727.333,113.238 z" id="boundary" inkscape:connector-curvature="0" />
	<path style="fill:none;stroke:red;stroke-width:1px;stroke-linecap:butt;stroke-linejoin:miter;stroke-opacity:1" d="M 786.381,133.905 756.857,125.048 z" id="boundary" inkscape:connector-curvature="0" />
	<path style="fill:none;stroke:red;stroke-width:1px;stroke-linecap:butt;stroke-linejoin:miter;stroke-opacity:1" d="M 815.905,139.81 786.381,133.905 z" id="boundary" inkscape:connector-curvature="0" />
	<path style="fill:none;stroke:red;stroke-width:1px;stroke-linecap:butt;stroke-linejoin:miter;stroke-opacity:1" d="M 845.429,148.667 874.952,148.667 z" id="boundary" inkscape:connector-curvature="0" />
	<path style="fill:none;stroke:red;stroke-width:1px;stroke-linecap:butt;stroke-linejoin:miter;stroke-opacity:1" d="M 845.429,148.667 815.905,139.81 z" id="boundary" inkscape:connector-curvature="0" />
	<path style="fill:none;stroke:red;stroke-width:1px;stroke-linecap:butt;stroke-linejoin:miter;stroke-opacity:1" d="M 904.476,148.667 874.952,148.667 z" id="boundary" inkscape:connector-curvature="0" />
	<path style="fill:none;stroke:red;stroke-width:1px;stroke-linecap:butt;stroke-linejoin:miter;stroke-opacity:1" d="M 931.048,163.429 960.571,166.381 z" id="boundary" inkscape:connector-curvature="0" />
	<path style="fill:none;stroke:red;stroke-width:1px;stroke-linecap:butt;stroke-linejoin:miter;stroke-opacity:1" d="M 960.571,166.381 981.238,190 z" id="boundary" inkscape:connector-curvature="0" />
	<path style="fill:none;stroke:red;stroke-width:1px;stroke-linecap:butt;stroke-linejoin:miter;stroke-opacity:1" d="M 931.048,163.429 904.476,148.667 z" id="boundary" inkscape:connector-curvature="0" />
	<path style="fill:none;stroke:red;stroke-width:1px;stroke-linecap:butt;stroke-linejoin:miter;stroke-opacity:1" d="M 981.238,190 981.238,219.524 z" id="boundary" inkscape:connector-curvature="0" />
	<path style="fill:none;stroke:red;stroke-width:1px;stroke-linecap:butt;stroke-linejoin:miter;stroke-opacity:1" d="M 647.619,192.952 677.143,195.905 z" id="boundary" inkscape:connector-curvature="0" />
	<path style="fill:none;stroke:red;stroke-width:1px;stroke-linecap:butt;stroke-linejoin:miter;stroke-opacity:1" d="M 677.143,195.905 706.667,207.714 z" id="boundary" inkscape:connector-curvature="0" />
	<path style="fill:none;stroke:red;stroke-width:1px;stroke-linecap:butt;stroke-linejoin:miter;stroke-opacity:1" d="M 762.762,225.429 733.238,222.476 z" id="boundary" inkscape:connector-curvature="0" />
	<path style="fill:none;stroke:red;stroke-width:1px;stroke-linecap:butt;stroke-linejoin:miter;stroke-opacity:1" d="M 706.667,207.714 733.238,222.476 z" id="boundary" inkscape:connector-curvature="0" />
	<path style="fill:none;stroke:red;stroke-width:1px;stroke-linecap:butt;stroke-linejoin:miter;stroke-opacity:1" d="M 762.762,225.429 777.524,252 z" id="boundary" inkscape:connector-curvature="0" />
	<path style="fill:none;stroke:red;stroke-width:1px;stroke-linecap:butt;stroke-linejoin:miter;stroke-opacity:1" d="M 810,299.238 815.905,328.762 z" id="boundary" inkscape:connector-curvature="0" />
	<path style="fill:none;stroke:red;stroke-width:1px;stroke-linecap:butt;stroke-linejoin:miter;stroke-opacity:1" d="M 810,299.238 801.143,269.714 z" id="boundary" inkscape:connector-curvature="0" />
	<path style="fill:none;stroke:red;stroke-width:1px;stroke-linecap:butt;stroke-linejoin:miter;stroke-opacity:1" d="M 877.905,269.714 810,299.238 z" id="boundary" inkscape:connector-curvature="0" />
	<path style="fill:none;stroke:red;stroke-width:1px;stroke-linecap:butt;stroke-linejoin:miter;stroke-opacity:1" d="M 777.524,252 801.143,269.714 z" id="boundary" inkscape:connector-curvature="0" />
	<path style="fill:none;stroke:red;stroke-width:1px;stroke-linecap:butt;stroke-linejoin:miter;stroke-opacity:1" d="M 857.238,373.048 833.619,352.381 z" id="boundary" inkscape:connector-curvature="0" />
	<path style="fill:none;stroke:red;stroke-width:1px;stroke-linecap:butt;stroke-linejoin:miter;stroke-opacity:1" d="M 833.619,352.381 815.905,328.762 z" id="boundary" inkscape:connector-curvature="0" />
	<path style="fill:none;stroke:red;stroke-width:1px;stroke-linecap:butt;stroke-linejoin:miter;stroke-opacity:1" d="M 877.905,269.714 892.667,296.286 z" id="boundary" inkscape:connector-curvature="0" />
	<path style="fill:none;stroke:red;stroke-width:1px;stroke-linecap:butt;stroke-linejoin:miter;stroke-opacity:1" d="M 951.714,290.381 922.19,278.571 z" id="boundary" inkscape:connector-curvature="0" />
	<path style="fill:none;stroke:red;stroke-width:1px;stroke-linecap:butt;stroke-linejoin:miter;stroke-opacity:1" d="M 922.19,278.571 904.476,254.952 z" id="boundary" inkscape:connector-curvature="0" />
	<path style="fill:none;stroke:red;stroke-width:1px;stroke-linecap:butt;stroke-linejoin:miter;stroke-opacity:1" d="M 996,275.619 981.238,249.048 z" id="boundary" inkscape:connector-curvature="0" />
	<path style="fill:none;stroke:red;stroke-width:1px;stroke-linecap:butt;stroke-linejoin:miter;stroke-opacity:1" d="M 981.238,249.048 981.238,219.524 z" id="boundary" inkscape:connector-curvature="0" />
	<path style="fill:none;stroke:red;stroke-width:1px;stroke-linecap:butt;stroke-linejoin:miter;stroke-opacity:1" d="M 904.476,254.952 877.905,269.714 z" id="boundary" inkscape:connector-curvature="0" />
	<path style="fill:none;stroke:red;stroke-width:1px;stroke-linecap:butt;stroke-linejoin:miter;stroke-opacity:1" d="M 996,275.619 972.381,314 z" id="boundary" inkscape:connector-curvature="0" />
	<path style="fill:none;stroke:red;stroke-width:1px;stroke-linecap:butt;stroke-linejoin:miter;stroke-opacity:1" d="M 972.381,314 951.714,290.381 z" id="boundary" inkscape:connector-curvature="0" />
	<path style="fill:none;stroke:red;stroke-width:1px;stroke-linecap:butt;stroke-linejoin:miter;stroke-opacity:1" d="M 913.333,384.857 883.81,387.81 z" id="boundary" inkscape:connector-curvature="0" />
	<path style="fill:none;stroke:red;stroke-width:1px;stroke-linecap:butt;stroke-linejoin:miter;stroke-opacity:1" d="M 922.19,343.524 913.333,384.857 z" id="boundary" inkscape:connector-curvature="0" />
	<path style="fill:none;stroke:red;stroke-width:1px;stroke-linecap:butt;stroke-linejoin:miter;stroke-opacity:1" d="M 883.81,387.81 857.238,373.048 z" id="boundary" inkscape:connector-curvature="0" />
	<path style="fill:none;stroke:red;stroke-width:1px;stroke-linecap:butt;stroke-linejoin:miter;stroke-opacity:1" d="M 922.19,343.524 916.286,314 z" id="boundary" inkscape:connector-curvature="0" />
	<path style="fill:none;stroke:red;stroke-width:1px;stroke-linecap:butt;stroke-linejoin:miter;stroke-opacity:1" d="M 916.286,314 892.667,296.286 z" id="boundary" inkscape:connector-curvature="0" />
	<path style="fill:none;stroke:red;stroke-width:1px;stroke-linecap:butt;stroke-linejoin:miter;stroke-opacity:1" d="M 972.381,314 913.333,384.857 z" id="boundary" inkscape:connector-curvature="0" />
	<circle cx="4" cy="54.1905" r="4" fill="#0" id="circle0"/>
	<circle cx="4" cy="187.048" r="4" fill="#0" id="circle1"/>
	<circle cx="4" cy="216.571" r="4" fill="#0" id="circle2"/>
	<circle cx="18.7619" cy="80.7619" r="4" fill="#0" id="circle3"/>
	<circle cx="21.7143" cy="240.19" r="4" fill="#0" id="circle4"/>
	<circle cx="27.619" cy="30.5714" r="4" fill="#0" id="circle5"/>
	<circle cx="33.5238" cy="172.286" r="4" fill="#0" id="circle6"/>
	<circle cx="39.4286" cy="263.81" r="4" fill="#0" id="circle7"/>
	<circle cx="48.2857" cy="77.8095" r="4" fill="#0" id="circle8"/>
	<circle cx="54.1905" cy="15.8095" r="4" fill="#0" id="circle9"/>
	<circle cx="63.0476" cy="163.429" r="4" fill="#0" id="circle10"/>
	<circle cx="68.9524" cy="269.714" r="4" fill="#0" id="circle11"/>
	<circle cx="74.8571" cy="92.5714" r="4" fill="#0" id="circle12"/>
	<circle cx="83.7143" cy="15.8095" r="4" fill="#0" id="circle13"/>
	<circle cx="89.619" cy="148.667" r="4" fill="#0" id="circle14"/>
	<circle cx="98.4762" cy="269.714" r="4" fill="#0" id="circle15"/>
	<circle cx="104.381" cy="92.5714" r="4" fill="#0" id="circle16"/>
	<circle cx="113.238" cy="4" r="4" fill="#0" id="circle17"/>
	<circle cx="116.19" cy="122.095" r="4" fill="#0" id="circle18"/>
	<circle cx="128" cy="278.571" r="4" fill="#0" id="circle19"/>
	<circle cx="136.857" cy="21.7143" r="4" fill="#0" id="circle20"/>
	<circle cx="151.619" cy="260.857" r="4" fill="#0" id="circle21"/>
	<circle cx="166.381" cy="30.5714" r="4" fill="#0" id="circle22"/>
	<circle cx="181.143" cy="246.095" r="4" fill="#0" id="circle23"/>
	<circle cx="190" cy="48.2857" r="4" fill="#0" id="circle24"/>
	<circle cx="204.762" cy="222.476" r="4" fill="#0" id="circle25"/>
	<circle cx="219.524" cy="60.0952" r="4" fill="#0" id="circle26"/>
	<circle cx="219.524" cy="195.905" r="4" fill="#0" id="circle27"/>
	<circle cx="246.095" cy="181.143" r="4" fill="#0" id="circle28"/>
	<circle cx="249.048" cy="60.0952" r="4" fill="#0" id="circle29"/>
	<circle cx="272.667" cy="166.381" r="4" fill="#0" id="circle30"/>
	<circle cx="275.619" cy="74.8571" r="4" fill="#0" id="circle31"/>
	<circle cx="299.238" cy="54.1905" r="4" fill="#0" id="circle32"/>
	<circle cx="299.238" cy="151.619" r="4" fill="#0" id="circle33"/>
	<circle cx="328.762" cy="45.3333" r="4" fill="#0" id="circle34"/>
	<circle cx="328.762" cy="151.619" r="4" fill="#0" id="circle35"/>
	<circle cx="358.286" cy="45.3333" r="4" fill="#0" id="circle36"/>
	<circle cx="358.286" cy="151.619" r="4" fill="#0" id="circle37"/>
	<circle cx="387.81" cy="45.3333" r="4" fill="#0" id="circle38"/>
	<circle cx="387.81" cy="142.762" r="4" fill="#0" id="circle39"/>
	<circle cx="417.333" cy="45.3333" r="4" fill="#0" id="circle40"/>
	<circle cx="417.333" cy="136.857" r="4" fill="#0" id="circle41"/>
	<circle cx="446.857" cy="45.3333" r="4" fill="#0" id="circle42"/>
	<circle cx="446.857" cy="136.857" r="4" fill="#0" id="circle43"/>
	<circle cx="473.429" cy="151.619" r="4" fill="#0" id="circle44"/>
	<circle cx="476.381" cy="45.3333" r="4" fill="#0" id="circle45"/>
	<circle cx="502.952" cy="60.0952" r="4" fill="#0" id="circle46"/>
	<circle cx="502.952" cy="151.619" r="4" fill="#0" id="circle47"/>
	<circle cx="529.524" cy="166.381" r="4" fill="#0" id="circle48"/>
	<circle cx="532.476" cy="60.0952" r="4" fill="#0" id="circle49"/>
	<circle cx="559.048" cy="166.381" r="4" fill="#0" id="circle50"/>
	<circle cx="562" cy="60.0952" r="4" fill="#0" id="circle51"/>
	<circle cx="588.571" cy="178.19" r="4" fill="#0" id="circle52"/>
	<circle cx="591.524" cy="63.0476" r="4" fill="#0" id="circle53"/>
	<circle cx="618.095" cy="181.143" r="4" fill="#0" id="circle54"/>
	<circle cx="621.048" cy="74.8571" r="4" fill="#0" id="circle55"/>
	<circle cx="647.619" cy="192.952" r="4" fill="#0" id="circle56"/>
	<circle cx="650.571" cy="74.8571" r="4" fill="#0" id="circle57"/>
	<circle cx="677.143" cy="89.619" r="4" fill="#0" id="circle58"/>
	<circle cx="677.143" cy="195.905" r="4" fill="#0" id="circle59"/>
	<circle cx="706.667" cy="89.619" r="4" fill="#0" id="circle60"/>
	<circle cx="706.667" cy="207.714" r="4" fill="#0" id="circle61"/>
	<circle cx="727.333" cy="113.238" r="4" fill="#0" id="circle62"/>
	<circle cx="733.238" cy="222.476" r="4" fill="#0" id="circle63"/>
	<circle cx="756.857" cy="125.048" r="4" fill="#0" id="circle64"/>
	<circle cx="762.762" cy="225.429" r="4" fill="#0" id="circle65"/>
	<circle cx="777.524" cy="252" r="4" fill="#0" id="circle66"/>
	<circle cx="786.381" cy="133.905" r="4" fill="#0" id="circle67"/>
	<circle cx="801.143" cy="269.714" r="4" fill="#0" id="circle68"/>
	<circle cx="810" cy="299.238" r="4" fill="#0" id="circle69"/>
	<circle cx="815.905" cy="139.81" r="4" fill="#0" id="circle70"/>
	<circle cx="815.905" cy="328.762" r="4" fill="#0" id="circle71"/>
	<circle cx="833.619" cy="352.381" r="4" fill="#0" id="circle72"/>
	<circle cx="845.429" cy="148.667" r="4" fill="#0" id="circle73"/>
	<circle cx="857.238" cy="373.048" r="4" fill="#0" id="circle74"/>
	<circle cx="874.952" cy="148.667" r="4" fill="#0" id="circle75"/>
	<circle cx="877.905" cy="269.714" r="4" fill="#0" id="circle76"/>
	<circle cx="883.81" cy="387.81" r="4" fill="#0" id="circle77"/>
	<circle cx="892.667" cy="296.286" r="4" fill="#0" id="circle78"/>
	<circle cx="904.476" cy="148.667" r="4" fill="#0" id="circle79"/>
	<circle cx="904.476" cy="254.952" r="4" fill="#0" id="circle80"/>
	<circle cx="913.333" cy="384.857" r="4" fill="#0" id="circle81"/>
	<circle cx="916.286" cy="314" r="4" fill="#0" id="circle82"/>
	<circle cx="922.19" cy="278.571" r="4" fill="#0" id="circle83"/>
	<circle cx="922.19" cy="343.524" r="4" fill="#0" id="circle84"/>
	<circle cx="931.048" cy="163.429" r="4" fill="#0" id="circle85"/>
	<circle cx="951.714" cy="290.381" r="4" fill="#0" id="circle86"/>
	<circle cx="960.571" cy="166.381" r="4" fill="#0" id="circle87"/>
	<circle cx="972.381" cy="314" r="4" fill="#0" id="circle88"/>
	<circle cx="981.238" cy="190" r="4" fill="#0" id="circle89"/>
	<circle cx="981.238" cy="219.524" r="4" fill="#0" id="circle90"/>
	<circle cx="981.238" cy="249.048" r="4" fill="#0" id="circle91"/>
	<circle cx="996" cy="275.619" r="4" fill="#0" id="circle92"/>
	</g>
</svg>