<?xml version="1.0" encoding="UTF-8" standalone="no"?>
<!-- Created with CurveBenchmark -->
<svg
	xmlns:dc="http://purl.org/dc/elements/1.1/"
	xmlns:cc="http://creativecommons.org/ns#"
	xmlns:rdf="http://www.w3.org/1999/02/22-rdf-syntax-ns#"
	xmlns:svg="http://www.w3.org/2000/svg"
	xmlns="http://www.w3.org/2000/svg"
	xmlns:sodipodi="http://sodipodi.sourceforge.net/DTD/sodipodi-0.dtd"
	xmlns:inkscape="http://www.inkscape.org/namespaces/inkscape"
	width="1000"
	height="1000"
	id="svg2"
	version="1.1"
	sodipodi:docname="manifold/nncrust-hammer-18.png.txt">
<defs
	id="defs4" />
<metadata
	id="metadata7">
	<rdf:RDF>
		<cc:Work
			rdf:about="">
			<dc:format>image/svg+xml</dc:format>
			<dc:type
				rdf:resource="http://purl.org/dc/dcmitype/StillImage" />
			<dc:title></dc:title>
		</cc:Work>
	</rdf:RDF>
</metadata>
<g
	inkscape:label="Layer 1"
	inkscape:groupmode="layer"
	id="layer1">
	<path style="fill:none;stroke:red;stroke-width:1px;stroke-linecap:butt;stroke-linejoin:miter;stroke-opacity:1" d="M 14.0101,267.265 24.0202,267.265 z" id="boundary" inkscape:connector-curvature="0" />
	<path style="fill:none;stroke:red;stroke-width:1px;stroke-linecap:butt;stroke-linejoin:miter;stroke-opacity:1" d="M 34.0303,267.265 44.0404,267.265 z" id="boundary" inkscape:connector-curvature="0" />
	<path style="fill:none;stroke:red;stroke-width:1px;stroke-linecap:butt;stroke-linejoin:miter;stroke-opacity:1" d="M 34.0303,267.265 24.0202,267.265 z" id="boundary" inkscape:connector-curvature="0" />
	<path style="fill:none;stroke:red;stroke-width:1px;stroke-linecap:butt;stroke-linejoin:miter;stroke-opacity:1" d="M 4,320.319 4,310.309 z" id="boundary" inkscape:connector-curvature="0" />
	<path style="fill:none;stroke:red;stroke-width:1px;stroke-linecap:butt;stroke-linejoin:miter;stroke-opacity:1" d="M 64.0605,267.265 54.0505,267.265 z" id="boundary" inkscape:connector-curvature="0" />
	<path style="fill:none;stroke:red;stroke-width:1px;stroke-linecap:butt;stroke-linejoin:miter;stroke-opacity:1" d="M 64.0605,267.265 74.0706,267.265 z" id="boundary" inkscape:connector-curvature="0" />
	<path style="fill:none;stroke:red;stroke-width:1px;stroke-linecap:butt;stroke-linejoin:miter;stroke-opacity:1" d="M 84.0807,267.265 74.0706,267.265 z" id="boundary" inkscape:connector-curvature="0" />
	<path style="fill:none;stroke:red;stroke-width:1px;stroke-linecap:butt;stroke-linejoin:miter;stroke-opacity:1" d="M 94.0908,267.265 84.0807,267.265 z" id="boundary" inkscape:connector-curvature="0" />
	<path style="fill:none;stroke:red;stroke-width:1px;stroke-linecap:butt;stroke-linejoin:miter;stroke-opacity:1" d="M 54.0505,267.265 44.0404,267.265 z" id="boundary" inkscape:connector-curvature="0" />
	<path style="fill:none;stroke:red;stroke-width:1px;stroke-linecap:butt;stroke-linejoin:miter;stroke-opacity:1" d="M 94.0908,267.265 104.101,267.265 z" id="boundary" inkscape:connector-curvature="0" />
	<path style="fill:none;stroke:red;stroke-width:1px;stroke-linecap:butt;stroke-linejoin:miter;stroke-opacity:1" d="M 114.111,267.265 104.101,267.265 z" id="boundary" inkscape:connector-curvature="0" />
	<path style="fill:none;stroke:red;stroke-width:1px;stroke-linecap:butt;stroke-linejoin:miter;stroke-opacity:1" d="M 114.111,267.265 124.121,267.265 z" id="boundary" inkscape:connector-curvature="0" />
	<path style="fill:none;stroke:red;stroke-width:1px;stroke-linecap:butt;stroke-linejoin:miter;stroke-opacity:1" d="M 134.131,267.265 124.121,267.265 z" id="boundary" inkscape:connector-curvature="0" />
	<path style="fill:none;stroke:red;stroke-width:1px;stroke-linecap:butt;stroke-linejoin:miter;stroke-opacity:1" d="M 134.131,267.265 144.141,267.265 z" id="boundary" inkscape:connector-curvature="0" />
	<path style="fill:none;stroke:red;stroke-width:1px;stroke-linecap:butt;stroke-linejoin:miter;stroke-opacity:1" d="M 154.151,267.265 144.141,267.265 z" id="boundary" inkscape:connector-curvature="0" />
	<path style="fill:none;stroke:red;stroke-width:1px;stroke-linecap:butt;stroke-linejoin:miter;stroke-opacity:1" d="M 154.151,267.265 164.161,267.265 z" id="boundary" inkscape:connector-curvature="0" />
	<path style="fill:none;stroke:red;stroke-width:1px;stroke-linecap:butt;stroke-linejoin:miter;stroke-opacity:1" d="M 174.172,267.265 164.161,267.265 z" id="boundary" inkscape:connector-curvature="0" />
	<path style="fill:none;stroke:red;stroke-width:1px;stroke-linecap:butt;stroke-linejoin:miter;stroke-opacity:1" d="M 184.182,267.265 174.172,267.265 z" id="boundary" inkscape:connector-curvature="0" />
	<path style="fill:none;stroke:red;stroke-width:1px;stroke-linecap:butt;stroke-linejoin:miter;stroke-opacity:1" d="M 184.182,267.265 194.192,267.265 z" id="boundary" inkscape:connector-curvature="0" />
	<path style="fill:none;stroke:red;stroke-width:1px;stroke-linecap:butt;stroke-linejoin:miter;stroke-opacity:1" d="M 204.202,267.265 194.192,267.265 z" id="boundary" inkscape:connector-curvature="0" />
	<path style="fill:none;stroke:red;stroke-width:1px;stroke-linecap:butt;stroke-linejoin:miter;stroke-opacity:1" d="M 204.202,267.265 214.212,267.265 z" id="boundary" inkscape:connector-curvature="0" />
	<path style="fill:none;stroke:red;stroke-width:1px;stroke-linecap:butt;stroke-linejoin:miter;stroke-opacity:1" d="M 224.222,267.265 214.212,267.265 z" id="boundary" inkscape:connector-curvature="0" />
	<path style="fill:none;stroke:red;stroke-width:1px;stroke-linecap:butt;stroke-linejoin:miter;stroke-opacity:1" d="M 4,270.268 14.0101,267.265 z" id="boundary" inkscape:connector-curvature="0" />
	<path style="fill:none;stroke:red;stroke-width:1px;stroke-linecap:butt;stroke-linejoin:miter;stroke-opacity:1" d="M 4,280.279 4,270.268 z" id="boundary" inkscape:connector-curvature="0" />
	<path style="fill:none;stroke:red;stroke-width:1px;stroke-linecap:butt;stroke-linejoin:miter;stroke-opacity:1" d="M 4,300.299 4,290.289 z" id="boundary" inkscape:connector-curvature="0" />
	<path style="fill:none;stroke:red;stroke-width:1px;stroke-linecap:butt;stroke-linejoin:miter;stroke-opacity:1" d="M 4,310.309 4,300.299 z" id="boundary" inkscape:connector-curvature="0" />
	<path style="fill:none;stroke:red;stroke-width:1px;stroke-linecap:butt;stroke-linejoin:miter;stroke-opacity:1" d="M 4,290.289 4,280.279 z" id="boundary" inkscape:connector-curvature="0" />
	<path style="fill:none;stroke:red;stroke-width:1px;stroke-linecap:butt;stroke-linejoin:miter;stroke-opacity:1" d="M 224.222,267.265 234.232,267.265 z" id="boundary" inkscape:connector-curvature="0" />
	<path style="fill:none;stroke:red;stroke-width:1px;stroke-linecap:butt;stroke-linejoin:miter;stroke-opacity:1" d="M 244.242,267.265 234.232,267.265 z" id="boundary" inkscape:connector-curvature="0" />
	<path style="fill:none;stroke:red;stroke-width:1px;stroke-linecap:butt;stroke-linejoin:miter;stroke-opacity:1" d="M 244.242,267.265 254.252,267.265 z" id="boundary" inkscape:connector-curvature="0" />
	<path style="fill:none;stroke:red;stroke-width:1px;stroke-linecap:butt;stroke-linejoin:miter;stroke-opacity:1" d="M 264.262,267.265 254.252,267.265 z" id="boundary" inkscape:connector-curvature="0" />
	<path style="fill:none;stroke:red;stroke-width:1px;stroke-linecap:butt;stroke-linejoin:miter;stroke-opacity:1" d="M 274.272,267.265 264.262,267.265 z" id="boundary" inkscape:connector-curvature="0" />
	<path style="fill:none;stroke:red;stroke-width:1px;stroke-linecap:butt;stroke-linejoin:miter;stroke-opacity:1" d="M 274.272,267.265 284.283,267.265 z" id="boundary" inkscape:connector-curvature="0" />
	<path style="fill:none;stroke:red;stroke-width:1px;stroke-linecap:butt;stroke-linejoin:miter;stroke-opacity:1" d="M 294.293,267.265 284.283,267.265 z" id="boundary" inkscape:connector-curvature="0" />
	<path style="fill:none;stroke:red;stroke-width:1px;stroke-linecap:butt;stroke-linejoin:miter;stroke-opacity:1" d="M 294.293,267.265 304.303,267.265 z" id="boundary" inkscape:connector-curvature="0" />
	<path style="fill:none;stroke:red;stroke-width:1px;stroke-linecap:butt;stroke-linejoin:miter;stroke-opacity:1" d="M 314.313,267.265 304.303,267.265 z" id="boundary" inkscape:connector-curvature="0" />
	<path style="fill:none;stroke:red;stroke-width:1px;stroke-linecap:butt;stroke-linejoin:miter;stroke-opacity:1" d="M 324.323,267.265 314.313,267.265 z" id="boundary" inkscape:connector-curvature="0" />
	<path style="fill:none;stroke:red;stroke-width:1px;stroke-linecap:butt;stroke-linejoin:miter;stroke-opacity:1" d="M 324.323,267.265 334.333,267.265 z" id="boundary" inkscape:connector-curvature="0" />
	<path style="fill:none;stroke:red;stroke-width:1px;stroke-linecap:butt;stroke-linejoin:miter;stroke-opacity:1" d="M 344.343,267.265 334.333,267.265 z" id="boundary" inkscape:connector-curvature="0" />
	<path style="fill:none;stroke:red;stroke-width:1px;stroke-linecap:butt;stroke-linejoin:miter;stroke-opacity:1" d="M 344.343,267.265 354.353,267.265 z" id="boundary" inkscape:connector-curvature="0" />
	<path style="fill:none;stroke:red;stroke-width:1px;stroke-linecap:butt;stroke-linejoin:miter;stroke-opacity:1" d="M 364.363,267.265 354.353,267.265 z" id="boundary" inkscape:connector-curvature="0" />
	<path style="fill:none;stroke:red;stroke-width:1px;stroke-linecap:butt;stroke-linejoin:miter;stroke-opacity:1" d="M 364.363,267.265 374.373,267.265 z" id="boundary" inkscape:connector-curvature="0" />
	<path style="fill:none;stroke:red;stroke-width:1px;stroke-linecap:butt;stroke-linejoin:miter;stroke-opacity:1" d="M 384.383,267.265 374.373,267.265 z" id="boundary" inkscape:connector-curvature="0" />
	<path style="fill:none;stroke:red;stroke-width:1px;stroke-linecap:butt;stroke-linejoin:miter;stroke-opacity:1" d="M 384.383,267.265 394.394,267.265 z" id="boundary" inkscape:connector-curvature="0" />
	<path style="fill:none;stroke:red;stroke-width:1px;stroke-linecap:butt;stroke-linejoin:miter;stroke-opacity:1" d="M 404.404,267.265 394.394,267.265 z" id="boundary" inkscape:connector-curvature="0" />
	<path style="fill:none;stroke:red;stroke-width:1px;stroke-linecap:butt;stroke-linejoin:miter;stroke-opacity:1" d="M 414.414,267.265 404.404,267.265 z" id="boundary" inkscape:connector-curvature="0" />
	<path style="fill:none;stroke:red;stroke-width:1px;stroke-linecap:butt;stroke-linejoin:miter;stroke-opacity:1" d="M 414.414,267.265 424.424,267.265 z" id="boundary" inkscape:connector-curvature="0" />
	<path style="fill:none;stroke:red;stroke-width:1px;stroke-linecap:butt;stroke-linejoin:miter;stroke-opacity:1" d="M 434.434,267.265 424.424,267.265 z" id="boundary" inkscape:connector-curvature="0" />
	<path style="fill:none;stroke:red;stroke-width:1px;stroke-linecap:butt;stroke-linejoin:miter;stroke-opacity:1" d="M 434.434,267.265 444.444,267.265 z" id="boundary" inkscape:connector-curvature="0" />
	<path style="fill:none;stroke:red;stroke-width:1px;stroke-linecap:butt;stroke-linejoin:miter;stroke-opacity:1" d="M 454.454,267.265 444.444,267.265 z" id="boundary" inkscape:connector-curvature="0" />
	<path style="fill:none;stroke:red;stroke-width:1px;stroke-linecap:butt;stroke-linejoin:miter;stroke-opacity:1" d="M 464.464,267.265 454.454,267.265 z" id="boundary" inkscape:connector-curvature="0" />
	<path style="fill:none;stroke:red;stroke-width:1px;stroke-linecap:butt;stroke-linejoin:miter;stroke-opacity:1" d="M 464.464,267.265 474.474,267.265 z" id="boundary" inkscape:connector-curvature="0" />
	<path style="fill:none;stroke:red;stroke-width:1px;stroke-linecap:butt;stroke-linejoin:miter;stroke-opacity:1" d="M 484.484,267.265 474.474,267.265 z" id="boundary" inkscape:connector-curvature="0" />
	<path style="fill:none;stroke:red;stroke-width:1px;stroke-linecap:butt;stroke-linejoin:miter;stroke-opacity:1" d="M 484.484,267.265 494.494,267.265 z" id="boundary" inkscape:connector-curvature="0" />
	<path style="fill:none;stroke:red;stroke-width:1px;stroke-linecap:butt;stroke-linejoin:miter;stroke-opacity:1" d="M 504.505,267.265 494.494,267.265 z" id="boundary" inkscape:connector-curvature="0" />
	<path style="fill:none;stroke:red;stroke-width:1px;stroke-linecap:butt;stroke-linejoin:miter;stroke-opacity:1" d="M 514.515,267.265 504.505,267.265 z" id="boundary" inkscape:connector-curvature="0" />
	<path style="fill:none;stroke:red;stroke-width:1px;stroke-linecap:butt;stroke-linejoin:miter;stroke-opacity:1" d="M 514.515,267.265 524.525,267.265 z" id="boundary" inkscape:connector-curvature="0" />
	<path style="fill:none;stroke:red;stroke-width:1px;stroke-linecap:butt;stroke-linejoin:miter;stroke-opacity:1" d="M 534.535,267.265 524.525,267.265 z" id="boundary" inkscape:connector-curvature="0" />
	<path style="fill:none;stroke:red;stroke-width:1px;stroke-linecap:butt;stroke-linejoin:miter;stroke-opacity:1" d="M 534.535,267.265 544.545,267.265 z" id="boundary" inkscape:connector-curvature="0" />
	<path style="fill:none;stroke:red;stroke-width:1px;stroke-linecap:butt;stroke-linejoin:miter;stroke-opacity:1" d="M 554.555,267.265 544.545,267.265 z" id="boundary" inkscape:connector-curvature="0" />
	<path style="fill:none;stroke:red;stroke-width:1px;stroke-linecap:butt;stroke-linejoin:miter;stroke-opacity:1" d="M 554.555,267.265 564.565,267.265 z" id="boundary" inkscape:connector-curvature="0" />
	<path style="fill:none;stroke:red;stroke-width:1px;stroke-linecap:butt;stroke-linejoin:miter;stroke-opacity:1" d="M 574.575,267.265 564.565,267.265 z" id="boundary" inkscape:connector-curvature="0" />
	<path style="fill:none;stroke:red;stroke-width:1px;stroke-linecap:butt;stroke-linejoin:miter;stroke-opacity:1" d="M 574.575,267.265 584.585,267.265 z" id="boundary" inkscape:connector-curvature="0" />
	<path style="fill:none;stroke:red;stroke-width:1px;stroke-linecap:butt;stroke-linejoin:miter;stroke-opacity:1" d="M 594.595,267.265 584.585,267.265 z" id="boundary" inkscape:connector-curvature="0" />
	<path style="fill:none;stroke:red;stroke-width:1px;stroke-linecap:butt;stroke-linejoin:miter;stroke-opacity:1" d="M 604.605,267.265 594.595,267.265 z" id="boundary" inkscape:connector-curvature="0" />
	<path style="fill:none;stroke:red;stroke-width:1px;stroke-linecap:butt;stroke-linejoin:miter;stroke-opacity:1" d="M 604.605,267.265 614.616,267.265 z" id="boundary" inkscape:connector-curvature="0" />
	<path style="fill:none;stroke:red;stroke-width:1px;stroke-linecap:butt;stroke-linejoin:miter;stroke-opacity:1" d="M 624.626,267.265 614.616,267.265 z" id="boundary" inkscape:connector-curvature="0" />
	<path style="fill:none;stroke:red;stroke-width:1px;stroke-linecap:butt;stroke-linejoin:miter;stroke-opacity:1" d="M 624.626,267.265 634.636,267.265 z" id="boundary" inkscape:connector-curvature="0" />
	<path style="fill:none;stroke:red;stroke-width:1px;stroke-linecap:butt;stroke-linejoin:miter;stroke-opacity:1" d="M 644.646,267.265 634.636,267.265 z" id="boundary" inkscape:connector-curvature="0" />
	<path style="fill:none;stroke:red;stroke-width:1px;stroke-linecap:butt;stroke-linejoin:miter;stroke-opacity:1" d="M 654.656,267.265 644.646,267.265 z" id="boundary" inkscape:connector-curvature="0" />
	<path style="fill:none;stroke:red;stroke-width:1px;stroke-linecap:butt;stroke-linejoin:miter;stroke-opacity:1" d="M 799.802,5.00101 654.656,267.265 z" id="boundary" inkscape:connector-curvature="0" />
	<path style="fill:none;stroke:red;stroke-width:1px;stroke-linecap:butt;stroke-linejoin:miter;stroke-opacity:1" d="M 654.656,267.265 664.666,267.265 z" id="boundary" inkscape:connector-curvature="0" />
	<path style="fill:none;stroke:red;stroke-width:1px;stroke-linecap:butt;stroke-linejoin:miter;stroke-opacity:1" d="M 674.676,267.265 664.666,267.265 z" id="boundary" inkscape:connector-curvature="0" />
	<path style="fill:none;stroke:red;stroke-width:1px;stroke-linecap:butt;stroke-linejoin:miter;stroke-opacity:1" d="M 674.676,267.265 684.686,267.265 z" id="boundary" inkscape:connector-curvature="0" />
	<path style="fill:none;stroke:red;stroke-width:1px;stroke-linecap:butt;stroke-linejoin:miter;stroke-opacity:1" d="M 694.696,267.265 684.686,267.265 z" id="boundary" inkscape:connector-curvature="0" />
	<path style="fill:none;stroke:red;stroke-width:1px;stroke-linecap:butt;stroke-linejoin:miter;stroke-opacity:1" d="M 704.706,267.265 694.696,267.265 z" id="boundary" inkscape:connector-curvature="0" />
	<path style="fill:none;stroke:red;stroke-width:1px;stroke-linecap:butt;stroke-linejoin:miter;stroke-opacity:1" d="M 4,340.339 4,330.329 z" id="boundary" inkscape:connector-curvature="0" />
	<path style="fill:none;stroke:red;stroke-width:1px;stroke-linecap:butt;stroke-linejoin:miter;stroke-opacity:1" d="M 4,350.349 4,340.339 z" id="boundary" inkscape:connector-curvature="0" />
	<path style="fill:none;stroke:red;stroke-width:1px;stroke-linecap:butt;stroke-linejoin:miter;stroke-opacity:1" d="M 44.0404,373.372 34.0303,373.372 z" id="boundary" inkscape:connector-curvature="0" />
	<path style="fill:none;stroke:red;stroke-width:1px;stroke-linecap:butt;stroke-linejoin:miter;stroke-opacity:1" d="M 4,370.369 4,360.359 z" id="boundary" inkscape:connector-curvature="0" />
	<path style="fill:none;stroke:red;stroke-width:1px;stroke-linecap:butt;stroke-linejoin:miter;stroke-opacity:1" d="M 14.0101,373.372 4,370.369 z" id="boundary" inkscape:connector-curvature="0" />
	<path style="fill:none;stroke:red;stroke-width:1px;stroke-linecap:butt;stroke-linejoin:miter;stroke-opacity:1" d="M 14.0101,373.372 24.0202,373.372 z" id="boundary" inkscape:connector-curvature="0" />
	<path style="fill:none;stroke:red;stroke-width:1px;stroke-linecap:butt;stroke-linejoin:miter;stroke-opacity:1" d="M 4,360.359 4,350.349 z" id="boundary" inkscape:connector-curvature="0" />
	<path style="fill:none;stroke:red;stroke-width:1px;stroke-linecap:butt;stroke-linejoin:miter;stroke-opacity:1" d="M 24.0202,373.372 34.0303,373.372 z" id="boundary" inkscape:connector-curvature="0" />
	<path style="fill:none;stroke:red;stroke-width:1px;stroke-linecap:butt;stroke-linejoin:miter;stroke-opacity:1" d="M 4,330.329 4,320.319 z" id="boundary" inkscape:connector-curvature="0" />
	<path style="fill:none;stroke:red;stroke-width:1px;stroke-linecap:butt;stroke-linejoin:miter;stroke-opacity:1" d="M 44.0404,373.372 54.0505,373.372 z" id="boundary" inkscape:connector-curvature="0" />
	<path style="fill:none;stroke:red;stroke-width:1px;stroke-linecap:butt;stroke-linejoin:miter;stroke-opacity:1" d="M 64.0605,373.372 74.0706,373.372 z" id="boundary" inkscape:connector-curvature="0" />
	<path style="fill:none;stroke:red;stroke-width:1px;stroke-linecap:butt;stroke-linejoin:miter;stroke-opacity:1" d="M 64.0605,373.372 54.0505,373.372 z" id="boundary" inkscape:connector-curvature="0" />
	<path style="fill:none;stroke:red;stroke-width:1px;stroke-linecap:butt;stroke-linejoin:miter;stroke-opacity:1" d="M 84.0807,373.372 94.0908,373.372 z" id="boundary" inkscape:connector-curvature="0" />
	<path style="fill:none;stroke:red;stroke-width:1px;stroke-linecap:butt;stroke-linejoin:miter;stroke-opacity:1" d="M 84.0807,373.372 74.0706,373.372 z" id="boundary" inkscape:connector-curvature="0" />
	<path style="fill:none;stroke:red;stroke-width:1px;stroke-linecap:butt;stroke-linejoin:miter;stroke-opacity:1" d="M 104.101,373.372 114.111,373.372 z" id="boundary" inkscape:connector-curvature="0" />
	<path style="fill:none;stroke:red;stroke-width:1px;stroke-linecap:butt;stroke-linejoin:miter;stroke-opacity:1" d="M 104.101,373.372 94.0908,373.372 z" id="boundary" inkscape:connector-curvature="0" />
	<path style="fill:none;stroke:red;stroke-width:1px;stroke-linecap:butt;stroke-linejoin:miter;stroke-opacity:1" d="M 114.111,373.372 124.121,373.372 z" id="boundary" inkscape:connector-curvature="0" />
	<path style="fill:none;stroke:red;stroke-width:1px;stroke-linecap:butt;stroke-linejoin:miter;stroke-opacity:1" d="M 134.131,373.372 144.141,373.372 z" id="boundary" inkscape:connector-curvature="0" />
	<path style="fill:none;stroke:red;stroke-width:1px;stroke-linecap:butt;stroke-linejoin:miter;stroke-opacity:1" d="M 134.131,373.372 124.121,373.372 z" id="boundary" inkscape:connector-curvature="0" />
	<path style="fill:none;stroke:red;stroke-width:1px;stroke-linecap:butt;stroke-linejoin:miter;stroke-opacity:1" d="M 154.151,373.372 164.161,373.372 z" id="boundary" inkscape:connector-curvature="0" />
	<path style="fill:none;stroke:red;stroke-width:1px;stroke-linecap:butt;stroke-linejoin:miter;stroke-opacity:1" d="M 154.151,373.372 144.141,373.372 z" id="boundary" inkscape:connector-curvature="0" />
	<path style="fill:none;stroke:red;stroke-width:1px;stroke-linecap:butt;stroke-linejoin:miter;stroke-opacity:1" d="M 174.172,373.372 184.182,373.372 z" id="boundary" inkscape:connector-curvature="0" />
	<path style="fill:none;stroke:red;stroke-width:1px;stroke-linecap:butt;stroke-linejoin:miter;stroke-opacity:1" d="M 174.172,373.372 164.161,373.372 z" id="boundary" inkscape:connector-curvature="0" />
	<path style="fill:none;stroke:red;stroke-width:1px;stroke-linecap:butt;stroke-linejoin:miter;stroke-opacity:1" d="M 194.192,373.372 204.202,373.372 z" id="boundary" inkscape:connector-curvature="0" />
	<path style="fill:none;stroke:red;stroke-width:1px;stroke-linecap:butt;stroke-linejoin:miter;stroke-opacity:1" d="M 194.192,373.372 184.182,373.372 z" id="boundary" inkscape:connector-curvature="0" />
	<path style="fill:none;stroke:red;stroke-width:1px;stroke-linecap:butt;stroke-linejoin:miter;stroke-opacity:1" d="M 204.202,373.372 214.212,373.372 z" id="boundary" inkscape:connector-curvature="0" />
	<path style="fill:none;stroke:red;stroke-width:1px;stroke-linecap:butt;stroke-linejoin:miter;stroke-opacity:1" d="M 224.222,373.372 234.232,373.372 z" id="boundary" inkscape:connector-curvature="0" />
	<path style="fill:none;stroke:red;stroke-width:1px;stroke-linecap:butt;stroke-linejoin:miter;stroke-opacity:1" d="M 224.222,373.372 214.212,373.372 z" id="boundary" inkscape:connector-curvature="0" />
	<path style="fill:none;stroke:red;stroke-width:1px;stroke-linecap:butt;stroke-linejoin:miter;stroke-opacity:1" d="M 244.242,373.372 254.252,373.372 z" id="boundary" inkscape:connector-curvature="0" />
	<path style="fill:none;stroke:red;stroke-width:1px;stroke-linecap:butt;stroke-linejoin:miter;stroke-opacity:1" d="M 244.242,373.372 234.232,373.372 z" id="boundary" inkscape:connector-curvature="0" />
	<path style="fill:none;stroke:red;stroke-width:1px;stroke-linecap:butt;stroke-linejoin:miter;stroke-opacity:1" d="M 254.252,373.372 264.262,373.372 z" id="boundary" inkscape:connector-curvature="0" />
	<path style="fill:none;stroke:red;stroke-width:1px;stroke-linecap:butt;stroke-linejoin:miter;stroke-opacity:1" d="M 274.272,373.372 284.283,373.372 z" id="boundary" inkscape:connector-curvature="0" />
	<path style="fill:none;stroke:red;stroke-width:1px;stroke-linecap:butt;stroke-linejoin:miter;stroke-opacity:1" d="M 274.272,373.372 264.262,373.372 z" id="boundary" inkscape:connector-curvature="0" />
	<path style="fill:none;stroke:red;stroke-width:1px;stroke-linecap:butt;stroke-linejoin:miter;stroke-opacity:1" d="M 294.293,373.372 304.303,373.372 z" id="boundary" inkscape:connector-curvature="0" />
	<path style="fill:none;stroke:red;stroke-width:1px;stroke-linecap:butt;stroke-linejoin:miter;stroke-opacity:1" d="M 294.293,373.372 284.283,373.372 z" id="boundary" inkscape:connector-curvature="0" />
	<path style="fill:none;stroke:red;stroke-width:1px;stroke-linecap:butt;stroke-linejoin:miter;stroke-opacity:1" d="M 304.303,373.372 314.313,373.372 z" id="boundary" inkscape:connector-curvature="0" />
	<path style="fill:none;stroke:red;stroke-width:1px;stroke-linecap:butt;stroke-linejoin:miter;stroke-opacity:1" d="M 324.323,373.372 334.333,373.372 z" id="boundary" inkscape:connector-curvature="0" />
	<path style="fill:none;stroke:red;stroke-width:1px;stroke-linecap:butt;stroke-linejoin:miter;stroke-opacity:1" d="M 324.323,373.372 314.313,373.372 z" id="boundary" inkscape:connector-curvature="0" />
	<path style="fill:none;stroke:red;stroke-width:1px;stroke-linecap:butt;stroke-linejoin:miter;stroke-opacity:1" d="M 344.343,373.372 354.353,373.372 z" id="boundary" inkscape:connector-curvature="0" />
	<path style="fill:none;stroke:red;stroke-width:1px;stroke-linecap:butt;stroke-linejoin:miter;stroke-opacity:1" d="M 344.343,373.372 334.333,373.372 z" id="boundary" inkscape:connector-curvature="0" />
	<path style="fill:none;stroke:red;stroke-width:1px;stroke-linecap:butt;stroke-linejoin:miter;stroke-opacity:1" d="M 364.363,373.372 374.373,373.372 z" id="boundary" inkscape:connector-curvature="0" />
	<path style="fill:none;stroke:red;stroke-width:1px;stroke-linecap:butt;stroke-linejoin:miter;stroke-opacity:1" d="M 364.363,373.372 354.353,373.372 z" id="boundary" inkscape:connector-curvature="0" />
	<path style="fill:none;stroke:red;stroke-width:1px;stroke-linecap:butt;stroke-linejoin:miter;stroke-opacity:1" d="M 384.383,373.372 394.394,373.372 z" id="boundary" inkscape:connector-curvature="0" />
	<path style="fill:none;stroke:red;stroke-width:1px;stroke-linecap:butt;stroke-linejoin:miter;stroke-opacity:1" d="M 384.383,373.372 374.373,373.372 z" id="boundary" inkscape:connector-curvature="0" />
	<path style="fill:none;stroke:red;stroke-width:1px;stroke-linecap:butt;stroke-linejoin:miter;stroke-opacity:1" d="M 394.394,373.372 404.404,373.372 z" id="boundary" inkscape:connector-curvature="0" />
	<path style="fill:none;stroke:red;stroke-width:1px;stroke-linecap:butt;stroke-linejoin:miter;stroke-opacity:1" d="M 414.414,373.372 424.424,373.372 z" id="boundary" inkscape:connector-curvature="0" />
	<path style="fill:none;stroke:red;stroke-width:1px;stroke-linecap:butt;stroke-linejoin:miter;stroke-opacity:1" d="M 414.414,373.372 404.404,373.372 z" id="boundary" inkscape:connector-curvature="0" />
	<path style="fill:none;stroke:red;stroke-width:1px;stroke-linecap:butt;stroke-linejoin:miter;stroke-opacity:1" d="M 434.434,373.372 444.444,373.372 z" id="boundary" inkscape:connector-curvature="0" />
	<path style="fill:none;stroke:red;stroke-width:1px;stroke-linecap:butt;stroke-linejoin:miter;stroke-opacity:1" d="M 434.434,373.372 424.424,373.372 z" id="boundary" inkscape:connector-curvature="0" />
	<path style="fill:none;stroke:red;stroke-width:1px;stroke-linecap:butt;stroke-linejoin:miter;stroke-opacity:1" d="M 444.444,373.372 454.454,373.372 z" id="boundary" inkscape:connector-curvature="0" />
	<path style="fill:none;stroke:red;stroke-width:1px;stroke-linecap:butt;stroke-linejoin:miter;stroke-opacity:1" d="M 464.464,373.372 474.474,373.372 z" id="boundary" inkscape:connector-curvature="0" />
	<path style="fill:none;stroke:red;stroke-width:1px;stroke-linecap:butt;stroke-linejoin:miter;stroke-opacity:1" d="M 464.464,373.372 454.454,373.372 z" id="boundary" inkscape:connector-curvature="0" />
	<path style="fill:none;stroke:red;stroke-width:1px;stroke-linecap:butt;stroke-linejoin:miter;stroke-opacity:1" d="M 484.484,373.372 494.494,373.372 z" id="boundary" inkscape:connector-curvature="0" />
	<path style="fill:none;stroke:red;stroke-width:1px;stroke-linecap:butt;stroke-linejoin:miter;stroke-opacity:1" d="M 484.484,373.372 474.474,373.372 z" id="boundary" inkscape:connector-curvature="0" />
	<path style="fill:none;stroke:red;stroke-width:1px;stroke-linecap:butt;stroke-linejoin:miter;stroke-opacity:1" d="M 494.494,373.372 504.505,373.372 z" id="boundary" inkscape:connector-curvature="0" />
	<path style="fill:none;stroke:red;stroke-width:1px;stroke-linecap:butt;stroke-linejoin:miter;stroke-opacity:1" d="M 514.515,373.372 524.525,373.372 z" id="boundary" inkscape:connector-curvature="0" />
	<path style="fill:none;stroke:red;stroke-width:1px;stroke-linecap:butt;stroke-linejoin:miter;stroke-opacity:1" d="M 514.515,373.372 504.505,373.372 z" id="boundary" inkscape:connector-curvature="0" />
	<path style="fill:none;stroke:red;stroke-width:1px;stroke-linecap:butt;stroke-linejoin:miter;stroke-opacity:1" d="M 534.535,373.372 544.545,373.372 z" id="boundary" inkscape:connector-curvature="0" />
	<path style="fill:none;stroke:red;stroke-width:1px;stroke-linecap:butt;stroke-linejoin:miter;stroke-opacity:1" d="M 534.535,373.372 524.525,373.372 z" id="boundary" inkscape:connector-curvature="0" />
	<path style="fill:none;stroke:red;stroke-width:1px;stroke-linecap:butt;stroke-linejoin:miter;stroke-opacity:1" d="M 554.555,373.372 564.565,373.372 z" id="boundary" inkscape:connector-curvature="0" />
	<path style="fill:none;stroke:red;stroke-width:1px;stroke-linecap:butt;stroke-linejoin:miter;stroke-opacity:1" d="M 554.555,373.372 544.545,373.372 z" id="boundary" inkscape:connector-curvature="0" />
	<path style="fill:none;stroke:red;stroke-width:1px;stroke-linecap:butt;stroke-linejoin:miter;stroke-opacity:1" d="M 574.575,373.372 584.585,373.372 z" id="boundary" inkscape:connector-curvature="0" />
	<path style="fill:none;stroke:red;stroke-width:1px;stroke-linecap:butt;stroke-linejoin:miter;stroke-opacity:1" d="M 574.575,373.372 564.565,373.372 z" id="boundary" inkscape:connector-curvature="0" />
	<path style="fill:none;stroke:red;stroke-width:1px;stroke-linecap:butt;stroke-linejoin:miter;stroke-opacity:1" d="M 584.585,373.372 594.595,373.372 z" id="boundary" inkscape:connector-curvature="0" />
	<path style="fill:none;stroke:red;stroke-width:1px;stroke-linecap:butt;stroke-linejoin:miter;stroke-opacity:1" d="M 604.605,373.372 614.616,373.372 z" id="boundary" inkscape:connector-curvature="0" />
	<path style="fill:none;stroke:red;stroke-width:1px;stroke-linecap:butt;stroke-linejoin:miter;stroke-opacity:1" d="M 604.605,373.372 594.595,373.372 z" id="boundary" inkscape:connector-curvature="0" />
	<path style="fill:none;stroke:red;stroke-width:1px;stroke-linecap:butt;stroke-linejoin:miter;stroke-opacity:1" d="M 624.626,373.372 634.636,373.372 z" id="boundary" inkscape:connector-curvature="0" />
	<path style="fill:none;stroke:red;stroke-width:1px;stroke-linecap:butt;stroke-linejoin:miter;stroke-opacity:1" d="M 624.626,373.372 614.616,373.372 z" id="boundary" inkscape:connector-curvature="0" />
	<path style="fill:none;stroke:red;stroke-width:1px;stroke-linecap:butt;stroke-linejoin:miter;stroke-opacity:1" d="M 634.636,373.372 644.646,373.372 z" id="boundary" inkscape:connector-curvature="0" />
	<path style="fill:none;stroke:red;stroke-width:1px;stroke-linecap:butt;stroke-linejoin:miter;stroke-opacity:1" d="M 654.656,373.372 664.666,373.372 z" id="boundary" inkscape:connector-curvature="0" />
	<path style="fill:none;stroke:red;stroke-width:1px;stroke-linecap:butt;stroke-linejoin:miter;stroke-opacity:1" d="M 654.656,373.372 644.646,373.372 z" id="boundary" inkscape:connector-curvature="0" />
	<path style="fill:none;stroke:red;stroke-width:1px;stroke-linecap:butt;stroke-linejoin:miter;stroke-opacity:1" d="M 674.676,373.372 684.686,373.372 z" id="boundary" inkscape:connector-curvature="0" />
	<path style="fill:none;stroke:red;stroke-width:1px;stroke-linecap:butt;stroke-linejoin:miter;stroke-opacity:1" d="M 674.676,373.372 664.666,373.372 z" id="boundary" inkscape:connector-curvature="0" />
	<path style="fill:none;stroke:red;stroke-width:1px;stroke-linecap:butt;stroke-linejoin:miter;stroke-opacity:1" d="M 684.686,373.372 694.696,373.372 z" id="boundary" inkscape:connector-curvature="0" />
	<path style="fill:none;stroke:red;stroke-width:1px;stroke-linecap:butt;stroke-linejoin:miter;stroke-opacity:1" d="M 704.706,373.372 694.696,373.372 z" id="boundary" inkscape:connector-curvature="0" />
	<path style="fill:none;stroke:red;stroke-width:1px;stroke-linecap:butt;stroke-linejoin:miter;stroke-opacity:1" d="M 804.807,14.0101 809.812,23.0192 z" id="boundary" inkscape:connector-curvature="0" />
	<path style="fill:none;stroke:red;stroke-width:1px;stroke-linecap:butt;stroke-linejoin:miter;stroke-opacity:1" d="M 804.807,14.0101 799.802,5.00101 z" id="boundary" inkscape:connector-curvature="0" />
	<path style="fill:none;stroke:red;stroke-width:1px;stroke-linecap:butt;stroke-linejoin:miter;stroke-opacity:1" d="M 799.802,5.00101 809.812,4 z" id="boundary" inkscape:connector-curvature="0" />
	<path style="fill:none;stroke:red;stroke-width:1px;stroke-linecap:butt;stroke-linejoin:miter;stroke-opacity:1" d="M 809.812,4 818.821,9.00505 z" id="boundary" inkscape:connector-curvature="0" />
	<path style="fill:none;stroke:red;stroke-width:1px;stroke-linecap:butt;stroke-linejoin:miter;stroke-opacity:1" d="M 828.831,13.0091 818.821,9.00505 z" id="boundary" inkscape:connector-curvature="0" />
	<path style="fill:none;stroke:red;stroke-width:1px;stroke-linecap:butt;stroke-linejoin:miter;stroke-opacity:1" d="M 809.812,23.0192 814.817,32.0283 z" id="boundary" inkscape:connector-curvature="0" />
	<path style="fill:none;stroke:red;stroke-width:1px;stroke-linecap:butt;stroke-linejoin:miter;stroke-opacity:1" d="M 820.823,40.0363 824.827,50.0464 z" id="boundary" inkscape:connector-curvature="0" />
	<path style="fill:none;stroke:red;stroke-width:1px;stroke-linecap:butt;stroke-linejoin:miter;stroke-opacity:1" d="M 824.827,50.0464 824.827,60.0565 z" id="boundary" inkscape:connector-curvature="0" />
	<path style="fill:none;stroke:red;stroke-width:1px;stroke-linecap:butt;stroke-linejoin:miter;stroke-opacity:1" d="M 829.832,69.0656 824.827,60.0565 z" id="boundary" inkscape:connector-curvature="0" />
	<path style="fill:none;stroke:red;stroke-width:1px;stroke-linecap:butt;stroke-linejoin:miter;stroke-opacity:1" d="M 814.817,32.0283 820.823,40.0363 z" id="boundary" inkscape:connector-curvature="0" />
	<path style="fill:none;stroke:red;stroke-width:1px;stroke-linecap:butt;stroke-linejoin:miter;stroke-opacity:1" d="M 828.831,13.0091 837.841,18.0141 z" id="boundary" inkscape:connector-curvature="0" />
	<path style="fill:none;stroke:red;stroke-width:1px;stroke-linecap:butt;stroke-linejoin:miter;stroke-opacity:1" d="M 839.843,87.0838 834.838,78.0747 z" id="boundary" inkscape:connector-curvature="0" />
	<path style="fill:none;stroke:red;stroke-width:1px;stroke-linecap:butt;stroke-linejoin:miter;stroke-opacity:1" d="M 834.838,78.0747 829.832,69.0656 z" id="boundary" inkscape:connector-curvature="0" />
	<path style="fill:none;stroke:red;stroke-width:1px;stroke-linecap:butt;stroke-linejoin:miter;stroke-opacity:1" d="M 847.851,22.0182 837.841,18.0141 z" id="boundary" inkscape:connector-curvature="0" />
	<path style="fill:none;stroke:red;stroke-width:1px;stroke-linecap:butt;stroke-linejoin:miter;stroke-opacity:1" d="M 839.843,87.0838 839.843,97.0938 z" id="boundary" inkscape:connector-curvature="0" />
	<path style="fill:none;stroke:red;stroke-width:1px;stroke-linecap:butt;stroke-linejoin:miter;stroke-opacity:1" d="M 844.848,106.103 839.843,97.0938 z" id="boundary" inkscape:connector-curvature="0" />
	<path style="fill:none;stroke:red;stroke-width:1px;stroke-linecap:butt;stroke-linejoin:miter;stroke-opacity:1" d="M 844.848,106.103 844.848,116.113 z" id="boundary" inkscape:connector-curvature="0" />
	<path style="fill:none;stroke:red;stroke-width:1px;stroke-linecap:butt;stroke-linejoin:miter;stroke-opacity:1" d="M 844.848,126.123 844.848,116.113 z" id="boundary" inkscape:connector-curvature="0" />
	<path style="fill:none;stroke:red;stroke-width:1px;stroke-linecap:butt;stroke-linejoin:miter;stroke-opacity:1" d="M 714.716,267.265 724.727,267.265 z" id="boundary" inkscape:connector-curvature="0" />
	<path style="fill:none;stroke:red;stroke-width:1px;stroke-linecap:butt;stroke-linejoin:miter;stroke-opacity:1" d="M 734.737,267.265 724.727,267.265 z" id="boundary" inkscape:connector-curvature="0" />
	<path style="fill:none;stroke:red;stroke-width:1px;stroke-linecap:butt;stroke-linejoin:miter;stroke-opacity:1" d="M 754.757,267.265 744.747,267.265 z" id="boundary" inkscape:connector-curvature="0" />
	<path style="fill:none;stroke:red;stroke-width:1px;stroke-linecap:butt;stroke-linejoin:miter;stroke-opacity:1" d="M 744.747,267.265 734.737,267.265 z" id="boundary" inkscape:connector-curvature="0" />
	<path style="fill:none;stroke:red;stroke-width:1px;stroke-linecap:butt;stroke-linejoin:miter;stroke-opacity:1" d="M 764.767,267.265 754.757,267.265 z" id="boundary" inkscape:connector-curvature="0" />
	<path style="fill:none;stroke:red;stroke-width:1px;stroke-linecap:butt;stroke-linejoin:miter;stroke-opacity:1" d="M 764.767,267.265 774.777,267.265 z" id="boundary" inkscape:connector-curvature="0" />
	<path style="fill:none;stroke:red;stroke-width:1px;stroke-linecap:butt;stroke-linejoin:miter;stroke-opacity:1" d="M 799.802,250.248 794.797,260.258 z" id="boundary" inkscape:connector-curvature="0" />
	<path style="fill:none;stroke:red;stroke-width:1px;stroke-linecap:butt;stroke-linejoin:miter;stroke-opacity:1" d="M 784.787,267.265 774.777,267.265 z" id="boundary" inkscape:connector-curvature="0" />
	<path style="fill:none;stroke:red;stroke-width:1px;stroke-linecap:butt;stroke-linejoin:miter;stroke-opacity:1" d="M 794.797,260.258 784.787,267.265 z" id="boundary" inkscape:connector-curvature="0" />
	<path style="fill:none;stroke:red;stroke-width:1px;stroke-linecap:butt;stroke-linejoin:miter;stroke-opacity:1" d="M 830.834,204.202 835.839,194.192 z" id="boundary" inkscape:connector-curvature="0" />
	<path style="fill:none;stroke:red;stroke-width:1px;stroke-linecap:butt;stroke-linejoin:miter;stroke-opacity:1" d="M 839.843,160.157 839.843,170.168 z" id="boundary" inkscape:connector-curvature="0" />
	<path style="fill:none;stroke:red;stroke-width:1px;stroke-linecap:butt;stroke-linejoin:miter;stroke-opacity:1" d="M 839.843,160.157 844.848,146.143 z" id="boundary" inkscape:connector-curvature="0" />
	<path style="fill:none;stroke:red;stroke-width:1px;stroke-linecap:butt;stroke-linejoin:miter;stroke-opacity:1" d="M 839.843,180.178 839.843,170.168 z" id="boundary" inkscape:connector-curvature="0" />
	<path style="fill:none;stroke:red;stroke-width:1px;stroke-linecap:butt;stroke-linejoin:miter;stroke-opacity:1" d="M 839.843,180.178 835.839,194.192 z" id="boundary" inkscape:connector-curvature="0" />
	<path style="fill:none;stroke:red;stroke-width:1px;stroke-linecap:butt;stroke-linejoin:miter;stroke-opacity:1" d="M 799.802,250.248 804.807,240.238 z" id="boundary" inkscape:connector-curvature="0" />
	<path style="fill:none;stroke:red;stroke-width:1px;stroke-linecap:butt;stroke-linejoin:miter;stroke-opacity:1" d="M 809.812,230.228 817.82,222.22 z" id="boundary" inkscape:connector-curvature="0" />
	<path style="fill:none;stroke:red;stroke-width:1px;stroke-linecap:butt;stroke-linejoin:miter;stroke-opacity:1" d="M 804.807,240.238 809.812,230.228 z" id="boundary" inkscape:connector-curvature="0" />
	<path style="fill:none;stroke:red;stroke-width:1px;stroke-linecap:butt;stroke-linejoin:miter;stroke-opacity:1" d="M 825.828,214.212 817.82,222.22 z" id="boundary" inkscape:connector-curvature="0" />
	<path style="fill:none;stroke:red;stroke-width:1px;stroke-linecap:butt;stroke-linejoin:miter;stroke-opacity:1" d="M 830.834,204.202 825.828,214.212 z" id="boundary" inkscape:connector-curvature="0" />
	<path style="fill:none;stroke:red;stroke-width:1px;stroke-linecap:butt;stroke-linejoin:miter;stroke-opacity:1" d="M 714.716,267.265 704.706,267.265 z" id="boundary" inkscape:connector-curvature="0" />
	<path style="fill:none;stroke:red;stroke-width:1px;stroke-linecap:butt;stroke-linejoin:miter;stroke-opacity:1" d="M 844.848,126.123 844.848,136.133 z" id="boundary" inkscape:connector-curvature="0" />
	<path style="fill:none;stroke:red;stroke-width:1px;stroke-linecap:butt;stroke-linejoin:miter;stroke-opacity:1" d="M 854.858,30.0262 864.868,34.0303 z" id="boundary" inkscape:connector-curvature="0" />
	<path style="fill:none;stroke:red;stroke-width:1px;stroke-linecap:butt;stroke-linejoin:miter;stroke-opacity:1" d="M 854.858,30.0262 847.851,22.0182 z" id="boundary" inkscape:connector-curvature="0" />
	<path style="fill:none;stroke:red;stroke-width:1px;stroke-linecap:butt;stroke-linejoin:miter;stroke-opacity:1" d="M 864.868,34.0303 873.877,39.0353 z" id="boundary" inkscape:connector-curvature="0" />
	<path style="fill:none;stroke:red;stroke-width:1px;stroke-linecap:butt;stroke-linejoin:miter;stroke-opacity:1" d="M 873.877,39.0353 880.884,47.0434 z" id="boundary" inkscape:connector-curvature="0" />
	<path style="fill:none;stroke:red;stroke-width:1px;stroke-linecap:butt;stroke-linejoin:miter;stroke-opacity:1" d="M 844.848,136.133 844.848,146.143 z" id="boundary" inkscape:connector-curvature="0" />
	<path style="fill:none;stroke:red;stroke-width:1px;stroke-linecap:butt;stroke-linejoin:miter;stroke-opacity:1" d="M 880.884,47.0434 890.894,50.0464 z" id="boundary" inkscape:connector-curvature="0" />
	<path style="fill:none;stroke:red;stroke-width:1px;stroke-linecap:butt;stroke-linejoin:miter;stroke-opacity:1" d="M 890.894,50.0464 897.901,58.0545 z" id="boundary" inkscape:connector-curvature="0" />
	<path style="fill:none;stroke:red;stroke-width:1px;stroke-linecap:butt;stroke-linejoin:miter;stroke-opacity:1" d="M 905.909,65.0616 897.901,58.0545 z" id="boundary" inkscape:connector-curvature="0" />
	<path style="fill:none;stroke:red;stroke-width:1px;stroke-linecap:butt;stroke-linejoin:miter;stroke-opacity:1" d="M 905.909,65.0616 913.917,72.0686 z" id="boundary" inkscape:connector-curvature="0" />
	<path style="fill:none;stroke:red;stroke-width:1px;stroke-linecap:butt;stroke-linejoin:miter;stroke-opacity:1" d="M 922.926,77.0737 913.917,72.0686 z" id="boundary" inkscape:connector-curvature="0" />
	<path style="fill:none;stroke:red;stroke-width:1px;stroke-linecap:butt;stroke-linejoin:miter;stroke-opacity:1" d="M 933.937,93.0898 925.929,87.0838 z" id="boundary" inkscape:connector-curvature="0" />
	<path style="fill:none;stroke:red;stroke-width:1px;stroke-linecap:butt;stroke-linejoin:miter;stroke-opacity:1" d="M 925.929,87.0838 922.926,77.0737 z" id="boundary" inkscape:connector-curvature="0" />
	<path style="fill:none;stroke:red;stroke-width:1px;stroke-linecap:butt;stroke-linejoin:miter;stroke-opacity:1" d="M 933.937,93.0898 937.941,103.1 z" id="boundary" inkscape:connector-curvature="0" />
	<path style="fill:none;stroke:red;stroke-width:1px;stroke-linecap:butt;stroke-linejoin:miter;stroke-opacity:1" d="M 937.941,103.1 942.947,112.109 z" id="boundary" inkscape:connector-curvature="0" />
	<path style="fill:none;stroke:red;stroke-width:1px;stroke-linecap:butt;stroke-linejoin:miter;stroke-opacity:1" d="M 942.947,112.109 945.95,122.119 z" id="boundary" inkscape:connector-curvature="0" />
	<path style="fill:none;stroke:red;stroke-width:1px;stroke-linecap:butt;stroke-linejoin:miter;stroke-opacity:1" d="M 945.95,122.119 950.955,131.128 z" id="boundary" inkscape:connector-curvature="0" />
	<path style="fill:none;stroke:red;stroke-width:1px;stroke-linecap:butt;stroke-linejoin:miter;stroke-opacity:1" d="M 955.96,140.137 950.955,131.128 z" id="boundary" inkscape:connector-curvature="0" />
	<path style="fill:none;stroke:red;stroke-width:1px;stroke-linecap:butt;stroke-linejoin:miter;stroke-opacity:1" d="M 959.964,150.147 960.965,160.157 z" id="boundary" inkscape:connector-curvature="0" />
	<path style="fill:none;stroke:red;stroke-width:1px;stroke-linecap:butt;stroke-linejoin:miter;stroke-opacity:1" d="M 955.96,140.137 959.964,150.147 z" id="boundary" inkscape:connector-curvature="0" />
	<path style="fill:none;stroke:red;stroke-width:1px;stroke-linecap:butt;stroke-linejoin:miter;stroke-opacity:1" d="M 964.969,170.168 960.965,160.157 z" id="boundary" inkscape:connector-curvature="0" />
	<path style="fill:none;stroke:red;stroke-width:1px;stroke-linecap:butt;stroke-linejoin:miter;stroke-opacity:1" d="M 964.969,170.168 969.974,179.177 z" id="boundary" inkscape:connector-curvature="0" />
	<path style="fill:none;stroke:red;stroke-width:1px;stroke-linecap:butt;stroke-linejoin:miter;stroke-opacity:1" d="M 969.974,179.177 970.975,189.187 z" id="boundary" inkscape:connector-curvature="0" />
	<path style="fill:none;stroke:red;stroke-width:1px;stroke-linecap:butt;stroke-linejoin:miter;stroke-opacity:1" d="M 970.975,189.187 973.978,199.197 z" id="boundary" inkscape:connector-curvature="0" />
	<path style="fill:none;stroke:red;stroke-width:1px;stroke-linecap:butt;stroke-linejoin:miter;stroke-opacity:1" d="M 978.983,208.206 973.978,199.197 z" id="boundary" inkscape:connector-curvature="0" />
	<path style="fill:none;stroke:red;stroke-width:1px;stroke-linecap:butt;stroke-linejoin:miter;stroke-opacity:1" d="M 978.983,208.206 980.985,218.216 z" id="boundary" inkscape:connector-curvature="0" />
	<path style="fill:none;stroke:red;stroke-width:1px;stroke-linecap:butt;stroke-linejoin:miter;stroke-opacity:1" d="M 982.987,228.226 980.985,218.216 z" id="boundary" inkscape:connector-curvature="0" />
	<path style="fill:none;stroke:red;stroke-width:1px;stroke-linecap:butt;stroke-linejoin:miter;stroke-opacity:1" d="M 985.99,238.236 982.987,228.226 z" id="boundary" inkscape:connector-curvature="0" />
	<path style="fill:none;stroke:red;stroke-width:1px;stroke-linecap:butt;stroke-linejoin:miter;stroke-opacity:1" d="M 985.99,238.236 985.99,248.246 z" id="boundary" inkscape:connector-curvature="0" />
	<path style="fill:none;stroke:red;stroke-width:1px;stroke-linecap:butt;stroke-linejoin:miter;stroke-opacity:1" d="M 985.99,258.256 990.995,267.265 z" id="boundary" inkscape:connector-curvature="0" />
	<path style="fill:none;stroke:red;stroke-width:1px;stroke-linecap:butt;stroke-linejoin:miter;stroke-opacity:1" d="M 990.995,267.265 990.995,277.275 z" id="boundary" inkscape:connector-curvature="0" />
	<path style="fill:none;stroke:red;stroke-width:1px;stroke-linecap:butt;stroke-linejoin:miter;stroke-opacity:1" d="M 985.99,258.256 985.99,248.246 z" id="boundary" inkscape:connector-curvature="0" />
	<path style="fill:none;stroke:red;stroke-width:1px;stroke-linecap:butt;stroke-linejoin:miter;stroke-opacity:1" d="M 990.995,277.275 990.995,287.286 z" id="boundary" inkscape:connector-curvature="0" />
	<path style="fill:none;stroke:red;stroke-width:1px;stroke-linecap:butt;stroke-linejoin:miter;stroke-opacity:1" d="M 990.995,287.286 990.995,297.296 z" id="boundary" inkscape:connector-curvature="0" />
	<path style="fill:none;stroke:red;stroke-width:1px;stroke-linecap:butt;stroke-linejoin:miter;stroke-opacity:1" d="M 990.995,307.306 990.995,317.316 z" id="boundary" inkscape:connector-curvature="0" />
	<path style="fill:none;stroke:red;stroke-width:1px;stroke-linecap:butt;stroke-linejoin:miter;stroke-opacity:1" d="M 990.995,327.326 990.995,317.316 z" id="boundary" inkscape:connector-curvature="0" />
	<path style="fill:none;stroke:red;stroke-width:1px;stroke-linecap:butt;stroke-linejoin:miter;stroke-opacity:1" d="M 990.995,307.306 990.995,297.296 z" id="boundary" inkscape:connector-curvature="0" />
	<path style="fill:none;stroke:red;stroke-width:1px;stroke-linecap:butt;stroke-linejoin:miter;stroke-opacity:1" d="M 704.706,373.372 714.716,373.372 z" id="boundary" inkscape:connector-curvature="0" />
	<path style="fill:none;stroke:red;stroke-width:1px;stroke-linecap:butt;stroke-linejoin:miter;stroke-opacity:1" d="M 724.727,373.372 734.737,373.372 z" id="boundary" inkscape:connector-curvature="0" />
	<path style="fill:none;stroke:red;stroke-width:1px;stroke-linecap:butt;stroke-linejoin:miter;stroke-opacity:1" d="M 724.727,373.372 714.716,373.372 z" id="boundary" inkscape:connector-curvature="0" />
	<path style="fill:none;stroke:red;stroke-width:1px;stroke-linecap:butt;stroke-linejoin:miter;stroke-opacity:1" d="M 744.747,373.372 754.757,373.372 z" id="boundary" inkscape:connector-curvature="0" />
	<path style="fill:none;stroke:red;stroke-width:1px;stroke-linecap:butt;stroke-linejoin:miter;stroke-opacity:1" d="M 764.767,373.372 774.777,373.372 z" id="boundary" inkscape:connector-curvature="0" />
	<path style="fill:none;stroke:red;stroke-width:1px;stroke-linecap:butt;stroke-linejoin:miter;stroke-opacity:1" d="M 789.792,407.407 779.782,410.41 z" id="boundary" inkscape:connector-curvature="0" />
	<path style="fill:none;stroke:red;stroke-width:1px;stroke-linecap:butt;stroke-linejoin:miter;stroke-opacity:1" d="M 754.757,373.372 764.767,373.372 z" id="boundary" inkscape:connector-curvature="0" />
	<path style="fill:none;stroke:red;stroke-width:1px;stroke-linecap:butt;stroke-linejoin:miter;stroke-opacity:1" d="M 734.737,373.372 744.747,373.372 z" id="boundary" inkscape:connector-curvature="0" />
	<path style="fill:none;stroke:red;stroke-width:1px;stroke-linecap:butt;stroke-linejoin:miter;stroke-opacity:1" d="M 779.782,410.41 779.782,420.42 z" id="boundary" inkscape:connector-curvature="0" />
	<path style="fill:none;stroke:red;stroke-width:1px;stroke-linecap:butt;stroke-linejoin:miter;stroke-opacity:1" d="M 784.787,373.372 794.797,373.372 z" id="boundary" inkscape:connector-curvature="0" />
	<path style="fill:none;stroke:red;stroke-width:1px;stroke-linecap:butt;stroke-linejoin:miter;stroke-opacity:1" d="M 794.797,373.372 797.8,383.382 z" id="boundary" inkscape:connector-curvature="0" />
	<path style="fill:none;stroke:red;stroke-width:1px;stroke-linecap:butt;stroke-linejoin:miter;stroke-opacity:1" d="M 802.805,392.392 797.8,383.382 z" id="boundary" inkscape:connector-curvature="0" />
	<path style="fill:none;stroke:red;stroke-width:1px;stroke-linecap:butt;stroke-linejoin:miter;stroke-opacity:1" d="M 809.812,403.403 802.805,392.392 z" id="boundary" inkscape:connector-curvature="0" />
	<path style="fill:none;stroke:red;stroke-width:1px;stroke-linecap:butt;stroke-linejoin:miter;stroke-opacity:1" d="M 779.782,420.42 779.782,430.43 z" id="boundary" inkscape:connector-curvature="0" />
	<path style="fill:none;stroke:red;stroke-width:1px;stroke-linecap:butt;stroke-linejoin:miter;stroke-opacity:1" d="M 799.802,407.407 789.792,407.407 z" id="boundary" inkscape:connector-curvature="0" />
	<path style="fill:none;stroke:red;stroke-width:1px;stroke-linecap:butt;stroke-linejoin:miter;stroke-opacity:1" d="M 809.812,403.403 799.802,407.407 z" id="boundary" inkscape:connector-curvature="0" />
	<path style="fill:none;stroke:red;stroke-width:1px;stroke-linecap:butt;stroke-linejoin:miter;stroke-opacity:1" d="M 779.782,440.44 779.782,430.43 z" id="boundary" inkscape:connector-curvature="0" />
	<path style="fill:none;stroke:red;stroke-width:1px;stroke-linecap:butt;stroke-linejoin:miter;stroke-opacity:1" d="M 774.777,373.372 784.787,373.372 z" id="boundary" inkscape:connector-curvature="0" />
	<path style="fill:none;stroke:red;stroke-width:1px;stroke-linecap:butt;stroke-linejoin:miter;stroke-opacity:1" d="M 779.782,440.44 779.782,450.45 z" id="boundary" inkscape:connector-curvature="0" />
	<path style="fill:none;stroke:red;stroke-width:1px;stroke-linecap:butt;stroke-linejoin:miter;stroke-opacity:1" d="M 779.782,460.46 779.782,470.47 z" id="boundary" inkscape:connector-curvature="0" />
	<path style="fill:none;stroke:red;stroke-width:1px;stroke-linecap:butt;stroke-linejoin:miter;stroke-opacity:1" d="M 779.782,460.46 779.782,450.45 z" id="boundary" inkscape:connector-curvature="0" />
	<path style="fill:none;stroke:red;stroke-width:1px;stroke-linecap:butt;stroke-linejoin:miter;stroke-opacity:1" d="M 779.782,480.48 779.782,490.49 z" id="boundary" inkscape:connector-curvature="0" />
	<path style="fill:none;stroke:red;stroke-width:1px;stroke-linecap:butt;stroke-linejoin:miter;stroke-opacity:1" d="M 855.859,558.559 845.849,558.559 z" id="boundary" inkscape:connector-curvature="0" />
	<path style="fill:none;stroke:red;stroke-width:1px;stroke-linecap:butt;stroke-linejoin:miter;stroke-opacity:1" d="M 779.782,500.501 779.782,510.511 z" id="boundary" inkscape:connector-curvature="0" />
	<path style="fill:none;stroke:red;stroke-width:1px;stroke-linecap:butt;stroke-linejoin:miter;stroke-opacity:1" d="M 779.782,520.521 779.782,510.511 z" id="boundary" inkscape:connector-curvature="0" />
	<path style="fill:none;stroke:red;stroke-width:1px;stroke-linecap:butt;stroke-linejoin:miter;stroke-opacity:1" d="M 779.782,500.501 779.782,490.49 z" id="boundary" inkscape:connector-curvature="0" />
	<path style="fill:none;stroke:red;stroke-width:1px;stroke-linecap:butt;stroke-linejoin:miter;stroke-opacity:1" d="M 779.782,470.47 779.782,480.48 z" id="boundary" inkscape:connector-curvature="0" />
	<path style="fill:none;stroke:red;stroke-width:1px;stroke-linecap:butt;stroke-linejoin:miter;stroke-opacity:1" d="M 779.782,530.531 779.782,540.541 z" id="boundary" inkscape:connector-curvature="0" />
	<path style="fill:none;stroke:red;stroke-width:1px;stroke-linecap:butt;stroke-linejoin:miter;stroke-opacity:1" d="M 805.808,558.559 795.798,558.559 z" id="boundary" inkscape:connector-curvature="0" />
	<path style="fill:none;stroke:red;stroke-width:1px;stroke-linecap:butt;stroke-linejoin:miter;stroke-opacity:1" d="M 795.798,558.559 785.788,558.559 z" id="boundary" inkscape:connector-curvature="0" />
	<path style="fill:none;stroke:red;stroke-width:1px;stroke-linecap:butt;stroke-linejoin:miter;stroke-opacity:1" d="M 785.788,558.559 779.782,550.551 z" id="boundary" inkscape:connector-curvature="0" />
	<path style="fill:none;stroke:red;stroke-width:1px;stroke-linecap:butt;stroke-linejoin:miter;stroke-opacity:1" d="M 779.782,550.551 779.782,540.541 z" id="boundary" inkscape:connector-curvature="0" />
	<path style="fill:none;stroke:red;stroke-width:1px;stroke-linecap:butt;stroke-linejoin:miter;stroke-opacity:1" d="M 815.818,558.559 805.808,558.559 z" id="boundary" inkscape:connector-curvature="0" />
	<path style="fill:none;stroke:red;stroke-width:1px;stroke-linecap:butt;stroke-linejoin:miter;stroke-opacity:1" d="M 825.828,558.559 815.818,558.559 z" id="boundary" inkscape:connector-curvature="0" />
	<path style="fill:none;stroke:red;stroke-width:1px;stroke-linecap:butt;stroke-linejoin:miter;stroke-opacity:1" d="M 835.839,558.559 825.828,558.559 z" id="boundary" inkscape:connector-curvature="0" />
	<path style="fill:none;stroke:red;stroke-width:1px;stroke-linecap:butt;stroke-linejoin:miter;stroke-opacity:1" d="M 779.782,530.531 779.782,520.521 z" id="boundary" inkscape:connector-curvature="0" />
	<path style="fill:none;stroke:red;stroke-width:1px;stroke-linecap:butt;stroke-linejoin:miter;stroke-opacity:1" d="M 845.849,558.559 835.839,558.559 z" id="boundary" inkscape:connector-curvature="0" />
	<path style="fill:none;stroke:red;stroke-width:1px;stroke-linecap:butt;stroke-linejoin:miter;stroke-opacity:1" d="M 985.99,348.347 985.99,358.357 z" id="boundary" inkscape:connector-curvature="0" />
	<path style="fill:none;stroke:red;stroke-width:1px;stroke-linecap:butt;stroke-linejoin:miter;stroke-opacity:1" d="M 985.99,358.357 980.985,368.367 z" id="boundary" inkscape:connector-curvature="0" />
	<path style="fill:none;stroke:red;stroke-width:1px;stroke-linecap:butt;stroke-linejoin:miter;stroke-opacity:1" d="M 985.99,348.347 990.995,337.336 z" id="boundary" inkscape:connector-curvature="0" />
	<path style="fill:none;stroke:red;stroke-width:1px;stroke-linecap:butt;stroke-linejoin:miter;stroke-opacity:1" d="M 975.98,383.382 980.985,368.367 z" id="boundary" inkscape:connector-curvature="0" />
	<path style="fill:none;stroke:red;stroke-width:1px;stroke-linecap:butt;stroke-linejoin:miter;stroke-opacity:1" d="M 965.97,403.403 970.975,393.393 z" id="boundary" inkscape:connector-curvature="0" />
	<path style="fill:none;stroke:red;stroke-width:1px;stroke-linecap:butt;stroke-linejoin:miter;stroke-opacity:1" d="M 975.98,407.407 965.97,403.403 z" id="boundary" inkscape:connector-curvature="0" />
	<path style="fill:none;stroke:red;stroke-width:1px;stroke-linecap:butt;stroke-linejoin:miter;stroke-opacity:1" d="M 965.97,403.403 809.812,403.403 z" id="boundary" inkscape:connector-curvature="0" />
	<path style="fill:none;stroke:red;stroke-width:1px;stroke-linecap:butt;stroke-linejoin:miter;stroke-opacity:1" d="M 985.99,407.407 975.98,407.407 z" id="boundary" inkscape:connector-curvature="0" />
	<path style="fill:none;stroke:red;stroke-width:1px;stroke-linecap:butt;stroke-linejoin:miter;stroke-opacity:1" d="M 996,410.41 985.99,407.407 z" id="boundary" inkscape:connector-curvature="0" />
	<path style="fill:none;stroke:red;stroke-width:1px;stroke-linecap:butt;stroke-linejoin:miter;stroke-opacity:1" d="M 970.975,393.393 975.98,383.382 z" id="boundary" inkscape:connector-curvature="0" />
	<path style="fill:none;stroke:red;stroke-width:1px;stroke-linecap:butt;stroke-linejoin:miter;stroke-opacity:1" d="M 996,410.41 996,420.42 z" id="boundary" inkscape:connector-curvature="0" />
	<path style="fill:none;stroke:red;stroke-width:1px;stroke-linecap:butt;stroke-linejoin:miter;stroke-opacity:1" d="M 996,430.43 996,440.44 z" id="boundary" inkscape:connector-curvature="0" />
	<path style="fill:none;stroke:red;stroke-width:1px;stroke-linecap:butt;stroke-linejoin:miter;stroke-opacity:1" d="M 996,440.44 996,450.45 z" id="boundary" inkscape:connector-curvature="0" />
	<path style="fill:none;stroke:red;stroke-width:1px;stroke-linecap:butt;stroke-linejoin:miter;stroke-opacity:1" d="M 996,420.42 996,430.43 z" id="boundary" inkscape:connector-curvature="0" />
	<path style="fill:none;stroke:red;stroke-width:1px;stroke-linecap:butt;stroke-linejoin:miter;stroke-opacity:1" d="M 996,460.46 996,470.47 z" id="boundary" inkscape:connector-curvature="0" />
	<path style="fill:none;stroke:red;stroke-width:1px;stroke-linecap:butt;stroke-linejoin:miter;stroke-opacity:1" d="M 996,470.47 996,480.48 z" id="boundary" inkscape:connector-curvature="0" />
	<path style="fill:none;stroke:red;stroke-width:1px;stroke-linecap:butt;stroke-linejoin:miter;stroke-opacity:1" d="M 996,480.48 996,490.49 z" id="boundary" inkscape:connector-curvature="0" />
	<path style="fill:none;stroke:red;stroke-width:1px;stroke-linecap:butt;stroke-linejoin:miter;stroke-opacity:1" d="M 996,450.45 996,460.46 z" id="boundary" inkscape:connector-curvature="0" />
	<path style="fill:none;stroke:red;stroke-width:1px;stroke-linecap:butt;stroke-linejoin:miter;stroke-opacity:1" d="M 990.995,337.336 990.995,327.326 z" id="boundary" inkscape:connector-curvature="0" />
	<path style="fill:none;stroke:red;stroke-width:1px;stroke-linecap:butt;stroke-linejoin:miter;stroke-opacity:1" d="M 996,490.49 996,500.501 z" id="boundary" inkscape:connector-curvature="0" />
	<path style="fill:none;stroke:red;stroke-width:1px;stroke-linecap:butt;stroke-linejoin:miter;stroke-opacity:1" d="M 865.869,558.559 855.859,558.559 z" id="boundary" inkscape:connector-curvature="0" />
	<path style="fill:none;stroke:red;stroke-width:1px;stroke-linecap:butt;stroke-linejoin:miter;stroke-opacity:1" d="M 885.889,558.559 875.879,558.559 z" id="boundary" inkscape:connector-curvature="0" />
	<path style="fill:none;stroke:red;stroke-width:1px;stroke-linecap:butt;stroke-linejoin:miter;stroke-opacity:1" d="M 875.879,558.559 865.869,558.559 z" id="boundary" inkscape:connector-curvature="0" />
	<path style="fill:none;stroke:red;stroke-width:1px;stroke-linecap:butt;stroke-linejoin:miter;stroke-opacity:1" d="M 905.909,558.559 895.899,558.559 z" id="boundary" inkscape:connector-curvature="0" />
	<path style="fill:none;stroke:red;stroke-width:1px;stroke-linecap:butt;stroke-linejoin:miter;stroke-opacity:1" d="M 925.929,558.559 915.919,558.559 z" id="boundary" inkscape:connector-curvature="0" />
	<path style="fill:none;stroke:red;stroke-width:1px;stroke-linecap:butt;stroke-linejoin:miter;stroke-opacity:1" d="M 935.939,558.559 925.929,558.559 z" id="boundary" inkscape:connector-curvature="0" />
	<path style="fill:none;stroke:red;stroke-width:1px;stroke-linecap:butt;stroke-linejoin:miter;stroke-opacity:1" d="M 915.919,558.559 905.909,558.559 z" id="boundary" inkscape:connector-curvature="0" />
	<path style="fill:none;stroke:red;stroke-width:1px;stroke-linecap:butt;stroke-linejoin:miter;stroke-opacity:1" d="M 895.899,558.559 885.889,558.559 z" id="boundary" inkscape:connector-curvature="0" />
	<path style="fill:none;stroke:red;stroke-width:1px;stroke-linecap:butt;stroke-linejoin:miter;stroke-opacity:1" d="M 996,510.511 996,520.521 z" id="boundary" inkscape:connector-curvature="0" />
	<path style="fill:none;stroke:red;stroke-width:1px;stroke-linecap:butt;stroke-linejoin:miter;stroke-opacity:1" d="M 996,530.531 996,540.541 z" id="boundary" inkscape:connector-curvature="0" />
	<path style="fill:none;stroke:red;stroke-width:1px;stroke-linecap:butt;stroke-linejoin:miter;stroke-opacity:1" d="M 996,540.541 996,550.551 z" id="boundary" inkscape:connector-curvature="0" />
	<path style="fill:none;stroke:red;stroke-width:1px;stroke-linecap:butt;stroke-linejoin:miter;stroke-opacity:1" d="M 996,550.551 985.99,558.559 z" id="boundary" inkscape:connector-curvature="0" />
	<path style="fill:none;stroke:red;stroke-width:1px;stroke-linecap:butt;stroke-linejoin:miter;stroke-opacity:1" d="M 996,520.521 996,530.531 z" id="boundary" inkscape:connector-curvature="0" />
	<path style="fill:none;stroke:red;stroke-width:1px;stroke-linecap:butt;stroke-linejoin:miter;stroke-opacity:1" d="M 955.96,558.559 945.95,558.559 z" id="boundary" inkscape:connector-curvature="0" />
	<path style="fill:none;stroke:red;stroke-width:1px;stroke-linecap:butt;stroke-linejoin:miter;stroke-opacity:1" d="M 975.98,558.559 965.97,558.559 z" id="boundary" inkscape:connector-curvature="0" />
	<path style="fill:none;stroke:red;stroke-width:1px;stroke-linecap:butt;stroke-linejoin:miter;stroke-opacity:1" d="M 985.99,558.559 975.98,558.559 z" id="boundary" inkscape:connector-curvature="0" />
	<path style="fill:none;stroke:red;stroke-width:1px;stroke-linecap:butt;stroke-linejoin:miter;stroke-opacity:1" d="M 965.97,558.559 955.96,558.559 z" id="boundary" inkscape:connector-curvature="0" />
	<path style="fill:none;stroke:red;stroke-width:1px;stroke-linecap:butt;stroke-linejoin:miter;stroke-opacity:1" d="M 945.95,558.559 935.939,558.559 z" id="boundary" inkscape:connector-curvature="0" />
	<path style="fill:none;stroke:red;stroke-width:1px;stroke-linecap:butt;stroke-linejoin:miter;stroke-opacity:1" d="M 996,500.501 996,510.511 z" id="boundary" inkscape:connector-curvature="0" />
	<circle cx="4" cy="270.268" r="4" fill="#0" id="circle0"/>
	<circle cx="4" cy="280.279" r="4" fill="#0" id="circle1"/>
	<circle cx="4" cy="290.289" r="4" fill="#0" id="circle2"/>
	<circle cx="4" cy="300.299" r="4" fill="#0" id="circle3"/>
	<circle cx="4" cy="310.309" r="4" fill="#0" id="circle4"/>
	<circle cx="4" cy="320.319" r="4" fill="#0" id="circle5"/>
	<circle cx="4" cy="330.329" r="4" fill="#0" id="circle6"/>
	<circle cx="4" cy="340.339" r="4" fill="#0" id="circle7"/>
	<circle cx="4" cy="350.349" r="4" fill="#0" id="circle8"/>
	<circle cx="4" cy="360.359" r="4" fill="#0" id="circle9"/>
	<circle cx="4" cy="370.369" r="4" fill="#0" id="circle10"/>
	<circle cx="14.0101" cy="267.265" r="4" fill="#0" id="circle11"/>
	<circle cx="14.0101" cy="373.372" r="4" fill="#0" id="circle12"/>
	<circle cx="24.0202" cy="267.265" r="4" fill="#0" id="circle13"/>
	<circle cx="24.0202" cy="373.372" r="4" fill="#0" id="circle14"/>
	<circle cx="34.0303" cy="267.265" r="4" fill="#0" id="circle15"/>
	<circle cx="34.0303" cy="373.372" r="4" fill="#0" id="circle16"/>
	<circle cx="44.0404" cy="267.265" r="4" fill="#0" id="circle17"/>
	<circle cx="44.0404" cy="373.372" r="4" fill="#0" id="circle18"/>
	<circle cx="54.0505" cy="267.265" r="4" fill="#0" id="circle19"/>
	<circle cx="54.0505" cy="373.372" r="4" fill="#0" id="circle20"/>
	<circle cx="64.0605" cy="267.265" r="4" fill="#0" id="circle21"/>
	<circle cx="64.0605" cy="373.372" r="4" fill="#0" id="circle22"/>
	<circle cx="74.0706" cy="267.265" r="4" fill="#0" id="circle23"/>
	<circle cx="74.0706" cy="373.372" r="4" fill="#0" id="circle24"/>
	<circle cx="84.0807" cy="267.265" r="4" fill="#0" id="circle25"/>
	<circle cx="84.0807" cy="373.372" r="4" fill="#0" id="circle26"/>
	<circle cx="94.0908" cy="267.265" r="4" fill="#0" id="circle27"/>
	<circle cx="94.0908" cy="373.372" r="4" fill="#0" id="circle28"/>
	<circle cx="104.101" cy="267.265" r="4" fill="#0" id="circle29"/>
	<circle cx="104.101" cy="373.372" r="4" fill="#0" id="circle30"/>
	<circle cx="114.111" cy="267.265" r="4" fill="#0" id="circle31"/>
	<circle cx="114.111" cy="373.372" r="4" fill="#0" id="circle32"/>
	<circle cx="124.121" cy="267.265" r="4" fill="#0" id="circle33"/>
	<circle cx="124.121" cy="373.372" r="4" fill="#0" id="circle34"/>
	<circle cx="134.131" cy="267.265" r="4" fill="#0" id="circle35"/>
	<circle cx="134.131" cy="373.372" r="4" fill="#0" id="circle36"/>
	<circle cx="144.141" cy="267.265" r="4" fill="#0" id="circle37"/>
	<circle cx="144.141" cy="373.372" r="4" fill="#0" id="circle38"/>
	<circle cx="154.151" cy="267.265" r="4" fill="#0" id="circle39"/>
	<circle cx="154.151" cy="373.372" r="4" fill="#0" id="circle40"/>
	<circle cx="164.161" cy="267.265" r="4" fill="#0" id="circle41"/>
	<circle cx="164.161" cy="373.372" r="4" fill="#0" id="circle42"/>
	<circle cx="174.172" cy="267.265" r="4" fill="#0" id="circle43"/>
	<circle cx="174.172" cy="373.372" r="4" fill="#0" id="circle44"/>
	<circle cx="184.182" cy="267.265" r="4" fill="#0" id="circle45"/>
	<circle cx="184.182" cy="373.372" r="4" fill="#0" id="circle46"/>
	<circle cx="194.192" cy="267.265" r="4" fill="#0" id="circle47"/>
	<circle cx="194.192" cy="373.372" r="4" fill="#0" id="circle48"/>
	<circle cx="204.202" cy="267.265" r="4" fill="#0" id="circle49"/>
	<circle cx="204.202" cy="373.372" r="4" fill="#0" id="circle50"/>
	<circle cx="214.212" cy="267.265" r="4" fill="#0" id="circle51"/>
	<circle cx="214.212" cy="373.372" r="4" fill="#0" id="circle52"/>
	<circle cx="224.222" cy="267.265" r="4" fill="#0" id="circle53"/>
	<circle cx="224.222" cy="373.372" r="4" fill="#0" id="circle54"/>
	<circle cx="234.232" cy="267.265" r="4" fill="#0" id="circle55"/>
	<circle cx="234.232" cy="373.372" r="4" fill="#0" id="circle56"/>
	<circle cx="244.242" cy="267.265" r="4" fill="#0" id="circle57"/>
	<circle cx="244.242" cy="373.372" r="4" fill="#0" id="circle58"/>
	<circle cx="254.252" cy="267.265" r="4" fill="#0" id="circle59"/>
	<circle cx="254.252" cy="373.372" r="4" fill="#0" id="circle60"/>
	<circle cx="264.262" cy="267.265" r="4" fill="#0" id="circle61"/>
	<circle cx="264.262" cy="373.372" r="4" fill="#0" id="circle62"/>
	<circle cx="274.272" cy="267.265" r="4" fill="#0" id="circle63"/>
	<circle cx="274.272" cy="373.372" r="4" fill="#0" id="circle64"/>
	<circle cx="284.283" cy="267.265" r="4" fill="#0" id="circle65"/>
	<circle cx="284.283" cy="373.372" r="4" fill="#0" id="circle66"/>
	<circle cx="294.293" cy="267.265" r="4" fill="#0" id="circle67"/>
	<circle cx="294.293" cy="373.372" r="4" fill="#0" id="circle68"/>
	<circle cx="304.303" cy="267.265" r="4" fill="#0" id="circle69"/>
	<circle cx="304.303" cy="373.372" r="4" fill="#0" id="circle70"/>
	<circle cx="314.313" cy="267.265" r="4" fill="#0" id="circle71"/>
	<circle cx="314.313" cy="373.372" r="4" fill="#0" id="circle72"/>
	<circle cx="324.323" cy="267.265" r="4" fill="#0" id="circle73"/>
	<circle cx="324.323" cy="373.372" r="4" fill="#0" id="circle74"/>
	<circle cx="334.333" cy="267.265" r="4" fill="#0" id="circle75"/>
	<circle cx="334.333" cy="373.372" r="4" fill="#0" id="circle76"/>
	<circle cx="344.343" cy="267.265" r="4" fill="#0" id="circle77"/>
	<circle cx="344.343" cy="373.372" r="4" fill="#0" id="circle78"/>
	<circle cx="354.353" cy="267.265" r="4" fill="#0" id="circle79"/>
	<circle cx="354.353" cy="373.372" r="4" fill="#0" id="circle80"/>
	<circle cx="364.363" cy="267.265" r="4" fill="#0" id="circle81"/>
	<circle cx="364.363" cy="373.372" r="4" fill="#0" id="circle82"/>
	<circle cx="374.373" cy="267.265" r="4" fill="#0" id="circle83"/>
	<circle cx="374.373" cy="373.372" r="4" fill="#0" id="circle84"/>
	<circle cx="384.383" cy="267.265" r="4" fill="#0" id="circle85"/>
	<circle cx="384.383" cy="373.372" r="4" fill="#0" id="circle86"/>
	<circle cx="394.394" cy="267.265" r="4" fill="#0" id="circle87"/>
	<circle cx="394.394" cy="373.372" r="4" fill="#0" id="circle88"/>
	<circle cx="404.404" cy="267.265" r="4" fill="#0" id="circle89"/>
	<circle cx="404.404" cy="373.372" r="4" fill="#0" id="circle90"/>
	<circle cx="414.414" cy="267.265" r="4" fill="#0" id="circle91"/>
	<circle cx="414.414" cy="373.372" r="4" fill="#0" id="circle92"/>
	<circle cx="424.424" cy="267.265" r="4" fill="#0" id="circle93"/>
	<circle cx="424.424" cy="373.372" r="4" fill="#0" id="circle94"/>
	<circle cx="434.434" cy="267.265" r="4" fill="#0" id="circle95"/>
	<circle cx="434.434" cy="373.372" r="4" fill="#0" id="circle96"/>
	<circle cx="444.444" cy="267.265" r="4" fill="#0" id="circle97"/>
	<circle cx="444.444" cy="373.372" r="4" fill="#0" id="circle98"/>
	<circle cx="454.454" cy="267.265" r="4" fill="#0" id="circle99"/>
	<circle cx="454.454" cy="373.372" r="4" fill="#0" id="circle100"/>
	<circle cx="464.464" cy="267.265" r="4" fill="#0" id="circle101"/>
	<circle cx="464.464" cy="373.372" r="4" fill="#0" id="circle102"/>
	<circle cx="474.474" cy="267.265" r="4" fill="#0" id="circle103"/>
	<circle cx="474.474" cy="373.372" r="4" fill="#0" id="circle104"/>
	<circle cx="484.484" cy="267.265" r="4" fill="#0" id="circle105"/>
	<circle cx="484.484" cy="373.372" r="4" fill="#0" id="circle106"/>
	<circle cx="494.494" cy="267.265" r="4" fill="#0" id="circle107"/>
	<circle cx="494.494" cy="373.372" r="4" fill="#0" id="circle108"/>
	<circle cx="504.505" cy="267.265" r="4" fill="#0" id="circle109"/>
	<circle cx="504.505" cy="373.372" r="4" fill="#0" id="circle110"/>
	<circle cx="514.515" cy="267.265" r="4" fill="#0" id="circle111"/>
	<circle cx="514.515" cy="373.372" r="4" fill="#0" id="circle112"/>
	<circle cx="524.525" cy="267.265" r="4" fill="#0" id="circle113"/>
	<circle cx="524.525" cy="373.372" r="4" fill="#0" id="circle114"/>
	<circle cx="534.535" cy="267.265" r="4" fill="#0" id="circle115"/>
	<circle cx="534.535" cy="373.372" r="4" fill="#0" id="circle116"/>
	<circle cx="544.545" cy="267.265" r="4" fill="#0" id="circle117"/>
	<circle cx="544.545" cy="373.372" r="4" fill="#0" id="circle118"/>
	<circle cx="554.555" cy="267.265" r="4" fill="#0" id="circle119"/>
	<circle cx="554.555" cy="373.372" r="4" fill="#0" id="circle120"/>
	<circle cx="564.565" cy="267.265" r="4" fill="#0" id="circle121"/>
	<circle cx="564.565" cy="373.372" r="4" fill="#0" id="circle122"/>
	<circle cx="574.575" cy="267.265" r="4" fill="#0" id="circle123"/>
	<circle cx="574.575" cy="373.372" r="4" fill="#0" id="circle124"/>
	<circle cx="584.585" cy="267.265" r="4" fill="#0" id="circle125"/>
	<circle cx="584.585" cy="373.372" r="4" fill="#0" id="circle126"/>
	<circle cx="594.595" cy="267.265" r="4" fill="#0" id="circle127"/>
	<circle cx="594.595" cy="373.372" r="4" fill="#0" id="circle128"/>
	<circle cx="604.605" cy="267.265" r="4" fill="#0" id="circle129"/>
	<circle cx="604.605" cy="373.372" r="4" fill="#0" id="circle130"/>
	<circle cx="614.616" cy="267.265" r="4" fill="#0" id="circle131"/>
	<circle cx="614.616" cy="373.372" r="4" fill="#0" id="circle132"/>
	<circle cx="624.626" cy="267.265" r="4" fill="#0" id="circle133"/>
	<circle cx="624.626" cy="373.372" r="4" fill="#0" id="circle134"/>
	<circle cx="634.636" cy="267.265" r="4" fill="#0" id="circle135"/>
	<circle cx="634.636" cy="373.372" r="4" fill="#0" id="circle136"/>
	<circle cx="644.646" cy="267.265" r="4" fill="#0" id="circle137"/>
	<circle cx="644.646" cy="373.372" r="4" fill="#0" id="circle138"/>
	<circle cx="654.656" cy="267.265" r="4" fill="#0" id="circle139"/>
	<circle cx="654.656" cy="373.372" r="4" fill="#0" id="circle140"/>
	<circle cx="664.666" cy="267.265" r="4" fill="#0" id="circle141"/>
	<circle cx="664.666" cy="373.372" r="4" fill="#0" id="circle142"/>
	<circle cx="674.676" cy="267.265" r="4" fill="#0" id="circle143"/>
	<circle cx="674.676" cy="373.372" r="4" fill="#0" id="circle144"/>
	<circle cx="684.686" cy="267.265" r="4" fill="#0" id="circle145"/>
	<circle cx="684.686" cy="373.372" r="4" fill="#0" id="circle146"/>
	<circle cx="694.696" cy="267.265" r="4" fill="#0" id="circle147"/>
	<circle cx="694.696" cy="373.372" r="4" fill="#0" id="circle148"/>
	<circle cx="704.706" cy="267.265" r="4" fill="#0" id="circle149"/>
	<circle cx="704.706" cy="373.372" r="4" fill="#0" id="circle150"/>
	<circle cx="714.716" cy="267.265" r="4" fill="#0" id="circle151"/>
	<circle cx="714.716" cy="373.372" r="4" fill="#0" id="circle152"/>
	<circle cx="724.727" cy="267.265" r="4" fill="#0" id="circle153"/>
	<circle cx="724.727" cy="373.372" r="4" fill="#0" id="circle154"/>
	<circle cx="734.737" cy="267.265" r="4" fill="#0" id="circle155"/>
	<circle cx="734.737" cy="373.372" r="4" fill="#0" id="circle156"/>
	<circle cx="744.747" cy="267.265" r="4" fill="#0" id="circle157"/>
	<circle cx="744.747" cy="373.372" r="4" fill="#0" id="circle158"/>
	<circle cx="754.757" cy="267.265" r="4" fill="#0" id="circle159"/>
	<circle cx="754.757" cy="373.372" r="4" fill="#0" id="circle160"/>
	<circle cx="764.767" cy="267.265" r="4" fill="#0" id="circle161"/>
	<circle cx="764.767" cy="373.372" r="4" fill="#0" id="circle162"/>
	<circle cx="774.777" cy="267.265" r="4" fill="#0" id="circle163"/>
	<circle cx="774.777" cy="373.372" r="4" fill="#0" id="circle164"/>
	<circle cx="779.782" cy="410.41" r="4" fill="#0" id="circle165"/>
	<circle cx="779.782" cy="420.42" r="4" fill="#0" id="circle166"/>
	<circle cx="779.782" cy="430.43" r="4" fill="#0" id="circle167"/>
	<circle cx="779.782" cy="440.44" r="4" fill="#0" id="circle168"/>
	<circle cx="779.782" cy="450.45" r="4" fill="#0" id="circle169"/>
	<circle cx="779.782" cy="460.46" r="4" fill="#0" id="circle170"/>
	<circle cx="779.782" cy="470.47" r="4" fill="#0" id="circle171"/>
	<circle cx="779.782" cy="480.48" r="4" fill="#0" id="circle172"/>
	<circle cx="779.782" cy="490.49" r="4" fill="#0" id="circle173"/>
	<circle cx="779.782" cy="500.501" r="4" fill="#0" id="circle174"/>
	<circle cx="779.782" cy="510.511" r="4" fill="#0" id="circle175"/>
	<circle cx="779.782" cy="520.521" r="4" fill="#0" id="circle176"/>
	<circle cx="779.782" cy="530.531" r="4" fill="#0" id="circle177"/>
	<circle cx="779.782" cy="540.541" r="4" fill="#0" id="circle178"/>
	<circle cx="779.782" cy="550.551" r="4" fill="#0" id="circle179"/>
	<circle cx="784.787" cy="267.265" r="4" fill="#0" id="circle180"/>
	<circle cx="784.787" cy="373.372" r="4" fill="#0" id="circle181"/>
	<circle cx="785.788" cy="558.559" r="4" fill="#0" id="circle182"/>
	<circle cx="789.792" cy="407.407" r="4" fill="#0" id="circle183"/>
	<circle cx="794.797" cy="260.258" r="4" fill="#0" id="circle184"/>
	<circle cx="794.797" cy="373.372" r="4" fill="#0" id="circle185"/>
	<circle cx="795.798" cy="558.559" r="4" fill="#0" id="circle186"/>
	<circle cx="797.8" cy="383.382" r="4" fill="#0" id="circle187"/>
	<circle cx="799.802" cy="5.00101" r="4" fill="#0" id="circle188"/>
	<circle cx="799.802" cy="250.248" r="4" fill="#0" id="circle189"/>
	<circle cx="799.802" cy="407.407" r="4" fill="#0" id="circle190"/>
	<circle cx="802.805" cy="392.392" r="4" fill="#0" id="circle191"/>
	<circle cx="804.807" cy="14.0101" r="4" fill="#0" id="circle192"/>
	<circle cx="804.807" cy="240.238" r="4" fill="#0" id="circle193"/>
	<circle cx="805.808" cy="558.559" r="4" fill="#0" id="circle194"/>
	<circle cx="809.812" cy="4" r="4" fill="#0" id="circle195"/>
	<circle cx="809.812" cy="23.0192" r="4" fill="#0" id="circle196"/>
	<circle cx="809.812" cy="230.228" r="4" fill="#0" id="circle197"/>
	<circle cx="809.812" cy="403.403" r="4" fill="#0" id="circle198"/>
	<circle cx="814.817" cy="32.0283" r="4" fill="#0" id="circle199"/>
	<circle cx="815.818" cy="558.559" r="4" fill="#0" id="circle200"/>
	<circle cx="817.82" cy="222.22" r="4" fill="#0" id="circle201"/>
	<circle cx="818.821" cy="9.00505" r="4" fill="#0" id="circle202"/>
	<circle cx="820.823" cy="40.0363" r="4" fill="#0" id="circle203"/>
	<circle cx="824.827" cy="50.0464" r="4" fill="#0" id="circle204"/>
	<circle cx="824.827" cy="60.0565" r="4" fill="#0" id="circle205"/>
	<circle cx="825.828" cy="214.212" r="4" fill="#0" id="circle206"/>
	<circle cx="825.828" cy="558.559" r="4" fill="#0" id="circle207"/>
	<circle cx="828.831" cy="13.0091" r="4" fill="#0" id="circle208"/>
	<circle cx="829.832" cy="69.0656" r="4" fill="#0" id="circle209"/>
	<circle cx="830.834" cy="204.202" r="4" fill="#0" id="circle210"/>
	<circle cx="834.838" cy="78.0747" r="4" fill="#0" id="circle211"/>
	<circle cx="835.839" cy="194.192" r="4" fill="#0" id="circle212"/>
	<circle cx="835.839" cy="558.559" r="4" fill="#0" id="circle213"/>
	<circle cx="837.841" cy="18.0141" r="4" fill="#0" id="circle214"/>
	<circle cx="839.843" cy="87.0838" r="4" fill="#0" id="circle215"/>
	<circle cx="839.843" cy="97.0938" r="4" fill="#0" id="circle216"/>
	<circle cx="839.843" cy="160.157" r="4" fill="#0" id="circle217"/>
	<circle cx="839.843" cy="170.168" r="4" fill="#0" id="circle218"/>
	<circle cx="839.843" cy="180.178" r="4" fill="#0" id="circle219"/>
	<circle cx="844.848" cy="106.103" r="4" fill="#0" id="circle220"/>
	<circle cx="844.848" cy="116.113" r="4" fill="#0" id="circle221"/>
	<circle cx="844.848" cy="126.123" r="4" fill="#0" id="circle222"/>
	<circle cx="844.848" cy="136.133" r="4" fill="#0" id="circle223"/>
	<circle cx="844.848" cy="146.143" r="4" fill="#0" id="circle224"/>
	<circle cx="845.849" cy="558.559" r="4" fill="#0" id="circle225"/>
	<circle cx="847.851" cy="22.0182" r="4" fill="#0" id="circle226"/>
	<circle cx="854.858" cy="30.0262" r="4" fill="#0" id="circle227"/>
	<circle cx="855.859" cy="558.559" r="4" fill="#0" id="circle228"/>
	<circle cx="864.868" cy="34.0303" r="4" fill="#0" id="circle229"/>
	<circle cx="865.869" cy="558.559" r="4" fill="#0" id="circle230"/>
	<circle cx="873.877" cy="39.0353" r="4" fill="#0" id="circle231"/>
	<circle cx="875.879" cy="558.559" r="4" fill="#0" id="circle232"/>
	<circle cx="880.884" cy="47.0434" r="4" fill="#0" id="circle233"/>
	<circle cx="885.889" cy="558.559" r="4" fill="#0" id="circle234"/>
	<circle cx="890.894" cy="50.0464" r="4" fill="#0" id="circle235"/>
	<circle cx="895.899" cy="558.559" r="4" fill="#0" id="circle236"/>
	<circle cx="897.901" cy="58.0545" r="4" fill="#0" id="circle237"/>
	<circle cx="905.909" cy="65.0616" r="4" fill="#0" id="circle238"/>
	<circle cx="905.909" cy="558.559" r="4" fill="#0" id="circle239"/>
	<circle cx="913.917" cy="72.0686" r="4" fill="#0" id="circle240"/>
	<circle cx="915.919" cy="558.559" r="4" fill="#0" id="circle241"/>
	<circle cx="922.926" cy="77.0737" r="4" fill="#0" id="circle242"/>
	<circle cx="925.929" cy="87.0838" r="4" fill="#0" id="circle243"/>
	<circle cx="925.929" cy="558.559" r="4" fill="#0" id="circle244"/>
	<circle cx="933.937" cy="93.0898" r="4" fill="#0" id="circle245"/>
	<circle cx="935.939" cy="558.559" r="4" fill="#0" id="circle246"/>
	<circle cx="937.941" cy="103.1" r="4" fill="#0" id="circle247"/>
	<circle cx="942.947" cy="112.109" r="4" fill="#0" id="circle248"/>
	<circle cx="945.95" cy="122.119" r="4" fill="#0" id="circle249"/>
	<circle cx="945.95" cy="558.559" r="4" fill="#0" id="circle250"/>
	<circle cx="950.955" cy="131.128" r="4" fill="#0" id="circle251"/>
	<circle cx="955.96" cy="140.137" r="4" fill="#0" id="circle252"/>
	<circle cx="955.96" cy="558.559" r="4" fill="#0" id="circle253"/>
	<circle cx="959.964" cy="150.147" r="4" fill="#0" id="circle254"/>
	<circle cx="960.965" cy="160.157" r="4" fill="#0" id="circle255"/>
	<circle cx="964.969" cy="170.168" r="4" fill="#0" id="circle256"/>
	<circle cx="965.97" cy="403.403" r="4" fill="#0" id="circle257"/>
	<circle cx="965.97" cy="558.559" r="4" fill="#0" id="circle258"/>
	<circle cx="969.974" cy="179.177" r="4" fill="#0" id="circle259"/>
	<circle cx="970.975" cy="189.187" r="4" fill="#0" id="circle260"/>
	<circle cx="970.975" cy="393.393" r="4" fill="#0" id="circle261"/>
	<circle cx="973.978" cy="199.197" r="4" fill="#0" id="circle262"/>
	<circle cx="975.98" cy="383.382" r="4" fill="#0" id="circle263"/>
	<circle cx="975.98" cy="407.407" r="4" fill="#0" id="circle264"/>
	<circle cx="975.98" cy="558.559" r="4" fill="#0" id="circle265"/>
	<circle cx="978.983" cy="208.206" r="4" fill="#0" id="circle266"/>
	<circle cx="980.985" cy="218.216" r="4" fill="#0" id="circle267"/>
	<circle cx="980.985" cy="368.367" r="4" fill="#0" id="circle268"/>
	<circle cx="982.987" cy="228.226" r="4" fill="#0" id="circle269"/>
	<circle cx="985.99" cy="238.236" r="4" fill="#0" id="circle270"/>
	<circle cx="985.99" cy="248.246" r="4" fill="#0" id="circle271"/>
	<circle cx="985.99" cy="258.256" r="4" fill="#0" id="circle272"/>
	<circle cx="985.99" cy="348.347" r="4" fill="#0" id="circle273"/>
	<circle cx="985.99" cy="358.357" r="4" fill="#0" id="circle274"/>
	<circle cx="985.99" cy="407.407" r="4" fill="#0" id="circle275"/>
	<circle cx="985.99" cy="558.559" r="4" fill="#0" id="circle276"/>
	<circle cx="990.995" cy="267.265" r="4" fill="#0" id="circle277"/>
	<circle cx="990.995" cy="277.275" r="4" fill="#0" id="circle278"/>
	<circle cx="990.995" cy="287.286" r="4" fill="#0" id="circle279"/>
	<circle cx="990.995" cy="297.296" r="4" fill="#0" id="circle280"/>
	<circle cx="990.995" cy="307.306" r="4" fill="#0" id="circle281"/>
	<circle cx="990.995" cy="317.316" r="4" fill="#0" id="circle282"/>
	<circle cx="990.995" cy="327.326" r="4" fill="#0" id="circle283"/>
	<circle cx="990.995" cy="337.336" r="4" fill="#0" id="circle284"/>
	<circle cx="996" cy="410.41" r="4" fill="#0" id="circle285"/>
	<circle cx="996" cy="420.42" r="4" fill="#0" id="circle286"/>
	<circle cx="996" cy="430.43" r="4" fill="#0" id="circle287"/>
	<circle cx="996" cy="440.44" r="4" fill="#0" id="circle288"/>
	<circle cx="996" cy="450.45" r="4" fill="#0" id="circle289"/>
	<circle cx="996" cy="460.46" r="4" fill="#0" id="circle290"/>
	<circle cx="996" cy="470.47" r="4" fill="#0" id="circle291"/>
	<circle cx="996" cy="480.48" r="4" fill="#0" id="circle292"/>
	<circle cx="996" cy="490.49" r="4" fill="#0" id="circle293"/>
	<circle cx="996" cy="500.501" r="4" fill="#0" id="circle294"/>
	<circle cx="996" cy="510.511" r="4" fill="#0" id="circle295"/>
	<circle cx="996" cy="520.521" r="4" fill="#0" id="circle296"/>
	<circle cx="996" cy="530.531" r="4" fill="#0" id="circle297"/>
	<circle cx="996" cy="540.541" r="4" fill="#0" id="circle298"/>
	<circle cx="996" cy="550.551" r="4" fill="#0" id="circle299"/>
	</g>
</svg>