<?xml version="1.0" encoding="UTF-8" standalone="no"?>
<!-- Created with CurveBenchmark -->
<svg
	xmlns:dc="http://purl.org/dc/elements/1.1/"
	xmlns:cc="http://creativecommons.org/ns#"
	xmlns:rdf="http://www.w3.org/1999/02/22-rdf-syntax-ns#"
	xmlns:svg="http://www.w3.org/2000/svg"
	xmlns="http://www.w3.org/2000/svg"
	xmlns:sodipodi="http://sodipodi.sourceforge.net/DTD/sodipodi-0.dtd"
	xmlns:inkscape="http://www.inkscape.org/namespaces/inkscape"
	width="1000"
	height="1000"
	id="svg2"
	version="1.1"
	sodipodi:docname="manifold/nncrust-pygmyrabbitocc4.png.txt">
<defs
	id="defs4" />
<metadata
	id="metadata7">
	<rdf:RDF>
		<cc:Work
			rdf:about="">
			<dc:format>image/svg+xml</dc:format>
			<dc:type
				rdf:resource="http://purl.org/dc/dcmitype/StillImage" />
			<dc:title></dc:title>
		</cc:Work>
	</rdf:RDF>
</metadata>
<g
	inkscape:label="Layer 1"
	inkscape:groupmode="layer"
	id="layer1">
	<path style="fill:none;stroke:red;stroke-width:1px;stroke-linecap:butt;stroke-linejoin:miter;stroke-opacity:1" d="M 176.148,182.603 176.148,204.121 z" id="boundary" inkscape:connector-curvature="0" />
	<path style="fill:none;stroke:red;stroke-width:1px;stroke-linecap:butt;stroke-linejoin:miter;stroke-opacity:1" d="M 109.44,348.295 128.807,337.536 z" id="boundary" inkscape:connector-curvature="0" />
	<path style="fill:none;stroke:red;stroke-width:1px;stroke-linecap:butt;stroke-linejoin:miter;stroke-opacity:1" d="M 176.148,268.677 165.388,300.954 z" id="boundary" inkscape:connector-curvature="0" />
	<path style="fill:none;stroke:red;stroke-width:1px;stroke-linecap:butt;stroke-linejoin:miter;stroke-opacity:1" d="M 165.388,300.954 146.022,320.321 z" id="boundary" inkscape:connector-curvature="0" />
	<path style="fill:none;stroke:red;stroke-width:1px;stroke-linecap:butt;stroke-linejoin:miter;stroke-opacity:1" d="M 128.807,337.536 146.022,320.321 z" id="boundary" inkscape:connector-curvature="0" />
	<path style="fill:none;stroke:red;stroke-width:1px;stroke-linecap:butt;stroke-linejoin:miter;stroke-opacity:1" d="M 176.148,204.121 176.148,225.64 z" id="boundary" inkscape:connector-curvature="0" />
	<path style="fill:none;stroke:red;stroke-width:1px;stroke-linecap:butt;stroke-linejoin:miter;stroke-opacity:1" d="M 197.666,128.807 186.907,150.325 z" id="boundary" inkscape:connector-curvature="0" />
	<path style="fill:none;stroke:red;stroke-width:1px;stroke-linecap:butt;stroke-linejoin:miter;stroke-opacity:1" d="M 176.148,225.64 176.148,247.158 z" id="boundary" inkscape:connector-curvature="0" />
	<path style="fill:none;stroke:red;stroke-width:1px;stroke-linecap:butt;stroke-linejoin:miter;stroke-opacity:1" d="M 176.148,268.677 176.148,247.158 z" id="boundary" inkscape:connector-curvature="0" />
	<path style="fill:none;stroke:red;stroke-width:1px;stroke-linecap:butt;stroke-linejoin:miter;stroke-opacity:1" d="M 176.148,182.603 186.907,150.325 z" id="boundary" inkscape:connector-curvature="0" />
	<path style="fill:none;stroke:red;stroke-width:1px;stroke-linecap:butt;stroke-linejoin:miter;stroke-opacity:1" d="M 25.5184,451.584 14.7592,473.102 z" id="boundary" inkscape:connector-curvature="0" />
	<path style="fill:none;stroke:red;stroke-width:1px;stroke-linecap:butt;stroke-linejoin:miter;stroke-opacity:1" d="M 4,526.898 4,505.38 z" id="boundary" inkscape:connector-curvature="0" />
	<path style="fill:none;stroke:red;stroke-width:1px;stroke-linecap:butt;stroke-linejoin:miter;stroke-opacity:1" d="M 4,505.38 14.7592,473.102 z" id="boundary" inkscape:connector-curvature="0" />
	<path style="fill:none;stroke:red;stroke-width:1px;stroke-linecap:butt;stroke-linejoin:miter;stroke-opacity:1" d="M 14.7592,567.783 4,548.416 z" id="boundary" inkscape:connector-curvature="0" />
	<path style="fill:none;stroke:red;stroke-width:1px;stroke-linecap:butt;stroke-linejoin:miter;stroke-opacity:1" d="M 4,548.416 4,526.898 z" id="boundary" inkscape:connector-curvature="0" />
	<path style="fill:none;stroke:red;stroke-width:1px;stroke-linecap:butt;stroke-linejoin:miter;stroke-opacity:1" d="M 109.44,348.295 90.0738,359.054 z" id="boundary" inkscape:connector-curvature="0" />
	<path style="fill:none;stroke:red;stroke-width:1px;stroke-linecap:butt;stroke-linejoin:miter;stroke-opacity:1" d="M 90.0738,359.054 68.5553,359.054 z" id="boundary" inkscape:connector-curvature="0" />
	<path style="fill:none;stroke:red;stroke-width:1px;stroke-linecap:butt;stroke-linejoin:miter;stroke-opacity:1" d="M 47.0369,365.51 68.5553,359.054 z" id="boundary" inkscape:connector-curvature="0" />
	<path style="fill:none;stroke:red;stroke-width:1px;stroke-linecap:butt;stroke-linejoin:miter;stroke-opacity:1" d="M 36.2777,397.787 47.0369,365.51 z" id="boundary" inkscape:connector-curvature="0" />
	<path style="fill:none;stroke:red;stroke-width:1px;stroke-linecap:butt;stroke-linejoin:miter;stroke-opacity:1" d="M 36.2777,419.306 36.2777,397.787 z" id="boundary" inkscape:connector-curvature="0" />
	<path style="fill:none;stroke:red;stroke-width:1px;stroke-linecap:butt;stroke-linejoin:miter;stroke-opacity:1" d="M 36.2777,419.306 25.5184,451.584 z" id="boundary" inkscape:connector-curvature="0" />
	<path style="fill:none;stroke:red;stroke-width:1px;stroke-linecap:butt;stroke-linejoin:miter;stroke-opacity:1" d="M 234.247,100.833 255.766,100.833 z" id="boundary" inkscape:connector-curvature="0" />
	<path style="fill:none;stroke:red;stroke-width:1px;stroke-linecap:butt;stroke-linejoin:miter;stroke-opacity:1" d="M 214.881,111.592 234.247,100.833 z" id="boundary" inkscape:connector-curvature="0" />
	<path style="fill:none;stroke:red;stroke-width:1px;stroke-linecap:butt;stroke-linejoin:miter;stroke-opacity:1" d="M 255.766,100.833 277.284,100.833 z" id="boundary" inkscape:connector-curvature="0" />
	<path style="fill:none;stroke:red;stroke-width:1px;stroke-linecap:butt;stroke-linejoin:miter;stroke-opacity:1" d="M 298.803,100.833 277.284,100.833 z" id="boundary" inkscape:connector-curvature="0" />
	<path style="fill:none;stroke:red;stroke-width:1px;stroke-linecap:butt;stroke-linejoin:miter;stroke-opacity:1" d="M 298.803,100.833 316.017,115.896 z" id="boundary" inkscape:connector-curvature="0" />
	<path style="fill:none;stroke:red;stroke-width:1px;stroke-linecap:butt;stroke-linejoin:miter;stroke-opacity:1" d="M 339.688,152.477 328.928,133.111 z" id="boundary" inkscape:connector-curvature="0" />
	<path style="fill:none;stroke:red;stroke-width:1px;stroke-linecap:butt;stroke-linejoin:miter;stroke-opacity:1" d="M 339.688,152.477 339.688,173.996 z" id="boundary" inkscape:connector-curvature="0" />
	<path style="fill:none;stroke:red;stroke-width:1px;stroke-linecap:butt;stroke-linejoin:miter;stroke-opacity:1" d="M 339.688,195.514 339.688,173.996 z" id="boundary" inkscape:connector-curvature="0" />
	<path style="fill:none;stroke:red;stroke-width:1px;stroke-linecap:butt;stroke-linejoin:miter;stroke-opacity:1" d="M 350.447,214.881 339.688,195.514 z" id="boundary" inkscape:connector-curvature="0" />
	<path style="fill:none;stroke:red;stroke-width:1px;stroke-linecap:butt;stroke-linejoin:miter;stroke-opacity:1" d="M 316.017,115.896 328.928,133.111 z" id="boundary" inkscape:connector-curvature="0" />
	<path style="fill:none;stroke:red;stroke-width:1px;stroke-linecap:butt;stroke-linejoin:miter;stroke-opacity:1" d="M 350.447,214.881 350.447,236.399 z" id="boundary" inkscape:connector-curvature="0" />
	<path style="fill:none;stroke:red;stroke-width:1px;stroke-linecap:butt;stroke-linejoin:miter;stroke-opacity:1" d="M 350.447,257.918 350.447,236.399 z" id="boundary" inkscape:connector-curvature="0" />
	<path style="fill:none;stroke:red;stroke-width:1px;stroke-linecap:butt;stroke-linejoin:miter;stroke-opacity:1" d="M 367.662,294.499 350.447,279.436 z" id="boundary" inkscape:connector-curvature="0" />
	<path style="fill:none;stroke:red;stroke-width:1px;stroke-linecap:butt;stroke-linejoin:miter;stroke-opacity:1" d="M 350.447,279.436 350.447,257.918 z" id="boundary" inkscape:connector-curvature="0" />
	<path style="fill:none;stroke:red;stroke-width:1px;stroke-linecap:butt;stroke-linejoin:miter;stroke-opacity:1" d="M 389.18,294.499 367.662,294.499 z" id="boundary" inkscape:connector-curvature="0" />
	<path style="fill:none;stroke:red;stroke-width:1px;stroke-linecap:butt;stroke-linejoin:miter;stroke-opacity:1" d="M 468.798,262.221 490.317,255.766 z" id="boundary" inkscape:connector-curvature="0" />
	<path style="fill:none;stroke:red;stroke-width:1px;stroke-linecap:butt;stroke-linejoin:miter;stroke-opacity:1" d="M 449.432,272.98 468.798,262.221 z" id="boundary" inkscape:connector-curvature="0" />
	<path style="fill:none;stroke:red;stroke-width:1px;stroke-linecap:butt;stroke-linejoin:miter;stroke-opacity:1" d="M 449.432,272.98 427.913,272.98 z" id="boundary" inkscape:connector-curvature="0" />
	<path style="fill:none;stroke:red;stroke-width:1px;stroke-linecap:butt;stroke-linejoin:miter;stroke-opacity:1" d="M 389.18,294.499 408.547,283.74 z" id="boundary" inkscape:connector-curvature="0" />
	<path style="fill:none;stroke:red;stroke-width:1px;stroke-linecap:butt;stroke-linejoin:miter;stroke-opacity:1" d="M 408.547,283.74 427.913,272.98 z" id="boundary" inkscape:connector-curvature="0" />
	<path style="fill:none;stroke:red;stroke-width:1px;stroke-linecap:butt;stroke-linejoin:miter;stroke-opacity:1" d="M 490.317,791.575 468.798,791.575 z" id="boundary" inkscape:connector-curvature="0" />
	<path style="fill:none;stroke:red;stroke-width:1px;stroke-linecap:butt;stroke-linejoin:miter;stroke-opacity:1" d="M 507.531,240.703 490.317,255.766 z" id="boundary" inkscape:connector-curvature="0" />
	<path style="fill:none;stroke:red;stroke-width:1px;stroke-linecap:butt;stroke-linejoin:miter;stroke-opacity:1" d="M 197.666,128.807 214.881,111.592 z" id="boundary" inkscape:connector-curvature="0" />
	<path style="fill:none;stroke:red;stroke-width:1px;stroke-linecap:butt;stroke-linejoin:miter;stroke-opacity:1" d="M 14.7592,567.783 25.5184,587.15 z" id="boundary" inkscape:connector-curvature="0" />
	<path style="fill:none;stroke:red;stroke-width:1px;stroke-linecap:butt;stroke-linejoin:miter;stroke-opacity:1" d="M 25.5184,587.15 25.5184,608.668 z" id="boundary" inkscape:connector-curvature="0" />
	<path style="fill:none;stroke:red;stroke-width:1px;stroke-linecap:butt;stroke-linejoin:miter;stroke-opacity:1" d="M 81.4664,630.187 59.9479,630.187 z" id="boundary" inkscape:connector-curvature="0" />
	<path style="fill:none;stroke:red;stroke-width:1px;stroke-linecap:butt;stroke-linejoin:miter;stroke-opacity:1" d="M 59.9479,630.187 38.4295,625.883 z" id="boundary" inkscape:connector-curvature="0" />
	<path style="fill:none;stroke:red;stroke-width:1px;stroke-linecap:butt;stroke-linejoin:miter;stroke-opacity:1" d="M 38.4295,625.883 25.5184,608.668 z" id="boundary" inkscape:connector-curvature="0" />
	<path style="fill:none;stroke:red;stroke-width:1px;stroke-linecap:butt;stroke-linejoin:miter;stroke-opacity:1" d="M 81.4664,630.187 102.985,630.187 z" id="boundary" inkscape:connector-curvature="0" />
	<path style="fill:none;stroke:red;stroke-width:1px;stroke-linecap:butt;stroke-linejoin:miter;stroke-opacity:1" d="M 102.985,630.187 122.351,640.946 z" id="boundary" inkscape:connector-curvature="0" />
	<path style="fill:none;stroke:red;stroke-width:1px;stroke-linecap:butt;stroke-linejoin:miter;stroke-opacity:1" d="M 163.236,651.705 141.718,651.705 z" id="boundary" inkscape:connector-curvature="0" />
	<path style="fill:none;stroke:red;stroke-width:1px;stroke-linecap:butt;stroke-linejoin:miter;stroke-opacity:1" d="M 141.718,651.705 122.351,640.946 z" id="boundary" inkscape:connector-curvature="0" />
	<path style="fill:none;stroke:red;stroke-width:1px;stroke-linecap:butt;stroke-linejoin:miter;stroke-opacity:1" d="M 167.54,729.171 150.325,746.386 z" id="boundary" inkscape:connector-curvature="0" />
	<path style="fill:none;stroke:red;stroke-width:1px;stroke-linecap:butt;stroke-linejoin:miter;stroke-opacity:1" d="M 90.0738,817.397 107.289,800.182 z" id="boundary" inkscape:connector-curvature="0" />
	<path style="fill:none;stroke:red;stroke-width:1px;stroke-linecap:butt;stroke-linejoin:miter;stroke-opacity:1" d="M 90.0738,858.282 79.3145,838.915 z" id="boundary" inkscape:connector-curvature="0" />
	<path style="fill:none;stroke:red;stroke-width:1px;stroke-linecap:butt;stroke-linejoin:miter;stroke-opacity:1" d="M 79.3145,838.915 90.0738,817.397 z" id="boundary" inkscape:connector-curvature="0" />
	<path style="fill:none;stroke:red;stroke-width:1px;stroke-linecap:butt;stroke-linejoin:miter;stroke-opacity:1" d="M 105.137,875.497 90.0738,858.282 z" id="boundary" inkscape:connector-curvature="0" />
	<path style="fill:none;stroke:red;stroke-width:1px;stroke-linecap:butt;stroke-linejoin:miter;stroke-opacity:1" d="M 126.655,884.104 105.137,875.497 z" id="boundary" inkscape:connector-curvature="0" />
	<path style="fill:none;stroke:red;stroke-width:1px;stroke-linecap:butt;stroke-linejoin:miter;stroke-opacity:1" d="M 150.325,746.386 141.718,767.905 z" id="boundary" inkscape:connector-curvature="0" />
	<path style="fill:none;stroke:red;stroke-width:1px;stroke-linecap:butt;stroke-linejoin:miter;stroke-opacity:1" d="M 141.718,767.905 124.503,782.967 z" id="boundary" inkscape:connector-curvature="0" />
	<path style="fill:none;stroke:red;stroke-width:1px;stroke-linecap:butt;stroke-linejoin:miter;stroke-opacity:1" d="M 124.503,782.967 107.289,800.182 z" id="boundary" inkscape:connector-curvature="0" />
	<path style="fill:none;stroke:red;stroke-width:1px;stroke-linecap:butt;stroke-linejoin:miter;stroke-opacity:1" d="M 143.87,899.167 156.781,916.382 z" id="boundary" inkscape:connector-curvature="0" />
	<path style="fill:none;stroke:red;stroke-width:1px;stroke-linecap:butt;stroke-linejoin:miter;stroke-opacity:1" d="M 143.87,899.167 126.655,884.104 z" id="boundary" inkscape:connector-curvature="0" />
	<path style="fill:none;stroke:red;stroke-width:1px;stroke-linecap:butt;stroke-linejoin:miter;stroke-opacity:1" d="M 156.781,916.382 173.996,931.445 z" id="boundary" inkscape:connector-curvature="0" />
	<path style="fill:none;stroke:red;stroke-width:1px;stroke-linecap:butt;stroke-linejoin:miter;stroke-opacity:1" d="M 182.603,662.464 197.666,688.286 z" id="boundary" inkscape:connector-curvature="0" />
	<path style="fill:none;stroke:red;stroke-width:1px;stroke-linecap:butt;stroke-linejoin:miter;stroke-opacity:1" d="M 197.666,688.286 184.755,714.108 z" id="boundary" inkscape:connector-curvature="0" />
	<path style="fill:none;stroke:red;stroke-width:1px;stroke-linecap:butt;stroke-linejoin:miter;stroke-opacity:1" d="M 167.54,729.171 184.755,714.108 z" id="boundary" inkscape:connector-curvature="0" />
	<path style="fill:none;stroke:red;stroke-width:1px;stroke-linecap:butt;stroke-linejoin:miter;stroke-opacity:1" d="M 339.688,802.334 324.625,819.549 z" id="boundary" inkscape:connector-curvature="0" />
	<path style="fill:none;stroke:red;stroke-width:1px;stroke-linecap:butt;stroke-linejoin:miter;stroke-opacity:1" d="M 163.236,651.705 182.603,662.464 z" id="boundary" inkscape:connector-curvature="0" />
	<path style="fill:none;stroke:red;stroke-width:1px;stroke-linecap:butt;stroke-linejoin:miter;stroke-opacity:1" d="M 404.243,791.575 382.725,802.334 z" id="boundary" inkscape:connector-curvature="0" />
	<path style="fill:none;stroke:red;stroke-width:1px;stroke-linecap:butt;stroke-linejoin:miter;stroke-opacity:1" d="M 382.725,802.334 361.206,802.334 z" id="boundary" inkscape:connector-curvature="0" />
	<path style="fill:none;stroke:red;stroke-width:1px;stroke-linecap:butt;stroke-linejoin:miter;stroke-opacity:1" d="M 404.243,791.575 425.761,791.575 z" id="boundary" inkscape:connector-curvature="0" />
	<path style="fill:none;stroke:red;stroke-width:1px;stroke-linecap:butt;stroke-linejoin:miter;stroke-opacity:1" d="M 447.28,791.575 425.761,791.575 z" id="boundary" inkscape:connector-curvature="0" />
	<path style="fill:none;stroke:red;stroke-width:1px;stroke-linecap:butt;stroke-linejoin:miter;stroke-opacity:1" d="M 361.206,802.334 339.688,802.334 z" id="boundary" inkscape:connector-curvature="0" />
	<path style="fill:none;stroke:red;stroke-width:1px;stroke-linecap:butt;stroke-linejoin:miter;stroke-opacity:1" d="M 232.095,920.685 249.31,905.623 z" id="boundary" inkscape:connector-curvature="0" />
	<path style="fill:none;stroke:red;stroke-width:1px;stroke-linecap:butt;stroke-linejoin:miter;stroke-opacity:1" d="M 214.881,940.052 232.095,920.685 z" id="boundary" inkscape:connector-curvature="0" />
	<path style="fill:none;stroke:red;stroke-width:1px;stroke-linecap:butt;stroke-linejoin:miter;stroke-opacity:1" d="M 260.069,884.104 249.31,905.623 z" id="boundary" inkscape:connector-curvature="0" />
	<path style="fill:none;stroke:red;stroke-width:1px;stroke-linecap:butt;stroke-linejoin:miter;stroke-opacity:1" d="M 193.362,942.204 173.996,931.445 z" id="boundary" inkscape:connector-curvature="0" />
	<path style="fill:none;stroke:red;stroke-width:1px;stroke-linecap:butt;stroke-linejoin:miter;stroke-opacity:1" d="M 214.881,940.052 193.362,942.204 z" id="boundary" inkscape:connector-curvature="0" />
	<path style="fill:none;stroke:red;stroke-width:1px;stroke-linecap:butt;stroke-linejoin:miter;stroke-opacity:1" d="M 307.41,834.612 324.625,819.549 z" id="boundary" inkscape:connector-curvature="0" />
	<path style="fill:none;stroke:red;stroke-width:1px;stroke-linecap:butt;stroke-linejoin:miter;stroke-opacity:1" d="M 307.41,834.612 292.347,851.826 z" id="boundary" inkscape:connector-curvature="0" />
	<path style="fill:none;stroke:red;stroke-width:1px;stroke-linecap:butt;stroke-linejoin:miter;stroke-opacity:1" d="M 275.132,866.889 292.347,851.826 z" id="boundary" inkscape:connector-curvature="0" />
	<path style="fill:none;stroke:red;stroke-width:1px;stroke-linecap:butt;stroke-linejoin:miter;stroke-opacity:1" d="M 260.069,884.104 275.132,866.889 z" id="boundary" inkscape:connector-curvature="0" />
	<path style="fill:none;stroke:red;stroke-width:1px;stroke-linecap:butt;stroke-linejoin:miter;stroke-opacity:1" d="M 447.28,791.575 468.798,791.575 z" id="boundary" inkscape:connector-curvature="0" />
	<path style="fill:none;stroke:red;stroke-width:1px;stroke-linecap:butt;stroke-linejoin:miter;stroke-opacity:1" d="M 699.046,79.3145 716.26,62.0998 z" id="boundary" inkscape:connector-curvature="0" />
	<path style="fill:none;stroke:red;stroke-width:1px;stroke-linecap:butt;stroke-linejoin:miter;stroke-opacity:1" d="M 690.438,100.833 699.046,79.3145 z" id="boundary" inkscape:connector-curvature="0" />
	<path style="fill:none;stroke:red;stroke-width:1px;stroke-linecap:butt;stroke-linejoin:miter;stroke-opacity:1" d="M 658.161,133.111 673.223,115.896 z" id="boundary" inkscape:connector-curvature="0" />
	<path style="fill:none;stroke:red;stroke-width:1px;stroke-linecap:butt;stroke-linejoin:miter;stroke-opacity:1" d="M 690.438,100.833 673.223,115.896 z" id="boundary" inkscape:connector-curvature="0" />
	<path style="fill:none;stroke:red;stroke-width:1px;stroke-linecap:butt;stroke-linejoin:miter;stroke-opacity:1" d="M 830.308,260.069 813.093,275.132 z" id="boundary" inkscape:connector-curvature="0" />
	<path style="fill:none;stroke:red;stroke-width:1px;stroke-linecap:butt;stroke-linejoin:miter;stroke-opacity:1" d="M 658.161,133.111 640.946,148.174 z" id="boundary" inkscape:connector-curvature="0" />
	<path style="fill:none;stroke:red;stroke-width:1px;stroke-linecap:butt;stroke-linejoin:miter;stroke-opacity:1" d="M 763.601,4 785.119,4 z" id="boundary" inkscape:connector-curvature="0" />
	<path style="fill:none;stroke:red;stroke-width:1px;stroke-linecap:butt;stroke-linejoin:miter;stroke-opacity:1" d="M 746.386,21.2148 763.601,4 z" id="boundary" inkscape:connector-curvature="0" />
	<path style="fill:none;stroke:red;stroke-width:1px;stroke-linecap:butt;stroke-linejoin:miter;stroke-opacity:1" d="M 733.475,47.0369 746.386,21.2148 z" id="boundary" inkscape:connector-curvature="0" />
	<path style="fill:none;stroke:red;stroke-width:1px;stroke-linecap:butt;stroke-linejoin:miter;stroke-opacity:1" d="M 733.475,47.0369 716.26,62.0998 z" id="boundary" inkscape:connector-curvature="0" />
	<path style="fill:none;stroke:red;stroke-width:1px;stroke-linecap:butt;stroke-linejoin:miter;stroke-opacity:1" d="M 785.119,4 804.486,14.7592 z" id="boundary" inkscape:connector-curvature="0" />
	<path style="fill:none;stroke:red;stroke-width:1px;stroke-linecap:butt;stroke-linejoin:miter;stroke-opacity:1" d="M 550.568,240.703 529.05,240.703 z" id="boundary" inkscape:connector-curvature="0" />
	<path style="fill:none;stroke:red;stroke-width:1px;stroke-linecap:butt;stroke-linejoin:miter;stroke-opacity:1" d="M 529.05,240.703 507.531,240.703 z" id="boundary" inkscape:connector-curvature="0" />
	<path style="fill:none;stroke:red;stroke-width:1px;stroke-linecap:butt;stroke-linejoin:miter;stroke-opacity:1" d="M 550.568,240.703 572.087,240.703 z" id="boundary" inkscape:connector-curvature="0" />
	<path style="fill:none;stroke:red;stroke-width:1px;stroke-linecap:butt;stroke-linejoin:miter;stroke-opacity:1" d="M 597.909,201.97 587.15,223.488 z" id="boundary" inkscape:connector-curvature="0" />
	<path style="fill:none;stroke:red;stroke-width:1px;stroke-linecap:butt;stroke-linejoin:miter;stroke-opacity:1" d="M 587.15,223.488 572.087,240.703 z" id="boundary" inkscape:connector-curvature="0" />
	<path style="fill:none;stroke:red;stroke-width:1px;stroke-linecap:butt;stroke-linejoin:miter;stroke-opacity:1" d="M 640.946,148.174 630.187,169.692 z" id="boundary" inkscape:connector-curvature="0" />
	<path style="fill:none;stroke:red;stroke-width:1px;stroke-linecap:butt;stroke-linejoin:miter;stroke-opacity:1" d="M 630.187,169.692 615.124,186.907 z" id="boundary" inkscape:connector-curvature="0" />
	<path style="fill:none;stroke:red;stroke-width:1px;stroke-linecap:butt;stroke-linejoin:miter;stroke-opacity:1" d="M 615.124,186.907 597.909,201.97 z" id="boundary" inkscape:connector-curvature="0" />
	<path style="fill:none;stroke:red;stroke-width:1px;stroke-linecap:butt;stroke-linejoin:miter;stroke-opacity:1" d="M 813.093,275.132 817.397,296.651 z" id="boundary" inkscape:connector-curvature="0" />
	<path style="fill:none;stroke:red;stroke-width:1px;stroke-linecap:butt;stroke-linejoin:miter;stroke-opacity:1" d="M 804.486,14.7592 823.852,25.5184 z" id="boundary" inkscape:connector-curvature="0" />
	<path style="fill:none;stroke:red;stroke-width:1px;stroke-linecap:butt;stroke-linejoin:miter;stroke-opacity:1" d="M 843.219,36.2777 860.434,49.1887 z" id="boundary" inkscape:connector-curvature="0" />
	<path style="fill:none;stroke:red;stroke-width:1px;stroke-linecap:butt;stroke-linejoin:miter;stroke-opacity:1" d="M 860.434,49.1887 881.952,57.7961 z" id="boundary" inkscape:connector-curvature="0" />
	<path style="fill:none;stroke:red;stroke-width:1px;stroke-linecap:butt;stroke-linejoin:miter;stroke-opacity:1" d="M 881.952,57.7961 901.319,68.5553 z" id="boundary" inkscape:connector-curvature="0" />
	<path style="fill:none;stroke:red;stroke-width:1px;stroke-linecap:butt;stroke-linejoin:miter;stroke-opacity:1" d="M 918.534,83.6182 937.9,94.3774 z" id="boundary" inkscape:connector-curvature="0" />
	<path style="fill:none;stroke:red;stroke-width:1px;stroke-linecap:butt;stroke-linejoin:miter;stroke-opacity:1" d="M 918.534,83.6182 901.319,68.5553 z" id="boundary" inkscape:connector-curvature="0" />
	<path style="fill:none;stroke:red;stroke-width:1px;stroke-linecap:butt;stroke-linejoin:miter;stroke-opacity:1" d="M 942.204,135.262 927.141,152.477 z" id="boundary" inkscape:connector-curvature="0" />
	<path style="fill:none;stroke:red;stroke-width:1px;stroke-linecap:butt;stroke-linejoin:miter;stroke-opacity:1" d="M 937.9,94.3774 959.419,102.985 z" id="boundary" inkscape:connector-curvature="0" />
	<path style="fill:none;stroke:red;stroke-width:1px;stroke-linecap:butt;stroke-linejoin:miter;stroke-opacity:1" d="M 959.419,102.985 942.204,135.262 z" id="boundary" inkscape:connector-curvature="0" />
	<path style="fill:none;stroke:red;stroke-width:1px;stroke-linecap:butt;stroke-linejoin:miter;stroke-opacity:1" d="M 927.141,152.477 909.926,167.54 z" id="boundary" inkscape:connector-curvature="0" />
	<path style="fill:none;stroke:red;stroke-width:1px;stroke-linecap:butt;stroke-linejoin:miter;stroke-opacity:1" d="M 862.586,227.792 845.371,242.855 z" id="boundary" inkscape:connector-curvature="0" />
	<path style="fill:none;stroke:red;stroke-width:1px;stroke-linecap:butt;stroke-linejoin:miter;stroke-opacity:1" d="M 830.308,260.069 845.371,242.855 z" id="boundary" inkscape:connector-curvature="0" />
	<path style="fill:none;stroke:red;stroke-width:1px;stroke-linecap:butt;stroke-linejoin:miter;stroke-opacity:1" d="M 849.675,328.928 834.612,311.714 z" id="boundary" inkscape:connector-curvature="0" />
	<path style="fill:none;stroke:red;stroke-width:1px;stroke-linecap:butt;stroke-linejoin:miter;stroke-opacity:1" d="M 871.193,337.536 849.675,328.928 z" id="boundary" inkscape:connector-curvature="0" />
	<path style="fill:none;stroke:red;stroke-width:1px;stroke-linecap:butt;stroke-linejoin:miter;stroke-opacity:1" d="M 817.397,296.651 834.612,311.714 z" id="boundary" inkscape:connector-curvature="0" />
	<path style="fill:none;stroke:red;stroke-width:1px;stroke-linecap:butt;stroke-linejoin:miter;stroke-opacity:1" d="M 909.926,167.54 894.863,195.514 z" id="boundary" inkscape:connector-curvature="0" />
	<path style="fill:none;stroke:red;stroke-width:1px;stroke-linecap:butt;stroke-linejoin:miter;stroke-opacity:1" d="M 894.863,195.514 877.649,210.577 z" id="boundary" inkscape:connector-curvature="0" />
	<path style="fill:none;stroke:red;stroke-width:1px;stroke-linecap:butt;stroke-linejoin:miter;stroke-opacity:1" d="M 877.649,210.577 862.586,227.792 z" id="boundary" inkscape:connector-curvature="0" />
	<path style="fill:none;stroke:red;stroke-width:1px;stroke-linecap:butt;stroke-linejoin:miter;stroke-opacity:1" d="M 871.193,337.536 890.56,348.295 z" id="boundary" inkscape:connector-curvature="0" />
	<path style="fill:none;stroke:red;stroke-width:1px;stroke-linecap:butt;stroke-linejoin:miter;stroke-opacity:1" d="M 907.774,363.358 890.56,348.295 z" id="boundary" inkscape:connector-curvature="0" />
	<path style="fill:none;stroke:red;stroke-width:1px;stroke-linecap:butt;stroke-linejoin:miter;stroke-opacity:1" d="M 959.419,102.985 959.419,436.521 z" id="boundary" inkscape:connector-curvature="0" />
	<path style="fill:none;stroke:red;stroke-width:1px;stroke-linecap:butt;stroke-linejoin:miter;stroke-opacity:1" d="M 823.852,25.5184 843.219,36.2777 z" id="boundary" inkscape:connector-curvature="0" />
	<path style="fill:none;stroke:red;stroke-width:1px;stroke-linecap:butt;stroke-linejoin:miter;stroke-opacity:1" d="M 907.774,363.358 916.382,384.876 z" id="boundary" inkscape:connector-curvature="0" />
	<path style="fill:none;stroke:red;stroke-width:1px;stroke-linecap:butt;stroke-linejoin:miter;stroke-opacity:1" d="M 490.317,791.575 503.228,808.79 z" id="boundary" inkscape:connector-curvature="0" />
	<path style="fill:none;stroke:red;stroke-width:1px;stroke-linecap:butt;stroke-linejoin:miter;stroke-opacity:1" d="M 520.443,823.852 503.228,808.79 z" id="boundary" inkscape:connector-curvature="0" />
	<path style="fill:none;stroke:red;stroke-width:1px;stroke-linecap:butt;stroke-linejoin:miter;stroke-opacity:1" d="M 539.809,834.612 520.443,823.852 z" id="boundary" inkscape:connector-curvature="0" />
	<path style="fill:none;stroke:red;stroke-width:1px;stroke-linecap:butt;stroke-linejoin:miter;stroke-opacity:1" d="M 810.941,802.334 791.575,813.093 z" id="boundary" inkscape:connector-curvature="0" />
	<path style="fill:none;stroke:red;stroke-width:1px;stroke-linecap:butt;stroke-linejoin:miter;stroke-opacity:1" d="M 772.208,823.852 791.575,813.093 z" id="boundary" inkscape:connector-curvature="0" />
	<path style="fill:none;stroke:red;stroke-width:1px;stroke-linecap:butt;stroke-linejoin:miter;stroke-opacity:1" d="M 830.308,791.575 810.941,802.334 z" id="boundary" inkscape:connector-curvature="0" />
	<path style="fill:none;stroke:red;stroke-width:1px;stroke-linecap:butt;stroke-linejoin:miter;stroke-opacity:1" d="M 830.308,791.575 851.826,791.575 z" id="boundary" inkscape:connector-curvature="0" />
	<path style="fill:none;stroke:red;stroke-width:1px;stroke-linecap:butt;stroke-linejoin:miter;stroke-opacity:1" d="M 873.345,791.575 894.863,791.575 z" id="boundary" inkscape:connector-curvature="0" />
	<path style="fill:none;stroke:red;stroke-width:1px;stroke-linecap:butt;stroke-linejoin:miter;stroke-opacity:1" d="M 851.826,791.575 873.345,791.575 z" id="boundary" inkscape:connector-curvature="0" />
	<path style="fill:none;stroke:red;stroke-width:1px;stroke-linecap:butt;stroke-linejoin:miter;stroke-opacity:1" d="M 688.286,834.612 666.768,834.612 z" id="boundary" inkscape:connector-curvature="0" />
	<path style="fill:none;stroke:red;stroke-width:1px;stroke-linecap:butt;stroke-linejoin:miter;stroke-opacity:1" d="M 752.842,834.612 772.208,823.852 z" id="boundary" inkscape:connector-curvature="0" />
	<path style="fill:none;stroke:red;stroke-width:1px;stroke-linecap:butt;stroke-linejoin:miter;stroke-opacity:1" d="M 539.809,834.612 559.176,845.371 z" id="boundary" inkscape:connector-curvature="0" />
	<path style="fill:none;stroke:red;stroke-width:1px;stroke-linecap:butt;stroke-linejoin:miter;stroke-opacity:1" d="M 580.694,845.371 559.176,845.371 z" id="boundary" inkscape:connector-curvature="0" />
	<path style="fill:none;stroke:red;stroke-width:1px;stroke-linecap:butt;stroke-linejoin:miter;stroke-opacity:1" d="M 580.694,845.371 602.213,845.371 z" id="boundary" inkscape:connector-curvature="0" />
	<path style="fill:none;stroke:red;stroke-width:1px;stroke-linecap:butt;stroke-linejoin:miter;stroke-opacity:1" d="M 623.731,845.371 602.213,845.371 z" id="boundary" inkscape:connector-curvature="0" />
	<path style="fill:none;stroke:red;stroke-width:1px;stroke-linecap:butt;stroke-linejoin:miter;stroke-opacity:1" d="M 645.249,843.219 666.768,834.612 z" id="boundary" inkscape:connector-curvature="0" />
	<path style="fill:none;stroke:red;stroke-width:1px;stroke-linecap:butt;stroke-linejoin:miter;stroke-opacity:1" d="M 709.805,834.612 688.286,834.612 z" id="boundary" inkscape:connector-curvature="0" />
	<path style="fill:none;stroke:red;stroke-width:1px;stroke-linecap:butt;stroke-linejoin:miter;stroke-opacity:1" d="M 731.323,834.612 752.842,834.612 z" id="boundary" inkscape:connector-curvature="0" />
	<path style="fill:none;stroke:red;stroke-width:1px;stroke-linecap:butt;stroke-linejoin:miter;stroke-opacity:1" d="M 709.805,834.612 731.323,834.612 z" id="boundary" inkscape:connector-curvature="0" />
	<path style="fill:none;stroke:red;stroke-width:1px;stroke-linecap:butt;stroke-linejoin:miter;stroke-opacity:1" d="M 645.249,843.219 623.731,845.371 z" id="boundary" inkscape:connector-curvature="0" />
	<path style="fill:none;stroke:red;stroke-width:1px;stroke-linecap:butt;stroke-linejoin:miter;stroke-opacity:1" d="M 894.863,791.575 916.382,787.271 z" id="boundary" inkscape:connector-curvature="0" />
	<path style="fill:none;stroke:red;stroke-width:1px;stroke-linecap:butt;stroke-linejoin:miter;stroke-opacity:1" d="M 916.382,384.876 931.445,402.091 z" id="boundary" inkscape:connector-curvature="0" />
	<path style="fill:none;stroke:red;stroke-width:1px;stroke-linecap:butt;stroke-linejoin:miter;stroke-opacity:1" d="M 931.445,402.091 942.204,421.458 z" id="boundary" inkscape:connector-curvature="0" />
	<path style="fill:none;stroke:red;stroke-width:1px;stroke-linecap:butt;stroke-linejoin:miter;stroke-opacity:1" d="M 942.204,421.458 959.419,436.521 z" id="boundary" inkscape:connector-curvature="0" />
	<path style="fill:none;stroke:red;stroke-width:1px;stroke-linecap:butt;stroke-linejoin:miter;stroke-opacity:1" d="M 959.419,436.521 963.722,458.039 z" id="boundary" inkscape:connector-curvature="0" />
	<path style="fill:none;stroke:red;stroke-width:1px;stroke-linecap:butt;stroke-linejoin:miter;stroke-opacity:1" d="M 974.482,477.406 963.722,458.039 z" id="boundary" inkscape:connector-curvature="0" />
	<path style="fill:none;stroke:red;stroke-width:1px;stroke-linecap:butt;stroke-linejoin:miter;stroke-opacity:1" d="M 985.241,518.291 974.482,498.924 z" id="boundary" inkscape:connector-curvature="0" />
	<path style="fill:none;stroke:red;stroke-width:1px;stroke-linecap:butt;stroke-linejoin:miter;stroke-opacity:1" d="M 974.482,498.924 974.482,477.406 z" id="boundary" inkscape:connector-curvature="0" />
	<path style="fill:none;stroke:red;stroke-width:1px;stroke-linecap:butt;stroke-linejoin:miter;stroke-opacity:1" d="M 996,537.657 985.241,518.291 z" id="boundary" inkscape:connector-curvature="0" />
	<path style="fill:none;stroke:red;stroke-width:1px;stroke-linecap:butt;stroke-linejoin:miter;stroke-opacity:1" d="M 996,537.657 996,559.176 z" id="boundary" inkscape:connector-curvature="0" />
	<path style="fill:none;stroke:red;stroke-width:1px;stroke-linecap:butt;stroke-linejoin:miter;stroke-opacity:1" d="M 996,559.176 996,580.694 z" id="boundary" inkscape:connector-curvature="0" />
	<path style="fill:none;stroke:red;stroke-width:1px;stroke-linecap:butt;stroke-linejoin:miter;stroke-opacity:1" d="M 996,580.694 996,602.213 z" id="boundary" inkscape:connector-curvature="0" />
	<path style="fill:none;stroke:red;stroke-width:1px;stroke-linecap:butt;stroke-linejoin:miter;stroke-opacity:1" d="M 985.241,716.26 985.241,737.779 z" id="boundary" inkscape:connector-curvature="0" />
	<path style="fill:none;stroke:red;stroke-width:1px;stroke-linecap:butt;stroke-linejoin:miter;stroke-opacity:1" d="M 985.241,737.779 972.33,759.297 z" id="boundary" inkscape:connector-curvature="0" />
	<path style="fill:none;stroke:red;stroke-width:1px;stroke-linecap:butt;stroke-linejoin:miter;stroke-opacity:1" d="M 916.382,787.271 931.445,770.056 z" id="boundary" inkscape:connector-curvature="0" />
	<path style="fill:none;stroke:red;stroke-width:1px;stroke-linecap:butt;stroke-linejoin:miter;stroke-opacity:1" d="M 931.445,770.056 952.963,770.056 z" id="boundary" inkscape:connector-curvature="0" />
	<path style="fill:none;stroke:red;stroke-width:1px;stroke-linecap:butt;stroke-linejoin:miter;stroke-opacity:1" d="M 972.33,759.297 952.963,770.056 z" id="boundary" inkscape:connector-curvature="0" />
	<path style="fill:none;stroke:red;stroke-width:1px;stroke-linecap:butt;stroke-linejoin:miter;stroke-opacity:1" d="M 996,645.249 996,666.768 z" id="boundary" inkscape:connector-curvature="0" />
	<path style="fill:none;stroke:red;stroke-width:1px;stroke-linecap:butt;stroke-linejoin:miter;stroke-opacity:1" d="M 985.241,716.26 996,688.286 z" id="boundary" inkscape:connector-curvature="0" />
	<path style="fill:none;stroke:red;stroke-width:1px;stroke-linecap:butt;stroke-linejoin:miter;stroke-opacity:1" d="M 996,666.768 996,688.286 z" id="boundary" inkscape:connector-curvature="0" />
	<path style="fill:none;stroke:red;stroke-width:1px;stroke-linecap:butt;stroke-linejoin:miter;stroke-opacity:1" d="M 996,623.731 996,645.249 z" id="boundary" inkscape:connector-curvature="0" />
	<path style="fill:none;stroke:red;stroke-width:1px;stroke-linecap:butt;stroke-linejoin:miter;stroke-opacity:1" d="M 996,602.213 996,623.731 z" id="boundary" inkscape:connector-curvature="0" />
	<circle cx="4" cy="505.38" r="4" fill="#0" id="circle0"/>
	<circle cx="4" cy="526.898" r="4" fill="#0" id="circle1"/>
	<circle cx="4" cy="548.416" r="4" fill="#0" id="circle2"/>
	<circle cx="14.7592" cy="473.102" r="4" fill="#0" id="circle3"/>
	<circle cx="14.7592" cy="567.783" r="4" fill="#0" id="circle4"/>
	<circle cx="25.5184" cy="451.584" r="4" fill="#0" id="circle5"/>
	<circle cx="25.5184" cy="587.15" r="4" fill="#0" id="circle6"/>
	<circle cx="25.5184" cy="608.668" r="4" fill="#0" id="circle7"/>
	<circle cx="36.2777" cy="397.787" r="4" fill="#0" id="circle8"/>
	<circle cx="36.2777" cy="419.306" r="4" fill="#0" id="circle9"/>
	<circle cx="38.4295" cy="625.883" r="4" fill="#0" id="circle10"/>
	<circle cx="47.0369" cy="365.51" r="4" fill="#0" id="circle11"/>
	<circle cx="59.9479" cy="630.187" r="4" fill="#0" id="circle12"/>
	<circle cx="68.5553" cy="359.054" r="4" fill="#0" id="circle13"/>
	<circle cx="79.3145" cy="838.915" r="4" fill="#0" id="circle14"/>
	<circle cx="81.4664" cy="630.187" r="4" fill="#0" id="circle15"/>
	<circle cx="90.0738" cy="359.054" r="4" fill="#0" id="circle16"/>
	<circle cx="90.0738" cy="817.397" r="4" fill="#0" id="circle17"/>
	<circle cx="90.0738" cy="858.282" r="4" fill="#0" id="circle18"/>
	<circle cx="102.985" cy="630.187" r="4" fill="#0" id="circle19"/>
	<circle cx="105.137" cy="875.497" r="4" fill="#0" id="circle20"/>
	<circle cx="107.289" cy="800.182" r="4" fill="#0" id="circle21"/>
	<circle cx="109.44" cy="348.295" r="4" fill="#0" id="circle22"/>
	<circle cx="122.351" cy="640.946" r="4" fill="#0" id="circle23"/>
	<circle cx="124.503" cy="782.967" r="4" fill="#0" id="circle24"/>
	<circle cx="126.655" cy="884.104" r="4" fill="#0" id="circle25"/>
	<circle cx="128.807" cy="337.536" r="4" fill="#0" id="circle26"/>
	<circle cx="141.718" cy="651.705" r="4" fill="#0" id="circle27"/>
	<circle cx="141.718" cy="767.905" r="4" fill="#0" id="circle28"/>
	<circle cx="143.87" cy="899.167" r="4" fill="#0" id="circle29"/>
	<circle cx="146.022" cy="320.321" r="4" fill="#0" id="circle30"/>
	<circle cx="150.325" cy="746.386" r="4" fill="#0" id="circle31"/>
	<circle cx="156.781" cy="916.382" r="4" fill="#0" id="circle32"/>
	<circle cx="163.236" cy="651.705" r="4" fill="#0" id="circle33"/>
	<circle cx="165.388" cy="300.954" r="4" fill="#0" id="circle34"/>
	<circle cx="167.54" cy="729.171" r="4" fill="#0" id="circle35"/>
	<circle cx="173.996" cy="931.445" r="4" fill="#0" id="circle36"/>
	<circle cx="176.148" cy="182.603" r="4" fill="#0" id="circle37"/>
	<circle cx="176.148" cy="204.121" r="4" fill="#0" id="circle38"/>
	<circle cx="176.148" cy="225.64" r="4" fill="#0" id="circle39"/>
	<circle cx="176.148" cy="247.158" r="4" fill="#0" id="circle40"/>
	<circle cx="176.148" cy="268.677" r="4" fill="#0" id="circle41"/>
	<circle cx="182.603" cy="662.464" r="4" fill="#0" id="circle42"/>
	<circle cx="184.755" cy="714.108" r="4" fill="#0" id="circle43"/>
	<circle cx="186.907" cy="150.325" r="4" fill="#0" id="circle44"/>
	<circle cx="193.362" cy="942.204" r="4" fill="#0" id="circle45"/>
	<circle cx="197.666" cy="128.807" r="4" fill="#0" id="circle46"/>
	<circle cx="197.666" cy="688.286" r="4" fill="#0" id="circle47"/>
	<circle cx="214.881" cy="111.592" r="4" fill="#0" id="circle48"/>
	<circle cx="214.881" cy="940.052" r="4" fill="#0" id="circle49"/>
	<circle cx="232.095" cy="920.685" r="4" fill="#0" id="circle50"/>
	<circle cx="234.247" cy="100.833" r="4" fill="#0" id="circle51"/>
	<circle cx="249.31" cy="905.623" r="4" fill="#0" id="circle52"/>
	<circle cx="255.766" cy="100.833" r="4" fill="#0" id="circle53"/>
	<circle cx="260.069" cy="884.104" r="4" fill="#0" id="circle54"/>
	<circle cx="275.132" cy="866.889" r="4" fill="#0" id="circle55"/>
	<circle cx="277.284" cy="100.833" r="4" fill="#0" id="circle56"/>
	<circle cx="292.347" cy="851.826" r="4" fill="#0" id="circle57"/>
	<circle cx="298.803" cy="100.833" r="4" fill="#0" id="circle58"/>
	<circle cx="307.41" cy="834.612" r="4" fill="#0" id="circle59"/>
	<circle cx="316.017" cy="115.896" r="4" fill="#0" id="circle60"/>
	<circle cx="324.625" cy="819.549" r="4" fill="#0" id="circle61"/>
	<circle cx="328.928" cy="133.111" r="4" fill="#0" id="circle62"/>
	<circle cx="339.688" cy="152.477" r="4" fill="#0" id="circle63"/>
	<circle cx="339.688" cy="173.996" r="4" fill="#0" id="circle64"/>
	<circle cx="339.688" cy="195.514" r="4" fill="#0" id="circle65"/>
	<circle cx="339.688" cy="802.334" r="4" fill="#0" id="circle66"/>
	<circle cx="350.447" cy="214.881" r="4" fill="#0" id="circle67"/>
	<circle cx="350.447" cy="236.399" r="4" fill="#0" id="circle68"/>
	<circle cx="350.447" cy="257.918" r="4" fill="#0" id="circle69"/>
	<circle cx="350.447" cy="279.436" r="4" fill="#0" id="circle70"/>
	<circle cx="361.206" cy="802.334" r="4" fill="#0" id="circle71"/>
	<circle cx="367.662" cy="294.499" r="4" fill="#0" id="circle72"/>
	<circle cx="382.725" cy="802.334" r="4" fill="#0" id="circle73"/>
	<circle cx="389.18" cy="294.499" r="4" fill="#0" id="circle74"/>
	<circle cx="404.243" cy="791.575" r="4" fill="#0" id="circle75"/>
	<circle cx="408.547" cy="283.74" r="4" fill="#0" id="circle76"/>
	<circle cx="425.761" cy="791.575" r="4" fill="#0" id="circle77"/>
	<circle cx="427.913" cy="272.98" r="4" fill="#0" id="circle78"/>
	<circle cx="447.28" cy="791.575" r="4" fill="#0" id="circle79"/>
	<circle cx="449.432" cy="272.98" r="4" fill="#0" id="circle80"/>
	<circle cx="468.798" cy="262.221" r="4" fill="#0" id="circle81"/>
	<circle cx="468.798" cy="791.575" r="4" fill="#0" id="circle82"/>
	<circle cx="490.317" cy="255.766" r="4" fill="#0" id="circle83"/>
	<circle cx="490.317" cy="791.575" r="4" fill="#0" id="circle84"/>
	<circle cx="503.228" cy="808.79" r="4" fill="#0" id="circle85"/>
	<circle cx="507.531" cy="240.703" r="4" fill="#0" id="circle86"/>
	<circle cx="520.443" cy="823.852" r="4" fill="#0" id="circle87"/>
	<circle cx="529.05" cy="240.703" r="4" fill="#0" id="circle88"/>
	<circle cx="539.809" cy="834.612" r="4" fill="#0" id="circle89"/>
	<circle cx="550.568" cy="240.703" r="4" fill="#0" id="circle90"/>
	<circle cx="559.176" cy="845.371" r="4" fill="#0" id="circle91"/>
	<circle cx="572.087" cy="240.703" r="4" fill="#0" id="circle92"/>
	<circle cx="580.694" cy="845.371" r="4" fill="#0" id="circle93"/>
	<circle cx="587.15" cy="223.488" r="4" fill="#0" id="circle94"/>
	<circle cx="597.909" cy="201.97" r="4" fill="#0" id="circle95"/>
	<circle cx="602.213" cy="845.371" r="4" fill="#0" id="circle96"/>
	<circle cx="615.124" cy="186.907" r="4" fill="#0" id="circle97"/>
	<circle cx="623.731" cy="845.371" r="4" fill="#0" id="circle98"/>
	<circle cx="630.187" cy="169.692" r="4" fill="#0" id="circle99"/>
	<circle cx="640.946" cy="148.174" r="4" fill="#0" id="circle100"/>
	<circle cx="645.249" cy="843.219" r="4" fill="#0" id="circle101"/>
	<circle cx="658.161" cy="133.111" r="4" fill="#0" id="circle102"/>
	<circle cx="666.768" cy="834.612" r="4" fill="#0" id="circle103"/>
	<circle cx="673.223" cy="115.896" r="4" fill="#0" id="circle104"/>
	<circle cx="688.286" cy="834.612" r="4" fill="#0" id="circle105"/>
	<circle cx="690.438" cy="100.833" r="4" fill="#0" id="circle106"/>
	<circle cx="699.046" cy="79.3145" r="4" fill="#0" id="circle107"/>
	<circle cx="709.805" cy="834.612" r="4" fill="#0" id="circle108"/>
	<circle cx="716.26" cy="62.0998" r="4" fill="#0" id="circle109"/>
	<circle cx="731.323" cy="834.612" r="4" fill="#0" id="circle110"/>
	<circle cx="733.475" cy="47.0369" r="4" fill="#0" id="circle111"/>
	<circle cx="746.386" cy="21.2148" r="4" fill="#0" id="circle112"/>
	<circle cx="752.842" cy="834.612" r="4" fill="#0" id="circle113"/>
	<circle cx="763.601" cy="4" r="4" fill="#0" id="circle114"/>
	<circle cx="772.208" cy="823.852" r="4" fill="#0" id="circle115"/>
	<circle cx="785.119" cy="4" r="4" fill="#0" id="circle116"/>
	<circle cx="791.575" cy="813.093" r="4" fill="#0" id="circle117"/>
	<circle cx="804.486" cy="14.7592" r="4" fill="#0" id="circle118"/>
	<circle cx="810.941" cy="802.334" r="4" fill="#0" id="circle119"/>
	<circle cx="813.093" cy="275.132" r="4" fill="#0" id="circle120"/>
	<circle cx="817.397" cy="296.651" r="4" fill="#0" id="circle121"/>
	<circle cx="823.852" cy="25.5184" r="4" fill="#0" id="circle122"/>
	<circle cx="830.308" cy="260.069" r="4" fill="#0" id="circle123"/>
	<circle cx="830.308" cy="791.575" r="4" fill="#0" id="circle124"/>
	<circle cx="834.612" cy="311.714" r="4" fill="#0" id="circle125"/>
	<circle cx="843.219" cy="36.2777" r="4" fill="#0" id="circle126"/>
	<circle cx="845.371" cy="242.855" r="4" fill="#0" id="circle127"/>
	<circle cx="849.675" cy="328.928" r="4" fill="#0" id="circle128"/>
	<circle cx="851.826" cy="791.575" r="4" fill="#0" id="circle129"/>
	<circle cx="860.434" cy="49.1887" r="4" fill="#0" id="circle130"/>
	<circle cx="862.586" cy="227.792" r="4" fill="#0" id="circle131"/>
	<circle cx="871.193" cy="337.536" r="4" fill="#0" id="circle132"/>
	<circle cx="873.345" cy="791.575" r="4" fill="#0" id="circle133"/>
	<circle cx="877.649" cy="210.577" r="4" fill="#0" id="circle134"/>
	<circle cx="881.952" cy="57.7961" r="4" fill="#0" id="circle135"/>
	<circle cx="890.56" cy="348.295" r="4" fill="#0" id="circle136"/>
	<circle cx="894.863" cy="195.514" r="4" fill="#0" id="circle137"/>
	<circle cx="894.863" cy="791.575" r="4" fill="#0" id="circle138"/>
	<circle cx="901.319" cy="68.5553" r="4" fill="#0" id="circle139"/>
	<circle cx="907.774" cy="363.358" r="4" fill="#0" id="circle140"/>
	<circle cx="909.926" cy="167.54" r="4" fill="#0" id="circle141"/>
	<circle cx="916.382" cy="384.876" r="4" fill="#0" id="circle142"/>
	<circle cx="916.382" cy="787.271" r="4" fill="#0" id="circle143"/>
	<circle cx="918.534" cy="83.6182" r="4" fill="#0" id="circle144"/>
	<circle cx="927.141" cy="152.477" r="4" fill="#0" id="circle145"/>
	<circle cx="931.445" cy="402.091" r="4" fill="#0" id="circle146"/>
	<circle cx="931.445" cy="770.056" r="4" fill="#0" id="circle147"/>
	<circle cx="937.9" cy="94.3774" r="4" fill="#0" id="circle148"/>
	<circle cx="942.204" cy="135.262" r="4" fill="#0" id="circle149"/>
	<circle cx="942.204" cy="421.458" r="4" fill="#0" id="circle150"/>
	<circle cx="952.963" cy="770.056" r="4" fill="#0" id="circle151"/>
	<circle cx="959.419" cy="102.985" r="4" fill="#0" id="circle152"/>
	<circle cx="959.419" cy="436.521" r="4" fill="#0" id="circle153"/>
	<circle cx="963.722" cy="458.039" r="4" fill="#0" id="circle154"/>
	<circle cx="972.33" cy="759.297" r="4" fill="#0" id="circle155"/>
	<circle cx="974.482" cy="477.406" r="4" fill="#0" id="circle156"/>
	<circle cx="974.482" cy="498.924" r="4" fill="#0" id="circle157"/>
	<circle cx="985.241" cy="518.291" r="4" fill="#0" id="circle158"/>
	<circle cx="985.241" cy="716.26" r="4" fill="#0" id="circle159"/>
	<circle cx="985.241" cy="737.779" r="4" fill="#0" id="circle160"/>
	<circle cx="996" cy="537.657" r="4" fill="#0" id="circle161"/>
	<circle cx="996" cy="559.176" r="4" fill="#0" id="circle162"/>
	<circle cx="996" cy="580.694" r="4" fill="#0" id="circle163"/>
	<circle cx="996" cy="602.213" r="4" fill="#0" id="circle164"/>
	<circle cx="996" cy="623.731" r="4" fill="#0" id="circle165"/>
	<circle cx="996" cy="645.249" r="4" fill="#0" id="circle166"/>
	<circle cx="996" cy="666.768" r="4" fill="#0" id="circle167"/>
	<circle cx="996" cy="688.286" r="4" fill="#0" id="circle168"/>
	</g>
</svg>