<?xml version="1.0" encoding="UTF-8" standalone="no"?>
<!-- Created with CurveBenchmark -->
<svg
	xmlns:dc="http://purl.org/dc/elements/1.1/"
	xmlns:cc="http://creativecommons.org/ns#"
	xmlns:rdf="http://www.w3.org/1999/02/22-rdf-syntax-ns#"
	xmlns:svg="http://www.w3.org/2000/svg"
	xmlns="http://www.w3.org/2000/svg"
	xmlns:sodipodi="http://sodipodi.sourceforge.net/DTD/sodipodi-0.dtd"
	xmlns:inkscape="http://www.inkscape.org/namespaces/inkscape"
	width="1000"
	height="1000"
	id="svg2"
	version="1.1"
	sodipodi:docname="manifold/nncrust-textbox19.png.txt">
<defs
	id="defs4" />
<metadata
	id="metadata7">
	<rdf:RDF>
		<cc:Work
			rdf:about="">
			<dc:format>image/svg+xml</dc:format>
			<dc:type
				rdf:resource="http://purl.org/dc/dcmitype/StillImage" />
			<dc:title></dc:title>
		</cc:Work>
	</rdf:RDF>
</metadata>
<g
	inkscape:label="Layer 1"
	inkscape:groupmode="layer"
	id="layer1">
	<path style="fill:none;stroke:red;stroke-width:1px;stroke-linecap:butt;stroke-linejoin:miter;stroke-opacity:1" d="M 44.4073,44.4073 24.2037,44.4073 z" id="boundary" inkscape:connector-curvature="0" />
	<path style="fill:none;stroke:red;stroke-width:1px;stroke-linecap:butt;stroke-linejoin:miter;stroke-opacity:1" d="M 4,70.6721 4,50.4684 z" id="boundary" inkscape:connector-curvature="0" />
	<path style="fill:none;stroke:red;stroke-width:1px;stroke-linecap:butt;stroke-linejoin:miter;stroke-opacity:1" d="M 4,50.4684 24.2037,44.4073 z" id="boundary" inkscape:connector-curvature="0" />
	<path style="fill:none;stroke:red;stroke-width:1px;stroke-linecap:butt;stroke-linejoin:miter;stroke-opacity:1" d="M 24.2037,96.9369 4,90.8758 z" id="boundary" inkscape:connector-curvature="0" />
	<path style="fill:none;stroke:red;stroke-width:1px;stroke-linecap:butt;stroke-linejoin:miter;stroke-opacity:1" d="M 4,90.8758 4,70.6721 z" id="boundary" inkscape:connector-curvature="0" />
	<path style="fill:none;stroke:red;stroke-width:1px;stroke-linecap:butt;stroke-linejoin:miter;stroke-opacity:1" d="M 105.018,34.3055 125.222,34.3055 z" id="boundary" inkscape:connector-curvature="0" />
	<path style="fill:none;stroke:red;stroke-width:1px;stroke-linecap:butt;stroke-linejoin:miter;stroke-opacity:1" d="M 84.8147,40.3666 105.018,34.3055 z" id="boundary" inkscape:connector-curvature="0" />
	<path style="fill:none;stroke:red;stroke-width:1px;stroke-linecap:butt;stroke-linejoin:miter;stroke-opacity:1" d="M 64.611,44.4073 84.8147,40.3666 z" id="boundary" inkscape:connector-curvature="0" />
	<path style="fill:none;stroke:red;stroke-width:1px;stroke-linecap:butt;stroke-linejoin:miter;stroke-opacity:1" d="M 64.611,44.4073 44.4073,44.4073 z" id="boundary" inkscape:connector-curvature="0" />
	<path style="fill:none;stroke:red;stroke-width:1px;stroke-linecap:butt;stroke-linejoin:miter;stroke-opacity:1" d="M 145.426,34.3055 125.222,34.3055 z" id="boundary" inkscape:connector-curvature="0" />
	<path style="fill:none;stroke:red;stroke-width:1px;stroke-linecap:butt;stroke-linejoin:miter;stroke-opacity:1" d="M 24.2037,96.9369 24.2037,117.141 z" id="boundary" inkscape:connector-curvature="0" />
	<path style="fill:none;stroke:red;stroke-width:1px;stroke-linecap:butt;stroke-linejoin:miter;stroke-opacity:1" d="M 24.2037,137.344 24.2037,157.548 z" id="boundary" inkscape:connector-curvature="0" />
	<path style="fill:none;stroke:red;stroke-width:1px;stroke-linecap:butt;stroke-linejoin:miter;stroke-opacity:1" d="M 24.2037,177.752 24.2037,157.548 z" id="boundary" inkscape:connector-curvature="0" />
	<path style="fill:none;stroke:red;stroke-width:1px;stroke-linecap:butt;stroke-linejoin:miter;stroke-opacity:1" d="M 24.2037,137.344 24.2037,117.141 z" id="boundary" inkscape:connector-curvature="0" />
	<path style="fill:none;stroke:red;stroke-width:1px;stroke-linecap:butt;stroke-linejoin:miter;stroke-opacity:1" d="M 24.2037,197.955 24.2037,218.159 z" id="boundary" inkscape:connector-curvature="0" />
	<path style="fill:none;stroke:red;stroke-width:1px;stroke-linecap:butt;stroke-linejoin:miter;stroke-opacity:1" d="M 24.2037,238.363 24.2037,218.159 z" id="boundary" inkscape:connector-curvature="0" />
	<path style="fill:none;stroke:red;stroke-width:1px;stroke-linecap:butt;stroke-linejoin:miter;stroke-opacity:1" d="M 24.2037,258.566 24.2037,278.77 z" id="boundary" inkscape:connector-curvature="0" />
	<path style="fill:none;stroke:red;stroke-width:1px;stroke-linecap:butt;stroke-linejoin:miter;stroke-opacity:1" d="M 24.2037,298.974 24.2037,278.77 z" id="boundary" inkscape:connector-curvature="0" />
	<path style="fill:none;stroke:red;stroke-width:1px;stroke-linecap:butt;stroke-linejoin:miter;stroke-opacity:1" d="M 24.2037,258.566 24.2037,238.363 z" id="boundary" inkscape:connector-curvature="0" />
	<path style="fill:none;stroke:red;stroke-width:1px;stroke-linecap:butt;stroke-linejoin:miter;stroke-opacity:1" d="M 24.2037,197.955 24.2037,177.752 z" id="boundary" inkscape:connector-curvature="0" />
	<path style="fill:none;stroke:red;stroke-width:1px;stroke-linecap:butt;stroke-linejoin:miter;stroke-opacity:1" d="M 145.426,34.3055 165.629,34.3055 z" id="boundary" inkscape:connector-curvature="0" />
	<path style="fill:none;stroke:red;stroke-width:1px;stroke-linecap:butt;stroke-linejoin:miter;stroke-opacity:1" d="M 24.2037,298.974 24.2037,319.177 z" id="boundary" inkscape:connector-curvature="0" />
	<path style="fill:none;stroke:red;stroke-width:1px;stroke-linecap:butt;stroke-linejoin:miter;stroke-opacity:1" d="M 165.629,34.3055 185.833,34.3055 z" id="boundary" inkscape:connector-curvature="0" />
	<path style="fill:none;stroke:red;stroke-width:1px;stroke-linecap:butt;stroke-linejoin:miter;stroke-opacity:1" d="M 206.037,34.3055 226.24,34.3055 z" id="boundary" inkscape:connector-curvature="0" />
	<path style="fill:none;stroke:red;stroke-width:1px;stroke-linecap:butt;stroke-linejoin:miter;stroke-opacity:1" d="M 246.444,34.3055 226.24,34.3055 z" id="boundary" inkscape:connector-curvature="0" />
	<path style="fill:none;stroke:red;stroke-width:1px;stroke-linecap:butt;stroke-linejoin:miter;stroke-opacity:1" d="M 206.037,34.3055 185.833,34.3055 z" id="boundary" inkscape:connector-curvature="0" />
	<path style="fill:none;stroke:red;stroke-width:1px;stroke-linecap:butt;stroke-linejoin:miter;stroke-opacity:1" d="M 529.295,14.1018 549.499,14.1018 z" id="boundary" inkscape:connector-curvature="0" />
	<path style="fill:none;stroke:red;stroke-width:1px;stroke-linecap:butt;stroke-linejoin:miter;stroke-opacity:1" d="M 509.092,20.1629 529.295,14.1018 z" id="boundary" inkscape:connector-curvature="0" />
	<path style="fill:none;stroke:red;stroke-width:1px;stroke-linecap:butt;stroke-linejoin:miter;stroke-opacity:1" d="M 569.703,14.1018 549.499,14.1018 z" id="boundary" inkscape:connector-curvature="0" />
	<path style="fill:none;stroke:red;stroke-width:1px;stroke-linecap:butt;stroke-linejoin:miter;stroke-opacity:1" d="M 488.888,34.3055 509.092,20.1629 z" id="boundary" inkscape:connector-curvature="0" />
	<path style="fill:none;stroke:red;stroke-width:1px;stroke-linecap:butt;stroke-linejoin:miter;stroke-opacity:1" d="M 286.851,34.3055 266.648,34.3055 z" id="boundary" inkscape:connector-curvature="0" />
	<path style="fill:none;stroke:red;stroke-width:1px;stroke-linecap:butt;stroke-linejoin:miter;stroke-opacity:1" d="M 569.703,14.1018 589.906,14.1018 z" id="boundary" inkscape:connector-curvature="0" />
	<path style="fill:none;stroke:red;stroke-width:1px;stroke-linecap:butt;stroke-linejoin:miter;stroke-opacity:1" d="M 266.648,34.3055 246.444,34.3055 z" id="boundary" inkscape:connector-curvature="0" />
	<path style="fill:none;stroke:red;stroke-width:1px;stroke-linecap:butt;stroke-linejoin:miter;stroke-opacity:1" d="M 286.851,34.3055 307.055,34.3055 z" id="boundary" inkscape:connector-curvature="0" />
	<path style="fill:none;stroke:red;stroke-width:1px;stroke-linecap:butt;stroke-linejoin:miter;stroke-opacity:1" d="M 307.055,34.3055 327.259,34.3055 z" id="boundary" inkscape:connector-curvature="0" />
	<path style="fill:none;stroke:red;stroke-width:1px;stroke-linecap:butt;stroke-linejoin:miter;stroke-opacity:1" d="M 347.462,34.3055 327.259,34.3055 z" id="boundary" inkscape:connector-curvature="0" />
	<path style="fill:none;stroke:red;stroke-width:1px;stroke-linecap:butt;stroke-linejoin:miter;stroke-opacity:1" d="M 367.666,34.3055 347.462,34.3055 z" id="boundary" inkscape:connector-curvature="0" />
	<path style="fill:none;stroke:red;stroke-width:1px;stroke-linecap:butt;stroke-linejoin:miter;stroke-opacity:1" d="M 367.666,34.3055 387.87,34.3055 z" id="boundary" inkscape:connector-curvature="0" />
	<path style="fill:none;stroke:red;stroke-width:1px;stroke-linecap:butt;stroke-linejoin:miter;stroke-opacity:1" d="M 408.073,34.3055 387.87,34.3055 z" id="boundary" inkscape:connector-curvature="0" />
	<path style="fill:none;stroke:red;stroke-width:1px;stroke-linecap:butt;stroke-linejoin:miter;stroke-opacity:1" d="M 428.277,34.3055 408.073,34.3055 z" id="boundary" inkscape:connector-curvature="0" />
	<path style="fill:none;stroke:red;stroke-width:1px;stroke-linecap:butt;stroke-linejoin:miter;stroke-opacity:1" d="M 428.277,34.3055 448.481,34.3055 z" id="boundary" inkscape:connector-curvature="0" />
	<path style="fill:none;stroke:red;stroke-width:1px;stroke-linecap:butt;stroke-linejoin:miter;stroke-opacity:1" d="M 468.684,34.3055 448.481,34.3055 z" id="boundary" inkscape:connector-curvature="0" />
	<path style="fill:none;stroke:red;stroke-width:1px;stroke-linecap:butt;stroke-linejoin:miter;stroke-opacity:1" d="M 488.888,34.3055 468.684,34.3055 z" id="boundary" inkscape:connector-curvature="0" />
	<path style="fill:none;stroke:red;stroke-width:1px;stroke-linecap:butt;stroke-linejoin:miter;stroke-opacity:1" d="M 24.2037,319.177 24.2037,339.381 z" id="boundary" inkscape:connector-curvature="0" />
	<path style="fill:none;stroke:red;stroke-width:1px;stroke-linecap:butt;stroke-linejoin:miter;stroke-opacity:1" d="M 24.2037,359.585 24.2037,339.381 z" id="boundary" inkscape:connector-curvature="0" />
	<path style="fill:none;stroke:red;stroke-width:1px;stroke-linecap:butt;stroke-linejoin:miter;stroke-opacity:1" d="M 24.2037,359.585 24.2037,379.788 z" id="boundary" inkscape:connector-curvature="0" />
	<path style="fill:none;stroke:red;stroke-width:1px;stroke-linecap:butt;stroke-linejoin:miter;stroke-opacity:1" d="M 24.2037,399.992 24.2037,379.788 z" id="boundary" inkscape:connector-curvature="0" />
	<path style="fill:none;stroke:red;stroke-width:1px;stroke-linecap:butt;stroke-linejoin:miter;stroke-opacity:1" d="M 24.2037,420.196 24.2037,399.992 z" id="boundary" inkscape:connector-curvature="0" />
	<path style="fill:none;stroke:red;stroke-width:1px;stroke-linecap:butt;stroke-linejoin:miter;stroke-opacity:1" d="M 24.2037,420.196 24.2037,440.399 z" id="boundary" inkscape:connector-curvature="0" />
	<path style="fill:none;stroke:red;stroke-width:1px;stroke-linecap:butt;stroke-linejoin:miter;stroke-opacity:1" d="M 24.2037,460.603 24.2037,440.399 z" id="boundary" inkscape:connector-curvature="0" />
	<path style="fill:none;stroke:red;stroke-width:1px;stroke-linecap:butt;stroke-linejoin:miter;stroke-opacity:1" d="M 24.2037,460.603 24.2037,480.807 z" id="boundary" inkscape:connector-curvature="0" />
	<path style="fill:none;stroke:red;stroke-width:1px;stroke-linecap:butt;stroke-linejoin:miter;stroke-opacity:1" d="M 24.2037,501.01 24.2037,480.807 z" id="boundary" inkscape:connector-curvature="0" />
	<path style="fill:none;stroke:red;stroke-width:1px;stroke-linecap:butt;stroke-linejoin:miter;stroke-opacity:1" d="M 30.2648,521.214 24.2037,501.01 z" id="boundary" inkscape:connector-curvature="0" />
	<path style="fill:none;stroke:red;stroke-width:1px;stroke-linecap:butt;stroke-linejoin:miter;stroke-opacity:1" d="M 30.2648,521.214 34.3055,541.418 z" id="boundary" inkscape:connector-curvature="0" />
	<path style="fill:none;stroke:red;stroke-width:1px;stroke-linecap:butt;stroke-linejoin:miter;stroke-opacity:1" d="M 34.3055,541.418 34.3055,561.621 z" id="boundary" inkscape:connector-curvature="0" />
	<path style="fill:none;stroke:red;stroke-width:1px;stroke-linecap:butt;stroke-linejoin:miter;stroke-opacity:1" d="M 34.3055,561.621 34.3055,581.825 z" id="boundary" inkscape:connector-curvature="0" />
	<path style="fill:none;stroke:red;stroke-width:1px;stroke-linecap:butt;stroke-linejoin:miter;stroke-opacity:1" d="M 34.3055,602.029 34.3055,581.825 z" id="boundary" inkscape:connector-curvature="0" />
	<path style="fill:none;stroke:red;stroke-width:1px;stroke-linecap:butt;stroke-linejoin:miter;stroke-opacity:1" d="M 40.3666,622.232 60.5703,622.232 z" id="boundary" inkscape:connector-curvature="0" />
	<path style="fill:none;stroke:red;stroke-width:1px;stroke-linecap:butt;stroke-linejoin:miter;stroke-opacity:1" d="M 40.3666,622.232 34.3055,602.029 z" id="boundary" inkscape:connector-curvature="0" />
	<path style="fill:none;stroke:red;stroke-width:1px;stroke-linecap:butt;stroke-linejoin:miter;stroke-opacity:1" d="M 80.7739,622.232 60.5703,622.232 z" id="boundary" inkscape:connector-curvature="0" />
	<path style="fill:none;stroke:red;stroke-width:1px;stroke-linecap:butt;stroke-linejoin:miter;stroke-opacity:1" d="M 100.978,622.232 121.181,622.232 z" id="boundary" inkscape:connector-curvature="0" />
	<path style="fill:none;stroke:red;stroke-width:1px;stroke-linecap:butt;stroke-linejoin:miter;stroke-opacity:1" d="M 141.385,622.232 121.181,622.232 z" id="boundary" inkscape:connector-curvature="0" />
	<path style="fill:none;stroke:red;stroke-width:1px;stroke-linecap:butt;stroke-linejoin:miter;stroke-opacity:1" d="M 100.978,622.232 80.7739,622.232 z" id="boundary" inkscape:connector-curvature="0" />
	<path style="fill:none;stroke:red;stroke-width:1px;stroke-linecap:butt;stroke-linejoin:miter;stroke-opacity:1" d="M 199.976,612.13 220.179,612.13 z" id="boundary" inkscape:connector-curvature="0" />
	<path style="fill:none;stroke:red;stroke-width:1px;stroke-linecap:butt;stroke-linejoin:miter;stroke-opacity:1" d="M 181.792,622.232 199.976,612.13 z" id="boundary" inkscape:connector-curvature="0" />
	<path style="fill:none;stroke:red;stroke-width:1px;stroke-linecap:butt;stroke-linejoin:miter;stroke-opacity:1" d="M 240.383,612.13 260.587,612.13 z" id="boundary" inkscape:connector-curvature="0" />
	<path style="fill:none;stroke:red;stroke-width:1px;stroke-linecap:butt;stroke-linejoin:miter;stroke-opacity:1" d="M 280.79,612.13 260.587,612.13 z" id="boundary" inkscape:connector-curvature="0" />
	<path style="fill:none;stroke:red;stroke-width:1px;stroke-linecap:butt;stroke-linejoin:miter;stroke-opacity:1" d="M 240.383,612.13 220.179,612.13 z" id="boundary" inkscape:connector-curvature="0" />
	<path style="fill:none;stroke:red;stroke-width:1px;stroke-linecap:butt;stroke-linejoin:miter;stroke-opacity:1" d="M 300.994,612.13 321.198,612.13 z" id="boundary" inkscape:connector-curvature="0" />
	<path style="fill:none;stroke:red;stroke-width:1px;stroke-linecap:butt;stroke-linejoin:miter;stroke-opacity:1" d="M 341.401,612.13 361.605,612.13 z" id="boundary" inkscape:connector-curvature="0" />
	<path style="fill:none;stroke:red;stroke-width:1px;stroke-linecap:butt;stroke-linejoin:miter;stroke-opacity:1" d="M 381.809,612.13 361.605,612.13 z" id="boundary" inkscape:connector-curvature="0" />
	<path style="fill:none;stroke:red;stroke-width:1px;stroke-linecap:butt;stroke-linejoin:miter;stroke-opacity:1" d="M 341.401,612.13 321.198,612.13 z" id="boundary" inkscape:connector-curvature="0" />
	<path style="fill:none;stroke:red;stroke-width:1px;stroke-linecap:butt;stroke-linejoin:miter;stroke-opacity:1" d="M 300.994,612.13 280.79,612.13 z" id="boundary" inkscape:connector-curvature="0" />
	<path style="fill:none;stroke:red;stroke-width:1px;stroke-linecap:butt;stroke-linejoin:miter;stroke-opacity:1" d="M 402.012,612.13 422.216,612.13 z" id="boundary" inkscape:connector-curvature="0" />
	<path style="fill:none;stroke:red;stroke-width:1px;stroke-linecap:butt;stroke-linejoin:miter;stroke-opacity:1" d="M 181.792,622.232 161.589,622.232 z" id="boundary" inkscape:connector-curvature="0" />
	<path style="fill:none;stroke:red;stroke-width:1px;stroke-linecap:butt;stroke-linejoin:miter;stroke-opacity:1" d="M 422.216,612.13 442.42,612.13 z" id="boundary" inkscape:connector-curvature="0" />
	<path style="fill:none;stroke:red;stroke-width:1px;stroke-linecap:butt;stroke-linejoin:miter;stroke-opacity:1" d="M 442.42,612.13 462.623,612.13 z" id="boundary" inkscape:connector-curvature="0" />
	<path style="fill:none;stroke:red;stroke-width:1px;stroke-linecap:butt;stroke-linejoin:miter;stroke-opacity:1" d="M 381.809,612.13 402.012,612.13 z" id="boundary" inkscape:connector-curvature="0" />
	<path style="fill:none;stroke:red;stroke-width:1px;stroke-linecap:butt;stroke-linejoin:miter;stroke-opacity:1" d="M 462.623,612.13 482.827,612.13 z" id="boundary" inkscape:connector-curvature="0" />
	<path style="fill:none;stroke:red;stroke-width:1px;stroke-linecap:butt;stroke-linejoin:miter;stroke-opacity:1" d="M 503.031,612.13 482.827,612.13 z" id="boundary" inkscape:connector-curvature="0" />
	<path style="fill:none;stroke:red;stroke-width:1px;stroke-linecap:butt;stroke-linejoin:miter;stroke-opacity:1" d="M 523.234,612.13 543.438,612.13 z" id="boundary" inkscape:connector-curvature="0" />
	<path style="fill:none;stroke:red;stroke-width:1px;stroke-linecap:butt;stroke-linejoin:miter;stroke-opacity:1" d="M 563.642,612.13 543.438,612.13 z" id="boundary" inkscape:connector-curvature="0" />
	<path style="fill:none;stroke:red;stroke-width:1px;stroke-linecap:butt;stroke-linejoin:miter;stroke-opacity:1" d="M 523.234,612.13 503.031,612.13 z" id="boundary" inkscape:connector-curvature="0" />
	<path style="fill:none;stroke:red;stroke-width:1px;stroke-linecap:butt;stroke-linejoin:miter;stroke-opacity:1" d="M 563.642,612.13 583.845,612.13 z" id="boundary" inkscape:connector-curvature="0" />
	<path style="fill:none;stroke:red;stroke-width:1px;stroke-linecap:butt;stroke-linejoin:miter;stroke-opacity:1" d="M 583.845,612.13 604.049,618.191 z" id="boundary" inkscape:connector-curvature="0" />
	<path style="fill:none;stroke:red;stroke-width:1px;stroke-linecap:butt;stroke-linejoin:miter;stroke-opacity:1" d="M 161.589,622.232 141.385,622.232 z" id="boundary" inkscape:connector-curvature="0" />
	<path style="fill:none;stroke:red;stroke-width:1px;stroke-linecap:butt;stroke-linejoin:miter;stroke-opacity:1" d="M 589.906,14.1018 610.11,14.1018 z" id="boundary" inkscape:connector-curvature="0" />
	<path style="fill:none;stroke:red;stroke-width:1px;stroke-linecap:butt;stroke-linejoin:miter;stroke-opacity:1" d="M 630.314,14.1018 650.517,14.1018 z" id="boundary" inkscape:connector-curvature="0" />
	<path style="fill:none;stroke:red;stroke-width:1px;stroke-linecap:butt;stroke-linejoin:miter;stroke-opacity:1" d="M 630.314,14.1018 610.11,14.1018 z" id="boundary" inkscape:connector-curvature="0" />
	<path style="fill:none;stroke:red;stroke-width:1px;stroke-linecap:butt;stroke-linejoin:miter;stroke-opacity:1" d="M 670.721,14.1018 650.517,14.1018 z" id="boundary" inkscape:connector-curvature="0" />
	<path style="fill:none;stroke:red;stroke-width:1px;stroke-linecap:butt;stroke-linejoin:miter;stroke-opacity:1" d="M 690.925,14.1018 670.721,14.1018 z" id="boundary" inkscape:connector-curvature="0" />
	<path style="fill:none;stroke:red;stroke-width:1px;stroke-linecap:butt;stroke-linejoin:miter;stroke-opacity:1" d="M 771.739,14.1018 751.536,14.1018 z" id="boundary" inkscape:connector-curvature="0" />
	<path style="fill:none;stroke:red;stroke-width:1px;stroke-linecap:butt;stroke-linejoin:miter;stroke-opacity:1" d="M 711.128,14.1018 731.332,14.1018 z" id="boundary" inkscape:connector-curvature="0" />
	<path style="fill:none;stroke:red;stroke-width:1px;stroke-linecap:butt;stroke-linejoin:miter;stroke-opacity:1" d="M 751.536,14.1018 731.332,14.1018 z" id="boundary" inkscape:connector-curvature="0" />
	<path style="fill:none;stroke:red;stroke-width:1px;stroke-linecap:butt;stroke-linejoin:miter;stroke-opacity:1" d="M 931.348,4 951.552,4 z" id="boundary" inkscape:connector-curvature="0" />
	<path style="fill:none;stroke:red;stroke-width:1px;stroke-linecap:butt;stroke-linejoin:miter;stroke-opacity:1" d="M 951.552,4 969.735,14.1018 z" id="boundary" inkscape:connector-curvature="0" />
	<path style="fill:none;stroke:red;stroke-width:1px;stroke-linecap:butt;stroke-linejoin:miter;stroke-opacity:1" d="M 711.128,14.1018 690.925,14.1018 z" id="boundary" inkscape:connector-curvature="0" />
	<path style="fill:none;stroke:red;stroke-width:1px;stroke-linecap:butt;stroke-linejoin:miter;stroke-opacity:1" d="M 771.739,14.1018 791.943,14.1018 z" id="boundary" inkscape:connector-curvature="0" />
	<path style="fill:none;stroke:red;stroke-width:1px;stroke-linecap:butt;stroke-linejoin:miter;stroke-opacity:1" d="M 812.147,14.1018 832.35,14.1018 z" id="boundary" inkscape:connector-curvature="0" />
	<path style="fill:none;stroke:red;stroke-width:1px;stroke-linecap:butt;stroke-linejoin:miter;stroke-opacity:1" d="M 852.554,14.1018 832.35,14.1018 z" id="boundary" inkscape:connector-curvature="0" />
	<path style="fill:none;stroke:red;stroke-width:1px;stroke-linecap:butt;stroke-linejoin:miter;stroke-opacity:1" d="M 812.147,14.1018 791.943,14.1018 z" id="boundary" inkscape:connector-curvature="0" />
	<path style="fill:none;stroke:red;stroke-width:1px;stroke-linecap:butt;stroke-linejoin:miter;stroke-opacity:1" d="M 872.758,14.1018 892.961,14.1018 z" id="boundary" inkscape:connector-curvature="0" />
	<path style="fill:none;stroke:red;stroke-width:1px;stroke-linecap:butt;stroke-linejoin:miter;stroke-opacity:1" d="M 913.165,14.1018 892.961,14.1018 z" id="boundary" inkscape:connector-curvature="0" />
	<path style="fill:none;stroke:red;stroke-width:1px;stroke-linecap:butt;stroke-linejoin:miter;stroke-opacity:1" d="M 931.348,4 913.165,14.1018 z" id="boundary" inkscape:connector-curvature="0" />
	<path style="fill:none;stroke:red;stroke-width:1px;stroke-linecap:butt;stroke-linejoin:miter;stroke-opacity:1" d="M 969.735,14.1018 985.898,26.224 z" id="boundary" inkscape:connector-curvature="0" />
	<path style="fill:none;stroke:red;stroke-width:1px;stroke-linecap:butt;stroke-linejoin:miter;stroke-opacity:1" d="M 985.898,26.224 985.898,46.4277 z" id="boundary" inkscape:connector-curvature="0" />
	<path style="fill:none;stroke:red;stroke-width:1px;stroke-linecap:butt;stroke-linejoin:miter;stroke-opacity:1" d="M 852.554,14.1018 872.758,14.1018 z" id="boundary" inkscape:connector-curvature="0" />
	<path style="fill:none;stroke:red;stroke-width:1px;stroke-linecap:butt;stroke-linejoin:miter;stroke-opacity:1" d="M 985.898,46.4277 985.898,66.6314 z" id="boundary" inkscape:connector-curvature="0" />
	<path style="fill:none;stroke:red;stroke-width:1px;stroke-linecap:butt;stroke-linejoin:miter;stroke-opacity:1" d="M 985.898,66.6314 985.898,86.835 z" id="boundary" inkscape:connector-curvature="0" />
	<path style="fill:none;stroke:red;stroke-width:1px;stroke-linecap:butt;stroke-linejoin:miter;stroke-opacity:1" d="M 985.898,107.039 985.898,127.242 z" id="boundary" inkscape:connector-curvature="0" />
	<path style="fill:none;stroke:red;stroke-width:1px;stroke-linecap:butt;stroke-linejoin:miter;stroke-opacity:1" d="M 985.898,147.446 985.898,127.242 z" id="boundary" inkscape:connector-curvature="0" />
	<path style="fill:none;stroke:red;stroke-width:1px;stroke-linecap:butt;stroke-linejoin:miter;stroke-opacity:1" d="M 985.898,107.039 985.898,86.835 z" id="boundary" inkscape:connector-curvature="0" />
	<path style="fill:none;stroke:red;stroke-width:1px;stroke-linecap:butt;stroke-linejoin:miter;stroke-opacity:1" d="M 985.898,167.65 985.898,187.853 z" id="boundary" inkscape:connector-curvature="0" />
	<path style="fill:none;stroke:red;stroke-width:1px;stroke-linecap:butt;stroke-linejoin:miter;stroke-opacity:1" d="M 985.898,208.057 985.898,187.853 z" id="boundary" inkscape:connector-curvature="0" />
	<path style="fill:none;stroke:red;stroke-width:1px;stroke-linecap:butt;stroke-linejoin:miter;stroke-opacity:1" d="M 985.898,228.261 985.898,248.464 z" id="boundary" inkscape:connector-curvature="0" />
	<path style="fill:none;stroke:red;stroke-width:1px;stroke-linecap:butt;stroke-linejoin:miter;stroke-opacity:1" d="M 985.898,268.668 985.898,248.464 z" id="boundary" inkscape:connector-curvature="0" />
	<path style="fill:none;stroke:red;stroke-width:1px;stroke-linecap:butt;stroke-linejoin:miter;stroke-opacity:1" d="M 985.898,228.261 985.898,208.057 z" id="boundary" inkscape:connector-curvature="0" />
	<path style="fill:none;stroke:red;stroke-width:1px;stroke-linecap:butt;stroke-linejoin:miter;stroke-opacity:1" d="M 985.898,167.65 985.898,147.446 z" id="boundary" inkscape:connector-curvature="0" />
	<path style="fill:none;stroke:red;stroke-width:1px;stroke-linecap:butt;stroke-linejoin:miter;stroke-opacity:1" d="M 985.898,288.872 985.898,309.075 z" id="boundary" inkscape:connector-curvature="0" />
	<path style="fill:none;stroke:red;stroke-width:1px;stroke-linecap:butt;stroke-linejoin:miter;stroke-opacity:1" d="M 985.898,309.075 985.898,329.279 z" id="boundary" inkscape:connector-curvature="0" />
	<path style="fill:none;stroke:red;stroke-width:1px;stroke-linecap:butt;stroke-linejoin:miter;stroke-opacity:1" d="M 985.898,349.483 985.898,329.279 z" id="boundary" inkscape:connector-curvature="0" />
	<path style="fill:none;stroke:red;stroke-width:1px;stroke-linecap:butt;stroke-linejoin:miter;stroke-opacity:1" d="M 985.898,369.686 985.898,349.483 z" id="boundary" inkscape:connector-curvature="0" />
	<path style="fill:none;stroke:red;stroke-width:1px;stroke-linecap:butt;stroke-linejoin:miter;stroke-opacity:1" d="M 985.898,389.89 996,408.073 z" id="boundary" inkscape:connector-curvature="0" />
	<path style="fill:none;stroke:red;stroke-width:1px;stroke-linecap:butt;stroke-linejoin:miter;stroke-opacity:1" d="M 996,408.073 996,428.277 z" id="boundary" inkscape:connector-curvature="0" />
	<path style="fill:none;stroke:red;stroke-width:1px;stroke-linecap:butt;stroke-linejoin:miter;stroke-opacity:1" d="M 985.898,389.89 985.898,369.686 z" id="boundary" inkscape:connector-curvature="0" />
	<path style="fill:none;stroke:red;stroke-width:1px;stroke-linecap:butt;stroke-linejoin:miter;stroke-opacity:1" d="M 996,428.277 996,448.481 z" id="boundary" inkscape:connector-curvature="0" />
	<path style="fill:none;stroke:red;stroke-width:1px;stroke-linecap:butt;stroke-linejoin:miter;stroke-opacity:1" d="M 996,448.481 996,468.684 z" id="boundary" inkscape:connector-curvature="0" />
	<path style="fill:none;stroke:red;stroke-width:1px;stroke-linecap:butt;stroke-linejoin:miter;stroke-opacity:1" d="M 985.898,288.872 985.898,268.668 z" id="boundary" inkscape:connector-curvature="0" />
	<path style="fill:none;stroke:red;stroke-width:1px;stroke-linecap:butt;stroke-linejoin:miter;stroke-opacity:1" d="M 996,468.684 996,488.888 z" id="boundary" inkscape:connector-curvature="0" />
	<path style="fill:none;stroke:red;stroke-width:1px;stroke-linecap:butt;stroke-linejoin:miter;stroke-opacity:1" d="M 604.049,618.191 624.253,622.232 z" id="boundary" inkscape:connector-curvature="0" />
	<path style="fill:none;stroke:red;stroke-width:1px;stroke-linecap:butt;stroke-linejoin:miter;stroke-opacity:1" d="M 644.456,622.232 624.253,622.232 z" id="boundary" inkscape:connector-curvature="0" />
	<path style="fill:none;stroke:red;stroke-width:1px;stroke-linecap:butt;stroke-linejoin:miter;stroke-opacity:1" d="M 660.619,634.354 674.762,650.517 z" id="boundary" inkscape:connector-curvature="0" />
	<path style="fill:none;stroke:red;stroke-width:1px;stroke-linecap:butt;stroke-linejoin:miter;stroke-opacity:1" d="M 660.619,634.354 644.456,622.232 z" id="boundary" inkscape:connector-curvature="0" />
	<path style="fill:none;stroke:red;stroke-width:1px;stroke-linecap:butt;stroke-linejoin:miter;stroke-opacity:1" d="M 694.965,652.538 674.762,650.517 z" id="boundary" inkscape:connector-curvature="0" />
	<path style="fill:none;stroke:red;stroke-width:1px;stroke-linecap:butt;stroke-linejoin:miter;stroke-opacity:1" d="M 854.574,591.927 874.778,591.927 z" id="boundary" inkscape:connector-curvature="0" />
	<path style="fill:none;stroke:red;stroke-width:1px;stroke-linecap:butt;stroke-linejoin:miter;stroke-opacity:1" d="M 854.574,612.13 854.574,591.927 z" id="boundary" inkscape:connector-curvature="0" />
	<path style="fill:none;stroke:red;stroke-width:1px;stroke-linecap:butt;stroke-linejoin:miter;stroke-opacity:1" d="M 864.676,630.314 854.574,612.13 z" id="boundary" inkscape:connector-curvature="0" />
	<path style="fill:none;stroke:red;stroke-width:1px;stroke-linecap:butt;stroke-linejoin:miter;stroke-opacity:1" d="M 854.574,591.927 725.271,672.741 z" id="boundary" inkscape:connector-curvature="0" />
	<path style="fill:none;stroke:red;stroke-width:1px;stroke-linecap:butt;stroke-linejoin:miter;stroke-opacity:1" d="M 864.676,630.314 864.676,650.517 z" id="boundary" inkscape:connector-curvature="0" />
	<path style="fill:none;stroke:red;stroke-width:1px;stroke-linecap:butt;stroke-linejoin:miter;stroke-opacity:1" d="M 884.88,656.578 864.676,650.517 z" id="boundary" inkscape:connector-curvature="0" />
	<path style="fill:none;stroke:red;stroke-width:1px;stroke-linecap:butt;stroke-linejoin:miter;stroke-opacity:1" d="M 694.965,652.538 705.067,670.721 z" id="boundary" inkscape:connector-curvature="0" />
	<path style="fill:none;stroke:red;stroke-width:1px;stroke-linecap:butt;stroke-linejoin:miter;stroke-opacity:1" d="M 705.067,670.721 725.271,672.741 z" id="boundary" inkscape:connector-curvature="0" />
	<path style="fill:none;stroke:red;stroke-width:1px;stroke-linecap:butt;stroke-linejoin:miter;stroke-opacity:1" d="M 725.271,672.741 741.434,684.864 z" id="boundary" inkscape:connector-curvature="0" />
	<path style="fill:none;stroke:red;stroke-width:1px;stroke-linecap:butt;stroke-linejoin:miter;stroke-opacity:1" d="M 771.739,703.047 751.536,703.047 z" id="boundary" inkscape:connector-curvature="0" />
	<path style="fill:none;stroke:red;stroke-width:1px;stroke-linecap:butt;stroke-linejoin:miter;stroke-opacity:1" d="M 751.536,703.047 741.434,684.864 z" id="boundary" inkscape:connector-curvature="0" />
	<path style="fill:none;stroke:red;stroke-width:1px;stroke-linecap:butt;stroke-linejoin:miter;stroke-opacity:1" d="M 771.739,703.047 789.923,713.149 z" id="boundary" inkscape:connector-curvature="0" />
	<path style="fill:none;stroke:red;stroke-width:1px;stroke-linecap:butt;stroke-linejoin:miter;stroke-opacity:1" d="M 824.269,737.393 804.065,729.312 z" id="boundary" inkscape:connector-curvature="0" />
	<path style="fill:none;stroke:red;stroke-width:1px;stroke-linecap:butt;stroke-linejoin:miter;stroke-opacity:1" d="M 804.065,729.312 789.923,713.149 z" id="boundary" inkscape:connector-curvature="0" />
	<path style="fill:none;stroke:red;stroke-width:1px;stroke-linecap:butt;stroke-linejoin:miter;stroke-opacity:1" d="M 882.859,753.556 862.656,753.556 z" id="boundary" inkscape:connector-curvature="0" />
	<path style="fill:none;stroke:red;stroke-width:1px;stroke-linecap:butt;stroke-linejoin:miter;stroke-opacity:1" d="M 844.473,743.454 824.269,737.393 z" id="boundary" inkscape:connector-curvature="0" />
	<path style="fill:none;stroke:red;stroke-width:1px;stroke-linecap:butt;stroke-linejoin:miter;stroke-opacity:1" d="M 882.859,753.556 888.921,773.76 z" id="boundary" inkscape:connector-curvature="0" />
	<path style="fill:none;stroke:red;stroke-width:1px;stroke-linecap:butt;stroke-linejoin:miter;stroke-opacity:1" d="M 844.473,743.454 862.656,753.556 z" id="boundary" inkscape:connector-curvature="0" />
	<path style="fill:none;stroke:red;stroke-width:1px;stroke-linecap:butt;stroke-linejoin:miter;stroke-opacity:1" d="M 874.778,591.927 894.982,591.927 z" id="boundary" inkscape:connector-curvature="0" />
	<path style="fill:none;stroke:red;stroke-width:1px;stroke-linecap:butt;stroke-linejoin:miter;stroke-opacity:1" d="M 894.982,591.927 915.185,591.927 z" id="boundary" inkscape:connector-curvature="0" />
	<path style="fill:none;stroke:red;stroke-width:1px;stroke-linecap:butt;stroke-linejoin:miter;stroke-opacity:1" d="M 892.961,676.782 884.88,656.578 z" id="boundary" inkscape:connector-curvature="0" />
	<path style="fill:none;stroke:red;stroke-width:1px;stroke-linecap:butt;stroke-linejoin:miter;stroke-opacity:1" d="M 915.185,591.927 935.389,591.927 z" id="boundary" inkscape:connector-curvature="0" />
	<path style="fill:none;stroke:red;stroke-width:1px;stroke-linecap:butt;stroke-linejoin:miter;stroke-opacity:1" d="M 935.389,591.927 955.593,591.927 z" id="boundary" inkscape:connector-curvature="0" />
	<path style="fill:none;stroke:red;stroke-width:1px;stroke-linecap:butt;stroke-linejoin:miter;stroke-opacity:1" d="M 892.961,676.782 894.982,696.986 z" id="boundary" inkscape:connector-curvature="0" />
	<path style="fill:none;stroke:red;stroke-width:1px;stroke-linecap:butt;stroke-linejoin:miter;stroke-opacity:1" d="M 996,529.295 996,549.499 z" id="boundary" inkscape:connector-curvature="0" />
	<path style="fill:none;stroke:red;stroke-width:1px;stroke-linecap:butt;stroke-linejoin:miter;stroke-opacity:1" d="M 996,569.703 975.796,591.927 z" id="boundary" inkscape:connector-curvature="0" />
	<path style="fill:none;stroke:red;stroke-width:1px;stroke-linecap:butt;stroke-linejoin:miter;stroke-opacity:1" d="M 975.796,591.927 955.593,591.927 z" id="boundary" inkscape:connector-curvature="0" />
	<path style="fill:none;stroke:red;stroke-width:1px;stroke-linecap:butt;stroke-linejoin:miter;stroke-opacity:1" d="M 996,549.499 996,569.703 z" id="boundary" inkscape:connector-curvature="0" />
	<path style="fill:none;stroke:red;stroke-width:1px;stroke-linecap:butt;stroke-linejoin:miter;stroke-opacity:1" d="M 996,509.092 996,529.295 z" id="boundary" inkscape:connector-curvature="0" />
	<path style="fill:none;stroke:red;stroke-width:1px;stroke-linecap:butt;stroke-linejoin:miter;stroke-opacity:1" d="M 911.145,711.128 925.287,727.291 z" id="boundary" inkscape:connector-curvature="0" />
	<path style="fill:none;stroke:red;stroke-width:1px;stroke-linecap:butt;stroke-linejoin:miter;stroke-opacity:1" d="M 911.145,711.128 894.982,696.986 z" id="boundary" inkscape:connector-curvature="0" />
	<path style="fill:none;stroke:red;stroke-width:1px;stroke-linecap:butt;stroke-linejoin:miter;stroke-opacity:1" d="M 888.921,773.76 907.104,783.862 z" id="boundary" inkscape:connector-curvature="0" />
	<path style="fill:none;stroke:red;stroke-width:1px;stroke-linecap:butt;stroke-linejoin:miter;stroke-opacity:1" d="M 907.104,783.862 923.267,795.984 z" id="boundary" inkscape:connector-curvature="0" />
	<path style="fill:none;stroke:red;stroke-width:1px;stroke-linecap:butt;stroke-linejoin:miter;stroke-opacity:1" d="M 925.287,727.291 935.389,745.475 z" id="boundary" inkscape:connector-curvature="0" />
	<path style="fill:none;stroke:red;stroke-width:1px;stroke-linecap:butt;stroke-linejoin:miter;stroke-opacity:1" d="M 953.572,755.576 935.389,745.475 z" id="boundary" inkscape:connector-curvature="0" />
	<path style="fill:none;stroke:red;stroke-width:1px;stroke-linecap:butt;stroke-linejoin:miter;stroke-opacity:1" d="M 953.572,755.576 955.593,775.78 z" id="boundary" inkscape:connector-curvature="0" />
	<path style="fill:none;stroke:red;stroke-width:1px;stroke-linecap:butt;stroke-linejoin:miter;stroke-opacity:1" d="M 943.47,804.065 955.593,775.78 z" id="boundary" inkscape:connector-curvature="0" />
	<path style="fill:none;stroke:red;stroke-width:1px;stroke-linecap:butt;stroke-linejoin:miter;stroke-opacity:1" d="M 963.674,808.106 943.47,804.065 z" id="boundary" inkscape:connector-curvature="0" />
	<path style="fill:none;stroke:red;stroke-width:1px;stroke-linecap:butt;stroke-linejoin:miter;stroke-opacity:1" d="M 943.47,804.065 923.267,795.984 z" id="boundary" inkscape:connector-curvature="0" />
	<path style="fill:none;stroke:red;stroke-width:1px;stroke-linecap:butt;stroke-linejoin:miter;stroke-opacity:1" d="M 996,488.888 996,509.092 z" id="boundary" inkscape:connector-curvature="0" />
	<circle cx="4" cy="50.4684" r="4" fill="#0" id="circle0"/>
	<circle cx="4" cy="70.6721" r="4" fill="#0" id="circle1"/>
	<circle cx="4" cy="90.8758" r="4" fill="#0" id="circle2"/>
	<circle cx="24.2037" cy="44.4073" r="4" fill="#0" id="circle3"/>
	<circle cx="24.2037" cy="96.9369" r="4" fill="#0" id="circle4"/>
	<circle cx="24.2037" cy="117.141" r="4" fill="#0" id="circle5"/>
	<circle cx="24.2037" cy="137.344" r="4" fill="#0" id="circle6"/>
	<circle cx="24.2037" cy="157.548" r="4" fill="#0" id="circle7"/>
	<circle cx="24.2037" cy="177.752" r="4" fill="#0" id="circle8"/>
	<circle cx="24.2037" cy="197.955" r="4" fill="#0" id="circle9"/>
	<circle cx="24.2037" cy="218.159" r="4" fill="#0" id="circle10"/>
	<circle cx="24.2037" cy="238.363" r="4" fill="#0" id="circle11"/>
	<circle cx="24.2037" cy="258.566" r="4" fill="#0" id="circle12"/>
	<circle cx="24.2037" cy="278.77" r="4" fill="#0" id="circle13"/>
	<circle cx="24.2037" cy="298.974" r="4" fill="#0" id="circle14"/>
	<circle cx="24.2037" cy="319.177" r="4" fill="#0" id="circle15"/>
	<circle cx="24.2037" cy="339.381" r="4" fill="#0" id="circle16"/>
	<circle cx="24.2037" cy="359.585" r="4" fill="#0" id="circle17"/>
	<circle cx="24.2037" cy="379.788" r="4" fill="#0" id="circle18"/>
	<circle cx="24.2037" cy="399.992" r="4" fill="#0" id="circle19"/>
	<circle cx="24.2037" cy="420.196" r="4" fill="#0" id="circle20"/>
	<circle cx="24.2037" cy="440.399" r="4" fill="#0" id="circle21"/>
	<circle cx="24.2037" cy="460.603" r="4" fill="#0" id="circle22"/>
	<circle cx="24.2037" cy="480.807" r="4" fill="#0" id="circle23"/>
	<circle cx="24.2037" cy="501.01" r="4" fill="#0" id="circle24"/>
	<circle cx="30.2648" cy="521.214" r="4" fill="#0" id="circle25"/>
	<circle cx="34.3055" cy="541.418" r="4" fill="#0" id="circle26"/>
	<circle cx="34.3055" cy="561.621" r="4" fill="#0" id="circle27"/>
	<circle cx="34.3055" cy="581.825" r="4" fill="#0" id="circle28"/>
	<circle cx="34.3055" cy="602.029" r="4" fill="#0" id="circle29"/>
	<circle cx="40.3666" cy="622.232" r="4" fill="#0" id="circle30"/>
	<circle cx="44.4073" cy="44.4073" r="4" fill="#0" id="circle31"/>
	<circle cx="60.5703" cy="622.232" r="4" fill="#0" id="circle32"/>
	<circle cx="64.611" cy="44.4073" r="4" fill="#0" id="circle33"/>
	<circle cx="80.7739" cy="622.232" r="4" fill="#0" id="circle34"/>
	<circle cx="84.8147" cy="40.3666" r="4" fill="#0" id="circle35"/>
	<circle cx="100.978" cy="622.232" r="4" fill="#0" id="circle36"/>
	<circle cx="105.018" cy="34.3055" r="4" fill="#0" id="circle37"/>
	<circle cx="121.181" cy="622.232" r="4" fill="#0" id="circle38"/>
	<circle cx="125.222" cy="34.3055" r="4" fill="#0" id="circle39"/>
	<circle cx="141.385" cy="622.232" r="4" fill="#0" id="circle40"/>
	<circle cx="145.426" cy="34.3055" r="4" fill="#0" id="circle41"/>
	<circle cx="161.589" cy="622.232" r="4" fill="#0" id="circle42"/>
	<circle cx="165.629" cy="34.3055" r="4" fill="#0" id="circle43"/>
	<circle cx="181.792" cy="622.232" r="4" fill="#0" id="circle44"/>
	<circle cx="185.833" cy="34.3055" r="4" fill="#0" id="circle45"/>
	<circle cx="199.976" cy="612.13" r="4" fill="#0" id="circle46"/>
	<circle cx="206.037" cy="34.3055" r="4" fill="#0" id="circle47"/>
	<circle cx="220.179" cy="612.13" r="4" fill="#0" id="circle48"/>
	<circle cx="226.24" cy="34.3055" r="4" fill="#0" id="circle49"/>
	<circle cx="240.383" cy="612.13" r="4" fill="#0" id="circle50"/>
	<circle cx="246.444" cy="34.3055" r="4" fill="#0" id="circle51"/>
	<circle cx="260.587" cy="612.13" r="4" fill="#0" id="circle52"/>
	<circle cx="266.648" cy="34.3055" r="4" fill="#0" id="circle53"/>
	<circle cx="280.79" cy="612.13" r="4" fill="#0" id="circle54"/>
	<circle cx="286.851" cy="34.3055" r="4" fill="#0" id="circle55"/>
	<circle cx="300.994" cy="612.13" r="4" fill="#0" id="circle56"/>
	<circle cx="307.055" cy="34.3055" r="4" fill="#0" id="circle57"/>
	<circle cx="321.198" cy="612.13" r="4" fill="#0" id="circle58"/>
	<circle cx="327.259" cy="34.3055" r="4" fill="#0" id="circle59"/>
	<circle cx="341.401" cy="612.13" r="4" fill="#0" id="circle60"/>
	<circle cx="347.462" cy="34.3055" r="4" fill="#0" id="circle61"/>
	<circle cx="361.605" cy="612.13" r="4" fill="#0" id="circle62"/>
	<circle cx="367.666" cy="34.3055" r="4" fill="#0" id="circle63"/>
	<circle cx="381.809" cy="612.13" r="4" fill="#0" id="circle64"/>
	<circle cx="387.87" cy="34.3055" r="4" fill="#0" id="circle65"/>
	<circle cx="402.012" cy="612.13" r="4" fill="#0" id="circle66"/>
	<circle cx="408.073" cy="34.3055" r="4" fill="#0" id="circle67"/>
	<circle cx="422.216" cy="612.13" r="4" fill="#0" id="circle68"/>
	<circle cx="428.277" cy="34.3055" r="4" fill="#0" id="circle69"/>
	<circle cx="442.42" cy="612.13" r="4" fill="#0" id="circle70"/>
	<circle cx="448.481" cy="34.3055" r="4" fill="#0" id="circle71"/>
	<circle cx="462.623" cy="612.13" r="4" fill="#0" id="circle72"/>
	<circle cx="468.684" cy="34.3055" r="4" fill="#0" id="circle73"/>
	<circle cx="482.827" cy="612.13" r="4" fill="#0" id="circle74"/>
	<circle cx="488.888" cy="34.3055" r="4" fill="#0" id="circle75"/>
	<circle cx="503.031" cy="612.13" r="4" fill="#0" id="circle76"/>
	<circle cx="509.092" cy="20.1629" r="4" fill="#0" id="circle77"/>
	<circle cx="523.234" cy="612.13" r="4" fill="#0" id="circle78"/>
	<circle cx="529.295" cy="14.1018" r="4" fill="#0" id="circle79"/>
	<circle cx="543.438" cy="612.13" r="4" fill="#0" id="circle80"/>
	<circle cx="549.499" cy="14.1018" r="4" fill="#0" id="circle81"/>
	<circle cx="563.642" cy="612.13" r="4" fill="#0" id="circle82"/>
	<circle cx="569.703" cy="14.1018" r="4" fill="#0" id="circle83"/>
	<circle cx="583.845" cy="612.13" r="4" fill="#0" id="circle84"/>
	<circle cx="589.906" cy="14.1018" r="4" fill="#0" id="circle85"/>
	<circle cx="604.049" cy="618.191" r="4" fill="#0" id="circle86"/>
	<circle cx="610.11" cy="14.1018" r="4" fill="#0" id="circle87"/>
	<circle cx="624.253" cy="622.232" r="4" fill="#0" id="circle88"/>
	<circle cx="630.314" cy="14.1018" r="4" fill="#0" id="circle89"/>
	<circle cx="644.456" cy="622.232" r="4" fill="#0" id="circle90"/>
	<circle cx="650.517" cy="14.1018" r="4" fill="#0" id="circle91"/>
	<circle cx="660.619" cy="634.354" r="4" fill="#0" id="circle92"/>
	<circle cx="670.721" cy="14.1018" r="4" fill="#0" id="circle93"/>
	<circle cx="674.762" cy="650.517" r="4" fill="#0" id="circle94"/>
	<circle cx="690.925" cy="14.1018" r="4" fill="#0" id="circle95"/>
	<circle cx="694.965" cy="652.538" r="4" fill="#0" id="circle96"/>
	<circle cx="705.067" cy="670.721" r="4" fill="#0" id="circle97"/>
	<circle cx="711.128" cy="14.1018" r="4" fill="#0" id="circle98"/>
	<circle cx="725.271" cy="672.741" r="4" fill="#0" id="circle99"/>
	<circle cx="731.332" cy="14.1018" r="4" fill="#0" id="circle100"/>
	<circle cx="741.434" cy="684.864" r="4" fill="#0" id="circle101"/>
	<circle cx="751.536" cy="14.1018" r="4" fill="#0" id="circle102"/>
	<circle cx="751.536" cy="703.047" r="4" fill="#0" id="circle103"/>
	<circle cx="771.739" cy="14.1018" r="4" fill="#0" id="circle104"/>
	<circle cx="771.739" cy="703.047" r="4" fill="#0" id="circle105"/>
	<circle cx="789.923" cy="713.149" r="4" fill="#0" id="circle106"/>
	<circle cx="791.943" cy="14.1018" r="4" fill="#0" id="circle107"/>
	<circle cx="804.065" cy="729.312" r="4" fill="#0" id="circle108"/>
	<circle cx="812.147" cy="14.1018" r="4" fill="#0" id="circle109"/>
	<circle cx="824.269" cy="737.393" r="4" fill="#0" id="circle110"/>
	<circle cx="832.35" cy="14.1018" r="4" fill="#0" id="circle111"/>
	<circle cx="844.473" cy="743.454" r="4" fill="#0" id="circle112"/>
	<circle cx="852.554" cy="14.1018" r="4" fill="#0" id="circle113"/>
	<circle cx="854.574" cy="591.927" r="4" fill="#0" id="circle114"/>
	<circle cx="854.574" cy="612.13" r="4" fill="#0" id="circle115"/>
	<circle cx="862.656" cy="753.556" r="4" fill="#0" id="circle116"/>
	<circle cx="864.676" cy="630.314" r="4" fill="#0" id="circle117"/>
	<circle cx="864.676" cy="650.517" r="4" fill="#0" id="circle118"/>
	<circle cx="872.758" cy="14.1018" r="4" fill="#0" id="circle119"/>
	<circle cx="874.778" cy="591.927" r="4" fill="#0" id="circle120"/>
	<circle cx="882.859" cy="753.556" r="4" fill="#0" id="circle121"/>
	<circle cx="884.88" cy="656.578" r="4" fill="#0" id="circle122"/>
	<circle cx="888.921" cy="773.76" r="4" fill="#0" id="circle123"/>
	<circle cx="892.961" cy="14.1018" r="4" fill="#0" id="circle124"/>
	<circle cx="892.961" cy="676.782" r="4" fill="#0" id="circle125"/>
	<circle cx="894.982" cy="591.927" r="4" fill="#0" id="circle126"/>
	<circle cx="894.982" cy="696.986" r="4" fill="#0" id="circle127"/>
	<circle cx="907.104" cy="783.862" r="4" fill="#0" id="circle128"/>
	<circle cx="911.145" cy="711.128" r="4" fill="#0" id="circle129"/>
	<circle cx="913.165" cy="14.1018" r="4" fill="#0" id="circle130"/>
	<circle cx="915.185" cy="591.927" r="4" fill="#0" id="circle131"/>
	<circle cx="923.267" cy="795.984" r="4" fill="#0" id="circle132"/>
	<circle cx="925.287" cy="727.291" r="4" fill="#0" id="circle133"/>
	<circle cx="931.348" cy="4" r="4" fill="#0" id="circle134"/>
	<circle cx="935.389" cy="591.927" r="4" fill="#0" id="circle135"/>
	<circle cx="935.389" cy="745.475" r="4" fill="#0" id="circle136"/>
	<circle cx="943.47" cy="804.065" r="4" fill="#0" id="circle137"/>
	<circle cx="951.552" cy="4" r="4" fill="#0" id="circle138"/>
	<circle cx="953.572" cy="755.576" r="4" fill="#0" id="circle139"/>
	<circle cx="955.593" cy="591.927" r="4" fill="#0" id="circle140"/>
	<circle cx="955.593" cy="775.78" r="4" fill="#0" id="circle141"/>
	<circle cx="963.674" cy="808.106" r="4" fill="#0" id="circle142"/>
	<circle cx="969.735" cy="14.1018" r="4" fill="#0" id="circle143"/>
	<circle cx="975.796" cy="591.927" r="4" fill="#0" id="circle144"/>
	<circle cx="985.898" cy="26.224" r="4" fill="#0" id="circle145"/>
	<circle cx="985.898" cy="46.4277" r="4" fill="#0" id="circle146"/>
	<circle cx="985.898" cy="66.6314" r="4" fill="#0" id="circle147"/>
	<circle cx="985.898" cy="86.835" r="4" fill="#0" id="circle148"/>
	<circle cx="985.898" cy="107.039" r="4" fill="#0" id="circle149"/>
	<circle cx="985.898" cy="127.242" r="4" fill="#0" id="circle150"/>
	<circle cx="985.898" cy="147.446" r="4" fill="#0" id="circle151"/>
	<circle cx="985.898" cy="167.65" r="4" fill="#0" id="circle152"/>
	<circle cx="985.898" cy="187.853" r="4" fill="#0" id="circle153"/>
	<circle cx="985.898" cy="208.057" r="4" fill="#0" id="circle154"/>
	<circle cx="985.898" cy="228.261" r="4" fill="#0" id="circle155"/>
	<circle cx="985.898" cy="248.464" r="4" fill="#0" id="circle156"/>
	<circle cx="985.898" cy="268.668" r="4" fill="#0" id="circle157"/>
	<circle cx="985.898" cy="288.872" r="4" fill="#0" id="circle158"/>
	<circle cx="985.898" cy="309.075" r="4" fill="#0" id="circle159"/>
	<circle cx="985.898" cy="329.279" r="4" fill="#0" id="circle160"/>
	<circle cx="985.898" cy="349.483" r="4" fill="#0" id="circle161"/>
	<circle cx="985.898" cy="369.686" r="4" fill="#0" id="circle162"/>
	<circle cx="985.898" cy="389.89" r="4" fill="#0" id="circle163"/>
	<circle cx="996" cy="408.073" r="4" fill="#0" id="circle164"/>
	<circle cx="996" cy="428.277" r="4" fill="#0" id="circle165"/>
	<circle cx="996" cy="448.481" r="4" fill="#0" id="circle166"/>
	<circle cx="996" cy="468.684" r="4" fill="#0" id="circle167"/>
	<circle cx="996" cy="488.888" r="4" fill="#0" id="circle168"/>
	<circle cx="996" cy="509.092" r="4" fill="#0" id="circle169"/>
	<circle cx="996" cy="529.295" r="4" fill="#0" id="circle170"/>
	<circle cx="996" cy="549.499" r="4" fill="#0" id="circle171"/>
	<circle cx="996" cy="569.703" r="4" fill="#0" id="circle172"/>
	</g>
</svg>