<?xml version="1.0" encoding="UTF-8" standalone="no"?>
<!-- Created with CurveBenchmark -->
<svg
	xmlns:dc="http://purl.org/dc/elements/1.1/"
	xmlns:cc="http://creativecommons.org/ns#"
	xmlns:rdf="http://www.w3.org/1999/02/22-rdf-syntax-ns#"
	xmlns:svg="http://www.w3.org/2000/svg"
	xmlns="http://www.w3.org/2000/svg"
	xmlns:sodipodi="http://sodipodi.sourceforge.net/DTD/sodipodi-0.dtd"
	xmlns:inkscape="http://www.inkscape.org/namespaces/inkscape"
	width="1000"
	height="1000"
	id="svg2"
	version="1.1"
	sodipodi:docname="manifold/nncrust-Glas13.png.txt">
<defs
	id="defs4" />
<metadata
	id="metadata7">
	<rdf:RDF>
		<cc:Work
			rdf:about="">
			<dc:format>image/svg+xml</dc:format>
			<dc:type
				rdf:resource="http://purl.org/dc/dcmitype/StillImage" />
			<dc:title></dc:title>
		</cc:Work>
	</rdf:RDF>
</metadata>
<g
	inkscape:label="Layer 1"
	inkscape:groupmode="layer"
	id="layer1">
	<path style="fill:none;stroke:red;stroke-width:1px;stroke-linecap:butt;stroke-linejoin:miter;stroke-opacity:1" d="M 4,31.974 4,10.4555 z" id="boundary" inkscape:connector-curvature="0" />
	<path style="fill:none;stroke:red;stroke-width:1px;stroke-linecap:butt;stroke-linejoin:miter;stroke-opacity:1" d="M 4,10.4555 25.5184,4 z" id="boundary" inkscape:connector-curvature="0" />
	<path style="fill:none;stroke:red;stroke-width:1px;stroke-linecap:butt;stroke-linejoin:miter;stroke-opacity:1" d="M 4,53.4924 4,31.974 z" id="boundary" inkscape:connector-curvature="0" />
	<path style="fill:none;stroke:red;stroke-width:1px;stroke-linecap:butt;stroke-linejoin:miter;stroke-opacity:1" d="M 4,96.5293 4,75.0108 z" id="boundary" inkscape:connector-curvature="0" />
	<path style="fill:none;stroke:red;stroke-width:1px;stroke-linecap:butt;stroke-linejoin:miter;stroke-opacity:1" d="M 4,118.048 4,96.5293 z" id="boundary" inkscape:connector-curvature="0" />
	<path style="fill:none;stroke:red;stroke-width:1px;stroke-linecap:butt;stroke-linejoin:miter;stroke-opacity:1" d="M 4,75.0108 4,53.4924 z" id="boundary" inkscape:connector-curvature="0" />
	<path style="fill:none;stroke:red;stroke-width:1px;stroke-linecap:butt;stroke-linejoin:miter;stroke-opacity:1" d="M 25.5184,4 47.0369,4 z" id="boundary" inkscape:connector-curvature="0" />
	<path style="fill:none;stroke:red;stroke-width:1px;stroke-linecap:butt;stroke-linejoin:miter;stroke-opacity:1" d="M 47.0369,4 68.5553,4 z" id="boundary" inkscape:connector-curvature="0" />
	<path style="fill:none;stroke:red;stroke-width:1px;stroke-linecap:butt;stroke-linejoin:miter;stroke-opacity:1" d="M 90.0738,4 111.592,4 z" id="boundary" inkscape:connector-curvature="0" />
	<path style="fill:none;stroke:red;stroke-width:1px;stroke-linecap:butt;stroke-linejoin:miter;stroke-opacity:1" d="M 111.592,4 133.111,4 z" id="boundary" inkscape:connector-curvature="0" />
	<path style="fill:none;stroke:red;stroke-width:1px;stroke-linecap:butt;stroke-linejoin:miter;stroke-opacity:1" d="M 68.5553,4 90.0738,4 z" id="boundary" inkscape:connector-curvature="0" />
	<path style="fill:none;stroke:red;stroke-width:1px;stroke-linecap:butt;stroke-linejoin:miter;stroke-opacity:1" d="M 14.7592,180.451 4,161.085 z" id="boundary" inkscape:connector-curvature="0" />
	<path style="fill:none;stroke:red;stroke-width:1px;stroke-linecap:butt;stroke-linejoin:miter;stroke-opacity:1" d="M 4,161.085 4,139.566 z" id="boundary" inkscape:connector-curvature="0" />
	<path style="fill:none;stroke:red;stroke-width:1px;stroke-linecap:butt;stroke-linejoin:miter;stroke-opacity:1" d="M 4,139.566 4,118.048 z" id="boundary" inkscape:connector-curvature="0" />
	<path style="fill:none;stroke:red;stroke-width:1px;stroke-linecap:butt;stroke-linejoin:miter;stroke-opacity:1" d="M 14.7592,180.451 14.7592,201.97 z" id="boundary" inkscape:connector-curvature="0" />
	<path style="fill:none;stroke:red;stroke-width:1px;stroke-linecap:butt;stroke-linejoin:miter;stroke-opacity:1" d="M 25.5184,242.855 14.7592,223.488 z" id="boundary" inkscape:connector-curvature="0" />
	<path style="fill:none;stroke:red;stroke-width:1px;stroke-linecap:butt;stroke-linejoin:miter;stroke-opacity:1" d="M 14.7592,223.488 14.7592,201.97 z" id="boundary" inkscape:connector-curvature="0" />
	<path style="fill:none;stroke:red;stroke-width:1px;stroke-linecap:butt;stroke-linejoin:miter;stroke-opacity:1" d="M 38.4295,260.069 25.5184,242.855 z" id="boundary" inkscape:connector-curvature="0" />
	<path style="fill:none;stroke:red;stroke-width:1px;stroke-linecap:butt;stroke-linejoin:miter;stroke-opacity:1" d="M 55.6443,275.132 38.4295,260.069 z" id="boundary" inkscape:connector-curvature="0" />
	<path style="fill:none;stroke:red;stroke-width:1px;stroke-linecap:butt;stroke-linejoin:miter;stroke-opacity:1" d="M 75.0108,285.892 55.6443,275.132 z" id="boundary" inkscape:connector-curvature="0" />
	<path style="fill:none;stroke:red;stroke-width:1px;stroke-linecap:butt;stroke-linejoin:miter;stroke-opacity:1" d="M 75.0108,285.892 92.2256,300.954 z" id="boundary" inkscape:connector-curvature="0" />
	<path style="fill:none;stroke:red;stroke-width:1px;stroke-linecap:butt;stroke-linejoin:miter;stroke-opacity:1" d="M 92.2256,300.954 107.289,318.169 z" id="boundary" inkscape:connector-curvature="0" />
	<path style="fill:none;stroke:red;stroke-width:1px;stroke-linecap:butt;stroke-linejoin:miter;stroke-opacity:1" d="M 128.807,326.777 107.289,318.169 z" id="boundary" inkscape:connector-curvature="0" />
	<path style="fill:none;stroke:red;stroke-width:1px;stroke-linecap:butt;stroke-linejoin:miter;stroke-opacity:1" d="M 128.807,326.777 146.022,339.688 z" id="boundary" inkscape:connector-curvature="0" />
	<path style="fill:none;stroke:red;stroke-width:1px;stroke-linecap:butt;stroke-linejoin:miter;stroke-opacity:1" d="M 133.111,4 154.629,4 z" id="boundary" inkscape:connector-curvature="0" />
	<path style="fill:none;stroke:red;stroke-width:1px;stroke-linecap:butt;stroke-linejoin:miter;stroke-opacity:1" d="M 176.148,4 197.666,4 z" id="boundary" inkscape:connector-curvature="0" />
	<path style="fill:none;stroke:red;stroke-width:1px;stroke-linecap:butt;stroke-linejoin:miter;stroke-opacity:1" d="M 197.666,4 219.184,4 z" id="boundary" inkscape:connector-curvature="0" />
	<path style="fill:none;stroke:red;stroke-width:1px;stroke-linecap:butt;stroke-linejoin:miter;stroke-opacity:1" d="M 240.703,4 262.221,4 z" id="boundary" inkscape:connector-curvature="0" />
	<path style="fill:none;stroke:red;stroke-width:1px;stroke-linecap:butt;stroke-linejoin:miter;stroke-opacity:1" d="M 219.184,4 240.703,4 z" id="boundary" inkscape:connector-curvature="0" />
	<path style="fill:none;stroke:red;stroke-width:1px;stroke-linecap:butt;stroke-linejoin:miter;stroke-opacity:1" d="M 283.74,4 305.258,4 z" id="boundary" inkscape:connector-curvature="0" />
	<path style="fill:none;stroke:red;stroke-width:1px;stroke-linecap:butt;stroke-linejoin:miter;stroke-opacity:1" d="M 305.258,4 326.777,4 z" id="boundary" inkscape:connector-curvature="0" />
	<path style="fill:none;stroke:red;stroke-width:1px;stroke-linecap:butt;stroke-linejoin:miter;stroke-opacity:1" d="M 348.295,4 369.813,4 z" id="boundary" inkscape:connector-curvature="0" />
	<path style="fill:none;stroke:red;stroke-width:1px;stroke-linecap:butt;stroke-linejoin:miter;stroke-opacity:1" d="M 369.813,4 391.332,4 z" id="boundary" inkscape:connector-curvature="0" />
	<path style="fill:none;stroke:red;stroke-width:1px;stroke-linecap:butt;stroke-linejoin:miter;stroke-opacity:1" d="M 326.777,4 348.295,4 z" id="boundary" inkscape:connector-curvature="0" />
	<path style="fill:none;stroke:red;stroke-width:1px;stroke-linecap:butt;stroke-linejoin:miter;stroke-opacity:1" d="M 262.221,4 283.74,4 z" id="boundary" inkscape:connector-curvature="0" />
	<path style="fill:none;stroke:red;stroke-width:1px;stroke-linecap:butt;stroke-linejoin:miter;stroke-opacity:1" d="M 206.273,361.206 184.755,361.206 z" id="boundary" inkscape:connector-curvature="0" />
	<path style="fill:none;stroke:red;stroke-width:1px;stroke-linecap:butt;stroke-linejoin:miter;stroke-opacity:1" d="M 184.755,361.206 165.388,350.447 z" id="boundary" inkscape:connector-curvature="0" />
	<path style="fill:none;stroke:red;stroke-width:1px;stroke-linecap:butt;stroke-linejoin:miter;stroke-opacity:1" d="M 227.792,361.206 206.273,361.206 z" id="boundary" inkscape:connector-curvature="0" />
	<path style="fill:none;stroke:red;stroke-width:1px;stroke-linecap:butt;stroke-linejoin:miter;stroke-opacity:1" d="M 268.677,380.573 247.158,371.965 z" id="boundary" inkscape:connector-curvature="0" />
	<path style="fill:none;stroke:red;stroke-width:1px;stroke-linecap:butt;stroke-linejoin:miter;stroke-opacity:1" d="M 247.158,371.965 227.792,361.206 z" id="boundary" inkscape:connector-curvature="0" />
	<path style="fill:none;stroke:red;stroke-width:1px;stroke-linecap:butt;stroke-linejoin:miter;stroke-opacity:1" d="M 165.388,350.447 146.022,339.688 z" id="boundary" inkscape:connector-curvature="0" />
	<path style="fill:none;stroke:red;stroke-width:1px;stroke-linecap:butt;stroke-linejoin:miter;stroke-opacity:1" d="M 309.562,393.484 288.043,391.332 z" id="boundary" inkscape:connector-curvature="0" />
	<path style="fill:none;stroke:red;stroke-width:1px;stroke-linecap:butt;stroke-linejoin:miter;stroke-opacity:1" d="M 288.043,391.332 268.677,380.573 z" id="boundary" inkscape:connector-curvature="0" />
	<path style="fill:none;stroke:red;stroke-width:1px;stroke-linecap:butt;stroke-linejoin:miter;stroke-opacity:1" d="M 331.08,393.484 309.562,393.484 z" id="boundary" inkscape:connector-curvature="0" />
	<path style="fill:none;stroke:red;stroke-width:1px;stroke-linecap:butt;stroke-linejoin:miter;stroke-opacity:1" d="M 354.751,455.887 343.991,477.406 z" id="boundary" inkscape:connector-curvature="0" />
	<path style="fill:none;stroke:red;stroke-width:1px;stroke-linecap:butt;stroke-linejoin:miter;stroke-opacity:1" d="M 331.08,393.484 350.447,404.243 z" id="boundary" inkscape:connector-curvature="0" />
	<path style="fill:none;stroke:red;stroke-width:1px;stroke-linecap:butt;stroke-linejoin:miter;stroke-opacity:1" d="M 365.51,434.369 354.751,455.887 z" id="boundary" inkscape:connector-curvature="0" />
	<path style="fill:none;stroke:red;stroke-width:1px;stroke-linecap:butt;stroke-linejoin:miter;stroke-opacity:1" d="M 350.447,404.243 365.51,434.369 z" id="boundary" inkscape:connector-curvature="0" />
	<path style="fill:none;stroke:red;stroke-width:1px;stroke-linecap:butt;stroke-linejoin:miter;stroke-opacity:1" d="M 333.232,498.924 343.991,477.406 z" id="boundary" inkscape:connector-curvature="0" />
	<path style="fill:none;stroke:red;stroke-width:1px;stroke-linecap:butt;stroke-linejoin:miter;stroke-opacity:1" d="M 154.629,4 176.148,4 z" id="boundary" inkscape:connector-curvature="0" />
	<path style="fill:none;stroke:red;stroke-width:1px;stroke-linecap:butt;stroke-linejoin:miter;stroke-opacity:1" d="M 158.933,940.052 178.299,929.293 z" id="boundary" inkscape:connector-curvature="0" />
	<path style="fill:none;stroke:red;stroke-width:1px;stroke-linecap:butt;stroke-linejoin:miter;stroke-opacity:1" d="M 199.818,922.837 178.299,929.293 z" id="boundary" inkscape:connector-curvature="0" />
	<path style="fill:none;stroke:red;stroke-width:1px;stroke-linecap:butt;stroke-linejoin:miter;stroke-opacity:1" d="M 221.336,912.078 199.818,922.837 z" id="boundary" inkscape:connector-curvature="0" />
	<path style="fill:none;stroke:red;stroke-width:1px;stroke-linecap:butt;stroke-linejoin:miter;stroke-opacity:1" d="M 139.566,950.811 158.933,940.052 z" id="boundary" inkscape:connector-curvature="0" />
	<path style="fill:none;stroke:red;stroke-width:1px;stroke-linecap:butt;stroke-linejoin:miter;stroke-opacity:1" d="M 98.6811,961.57 118.048,950.811 z" id="boundary" inkscape:connector-curvature="0" />
	<path style="fill:none;stroke:red;stroke-width:1px;stroke-linecap:butt;stroke-linejoin:miter;stroke-opacity:1" d="M 139.566,950.811 118.048,950.811 z" id="boundary" inkscape:connector-curvature="0" />
	<path style="fill:none;stroke:red;stroke-width:1px;stroke-linecap:butt;stroke-linejoin:miter;stroke-opacity:1" d="M 283.74,602.213 283.74,580.694 z" id="boundary" inkscape:connector-curvature="0" />
	<path style="fill:none;stroke:red;stroke-width:1px;stroke-linecap:butt;stroke-linejoin:miter;stroke-opacity:1" d="M 294.499,621.579 283.74,602.213 z" id="boundary" inkscape:connector-curvature="0" />
	<path style="fill:none;stroke:red;stroke-width:1px;stroke-linecap:butt;stroke-linejoin:miter;stroke-opacity:1" d="M 303.106,886.256 283.74,897.015 z" id="boundary" inkscape:connector-curvature="0" />
	<path style="fill:none;stroke:red;stroke-width:1px;stroke-linecap:butt;stroke-linejoin:miter;stroke-opacity:1" d="M 221.336,912.078 242.855,907.774 z" id="boundary" inkscape:connector-curvature="0" />
	<path style="fill:none;stroke:red;stroke-width:1px;stroke-linecap:butt;stroke-linejoin:miter;stroke-opacity:1" d="M 264.373,907.774 242.855,907.774 z" id="boundary" inkscape:connector-curvature="0" />
	<path style="fill:none;stroke:red;stroke-width:1px;stroke-linecap:butt;stroke-linejoin:miter;stroke-opacity:1" d="M 283.74,897.015 264.373,907.774 z" id="boundary" inkscape:connector-curvature="0" />
	<path style="fill:none;stroke:red;stroke-width:1px;stroke-linecap:butt;stroke-linejoin:miter;stroke-opacity:1" d="M 285.892,996 264.373,996 z" id="boundary" inkscape:connector-curvature="0" />
	<path style="fill:none;stroke:red;stroke-width:1px;stroke-linecap:butt;stroke-linejoin:miter;stroke-opacity:1" d="M 36.2777,989.544 57.7961,978.785 z" id="boundary" inkscape:connector-curvature="0" />
	<path style="fill:none;stroke:red;stroke-width:1px;stroke-linecap:butt;stroke-linejoin:miter;stroke-opacity:1" d="M 57.7961,978.785 70.7072,996 z" id="boundary" inkscape:connector-curvature="0" />
	<path style="fill:none;stroke:red;stroke-width:1px;stroke-linecap:butt;stroke-linejoin:miter;stroke-opacity:1" d="M 79.3145,972.33 57.7961,978.785 z" id="boundary" inkscape:connector-curvature="0" />
	<path style="fill:none;stroke:red;stroke-width:1px;stroke-linecap:butt;stroke-linejoin:miter;stroke-opacity:1" d="M 98.6811,961.57 79.3145,972.33 z" id="boundary" inkscape:connector-curvature="0" />
	<path style="fill:none;stroke:red;stroke-width:1px;stroke-linecap:butt;stroke-linejoin:miter;stroke-opacity:1" d="M 92.2256,996 70.7072,996 z" id="boundary" inkscape:connector-curvature="0" />
	<path style="fill:none;stroke:red;stroke-width:1px;stroke-linecap:butt;stroke-linejoin:miter;stroke-opacity:1" d="M 113.744,996 92.2256,996 z" id="boundary" inkscape:connector-curvature="0" />
	<path style="fill:none;stroke:red;stroke-width:1px;stroke-linecap:butt;stroke-linejoin:miter;stroke-opacity:1" d="M 135.262,996 113.744,996 z" id="boundary" inkscape:connector-curvature="0" />
	<path style="fill:none;stroke:red;stroke-width:1px;stroke-linecap:butt;stroke-linejoin:miter;stroke-opacity:1" d="M 156.781,996 135.262,996 z" id="boundary" inkscape:connector-curvature="0" />
	<path style="fill:none;stroke:red;stroke-width:1px;stroke-linecap:butt;stroke-linejoin:miter;stroke-opacity:1" d="M 199.818,996 178.299,996 z" id="boundary" inkscape:connector-curvature="0" />
	<path style="fill:none;stroke:red;stroke-width:1px;stroke-linecap:butt;stroke-linejoin:miter;stroke-opacity:1" d="M 242.855,996 221.336,996 z" id="boundary" inkscape:connector-curvature="0" />
	<path style="fill:none;stroke:red;stroke-width:1px;stroke-linecap:butt;stroke-linejoin:miter;stroke-opacity:1" d="M 221.336,996 199.818,996 z" id="boundary" inkscape:connector-curvature="0" />
	<path style="fill:none;stroke:red;stroke-width:1px;stroke-linecap:butt;stroke-linejoin:miter;stroke-opacity:1" d="M 178.299,996 156.781,996 z" id="boundary" inkscape:connector-curvature="0" />
	<path style="fill:none;stroke:red;stroke-width:1px;stroke-linecap:butt;stroke-linejoin:miter;stroke-opacity:1" d="M 264.373,996 242.855,996 z" id="boundary" inkscape:connector-curvature="0" />
	<path style="fill:none;stroke:red;stroke-width:1px;stroke-linecap:butt;stroke-linejoin:miter;stroke-opacity:1" d="M 322.473,520.443 311.714,541.961 z" id="boundary" inkscape:connector-curvature="0" />
	<path style="fill:none;stroke:red;stroke-width:1px;stroke-linecap:butt;stroke-linejoin:miter;stroke-opacity:1" d="M 311.714,541.961 294.499,559.176 z" id="boundary" inkscape:connector-curvature="0" />
	<path style="fill:none;stroke:red;stroke-width:1px;stroke-linecap:butt;stroke-linejoin:miter;stroke-opacity:1" d="M 294.499,621.579 309.562,638.794 z" id="boundary" inkscape:connector-curvature="0" />
	<path style="fill:none;stroke:red;stroke-width:1px;stroke-linecap:butt;stroke-linejoin:miter;stroke-opacity:1" d="M 309.562,638.794 320.321,658.161 z" id="boundary" inkscape:connector-curvature="0" />
	<path style="fill:none;stroke:red;stroke-width:1px;stroke-linecap:butt;stroke-linejoin:miter;stroke-opacity:1" d="M 320.321,658.161 328.928,679.679 z" id="boundary" inkscape:connector-curvature="0" />
	<path style="fill:none;stroke:red;stroke-width:1px;stroke-linecap:butt;stroke-linejoin:miter;stroke-opacity:1" d="M 339.688,699.046 328.928,679.679 z" id="boundary" inkscape:connector-curvature="0" />
	<path style="fill:none;stroke:red;stroke-width:1px;stroke-linecap:butt;stroke-linejoin:miter;stroke-opacity:1" d="M 322.473,520.443 333.232,498.924 z" id="boundary" inkscape:connector-curvature="0" />
	<path style="fill:none;stroke:red;stroke-width:1px;stroke-linecap:butt;stroke-linejoin:miter;stroke-opacity:1" d="M 339.688,699.046 348.295,720.564 z" id="boundary" inkscape:connector-curvature="0" />
	<path style="fill:none;stroke:red;stroke-width:1px;stroke-linecap:butt;stroke-linejoin:miter;stroke-opacity:1" d="M 348.295,720.564 359.054,739.931 z" id="boundary" inkscape:connector-curvature="0" />
	<path style="fill:none;stroke:red;stroke-width:1px;stroke-linecap:butt;stroke-linejoin:miter;stroke-opacity:1" d="M 359.054,739.931 369.813,759.297 z" id="boundary" inkscape:connector-curvature="0" />
	<path style="fill:none;stroke:red;stroke-width:1px;stroke-linecap:butt;stroke-linejoin:miter;stroke-opacity:1" d="M 380.573,802.334 376.269,780.816 z" id="boundary" inkscape:connector-curvature="0" />
	<path style="fill:none;stroke:red;stroke-width:1px;stroke-linecap:butt;stroke-linejoin:miter;stroke-opacity:1" d="M 369.813,759.297 376.269,780.816 z" id="boundary" inkscape:connector-curvature="0" />
	<path style="fill:none;stroke:red;stroke-width:1px;stroke-linecap:butt;stroke-linejoin:miter;stroke-opacity:1" d="M 343.991,875.497 324.625,886.256 z" id="boundary" inkscape:connector-curvature="0" />
	<path style="fill:none;stroke:red;stroke-width:1px;stroke-linecap:butt;stroke-linejoin:miter;stroke-opacity:1" d="M 324.625,886.256 303.106,886.256 z" id="boundary" inkscape:connector-curvature="0" />
	<path style="fill:none;stroke:red;stroke-width:1px;stroke-linecap:butt;stroke-linejoin:miter;stroke-opacity:1" d="M 350.447,996 328.928,996 z" id="boundary" inkscape:connector-curvature="0" />
	<path style="fill:none;stroke:red;stroke-width:1px;stroke-linecap:butt;stroke-linejoin:miter;stroke-opacity:1" d="M 307.41,996 285.892,996 z" id="boundary" inkscape:connector-curvature="0" />
	<path style="fill:none;stroke:red;stroke-width:1px;stroke-linecap:butt;stroke-linejoin:miter;stroke-opacity:1" d="M 328.928,996 307.41,996 z" id="boundary" inkscape:connector-curvature="0" />
	<path style="fill:none;stroke:red;stroke-width:1px;stroke-linecap:butt;stroke-linejoin:miter;stroke-opacity:1" d="M 380.573,802.334 391.332,821.701 z" id="boundary" inkscape:connector-curvature="0" />
	<path style="fill:none;stroke:red;stroke-width:1px;stroke-linecap:butt;stroke-linejoin:miter;stroke-opacity:1" d="M 415.002,996 393.484,996 z" id="boundary" inkscape:connector-curvature="0" />
	<path style="fill:none;stroke:red;stroke-width:1px;stroke-linecap:butt;stroke-linejoin:miter;stroke-opacity:1" d="M 391.332,821.701 384.876,856.13 z" id="boundary" inkscape:connector-curvature="0" />
	<path style="fill:none;stroke:red;stroke-width:1px;stroke-linecap:butt;stroke-linejoin:miter;stroke-opacity:1" d="M 384.876,856.13 363.358,864.738 z" id="boundary" inkscape:connector-curvature="0" />
	<path style="fill:none;stroke:red;stroke-width:1px;stroke-linecap:butt;stroke-linejoin:miter;stroke-opacity:1" d="M 371.965,996 350.447,996 z" id="boundary" inkscape:connector-curvature="0" />
	<path style="fill:none;stroke:red;stroke-width:1px;stroke-linecap:butt;stroke-linejoin:miter;stroke-opacity:1" d="M 343.991,875.497 363.358,864.738 z" id="boundary" inkscape:connector-curvature="0" />
	<path style="fill:none;stroke:red;stroke-width:1px;stroke-linecap:butt;stroke-linejoin:miter;stroke-opacity:1" d="M 393.484,996 371.965,996 z" id="boundary" inkscape:connector-curvature="0" />
	<path style="fill:none;stroke:red;stroke-width:1px;stroke-linecap:butt;stroke-linejoin:miter;stroke-opacity:1" d="M 283.74,580.694 294.499,559.176 z" id="boundary" inkscape:connector-curvature="0" />
	<path style="fill:none;stroke:red;stroke-width:1px;stroke-linecap:butt;stroke-linejoin:miter;stroke-opacity:1" d="M 391.332,4 412.85,4 z" id="boundary" inkscape:connector-curvature="0" />
	<path style="fill:none;stroke:red;stroke-width:1px;stroke-linecap:butt;stroke-linejoin:miter;stroke-opacity:1" d="M 434.369,4 455.887,4 z" id="boundary" inkscape:connector-curvature="0" />
	<path style="fill:none;stroke:red;stroke-width:1px;stroke-linecap:butt;stroke-linejoin:miter;stroke-opacity:1" d="M 477.406,4 498.924,4 z" id="boundary" inkscape:connector-curvature="0" />
	<path style="fill:none;stroke:red;stroke-width:1px;stroke-linecap:butt;stroke-linejoin:miter;stroke-opacity:1" d="M 498.924,4 520.443,4 z" id="boundary" inkscape:connector-curvature="0" />
	<path style="fill:none;stroke:red;stroke-width:1px;stroke-linecap:butt;stroke-linejoin:miter;stroke-opacity:1" d="M 455.887,4 477.406,4 z" id="boundary" inkscape:connector-curvature="0" />
	<path style="fill:none;stroke:red;stroke-width:1px;stroke-linecap:butt;stroke-linejoin:miter;stroke-opacity:1" d="M 541.961,4 563.479,4 z" id="boundary" inkscape:connector-curvature="0" />
	<path style="fill:none;stroke:red;stroke-width:1px;stroke-linecap:butt;stroke-linejoin:miter;stroke-opacity:1" d="M 563.479,4 584.998,4 z" id="boundary" inkscape:connector-curvature="0" />
	<path style="fill:none;stroke:red;stroke-width:1px;stroke-linecap:butt;stroke-linejoin:miter;stroke-opacity:1" d="M 584.998,4 606.516,4 z" id="boundary" inkscape:connector-curvature="0" />
	<path style="fill:none;stroke:red;stroke-width:1px;stroke-linecap:butt;stroke-linejoin:miter;stroke-opacity:1" d="M 606.516,4 628.035,4 z" id="boundary" inkscape:connector-curvature="0" />
	<path style="fill:none;stroke:red;stroke-width:1px;stroke-linecap:butt;stroke-linejoin:miter;stroke-opacity:1" d="M 520.443,4 541.961,4 z" id="boundary" inkscape:connector-curvature="0" />
	<path style="fill:none;stroke:red;stroke-width:1px;stroke-linecap:butt;stroke-linejoin:miter;stroke-opacity:1" d="M 668.92,346.143 647.401,356.902 z" id="boundary" inkscape:connector-curvature="0" />
	<path style="fill:none;stroke:red;stroke-width:1px;stroke-linecap:butt;stroke-linejoin:miter;stroke-opacity:1" d="M 647.401,356.902 625.883,361.206 z" id="boundary" inkscape:connector-curvature="0" />
	<path style="fill:none;stroke:red;stroke-width:1px;stroke-linecap:butt;stroke-linejoin:miter;stroke-opacity:1" d="M 507.531,464.495 496.772,486.013 z" id="boundary" inkscape:connector-curvature="0" />
	<path style="fill:none;stroke:red;stroke-width:1px;stroke-linecap:butt;stroke-linejoin:miter;stroke-opacity:1" d="M 496.772,486.013 479.557,501.076 z" id="boundary" inkscape:connector-curvature="0" />
	<path style="fill:none;stroke:red;stroke-width:1px;stroke-linecap:butt;stroke-linejoin:miter;stroke-opacity:1" d="M 479.557,501.076 464.495,518.291 z" id="boundary" inkscape:connector-curvature="0" />
	<path style="fill:none;stroke:red;stroke-width:1px;stroke-linecap:butt;stroke-linejoin:miter;stroke-opacity:1" d="M 507.531,464.495 522.594,447.28 z" id="boundary" inkscape:connector-curvature="0" />
	<path style="fill:none;stroke:red;stroke-width:1px;stroke-linecap:butt;stroke-linejoin:miter;stroke-opacity:1" d="M 432.217,561.328 447.28,533.354 z" id="boundary" inkscape:connector-curvature="0" />
	<path style="fill:none;stroke:red;stroke-width:1px;stroke-linecap:butt;stroke-linejoin:miter;stroke-opacity:1" d="M 447.28,533.354 464.495,518.291 z" id="boundary" inkscape:connector-curvature="0" />
	<path style="fill:none;stroke:red;stroke-width:1px;stroke-linecap:butt;stroke-linejoin:miter;stroke-opacity:1" d="M 587.15,382.725 606.516,371.965 z" id="boundary" inkscape:connector-curvature="0" />
	<path style="fill:none;stroke:red;stroke-width:1px;stroke-linecap:butt;stroke-linejoin:miter;stroke-opacity:1" d="M 572.087,399.939 587.15,382.725 z" id="boundary" inkscape:connector-curvature="0" />
	<path style="fill:none;stroke:red;stroke-width:1px;stroke-linecap:butt;stroke-linejoin:miter;stroke-opacity:1" d="M 625.883,361.206 606.516,371.965 z" id="boundary" inkscape:connector-curvature="0" />
	<path style="fill:none;stroke:red;stroke-width:1px;stroke-linecap:butt;stroke-linejoin:miter;stroke-opacity:1" d="M 522.594,447.28 533.354,425.761 z" id="boundary" inkscape:connector-curvature="0" />
	<path style="fill:none;stroke:red;stroke-width:1px;stroke-linecap:butt;stroke-linejoin:miter;stroke-opacity:1" d="M 533.354,425.761 550.568,410.698 z" id="boundary" inkscape:connector-curvature="0" />
	<path style="fill:none;stroke:red;stroke-width:1px;stroke-linecap:butt;stroke-linejoin:miter;stroke-opacity:1" d="M 550.568,410.698 572.087,399.939 z" id="boundary" inkscape:connector-curvature="0" />
	<path style="fill:none;stroke:red;stroke-width:1px;stroke-linecap:butt;stroke-linejoin:miter;stroke-opacity:1" d="M 432.217,561.328 415.002,576.39 z" id="boundary" inkscape:connector-curvature="0" />
	<path style="fill:none;stroke:red;stroke-width:1px;stroke-linecap:butt;stroke-linejoin:miter;stroke-opacity:1" d="M 649.553,4 671.072,4 z" id="boundary" inkscape:connector-curvature="0" />
	<path style="fill:none;stroke:red;stroke-width:1px;stroke-linecap:butt;stroke-linejoin:miter;stroke-opacity:1" d="M 671.072,4 692.59,4 z" id="boundary" inkscape:connector-curvature="0" />
	<path style="fill:none;stroke:red;stroke-width:1px;stroke-linecap:butt;stroke-linejoin:miter;stroke-opacity:1" d="M 714.108,4 735.627,4 z" id="boundary" inkscape:connector-curvature="0" />
	<path style="fill:none;stroke:red;stroke-width:1px;stroke-linecap:butt;stroke-linejoin:miter;stroke-opacity:1" d="M 735.627,4 757.145,4 z" id="boundary" inkscape:connector-curvature="0" />
	<path style="fill:none;stroke:red;stroke-width:1px;stroke-linecap:butt;stroke-linejoin:miter;stroke-opacity:1" d="M 692.59,4 714.108,4 z" id="boundary" inkscape:connector-curvature="0" />
	<path style="fill:none;stroke:red;stroke-width:1px;stroke-linecap:butt;stroke-linejoin:miter;stroke-opacity:1" d="M 778.664,4 800.182,4 z" id="boundary" inkscape:connector-curvature="0" />
	<path style="fill:none;stroke:red;stroke-width:1px;stroke-linecap:butt;stroke-linejoin:miter;stroke-opacity:1" d="M 800.182,4 821.701,8.30369 z" id="boundary" inkscape:connector-curvature="0" />
	<path style="fill:none;stroke:red;stroke-width:1px;stroke-linecap:butt;stroke-linejoin:miter;stroke-opacity:1" d="M 821.701,8.30369 830.308,29.8221 z" id="boundary" inkscape:connector-curvature="0" />
	<path style="fill:none;stroke:red;stroke-width:1px;stroke-linecap:butt;stroke-linejoin:miter;stroke-opacity:1" d="M 834.612,51.3406 834.612,72.859 z" id="boundary" inkscape:connector-curvature="0" />
	<path style="fill:none;stroke:red;stroke-width:1px;stroke-linecap:butt;stroke-linejoin:miter;stroke-opacity:1" d="M 834.612,72.859 834.612,94.3774 z" id="boundary" inkscape:connector-curvature="0" />
	<path style="fill:none;stroke:red;stroke-width:1px;stroke-linecap:butt;stroke-linejoin:miter;stroke-opacity:1" d="M 830.308,29.8221 834.612,51.3406 z" id="boundary" inkscape:connector-curvature="0" />
	<path style="fill:none;stroke:red;stroke-width:1px;stroke-linecap:butt;stroke-linejoin:miter;stroke-opacity:1" d="M 757.145,4 778.664,4 z" id="boundary" inkscape:connector-curvature="0" />
	<path style="fill:none;stroke:red;stroke-width:1px;stroke-linecap:butt;stroke-linejoin:miter;stroke-opacity:1" d="M 834.612,94.3774 834.612,115.896 z" id="boundary" inkscape:connector-curvature="0" />
	<path style="fill:none;stroke:red;stroke-width:1px;stroke-linecap:butt;stroke-linejoin:miter;stroke-opacity:1" d="M 731.323,316.017 748.538,296.651 z" id="boundary" inkscape:connector-curvature="0" />
	<path style="fill:none;stroke:red;stroke-width:1px;stroke-linecap:butt;stroke-linejoin:miter;stroke-opacity:1" d="M 748.538,296.651 765.753,281.588 z" id="boundary" inkscape:connector-curvature="0" />
	<path style="fill:none;stroke:red;stroke-width:1px;stroke-linecap:butt;stroke-linejoin:miter;stroke-opacity:1" d="M 668.92,346.143 690.438,335.384 z" id="boundary" inkscape:connector-curvature="0" />
	<path style="fill:none;stroke:red;stroke-width:1px;stroke-linecap:butt;stroke-linejoin:miter;stroke-opacity:1" d="M 690.438,335.384 711.957,328.928 z" id="boundary" inkscape:connector-curvature="0" />
	<path style="fill:none;stroke:red;stroke-width:1px;stroke-linecap:butt;stroke-linejoin:miter;stroke-opacity:1" d="M 731.323,316.017 711.957,328.928 z" id="boundary" inkscape:connector-curvature="0" />
	<path style="fill:none;stroke:red;stroke-width:1px;stroke-linecap:butt;stroke-linejoin:miter;stroke-opacity:1" d="M 834.612,137.414 834.612,115.896 z" id="boundary" inkscape:connector-curvature="0" />
	<path style="fill:none;stroke:red;stroke-width:1px;stroke-linecap:butt;stroke-linejoin:miter;stroke-opacity:1" d="M 834.612,158.933 834.612,137.414 z" id="boundary" inkscape:connector-curvature="0" />
	<path style="fill:none;stroke:red;stroke-width:1px;stroke-linecap:butt;stroke-linejoin:miter;stroke-opacity:1" d="M 834.612,158.933 823.852,189.059 z" id="boundary" inkscape:connector-curvature="0" />
	<path style="fill:none;stroke:red;stroke-width:1px;stroke-linecap:butt;stroke-linejoin:miter;stroke-opacity:1" d="M 780.816,264.373 798.03,249.31 z" id="boundary" inkscape:connector-curvature="0" />
	<path style="fill:none;stroke:red;stroke-width:1px;stroke-linecap:butt;stroke-linejoin:miter;stroke-opacity:1" d="M 765.753,281.588 780.816,264.373 z" id="boundary" inkscape:connector-curvature="0" />
	<path style="fill:none;stroke:red;stroke-width:1px;stroke-linecap:butt;stroke-linejoin:miter;stroke-opacity:1" d="M 813.093,221.336 798.03,249.31 z" id="boundary" inkscape:connector-curvature="0" />
	<path style="fill:none;stroke:red;stroke-width:1px;stroke-linecap:butt;stroke-linejoin:miter;stroke-opacity:1" d="M 813.093,221.336 823.852,189.059 z" id="boundary" inkscape:connector-curvature="0" />
	<path style="fill:none;stroke:red;stroke-width:1px;stroke-linecap:butt;stroke-linejoin:miter;stroke-opacity:1" d="M 866.889,989.544 798.03,249.31 z" id="boundary" inkscape:connector-curvature="0" />
	<path style="fill:none;stroke:red;stroke-width:1px;stroke-linecap:butt;stroke-linejoin:miter;stroke-opacity:1" d="M 628.035,4 649.553,4 z" id="boundary" inkscape:connector-curvature="0" />
	<path style="fill:none;stroke:red;stroke-width:1px;stroke-linecap:butt;stroke-linejoin:miter;stroke-opacity:1" d="M 415.002,597.909 415.002,576.39 z" id="boundary" inkscape:connector-curvature="0" />
	<path style="fill:none;stroke:red;stroke-width:1px;stroke-linecap:butt;stroke-linejoin:miter;stroke-opacity:1" d="M 425.761,617.275 415.002,597.909 z" id="boundary" inkscape:connector-curvature="0" />
	<path style="fill:none;stroke:red;stroke-width:1px;stroke-linecap:butt;stroke-linejoin:miter;stroke-opacity:1" d="M 425.761,617.275 436.521,636.642 z" id="boundary" inkscape:connector-curvature="0" />
	<path style="fill:none;stroke:red;stroke-width:1px;stroke-linecap:butt;stroke-linejoin:miter;stroke-opacity:1" d="M 436.521,636.642 453.735,651.705 z" id="boundary" inkscape:connector-curvature="0" />
	<path style="fill:none;stroke:red;stroke-width:1px;stroke-linecap:butt;stroke-linejoin:miter;stroke-opacity:1" d="M 453.735,651.705 462.343,673.223 z" id="boundary" inkscape:connector-curvature="0" />
	<path style="fill:none;stroke:red;stroke-width:1px;stroke-linecap:butt;stroke-linejoin:miter;stroke-opacity:1" d="M 501.076,752.842 490.317,733.475 z" id="boundary" inkscape:connector-curvature="0" />
	<path style="fill:none;stroke:red;stroke-width:1px;stroke-linecap:butt;stroke-linejoin:miter;stroke-opacity:1" d="M 462.343,673.223 468.798,694.742 z" id="boundary" inkscape:connector-curvature="0" />
	<path style="fill:none;stroke:red;stroke-width:1px;stroke-linecap:butt;stroke-linejoin:miter;stroke-opacity:1" d="M 479.557,714.108 490.317,733.475 z" id="boundary" inkscape:connector-curvature="0" />
	<path style="fill:none;stroke:red;stroke-width:1px;stroke-linecap:butt;stroke-linejoin:miter;stroke-opacity:1" d="M 479.557,714.108 468.798,694.742 z" id="boundary" inkscape:connector-curvature="0" />
	<path style="fill:none;stroke:red;stroke-width:1px;stroke-linecap:butt;stroke-linejoin:miter;stroke-opacity:1" d="M 511.835,772.208 522.594,791.575 z" id="boundary" inkscape:connector-curvature="0" />
	<path style="fill:none;stroke:red;stroke-width:1px;stroke-linecap:butt;stroke-linejoin:miter;stroke-opacity:1" d="M 533.354,810.941 522.594,791.575 z" id="boundary" inkscape:connector-curvature="0" />
	<path style="fill:none;stroke:red;stroke-width:1px;stroke-linecap:butt;stroke-linejoin:miter;stroke-opacity:1" d="M 511.835,772.208 501.076,752.842 z" id="boundary" inkscape:connector-curvature="0" />
	<path style="fill:none;stroke:red;stroke-width:1px;stroke-linecap:butt;stroke-linejoin:miter;stroke-opacity:1" d="M 436.521,996 415.002,996 z" id="boundary" inkscape:connector-curvature="0" />
	<path style="fill:none;stroke:red;stroke-width:1px;stroke-linecap:butt;stroke-linejoin:miter;stroke-opacity:1" d="M 458.039,996 436.521,996 z" id="boundary" inkscape:connector-curvature="0" />
	<path style="fill:none;stroke:red;stroke-width:1px;stroke-linecap:butt;stroke-linejoin:miter;stroke-opacity:1" d="M 501.076,996 479.557,996 z" id="boundary" inkscape:connector-curvature="0" />
	<path style="fill:none;stroke:red;stroke-width:1px;stroke-linecap:butt;stroke-linejoin:miter;stroke-opacity:1" d="M 522.594,996 501.076,996 z" id="boundary" inkscape:connector-curvature="0" />
	<path style="fill:none;stroke:red;stroke-width:1px;stroke-linecap:butt;stroke-linejoin:miter;stroke-opacity:1" d="M 479.557,996 458.039,996 z" id="boundary" inkscape:connector-curvature="0" />
	<path style="fill:none;stroke:red;stroke-width:1px;stroke-linecap:butt;stroke-linejoin:miter;stroke-opacity:1" d="M 561.328,845.371 544.113,830.308 z" id="boundary" inkscape:connector-curvature="0" />
	<path style="fill:none;stroke:red;stroke-width:1px;stroke-linecap:butt;stroke-linejoin:miter;stroke-opacity:1" d="M 544.113,830.308 533.354,810.941 z" id="boundary" inkscape:connector-curvature="0" />
	<path style="fill:none;stroke:red;stroke-width:1px;stroke-linecap:butt;stroke-linejoin:miter;stroke-opacity:1" d="M 580.694,856.13 561.328,845.371 z" id="boundary" inkscape:connector-curvature="0" />
	<path style="fill:none;stroke:red;stroke-width:1px;stroke-linecap:butt;stroke-linejoin:miter;stroke-opacity:1" d="M 544.113,996 522.594,996 z" id="boundary" inkscape:connector-curvature="0" />
	<path style="fill:none;stroke:red;stroke-width:1px;stroke-linecap:butt;stroke-linejoin:miter;stroke-opacity:1" d="M 565.631,996 544.113,996 z" id="boundary" inkscape:connector-curvature="0" />
	<path style="fill:none;stroke:red;stroke-width:1px;stroke-linecap:butt;stroke-linejoin:miter;stroke-opacity:1" d="M 587.15,996 565.631,996 z" id="boundary" inkscape:connector-curvature="0" />
	<path style="fill:none;stroke:red;stroke-width:1px;stroke-linecap:butt;stroke-linejoin:miter;stroke-opacity:1" d="M 580.694,856.13 602.213,864.738 z" id="boundary" inkscape:connector-curvature="0" />
	<path style="fill:none;stroke:red;stroke-width:1px;stroke-linecap:butt;stroke-linejoin:miter;stroke-opacity:1" d="M 608.668,996 587.15,996 z" id="boundary" inkscape:connector-curvature="0" />
	<path style="fill:none;stroke:red;stroke-width:1px;stroke-linecap:butt;stroke-linejoin:miter;stroke-opacity:1" d="M 621.579,875.497 602.213,864.738 z" id="boundary" inkscape:connector-curvature="0" />
	<path style="fill:none;stroke:red;stroke-width:1px;stroke-linecap:butt;stroke-linejoin:miter;stroke-opacity:1" d="M 640.946,886.256 621.579,875.497 z" id="boundary" inkscape:connector-curvature="0" />
	<path style="fill:none;stroke:red;stroke-width:1px;stroke-linecap:butt;stroke-linejoin:miter;stroke-opacity:1" d="M 662.464,892.711 640.946,886.256 z" id="boundary" inkscape:connector-curvature="0" />
	<path style="fill:none;stroke:red;stroke-width:1px;stroke-linecap:butt;stroke-linejoin:miter;stroke-opacity:1" d="M 703.349,907.774 681.831,903.471 z" id="boundary" inkscape:connector-curvature="0" />
	<path style="fill:none;stroke:red;stroke-width:1px;stroke-linecap:butt;stroke-linejoin:miter;stroke-opacity:1" d="M 681.831,903.471 662.464,892.711 z" id="boundary" inkscape:connector-curvature="0" />
	<path style="fill:none;stroke:red;stroke-width:1px;stroke-linecap:butt;stroke-linejoin:miter;stroke-opacity:1" d="M 703.349,907.774 722.716,918.534 z" id="boundary" inkscape:connector-curvature="0" />
	<path style="fill:none;stroke:red;stroke-width:1px;stroke-linecap:butt;stroke-linejoin:miter;stroke-opacity:1" d="M 742.082,929.293 722.716,918.534 z" id="boundary" inkscape:connector-curvature="0" />
	<path style="fill:none;stroke:red;stroke-width:1px;stroke-linecap:butt;stroke-linejoin:miter;stroke-opacity:1" d="M 761.449,940.052 742.082,929.293 z" id="boundary" inkscape:connector-curvature="0" />
	<path style="fill:none;stroke:red;stroke-width:1px;stroke-linecap:butt;stroke-linejoin:miter;stroke-opacity:1" d="M 782.967,940.052 761.449,940.052 z" id="boundary" inkscape:connector-curvature="0" />
	<path style="fill:none;stroke:red;stroke-width:1px;stroke-linecap:butt;stroke-linejoin:miter;stroke-opacity:1" d="M 802.334,950.811 821.701,961.57 z" id="boundary" inkscape:connector-curvature="0" />
	<path style="fill:none;stroke:red;stroke-width:1px;stroke-linecap:butt;stroke-linejoin:miter;stroke-opacity:1" d="M 802.334,950.811 782.967,940.052 z" id="boundary" inkscape:connector-curvature="0" />
	<path style="fill:none;stroke:red;stroke-width:1px;stroke-linecap:butt;stroke-linejoin:miter;stroke-opacity:1" d="M 821.701,961.57 841.067,972.33 z" id="boundary" inkscape:connector-curvature="0" />
	<path style="fill:none;stroke:red;stroke-width:1px;stroke-linecap:butt;stroke-linejoin:miter;stroke-opacity:1" d="M 630.187,996 608.668,996 z" id="boundary" inkscape:connector-curvature="0" />
	<path style="fill:none;stroke:red;stroke-width:1px;stroke-linecap:butt;stroke-linejoin:miter;stroke-opacity:1" d="M 651.705,996 630.187,996 z" id="boundary" inkscape:connector-curvature="0" />
	<path style="fill:none;stroke:red;stroke-width:1px;stroke-linecap:butt;stroke-linejoin:miter;stroke-opacity:1" d="M 694.742,996 673.223,996 z" id="boundary" inkscape:connector-curvature="0" />
	<path style="fill:none;stroke:red;stroke-width:1px;stroke-linecap:butt;stroke-linejoin:miter;stroke-opacity:1" d="M 716.26,996 694.742,996 z" id="boundary" inkscape:connector-curvature="0" />
	<path style="fill:none;stroke:red;stroke-width:1px;stroke-linecap:butt;stroke-linejoin:miter;stroke-opacity:1" d="M 673.223,996 651.705,996 z" id="boundary" inkscape:connector-curvature="0" />
	<path style="fill:none;stroke:red;stroke-width:1px;stroke-linecap:butt;stroke-linejoin:miter;stroke-opacity:1" d="M 759.297,996 737.779,996 z" id="boundary" inkscape:connector-curvature="0" />
	<path style="fill:none;stroke:red;stroke-width:1px;stroke-linecap:butt;stroke-linejoin:miter;stroke-opacity:1" d="M 737.779,996 716.26,996 z" id="boundary" inkscape:connector-curvature="0" />
	<path style="fill:none;stroke:red;stroke-width:1px;stroke-linecap:butt;stroke-linejoin:miter;stroke-opacity:1" d="M 780.816,996 759.297,996 z" id="boundary" inkscape:connector-curvature="0" />
	<path style="fill:none;stroke:red;stroke-width:1px;stroke-linecap:butt;stroke-linejoin:miter;stroke-opacity:1" d="M 802.334,996 780.816,996 z" id="boundary" inkscape:connector-curvature="0" />
	<path style="fill:none;stroke:red;stroke-width:1px;stroke-linecap:butt;stroke-linejoin:miter;stroke-opacity:1" d="M 841.067,972.33 845.371,996 z" id="boundary" inkscape:connector-curvature="0" />
	<path style="fill:none;stroke:red;stroke-width:1px;stroke-linecap:butt;stroke-linejoin:miter;stroke-opacity:1" d="M 845.371,996 823.852,996 z" id="boundary" inkscape:connector-curvature="0" />
	<path style="fill:none;stroke:red;stroke-width:1px;stroke-linecap:butt;stroke-linejoin:miter;stroke-opacity:1" d="M 823.852,996 802.334,996 z" id="boundary" inkscape:connector-curvature="0" />
	<path style="fill:none;stroke:red;stroke-width:1px;stroke-linecap:butt;stroke-linejoin:miter;stroke-opacity:1" d="M 866.889,989.544 845.371,996 z" id="boundary" inkscape:connector-curvature="0" />
	<path style="fill:none;stroke:red;stroke-width:1px;stroke-linecap:butt;stroke-linejoin:miter;stroke-opacity:1" d="M 412.85,4 434.369,4 z" id="boundary" inkscape:connector-curvature="0" />
	<circle cx="4" cy="10.4555" r="4" fill="#0" id="circle0"/>
	<circle cx="4" cy="31.974" r="4" fill="#0" id="circle1"/>
	<circle cx="4" cy="53.4924" r="4" fill="#0" id="circle2"/>
	<circle cx="4" cy="75.0108" r="4" fill="#0" id="circle3"/>
	<circle cx="4" cy="96.5293" r="4" fill="#0" id="circle4"/>
	<circle cx="4" cy="118.048" r="4" fill="#0" id="circle5"/>
	<circle cx="4" cy="139.566" r="4" fill="#0" id="circle6"/>
	<circle cx="4" cy="161.085" r="4" fill="#0" id="circle7"/>
	<circle cx="14.7592" cy="180.451" r="4" fill="#0" id="circle8"/>
	<circle cx="14.7592" cy="201.97" r="4" fill="#0" id="circle9"/>
	<circle cx="14.7592" cy="223.488" r="4" fill="#0" id="circle10"/>
	<circle cx="25.5184" cy="4" r="4" fill="#0" id="circle11"/>
	<circle cx="25.5184" cy="242.855" r="4" fill="#0" id="circle12"/>
	<circle cx="36.2777" cy="989.544" r="4" fill="#0" id="circle13"/>
	<circle cx="38.4295" cy="260.069" r="4" fill="#0" id="circle14"/>
	<circle cx="47.0369" cy="4" r="4" fill="#0" id="circle15"/>
	<circle cx="55.6443" cy="275.132" r="4" fill="#0" id="circle16"/>
	<circle cx="57.7961" cy="978.785" r="4" fill="#0" id="circle17"/>
	<circle cx="68.5553" cy="4" r="4" fill="#0" id="circle18"/>
	<circle cx="70.7072" cy="996" r="4" fill="#0" id="circle19"/>
	<circle cx="75.0108" cy="285.892" r="4" fill="#0" id="circle20"/>
	<circle cx="79.3145" cy="972.33" r="4" fill="#0" id="circle21"/>
	<circle cx="90.0738" cy="4" r="4" fill="#0" id="circle22"/>
	<circle cx="92.2256" cy="300.954" r="4" fill="#0" id="circle23"/>
	<circle cx="92.2256" cy="996" r="4" fill="#0" id="circle24"/>
	<circle cx="98.6811" cy="961.57" r="4" fill="#0" id="circle25"/>
	<circle cx="107.289" cy="318.169" r="4" fill="#0" id="circle26"/>
	<circle cx="111.592" cy="4" r="4" fill="#0" id="circle27"/>
	<circle cx="113.744" cy="996" r="4" fill="#0" id="circle28"/>
	<circle cx="118.048" cy="950.811" r="4" fill="#0" id="circle29"/>
	<circle cx="128.807" cy="326.777" r="4" fill="#0" id="circle30"/>
	<circle cx="133.111" cy="4" r="4" fill="#0" id="circle31"/>
	<circle cx="135.262" cy="996" r="4" fill="#0" id="circle32"/>
	<circle cx="139.566" cy="950.811" r="4" fill="#0" id="circle33"/>
	<circle cx="146.022" cy="339.688" r="4" fill="#0" id="circle34"/>
	<circle cx="154.629" cy="4" r="4" fill="#0" id="circle35"/>
	<circle cx="156.781" cy="996" r="4" fill="#0" id="circle36"/>
	<circle cx="158.933" cy="940.052" r="4" fill="#0" id="circle37"/>
	<circle cx="165.388" cy="350.447" r="4" fill="#0" id="circle38"/>
	<circle cx="176.148" cy="4" r="4" fill="#0" id="circle39"/>
	<circle cx="178.299" cy="929.293" r="4" fill="#0" id="circle40"/>
	<circle cx="178.299" cy="996" r="4" fill="#0" id="circle41"/>
	<circle cx="184.755" cy="361.206" r="4" fill="#0" id="circle42"/>
	<circle cx="197.666" cy="4" r="4" fill="#0" id="circle43"/>
	<circle cx="199.818" cy="922.837" r="4" fill="#0" id="circle44"/>
	<circle cx="199.818" cy="996" r="4" fill="#0" id="circle45"/>
	<circle cx="206.273" cy="361.206" r="4" fill="#0" id="circle46"/>
	<circle cx="219.184" cy="4" r="4" fill="#0" id="circle47"/>
	<circle cx="221.336" cy="912.078" r="4" fill="#0" id="circle48"/>
	<circle cx="221.336" cy="996" r="4" fill="#0" id="circle49"/>
	<circle cx="227.792" cy="361.206" r="4" fill="#0" id="circle50"/>
	<circle cx="240.703" cy="4" r="4" fill="#0" id="circle51"/>
	<circle cx="242.855" cy="907.774" r="4" fill="#0" id="circle52"/>
	<circle cx="242.855" cy="996" r="4" fill="#0" id="circle53"/>
	<circle cx="247.158" cy="371.965" r="4" fill="#0" id="circle54"/>
	<circle cx="262.221" cy="4" r="4" fill="#0" id="circle55"/>
	<circle cx="264.373" cy="907.774" r="4" fill="#0" id="circle56"/>
	<circle cx="264.373" cy="996" r="4" fill="#0" id="circle57"/>
	<circle cx="268.677" cy="380.573" r="4" fill="#0" id="circle58"/>
	<circle cx="283.74" cy="4" r="4" fill="#0" id="circle59"/>
	<circle cx="283.74" cy="580.694" r="4" fill="#0" id="circle60"/>
	<circle cx="283.74" cy="602.213" r="4" fill="#0" id="circle61"/>
	<circle cx="283.74" cy="897.015" r="4" fill="#0" id="circle62"/>
	<circle cx="285.892" cy="996" r="4" fill="#0" id="circle63"/>
	<circle cx="288.043" cy="391.332" r="4" fill="#0" id="circle64"/>
	<circle cx="294.499" cy="559.176" r="4" fill="#0" id="circle65"/>
	<circle cx="294.499" cy="621.579" r="4" fill="#0" id="circle66"/>
	<circle cx="303.106" cy="886.256" r="4" fill="#0" id="circle67"/>
	<circle cx="305.258" cy="4" r="4" fill="#0" id="circle68"/>
	<circle cx="307.41" cy="996" r="4" fill="#0" id="circle69"/>
	<circle cx="309.562" cy="393.484" r="4" fill="#0" id="circle70"/>
	<circle cx="309.562" cy="638.794" r="4" fill="#0" id="circle71"/>
	<circle cx="311.714" cy="541.961" r="4" fill="#0" id="circle72"/>
	<circle cx="320.321" cy="658.161" r="4" fill="#0" id="circle73"/>
	<circle cx="322.473" cy="520.443" r="4" fill="#0" id="circle74"/>
	<circle cx="324.625" cy="886.256" r="4" fill="#0" id="circle75"/>
	<circle cx="326.777" cy="4" r="4" fill="#0" id="circle76"/>
	<circle cx="328.928" cy="679.679" r="4" fill="#0" id="circle77"/>
	<circle cx="328.928" cy="996" r="4" fill="#0" id="circle78"/>
	<circle cx="331.08" cy="393.484" r="4" fill="#0" id="circle79"/>
	<circle cx="333.232" cy="498.924" r="4" fill="#0" id="circle80"/>
	<circle cx="339.688" cy="699.046" r="4" fill="#0" id="circle81"/>
	<circle cx="343.991" cy="477.406" r="4" fill="#0" id="circle82"/>
	<circle cx="343.991" cy="875.497" r="4" fill="#0" id="circle83"/>
	<circle cx="348.295" cy="4" r="4" fill="#0" id="circle84"/>
	<circle cx="348.295" cy="720.564" r="4" fill="#0" id="circle85"/>
	<circle cx="350.447" cy="404.243" r="4" fill="#0" id="circle86"/>
	<circle cx="350.447" cy="996" r="4" fill="#0" id="circle87"/>
	<circle cx="354.751" cy="455.887" r="4" fill="#0" id="circle88"/>
	<circle cx="359.054" cy="739.931" r="4" fill="#0" id="circle89"/>
	<circle cx="363.358" cy="864.738" r="4" fill="#0" id="circle90"/>
	<circle cx="365.51" cy="434.369" r="4" fill="#0" id="circle91"/>
	<circle cx="369.813" cy="4" r="4" fill="#0" id="circle92"/>
	<circle cx="369.813" cy="759.297" r="4" fill="#0" id="circle93"/>
	<circle cx="371.965" cy="996" r="4" fill="#0" id="circle94"/>
	<circle cx="376.269" cy="780.816" r="4" fill="#0" id="circle95"/>
	<circle cx="380.573" cy="802.334" r="4" fill="#0" id="circle96"/>
	<circle cx="384.876" cy="856.13" r="4" fill="#0" id="circle97"/>
	<circle cx="391.332" cy="4" r="4" fill="#0" id="circle98"/>
	<circle cx="391.332" cy="821.701" r="4" fill="#0" id="circle99"/>
	<circle cx="393.484" cy="996" r="4" fill="#0" id="circle100"/>
	<circle cx="412.85" cy="4" r="4" fill="#0" id="circle101"/>
	<circle cx="415.002" cy="576.39" r="4" fill="#0" id="circle102"/>
	<circle cx="415.002" cy="597.909" r="4" fill="#0" id="circle103"/>
	<circle cx="415.002" cy="996" r="4" fill="#0" id="circle104"/>
	<circle cx="425.761" cy="617.275" r="4" fill="#0" id="circle105"/>
	<circle cx="432.217" cy="561.328" r="4" fill="#0" id="circle106"/>
	<circle cx="434.369" cy="4" r="4" fill="#0" id="circle107"/>
	<circle cx="436.521" cy="636.642" r="4" fill="#0" id="circle108"/>
	<circle cx="436.521" cy="996" r="4" fill="#0" id="circle109"/>
	<circle cx="447.28" cy="533.354" r="4" fill="#0" id="circle110"/>
	<circle cx="453.735" cy="651.705" r="4" fill="#0" id="circle111"/>
	<circle cx="455.887" cy="4" r="4" fill="#0" id="circle112"/>
	<circle cx="458.039" cy="996" r="4" fill="#0" id="circle113"/>
	<circle cx="462.343" cy="673.223" r="4" fill="#0" id="circle114"/>
	<circle cx="464.495" cy="518.291" r="4" fill="#0" id="circle115"/>
	<circle cx="468.798" cy="694.742" r="4" fill="#0" id="circle116"/>
	<circle cx="477.406" cy="4" r="4" fill="#0" id="circle117"/>
	<circle cx="479.557" cy="501.076" r="4" fill="#0" id="circle118"/>
	<circle cx="479.557" cy="714.108" r="4" fill="#0" id="circle119"/>
	<circle cx="479.557" cy="996" r="4" fill="#0" id="circle120"/>
	<circle cx="490.317" cy="733.475" r="4" fill="#0" id="circle121"/>
	<circle cx="496.772" cy="486.013" r="4" fill="#0" id="circle122"/>
	<circle cx="498.924" cy="4" r="4" fill="#0" id="circle123"/>
	<circle cx="501.076" cy="752.842" r="4" fill="#0" id="circle124"/>
	<circle cx="501.076" cy="996" r="4" fill="#0" id="circle125"/>
	<circle cx="507.531" cy="464.495" r="4" fill="#0" id="circle126"/>
	<circle cx="511.835" cy="772.208" r="4" fill="#0" id="circle127"/>
	<circle cx="520.443" cy="4" r="4" fill="#0" id="circle128"/>
	<circle cx="522.594" cy="447.28" r="4" fill="#0" id="circle129"/>
	<circle cx="522.594" cy="791.575" r="4" fill="#0" id="circle130"/>
	<circle cx="522.594" cy="996" r="4" fill="#0" id="circle131"/>
	<circle cx="533.354" cy="425.761" r="4" fill="#0" id="circle132"/>
	<circle cx="533.354" cy="810.941" r="4" fill="#0" id="circle133"/>
	<circle cx="541.961" cy="4" r="4" fill="#0" id="circle134"/>
	<circle cx="544.113" cy="830.308" r="4" fill="#0" id="circle135"/>
	<circle cx="544.113" cy="996" r="4" fill="#0" id="circle136"/>
	<circle cx="550.568" cy="410.698" r="4" fill="#0" id="circle137"/>
	<circle cx="561.328" cy="845.371" r="4" fill="#0" id="circle138"/>
	<circle cx="563.479" cy="4" r="4" fill="#0" id="circle139"/>
	<circle cx="565.631" cy="996" r="4" fill="#0" id="circle140"/>
	<circle cx="572.087" cy="399.939" r="4" fill="#0" id="circle141"/>
	<circle cx="580.694" cy="856.13" r="4" fill="#0" id="circle142"/>
	<circle cx="584.998" cy="4" r="4" fill="#0" id="circle143"/>
	<circle cx="587.15" cy="382.725" r="4" fill="#0" id="circle144"/>
	<circle cx="587.15" cy="996" r="4" fill="#0" id="circle145"/>
	<circle cx="602.213" cy="864.738" r="4" fill="#0" id="circle146"/>
	<circle cx="606.516" cy="4" r="4" fill="#0" id="circle147"/>
	<circle cx="606.516" cy="371.965" r="4" fill="#0" id="circle148"/>
	<circle cx="608.668" cy="996" r="4" fill="#0" id="circle149"/>
	<circle cx="621.579" cy="875.497" r="4" fill="#0" id="circle150"/>
	<circle cx="625.883" cy="361.206" r="4" fill="#0" id="circle151"/>
	<circle cx="628.035" cy="4" r="4" fill="#0" id="circle152"/>
	<circle cx="630.187" cy="996" r="4" fill="#0" id="circle153"/>
	<circle cx="640.946" cy="886.256" r="4" fill="#0" id="circle154"/>
	<circle cx="647.401" cy="356.902" r="4" fill="#0" id="circle155"/>
	<circle cx="649.553" cy="4" r="4" fill="#0" id="circle156"/>
	<circle cx="651.705" cy="996" r="4" fill="#0" id="circle157"/>
	<circle cx="662.464" cy="892.711" r="4" fill="#0" id="circle158"/>
	<circle cx="668.92" cy="346.143" r="4" fill="#0" id="circle159"/>
	<circle cx="671.072" cy="4" r="4" fill="#0" id="circle160"/>
	<circle cx="673.223" cy="996" r="4" fill="#0" id="circle161"/>
	<circle cx="681.831" cy="903.471" r="4" fill="#0" id="circle162"/>
	<circle cx="690.438" cy="335.384" r="4" fill="#0" id="circle163"/>
	<circle cx="692.59" cy="4" r="4" fill="#0" id="circle164"/>
	<circle cx="694.742" cy="996" r="4" fill="#0" id="circle165"/>
	<circle cx="703.349" cy="907.774" r="4" fill="#0" id="circle166"/>
	<circle cx="711.957" cy="328.928" r="4" fill="#0" id="circle167"/>
	<circle cx="714.108" cy="4" r="4" fill="#0" id="circle168"/>
	<circle cx="716.26" cy="996" r="4" fill="#0" id="circle169"/>
	<circle cx="722.716" cy="918.534" r="4" fill="#0" id="circle170"/>
	<circle cx="731.323" cy="316.017" r="4" fill="#0" id="circle171"/>
	<circle cx="735.627" cy="4" r="4" fill="#0" id="circle172"/>
	<circle cx="737.779" cy="996" r="4" fill="#0" id="circle173"/>
	<circle cx="742.082" cy="929.293" r="4" fill="#0" id="circle174"/>
	<circle cx="748.538" cy="296.651" r="4" fill="#0" id="circle175"/>
	<circle cx="757.145" cy="4" r="4" fill="#0" id="circle176"/>
	<circle cx="759.297" cy="996" r="4" fill="#0" id="circle177"/>
	<circle cx="761.449" cy="940.052" r="4" fill="#0" id="circle178"/>
	<circle cx="765.753" cy="281.588" r="4" fill="#0" id="circle179"/>
	<circle cx="778.664" cy="4" r="4" fill="#0" id="circle180"/>
	<circle cx="780.816" cy="264.373" r="4" fill="#0" id="circle181"/>
	<circle cx="780.816" cy="996" r="4" fill="#0" id="circle182"/>
	<circle cx="782.967" cy="940.052" r="4" fill="#0" id="circle183"/>
	<circle cx="798.03" cy="249.31" r="4" fill="#0" id="circle184"/>
	<circle cx="800.182" cy="4" r="4" fill="#0" id="circle185"/>
	<circle cx="802.334" cy="950.811" r="4" fill="#0" id="circle186"/>
	<circle cx="802.334" cy="996" r="4" fill="#0" id="circle187"/>
	<circle cx="813.093" cy="221.336" r="4" fill="#0" id="circle188"/>
	<circle cx="821.701" cy="8.30369" r="4" fill="#0" id="circle189"/>
	<circle cx="821.701" cy="961.57" r="4" fill="#0" id="circle190"/>
	<circle cx="823.852" cy="189.059" r="4" fill="#0" id="circle191"/>
	<circle cx="823.852" cy="996" r="4" fill="#0" id="circle192"/>
	<circle cx="830.308" cy="29.8221" r="4" fill="#0" id="circle193"/>
	<circle cx="834.612" cy="51.3406" r="4" fill="#0" id="circle194"/>
	<circle cx="834.612" cy="72.859" r="4" fill="#0" id="circle195"/>
	<circle cx="834.612" cy="94.3774" r="4" fill="#0" id="circle196"/>
	<circle cx="834.612" cy="115.896" r="4" fill="#0" id="circle197"/>
	<circle cx="834.612" cy="137.414" r="4" fill="#0" id="circle198"/>
	<circle cx="834.612" cy="158.933" r="4" fill="#0" id="circle199"/>
	<circle cx="841.067" cy="972.33" r="4" fill="#0" id="circle200"/>
	<circle cx="845.371" cy="996" r="4" fill="#0" id="circle201"/>
	<circle cx="866.889" cy="989.544" r="4" fill="#0" id="circle202"/>
	</g>
</svg>