<?xml version="1.0" encoding="UTF-8" standalone="no"?>
<!-- Created with CurveBenchmark -->
<svg
	xmlns:dc="http://purl.org/dc/elements/1.1/"
	xmlns:cc="http://creativecommons.org/ns#"
	xmlns:rdf="http://www.w3.org/1999/02/22-rdf-syntax-ns#"
	xmlns:svg="http://www.w3.org/2000/svg"
	xmlns="http://www.w3.org/2000/svg"
	xmlns:sodipodi="http://sodipodi.sourceforge.net/DTD/sodipodi-0.dtd"
	xmlns:inkscape="http://www.inkscape.org/namespaces/inkscape"
	width="1000"
	height="1000"
	id="svg2"
	version="1.1"
	sodipodi:docname="manifold/nncrust-sink025.png.txt">
<defs
	id="defs4" />
<metadata
	id="metadata7">
	<rdf:RDF>
		<cc:Work
			rdf:about="">
			<dc:format>image/svg+xml</dc:format>
			<dc:type
				rdf:resource="http://purl.org/dc/dcmitype/StillImage" />
			<dc:title></dc:title>
		</cc:Work>
	</rdf:RDF>
</metadata>
<g
	inkscape:label="Layer 1"
	inkscape:groupmode="layer"
	id="layer1">
	<path style="fill:none;stroke:red;stroke-width:1px;stroke-linecap:butt;stroke-linejoin:miter;stroke-opacity:1" d="M 81.8039,125.569 81.8039,76.9412 z" id="boundary" inkscape:connector-curvature="0" />
	<path style="fill:none;stroke:red;stroke-width:1px;stroke-linecap:butt;stroke-linejoin:miter;stroke-opacity:1" d="M 120.706,159.608 81.8039,125.569 z" id="boundary" inkscape:connector-curvature="0" />
	<path style="fill:none;stroke:red;stroke-width:1px;stroke-linecap:butt;stroke-linejoin:miter;stroke-opacity:1" d="M 106.118,33.1765 81.8039,76.9412 z" id="boundary" inkscape:connector-curvature="0" />
	<path style="fill:none;stroke:red;stroke-width:1px;stroke-linecap:butt;stroke-linejoin:miter;stroke-opacity:1" d="M 81.8039,125.569 52.6275,164.471 z" id="boundary" inkscape:connector-curvature="0" />
	<path style="fill:none;stroke:red;stroke-width:1px;stroke-linecap:butt;stroke-linejoin:miter;stroke-opacity:1" d="M 4,232.549 4,183.922 z" id="boundary" inkscape:connector-curvature="0" />
	<path style="fill:none;stroke:red;stroke-width:1px;stroke-linecap:butt;stroke-linejoin:miter;stroke-opacity:1" d="M 4,183.922 52.6275,164.471 z" id="boundary" inkscape:connector-curvature="0" />
	<path style="fill:none;stroke:red;stroke-width:1px;stroke-linecap:butt;stroke-linejoin:miter;stroke-opacity:1" d="M 145.02,4 227.686,8.86275 z" id="boundary" inkscape:connector-curvature="0" />
	<path style="fill:none;stroke:red;stroke-width:1px;stroke-linecap:butt;stroke-linejoin:miter;stroke-opacity:1" d="M 227.686,8.86275 183.922,33.1765 z" id="boundary" inkscape:connector-curvature="0" />
	<path style="fill:none;stroke:red;stroke-width:1px;stroke-linecap:butt;stroke-linejoin:miter;stroke-opacity:1" d="M 183.922,33.1765 145.02,4 z" id="boundary" inkscape:connector-curvature="0" />
	<path style="fill:none;stroke:red;stroke-width:1px;stroke-linecap:butt;stroke-linejoin:miter;stroke-opacity:1" d="M 227.686,8.86275 232.549,57.4902 z" id="boundary" inkscape:connector-curvature="0" />
	<path style="fill:none;stroke:red;stroke-width:1px;stroke-linecap:butt;stroke-linejoin:miter;stroke-opacity:1" d="M 169.333,164.471 120.706,159.608 z" id="boundary" inkscape:connector-curvature="0" />
	<path style="fill:none;stroke:red;stroke-width:1px;stroke-linecap:butt;stroke-linejoin:miter;stroke-opacity:1" d="M 169.333,164.471 217.961,164.471 z" id="boundary" inkscape:connector-curvature="0" />
	<path style="fill:none;stroke:red;stroke-width:1px;stroke-linecap:butt;stroke-linejoin:miter;stroke-opacity:1" d="M 217.961,164.471 261.725,188.784 z" id="boundary" inkscape:connector-curvature="0" />
	<path style="fill:none;stroke:red;stroke-width:1px;stroke-linecap:butt;stroke-linejoin:miter;stroke-opacity:1" d="M 232.549,57.4902 217.961,164.471 z" id="boundary" inkscape:connector-curvature="0" />
	<path style="fill:none;stroke:red;stroke-width:1px;stroke-linecap:butt;stroke-linejoin:miter;stroke-opacity:1" d="M 106.118,33.1765 145.02,4 z" id="boundary" inkscape:connector-curvature="0" />
	<path style="fill:none;stroke:red;stroke-width:1px;stroke-linecap:butt;stroke-linejoin:miter;stroke-opacity:1" d="M 42.902,315.216 4,281.176 z" id="boundary" inkscape:connector-curvature="0" />
	<path style="fill:none;stroke:red;stroke-width:1px;stroke-linecap:butt;stroke-linejoin:miter;stroke-opacity:1" d="M 4,281.176 4,232.549 z" id="boundary" inkscape:connector-curvature="0" />
	<path style="fill:none;stroke:red;stroke-width:1px;stroke-linecap:butt;stroke-linejoin:miter;stroke-opacity:1" d="M 91.5294,315.216 42.902,315.216 z" id="boundary" inkscape:connector-curvature="0" />
	<path style="fill:none;stroke:red;stroke-width:1px;stroke-linecap:butt;stroke-linejoin:miter;stroke-opacity:1" d="M 130.431,344.392 140.157,393.02 z" id="boundary" inkscape:connector-curvature="0" />
	<path style="fill:none;stroke:red;stroke-width:1px;stroke-linecap:butt;stroke-linejoin:miter;stroke-opacity:1" d="M 91.5294,315.216 130.431,344.392 z" id="boundary" inkscape:connector-curvature="0" />
	<path style="fill:none;stroke:red;stroke-width:1px;stroke-linecap:butt;stroke-linejoin:miter;stroke-opacity:1" d="M 169.333,431.922 217.961,451.373 z" id="boundary" inkscape:connector-curvature="0" />
	<path style="fill:none;stroke:red;stroke-width:1px;stroke-linecap:butt;stroke-linejoin:miter;stroke-opacity:1" d="M 169.333,431.922 140.157,393.02 z" id="boundary" inkscape:connector-curvature="0" />
	<path style="fill:none;stroke:red;stroke-width:1px;stroke-linecap:butt;stroke-linejoin:miter;stroke-opacity:1" d="M 266.588,456.235 217.961,451.373 z" id="boundary" inkscape:connector-curvature="0" />
	<path style="fill:none;stroke:red;stroke-width:1px;stroke-linecap:butt;stroke-linejoin:miter;stroke-opacity:1" d="M 276.314,504.863 276.314,553.49 z" id="boundary" inkscape:connector-curvature="0" />
	<path style="fill:none;stroke:red;stroke-width:1px;stroke-linecap:butt;stroke-linejoin:miter;stroke-opacity:1" d="M 276.314,504.863 266.588,456.235 z" id="boundary" inkscape:connector-curvature="0" />
	<path style="fill:none;stroke:red;stroke-width:1px;stroke-linecap:butt;stroke-linejoin:miter;stroke-opacity:1" d="M 276.314,553.49 276.314,602.118 z" id="boundary" inkscape:connector-curvature="0" />
	<path style="fill:none;stroke:red;stroke-width:1px;stroke-linecap:butt;stroke-linejoin:miter;stroke-opacity:1" d="M 276.314,602.118 276.314,650.745 z" id="boundary" inkscape:connector-curvature="0" />
	<path style="fill:none;stroke:red;stroke-width:1px;stroke-linecap:butt;stroke-linejoin:miter;stroke-opacity:1" d="M 227.686,942.51 227.686,991.137 z" id="boundary" inkscape:connector-curvature="0" />
	<path style="fill:none;stroke:red;stroke-width:1px;stroke-linecap:butt;stroke-linejoin:miter;stroke-opacity:1" d="M 276.314,996 227.686,991.137 z" id="boundary" inkscape:connector-curvature="0" />
	<path style="fill:none;stroke:red;stroke-width:1px;stroke-linecap:butt;stroke-linejoin:miter;stroke-opacity:1" d="M 276.314,650.745 276.314,699.373 z" id="boundary" inkscape:connector-curvature="0" />
	<path style="fill:none;stroke:red;stroke-width:1px;stroke-linecap:butt;stroke-linejoin:miter;stroke-opacity:1" d="M 256.863,893.882 227.686,942.51 z" id="boundary" inkscape:connector-curvature="0" />
	<path style="fill:none;stroke:red;stroke-width:1px;stroke-linecap:butt;stroke-linejoin:miter;stroke-opacity:1" d="M 261.725,188.784 290.902,227.686 z" id="boundary" inkscape:connector-curvature="0" />
	<path style="fill:none;stroke:red;stroke-width:1px;stroke-linecap:butt;stroke-linejoin:miter;stroke-opacity:1" d="M 378.431,261.725 329.804,261.725 z" id="boundary" inkscape:connector-curvature="0" />
	<path style="fill:none;stroke:red;stroke-width:1px;stroke-linecap:butt;stroke-linejoin:miter;stroke-opacity:1" d="M 329.804,261.725 290.902,227.686 z" id="boundary" inkscape:connector-curvature="0" />
	<path style="fill:none;stroke:red;stroke-width:1px;stroke-linecap:butt;stroke-linejoin:miter;stroke-opacity:1" d="M 456.235,397.882 456.235,446.51 z" id="boundary" inkscape:connector-curvature="0" />
	<path style="fill:none;stroke:red;stroke-width:1px;stroke-linecap:butt;stroke-linejoin:miter;stroke-opacity:1" d="M 378.431,261.725 427.059,261.725 z" id="boundary" inkscape:connector-curvature="0" />
	<path style="fill:none;stroke:red;stroke-width:1px;stroke-linecap:butt;stroke-linejoin:miter;stroke-opacity:1" d="M 456.235,446.51 456.235,495.137 z" id="boundary" inkscape:connector-curvature="0" />
	<path style="fill:none;stroke:red;stroke-width:1px;stroke-linecap:butt;stroke-linejoin:miter;stroke-opacity:1" d="M 475.686,349.255 456.235,397.882 z" id="boundary" inkscape:connector-curvature="0" />
	<path style="fill:none;stroke:red;stroke-width:1px;stroke-linecap:butt;stroke-linejoin:miter;stroke-opacity:1" d="M 456.235,495.137 456.235,543.765 z" id="boundary" inkscape:connector-curvature="0" />
	<path style="fill:none;stroke:red;stroke-width:1px;stroke-linecap:butt;stroke-linejoin:miter;stroke-opacity:1" d="M 475.686,261.725 524.314,261.725 z" id="boundary" inkscape:connector-curvature="0" />
	<path style="fill:none;stroke:red;stroke-width:1px;stroke-linecap:butt;stroke-linejoin:miter;stroke-opacity:1" d="M 524.314,261.725 514.588,315.216 z" id="boundary" inkscape:connector-curvature="0" />
	<path style="fill:none;stroke:red;stroke-width:1px;stroke-linecap:butt;stroke-linejoin:miter;stroke-opacity:1" d="M 475.686,261.725 427.059,261.725 z" id="boundary" inkscape:connector-curvature="0" />
	<path style="fill:none;stroke:red;stroke-width:1px;stroke-linecap:butt;stroke-linejoin:miter;stroke-opacity:1" d="M 456.235,689.647 456.235,641.02 z" id="boundary" inkscape:connector-curvature="0" />
	<path style="fill:none;stroke:red;stroke-width:1px;stroke-linecap:butt;stroke-linejoin:miter;stroke-opacity:1" d="M 514.588,315.216 475.686,349.255 z" id="boundary" inkscape:connector-curvature="0" />
	<path style="fill:none;stroke:red;stroke-width:1px;stroke-linecap:butt;stroke-linejoin:miter;stroke-opacity:1" d="M 456.235,543.765 456.235,592.392 z" id="boundary" inkscape:connector-curvature="0" />
	<path style="fill:none;stroke:red;stroke-width:1px;stroke-linecap:butt;stroke-linejoin:miter;stroke-opacity:1" d="M 456.235,641.02 456.235,592.392 z" id="boundary" inkscape:connector-curvature="0" />
	<path style="fill:none;stroke:red;stroke-width:1px;stroke-linecap:butt;stroke-linejoin:miter;stroke-opacity:1" d="M 276.314,699.373 276.314,748 z" id="boundary" inkscape:connector-curvature="0" />
	<path style="fill:none;stroke:red;stroke-width:1px;stroke-linecap:butt;stroke-linejoin:miter;stroke-opacity:1" d="M 276.314,796.627 276.314,748 z" id="boundary" inkscape:connector-curvature="0" />
	<path style="fill:none;stroke:red;stroke-width:1px;stroke-linecap:butt;stroke-linejoin:miter;stroke-opacity:1" d="M 276.314,845.255 276.314,796.627 z" id="boundary" inkscape:connector-curvature="0" />
	<path style="fill:none;stroke:red;stroke-width:1px;stroke-linecap:butt;stroke-linejoin:miter;stroke-opacity:1" d="M 256.863,893.882 276.314,845.255 z" id="boundary" inkscape:connector-curvature="0" />
	<path style="fill:none;stroke:red;stroke-width:1px;stroke-linecap:butt;stroke-linejoin:miter;stroke-opacity:1" d="M 324.941,996 276.314,996 z" id="boundary" inkscape:connector-curvature="0" />
	<path style="fill:none;stroke:red;stroke-width:1px;stroke-linecap:butt;stroke-linejoin:miter;stroke-opacity:1" d="M 373.569,996 324.941,996 z" id="boundary" inkscape:connector-curvature="0" />
	<path style="fill:none;stroke:red;stroke-width:1px;stroke-linecap:butt;stroke-linejoin:miter;stroke-opacity:1" d="M 456.235,738.275 456.235,786.902 z" id="boundary" inkscape:connector-curvature="0" />
	<path style="fill:none;stroke:red;stroke-width:1px;stroke-linecap:butt;stroke-linejoin:miter;stroke-opacity:1" d="M 456.235,738.275 456.235,689.647 z" id="boundary" inkscape:connector-curvature="0" />
	<path style="fill:none;stroke:red;stroke-width:1px;stroke-linecap:butt;stroke-linejoin:miter;stroke-opacity:1" d="M 456.235,835.529 461.098,884.157 z" id="boundary" inkscape:connector-curvature="0" />
	<path style="fill:none;stroke:red;stroke-width:1px;stroke-linecap:butt;stroke-linejoin:miter;stroke-opacity:1" d="M 456.235,835.529 456.235,786.902 z" id="boundary" inkscape:connector-curvature="0" />
	<path style="fill:none;stroke:red;stroke-width:1px;stroke-linecap:butt;stroke-linejoin:miter;stroke-opacity:1" d="M 461.098,884.157 480.549,932.784 z" id="boundary" inkscape:connector-curvature="0" />
	<path style="fill:none;stroke:red;stroke-width:1px;stroke-linecap:butt;stroke-linejoin:miter;stroke-opacity:1" d="M 422.196,996 373.569,996 z" id="boundary" inkscape:connector-curvature="0" />
	<path style="fill:none;stroke:red;stroke-width:1px;stroke-linecap:butt;stroke-linejoin:miter;stroke-opacity:1" d="M 480.549,932.784 470.824,996 z" id="boundary" inkscape:connector-curvature="0" />
	<path style="fill:none;stroke:red;stroke-width:1px;stroke-linecap:butt;stroke-linejoin:miter;stroke-opacity:1" d="M 470.824,996 422.196,996 z" id="boundary" inkscape:connector-curvature="0" />
	<circle cx="4" cy="183.922" r="4" fill="#0" id="circle0"/>
	<circle cx="4" cy="232.549" r="4" fill="#0" id="circle1"/>
	<circle cx="4" cy="281.176" r="4" fill="#0" id="circle2"/>
	<circle cx="42.902" cy="315.216" r="4" fill="#0" id="circle3"/>
	<circle cx="52.6275" cy="164.471" r="4" fill="#0" id="circle4"/>
	<circle cx="81.8039" cy="76.9412" r="4" fill="#0" id="circle5"/>
	<circle cx="81.8039" cy="125.569" r="4" fill="#0" id="circle6"/>
	<circle cx="91.5294" cy="315.216" r="4" fill="#0" id="circle7"/>
	<circle cx="106.118" cy="33.1765" r="4" fill="#0" id="circle8"/>
	<circle cx="120.706" cy="159.608" r="4" fill="#0" id="circle9"/>
	<circle cx="130.431" cy="344.392" r="4" fill="#0" id="circle10"/>
	<circle cx="140.157" cy="393.02" r="4" fill="#0" id="circle11"/>
	<circle cx="145.02" cy="4" r="4" fill="#0" id="circle12"/>
	<circle cx="169.333" cy="164.471" r="4" fill="#0" id="circle13"/>
	<circle cx="169.333" cy="431.922" r="4" fill="#0" id="circle14"/>
	<circle cx="183.922" cy="33.1765" r="4" fill="#0" id="circle15"/>
	<circle cx="217.961" cy="164.471" r="4" fill="#0" id="circle16"/>
	<circle cx="217.961" cy="451.373" r="4" fill="#0" id="circle17"/>
	<circle cx="227.686" cy="8.86275" r="4" fill="#0" id="circle18"/>
	<circle cx="227.686" cy="942.51" r="4" fill="#0" id="circle19"/>
	<circle cx="227.686" cy="991.137" r="4" fill="#0" id="circle20"/>
	<circle cx="232.549" cy="57.4902" r="4" fill="#0" id="circle21"/>
	<circle cx="256.863" cy="893.882" r="4" fill="#0" id="circle22"/>
	<circle cx="261.725" cy="188.784" r="4" fill="#0" id="circle23"/>
	<circle cx="266.588" cy="456.235" r="4" fill="#0" id="circle24"/>
	<circle cx="276.314" cy="504.863" r="4" fill="#0" id="circle25"/>
	<circle cx="276.314" cy="553.49" r="4" fill="#0" id="circle26"/>
	<circle cx="276.314" cy="602.118" r="4" fill="#0" id="circle27"/>
	<circle cx="276.314" cy="650.745" r="4" fill="#0" id="circle28"/>
	<circle cx="276.314" cy="699.373" r="4" fill="#0" id="circle29"/>
	<circle cx="276.314" cy="748" r="4" fill="#0" id="circle30"/>
	<circle cx="276.314" cy="796.627" r="4" fill="#0" id="circle31"/>
	<circle cx="276.314" cy="845.255" r="4" fill="#0" id="circle32"/>
	<circle cx="276.314" cy="996" r="4" fill="#0" id="circle33"/>
	<circle cx="290.902" cy="227.686" r="4" fill="#0" id="circle34"/>
	<circle cx="324.941" cy="996" r="4" fill="#0" id="circle35"/>
	<circle cx="329.804" cy="261.725" r="4" fill="#0" id="circle36"/>
	<circle cx="373.569" cy="996" r="4" fill="#0" id="circle37"/>
	<circle cx="378.431" cy="261.725" r="4" fill="#0" id="circle38"/>
	<circle cx="422.196" cy="996" r="4" fill="#0" id="circle39"/>
	<circle cx="427.059" cy="261.725" r="4" fill="#0" id="circle40"/>
	<circle cx="456.235" cy="397.882" r="4" fill="#0" id="circle41"/>
	<circle cx="456.235" cy="446.51" r="4" fill="#0" id="circle42"/>
	<circle cx="456.235" cy="495.137" r="4" fill="#0" id="circle43"/>
	<circle cx="456.235" cy="543.765" r="4" fill="#0" id="circle44"/>
	<circle cx="456.235" cy="592.392" r="4" fill="#0" id="circle45"/>
	<circle cx="456.235" cy="641.02" r="4" fill="#0" id="circle46"/>
	<circle cx="456.235" cy="689.647" r="4" fill="#0" id="circle47"/>
	<circle cx="456.235" cy="738.275" r="4" fill="#0" id="circle48"/>
	<circle cx="456.235" cy="786.902" r="4" fill="#0" id="circle49"/>
	<circle cx="456.235" cy="835.529" r="4" fill="#0" id="circle50"/>
	<circle cx="461.098" cy="884.157" r="4" fill="#0" id="circle51"/>
	<circle cx="470.824" cy="996" r="4" fill="#0" id="circle52"/>
	<circle cx="475.686" cy="261.725" r="4" fill="#0" id="circle53"/>
	<circle cx="475.686" cy="349.255" r="4" fill="#0" id="circle54"/>
	<circle cx="480.549" cy="932.784" r="4" fill="#0" id="circle55"/>
	<circle cx="514.588" cy="315.216" r="4" fill="#0" id="circle56"/>
	<circle cx="524.314" cy="261.725" r="4" fill="#0" id="circle57"/>
	</g>
</svg>