<?xml version="1.0" encoding="UTF-8" standalone="no"?>
<!-- Created with CurveBenchmark -->
<svg
	xmlns:dc="http://purl.org/dc/elements/1.1/"
	xmlns:cc="http://creativecommons.org/ns#"
	xmlns:rdf="http://www.w3.org/1999/02/22-rdf-syntax-ns#"
	xmlns:svg="http://www.w3.org/2000/svg"
	xmlns="http://www.w3.org/2000/svg"
	xmlns:sodipodi="http://sodipodi.sourceforge.net/DTD/sodipodi-0.dtd"
	xmlns:inkscape="http://www.inkscape.org/namespaces/inkscape"
	width="1000"
	height="1000"
	id="svg2"
	version="1.1"
	sodipodi:docname="manifold/nncrust-fountain08.png.txt">
<defs
	id="defs4" />
<metadata
	id="metadata7">
	<rdf:RDF>
		<cc:Work
			rdf:about="">
			<dc:format>image/svg+xml</dc:format>
			<dc:type
				rdf:resource="http://purl.org/dc/dcmitype/StillImage" />
			<dc:title></dc:title>
		</cc:Work>
	</rdf:RDF>
</metadata>
<g
	inkscape:label="Layer 1"
	inkscape:groupmode="layer"
	id="layer1">
	<path style="fill:none;stroke:red;stroke-width:1px;stroke-linecap:butt;stroke-linejoin:miter;stroke-opacity:1" d="M 281.206,366.347 261.405,366.347 z" id="boundary" inkscape:connector-curvature="0" />
	<path style="fill:none;stroke:red;stroke-width:1px;stroke-linecap:butt;stroke-linejoin:miter;stroke-opacity:1" d="M 261.405,366.347 241.605,372.287 z" id="boundary" inkscape:connector-curvature="0" />
	<path style="fill:none;stroke:red;stroke-width:1px;stroke-linecap:butt;stroke-linejoin:miter;stroke-opacity:1" d="M 281.206,366.347 301.006,366.347 z" id="boundary" inkscape:connector-curvature="0" />
	<path style="fill:none;stroke:red;stroke-width:1px;stroke-linecap:butt;stroke-linejoin:miter;stroke-opacity:1" d="M 370.307,164.383 370.307,184.184 z" id="boundary" inkscape:connector-curvature="0" />
	<path style="fill:none;stroke:red;stroke-width:1px;stroke-linecap:butt;stroke-linejoin:miter;stroke-opacity:1" d="M 409.908,190.124 390.108,190.124 z" id="boundary" inkscape:connector-curvature="0" />
	<path style="fill:none;stroke:red;stroke-width:1px;stroke-linecap:butt;stroke-linejoin:miter;stroke-opacity:1" d="M 409.908,148.543 390.108,154.483 z" id="boundary" inkscape:connector-curvature="0" />
	<path style="fill:none;stroke:red;stroke-width:1px;stroke-linecap:butt;stroke-linejoin:miter;stroke-opacity:1" d="M 370.307,184.184 390.108,190.124 z" id="boundary" inkscape:connector-curvature="0" />
	<path style="fill:none;stroke:red;stroke-width:1px;stroke-linecap:butt;stroke-linejoin:miter;stroke-opacity:1" d="M 320.806,366.347 301.006,366.347 z" id="boundary" inkscape:connector-curvature="0" />
	<path style="fill:none;stroke:red;stroke-width:1px;stroke-linecap:butt;stroke-linejoin:miter;stroke-opacity:1" d="M 370.307,164.383 390.108,154.483 z" id="boundary" inkscape:connector-curvature="0" />
	<path style="fill:none;stroke:red;stroke-width:1px;stroke-linecap:butt;stroke-linejoin:miter;stroke-opacity:1" d="M 400.008,362.387 380.208,366.347 z" id="boundary" inkscape:connector-curvature="0" />
	<path style="fill:none;stroke:red;stroke-width:1px;stroke-linecap:butt;stroke-linejoin:miter;stroke-opacity:1" d="M 202.004,392.088 221.804,382.188 z" id="boundary" inkscape:connector-curvature="0" />
	<path style="fill:none;stroke:red;stroke-width:1px;stroke-linecap:butt;stroke-linejoin:miter;stroke-opacity:1" d="M 192.104,411.888 202.004,392.088 z" id="boundary" inkscape:connector-curvature="0" />
	<path style="fill:none;stroke:red;stroke-width:1px;stroke-linecap:butt;stroke-linejoin:miter;stroke-opacity:1" d="M 182.204,431.689 192.104,411.888 z" id="boundary" inkscape:connector-curvature="0" />
	<path style="fill:none;stroke:red;stroke-width:1px;stroke-linecap:butt;stroke-linejoin:miter;stroke-opacity:1" d="M 182.204,451.489 182.204,431.689 z" id="boundary" inkscape:connector-curvature="0" />
	<path style="fill:none;stroke:red;stroke-width:1px;stroke-linecap:butt;stroke-linejoin:miter;stroke-opacity:1" d="M 182.204,451.489 162.403,471.289 z" id="boundary" inkscape:connector-curvature="0" />
	<path style="fill:none;stroke:red;stroke-width:1px;stroke-linecap:butt;stroke-linejoin:miter;stroke-opacity:1" d="M 221.804,382.188 241.605,372.287 z" id="boundary" inkscape:connector-curvature="0" />
	<path style="fill:none;stroke:red;stroke-width:1px;stroke-linecap:butt;stroke-linejoin:miter;stroke-opacity:1" d="M 320.806,366.347 340.607,366.347 z" id="boundary" inkscape:connector-curvature="0" />
	<path style="fill:none;stroke:red;stroke-width:1px;stroke-linecap:butt;stroke-linejoin:miter;stroke-opacity:1" d="M 340.607,366.347 360.407,366.347 z" id="boundary" inkscape:connector-curvature="0" />
	<path style="fill:none;stroke:red;stroke-width:1px;stroke-linecap:butt;stroke-linejoin:miter;stroke-opacity:1" d="M 380.208,366.347 360.407,366.347 z" id="boundary" inkscape:connector-curvature="0" />
	<path style="fill:none;stroke:red;stroke-width:1px;stroke-linecap:butt;stroke-linejoin:miter;stroke-opacity:1" d="M 459.409,55.481 469.309,35.6806 z" id="boundary" inkscape:connector-curvature="0" />
	<path style="fill:none;stroke:red;stroke-width:1px;stroke-linecap:butt;stroke-linejoin:miter;stroke-opacity:1" d="M 469.309,73.3014 459.409,55.481 z" id="boundary" inkscape:connector-curvature="0" />
	<path style="fill:none;stroke:red;stroke-width:1px;stroke-linecap:butt;stroke-linejoin:miter;stroke-opacity:1" d="M 449.509,138.643 429.709,144.583 z" id="boundary" inkscape:connector-curvature="0" />
	<path style="fill:none;stroke:red;stroke-width:1px;stroke-linecap:butt;stroke-linejoin:miter;stroke-opacity:1" d="M 469.309,73.3014 469.309,93.1018 z" id="boundary" inkscape:connector-curvature="0" />
	<path style="fill:none;stroke:red;stroke-width:1px;stroke-linecap:butt;stroke-linejoin:miter;stroke-opacity:1" d="M 409.908,148.543 429.709,144.583 z" id="boundary" inkscape:connector-curvature="0" />
	<path style="fill:none;stroke:red;stroke-width:1px;stroke-linecap:butt;stroke-linejoin:miter;stroke-opacity:1" d="M 469.309,93.1018 469.309,112.902 z" id="boundary" inkscape:connector-curvature="0" />
	<path style="fill:none;stroke:red;stroke-width:1px;stroke-linecap:butt;stroke-linejoin:miter;stroke-opacity:1" d="M 469.309,132.703 469.309,112.902 z" id="boundary" inkscape:connector-curvature="0" />
	<path style="fill:none;stroke:red;stroke-width:1px;stroke-linecap:butt;stroke-linejoin:miter;stroke-opacity:1" d="M 469.309,132.703 449.509,138.643 z" id="boundary" inkscape:connector-curvature="0" />
	<path style="fill:none;stroke:red;stroke-width:1px;stroke-linecap:butt;stroke-linejoin:miter;stroke-opacity:1" d="M 469.309,35.6806 479.21,15.8802 z" id="boundary" inkscape:connector-curvature="0" />
	<path style="fill:none;stroke:red;stroke-width:1px;stroke-linecap:butt;stroke-linejoin:miter;stroke-opacity:1" d="M 421.788,205.964 409.908,190.124 z" id="boundary" inkscape:connector-curvature="0" />
	<path style="fill:none;stroke:red;stroke-width:1px;stroke-linecap:butt;stroke-linejoin:miter;stroke-opacity:1" d="M 439.609,342.587 419.808,356.447 z" id="boundary" inkscape:connector-curvature="0" />
	<path style="fill:none;stroke:red;stroke-width:1px;stroke-linecap:butt;stroke-linejoin:miter;stroke-opacity:1" d="M 449.509,314.866 439.609,342.587 z" id="boundary" inkscape:connector-curvature="0" />
	<path style="fill:none;stroke:red;stroke-width:1px;stroke-linecap:butt;stroke-linejoin:miter;stroke-opacity:1" d="M 449.509,275.265 449.509,295.066 z" id="boundary" inkscape:connector-curvature="0" />
	<path style="fill:none;stroke:red;stroke-width:1px;stroke-linecap:butt;stroke-linejoin:miter;stroke-opacity:1" d="M 421.788,205.964 437.629,219.824 z" id="boundary" inkscape:connector-curvature="0" />
	<path style="fill:none;stroke:red;stroke-width:1px;stroke-linecap:butt;stroke-linejoin:miter;stroke-opacity:1" d="M 518.81,784.136 499.01,784.136 z" id="boundary" inkscape:connector-curvature="0" />
	<path style="fill:none;stroke:red;stroke-width:1px;stroke-linecap:butt;stroke-linejoin:miter;stroke-opacity:1" d="M 449.509,235.665 449.509,255.465 z" id="boundary" inkscape:connector-curvature="0" />
	<path style="fill:none;stroke:red;stroke-width:1px;stroke-linecap:butt;stroke-linejoin:miter;stroke-opacity:1" d="M 437.629,219.824 449.509,235.665 z" id="boundary" inkscape:connector-curvature="0" />
	<path style="fill:none;stroke:red;stroke-width:1px;stroke-linecap:butt;stroke-linejoin:miter;stroke-opacity:1" d="M 449.509,295.066 449.509,314.866 z" id="boundary" inkscape:connector-curvature="0" />
	<path style="fill:none;stroke:red;stroke-width:1px;stroke-linecap:butt;stroke-linejoin:miter;stroke-opacity:1" d="M 419.808,356.447 400.008,362.387 z" id="boundary" inkscape:connector-curvature="0" />
	<path style="fill:none;stroke:red;stroke-width:1px;stroke-linecap:butt;stroke-linejoin:miter;stroke-opacity:1" d="M 449.509,275.265 449.509,255.465 z" id="boundary" inkscape:connector-curvature="0" />
	<path style="fill:none;stroke:red;stroke-width:1px;stroke-linecap:butt;stroke-linejoin:miter;stroke-opacity:1" d="M 33.7006,550.491 43.6008,530.691 z" id="boundary" inkscape:connector-curvature="0" />
	<path style="fill:none;stroke:red;stroke-width:1px;stroke-linecap:butt;stroke-linejoin:miter;stroke-opacity:1" d="M 43.6008,530.691 63.4012,520.79 z" id="boundary" inkscape:connector-curvature="0" />
	<path style="fill:none;stroke:red;stroke-width:1px;stroke-linecap:butt;stroke-linejoin:miter;stroke-opacity:1" d="M 33.7006,550.491 13.9002,560.391 z" id="boundary" inkscape:connector-curvature="0" />
	<path style="fill:none;stroke:red;stroke-width:1px;stroke-linecap:butt;stroke-linejoin:miter;stroke-opacity:1" d="M 13.9002,560.391 13.9002,580.192 z" id="boundary" inkscape:connector-curvature="0" />
	<path style="fill:none;stroke:red;stroke-width:1px;stroke-linecap:butt;stroke-linejoin:miter;stroke-opacity:1" d="M 13.9002,580.192 4,599.992 z" id="boundary" inkscape:connector-curvature="0" />
	<path style="fill:none;stroke:red;stroke-width:1px;stroke-linecap:butt;stroke-linejoin:miter;stroke-opacity:1" d="M 142.603,481.19 122.802,491.09 z" id="boundary" inkscape:connector-curvature="0" />
	<path style="fill:none;stroke:red;stroke-width:1px;stroke-linecap:butt;stroke-linejoin:miter;stroke-opacity:1" d="M 83.2016,510.89 63.4012,520.79 z" id="boundary" inkscape:connector-curvature="0" />
	<path style="fill:none;stroke:red;stroke-width:1px;stroke-linecap:butt;stroke-linejoin:miter;stroke-opacity:1" d="M 103.002,500.99 83.2016,510.89 z" id="boundary" inkscape:connector-curvature="0" />
	<path style="fill:none;stroke:red;stroke-width:1px;stroke-linecap:butt;stroke-linejoin:miter;stroke-opacity:1" d="M 122.802,491.09 103.002,500.99 z" id="boundary" inkscape:connector-curvature="0" />
	<path style="fill:none;stroke:red;stroke-width:1px;stroke-linecap:butt;stroke-linejoin:miter;stroke-opacity:1" d="M 4,619.792 4,599.992 z" id="boundary" inkscape:connector-curvature="0" />
	<path style="fill:none;stroke:red;stroke-width:1px;stroke-linecap:butt;stroke-linejoin:miter;stroke-opacity:1" d="M 13.9002,637.613 4,619.792 z" id="boundary" inkscape:connector-curvature="0" />
	<path style="fill:none;stroke:red;stroke-width:1px;stroke-linecap:butt;stroke-linejoin:miter;stroke-opacity:1" d="M 23.8004,655.433 13.9002,637.613 z" id="boundary" inkscape:connector-curvature="0" />
	<path style="fill:none;stroke:red;stroke-width:1px;stroke-linecap:butt;stroke-linejoin:miter;stroke-opacity:1" d="M 49.5409,685.134 33.7006,673.253 z" id="boundary" inkscape:connector-curvature="0" />
	<path style="fill:none;stroke:red;stroke-width:1px;stroke-linecap:butt;stroke-linejoin:miter;stroke-opacity:1" d="M 33.7006,673.253 23.8004,655.433 z" id="boundary" inkscape:connector-curvature="0" />
	<path style="fill:none;stroke:red;stroke-width:1px;stroke-linecap:butt;stroke-linejoin:miter;stroke-opacity:1" d="M 69.3413,693.054 49.5409,685.134 z" id="boundary" inkscape:connector-curvature="0" />
	<path style="fill:none;stroke:red;stroke-width:1px;stroke-linecap:butt;stroke-linejoin:miter;stroke-opacity:1" d="M 108.942,702.954 126.762,712.854 z" id="boundary" inkscape:connector-curvature="0" />
	<path style="fill:none;stroke:red;stroke-width:1px;stroke-linecap:butt;stroke-linejoin:miter;stroke-opacity:1" d="M 108.942,702.954 89.1417,695.034 z" id="boundary" inkscape:connector-curvature="0" />
	<path style="fill:none;stroke:red;stroke-width:1px;stroke-linecap:butt;stroke-linejoin:miter;stroke-opacity:1" d="M 69.3413,693.054 89.1417,695.034 z" id="boundary" inkscape:connector-curvature="0" />
	<path style="fill:none;stroke:red;stroke-width:1px;stroke-linecap:butt;stroke-linejoin:miter;stroke-opacity:1" d="M 146.563,714.834 126.762,712.854 z" id="boundary" inkscape:connector-curvature="0" />
	<path style="fill:none;stroke:red;stroke-width:1px;stroke-linecap:butt;stroke-linejoin:miter;stroke-opacity:1" d="M 166.363,720.774 146.563,714.834 z" id="boundary" inkscape:connector-curvature="0" />
	<path style="fill:none;stroke:red;stroke-width:1px;stroke-linecap:butt;stroke-linejoin:miter;stroke-opacity:1" d="M 142.603,481.19 162.403,471.289 z" id="boundary" inkscape:connector-curvature="0" />
	<path style="fill:none;stroke:red;stroke-width:1px;stroke-linecap:butt;stroke-linejoin:miter;stroke-opacity:1" d="M 184.184,730.675 166.363,720.774 z" id="boundary" inkscape:connector-curvature="0" />
	<path style="fill:none;stroke:red;stroke-width:1px;stroke-linecap:butt;stroke-linejoin:miter;stroke-opacity:1" d="M 203.984,738.595 184.184,730.675 z" id="boundary" inkscape:connector-curvature="0" />
	<path style="fill:none;stroke:red;stroke-width:1px;stroke-linecap:butt;stroke-linejoin:miter;stroke-opacity:1" d="M 223.784,744.535 203.984,738.595 z" id="boundary" inkscape:connector-curvature="0" />
	<path style="fill:none;stroke:red;stroke-width:1px;stroke-linecap:butt;stroke-linejoin:miter;stroke-opacity:1" d="M 223.784,744.535 243.585,748.495 z" id="boundary" inkscape:connector-curvature="0" />
	<path style="fill:none;stroke:red;stroke-width:1px;stroke-linecap:butt;stroke-linejoin:miter;stroke-opacity:1" d="M 243.585,748.495 263.385,754.435 z" id="boundary" inkscape:connector-curvature="0" />
	<path style="fill:none;stroke:red;stroke-width:1px;stroke-linecap:butt;stroke-linejoin:miter;stroke-opacity:1" d="M 263.385,754.435 283.186,758.395 z" id="boundary" inkscape:connector-curvature="0" />
	<path style="fill:none;stroke:red;stroke-width:1px;stroke-linecap:butt;stroke-linejoin:miter;stroke-opacity:1" d="M 283.186,758.395 302.986,764.335 z" id="boundary" inkscape:connector-curvature="0" />
	<path style="fill:none;stroke:red;stroke-width:1px;stroke-linecap:butt;stroke-linejoin:miter;stroke-opacity:1" d="M 322.786,768.295 342.587,774.236 z" id="boundary" inkscape:connector-curvature="0" />
	<path style="fill:none;stroke:red;stroke-width:1px;stroke-linecap:butt;stroke-linejoin:miter;stroke-opacity:1" d="M 302.986,764.335 322.786,768.295 z" id="boundary" inkscape:connector-curvature="0" />
	<path style="fill:none;stroke:red;stroke-width:1px;stroke-linecap:butt;stroke-linejoin:miter;stroke-opacity:1" d="M 362.387,774.236 342.587,774.236 z" id="boundary" inkscape:connector-curvature="0" />
	<path style="fill:none;stroke:red;stroke-width:1px;stroke-linecap:butt;stroke-linejoin:miter;stroke-opacity:1" d="M 362.387,774.236 382.188,774.236 z" id="boundary" inkscape:connector-curvature="0" />
	<path style="fill:none;stroke:red;stroke-width:1px;stroke-linecap:butt;stroke-linejoin:miter;stroke-opacity:1" d="M 382.188,774.236 401.988,774.236 z" id="boundary" inkscape:connector-curvature="0" />
	<path style="fill:none;stroke:red;stroke-width:1px;stroke-linecap:butt;stroke-linejoin:miter;stroke-opacity:1" d="M 401.988,774.236 419.808,784.136 z" id="boundary" inkscape:connector-curvature="0" />
	<path style="fill:none;stroke:red;stroke-width:1px;stroke-linecap:butt;stroke-linejoin:miter;stroke-opacity:1" d="M 419.808,784.136 439.609,784.136 z" id="boundary" inkscape:connector-curvature="0" />
	<path style="fill:none;stroke:red;stroke-width:1px;stroke-linecap:butt;stroke-linejoin:miter;stroke-opacity:1" d="M 459.409,784.136 479.21,784.136 z" id="boundary" inkscape:connector-curvature="0" />
	<path style="fill:none;stroke:red;stroke-width:1px;stroke-linecap:butt;stroke-linejoin:miter;stroke-opacity:1" d="M 479.21,784.136 499.01,784.136 z" id="boundary" inkscape:connector-curvature="0" />
	<path style="fill:none;stroke:red;stroke-width:1px;stroke-linecap:butt;stroke-linejoin:miter;stroke-opacity:1" d="M 459.409,784.136 439.609,784.136 z" id="boundary" inkscape:connector-curvature="0" />
	<path style="fill:none;stroke:red;stroke-width:1px;stroke-linecap:butt;stroke-linejoin:miter;stroke-opacity:1" d="M 479.21,15.8802 499.01,5.98004 z" id="boundary" inkscape:connector-curvature="0" />
	<path style="fill:none;stroke:red;stroke-width:1px;stroke-linecap:butt;stroke-linejoin:miter;stroke-opacity:1" d="M 530.691,19.8403 530.691,39.6407 z" id="boundary" inkscape:connector-curvature="0" />
	<path style="fill:none;stroke:red;stroke-width:1px;stroke-linecap:butt;stroke-linejoin:miter;stroke-opacity:1" d="M 530.691,19.8403 518.81,4 z" id="boundary" inkscape:connector-curvature="0" />
	<path style="fill:none;stroke:red;stroke-width:1px;stroke-linecap:butt;stroke-linejoin:miter;stroke-opacity:1" d="M 530.691,39.6407 530.691,59.4411 z" id="boundary" inkscape:connector-curvature="0" />
	<path style="fill:none;stroke:red;stroke-width:1px;stroke-linecap:butt;stroke-linejoin:miter;stroke-opacity:1" d="M 530.691,79.2415 530.691,59.4411 z" id="boundary" inkscape:connector-curvature="0" />
	<path style="fill:none;stroke:red;stroke-width:1px;stroke-linecap:butt;stroke-linejoin:miter;stroke-opacity:1" d="M 530.691,79.2415 530.691,99.0419 z" id="boundary" inkscape:connector-curvature="0" />
	<path style="fill:none;stroke:red;stroke-width:1px;stroke-linecap:butt;stroke-linejoin:miter;stroke-opacity:1" d="M 540.591,136.663 530.691,118.842 z" id="boundary" inkscape:connector-curvature="0" />
	<path style="fill:none;stroke:red;stroke-width:1px;stroke-linecap:butt;stroke-linejoin:miter;stroke-opacity:1" d="M 530.691,118.842 530.691,99.0419 z" id="boundary" inkscape:connector-curvature="0" />
	<path style="fill:none;stroke:red;stroke-width:1px;stroke-linecap:butt;stroke-linejoin:miter;stroke-opacity:1" d="M 556.431,148.543 540.591,136.663 z" id="boundary" inkscape:connector-curvature="0" />
	<path style="fill:none;stroke:red;stroke-width:1px;stroke-linecap:butt;stroke-linejoin:miter;stroke-opacity:1" d="M 576.232,150.523 556.431,148.543 z" id="boundary" inkscape:connector-curvature="0" />
	<path style="fill:none;stroke:red;stroke-width:1px;stroke-linecap:butt;stroke-linejoin:miter;stroke-opacity:1" d="M 530.691,249.525 530.691,229.725 z" id="boundary" inkscape:connector-curvature="0" />
	<path style="fill:none;stroke:red;stroke-width:1px;stroke-linecap:butt;stroke-linejoin:miter;stroke-opacity:1" d="M 540.591,209.924 530.691,229.725 z" id="boundary" inkscape:connector-curvature="0" />
	<path style="fill:none;stroke:red;stroke-width:1px;stroke-linecap:butt;stroke-linejoin:miter;stroke-opacity:1" d="M 540.591,287.146 530.691,269.325 z" id="boundary" inkscape:connector-curvature="0" />
	<path style="fill:none;stroke:red;stroke-width:1px;stroke-linecap:butt;stroke-linejoin:miter;stroke-opacity:1" d="M 530.691,269.325 530.691,249.525 z" id="boundary" inkscape:connector-curvature="0" />
	<path style="fill:none;stroke:red;stroke-width:1px;stroke-linecap:butt;stroke-linejoin:miter;stroke-opacity:1" d="M 540.591,287.146 550.491,304.966 z" id="boundary" inkscape:connector-curvature="0" />
	<path style="fill:none;stroke:red;stroke-width:1px;stroke-linecap:butt;stroke-linejoin:miter;stroke-opacity:1" d="M 540.591,209.924 560.391,200.024 z" id="boundary" inkscape:connector-curvature="0" />
	<path style="fill:none;stroke:red;stroke-width:1px;stroke-linecap:butt;stroke-linejoin:miter;stroke-opacity:1" d="M 580.192,200.024 560.391,200.024 z" id="boundary" inkscape:connector-curvature="0" />
	<path style="fill:none;stroke:red;stroke-width:1px;stroke-linecap:butt;stroke-linejoin:miter;stroke-opacity:1" d="M 566.331,318.826 550.491,304.966 z" id="boundary" inkscape:connector-curvature="0" />
	<path style="fill:none;stroke:red;stroke-width:1px;stroke-linecap:butt;stroke-linejoin:miter;stroke-opacity:1" d="M 566.331,318.826 580.192,334.667 z" id="boundary" inkscape:connector-curvature="0" />
	<path style="fill:none;stroke:red;stroke-width:1px;stroke-linecap:butt;stroke-linejoin:miter;stroke-opacity:1" d="M 576.232,150.523 596.032,158.443 z" id="boundary" inkscape:connector-curvature="0" />
	<path style="fill:none;stroke:red;stroke-width:1px;stroke-linecap:butt;stroke-linejoin:miter;stroke-opacity:1" d="M 580.192,200.024 599.992,190.124 z" id="boundary" inkscape:connector-curvature="0" />
	<path style="fill:none;stroke:red;stroke-width:1px;stroke-linecap:butt;stroke-linejoin:miter;stroke-opacity:1" d="M 599.992,190.124 619.792,190.124 z" id="boundary" inkscape:connector-curvature="0" />
	<path style="fill:none;stroke:red;stroke-width:1px;stroke-linecap:butt;stroke-linejoin:miter;stroke-opacity:1" d="M 596.032,158.443 615.832,158.443 z" id="boundary" inkscape:connector-curvature="0" />
	<path style="fill:none;stroke:red;stroke-width:1px;stroke-linecap:butt;stroke-linejoin:miter;stroke-opacity:1" d="M 596.032,346.547 580.192,334.667 z" id="boundary" inkscape:connector-curvature="0" />
	<path style="fill:none;stroke:red;stroke-width:1px;stroke-linecap:butt;stroke-linejoin:miter;stroke-opacity:1" d="M 613.852,356.447 596.032,346.547 z" id="boundary" inkscape:connector-curvature="0" />
	<path style="fill:none;stroke:red;stroke-width:1px;stroke-linecap:butt;stroke-linejoin:miter;stroke-opacity:1" d="M 613.852,356.447 631.673,366.347 z" id="boundary" inkscape:connector-curvature="0" />
	<path style="fill:none;stroke:red;stroke-width:1px;stroke-linecap:butt;stroke-linejoin:miter;stroke-opacity:1" d="M 615.832,158.443 635.633,160.423 z" id="boundary" inkscape:connector-curvature="0" />
	<path style="fill:none;stroke:red;stroke-width:1px;stroke-linecap:butt;stroke-linejoin:miter;stroke-opacity:1" d="M 635.633,160.423 639.593,180.224 z" id="boundary" inkscape:connector-curvature="0" />
	<path style="fill:none;stroke:red;stroke-width:1px;stroke-linecap:butt;stroke-linejoin:miter;stroke-opacity:1" d="M 619.792,190.124 639.593,180.224 z" id="boundary" inkscape:connector-curvature="0" />
	<path style="fill:none;stroke:red;stroke-width:1px;stroke-linecap:butt;stroke-linejoin:miter;stroke-opacity:1" d="M 649.493,376.248 669.293,376.248 z" id="boundary" inkscape:connector-curvature="0" />
	<path style="fill:none;stroke:red;stroke-width:1px;stroke-linecap:butt;stroke-linejoin:miter;stroke-opacity:1" d="M 669.293,376.248 689.094,382.188 z" id="boundary" inkscape:connector-curvature="0" />
	<path style="fill:none;stroke:red;stroke-width:1px;stroke-linecap:butt;stroke-linejoin:miter;stroke-opacity:1" d="M 649.493,376.248 631.673,366.347 z" id="boundary" inkscape:connector-curvature="0" />
	<path style="fill:none;stroke:red;stroke-width:1px;stroke-linecap:butt;stroke-linejoin:miter;stroke-opacity:1" d="M 689.094,382.188 708.894,386.148 z" id="boundary" inkscape:connector-curvature="0" />
	<path style="fill:none;stroke:red;stroke-width:1px;stroke-linecap:butt;stroke-linejoin:miter;stroke-opacity:1" d="M 728.695,392.088 708.894,386.148 z" id="boundary" inkscape:connector-curvature="0" />
	<path style="fill:none;stroke:red;stroke-width:1px;stroke-linecap:butt;stroke-linejoin:miter;stroke-opacity:1" d="M 748.495,396.048 768.295,396.048 z" id="boundary" inkscape:connector-curvature="0" />
	<path style="fill:none;stroke:red;stroke-width:1px;stroke-linecap:butt;stroke-linejoin:miter;stroke-opacity:1" d="M 748.495,396.048 728.695,392.088 z" id="boundary" inkscape:connector-curvature="0" />
	<path style="fill:none;stroke:red;stroke-width:1px;stroke-linecap:butt;stroke-linejoin:miter;stroke-opacity:1" d="M 803.936,407.928 811.856,427.729 z" id="boundary" inkscape:connector-curvature="0" />
	<path style="fill:none;stroke:red;stroke-width:1px;stroke-linecap:butt;stroke-linejoin:miter;stroke-opacity:1" d="M 803.936,407.928 788.096,396.048 z" id="boundary" inkscape:connector-curvature="0" />
	<path style="fill:none;stroke:red;stroke-width:1px;stroke-linecap:butt;stroke-linejoin:miter;stroke-opacity:1" d="M 768.295,396.048 788.096,396.048 z" id="boundary" inkscape:connector-curvature="0" />
	<path style="fill:none;stroke:red;stroke-width:1px;stroke-linecap:butt;stroke-linejoin:miter;stroke-opacity:1" d="M 811.856,427.729 817.796,447.529 z" id="boundary" inkscape:connector-curvature="0" />
	<path style="fill:none;stroke:red;stroke-width:1px;stroke-linecap:butt;stroke-linejoin:miter;stroke-opacity:1" d="M 770.275,774.236 788.096,764.335 z" id="boundary" inkscape:connector-curvature="0" />
	<path style="fill:none;stroke:red;stroke-width:1px;stroke-linecap:butt;stroke-linejoin:miter;stroke-opacity:1" d="M 518.81,784.136 538.611,784.136 z" id="boundary" inkscape:connector-curvature="0" />
	<path style="fill:none;stroke:red;stroke-width:1px;stroke-linecap:butt;stroke-linejoin:miter;stroke-opacity:1" d="M 558.411,784.136 538.611,784.136 z" id="boundary" inkscape:connector-curvature="0" />
	<path style="fill:none;stroke:red;stroke-width:1px;stroke-linecap:butt;stroke-linejoin:miter;stroke-opacity:1" d="M 578.212,784.136 558.411,784.136 z" id="boundary" inkscape:connector-curvature="0" />
	<path style="fill:none;stroke:red;stroke-width:1px;stroke-linecap:butt;stroke-linejoin:miter;stroke-opacity:1" d="M 821.756,467.329 837.597,481.19 z" id="boundary" inkscape:connector-curvature="0" />
	<path style="fill:none;stroke:red;stroke-width:1px;stroke-linecap:butt;stroke-linejoin:miter;stroke-opacity:1" d="M 821.756,467.329 817.796,447.529 z" id="boundary" inkscape:connector-curvature="0" />
	<path style="fill:none;stroke:red;stroke-width:1px;stroke-linecap:butt;stroke-linejoin:miter;stroke-opacity:1" d="M 827.697,744.535 807.896,754.435 z" id="boundary" inkscape:connector-curvature="0" />
	<path style="fill:none;stroke:red;stroke-width:1px;stroke-linecap:butt;stroke-linejoin:miter;stroke-opacity:1" d="M 807.896,754.435 788.096,764.335 z" id="boundary" inkscape:connector-curvature="0" />
	<path style="fill:none;stroke:red;stroke-width:1px;stroke-linecap:butt;stroke-linejoin:miter;stroke-opacity:1" d="M 752.455,784.136 770.275,774.236 z" id="boundary" inkscape:connector-curvature="0" />
	<path style="fill:none;stroke:red;stroke-width:1px;stroke-linecap:butt;stroke-linejoin:miter;stroke-opacity:1" d="M 857.397,485.15 837.597,481.19 z" id="boundary" inkscape:connector-curvature="0" />
	<path style="fill:none;stroke:red;stroke-width:1px;stroke-linecap:butt;stroke-linejoin:miter;stroke-opacity:1" d="M 578.212,784.136 596.032,794.036 z" id="boundary" inkscape:connector-curvature="0" />
	<path style="fill:none;stroke:red;stroke-width:1px;stroke-linecap:butt;stroke-linejoin:miter;stroke-opacity:1" d="M 615.832,794.036 596.032,794.036 z" id="boundary" inkscape:connector-curvature="0" />
	<path style="fill:none;stroke:red;stroke-width:1px;stroke-linecap:butt;stroke-linejoin:miter;stroke-opacity:1" d="M 635.633,794.036 615.832,794.036 z" id="boundary" inkscape:connector-curvature="0" />
	<path style="fill:none;stroke:red;stroke-width:1px;stroke-linecap:butt;stroke-linejoin:miter;stroke-opacity:1" d="M 655.433,794.036 635.633,794.036 z" id="boundary" inkscape:connector-curvature="0" />
	<path style="fill:none;stroke:red;stroke-width:1px;stroke-linecap:butt;stroke-linejoin:miter;stroke-opacity:1" d="M 732.655,784.136 752.455,784.136 z" id="boundary" inkscape:connector-curvature="0" />
	<path style="fill:none;stroke:red;stroke-width:1px;stroke-linecap:butt;stroke-linejoin:miter;stroke-opacity:1" d="M 714.834,794.036 732.655,784.136 z" id="boundary" inkscape:connector-curvature="0" />
	<path style="fill:none;stroke:red;stroke-width:1px;stroke-linecap:butt;stroke-linejoin:miter;stroke-opacity:1" d="M 695.034,794.036 675.234,794.036 z" id="boundary" inkscape:connector-curvature="0" />
	<path style="fill:none;stroke:red;stroke-width:1px;stroke-linecap:butt;stroke-linejoin:miter;stroke-opacity:1" d="M 714.834,794.036 695.034,794.036 z" id="boundary" inkscape:connector-curvature="0" />
	<path style="fill:none;stroke:red;stroke-width:1px;stroke-linecap:butt;stroke-linejoin:miter;stroke-opacity:1" d="M 675.234,794.036 655.433,794.036 z" id="boundary" inkscape:connector-curvature="0" />
	<path style="fill:none;stroke:red;stroke-width:1px;stroke-linecap:butt;stroke-linejoin:miter;stroke-opacity:1" d="M 827.697,744.535 847.497,744.535 z" id="boundary" inkscape:connector-curvature="0" />
	<path style="fill:none;stroke:red;stroke-width:1px;stroke-linecap:butt;stroke-linejoin:miter;stroke-opacity:1" d="M 875.218,495.05 857.397,485.15 z" id="boundary" inkscape:connector-curvature="0" />
	<path style="fill:none;stroke:red;stroke-width:1px;stroke-linecap:butt;stroke-linejoin:miter;stroke-opacity:1" d="M 895.018,495.05 875.218,495.05 z" id="boundary" inkscape:connector-curvature="0" />
	<path style="fill:none;stroke:red;stroke-width:1px;stroke-linecap:butt;stroke-linejoin:miter;stroke-opacity:1" d="M 930.659,514.85 910.858,506.93 z" id="boundary" inkscape:connector-curvature="0" />
	<path style="fill:none;stroke:red;stroke-width:1px;stroke-linecap:butt;stroke-linejoin:miter;stroke-opacity:1" d="M 910.858,506.93 895.018,495.05 z" id="boundary" inkscape:connector-curvature="0" />
	<path style="fill:none;stroke:red;stroke-width:1px;stroke-linecap:butt;stroke-linejoin:miter;stroke-opacity:1" d="M 930.659,514.85 944.519,530.691 z" id="boundary" inkscape:connector-curvature="0" />
	<path style="fill:none;stroke:red;stroke-width:1px;stroke-linecap:butt;stroke-linejoin:miter;stroke-opacity:1" d="M 944.519,530.691 960.359,544.551 z" id="boundary" inkscape:connector-curvature="0" />
	<path style="fill:none;stroke:red;stroke-width:1px;stroke-linecap:butt;stroke-linejoin:miter;stroke-opacity:1" d="M 974.22,560.391 990.06,574.251 z" id="boundary" inkscape:connector-curvature="0" />
	<path style="fill:none;stroke:red;stroke-width:1px;stroke-linecap:butt;stroke-linejoin:miter;stroke-opacity:1" d="M 974.22,560.391 960.359,544.551 z" id="boundary" inkscape:connector-curvature="0" />
	<path style="fill:none;stroke:red;stroke-width:1px;stroke-linecap:butt;stroke-linejoin:miter;stroke-opacity:1" d="M 990.06,574.251 996,594.052 z" id="boundary" inkscape:connector-curvature="0" />
	<path style="fill:none;stroke:red;stroke-width:1px;stroke-linecap:butt;stroke-linejoin:miter;stroke-opacity:1" d="M 996,594.052 986.1,615.832 z" id="boundary" inkscape:connector-curvature="0" />
	<path style="fill:none;stroke:red;stroke-width:1px;stroke-linecap:butt;stroke-linejoin:miter;stroke-opacity:1" d="M 926.699,704.934 906.898,714.834 z" id="boundary" inkscape:connector-curvature="0" />
	<path style="fill:none;stroke:red;stroke-width:1px;stroke-linecap:butt;stroke-linejoin:miter;stroke-opacity:1" d="M 867.297,734.635 847.497,744.535 z" id="boundary" inkscape:connector-curvature="0" />
	<path style="fill:none;stroke:red;stroke-width:1px;stroke-linecap:butt;stroke-linejoin:miter;stroke-opacity:1" d="M 887.098,724.735 867.297,734.635 z" id="boundary" inkscape:connector-curvature="0" />
	<path style="fill:none;stroke:red;stroke-width:1px;stroke-linecap:butt;stroke-linejoin:miter;stroke-opacity:1" d="M 906.898,714.834 887.098,724.735 z" id="boundary" inkscape:connector-curvature="0" />
	<path style="fill:none;stroke:red;stroke-width:1px;stroke-linecap:butt;stroke-linejoin:miter;stroke-opacity:1" d="M 976.2,635.633 966.299,655.433 z" id="boundary" inkscape:connector-curvature="0" />
	<path style="fill:none;stroke:red;stroke-width:1px;stroke-linecap:butt;stroke-linejoin:miter;stroke-opacity:1" d="M 956.399,675.234 946.499,695.034 z" id="boundary" inkscape:connector-curvature="0" />
	<path style="fill:none;stroke:red;stroke-width:1px;stroke-linecap:butt;stroke-linejoin:miter;stroke-opacity:1" d="M 946.499,695.034 926.699,704.934 z" id="boundary" inkscape:connector-curvature="0" />
	<path style="fill:none;stroke:red;stroke-width:1px;stroke-linecap:butt;stroke-linejoin:miter;stroke-opacity:1" d="M 966.299,655.433 956.399,675.234 z" id="boundary" inkscape:connector-curvature="0" />
	<path style="fill:none;stroke:red;stroke-width:1px;stroke-linecap:butt;stroke-linejoin:miter;stroke-opacity:1" d="M 986.1,615.832 976.2,635.633 z" id="boundary" inkscape:connector-curvature="0" />
	<path style="fill:none;stroke:red;stroke-width:1px;stroke-linecap:butt;stroke-linejoin:miter;stroke-opacity:1" d="M 499.01,5.98004 518.81,4 z" id="boundary" inkscape:connector-curvature="0" />
	<circle cx="4" cy="599.992" r="4" fill="#0" id="circle0"/>
	<circle cx="4" cy="619.792" r="4" fill="#0" id="circle1"/>
	<circle cx="13.9002" cy="560.391" r="4" fill="#0" id="circle2"/>
	<circle cx="13.9002" cy="580.192" r="4" fill="#0" id="circle3"/>
	<circle cx="13.9002" cy="637.613" r="4" fill="#0" id="circle4"/>
	<circle cx="23.8004" cy="655.433" r="4" fill="#0" id="circle5"/>
	<circle cx="33.7006" cy="550.491" r="4" fill="#0" id="circle6"/>
	<circle cx="33.7006" cy="673.253" r="4" fill="#0" id="circle7"/>
	<circle cx="43.6008" cy="530.691" r="4" fill="#0" id="circle8"/>
	<circle cx="49.5409" cy="685.134" r="4" fill="#0" id="circle9"/>
	<circle cx="63.4012" cy="520.79" r="4" fill="#0" id="circle10"/>
	<circle cx="69.3413" cy="693.054" r="4" fill="#0" id="circle11"/>
	<circle cx="83.2016" cy="510.89" r="4" fill="#0" id="circle12"/>
	<circle cx="89.1417" cy="695.034" r="4" fill="#0" id="circle13"/>
	<circle cx="103.002" cy="500.99" r="4" fill="#0" id="circle14"/>
	<circle cx="108.942" cy="702.954" r="4" fill="#0" id="circle15"/>
	<circle cx="122.802" cy="491.09" r="4" fill="#0" id="circle16"/>
	<circle cx="126.762" cy="712.854" r="4" fill="#0" id="circle17"/>
	<circle cx="142.603" cy="481.19" r="4" fill="#0" id="circle18"/>
	<circle cx="146.563" cy="714.834" r="4" fill="#0" id="circle19"/>
	<circle cx="162.403" cy="471.289" r="4" fill="#0" id="circle20"/>
	<circle cx="166.363" cy="720.774" r="4" fill="#0" id="circle21"/>
	<circle cx="182.204" cy="431.689" r="4" fill="#0" id="circle22"/>
	<circle cx="182.204" cy="451.489" r="4" fill="#0" id="circle23"/>
	<circle cx="184.184" cy="730.675" r="4" fill="#0" id="circle24"/>
	<circle cx="192.104" cy="411.888" r="4" fill="#0" id="circle25"/>
	<circle cx="202.004" cy="392.088" r="4" fill="#0" id="circle26"/>
	<circle cx="203.984" cy="738.595" r="4" fill="#0" id="circle27"/>
	<circle cx="221.804" cy="382.188" r="4" fill="#0" id="circle28"/>
	<circle cx="223.784" cy="744.535" r="4" fill="#0" id="circle29"/>
	<circle cx="241.605" cy="372.287" r="4" fill="#0" id="circle30"/>
	<circle cx="243.585" cy="748.495" r="4" fill="#0" id="circle31"/>
	<circle cx="261.405" cy="366.347" r="4" fill="#0" id="circle32"/>
	<circle cx="263.385" cy="754.435" r="4" fill="#0" id="circle33"/>
	<circle cx="281.206" cy="366.347" r="4" fill="#0" id="circle34"/>
	<circle cx="283.186" cy="758.395" r="4" fill="#0" id="circle35"/>
	<circle cx="301.006" cy="366.347" r="4" fill="#0" id="circle36"/>
	<circle cx="302.986" cy="764.335" r="4" fill="#0" id="circle37"/>
	<circle cx="320.806" cy="366.347" r="4" fill="#0" id="circle38"/>
	<circle cx="322.786" cy="768.295" r="4" fill="#0" id="circle39"/>
	<circle cx="340.607" cy="366.347" r="4" fill="#0" id="circle40"/>
	<circle cx="342.587" cy="774.236" r="4" fill="#0" id="circle41"/>
	<circle cx="360.407" cy="366.347" r="4" fill="#0" id="circle42"/>
	<circle cx="362.387" cy="774.236" r="4" fill="#0" id="circle43"/>
	<circle cx="370.307" cy="164.383" r="4" fill="#0" id="circle44"/>
	<circle cx="370.307" cy="184.184" r="4" fill="#0" id="circle45"/>
	<circle cx="380.208" cy="366.347" r="4" fill="#0" id="circle46"/>
	<circle cx="382.188" cy="774.236" r="4" fill="#0" id="circle47"/>
	<circle cx="390.108" cy="154.483" r="4" fill="#0" id="circle48"/>
	<circle cx="390.108" cy="190.124" r="4" fill="#0" id="circle49"/>
	<circle cx="400.008" cy="362.387" r="4" fill="#0" id="circle50"/>
	<circle cx="401.988" cy="774.236" r="4" fill="#0" id="circle51"/>
	<circle cx="409.908" cy="148.543" r="4" fill="#0" id="circle52"/>
	<circle cx="409.908" cy="190.124" r="4" fill="#0" id="circle53"/>
	<circle cx="419.808" cy="356.447" r="4" fill="#0" id="circle54"/>
	<circle cx="419.808" cy="784.136" r="4" fill="#0" id="circle55"/>
	<circle cx="421.788" cy="205.964" r="4" fill="#0" id="circle56"/>
	<circle cx="429.709" cy="144.583" r="4" fill="#0" id="circle57"/>
	<circle cx="437.629" cy="219.824" r="4" fill="#0" id="circle58"/>
	<circle cx="439.609" cy="342.587" r="4" fill="#0" id="circle59"/>
	<circle cx="439.609" cy="784.136" r="4" fill="#0" id="circle60"/>
	<circle cx="449.509" cy="138.643" r="4" fill="#0" id="circle61"/>
	<circle cx="449.509" cy="235.665" r="4" fill="#0" id="circle62"/>
	<circle cx="449.509" cy="255.465" r="4" fill="#0" id="circle63"/>
	<circle cx="449.509" cy="275.265" r="4" fill="#0" id="circle64"/>
	<circle cx="449.509" cy="295.066" r="4" fill="#0" id="circle65"/>
	<circle cx="449.509" cy="314.866" r="4" fill="#0" id="circle66"/>
	<circle cx="459.409" cy="55.481" r="4" fill="#0" id="circle67"/>
	<circle cx="459.409" cy="784.136" r="4" fill="#0" id="circle68"/>
	<circle cx="469.309" cy="35.6806" r="4" fill="#0" id="circle69"/>
	<circle cx="469.309" cy="73.3014" r="4" fill="#0" id="circle70"/>
	<circle cx="469.309" cy="93.1018" r="4" fill="#0" id="circle71"/>
	<circle cx="469.309" cy="112.902" r="4" fill="#0" id="circle72"/>
	<circle cx="469.309" cy="132.703" r="4" fill="#0" id="circle73"/>
	<circle cx="479.21" cy="15.8802" r="4" fill="#0" id="circle74"/>
	<circle cx="479.21" cy="784.136" r="4" fill="#0" id="circle75"/>
	<circle cx="499.01" cy="5.98004" r="4" fill="#0" id="circle76"/>
	<circle cx="499.01" cy="784.136" r="4" fill="#0" id="circle77"/>
	<circle cx="518.81" cy="4" r="4" fill="#0" id="circle78"/>
	<circle cx="518.81" cy="784.136" r="4" fill="#0" id="circle79"/>
	<circle cx="530.691" cy="19.8403" r="4" fill="#0" id="circle80"/>
	<circle cx="530.691" cy="39.6407" r="4" fill="#0" id="circle81"/>
	<circle cx="530.691" cy="59.4411" r="4" fill="#0" id="circle82"/>
	<circle cx="530.691" cy="79.2415" r="4" fill="#0" id="circle83"/>
	<circle cx="530.691" cy="99.0419" r="4" fill="#0" id="circle84"/>
	<circle cx="530.691" cy="118.842" r="4" fill="#0" id="circle85"/>
	<circle cx="530.691" cy="229.725" r="4" fill="#0" id="circle86"/>
	<circle cx="530.691" cy="249.525" r="4" fill="#0" id="circle87"/>
	<circle cx="530.691" cy="269.325" r="4" fill="#0" id="circle88"/>
	<circle cx="538.611" cy="784.136" r="4" fill="#0" id="circle89"/>
	<circle cx="540.591" cy="136.663" r="4" fill="#0" id="circle90"/>
	<circle cx="540.591" cy="209.924" r="4" fill="#0" id="circle91"/>
	<circle cx="540.591" cy="287.146" r="4" fill="#0" id="circle92"/>
	<circle cx="550.491" cy="304.966" r="4" fill="#0" id="circle93"/>
	<circle cx="556.431" cy="148.543" r="4" fill="#0" id="circle94"/>
	<circle cx="558.411" cy="784.136" r="4" fill="#0" id="circle95"/>
	<circle cx="560.391" cy="200.024" r="4" fill="#0" id="circle96"/>
	<circle cx="566.331" cy="318.826" r="4" fill="#0" id="circle97"/>
	<circle cx="576.232" cy="150.523" r="4" fill="#0" id="circle98"/>
	<circle cx="578.212" cy="784.136" r="4" fill="#0" id="circle99"/>
	<circle cx="580.192" cy="200.024" r="4" fill="#0" id="circle100"/>
	<circle cx="580.192" cy="334.667" r="4" fill="#0" id="circle101"/>
	<circle cx="596.032" cy="158.443" r="4" fill="#0" id="circle102"/>
	<circle cx="596.032" cy="346.547" r="4" fill="#0" id="circle103"/>
	<circle cx="596.032" cy="794.036" r="4" fill="#0" id="circle104"/>
	<circle cx="599.992" cy="190.124" r="4" fill="#0" id="circle105"/>
	<circle cx="613.852" cy="356.447" r="4" fill="#0" id="circle106"/>
	<circle cx="615.832" cy="158.443" r="4" fill="#0" id="circle107"/>
	<circle cx="615.832" cy="794.036" r="4" fill="#0" id="circle108"/>
	<circle cx="619.792" cy="190.124" r="4" fill="#0" id="circle109"/>
	<circle cx="631.673" cy="366.347" r="4" fill="#0" id="circle110"/>
	<circle cx="635.633" cy="160.423" r="4" fill="#0" id="circle111"/>
	<circle cx="635.633" cy="794.036" r="4" fill="#0" id="circle112"/>
	<circle cx="639.593" cy="180.224" r="4" fill="#0" id="circle113"/>
	<circle cx="649.493" cy="376.248" r="4" fill="#0" id="circle114"/>
	<circle cx="655.433" cy="794.036" r="4" fill="#0" id="circle115"/>
	<circle cx="669.293" cy="376.248" r="4" fill="#0" id="circle116"/>
	<circle cx="675.234" cy="794.036" r="4" fill="#0" id="circle117"/>
	<circle cx="689.094" cy="382.188" r="4" fill="#0" id="circle118"/>
	<circle cx="695.034" cy="794.036" r="4" fill="#0" id="circle119"/>
	<circle cx="708.894" cy="386.148" r="4" fill="#0" id="circle120"/>
	<circle cx="714.834" cy="794.036" r="4" fill="#0" id="circle121"/>
	<circle cx="728.695" cy="392.088" r="4" fill="#0" id="circle122"/>
	<circle cx="732.655" cy="784.136" r="4" fill="#0" id="circle123"/>
	<circle cx="748.495" cy="396.048" r="4" fill="#0" id="circle124"/>
	<circle cx="752.455" cy="784.136" r="4" fill="#0" id="circle125"/>
	<circle cx="768.295" cy="396.048" r="4" fill="#0" id="circle126"/>
	<circle cx="770.275" cy="774.236" r="4" fill="#0" id="circle127"/>
	<circle cx="788.096" cy="396.048" r="4" fill="#0" id="circle128"/>
	<circle cx="788.096" cy="764.335" r="4" fill="#0" id="circle129"/>
	<circle cx="803.936" cy="407.928" r="4" fill="#0" id="circle130"/>
	<circle cx="807.896" cy="754.435" r="4" fill="#0" id="circle131"/>
	<circle cx="811.856" cy="427.729" r="4" fill="#0" id="circle132"/>
	<circle cx="817.796" cy="447.529" r="4" fill="#0" id="circle133"/>
	<circle cx="821.756" cy="467.329" r="4" fill="#0" id="circle134"/>
	<circle cx="827.697" cy="744.535" r="4" fill="#0" id="circle135"/>
	<circle cx="837.597" cy="481.19" r="4" fill="#0" id="circle136"/>
	<circle cx="847.497" cy="744.535" r="4" fill="#0" id="circle137"/>
	<circle cx="857.397" cy="485.15" r="4" fill="#0" id="circle138"/>
	<circle cx="867.297" cy="734.635" r="4" fill="#0" id="circle139"/>
	<circle cx="875.218" cy="495.05" r="4" fill="#0" id="circle140"/>
	<circle cx="887.098" cy="724.735" r="4" fill="#0" id="circle141"/>
	<circle cx="895.018" cy="495.05" r="4" fill="#0" id="circle142"/>
	<circle cx="906.898" cy="714.834" r="4" fill="#0" id="circle143"/>
	<circle cx="910.858" cy="506.93" r="4" fill="#0" id="circle144"/>
	<circle cx="926.699" cy="704.934" r="4" fill="#0" id="circle145"/>
	<circle cx="930.659" cy="514.85" r="4" fill="#0" id="circle146"/>
	<circle cx="944.519" cy="530.691" r="4" fill="#0" id="circle147"/>
	<circle cx="946.499" cy="695.034" r="4" fill="#0" id="circle148"/>
	<circle cx="956.399" cy="675.234" r="4" fill="#0" id="circle149"/>
	<circle cx="960.359" cy="544.551" r="4" fill="#0" id="circle150"/>
	<circle cx="966.299" cy="655.433" r="4" fill="#0" id="circle151"/>
	<circle cx="974.22" cy="560.391" r="4" fill="#0" id="circle152"/>
	<circle cx="976.2" cy="635.633" r="4" fill="#0" id="circle153"/>
	<circle cx="986.1" cy="615.832" r="4" fill="#0" id="circle154"/>
	<circle cx="990.06" cy="574.251" r="4" fill="#0" id="circle155"/>
	<circle cx="996" cy="594.052" r="4" fill="#0" id="circle156"/>
	</g>
</svg>