<?xml version="1.0" encoding="UTF-8" standalone="no"?>
<!-- Created with CurveBenchmark -->
<svg
	xmlns:dc="http://purl.org/dc/elements/1.1/"
	xmlns:cc="http://creativecommons.org/ns#"
	xmlns:rdf="http://www.w3.org/1999/02/22-rdf-syntax-ns#"
	xmlns:svg="http://www.w3.org/2000/svg"
	xmlns="http://www.w3.org/2000/svg"
	xmlns:sodipodi="http://sodipodi.sourceforge.net/DTD/sodipodi-0.dtd"
	xmlns:inkscape="http://www.inkscape.org/namespaces/inkscape"
	width="1000"
	height="1000"
	id="svg2"
	version="1.1"
	sodipodi:docname="manifold/nncrust-cat18.png.txt">
<defs
	id="defs4" />
<metadata
	id="metadata7">
	<rdf:RDF>
		<cc:Work
			rdf:about="">
			<dc:format>image/svg+xml</dc:format>
			<dc:type
				rdf:resource="http://purl.org/dc/dcmitype/StillImage" />
			<dc:title></dc:title>
		</cc:Work>
	</rdf:RDF>
</metadata>
<g
	inkscape:label="Layer 1"
	inkscape:groupmode="layer"
	id="layer1">
	<path style="fill:none;stroke:red;stroke-width:1px;stroke-linecap:butt;stroke-linejoin:miter;stroke-opacity:1" d="M 4,358.498 4,343.604 z" id="boundary" inkscape:connector-curvature="0" />
	<path style="fill:none;stroke:red;stroke-width:1px;stroke-linecap:butt;stroke-linejoin:miter;stroke-opacity:1" d="M 4,343.604 18.8949,339.135 z" id="boundary" inkscape:connector-curvature="0" />
	<path style="fill:none;stroke:red;stroke-width:1px;stroke-linecap:butt;stroke-linejoin:miter;stroke-opacity:1" d="M 33.7898,342.114 42.7267,354.03 z" id="boundary" inkscape:connector-curvature="0" />
	<path style="fill:none;stroke:red;stroke-width:1px;stroke-linecap:butt;stroke-linejoin:miter;stroke-opacity:1" d="M 57.6216,358.498 42.7267,354.03 z" id="boundary" inkscape:connector-curvature="0" />
	<path style="fill:none;stroke:red;stroke-width:1px;stroke-linecap:butt;stroke-linejoin:miter;stroke-opacity:1" d="M 18.8949,339.135 33.7898,342.114 z" id="boundary" inkscape:connector-curvature="0" />
	<path style="fill:none;stroke:red;stroke-width:1px;stroke-linecap:butt;stroke-linejoin:miter;stroke-opacity:1" d="M 4,373.393 4,358.498 z" id="boundary" inkscape:connector-curvature="0" />
	<path style="fill:none;stroke:red;stroke-width:1px;stroke-linecap:butt;stroke-linejoin:miter;stroke-opacity:1" d="M 4,373.393 11.4474,386.799 z" id="boundary" inkscape:connector-curvature="0" />
	<path style="fill:none;stroke:red;stroke-width:1px;stroke-linecap:butt;stroke-linejoin:miter;stroke-opacity:1" d="M 11.4474,386.799 11.4474,401.694 z" id="boundary" inkscape:connector-curvature="0" />
	<path style="fill:none;stroke:red;stroke-width:1px;stroke-linecap:butt;stroke-linejoin:miter;stroke-opacity:1" d="M 18.8949,415.099 11.4474,401.694 z" id="boundary" inkscape:connector-curvature="0" />
	<path style="fill:none;stroke:red;stroke-width:1px;stroke-linecap:butt;stroke-linejoin:miter;stroke-opacity:1" d="M 57.6216,358.498 69.5375,368.925 z" id="boundary" inkscape:connector-curvature="0" />
	<path style="fill:none;stroke:red;stroke-width:1px;stroke-linecap:butt;stroke-linejoin:miter;stroke-opacity:1" d="M 205.081,328.709 194.655,346.583 z" id="boundary" inkscape:connector-curvature="0" />
	<path style="fill:none;stroke:red;stroke-width:1px;stroke-linecap:butt;stroke-linejoin:miter;stroke-opacity:1" d="M 182.739,358.498 169.333,368.925 z" id="boundary" inkscape:connector-curvature="0" />
	<path style="fill:none;stroke:red;stroke-width:1px;stroke-linecap:butt;stroke-linejoin:miter;stroke-opacity:1" d="M 169.333,368.925 154.438,368.925 z" id="boundary" inkscape:connector-curvature="0" />
	<path style="fill:none;stroke:red;stroke-width:1px;stroke-linecap:butt;stroke-linejoin:miter;stroke-opacity:1" d="M 194.655,346.583 182.739,358.498 z" id="boundary" inkscape:connector-curvature="0" />
	<path style="fill:none;stroke:red;stroke-width:1px;stroke-linecap:butt;stroke-linejoin:miter;stroke-opacity:1" d="M 154.438,368.925 139.544,371.904 z" id="boundary" inkscape:connector-curvature="0" />
	<path style="fill:none;stroke:red;stroke-width:1px;stroke-linecap:butt;stroke-linejoin:miter;stroke-opacity:1" d="M 69.5375,368.925 82.9429,376.372 z" id="boundary" inkscape:connector-curvature="0" />
	<path style="fill:none;stroke:red;stroke-width:1px;stroke-linecap:butt;stroke-linejoin:miter;stroke-opacity:1" d="M 96.3483,383.82 82.9429,376.372 z" id="boundary" inkscape:connector-curvature="0" />
	<path style="fill:none;stroke:red;stroke-width:1px;stroke-linecap:butt;stroke-linejoin:miter;stroke-opacity:1" d="M 109.754,376.372 96.3483,383.82 z" id="boundary" inkscape:connector-curvature="0" />
	<path style="fill:none;stroke:red;stroke-width:1px;stroke-linecap:butt;stroke-linejoin:miter;stroke-opacity:1" d="M 139.544,371.904 124.649,376.372 z" id="boundary" inkscape:connector-curvature="0" />
	<path style="fill:none;stroke:red;stroke-width:1px;stroke-linecap:butt;stroke-linejoin:miter;stroke-opacity:1" d="M 124.649,376.372 109.754,376.372 z" id="boundary" inkscape:connector-curvature="0" />
	<path style="fill:none;stroke:red;stroke-width:1px;stroke-linecap:butt;stroke-linejoin:miter;stroke-opacity:1" d="M 27.8318,427.015 18.8949,415.099 z" id="boundary" inkscape:connector-curvature="0" />
	<path style="fill:none;stroke:red;stroke-width:1px;stroke-linecap:butt;stroke-linejoin:miter;stroke-opacity:1" d="M 27.8318,427.015 33.7898,441.91 z" id="boundary" inkscape:connector-curvature="0" />
	<path style="fill:none;stroke:red;stroke-width:1px;stroke-linecap:butt;stroke-linejoin:miter;stroke-opacity:1" d="M 33.7898,441.91 35.2793,456.805 z" id="boundary" inkscape:connector-curvature="0" />
	<path style="fill:none;stroke:red;stroke-width:1px;stroke-linecap:butt;stroke-linejoin:miter;stroke-opacity:1" d="M 35.2793,456.805 47.1952,467.231 z" id="boundary" inkscape:connector-curvature="0" />
	<path style="fill:none;stroke:red;stroke-width:1px;stroke-linecap:butt;stroke-linejoin:miter;stroke-opacity:1" d="M 47.1952,467.231 48.6847,482.126 z" id="boundary" inkscape:connector-curvature="0" />
	<path style="fill:none;stroke:red;stroke-width:1px;stroke-linecap:butt;stroke-linejoin:miter;stroke-opacity:1" d="M 56.1321,495.532 48.6847,482.126 z" id="boundary" inkscape:connector-curvature="0" />
	<path style="fill:none;stroke:red;stroke-width:1px;stroke-linecap:butt;stroke-linejoin:miter;stroke-opacity:1" d="M 56.1321,495.532 59.1111,510.426 z" id="boundary" inkscape:connector-curvature="0" />
	<path style="fill:none;stroke:red;stroke-width:1px;stroke-linecap:butt;stroke-linejoin:miter;stroke-opacity:1" d="M 66.5586,523.832 59.1111,510.426 z" id="boundary" inkscape:connector-curvature="0" />
	<path style="fill:none;stroke:red;stroke-width:1px;stroke-linecap:butt;stroke-linejoin:miter;stroke-opacity:1" d="M 84.4324,549.153 72.5165,538.727 z" id="boundary" inkscape:connector-curvature="0" />
	<path style="fill:none;stroke:red;stroke-width:1px;stroke-linecap:butt;stroke-linejoin:miter;stroke-opacity:1" d="M 72.5165,538.727 66.5586,523.832 z" id="boundary" inkscape:connector-curvature="0" />
	<path style="fill:none;stroke:red;stroke-width:1px;stroke-linecap:butt;stroke-linejoin:miter;stroke-opacity:1" d="M 97.8378,556.601 84.4324,549.153 z" id="boundary" inkscape:connector-curvature="0" />
	<path style="fill:none;stroke:red;stroke-width:1px;stroke-linecap:butt;stroke-linejoin:miter;stroke-opacity:1" d="M 105.285,570.006 111.243,584.901 z" id="boundary" inkscape:connector-curvature="0" />
	<path style="fill:none;stroke:red;stroke-width:1px;stroke-linecap:butt;stroke-linejoin:miter;stroke-opacity:1" d="M 105.285,570.006 97.8378,556.601 z" id="boundary" inkscape:connector-curvature="0" />
	<path style="fill:none;stroke:red;stroke-width:1px;stroke-linecap:butt;stroke-linejoin:miter;stroke-opacity:1" d="M 111.243,584.901 123.159,593.838 z" id="boundary" inkscape:connector-curvature="0" />
	<path style="fill:none;stroke:red;stroke-width:1px;stroke-linecap:butt;stroke-linejoin:miter;stroke-opacity:1" d="M 123.159,593.838 127.628,608.733 z" id="boundary" inkscape:connector-curvature="0" />
	<path style="fill:none;stroke:red;stroke-width:1px;stroke-linecap:butt;stroke-linejoin:miter;stroke-opacity:1" d="M 127.628,608.733 130.607,623.628 z" id="boundary" inkscape:connector-curvature="0" />
	<path style="fill:none;stroke:red;stroke-width:1px;stroke-linecap:butt;stroke-linejoin:miter;stroke-opacity:1" d="M 151.459,645.97 139.544,635.544 z" id="boundary" inkscape:connector-curvature="0" />
	<path style="fill:none;stroke:red;stroke-width:1px;stroke-linecap:butt;stroke-linejoin:miter;stroke-opacity:1" d="M 139.544,635.544 130.607,623.628 z" id="boundary" inkscape:connector-curvature="0" />
	<path style="fill:none;stroke:red;stroke-width:1px;stroke-linecap:butt;stroke-linejoin:miter;stroke-opacity:1" d="M 151.459,645.97 175.291,924.505 z" id="boundary" inkscape:connector-curvature="0" />
	<path style="fill:none;stroke:red;stroke-width:1px;stroke-linecap:butt;stroke-linejoin:miter;stroke-opacity:1" d="M 164.865,653.417 178.27,660.865 z" id="boundary" inkscape:connector-curvature="0" />
	<path style="fill:none;stroke:red;stroke-width:1px;stroke-linecap:butt;stroke-linejoin:miter;stroke-opacity:1" d="M 164.865,653.417 151.459,645.97 z" id="boundary" inkscape:connector-curvature="0" />
	<path style="fill:none;stroke:red;stroke-width:1px;stroke-linecap:butt;stroke-linejoin:miter;stroke-opacity:1" d="M 178.27,660.865 191.676,668.312 z" id="boundary" inkscape:connector-curvature="0" />
	<path style="fill:none;stroke:red;stroke-width:1px;stroke-linecap:butt;stroke-linejoin:miter;stroke-opacity:1" d="M 205.081,328.709 216.997,316.793 z" id="boundary" inkscape:connector-curvature="0" />
	<path style="fill:none;stroke:red;stroke-width:1px;stroke-linecap:butt;stroke-linejoin:miter;stroke-opacity:1" d="M 228.913,304.877 243.808,306.366 z" id="boundary" inkscape:connector-curvature="0" />
	<path style="fill:none;stroke:red;stroke-width:1px;stroke-linecap:butt;stroke-linejoin:miter;stroke-opacity:1" d="M 243.808,306.366 251.255,319.772 z" id="boundary" inkscape:connector-curvature="0" />
	<path style="fill:none;stroke:red;stroke-width:1px;stroke-linecap:butt;stroke-linejoin:miter;stroke-opacity:1" d="M 216.997,316.793 228.913,304.877 z" id="boundary" inkscape:connector-curvature="0" />
	<path style="fill:none;stroke:red;stroke-width:1px;stroke-linecap:butt;stroke-linejoin:miter;stroke-opacity:1" d="M 251.255,319.772 251.255,334.667 z" id="boundary" inkscape:connector-curvature="0" />
	<path style="fill:none;stroke:red;stroke-width:1px;stroke-linecap:butt;stroke-linejoin:miter;stroke-opacity:1" d="M 251.255,334.667 251.255,349.562 z" id="boundary" inkscape:connector-curvature="0" />
	<path style="fill:none;stroke:red;stroke-width:1px;stroke-linecap:butt;stroke-linejoin:miter;stroke-opacity:1" d="M 251.255,364.456 251.255,379.351 z" id="boundary" inkscape:connector-curvature="0" />
	<path style="fill:none;stroke:red;stroke-width:1px;stroke-linecap:butt;stroke-linejoin:miter;stroke-opacity:1" d="M 251.255,394.246 251.255,379.351 z" id="boundary" inkscape:connector-curvature="0" />
	<path style="fill:none;stroke:red;stroke-width:1px;stroke-linecap:butt;stroke-linejoin:miter;stroke-opacity:1" d="M 251.255,364.456 251.255,349.562 z" id="boundary" inkscape:connector-curvature="0" />
	<path style="fill:none;stroke:red;stroke-width:1px;stroke-linecap:butt;stroke-linejoin:miter;stroke-opacity:1" d="M 251.255,394.246 251.255,409.141 z" id="boundary" inkscape:connector-curvature="0" />
	<path style="fill:none;stroke:red;stroke-width:1px;stroke-linecap:butt;stroke-linejoin:miter;stroke-opacity:1" d="M 474.679,383.82 489.574,383.82 z" id="boundary" inkscape:connector-curvature="0" />
	<path style="fill:none;stroke:red;stroke-width:1px;stroke-linecap:butt;stroke-linejoin:miter;stroke-opacity:1" d="M 459.784,386.799 474.679,383.82 z" id="boundary" inkscape:connector-curvature="0" />
	<path style="fill:none;stroke:red;stroke-width:1px;stroke-linecap:butt;stroke-linejoin:miter;stroke-opacity:1" d="M 489.574,383.82 504.468,383.82 z" id="boundary" inkscape:connector-curvature="0" />
	<path style="fill:none;stroke:red;stroke-width:1px;stroke-linecap:butt;stroke-linejoin:miter;stroke-opacity:1" d="M 519.363,383.82 504.468,383.82 z" id="boundary" inkscape:connector-curvature="0" />
	<path style="fill:none;stroke:red;stroke-width:1px;stroke-linecap:butt;stroke-linejoin:miter;stroke-opacity:1" d="M 534.258,383.82 519.363,383.82 z" id="boundary" inkscape:connector-curvature="0" />
	<path style="fill:none;stroke:red;stroke-width:1px;stroke-linecap:butt;stroke-linejoin:miter;stroke-opacity:1" d="M 429.994,391.267 415.099,391.267 z" id="boundary" inkscape:connector-curvature="0" />
	<path style="fill:none;stroke:red;stroke-width:1px;stroke-linecap:butt;stroke-linejoin:miter;stroke-opacity:1" d="M 444.889,391.267 459.784,386.799 z" id="boundary" inkscape:connector-curvature="0" />
	<path style="fill:none;stroke:red;stroke-width:1px;stroke-linecap:butt;stroke-linejoin:miter;stroke-opacity:1" d="M 444.889,391.267 429.994,391.267 z" id="boundary" inkscape:connector-curvature="0" />
	<path style="fill:none;stroke:red;stroke-width:1px;stroke-linecap:butt;stroke-linejoin:miter;stroke-opacity:1" d="M 401.694,398.715 415.099,391.267 z" id="boundary" inkscape:connector-curvature="0" />
	<path style="fill:none;stroke:red;stroke-width:1px;stroke-linecap:butt;stroke-linejoin:miter;stroke-opacity:1" d="M 549.153,383.82 534.258,383.82 z" id="boundary" inkscape:connector-curvature="0" />
	<path style="fill:none;stroke:red;stroke-width:1px;stroke-linecap:butt;stroke-linejoin:miter;stroke-opacity:1" d="M 251.255,424.036 260.192,435.952 z" id="boundary" inkscape:connector-curvature="0" />
	<path style="fill:none;stroke:red;stroke-width:1px;stroke-linecap:butt;stroke-linejoin:miter;stroke-opacity:1" d="M 251.255,424.036 251.255,409.141 z" id="boundary" inkscape:connector-curvature="0" />
	<path style="fill:none;stroke:red;stroke-width:1px;stroke-linecap:butt;stroke-linejoin:miter;stroke-opacity:1" d="M 275.087,435.952 260.192,435.952 z" id="boundary" inkscape:connector-curvature="0" />
	<path style="fill:none;stroke:red;stroke-width:1px;stroke-linecap:butt;stroke-linejoin:miter;stroke-opacity:1" d="M 289.982,435.952 275.087,435.952 z" id="boundary" inkscape:connector-curvature="0" />
	<path style="fill:none;stroke:red;stroke-width:1px;stroke-linecap:butt;stroke-linejoin:miter;stroke-opacity:1" d="M 304.877,435.952 289.982,435.952 z" id="boundary" inkscape:connector-curvature="0" />
	<path style="fill:none;stroke:red;stroke-width:1px;stroke-linecap:butt;stroke-linejoin:miter;stroke-opacity:1" d="M 205.081,675.76 191.676,668.312 z" id="boundary" inkscape:connector-curvature="0" />
	<path style="fill:none;stroke:red;stroke-width:1px;stroke-linecap:butt;stroke-linejoin:miter;stroke-opacity:1" d="M 205.081,675.76 218.486,683.207 z" id="boundary" inkscape:connector-curvature="0" />
	<path style="fill:none;stroke:red;stroke-width:1px;stroke-linecap:butt;stroke-linejoin:miter;stroke-opacity:1" d="M 319.772,435.952 304.877,435.952 z" id="boundary" inkscape:connector-curvature="0" />
	<path style="fill:none;stroke:red;stroke-width:1px;stroke-linecap:butt;stroke-linejoin:miter;stroke-opacity:1" d="M 333.177,428.505 319.772,435.952 z" id="boundary" inkscape:connector-curvature="0" />
	<path style="fill:none;stroke:red;stroke-width:1px;stroke-linecap:butt;stroke-linejoin:miter;stroke-opacity:1" d="M 333.177,428.505 348.072,424.036 z" id="boundary" inkscape:connector-curvature="0" />
	<path style="fill:none;stroke:red;stroke-width:1px;stroke-linecap:butt;stroke-linejoin:miter;stroke-opacity:1" d="M 348.072,424.036 359.988,413.61 z" id="boundary" inkscape:connector-curvature="0" />
	<path style="fill:none;stroke:red;stroke-width:1px;stroke-linecap:butt;stroke-linejoin:miter;stroke-opacity:1" d="M 359.988,413.61 373.393,406.162 z" id="boundary" inkscape:connector-curvature="0" />
	<path style="fill:none;stroke:red;stroke-width:1px;stroke-linecap:butt;stroke-linejoin:miter;stroke-opacity:1" d="M 373.393,406.162 386.799,398.715 z" id="boundary" inkscape:connector-curvature="0" />
	<path style="fill:none;stroke:red;stroke-width:1px;stroke-linecap:butt;stroke-linejoin:miter;stroke-opacity:1" d="M 386.799,398.715 401.694,398.715 z" id="boundary" inkscape:connector-curvature="0" />
	<path style="fill:none;stroke:red;stroke-width:1px;stroke-linecap:butt;stroke-linejoin:miter;stroke-opacity:1" d="M 449.357,672.781 459.784,660.865 z" id="boundary" inkscape:connector-curvature="0" />
	<path style="fill:none;stroke:red;stroke-width:1px;stroke-linecap:butt;stroke-linejoin:miter;stroke-opacity:1" d="M 459.784,660.865 474.679,660.865 z" id="boundary" inkscape:connector-curvature="0" />
	<path style="fill:none;stroke:red;stroke-width:1px;stroke-linecap:butt;stroke-linejoin:miter;stroke-opacity:1" d="M 504.468,653.417 474.679,660.865 z" id="boundary" inkscape:connector-curvature="0" />
	<path style="fill:none;stroke:red;stroke-width:1px;stroke-linecap:butt;stroke-linejoin:miter;stroke-opacity:1" d="M 489.574,660.865 504.468,653.417 z" id="boundary" inkscape:connector-curvature="0" />
	<path style="fill:none;stroke:red;stroke-width:1px;stroke-linecap:butt;stroke-linejoin:miter;stroke-opacity:1" d="M 504.468,653.417 510.426,668.312 z" id="boundary" inkscape:connector-curvature="0" />
	<path style="fill:none;stroke:red;stroke-width:1px;stroke-linecap:butt;stroke-linejoin:miter;stroke-opacity:1" d="M 489.574,660.865 474.679,660.865 z" id="boundary" inkscape:connector-curvature="0" />
	<path style="fill:none;stroke:red;stroke-width:1px;stroke-linecap:butt;stroke-linejoin:miter;stroke-opacity:1" d="M 510.426,668.312 514.895,683.207 z" id="boundary" inkscape:connector-curvature="0" />
	<path style="fill:none;stroke:red;stroke-width:1px;stroke-linecap:butt;stroke-linejoin:miter;stroke-opacity:1" d="M 449.357,672.781 437.441,683.207 z" id="boundary" inkscape:connector-curvature="0" />
	<path style="fill:none;stroke:red;stroke-width:1px;stroke-linecap:butt;stroke-linejoin:miter;stroke-opacity:1" d="M 783.003,4 228.913,304.877 z" id="boundary" inkscape:connector-curvature="0" />
	<path style="fill:none;stroke:red;stroke-width:1px;stroke-linecap:butt;stroke-linejoin:miter;stroke-opacity:1" d="M 227.423,710.018 227.423,695.123 z" id="boundary" inkscape:connector-curvature="0" />
	<path style="fill:none;stroke:red;stroke-width:1px;stroke-linecap:butt;stroke-linejoin:miter;stroke-opacity:1" d="M 234.871,723.423 227.423,710.018 z" id="boundary" inkscape:connector-curvature="0" />
	<path style="fill:none;stroke:red;stroke-width:1px;stroke-linecap:butt;stroke-linejoin:miter;stroke-opacity:1" d="M 242.318,751.724 234.871,738.318 z" id="boundary" inkscape:connector-curvature="0" />
	<path style="fill:none;stroke:red;stroke-width:1px;stroke-linecap:butt;stroke-linejoin:miter;stroke-opacity:1" d="M 234.871,738.318 234.871,723.423 z" id="boundary" inkscape:connector-curvature="0" />
	<path style="fill:none;stroke:red;stroke-width:1px;stroke-linecap:butt;stroke-linejoin:miter;stroke-opacity:1" d="M 303.387,750.234 295.94,772.577 z" id="boundary" inkscape:connector-curvature="0" />
	<path style="fill:none;stroke:red;stroke-width:1px;stroke-linecap:butt;stroke-linejoin:miter;stroke-opacity:1" d="M 242.318,751.724 242.318,766.619 z" id="boundary" inkscape:connector-curvature="0" />
	<path style="fill:none;stroke:red;stroke-width:1px;stroke-linecap:butt;stroke-linejoin:miter;stroke-opacity:1" d="M 242.318,781.514 242.318,796.408 z" id="boundary" inkscape:connector-curvature="0" />
	<path style="fill:none;stroke:red;stroke-width:1px;stroke-linecap:butt;stroke-linejoin:miter;stroke-opacity:1" d="M 242.318,766.619 242.318,781.514 z" id="boundary" inkscape:connector-curvature="0" />
	<path style="fill:none;stroke:red;stroke-width:1px;stroke-linecap:butt;stroke-linejoin:miter;stroke-opacity:1" d="M 242.318,811.303 242.318,796.408 z" id="boundary" inkscape:connector-curvature="0" />
	<path style="fill:none;stroke:red;stroke-width:1px;stroke-linecap:butt;stroke-linejoin:miter;stroke-opacity:1" d="M 242.318,826.198 242.318,841.093 z" id="boundary" inkscape:connector-curvature="0" />
	<path style="fill:none;stroke:red;stroke-width:1px;stroke-linecap:butt;stroke-linejoin:miter;stroke-opacity:1" d="M 240.829,882.799 228.913,893.225 z" id="boundary" inkscape:connector-curvature="0" />
	<path style="fill:none;stroke:red;stroke-width:1px;stroke-linecap:butt;stroke-linejoin:miter;stroke-opacity:1" d="M 242.318,855.988 240.829,882.799 z" id="boundary" inkscape:connector-curvature="0" />
	<path style="fill:none;stroke:red;stroke-width:1px;stroke-linecap:butt;stroke-linejoin:miter;stroke-opacity:1" d="M 295.94,787.471 295.94,802.366 z" id="boundary" inkscape:connector-curvature="0" />
	<path style="fill:none;stroke:red;stroke-width:1px;stroke-linecap:butt;stroke-linejoin:miter;stroke-opacity:1" d="M 295.94,772.577 295.94,787.471 z" id="boundary" inkscape:connector-curvature="0" />
	<path style="fill:none;stroke:red;stroke-width:1px;stroke-linecap:butt;stroke-linejoin:miter;stroke-opacity:1" d="M 295.94,802.366 295.94,817.261 z" id="boundary" inkscape:connector-curvature="0" />
	<path style="fill:none;stroke:red;stroke-width:1px;stroke-linecap:butt;stroke-linejoin:miter;stroke-opacity:1" d="M 242.318,826.198 242.318,811.303 z" id="boundary" inkscape:connector-curvature="0" />
	<path style="fill:none;stroke:red;stroke-width:1px;stroke-linecap:butt;stroke-linejoin:miter;stroke-opacity:1" d="M 295.94,772.577 316.793,783.003 z" id="boundary" inkscape:connector-curvature="0" />
	<path style="fill:none;stroke:red;stroke-width:1px;stroke-linecap:butt;stroke-linejoin:miter;stroke-opacity:1" d="M 295.94,832.156 288.492,847.051 z" id="boundary" inkscape:connector-curvature="0" />
	<path style="fill:none;stroke:red;stroke-width:1px;stroke-linecap:butt;stroke-linejoin:miter;stroke-opacity:1" d="M 242.318,841.093 242.318,855.988 z" id="boundary" inkscape:connector-curvature="0" />
	<path style="fill:none;stroke:red;stroke-width:1px;stroke-linecap:butt;stroke-linejoin:miter;stroke-opacity:1" d="M 288.492,861.946 281.045,876.841 z" id="boundary" inkscape:connector-curvature="0" />
	<path style="fill:none;stroke:red;stroke-width:1px;stroke-linecap:butt;stroke-linejoin:miter;stroke-opacity:1" d="M 288.492,847.051 288.492,861.946 z" id="boundary" inkscape:connector-curvature="0" />
	<path style="fill:none;stroke:red;stroke-width:1px;stroke-linecap:butt;stroke-linejoin:miter;stroke-opacity:1" d="M 288.492,847.051 309.345,842.583 z" id="boundary" inkscape:connector-curvature="0" />
	<path style="fill:none;stroke:red;stroke-width:1px;stroke-linecap:butt;stroke-linejoin:miter;stroke-opacity:1" d="M 281.045,891.736 281.045,876.841 z" id="boundary" inkscape:connector-curvature="0" />
	<path style="fill:none;stroke:red;stroke-width:1px;stroke-linecap:butt;stroke-linejoin:miter;stroke-opacity:1" d="M 295.94,885.778 281.045,891.736 z" id="boundary" inkscape:connector-curvature="0" />
	<path style="fill:none;stroke:red;stroke-width:1px;stroke-linecap:butt;stroke-linejoin:miter;stroke-opacity:1" d="M 288.492,861.946 301.898,869.393 z" id="boundary" inkscape:connector-curvature="0" />
	<path style="fill:none;stroke:red;stroke-width:1px;stroke-linecap:butt;stroke-linejoin:miter;stroke-opacity:1" d="M 227.423,695.123 303.387,705.55 z" id="boundary" inkscape:connector-curvature="0" />
	<path style="fill:none;stroke:red;stroke-width:1px;stroke-linecap:butt;stroke-linejoin:miter;stroke-opacity:1" d="M 187.207,934.931 175.291,924.505 z" id="boundary" inkscape:connector-curvature="0" />
	<path style="fill:none;stroke:red;stroke-width:1px;stroke-linecap:butt;stroke-linejoin:miter;stroke-opacity:1" d="M 175.291,924.505 187.207,912.589 z" id="boundary" inkscape:connector-curvature="0" />
	<path style="fill:none;stroke:red;stroke-width:1px;stroke-linecap:butt;stroke-linejoin:miter;stroke-opacity:1" d="M 214.018,897.694 199.123,900.673 z" id="boundary" inkscape:connector-curvature="0" />
	<path style="fill:none;stroke:red;stroke-width:1px;stroke-linecap:butt;stroke-linejoin:miter;stroke-opacity:1" d="M 228.913,893.225 214.018,897.694 z" id="boundary" inkscape:connector-curvature="0" />
	<path style="fill:none;stroke:red;stroke-width:1px;stroke-linecap:butt;stroke-linejoin:miter;stroke-opacity:1" d="M 187.207,912.589 199.123,900.673 z" id="boundary" inkscape:connector-curvature="0" />
	<path style="fill:none;stroke:red;stroke-width:1px;stroke-linecap:butt;stroke-linejoin:miter;stroke-opacity:1" d="M 187.207,934.931 202.102,936.42 z" id="boundary" inkscape:connector-curvature="0" />
	<path style="fill:none;stroke:red;stroke-width:1px;stroke-linecap:butt;stroke-linejoin:miter;stroke-opacity:1" d="M 216.997,934.931 231.892,928.973 z" id="boundary" inkscape:connector-curvature="0" />
	<path style="fill:none;stroke:red;stroke-width:1px;stroke-linecap:butt;stroke-linejoin:miter;stroke-opacity:1" d="M 216.997,934.931 202.102,936.42 z" id="boundary" inkscape:connector-curvature="0" />
	<path style="fill:none;stroke:red;stroke-width:1px;stroke-linecap:butt;stroke-linejoin:miter;stroke-opacity:1" d="M 246.787,927.483 242.318,946.847 z" id="boundary" inkscape:connector-curvature="0" />
	<path style="fill:none;stroke:red;stroke-width:1px;stroke-linecap:butt;stroke-linejoin:miter;stroke-opacity:1" d="M 231.892,928.973 246.787,927.483 z" id="boundary" inkscape:connector-curvature="0" />
	<path style="fill:none;stroke:red;stroke-width:1px;stroke-linecap:butt;stroke-linejoin:miter;stroke-opacity:1" d="M 242.318,946.847 249.766,960.252 z" id="boundary" inkscape:connector-curvature="0" />
	<path style="fill:none;stroke:red;stroke-width:1px;stroke-linecap:butt;stroke-linejoin:miter;stroke-opacity:1" d="M 257.213,939.399 246.787,927.483 z" id="boundary" inkscape:connector-curvature="0" />
	<path style="fill:none;stroke:red;stroke-width:1px;stroke-linecap:butt;stroke-linejoin:miter;stroke-opacity:1" d="M 246.787,927.483 258.703,914.078 z" id="boundary" inkscape:connector-curvature="0" />
	<path style="fill:none;stroke:red;stroke-width:1px;stroke-linecap:butt;stroke-linejoin:miter;stroke-opacity:1" d="M 270.619,903.652 281.045,891.736 z" id="boundary" inkscape:connector-curvature="0" />
	<path style="fill:none;stroke:red;stroke-width:1px;stroke-linecap:butt;stroke-linejoin:miter;stroke-opacity:1" d="M 279.556,917.057 270.619,903.652 z" id="boundary" inkscape:connector-curvature="0" />
	<path style="fill:none;stroke:red;stroke-width:1px;stroke-linecap:butt;stroke-linejoin:miter;stroke-opacity:1" d="M 272.108,931.952 279.556,917.057 z" id="boundary" inkscape:connector-curvature="0" />
	<path style="fill:none;stroke:red;stroke-width:1px;stroke-linecap:butt;stroke-linejoin:miter;stroke-opacity:1" d="M 258.703,914.078 270.619,903.652 z" id="boundary" inkscape:connector-curvature="0" />
	<path style="fill:none;stroke:red;stroke-width:1px;stroke-linecap:butt;stroke-linejoin:miter;stroke-opacity:1" d="M 264.661,966.21 249.766,960.252 z" id="boundary" inkscape:connector-curvature="0" />
	<path style="fill:none;stroke:red;stroke-width:1px;stroke-linecap:butt;stroke-linejoin:miter;stroke-opacity:1" d="M 257.213,939.399 272.108,931.952 z" id="boundary" inkscape:connector-curvature="0" />
	<path style="fill:none;stroke:red;stroke-width:1px;stroke-linecap:butt;stroke-linejoin:miter;stroke-opacity:1" d="M 294.45,961.742 279.556,966.21 z" id="boundary" inkscape:connector-curvature="0" />
	<path style="fill:none;stroke:red;stroke-width:1px;stroke-linecap:butt;stroke-linejoin:miter;stroke-opacity:1" d="M 309.345,954.294 294.45,961.742 z" id="boundary" inkscape:connector-curvature="0" />
	<path style="fill:none;stroke:red;stroke-width:1px;stroke-linecap:butt;stroke-linejoin:miter;stroke-opacity:1" d="M 279.556,966.21 264.661,966.21 z" id="boundary" inkscape:connector-curvature="0" />
	<path style="fill:none;stroke:red;stroke-width:1px;stroke-linecap:butt;stroke-linejoin:miter;stroke-opacity:1" d="M 295.94,817.261 295.94,832.156 z" id="boundary" inkscape:connector-curvature="0" />
	<path style="fill:none;stroke:red;stroke-width:1px;stroke-linecap:butt;stroke-linejoin:miter;stroke-opacity:1" d="M 218.486,683.207 227.423,695.123 z" id="boundary" inkscape:connector-curvature="0" />
	<path style="fill:none;stroke:red;stroke-width:1px;stroke-linecap:butt;stroke-linejoin:miter;stroke-opacity:1" d="M 303.387,720.444 303.387,735.339 z" id="boundary" inkscape:connector-curvature="0" />
	<path style="fill:none;stroke:red;stroke-width:1px;stroke-linecap:butt;stroke-linejoin:miter;stroke-opacity:1" d="M 303.387,720.444 303.387,705.55 z" id="boundary" inkscape:connector-curvature="0" />
	<path style="fill:none;stroke:red;stroke-width:1px;stroke-linecap:butt;stroke-linejoin:miter;stroke-opacity:1" d="M 303.387,705.55 316.793,712.997 z" id="boundary" inkscape:connector-curvature="0" />
	<path style="fill:none;stroke:red;stroke-width:1px;stroke-linecap:butt;stroke-linejoin:miter;stroke-opacity:1" d="M 316.793,712.997 324.24,726.402 z" id="boundary" inkscape:connector-curvature="0" />
	<path style="fill:none;stroke:red;stroke-width:1px;stroke-linecap:butt;stroke-linejoin:miter;stroke-opacity:1" d="M 324.24,741.297 324.24,726.402 z" id="boundary" inkscape:connector-curvature="0" />
	<path style="fill:none;stroke:red;stroke-width:1px;stroke-linecap:butt;stroke-linejoin:miter;stroke-opacity:1" d="M 303.387,735.339 303.387,750.234 z" id="boundary" inkscape:connector-curvature="0" />
	<path style="fill:none;stroke:red;stroke-width:1px;stroke-linecap:butt;stroke-linejoin:miter;stroke-opacity:1" d="M 324.24,741.297 324.24,756.192 z" id="boundary" inkscape:connector-curvature="0" />
	<path style="fill:none;stroke:red;stroke-width:1px;stroke-linecap:butt;stroke-linejoin:miter;stroke-opacity:1" d="M 324.24,756.192 303.387,750.234 z" id="boundary" inkscape:connector-curvature="0" />
	<path style="fill:none;stroke:red;stroke-width:1px;stroke-linecap:butt;stroke-linejoin:miter;stroke-opacity:1" d="M 404.673,762.15 397.225,777.045 z" id="boundary" inkscape:connector-curvature="0" />
	<path style="fill:none;stroke:red;stroke-width:1px;stroke-linecap:butt;stroke-linejoin:miter;stroke-opacity:1" d="M 397.225,777.045 389.778,791.94 z" id="boundary" inkscape:connector-curvature="0" />
	<path style="fill:none;stroke:red;stroke-width:1px;stroke-linecap:butt;stroke-linejoin:miter;stroke-opacity:1" d="M 412.12,747.255 404.673,762.15 z" id="boundary" inkscape:connector-curvature="0" />
	<path style="fill:none;stroke:red;stroke-width:1px;stroke-linecap:butt;stroke-linejoin:miter;stroke-opacity:1" d="M 324.24,756.192 316.793,783.003 z" id="boundary" inkscape:connector-curvature="0" />
	<path style="fill:none;stroke:red;stroke-width:1px;stroke-linecap:butt;stroke-linejoin:miter;stroke-opacity:1" d="M 429.994,698.102 437.441,683.207 z" id="boundary" inkscape:connector-curvature="0" />
	<path style="fill:none;stroke:red;stroke-width:1px;stroke-linecap:butt;stroke-linejoin:miter;stroke-opacity:1" d="M 514.895,683.207 525.321,695.123 z" id="boundary" inkscape:connector-curvature="0" />
	<path style="fill:none;stroke:red;stroke-width:1px;stroke-linecap:butt;stroke-linejoin:miter;stroke-opacity:1" d="M 532.769,708.529 525.321,695.123 z" id="boundary" inkscape:connector-curvature="0" />
	<path style="fill:none;stroke:red;stroke-width:1px;stroke-linecap:butt;stroke-linejoin:miter;stroke-opacity:1" d="M 427.015,717.465 429.994,698.102 z" id="boundary" inkscape:connector-curvature="0" />
	<path style="fill:none;stroke:red;stroke-width:1px;stroke-linecap:butt;stroke-linejoin:miter;stroke-opacity:1" d="M 412.12,747.255 419.568,732.36 z" id="boundary" inkscape:connector-curvature="0" />
	<path style="fill:none;stroke:red;stroke-width:1px;stroke-linecap:butt;stroke-linejoin:miter;stroke-opacity:1" d="M 540.216,721.934 547.664,735.339 z" id="boundary" inkscape:connector-curvature="0" />
	<path style="fill:none;stroke:red;stroke-width:1px;stroke-linecap:butt;stroke-linejoin:miter;stroke-opacity:1" d="M 532.769,708.529 540.216,721.934 z" id="boundary" inkscape:connector-curvature="0" />
	<path style="fill:none;stroke:red;stroke-width:1px;stroke-linecap:butt;stroke-linejoin:miter;stroke-opacity:1" d="M 419.568,732.36 427.015,717.465 z" id="boundary" inkscape:connector-curvature="0" />
	<path style="fill:none;stroke:red;stroke-width:1px;stroke-linecap:butt;stroke-linejoin:miter;stroke-opacity:1" d="M 316.793,797.898 316.793,812.793 z" id="boundary" inkscape:connector-curvature="0" />
	<path style="fill:none;stroke:red;stroke-width:1px;stroke-linecap:butt;stroke-linejoin:miter;stroke-opacity:1" d="M 316.793,783.003 316.793,797.898 z" id="boundary" inkscape:connector-curvature="0" />
	<path style="fill:none;stroke:red;stroke-width:1px;stroke-linecap:butt;stroke-linejoin:miter;stroke-opacity:1" d="M 316.793,812.793 316.793,827.688 z" id="boundary" inkscape:connector-curvature="0" />
	<path style="fill:none;stroke:red;stroke-width:1px;stroke-linecap:butt;stroke-linejoin:miter;stroke-opacity:1" d="M 316.793,827.688 309.345,842.583 z" id="boundary" inkscape:connector-curvature="0" />
	<path style="fill:none;stroke:red;stroke-width:1px;stroke-linecap:butt;stroke-linejoin:miter;stroke-opacity:1" d="M 324.24,924.505 316.793,939.399 z" id="boundary" inkscape:connector-curvature="0" />
	<path style="fill:none;stroke:red;stroke-width:1px;stroke-linecap:butt;stroke-linejoin:miter;stroke-opacity:1" d="M 301.898,869.393 295.94,885.778 z" id="boundary" inkscape:connector-curvature="0" />
	<path style="fill:none;stroke:red;stroke-width:1px;stroke-linecap:butt;stroke-linejoin:miter;stroke-opacity:1" d="M 316.793,939.399 309.345,954.294 z" id="boundary" inkscape:connector-curvature="0" />
	<path style="fill:none;stroke:red;stroke-width:1px;stroke-linecap:butt;stroke-linejoin:miter;stroke-opacity:1" d="M 555.111,939.399 547.664,954.294 z" id="boundary" inkscape:connector-curvature="0" />
	<path style="fill:none;stroke:red;stroke-width:1px;stroke-linecap:butt;stroke-linejoin:miter;stroke-opacity:1" d="M 368.925,835.135 361.477,850.03 z" id="boundary" inkscape:connector-curvature="0" />
	<path style="fill:none;stroke:red;stroke-width:1px;stroke-linecap:butt;stroke-linejoin:miter;stroke-opacity:1" d="M 376.372,820.24 377.862,802.366 z" id="boundary" inkscape:connector-curvature="0" />
	<path style="fill:none;stroke:red;stroke-width:1px;stroke-linecap:butt;stroke-linejoin:miter;stroke-opacity:1" d="M 377.862,802.366 389.778,791.94 z" id="boundary" inkscape:connector-curvature="0" />
	<path style="fill:none;stroke:red;stroke-width:1px;stroke-linecap:butt;stroke-linejoin:miter;stroke-opacity:1" d="M 376.372,820.24 368.925,835.135 z" id="boundary" inkscape:connector-curvature="0" />
	<path style="fill:none;stroke:red;stroke-width:1px;stroke-linecap:butt;stroke-linejoin:miter;stroke-opacity:1" d="M 361.477,850.03 354.03,864.925 z" id="boundary" inkscape:connector-curvature="0" />
	<path style="fill:none;stroke:red;stroke-width:1px;stroke-linecap:butt;stroke-linejoin:miter;stroke-opacity:1" d="M 324.24,924.505 331.688,909.61 z" id="boundary" inkscape:connector-curvature="0" />
	<path style="fill:none;stroke:red;stroke-width:1px;stroke-linecap:butt;stroke-linejoin:miter;stroke-opacity:1" d="M 339.135,894.715 331.688,909.61 z" id="boundary" inkscape:connector-curvature="0" />
	<path style="fill:none;stroke:red;stroke-width:1px;stroke-linecap:butt;stroke-linejoin:miter;stroke-opacity:1" d="M 346.583,879.82 354.03,864.925 z" id="boundary" inkscape:connector-curvature="0" />
	<path style="fill:none;stroke:red;stroke-width:1px;stroke-linecap:butt;stroke-linejoin:miter;stroke-opacity:1" d="M 339.135,894.715 346.583,879.82 z" id="boundary" inkscape:connector-curvature="0" />
	<path style="fill:none;stroke:red;stroke-width:1px;stroke-linecap:butt;stroke-linejoin:miter;stroke-opacity:1" d="M 547.664,735.339 556.601,747.255 z" id="boundary" inkscape:connector-curvature="0" />
	<path style="fill:none;stroke:red;stroke-width:1px;stroke-linecap:butt;stroke-linejoin:miter;stroke-opacity:1" d="M 547.664,954.294 559.58,964.721 z" id="boundary" inkscape:connector-curvature="0" />
	<path style="fill:none;stroke:red;stroke-width:1px;stroke-linecap:butt;stroke-linejoin:miter;stroke-opacity:1" d="M 549.153,383.82 562.559,391.267 z" id="boundary" inkscape:connector-curvature="0" />
	<path style="fill:none;stroke:red;stroke-width:1px;stroke-linecap:butt;stroke-linejoin:miter;stroke-opacity:1" d="M 693.634,368.925 705.55,357.009 z" id="boundary" inkscape:connector-curvature="0" />
	<path style="fill:none;stroke:red;stroke-width:1px;stroke-linecap:butt;stroke-linejoin:miter;stroke-opacity:1" d="M 717.465,346.583 705.55,357.009 z" id="boundary" inkscape:connector-curvature="0" />
	<path style="fill:none;stroke:red;stroke-width:1px;stroke-linecap:butt;stroke-linejoin:miter;stroke-opacity:1" d="M 727.892,334.667 717.465,346.583 z" id="boundary" inkscape:connector-curvature="0" />
	<path style="fill:none;stroke:red;stroke-width:1px;stroke-linecap:butt;stroke-linejoin:miter;stroke-opacity:1" d="M 750.234,312.324 739.808,324.24 z" id="boundary" inkscape:connector-curvature="0" />
	<path style="fill:none;stroke:red;stroke-width:1px;stroke-linecap:butt;stroke-linejoin:miter;stroke-opacity:1" d="M 739.808,324.24 727.892,334.667 z" id="boundary" inkscape:connector-curvature="0" />
	<path style="fill:none;stroke:red;stroke-width:1px;stroke-linecap:butt;stroke-linejoin:miter;stroke-opacity:1" d="M 592.348,391.267 577.453,391.267 z" id="boundary" inkscape:connector-curvature="0" />
	<path style="fill:none;stroke:red;stroke-width:1px;stroke-linecap:butt;stroke-linejoin:miter;stroke-opacity:1" d="M 693.634,368.925 681.718,380.841 z" id="boundary" inkscape:connector-curvature="0" />
	<path style="fill:none;stroke:red;stroke-width:1px;stroke-linecap:butt;stroke-linejoin:miter;stroke-opacity:1" d="M 681.718,380.841 666.823,388.288 z" id="boundary" inkscape:connector-curvature="0" />
	<path style="fill:none;stroke:red;stroke-width:1px;stroke-linecap:butt;stroke-linejoin:miter;stroke-opacity:1" d="M 666.823,388.288 651.928,391.267 z" id="boundary" inkscape:connector-curvature="0" />
	<path style="fill:none;stroke:red;stroke-width:1px;stroke-linecap:butt;stroke-linejoin:miter;stroke-opacity:1" d="M 577.453,391.267 562.559,391.267 z" id="boundary" inkscape:connector-curvature="0" />
	<path style="fill:none;stroke:red;stroke-width:1px;stroke-linecap:butt;stroke-linejoin:miter;stroke-opacity:1" d="M 771.087,15.9159 780.024,27.8318 z" id="boundary" inkscape:connector-curvature="0" />
	<path style="fill:none;stroke:red;stroke-width:1px;stroke-linecap:butt;stroke-linejoin:miter;stroke-opacity:1" d="M 780.024,275.087 787.471,260.192 z" id="boundary" inkscape:connector-curvature="0" />
	<path style="fill:none;stroke:red;stroke-width:1px;stroke-linecap:butt;stroke-linejoin:miter;stroke-opacity:1" d="M 768.108,287.003 780.024,275.087 z" id="boundary" inkscape:connector-curvature="0" />
	<path style="fill:none;stroke:red;stroke-width:1px;stroke-linecap:butt;stroke-linejoin:miter;stroke-opacity:1" d="M 783.003,4 771.087,15.9159 z" id="boundary" inkscape:connector-curvature="0" />
	<path style="fill:none;stroke:red;stroke-width:1px;stroke-linecap:butt;stroke-linejoin:miter;stroke-opacity:1" d="M 762.15,301.898 768.108,287.003 z" id="boundary" inkscape:connector-curvature="0" />
	<path style="fill:none;stroke:red;stroke-width:1px;stroke-linecap:butt;stroke-linejoin:miter;stroke-opacity:1" d="M 762.15,301.898 750.234,312.324 z" id="boundary" inkscape:connector-curvature="0" />
	<path style="fill:none;stroke:red;stroke-width:1px;stroke-linecap:butt;stroke-linejoin:miter;stroke-opacity:1" d="M 769.598,382.33 780.024,362.967 z" id="boundary" inkscape:connector-curvature="0" />
	<path style="fill:none;stroke:red;stroke-width:1px;stroke-linecap:butt;stroke-linejoin:miter;stroke-opacity:1" d="M 780.024,362.967 791.94,352.541 z" id="boundary" inkscape:connector-curvature="0" />
	<path style="fill:none;stroke:red;stroke-width:1px;stroke-linecap:butt;stroke-linejoin:miter;stroke-opacity:1" d="M 762.15,397.225 769.598,382.33 z" id="boundary" inkscape:connector-curvature="0" />
	<path style="fill:none;stroke:red;stroke-width:1px;stroke-linecap:butt;stroke-linejoin:miter;stroke-opacity:1" d="M 802.366,333.177 791.94,352.541 z" id="boundary" inkscape:connector-curvature="0" />
	<path style="fill:none;stroke:red;stroke-width:1px;stroke-linecap:butt;stroke-linejoin:miter;stroke-opacity:1" d="M 783.003,4 793.429,15.9159 z" id="boundary" inkscape:connector-curvature="0" />
	<path style="fill:none;stroke:red;stroke-width:1px;stroke-linecap:butt;stroke-linejoin:miter;stroke-opacity:1" d="M 592.348,391.267 607.243,391.267 z" id="boundary" inkscape:connector-curvature="0" />
	<path style="fill:none;stroke:red;stroke-width:1px;stroke-linecap:butt;stroke-linejoin:miter;stroke-opacity:1" d="M 622.138,391.267 637.033,391.267 z" id="boundary" inkscape:connector-curvature="0" />
	<path style="fill:none;stroke:red;stroke-width:1px;stroke-linecap:butt;stroke-linejoin:miter;stroke-opacity:1" d="M 651.928,391.267 637.033,391.267 z" id="boundary" inkscape:connector-curvature="0" />
	<path style="fill:none;stroke:red;stroke-width:1px;stroke-linecap:butt;stroke-linejoin:miter;stroke-opacity:1" d="M 622.138,391.267 607.243,391.267 z" id="boundary" inkscape:connector-curvature="0" />
	<path style="fill:none;stroke:red;stroke-width:1px;stroke-linecap:butt;stroke-linejoin:miter;stroke-opacity:1" d="M 727.892,459.784 727.892,444.889 z" id="boundary" inkscape:connector-curvature="0" />
	<path style="fill:none;stroke:red;stroke-width:1px;stroke-linecap:butt;stroke-linejoin:miter;stroke-opacity:1" d="M 730.871,474.679 727.892,459.784 z" id="boundary" inkscape:connector-curvature="0" />
	<path style="fill:none;stroke:red;stroke-width:1px;stroke-linecap:butt;stroke-linejoin:miter;stroke-opacity:1" d="M 735.339,489.574 730.871,474.679 z" id="boundary" inkscape:connector-curvature="0" />
	<path style="fill:none;stroke:red;stroke-width:1px;stroke-linecap:butt;stroke-linejoin:miter;stroke-opacity:1" d="M 727.892,444.889 727.892,429.994 z" id="boundary" inkscape:connector-curvature="0" />
	<path style="fill:none;stroke:red;stroke-width:1px;stroke-linecap:butt;stroke-linejoin:miter;stroke-opacity:1" d="M 727.892,429.994 739.808,419.568 z" id="boundary" inkscape:connector-curvature="0" />
	<path style="fill:none;stroke:red;stroke-width:1px;stroke-linecap:butt;stroke-linejoin:miter;stroke-opacity:1" d="M 735.339,489.574 735.339,504.468 z" id="boundary" inkscape:connector-curvature="0" />
	<path style="fill:none;stroke:red;stroke-width:1px;stroke-linecap:butt;stroke-linejoin:miter;stroke-opacity:1" d="M 735.339,504.468 738.318,519.363 z" id="boundary" inkscape:connector-curvature="0" />
	<path style="fill:none;stroke:red;stroke-width:1px;stroke-linecap:butt;stroke-linejoin:miter;stroke-opacity:1" d="M 745.766,532.769 738.318,519.363 z" id="boundary" inkscape:connector-curvature="0" />
	<path style="fill:none;stroke:red;stroke-width:1px;stroke-linecap:butt;stroke-linejoin:miter;stroke-opacity:1" d="M 750.234,407.652 739.808,419.568 z" id="boundary" inkscape:connector-curvature="0" />
	<path style="fill:none;stroke:red;stroke-width:1px;stroke-linecap:butt;stroke-linejoin:miter;stroke-opacity:1" d="M 750.234,407.652 762.15,397.225 z" id="boundary" inkscape:connector-curvature="0" />
	<path style="fill:none;stroke:red;stroke-width:1px;stroke-linecap:butt;stroke-linejoin:miter;stroke-opacity:1" d="M 745.766,532.769 750.234,547.664 z" id="boundary" inkscape:connector-curvature="0" />
	<path style="fill:none;stroke:red;stroke-width:1px;stroke-linecap:butt;stroke-linejoin:miter;stroke-opacity:1" d="M 750.234,547.664 750.234,562.559 z" id="boundary" inkscape:connector-curvature="0" />
	<path style="fill:none;stroke:red;stroke-width:1px;stroke-linecap:butt;stroke-linejoin:miter;stroke-opacity:1" d="M 750.234,562.559 750.234,577.453 z" id="boundary" inkscape:connector-curvature="0" />
	<path style="fill:none;stroke:red;stroke-width:1px;stroke-linecap:butt;stroke-linejoin:miter;stroke-opacity:1" d="M 750.234,577.453 757.682,590.859 z" id="boundary" inkscape:connector-curvature="0" />
	<path style="fill:none;stroke:red;stroke-width:1px;stroke-linecap:butt;stroke-linejoin:miter;stroke-opacity:1" d="M 757.682,590.859 757.682,605.754 z" id="boundary" inkscape:connector-curvature="0" />
	<path style="fill:none;stroke:red;stroke-width:1px;stroke-linecap:butt;stroke-linejoin:miter;stroke-opacity:1" d="M 757.682,605.754 757.682,620.649 z" id="boundary" inkscape:connector-curvature="0" />
	<path style="fill:none;stroke:red;stroke-width:1px;stroke-linecap:butt;stroke-linejoin:miter;stroke-opacity:1" d="M 793.429,35.2793 780.024,27.8318 z" id="boundary" inkscape:connector-curvature="0" />
	<path style="fill:none;stroke:red;stroke-width:1px;stroke-linecap:butt;stroke-linejoin:miter;stroke-opacity:1" d="M 793.429,15.9159 808.324,21.8739 z" id="boundary" inkscape:connector-curvature="0" />
	<path style="fill:none;stroke:red;stroke-width:1px;stroke-linecap:butt;stroke-linejoin:miter;stroke-opacity:1" d="M 808.324,21.8739 821.73,29.3213 z" id="boundary" inkscape:connector-curvature="0" />
	<path style="fill:none;stroke:red;stroke-width:1px;stroke-linecap:butt;stroke-linejoin:miter;stroke-opacity:1" d="M 832.156,41.2372 821.73,29.3213 z" id="boundary" inkscape:connector-curvature="0" />
	<path style="fill:none;stroke:red;stroke-width:1px;stroke-linecap:butt;stroke-linejoin:miter;stroke-opacity:1" d="M 844.072,50.1742 832.156,41.2372 z" id="boundary" inkscape:connector-curvature="0" />
	<path style="fill:none;stroke:red;stroke-width:1px;stroke-linecap:butt;stroke-linejoin:miter;stroke-opacity:1" d="M 802.366,47.1952 793.429,35.2793 z" id="boundary" inkscape:connector-curvature="0" />
	<path style="fill:none;stroke:red;stroke-width:1px;stroke-linecap:butt;stroke-linejoin:miter;stroke-opacity:1" d="M 802.366,47.1952 814.282,57.6216 z" id="boundary" inkscape:connector-curvature="0" />
	<path style="fill:none;stroke:red;stroke-width:1px;stroke-linecap:butt;stroke-linejoin:miter;stroke-opacity:1" d="M 824.709,69.5375 836.625,79.964 z" id="boundary" inkscape:connector-curvature="0" />
	<path style="fill:none;stroke:red;stroke-width:1px;stroke-linecap:butt;stroke-linejoin:miter;stroke-opacity:1" d="M 836.625,79.964 838.114,94.8589 z" id="boundary" inkscape:connector-curvature="0" />
	<path style="fill:none;stroke:red;stroke-width:1px;stroke-linecap:butt;stroke-linejoin:miter;stroke-opacity:1" d="M 824.709,69.5375 814.282,57.6216 z" id="boundary" inkscape:connector-curvature="0" />
	<path style="fill:none;stroke:red;stroke-width:1px;stroke-linecap:butt;stroke-linejoin:miter;stroke-opacity:1" d="M 854.498,62.0901 866.414,72.5165 z" id="boundary" inkscape:connector-curvature="0" />
	<path style="fill:none;stroke:red;stroke-width:1px;stroke-linecap:butt;stroke-linejoin:miter;stroke-opacity:1" d="M 854.498,62.0901 844.072,50.1742 z" id="boundary" inkscape:connector-curvature="0" />
	<path style="fill:none;stroke:red;stroke-width:1px;stroke-linecap:butt;stroke-linejoin:miter;stroke-opacity:1" d="M 879.82,100.817 872.372,87.4114 z" id="boundary" inkscape:connector-curvature="0" />
	<path style="fill:none;stroke:red;stroke-width:1px;stroke-linecap:butt;stroke-linejoin:miter;stroke-opacity:1" d="M 872.372,87.4114 866.414,72.5165 z" id="boundary" inkscape:connector-curvature="0" />
	<path style="fill:none;stroke:red;stroke-width:1px;stroke-linecap:butt;stroke-linejoin:miter;stroke-opacity:1" d="M 845.562,108.264 838.114,94.8589 z" id="boundary" inkscape:connector-curvature="0" />
	<path style="fill:none;stroke:red;stroke-width:1px;stroke-linecap:butt;stroke-linejoin:miter;stroke-opacity:1" d="M 845.562,108.264 853.009,121.67 z" id="boundary" inkscape:connector-curvature="0" />
	<path style="fill:none;stroke:red;stroke-width:1px;stroke-linecap:butt;stroke-linejoin:miter;stroke-opacity:1" d="M 853.009,121.67 853.009,136.565 z" id="boundary" inkscape:connector-curvature="0" />
	<path style="fill:none;stroke:red;stroke-width:1px;stroke-linecap:butt;stroke-linejoin:miter;stroke-opacity:1" d="M 884.288,115.712 891.736,129.117 z" id="boundary" inkscape:connector-curvature="0" />
	<path style="fill:none;stroke:red;stroke-width:1px;stroke-linecap:butt;stroke-linejoin:miter;stroke-opacity:1" d="M 884.288,115.712 879.82,100.817 z" id="boundary" inkscape:connector-curvature="0" />
	<path style="fill:none;stroke:red;stroke-width:1px;stroke-linecap:butt;stroke-linejoin:miter;stroke-opacity:1" d="M 891.736,129.117 891.736,144.012 z" id="boundary" inkscape:connector-curvature="0" />
	<path style="fill:none;stroke:red;stroke-width:1px;stroke-linecap:butt;stroke-linejoin:miter;stroke-opacity:1" d="M 809.814,237.85 817.261,222.955 z" id="boundary" inkscape:connector-curvature="0" />
	<path style="fill:none;stroke:red;stroke-width:1px;stroke-linecap:butt;stroke-linejoin:miter;stroke-opacity:1" d="M 799.387,249.766 787.471,260.192 z" id="boundary" inkscape:connector-curvature="0" />
	<path style="fill:none;stroke:red;stroke-width:1px;stroke-linecap:butt;stroke-linejoin:miter;stroke-opacity:1" d="M 835.135,197.634 829.177,212.529 z" id="boundary" inkscape:connector-curvature="0" />
	<path style="fill:none;stroke:red;stroke-width:1px;stroke-linecap:butt;stroke-linejoin:miter;stroke-opacity:1" d="M 829.177,212.529 817.261,222.955 z" id="boundary" inkscape:connector-curvature="0" />
	<path style="fill:none;stroke:red;stroke-width:1px;stroke-linecap:butt;stroke-linejoin:miter;stroke-opacity:1" d="M 838.114,179.76 835.135,197.634 z" id="boundary" inkscape:connector-curvature="0" />
	<path style="fill:none;stroke:red;stroke-width:1px;stroke-linecap:butt;stroke-linejoin:miter;stroke-opacity:1" d="M 809.814,237.85 799.387,249.766 z" id="boundary" inkscape:connector-curvature="0" />
	<path style="fill:none;stroke:red;stroke-width:1px;stroke-linecap:butt;stroke-linejoin:miter;stroke-opacity:1" d="M 821.73,307.856 814.282,322.751 z" id="boundary" inkscape:connector-curvature="0" />
	<path style="fill:none;stroke:red;stroke-width:1px;stroke-linecap:butt;stroke-linejoin:miter;stroke-opacity:1" d="M 814.282,322.751 802.366,333.177 z" id="boundary" inkscape:connector-curvature="0" />
	<path style="fill:none;stroke:red;stroke-width:1px;stroke-linecap:butt;stroke-linejoin:miter;stroke-opacity:1" d="M 832.156,288.492 821.73,307.856 z" id="boundary" inkscape:connector-curvature="0" />
	<path style="fill:none;stroke:red;stroke-width:1px;stroke-linecap:butt;stroke-linejoin:miter;stroke-opacity:1" d="M 832.156,288.492 844.072,278.066 z" id="boundary" inkscape:connector-curvature="0" />
	<path style="fill:none;stroke:red;stroke-width:1px;stroke-linecap:butt;stroke-linejoin:miter;stroke-opacity:1" d="M 845.562,164.865 853.009,151.459 z" id="boundary" inkscape:connector-curvature="0" />
	<path style="fill:none;stroke:red;stroke-width:1px;stroke-linecap:butt;stroke-linejoin:miter;stroke-opacity:1" d="M 853.009,136.565 853.009,151.459 z" id="boundary" inkscape:connector-curvature="0" />
	<path style="fill:none;stroke:red;stroke-width:1px;stroke-linecap:butt;stroke-linejoin:miter;stroke-opacity:1" d="M 891.736,144.012 891.736,158.907 z" id="boundary" inkscape:connector-curvature="0" />
	<path style="fill:none;stroke:red;stroke-width:1px;stroke-linecap:butt;stroke-linejoin:miter;stroke-opacity:1" d="M 891.736,158.907 891.736,173.802 z" id="boundary" inkscape:connector-curvature="0" />
	<path style="fill:none;stroke:red;stroke-width:1px;stroke-linecap:butt;stroke-linejoin:miter;stroke-opacity:1" d="M 891.736,173.802 884.288,191.676 z" id="boundary" inkscape:connector-curvature="0" />
	<path style="fill:none;stroke:red;stroke-width:1px;stroke-linecap:butt;stroke-linejoin:miter;stroke-opacity:1" d="M 861.946,243.808 854.498,258.703 z" id="boundary" inkscape:connector-curvature="0" />
	<path style="fill:none;stroke:red;stroke-width:1px;stroke-linecap:butt;stroke-linejoin:miter;stroke-opacity:1" d="M 854.498,258.703 844.072,278.066 z" id="boundary" inkscape:connector-curvature="0" />
	<path style="fill:none;stroke:red;stroke-width:1px;stroke-linecap:butt;stroke-linejoin:miter;stroke-opacity:1" d="M 869.393,228.913 876.841,206.571 z" id="boundary" inkscape:connector-curvature="0" />
	<path style="fill:none;stroke:red;stroke-width:1px;stroke-linecap:butt;stroke-linejoin:miter;stroke-opacity:1" d="M 876.841,206.571 884.288,191.676 z" id="boundary" inkscape:connector-curvature="0" />
	<path style="fill:none;stroke:red;stroke-width:1px;stroke-linecap:butt;stroke-linejoin:miter;stroke-opacity:1" d="M 869.393,228.913 861.946,243.808 z" id="boundary" inkscape:connector-curvature="0" />
	<path style="fill:none;stroke:red;stroke-width:1px;stroke-linecap:butt;stroke-linejoin:miter;stroke-opacity:1" d="M 838.114,179.76 845.562,164.865 z" id="boundary" inkscape:connector-curvature="0" />
	<path style="fill:none;stroke:red;stroke-width:1px;stroke-linecap:butt;stroke-linejoin:miter;stroke-opacity:1" d="M 568.517,757.682 578.943,769.598 z" id="boundary" inkscape:connector-curvature="0" />
	<path style="fill:none;stroke:red;stroke-width:1px;stroke-linecap:butt;stroke-linejoin:miter;stroke-opacity:1" d="M 568.517,757.682 556.601,747.255 z" id="boundary" inkscape:connector-curvature="0" />
	<path style="fill:none;stroke:red;stroke-width:1px;stroke-linecap:butt;stroke-linejoin:miter;stroke-opacity:1" d="M 660.865,742.787 675.76,742.787 z" id="boundary" inkscape:connector-curvature="0" />
	<path style="fill:none;stroke:red;stroke-width:1px;stroke-linecap:butt;stroke-linejoin:miter;stroke-opacity:1" d="M 675.76,742.787 668.312,756.192 z" id="boundary" inkscape:connector-curvature="0" />
	<path style="fill:none;stroke:red;stroke-width:1px;stroke-linecap:butt;stroke-linejoin:miter;stroke-opacity:1" d="M 675.76,769.598 668.312,756.192 z" id="boundary" inkscape:connector-curvature="0" />
	<path style="fill:none;stroke:red;stroke-width:1px;stroke-linecap:butt;stroke-linejoin:miter;stroke-opacity:1" d="M 601.285,791.94 660.865,742.787 z" id="boundary" inkscape:connector-curvature="0" />
	<path style="fill:none;stroke:red;stroke-width:1px;stroke-linecap:butt;stroke-linejoin:miter;stroke-opacity:1" d="M 578.943,769.598 590.859,780.024 z" id="boundary" inkscape:connector-curvature="0" />
	<path style="fill:none;stroke:red;stroke-width:1px;stroke-linecap:butt;stroke-linejoin:miter;stroke-opacity:1" d="M 613.201,802.366 601.285,791.94 z" id="boundary" inkscape:connector-curvature="0" />
	<path style="fill:none;stroke:red;stroke-width:1px;stroke-linecap:butt;stroke-linejoin:miter;stroke-opacity:1" d="M 601.285,791.94 590.859,780.024 z" id="boundary" inkscape:connector-curvature="0" />
	<path style="fill:none;stroke:red;stroke-width:1px;stroke-linecap:butt;stroke-linejoin:miter;stroke-opacity:1" d="M 613.201,802.366 622.138,827.688 z" id="boundary" inkscape:connector-curvature="0" />
	<path style="fill:none;stroke:red;stroke-width:1px;stroke-linecap:butt;stroke-linejoin:miter;stroke-opacity:1" d="M 675.76,742.787 689.165,750.234 z" id="boundary" inkscape:connector-curvature="0" />
	<path style="fill:none;stroke:red;stroke-width:1px;stroke-linecap:butt;stroke-linejoin:miter;stroke-opacity:1" d="M 683.207,783.003 675.76,769.598 z" id="boundary" inkscape:connector-curvature="0" />
	<path style="fill:none;stroke:red;stroke-width:1px;stroke-linecap:butt;stroke-linejoin:miter;stroke-opacity:1" d="M 689.165,750.234 696.613,763.64 z" id="boundary" inkscape:connector-curvature="0" />
	<path style="fill:none;stroke:red;stroke-width:1px;stroke-linecap:butt;stroke-linejoin:miter;stroke-opacity:1" d="M 705.55,775.556 696.613,763.64 z" id="boundary" inkscape:connector-curvature="0" />
	<path style="fill:none;stroke:red;stroke-width:1px;stroke-linecap:butt;stroke-linejoin:miter;stroke-opacity:1" d="M 727.892,797.898 715.976,787.471 z" id="boundary" inkscape:connector-curvature="0" />
	<path style="fill:none;stroke:red;stroke-width:1px;stroke-linecap:butt;stroke-linejoin:miter;stroke-opacity:1" d="M 683.207,797.898 683.207,783.003 z" id="boundary" inkscape:connector-curvature="0" />
	<path style="fill:none;stroke:red;stroke-width:1px;stroke-linecap:butt;stroke-linejoin:miter;stroke-opacity:1" d="M 715.976,787.471 705.55,775.556 z" id="boundary" inkscape:connector-curvature="0" />
	<path style="fill:none;stroke:red;stroke-width:1px;stroke-linecap:butt;stroke-linejoin:miter;stroke-opacity:1" d="M 683.207,812.793 683.207,797.898 z" id="boundary" inkscape:connector-curvature="0" />
	<path style="fill:none;stroke:red;stroke-width:1px;stroke-linecap:butt;stroke-linejoin:miter;stroke-opacity:1" d="M 675.76,839.604 683.207,812.793 z" id="boundary" inkscape:connector-curvature="0" />
	<path style="fill:none;stroke:red;stroke-width:1px;stroke-linecap:butt;stroke-linejoin:miter;stroke-opacity:1" d="M 741.297,805.345 727.892,797.898 z" id="boundary" inkscape:connector-curvature="0" />
	<path style="fill:none;stroke:red;stroke-width:1px;stroke-linecap:butt;stroke-linejoin:miter;stroke-opacity:1" d="M 753.213,815.772 741.297,805.345 z" id="boundary" inkscape:connector-curvature="0" />
	<path style="fill:none;stroke:red;stroke-width:1px;stroke-linecap:butt;stroke-linejoin:miter;stroke-opacity:1" d="M 567.027,927.483 580.432,920.036 z" id="boundary" inkscape:connector-curvature="0" />
	<path style="fill:none;stroke:red;stroke-width:1px;stroke-linecap:butt;stroke-linejoin:miter;stroke-opacity:1" d="M 607.243,902.162 595.327,920.036 z" id="boundary" inkscape:connector-curvature="0" />
	<path style="fill:none;stroke:red;stroke-width:1px;stroke-linecap:butt;stroke-linejoin:miter;stroke-opacity:1" d="M 595.327,920.036 580.432,920.036 z" id="boundary" inkscape:connector-curvature="0" />
	<path style="fill:none;stroke:red;stroke-width:1px;stroke-linecap:butt;stroke-linejoin:miter;stroke-opacity:1" d="M 614.691,887.267 607.243,902.162 z" id="boundary" inkscape:connector-curvature="0" />
	<path style="fill:none;stroke:red;stroke-width:1px;stroke-linecap:butt;stroke-linejoin:miter;stroke-opacity:1" d="M 619.159,957.273 604.264,964.721 z" id="boundary" inkscape:connector-curvature="0" />
	<path style="fill:none;stroke:red;stroke-width:1px;stroke-linecap:butt;stroke-linejoin:miter;stroke-opacity:1" d="M 574.474,966.21 559.58,964.721 z" id="boundary" inkscape:connector-curvature="0" />
	<path style="fill:none;stroke:red;stroke-width:1px;stroke-linecap:butt;stroke-linejoin:miter;stroke-opacity:1" d="M 555.111,939.399 567.027,927.483 z" id="boundary" inkscape:connector-curvature="0" />
	<path style="fill:none;stroke:red;stroke-width:1px;stroke-linecap:butt;stroke-linejoin:miter;stroke-opacity:1" d="M 589.369,966.21 574.474,966.21 z" id="boundary" inkscape:connector-curvature="0" />
	<path style="fill:none;stroke:red;stroke-width:1px;stroke-linecap:butt;stroke-linejoin:miter;stroke-opacity:1" d="M 589.369,966.21 604.264,964.721 z" id="boundary" inkscape:connector-curvature="0" />
	<path style="fill:none;stroke:red;stroke-width:1px;stroke-linecap:butt;stroke-linejoin:miter;stroke-opacity:1" d="M 622.138,864.925 614.691,887.267 z" id="boundary" inkscape:connector-curvature="0" />
	<path style="fill:none;stroke:red;stroke-width:1px;stroke-linecap:butt;stroke-linejoin:miter;stroke-opacity:1" d="M 622.138,842.583 622.138,864.925 z" id="boundary" inkscape:connector-curvature="0" />
	<path style="fill:none;stroke:red;stroke-width:1px;stroke-linecap:butt;stroke-linejoin:miter;stroke-opacity:1" d="M 622.138,842.583 622.138,827.688 z" id="boundary" inkscape:connector-curvature="0" />
	<path style="fill:none;stroke:red;stroke-width:1px;stroke-linecap:butt;stroke-linejoin:miter;stroke-opacity:1" d="M 675.76,839.604 668.312,861.946 z" id="boundary" inkscape:connector-curvature="0" />
	<path style="fill:none;stroke:red;stroke-width:1px;stroke-linecap:butt;stroke-linejoin:miter;stroke-opacity:1" d="M 668.312,861.946 660.865,884.288 z" id="boundary" inkscape:connector-curvature="0" />
	<path style="fill:none;stroke:red;stroke-width:1px;stroke-linecap:butt;stroke-linejoin:miter;stroke-opacity:1" d="M 634.054,949.826 619.159,957.273 z" id="boundary" inkscape:connector-curvature="0" />
	<path style="fill:none;stroke:red;stroke-width:1px;stroke-linecap:butt;stroke-linejoin:miter;stroke-opacity:1" d="M 641.502,934.931 634.054,949.826 z" id="boundary" inkscape:connector-curvature="0" />
	<path style="fill:none;stroke:red;stroke-width:1px;stroke-linecap:butt;stroke-linejoin:miter;stroke-opacity:1" d="M 641.502,934.931 653.417,914.078 z" id="boundary" inkscape:connector-curvature="0" />
	<path style="fill:none;stroke:red;stroke-width:1px;stroke-linecap:butt;stroke-linejoin:miter;stroke-opacity:1" d="M 660.865,899.183 653.417,914.078 z" id="boundary" inkscape:connector-curvature="0" />
	<path style="fill:none;stroke:red;stroke-width:1px;stroke-linecap:butt;stroke-linejoin:miter;stroke-opacity:1" d="M 660.865,899.183 660.865,884.288 z" id="boundary" inkscape:connector-curvature="0" />
	<path style="fill:none;stroke:red;stroke-width:1px;stroke-linecap:butt;stroke-linejoin:miter;stroke-opacity:1" d="M 753.213,815.772 763.64,827.688 z" id="boundary" inkscape:connector-curvature="0" />
	<path style="fill:none;stroke:red;stroke-width:1px;stroke-linecap:butt;stroke-linejoin:miter;stroke-opacity:1" d="M 757.682,620.649 757.682,635.544 z" id="boundary" inkscape:connector-curvature="0" />
	<path style="fill:none;stroke:red;stroke-width:1px;stroke-linecap:butt;stroke-linejoin:miter;stroke-opacity:1" d="M 765.129,648.949 757.682,635.544 z" id="boundary" inkscape:connector-curvature="0" />
	<path style="fill:none;stroke:red;stroke-width:1px;stroke-linecap:butt;stroke-linejoin:miter;stroke-opacity:1" d="M 765.129,648.949 771.087,663.844 z" id="boundary" inkscape:connector-curvature="0" />
	<path style="fill:none;stroke:red;stroke-width:1px;stroke-linecap:butt;stroke-linejoin:miter;stroke-opacity:1" d="M 771.087,663.844 772.577,678.739 z" id="boundary" inkscape:connector-curvature="0" />
	<path style="fill:none;stroke:red;stroke-width:1px;stroke-linecap:butt;stroke-linejoin:miter;stroke-opacity:1" d="M 772.577,678.739 772.577,693.634 z" id="boundary" inkscape:connector-curvature="0" />
	<path style="fill:none;stroke:red;stroke-width:1px;stroke-linecap:butt;stroke-linejoin:miter;stroke-opacity:1" d="M 771.087,841.093 781.514,853.009 z" id="boundary" inkscape:connector-curvature="0" />
	<path style="fill:none;stroke:red;stroke-width:1px;stroke-linecap:butt;stroke-linejoin:miter;stroke-opacity:1" d="M 771.087,841.093 763.64,827.688 z" id="boundary" inkscape:connector-curvature="0" />
	<path style="fill:none;stroke:red;stroke-width:1px;stroke-linecap:butt;stroke-linejoin:miter;stroke-opacity:1" d="M 778.535,708.529 780.024,723.423 z" id="boundary" inkscape:connector-curvature="0" />
	<path style="fill:none;stroke:red;stroke-width:1px;stroke-linecap:butt;stroke-linejoin:miter;stroke-opacity:1" d="M 778.535,708.529 772.577,693.634 z" id="boundary" inkscape:connector-curvature="0" />
	<path style="fill:none;stroke:red;stroke-width:1px;stroke-linecap:butt;stroke-linejoin:miter;stroke-opacity:1" d="M 787.471,736.829 780.024,723.423 z" id="boundary" inkscape:connector-curvature="0" />
	<path style="fill:none;stroke:red;stroke-width:1px;stroke-linecap:butt;stroke-linejoin:miter;stroke-opacity:1" d="M 787.471,751.724 791.94,766.619 z" id="boundary" inkscape:connector-curvature="0" />
	<path style="fill:none;stroke:red;stroke-width:1px;stroke-linecap:butt;stroke-linejoin:miter;stroke-opacity:1" d="M 791.94,766.619 799.387,780.024 z" id="boundary" inkscape:connector-curvature="0" />
	<path style="fill:none;stroke:red;stroke-width:1px;stroke-linecap:butt;stroke-linejoin:miter;stroke-opacity:1" d="M 787.471,751.724 787.471,736.829 z" id="boundary" inkscape:connector-curvature="0" />
	<path style="fill:none;stroke:red;stroke-width:1px;stroke-linecap:butt;stroke-linejoin:miter;stroke-opacity:1" d="M 809.814,791.94 799.387,780.024 z" id="boundary" inkscape:connector-curvature="0" />
	<path style="fill:none;stroke:red;stroke-width:1px;stroke-linecap:butt;stroke-linejoin:miter;stroke-opacity:1" d="M 821.73,802.366 809.814,791.94 z" id="boundary" inkscape:connector-curvature="0" />
	<path style="fill:none;stroke:red;stroke-width:1px;stroke-linecap:butt;stroke-linejoin:miter;stroke-opacity:1" d="M 824.709,817.261 824.709,832.156 z" id="boundary" inkscape:connector-curvature="0" />
	<path style="fill:none;stroke:red;stroke-width:1px;stroke-linecap:butt;stroke-linejoin:miter;stroke-opacity:1" d="M 821.73,802.366 824.709,817.261 z" id="boundary" inkscape:connector-curvature="0" />
	<path style="fill:none;stroke:red;stroke-width:1px;stroke-linecap:butt;stroke-linejoin:miter;stroke-opacity:1" d="M 824.709,832.156 832.156,845.562 z" id="boundary" inkscape:connector-curvature="0" />
	<path style="fill:none;stroke:red;stroke-width:1px;stroke-linecap:butt;stroke-linejoin:miter;stroke-opacity:1" d="M 832.156,860.456 832.156,845.562 z" id="boundary" inkscape:connector-curvature="0" />
	<path style="fill:none;stroke:red;stroke-width:1px;stroke-linecap:butt;stroke-linejoin:miter;stroke-opacity:1" d="M 788.961,866.414 781.514,853.009 z" id="boundary" inkscape:connector-curvature="0" />
	<path style="fill:none;stroke:red;stroke-width:1px;stroke-linecap:butt;stroke-linejoin:miter;stroke-opacity:1" d="M 788.961,866.414 793.429,881.309 z" id="boundary" inkscape:connector-curvature="0" />
	<path style="fill:none;stroke:red;stroke-width:1px;stroke-linecap:butt;stroke-linejoin:miter;stroke-opacity:1" d="M 793.429,881.309 793.429,896.204 z" id="boundary" inkscape:connector-curvature="0" />
	<path style="fill:none;stroke:red;stroke-width:1px;stroke-linecap:butt;stroke-linejoin:miter;stroke-opacity:1" d="M 793.429,896.204 793.429,911.099 z" id="boundary" inkscape:connector-curvature="0" />
	<path style="fill:none;stroke:red;stroke-width:1px;stroke-linecap:butt;stroke-linejoin:miter;stroke-opacity:1" d="M 793.429,925.994 793.429,911.099 z" id="boundary" inkscape:connector-curvature="0" />
	<path style="fill:none;stroke:red;stroke-width:1px;stroke-linecap:butt;stroke-linejoin:miter;stroke-opacity:1" d="M 771.087,969.189 771.087,984.084 z" id="boundary" inkscape:connector-curvature="0" />
	<path style="fill:none;stroke:red;stroke-width:1px;stroke-linecap:butt;stroke-linejoin:miter;stroke-opacity:1" d="M 785.982,988.553 771.087,984.084 z" id="boundary" inkscape:connector-curvature="0" />
	<path style="fill:none;stroke:red;stroke-width:1px;stroke-linecap:butt;stroke-linejoin:miter;stroke-opacity:1" d="M 800.877,988.553 785.982,988.553 z" id="boundary" inkscape:connector-curvature="0" />
	<path style="fill:none;stroke:red;stroke-width:1px;stroke-linecap:butt;stroke-linejoin:miter;stroke-opacity:1" d="M 783.003,957.273 771.087,969.189 z" id="boundary" inkscape:connector-curvature="0" />
	<path style="fill:none;stroke:red;stroke-width:1px;stroke-linecap:butt;stroke-linejoin:miter;stroke-opacity:1" d="M 783.003,957.273 793.429,940.889 z" id="boundary" inkscape:connector-curvature="0" />
	<path style="fill:none;stroke:red;stroke-width:1px;stroke-linecap:butt;stroke-linejoin:miter;stroke-opacity:1" d="M 793.429,925.994 793.429,940.889 z" id="boundary" inkscape:connector-curvature="0" />
	<path style="fill:none;stroke:red;stroke-width:1px;stroke-linecap:butt;stroke-linejoin:miter;stroke-opacity:1" d="M 832.156,890.246 839.604,903.652 z" id="boundary" inkscape:connector-curvature="0" />
	<path style="fill:none;stroke:red;stroke-width:1px;stroke-linecap:butt;stroke-linejoin:miter;stroke-opacity:1" d="M 832.156,890.246 832.156,875.351 z" id="boundary" inkscape:connector-curvature="0" />
	<path style="fill:none;stroke:red;stroke-width:1px;stroke-linecap:butt;stroke-linejoin:miter;stroke-opacity:1" d="M 839.604,903.652 839.604,918.547 z" id="boundary" inkscape:connector-curvature="0" />
	<path style="fill:none;stroke:red;stroke-width:1px;stroke-linecap:butt;stroke-linejoin:miter;stroke-opacity:1" d="M 839.604,933.441 839.604,918.547 z" id="boundary" inkscape:connector-curvature="0" />
	<path style="fill:none;stroke:red;stroke-width:1px;stroke-linecap:butt;stroke-linejoin:miter;stroke-opacity:1" d="M 847.051,946.847 839.604,933.441 z" id="boundary" inkscape:connector-curvature="0" />
	<path style="fill:none;stroke:red;stroke-width:1px;stroke-linecap:butt;stroke-linejoin:miter;stroke-opacity:1" d="M 832.156,875.351 832.156,860.456 z" id="boundary" inkscape:connector-curvature="0" />
	<path style="fill:none;stroke:red;stroke-width:1px;stroke-linecap:butt;stroke-linejoin:miter;stroke-opacity:1" d="M 800.877,988.553 815.772,988.553 z" id="boundary" inkscape:connector-curvature="0" />
	<path style="fill:none;stroke:red;stroke-width:1px;stroke-linecap:butt;stroke-linejoin:miter;stroke-opacity:1" d="M 815.772,988.553 829.177,996 z" id="boundary" inkscape:connector-curvature="0" />
	<path style="fill:none;stroke:red;stroke-width:1px;stroke-linecap:butt;stroke-linejoin:miter;stroke-opacity:1" d="M 842.583,987.063 829.177,996 z" id="boundary" inkscape:connector-curvature="0" />
	<path style="fill:none;stroke:red;stroke-width:1px;stroke-linecap:butt;stroke-linejoin:miter;stroke-opacity:1" d="M 847.051,961.742 842.583,987.063 z" id="boundary" inkscape:connector-curvature="0" />
	<path style="fill:none;stroke:red;stroke-width:1px;stroke-linecap:butt;stroke-linejoin:miter;stroke-opacity:1" d="M 847.051,961.742 847.051,946.847 z" id="boundary" inkscape:connector-curvature="0" />
	<circle cx="4" cy="343.604" r="4" fill="#0" id="circle0"/>
	<circle cx="4" cy="358.498" r="4" fill="#0" id="circle1"/>
	<circle cx="4" cy="373.393" r="4" fill="#0" id="circle2"/>
	<circle cx="11.4474" cy="386.799" r="4" fill="#0" id="circle3"/>
	<circle cx="11.4474" cy="401.694" r="4" fill="#0" id="circle4"/>
	<circle cx="18.8949" cy="339.135" r="4" fill="#0" id="circle5"/>
	<circle cx="18.8949" cy="415.099" r="4" fill="#0" id="circle6"/>
	<circle cx="27.8318" cy="427.015" r="4" fill="#0" id="circle7"/>
	<circle cx="33.7898" cy="342.114" r="4" fill="#0" id="circle8"/>
	<circle cx="33.7898" cy="441.91" r="4" fill="#0" id="circle9"/>
	<circle cx="35.2793" cy="456.805" r="4" fill="#0" id="circle10"/>
	<circle cx="42.7267" cy="354.03" r="4" fill="#0" id="circle11"/>
	<circle cx="47.1952" cy="467.231" r="4" fill="#0" id="circle12"/>
	<circle cx="48.6847" cy="482.126" r="4" fill="#0" id="circle13"/>
	<circle cx="56.1321" cy="495.532" r="4" fill="#0" id="circle14"/>
	<circle cx="57.6216" cy="358.498" r="4" fill="#0" id="circle15"/>
	<circle cx="59.1111" cy="510.426" r="4" fill="#0" id="circle16"/>
	<circle cx="66.5586" cy="523.832" r="4" fill="#0" id="circle17"/>
	<circle cx="69.5375" cy="368.925" r="4" fill="#0" id="circle18"/>
	<circle cx="72.5165" cy="538.727" r="4" fill="#0" id="circle19"/>
	<circle cx="82.9429" cy="376.372" r="4" fill="#0" id="circle20"/>
	<circle cx="84.4324" cy="549.153" r="4" fill="#0" id="circle21"/>
	<circle cx="96.3483" cy="383.82" r="4" fill="#0" id="circle22"/>
	<circle cx="97.8378" cy="556.601" r="4" fill="#0" id="circle23"/>
	<circle cx="105.285" cy="570.006" r="4" fill="#0" id="circle24"/>
	<circle cx="109.754" cy="376.372" r="4" fill="#0" id="circle25"/>
	<circle cx="111.243" cy="584.901" r="4" fill="#0" id="circle26"/>
	<circle cx="123.159" cy="593.838" r="4" fill="#0" id="circle27"/>
	<circle cx="124.649" cy="376.372" r="4" fill="#0" id="circle28"/>
	<circle cx="127.628" cy="608.733" r="4" fill="#0" id="circle29"/>
	<circle cx="130.607" cy="623.628" r="4" fill="#0" id="circle30"/>
	<circle cx="139.544" cy="371.904" r="4" fill="#0" id="circle31"/>
	<circle cx="139.544" cy="635.544" r="4" fill="#0" id="circle32"/>
	<circle cx="151.459" cy="645.97" r="4" fill="#0" id="circle33"/>
	<circle cx="154.438" cy="368.925" r="4" fill="#0" id="circle34"/>
	<circle cx="164.865" cy="653.417" r="4" fill="#0" id="circle35"/>
	<circle cx="169.333" cy="368.925" r="4" fill="#0" id="circle36"/>
	<circle cx="175.291" cy="924.505" r="4" fill="#0" id="circle37"/>
	<circle cx="178.27" cy="660.865" r="4" fill="#0" id="circle38"/>
	<circle cx="182.739" cy="358.498" r="4" fill="#0" id="circle39"/>
	<circle cx="187.207" cy="912.589" r="4" fill="#0" id="circle40"/>
	<circle cx="187.207" cy="934.931" r="4" fill="#0" id="circle41"/>
	<circle cx="191.676" cy="668.312" r="4" fill="#0" id="circle42"/>
	<circle cx="194.655" cy="346.583" r="4" fill="#0" id="circle43"/>
	<circle cx="199.123" cy="900.673" r="4" fill="#0" id="circle44"/>
	<circle cx="202.102" cy="936.42" r="4" fill="#0" id="circle45"/>
	<circle cx="205.081" cy="328.709" r="4" fill="#0" id="circle46"/>
	<circle cx="205.081" cy="675.76" r="4" fill="#0" id="circle47"/>
	<circle cx="214.018" cy="897.694" r="4" fill="#0" id="circle48"/>
	<circle cx="216.997" cy="316.793" r="4" fill="#0" id="circle49"/>
	<circle cx="216.997" cy="934.931" r="4" fill="#0" id="circle50"/>
	<circle cx="218.486" cy="683.207" r="4" fill="#0" id="circle51"/>
	<circle cx="227.423" cy="695.123" r="4" fill="#0" id="circle52"/>
	<circle cx="227.423" cy="710.018" r="4" fill="#0" id="circle53"/>
	<circle cx="228.913" cy="304.877" r="4" fill="#0" id="circle54"/>
	<circle cx="228.913" cy="893.225" r="4" fill="#0" id="circle55"/>
	<circle cx="231.892" cy="928.973" r="4" fill="#0" id="circle56"/>
	<circle cx="234.871" cy="723.423" r="4" fill="#0" id="circle57"/>
	<circle cx="234.871" cy="738.318" r="4" fill="#0" id="circle58"/>
	<circle cx="240.829" cy="882.799" r="4" fill="#0" id="circle59"/>
	<circle cx="242.318" cy="751.724" r="4" fill="#0" id="circle60"/>
	<circle cx="242.318" cy="766.619" r="4" fill="#0" id="circle61"/>
	<circle cx="242.318" cy="781.514" r="4" fill="#0" id="circle62"/>
	<circle cx="242.318" cy="796.408" r="4" fill="#0" id="circle63"/>
	<circle cx="242.318" cy="811.303" r="4" fill="#0" id="circle64"/>
	<circle cx="242.318" cy="826.198" r="4" fill="#0" id="circle65"/>
	<circle cx="242.318" cy="841.093" r="4" fill="#0" id="circle66"/>
	<circle cx="242.318" cy="855.988" r="4" fill="#0" id="circle67"/>
	<circle cx="242.318" cy="946.847" r="4" fill="#0" id="circle68"/>
	<circle cx="243.808" cy="306.366" r="4" fill="#0" id="circle69"/>
	<circle cx="246.787" cy="927.483" r="4" fill="#0" id="circle70"/>
	<circle cx="249.766" cy="960.252" r="4" fill="#0" id="circle71"/>
	<circle cx="251.255" cy="319.772" r="4" fill="#0" id="circle72"/>
	<circle cx="251.255" cy="334.667" r="4" fill="#0" id="circle73"/>
	<circle cx="251.255" cy="349.562" r="4" fill="#0" id="circle74"/>
	<circle cx="251.255" cy="364.456" r="4" fill="#0" id="circle75"/>
	<circle cx="251.255" cy="379.351" r="4" fill="#0" id="circle76"/>
	<circle cx="251.255" cy="394.246" r="4" fill="#0" id="circle77"/>
	<circle cx="251.255" cy="409.141" r="4" fill="#0" id="circle78"/>
	<circle cx="251.255" cy="424.036" r="4" fill="#0" id="circle79"/>
	<circle cx="257.213" cy="939.399" r="4" fill="#0" id="circle80"/>
	<circle cx="258.703" cy="914.078" r="4" fill="#0" id="circle81"/>
	<circle cx="260.192" cy="435.952" r="4" fill="#0" id="circle82"/>
	<circle cx="264.661" cy="966.21" r="4" fill="#0" id="circle83"/>
	<circle cx="270.619" cy="903.652" r="4" fill="#0" id="circle84"/>
	<circle cx="272.108" cy="931.952" r="4" fill="#0" id="circle85"/>
	<circle cx="275.087" cy="435.952" r="4" fill="#0" id="circle86"/>
	<circle cx="279.556" cy="917.057" r="4" fill="#0" id="circle87"/>
	<circle cx="279.556" cy="966.21" r="4" fill="#0" id="circle88"/>
	<circle cx="281.045" cy="876.841" r="4" fill="#0" id="circle89"/>
	<circle cx="281.045" cy="891.736" r="4" fill="#0" id="circle90"/>
	<circle cx="288.492" cy="847.051" r="4" fill="#0" id="circle91"/>
	<circle cx="288.492" cy="861.946" r="4" fill="#0" id="circle92"/>
	<circle cx="289.982" cy="435.952" r="4" fill="#0" id="circle93"/>
	<circle cx="294.45" cy="961.742" r="4" fill="#0" id="circle94"/>
	<circle cx="295.94" cy="772.577" r="4" fill="#0" id="circle95"/>
	<circle cx="295.94" cy="787.471" r="4" fill="#0" id="circle96"/>
	<circle cx="295.94" cy="802.366" r="4" fill="#0" id="circle97"/>
	<circle cx="295.94" cy="817.261" r="4" fill="#0" id="circle98"/>
	<circle cx="295.94" cy="832.156" r="4" fill="#0" id="circle99"/>
	<circle cx="295.94" cy="885.778" r="4" fill="#0" id="circle100"/>
	<circle cx="301.898" cy="869.393" r="4" fill="#0" id="circle101"/>
	<circle cx="303.387" cy="705.55" r="4" fill="#0" id="circle102"/>
	<circle cx="303.387" cy="720.444" r="4" fill="#0" id="circle103"/>
	<circle cx="303.387" cy="735.339" r="4" fill="#0" id="circle104"/>
	<circle cx="303.387" cy="750.234" r="4" fill="#0" id="circle105"/>
	<circle cx="304.877" cy="435.952" r="4" fill="#0" id="circle106"/>
	<circle cx="309.345" cy="842.583" r="4" fill="#0" id="circle107"/>
	<circle cx="309.345" cy="954.294" r="4" fill="#0" id="circle108"/>
	<circle cx="316.793" cy="712.997" r="4" fill="#0" id="circle109"/>
	<circle cx="316.793" cy="783.003" r="4" fill="#0" id="circle110"/>
	<circle cx="316.793" cy="797.898" r="4" fill="#0" id="circle111"/>
	<circle cx="316.793" cy="812.793" r="4" fill="#0" id="circle112"/>
	<circle cx="316.793" cy="827.688" r="4" fill="#0" id="circle113"/>
	<circle cx="316.793" cy="939.399" r="4" fill="#0" id="circle114"/>
	<circle cx="319.772" cy="435.952" r="4" fill="#0" id="circle115"/>
	<circle cx="324.24" cy="726.402" r="4" fill="#0" id="circle116"/>
	<circle cx="324.24" cy="741.297" r="4" fill="#0" id="circle117"/>
	<circle cx="324.24" cy="756.192" r="4" fill="#0" id="circle118"/>
	<circle cx="324.24" cy="924.505" r="4" fill="#0" id="circle119"/>
	<circle cx="331.688" cy="909.61" r="4" fill="#0" id="circle120"/>
	<circle cx="333.177" cy="428.505" r="4" fill="#0" id="circle121"/>
	<circle cx="339.135" cy="894.715" r="4" fill="#0" id="circle122"/>
	<circle cx="346.583" cy="879.82" r="4" fill="#0" id="circle123"/>
	<circle cx="348.072" cy="424.036" r="4" fill="#0" id="circle124"/>
	<circle cx="354.03" cy="864.925" r="4" fill="#0" id="circle125"/>
	<circle cx="359.988" cy="413.61" r="4" fill="#0" id="circle126"/>
	<circle cx="361.477" cy="850.03" r="4" fill="#0" id="circle127"/>
	<circle cx="368.925" cy="835.135" r="4" fill="#0" id="circle128"/>
	<circle cx="373.393" cy="406.162" r="4" fill="#0" id="circle129"/>
	<circle cx="376.372" cy="820.24" r="4" fill="#0" id="circle130"/>
	<circle cx="377.862" cy="802.366" r="4" fill="#0" id="circle131"/>
	<circle cx="386.799" cy="398.715" r="4" fill="#0" id="circle132"/>
	<circle cx="389.778" cy="791.94" r="4" fill="#0" id="circle133"/>
	<circle cx="397.225" cy="777.045" r="4" fill="#0" id="circle134"/>
	<circle cx="401.694" cy="398.715" r="4" fill="#0" id="circle135"/>
	<circle cx="404.673" cy="762.15" r="4" fill="#0" id="circle136"/>
	<circle cx="412.12" cy="747.255" r="4" fill="#0" id="circle137"/>
	<circle cx="415.099" cy="391.267" r="4" fill="#0" id="circle138"/>
	<circle cx="419.568" cy="732.36" r="4" fill="#0" id="circle139"/>
	<circle cx="427.015" cy="717.465" r="4" fill="#0" id="circle140"/>
	<circle cx="429.994" cy="391.267" r="4" fill="#0" id="circle141"/>
	<circle cx="429.994" cy="698.102" r="4" fill="#0" id="circle142"/>
	<circle cx="437.441" cy="683.207" r="4" fill="#0" id="circle143"/>
	<circle cx="444.889" cy="391.267" r="4" fill="#0" id="circle144"/>
	<circle cx="449.357" cy="672.781" r="4" fill="#0" id="circle145"/>
	<circle cx="459.784" cy="386.799" r="4" fill="#0" id="circle146"/>
	<circle cx="459.784" cy="660.865" r="4" fill="#0" id="circle147"/>
	<circle cx="474.679" cy="383.82" r="4" fill="#0" id="circle148"/>
	<circle cx="474.679" cy="660.865" r="4" fill="#0" id="circle149"/>
	<circle cx="489.574" cy="383.82" r="4" fill="#0" id="circle150"/>
	<circle cx="489.574" cy="660.865" r="4" fill="#0" id="circle151"/>
	<circle cx="504.468" cy="383.82" r="4" fill="#0" id="circle152"/>
	<circle cx="504.468" cy="653.417" r="4" fill="#0" id="circle153"/>
	<circle cx="510.426" cy="668.312" r="4" fill="#0" id="circle154"/>
	<circle cx="514.895" cy="683.207" r="4" fill="#0" id="circle155"/>
	<circle cx="519.363" cy="383.82" r="4" fill="#0" id="circle156"/>
	<circle cx="525.321" cy="695.123" r="4" fill="#0" id="circle157"/>
	<circle cx="532.769" cy="708.529" r="4" fill="#0" id="circle158"/>
	<circle cx="534.258" cy="383.82" r="4" fill="#0" id="circle159"/>
	<circle cx="540.216" cy="721.934" r="4" fill="#0" id="circle160"/>
	<circle cx="547.664" cy="735.339" r="4" fill="#0" id="circle161"/>
	<circle cx="547.664" cy="954.294" r="4" fill="#0" id="circle162"/>
	<circle cx="549.153" cy="383.82" r="4" fill="#0" id="circle163"/>
	<circle cx="555.111" cy="939.399" r="4" fill="#0" id="circle164"/>
	<circle cx="556.601" cy="747.255" r="4" fill="#0" id="circle165"/>
	<circle cx="559.58" cy="964.721" r="4" fill="#0" id="circle166"/>
	<circle cx="562.559" cy="391.267" r="4" fill="#0" id="circle167"/>
	<circle cx="567.027" cy="927.483" r="4" fill="#0" id="circle168"/>
	<circle cx="568.517" cy="757.682" r="4" fill="#0" id="circle169"/>
	<circle cx="574.474" cy="966.21" r="4" fill="#0" id="circle170"/>
	<circle cx="577.453" cy="391.267" r="4" fill="#0" id="circle171"/>
	<circle cx="578.943" cy="769.598" r="4" fill="#0" id="circle172"/>
	<circle cx="580.432" cy="920.036" r="4" fill="#0" id="circle173"/>
	<circle cx="589.369" cy="966.21" r="4" fill="#0" id="circle174"/>
	<circle cx="590.859" cy="780.024" r="4" fill="#0" id="circle175"/>
	<circle cx="592.348" cy="391.267" r="4" fill="#0" id="circle176"/>
	<circle cx="595.327" cy="920.036" r="4" fill="#0" id="circle177"/>
	<circle cx="601.285" cy="791.94" r="4" fill="#0" id="circle178"/>
	<circle cx="604.264" cy="964.721" r="4" fill="#0" id="circle179"/>
	<circle cx="607.243" cy="391.267" r="4" fill="#0" id="circle180"/>
	<circle cx="607.243" cy="902.162" r="4" fill="#0" id="circle181"/>
	<circle cx="613.201" cy="802.366" r="4" fill="#0" id="circle182"/>
	<circle cx="614.691" cy="887.267" r="4" fill="#0" id="circle183"/>
	<circle cx="619.159" cy="957.273" r="4" fill="#0" id="circle184"/>
	<circle cx="622.138" cy="391.267" r="4" fill="#0" id="circle185"/>
	<circle cx="622.138" cy="827.688" r="4" fill="#0" id="circle186"/>
	<circle cx="622.138" cy="842.583" r="4" fill="#0" id="circle187"/>
	<circle cx="622.138" cy="864.925" r="4" fill="#0" id="circle188"/>
	<circle cx="634.054" cy="949.826" r="4" fill="#0" id="circle189"/>
	<circle cx="637.033" cy="391.267" r="4" fill="#0" id="circle190"/>
	<circle cx="641.502" cy="934.931" r="4" fill="#0" id="circle191"/>
	<circle cx="651.928" cy="391.267" r="4" fill="#0" id="circle192"/>
	<circle cx="653.417" cy="914.078" r="4" fill="#0" id="circle193"/>
	<circle cx="660.865" cy="742.787" r="4" fill="#0" id="circle194"/>
	<circle cx="660.865" cy="884.288" r="4" fill="#0" id="circle195"/>
	<circle cx="660.865" cy="899.183" r="4" fill="#0" id="circle196"/>
	<circle cx="666.823" cy="388.288" r="4" fill="#0" id="circle197"/>
	<circle cx="668.312" cy="756.192" r="4" fill="#0" id="circle198"/>
	<circle cx="668.312" cy="861.946" r="4" fill="#0" id="circle199"/>
	<circle cx="675.76" cy="742.787" r="4" fill="#0" id="circle200"/>
	<circle cx="675.76" cy="769.598" r="4" fill="#0" id="circle201"/>
	<circle cx="675.76" cy="839.604" r="4" fill="#0" id="circle202"/>
	<circle cx="681.718" cy="380.841" r="4" fill="#0" id="circle203"/>
	<circle cx="683.207" cy="783.003" r="4" fill="#0" id="circle204"/>
	<circle cx="683.207" cy="797.898" r="4" fill="#0" id="circle205"/>
	<circle cx="683.207" cy="812.793" r="4" fill="#0" id="circle206"/>
	<circle cx="689.165" cy="750.234" r="4" fill="#0" id="circle207"/>
	<circle cx="693.634" cy="368.925" r="4" fill="#0" id="circle208"/>
	<circle cx="696.613" cy="763.64" r="4" fill="#0" id="circle209"/>
	<circle cx="705.55" cy="357.009" r="4" fill="#0" id="circle210"/>
	<circle cx="705.55" cy="775.556" r="4" fill="#0" id="circle211"/>
	<circle cx="715.976" cy="787.471" r="4" fill="#0" id="circle212"/>
	<circle cx="717.465" cy="346.583" r="4" fill="#0" id="circle213"/>
	<circle cx="727.892" cy="334.667" r="4" fill="#0" id="circle214"/>
	<circle cx="727.892" cy="429.994" r="4" fill="#0" id="circle215"/>
	<circle cx="727.892" cy="444.889" r="4" fill="#0" id="circle216"/>
	<circle cx="727.892" cy="459.784" r="4" fill="#0" id="circle217"/>
	<circle cx="727.892" cy="797.898" r="4" fill="#0" id="circle218"/>
	<circle cx="730.871" cy="474.679" r="4" fill="#0" id="circle219"/>
	<circle cx="735.339" cy="489.574" r="4" fill="#0" id="circle220"/>
	<circle cx="735.339" cy="504.468" r="4" fill="#0" id="circle221"/>
	<circle cx="738.318" cy="519.363" r="4" fill="#0" id="circle222"/>
	<circle cx="739.808" cy="324.24" r="4" fill="#0" id="circle223"/>
	<circle cx="739.808" cy="419.568" r="4" fill="#0" id="circle224"/>
	<circle cx="741.297" cy="805.345" r="4" fill="#0" id="circle225"/>
	<circle cx="745.766" cy="532.769" r="4" fill="#0" id="circle226"/>
	<circle cx="750.234" cy="312.324" r="4" fill="#0" id="circle227"/>
	<circle cx="750.234" cy="407.652" r="4" fill="#0" id="circle228"/>
	<circle cx="750.234" cy="547.664" r="4" fill="#0" id="circle229"/>
	<circle cx="750.234" cy="562.559" r="4" fill="#0" id="circle230"/>
	<circle cx="750.234" cy="577.453" r="4" fill="#0" id="circle231"/>
	<circle cx="753.213" cy="815.772" r="4" fill="#0" id="circle232"/>
	<circle cx="757.682" cy="590.859" r="4" fill="#0" id="circle233"/>
	<circle cx="757.682" cy="605.754" r="4" fill="#0" id="circle234"/>
	<circle cx="757.682" cy="620.649" r="4" fill="#0" id="circle235"/>
	<circle cx="757.682" cy="635.544" r="4" fill="#0" id="circle236"/>
	<circle cx="762.15" cy="301.898" r="4" fill="#0" id="circle237"/>
	<circle cx="762.15" cy="397.225" r="4" fill="#0" id="circle238"/>
	<circle cx="763.64" cy="827.688" r="4" fill="#0" id="circle239"/>
	<circle cx="765.129" cy="648.949" r="4" fill="#0" id="circle240"/>
	<circle cx="768.108" cy="287.003" r="4" fill="#0" id="circle241"/>
	<circle cx="769.598" cy="382.33" r="4" fill="#0" id="circle242"/>
	<circle cx="771.087" cy="15.9159" r="4" fill="#0" id="circle243"/>
	<circle cx="771.087" cy="663.844" r="4" fill="#0" id="circle244"/>
	<circle cx="771.087" cy="841.093" r="4" fill="#0" id="circle245"/>
	<circle cx="771.087" cy="969.189" r="4" fill="#0" id="circle246"/>
	<circle cx="771.087" cy="984.084" r="4" fill="#0" id="circle247"/>
	<circle cx="772.577" cy="678.739" r="4" fill="#0" id="circle248"/>
	<circle cx="772.577" cy="693.634" r="4" fill="#0" id="circle249"/>
	<circle cx="778.535" cy="708.529" r="4" fill="#0" id="circle250"/>
	<circle cx="780.024" cy="27.8318" r="4" fill="#0" id="circle251"/>
	<circle cx="780.024" cy="275.087" r="4" fill="#0" id="circle252"/>
	<circle cx="780.024" cy="362.967" r="4" fill="#0" id="circle253"/>
	<circle cx="780.024" cy="723.423" r="4" fill="#0" id="circle254"/>
	<circle cx="781.514" cy="853.009" r="4" fill="#0" id="circle255"/>
	<circle cx="783.003" cy="4" r="4" fill="#0" id="circle256"/>
	<circle cx="783.003" cy="957.273" r="4" fill="#0" id="circle257"/>
	<circle cx="785.982" cy="988.553" r="4" fill="#0" id="circle258"/>
	<circle cx="787.471" cy="260.192" r="4" fill="#0" id="circle259"/>
	<circle cx="787.471" cy="736.829" r="4" fill="#0" id="circle260"/>
	<circle cx="787.471" cy="751.724" r="4" fill="#0" id="circle261"/>
	<circle cx="788.961" cy="866.414" r="4" fill="#0" id="circle262"/>
	<circle cx="791.94" cy="352.541" r="4" fill="#0" id="circle263"/>
	<circle cx="791.94" cy="766.619" r="4" fill="#0" id="circle264"/>
	<circle cx="793.429" cy="15.9159" r="4" fill="#0" id="circle265"/>
	<circle cx="793.429" cy="35.2793" r="4" fill="#0" id="circle266"/>
	<circle cx="793.429" cy="881.309" r="4" fill="#0" id="circle267"/>
	<circle cx="793.429" cy="896.204" r="4" fill="#0" id="circle268"/>
	<circle cx="793.429" cy="911.099" r="4" fill="#0" id="circle269"/>
	<circle cx="793.429" cy="925.994" r="4" fill="#0" id="circle270"/>
	<circle cx="793.429" cy="940.889" r="4" fill="#0" id="circle271"/>
	<circle cx="799.387" cy="249.766" r="4" fill="#0" id="circle272"/>
	<circle cx="799.387" cy="780.024" r="4" fill="#0" id="circle273"/>
	<circle cx="800.877" cy="988.553" r="4" fill="#0" id="circle274"/>
	<circle cx="802.366" cy="47.1952" r="4" fill="#0" id="circle275"/>
	<circle cx="802.366" cy="333.177" r="4" fill="#0" id="circle276"/>
	<circle cx="808.324" cy="21.8739" r="4" fill="#0" id="circle277"/>
	<circle cx="809.814" cy="237.85" r="4" fill="#0" id="circle278"/>
	<circle cx="809.814" cy="791.94" r="4" fill="#0" id="circle279"/>
	<circle cx="814.282" cy="57.6216" r="4" fill="#0" id="circle280"/>
	<circle cx="814.282" cy="322.751" r="4" fill="#0" id="circle281"/>
	<circle cx="815.772" cy="988.553" r="4" fill="#0" id="circle282"/>
	<circle cx="817.261" cy="222.955" r="4" fill="#0" id="circle283"/>
	<circle cx="821.73" cy="29.3213" r="4" fill="#0" id="circle284"/>
	<circle cx="821.73" cy="307.856" r="4" fill="#0" id="circle285"/>
	<circle cx="821.73" cy="802.366" r="4" fill="#0" id="circle286"/>
	<circle cx="824.709" cy="69.5375" r="4" fill="#0" id="circle287"/>
	<circle cx="824.709" cy="817.261" r="4" fill="#0" id="circle288"/>
	<circle cx="824.709" cy="832.156" r="4" fill="#0" id="circle289"/>
	<circle cx="829.177" cy="212.529" r="4" fill="#0" id="circle290"/>
	<circle cx="829.177" cy="996" r="4" fill="#0" id="circle291"/>
	<circle cx="832.156" cy="41.2372" r="4" fill="#0" id="circle292"/>
	<circle cx="832.156" cy="288.492" r="4" fill="#0" id="circle293"/>
	<circle cx="832.156" cy="845.562" r="4" fill="#0" id="circle294"/>
	<circle cx="832.156" cy="860.456" r="4" fill="#0" id="circle295"/>
	<circle cx="832.156" cy="875.351" r="4" fill="#0" id="circle296"/>
	<circle cx="832.156" cy="890.246" r="4" fill="#0" id="circle297"/>
	<circle cx="835.135" cy="197.634" r="4" fill="#0" id="circle298"/>
	<circle cx="836.625" cy="79.964" r="4" fill="#0" id="circle299"/>
	<circle cx="838.114" cy="94.8589" r="4" fill="#0" id="circle300"/>
	<circle cx="838.114" cy="179.76" r="4" fill="#0" id="circle301"/>
	<circle cx="839.604" cy="903.652" r="4" fill="#0" id="circle302"/>
	<circle cx="839.604" cy="918.547" r="4" fill="#0" id="circle303"/>
	<circle cx="839.604" cy="933.441" r="4" fill="#0" id="circle304"/>
	<circle cx="842.583" cy="987.063" r="4" fill="#0" id="circle305"/>
	<circle cx="844.072" cy="50.1742" r="4" fill="#0" id="circle306"/>
	<circle cx="844.072" cy="278.066" r="4" fill="#0" id="circle307"/>
	<circle cx="845.562" cy="108.264" r="4" fill="#0" id="circle308"/>
	<circle cx="845.562" cy="164.865" r="4" fill="#0" id="circle309"/>
	<circle cx="847.051" cy="946.847" r="4" fill="#0" id="circle310"/>
	<circle cx="847.051" cy="961.742" r="4" fill="#0" id="circle311"/>
	<circle cx="853.009" cy="121.67" r="4" fill="#0" id="circle312"/>
	<circle cx="853.009" cy="136.565" r="4" fill="#0" id="circle313"/>
	<circle cx="853.009" cy="151.459" r="4" fill="#0" id="circle314"/>
	<circle cx="854.498" cy="62.0901" r="4" fill="#0" id="circle315"/>
	<circle cx="854.498" cy="258.703" r="4" fill="#0" id="circle316"/>
	<circle cx="861.946" cy="243.808" r="4" fill="#0" id="circle317"/>
	<circle cx="866.414" cy="72.5165" r="4" fill="#0" id="circle318"/>
	<circle cx="869.393" cy="228.913" r="4" fill="#0" id="circle319"/>
	<circle cx="872.372" cy="87.4114" r="4" fill="#0" id="circle320"/>
	<circle cx="876.841" cy="206.571" r="4" fill="#0" id="circle321"/>
	<circle cx="879.82" cy="100.817" r="4" fill="#0" id="circle322"/>
	<circle cx="884.288" cy="115.712" r="4" fill="#0" id="circle323"/>
	<circle cx="884.288" cy="191.676" r="4" fill="#0" id="circle324"/>
	<circle cx="891.736" cy="129.117" r="4" fill="#0" id="circle325"/>
	<circle cx="891.736" cy="144.012" r="4" fill="#0" id="circle326"/>
	<circle cx="891.736" cy="158.907" r="4" fill="#0" id="circle327"/>
	<circle cx="891.736" cy="173.802" r="4" fill="#0" id="circle328"/>
	</g>
</svg>