<?xml version="1.0" encoding="UTF-8" standalone="no"?>
<!-- Created with CurveBenchmark -->
<svg
	xmlns:dc="http://purl.org/dc/elements/1.1/"
	xmlns:cc="http://creativecommons.org/ns#"
	xmlns:rdf="http://www.w3.org/1999/02/22-rdf-syntax-ns#"
	xmlns:svg="http://www.w3.org/2000/svg"
	xmlns="http://www.w3.org/2000/svg"
	xmlns:sodipodi="http://sodipodi.sourceforge.net/DTD/sodipodi-0.dtd"
	xmlns:inkscape="http://www.inkscape.org/namespaces/inkscape"
	width="1000"
	height="1000"
	id="svg2"
	version="1.1"
	sodipodi:docname="manifold/nncrust-Misk23.png.txt">
<defs
	id="defs4" />
<metadata
	id="metadata7">
	<rdf:RDF>
		<cc:Work
			rdf:about="">
			<dc:format>image/svg+xml</dc:format>
			<dc:type
				rdf:resource="http://purl.org/dc/dcmitype/StillImage" />
			<dc:title></dc:title>
		</cc:Work>
	</rdf:RDF>
</metadata>
<g
	inkscape:label="Layer 1"
	inkscape:groupmode="layer"
	id="layer1">
	<path style="fill:none;stroke:red;stroke-width:1px;stroke-linecap:butt;stroke-linejoin:miter;stroke-opacity:1" d="M 15.3892,24.5006 21.0838,34.7509 z" id="boundary" inkscape:connector-curvature="0" />
	<path style="fill:none;stroke:red;stroke-width:1px;stroke-linecap:butt;stroke-linejoin:miter;stroke-opacity:1" d="M 15.3892,24.5006 26.7784,21.0838 z" id="boundary" inkscape:connector-curvature="0" />
	<path style="fill:none;stroke:red;stroke-width:1px;stroke-linecap:butt;stroke-linejoin:miter;stroke-opacity:1" d="M 26.7784,21.0838 38.1676,21.0838 z" id="boundary" inkscape:connector-curvature="0" />
	<path style="fill:none;stroke:red;stroke-width:1px;stroke-linecap:butt;stroke-linejoin:miter;stroke-opacity:1" d="M 48.4179,15.3892 38.1676,21.0838 z" id="boundary" inkscape:connector-curvature="0" />
	<path style="fill:none;stroke:red;stroke-width:1px;stroke-linecap:butt;stroke-linejoin:miter;stroke-opacity:1" d="M 26.7784,45.0011 21.0838,34.7509 z" id="boundary" inkscape:connector-curvature="0" />
	<path style="fill:none;stroke:red;stroke-width:1px;stroke-linecap:butt;stroke-linejoin:miter;stroke-opacity:1" d="M 26.7784,45.0011 26.7784,56.3904 z" id="boundary" inkscape:connector-curvature="0" />
	<path style="fill:none;stroke:red;stroke-width:1px;stroke-linecap:butt;stroke-linejoin:miter;stroke-opacity:1" d="M 32.473,66.6406 26.7784,56.3904 z" id="boundary" inkscape:connector-curvature="0" />
	<path style="fill:none;stroke:red;stroke-width:1px;stroke-linecap:butt;stroke-linejoin:miter;stroke-opacity:1" d="M 32.473,66.6406 32.473,78.0299 z" id="boundary" inkscape:connector-curvature="0" />
	<path style="fill:none;stroke:red;stroke-width:1px;stroke-linecap:butt;stroke-linejoin:miter;stroke-opacity:1" d="M 38.1676,88.2801 32.473,78.0299 z" id="boundary" inkscape:connector-curvature="0" />
	<path style="fill:none;stroke:red;stroke-width:1px;stroke-linecap:butt;stroke-linejoin:miter;stroke-opacity:1" d="M 38.1676,88.2801 39.3065,99.6693 z" id="boundary" inkscape:connector-curvature="0" />
	<path style="fill:none;stroke:red;stroke-width:1px;stroke-linecap:butt;stroke-linejoin:miter;stroke-opacity:1" d="M 43.8622,111.059 39.3065,99.6693 z" id="boundary" inkscape:connector-curvature="0" />
	<path style="fill:none;stroke:red;stroke-width:1px;stroke-linecap:butt;stroke-linejoin:miter;stroke-opacity:1" d="M 59.8071,15.3892 48.4179,15.3892 z" id="boundary" inkscape:connector-curvature="0" />
	<path style="fill:none;stroke:red;stroke-width:1px;stroke-linecap:butt;stroke-linejoin:miter;stroke-opacity:1" d="M 43.8622,111.059 49.5568,121.309 z" id="boundary" inkscape:connector-curvature="0" />
	<path style="fill:none;stroke:red;stroke-width:1px;stroke-linecap:butt;stroke-linejoin:miter;stroke-opacity:1" d="M 49.5568,121.309 49.5568,132.698 z" id="boundary" inkscape:connector-curvature="0" />
	<path style="fill:none;stroke:red;stroke-width:1px;stroke-linecap:butt;stroke-linejoin:miter;stroke-opacity:1" d="M 49.5568,132.698 55.2514,142.948 z" id="boundary" inkscape:connector-curvature="0" />
	<path style="fill:none;stroke:red;stroke-width:1px;stroke-linecap:butt;stroke-linejoin:miter;stroke-opacity:1" d="M 60.946,153.199 55.2514,142.948 z" id="boundary" inkscape:connector-curvature="0" />
	<path style="fill:none;stroke:red;stroke-width:1px;stroke-linecap:butt;stroke-linejoin:miter;stroke-opacity:1" d="M 4,263.674 4,252.285 z" id="boundary" inkscape:connector-curvature="0" />
	<path style="fill:none;stroke:red;stroke-width:1px;stroke-linecap:butt;stroke-linejoin:miter;stroke-opacity:1" d="M 4,252.285 13.1114,243.173 z" id="boundary" inkscape:connector-curvature="0" />
	<path style="fill:none;stroke:red;stroke-width:1px;stroke-linecap:butt;stroke-linejoin:miter;stroke-opacity:1" d="M 13.1114,243.173 23.3617,237.479 z" id="boundary" inkscape:connector-curvature="0" />
	<path style="fill:none;stroke:red;stroke-width:1px;stroke-linecap:butt;stroke-linejoin:miter;stroke-opacity:1" d="M 33.6119,231.784 23.3617,237.479 z" id="boundary" inkscape:connector-curvature="0" />
	<path style="fill:none;stroke:red;stroke-width:1px;stroke-linecap:butt;stroke-linejoin:miter;stroke-opacity:1" d="M 4,263.674 9.6946,273.924 z" id="boundary" inkscape:connector-curvature="0" />
	<path style="fill:none;stroke:red;stroke-width:1px;stroke-linecap:butt;stroke-linejoin:miter;stroke-opacity:1" d="M 17.667,283.036 29.0563,287.591 z" id="boundary" inkscape:connector-curvature="0" />
	<path style="fill:none;stroke:red;stroke-width:1px;stroke-linecap:butt;stroke-linejoin:miter;stroke-opacity:1" d="M 29.0563,287.591 38.1676,295.564 z" id="boundary" inkscape:connector-curvature="0" />
	<path style="fill:none;stroke:red;stroke-width:1px;stroke-linecap:butt;stroke-linejoin:miter;stroke-opacity:1" d="M 17.667,283.036 9.6946,273.924 z" id="boundary" inkscape:connector-curvature="0" />
	<path style="fill:none;stroke:red;stroke-width:1px;stroke-linecap:butt;stroke-linejoin:miter;stroke-opacity:1" d="M 33.6119,231.784 43.8622,226.09 z" id="boundary" inkscape:connector-curvature="0" />
	<path style="fill:none;stroke:red;stroke-width:1px;stroke-linecap:butt;stroke-linejoin:miter;stroke-opacity:1" d="M 54.1125,220.395 43.8622,226.09 z" id="boundary" inkscape:connector-curvature="0" />
	<path style="fill:none;stroke:red;stroke-width:1px;stroke-linecap:butt;stroke-linejoin:miter;stroke-opacity:1" d="M 62.085,211.284 54.1125,220.395 z" id="boundary" inkscape:connector-curvature="0" />
	<path style="fill:none;stroke:red;stroke-width:1px;stroke-linecap:butt;stroke-linejoin:miter;stroke-opacity:1" d="M 66.6406,174.838 60.946,164.588 z" id="boundary" inkscape:connector-curvature="0" />
	<path style="fill:none;stroke:red;stroke-width:1px;stroke-linecap:butt;stroke-linejoin:miter;stroke-opacity:1" d="M 60.946,164.588 60.946,153.199 z" id="boundary" inkscape:connector-curvature="0" />
	<path style="fill:none;stroke:red;stroke-width:1px;stroke-linecap:butt;stroke-linejoin:miter;stroke-opacity:1" d="M 45.0011,304.675 54.1125,312.648 z" id="boundary" inkscape:connector-curvature="0" />
	<path style="fill:none;stroke:red;stroke-width:1px;stroke-linecap:butt;stroke-linejoin:miter;stroke-opacity:1" d="M 54.1125,312.648 60.946,321.759 z" id="boundary" inkscape:connector-curvature="0" />
	<path style="fill:none;stroke:red;stroke-width:1px;stroke-linecap:butt;stroke-linejoin:miter;stroke-opacity:1" d="M 45.0011,304.675 38.1676,295.564 z" id="boundary" inkscape:connector-curvature="0" />
	<path style="fill:none;stroke:red;stroke-width:1px;stroke-linecap:butt;stroke-linejoin:miter;stroke-opacity:1" d="M 62.085,211.284 71.1963,203.311 z" id="boundary" inkscape:connector-curvature="0" />
	<path style="fill:none;stroke:red;stroke-width:1px;stroke-linecap:butt;stroke-linejoin:miter;stroke-opacity:1" d="M 60.946,321.759 66.6406,332.009 z" id="boundary" inkscape:connector-curvature="0" />
	<path style="fill:none;stroke:red;stroke-width:1px;stroke-linecap:butt;stroke-linejoin:miter;stroke-opacity:1" d="M 59.8071,15.3892 71.1963,15.3892 z" id="boundary" inkscape:connector-curvature="0" />
	<path style="fill:none;stroke:red;stroke-width:1px;stroke-linecap:butt;stroke-linejoin:miter;stroke-opacity:1" d="M 92.8358,9.6946 104.225,9.6946 z" id="boundary" inkscape:connector-curvature="0" />
	<path style="fill:none;stroke:red;stroke-width:1px;stroke-linecap:butt;stroke-linejoin:miter;stroke-opacity:1" d="M 82.5855,15.3892 92.8358,9.6946 z" id="boundary" inkscape:connector-curvature="0" />
	<path style="fill:none;stroke:red;stroke-width:1px;stroke-linecap:butt;stroke-linejoin:miter;stroke-opacity:1" d="M 115.614,9.6946 104.225,9.6946 z" id="boundary" inkscape:connector-curvature="0" />
	<path style="fill:none;stroke:red;stroke-width:1px;stroke-linecap:butt;stroke-linejoin:miter;stroke-opacity:1" d="M 127.003,9.6946 138.393,4 z" id="boundary" inkscape:connector-curvature="0" />
	<path style="fill:none;stroke:red;stroke-width:1px;stroke-linecap:butt;stroke-linejoin:miter;stroke-opacity:1" d="M 82.5855,15.3892 71.1963,15.3892 z" id="boundary" inkscape:connector-curvature="0" />
	<path style="fill:none;stroke:red;stroke-width:1px;stroke-linecap:butt;stroke-linejoin:miter;stroke-opacity:1" d="M 127.003,9.6946 115.614,9.6946 z" id="boundary" inkscape:connector-curvature="0" />
	<path style="fill:none;stroke:red;stroke-width:1px;stroke-linecap:butt;stroke-linejoin:miter;stroke-opacity:1" d="M 138.393,4 149.782,4 z" id="boundary" inkscape:connector-curvature="0" />
	<path style="fill:none;stroke:red;stroke-width:1px;stroke-linecap:butt;stroke-linejoin:miter;stroke-opacity:1" d="M 149.782,4 157.754,13.1114 z" id="boundary" inkscape:connector-curvature="0" />
	<path style="fill:none;stroke:red;stroke-width:1px;stroke-linecap:butt;stroke-linejoin:miter;stroke-opacity:1" d="M 157.754,13.1114 158.893,24.5006 z" id="boundary" inkscape:connector-curvature="0" />
	<path style="fill:none;stroke:red;stroke-width:1px;stroke-linecap:butt;stroke-linejoin:miter;stroke-opacity:1" d="M 164.588,34.7509 158.893,24.5006 z" id="boundary" inkscape:connector-curvature="0" />
	<path style="fill:none;stroke:red;stroke-width:1px;stroke-linecap:butt;stroke-linejoin:miter;stroke-opacity:1" d="M 164.588,34.7509 168.005,46.1401 z" id="boundary" inkscape:connector-curvature="0" />
	<path style="fill:none;stroke:red;stroke-width:1px;stroke-linecap:butt;stroke-linejoin:miter;stroke-opacity:1" d="M 173.699,56.3904 168.005,46.1401 z" id="boundary" inkscape:connector-curvature="0" />
	<path style="fill:none;stroke:red;stroke-width:1px;stroke-linecap:butt;stroke-linejoin:miter;stroke-opacity:1" d="M 173.699,56.3904 175.977,67.7796 z" id="boundary" inkscape:connector-curvature="0" />
	<path style="fill:none;stroke:red;stroke-width:1px;stroke-linecap:butt;stroke-linejoin:miter;stroke-opacity:1" d="M 181.672,78.0299 175.977,67.7796 z" id="boundary" inkscape:connector-curvature="0" />
	<path style="fill:none;stroke:red;stroke-width:1px;stroke-linecap:butt;stroke-linejoin:miter;stroke-opacity:1" d="M 187.366,99.6693 181.672,89.4191 z" id="boundary" inkscape:connector-curvature="0" />
	<path style="fill:none;stroke:red;stroke-width:1px;stroke-linecap:butt;stroke-linejoin:miter;stroke-opacity:1" d="M 181.672,89.4191 181.672,78.0299 z" id="boundary" inkscape:connector-curvature="0" />
	<path style="fill:none;stroke:red;stroke-width:1px;stroke-linecap:butt;stroke-linejoin:miter;stroke-opacity:1" d="M 193.061,121.309 193.061,109.92 z" id="boundary" inkscape:connector-curvature="0" />
	<path style="fill:none;stroke:red;stroke-width:1px;stroke-linecap:butt;stroke-linejoin:miter;stroke-opacity:1" d="M 204.45,123.587 193.061,121.309 z" id="boundary" inkscape:connector-curvature="0" />
	<path style="fill:none;stroke:red;stroke-width:1px;stroke-linecap:butt;stroke-linejoin:miter;stroke-opacity:1" d="M 215.839,123.587 204.45,123.587 z" id="boundary" inkscape:connector-curvature="0" />
	<path style="fill:none;stroke:red;stroke-width:1px;stroke-linecap:butt;stroke-linejoin:miter;stroke-opacity:1" d="M 227.228,123.587 215.839,123.587 z" id="boundary" inkscape:connector-curvature="0" />
	<path style="fill:none;stroke:red;stroke-width:1px;stroke-linecap:butt;stroke-linejoin:miter;stroke-opacity:1" d="M 66.6406,174.838 66.6406,186.227 z" id="boundary" inkscape:connector-curvature="0" />
	<path style="fill:none;stroke:red;stroke-width:1px;stroke-linecap:butt;stroke-linejoin:miter;stroke-opacity:1" d="M 71.1963,203.311 66.6406,186.227 z" id="boundary" inkscape:connector-curvature="0" />
	<path style="fill:none;stroke:red;stroke-width:1px;stroke-linecap:butt;stroke-linejoin:miter;stroke-opacity:1" d="M 75.752,339.982 66.6406,332.009 z" id="boundary" inkscape:connector-curvature="0" />
	<path style="fill:none;stroke:red;stroke-width:1px;stroke-linecap:butt;stroke-linejoin:miter;stroke-opacity:1" d="M 187.366,99.6693 193.061,109.92 z" id="boundary" inkscape:connector-curvature="0" />
	<path style="fill:none;stroke:red;stroke-width:1px;stroke-linecap:butt;stroke-linejoin:miter;stroke-opacity:1" d="M 227.228,123.587 238.618,123.587 z" id="boundary" inkscape:connector-curvature="0" />
	<path style="fill:none;stroke:red;stroke-width:1px;stroke-linecap:butt;stroke-linejoin:miter;stroke-opacity:1" d="M 250.007,123.587 261.396,123.587 z" id="boundary" inkscape:connector-curvature="0" />
	<path style="fill:none;stroke:red;stroke-width:1px;stroke-linecap:butt;stroke-linejoin:miter;stroke-opacity:1" d="M 250.007,123.587 238.618,123.587 z" id="boundary" inkscape:connector-curvature="0" />
	<path style="fill:none;stroke:red;stroke-width:1px;stroke-linecap:butt;stroke-linejoin:miter;stroke-opacity:1" d="M 272.785,123.587 284.175,123.587 z" id="boundary" inkscape:connector-curvature="0" />
	<path style="fill:none;stroke:red;stroke-width:1px;stroke-linecap:butt;stroke-linejoin:miter;stroke-opacity:1" d="M 284.175,123.587 295.564,127.003 z" id="boundary" inkscape:connector-curvature="0" />
	<path style="fill:none;stroke:red;stroke-width:1px;stroke-linecap:butt;stroke-linejoin:miter;stroke-opacity:1" d="M 272.785,123.587 261.396,123.587 z" id="boundary" inkscape:connector-curvature="0" />
	<path style="fill:none;stroke:red;stroke-width:1px;stroke-linecap:butt;stroke-linejoin:miter;stroke-opacity:1" d="M 318.342,129.281 306.953,129.281 z" id="boundary" inkscape:connector-curvature="0" />
	<path style="fill:none;stroke:red;stroke-width:1px;stroke-linecap:butt;stroke-linejoin:miter;stroke-opacity:1" d="M 306.953,129.281 295.564,127.003 z" id="boundary" inkscape:connector-curvature="0" />
	<path style="fill:none;stroke:red;stroke-width:1px;stroke-linecap:butt;stroke-linejoin:miter;stroke-opacity:1" d="M 83.7245,457.29 78.0299,474.374 z" id="boundary" inkscape:connector-curvature="0" />
	<path style="fill:none;stroke:red;stroke-width:1px;stroke-linecap:butt;stroke-linejoin:miter;stroke-opacity:1" d="M 78.0299,474.374 72.3352,485.763 z" id="boundary" inkscape:connector-curvature="0" />
	<path style="fill:none;stroke:red;stroke-width:1px;stroke-linecap:butt;stroke-linejoin:miter;stroke-opacity:1" d="M 83.7245,361.621 78.0299,351.371 z" id="boundary" inkscape:connector-curvature="0" />
	<path style="fill:none;stroke:red;stroke-width:1px;stroke-linecap:butt;stroke-linejoin:miter;stroke-opacity:1" d="M 78.0299,351.371 75.752,339.982 z" id="boundary" inkscape:connector-curvature="0" />
	<path style="fill:none;stroke:red;stroke-width:1px;stroke-linecap:butt;stroke-linejoin:miter;stroke-opacity:1" d="M 66.6406,502.847 72.3352,485.763 z" id="boundary" inkscape:connector-curvature="0" />
	<path style="fill:none;stroke:red;stroke-width:1px;stroke-linecap:butt;stroke-linejoin:miter;stroke-opacity:1" d="M 47.279,544.987 55.2514,531.32 z" id="boundary" inkscape:connector-curvature="0" />
	<path style="fill:none;stroke:red;stroke-width:1px;stroke-linecap:butt;stroke-linejoin:miter;stroke-opacity:1" d="M 60.946,514.237 55.2514,531.32 z" id="boundary" inkscape:connector-curvature="0" />
	<path style="fill:none;stroke:red;stroke-width:1px;stroke-linecap:butt;stroke-linejoin:miter;stroke-opacity:1" d="M 60.946,514.237 66.6406,502.847 z" id="boundary" inkscape:connector-curvature="0" />
	<path style="fill:none;stroke:red;stroke-width:1px;stroke-linecap:butt;stroke-linejoin:miter;stroke-opacity:1" d="M 47.279,544.987 38.1676,554.099 z" id="boundary" inkscape:connector-curvature="0" />
	<path style="fill:none;stroke:red;stroke-width:1px;stroke-linecap:butt;stroke-linejoin:miter;stroke-opacity:1" d="M 83.7245,361.621 89.4191,371.871 z" id="boundary" inkscape:connector-curvature="0" />
	<path style="fill:none;stroke:red;stroke-width:1px;stroke-linecap:butt;stroke-linejoin:miter;stroke-opacity:1" d="M 89.4191,371.871 89.4191,383.261 z" id="boundary" inkscape:connector-curvature="0" />
	<path style="fill:none;stroke:red;stroke-width:1px;stroke-linecap:butt;stroke-linejoin:miter;stroke-opacity:1" d="M 89.4191,383.261 89.4191,394.65 z" id="boundary" inkscape:connector-curvature="0" />
	<path style="fill:none;stroke:red;stroke-width:1px;stroke-linecap:butt;stroke-linejoin:miter;stroke-opacity:1" d="M 89.4191,406.039 89.4191,394.65 z" id="boundary" inkscape:connector-curvature="0" />
	<path style="fill:none;stroke:red;stroke-width:1px;stroke-linecap:butt;stroke-linejoin:miter;stroke-opacity:1" d="M 89.4191,406.039 89.4191,417.428 z" id="boundary" inkscape:connector-curvature="0" />
	<path style="fill:none;stroke:red;stroke-width:1px;stroke-linecap:butt;stroke-linejoin:miter;stroke-opacity:1" d="M 89.4191,417.428 89.4191,428.817 z" id="boundary" inkscape:connector-curvature="0" />
	<path style="fill:none;stroke:red;stroke-width:1px;stroke-linecap:butt;stroke-linejoin:miter;stroke-opacity:1" d="M 89.4191,440.207 89.4191,428.817 z" id="boundary" inkscape:connector-curvature="0" />
	<path style="fill:none;stroke:red;stroke-width:1px;stroke-linecap:butt;stroke-linejoin:miter;stroke-opacity:1" d="M 89.4191,440.207 83.7245,457.29 z" id="boundary" inkscape:connector-curvature="0" />
	<path style="fill:none;stroke:red;stroke-width:1px;stroke-linecap:butt;stroke-linejoin:miter;stroke-opacity:1" d="M 26.7784,582.572 26.7784,593.961 z" id="boundary" inkscape:connector-curvature="0" />
	<path style="fill:none;stroke:red;stroke-width:1px;stroke-linecap:butt;stroke-linejoin:miter;stroke-opacity:1" d="M 26.7784,582.572 32.473,565.488 z" id="boundary" inkscape:connector-curvature="0" />
	<path style="fill:none;stroke:red;stroke-width:1px;stroke-linecap:butt;stroke-linejoin:miter;stroke-opacity:1" d="M 38.1676,554.099 32.473,565.488 z" id="boundary" inkscape:connector-curvature="0" />
	<path style="fill:none;stroke:red;stroke-width:1px;stroke-linecap:butt;stroke-linejoin:miter;stroke-opacity:1" d="M 26.7784,605.35 26.7784,593.961 z" id="boundary" inkscape:connector-curvature="0" />
	<path style="fill:none;stroke:red;stroke-width:1px;stroke-linecap:butt;stroke-linejoin:miter;stroke-opacity:1" d="M 26.7784,605.35 26.7784,616.739 z" id="boundary" inkscape:connector-curvature="0" />
	<path style="fill:none;stroke:red;stroke-width:1px;stroke-linecap:butt;stroke-linejoin:miter;stroke-opacity:1" d="M 32.473,626.99 26.7784,616.739 z" id="boundary" inkscape:connector-curvature="0" />
	<path style="fill:none;stroke:red;stroke-width:1px;stroke-linecap:butt;stroke-linejoin:miter;stroke-opacity:1" d="M 32.473,626.99 32.473,638.379 z" id="boundary" inkscape:connector-curvature="0" />
	<path style="fill:none;stroke:red;stroke-width:1px;stroke-linecap:butt;stroke-linejoin:miter;stroke-opacity:1" d="M 38.1676,648.629 32.473,638.379 z" id="boundary" inkscape:connector-curvature="0" />
	<path style="fill:none;stroke:red;stroke-width:1px;stroke-linecap:butt;stroke-linejoin:miter;stroke-opacity:1" d="M 45.0011,657.741 38.1676,648.629 z" id="boundary" inkscape:connector-curvature="0" />
	<path style="fill:none;stroke:red;stroke-width:1px;stroke-linecap:butt;stroke-linejoin:miter;stroke-opacity:1" d="M 64.3628,660.018 75.752,660.018 z" id="boundary" inkscape:connector-curvature="0" />
	<path style="fill:none;stroke:red;stroke-width:1px;stroke-linecap:butt;stroke-linejoin:miter;stroke-opacity:1" d="M 54.1125,665.713 64.3628,660.018 z" id="boundary" inkscape:connector-curvature="0" />
	<path style="fill:none;stroke:red;stroke-width:1px;stroke-linecap:butt;stroke-linejoin:miter;stroke-opacity:1" d="M 54.1125,665.713 45.0011,657.741 z" id="boundary" inkscape:connector-curvature="0" />
	<path style="fill:none;stroke:red;stroke-width:1px;stroke-linecap:butt;stroke-linejoin:miter;stroke-opacity:1" d="M 75.752,660.018 87.1412,660.018 z" id="boundary" inkscape:connector-curvature="0" />
	<path style="fill:none;stroke:red;stroke-width:1px;stroke-linecap:butt;stroke-linejoin:miter;stroke-opacity:1" d="M 87.1412,660.018 96.2526,667.991 z" id="boundary" inkscape:connector-curvature="0" />
	<path style="fill:none;stroke:red;stroke-width:1px;stroke-linecap:butt;stroke-linejoin:miter;stroke-opacity:1" d="M 109.92,687.352 100.808,679.38 z" id="boundary" inkscape:connector-curvature="0" />
	<path style="fill:none;stroke:red;stroke-width:1px;stroke-linecap:butt;stroke-linejoin:miter;stroke-opacity:1" d="M 100.808,679.38 96.2526,667.991 z" id="boundary" inkscape:connector-curvature="0" />
	<path style="fill:none;stroke:red;stroke-width:1px;stroke-linecap:butt;stroke-linejoin:miter;stroke-opacity:1" d="M 117.892,696.464 109.92,687.352 z" id="boundary" inkscape:connector-curvature="0" />
	<path style="fill:none;stroke:red;stroke-width:1px;stroke-linecap:butt;stroke-linejoin:miter;stroke-opacity:1" d="M 117.892,696.464 117.892,707.853 z" id="boundary" inkscape:connector-curvature="0" />
	<path style="fill:none;stroke:red;stroke-width:1px;stroke-linecap:butt;stroke-linejoin:miter;stroke-opacity:1" d="M 123.587,718.103 117.892,707.853 z" id="boundary" inkscape:connector-curvature="0" />
	<path style="fill:none;stroke:red;stroke-width:1px;stroke-linecap:butt;stroke-linejoin:miter;stroke-opacity:1" d="M 131.559,727.215 123.587,718.103 z" id="boundary" inkscape:connector-curvature="0" />
	<path style="fill:none;stroke:red;stroke-width:1px;stroke-linecap:butt;stroke-linejoin:miter;stroke-opacity:1" d="M 140.67,734.048 131.559,727.215 z" id="boundary" inkscape:connector-curvature="0" />
	<path style="fill:none;stroke:red;stroke-width:1px;stroke-linecap:butt;stroke-linejoin:miter;stroke-opacity:1" d="M 140.67,734.048 147.504,743.16 z" id="boundary" inkscape:connector-curvature="0" />
	<path style="fill:none;stroke:red;stroke-width:1px;stroke-linecap:butt;stroke-linejoin:miter;stroke-opacity:1" d="M 156.615,751.132 147.504,743.16 z" id="boundary" inkscape:connector-curvature="0" />
	<path style="fill:none;stroke:red;stroke-width:1px;stroke-linecap:butt;stroke-linejoin:miter;stroke-opacity:1" d="M 156.615,751.132 166.866,756.827 z" id="boundary" inkscape:connector-curvature="0" />
	<path style="fill:none;stroke:red;stroke-width:1px;stroke-linecap:butt;stroke-linejoin:miter;stroke-opacity:1" d="M 178.255,756.827 166.866,756.827 z" id="boundary" inkscape:connector-curvature="0" />
	<path style="fill:none;stroke:red;stroke-width:1px;stroke-linecap:butt;stroke-linejoin:miter;stroke-opacity:1" d="M 178.255,756.827 189.644,756.827 z" id="boundary" inkscape:connector-curvature="0" />
	<path style="fill:none;stroke:red;stroke-width:1px;stroke-linecap:butt;stroke-linejoin:miter;stroke-opacity:1" d="M 189.644,756.827 199.894,762.521 z" id="boundary" inkscape:connector-curvature="0" />
	<path style="fill:none;stroke:red;stroke-width:1px;stroke-linecap:butt;stroke-linejoin:miter;stroke-opacity:1" d="M 211.284,765.938 199.894,762.521 z" id="boundary" inkscape:connector-curvature="0" />
	<path style="fill:none;stroke:red;stroke-width:1px;stroke-linecap:butt;stroke-linejoin:miter;stroke-opacity:1" d="M 211.284,765.938 221.534,771.633 z" id="boundary" inkscape:connector-curvature="0" />
	<path style="fill:none;stroke:red;stroke-width:1px;stroke-linecap:butt;stroke-linejoin:miter;stroke-opacity:1" d="M 221.534,771.633 232.923,776.188 z" id="boundary" inkscape:connector-curvature="0" />
	<path style="fill:none;stroke:red;stroke-width:1px;stroke-linecap:butt;stroke-linejoin:miter;stroke-opacity:1" d="M 244.312,779.605 254.563,785.3 z" id="boundary" inkscape:connector-curvature="0" />
	<path style="fill:none;stroke:red;stroke-width:1px;stroke-linecap:butt;stroke-linejoin:miter;stroke-opacity:1" d="M 254.563,785.3 260.257,795.55 z" id="boundary" inkscape:connector-curvature="0" />
	<path style="fill:none;stroke:red;stroke-width:1px;stroke-linecap:butt;stroke-linejoin:miter;stroke-opacity:1" d="M 232.923,776.188 244.312,779.605 z" id="boundary" inkscape:connector-curvature="0" />
	<path style="fill:none;stroke:red;stroke-width:1px;stroke-linecap:butt;stroke-linejoin:miter;stroke-opacity:1" d="M 265.952,805.8 267.091,817.189 z" id="boundary" inkscape:connector-curvature="0" />
	<path style="fill:none;stroke:red;stroke-width:1px;stroke-linecap:butt;stroke-linejoin:miter;stroke-opacity:1" d="M 260.257,795.55 265.952,805.8 z" id="boundary" inkscape:connector-curvature="0" />
	<path style="fill:none;stroke:red;stroke-width:1px;stroke-linecap:butt;stroke-linejoin:miter;stroke-opacity:1" d="M 271.646,828.579 267.091,817.189 z" id="boundary" inkscape:connector-curvature="0" />
	<path style="fill:none;stroke:red;stroke-width:1px;stroke-linecap:butt;stroke-linejoin:miter;stroke-opacity:1" d="M 271.646,828.579 272.785,839.968 z" id="boundary" inkscape:connector-curvature="0" />
	<path style="fill:none;stroke:red;stroke-width:1px;stroke-linecap:butt;stroke-linejoin:miter;stroke-opacity:1" d="M 277.341,851.357 272.785,839.968 z" id="boundary" inkscape:connector-curvature="0" />
	<path style="fill:none;stroke:red;stroke-width:1px;stroke-linecap:butt;stroke-linejoin:miter;stroke-opacity:1" d="M 277.341,851.357 283.036,861.607 z" id="boundary" inkscape:connector-curvature="0" />
	<path style="fill:none;stroke:red;stroke-width:1px;stroke-linecap:butt;stroke-linejoin:miter;stroke-opacity:1" d="M 283.036,861.607 283.036,872.997 z" id="boundary" inkscape:connector-curvature="0" />
	<path style="fill:none;stroke:red;stroke-width:1px;stroke-linecap:butt;stroke-linejoin:miter;stroke-opacity:1" d="M 283.036,872.997 288.73,883.247 z" id="boundary" inkscape:connector-curvature="0" />
	<path style="fill:none;stroke:red;stroke-width:1px;stroke-linecap:butt;stroke-linejoin:miter;stroke-opacity:1" d="M 294.425,893.497 288.73,883.247 z" id="boundary" inkscape:connector-curvature="0" />
	<path style="fill:none;stroke:red;stroke-width:1px;stroke-linecap:butt;stroke-linejoin:miter;stroke-opacity:1" d="M 294.425,893.497 294.425,904.886 z" id="boundary" inkscape:connector-curvature="0" />
	<path style="fill:none;stroke:red;stroke-width:1px;stroke-linecap:butt;stroke-linejoin:miter;stroke-opacity:1" d="M 300.119,915.137 294.425,904.886 z" id="boundary" inkscape:connector-curvature="0" />
	<path style="fill:none;stroke:red;stroke-width:1px;stroke-linecap:butt;stroke-linejoin:miter;stroke-opacity:1" d="M 300.119,915.137 302.397,926.526 z" id="boundary" inkscape:connector-curvature="0" />
	<path style="fill:none;stroke:red;stroke-width:1px;stroke-linecap:butt;stroke-linejoin:miter;stroke-opacity:1" d="M 305.814,937.915 302.397,926.526 z" id="boundary" inkscape:connector-curvature="0" />
	<path style="fill:none;stroke:red;stroke-width:1px;stroke-linecap:butt;stroke-linejoin:miter;stroke-opacity:1" d="M 305.814,937.915 308.092,949.304 z" id="boundary" inkscape:connector-curvature="0" />
	<path style="fill:none;stroke:red;stroke-width:1px;stroke-linecap:butt;stroke-linejoin:miter;stroke-opacity:1" d="M 311.509,960.693 308.092,949.304 z" id="boundary" inkscape:connector-curvature="0" />
	<path style="fill:none;stroke:red;stroke-width:1px;stroke-linecap:butt;stroke-linejoin:miter;stroke-opacity:1" d="M 311.509,960.693 317.203,970.944 z" id="boundary" inkscape:connector-curvature="0" />
	<path style="fill:none;stroke:red;stroke-width:1px;stroke-linecap:butt;stroke-linejoin:miter;stroke-opacity:1" d="M 317.203,970.944 318.342,982.333 z" id="boundary" inkscape:connector-curvature="0" />
	<path style="fill:none;stroke:red;stroke-width:1px;stroke-linecap:butt;stroke-linejoin:miter;stroke-opacity:1" d="M 318.342,982.333 324.037,992.583 z" id="boundary" inkscape:connector-curvature="0" />
	<path style="fill:none;stroke:red;stroke-width:1px;stroke-linecap:butt;stroke-linejoin:miter;stroke-opacity:1" d="M 318.342,129.281 328.592,134.976 z" id="boundary" inkscape:connector-curvature="0" />
	<path style="fill:none;stroke:red;stroke-width:1px;stroke-linecap:butt;stroke-linejoin:miter;stroke-opacity:1" d="M 328.592,134.976 339.982,137.254 z" id="boundary" inkscape:connector-curvature="0" />
	<path style="fill:none;stroke:red;stroke-width:1px;stroke-linecap:butt;stroke-linejoin:miter;stroke-opacity:1" d="M 350.232,142.948 358.204,152.06 z" id="boundary" inkscape:connector-curvature="0" />
	<path style="fill:none;stroke:red;stroke-width:1px;stroke-linecap:butt;stroke-linejoin:miter;stroke-opacity:1" d="M 339.982,137.254 350.232,142.948 z" id="boundary" inkscape:connector-curvature="0" />
	<path style="fill:none;stroke:red;stroke-width:1px;stroke-linecap:butt;stroke-linejoin:miter;stroke-opacity:1" d="M 368.455,157.754 358.204,152.06 z" id="boundary" inkscape:connector-curvature="0" />
	<path style="fill:none;stroke:red;stroke-width:1px;stroke-linecap:butt;stroke-linejoin:miter;stroke-opacity:1" d="M 519.931,214.7 508.542,214.7 z" id="boundary" inkscape:connector-curvature="0" />
	<path style="fill:none;stroke:red;stroke-width:1px;stroke-linecap:butt;stroke-linejoin:miter;stroke-opacity:1" d="M 386.677,172.56 394.65,181.672 z" id="boundary" inkscape:connector-curvature="0" />
	<path style="fill:none;stroke:red;stroke-width:1px;stroke-linecap:butt;stroke-linejoin:miter;stroke-opacity:1" d="M 377.566,164.588 386.677,172.56 z" id="boundary" inkscape:connector-curvature="0" />
	<path style="fill:none;stroke:red;stroke-width:1px;stroke-linecap:butt;stroke-linejoin:miter;stroke-opacity:1" d="M 403.761,189.644 394.65,181.672 z" id="boundary" inkscape:connector-curvature="0" />
	<path style="fill:none;stroke:red;stroke-width:1px;stroke-linecap:butt;stroke-linejoin:miter;stroke-opacity:1" d="M 368.455,157.754 377.566,164.588 z" id="boundary" inkscape:connector-curvature="0" />
	<path style="fill:none;stroke:red;stroke-width:1px;stroke-linecap:butt;stroke-linejoin:miter;stroke-opacity:1" d="M 403.761,189.644 412.873,197.617 z" id="boundary" inkscape:connector-curvature="0" />
	<path style="fill:none;stroke:red;stroke-width:1px;stroke-linecap:butt;stroke-linejoin:miter;stroke-opacity:1" d="M 423.123,203.311 412.873,197.617 z" id="boundary" inkscape:connector-curvature="0" />
	<path style="fill:none;stroke:red;stroke-width:1px;stroke-linecap:butt;stroke-linejoin:miter;stroke-opacity:1" d="M 423.123,203.311 431.095,212.423 z" id="boundary" inkscape:connector-curvature="0" />
	<path style="fill:none;stroke:red;stroke-width:1px;stroke-linecap:butt;stroke-linejoin:miter;stroke-opacity:1" d="M 442.485,216.978 431.095,212.423 z" id="boundary" inkscape:connector-curvature="0" />
	<path style="fill:none;stroke:red;stroke-width:1px;stroke-linecap:butt;stroke-linejoin:miter;stroke-opacity:1" d="M 442.485,216.978 452.735,222.673 z" id="boundary" inkscape:connector-curvature="0" />
	<path style="fill:none;stroke:red;stroke-width:1px;stroke-linecap:butt;stroke-linejoin:miter;stroke-opacity:1" d="M 486.902,226.09 497.153,220.395 z" id="boundary" inkscape:connector-curvature="0" />
	<path style="fill:none;stroke:red;stroke-width:1px;stroke-linecap:butt;stroke-linejoin:miter;stroke-opacity:1" d="M 508.542,214.7 497.153,220.395 z" id="boundary" inkscape:connector-curvature="0" />
	<path style="fill:none;stroke:red;stroke-width:1px;stroke-linecap:butt;stroke-linejoin:miter;stroke-opacity:1" d="M 378.705,606.489 386.677,597.378 z" id="boundary" inkscape:connector-curvature="0" />
	<path style="fill:none;stroke:red;stroke-width:1px;stroke-linecap:butt;stroke-linejoin:miter;stroke-opacity:1" d="M 386.677,597.378 398.067,597.378 z" id="boundary" inkscape:connector-curvature="0" />
	<path style="fill:none;stroke:red;stroke-width:1px;stroke-linecap:butt;stroke-linejoin:miter;stroke-opacity:1" d="M 409.456,597.378 419.706,591.683 z" id="boundary" inkscape:connector-curvature="0" />
	<path style="fill:none;stroke:red;stroke-width:1px;stroke-linecap:butt;stroke-linejoin:miter;stroke-opacity:1" d="M 419.706,591.683 429.956,597.378 z" id="boundary" inkscape:connector-curvature="0" />
	<path style="fill:none;stroke:red;stroke-width:1px;stroke-linecap:butt;stroke-linejoin:miter;stroke-opacity:1" d="M 409.456,597.378 398.067,597.378 z" id="boundary" inkscape:connector-curvature="0" />
	<path style="fill:none;stroke:red;stroke-width:1px;stroke-linecap:butt;stroke-linejoin:miter;stroke-opacity:1" d="M 429.956,597.378 441.346,597.378 z" id="boundary" inkscape:connector-curvature="0" />
	<path style="fill:none;stroke:red;stroke-width:1px;stroke-linecap:butt;stroke-linejoin:miter;stroke-opacity:1" d="M 441.346,597.378 451.596,603.072 z" id="boundary" inkscape:connector-curvature="0" />
	<path style="fill:none;stroke:red;stroke-width:1px;stroke-linecap:butt;stroke-linejoin:miter;stroke-opacity:1" d="M 451.596,603.072 462.985,603.072 z" id="boundary" inkscape:connector-curvature="0" />
	<path style="fill:none;stroke:red;stroke-width:1px;stroke-linecap:butt;stroke-linejoin:miter;stroke-opacity:1" d="M 462.985,603.072 474.374,607.628 z" id="boundary" inkscape:connector-curvature="0" />
	<path style="fill:none;stroke:red;stroke-width:1px;stroke-linecap:butt;stroke-linejoin:miter;stroke-opacity:1" d="M 475.513,226.09 464.124,226.09 z" id="boundary" inkscape:connector-curvature="0" />
	<path style="fill:none;stroke:red;stroke-width:1px;stroke-linecap:butt;stroke-linejoin:miter;stroke-opacity:1" d="M 464.124,226.09 452.735,222.673 z" id="boundary" inkscape:connector-curvature="0" />
	<path style="fill:none;stroke:red;stroke-width:1px;stroke-linecap:butt;stroke-linejoin:miter;stroke-opacity:1" d="M 475.513,226.09 486.902,226.09 z" id="boundary" inkscape:connector-curvature="0" />
	<path style="fill:none;stroke:red;stroke-width:1px;stroke-linecap:butt;stroke-linejoin:miter;stroke-opacity:1" d="M 500.569,420.845 489.18,426.54 z" id="boundary" inkscape:connector-curvature="0" />
	<path style="fill:none;stroke:red;stroke-width:1px;stroke-linecap:butt;stroke-linejoin:miter;stroke-opacity:1" d="M 489.18,426.54 489.18,437.929 z" id="boundary" inkscape:connector-curvature="0" />
	<path style="fill:none;stroke:red;stroke-width:1px;stroke-linecap:butt;stroke-linejoin:miter;stroke-opacity:1" d="M 494.875,448.179 500.569,458.429 z" id="boundary" inkscape:connector-curvature="0" />
	<path style="fill:none;stroke:red;stroke-width:1px;stroke-linecap:butt;stroke-linejoin:miter;stroke-opacity:1" d="M 494.875,448.179 489.18,437.929 z" id="boundary" inkscape:connector-curvature="0" />
	<path style="fill:none;stroke:red;stroke-width:1px;stroke-linecap:butt;stroke-linejoin:miter;stroke-opacity:1" d="M 500.569,458.429 506.264,468.68 z" id="boundary" inkscape:connector-curvature="0" />
	<path style="fill:none;stroke:red;stroke-width:1px;stroke-linecap:butt;stroke-linejoin:miter;stroke-opacity:1" d="M 500.569,420.845 511.959,415.15 z" id="boundary" inkscape:connector-curvature="0" />
	<path style="fill:none;stroke:red;stroke-width:1px;stroke-linecap:butt;stroke-linejoin:miter;stroke-opacity:1" d="M 506.264,468.68 511.959,478.93 z" id="boundary" inkscape:connector-curvature="0" />
	<path style="fill:none;stroke:red;stroke-width:1px;stroke-linecap:butt;stroke-linejoin:miter;stroke-opacity:1" d="M 546.126,250.007 540.432,267.091 z" id="boundary" inkscape:connector-curvature="0" />
	<path style="fill:none;stroke:red;stroke-width:1px;stroke-linecap:butt;stroke-linejoin:miter;stroke-opacity:1" d="M 531.32,214.7 519.931,214.7 z" id="boundary" inkscape:connector-curvature="0" />
	<path style="fill:none;stroke:red;stroke-width:1px;stroke-linecap:butt;stroke-linejoin:miter;stroke-opacity:1" d="M 542.71,214.7 531.32,214.7 z" id="boundary" inkscape:connector-curvature="0" />
	<path style="fill:none;stroke:red;stroke-width:1px;stroke-linecap:butt;stroke-linejoin:miter;stroke-opacity:1" d="M 540.432,267.091 534.737,278.48 z" id="boundary" inkscape:connector-curvature="0" />
	<path style="fill:none;stroke:red;stroke-width:1px;stroke-linecap:butt;stroke-linejoin:miter;stroke-opacity:1" d="M 534.737,278.48 534.737,289.869 z" id="boundary" inkscape:connector-curvature="0" />
	<path style="fill:none;stroke:red;stroke-width:1px;stroke-linecap:butt;stroke-linejoin:miter;stroke-opacity:1" d="M 540.432,311.509 534.737,301.258 z" id="boundary" inkscape:connector-curvature="0" />
	<path style="fill:none;stroke:red;stroke-width:1px;stroke-linecap:butt;stroke-linejoin:miter;stroke-opacity:1" d="M 534.737,301.258 534.737,289.869 z" id="boundary" inkscape:connector-curvature="0" />
	<path style="fill:none;stroke:red;stroke-width:1px;stroke-linecap:butt;stroke-linejoin:miter;stroke-opacity:1" d="M 549.543,318.342 540.432,311.509 z" id="boundary" inkscape:connector-curvature="0" />
	<path style="fill:none;stroke:red;stroke-width:1px;stroke-linecap:butt;stroke-linejoin:miter;stroke-opacity:1" d="M 542.71,214.7 550.682,223.812 z" id="boundary" inkscape:connector-curvature="0" />
	<path style="fill:none;stroke:red;stroke-width:1px;stroke-linecap:butt;stroke-linejoin:miter;stroke-opacity:1" d="M 557.515,327.454 549.543,318.342 z" id="boundary" inkscape:connector-curvature="0" />
	<path style="fill:none;stroke:red;stroke-width:1px;stroke-linecap:butt;stroke-linejoin:miter;stroke-opacity:1" d="M 551.821,235.201 546.126,250.007 z" id="boundary" inkscape:connector-curvature="0" />
	<path style="fill:none;stroke:red;stroke-width:1px;stroke-linecap:butt;stroke-linejoin:miter;stroke-opacity:1" d="M 551.821,235.201 550.682,223.812 z" id="boundary" inkscape:connector-curvature="0" />
	<path style="fill:none;stroke:red;stroke-width:1px;stroke-linecap:butt;stroke-linejoin:miter;stroke-opacity:1" d="M 563.21,337.704 563.21,349.093 z" id="boundary" inkscape:connector-curvature="0" />
	<path style="fill:none;stroke:red;stroke-width:1px;stroke-linecap:butt;stroke-linejoin:miter;stroke-opacity:1" d="M 557.515,327.454 563.21,337.704 z" id="boundary" inkscape:connector-curvature="0" />
	<path style="fill:none;stroke:red;stroke-width:1px;stroke-linecap:butt;stroke-linejoin:miter;stroke-opacity:1" d="M 563.21,349.093 563.21,360.482 z" id="boundary" inkscape:connector-curvature="0" />
	<path style="fill:none;stroke:red;stroke-width:1px;stroke-linecap:butt;stroke-linejoin:miter;stroke-opacity:1" d="M 563.21,360.482 557.515,375.288 z" id="boundary" inkscape:connector-curvature="0" />
	<path style="fill:none;stroke:red;stroke-width:1px;stroke-linecap:butt;stroke-linejoin:miter;stroke-opacity:1" d="M 557.515,375.288 548.404,385.538 z" id="boundary" inkscape:connector-curvature="0" />
	<path style="fill:none;stroke:red;stroke-width:1px;stroke-linecap:butt;stroke-linejoin:miter;stroke-opacity:1" d="M 522.209,409.456 532.459,403.761 z" id="boundary" inkscape:connector-curvature="0" />
	<path style="fill:none;stroke:red;stroke-width:1px;stroke-linecap:butt;stroke-linejoin:miter;stroke-opacity:1" d="M 532.459,403.761 542.71,396.928 z" id="boundary" inkscape:connector-curvature="0" />
	<path style="fill:none;stroke:red;stroke-width:1px;stroke-linecap:butt;stroke-linejoin:miter;stroke-opacity:1" d="M 548.404,385.538 542.71,396.928 z" id="boundary" inkscape:connector-curvature="0" />
	<path style="fill:none;stroke:red;stroke-width:1px;stroke-linecap:butt;stroke-linejoin:miter;stroke-opacity:1" d="M 522.209,409.456 511.959,415.15 z" id="boundary" inkscape:connector-curvature="0" />
	<path style="fill:none;stroke:red;stroke-width:1px;stroke-linecap:butt;stroke-linejoin:miter;stroke-opacity:1" d="M 518.792,488.041 527.904,496.014 z" id="boundary" inkscape:connector-curvature="0" />
	<path style="fill:none;stroke:red;stroke-width:1px;stroke-linecap:butt;stroke-linejoin:miter;stroke-opacity:1" d="M 518.792,488.041 511.959,478.93 z" id="boundary" inkscape:connector-curvature="0" />
	<path style="fill:none;stroke:red;stroke-width:1px;stroke-linecap:butt;stroke-linejoin:miter;stroke-opacity:1" d="M 527.904,496.014 538.154,501.708 z" id="boundary" inkscape:connector-curvature="0" />
	<path style="fill:none;stroke:red;stroke-width:1px;stroke-linecap:butt;stroke-linejoin:miter;stroke-opacity:1" d="M 538.154,501.708 543.848,511.959 z" id="boundary" inkscape:connector-curvature="0" />
	<path style="fill:none;stroke:red;stroke-width:1px;stroke-linecap:butt;stroke-linejoin:miter;stroke-opacity:1" d="M 551.821,521.07 543.848,511.959 z" id="boundary" inkscape:connector-curvature="0" />
	<path style="fill:none;stroke:red;stroke-width:1px;stroke-linecap:butt;stroke-linejoin:miter;stroke-opacity:1" d="M 551.821,521.07 557.515,531.32 z" id="boundary" inkscape:connector-curvature="0" />
	<path style="fill:none;stroke:red;stroke-width:1px;stroke-linecap:butt;stroke-linejoin:miter;stroke-opacity:1" d="M 562.071,542.71 557.515,531.32 z" id="boundary" inkscape:connector-curvature="0" />
	<path style="fill:none;stroke:red;stroke-width:1px;stroke-linecap:butt;stroke-linejoin:miter;stroke-opacity:1" d="M 563.21,554.099 563.21,565.488 z" id="boundary" inkscape:connector-curvature="0" />
	<path style="fill:none;stroke:red;stroke-width:1px;stroke-linecap:butt;stroke-linejoin:miter;stroke-opacity:1" d="M 563.21,565.488 563.21,576.877 z" id="boundary" inkscape:connector-curvature="0" />
	<path style="fill:none;stroke:red;stroke-width:1px;stroke-linecap:butt;stroke-linejoin:miter;stroke-opacity:1" d="M 562.071,542.71 563.21,554.099 z" id="boundary" inkscape:connector-curvature="0" />
	<path style="fill:none;stroke:red;stroke-width:1px;stroke-linecap:butt;stroke-linejoin:miter;stroke-opacity:1" d="M 563.21,576.877 563.21,588.266 z" id="boundary" inkscape:connector-curvature="0" />
	<path style="fill:none;stroke:red;stroke-width:1px;stroke-linecap:butt;stroke-linejoin:miter;stroke-opacity:1" d="M 371.871,625.851 375.288,637.24 z" id="boundary" inkscape:connector-curvature="0" />
	<path style="fill:none;stroke:red;stroke-width:1px;stroke-linecap:butt;stroke-linejoin:miter;stroke-opacity:1" d="M 371.871,625.851 369.594,614.462 z" id="boundary" inkscape:connector-curvature="0" />
	<path style="fill:none;stroke:red;stroke-width:1px;stroke-linecap:butt;stroke-linejoin:miter;stroke-opacity:1" d="M 369.594,614.462 378.705,606.489 z" id="boundary" inkscape:connector-curvature="0" />
	<path style="fill:none;stroke:red;stroke-width:1px;stroke-linecap:butt;stroke-linejoin:miter;stroke-opacity:1" d="M 380.983,647.49 380.983,658.879 z" id="boundary" inkscape:connector-curvature="0" />
	<path style="fill:none;stroke:red;stroke-width:1px;stroke-linecap:butt;stroke-linejoin:miter;stroke-opacity:1" d="M 375.288,637.24 380.983,647.49 z" id="boundary" inkscape:connector-curvature="0" />
	<path style="fill:none;stroke:red;stroke-width:1px;stroke-linecap:butt;stroke-linejoin:miter;stroke-opacity:1" d="M 386.677,669.13 398.067,673.685 z" id="boundary" inkscape:connector-curvature="0" />
	<path style="fill:none;stroke:red;stroke-width:1px;stroke-linecap:butt;stroke-linejoin:miter;stroke-opacity:1" d="M 386.677,669.13 380.983,658.879 z" id="boundary" inkscape:connector-curvature="0" />
	<path style="fill:none;stroke:red;stroke-width:1px;stroke-linecap:butt;stroke-linejoin:miter;stroke-opacity:1" d="M 409.456,675.963 398.067,673.685 z" id="boundary" inkscape:connector-curvature="0" />
	<path style="fill:none;stroke:red;stroke-width:1px;stroke-linecap:butt;stroke-linejoin:miter;stroke-opacity:1" d="M 409.456,675.963 420.845,675.963 z" id="boundary" inkscape:connector-curvature="0" />
	<path style="fill:none;stroke:red;stroke-width:1px;stroke-linecap:butt;stroke-linejoin:miter;stroke-opacity:1" d="M 420.845,675.963 431.095,681.658 z" id="boundary" inkscape:connector-curvature="0" />
	<path style="fill:none;stroke:red;stroke-width:1px;stroke-linecap:butt;stroke-linejoin:miter;stroke-opacity:1" d="M 431.095,681.658 442.485,683.936 z" id="boundary" inkscape:connector-curvature="0" />
	<path style="fill:none;stroke:red;stroke-width:1px;stroke-linecap:butt;stroke-linejoin:miter;stroke-opacity:1" d="M 442.485,683.936 452.735,689.63 z" id="boundary" inkscape:connector-curvature="0" />
	<path style="fill:none;stroke:red;stroke-width:1px;stroke-linecap:butt;stroke-linejoin:miter;stroke-opacity:1" d="M 432.234,790.994 434.512,802.383 z" id="boundary" inkscape:connector-curvature="0" />
	<path style="fill:none;stroke:red;stroke-width:1px;stroke-linecap:butt;stroke-linejoin:miter;stroke-opacity:1" d="M 432.234,790.994 443.623,785.3 z" id="boundary" inkscape:connector-curvature="0" />
	<path style="fill:none;stroke:red;stroke-width:1px;stroke-linecap:butt;stroke-linejoin:miter;stroke-opacity:1" d="M 455.013,779.605 443.623,785.3 z" id="boundary" inkscape:connector-curvature="0" />
	<path style="fill:none;stroke:red;stroke-width:1px;stroke-linecap:butt;stroke-linejoin:miter;stroke-opacity:1" d="M 452.735,689.63 464.124,694.186 z" id="boundary" inkscape:connector-curvature="0" />
	<path style="fill:none;stroke:red;stroke-width:1px;stroke-linecap:butt;stroke-linejoin:miter;stroke-opacity:1" d="M 437.929,813.773 434.512,802.383 z" id="boundary" inkscape:connector-curvature="0" />
	<path style="fill:none;stroke:red;stroke-width:1px;stroke-linecap:butt;stroke-linejoin:miter;stroke-opacity:1" d="M 368.455,986.889 379.844,984.611 z" id="boundary" inkscape:connector-curvature="0" />
	<path style="fill:none;stroke:red;stroke-width:1px;stroke-linecap:butt;stroke-linejoin:miter;stroke-opacity:1" d="M 379.844,984.611 391.233,984.611 z" id="boundary" inkscape:connector-curvature="0" />
	<path style="fill:none;stroke:red;stroke-width:1px;stroke-linecap:butt;stroke-linejoin:miter;stroke-opacity:1" d="M 391.233,984.611 401.483,978.916 z" id="boundary" inkscape:connector-curvature="0" />
	<path style="fill:none;stroke:red;stroke-width:1px;stroke-linecap:butt;stroke-linejoin:miter;stroke-opacity:1" d="M 401.483,978.916 412.873,978.916 z" id="boundary" inkscape:connector-curvature="0" />
	<path style="fill:none;stroke:red;stroke-width:1px;stroke-linecap:butt;stroke-linejoin:miter;stroke-opacity:1" d="M 357.065,990.305 368.455,986.889 z" id="boundary" inkscape:connector-curvature="0" />
	<path style="fill:none;stroke:red;stroke-width:1px;stroke-linecap:butt;stroke-linejoin:miter;stroke-opacity:1" d="M 335.426,996 324.037,992.583 z" id="boundary" inkscape:connector-curvature="0" />
	<path style="fill:none;stroke:red;stroke-width:1px;stroke-linecap:butt;stroke-linejoin:miter;stroke-opacity:1" d="M 345.676,990.305 335.426,996 z" id="boundary" inkscape:connector-curvature="0" />
	<path style="fill:none;stroke:red;stroke-width:1px;stroke-linecap:butt;stroke-linejoin:miter;stroke-opacity:1" d="M 345.676,990.305 357.065,990.305 z" id="boundary" inkscape:connector-curvature="0" />
	<path style="fill:none;stroke:red;stroke-width:1px;stroke-linecap:butt;stroke-linejoin:miter;stroke-opacity:1" d="M 437.929,813.773 443.623,824.023 z" id="boundary" inkscape:connector-curvature="0" />
	<path style="fill:none;stroke:red;stroke-width:1px;stroke-linecap:butt;stroke-linejoin:miter;stroke-opacity:1" d="M 443.623,824.023 443.623,835.412 z" id="boundary" inkscape:connector-curvature="0" />
	<path style="fill:none;stroke:red;stroke-width:1px;stroke-linecap:butt;stroke-linejoin:miter;stroke-opacity:1" d="M 443.623,835.412 449.318,845.662 z" id="boundary" inkscape:connector-curvature="0" />
	<path style="fill:none;stroke:red;stroke-width:1px;stroke-linecap:butt;stroke-linejoin:miter;stroke-opacity:1" d="M 412.873,978.916 423.123,973.222 z" id="boundary" inkscape:connector-curvature="0" />
	<path style="fill:none;stroke:red;stroke-width:1px;stroke-linecap:butt;stroke-linejoin:miter;stroke-opacity:1" d="M 423.123,973.222 434.512,973.222 z" id="boundary" inkscape:connector-curvature="0" />
	<path style="fill:none;stroke:red;stroke-width:1px;stroke-linecap:butt;stroke-linejoin:miter;stroke-opacity:1" d="M 445.901,972.083 434.512,973.222 z" id="boundary" inkscape:connector-curvature="0" />
	<path style="fill:none;stroke:red;stroke-width:1px;stroke-linecap:butt;stroke-linejoin:miter;stroke-opacity:1" d="M 449.318,845.662 455.013,855.913 z" id="boundary" inkscape:connector-curvature="0" />
	<path style="fill:none;stroke:red;stroke-width:1px;stroke-linecap:butt;stroke-linejoin:miter;stroke-opacity:1" d="M 455.013,855.913 455.013,867.302 z" id="boundary" inkscape:connector-curvature="0" />
	<path style="fill:none;stroke:red;stroke-width:1px;stroke-linecap:butt;stroke-linejoin:miter;stroke-opacity:1" d="M 455.013,779.605 466.402,779.605 z" id="boundary" inkscape:connector-curvature="0" />
	<path style="fill:none;stroke:red;stroke-width:1px;stroke-linecap:butt;stroke-linejoin:miter;stroke-opacity:1" d="M 484.625,613.323 474.374,607.628 z" id="boundary" inkscape:connector-curvature="0" />
	<path style="fill:none;stroke:red;stroke-width:1px;stroke-linecap:butt;stroke-linejoin:miter;stroke-opacity:1" d="M 496.014,614.462 484.625,613.323 z" id="boundary" inkscape:connector-curvature="0" />
	<path style="fill:none;stroke:red;stroke-width:1px;stroke-linecap:butt;stroke-linejoin:miter;stroke-opacity:1" d="M 496.014,614.462 506.264,620.156 z" id="boundary" inkscape:connector-curvature="0" />
	<path style="fill:none;stroke:red;stroke-width:1px;stroke-linecap:butt;stroke-linejoin:miter;stroke-opacity:1" d="M 475.513,698.742 464.124,694.186 z" id="boundary" inkscape:connector-curvature="0" />
	<path style="fill:none;stroke:red;stroke-width:1px;stroke-linecap:butt;stroke-linejoin:miter;stroke-opacity:1" d="M 475.513,698.742 485.763,704.436 z" id="boundary" inkscape:connector-curvature="0" />
	<path style="fill:none;stroke:red;stroke-width:1px;stroke-linecap:butt;stroke-linejoin:miter;stroke-opacity:1" d="M 496.014,710.131 485.763,704.436 z" id="boundary" inkscape:connector-curvature="0" />
	<path style="fill:none;stroke:red;stroke-width:1px;stroke-linecap:butt;stroke-linejoin:miter;stroke-opacity:1" d="M 506.264,620.156 516.514,625.851 z" id="boundary" inkscape:connector-curvature="0" />
	<path style="fill:none;stroke:red;stroke-width:1px;stroke-linecap:butt;stroke-linejoin:miter;stroke-opacity:1" d="M 506.264,715.825 496.014,710.131 z" id="boundary" inkscape:connector-curvature="0" />
	<path style="fill:none;stroke:red;stroke-width:1px;stroke-linecap:butt;stroke-linejoin:miter;stroke-opacity:1" d="M 527.904,625.851 516.514,625.851 z" id="boundary" inkscape:connector-curvature="0" />
	<path style="fill:none;stroke:red;stroke-width:1px;stroke-linecap:butt;stroke-linejoin:miter;stroke-opacity:1" d="M 548.404,619.017 557.515,608.767 z" id="boundary" inkscape:connector-curvature="0" />
	<path style="fill:none;stroke:red;stroke-width:1px;stroke-linecap:butt;stroke-linejoin:miter;stroke-opacity:1" d="M 548.404,619.017 539.293,625.851 z" id="boundary" inkscape:connector-curvature="0" />
	<path style="fill:none;stroke:red;stroke-width:1px;stroke-linecap:butt;stroke-linejoin:miter;stroke-opacity:1" d="M 539.293,625.851 527.904,625.851 z" id="boundary" inkscape:connector-curvature="0" />
	<path style="fill:none;stroke:red;stroke-width:1px;stroke-linecap:butt;stroke-linejoin:miter;stroke-opacity:1" d="M 506.264,715.825 517.653,719.242 z" id="boundary" inkscape:connector-curvature="0" />
	<path style="fill:none;stroke:red;stroke-width:1px;stroke-linecap:butt;stroke-linejoin:miter;stroke-opacity:1" d="M 517.653,719.242 523.348,729.493 z" id="boundary" inkscape:connector-curvature="0" />
	<path style="fill:none;stroke:red;stroke-width:1px;stroke-linecap:butt;stroke-linejoin:miter;stroke-opacity:1" d="M 523.348,729.493 517.653,745.437 z" id="boundary" inkscape:connector-curvature="0" />
	<path style="fill:none;stroke:red;stroke-width:1px;stroke-linecap:butt;stroke-linejoin:miter;stroke-opacity:1" d="M 563.21,588.266 557.515,608.767 z" id="boundary" inkscape:connector-curvature="0" />
	<path style="fill:none;stroke:red;stroke-width:1px;stroke-linecap:butt;stroke-linejoin:miter;stroke-opacity:1" d="M 517.653,745.437 508.542,755.688 z" id="boundary" inkscape:connector-curvature="0" />
	<path style="fill:none;stroke:red;stroke-width:1px;stroke-linecap:butt;stroke-linejoin:miter;stroke-opacity:1" d="M 455.013,867.302 460.707,877.552 z" id="boundary" inkscape:connector-curvature="0" />
	<path style="fill:none;stroke:red;stroke-width:1px;stroke-linecap:butt;stroke-linejoin:miter;stroke-opacity:1" d="M 460.707,877.552 464.124,888.941 z" id="boundary" inkscape:connector-curvature="0" />
	<path style="fill:none;stroke:red;stroke-width:1px;stroke-linecap:butt;stroke-linejoin:miter;stroke-opacity:1" d="M 477.791,920.831 472.096,910.581 z" id="boundary" inkscape:connector-curvature="0" />
	<path style="fill:none;stroke:red;stroke-width:1px;stroke-linecap:butt;stroke-linejoin:miter;stroke-opacity:1" d="M 466.402,779.605 476.652,773.91 z" id="boundary" inkscape:connector-curvature="0" />
	<path style="fill:none;stroke:red;stroke-width:1px;stroke-linecap:butt;stroke-linejoin:miter;stroke-opacity:1" d="M 464.124,888.941 466.402,900.331 z" id="boundary" inkscape:connector-curvature="0" />
	<path style="fill:none;stroke:red;stroke-width:1px;stroke-linecap:butt;stroke-linejoin:miter;stroke-opacity:1" d="M 466.402,900.331 472.096,910.581 z" id="boundary" inkscape:connector-curvature="0" />
	<path style="fill:none;stroke:red;stroke-width:1px;stroke-linecap:butt;stroke-linejoin:miter;stroke-opacity:1" d="M 457.29,967.527 445.901,972.083 z" id="boundary" inkscape:connector-curvature="0" />
	<path style="fill:none;stroke:red;stroke-width:1px;stroke-linecap:butt;stroke-linejoin:miter;stroke-opacity:1" d="M 468.68,967.527 457.29,967.527 z" id="boundary" inkscape:connector-curvature="0" />
	<path style="fill:none;stroke:red;stroke-width:1px;stroke-linecap:butt;stroke-linejoin:miter;stroke-opacity:1" d="M 476.652,773.91 485.763,767.077 z" id="boundary" inkscape:connector-curvature="0" />
	<path style="fill:none;stroke:red;stroke-width:1px;stroke-linecap:butt;stroke-linejoin:miter;stroke-opacity:1" d="M 485.763,767.077 497.153,761.382 z" id="boundary" inkscape:connector-curvature="0" />
	<path style="fill:none;stroke:red;stroke-width:1px;stroke-linecap:butt;stroke-linejoin:miter;stroke-opacity:1" d="M 508.542,755.688 497.153,761.382 z" id="boundary" inkscape:connector-curvature="0" />
	<path style="fill:none;stroke:red;stroke-width:1px;stroke-linecap:butt;stroke-linejoin:miter;stroke-opacity:1" d="M 477.791,920.831 477.791,932.22 z" id="boundary" inkscape:connector-curvature="0" />
	<path style="fill:none;stroke:red;stroke-width:1px;stroke-linecap:butt;stroke-linejoin:miter;stroke-opacity:1" d="M 483.486,942.471 477.791,932.22 z" id="boundary" inkscape:connector-curvature="0" />
	<path style="fill:none;stroke:red;stroke-width:1px;stroke-linecap:butt;stroke-linejoin:miter;stroke-opacity:1" d="M 483.486,942.471 489.18,952.721 z" id="boundary" inkscape:connector-curvature="0" />
	<path style="fill:none;stroke:red;stroke-width:1px;stroke-linecap:butt;stroke-linejoin:miter;stroke-opacity:1" d="M 489.18,952.721 478.93,961.832 z" id="boundary" inkscape:connector-curvature="0" />
	<path style="fill:none;stroke:red;stroke-width:1px;stroke-linecap:butt;stroke-linejoin:miter;stroke-opacity:1" d="M 478.93,961.832 468.68,967.527 z" id="boundary" inkscape:connector-curvature="0" />
	<circle cx="4" cy="252.285" r="4" fill="#0" id="circle0"/>
	<circle cx="4" cy="263.674" r="4" fill="#0" id="circle1"/>
	<circle cx="9.6946" cy="273.924" r="4" fill="#0" id="circle2"/>
	<circle cx="13.1114" cy="243.173" r="4" fill="#0" id="circle3"/>
	<circle cx="15.3892" cy="24.5006" r="4" fill="#0" id="circle4"/>
	<circle cx="17.667" cy="283.036" r="4" fill="#0" id="circle5"/>
	<circle cx="21.0838" cy="34.7509" r="4" fill="#0" id="circle6"/>
	<circle cx="23.3617" cy="237.479" r="4" fill="#0" id="circle7"/>
	<circle cx="26.7784" cy="21.0838" r="4" fill="#0" id="circle8"/>
	<circle cx="26.7784" cy="45.0011" r="4" fill="#0" id="circle9"/>
	<circle cx="26.7784" cy="56.3904" r="4" fill="#0" id="circle10"/>
	<circle cx="26.7784" cy="582.572" r="4" fill="#0" id="circle11"/>
	<circle cx="26.7784" cy="593.961" r="4" fill="#0" id="circle12"/>
	<circle cx="26.7784" cy="605.35" r="4" fill="#0" id="circle13"/>
	<circle cx="26.7784" cy="616.739" r="4" fill="#0" id="circle14"/>
	<circle cx="29.0563" cy="287.591" r="4" fill="#0" id="circle15"/>
	<circle cx="32.473" cy="66.6406" r="4" fill="#0" id="circle16"/>
	<circle cx="32.473" cy="78.0299" r="4" fill="#0" id="circle17"/>
	<circle cx="32.473" cy="565.488" r="4" fill="#0" id="circle18"/>
	<circle cx="32.473" cy="626.99" r="4" fill="#0" id="circle19"/>
	<circle cx="32.473" cy="638.379" r="4" fill="#0" id="circle20"/>
	<circle cx="33.6119" cy="231.784" r="4" fill="#0" id="circle21"/>
	<circle cx="38.1676" cy="21.0838" r="4" fill="#0" id="circle22"/>
	<circle cx="38.1676" cy="88.2801" r="4" fill="#0" id="circle23"/>
	<circle cx="38.1676" cy="295.564" r="4" fill="#0" id="circle24"/>
	<circle cx="38.1676" cy="554.099" r="4" fill="#0" id="circle25"/>
	<circle cx="38.1676" cy="648.629" r="4" fill="#0" id="circle26"/>
	<circle cx="39.3065" cy="99.6693" r="4" fill="#0" id="circle27"/>
	<circle cx="43.8622" cy="111.059" r="4" fill="#0" id="circle28"/>
	<circle cx="43.8622" cy="226.09" r="4" fill="#0" id="circle29"/>
	<circle cx="45.0011" cy="304.675" r="4" fill="#0" id="circle30"/>
	<circle cx="45.0011" cy="657.741" r="4" fill="#0" id="circle31"/>
	<circle cx="47.279" cy="544.987" r="4" fill="#0" id="circle32"/>
	<circle cx="48.4179" cy="15.3892" r="4" fill="#0" id="circle33"/>
	<circle cx="49.5568" cy="121.309" r="4" fill="#0" id="circle34"/>
	<circle cx="49.5568" cy="132.698" r="4" fill="#0" id="circle35"/>
	<circle cx="54.1125" cy="220.395" r="4" fill="#0" id="circle36"/>
	<circle cx="54.1125" cy="312.648" r="4" fill="#0" id="circle37"/>
	<circle cx="54.1125" cy="665.713" r="4" fill="#0" id="circle38"/>
	<circle cx="55.2514" cy="142.948" r="4" fill="#0" id="circle39"/>
	<circle cx="55.2514" cy="531.32" r="4" fill="#0" id="circle40"/>
	<circle cx="59.8071" cy="15.3892" r="4" fill="#0" id="circle41"/>
	<circle cx="60.946" cy="153.199" r="4" fill="#0" id="circle42"/>
	<circle cx="60.946" cy="164.588" r="4" fill="#0" id="circle43"/>
	<circle cx="60.946" cy="321.759" r="4" fill="#0" id="circle44"/>
	<circle cx="60.946" cy="514.237" r="4" fill="#0" id="circle45"/>
	<circle cx="62.085" cy="211.284" r="4" fill="#0" id="circle46"/>
	<circle cx="64.3628" cy="660.018" r="4" fill="#0" id="circle47"/>
	<circle cx="66.6406" cy="174.838" r="4" fill="#0" id="circle48"/>
	<circle cx="66.6406" cy="186.227" r="4" fill="#0" id="circle49"/>
	<circle cx="66.6406" cy="332.009" r="4" fill="#0" id="circle50"/>
	<circle cx="66.6406" cy="502.847" r="4" fill="#0" id="circle51"/>
	<circle cx="71.1963" cy="15.3892" r="4" fill="#0" id="circle52"/>
	<circle cx="71.1963" cy="203.311" r="4" fill="#0" id="circle53"/>
	<circle cx="72.3352" cy="485.763" r="4" fill="#0" id="circle54"/>
	<circle cx="75.752" cy="339.982" r="4" fill="#0" id="circle55"/>
	<circle cx="75.752" cy="660.018" r="4" fill="#0" id="circle56"/>
	<circle cx="78.0299" cy="351.371" r="4" fill="#0" id="circle57"/>
	<circle cx="78.0299" cy="474.374" r="4" fill="#0" id="circle58"/>
	<circle cx="82.5855" cy="15.3892" r="4" fill="#0" id="circle59"/>
	<circle cx="83.7245" cy="361.621" r="4" fill="#0" id="circle60"/>
	<circle cx="83.7245" cy="457.29" r="4" fill="#0" id="circle61"/>
	<circle cx="87.1412" cy="660.018" r="4" fill="#0" id="circle62"/>
	<circle cx="89.4191" cy="371.871" r="4" fill="#0" id="circle63"/>
	<circle cx="89.4191" cy="383.261" r="4" fill="#0" id="circle64"/>
	<circle cx="89.4191" cy="394.65" r="4" fill="#0" id="circle65"/>
	<circle cx="89.4191" cy="406.039" r="4" fill="#0" id="circle66"/>
	<circle cx="89.4191" cy="417.428" r="4" fill="#0" id="circle67"/>
	<circle cx="89.4191" cy="428.817" r="4" fill="#0" id="circle68"/>
	<circle cx="89.4191" cy="440.207" r="4" fill="#0" id="circle69"/>
	<circle cx="92.8358" cy="9.6946" r="4" fill="#0" id="circle70"/>
	<circle cx="96.2526" cy="667.991" r="4" fill="#0" id="circle71"/>
	<circle cx="100.808" cy="679.38" r="4" fill="#0" id="circle72"/>
	<circle cx="104.225" cy="9.6946" r="4" fill="#0" id="circle73"/>
	<circle cx="109.92" cy="687.352" r="4" fill="#0" id="circle74"/>
	<circle cx="115.614" cy="9.6946" r="4" fill="#0" id="circle75"/>
	<circle cx="117.892" cy="696.464" r="4" fill="#0" id="circle76"/>
	<circle cx="117.892" cy="707.853" r="4" fill="#0" id="circle77"/>
	<circle cx="123.587" cy="718.103" r="4" fill="#0" id="circle78"/>
	<circle cx="127.003" cy="9.6946" r="4" fill="#0" id="circle79"/>
	<circle cx="131.559" cy="727.215" r="4" fill="#0" id="circle80"/>
	<circle cx="138.393" cy="4" r="4" fill="#0" id="circle81"/>
	<circle cx="140.67" cy="734.048" r="4" fill="#0" id="circle82"/>
	<circle cx="147.504" cy="743.16" r="4" fill="#0" id="circle83"/>
	<circle cx="149.782" cy="4" r="4" fill="#0" id="circle84"/>
	<circle cx="156.615" cy="751.132" r="4" fill="#0" id="circle85"/>
	<circle cx="157.754" cy="13.1114" r="4" fill="#0" id="circle86"/>
	<circle cx="158.893" cy="24.5006" r="4" fill="#0" id="circle87"/>
	<circle cx="164.588" cy="34.7509" r="4" fill="#0" id="circle88"/>
	<circle cx="166.866" cy="756.827" r="4" fill="#0" id="circle89"/>
	<circle cx="168.005" cy="46.1401" r="4" fill="#0" id="circle90"/>
	<circle cx="173.699" cy="56.3904" r="4" fill="#0" id="circle91"/>
	<circle cx="175.977" cy="67.7796" r="4" fill="#0" id="circle92"/>
	<circle cx="178.255" cy="756.827" r="4" fill="#0" id="circle93"/>
	<circle cx="181.672" cy="78.0299" r="4" fill="#0" id="circle94"/>
	<circle cx="181.672" cy="89.4191" r="4" fill="#0" id="circle95"/>
	<circle cx="187.366" cy="99.6693" r="4" fill="#0" id="circle96"/>
	<circle cx="189.644" cy="756.827" r="4" fill="#0" id="circle97"/>
	<circle cx="193.061" cy="109.92" r="4" fill="#0" id="circle98"/>
	<circle cx="193.061" cy="121.309" r="4" fill="#0" id="circle99"/>
	<circle cx="199.894" cy="762.521" r="4" fill="#0" id="circle100"/>
	<circle cx="204.45" cy="123.587" r="4" fill="#0" id="circle101"/>
	<circle cx="211.284" cy="765.938" r="4" fill="#0" id="circle102"/>
	<circle cx="215.839" cy="123.587" r="4" fill="#0" id="circle103"/>
	<circle cx="221.534" cy="771.633" r="4" fill="#0" id="circle104"/>
	<circle cx="227.228" cy="123.587" r="4" fill="#0" id="circle105"/>
	<circle cx="232.923" cy="776.188" r="4" fill="#0" id="circle106"/>
	<circle cx="238.618" cy="123.587" r="4" fill="#0" id="circle107"/>
	<circle cx="244.312" cy="779.605" r="4" fill="#0" id="circle108"/>
	<circle cx="250.007" cy="123.587" r="4" fill="#0" id="circle109"/>
	<circle cx="254.563" cy="785.3" r="4" fill="#0" id="circle110"/>
	<circle cx="260.257" cy="795.55" r="4" fill="#0" id="circle111"/>
	<circle cx="261.396" cy="123.587" r="4" fill="#0" id="circle112"/>
	<circle cx="265.952" cy="805.8" r="4" fill="#0" id="circle113"/>
	<circle cx="267.091" cy="817.189" r="4" fill="#0" id="circle114"/>
	<circle cx="271.646" cy="828.579" r="4" fill="#0" id="circle115"/>
	<circle cx="272.785" cy="123.587" r="4" fill="#0" id="circle116"/>
	<circle cx="272.785" cy="839.968" r="4" fill="#0" id="circle117"/>
	<circle cx="277.341" cy="851.357" r="4" fill="#0" id="circle118"/>
	<circle cx="283.036" cy="861.607" r="4" fill="#0" id="circle119"/>
	<circle cx="283.036" cy="872.997" r="4" fill="#0" id="circle120"/>
	<circle cx="284.175" cy="123.587" r="4" fill="#0" id="circle121"/>
	<circle cx="288.73" cy="883.247" r="4" fill="#0" id="circle122"/>
	<circle cx="294.425" cy="893.497" r="4" fill="#0" id="circle123"/>
	<circle cx="294.425" cy="904.886" r="4" fill="#0" id="circle124"/>
	<circle cx="295.564" cy="127.003" r="4" fill="#0" id="circle125"/>
	<circle cx="300.119" cy="915.137" r="4" fill="#0" id="circle126"/>
	<circle cx="302.397" cy="926.526" r="4" fill="#0" id="circle127"/>
	<circle cx="305.814" cy="937.915" r="4" fill="#0" id="circle128"/>
	<circle cx="306.953" cy="129.281" r="4" fill="#0" id="circle129"/>
	<circle cx="308.092" cy="949.304" r="4" fill="#0" id="circle130"/>
	<circle cx="311.509" cy="960.693" r="4" fill="#0" id="circle131"/>
	<circle cx="317.203" cy="970.944" r="4" fill="#0" id="circle132"/>
	<circle cx="318.342" cy="129.281" r="4" fill="#0" id="circle133"/>
	<circle cx="318.342" cy="982.333" r="4" fill="#0" id="circle134"/>
	<circle cx="324.037" cy="992.583" r="4" fill="#0" id="circle135"/>
	<circle cx="328.592" cy="134.976" r="4" fill="#0" id="circle136"/>
	<circle cx="335.426" cy="996" r="4" fill="#0" id="circle137"/>
	<circle cx="339.982" cy="137.254" r="4" fill="#0" id="circle138"/>
	<circle cx="345.676" cy="990.305" r="4" fill="#0" id="circle139"/>
	<circle cx="350.232" cy="142.948" r="4" fill="#0" id="circle140"/>
	<circle cx="357.065" cy="990.305" r="4" fill="#0" id="circle141"/>
	<circle cx="358.204" cy="152.06" r="4" fill="#0" id="circle142"/>
	<circle cx="368.455" cy="157.754" r="4" fill="#0" id="circle143"/>
	<circle cx="368.455" cy="986.889" r="4" fill="#0" id="circle144"/>
	<circle cx="369.594" cy="614.462" r="4" fill="#0" id="circle145"/>
	<circle cx="371.871" cy="625.851" r="4" fill="#0" id="circle146"/>
	<circle cx="375.288" cy="637.24" r="4" fill="#0" id="circle147"/>
	<circle cx="377.566" cy="164.588" r="4" fill="#0" id="circle148"/>
	<circle cx="378.705" cy="606.489" r="4" fill="#0" id="circle149"/>
	<circle cx="379.844" cy="984.611" r="4" fill="#0" id="circle150"/>
	<circle cx="380.983" cy="647.49" r="4" fill="#0" id="circle151"/>
	<circle cx="380.983" cy="658.879" r="4" fill="#0" id="circle152"/>
	<circle cx="386.677" cy="172.56" r="4" fill="#0" id="circle153"/>
	<circle cx="386.677" cy="597.378" r="4" fill="#0" id="circle154"/>
	<circle cx="386.677" cy="669.13" r="4" fill="#0" id="circle155"/>
	<circle cx="391.233" cy="984.611" r="4" fill="#0" id="circle156"/>
	<circle cx="394.65" cy="181.672" r="4" fill="#0" id="circle157"/>
	<circle cx="398.067" cy="597.378" r="4" fill="#0" id="circle158"/>
	<circle cx="398.067" cy="673.685" r="4" fill="#0" id="circle159"/>
	<circle cx="401.483" cy="978.916" r="4" fill="#0" id="circle160"/>
	<circle cx="403.761" cy="189.644" r="4" fill="#0" id="circle161"/>
	<circle cx="409.456" cy="597.378" r="4" fill="#0" id="circle162"/>
	<circle cx="409.456" cy="675.963" r="4" fill="#0" id="circle163"/>
	<circle cx="412.873" cy="197.617" r="4" fill="#0" id="circle164"/>
	<circle cx="412.873" cy="978.916" r="4" fill="#0" id="circle165"/>
	<circle cx="419.706" cy="591.683" r="4" fill="#0" id="circle166"/>
	<circle cx="420.845" cy="675.963" r="4" fill="#0" id="circle167"/>
	<circle cx="423.123" cy="203.311" r="4" fill="#0" id="circle168"/>
	<circle cx="423.123" cy="973.222" r="4" fill="#0" id="circle169"/>
	<circle cx="429.956" cy="597.378" r="4" fill="#0" id="circle170"/>
	<circle cx="431.095" cy="212.423" r="4" fill="#0" id="circle171"/>
	<circle cx="431.095" cy="681.658" r="4" fill="#0" id="circle172"/>
	<circle cx="432.234" cy="790.994" r="4" fill="#0" id="circle173"/>
	<circle cx="434.512" cy="802.383" r="4" fill="#0" id="circle174"/>
	<circle cx="434.512" cy="973.222" r="4" fill="#0" id="circle175"/>
	<circle cx="437.929" cy="813.773" r="4" fill="#0" id="circle176"/>
	<circle cx="441.346" cy="597.378" r="4" fill="#0" id="circle177"/>
	<circle cx="442.485" cy="216.978" r="4" fill="#0" id="circle178"/>
	<circle cx="442.485" cy="683.936" r="4" fill="#0" id="circle179"/>
	<circle cx="443.623" cy="785.3" r="4" fill="#0" id="circle180"/>
	<circle cx="443.623" cy="824.023" r="4" fill="#0" id="circle181"/>
	<circle cx="443.623" cy="835.412" r="4" fill="#0" id="circle182"/>
	<circle cx="445.901" cy="972.083" r="4" fill="#0" id="circle183"/>
	<circle cx="449.318" cy="845.662" r="4" fill="#0" id="circle184"/>
	<circle cx="451.596" cy="603.072" r="4" fill="#0" id="circle185"/>
	<circle cx="452.735" cy="222.673" r="4" fill="#0" id="circle186"/>
	<circle cx="452.735" cy="689.63" r="4" fill="#0" id="circle187"/>
	<circle cx="455.013" cy="779.605" r="4" fill="#0" id="circle188"/>
	<circle cx="455.013" cy="855.913" r="4" fill="#0" id="circle189"/>
	<circle cx="455.013" cy="867.302" r="4" fill="#0" id="circle190"/>
	<circle cx="457.29" cy="967.527" r="4" fill="#0" id="circle191"/>
	<circle cx="460.707" cy="877.552" r="4" fill="#0" id="circle192"/>
	<circle cx="462.985" cy="603.072" r="4" fill="#0" id="circle193"/>
	<circle cx="464.124" cy="226.09" r="4" fill="#0" id="circle194"/>
	<circle cx="464.124" cy="694.186" r="4" fill="#0" id="circle195"/>
	<circle cx="464.124" cy="888.941" r="4" fill="#0" id="circle196"/>
	<circle cx="466.402" cy="779.605" r="4" fill="#0" id="circle197"/>
	<circle cx="466.402" cy="900.331" r="4" fill="#0" id="circle198"/>
	<circle cx="468.68" cy="967.527" r="4" fill="#0" id="circle199"/>
	<circle cx="472.096" cy="910.581" r="4" fill="#0" id="circle200"/>
	<circle cx="474.374" cy="607.628" r="4" fill="#0" id="circle201"/>
	<circle cx="475.513" cy="226.09" r="4" fill="#0" id="circle202"/>
	<circle cx="475.513" cy="698.742" r="4" fill="#0" id="circle203"/>
	<circle cx="476.652" cy="773.91" r="4" fill="#0" id="circle204"/>
	<circle cx="477.791" cy="920.831" r="4" fill="#0" id="circle205"/>
	<circle cx="477.791" cy="932.22" r="4" fill="#0" id="circle206"/>
	<circle cx="478.93" cy="961.832" r="4" fill="#0" id="circle207"/>
	<circle cx="483.486" cy="942.471" r="4" fill="#0" id="circle208"/>
	<circle cx="484.625" cy="613.323" r="4" fill="#0" id="circle209"/>
	<circle cx="485.763" cy="704.436" r="4" fill="#0" id="circle210"/>
	<circle cx="485.763" cy="767.077" r="4" fill="#0" id="circle211"/>
	<circle cx="486.902" cy="226.09" r="4" fill="#0" id="circle212"/>
	<circle cx="489.18" cy="426.54" r="4" fill="#0" id="circle213"/>
	<circle cx="489.18" cy="437.929" r="4" fill="#0" id="circle214"/>
	<circle cx="489.18" cy="952.721" r="4" fill="#0" id="circle215"/>
	<circle cx="494.875" cy="448.179" r="4" fill="#0" id="circle216"/>
	<circle cx="496.014" cy="614.462" r="4" fill="#0" id="circle217"/>
	<circle cx="496.014" cy="710.131" r="4" fill="#0" id="circle218"/>
	<circle cx="497.153" cy="220.395" r="4" fill="#0" id="circle219"/>
	<circle cx="497.153" cy="761.382" r="4" fill="#0" id="circle220"/>
	<circle cx="500.569" cy="420.845" r="4" fill="#0" id="circle221"/>
	<circle cx="500.569" cy="458.429" r="4" fill="#0" id="circle222"/>
	<circle cx="506.264" cy="468.68" r="4" fill="#0" id="circle223"/>
	<circle cx="506.264" cy="620.156" r="4" fill="#0" id="circle224"/>
	<circle cx="506.264" cy="715.825" r="4" fill="#0" id="circle225"/>
	<circle cx="508.542" cy="214.7" r="4" fill="#0" id="circle226"/>
	<circle cx="508.542" cy="755.688" r="4" fill="#0" id="circle227"/>
	<circle cx="511.959" cy="415.15" r="4" fill="#0" id="circle228"/>
	<circle cx="511.959" cy="478.93" r="4" fill="#0" id="circle229"/>
	<circle cx="516.514" cy="625.851" r="4" fill="#0" id="circle230"/>
	<circle cx="517.653" cy="719.242" r="4" fill="#0" id="circle231"/>
	<circle cx="517.653" cy="745.437" r="4" fill="#0" id="circle232"/>
	<circle cx="518.792" cy="488.041" r="4" fill="#0" id="circle233"/>
	<circle cx="519.931" cy="214.7" r="4" fill="#0" id="circle234"/>
	<circle cx="522.209" cy="409.456" r="4" fill="#0" id="circle235"/>
	<circle cx="523.348" cy="729.493" r="4" fill="#0" id="circle236"/>
	<circle cx="527.904" cy="496.014" r="4" fill="#0" id="circle237"/>
	<circle cx="527.904" cy="625.851" r="4" fill="#0" id="circle238"/>
	<circle cx="531.32" cy="214.7" r="4" fill="#0" id="circle239"/>
	<circle cx="532.459" cy="403.761" r="4" fill="#0" id="circle240"/>
	<circle cx="534.737" cy="278.48" r="4" fill="#0" id="circle241"/>
	<circle cx="534.737" cy="289.869" r="4" fill="#0" id="circle242"/>
	<circle cx="534.737" cy="301.258" r="4" fill="#0" id="circle243"/>
	<circle cx="538.154" cy="501.708" r="4" fill="#0" id="circle244"/>
	<circle cx="539.293" cy="625.851" r="4" fill="#0" id="circle245"/>
	<circle cx="540.432" cy="267.091" r="4" fill="#0" id="circle246"/>
	<circle cx="540.432" cy="311.509" r="4" fill="#0" id="circle247"/>
	<circle cx="542.71" cy="214.7" r="4" fill="#0" id="circle248"/>
	<circle cx="542.71" cy="396.928" r="4" fill="#0" id="circle249"/>
	<circle cx="543.848" cy="511.959" r="4" fill="#0" id="circle250"/>
	<circle cx="546.126" cy="250.007" r="4" fill="#0" id="circle251"/>
	<circle cx="548.404" cy="385.538" r="4" fill="#0" id="circle252"/>
	<circle cx="548.404" cy="619.017" r="4" fill="#0" id="circle253"/>
	<circle cx="549.543" cy="318.342" r="4" fill="#0" id="circle254"/>
	<circle cx="550.682" cy="223.812" r="4" fill="#0" id="circle255"/>
	<circle cx="551.821" cy="235.201" r="4" fill="#0" id="circle256"/>
	<circle cx="551.821" cy="521.07" r="4" fill="#0" id="circle257"/>
	<circle cx="557.515" cy="327.454" r="4" fill="#0" id="circle258"/>
	<circle cx="557.515" cy="375.288" r="4" fill="#0" id="circle259"/>
	<circle cx="557.515" cy="531.32" r="4" fill="#0" id="circle260"/>
	<circle cx="557.515" cy="608.767" r="4" fill="#0" id="circle261"/>
	<circle cx="562.071" cy="542.71" r="4" fill="#0" id="circle262"/>
	<circle cx="563.21" cy="337.704" r="4" fill="#0" id="circle263"/>
	<circle cx="563.21" cy="349.093" r="4" fill="#0" id="circle264"/>
	<circle cx="563.21" cy="360.482" r="4" fill="#0" id="circle265"/>
	<circle cx="563.21" cy="554.099" r="4" fill="#0" id="circle266"/>
	<circle cx="563.21" cy="565.488" r="4" fill="#0" id="circle267"/>
	<circle cx="563.21" cy="576.877" r="4" fill="#0" id="circle268"/>
	<circle cx="563.21" cy="588.266" r="4" fill="#0" id="circle269"/>
	</g>
</svg>