<?xml version="1.0" encoding="UTF-8" standalone="no"?>
<!-- Created with CurveBenchmark -->
<svg
	xmlns:dc="http://purl.org/dc/elements/1.1/"
	xmlns:cc="http://creativecommons.org/ns#"
	xmlns:rdf="http://www.w3.org/1999/02/22-rdf-syntax-ns#"
	xmlns:svg="http://www.w3.org/2000/svg"
	xmlns="http://www.w3.org/2000/svg"
	xmlns:sodipodi="http://sodipodi.sourceforge.net/DTD/sodipodi-0.dtd"
	xmlns:inkscape="http://www.inkscape.org/namespaces/inkscape"
	width="1000"
	height="1000"
	id="svg2"
	version="1.1"
	sodipodi:docname="manifold/nncrust-teddy195.png.txt">
<defs
	id="defs4" />
<metadata
	id="metadata7">
	<rdf:RDF>
		<cc:Work
			rdf:about="">
			<dc:format>image/svg+xml</dc:format>
			<dc:type
				rdf:resource="http://purl.org/dc/dcmitype/StillImage" />
			<dc:title></dc:title>
		</cc:Work>
	</rdf:RDF>
</metadata>
<g
	inkscape:label="Layer 1"
	inkscape:groupmode="layer"
	id="layer1">
	<path style="fill:none;stroke:red;stroke-width:1px;stroke-linecap:butt;stroke-linejoin:miter;stroke-opacity:1" d="M 83.1339,60.5242 83.1339,88.7863 z" id="boundary" inkscape:connector-curvature="0" />
	<path style="fill:none;stroke:red;stroke-width:1px;stroke-linecap:butt;stroke-linejoin:miter;stroke-opacity:1" d="M 88.7863,117.048 83.1339,88.7863 z" id="boundary" inkscape:connector-curvature="0" />
	<path style="fill:none;stroke:red;stroke-width:1px;stroke-linecap:butt;stroke-linejoin:miter;stroke-opacity:1" d="M 88.7863,117.048 97.265,145.311 z" id="boundary" inkscape:connector-curvature="0" />
	<path style="fill:none;stroke:red;stroke-width:1px;stroke-linecap:butt;stroke-linejoin:miter;stroke-opacity:1" d="M 83.1339,60.5242 100.091,37.9145 z" id="boundary" inkscape:connector-curvature="0" />
	<path style="fill:none;stroke:red;stroke-width:1px;stroke-linecap:butt;stroke-linejoin:miter;stroke-opacity:1" d="M 111.396,170.746 97.265,145.311 z" id="boundary" inkscape:connector-curvature="0" />
	<path style="fill:none;stroke:red;stroke-width:1px;stroke-linecap:butt;stroke-linejoin:miter;stroke-opacity:1" d="M 122.701,199.009 111.396,170.746 z" id="boundary" inkscape:connector-curvature="0" />
	<path style="fill:none;stroke:red;stroke-width:1px;stroke-linecap:butt;stroke-linejoin:miter;stroke-opacity:1" d="M 122.701,20.9573 150.963,9.65242 z" id="boundary" inkscape:connector-curvature="0" />
	<path style="fill:none;stroke:red;stroke-width:1px;stroke-linecap:butt;stroke-linejoin:miter;stroke-opacity:1" d="M 100.091,37.9145 122.701,20.9573 z" id="boundary" inkscape:connector-curvature="0" />
	<path style="fill:none;stroke:red;stroke-width:1px;stroke-linecap:butt;stroke-linejoin:miter;stroke-opacity:1" d="M 122.701,199.009 122.701,227.271 z" id="boundary" inkscape:connector-curvature="0" />
	<path style="fill:none;stroke:red;stroke-width:1px;stroke-linecap:butt;stroke-linejoin:miter;stroke-opacity:1" d="M 71.8291,405.322 49.2194,427.932 z" id="boundary" inkscape:connector-curvature="0" />
	<path style="fill:none;stroke:red;stroke-width:1px;stroke-linecap:butt;stroke-linejoin:miter;stroke-opacity:1" d="M 15.3048,478.803 26.6097,450.541 z" id="boundary" inkscape:connector-curvature="0" />
	<path style="fill:none;stroke:red;stroke-width:1px;stroke-linecap:butt;stroke-linejoin:miter;stroke-opacity:1" d="M 26.6097,450.541 49.2194,427.932 z" id="boundary" inkscape:connector-curvature="0" />
	<path style="fill:none;stroke:red;stroke-width:1px;stroke-linecap:butt;stroke-linejoin:miter;stroke-opacity:1" d="M 71.8291,405.322 100.091,394.017 z" id="boundary" inkscape:connector-curvature="0" />
	<path style="fill:none;stroke:red;stroke-width:1px;stroke-linecap:butt;stroke-linejoin:miter;stroke-opacity:1" d="M 122.701,255.533 122.701,283.795 z" id="boundary" inkscape:connector-curvature="0" />
	<path style="fill:none;stroke:red;stroke-width:1px;stroke-linecap:butt;stroke-linejoin:miter;stroke-opacity:1" d="M 122.701,255.533 122.701,227.271 z" id="boundary" inkscape:connector-curvature="0" />
	<path style="fill:none;stroke:red;stroke-width:1px;stroke-linecap:butt;stroke-linejoin:miter;stroke-opacity:1" d="M 122.701,283.795 128.353,312.057 z" id="boundary" inkscape:connector-curvature="0" />
	<path style="fill:none;stroke:red;stroke-width:1px;stroke-linecap:butt;stroke-linejoin:miter;stroke-opacity:1" d="M 15.3048,478.803 4,512.718 z" id="boundary" inkscape:connector-curvature="0" />
	<path style="fill:none;stroke:red;stroke-width:1px;stroke-linecap:butt;stroke-linejoin:miter;stroke-opacity:1" d="M 150.963,9.65242 179.225,4 z" id="boundary" inkscape:connector-curvature="0" />
	<path style="fill:none;stroke:red;stroke-width:1px;stroke-linecap:butt;stroke-linejoin:miter;stroke-opacity:1" d="M 179.225,4 207.487,9.65242 z" id="boundary" inkscape:connector-curvature="0" />
	<path style="fill:none;stroke:red;stroke-width:1px;stroke-linecap:butt;stroke-linejoin:miter;stroke-opacity:1" d="M 207.487,9.65242 235.749,18.1311 z" id="boundary" inkscape:connector-curvature="0" />
	<path style="fill:none;stroke:red;stroke-width:1px;stroke-linecap:butt;stroke-linejoin:miter;stroke-opacity:1" d="M 484.456,9.65242 456.194,15.3048 z" id="boundary" inkscape:connector-curvature="0" />
	<path style="fill:none;stroke:red;stroke-width:1px;stroke-linecap:butt;stroke-linejoin:miter;stroke-opacity:1" d="M 235.749,18.1311 261.185,32.2621 z" id="boundary" inkscape:connector-curvature="0" />
	<path style="fill:none;stroke:red;stroke-width:1px;stroke-linecap:butt;stroke-linejoin:miter;stroke-opacity:1" d="M 261.185,32.2621 289.447,43.567 z" id="boundary" inkscape:connector-curvature="0" />
	<path style="fill:none;stroke:red;stroke-width:1px;stroke-linecap:butt;stroke-linejoin:miter;stroke-opacity:1" d="M 317.709,43.567 289.447,43.567 z" id="boundary" inkscape:connector-curvature="0" />
	<path style="fill:none;stroke:red;stroke-width:1px;stroke-linecap:butt;stroke-linejoin:miter;stroke-opacity:1" d="M 456.194,15.3048 430.758,29.4359 z" id="boundary" inkscape:connector-curvature="0" />
	<path style="fill:none;stroke:red;stroke-width:1px;stroke-linecap:butt;stroke-linejoin:miter;stroke-opacity:1" d="M 128.353,382.712 100.091,394.017 z" id="boundary" inkscape:connector-curvature="0" />
	<path style="fill:none;stroke:red;stroke-width:1px;stroke-linecap:butt;stroke-linejoin:miter;stroke-opacity:1" d="M 153.789,365.755 139.658,340.319 z" id="boundary" inkscape:connector-curvature="0" />
	<path style="fill:none;stroke:red;stroke-width:1px;stroke-linecap:butt;stroke-linejoin:miter;stroke-opacity:1" d="M 153.789,365.755 128.353,382.712 z" id="boundary" inkscape:connector-curvature="0" />
	<path style="fill:none;stroke:red;stroke-width:1px;stroke-linecap:butt;stroke-linejoin:miter;stroke-opacity:1" d="M 139.658,340.319 128.353,312.057 z" id="boundary" inkscape:connector-curvature="0" />
	<path style="fill:none;stroke:red;stroke-width:1px;stroke-linecap:butt;stroke-linejoin:miter;stroke-opacity:1" d="M 345.972,43.567 317.709,43.567 z" id="boundary" inkscape:connector-curvature="0" />
	<path style="fill:none;stroke:red;stroke-width:1px;stroke-linecap:butt;stroke-linejoin:miter;stroke-opacity:1" d="M 345.972,43.567 374.234,43.567 z" id="boundary" inkscape:connector-curvature="0" />
	<path style="fill:none;stroke:red;stroke-width:1px;stroke-linecap:butt;stroke-linejoin:miter;stroke-opacity:1" d="M 402.496,43.567 374.234,43.567 z" id="boundary" inkscape:connector-curvature="0" />
	<path style="fill:none;stroke:red;stroke-width:1px;stroke-linecap:butt;stroke-linejoin:miter;stroke-opacity:1" d="M 430.758,29.4359 402.496,43.567 z" id="boundary" inkscape:connector-curvature="0" />
	<path style="fill:none;stroke:red;stroke-width:1px;stroke-linecap:butt;stroke-linejoin:miter;stroke-opacity:1" d="M 4,540.98 4,512.718 z" id="boundary" inkscape:connector-curvature="0" />
	<path style="fill:none;stroke:red;stroke-width:1px;stroke-linecap:butt;stroke-linejoin:miter;stroke-opacity:1" d="M 9.65242,569.242 26.6097,591.852 z" id="boundary" inkscape:connector-curvature="0" />
	<path style="fill:none;stroke:red;stroke-width:1px;stroke-linecap:butt;stroke-linejoin:miter;stroke-opacity:1" d="M 9.65242,569.242 4,540.98 z" id="boundary" inkscape:connector-curvature="0" />
	<path style="fill:none;stroke:red;stroke-width:1px;stroke-linecap:butt;stroke-linejoin:miter;stroke-opacity:1" d="M 46.3932,614.462 69.0028,634.245 z" id="boundary" inkscape:connector-curvature="0" />
	<path style="fill:none;stroke:red;stroke-width:1px;stroke-linecap:butt;stroke-linejoin:miter;stroke-opacity:1" d="M 122.701,750.12 100.091,772.729 z" id="boundary" inkscape:connector-curvature="0" />
	<path style="fill:none;stroke:red;stroke-width:1px;stroke-linecap:butt;stroke-linejoin:miter;stroke-opacity:1" d="M 46.3932,614.462 26.6097,591.852 z" id="boundary" inkscape:connector-curvature="0" />
	<path style="fill:none;stroke:red;stroke-width:1px;stroke-linecap:butt;stroke-linejoin:miter;stroke-opacity:1" d="M 148.137,668.16 119.875,662.507 z" id="boundary" inkscape:connector-curvature="0" />
	<path style="fill:none;stroke:red;stroke-width:1px;stroke-linecap:butt;stroke-linejoin:miter;stroke-opacity:1" d="M 119.875,662.507 94.4387,648.376 z" id="boundary" inkscape:connector-curvature="0" />
	<path style="fill:none;stroke:red;stroke-width:1px;stroke-linecap:butt;stroke-linejoin:miter;stroke-opacity:1" d="M 69.0028,634.245 94.4387,648.376 z" id="boundary" inkscape:connector-curvature="0" />
	<path style="fill:none;stroke:red;stroke-width:1px;stroke-linecap:butt;stroke-linejoin:miter;stroke-opacity:1" d="M 77.4815,851.863 77.4815,880.125 z" id="boundary" inkscape:connector-curvature="0" />
	<path style="fill:none;stroke:red;stroke-width:1px;stroke-linecap:butt;stroke-linejoin:miter;stroke-opacity:1" d="M 77.4815,851.863 88.7863,812.296 z" id="boundary" inkscape:connector-curvature="0" />
	<path style="fill:none;stroke:red;stroke-width:1px;stroke-linecap:butt;stroke-linejoin:miter;stroke-opacity:1" d="M 77.4815,908.387 77.4815,936.65 z" id="boundary" inkscape:connector-curvature="0" />
	<path style="fill:none;stroke:red;stroke-width:1px;stroke-linecap:butt;stroke-linejoin:miter;stroke-opacity:1" d="M 77.4815,880.125 77.4815,908.387 z" id="boundary" inkscape:connector-curvature="0" />
	<path style="fill:none;stroke:red;stroke-width:1px;stroke-linecap:butt;stroke-linejoin:miter;stroke-opacity:1" d="M 100.091,772.729 88.7863,812.296 z" id="boundary" inkscape:connector-curvature="0" />
	<path style="fill:none;stroke:red;stroke-width:1px;stroke-linecap:butt;stroke-linejoin:miter;stroke-opacity:1" d="M 85.9601,964.912 77.4815,936.65 z" id="boundary" inkscape:connector-curvature="0" />
	<path style="fill:none;stroke:red;stroke-width:1px;stroke-linecap:butt;stroke-linejoin:miter;stroke-opacity:1" d="M 108.57,981.869 85.9601,964.912 z" id="boundary" inkscape:connector-curvature="0" />
	<path style="fill:none;stroke:red;stroke-width:1px;stroke-linecap:butt;stroke-linejoin:miter;stroke-opacity:1" d="M 150.963,699.248 148.137,735.989 z" id="boundary" inkscape:connector-curvature="0" />
	<path style="fill:none;stroke:red;stroke-width:1px;stroke-linecap:butt;stroke-linejoin:miter;stroke-opacity:1" d="M 148.137,735.989 122.701,750.12 z" id="boundary" inkscape:connector-curvature="0" />
	<path style="fill:none;stroke:red;stroke-width:1px;stroke-linecap:butt;stroke-linejoin:miter;stroke-opacity:1" d="M 134.006,996 108.57,981.869 z" id="boundary" inkscape:connector-curvature="0" />
	<path style="fill:none;stroke:red;stroke-width:1px;stroke-linecap:butt;stroke-linejoin:miter;stroke-opacity:1" d="M 162.268,996 134.006,996 z" id="boundary" inkscape:connector-curvature="0" />
	<path style="fill:none;stroke:red;stroke-width:1px;stroke-linecap:butt;stroke-linejoin:miter;stroke-opacity:1" d="M 148.137,668.16 150.963,699.248 z" id="boundary" inkscape:connector-curvature="0" />
	<path style="fill:none;stroke:red;stroke-width:1px;stroke-linecap:butt;stroke-linejoin:miter;stroke-opacity:1" d="M 444.889,990.348 416.627,990.348 z" id="boundary" inkscape:connector-curvature="0" />
	<path style="fill:none;stroke:red;stroke-width:1px;stroke-linecap:butt;stroke-linejoin:miter;stroke-opacity:1" d="M 473.151,984.695 444.889,990.348 z" id="boundary" inkscape:connector-curvature="0" />
	<path style="fill:none;stroke:red;stroke-width:1px;stroke-linecap:butt;stroke-linejoin:miter;stroke-opacity:1" d="M 388.365,996 416.627,990.348 z" id="boundary" inkscape:connector-curvature="0" />
	<path style="fill:none;stroke:red;stroke-width:1px;stroke-linecap:butt;stroke-linejoin:miter;stroke-opacity:1" d="M 190.53,996 162.268,996 z" id="boundary" inkscape:connector-curvature="0" />
	<path style="fill:none;stroke:red;stroke-width:1px;stroke-linecap:butt;stroke-linejoin:miter;stroke-opacity:1" d="M 247.054,996 218.792,996 z" id="boundary" inkscape:connector-curvature="0" />
	<path style="fill:none;stroke:red;stroke-width:1px;stroke-linecap:butt;stroke-linejoin:miter;stroke-opacity:1" d="M 218.792,996 190.53,996 z" id="boundary" inkscape:connector-curvature="0" />
	<path style="fill:none;stroke:red;stroke-width:1px;stroke-linecap:butt;stroke-linejoin:miter;stroke-opacity:1" d="M 303.578,996 275.316,996 z" id="boundary" inkscape:connector-curvature="0" />
	<path style="fill:none;stroke:red;stroke-width:1px;stroke-linecap:butt;stroke-linejoin:miter;stroke-opacity:1" d="M 360.103,996 331.84,996 z" id="boundary" inkscape:connector-curvature="0" />
	<path style="fill:none;stroke:red;stroke-width:1px;stroke-linecap:butt;stroke-linejoin:miter;stroke-opacity:1" d="M 388.365,996 360.103,996 z" id="boundary" inkscape:connector-curvature="0" />
	<path style="fill:none;stroke:red;stroke-width:1px;stroke-linecap:butt;stroke-linejoin:miter;stroke-opacity:1" d="M 331.84,996 303.578,996 z" id="boundary" inkscape:connector-curvature="0" />
	<path style="fill:none;stroke:red;stroke-width:1px;stroke-linecap:butt;stroke-linejoin:miter;stroke-opacity:1" d="M 275.316,996 247.054,996 z" id="boundary" inkscape:connector-curvature="0" />
	<path style="fill:none;stroke:red;stroke-width:1px;stroke-linecap:butt;stroke-linejoin:miter;stroke-opacity:1" d="M 484.456,9.65242 512.718,4 z" id="boundary" inkscape:connector-curvature="0" />
	<path style="fill:none;stroke:red;stroke-width:1px;stroke-linecap:butt;stroke-linejoin:miter;stroke-opacity:1" d="M 512.718,4 540.98,12.4786 z" id="boundary" inkscape:connector-curvature="0" />
	<path style="fill:none;stroke:red;stroke-width:1px;stroke-linecap:butt;stroke-linejoin:miter;stroke-opacity:1" d="M 540.98,12.4786 569.242,23.7835 z" id="boundary" inkscape:connector-curvature="0" />
	<path style="fill:none;stroke:red;stroke-width:1px;stroke-linecap:butt;stroke-linejoin:miter;stroke-opacity:1" d="M 569.242,23.7835 589.026,46.3932 z" id="boundary" inkscape:connector-curvature="0" />
	<path style="fill:none;stroke:red;stroke-width:1px;stroke-linecap:butt;stroke-linejoin:miter;stroke-opacity:1" d="M 589.026,46.3932 600.33,74.6553 z" id="boundary" inkscape:connector-curvature="0" />
	<path style="fill:none;stroke:red;stroke-width:1px;stroke-linecap:butt;stroke-linejoin:miter;stroke-opacity:1" d="M 600.33,74.6553 594.678,117.048 z" id="boundary" inkscape:connector-curvature="0" />
	<path style="fill:none;stroke:red;stroke-width:1px;stroke-linecap:butt;stroke-linejoin:miter;stroke-opacity:1" d="M 583.373,150.963 594.678,117.048 z" id="boundary" inkscape:connector-curvature="0" />
	<path style="fill:none;stroke:red;stroke-width:1px;stroke-linecap:butt;stroke-linejoin:miter;stroke-opacity:1" d="M 583.373,150.963 574.895,187.704 z" id="boundary" inkscape:connector-curvature="0" />
	<path style="fill:none;stroke:red;stroke-width:1px;stroke-linecap:butt;stroke-linejoin:miter;stroke-opacity:1" d="M 577.721,215.966 574.895,187.704 z" id="boundary" inkscape:connector-curvature="0" />
	<path style="fill:none;stroke:red;stroke-width:1px;stroke-linecap:butt;stroke-linejoin:miter;stroke-opacity:1" d="M 552.285,368.581 566.416,337.493 z" id="boundary" inkscape:connector-curvature="0" />
	<path style="fill:none;stroke:red;stroke-width:1px;stroke-linecap:butt;stroke-linejoin:miter;stroke-opacity:1" d="M 577.721,382.712 552.285,368.581 z" id="boundary" inkscape:connector-curvature="0" />
	<path style="fill:none;stroke:red;stroke-width:1px;stroke-linecap:butt;stroke-linejoin:miter;stroke-opacity:1" d="M 583.373,272.49 577.721,309.231 z" id="boundary" inkscape:connector-curvature="0" />
	<path style="fill:none;stroke:red;stroke-width:1px;stroke-linecap:butt;stroke-linejoin:miter;stroke-opacity:1" d="M 577.721,309.231 566.416,337.493 z" id="boundary" inkscape:connector-curvature="0" />
	<path style="fill:none;stroke:red;stroke-width:1px;stroke-linecap:butt;stroke-linejoin:miter;stroke-opacity:1" d="M 583.373,272.49 583.373,244.228 z" id="boundary" inkscape:connector-curvature="0" />
	<path style="fill:none;stroke:red;stroke-width:1px;stroke-linecap:butt;stroke-linejoin:miter;stroke-opacity:1" d="M 605.983,382.712 577.721,382.712 z" id="boundary" inkscape:connector-curvature="0" />
	<path style="fill:none;stroke:red;stroke-width:1px;stroke-linecap:butt;stroke-linejoin:miter;stroke-opacity:1" d="M 577.721,215.966 583.373,244.228 z" id="boundary" inkscape:connector-curvature="0" />
	<path style="fill:none;stroke:red;stroke-width:1px;stroke-linecap:butt;stroke-linejoin:miter;stroke-opacity:1" d="M 634.245,394.017 605.983,382.712 z" id="boundary" inkscape:connector-curvature="0" />
	<path style="fill:none;stroke:red;stroke-width:1px;stroke-linecap:butt;stroke-linejoin:miter;stroke-opacity:1" d="M 662.507,405.322 679.464,427.932 z" id="boundary" inkscape:connector-curvature="0" />
	<path style="fill:none;stroke:red;stroke-width:1px;stroke-linecap:butt;stroke-linejoin:miter;stroke-opacity:1" d="M 634.245,394.017 662.507,405.322 z" id="boundary" inkscape:connector-curvature="0" />
	<path style="fill:none;stroke:red;stroke-width:1px;stroke-linecap:butt;stroke-linejoin:miter;stroke-opacity:1" d="M 707.726,427.932 679.464,427.932 z" id="boundary" inkscape:connector-curvature="0" />
	<path style="fill:none;stroke:red;stroke-width:1px;stroke-linecap:butt;stroke-linejoin:miter;stroke-opacity:1" d="M 735.989,433.584 707.726,427.932 z" id="boundary" inkscape:connector-curvature="0" />
	<path style="fill:none;stroke:red;stroke-width:1px;stroke-linecap:butt;stroke-linejoin:miter;stroke-opacity:1" d="M 735.989,433.584 764.251,439.236 z" id="boundary" inkscape:connector-curvature="0" />
	<path style="fill:none;stroke:red;stroke-width:1px;stroke-linecap:butt;stroke-linejoin:miter;stroke-opacity:1" d="M 792.513,444.889 764.251,439.236 z" id="boundary" inkscape:connector-curvature="0" />
	<path style="fill:none;stroke:red;stroke-width:1px;stroke-linecap:butt;stroke-linejoin:miter;stroke-opacity:1" d="M 784.034,617.288 809.47,603.157 z" id="boundary" inkscape:connector-curvature="0" />
	<path style="fill:none;stroke:red;stroke-width:1px;stroke-linecap:butt;stroke-linejoin:miter;stroke-opacity:1" d="M 826.427,580.547 809.47,603.157 z" id="boundary" inkscape:connector-curvature="0" />
	<path style="fill:none;stroke:red;stroke-width:1px;stroke-linecap:butt;stroke-linejoin:miter;stroke-opacity:1" d="M 730.336,642.724 758.598,631.419 z" id="boundary" inkscape:connector-curvature="0" />
	<path style="fill:none;stroke:red;stroke-width:1px;stroke-linecap:butt;stroke-linejoin:miter;stroke-opacity:1" d="M 784.034,617.288 758.598,631.419 z" id="boundary" inkscape:connector-curvature="0" />
	<path style="fill:none;stroke:red;stroke-width:1px;stroke-linecap:butt;stroke-linejoin:miter;stroke-opacity:1" d="M 837.732,478.803 843.385,507.066 z" id="boundary" inkscape:connector-curvature="0" />
	<path style="fill:none;stroke:red;stroke-width:1px;stroke-linecap:butt;stroke-linejoin:miter;stroke-opacity:1" d="M 837.732,478.803 820.775,456.194 z" id="boundary" inkscape:connector-curvature="0" />
	<path style="fill:none;stroke:red;stroke-width:1px;stroke-linecap:butt;stroke-linejoin:miter;stroke-opacity:1" d="M 843.385,507.066 840.558,555.111 z" id="boundary" inkscape:connector-curvature="0" />
	<path style="fill:none;stroke:red;stroke-width:1px;stroke-linecap:butt;stroke-linejoin:miter;stroke-opacity:1" d="M 840.558,555.111 826.427,580.547 z" id="boundary" inkscape:connector-curvature="0" />
	<path style="fill:none;stroke:red;stroke-width:1px;stroke-linecap:butt;stroke-linejoin:miter;stroke-opacity:1" d="M 792.513,444.889 820.775,456.194 z" id="boundary" inkscape:connector-curvature="0" />
	<path style="fill:none;stroke:red;stroke-width:1px;stroke-linecap:butt;stroke-linejoin:miter;stroke-opacity:1" d="M 730.336,642.724 702.074,651.202 z" id="boundary" inkscape:connector-curvature="0" />
	<path style="fill:none;stroke:red;stroke-width:1px;stroke-linecap:butt;stroke-linejoin:miter;stroke-opacity:1" d="M 594.678,676.638 617.288,659.681 z" id="boundary" inkscape:connector-curvature="0" />
	<path style="fill:none;stroke:red;stroke-width:1px;stroke-linecap:butt;stroke-linejoin:miter;stroke-opacity:1" d="M 600.33,704.9 594.678,676.638 z" id="boundary" inkscape:connector-curvature="0" />
	<path style="fill:none;stroke:red;stroke-width:1px;stroke-linecap:butt;stroke-linejoin:miter;stroke-opacity:1" d="M 600.33,704.9 628.593,716.205 z" id="boundary" inkscape:connector-curvature="0" />
	<path style="fill:none;stroke:red;stroke-width:1px;stroke-linecap:butt;stroke-linejoin:miter;stroke-opacity:1" d="M 617.288,659.681 645.55,656.855 z" id="boundary" inkscape:connector-curvature="0" />
	<path style="fill:none;stroke:red;stroke-width:1px;stroke-linecap:butt;stroke-linejoin:miter;stroke-opacity:1" d="M 501.413,979.043 473.151,984.695 z" id="boundary" inkscape:connector-curvature="0" />
	<path style="fill:none;stroke:red;stroke-width:1px;stroke-linecap:butt;stroke-linejoin:miter;stroke-opacity:1" d="M 645.55,656.855 673.812,659.681 z" id="boundary" inkscape:connector-curvature="0" />
	<path style="fill:none;stroke:red;stroke-width:1px;stroke-linecap:butt;stroke-linejoin:miter;stroke-opacity:1" d="M 702.074,651.202 673.812,659.681 z" id="boundary" inkscape:connector-curvature="0" />
	<path style="fill:none;stroke:red;stroke-width:1px;stroke-linecap:butt;stroke-linejoin:miter;stroke-opacity:1" d="M 656.855,727.51 685.117,733.162 z" id="boundary" inkscape:connector-curvature="0" />
	<path style="fill:none;stroke:red;stroke-width:1px;stroke-linecap:butt;stroke-linejoin:miter;stroke-opacity:1" d="M 713.379,727.51 685.117,733.162 z" id="boundary" inkscape:connector-curvature="0" />
	<path style="fill:none;stroke:red;stroke-width:1px;stroke-linecap:butt;stroke-linejoin:miter;stroke-opacity:1" d="M 656.855,727.51 628.593,716.205 z" id="boundary" inkscape:connector-curvature="0" />
	<path style="fill:none;stroke:red;stroke-width:1px;stroke-linecap:butt;stroke-linejoin:miter;stroke-opacity:1" d="M 557.937,973.39 529.675,973.39 z" id="boundary" inkscape:connector-curvature="0" />
	<path style="fill:none;stroke:red;stroke-width:1px;stroke-linecap:butt;stroke-linejoin:miter;stroke-opacity:1" d="M 586.199,967.738 557.937,973.39 z" id="boundary" inkscape:connector-curvature="0" />
	<path style="fill:none;stroke:red;stroke-width:1px;stroke-linecap:butt;stroke-linejoin:miter;stroke-opacity:1" d="M 501.413,979.043 529.675,973.39 z" id="boundary" inkscape:connector-curvature="0" />
	<path style="fill:none;stroke:red;stroke-width:1px;stroke-linecap:butt;stroke-linejoin:miter;stroke-opacity:1" d="M 586.199,967.738 614.462,973.39 z" id="boundary" inkscape:connector-curvature="0" />
	<path style="fill:none;stroke:red;stroke-width:1px;stroke-linecap:butt;stroke-linejoin:miter;stroke-opacity:1" d="M 614.462,973.39 642.724,984.695 z" id="boundary" inkscape:connector-curvature="0" />
	<path style="fill:none;stroke:red;stroke-width:1px;stroke-linecap:butt;stroke-linejoin:miter;stroke-opacity:1" d="M 699.248,996 670.986,996 z" id="boundary" inkscape:connector-curvature="0" />
	<path style="fill:none;stroke:red;stroke-width:1px;stroke-linecap:butt;stroke-linejoin:miter;stroke-opacity:1" d="M 670.986,996 642.724,984.695 z" id="boundary" inkscape:connector-curvature="0" />
	<path style="fill:none;stroke:red;stroke-width:1px;stroke-linecap:butt;stroke-linejoin:miter;stroke-opacity:1" d="M 727.51,996 699.248,996 z" id="boundary" inkscape:connector-curvature="0" />
	<path style="fill:none;stroke:red;stroke-width:1px;stroke-linecap:butt;stroke-linejoin:miter;stroke-opacity:1" d="M 741.641,727.51 713.379,727.51 z" id="boundary" inkscape:connector-curvature="0" />
	<path style="fill:none;stroke:red;stroke-width:1px;stroke-linecap:butt;stroke-linejoin:miter;stroke-opacity:1" d="M 741.641,727.51 769.903,727.51 z" id="boundary" inkscape:connector-curvature="0" />
	<path style="fill:none;stroke:red;stroke-width:1px;stroke-linecap:butt;stroke-linejoin:miter;stroke-opacity:1" d="M 798.165,727.51 769.903,727.51 z" id="boundary" inkscape:connector-curvature="0" />
	<path style="fill:none;stroke:red;stroke-width:1px;stroke-linecap:butt;stroke-linejoin:miter;stroke-opacity:1" d="M 843.385,761.425 854.689,789.687 z" id="boundary" inkscape:connector-curvature="0" />
	<path style="fill:none;stroke:red;stroke-width:1px;stroke-linecap:butt;stroke-linejoin:miter;stroke-opacity:1" d="M 820.775,744.467 843.385,761.425 z" id="boundary" inkscape:connector-curvature="0" />
	<path style="fill:none;stroke:red;stroke-width:1px;stroke-linecap:butt;stroke-linejoin:miter;stroke-opacity:1" d="M 820.775,744.467 798.165,727.51 z" id="boundary" inkscape:connector-curvature="0" />
	<path style="fill:none;stroke:red;stroke-width:1px;stroke-linecap:butt;stroke-linejoin:miter;stroke-opacity:1" d="M 854.689,789.687 863.168,817.949 z" id="boundary" inkscape:connector-curvature="0" />
	<path style="fill:none;stroke:red;stroke-width:1px;stroke-linecap:butt;stroke-linejoin:miter;stroke-opacity:1" d="M 812.296,979.043 784.034,990.348 z" id="boundary" inkscape:connector-curvature="0" />
	<path style="fill:none;stroke:red;stroke-width:1px;stroke-linecap:butt;stroke-linejoin:miter;stroke-opacity:1" d="M 784.034,990.348 755.772,996 z" id="boundary" inkscape:connector-curvature="0" />
	<path style="fill:none;stroke:red;stroke-width:1px;stroke-linecap:butt;stroke-linejoin:miter;stroke-opacity:1" d="M 755.772,996 727.51,996 z" id="boundary" inkscape:connector-curvature="0" />
	<path style="fill:none;stroke:red;stroke-width:1px;stroke-linecap:butt;stroke-linejoin:miter;stroke-opacity:1" d="M 863.168,817.949 871.647,846.211 z" id="boundary" inkscape:connector-curvature="0" />
	<path style="fill:none;stroke:red;stroke-width:1px;stroke-linecap:butt;stroke-linejoin:miter;stroke-opacity:1" d="M 871.647,846.211 865.994,897.083 z" id="boundary" inkscape:connector-curvature="0" />
	<path style="fill:none;stroke:red;stroke-width:1px;stroke-linecap:butt;stroke-linejoin:miter;stroke-opacity:1" d="M 865.994,897.083 857.516,945.128 z" id="boundary" inkscape:connector-curvature="0" />
	<path style="fill:none;stroke:red;stroke-width:1px;stroke-linecap:butt;stroke-linejoin:miter;stroke-opacity:1" d="M 857.516,945.128 834.906,962.085 z" id="boundary" inkscape:connector-curvature="0" />
	<path style="fill:none;stroke:red;stroke-width:1px;stroke-linecap:butt;stroke-linejoin:miter;stroke-opacity:1" d="M 834.906,962.085 812.296,979.043 z" id="boundary" inkscape:connector-curvature="0" />
	<circle cx="4" cy="512.718" r="4" fill="#0" id="circle0"/>
	<circle cx="4" cy="540.98" r="4" fill="#0" id="circle1"/>
	<circle cx="9.65242" cy="569.242" r="4" fill="#0" id="circle2"/>
	<circle cx="15.3048" cy="478.803" r="4" fill="#0" id="circle3"/>
	<circle cx="26.6097" cy="450.541" r="4" fill="#0" id="circle4"/>
	<circle cx="26.6097" cy="591.852" r="4" fill="#0" id="circle5"/>
	<circle cx="46.3932" cy="614.462" r="4" fill="#0" id="circle6"/>
	<circle cx="49.2194" cy="427.932" r="4" fill="#0" id="circle7"/>
	<circle cx="69.0028" cy="634.245" r="4" fill="#0" id="circle8"/>
	<circle cx="71.8291" cy="405.322" r="4" fill="#0" id="circle9"/>
	<circle cx="77.4815" cy="851.863" r="4" fill="#0" id="circle10"/>
	<circle cx="77.4815" cy="880.125" r="4" fill="#0" id="circle11"/>
	<circle cx="77.4815" cy="908.387" r="4" fill="#0" id="circle12"/>
	<circle cx="77.4815" cy="936.65" r="4" fill="#0" id="circle13"/>
	<circle cx="83.1339" cy="60.5242" r="4" fill="#0" id="circle14"/>
	<circle cx="83.1339" cy="88.7863" r="4" fill="#0" id="circle15"/>
	<circle cx="85.9601" cy="964.912" r="4" fill="#0" id="circle16"/>
	<circle cx="88.7863" cy="117.048" r="4" fill="#0" id="circle17"/>
	<circle cx="88.7863" cy="812.296" r="4" fill="#0" id="circle18"/>
	<circle cx="94.4387" cy="648.376" r="4" fill="#0" id="circle19"/>
	<circle cx="97.265" cy="145.311" r="4" fill="#0" id="circle20"/>
	<circle cx="100.091" cy="37.9145" r="4" fill="#0" id="circle21"/>
	<circle cx="100.091" cy="394.017" r="4" fill="#0" id="circle22"/>
	<circle cx="100.091" cy="772.729" r="4" fill="#0" id="circle23"/>
	<circle cx="108.57" cy="981.869" r="4" fill="#0" id="circle24"/>
	<circle cx="111.396" cy="170.746" r="4" fill="#0" id="circle25"/>
	<circle cx="119.875" cy="662.507" r="4" fill="#0" id="circle26"/>
	<circle cx="122.701" cy="20.9573" r="4" fill="#0" id="circle27"/>
	<circle cx="122.701" cy="199.009" r="4" fill="#0" id="circle28"/>
	<circle cx="122.701" cy="227.271" r="4" fill="#0" id="circle29"/>
	<circle cx="122.701" cy="255.533" r="4" fill="#0" id="circle30"/>
	<circle cx="122.701" cy="283.795" r="4" fill="#0" id="circle31"/>
	<circle cx="122.701" cy="750.12" r="4" fill="#0" id="circle32"/>
	<circle cx="128.353" cy="312.057" r="4" fill="#0" id="circle33"/>
	<circle cx="128.353" cy="382.712" r="4" fill="#0" id="circle34"/>
	<circle cx="134.006" cy="996" r="4" fill="#0" id="circle35"/>
	<circle cx="139.658" cy="340.319" r="4" fill="#0" id="circle36"/>
	<circle cx="148.137" cy="668.16" r="4" fill="#0" id="circle37"/>
	<circle cx="148.137" cy="735.989" r="4" fill="#0" id="circle38"/>
	<circle cx="150.963" cy="9.65242" r="4" fill="#0" id="circle39"/>
	<circle cx="150.963" cy="699.248" r="4" fill="#0" id="circle40"/>
	<circle cx="153.789" cy="365.755" r="4" fill="#0" id="circle41"/>
	<circle cx="162.268" cy="996" r="4" fill="#0" id="circle42"/>
	<circle cx="179.225" cy="4" r="4" fill="#0" id="circle43"/>
	<circle cx="190.53" cy="996" r="4" fill="#0" id="circle44"/>
	<circle cx="207.487" cy="9.65242" r="4" fill="#0" id="circle45"/>
	<circle cx="218.792" cy="996" r="4" fill="#0" id="circle46"/>
	<circle cx="235.749" cy="18.1311" r="4" fill="#0" id="circle47"/>
	<circle cx="247.054" cy="996" r="4" fill="#0" id="circle48"/>
	<circle cx="261.185" cy="32.2621" r="4" fill="#0" id="circle49"/>
	<circle cx="275.316" cy="996" r="4" fill="#0" id="circle50"/>
	<circle cx="289.447" cy="43.567" r="4" fill="#0" id="circle51"/>
	<circle cx="303.578" cy="996" r="4" fill="#0" id="circle52"/>
	<circle cx="317.709" cy="43.567" r="4" fill="#0" id="circle53"/>
	<circle cx="331.84" cy="996" r="4" fill="#0" id="circle54"/>
	<circle cx="345.972" cy="43.567" r="4" fill="#0" id="circle55"/>
	<circle cx="360.103" cy="996" r="4" fill="#0" id="circle56"/>
	<circle cx="374.234" cy="43.567" r="4" fill="#0" id="circle57"/>
	<circle cx="388.365" cy="996" r="4" fill="#0" id="circle58"/>
	<circle cx="402.496" cy="43.567" r="4" fill="#0" id="circle59"/>
	<circle cx="416.627" cy="990.348" r="4" fill="#0" id="circle60"/>
	<circle cx="430.758" cy="29.4359" r="4" fill="#0" id="circle61"/>
	<circle cx="444.889" cy="990.348" r="4" fill="#0" id="circle62"/>
	<circle cx="456.194" cy="15.3048" r="4" fill="#0" id="circle63"/>
	<circle cx="473.151" cy="984.695" r="4" fill="#0" id="circle64"/>
	<circle cx="484.456" cy="9.65242" r="4" fill="#0" id="circle65"/>
	<circle cx="501.413" cy="979.043" r="4" fill="#0" id="circle66"/>
	<circle cx="512.718" cy="4" r="4" fill="#0" id="circle67"/>
	<circle cx="529.675" cy="973.39" r="4" fill="#0" id="circle68"/>
	<circle cx="540.98" cy="12.4786" r="4" fill="#0" id="circle69"/>
	<circle cx="552.285" cy="368.581" r="4" fill="#0" id="circle70"/>
	<circle cx="557.937" cy="973.39" r="4" fill="#0" id="circle71"/>
	<circle cx="566.416" cy="337.493" r="4" fill="#0" id="circle72"/>
	<circle cx="569.242" cy="23.7835" r="4" fill="#0" id="circle73"/>
	<circle cx="574.895" cy="187.704" r="4" fill="#0" id="circle74"/>
	<circle cx="577.721" cy="215.966" r="4" fill="#0" id="circle75"/>
	<circle cx="577.721" cy="309.231" r="4" fill="#0" id="circle76"/>
	<circle cx="577.721" cy="382.712" r="4" fill="#0" id="circle77"/>
	<circle cx="583.373" cy="150.963" r="4" fill="#0" id="circle78"/>
	<circle cx="583.373" cy="244.228" r="4" fill="#0" id="circle79"/>
	<circle cx="583.373" cy="272.49" r="4" fill="#0" id="circle80"/>
	<circle cx="586.199" cy="967.738" r="4" fill="#0" id="circle81"/>
	<circle cx="589.026" cy="46.3932" r="4" fill="#0" id="circle82"/>
	<circle cx="594.678" cy="117.048" r="4" fill="#0" id="circle83"/>
	<circle cx="594.678" cy="676.638" r="4" fill="#0" id="circle84"/>
	<circle cx="600.33" cy="74.6553" r="4" fill="#0" id="circle85"/>
	<circle cx="600.33" cy="704.9" r="4" fill="#0" id="circle86"/>
	<circle cx="605.983" cy="382.712" r="4" fill="#0" id="circle87"/>
	<circle cx="614.462" cy="973.39" r="4" fill="#0" id="circle88"/>
	<circle cx="617.288" cy="659.681" r="4" fill="#0" id="circle89"/>
	<circle cx="628.593" cy="716.205" r="4" fill="#0" id="circle90"/>
	<circle cx="634.245" cy="394.017" r="4" fill="#0" id="circle91"/>
	<circle cx="642.724" cy="984.695" r="4" fill="#0" id="circle92"/>
	<circle cx="645.55" cy="656.855" r="4" fill="#0" id="circle93"/>
	<circle cx="656.855" cy="727.51" r="4" fill="#0" id="circle94"/>
	<circle cx="662.507" cy="405.322" r="4" fill="#0" id="circle95"/>
	<circle cx="670.986" cy="996" r="4" fill="#0" id="circle96"/>
	<circle cx="673.812" cy="659.681" r="4" fill="#0" id="circle97"/>
	<circle cx="679.464" cy="427.932" r="4" fill="#0" id="circle98"/>
	<circle cx="685.117" cy="733.162" r="4" fill="#0" id="circle99"/>
	<circle cx="699.248" cy="996" r="4" fill="#0" id="circle100"/>
	<circle cx="702.074" cy="651.202" r="4" fill="#0" id="circle101"/>
	<circle cx="707.726" cy="427.932" r="4" fill="#0" id="circle102"/>
	<circle cx="713.379" cy="727.51" r="4" fill="#0" id="circle103"/>
	<circle cx="727.51" cy="996" r="4" fill="#0" id="circle104"/>
	<circle cx="730.336" cy="642.724" r="4" fill="#0" id="circle105"/>
	<circle cx="735.989" cy="433.584" r="4" fill="#0" id="circle106"/>
	<circle cx="741.641" cy="727.51" r="4" fill="#0" id="circle107"/>
	<circle cx="755.772" cy="996" r="4" fill="#0" id="circle108"/>
	<circle cx="758.598" cy="631.419" r="4" fill="#0" id="circle109"/>
	<circle cx="764.251" cy="439.236" r="4" fill="#0" id="circle110"/>
	<circle cx="769.903" cy="727.51" r="4" fill="#0" id="circle111"/>
	<circle cx="784.034" cy="617.288" r="4" fill="#0" id="circle112"/>
	<circle cx="784.034" cy="990.348" r="4" fill="#0" id="circle113"/>
	<circle cx="792.513" cy="444.889" r="4" fill="#0" id="circle114"/>
	<circle cx="798.165" cy="727.51" r="4" fill="#0" id="circle115"/>
	<circle cx="809.47" cy="603.157" r="4" fill="#0" id="circle116"/>
	<circle cx="812.296" cy="979.043" r="4" fill="#0" id="circle117"/>
	<circle cx="820.775" cy="456.194" r="4" fill="#0" id="circle118"/>
	<circle cx="820.775" cy="744.467" r="4" fill="#0" id="circle119"/>
	<circle cx="826.427" cy="580.547" r="4" fill="#0" id="circle120"/>
	<circle cx="834.906" cy="962.085" r="4" fill="#0" id="circle121"/>
	<circle cx="837.732" cy="478.803" r="4" fill="#0" id="circle122"/>
	<circle cx="840.558" cy="555.111" r="4" fill="#0" id="circle123"/>
	<circle cx="843.385" cy="507.066" r="4" fill="#0" id="circle124"/>
	<circle cx="843.385" cy="761.425" r="4" fill="#0" id="circle125"/>
	<circle cx="854.689" cy="789.687" r="4" fill="#0" id="circle126"/>
	<circle cx="857.516" cy="945.128" r="4" fill="#0" id="circle127"/>
	<circle cx="863.168" cy="817.949" r="4" fill="#0" id="circle128"/>
	<circle cx="865.994" cy="897.083" r="4" fill="#0" id="circle129"/>
	<circle cx="871.647" cy="846.211" r="4" fill="#0" id="circle130"/>
	</g>
</svg>