<?xml version="1.0" encoding="UTF-8" standalone="no"?>
<!-- Created with CurveBenchmark -->
<svg
	xmlns:dc="http://purl.org/dc/elements/1.1/"
	xmlns:cc="http://creativecommons.org/ns#"
	xmlns:rdf="http://www.w3.org/1999/02/22-rdf-syntax-ns#"
	xmlns:svg="http://www.w3.org/2000/svg"
	xmlns="http://www.w3.org/2000/svg"
	xmlns:sodipodi="http://sodipodi.sourceforge.net/DTD/sodipodi-0.dtd"
	xmlns:inkscape="http://www.inkscape.org/namespaces/inkscape"
	width="1000"
	height="1000"
	id="svg2"
	version="1.1"
	sodipodi:docname="manifold/nncrust-teddy290.png.txt">
<defs
	id="defs4" />
<metadata
	id="metadata7">
	<rdf:RDF>
		<cc:Work
			rdf:about="">
			<dc:format>image/svg+xml</dc:format>
			<dc:type
				rdf:resource="http://purl.org/dc/dcmitype/StillImage" />
			<dc:title></dc:title>
		</cc:Work>
	</rdf:RDF>
</metadata>
<g
	inkscape:label="Layer 1"
	inkscape:groupmode="layer"
	id="layer1">
	<path style="fill:none;stroke:red;stroke-width:1px;stroke-linecap:butt;stroke-linejoin:miter;stroke-opacity:1" d="M 88.7863,529.675 83.1339,501.413 z" id="boundary" inkscape:connector-curvature="0" />
	<path style="fill:none;stroke:red;stroke-width:1px;stroke-linecap:butt;stroke-linejoin:miter;stroke-opacity:1" d="M 83.1339,501.413 94.4387,473.151 z" id="boundary" inkscape:connector-curvature="0" />
	<path style="fill:none;stroke:red;stroke-width:1px;stroke-linecap:butt;stroke-linejoin:miter;stroke-opacity:1" d="M 117.048,456.194 94.4387,473.151 z" id="boundary" inkscape:connector-curvature="0" />
	<path style="fill:none;stroke:red;stroke-width:1px;stroke-linecap:butt;stroke-linejoin:miter;stroke-opacity:1" d="M 117.048,456.194 145.311,444.889 z" id="boundary" inkscape:connector-curvature="0" />
	<path style="fill:none;stroke:red;stroke-width:1px;stroke-linecap:butt;stroke-linejoin:miter;stroke-opacity:1" d="M 173.573,439.236 145.311,444.889 z" id="boundary" inkscape:connector-curvature="0" />
	<path style="fill:none;stroke:red;stroke-width:1px;stroke-linecap:butt;stroke-linejoin:miter;stroke-opacity:1" d="M 201.835,433.584 173.573,439.236 z" id="boundary" inkscape:connector-curvature="0" />
	<path style="fill:none;stroke:red;stroke-width:1px;stroke-linecap:butt;stroke-linejoin:miter;stroke-opacity:1" d="M 102.917,583.373 88.7863,557.937 z" id="boundary" inkscape:connector-curvature="0" />
	<path style="fill:none;stroke:red;stroke-width:1px;stroke-linecap:butt;stroke-linejoin:miter;stroke-opacity:1" d="M 88.7863,557.937 88.7863,529.675 z" id="boundary" inkscape:connector-curvature="0" />
	<path style="fill:none;stroke:red;stroke-width:1px;stroke-linecap:butt;stroke-linejoin:miter;stroke-opacity:1" d="M 119.875,605.983 145.311,620.114 z" id="boundary" inkscape:connector-curvature="0" />
	<path style="fill:none;stroke:red;stroke-width:1px;stroke-linecap:butt;stroke-linejoin:miter;stroke-opacity:1" d="M 119.875,605.983 102.917,583.373 z" id="boundary" inkscape:connector-curvature="0" />
	<path style="fill:none;stroke:red;stroke-width:1px;stroke-linecap:butt;stroke-linejoin:miter;stroke-opacity:1" d="M 170.746,634.245 199.009,645.55 z" id="boundary" inkscape:connector-curvature="0" />
	<path style="fill:none;stroke:red;stroke-width:1px;stroke-linecap:butt;stroke-linejoin:miter;stroke-opacity:1" d="M 199.009,645.55 201.835,676.638 z" id="boundary" inkscape:connector-curvature="0" />
	<path style="fill:none;stroke:red;stroke-width:1px;stroke-linecap:butt;stroke-linejoin:miter;stroke-opacity:1" d="M 170.746,634.245 145.311,620.114 z" id="boundary" inkscape:connector-curvature="0" />
	<path style="fill:none;stroke:red;stroke-width:1px;stroke-linecap:butt;stroke-linejoin:miter;stroke-opacity:1" d="M 201.835,433.584 230.097,427.932 z" id="boundary" inkscape:connector-curvature="0" />
	<path style="fill:none;stroke:red;stroke-width:1px;stroke-linecap:butt;stroke-linejoin:miter;stroke-opacity:1" d="M 213.14,235.749 235.749,218.792 z" id="boundary" inkscape:connector-curvature="0" />
	<path style="fill:none;stroke:red;stroke-width:1px;stroke-linecap:butt;stroke-linejoin:miter;stroke-opacity:1" d="M 213.14,264.011 213.14,235.749 z" id="boundary" inkscape:connector-curvature="0" />
	<path style="fill:none;stroke:red;stroke-width:1px;stroke-linecap:butt;stroke-linejoin:miter;stroke-opacity:1" d="M 258.359,196.182 235.749,218.792 z" id="boundary" inkscape:connector-curvature="0" />
	<path style="fill:none;stroke:red;stroke-width:1px;stroke-linecap:butt;stroke-linejoin:miter;stroke-opacity:1" d="M 218.792,292.274 213.14,264.011 z" id="boundary" inkscape:connector-curvature="0" />
	<path style="fill:none;stroke:red;stroke-width:1px;stroke-linecap:butt;stroke-linejoin:miter;stroke-opacity:1" d="M 326.188,150.963 312.057,176.399 z" id="boundary" inkscape:connector-curvature="0" />
	<path style="fill:none;stroke:red;stroke-width:1px;stroke-linecap:butt;stroke-linejoin:miter;stroke-opacity:1" d="M 312.057,176.399 286.621,190.53 z" id="boundary" inkscape:connector-curvature="0" />
	<path style="fill:none;stroke:red;stroke-width:1px;stroke-linecap:butt;stroke-linejoin:miter;stroke-opacity:1" d="M 258.359,196.182 286.621,190.53 z" id="boundary" inkscape:connector-curvature="0" />
	<path style="fill:none;stroke:red;stroke-width:1px;stroke-linecap:butt;stroke-linejoin:miter;stroke-opacity:1" d="M 227.271,320.536 238.575,348.798 z" id="boundary" inkscape:connector-curvature="0" />
	<path style="fill:none;stroke:red;stroke-width:1px;stroke-linecap:butt;stroke-linejoin:miter;stroke-opacity:1" d="M 227.271,320.536 218.792,292.274 z" id="boundary" inkscape:connector-curvature="0" />
	<path style="fill:none;stroke:red;stroke-width:1px;stroke-linecap:butt;stroke-linejoin:miter;stroke-opacity:1" d="M 258.359,427.932 230.097,427.932 z" id="boundary" inkscape:connector-curvature="0" />
	<path style="fill:none;stroke:red;stroke-width:1px;stroke-linecap:butt;stroke-linejoin:miter;stroke-opacity:1" d="M 264.011,362.929 238.575,348.798 z" id="boundary" inkscape:connector-curvature="0" />
	<path style="fill:none;stroke:red;stroke-width:1px;stroke-linecap:butt;stroke-linejoin:miter;stroke-opacity:1" d="M 280.969,405.322 258.359,427.932 z" id="boundary" inkscape:connector-curvature="0" />
	<path style="fill:none;stroke:red;stroke-width:1px;stroke-linecap:butt;stroke-linejoin:miter;stroke-opacity:1" d="M 264.011,362.929 280.969,405.322 z" id="boundary" inkscape:connector-curvature="0" />
	<path style="fill:none;stroke:red;stroke-width:1px;stroke-linecap:butt;stroke-linejoin:miter;stroke-opacity:1" d="M 9.65242,772.729 9.65242,800.991 z" id="boundary" inkscape:connector-curvature="0" />
	<path style="fill:none;stroke:red;stroke-width:1px;stroke-linecap:butt;stroke-linejoin:miter;stroke-opacity:1" d="M 9.65242,800.991 4,840.558 z" id="boundary" inkscape:connector-curvature="0" />
	<path style="fill:none;stroke:red;stroke-width:1px;stroke-linecap:butt;stroke-linejoin:miter;stroke-opacity:1" d="M 9.65242,772.729 23.7835,747.293 z" id="boundary" inkscape:connector-curvature="0" />
	<path style="fill:none;stroke:red;stroke-width:1px;stroke-linecap:butt;stroke-linejoin:miter;stroke-opacity:1" d="M 23.7835,747.293 46.3932,730.336 z" id="boundary" inkscape:connector-curvature="0" />
	<path style="fill:none;stroke:red;stroke-width:1px;stroke-linecap:butt;stroke-linejoin:miter;stroke-opacity:1" d="M 46.3932,730.336 74.6553,727.51 z" id="boundary" inkscape:connector-curvature="0" />
	<path style="fill:none;stroke:red;stroke-width:1px;stroke-linecap:butt;stroke-linejoin:miter;stroke-opacity:1" d="M 4,868.821 4,840.558 z" id="boundary" inkscape:connector-curvature="0" />
	<path style="fill:none;stroke:red;stroke-width:1px;stroke-linecap:butt;stroke-linejoin:miter;stroke-opacity:1" d="M 4,868.821 9.65242,897.083 z" id="boundary" inkscape:connector-curvature="0" />
	<path style="fill:none;stroke:red;stroke-width:1px;stroke-linecap:butt;stroke-linejoin:miter;stroke-opacity:1" d="M 9.65242,897.083 9.65242,925.345 z" id="boundary" inkscape:connector-curvature="0" />
	<path style="fill:none;stroke:red;stroke-width:1px;stroke-linecap:butt;stroke-linejoin:miter;stroke-opacity:1" d="M 23.7835,950.781 9.65242,925.345 z" id="boundary" inkscape:connector-curvature="0" />
	<path style="fill:none;stroke:red;stroke-width:1px;stroke-linecap:butt;stroke-linejoin:miter;stroke-opacity:1" d="M 40.7407,973.39 23.7835,950.781 z" id="boundary" inkscape:connector-curvature="0" />
	<path style="fill:none;stroke:red;stroke-width:1px;stroke-linecap:butt;stroke-linejoin:miter;stroke-opacity:1" d="M 69.0028,984.695 40.7407,973.39 z" id="boundary" inkscape:connector-curvature="0" />
	<path style="fill:none;stroke:red;stroke-width:1px;stroke-linecap:butt;stroke-linejoin:miter;stroke-opacity:1" d="M 97.265,990.348 69.0028,984.695 z" id="boundary" inkscape:connector-curvature="0" />
	<path style="fill:none;stroke:red;stroke-width:1px;stroke-linecap:butt;stroke-linejoin:miter;stroke-opacity:1" d="M 74.6553,727.51 102.917,727.51 z" id="boundary" inkscape:connector-curvature="0" />
	<path style="fill:none;stroke:red;stroke-width:1px;stroke-linecap:butt;stroke-linejoin:miter;stroke-opacity:1" d="M 102.917,727.51 131.179,727.51 z" id="boundary" inkscape:connector-curvature="0" />
	<path style="fill:none;stroke:red;stroke-width:1px;stroke-linecap:butt;stroke-linejoin:miter;stroke-opacity:1" d="M 131.179,727.51 159.442,738.815 z" id="boundary" inkscape:connector-curvature="0" />
	<path style="fill:none;stroke:red;stroke-width:1px;stroke-linecap:butt;stroke-linejoin:miter;stroke-opacity:1" d="M 196.182,710.553 187.704,738.815 z" id="boundary" inkscape:connector-curvature="0" />
	<path style="fill:none;stroke:red;stroke-width:1px;stroke-linecap:butt;stroke-linejoin:miter;stroke-opacity:1" d="M 187.704,738.815 159.442,738.815 z" id="boundary" inkscape:connector-curvature="0" />
	<path style="fill:none;stroke:red;stroke-width:1px;stroke-linecap:butt;stroke-linejoin:miter;stroke-opacity:1" d="M 295.1,979.043 266.838,967.738 z" id="boundary" inkscape:connector-curvature="0" />
	<path style="fill:none;stroke:red;stroke-width:1px;stroke-linecap:butt;stroke-linejoin:miter;stroke-opacity:1" d="M 201.835,676.638 196.182,710.553 z" id="boundary" inkscape:connector-curvature="0" />
	<path style="fill:none;stroke:red;stroke-width:1px;stroke-linecap:butt;stroke-linejoin:miter;stroke-opacity:1" d="M 266.838,967.738 238.575,973.39 z" id="boundary" inkscape:connector-curvature="0" />
	<path style="fill:none;stroke:red;stroke-width:1px;stroke-linecap:butt;stroke-linejoin:miter;stroke-opacity:1" d="M 182.051,987.521 153.789,996 z" id="boundary" inkscape:connector-curvature="0" />
	<path style="fill:none;stroke:red;stroke-width:1px;stroke-linecap:butt;stroke-linejoin:miter;stroke-opacity:1" d="M 153.789,996 125.527,996 z" id="boundary" inkscape:connector-curvature="0" />
	<path style="fill:none;stroke:red;stroke-width:1px;stroke-linecap:butt;stroke-linejoin:miter;stroke-opacity:1" d="M 125.527,996 97.265,990.348 z" id="boundary" inkscape:connector-curvature="0" />
	<path style="fill:none;stroke:red;stroke-width:1px;stroke-linecap:butt;stroke-linejoin:miter;stroke-opacity:1" d="M 210.313,979.043 238.575,973.39 z" id="boundary" inkscape:connector-curvature="0" />
	<path style="fill:none;stroke:red;stroke-width:1px;stroke-linecap:butt;stroke-linejoin:miter;stroke-opacity:1" d="M 295.1,979.043 317.709,996 z" id="boundary" inkscape:connector-curvature="0" />
	<path style="fill:none;stroke:red;stroke-width:1px;stroke-linecap:butt;stroke-linejoin:miter;stroke-opacity:1" d="M 345.972,996 317.709,996 z" id="boundary" inkscape:connector-curvature="0" />
	<path style="fill:none;stroke:red;stroke-width:1px;stroke-linecap:butt;stroke-linejoin:miter;stroke-opacity:1" d="M 182.051,987.521 210.313,979.043 z" id="boundary" inkscape:connector-curvature="0" />
	<path style="fill:none;stroke:red;stroke-width:1px;stroke-linecap:butt;stroke-linejoin:miter;stroke-opacity:1" d="M 410.974,4 439.236,9.65242 z" id="boundary" inkscape:connector-curvature="0" />
	<path style="fill:none;stroke:red;stroke-width:1px;stroke-linecap:butt;stroke-linejoin:miter;stroke-opacity:1" d="M 385.538,18.1311 410.974,4 z" id="boundary" inkscape:connector-curvature="0" />
	<path style="fill:none;stroke:red;stroke-width:1px;stroke-linecap:butt;stroke-linejoin:miter;stroke-opacity:1" d="M 467.499,15.3048 439.236,9.65242 z" id="boundary" inkscape:connector-curvature="0" />
	<path style="fill:none;stroke:red;stroke-width:1px;stroke-linecap:butt;stroke-linejoin:miter;stroke-opacity:1" d="M 467.499,15.3048 490.108,32.2621 z" id="boundary" inkscape:connector-curvature="0" />
	<path style="fill:none;stroke:red;stroke-width:1px;stroke-linecap:butt;stroke-linejoin:miter;stroke-opacity:1" d="M 518.37,37.9145 540.98,15.3048 z" id="boundary" inkscape:connector-curvature="0" />
	<path style="fill:none;stroke:red;stroke-width:1px;stroke-linecap:butt;stroke-linejoin:miter;stroke-opacity:1" d="M 540.98,15.3048 569.242,9.65242 z" id="boundary" inkscape:connector-curvature="0" />
	<path style="fill:none;stroke:red;stroke-width:1px;stroke-linecap:butt;stroke-linejoin:miter;stroke-opacity:1" d="M 597.504,6.82621 569.242,9.65242 z" id="boundary" inkscape:connector-curvature="0" />
	<path style="fill:none;stroke:red;stroke-width:1px;stroke-linecap:butt;stroke-linejoin:miter;stroke-opacity:1" d="M 348.798,94.4387 343.145,128.353 z" id="boundary" inkscape:connector-curvature="0" />
	<path style="fill:none;stroke:red;stroke-width:1px;stroke-linecap:butt;stroke-linejoin:miter;stroke-opacity:1" d="M 343.145,128.353 326.188,150.963 z" id="boundary" inkscape:connector-curvature="0" />
	<path style="fill:none;stroke:red;stroke-width:1px;stroke-linecap:butt;stroke-linejoin:miter;stroke-opacity:1" d="M 348.798,66.1766 348.798,94.4387 z" id="boundary" inkscape:connector-curvature="0" />
	<path style="fill:none;stroke:red;stroke-width:1px;stroke-linecap:butt;stroke-linejoin:miter;stroke-opacity:1" d="M 348.798,66.1766 362.929,40.7407 z" id="boundary" inkscape:connector-curvature="0" />
	<path style="fill:none;stroke:red;stroke-width:1px;stroke-linecap:butt;stroke-linejoin:miter;stroke-opacity:1" d="M 362.929,40.7407 385.538,18.1311 z" id="boundary" inkscape:connector-curvature="0" />
	<path style="fill:none;stroke:red;stroke-width:1px;stroke-linecap:butt;stroke-linejoin:miter;stroke-opacity:1" d="M 490.108,32.2621 518.37,37.9145 z" id="boundary" inkscape:connector-curvature="0" />
	<path style="fill:none;stroke:red;stroke-width:1px;stroke-linecap:butt;stroke-linejoin:miter;stroke-opacity:1" d="M 642.724,35.0883 651.202,63.3504 z" id="boundary" inkscape:connector-curvature="0" />
	<path style="fill:none;stroke:red;stroke-width:1px;stroke-linecap:butt;stroke-linejoin:miter;stroke-opacity:1" d="M 651.202,63.3504 651.202,91.6125 z" id="boundary" inkscape:connector-curvature="0" />
	<path style="fill:none;stroke:red;stroke-width:1px;stroke-linecap:butt;stroke-linejoin:miter;stroke-opacity:1" d="M 662.507,119.875 651.202,91.6125 z" id="boundary" inkscape:connector-curvature="0" />
	<path style="fill:none;stroke:red;stroke-width:1px;stroke-linecap:butt;stroke-linejoin:miter;stroke-opacity:1" d="M 679.464,142.484 690.769,170.746 z" id="boundary" inkscape:connector-curvature="0" />
	<path style="fill:none;stroke:red;stroke-width:1px;stroke-linecap:butt;stroke-linejoin:miter;stroke-opacity:1" d="M 662.507,119.875 679.464,142.484 z" id="boundary" inkscape:connector-curvature="0" />
	<path style="fill:none;stroke:red;stroke-width:1px;stroke-linecap:butt;stroke-linejoin:miter;stroke-opacity:1" d="M 690.769,170.746 696.422,199.009 z" id="boundary" inkscape:connector-curvature="0" />
	<path style="fill:none;stroke:red;stroke-width:1px;stroke-linecap:butt;stroke-linejoin:miter;stroke-opacity:1" d="M 659.681,425.105 645.55,399.67 z" id="boundary" inkscape:connector-curvature="0" />
	<path style="fill:none;stroke:red;stroke-width:1px;stroke-linecap:butt;stroke-linejoin:miter;stroke-opacity:1" d="M 645.55,399.67 656.855,365.755 z" id="boundary" inkscape:connector-curvature="0" />
	<path style="fill:none;stroke:red;stroke-width:1px;stroke-linecap:butt;stroke-linejoin:miter;stroke-opacity:1" d="M 673.812,337.493 656.855,365.755 z" id="boundary" inkscape:connector-curvature="0" />
	<path style="fill:none;stroke:red;stroke-width:1px;stroke-linecap:butt;stroke-linejoin:miter;stroke-opacity:1" d="M 696.422,199.009 702.074,227.271 z" id="boundary" inkscape:connector-curvature="0" />
	<path style="fill:none;stroke:red;stroke-width:1px;stroke-linecap:butt;stroke-linejoin:miter;stroke-opacity:1" d="M 702.074,227.271 696.422,269.664 z" id="boundary" inkscape:connector-curvature="0" />
	<path style="fill:none;stroke:red;stroke-width:1px;stroke-linecap:butt;stroke-linejoin:miter;stroke-opacity:1" d="M 685.117,309.231 696.422,269.664 z" id="boundary" inkscape:connector-curvature="0" />
	<path style="fill:none;stroke:red;stroke-width:1px;stroke-linecap:butt;stroke-linejoin:miter;stroke-opacity:1" d="M 685.117,309.231 673.812,337.493 z" id="boundary" inkscape:connector-curvature="0" />
	<path style="fill:none;stroke:red;stroke-width:1px;stroke-linecap:butt;stroke-linejoin:miter;stroke-opacity:1" d="M 625.766,12.4786 642.724,35.0883 z" id="boundary" inkscape:connector-curvature="0" />
	<path style="fill:none;stroke:red;stroke-width:1px;stroke-linecap:butt;stroke-linejoin:miter;stroke-opacity:1" d="M 597.504,6.82621 625.766,12.4786 z" id="boundary" inkscape:connector-curvature="0" />
	<path style="fill:none;stroke:red;stroke-width:1px;stroke-linecap:butt;stroke-linejoin:miter;stroke-opacity:1" d="M 637.071,905.561 631.419,933.823 z" id="boundary" inkscape:connector-curvature="0" />
	<path style="fill:none;stroke:red;stroke-width:1px;stroke-linecap:butt;stroke-linejoin:miter;stroke-opacity:1" d="M 639.897,851.863 637.071,905.561 z" id="boundary" inkscape:connector-curvature="0" />
	<path style="fill:none;stroke:red;stroke-width:1px;stroke-linecap:butt;stroke-linejoin:miter;stroke-opacity:1" d="M 600.33,979.043 572.068,990.348 z" id="boundary" inkscape:connector-curvature="0" />
	<path style="fill:none;stroke:red;stroke-width:1px;stroke-linecap:butt;stroke-linejoin:miter;stroke-opacity:1" d="M 459.02,990.348 487.282,990.348 z" id="boundary" inkscape:connector-curvature="0" />
	<path style="fill:none;stroke:red;stroke-width:1px;stroke-linecap:butt;stroke-linejoin:miter;stroke-opacity:1" d="M 487.282,990.348 515.544,996 z" id="boundary" inkscape:connector-curvature="0" />
	<path style="fill:none;stroke:red;stroke-width:1px;stroke-linecap:butt;stroke-linejoin:miter;stroke-opacity:1" d="M 631.419,933.823 625.766,962.085 z" id="boundary" inkscape:connector-curvature="0" />
	<path style="fill:none;stroke:red;stroke-width:1px;stroke-linecap:butt;stroke-linejoin:miter;stroke-opacity:1" d="M 625.766,962.085 600.33,979.043 z" id="boundary" inkscape:connector-curvature="0" />
	<path style="fill:none;stroke:red;stroke-width:1px;stroke-linecap:butt;stroke-linejoin:miter;stroke-opacity:1" d="M 402.496,996 374.234,996 z" id="boundary" inkscape:connector-curvature="0" />
	<path style="fill:none;stroke:red;stroke-width:1px;stroke-linecap:butt;stroke-linejoin:miter;stroke-opacity:1" d="M 430.758,993.174 402.496,996 z" id="boundary" inkscape:connector-curvature="0" />
	<path style="fill:none;stroke:red;stroke-width:1px;stroke-linecap:butt;stroke-linejoin:miter;stroke-opacity:1" d="M 430.758,993.174 459.02,990.348 z" id="boundary" inkscape:connector-curvature="0" />
	<path style="fill:none;stroke:red;stroke-width:1px;stroke-linecap:butt;stroke-linejoin:miter;stroke-opacity:1" d="M 572.068,990.348 543.806,996 z" id="boundary" inkscape:connector-curvature="0" />
	<path style="fill:none;stroke:red;stroke-width:1px;stroke-linecap:butt;stroke-linejoin:miter;stroke-opacity:1" d="M 543.806,996 515.544,996 z" id="boundary" inkscape:connector-curvature="0" />
	<path style="fill:none;stroke:red;stroke-width:1px;stroke-linecap:butt;stroke-linejoin:miter;stroke-opacity:1" d="M 374.234,996 345.972,996 z" id="boundary" inkscape:connector-curvature="0" />
	<path style="fill:none;stroke:red;stroke-width:1px;stroke-linecap:butt;stroke-linejoin:miter;stroke-opacity:1" d="M 668.16,569.242 656.855,614.462 z" id="boundary" inkscape:connector-curvature="0" />
	<path style="fill:none;stroke:red;stroke-width:1px;stroke-linecap:butt;stroke-linejoin:miter;stroke-opacity:1" d="M 654.028,662.507 656.855,690.769 z" id="boundary" inkscape:connector-curvature="0" />
	<path style="fill:none;stroke:red;stroke-width:1px;stroke-linecap:butt;stroke-linejoin:miter;stroke-opacity:1" d="M 668.16,453.368 659.681,425.105 z" id="boundary" inkscape:connector-curvature="0" />
	<path style="fill:none;stroke:red;stroke-width:1px;stroke-linecap:butt;stroke-linejoin:miter;stroke-opacity:1" d="M 682.291,478.803 690.769,507.066 z" id="boundary" inkscape:connector-curvature="0" />
	<path style="fill:none;stroke:red;stroke-width:1px;stroke-linecap:butt;stroke-linejoin:miter;stroke-opacity:1" d="M 690.769,507.066 682.291,543.806 z" id="boundary" inkscape:connector-curvature="0" />
	<path style="fill:none;stroke:red;stroke-width:1px;stroke-linecap:butt;stroke-linejoin:miter;stroke-opacity:1" d="M 668.16,569.242 682.291,543.806 z" id="boundary" inkscape:connector-curvature="0" />
	<path style="fill:none;stroke:red;stroke-width:1px;stroke-linecap:butt;stroke-linejoin:miter;stroke-opacity:1" d="M 668.16,453.368 682.291,478.803 z" id="boundary" inkscape:connector-curvature="0" />
	<path style="fill:none;stroke:red;stroke-width:1px;stroke-linecap:butt;stroke-linejoin:miter;stroke-opacity:1" d="M 654.028,662.507 656.855,614.462 z" id="boundary" inkscape:connector-curvature="0" />
	<path style="fill:none;stroke:red;stroke-width:1px;stroke-linecap:butt;stroke-linejoin:miter;stroke-opacity:1" d="M 639.897,795.339 639.897,823.601 z" id="boundary" inkscape:connector-curvature="0" />
	<path style="fill:none;stroke:red;stroke-width:1px;stroke-linecap:butt;stroke-linejoin:miter;stroke-opacity:1" d="M 639.897,795.339 656.855,747.293 z" id="boundary" inkscape:connector-curvature="0" />
	<path style="fill:none;stroke:red;stroke-width:1px;stroke-linecap:butt;stroke-linejoin:miter;stroke-opacity:1" d="M 639.897,851.863 639.897,823.601 z" id="boundary" inkscape:connector-curvature="0" />
	<path style="fill:none;stroke:red;stroke-width:1px;stroke-linecap:butt;stroke-linejoin:miter;stroke-opacity:1" d="M 656.855,719.031 656.855,747.293 z" id="boundary" inkscape:connector-curvature="0" />
	<path style="fill:none;stroke:red;stroke-width:1px;stroke-linecap:butt;stroke-linejoin:miter;stroke-opacity:1" d="M 656.855,719.031 656.855,690.769 z" id="boundary" inkscape:connector-curvature="0" />
	<circle cx="4" cy="840.558" r="4" fill="#0" id="circle0"/>
	<circle cx="4" cy="868.821" r="4" fill="#0" id="circle1"/>
	<circle cx="9.65242" cy="772.729" r="4" fill="#0" id="circle2"/>
	<circle cx="9.65242" cy="800.991" r="4" fill="#0" id="circle3"/>
	<circle cx="9.65242" cy="897.083" r="4" fill="#0" id="circle4"/>
	<circle cx="9.65242" cy="925.345" r="4" fill="#0" id="circle5"/>
	<circle cx="23.7835" cy="747.293" r="4" fill="#0" id="circle6"/>
	<circle cx="23.7835" cy="950.781" r="4" fill="#0" id="circle7"/>
	<circle cx="40.7407" cy="973.39" r="4" fill="#0" id="circle8"/>
	<circle cx="46.3932" cy="730.336" r="4" fill="#0" id="circle9"/>
	<circle cx="69.0028" cy="984.695" r="4" fill="#0" id="circle10"/>
	<circle cx="74.6553" cy="727.51" r="4" fill="#0" id="circle11"/>
	<circle cx="83.1339" cy="501.413" r="4" fill="#0" id="circle12"/>
	<circle cx="88.7863" cy="529.675" r="4" fill="#0" id="circle13"/>
	<circle cx="88.7863" cy="557.937" r="4" fill="#0" id="circle14"/>
	<circle cx="94.4387" cy="473.151" r="4" fill="#0" id="circle15"/>
	<circle cx="97.265" cy="990.348" r="4" fill="#0" id="circle16"/>
	<circle cx="102.917" cy="583.373" r="4" fill="#0" id="circle17"/>
	<circle cx="102.917" cy="727.51" r="4" fill="#0" id="circle18"/>
	<circle cx="117.048" cy="456.194" r="4" fill="#0" id="circle19"/>
	<circle cx="119.875" cy="605.983" r="4" fill="#0" id="circle20"/>
	<circle cx="125.527" cy="996" r="4" fill="#0" id="circle21"/>
	<circle cx="131.179" cy="727.51" r="4" fill="#0" id="circle22"/>
	<circle cx="145.311" cy="444.889" r="4" fill="#0" id="circle23"/>
	<circle cx="145.311" cy="620.114" r="4" fill="#0" id="circle24"/>
	<circle cx="153.789" cy="996" r="4" fill="#0" id="circle25"/>
	<circle cx="159.442" cy="738.815" r="4" fill="#0" id="circle26"/>
	<circle cx="170.746" cy="634.245" r="4" fill="#0" id="circle27"/>
	<circle cx="173.573" cy="439.236" r="4" fill="#0" id="circle28"/>
	<circle cx="182.051" cy="987.521" r="4" fill="#0" id="circle29"/>
	<circle cx="187.704" cy="738.815" r="4" fill="#0" id="circle30"/>
	<circle cx="196.182" cy="710.553" r="4" fill="#0" id="circle31"/>
	<circle cx="199.009" cy="645.55" r="4" fill="#0" id="circle32"/>
	<circle cx="201.835" cy="433.584" r="4" fill="#0" id="circle33"/>
	<circle cx="201.835" cy="676.638" r="4" fill="#0" id="circle34"/>
	<circle cx="210.313" cy="979.043" r="4" fill="#0" id="circle35"/>
	<circle cx="213.14" cy="235.749" r="4" fill="#0" id="circle36"/>
	<circle cx="213.14" cy="264.011" r="4" fill="#0" id="circle37"/>
	<circle cx="218.792" cy="292.274" r="4" fill="#0" id="circle38"/>
	<circle cx="227.271" cy="320.536" r="4" fill="#0" id="circle39"/>
	<circle cx="230.097" cy="427.932" r="4" fill="#0" id="circle40"/>
	<circle cx="235.749" cy="218.792" r="4" fill="#0" id="circle41"/>
	<circle cx="238.575" cy="348.798" r="4" fill="#0" id="circle42"/>
	<circle cx="238.575" cy="973.39" r="4" fill="#0" id="circle43"/>
	<circle cx="258.359" cy="196.182" r="4" fill="#0" id="circle44"/>
	<circle cx="258.359" cy="427.932" r="4" fill="#0" id="circle45"/>
	<circle cx="264.011" cy="362.929" r="4" fill="#0" id="circle46"/>
	<circle cx="266.838" cy="967.738" r="4" fill="#0" id="circle47"/>
	<circle cx="280.969" cy="405.322" r="4" fill="#0" id="circle48"/>
	<circle cx="286.621" cy="190.53" r="4" fill="#0" id="circle49"/>
	<circle cx="295.1" cy="979.043" r="4" fill="#0" id="circle50"/>
	<circle cx="312.057" cy="176.399" r="4" fill="#0" id="circle51"/>
	<circle cx="317.709" cy="996" r="4" fill="#0" id="circle52"/>
	<circle cx="326.188" cy="150.963" r="4" fill="#0" id="circle53"/>
	<circle cx="343.145" cy="128.353" r="4" fill="#0" id="circle54"/>
	<circle cx="345.972" cy="996" r="4" fill="#0" id="circle55"/>
	<circle cx="348.798" cy="66.1766" r="4" fill="#0" id="circle56"/>
	<circle cx="348.798" cy="94.4387" r="4" fill="#0" id="circle57"/>
	<circle cx="362.929" cy="40.7407" r="4" fill="#0" id="circle58"/>
	<circle cx="374.234" cy="996" r="4" fill="#0" id="circle59"/>
	<circle cx="385.538" cy="18.1311" r="4" fill="#0" id="circle60"/>
	<circle cx="402.496" cy="996" r="4" fill="#0" id="circle61"/>
	<circle cx="410.974" cy="4" r="4" fill="#0" id="circle62"/>
	<circle cx="430.758" cy="993.174" r="4" fill="#0" id="circle63"/>
	<circle cx="439.236" cy="9.65242" r="4" fill="#0" id="circle64"/>
	<circle cx="459.02" cy="990.348" r="4" fill="#0" id="circle65"/>
	<circle cx="467.499" cy="15.3048" r="4" fill="#0" id="circle66"/>
	<circle cx="487.282" cy="990.348" r="4" fill="#0" id="circle67"/>
	<circle cx="490.108" cy="32.2621" r="4" fill="#0" id="circle68"/>
	<circle cx="515.544" cy="996" r="4" fill="#0" id="circle69"/>
	<circle cx="518.37" cy="37.9145" r="4" fill="#0" id="circle70"/>
	<circle cx="540.98" cy="15.3048" r="4" fill="#0" id="circle71"/>
	<circle cx="543.806" cy="996" r="4" fill="#0" id="circle72"/>
	<circle cx="569.242" cy="9.65242" r="4" fill="#0" id="circle73"/>
	<circle cx="572.068" cy="990.348" r="4" fill="#0" id="circle74"/>
	<circle cx="597.504" cy="6.82621" r="4" fill="#0" id="circle75"/>
	<circle cx="600.33" cy="979.043" r="4" fill="#0" id="circle76"/>
	<circle cx="625.766" cy="12.4786" r="4" fill="#0" id="circle77"/>
	<circle cx="625.766" cy="962.085" r="4" fill="#0" id="circle78"/>
	<circle cx="631.419" cy="933.823" r="4" fill="#0" id="circle79"/>
	<circle cx="637.071" cy="905.561" r="4" fill="#0" id="circle80"/>
	<circle cx="639.897" cy="795.339" r="4" fill="#0" id="circle81"/>
	<circle cx="639.897" cy="823.601" r="4" fill="#0" id="circle82"/>
	<circle cx="639.897" cy="851.863" r="4" fill="#0" id="circle83"/>
	<circle cx="642.724" cy="35.0883" r="4" fill="#0" id="circle84"/>
	<circle cx="645.55" cy="399.67" r="4" fill="#0" id="circle85"/>
	<circle cx="651.202" cy="63.3504" r="4" fill="#0" id="circle86"/>
	<circle cx="651.202" cy="91.6125" r="4" fill="#0" id="circle87"/>
	<circle cx="654.028" cy="662.507" r="4" fill="#0" id="circle88"/>
	<circle cx="656.855" cy="365.755" r="4" fill="#0" id="circle89"/>
	<circle cx="656.855" cy="614.462" r="4" fill="#0" id="circle90"/>
	<circle cx="656.855" cy="690.769" r="4" fill="#0" id="circle91"/>
	<circle cx="656.855" cy="719.031" r="4" fill="#0" id="circle92"/>
	<circle cx="656.855" cy="747.293" r="4" fill="#0" id="circle93"/>
	<circle cx="659.681" cy="425.105" r="4" fill="#0" id="circle94"/>
	<circle cx="662.507" cy="119.875" r="4" fill="#0" id="circle95"/>
	<circle cx="668.16" cy="453.368" r="4" fill="#0" id="circle96"/>
	<circle cx="668.16" cy="569.242" r="4" fill="#0" id="circle97"/>
	<circle cx="673.812" cy="337.493" r="4" fill="#0" id="circle98"/>
	<circle cx="679.464" cy="142.484" r="4" fill="#0" id="circle99"/>
	<circle cx="682.291" cy="478.803" r="4" fill="#0" id="circle100"/>
	<circle cx="682.291" cy="543.806" r="4" fill="#0" id="circle101"/>
	<circle cx="685.117" cy="309.231" r="4" fill="#0" id="circle102"/>
	<circle cx="690.769" cy="170.746" r="4" fill="#0" id="circle103"/>
	<circle cx="690.769" cy="507.066" r="4" fill="#0" id="circle104"/>
	<circle cx="696.422" cy="199.009" r="4" fill="#0" id="circle105"/>
	<circle cx="696.422" cy="269.664" r="4" fill="#0" id="circle106"/>
	<circle cx="702.074" cy="227.271" r="4" fill="#0" id="circle107"/>
	</g>
</svg>