<?xml version="1.0" encoding="UTF-8" standalone="no"?>
<!-- Created with CurveBenchmark -->
<svg
	xmlns:dc="http://purl.org/dc/elements/1.1/"
	xmlns:cc="http://creativecommons.org/ns#"
	xmlns:rdf="http://www.w3.org/1999/02/22-rdf-syntax-ns#"
	xmlns:svg="http://www.w3.org/2000/svg"
	xmlns="http://www.w3.org/2000/svg"
	xmlns:sodipodi="http://sodipodi.sourceforge.net/DTD/sodipodi-0.dtd"
	xmlns:inkscape="http://www.inkscape.org/namespaces/inkscape"
	width="1000"
	height="1000"
	id="svg2"
	version="1.1"
	sodipodi:docname="manifold/nncrust-teddy225.png.txt">
<defs
	id="defs4" />
<metadata
	id="metadata7">
	<rdf:RDF>
		<cc:Work
			rdf:about="">
			<dc:format>image/svg+xml</dc:format>
			<dc:type
				rdf:resource="http://purl.org/dc/dcmitype/StillImage" />
			<dc:title></dc:title>
		</cc:Work>
	</rdf:RDF>
</metadata>
<g
	inkscape:label="Layer 1"
	inkscape:groupmode="layer"
	id="layer1">
	<path style="fill:none;stroke:red;stroke-width:1px;stroke-linecap:butt;stroke-linejoin:miter;stroke-opacity:1" d="M 165.094,402.496 193.356,391.191 z" id="boundary" inkscape:connector-curvature="0" />
	<path style="fill:none;stroke:red;stroke-width:1px;stroke-linecap:butt;stroke-linejoin:miter;stroke-opacity:1" d="M 142.484,419.453 165.094,402.496 z" id="boundary" inkscape:connector-curvature="0" />
	<path style="fill:none;stroke:red;stroke-width:1px;stroke-linecap:butt;stroke-linejoin:miter;stroke-opacity:1" d="M 94.4387,631.419 71.8291,614.462 z" id="boundary" inkscape:connector-curvature="0" />
	<path style="fill:none;stroke:red;stroke-width:1px;stroke-linecap:butt;stroke-linejoin:miter;stroke-opacity:1" d="M 117.048,433.584 142.484,419.453 z" id="boundary" inkscape:connector-curvature="0" />
	<path style="fill:none;stroke:red;stroke-width:1px;stroke-linecap:butt;stroke-linejoin:miter;stroke-opacity:1" d="M 207.487,49.2194 207.487,77.4815 z" id="boundary" inkscape:connector-curvature="0" />
	<path style="fill:none;stroke:red;stroke-width:1px;stroke-linecap:butt;stroke-linejoin:miter;stroke-opacity:1" d="M 207.487,105.744 207.487,77.4815 z" id="boundary" inkscape:connector-curvature="0" />
	<path style="fill:none;stroke:red;stroke-width:1px;stroke-linecap:butt;stroke-linejoin:miter;stroke-opacity:1" d="M 207.487,105.744 215.966,134.006 z" id="boundary" inkscape:connector-curvature="0" />
	<path style="fill:none;stroke:red;stroke-width:1px;stroke-linecap:butt;stroke-linejoin:miter;stroke-opacity:1" d="M 207.487,49.2194 230.097,26.6097 z" id="boundary" inkscape:connector-curvature="0" />
	<path style="fill:none;stroke:red;stroke-width:1px;stroke-linecap:butt;stroke-linejoin:miter;stroke-opacity:1" d="M 117.048,433.584 88.7863,439.236 z" id="boundary" inkscape:connector-curvature="0" />
	<path style="fill:none;stroke:red;stroke-width:1px;stroke-linecap:butt;stroke-linejoin:miter;stroke-opacity:1" d="M 4,524.023 15.3048,484.456 z" id="boundary" inkscape:connector-curvature="0" />
	<path style="fill:none;stroke:red;stroke-width:1px;stroke-linecap:butt;stroke-linejoin:miter;stroke-opacity:1" d="M 18.1311,549.459 4,524.023 z" id="boundary" inkscape:connector-curvature="0" />
	<path style="fill:none;stroke:red;stroke-width:1px;stroke-linecap:butt;stroke-linejoin:miter;stroke-opacity:1" d="M 18.1311,549.459 26.6097,577.721 z" id="boundary" inkscape:connector-curvature="0" />
	<path style="fill:none;stroke:red;stroke-width:1px;stroke-linecap:butt;stroke-linejoin:miter;stroke-opacity:1" d="M 49.2194,597.504 26.6097,577.721 z" id="boundary" inkscape:connector-curvature="0" />
	<path style="fill:none;stroke:red;stroke-width:1px;stroke-linecap:butt;stroke-linejoin:miter;stroke-opacity:1" d="M 60.5242,450.541 88.7863,439.236 z" id="boundary" inkscape:connector-curvature="0" />
	<path style="fill:none;stroke:red;stroke-width:1px;stroke-linecap:butt;stroke-linejoin:miter;stroke-opacity:1" d="M 71.8291,614.462 49.2194,597.504 z" id="boundary" inkscape:connector-curvature="0" />
	<path style="fill:none;stroke:red;stroke-width:1px;stroke-linecap:butt;stroke-linejoin:miter;stroke-opacity:1" d="M 15.3048,484.456 32.2621,461.846 z" id="boundary" inkscape:connector-curvature="0" />
	<path style="fill:none;stroke:red;stroke-width:1px;stroke-linecap:butt;stroke-linejoin:miter;stroke-opacity:1" d="M 32.2621,461.846 60.5242,450.541 z" id="boundary" inkscape:connector-curvature="0" />
	<path style="fill:none;stroke:red;stroke-width:1px;stroke-linecap:butt;stroke-linejoin:miter;stroke-opacity:1" d="M 286.621,4 314.883,4 z" id="boundary" inkscape:connector-curvature="0" />
	<path style="fill:none;stroke:red;stroke-width:1px;stroke-linecap:butt;stroke-linejoin:miter;stroke-opacity:1" d="M 258.359,15.3048 286.621,4 z" id="boundary" inkscape:connector-curvature="0" />
	<path style="fill:none;stroke:red;stroke-width:1px;stroke-linecap:butt;stroke-linejoin:miter;stroke-opacity:1" d="M 314.883,4 343.145,9.65242 z" id="boundary" inkscape:connector-curvature="0" />
	<path style="fill:none;stroke:red;stroke-width:1px;stroke-linecap:butt;stroke-linejoin:miter;stroke-opacity:1" d="M 343.145,9.65242 371.407,20.9573 z" id="boundary" inkscape:connector-curvature="0" />
	<path style="fill:none;stroke:red;stroke-width:1px;stroke-linecap:butt;stroke-linejoin:miter;stroke-opacity:1" d="M 478.803,37.9145 450.541,43.567 z" id="boundary" inkscape:connector-curvature="0" />
	<path style="fill:none;stroke:red;stroke-width:1px;stroke-linecap:butt;stroke-linejoin:miter;stroke-opacity:1" d="M 422.279,43.567 394.017,37.9145 z" id="boundary" inkscape:connector-curvature="0" />
	<path style="fill:none;stroke:red;stroke-width:1px;stroke-linecap:butt;stroke-linejoin:miter;stroke-opacity:1" d="M 394.017,37.9145 371.407,20.9573 z" id="boundary" inkscape:connector-curvature="0" />
	<path style="fill:none;stroke:red;stroke-width:1px;stroke-linecap:butt;stroke-linejoin:miter;stroke-opacity:1" d="M 450.541,43.567 422.279,43.567 z" id="boundary" inkscape:connector-curvature="0" />
	<path style="fill:none;stroke:red;stroke-width:1px;stroke-linecap:butt;stroke-linejoin:miter;stroke-opacity:1" d="M 227.271,162.268 215.966,134.006 z" id="boundary" inkscape:connector-curvature="0" />
	<path style="fill:none;stroke:red;stroke-width:1px;stroke-linecap:butt;stroke-linejoin:miter;stroke-opacity:1" d="M 227.271,162.268 235.749,190.53 z" id="boundary" inkscape:connector-curvature="0" />
	<path style="fill:none;stroke:red;stroke-width:1px;stroke-linecap:butt;stroke-linejoin:miter;stroke-opacity:1" d="M 235.749,190.53 235.749,218.792 z" id="boundary" inkscape:connector-curvature="0" />
	<path style="fill:none;stroke:red;stroke-width:1px;stroke-linecap:butt;stroke-linejoin:miter;stroke-opacity:1" d="M 235.749,218.792 235.749,247.054 z" id="boundary" inkscape:connector-curvature="0" />
	<path style="fill:none;stroke:red;stroke-width:1px;stroke-linecap:butt;stroke-linejoin:miter;stroke-opacity:1" d="M 235.749,247.054 235.749,275.316 z" id="boundary" inkscape:connector-curvature="0" />
	<path style="fill:none;stroke:red;stroke-width:1px;stroke-linecap:butt;stroke-linejoin:miter;stroke-opacity:1" d="M 235.749,275.316 238.575,303.578 z" id="boundary" inkscape:connector-curvature="0" />
	<path style="fill:none;stroke:red;stroke-width:1px;stroke-linecap:butt;stroke-linejoin:miter;stroke-opacity:1" d="M 244.228,331.84 249.88,382.712 z" id="boundary" inkscape:connector-curvature="0" />
	<path style="fill:none;stroke:red;stroke-width:1px;stroke-linecap:butt;stroke-linejoin:miter;stroke-opacity:1" d="M 249.88,382.712 221.618,382.712 z" id="boundary" inkscape:connector-curvature="0" />
	<path style="fill:none;stroke:red;stroke-width:1px;stroke-linecap:butt;stroke-linejoin:miter;stroke-opacity:1" d="M 221.618,382.712 193.356,391.191 z" id="boundary" inkscape:connector-curvature="0" />
	<path style="fill:none;stroke:red;stroke-width:1px;stroke-linecap:butt;stroke-linejoin:miter;stroke-opacity:1" d="M 244.228,331.84 238.575,303.578 z" id="boundary" inkscape:connector-curvature="0" />
	<path style="fill:none;stroke:red;stroke-width:1px;stroke-linecap:butt;stroke-linejoin:miter;stroke-opacity:1" d="M 252.707,690.769 249.88,382.712 z" id="boundary" inkscape:connector-curvature="0" />
	<path style="fill:none;stroke:red;stroke-width:1px;stroke-linecap:butt;stroke-linejoin:miter;stroke-opacity:1" d="M 230.097,26.6097 258.359,15.3048 z" id="boundary" inkscape:connector-curvature="0" />
	<path style="fill:none;stroke:red;stroke-width:1px;stroke-linecap:butt;stroke-linejoin:miter;stroke-opacity:1" d="M 94.4387,733.162 71.8291,750.12 z" id="boundary" inkscape:connector-curvature="0" />
	<path style="fill:none;stroke:red;stroke-width:1px;stroke-linecap:butt;stroke-linejoin:miter;stroke-opacity:1" d="M 71.8291,750.12 49.2194,772.729 z" id="boundary" inkscape:connector-curvature="0" />
	<path style="fill:none;stroke:red;stroke-width:1px;stroke-linecap:butt;stroke-linejoin:miter;stroke-opacity:1" d="M 37.9145,806.644 49.2194,772.729 z" id="boundary" inkscape:connector-curvature="0" />
	<path style="fill:none;stroke:red;stroke-width:1px;stroke-linecap:butt;stroke-linejoin:miter;stroke-opacity:1" d="M 122.701,642.724 150.963,654.028 z" id="boundary" inkscape:connector-curvature="0" />
	<path style="fill:none;stroke:red;stroke-width:1px;stroke-linecap:butt;stroke-linejoin:miter;stroke-opacity:1" d="M 94.4387,733.162 122.701,727.51 z" id="boundary" inkscape:connector-curvature="0" />
	<path style="fill:none;stroke:red;stroke-width:1px;stroke-linecap:butt;stroke-linejoin:miter;stroke-opacity:1" d="M 122.701,727.51 150.963,727.51 z" id="boundary" inkscape:connector-curvature="0" />
	<path style="fill:none;stroke:red;stroke-width:1px;stroke-linecap:butt;stroke-linejoin:miter;stroke-opacity:1" d="M 94.4387,631.419 122.701,642.724 z" id="boundary" inkscape:connector-curvature="0" />
	<path style="fill:none;stroke:red;stroke-width:1px;stroke-linecap:butt;stroke-linejoin:miter;stroke-opacity:1" d="M 26.6097,846.211 26.6097,874.473 z" id="boundary" inkscape:connector-curvature="0" />
	<path style="fill:none;stroke:red;stroke-width:1px;stroke-linecap:butt;stroke-linejoin:miter;stroke-opacity:1" d="M 32.2621,902.735 26.6097,874.473 z" id="boundary" inkscape:connector-curvature="0" />
	<path style="fill:none;stroke:red;stroke-width:1px;stroke-linecap:butt;stroke-linejoin:miter;stroke-opacity:1" d="M 32.2621,902.735 32.2621,930.997 z" id="boundary" inkscape:connector-curvature="0" />
	<path style="fill:none;stroke:red;stroke-width:1px;stroke-linecap:butt;stroke-linejoin:miter;stroke-opacity:1" d="M 46.3932,956.433 32.2621,930.997 z" id="boundary" inkscape:connector-curvature="0" />
	<path style="fill:none;stroke:red;stroke-width:1px;stroke-linecap:butt;stroke-linejoin:miter;stroke-opacity:1" d="M 26.6097,846.211 37.9145,806.644 z" id="boundary" inkscape:connector-curvature="0" />
	<path style="fill:none;stroke:red;stroke-width:1px;stroke-linecap:butt;stroke-linejoin:miter;stroke-opacity:1" d="M 69.0028,973.39 46.3932,956.433 z" id="boundary" inkscape:connector-curvature="0" />
	<path style="fill:none;stroke:red;stroke-width:1px;stroke-linecap:butt;stroke-linejoin:miter;stroke-opacity:1" d="M 119.875,996 91.6125,990.348 z" id="boundary" inkscape:connector-curvature="0" />
	<path style="fill:none;stroke:red;stroke-width:1px;stroke-linecap:butt;stroke-linejoin:miter;stroke-opacity:1" d="M 91.6125,990.348 69.0028,973.39 z" id="boundary" inkscape:connector-curvature="0" />
	<path style="fill:none;stroke:red;stroke-width:1px;stroke-linecap:butt;stroke-linejoin:miter;stroke-opacity:1" d="M 148.137,996 119.875,996 z" id="boundary" inkscape:connector-curvature="0" />
	<path style="fill:none;stroke:red;stroke-width:1px;stroke-linecap:butt;stroke-linejoin:miter;stroke-opacity:1" d="M 207.487,721.858 179.225,727.51 z" id="boundary" inkscape:connector-curvature="0" />
	<path style="fill:none;stroke:red;stroke-width:1px;stroke-linecap:butt;stroke-linejoin:miter;stroke-opacity:1" d="M 179.225,662.507 150.963,654.028 z" id="boundary" inkscape:connector-curvature="0" />
	<path style="fill:none;stroke:red;stroke-width:1px;stroke-linecap:butt;stroke-linejoin:miter;stroke-opacity:1" d="M 150.963,727.51 179.225,727.51 z" id="boundary" inkscape:connector-curvature="0" />
	<path style="fill:none;stroke:red;stroke-width:1px;stroke-linecap:butt;stroke-linejoin:miter;stroke-opacity:1" d="M 179.225,662.507 207.487,665.333 z" id="boundary" inkscape:connector-curvature="0" />
	<path style="fill:none;stroke:red;stroke-width:1px;stroke-linecap:butt;stroke-linejoin:miter;stroke-opacity:1" d="M 235.749,668.16 252.707,690.769 z" id="boundary" inkscape:connector-curvature="0" />
	<path style="fill:none;stroke:red;stroke-width:1px;stroke-linecap:butt;stroke-linejoin:miter;stroke-opacity:1" d="M 252.707,690.769 235.749,716.205 z" id="boundary" inkscape:connector-curvature="0" />
	<path style="fill:none;stroke:red;stroke-width:1px;stroke-linecap:butt;stroke-linejoin:miter;stroke-opacity:1" d="M 207.487,721.858 235.749,716.205 z" id="boundary" inkscape:connector-curvature="0" />
	<path style="fill:none;stroke:red;stroke-width:1px;stroke-linecap:butt;stroke-linejoin:miter;stroke-opacity:1" d="M 286.621,973.39 258.359,973.39 z" id="boundary" inkscape:connector-curvature="0" />
	<path style="fill:none;stroke:red;stroke-width:1px;stroke-linecap:butt;stroke-linejoin:miter;stroke-opacity:1" d="M 207.487,665.333 235.749,668.16 z" id="boundary" inkscape:connector-curvature="0" />
	<path style="fill:none;stroke:red;stroke-width:1px;stroke-linecap:butt;stroke-linejoin:miter;stroke-opacity:1" d="M 286.621,973.39 314.883,979.043 z" id="boundary" inkscape:connector-curvature="0" />
	<path style="fill:none;stroke:red;stroke-width:1px;stroke-linecap:butt;stroke-linejoin:miter;stroke-opacity:1" d="M 258.359,973.39 232.923,990.348 z" id="boundary" inkscape:connector-curvature="0" />
	<path style="fill:none;stroke:red;stroke-width:1px;stroke-linecap:butt;stroke-linejoin:miter;stroke-opacity:1" d="M 232.923,990.348 204.661,996 z" id="boundary" inkscape:connector-curvature="0" />
	<path style="fill:none;stroke:red;stroke-width:1px;stroke-linecap:butt;stroke-linejoin:miter;stroke-opacity:1" d="M 204.661,996 176.399,996 z" id="boundary" inkscape:connector-curvature="0" />
	<path style="fill:none;stroke:red;stroke-width:1px;stroke-linecap:butt;stroke-linejoin:miter;stroke-opacity:1" d="M 314.883,979.043 343.145,984.695 z" id="boundary" inkscape:connector-curvature="0" />
	<path style="fill:none;stroke:red;stroke-width:1px;stroke-linecap:butt;stroke-linejoin:miter;stroke-opacity:1" d="M 371.407,990.348 399.67,990.348 z" id="boundary" inkscape:connector-curvature="0" />
	<path style="fill:none;stroke:red;stroke-width:1px;stroke-linecap:butt;stroke-linejoin:miter;stroke-opacity:1" d="M 399.67,990.348 427.932,996 z" id="boundary" inkscape:connector-curvature="0" />
	<path style="fill:none;stroke:red;stroke-width:1px;stroke-linecap:butt;stroke-linejoin:miter;stroke-opacity:1" d="M 371.407,990.348 343.145,984.695 z" id="boundary" inkscape:connector-curvature="0" />
	<path style="fill:none;stroke:red;stroke-width:1px;stroke-linecap:butt;stroke-linejoin:miter;stroke-opacity:1" d="M 456.194,996 427.932,996 z" id="boundary" inkscape:connector-curvature="0" />
	<path style="fill:none;stroke:red;stroke-width:1px;stroke-linecap:butt;stroke-linejoin:miter;stroke-opacity:1" d="M 176.399,996 148.137,996 z" id="boundary" inkscape:connector-curvature="0" />
	<path style="fill:none;stroke:red;stroke-width:1px;stroke-linecap:butt;stroke-linejoin:miter;stroke-opacity:1" d="M 507.066,43.567 478.803,37.9145 z" id="boundary" inkscape:connector-curvature="0" />
	<path style="fill:none;stroke:red;stroke-width:1px;stroke-linecap:butt;stroke-linejoin:miter;stroke-opacity:1" d="M 614.462,9.65242 586.199,20.9573 z" id="boundary" inkscape:connector-curvature="0" />
	<path style="fill:none;stroke:red;stroke-width:1px;stroke-linecap:butt;stroke-linejoin:miter;stroke-opacity:1" d="M 586.199,20.9573 563.59,37.9145 z" id="boundary" inkscape:connector-curvature="0" />
	<path style="fill:none;stroke:red;stroke-width:1px;stroke-linecap:butt;stroke-linejoin:miter;stroke-opacity:1" d="M 563.59,37.9145 535.328,43.567 z" id="boundary" inkscape:connector-curvature="0" />
	<path style="fill:none;stroke:red;stroke-width:1px;stroke-linecap:butt;stroke-linejoin:miter;stroke-opacity:1" d="M 535.328,43.567 507.066,43.567 z" id="boundary" inkscape:connector-curvature="0" />
	<path style="fill:none;stroke:red;stroke-width:1px;stroke-linecap:butt;stroke-linejoin:miter;stroke-opacity:1" d="M 730.336,167.92 719.031,196.182 z" id="boundary" inkscape:connector-curvature="0" />
	<path style="fill:none;stroke:red;stroke-width:1px;stroke-linecap:butt;stroke-linejoin:miter;stroke-opacity:1" d="M 642.724,4 670.986,4 z" id="boundary" inkscape:connector-curvature="0" />
	<path style="fill:none;stroke:red;stroke-width:1px;stroke-linecap:butt;stroke-linejoin:miter;stroke-opacity:1" d="M 642.724,4 614.462,9.65242 z" id="boundary" inkscape:connector-curvature="0" />
	<path style="fill:none;stroke:red;stroke-width:1px;stroke-linecap:butt;stroke-linejoin:miter;stroke-opacity:1" d="M 687.943,368.581 702.074,343.145 z" id="boundary" inkscape:connector-curvature="0" />
	<path style="fill:none;stroke:red;stroke-width:1px;stroke-linecap:butt;stroke-linejoin:miter;stroke-opacity:1" d="M 713.379,382.712 687.943,368.581 z" id="boundary" inkscape:connector-curvature="0" />
	<path style="fill:none;stroke:red;stroke-width:1px;stroke-linecap:butt;stroke-linejoin:miter;stroke-opacity:1" d="M 713.379,309.231 702.074,343.145 z" id="boundary" inkscape:connector-curvature="0" />
	<path style="fill:none;stroke:red;stroke-width:1px;stroke-linecap:butt;stroke-linejoin:miter;stroke-opacity:1" d="M 741.641,382.712 713.379,382.712 z" id="boundary" inkscape:connector-curvature="0" />
	<path style="fill:none;stroke:red;stroke-width:1px;stroke-linecap:butt;stroke-linejoin:miter;stroke-opacity:1" d="M 719.031,224.444 719.031,252.707 z" id="boundary" inkscape:connector-curvature="0" />
	<path style="fill:none;stroke:red;stroke-width:1px;stroke-linecap:butt;stroke-linejoin:miter;stroke-opacity:1" d="M 719.031,224.444 719.031,196.182 z" id="boundary" inkscape:connector-curvature="0" />
	<path style="fill:none;stroke:red;stroke-width:1px;stroke-linecap:butt;stroke-linejoin:miter;stroke-opacity:1" d="M 719.031,252.707 719.031,280.969 z" id="boundary" inkscape:connector-curvature="0" />
	<path style="fill:none;stroke:red;stroke-width:1px;stroke-linecap:butt;stroke-linejoin:miter;stroke-opacity:1" d="M 719.031,280.969 713.379,309.231 z" id="boundary" inkscape:connector-curvature="0" />
	<path style="fill:none;stroke:red;stroke-width:1px;stroke-linecap:butt;stroke-linejoin:miter;stroke-opacity:1" d="M 687.943,662.507 687.943,368.581 z" id="boundary" inkscape:connector-curvature="0" />
	<path style="fill:none;stroke:red;stroke-width:1px;stroke-linecap:butt;stroke-linejoin:miter;stroke-opacity:1" d="M 670.986,4 699.248,12.4786 z" id="boundary" inkscape:connector-curvature="0" />
	<path style="fill:none;stroke:red;stroke-width:1px;stroke-linecap:butt;stroke-linejoin:miter;stroke-opacity:1" d="M 744.467,142.484 730.336,167.92 z" id="boundary" inkscape:connector-curvature="0" />
	<path style="fill:none;stroke:red;stroke-width:1px;stroke-linecap:butt;stroke-linejoin:miter;stroke-opacity:1" d="M 769.903,394.017 741.641,382.712 z" id="boundary" inkscape:connector-curvature="0" />
	<path style="fill:none;stroke:red;stroke-width:1px;stroke-linecap:butt;stroke-linejoin:miter;stroke-opacity:1" d="M 724.684,26.6097 744.467,49.2194 z" id="boundary" inkscape:connector-curvature="0" />
	<path style="fill:none;stroke:red;stroke-width:1px;stroke-linecap:butt;stroke-linejoin:miter;stroke-opacity:1" d="M 699.248,12.4786 724.684,26.6097 z" id="boundary" inkscape:connector-curvature="0" />
	<path style="fill:none;stroke:red;stroke-width:1px;stroke-linecap:butt;stroke-linejoin:miter;stroke-opacity:1" d="M 744.467,142.484 752.946,105.744 z" id="boundary" inkscape:connector-curvature="0" />
	<path style="fill:none;stroke:red;stroke-width:1px;stroke-linecap:butt;stroke-linejoin:miter;stroke-opacity:1" d="M 798.165,405.322 769.903,394.017 z" id="boundary" inkscape:connector-curvature="0" />
	<path style="fill:none;stroke:red;stroke-width:1px;stroke-linecap:butt;stroke-linejoin:miter;stroke-opacity:1" d="M 798.165,405.322 815.123,427.932 z" id="boundary" inkscape:connector-curvature="0" />
	<path style="fill:none;stroke:red;stroke-width:1px;stroke-linecap:butt;stroke-linejoin:miter;stroke-opacity:1" d="M 752.946,105.744 758.598,74.6553 z" id="boundary" inkscape:connector-curvature="0" />
	<path style="fill:none;stroke:red;stroke-width:1px;stroke-linecap:butt;stroke-linejoin:miter;stroke-opacity:1" d="M 744.467,49.2194 758.598,74.6553 z" id="boundary" inkscape:connector-curvature="0" />
	<path style="fill:none;stroke:red;stroke-width:1px;stroke-linecap:butt;stroke-linejoin:miter;stroke-opacity:1" d="M 815.123,427.932 843.385,439.236 z" id="boundary" inkscape:connector-curvature="0" />
	<path style="fill:none;stroke:red;stroke-width:1px;stroke-linecap:butt;stroke-linejoin:miter;stroke-opacity:1" d="M 894.256,580.547 871.647,603.157 z" id="boundary" inkscape:connector-curvature="0" />
	<path style="fill:none;stroke:red;stroke-width:1px;stroke-linecap:butt;stroke-linejoin:miter;stroke-opacity:1" d="M 843.385,439.236 871.647,450.541 z" id="boundary" inkscape:connector-curvature="0" />
	<path style="fill:none;stroke:red;stroke-width:1px;stroke-linecap:butt;stroke-linejoin:miter;stroke-opacity:1" d="M 894.256,467.499 911.214,490.108 z" id="boundary" inkscape:connector-curvature="0" />
	<path style="fill:none;stroke:red;stroke-width:1px;stroke-linecap:butt;stroke-linejoin:miter;stroke-opacity:1" d="M 911.214,490.108 916.866,518.37 z" id="boundary" inkscape:connector-curvature="0" />
	<path style="fill:none;stroke:red;stroke-width:1px;stroke-linecap:butt;stroke-linejoin:miter;stroke-opacity:1" d="M 908.387,555.111 894.256,580.547 z" id="boundary" inkscape:connector-curvature="0" />
	<path style="fill:none;stroke:red;stroke-width:1px;stroke-linecap:butt;stroke-linejoin:miter;stroke-opacity:1" d="M 916.866,518.37 908.387,555.111 z" id="boundary" inkscape:connector-curvature="0" />
	<path style="fill:none;stroke:red;stroke-width:1px;stroke-linecap:butt;stroke-linejoin:miter;stroke-opacity:1" d="M 871.647,450.541 894.256,467.499 z" id="boundary" inkscape:connector-curvature="0" />
	<path style="fill:none;stroke:red;stroke-width:1px;stroke-linecap:butt;stroke-linejoin:miter;stroke-opacity:1" d="M 871.647,603.157 849.037,620.114 z" id="boundary" inkscape:connector-curvature="0" />
	<path style="fill:none;stroke:red;stroke-width:1px;stroke-linecap:butt;stroke-linejoin:miter;stroke-opacity:1" d="M 690.769,690.769 687.943,662.507 z" id="boundary" inkscape:connector-curvature="0" />
	<path style="fill:none;stroke:red;stroke-width:1px;stroke-linecap:butt;stroke-linejoin:miter;stroke-opacity:1" d="M 687.943,662.507 716.205,668.16 z" id="boundary" inkscape:connector-curvature="0" />
	<path style="fill:none;stroke:red;stroke-width:1px;stroke-linecap:butt;stroke-linejoin:miter;stroke-opacity:1" d="M 625.766,979.043 654.028,979.043 z" id="boundary" inkscape:connector-curvature="0" />
	<path style="fill:none;stroke:red;stroke-width:1px;stroke-linecap:butt;stroke-linejoin:miter;stroke-opacity:1" d="M 654.028,979.043 679.464,993.174 z" id="boundary" inkscape:connector-curvature="0" />
	<path style="fill:none;stroke:red;stroke-width:1px;stroke-linecap:butt;stroke-linejoin:miter;stroke-opacity:1" d="M 690.769,690.769 704.9,716.205 z" id="boundary" inkscape:connector-curvature="0" />
	<path style="fill:none;stroke:red;stroke-width:1px;stroke-linecap:butt;stroke-linejoin:miter;stroke-opacity:1" d="M 716.205,668.16 744.467,668.16 z" id="boundary" inkscape:connector-curvature="0" />
	<path style="fill:none;stroke:red;stroke-width:1px;stroke-linecap:butt;stroke-linejoin:miter;stroke-opacity:1" d="M 704.9,716.205 733.162,724.684 z" id="boundary" inkscape:connector-curvature="0" />
	<path style="fill:none;stroke:red;stroke-width:1px;stroke-linecap:butt;stroke-linejoin:miter;stroke-opacity:1" d="M 733.162,724.684 761.425,727.51 z" id="boundary" inkscape:connector-curvature="0" />
	<path style="fill:none;stroke:red;stroke-width:1px;stroke-linecap:butt;stroke-linejoin:miter;stroke-opacity:1" d="M 687.943,662.507 798.165,648.376 z" id="boundary" inkscape:connector-curvature="0" />
	<path style="fill:none;stroke:red;stroke-width:1px;stroke-linecap:butt;stroke-linejoin:miter;stroke-opacity:1" d="M 484.456,996 456.194,996 z" id="boundary" inkscape:connector-curvature="0" />
	<path style="fill:none;stroke:red;stroke-width:1px;stroke-linecap:butt;stroke-linejoin:miter;stroke-opacity:1" d="M 540.98,996 512.718,996 z" id="boundary" inkscape:connector-curvature="0" />
	<path style="fill:none;stroke:red;stroke-width:1px;stroke-linecap:butt;stroke-linejoin:miter;stroke-opacity:1" d="M 569.242,990.348 540.98,996 z" id="boundary" inkscape:connector-curvature="0" />
	<path style="fill:none;stroke:red;stroke-width:1px;stroke-linecap:butt;stroke-linejoin:miter;stroke-opacity:1" d="M 512.718,996 484.456,996 z" id="boundary" inkscape:connector-curvature="0" />
	<path style="fill:none;stroke:red;stroke-width:1px;stroke-linecap:butt;stroke-linejoin:miter;stroke-opacity:1" d="M 597.504,990.348 569.242,990.348 z" id="boundary" inkscape:connector-curvature="0" />
	<path style="fill:none;stroke:red;stroke-width:1px;stroke-linecap:butt;stroke-linejoin:miter;stroke-opacity:1" d="M 625.766,979.043 597.504,990.348 z" id="boundary" inkscape:connector-curvature="0" />
	<path style="fill:none;stroke:red;stroke-width:1px;stroke-linecap:butt;stroke-linejoin:miter;stroke-opacity:1" d="M 707.726,996 679.464,993.174 z" id="boundary" inkscape:connector-curvature="0" />
	<path style="fill:none;stroke:red;stroke-width:1px;stroke-linecap:butt;stroke-linejoin:miter;stroke-opacity:1" d="M 735.989,996 707.726,996 z" id="boundary" inkscape:connector-curvature="0" />
	<path style="fill:none;stroke:red;stroke-width:1px;stroke-linecap:butt;stroke-linejoin:miter;stroke-opacity:1" d="M 772.729,662.507 798.165,648.376 z" id="boundary" inkscape:connector-curvature="0" />
	<path style="fill:none;stroke:red;stroke-width:1px;stroke-linecap:butt;stroke-linejoin:miter;stroke-opacity:1" d="M 772.729,662.507 744.467,668.16 z" id="boundary" inkscape:connector-curvature="0" />
	<path style="fill:none;stroke:red;stroke-width:1px;stroke-linecap:butt;stroke-linejoin:miter;stroke-opacity:1" d="M 761.425,727.51 789.687,727.51 z" id="boundary" inkscape:connector-curvature="0" />
	<path style="fill:none;stroke:red;stroke-width:1px;stroke-linecap:butt;stroke-linejoin:miter;stroke-opacity:1" d="M 789.687,727.51 815.123,741.641 z" id="boundary" inkscape:connector-curvature="0" />
	<path style="fill:none;stroke:red;stroke-width:1px;stroke-linecap:butt;stroke-linejoin:miter;stroke-opacity:1" d="M 826.427,637.071 849.037,620.114 z" id="boundary" inkscape:connector-curvature="0" />
	<path style="fill:none;stroke:red;stroke-width:1px;stroke-linecap:butt;stroke-linejoin:miter;stroke-opacity:1" d="M 826.427,637.071 798.165,648.376 z" id="boundary" inkscape:connector-curvature="0" />
	<path style="fill:none;stroke:red;stroke-width:1px;stroke-linecap:butt;stroke-linejoin:miter;stroke-opacity:1" d="M 815.123,741.641 840.558,755.772 z" id="boundary" inkscape:connector-curvature="0" />
	<path style="fill:none;stroke:red;stroke-width:1px;stroke-linecap:butt;stroke-linejoin:miter;stroke-opacity:1" d="M 840.558,755.772 854.689,781.208 z" id="boundary" inkscape:connector-curvature="0" />
	<path style="fill:none;stroke:red;stroke-width:1px;stroke-linecap:butt;stroke-linejoin:miter;stroke-opacity:1" d="M 854.689,781.208 865.994,809.47 z" id="boundary" inkscape:connector-curvature="0" />
	<path style="fill:none;stroke:red;stroke-width:1px;stroke-linecap:butt;stroke-linejoin:miter;stroke-opacity:1" d="M 820.775,990.348 843.385,970.564 z" id="boundary" inkscape:connector-curvature="0" />
	<path style="fill:none;stroke:red;stroke-width:1px;stroke-linecap:butt;stroke-linejoin:miter;stroke-opacity:1" d="M 843.385,970.564 865.994,953.607 z" id="boundary" inkscape:connector-curvature="0" />
	<path style="fill:none;stroke:red;stroke-width:1px;stroke-linecap:butt;stroke-linejoin:miter;stroke-opacity:1" d="M 820.775,990.348 792.513,996 z" id="boundary" inkscape:connector-curvature="0" />
	<path style="fill:none;stroke:red;stroke-width:1px;stroke-linecap:butt;stroke-linejoin:miter;stroke-opacity:1" d="M 792.513,996 764.251,996 z" id="boundary" inkscape:connector-curvature="0" />
	<path style="fill:none;stroke:red;stroke-width:1px;stroke-linecap:butt;stroke-linejoin:miter;stroke-opacity:1" d="M 865.994,953.607 871.647,908.387 z" id="boundary" inkscape:connector-curvature="0" />
	<path style="fill:none;stroke:red;stroke-width:1px;stroke-linecap:butt;stroke-linejoin:miter;stroke-opacity:1" d="M 871.647,908.387 877.299,865.994 z" id="boundary" inkscape:connector-curvature="0" />
	<path style="fill:none;stroke:red;stroke-width:1px;stroke-linecap:butt;stroke-linejoin:miter;stroke-opacity:1" d="M 871.647,837.732 877.299,865.994 z" id="boundary" inkscape:connector-curvature="0" />
	<path style="fill:none;stroke:red;stroke-width:1px;stroke-linecap:butt;stroke-linejoin:miter;stroke-opacity:1" d="M 871.647,837.732 865.994,809.47 z" id="boundary" inkscape:connector-curvature="0" />
	<path style="fill:none;stroke:red;stroke-width:1px;stroke-linecap:butt;stroke-linejoin:miter;stroke-opacity:1" d="M 764.251,996 735.989,996 z" id="boundary" inkscape:connector-curvature="0" />
	<circle cx="4" cy="524.023" r="4" fill="#0" id="circle0"/>
	<circle cx="15.3048" cy="484.456" r="4" fill="#0" id="circle1"/>
	<circle cx="18.1311" cy="549.459" r="4" fill="#0" id="circle2"/>
	<circle cx="26.6097" cy="577.721" r="4" fill="#0" id="circle3"/>
	<circle cx="26.6097" cy="846.211" r="4" fill="#0" id="circle4"/>
	<circle cx="26.6097" cy="874.473" r="4" fill="#0" id="circle5"/>
	<circle cx="32.2621" cy="461.846" r="4" fill="#0" id="circle6"/>
	<circle cx="32.2621" cy="902.735" r="4" fill="#0" id="circle7"/>
	<circle cx="32.2621" cy="930.997" r="4" fill="#0" id="circle8"/>
	<circle cx="37.9145" cy="806.644" r="4" fill="#0" id="circle9"/>
	<circle cx="46.3932" cy="956.433" r="4" fill="#0" id="circle10"/>
	<circle cx="49.2194" cy="597.504" r="4" fill="#0" id="circle11"/>
	<circle cx="49.2194" cy="772.729" r="4" fill="#0" id="circle12"/>
	<circle cx="60.5242" cy="450.541" r="4" fill="#0" id="circle13"/>
	<circle cx="69.0028" cy="973.39" r="4" fill="#0" id="circle14"/>
	<circle cx="71.8291" cy="614.462" r="4" fill="#0" id="circle15"/>
	<circle cx="71.8291" cy="750.12" r="4" fill="#0" id="circle16"/>
	<circle cx="88.7863" cy="439.236" r="4" fill="#0" id="circle17"/>
	<circle cx="91.6125" cy="990.348" r="4" fill="#0" id="circle18"/>
	<circle cx="94.4387" cy="631.419" r="4" fill="#0" id="circle19"/>
	<circle cx="94.4387" cy="733.162" r="4" fill="#0" id="circle20"/>
	<circle cx="117.048" cy="433.584" r="4" fill="#0" id="circle21"/>
	<circle cx="119.875" cy="996" r="4" fill="#0" id="circle22"/>
	<circle cx="122.701" cy="642.724" r="4" fill="#0" id="circle23"/>
	<circle cx="122.701" cy="727.51" r="4" fill="#0" id="circle24"/>
	<circle cx="142.484" cy="419.453" r="4" fill="#0" id="circle25"/>
	<circle cx="148.137" cy="996" r="4" fill="#0" id="circle26"/>
	<circle cx="150.963" cy="654.028" r="4" fill="#0" id="circle27"/>
	<circle cx="150.963" cy="727.51" r="4" fill="#0" id="circle28"/>
	<circle cx="165.094" cy="402.496" r="4" fill="#0" id="circle29"/>
	<circle cx="176.399" cy="996" r="4" fill="#0" id="circle30"/>
	<circle cx="179.225" cy="662.507" r="4" fill="#0" id="circle31"/>
	<circle cx="179.225" cy="727.51" r="4" fill="#0" id="circle32"/>
	<circle cx="193.356" cy="391.191" r="4" fill="#0" id="circle33"/>
	<circle cx="204.661" cy="996" r="4" fill="#0" id="circle34"/>
	<circle cx="207.487" cy="49.2194" r="4" fill="#0" id="circle35"/>
	<circle cx="207.487" cy="77.4815" r="4" fill="#0" id="circle36"/>
	<circle cx="207.487" cy="105.744" r="4" fill="#0" id="circle37"/>
	<circle cx="207.487" cy="665.333" r="4" fill="#0" id="circle38"/>
	<circle cx="207.487" cy="721.858" r="4" fill="#0" id="circle39"/>
	<circle cx="215.966" cy="134.006" r="4" fill="#0" id="circle40"/>
	<circle cx="221.618" cy="382.712" r="4" fill="#0" id="circle41"/>
	<circle cx="227.271" cy="162.268" r="4" fill="#0" id="circle42"/>
	<circle cx="230.097" cy="26.6097" r="4" fill="#0" id="circle43"/>
	<circle cx="232.923" cy="990.348" r="4" fill="#0" id="circle44"/>
	<circle cx="235.749" cy="190.53" r="4" fill="#0" id="circle45"/>
	<circle cx="235.749" cy="218.792" r="4" fill="#0" id="circle46"/>
	<circle cx="235.749" cy="247.054" r="4" fill="#0" id="circle47"/>
	<circle cx="235.749" cy="275.316" r="4" fill="#0" id="circle48"/>
	<circle cx="235.749" cy="668.16" r="4" fill="#0" id="circle49"/>
	<circle cx="235.749" cy="716.205" r="4" fill="#0" id="circle50"/>
	<circle cx="238.575" cy="303.578" r="4" fill="#0" id="circle51"/>
	<circle cx="244.228" cy="331.84" r="4" fill="#0" id="circle52"/>
	<circle cx="249.88" cy="382.712" r="4" fill="#0" id="circle53"/>
	<circle cx="252.707" cy="690.769" r="4" fill="#0" id="circle54"/>
	<circle cx="258.359" cy="15.3048" r="4" fill="#0" id="circle55"/>
	<circle cx="258.359" cy="973.39" r="4" fill="#0" id="circle56"/>
	<circle cx="286.621" cy="4" r="4" fill="#0" id="circle57"/>
	<circle cx="286.621" cy="973.39" r="4" fill="#0" id="circle58"/>
	<circle cx="314.883" cy="4" r="4" fill="#0" id="circle59"/>
	<circle cx="314.883" cy="979.043" r="4" fill="#0" id="circle60"/>
	<circle cx="343.145" cy="9.65242" r="4" fill="#0" id="circle61"/>
	<circle cx="343.145" cy="984.695" r="4" fill="#0" id="circle62"/>
	<circle cx="371.407" cy="20.9573" r="4" fill="#0" id="circle63"/>
	<circle cx="371.407" cy="990.348" r="4" fill="#0" id="circle64"/>
	<circle cx="394.017" cy="37.9145" r="4" fill="#0" id="circle65"/>
	<circle cx="399.67" cy="990.348" r="4" fill="#0" id="circle66"/>
	<circle cx="422.279" cy="43.567" r="4" fill="#0" id="circle67"/>
	<circle cx="427.932" cy="996" r="4" fill="#0" id="circle68"/>
	<circle cx="450.541" cy="43.567" r="4" fill="#0" id="circle69"/>
	<circle cx="456.194" cy="996" r="4" fill="#0" id="circle70"/>
	<circle cx="478.803" cy="37.9145" r="4" fill="#0" id="circle71"/>
	<circle cx="484.456" cy="996" r="4" fill="#0" id="circle72"/>
	<circle cx="507.066" cy="43.567" r="4" fill="#0" id="circle73"/>
	<circle cx="512.718" cy="996" r="4" fill="#0" id="circle74"/>
	<circle cx="535.328" cy="43.567" r="4" fill="#0" id="circle75"/>
	<circle cx="540.98" cy="996" r="4" fill="#0" id="circle76"/>
	<circle cx="563.59" cy="37.9145" r="4" fill="#0" id="circle77"/>
	<circle cx="569.242" cy="990.348" r="4" fill="#0" id="circle78"/>
	<circle cx="586.199" cy="20.9573" r="4" fill="#0" id="circle79"/>
	<circle cx="597.504" cy="990.348" r="4" fill="#0" id="circle80"/>
	<circle cx="614.462" cy="9.65242" r="4" fill="#0" id="circle81"/>
	<circle cx="625.766" cy="979.043" r="4" fill="#0" id="circle82"/>
	<circle cx="642.724" cy="4" r="4" fill="#0" id="circle83"/>
	<circle cx="654.028" cy="979.043" r="4" fill="#0" id="circle84"/>
	<circle cx="670.986" cy="4" r="4" fill="#0" id="circle85"/>
	<circle cx="679.464" cy="993.174" r="4" fill="#0" id="circle86"/>
	<circle cx="687.943" cy="368.581" r="4" fill="#0" id="circle87"/>
	<circle cx="687.943" cy="662.507" r="4" fill="#0" id="circle88"/>
	<circle cx="690.769" cy="690.769" r="4" fill="#0" id="circle89"/>
	<circle cx="699.248" cy="12.4786" r="4" fill="#0" id="circle90"/>
	<circle cx="702.074" cy="343.145" r="4" fill="#0" id="circle91"/>
	<circle cx="704.9" cy="716.205" r="4" fill="#0" id="circle92"/>
	<circle cx="707.726" cy="996" r="4" fill="#0" id="circle93"/>
	<circle cx="713.379" cy="309.231" r="4" fill="#0" id="circle94"/>
	<circle cx="713.379" cy="382.712" r="4" fill="#0" id="circle95"/>
	<circle cx="716.205" cy="668.16" r="4" fill="#0" id="circle96"/>
	<circle cx="719.031" cy="196.182" r="4" fill="#0" id="circle97"/>
	<circle cx="719.031" cy="224.444" r="4" fill="#0" id="circle98"/>
	<circle cx="719.031" cy="252.707" r="4" fill="#0" id="circle99"/>
	<circle cx="719.031" cy="280.969" r="4" fill="#0" id="circle100"/>
	<circle cx="724.684" cy="26.6097" r="4" fill="#0" id="circle101"/>
	<circle cx="730.336" cy="167.92" r="4" fill="#0" id="circle102"/>
	<circle cx="733.162" cy="724.684" r="4" fill="#0" id="circle103"/>
	<circle cx="735.989" cy="996" r="4" fill="#0" id="circle104"/>
	<circle cx="741.641" cy="382.712" r="4" fill="#0" id="circle105"/>
	<circle cx="744.467" cy="49.2194" r="4" fill="#0" id="circle106"/>
	<circle cx="744.467" cy="142.484" r="4" fill="#0" id="circle107"/>
	<circle cx="744.467" cy="668.16" r="4" fill="#0" id="circle108"/>
	<circle cx="752.946" cy="105.744" r="4" fill="#0" id="circle109"/>
	<circle cx="758.598" cy="74.6553" r="4" fill="#0" id="circle110"/>
	<circle cx="761.425" cy="727.51" r="4" fill="#0" id="circle111"/>
	<circle cx="764.251" cy="996" r="4" fill="#0" id="circle112"/>
	<circle cx="769.903" cy="394.017" r="4" fill="#0" id="circle113"/>
	<circle cx="772.729" cy="662.507" r="4" fill="#0" id="circle114"/>
	<circle cx="789.687" cy="727.51" r="4" fill="#0" id="circle115"/>
	<circle cx="792.513" cy="996" r="4" fill="#0" id="circle116"/>
	<circle cx="798.165" cy="405.322" r="4" fill="#0" id="circle117"/>
	<circle cx="798.165" cy="648.376" r="4" fill="#0" id="circle118"/>
	<circle cx="815.123" cy="427.932" r="4" fill="#0" id="circle119"/>
	<circle cx="815.123" cy="741.641" r="4" fill="#0" id="circle120"/>
	<circle cx="820.775" cy="990.348" r="4" fill="#0" id="circle121"/>
	<circle cx="826.427" cy="637.071" r="4" fill="#0" id="circle122"/>
	<circle cx="840.558" cy="755.772" r="4" fill="#0" id="circle123"/>
	<circle cx="843.385" cy="439.236" r="4" fill="#0" id="circle124"/>
	<circle cx="843.385" cy="970.564" r="4" fill="#0" id="circle125"/>
	<circle cx="849.037" cy="620.114" r="4" fill="#0" id="circle126"/>
	<circle cx="854.689" cy="781.208" r="4" fill="#0" id="circle127"/>
	<circle cx="865.994" cy="809.47" r="4" fill="#0" id="circle128"/>
	<circle cx="865.994" cy="953.607" r="4" fill="#0" id="circle129"/>
	<circle cx="871.647" cy="450.541" r="4" fill="#0" id="circle130"/>
	<circle cx="871.647" cy="603.157" r="4" fill="#0" id="circle131"/>
	<circle cx="871.647" cy="837.732" r="4" fill="#0" id="circle132"/>
	<circle cx="871.647" cy="908.387" r="4" fill="#0" id="circle133"/>
	<circle cx="877.299" cy="865.994" r="4" fill="#0" id="circle134"/>
	<circle cx="894.256" cy="467.499" r="4" fill="#0" id="circle135"/>
	<circle cx="894.256" cy="580.547" r="4" fill="#0" id="circle136"/>
	<circle cx="908.387" cy="555.111" r="4" fill="#0" id="circle137"/>
	<circle cx="911.214" cy="490.108" r="4" fill="#0" id="circle138"/>
	<circle cx="916.866" cy="518.37" r="4" fill="#0" id="circle139"/>
	</g>
</svg>