<?xml version="1.0" encoding="UTF-8" standalone="no"?>
<!-- Created with CurveBenchmark -->
<svg
	xmlns:dc="http://purl.org/dc/elements/1.1/"
	xmlns:cc="http://creativecommons.org/ns#"
	xmlns:rdf="http://www.w3.org/1999/02/22-rdf-syntax-ns#"
	xmlns:svg="http://www.w3.org/2000/svg"
	xmlns="http://www.w3.org/2000/svg"
	xmlns:sodipodi="http://sodipodi.sourceforge.net/DTD/sodipodi-0.dtd"
	xmlns:inkscape="http://www.inkscape.org/namespaces/inkscape"
	width="1000"
	height="1000"
	id="svg2"
	version="1.1"
	sodipodi:docname="manifold/nncrust-stef08.png.txt">
<defs
	id="defs4" />
<metadata
	id="metadata7">
	<rdf:RDF>
		<cc:Work
			rdf:about="">
			<dc:format>image/svg+xml</dc:format>
			<dc:type
				rdf:resource="http://purl.org/dc/dcmitype/StillImage" />
			<dc:title></dc:title>
		</cc:Work>
	</rdf:RDF>
</metadata>
<g
	inkscape:label="Layer 1"
	inkscape:groupmode="layer"
	id="layer1">
	<path style="fill:none;stroke:red;stroke-width:1px;stroke-linecap:butt;stroke-linejoin:miter;stroke-opacity:1" d="M 97.1058,26.0068 110.648,12.4642 z" id="boundary" inkscape:connector-curvature="0" />
	<path style="fill:none;stroke:red;stroke-width:1px;stroke-linecap:butt;stroke-linejoin:miter;stroke-opacity:1" d="M 88.6416,42.9352 97.1058,26.0068 z" id="boundary" inkscape:connector-curvature="0" />
	<path style="fill:none;stroke:red;stroke-width:1px;stroke-linecap:butt;stroke-linejoin:miter;stroke-opacity:1" d="M 80.1775,76.7918 80.1775,59.8635 z" id="boundary" inkscape:connector-curvature="0" />
	<path style="fill:none;stroke:red;stroke-width:1px;stroke-linecap:butt;stroke-linejoin:miter;stroke-opacity:1" d="M 88.6416,92.0273 80.1775,76.7918 z" id="boundary" inkscape:connector-curvature="0" />
	<path style="fill:none;stroke:red;stroke-width:1px;stroke-linecap:butt;stroke-linejoin:miter;stroke-opacity:1" d="M 80.1775,59.8635 88.6416,42.9352 z" id="boundary" inkscape:connector-curvature="0" />
	<path style="fill:none;stroke:red;stroke-width:1px;stroke-linecap:butt;stroke-linejoin:miter;stroke-opacity:1" d="M 127.577,4 144.505,4 z" id="boundary" inkscape:connector-curvature="0" />
	<path style="fill:none;stroke:red;stroke-width:1px;stroke-linecap:butt;stroke-linejoin:miter;stroke-opacity:1" d="M 110.648,12.4642 127.577,4 z" id="boundary" inkscape:connector-curvature="0" />
	<path style="fill:none;stroke:red;stroke-width:1px;stroke-linecap:butt;stroke-linejoin:miter;stroke-opacity:1" d="M 144.505,4 161.433,4 z" id="boundary" inkscape:connector-curvature="0" />
	<path style="fill:none;stroke:red;stroke-width:1px;stroke-linecap:butt;stroke-linejoin:miter;stroke-opacity:1" d="M 176.669,12.4642 161.433,4 z" id="boundary" inkscape:connector-curvature="0" />
	<path style="fill:none;stroke:red;stroke-width:1px;stroke-linecap:butt;stroke-linejoin:miter;stroke-opacity:1" d="M 176.669,12.4642 183.44,29.3925 z" id="boundary" inkscape:connector-curvature="0" />
	<path style="fill:none;stroke:red;stroke-width:1px;stroke-linecap:butt;stroke-linejoin:miter;stroke-opacity:1" d="M 183.44,29.3925 200.369,34.471 z" id="boundary" inkscape:connector-curvature="0" />
	<path style="fill:none;stroke:red;stroke-width:1px;stroke-linecap:butt;stroke-linejoin:miter;stroke-opacity:1" d="M 200.369,34.471 200.369,51.3993 z" id="boundary" inkscape:connector-curvature="0" />
	<path style="fill:none;stroke:red;stroke-width:1px;stroke-linecap:butt;stroke-linejoin:miter;stroke-opacity:1" d="M 217.297,54.785 200.369,51.3993 z" id="boundary" inkscape:connector-curvature="0" />
	<path style="fill:none;stroke:red;stroke-width:1px;stroke-linecap:butt;stroke-linejoin:miter;stroke-opacity:1" d="M 88.6416,92.0273 100.491,105.57 z" id="boundary" inkscape:connector-curvature="0" />
	<path style="fill:none;stroke:red;stroke-width:1px;stroke-linecap:butt;stroke-linejoin:miter;stroke-opacity:1" d="M 100.491,105.57 108.956,120.805 z" id="boundary" inkscape:connector-curvature="0" />
	<path style="fill:none;stroke:red;stroke-width:1px;stroke-linecap:butt;stroke-linejoin:miter;stroke-opacity:1" d="M 122.498,132.655 108.956,120.805 z" id="boundary" inkscape:connector-curvature="0" />
	<path style="fill:none;stroke:red;stroke-width:1px;stroke-linecap:butt;stroke-linejoin:miter;stroke-opacity:1" d="M 154.662,141.119 137.734,141.119 z" id="boundary" inkscape:connector-curvature="0" />
	<path style="fill:none;stroke:red;stroke-width:1px;stroke-linecap:butt;stroke-linejoin:miter;stroke-opacity:1" d="M 137.734,141.119 122.498,132.655 z" id="boundary" inkscape:connector-curvature="0" />
	<path style="fill:none;stroke:red;stroke-width:1px;stroke-linecap:butt;stroke-linejoin:miter;stroke-opacity:1" d="M 191.904,186.826 178.362,174.976 z" id="boundary" inkscape:connector-curvature="0" />
	<path style="fill:none;stroke:red;stroke-width:1px;stroke-linecap:butt;stroke-linejoin:miter;stroke-opacity:1" d="M 178.362,174.976 173.283,158.048 z" id="boundary" inkscape:connector-curvature="0" />
	<path style="fill:none;stroke:red;stroke-width:1px;stroke-linecap:butt;stroke-linejoin:miter;stroke-opacity:1" d="M 207.14,195.29 191.904,186.826 z" id="boundary" inkscape:connector-curvature="0" />
	<path style="fill:none;stroke:red;stroke-width:1px;stroke-linecap:butt;stroke-linejoin:miter;stroke-opacity:1" d="M 195.29,359.495 181.747,373.038 z" id="boundary" inkscape:connector-curvature="0" />
	<path style="fill:none;stroke:red;stroke-width:1px;stroke-linecap:butt;stroke-linejoin:miter;stroke-opacity:1" d="M 173.283,158.048 171.59,141.119 z" id="boundary" inkscape:connector-curvature="0" />
	<path style="fill:none;stroke:red;stroke-width:1px;stroke-linecap:butt;stroke-linejoin:miter;stroke-opacity:1" d="M 154.662,141.119 171.59,141.119 z" id="boundary" inkscape:connector-curvature="0" />
	<path style="fill:none;stroke:red;stroke-width:1px;stroke-linecap:butt;stroke-linejoin:miter;stroke-opacity:1" d="M 181.747,373.038 173.283,389.966 z" id="boundary" inkscape:connector-curvature="0" />
	<path style="fill:none;stroke:red;stroke-width:1px;stroke-linecap:butt;stroke-linejoin:miter;stroke-opacity:1" d="M 249.461,63.2491 232.532,63.2491 z" id="boundary" inkscape:connector-curvature="0" />
	<path style="fill:none;stroke:red;stroke-width:1px;stroke-linecap:butt;stroke-linejoin:miter;stroke-opacity:1" d="M 232.532,63.2491 217.297,54.785 z" id="boundary" inkscape:connector-curvature="0" />
	<path style="fill:none;stroke:red;stroke-width:1px;stroke-linecap:butt;stroke-linejoin:miter;stroke-opacity:1" d="M 207.14,195.29 224.068,200.369 z" id="boundary" inkscape:connector-curvature="0" />
	<path style="fill:none;stroke:red;stroke-width:1px;stroke-linecap:butt;stroke-linejoin:miter;stroke-opacity:1" d="M 239.304,208.833 224.068,200.369 z" id="boundary" inkscape:connector-curvature="0" />
	<path style="fill:none;stroke:red;stroke-width:1px;stroke-linecap:butt;stroke-linejoin:miter;stroke-opacity:1" d="M 239.304,208.833 251.154,222.375 z" id="boundary" inkscape:connector-curvature="0" />
	<path style="fill:none;stroke:red;stroke-width:1px;stroke-linecap:butt;stroke-linejoin:miter;stroke-opacity:1" d="M 300.246,68.3276 283.317,66.6348 z" id="boundary" inkscape:connector-curvature="0" />
	<path style="fill:none;stroke:red;stroke-width:1px;stroke-linecap:butt;stroke-linejoin:miter;stroke-opacity:1" d="M 283.317,66.6348 266.389,59.8635 z" id="boundary" inkscape:connector-curvature="0" />
	<path style="fill:none;stroke:red;stroke-width:1px;stroke-linecap:butt;stroke-linejoin:miter;stroke-opacity:1" d="M 300.246,68.3276 313.788,80.1775 z" id="boundary" inkscape:connector-curvature="0" />
	<path style="fill:none;stroke:red;stroke-width:1px;stroke-linecap:butt;stroke-linejoin:miter;stroke-opacity:1" d="M 313.788,80.1775 325.638,93.7201 z" id="boundary" inkscape:connector-curvature="0" />
	<path style="fill:none;stroke:red;stroke-width:1px;stroke-linecap:butt;stroke-linejoin:miter;stroke-opacity:1" d="M 264.696,234.225 251.154,222.375 z" id="boundary" inkscape:connector-curvature="0" />
	<path style="fill:none;stroke:red;stroke-width:1px;stroke-linecap:butt;stroke-linejoin:miter;stroke-opacity:1" d="M 249.461,63.2491 266.389,59.8635 z" id="boundary" inkscape:connector-curvature="0" />
	<path style="fill:none;stroke:red;stroke-width:1px;stroke-linecap:butt;stroke-linejoin:miter;stroke-opacity:1" d="M 264.696,234.225 276.546,247.768 z" id="boundary" inkscape:connector-curvature="0" />
	<path style="fill:none;stroke:red;stroke-width:1px;stroke-linecap:butt;stroke-linejoin:miter;stroke-opacity:1" d="M 246.075,334.102 229.147,342.567 z" id="boundary" inkscape:connector-curvature="0" />
	<path style="fill:none;stroke:red;stroke-width:1px;stroke-linecap:butt;stroke-linejoin:miter;stroke-opacity:1" d="M 263.003,334.102 246.075,334.102 z" id="boundary" inkscape:connector-curvature="0" />
	<path style="fill:none;stroke:red;stroke-width:1px;stroke-linecap:butt;stroke-linejoin:miter;stroke-opacity:1" d="M 278.239,325.638 263.003,334.102 z" id="boundary" inkscape:connector-curvature="0" />
	<path style="fill:none;stroke:red;stroke-width:1px;stroke-linecap:butt;stroke-linejoin:miter;stroke-opacity:1" d="M 212.218,351.031 229.147,342.567 z" id="boundary" inkscape:connector-curvature="0" />
	<path style="fill:none;stroke:red;stroke-width:1px;stroke-linecap:butt;stroke-linejoin:miter;stroke-opacity:1" d="M 195.29,359.495 212.218,351.031 z" id="boundary" inkscape:connector-curvature="0" />
	<path style="fill:none;stroke:red;stroke-width:1px;stroke-linecap:butt;stroke-linejoin:miter;stroke-opacity:1" d="M 290.089,259.618 305.324,268.082 z" id="boundary" inkscape:connector-curvature="0" />
	<path style="fill:none;stroke:red;stroke-width:1px;stroke-linecap:butt;stroke-linejoin:miter;stroke-opacity:1" d="M 318.867,279.932 305.324,268.082 z" id="boundary" inkscape:connector-curvature="0" />
	<path style="fill:none;stroke:red;stroke-width:1px;stroke-linecap:butt;stroke-linejoin:miter;stroke-opacity:1" d="M 278.239,325.638 295.167,318.867 z" id="boundary" inkscape:connector-curvature="0" />
	<path style="fill:none;stroke:red;stroke-width:1px;stroke-linecap:butt;stroke-linejoin:miter;stroke-opacity:1" d="M 351.031,403.509 334.102,403.509 z" id="boundary" inkscape:connector-curvature="0" />
	<path style="fill:none;stroke:red;stroke-width:1px;stroke-linecap:butt;stroke-linejoin:miter;stroke-opacity:1" d="M 312.096,317.174 295.167,318.867 z" id="boundary" inkscape:connector-curvature="0" />
	<path style="fill:none;stroke:red;stroke-width:1px;stroke-linecap:butt;stroke-linejoin:miter;stroke-opacity:1" d="M 318.867,279.932 327.331,308.71 z" id="boundary" inkscape:connector-curvature="0" />
	<path style="fill:none;stroke:red;stroke-width:1px;stroke-linecap:butt;stroke-linejoin:miter;stroke-opacity:1" d="M 327.331,308.71 312.096,317.174 z" id="boundary" inkscape:connector-curvature="0" />
	<path style="fill:none;stroke:red;stroke-width:1px;stroke-linecap:butt;stroke-linejoin:miter;stroke-opacity:1" d="M 276.546,247.768 290.089,259.618 z" id="boundary" inkscape:connector-curvature="0" />
	<path style="fill:none;stroke:red;stroke-width:1px;stroke-linecap:butt;stroke-linejoin:miter;stroke-opacity:1" d="M 34.471,621.884 17.5427,621.884 z" id="boundary" inkscape:connector-curvature="0" />
	<path style="fill:none;stroke:red;stroke-width:1px;stroke-linecap:butt;stroke-linejoin:miter;stroke-opacity:1" d="M 105.57,567.713 105.57,584.642 z" id="boundary" inkscape:connector-curvature="0" />
	<path style="fill:none;stroke:red;stroke-width:1px;stroke-linecap:butt;stroke-linejoin:miter;stroke-opacity:1" d="M 105.57,584.642 98.7986,608.341 z" id="boundary" inkscape:connector-curvature="0" />
	<path style="fill:none;stroke:red;stroke-width:1px;stroke-linecap:butt;stroke-linejoin:miter;stroke-opacity:1" d="M 34.471,621.884 51.3993,621.884 z" id="boundary" inkscape:connector-curvature="0" />
	<path style="fill:none;stroke:red;stroke-width:1px;stroke-linecap:butt;stroke-linejoin:miter;stroke-opacity:1" d="M 68.3276,621.884 51.3993,621.884 z" id="boundary" inkscape:connector-curvature="0" />
	<path style="fill:none;stroke:red;stroke-width:1px;stroke-linecap:butt;stroke-linejoin:miter;stroke-opacity:1" d="M 98.7986,608.341 85.256,621.884 z" id="boundary" inkscape:connector-curvature="0" />
	<path style="fill:none;stroke:red;stroke-width:1px;stroke-linecap:butt;stroke-linejoin:miter;stroke-opacity:1" d="M 85.256,621.884 68.3276,621.884 z" id="boundary" inkscape:connector-curvature="0" />
	<path style="fill:none;stroke:red;stroke-width:1px;stroke-linecap:butt;stroke-linejoin:miter;stroke-opacity:1" d="M 122.498,508.464 130.962,491.536 z" id="boundary" inkscape:connector-curvature="0" />
	<path style="fill:none;stroke:red;stroke-width:1px;stroke-linecap:butt;stroke-linejoin:miter;stroke-opacity:1" d="M 144.505,477.993 130.962,491.536 z" id="boundary" inkscape:connector-curvature="0" />
	<path style="fill:none;stroke:red;stroke-width:1px;stroke-linecap:butt;stroke-linejoin:miter;stroke-opacity:1" d="M 114.034,533.857 122.498,508.464 z" id="boundary" inkscape:connector-curvature="0" />
	<path style="fill:none;stroke:red;stroke-width:1px;stroke-linecap:butt;stroke-linejoin:miter;stroke-opacity:1" d="M 114.034,550.785 105.57,567.713 z" id="boundary" inkscape:connector-curvature="0" />
	<path style="fill:none;stroke:red;stroke-width:1px;stroke-linecap:butt;stroke-linejoin:miter;stroke-opacity:1" d="M 114.034,533.857 114.034,550.785 z" id="boundary" inkscape:connector-curvature="0" />
	<path style="fill:none;stroke:red;stroke-width:1px;stroke-linecap:butt;stroke-linejoin:miter;stroke-opacity:1" d="M 20.9283,657.433 4,652.355 z" id="boundary" inkscape:connector-curvature="0" />
	<path style="fill:none;stroke:red;stroke-width:1px;stroke-linecap:butt;stroke-linejoin:miter;stroke-opacity:1" d="M 4,652.355 4,635.427 z" id="boundary" inkscape:connector-curvature="0" />
	<path style="fill:none;stroke:red;stroke-width:1px;stroke-linecap:butt;stroke-linejoin:miter;stroke-opacity:1" d="M 36.1638,665.898 20.9283,657.433 z" id="boundary" inkscape:connector-curvature="0" />
	<path style="fill:none;stroke:red;stroke-width:1px;stroke-linecap:butt;stroke-linejoin:miter;stroke-opacity:1" d="M 59.8635,689.597 42.9352,682.826 z" id="boundary" inkscape:connector-curvature="0" />
	<path style="fill:none;stroke:red;stroke-width:1px;stroke-linecap:butt;stroke-linejoin:miter;stroke-opacity:1" d="M 42.9352,682.826 36.1638,665.898 z" id="boundary" inkscape:connector-curvature="0" />
	<path style="fill:none;stroke:red;stroke-width:1px;stroke-linecap:butt;stroke-linejoin:miter;stroke-opacity:1" d="M 59.8635,689.597 73.4061,699.754 z" id="boundary" inkscape:connector-curvature="0" />
	<path style="fill:none;stroke:red;stroke-width:1px;stroke-linecap:butt;stroke-linejoin:miter;stroke-opacity:1" d="M 4,635.427 17.5427,621.884 z" id="boundary" inkscape:connector-curvature="0" />
	<path style="fill:none;stroke:red;stroke-width:1px;stroke-linecap:butt;stroke-linejoin:miter;stroke-opacity:1" d="M 88.6416,708.218 73.4061,699.754 z" id="boundary" inkscape:connector-curvature="0" />
	<path style="fill:none;stroke:red;stroke-width:1px;stroke-linecap:butt;stroke-linejoin:miter;stroke-opacity:1" d="M 103.877,716.683 88.6416,708.218 z" id="boundary" inkscape:connector-curvature="0" />
	<path style="fill:none;stroke:red;stroke-width:1px;stroke-linecap:butt;stroke-linejoin:miter;stroke-opacity:1" d="M 119.113,725.147 103.877,716.683 z" id="boundary" inkscape:connector-curvature="0" />
	<path style="fill:none;stroke:red;stroke-width:1px;stroke-linecap:butt;stroke-linejoin:miter;stroke-opacity:1" d="M 136.041,723.454 144.505,708.218 z" id="boundary" inkscape:connector-curvature="0" />
	<path style="fill:none;stroke:red;stroke-width:1px;stroke-linecap:butt;stroke-linejoin:miter;stroke-opacity:1" d="M 136.041,723.454 119.113,725.147 z" id="boundary" inkscape:connector-curvature="0" />
	<path style="fill:none;stroke:red;stroke-width:1px;stroke-linecap:butt;stroke-linejoin:miter;stroke-opacity:1" d="M 149.584,682.826 144.505,708.218 z" id="boundary" inkscape:connector-curvature="0" />
	<path style="fill:none;stroke:red;stroke-width:1px;stroke-linecap:butt;stroke-linejoin:miter;stroke-opacity:1" d="M 164.819,406.894 173.283,389.966 z" id="boundary" inkscape:connector-curvature="0" />
	<path style="fill:none;stroke:red;stroke-width:1px;stroke-linecap:butt;stroke-linejoin:miter;stroke-opacity:1" d="M 164.819,406.894 156.355,423.823 z" id="boundary" inkscape:connector-curvature="0" />
	<path style="fill:none;stroke:red;stroke-width:1px;stroke-linecap:butt;stroke-linejoin:miter;stroke-opacity:1" d="M 234.225,420.437 217.297,428.901 z" id="boundary" inkscape:connector-curvature="0" />
	<path style="fill:none;stroke:red;stroke-width:1px;stroke-linecap:butt;stroke-linejoin:miter;stroke-opacity:1" d="M 152.969,461.065 147.891,440.751 z" id="boundary" inkscape:connector-curvature="0" />
	<path style="fill:none;stroke:red;stroke-width:1px;stroke-linecap:butt;stroke-linejoin:miter;stroke-opacity:1" d="M 147.891,440.751 156.355,423.823 z" id="boundary" inkscape:connector-curvature="0" />
	<path style="fill:none;stroke:red;stroke-width:1px;stroke-linecap:butt;stroke-linejoin:miter;stroke-opacity:1" d="M 217.297,428.901 208.833,445.829 z" id="boundary" inkscape:connector-curvature="0" />
	<path style="fill:none;stroke:red;stroke-width:1px;stroke-linecap:butt;stroke-linejoin:miter;stroke-opacity:1" d="M 251.154,411.973 234.225,420.437 z" id="boundary" inkscape:connector-curvature="0" />
	<path style="fill:none;stroke:red;stroke-width:1px;stroke-linecap:butt;stroke-linejoin:miter;stroke-opacity:1" d="M 268.082,411.973 251.154,411.973 z" id="boundary" inkscape:connector-curvature="0" />
	<path style="fill:none;stroke:red;stroke-width:1px;stroke-linecap:butt;stroke-linejoin:miter;stroke-opacity:1" d="M 285.01,411.973 268.082,411.973 z" id="boundary" inkscape:connector-curvature="0" />
	<path style="fill:none;stroke:red;stroke-width:1px;stroke-linecap:butt;stroke-linejoin:miter;stroke-opacity:1" d="M 301.939,411.973 285.01,411.973 z" id="boundary" inkscape:connector-curvature="0" />
	<path style="fill:none;stroke:red;stroke-width:1px;stroke-linecap:butt;stroke-linejoin:miter;stroke-opacity:1" d="M 318.867,411.973 301.939,411.973 z" id="boundary" inkscape:connector-curvature="0" />
	<path style="fill:none;stroke:red;stroke-width:1px;stroke-linecap:butt;stroke-linejoin:miter;stroke-opacity:1" d="M 334.102,403.509 318.867,411.973 z" id="boundary" inkscape:connector-curvature="0" />
	<path style="fill:none;stroke:red;stroke-width:1px;stroke-linecap:butt;stroke-linejoin:miter;stroke-opacity:1" d="M 158.048,581.256 149.584,606.648 z" id="boundary" inkscape:connector-curvature="0" />
	<path style="fill:none;stroke:red;stroke-width:1px;stroke-linecap:butt;stroke-linejoin:miter;stroke-opacity:1" d="M 144.505,477.993 152.969,461.065 z" id="boundary" inkscape:connector-curvature="0" />
	<path style="fill:none;stroke:red;stroke-width:1px;stroke-linecap:butt;stroke-linejoin:miter;stroke-opacity:1" d="M 166.512,564.328 158.048,581.256 z" id="boundary" inkscape:connector-curvature="0" />
	<path style="fill:none;stroke:red;stroke-width:1px;stroke-linecap:butt;stroke-linejoin:miter;stroke-opacity:1" d="M 149.584,632.041 149.584,606.648 z" id="boundary" inkscape:connector-curvature="0" />
	<path style="fill:none;stroke:red;stroke-width:1px;stroke-linecap:butt;stroke-linejoin:miter;stroke-opacity:1" d="M 149.584,632.041 149.584,657.433 z" id="boundary" inkscape:connector-curvature="0" />
	<path style="fill:none;stroke:red;stroke-width:1px;stroke-linecap:butt;stroke-linejoin:miter;stroke-opacity:1" d="M 149.584,682.826 149.584,657.433 z" id="boundary" inkscape:connector-curvature="0" />
	<path style="fill:none;stroke:red;stroke-width:1px;stroke-linecap:butt;stroke-linejoin:miter;stroke-opacity:1" d="M 208.833,462.758 200.369,488.15 z" id="boundary" inkscape:connector-curvature="0" />
	<path style="fill:none;stroke:red;stroke-width:1px;stroke-linecap:butt;stroke-linejoin:miter;stroke-opacity:1" d="M 200.369,488.15 196.983,518.621 z" id="boundary" inkscape:connector-curvature="0" />
	<path style="fill:none;stroke:red;stroke-width:1px;stroke-linecap:butt;stroke-linejoin:miter;stroke-opacity:1" d="M 208.833,462.758 208.833,445.829 z" id="boundary" inkscape:connector-curvature="0" />
	<path style="fill:none;stroke:red;stroke-width:1px;stroke-linecap:butt;stroke-linejoin:miter;stroke-opacity:1" d="M 166.512,564.328 174.976,547.399 z" id="boundary" inkscape:connector-curvature="0" />
	<path style="fill:none;stroke:red;stroke-width:1px;stroke-linecap:butt;stroke-linejoin:miter;stroke-opacity:1" d="M 174.976,547.399 188.519,535.549 z" id="boundary" inkscape:connector-curvature="0" />
	<path style="fill:none;stroke:red;stroke-width:1px;stroke-linecap:butt;stroke-linejoin:miter;stroke-opacity:1" d="M 188.519,535.549 196.983,518.621 z" id="boundary" inkscape:connector-curvature="0" />
	<path style="fill:none;stroke:red;stroke-width:1px;stroke-linecap:butt;stroke-linejoin:miter;stroke-opacity:1" d="M 325.638,93.7201 339.181,105.57 z" id="boundary" inkscape:connector-curvature="0" />
	<path style="fill:none;stroke:red;stroke-width:1px;stroke-linecap:butt;stroke-linejoin:miter;stroke-opacity:1" d="M 339.181,105.57 356.109,105.57 z" id="boundary" inkscape:connector-curvature="0" />
	<path style="fill:none;stroke:red;stroke-width:1px;stroke-linecap:butt;stroke-linejoin:miter;stroke-opacity:1" d="M 356.109,105.57 361.188,122.498 z" id="boundary" inkscape:connector-curvature="0" />
	<path style="fill:none;stroke:red;stroke-width:1px;stroke-linecap:butt;stroke-linejoin:miter;stroke-opacity:1" d="M 378.116,127.577 361.188,122.498 z" id="boundary" inkscape:connector-curvature="0" />
	<path style="fill:none;stroke:red;stroke-width:1px;stroke-linecap:butt;stroke-linejoin:miter;stroke-opacity:1" d="M 401.816,151.276 384.887,144.505 z" id="boundary" inkscape:connector-curvature="0" />
	<path style="fill:none;stroke:red;stroke-width:1px;stroke-linecap:butt;stroke-linejoin:miter;stroke-opacity:1" d="M 384.887,144.505 378.116,127.577 z" id="boundary" inkscape:connector-curvature="0" />
	<path style="fill:none;stroke:red;stroke-width:1px;stroke-linecap:butt;stroke-linejoin:miter;stroke-opacity:1" d="M 401.816,151.276 411.973,164.819 z" id="boundary" inkscape:connector-curvature="0" />
	<path style="fill:none;stroke:red;stroke-width:1px;stroke-linecap:butt;stroke-linejoin:miter;stroke-opacity:1" d="M 411.973,164.819 428.901,169.898 z" id="boundary" inkscape:connector-curvature="0" />
	<path style="fill:none;stroke:red;stroke-width:1px;stroke-linecap:butt;stroke-linejoin:miter;stroke-opacity:1" d="M 428.901,169.898 440.751,183.44 z" id="boundary" inkscape:connector-curvature="0" />
	<path style="fill:none;stroke:red;stroke-width:1px;stroke-linecap:butt;stroke-linejoin:miter;stroke-opacity:1" d="M 454.294,195.29 440.751,183.44 z" id="boundary" inkscape:connector-curvature="0" />
	<path style="fill:none;stroke:red;stroke-width:1px;stroke-linecap:butt;stroke-linejoin:miter;stroke-opacity:1" d="M 477.993,218.99 461.065,212.218 z" id="boundary" inkscape:connector-curvature="0" />
	<path style="fill:none;stroke:red;stroke-width:1px;stroke-linecap:butt;stroke-linejoin:miter;stroke-opacity:1" d="M 461.065,212.218 454.294,195.29 z" id="boundary" inkscape:connector-curvature="0" />
	<path style="fill:none;stroke:red;stroke-width:1px;stroke-linecap:butt;stroke-linejoin:miter;stroke-opacity:1" d="M 477.993,218.99 484.765,235.918 z" id="boundary" inkscape:connector-curvature="0" />
	<path style="fill:none;stroke:red;stroke-width:1px;stroke-linecap:butt;stroke-linejoin:miter;stroke-opacity:1" d="M 383.195,395.044 400.123,395.044 z" id="boundary" inkscape:connector-curvature="0" />
	<path style="fill:none;stroke:red;stroke-width:1px;stroke-linecap:butt;stroke-linejoin:miter;stroke-opacity:1" d="M 367.959,403.509 383.195,395.044 z" id="boundary" inkscape:connector-curvature="0" />
	<path style="fill:none;stroke:red;stroke-width:1px;stroke-linecap:butt;stroke-linejoin:miter;stroke-opacity:1" d="M 417.051,395.044 400.123,395.044 z" id="boundary" inkscape:connector-curvature="0" />
	<path style="fill:none;stroke:red;stroke-width:1px;stroke-linecap:butt;stroke-linejoin:miter;stroke-opacity:1" d="M 367.959,403.509 351.031,403.509 z" id="boundary" inkscape:connector-curvature="0" />
	<path style="fill:none;stroke:red;stroke-width:1px;stroke-linecap:butt;stroke-linejoin:miter;stroke-opacity:1" d="M 417.051,395.044 433.98,395.044 z" id="boundary" inkscape:connector-curvature="0" />
	<path style="fill:none;stroke:red;stroke-width:1px;stroke-linecap:butt;stroke-linejoin:miter;stroke-opacity:1" d="M 484.765,235.918 494.922,249.461 z" id="boundary" inkscape:connector-curvature="0" />
	<path style="fill:none;stroke:red;stroke-width:1px;stroke-linecap:butt;stroke-linejoin:miter;stroke-opacity:1" d="M 494.922,249.461 496.614,266.389 z" id="boundary" inkscape:connector-curvature="0" />
	<path style="fill:none;stroke:red;stroke-width:1px;stroke-linecap:butt;stroke-linejoin:miter;stroke-opacity:1" d="M 511.85,274.853 496.614,266.389 z" id="boundary" inkscape:connector-curvature="0" />
	<path style="fill:none;stroke:red;stroke-width:1px;stroke-linecap:butt;stroke-linejoin:miter;stroke-opacity:1" d="M 450.908,395.044 433.98,395.044 z" id="boundary" inkscape:connector-curvature="0" />
	<path style="fill:none;stroke:red;stroke-width:1px;stroke-linecap:butt;stroke-linejoin:miter;stroke-opacity:1" d="M 450.908,395.044 467.836,395.044 z" id="boundary" inkscape:connector-curvature="0" />
	<path style="fill:none;stroke:red;stroke-width:1px;stroke-linecap:butt;stroke-linejoin:miter;stroke-opacity:1" d="M 467.836,395.044 483.072,403.509 z" id="boundary" inkscape:connector-curvature="0" />
	<path style="fill:none;stroke:red;stroke-width:1px;stroke-linecap:butt;stroke-linejoin:miter;stroke-opacity:1" d="M 483.072,403.509 494.922,417.051 z" id="boundary" inkscape:connector-curvature="0" />
	<path style="fill:none;stroke:red;stroke-width:1px;stroke-linecap:butt;stroke-linejoin:miter;stroke-opacity:1" d="M 527.085,301.939 513.543,291.782 z" id="boundary" inkscape:connector-curvature="0" />
	<path style="fill:none;stroke:red;stroke-width:1px;stroke-linecap:butt;stroke-linejoin:miter;stroke-opacity:1" d="M 513.543,291.782 511.85,274.853 z" id="boundary" inkscape:connector-curvature="0" />
	<path style="fill:none;stroke:red;stroke-width:1px;stroke-linecap:butt;stroke-linejoin:miter;stroke-opacity:1" d="M 538.935,315.481 527.085,301.939 z" id="boundary" inkscape:connector-curvature="0" />
	<path style="fill:none;stroke:red;stroke-width:1px;stroke-linecap:butt;stroke-linejoin:miter;stroke-opacity:1" d="M 552.478,327.331 564.328,340.874 z" id="boundary" inkscape:connector-curvature="0" />
	<path style="fill:none;stroke:red;stroke-width:1px;stroke-linecap:butt;stroke-linejoin:miter;stroke-opacity:1" d="M 552.478,327.331 538.935,315.481 z" id="boundary" inkscape:connector-curvature="0" />
	<path style="fill:none;stroke:red;stroke-width:1px;stroke-linecap:butt;stroke-linejoin:miter;stroke-opacity:1" d="M 581.256,347.645 564.328,340.874 z" id="boundary" inkscape:connector-curvature="0" />
	<path style="fill:none;stroke:red;stroke-width:1px;stroke-linecap:butt;stroke-linejoin:miter;stroke-opacity:1" d="M 508.464,428.901 494.922,417.051 z" id="boundary" inkscape:connector-curvature="0" />
	<path style="fill:none;stroke:red;stroke-width:1px;stroke-linecap:butt;stroke-linejoin:miter;stroke-opacity:1" d="M 610.034,367.959 594.799,359.495 z" id="boundary" inkscape:connector-curvature="0" />
	<path style="fill:none;stroke:red;stroke-width:1px;stroke-linecap:butt;stroke-linejoin:miter;stroke-opacity:1" d="M 594.799,359.495 581.256,347.645 z" id="boundary" inkscape:connector-curvature="0" />
	<path style="fill:none;stroke:red;stroke-width:1px;stroke-linecap:butt;stroke-linejoin:miter;stroke-opacity:1" d="M 610.034,367.959 621.884,381.502 z" id="boundary" inkscape:connector-curvature="0" />
	<path style="fill:none;stroke:red;stroke-width:1px;stroke-linecap:butt;stroke-linejoin:miter;stroke-opacity:1" d="M 654.048,420.437 640.505,410.28 z" id="boundary" inkscape:connector-curvature="0" />
	<path style="fill:none;stroke:red;stroke-width:1px;stroke-linecap:butt;stroke-linejoin:miter;stroke-opacity:1" d="M 640.505,410.28 630.348,396.737 z" id="boundary" inkscape:connector-curvature="0" />
	<path style="fill:none;stroke:red;stroke-width:1px;stroke-linecap:butt;stroke-linejoin:miter;stroke-opacity:1" d="M 630.348,396.737 621.884,381.502 z" id="boundary" inkscape:connector-curvature="0" />
	<path style="fill:none;stroke:red;stroke-width:1px;stroke-linecap:butt;stroke-linejoin:miter;stroke-opacity:1" d="M 665.898,433.98 654.048,420.437 z" id="boundary" inkscape:connector-curvature="0" />
	<path style="fill:none;stroke:red;stroke-width:1px;stroke-linecap:butt;stroke-linejoin:miter;stroke-opacity:1" d="M 682.826,440.751 665.898,433.98 z" id="boundary" inkscape:connector-curvature="0" />
	<path style="fill:none;stroke:red;stroke-width:1px;stroke-linecap:butt;stroke-linejoin:miter;stroke-opacity:1" d="M 545.706,462.758 528.778,457.679 z" id="boundary" inkscape:connector-curvature="0" />
	<path style="fill:none;stroke:red;stroke-width:1px;stroke-linecap:butt;stroke-linejoin:miter;stroke-opacity:1" d="M 528.778,457.679 516.928,444.137 z" id="boundary" inkscape:connector-curvature="0" />
	<path style="fill:none;stroke:red;stroke-width:1px;stroke-linecap:butt;stroke-linejoin:miter;stroke-opacity:1" d="M 516.928,444.137 508.464,428.901 z" id="boundary" inkscape:connector-curvature="0" />
	<path style="fill:none;stroke:red;stroke-width:1px;stroke-linecap:butt;stroke-linejoin:miter;stroke-opacity:1" d="M 545.706,462.758 550.785,479.686 z" id="boundary" inkscape:connector-curvature="0" />
	<path style="fill:none;stroke:red;stroke-width:1px;stroke-linecap:butt;stroke-linejoin:miter;stroke-opacity:1" d="M 714.99,452.601 698.061,449.215 z" id="boundary" inkscape:connector-curvature="0" />
	<path style="fill:none;stroke:red;stroke-width:1px;stroke-linecap:butt;stroke-linejoin:miter;stroke-opacity:1" d="M 698.061,449.215 682.826,440.751 z" id="boundary" inkscape:connector-curvature="0" />
	<path style="fill:none;stroke:red;stroke-width:1px;stroke-linecap:butt;stroke-linejoin:miter;stroke-opacity:1" d="M 714.99,452.601 730.225,461.065 z" id="boundary" inkscape:connector-curvature="0" />
	<path style="fill:none;stroke:red;stroke-width:1px;stroke-linecap:butt;stroke-linejoin:miter;stroke-opacity:1" d="M 745.461,469.529 730.225,461.065 z" id="boundary" inkscape:connector-curvature="0" />
	<path style="fill:none;stroke:red;stroke-width:1px;stroke-linecap:butt;stroke-linejoin:miter;stroke-opacity:1" d="M 762.389,469.529 745.461,469.529 z" id="boundary" inkscape:connector-curvature="0" />
	<path style="fill:none;stroke:red;stroke-width:1px;stroke-linecap:butt;stroke-linejoin:miter;stroke-opacity:1" d="M 762.389,469.529 777.625,477.993 z" id="boundary" inkscape:connector-curvature="0" />
	<path style="fill:none;stroke:red;stroke-width:1px;stroke-linecap:butt;stroke-linejoin:miter;stroke-opacity:1" d="M 550.785,479.686 567.713,486.457 z" id="boundary" inkscape:connector-curvature="0" />
	<path style="fill:none;stroke:red;stroke-width:1px;stroke-linecap:butt;stroke-linejoin:miter;stroke-opacity:1" d="M 567.713,486.457 581.256,496.614 z" id="boundary" inkscape:connector-curvature="0" />
	<path style="fill:none;stroke:red;stroke-width:1px;stroke-linecap:butt;stroke-linejoin:miter;stroke-opacity:1" d="M 581.256,496.614 591.413,510.157 z" id="boundary" inkscape:connector-curvature="0" />
	<path style="fill:none;stroke:red;stroke-width:1px;stroke-linecap:butt;stroke-linejoin:miter;stroke-opacity:1" d="M 591.413,510.157 608.341,513.543 z" id="boundary" inkscape:connector-curvature="0" />
	<path style="fill:none;stroke:red;stroke-width:1px;stroke-linecap:butt;stroke-linejoin:miter;stroke-opacity:1" d="M 608.341,513.543 623.577,522.007 z" id="boundary" inkscape:connector-curvature="0" />
	<path style="fill:none;stroke:red;stroke-width:1px;stroke-linecap:butt;stroke-linejoin:miter;stroke-opacity:1" d="M 640.505,522.007 623.577,522.007 z" id="boundary" inkscape:connector-curvature="0" />
	<path style="fill:none;stroke:red;stroke-width:1px;stroke-linecap:butt;stroke-linejoin:miter;stroke-opacity:1" d="M 792.86,486.457 809.788,486.457 z" id="boundary" inkscape:connector-curvature="0" />
	<path style="fill:none;stroke:red;stroke-width:1px;stroke-linecap:butt;stroke-linejoin:miter;stroke-opacity:1" d="M 809.788,486.457 825.024,494.922 z" id="boundary" inkscape:connector-curvature="0" />
	<path style="fill:none;stroke:red;stroke-width:1px;stroke-linecap:butt;stroke-linejoin:miter;stroke-opacity:1" d="M 777.625,477.993 792.86,486.457 z" id="boundary" inkscape:connector-curvature="0" />
	<path style="fill:none;stroke:red;stroke-width:1px;stroke-linecap:butt;stroke-linejoin:miter;stroke-opacity:1" d="M 825.024,494.922 840.259,503.386 z" id="boundary" inkscape:connector-curvature="0" />
	<path style="fill:none;stroke:red;stroke-width:1px;stroke-linecap:butt;stroke-linejoin:miter;stroke-opacity:1" d="M 672.669,533.857 655.741,530.471 z" id="boundary" inkscape:connector-curvature="0" />
	<path style="fill:none;stroke:red;stroke-width:1px;stroke-linecap:butt;stroke-linejoin:miter;stroke-opacity:1" d="M 855.495,511.85 840.259,503.386 z" id="boundary" inkscape:connector-curvature="0" />
	<path style="fill:none;stroke:red;stroke-width:1px;stroke-linecap:butt;stroke-linejoin:miter;stroke-opacity:1" d="M 640.505,522.007 655.741,530.471 z" id="boundary" inkscape:connector-curvature="0" />
	<path style="fill:none;stroke:red;stroke-width:1px;stroke-linecap:butt;stroke-linejoin:miter;stroke-opacity:1" d="M 689.597,538.935 672.669,533.857 z" id="boundary" inkscape:connector-curvature="0" />
	<path style="fill:none;stroke:red;stroke-width:1px;stroke-linecap:butt;stroke-linejoin:miter;stroke-opacity:1" d="M 689.597,538.935 704.833,547.399 z" id="boundary" inkscape:connector-curvature="0" />
	<path style="fill:none;stroke:red;stroke-width:1px;stroke-linecap:butt;stroke-linejoin:miter;stroke-opacity:1" d="M 736.997,555.863 720.068,555.863 z" id="boundary" inkscape:connector-curvature="0" />
	<path style="fill:none;stroke:red;stroke-width:1px;stroke-linecap:butt;stroke-linejoin:miter;stroke-opacity:1" d="M 720.068,555.863 704.833,547.399 z" id="boundary" inkscape:connector-curvature="0" />
	<path style="fill:none;stroke:red;stroke-width:1px;stroke-linecap:butt;stroke-linejoin:miter;stroke-opacity:1" d="M 736.997,555.863 750.539,567.713 z" id="boundary" inkscape:connector-curvature="0" />
	<path style="fill:none;stroke:red;stroke-width:1px;stroke-linecap:butt;stroke-linejoin:miter;stroke-opacity:1" d="M 750.539,567.713 767.468,567.713 z" id="boundary" inkscape:connector-curvature="0" />
	<path style="fill:none;stroke:red;stroke-width:1px;stroke-linecap:butt;stroke-linejoin:miter;stroke-opacity:1" d="M 767.468,567.713 782.703,576.177 z" id="boundary" inkscape:connector-curvature="0" />
	<path style="fill:none;stroke:red;stroke-width:1px;stroke-linecap:butt;stroke-linejoin:miter;stroke-opacity:1" d="M 799.631,572.792 782.703,576.177 z" id="boundary" inkscape:connector-curvature="0" />
	<path style="fill:none;stroke:red;stroke-width:1px;stroke-linecap:butt;stroke-linejoin:miter;stroke-opacity:1" d="M 799.631,572.792 809.788,586.334 z" id="boundary" inkscape:connector-curvature="0" />
	<path style="fill:none;stroke:red;stroke-width:1px;stroke-linecap:butt;stroke-linejoin:miter;stroke-opacity:1" d="M 809.788,586.334 826.717,584.642 z" id="boundary" inkscape:connector-curvature="0" />
	<path style="fill:none;stroke:red;stroke-width:1px;stroke-linecap:butt;stroke-linejoin:miter;stroke-opacity:1" d="M 826.717,584.642 843.645,584.642 z" id="boundary" inkscape:connector-curvature="0" />
	<path style="fill:none;stroke:red;stroke-width:1px;stroke-linecap:butt;stroke-linejoin:miter;stroke-opacity:1" d="M 855.495,511.85 870.73,520.314 z" id="boundary" inkscape:connector-curvature="0" />
	<path style="fill:none;stroke:red;stroke-width:1px;stroke-linecap:butt;stroke-linejoin:miter;stroke-opacity:1" d="M 902.894,525.392 885.966,528.778 z" id="boundary" inkscape:connector-curvature="0" />
	<path style="fill:none;stroke:red;stroke-width:1px;stroke-linecap:butt;stroke-linejoin:miter;stroke-opacity:1" d="M 885.966,528.778 870.73,520.314 z" id="boundary" inkscape:connector-curvature="0" />
	<path style="fill:none;stroke:red;stroke-width:1px;stroke-linecap:butt;stroke-linejoin:miter;stroke-opacity:1" d="M 906.28,598.184 889.352,596.491 z" id="boundary" inkscape:connector-curvature="0" />
	<path style="fill:none;stroke:red;stroke-width:1px;stroke-linecap:butt;stroke-linejoin:miter;stroke-opacity:1" d="M 902.894,525.392 919.823,528.778 z" id="boundary" inkscape:connector-curvature="0" />
	<path style="fill:none;stroke:red;stroke-width:1px;stroke-linecap:butt;stroke-linejoin:miter;stroke-opacity:1" d="M 889.352,596.491 872.423,598.184 z" id="boundary" inkscape:connector-curvature="0" />
	<path style="fill:none;stroke:red;stroke-width:1px;stroke-linecap:butt;stroke-linejoin:miter;stroke-opacity:1" d="M 872.423,598.184 860.573,584.642 z" id="boundary" inkscape:connector-curvature="0" />
	<path style="fill:none;stroke:red;stroke-width:1px;stroke-linecap:butt;stroke-linejoin:miter;stroke-opacity:1" d="M 936.751,525.392 919.823,528.778 z" id="boundary" inkscape:connector-curvature="0" />
	<path style="fill:none;stroke:red;stroke-width:1px;stroke-linecap:butt;stroke-linejoin:miter;stroke-opacity:1" d="M 860.573,584.642 843.645,584.642 z" id="boundary" inkscape:connector-curvature="0" />
	<path style="fill:none;stroke:red;stroke-width:1px;stroke-linecap:butt;stroke-linejoin:miter;stroke-opacity:1" d="M 936.751,525.392 953.679,528.778 z" id="boundary" inkscape:connector-curvature="0" />
	<path style="fill:none;stroke:red;stroke-width:1px;stroke-linecap:butt;stroke-linejoin:miter;stroke-opacity:1" d="M 970.608,533.857 953.679,528.778 z" id="boundary" inkscape:connector-curvature="0" />
	<path style="fill:none;stroke:red;stroke-width:1px;stroke-linecap:butt;stroke-linejoin:miter;stroke-opacity:1" d="M 970.608,533.857 982.457,547.399 z" id="boundary" inkscape:connector-curvature="0" />
	<path style="fill:none;stroke:red;stroke-width:1px;stroke-linecap:butt;stroke-linejoin:miter;stroke-opacity:1" d="M 982.457,547.399 990.922,562.635 z" id="boundary" inkscape:connector-curvature="0" />
	<path style="fill:none;stroke:red;stroke-width:1px;stroke-linecap:butt;stroke-linejoin:miter;stroke-opacity:1" d="M 990.922,562.635 996,579.563 z" id="boundary" inkscape:connector-curvature="0" />
	<path style="fill:none;stroke:red;stroke-width:1px;stroke-linecap:butt;stroke-linejoin:miter;stroke-opacity:1" d="M 919.823,610.034 926.594,626.962 z" id="boundary" inkscape:connector-curvature="0" />
	<path style="fill:none;stroke:red;stroke-width:1px;stroke-linecap:butt;stroke-linejoin:miter;stroke-opacity:1" d="M 906.28,598.184 919.823,610.034 z" id="boundary" inkscape:connector-curvature="0" />
	<path style="fill:none;stroke:red;stroke-width:1px;stroke-linecap:butt;stroke-linejoin:miter;stroke-opacity:1" d="M 926.594,626.962 940.137,638.812 z" id="boundary" inkscape:connector-curvature="0" />
	<path style="fill:none;stroke:red;stroke-width:1px;stroke-linecap:butt;stroke-linejoin:miter;stroke-opacity:1" d="M 940.137,638.812 951.986,652.355 z" id="boundary" inkscape:connector-curvature="0" />
	<path style="fill:none;stroke:red;stroke-width:1px;stroke-linecap:butt;stroke-linejoin:miter;stroke-opacity:1" d="M 996,613.42 996,630.348 z" id="boundary" inkscape:connector-curvature="0" />
	<path style="fill:none;stroke:red;stroke-width:1px;stroke-linecap:butt;stroke-linejoin:miter;stroke-opacity:1" d="M 996,630.348 996,647.276 z" id="boundary" inkscape:connector-curvature="0" />
	<path style="fill:none;stroke:red;stroke-width:1px;stroke-linecap:butt;stroke-linejoin:miter;stroke-opacity:1" d="M 965.529,664.205 972.3,681.133 z" id="boundary" inkscape:connector-curvature="0" />
	<path style="fill:none;stroke:red;stroke-width:1px;stroke-linecap:butt;stroke-linejoin:miter;stroke-opacity:1" d="M 951.986,652.355 965.529,664.205 z" id="boundary" inkscape:connector-curvature="0" />
	<path style="fill:none;stroke:red;stroke-width:1px;stroke-linecap:butt;stroke-linejoin:miter;stroke-opacity:1" d="M 987.536,665.898 972.3,681.133 z" id="boundary" inkscape:connector-curvature="0" />
	<path style="fill:none;stroke:red;stroke-width:1px;stroke-linecap:butt;stroke-linejoin:miter;stroke-opacity:1" d="M 996,647.276 987.536,665.898 z" id="boundary" inkscape:connector-curvature="0" />
	<path style="fill:none;stroke:red;stroke-width:1px;stroke-linecap:butt;stroke-linejoin:miter;stroke-opacity:1" d="M 996,596.491 996,613.42 z" id="boundary" inkscape:connector-curvature="0" />
	<path style="fill:none;stroke:red;stroke-width:1px;stroke-linecap:butt;stroke-linejoin:miter;stroke-opacity:1" d="M 996,579.563 996,596.491 z" id="boundary" inkscape:connector-curvature="0" />
	<circle cx="4" cy="635.427" r="4" fill="#0" id="circle0"/>
	<circle cx="4" cy="652.355" r="4" fill="#0" id="circle1"/>
	<circle cx="17.5427" cy="621.884" r="4" fill="#0" id="circle2"/>
	<circle cx="20.9283" cy="657.433" r="4" fill="#0" id="circle3"/>
	<circle cx="34.471" cy="621.884" r="4" fill="#0" id="circle4"/>
	<circle cx="36.1638" cy="665.898" r="4" fill="#0" id="circle5"/>
	<circle cx="42.9352" cy="682.826" r="4" fill="#0" id="circle6"/>
	<circle cx="51.3993" cy="621.884" r="4" fill="#0" id="circle7"/>
	<circle cx="59.8635" cy="689.597" r="4" fill="#0" id="circle8"/>
	<circle cx="68.3276" cy="621.884" r="4" fill="#0" id="circle9"/>
	<circle cx="73.4061" cy="699.754" r="4" fill="#0" id="circle10"/>
	<circle cx="80.1775" cy="59.8635" r="4" fill="#0" id="circle11"/>
	<circle cx="80.1775" cy="76.7918" r="4" fill="#0" id="circle12"/>
	<circle cx="85.256" cy="621.884" r="4" fill="#0" id="circle13"/>
	<circle cx="88.6416" cy="42.9352" r="4" fill="#0" id="circle14"/>
	<circle cx="88.6416" cy="92.0273" r="4" fill="#0" id="circle15"/>
	<circle cx="88.6416" cy="708.218" r="4" fill="#0" id="circle16"/>
	<circle cx="97.1058" cy="26.0068" r="4" fill="#0" id="circle17"/>
	<circle cx="98.7986" cy="608.341" r="4" fill="#0" id="circle18"/>
	<circle cx="100.491" cy="105.57" r="4" fill="#0" id="circle19"/>
	<circle cx="103.877" cy="716.683" r="4" fill="#0" id="circle20"/>
	<circle cx="105.57" cy="567.713" r="4" fill="#0" id="circle21"/>
	<circle cx="105.57" cy="584.642" r="4" fill="#0" id="circle22"/>
	<circle cx="108.956" cy="120.805" r="4" fill="#0" id="circle23"/>
	<circle cx="110.648" cy="12.4642" r="4" fill="#0" id="circle24"/>
	<circle cx="114.034" cy="533.857" r="4" fill="#0" id="circle25"/>
	<circle cx="114.034" cy="550.785" r="4" fill="#0" id="circle26"/>
	<circle cx="119.113" cy="725.147" r="4" fill="#0" id="circle27"/>
	<circle cx="122.498" cy="132.655" r="4" fill="#0" id="circle28"/>
	<circle cx="122.498" cy="508.464" r="4" fill="#0" id="circle29"/>
	<circle cx="127.577" cy="4" r="4" fill="#0" id="circle30"/>
	<circle cx="130.962" cy="491.536" r="4" fill="#0" id="circle31"/>
	<circle cx="136.041" cy="723.454" r="4" fill="#0" id="circle32"/>
	<circle cx="137.734" cy="141.119" r="4" fill="#0" id="circle33"/>
	<circle cx="144.505" cy="4" r="4" fill="#0" id="circle34"/>
	<circle cx="144.505" cy="477.993" r="4" fill="#0" id="circle35"/>
	<circle cx="144.505" cy="708.218" r="4" fill="#0" id="circle36"/>
	<circle cx="147.891" cy="440.751" r="4" fill="#0" id="circle37"/>
	<circle cx="149.584" cy="606.648" r="4" fill="#0" id="circle38"/>
	<circle cx="149.584" cy="632.041" r="4" fill="#0" id="circle39"/>
	<circle cx="149.584" cy="657.433" r="4" fill="#0" id="circle40"/>
	<circle cx="149.584" cy="682.826" r="4" fill="#0" id="circle41"/>
	<circle cx="152.969" cy="461.065" r="4" fill="#0" id="circle42"/>
	<circle cx="154.662" cy="141.119" r="4" fill="#0" id="circle43"/>
	<circle cx="156.355" cy="423.823" r="4" fill="#0" id="circle44"/>
	<circle cx="158.048" cy="581.256" r="4" fill="#0" id="circle45"/>
	<circle cx="161.433" cy="4" r="4" fill="#0" id="circle46"/>
	<circle cx="164.819" cy="406.894" r="4" fill="#0" id="circle47"/>
	<circle cx="166.512" cy="564.328" r="4" fill="#0" id="circle48"/>
	<circle cx="171.59" cy="141.119" r="4" fill="#0" id="circle49"/>
	<circle cx="173.283" cy="158.048" r="4" fill="#0" id="circle50"/>
	<circle cx="173.283" cy="389.966" r="4" fill="#0" id="circle51"/>
	<circle cx="174.976" cy="547.399" r="4" fill="#0" id="circle52"/>
	<circle cx="176.669" cy="12.4642" r="4" fill="#0" id="circle53"/>
	<circle cx="178.362" cy="174.976" r="4" fill="#0" id="circle54"/>
	<circle cx="181.747" cy="373.038" r="4" fill="#0" id="circle55"/>
	<circle cx="183.44" cy="29.3925" r="4" fill="#0" id="circle56"/>
	<circle cx="188.519" cy="535.549" r="4" fill="#0" id="circle57"/>
	<circle cx="191.904" cy="186.826" r="4" fill="#0" id="circle58"/>
	<circle cx="195.29" cy="359.495" r="4" fill="#0" id="circle59"/>
	<circle cx="196.983" cy="518.621" r="4" fill="#0" id="circle60"/>
	<circle cx="200.369" cy="34.471" r="4" fill="#0" id="circle61"/>
	<circle cx="200.369" cy="51.3993" r="4" fill="#0" id="circle62"/>
	<circle cx="200.369" cy="488.15" r="4" fill="#0" id="circle63"/>
	<circle cx="207.14" cy="195.29" r="4" fill="#0" id="circle64"/>
	<circle cx="208.833" cy="445.829" r="4" fill="#0" id="circle65"/>
	<circle cx="208.833" cy="462.758" r="4" fill="#0" id="circle66"/>
	<circle cx="212.218" cy="351.031" r="4" fill="#0" id="circle67"/>
	<circle cx="217.297" cy="54.785" r="4" fill="#0" id="circle68"/>
	<circle cx="217.297" cy="428.901" r="4" fill="#0" id="circle69"/>
	<circle cx="224.068" cy="200.369" r="4" fill="#0" id="circle70"/>
	<circle cx="229.147" cy="342.567" r="4" fill="#0" id="circle71"/>
	<circle cx="232.532" cy="63.2491" r="4" fill="#0" id="circle72"/>
	<circle cx="234.225" cy="420.437" r="4" fill="#0" id="circle73"/>
	<circle cx="239.304" cy="208.833" r="4" fill="#0" id="circle74"/>
	<circle cx="246.075" cy="334.102" r="4" fill="#0" id="circle75"/>
	<circle cx="249.461" cy="63.2491" r="4" fill="#0" id="circle76"/>
	<circle cx="251.154" cy="222.375" r="4" fill="#0" id="circle77"/>
	<circle cx="251.154" cy="411.973" r="4" fill="#0" id="circle78"/>
	<circle cx="263.003" cy="334.102" r="4" fill="#0" id="circle79"/>
	<circle cx="264.696" cy="234.225" r="4" fill="#0" id="circle80"/>
	<circle cx="266.389" cy="59.8635" r="4" fill="#0" id="circle81"/>
	<circle cx="268.082" cy="411.973" r="4" fill="#0" id="circle82"/>
	<circle cx="276.546" cy="247.768" r="4" fill="#0" id="circle83"/>
	<circle cx="278.239" cy="325.638" r="4" fill="#0" id="circle84"/>
	<circle cx="283.317" cy="66.6348" r="4" fill="#0" id="circle85"/>
	<circle cx="285.01" cy="411.973" r="4" fill="#0" id="circle86"/>
	<circle cx="290.089" cy="259.618" r="4" fill="#0" id="circle87"/>
	<circle cx="295.167" cy="318.867" r="4" fill="#0" id="circle88"/>
	<circle cx="300.246" cy="68.3276" r="4" fill="#0" id="circle89"/>
	<circle cx="301.939" cy="411.973" r="4" fill="#0" id="circle90"/>
	<circle cx="305.324" cy="268.082" r="4" fill="#0" id="circle91"/>
	<circle cx="312.096" cy="317.174" r="4" fill="#0" id="circle92"/>
	<circle cx="313.788" cy="80.1775" r="4" fill="#0" id="circle93"/>
	<circle cx="318.867" cy="279.932" r="4" fill="#0" id="circle94"/>
	<circle cx="318.867" cy="411.973" r="4" fill="#0" id="circle95"/>
	<circle cx="325.638" cy="93.7201" r="4" fill="#0" id="circle96"/>
	<circle cx="327.331" cy="308.71" r="4" fill="#0" id="circle97"/>
	<circle cx="334.102" cy="403.509" r="4" fill="#0" id="circle98"/>
	<circle cx="339.181" cy="105.57" r="4" fill="#0" id="circle99"/>
	<circle cx="351.031" cy="403.509" r="4" fill="#0" id="circle100"/>
	<circle cx="356.109" cy="105.57" r="4" fill="#0" id="circle101"/>
	<circle cx="361.188" cy="122.498" r="4" fill="#0" id="circle102"/>
	<circle cx="367.959" cy="403.509" r="4" fill="#0" id="circle103"/>
	<circle cx="378.116" cy="127.577" r="4" fill="#0" id="circle104"/>
	<circle cx="383.195" cy="395.044" r="4" fill="#0" id="circle105"/>
	<circle cx="384.887" cy="144.505" r="4" fill="#0" id="circle106"/>
	<circle cx="400.123" cy="395.044" r="4" fill="#0" id="circle107"/>
	<circle cx="401.816" cy="151.276" r="4" fill="#0" id="circle108"/>
	<circle cx="411.973" cy="164.819" r="4" fill="#0" id="circle109"/>
	<circle cx="417.051" cy="395.044" r="4" fill="#0" id="circle110"/>
	<circle cx="428.901" cy="169.898" r="4" fill="#0" id="circle111"/>
	<circle cx="433.98" cy="395.044" r="4" fill="#0" id="circle112"/>
	<circle cx="440.751" cy="183.44" r="4" fill="#0" id="circle113"/>
	<circle cx="450.908" cy="395.044" r="4" fill="#0" id="circle114"/>
	<circle cx="454.294" cy="195.29" r="4" fill="#0" id="circle115"/>
	<circle cx="461.065" cy="212.218" r="4" fill="#0" id="circle116"/>
	<circle cx="467.836" cy="395.044" r="4" fill="#0" id="circle117"/>
	<circle cx="477.993" cy="218.99" r="4" fill="#0" id="circle118"/>
	<circle cx="483.072" cy="403.509" r="4" fill="#0" id="circle119"/>
	<circle cx="484.765" cy="235.918" r="4" fill="#0" id="circle120"/>
	<circle cx="494.922" cy="249.461" r="4" fill="#0" id="circle121"/>
	<circle cx="494.922" cy="417.051" r="4" fill="#0" id="circle122"/>
	<circle cx="496.614" cy="266.389" r="4" fill="#0" id="circle123"/>
	<circle cx="508.464" cy="428.901" r="4" fill="#0" id="circle124"/>
	<circle cx="511.85" cy="274.853" r="4" fill="#0" id="circle125"/>
	<circle cx="513.543" cy="291.782" r="4" fill="#0" id="circle126"/>
	<circle cx="516.928" cy="444.137" r="4" fill="#0" id="circle127"/>
	<circle cx="527.085" cy="301.939" r="4" fill="#0" id="circle128"/>
	<circle cx="528.778" cy="457.679" r="4" fill="#0" id="circle129"/>
	<circle cx="538.935" cy="315.481" r="4" fill="#0" id="circle130"/>
	<circle cx="545.706" cy="462.758" r="4" fill="#0" id="circle131"/>
	<circle cx="550.785" cy="479.686" r="4" fill="#0" id="circle132"/>
	<circle cx="552.478" cy="327.331" r="4" fill="#0" id="circle133"/>
	<circle cx="564.328" cy="340.874" r="4" fill="#0" id="circle134"/>
	<circle cx="567.713" cy="486.457" r="4" fill="#0" id="circle135"/>
	<circle cx="581.256" cy="347.645" r="4" fill="#0" id="circle136"/>
	<circle cx="581.256" cy="496.614" r="4" fill="#0" id="circle137"/>
	<circle cx="591.413" cy="510.157" r="4" fill="#0" id="circle138"/>
	<circle cx="594.799" cy="359.495" r="4" fill="#0" id="circle139"/>
	<circle cx="608.341" cy="513.543" r="4" fill="#0" id="circle140"/>
	<circle cx="610.034" cy="367.959" r="4" fill="#0" id="circle141"/>
	<circle cx="621.884" cy="381.502" r="4" fill="#0" id="circle142"/>
	<circle cx="623.577" cy="522.007" r="4" fill="#0" id="circle143"/>
	<circle cx="630.348" cy="396.737" r="4" fill="#0" id="circle144"/>
	<circle cx="640.505" cy="410.28" r="4" fill="#0" id="circle145"/>
	<circle cx="640.505" cy="522.007" r="4" fill="#0" id="circle146"/>
	<circle cx="654.048" cy="420.437" r="4" fill="#0" id="circle147"/>
	<circle cx="655.741" cy="530.471" r="4" fill="#0" id="circle148"/>
	<circle cx="665.898" cy="433.98" r="4" fill="#0" id="circle149"/>
	<circle cx="672.669" cy="533.857" r="4" fill="#0" id="circle150"/>
	<circle cx="682.826" cy="440.751" r="4" fill="#0" id="circle151"/>
	<circle cx="689.597" cy="538.935" r="4" fill="#0" id="circle152"/>
	<circle cx="698.061" cy="449.215" r="4" fill="#0" id="circle153"/>
	<circle cx="704.833" cy="547.399" r="4" fill="#0" id="circle154"/>
	<circle cx="714.99" cy="452.601" r="4" fill="#0" id="circle155"/>
	<circle cx="720.068" cy="555.863" r="4" fill="#0" id="circle156"/>
	<circle cx="730.225" cy="461.065" r="4" fill="#0" id="circle157"/>
	<circle cx="736.997" cy="555.863" r="4" fill="#0" id="circle158"/>
	<circle cx="745.461" cy="469.529" r="4" fill="#0" id="circle159"/>
	<circle cx="750.539" cy="567.713" r="4" fill="#0" id="circle160"/>
	<circle cx="762.389" cy="469.529" r="4" fill="#0" id="circle161"/>
	<circle cx="767.468" cy="567.713" r="4" fill="#0" id="circle162"/>
	<circle cx="777.625" cy="477.993" r="4" fill="#0" id="circle163"/>
	<circle cx="782.703" cy="576.177" r="4" fill="#0" id="circle164"/>
	<circle cx="792.86" cy="486.457" r="4" fill="#0" id="circle165"/>
	<circle cx="799.631" cy="572.792" r="4" fill="#0" id="circle166"/>
	<circle cx="809.788" cy="486.457" r="4" fill="#0" id="circle167"/>
	<circle cx="809.788" cy="586.334" r="4" fill="#0" id="circle168"/>
	<circle cx="825.024" cy="494.922" r="4" fill="#0" id="circle169"/>
	<circle cx="826.717" cy="584.642" r="4" fill="#0" id="circle170"/>
	<circle cx="840.259" cy="503.386" r="4" fill="#0" id="circle171"/>
	<circle cx="843.645" cy="584.642" r="4" fill="#0" id="circle172"/>
	<circle cx="855.495" cy="511.85" r="4" fill="#0" id="circle173"/>
	<circle cx="860.573" cy="584.642" r="4" fill="#0" id="circle174"/>
	<circle cx="870.73" cy="520.314" r="4" fill="#0" id="circle175"/>
	<circle cx="872.423" cy="598.184" r="4" fill="#0" id="circle176"/>
	<circle cx="885.966" cy="528.778" r="4" fill="#0" id="circle177"/>
	<circle cx="889.352" cy="596.491" r="4" fill="#0" id="circle178"/>
	<circle cx="902.894" cy="525.392" r="4" fill="#0" id="circle179"/>
	<circle cx="906.28" cy="598.184" r="4" fill="#0" id="circle180"/>
	<circle cx="919.823" cy="528.778" r="4" fill="#0" id="circle181"/>
	<circle cx="919.823" cy="610.034" r="4" fill="#0" id="circle182"/>
	<circle cx="926.594" cy="626.962" r="4" fill="#0" id="circle183"/>
	<circle cx="936.751" cy="525.392" r="4" fill="#0" id="circle184"/>
	<circle cx="940.137" cy="638.812" r="4" fill="#0" id="circle185"/>
	<circle cx="951.986" cy="652.355" r="4" fill="#0" id="circle186"/>
	<circle cx="953.679" cy="528.778" r="4" fill="#0" id="circle187"/>
	<circle cx="965.529" cy="664.205" r="4" fill="#0" id="circle188"/>
	<circle cx="970.608" cy="533.857" r="4" fill="#0" id="circle189"/>
	<circle cx="972.3" cy="681.133" r="4" fill="#0" id="circle190"/>
	<circle cx="982.457" cy="547.399" r="4" fill="#0" id="circle191"/>
	<circle cx="987.536" cy="665.898" r="4" fill="#0" id="circle192"/>
	<circle cx="990.922" cy="562.635" r="4" fill="#0" id="circle193"/>
	<circle cx="996" cy="579.563" r="4" fill="#0" id="circle194"/>
	<circle cx="996" cy="596.491" r="4" fill="#0" id="circle195"/>
	<circle cx="996" cy="613.42" r="4" fill="#0" id="circle196"/>
	<circle cx="996" cy="630.348" r="4" fill="#0" id="circle197"/>
	<circle cx="996" cy="647.276" r="4" fill="#0" id="circle198"/>
	</g>
</svg>