<?xml version="1.0" encoding="UTF-8" standalone="no"?>
<!-- Created with CurveBenchmark -->
<svg
	xmlns:dc="http://purl.org/dc/elements/1.1/"
	xmlns:cc="http://creativecommons.org/ns#"
	xmlns:rdf="http://www.w3.org/1999/02/22-rdf-syntax-ns#"
	xmlns:svg="http://www.w3.org/2000/svg"
	xmlns="http://www.w3.org/2000/svg"
	xmlns:sodipodi="http://sodipodi.sourceforge.net/DTD/sodipodi-0.dtd"
	xmlns:inkscape="http://www.inkscape.org/namespaces/inkscape"
	width="1000"
	height="1000"
	id="svg2"
	version="1.1"
	sodipodi:docname="manifold/nncrust-rat16.png.txt">
<defs
	id="defs4" />
<metadata
	id="metadata7">
	<rdf:RDF>
		<cc:Work
			rdf:about="">
			<dc:format>image/svg+xml</dc:format>
			<dc:type
				rdf:resource="http://purl.org/dc/dcmitype/StillImage" />
			<dc:title></dc:title>
		</cc:Work>
	</rdf:RDF>
</metadata>
<g
	inkscape:label="Layer 1"
	inkscape:groupmode="layer"
	id="layer1">
	<path style="fill:none;stroke:red;stroke-width:1px;stroke-linecap:butt;stroke-linejoin:miter;stroke-opacity:1" d="M 127.807,109.236 127.807,124.711 z" id="boundary" inkscape:connector-curvature="0" />
	<path style="fill:none;stroke:red;stroke-width:1px;stroke-linecap:butt;stroke-linejoin:miter;stroke-opacity:1" d="M 127.807,109.236 135.544,93.7598 z" id="boundary" inkscape:connector-curvature="0" />
	<path style="fill:none;stroke:red;stroke-width:1px;stroke-linecap:butt;stroke-linejoin:miter;stroke-opacity:1" d="M 135.544,62.8081 135.544,78.2839 z" id="boundary" inkscape:connector-curvature="0" />
	<path style="fill:none;stroke:red;stroke-width:1px;stroke-linecap:butt;stroke-linejoin:miter;stroke-opacity:1" d="M 135.544,93.7598 135.544,78.2839 z" id="boundary" inkscape:connector-curvature="0" />
	<path style="fill:none;stroke:red;stroke-width:1px;stroke-linecap:butt;stroke-linejoin:miter;stroke-opacity:1" d="M 127.807,140.187 127.807,124.711 z" id="boundary" inkscape:connector-curvature="0" />
	<path style="fill:none;stroke:red;stroke-width:1px;stroke-linecap:butt;stroke-linejoin:miter;stroke-opacity:1" d="M 127.807,140.187 127.807,155.663 z" id="boundary" inkscape:connector-curvature="0" />
	<path style="fill:none;stroke:red;stroke-width:1px;stroke-linecap:butt;stroke-linejoin:miter;stroke-opacity:1" d="M 127.807,171.139 127.807,155.663 z" id="boundary" inkscape:connector-curvature="0" />
	<path style="fill:none;stroke:red;stroke-width:1px;stroke-linecap:butt;stroke-linejoin:miter;stroke-opacity:1" d="M 135.544,200.543 127.807,186.615 z" id="boundary" inkscape:connector-curvature="0" />
	<path style="fill:none;stroke:red;stroke-width:1px;stroke-linecap:butt;stroke-linejoin:miter;stroke-opacity:1" d="M 127.807,186.615 127.807,171.139 z" id="boundary" inkscape:connector-curvature="0" />
	<path style="fill:none;stroke:red;stroke-width:1px;stroke-linecap:butt;stroke-linejoin:miter;stroke-opacity:1" d="M 146.378,212.924 135.544,200.543 z" id="boundary" inkscape:connector-curvature="0" />
	<path style="fill:none;stroke:red;stroke-width:1px;stroke-linecap:butt;stroke-linejoin:miter;stroke-opacity:1" d="M 135.544,62.8081 143.282,47.3323 z" id="boundary" inkscape:connector-curvature="0" />
	<path style="fill:none;stroke:red;stroke-width:1px;stroke-linecap:butt;stroke-linejoin:miter;stroke-opacity:1" d="M 158.758,222.209 146.378,212.924 z" id="boundary" inkscape:connector-curvature="0" />
	<path style="fill:none;stroke:red;stroke-width:1px;stroke-linecap:butt;stroke-linejoin:miter;stroke-opacity:1" d="M 181.972,242.328 168.044,234.59 z" id="boundary" inkscape:connector-curvature="0" />
	<path style="fill:none;stroke:red;stroke-width:1px;stroke-linecap:butt;stroke-linejoin:miter;stroke-opacity:1" d="M 168.044,234.59 158.758,222.209 z" id="boundary" inkscape:connector-curvature="0" />
	<path style="fill:none;stroke:red;stroke-width:1px;stroke-linecap:butt;stroke-linejoin:miter;stroke-opacity:1" d="M 143.282,47.3323 155.663,34.9516 z" id="boundary" inkscape:connector-curvature="0" />
	<path style="fill:none;stroke:red;stroke-width:1px;stroke-linecap:butt;stroke-linejoin:miter;stroke-opacity:1" d="M 155.663,34.9516 171.139,34.9516 z" id="boundary" inkscape:connector-curvature="0" />
	<path style="fill:none;stroke:red;stroke-width:1px;stroke-linecap:butt;stroke-linejoin:miter;stroke-opacity:1" d="M 151.02,349.111 158.758,363.039 z" id="boundary" inkscape:connector-curvature="0" />
	<path style="fill:none;stroke:red;stroke-width:1px;stroke-linecap:butt;stroke-linejoin:miter;stroke-opacity:1" d="M 158.758,363.039 149.473,375.42 z" id="boundary" inkscape:connector-curvature="0" />
	<path style="fill:none;stroke:red;stroke-width:1px;stroke-linecap:butt;stroke-linejoin:miter;stroke-opacity:1" d="M 166.496,302.683 158.758,325.897 z" id="boundary" inkscape:connector-curvature="0" />
	<path style="fill:none;stroke:red;stroke-width:1px;stroke-linecap:butt;stroke-linejoin:miter;stroke-opacity:1" d="M 151.02,349.111 158.758,325.897 z" id="boundary" inkscape:connector-curvature="0" />
	<path style="fill:none;stroke:red;stroke-width:1px;stroke-linecap:butt;stroke-linejoin:miter;stroke-opacity:1" d="M 149.473,375.42 137.092,386.253 z" id="boundary" inkscape:connector-curvature="0" />
	<path style="fill:none;stroke:red;stroke-width:1px;stroke-linecap:butt;stroke-linejoin:miter;stroke-opacity:1" d="M 42.6895,542.559 50.4275,519.345 z" id="boundary" inkscape:connector-curvature="0" />
	<path style="fill:none;stroke:red;stroke-width:1px;stroke-linecap:butt;stroke-linejoin:miter;stroke-opacity:1" d="M 62.8081,506.964 65.9033,488.393 z" id="boundary" inkscape:connector-curvature="0" />
	<path style="fill:none;stroke:red;stroke-width:1px;stroke-linecap:butt;stroke-linejoin:miter;stroke-opacity:1" d="M 65.9033,488.393 78.2839,476.012 z" id="boundary" inkscape:connector-curvature="0" />
	<path style="fill:none;stroke:red;stroke-width:1px;stroke-linecap:butt;stroke-linejoin:miter;stroke-opacity:1" d="M 62.8081,506.964 50.4275,519.345 z" id="boundary" inkscape:connector-curvature="0" />
	<path style="fill:none;stroke:red;stroke-width:1px;stroke-linecap:butt;stroke-linejoin:miter;stroke-opacity:1" d="M 42.6895,558.034 42.6895,542.559 z" id="boundary" inkscape:connector-curvature="0" />
	<path style="fill:none;stroke:red;stroke-width:1px;stroke-linecap:butt;stroke-linejoin:miter;stroke-opacity:1" d="M 34.9516,581.248 42.6895,558.034 z" id="boundary" inkscape:connector-curvature="0" />
	<path style="fill:none;stroke:red;stroke-width:1px;stroke-linecap:butt;stroke-linejoin:miter;stroke-opacity:1" d="M 50.4275,593.629 65.9033,593.629 z" id="boundary" inkscape:connector-curvature="0" />
	<path style="fill:none;stroke:red;stroke-width:1px;stroke-linecap:butt;stroke-linejoin:miter;stroke-opacity:1" d="M 34.9516,596.724 50.4275,593.629 z" id="boundary" inkscape:connector-curvature="0" />
	<path style="fill:none;stroke:red;stroke-width:1px;stroke-linecap:butt;stroke-linejoin:miter;stroke-opacity:1" d="M 81.3791,593.629 65.9033,593.629 z" id="boundary" inkscape:connector-curvature="0" />
	<path style="fill:none;stroke:red;stroke-width:1px;stroke-linecap:butt;stroke-linejoin:miter;stroke-opacity:1" d="M 34.9516,596.724 34.9516,581.248 z" id="boundary" inkscape:connector-curvature="0" />
	<path style="fill:none;stroke:red;stroke-width:1px;stroke-linecap:butt;stroke-linejoin:miter;stroke-opacity:1" d="M 96.8549,441.966 109.236,429.585 z" id="boundary" inkscape:connector-curvature="0" />
	<path style="fill:none;stroke:red;stroke-width:1px;stroke-linecap:butt;stroke-linejoin:miter;stroke-opacity:1" d="M 90.6646,463.632 96.8549,441.966 z" id="boundary" inkscape:connector-curvature="0" />
	<path style="fill:none;stroke:red;stroke-width:1px;stroke-linecap:butt;stroke-linejoin:miter;stroke-opacity:1" d="M 121.616,417.204 129.354,401.729 z" id="boundary" inkscape:connector-curvature="0" />
	<path style="fill:none;stroke:red;stroke-width:1px;stroke-linecap:butt;stroke-linejoin:miter;stroke-opacity:1" d="M 121.616,417.204 109.236,429.585 z" id="boundary" inkscape:connector-curvature="0" />
	<path style="fill:none;stroke:red;stroke-width:1px;stroke-linecap:butt;stroke-linejoin:miter;stroke-opacity:1" d="M 137.092,386.253 129.354,401.729 z" id="boundary" inkscape:connector-curvature="0" />
	<path style="fill:none;stroke:red;stroke-width:1px;stroke-linecap:butt;stroke-linejoin:miter;stroke-opacity:1" d="M 109.236,584.343 96.8549,593.629 z" id="boundary" inkscape:connector-curvature="0" />
	<path style="fill:none;stroke:red;stroke-width:1px;stroke-linecap:butt;stroke-linejoin:miter;stroke-opacity:1" d="M 96.8549,593.629 81.3791,593.629 z" id="boundary" inkscape:connector-curvature="0" />
	<path style="fill:none;stroke:red;stroke-width:1px;stroke-linecap:butt;stroke-linejoin:miter;stroke-opacity:1" d="M 109.236,584.343 124.711,584.343 z" id="boundary" inkscape:connector-curvature="0" />
	<path style="fill:none;stroke:red;stroke-width:1px;stroke-linecap:butt;stroke-linejoin:miter;stroke-opacity:1" d="M 78.2839,476.012 90.6646,463.632 z" id="boundary" inkscape:connector-curvature="0" />
	<path style="fill:none;stroke:red;stroke-width:1px;stroke-linecap:butt;stroke-linejoin:miter;stroke-opacity:1" d="M 124.711,584.343 140.187,578.153 z" id="boundary" inkscape:connector-curvature="0" />
	<path style="fill:none;stroke:red;stroke-width:1px;stroke-linecap:butt;stroke-linejoin:miter;stroke-opacity:1" d="M 140.187,578.153 155.663,578.153 z" id="boundary" inkscape:connector-curvature="0" />
	<path style="fill:none;stroke:red;stroke-width:1px;stroke-linecap:butt;stroke-linejoin:miter;stroke-opacity:1" d="M 171.139,578.153 155.663,578.153 z" id="boundary" inkscape:connector-curvature="0" />
	<path style="fill:none;stroke:red;stroke-width:1px;stroke-linecap:butt;stroke-linejoin:miter;stroke-opacity:1" d="M 166.496,302.683 181.972,287.207 z" id="boundary" inkscape:connector-curvature="0" />
	<path style="fill:none;stroke:red;stroke-width:1px;stroke-linecap:butt;stroke-linejoin:miter;stroke-opacity:1" d="M 198.995,19.4758 212.924,11.7379 z" id="boundary" inkscape:connector-curvature="0" />
	<path style="fill:none;stroke:red;stroke-width:1px;stroke-linecap:butt;stroke-linejoin:miter;stroke-opacity:1" d="M 212.924,11.7379 228.399,8.64275 z" id="boundary" inkscape:connector-curvature="0" />
	<path style="fill:none;stroke:red;stroke-width:1px;stroke-linecap:butt;stroke-linejoin:miter;stroke-opacity:1" d="M 243.875,4 228.399,8.64275 z" id="boundary" inkscape:connector-curvature="0" />
	<path style="fill:none;stroke:red;stroke-width:1px;stroke-linecap:butt;stroke-linejoin:miter;stroke-opacity:1" d="M 243.875,4 259.351,4 z" id="boundary" inkscape:connector-curvature="0" />
	<path style="fill:none;stroke:red;stroke-width:1px;stroke-linecap:butt;stroke-linejoin:miter;stroke-opacity:1" d="M 259.351,4 273.279,11.7379 z" id="boundary" inkscape:connector-curvature="0" />
	<path style="fill:none;stroke:red;stroke-width:1px;stroke-linecap:butt;stroke-linejoin:miter;stroke-opacity:1" d="M 288.755,11.7379 273.279,11.7379 z" id="boundary" inkscape:connector-curvature="0" />
	<path style="fill:none;stroke:red;stroke-width:1px;stroke-linecap:butt;stroke-linejoin:miter;stroke-opacity:1" d="M 185.067,27.2137 171.139,34.9516 z" id="boundary" inkscape:connector-curvature="0" />
	<path style="fill:none;stroke:red;stroke-width:1px;stroke-linecap:butt;stroke-linejoin:miter;stroke-opacity:1" d="M 288.755,11.7379 302.683,19.4758 z" id="boundary" inkscape:connector-curvature="0" />
	<path style="fill:none;stroke:red;stroke-width:1px;stroke-linecap:butt;stroke-linejoin:miter;stroke-opacity:1" d="M 185.067,27.2137 198.995,19.4758 z" id="boundary" inkscape:connector-curvature="0" />
	<path style="fill:none;stroke:red;stroke-width:1px;stroke-linecap:butt;stroke-linejoin:miter;stroke-opacity:1" d="M 315.064,28.7613 322.802,42.6895 z" id="boundary" inkscape:connector-curvature="0" />
	<path style="fill:none;stroke:red;stroke-width:1px;stroke-linecap:butt;stroke-linejoin:miter;stroke-opacity:1" d="M 302.683,19.4758 315.064,28.7613 z" id="boundary" inkscape:connector-curvature="0" />
	<path style="fill:none;stroke:red;stroke-width:1px;stroke-linecap:butt;stroke-linejoin:miter;stroke-opacity:1" d="M 338.278,39.5944 322.802,42.6895 z" id="boundary" inkscape:connector-curvature="0" />
	<path style="fill:none;stroke:red;stroke-width:1px;stroke-linecap:butt;stroke-linejoin:miter;stroke-opacity:1" d="M 355.301,65.9033 346.016,53.5226 z" id="boundary" inkscape:connector-curvature="0" />
	<path style="fill:none;stroke:red;stroke-width:1px;stroke-linecap:butt;stroke-linejoin:miter;stroke-opacity:1" d="M 346.016,53.5226 338.278,39.5944 z" id="boundary" inkscape:connector-curvature="0" />
	<path style="fill:none;stroke:red;stroke-width:1px;stroke-linecap:butt;stroke-linejoin:miter;stroke-opacity:1" d="M 355.301,65.9033 361.491,82.9267 z" id="boundary" inkscape:connector-curvature="0" />
	<path style="fill:none;stroke:red;stroke-width:1px;stroke-linecap:butt;stroke-linejoin:miter;stroke-opacity:1" d="M 361.491,82.9267 369.229,96.8549 z" id="boundary" inkscape:connector-curvature="0" />
	<path style="fill:none;stroke:red;stroke-width:1px;stroke-linecap:butt;stroke-linejoin:miter;stroke-opacity:1" d="M 369.229,96.8549 369.229,112.331 z" id="boundary" inkscape:connector-curvature="0" />
	<path style="fill:none;stroke:red;stroke-width:1px;stroke-linecap:butt;stroke-linejoin:miter;stroke-opacity:1" d="M 381.61,121.616 369.229,112.331 z" id="boundary" inkscape:connector-curvature="0" />
	<path style="fill:none;stroke:red;stroke-width:1px;stroke-linecap:butt;stroke-linejoin:miter;stroke-opacity:1" d="M 384.705,137.092 384.705,152.568 z" id="boundary" inkscape:connector-curvature="0" />
	<path style="fill:none;stroke:red;stroke-width:1px;stroke-linecap:butt;stroke-linejoin:miter;stroke-opacity:1" d="M 384.705,137.092 381.61,121.616 z" id="boundary" inkscape:connector-curvature="0" />
	<path style="fill:none;stroke:red;stroke-width:1px;stroke-linecap:butt;stroke-linejoin:miter;stroke-opacity:1" d="M 384.705,152.568 384.705,168.044 z" id="boundary" inkscape:connector-curvature="0" />
	<path style="fill:none;stroke:red;stroke-width:1px;stroke-linecap:butt;stroke-linejoin:miter;stroke-opacity:1" d="M 181.972,257.803 181.972,287.207 z" id="boundary" inkscape:connector-curvature="0" />
	<path style="fill:none;stroke:red;stroke-width:1px;stroke-linecap:butt;stroke-linejoin:miter;stroke-opacity:1" d="M 233.042,578.153 353.754,485.298 z" id="boundary" inkscape:connector-curvature="0" />
	<path style="fill:none;stroke:red;stroke-width:1px;stroke-linecap:butt;stroke-linejoin:miter;stroke-opacity:1" d="M 346.016,562.677 346.016,547.201 z" id="boundary" inkscape:connector-curvature="0" />
	<path style="fill:none;stroke:red;stroke-width:1px;stroke-linecap:butt;stroke-linejoin:miter;stroke-opacity:1" d="M 346.016,547.201 361.491,547.201 z" id="boundary" inkscape:connector-curvature="0" />
	<path style="fill:none;stroke:red;stroke-width:1px;stroke-linecap:butt;stroke-linejoin:miter;stroke-opacity:1" d="M 181.972,257.803 181.972,242.328 z" id="boundary" inkscape:connector-curvature="0" />
	<path style="fill:none;stroke:red;stroke-width:1px;stroke-linecap:butt;stroke-linejoin:miter;stroke-opacity:1" d="M 186.615,578.153 171.139,578.153 z" id="boundary" inkscape:connector-curvature="0" />
	<path style="fill:none;stroke:red;stroke-width:1px;stroke-linecap:butt;stroke-linejoin:miter;stroke-opacity:1" d="M 186.615,578.153 202.09,578.153 z" id="boundary" inkscape:connector-curvature="0" />
	<path style="fill:none;stroke:red;stroke-width:1px;stroke-linecap:butt;stroke-linejoin:miter;stroke-opacity:1" d="M 217.566,578.153 202.09,578.153 z" id="boundary" inkscape:connector-curvature="0" />
	<path style="fill:none;stroke:red;stroke-width:1px;stroke-linecap:butt;stroke-linejoin:miter;stroke-opacity:1" d="M 233.042,578.153 217.566,578.153 z" id="boundary" inkscape:connector-curvature="0" />
	<path style="fill:none;stroke:red;stroke-width:1px;stroke-linecap:butt;stroke-linejoin:miter;stroke-opacity:1" d="M 217.566,578.153 217.566,599.819 z" id="boundary" inkscape:connector-curvature="0" />
	<path style="fill:none;stroke:red;stroke-width:1px;stroke-linecap:butt;stroke-linejoin:miter;stroke-opacity:1" d="M 346.016,562.677 346.016,578.153 z" id="boundary" inkscape:connector-curvature="0" />
	<path style="fill:none;stroke:red;stroke-width:1px;stroke-linecap:butt;stroke-linejoin:miter;stroke-opacity:1" d="M 346.016,578.153 233.042,578.153 z" id="boundary" inkscape:connector-curvature="0" />
	<path style="fill:none;stroke:red;stroke-width:1px;stroke-linecap:butt;stroke-linejoin:miter;stroke-opacity:1" d="M 369.229,477.56 381.61,466.727 z" id="boundary" inkscape:connector-curvature="0" />
	<path style="fill:none;stroke:red;stroke-width:1px;stroke-linecap:butt;stroke-linejoin:miter;stroke-opacity:1" d="M 392.443,454.346 381.61,466.727 z" id="boundary" inkscape:connector-curvature="0" />
	<path style="fill:none;stroke:red;stroke-width:1px;stroke-linecap:butt;stroke-linejoin:miter;stroke-opacity:1" d="M 384.705,183.52 384.705,198.995 z" id="boundary" inkscape:connector-curvature="0" />
	<path style="fill:none;stroke:red;stroke-width:1px;stroke-linecap:butt;stroke-linejoin:miter;stroke-opacity:1" d="M 384.705,183.52 384.705,168.044 z" id="boundary" inkscape:connector-curvature="0" />
	<path style="fill:none;stroke:red;stroke-width:1px;stroke-linecap:butt;stroke-linejoin:miter;stroke-opacity:1" d="M 400.181,205.186 384.705,198.995 z" id="boundary" inkscape:connector-curvature="0" />
	<path style="fill:none;stroke:red;stroke-width:1px;stroke-linecap:butt;stroke-linejoin:miter;stroke-opacity:1" d="M 369.229,477.56 353.754,485.298 z" id="boundary" inkscape:connector-curvature="0" />
	<path style="fill:none;stroke:red;stroke-width:1px;stroke-linecap:butt;stroke-linejoin:miter;stroke-opacity:1" d="M 381.61,500.774 392.443,513.154 z" id="boundary" inkscape:connector-curvature="0" />
	<path style="fill:none;stroke:red;stroke-width:1px;stroke-linecap:butt;stroke-linejoin:miter;stroke-opacity:1" d="M 361.491,547.201 375.42,554.939 z" id="boundary" inkscape:connector-curvature="0" />
	<path style="fill:none;stroke:red;stroke-width:1px;stroke-linecap:butt;stroke-linejoin:miter;stroke-opacity:1" d="M 353.754,485.298 366.134,494.583 z" id="boundary" inkscape:connector-curvature="0" />
	<path style="fill:none;stroke:red;stroke-width:1px;stroke-linecap:butt;stroke-linejoin:miter;stroke-opacity:1" d="M 366.134,494.583 346.016,547.201 z" id="boundary" inkscape:connector-curvature="0" />
	<path style="fill:none;stroke:red;stroke-width:1px;stroke-linecap:butt;stroke-linejoin:miter;stroke-opacity:1" d="M 375.42,554.939 389.348,562.677 z" id="boundary" inkscape:connector-curvature="0" />
	<path style="fill:none;stroke:red;stroke-width:1px;stroke-linecap:butt;stroke-linejoin:miter;stroke-opacity:1" d="M 366.134,494.583 381.61,500.774 z" id="boundary" inkscape:connector-curvature="0" />
	<path style="fill:none;stroke:red;stroke-width:1px;stroke-linecap:butt;stroke-linejoin:miter;stroke-opacity:1" d="M 346.016,593.629 346.016,578.153 z" id="boundary" inkscape:connector-curvature="0" />
	<path style="fill:none;stroke:red;stroke-width:1px;stroke-linecap:butt;stroke-linejoin:miter;stroke-opacity:1" d="M 120.069,844.337 132.449,831.956 z" id="boundary" inkscape:connector-curvature="0" />
	<path style="fill:none;stroke:red;stroke-width:1px;stroke-linecap:butt;stroke-linejoin:miter;stroke-opacity:1" d="M 120.069,859.813 120.069,844.337 z" id="boundary" inkscape:connector-curvature="0" />
	<path style="fill:none;stroke:red;stroke-width:1px;stroke-linecap:butt;stroke-linejoin:miter;stroke-opacity:1" d="M 68.9984,940.287 53.5226,940.287 z" id="boundary" inkscape:connector-curvature="0" />
	<path style="fill:none;stroke:red;stroke-width:1px;stroke-linecap:butt;stroke-linejoin:miter;stroke-opacity:1" d="M 120.069,859.813 120.069,875.289 z" id="boundary" inkscape:connector-curvature="0" />
	<path style="fill:none;stroke:red;stroke-width:1px;stroke-linecap:butt;stroke-linejoin:miter;stroke-opacity:1" d="M 127.807,889.217 135.544,903.145 z" id="boundary" inkscape:connector-curvature="0" />
	<path style="fill:none;stroke:red;stroke-width:1px;stroke-linecap:butt;stroke-linejoin:miter;stroke-opacity:1" d="M 120.069,875.289 127.807,889.217 z" id="boundary" inkscape:connector-curvature="0" />
	<path style="fill:none;stroke:red;stroke-width:1px;stroke-linecap:butt;stroke-linejoin:miter;stroke-opacity:1" d="M 135.544,903.145 135.544,918.621 z" id="boundary" inkscape:connector-curvature="0" />
	<path style="fill:none;stroke:red;stroke-width:1px;stroke-linecap:butt;stroke-linejoin:miter;stroke-opacity:1" d="M 135.544,797.91 140.187,816.48 z" id="boundary" inkscape:connector-curvature="0" />
	<path style="fill:none;stroke:red;stroke-width:1px;stroke-linecap:butt;stroke-linejoin:miter;stroke-opacity:1" d="M 140.187,816.48 132.449,831.956 z" id="boundary" inkscape:connector-curvature="0" />
	<path style="fill:none;stroke:red;stroke-width:1px;stroke-linecap:butt;stroke-linejoin:miter;stroke-opacity:1" d="M 53.5226,940.287 39.5944,948.025 z" id="boundary" inkscape:connector-curvature="0" />
	<path style="fill:none;stroke:red;stroke-width:1px;stroke-linecap:butt;stroke-linejoin:miter;stroke-opacity:1" d="M 151.02,705.055 163.401,692.674 z" id="boundary" inkscape:connector-curvature="0" />
	<path style="fill:none;stroke:red;stroke-width:1px;stroke-linecap:butt;stroke-linejoin:miter;stroke-opacity:1" d="M 151.02,720.53 151.02,705.055 z" id="boundary" inkscape:connector-curvature="0" />
	<path style="fill:none;stroke:red;stroke-width:1px;stroke-linecap:butt;stroke-linejoin:miter;stroke-opacity:1" d="M 166.496,674.103 163.401,692.674 z" id="boundary" inkscape:connector-curvature="0" />
	<path style="fill:none;stroke:red;stroke-width:1px;stroke-linecap:butt;stroke-linejoin:miter;stroke-opacity:1" d="M 178.877,661.722 166.496,674.103 z" id="boundary" inkscape:connector-curvature="0" />
	<path style="fill:none;stroke:red;stroke-width:1px;stroke-linecap:butt;stroke-linejoin:miter;stroke-opacity:1" d="M 151.02,705.055 34.9516,596.724 z" id="boundary" inkscape:connector-curvature="0" />
	<path style="fill:none;stroke:red;stroke-width:1px;stroke-linecap:butt;stroke-linejoin:miter;stroke-opacity:1" d="M 135.544,797.91 147.925,785.529 z" id="boundary" inkscape:connector-curvature="0" />
	<path style="fill:none;stroke:red;stroke-width:1px;stroke-linecap:butt;stroke-linejoin:miter;stroke-opacity:1" d="M 151.02,720.53 151.02,736.006 z" id="boundary" inkscape:connector-curvature="0" />
	<path style="fill:none;stroke:red;stroke-width:1px;stroke-linecap:butt;stroke-linejoin:miter;stroke-opacity:1" d="M 151.02,736.006 151.02,751.482 z" id="boundary" inkscape:connector-curvature="0" />
	<path style="fill:none;stroke:red;stroke-width:1px;stroke-linecap:butt;stroke-linejoin:miter;stroke-opacity:1" d="M 151.02,751.482 151.02,766.958 z" id="boundary" inkscape:connector-curvature="0" />
	<path style="fill:none;stroke:red;stroke-width:1px;stroke-linecap:butt;stroke-linejoin:miter;stroke-opacity:1" d="M 151.02,766.958 147.925,785.529 z" id="boundary" inkscape:connector-curvature="0" />
	<path style="fill:none;stroke:red;stroke-width:1px;stroke-linecap:butt;stroke-linejoin:miter;stroke-opacity:1" d="M 189.71,643.151 178.877,661.722 z" id="boundary" inkscape:connector-curvature="0" />
	<path style="fill:none;stroke:red;stroke-width:1px;stroke-linecap:butt;stroke-linejoin:miter;stroke-opacity:1" d="M 11.7379,968.144 24.1186,955.763 z" id="boundary" inkscape:connector-curvature="0" />
	<path style="fill:none;stroke:red;stroke-width:1px;stroke-linecap:butt;stroke-linejoin:miter;stroke-opacity:1" d="M 76.7363,980.524 61.2605,980.524 z" id="boundary" inkscape:connector-curvature="0" />
	<path style="fill:none;stroke:red;stroke-width:1px;stroke-linecap:butt;stroke-linejoin:miter;stroke-opacity:1" d="M 24.1186,955.763 39.5944,948.025 z" id="boundary" inkscape:connector-curvature="0" />
	<path style="fill:none;stroke:red;stroke-width:1px;stroke-linecap:butt;stroke-linejoin:miter;stroke-opacity:1" d="M 61.2605,980.524 47.3323,988.262 z" id="boundary" inkscape:connector-curvature="0" />
	<path style="fill:none;stroke:red;stroke-width:1px;stroke-linecap:butt;stroke-linejoin:miter;stroke-opacity:1" d="M 4,983.619 11.7379,968.144 z" id="boundary" inkscape:connector-curvature="0" />
	<path style="fill:none;stroke:red;stroke-width:1px;stroke-linecap:butt;stroke-linejoin:miter;stroke-opacity:1" d="M 16.3807,994.452 4,983.619 z" id="boundary" inkscape:connector-curvature="0" />
	<path style="fill:none;stroke:red;stroke-width:1px;stroke-linecap:butt;stroke-linejoin:miter;stroke-opacity:1" d="M 31.8565,994.452 47.3323,988.262 z" id="boundary" inkscape:connector-curvature="0" />
	<path style="fill:none;stroke:red;stroke-width:1px;stroke-linecap:butt;stroke-linejoin:miter;stroke-opacity:1" d="M 31.8565,994.452 16.3807,994.452 z" id="boundary" inkscape:connector-curvature="0" />
	<path style="fill:none;stroke:red;stroke-width:1px;stroke-linecap:butt;stroke-linejoin:miter;stroke-opacity:1" d="M 76.7363,980.524 92.2122,980.524 z" id="boundary" inkscape:connector-curvature="0" />
	<path style="fill:none;stroke:red;stroke-width:1px;stroke-linecap:butt;stroke-linejoin:miter;stroke-opacity:1" d="M 68.9984,940.287 84.4743,940.287 z" id="boundary" inkscape:connector-curvature="0" />
	<path style="fill:none;stroke:red;stroke-width:1px;stroke-linecap:butt;stroke-linejoin:miter;stroke-opacity:1" d="M 84.4743,940.287 99.9501,940.287 z" id="boundary" inkscape:connector-curvature="0" />
	<path style="fill:none;stroke:red;stroke-width:1px;stroke-linecap:butt;stroke-linejoin:miter;stroke-opacity:1" d="M 107.688,980.524 92.2122,980.524 z" id="boundary" inkscape:connector-curvature="0" />
	<path style="fill:none;stroke:red;stroke-width:1px;stroke-linecap:butt;stroke-linejoin:miter;stroke-opacity:1" d="M 115.426,940.287 99.9501,940.287 z" id="boundary" inkscape:connector-curvature="0" />
	<path style="fill:none;stroke:red;stroke-width:1px;stroke-linecap:butt;stroke-linejoin:miter;stroke-opacity:1" d="M 130.902,940.287 115.426,940.287 z" id="boundary" inkscape:connector-curvature="0" />
	<path style="fill:none;stroke:red;stroke-width:1px;stroke-linecap:butt;stroke-linejoin:miter;stroke-opacity:1" d="M 135.544,918.621 130.902,940.287 z" id="boundary" inkscape:connector-curvature="0" />
	<path style="fill:none;stroke:red;stroke-width:1px;stroke-linecap:butt;stroke-linejoin:miter;stroke-opacity:1" d="M 107.688,980.524 123.164,980.524 z" id="boundary" inkscape:connector-curvature="0" />
	<path style="fill:none;stroke:red;stroke-width:1px;stroke-linecap:butt;stroke-linejoin:miter;stroke-opacity:1" d="M 138.64,980.524 123.164,980.524 z" id="boundary" inkscape:connector-curvature="0" />
	<path style="fill:none;stroke:red;stroke-width:1px;stroke-linecap:butt;stroke-linejoin:miter;stroke-opacity:1" d="M 154.115,980.524 169.591,980.524 z" id="boundary" inkscape:connector-curvature="0" />
	<path style="fill:none;stroke:red;stroke-width:1px;stroke-linecap:butt;stroke-linejoin:miter;stroke-opacity:1" d="M 169.591,980.524 185.067,980.524 z" id="boundary" inkscape:connector-curvature="0" />
	<path style="fill:none;stroke:red;stroke-width:1px;stroke-linecap:butt;stroke-linejoin:miter;stroke-opacity:1" d="M 154.115,980.524 138.64,980.524 z" id="boundary" inkscape:connector-curvature="0" />
	<path style="fill:none;stroke:red;stroke-width:1px;stroke-linecap:butt;stroke-linejoin:miter;stroke-opacity:1" d="M 185.067,980.524 200.543,980.524 z" id="boundary" inkscape:connector-curvature="0" />
	<path style="fill:none;stroke:red;stroke-width:1px;stroke-linecap:butt;stroke-linejoin:miter;stroke-opacity:1" d="M 189.71,643.151 202.09,630.771 z" id="boundary" inkscape:connector-curvature="0" />
	<path style="fill:none;stroke:red;stroke-width:1px;stroke-linecap:butt;stroke-linejoin:miter;stroke-opacity:1" d="M 202.09,630.771 205.186,612.2 z" id="boundary" inkscape:connector-curvature="0" />
	<path style="fill:none;stroke:red;stroke-width:1px;stroke-linecap:butt;stroke-linejoin:miter;stroke-opacity:1" d="M 205.186,612.2 217.566,599.819 z" id="boundary" inkscape:connector-curvature="0" />
	<path style="fill:none;stroke:red;stroke-width:1px;stroke-linecap:butt;stroke-linejoin:miter;stroke-opacity:1" d="M 311.969,856.718 296.493,856.718 z" id="boundary" inkscape:connector-curvature="0" />
	<path style="fill:none;stroke:red;stroke-width:1px;stroke-linecap:butt;stroke-linejoin:miter;stroke-opacity:1" d="M 281.017,861.36 296.493,856.718 z" id="boundary" inkscape:connector-curvature="0" />
	<path style="fill:none;stroke:red;stroke-width:1px;stroke-linecap:butt;stroke-linejoin:miter;stroke-opacity:1" d="M 222.209,903.145 222.209,887.669 z" id="boundary" inkscape:connector-curvature="0" />
	<path style="fill:none;stroke:red;stroke-width:1px;stroke-linecap:butt;stroke-linejoin:miter;stroke-opacity:1" d="M 222.209,887.669 236.137,879.931 z" id="boundary" inkscape:connector-curvature="0" />
	<path style="fill:none;stroke:red;stroke-width:1px;stroke-linecap:butt;stroke-linejoin:miter;stroke-opacity:1" d="M 281.017,861.36 265.541,869.098 z" id="boundary" inkscape:connector-curvature="0" />
	<path style="fill:none;stroke:red;stroke-width:1px;stroke-linecap:butt;stroke-linejoin:miter;stroke-opacity:1" d="M 265.541,869.098 250.066,872.193 z" id="boundary" inkscape:connector-curvature="0" />
	<path style="fill:none;stroke:red;stroke-width:1px;stroke-linecap:butt;stroke-linejoin:miter;stroke-opacity:1" d="M 236.137,879.931 250.066,872.193 z" id="boundary" inkscape:connector-curvature="0" />
	<path style="fill:none;stroke:red;stroke-width:1px;stroke-linecap:butt;stroke-linejoin:miter;stroke-opacity:1" d="M 346.016,609.105 346.016,593.629 z" id="boundary" inkscape:connector-curvature="0" />
	<path style="fill:none;stroke:red;stroke-width:1px;stroke-linecap:butt;stroke-linejoin:miter;stroke-opacity:1" d="M 358.396,618.39 346.016,609.105 z" id="boundary" inkscape:connector-curvature="0" />
	<path style="fill:none;stroke:red;stroke-width:1px;stroke-linecap:butt;stroke-linejoin:miter;stroke-opacity:1" d="M 366.134,632.318 369.229,647.794 z" id="boundary" inkscape:connector-curvature="0" />
	<path style="fill:none;stroke:red;stroke-width:1px;stroke-linecap:butt;stroke-linejoin:miter;stroke-opacity:1" d="M 376.967,661.722 369.229,647.794 z" id="boundary" inkscape:connector-curvature="0" />
	<path style="fill:none;stroke:red;stroke-width:1px;stroke-linecap:butt;stroke-linejoin:miter;stroke-opacity:1" d="M 358.396,618.39 366.134,632.318 z" id="boundary" inkscape:connector-curvature="0" />
	<path style="fill:none;stroke:red;stroke-width:1px;stroke-linecap:butt;stroke-linejoin:miter;stroke-opacity:1" d="M 328.992,872.193 325.897,893.86 z" id="boundary" inkscape:connector-curvature="0" />
	<path style="fill:none;stroke:red;stroke-width:1px;stroke-linecap:butt;stroke-linejoin:miter;stroke-opacity:1" d="M 311.969,856.718 327.445,856.718 z" id="boundary" inkscape:connector-curvature="0" />
	<path style="fill:none;stroke:red;stroke-width:1px;stroke-linecap:butt;stroke-linejoin:miter;stroke-opacity:1" d="M 327.445,856.718 328.992,872.193 z" id="boundary" inkscape:connector-curvature="0" />
	<path style="fill:none;stroke:red;stroke-width:1px;stroke-linecap:butt;stroke-linejoin:miter;stroke-opacity:1" d="M 392.443,887.669 381.61,900.05 z" id="boundary" inkscape:connector-curvature="0" />
	<path style="fill:none;stroke:red;stroke-width:1px;stroke-linecap:butt;stroke-linejoin:miter;stroke-opacity:1" d="M 376.967,661.722 384.705,675.651 z" id="boundary" inkscape:connector-curvature="0" />
	<path style="fill:none;stroke:red;stroke-width:1px;stroke-linecap:butt;stroke-linejoin:miter;stroke-opacity:1" d="M 384.705,675.651 384.705,691.126 z" id="boundary" inkscape:connector-curvature="0" />
	<path style="fill:none;stroke:red;stroke-width:1px;stroke-linecap:butt;stroke-linejoin:miter;stroke-opacity:1" d="M 325.897,893.86 313.516,906.24 z" id="boundary" inkscape:connector-curvature="0" />
	<path style="fill:none;stroke:red;stroke-width:1px;stroke-linecap:butt;stroke-linejoin:miter;stroke-opacity:1" d="M 225.304,918.621 222.209,903.145 z" id="boundary" inkscape:connector-curvature="0" />
	<path style="fill:none;stroke:red;stroke-width:1px;stroke-linecap:butt;stroke-linejoin:miter;stroke-opacity:1" d="M 237.685,929.454 225.304,918.621 z" id="boundary" inkscape:connector-curvature="0" />
	<path style="fill:none;stroke:red;stroke-width:1px;stroke-linecap:butt;stroke-linejoin:miter;stroke-opacity:1" d="M 313.516,906.24 310.421,924.811 z" id="boundary" inkscape:connector-curvature="0" />
	<path style="fill:none;stroke:red;stroke-width:1px;stroke-linecap:butt;stroke-linejoin:miter;stroke-opacity:1" d="M 310.421,924.811 298.041,937.192 z" id="boundary" inkscape:connector-curvature="0" />
	<path style="fill:none;stroke:red;stroke-width:1px;stroke-linecap:butt;stroke-linejoin:miter;stroke-opacity:1" d="M 298.041,952.668 298.041,937.192 z" id="boundary" inkscape:connector-curvature="0" />
	<path style="fill:none;stroke:red;stroke-width:1px;stroke-linecap:butt;stroke-linejoin:miter;stroke-opacity:1" d="M 310.421,963.501 298.041,952.668 z" id="boundary" inkscape:connector-curvature="0" />
	<path style="fill:none;stroke:red;stroke-width:1px;stroke-linecap:butt;stroke-linejoin:miter;stroke-opacity:1" d="M 236.137,952.668 237.685,929.454 z" id="boundary" inkscape:connector-curvature="0" />
	<path style="fill:none;stroke:red;stroke-width:1px;stroke-linecap:butt;stroke-linejoin:miter;stroke-opacity:1" d="M 200.543,980.524 216.019,980.524 z" id="boundary" inkscape:connector-curvature="0" />
	<path style="fill:none;stroke:red;stroke-width:1px;stroke-linecap:butt;stroke-linejoin:miter;stroke-opacity:1" d="M 228.399,968.144 216.019,980.524 z" id="boundary" inkscape:connector-curvature="0" />
	<path style="fill:none;stroke:red;stroke-width:1px;stroke-linecap:butt;stroke-linejoin:miter;stroke-opacity:1" d="M 228.399,968.144 236.137,952.668 z" id="boundary" inkscape:connector-curvature="0" />
	<path style="fill:none;stroke:red;stroke-width:1px;stroke-linecap:butt;stroke-linejoin:miter;stroke-opacity:1" d="M 369.229,910.883 369.229,926.359 z" id="boundary" inkscape:connector-curvature="0" />
	<path style="fill:none;stroke:red;stroke-width:1px;stroke-linecap:butt;stroke-linejoin:miter;stroke-opacity:1" d="M 376.967,940.287 369.229,926.359 z" id="boundary" inkscape:connector-curvature="0" />
	<path style="fill:none;stroke:red;stroke-width:1px;stroke-linecap:butt;stroke-linejoin:miter;stroke-opacity:1" d="M 392.443,940.287 376.967,940.287 z" id="boundary" inkscape:connector-curvature="0" />
	<path style="fill:none;stroke:red;stroke-width:1px;stroke-linecap:butt;stroke-linejoin:miter;stroke-opacity:1" d="M 369.229,910.883 381.61,900.05 z" id="boundary" inkscape:connector-curvature="0" />
	<path style="fill:none;stroke:red;stroke-width:1px;stroke-linecap:butt;stroke-linejoin:miter;stroke-opacity:1" d="M 336.73,980.524 321.254,975.881 z" id="boundary" inkscape:connector-curvature="0" />
	<path style="fill:none;stroke:red;stroke-width:1px;stroke-linecap:butt;stroke-linejoin:miter;stroke-opacity:1" d="M 321.254,975.881 310.421,963.501 z" id="boundary" inkscape:connector-curvature="0" />
	<path style="fill:none;stroke:red;stroke-width:1px;stroke-linecap:butt;stroke-linejoin:miter;stroke-opacity:1" d="M 336.73,980.524 352.206,980.524 z" id="boundary" inkscape:connector-curvature="0" />
	<path style="fill:none;stroke:red;stroke-width:1px;stroke-linecap:butt;stroke-linejoin:miter;stroke-opacity:1" d="M 367.682,980.524 352.206,980.524 z" id="boundary" inkscape:connector-curvature="0" />
	<path style="fill:none;stroke:red;stroke-width:1px;stroke-linecap:butt;stroke-linejoin:miter;stroke-opacity:1" d="M 383.158,980.524 367.682,980.524 z" id="boundary" inkscape:connector-curvature="0" />
	<path style="fill:none;stroke:red;stroke-width:1px;stroke-linecap:butt;stroke-linejoin:miter;stroke-opacity:1" d="M 384.705,691.126 384.705,706.602 z" id="boundary" inkscape:connector-curvature="0" />
	<path style="fill:none;stroke:red;stroke-width:1px;stroke-linecap:butt;stroke-linejoin:miter;stroke-opacity:1" d="M 414.109,186.615 421.847,163.401 z" id="boundary" inkscape:connector-curvature="0" />
	<path style="fill:none;stroke:red;stroke-width:1px;stroke-linecap:butt;stroke-linejoin:miter;stroke-opacity:1" d="M 421.847,163.401 437.323,155.663 z" id="boundary" inkscape:connector-curvature="0" />
	<path style="fill:none;stroke:red;stroke-width:1px;stroke-linecap:butt;stroke-linejoin:miter;stroke-opacity:1" d="M 414.109,186.615 400.181,205.186 z" id="boundary" inkscape:connector-curvature="0" />
	<path style="fill:none;stroke:red;stroke-width:1px;stroke-linecap:butt;stroke-linejoin:miter;stroke-opacity:1" d="M 437.323,140.187 452.799,124.711 z" id="boundary" inkscape:connector-curvature="0" />
	<path style="fill:none;stroke:red;stroke-width:1px;stroke-linecap:butt;stroke-linejoin:miter;stroke-opacity:1" d="M 437.323,155.663 437.323,140.187 z" id="boundary" inkscape:connector-curvature="0" />
	<path style="fill:none;stroke:red;stroke-width:1px;stroke-linecap:butt;stroke-linejoin:miter;stroke-opacity:1" d="M 423.395,415.657 415.657,431.133 z" id="boundary" inkscape:connector-curvature="0" />
	<path style="fill:none;stroke:red;stroke-width:1px;stroke-linecap:butt;stroke-linejoin:miter;stroke-opacity:1" d="M 415.657,431.133 404.824,443.513 z" id="boundary" inkscape:connector-curvature="0" />
	<path style="fill:none;stroke:red;stroke-width:1px;stroke-linecap:butt;stroke-linejoin:miter;stroke-opacity:1" d="M 438.871,392.443 438.871,407.919 z" id="boundary" inkscape:connector-curvature="0" />
	<path style="fill:none;stroke:red;stroke-width:1px;stroke-linecap:butt;stroke-linejoin:miter;stroke-opacity:1" d="M 438.871,407.919 423.395,415.657 z" id="boundary" inkscape:connector-curvature="0" />
	<path style="fill:none;stroke:red;stroke-width:1px;stroke-linecap:butt;stroke-linejoin:miter;stroke-opacity:1" d="M 438.871,392.443 454.346,392.443 z" id="boundary" inkscape:connector-curvature="0" />
	<path style="fill:none;stroke:red;stroke-width:1px;stroke-linecap:butt;stroke-linejoin:miter;stroke-opacity:1" d="M 438.871,392.443 400.181,205.186 z" id="boundary" inkscape:connector-curvature="0" />
	<path style="fill:none;stroke:red;stroke-width:1px;stroke-linecap:butt;stroke-linejoin:miter;stroke-opacity:1" d="M 480.655,104.593 465.179,112.331 z" id="boundary" inkscape:connector-curvature="0" />
	<path style="fill:none;stroke:red;stroke-width:1px;stroke-linecap:butt;stroke-linejoin:miter;stroke-opacity:1" d="M 525.535,89.117 511.607,96.8549 z" id="boundary" inkscape:connector-curvature="0" />
	<path style="fill:none;stroke:red;stroke-width:1px;stroke-linecap:butt;stroke-linejoin:miter;stroke-opacity:1" d="M 511.607,96.8549 496.131,96.8549 z" id="boundary" inkscape:connector-curvature="0" />
	<path style="fill:none;stroke:red;stroke-width:1px;stroke-linecap:butt;stroke-linejoin:miter;stroke-opacity:1" d="M 480.655,104.593 496.131,96.8549 z" id="boundary" inkscape:connector-curvature="0" />
	<path style="fill:none;stroke:red;stroke-width:1px;stroke-linecap:butt;stroke-linejoin:miter;stroke-opacity:1" d="M 454.346,392.443 469.822,392.443 z" id="boundary" inkscape:connector-curvature="0" />
	<path style="fill:none;stroke:red;stroke-width:1px;stroke-linecap:butt;stroke-linejoin:miter;stroke-opacity:1" d="M 485.298,392.443 469.822,392.443 z" id="boundary" inkscape:connector-curvature="0" />
	<path style="fill:none;stroke:red;stroke-width:1px;stroke-linecap:butt;stroke-linejoin:miter;stroke-opacity:1" d="M 485.298,392.443 500.774,392.443 z" id="boundary" inkscape:connector-curvature="0" />
	<path style="fill:none;stroke:red;stroke-width:1px;stroke-linecap:butt;stroke-linejoin:miter;stroke-opacity:1" d="M 516.25,392.443 500.774,392.443 z" id="boundary" inkscape:connector-curvature="0" />
	<path style="fill:none;stroke:red;stroke-width:1px;stroke-linecap:butt;stroke-linejoin:miter;stroke-opacity:1" d="M 531.725,392.443 516.25,392.443 z" id="boundary" inkscape:connector-curvature="0" />
	<path style="fill:none;stroke:red;stroke-width:1px;stroke-linecap:butt;stroke-linejoin:miter;stroke-opacity:1" d="M 531.725,392.443 547.201,392.443 z" id="boundary" inkscape:connector-curvature="0" />
	<path style="fill:none;stroke:red;stroke-width:1px;stroke-linecap:butt;stroke-linejoin:miter;stroke-opacity:1" d="M 452.799,124.711 465.179,112.331 z" id="boundary" inkscape:connector-curvature="0" />
	<path style="fill:none;stroke:red;stroke-width:1px;stroke-linecap:butt;stroke-linejoin:miter;stroke-opacity:1" d="M 407.919,511.607 392.443,513.154 z" id="boundary" inkscape:connector-curvature="0" />
	<path style="fill:none;stroke:red;stroke-width:1px;stroke-linecap:butt;stroke-linejoin:miter;stroke-opacity:1" d="M 418.752,523.988 407.919,511.607 z" id="boundary" inkscape:connector-curvature="0" />
	<path style="fill:none;stroke:red;stroke-width:1px;stroke-linecap:butt;stroke-linejoin:miter;stroke-opacity:1" d="M 392.443,454.346 404.824,443.513 z" id="boundary" inkscape:connector-curvature="0" />
	<path style="fill:none;stroke:red;stroke-width:1px;stroke-linecap:butt;stroke-linejoin:miter;stroke-opacity:1" d="M 403.276,570.415 389.348,562.677 z" id="boundary" inkscape:connector-curvature="0" />
	<path style="fill:none;stroke:red;stroke-width:1px;stroke-linecap:butt;stroke-linejoin:miter;stroke-opacity:1" d="M 424.942,592.081 429.585,607.557 z" id="boundary" inkscape:connector-curvature="0" />
	<path style="fill:none;stroke:red;stroke-width:1px;stroke-linecap:butt;stroke-linejoin:miter;stroke-opacity:1" d="M 424.942,592.081 417.204,578.153 z" id="boundary" inkscape:connector-curvature="0" />
	<path style="fill:none;stroke:red;stroke-width:1px;stroke-linecap:butt;stroke-linejoin:miter;stroke-opacity:1" d="M 403.276,570.415 417.204,578.153 z" id="boundary" inkscape:connector-curvature="0" />
	<path style="fill:none;stroke:red;stroke-width:1px;stroke-linecap:butt;stroke-linejoin:miter;stroke-opacity:1" d="M 429.585,607.557 432.68,623.033 z" id="boundary" inkscape:connector-curvature="0" />
	<path style="fill:none;stroke:red;stroke-width:1px;stroke-linecap:butt;stroke-linejoin:miter;stroke-opacity:1" d="M 418.752,523.988 431.133,534.821 z" id="boundary" inkscape:connector-curvature="0" />
	<path style="fill:none;stroke:red;stroke-width:1px;stroke-linecap:butt;stroke-linejoin:miter;stroke-opacity:1" d="M 441.966,547.201 454.346,558.034 z" id="boundary" inkscape:connector-curvature="0" />
	<path style="fill:none;stroke:red;stroke-width:1px;stroke-linecap:butt;stroke-linejoin:miter;stroke-opacity:1" d="M 441.966,547.201 431.133,534.821 z" id="boundary" inkscape:connector-curvature="0" />
	<path style="fill:none;stroke:red;stroke-width:1px;stroke-linecap:butt;stroke-linejoin:miter;stroke-opacity:1" d="M 454.346,558.034 469.822,558.034 z" id="boundary" inkscape:connector-curvature="0" />
	<path style="fill:none;stroke:red;stroke-width:1px;stroke-linecap:butt;stroke-linejoin:miter;stroke-opacity:1" d="M 469.822,558.034 476.012,573.51 z" id="boundary" inkscape:connector-curvature="0" />
	<path style="fill:none;stroke:red;stroke-width:1px;stroke-linecap:butt;stroke-linejoin:miter;stroke-opacity:1" d="M 476.012,573.51 485.298,585.891 z" id="boundary" inkscape:connector-curvature="0" />
	<path style="fill:none;stroke:red;stroke-width:1px;stroke-linecap:butt;stroke-linejoin:miter;stroke-opacity:1" d="M 445.061,632.318 432.68,623.033 z" id="boundary" inkscape:connector-curvature="0" />
	<path style="fill:none;stroke:red;stroke-width:1px;stroke-linecap:butt;stroke-linejoin:miter;stroke-opacity:1" d="M 493.036,599.819 485.298,585.891 z" id="boundary" inkscape:connector-curvature="0" />
	<path style="fill:none;stroke:red;stroke-width:1px;stroke-linecap:butt;stroke-linejoin:miter;stroke-opacity:1" d="M 508.512,599.819 493.036,599.819 z" id="boundary" inkscape:connector-curvature="0" />
	<path style="fill:none;stroke:red;stroke-width:1px;stroke-linecap:butt;stroke-linejoin:miter;stroke-opacity:1" d="M 508.512,599.819 523.988,599.819 z" id="boundary" inkscape:connector-curvature="0" />
	<path style="fill:none;stroke:red;stroke-width:1px;stroke-linecap:butt;stroke-linejoin:miter;stroke-opacity:1" d="M 523.988,599.819 537.916,607.557 z" id="boundary" inkscape:connector-curvature="0" />
	<path style="fill:none;stroke:red;stroke-width:1px;stroke-linecap:butt;stroke-linejoin:miter;stroke-opacity:1" d="M 553.392,610.652 537.916,607.557 z" id="boundary" inkscape:connector-curvature="0" />
	<path style="fill:none;stroke:red;stroke-width:1px;stroke-linecap:butt;stroke-linejoin:miter;stroke-opacity:1" d="M 525.535,89.117 541.011,89.117 z" id="boundary" inkscape:connector-curvature="0" />
	<path style="fill:none;stroke:red;stroke-width:1px;stroke-linecap:butt;stroke-linejoin:miter;stroke-opacity:1" d="M 541.011,89.117 556.487,89.117 z" id="boundary" inkscape:connector-curvature="0" />
	<path style="fill:none;stroke:red;stroke-width:1px;stroke-linecap:butt;stroke-linejoin:miter;stroke-opacity:1" d="M 556.487,89.117 570.415,96.8549 z" id="boundary" inkscape:connector-curvature="0" />
	<path style="fill:none;stroke:red;stroke-width:1px;stroke-linecap:butt;stroke-linejoin:miter;stroke-opacity:1" d="M 570.415,96.8549 582.796,106.14 z" id="boundary" inkscape:connector-curvature="0" />
	<path style="fill:none;stroke:red;stroke-width:1px;stroke-linecap:butt;stroke-linejoin:miter;stroke-opacity:1" d="M 582.796,106.14 585.891,121.616 z" id="boundary" inkscape:connector-curvature="0" />
	<path style="fill:none;stroke:red;stroke-width:1px;stroke-linecap:butt;stroke-linejoin:miter;stroke-opacity:1" d="M 585.891,121.616 593.629,135.544 z" id="boundary" inkscape:connector-curvature="0" />
	<path style="fill:none;stroke:red;stroke-width:1px;stroke-linecap:butt;stroke-linejoin:miter;stroke-opacity:1" d="M 593.629,135.544 606.009,144.83 z" id="boundary" inkscape:connector-curvature="0" />
	<path style="fill:none;stroke:red;stroke-width:1px;stroke-linecap:butt;stroke-linejoin:miter;stroke-opacity:1" d="M 606.009,144.83 609.105,160.306 z" id="boundary" inkscape:connector-curvature="0" />
	<path style="fill:none;stroke:red;stroke-width:1px;stroke-linecap:butt;stroke-linejoin:miter;stroke-opacity:1" d="M 621.485,169.591 609.105,160.306 z" id="boundary" inkscape:connector-curvature="0" />
	<path style="fill:none;stroke:red;stroke-width:1px;stroke-linecap:butt;stroke-linejoin:miter;stroke-opacity:1" d="M 621.485,169.591 624.58,185.067 z" id="boundary" inkscape:connector-curvature="0" />
	<path style="fill:none;stroke:red;stroke-width:1px;stroke-linecap:butt;stroke-linejoin:miter;stroke-opacity:1" d="M 629.223,350.658 621.485,366.134 z" id="boundary" inkscape:connector-curvature="0" />
	<path style="fill:none;stroke:red;stroke-width:1px;stroke-linecap:butt;stroke-linejoin:miter;stroke-opacity:1" d="M 621.485,366.134 606.009,373.872 z" id="boundary" inkscape:connector-curvature="0" />
	<path style="fill:none;stroke:red;stroke-width:1px;stroke-linecap:butt;stroke-linejoin:miter;stroke-opacity:1" d="M 624.58,185.067 632.318,198.995 z" id="boundary" inkscape:connector-curvature="0" />
	<path style="fill:none;stroke:red;stroke-width:1px;stroke-linecap:butt;stroke-linejoin:miter;stroke-opacity:1" d="M 632.318,198.995 635.413,214.471 z" id="boundary" inkscape:connector-curvature="0" />
	<path style="fill:none;stroke:red;stroke-width:1px;stroke-linecap:butt;stroke-linejoin:miter;stroke-opacity:1" d="M 635.413,214.471 643.151,228.399 z" id="boundary" inkscape:connector-curvature="0" />
	<path style="fill:none;stroke:red;stroke-width:1px;stroke-linecap:butt;stroke-linejoin:miter;stroke-opacity:1" d="M 643.151,228.399 647.794,243.875 z" id="boundary" inkscape:connector-curvature="0" />
	<path style="fill:none;stroke:red;stroke-width:1px;stroke-linecap:butt;stroke-linejoin:miter;stroke-opacity:1" d="M 647.794,243.875 647.794,259.351 z" id="boundary" inkscape:connector-curvature="0" />
	<path style="fill:none;stroke:red;stroke-width:1px;stroke-linecap:butt;stroke-linejoin:miter;stroke-opacity:1" d="M 636.961,335.183 629.223,350.658 z" id="boundary" inkscape:connector-curvature="0" />
	<path style="fill:none;stroke:red;stroke-width:1px;stroke-linecap:butt;stroke-linejoin:miter;stroke-opacity:1" d="M 644.699,319.707 636.961,335.183 z" id="boundary" inkscape:connector-curvature="0" />
	<path style="fill:none;stroke:red;stroke-width:1px;stroke-linecap:butt;stroke-linejoin:miter;stroke-opacity:1" d="M 647.794,290.303 644.699,319.707 z" id="boundary" inkscape:connector-curvature="0" />
	<path style="fill:none;stroke:red;stroke-width:1px;stroke-linecap:butt;stroke-linejoin:miter;stroke-opacity:1" d="M 647.794,274.827 647.794,290.303 z" id="boundary" inkscape:connector-curvature="0" />
	<path style="fill:none;stroke:red;stroke-width:1px;stroke-linecap:butt;stroke-linejoin:miter;stroke-opacity:1" d="M 647.794,274.827 647.794,259.351 z" id="boundary" inkscape:connector-curvature="0" />
	<path style="fill:none;stroke:red;stroke-width:1px;stroke-linecap:butt;stroke-linejoin:miter;stroke-opacity:1" d="M 717.435,550.296 647.794,290.303 z" id="boundary" inkscape:connector-curvature="0" />
	<path style="fill:none;stroke:red;stroke-width:1px;stroke-linecap:butt;stroke-linejoin:miter;stroke-opacity:1" d="M 562.677,392.443 578.153,392.443 z" id="boundary" inkscape:connector-curvature="0" />
	<path style="fill:none;stroke:red;stroke-width:1px;stroke-linecap:butt;stroke-linejoin:miter;stroke-opacity:1" d="M 562.677,392.443 547.201,392.443 z" id="boundary" inkscape:connector-curvature="0" />
	<path style="fill:none;stroke:red;stroke-width:1px;stroke-linecap:butt;stroke-linejoin:miter;stroke-opacity:1" d="M 578.153,392.443 590.534,381.61 z" id="boundary" inkscape:connector-curvature="0" />
	<path style="fill:none;stroke:red;stroke-width:1px;stroke-linecap:butt;stroke-linejoin:miter;stroke-opacity:1" d="M 590.534,381.61 606.009,373.872 z" id="boundary" inkscape:connector-curvature="0" />
	<path style="fill:none;stroke:red;stroke-width:1px;stroke-linecap:butt;stroke-linejoin:miter;stroke-opacity:1" d="M 562.677,623.033 553.392,610.652 z" id="boundary" inkscape:connector-curvature="0" />
	<path style="fill:none;stroke:red;stroke-width:1px;stroke-linecap:butt;stroke-linejoin:miter;stroke-opacity:1" d="M 635.413,623.033 638.509,604.462 z" id="boundary" inkscape:connector-curvature="0" />
	<path style="fill:none;stroke:red;stroke-width:1px;stroke-linecap:butt;stroke-linejoin:miter;stroke-opacity:1" d="M 638.509,604.462 655.532,609.105 z" id="boundary" inkscape:connector-curvature="0" />
	<path style="fill:none;stroke:red;stroke-width:1px;stroke-linecap:butt;stroke-linejoin:miter;stroke-opacity:1" d="M 658.627,576.605 650.889,592.081 z" id="boundary" inkscape:connector-curvature="0" />
	<path style="fill:none;stroke:red;stroke-width:1px;stroke-linecap:butt;stroke-linejoin:miter;stroke-opacity:1" d="M 650.889,592.081 638.509,604.462 z" id="boundary" inkscape:connector-curvature="0" />
	<path style="fill:none;stroke:red;stroke-width:1px;stroke-linecap:butt;stroke-linejoin:miter;stroke-opacity:1" d="M 635.413,623.033 623.033,635.413 z" id="boundary" inkscape:connector-curvature="0" />
	<path style="fill:none;stroke:red;stroke-width:1px;stroke-linecap:butt;stroke-linejoin:miter;stroke-opacity:1" d="M 678.746,548.749 691.126,537.916 z" id="boundary" inkscape:connector-curvature="0" />
	<path style="fill:none;stroke:red;stroke-width:1px;stroke-linecap:butt;stroke-linejoin:miter;stroke-opacity:1" d="M 706.602,537.916 717.435,550.296 z" id="boundary" inkscape:connector-curvature="0" />
	<path style="fill:none;stroke:red;stroke-width:1px;stroke-linecap:butt;stroke-linejoin:miter;stroke-opacity:1" d="M 717.435,550.296 701.959,554.939 z" id="boundary" inkscape:connector-curvature="0" />
	<path style="fill:none;stroke:red;stroke-width:1px;stroke-linecap:butt;stroke-linejoin:miter;stroke-opacity:1" d="M 691.126,537.916 706.602,537.916 z" id="boundary" inkscape:connector-curvature="0" />
	<path style="fill:none;stroke:red;stroke-width:1px;stroke-linecap:butt;stroke-linejoin:miter;stroke-opacity:1" d="M 691.126,567.32 701.959,554.939 z" id="boundary" inkscape:connector-curvature="0" />
	<path style="fill:none;stroke:red;stroke-width:1px;stroke-linecap:butt;stroke-linejoin:miter;stroke-opacity:1" d="M 650.889,592.081 666.365,592.081 z" id="boundary" inkscape:connector-curvature="0" />
	<path style="fill:none;stroke:red;stroke-width:1px;stroke-linecap:butt;stroke-linejoin:miter;stroke-opacity:1" d="M 666.365,561.129 658.627,576.605 z" id="boundary" inkscape:connector-curvature="0" />
	<path style="fill:none;stroke:red;stroke-width:1px;stroke-linecap:butt;stroke-linejoin:miter;stroke-opacity:1" d="M 666.365,592.081 678.746,578.153 z" id="boundary" inkscape:connector-curvature="0" />
	<path style="fill:none;stroke:red;stroke-width:1px;stroke-linecap:butt;stroke-linejoin:miter;stroke-opacity:1" d="M 691.126,567.32 678.746,578.153 z" id="boundary" inkscape:connector-curvature="0" />
	<path style="fill:none;stroke:red;stroke-width:1px;stroke-linecap:butt;stroke-linejoin:miter;stroke-opacity:1" d="M 655.532,624.58 655.532,609.105 z" id="boundary" inkscape:connector-curvature="0" />
	<path style="fill:none;stroke:red;stroke-width:1px;stroke-linecap:butt;stroke-linejoin:miter;stroke-opacity:1" d="M 666.365,561.129 678.746,548.749 z" id="boundary" inkscape:connector-curvature="0" />
	<path style="fill:none;stroke:red;stroke-width:1px;stroke-linecap:butt;stroke-linejoin:miter;stroke-opacity:1" d="M 562.677,623.033 551.844,644.699 z" id="boundary" inkscape:connector-curvature="0" />
	<path style="fill:none;stroke:red;stroke-width:1px;stroke-linecap:butt;stroke-linejoin:miter;stroke-opacity:1" d="M 384.705,706.602 384.705,722.078 z" id="boundary" inkscape:connector-curvature="0" />
	<path style="fill:none;stroke:red;stroke-width:1px;stroke-linecap:butt;stroke-linejoin:miter;stroke-opacity:1" d="M 397.086,732.911 384.705,722.078 z" id="boundary" inkscape:connector-curvature="0" />
	<path style="fill:none;stroke:red;stroke-width:1px;stroke-linecap:butt;stroke-linejoin:miter;stroke-opacity:1" d="M 397.086,732.911 407.919,745.292 z" id="boundary" inkscape:connector-curvature="0" />
	<path style="fill:none;stroke:red;stroke-width:1px;stroke-linecap:butt;stroke-linejoin:miter;stroke-opacity:1" d="M 407.919,745.292 407.919,760.768 z" id="boundary" inkscape:connector-curvature="0" />
	<path style="fill:none;stroke:red;stroke-width:1px;stroke-linecap:butt;stroke-linejoin:miter;stroke-opacity:1" d="M 415.657,774.696 407.919,760.768 z" id="boundary" inkscape:connector-curvature="0" />
	<path style="fill:none;stroke:red;stroke-width:1px;stroke-linecap:butt;stroke-linejoin:miter;stroke-opacity:1" d="M 415.657,774.696 421.847,790.172 z" id="boundary" inkscape:connector-curvature="0" />
	<path style="fill:none;stroke:red;stroke-width:1px;stroke-linecap:butt;stroke-linejoin:miter;stroke-opacity:1" d="M 421.847,790.172 437.323,793.267 z" id="boundary" inkscape:connector-curvature="0" />
	<path style="fill:none;stroke:red;stroke-width:1px;stroke-linecap:butt;stroke-linejoin:miter;stroke-opacity:1" d="M 446.608,841.242 431.133,841.242 z" id="boundary" inkscape:connector-curvature="0" />
	<path style="fill:none;stroke:red;stroke-width:1px;stroke-linecap:butt;stroke-linejoin:miter;stroke-opacity:1" d="M 431.133,841.242 415.657,841.242 z" id="boundary" inkscape:connector-curvature="0" />
	<path style="fill:none;stroke:red;stroke-width:1px;stroke-linecap:butt;stroke-linejoin:miter;stroke-opacity:1" d="M 452.799,793.267 437.323,793.267 z" id="boundary" inkscape:connector-curvature="0" />
	<path style="fill:none;stroke:red;stroke-width:1px;stroke-linecap:butt;stroke-linejoin:miter;stroke-opacity:1" d="M 412.562,861.36 415.657,841.242 z" id="boundary" inkscape:connector-curvature="0" />
	<path style="fill:none;stroke:red;stroke-width:1px;stroke-linecap:butt;stroke-linejoin:miter;stroke-opacity:1" d="M 454.346,644.699 445.061,632.318 z" id="boundary" inkscape:connector-curvature="0" />
	<path style="fill:none;stroke:red;stroke-width:1px;stroke-linecap:butt;stroke-linejoin:miter;stroke-opacity:1" d="M 469.822,647.794 454.346,644.699 z" id="boundary" inkscape:connector-curvature="0" />
	<path style="fill:none;stroke:red;stroke-width:1px;stroke-linecap:butt;stroke-linejoin:miter;stroke-opacity:1" d="M 469.822,647.794 483.75,655.532 z" id="boundary" inkscape:connector-curvature="0" />
	<path style="fill:none;stroke:red;stroke-width:1px;stroke-linecap:butt;stroke-linejoin:miter;stroke-opacity:1" d="M 483.75,655.532 493.036,667.913 z" id="boundary" inkscape:connector-curvature="0" />
	<path style="fill:none;stroke:red;stroke-width:1px;stroke-linecap:butt;stroke-linejoin:miter;stroke-opacity:1" d="M 508.512,663.27 493.036,667.913 z" id="boundary" inkscape:connector-curvature="0" />
	<path style="fill:none;stroke:red;stroke-width:1px;stroke-linecap:butt;stroke-linejoin:miter;stroke-opacity:1" d="M 462.084,841.242 446.608,841.242 z" id="boundary" inkscape:connector-curvature="0" />
	<path style="fill:none;stroke:red;stroke-width:1px;stroke-linecap:butt;stroke-linejoin:miter;stroke-opacity:1" d="M 452.799,793.267 468.275,793.267 z" id="boundary" inkscape:connector-curvature="0" />
	<path style="fill:none;stroke:red;stroke-width:1px;stroke-linecap:butt;stroke-linejoin:miter;stroke-opacity:1" d="M 477.56,841.242 462.084,841.242 z" id="boundary" inkscape:connector-curvature="0" />
	<path style="fill:none;stroke:red;stroke-width:1px;stroke-linecap:butt;stroke-linejoin:miter;stroke-opacity:1" d="M 483.75,793.267 468.275,793.267 z" id="boundary" inkscape:connector-curvature="0" />
	<path style="fill:none;stroke:red;stroke-width:1px;stroke-linecap:butt;stroke-linejoin:miter;stroke-opacity:1" d="M 499.226,793.267 483.75,793.267 z" id="boundary" inkscape:connector-curvature="0" />
	<path style="fill:none;stroke:red;stroke-width:1px;stroke-linecap:butt;stroke-linejoin:miter;stroke-opacity:1" d="M 508.512,833.504 493.036,841.242 z" id="boundary" inkscape:connector-curvature="0" />
	<path style="fill:none;stroke:red;stroke-width:1px;stroke-linecap:butt;stroke-linejoin:miter;stroke-opacity:1" d="M 514.702,793.267 499.226,793.267 z" id="boundary" inkscape:connector-curvature="0" />
	<path style="fill:none;stroke:red;stroke-width:1px;stroke-linecap:butt;stroke-linejoin:miter;stroke-opacity:1" d="M 407.919,940.287 392.443,940.287 z" id="boundary" inkscape:connector-curvature="0" />
	<path style="fill:none;stroke:red;stroke-width:1px;stroke-linecap:butt;stroke-linejoin:miter;stroke-opacity:1" d="M 392.443,887.669 404.824,876.836 z" id="boundary" inkscape:connector-curvature="0" />
	<path style="fill:none;stroke:red;stroke-width:1px;stroke-linecap:butt;stroke-linejoin:miter;stroke-opacity:1" d="M 454.346,940.287 438.871,940.287 z" id="boundary" inkscape:connector-curvature="0" />
	<path style="fill:none;stroke:red;stroke-width:1px;stroke-linecap:butt;stroke-linejoin:miter;stroke-opacity:1" d="M 423.395,940.287 407.919,940.287 z" id="boundary" inkscape:connector-curvature="0" />
	<path style="fill:none;stroke:red;stroke-width:1px;stroke-linecap:butt;stroke-linejoin:miter;stroke-opacity:1" d="M 412.562,861.36 404.824,876.836 z" id="boundary" inkscape:connector-curvature="0" />
	<path style="fill:none;stroke:red;stroke-width:1px;stroke-linecap:butt;stroke-linejoin:miter;stroke-opacity:1" d="M 398.633,980.524 414.109,980.524 z" id="boundary" inkscape:connector-curvature="0" />
	<path style="fill:none;stroke:red;stroke-width:1px;stroke-linecap:butt;stroke-linejoin:miter;stroke-opacity:1" d="M 423.395,940.287 438.871,940.287 z" id="boundary" inkscape:connector-curvature="0" />
	<path style="fill:none;stroke:red;stroke-width:1px;stroke-linecap:butt;stroke-linejoin:miter;stroke-opacity:1" d="M 445.061,980.524 429.585,975.881 z" id="boundary" inkscape:connector-curvature="0" />
	<path style="fill:none;stroke:red;stroke-width:1px;stroke-linecap:butt;stroke-linejoin:miter;stroke-opacity:1" d="M 429.585,975.881 414.109,980.524 z" id="boundary" inkscape:connector-curvature="0" />
	<path style="fill:none;stroke:red;stroke-width:1px;stroke-linecap:butt;stroke-linejoin:miter;stroke-opacity:1" d="M 398.633,980.524 383.158,980.524 z" id="boundary" inkscape:connector-curvature="0" />
	<path style="fill:none;stroke:red;stroke-width:1px;stroke-linecap:butt;stroke-linejoin:miter;stroke-opacity:1" d="M 454.346,940.287 469.822,940.287 z" id="boundary" inkscape:connector-curvature="0" />
	<path style="fill:none;stroke:red;stroke-width:1px;stroke-linecap:butt;stroke-linejoin:miter;stroke-opacity:1" d="M 477.56,841.242 493.036,841.242 z" id="boundary" inkscape:connector-curvature="0" />
	<path style="fill:none;stroke:red;stroke-width:1px;stroke-linecap:butt;stroke-linejoin:miter;stroke-opacity:1" d="M 500.774,940.287 485.298,940.287 z" id="boundary" inkscape:connector-curvature="0" />
	<path style="fill:none;stroke:red;stroke-width:1px;stroke-linecap:butt;stroke-linejoin:miter;stroke-opacity:1" d="M 485.298,940.287 469.822,940.287 z" id="boundary" inkscape:connector-curvature="0" />
	<path style="fill:none;stroke:red;stroke-width:1px;stroke-linecap:butt;stroke-linejoin:miter;stroke-opacity:1" d="M 445.061,980.524 460.537,980.524 z" id="boundary" inkscape:connector-curvature="0" />
	<path style="fill:none;stroke:red;stroke-width:1px;stroke-linecap:butt;stroke-linejoin:miter;stroke-opacity:1" d="M 460.537,980.524 474.465,988.262 z" id="boundary" inkscape:connector-curvature="0" />
	<path style="fill:none;stroke:red;stroke-width:1px;stroke-linecap:butt;stroke-linejoin:miter;stroke-opacity:1" d="M 505.417,988.262 489.941,988.262 z" id="boundary" inkscape:connector-curvature="0" />
	<path style="fill:none;stroke:red;stroke-width:1px;stroke-linecap:butt;stroke-linejoin:miter;stroke-opacity:1" d="M 489.941,988.262 474.465,988.262 z" id="boundary" inkscape:connector-curvature="0" />
	<path style="fill:none;stroke:red;stroke-width:1px;stroke-linecap:butt;stroke-linejoin:miter;stroke-opacity:1" d="M 516.25,940.287 500.774,940.287 z" id="boundary" inkscape:connector-curvature="0" />
	<path style="fill:none;stroke:red;stroke-width:1px;stroke-linecap:butt;stroke-linejoin:miter;stroke-opacity:1" d="M 505.417,988.262 519.345,996 z" id="boundary" inkscape:connector-curvature="0" />
	<path style="fill:none;stroke:red;stroke-width:1px;stroke-linecap:butt;stroke-linejoin:miter;stroke-opacity:1" d="M 508.512,663.27 520.892,652.437 z" id="boundary" inkscape:connector-curvature="0" />
	<path style="fill:none;stroke:red;stroke-width:1px;stroke-linecap:butt;stroke-linejoin:miter;stroke-opacity:1" d="M 520.892,652.437 536.368,647.794 z" id="boundary" inkscape:connector-curvature="0" />
	<path style="fill:none;stroke:red;stroke-width:1px;stroke-linecap:butt;stroke-linejoin:miter;stroke-opacity:1" d="M 536.368,647.794 551.844,644.699 z" id="boundary" inkscape:connector-curvature="0" />
	<path style="fill:none;stroke:red;stroke-width:1px;stroke-linecap:butt;stroke-linejoin:miter;stroke-opacity:1" d="M 623.033,666.365 619.938,684.936 z" id="boundary" inkscape:connector-curvature="0" />
	<path style="fill:none;stroke:red;stroke-width:1px;stroke-linecap:butt;stroke-linejoin:miter;stroke-opacity:1" d="M 619.938,684.936 612.2,700.412 z" id="boundary" inkscape:connector-curvature="0" />
	<path style="fill:none;stroke:red;stroke-width:1px;stroke-linecap:butt;stroke-linejoin:miter;stroke-opacity:1" d="M 568.867,751.482 584.343,743.744 z" id="boundary" inkscape:connector-curvature="0" />
	<path style="fill:none;stroke:red;stroke-width:1px;stroke-linecap:butt;stroke-linejoin:miter;stroke-opacity:1" d="M 596.724,731.363 599.819,712.793 z" id="boundary" inkscape:connector-curvature="0" />
	<path style="fill:none;stroke:red;stroke-width:1px;stroke-linecap:butt;stroke-linejoin:miter;stroke-opacity:1" d="M 596.724,731.363 584.343,743.744 z" id="boundary" inkscape:connector-curvature="0" />
	<path style="fill:none;stroke:red;stroke-width:1px;stroke-linecap:butt;stroke-linejoin:miter;stroke-opacity:1" d="M 612.2,700.412 599.819,712.793 z" id="boundary" inkscape:connector-curvature="0" />
	<path style="fill:none;stroke:red;stroke-width:1px;stroke-linecap:butt;stroke-linejoin:miter;stroke-opacity:1" d="M 568.867,751.482 558.034,770.053 z" id="boundary" inkscape:connector-curvature="0" />
	<path style="fill:none;stroke:red;stroke-width:1px;stroke-linecap:butt;stroke-linejoin:miter;stroke-opacity:1" d="M 623.033,650.889 623.033,635.413 z" id="boundary" inkscape:connector-curvature="0" />
	<path style="fill:none;stroke:red;stroke-width:1px;stroke-linecap:butt;stroke-linejoin:miter;stroke-opacity:1" d="M 655.532,640.056 655.532,624.58 z" id="boundary" inkscape:connector-curvature="0" />
	<path style="fill:none;stroke:red;stroke-width:1px;stroke-linecap:butt;stroke-linejoin:miter;stroke-opacity:1" d="M 655.532,655.532 655.532,640.056 z" id="boundary" inkscape:connector-curvature="0" />
	<path style="fill:none;stroke:red;stroke-width:1px;stroke-linecap:butt;stroke-linejoin:miter;stroke-opacity:1" d="M 623.033,666.365 623.033,650.889 z" id="boundary" inkscape:connector-curvature="0" />
	<path style="fill:none;stroke:red;stroke-width:1px;stroke-linecap:butt;stroke-linejoin:miter;stroke-opacity:1" d="M 647.794,725.173 640.056,748.387 z" id="boundary" inkscape:connector-curvature="0" />
	<path style="fill:none;stroke:red;stroke-width:1px;stroke-linecap:butt;stroke-linejoin:miter;stroke-opacity:1" d="M 655.532,701.959 647.794,725.173 z" id="boundary" inkscape:connector-curvature="0" />
	<path style="fill:none;stroke:red;stroke-width:1px;stroke-linecap:butt;stroke-linejoin:miter;stroke-opacity:1" d="M 655.532,671.008 655.532,686.484 z" id="boundary" inkscape:connector-curvature="0" />
	<path style="fill:none;stroke:red;stroke-width:1px;stroke-linecap:butt;stroke-linejoin:miter;stroke-opacity:1" d="M 655.532,701.959 655.532,686.484 z" id="boundary" inkscape:connector-curvature="0" />
	<path style="fill:none;stroke:red;stroke-width:1px;stroke-linecap:butt;stroke-linejoin:miter;stroke-opacity:1" d="M 655.532,655.532 655.532,671.008 z" id="boundary" inkscape:connector-curvature="0" />
	<path style="fill:none;stroke:red;stroke-width:1px;stroke-linecap:butt;stroke-linejoin:miter;stroke-opacity:1" d="M 640.056,748.387 632.318,771.601 z" id="boundary" inkscape:connector-curvature="0" />
	<path style="fill:none;stroke:red;stroke-width:1px;stroke-linecap:butt;stroke-linejoin:miter;stroke-opacity:1" d="M 523.988,833.504 508.512,833.504 z" id="boundary" inkscape:connector-curvature="0" />
	<path style="fill:none;stroke:red;stroke-width:1px;stroke-linecap:butt;stroke-linejoin:miter;stroke-opacity:1" d="M 553.392,825.766 537.916,825.766 z" id="boundary" inkscape:connector-curvature="0" />
	<path style="fill:none;stroke:red;stroke-width:1px;stroke-linecap:butt;stroke-linejoin:miter;stroke-opacity:1" d="M 558.034,770.053 545.654,782.434 z" id="boundary" inkscape:connector-curvature="0" />
	<path style="fill:none;stroke:red;stroke-width:1px;stroke-linecap:butt;stroke-linejoin:miter;stroke-opacity:1" d="M 545.654,782.434 530.178,790.172 z" id="boundary" inkscape:connector-curvature="0" />
	<path style="fill:none;stroke:red;stroke-width:1px;stroke-linecap:butt;stroke-linejoin:miter;stroke-opacity:1" d="M 523.988,833.504 537.916,825.766 z" id="boundary" inkscape:connector-curvature="0" />
	<path style="fill:none;stroke:red;stroke-width:1px;stroke-linecap:butt;stroke-linejoin:miter;stroke-opacity:1" d="M 514.702,793.267 530.178,790.172 z" id="boundary" inkscape:connector-curvature="0" />
	<path style="fill:none;stroke:red;stroke-width:1px;stroke-linecap:butt;stroke-linejoin:miter;stroke-opacity:1" d="M 547.201,960.406 547.201,980.524 z" id="boundary" inkscape:connector-curvature="0" />
	<path style="fill:none;stroke:red;stroke-width:1px;stroke-linecap:butt;stroke-linejoin:miter;stroke-opacity:1" d="M 547.201,980.524 534.821,994.452 z" id="boundary" inkscape:connector-curvature="0" />
	<path style="fill:none;stroke:red;stroke-width:1px;stroke-linecap:butt;stroke-linejoin:miter;stroke-opacity:1" d="M 534.821,994.452 519.345,996 z" id="boundary" inkscape:connector-curvature="0" />
	<path style="fill:none;stroke:red;stroke-width:1px;stroke-linecap:butt;stroke-linejoin:miter;stroke-opacity:1" d="M 516.25,940.287 531.725,940.287 z" id="boundary" inkscape:connector-curvature="0" />
	<path style="fill:none;stroke:red;stroke-width:1px;stroke-linecap:butt;stroke-linejoin:miter;stroke-opacity:1" d="M 596.724,810.29 584.343,821.123 z" id="boundary" inkscape:connector-curvature="0" />
	<path style="fill:none;stroke:red;stroke-width:1px;stroke-linecap:butt;stroke-linejoin:miter;stroke-opacity:1" d="M 619.938,794.814 612.2,808.743 z" id="boundary" inkscape:connector-curvature="0" />
	<path style="fill:none;stroke:red;stroke-width:1px;stroke-linecap:butt;stroke-linejoin:miter;stroke-opacity:1" d="M 612.2,808.743 596.724,810.29 z" id="boundary" inkscape:connector-curvature="0" />
	<path style="fill:none;stroke:red;stroke-width:1px;stroke-linecap:butt;stroke-linejoin:miter;stroke-opacity:1" d="M 619.938,794.814 632.318,771.601 z" id="boundary" inkscape:connector-curvature="0" />
	<path style="fill:none;stroke:red;stroke-width:1px;stroke-linecap:butt;stroke-linejoin:miter;stroke-opacity:1" d="M 547.201,944.93 547.201,960.406 z" id="boundary" inkscape:connector-curvature="0" />
	<path style="fill:none;stroke:red;stroke-width:1px;stroke-linecap:butt;stroke-linejoin:miter;stroke-opacity:1" d="M 531.725,940.287 547.201,944.93 z" id="boundary" inkscape:connector-curvature="0" />
	<path style="fill:none;stroke:red;stroke-width:1px;stroke-linecap:butt;stroke-linejoin:miter;stroke-opacity:1" d="M 568.867,825.766 553.392,825.766 z" id="boundary" inkscape:connector-curvature="0" />
	<path style="fill:none;stroke:red;stroke-width:1px;stroke-linecap:butt;stroke-linejoin:miter;stroke-opacity:1" d="M 584.343,821.123 568.867,825.766 z" id="boundary" inkscape:connector-curvature="0" />
	<circle cx="4" cy="983.619" r="4" fill="#0" id="circle0"/>
	<circle cx="11.7379" cy="968.144" r="4" fill="#0" id="circle1"/>
	<circle cx="16.3807" cy="994.452" r="4" fill="#0" id="circle2"/>
	<circle cx="24.1186" cy="955.763" r="4" fill="#0" id="circle3"/>
	<circle cx="31.8565" cy="994.452" r="4" fill="#0" id="circle4"/>
	<circle cx="34.9516" cy="581.248" r="4" fill="#0" id="circle5"/>
	<circle cx="34.9516" cy="596.724" r="4" fill="#0" id="circle6"/>
	<circle cx="39.5944" cy="948.025" r="4" fill="#0" id="circle7"/>
	<circle cx="42.6895" cy="542.559" r="4" fill="#0" id="circle8"/>
	<circle cx="42.6895" cy="558.034" r="4" fill="#0" id="circle9"/>
	<circle cx="47.3323" cy="988.262" r="4" fill="#0" id="circle10"/>
	<circle cx="50.4275" cy="519.345" r="4" fill="#0" id="circle11"/>
	<circle cx="50.4275" cy="593.629" r="4" fill="#0" id="circle12"/>
	<circle cx="53.5226" cy="940.287" r="4" fill="#0" id="circle13"/>
	<circle cx="61.2605" cy="980.524" r="4" fill="#0" id="circle14"/>
	<circle cx="62.8081" cy="506.964" r="4" fill="#0" id="circle15"/>
	<circle cx="65.9033" cy="488.393" r="4" fill="#0" id="circle16"/>
	<circle cx="65.9033" cy="593.629" r="4" fill="#0" id="circle17"/>
	<circle cx="68.9984" cy="940.287" r="4" fill="#0" id="circle18"/>
	<circle cx="76.7363" cy="980.524" r="4" fill="#0" id="circle19"/>
	<circle cx="78.2839" cy="476.012" r="4" fill="#0" id="circle20"/>
	<circle cx="81.3791" cy="593.629" r="4" fill="#0" id="circle21"/>
	<circle cx="84.4743" cy="940.287" r="4" fill="#0" id="circle22"/>
	<circle cx="90.6646" cy="463.632" r="4" fill="#0" id="circle23"/>
	<circle cx="92.2122" cy="980.524" r="4" fill="#0" id="circle24"/>
	<circle cx="96.8549" cy="441.966" r="4" fill="#0" id="circle25"/>
	<circle cx="96.8549" cy="593.629" r="4" fill="#0" id="circle26"/>
	<circle cx="99.9501" cy="940.287" r="4" fill="#0" id="circle27"/>
	<circle cx="107.688" cy="980.524" r="4" fill="#0" id="circle28"/>
	<circle cx="109.236" cy="429.585" r="4" fill="#0" id="circle29"/>
	<circle cx="109.236" cy="584.343" r="4" fill="#0" id="circle30"/>
	<circle cx="115.426" cy="940.287" r="4" fill="#0" id="circle31"/>
	<circle cx="120.069" cy="844.337" r="4" fill="#0" id="circle32"/>
	<circle cx="120.069" cy="859.813" r="4" fill="#0" id="circle33"/>
	<circle cx="120.069" cy="875.289" r="4" fill="#0" id="circle34"/>
	<circle cx="121.616" cy="417.204" r="4" fill="#0" id="circle35"/>
	<circle cx="123.164" cy="980.524" r="4" fill="#0" id="circle36"/>
	<circle cx="124.711" cy="584.343" r="4" fill="#0" id="circle37"/>
	<circle cx="127.807" cy="109.236" r="4" fill="#0" id="circle38"/>
	<circle cx="127.807" cy="124.711" r="4" fill="#0" id="circle39"/>
	<circle cx="127.807" cy="140.187" r="4" fill="#0" id="circle40"/>
	<circle cx="127.807" cy="155.663" r="4" fill="#0" id="circle41"/>
	<circle cx="127.807" cy="171.139" r="4" fill="#0" id="circle42"/>
	<circle cx="127.807" cy="186.615" r="4" fill="#0" id="circle43"/>
	<circle cx="127.807" cy="889.217" r="4" fill="#0" id="circle44"/>
	<circle cx="129.354" cy="401.729" r="4" fill="#0" id="circle45"/>
	<circle cx="130.902" cy="940.287" r="4" fill="#0" id="circle46"/>
	<circle cx="132.449" cy="831.956" r="4" fill="#0" id="circle47"/>
	<circle cx="135.544" cy="62.8081" r="4" fill="#0" id="circle48"/>
	<circle cx="135.544" cy="78.2839" r="4" fill="#0" id="circle49"/>
	<circle cx="135.544" cy="93.7598" r="4" fill="#0" id="circle50"/>
	<circle cx="135.544" cy="200.543" r="4" fill="#0" id="circle51"/>
	<circle cx="135.544" cy="797.91" r="4" fill="#0" id="circle52"/>
	<circle cx="135.544" cy="903.145" r="4" fill="#0" id="circle53"/>
	<circle cx="135.544" cy="918.621" r="4" fill="#0" id="circle54"/>
	<circle cx="137.092" cy="386.253" r="4" fill="#0" id="circle55"/>
	<circle cx="138.64" cy="980.524" r="4" fill="#0" id="circle56"/>
	<circle cx="140.187" cy="578.153" r="4" fill="#0" id="circle57"/>
	<circle cx="140.187" cy="816.48" r="4" fill="#0" id="circle58"/>
	<circle cx="143.282" cy="47.3323" r="4" fill="#0" id="circle59"/>
	<circle cx="146.378" cy="212.924" r="4" fill="#0" id="circle60"/>
	<circle cx="147.925" cy="785.529" r="4" fill="#0" id="circle61"/>
	<circle cx="149.473" cy="375.42" r="4" fill="#0" id="circle62"/>
	<circle cx="151.02" cy="349.111" r="4" fill="#0" id="circle63"/>
	<circle cx="151.02" cy="705.055" r="4" fill="#0" id="circle64"/>
	<circle cx="151.02" cy="720.53" r="4" fill="#0" id="circle65"/>
	<circle cx="151.02" cy="736.006" r="4" fill="#0" id="circle66"/>
	<circle cx="151.02" cy="751.482" r="4" fill="#0" id="circle67"/>
	<circle cx="151.02" cy="766.958" r="4" fill="#0" id="circle68"/>
	<circle cx="154.115" cy="980.524" r="4" fill="#0" id="circle69"/>
	<circle cx="155.663" cy="34.9516" r="4" fill="#0" id="circle70"/>
	<circle cx="155.663" cy="578.153" r="4" fill="#0" id="circle71"/>
	<circle cx="158.758" cy="222.209" r="4" fill="#0" id="circle72"/>
	<circle cx="158.758" cy="325.897" r="4" fill="#0" id="circle73"/>
	<circle cx="158.758" cy="363.039" r="4" fill="#0" id="circle74"/>
	<circle cx="163.401" cy="692.674" r="4" fill="#0" id="circle75"/>
	<circle cx="166.496" cy="302.683" r="4" fill="#0" id="circle76"/>
	<circle cx="166.496" cy="674.103" r="4" fill="#0" id="circle77"/>
	<circle cx="168.044" cy="234.59" r="4" fill="#0" id="circle78"/>
	<circle cx="169.591" cy="980.524" r="4" fill="#0" id="circle79"/>
	<circle cx="171.139" cy="34.9516" r="4" fill="#0" id="circle80"/>
	<circle cx="171.139" cy="578.153" r="4" fill="#0" id="circle81"/>
	<circle cx="178.877" cy="661.722" r="4" fill="#0" id="circle82"/>
	<circle cx="181.972" cy="242.328" r="4" fill="#0" id="circle83"/>
	<circle cx="181.972" cy="257.803" r="4" fill="#0" id="circle84"/>
	<circle cx="181.972" cy="287.207" r="4" fill="#0" id="circle85"/>
	<circle cx="185.067" cy="27.2137" r="4" fill="#0" id="circle86"/>
	<circle cx="185.067" cy="980.524" r="4" fill="#0" id="circle87"/>
	<circle cx="186.615" cy="578.153" r="4" fill="#0" id="circle88"/>
	<circle cx="189.71" cy="643.151" r="4" fill="#0" id="circle89"/>
	<circle cx="198.995" cy="19.4758" r="4" fill="#0" id="circle90"/>
	<circle cx="200.543" cy="980.524" r="4" fill="#0" id="circle91"/>
	<circle cx="202.09" cy="578.153" r="4" fill="#0" id="circle92"/>
	<circle cx="202.09" cy="630.771" r="4" fill="#0" id="circle93"/>
	<circle cx="205.186" cy="612.2" r="4" fill="#0" id="circle94"/>
	<circle cx="212.924" cy="11.7379" r="4" fill="#0" id="circle95"/>
	<circle cx="216.019" cy="980.524" r="4" fill="#0" id="circle96"/>
	<circle cx="217.566" cy="578.153" r="4" fill="#0" id="circle97"/>
	<circle cx="217.566" cy="599.819" r="4" fill="#0" id="circle98"/>
	<circle cx="222.209" cy="887.669" r="4" fill="#0" id="circle99"/>
	<circle cx="222.209" cy="903.145" r="4" fill="#0" id="circle100"/>
	<circle cx="225.304" cy="918.621" r="4" fill="#0" id="circle101"/>
	<circle cx="228.399" cy="8.64275" r="4" fill="#0" id="circle102"/>
	<circle cx="228.399" cy="968.144" r="4" fill="#0" id="circle103"/>
	<circle cx="233.042" cy="578.153" r="4" fill="#0" id="circle104"/>
	<circle cx="236.137" cy="879.931" r="4" fill="#0" id="circle105"/>
	<circle cx="236.137" cy="952.668" r="4" fill="#0" id="circle106"/>
	<circle cx="237.685" cy="929.454" r="4" fill="#0" id="circle107"/>
	<circle cx="243.875" cy="4" r="4" fill="#0" id="circle108"/>
	<circle cx="250.066" cy="872.193" r="4" fill="#0" id="circle109"/>
	<circle cx="259.351" cy="4" r="4" fill="#0" id="circle110"/>
	<circle cx="265.541" cy="869.098" r="4" fill="#0" id="circle111"/>
	<circle cx="273.279" cy="11.7379" r="4" fill="#0" id="circle112"/>
	<circle cx="281.017" cy="861.36" r="4" fill="#0" id="circle113"/>
	<circle cx="288.755" cy="11.7379" r="4" fill="#0" id="circle114"/>
	<circle cx="296.493" cy="856.718" r="4" fill="#0" id="circle115"/>
	<circle cx="298.041" cy="937.192" r="4" fill="#0" id="circle116"/>
	<circle cx="298.041" cy="952.668" r="4" fill="#0" id="circle117"/>
	<circle cx="302.683" cy="19.4758" r="4" fill="#0" id="circle118"/>
	<circle cx="310.421" cy="924.811" r="4" fill="#0" id="circle119"/>
	<circle cx="310.421" cy="963.501" r="4" fill="#0" id="circle120"/>
	<circle cx="311.969" cy="856.718" r="4" fill="#0" id="circle121"/>
	<circle cx="313.516" cy="906.24" r="4" fill="#0" id="circle122"/>
	<circle cx="315.064" cy="28.7613" r="4" fill="#0" id="circle123"/>
	<circle cx="321.254" cy="975.881" r="4" fill="#0" id="circle124"/>
	<circle cx="322.802" cy="42.6895" r="4" fill="#0" id="circle125"/>
	<circle cx="325.897" cy="893.86" r="4" fill="#0" id="circle126"/>
	<circle cx="327.445" cy="856.718" r="4" fill="#0" id="circle127"/>
	<circle cx="328.992" cy="872.193" r="4" fill="#0" id="circle128"/>
	<circle cx="336.73" cy="980.524" r="4" fill="#0" id="circle129"/>
	<circle cx="338.278" cy="39.5944" r="4" fill="#0" id="circle130"/>
	<circle cx="346.016" cy="53.5226" r="4" fill="#0" id="circle131"/>
	<circle cx="346.016" cy="547.201" r="4" fill="#0" id="circle132"/>
	<circle cx="346.016" cy="562.677" r="4" fill="#0" id="circle133"/>
	<circle cx="346.016" cy="578.153" r="4" fill="#0" id="circle134"/>
	<circle cx="346.016" cy="593.629" r="4" fill="#0" id="circle135"/>
	<circle cx="346.016" cy="609.105" r="4" fill="#0" id="circle136"/>
	<circle cx="352.206" cy="980.524" r="4" fill="#0" id="circle137"/>
	<circle cx="353.754" cy="485.298" r="4" fill="#0" id="circle138"/>
	<circle cx="355.301" cy="65.9033" r="4" fill="#0" id="circle139"/>
	<circle cx="358.396" cy="618.39" r="4" fill="#0" id="circle140"/>
	<circle cx="361.491" cy="82.9267" r="4" fill="#0" id="circle141"/>
	<circle cx="361.491" cy="547.201" r="4" fill="#0" id="circle142"/>
	<circle cx="366.134" cy="494.583" r="4" fill="#0" id="circle143"/>
	<circle cx="366.134" cy="632.318" r="4" fill="#0" id="circle144"/>
	<circle cx="367.682" cy="980.524" r="4" fill="#0" id="circle145"/>
	<circle cx="369.229" cy="96.8549" r="4" fill="#0" id="circle146"/>
	<circle cx="369.229" cy="112.331" r="4" fill="#0" id="circle147"/>
	<circle cx="369.229" cy="477.56" r="4" fill="#0" id="circle148"/>
	<circle cx="369.229" cy="647.794" r="4" fill="#0" id="circle149"/>
	<circle cx="369.229" cy="910.883" r="4" fill="#0" id="circle150"/>
	<circle cx="369.229" cy="926.359" r="4" fill="#0" id="circle151"/>
	<circle cx="375.42" cy="554.939" r="4" fill="#0" id="circle152"/>
	<circle cx="376.967" cy="661.722" r="4" fill="#0" id="circle153"/>
	<circle cx="376.967" cy="940.287" r="4" fill="#0" id="circle154"/>
	<circle cx="381.61" cy="121.616" r="4" fill="#0" id="circle155"/>
	<circle cx="381.61" cy="466.727" r="4" fill="#0" id="circle156"/>
	<circle cx="381.61" cy="500.774" r="4" fill="#0" id="circle157"/>
	<circle cx="381.61" cy="900.05" r="4" fill="#0" id="circle158"/>
	<circle cx="383.158" cy="980.524" r="4" fill="#0" id="circle159"/>
	<circle cx="384.705" cy="137.092" r="4" fill="#0" id="circle160"/>
	<circle cx="384.705" cy="152.568" r="4" fill="#0" id="circle161"/>
	<circle cx="384.705" cy="168.044" r="4" fill="#0" id="circle162"/>
	<circle cx="384.705" cy="183.52" r="4" fill="#0" id="circle163"/>
	<circle cx="384.705" cy="198.995" r="4" fill="#0" id="circle164"/>
	<circle cx="384.705" cy="675.651" r="4" fill="#0" id="circle165"/>
	<circle cx="384.705" cy="691.126" r="4" fill="#0" id="circle166"/>
	<circle cx="384.705" cy="706.602" r="4" fill="#0" id="circle167"/>
	<circle cx="384.705" cy="722.078" r="4" fill="#0" id="circle168"/>
	<circle cx="389.348" cy="562.677" r="4" fill="#0" id="circle169"/>
	<circle cx="392.443" cy="454.346" r="4" fill="#0" id="circle170"/>
	<circle cx="392.443" cy="513.154" r="4" fill="#0" id="circle171"/>
	<circle cx="392.443" cy="887.669" r="4" fill="#0" id="circle172"/>
	<circle cx="392.443" cy="940.287" r="4" fill="#0" id="circle173"/>
	<circle cx="397.086" cy="732.911" r="4" fill="#0" id="circle174"/>
	<circle cx="398.633" cy="980.524" r="4" fill="#0" id="circle175"/>
	<circle cx="400.181" cy="205.186" r="4" fill="#0" id="circle176"/>
	<circle cx="403.276" cy="570.415" r="4" fill="#0" id="circle177"/>
	<circle cx="404.824" cy="443.513" r="4" fill="#0" id="circle178"/>
	<circle cx="404.824" cy="876.836" r="4" fill="#0" id="circle179"/>
	<circle cx="407.919" cy="511.607" r="4" fill="#0" id="circle180"/>
	<circle cx="407.919" cy="745.292" r="4" fill="#0" id="circle181"/>
	<circle cx="407.919" cy="760.768" r="4" fill="#0" id="circle182"/>
	<circle cx="407.919" cy="940.287" r="4" fill="#0" id="circle183"/>
	<circle cx="412.562" cy="861.36" r="4" fill="#0" id="circle184"/>
	<circle cx="414.109" cy="186.615" r="4" fill="#0" id="circle185"/>
	<circle cx="414.109" cy="980.524" r="4" fill="#0" id="circle186"/>
	<circle cx="415.657" cy="431.133" r="4" fill="#0" id="circle187"/>
	<circle cx="415.657" cy="774.696" r="4" fill="#0" id="circle188"/>
	<circle cx="415.657" cy="841.242" r="4" fill="#0" id="circle189"/>
	<circle cx="417.204" cy="578.153" r="4" fill="#0" id="circle190"/>
	<circle cx="418.752" cy="523.988" r="4" fill="#0" id="circle191"/>
	<circle cx="421.847" cy="163.401" r="4" fill="#0" id="circle192"/>
	<circle cx="421.847" cy="790.172" r="4" fill="#0" id="circle193"/>
	<circle cx="423.395" cy="415.657" r="4" fill="#0" id="circle194"/>
	<circle cx="423.395" cy="940.287" r="4" fill="#0" id="circle195"/>
	<circle cx="424.942" cy="592.081" r="4" fill="#0" id="circle196"/>
	<circle cx="429.585" cy="607.557" r="4" fill="#0" id="circle197"/>
	<circle cx="429.585" cy="975.881" r="4" fill="#0" id="circle198"/>
	<circle cx="431.133" cy="534.821" r="4" fill="#0" id="circle199"/>
	<circle cx="431.133" cy="841.242" r="4" fill="#0" id="circle200"/>
	<circle cx="432.68" cy="623.033" r="4" fill="#0" id="circle201"/>
	<circle cx="437.323" cy="140.187" r="4" fill="#0" id="circle202"/>
	<circle cx="437.323" cy="155.663" r="4" fill="#0" id="circle203"/>
	<circle cx="437.323" cy="793.267" r="4" fill="#0" id="circle204"/>
	<circle cx="438.871" cy="392.443" r="4" fill="#0" id="circle205"/>
	<circle cx="438.871" cy="407.919" r="4" fill="#0" id="circle206"/>
	<circle cx="438.871" cy="940.287" r="4" fill="#0" id="circle207"/>
	<circle cx="441.966" cy="547.201" r="4" fill="#0" id="circle208"/>
	<circle cx="445.061" cy="632.318" r="4" fill="#0" id="circle209"/>
	<circle cx="445.061" cy="980.524" r="4" fill="#0" id="circle210"/>
	<circle cx="446.608" cy="841.242" r="4" fill="#0" id="circle211"/>
	<circle cx="452.799" cy="124.711" r="4" fill="#0" id="circle212"/>
	<circle cx="452.799" cy="793.267" r="4" fill="#0" id="circle213"/>
	<circle cx="454.346" cy="392.443" r="4" fill="#0" id="circle214"/>
	<circle cx="454.346" cy="558.034" r="4" fill="#0" id="circle215"/>
	<circle cx="454.346" cy="644.699" r="4" fill="#0" id="circle216"/>
	<circle cx="454.346" cy="940.287" r="4" fill="#0" id="circle217"/>
	<circle cx="460.537" cy="980.524" r="4" fill="#0" id="circle218"/>
	<circle cx="462.084" cy="841.242" r="4" fill="#0" id="circle219"/>
	<circle cx="465.179" cy="112.331" r="4" fill="#0" id="circle220"/>
	<circle cx="468.275" cy="793.267" r="4" fill="#0" id="circle221"/>
	<circle cx="469.822" cy="392.443" r="4" fill="#0" id="circle222"/>
	<circle cx="469.822" cy="558.034" r="4" fill="#0" id="circle223"/>
	<circle cx="469.822" cy="647.794" r="4" fill="#0" id="circle224"/>
	<circle cx="469.822" cy="940.287" r="4" fill="#0" id="circle225"/>
	<circle cx="474.465" cy="988.262" r="4" fill="#0" id="circle226"/>
	<circle cx="476.012" cy="573.51" r="4" fill="#0" id="circle227"/>
	<circle cx="477.56" cy="841.242" r="4" fill="#0" id="circle228"/>
	<circle cx="480.655" cy="104.593" r="4" fill="#0" id="circle229"/>
	<circle cx="483.75" cy="655.532" r="4" fill="#0" id="circle230"/>
	<circle cx="483.75" cy="793.267" r="4" fill="#0" id="circle231"/>
	<circle cx="485.298" cy="392.443" r="4" fill="#0" id="circle232"/>
	<circle cx="485.298" cy="585.891" r="4" fill="#0" id="circle233"/>
	<circle cx="485.298" cy="940.287" r="4" fill="#0" id="circle234"/>
	<circle cx="489.941" cy="988.262" r="4" fill="#0" id="circle235"/>
	<circle cx="493.036" cy="599.819" r="4" fill="#0" id="circle236"/>
	<circle cx="493.036" cy="667.913" r="4" fill="#0" id="circle237"/>
	<circle cx="493.036" cy="841.242" r="4" fill="#0" id="circle238"/>
	<circle cx="496.131" cy="96.8549" r="4" fill="#0" id="circle239"/>
	<circle cx="499.226" cy="793.267" r="4" fill="#0" id="circle240"/>
	<circle cx="500.774" cy="392.443" r="4" fill="#0" id="circle241"/>
	<circle cx="500.774" cy="940.287" r="4" fill="#0" id="circle242"/>
	<circle cx="505.417" cy="988.262" r="4" fill="#0" id="circle243"/>
	<circle cx="508.512" cy="599.819" r="4" fill="#0" id="circle244"/>
	<circle cx="508.512" cy="663.27" r="4" fill="#0" id="circle245"/>
	<circle cx="508.512" cy="833.504" r="4" fill="#0" id="circle246"/>
	<circle cx="511.607" cy="96.8549" r="4" fill="#0" id="circle247"/>
	<circle cx="514.702" cy="793.267" r="4" fill="#0" id="circle248"/>
	<circle cx="516.25" cy="392.443" r="4" fill="#0" id="circle249"/>
	<circle cx="516.25" cy="940.287" r="4" fill="#0" id="circle250"/>
	<circle cx="519.345" cy="996" r="4" fill="#0" id="circle251"/>
	<circle cx="520.892" cy="652.437" r="4" fill="#0" id="circle252"/>
	<circle cx="523.988" cy="599.819" r="4" fill="#0" id="circle253"/>
	<circle cx="523.988" cy="833.504" r="4" fill="#0" id="circle254"/>
	<circle cx="525.535" cy="89.117" r="4" fill="#0" id="circle255"/>
	<circle cx="530.178" cy="790.172" r="4" fill="#0" id="circle256"/>
	<circle cx="531.725" cy="392.443" r="4" fill="#0" id="circle257"/>
	<circle cx="531.725" cy="940.287" r="4" fill="#0" id="circle258"/>
	<circle cx="534.821" cy="994.452" r="4" fill="#0" id="circle259"/>
	<circle cx="536.368" cy="647.794" r="4" fill="#0" id="circle260"/>
	<circle cx="537.916" cy="607.557" r="4" fill="#0" id="circle261"/>
	<circle cx="537.916" cy="825.766" r="4" fill="#0" id="circle262"/>
	<circle cx="541.011" cy="89.117" r="4" fill="#0" id="circle263"/>
	<circle cx="545.654" cy="782.434" r="4" fill="#0" id="circle264"/>
	<circle cx="547.201" cy="392.443" r="4" fill="#0" id="circle265"/>
	<circle cx="547.201" cy="944.93" r="4" fill="#0" id="circle266"/>
	<circle cx="547.201" cy="960.406" r="4" fill="#0" id="circle267"/>
	<circle cx="547.201" cy="980.524" r="4" fill="#0" id="circle268"/>
	<circle cx="551.844" cy="644.699" r="4" fill="#0" id="circle269"/>
	<circle cx="553.392" cy="610.652" r="4" fill="#0" id="circle270"/>
	<circle cx="553.392" cy="825.766" r="4" fill="#0" id="circle271"/>
	<circle cx="556.487" cy="89.117" r="4" fill="#0" id="circle272"/>
	<circle cx="558.034" cy="770.053" r="4" fill="#0" id="circle273"/>
	<circle cx="562.677" cy="392.443" r="4" fill="#0" id="circle274"/>
	<circle cx="562.677" cy="623.033" r="4" fill="#0" id="circle275"/>
	<circle cx="568.867" cy="751.482" r="4" fill="#0" id="circle276"/>
	<circle cx="568.867" cy="825.766" r="4" fill="#0" id="circle277"/>
	<circle cx="570.415" cy="96.8549" r="4" fill="#0" id="circle278"/>
	<circle cx="578.153" cy="392.443" r="4" fill="#0" id="circle279"/>
	<circle cx="582.796" cy="106.14" r="4" fill="#0" id="circle280"/>
	<circle cx="584.343" cy="743.744" r="4" fill="#0" id="circle281"/>
	<circle cx="584.343" cy="821.123" r="4" fill="#0" id="circle282"/>
	<circle cx="585.891" cy="121.616" r="4" fill="#0" id="circle283"/>
	<circle cx="590.534" cy="381.61" r="4" fill="#0" id="circle284"/>
	<circle cx="593.629" cy="135.544" r="4" fill="#0" id="circle285"/>
	<circle cx="596.724" cy="731.363" r="4" fill="#0" id="circle286"/>
	<circle cx="596.724" cy="810.29" r="4" fill="#0" id="circle287"/>
	<circle cx="599.819" cy="712.793" r="4" fill="#0" id="circle288"/>
	<circle cx="606.009" cy="144.83" r="4" fill="#0" id="circle289"/>
	<circle cx="606.009" cy="373.872" r="4" fill="#0" id="circle290"/>
	<circle cx="609.105" cy="160.306" r="4" fill="#0" id="circle291"/>
	<circle cx="612.2" cy="700.412" r="4" fill="#0" id="circle292"/>
	<circle cx="612.2" cy="808.743" r="4" fill="#0" id="circle293"/>
	<circle cx="619.938" cy="684.936" r="4" fill="#0" id="circle294"/>
	<circle cx="619.938" cy="794.814" r="4" fill="#0" id="circle295"/>
	<circle cx="621.485" cy="169.591" r="4" fill="#0" id="circle296"/>
	<circle cx="621.485" cy="366.134" r="4" fill="#0" id="circle297"/>
	<circle cx="623.033" cy="635.413" r="4" fill="#0" id="circle298"/>
	<circle cx="623.033" cy="650.889" r="4" fill="#0" id="circle299"/>
	<circle cx="623.033" cy="666.365" r="4" fill="#0" id="circle300"/>
	<circle cx="624.58" cy="185.067" r="4" fill="#0" id="circle301"/>
	<circle cx="629.223" cy="350.658" r="4" fill="#0" id="circle302"/>
	<circle cx="632.318" cy="198.995" r="4" fill="#0" id="circle303"/>
	<circle cx="632.318" cy="771.601" r="4" fill="#0" id="circle304"/>
	<circle cx="635.413" cy="214.471" r="4" fill="#0" id="circle305"/>
	<circle cx="635.413" cy="623.033" r="4" fill="#0" id="circle306"/>
	<circle cx="636.961" cy="335.183" r="4" fill="#0" id="circle307"/>
	<circle cx="638.509" cy="604.462" r="4" fill="#0" id="circle308"/>
	<circle cx="640.056" cy="748.387" r="4" fill="#0" id="circle309"/>
	<circle cx="643.151" cy="228.399" r="4" fill="#0" id="circle310"/>
	<circle cx="644.699" cy="319.707" r="4" fill="#0" id="circle311"/>
	<circle cx="647.794" cy="243.875" r="4" fill="#0" id="circle312"/>
	<circle cx="647.794" cy="259.351" r="4" fill="#0" id="circle313"/>
	<circle cx="647.794" cy="274.827" r="4" fill="#0" id="circle314"/>
	<circle cx="647.794" cy="290.303" r="4" fill="#0" id="circle315"/>
	<circle cx="647.794" cy="725.173" r="4" fill="#0" id="circle316"/>
	<circle cx="650.889" cy="592.081" r="4" fill="#0" id="circle317"/>
	<circle cx="655.532" cy="609.105" r="4" fill="#0" id="circle318"/>
	<circle cx="655.532" cy="624.58" r="4" fill="#0" id="circle319"/>
	<circle cx="655.532" cy="640.056" r="4" fill="#0" id="circle320"/>
	<circle cx="655.532" cy="655.532" r="4" fill="#0" id="circle321"/>
	<circle cx="655.532" cy="671.008" r="4" fill="#0" id="circle322"/>
	<circle cx="655.532" cy="686.484" r="4" fill="#0" id="circle323"/>
	<circle cx="655.532" cy="701.959" r="4" fill="#0" id="circle324"/>
	<circle cx="658.627" cy="576.605" r="4" fill="#0" id="circle325"/>
	<circle cx="666.365" cy="561.129" r="4" fill="#0" id="circle326"/>
	<circle cx="666.365" cy="592.081" r="4" fill="#0" id="circle327"/>
	<circle cx="678.746" cy="548.749" r="4" fill="#0" id="circle328"/>
	<circle cx="678.746" cy="578.153" r="4" fill="#0" id="circle329"/>
	<circle cx="691.126" cy="537.916" r="4" fill="#0" id="circle330"/>
	<circle cx="691.126" cy="567.32" r="4" fill="#0" id="circle331"/>
	<circle cx="701.959" cy="554.939" r="4" fill="#0" id="circle332"/>
	<circle cx="706.602" cy="537.916" r="4" fill="#0" id="circle333"/>
	<circle cx="717.435" cy="550.296" r="4" fill="#0" id="circle334"/>
	</g>
</svg>