<?xml version="1.0" encoding="UTF-8" standalone="no"?>
<!-- Created with CurveBenchmark -->
<svg
	xmlns:dc="http://purl.org/dc/elements/1.1/"
	xmlns:cc="http://creativecommons.org/ns#"
	xmlns:rdf="http://www.w3.org/1999/02/22-rdf-syntax-ns#"
	xmlns:svg="http://www.w3.org/2000/svg"
	xmlns="http://www.w3.org/2000/svg"
	xmlns:sodipodi="http://sodipodi.sourceforge.net/DTD/sodipodi-0.dtd"
	xmlns:inkscape="http://www.inkscape.org/namespaces/inkscape"
	width="1000"
	height="1000"
	id="svg2"
	version="1.1"
	sodipodi:docname="manifold/nncrust-textbox52.png.txt">
<defs
	id="defs4" />
<metadata
	id="metadata7">
	<rdf:RDF>
		<cc:Work
			rdf:about="">
			<dc:format>image/svg+xml</dc:format>
			<dc:type
				rdf:resource="http://purl.org/dc/dcmitype/StillImage" />
			<dc:title></dc:title>
		</cc:Work>
	</rdf:RDF>
</metadata>
<g
	inkscape:label="Layer 1"
	inkscape:groupmode="layer"
	id="layer1">
	<path style="fill:none;stroke:red;stroke-width:1px;stroke-linecap:butt;stroke-linejoin:miter;stroke-opacity:1" d="M 98.2966,273.688 98.2966,254.829 z" id="boundary" inkscape:connector-curvature="0" />
	<path style="fill:none;stroke:red;stroke-width:1px;stroke-linecap:butt;stroke-linejoin:miter;stroke-opacity:1" d="M 98.2966,254.829 117.156,245.399 z" id="boundary" inkscape:connector-curvature="0" />
	<path style="fill:none;stroke:red;stroke-width:1px;stroke-linecap:butt;stroke-linejoin:miter;stroke-opacity:1" d="M 75.6654,305.749 56.8061,305.749 z" id="boundary" inkscape:connector-curvature="0" />
	<path style="fill:none;stroke:red;stroke-width:1px;stroke-linecap:butt;stroke-linejoin:miter;stroke-opacity:1" d="M 94.5247,296.319 98.2966,273.688 z" id="boundary" inkscape:connector-curvature="0" />
	<path style="fill:none;stroke:red;stroke-width:1px;stroke-linecap:butt;stroke-linejoin:miter;stroke-opacity:1" d="M 94.5247,296.319 75.6654,305.749 z" id="boundary" inkscape:connector-curvature="0" />
	<path style="fill:none;stroke:red;stroke-width:1px;stroke-linecap:butt;stroke-linejoin:miter;stroke-opacity:1" d="M 117.156,207.681 117.156,226.54 z" id="boundary" inkscape:connector-curvature="0" />
	<path style="fill:none;stroke:red;stroke-width:1px;stroke-linecap:butt;stroke-linejoin:miter;stroke-opacity:1" d="M 126.586,179.392 117.156,207.681 z" id="boundary" inkscape:connector-curvature="0" />
	<path style="fill:none;stroke:red;stroke-width:1px;stroke-linecap:butt;stroke-linejoin:miter;stroke-opacity:1" d="M 136.015,151.103 154.875,141.673 z" id="boundary" inkscape:connector-curvature="0" />
	<path style="fill:none;stroke:red;stroke-width:1px;stroke-linecap:butt;stroke-linejoin:miter;stroke-opacity:1" d="M 126.586,179.392 136.015,151.103 z" id="boundary" inkscape:connector-curvature="0" />
	<path style="fill:none;stroke:red;stroke-width:1px;stroke-linecap:butt;stroke-linejoin:miter;stroke-opacity:1" d="M 164.304,122.814 154.875,141.673 z" id="boundary" inkscape:connector-curvature="0" />
	<path style="fill:none;stroke:red;stroke-width:1px;stroke-linecap:butt;stroke-linejoin:miter;stroke-opacity:1" d="M 117.156,245.399 117.156,226.54 z" id="boundary" inkscape:connector-curvature="0" />
	<path style="fill:none;stroke:red;stroke-width:1px;stroke-linecap:butt;stroke-linejoin:miter;stroke-opacity:1" d="M 4,415.133 4,396.274 z" id="boundary" inkscape:connector-curvature="0" />
	<path style="fill:none;stroke:red;stroke-width:1px;stroke-linecap:butt;stroke-linejoin:miter;stroke-opacity:1" d="M 13.4297,450.966 4,433.992 z" id="boundary" inkscape:connector-curvature="0" />
	<path style="fill:none;stroke:red;stroke-width:1px;stroke-linecap:butt;stroke-linejoin:miter;stroke-opacity:1" d="M 4,433.992 4,415.133 z" id="boundary" inkscape:connector-curvature="0" />
	<path style="fill:none;stroke:red;stroke-width:1px;stroke-linecap:butt;stroke-linejoin:miter;stroke-opacity:1" d="M 13.4297,450.966 13.4297,469.825 z" id="boundary" inkscape:connector-curvature="0" />
	<path style="fill:none;stroke:red;stroke-width:1px;stroke-linecap:butt;stroke-linejoin:miter;stroke-opacity:1" d="M 4,396.274 13.4297,367.985 z" id="boundary" inkscape:connector-curvature="0" />
	<path style="fill:none;stroke:red;stroke-width:1px;stroke-linecap:butt;stroke-linejoin:miter;stroke-opacity:1" d="M 13.4297,367.985 32.289,358.555 z" id="boundary" inkscape:connector-curvature="0" />
	<path style="fill:none;stroke:red;stroke-width:1px;stroke-linecap:butt;stroke-linejoin:miter;stroke-opacity:1" d="M 47.3764,324.608 56.8061,305.749 z" id="boundary" inkscape:connector-curvature="0" />
	<path style="fill:none;stroke:red;stroke-width:1px;stroke-linecap:butt;stroke-linejoin:miter;stroke-opacity:1" d="M 32.289,339.696 32.289,358.555 z" id="boundary" inkscape:connector-curvature="0" />
	<path style="fill:none;stroke:red;stroke-width:1px;stroke-linecap:butt;stroke-linejoin:miter;stroke-opacity:1" d="M 32.289,339.696 47.3764,324.608 z" id="boundary" inkscape:connector-curvature="0" />
	<path style="fill:none;stroke:red;stroke-width:1px;stroke-linecap:butt;stroke-linejoin:miter;stroke-opacity:1" d="M 32.289,477.369 13.4297,469.825 z" id="boundary" inkscape:connector-curvature="0" />
	<path style="fill:none;stroke:red;stroke-width:1px;stroke-linecap:butt;stroke-linejoin:miter;stroke-opacity:1" d="M 432.106,41.7186 415.133,51.1483 z" id="boundary" inkscape:connector-curvature="0" />
	<path style="fill:none;stroke:red;stroke-width:1px;stroke-linecap:butt;stroke-linejoin:miter;stroke-opacity:1" d="M 415.133,51.1483 396.274,51.1483 z" id="boundary" inkscape:connector-curvature="0" />
	<path style="fill:none;stroke:red;stroke-width:1px;stroke-linecap:butt;stroke-linejoin:miter;stroke-opacity:1" d="M 377.414,60.5779 396.274,51.1483 z" id="boundary" inkscape:connector-curvature="0" />
	<path style="fill:none;stroke:red;stroke-width:1px;stroke-linecap:butt;stroke-linejoin:miter;stroke-opacity:1" d="M 367.985,79.4373 377.414,60.5779 z" id="boundary" inkscape:connector-curvature="0" />
	<path style="fill:none;stroke:red;stroke-width:1px;stroke-linecap:butt;stroke-linejoin:miter;stroke-opacity:1" d="M 367.985,79.4373 349.125,88.8669 z" id="boundary" inkscape:connector-curvature="0" />
	<path style="fill:none;stroke:red;stroke-width:1px;stroke-linecap:butt;stroke-linejoin:miter;stroke-opacity:1" d="M 432.106,41.7186 450.966,41.7186 z" id="boundary" inkscape:connector-curvature="0" />
	<path style="fill:none;stroke:red;stroke-width:1px;stroke-linecap:butt;stroke-linejoin:miter;stroke-opacity:1" d="M 450.966,41.7186 467.939,51.1483 z" id="boundary" inkscape:connector-curvature="0" />
	<path style="fill:none;stroke:red;stroke-width:1px;stroke-linecap:butt;stroke-linejoin:miter;stroke-opacity:1" d="M 486.798,51.1483 467.939,51.1483 z" id="boundary" inkscape:connector-curvature="0" />
	<path style="fill:none;stroke:red;stroke-width:1px;stroke-linecap:butt;stroke-linejoin:miter;stroke-opacity:1" d="M 503.772,60.5779 515.087,75.6654 z" id="boundary" inkscape:connector-curvature="0" />
	<path style="fill:none;stroke:red;stroke-width:1px;stroke-linecap:butt;stroke-linejoin:miter;stroke-opacity:1" d="M 503.772,60.5779 486.798,51.1483 z" id="boundary" inkscape:connector-curvature="0" />
	<path style="fill:none;stroke:red;stroke-width:1px;stroke-linecap:butt;stroke-linejoin:miter;stroke-opacity:1" d="M 532.061,66.2357 515.087,75.6654 z" id="boundary" inkscape:connector-curvature="0" />
	<path style="fill:none;stroke:red;stroke-width:1px;stroke-linecap:butt;stroke-linejoin:miter;stroke-opacity:1" d="M 202.023,103.954 220.882,94.5247 z" id="boundary" inkscape:connector-curvature="0" />
	<path style="fill:none;stroke:red;stroke-width:1px;stroke-linecap:butt;stroke-linejoin:miter;stroke-opacity:1" d="M 202.023,103.954 183.163,117.156 z" id="boundary" inkscape:connector-curvature="0" />
	<path style="fill:none;stroke:red;stroke-width:1px;stroke-linecap:butt;stroke-linejoin:miter;stroke-opacity:1" d="M 183.163,117.156 164.304,122.814 z" id="boundary" inkscape:connector-curvature="0" />
	<path style="fill:none;stroke:red;stroke-width:1px;stroke-linecap:butt;stroke-linejoin:miter;stroke-opacity:1" d="M 220.882,94.5247 239.741,88.8669 z" id="boundary" inkscape:connector-curvature="0" />
	<path style="fill:none;stroke:red;stroke-width:1px;stroke-linecap:butt;stroke-linejoin:miter;stroke-opacity:1" d="M 239.741,88.8669 258.601,88.8669 z" id="boundary" inkscape:connector-curvature="0" />
	<path style="fill:none;stroke:red;stroke-width:1px;stroke-linecap:butt;stroke-linejoin:miter;stroke-opacity:1" d="M 258.601,88.8669 277.46,88.8669 z" id="boundary" inkscape:connector-curvature="0" />
	<path style="fill:none;stroke:red;stroke-width:1px;stroke-linecap:butt;stroke-linejoin:miter;stroke-opacity:1" d="M 277.46,88.8669 294.433,98.2966 z" id="boundary" inkscape:connector-curvature="0" />
	<path style="fill:none;stroke:red;stroke-width:1px;stroke-linecap:butt;stroke-linejoin:miter;stroke-opacity:1" d="M 294.433,98.2966 313.293,98.2966 z" id="boundary" inkscape:connector-curvature="0" />
	<path style="fill:none;stroke:red;stroke-width:1px;stroke-linecap:butt;stroke-linejoin:miter;stroke-opacity:1" d="M 332.152,98.2966 313.293,98.2966 z" id="boundary" inkscape:connector-curvature="0" />
	<path style="fill:none;stroke:red;stroke-width:1px;stroke-linecap:butt;stroke-linejoin:miter;stroke-opacity:1" d="M 349.125,88.8669 332.152,98.2966 z" id="boundary" inkscape:connector-curvature="0" />
	<path style="fill:none;stroke:red;stroke-width:1px;stroke-linecap:butt;stroke-linejoin:miter;stroke-opacity:1" d="M 41.7186,494.342 32.289,477.369 z" id="boundary" inkscape:connector-curvature="0" />
	<path style="fill:none;stroke:red;stroke-width:1px;stroke-linecap:butt;stroke-linejoin:miter;stroke-opacity:1" d="M 32.289,594.297 32.289,575.437 z" id="boundary" inkscape:connector-curvature="0" />
	<path style="fill:none;stroke:red;stroke-width:1px;stroke-linecap:butt;stroke-linejoin:miter;stroke-opacity:1" d="M 41.7186,611.27 32.289,594.297 z" id="boundary" inkscape:connector-curvature="0" />
	<path style="fill:none;stroke:red;stroke-width:1px;stroke-linecap:butt;stroke-linejoin:miter;stroke-opacity:1" d="M 41.7186,547.148 32.289,575.437 z" id="boundary" inkscape:connector-curvature="0" />
	<path style="fill:none;stroke:red;stroke-width:1px;stroke-linecap:butt;stroke-linejoin:miter;stroke-opacity:1" d="M 41.7186,528.289 41.7186,547.148 z" id="boundary" inkscape:connector-curvature="0" />
	<path style="fill:none;stroke:red;stroke-width:1px;stroke-linecap:butt;stroke-linejoin:miter;stroke-opacity:1" d="M 41.7186,494.342 51.1483,511.316 z" id="boundary" inkscape:connector-curvature="0" />
	<path style="fill:none;stroke:red;stroke-width:1px;stroke-linecap:butt;stroke-linejoin:miter;stroke-opacity:1" d="M 51.1483,511.316 41.7186,528.289 z" id="boundary" inkscape:connector-curvature="0" />
	<path style="fill:none;stroke:red;stroke-width:1px;stroke-linecap:butt;stroke-linejoin:miter;stroke-opacity:1" d="M 41.7186,611.27 41.7186,630.129 z" id="boundary" inkscape:connector-curvature="0" />
	<path style="fill:none;stroke:red;stroke-width:1px;stroke-linecap:butt;stroke-linejoin:miter;stroke-opacity:1" d="M 41.7186,648.989 41.7186,630.129 z" id="boundary" inkscape:connector-curvature="0" />
	<path style="fill:none;stroke:red;stroke-width:1px;stroke-linecap:butt;stroke-linejoin:miter;stroke-opacity:1" d="M 41.7186,648.989 41.7186,667.848 z" id="boundary" inkscape:connector-curvature="0" />
	<path style="fill:none;stroke:red;stroke-width:1px;stroke-linecap:butt;stroke-linejoin:miter;stroke-opacity:1" d="M 41.7186,667.848 41.7186,686.707 z" id="boundary" inkscape:connector-curvature="0" />
	<path style="fill:none;stroke:red;stroke-width:1px;stroke-linecap:butt;stroke-linejoin:miter;stroke-opacity:1" d="M 51.1483,703.681 68.1217,713.11 z" id="boundary" inkscape:connector-curvature="0" />
	<path style="fill:none;stroke:red;stroke-width:1px;stroke-linecap:butt;stroke-linejoin:miter;stroke-opacity:1" d="M 51.1483,703.681 41.7186,686.707 z" id="boundary" inkscape:connector-curvature="0" />
	<path style="fill:none;stroke:red;stroke-width:1px;stroke-linecap:butt;stroke-linejoin:miter;stroke-opacity:1" d="M 85.0951,722.54 68.1217,713.11 z" id="boundary" inkscape:connector-curvature="0" />
	<path style="fill:none;stroke:red;stroke-width:1px;stroke-linecap:butt;stroke-linejoin:miter;stroke-opacity:1" d="M 102.068,731.97 120.928,731.97 z" id="boundary" inkscape:connector-curvature="0" />
	<path style="fill:none;stroke:red;stroke-width:1px;stroke-linecap:butt;stroke-linejoin:miter;stroke-opacity:1" d="M 102.068,731.97 85.0951,722.54 z" id="boundary" inkscape:connector-curvature="0" />
	<path style="fill:none;stroke:red;stroke-width:1px;stroke-linecap:butt;stroke-linejoin:miter;stroke-opacity:1" d="M 120.928,731.97 139.787,731.97 z" id="boundary" inkscape:connector-curvature="0" />
	<path style="fill:none;stroke:red;stroke-width:1px;stroke-linecap:butt;stroke-linejoin:miter;stroke-opacity:1" d="M 183.163,760.259 168.076,748.943 z" id="boundary" inkscape:connector-curvature="0" />
	<path style="fill:none;stroke:red;stroke-width:1px;stroke-linecap:butt;stroke-linejoin:miter;stroke-opacity:1" d="M 168.076,748.943 158.646,731.97 z" id="boundary" inkscape:connector-curvature="0" />
	<path style="fill:none;stroke:red;stroke-width:1px;stroke-linecap:butt;stroke-linejoin:miter;stroke-opacity:1" d="M 139.787,731.97 158.646,731.97 z" id="boundary" inkscape:connector-curvature="0" />
	<path style="fill:none;stroke:red;stroke-width:1px;stroke-linecap:butt;stroke-linejoin:miter;stroke-opacity:1" d="M 183.163,760.259 188.821,779.118 z" id="boundary" inkscape:connector-curvature="0" />
	<path style="fill:none;stroke:red;stroke-width:1px;stroke-linecap:butt;stroke-linejoin:miter;stroke-opacity:1" d="M 188.821,779.118 203.909,792.319 z" id="boundary" inkscape:connector-curvature="0" />
	<path style="fill:none;stroke:red;stroke-width:1px;stroke-linecap:butt;stroke-linejoin:miter;stroke-opacity:1" d="M 258.601,807.407 239.741,807.407 z" id="boundary" inkscape:connector-curvature="0" />
	<path style="fill:none;stroke:red;stroke-width:1px;stroke-linecap:butt;stroke-linejoin:miter;stroke-opacity:1" d="M 239.741,807.407 220.882,801.749 z" id="boundary" inkscape:connector-curvature="0" />
	<path style="fill:none;stroke:red;stroke-width:1px;stroke-linecap:butt;stroke-linejoin:miter;stroke-opacity:1" d="M 220.882,801.749 203.909,792.319 z" id="boundary" inkscape:connector-curvature="0" />
	<path style="fill:none;stroke:red;stroke-width:1px;stroke-linecap:butt;stroke-linejoin:miter;stroke-opacity:1" d="M 366.099,797.977 384.958,797.977 z" id="boundary" inkscape:connector-curvature="0" />
	<path style="fill:none;stroke:red;stroke-width:1px;stroke-linecap:butt;stroke-linejoin:miter;stroke-opacity:1" d="M 349.125,807.407 366.099,797.977 z" id="boundary" inkscape:connector-curvature="0" />
	<path style="fill:none;stroke:red;stroke-width:1px;stroke-linecap:butt;stroke-linejoin:miter;stroke-opacity:1" d="M 330.266,807.407 313.293,816.837 z" id="boundary" inkscape:connector-curvature="0" />
	<path style="fill:none;stroke:red;stroke-width:1px;stroke-linecap:butt;stroke-linejoin:miter;stroke-opacity:1" d="M 349.125,807.407 330.266,807.407 z" id="boundary" inkscape:connector-curvature="0" />
	<path style="fill:none;stroke:red;stroke-width:1px;stroke-linecap:butt;stroke-linejoin:miter;stroke-opacity:1" d="M 384.958,797.977 401.932,807.407 z" id="boundary" inkscape:connector-curvature="0" />
	<path style="fill:none;stroke:red;stroke-width:1px;stroke-linecap:butt;stroke-linejoin:miter;stroke-opacity:1" d="M 277.46,807.407 258.601,807.407 z" id="boundary" inkscape:connector-curvature="0" />
	<path style="fill:none;stroke:red;stroke-width:1px;stroke-linecap:butt;stroke-linejoin:miter;stroke-opacity:1" d="M 277.46,807.407 294.433,816.837 z" id="boundary" inkscape:connector-curvature="0" />
	<path style="fill:none;stroke:red;stroke-width:1px;stroke-linecap:butt;stroke-linejoin:miter;stroke-opacity:1" d="M 313.293,816.837 294.433,816.837 z" id="boundary" inkscape:connector-curvature="0" />
	<path style="fill:none;stroke:red;stroke-width:1px;stroke-linecap:butt;stroke-linejoin:miter;stroke-opacity:1" d="M 401.932,807.407 418.905,816.837 z" id="boundary" inkscape:connector-curvature="0" />
	<path style="fill:none;stroke:red;stroke-width:1px;stroke-linecap:butt;stroke-linejoin:miter;stroke-opacity:1" d="M 418.905,816.837 424.563,835.696 z" id="boundary" inkscape:connector-curvature="0" />
	<path style="fill:none;stroke:red;stroke-width:1px;stroke-linecap:butt;stroke-linejoin:miter;stroke-opacity:1" d="M 441.536,845.125 424.563,835.696 z" id="boundary" inkscape:connector-curvature="0" />
	<path style="fill:none;stroke:red;stroke-width:1px;stroke-linecap:butt;stroke-linejoin:miter;stroke-opacity:1" d="M 441.536,845.125 458.51,854.555 z" id="boundary" inkscape:connector-curvature="0" />
	<path style="fill:none;stroke:red;stroke-width:1px;stroke-linecap:butt;stroke-linejoin:miter;stroke-opacity:1" d="M 458.51,854.555 466.053,873.414 z" id="boundary" inkscape:connector-curvature="0" />
	<path style="fill:none;stroke:red;stroke-width:1px;stroke-linecap:butt;stroke-linejoin:miter;stroke-opacity:1" d="M 483.027,882.844 466.053,873.414 z" id="boundary" inkscape:connector-curvature="0" />
	<path style="fill:none;stroke:red;stroke-width:1px;stroke-linecap:butt;stroke-linejoin:miter;stroke-opacity:1" d="M 501.886,882.844 483.027,882.844 z" id="boundary" inkscape:connector-curvature="0" />
	<path style="fill:none;stroke:red;stroke-width:1px;stroke-linecap:butt;stroke-linejoin:miter;stroke-opacity:1" d="M 520.745,882.844 501.886,882.844 z" id="boundary" inkscape:connector-curvature="0" />
	<path style="fill:none;stroke:red;stroke-width:1px;stroke-linecap:butt;stroke-linejoin:miter;stroke-opacity:1" d="M 586.753,4 605.612,4 z" id="boundary" inkscape:connector-curvature="0" />
	<path style="fill:none;stroke:red;stroke-width:1px;stroke-linecap:butt;stroke-linejoin:miter;stroke-opacity:1" d="M 569.779,13.4297 586.753,4 z" id="boundary" inkscape:connector-curvature="0" />
	<path style="fill:none;stroke:red;stroke-width:1px;stroke-linecap:butt;stroke-linejoin:miter;stroke-opacity:1" d="M 605.612,4 624.471,4 z" id="boundary" inkscape:connector-curvature="0" />
	<path style="fill:none;stroke:red;stroke-width:1px;stroke-linecap:butt;stroke-linejoin:miter;stroke-opacity:1" d="M 624.471,4 641.445,13.4297 z" id="boundary" inkscape:connector-curvature="0" />
	<path style="fill:none;stroke:red;stroke-width:1px;stroke-linecap:butt;stroke-linejoin:miter;stroke-opacity:1" d="M 660.304,13.4297 641.445,13.4297 z" id="boundary" inkscape:connector-curvature="0" />
	<path style="fill:none;stroke:red;stroke-width:1px;stroke-linecap:butt;stroke-linejoin:miter;stroke-opacity:1" d="M 569.779,13.4297 550.92,19.0875 z" id="boundary" inkscape:connector-curvature="0" />
	<path style="fill:none;stroke:red;stroke-width:1px;stroke-linecap:butt;stroke-linejoin:miter;stroke-opacity:1" d="M 756.487,4 775.346,4 z" id="boundary" inkscape:connector-curvature="0" />
	<path style="fill:none;stroke:red;stroke-width:1px;stroke-linecap:butt;stroke-linejoin:miter;stroke-opacity:1" d="M 775.346,4 792.319,13.4297 z" id="boundary" inkscape:connector-curvature="0" />
	<path style="fill:none;stroke:red;stroke-width:1px;stroke-linecap:butt;stroke-linejoin:miter;stroke-opacity:1" d="M 756.487,4 739.513,13.4297 z" id="boundary" inkscape:connector-curvature="0" />
	<path style="fill:none;stroke:red;stroke-width:1px;stroke-linecap:butt;stroke-linejoin:miter;stroke-opacity:1" d="M 739.513,13.4297 720.654,19.0875 z" id="boundary" inkscape:connector-curvature="0" />
	<path style="fill:none;stroke:red;stroke-width:1px;stroke-linecap:butt;stroke-linejoin:miter;stroke-opacity:1" d="M 811.179,13.4297 792.319,13.4297 z" id="boundary" inkscape:connector-curvature="0" />
	<path style="fill:none;stroke:red;stroke-width:1px;stroke-linecap:butt;stroke-linejoin:miter;stroke-opacity:1" d="M 660.304,13.4297 675.392,24.7452 z" id="boundary" inkscape:connector-curvature="0" />
	<path style="fill:none;stroke:red;stroke-width:1px;stroke-linecap:butt;stroke-linejoin:miter;stroke-opacity:1" d="M 675.392,24.7452 675.392,43.6046 z" id="boundary" inkscape:connector-curvature="0" />
	<path style="fill:none;stroke:red;stroke-width:1px;stroke-linecap:butt;stroke-linejoin:miter;stroke-opacity:1" d="M 532.061,66.2357 541.49,47.3764 z" id="boundary" inkscape:connector-curvature="0" />
	<path style="fill:none;stroke:red;stroke-width:1px;stroke-linecap:butt;stroke-linejoin:miter;stroke-opacity:1" d="M 541.49,47.3764 550.92,19.0875 z" id="boundary" inkscape:connector-curvature="0" />
	<path style="fill:none;stroke:red;stroke-width:1px;stroke-linecap:butt;stroke-linejoin:miter;stroke-opacity:1" d="M 675.392,43.6046 684.821,60.5779 z" id="boundary" inkscape:connector-curvature="0" />
	<path style="fill:none;stroke:red;stroke-width:1px;stroke-linecap:butt;stroke-linejoin:miter;stroke-opacity:1" d="M 718.768,41.7186 720.654,19.0875 z" id="boundary" inkscape:connector-curvature="0" />
	<path style="fill:none;stroke:red;stroke-width:1px;stroke-linecap:butt;stroke-linejoin:miter;stroke-opacity:1" d="M 880.958,102.068 684.821,60.5779 z" id="boundary" inkscape:connector-curvature="0" />
	<path style="fill:none;stroke:red;stroke-width:1px;stroke-linecap:butt;stroke-linejoin:miter;stroke-opacity:1" d="M 684.821,60.5779 701.795,51.1483 z" id="boundary" inkscape:connector-curvature="0" />
	<path style="fill:none;stroke:red;stroke-width:1px;stroke-linecap:butt;stroke-linejoin:miter;stroke-opacity:1" d="M 718.768,41.7186 701.795,51.1483 z" id="boundary" inkscape:connector-curvature="0" />
	<path style="fill:none;stroke:red;stroke-width:1px;stroke-linecap:butt;stroke-linejoin:miter;stroke-opacity:1" d="M 811.179,13.4297 826.266,24.7452 z" id="boundary" inkscape:connector-curvature="0" />
	<path style="fill:none;stroke:red;stroke-width:1px;stroke-linecap:butt;stroke-linejoin:miter;stroke-opacity:1" d="M 835.696,41.7186 826.266,24.7452 z" id="boundary" inkscape:connector-curvature="0" />
	<path style="fill:none;stroke:red;stroke-width:1px;stroke-linecap:butt;stroke-linejoin:miter;stroke-opacity:1" d="M 852.669,51.1483 835.696,41.7186 z" id="boundary" inkscape:connector-curvature="0" />
	<path style="fill:none;stroke:red;stroke-width:1px;stroke-linecap:butt;stroke-linejoin:miter;stroke-opacity:1" d="M 863.985,66.2357 871.529,85.0951 z" id="boundary" inkscape:connector-curvature="0" />
	<path style="fill:none;stroke:red;stroke-width:1px;stroke-linecap:butt;stroke-linejoin:miter;stroke-opacity:1" d="M 863.985,66.2357 852.669,51.1483 z" id="boundary" inkscape:connector-curvature="0" />
	<path style="fill:none;stroke:red;stroke-width:1px;stroke-linecap:butt;stroke-linejoin:miter;stroke-opacity:1" d="M 871.529,85.0951 880.958,102.068 z" id="boundary" inkscape:connector-curvature="0" />
	<path style="fill:none;stroke:red;stroke-width:1px;stroke-linecap:butt;stroke-linejoin:miter;stroke-opacity:1" d="M 880.958,102.068 892.274,117.156 z" id="boundary" inkscape:connector-curvature="0" />
	<path style="fill:none;stroke:red;stroke-width:1px;stroke-linecap:butt;stroke-linejoin:miter;stroke-opacity:1" d="M 892.274,117.156 901.703,134.129 z" id="boundary" inkscape:connector-curvature="0" />
	<path style="fill:none;stroke:red;stroke-width:1px;stroke-linecap:butt;stroke-linejoin:miter;stroke-opacity:1" d="M 901.703,134.129 920.563,136.015 z" id="boundary" inkscape:connector-curvature="0" />
	<path style="fill:none;stroke:red;stroke-width:1px;stroke-linecap:butt;stroke-linejoin:miter;stroke-opacity:1" d="M 920.563,136.015 937.536,145.445 z" id="boundary" inkscape:connector-curvature="0" />
	<path style="fill:none;stroke:red;stroke-width:1px;stroke-linecap:butt;stroke-linejoin:miter;stroke-opacity:1" d="M 937.536,145.445 948.852,160.532 z" id="boundary" inkscape:connector-curvature="0" />
	<path style="fill:none;stroke:red;stroke-width:1px;stroke-linecap:butt;stroke-linejoin:miter;stroke-opacity:1" d="M 956.395,179.392 948.852,160.532 z" id="boundary" inkscape:connector-curvature="0" />
	<path style="fill:none;stroke:red;stroke-width:1px;stroke-linecap:butt;stroke-linejoin:miter;stroke-opacity:1" d="M 967.711,194.479 956.395,179.392 z" id="boundary" inkscape:connector-curvature="0" />
	<path style="fill:none;stroke:red;stroke-width:1px;stroke-linecap:butt;stroke-linejoin:miter;stroke-opacity:1" d="M 967.711,194.479 977.141,211.452 z" id="boundary" inkscape:connector-curvature="0" />
	<path style="fill:none;stroke:red;stroke-width:1px;stroke-linecap:butt;stroke-linejoin:miter;stroke-opacity:1" d="M 967.711,326.494 967.711,307.635 z" id="boundary" inkscape:connector-curvature="0" />
	<path style="fill:none;stroke:red;stroke-width:1px;stroke-linecap:butt;stroke-linejoin:miter;stroke-opacity:1" d="M 967.711,307.635 986.57,285.004 z" id="boundary" inkscape:connector-curvature="0" />
	<path style="fill:none;stroke:red;stroke-width:1px;stroke-linecap:butt;stroke-linejoin:miter;stroke-opacity:1" d="M 967.711,326.494 967.711,345.354 z" id="boundary" inkscape:connector-curvature="0" />
	<path style="fill:none;stroke:red;stroke-width:1px;stroke-linecap:butt;stroke-linejoin:miter;stroke-opacity:1" d="M 977.141,211.452 986.57,228.426 z" id="boundary" inkscape:connector-curvature="0" />
	<path style="fill:none;stroke:red;stroke-width:1px;stroke-linecap:butt;stroke-linejoin:miter;stroke-opacity:1" d="M 986.57,228.426 986.57,247.285 z" id="boundary" inkscape:connector-curvature="0" />
	<path style="fill:none;stroke:red;stroke-width:1px;stroke-linecap:butt;stroke-linejoin:miter;stroke-opacity:1" d="M 986.57,247.285 986.57,266.144 z" id="boundary" inkscape:connector-curvature="0" />
	<path style="fill:none;stroke:red;stroke-width:1px;stroke-linecap:butt;stroke-linejoin:miter;stroke-opacity:1" d="M 982.798,356.669 967.711,345.354 z" id="boundary" inkscape:connector-curvature="0" />
	<path style="fill:none;stroke:red;stroke-width:1px;stroke-linecap:butt;stroke-linejoin:miter;stroke-opacity:1" d="M 986.57,266.144 986.57,285.004 z" id="boundary" inkscape:connector-curvature="0" />
	<path style="fill:none;stroke:red;stroke-width:1px;stroke-linecap:butt;stroke-linejoin:miter;stroke-opacity:1" d="M 656.532,769.688 656.532,750.829 z" id="boundary" inkscape:connector-curvature="0" />
	<path style="fill:none;stroke:red;stroke-width:1px;stroke-linecap:butt;stroke-linejoin:miter;stroke-opacity:1" d="M 656.532,750.829 675.392,750.829 z" id="boundary" inkscape:connector-curvature="0" />
	<path style="fill:none;stroke:red;stroke-width:1px;stroke-linecap:butt;stroke-linejoin:miter;stroke-opacity:1" d="M 694.251,750.829 675.392,750.829 z" id="boundary" inkscape:connector-curvature="0" />
	<path style="fill:none;stroke:red;stroke-width:1px;stroke-linecap:butt;stroke-linejoin:miter;stroke-opacity:1" d="M 694.251,750.829 713.11,750.829 z" id="boundary" inkscape:connector-curvature="0" />
	<path style="fill:none;stroke:red;stroke-width:1px;stroke-linecap:butt;stroke-linejoin:miter;stroke-opacity:1" d="M 713.11,750.829 730.084,760.259 z" id="boundary" inkscape:connector-curvature="0" />
	<path style="fill:none;stroke:red;stroke-width:1px;stroke-linecap:butt;stroke-linejoin:miter;stroke-opacity:1" d="M 767.802,750.829 748.943,754.601 z" id="boundary" inkscape:connector-curvature="0" />
	<path style="fill:none;stroke:red;stroke-width:1px;stroke-linecap:butt;stroke-linejoin:miter;stroke-opacity:1" d="M 748.943,754.601 730.084,760.259 z" id="boundary" inkscape:connector-curvature="0" />
	<path style="fill:none;stroke:red;stroke-width:1px;stroke-linecap:butt;stroke-linejoin:miter;stroke-opacity:1" d="M 835.696,713.11 820.608,730.084 z" id="boundary" inkscape:connector-curvature="0" />
	<path style="fill:none;stroke:red;stroke-width:1px;stroke-linecap:butt;stroke-linejoin:miter;stroke-opacity:1" d="M 820.608,730.084 801.749,731.97 z" id="boundary" inkscape:connector-curvature="0" />
	<path style="fill:none;stroke:red;stroke-width:1px;stroke-linecap:butt;stroke-linejoin:miter;stroke-opacity:1" d="M 801.749,731.97 786.662,745.171 z" id="boundary" inkscape:connector-curvature="0" />
	<path style="fill:none;stroke:red;stroke-width:1px;stroke-linecap:butt;stroke-linejoin:miter;stroke-opacity:1" d="M 786.662,745.171 767.802,750.829 z" id="boundary" inkscape:connector-curvature="0" />
	<path style="fill:none;stroke:red;stroke-width:1px;stroke-linecap:butt;stroke-linejoin:miter;stroke-opacity:1" d="M 845.125,684.821 835.696,713.11 z" id="boundary" inkscape:connector-curvature="0" />
	<path style="fill:none;stroke:red;stroke-width:1px;stroke-linecap:butt;stroke-linejoin:miter;stroke-opacity:1" d="M 656.532,750.829 873.414,609.384 z" id="boundary" inkscape:connector-curvature="0" />
	<path style="fill:none;stroke:red;stroke-width:1px;stroke-linecap:butt;stroke-linejoin:miter;stroke-opacity:1" d="M 596.183,835.696 579.209,845.125 z" id="boundary" inkscape:connector-curvature="0" />
	<path style="fill:none;stroke:red;stroke-width:1px;stroke-linecap:butt;stroke-linejoin:miter;stroke-opacity:1" d="M 539.605,879.072 543.376,854.555 z" id="boundary" inkscape:connector-curvature="0" />
	<path style="fill:none;stroke:red;stroke-width:1px;stroke-linecap:butt;stroke-linejoin:miter;stroke-opacity:1" d="M 543.376,854.555 562.236,854.555 z" id="boundary" inkscape:connector-curvature="0" />
	<path style="fill:none;stroke:red;stroke-width:1px;stroke-linecap:butt;stroke-linejoin:miter;stroke-opacity:1" d="M 539.605,879.072 520.745,882.844 z" id="boundary" inkscape:connector-curvature="0" />
	<path style="fill:none;stroke:red;stroke-width:1px;stroke-linecap:butt;stroke-linejoin:miter;stroke-opacity:1" d="M 579.209,845.125 562.236,854.555 z" id="boundary" inkscape:connector-curvature="0" />
	<path style="fill:none;stroke:red;stroke-width:1px;stroke-linecap:butt;stroke-linejoin:miter;stroke-opacity:1" d="M 596.183,835.696 615.042,831.924 z" id="boundary" inkscape:connector-curvature="0" />
	<path style="fill:none;stroke:red;stroke-width:1px;stroke-linecap:butt;stroke-linejoin:miter;stroke-opacity:1" d="M 656.532,788.548 656.532,769.688 z" id="boundary" inkscape:connector-curvature="0" />
	<path style="fill:none;stroke:red;stroke-width:1px;stroke-linecap:butt;stroke-linejoin:miter;stroke-opacity:1" d="M 656.532,788.548 637.673,797.977 z" id="boundary" inkscape:connector-curvature="0" />
	<path style="fill:none;stroke:red;stroke-width:1px;stroke-linecap:butt;stroke-linejoin:miter;stroke-opacity:1" d="M 624.471,813.065 637.673,797.977 z" id="boundary" inkscape:connector-curvature="0" />
	<path style="fill:none;stroke:red;stroke-width:1px;stroke-linecap:butt;stroke-linejoin:miter;stroke-opacity:1" d="M 624.471,813.065 615.042,831.924 z" id="boundary" inkscape:connector-curvature="0" />
	<path style="fill:none;stroke:red;stroke-width:1px;stroke-linecap:butt;stroke-linejoin:miter;stroke-opacity:1" d="M 986.57,375.529 986.57,394.388 z" id="boundary" inkscape:connector-curvature="0" />
	<path style="fill:none;stroke:red;stroke-width:1px;stroke-linecap:butt;stroke-linejoin:miter;stroke-opacity:1" d="M 986.57,375.529 982.798,356.669 z" id="boundary" inkscape:connector-curvature="0" />
	<path style="fill:none;stroke:red;stroke-width:1px;stroke-linecap:butt;stroke-linejoin:miter;stroke-opacity:1" d="M 986.57,467.939 986.57,486.798 z" id="boundary" inkscape:connector-curvature="0" />
	<path style="fill:none;stroke:red;stroke-width:1px;stroke-linecap:butt;stroke-linejoin:miter;stroke-opacity:1" d="M 996,411.361 986.57,394.388 z" id="boundary" inkscape:connector-curvature="0" />
	<path style="fill:none;stroke:red;stroke-width:1px;stroke-linecap:butt;stroke-linejoin:miter;stroke-opacity:1" d="M 996,449.08 986.57,467.939 z" id="boundary" inkscape:connector-curvature="0" />
	<path style="fill:none;stroke:red;stroke-width:1px;stroke-linecap:butt;stroke-linejoin:miter;stroke-opacity:1" d="M 996,430.221 996,449.08 z" id="boundary" inkscape:connector-curvature="0" />
	<path style="fill:none;stroke:red;stroke-width:1px;stroke-linecap:butt;stroke-linejoin:miter;stroke-opacity:1" d="M 986.57,505.658 986.57,486.798 z" id="boundary" inkscape:connector-curvature="0" />
	<path style="fill:none;stroke:red;stroke-width:1px;stroke-linecap:butt;stroke-linejoin:miter;stroke-opacity:1" d="M 986.57,505.658 967.711,515.087 z" id="boundary" inkscape:connector-curvature="0" />
	<path style="fill:none;stroke:red;stroke-width:1px;stroke-linecap:butt;stroke-linejoin:miter;stroke-opacity:1" d="M 996,411.361 996,430.221 z" id="boundary" inkscape:connector-curvature="0" />
	<path style="fill:none;stroke:red;stroke-width:1px;stroke-linecap:butt;stroke-linejoin:miter;stroke-opacity:1" d="M 958.281,543.376 967.711,515.087 z" id="boundary" inkscape:connector-curvature="0" />
	<path style="fill:none;stroke:red;stroke-width:1px;stroke-linecap:butt;stroke-linejoin:miter;stroke-opacity:1" d="M 863.985,656.532 863.985,637.673 z" id="boundary" inkscape:connector-curvature="0" />
	<path style="fill:none;stroke:red;stroke-width:1px;stroke-linecap:butt;stroke-linejoin:miter;stroke-opacity:1" d="M 863.985,656.532 863.985,675.392 z" id="boundary" inkscape:connector-curvature="0" />
	<path style="fill:none;stroke:red;stroke-width:1px;stroke-linecap:butt;stroke-linejoin:miter;stroke-opacity:1" d="M 863.985,675.392 845.125,684.821 z" id="boundary" inkscape:connector-curvature="0" />
	<path style="fill:none;stroke:red;stroke-width:1px;stroke-linecap:butt;stroke-linejoin:miter;stroke-opacity:1" d="M 863.985,637.673 873.414,609.384 z" id="boundary" inkscape:connector-curvature="0" />
	<path style="fill:none;stroke:red;stroke-width:1px;stroke-linecap:butt;stroke-linejoin:miter;stroke-opacity:1" d="M 873.414,609.384 890.388,599.954 z" id="boundary" inkscape:connector-curvature="0" />
	<path style="fill:none;stroke:red;stroke-width:1px;stroke-linecap:butt;stroke-linejoin:miter;stroke-opacity:1" d="M 946.966,584.867 948.852,562.236 z" id="boundary" inkscape:connector-curvature="0" />
	<path style="fill:none;stroke:red;stroke-width:1px;stroke-linecap:butt;stroke-linejoin:miter;stroke-opacity:1" d="M 948.852,562.236 958.281,543.376 z" id="boundary" inkscape:connector-curvature="0" />
	<path style="fill:none;stroke:red;stroke-width:1px;stroke-linecap:butt;stroke-linejoin:miter;stroke-opacity:1" d="M 946.966,584.867 928.106,594.297 z" id="boundary" inkscape:connector-curvature="0" />
	<path style="fill:none;stroke:red;stroke-width:1px;stroke-linecap:butt;stroke-linejoin:miter;stroke-opacity:1" d="M 909.247,599.954 890.388,599.954 z" id="boundary" inkscape:connector-curvature="0" />
	<path style="fill:none;stroke:red;stroke-width:1px;stroke-linecap:butt;stroke-linejoin:miter;stroke-opacity:1" d="M 928.106,594.297 909.247,599.954 z" id="boundary" inkscape:connector-curvature="0" />
	<circle cx="4" cy="396.274" r="4" fill="#0" id="circle0"/>
	<circle cx="4" cy="415.133" r="4" fill="#0" id="circle1"/>
	<circle cx="4" cy="433.992" r="4" fill="#0" id="circle2"/>
	<circle cx="13.4297" cy="367.985" r="4" fill="#0" id="circle3"/>
	<circle cx="13.4297" cy="450.966" r="4" fill="#0" id="circle4"/>
	<circle cx="13.4297" cy="469.825" r="4" fill="#0" id="circle5"/>
	<circle cx="32.289" cy="339.696" r="4" fill="#0" id="circle6"/>
	<circle cx="32.289" cy="358.555" r="4" fill="#0" id="circle7"/>
	<circle cx="32.289" cy="477.369" r="4" fill="#0" id="circle8"/>
	<circle cx="32.289" cy="575.437" r="4" fill="#0" id="circle9"/>
	<circle cx="32.289" cy="594.297" r="4" fill="#0" id="circle10"/>
	<circle cx="41.7186" cy="494.342" r="4" fill="#0" id="circle11"/>
	<circle cx="41.7186" cy="528.289" r="4" fill="#0" id="circle12"/>
	<circle cx="41.7186" cy="547.148" r="4" fill="#0" id="circle13"/>
	<circle cx="41.7186" cy="611.27" r="4" fill="#0" id="circle14"/>
	<circle cx="41.7186" cy="630.129" r="4" fill="#0" id="circle15"/>
	<circle cx="41.7186" cy="648.989" r="4" fill="#0" id="circle16"/>
	<circle cx="41.7186" cy="667.848" r="4" fill="#0" id="circle17"/>
	<circle cx="41.7186" cy="686.707" r="4" fill="#0" id="circle18"/>
	<circle cx="47.3764" cy="324.608" r="4" fill="#0" id="circle19"/>
	<circle cx="51.1483" cy="511.316" r="4" fill="#0" id="circle20"/>
	<circle cx="51.1483" cy="703.681" r="4" fill="#0" id="circle21"/>
	<circle cx="56.8061" cy="305.749" r="4" fill="#0" id="circle22"/>
	<circle cx="68.1217" cy="713.11" r="4" fill="#0" id="circle23"/>
	<circle cx="75.6654" cy="305.749" r="4" fill="#0" id="circle24"/>
	<circle cx="85.0951" cy="722.54" r="4" fill="#0" id="circle25"/>
	<circle cx="94.5247" cy="296.319" r="4" fill="#0" id="circle26"/>
	<circle cx="98.2966" cy="254.829" r="4" fill="#0" id="circle27"/>
	<circle cx="98.2966" cy="273.688" r="4" fill="#0" id="circle28"/>
	<circle cx="102.068" cy="731.97" r="4" fill="#0" id="circle29"/>
	<circle cx="117.156" cy="207.681" r="4" fill="#0" id="circle30"/>
	<circle cx="117.156" cy="226.54" r="4" fill="#0" id="circle31"/>
	<circle cx="117.156" cy="245.399" r="4" fill="#0" id="circle32"/>
	<circle cx="120.928" cy="731.97" r="4" fill="#0" id="circle33"/>
	<circle cx="126.586" cy="179.392" r="4" fill="#0" id="circle34"/>
	<circle cx="136.015" cy="151.103" r="4" fill="#0" id="circle35"/>
	<circle cx="139.787" cy="731.97" r="4" fill="#0" id="circle36"/>
	<circle cx="154.875" cy="141.673" r="4" fill="#0" id="circle37"/>
	<circle cx="158.646" cy="731.97" r="4" fill="#0" id="circle38"/>
	<circle cx="164.304" cy="122.814" r="4" fill="#0" id="circle39"/>
	<circle cx="168.076" cy="748.943" r="4" fill="#0" id="circle40"/>
	<circle cx="183.163" cy="117.156" r="4" fill="#0" id="circle41"/>
	<circle cx="183.163" cy="760.259" r="4" fill="#0" id="circle42"/>
	<circle cx="188.821" cy="779.118" r="4" fill="#0" id="circle43"/>
	<circle cx="202.023" cy="103.954" r="4" fill="#0" id="circle44"/>
	<circle cx="203.909" cy="792.319" r="4" fill="#0" id="circle45"/>
	<circle cx="220.882" cy="94.5247" r="4" fill="#0" id="circle46"/>
	<circle cx="220.882" cy="801.749" r="4" fill="#0" id="circle47"/>
	<circle cx="239.741" cy="88.8669" r="4" fill="#0" id="circle48"/>
	<circle cx="239.741" cy="807.407" r="4" fill="#0" id="circle49"/>
	<circle cx="258.601" cy="88.8669" r="4" fill="#0" id="circle50"/>
	<circle cx="258.601" cy="807.407" r="4" fill="#0" id="circle51"/>
	<circle cx="277.46" cy="88.8669" r="4" fill="#0" id="circle52"/>
	<circle cx="277.46" cy="807.407" r="4" fill="#0" id="circle53"/>
	<circle cx="294.433" cy="98.2966" r="4" fill="#0" id="circle54"/>
	<circle cx="294.433" cy="816.837" r="4" fill="#0" id="circle55"/>
	<circle cx="313.293" cy="98.2966" r="4" fill="#0" id="circle56"/>
	<circle cx="313.293" cy="816.837" r="4" fill="#0" id="circle57"/>
	<circle cx="330.266" cy="807.407" r="4" fill="#0" id="circle58"/>
	<circle cx="332.152" cy="98.2966" r="4" fill="#0" id="circle59"/>
	<circle cx="349.125" cy="88.8669" r="4" fill="#0" id="circle60"/>
	<circle cx="349.125" cy="807.407" r="4" fill="#0" id="circle61"/>
	<circle cx="366.099" cy="797.977" r="4" fill="#0" id="circle62"/>
	<circle cx="367.985" cy="79.4373" r="4" fill="#0" id="circle63"/>
	<circle cx="377.414" cy="60.5779" r="4" fill="#0" id="circle64"/>
	<circle cx="384.958" cy="797.977" r="4" fill="#0" id="circle65"/>
	<circle cx="396.274" cy="51.1483" r="4" fill="#0" id="circle66"/>
	<circle cx="401.932" cy="807.407" r="4" fill="#0" id="circle67"/>
	<circle cx="415.133" cy="51.1483" r="4" fill="#0" id="circle68"/>
	<circle cx="418.905" cy="816.837" r="4" fill="#0" id="circle69"/>
	<circle cx="424.563" cy="835.696" r="4" fill="#0" id="circle70"/>
	<circle cx="432.106" cy="41.7186" r="4" fill="#0" id="circle71"/>
	<circle cx="441.536" cy="845.125" r="4" fill="#0" id="circle72"/>
	<circle cx="450.966" cy="41.7186" r="4" fill="#0" id="circle73"/>
	<circle cx="458.51" cy="854.555" r="4" fill="#0" id="circle74"/>
	<circle cx="466.053" cy="873.414" r="4" fill="#0" id="circle75"/>
	<circle cx="467.939" cy="51.1483" r="4" fill="#0" id="circle76"/>
	<circle cx="483.027" cy="882.844" r="4" fill="#0" id="circle77"/>
	<circle cx="486.798" cy="51.1483" r="4" fill="#0" id="circle78"/>
	<circle cx="501.886" cy="882.844" r="4" fill="#0" id="circle79"/>
	<circle cx="503.772" cy="60.5779" r="4" fill="#0" id="circle80"/>
	<circle cx="515.087" cy="75.6654" r="4" fill="#0" id="circle81"/>
	<circle cx="520.745" cy="882.844" r="4" fill="#0" id="circle82"/>
	<circle cx="532.061" cy="66.2357" r="4" fill="#0" id="circle83"/>
	<circle cx="539.605" cy="879.072" r="4" fill="#0" id="circle84"/>
	<circle cx="541.49" cy="47.3764" r="4" fill="#0" id="circle85"/>
	<circle cx="543.376" cy="854.555" r="4" fill="#0" id="circle86"/>
	<circle cx="550.92" cy="19.0875" r="4" fill="#0" id="circle87"/>
	<circle cx="562.236" cy="854.555" r="4" fill="#0" id="circle88"/>
	<circle cx="569.779" cy="13.4297" r="4" fill="#0" id="circle89"/>
	<circle cx="579.209" cy="845.125" r="4" fill="#0" id="circle90"/>
	<circle cx="586.753" cy="4" r="4" fill="#0" id="circle91"/>
	<circle cx="596.183" cy="835.696" r="4" fill="#0" id="circle92"/>
	<circle cx="605.612" cy="4" r="4" fill="#0" id="circle93"/>
	<circle cx="615.042" cy="831.924" r="4" fill="#0" id="circle94"/>
	<circle cx="624.471" cy="4" r="4" fill="#0" id="circle95"/>
	<circle cx="624.471" cy="813.065" r="4" fill="#0" id="circle96"/>
	<circle cx="637.673" cy="797.977" r="4" fill="#0" id="circle97"/>
	<circle cx="641.445" cy="13.4297" r="4" fill="#0" id="circle98"/>
	<circle cx="656.532" cy="750.829" r="4" fill="#0" id="circle99"/>
	<circle cx="656.532" cy="769.688" r="4" fill="#0" id="circle100"/>
	<circle cx="656.532" cy="788.548" r="4" fill="#0" id="circle101"/>
	<circle cx="660.304" cy="13.4297" r="4" fill="#0" id="circle102"/>
	<circle cx="675.392" cy="24.7452" r="4" fill="#0" id="circle103"/>
	<circle cx="675.392" cy="43.6046" r="4" fill="#0" id="circle104"/>
	<circle cx="675.392" cy="750.829" r="4" fill="#0" id="circle105"/>
	<circle cx="684.821" cy="60.5779" r="4" fill="#0" id="circle106"/>
	<circle cx="694.251" cy="750.829" r="4" fill="#0" id="circle107"/>
	<circle cx="701.795" cy="51.1483" r="4" fill="#0" id="circle108"/>
	<circle cx="713.11" cy="750.829" r="4" fill="#0" id="circle109"/>
	<circle cx="718.768" cy="41.7186" r="4" fill="#0" id="circle110"/>
	<circle cx="720.654" cy="19.0875" r="4" fill="#0" id="circle111"/>
	<circle cx="730.084" cy="760.259" r="4" fill="#0" id="circle112"/>
	<circle cx="739.513" cy="13.4297" r="4" fill="#0" id="circle113"/>
	<circle cx="748.943" cy="754.601" r="4" fill="#0" id="circle114"/>
	<circle cx="756.487" cy="4" r="4" fill="#0" id="circle115"/>
	<circle cx="767.802" cy="750.829" r="4" fill="#0" id="circle116"/>
	<circle cx="775.346" cy="4" r="4" fill="#0" id="circle117"/>
	<circle cx="786.662" cy="745.171" r="4" fill="#0" id="circle118"/>
	<circle cx="792.319" cy="13.4297" r="4" fill="#0" id="circle119"/>
	<circle cx="801.749" cy="731.97" r="4" fill="#0" id="circle120"/>
	<circle cx="811.179" cy="13.4297" r="4" fill="#0" id="circle121"/>
	<circle cx="820.608" cy="730.084" r="4" fill="#0" id="circle122"/>
	<circle cx="826.266" cy="24.7452" r="4" fill="#0" id="circle123"/>
	<circle cx="835.696" cy="41.7186" r="4" fill="#0" id="circle124"/>
	<circle cx="835.696" cy="713.11" r="4" fill="#0" id="circle125"/>
	<circle cx="845.125" cy="684.821" r="4" fill="#0" id="circle126"/>
	<circle cx="852.669" cy="51.1483" r="4" fill="#0" id="circle127"/>
	<circle cx="863.985" cy="66.2357" r="4" fill="#0" id="circle128"/>
	<circle cx="863.985" cy="637.673" r="4" fill="#0" id="circle129"/>
	<circle cx="863.985" cy="656.532" r="4" fill="#0" id="circle130"/>
	<circle cx="863.985" cy="675.392" r="4" fill="#0" id="circle131"/>
	<circle cx="871.529" cy="85.0951" r="4" fill="#0" id="circle132"/>
	<circle cx="873.414" cy="609.384" r="4" fill="#0" id="circle133"/>
	<circle cx="880.958" cy="102.068" r="4" fill="#0" id="circle134"/>
	<circle cx="890.388" cy="599.954" r="4" fill="#0" id="circle135"/>
	<circle cx="892.274" cy="117.156" r="4" fill="#0" id="circle136"/>
	<circle cx="901.703" cy="134.129" r="4" fill="#0" id="circle137"/>
	<circle cx="909.247" cy="599.954" r="4" fill="#0" id="circle138"/>
	<circle cx="920.563" cy="136.015" r="4" fill="#0" id="circle139"/>
	<circle cx="928.106" cy="594.297" r="4" fill="#0" id="circle140"/>
	<circle cx="937.536" cy="145.445" r="4" fill="#0" id="circle141"/>
	<circle cx="946.966" cy="584.867" r="4" fill="#0" id="circle142"/>
	<circle cx="948.852" cy="160.532" r="4" fill="#0" id="circle143"/>
	<circle cx="948.852" cy="562.236" r="4" fill="#0" id="circle144"/>
	<circle cx="956.395" cy="179.392" r="4" fill="#0" id="circle145"/>
	<circle cx="958.281" cy="543.376" r="4" fill="#0" id="circle146"/>
	<circle cx="967.711" cy="194.479" r="4" fill="#0" id="circle147"/>
	<circle cx="967.711" cy="307.635" r="4" fill="#0" id="circle148"/>
	<circle cx="967.711" cy="326.494" r="4" fill="#0" id="circle149"/>
	<circle cx="967.711" cy="345.354" r="4" fill="#0" id="circle150"/>
	<circle cx="967.711" cy="515.087" r="4" fill="#0" id="circle151"/>
	<circle cx="977.141" cy="211.452" r="4" fill="#0" id="circle152"/>
	<circle cx="982.798" cy="356.669" r="4" fill="#0" id="circle153"/>
	<circle cx="986.57" cy="228.426" r="4" fill="#0" id="circle154"/>
	<circle cx="986.57" cy="247.285" r="4" fill="#0" id="circle155"/>
	<circle cx="986.57" cy="266.144" r="4" fill="#0" id="circle156"/>
	<circle cx="986.57" cy="285.004" r="4" fill="#0" id="circle157"/>
	<circle cx="986.57" cy="375.529" r="4" fill="#0" id="circle158"/>
	<circle cx="986.57" cy="394.388" r="4" fill="#0" id="circle159"/>
	<circle cx="986.57" cy="467.939" r="4" fill="#0" id="circle160"/>
	<circle cx="986.57" cy="486.798" r="4" fill="#0" id="circle161"/>
	<circle cx="986.57" cy="505.658" r="4" fill="#0" id="circle162"/>
	<circle cx="996" cy="411.361" r="4" fill="#0" id="circle163"/>
	<circle cx="996" cy="430.221" r="4" fill="#0" id="circle164"/>
	<circle cx="996" cy="449.08" r="4" fill="#0" id="circle165"/>
	</g>
</svg>