<?xml version="1.0" encoding="UTF-8" standalone="no"?>
<!-- Created with CurveBenchmark -->
<svg
	xmlns:dc="http://purl.org/dc/elements/1.1/"
	xmlns:cc="http://creativecommons.org/ns#"
	xmlns:rdf="http://www.w3.org/1999/02/22-rdf-syntax-ns#"
	xmlns:svg="http://www.w3.org/2000/svg"
	xmlns="http://www.w3.org/2000/svg"
	xmlns:sodipodi="http://sodipodi.sourceforge.net/DTD/sodipodi-0.dtd"
	xmlns:inkscape="http://www.inkscape.org/namespaces/inkscape"
	width="1000"
	height="1000"
	id="svg2"
	version="1.1"
	sodipodi:docname="manifold/nncrust-ray01.png.txt">
<defs
	id="defs4" />
<metadata
	id="metadata7">
	<rdf:RDF>
		<cc:Work
			rdf:about="">
			<dc:format>image/svg+xml</dc:format>
			<dc:type
				rdf:resource="http://purl.org/dc/dcmitype/StillImage" />
			<dc:title></dc:title>
		</cc:Work>
	</rdf:RDF>
</metadata>
<g
	inkscape:label="Layer 1"
	inkscape:groupmode="layer"
	id="layer1">
	<path style="fill:none;stroke:red;stroke-width:1px;stroke-linecap:butt;stroke-linejoin:miter;stroke-opacity:1" d="M 11.7138,294.04 19.4277,278.613 z" id="boundary" inkscape:connector-curvature="0" />
	<path style="fill:none;stroke:red;stroke-width:1px;stroke-linecap:butt;stroke-linejoin:miter;stroke-opacity:1" d="M 19.4277,278.613 31.7698,266.271 z" id="boundary" inkscape:connector-curvature="0" />
	<path style="fill:none;stroke:red;stroke-width:1px;stroke-linecap:butt;stroke-linejoin:miter;stroke-opacity:1" d="M 4,317.182 11.7138,294.04 z" id="boundary" inkscape:connector-curvature="0" />
	<path style="fill:none;stroke:red;stroke-width:1px;stroke-linecap:butt;stroke-linejoin:miter;stroke-opacity:1" d="M 4,332.61 4,317.182 z" id="boundary" inkscape:connector-curvature="0" />
	<path style="fill:none;stroke:red;stroke-width:1px;stroke-linecap:butt;stroke-linejoin:miter;stroke-opacity:1" d="M 11.7138,361.922 4,348.037 z" id="boundary" inkscape:connector-curvature="0" />
	<path style="fill:none;stroke:red;stroke-width:1px;stroke-linecap:butt;stroke-linejoin:miter;stroke-opacity:1" d="M 4,348.037 4,332.61 z" id="boundary" inkscape:connector-curvature="0" />
	<path style="fill:none;stroke:red;stroke-width:1px;stroke-linecap:butt;stroke-linejoin:miter;stroke-opacity:1" d="M 19.4277,375.807 11.7138,361.922 z" id="boundary" inkscape:connector-curvature="0" />
	<path style="fill:none;stroke:red;stroke-width:1px;stroke-linecap:butt;stroke-linejoin:miter;stroke-opacity:1" d="M 93.4806,212.274 105.823,199.932 z" id="boundary" inkscape:connector-curvature="0" />
	<path style="fill:none;stroke:red;stroke-width:1px;stroke-linecap:butt;stroke-linejoin:miter;stroke-opacity:1" d="M 105.823,199.932 121.25,192.218 z" id="boundary" inkscape:connector-curvature="0" />
	<path style="fill:none;stroke:red;stroke-width:1px;stroke-linecap:butt;stroke-linejoin:miter;stroke-opacity:1" d="M 93.4806,212.274 79.5956,219.988 z" id="boundary" inkscape:connector-curvature="0" />
	<path style="fill:none;stroke:red;stroke-width:1px;stroke-linecap:butt;stroke-linejoin:miter;stroke-opacity:1" d="M 121.25,192.218 136.678,184.504 z" id="boundary" inkscape:connector-curvature="0" />
	<path style="fill:none;stroke:red;stroke-width:1px;stroke-linecap:butt;stroke-linejoin:miter;stroke-opacity:1" d="M 149.02,173.705 136.678,184.504 z" id="boundary" inkscape:connector-curvature="0" />
	<path style="fill:none;stroke:red;stroke-width:1px;stroke-linecap:butt;stroke-linejoin:miter;stroke-opacity:1" d="M 44.112,253.928 56.4541,243.129 z" id="boundary" inkscape:connector-curvature="0" />
	<path style="fill:none;stroke:red;stroke-width:1px;stroke-linecap:butt;stroke-linejoin:miter;stroke-opacity:1" d="M 67.2535,230.787 56.4541,243.129 z" id="boundary" inkscape:connector-curvature="0" />
	<path style="fill:none;stroke:red;stroke-width:1px;stroke-linecap:butt;stroke-linejoin:miter;stroke-opacity:1" d="M 67.2535,230.787 79.5956,219.988 z" id="boundary" inkscape:connector-curvature="0" />
	<path style="fill:none;stroke:red;stroke-width:1px;stroke-linecap:butt;stroke-linejoin:miter;stroke-opacity:1" d="M 31.7698,266.271 44.112,253.928 z" id="boundary" inkscape:connector-curvature="0" />
	<path style="fill:none;stroke:red;stroke-width:1px;stroke-linecap:butt;stroke-linejoin:miter;stroke-opacity:1" d="M 27.1415,389.692 19.4277,375.807 z" id="boundary" inkscape:connector-curvature="0" />
	<path style="fill:none;stroke:red;stroke-width:1px;stroke-linecap:butt;stroke-linejoin:miter;stroke-opacity:1" d="M 42.5692,417.462 34.8554,403.577 z" id="boundary" inkscape:connector-curvature="0" />
	<path style="fill:none;stroke:red;stroke-width:1px;stroke-linecap:butt;stroke-linejoin:miter;stroke-opacity:1" d="M 34.8554,403.577 27.1415,389.692 z" id="boundary" inkscape:connector-curvature="0" />
	<path style="fill:none;stroke:red;stroke-width:1px;stroke-linecap:butt;stroke-linejoin:miter;stroke-opacity:1" d="M 57.9969,445.232 50.283,431.347 z" id="boundary" inkscape:connector-curvature="0" />
	<path style="fill:none;stroke:red;stroke-width:1px;stroke-linecap:butt;stroke-linejoin:miter;stroke-opacity:1" d="M 65.7107,459.117 74.9673,471.459 z" id="boundary" inkscape:connector-curvature="0" />
	<path style="fill:none;stroke:red;stroke-width:1px;stroke-linecap:butt;stroke-linejoin:miter;stroke-opacity:1" d="M 74.9673,471.459 81.1384,486.886 z" id="boundary" inkscape:connector-curvature="0" />
	<path style="fill:none;stroke:red;stroke-width:1px;stroke-linecap:butt;stroke-linejoin:miter;stroke-opacity:1" d="M 65.7107,459.117 57.9969,445.232 z" id="boundary" inkscape:connector-curvature="0" />
	<path style="fill:none;stroke:red;stroke-width:1px;stroke-linecap:butt;stroke-linejoin:miter;stroke-opacity:1" d="M 50.283,431.347 42.5692,417.462 z" id="boundary" inkscape:connector-curvature="0" />
	<path style="fill:none;stroke:red;stroke-width:1px;stroke-linecap:butt;stroke-linejoin:miter;stroke-opacity:1" d="M 88.8523,500.771 81.1384,486.886 z" id="boundary" inkscape:connector-curvature="0" />
	<path style="fill:none;stroke:red;stroke-width:1px;stroke-linecap:butt;stroke-linejoin:miter;stroke-opacity:1" d="M 99.6516,513.114 88.8523,500.771 z" id="boundary" inkscape:connector-curvature="0" />
	<path style="fill:none;stroke:red;stroke-width:1px;stroke-linecap:butt;stroke-linejoin:miter;stroke-opacity:1" d="M 99.6516,513.114 107.365,526.998 z" id="boundary" inkscape:connector-curvature="0" />
	<path style="fill:none;stroke:red;stroke-width:1px;stroke-linecap:butt;stroke-linejoin:miter;stroke-opacity:1" d="M 107.365,526.998 113.537,542.426 z" id="boundary" inkscape:connector-curvature="0" />
	<path style="fill:none;stroke:red;stroke-width:1px;stroke-linecap:butt;stroke-linejoin:miter;stroke-opacity:1" d="M 113.537,542.426 125.879,553.226 z" id="boundary" inkscape:connector-curvature="0" />
	<path style="fill:none;stroke:red;stroke-width:1px;stroke-linecap:butt;stroke-linejoin:miter;stroke-opacity:1" d="M 125.879,553.226 132.05,568.653 z" id="boundary" inkscape:connector-curvature="0" />
	<path style="fill:none;stroke:red;stroke-width:1px;stroke-linecap:butt;stroke-linejoin:miter;stroke-opacity:1" d="M 132.05,568.653 144.392,579.453 z" id="boundary" inkscape:connector-curvature="0" />
	<path style="fill:none;stroke:red;stroke-width:1px;stroke-linecap:butt;stroke-linejoin:miter;stroke-opacity:1" d="M 144.392,579.453 155.191,591.795 z" id="boundary" inkscape:connector-curvature="0" />
	<path style="fill:none;stroke:red;stroke-width:1px;stroke-linecap:butt;stroke-linejoin:miter;stroke-opacity:1" d="M 348.037,50.283 360.379,37.9409 z" id="boundary" inkscape:connector-curvature="0" />
	<path style="fill:none;stroke:red;stroke-width:1px;stroke-linecap:butt;stroke-linejoin:miter;stroke-opacity:1" d="M 372.722,27.1415 360.379,37.9409 z" id="boundary" inkscape:connector-curvature="0" />
	<path style="fill:none;stroke:red;stroke-width:1px;stroke-linecap:butt;stroke-linejoin:miter;stroke-opacity:1" d="M 383.521,14.7994 372.722,27.1415 z" id="boundary" inkscape:connector-curvature="0" />
	<path style="fill:none;stroke:red;stroke-width:1px;stroke-linecap:butt;stroke-linejoin:miter;stroke-opacity:1" d="M 395.863,4 383.521,14.7994 z" id="boundary" inkscape:connector-curvature="0" />
	<path style="fill:none;stroke:red;stroke-width:1px;stroke-linecap:butt;stroke-linejoin:miter;stroke-opacity:1" d="M 395.863,4 409.748,11.7138 z" id="boundary" inkscape:connector-curvature="0" />
	<path style="fill:none;stroke:red;stroke-width:1px;stroke-linecap:butt;stroke-linejoin:miter;stroke-opacity:1" d="M 304.84,78.0529 317.182,65.7107 z" id="boundary" inkscape:connector-curvature="0" />
	<path style="fill:none;stroke:red;stroke-width:1px;stroke-linecap:butt;stroke-linejoin:miter;stroke-opacity:1" d="M 317.182,65.7107 332.61,57.9969 z" id="boundary" inkscape:connector-curvature="0" />
	<path style="fill:none;stroke:red;stroke-width:1px;stroke-linecap:butt;stroke-linejoin:miter;stroke-opacity:1" d="M 304.84,78.0529 289.412,85.7667 z" id="boundary" inkscape:connector-curvature="0" />
	<path style="fill:none;stroke:red;stroke-width:1px;stroke-linecap:butt;stroke-linejoin:miter;stroke-opacity:1" d="M 348.037,50.283 332.61,57.9969 z" id="boundary" inkscape:connector-curvature="0" />
	<path style="fill:none;stroke:red;stroke-width:1px;stroke-linecap:butt;stroke-linejoin:miter;stroke-opacity:1" d="M 423.633,19.4277 435.975,30.2271 z" id="boundary" inkscape:connector-curvature="0" />
	<path style="fill:none;stroke:red;stroke-width:1px;stroke-linecap:butt;stroke-linejoin:miter;stroke-opacity:1" d="M 435.975,30.2271 445.232,42.5692 z" id="boundary" inkscape:connector-curvature="0" />
	<path style="fill:none;stroke:red;stroke-width:1px;stroke-linecap:butt;stroke-linejoin:miter;stroke-opacity:1" d="M 459.117,50.283 445.232,42.5692 z" id="boundary" inkscape:connector-curvature="0" />
	<path style="fill:none;stroke:red;stroke-width:1px;stroke-linecap:butt;stroke-linejoin:miter;stroke-opacity:1" d="M 409.748,11.7138 423.633,19.4277 z" id="boundary" inkscape:connector-curvature="0" />
	<path style="fill:none;stroke:red;stroke-width:1px;stroke-linecap:butt;stroke-linejoin:miter;stroke-opacity:1" d="M 459.117,50.283 471.459,59.5397 z" id="boundary" inkscape:connector-curvature="0" />
	<path style="fill:none;stroke:red;stroke-width:1px;stroke-linecap:butt;stroke-linejoin:miter;stroke-opacity:1" d="M 486.886,65.7107 471.459,59.5397 z" id="boundary" inkscape:connector-curvature="0" />
	<path style="fill:none;stroke:red;stroke-width:1px;stroke-linecap:butt;stroke-linejoin:miter;stroke-opacity:1" d="M 486.886,65.7107 497.686,78.0529 z" id="boundary" inkscape:connector-curvature="0" />
	<path style="fill:none;stroke:red;stroke-width:1px;stroke-linecap:butt;stroke-linejoin:miter;stroke-opacity:1" d="M 513.114,84.224 497.686,78.0529 z" id="boundary" inkscape:connector-curvature="0" />
	<path style="fill:none;stroke:red;stroke-width:1px;stroke-linecap:butt;stroke-linejoin:miter;stroke-opacity:1" d="M 204.56,139.764 216.902,127.421 z" id="boundary" inkscape:connector-curvature="0" />
	<path style="fill:none;stroke:red;stroke-width:1px;stroke-linecap:butt;stroke-linejoin:miter;stroke-opacity:1" d="M 216.902,127.421 232.33,119.708 z" id="boundary" inkscape:connector-curvature="0" />
	<path style="fill:none;stroke:red;stroke-width:1px;stroke-linecap:butt;stroke-linejoin:miter;stroke-opacity:1" d="M 232.33,119.708 246.215,111.994 z" id="boundary" inkscape:connector-curvature="0" />
	<path style="fill:none;stroke:red;stroke-width:1px;stroke-linecap:butt;stroke-linejoin:miter;stroke-opacity:1" d="M 192.218,150.563 204.56,139.764 z" id="boundary" inkscape:connector-curvature="0" />
	<path style="fill:none;stroke:red;stroke-width:1px;stroke-linecap:butt;stroke-linejoin:miter;stroke-opacity:1" d="M 162.905,165.991 178.333,158.277 z" id="boundary" inkscape:connector-curvature="0" />
	<path style="fill:none;stroke:red;stroke-width:1px;stroke-linecap:butt;stroke-linejoin:miter;stroke-opacity:1" d="M 162.905,165.991 149.02,173.705 z" id="boundary" inkscape:connector-curvature="0" />
	<path style="fill:none;stroke:red;stroke-width:1px;stroke-linecap:butt;stroke-linejoin:miter;stroke-opacity:1" d="M 192.218,150.563 178.333,158.277 z" id="boundary" inkscape:connector-curvature="0" />
	<path style="fill:none;stroke:red;stroke-width:1px;stroke-linecap:butt;stroke-linejoin:miter;stroke-opacity:1" d="M 260.1,104.28 273.984,93.4806 z" id="boundary" inkscape:connector-curvature="0" />
	<path style="fill:none;stroke:red;stroke-width:1px;stroke-linecap:butt;stroke-linejoin:miter;stroke-opacity:1" d="M 273.984,93.4806 289.412,85.7667 z" id="boundary" inkscape:connector-curvature="0" />
	<path style="fill:none;stroke:red;stroke-width:1px;stroke-linecap:butt;stroke-linejoin:miter;stroke-opacity:1" d="M 526.998,91.9378 513.114,84.224 z" id="boundary" inkscape:connector-curvature="0" />
	<path style="fill:none;stroke:red;stroke-width:1px;stroke-linecap:butt;stroke-linejoin:miter;stroke-opacity:1" d="M 526.998,91.9378 537.798,104.28 z" id="boundary" inkscape:connector-curvature="0" />
	<path style="fill:none;stroke:red;stroke-width:1px;stroke-linecap:butt;stroke-linejoin:miter;stroke-opacity:1" d="M 550.14,113.537 560.939,125.879 z" id="boundary" inkscape:connector-curvature="0" />
	<path style="fill:none;stroke:red;stroke-width:1px;stroke-linecap:butt;stroke-linejoin:miter;stroke-opacity:1" d="M 537.798,104.28 550.14,113.537 z" id="boundary" inkscape:connector-curvature="0" />
	<path style="fill:none;stroke:red;stroke-width:1px;stroke-linecap:butt;stroke-linejoin:miter;stroke-opacity:1" d="M 246.215,111.994 260.1,104.28 z" id="boundary" inkscape:connector-curvature="0" />
	<path style="fill:none;stroke:red;stroke-width:1px;stroke-linecap:butt;stroke-linejoin:miter;stroke-opacity:1" d="M 155.191,591.795 167.533,602.594 z" id="boundary" inkscape:connector-curvature="0" />
	<path style="fill:none;stroke:red;stroke-width:1px;stroke-linecap:butt;stroke-linejoin:miter;stroke-opacity:1" d="M 167.533,602.594 178.333,614.936 z" id="boundary" inkscape:connector-curvature="0" />
	<path style="fill:none;stroke:red;stroke-width:1px;stroke-linecap:butt;stroke-linejoin:miter;stroke-opacity:1" d="M 190.675,625.736 178.333,614.936 z" id="boundary" inkscape:connector-curvature="0" />
	<path style="fill:none;stroke:red;stroke-width:1px;stroke-linecap:butt;stroke-linejoin:miter;stroke-opacity:1" d="M 190.675,625.736 201.474,638.078 z" id="boundary" inkscape:connector-curvature="0" />
	<path style="fill:none;stroke:red;stroke-width:1px;stroke-linecap:butt;stroke-linejoin:miter;stroke-opacity:1" d="M 213.816,648.877 201.474,638.078 z" id="boundary" inkscape:connector-curvature="0" />
	<path style="fill:none;stroke:red;stroke-width:1px;stroke-linecap:butt;stroke-linejoin:miter;stroke-opacity:1" d="M 224.616,661.219 213.816,648.877 z" id="boundary" inkscape:connector-curvature="0" />
	<path style="fill:none;stroke:red;stroke-width:1px;stroke-linecap:butt;stroke-linejoin:miter;stroke-opacity:1" d="M 238.501,668.933 224.616,661.219 z" id="boundary" inkscape:connector-curvature="0" />
	<path style="fill:none;stroke:red;stroke-width:1px;stroke-linecap:butt;stroke-linejoin:miter;stroke-opacity:1" d="M 243.129,710.588 243.129,726.016 z" id="boundary" inkscape:connector-curvature="0" />
	<path style="fill:none;stroke:red;stroke-width:1px;stroke-linecap:butt;stroke-linejoin:miter;stroke-opacity:1" d="M 250.843,693.617 243.129,710.588 z" id="boundary" inkscape:connector-curvature="0" />
	<path style="fill:none;stroke:red;stroke-width:1px;stroke-linecap:butt;stroke-linejoin:miter;stroke-opacity:1" d="M 250.843,678.19 250.843,693.617 z" id="boundary" inkscape:connector-curvature="0" />
	<path style="fill:none;stroke:red;stroke-width:1px;stroke-linecap:butt;stroke-linejoin:miter;stroke-opacity:1" d="M 238.501,668.933 250.843,678.19 z" id="boundary" inkscape:connector-curvature="0" />
	<path style="fill:none;stroke:red;stroke-width:1px;stroke-linecap:butt;stroke-linejoin:miter;stroke-opacity:1" d="M 297.126,746.072 281.698,746.072 z" id="boundary" inkscape:connector-curvature="0" />
	<path style="fill:none;stroke:red;stroke-width:1px;stroke-linecap:butt;stroke-linejoin:miter;stroke-opacity:1" d="M 252.386,738.358 243.129,726.016 z" id="boundary" inkscape:connector-curvature="0" />
	<path style="fill:none;stroke:red;stroke-width:1px;stroke-linecap:butt;stroke-linejoin:miter;stroke-opacity:1" d="M 266.271,746.072 281.698,746.072 z" id="boundary" inkscape:connector-curvature="0" />
	<path style="fill:none;stroke:red;stroke-width:1px;stroke-linecap:butt;stroke-linejoin:miter;stroke-opacity:1" d="M 266.271,746.072 252.386,738.358 z" id="boundary" inkscape:connector-curvature="0" />
	<path style="fill:none;stroke:red;stroke-width:1px;stroke-linecap:butt;stroke-linejoin:miter;stroke-opacity:1" d="M 311.011,753.785 324.896,761.499 z" id="boundary" inkscape:connector-curvature="0" />
	<path style="fill:none;stroke:red;stroke-width:1px;stroke-linecap:butt;stroke-linejoin:miter;stroke-opacity:1" d="M 311.011,753.785 297.126,746.072 z" id="boundary" inkscape:connector-curvature="0" />
	<path style="fill:none;stroke:red;stroke-width:1px;stroke-linecap:butt;stroke-linejoin:miter;stroke-opacity:1" d="M 324.896,761.499 340.323,761.499 z" id="boundary" inkscape:connector-curvature="0" />
	<path style="fill:none;stroke:red;stroke-width:1px;stroke-linecap:butt;stroke-linejoin:miter;stroke-opacity:1" d="M 354.208,769.213 358.837,784.641 z" id="boundary" inkscape:connector-curvature="0" />
	<path style="fill:none;stroke:red;stroke-width:1px;stroke-linecap:butt;stroke-linejoin:miter;stroke-opacity:1" d="M 340.323,761.499 354.208,769.213 z" id="boundary" inkscape:connector-curvature="0" />
	<path style="fill:none;stroke:red;stroke-width:1px;stroke-linecap:butt;stroke-linejoin:miter;stroke-opacity:1" d="M 366.551,798.526 358.837,784.641 z" id="boundary" inkscape:connector-curvature="0" />
	<path style="fill:none;stroke:red;stroke-width:1px;stroke-linecap:butt;stroke-linejoin:miter;stroke-opacity:1" d="M 366.551,798.526 369.636,813.953 z" id="boundary" inkscape:connector-curvature="0" />
	<path style="fill:none;stroke:red;stroke-width:1px;stroke-linecap:butt;stroke-linejoin:miter;stroke-opacity:1" d="M 377.35,827.838 369.636,813.953 z" id="boundary" inkscape:connector-curvature="0" />
	<path style="fill:none;stroke:red;stroke-width:1px;stroke-linecap:butt;stroke-linejoin:miter;stroke-opacity:1" d="M 452.946,753.785 354.208,769.213 z" id="boundary" inkscape:connector-curvature="0" />
	<path style="fill:none;stroke:red;stroke-width:1px;stroke-linecap:butt;stroke-linejoin:miter;stroke-opacity:1" d="M 377.35,827.838 383.521,843.266 z" id="boundary" inkscape:connector-curvature="0" />
	<path style="fill:none;stroke:red;stroke-width:1px;stroke-linecap:butt;stroke-linejoin:miter;stroke-opacity:1" d="M 414.376,880.292 402.034,869.493 z" id="boundary" inkscape:connector-curvature="0" />
	<path style="fill:none;stroke:red;stroke-width:1px;stroke-linecap:butt;stroke-linejoin:miter;stroke-opacity:1" d="M 391.235,857.151 402.034,869.493 z" id="boundary" inkscape:connector-curvature="0" />
	<path style="fill:none;stroke:red;stroke-width:1px;stroke-linecap:butt;stroke-linejoin:miter;stroke-opacity:1" d="M 391.235,857.151 383.521,843.266 z" id="boundary" inkscape:connector-curvature="0" />
	<path style="fill:none;stroke:red;stroke-width:1px;stroke-linecap:butt;stroke-linejoin:miter;stroke-opacity:1" d="M 414.376,880.292 425.176,892.635 z" id="boundary" inkscape:connector-curvature="0" />
	<path style="fill:none;stroke:red;stroke-width:1px;stroke-linecap:butt;stroke-linejoin:miter;stroke-opacity:1" d="M 437.518,903.434 425.176,892.635 z" id="boundary" inkscape:connector-curvature="0" />
	<path style="fill:none;stroke:red;stroke-width:1px;stroke-linecap:butt;stroke-linejoin:miter;stroke-opacity:1" d="M 437.518,903.434 448.317,915.776 z" id="boundary" inkscape:connector-curvature="0" />
	<path style="fill:none;stroke:red;stroke-width:1px;stroke-linecap:butt;stroke-linejoin:miter;stroke-opacity:1" d="M 452.946,753.785 468.373,753.785 z" id="boundary" inkscape:connector-curvature="0" />
	<path style="fill:none;stroke:red;stroke-width:1px;stroke-linecap:butt;stroke-linejoin:miter;stroke-opacity:1" d="M 452.946,769.213 452.946,753.785 z" id="boundary" inkscape:connector-curvature="0" />
	<path style="fill:none;stroke:red;stroke-width:1px;stroke-linecap:butt;stroke-linejoin:miter;stroke-opacity:1" d="M 483.801,753.785 499.229,753.785 z" id="boundary" inkscape:connector-curvature="0" />
	<path style="fill:none;stroke:red;stroke-width:1px;stroke-linecap:butt;stroke-linejoin:miter;stroke-opacity:1" d="M 513.114,746.072 499.229,753.785 z" id="boundary" inkscape:connector-curvature="0" />
	<path style="fill:none;stroke:red;stroke-width:1px;stroke-linecap:butt;stroke-linejoin:miter;stroke-opacity:1" d="M 483.801,753.785 468.373,753.785 z" id="boundary" inkscape:connector-curvature="0" />
	<path style="fill:none;stroke:red;stroke-width:1px;stroke-linecap:butt;stroke-linejoin:miter;stroke-opacity:1" d="M 452.946,769.213 460.659,783.098 z" id="boundary" inkscape:connector-curvature="0" />
	<path style="fill:none;stroke:red;stroke-width:1px;stroke-linecap:butt;stroke-linejoin:miter;stroke-opacity:1" d="M 460.659,783.098 460.659,798.526 z" id="boundary" inkscape:connector-curvature="0" />
	<path style="fill:none;stroke:red;stroke-width:1px;stroke-linecap:butt;stroke-linejoin:miter;stroke-opacity:1" d="M 468.373,812.411 476.087,826.295 z" id="boundary" inkscape:connector-curvature="0" />
	<path style="fill:none;stroke:red;stroke-width:1px;stroke-linecap:butt;stroke-linejoin:miter;stroke-opacity:1" d="M 468.373,812.411 460.659,798.526 z" id="boundary" inkscape:connector-curvature="0" />
	<path style="fill:none;stroke:red;stroke-width:1px;stroke-linecap:butt;stroke-linejoin:miter;stroke-opacity:1" d="M 537.798,692.075 537.798,676.647 z" id="boundary" inkscape:connector-curvature="0" />
	<path style="fill:none;stroke:red;stroke-width:1px;stroke-linecap:butt;stroke-linejoin:miter;stroke-opacity:1" d="M 537.798,676.647 551.683,668.933 z" id="boundary" inkscape:connector-curvature="0" />
	<path style="fill:none;stroke:red;stroke-width:1px;stroke-linecap:butt;stroke-linejoin:miter;stroke-opacity:1" d="M 545.512,705.96 537.798,692.075 z" id="boundary" inkscape:connector-curvature="0" />
	<path style="fill:none;stroke:red;stroke-width:1px;stroke-linecap:butt;stroke-linejoin:miter;stroke-opacity:1" d="M 564.025,659.677 551.683,668.933 z" id="boundary" inkscape:connector-curvature="0" />
	<path style="fill:none;stroke:red;stroke-width:1px;stroke-linecap:butt;stroke-linejoin:miter;stroke-opacity:1" d="M 528.541,741.443 513.114,746.072 z" id="boundary" inkscape:connector-curvature="0" />
	<path style="fill:none;stroke:red;stroke-width:1px;stroke-linecap:butt;stroke-linejoin:miter;stroke-opacity:1" d="M 537.798,722.93 528.541,741.443 z" id="boundary" inkscape:connector-curvature="0" />
	<path style="fill:none;stroke:red;stroke-width:1px;stroke-linecap:butt;stroke-linejoin:miter;stroke-opacity:1" d="M 545.512,705.96 537.798,722.93 z" id="boundary" inkscape:connector-curvature="0" />
	<path style="fill:none;stroke:red;stroke-width:1px;stroke-linecap:butt;stroke-linejoin:miter;stroke-opacity:1" d="M 482.258,841.723 494.6,852.523 z" id="boundary" inkscape:connector-curvature="0" />
	<path style="fill:none;stroke:red;stroke-width:1px;stroke-linecap:butt;stroke-linejoin:miter;stroke-opacity:1" d="M 482.258,841.723 476.087,826.295 z" id="boundary" inkscape:connector-curvature="0" />
	<path style="fill:none;stroke:red;stroke-width:1px;stroke-linecap:butt;stroke-linejoin:miter;stroke-opacity:1" d="M 494.6,852.523 505.4,864.865 z" id="boundary" inkscape:connector-curvature="0" />
	<path style="fill:none;stroke:red;stroke-width:1px;stroke-linecap:butt;stroke-linejoin:miter;stroke-opacity:1" d="M 462.202,923.49 448.317,915.776 z" id="boundary" inkscape:connector-curvature="0" />
	<path style="fill:none;stroke:red;stroke-width:1px;stroke-linecap:butt;stroke-linejoin:miter;stroke-opacity:1" d="M 462.202,923.49 477.63,928.118 z" id="boundary" inkscape:connector-curvature="0" />
	<path style="fill:none;stroke:red;stroke-width:1px;stroke-linecap:butt;stroke-linejoin:miter;stroke-opacity:1" d="M 493.058,931.204 506.942,938.918 z" id="boundary" inkscape:connector-curvature="0" />
	<path style="fill:none;stroke:red;stroke-width:1px;stroke-linecap:butt;stroke-linejoin:miter;stroke-opacity:1" d="M 477.63,928.118 493.058,931.204 z" id="boundary" inkscape:connector-curvature="0" />
	<path style="fill:none;stroke:red;stroke-width:1px;stroke-linecap:butt;stroke-linejoin:miter;stroke-opacity:1" d="M 506.942,938.918 520.827,946.631 z" id="boundary" inkscape:connector-curvature="0" />
	<path style="fill:none;stroke:red;stroke-width:1px;stroke-linecap:butt;stroke-linejoin:miter;stroke-opacity:1" d="M 505.4,864.865 517.742,875.664 z" id="boundary" inkscape:connector-curvature="0" />
	<path style="fill:none;stroke:red;stroke-width:1px;stroke-linecap:butt;stroke-linejoin:miter;stroke-opacity:1" d="M 531.627,883.378 545.512,891.092 z" id="boundary" inkscape:connector-curvature="0" />
	<path style="fill:none;stroke:red;stroke-width:1px;stroke-linecap:butt;stroke-linejoin:miter;stroke-opacity:1" d="M 531.627,883.378 517.742,875.664 z" id="boundary" inkscape:connector-curvature="0" />
	<path style="fill:none;stroke:red;stroke-width:1px;stroke-linecap:butt;stroke-linejoin:miter;stroke-opacity:1" d="M 545.512,891.092 559.397,898.806 z" id="boundary" inkscape:connector-curvature="0" />
	<path style="fill:none;stroke:red;stroke-width:1px;stroke-linecap:butt;stroke-linejoin:miter;stroke-opacity:1" d="M 520.827,946.631 536.255,946.631 z" id="boundary" inkscape:connector-curvature="0" />
	<path style="fill:none;stroke:red;stroke-width:1px;stroke-linecap:butt;stroke-linejoin:miter;stroke-opacity:1" d="M 536.255,946.631 550.14,954.345 z" id="boundary" inkscape:connector-curvature="0" />
	<path style="fill:none;stroke:red;stroke-width:1px;stroke-linecap:butt;stroke-linejoin:miter;stroke-opacity:1" d="M 550.14,954.345 565.568,954.345 z" id="boundary" inkscape:connector-curvature="0" />
	<path style="fill:none;stroke:red;stroke-width:1px;stroke-linecap:butt;stroke-linejoin:miter;stroke-opacity:1" d="M 559.397,898.806 574.824,901.891 z" id="boundary" inkscape:connector-curvature="0" />
	<path style="fill:none;stroke:red;stroke-width:1px;stroke-linecap:butt;stroke-linejoin:miter;stroke-opacity:1" d="M 564.025,659.677 579.453,651.963 z" id="boundary" inkscape:connector-curvature="0" />
	<path style="fill:none;stroke:red;stroke-width:1px;stroke-linecap:butt;stroke-linejoin:miter;stroke-opacity:1" d="M 560.939,125.879 573.281,136.678 z" id="boundary" inkscape:connector-curvature="0" />
	<path style="fill:none;stroke:red;stroke-width:1px;stroke-linecap:butt;stroke-linejoin:miter;stroke-opacity:1" d="M 573.281,136.678 587.166,144.392 z" id="boundary" inkscape:connector-curvature="0" />
	<path style="fill:none;stroke:red;stroke-width:1px;stroke-linecap:butt;stroke-linejoin:miter;stroke-opacity:1" d="M 587.166,144.392 599.509,155.191 z" id="boundary" inkscape:connector-curvature="0" />
	<path style="fill:none;stroke:red;stroke-width:1px;stroke-linecap:butt;stroke-linejoin:miter;stroke-opacity:1" d="M 613.393,162.905 599.509,155.191 z" id="boundary" inkscape:connector-curvature="0" />
	<path style="fill:none;stroke:red;stroke-width:1px;stroke-linecap:butt;stroke-linejoin:miter;stroke-opacity:1" d="M 613.393,162.905 628.821,169.076 z" id="boundary" inkscape:connector-curvature="0" />
	<path style="fill:none;stroke:red;stroke-width:1px;stroke-linecap:butt;stroke-linejoin:miter;stroke-opacity:1" d="M 628.821,169.076 638.078,181.418 z" id="boundary" inkscape:connector-curvature="0" />
	<path style="fill:none;stroke:red;stroke-width:1px;stroke-linecap:butt;stroke-linejoin:miter;stroke-opacity:1" d="M 638.078,181.418 653.505,181.418 z" id="boundary" inkscape:connector-curvature="0" />
	<path style="fill:none;stroke:red;stroke-width:1px;stroke-linecap:butt;stroke-linejoin:miter;stroke-opacity:1" d="M 653.505,181.418 667.39,189.132 z" id="boundary" inkscape:connector-curvature="0" />
	<path style="fill:none;stroke:red;stroke-width:1px;stroke-linecap:butt;stroke-linejoin:miter;stroke-opacity:1" d="M 695.16,204.56 709.045,212.274 z" id="boundary" inkscape:connector-curvature="0" />
	<path style="fill:none;stroke:red;stroke-width:1px;stroke-linecap:butt;stroke-linejoin:miter;stroke-opacity:1" d="M 709.045,212.274 721.387,223.073 z" id="boundary" inkscape:connector-curvature="0" />
	<path style="fill:none;stroke:red;stroke-width:1px;stroke-linecap:butt;stroke-linejoin:miter;stroke-opacity:1" d="M 695.16,204.56 681.275,196.846 z" id="boundary" inkscape:connector-curvature="0" />
	<path style="fill:none;stroke:red;stroke-width:1px;stroke-linecap:butt;stroke-linejoin:miter;stroke-opacity:1" d="M 681.275,196.846 667.39,189.132 z" id="boundary" inkscape:connector-curvature="0" />
	<path style="fill:none;stroke:red;stroke-width:1px;stroke-linecap:butt;stroke-linejoin:miter;stroke-opacity:1" d="M 721.387,223.073 730.644,235.415 z" id="boundary" inkscape:connector-curvature="0" />
	<path style="fill:none;stroke:red;stroke-width:1px;stroke-linecap:butt;stroke-linejoin:miter;stroke-opacity:1" d="M 712.131,496.143 722.93,476.087 z" id="boundary" inkscape:connector-curvature="0" />
	<path style="fill:none;stroke:red;stroke-width:1px;stroke-linecap:butt;stroke-linejoin:miter;stroke-opacity:1" d="M 742.986,244.672 730.644,235.415 z" id="boundary" inkscape:connector-curvature="0" />
	<path style="fill:none;stroke:red;stroke-width:1px;stroke-linecap:butt;stroke-linejoin:miter;stroke-opacity:1" d="M 699.788,506.942 712.131,496.143 z" id="boundary" inkscape:connector-curvature="0" />
	<path style="fill:none;stroke:red;stroke-width:1px;stroke-linecap:butt;stroke-linejoin:miter;stroke-opacity:1" d="M 653.505,584.081 665.848,573.281 z" id="boundary" inkscape:connector-curvature="0" />
	<path style="fill:none;stroke:red;stroke-width:1px;stroke-linecap:butt;stroke-linejoin:miter;stroke-opacity:1" d="M 673.561,557.854 665.848,573.281 z" id="boundary" inkscape:connector-curvature="0" />
	<path style="fill:none;stroke:red;stroke-width:1px;stroke-linecap:butt;stroke-linejoin:miter;stroke-opacity:1" d="M 681.275,542.426 673.561,557.854 z" id="boundary" inkscape:connector-curvature="0" />
	<path style="fill:none;stroke:red;stroke-width:1px;stroke-linecap:butt;stroke-linejoin:miter;stroke-opacity:1" d="M 698.246,594.88 690.532,610.308 z" id="boundary" inkscape:connector-curvature="0" />
	<path style="fill:none;stroke:red;stroke-width:1px;stroke-linecap:butt;stroke-linejoin:miter;stroke-opacity:1" d="M 619.565,619.565 630.364,607.222 z" id="boundary" inkscape:connector-curvature="0" />
	<path style="fill:none;stroke:red;stroke-width:1px;stroke-linecap:butt;stroke-linejoin:miter;stroke-opacity:1" d="M 630.364,607.222 642.706,596.423 z" id="boundary" inkscape:connector-curvature="0" />
	<path style="fill:none;stroke:red;stroke-width:1px;stroke-linecap:butt;stroke-linejoin:miter;stroke-opacity:1" d="M 642.706,596.423 653.505,584.081 z" id="boundary" inkscape:connector-curvature="0" />
	<path style="fill:none;stroke:red;stroke-width:1px;stroke-linecap:butt;stroke-linejoin:miter;stroke-opacity:1" d="M 690.532,610.308 682.818,625.736 z" id="boundary" inkscape:connector-curvature="0" />
	<path style="fill:none;stroke:red;stroke-width:1px;stroke-linecap:butt;stroke-linejoin:miter;stroke-opacity:1" d="M 733.729,559.397 718.302,567.11 z" id="boundary" inkscape:connector-curvature="0" />
	<path style="fill:none;stroke:red;stroke-width:1px;stroke-linecap:butt;stroke-linejoin:miter;stroke-opacity:1" d="M 692.075,522.37 681.275,542.426 z" id="boundary" inkscape:connector-curvature="0" />
	<path style="fill:none;stroke:red;stroke-width:1px;stroke-linecap:butt;stroke-linejoin:miter;stroke-opacity:1" d="M 705.96,579.453 718.302,567.11 z" id="boundary" inkscape:connector-curvature="0" />
	<path style="fill:none;stroke:red;stroke-width:1px;stroke-linecap:butt;stroke-linejoin:miter;stroke-opacity:1" d="M 692.075,522.37 699.788,506.942 z" id="boundary" inkscape:connector-curvature="0" />
	<path style="fill:none;stroke:red;stroke-width:1px;stroke-linecap:butt;stroke-linejoin:miter;stroke-opacity:1" d="M 705.96,579.453 698.246,594.88 z" id="boundary" inkscape:connector-curvature="0" />
	<path style="fill:none;stroke:red;stroke-width:1px;stroke-linecap:butt;stroke-linejoin:miter;stroke-opacity:1" d="M 715.216,599.509 707.502,614.936 z" id="boundary" inkscape:connector-curvature="0" />
	<path style="fill:none;stroke:red;stroke-width:1px;stroke-linecap:butt;stroke-linejoin:miter;stroke-opacity:1" d="M 707.502,630.364 707.502,614.936 z" id="boundary" inkscape:connector-curvature="0" />
	<path style="fill:none;stroke:red;stroke-width:1px;stroke-linecap:butt;stroke-linejoin:miter;stroke-opacity:1" d="M 727.558,588.709 715.216,599.509 z" id="boundary" inkscape:connector-curvature="0" />
	<path style="fill:none;stroke:red;stroke-width:1px;stroke-linecap:butt;stroke-linejoin:miter;stroke-opacity:1" d="M 738.358,576.367 727.558,588.709 z" id="boundary" inkscape:connector-curvature="0" />
	<path style="fill:none;stroke:red;stroke-width:1px;stroke-linecap:butt;stroke-linejoin:miter;stroke-opacity:1" d="M 619.565,619.565 607.222,630.364 z" id="boundary" inkscape:connector-curvature="0" />
	<path style="fill:none;stroke:red;stroke-width:1px;stroke-linecap:butt;stroke-linejoin:miter;stroke-opacity:1" d="M 742.986,244.672 753.785,257.014 z" id="boundary" inkscape:connector-curvature="0" />
	<path style="fill:none;stroke:red;stroke-width:1px;stroke-linecap:butt;stroke-linejoin:miter;stroke-opacity:1" d="M 753.785,257.014 761.499,270.899 z" id="boundary" inkscape:connector-curvature="0" />
	<path style="fill:none;stroke:red;stroke-width:1px;stroke-linecap:butt;stroke-linejoin:miter;stroke-opacity:1" d="M 761.499,270.899 767.67,286.327 z" id="boundary" inkscape:connector-curvature="0" />
	<path style="fill:none;stroke:red;stroke-width:1px;stroke-linecap:butt;stroke-linejoin:miter;stroke-opacity:1" d="M 776.927,298.669 767.67,286.327 z" id="boundary" inkscape:connector-curvature="0" />
	<path style="fill:none;stroke:red;stroke-width:1px;stroke-linecap:butt;stroke-linejoin:miter;stroke-opacity:1" d="M 735.272,465.288 742.986,449.86 z" id="boundary" inkscape:connector-curvature="0" />
	<path style="fill:none;stroke:red;stroke-width:1px;stroke-linecap:butt;stroke-linejoin:miter;stroke-opacity:1" d="M 735.272,465.288 722.93,476.087 z" id="boundary" inkscape:connector-curvature="0" />
	<path style="fill:none;stroke:red;stroke-width:1px;stroke-linecap:butt;stroke-linejoin:miter;stroke-opacity:1" d="M 753.785,429.804 761.499,414.376 z" id="boundary" inkscape:connector-curvature="0" />
	<path style="fill:none;stroke:red;stroke-width:1px;stroke-linecap:butt;stroke-linejoin:miter;stroke-opacity:1" d="M 761.499,414.376 773.841,403.577 z" id="boundary" inkscape:connector-curvature="0" />
	<path style="fill:none;stroke:red;stroke-width:1px;stroke-linecap:butt;stroke-linejoin:miter;stroke-opacity:1" d="M 753.785,429.804 742.986,449.86 z" id="boundary" inkscape:connector-curvature="0" />
	<path style="fill:none;stroke:red;stroke-width:1px;stroke-linecap:butt;stroke-linejoin:miter;stroke-opacity:1" d="M 776.927,298.669 784.641,312.554 z" id="boundary" inkscape:connector-curvature="0" />
	<path style="fill:none;stroke:red;stroke-width:1px;stroke-linecap:butt;stroke-linejoin:miter;stroke-opacity:1" d="M 792.355,326.439 792.355,341.866 z" id="boundary" inkscape:connector-curvature="0" />
	<path style="fill:none;stroke:red;stroke-width:1px;stroke-linecap:butt;stroke-linejoin:miter;stroke-opacity:1" d="M 784.641,312.554 792.355,326.439 z" id="boundary" inkscape:connector-curvature="0" />
	<path style="fill:none;stroke:red;stroke-width:1px;stroke-linecap:butt;stroke-linejoin:miter;stroke-opacity:1" d="M 773.841,403.577 781.555,388.149 z" id="boundary" inkscape:connector-curvature="0" />
	<path style="fill:none;stroke:red;stroke-width:1px;stroke-linecap:butt;stroke-linejoin:miter;stroke-opacity:1" d="M 789.269,372.722 792.355,357.294 z" id="boundary" inkscape:connector-curvature="0" />
	<path style="fill:none;stroke:red;stroke-width:1px;stroke-linecap:butt;stroke-linejoin:miter;stroke-opacity:1" d="M 789.269,372.722 781.555,388.149 z" id="boundary" inkscape:connector-curvature="0" />
	<path style="fill:none;stroke:red;stroke-width:1px;stroke-linecap:butt;stroke-linejoin:miter;stroke-opacity:1" d="M 792.355,341.866 792.355,357.294 z" id="boundary" inkscape:connector-curvature="0" />
	<path style="fill:none;stroke:red;stroke-width:1px;stroke-linecap:butt;stroke-linejoin:miter;stroke-opacity:1" d="M 733.729,559.397 747.614,551.683 z" id="boundary" inkscape:connector-curvature="0" />
	<path style="fill:none;stroke:red;stroke-width:1px;stroke-linecap:butt;stroke-linejoin:miter;stroke-opacity:1" d="M 747.614,551.683 761.499,543.969 z" id="boundary" inkscape:connector-curvature="0" />
	<path style="fill:none;stroke:red;stroke-width:1px;stroke-linecap:butt;stroke-linejoin:miter;stroke-opacity:1" d="M 776.927,543.969 761.499,543.969 z" id="boundary" inkscape:connector-curvature="0" />
	<path style="fill:none;stroke:red;stroke-width:1px;stroke-linecap:butt;stroke-linejoin:miter;stroke-opacity:1" d="M 738.358,576.367 752.243,568.653 z" id="boundary" inkscape:connector-curvature="0" />
	<path style="fill:none;stroke:red;stroke-width:1px;stroke-linecap:butt;stroke-linejoin:miter;stroke-opacity:1" d="M 766.128,560.939 780.012,568.653 z" id="boundary" inkscape:connector-curvature="0" />
	<path style="fill:none;stroke:red;stroke-width:1px;stroke-linecap:butt;stroke-linejoin:miter;stroke-opacity:1" d="M 752.243,568.653 766.128,560.939 z" id="boundary" inkscape:connector-curvature="0" />
	<path style="fill:none;stroke:red;stroke-width:1px;stroke-linecap:butt;stroke-linejoin:miter;stroke-opacity:1" d="M 776.927,543.969 790.812,551.683 z" id="boundary" inkscape:connector-curvature="0" />
	<path style="fill:none;stroke:red;stroke-width:1px;stroke-linecap:butt;stroke-linejoin:miter;stroke-opacity:1" d="M 780.012,568.653 790.812,580.995 z" id="boundary" inkscape:connector-curvature="0" />
	<path style="fill:none;stroke:red;stroke-width:1px;stroke-linecap:butt;stroke-linejoin:miter;stroke-opacity:1" d="M 790.812,580.995 790.812,596.423 z" id="boundary" inkscape:connector-curvature="0" />
	<path style="fill:none;stroke:red;stroke-width:1px;stroke-linecap:butt;stroke-linejoin:miter;stroke-opacity:1" d="M 803.154,560.939 807.782,576.367 z" id="boundary" inkscape:connector-curvature="0" />
	<path style="fill:none;stroke:red;stroke-width:1px;stroke-linecap:butt;stroke-linejoin:miter;stroke-opacity:1" d="M 803.154,560.939 790.812,551.683 z" id="boundary" inkscape:connector-curvature="0" />
	<path style="fill:none;stroke:red;stroke-width:1px;stroke-linecap:butt;stroke-linejoin:miter;stroke-opacity:1" d="M 807.782,576.367 807.782,591.795 z" id="boundary" inkscape:connector-curvature="0" />
	<path style="fill:none;stroke:red;stroke-width:1px;stroke-linecap:butt;stroke-linejoin:miter;stroke-opacity:1" d="M 783.098,610.308 790.812,596.423 z" id="boundary" inkscape:connector-curvature="0" />
	<path style="fill:none;stroke:red;stroke-width:1px;stroke-linecap:butt;stroke-linejoin:miter;stroke-opacity:1" d="M 790.812,596.423 800.068,608.765 z" id="boundary" inkscape:connector-curvature="0" />
	<path style="fill:none;stroke:red;stroke-width:1px;stroke-linecap:butt;stroke-linejoin:miter;stroke-opacity:1" d="M 790.812,596.423 807.782,591.795 z" id="boundary" inkscape:connector-curvature="0" />
	<path style="fill:none;stroke:red;stroke-width:1px;stroke-linecap:butt;stroke-linejoin:miter;stroke-opacity:1" d="M 800.068,608.765 790.812,624.193 z" id="boundary" inkscape:connector-curvature="0" />
	<path style="fill:none;stroke:red;stroke-width:1px;stroke-linecap:butt;stroke-linejoin:miter;stroke-opacity:1" d="M 790.812,624.193 783.098,610.308 z" id="boundary" inkscape:connector-curvature="0" />
	<path style="fill:none;stroke:red;stroke-width:1px;stroke-linecap:butt;stroke-linejoin:miter;stroke-opacity:1" d="M 607.222,630.364 594.88,644.249 z" id="boundary" inkscape:connector-curvature="0" />
	<path style="fill:none;stroke:red;stroke-width:1px;stroke-linecap:butt;stroke-linejoin:miter;stroke-opacity:1" d="M 594.88,644.249 579.453,651.963 z" id="boundary" inkscape:connector-curvature="0" />
	<path style="fill:none;stroke:red;stroke-width:1px;stroke-linecap:butt;stroke-linejoin:miter;stroke-opacity:1" d="M 665.848,891.092 651.963,898.806 z" id="boundary" inkscape:connector-curvature="0" />
	<path style="fill:none;stroke:red;stroke-width:1px;stroke-linecap:butt;stroke-linejoin:miter;stroke-opacity:1" d="M 651.963,898.806 636.535,903.434 z" id="boundary" inkscape:connector-curvature="0" />
	<path style="fill:none;stroke:red;stroke-width:1px;stroke-linecap:butt;stroke-linejoin:miter;stroke-opacity:1" d="M 692.075,878.75 681.275,891.092 z" id="boundary" inkscape:connector-curvature="0" />
	<path style="fill:none;stroke:red;stroke-width:1px;stroke-linecap:butt;stroke-linejoin:miter;stroke-opacity:1" d="M 681.275,891.092 665.848,891.092 z" id="boundary" inkscape:connector-curvature="0" />
	<path style="fill:none;stroke:red;stroke-width:1px;stroke-linecap:butt;stroke-linejoin:miter;stroke-opacity:1" d="M 682.818,641.163 682.818,656.591 z" id="boundary" inkscape:connector-curvature="0" />
	<path style="fill:none;stroke:red;stroke-width:1px;stroke-linecap:butt;stroke-linejoin:miter;stroke-opacity:1" d="M 682.818,656.591 682.818,672.019 z" id="boundary" inkscape:connector-curvature="0" />
	<path style="fill:none;stroke:red;stroke-width:1px;stroke-linecap:butt;stroke-linejoin:miter;stroke-opacity:1" d="M 690.532,685.904 682.818,672.019 z" id="boundary" inkscape:connector-curvature="0" />
	<path style="fill:none;stroke:red;stroke-width:1px;stroke-linecap:butt;stroke-linejoin:miter;stroke-opacity:1" d="M 699.788,863.322 692.075,878.75 z" id="boundary" inkscape:connector-curvature="0" />
	<path style="fill:none;stroke:red;stroke-width:1px;stroke-linecap:butt;stroke-linejoin:miter;stroke-opacity:1" d="M 698.246,699.788 698.246,715.216 z" id="boundary" inkscape:connector-curvature="0" />
	<path style="fill:none;stroke:red;stroke-width:1px;stroke-linecap:butt;stroke-linejoin:miter;stroke-opacity:1" d="M 690.532,685.904 698.246,699.788 z" id="boundary" inkscape:connector-curvature="0" />
	<path style="fill:none;stroke:red;stroke-width:1px;stroke-linecap:butt;stroke-linejoin:miter;stroke-opacity:1" d="M 682.818,641.163 682.818,625.736 z" id="boundary" inkscape:connector-curvature="0" />
	<path style="fill:none;stroke:red;stroke-width:1px;stroke-linecap:butt;stroke-linejoin:miter;stroke-opacity:1" d="M 698.246,926.575 682.818,931.204 z" id="boundary" inkscape:connector-curvature="0" />
	<path style="fill:none;stroke:red;stroke-width:1px;stroke-linecap:butt;stroke-linejoin:miter;stroke-opacity:1" d="M 590.252,906.519 605.68,906.519 z" id="boundary" inkscape:connector-curvature="0" />
	<path style="fill:none;stroke:red;stroke-width:1px;stroke-linecap:butt;stroke-linejoin:miter;stroke-opacity:1" d="M 590.252,906.519 574.824,901.891 z" id="boundary" inkscape:connector-curvature="0" />
	<path style="fill:none;stroke:red;stroke-width:1px;stroke-linecap:butt;stroke-linejoin:miter;stroke-opacity:1" d="M 636.535,903.434 621.107,906.519 z" id="boundary" inkscape:connector-curvature="0" />
	<path style="fill:none;stroke:red;stroke-width:1px;stroke-linecap:butt;stroke-linejoin:miter;stroke-opacity:1" d="M 621.107,906.519 605.68,906.519 z" id="boundary" inkscape:connector-curvature="0" />
	<path style="fill:none;stroke:red;stroke-width:1px;stroke-linecap:butt;stroke-linejoin:miter;stroke-opacity:1" d="M 580.995,954.345 594.88,962.059 z" id="boundary" inkscape:connector-curvature="0" />
	<path style="fill:none;stroke:red;stroke-width:1px;stroke-linecap:butt;stroke-linejoin:miter;stroke-opacity:1" d="M 565.568,954.345 580.995,954.345 z" id="boundary" inkscape:connector-curvature="0" />
	<path style="fill:none;stroke:red;stroke-width:1px;stroke-linecap:butt;stroke-linejoin:miter;stroke-opacity:1" d="M 608.765,969.773 624.193,974.401 z" id="boundary" inkscape:connector-curvature="0" />
	<path style="fill:none;stroke:red;stroke-width:1px;stroke-linecap:butt;stroke-linejoin:miter;stroke-opacity:1" d="M 624.193,974.401 638.078,982.115 z" id="boundary" inkscape:connector-curvature="0" />
	<path style="fill:none;stroke:red;stroke-width:1px;stroke-linecap:butt;stroke-linejoin:miter;stroke-opacity:1" d="M 608.765,969.773 594.88,962.059 z" id="boundary" inkscape:connector-curvature="0" />
	<path style="fill:none;stroke:red;stroke-width:1px;stroke-linecap:butt;stroke-linejoin:miter;stroke-opacity:1" d="M 672.019,954.345 668.933,938.918 z" id="boundary" inkscape:connector-curvature="0" />
	<path style="fill:none;stroke:red;stroke-width:1px;stroke-linecap:butt;stroke-linejoin:miter;stroke-opacity:1" d="M 668.933,938.918 682.818,931.204 z" id="boundary" inkscape:connector-curvature="0" />
	<path style="fill:none;stroke:red;stroke-width:1px;stroke-linecap:butt;stroke-linejoin:miter;stroke-opacity:1" d="M 684.361,965.145 672.019,954.345 z" id="boundary" inkscape:connector-curvature="0" />
	<path style="fill:none;stroke:red;stroke-width:1px;stroke-linecap:butt;stroke-linejoin:miter;stroke-opacity:1" d="M 638.078,982.115 653.505,985.201 z" id="boundary" inkscape:connector-curvature="0" />
	<path style="fill:none;stroke:red;stroke-width:1px;stroke-linecap:butt;stroke-linejoin:miter;stroke-opacity:1" d="M 653.505,985.201 667.39,992.914 z" id="boundary" inkscape:connector-curvature="0" />
	<path style="fill:none;stroke:red;stroke-width:1px;stroke-linecap:butt;stroke-linejoin:miter;stroke-opacity:1" d="M 667.39,992.914 682.818,992.914 z" id="boundary" inkscape:connector-curvature="0" />
	<path style="fill:none;stroke:red;stroke-width:1px;stroke-linecap:butt;stroke-linejoin:miter;stroke-opacity:1" d="M 682.818,992.914 698.246,996 z" id="boundary" inkscape:connector-curvature="0" />
	<path style="fill:none;stroke:red;stroke-width:1px;stroke-linecap:butt;stroke-linejoin:miter;stroke-opacity:1" d="M 684.361,965.145 698.246,972.858 z" id="boundary" inkscape:connector-curvature="0" />
	<path style="fill:none;stroke:red;stroke-width:1px;stroke-linecap:butt;stroke-linejoin:miter;stroke-opacity:1" d="M 707.502,645.792 707.502,661.219 z" id="boundary" inkscape:connector-curvature="0" />
	<path style="fill:none;stroke:red;stroke-width:1px;stroke-linecap:butt;stroke-linejoin:miter;stroke-opacity:1" d="M 790.812,624.193 715.216,675.104 z" id="boundary" inkscape:connector-curvature="0" />
	<path style="fill:none;stroke:red;stroke-width:1px;stroke-linecap:butt;stroke-linejoin:miter;stroke-opacity:1" d="M 715.216,675.104 722.93,688.989 z" id="boundary" inkscape:connector-curvature="0" />
	<path style="fill:none;stroke:red;stroke-width:1px;stroke-linecap:butt;stroke-linejoin:miter;stroke-opacity:1" d="M 715.216,675.104 707.502,661.219 z" id="boundary" inkscape:connector-curvature="0" />
	<path style="fill:none;stroke:red;stroke-width:1px;stroke-linecap:butt;stroke-linejoin:miter;stroke-opacity:1" d="M 707.502,645.792 707.502,630.364 z" id="boundary" inkscape:connector-curvature="0" />
	<path style="fill:none;stroke:red;stroke-width:1px;stroke-linecap:butt;stroke-linejoin:miter;stroke-opacity:1" d="M 713.673,775.384 713.673,790.812 z" id="boundary" inkscape:connector-curvature="0" />
	<path style="fill:none;stroke:red;stroke-width:1px;stroke-linecap:butt;stroke-linejoin:miter;stroke-opacity:1" d="M 709.045,744.529 705.96,729.101 z" id="boundary" inkscape:connector-curvature="0" />
	<path style="fill:none;stroke:red;stroke-width:1px;stroke-linecap:butt;stroke-linejoin:miter;stroke-opacity:1" d="M 713.673,759.956 713.673,775.384 z" id="boundary" inkscape:connector-curvature="0" />
	<path style="fill:none;stroke:red;stroke-width:1px;stroke-linecap:butt;stroke-linejoin:miter;stroke-opacity:1" d="M 709.045,744.529 713.673,759.956 z" id="boundary" inkscape:connector-curvature="0" />
	<path style="fill:none;stroke:red;stroke-width:1px;stroke-linecap:butt;stroke-linejoin:miter;stroke-opacity:1" d="M 713.673,790.812 713.673,806.24 z" id="boundary" inkscape:connector-curvature="0" />
	<path style="fill:none;stroke:red;stroke-width:1px;stroke-linecap:butt;stroke-linejoin:miter;stroke-opacity:1" d="M 705.96,729.101 698.246,715.216 z" id="boundary" inkscape:connector-curvature="0" />
	<path style="fill:none;stroke:red;stroke-width:1px;stroke-linecap:butt;stroke-linejoin:miter;stroke-opacity:1" d="M 722.93,688.989 722.93,704.417 z" id="boundary" inkscape:connector-curvature="0" />
	<path style="fill:none;stroke:red;stroke-width:1px;stroke-linecap:butt;stroke-linejoin:miter;stroke-opacity:1" d="M 730.644,718.302 722.93,704.417 z" id="boundary" inkscape:connector-curvature="0" />
	<path style="fill:none;stroke:red;stroke-width:1px;stroke-linecap:butt;stroke-linejoin:miter;stroke-opacity:1" d="M 738.358,732.187 730.644,718.302 z" id="boundary" inkscape:connector-curvature="0" />
	<path style="fill:none;stroke:red;stroke-width:1px;stroke-linecap:butt;stroke-linejoin:miter;stroke-opacity:1" d="M 742.986,747.614 746.072,763.042 z" id="boundary" inkscape:connector-curvature="0" />
	<path style="fill:none;stroke:red;stroke-width:1px;stroke-linecap:butt;stroke-linejoin:miter;stroke-opacity:1" d="M 742.986,747.614 738.358,732.187 z" id="boundary" inkscape:connector-curvature="0" />
	<path style="fill:none;stroke:red;stroke-width:1px;stroke-linecap:butt;stroke-linejoin:miter;stroke-opacity:1" d="M 746.072,763.042 753.785,776.927 z" id="boundary" inkscape:connector-curvature="0" />
	<path style="fill:none;stroke:red;stroke-width:1px;stroke-linecap:butt;stroke-linejoin:miter;stroke-opacity:1" d="M 722.93,900.348 710.588,914.233 z" id="boundary" inkscape:connector-curvature="0" />
	<path style="fill:none;stroke:red;stroke-width:1px;stroke-linecap:butt;stroke-linejoin:miter;stroke-opacity:1" d="M 705.96,841.723 699.788,863.322 z" id="boundary" inkscape:connector-curvature="0" />
	<path style="fill:none;stroke:red;stroke-width:1px;stroke-linecap:butt;stroke-linejoin:miter;stroke-opacity:1" d="M 698.246,926.575 710.588,914.233 z" id="boundary" inkscape:connector-curvature="0" />
	<path style="fill:none;stroke:red;stroke-width:1px;stroke-linecap:butt;stroke-linejoin:miter;stroke-opacity:1" d="M 722.93,900.348 698.246,996 z" id="boundary" inkscape:connector-curvature="0" />
	<path style="fill:none;stroke:red;stroke-width:1px;stroke-linecap:butt;stroke-linejoin:miter;stroke-opacity:1" d="M 698.246,996 698.246,972.858 z" id="boundary" inkscape:connector-curvature="0" />
	<path style="fill:none;stroke:red;stroke-width:1px;stroke-linecap:butt;stroke-linejoin:miter;stroke-opacity:1" d="M 713.673,806.24 713.673,821.667 z" id="boundary" inkscape:connector-curvature="0" />
	<path style="fill:none;stroke:red;stroke-width:1px;stroke-linecap:butt;stroke-linejoin:miter;stroke-opacity:1" d="M 713.673,821.667 705.96,841.723 z" id="boundary" inkscape:connector-curvature="0" />
	<path style="fill:none;stroke:red;stroke-width:1px;stroke-linecap:butt;stroke-linejoin:miter;stroke-opacity:1" d="M 753.785,792.355 753.785,807.782 z" id="boundary" inkscape:connector-curvature="0" />
	<path style="fill:none;stroke:red;stroke-width:1px;stroke-linecap:butt;stroke-linejoin:miter;stroke-opacity:1" d="M 753.785,807.782 753.785,823.21 z" id="boundary" inkscape:connector-curvature="0" />
	<path style="fill:none;stroke:red;stroke-width:1px;stroke-linecap:butt;stroke-linejoin:miter;stroke-opacity:1" d="M 753.785,792.355 753.785,776.927 z" id="boundary" inkscape:connector-curvature="0" />
	<path style="fill:none;stroke:red;stroke-width:1px;stroke-linecap:butt;stroke-linejoin:miter;stroke-opacity:1" d="M 753.785,823.21 746.072,846.351 z" id="boundary" inkscape:connector-curvature="0" />
	<path style="fill:none;stroke:red;stroke-width:1px;stroke-linecap:butt;stroke-linejoin:miter;stroke-opacity:1" d="M 722.93,900.348 730.644,884.921 z" id="boundary" inkscape:connector-curvature="0" />
	<path style="fill:none;stroke:red;stroke-width:1px;stroke-linecap:butt;stroke-linejoin:miter;stroke-opacity:1" d="M 738.358,861.779 746.072,846.351 z" id="boundary" inkscape:connector-curvature="0" />
	<path style="fill:none;stroke:red;stroke-width:1px;stroke-linecap:butt;stroke-linejoin:miter;stroke-opacity:1" d="M 730.644,884.921 738.358,861.779 z" id="boundary" inkscape:connector-curvature="0" />
	<circle cx="4" cy="317.182" r="4" fill="#0" id="circle0"/>
	<circle cx="4" cy="332.61" r="4" fill="#0" id="circle1"/>
	<circle cx="4" cy="348.037" r="4" fill="#0" id="circle2"/>
	<circle cx="11.7138" cy="294.04" r="4" fill="#0" id="circle3"/>
	<circle cx="11.7138" cy="361.922" r="4" fill="#0" id="circle4"/>
	<circle cx="19.4277" cy="278.613" r="4" fill="#0" id="circle5"/>
	<circle cx="19.4277" cy="375.807" r="4" fill="#0" id="circle6"/>
	<circle cx="27.1415" cy="389.692" r="4" fill="#0" id="circle7"/>
	<circle cx="31.7698" cy="266.271" r="4" fill="#0" id="circle8"/>
	<circle cx="34.8554" cy="403.577" r="4" fill="#0" id="circle9"/>
	<circle cx="42.5692" cy="417.462" r="4" fill="#0" id="circle10"/>
	<circle cx="44.112" cy="253.928" r="4" fill="#0" id="circle11"/>
	<circle cx="50.283" cy="431.347" r="4" fill="#0" id="circle12"/>
	<circle cx="56.4541" cy="243.129" r="4" fill="#0" id="circle13"/>
	<circle cx="57.9969" cy="445.232" r="4" fill="#0" id="circle14"/>
	<circle cx="65.7107" cy="459.117" r="4" fill="#0" id="circle15"/>
	<circle cx="67.2535" cy="230.787" r="4" fill="#0" id="circle16"/>
	<circle cx="74.9673" cy="471.459" r="4" fill="#0" id="circle17"/>
	<circle cx="79.5956" cy="219.988" r="4" fill="#0" id="circle18"/>
	<circle cx="81.1384" cy="486.886" r="4" fill="#0" id="circle19"/>
	<circle cx="88.8523" cy="500.771" r="4" fill="#0" id="circle20"/>
	<circle cx="93.4806" cy="212.274" r="4" fill="#0" id="circle21"/>
	<circle cx="99.6516" cy="513.114" r="4" fill="#0" id="circle22"/>
	<circle cx="105.823" cy="199.932" r="4" fill="#0" id="circle23"/>
	<circle cx="107.365" cy="526.998" r="4" fill="#0" id="circle24"/>
	<circle cx="113.537" cy="542.426" r="4" fill="#0" id="circle25"/>
	<circle cx="121.25" cy="192.218" r="4" fill="#0" id="circle26"/>
	<circle cx="125.879" cy="553.226" r="4" fill="#0" id="circle27"/>
	<circle cx="132.05" cy="568.653" r="4" fill="#0" id="circle28"/>
	<circle cx="136.678" cy="184.504" r="4" fill="#0" id="circle29"/>
	<circle cx="144.392" cy="579.453" r="4" fill="#0" id="circle30"/>
	<circle cx="149.02" cy="173.705" r="4" fill="#0" id="circle31"/>
	<circle cx="155.191" cy="591.795" r="4" fill="#0" id="circle32"/>
	<circle cx="162.905" cy="165.991" r="4" fill="#0" id="circle33"/>
	<circle cx="167.533" cy="602.594" r="4" fill="#0" id="circle34"/>
	<circle cx="178.333" cy="158.277" r="4" fill="#0" id="circle35"/>
	<circle cx="178.333" cy="614.936" r="4" fill="#0" id="circle36"/>
	<circle cx="190.675" cy="625.736" r="4" fill="#0" id="circle37"/>
	<circle cx="192.218" cy="150.563" r="4" fill="#0" id="circle38"/>
	<circle cx="201.474" cy="638.078" r="4" fill="#0" id="circle39"/>
	<circle cx="204.56" cy="139.764" r="4" fill="#0" id="circle40"/>
	<circle cx="213.816" cy="648.877" r="4" fill="#0" id="circle41"/>
	<circle cx="216.902" cy="127.421" r="4" fill="#0" id="circle42"/>
	<circle cx="224.616" cy="661.219" r="4" fill="#0" id="circle43"/>
	<circle cx="232.33" cy="119.708" r="4" fill="#0" id="circle44"/>
	<circle cx="238.501" cy="668.933" r="4" fill="#0" id="circle45"/>
	<circle cx="243.129" cy="710.588" r="4" fill="#0" id="circle46"/>
	<circle cx="243.129" cy="726.016" r="4" fill="#0" id="circle47"/>
	<circle cx="246.215" cy="111.994" r="4" fill="#0" id="circle48"/>
	<circle cx="250.843" cy="678.19" r="4" fill="#0" id="circle49"/>
	<circle cx="250.843" cy="693.617" r="4" fill="#0" id="circle50"/>
	<circle cx="252.386" cy="738.358" r="4" fill="#0" id="circle51"/>
	<circle cx="260.1" cy="104.28" r="4" fill="#0" id="circle52"/>
	<circle cx="266.271" cy="746.072" r="4" fill="#0" id="circle53"/>
	<circle cx="273.984" cy="93.4806" r="4" fill="#0" id="circle54"/>
	<circle cx="281.698" cy="746.072" r="4" fill="#0" id="circle55"/>
	<circle cx="289.412" cy="85.7667" r="4" fill="#0" id="circle56"/>
	<circle cx="297.126" cy="746.072" r="4" fill="#0" id="circle57"/>
	<circle cx="304.84" cy="78.0529" r="4" fill="#0" id="circle58"/>
	<circle cx="311.011" cy="753.785" r="4" fill="#0" id="circle59"/>
	<circle cx="317.182" cy="65.7107" r="4" fill="#0" id="circle60"/>
	<circle cx="324.896" cy="761.499" r="4" fill="#0" id="circle61"/>
	<circle cx="332.61" cy="57.9969" r="4" fill="#0" id="circle62"/>
	<circle cx="340.323" cy="761.499" r="4" fill="#0" id="circle63"/>
	<circle cx="348.037" cy="50.283" r="4" fill="#0" id="circle64"/>
	<circle cx="354.208" cy="769.213" r="4" fill="#0" id="circle65"/>
	<circle cx="358.837" cy="784.641" r="4" fill="#0" id="circle66"/>
	<circle cx="360.379" cy="37.9409" r="4" fill="#0" id="circle67"/>
	<circle cx="366.551" cy="798.526" r="4" fill="#0" id="circle68"/>
	<circle cx="369.636" cy="813.953" r="4" fill="#0" id="circle69"/>
	<circle cx="372.722" cy="27.1415" r="4" fill="#0" id="circle70"/>
	<circle cx="377.35" cy="827.838" r="4" fill="#0" id="circle71"/>
	<circle cx="383.521" cy="14.7994" r="4" fill="#0" id="circle72"/>
	<circle cx="383.521" cy="843.266" r="4" fill="#0" id="circle73"/>
	<circle cx="391.235" cy="857.151" r="4" fill="#0" id="circle74"/>
	<circle cx="395.863" cy="4" r="4" fill="#0" id="circle75"/>
	<circle cx="402.034" cy="869.493" r="4" fill="#0" id="circle76"/>
	<circle cx="409.748" cy="11.7138" r="4" fill="#0" id="circle77"/>
	<circle cx="414.376" cy="880.292" r="4" fill="#0" id="circle78"/>
	<circle cx="423.633" cy="19.4277" r="4" fill="#0" id="circle79"/>
	<circle cx="425.176" cy="892.635" r="4" fill="#0" id="circle80"/>
	<circle cx="435.975" cy="30.2271" r="4" fill="#0" id="circle81"/>
	<circle cx="437.518" cy="903.434" r="4" fill="#0" id="circle82"/>
	<circle cx="445.232" cy="42.5692" r="4" fill="#0" id="circle83"/>
	<circle cx="448.317" cy="915.776" r="4" fill="#0" id="circle84"/>
	<circle cx="452.946" cy="753.785" r="4" fill="#0" id="circle85"/>
	<circle cx="452.946" cy="769.213" r="4" fill="#0" id="circle86"/>
	<circle cx="459.117" cy="50.283" r="4" fill="#0" id="circle87"/>
	<circle cx="460.659" cy="783.098" r="4" fill="#0" id="circle88"/>
	<circle cx="460.659" cy="798.526" r="4" fill="#0" id="circle89"/>
	<circle cx="462.202" cy="923.49" r="4" fill="#0" id="circle90"/>
	<circle cx="468.373" cy="753.785" r="4" fill="#0" id="circle91"/>
	<circle cx="468.373" cy="812.411" r="4" fill="#0" id="circle92"/>
	<circle cx="471.459" cy="59.5397" r="4" fill="#0" id="circle93"/>
	<circle cx="476.087" cy="826.295" r="4" fill="#0" id="circle94"/>
	<circle cx="477.63" cy="928.118" r="4" fill="#0" id="circle95"/>
	<circle cx="482.258" cy="841.723" r="4" fill="#0" id="circle96"/>
	<circle cx="483.801" cy="753.785" r="4" fill="#0" id="circle97"/>
	<circle cx="486.886" cy="65.7107" r="4" fill="#0" id="circle98"/>
	<circle cx="493.058" cy="931.204" r="4" fill="#0" id="circle99"/>
	<circle cx="494.6" cy="852.523" r="4" fill="#0" id="circle100"/>
	<circle cx="497.686" cy="78.0529" r="4" fill="#0" id="circle101"/>
	<circle cx="499.229" cy="753.785" r="4" fill="#0" id="circle102"/>
	<circle cx="505.4" cy="864.865" r="4" fill="#0" id="circle103"/>
	<circle cx="506.942" cy="938.918" r="4" fill="#0" id="circle104"/>
	<circle cx="513.114" cy="84.224" r="4" fill="#0" id="circle105"/>
	<circle cx="513.114" cy="746.072" r="4" fill="#0" id="circle106"/>
	<circle cx="517.742" cy="875.664" r="4" fill="#0" id="circle107"/>
	<circle cx="520.827" cy="946.631" r="4" fill="#0" id="circle108"/>
	<circle cx="526.998" cy="91.9378" r="4" fill="#0" id="circle109"/>
	<circle cx="528.541" cy="741.443" r="4" fill="#0" id="circle110"/>
	<circle cx="531.627" cy="883.378" r="4" fill="#0" id="circle111"/>
	<circle cx="536.255" cy="946.631" r="4" fill="#0" id="circle112"/>
	<circle cx="537.798" cy="104.28" r="4" fill="#0" id="circle113"/>
	<circle cx="537.798" cy="676.647" r="4" fill="#0" id="circle114"/>
	<circle cx="537.798" cy="692.075" r="4" fill="#0" id="circle115"/>
	<circle cx="537.798" cy="722.93" r="4" fill="#0" id="circle116"/>
	<circle cx="545.512" cy="705.96" r="4" fill="#0" id="circle117"/>
	<circle cx="545.512" cy="891.092" r="4" fill="#0" id="circle118"/>
	<circle cx="550.14" cy="113.537" r="4" fill="#0" id="circle119"/>
	<circle cx="550.14" cy="954.345" r="4" fill="#0" id="circle120"/>
	<circle cx="551.683" cy="668.933" r="4" fill="#0" id="circle121"/>
	<circle cx="559.397" cy="898.806" r="4" fill="#0" id="circle122"/>
	<circle cx="560.939" cy="125.879" r="4" fill="#0" id="circle123"/>
	<circle cx="564.025" cy="659.677" r="4" fill="#0" id="circle124"/>
	<circle cx="565.568" cy="954.345" r="4" fill="#0" id="circle125"/>
	<circle cx="573.281" cy="136.678" r="4" fill="#0" id="circle126"/>
	<circle cx="574.824" cy="901.891" r="4" fill="#0" id="circle127"/>
	<circle cx="579.453" cy="651.963" r="4" fill="#0" id="circle128"/>
	<circle cx="580.995" cy="954.345" r="4" fill="#0" id="circle129"/>
	<circle cx="587.166" cy="144.392" r="4" fill="#0" id="circle130"/>
	<circle cx="590.252" cy="906.519" r="4" fill="#0" id="circle131"/>
	<circle cx="594.88" cy="644.249" r="4" fill="#0" id="circle132"/>
	<circle cx="594.88" cy="962.059" r="4" fill="#0" id="circle133"/>
	<circle cx="599.509" cy="155.191" r="4" fill="#0" id="circle134"/>
	<circle cx="605.68" cy="906.519" r="4" fill="#0" id="circle135"/>
	<circle cx="607.222" cy="630.364" r="4" fill="#0" id="circle136"/>
	<circle cx="608.765" cy="969.773" r="4" fill="#0" id="circle137"/>
	<circle cx="613.393" cy="162.905" r="4" fill="#0" id="circle138"/>
	<circle cx="619.565" cy="619.565" r="4" fill="#0" id="circle139"/>
	<circle cx="621.107" cy="906.519" r="4" fill="#0" id="circle140"/>
	<circle cx="624.193" cy="974.401" r="4" fill="#0" id="circle141"/>
	<circle cx="628.821" cy="169.076" r="4" fill="#0" id="circle142"/>
	<circle cx="630.364" cy="607.222" r="4" fill="#0" id="circle143"/>
	<circle cx="636.535" cy="903.434" r="4" fill="#0" id="circle144"/>
	<circle cx="638.078" cy="181.418" r="4" fill="#0" id="circle145"/>
	<circle cx="638.078" cy="982.115" r="4" fill="#0" id="circle146"/>
	<circle cx="642.706" cy="596.423" r="4" fill="#0" id="circle147"/>
	<circle cx="651.963" cy="898.806" r="4" fill="#0" id="circle148"/>
	<circle cx="653.505" cy="181.418" r="4" fill="#0" id="circle149"/>
	<circle cx="653.505" cy="584.081" r="4" fill="#0" id="circle150"/>
	<circle cx="653.505" cy="985.201" r="4" fill="#0" id="circle151"/>
	<circle cx="665.848" cy="573.281" r="4" fill="#0" id="circle152"/>
	<circle cx="665.848" cy="891.092" r="4" fill="#0" id="circle153"/>
	<circle cx="667.39" cy="189.132" r="4" fill="#0" id="circle154"/>
	<circle cx="667.39" cy="992.914" r="4" fill="#0" id="circle155"/>
	<circle cx="668.933" cy="938.918" r="4" fill="#0" id="circle156"/>
	<circle cx="672.019" cy="954.345" r="4" fill="#0" id="circle157"/>
	<circle cx="673.561" cy="557.854" r="4" fill="#0" id="circle158"/>
	<circle cx="681.275" cy="196.846" r="4" fill="#0" id="circle159"/>
	<circle cx="681.275" cy="542.426" r="4" fill="#0" id="circle160"/>
	<circle cx="681.275" cy="891.092" r="4" fill="#0" id="circle161"/>
	<circle cx="682.818" cy="625.736" r="4" fill="#0" id="circle162"/>
	<circle cx="682.818" cy="641.163" r="4" fill="#0" id="circle163"/>
	<circle cx="682.818" cy="656.591" r="4" fill="#0" id="circle164"/>
	<circle cx="682.818" cy="672.019" r="4" fill="#0" id="circle165"/>
	<circle cx="682.818" cy="931.204" r="4" fill="#0" id="circle166"/>
	<circle cx="682.818" cy="992.914" r="4" fill="#0" id="circle167"/>
	<circle cx="684.361" cy="965.145" r="4" fill="#0" id="circle168"/>
	<circle cx="690.532" cy="610.308" r="4" fill="#0" id="circle169"/>
	<circle cx="690.532" cy="685.904" r="4" fill="#0" id="circle170"/>
	<circle cx="692.075" cy="522.37" r="4" fill="#0" id="circle171"/>
	<circle cx="692.075" cy="878.75" r="4" fill="#0" id="circle172"/>
	<circle cx="695.16" cy="204.56" r="4" fill="#0" id="circle173"/>
	<circle cx="698.246" cy="594.88" r="4" fill="#0" id="circle174"/>
	<circle cx="698.246" cy="699.788" r="4" fill="#0" id="circle175"/>
	<circle cx="698.246" cy="715.216" r="4" fill="#0" id="circle176"/>
	<circle cx="698.246" cy="926.575" r="4" fill="#0" id="circle177"/>
	<circle cx="698.246" cy="972.858" r="4" fill="#0" id="circle178"/>
	<circle cx="698.246" cy="996" r="4" fill="#0" id="circle179"/>
	<circle cx="699.788" cy="506.942" r="4" fill="#0" id="circle180"/>
	<circle cx="699.788" cy="863.322" r="4" fill="#0" id="circle181"/>
	<circle cx="705.96" cy="579.453" r="4" fill="#0" id="circle182"/>
	<circle cx="705.96" cy="729.101" r="4" fill="#0" id="circle183"/>
	<circle cx="705.96" cy="841.723" r="4" fill="#0" id="circle184"/>
	<circle cx="707.502" cy="614.936" r="4" fill="#0" id="circle185"/>
	<circle cx="707.502" cy="630.364" r="4" fill="#0" id="circle186"/>
	<circle cx="707.502" cy="645.792" r="4" fill="#0" id="circle187"/>
	<circle cx="707.502" cy="661.219" r="4" fill="#0" id="circle188"/>
	<circle cx="709.045" cy="212.274" r="4" fill="#0" id="circle189"/>
	<circle cx="709.045" cy="744.529" r="4" fill="#0" id="circle190"/>
	<circle cx="710.588" cy="914.233" r="4" fill="#0" id="circle191"/>
	<circle cx="712.131" cy="496.143" r="4" fill="#0" id="circle192"/>
	<circle cx="713.673" cy="759.956" r="4" fill="#0" id="circle193"/>
	<circle cx="713.673" cy="775.384" r="4" fill="#0" id="circle194"/>
	<circle cx="713.673" cy="790.812" r="4" fill="#0" id="circle195"/>
	<circle cx="713.673" cy="806.24" r="4" fill="#0" id="circle196"/>
	<circle cx="713.673" cy="821.667" r="4" fill="#0" id="circle197"/>
	<circle cx="715.216" cy="599.509" r="4" fill="#0" id="circle198"/>
	<circle cx="715.216" cy="675.104" r="4" fill="#0" id="circle199"/>
	<circle cx="718.302" cy="567.11" r="4" fill="#0" id="circle200"/>
	<circle cx="721.387" cy="223.073" r="4" fill="#0" id="circle201"/>
	<circle cx="722.93" cy="476.087" r="4" fill="#0" id="circle202"/>
	<circle cx="722.93" cy="688.989" r="4" fill="#0" id="circle203"/>
	<circle cx="722.93" cy="704.417" r="4" fill="#0" id="circle204"/>
	<circle cx="722.93" cy="900.348" r="4" fill="#0" id="circle205"/>
	<circle cx="727.558" cy="588.709" r="4" fill="#0" id="circle206"/>
	<circle cx="730.644" cy="235.415" r="4" fill="#0" id="circle207"/>
	<circle cx="730.644" cy="718.302" r="4" fill="#0" id="circle208"/>
	<circle cx="730.644" cy="884.921" r="4" fill="#0" id="circle209"/>
	<circle cx="733.729" cy="559.397" r="4" fill="#0" id="circle210"/>
	<circle cx="735.272" cy="465.288" r="4" fill="#0" id="circle211"/>
	<circle cx="738.358" cy="576.367" r="4" fill="#0" id="circle212"/>
	<circle cx="738.358" cy="732.187" r="4" fill="#0" id="circle213"/>
	<circle cx="738.358" cy="861.779" r="4" fill="#0" id="circle214"/>
	<circle cx="742.986" cy="244.672" r="4" fill="#0" id="circle215"/>
	<circle cx="742.986" cy="449.86" r="4" fill="#0" id="circle216"/>
	<circle cx="742.986" cy="747.614" r="4" fill="#0" id="circle217"/>
	<circle cx="746.072" cy="763.042" r="4" fill="#0" id="circle218"/>
	<circle cx="746.072" cy="846.351" r="4" fill="#0" id="circle219"/>
	<circle cx="747.614" cy="551.683" r="4" fill="#0" id="circle220"/>
	<circle cx="752.243" cy="568.653" r="4" fill="#0" id="circle221"/>
	<circle cx="753.785" cy="257.014" r="4" fill="#0" id="circle222"/>
	<circle cx="753.785" cy="429.804" r="4" fill="#0" id="circle223"/>
	<circle cx="753.785" cy="776.927" r="4" fill="#0" id="circle224"/>
	<circle cx="753.785" cy="792.355" r="4" fill="#0" id="circle225"/>
	<circle cx="753.785" cy="807.782" r="4" fill="#0" id="circle226"/>
	<circle cx="753.785" cy="823.21" r="4" fill="#0" id="circle227"/>
	<circle cx="761.499" cy="270.899" r="4" fill="#0" id="circle228"/>
	<circle cx="761.499" cy="414.376" r="4" fill="#0" id="circle229"/>
	<circle cx="761.499" cy="543.969" r="4" fill="#0" id="circle230"/>
	<circle cx="766.128" cy="560.939" r="4" fill="#0" id="circle231"/>
	<circle cx="767.67" cy="286.327" r="4" fill="#0" id="circle232"/>
	<circle cx="773.841" cy="403.577" r="4" fill="#0" id="circle233"/>
	<circle cx="776.927" cy="298.669" r="4" fill="#0" id="circle234"/>
	<circle cx="776.927" cy="543.969" r="4" fill="#0" id="circle235"/>
	<circle cx="780.012" cy="568.653" r="4" fill="#0" id="circle236"/>
	<circle cx="781.555" cy="388.149" r="4" fill="#0" id="circle237"/>
	<circle cx="783.098" cy="610.308" r="4" fill="#0" id="circle238"/>
	<circle cx="784.641" cy="312.554" r="4" fill="#0" id="circle239"/>
	<circle cx="789.269" cy="372.722" r="4" fill="#0" id="circle240"/>
	<circle cx="790.812" cy="551.683" r="4" fill="#0" id="circle241"/>
	<circle cx="790.812" cy="580.995" r="4" fill="#0" id="circle242"/>
	<circle cx="790.812" cy="596.423" r="4" fill="#0" id="circle243"/>
	<circle cx="790.812" cy="624.193" r="4" fill="#0" id="circle244"/>
	<circle cx="792.355" cy="326.439" r="4" fill="#0" id="circle245"/>
	<circle cx="792.355" cy="341.866" r="4" fill="#0" id="circle246"/>
	<circle cx="792.355" cy="357.294" r="4" fill="#0" id="circle247"/>
	<circle cx="800.068" cy="608.765" r="4" fill="#0" id="circle248"/>
	<circle cx="803.154" cy="560.939" r="4" fill="#0" id="circle249"/>
	<circle cx="807.782" cy="576.367" r="4" fill="#0" id="circle250"/>
	<circle cx="807.782" cy="591.795" r="4" fill="#0" id="circle251"/>
	</g>
</svg>