<?xml version="1.0" encoding="UTF-8" standalone="no"?>
<!-- Created with CurveBenchmark -->
<svg
	xmlns:dc="http://purl.org/dc/elements/1.1/"
	xmlns:cc="http://creativecommons.org/ns#"
	xmlns:rdf="http://www.w3.org/1999/02/22-rdf-syntax-ns#"
	xmlns:svg="http://www.w3.org/2000/svg"
	xmlns="http://www.w3.org/2000/svg"
	xmlns:sodipodi="http://sodipodi.sourceforge.net/DTD/sodipodi-0.dtd"
	xmlns:inkscape="http://www.inkscape.org/namespaces/inkscape"
	width="1000"
	height="1000"
	id="svg2"
	version="1.1"
	sodipodi:docname="manifold/nncrust-fountain-14.png.txt">
<defs
	id="defs4" />
<metadata
	id="metadata7">
	<rdf:RDF>
		<cc:Work
			rdf:about="">
			<dc:format>image/svg+xml</dc:format>
			<dc:type
				rdf:resource="http://purl.org/dc/dcmitype/StillImage" />
			<dc:title></dc:title>
		</cc:Work>
	</rdf:RDF>
</metadata>
<g
	inkscape:label="Layer 1"
	inkscape:groupmode="layer"
	id="layer1">
	<path style="fill:none;stroke:red;stroke-width:1px;stroke-linecap:butt;stroke-linejoin:miter;stroke-opacity:1" d="M 367.861,134.224 372.649,124.649 z" id="boundary" inkscape:connector-curvature="0" />
	<path style="fill:none;stroke:red;stroke-width:1px;stroke-linecap:butt;stroke-linejoin:miter;stroke-opacity:1" d="M 372.649,142.842 367.861,134.224 z" id="boundary" inkscape:connector-curvature="0" />
	<path style="fill:none;stroke:red;stroke-width:1px;stroke-linecap:butt;stroke-linejoin:miter;stroke-opacity:1" d="M 372.649,124.649 382.224,119.861 z" id="boundary" inkscape:connector-curvature="0" />
	<path style="fill:none;stroke:red;stroke-width:1px;stroke-linecap:butt;stroke-linejoin:miter;stroke-opacity:1" d="M 382.224,146.672 372.649,142.842 z" id="boundary" inkscape:connector-curvature="0" />
	<path style="fill:none;stroke:red;stroke-width:1px;stroke-linecap:butt;stroke-linejoin:miter;stroke-opacity:1" d="M 391.799,116.988 382.224,119.861 z" id="boundary" inkscape:connector-curvature="0" />
	<path style="fill:none;stroke:red;stroke-width:1px;stroke-linecap:butt;stroke-linejoin:miter;stroke-opacity:1" d="M 400.417,327.645 391.799,332.432 z" id="boundary" inkscape:connector-curvature="0" />
	<path style="fill:none;stroke:red;stroke-width:1px;stroke-linecap:butt;stroke-linejoin:miter;stroke-opacity:1" d="M 391.799,332.432 382.224,335.305 z" id="boundary" inkscape:connector-curvature="0" />
	<path style="fill:none;stroke:red;stroke-width:1px;stroke-linecap:butt;stroke-linejoin:miter;stroke-opacity:1" d="M 400.417,327.645 409.992,327.645 z" id="boundary" inkscape:connector-curvature="0" />
	<path style="fill:none;stroke:red;stroke-width:1px;stroke-linecap:butt;stroke-linejoin:miter;stroke-opacity:1" d="M 391.799,146.672 382.224,146.672 z" id="boundary" inkscape:connector-curvature="0" />
	<path style="fill:none;stroke:red;stroke-width:1px;stroke-linecap:butt;stroke-linejoin:miter;stroke-opacity:1" d="M 391.799,116.988 401.375,116.988 z" id="boundary" inkscape:connector-curvature="0" />
	<path style="fill:none;stroke:red;stroke-width:1px;stroke-linecap:butt;stroke-linejoin:miter;stroke-opacity:1" d="M 382.224,335.305 372.649,337.22 z" id="boundary" inkscape:connector-curvature="0" />
	<path style="fill:none;stroke:red;stroke-width:1px;stroke-linecap:butt;stroke-linejoin:miter;stroke-opacity:1" d="M 401.375,146.672 391.799,146.672 z" id="boundary" inkscape:connector-curvature="0" />
	<path style="fill:none;stroke:red;stroke-width:1px;stroke-linecap:butt;stroke-linejoin:miter;stroke-opacity:1" d="M 401.375,116.988 410.95,116.988 z" id="boundary" inkscape:connector-curvature="0" />
	<path style="fill:none;stroke:red;stroke-width:1px;stroke-linecap:butt;stroke-linejoin:miter;stroke-opacity:1" d="M 410.95,146.672 401.375,146.672 z" id="boundary" inkscape:connector-curvature="0" />
	<path style="fill:none;stroke:red;stroke-width:1px;stroke-linecap:butt;stroke-linejoin:miter;stroke-opacity:1" d="M 420.525,116.988 410.95,116.988 z" id="boundary" inkscape:connector-curvature="0" />
	<path style="fill:none;stroke:red;stroke-width:1px;stroke-linecap:butt;stroke-linejoin:miter;stroke-opacity:1" d="M 430.1,116.988 420.525,116.988 z" id="boundary" inkscape:connector-curvature="0" />
	<path style="fill:none;stroke:red;stroke-width:1px;stroke-linecap:butt;stroke-linejoin:miter;stroke-opacity:1" d="M 418.61,322.857 409.992,327.645 z" id="boundary" inkscape:connector-curvature="0" />
	<path style="fill:none;stroke:red;stroke-width:1px;stroke-linecap:butt;stroke-linejoin:miter;stroke-opacity:1" d="M 428.185,318.069 418.61,322.857 z" id="boundary" inkscape:connector-curvature="0" />
	<path style="fill:none;stroke:red;stroke-width:1px;stroke-linecap:butt;stroke-linejoin:miter;stroke-opacity:1" d="M 410.95,146.672 420.525,146.672 z" id="boundary" inkscape:connector-curvature="0" />
	<path style="fill:none;stroke:red;stroke-width:1px;stroke-linecap:butt;stroke-linejoin:miter;stroke-opacity:1" d="M 430.1,146.672 420.525,146.672 z" id="boundary" inkscape:connector-curvature="0" />
	<path style="fill:none;stroke:red;stroke-width:1px;stroke-linecap:butt;stroke-linejoin:miter;stroke-opacity:1" d="M 231.892,375.521 241.467,370.734 z" id="boundary" inkscape:connector-curvature="0" />
	<path style="fill:none;stroke:red;stroke-width:1px;stroke-linecap:butt;stroke-linejoin:miter;stroke-opacity:1" d="M 251.042,365.946 260.618,365.946 z" id="boundary" inkscape:connector-curvature="0" />
	<path style="fill:none;stroke:red;stroke-width:1px;stroke-linecap:butt;stroke-linejoin:miter;stroke-opacity:1" d="M 241.467,370.734 251.042,365.946 z" id="boundary" inkscape:connector-curvature="0" />
	<path style="fill:none;stroke:red;stroke-width:1px;stroke-linecap:butt;stroke-linejoin:miter;stroke-opacity:1" d="M 270.193,365.946 260.618,365.946 z" id="boundary" inkscape:connector-curvature="0" />
	<path style="fill:none;stroke:red;stroke-width:1px;stroke-linecap:butt;stroke-linejoin:miter;stroke-opacity:1" d="M 278.811,361.158 270.193,365.946 z" id="boundary" inkscape:connector-curvature="0" />
	<path style="fill:none;stroke:red;stroke-width:1px;stroke-linecap:butt;stroke-linejoin:miter;stroke-opacity:1" d="M 196.463,415.737 200.293,402.332 z" id="boundary" inkscape:connector-curvature="0" />
	<path style="fill:none;stroke:red;stroke-width:1px;stroke-linecap:butt;stroke-linejoin:miter;stroke-opacity:1" d="M 196.463,415.737 186.888,420.525 z" id="boundary" inkscape:connector-curvature="0" />
	<path style="fill:none;stroke:red;stroke-width:1px;stroke-linecap:butt;stroke-linejoin:miter;stroke-opacity:1" d="M 222.317,380.309 214.656,387.969 z" id="boundary" inkscape:connector-curvature="0" />
	<path style="fill:none;stroke:red;stroke-width:1px;stroke-linecap:butt;stroke-linejoin:miter;stroke-opacity:1" d="M 214.656,387.969 205.081,392.757 z" id="boundary" inkscape:connector-curvature="0" />
	<path style="fill:none;stroke:red;stroke-width:1px;stroke-linecap:butt;stroke-linejoin:miter;stroke-opacity:1" d="M 222.317,380.309 231.892,375.521 z" id="boundary" inkscape:connector-curvature="0" />
	<path style="fill:none;stroke:red;stroke-width:1px;stroke-linecap:butt;stroke-linejoin:miter;stroke-opacity:1" d="M 200.293,402.332 205.081,392.757 z" id="boundary" inkscape:connector-curvature="0" />
	<path style="fill:none;stroke:red;stroke-width:1px;stroke-linecap:butt;stroke-linejoin:miter;stroke-opacity:1" d="M 334.347,346.795 343.923,344.88 z" id="boundary" inkscape:connector-curvature="0" />
	<path style="fill:none;stroke:red;stroke-width:1px;stroke-linecap:butt;stroke-linejoin:miter;stroke-opacity:1" d="M 324.772,349.668 334.347,346.795 z" id="boundary" inkscape:connector-curvature="0" />
	<path style="fill:none;stroke:red;stroke-width:1px;stroke-linecap:butt;stroke-linejoin:miter;stroke-opacity:1" d="M 353.498,342.008 343.923,344.88 z" id="boundary" inkscape:connector-curvature="0" />
	<path style="fill:none;stroke:red;stroke-width:1px;stroke-linecap:butt;stroke-linejoin:miter;stroke-opacity:1" d="M 363.073,340.093 353.498,342.008 z" id="boundary" inkscape:connector-curvature="0" />
	<path style="fill:none;stroke:red;stroke-width:1px;stroke-linecap:butt;stroke-linejoin:miter;stroke-opacity:1" d="M 363.073,340.093 372.649,337.22 z" id="boundary" inkscape:connector-curvature="0" />
	<path style="fill:none;stroke:red;stroke-width:1px;stroke-linecap:butt;stroke-linejoin:miter;stroke-opacity:1" d="M 278.811,361.158 287.429,356.371 z" id="boundary" inkscape:connector-curvature="0" />
	<path style="fill:none;stroke:red;stroke-width:1px;stroke-linecap:butt;stroke-linejoin:miter;stroke-opacity:1" d="M 287.429,356.371 297.004,356.371 z" id="boundary" inkscape:connector-curvature="0" />
	<path style="fill:none;stroke:red;stroke-width:1px;stroke-linecap:butt;stroke-linejoin:miter;stroke-opacity:1" d="M 297.004,356.371 306.579,356.371 z" id="boundary" inkscape:connector-curvature="0" />
	<path style="fill:none;stroke:red;stroke-width:1px;stroke-linecap:butt;stroke-linejoin:miter;stroke-opacity:1" d="M 306.579,356.371 315.197,351.583 z" id="boundary" inkscape:connector-curvature="0" />
	<path style="fill:none;stroke:red;stroke-width:1px;stroke-linecap:butt;stroke-linejoin:miter;stroke-opacity:1" d="M 315.197,351.583 324.772,349.668 z" id="boundary" inkscape:connector-curvature="0" />
	<path style="fill:none;stroke:red;stroke-width:1px;stroke-linecap:butt;stroke-linejoin:miter;stroke-opacity:1" d="M 477.977,28.8958 477.977,38.471 z" id="boundary" inkscape:connector-curvature="0" />
	<path style="fill:none;stroke:red;stroke-width:1px;stroke-linecap:butt;stroke-linejoin:miter;stroke-opacity:1" d="M 477.977,28.8958 477.977,19.3205 z" id="boundary" inkscape:connector-curvature="0" />
	<path style="fill:none;stroke:red;stroke-width:1px;stroke-linecap:butt;stroke-linejoin:miter;stroke-opacity:1" d="M 482.764,47.0888 477.977,38.471 z" id="boundary" inkscape:connector-curvature="0" />
	<path style="fill:none;stroke:red;stroke-width:1px;stroke-linecap:butt;stroke-linejoin:miter;stroke-opacity:1" d="M 477.977,19.3205 482.764,9.74517 z" id="boundary" inkscape:connector-curvature="0" />
	<path style="fill:none;stroke:red;stroke-width:1px;stroke-linecap:butt;stroke-linejoin:miter;stroke-opacity:1" d="M 482.764,47.0888 482.764,56.6641 z" id="boundary" inkscape:connector-curvature="0" />
	<path style="fill:none;stroke:red;stroke-width:1px;stroke-linecap:butt;stroke-linejoin:miter;stroke-opacity:1" d="M 439.676,116.988 449.251,116.988 z" id="boundary" inkscape:connector-curvature="0" />
	<path style="fill:none;stroke:red;stroke-width:1px;stroke-linecap:butt;stroke-linejoin:miter;stroke-opacity:1" d="M 482.764,85.39 482.764,94.9653 z" id="boundary" inkscape:connector-curvature="0" />
	<path style="fill:none;stroke:red;stroke-width:1px;stroke-linecap:butt;stroke-linejoin:miter;stroke-opacity:1" d="M 439.676,116.988 430.1,116.988 z" id="boundary" inkscape:connector-curvature="0" />
	<path style="fill:none;stroke:red;stroke-width:1px;stroke-linecap:butt;stroke-linejoin:miter;stroke-opacity:1" d="M 482.764,66.2394 482.764,56.6641 z" id="boundary" inkscape:connector-curvature="0" />
	<path style="fill:none;stroke:red;stroke-width:1px;stroke-linecap:butt;stroke-linejoin:miter;stroke-opacity:1" d="M 482.764,66.2394 482.764,75.8147 z" id="boundary" inkscape:connector-curvature="0" />
	<path style="fill:none;stroke:red;stroke-width:1px;stroke-linecap:butt;stroke-linejoin:miter;stroke-opacity:1" d="M 482.764,94.9653 477.977,110.286 z" id="boundary" inkscape:connector-curvature="0" />
	<path style="fill:none;stroke:red;stroke-width:1px;stroke-linecap:butt;stroke-linejoin:miter;stroke-opacity:1" d="M 492.34,4.95753 501.915,4 z" id="boundary" inkscape:connector-curvature="0" />
	<path style="fill:none;stroke:red;stroke-width:1px;stroke-linecap:butt;stroke-linejoin:miter;stroke-opacity:1" d="M 501.915,4 507.66,11.6602 z" id="boundary" inkscape:connector-curvature="0" />
	<path style="fill:none;stroke:red;stroke-width:1px;stroke-linecap:butt;stroke-linejoin:miter;stroke-opacity:1" d="M 512.448,20.278 512.448,29.8533 z" id="boundary" inkscape:connector-curvature="0" />
	<path style="fill:none;stroke:red;stroke-width:1px;stroke-linecap:butt;stroke-linejoin:miter;stroke-opacity:1" d="M 512.448,20.278 507.66,11.6602 z" id="boundary" inkscape:connector-curvature="0" />
	<path style="fill:none;stroke:red;stroke-width:1px;stroke-linecap:butt;stroke-linejoin:miter;stroke-opacity:1" d="M 517.236,38.471 512.448,29.8533 z" id="boundary" inkscape:connector-curvature="0" />
	<path style="fill:none;stroke:red;stroke-width:1px;stroke-linecap:butt;stroke-linejoin:miter;stroke-opacity:1" d="M 482.764,75.8147 482.764,85.39 z" id="boundary" inkscape:connector-curvature="0" />
	<path style="fill:none;stroke:red;stroke-width:1px;stroke-linecap:butt;stroke-linejoin:miter;stroke-opacity:1" d="M 521.066,48.0463 517.236,38.471 z" id="boundary" inkscape:connector-curvature="0" />
	<path style="fill:none;stroke:red;stroke-width:1px;stroke-linecap:butt;stroke-linejoin:miter;stroke-opacity:1" d="M 458.826,116.988 449.251,116.988 z" id="boundary" inkscape:connector-curvature="0" />
	<path style="fill:none;stroke:red;stroke-width:1px;stroke-linecap:butt;stroke-linejoin:miter;stroke-opacity:1" d="M 482.764,9.74517 492.34,4.95753 z" id="boundary" inkscape:connector-curvature="0" />
	<path style="fill:none;stroke:red;stroke-width:1px;stroke-linecap:butt;stroke-linejoin:miter;stroke-opacity:1" d="M 438.718,151.459 430.1,146.672 z" id="boundary" inkscape:connector-curvature="0" />
	<path style="fill:none;stroke:red;stroke-width:1px;stroke-linecap:butt;stroke-linejoin:miter;stroke-opacity:1" d="M 454.996,159.12 448.293,151.459 z" id="boundary" inkscape:connector-curvature="0" />
	<path style="fill:none;stroke:red;stroke-width:1px;stroke-linecap:butt;stroke-linejoin:miter;stroke-opacity:1" d="M 448.293,151.459 438.718,151.459 z" id="boundary" inkscape:connector-curvature="0" />
	<path style="fill:none;stroke:red;stroke-width:1px;stroke-linecap:butt;stroke-linejoin:miter;stroke-opacity:1" d="M 447.336,308.494 437.761,313.282 z" id="boundary" inkscape:connector-curvature="0" />
	<path style="fill:none;stroke:red;stroke-width:1px;stroke-linecap:butt;stroke-linejoin:miter;stroke-opacity:1" d="M 454.039,297.004 447.336,308.494 z" id="boundary" inkscape:connector-curvature="0" />
	<path style="fill:none;stroke:red;stroke-width:1px;stroke-linecap:butt;stroke-linejoin:miter;stroke-opacity:1" d="M 454.039,277.853 454.039,287.429 z" id="boundary" inkscape:connector-curvature="0" />
	<path style="fill:none;stroke:red;stroke-width:1px;stroke-linecap:butt;stroke-linejoin:miter;stroke-opacity:1" d="M 454.039,277.853 458.826,263.49 z" id="boundary" inkscape:connector-curvature="0" />
	<path style="fill:none;stroke:red;stroke-width:1px;stroke-linecap:butt;stroke-linejoin:miter;stroke-opacity:1" d="M 454.039,297.004 454.039,287.429 z" id="boundary" inkscape:connector-curvature="0" />
	<path style="fill:none;stroke:red;stroke-width:1px;stroke-linecap:butt;stroke-linejoin:miter;stroke-opacity:1" d="M 437.761,313.282 428.185,318.069 z" id="boundary" inkscape:connector-curvature="0" />
	<path style="fill:none;stroke:red;stroke-width:1px;stroke-linecap:butt;stroke-linejoin:miter;stroke-opacity:1" d="M 458.826,116.988 468.402,116.988 z" id="boundary" inkscape:connector-curvature="0" />
	<path style="fill:none;stroke:red;stroke-width:1px;stroke-linecap:butt;stroke-linejoin:miter;stroke-opacity:1" d="M 466.486,175.398 468.402,184.973 z" id="boundary" inkscape:connector-curvature="0" />
	<path style="fill:none;stroke:red;stroke-width:1px;stroke-linecap:butt;stroke-linejoin:miter;stroke-opacity:1" d="M 468.402,116.988 477.977,110.286 z" id="boundary" inkscape:connector-curvature="0" />
	<path style="fill:none;stroke:red;stroke-width:1px;stroke-linecap:butt;stroke-linejoin:miter;stroke-opacity:1" d="M 466.486,175.398 462.656,165.822 z" id="boundary" inkscape:connector-curvature="0" />
	<path style="fill:none;stroke:red;stroke-width:1px;stroke-linecap:butt;stroke-linejoin:miter;stroke-opacity:1" d="M 468.402,194.548 468.402,184.973 z" id="boundary" inkscape:connector-curvature="0" />
	<path style="fill:none;stroke:red;stroke-width:1px;stroke-linecap:butt;stroke-linejoin:miter;stroke-opacity:1" d="M 462.656,165.822 454.996,159.12 z" id="boundary" inkscape:connector-curvature="0" />
	<path style="fill:none;stroke:red;stroke-width:1px;stroke-linecap:butt;stroke-linejoin:miter;stroke-opacity:1" d="M 468.402,194.548 468.402,204.124 z" id="boundary" inkscape:connector-curvature="0" />
	<path style="fill:none;stroke:red;stroke-width:1px;stroke-linecap:butt;stroke-linejoin:miter;stroke-opacity:1" d="M 458.826,253.915 463.614,239.552 z" id="boundary" inkscape:connector-curvature="0" />
	<path style="fill:none;stroke:red;stroke-width:1px;stroke-linecap:butt;stroke-linejoin:miter;stroke-opacity:1" d="M 458.826,263.49 458.826,253.915 z" id="boundary" inkscape:connector-curvature="0" />
	<path style="fill:none;stroke:red;stroke-width:1px;stroke-linecap:butt;stroke-linejoin:miter;stroke-opacity:1" d="M 468.402,213.699 468.402,204.124 z" id="boundary" inkscape:connector-curvature="0" />
	<path style="fill:none;stroke:red;stroke-width:1px;stroke-linecap:butt;stroke-linejoin:miter;stroke-opacity:1" d="M 468.402,223.274 468.402,213.699 z" id="boundary" inkscape:connector-curvature="0" />
	<path style="fill:none;stroke:red;stroke-width:1px;stroke-linecap:butt;stroke-linejoin:miter;stroke-opacity:1" d="M 468.402,223.274 463.614,239.552 z" id="boundary" inkscape:connector-curvature="0" />
	<path style="fill:none;stroke:red;stroke-width:1px;stroke-linecap:butt;stroke-linejoin:miter;stroke-opacity:1" d="M 49.9614,523.938 57.6216,516.278 z" id="boundary" inkscape:connector-curvature="0" />
	<path style="fill:none;stroke:red;stroke-width:1px;stroke-linecap:butt;stroke-linejoin:miter;stroke-opacity:1" d="M 57.6216,516.278 67.1969,511.49 z" id="boundary" inkscape:connector-curvature="0" />
	<path style="fill:none;stroke:red;stroke-width:1px;stroke-linecap:butt;stroke-linejoin:miter;stroke-opacity:1" d="M 67.1969,511.49 71.9846,501.915 z" id="boundary" inkscape:connector-curvature="0" />
	<path style="fill:none;stroke:red;stroke-width:1px;stroke-linecap:butt;stroke-linejoin:miter;stroke-opacity:1" d="M 71.9846,501.915 79.6448,495.212 z" id="boundary" inkscape:connector-curvature="0" />
	<path style="fill:none;stroke:red;stroke-width:1px;stroke-linecap:butt;stroke-linejoin:miter;stroke-opacity:1" d="M 85.39,483.722 79.6448,495.212 z" id="boundary" inkscape:connector-curvature="0" />
	<path style="fill:none;stroke:red;stroke-width:1px;stroke-linecap:butt;stroke-linejoin:miter;stroke-opacity:1" d="M 13.5753,569.9 21.2355,562.239 z" id="boundary" inkscape:connector-curvature="0" />
	<path style="fill:none;stroke:red;stroke-width:1px;stroke-linecap:butt;stroke-linejoin:miter;stroke-opacity:1" d="M 27.9382,550.749 21.2355,562.239 z" id="boundary" inkscape:connector-curvature="0" />
	<path style="fill:none;stroke:red;stroke-width:1px;stroke-linecap:butt;stroke-linejoin:miter;stroke-opacity:1" d="M 42.3012,531.598 35.5985,543.089 z" id="boundary" inkscape:connector-curvature="0" />
	<path style="fill:none;stroke:red;stroke-width:1px;stroke-linecap:butt;stroke-linejoin:miter;stroke-opacity:1" d="M 35.5985,543.089 27.9382,550.749 z" id="boundary" inkscape:connector-curvature="0" />
	<path style="fill:none;stroke:red;stroke-width:1px;stroke-linecap:butt;stroke-linejoin:miter;stroke-opacity:1" d="M 42.3012,531.598 49.9614,523.938 z" id="boundary" inkscape:connector-curvature="0" />
	<path style="fill:none;stroke:red;stroke-width:1px;stroke-linecap:butt;stroke-linejoin:miter;stroke-opacity:1" d="M 124.649,449.251 134.224,444.463 z" id="boundary" inkscape:connector-curvature="0" />
	<path style="fill:none;stroke:red;stroke-width:1px;stroke-linecap:butt;stroke-linejoin:miter;stroke-opacity:1" d="M 141.884,437.761 134.224,444.463 z" id="boundary" inkscape:connector-curvature="0" />
	<path style="fill:none;stroke:red;stroke-width:1px;stroke-linecap:butt;stroke-linejoin:miter;stroke-opacity:1" d="M 141.884,437.761 150.502,432.973 z" id="boundary" inkscape:connector-curvature="0" />
	<path style="fill:none;stroke:red;stroke-width:1px;stroke-linecap:butt;stroke-linejoin:miter;stroke-opacity:1" d="M 150.502,432.973 160.077,432.973 z" id="boundary" inkscape:connector-curvature="0" />
	<path style="fill:none;stroke:red;stroke-width:1px;stroke-linecap:butt;stroke-linejoin:miter;stroke-opacity:1" d="M 168.695,428.185 160.077,432.973 z" id="boundary" inkscape:connector-curvature="0" />
	<path style="fill:none;stroke:red;stroke-width:1px;stroke-linecap:butt;stroke-linejoin:miter;stroke-opacity:1" d="M 124.649,449.251 115.073,454.039 z" id="boundary" inkscape:connector-curvature="0" />
	<path style="fill:none;stroke:red;stroke-width:1px;stroke-linecap:butt;stroke-linejoin:miter;stroke-opacity:1" d="M 93.0502,476.062 85.39,483.722 z" id="boundary" inkscape:connector-curvature="0" />
	<path style="fill:none;stroke:red;stroke-width:1px;stroke-linecap:butt;stroke-linejoin:miter;stroke-opacity:1" d="M 115.073,454.039 108.371,461.699 z" id="boundary" inkscape:connector-curvature="0" />
	<path style="fill:none;stroke:red;stroke-width:1px;stroke-linecap:butt;stroke-linejoin:miter;stroke-opacity:1" d="M 108.371,461.699 100.71,468.402 z" id="boundary" inkscape:connector-curvature="0" />
	<path style="fill:none;stroke:red;stroke-width:1px;stroke-linecap:butt;stroke-linejoin:miter;stroke-opacity:1" d="M 100.71,468.402 93.0502,476.062 z" id="boundary" inkscape:connector-curvature="0" />
	<path style="fill:none;stroke:red;stroke-width:1px;stroke-linecap:butt;stroke-linejoin:miter;stroke-opacity:1" d="M 8.78764,579.475 8.78764,589.05 z" id="boundary" inkscape:connector-curvature="0" />
	<path style="fill:none;stroke:red;stroke-width:1px;stroke-linecap:butt;stroke-linejoin:miter;stroke-opacity:1" d="M 8.78764,589.05 4,603.413 z" id="boundary" inkscape:connector-curvature="0" />
	<path style="fill:none;stroke:red;stroke-width:1px;stroke-linecap:butt;stroke-linejoin:miter;stroke-opacity:1" d="M 22.1931,625.436 13.5753,620.649 z" id="boundary" inkscape:connector-curvature="0" />
	<path style="fill:none;stroke:red;stroke-width:1px;stroke-linecap:butt;stroke-linejoin:miter;stroke-opacity:1" d="M 13.5753,620.649 8.78764,612.031 z" id="boundary" inkscape:connector-curvature="0" />
	<path style="fill:none;stroke:red;stroke-width:1px;stroke-linecap:butt;stroke-linejoin:miter;stroke-opacity:1" d="M 8.78764,612.031 4,603.413 z" id="boundary" inkscape:connector-curvature="0" />
	<path style="fill:none;stroke:red;stroke-width:1px;stroke-linecap:butt;stroke-linejoin:miter;stroke-opacity:1" d="M 8.78764,579.475 13.5753,569.9 z" id="boundary" inkscape:connector-curvature="0" />
	<path style="fill:none;stroke:red;stroke-width:1px;stroke-linecap:butt;stroke-linejoin:miter;stroke-opacity:1" d="M 30.8108,630.224 22.1931,625.436 z" id="boundary" inkscape:connector-curvature="0" />
	<path style="fill:none;stroke:red;stroke-width:1px;stroke-linecap:butt;stroke-linejoin:miter;stroke-opacity:1" d="M 39.4286,635.012 30.8108,630.224 z" id="boundary" inkscape:connector-curvature="0" />
	<path style="fill:none;stroke:red;stroke-width:1px;stroke-linecap:butt;stroke-linejoin:miter;stroke-opacity:1" d="M 48.0463,639.799 39.4286,635.012 z" id="boundary" inkscape:connector-curvature="0" />
	<path style="fill:none;stroke:red;stroke-width:1px;stroke-linecap:butt;stroke-linejoin:miter;stroke-opacity:1" d="M 56.6641,644.587 48.0463,639.799 z" id="boundary" inkscape:connector-curvature="0" />
	<path style="fill:none;stroke:red;stroke-width:1px;stroke-linecap:butt;stroke-linejoin:miter;stroke-opacity:1" d="M 73.8996,654.162 65.2819,649.375 z" id="boundary" inkscape:connector-curvature="0" />
	<path style="fill:none;stroke:red;stroke-width:1px;stroke-linecap:butt;stroke-linejoin:miter;stroke-opacity:1" d="M 92.0927,661.822 82.5174,658.95 z" id="boundary" inkscape:connector-curvature="0" />
	<path style="fill:none;stroke:red;stroke-width:1px;stroke-linecap:butt;stroke-linejoin:miter;stroke-opacity:1" d="M 82.5174,658.95 73.8996,654.162 z" id="boundary" inkscape:connector-curvature="0" />
	<path style="fill:none;stroke:red;stroke-width:1px;stroke-linecap:butt;stroke-linejoin:miter;stroke-opacity:1" d="M 101.668,663.737 92.0927,661.822 z" id="boundary" inkscape:connector-curvature="0" />
	<path style="fill:none;stroke:red;stroke-width:1px;stroke-linecap:butt;stroke-linejoin:miter;stroke-opacity:1" d="M 101.668,663.737 110.286,668.525 z" id="boundary" inkscape:connector-curvature="0" />
	<path style="fill:none;stroke:red;stroke-width:1px;stroke-linecap:butt;stroke-linejoin:miter;stroke-opacity:1" d="M 65.2819,649.375 56.6641,644.587 z" id="boundary" inkscape:connector-curvature="0" />
	<path style="fill:none;stroke:red;stroke-width:1px;stroke-linecap:butt;stroke-linejoin:miter;stroke-opacity:1" d="M 110.286,668.525 119.861,670.44 z" id="boundary" inkscape:connector-curvature="0" />
	<path style="fill:none;stroke:red;stroke-width:1px;stroke-linecap:butt;stroke-linejoin:miter;stroke-opacity:1" d="M 119.861,670.44 128.479,675.228 z" id="boundary" inkscape:connector-curvature="0" />
	<path style="fill:none;stroke:red;stroke-width:1px;stroke-linecap:butt;stroke-linejoin:miter;stroke-opacity:1" d="M 138.054,678.1 147.629,678.1 z" id="boundary" inkscape:connector-curvature="0" />
	<path style="fill:none;stroke:red;stroke-width:1px;stroke-linecap:butt;stroke-linejoin:miter;stroke-opacity:1" d="M 147.629,678.1 156.247,682.888 z" id="boundary" inkscape:connector-curvature="0" />
	<path style="fill:none;stroke:red;stroke-width:1px;stroke-linecap:butt;stroke-linejoin:miter;stroke-opacity:1" d="M 138.054,678.1 128.479,675.228 z" id="boundary" inkscape:connector-curvature="0" />
	<path style="fill:none;stroke:red;stroke-width:1px;stroke-linecap:butt;stroke-linejoin:miter;stroke-opacity:1" d="M 165.822,682.888 156.247,682.888 z" id="boundary" inkscape:connector-curvature="0" />
	<path style="fill:none;stroke:red;stroke-width:1px;stroke-linecap:butt;stroke-linejoin:miter;stroke-opacity:1" d="M 175.398,682.888 165.822,682.888 z" id="boundary" inkscape:connector-curvature="0" />
	<path style="fill:none;stroke:red;stroke-width:1px;stroke-linecap:butt;stroke-linejoin:miter;stroke-opacity:1" d="M 168.695,428.185 177.313,423.398 z" id="boundary" inkscape:connector-curvature="0" />
	<path style="fill:none;stroke:red;stroke-width:1px;stroke-linecap:butt;stroke-linejoin:miter;stroke-opacity:1" d="M 177.313,423.398 186.888,420.525 z" id="boundary" inkscape:connector-curvature="0" />
	<path style="fill:none;stroke:red;stroke-width:1px;stroke-linecap:butt;stroke-linejoin:miter;stroke-opacity:1" d="M 175.398,682.888 184.015,687.676 z" id="boundary" inkscape:connector-curvature="0" />
	<path style="fill:none;stroke:red;stroke-width:1px;stroke-linecap:butt;stroke-linejoin:miter;stroke-opacity:1" d="M 184.015,687.676 193.591,687.676 z" id="boundary" inkscape:connector-curvature="0" />
	<path style="fill:none;stroke:red;stroke-width:1px;stroke-linecap:butt;stroke-linejoin:miter;stroke-opacity:1" d="M 193.591,687.676 203.166,691.506 z" id="boundary" inkscape:connector-curvature="0" />
	<path style="fill:none;stroke:red;stroke-width:1px;stroke-linecap:butt;stroke-linejoin:miter;stroke-opacity:1" d="M 203.166,691.506 212.741,692.463 z" id="boundary" inkscape:connector-curvature="0" />
	<path style="fill:none;stroke:red;stroke-width:1px;stroke-linecap:butt;stroke-linejoin:miter;stroke-opacity:1" d="M 212.741,692.463 222.317,696.293 z" id="boundary" inkscape:connector-curvature="0" />
	<path style="fill:none;stroke:red;stroke-width:1px;stroke-linecap:butt;stroke-linejoin:miter;stroke-opacity:1" d="M 231.892,697.251 222.317,696.293 z" id="boundary" inkscape:connector-curvature="0" />
	<path style="fill:none;stroke:red;stroke-width:1px;stroke-linecap:butt;stroke-linejoin:miter;stroke-opacity:1" d="M 231.892,697.251 240.51,702.039 z" id="boundary" inkscape:connector-curvature="0" />
	<path style="fill:none;stroke:red;stroke-width:1px;stroke-linecap:butt;stroke-linejoin:miter;stroke-opacity:1" d="M 250.085,702.039 240.51,702.039 z" id="boundary" inkscape:connector-curvature="0" />
	<path style="fill:none;stroke:red;stroke-width:1px;stroke-linecap:butt;stroke-linejoin:miter;stroke-opacity:1" d="M 269.236,706.826 259.66,704.911 z" id="boundary" inkscape:connector-curvature="0" />
	<path style="fill:none;stroke:red;stroke-width:1px;stroke-linecap:butt;stroke-linejoin:miter;stroke-opacity:1" d="M 259.66,704.911 250.085,702.039 z" id="boundary" inkscape:connector-curvature="0" />
	<path style="fill:none;stroke:red;stroke-width:1px;stroke-linecap:butt;stroke-linejoin:miter;stroke-opacity:1" d="M 269.236,706.826 277.853,711.614 z" id="boundary" inkscape:connector-curvature="0" />
	<path style="fill:none;stroke:red;stroke-width:1px;stroke-linecap:butt;stroke-linejoin:miter;stroke-opacity:1" d="M 277.853,711.614 287.429,711.614 z" id="boundary" inkscape:connector-curvature="0" />
	<path style="fill:none;stroke:red;stroke-width:1px;stroke-linecap:butt;stroke-linejoin:miter;stroke-opacity:1" d="M 287.429,711.614 296.046,716.402 z" id="boundary" inkscape:connector-curvature="0" />
	<path style="fill:none;stroke:red;stroke-width:1px;stroke-linecap:butt;stroke-linejoin:miter;stroke-opacity:1" d="M 305.622,716.402 296.046,716.402 z" id="boundary" inkscape:connector-curvature="0" />
	<path style="fill:none;stroke:red;stroke-width:1px;stroke-linecap:butt;stroke-linejoin:miter;stroke-opacity:1" d="M 323.815,721.189 314.239,721.189 z" id="boundary" inkscape:connector-curvature="0" />
	<path style="fill:none;stroke:red;stroke-width:1px;stroke-linecap:butt;stroke-linejoin:miter;stroke-opacity:1" d="M 314.239,721.189 305.622,716.402 z" id="boundary" inkscape:connector-curvature="0" />
	<path style="fill:none;stroke:red;stroke-width:1px;stroke-linecap:butt;stroke-linejoin:miter;stroke-opacity:1" d="M 323.815,721.189 332.432,725.977 z" id="boundary" inkscape:connector-curvature="0" />
	<path style="fill:none;stroke:red;stroke-width:1px;stroke-linecap:butt;stroke-linejoin:miter;stroke-opacity:1" d="M 332.432,725.977 342.008,725.977 z" id="boundary" inkscape:connector-curvature="0" />
	<path style="fill:none;stroke:red;stroke-width:1px;stroke-linecap:butt;stroke-linejoin:miter;stroke-opacity:1" d="M 351.583,725.977 361.158,725.977 z" id="boundary" inkscape:connector-curvature="0" />
	<path style="fill:none;stroke:red;stroke-width:1px;stroke-linecap:butt;stroke-linejoin:miter;stroke-opacity:1" d="M 370.734,725.977 361.158,725.977 z" id="boundary" inkscape:connector-curvature="0" />
	<path style="fill:none;stroke:red;stroke-width:1px;stroke-linecap:butt;stroke-linejoin:miter;stroke-opacity:1" d="M 351.583,725.977 342.008,725.977 z" id="boundary" inkscape:connector-curvature="0" />
	<path style="fill:none;stroke:red;stroke-width:1px;stroke-linecap:butt;stroke-linejoin:miter;stroke-opacity:1" d="M 380.309,725.977 389.884,725.977 z" id="boundary" inkscape:connector-curvature="0" />
	<path style="fill:none;stroke:red;stroke-width:1px;stroke-linecap:butt;stroke-linejoin:miter;stroke-opacity:1" d="M 389.884,725.977 398.502,730.764 z" id="boundary" inkscape:connector-curvature="0" />
	<path style="fill:none;stroke:red;stroke-width:1px;stroke-linecap:butt;stroke-linejoin:miter;stroke-opacity:1" d="M 380.309,725.977 370.734,725.977 z" id="boundary" inkscape:connector-curvature="0" />
	<path style="fill:none;stroke:red;stroke-width:1px;stroke-linecap:butt;stroke-linejoin:miter;stroke-opacity:1" d="M 398.502,730.764 408.077,730.764 z" id="boundary" inkscape:connector-curvature="0" />
	<path style="fill:none;stroke:red;stroke-width:1px;stroke-linecap:butt;stroke-linejoin:miter;stroke-opacity:1" d="M 408.077,730.764 416.695,735.552 z" id="boundary" inkscape:connector-curvature="0" />
	<path style="fill:none;stroke:red;stroke-width:1px;stroke-linecap:butt;stroke-linejoin:miter;stroke-opacity:1" d="M 426.27,735.552 416.695,735.552 z" id="boundary" inkscape:connector-curvature="0" />
	<path style="fill:none;stroke:red;stroke-width:1px;stroke-linecap:butt;stroke-linejoin:miter;stroke-opacity:1" d="M 426.27,735.552 435.846,737.467 z" id="boundary" inkscape:connector-curvature="0" />
	<path style="fill:none;stroke:red;stroke-width:1px;stroke-linecap:butt;stroke-linejoin:miter;stroke-opacity:1" d="M 435.846,737.467 444.463,742.255 z" id="boundary" inkscape:connector-curvature="0" />
	<path style="fill:none;stroke:red;stroke-width:1px;stroke-linecap:butt;stroke-linejoin:miter;stroke-opacity:1" d="M 463.614,745.127 454.039,745.127 z" id="boundary" inkscape:connector-curvature="0" />
	<path style="fill:none;stroke:red;stroke-width:1px;stroke-linecap:butt;stroke-linejoin:miter;stroke-opacity:1" d="M 454.039,745.127 444.463,742.255 z" id="boundary" inkscape:connector-curvature="0" />
	<path style="fill:none;stroke:red;stroke-width:1px;stroke-linecap:butt;stroke-linejoin:miter;stroke-opacity:1" d="M 463.614,745.127 472.232,749.915 z" id="boundary" inkscape:connector-curvature="0" />
	<path style="fill:none;stroke:red;stroke-width:1px;stroke-linecap:butt;stroke-linejoin:miter;stroke-opacity:1" d="M 472.232,749.915 481.807,749.915 z" id="boundary" inkscape:connector-curvature="0" />
	<path style="fill:none;stroke:red;stroke-width:1px;stroke-linecap:butt;stroke-linejoin:miter;stroke-opacity:1" d="M 491.382,749.915 481.807,749.915 z" id="boundary" inkscape:connector-curvature="0" />
	<path style="fill:none;stroke:red;stroke-width:1px;stroke-linecap:butt;stroke-linejoin:miter;stroke-opacity:1" d="M 500.958,749.915 510.533,749.915 z" id="boundary" inkscape:connector-curvature="0" />
	<path style="fill:none;stroke:red;stroke-width:1px;stroke-linecap:butt;stroke-linejoin:miter;stroke-opacity:1" d="M 510.533,749.915 520.108,749.915 z" id="boundary" inkscape:connector-curvature="0" />
	<path style="fill:none;stroke:red;stroke-width:1px;stroke-linecap:butt;stroke-linejoin:miter;stroke-opacity:1" d="M 500.958,749.915 491.382,749.915 z" id="boundary" inkscape:connector-curvature="0" />
	<path style="fill:none;stroke:red;stroke-width:1px;stroke-linecap:butt;stroke-linejoin:miter;stroke-opacity:1" d="M 521.066,48.0463 522.023,57.6216 z" id="boundary" inkscape:connector-curvature="0" />
	<path style="fill:none;stroke:red;stroke-width:1px;stroke-linecap:butt;stroke-linejoin:miter;stroke-opacity:1" d="M 525.853,67.1969 526.811,76.7722 z" id="boundary" inkscape:connector-curvature="0" />
	<path style="fill:none;stroke:red;stroke-width:1px;stroke-linecap:butt;stroke-linejoin:miter;stroke-opacity:1" d="M 526.811,76.7722 526.811,86.3475 z" id="boundary" inkscape:connector-curvature="0" />
	<path style="fill:none;stroke:red;stroke-width:1px;stroke-linecap:butt;stroke-linejoin:miter;stroke-opacity:1" d="M 554.579,112.201 545.004,112.201 z" id="boundary" inkscape:connector-curvature="0" />
	<path style="fill:none;stroke:red;stroke-width:1px;stroke-linecap:butt;stroke-linejoin:miter;stroke-opacity:1" d="M 526.811,95.9228 526.811,86.3475 z" id="boundary" inkscape:connector-curvature="0" />
	<path style="fill:none;stroke:red;stroke-width:1px;stroke-linecap:butt;stroke-linejoin:miter;stroke-opacity:1" d="M 526.811,95.9228 526.811,105.498 z" id="boundary" inkscape:connector-curvature="0" />
	<path style="fill:none;stroke:red;stroke-width:1px;stroke-linecap:butt;stroke-linejoin:miter;stroke-opacity:1" d="M 526.811,105.498 535.429,110.286 z" id="boundary" inkscape:connector-curvature="0" />
	<path style="fill:none;stroke:red;stroke-width:1px;stroke-linecap:butt;stroke-linejoin:miter;stroke-opacity:1" d="M 548.834,165.822 540.216,170.61 z" id="boundary" inkscape:connector-curvature="0" />
	<path style="fill:none;stroke:red;stroke-width:1px;stroke-linecap:butt;stroke-linejoin:miter;stroke-opacity:1" d="M 535.429,110.286 545.004,112.201 z" id="boundary" inkscape:connector-curvature="0" />
	<path style="fill:none;stroke:red;stroke-width:1px;stroke-linecap:butt;stroke-linejoin:miter;stroke-opacity:1" d="M 540.216,170.61 531.598,175.398 z" id="boundary" inkscape:connector-curvature="0" />
	<path style="fill:none;stroke:red;stroke-width:1px;stroke-linecap:butt;stroke-linejoin:miter;stroke-opacity:1" d="M 531.598,184.973 531.598,175.398 z" id="boundary" inkscape:connector-curvature="0" />
	<path style="fill:none;stroke:red;stroke-width:1px;stroke-linecap:butt;stroke-linejoin:miter;stroke-opacity:1" d="M 602.456,116.988 592.88,116.988 z" id="boundary" inkscape:connector-curvature="0" />
	<path style="fill:none;stroke:red;stroke-width:1px;stroke-linecap:butt;stroke-linejoin:miter;stroke-opacity:1" d="M 554.579,112.201 564.154,112.201 z" id="boundary" inkscape:connector-curvature="0" />
	<path style="fill:none;stroke:red;stroke-width:1px;stroke-linecap:butt;stroke-linejoin:miter;stroke-opacity:1" d="M 592.88,116.988 583.305,116.988 z" id="boundary" inkscape:connector-curvature="0" />
	<path style="fill:none;stroke:red;stroke-width:1px;stroke-linecap:butt;stroke-linejoin:miter;stroke-opacity:1" d="M 583.305,116.988 573.73,114.116 z" id="boundary" inkscape:connector-curvature="0" />
	<path style="fill:none;stroke:red;stroke-width:1px;stroke-linecap:butt;stroke-linejoin:miter;stroke-opacity:1" d="M 573.73,114.116 564.154,112.201 z" id="boundary" inkscape:connector-curvature="0" />
	<path style="fill:none;stroke:red;stroke-width:1px;stroke-linecap:butt;stroke-linejoin:miter;stroke-opacity:1" d="M 548.834,165.822 557.452,161.035 z" id="boundary" inkscape:connector-curvature="0" />
	<path style="fill:none;stroke:red;stroke-width:1px;stroke-linecap:butt;stroke-linejoin:miter;stroke-opacity:1" d="M 557.452,161.035 567.027,161.035 z" id="boundary" inkscape:connector-curvature="0" />
	<path style="fill:none;stroke:red;stroke-width:1px;stroke-linecap:butt;stroke-linejoin:miter;stroke-opacity:1" d="M 576.602,160.077 567.027,161.035 z" id="boundary" inkscape:connector-curvature="0" />
	<path style="fill:none;stroke:red;stroke-width:1px;stroke-linecap:butt;stroke-linejoin:miter;stroke-opacity:1" d="M 586.178,156.247 576.602,160.077 z" id="boundary" inkscape:connector-curvature="0" />
	<path style="fill:none;stroke:red;stroke-width:1px;stroke-linecap:butt;stroke-linejoin:miter;stroke-opacity:1" d="M 586.178,156.247 595.753,156.247 z" id="boundary" inkscape:connector-curvature="0" />
	<path style="fill:none;stroke:red;stroke-width:1px;stroke-linecap:butt;stroke-linejoin:miter;stroke-opacity:1" d="M 525.853,67.1969 522.023,57.6216 z" id="boundary" inkscape:connector-curvature="0" />
	<path style="fill:none;stroke:red;stroke-width:1px;stroke-linecap:butt;stroke-linejoin:miter;stroke-opacity:1" d="M 531.598,184.973 531.598,194.548 z" id="boundary" inkscape:connector-curvature="0" />
	<path style="fill:none;stroke:red;stroke-width:1px;stroke-linecap:butt;stroke-linejoin:miter;stroke-opacity:1" d="M 531.598,204.124 531.598,194.548 z" id="boundary" inkscape:connector-curvature="0" />
	<path style="fill:none;stroke:red;stroke-width:1px;stroke-linecap:butt;stroke-linejoin:miter;stroke-opacity:1" d="M 531.598,204.124 531.598,213.699 z" id="boundary" inkscape:connector-curvature="0" />
	<path style="fill:none;stroke:red;stroke-width:1px;stroke-linecap:butt;stroke-linejoin:miter;stroke-opacity:1" d="M 536.386,252 533.514,242.425 z" id="boundary" inkscape:connector-curvature="0" />
	<path style="fill:none;stroke:red;stroke-width:1px;stroke-linecap:butt;stroke-linejoin:miter;stroke-opacity:1" d="M 531.598,223.274 531.598,213.699 z" id="boundary" inkscape:connector-curvature="0" />
	<path style="fill:none;stroke:red;stroke-width:1px;stroke-linecap:butt;stroke-linejoin:miter;stroke-opacity:1" d="M 531.598,232.849 531.598,223.274 z" id="boundary" inkscape:connector-curvature="0" />
	<path style="fill:none;stroke:red;stroke-width:1px;stroke-linecap:butt;stroke-linejoin:miter;stroke-opacity:1" d="M 533.514,242.425 531.598,232.849 z" id="boundary" inkscape:connector-curvature="0" />
	<path style="fill:none;stroke:red;stroke-width:1px;stroke-linecap:butt;stroke-linejoin:miter;stroke-opacity:1" d="M 536.386,252 536.386,261.575 z" id="boundary" inkscape:connector-curvature="0" />
	<path style="fill:none;stroke:red;stroke-width:1px;stroke-linecap:butt;stroke-linejoin:miter;stroke-opacity:1" d="M 536.386,271.151 536.386,261.575 z" id="boundary" inkscape:connector-curvature="0" />
	<path style="fill:none;stroke:red;stroke-width:1px;stroke-linecap:butt;stroke-linejoin:miter;stroke-opacity:1" d="M 536.386,271.151 536.386,280.726 z" id="boundary" inkscape:connector-curvature="0" />
	<path style="fill:none;stroke:red;stroke-width:1px;stroke-linecap:butt;stroke-linejoin:miter;stroke-opacity:1" d="M 536.386,280.726 536.386,290.301 z" id="boundary" inkscape:connector-curvature="0" />
	<path style="fill:none;stroke:red;stroke-width:1px;stroke-linecap:butt;stroke-linejoin:miter;stroke-opacity:1" d="M 536.386,299.876 536.386,309.452 z" id="boundary" inkscape:connector-curvature="0" />
	<path style="fill:none;stroke:red;stroke-width:1px;stroke-linecap:butt;stroke-linejoin:miter;stroke-opacity:1" d="M 536.386,319.027 536.386,309.452 z" id="boundary" inkscape:connector-curvature="0" />
	<path style="fill:none;stroke:red;stroke-width:1px;stroke-linecap:butt;stroke-linejoin:miter;stroke-opacity:1" d="M 536.386,299.876 536.386,290.301 z" id="boundary" inkscape:connector-curvature="0" />
	<path style="fill:none;stroke:red;stroke-width:1px;stroke-linecap:butt;stroke-linejoin:miter;stroke-opacity:1" d="M 560.324,332.432 550.749,330.517 z" id="boundary" inkscape:connector-curvature="0" />
	<path style="fill:none;stroke:red;stroke-width:1px;stroke-linecap:butt;stroke-linejoin:miter;stroke-opacity:1" d="M 550.749,330.517 541.174,327.645 z" id="boundary" inkscape:connector-curvature="0" />
	<path style="fill:none;stroke:red;stroke-width:1px;stroke-linecap:butt;stroke-linejoin:miter;stroke-opacity:1" d="M 541.174,327.645 536.386,319.027 z" id="boundary" inkscape:connector-curvature="0" />
	<path style="fill:none;stroke:red;stroke-width:1px;stroke-linecap:butt;stroke-linejoin:miter;stroke-opacity:1" d="M 529.683,749.915 520.108,749.915 z" id="boundary" inkscape:connector-curvature="0" />
	<path style="fill:none;stroke:red;stroke-width:1px;stroke-linecap:butt;stroke-linejoin:miter;stroke-opacity:1" d="M 569.9,332.432 579.475,332.432 z" id="boundary" inkscape:connector-curvature="0" />
	<path style="fill:none;stroke:red;stroke-width:1px;stroke-linecap:butt;stroke-linejoin:miter;stroke-opacity:1" d="M 569.9,332.432 560.324,332.432 z" id="boundary" inkscape:connector-curvature="0" />
	<path style="fill:none;stroke:red;stroke-width:1px;stroke-linecap:butt;stroke-linejoin:miter;stroke-opacity:1" d="M 579.475,332.432 589.05,332.432 z" id="boundary" inkscape:connector-curvature="0" />
	<path style="fill:none;stroke:red;stroke-width:1px;stroke-linecap:butt;stroke-linejoin:miter;stroke-opacity:1" d="M 589.05,332.432 597.668,337.22 z" id="boundary" inkscape:connector-curvature="0" />
	<path style="fill:none;stroke:red;stroke-width:1px;stroke-linecap:butt;stroke-linejoin:miter;stroke-opacity:1" d="M 602.456,116.988 612.031,118.903 z" id="boundary" inkscape:connector-curvature="0" />
	<path style="fill:none;stroke:red;stroke-width:1px;stroke-linecap:butt;stroke-linejoin:miter;stroke-opacity:1" d="M 623.521,151.459 613.946,151.459 z" id="boundary" inkscape:connector-curvature="0" />
	<path style="fill:none;stroke:red;stroke-width:1px;stroke-linecap:butt;stroke-linejoin:miter;stroke-opacity:1" d="M 612.031,118.903 621.606,121.776 z" id="boundary" inkscape:connector-curvature="0" />
	<path style="fill:none;stroke:red;stroke-width:1px;stroke-linecap:butt;stroke-linejoin:miter;stroke-opacity:1" d="M 621.606,121.776 631.181,121.776 z" id="boundary" inkscape:connector-curvature="0" />
	<path style="fill:none;stroke:red;stroke-width:1px;stroke-linecap:butt;stroke-linejoin:miter;stroke-opacity:1" d="M 605.328,156.247 613.946,151.459 z" id="boundary" inkscape:connector-curvature="0" />
	<path style="fill:none;stroke:red;stroke-width:1px;stroke-linecap:butt;stroke-linejoin:miter;stroke-opacity:1" d="M 595.753,156.247 605.328,156.247 z" id="boundary" inkscape:connector-curvature="0" />
	<path style="fill:none;stroke:red;stroke-width:1px;stroke-linecap:butt;stroke-linejoin:miter;stroke-opacity:1" d="M 616.819,337.22 607.243,337.22 z" id="boundary" inkscape:connector-curvature="0" />
	<path style="fill:none;stroke:red;stroke-width:1px;stroke-linecap:butt;stroke-linejoin:miter;stroke-opacity:1" d="M 616.819,337.22 625.436,342.008 z" id="boundary" inkscape:connector-curvature="0" />
	<path style="fill:none;stroke:red;stroke-width:1px;stroke-linecap:butt;stroke-linejoin:miter;stroke-opacity:1" d="M 607.243,337.22 597.668,337.22 z" id="boundary" inkscape:connector-curvature="0" />
	<path style="fill:none;stroke:red;stroke-width:1px;stroke-linecap:butt;stroke-linejoin:miter;stroke-opacity:1" d="M 623.521,151.459 633.097,151.459 z" id="boundary" inkscape:connector-curvature="0" />
	<path style="fill:none;stroke:red;stroke-width:1px;stroke-linecap:butt;stroke-linejoin:miter;stroke-opacity:1" d="M 631.181,121.776 640.757,121.776 z" id="boundary" inkscape:connector-curvature="0" />
	<path style="fill:none;stroke:red;stroke-width:1px;stroke-linecap:butt;stroke-linejoin:miter;stroke-opacity:1" d="M 650.332,121.776 657.992,127.521 z" id="boundary" inkscape:connector-curvature="0" />
	<path style="fill:none;stroke:red;stroke-width:1px;stroke-linecap:butt;stroke-linejoin:miter;stroke-opacity:1" d="M 658.95,139.969 657.992,127.521 z" id="boundary" inkscape:connector-curvature="0" />
	<path style="fill:none;stroke:red;stroke-width:1px;stroke-linecap:butt;stroke-linejoin:miter;stroke-opacity:1" d="M 640.757,121.776 650.332,121.776 z" id="boundary" inkscape:connector-curvature="0" />
	<path style="fill:none;stroke:red;stroke-width:1px;stroke-linecap:butt;stroke-linejoin:miter;stroke-opacity:1" d="M 658.95,139.969 651.29,146.672 z" id="boundary" inkscape:connector-curvature="0" />
	<path style="fill:none;stroke:red;stroke-width:1px;stroke-linecap:butt;stroke-linejoin:miter;stroke-opacity:1" d="M 635.012,342.008 625.436,342.008 z" id="boundary" inkscape:connector-curvature="0" />
	<path style="fill:none;stroke:red;stroke-width:1px;stroke-linecap:butt;stroke-linejoin:miter;stroke-opacity:1" d="M 644.587,342.965 635.012,342.008 z" id="boundary" inkscape:connector-curvature="0" />
	<path style="fill:none;stroke:red;stroke-width:1px;stroke-linecap:butt;stroke-linejoin:miter;stroke-opacity:1" d="M 651.29,146.672 641.714,146.672 z" id="boundary" inkscape:connector-curvature="0" />
	<path style="fill:none;stroke:red;stroke-width:1px;stroke-linecap:butt;stroke-linejoin:miter;stroke-opacity:1" d="M 633.097,151.459 641.714,146.672 z" id="boundary" inkscape:connector-curvature="0" />
	<path style="fill:none;stroke:red;stroke-width:1px;stroke-linecap:butt;stroke-linejoin:miter;stroke-opacity:1" d="M 644.587,342.965 654.162,346.795 z" id="boundary" inkscape:connector-curvature="0" />
	<path style="fill:none;stroke:red;stroke-width:1px;stroke-linecap:butt;stroke-linejoin:miter;stroke-opacity:1" d="M 654.162,346.795 663.737,346.795 z" id="boundary" inkscape:connector-curvature="0" />
	<path style="fill:none;stroke:red;stroke-width:1px;stroke-linecap:butt;stroke-linejoin:miter;stroke-opacity:1" d="M 692.463,351.583 682.888,351.583 z" id="boundary" inkscape:connector-curvature="0" />
	<path style="fill:none;stroke:red;stroke-width:1px;stroke-linecap:butt;stroke-linejoin:miter;stroke-opacity:1" d="M 682.888,351.583 673.313,347.753 z" id="boundary" inkscape:connector-curvature="0" />
	<path style="fill:none;stroke:red;stroke-width:1px;stroke-linecap:butt;stroke-linejoin:miter;stroke-opacity:1" d="M 692.463,351.583 701.081,356.371 z" id="boundary" inkscape:connector-curvature="0" />
	<path style="fill:none;stroke:red;stroke-width:1px;stroke-linecap:butt;stroke-linejoin:miter;stroke-opacity:1" d="M 663.737,346.795 673.313,347.753 z" id="boundary" inkscape:connector-curvature="0" />
	<path style="fill:none;stroke:red;stroke-width:1px;stroke-linecap:butt;stroke-linejoin:miter;stroke-opacity:1" d="M 701.081,356.371 710.656,356.371 z" id="boundary" inkscape:connector-curvature="0" />
	<path style="fill:none;stroke:red;stroke-width:1px;stroke-linecap:butt;stroke-linejoin:miter;stroke-opacity:1" d="M 710.656,356.371 719.274,361.158 z" id="boundary" inkscape:connector-curvature="0" />
	<path style="fill:none;stroke:red;stroke-width:1px;stroke-linecap:butt;stroke-linejoin:miter;stroke-opacity:1" d="M 719.274,361.158 728.849,361.158 z" id="boundary" inkscape:connector-curvature="0" />
	<path style="fill:none;stroke:red;stroke-width:1px;stroke-linecap:butt;stroke-linejoin:miter;stroke-opacity:1" d="M 738.425,361.158 728.849,361.158 z" id="boundary" inkscape:connector-curvature="0" />
	<path style="fill:none;stroke:red;stroke-width:1px;stroke-linecap:butt;stroke-linejoin:miter;stroke-opacity:1" d="M 748,361.158 738.425,361.158 z" id="boundary" inkscape:connector-curvature="0" />
	<path style="fill:none;stroke:red;stroke-width:1px;stroke-linecap:butt;stroke-linejoin:miter;stroke-opacity:1" d="M 748,361.158 757.575,361.158 z" id="boundary" inkscape:connector-curvature="0" />
	<path style="fill:none;stroke:red;stroke-width:1px;stroke-linecap:butt;stroke-linejoin:miter;stroke-opacity:1" d="M 785.344,365.946 775.768,365.946 z" id="boundary" inkscape:connector-curvature="0" />
	<path style="fill:none;stroke:red;stroke-width:1px;stroke-linecap:butt;stroke-linejoin:miter;stroke-opacity:1" d="M 775.768,365.946 767.151,361.158 z" id="boundary" inkscape:connector-curvature="0" />
	<path style="fill:none;stroke:red;stroke-width:1px;stroke-linecap:butt;stroke-linejoin:miter;stroke-opacity:1" d="M 794.919,365.946 785.344,365.946 z" id="boundary" inkscape:connector-curvature="0" />
	<path style="fill:none;stroke:red;stroke-width:1px;stroke-linecap:butt;stroke-linejoin:miter;stroke-opacity:1" d="M 757.575,361.158 767.151,361.158 z" id="boundary" inkscape:connector-curvature="0" />
	<path style="fill:none;stroke:red;stroke-width:1px;stroke-linecap:butt;stroke-linejoin:miter;stroke-opacity:1" d="M 802.579,371.691 794.919,365.946 z" id="boundary" inkscape:connector-curvature="0" />
	<path style="fill:none;stroke:red;stroke-width:1px;stroke-linecap:butt;stroke-linejoin:miter;stroke-opacity:1" d="M 809.282,379.351 802.579,371.691 z" id="boundary" inkscape:connector-curvature="0" />
	<path style="fill:none;stroke:red;stroke-width:1px;stroke-linecap:butt;stroke-linejoin:miter;stroke-opacity:1" d="M 809.282,379.351 809.282,388.927 z" id="boundary" inkscape:connector-curvature="0" />
	<path style="fill:none;stroke:red;stroke-width:1px;stroke-linecap:butt;stroke-linejoin:miter;stroke-opacity:1" d="M 809.282,388.927 809.282,398.502 z" id="boundary" inkscape:connector-curvature="0" />
	<path style="fill:none;stroke:red;stroke-width:1px;stroke-linecap:butt;stroke-linejoin:miter;stroke-opacity:1" d="M 809.282,408.077 809.282,398.502 z" id="boundary" inkscape:connector-curvature="0" />
	<path style="fill:none;stroke:red;stroke-width:1px;stroke-linecap:butt;stroke-linejoin:miter;stroke-opacity:1" d="M 814.069,416.695 809.282,408.077 z" id="boundary" inkscape:connector-curvature="0" />
	<path style="fill:none;stroke:red;stroke-width:1px;stroke-linecap:butt;stroke-linejoin:miter;stroke-opacity:1" d="M 792.046,740.34 783.429,745.127 z" id="boundary" inkscape:connector-curvature="0" />
	<path style="fill:none;stroke:red;stroke-width:1px;stroke-linecap:butt;stroke-linejoin:miter;stroke-opacity:1" d="M 800.664,735.552 792.046,740.34 z" id="boundary" inkscape:connector-curvature="0" />
	<path style="fill:none;stroke:red;stroke-width:1px;stroke-linecap:butt;stroke-linejoin:miter;stroke-opacity:1" d="M 809.282,730.764 800.664,735.552 z" id="boundary" inkscape:connector-curvature="0" />
	<path style="fill:none;stroke:red;stroke-width:1px;stroke-linecap:butt;stroke-linejoin:miter;stroke-opacity:1" d="M 557.452,754.703 547.876,754.703 z" id="boundary" inkscape:connector-curvature="0" />
	<path style="fill:none;stroke:red;stroke-width:1px;stroke-linecap:butt;stroke-linejoin:miter;stroke-opacity:1" d="M 547.876,754.703 539.259,749.915 z" id="boundary" inkscape:connector-curvature="0" />
	<path style="fill:none;stroke:red;stroke-width:1px;stroke-linecap:butt;stroke-linejoin:miter;stroke-opacity:1" d="M 809.282,730.764 818.857,730.764 z" id="boundary" inkscape:connector-curvature="0" />
	<path style="fill:none;stroke:red;stroke-width:1px;stroke-linecap:butt;stroke-linejoin:miter;stroke-opacity:1" d="M 539.259,749.915 529.683,749.915 z" id="boundary" inkscape:connector-curvature="0" />
	<path style="fill:none;stroke:red;stroke-width:1px;stroke-linecap:butt;stroke-linejoin:miter;stroke-opacity:1" d="M 765.236,749.915 755.66,749.915 z" id="boundary" inkscape:connector-curvature="0" />
	<path style="fill:none;stroke:red;stroke-width:1px;stroke-linecap:butt;stroke-linejoin:miter;stroke-opacity:1" d="M 774.811,749.915 765.236,749.915 z" id="boundary" inkscape:connector-curvature="0" />
	<path style="fill:none;stroke:red;stroke-width:1px;stroke-linecap:butt;stroke-linejoin:miter;stroke-opacity:1" d="M 783.429,745.127 774.811,749.915 z" id="boundary" inkscape:connector-curvature="0" />
	<path style="fill:none;stroke:red;stroke-width:1px;stroke-linecap:butt;stroke-linejoin:miter;stroke-opacity:1" d="M 747.042,754.703 755.66,749.915 z" id="boundary" inkscape:connector-curvature="0" />
	<path style="fill:none;stroke:red;stroke-width:1px;stroke-linecap:butt;stroke-linejoin:miter;stroke-opacity:1" d="M 814.069,426.27 814.069,416.695 z" id="boundary" inkscape:connector-curvature="0" />
	<path style="fill:none;stroke:red;stroke-width:1px;stroke-linecap:butt;stroke-linejoin:miter;stroke-opacity:1" d="M 817.9,435.846 814.069,426.27 z" id="boundary" inkscape:connector-curvature="0" />
	<path style="fill:none;stroke:red;stroke-width:1px;stroke-linecap:butt;stroke-linejoin:miter;stroke-opacity:1" d="M 828.432,447.336 818.857,445.421 z" id="boundary" inkscape:connector-curvature="0" />
	<path style="fill:none;stroke:red;stroke-width:1px;stroke-linecap:butt;stroke-linejoin:miter;stroke-opacity:1" d="M 818.857,445.421 817.9,435.846 z" id="boundary" inkscape:connector-curvature="0" />
	<path style="fill:none;stroke:red;stroke-width:1px;stroke-linecap:butt;stroke-linejoin:miter;stroke-opacity:1" d="M 828.432,447.336 837.05,452.124 z" id="boundary" inkscape:connector-curvature="0" />
	<path style="fill:none;stroke:red;stroke-width:1px;stroke-linecap:butt;stroke-linejoin:miter;stroke-opacity:1" d="M 846.625,454.039 837.05,452.124 z" id="boundary" inkscape:connector-curvature="0" />
	<path style="fill:none;stroke:red;stroke-width:1px;stroke-linecap:butt;stroke-linejoin:miter;stroke-opacity:1" d="M 818.857,730.764 827.475,725.977 z" id="boundary" inkscape:connector-curvature="0" />
	<path style="fill:none;stroke:red;stroke-width:1px;stroke-linecap:butt;stroke-linejoin:miter;stroke-opacity:1" d="M 844.71,716.402 836.093,721.189 z" id="boundary" inkscape:connector-curvature="0" />
	<path style="fill:none;stroke:red;stroke-width:1px;stroke-linecap:butt;stroke-linejoin:miter;stroke-opacity:1" d="M 836.093,721.189 827.475,725.977 z" id="boundary" inkscape:connector-curvature="0" />
	<path style="fill:none;stroke:red;stroke-width:1px;stroke-linecap:butt;stroke-linejoin:miter;stroke-opacity:1" d="M 853.328,711.614 844.71,716.402 z" id="boundary" inkscape:connector-curvature="0" />
	<path style="fill:none;stroke:red;stroke-width:1px;stroke-linecap:butt;stroke-linejoin:miter;stroke-opacity:1" d="M 557.452,754.703 567.027,754.703 z" id="boundary" inkscape:connector-curvature="0" />
	<path style="fill:none;stroke:red;stroke-width:1px;stroke-linecap:butt;stroke-linejoin:miter;stroke-opacity:1" d="M 576.602,754.703 586.178,754.703 z" id="boundary" inkscape:connector-curvature="0" />
	<path style="fill:none;stroke:red;stroke-width:1px;stroke-linecap:butt;stroke-linejoin:miter;stroke-opacity:1" d="M 595.753,754.703 586.178,754.703 z" id="boundary" inkscape:connector-curvature="0" />
	<path style="fill:none;stroke:red;stroke-width:1px;stroke-linecap:butt;stroke-linejoin:miter;stroke-opacity:1" d="M 576.602,754.703 567.027,754.703 z" id="boundary" inkscape:connector-curvature="0" />
	<path style="fill:none;stroke:red;stroke-width:1px;stroke-linecap:butt;stroke-linejoin:miter;stroke-opacity:1" d="M 605.328,754.703 614.903,754.703 z" id="boundary" inkscape:connector-curvature="0" />
	<path style="fill:none;stroke:red;stroke-width:1px;stroke-linecap:butt;stroke-linejoin:miter;stroke-opacity:1" d="M 614.903,754.703 623.521,759.49 z" id="boundary" inkscape:connector-curvature="0" />
	<path style="fill:none;stroke:red;stroke-width:1px;stroke-linecap:butt;stroke-linejoin:miter;stroke-opacity:1" d="M 633.097,759.49 623.521,759.49 z" id="boundary" inkscape:connector-curvature="0" />
	<path style="fill:none;stroke:red;stroke-width:1px;stroke-linecap:butt;stroke-linejoin:miter;stroke-opacity:1" d="M 642.672,759.49 633.097,759.49 z" id="boundary" inkscape:connector-curvature="0" />
	<path style="fill:none;stroke:red;stroke-width:1px;stroke-linecap:butt;stroke-linejoin:miter;stroke-opacity:1" d="M 652.247,759.49 642.672,759.49 z" id="boundary" inkscape:connector-curvature="0" />
	<path style="fill:none;stroke:red;stroke-width:1px;stroke-linecap:butt;stroke-linejoin:miter;stroke-opacity:1" d="M 595.753,754.703 605.328,754.703 z" id="boundary" inkscape:connector-curvature="0" />
	<path style="fill:none;stroke:red;stroke-width:1px;stroke-linecap:butt;stroke-linejoin:miter;stroke-opacity:1" d="M 708.741,754.703 718.317,754.703 z" id="boundary" inkscape:connector-curvature="0" />
	<path style="fill:none;stroke:red;stroke-width:1px;stroke-linecap:butt;stroke-linejoin:miter;stroke-opacity:1" d="M 700.124,759.49 708.741,754.703 z" id="boundary" inkscape:connector-curvature="0" />
	<path style="fill:none;stroke:red;stroke-width:1px;stroke-linecap:butt;stroke-linejoin:miter;stroke-opacity:1" d="M 727.892,754.703 737.467,754.703 z" id="boundary" inkscape:connector-curvature="0" />
	<path style="fill:none;stroke:red;stroke-width:1px;stroke-linecap:butt;stroke-linejoin:miter;stroke-opacity:1" d="M 747.042,754.703 737.467,754.703 z" id="boundary" inkscape:connector-curvature="0" />
	<path style="fill:none;stroke:red;stroke-width:1px;stroke-linecap:butt;stroke-linejoin:miter;stroke-opacity:1" d="M 727.892,754.703 718.317,754.703 z" id="boundary" inkscape:connector-curvature="0" />
	<path style="fill:none;stroke:red;stroke-width:1px;stroke-linecap:butt;stroke-linejoin:miter;stroke-opacity:1" d="M 661.822,759.49 652.247,759.49 z" id="boundary" inkscape:connector-curvature="0" />
	<path style="fill:none;stroke:red;stroke-width:1px;stroke-linecap:butt;stroke-linejoin:miter;stroke-opacity:1" d="M 671.398,759.49 661.822,759.49 z" id="boundary" inkscape:connector-curvature="0" />
	<path style="fill:none;stroke:red;stroke-width:1px;stroke-linecap:butt;stroke-linejoin:miter;stroke-opacity:1" d="M 690.548,759.49 680.973,759.49 z" id="boundary" inkscape:connector-curvature="0" />
	<path style="fill:none;stroke:red;stroke-width:1px;stroke-linecap:butt;stroke-linejoin:miter;stroke-opacity:1" d="M 700.124,759.49 690.548,759.49 z" id="boundary" inkscape:connector-curvature="0" />
	<path style="fill:none;stroke:red;stroke-width:1px;stroke-linecap:butt;stroke-linejoin:miter;stroke-opacity:1" d="M 680.973,759.49 671.398,759.49 z" id="boundary" inkscape:connector-curvature="0" />
	<path style="fill:none;stroke:red;stroke-width:1px;stroke-linecap:butt;stroke-linejoin:miter;stroke-opacity:1" d="M 856.201,456.911 846.625,454.039 z" id="boundary" inkscape:connector-curvature="0" />
	<path style="fill:none;stroke:red;stroke-width:1px;stroke-linecap:butt;stroke-linejoin:miter;stroke-opacity:1" d="M 883.969,467.444 874.394,463.614 z" id="boundary" inkscape:connector-curvature="0" />
	<path style="fill:none;stroke:red;stroke-width:1px;stroke-linecap:butt;stroke-linejoin:miter;stroke-opacity:1" d="M 874.394,463.614 865.776,458.826 z" id="boundary" inkscape:connector-curvature="0" />
	<path style="fill:none;stroke:red;stroke-width:1px;stroke-linecap:butt;stroke-linejoin:miter;stroke-opacity:1" d="M 856.201,456.911 865.776,458.826 z" id="boundary" inkscape:connector-curvature="0" />
	<path style="fill:none;stroke:red;stroke-width:1px;stroke-linecap:butt;stroke-linejoin:miter;stroke-opacity:1" d="M 883.969,467.444 892.587,472.232 z" id="boundary" inkscape:connector-curvature="0" />
	<path style="fill:none;stroke:red;stroke-width:1px;stroke-linecap:butt;stroke-linejoin:miter;stroke-opacity:1" d="M 892.587,472.232 902.162,476.062 z" id="boundary" inkscape:connector-curvature="0" />
	<path style="fill:none;stroke:red;stroke-width:1px;stroke-linecap:butt;stroke-linejoin:miter;stroke-opacity:1" d="M 902.162,476.062 910.78,480.849 z" id="boundary" inkscape:connector-curvature="0" />
	<path style="fill:none;stroke:red;stroke-width:1px;stroke-linecap:butt;stroke-linejoin:miter;stroke-opacity:1" d="M 910.78,480.849 919.398,485.637 z" id="boundary" inkscape:connector-curvature="0" />
	<path style="fill:none;stroke:red;stroke-width:1px;stroke-linecap:butt;stroke-linejoin:miter;stroke-opacity:1" d="M 919.398,485.637 927.058,491.382 z" id="boundary" inkscape:connector-curvature="0" />
	<path style="fill:none;stroke:red;stroke-width:1px;stroke-linecap:butt;stroke-linejoin:miter;stroke-opacity:1" d="M 935.676,496.17 927.058,491.382 z" id="boundary" inkscape:connector-curvature="0" />
	<path style="fill:none;stroke:red;stroke-width:1px;stroke-linecap:butt;stroke-linejoin:miter;stroke-opacity:1" d="M 935.676,496.17 943.336,502.873 z" id="boundary" inkscape:connector-curvature="0" />
	<path style="fill:none;stroke:red;stroke-width:1px;stroke-linecap:butt;stroke-linejoin:miter;stroke-opacity:1" d="M 943.336,502.873 948.124,511.49 z" id="boundary" inkscape:connector-curvature="0" />
	<path style="fill:none;stroke:red;stroke-width:1px;stroke-linecap:butt;stroke-linejoin:miter;stroke-opacity:1" d="M 962.486,523.938 953.869,519.151 z" id="boundary" inkscape:connector-curvature="0" />
	<path style="fill:none;stroke:red;stroke-width:1px;stroke-linecap:butt;stroke-linejoin:miter;stroke-opacity:1" d="M 953.869,519.151 948.124,511.49 z" id="boundary" inkscape:connector-curvature="0" />
	<path style="fill:none;stroke:red;stroke-width:1px;stroke-linecap:butt;stroke-linejoin:miter;stroke-opacity:1" d="M 962.486,523.938 967.274,532.556 z" id="boundary" inkscape:connector-curvature="0" />
	<path style="fill:none;stroke:red;stroke-width:1px;stroke-linecap:butt;stroke-linejoin:miter;stroke-opacity:1" d="M 967.274,532.556 976.849,536.386 z" id="boundary" inkscape:connector-curvature="0" />
	<path style="fill:none;stroke:red;stroke-width:1px;stroke-linecap:butt;stroke-linejoin:miter;stroke-opacity:1" d="M 976.849,536.386 981.637,545.004 z" id="boundary" inkscape:connector-curvature="0" />
	<path style="fill:none;stroke:red;stroke-width:1px;stroke-linecap:butt;stroke-linejoin:miter;stroke-opacity:1" d="M 987.382,552.664 995.042,559.367 z" id="boundary" inkscape:connector-curvature="0" />
	<path style="fill:none;stroke:red;stroke-width:1px;stroke-linecap:butt;stroke-linejoin:miter;stroke-opacity:1" d="M 995.042,559.367 996,568.942 z" id="boundary" inkscape:connector-curvature="0" />
	<path style="fill:none;stroke:red;stroke-width:1px;stroke-linecap:butt;stroke-linejoin:miter;stroke-opacity:1" d="M 987.382,552.664 981.637,545.004 z" id="boundary" inkscape:connector-curvature="0" />
	<path style="fill:none;stroke:red;stroke-width:1px;stroke-linecap:butt;stroke-linejoin:miter;stroke-opacity:1" d="M 996,568.942 996,578.517 z" id="boundary" inkscape:connector-curvature="0" />
	<path style="fill:none;stroke:red;stroke-width:1px;stroke-linecap:butt;stroke-linejoin:miter;stroke-opacity:1" d="M 896.417,687.676 905.035,682.888 z" id="boundary" inkscape:connector-curvature="0" />
	<path style="fill:none;stroke:red;stroke-width:1px;stroke-linecap:butt;stroke-linejoin:miter;stroke-opacity:1" d="M 905.035,682.888 914.61,678.1 z" id="boundary" inkscape:connector-curvature="0" />
	<path style="fill:none;stroke:red;stroke-width:1px;stroke-linecap:butt;stroke-linejoin:miter;stroke-opacity:1" d="M 932.803,668.525 924.185,673.313 z" id="boundary" inkscape:connector-curvature="0" />
	<path style="fill:none;stroke:red;stroke-width:1px;stroke-linecap:butt;stroke-linejoin:miter;stroke-opacity:1" d="M 924.185,673.313 914.61,678.1 z" id="boundary" inkscape:connector-curvature="0" />
	<path style="fill:none;stroke:red;stroke-width:1px;stroke-linecap:butt;stroke-linejoin:miter;stroke-opacity:1" d="M 887.799,692.463 896.417,687.676 z" id="boundary" inkscape:connector-curvature="0" />
	<path style="fill:none;stroke:red;stroke-width:1px;stroke-linecap:butt;stroke-linejoin:miter;stroke-opacity:1" d="M 853.328,711.614 861.946,706.826 z" id="boundary" inkscape:connector-curvature="0" />
	<path style="fill:none;stroke:red;stroke-width:1px;stroke-linecap:butt;stroke-linejoin:miter;stroke-opacity:1" d="M 870.564,702.039 879.181,697.251 z" id="boundary" inkscape:connector-curvature="0" />
	<path style="fill:none;stroke:red;stroke-width:1px;stroke-linecap:butt;stroke-linejoin:miter;stroke-opacity:1" d="M 887.799,692.463 879.181,697.251 z" id="boundary" inkscape:connector-curvature="0" />
	<path style="fill:none;stroke:red;stroke-width:1px;stroke-linecap:butt;stroke-linejoin:miter;stroke-opacity:1" d="M 870.564,702.039 861.946,706.826 z" id="boundary" inkscape:connector-curvature="0" />
	<path style="fill:none;stroke:red;stroke-width:1px;stroke-linecap:butt;stroke-linejoin:miter;stroke-opacity:1" d="M 996,597.668 994.085,613.946 z" id="boundary" inkscape:connector-curvature="0" />
	<path style="fill:none;stroke:red;stroke-width:1px;stroke-linecap:butt;stroke-linejoin:miter;stroke-opacity:1" d="M 996,588.093 996,597.668 z" id="boundary" inkscape:connector-curvature="0" />
	<path style="fill:none;stroke:red;stroke-width:1px;stroke-linecap:butt;stroke-linejoin:miter;stroke-opacity:1" d="M 989.297,623.521 981.637,630.224 z" id="boundary" inkscape:connector-curvature="0" />
	<path style="fill:none;stroke:red;stroke-width:1px;stroke-linecap:butt;stroke-linejoin:miter;stroke-opacity:1" d="M 994.085,613.946 989.297,623.521 z" id="boundary" inkscape:connector-curvature="0" />
	<path style="fill:none;stroke:red;stroke-width:1px;stroke-linecap:butt;stroke-linejoin:miter;stroke-opacity:1" d="M 940.463,662.78 948.124,654.162 z" id="boundary" inkscape:connector-curvature="0" />
	<path style="fill:none;stroke:red;stroke-width:1px;stroke-linecap:butt;stroke-linejoin:miter;stroke-opacity:1" d="M 948.124,654.162 957.699,649.375 z" id="boundary" inkscape:connector-curvature="0" />
	<path style="fill:none;stroke:red;stroke-width:1px;stroke-linecap:butt;stroke-linejoin:miter;stroke-opacity:1" d="M 940.463,662.78 932.803,668.525 z" id="boundary" inkscape:connector-curvature="0" />
	<path style="fill:none;stroke:red;stroke-width:1px;stroke-linecap:butt;stroke-linejoin:miter;stroke-opacity:1" d="M 965.359,642.672 957.699,649.375 z" id="boundary" inkscape:connector-curvature="0" />
	<path style="fill:none;stroke:red;stroke-width:1px;stroke-linecap:butt;stroke-linejoin:miter;stroke-opacity:1" d="M 981.637,630.224 974.934,637.884 z" id="boundary" inkscape:connector-curvature="0" />
	<path style="fill:none;stroke:red;stroke-width:1px;stroke-linecap:butt;stroke-linejoin:miter;stroke-opacity:1" d="M 974.934,637.884 965.359,642.672 z" id="boundary" inkscape:connector-curvature="0" />
	<path style="fill:none;stroke:red;stroke-width:1px;stroke-linecap:butt;stroke-linejoin:miter;stroke-opacity:1" d="M 996,578.517 996,588.093 z" id="boundary" inkscape:connector-curvature="0" />
	<circle cx="4" cy="603.413" r="4" fill="#0" id="circle0"/>
	<circle cx="8.78764" cy="579.475" r="4" fill="#0" id="circle1"/>
	<circle cx="8.78764" cy="589.05" r="4" fill="#0" id="circle2"/>
	<circle cx="8.78764" cy="612.031" r="4" fill="#0" id="circle3"/>
	<circle cx="13.5753" cy="569.9" r="4" fill="#0" id="circle4"/>
	<circle cx="13.5753" cy="620.649" r="4" fill="#0" id="circle5"/>
	<circle cx="21.2355" cy="562.239" r="4" fill="#0" id="circle6"/>
	<circle cx="22.1931" cy="625.436" r="4" fill="#0" id="circle7"/>
	<circle cx="27.9382" cy="550.749" r="4" fill="#0" id="circle8"/>
	<circle cx="30.8108" cy="630.224" r="4" fill="#0" id="circle9"/>
	<circle cx="35.5985" cy="543.089" r="4" fill="#0" id="circle10"/>
	<circle cx="39.4286" cy="635.012" r="4" fill="#0" id="circle11"/>
	<circle cx="42.3012" cy="531.598" r="4" fill="#0" id="circle12"/>
	<circle cx="48.0463" cy="639.799" r="4" fill="#0" id="circle13"/>
	<circle cx="49.9614" cy="523.938" r="4" fill="#0" id="circle14"/>
	<circle cx="56.6641" cy="644.587" r="4" fill="#0" id="circle15"/>
	<circle cx="57.6216" cy="516.278" r="4" fill="#0" id="circle16"/>
	<circle cx="65.2819" cy="649.375" r="4" fill="#0" id="circle17"/>
	<circle cx="67.1969" cy="511.49" r="4" fill="#0" id="circle18"/>
	<circle cx="71.9846" cy="501.915" r="4" fill="#0" id="circle19"/>
	<circle cx="73.8996" cy="654.162" r="4" fill="#0" id="circle20"/>
	<circle cx="79.6448" cy="495.212" r="4" fill="#0" id="circle21"/>
	<circle cx="82.5174" cy="658.95" r="4" fill="#0" id="circle22"/>
	<circle cx="85.39" cy="483.722" r="4" fill="#0" id="circle23"/>
	<circle cx="92.0927" cy="661.822" r="4" fill="#0" id="circle24"/>
	<circle cx="93.0502" cy="476.062" r="4" fill="#0" id="circle25"/>
	<circle cx="100.71" cy="468.402" r="4" fill="#0" id="circle26"/>
	<circle cx="101.668" cy="663.737" r="4" fill="#0" id="circle27"/>
	<circle cx="108.371" cy="461.699" r="4" fill="#0" id="circle28"/>
	<circle cx="110.286" cy="668.525" r="4" fill="#0" id="circle29"/>
	<circle cx="115.073" cy="454.039" r="4" fill="#0" id="circle30"/>
	<circle cx="119.861" cy="670.44" r="4" fill="#0" id="circle31"/>
	<circle cx="124.649" cy="449.251" r="4" fill="#0" id="circle32"/>
	<circle cx="128.479" cy="675.228" r="4" fill="#0" id="circle33"/>
	<circle cx="134.224" cy="444.463" r="4" fill="#0" id="circle34"/>
	<circle cx="138.054" cy="678.1" r="4" fill="#0" id="circle35"/>
	<circle cx="141.884" cy="437.761" r="4" fill="#0" id="circle36"/>
	<circle cx="147.629" cy="678.1" r="4" fill="#0" id="circle37"/>
	<circle cx="150.502" cy="432.973" r="4" fill="#0" id="circle38"/>
	<circle cx="156.247" cy="682.888" r="4" fill="#0" id="circle39"/>
	<circle cx="160.077" cy="432.973" r="4" fill="#0" id="circle40"/>
	<circle cx="165.822" cy="682.888" r="4" fill="#0" id="circle41"/>
	<circle cx="168.695" cy="428.185" r="4" fill="#0" id="circle42"/>
	<circle cx="175.398" cy="682.888" r="4" fill="#0" id="circle43"/>
	<circle cx="177.313" cy="423.398" r="4" fill="#0" id="circle44"/>
	<circle cx="184.015" cy="687.676" r="4" fill="#0" id="circle45"/>
	<circle cx="186.888" cy="420.525" r="4" fill="#0" id="circle46"/>
	<circle cx="193.591" cy="687.676" r="4" fill="#0" id="circle47"/>
	<circle cx="196.463" cy="415.737" r="4" fill="#0" id="circle48"/>
	<circle cx="200.293" cy="402.332" r="4" fill="#0" id="circle49"/>
	<circle cx="203.166" cy="691.506" r="4" fill="#0" id="circle50"/>
	<circle cx="205.081" cy="392.757" r="4" fill="#0" id="circle51"/>
	<circle cx="212.741" cy="692.463" r="4" fill="#0" id="circle52"/>
	<circle cx="214.656" cy="387.969" r="4" fill="#0" id="circle53"/>
	<circle cx="222.317" cy="380.309" r="4" fill="#0" id="circle54"/>
	<circle cx="222.317" cy="696.293" r="4" fill="#0" id="circle55"/>
	<circle cx="231.892" cy="375.521" r="4" fill="#0" id="circle56"/>
	<circle cx="231.892" cy="697.251" r="4" fill="#0" id="circle57"/>
	<circle cx="240.51" cy="702.039" r="4" fill="#0" id="circle58"/>
	<circle cx="241.467" cy="370.734" r="4" fill="#0" id="circle59"/>
	<circle cx="250.085" cy="702.039" r="4" fill="#0" id="circle60"/>
	<circle cx="251.042" cy="365.946" r="4" fill="#0" id="circle61"/>
	<circle cx="259.66" cy="704.911" r="4" fill="#0" id="circle62"/>
	<circle cx="260.618" cy="365.946" r="4" fill="#0" id="circle63"/>
	<circle cx="269.236" cy="706.826" r="4" fill="#0" id="circle64"/>
	<circle cx="270.193" cy="365.946" r="4" fill="#0" id="circle65"/>
	<circle cx="277.853" cy="711.614" r="4" fill="#0" id="circle66"/>
	<circle cx="278.811" cy="361.158" r="4" fill="#0" id="circle67"/>
	<circle cx="287.429" cy="356.371" r="4" fill="#0" id="circle68"/>
	<circle cx="287.429" cy="711.614" r="4" fill="#0" id="circle69"/>
	<circle cx="296.046" cy="716.402" r="4" fill="#0" id="circle70"/>
	<circle cx="297.004" cy="356.371" r="4" fill="#0" id="circle71"/>
	<circle cx="305.622" cy="716.402" r="4" fill="#0" id="circle72"/>
	<circle cx="306.579" cy="356.371" r="4" fill="#0" id="circle73"/>
	<circle cx="314.239" cy="721.189" r="4" fill="#0" id="circle74"/>
	<circle cx="315.197" cy="351.583" r="4" fill="#0" id="circle75"/>
	<circle cx="323.815" cy="721.189" r="4" fill="#0" id="circle76"/>
	<circle cx="324.772" cy="349.668" r="4" fill="#0" id="circle77"/>
	<circle cx="332.432" cy="725.977" r="4" fill="#0" id="circle78"/>
	<circle cx="334.347" cy="346.795" r="4" fill="#0" id="circle79"/>
	<circle cx="342.008" cy="725.977" r="4" fill="#0" id="circle80"/>
	<circle cx="343.923" cy="344.88" r="4" fill="#0" id="circle81"/>
	<circle cx="351.583" cy="725.977" r="4" fill="#0" id="circle82"/>
	<circle cx="353.498" cy="342.008" r="4" fill="#0" id="circle83"/>
	<circle cx="361.158" cy="725.977" r="4" fill="#0" id="circle84"/>
	<circle cx="363.073" cy="340.093" r="4" fill="#0" id="circle85"/>
	<circle cx="367.861" cy="134.224" r="4" fill="#0" id="circle86"/>
	<circle cx="370.734" cy="725.977" r="4" fill="#0" id="circle87"/>
	<circle cx="372.649" cy="124.649" r="4" fill="#0" id="circle88"/>
	<circle cx="372.649" cy="142.842" r="4" fill="#0" id="circle89"/>
	<circle cx="372.649" cy="337.22" r="4" fill="#0" id="circle90"/>
	<circle cx="380.309" cy="725.977" r="4" fill="#0" id="circle91"/>
	<circle cx="382.224" cy="119.861" r="4" fill="#0" id="circle92"/>
	<circle cx="382.224" cy="146.672" r="4" fill="#0" id="circle93"/>
	<circle cx="382.224" cy="335.305" r="4" fill="#0" id="circle94"/>
	<circle cx="389.884" cy="725.977" r="4" fill="#0" id="circle95"/>
	<circle cx="391.799" cy="116.988" r="4" fill="#0" id="circle96"/>
	<circle cx="391.799" cy="146.672" r="4" fill="#0" id="circle97"/>
	<circle cx="391.799" cy="332.432" r="4" fill="#0" id="circle98"/>
	<circle cx="398.502" cy="730.764" r="4" fill="#0" id="circle99"/>
	<circle cx="400.417" cy="327.645" r="4" fill="#0" id="circle100"/>
	<circle cx="401.375" cy="116.988" r="4" fill="#0" id="circle101"/>
	<circle cx="401.375" cy="146.672" r="4" fill="#0" id="circle102"/>
	<circle cx="408.077" cy="730.764" r="4" fill="#0" id="circle103"/>
	<circle cx="409.992" cy="327.645" r="4" fill="#0" id="circle104"/>
	<circle cx="410.95" cy="116.988" r="4" fill="#0" id="circle105"/>
	<circle cx="410.95" cy="146.672" r="4" fill="#0" id="circle106"/>
	<circle cx="416.695" cy="735.552" r="4" fill="#0" id="circle107"/>
	<circle cx="418.61" cy="322.857" r="4" fill="#0" id="circle108"/>
	<circle cx="420.525" cy="116.988" r="4" fill="#0" id="circle109"/>
	<circle cx="420.525" cy="146.672" r="4" fill="#0" id="circle110"/>
	<circle cx="426.27" cy="735.552" r="4" fill="#0" id="circle111"/>
	<circle cx="428.185" cy="318.069" r="4" fill="#0" id="circle112"/>
	<circle cx="430.1" cy="116.988" r="4" fill="#0" id="circle113"/>
	<circle cx="430.1" cy="146.672" r="4" fill="#0" id="circle114"/>
	<circle cx="435.846" cy="737.467" r="4" fill="#0" id="circle115"/>
	<circle cx="437.761" cy="313.282" r="4" fill="#0" id="circle116"/>
	<circle cx="438.718" cy="151.459" r="4" fill="#0" id="circle117"/>
	<circle cx="439.676" cy="116.988" r="4" fill="#0" id="circle118"/>
	<circle cx="444.463" cy="742.255" r="4" fill="#0" id="circle119"/>
	<circle cx="447.336" cy="308.494" r="4" fill="#0" id="circle120"/>
	<circle cx="448.293" cy="151.459" r="4" fill="#0" id="circle121"/>
	<circle cx="449.251" cy="116.988" r="4" fill="#0" id="circle122"/>
	<circle cx="454.039" cy="277.853" r="4" fill="#0" id="circle123"/>
	<circle cx="454.039" cy="287.429" r="4" fill="#0" id="circle124"/>
	<circle cx="454.039" cy="297.004" r="4" fill="#0" id="circle125"/>
	<circle cx="454.039" cy="745.127" r="4" fill="#0" id="circle126"/>
	<circle cx="454.996" cy="159.12" r="4" fill="#0" id="circle127"/>
	<circle cx="458.826" cy="116.988" r="4" fill="#0" id="circle128"/>
	<circle cx="458.826" cy="253.915" r="4" fill="#0" id="circle129"/>
	<circle cx="458.826" cy="263.49" r="4" fill="#0" id="circle130"/>
	<circle cx="462.656" cy="165.822" r="4" fill="#0" id="circle131"/>
	<circle cx="463.614" cy="239.552" r="4" fill="#0" id="circle132"/>
	<circle cx="463.614" cy="745.127" r="4" fill="#0" id="circle133"/>
	<circle cx="466.486" cy="175.398" r="4" fill="#0" id="circle134"/>
	<circle cx="468.402" cy="116.988" r="4" fill="#0" id="circle135"/>
	<circle cx="468.402" cy="184.973" r="4" fill="#0" id="circle136"/>
	<circle cx="468.402" cy="194.548" r="4" fill="#0" id="circle137"/>
	<circle cx="468.402" cy="204.124" r="4" fill="#0" id="circle138"/>
	<circle cx="468.402" cy="213.699" r="4" fill="#0" id="circle139"/>
	<circle cx="468.402" cy="223.274" r="4" fill="#0" id="circle140"/>
	<circle cx="472.232" cy="749.915" r="4" fill="#0" id="circle141"/>
	<circle cx="477.977" cy="19.3205" r="4" fill="#0" id="circle142"/>
	<circle cx="477.977" cy="28.8958" r="4" fill="#0" id="circle143"/>
	<circle cx="477.977" cy="38.471" r="4" fill="#0" id="circle144"/>
	<circle cx="477.977" cy="110.286" r="4" fill="#0" id="circle145"/>
	<circle cx="481.807" cy="749.915" r="4" fill="#0" id="circle146"/>
	<circle cx="482.764" cy="9.74517" r="4" fill="#0" id="circle147"/>
	<circle cx="482.764" cy="47.0888" r="4" fill="#0" id="circle148"/>
	<circle cx="482.764" cy="56.6641" r="4" fill="#0" id="circle149"/>
	<circle cx="482.764" cy="66.2394" r="4" fill="#0" id="circle150"/>
	<circle cx="482.764" cy="75.8147" r="4" fill="#0" id="circle151"/>
	<circle cx="482.764" cy="85.39" r="4" fill="#0" id="circle152"/>
	<circle cx="482.764" cy="94.9653" r="4" fill="#0" id="circle153"/>
	<circle cx="491.382" cy="749.915" r="4" fill="#0" id="circle154"/>
	<circle cx="492.34" cy="4.95753" r="4" fill="#0" id="circle155"/>
	<circle cx="500.958" cy="749.915" r="4" fill="#0" id="circle156"/>
	<circle cx="501.915" cy="4" r="4" fill="#0" id="circle157"/>
	<circle cx="507.66" cy="11.6602" r="4" fill="#0" id="circle158"/>
	<circle cx="510.533" cy="749.915" r="4" fill="#0" id="circle159"/>
	<circle cx="512.448" cy="20.278" r="4" fill="#0" id="circle160"/>
	<circle cx="512.448" cy="29.8533" r="4" fill="#0" id="circle161"/>
	<circle cx="517.236" cy="38.471" r="4" fill="#0" id="circle162"/>
	<circle cx="520.108" cy="749.915" r="4" fill="#0" id="circle163"/>
	<circle cx="521.066" cy="48.0463" r="4" fill="#0" id="circle164"/>
	<circle cx="522.023" cy="57.6216" r="4" fill="#0" id="circle165"/>
	<circle cx="525.853" cy="67.1969" r="4" fill="#0" id="circle166"/>
	<circle cx="526.811" cy="76.7722" r="4" fill="#0" id="circle167"/>
	<circle cx="526.811" cy="86.3475" r="4" fill="#0" id="circle168"/>
	<circle cx="526.811" cy="95.9228" r="4" fill="#0" id="circle169"/>
	<circle cx="526.811" cy="105.498" r="4" fill="#0" id="circle170"/>
	<circle cx="529.683" cy="749.915" r="4" fill="#0" id="circle171"/>
	<circle cx="531.598" cy="175.398" r="4" fill="#0" id="circle172"/>
	<circle cx="531.598" cy="184.973" r="4" fill="#0" id="circle173"/>
	<circle cx="531.598" cy="194.548" r="4" fill="#0" id="circle174"/>
	<circle cx="531.598" cy="204.124" r="4" fill="#0" id="circle175"/>
	<circle cx="531.598" cy="213.699" r="4" fill="#0" id="circle176"/>
	<circle cx="531.598" cy="223.274" r="4" fill="#0" id="circle177"/>
	<circle cx="531.598" cy="232.849" r="4" fill="#0" id="circle178"/>
	<circle cx="533.514" cy="242.425" r="4" fill="#0" id="circle179"/>
	<circle cx="535.429" cy="110.286" r="4" fill="#0" id="circle180"/>
	<circle cx="536.386" cy="252" r="4" fill="#0" id="circle181"/>
	<circle cx="536.386" cy="261.575" r="4" fill="#0" id="circle182"/>
	<circle cx="536.386" cy="271.151" r="4" fill="#0" id="circle183"/>
	<circle cx="536.386" cy="280.726" r="4" fill="#0" id="circle184"/>
	<circle cx="536.386" cy="290.301" r="4" fill="#0" id="circle185"/>
	<circle cx="536.386" cy="299.876" r="4" fill="#0" id="circle186"/>
	<circle cx="536.386" cy="309.452" r="4" fill="#0" id="circle187"/>
	<circle cx="536.386" cy="319.027" r="4" fill="#0" id="circle188"/>
	<circle cx="539.259" cy="749.915" r="4" fill="#0" id="circle189"/>
	<circle cx="540.216" cy="170.61" r="4" fill="#0" id="circle190"/>
	<circle cx="541.174" cy="327.645" r="4" fill="#0" id="circle191"/>
	<circle cx="545.004" cy="112.201" r="4" fill="#0" id="circle192"/>
	<circle cx="547.876" cy="754.703" r="4" fill="#0" id="circle193"/>
	<circle cx="548.834" cy="165.822" r="4" fill="#0" id="circle194"/>
	<circle cx="550.749" cy="330.517" r="4" fill="#0" id="circle195"/>
	<circle cx="554.579" cy="112.201" r="4" fill="#0" id="circle196"/>
	<circle cx="557.452" cy="161.035" r="4" fill="#0" id="circle197"/>
	<circle cx="557.452" cy="754.703" r="4" fill="#0" id="circle198"/>
	<circle cx="560.324" cy="332.432" r="4" fill="#0" id="circle199"/>
	<circle cx="564.154" cy="112.201" r="4" fill="#0" id="circle200"/>
	<circle cx="567.027" cy="161.035" r="4" fill="#0" id="circle201"/>
	<circle cx="567.027" cy="754.703" r="4" fill="#0" id="circle202"/>
	<circle cx="569.9" cy="332.432" r="4" fill="#0" id="circle203"/>
	<circle cx="573.73" cy="114.116" r="4" fill="#0" id="circle204"/>
	<circle cx="576.602" cy="160.077" r="4" fill="#0" id="circle205"/>
	<circle cx="576.602" cy="754.703" r="4" fill="#0" id="circle206"/>
	<circle cx="579.475" cy="332.432" r="4" fill="#0" id="circle207"/>
	<circle cx="583.305" cy="116.988" r="4" fill="#0" id="circle208"/>
	<circle cx="586.178" cy="156.247" r="4" fill="#0" id="circle209"/>
	<circle cx="586.178" cy="754.703" r="4" fill="#0" id="circle210"/>
	<circle cx="589.05" cy="332.432" r="4" fill="#0" id="circle211"/>
	<circle cx="592.88" cy="116.988" r="4" fill="#0" id="circle212"/>
	<circle cx="595.753" cy="156.247" r="4" fill="#0" id="circle213"/>
	<circle cx="595.753" cy="754.703" r="4" fill="#0" id="circle214"/>
	<circle cx="597.668" cy="337.22" r="4" fill="#0" id="circle215"/>
	<circle cx="602.456" cy="116.988" r="4" fill="#0" id="circle216"/>
	<circle cx="605.328" cy="156.247" r="4" fill="#0" id="circle217"/>
	<circle cx="605.328" cy="754.703" r="4" fill="#0" id="circle218"/>
	<circle cx="607.243" cy="337.22" r="4" fill="#0" id="circle219"/>
	<circle cx="612.031" cy="118.903" r="4" fill="#0" id="circle220"/>
	<circle cx="613.946" cy="151.459" r="4" fill="#0" id="circle221"/>
	<circle cx="614.903" cy="754.703" r="4" fill="#0" id="circle222"/>
	<circle cx="616.819" cy="337.22" r="4" fill="#0" id="circle223"/>
	<circle cx="621.606" cy="121.776" r="4" fill="#0" id="circle224"/>
	<circle cx="623.521" cy="151.459" r="4" fill="#0" id="circle225"/>
	<circle cx="623.521" cy="759.49" r="4" fill="#0" id="circle226"/>
	<circle cx="625.436" cy="342.008" r="4" fill="#0" id="circle227"/>
	<circle cx="631.181" cy="121.776" r="4" fill="#0" id="circle228"/>
	<circle cx="633.097" cy="151.459" r="4" fill="#0" id="circle229"/>
	<circle cx="633.097" cy="759.49" r="4" fill="#0" id="circle230"/>
	<circle cx="635.012" cy="342.008" r="4" fill="#0" id="circle231"/>
	<circle cx="640.757" cy="121.776" r="4" fill="#0" id="circle232"/>
	<circle cx="641.714" cy="146.672" r="4" fill="#0" id="circle233"/>
	<circle cx="642.672" cy="759.49" r="4" fill="#0" id="circle234"/>
	<circle cx="644.587" cy="342.965" r="4" fill="#0" id="circle235"/>
	<circle cx="650.332" cy="121.776" r="4" fill="#0" id="circle236"/>
	<circle cx="651.29" cy="146.672" r="4" fill="#0" id="circle237"/>
	<circle cx="652.247" cy="759.49" r="4" fill="#0" id="circle238"/>
	<circle cx="654.162" cy="346.795" r="4" fill="#0" id="circle239"/>
	<circle cx="657.992" cy="127.521" r="4" fill="#0" id="circle240"/>
	<circle cx="658.95" cy="139.969" r="4" fill="#0" id="circle241"/>
	<circle cx="661.822" cy="759.49" r="4" fill="#0" id="circle242"/>
	<circle cx="663.737" cy="346.795" r="4" fill="#0" id="circle243"/>
	<circle cx="671.398" cy="759.49" r="4" fill="#0" id="circle244"/>
	<circle cx="673.313" cy="347.753" r="4" fill="#0" id="circle245"/>
	<circle cx="680.973" cy="759.49" r="4" fill="#0" id="circle246"/>
	<circle cx="682.888" cy="351.583" r="4" fill="#0" id="circle247"/>
	<circle cx="690.548" cy="759.49" r="4" fill="#0" id="circle248"/>
	<circle cx="692.463" cy="351.583" r="4" fill="#0" id="circle249"/>
	<circle cx="700.124" cy="759.49" r="4" fill="#0" id="circle250"/>
	<circle cx="701.081" cy="356.371" r="4" fill="#0" id="circle251"/>
	<circle cx="708.741" cy="754.703" r="4" fill="#0" id="circle252"/>
	<circle cx="710.656" cy="356.371" r="4" fill="#0" id="circle253"/>
	<circle cx="718.317" cy="754.703" r="4" fill="#0" id="circle254"/>
	<circle cx="719.274" cy="361.158" r="4" fill="#0" id="circle255"/>
	<circle cx="727.892" cy="754.703" r="4" fill="#0" id="circle256"/>
	<circle cx="728.849" cy="361.158" r="4" fill="#0" id="circle257"/>
	<circle cx="737.467" cy="754.703" r="4" fill="#0" id="circle258"/>
	<circle cx="738.425" cy="361.158" r="4" fill="#0" id="circle259"/>
	<circle cx="747.042" cy="754.703" r="4" fill="#0" id="circle260"/>
	<circle cx="748" cy="361.158" r="4" fill="#0" id="circle261"/>
	<circle cx="755.66" cy="749.915" r="4" fill="#0" id="circle262"/>
	<circle cx="757.575" cy="361.158" r="4" fill="#0" id="circle263"/>
	<circle cx="765.236" cy="749.915" r="4" fill="#0" id="circle264"/>
	<circle cx="767.151" cy="361.158" r="4" fill="#0" id="circle265"/>
	<circle cx="774.811" cy="749.915" r="4" fill="#0" id="circle266"/>
	<circle cx="775.768" cy="365.946" r="4" fill="#0" id="circle267"/>
	<circle cx="783.429" cy="745.127" r="4" fill="#0" id="circle268"/>
	<circle cx="785.344" cy="365.946" r="4" fill="#0" id="circle269"/>
	<circle cx="792.046" cy="740.34" r="4" fill="#0" id="circle270"/>
	<circle cx="794.919" cy="365.946" r="4" fill="#0" id="circle271"/>
	<circle cx="800.664" cy="735.552" r="4" fill="#0" id="circle272"/>
	<circle cx="802.579" cy="371.691" r="4" fill="#0" id="circle273"/>
	<circle cx="809.282" cy="379.351" r="4" fill="#0" id="circle274"/>
	<circle cx="809.282" cy="388.927" r="4" fill="#0" id="circle275"/>
	<circle cx="809.282" cy="398.502" r="4" fill="#0" id="circle276"/>
	<circle cx="809.282" cy="408.077" r="4" fill="#0" id="circle277"/>
	<circle cx="809.282" cy="730.764" r="4" fill="#0" id="circle278"/>
	<circle cx="814.069" cy="416.695" r="4" fill="#0" id="circle279"/>
	<circle cx="814.069" cy="426.27" r="4" fill="#0" id="circle280"/>
	<circle cx="817.9" cy="435.846" r="4" fill="#0" id="circle281"/>
	<circle cx="818.857" cy="445.421" r="4" fill="#0" id="circle282"/>
	<circle cx="818.857" cy="730.764" r="4" fill="#0" id="circle283"/>
	<circle cx="827.475" cy="725.977" r="4" fill="#0" id="circle284"/>
	<circle cx="828.432" cy="447.336" r="4" fill="#0" id="circle285"/>
	<circle cx="836.093" cy="721.189" r="4" fill="#0" id="circle286"/>
	<circle cx="837.05" cy="452.124" r="4" fill="#0" id="circle287"/>
	<circle cx="844.71" cy="716.402" r="4" fill="#0" id="circle288"/>
	<circle cx="846.625" cy="454.039" r="4" fill="#0" id="circle289"/>
	<circle cx="853.328" cy="711.614" r="4" fill="#0" id="circle290"/>
	<circle cx="856.201" cy="456.911" r="4" fill="#0" id="circle291"/>
	<circle cx="861.946" cy="706.826" r="4" fill="#0" id="circle292"/>
	<circle cx="865.776" cy="458.826" r="4" fill="#0" id="circle293"/>
	<circle cx="870.564" cy="702.039" r="4" fill="#0" id="circle294"/>
	<circle cx="874.394" cy="463.614" r="4" fill="#0" id="circle295"/>
	<circle cx="879.181" cy="697.251" r="4" fill="#0" id="circle296"/>
	<circle cx="883.969" cy="467.444" r="4" fill="#0" id="circle297"/>
	<circle cx="887.799" cy="692.463" r="4" fill="#0" id="circle298"/>
	<circle cx="892.587" cy="472.232" r="4" fill="#0" id="circle299"/>
	<circle cx="896.417" cy="687.676" r="4" fill="#0" id="circle300"/>
	<circle cx="902.162" cy="476.062" r="4" fill="#0" id="circle301"/>
	<circle cx="905.035" cy="682.888" r="4" fill="#0" id="circle302"/>
	<circle cx="910.78" cy="480.849" r="4" fill="#0" id="circle303"/>
	<circle cx="914.61" cy="678.1" r="4" fill="#0" id="circle304"/>
	<circle cx="919.398" cy="485.637" r="4" fill="#0" id="circle305"/>
	<circle cx="924.185" cy="673.313" r="4" fill="#0" id="circle306"/>
	<circle cx="927.058" cy="491.382" r="4" fill="#0" id="circle307"/>
	<circle cx="932.803" cy="668.525" r="4" fill="#0" id="circle308"/>
	<circle cx="935.676" cy="496.17" r="4" fill="#0" id="circle309"/>
	<circle cx="940.463" cy="662.78" r="4" fill="#0" id="circle310"/>
	<circle cx="943.336" cy="502.873" r="4" fill="#0" id="circle311"/>
	<circle cx="948.124" cy="511.49" r="4" fill="#0" id="circle312"/>
	<circle cx="948.124" cy="654.162" r="4" fill="#0" id="circle313"/>
	<circle cx="953.869" cy="519.151" r="4" fill="#0" id="circle314"/>
	<circle cx="957.699" cy="649.375" r="4" fill="#0" id="circle315"/>
	<circle cx="962.486" cy="523.938" r="4" fill="#0" id="circle316"/>
	<circle cx="965.359" cy="642.672" r="4" fill="#0" id="circle317"/>
	<circle cx="967.274" cy="532.556" r="4" fill="#0" id="circle318"/>
	<circle cx="974.934" cy="637.884" r="4" fill="#0" id="circle319"/>
	<circle cx="976.849" cy="536.386" r="4" fill="#0" id="circle320"/>
	<circle cx="981.637" cy="545.004" r="4" fill="#0" id="circle321"/>
	<circle cx="981.637" cy="630.224" r="4" fill="#0" id="circle322"/>
	<circle cx="987.382" cy="552.664" r="4" fill="#0" id="circle323"/>
	<circle cx="989.297" cy="623.521" r="4" fill="#0" id="circle324"/>
	<circle cx="994.085" cy="613.946" r="4" fill="#0" id="circle325"/>
	<circle cx="995.042" cy="559.367" r="4" fill="#0" id="circle326"/>
	<circle cx="996" cy="568.942" r="4" fill="#0" id="circle327"/>
	<circle cx="996" cy="578.517" r="4" fill="#0" id="circle328"/>
	<circle cx="996" cy="588.093" r="4" fill="#0" id="circle329"/>
	<circle cx="996" cy="597.668" r="4" fill="#0" id="circle330"/>
	</g>
</svg>