<?xml version="1.0" encoding="UTF-8" standalone="no"?>
<!-- Created with CurveBenchmark -->
<svg
	xmlns:dc="http://purl.org/dc/elements/1.1/"
	xmlns:cc="http://creativecommons.org/ns#"
	xmlns:rdf="http://www.w3.org/1999/02/22-rdf-syntax-ns#"
	xmlns:svg="http://www.w3.org/2000/svg"
	xmlns="http://www.w3.org/2000/svg"
	xmlns:sodipodi="http://sodipodi.sourceforge.net/DTD/sodipodi-0.dtd"
	xmlns:inkscape="http://www.inkscape.org/namespaces/inkscape"
	width="1000"
	height="1000"
	id="svg2"
	version="1.1"
	sodipodi:docname="manifold/nncrust-bird340.png.txt">
<defs
	id="defs4" />
<metadata
	id="metadata7">
	<rdf:RDF>
		<cc:Work
			rdf:about="">
			<dc:format>image/svg+xml</dc:format>
			<dc:type
				rdf:resource="http://purl.org/dc/dcmitype/StillImage" />
			<dc:title></dc:title>
		</cc:Work>
	</rdf:RDF>
</metadata>
<g
	inkscape:label="Layer 1"
	inkscape:groupmode="layer"
	id="layer1">
	<path style="fill:none;stroke:red;stroke-width:1px;stroke-linecap:butt;stroke-linejoin:miter;stroke-opacity:1" d="M 57.6216,279.768 80.6023,241.467 z" id="boundary" inkscape:connector-curvature="0" />
	<path style="fill:none;stroke:red;stroke-width:1px;stroke-linecap:butt;stroke-linejoin:miter;stroke-opacity:1" d="M 80.6023,241.467 111.243,210.826 z" id="boundary" inkscape:connector-curvature="0" />
	<path style="fill:none;stroke:red;stroke-width:1px;stroke-linecap:butt;stroke-linejoin:miter;stroke-opacity:1" d="M 111.243,210.826 141.884,180.185 z" id="boundary" inkscape:connector-curvature="0" />
	<path style="fill:none;stroke:red;stroke-width:1px;stroke-linecap:butt;stroke-linejoin:miter;stroke-opacity:1" d="M 141.884,180.185 172.525,149.544 z" id="boundary" inkscape:connector-curvature="0" />
	<path style="fill:none;stroke:red;stroke-width:1px;stroke-linecap:butt;stroke-linejoin:miter;stroke-opacity:1" d="M 23.1506,421.483 4,387.012 z" id="boundary" inkscape:connector-curvature="0" />
	<path style="fill:none;stroke:red;stroke-width:1px;stroke-linecap:butt;stroke-linejoin:miter;stroke-opacity:1" d="M 61.4517,425.313 23.1506,421.483 z" id="boundary" inkscape:connector-curvature="0" />
	<path style="fill:none;stroke:red;stroke-width:1px;stroke-linecap:butt;stroke-linejoin:miter;stroke-opacity:1" d="M 4,387.012 19.3205,348.71 z" id="boundary" inkscape:connector-curvature="0" />
	<path style="fill:none;stroke:red;stroke-width:1px;stroke-linecap:butt;stroke-linejoin:miter;stroke-opacity:1" d="M 99.7529,409.992 61.4517,425.313 z" id="boundary" inkscape:connector-curvature="0" />
	<path style="fill:none;stroke:red;stroke-width:1px;stroke-linecap:butt;stroke-linejoin:miter;stroke-opacity:1" d="M 38.471,314.239 57.6216,279.768 z" id="boundary" inkscape:connector-curvature="0" />
	<path style="fill:none;stroke:red;stroke-width:1px;stroke-linecap:butt;stroke-linejoin:miter;stroke-opacity:1" d="M 99.7529,409.992 134.224,429.143 z" id="boundary" inkscape:connector-curvature="0" />
	<path style="fill:none;stroke:red;stroke-width:1px;stroke-linecap:butt;stroke-linejoin:miter;stroke-opacity:1" d="M 19.3205,348.71 38.471,314.239 z" id="boundary" inkscape:connector-curvature="0" />
	<path style="fill:none;stroke:red;stroke-width:1px;stroke-linecap:butt;stroke-linejoin:miter;stroke-opacity:1" d="M 172.525,149.544 203.166,118.903 z" id="boundary" inkscape:connector-curvature="0" />
	<path style="fill:none;stroke:red;stroke-width:1px;stroke-linecap:butt;stroke-linejoin:miter;stroke-opacity:1" d="M 264.448,65.2819 295.089,42.3012 z" id="boundary" inkscape:connector-curvature="0" />
	<path style="fill:none;stroke:red;stroke-width:1px;stroke-linecap:butt;stroke-linejoin:miter;stroke-opacity:1" d="M 295.089,42.3012 333.39,26.9807 z" id="boundary" inkscape:connector-curvature="0" />
	<path style="fill:none;stroke:red;stroke-width:1px;stroke-linecap:butt;stroke-linejoin:miter;stroke-opacity:1" d="M 333.39,26.9807 371.691,11.6602 z" id="boundary" inkscape:connector-curvature="0" />
	<path style="fill:none;stroke:red;stroke-width:1px;stroke-linecap:butt;stroke-linejoin:miter;stroke-opacity:1" d="M 371.691,11.6602 409.992,4 z" id="boundary" inkscape:connector-curvature="0" />
	<path style="fill:none;stroke:red;stroke-width:1px;stroke-linecap:butt;stroke-linejoin:miter;stroke-opacity:1" d="M 249.127,398.502 210.826,413.822 z" id="boundary" inkscape:connector-curvature="0" />
	<path style="fill:none;stroke:red;stroke-width:1px;stroke-linecap:butt;stroke-linejoin:miter;stroke-opacity:1" d="M 203.166,118.903 233.807,88.2625 z" id="boundary" inkscape:connector-curvature="0" />
	<path style="fill:none;stroke:red;stroke-width:1px;stroke-linecap:butt;stroke-linejoin:miter;stroke-opacity:1" d="M 283.598,379.351 249.127,398.502 z" id="boundary" inkscape:connector-curvature="0" />
	<path style="fill:none;stroke:red;stroke-width:1px;stroke-linecap:butt;stroke-linejoin:miter;stroke-opacity:1" d="M 318.069,360.201 356.371,356.371 z" id="boundary" inkscape:connector-curvature="0" />
	<path style="fill:none;stroke:red;stroke-width:1px;stroke-linecap:butt;stroke-linejoin:miter;stroke-opacity:1" d="M 356.371,356.371 356.371,394.672 z" id="boundary" inkscape:connector-curvature="0" />
	<path style="fill:none;stroke:red;stroke-width:1px;stroke-linecap:butt;stroke-linejoin:miter;stroke-opacity:1" d="M 283.598,379.351 318.069,360.201 z" id="boundary" inkscape:connector-curvature="0" />
	<path style="fill:none;stroke:red;stroke-width:1px;stroke-linecap:butt;stroke-linejoin:miter;stroke-opacity:1" d="M 356.371,432.973 356.371,394.672 z" id="boundary" inkscape:connector-curvature="0" />
	<path style="fill:none;stroke:red;stroke-width:1px;stroke-linecap:butt;stroke-linejoin:miter;stroke-opacity:1" d="M 233.807,88.2625 264.448,65.2819 z" id="boundary" inkscape:connector-curvature="0" />
	<path style="fill:none;stroke:red;stroke-width:1px;stroke-linecap:butt;stroke-linejoin:miter;stroke-opacity:1" d="M 210.826,413.822 172.525,429.143 z" id="boundary" inkscape:connector-curvature="0" />
	<path style="fill:none;stroke:red;stroke-width:1px;stroke-linecap:butt;stroke-linejoin:miter;stroke-opacity:1" d="M 134.224,429.143 172.525,429.143 z" id="boundary" inkscape:connector-curvature="0" />
	<path style="fill:none;stroke:red;stroke-width:1px;stroke-linecap:butt;stroke-linejoin:miter;stroke-opacity:1" d="M 356.371,432.973 356.371,471.274 z" id="boundary" inkscape:connector-curvature="0" />
	<path style="fill:none;stroke:red;stroke-width:1px;stroke-linecap:butt;stroke-linejoin:miter;stroke-opacity:1" d="M 356.371,471.274 356.371,509.575 z" id="boundary" inkscape:connector-curvature="0" />
	<path style="fill:none;stroke:red;stroke-width:1px;stroke-linecap:butt;stroke-linejoin:miter;stroke-opacity:1" d="M 356.371,509.575 356.371,547.876 z" id="boundary" inkscape:connector-curvature="0" />
	<path style="fill:none;stroke:red;stroke-width:1px;stroke-linecap:butt;stroke-linejoin:miter;stroke-opacity:1" d="M 356.371,586.178 356.371,547.876 z" id="boundary" inkscape:connector-curvature="0" />
	<path style="fill:none;stroke:red;stroke-width:1px;stroke-linecap:butt;stroke-linejoin:miter;stroke-opacity:1" d="M 356.371,586.178 356.371,624.479 z" id="boundary" inkscape:connector-curvature="0" />
	<path style="fill:none;stroke:red;stroke-width:1px;stroke-linecap:butt;stroke-linejoin:miter;stroke-opacity:1" d="M 356.371,662.78 356.371,624.479 z" id="boundary" inkscape:connector-curvature="0" />
	<path style="fill:none;stroke:red;stroke-width:1px;stroke-linecap:butt;stroke-linejoin:miter;stroke-opacity:1" d="M 356.371,701.081 356.371,662.78 z" id="boundary" inkscape:connector-curvature="0" />
	<path style="fill:none;stroke:red;stroke-width:1px;stroke-linecap:butt;stroke-linejoin:miter;stroke-opacity:1" d="M 364.031,739.382 356.371,701.081 z" id="boundary" inkscape:connector-curvature="0" />
	<path style="fill:none;stroke:red;stroke-width:1px;stroke-linecap:butt;stroke-linejoin:miter;stroke-opacity:1" d="M 371.691,777.683 375.521,815.985 z" id="boundary" inkscape:connector-curvature="0" />
	<path style="fill:none;stroke:red;stroke-width:1px;stroke-linecap:butt;stroke-linejoin:miter;stroke-opacity:1" d="M 364.031,739.382 371.691,777.683 z" id="boundary" inkscape:connector-curvature="0" />
	<path style="fill:none;stroke:red;stroke-width:1px;stroke-linecap:butt;stroke-linejoin:miter;stroke-opacity:1" d="M 475.104,463.614 459.784,517.236 z" id="boundary" inkscape:connector-curvature="0" />
	<path style="fill:none;stroke:red;stroke-width:1px;stroke-linecap:butt;stroke-linejoin:miter;stroke-opacity:1" d="M 375.521,815.985 379.351,854.286 z" id="boundary" inkscape:connector-curvature="0" />
	<path style="fill:none;stroke:red;stroke-width:1px;stroke-linecap:butt;stroke-linejoin:miter;stroke-opacity:1" d="M 436.803,662.78 436.803,701.081 z" id="boundary" inkscape:connector-curvature="0" />
	<path style="fill:none;stroke:red;stroke-width:1px;stroke-linecap:butt;stroke-linejoin:miter;stroke-opacity:1" d="M 436.803,662.78 436.803,624.479 z" id="boundary" inkscape:connector-curvature="0" />
	<path style="fill:none;stroke:red;stroke-width:1px;stroke-linecap:butt;stroke-linejoin:miter;stroke-opacity:1" d="M 436.803,624.479 444.463,586.178 z" id="boundary" inkscape:connector-curvature="0" />
	<path style="fill:none;stroke:red;stroke-width:1px;stroke-linecap:butt;stroke-linejoin:miter;stroke-opacity:1" d="M 444.463,739.382 436.803,701.081 z" id="boundary" inkscape:connector-curvature="0" />
	<path style="fill:none;stroke:red;stroke-width:1px;stroke-linecap:butt;stroke-linejoin:miter;stroke-opacity:1" d="M 452.124,777.683 444.463,739.382 z" id="boundary" inkscape:connector-curvature="0" />
	<path style="fill:none;stroke:red;stroke-width:1px;stroke-linecap:butt;stroke-linejoin:miter;stroke-opacity:1" d="M 379.351,854.286 387.012,892.587 z" id="boundary" inkscape:connector-curvature="0" />
	<path style="fill:none;stroke:red;stroke-width:1px;stroke-linecap:butt;stroke-linejoin:miter;stroke-opacity:1" d="M 387.012,892.587 387.012,930.888 z" id="boundary" inkscape:connector-curvature="0" />
	<path style="fill:none;stroke:red;stroke-width:1px;stroke-linecap:butt;stroke-linejoin:miter;stroke-opacity:1" d="M 455.954,815.985 452.124,777.683 z" id="boundary" inkscape:connector-curvature="0" />
	<path style="fill:none;stroke:red;stroke-width:1px;stroke-linecap:butt;stroke-linejoin:miter;stroke-opacity:1" d="M 394.672,969.189 387.012,930.888 z" id="boundary" inkscape:connector-curvature="0" />
	<path style="fill:none;stroke:red;stroke-width:1px;stroke-linecap:butt;stroke-linejoin:miter;stroke-opacity:1" d="M 432.973,980.68 394.672,969.189 z" id="boundary" inkscape:connector-curvature="0" />
	<path style="fill:none;stroke:red;stroke-width:1px;stroke-linecap:butt;stroke-linejoin:miter;stroke-opacity:1" d="M 455.954,815.985 459.784,854.286 z" id="boundary" inkscape:connector-curvature="0" />
	<path style="fill:none;stroke:red;stroke-width:1px;stroke-linecap:butt;stroke-linejoin:miter;stroke-opacity:1" d="M 444.463,586.178 459.784,517.236 z" id="boundary" inkscape:connector-curvature="0" />
	<path style="fill:none;stroke:red;stroke-width:1px;stroke-linecap:butt;stroke-linejoin:miter;stroke-opacity:1" d="M 409.992,4 448.293,4 z" id="boundary" inkscape:connector-curvature="0" />
	<path style="fill:none;stroke:red;stroke-width:1px;stroke-linecap:butt;stroke-linejoin:miter;stroke-opacity:1" d="M 486.595,4 524.896,11.6602 z" id="boundary" inkscape:connector-curvature="0" />
	<path style="fill:none;stroke:red;stroke-width:1px;stroke-linecap:butt;stroke-linejoin:miter;stroke-opacity:1" d="M 563.197,23.1506 524.896,11.6602 z" id="boundary" inkscape:connector-curvature="0" />
	<path style="fill:none;stroke:red;stroke-width:1px;stroke-linecap:butt;stroke-linejoin:miter;stroke-opacity:1" d="M 777.683,72.9421 739.382,88.2625 z" id="boundary" inkscape:connector-curvature="0" />
	<path style="fill:none;stroke:red;stroke-width:1px;stroke-linecap:butt;stroke-linejoin:miter;stroke-opacity:1" d="M 632.139,61.4517 601.498,38.471 z" id="boundary" inkscape:connector-curvature="0" />
	<path style="fill:none;stroke:red;stroke-width:1px;stroke-linecap:butt;stroke-linejoin:miter;stroke-opacity:1" d="M 651.29,95.9228 632.139,61.4517 z" id="boundary" inkscape:connector-curvature="0" />
	<path style="fill:none;stroke:red;stroke-width:1px;stroke-linecap:butt;stroke-linejoin:miter;stroke-opacity:1" d="M 563.197,23.1506 601.498,38.471 z" id="boundary" inkscape:connector-curvature="0" />
	<path style="fill:none;stroke:red;stroke-width:1px;stroke-linecap:butt;stroke-linejoin:miter;stroke-opacity:1" d="M 597.668,229.977 559.367,226.147 z" id="boundary" inkscape:connector-curvature="0" />
	<path style="fill:none;stroke:red;stroke-width:1px;stroke-linecap:butt;stroke-linejoin:miter;stroke-opacity:1" d="M 651.29,95.9228 666.61,134.224 z" id="boundary" inkscape:connector-curvature="0" />
	<path style="fill:none;stroke:red;stroke-width:1px;stroke-linecap:butt;stroke-linejoin:miter;stroke-opacity:1" d="M 597.668,229.977 609.158,268.278 z" id="boundary" inkscape:connector-curvature="0" />
	<path style="fill:none;stroke:red;stroke-width:1px;stroke-linecap:butt;stroke-linejoin:miter;stroke-opacity:1" d="M 666.61,134.224 708.741,118.903 z" id="boundary" inkscape:connector-curvature="0" />
	<path style="fill:none;stroke:red;stroke-width:1px;stroke-linecap:butt;stroke-linejoin:miter;stroke-opacity:1" d="M 689.591,164.865 666.61,134.224 z" id="boundary" inkscape:connector-curvature="0" />
	<path style="fill:none;stroke:red;stroke-width:1px;stroke-linecap:butt;stroke-linejoin:miter;stroke-opacity:1" d="M 766.193,195.506 689.591,164.865 z" id="boundary" inkscape:connector-curvature="0" />
	<path style="fill:none;stroke:red;stroke-width:1px;stroke-linecap:butt;stroke-linejoin:miter;stroke-opacity:1" d="M 708.741,118.903 739.382,88.2625 z" id="boundary" inkscape:connector-curvature="0" />
	<path style="fill:none;stroke:red;stroke-width:1px;stroke-linecap:butt;stroke-linejoin:miter;stroke-opacity:1" d="M 766.193,195.506 770.023,233.807 z" id="boundary" inkscape:connector-curvature="0" />
	<path style="fill:none;stroke:red;stroke-width:1px;stroke-linecap:butt;stroke-linejoin:miter;stroke-opacity:1" d="M 804.494,184.015 766.193,195.506 z" id="boundary" inkscape:connector-curvature="0" />
	<path style="fill:none;stroke:red;stroke-width:1px;stroke-linecap:butt;stroke-linejoin:miter;stroke-opacity:1" d="M 559.367,226.147 528.726,256.788 z" id="boundary" inkscape:connector-curvature="0" />
	<path style="fill:none;stroke:red;stroke-width:1px;stroke-linecap:butt;stroke-linejoin:miter;stroke-opacity:1" d="M 777.683,72.9421 815.985,72.9421 z" id="boundary" inkscape:connector-curvature="0" />
	<path style="fill:none;stroke:red;stroke-width:1px;stroke-linecap:butt;stroke-linejoin:miter;stroke-opacity:1" d="M 854.286,76.7722 815.985,72.9421 z" id="boundary" inkscape:connector-curvature="0" />
	<path style="fill:none;stroke:red;stroke-width:1px;stroke-linecap:butt;stroke-linejoin:miter;stroke-opacity:1" d="M 888.757,95.9228 915.568,126.564 z" id="boundary" inkscape:connector-curvature="0" />
	<path style="fill:none;stroke:red;stroke-width:1px;stroke-linecap:butt;stroke-linejoin:miter;stroke-opacity:1" d="M 927.058,164.865 915.568,126.564 z" id="boundary" inkscape:connector-curvature="0" />
	<path style="fill:none;stroke:red;stroke-width:1px;stroke-linecap:butt;stroke-linejoin:miter;stroke-opacity:1" d="M 950.039,195.506 927.058,164.865 z" id="boundary" inkscape:connector-curvature="0" />
	<path style="fill:none;stroke:red;stroke-width:1px;stroke-linecap:butt;stroke-linejoin:miter;stroke-opacity:1" d="M 854.286,76.7722 888.757,95.9228 z" id="boundary" inkscape:connector-curvature="0" />
	<path style="fill:none;stroke:red;stroke-width:1px;stroke-linecap:butt;stroke-linejoin:miter;stroke-opacity:1" d="M 804.494,184.015 838.965,203.166 z" id="boundary" inkscape:connector-curvature="0" />
	<path style="fill:none;stroke:red;stroke-width:1px;stroke-linecap:butt;stroke-linejoin:miter;stroke-opacity:1" d="M 773.853,272.108 770.023,233.807 z" id="boundary" inkscape:connector-curvature="0" />
	<path style="fill:none;stroke:red;stroke-width:1px;stroke-linecap:butt;stroke-linejoin:miter;stroke-opacity:1" d="M 907.907,241.467 877.266,218.486 z" id="boundary" inkscape:connector-curvature="0" />
	<path style="fill:none;stroke:red;stroke-width:1px;stroke-linecap:butt;stroke-linejoin:miter;stroke-opacity:1" d="M 877.266,218.486 838.965,203.166 z" id="boundary" inkscape:connector-curvature="0" />
	<path style="fill:none;stroke:red;stroke-width:1px;stroke-linecap:butt;stroke-linejoin:miter;stroke-opacity:1" d="M 938.548,264.448 907.907,241.467 z" id="boundary" inkscape:connector-curvature="0" />
	<path style="fill:none;stroke:red;stroke-width:1px;stroke-linecap:butt;stroke-linejoin:miter;stroke-opacity:1" d="M 950.039,195.506 973.019,226.147 z" id="boundary" inkscape:connector-curvature="0" />
	<path style="fill:none;stroke:red;stroke-width:1px;stroke-linecap:butt;stroke-linejoin:miter;stroke-opacity:1" d="M 996,256.788 973.019,226.147 z" id="boundary" inkscape:connector-curvature="0" />
	<path style="fill:none;stroke:red;stroke-width:1px;stroke-linecap:butt;stroke-linejoin:miter;stroke-opacity:1" d="M 567.027,938.548 459.784,854.286 z" id="boundary" inkscape:connector-curvature="0" />
	<path style="fill:none;stroke:red;stroke-width:1px;stroke-linecap:butt;stroke-linejoin:miter;stroke-opacity:1" d="M 482.764,425.313 475.104,463.614 z" id="boundary" inkscape:connector-curvature="0" />
	<path style="fill:none;stroke:red;stroke-width:1px;stroke-linecap:butt;stroke-linejoin:miter;stroke-opacity:1" d="M 490.425,387.012 482.764,425.313 z" id="boundary" inkscape:connector-curvature="0" />
	<path style="fill:none;stroke:red;stroke-width:1px;stroke-linecap:butt;stroke-linejoin:miter;stroke-opacity:1" d="M 498.085,333.39 505.745,287.429 z" id="boundary" inkscape:connector-curvature="0" />
	<path style="fill:none;stroke:red;stroke-width:1px;stroke-linecap:butt;stroke-linejoin:miter;stroke-opacity:1" d="M 498.085,333.39 490.425,387.012 z" id="boundary" inkscape:connector-curvature="0" />
	<path style="fill:none;stroke:red;stroke-width:1px;stroke-linecap:butt;stroke-linejoin:miter;stroke-opacity:1" d="M 356.371,356.371 498.085,333.39 z" id="boundary" inkscape:connector-curvature="0" />
	<path style="fill:none;stroke:red;stroke-width:1px;stroke-linecap:butt;stroke-linejoin:miter;stroke-opacity:1" d="M 528.726,256.788 505.745,287.429 z" id="boundary" inkscape:connector-curvature="0" />
	<path style="fill:none;stroke:red;stroke-width:1px;stroke-linecap:butt;stroke-linejoin:miter;stroke-opacity:1" d="M 467.444,892.587 478.934,930.888 z" id="boundary" inkscape:connector-curvature="0" />
	<path style="fill:none;stroke:red;stroke-width:1px;stroke-linecap:butt;stroke-linejoin:miter;stroke-opacity:1" d="M 467.444,892.587 459.784,854.286 z" id="boundary" inkscape:connector-curvature="0" />
	<path style="fill:none;stroke:red;stroke-width:1px;stroke-linecap:butt;stroke-linejoin:miter;stroke-opacity:1" d="M 471.274,980.68 432.973,980.68 z" id="boundary" inkscape:connector-curvature="0" />
	<path style="fill:none;stroke:red;stroke-width:1px;stroke-linecap:butt;stroke-linejoin:miter;stroke-opacity:1" d="M 478.934,930.888 517.236,930.888 z" id="boundary" inkscape:connector-curvature="0" />
	<path style="fill:none;stroke:red;stroke-width:1px;stroke-linecap:butt;stroke-linejoin:miter;stroke-opacity:1" d="M 509.575,980.68 547.876,973.019 z" id="boundary" inkscape:connector-curvature="0" />
	<path style="fill:none;stroke:red;stroke-width:1px;stroke-linecap:butt;stroke-linejoin:miter;stroke-opacity:1" d="M 547.876,973.019 586.178,973.019 z" id="boundary" inkscape:connector-curvature="0" />
	<path style="fill:none;stroke:red;stroke-width:1px;stroke-linecap:butt;stroke-linejoin:miter;stroke-opacity:1" d="M 517.236,930.888 567.027,938.548 z" id="boundary" inkscape:connector-curvature="0" />
	<path style="fill:none;stroke:red;stroke-width:1px;stroke-linecap:butt;stroke-linejoin:miter;stroke-opacity:1" d="M 567.027,938.548 547.876,973.019 z" id="boundary" inkscape:connector-curvature="0" />
	<path style="fill:none;stroke:red;stroke-width:1px;stroke-linecap:butt;stroke-linejoin:miter;stroke-opacity:1" d="M 509.575,980.68 471.274,980.68 z" id="boundary" inkscape:connector-curvature="0" />
	<path style="fill:none;stroke:red;stroke-width:1px;stroke-linecap:butt;stroke-linejoin:miter;stroke-opacity:1" d="M 609.158,306.579 609.158,268.278 z" id="boundary" inkscape:connector-curvature="0" />
	<path style="fill:none;stroke:red;stroke-width:1px;stroke-linecap:butt;stroke-linejoin:miter;stroke-opacity:1" d="M 628.309,341.05 609.158,306.579 z" id="boundary" inkscape:connector-curvature="0" />
	<path style="fill:none;stroke:red;stroke-width:1px;stroke-linecap:butt;stroke-linejoin:miter;stroke-opacity:1" d="M 773.853,272.108 758.533,325.73 z" id="boundary" inkscape:connector-curvature="0" />
	<path style="fill:none;stroke:red;stroke-width:1px;stroke-linecap:butt;stroke-linejoin:miter;stroke-opacity:1" d="M 996,256.788 969.189,287.429 z" id="boundary" inkscape:connector-curvature="0" />
	<path style="fill:none;stroke:red;stroke-width:1px;stroke-linecap:butt;stroke-linejoin:miter;stroke-opacity:1" d="M 969.189,287.429 938.548,264.448 z" id="boundary" inkscape:connector-curvature="0" />
	<path style="fill:none;stroke:red;stroke-width:1px;stroke-linecap:butt;stroke-linejoin:miter;stroke-opacity:1" d="M 735.552,356.371 586.178,973.019 z" id="boundary" inkscape:connector-curvature="0" />
	<path style="fill:none;stroke:red;stroke-width:1px;stroke-linecap:butt;stroke-linejoin:miter;stroke-opacity:1" d="M 628.309,341.05 658.95,364.031 z" id="boundary" inkscape:connector-curvature="0" />
	<path style="fill:none;stroke:red;stroke-width:1px;stroke-linecap:butt;stroke-linejoin:miter;stroke-opacity:1" d="M 658.95,364.031 697.251,367.861 z" id="boundary" inkscape:connector-curvature="0" />
	<path style="fill:none;stroke:red;stroke-width:1px;stroke-linecap:butt;stroke-linejoin:miter;stroke-opacity:1" d="M 735.552,356.371 758.533,325.73 z" id="boundary" inkscape:connector-curvature="0" />
	<path style="fill:none;stroke:red;stroke-width:1px;stroke-linecap:butt;stroke-linejoin:miter;stroke-opacity:1" d="M 735.552,356.371 697.251,367.861 z" id="boundary" inkscape:connector-curvature="0" />
	<path style="fill:none;stroke:red;stroke-width:1px;stroke-linecap:butt;stroke-linejoin:miter;stroke-opacity:1" d="M 448.293,4 486.595,4 z" id="boundary" inkscape:connector-curvature="0" />
	<circle cx="4" cy="387.012" r="4" fill="#0" id="circle0"/>
	<circle cx="19.3205" cy="348.71" r="4" fill="#0" id="circle1"/>
	<circle cx="23.1506" cy="421.483" r="4" fill="#0" id="circle2"/>
	<circle cx="38.471" cy="314.239" r="4" fill="#0" id="circle3"/>
	<circle cx="57.6216" cy="279.768" r="4" fill="#0" id="circle4"/>
	<circle cx="61.4517" cy="425.313" r="4" fill="#0" id="circle5"/>
	<circle cx="80.6023" cy="241.467" r="4" fill="#0" id="circle6"/>
	<circle cx="99.7529" cy="409.992" r="4" fill="#0" id="circle7"/>
	<circle cx="111.243" cy="210.826" r="4" fill="#0" id="circle8"/>
	<circle cx="134.224" cy="429.143" r="4" fill="#0" id="circle9"/>
	<circle cx="141.884" cy="180.185" r="4" fill="#0" id="circle10"/>
	<circle cx="172.525" cy="149.544" r="4" fill="#0" id="circle11"/>
	<circle cx="172.525" cy="429.143" r="4" fill="#0" id="circle12"/>
	<circle cx="203.166" cy="118.903" r="4" fill="#0" id="circle13"/>
	<circle cx="210.826" cy="413.822" r="4" fill="#0" id="circle14"/>
	<circle cx="233.807" cy="88.2625" r="4" fill="#0" id="circle15"/>
	<circle cx="249.127" cy="398.502" r="4" fill="#0" id="circle16"/>
	<circle cx="264.448" cy="65.2819" r="4" fill="#0" id="circle17"/>
	<circle cx="283.598" cy="379.351" r="4" fill="#0" id="circle18"/>
	<circle cx="295.089" cy="42.3012" r="4" fill="#0" id="circle19"/>
	<circle cx="318.069" cy="360.201" r="4" fill="#0" id="circle20"/>
	<circle cx="333.39" cy="26.9807" r="4" fill="#0" id="circle21"/>
	<circle cx="356.371" cy="356.371" r="4" fill="#0" id="circle22"/>
	<circle cx="356.371" cy="394.672" r="4" fill="#0" id="circle23"/>
	<circle cx="356.371" cy="432.973" r="4" fill="#0" id="circle24"/>
	<circle cx="356.371" cy="471.274" r="4" fill="#0" id="circle25"/>
	<circle cx="356.371" cy="509.575" r="4" fill="#0" id="circle26"/>
	<circle cx="356.371" cy="547.876" r="4" fill="#0" id="circle27"/>
	<circle cx="356.371" cy="586.178" r="4" fill="#0" id="circle28"/>
	<circle cx="356.371" cy="624.479" r="4" fill="#0" id="circle29"/>
	<circle cx="356.371" cy="662.78" r="4" fill="#0" id="circle30"/>
	<circle cx="356.371" cy="701.081" r="4" fill="#0" id="circle31"/>
	<circle cx="364.031" cy="739.382" r="4" fill="#0" id="circle32"/>
	<circle cx="371.691" cy="11.6602" r="4" fill="#0" id="circle33"/>
	<circle cx="371.691" cy="777.683" r="4" fill="#0" id="circle34"/>
	<circle cx="375.521" cy="815.985" r="4" fill="#0" id="circle35"/>
	<circle cx="379.351" cy="854.286" r="4" fill="#0" id="circle36"/>
	<circle cx="387.012" cy="892.587" r="4" fill="#0" id="circle37"/>
	<circle cx="387.012" cy="930.888" r="4" fill="#0" id="circle38"/>
	<circle cx="394.672" cy="969.189" r="4" fill="#0" id="circle39"/>
	<circle cx="409.992" cy="4" r="4" fill="#0" id="circle40"/>
	<circle cx="432.973" cy="980.68" r="4" fill="#0" id="circle41"/>
	<circle cx="436.803" cy="624.479" r="4" fill="#0" id="circle42"/>
	<circle cx="436.803" cy="662.78" r="4" fill="#0" id="circle43"/>
	<circle cx="436.803" cy="701.081" r="4" fill="#0" id="circle44"/>
	<circle cx="444.463" cy="586.178" r="4" fill="#0" id="circle45"/>
	<circle cx="444.463" cy="739.382" r="4" fill="#0" id="circle46"/>
	<circle cx="448.293" cy="4" r="4" fill="#0" id="circle47"/>
	<circle cx="452.124" cy="777.683" r="4" fill="#0" id="circle48"/>
	<circle cx="455.954" cy="815.985" r="4" fill="#0" id="circle49"/>
	<circle cx="459.784" cy="517.236" r="4" fill="#0" id="circle50"/>
	<circle cx="459.784" cy="854.286" r="4" fill="#0" id="circle51"/>
	<circle cx="467.444" cy="892.587" r="4" fill="#0" id="circle52"/>
	<circle cx="471.274" cy="980.68" r="4" fill="#0" id="circle53"/>
	<circle cx="475.104" cy="463.614" r="4" fill="#0" id="circle54"/>
	<circle cx="478.934" cy="930.888" r="4" fill="#0" id="circle55"/>
	<circle cx="482.764" cy="425.313" r="4" fill="#0" id="circle56"/>
	<circle cx="486.595" cy="4" r="4" fill="#0" id="circle57"/>
	<circle cx="490.425" cy="387.012" r="4" fill="#0" id="circle58"/>
	<circle cx="498.085" cy="333.39" r="4" fill="#0" id="circle59"/>
	<circle cx="505.745" cy="287.429" r="4" fill="#0" id="circle60"/>
	<circle cx="509.575" cy="980.68" r="4" fill="#0" id="circle61"/>
	<circle cx="517.236" cy="930.888" r="4" fill="#0" id="circle62"/>
	<circle cx="524.896" cy="11.6602" r="4" fill="#0" id="circle63"/>
	<circle cx="528.726" cy="256.788" r="4" fill="#0" id="circle64"/>
	<circle cx="547.876" cy="973.019" r="4" fill="#0" id="circle65"/>
	<circle cx="559.367" cy="226.147" r="4" fill="#0" id="circle66"/>
	<circle cx="563.197" cy="23.1506" r="4" fill="#0" id="circle67"/>
	<circle cx="567.027" cy="938.548" r="4" fill="#0" id="circle68"/>
	<circle cx="586.178" cy="973.019" r="4" fill="#0" id="circle69"/>
	<circle cx="597.668" cy="229.977" r="4" fill="#0" id="circle70"/>
	<circle cx="601.498" cy="38.471" r="4" fill="#0" id="circle71"/>
	<circle cx="609.158" cy="268.278" r="4" fill="#0" id="circle72"/>
	<circle cx="609.158" cy="306.579" r="4" fill="#0" id="circle73"/>
	<circle cx="628.309" cy="341.05" r="4" fill="#0" id="circle74"/>
	<circle cx="632.139" cy="61.4517" r="4" fill="#0" id="circle75"/>
	<circle cx="651.29" cy="95.9228" r="4" fill="#0" id="circle76"/>
	<circle cx="658.95" cy="364.031" r="4" fill="#0" id="circle77"/>
	<circle cx="666.61" cy="134.224" r="4" fill="#0" id="circle78"/>
	<circle cx="689.591" cy="164.865" r="4" fill="#0" id="circle79"/>
	<circle cx="697.251" cy="367.861" r="4" fill="#0" id="circle80"/>
	<circle cx="708.741" cy="118.903" r="4" fill="#0" id="circle81"/>
	<circle cx="735.552" cy="356.371" r="4" fill="#0" id="circle82"/>
	<circle cx="739.382" cy="88.2625" r="4" fill="#0" id="circle83"/>
	<circle cx="758.533" cy="325.73" r="4" fill="#0" id="circle84"/>
	<circle cx="766.193" cy="195.506" r="4" fill="#0" id="circle85"/>
	<circle cx="770.023" cy="233.807" r="4" fill="#0" id="circle86"/>
	<circle cx="773.853" cy="272.108" r="4" fill="#0" id="circle87"/>
	<circle cx="777.683" cy="72.9421" r="4" fill="#0" id="circle88"/>
	<circle cx="804.494" cy="184.015" r="4" fill="#0" id="circle89"/>
	<circle cx="815.985" cy="72.9421" r="4" fill="#0" id="circle90"/>
	<circle cx="838.965" cy="203.166" r="4" fill="#0" id="circle91"/>
	<circle cx="854.286" cy="76.7722" r="4" fill="#0" id="circle92"/>
	<circle cx="877.266" cy="218.486" r="4" fill="#0" id="circle93"/>
	<circle cx="888.757" cy="95.9228" r="4" fill="#0" id="circle94"/>
	<circle cx="907.907" cy="241.467" r="4" fill="#0" id="circle95"/>
	<circle cx="915.568" cy="126.564" r="4" fill="#0" id="circle96"/>
	<circle cx="927.058" cy="164.865" r="4" fill="#0" id="circle97"/>
	<circle cx="938.548" cy="264.448" r="4" fill="#0" id="circle98"/>
	<circle cx="950.039" cy="195.506" r="4" fill="#0" id="circle99"/>
	<circle cx="969.189" cy="287.429" r="4" fill="#0" id="circle100"/>
	<circle cx="973.019" cy="226.147" r="4" fill="#0" id="circle101"/>
	<circle cx="996" cy="256.788" r="4" fill="#0" id="circle102"/>
	</g>
</svg>