<?xml version="1.0" encoding="UTF-8" standalone="no"?>
<!-- Created with CurveBenchmark -->
<svg
	xmlns:dc="http://purl.org/dc/elements/1.1/"
	xmlns:cc="http://creativecommons.org/ns#"
	xmlns:rdf="http://www.w3.org/1999/02/22-rdf-syntax-ns#"
	xmlns:svg="http://www.w3.org/2000/svg"
	xmlns="http://www.w3.org/2000/svg"
	xmlns:sodipodi="http://sodipodi.sourceforge.net/DTD/sodipodi-0.dtd"
	xmlns:inkscape="http://www.inkscape.org/namespaces/inkscape"
	width="1000"
	height="1000"
	id="svg2"
	version="1.1"
	sodipodi:docname="manifold/nncrust-fish28occ4.png.txt">
<defs
	id="defs4" />
<metadata
	id="metadata7">
	<rdf:RDF>
		<cc:Work
			rdf:about="">
			<dc:format>image/svg+xml</dc:format>
			<dc:type
				rdf:resource="http://purl.org/dc/dcmitype/StillImage" />
			<dc:title></dc:title>
		</cc:Work>
	</rdf:RDF>
</metadata>
<g
	inkscape:label="Layer 1"
	inkscape:groupmode="layer"
	id="layer1">
	<path style="fill:none;stroke:red;stroke-width:1px;stroke-linecap:butt;stroke-linejoin:miter;stroke-opacity:1" d="M 36.9933,65.5876 47.9911,85.3836 z" id="boundary" inkscape:connector-curvature="0" />
	<path style="fill:none;stroke:red;stroke-width:1px;stroke-linecap:butt;stroke-linejoin:miter;stroke-opacity:1" d="M 36.9933,65.5876 36.9933,43.592 z" id="boundary" inkscape:connector-curvature="0" />
	<path style="fill:none;stroke:red;stroke-width:1px;stroke-linecap:butt;stroke-linejoin:miter;stroke-opacity:1" d="M 36.9933,43.592 47.9911,10.5987 z" id="boundary" inkscape:connector-curvature="0" />
	<path style="fill:none;stroke:red;stroke-width:1px;stroke-linecap:butt;stroke-linejoin:miter;stroke-opacity:1" d="M 47.9911,10.5987 69.9867,4 z" id="boundary" inkscape:connector-curvature="0" />
	<path style="fill:none;stroke:red;stroke-width:1px;stroke-linecap:butt;stroke-linejoin:miter;stroke-opacity:1" d="M 91.9823,4 113.978,4 z" id="boundary" inkscape:connector-curvature="0" />
	<path style="fill:none;stroke:red;stroke-width:1px;stroke-linecap:butt;stroke-linejoin:miter;stroke-opacity:1" d="M 65.5876,127.175 58.9889,105.18 z" id="boundary" inkscape:connector-curvature="0" />
	<path style="fill:none;stroke:red;stroke-width:1px;stroke-linecap:butt;stroke-linejoin:miter;stroke-opacity:1" d="M 58.9889,105.18 47.9911,85.3836 z" id="boundary" inkscape:connector-curvature="0" />
	<path style="fill:none;stroke:red;stroke-width:1px;stroke-linecap:butt;stroke-linejoin:miter;stroke-opacity:1" d="M 76.5854,146.971 65.5876,127.175 z" id="boundary" inkscape:connector-curvature="0" />
	<path style="fill:none;stroke:red;stroke-width:1px;stroke-linecap:butt;stroke-linejoin:miter;stroke-opacity:1" d="M 69.9867,4 91.9823,4 z" id="boundary" inkscape:connector-curvature="0" />
	<path style="fill:none;stroke:red;stroke-width:1px;stroke-linecap:butt;stroke-linejoin:miter;stroke-opacity:1" d="M 56.7894,234.953 36.9933,223.956 z" id="boundary" inkscape:connector-curvature="0" />
	<path style="fill:none;stroke:red;stroke-width:1px;stroke-linecap:butt;stroke-linejoin:miter;stroke-opacity:1" d="M 36.9933,223.956 14.9978,230.554 z" id="boundary" inkscape:connector-curvature="0" />
	<path style="fill:none;stroke:red;stroke-width:1px;stroke-linecap:butt;stroke-linejoin:miter;stroke-opacity:1" d="M 14.9978,252.55 14.9978,230.554 z" id="boundary" inkscape:connector-curvature="0" />
	<path style="fill:none;stroke:red;stroke-width:1px;stroke-linecap:butt;stroke-linejoin:miter;stroke-opacity:1" d="M 76.5854,146.971 91.9823,164.568 z" id="boundary" inkscape:connector-curvature="0" />
	<path style="fill:none;stroke:red;stroke-width:1px;stroke-linecap:butt;stroke-linejoin:miter;stroke-opacity:1" d="M 78.7849,234.953 56.7894,234.953 z" id="boundary" inkscape:connector-curvature="0" />
	<path style="fill:none;stroke:red;stroke-width:1px;stroke-linecap:butt;stroke-linejoin:miter;stroke-opacity:1" d="M 102.98,197.561 91.9823,164.568 z" id="boundary" inkscape:connector-curvature="0" />
	<path style="fill:none;stroke:red;stroke-width:1px;stroke-linecap:butt;stroke-linejoin:miter;stroke-opacity:1" d="M 120.576,212.958 102.98,197.561 z" id="boundary" inkscape:connector-curvature="0" />
	<path style="fill:none;stroke:red;stroke-width:1px;stroke-linecap:butt;stroke-linejoin:miter;stroke-opacity:1" d="M 100.78,234.953 78.7849,234.953 z" id="boundary" inkscape:connector-curvature="0" />
	<path style="fill:none;stroke:red;stroke-width:1px;stroke-linecap:butt;stroke-linejoin:miter;stroke-opacity:1" d="M 122.776,234.953 100.78,234.953 z" id="boundary" inkscape:connector-curvature="0" />
	<path style="fill:none;stroke:red;stroke-width:1px;stroke-linecap:butt;stroke-linejoin:miter;stroke-opacity:1" d="M 120.576,212.958 122.776,234.953 z" id="boundary" inkscape:connector-curvature="0" />
	<path style="fill:none;stroke:red;stroke-width:1px;stroke-linecap:butt;stroke-linejoin:miter;stroke-opacity:1" d="M 155.769,14.9978 135.973,4 z" id="boundary" inkscape:connector-curvature="0" />
	<path style="fill:none;stroke:red;stroke-width:1px;stroke-linecap:butt;stroke-linejoin:miter;stroke-opacity:1" d="M 177.765,17.1973 155.769,14.9978 z" id="boundary" inkscape:connector-curvature="0" />
	<path style="fill:none;stroke:red;stroke-width:1px;stroke-linecap:butt;stroke-linejoin:miter;stroke-opacity:1" d="M 177.765,17.1973 199.761,25.9956 z" id="boundary" inkscape:connector-curvature="0" />
	<path style="fill:none;stroke:red;stroke-width:1px;stroke-linecap:butt;stroke-linejoin:miter;stroke-opacity:1" d="M 199.761,25.9956 219.557,36.9933 z" id="boundary" inkscape:connector-curvature="0" />
	<path style="fill:none;stroke:red;stroke-width:1px;stroke-linecap:butt;stroke-linejoin:miter;stroke-opacity:1" d="M 239.353,47.9911 256.949,63.388 z" id="boundary" inkscape:connector-curvature="0" />
	<path style="fill:none;stroke:red;stroke-width:1px;stroke-linecap:butt;stroke-linejoin:miter;stroke-opacity:1" d="M 239.353,47.9911 219.557,36.9933 z" id="boundary" inkscape:connector-curvature="0" />
	<path style="fill:none;stroke:red;stroke-width:1px;stroke-linecap:butt;stroke-linejoin:miter;stroke-opacity:1" d="M 276.745,74.3858 256.949,63.388 z" id="boundary" inkscape:connector-curvature="0" />
	<path style="fill:none;stroke:red;stroke-width:1px;stroke-linecap:butt;stroke-linejoin:miter;stroke-opacity:1" d="M 298.741,83.184 276.745,74.3858 z" id="boundary" inkscape:connector-curvature="0" />
	<path style="fill:none;stroke:red;stroke-width:1px;stroke-linecap:butt;stroke-linejoin:miter;stroke-opacity:1" d="M 298.741,83.184 314.137,100.78 z" id="boundary" inkscape:connector-curvature="0" />
	<path style="fill:none;stroke:red;stroke-width:1px;stroke-linecap:butt;stroke-linejoin:miter;stroke-opacity:1" d="M 331.734,113.978 314.137,100.78 z" id="boundary" inkscape:connector-curvature="0" />
	<path style="fill:none;stroke:red;stroke-width:1px;stroke-linecap:butt;stroke-linejoin:miter;stroke-opacity:1" d="M 331.734,113.978 351.53,124.976 z" id="boundary" inkscape:connector-curvature="0" />
	<path style="fill:none;stroke:red;stroke-width:1px;stroke-linecap:butt;stroke-linejoin:miter;stroke-opacity:1" d="M 369.126,138.173 351.53,124.976 z" id="boundary" inkscape:connector-curvature="0" />
	<path style="fill:none;stroke:red;stroke-width:1px;stroke-linecap:butt;stroke-linejoin:miter;stroke-opacity:1" d="M 369.126,138.173 380.124,157.969 z" id="boundary" inkscape:connector-curvature="0" />
	<path style="fill:none;stroke:red;stroke-width:1px;stroke-linecap:butt;stroke-linejoin:miter;stroke-opacity:1" d="M 380.124,157.969 397.721,171.166 z" id="boundary" inkscape:connector-curvature="0" />
	<path style="fill:none;stroke:red;stroke-width:1px;stroke-linecap:butt;stroke-linejoin:miter;stroke-opacity:1" d="M 439.512,226.155 424.115,208.559 z" id="boundary" inkscape:connector-curvature="0" />
	<path style="fill:none;stroke:red;stroke-width:1px;stroke-linecap:butt;stroke-linejoin:miter;stroke-opacity:1" d="M 424.115,208.559 413.118,188.763 z" id="boundary" inkscape:connector-curvature="0" />
	<path style="fill:none;stroke:red;stroke-width:1px;stroke-linecap:butt;stroke-linejoin:miter;stroke-opacity:1" d="M 518.696,259.149 496.701,256.949 z" id="boundary" inkscape:connector-curvature="0" />
	<path style="fill:none;stroke:red;stroke-width:1px;stroke-linecap:butt;stroke-linejoin:miter;stroke-opacity:1" d="M 397.721,171.166 413.118,188.763 z" id="boundary" inkscape:connector-curvature="0" />
	<path style="fill:none;stroke:red;stroke-width:1px;stroke-linecap:butt;stroke-linejoin:miter;stroke-opacity:1" d="M 113.978,4 135.973,4 z" id="boundary" inkscape:connector-curvature="0" />
	<path style="fill:none;stroke:red;stroke-width:1px;stroke-linecap:butt;stroke-linejoin:miter;stroke-opacity:1" d="M 14.9978,252.55 14.9978,274.545 z" id="boundary" inkscape:connector-curvature="0" />
	<path style="fill:none;stroke:red;stroke-width:1px;stroke-linecap:butt;stroke-linejoin:miter;stroke-opacity:1" d="M 14.9978,296.541 14.9978,318.537 z" id="boundary" inkscape:connector-curvature="0" />
	<path style="fill:none;stroke:red;stroke-width:1px;stroke-linecap:butt;stroke-linejoin:miter;stroke-opacity:1" d="M 14.9978,318.537 4,351.53 z" id="boundary" inkscape:connector-curvature="0" />
	<path style="fill:none;stroke:red;stroke-width:1px;stroke-linecap:butt;stroke-linejoin:miter;stroke-opacity:1" d="M 14.9978,274.545 14.9978,296.541 z" id="boundary" inkscape:connector-curvature="0" />
	<path style="fill:none;stroke:red;stroke-width:1px;stroke-linecap:butt;stroke-linejoin:miter;stroke-opacity:1" d="M 83.184,380.124 61.1885,380.124 z" id="boundary" inkscape:connector-curvature="0" />
	<path style="fill:none;stroke:red;stroke-width:1px;stroke-linecap:butt;stroke-linejoin:miter;stroke-opacity:1" d="M 17.1973,369.126 39.1929,373.525 z" id="boundary" inkscape:connector-curvature="0" />
	<path style="fill:none;stroke:red;stroke-width:1px;stroke-linecap:butt;stroke-linejoin:miter;stroke-opacity:1" d="M 39.1929,373.525 61.1885,380.124 z" id="boundary" inkscape:connector-curvature="0" />
	<path style="fill:none;stroke:red;stroke-width:1px;stroke-linecap:butt;stroke-linejoin:miter;stroke-opacity:1" d="M 17.1973,369.126 4,351.53 z" id="boundary" inkscape:connector-curvature="0" />
	<path style="fill:none;stroke:red;stroke-width:1px;stroke-linecap:butt;stroke-linejoin:miter;stroke-opacity:1" d="M 83.184,380.124 105.18,380.124 z" id="boundary" inkscape:connector-curvature="0" />
	<path style="fill:none;stroke:red;stroke-width:1px;stroke-linecap:butt;stroke-linejoin:miter;stroke-opacity:1" d="M 127.175,380.124 149.171,380.124 z" id="boundary" inkscape:connector-curvature="0" />
	<path style="fill:none;stroke:red;stroke-width:1px;stroke-linecap:butt;stroke-linejoin:miter;stroke-opacity:1" d="M 127.175,380.124 122.776,234.953 z" id="boundary" inkscape:connector-curvature="0" />
	<path style="fill:none;stroke:red;stroke-width:1px;stroke-linecap:butt;stroke-linejoin:miter;stroke-opacity:1" d="M 127.175,380.124 105.18,380.124 z" id="boundary" inkscape:connector-curvature="0" />
	<path style="fill:none;stroke:red;stroke-width:1px;stroke-linecap:butt;stroke-linejoin:miter;stroke-opacity:1" d="M 171.166,380.124 193.162,380.124 z" id="boundary" inkscape:connector-curvature="0" />
	<path style="fill:none;stroke:red;stroke-width:1px;stroke-linecap:butt;stroke-linejoin:miter;stroke-opacity:1" d="M 193.162,380.124 212.958,391.122 z" id="boundary" inkscape:connector-curvature="0" />
	<path style="fill:none;stroke:red;stroke-width:1px;stroke-linecap:butt;stroke-linejoin:miter;stroke-opacity:1" d="M 212.958,391.122 234.953,391.122 z" id="boundary" inkscape:connector-curvature="0" />
	<path style="fill:none;stroke:red;stroke-width:1px;stroke-linecap:butt;stroke-linejoin:miter;stroke-opacity:1" d="M 234.953,391.122 256.949,391.122 z" id="boundary" inkscape:connector-curvature="0" />
	<path style="fill:none;stroke:red;stroke-width:1px;stroke-linecap:butt;stroke-linejoin:miter;stroke-opacity:1" d="M 149.171,380.124 171.166,380.124 z" id="boundary" inkscape:connector-curvature="0" />
	<path style="fill:none;stroke:red;stroke-width:1px;stroke-linecap:butt;stroke-linejoin:miter;stroke-opacity:1" d="M 278.945,391.122 292.142,408.718 z" id="boundary" inkscape:connector-curvature="0" />
	<path style="fill:none;stroke:red;stroke-width:1px;stroke-linecap:butt;stroke-linejoin:miter;stroke-opacity:1" d="M 256.949,391.122 278.945,391.122 z" id="boundary" inkscape:connector-curvature="0" />
	<path style="fill:none;stroke:red;stroke-width:1px;stroke-linecap:butt;stroke-linejoin:miter;stroke-opacity:1" d="M 309.738,424.115 292.142,408.718 z" id="boundary" inkscape:connector-curvature="0" />
	<path style="fill:none;stroke:red;stroke-width:1px;stroke-linecap:butt;stroke-linejoin:miter;stroke-opacity:1" d="M 309.738,424.115 325.135,441.712 z" id="boundary" inkscape:connector-curvature="0" />
	<path style="fill:none;stroke:red;stroke-width:1px;stroke-linecap:butt;stroke-linejoin:miter;stroke-opacity:1" d="M 347.131,450.51 325.135,441.712 z" id="boundary" inkscape:connector-curvature="0" />
	<path style="fill:none;stroke:red;stroke-width:1px;stroke-linecap:butt;stroke-linejoin:miter;stroke-opacity:1" d="M 474.705,256.949 457.109,241.552 z" id="boundary" inkscape:connector-curvature="0" />
	<path style="fill:none;stroke:red;stroke-width:1px;stroke-linecap:butt;stroke-linejoin:miter;stroke-opacity:1" d="M 496.701,256.949 474.705,256.949 z" id="boundary" inkscape:connector-curvature="0" />
	<path style="fill:none;stroke:red;stroke-width:1px;stroke-linecap:butt;stroke-linejoin:miter;stroke-opacity:1" d="M 355.929,472.506 347.131,450.51 z" id="boundary" inkscape:connector-curvature="0" />
	<path style="fill:none;stroke:red;stroke-width:1px;stroke-linecap:butt;stroke-linejoin:miter;stroke-opacity:1" d="M 377.925,479.104 355.929,472.506 z" id="boundary" inkscape:connector-curvature="0" />
	<path style="fill:none;stroke:red;stroke-width:1px;stroke-linecap:butt;stroke-linejoin:miter;stroke-opacity:1" d="M 457.109,241.552 439.512,226.155 z" id="boundary" inkscape:connector-curvature="0" />
	<path style="fill:none;stroke:red;stroke-width:1px;stroke-linecap:butt;stroke-linejoin:miter;stroke-opacity:1" d="M 391.122,496.701 377.925,479.104 z" id="boundary" inkscape:connector-curvature="0" />
	<path style="fill:none;stroke:red;stroke-width:1px;stroke-linecap:butt;stroke-linejoin:miter;stroke-opacity:1" d="M 408.718,512.098 391.122,496.701 z" id="boundary" inkscape:connector-curvature="0" />
	<path style="fill:none;stroke:red;stroke-width:1px;stroke-linecap:butt;stroke-linejoin:miter;stroke-opacity:1" d="M 435.113,549.49 417.517,534.093 z" id="boundary" inkscape:connector-curvature="0" />
	<path style="fill:none;stroke:red;stroke-width:1px;stroke-linecap:butt;stroke-linejoin:miter;stroke-opacity:1" d="M 417.517,534.093 408.718,512.098 z" id="boundary" inkscape:connector-curvature="0" />
	<path style="fill:none;stroke:red;stroke-width:1px;stroke-linecap:butt;stroke-linejoin:miter;stroke-opacity:1" d="M 435.113,549.49 443.911,571.486 z" id="boundary" inkscape:connector-curvature="0" />
	<path style="fill:none;stroke:red;stroke-width:1px;stroke-linecap:butt;stroke-linejoin:miter;stroke-opacity:1" d="M 443.911,571.486 454.909,591.282 z" id="boundary" inkscape:connector-curvature="0" />
	<path style="fill:none;stroke:red;stroke-width:1px;stroke-linecap:butt;stroke-linejoin:miter;stroke-opacity:1" d="M 454.909,591.282 454.909,613.277 z" id="boundary" inkscape:connector-curvature="0" />
	<path style="fill:none;stroke:red;stroke-width:1px;stroke-linecap:butt;stroke-linejoin:miter;stroke-opacity:1" d="M 470.306,630.874 454.909,613.277 z" id="boundary" inkscape:connector-curvature="0" />
	<path style="fill:none;stroke:red;stroke-width:1px;stroke-linecap:butt;stroke-linejoin:miter;stroke-opacity:1" d="M 487.902,644.071 470.306,630.874 z" id="boundary" inkscape:connector-curvature="0" />
	<path style="fill:none;stroke:red;stroke-width:1px;stroke-linecap:butt;stroke-linejoin:miter;stroke-opacity:1" d="M 509.898,644.071 487.902,644.071 z" id="boundary" inkscape:connector-curvature="0" />
	<path style="fill:none;stroke:red;stroke-width:1px;stroke-linecap:butt;stroke-linejoin:miter;stroke-opacity:1" d="M 540.692,267.947 518.696,259.149 z" id="boundary" inkscape:connector-curvature="0" />
	<path style="fill:none;stroke:red;stroke-width:1px;stroke-linecap:butt;stroke-linejoin:miter;stroke-opacity:1" d="M 562.687,267.947 540.692,267.947 z" id="boundary" inkscape:connector-curvature="0" />
	<path style="fill:none;stroke:red;stroke-width:1px;stroke-linecap:butt;stroke-linejoin:miter;stroke-opacity:1" d="M 562.687,267.947 584.683,267.947 z" id="boundary" inkscape:connector-curvature="0" />
	<path style="fill:none;stroke:red;stroke-width:1px;stroke-linecap:butt;stroke-linejoin:miter;stroke-opacity:1" d="M 677.064,336.133 666.067,369.126 z" id="boundary" inkscape:connector-curvature="0" />
	<path style="fill:none;stroke:red;stroke-width:1px;stroke-linecap:butt;stroke-linejoin:miter;stroke-opacity:1" d="M 606.678,267.947 584.683,267.947 z" id="boundary" inkscape:connector-curvature="0" />
	<path style="fill:none;stroke:red;stroke-width:1px;stroke-linecap:butt;stroke-linejoin:miter;stroke-opacity:1" d="M 628.674,267.947 650.67,267.947 z" id="boundary" inkscape:connector-curvature="0" />
	<path style="fill:none;stroke:red;stroke-width:1px;stroke-linecap:butt;stroke-linejoin:miter;stroke-opacity:1" d="M 666.067,529.694 655.069,509.898 z" id="boundary" inkscape:connector-curvature="0" />
	<path style="fill:none;stroke:red;stroke-width:1px;stroke-linecap:butt;stroke-linejoin:miter;stroke-opacity:1" d="M 606.678,267.947 628.674,267.947 z" id="boundary" inkscape:connector-curvature="0" />
	<path style="fill:none;stroke:red;stroke-width:1px;stroke-linecap:butt;stroke-linejoin:miter;stroke-opacity:1" d="M 655.069,446.111 644.071,468.106 z" id="boundary" inkscape:connector-curvature="0" />
	<path style="fill:none;stroke:red;stroke-width:1px;stroke-linecap:butt;stroke-linejoin:miter;stroke-opacity:1" d="M 549.49,666.067 529.694,655.069 z" id="boundary" inkscape:connector-curvature="0" />
	<path style="fill:none;stroke:red;stroke-width:1px;stroke-linecap:butt;stroke-linejoin:miter;stroke-opacity:1" d="M 549.49,666.067 571.486,674.865 z" id="boundary" inkscape:connector-curvature="0" />
	<path style="fill:none;stroke:red;stroke-width:1px;stroke-linecap:butt;stroke-linejoin:miter;stroke-opacity:1" d="M 571.486,674.865 575.885,696.86 z" id="boundary" inkscape:connector-curvature="0" />
	<path style="fill:none;stroke:red;stroke-width:1px;stroke-linecap:butt;stroke-linejoin:miter;stroke-opacity:1" d="M 529.694,655.069 509.898,644.071 z" id="boundary" inkscape:connector-curvature="0" />
	<path style="fill:none;stroke:red;stroke-width:1px;stroke-linecap:butt;stroke-linejoin:miter;stroke-opacity:1" d="M 644.071,490.102 655.069,509.898 z" id="boundary" inkscape:connector-curvature="0" />
	<path style="fill:none;stroke:red;stroke-width:1px;stroke-linecap:butt;stroke-linejoin:miter;stroke-opacity:1" d="M 644.071,490.102 644.071,468.106 z" id="boundary" inkscape:connector-curvature="0" />
	<path style="fill:none;stroke:red;stroke-width:1px;stroke-linecap:butt;stroke-linejoin:miter;stroke-opacity:1" d="M 586.882,716.656 575.885,696.86 z" id="boundary" inkscape:connector-curvature="0" />
	<path style="fill:none;stroke:red;stroke-width:1px;stroke-linecap:butt;stroke-linejoin:miter;stroke-opacity:1" d="M 586.882,716.656 597.88,736.452 z" id="boundary" inkscape:connector-curvature="0" />
	<path style="fill:none;stroke:red;stroke-width:1px;stroke-linecap:butt;stroke-linejoin:miter;stroke-opacity:1" d="M 666.067,369.126 666.067,391.122 z" id="boundary" inkscape:connector-curvature="0" />
	<path style="fill:none;stroke:red;stroke-width:1px;stroke-linecap:butt;stroke-linejoin:miter;stroke-opacity:1" d="M 666.067,413.118 666.067,391.122 z" id="boundary" inkscape:connector-curvature="0" />
	<path style="fill:none;stroke:red;stroke-width:1px;stroke-linecap:butt;stroke-linejoin:miter;stroke-opacity:1" d="M 650.67,267.947 672.665,270.146 z" id="boundary" inkscape:connector-curvature="0" />
	<path style="fill:none;stroke:red;stroke-width:1px;stroke-linecap:butt;stroke-linejoin:miter;stroke-opacity:1" d="M 672.665,270.146 677.064,292.142 z" id="boundary" inkscape:connector-curvature="0" />
	<path style="fill:none;stroke:red;stroke-width:1px;stroke-linecap:butt;stroke-linejoin:miter;stroke-opacity:1" d="M 655.069,446.111 666.067,413.118 z" id="boundary" inkscape:connector-curvature="0" />
	<path style="fill:none;stroke:red;stroke-width:1px;stroke-linecap:butt;stroke-linejoin:miter;stroke-opacity:1" d="M 677.064,549.49 666.067,529.694 z" id="boundary" inkscape:connector-curvature="0" />
	<path style="fill:none;stroke:red;stroke-width:1px;stroke-linecap:butt;stroke-linejoin:miter;stroke-opacity:1" d="M 677.064,314.137 677.064,336.133 z" id="boundary" inkscape:connector-curvature="0" />
	<path style="fill:none;stroke:red;stroke-width:1px;stroke-linecap:butt;stroke-linejoin:miter;stroke-opacity:1" d="M 677.064,292.142 677.064,314.137 z" id="boundary" inkscape:connector-curvature="0" />
	<path style="fill:none;stroke:red;stroke-width:1px;stroke-linecap:butt;stroke-linejoin:miter;stroke-opacity:1" d="M 703.459,586.882 685.863,571.486 z" id="boundary" inkscape:connector-curvature="0" />
	<path style="fill:none;stroke:red;stroke-width:1px;stroke-linecap:butt;stroke-linejoin:miter;stroke-opacity:1" d="M 685.863,571.486 677.064,549.49 z" id="boundary" inkscape:connector-curvature="0" />
	<path style="fill:none;stroke:red;stroke-width:1px;stroke-linecap:butt;stroke-linejoin:miter;stroke-opacity:1" d="M 718.856,604.479 703.459,586.882 z" id="boundary" inkscape:connector-curvature="0" />
	<path style="fill:none;stroke:red;stroke-width:1px;stroke-linecap:butt;stroke-linejoin:miter;stroke-opacity:1" d="M 740.851,613.277 718.856,604.479 z" id="boundary" inkscape:connector-curvature="0" />
	<path style="fill:none;stroke:red;stroke-width:1px;stroke-linecap:butt;stroke-linejoin:miter;stroke-opacity:1" d="M 740.851,613.277 754.049,630.874 z" id="boundary" inkscape:connector-curvature="0" />
	<path style="fill:none;stroke:red;stroke-width:1px;stroke-linecap:butt;stroke-linejoin:miter;stroke-opacity:1" d="M 765.047,650.67 765.047,672.665 z" id="boundary" inkscape:connector-curvature="0" />
	<path style="fill:none;stroke:red;stroke-width:1px;stroke-linecap:butt;stroke-linejoin:miter;stroke-opacity:1" d="M 754.049,630.874 765.047,650.67 z" id="boundary" inkscape:connector-curvature="0" />
	<path style="fill:none;stroke:red;stroke-width:1px;stroke-linecap:butt;stroke-linejoin:miter;stroke-opacity:1" d="M 765.047,694.661 782.643,710.058 z" id="boundary" inkscape:connector-curvature="0" />
	<path style="fill:none;stroke:red;stroke-width:1px;stroke-linecap:butt;stroke-linejoin:miter;stroke-opacity:1" d="M 765.047,694.661 765.047,672.665 z" id="boundary" inkscape:connector-curvature="0" />
	<path style="fill:none;stroke:red;stroke-width:1px;stroke-linecap:butt;stroke-linejoin:miter;stroke-opacity:1" d="M 813.437,740.851 793.641,729.854 z" id="boundary" inkscape:connector-curvature="0" />
	<path style="fill:none;stroke:red;stroke-width:1px;stroke-linecap:butt;stroke-linejoin:miter;stroke-opacity:1" d="M 793.641,729.854 782.643,710.058 z" id="boundary" inkscape:connector-curvature="0" />
	<path style="fill:none;stroke:red;stroke-width:1px;stroke-linecap:butt;stroke-linejoin:miter;stroke-opacity:1" d="M 597.88,736.452 608.878,756.248 z" id="boundary" inkscape:connector-curvature="0" />
	<path style="fill:none;stroke:red;stroke-width:1px;stroke-linecap:butt;stroke-linejoin:miter;stroke-opacity:1" d="M 630.874,765.047 608.878,756.248 z" id="boundary" inkscape:connector-curvature="0" />
	<path style="fill:none;stroke:red;stroke-width:1px;stroke-linecap:butt;stroke-linejoin:miter;stroke-opacity:1" d="M 630.874,765.047 652.869,769.446 z" id="boundary" inkscape:connector-curvature="0" />
	<path style="fill:none;stroke:red;stroke-width:1px;stroke-linecap:butt;stroke-linejoin:miter;stroke-opacity:1" d="M 674.865,769.446 652.869,769.446 z" id="boundary" inkscape:connector-curvature="0" />
	<path style="fill:none;stroke:red;stroke-width:1px;stroke-linecap:butt;stroke-linejoin:miter;stroke-opacity:1" d="M 710.058,782.643 696.86,765.047 z" id="boundary" inkscape:connector-curvature="0" />
	<path style="fill:none;stroke:red;stroke-width:1px;stroke-linecap:butt;stroke-linejoin:miter;stroke-opacity:1" d="M 674.865,769.446 696.86,765.047 z" id="boundary" inkscape:connector-curvature="0" />
	<path style="fill:none;stroke:red;stroke-width:1px;stroke-linecap:butt;stroke-linejoin:miter;stroke-opacity:1" d="M 727.654,798.04 710.058,782.643 z" id="boundary" inkscape:connector-curvature="0" />
	<path style="fill:none;stroke:red;stroke-width:1px;stroke-linecap:butt;stroke-linejoin:miter;stroke-opacity:1" d="M 740.851,815.636 727.654,798.04 z" id="boundary" inkscape:connector-curvature="0" />
	<path style="fill:none;stroke:red;stroke-width:1px;stroke-linecap:butt;stroke-linejoin:miter;stroke-opacity:1" d="M 813.437,740.851 820.035,762.847 z" id="boundary" inkscape:connector-curvature="0" />
	<path style="fill:none;stroke:red;stroke-width:1px;stroke-linecap:butt;stroke-linejoin:miter;stroke-opacity:1" d="M 740.851,815.636 740.851,846.43 z" id="boundary" inkscape:connector-curvature="0" />
	<path style="fill:none;stroke:red;stroke-width:1px;stroke-linecap:butt;stroke-linejoin:miter;stroke-opacity:1" d="M 758.448,861.827 740.851,846.43 z" id="boundary" inkscape:connector-curvature="0" />
	<path style="fill:none;stroke:red;stroke-width:1px;stroke-linecap:butt;stroke-linejoin:miter;stroke-opacity:1" d="M 773.845,879.424 758.448,861.827 z" id="boundary" inkscape:connector-curvature="0" />
	<path style="fill:none;stroke:red;stroke-width:1px;stroke-linecap:butt;stroke-linejoin:miter;stroke-opacity:1" d="M 773.845,879.424 773.845,901.419 z" id="boundary" inkscape:connector-curvature="0" />
	<path style="fill:none;stroke:red;stroke-width:1px;stroke-linecap:butt;stroke-linejoin:miter;stroke-opacity:1" d="M 784.843,921.215 773.845,901.419 z" id="boundary" inkscape:connector-curvature="0" />
	<path style="fill:none;stroke:red;stroke-width:1px;stroke-linecap:butt;stroke-linejoin:miter;stroke-opacity:1" d="M 795.84,941.011 806.838,960.807 z" id="boundary" inkscape:connector-curvature="0" />
	<path style="fill:none;stroke:red;stroke-width:1px;stroke-linecap:butt;stroke-linejoin:miter;stroke-opacity:1" d="M 806.838,960.807 811.237,982.803 z" id="boundary" inkscape:connector-curvature="0" />
	<path style="fill:none;stroke:red;stroke-width:1px;stroke-linecap:butt;stroke-linejoin:miter;stroke-opacity:1" d="M 784.843,921.215 795.84,941.011 z" id="boundary" inkscape:connector-curvature="0" />
	<path style="fill:none;stroke:red;stroke-width:1px;stroke-linecap:butt;stroke-linejoin:miter;stroke-opacity:1" d="M 839.831,773.845 859.627,784.843 z" id="boundary" inkscape:connector-curvature="0" />
	<path style="fill:none;stroke:red;stroke-width:1px;stroke-linecap:butt;stroke-linejoin:miter;stroke-opacity:1" d="M 839.831,773.845 820.035,762.847 z" id="boundary" inkscape:connector-curvature="0" />
	<path style="fill:none;stroke:red;stroke-width:1px;stroke-linecap:butt;stroke-linejoin:miter;stroke-opacity:1" d="M 859.627,784.843 879.424,795.84 z" id="boundary" inkscape:connector-curvature="0" />
	<path style="fill:none;stroke:red;stroke-width:1px;stroke-linecap:butt;stroke-linejoin:miter;stroke-opacity:1" d="M 899.22,806.838 919.016,817.836 z" id="boundary" inkscape:connector-curvature="0" />
	<path style="fill:none;stroke:red;stroke-width:1px;stroke-linecap:butt;stroke-linejoin:miter;stroke-opacity:1" d="M 941.011,824.435 919.016,817.836 z" id="boundary" inkscape:connector-curvature="0" />
	<path style="fill:none;stroke:red;stroke-width:1px;stroke-linecap:butt;stroke-linejoin:miter;stroke-opacity:1" d="M 941.011,824.435 960.807,835.432 z" id="boundary" inkscape:connector-curvature="0" />
	<path style="fill:none;stroke:red;stroke-width:1px;stroke-linecap:butt;stroke-linejoin:miter;stroke-opacity:1" d="M 879.424,795.84 899.22,806.838 z" id="boundary" inkscape:connector-curvature="0" />
	<path style="fill:none;stroke:red;stroke-width:1px;stroke-linecap:butt;stroke-linejoin:miter;stroke-opacity:1" d="M 960.807,835.432 956.408,872.825 z" id="boundary" inkscape:connector-curvature="0" />
	<path style="fill:none;stroke:red;stroke-width:1px;stroke-linecap:butt;stroke-linejoin:miter;stroke-opacity:1" d="M 956.408,872.825 934.412,875.024 z" id="boundary" inkscape:connector-curvature="0" />
	<path style="fill:none;stroke:red;stroke-width:1px;stroke-linecap:butt;stroke-linejoin:miter;stroke-opacity:1" d="M 853.029,930.013 864.027,949.809 z" id="boundary" inkscape:connector-curvature="0" />
	<path style="fill:none;stroke:red;stroke-width:1px;stroke-linecap:butt;stroke-linejoin:miter;stroke-opacity:1" d="M 850.829,996 828.834,996 z" id="boundary" inkscape:connector-curvature="0" />
	<path style="fill:none;stroke:red;stroke-width:1px;stroke-linecap:butt;stroke-linejoin:miter;stroke-opacity:1" d="M 864.027,971.805 850.829,996 z" id="boundary" inkscape:connector-curvature="0" />
	<path style="fill:none;stroke:red;stroke-width:1px;stroke-linecap:butt;stroke-linejoin:miter;stroke-opacity:1" d="M 864.027,949.809 864.027,971.805 z" id="boundary" inkscape:connector-curvature="0" />
	<path style="fill:none;stroke:red;stroke-width:1px;stroke-linecap:butt;stroke-linejoin:miter;stroke-opacity:1" d="M 828.834,996 811.237,982.803 z" id="boundary" inkscape:connector-curvature="0" />
	<path style="fill:none;stroke:red;stroke-width:1px;stroke-linecap:butt;stroke-linejoin:miter;stroke-opacity:1" d="M 853.029,930.013 853.029,908.018 z" id="boundary" inkscape:connector-curvature="0" />
	<path style="fill:none;stroke:red;stroke-width:1px;stroke-linecap:butt;stroke-linejoin:miter;stroke-opacity:1" d="M 853.029,908.018 870.625,892.621 z" id="boundary" inkscape:connector-curvature="0" />
	<path style="fill:none;stroke:red;stroke-width:1px;stroke-linecap:butt;stroke-linejoin:miter;stroke-opacity:1" d="M 914.616,886.022 892.621,886.022 z" id="boundary" inkscape:connector-curvature="0" />
	<path style="fill:none;stroke:red;stroke-width:1px;stroke-linecap:butt;stroke-linejoin:miter;stroke-opacity:1" d="M 934.412,875.024 914.616,886.022 z" id="boundary" inkscape:connector-curvature="0" />
	<path style="fill:none;stroke:red;stroke-width:1px;stroke-linecap:butt;stroke-linejoin:miter;stroke-opacity:1" d="M 870.625,892.621 892.621,886.022 z" id="boundary" inkscape:connector-curvature="0" />
	<circle cx="4" cy="351.53" r="4" fill="#0" id="circle0"/>
	<circle cx="14.9978" cy="230.554" r="4" fill="#0" id="circle1"/>
	<circle cx="14.9978" cy="252.55" r="4" fill="#0" id="circle2"/>
	<circle cx="14.9978" cy="274.545" r="4" fill="#0" id="circle3"/>
	<circle cx="14.9978" cy="296.541" r="4" fill="#0" id="circle4"/>
	<circle cx="14.9978" cy="318.537" r="4" fill="#0" id="circle5"/>
	<circle cx="17.1973" cy="369.126" r="4" fill="#0" id="circle6"/>
	<circle cx="36.9933" cy="43.592" r="4" fill="#0" id="circle7"/>
	<circle cx="36.9933" cy="65.5876" r="4" fill="#0" id="circle8"/>
	<circle cx="36.9933" cy="223.956" r="4" fill="#0" id="circle9"/>
	<circle cx="39.1929" cy="373.525" r="4" fill="#0" id="circle10"/>
	<circle cx="47.9911" cy="10.5987" r="4" fill="#0" id="circle11"/>
	<circle cx="47.9911" cy="85.3836" r="4" fill="#0" id="circle12"/>
	<circle cx="56.7894" cy="234.953" r="4" fill="#0" id="circle13"/>
	<circle cx="58.9889" cy="105.18" r="4" fill="#0" id="circle14"/>
	<circle cx="61.1885" cy="380.124" r="4" fill="#0" id="circle15"/>
	<circle cx="65.5876" cy="127.175" r="4" fill="#0" id="circle16"/>
	<circle cx="69.9867" cy="4" r="4" fill="#0" id="circle17"/>
	<circle cx="76.5854" cy="146.971" r="4" fill="#0" id="circle18"/>
	<circle cx="78.7849" cy="234.953" r="4" fill="#0" id="circle19"/>
	<circle cx="83.184" cy="380.124" r="4" fill="#0" id="circle20"/>
	<circle cx="91.9823" cy="4" r="4" fill="#0" id="circle21"/>
	<circle cx="91.9823" cy="164.568" r="4" fill="#0" id="circle22"/>
	<circle cx="100.78" cy="234.953" r="4" fill="#0" id="circle23"/>
	<circle cx="102.98" cy="197.561" r="4" fill="#0" id="circle24"/>
	<circle cx="105.18" cy="380.124" r="4" fill="#0" id="circle25"/>
	<circle cx="113.978" cy="4" r="4" fill="#0" id="circle26"/>
	<circle cx="120.576" cy="212.958" r="4" fill="#0" id="circle27"/>
	<circle cx="122.776" cy="234.953" r="4" fill="#0" id="circle28"/>
	<circle cx="127.175" cy="380.124" r="4" fill="#0" id="circle29"/>
	<circle cx="135.973" cy="4" r="4" fill="#0" id="circle30"/>
	<circle cx="149.171" cy="380.124" r="4" fill="#0" id="circle31"/>
	<circle cx="155.769" cy="14.9978" r="4" fill="#0" id="circle32"/>
	<circle cx="171.166" cy="380.124" r="4" fill="#0" id="circle33"/>
	<circle cx="177.765" cy="17.1973" r="4" fill="#0" id="circle34"/>
	<circle cx="193.162" cy="380.124" r="4" fill="#0" id="circle35"/>
	<circle cx="199.761" cy="25.9956" r="4" fill="#0" id="circle36"/>
	<circle cx="212.958" cy="391.122" r="4" fill="#0" id="circle37"/>
	<circle cx="219.557" cy="36.9933" r="4" fill="#0" id="circle38"/>
	<circle cx="234.953" cy="391.122" r="4" fill="#0" id="circle39"/>
	<circle cx="239.353" cy="47.9911" r="4" fill="#0" id="circle40"/>
	<circle cx="256.949" cy="63.388" r="4" fill="#0" id="circle41"/>
	<circle cx="256.949" cy="391.122" r="4" fill="#0" id="circle42"/>
	<circle cx="276.745" cy="74.3858" r="4" fill="#0" id="circle43"/>
	<circle cx="278.945" cy="391.122" r="4" fill="#0" id="circle44"/>
	<circle cx="292.142" cy="408.718" r="4" fill="#0" id="circle45"/>
	<circle cx="298.741" cy="83.184" r="4" fill="#0" id="circle46"/>
	<circle cx="309.738" cy="424.115" r="4" fill="#0" id="circle47"/>
	<circle cx="314.137" cy="100.78" r="4" fill="#0" id="circle48"/>
	<circle cx="325.135" cy="441.712" r="4" fill="#0" id="circle49"/>
	<circle cx="331.734" cy="113.978" r="4" fill="#0" id="circle50"/>
	<circle cx="347.131" cy="450.51" r="4" fill="#0" id="circle51"/>
	<circle cx="351.53" cy="124.976" r="4" fill="#0" id="circle52"/>
	<circle cx="355.929" cy="472.506" r="4" fill="#0" id="circle53"/>
	<circle cx="369.126" cy="138.173" r="4" fill="#0" id="circle54"/>
	<circle cx="377.925" cy="479.104" r="4" fill="#0" id="circle55"/>
	<circle cx="380.124" cy="157.969" r="4" fill="#0" id="circle56"/>
	<circle cx="391.122" cy="496.701" r="4" fill="#0" id="circle57"/>
	<circle cx="397.721" cy="171.166" r="4" fill="#0" id="circle58"/>
	<circle cx="408.718" cy="512.098" r="4" fill="#0" id="circle59"/>
	<circle cx="413.118" cy="188.763" r="4" fill="#0" id="circle60"/>
	<circle cx="417.517" cy="534.093" r="4" fill="#0" id="circle61"/>
	<circle cx="424.115" cy="208.559" r="4" fill="#0" id="circle62"/>
	<circle cx="435.113" cy="549.49" r="4" fill="#0" id="circle63"/>
	<circle cx="439.512" cy="226.155" r="4" fill="#0" id="circle64"/>
	<circle cx="443.911" cy="571.486" r="4" fill="#0" id="circle65"/>
	<circle cx="454.909" cy="591.282" r="4" fill="#0" id="circle66"/>
	<circle cx="454.909" cy="613.277" r="4" fill="#0" id="circle67"/>
	<circle cx="457.109" cy="241.552" r="4" fill="#0" id="circle68"/>
	<circle cx="470.306" cy="630.874" r="4" fill="#0" id="circle69"/>
	<circle cx="474.705" cy="256.949" r="4" fill="#0" id="circle70"/>
	<circle cx="487.902" cy="644.071" r="4" fill="#0" id="circle71"/>
	<circle cx="496.701" cy="256.949" r="4" fill="#0" id="circle72"/>
	<circle cx="509.898" cy="644.071" r="4" fill="#0" id="circle73"/>
	<circle cx="518.696" cy="259.149" r="4" fill="#0" id="circle74"/>
	<circle cx="529.694" cy="655.069" r="4" fill="#0" id="circle75"/>
	<circle cx="540.692" cy="267.947" r="4" fill="#0" id="circle76"/>
	<circle cx="549.49" cy="666.067" r="4" fill="#0" id="circle77"/>
	<circle cx="562.687" cy="267.947" r="4" fill="#0" id="circle78"/>
	<circle cx="571.486" cy="674.865" r="4" fill="#0" id="circle79"/>
	<circle cx="575.885" cy="696.86" r="4" fill="#0" id="circle80"/>
	<circle cx="584.683" cy="267.947" r="4" fill="#0" id="circle81"/>
	<circle cx="586.882" cy="716.656" r="4" fill="#0" id="circle82"/>
	<circle cx="597.88" cy="736.452" r="4" fill="#0" id="circle83"/>
	<circle cx="606.678" cy="267.947" r="4" fill="#0" id="circle84"/>
	<circle cx="608.878" cy="756.248" r="4" fill="#0" id="circle85"/>
	<circle cx="628.674" cy="267.947" r="4" fill="#0" id="circle86"/>
	<circle cx="630.874" cy="765.047" r="4" fill="#0" id="circle87"/>
	<circle cx="644.071" cy="468.106" r="4" fill="#0" id="circle88"/>
	<circle cx="644.071" cy="490.102" r="4" fill="#0" id="circle89"/>
	<circle cx="650.67" cy="267.947" r="4" fill="#0" id="circle90"/>
	<circle cx="652.869" cy="769.446" r="4" fill="#0" id="circle91"/>
	<circle cx="655.069" cy="446.111" r="4" fill="#0" id="circle92"/>
	<circle cx="655.069" cy="509.898" r="4" fill="#0" id="circle93"/>
	<circle cx="666.067" cy="369.126" r="4" fill="#0" id="circle94"/>
	<circle cx="666.067" cy="391.122" r="4" fill="#0" id="circle95"/>
	<circle cx="666.067" cy="413.118" r="4" fill="#0" id="circle96"/>
	<circle cx="666.067" cy="529.694" r="4" fill="#0" id="circle97"/>
	<circle cx="672.665" cy="270.146" r="4" fill="#0" id="circle98"/>
	<circle cx="674.865" cy="769.446" r="4" fill="#0" id="circle99"/>
	<circle cx="677.064" cy="292.142" r="4" fill="#0" id="circle100"/>
	<circle cx="677.064" cy="314.137" r="4" fill="#0" id="circle101"/>
	<circle cx="677.064" cy="336.133" r="4" fill="#0" id="circle102"/>
	<circle cx="677.064" cy="549.49" r="4" fill="#0" id="circle103"/>
	<circle cx="685.863" cy="571.486" r="4" fill="#0" id="circle104"/>
	<circle cx="696.86" cy="765.047" r="4" fill="#0" id="circle105"/>
	<circle cx="703.459" cy="586.882" r="4" fill="#0" id="circle106"/>
	<circle cx="710.058" cy="782.643" r="4" fill="#0" id="circle107"/>
	<circle cx="718.856" cy="604.479" r="4" fill="#0" id="circle108"/>
	<circle cx="727.654" cy="798.04" r="4" fill="#0" id="circle109"/>
	<circle cx="740.851" cy="613.277" r="4" fill="#0" id="circle110"/>
	<circle cx="740.851" cy="815.636" r="4" fill="#0" id="circle111"/>
	<circle cx="740.851" cy="846.43" r="4" fill="#0" id="circle112"/>
	<circle cx="754.049" cy="630.874" r="4" fill="#0" id="circle113"/>
	<circle cx="758.448" cy="861.827" r="4" fill="#0" id="circle114"/>
	<circle cx="765.047" cy="650.67" r="4" fill="#0" id="circle115"/>
	<circle cx="765.047" cy="672.665" r="4" fill="#0" id="circle116"/>
	<circle cx="765.047" cy="694.661" r="4" fill="#0" id="circle117"/>
	<circle cx="773.845" cy="879.424" r="4" fill="#0" id="circle118"/>
	<circle cx="773.845" cy="901.419" r="4" fill="#0" id="circle119"/>
	<circle cx="782.643" cy="710.058" r="4" fill="#0" id="circle120"/>
	<circle cx="784.843" cy="921.215" r="4" fill="#0" id="circle121"/>
	<circle cx="793.641" cy="729.854" r="4" fill="#0" id="circle122"/>
	<circle cx="795.84" cy="941.011" r="4" fill="#0" id="circle123"/>
	<circle cx="806.838" cy="960.807" r="4" fill="#0" id="circle124"/>
	<circle cx="811.237" cy="982.803" r="4" fill="#0" id="circle125"/>
	<circle cx="813.437" cy="740.851" r="4" fill="#0" id="circle126"/>
	<circle cx="820.035" cy="762.847" r="4" fill="#0" id="circle127"/>
	<circle cx="828.834" cy="996" r="4" fill="#0" id="circle128"/>
	<circle cx="839.831" cy="773.845" r="4" fill="#0" id="circle129"/>
	<circle cx="850.829" cy="996" r="4" fill="#0" id="circle130"/>
	<circle cx="853.029" cy="908.018" r="4" fill="#0" id="circle131"/>
	<circle cx="853.029" cy="930.013" r="4" fill="#0" id="circle132"/>
	<circle cx="859.627" cy="784.843" r="4" fill="#0" id="circle133"/>
	<circle cx="864.027" cy="949.809" r="4" fill="#0" id="circle134"/>
	<circle cx="864.027" cy="971.805" r="4" fill="#0" id="circle135"/>
	<circle cx="870.625" cy="892.621" r="4" fill="#0" id="circle136"/>
	<circle cx="879.424" cy="795.84" r="4" fill="#0" id="circle137"/>
	<circle cx="892.621" cy="886.022" r="4" fill="#0" id="circle138"/>
	<circle cx="899.22" cy="806.838" r="4" fill="#0" id="circle139"/>
	<circle cx="914.616" cy="886.022" r="4" fill="#0" id="circle140"/>
	<circle cx="919.016" cy="817.836" r="4" fill="#0" id="circle141"/>
	<circle cx="934.412" cy="875.024" r="4" fill="#0" id="circle142"/>
	<circle cx="941.011" cy="824.435" r="4" fill="#0" id="circle143"/>
	<circle cx="956.408" cy="872.825" r="4" fill="#0" id="circle144"/>
	<circle cx="960.807" cy="835.432" r="4" fill="#0" id="circle145"/>
	</g>
</svg>