<?xml version="1.0" encoding="UTF-8" standalone="no"?>
<!-- Created with CurveBenchmark -->
<svg
	xmlns:dc="http://purl.org/dc/elements/1.1/"
	xmlns:cc="http://creativecommons.org/ns#"
	xmlns:rdf="http://www.w3.org/1999/02/22-rdf-syntax-ns#"
	xmlns:svg="http://www.w3.org/2000/svg"
	xmlns="http://www.w3.org/2000/svg"
	xmlns:sodipodi="http://sodipodi.sourceforge.net/DTD/sodipodi-0.dtd"
	xmlns:inkscape="http://www.inkscape.org/namespaces/inkscape"
	width="1000"
	height="1000"
	id="svg2"
	version="1.1"
	sodipodi:docname="manifold/nncrust-mountaincottontailocc4.png.txt">
<defs
	id="defs4" />
<metadata
	id="metadata7">
	<rdf:RDF>
		<cc:Work
			rdf:about="">
			<dc:format>image/svg+xml</dc:format>
			<dc:type
				rdf:resource="http://purl.org/dc/dcmitype/StillImage" />
			<dc:title></dc:title>
		</cc:Work>
	</rdf:RDF>
</metadata>
<g
	inkscape:label="Layer 1"
	inkscape:groupmode="layer"
	id="layer1">
	<path style="fill:none;stroke:red;stroke-width:1px;stroke-linecap:butt;stroke-linejoin:miter;stroke-opacity:1" d="M 140.514,67.7064 140.514,90.4587 z" id="boundary" inkscape:connector-curvature="0" />
	<path style="fill:none;stroke:red;stroke-width:1px;stroke-linecap:butt;stroke-linejoin:miter;stroke-opacity:1" d="M 140.514,113.211 140.514,135.963 z" id="boundary" inkscape:connector-curvature="0" />
	<path style="fill:none;stroke:red;stroke-width:1px;stroke-linecap:butt;stroke-linejoin:miter;stroke-opacity:1" d="M 151.89,156.44 140.514,135.963 z" id="boundary" inkscape:connector-curvature="0" />
	<path style="fill:none;stroke:red;stroke-width:1px;stroke-linecap:butt;stroke-linejoin:miter;stroke-opacity:1" d="M 140.514,113.211 140.514,90.4587 z" id="boundary" inkscape:connector-curvature="0" />
	<path style="fill:none;stroke:red;stroke-width:1px;stroke-linecap:butt;stroke-linejoin:miter;stroke-opacity:1" d="M 151.89,33.578 170.092,15.3761 z" id="boundary" inkscape:connector-curvature="0" />
	<path style="fill:none;stroke:red;stroke-width:1px;stroke-linecap:butt;stroke-linejoin:miter;stroke-opacity:1" d="M 140.514,67.7064 151.89,33.578 z" id="boundary" inkscape:connector-curvature="0" />
	<path style="fill:none;stroke:red;stroke-width:1px;stroke-linecap:butt;stroke-linejoin:miter;stroke-opacity:1" d="M 151.89,179.193 151.89,156.44 z" id="boundary" inkscape:connector-curvature="0" />
	<path style="fill:none;stroke:red;stroke-width:1px;stroke-linecap:butt;stroke-linejoin:miter;stroke-opacity:1" d="M 67.7064,265.651 49.5046,283.853 z" id="boundary" inkscape:connector-curvature="0" />
	<path style="fill:none;stroke:red;stroke-width:1px;stroke-linecap:butt;stroke-linejoin:miter;stroke-opacity:1" d="M 26.7523,306.606 26.7523,329.358 z" id="boundary" inkscape:connector-curvature="0" />
	<path style="fill:none;stroke:red;stroke-width:1px;stroke-linecap:butt;stroke-linejoin:miter;stroke-opacity:1" d="M 26.7523,329.358 15.3761,363.486 z" id="boundary" inkscape:connector-curvature="0" />
	<path style="fill:none;stroke:red;stroke-width:1px;stroke-linecap:butt;stroke-linejoin:miter;stroke-opacity:1" d="M 26.7523,306.606 49.5046,283.853 z" id="boundary" inkscape:connector-curvature="0" />
	<path style="fill:none;stroke:red;stroke-width:1px;stroke-linecap:butt;stroke-linejoin:miter;stroke-opacity:1" d="M 67.7064,265.651 88.1835,254.275 z" id="boundary" inkscape:connector-curvature="0" />
	<path style="fill:none;stroke:red;stroke-width:1px;stroke-linecap:butt;stroke-linejoin:miter;stroke-opacity:1" d="M 142.789,201.945 151.89,179.193 z" id="boundary" inkscape:connector-curvature="0" />
	<path style="fill:none;stroke:red;stroke-width:1px;stroke-linecap:butt;stroke-linejoin:miter;stroke-opacity:1" d="M 142.789,201.945 124.587,220.147 z" id="boundary" inkscape:connector-curvature="0" />
	<path style="fill:none;stroke:red;stroke-width:1px;stroke-linecap:butt;stroke-linejoin:miter;stroke-opacity:1" d="M 106.385,238.349 88.1835,254.275 z" id="boundary" inkscape:connector-curvature="0" />
	<path style="fill:none;stroke:red;stroke-width:1px;stroke-linecap:butt;stroke-linejoin:miter;stroke-opacity:1" d="M 124.587,220.147 106.385,238.349 z" id="boundary" inkscape:connector-curvature="0" />
	<path style="fill:none;stroke:red;stroke-width:1px;stroke-linecap:butt;stroke-linejoin:miter;stroke-opacity:1" d="M 170.092,15.3761 192.844,4 z" id="boundary" inkscape:connector-curvature="0" />
	<path style="fill:none;stroke:red;stroke-width:1px;stroke-linecap:butt;stroke-linejoin:miter;stroke-opacity:1" d="M 192.844,4 213.321,15.3761 z" id="boundary" inkscape:connector-curvature="0" />
	<path style="fill:none;stroke:red;stroke-width:1px;stroke-linecap:butt;stroke-linejoin:miter;stroke-opacity:1" d="M 213.321,15.3761 236.073,15.3761 z" id="boundary" inkscape:connector-curvature="0" />
	<path style="fill:none;stroke:red;stroke-width:1px;stroke-linecap:butt;stroke-linejoin:miter;stroke-opacity:1" d="M 236.073,15.3761 258.826,15.3761 z" id="boundary" inkscape:connector-curvature="0" />
	<path style="fill:none;stroke:red;stroke-width:1px;stroke-linecap:butt;stroke-linejoin:miter;stroke-opacity:1" d="M 279.303,26.7523 258.826,15.3761 z" id="boundary" inkscape:connector-curvature="0" />
	<path style="fill:none;stroke:red;stroke-width:1px;stroke-linecap:butt;stroke-linejoin:miter;stroke-opacity:1" d="M 279.303,26.7523 290.679,47.2294 z" id="boundary" inkscape:connector-curvature="0" />
	<path style="fill:none;stroke:red;stroke-width:1px;stroke-linecap:butt;stroke-linejoin:miter;stroke-opacity:1" d="M 290.679,47.2294 290.679,69.9817 z" id="boundary" inkscape:connector-curvature="0" />
	<path style="fill:none;stroke:red;stroke-width:1px;stroke-linecap:butt;stroke-linejoin:miter;stroke-opacity:1" d="M 302.055,90.4587 290.679,69.9817 z" id="boundary" inkscape:connector-curvature="0" />
	<path style="fill:none;stroke:red;stroke-width:1px;stroke-linecap:butt;stroke-linejoin:miter;stroke-opacity:1" d="M 302.055,90.4587 302.055,113.211 z" id="boundary" inkscape:connector-curvature="0" />
	<path style="fill:none;stroke:red;stroke-width:1px;stroke-linecap:butt;stroke-linejoin:miter;stroke-opacity:1" d="M 302.055,135.963 302.055,113.211 z" id="boundary" inkscape:connector-curvature="0" />
	<path style="fill:none;stroke:red;stroke-width:1px;stroke-linecap:butt;stroke-linejoin:miter;stroke-opacity:1" d="M 493.174,140.514 470.422,147.339 z" id="boundary" inkscape:connector-curvature="0" />
	<path style="fill:none;stroke:red;stroke-width:1px;stroke-linecap:butt;stroke-linejoin:miter;stroke-opacity:1" d="M 302.055,135.963 302.055,158.716 z" id="boundary" inkscape:connector-curvature="0" />
	<path style="fill:none;stroke:red;stroke-width:1px;stroke-linecap:butt;stroke-linejoin:miter;stroke-opacity:1" d="M 302.055,158.716 320.257,174.642 z" id="boundary" inkscape:connector-curvature="0" />
	<path style="fill:none;stroke:red;stroke-width:1px;stroke-linecap:butt;stroke-linejoin:miter;stroke-opacity:1" d="M 340.734,186.018 363.486,174.642 z" id="boundary" inkscape:connector-curvature="0" />
	<path style="fill:none;stroke:red;stroke-width:1px;stroke-linecap:butt;stroke-linejoin:miter;stroke-opacity:1" d="M 363.486,174.642 383.963,186.018 z" id="boundary" inkscape:connector-curvature="0" />
	<path style="fill:none;stroke:red;stroke-width:1px;stroke-linecap:butt;stroke-linejoin:miter;stroke-opacity:1" d="M 340.734,186.018 320.257,174.642 z" id="boundary" inkscape:connector-curvature="0" />
	<path style="fill:none;stroke:red;stroke-width:1px;stroke-linecap:butt;stroke-linejoin:miter;stroke-opacity:1" d="M 447.67,151.89 470.422,147.339 z" id="boundary" inkscape:connector-curvature="0" />
	<path style="fill:none;stroke:red;stroke-width:1px;stroke-linecap:butt;stroke-linejoin:miter;stroke-opacity:1" d="M 447.67,151.89 424.917,158.716 z" id="boundary" inkscape:connector-curvature="0" />
	<path style="fill:none;stroke:red;stroke-width:1px;stroke-linecap:butt;stroke-linejoin:miter;stroke-opacity:1" d="M 404.44,174.642 383.963,186.018 z" id="boundary" inkscape:connector-curvature="0" />
	<path style="fill:none;stroke:red;stroke-width:1px;stroke-linecap:butt;stroke-linejoin:miter;stroke-opacity:1" d="M 424.917,158.716 404.44,174.642 z" id="boundary" inkscape:connector-curvature="0" />
	<path style="fill:none;stroke:red;stroke-width:1px;stroke-linecap:butt;stroke-linejoin:miter;stroke-opacity:1" d="M 4,386.239 15.3761,363.486 z" id="boundary" inkscape:connector-curvature="0" />
	<path style="fill:none;stroke:red;stroke-width:1px;stroke-linecap:butt;stroke-linejoin:miter;stroke-opacity:1" d="M 4,408.991 4,386.239 z" id="boundary" inkscape:connector-curvature="0" />
	<path style="fill:none;stroke:red;stroke-width:1px;stroke-linecap:butt;stroke-linejoin:miter;stroke-opacity:1" d="M 15.3761,452.22 4,431.743 z" id="boundary" inkscape:connector-curvature="0" />
	<path style="fill:none;stroke:red;stroke-width:1px;stroke-linecap:butt;stroke-linejoin:miter;stroke-opacity:1" d="M 4,431.743 4,408.991 z" id="boundary" inkscape:connector-curvature="0" />
	<path style="fill:none;stroke:red;stroke-width:1px;stroke-linecap:butt;stroke-linejoin:miter;stroke-opacity:1" d="M 104.11,506.826 81.3578,506.826 z" id="boundary" inkscape:connector-curvature="0" />
	<path style="fill:none;stroke:red;stroke-width:1px;stroke-linecap:butt;stroke-linejoin:miter;stroke-opacity:1" d="M 81.3578,506.826 58.6055,506.826 z" id="boundary" inkscape:connector-curvature="0" />
	<path style="fill:none;stroke:red;stroke-width:1px;stroke-linecap:butt;stroke-linejoin:miter;stroke-opacity:1" d="M 58.6055,506.826 40.4037,490.899 z" id="boundary" inkscape:connector-curvature="0" />
	<path style="fill:none;stroke:red;stroke-width:1px;stroke-linecap:butt;stroke-linejoin:miter;stroke-opacity:1" d="M 40.4037,490.899 26.7523,472.697 z" id="boundary" inkscape:connector-curvature="0" />
	<path style="fill:none;stroke:red;stroke-width:1px;stroke-linecap:butt;stroke-linejoin:miter;stroke-opacity:1" d="M 26.7523,472.697 15.3761,452.22 z" id="boundary" inkscape:connector-curvature="0" />
	<path style="fill:none;stroke:red;stroke-width:1px;stroke-linecap:butt;stroke-linejoin:miter;stroke-opacity:1" d="M 104.11,506.826 126.862,506.826 z" id="boundary" inkscape:connector-curvature="0" />
	<path style="fill:none;stroke:red;stroke-width:1px;stroke-linecap:butt;stroke-linejoin:miter;stroke-opacity:1" d="M 126.862,506.826 147.339,518.202 z" id="boundary" inkscape:connector-curvature="0" />
	<path style="fill:none;stroke:red;stroke-width:1px;stroke-linecap:butt;stroke-linejoin:miter;stroke-opacity:1" d="M 147.339,518.202 170.092,518.202 z" id="boundary" inkscape:connector-curvature="0" />
	<path style="fill:none;stroke:red;stroke-width:1px;stroke-linecap:butt;stroke-linejoin:miter;stroke-opacity:1" d="M 170.092,518.202 188.294,534.128 z" id="boundary" inkscape:connector-curvature="0" />
	<path style="fill:none;stroke:red;stroke-width:1px;stroke-linecap:butt;stroke-linejoin:miter;stroke-opacity:1" d="M 188.294,534.128 208.771,545.505 z" id="boundary" inkscape:connector-curvature="0" />
	<path style="fill:none;stroke:red;stroke-width:1px;stroke-linecap:butt;stroke-linejoin:miter;stroke-opacity:1" d="M 208.771,545.505 220.147,565.982 z" id="boundary" inkscape:connector-curvature="0" />
	<path style="fill:none;stroke:red;stroke-width:1px;stroke-linecap:butt;stroke-linejoin:miter;stroke-opacity:1" d="M 220.147,565.982 236.073,584.183 z" id="boundary" inkscape:connector-curvature="0" />
	<path style="fill:none;stroke:red;stroke-width:1px;stroke-linecap:butt;stroke-linejoin:miter;stroke-opacity:1" d="M 220.147,716.147 220.147,693.394 z" id="boundary" inkscape:connector-curvature="0" />
	<path style="fill:none;stroke:red;stroke-width:1px;stroke-linecap:butt;stroke-linejoin:miter;stroke-opacity:1" d="M 242.899,722.972 220.147,716.147 z" id="boundary" inkscape:connector-curvature="0" />
	<path style="fill:none;stroke:red;stroke-width:1px;stroke-linecap:butt;stroke-linejoin:miter;stroke-opacity:1" d="M 236.073,584.183 254.275,597.835 z" id="boundary" inkscape:connector-curvature="0" />
	<path style="fill:none;stroke:red;stroke-width:1px;stroke-linecap:butt;stroke-linejoin:miter;stroke-opacity:1" d="M 461.321,688.844 438.569,688.844 z" id="boundary" inkscape:connector-curvature="0" />
	<path style="fill:none;stroke:red;stroke-width:1px;stroke-linecap:butt;stroke-linejoin:miter;stroke-opacity:1" d="M 238.349,675.193 261.101,663.817 z" id="boundary" inkscape:connector-curvature="0" />
	<path style="fill:none;stroke:red;stroke-width:1px;stroke-linecap:butt;stroke-linejoin:miter;stroke-opacity:1" d="M 254.275,597.835 267.927,616.037 z" id="boundary" inkscape:connector-curvature="0" />
	<path style="fill:none;stroke:red;stroke-width:1px;stroke-linecap:butt;stroke-linejoin:miter;stroke-opacity:1" d="M 238.349,675.193 220.147,693.394 z" id="boundary" inkscape:connector-curvature="0" />
	<path style="fill:none;stroke:red;stroke-width:1px;stroke-linecap:butt;stroke-linejoin:miter;stroke-opacity:1" d="M 286.128,631.963 283.853,663.817 z" id="boundary" inkscape:connector-curvature="0" />
	<path style="fill:none;stroke:red;stroke-width:1px;stroke-linecap:butt;stroke-linejoin:miter;stroke-opacity:1" d="M 283.853,663.817 261.101,663.817 z" id="boundary" inkscape:connector-curvature="0" />
	<path style="fill:none;stroke:red;stroke-width:1px;stroke-linecap:butt;stroke-linejoin:miter;stroke-opacity:1" d="M 286.128,631.963 267.927,616.037 z" id="boundary" inkscape:connector-curvature="0" />
	<path style="fill:none;stroke:red;stroke-width:1px;stroke-linecap:butt;stroke-linejoin:miter;stroke-opacity:1" d="M 438.569,688.844 415.817,688.844 z" id="boundary" inkscape:connector-curvature="0" />
	<path style="fill:none;stroke:red;stroke-width:1px;stroke-linecap:butt;stroke-linejoin:miter;stroke-opacity:1" d="M 395.339,700.22 415.817,688.844 z" id="boundary" inkscape:connector-curvature="0" />
	<path style="fill:none;stroke:red;stroke-width:1px;stroke-linecap:butt;stroke-linejoin:miter;stroke-opacity:1" d="M 283.853,722.972 263.376,734.349 z" id="boundary" inkscape:connector-curvature="0" />
	<path style="fill:none;stroke:red;stroke-width:1px;stroke-linecap:butt;stroke-linejoin:miter;stroke-opacity:1" d="M 263.376,734.349 242.899,722.972 z" id="boundary" inkscape:connector-curvature="0" />
	<path style="fill:none;stroke:red;stroke-width:1px;stroke-linecap:butt;stroke-linejoin:miter;stroke-opacity:1" d="M 306.606,722.972 329.358,720.697 z" id="boundary" inkscape:connector-curvature="0" />
	<path style="fill:none;stroke:red;stroke-width:1px;stroke-linecap:butt;stroke-linejoin:miter;stroke-opacity:1" d="M 283.853,722.972 306.606,722.972 z" id="boundary" inkscape:connector-curvature="0" />
	<path style="fill:none;stroke:red;stroke-width:1px;stroke-linecap:butt;stroke-linejoin:miter;stroke-opacity:1" d="M 374.862,711.596 395.339,700.22 z" id="boundary" inkscape:connector-curvature="0" />
	<path style="fill:none;stroke:red;stroke-width:1px;stroke-linecap:butt;stroke-linejoin:miter;stroke-opacity:1" d="M 329.358,720.697 352.11,711.596 z" id="boundary" inkscape:connector-curvature="0" />
	<path style="fill:none;stroke:red;stroke-width:1px;stroke-linecap:butt;stroke-linejoin:miter;stroke-opacity:1" d="M 352.11,711.596 374.862,711.596 z" id="boundary" inkscape:connector-curvature="0" />
	<path style="fill:none;stroke:red;stroke-width:1px;stroke-linecap:butt;stroke-linejoin:miter;stroke-opacity:1" d="M 697.945,101.835 720.697,95.0092 z" id="boundary" inkscape:connector-curvature="0" />
	<path style="fill:none;stroke:red;stroke-width:1px;stroke-linecap:butt;stroke-linejoin:miter;stroke-opacity:1" d="M 697.945,124.587 697.945,101.835 z" id="boundary" inkscape:connector-curvature="0" />
	<path style="fill:none;stroke:red;stroke-width:1px;stroke-linecap:butt;stroke-linejoin:miter;stroke-opacity:1" d="M 515.927,140.514 493.174,140.514 z" id="boundary" inkscape:connector-curvature="0" />
	<path style="fill:none;stroke:red;stroke-width:1px;stroke-linecap:butt;stroke-linejoin:miter;stroke-opacity:1" d="M 720.697,95.0092 743.45,95.0092 z" id="boundary" inkscape:connector-curvature="0" />
	<path style="fill:none;stroke:red;stroke-width:1px;stroke-linecap:butt;stroke-linejoin:miter;stroke-opacity:1" d="M 743.45,95.0092 766.202,95.0092 z" id="boundary" inkscape:connector-curvature="0" />
	<path style="fill:none;stroke:red;stroke-width:1px;stroke-linecap:butt;stroke-linejoin:miter;stroke-opacity:1" d="M 766.202,95.0092 779.853,113.211 z" id="boundary" inkscape:connector-curvature="0" />
	<path style="fill:none;stroke:red;stroke-width:1px;stroke-linecap:butt;stroke-linejoin:miter;stroke-opacity:1" d="M 779.853,113.211 779.853,135.963 z" id="boundary" inkscape:connector-curvature="0" />
	<path style="fill:none;stroke:red;stroke-width:1px;stroke-linecap:butt;stroke-linejoin:miter;stroke-opacity:1" d="M 691.119,151.89 697.945,124.587 z" id="boundary" inkscape:connector-curvature="0" />
	<path style="fill:none;stroke:red;stroke-width:1px;stroke-linecap:butt;stroke-linejoin:miter;stroke-opacity:1" d="M 556.881,140.514 536.404,151.89 z" id="boundary" inkscape:connector-curvature="0" />
	<path style="fill:none;stroke:red;stroke-width:1px;stroke-linecap:butt;stroke-linejoin:miter;stroke-opacity:1" d="M 536.404,151.89 515.927,140.514 z" id="boundary" inkscape:connector-curvature="0" />
	<path style="fill:none;stroke:red;stroke-width:1px;stroke-linecap:butt;stroke-linejoin:miter;stroke-opacity:1" d="M 579.633,140.514 602.385,140.514 z" id="boundary" inkscape:connector-curvature="0" />
	<path style="fill:none;stroke:red;stroke-width:1px;stroke-linecap:butt;stroke-linejoin:miter;stroke-opacity:1" d="M 556.881,140.514 579.633,140.514 z" id="boundary" inkscape:connector-curvature="0" />
	<path style="fill:none;stroke:red;stroke-width:1px;stroke-linecap:butt;stroke-linejoin:miter;stroke-opacity:1" d="M 602.385,140.514 625.138,140.514 z" id="boundary" inkscape:connector-curvature="0" />
	<path style="fill:none;stroke:red;stroke-width:1px;stroke-linecap:butt;stroke-linejoin:miter;stroke-opacity:1" d="M 625.138,140.514 645.615,151.89 z" id="boundary" inkscape:connector-curvature="0" />
	<path style="fill:none;stroke:red;stroke-width:1px;stroke-linecap:butt;stroke-linejoin:miter;stroke-opacity:1" d="M 645.615,151.89 668.367,151.89 z" id="boundary" inkscape:connector-curvature="0" />
	<path style="fill:none;stroke:red;stroke-width:1px;stroke-linecap:butt;stroke-linejoin:miter;stroke-opacity:1" d="M 668.367,151.89 691.119,151.89 z" id="boundary" inkscape:connector-curvature="0" />
	<path style="fill:none;stroke:red;stroke-width:1px;stroke-linecap:butt;stroke-linejoin:miter;stroke-opacity:1" d="M 481.798,700.22 461.321,688.844 z" id="boundary" inkscape:connector-curvature="0" />
	<path style="fill:none;stroke:red;stroke-width:1px;stroke-linecap:butt;stroke-linejoin:miter;stroke-opacity:1" d="M 779.853,135.963 779.853,158.716 z" id="boundary" inkscape:connector-curvature="0" />
	<path style="fill:none;stroke:red;stroke-width:1px;stroke-linecap:butt;stroke-linejoin:miter;stroke-opacity:1" d="M 779.853,158.716 779.853,181.468 z" id="boundary" inkscape:connector-curvature="0" />
	<path style="fill:none;stroke:red;stroke-width:1px;stroke-linecap:butt;stroke-linejoin:miter;stroke-opacity:1" d="M 800.33,192.844 779.853,181.468 z" id="boundary" inkscape:connector-curvature="0" />
	<path style="fill:none;stroke:red;stroke-width:1px;stroke-linecap:butt;stroke-linejoin:miter;stroke-opacity:1" d="M 800.33,192.844 823.083,201.945 z" id="boundary" inkscape:connector-curvature="0" />
	<path style="fill:none;stroke:red;stroke-width:1px;stroke-linecap:butt;stroke-linejoin:miter;stroke-opacity:1" d="M 823.083,201.945 836.734,220.147 z" id="boundary" inkscape:connector-curvature="0" />
	<path style="fill:none;stroke:red;stroke-width:1px;stroke-linecap:butt;stroke-linejoin:miter;stroke-opacity:1" d="M 836.734,220.147 848.11,240.624 z" id="boundary" inkscape:connector-curvature="0" />
	<path style="fill:none;stroke:red;stroke-width:1px;stroke-linecap:butt;stroke-linejoin:miter;stroke-opacity:1" d="M 866.312,256.55 848.11,240.624 z" id="boundary" inkscape:connector-curvature="0" />
	<path style="fill:none;stroke:red;stroke-width:1px;stroke-linecap:butt;stroke-linejoin:miter;stroke-opacity:1" d="M 893.615,295.229 875.413,279.303 z" id="boundary" inkscape:connector-curvature="0" />
	<path style="fill:none;stroke:red;stroke-width:1px;stroke-linecap:butt;stroke-linejoin:miter;stroke-opacity:1" d="M 875.413,279.303 866.312,256.55 z" id="boundary" inkscape:connector-curvature="0" />
	<path style="fill:none;stroke:red;stroke-width:1px;stroke-linecap:butt;stroke-linejoin:miter;stroke-opacity:1" d="M 909.541,313.431 893.615,295.229 z" id="boundary" inkscape:connector-curvature="0" />
	<path style="fill:none;stroke:red;stroke-width:1px;stroke-linecap:butt;stroke-linejoin:miter;stroke-opacity:1" d="M 920.917,333.908 909.541,313.431 z" id="boundary" inkscape:connector-curvature="0" />
	<path style="fill:none;stroke:red;stroke-width:1px;stroke-linecap:butt;stroke-linejoin:miter;stroke-opacity:1" d="M 936.844,352.11 920.917,333.908 z" id="boundary" inkscape:connector-curvature="0" />
	<path style="fill:none;stroke:red;stroke-width:1px;stroke-linecap:butt;stroke-linejoin:miter;stroke-opacity:1" d="M 950.495,370.312 936.844,352.11 z" id="boundary" inkscape:connector-curvature="0" />
	<path style="fill:none;stroke:red;stroke-width:1px;stroke-linecap:butt;stroke-linejoin:miter;stroke-opacity:1" d="M 950.495,415.817 961.872,390.789 z" id="boundary" inkscape:connector-curvature="0" />
	<path style="fill:none;stroke:red;stroke-width:1px;stroke-linecap:butt;stroke-linejoin:miter;stroke-opacity:1" d="M 961.872,436.294 950.495,415.817 z" id="boundary" inkscape:connector-curvature="0" />
	<path style="fill:none;stroke:red;stroke-width:1px;stroke-linecap:butt;stroke-linejoin:miter;stroke-opacity:1" d="M 950.495,370.312 961.872,390.789 z" id="boundary" inkscape:connector-curvature="0" />
	<path style="fill:none;stroke:red;stroke-width:1px;stroke-linecap:butt;stroke-linejoin:miter;stroke-opacity:1" d="M 973.248,479.523 961.872,459.046 z" id="boundary" inkscape:connector-curvature="0" />
	<path style="fill:none;stroke:red;stroke-width:1px;stroke-linecap:butt;stroke-linejoin:miter;stroke-opacity:1" d="M 961.872,459.046 961.872,436.294 z" id="boundary" inkscape:connector-curvature="0" />
	<path style="fill:none;stroke:red;stroke-width:1px;stroke-linecap:butt;stroke-linejoin:miter;stroke-opacity:1" d="M 973.248,479.523 973.248,502.275 z" id="boundary" inkscape:connector-curvature="0" />
	<path style="fill:none;stroke:red;stroke-width:1px;stroke-linecap:butt;stroke-linejoin:miter;stroke-opacity:1" d="M 481.798,700.22 488.624,722.972 z" id="boundary" inkscape:connector-curvature="0" />
	<path style="fill:none;stroke:red;stroke-width:1px;stroke-linecap:butt;stroke-linejoin:miter;stroke-opacity:1" d="M 506.826,738.899 488.624,722.972 z" id="boundary" inkscape:connector-curvature="0" />
	<path style="fill:none;stroke:red;stroke-width:1px;stroke-linecap:butt;stroke-linejoin:miter;stroke-opacity:1" d="M 506.826,738.899 527.303,750.275 z" id="boundary" inkscape:connector-curvature="0" />
	<path style="fill:none;stroke:red;stroke-width:1px;stroke-linecap:butt;stroke-linejoin:miter;stroke-opacity:1" d="M 618.312,745.725 595.56,745.725 z" id="boundary" inkscape:connector-curvature="0" />
	<path style="fill:none;stroke:red;stroke-width:1px;stroke-linecap:butt;stroke-linejoin:miter;stroke-opacity:1" d="M 641.064,745.725 618.312,745.725 z" id="boundary" inkscape:connector-curvature="0" />
	<path style="fill:none;stroke:red;stroke-width:1px;stroke-linecap:butt;stroke-linejoin:miter;stroke-opacity:1" d="M 757.101,734.349 734.349,745.725 z" id="boundary" inkscape:connector-curvature="0" />
	<path style="fill:none;stroke:red;stroke-width:1px;stroke-linecap:butt;stroke-linejoin:miter;stroke-opacity:1" d="M 641.064,745.725 652.44,766.202 z" id="boundary" inkscape:connector-curvature="0" />
	<path style="fill:none;stroke:red;stroke-width:1px;stroke-linecap:butt;stroke-linejoin:miter;stroke-opacity:1" d="M 734.349,768.477 734.349,745.725 z" id="boundary" inkscape:connector-curvature="0" />
	<path style="fill:none;stroke:red;stroke-width:1px;stroke-linecap:butt;stroke-linejoin:miter;stroke-opacity:1" d="M 595.56,745.725 572.807,750.275 z" id="boundary" inkscape:connector-curvature="0" />
	<path style="fill:none;stroke:red;stroke-width:1px;stroke-linecap:butt;stroke-linejoin:miter;stroke-opacity:1" d="M 550.055,757.101 572.807,750.275 z" id="boundary" inkscape:connector-curvature="0" />
	<path style="fill:none;stroke:red;stroke-width:1px;stroke-linecap:butt;stroke-linejoin:miter;stroke-opacity:1" d="M 550.055,757.101 527.303,750.275 z" id="boundary" inkscape:connector-curvature="0" />
	<path style="fill:none;stroke:red;stroke-width:1px;stroke-linecap:butt;stroke-linejoin:miter;stroke-opacity:1" d="M 652.44,788.954 652.44,766.202 z" id="boundary" inkscape:connector-curvature="0" />
	<path style="fill:none;stroke:red;stroke-width:1px;stroke-linecap:butt;stroke-linejoin:miter;stroke-opacity:1" d="M 670.642,802.606 652.44,788.954 z" id="boundary" inkscape:connector-curvature="0" />
	<path style="fill:none;stroke:red;stroke-width:1px;stroke-linecap:butt;stroke-linejoin:miter;stroke-opacity:1" d="M 734.349,768.477 734.349,791.229 z" id="boundary" inkscape:connector-curvature="0" />
	<path style="fill:none;stroke:red;stroke-width:1px;stroke-linecap:butt;stroke-linejoin:miter;stroke-opacity:1" d="M 691.119,813.982 670.642,802.606 z" id="boundary" inkscape:connector-curvature="0" />
	<path style="fill:none;stroke:red;stroke-width:1px;stroke-linecap:butt;stroke-linejoin:miter;stroke-opacity:1" d="M 734.349,791.229 713.872,813.982 z" id="boundary" inkscape:connector-curvature="0" />
	<path style="fill:none;stroke:red;stroke-width:1px;stroke-linecap:butt;stroke-linejoin:miter;stroke-opacity:1" d="M 713.872,813.982 691.119,813.982 z" id="boundary" inkscape:connector-curvature="0" />
	<path style="fill:none;stroke:red;stroke-width:1px;stroke-linecap:butt;stroke-linejoin:miter;stroke-opacity:1" d="M 757.101,734.349 779.853,734.349 z" id="boundary" inkscape:connector-curvature="0" />
	<path style="fill:none;stroke:red;stroke-width:1px;stroke-linecap:butt;stroke-linejoin:miter;stroke-opacity:1" d="M 973.248,525.028 973.248,502.275 z" id="boundary" inkscape:connector-curvature="0" />
	<path style="fill:none;stroke:red;stroke-width:1px;stroke-linecap:butt;stroke-linejoin:miter;stroke-opacity:1" d="M 973.248,688.844 955.046,709.321 z" id="boundary" inkscape:connector-curvature="0" />
	<path style="fill:none;stroke:red;stroke-width:1px;stroke-linecap:butt;stroke-linejoin:miter;stroke-opacity:1" d="M 984.624,666.092 973.248,688.844 z" id="boundary" inkscape:connector-curvature="0" />
	<path style="fill:none;stroke:red;stroke-width:1px;stroke-linecap:butt;stroke-linejoin:miter;stroke-opacity:1" d="M 984.624,568.257 973.248,547.78 z" id="boundary" inkscape:connector-curvature="0" />
	<path style="fill:none;stroke:red;stroke-width:1px;stroke-linecap:butt;stroke-linejoin:miter;stroke-opacity:1" d="M 973.248,547.78 973.248,525.028 z" id="boundary" inkscape:connector-curvature="0" />
	<path style="fill:none;stroke:red;stroke-width:1px;stroke-linecap:butt;stroke-linejoin:miter;stroke-opacity:1" d="M 984.624,568.257 984.624,591.009 z" id="boundary" inkscape:connector-curvature="0" />
	<path style="fill:none;stroke:red;stroke-width:1px;stroke-linecap:butt;stroke-linejoin:miter;stroke-opacity:1" d="M 996,611.486 984.624,591.009 z" id="boundary" inkscape:connector-curvature="0" />
	<path style="fill:none;stroke:red;stroke-width:1px;stroke-linecap:butt;stroke-linejoin:miter;stroke-opacity:1" d="M 996,634.239 984.624,666.092 z" id="boundary" inkscape:connector-curvature="0" />
	<path style="fill:none;stroke:red;stroke-width:1px;stroke-linecap:butt;stroke-linejoin:miter;stroke-opacity:1" d="M 996,611.486 996,634.239 z" id="boundary" inkscape:connector-curvature="0" />
	<path style="fill:none;stroke:red;stroke-width:1px;stroke-linecap:butt;stroke-linejoin:miter;stroke-opacity:1" d="M 802.606,734.349 779.853,734.349 z" id="boundary" inkscape:connector-curvature="0" />
	<path style="fill:none;stroke:red;stroke-width:1px;stroke-linecap:butt;stroke-linejoin:miter;stroke-opacity:1" d="M 825.358,734.349 845.835,745.725 z" id="boundary" inkscape:connector-curvature="0" />
	<path style="fill:none;stroke:red;stroke-width:1px;stroke-linecap:butt;stroke-linejoin:miter;stroke-opacity:1" d="M 802.606,734.349 825.358,734.349 z" id="boundary" inkscape:connector-curvature="0" />
	<path style="fill:none;stroke:red;stroke-width:1px;stroke-linecap:butt;stroke-linejoin:miter;stroke-opacity:1" d="M 868.587,745.725 845.835,745.725 z" id="boundary" inkscape:connector-curvature="0" />
	<path style="fill:none;stroke:red;stroke-width:1px;stroke-linecap:butt;stroke-linejoin:miter;stroke-opacity:1" d="M 955.046,709.321 936.844,727.523 z" id="boundary" inkscape:connector-curvature="0" />
	<path style="fill:none;stroke:red;stroke-width:1px;stroke-linecap:butt;stroke-linejoin:miter;stroke-opacity:1" d="M 936.844,727.523 914.092,734.349 z" id="boundary" inkscape:connector-curvature="0" />
	<path style="fill:none;stroke:red;stroke-width:1px;stroke-linecap:butt;stroke-linejoin:miter;stroke-opacity:1" d="M 868.587,745.725 891.339,738.899 z" id="boundary" inkscape:connector-curvature="0" />
	<path style="fill:none;stroke:red;stroke-width:1px;stroke-linecap:butt;stroke-linejoin:miter;stroke-opacity:1" d="M 891.339,738.899 914.092,734.349 z" id="boundary" inkscape:connector-curvature="0" />
	<circle cx="4" cy="386.239" r="4" fill="#0" id="circle0"/>
	<circle cx="4" cy="408.991" r="4" fill="#0" id="circle1"/>
	<circle cx="4" cy="431.743" r="4" fill="#0" id="circle2"/>
	<circle cx="15.3761" cy="363.486" r="4" fill="#0" id="circle3"/>
	<circle cx="15.3761" cy="452.22" r="4" fill="#0" id="circle4"/>
	<circle cx="26.7523" cy="306.606" r="4" fill="#0" id="circle5"/>
	<circle cx="26.7523" cy="329.358" r="4" fill="#0" id="circle6"/>
	<circle cx="26.7523" cy="472.697" r="4" fill="#0" id="circle7"/>
	<circle cx="40.4037" cy="490.899" r="4" fill="#0" id="circle8"/>
	<circle cx="49.5046" cy="283.853" r="4" fill="#0" id="circle9"/>
	<circle cx="58.6055" cy="506.826" r="4" fill="#0" id="circle10"/>
	<circle cx="67.7064" cy="265.651" r="4" fill="#0" id="circle11"/>
	<circle cx="81.3578" cy="506.826" r="4" fill="#0" id="circle12"/>
	<circle cx="88.1835" cy="254.275" r="4" fill="#0" id="circle13"/>
	<circle cx="104.11" cy="506.826" r="4" fill="#0" id="circle14"/>
	<circle cx="106.385" cy="238.349" r="4" fill="#0" id="circle15"/>
	<circle cx="124.587" cy="220.147" r="4" fill="#0" id="circle16"/>
	<circle cx="126.862" cy="506.826" r="4" fill="#0" id="circle17"/>
	<circle cx="140.514" cy="67.7064" r="4" fill="#0" id="circle18"/>
	<circle cx="140.514" cy="90.4587" r="4" fill="#0" id="circle19"/>
	<circle cx="140.514" cy="113.211" r="4" fill="#0" id="circle20"/>
	<circle cx="140.514" cy="135.963" r="4" fill="#0" id="circle21"/>
	<circle cx="142.789" cy="201.945" r="4" fill="#0" id="circle22"/>
	<circle cx="147.339" cy="518.202" r="4" fill="#0" id="circle23"/>
	<circle cx="151.89" cy="33.578" r="4" fill="#0" id="circle24"/>
	<circle cx="151.89" cy="156.44" r="4" fill="#0" id="circle25"/>
	<circle cx="151.89" cy="179.193" r="4" fill="#0" id="circle26"/>
	<circle cx="170.092" cy="15.3761" r="4" fill="#0" id="circle27"/>
	<circle cx="170.092" cy="518.202" r="4" fill="#0" id="circle28"/>
	<circle cx="188.294" cy="534.128" r="4" fill="#0" id="circle29"/>
	<circle cx="192.844" cy="4" r="4" fill="#0" id="circle30"/>
	<circle cx="208.771" cy="545.505" r="4" fill="#0" id="circle31"/>
	<circle cx="213.321" cy="15.3761" r="4" fill="#0" id="circle32"/>
	<circle cx="220.147" cy="565.982" r="4" fill="#0" id="circle33"/>
	<circle cx="220.147" cy="693.394" r="4" fill="#0" id="circle34"/>
	<circle cx="220.147" cy="716.147" r="4" fill="#0" id="circle35"/>
	<circle cx="236.073" cy="15.3761" r="4" fill="#0" id="circle36"/>
	<circle cx="236.073" cy="584.183" r="4" fill="#0" id="circle37"/>
	<circle cx="238.349" cy="675.193" r="4" fill="#0" id="circle38"/>
	<circle cx="242.899" cy="722.972" r="4" fill="#0" id="circle39"/>
	<circle cx="254.275" cy="597.835" r="4" fill="#0" id="circle40"/>
	<circle cx="258.826" cy="15.3761" r="4" fill="#0" id="circle41"/>
	<circle cx="261.101" cy="663.817" r="4" fill="#0" id="circle42"/>
	<circle cx="263.376" cy="734.349" r="4" fill="#0" id="circle43"/>
	<circle cx="267.927" cy="616.037" r="4" fill="#0" id="circle44"/>
	<circle cx="279.303" cy="26.7523" r="4" fill="#0" id="circle45"/>
	<circle cx="283.853" cy="663.817" r="4" fill="#0" id="circle46"/>
	<circle cx="283.853" cy="722.972" r="4" fill="#0" id="circle47"/>
	<circle cx="286.128" cy="631.963" r="4" fill="#0" id="circle48"/>
	<circle cx="290.679" cy="47.2294" r="4" fill="#0" id="circle49"/>
	<circle cx="290.679" cy="69.9817" r="4" fill="#0" id="circle50"/>
	<circle cx="302.055" cy="90.4587" r="4" fill="#0" id="circle51"/>
	<circle cx="302.055" cy="113.211" r="4" fill="#0" id="circle52"/>
	<circle cx="302.055" cy="135.963" r="4" fill="#0" id="circle53"/>
	<circle cx="302.055" cy="158.716" r="4" fill="#0" id="circle54"/>
	<circle cx="306.606" cy="722.972" r="4" fill="#0" id="circle55"/>
	<circle cx="320.257" cy="174.642" r="4" fill="#0" id="circle56"/>
	<circle cx="329.358" cy="720.697" r="4" fill="#0" id="circle57"/>
	<circle cx="340.734" cy="186.018" r="4" fill="#0" id="circle58"/>
	<circle cx="352.11" cy="711.596" r="4" fill="#0" id="circle59"/>
	<circle cx="363.486" cy="174.642" r="4" fill="#0" id="circle60"/>
	<circle cx="374.862" cy="711.596" r="4" fill="#0" id="circle61"/>
	<circle cx="383.963" cy="186.018" r="4" fill="#0" id="circle62"/>
	<circle cx="395.339" cy="700.22" r="4" fill="#0" id="circle63"/>
	<circle cx="404.44" cy="174.642" r="4" fill="#0" id="circle64"/>
	<circle cx="415.817" cy="688.844" r="4" fill="#0" id="circle65"/>
	<circle cx="424.917" cy="158.716" r="4" fill="#0" id="circle66"/>
	<circle cx="438.569" cy="688.844" r="4" fill="#0" id="circle67"/>
	<circle cx="447.67" cy="151.89" r="4" fill="#0" id="circle68"/>
	<circle cx="461.321" cy="688.844" r="4" fill="#0" id="circle69"/>
	<circle cx="470.422" cy="147.339" r="4" fill="#0" id="circle70"/>
	<circle cx="481.798" cy="700.22" r="4" fill="#0" id="circle71"/>
	<circle cx="488.624" cy="722.972" r="4" fill="#0" id="circle72"/>
	<circle cx="493.174" cy="140.514" r="4" fill="#0" id="circle73"/>
	<circle cx="506.826" cy="738.899" r="4" fill="#0" id="circle74"/>
	<circle cx="515.927" cy="140.514" r="4" fill="#0" id="circle75"/>
	<circle cx="527.303" cy="750.275" r="4" fill="#0" id="circle76"/>
	<circle cx="536.404" cy="151.89" r="4" fill="#0" id="circle77"/>
	<circle cx="550.055" cy="757.101" r="4" fill="#0" id="circle78"/>
	<circle cx="556.881" cy="140.514" r="4" fill="#0" id="circle79"/>
	<circle cx="572.807" cy="750.275" r="4" fill="#0" id="circle80"/>
	<circle cx="579.633" cy="140.514" r="4" fill="#0" id="circle81"/>
	<circle cx="595.56" cy="745.725" r="4" fill="#0" id="circle82"/>
	<circle cx="602.385" cy="140.514" r="4" fill="#0" id="circle83"/>
	<circle cx="618.312" cy="745.725" r="4" fill="#0" id="circle84"/>
	<circle cx="625.138" cy="140.514" r="4" fill="#0" id="circle85"/>
	<circle cx="641.064" cy="745.725" r="4" fill="#0" id="circle86"/>
	<circle cx="645.615" cy="151.89" r="4" fill="#0" id="circle87"/>
	<circle cx="652.44" cy="766.202" r="4" fill="#0" id="circle88"/>
	<circle cx="652.44" cy="788.954" r="4" fill="#0" id="circle89"/>
	<circle cx="668.367" cy="151.89" r="4" fill="#0" id="circle90"/>
	<circle cx="670.642" cy="802.606" r="4" fill="#0" id="circle91"/>
	<circle cx="691.119" cy="151.89" r="4" fill="#0" id="circle92"/>
	<circle cx="691.119" cy="813.982" r="4" fill="#0" id="circle93"/>
	<circle cx="697.945" cy="101.835" r="4" fill="#0" id="circle94"/>
	<circle cx="697.945" cy="124.587" r="4" fill="#0" id="circle95"/>
	<circle cx="713.872" cy="813.982" r="4" fill="#0" id="circle96"/>
	<circle cx="720.697" cy="95.0092" r="4" fill="#0" id="circle97"/>
	<circle cx="734.349" cy="745.725" r="4" fill="#0" id="circle98"/>
	<circle cx="734.349" cy="768.477" r="4" fill="#0" id="circle99"/>
	<circle cx="734.349" cy="791.229" r="4" fill="#0" id="circle100"/>
	<circle cx="743.45" cy="95.0092" r="4" fill="#0" id="circle101"/>
	<circle cx="757.101" cy="734.349" r="4" fill="#0" id="circle102"/>
	<circle cx="766.202" cy="95.0092" r="4" fill="#0" id="circle103"/>
	<circle cx="779.853" cy="113.211" r="4" fill="#0" id="circle104"/>
	<circle cx="779.853" cy="135.963" r="4" fill="#0" id="circle105"/>
	<circle cx="779.853" cy="158.716" r="4" fill="#0" id="circle106"/>
	<circle cx="779.853" cy="181.468" r="4" fill="#0" id="circle107"/>
	<circle cx="779.853" cy="734.349" r="4" fill="#0" id="circle108"/>
	<circle cx="800.33" cy="192.844" r="4" fill="#0" id="circle109"/>
	<circle cx="802.606" cy="734.349" r="4" fill="#0" id="circle110"/>
	<circle cx="823.083" cy="201.945" r="4" fill="#0" id="circle111"/>
	<circle cx="825.358" cy="734.349" r="4" fill="#0" id="circle112"/>
	<circle cx="836.734" cy="220.147" r="4" fill="#0" id="circle113"/>
	<circle cx="845.835" cy="745.725" r="4" fill="#0" id="circle114"/>
	<circle cx="848.11" cy="240.624" r="4" fill="#0" id="circle115"/>
	<circle cx="866.312" cy="256.55" r="4" fill="#0" id="circle116"/>
	<circle cx="868.587" cy="745.725" r="4" fill="#0" id="circle117"/>
	<circle cx="875.413" cy="279.303" r="4" fill="#0" id="circle118"/>
	<circle cx="891.339" cy="738.899" r="4" fill="#0" id="circle119"/>
	<circle cx="893.615" cy="295.229" r="4" fill="#0" id="circle120"/>
	<circle cx="909.541" cy="313.431" r="4" fill="#0" id="circle121"/>
	<circle cx="914.092" cy="734.349" r="4" fill="#0" id="circle122"/>
	<circle cx="920.917" cy="333.908" r="4" fill="#0" id="circle123"/>
	<circle cx="936.844" cy="352.11" r="4" fill="#0" id="circle124"/>
	<circle cx="936.844" cy="727.523" r="4" fill="#0" id="circle125"/>
	<circle cx="950.495" cy="370.312" r="4" fill="#0" id="circle126"/>
	<circle cx="950.495" cy="415.817" r="4" fill="#0" id="circle127"/>
	<circle cx="955.046" cy="709.321" r="4" fill="#0" id="circle128"/>
	<circle cx="961.872" cy="390.789" r="4" fill="#0" id="circle129"/>
	<circle cx="961.872" cy="436.294" r="4" fill="#0" id="circle130"/>
	<circle cx="961.872" cy="459.046" r="4" fill="#0" id="circle131"/>
	<circle cx="973.248" cy="479.523" r="4" fill="#0" id="circle132"/>
	<circle cx="973.248" cy="502.275" r="4" fill="#0" id="circle133"/>
	<circle cx="973.248" cy="525.028" r="4" fill="#0" id="circle134"/>
	<circle cx="973.248" cy="547.78" r="4" fill="#0" id="circle135"/>
	<circle cx="973.248" cy="688.844" r="4" fill="#0" id="circle136"/>
	<circle cx="984.624" cy="568.257" r="4" fill="#0" id="circle137"/>
	<circle cx="984.624" cy="591.009" r="4" fill="#0" id="circle138"/>
	<circle cx="984.624" cy="666.092" r="4" fill="#0" id="circle139"/>
	<circle cx="996" cy="611.486" r="4" fill="#0" id="circle140"/>
	<circle cx="996" cy="634.239" r="4" fill="#0" id="circle141"/>
	</g>
</svg>