<?xml version="1.0" encoding="UTF-8" standalone="no"?>
<!-- Created with CurveBenchmark -->
<svg
	xmlns:dc="http://purl.org/dc/elements/1.1/"
	xmlns:cc="http://creativecommons.org/ns#"
	xmlns:rdf="http://www.w3.org/1999/02/22-rdf-syntax-ns#"
	xmlns:svg="http://www.w3.org/2000/svg"
	xmlns="http://www.w3.org/2000/svg"
	xmlns:sodipodi="http://sodipodi.sourceforge.net/DTD/sodipodi-0.dtd"
	xmlns:inkscape="http://www.inkscape.org/namespaces/inkscape"
	width="1000"
	height="1000"
	id="svg2"
	version="1.1"
	sodipodi:docname="manifold/nncrust-flightbird12.png.txt">
<defs
	id="defs4" />
<metadata
	id="metadata7">
	<rdf:RDF>
		<cc:Work
			rdf:about="">
			<dc:format>image/svg+xml</dc:format>
			<dc:type
				rdf:resource="http://purl.org/dc/dcmitype/StillImage" />
			<dc:title></dc:title>
		</cc:Work>
	</rdf:RDF>
</metadata>
<g
	inkscape:label="Layer 1"
	inkscape:groupmode="layer"
	id="layer1">
	<path style="fill:none;stroke:red;stroke-width:1px;stroke-linecap:butt;stroke-linejoin:miter;stroke-opacity:1" d="M 308.061,368.874 298.559,351.77 z" id="boundary" inkscape:connector-curvature="0" />
	<path style="fill:none;stroke:red;stroke-width:1px;stroke-linecap:butt;stroke-linejoin:miter;stroke-opacity:1" d="M 298.559,351.77 317.563,346.069 z" id="boundary" inkscape:connector-curvature="0" />
	<path style="fill:none;stroke:red;stroke-width:1px;stroke-linecap:butt;stroke-linejoin:miter;stroke-opacity:1" d="M 302.36,509.502 283.356,517.103 z" id="boundary" inkscape:connector-curvature="0" />
	<path style="fill:none;stroke:red;stroke-width:1px;stroke-linecap:butt;stroke-linejoin:miter;stroke-opacity:1" d="M 311.862,490.498 302.36,509.502 z" id="boundary" inkscape:connector-curvature="0" />
	<path style="fill:none;stroke:red;stroke-width:1px;stroke-linecap:butt;stroke-linejoin:miter;stroke-opacity:1" d="M 266.253,526.605 283.356,517.103 z" id="boundary" inkscape:connector-curvature="0" />
	<path style="fill:none;stroke:red;stroke-width:1px;stroke-linecap:butt;stroke-linejoin:miter;stroke-opacity:1" d="M 266.253,526.605 247.249,526.605 z" id="boundary" inkscape:connector-curvature="0" />
	<path style="fill:none;stroke:red;stroke-width:1px;stroke-linecap:butt;stroke-linejoin:miter;stroke-opacity:1" d="M 308.061,368.874 317.563,385.977 z" id="boundary" inkscape:connector-curvature="0" />
	<path style="fill:none;stroke:red;stroke-width:1px;stroke-linecap:butt;stroke-linejoin:miter;stroke-opacity:1" d="M 317.563,385.977 317.563,404.981 z" id="boundary" inkscape:connector-curvature="0" />
	<path style="fill:none;stroke:red;stroke-width:1px;stroke-linecap:butt;stroke-linejoin:miter;stroke-opacity:1" d="M 323.264,423.985 317.563,404.981 z" id="boundary" inkscape:connector-curvature="0" />
	<path style="fill:none;stroke:red;stroke-width:1px;stroke-linecap:butt;stroke-linejoin:miter;stroke-opacity:1" d="M 338.467,437.287 323.264,423.985 z" id="boundary" inkscape:connector-curvature="0" />
	<path style="fill:none;stroke:red;stroke-width:1px;stroke-linecap:butt;stroke-linejoin:miter;stroke-opacity:1" d="M 330.866,480.996 311.862,490.498 z" id="boundary" inkscape:connector-curvature="0" />
	<path style="fill:none;stroke:red;stroke-width:1px;stroke-linecap:butt;stroke-linejoin:miter;stroke-opacity:1" d="M 317.563,346.069 336.567,346.069 z" id="boundary" inkscape:connector-curvature="0" />
	<path style="fill:none;stroke:red;stroke-width:1px;stroke-linecap:butt;stroke-linejoin:miter;stroke-opacity:1" d="M 127.525,589.318 142.728,574.115 z" id="boundary" inkscape:connector-curvature="0" />
	<path style="fill:none;stroke:red;stroke-width:1px;stroke-linecap:butt;stroke-linejoin:miter;stroke-opacity:1" d="M 118.023,617.824 127.525,589.318 z" id="boundary" inkscape:connector-curvature="0" />
	<path style="fill:none;stroke:red;stroke-width:1px;stroke-linecap:butt;stroke-linejoin:miter;stroke-opacity:1" d="M 118.023,617.824 108.521,636.828 z" id="boundary" inkscape:connector-curvature="0" />
	<path style="fill:none;stroke:red;stroke-width:1px;stroke-linecap:butt;stroke-linejoin:miter;stroke-opacity:1" d="M 95.2184,659.632 108.521,636.828 z" id="boundary" inkscape:connector-curvature="0" />
	<path style="fill:none;stroke:red;stroke-width:1px;stroke-linecap:butt;stroke-linejoin:miter;stroke-opacity:1" d="M 95.2184,659.632 80.0153,674.835 z" id="boundary" inkscape:connector-curvature="0" />
	<path style="fill:none;stroke:red;stroke-width:1px;stroke-linecap:butt;stroke-linejoin:miter;stroke-opacity:1" d="M 247.249,526.605 228.245,536.107 z" id="boundary" inkscape:connector-curvature="0" />
	<path style="fill:none;stroke:red;stroke-width:1px;stroke-linecap:butt;stroke-linejoin:miter;stroke-opacity:1" d="M 228.245,536.107 209.241,536.107 z" id="boundary" inkscape:connector-curvature="0" />
	<path style="fill:none;stroke:red;stroke-width:1px;stroke-linecap:butt;stroke-linejoin:miter;stroke-opacity:1" d="M 192.138,545.609 209.241,536.107 z" id="boundary" inkscape:connector-curvature="0" />
	<path style="fill:none;stroke:red;stroke-width:1px;stroke-linecap:butt;stroke-linejoin:miter;stroke-opacity:1" d="M 157.931,558.912 173.134,545.609 z" id="boundary" inkscape:connector-curvature="0" />
	<path style="fill:none;stroke:red;stroke-width:1px;stroke-linecap:butt;stroke-linejoin:miter;stroke-opacity:1" d="M 173.134,545.609 192.138,545.609 z" id="boundary" inkscape:connector-curvature="0" />
	<path style="fill:none;stroke:red;stroke-width:1px;stroke-linecap:butt;stroke-linejoin:miter;stroke-opacity:1" d="M 142.728,574.115 157.931,558.912 z" id="boundary" inkscape:connector-curvature="0" />
	<path style="fill:none;stroke:red;stroke-width:1px;stroke-linecap:butt;stroke-linejoin:miter;stroke-opacity:1" d="M 355.571,349.87 372.674,359.372 z" id="boundary" inkscape:connector-curvature="0" />
	<path style="fill:none;stroke:red;stroke-width:1px;stroke-linecap:butt;stroke-linejoin:miter;stroke-opacity:1" d="M 460.092,355.571 441.088,361.272 z" id="boundary" inkscape:connector-curvature="0" />
	<path style="fill:none;stroke:red;stroke-width:1px;stroke-linecap:butt;stroke-linejoin:miter;stroke-opacity:1" d="M 422.084,370.774 441.088,361.272 z" id="boundary" inkscape:connector-curvature="0" />
	<path style="fill:none;stroke:red;stroke-width:1px;stroke-linecap:butt;stroke-linejoin:miter;stroke-opacity:1" d="M 355.571,349.87 336.567,346.069 z" id="boundary" inkscape:connector-curvature="0" />
	<path style="fill:none;stroke:red;stroke-width:1px;stroke-linecap:butt;stroke-linejoin:miter;stroke-opacity:1" d="M 372.674,359.372 385.977,374.575 z" id="boundary" inkscape:connector-curvature="0" />
	<path style="fill:none;stroke:red;stroke-width:1px;stroke-linecap:butt;stroke-linejoin:miter;stroke-opacity:1" d="M 500,311.862 517.103,294.759 z" id="boundary" inkscape:connector-curvature="0" />
	<path style="fill:none;stroke:red;stroke-width:1px;stroke-linecap:butt;stroke-linejoin:miter;stroke-opacity:1" d="M 526.605,275.755 517.103,294.759 z" id="boundary" inkscape:connector-curvature="0" />
	<path style="fill:none;stroke:red;stroke-width:1px;stroke-linecap:butt;stroke-linejoin:miter;stroke-opacity:1" d="M 477.195,346.069 484.797,327.065 z" id="boundary" inkscape:connector-curvature="0" />
	<path style="fill:none;stroke:red;stroke-width:1px;stroke-linecap:butt;stroke-linejoin:miter;stroke-opacity:1" d="M 484.797,327.065 500,311.862 z" id="boundary" inkscape:connector-curvature="0" />
	<path style="fill:none;stroke:red;stroke-width:1px;stroke-linecap:butt;stroke-linejoin:miter;stroke-opacity:1" d="M 477.195,346.069 460.092,355.571 z" id="boundary" inkscape:connector-curvature="0" />
	<path style="fill:none;stroke:red;stroke-width:1px;stroke-linecap:butt;stroke-linejoin:miter;stroke-opacity:1" d="M 536.107,256.751 526.605,275.755 z" id="boundary" inkscape:connector-curvature="0" />
	<path style="fill:none;stroke:red;stroke-width:1px;stroke-linecap:butt;stroke-linejoin:miter;stroke-opacity:1" d="M 422.084,370.774 404.981,380.276 z" id="boundary" inkscape:connector-curvature="0" />
	<path style="fill:none;stroke:red;stroke-width:1px;stroke-linecap:butt;stroke-linejoin:miter;stroke-opacity:1" d="M 404.981,380.276 385.977,374.575 z" id="boundary" inkscape:connector-curvature="0" />
	<path style="fill:none;stroke:red;stroke-width:1px;stroke-linecap:butt;stroke-linejoin:miter;stroke-opacity:1" d="M 346.069,456.291 338.467,437.287 z" id="boundary" inkscape:connector-curvature="0" />
	<path style="fill:none;stroke:red;stroke-width:1px;stroke-linecap:butt;stroke-linejoin:miter;stroke-opacity:1" d="M 346.069,456.291 330.866,480.996 z" id="boundary" inkscape:connector-curvature="0" />
	<path style="fill:none;stroke:red;stroke-width:1px;stroke-linecap:butt;stroke-linejoin:miter;stroke-opacity:1" d="M 484.797,623.525 503.801,623.525 z" id="boundary" inkscape:connector-curvature="0" />
	<path style="fill:none;stroke:red;stroke-width:1px;stroke-linecap:butt;stroke-linejoin:miter;stroke-opacity:1" d="M 475.295,640.628 484.797,623.525 z" id="boundary" inkscape:connector-curvature="0" />
	<path style="fill:none;stroke:red;stroke-width:1px;stroke-linecap:butt;stroke-linejoin:miter;stroke-opacity:1" d="M 458.192,652.031 439.188,657.732 z" id="boundary" inkscape:connector-curvature="0" />
	<path style="fill:none;stroke:red;stroke-width:1px;stroke-linecap:butt;stroke-linejoin:miter;stroke-opacity:1" d="M 475.295,640.628 458.192,652.031 z" id="boundary" inkscape:connector-curvature="0" />
	<path style="fill:none;stroke:red;stroke-width:1px;stroke-linecap:butt;stroke-linejoin:miter;stroke-opacity:1" d="M 423.985,671.034 439.188,657.732 z" id="boundary" inkscape:connector-curvature="0" />
	<path style="fill:none;stroke:red;stroke-width:1px;stroke-linecap:butt;stroke-linejoin:miter;stroke-opacity:1" d="M 522.805,623.525 503.801,623.525 z" id="boundary" inkscape:connector-curvature="0" />
	<path style="fill:none;stroke:red;stroke-width:1px;stroke-linecap:butt;stroke-linejoin:miter;stroke-opacity:1" d="M 536.107,256.751 551.31,241.548 z" id="boundary" inkscape:connector-curvature="0" />
	<path style="fill:none;stroke:red;stroke-width:1px;stroke-linecap:butt;stroke-linejoin:miter;stroke-opacity:1" d="M 298.559,351.77 589.318,156.031 z" id="boundary" inkscape:connector-curvature="0" />
	<path style="fill:none;stroke:red;stroke-width:1px;stroke-linecap:butt;stroke-linejoin:miter;stroke-opacity:1" d="M 23.0038,798.36 23.0038,817.364 z" id="boundary" inkscape:connector-curvature="0" />
	<path style="fill:none;stroke:red;stroke-width:1px;stroke-linecap:butt;stroke-linejoin:miter;stroke-opacity:1" d="M 23.0038,817.364 13.5019,836.368 z" id="boundary" inkscape:connector-curvature="0" />
	<path style="fill:none;stroke:red;stroke-width:1px;stroke-linecap:butt;stroke-linejoin:miter;stroke-opacity:1" d="M 13.5019,836.368 13.5019,855.372 z" id="boundary" inkscape:connector-curvature="0" />
	<path style="fill:none;stroke:red;stroke-width:1px;stroke-linecap:butt;stroke-linejoin:miter;stroke-opacity:1" d="M 13.5019,855.372 4,874.375 z" id="boundary" inkscape:connector-curvature="0" />
	<path style="fill:none;stroke:red;stroke-width:1px;stroke-linecap:butt;stroke-linejoin:miter;stroke-opacity:1" d="M 13.5019,891.479 4,874.375 z" id="boundary" inkscape:connector-curvature="0" />
	<path style="fill:none;stroke:red;stroke-width:1px;stroke-linecap:butt;stroke-linejoin:miter;stroke-opacity:1" d="M 70.5134,693.839 80.0153,674.835 z" id="boundary" inkscape:connector-curvature="0" />
	<path style="fill:none;stroke:red;stroke-width:1px;stroke-linecap:butt;stroke-linejoin:miter;stroke-opacity:1" d="M 70.5134,712.843 70.5134,693.839 z" id="boundary" inkscape:connector-curvature="0" />
	<path style="fill:none;stroke:red;stroke-width:1px;stroke-linecap:butt;stroke-linejoin:miter;stroke-opacity:1" d="M 70.5134,712.843 51.5096,722.345 z" id="boundary" inkscape:connector-curvature="0" />
	<path style="fill:none;stroke:red;stroke-width:1px;stroke-linecap:butt;stroke-linejoin:miter;stroke-opacity:1" d="M 42.0077,741.349 51.5096,722.345 z" id="boundary" inkscape:connector-curvature="0" />
	<path style="fill:none;stroke:red;stroke-width:1px;stroke-linecap:butt;stroke-linejoin:miter;stroke-opacity:1" d="M 32.5057,769.854 42.0077,741.349 z" id="boundary" inkscape:connector-curvature="0" />
	<path style="fill:none;stroke:red;stroke-width:1px;stroke-linecap:butt;stroke-linejoin:miter;stroke-opacity:1" d="M 23.0038,798.36 32.5057,769.854 z" id="boundary" inkscape:connector-curvature="0" />
	<path style="fill:none;stroke:red;stroke-width:1px;stroke-linecap:butt;stroke-linejoin:miter;stroke-opacity:1" d="M 4,921.885 13.5019,891.479 z" id="boundary" inkscape:connector-curvature="0" />
	<path style="fill:none;stroke:red;stroke-width:1px;stroke-linecap:butt;stroke-linejoin:miter;stroke-opacity:1" d="M 4,940.889 23.0038,940.889 z" id="boundary" inkscape:connector-curvature="0" />
	<path style="fill:none;stroke:red;stroke-width:1px;stroke-linecap:butt;stroke-linejoin:miter;stroke-opacity:1" d="M 23.0038,940.889 23.0038,969.395 z" id="boundary" inkscape:connector-curvature="0" />
	<path style="fill:none;stroke:red;stroke-width:1px;stroke-linecap:butt;stroke-linejoin:miter;stroke-opacity:1" d="M 4,940.889 4,921.885 z" id="boundary" inkscape:connector-curvature="0" />
	<path style="fill:none;stroke:red;stroke-width:1px;stroke-linecap:butt;stroke-linejoin:miter;stroke-opacity:1" d="M 43.908,965.594 23.0038,969.395 z" id="boundary" inkscape:connector-curvature="0" />
	<path style="fill:none;stroke:red;stroke-width:1px;stroke-linecap:butt;stroke-linejoin:miter;stroke-opacity:1" d="M 53.41,937.088 23.0038,940.889 z" id="boundary" inkscape:connector-curvature="0" />
	<path style="fill:none;stroke:red;stroke-width:1px;stroke-linecap:butt;stroke-linejoin:miter;stroke-opacity:1" d="M 53.41,937.088 72.4138,937.088 z" id="boundary" inkscape:connector-curvature="0" />
	<path style="fill:none;stroke:red;stroke-width:1px;stroke-linecap:butt;stroke-linejoin:miter;stroke-opacity:1" d="M 72.4138,937.088 80.0153,956.092 z" id="boundary" inkscape:connector-curvature="0" />
	<path style="fill:none;stroke:red;stroke-width:1px;stroke-linecap:butt;stroke-linejoin:miter;stroke-opacity:1" d="M 99.0192,950.391 80.0153,956.092 z" id="boundary" inkscape:connector-curvature="0" />
	<path style="fill:none;stroke:red;stroke-width:1px;stroke-linecap:butt;stroke-linejoin:miter;stroke-opacity:1" d="M 43.908,965.594 53.41,937.088 z" id="boundary" inkscape:connector-curvature="0" />
	<path style="fill:none;stroke:red;stroke-width:1px;stroke-linecap:butt;stroke-linejoin:miter;stroke-opacity:1" d="M 85.7165,975.096 34.4061,984.598 z" id="boundary" inkscape:connector-curvature="0" />
	<path style="fill:none;stroke:red;stroke-width:1px;stroke-linecap:butt;stroke-linejoin:miter;stroke-opacity:1" d="M 34.4061,984.598 23.0038,969.395 z" id="boundary" inkscape:connector-curvature="0" />
	<path style="fill:none;stroke:red;stroke-width:1px;stroke-linecap:butt;stroke-linejoin:miter;stroke-opacity:1" d="M 80.0153,956.092 85.7165,975.096 z" id="boundary" inkscape:connector-curvature="0" />
	<path style="fill:none;stroke:red;stroke-width:1px;stroke-linecap:butt;stroke-linejoin:miter;stroke-opacity:1" d="M 290.958,756.552 309.962,747.05 z" id="boundary" inkscape:connector-curvature="0" />
	<path style="fill:none;stroke:red;stroke-width:1px;stroke-linecap:butt;stroke-linejoin:miter;stroke-opacity:1" d="M 252.95,775.556 271.954,766.054 z" id="boundary" inkscape:connector-curvature="0" />
	<path style="fill:none;stroke:red;stroke-width:1px;stroke-linecap:butt;stroke-linejoin:miter;stroke-opacity:1" d="M 252.95,775.556 233.946,785.057 z" id="boundary" inkscape:connector-curvature="0" />
	<path style="fill:none;stroke:red;stroke-width:1px;stroke-linecap:butt;stroke-linejoin:miter;stroke-opacity:1" d="M 271.954,766.054 290.958,756.552 z" id="boundary" inkscape:connector-curvature="0" />
	<path style="fill:none;stroke:red;stroke-width:1px;stroke-linecap:butt;stroke-linejoin:miter;stroke-opacity:1" d="M 423.985,671.034 410.682,686.238 z" id="boundary" inkscape:connector-curvature="0" />
	<path style="fill:none;stroke:red;stroke-width:1px;stroke-linecap:butt;stroke-linejoin:miter;stroke-opacity:1" d="M 410.682,686.238 395.479,699.54 z" id="boundary" inkscape:connector-curvature="0" />
	<path style="fill:none;stroke:red;stroke-width:1px;stroke-linecap:butt;stroke-linejoin:miter;stroke-opacity:1" d="M 395.479,699.54 376.475,699.54 z" id="boundary" inkscape:connector-curvature="0" />
	<path style="fill:none;stroke:red;stroke-width:1px;stroke-linecap:butt;stroke-linejoin:miter;stroke-opacity:1" d="M 376.475,699.54 366.973,718.544 z" id="boundary" inkscape:connector-curvature="0" />
	<path style="fill:none;stroke:red;stroke-width:1px;stroke-linecap:butt;stroke-linejoin:miter;stroke-opacity:1" d="M 366.973,718.544 347.969,728.046 z" id="boundary" inkscape:connector-curvature="0" />
	<path style="fill:none;stroke:red;stroke-width:1px;stroke-linecap:butt;stroke-linejoin:miter;stroke-opacity:1" d="M 328.966,737.548 347.969,728.046 z" id="boundary" inkscape:connector-curvature="0" />
	<path style="fill:none;stroke:red;stroke-width:1px;stroke-linecap:butt;stroke-linejoin:miter;stroke-opacity:1" d="M 309.962,747.05 328.966,737.548 z" id="boundary" inkscape:connector-curvature="0" />
	<path style="fill:none;stroke:red;stroke-width:1px;stroke-linecap:butt;stroke-linejoin:miter;stroke-opacity:1" d="M 129.425,889.579 138.927,870.575 z" id="boundary" inkscape:connector-curvature="0" />
	<path style="fill:none;stroke:red;stroke-width:1px;stroke-linecap:butt;stroke-linejoin:miter;stroke-opacity:1" d="M 138.927,870.575 154.13,857.272 z" id="boundary" inkscape:connector-curvature="0" />
	<path style="fill:none;stroke:red;stroke-width:1px;stroke-linecap:butt;stroke-linejoin:miter;stroke-opacity:1" d="M 129.425,889.579 116.123,904.782 z" id="boundary" inkscape:connector-curvature="0" />
	<path style="fill:none;stroke:red;stroke-width:1px;stroke-linecap:butt;stroke-linejoin:miter;stroke-opacity:1" d="M 99.0192,950.391 100.92,918.084 z" id="boundary" inkscape:connector-curvature="0" />
	<path style="fill:none;stroke:red;stroke-width:1px;stroke-linecap:butt;stroke-linejoin:miter;stroke-opacity:1" d="M 100.92,918.084 116.123,904.782 z" id="boundary" inkscape:connector-curvature="0" />
	<path style="fill:none;stroke:red;stroke-width:1px;stroke-linecap:butt;stroke-linejoin:miter;stroke-opacity:1" d="M 220.644,800.261 205.441,813.563 z" id="boundary" inkscape:connector-curvature="0" />
	<path style="fill:none;stroke:red;stroke-width:1px;stroke-linecap:butt;stroke-linejoin:miter;stroke-opacity:1" d="M 220.644,800.261 233.946,785.057 z" id="boundary" inkscape:connector-curvature="0" />
	<path style="fill:none;stroke:red;stroke-width:1px;stroke-linecap:butt;stroke-linejoin:miter;stroke-opacity:1" d="M 154.13,857.272 167.433,842.069 z" id="boundary" inkscape:connector-curvature="0" />
	<path style="fill:none;stroke:red;stroke-width:1px;stroke-linecap:butt;stroke-linejoin:miter;stroke-opacity:1" d="M 167.433,842.069 186.437,832.567 z" id="boundary" inkscape:connector-curvature="0" />
	<path style="fill:none;stroke:red;stroke-width:1px;stroke-linecap:butt;stroke-linejoin:miter;stroke-opacity:1" d="M 205.441,813.563 186.437,832.567 z" id="boundary" inkscape:connector-curvature="0" />
	<path style="fill:none;stroke:red;stroke-width:1px;stroke-linecap:butt;stroke-linejoin:miter;stroke-opacity:1" d="M 522.805,623.525 536.107,638.728 z" id="boundary" inkscape:connector-curvature="0" />
	<path style="fill:none;stroke:red;stroke-width:1px;stroke-linecap:butt;stroke-linejoin:miter;stroke-opacity:1" d="M 748.95,70.5134 758.452,53.41 z" id="boundary" inkscape:connector-curvature="0" />
	<path style="fill:none;stroke:red;stroke-width:1px;stroke-linecap:butt;stroke-linejoin:miter;stroke-opacity:1" d="M 758.452,53.41 777.456,51.5096 z" id="boundary" inkscape:connector-curvature="0" />
	<path style="fill:none;stroke:red;stroke-width:1px;stroke-linecap:butt;stroke-linejoin:miter;stroke-opacity:1" d="M 748.95,70.5134 731.847,80.0153 z" id="boundary" inkscape:connector-curvature="0" />
	<path style="fill:none;stroke:red;stroke-width:1px;stroke-linecap:butt;stroke-linejoin:miter;stroke-opacity:1" d="M 693.839,89.5172 712.843,80.0153 z" id="boundary" inkscape:connector-curvature="0" />
	<path style="fill:none;stroke:red;stroke-width:1px;stroke-linecap:butt;stroke-linejoin:miter;stroke-opacity:1" d="M 712.843,80.0153 731.847,80.0153 z" id="boundary" inkscape:connector-curvature="0" />
	<path style="fill:none;stroke:red;stroke-width:1px;stroke-linecap:butt;stroke-linejoin:miter;stroke-opacity:1" d="M 693.839,89.5172 676.736,99.0192 z" id="boundary" inkscape:connector-curvature="0" />
	<path style="fill:none;stroke:red;stroke-width:1px;stroke-linecap:butt;stroke-linejoin:miter;stroke-opacity:1" d="M 832.567,32.5057 849.67,23.0038 z" id="boundary" inkscape:connector-curvature="0" />
	<path style="fill:none;stroke:red;stroke-width:1px;stroke-linecap:butt;stroke-linejoin:miter;stroke-opacity:1" d="M 832.567,32.5057 813.563,36.3065 z" id="boundary" inkscape:connector-curvature="0" />
	<path style="fill:none;stroke:red;stroke-width:1px;stroke-linecap:butt;stroke-linejoin:miter;stroke-opacity:1" d="M 868.674,19.2031 849.67,23.0038 z" id="boundary" inkscape:connector-curvature="0" />
	<path style="fill:none;stroke:red;stroke-width:1px;stroke-linecap:butt;stroke-linejoin:miter;stroke-opacity:1" d="M 777.456,51.5096 794.559,42.0077 z" id="boundary" inkscape:connector-curvature="0" />
	<path style="fill:none;stroke:red;stroke-width:1px;stroke-linecap:butt;stroke-linejoin:miter;stroke-opacity:1" d="M 813.563,36.3065 794.559,42.0077 z" id="boundary" inkscape:connector-curvature="0" />
	<path style="fill:none;stroke:red;stroke-width:1px;stroke-linecap:butt;stroke-linejoin:miter;stroke-opacity:1" d="M 604.521,140.828 623.525,131.326 z" id="boundary" inkscape:connector-curvature="0" />
	<path style="fill:none;stroke:red;stroke-width:1px;stroke-linecap:butt;stroke-linejoin:miter;stroke-opacity:1" d="M 589.318,156.031 579.816,175.034 z" id="boundary" inkscape:connector-curvature="0" />
	<path style="fill:none;stroke:red;stroke-width:1px;stroke-linecap:butt;stroke-linejoin:miter;stroke-opacity:1" d="M 579.816,175.034 564.613,190.238 z" id="boundary" inkscape:connector-curvature="0" />
	<path style="fill:none;stroke:red;stroke-width:1px;stroke-linecap:butt;stroke-linejoin:miter;stroke-opacity:1" d="M 589.318,156.031 604.521,140.828 z" id="boundary" inkscape:connector-curvature="0" />
	<path style="fill:none;stroke:red;stroke-width:1px;stroke-linecap:butt;stroke-linejoin:miter;stroke-opacity:1" d="M 560.812,222.544 564.613,190.238 z" id="boundary" inkscape:connector-curvature="0" />
	<path style="fill:none;stroke:red;stroke-width:1px;stroke-linecap:butt;stroke-linejoin:miter;stroke-opacity:1" d="M 676.736,99.0192 661.533,112.322 z" id="boundary" inkscape:connector-curvature="0" />
	<path style="fill:none;stroke:red;stroke-width:1px;stroke-linecap:butt;stroke-linejoin:miter;stroke-opacity:1" d="M 661.533,112.322 642.529,121.824 z" id="boundary" inkscape:connector-curvature="0" />
	<path style="fill:none;stroke:red;stroke-width:1px;stroke-linecap:butt;stroke-linejoin:miter;stroke-opacity:1" d="M 642.529,121.824 623.525,131.326 z" id="boundary" inkscape:connector-curvature="0" />
	<path style="fill:none;stroke:red;stroke-width:1px;stroke-linecap:butt;stroke-linejoin:miter;stroke-opacity:1" d="M 851.571,195.939 866.774,182.636 z" id="boundary" inkscape:connector-curvature="0" />
	<path style="fill:none;stroke:red;stroke-width:1px;stroke-linecap:butt;stroke-linejoin:miter;stroke-opacity:1" d="M 866.774,182.636 885.778,176.935 z" id="boundary" inkscape:connector-curvature="0" />
	<path style="fill:none;stroke:red;stroke-width:1px;stroke-linecap:butt;stroke-linejoin:miter;stroke-opacity:1" d="M 838.268,220.644 851.571,195.939 z" id="boundary" inkscape:connector-curvature="0" />
	<path style="fill:none;stroke:red;stroke-width:1px;stroke-linecap:butt;stroke-linejoin:miter;stroke-opacity:1" d="M 899.08,148.429 885.778,176.935 z" id="boundary" inkscape:connector-curvature="0" />
	<path style="fill:none;stroke:red;stroke-width:1px;stroke-linecap:butt;stroke-linejoin:miter;stroke-opacity:1" d="M 887.678,13.5019 904.782,4 z" id="boundary" inkscape:connector-curvature="0" />
	<path style="fill:none;stroke:red;stroke-width:1px;stroke-linecap:butt;stroke-linejoin:miter;stroke-opacity:1" d="M 887.678,13.5019 868.674,19.2031 z" id="boundary" inkscape:connector-curvature="0" />
	<path style="fill:none;stroke:red;stroke-width:1px;stroke-linecap:butt;stroke-linejoin:miter;stroke-opacity:1" d="M 889.579,32.5057 908.582,32.5057 z" id="boundary" inkscape:connector-curvature="0" />
	<path style="fill:none;stroke:red;stroke-width:1px;stroke-linecap:butt;stroke-linejoin:miter;stroke-opacity:1" d="M 889.579,32.5057 887.678,13.5019 z" id="boundary" inkscape:connector-curvature="0" />
	<path style="fill:none;stroke:red;stroke-width:1px;stroke-linecap:butt;stroke-linejoin:miter;stroke-opacity:1" d="M 927.586,32.5057 908.582,32.5057 z" id="boundary" inkscape:connector-curvature="0" />
	<path style="fill:none;stroke:red;stroke-width:1px;stroke-linecap:butt;stroke-linejoin:miter;stroke-opacity:1" d="M 904.782,4 927.586,32.5057 z" id="boundary" inkscape:connector-curvature="0" />
	<path style="fill:none;stroke:red;stroke-width:1px;stroke-linecap:butt;stroke-linejoin:miter;stroke-opacity:1" d="M 927.586,32.5057 927.586,51.5096 z" id="boundary" inkscape:connector-curvature="0" />
	<path style="fill:none;stroke:red;stroke-width:1px;stroke-linecap:butt;stroke-linejoin:miter;stroke-opacity:1" d="M 944.69,23.0038 927.586,32.5057 z" id="boundary" inkscape:connector-curvature="0" />
	<path style="fill:none;stroke:red;stroke-width:1px;stroke-linecap:butt;stroke-linejoin:miter;stroke-opacity:1" d="M 944.69,23.0038 963.693,23.0038 z" id="boundary" inkscape:connector-curvature="0" />
	<path style="fill:none;stroke:red;stroke-width:1px;stroke-linecap:butt;stroke-linejoin:miter;stroke-opacity:1" d="M 982.697,23.0038 963.693,23.0038 z" id="boundary" inkscape:connector-curvature="0" />
	<path style="fill:none;stroke:red;stroke-width:1px;stroke-linecap:butt;stroke-linejoin:miter;stroke-opacity:1" d="M 982.697,23.0038 965.594,43.908 z" id="boundary" inkscape:connector-curvature="0" />
	<path style="fill:none;stroke:red;stroke-width:1px;stroke-linecap:butt;stroke-linejoin:miter;stroke-opacity:1" d="M 927.586,51.5096 946.59,43.908 z" id="boundary" inkscape:connector-curvature="0" />
	<path style="fill:none;stroke:red;stroke-width:1px;stroke-linecap:butt;stroke-linejoin:miter;stroke-opacity:1" d="M 965.594,43.908 946.59,43.908 z" id="boundary" inkscape:connector-curvature="0" />
	<path style="fill:none;stroke:red;stroke-width:1px;stroke-linecap:butt;stroke-linejoin:miter;stroke-opacity:1" d="M 982.697,23.0038 996,70.5134 z" id="boundary" inkscape:connector-curvature="0" />
	<path style="fill:none;stroke:red;stroke-width:1px;stroke-linecap:butt;stroke-linejoin:miter;stroke-opacity:1" d="M 927.586,51.5096 927.586,70.5134 z" id="boundary" inkscape:connector-curvature="0" />
	<path style="fill:none;stroke:red;stroke-width:1px;stroke-linecap:butt;stroke-linejoin:miter;stroke-opacity:1" d="M 927.586,70.5134 956.092,91.4176 z" id="boundary" inkscape:connector-curvature="0" />
	<path style="fill:none;stroke:red;stroke-width:1px;stroke-linecap:butt;stroke-linejoin:miter;stroke-opacity:1" d="M 946.59,70.5134 927.586,70.5134 z" id="boundary" inkscape:connector-curvature="0" />
	<path style="fill:none;stroke:red;stroke-width:1px;stroke-linecap:butt;stroke-linejoin:miter;stroke-opacity:1" d="M 918.084,138.927 899.08,148.429 z" id="boundary" inkscape:connector-curvature="0" />
	<path style="fill:none;stroke:red;stroke-width:1px;stroke-linecap:butt;stroke-linejoin:miter;stroke-opacity:1" d="M 933.287,125.625 918.084,138.927 z" id="boundary" inkscape:connector-curvature="0" />
	<path style="fill:none;stroke:red;stroke-width:1px;stroke-linecap:butt;stroke-linejoin:miter;stroke-opacity:1" d="M 933.287,125.625 952.291,119.923 z" id="boundary" inkscape:connector-curvature="0" />
	<path style="fill:none;stroke:red;stroke-width:1px;stroke-linecap:butt;stroke-linejoin:miter;stroke-opacity:1" d="M 946.59,70.5134 956.092,91.4176 z" id="boundary" inkscape:connector-curvature="0" />
	<path style="fill:none;stroke:red;stroke-width:1px;stroke-linecap:butt;stroke-linejoin:miter;stroke-opacity:1" d="M 996,70.5134 980.797,81.9157 z" id="boundary" inkscape:connector-curvature="0" />
	<path style="fill:none;stroke:red;stroke-width:1px;stroke-linecap:butt;stroke-linejoin:miter;stroke-opacity:1" d="M 980.797,81.9157 965.594,70.5134 z" id="boundary" inkscape:connector-curvature="0" />
	<path style="fill:none;stroke:red;stroke-width:1px;stroke-linecap:butt;stroke-linejoin:miter;stroke-opacity:1" d="M 996,70.5134 971.295,102.82 z" id="boundary" inkscape:connector-curvature="0" />
	<path style="fill:none;stroke:red;stroke-width:1px;stroke-linecap:butt;stroke-linejoin:miter;stroke-opacity:1" d="M 956.092,91.4176 971.295,102.82 z" id="boundary" inkscape:connector-curvature="0" />
	<path style="fill:none;stroke:red;stroke-width:1px;stroke-linecap:butt;stroke-linejoin:miter;stroke-opacity:1" d="M 971.295,102.82 952.291,119.923 z" id="boundary" inkscape:connector-curvature="0" />
	<path style="fill:none;stroke:red;stroke-width:1px;stroke-linecap:butt;stroke-linejoin:miter;stroke-opacity:1" d="M 946.59,70.5134 965.594,70.5134 z" id="boundary" inkscape:connector-curvature="0" />
	<path style="fill:none;stroke:red;stroke-width:1px;stroke-linecap:butt;stroke-linejoin:miter;stroke-opacity:1" d="M 560.812,222.544 551.31,241.548 z" id="boundary" inkscape:connector-curvature="0" />
	<path style="fill:none;stroke:red;stroke-width:1px;stroke-linecap:butt;stroke-linejoin:miter;stroke-opacity:1" d="M 576.015,547.51 595.019,528.506 z" id="boundary" inkscape:connector-curvature="0" />
	<path style="fill:none;stroke:red;stroke-width:1px;stroke-linecap:butt;stroke-linejoin:miter;stroke-opacity:1" d="M 585.517,564.613 576.015,547.51 z" id="boundary" inkscape:connector-curvature="0" />
	<path style="fill:none;stroke:red;stroke-width:1px;stroke-linecap:butt;stroke-linejoin:miter;stroke-opacity:1" d="M 604.521,509.502 595.019,528.506 z" id="boundary" inkscape:connector-curvature="0" />
	<path style="fill:none;stroke:red;stroke-width:1px;stroke-linecap:butt;stroke-linejoin:miter;stroke-opacity:1" d="M 600.72,576.015 585.517,564.613 z" id="boundary" inkscape:connector-curvature="0" />
	<path style="fill:none;stroke:red;stroke-width:1px;stroke-linecap:butt;stroke-linejoin:miter;stroke-opacity:1" d="M 633.027,490.498 623.525,509.502 z" id="boundary" inkscape:connector-curvature="0" />
	<path style="fill:none;stroke:red;stroke-width:1px;stroke-linecap:butt;stroke-linejoin:miter;stroke-opacity:1" d="M 623.525,509.502 604.521,509.502 z" id="boundary" inkscape:connector-curvature="0" />
	<path style="fill:none;stroke:red;stroke-width:1px;stroke-linecap:butt;stroke-linejoin:miter;stroke-opacity:1" d="M 600.72,576.015 617.824,585.517 z" id="boundary" inkscape:connector-curvature="0" />
	<path style="fill:none;stroke:red;stroke-width:1px;stroke-linecap:butt;stroke-linejoin:miter;stroke-opacity:1" d="M 633.027,598.82 617.824,585.517 z" id="boundary" inkscape:connector-curvature="0" />
	<path style="fill:none;stroke:red;stroke-width:1px;stroke-linecap:butt;stroke-linejoin:miter;stroke-opacity:1" d="M 633.027,598.82 640.628,617.824 z" id="boundary" inkscape:connector-curvature="0" />
	<path style="fill:none;stroke:red;stroke-width:1px;stroke-linecap:butt;stroke-linejoin:miter;stroke-opacity:1" d="M 536.107,638.728 545.609,655.831 z" id="boundary" inkscape:connector-curvature="0" />
	<path style="fill:none;stroke:red;stroke-width:1px;stroke-linecap:butt;stroke-linejoin:miter;stroke-opacity:1" d="M 555.111,672.935 545.609,655.831 z" id="boundary" inkscape:connector-curvature="0" />
	<path style="fill:none;stroke:red;stroke-width:1px;stroke-linecap:butt;stroke-linejoin:miter;stroke-opacity:1" d="M 555.111,672.935 568.414,688.138 z" id="boundary" inkscape:connector-curvature="0" />
	<path style="fill:none;stroke:red;stroke-width:1px;stroke-linecap:butt;stroke-linejoin:miter;stroke-opacity:1" d="M 568.414,688.138 574.115,707.142 z" id="boundary" inkscape:connector-curvature="0" />
	<path style="fill:none;stroke:red;stroke-width:1px;stroke-linecap:butt;stroke-linejoin:miter;stroke-opacity:1" d="M 585.517,722.345 574.115,707.142 z" id="boundary" inkscape:connector-curvature="0" />
	<path style="fill:none;stroke:red;stroke-width:1px;stroke-linecap:butt;stroke-linejoin:miter;stroke-opacity:1" d="M 640.628,617.824 650.13,634.927 z" id="boundary" inkscape:connector-curvature="0" />
	<path style="fill:none;stroke:red;stroke-width:1px;stroke-linecap:butt;stroke-linejoin:miter;stroke-opacity:1" d="M 634.927,747.05 615.923,747.05 z" id="boundary" inkscape:connector-curvature="0" />
	<path style="fill:none;stroke:red;stroke-width:1px;stroke-linecap:butt;stroke-linejoin:miter;stroke-opacity:1" d="M 615.923,747.05 598.82,737.548 z" id="boundary" inkscape:connector-curvature="0" />
	<path style="fill:none;stroke:red;stroke-width:1px;stroke-linecap:butt;stroke-linejoin:miter;stroke-opacity:1" d="M 598.82,737.548 585.517,722.345 z" id="boundary" inkscape:connector-curvature="0" />
	<path style="fill:none;stroke:red;stroke-width:1px;stroke-linecap:butt;stroke-linejoin:miter;stroke-opacity:1" d="M 650.13,634.927 661.533,650.13 z" id="boundary" inkscape:connector-curvature="0" />
	<path style="fill:none;stroke:red;stroke-width:1px;stroke-linecap:butt;stroke-linejoin:miter;stroke-opacity:1" d="M 633.027,490.498 652.031,480.996 z" id="boundary" inkscape:connector-curvature="0" />
	<path style="fill:none;stroke:red;stroke-width:1px;stroke-linecap:butt;stroke-linejoin:miter;stroke-opacity:1" d="M 747.05,338.467 762.253,325.165 z" id="boundary" inkscape:connector-curvature="0" />
	<path style="fill:none;stroke:red;stroke-width:1px;stroke-linecap:butt;stroke-linejoin:miter;stroke-opacity:1" d="M 737.548,357.471 747.05,338.467 z" id="boundary" inkscape:connector-curvature="0" />
	<path style="fill:none;stroke:red;stroke-width:1px;stroke-linecap:butt;stroke-linejoin:miter;stroke-opacity:1" d="M 771.755,306.161 762.253,325.165 z" id="boundary" inkscape:connector-curvature="0" />
	<path style="fill:none;stroke:red;stroke-width:1px;stroke-linecap:butt;stroke-linejoin:miter;stroke-opacity:1" d="M 714.743,401.18 718.544,376.475 z" id="boundary" inkscape:connector-curvature="0" />
	<path style="fill:none;stroke:red;stroke-width:1px;stroke-linecap:butt;stroke-linejoin:miter;stroke-opacity:1" d="M 718.544,376.475 737.548,357.471 z" id="boundary" inkscape:connector-curvature="0" />
	<path style="fill:none;stroke:red;stroke-width:1px;stroke-linecap:butt;stroke-linejoin:miter;stroke-opacity:1" d="M 790.759,268.153 804.061,243.448 z" id="boundary" inkscape:connector-curvature="0" />
	<path style="fill:none;stroke:red;stroke-width:1px;stroke-linecap:butt;stroke-linejoin:miter;stroke-opacity:1" d="M 804.061,243.448 819.264,230.146 z" id="boundary" inkscape:connector-curvature="0" />
	<path style="fill:none;stroke:red;stroke-width:1px;stroke-linecap:butt;stroke-linejoin:miter;stroke-opacity:1" d="M 819.264,230.146 838.268,220.644 z" id="boundary" inkscape:connector-curvature="0" />
	<path style="fill:none;stroke:red;stroke-width:1px;stroke-linecap:butt;stroke-linejoin:miter;stroke-opacity:1" d="M 771.755,306.161 781.257,287.157 z" id="boundary" inkscape:connector-curvature="0" />
	<path style="fill:none;stroke:red;stroke-width:1px;stroke-linecap:butt;stroke-linejoin:miter;stroke-opacity:1" d="M 781.257,287.157 790.759,268.153 z" id="boundary" inkscape:connector-curvature="0" />
	<path style="fill:none;stroke:red;stroke-width:1px;stroke-linecap:butt;stroke-linejoin:miter;stroke-opacity:1" d="M 652.031,480.996 661.533,461.992 z" id="boundary" inkscape:connector-curvature="0" />
	<path style="fill:none;stroke:red;stroke-width:1px;stroke-linecap:butt;stroke-linejoin:miter;stroke-opacity:1" d="M 661.533,461.992 676.736,448.69 z" id="boundary" inkscape:connector-curvature="0" />
	<path style="fill:none;stroke:red;stroke-width:1px;stroke-linecap:butt;stroke-linejoin:miter;stroke-opacity:1" d="M 676.736,661.533 661.533,650.13 z" id="boundary" inkscape:connector-curvature="0" />
	<path style="fill:none;stroke:red;stroke-width:1px;stroke-linecap:butt;stroke-linejoin:miter;stroke-opacity:1" d="M 671.034,737.548 653.931,747.05 z" id="boundary" inkscape:connector-curvature="0" />
	<path style="fill:none;stroke:red;stroke-width:1px;stroke-linecap:butt;stroke-linejoin:miter;stroke-opacity:1" d="M 680.536,718.544 671.034,737.548 z" id="boundary" inkscape:connector-curvature="0" />
	<path style="fill:none;stroke:red;stroke-width:1px;stroke-linecap:butt;stroke-linejoin:miter;stroke-opacity:1" d="M 653.931,747.05 634.927,747.05 z" id="boundary" inkscape:connector-curvature="0" />
	<path style="fill:none;stroke:red;stroke-width:1px;stroke-linecap:butt;stroke-linejoin:miter;stroke-opacity:1" d="M 676.736,448.69 690.038,433.487 z" id="boundary" inkscape:connector-curvature="0" />
	<path style="fill:none;stroke:red;stroke-width:1px;stroke-linecap:butt;stroke-linejoin:miter;stroke-opacity:1" d="M 690.038,433.487 705.241,420.184 z" id="boundary" inkscape:connector-curvature="0" />
	<path style="fill:none;stroke:red;stroke-width:1px;stroke-linecap:butt;stroke-linejoin:miter;stroke-opacity:1" d="M 714.743,401.18 705.241,420.184 z" id="boundary" inkscape:connector-curvature="0" />
	<path style="fill:none;stroke:red;stroke-width:1px;stroke-linecap:butt;stroke-linejoin:miter;stroke-opacity:1" d="M 690.038,676.736 676.736,661.533 z" id="boundary" inkscape:connector-curvature="0" />
	<path style="fill:none;stroke:red;stroke-width:1px;stroke-linecap:butt;stroke-linejoin:miter;stroke-opacity:1" d="M 690.038,695.739 680.536,718.544 z" id="boundary" inkscape:connector-curvature="0" />
	<path style="fill:none;stroke:red;stroke-width:1px;stroke-linecap:butt;stroke-linejoin:miter;stroke-opacity:1" d="M 690.038,676.736 690.038,695.739 z" id="boundary" inkscape:connector-curvature="0" />
	<circle cx="4" cy="874.375" r="4" fill="#0" id="circle0"/>
	<circle cx="4" cy="921.885" r="4" fill="#0" id="circle1"/>
	<circle cx="4" cy="940.889" r="4" fill="#0" id="circle2"/>
	<circle cx="13.5019" cy="836.368" r="4" fill="#0" id="circle3"/>
	<circle cx="13.5019" cy="855.372" r="4" fill="#0" id="circle4"/>
	<circle cx="13.5019" cy="891.479" r="4" fill="#0" id="circle5"/>
	<circle cx="23.0038" cy="798.36" r="4" fill="#0" id="circle6"/>
	<circle cx="23.0038" cy="817.364" r="4" fill="#0" id="circle7"/>
	<circle cx="23.0038" cy="940.889" r="4" fill="#0" id="circle8"/>
	<circle cx="23.0038" cy="969.395" r="4" fill="#0" id="circle9"/>
	<circle cx="32.5057" cy="769.854" r="4" fill="#0" id="circle10"/>
	<circle cx="34.4061" cy="984.598" r="4" fill="#0" id="circle11"/>
	<circle cx="42.0077" cy="741.349" r="4" fill="#0" id="circle12"/>
	<circle cx="43.908" cy="965.594" r="4" fill="#0" id="circle13"/>
	<circle cx="51.5096" cy="722.345" r="4" fill="#0" id="circle14"/>
	<circle cx="53.41" cy="937.088" r="4" fill="#0" id="circle15"/>
	<circle cx="70.5134" cy="693.839" r="4" fill="#0" id="circle16"/>
	<circle cx="70.5134" cy="712.843" r="4" fill="#0" id="circle17"/>
	<circle cx="72.4138" cy="937.088" r="4" fill="#0" id="circle18"/>
	<circle cx="80.0153" cy="674.835" r="4" fill="#0" id="circle19"/>
	<circle cx="80.0153" cy="956.092" r="4" fill="#0" id="circle20"/>
	<circle cx="85.7165" cy="975.096" r="4" fill="#0" id="circle21"/>
	<circle cx="95.2184" cy="659.632" r="4" fill="#0" id="circle22"/>
	<circle cx="99.0192" cy="950.391" r="4" fill="#0" id="circle23"/>
	<circle cx="100.92" cy="918.084" r="4" fill="#0" id="circle24"/>
	<circle cx="108.521" cy="636.828" r="4" fill="#0" id="circle25"/>
	<circle cx="116.123" cy="904.782" r="4" fill="#0" id="circle26"/>
	<circle cx="118.023" cy="617.824" r="4" fill="#0" id="circle27"/>
	<circle cx="127.525" cy="589.318" r="4" fill="#0" id="circle28"/>
	<circle cx="129.425" cy="889.579" r="4" fill="#0" id="circle29"/>
	<circle cx="138.927" cy="870.575" r="4" fill="#0" id="circle30"/>
	<circle cx="142.728" cy="574.115" r="4" fill="#0" id="circle31"/>
	<circle cx="154.13" cy="857.272" r="4" fill="#0" id="circle32"/>
	<circle cx="157.931" cy="558.912" r="4" fill="#0" id="circle33"/>
	<circle cx="167.433" cy="842.069" r="4" fill="#0" id="circle34"/>
	<circle cx="173.134" cy="545.609" r="4" fill="#0" id="circle35"/>
	<circle cx="186.437" cy="832.567" r="4" fill="#0" id="circle36"/>
	<circle cx="192.138" cy="545.609" r="4" fill="#0" id="circle37"/>
	<circle cx="205.441" cy="813.563" r="4" fill="#0" id="circle38"/>
	<circle cx="209.241" cy="536.107" r="4" fill="#0" id="circle39"/>
	<circle cx="220.644" cy="800.261" r="4" fill="#0" id="circle40"/>
	<circle cx="228.245" cy="536.107" r="4" fill="#0" id="circle41"/>
	<circle cx="233.946" cy="785.057" r="4" fill="#0" id="circle42"/>
	<circle cx="247.249" cy="526.605" r="4" fill="#0" id="circle43"/>
	<circle cx="252.95" cy="775.556" r="4" fill="#0" id="circle44"/>
	<circle cx="266.253" cy="526.605" r="4" fill="#0" id="circle45"/>
	<circle cx="271.954" cy="766.054" r="4" fill="#0" id="circle46"/>
	<circle cx="283.356" cy="517.103" r="4" fill="#0" id="circle47"/>
	<circle cx="290.958" cy="756.552" r="4" fill="#0" id="circle48"/>
	<circle cx="298.559" cy="351.77" r="4" fill="#0" id="circle49"/>
	<circle cx="302.36" cy="509.502" r="4" fill="#0" id="circle50"/>
	<circle cx="308.061" cy="368.874" r="4" fill="#0" id="circle51"/>
	<circle cx="309.962" cy="747.05" r="4" fill="#0" id="circle52"/>
	<circle cx="311.862" cy="490.498" r="4" fill="#0" id="circle53"/>
	<circle cx="317.563" cy="346.069" r="4" fill="#0" id="circle54"/>
	<circle cx="317.563" cy="385.977" r="4" fill="#0" id="circle55"/>
	<circle cx="317.563" cy="404.981" r="4" fill="#0" id="circle56"/>
	<circle cx="323.264" cy="423.985" r="4" fill="#0" id="circle57"/>
	<circle cx="328.966" cy="737.548" r="4" fill="#0" id="circle58"/>
	<circle cx="330.866" cy="480.996" r="4" fill="#0" id="circle59"/>
	<circle cx="336.567" cy="346.069" r="4" fill="#0" id="circle60"/>
	<circle cx="338.467" cy="437.287" r="4" fill="#0" id="circle61"/>
	<circle cx="346.069" cy="456.291" r="4" fill="#0" id="circle62"/>
	<circle cx="347.969" cy="728.046" r="4" fill="#0" id="circle63"/>
	<circle cx="355.571" cy="349.87" r="4" fill="#0" id="circle64"/>
	<circle cx="366.973" cy="718.544" r="4" fill="#0" id="circle65"/>
	<circle cx="372.674" cy="359.372" r="4" fill="#0" id="circle66"/>
	<circle cx="376.475" cy="699.54" r="4" fill="#0" id="circle67"/>
	<circle cx="385.977" cy="374.575" r="4" fill="#0" id="circle68"/>
	<circle cx="395.479" cy="699.54" r="4" fill="#0" id="circle69"/>
	<circle cx="404.981" cy="380.276" r="4" fill="#0" id="circle70"/>
	<circle cx="410.682" cy="686.238" r="4" fill="#0" id="circle71"/>
	<circle cx="422.084" cy="370.774" r="4" fill="#0" id="circle72"/>
	<circle cx="423.985" cy="671.034" r="4" fill="#0" id="circle73"/>
	<circle cx="439.188" cy="657.732" r="4" fill="#0" id="circle74"/>
	<circle cx="441.088" cy="361.272" r="4" fill="#0" id="circle75"/>
	<circle cx="458.192" cy="652.031" r="4" fill="#0" id="circle76"/>
	<circle cx="460.092" cy="355.571" r="4" fill="#0" id="circle77"/>
	<circle cx="475.295" cy="640.628" r="4" fill="#0" id="circle78"/>
	<circle cx="477.195" cy="346.069" r="4" fill="#0" id="circle79"/>
	<circle cx="484.797" cy="327.065" r="4" fill="#0" id="circle80"/>
	<circle cx="484.797" cy="623.525" r="4" fill="#0" id="circle81"/>
	<circle cx="500" cy="311.862" r="4" fill="#0" id="circle82"/>
	<circle cx="503.801" cy="623.525" r="4" fill="#0" id="circle83"/>
	<circle cx="517.103" cy="294.759" r="4" fill="#0" id="circle84"/>
	<circle cx="522.805" cy="623.525" r="4" fill="#0" id="circle85"/>
	<circle cx="526.605" cy="275.755" r="4" fill="#0" id="circle86"/>
	<circle cx="536.107" cy="256.751" r="4" fill="#0" id="circle87"/>
	<circle cx="536.107" cy="638.728" r="4" fill="#0" id="circle88"/>
	<circle cx="545.609" cy="655.831" r="4" fill="#0" id="circle89"/>
	<circle cx="551.31" cy="241.548" r="4" fill="#0" id="circle90"/>
	<circle cx="555.111" cy="672.935" r="4" fill="#0" id="circle91"/>
	<circle cx="560.812" cy="222.544" r="4" fill="#0" id="circle92"/>
	<circle cx="564.613" cy="190.238" r="4" fill="#0" id="circle93"/>
	<circle cx="568.414" cy="688.138" r="4" fill="#0" id="circle94"/>
	<circle cx="574.115" cy="707.142" r="4" fill="#0" id="circle95"/>
	<circle cx="576.015" cy="547.51" r="4" fill="#0" id="circle96"/>
	<circle cx="579.816" cy="175.034" r="4" fill="#0" id="circle97"/>
	<circle cx="585.517" cy="564.613" r="4" fill="#0" id="circle98"/>
	<circle cx="585.517" cy="722.345" r="4" fill="#0" id="circle99"/>
	<circle cx="589.318" cy="156.031" r="4" fill="#0" id="circle100"/>
	<circle cx="595.019" cy="528.506" r="4" fill="#0" id="circle101"/>
	<circle cx="598.82" cy="737.548" r="4" fill="#0" id="circle102"/>
	<circle cx="600.72" cy="576.015" r="4" fill="#0" id="circle103"/>
	<circle cx="604.521" cy="140.828" r="4" fill="#0" id="circle104"/>
	<circle cx="604.521" cy="509.502" r="4" fill="#0" id="circle105"/>
	<circle cx="615.923" cy="747.05" r="4" fill="#0" id="circle106"/>
	<circle cx="617.824" cy="585.517" r="4" fill="#0" id="circle107"/>
	<circle cx="623.525" cy="131.326" r="4" fill="#0" id="circle108"/>
	<circle cx="623.525" cy="509.502" r="4" fill="#0" id="circle109"/>
	<circle cx="633.027" cy="490.498" r="4" fill="#0" id="circle110"/>
	<circle cx="633.027" cy="598.82" r="4" fill="#0" id="circle111"/>
	<circle cx="634.927" cy="747.05" r="4" fill="#0" id="circle112"/>
	<circle cx="640.628" cy="617.824" r="4" fill="#0" id="circle113"/>
	<circle cx="642.529" cy="121.824" r="4" fill="#0" id="circle114"/>
	<circle cx="650.13" cy="634.927" r="4" fill="#0" id="circle115"/>
	<circle cx="652.031" cy="480.996" r="4" fill="#0" id="circle116"/>
	<circle cx="653.931" cy="747.05" r="4" fill="#0" id="circle117"/>
	<circle cx="661.533" cy="112.322" r="4" fill="#0" id="circle118"/>
	<circle cx="661.533" cy="461.992" r="4" fill="#0" id="circle119"/>
	<circle cx="661.533" cy="650.13" r="4" fill="#0" id="circle120"/>
	<circle cx="671.034" cy="737.548" r="4" fill="#0" id="circle121"/>
	<circle cx="676.736" cy="99.0192" r="4" fill="#0" id="circle122"/>
	<circle cx="676.736" cy="448.69" r="4" fill="#0" id="circle123"/>
	<circle cx="676.736" cy="661.533" r="4" fill="#0" id="circle124"/>
	<circle cx="680.536" cy="718.544" r="4" fill="#0" id="circle125"/>
	<circle cx="690.038" cy="433.487" r="4" fill="#0" id="circle126"/>
	<circle cx="690.038" cy="676.736" r="4" fill="#0" id="circle127"/>
	<circle cx="690.038" cy="695.739" r="4" fill="#0" id="circle128"/>
	<circle cx="693.839" cy="89.5172" r="4" fill="#0" id="circle129"/>
	<circle cx="705.241" cy="420.184" r="4" fill="#0" id="circle130"/>
	<circle cx="712.843" cy="80.0153" r="4" fill="#0" id="circle131"/>
	<circle cx="714.743" cy="401.18" r="4" fill="#0" id="circle132"/>
	<circle cx="718.544" cy="376.475" r="4" fill="#0" id="circle133"/>
	<circle cx="731.847" cy="80.0153" r="4" fill="#0" id="circle134"/>
	<circle cx="737.548" cy="357.471" r="4" fill="#0" id="circle135"/>
	<circle cx="747.05" cy="338.467" r="4" fill="#0" id="circle136"/>
	<circle cx="748.95" cy="70.5134" r="4" fill="#0" id="circle137"/>
	<circle cx="758.452" cy="53.41" r="4" fill="#0" id="circle138"/>
	<circle cx="762.253" cy="325.165" r="4" fill="#0" id="circle139"/>
	<circle cx="771.755" cy="306.161" r="4" fill="#0" id="circle140"/>
	<circle cx="777.456" cy="51.5096" r="4" fill="#0" id="circle141"/>
	<circle cx="781.257" cy="287.157" r="4" fill="#0" id="circle142"/>
	<circle cx="790.759" cy="268.153" r="4" fill="#0" id="circle143"/>
	<circle cx="794.559" cy="42.0077" r="4" fill="#0" id="circle144"/>
	<circle cx="804.061" cy="243.448" r="4" fill="#0" id="circle145"/>
	<circle cx="813.563" cy="36.3065" r="4" fill="#0" id="circle146"/>
	<circle cx="819.264" cy="230.146" r="4" fill="#0" id="circle147"/>
	<circle cx="832.567" cy="32.5057" r="4" fill="#0" id="circle148"/>
	<circle cx="838.268" cy="220.644" r="4" fill="#0" id="circle149"/>
	<circle cx="849.67" cy="23.0038" r="4" fill="#0" id="circle150"/>
	<circle cx="851.571" cy="195.939" r="4" fill="#0" id="circle151"/>
	<circle cx="866.774" cy="182.636" r="4" fill="#0" id="circle152"/>
	<circle cx="868.674" cy="19.2031" r="4" fill="#0" id="circle153"/>
	<circle cx="885.778" cy="176.935" r="4" fill="#0" id="circle154"/>
	<circle cx="887.678" cy="13.5019" r="4" fill="#0" id="circle155"/>
	<circle cx="889.579" cy="32.5057" r="4" fill="#0" id="circle156"/>
	<circle cx="899.08" cy="148.429" r="4" fill="#0" id="circle157"/>
	<circle cx="904.782" cy="4" r="4" fill="#0" id="circle158"/>
	<circle cx="908.582" cy="32.5057" r="4" fill="#0" id="circle159"/>
	<circle cx="918.084" cy="138.927" r="4" fill="#0" id="circle160"/>
	<circle cx="927.586" cy="32.5057" r="4" fill="#0" id="circle161"/>
	<circle cx="927.586" cy="51.5096" r="4" fill="#0" id="circle162"/>
	<circle cx="927.586" cy="70.5134" r="4" fill="#0" id="circle163"/>
	<circle cx="933.287" cy="125.625" r="4" fill="#0" id="circle164"/>
	<circle cx="944.69" cy="23.0038" r="4" fill="#0" id="circle165"/>
	<circle cx="946.59" cy="43.908" r="4" fill="#0" id="circle166"/>
	<circle cx="946.59" cy="70.5134" r="4" fill="#0" id="circle167"/>
	<circle cx="952.291" cy="119.923" r="4" fill="#0" id="circle168"/>
	<circle cx="956.092" cy="91.4176" r="4" fill="#0" id="circle169"/>
	<circle cx="963.693" cy="23.0038" r="4" fill="#0" id="circle170"/>
	<circle cx="965.594" cy="43.908" r="4" fill="#0" id="circle171"/>
	<circle cx="965.594" cy="70.5134" r="4" fill="#0" id="circle172"/>
	<circle cx="971.295" cy="102.82" r="4" fill="#0" id="circle173"/>
	<circle cx="980.797" cy="81.9157" r="4" fill="#0" id="circle174"/>
	<circle cx="982.697" cy="23.0038" r="4" fill="#0" id="circle175"/>
	<circle cx="996" cy="70.5134" r="4" fill="#0" id="circle176"/>
	</g>
</svg>