<?xml version="1.0" encoding="UTF-8" standalone="no"?>
<!-- Created with CurveBenchmark -->
<svg
	xmlns:dc="http://purl.org/dc/elements/1.1/"
	xmlns:cc="http://creativecommons.org/ns#"
	xmlns:rdf="http://www.w3.org/1999/02/22-rdf-syntax-ns#"
	xmlns:svg="http://www.w3.org/2000/svg"
	xmlns="http://www.w3.org/2000/svg"
	xmlns:sodipodi="http://sodipodi.sourceforge.net/DTD/sodipodi-0.dtd"
	xmlns:inkscape="http://www.inkscape.org/namespaces/inkscape"
	width="1000"
	height="1000"
	id="svg2"
	version="1.1"
	sodipodi:docname="manifold/nncrust-television260.png.txt">
<defs
	id="defs4" />
<metadata
	id="metadata7">
	<rdf:RDF>
		<cc:Work
			rdf:about="">
			<dc:format>image/svg+xml</dc:format>
			<dc:type
				rdf:resource="http://purl.org/dc/dcmitype/StillImage" />
			<dc:title></dc:title>
		</cc:Work>
	</rdf:RDF>
</metadata>
<g
	inkscape:label="Layer 1"
	inkscape:groupmode="layer"
	id="layer1">
	<path style="fill:none;stroke:red;stroke-width:1px;stroke-linecap:butt;stroke-linejoin:miter;stroke-opacity:1" d="M 152.996,82.419 152.996,121.628 z" id="boundary" inkscape:connector-curvature="0" />
	<path style="fill:none;stroke:red;stroke-width:1px;stroke-linecap:butt;stroke-linejoin:miter;stroke-opacity:1" d="M 152.996,160.838 152.996,121.628 z" id="boundary" inkscape:connector-curvature="0" />
	<path style="fill:none;stroke:red;stroke-width:1px;stroke-linecap:butt;stroke-linejoin:miter;stroke-opacity:1" d="M 152.996,200.047 152.996,239.257 z" id="boundary" inkscape:connector-curvature="0" />
	<path style="fill:none;stroke:red;stroke-width:1px;stroke-linecap:butt;stroke-linejoin:miter;stroke-opacity:1" d="M 152.996,278.466 152.996,239.257 z" id="boundary" inkscape:connector-curvature="0" />
	<path style="fill:none;stroke:red;stroke-width:1px;stroke-linecap:butt;stroke-linejoin:miter;stroke-opacity:1" d="M 152.996,200.047 152.996,160.838 z" id="boundary" inkscape:connector-curvature="0" />
	<path style="fill:none;stroke:red;stroke-width:1px;stroke-linecap:butt;stroke-linejoin:miter;stroke-opacity:1" d="M 152.996,317.676 152.996,356.885 z" id="boundary" inkscape:connector-curvature="0" />
	<path style="fill:none;stroke:red;stroke-width:1px;stroke-linecap:butt;stroke-linejoin:miter;stroke-opacity:1" d="M 152.996,278.466 152.996,317.676 z" id="boundary" inkscape:connector-curvature="0" />
	<path style="fill:none;stroke:red;stroke-width:1px;stroke-linecap:butt;stroke-linejoin:miter;stroke-opacity:1" d="M 152.996,396.095 152.996,356.885 z" id="boundary" inkscape:connector-curvature="0" />
	<path style="fill:none;stroke:red;stroke-width:1px;stroke-linecap:butt;stroke-linejoin:miter;stroke-opacity:1" d="M 152.996,396.095 152.996,435.304 z" id="boundary" inkscape:connector-curvature="0" />
	<path style="fill:none;stroke:red;stroke-width:1px;stroke-linecap:butt;stroke-linejoin:miter;stroke-opacity:1" d="M 152.996,474.514 152.996,513.723 z" id="boundary" inkscape:connector-curvature="0" />
	<path style="fill:none;stroke:red;stroke-width:1px;stroke-linecap:butt;stroke-linejoin:miter;stroke-opacity:1" d="M 152.996,474.514 152.996,435.304 z" id="boundary" inkscape:connector-curvature="0" />
	<path style="fill:none;stroke:red;stroke-width:1px;stroke-linecap:butt;stroke-linejoin:miter;stroke-opacity:1" d="M 152.996,513.723 152.996,552.933 z" id="boundary" inkscape:connector-curvature="0" />
	<path style="fill:none;stroke:red;stroke-width:1px;stroke-linecap:butt;stroke-linejoin:miter;stroke-opacity:1" d="M 152.996,82.419 176.522,19.6838 z" id="boundary" inkscape:connector-curvature="0" />
	<path style="fill:none;stroke:red;stroke-width:1px;stroke-linecap:butt;stroke-linejoin:miter;stroke-opacity:1" d="M 176.522,19.6838 215.731,4 z" id="boundary" inkscape:connector-curvature="0" />
	<path style="fill:none;stroke:red;stroke-width:1px;stroke-linecap:butt;stroke-linejoin:miter;stroke-opacity:1" d="M 215.731,4 254.941,4 z" id="boundary" inkscape:connector-curvature="0" />
	<path style="fill:none;stroke:red;stroke-width:1px;stroke-linecap:butt;stroke-linejoin:miter;stroke-opacity:1" d="M 266.704,529.407 266.704,568.617 z" id="boundary" inkscape:connector-curvature="0" />
	<path style="fill:none;stroke:red;stroke-width:1px;stroke-linecap:butt;stroke-linejoin:miter;stroke-opacity:1" d="M 305.913,525.486 266.704,529.407 z" id="boundary" inkscape:connector-curvature="0" />
	<path style="fill:none;stroke:red;stroke-width:1px;stroke-linecap:butt;stroke-linejoin:miter;stroke-opacity:1" d="M 305.913,525.486 345.123,525.486 z" id="boundary" inkscape:connector-curvature="0" />
	<path style="fill:none;stroke:red;stroke-width:1px;stroke-linecap:butt;stroke-linejoin:miter;stroke-opacity:1" d="M 152.996,701.929 137.312,662.719 z" id="boundary" inkscape:connector-curvature="0" />
	<path style="fill:none;stroke:red;stroke-width:1px;stroke-linecap:butt;stroke-linejoin:miter;stroke-opacity:1" d="M 152.996,592.142 152.996,552.933 z" id="boundary" inkscape:connector-curvature="0" />
	<path style="fill:none;stroke:red;stroke-width:1px;stroke-linecap:butt;stroke-linejoin:miter;stroke-opacity:1" d="M 266.704,568.617 266.704,607.826 z" id="boundary" inkscape:connector-curvature="0" />
	<path style="fill:none;stroke:red;stroke-width:1px;stroke-linecap:butt;stroke-linejoin:miter;stroke-opacity:1" d="M 137.312,662.719 152.996,592.142 z" id="boundary" inkscape:connector-curvature="0" />
	<path style="fill:none;stroke:red;stroke-width:1px;stroke-linecap:butt;stroke-linejoin:miter;stroke-opacity:1" d="M 266.704,607.826 266.704,647.036 z" id="boundary" inkscape:connector-curvature="0" />
	<path style="fill:none;stroke:red;stroke-width:1px;stroke-linecap:butt;stroke-linejoin:miter;stroke-opacity:1" d="M 305.913,654.877 266.704,647.036 z" id="boundary" inkscape:connector-curvature="0" />
	<path style="fill:none;stroke:red;stroke-width:1px;stroke-linecap:butt;stroke-linejoin:miter;stroke-opacity:1" d="M 266.704,701.929 266.704,647.036 z" id="boundary" inkscape:connector-curvature="0" />
	<path style="fill:none;stroke:red;stroke-width:1px;stroke-linecap:butt;stroke-linejoin:miter;stroke-opacity:1" d="M 345.123,654.877 305.913,654.877 z" id="boundary" inkscape:connector-curvature="0" />
	<path style="fill:none;stroke:red;stroke-width:1px;stroke-linecap:butt;stroke-linejoin:miter;stroke-opacity:1" d="M 325.518,690.166 305.913,654.877 z" id="boundary" inkscape:connector-curvature="0" />
	<path style="fill:none;stroke:red;stroke-width:1px;stroke-linecap:butt;stroke-linejoin:miter;stroke-opacity:1" d="M 254.941,4 294.15,4 z" id="boundary" inkscape:connector-curvature="0" />
	<path style="fill:none;stroke:red;stroke-width:1px;stroke-linecap:butt;stroke-linejoin:miter;stroke-opacity:1" d="M 152.996,701.929 152.996,741.138 z" id="boundary" inkscape:connector-curvature="0" />
	<path style="fill:none;stroke:red;stroke-width:1px;stroke-linecap:butt;stroke-linejoin:miter;stroke-opacity:1" d="M 137.312,780.348 152.996,819.557 z" id="boundary" inkscape:connector-curvature="0" />
	<path style="fill:none;stroke:red;stroke-width:1px;stroke-linecap:butt;stroke-linejoin:miter;stroke-opacity:1" d="M 105.945,897.976 74.5771,921.502 z" id="boundary" inkscape:connector-curvature="0" />
	<path style="fill:none;stroke:red;stroke-width:1px;stroke-linecap:butt;stroke-linejoin:miter;stroke-opacity:1" d="M 74.5771,921.502 43.2095,897.976 z" id="boundary" inkscape:connector-curvature="0" />
	<path style="fill:none;stroke:red;stroke-width:1px;stroke-linecap:butt;stroke-linejoin:miter;stroke-opacity:1" d="M 137.312,780.348 152.996,741.138 z" id="boundary" inkscape:connector-curvature="0" />
	<path style="fill:none;stroke:red;stroke-width:1px;stroke-linecap:butt;stroke-linejoin:miter;stroke-opacity:1" d="M 152.996,858.767 152.996,819.557 z" id="boundary" inkscape:connector-curvature="0" />
	<path style="fill:none;stroke:red;stroke-width:1px;stroke-linecap:butt;stroke-linejoin:miter;stroke-opacity:1" d="M 152.996,858.767 105.945,897.976 z" id="boundary" inkscape:connector-curvature="0" />
	<path style="fill:none;stroke:red;stroke-width:1px;stroke-linecap:butt;stroke-linejoin:miter;stroke-opacity:1" d="M 43.2095,897.976 4,913.66 z" id="boundary" inkscape:connector-curvature="0" />
	<path style="fill:none;stroke:red;stroke-width:1px;stroke-linecap:butt;stroke-linejoin:miter;stroke-opacity:1" d="M 137.312,921.502 105.945,897.976 z" id="boundary" inkscape:connector-curvature="0" />
	<path style="fill:none;stroke:red;stroke-width:1px;stroke-linecap:butt;stroke-linejoin:miter;stroke-opacity:1" d="M 35.3676,980.316 4,952.87 z" id="boundary" inkscape:connector-curvature="0" />
	<path style="fill:none;stroke:red;stroke-width:1px;stroke-linecap:butt;stroke-linejoin:miter;stroke-opacity:1" d="M 4,952.87 4,913.66 z" id="boundary" inkscape:connector-curvature="0" />
	<path style="fill:none;stroke:red;stroke-width:1px;stroke-linecap:butt;stroke-linejoin:miter;stroke-opacity:1" d="M 74.5771,980.316 113.787,980.316 z" id="boundary" inkscape:connector-curvature="0" />
	<path style="fill:none;stroke:red;stroke-width:1px;stroke-linecap:butt;stroke-linejoin:miter;stroke-opacity:1" d="M 137.312,921.502 152.996,980.316 z" id="boundary" inkscape:connector-curvature="0" />
	<path style="fill:none;stroke:red;stroke-width:1px;stroke-linecap:butt;stroke-linejoin:miter;stroke-opacity:1" d="M 152.996,980.316 113.787,980.316 z" id="boundary" inkscape:connector-curvature="0" />
	<path style="fill:none;stroke:red;stroke-width:1px;stroke-linecap:butt;stroke-linejoin:miter;stroke-opacity:1" d="M 74.5771,980.316 35.3676,980.316 z" id="boundary" inkscape:connector-curvature="0" />
	<path style="fill:none;stroke:red;stroke-width:1px;stroke-linecap:butt;stroke-linejoin:miter;stroke-opacity:1" d="M 266.704,741.138 270.625,780.348 z" id="boundary" inkscape:connector-curvature="0" />
	<path style="fill:none;stroke:red;stroke-width:1px;stroke-linecap:butt;stroke-linejoin:miter;stroke-opacity:1" d="M 266.704,741.138 266.704,701.929 z" id="boundary" inkscape:connector-curvature="0" />
	<path style="fill:none;stroke:red;stroke-width:1px;stroke-linecap:butt;stroke-linejoin:miter;stroke-opacity:1" d="M 270.625,780.348 266.704,819.557 z" id="boundary" inkscape:connector-curvature="0" />
	<path style="fill:none;stroke:red;stroke-width:1px;stroke-linecap:butt;stroke-linejoin:miter;stroke-opacity:1" d="M 266.704,819.557 266.704,858.767 z" id="boundary" inkscape:connector-curvature="0" />
	<path style="fill:none;stroke:red;stroke-width:1px;stroke-linecap:butt;stroke-linejoin:miter;stroke-opacity:1" d="M 325.518,780.348 305.913,815.636 z" id="boundary" inkscape:connector-curvature="0" />
	<path style="fill:none;stroke:red;stroke-width:1px;stroke-linecap:butt;stroke-linejoin:miter;stroke-opacity:1" d="M 270.625,897.976 266.704,858.767 z" id="boundary" inkscape:connector-curvature="0" />
	<path style="fill:none;stroke:red;stroke-width:1px;stroke-linecap:butt;stroke-linejoin:miter;stroke-opacity:1" d="M 266.704,819.557 305.913,815.636 z" id="boundary" inkscape:connector-curvature="0" />
	<path style="fill:none;stroke:red;stroke-width:1px;stroke-linecap:butt;stroke-linejoin:miter;stroke-opacity:1" d="M 152.996,980.316 192.206,980.316 z" id="boundary" inkscape:connector-curvature="0" />
	<path style="fill:none;stroke:red;stroke-width:1px;stroke-linecap:butt;stroke-linejoin:miter;stroke-opacity:1" d="M 192.206,980.316 231.415,996 z" id="boundary" inkscape:connector-curvature="0" />
	<path style="fill:none;stroke:red;stroke-width:1px;stroke-linecap:butt;stroke-linejoin:miter;stroke-opacity:1" d="M 270.625,897.976 301.992,921.502 z" id="boundary" inkscape:connector-curvature="0" />
	<path style="fill:none;stroke:red;stroke-width:1px;stroke-linecap:butt;stroke-linejoin:miter;stroke-opacity:1" d="M 333.36,897.976 301.992,921.502 z" id="boundary" inkscape:connector-curvature="0" />
	<path style="fill:none;stroke:red;stroke-width:1px;stroke-linecap:butt;stroke-linejoin:miter;stroke-opacity:1" d="M 270.625,980.316 309.834,980.316 z" id="boundary" inkscape:connector-curvature="0" />
	<path style="fill:none;stroke:red;stroke-width:1px;stroke-linecap:butt;stroke-linejoin:miter;stroke-opacity:1" d="M 231.415,996 270.625,980.316 z" id="boundary" inkscape:connector-curvature="0" />
	<path style="fill:none;stroke:red;stroke-width:1px;stroke-linecap:butt;stroke-linejoin:miter;stroke-opacity:1" d="M 309.834,980.316 349.043,996 z" id="boundary" inkscape:connector-curvature="0" />
	<path style="fill:none;stroke:red;stroke-width:1px;stroke-linecap:butt;stroke-linejoin:miter;stroke-opacity:1" d="M 345.123,815.636 305.913,815.636 z" id="boundary" inkscape:connector-curvature="0" />
	<path style="fill:none;stroke:red;stroke-width:1px;stroke-linecap:butt;stroke-linejoin:miter;stroke-opacity:1" d="M 325.518,690.166 364.727,690.166 z" id="boundary" inkscape:connector-curvature="0" />
	<path style="fill:none;stroke:red;stroke-width:1px;stroke-linecap:butt;stroke-linejoin:miter;stroke-opacity:1" d="M 333.36,4 372.569,7.92095 z" id="boundary" inkscape:connector-curvature="0" />
	<path style="fill:none;stroke:red;stroke-width:1px;stroke-linecap:butt;stroke-linejoin:miter;stroke-opacity:1" d="M 372.569,7.92095 384.332,47.1304 z" id="boundary" inkscape:connector-curvature="0" />
	<path style="fill:none;stroke:red;stroke-width:1px;stroke-linecap:butt;stroke-linejoin:miter;stroke-opacity:1" d="M 384.332,47.1304 384.332,86.3399 z" id="boundary" inkscape:connector-curvature="0" />
	<path style="fill:none;stroke:red;stroke-width:1px;stroke-linecap:butt;stroke-linejoin:miter;stroke-opacity:1" d="M 384.332,86.3399 384.332,125.549 z" id="boundary" inkscape:connector-curvature="0" />
	<path style="fill:none;stroke:red;stroke-width:1px;stroke-linecap:butt;stroke-linejoin:miter;stroke-opacity:1" d="M 384.332,164.759 384.332,125.549 z" id="boundary" inkscape:connector-curvature="0" />
	<path style="fill:none;stroke:red;stroke-width:1px;stroke-linecap:butt;stroke-linejoin:miter;stroke-opacity:1" d="M 384.332,164.759 384.332,203.968 z" id="boundary" inkscape:connector-curvature="0" />
	<path style="fill:none;stroke:red;stroke-width:1px;stroke-linecap:butt;stroke-linejoin:miter;stroke-opacity:1" d="M 345.123,654.877 384.332,654.877 z" id="boundary" inkscape:connector-curvature="0" />
	<path style="fill:none;stroke:red;stroke-width:1px;stroke-linecap:butt;stroke-linejoin:miter;stroke-opacity:1" d="M 364.727,780.348 325.518,780.348 z" id="boundary" inkscape:connector-curvature="0" />
	<path style="fill:none;stroke:red;stroke-width:1px;stroke-linecap:butt;stroke-linejoin:miter;stroke-opacity:1" d="M 384.332,282.387 384.332,321.597 z" id="boundary" inkscape:connector-curvature="0" />
	<path style="fill:none;stroke:red;stroke-width:1px;stroke-linecap:butt;stroke-linejoin:miter;stroke-opacity:1" d="M 384.332,243.178 384.332,203.968 z" id="boundary" inkscape:connector-curvature="0" />
	<path style="fill:none;stroke:red;stroke-width:1px;stroke-linecap:butt;stroke-linejoin:miter;stroke-opacity:1" d="M 384.332,321.597 384.332,360.806 z" id="boundary" inkscape:connector-curvature="0" />
	<path style="fill:none;stroke:red;stroke-width:1px;stroke-linecap:butt;stroke-linejoin:miter;stroke-opacity:1" d="M 384.332,439.225 380.411,501.96 z" id="boundary" inkscape:connector-curvature="0" />
	<path style="fill:none;stroke:red;stroke-width:1px;stroke-linecap:butt;stroke-linejoin:miter;stroke-opacity:1" d="M 380.411,501.96 345.123,525.486 z" id="boundary" inkscape:connector-curvature="0" />
	<path style="fill:none;stroke:red;stroke-width:1px;stroke-linecap:butt;stroke-linejoin:miter;stroke-opacity:1" d="M 384.332,282.387 384.332,243.178 z" id="boundary" inkscape:connector-curvature="0" />
	<path style="fill:none;stroke:red;stroke-width:1px;stroke-linecap:butt;stroke-linejoin:miter;stroke-opacity:1" d="M 384.332,360.806 384.332,400.016 z" id="boundary" inkscape:connector-curvature="0" />
	<path style="fill:none;stroke:red;stroke-width:1px;stroke-linecap:butt;stroke-linejoin:miter;stroke-opacity:1" d="M 384.332,439.225 384.332,400.016 z" id="boundary" inkscape:connector-curvature="0" />
	<path style="fill:none;stroke:red;stroke-width:1px;stroke-linecap:butt;stroke-linejoin:miter;stroke-opacity:1" d="M 423.542,654.877 384.332,654.877 z" id="boundary" inkscape:connector-curvature="0" />
	<path style="fill:none;stroke:red;stroke-width:1px;stroke-linecap:butt;stroke-linejoin:miter;stroke-opacity:1" d="M 423.542,654.877 462.751,654.877 z" id="boundary" inkscape:connector-curvature="0" />
	<path style="fill:none;stroke:red;stroke-width:1px;stroke-linecap:butt;stroke-linejoin:miter;stroke-opacity:1" d="M 501.96,654.877 462.751,654.877 z" id="boundary" inkscape:connector-curvature="0" />
	<path style="fill:none;stroke:red;stroke-width:1px;stroke-linecap:butt;stroke-linejoin:miter;stroke-opacity:1" d="M 403.937,690.166 443.146,690.166 z" id="boundary" inkscape:connector-curvature="0" />
	<path style="fill:none;stroke:red;stroke-width:1px;stroke-linecap:butt;stroke-linejoin:miter;stroke-opacity:1" d="M 482.356,690.166 443.146,690.166 z" id="boundary" inkscape:connector-curvature="0" />
	<path style="fill:none;stroke:red;stroke-width:1px;stroke-linecap:butt;stroke-linejoin:miter;stroke-opacity:1" d="M 501.96,654.877 541.17,654.877 z" id="boundary" inkscape:connector-curvature="0" />
	<path style="fill:none;stroke:red;stroke-width:1px;stroke-linecap:butt;stroke-linejoin:miter;stroke-opacity:1" d="M 521.565,690.166 560.775,690.166 z" id="boundary" inkscape:connector-curvature="0" />
	<path style="fill:none;stroke:red;stroke-width:1px;stroke-linecap:butt;stroke-linejoin:miter;stroke-opacity:1" d="M 541.17,654.877 560.775,690.166 z" id="boundary" inkscape:connector-curvature="0" />
	<path style="fill:none;stroke:red;stroke-width:1px;stroke-linecap:butt;stroke-linejoin:miter;stroke-opacity:1" d="M 521.565,690.166 482.356,690.166 z" id="boundary" inkscape:connector-curvature="0" />
	<path style="fill:none;stroke:red;stroke-width:1px;stroke-linecap:butt;stroke-linejoin:miter;stroke-opacity:1" d="M 403.937,690.166 364.727,690.166 z" id="boundary" inkscape:connector-curvature="0" />
	<path style="fill:none;stroke:red;stroke-width:1px;stroke-linecap:butt;stroke-linejoin:miter;stroke-opacity:1" d="M 384.332,815.636 345.123,815.636 z" id="boundary" inkscape:connector-curvature="0" />
	<path style="fill:none;stroke:red;stroke-width:1px;stroke-linecap:butt;stroke-linejoin:miter;stroke-opacity:1" d="M 364.727,780.348 403.937,780.348 z" id="boundary" inkscape:connector-curvature="0" />
	<path style="fill:none;stroke:red;stroke-width:1px;stroke-linecap:butt;stroke-linejoin:miter;stroke-opacity:1" d="M 403.937,780.348 443.146,780.348 z" id="boundary" inkscape:connector-curvature="0" />
	<path style="fill:none;stroke:red;stroke-width:1px;stroke-linecap:butt;stroke-linejoin:miter;stroke-opacity:1" d="M 423.542,815.636 462.751,815.636 z" id="boundary" inkscape:connector-curvature="0" />
	<path style="fill:none;stroke:red;stroke-width:1px;stroke-linecap:butt;stroke-linejoin:miter;stroke-opacity:1" d="M 423.542,815.636 384.332,815.636 z" id="boundary" inkscape:connector-curvature="0" />
	<path style="fill:none;stroke:red;stroke-width:1px;stroke-linecap:butt;stroke-linejoin:miter;stroke-opacity:1" d="M 388.253,980.316 349.043,996 z" id="boundary" inkscape:connector-curvature="0" />
	<path style="fill:none;stroke:red;stroke-width:1px;stroke-linecap:butt;stroke-linejoin:miter;stroke-opacity:1" d="M 372.569,897.976 333.36,897.976 z" id="boundary" inkscape:connector-curvature="0" />
	<path style="fill:none;stroke:red;stroke-width:1px;stroke-linecap:butt;stroke-linejoin:miter;stroke-opacity:1" d="M 411.779,897.976 443.146,921.502 z" id="boundary" inkscape:connector-curvature="0" />
	<path style="fill:none;stroke:red;stroke-width:1px;stroke-linecap:butt;stroke-linejoin:miter;stroke-opacity:1" d="M 474.514,897.976 443.146,921.502 z" id="boundary" inkscape:connector-curvature="0" />
	<path style="fill:none;stroke:red;stroke-width:1px;stroke-linecap:butt;stroke-linejoin:miter;stroke-opacity:1" d="M 388.253,980.316 427.462,980.316 z" id="boundary" inkscape:connector-curvature="0" />
	<path style="fill:none;stroke:red;stroke-width:1px;stroke-linecap:butt;stroke-linejoin:miter;stroke-opacity:1" d="M 466.672,980.316 427.462,980.316 z" id="boundary" inkscape:connector-curvature="0" />
	<path style="fill:none;stroke:red;stroke-width:1px;stroke-linecap:butt;stroke-linejoin:miter;stroke-opacity:1" d="M 372.569,897.976 411.779,897.976 z" id="boundary" inkscape:connector-curvature="0" />
	<path style="fill:none;stroke:red;stroke-width:1px;stroke-linecap:butt;stroke-linejoin:miter;stroke-opacity:1" d="M 462.751,815.636 501.96,815.636 z" id="boundary" inkscape:connector-curvature="0" />
	<path style="fill:none;stroke:red;stroke-width:1px;stroke-linecap:butt;stroke-linejoin:miter;stroke-opacity:1" d="M 443.146,780.348 482.356,780.348 z" id="boundary" inkscape:connector-curvature="0" />
	<path style="fill:none;stroke:red;stroke-width:1px;stroke-linecap:butt;stroke-linejoin:miter;stroke-opacity:1" d="M 521.565,780.348 560.775,780.348 z" id="boundary" inkscape:connector-curvature="0" />
	<path style="fill:none;stroke:red;stroke-width:1px;stroke-linecap:butt;stroke-linejoin:miter;stroke-opacity:1" d="M 560.775,780.348 541.17,815.636 z" id="boundary" inkscape:connector-curvature="0" />
	<path style="fill:none;stroke:red;stroke-width:1px;stroke-linecap:butt;stroke-linejoin:miter;stroke-opacity:1" d="M 513.723,897.976 474.514,897.976 z" id="boundary" inkscape:connector-curvature="0" />
	<path style="fill:none;stroke:red;stroke-width:1px;stroke-linecap:butt;stroke-linejoin:miter;stroke-opacity:1" d="M 541.17,815.636 501.96,815.636 z" id="boundary" inkscape:connector-curvature="0" />
	<path style="fill:none;stroke:red;stroke-width:1px;stroke-linecap:butt;stroke-linejoin:miter;stroke-opacity:1" d="M 482.356,780.348 521.565,780.348 z" id="boundary" inkscape:connector-curvature="0" />
	<path style="fill:none;stroke:red;stroke-width:1px;stroke-linecap:butt;stroke-linejoin:miter;stroke-opacity:1" d="M 505.881,984.237 466.672,980.316 z" id="boundary" inkscape:connector-curvature="0" />
	<path style="fill:none;stroke:red;stroke-width:1px;stroke-linecap:butt;stroke-linejoin:miter;stroke-opacity:1" d="M 545.091,988.158 505.881,984.237 z" id="boundary" inkscape:connector-curvature="0" />
	<path style="fill:none;stroke:red;stroke-width:1px;stroke-linecap:butt;stroke-linejoin:miter;stroke-opacity:1" d="M 552.933,897.976 580.379,929.344 z" id="boundary" inkscape:connector-curvature="0" />
	<path style="fill:none;stroke:red;stroke-width:1px;stroke-linecap:butt;stroke-linejoin:miter;stroke-opacity:1" d="M 560.775,780.348 580.379,929.344 z" id="boundary" inkscape:connector-curvature="0" />
	<path style="fill:none;stroke:red;stroke-width:1px;stroke-linecap:butt;stroke-linejoin:miter;stroke-opacity:1" d="M 580.379,968.553 545.091,988.158 z" id="boundary" inkscape:connector-curvature="0" />
	<path style="fill:none;stroke:red;stroke-width:1px;stroke-linecap:butt;stroke-linejoin:miter;stroke-opacity:1" d="M 580.379,929.344 580.379,968.553 z" id="boundary" inkscape:connector-curvature="0" />
	<path style="fill:none;stroke:red;stroke-width:1px;stroke-linecap:butt;stroke-linejoin:miter;stroke-opacity:1" d="M 513.723,897.976 552.933,897.976 z" id="boundary" inkscape:connector-curvature="0" />
	<path style="fill:none;stroke:red;stroke-width:1px;stroke-linecap:butt;stroke-linejoin:miter;stroke-opacity:1" d="M 560.775,690.166 580.379,929.344 z" id="boundary" inkscape:connector-curvature="0" />
	<path style="fill:none;stroke:red;stroke-width:1px;stroke-linecap:butt;stroke-linejoin:miter;stroke-opacity:1" d="M 294.15,4 333.36,4 z" id="boundary" inkscape:connector-curvature="0" />
	<circle cx="4" cy="913.66" r="4" fill="#0" id="circle0"/>
	<circle cx="4" cy="952.87" r="4" fill="#0" id="circle1"/>
	<circle cx="35.3676" cy="980.316" r="4" fill="#0" id="circle2"/>
	<circle cx="43.2095" cy="897.976" r="4" fill="#0" id="circle3"/>
	<circle cx="74.5771" cy="921.502" r="4" fill="#0" id="circle4"/>
	<circle cx="74.5771" cy="980.316" r="4" fill="#0" id="circle5"/>
	<circle cx="105.945" cy="897.976" r="4" fill="#0" id="circle6"/>
	<circle cx="113.787" cy="980.316" r="4" fill="#0" id="circle7"/>
	<circle cx="137.312" cy="662.719" r="4" fill="#0" id="circle8"/>
	<circle cx="137.312" cy="780.348" r="4" fill="#0" id="circle9"/>
	<circle cx="137.312" cy="921.502" r="4" fill="#0" id="circle10"/>
	<circle cx="152.996" cy="82.419" r="4" fill="#0" id="circle11"/>
	<circle cx="152.996" cy="121.628" r="4" fill="#0" id="circle12"/>
	<circle cx="152.996" cy="160.838" r="4" fill="#0" id="circle13"/>
	<circle cx="152.996" cy="200.047" r="4" fill="#0" id="circle14"/>
	<circle cx="152.996" cy="239.257" r="4" fill="#0" id="circle15"/>
	<circle cx="152.996" cy="278.466" r="4" fill="#0" id="circle16"/>
	<circle cx="152.996" cy="317.676" r="4" fill="#0" id="circle17"/>
	<circle cx="152.996" cy="356.885" r="4" fill="#0" id="circle18"/>
	<circle cx="152.996" cy="396.095" r="4" fill="#0" id="circle19"/>
	<circle cx="152.996" cy="435.304" r="4" fill="#0" id="circle20"/>
	<circle cx="152.996" cy="474.514" r="4" fill="#0" id="circle21"/>
	<circle cx="152.996" cy="513.723" r="4" fill="#0" id="circle22"/>
	<circle cx="152.996" cy="552.933" r="4" fill="#0" id="circle23"/>
	<circle cx="152.996" cy="592.142" r="4" fill="#0" id="circle24"/>
	<circle cx="152.996" cy="701.929" r="4" fill="#0" id="circle25"/>
	<circle cx="152.996" cy="741.138" r="4" fill="#0" id="circle26"/>
	<circle cx="152.996" cy="819.557" r="4" fill="#0" id="circle27"/>
	<circle cx="152.996" cy="858.767" r="4" fill="#0" id="circle28"/>
	<circle cx="152.996" cy="980.316" r="4" fill="#0" id="circle29"/>
	<circle cx="176.522" cy="19.6838" r="4" fill="#0" id="circle30"/>
	<circle cx="192.206" cy="980.316" r="4" fill="#0" id="circle31"/>
	<circle cx="215.731" cy="4" r="4" fill="#0" id="circle32"/>
	<circle cx="231.415" cy="996" r="4" fill="#0" id="circle33"/>
	<circle cx="254.941" cy="4" r="4" fill="#0" id="circle34"/>
	<circle cx="266.704" cy="529.407" r="4" fill="#0" id="circle35"/>
	<circle cx="266.704" cy="568.617" r="4" fill="#0" id="circle36"/>
	<circle cx="266.704" cy="607.826" r="4" fill="#0" id="circle37"/>
	<circle cx="266.704" cy="647.036" r="4" fill="#0" id="circle38"/>
	<circle cx="266.704" cy="701.929" r="4" fill="#0" id="circle39"/>
	<circle cx="266.704" cy="741.138" r="4" fill="#0" id="circle40"/>
	<circle cx="266.704" cy="819.557" r="4" fill="#0" id="circle41"/>
	<circle cx="266.704" cy="858.767" r="4" fill="#0" id="circle42"/>
	<circle cx="270.625" cy="780.348" r="4" fill="#0" id="circle43"/>
	<circle cx="270.625" cy="897.976" r="4" fill="#0" id="circle44"/>
	<circle cx="270.625" cy="980.316" r="4" fill="#0" id="circle45"/>
	<circle cx="294.15" cy="4" r="4" fill="#0" id="circle46"/>
	<circle cx="301.992" cy="921.502" r="4" fill="#0" id="circle47"/>
	<circle cx="305.913" cy="525.486" r="4" fill="#0" id="circle48"/>
	<circle cx="305.913" cy="654.877" r="4" fill="#0" id="circle49"/>
	<circle cx="305.913" cy="815.636" r="4" fill="#0" id="circle50"/>
	<circle cx="309.834" cy="980.316" r="4" fill="#0" id="circle51"/>
	<circle cx="325.518" cy="690.166" r="4" fill="#0" id="circle52"/>
	<circle cx="325.518" cy="780.348" r="4" fill="#0" id="circle53"/>
	<circle cx="333.36" cy="4" r="4" fill="#0" id="circle54"/>
	<circle cx="333.36" cy="897.976" r="4" fill="#0" id="circle55"/>
	<circle cx="345.123" cy="525.486" r="4" fill="#0" id="circle56"/>
	<circle cx="345.123" cy="654.877" r="4" fill="#0" id="circle57"/>
	<circle cx="345.123" cy="815.636" r="4" fill="#0" id="circle58"/>
	<circle cx="349.043" cy="996" r="4" fill="#0" id="circle59"/>
	<circle cx="364.727" cy="690.166" r="4" fill="#0" id="circle60"/>
	<circle cx="364.727" cy="780.348" r="4" fill="#0" id="circle61"/>
	<circle cx="372.569" cy="7.92095" r="4" fill="#0" id="circle62"/>
	<circle cx="372.569" cy="897.976" r="4" fill="#0" id="circle63"/>
	<circle cx="380.411" cy="501.96" r="4" fill="#0" id="circle64"/>
	<circle cx="384.332" cy="47.1304" r="4" fill="#0" id="circle65"/>
	<circle cx="384.332" cy="86.3399" r="4" fill="#0" id="circle66"/>
	<circle cx="384.332" cy="125.549" r="4" fill="#0" id="circle67"/>
	<circle cx="384.332" cy="164.759" r="4" fill="#0" id="circle68"/>
	<circle cx="384.332" cy="203.968" r="4" fill="#0" id="circle69"/>
	<circle cx="384.332" cy="243.178" r="4" fill="#0" id="circle70"/>
	<circle cx="384.332" cy="282.387" r="4" fill="#0" id="circle71"/>
	<circle cx="384.332" cy="321.597" r="4" fill="#0" id="circle72"/>
	<circle cx="384.332" cy="360.806" r="4" fill="#0" id="circle73"/>
	<circle cx="384.332" cy="400.016" r="4" fill="#0" id="circle74"/>
	<circle cx="384.332" cy="439.225" r="4" fill="#0" id="circle75"/>
	<circle cx="384.332" cy="654.877" r="4" fill="#0" id="circle76"/>
	<circle cx="384.332" cy="815.636" r="4" fill="#0" id="circle77"/>
	<circle cx="388.253" cy="980.316" r="4" fill="#0" id="circle78"/>
	<circle cx="403.937" cy="690.166" r="4" fill="#0" id="circle79"/>
	<circle cx="403.937" cy="780.348" r="4" fill="#0" id="circle80"/>
	<circle cx="411.779" cy="897.976" r="4" fill="#0" id="circle81"/>
	<circle cx="423.542" cy="654.877" r="4" fill="#0" id="circle82"/>
	<circle cx="423.542" cy="815.636" r="4" fill="#0" id="circle83"/>
	<circle cx="427.462" cy="980.316" r="4" fill="#0" id="circle84"/>
	<circle cx="443.146" cy="690.166" r="4" fill="#0" id="circle85"/>
	<circle cx="443.146" cy="780.348" r="4" fill="#0" id="circle86"/>
	<circle cx="443.146" cy="921.502" r="4" fill="#0" id="circle87"/>
	<circle cx="462.751" cy="654.877" r="4" fill="#0" id="circle88"/>
	<circle cx="462.751" cy="815.636" r="4" fill="#0" id="circle89"/>
	<circle cx="466.672" cy="980.316" r="4" fill="#0" id="circle90"/>
	<circle cx="474.514" cy="897.976" r="4" fill="#0" id="circle91"/>
	<circle cx="482.356" cy="690.166" r="4" fill="#0" id="circle92"/>
	<circle cx="482.356" cy="780.348" r="4" fill="#0" id="circle93"/>
	<circle cx="501.96" cy="654.877" r="4" fill="#0" id="circle94"/>
	<circle cx="501.96" cy="815.636" r="4" fill="#0" id="circle95"/>
	<circle cx="505.881" cy="984.237" r="4" fill="#0" id="circle96"/>
	<circle cx="513.723" cy="897.976" r="4" fill="#0" id="circle97"/>
	<circle cx="521.565" cy="690.166" r="4" fill="#0" id="circle98"/>
	<circle cx="521.565" cy="780.348" r="4" fill="#0" id="circle99"/>
	<circle cx="541.17" cy="654.877" r="4" fill="#0" id="circle100"/>
	<circle cx="541.17" cy="815.636" r="4" fill="#0" id="circle101"/>
	<circle cx="545.091" cy="988.158" r="4" fill="#0" id="circle102"/>
	<circle cx="552.933" cy="897.976" r="4" fill="#0" id="circle103"/>
	<circle cx="560.775" cy="690.166" r="4" fill="#0" id="circle104"/>
	<circle cx="560.775" cy="780.348" r="4" fill="#0" id="circle105"/>
	<circle cx="580.379" cy="929.344" r="4" fill="#0" id="circle106"/>
	<circle cx="580.379" cy="968.553" r="4" fill="#0" id="circle107"/>
	</g>
</svg>