<?xml version="1.0" encoding="UTF-8" standalone="no"?>
<!-- Created with CurveBenchmark -->
<svg
	xmlns:dc="http://purl.org/dc/elements/1.1/"
	xmlns:cc="http://creativecommons.org/ns#"
	xmlns:rdf="http://www.w3.org/1999/02/22-rdf-syntax-ns#"
	xmlns:svg="http://www.w3.org/2000/svg"
	xmlns="http://www.w3.org/2000/svg"
	xmlns:sodipodi="http://sodipodi.sourceforge.net/DTD/sodipodi-0.dtd"
	xmlns:inkscape="http://www.inkscape.org/namespaces/inkscape"
	width="1000"
	height="1000"
	id="svg2"
	version="1.1"
	sodipodi:docname="manifold/nncrust-carriage07.png.txt">
<defs
	id="defs4" />
<metadata
	id="metadata7">
	<rdf:RDF>
		<cc:Work
			rdf:about="">
			<dc:format>image/svg+xml</dc:format>
			<dc:type
				rdf:resource="http://purl.org/dc/dcmitype/StillImage" />
			<dc:title></dc:title>
		</cc:Work>
	</rdf:RDF>
</metadata>
<g
	inkscape:label="Layer 1"
	inkscape:groupmode="layer"
	id="layer1">
	<path style="fill:none;stroke:red;stroke-width:1px;stroke-linecap:butt;stroke-linejoin:miter;stroke-opacity:1" d="M 42.2819,53.9329 58.9262,53.9329 z" id="boundary" inkscape:connector-curvature="0" />
	<path style="fill:none;stroke:red;stroke-width:1px;stroke-linecap:butt;stroke-linejoin:miter;stroke-opacity:1" d="M 33.9597,70.5772 42.2819,53.9329 z" id="boundary" inkscape:connector-curvature="0" />
	<path style="fill:none;stroke:red;stroke-width:1px;stroke-linecap:butt;stroke-linejoin:miter;stroke-opacity:1" d="M 75.5705,53.9329 58.9262,53.9329 z" id="boundary" inkscape:connector-curvature="0" />
	<path style="fill:none;stroke:red;stroke-width:1px;stroke-linecap:butt;stroke-linejoin:miter;stroke-opacity:1" d="M 33.9597,70.5772 25.6376,87.2215 z" id="boundary" inkscape:connector-curvature="0" />
	<path style="fill:none;stroke:red;stroke-width:1px;stroke-linecap:butt;stroke-linejoin:miter;stroke-opacity:1" d="M 25.6376,87.2215 12.3221,100.537 z" id="boundary" inkscape:connector-curvature="0" />
	<path style="fill:none;stroke:red;stroke-width:1px;stroke-linecap:butt;stroke-linejoin:miter;stroke-opacity:1" d="M 107.195,62.255 92.2148,53.9329 z" id="boundary" inkscape:connector-curvature="0" />
	<path style="fill:none;stroke:red;stroke-width:1px;stroke-linecap:butt;stroke-linejoin:miter;stroke-opacity:1" d="M 122.174,70.5772 107.195,62.255 z" id="boundary" inkscape:connector-curvature="0" />
	<path style="fill:none;stroke:red;stroke-width:1px;stroke-linecap:butt;stroke-linejoin:miter;stroke-opacity:1" d="M 163.785,95.5436 147.141,93.8792 z" id="boundary" inkscape:connector-curvature="0" />
	<path style="fill:none;stroke:red;stroke-width:1px;stroke-linecap:butt;stroke-linejoin:miter;stroke-opacity:1" d="M 147.141,93.8792 135.49,80.5638 z" id="boundary" inkscape:connector-curvature="0" />
	<path style="fill:none;stroke:red;stroke-width:1px;stroke-linecap:butt;stroke-linejoin:miter;stroke-opacity:1" d="M 180.43,95.5436 163.785,95.5436 z" id="boundary" inkscape:connector-curvature="0" />
	<path style="fill:none;stroke:red;stroke-width:1px;stroke-linecap:butt;stroke-linejoin:miter;stroke-opacity:1" d="M 122.174,70.5772 135.49,80.5638 z" id="boundary" inkscape:connector-curvature="0" />
	<path style="fill:none;stroke:red;stroke-width:1px;stroke-linecap:butt;stroke-linejoin:miter;stroke-opacity:1" d="M 75.5705,53.9329 92.2148,53.9329 z" id="boundary" inkscape:connector-curvature="0" />
	<path style="fill:none;stroke:red;stroke-width:1px;stroke-linecap:butt;stroke-linejoin:miter;stroke-opacity:1" d="M 17.3154,128.832 4,117.181 z" id="boundary" inkscape:connector-curvature="0" />
	<path style="fill:none;stroke:red;stroke-width:1px;stroke-linecap:butt;stroke-linejoin:miter;stroke-opacity:1" d="M 4,117.181 12.3221,100.537 z" id="boundary" inkscape:connector-curvature="0" />
	<path style="fill:none;stroke:red;stroke-width:1px;stroke-linecap:butt;stroke-linejoin:miter;stroke-opacity:1" d="M 33.9597,130.497 17.3154,128.832 z" id="boundary" inkscape:connector-curvature="0" />
	<path style="fill:none;stroke:red;stroke-width:1px;stroke-linecap:butt;stroke-linejoin:miter;stroke-opacity:1" d="M 50.604,130.497 67.2483,130.497 z" id="boundary" inkscape:connector-curvature="0" />
	<path style="fill:none;stroke:red;stroke-width:1px;stroke-linecap:butt;stroke-linejoin:miter;stroke-opacity:1" d="M 67.2483,130.497 78.8993,150.47 z" id="boundary" inkscape:connector-curvature="0" />
	<path style="fill:none;stroke:red;stroke-width:1px;stroke-linecap:butt;stroke-linejoin:miter;stroke-opacity:1" d="M 50.604,130.497 33.9597,130.497 z" id="boundary" inkscape:connector-curvature="0" />
	<path style="fill:none;stroke:red;stroke-width:1px;stroke-linecap:butt;stroke-linejoin:miter;stroke-opacity:1" d="M 78.8993,150.47 78.8993,167.114 z" id="boundary" inkscape:connector-curvature="0" />
	<path style="fill:none;stroke:red;stroke-width:1px;stroke-linecap:butt;stroke-linejoin:miter;stroke-opacity:1" d="M 95.5436,188.752 78.8993,183.758 z" id="boundary" inkscape:connector-curvature="0" />
	<path style="fill:none;stroke:red;stroke-width:1px;stroke-linecap:butt;stroke-linejoin:miter;stroke-opacity:1" d="M 78.8993,183.758 78.8993,167.114 z" id="boundary" inkscape:connector-curvature="0" />
	<path style="fill:none;stroke:red;stroke-width:1px;stroke-linecap:butt;stroke-linejoin:miter;stroke-opacity:1" d="M 95.5436,188.752 95.5436,205.396 z" id="boundary" inkscape:connector-curvature="0" />
	<path style="fill:none;stroke:red;stroke-width:1px;stroke-linecap:butt;stroke-linejoin:miter;stroke-opacity:1" d="M 95.5436,205.396 95.5436,222.04 z" id="boundary" inkscape:connector-curvature="0" />
	<path style="fill:none;stroke:red;stroke-width:1px;stroke-linecap:butt;stroke-linejoin:miter;stroke-opacity:1" d="M 95.5436,238.685 95.5436,255.329 z" id="boundary" inkscape:connector-curvature="0" />
	<path style="fill:none;stroke:red;stroke-width:1px;stroke-linecap:butt;stroke-linejoin:miter;stroke-opacity:1" d="M 95.5436,238.685 95.5436,222.04 z" id="boundary" inkscape:connector-curvature="0" />
	<path style="fill:none;stroke:red;stroke-width:1px;stroke-linecap:butt;stroke-linejoin:miter;stroke-opacity:1" d="M 180.43,95.5436 197.074,95.5436 z" id="boundary" inkscape:connector-curvature="0" />
	<path style="fill:none;stroke:red;stroke-width:1px;stroke-linecap:butt;stroke-linejoin:miter;stroke-opacity:1" d="M 213.718,95.5436 197.074,95.5436 z" id="boundary" inkscape:connector-curvature="0" />
	<path style="fill:none;stroke:red;stroke-width:1px;stroke-linecap:butt;stroke-linejoin:miter;stroke-opacity:1" d="M 245.342,255.329 228.698,255.329 z" id="boundary" inkscape:connector-curvature="0" />
	<path style="fill:none;stroke:red;stroke-width:1px;stroke-linecap:butt;stroke-linejoin:miter;stroke-opacity:1" d="M 247.007,95.5436 230.362,95.5436 z" id="boundary" inkscape:connector-curvature="0" />
	<path style="fill:none;stroke:red;stroke-width:1px;stroke-linecap:butt;stroke-linejoin:miter;stroke-opacity:1" d="M 263.651,95.5436 247.007,95.5436 z" id="boundary" inkscape:connector-curvature="0" />
	<path style="fill:none;stroke:red;stroke-width:1px;stroke-linecap:butt;stroke-linejoin:miter;stroke-opacity:1" d="M 230.362,95.5436 213.718,95.5436 z" id="boundary" inkscape:connector-curvature="0" />
	<path style="fill:none;stroke:red;stroke-width:1px;stroke-linecap:butt;stroke-linejoin:miter;stroke-opacity:1" d="M 280.295,95.5436 296.94,95.5436 z" id="boundary" inkscape:connector-curvature="0" />
	<path style="fill:none;stroke:red;stroke-width:1px;stroke-linecap:butt;stroke-linejoin:miter;stroke-opacity:1" d="M 313.584,95.5436 296.94,95.5436 z" id="boundary" inkscape:connector-curvature="0" />
	<path style="fill:none;stroke:red;stroke-width:1px;stroke-linecap:butt;stroke-linejoin:miter;stroke-opacity:1" d="M 358.523,113.852 345.208,103.866 z" id="boundary" inkscape:connector-curvature="0" />
	<path style="fill:none;stroke:red;stroke-width:1px;stroke-linecap:butt;stroke-linejoin:miter;stroke-opacity:1" d="M 486.685,108.859 478.362,125.503 z" id="boundary" inkscape:connector-curvature="0" />
	<path style="fill:none;stroke:red;stroke-width:1px;stroke-linecap:butt;stroke-linejoin:miter;stroke-opacity:1" d="M 313.584,95.5436 330.228,95.5436 z" id="boundary" inkscape:connector-curvature="0" />
	<path style="fill:none;stroke:red;stroke-width:1px;stroke-linecap:butt;stroke-linejoin:miter;stroke-opacity:1" d="M 330.228,95.5436 345.208,103.866 z" id="boundary" inkscape:connector-curvature="0" />
	<path style="fill:none;stroke:red;stroke-width:1px;stroke-linecap:butt;stroke-linejoin:miter;stroke-opacity:1" d="M 280.295,95.5436 263.651,95.5436 z" id="boundary" inkscape:connector-curvature="0" />
	<path style="fill:none;stroke:red;stroke-width:1px;stroke-linecap:butt;stroke-linejoin:miter;stroke-opacity:1" d="M 358.523,113.852 366.846,128.832 z" id="boundary" inkscape:connector-curvature="0" />
	<path style="fill:none;stroke:red;stroke-width:1px;stroke-linecap:butt;stroke-linejoin:miter;stroke-opacity:1" d="M 371.839,147.141 371.839,163.785 z" id="boundary" inkscape:connector-curvature="0" />
	<path style="fill:none;stroke:red;stroke-width:1px;stroke-linecap:butt;stroke-linejoin:miter;stroke-opacity:1" d="M 380.161,178.765 371.839,163.785 z" id="boundary" inkscape:connector-curvature="0" />
	<path style="fill:none;stroke:red;stroke-width:1px;stroke-linecap:butt;stroke-linejoin:miter;stroke-opacity:1" d="M 405.128,195.409 388.483,193.745 z" id="boundary" inkscape:connector-curvature="0" />
	<path style="fill:none;stroke:red;stroke-width:1px;stroke-linecap:butt;stroke-linejoin:miter;stroke-opacity:1" d="M 388.483,193.745 380.161,178.765 z" id="boundary" inkscape:connector-curvature="0" />
	<path style="fill:none;stroke:red;stroke-width:1px;stroke-linecap:butt;stroke-linejoin:miter;stroke-opacity:1" d="M 371.839,147.141 366.846,128.832 z" id="boundary" inkscape:connector-curvature="0" />
	<path style="fill:none;stroke:red;stroke-width:1px;stroke-linecap:butt;stroke-linejoin:miter;stroke-opacity:1" d="M 470.04,167.114 470.04,150.47 z" id="boundary" inkscape:connector-curvature="0" />
	<path style="fill:none;stroke:red;stroke-width:1px;stroke-linecap:butt;stroke-linejoin:miter;stroke-opacity:1" d="M 579.893,280.295 455.06,190.416 z" id="boundary" inkscape:connector-curvature="0" />
	<path style="fill:none;stroke:red;stroke-width:1px;stroke-linecap:butt;stroke-linejoin:miter;stroke-opacity:1" d="M 455.06,190.416 470.04,167.114 z" id="boundary" inkscape:connector-curvature="0" />
	<path style="fill:none;stroke:red;stroke-width:1px;stroke-linecap:butt;stroke-linejoin:miter;stroke-opacity:1" d="M 421.772,195.409 405.128,195.409 z" id="boundary" inkscape:connector-curvature="0" />
	<path style="fill:none;stroke:red;stroke-width:1px;stroke-linecap:butt;stroke-linejoin:miter;stroke-opacity:1" d="M 438.416,195.409 455.06,190.416 z" id="boundary" inkscape:connector-curvature="0" />
	<path style="fill:none;stroke:red;stroke-width:1px;stroke-linecap:butt;stroke-linejoin:miter;stroke-opacity:1" d="M 438.416,195.409 421.772,195.409 z" id="boundary" inkscape:connector-curvature="0" />
	<path style="fill:none;stroke:red;stroke-width:1px;stroke-linecap:butt;stroke-linejoin:miter;stroke-opacity:1" d="M 478.362,125.503 470.04,150.47 z" id="boundary" inkscape:connector-curvature="0" />
	<path style="fill:none;stroke:red;stroke-width:1px;stroke-linecap:butt;stroke-linejoin:miter;stroke-opacity:1" d="M 163.785,263.651 180.43,263.651 z" id="boundary" inkscape:connector-curvature="0" />
	<path style="fill:none;stroke:red;stroke-width:1px;stroke-linecap:butt;stroke-linejoin:miter;stroke-opacity:1" d="M 152.134,276.966 163.785,263.651 z" id="boundary" inkscape:connector-curvature="0" />
	<path style="fill:none;stroke:red;stroke-width:1px;stroke-linecap:butt;stroke-linejoin:miter;stroke-opacity:1" d="M 197.074,263.651 180.43,263.651 z" id="boundary" inkscape:connector-curvature="0" />
	<path style="fill:none;stroke:red;stroke-width:1px;stroke-linecap:butt;stroke-linejoin:miter;stroke-opacity:1" d="M 143.812,293.611 152.134,276.966 z" id="boundary" inkscape:connector-curvature="0" />
	<path style="fill:none;stroke:red;stroke-width:1px;stroke-linecap:butt;stroke-linejoin:miter;stroke-opacity:1" d="M 95.5436,271.973 95.5436,255.329 z" id="boundary" inkscape:connector-curvature="0" />
	<path style="fill:none;stroke:red;stroke-width:1px;stroke-linecap:butt;stroke-linejoin:miter;stroke-opacity:1" d="M 197.074,263.651 213.718,263.651 z" id="boundary" inkscape:connector-curvature="0" />
	<path style="fill:none;stroke:red;stroke-width:1px;stroke-linecap:butt;stroke-linejoin:miter;stroke-opacity:1" d="M 228.698,255.329 213.718,263.651 z" id="boundary" inkscape:connector-curvature="0" />
	<path style="fill:none;stroke:red;stroke-width:1px;stroke-linecap:butt;stroke-linejoin:miter;stroke-opacity:1" d="M 245.342,255.329 261.987,255.329 z" id="boundary" inkscape:connector-curvature="0" />
	<path style="fill:none;stroke:red;stroke-width:1px;stroke-linecap:butt;stroke-linejoin:miter;stroke-opacity:1" d="M 278.631,255.329 261.987,255.329 z" id="boundary" inkscape:connector-curvature="0" />
	<path style="fill:none;stroke:red;stroke-width:1px;stroke-linecap:butt;stroke-linejoin:miter;stroke-opacity:1" d="M 310.255,263.651 295.275,255.329 z" id="boundary" inkscape:connector-curvature="0" />
	<path style="fill:none;stroke:red;stroke-width:1px;stroke-linecap:butt;stroke-linejoin:miter;stroke-opacity:1" d="M 320.242,276.966 310.255,263.651 z" id="boundary" inkscape:connector-curvature="0" />
	<path style="fill:none;stroke:red;stroke-width:1px;stroke-linecap:butt;stroke-linejoin:miter;stroke-opacity:1" d="M 278.631,255.329 295.275,255.329 z" id="boundary" inkscape:connector-curvature="0" />
	<path style="fill:none;stroke:red;stroke-width:1px;stroke-linecap:butt;stroke-linejoin:miter;stroke-opacity:1" d="M 83.8926,328.564 75.5705,345.208 z" id="boundary" inkscape:connector-curvature="0" />
	<path style="fill:none;stroke:red;stroke-width:1px;stroke-linecap:butt;stroke-linejoin:miter;stroke-opacity:1" d="M 75.5705,345.208 62.255,358.523 z" id="boundary" inkscape:connector-curvature="0" />
	<path style="fill:none;stroke:red;stroke-width:1px;stroke-linecap:butt;stroke-linejoin:miter;stroke-opacity:1" d="M 95.5436,288.617 92.2148,311.919 z" id="boundary" inkscape:connector-curvature="0" />
	<path style="fill:none;stroke:red;stroke-width:1px;stroke-linecap:butt;stroke-linejoin:miter;stroke-opacity:1" d="M 92.2148,311.919 83.8926,328.564 z" id="boundary" inkscape:connector-curvature="0" />
	<path style="fill:none;stroke:red;stroke-width:1px;stroke-linecap:butt;stroke-linejoin:miter;stroke-opacity:1" d="M 72.2416,371.839 62.255,358.523 z" id="boundary" inkscape:connector-curvature="0" />
	<path style="fill:none;stroke:red;stroke-width:1px;stroke-linecap:butt;stroke-linejoin:miter;stroke-opacity:1" d="M 98.8725,380.161 82.2282,385.154 z" id="boundary" inkscape:connector-curvature="0" />
	<path style="fill:none;stroke:red;stroke-width:1px;stroke-linecap:butt;stroke-linejoin:miter;stroke-opacity:1" d="M 82.2282,385.154 72.2416,371.839 z" id="boundary" inkscape:connector-curvature="0" />
	<path style="fill:none;stroke:red;stroke-width:1px;stroke-linecap:butt;stroke-linejoin:miter;stroke-opacity:1" d="M 143.812,293.611 135.49,310.255 z" id="boundary" inkscape:connector-curvature="0" />
	<path style="fill:none;stroke:red;stroke-width:1px;stroke-linecap:butt;stroke-linejoin:miter;stroke-opacity:1" d="M 95.5436,288.617 95.5436,271.973 z" id="boundary" inkscape:connector-curvature="0" />
	<path style="fill:none;stroke:red;stroke-width:1px;stroke-linecap:butt;stroke-linejoin:miter;stroke-opacity:1" d="M 135.49,310.255 122.174,321.906 z" id="boundary" inkscape:connector-curvature="0" />
	<path style="fill:none;stroke:red;stroke-width:1px;stroke-linecap:butt;stroke-linejoin:miter;stroke-opacity:1" d="M 98.8725,380.161 112.188,366.846 z" id="boundary" inkscape:connector-curvature="0" />
	<path style="fill:none;stroke:red;stroke-width:1px;stroke-linecap:butt;stroke-linejoin:miter;stroke-opacity:1" d="M 113.852,346.872 122.174,321.906 z" id="boundary" inkscape:connector-curvature="0" />
	<path style="fill:none;stroke:red;stroke-width:1px;stroke-linecap:butt;stroke-linejoin:miter;stroke-opacity:1" d="M 113.852,346.872 112.188,366.846 z" id="boundary" inkscape:connector-curvature="0" />
	<path style="fill:none;stroke:red;stroke-width:1px;stroke-linecap:butt;stroke-linejoin:miter;stroke-opacity:1" d="M 320.242,276.966 320.242,293.611 z" id="boundary" inkscape:connector-curvature="0" />
	<path style="fill:none;stroke:red;stroke-width:1px;stroke-linecap:butt;stroke-linejoin:miter;stroke-opacity:1" d="M 363.517,263.651 363.517,280.295 z" id="boundary" inkscape:connector-curvature="0" />
	<path style="fill:none;stroke:red;stroke-width:1px;stroke-linecap:butt;stroke-linejoin:miter;stroke-opacity:1" d="M 363.517,263.651 380.161,263.651 z" id="boundary" inkscape:connector-curvature="0" />
	<path style="fill:none;stroke:red;stroke-width:1px;stroke-linecap:butt;stroke-linejoin:miter;stroke-opacity:1" d="M 363.517,280.295 363.517,296.94 z" id="boundary" inkscape:connector-curvature="0" />
	<path style="fill:none;stroke:red;stroke-width:1px;stroke-linecap:butt;stroke-linejoin:miter;stroke-opacity:1" d="M 363.517,296.94 355.195,321.906 z" id="boundary" inkscape:connector-curvature="0" />
	<path style="fill:none;stroke:red;stroke-width:1px;stroke-linecap:butt;stroke-linejoin:miter;stroke-opacity:1" d="M 328.564,308.591 320.242,293.611 z" id="boundary" inkscape:connector-curvature="0" />
	<path style="fill:none;stroke:red;stroke-width:1px;stroke-linecap:butt;stroke-linejoin:miter;stroke-opacity:1" d="M 363.517,336.886 355.195,321.906 z" id="boundary" inkscape:connector-curvature="0" />
	<path style="fill:none;stroke:red;stroke-width:1px;stroke-linecap:butt;stroke-linejoin:miter;stroke-opacity:1" d="M 328.564,325.235 328.564,308.591 z" id="boundary" inkscape:connector-curvature="0" />
	<path style="fill:none;stroke:red;stroke-width:1px;stroke-linecap:butt;stroke-linejoin:miter;stroke-opacity:1" d="M 380.161,263.651 396.805,263.651 z" id="boundary" inkscape:connector-curvature="0" />
	<path style="fill:none;stroke:red;stroke-width:1px;stroke-linecap:butt;stroke-linejoin:miter;stroke-opacity:1" d="M 363.517,263.651 388.483,193.745 z" id="boundary" inkscape:connector-curvature="0" />
	<path style="fill:none;stroke:red;stroke-width:1px;stroke-linecap:butt;stroke-linejoin:miter;stroke-opacity:1" d="M 411.785,271.973 396.805,263.651 z" id="boundary" inkscape:connector-curvature="0" />
	<path style="fill:none;stroke:red;stroke-width:1px;stroke-linecap:butt;stroke-linejoin:miter;stroke-opacity:1" d="M 411.785,271.973 411.785,288.617 z" id="boundary" inkscape:connector-curvature="0" />
	<path style="fill:none;stroke:red;stroke-width:1px;stroke-linecap:butt;stroke-linejoin:miter;stroke-opacity:1" d="M 411.785,288.617 411.785,305.262 z" id="boundary" inkscape:connector-curvature="0" />
	<path style="fill:none;stroke:red;stroke-width:1px;stroke-linecap:butt;stroke-linejoin:miter;stroke-opacity:1" d="M 411.785,321.906 411.785,305.262 z" id="boundary" inkscape:connector-curvature="0" />
	<path style="fill:none;stroke:red;stroke-width:1px;stroke-linecap:butt;stroke-linejoin:miter;stroke-opacity:1" d="M 493.342,396.805 476.698,396.805 z" id="boundary" inkscape:connector-curvature="0" />
	<path style="fill:none;stroke:red;stroke-width:1px;stroke-linecap:butt;stroke-linejoin:miter;stroke-opacity:1" d="M 328.564,341.879 328.564,325.235 z" id="boundary" inkscape:connector-curvature="0" />
	<path style="fill:none;stroke:red;stroke-width:1px;stroke-linecap:butt;stroke-linejoin:miter;stroke-opacity:1" d="M 345.208,363.517 328.564,358.523 z" id="boundary" inkscape:connector-curvature="0" />
	<path style="fill:none;stroke:red;stroke-width:1px;stroke-linecap:butt;stroke-linejoin:miter;stroke-opacity:1" d="M 328.564,358.523 328.564,341.879 z" id="boundary" inkscape:connector-curvature="0" />
	<path style="fill:none;stroke:red;stroke-width:1px;stroke-linecap:butt;stroke-linejoin:miter;stroke-opacity:1" d="M 363.517,336.886 361.852,366.846 z" id="boundary" inkscape:connector-curvature="0" />
	<path style="fill:none;stroke:red;stroke-width:1px;stroke-linecap:butt;stroke-linejoin:miter;stroke-opacity:1" d="M 361.852,366.846 345.208,363.517 z" id="boundary" inkscape:connector-curvature="0" />
	<path style="fill:none;stroke:red;stroke-width:1px;stroke-linecap:butt;stroke-linejoin:miter;stroke-opacity:1" d="M 403.463,341.879 361.852,366.846 z" id="boundary" inkscape:connector-curvature="0" />
	<path style="fill:none;stroke:red;stroke-width:1px;stroke-linecap:butt;stroke-linejoin:miter;stroke-opacity:1" d="M 403.463,341.879 411.785,356.859 z" id="boundary" inkscape:connector-curvature="0" />
	<path style="fill:none;stroke:red;stroke-width:1px;stroke-linecap:butt;stroke-linejoin:miter;stroke-opacity:1" d="M 403.463,341.879 411.785,321.906 z" id="boundary" inkscape:connector-curvature="0" />
	<path style="fill:none;stroke:red;stroke-width:1px;stroke-linecap:butt;stroke-linejoin:miter;stroke-opacity:1" d="M 420.107,371.839 411.785,356.859 z" id="boundary" inkscape:connector-curvature="0" />
	<path style="fill:none;stroke:red;stroke-width:1px;stroke-linecap:butt;stroke-linejoin:miter;stroke-opacity:1" d="M 428.43,386.819 445.074,388.483 z" id="boundary" inkscape:connector-curvature="0" />
	<path style="fill:none;stroke:red;stroke-width:1px;stroke-linecap:butt;stroke-linejoin:miter;stroke-opacity:1" d="M 445.074,388.483 460.054,396.805 z" id="boundary" inkscape:connector-curvature="0" />
	<path style="fill:none;stroke:red;stroke-width:1px;stroke-linecap:butt;stroke-linejoin:miter;stroke-opacity:1" d="M 428.43,386.819 420.107,371.839 z" id="boundary" inkscape:connector-curvature="0" />
	<path style="fill:none;stroke:red;stroke-width:1px;stroke-linecap:butt;stroke-linejoin:miter;stroke-opacity:1" d="M 476.698,396.805 460.054,396.805 z" id="boundary" inkscape:connector-curvature="0" />
	<path style="fill:none;stroke:red;stroke-width:1px;stroke-linecap:butt;stroke-linejoin:miter;stroke-opacity:1" d="M 478.362,125.503 519.973,100.537 z" id="boundary" inkscape:connector-curvature="0" />
	<path style="fill:none;stroke:red;stroke-width:1px;stroke-linecap:butt;stroke-linejoin:miter;stroke-opacity:1" d="M 528.295,33.9597 528.295,17.3154 z" id="boundary" inkscape:connector-curvature="0" />
	<path style="fill:none;stroke:red;stroke-width:1px;stroke-linecap:butt;stroke-linejoin:miter;stroke-opacity:1" d="M 541.611,4 528.295,17.3154 z" id="boundary" inkscape:connector-curvature="0" />
	<path style="fill:none;stroke:red;stroke-width:1px;stroke-linecap:butt;stroke-linejoin:miter;stroke-opacity:1" d="M 519.973,50.604 528.295,33.9597 z" id="boundary" inkscape:connector-curvature="0" />
	<path style="fill:none;stroke:red;stroke-width:1px;stroke-linecap:butt;stroke-linejoin:miter;stroke-opacity:1" d="M 519.973,50.604 519.973,67.2483 z" id="boundary" inkscape:connector-curvature="0" />
	<path style="fill:none;stroke:red;stroke-width:1px;stroke-linecap:butt;stroke-linejoin:miter;stroke-opacity:1" d="M 519.973,83.8926 519.973,67.2483 z" id="boundary" inkscape:connector-curvature="0" />
	<path style="fill:none;stroke:red;stroke-width:1px;stroke-linecap:butt;stroke-linejoin:miter;stroke-opacity:1" d="M 541.611,4 556.591,12.3221 z" id="boundary" inkscape:connector-curvature="0" />
	<path style="fill:none;stroke:red;stroke-width:1px;stroke-linecap:butt;stroke-linejoin:miter;stroke-opacity:1" d="M 556.591,12.3221 573.235,12.3221 z" id="boundary" inkscape:connector-curvature="0" />
	<path style="fill:none;stroke:red;stroke-width:1px;stroke-linecap:butt;stroke-linejoin:miter;stroke-opacity:1" d="M 573.235,12.3221 579.893,28.9664 z" id="boundary" inkscape:connector-curvature="0" />
	<path style="fill:none;stroke:red;stroke-width:1px;stroke-linecap:butt;stroke-linejoin:miter;stroke-opacity:1" d="M 588.215,43.9463 579.893,28.9664 z" id="boundary" inkscape:connector-curvature="0" />
	<path style="fill:none;stroke:red;stroke-width:1px;stroke-linecap:butt;stroke-linejoin:miter;stroke-opacity:1" d="M 588.215,43.9463 596.537,58.9262 z" id="boundary" inkscape:connector-curvature="0" />
	<path style="fill:none;stroke:red;stroke-width:1px;stroke-linecap:butt;stroke-linejoin:miter;stroke-opacity:1" d="M 596.537,58.9262 596.537,75.5705 z" id="boundary" inkscape:connector-curvature="0" />
	<path style="fill:none;stroke:red;stroke-width:1px;stroke-linecap:butt;stroke-linejoin:miter;stroke-opacity:1" d="M 596.537,92.2148 596.537,75.5705 z" id="boundary" inkscape:connector-curvature="0" />
	<path style="fill:none;stroke:red;stroke-width:1px;stroke-linecap:butt;stroke-linejoin:miter;stroke-opacity:1" d="M 519.973,83.8926 519.973,100.537 z" id="boundary" inkscape:connector-curvature="0" />
	<path style="fill:none;stroke:red;stroke-width:1px;stroke-linecap:butt;stroke-linejoin:miter;stroke-opacity:1" d="M 519.973,100.537 503.329,100.537 z" id="boundary" inkscape:connector-curvature="0" />
	<path style="fill:none;stroke:red;stroke-width:1px;stroke-linecap:butt;stroke-linejoin:miter;stroke-opacity:1" d="M 596.537,92.2148 596.537,108.859 z" id="boundary" inkscape:connector-curvature="0" />
	<path style="fill:none;stroke:red;stroke-width:1px;stroke-linecap:butt;stroke-linejoin:miter;stroke-opacity:1" d="M 596.537,108.859 596.537,125.503 z" id="boundary" inkscape:connector-curvature="0" />
	<path style="fill:none;stroke:red;stroke-width:1px;stroke-linecap:butt;stroke-linejoin:miter;stroke-opacity:1" d="M 596.537,125.503 596.537,142.148 z" id="boundary" inkscape:connector-curvature="0" />
	<path style="fill:none;stroke:red;stroke-width:1px;stroke-linecap:butt;stroke-linejoin:miter;stroke-opacity:1" d="M 503.329,100.537 486.685,108.859 z" id="boundary" inkscape:connector-curvature="0" />
	<path style="fill:none;stroke:red;stroke-width:1px;stroke-linecap:butt;stroke-linejoin:miter;stroke-opacity:1" d="M 628.161,182.094 614.846,170.443 z" id="boundary" inkscape:connector-curvature="0" />
	<path style="fill:none;stroke:red;stroke-width:1px;stroke-linecap:butt;stroke-linejoin:miter;stroke-opacity:1" d="M 604.859,157.128 596.537,142.148 z" id="boundary" inkscape:connector-curvature="0" />
	<path style="fill:none;stroke:red;stroke-width:1px;stroke-linecap:butt;stroke-linejoin:miter;stroke-opacity:1" d="M 604.859,157.128 614.846,170.443 z" id="boundary" inkscape:connector-curvature="0" />
	<path style="fill:none;stroke:red;stroke-width:1px;stroke-linecap:butt;stroke-linejoin:miter;stroke-opacity:1" d="M 628.161,182.094 634.819,198.738 z" id="boundary" inkscape:connector-curvature="0" />
	<path style="fill:none;stroke:red;stroke-width:1px;stroke-linecap:butt;stroke-linejoin:miter;stroke-opacity:1" d="M 651.463,203.732 634.819,198.738 z" id="boundary" inkscape:connector-curvature="0" />
	<path style="fill:none;stroke:red;stroke-width:1px;stroke-linecap:butt;stroke-linejoin:miter;stroke-opacity:1" d="M 684.752,203.732 678.094,183.758 z" id="boundary" inkscape:connector-curvature="0" />
	<path style="fill:none;stroke:red;stroke-width:1px;stroke-linecap:butt;stroke-linejoin:miter;stroke-opacity:1" d="M 678.094,183.758 691.409,170.443 z" id="boundary" inkscape:connector-curvature="0" />
	<path style="fill:none;stroke:red;stroke-width:1px;stroke-linecap:butt;stroke-linejoin:miter;stroke-opacity:1" d="M 691.409,170.443 684.752,203.732 z" id="boundary" inkscape:connector-curvature="0" />
	<path style="fill:none;stroke:red;stroke-width:1px;stroke-linecap:butt;stroke-linejoin:miter;stroke-opacity:1" d="M 699.732,153.799 691.409,170.443 z" id="boundary" inkscape:connector-curvature="0" />
	<path style="fill:none;stroke:red;stroke-width:1px;stroke-linecap:butt;stroke-linejoin:miter;stroke-opacity:1" d="M 752.993,50.604 769.638,48.9396 z" id="boundary" inkscape:connector-curvature="0" />
	<path style="fill:none;stroke:red;stroke-width:1px;stroke-linecap:butt;stroke-linejoin:miter;stroke-opacity:1" d="M 786.282,50.604 769.638,48.9396 z" id="boundary" inkscape:connector-curvature="0" />
	<path style="fill:none;stroke:red;stroke-width:1px;stroke-linecap:butt;stroke-linejoin:miter;stroke-opacity:1" d="M 736.349,67.2483 744.671,82.2282 z" id="boundary" inkscape:connector-curvature="0" />
	<path style="fill:none;stroke:red;stroke-width:1px;stroke-linecap:butt;stroke-linejoin:miter;stroke-opacity:1" d="M 744.671,82.2282 744.671,98.8725 z" id="boundary" inkscape:connector-curvature="0" />
	<path style="fill:none;stroke:red;stroke-width:1px;stroke-linecap:butt;stroke-linejoin:miter;stroke-opacity:1" d="M 736.349,67.2483 752.993,50.604 z" id="boundary" inkscape:connector-curvature="0" />
	<path style="fill:none;stroke:red;stroke-width:1px;stroke-linecap:butt;stroke-linejoin:miter;stroke-opacity:1" d="M 786.282,50.604 802.926,53.9329 z" id="boundary" inkscape:connector-curvature="0" />
	<path style="fill:none;stroke:red;stroke-width:1px;stroke-linecap:butt;stroke-linejoin:miter;stroke-opacity:1" d="M 802.926,53.9329 819.57,57.2617 z" id="boundary" inkscape:connector-curvature="0" />
	<path style="fill:none;stroke:red;stroke-width:1px;stroke-linecap:butt;stroke-linejoin:miter;stroke-opacity:1" d="M 819.57,57.2617 829.557,70.5772 z" id="boundary" inkscape:connector-curvature="0" />
	<path style="fill:none;stroke:red;stroke-width:1px;stroke-linecap:butt;stroke-linejoin:miter;stroke-opacity:1" d="M 842.872,80.5638 829.557,70.5772 z" id="boundary" inkscape:connector-curvature="0" />
	<path style="fill:none;stroke:red;stroke-width:1px;stroke-linecap:butt;stroke-linejoin:miter;stroke-opacity:1" d="M 874.497,112.188 857.852,112.188 z" id="boundary" inkscape:connector-curvature="0" />
	<path style="fill:none;stroke:red;stroke-width:1px;stroke-linecap:butt;stroke-linejoin:miter;stroke-opacity:1" d="M 857.852,112.188 849.53,97.2081 z" id="boundary" inkscape:connector-curvature="0" />
	<path style="fill:none;stroke:red;stroke-width:1px;stroke-linecap:butt;stroke-linejoin:miter;stroke-opacity:1" d="M 849.53,97.2081 842.872,80.5638 z" id="boundary" inkscape:connector-curvature="0" />
	<path style="fill:none;stroke:red;stroke-width:1px;stroke-linecap:butt;stroke-linejoin:miter;stroke-opacity:1" d="M 741.342,120.51 744.671,98.8725 z" id="boundary" inkscape:connector-curvature="0" />
	<path style="fill:none;stroke:red;stroke-width:1px;stroke-linecap:butt;stroke-linejoin:miter;stroke-opacity:1" d="M 891.141,112.188 874.497,112.188 z" id="boundary" inkscape:connector-curvature="0" />
	<path style="fill:none;stroke:red;stroke-width:1px;stroke-linecap:butt;stroke-linejoin:miter;stroke-opacity:1" d="M 699.732,153.799 708.054,137.154 z" id="boundary" inkscape:connector-curvature="0" />
	<path style="fill:none;stroke:red;stroke-width:1px;stroke-linecap:butt;stroke-linejoin:miter;stroke-opacity:1" d="M 708.054,137.154 724.698,128.832 z" id="boundary" inkscape:connector-curvature="0" />
	<path style="fill:none;stroke:red;stroke-width:1px;stroke-linecap:butt;stroke-linejoin:miter;stroke-opacity:1" d="M 724.698,128.832 741.342,120.51 z" id="boundary" inkscape:connector-curvature="0" />
	<path style="fill:none;stroke:red;stroke-width:1px;stroke-linecap:butt;stroke-linejoin:miter;stroke-opacity:1" d="M 907.785,112.188 924.43,112.188 z" id="boundary" inkscape:connector-curvature="0" />
	<path style="fill:none;stroke:red;stroke-width:1px;stroke-linecap:butt;stroke-linejoin:miter;stroke-opacity:1" d="M 924.43,112.188 936.081,125.503 z" id="boundary" inkscape:connector-curvature="0" />
	<path style="fill:none;stroke:red;stroke-width:1px;stroke-linecap:butt;stroke-linejoin:miter;stroke-opacity:1" d="M 936.081,125.503 944.403,140.483 z" id="boundary" inkscape:connector-curvature="0" />
	<path style="fill:none;stroke:red;stroke-width:1px;stroke-linecap:butt;stroke-linejoin:miter;stroke-opacity:1" d="M 946.067,157.128 946.067,173.772 z" id="boundary" inkscape:connector-curvature="0" />
	<path style="fill:none;stroke:red;stroke-width:1px;stroke-linecap:butt;stroke-linejoin:miter;stroke-opacity:1" d="M 946.067,157.128 944.403,140.483 z" id="boundary" inkscape:connector-curvature="0" />
	<path style="fill:none;stroke:red;stroke-width:1px;stroke-linecap:butt;stroke-linejoin:miter;stroke-opacity:1" d="M 946.067,173.772 946.067,190.416 z" id="boundary" inkscape:connector-curvature="0" />
	<path style="fill:none;stroke:red;stroke-width:1px;stroke-linecap:butt;stroke-linejoin:miter;stroke-opacity:1" d="M 956.054,203.732 946.067,190.416 z" id="boundary" inkscape:connector-curvature="0" />
	<path style="fill:none;stroke:red;stroke-width:1px;stroke-linecap:butt;stroke-linejoin:miter;stroke-opacity:1" d="M 891.141,112.188 907.785,112.188 z" id="boundary" inkscape:connector-curvature="0" />
	<path style="fill:none;stroke:red;stroke-width:1px;stroke-linecap:butt;stroke-linejoin:miter;stroke-opacity:1" d="M 644.805,271.973 628.161,271.973 z" id="boundary" inkscape:connector-curvature="0" />
	<path style="fill:none;stroke:red;stroke-width:1px;stroke-linecap:butt;stroke-linejoin:miter;stroke-opacity:1" d="M 661.45,271.973 644.805,271.973 z" id="boundary" inkscape:connector-curvature="0" />
	<path style="fill:none;stroke:red;stroke-width:1px;stroke-linecap:butt;stroke-linejoin:miter;stroke-opacity:1" d="M 613.181,280.295 628.161,271.973 z" id="boundary" inkscape:connector-curvature="0" />
	<path style="fill:none;stroke:red;stroke-width:1px;stroke-linecap:butt;stroke-linejoin:miter;stroke-opacity:1" d="M 579.893,280.295 596.537,280.295 z" id="boundary" inkscape:connector-curvature="0" />
	<path style="fill:none;stroke:red;stroke-width:1px;stroke-linecap:butt;stroke-linejoin:miter;stroke-opacity:1" d="M 579.893,296.94 579.893,280.295 z" id="boundary" inkscape:connector-curvature="0" />
	<path style="fill:none;stroke:red;stroke-width:1px;stroke-linecap:butt;stroke-linejoin:miter;stroke-opacity:1" d="M 613.181,280.295 596.537,280.295 z" id="boundary" inkscape:connector-curvature="0" />
	<path style="fill:none;stroke:red;stroke-width:1px;stroke-linecap:butt;stroke-linejoin:miter;stroke-opacity:1" d="M 678.094,271.973 661.45,271.973 z" id="boundary" inkscape:connector-curvature="0" />
	<path style="fill:none;stroke:red;stroke-width:1px;stroke-linecap:butt;stroke-linejoin:miter;stroke-opacity:1" d="M 651.463,203.732 668.107,205.396 z" id="boundary" inkscape:connector-curvature="0" />
	<path style="fill:none;stroke:red;stroke-width:1px;stroke-linecap:butt;stroke-linejoin:miter;stroke-opacity:1" d="M 668.107,205.396 684.752,203.732 z" id="boundary" inkscape:connector-curvature="0" />
	<path style="fill:none;stroke:red;stroke-width:1px;stroke-linecap:butt;stroke-linejoin:miter;stroke-opacity:1" d="M 678.094,271.973 694.738,271.973 z" id="boundary" inkscape:connector-curvature="0" />
	<path style="fill:none;stroke:red;stroke-width:1px;stroke-linecap:butt;stroke-linejoin:miter;stroke-opacity:1" d="M 694.738,271.973 709.718,280.295 z" id="boundary" inkscape:connector-curvature="0" />
	<path style="fill:none;stroke:red;stroke-width:1px;stroke-linecap:butt;stroke-linejoin:miter;stroke-opacity:1" d="M 726.362,280.295 709.718,280.295 z" id="boundary" inkscape:connector-curvature="0" />
	<path style="fill:none;stroke:red;stroke-width:1px;stroke-linecap:butt;stroke-linejoin:miter;stroke-opacity:1" d="M 571.57,371.839 559.919,385.154 z" id="boundary" inkscape:connector-curvature="0" />
	<path style="fill:none;stroke:red;stroke-width:1px;stroke-linecap:butt;stroke-linejoin:miter;stroke-opacity:1" d="M 559.919,385.154 543.275,393.477 z" id="boundary" inkscape:connector-curvature="0" />
	<path style="fill:none;stroke:red;stroke-width:1px;stroke-linecap:butt;stroke-linejoin:miter;stroke-opacity:1" d="M 543.275,393.477 526.631,393.477 z" id="boundary" inkscape:connector-curvature="0" />
	<path style="fill:none;stroke:red;stroke-width:1px;stroke-linecap:butt;stroke-linejoin:miter;stroke-opacity:1" d="M 526.631,393.477 509.987,396.805 z" id="boundary" inkscape:connector-curvature="0" />
	<path style="fill:none;stroke:red;stroke-width:1px;stroke-linecap:butt;stroke-linejoin:miter;stroke-opacity:1" d="M 509.987,396.805 493.342,396.805 z" id="boundary" inkscape:connector-curvature="0" />
	<path style="fill:none;stroke:red;stroke-width:1px;stroke-linecap:butt;stroke-linejoin:miter;stroke-opacity:1" d="M 588.215,311.919 579.893,296.94 z" id="boundary" inkscape:connector-curvature="0" />
	<path style="fill:none;stroke:red;stroke-width:1px;stroke-linecap:butt;stroke-linejoin:miter;stroke-opacity:1" d="M 743.007,280.295 726.362,280.295 z" id="boundary" inkscape:connector-curvature="0" />
	<path style="fill:none;stroke:red;stroke-width:1px;stroke-linecap:butt;stroke-linejoin:miter;stroke-opacity:1" d="M 743.007,280.295 749.664,296.94 z" id="boundary" inkscape:connector-curvature="0" />
	<path style="fill:none;stroke:red;stroke-width:1px;stroke-linecap:butt;stroke-linejoin:miter;stroke-opacity:1" d="M 579.893,330.228 579.893,355.195 z" id="boundary" inkscape:connector-curvature="0" />
	<path style="fill:none;stroke:red;stroke-width:1px;stroke-linecap:butt;stroke-linejoin:miter;stroke-opacity:1" d="M 579.893,355.195 571.57,371.839 z" id="boundary" inkscape:connector-curvature="0" />
	<path style="fill:none;stroke:red;stroke-width:1px;stroke-linecap:butt;stroke-linejoin:miter;stroke-opacity:1" d="M 579.893,330.228 588.215,311.919 z" id="boundary" inkscape:connector-curvature="0" />
	<path style="fill:none;stroke:red;stroke-width:1px;stroke-linecap:butt;stroke-linejoin:miter;stroke-opacity:1" d="M 749.664,296.94 752.993,313.584 z" id="boundary" inkscape:connector-curvature="0" />
	<path style="fill:none;stroke:red;stroke-width:1px;stroke-linecap:butt;stroke-linejoin:miter;stroke-opacity:1" d="M 791.275,346.872 776.295,338.55 z" id="boundary" inkscape:connector-curvature="0" />
	<path style="fill:none;stroke:red;stroke-width:1px;stroke-linecap:butt;stroke-linejoin:miter;stroke-opacity:1" d="M 962.711,220.376 956.054,203.732 z" id="boundary" inkscape:connector-curvature="0" />
	<path style="fill:none;stroke:red;stroke-width:1px;stroke-linecap:butt;stroke-linejoin:miter;stroke-opacity:1" d="M 776.295,338.55 762.98,326.899 z" id="boundary" inkscape:connector-curvature="0" />
	<path style="fill:none;stroke:red;stroke-width:1px;stroke-linecap:butt;stroke-linejoin:miter;stroke-opacity:1" d="M 762.98,326.899 752.993,313.584 z" id="boundary" inkscape:connector-curvature="0" />
	<path style="fill:none;stroke:red;stroke-width:1px;stroke-linecap:butt;stroke-linejoin:miter;stroke-opacity:1" d="M 791.275,346.872 799.597,361.852 z" id="boundary" inkscape:connector-curvature="0" />
	<path style="fill:none;stroke:red;stroke-width:1px;stroke-linecap:butt;stroke-linejoin:miter;stroke-opacity:1" d="M 971.034,235.356 984.349,247.007 z" id="boundary" inkscape:connector-curvature="0" />
	<path style="fill:none;stroke:red;stroke-width:1px;stroke-linecap:butt;stroke-linejoin:miter;stroke-opacity:1" d="M 984.349,247.007 987.678,263.651 z" id="boundary" inkscape:connector-curvature="0" />
	<path style="fill:none;stroke:red;stroke-width:1px;stroke-linecap:butt;stroke-linejoin:miter;stroke-opacity:1" d="M 971.034,235.356 962.711,220.376 z" id="boundary" inkscape:connector-curvature="0" />
	<path style="fill:none;stroke:red;stroke-width:1px;stroke-linecap:butt;stroke-linejoin:miter;stroke-opacity:1" d="M 987.678,263.651 987.678,280.295 z" id="boundary" inkscape:connector-curvature="0" />
	<path style="fill:none;stroke:red;stroke-width:1px;stroke-linecap:butt;stroke-linejoin:miter;stroke-opacity:1" d="M 996,295.275 996,311.919 z" id="boundary" inkscape:connector-curvature="0" />
	<path style="fill:none;stroke:red;stroke-width:1px;stroke-linecap:butt;stroke-linejoin:miter;stroke-opacity:1" d="M 987.678,280.295 996,295.275 z" id="boundary" inkscape:connector-curvature="0" />
	<path style="fill:none;stroke:red;stroke-width:1px;stroke-linecap:butt;stroke-linejoin:miter;stroke-opacity:1" d="M 996,311.919 992.671,335.221 z" id="boundary" inkscape:connector-curvature="0" />
	<path style="fill:none;stroke:red;stroke-width:1px;stroke-linecap:butt;stroke-linejoin:miter;stroke-opacity:1" d="M 814.577,370.174 799.597,361.852 z" id="boundary" inkscape:connector-curvature="0" />
	<path style="fill:none;stroke:red;stroke-width:1px;stroke-linecap:butt;stroke-linejoin:miter;stroke-opacity:1" d="M 831.221,371.839 814.577,370.174 z" id="boundary" inkscape:connector-curvature="0" />
	<path style="fill:none;stroke:red;stroke-width:1px;stroke-linecap:butt;stroke-linejoin:miter;stroke-opacity:1" d="M 831.221,371.839 844.537,381.826 z" id="boundary" inkscape:connector-curvature="0" />
	<path style="fill:none;stroke:red;stroke-width:1px;stroke-linecap:butt;stroke-linejoin:miter;stroke-opacity:1" d="M 844.537,381.826 861.181,388.483 z" id="boundary" inkscape:connector-curvature="0" />
	<path style="fill:none;stroke:red;stroke-width:1px;stroke-linecap:butt;stroke-linejoin:miter;stroke-opacity:1" d="M 861.181,388.483 876.161,396.805 z" id="boundary" inkscape:connector-curvature="0" />
	<path style="fill:none;stroke:red;stroke-width:1px;stroke-linecap:butt;stroke-linejoin:miter;stroke-opacity:1" d="M 892.805,396.805 876.161,396.805 z" id="boundary" inkscape:connector-curvature="0" />
	<path style="fill:none;stroke:red;stroke-width:1px;stroke-linecap:butt;stroke-linejoin:miter;stroke-opacity:1" d="M 959.383,388.483 971.034,363.517 z" id="boundary" inkscape:connector-curvature="0" />
	<path style="fill:none;stroke:red;stroke-width:1px;stroke-linecap:butt;stroke-linejoin:miter;stroke-opacity:1" d="M 971.034,363.517 984.349,351.866 z" id="boundary" inkscape:connector-curvature="0" />
	<path style="fill:none;stroke:red;stroke-width:1px;stroke-linecap:butt;stroke-linejoin:miter;stroke-opacity:1" d="M 959.383,388.483 942.738,393.477 z" id="boundary" inkscape:connector-curvature="0" />
	<path style="fill:none;stroke:red;stroke-width:1px;stroke-linecap:butt;stroke-linejoin:miter;stroke-opacity:1" d="M 909.45,396.805 892.805,396.805 z" id="boundary" inkscape:connector-curvature="0" />
	<path style="fill:none;stroke:red;stroke-width:1px;stroke-linecap:butt;stroke-linejoin:miter;stroke-opacity:1" d="M 926.094,396.805 909.45,396.805 z" id="boundary" inkscape:connector-curvature="0" />
	<path style="fill:none;stroke:red;stroke-width:1px;stroke-linecap:butt;stroke-linejoin:miter;stroke-opacity:1" d="M 942.738,393.477 926.094,396.805 z" id="boundary" inkscape:connector-curvature="0" />
	<path style="fill:none;stroke:red;stroke-width:1px;stroke-linecap:butt;stroke-linejoin:miter;stroke-opacity:1" d="M 992.671,335.221 984.349,351.866 z" id="boundary" inkscape:connector-curvature="0" />
	<circle cx="4" cy="117.181" r="4" fill="#0" id="circle0"/>
	<circle cx="12.3221" cy="100.537" r="4" fill="#0" id="circle1"/>
	<circle cx="17.3154" cy="128.832" r="4" fill="#0" id="circle2"/>
	<circle cx="25.6376" cy="87.2215" r="4" fill="#0" id="circle3"/>
	<circle cx="33.9597" cy="70.5772" r="4" fill="#0" id="circle4"/>
	<circle cx="33.9597" cy="130.497" r="4" fill="#0" id="circle5"/>
	<circle cx="42.2819" cy="53.9329" r="4" fill="#0" id="circle6"/>
	<circle cx="50.604" cy="130.497" r="4" fill="#0" id="circle7"/>
	<circle cx="58.9262" cy="53.9329" r="4" fill="#0" id="circle8"/>
	<circle cx="62.255" cy="358.523" r="4" fill="#0" id="circle9"/>
	<circle cx="67.2483" cy="130.497" r="4" fill="#0" id="circle10"/>
	<circle cx="72.2416" cy="371.839" r="4" fill="#0" id="circle11"/>
	<circle cx="75.5705" cy="53.9329" r="4" fill="#0" id="circle12"/>
	<circle cx="75.5705" cy="345.208" r="4" fill="#0" id="circle13"/>
	<circle cx="78.8993" cy="150.47" r="4" fill="#0" id="circle14"/>
	<circle cx="78.8993" cy="167.114" r="4" fill="#0" id="circle15"/>
	<circle cx="78.8993" cy="183.758" r="4" fill="#0" id="circle16"/>
	<circle cx="82.2282" cy="385.154" r="4" fill="#0" id="circle17"/>
	<circle cx="83.8926" cy="328.564" r="4" fill="#0" id="circle18"/>
	<circle cx="92.2148" cy="53.9329" r="4" fill="#0" id="circle19"/>
	<circle cx="92.2148" cy="311.919" r="4" fill="#0" id="circle20"/>
	<circle cx="95.5436" cy="188.752" r="4" fill="#0" id="circle21"/>
	<circle cx="95.5436" cy="205.396" r="4" fill="#0" id="circle22"/>
	<circle cx="95.5436" cy="222.04" r="4" fill="#0" id="circle23"/>
	<circle cx="95.5436" cy="238.685" r="4" fill="#0" id="circle24"/>
	<circle cx="95.5436" cy="255.329" r="4" fill="#0" id="circle25"/>
	<circle cx="95.5436" cy="271.973" r="4" fill="#0" id="circle26"/>
	<circle cx="95.5436" cy="288.617" r="4" fill="#0" id="circle27"/>
	<circle cx="98.8725" cy="380.161" r="4" fill="#0" id="circle28"/>
	<circle cx="107.195" cy="62.255" r="4" fill="#0" id="circle29"/>
	<circle cx="112.188" cy="366.846" r="4" fill="#0" id="circle30"/>
	<circle cx="113.852" cy="346.872" r="4" fill="#0" id="circle31"/>
	<circle cx="122.174" cy="70.5772" r="4" fill="#0" id="circle32"/>
	<circle cx="122.174" cy="321.906" r="4" fill="#0" id="circle33"/>
	<circle cx="135.49" cy="80.5638" r="4" fill="#0" id="circle34"/>
	<circle cx="135.49" cy="310.255" r="4" fill="#0" id="circle35"/>
	<circle cx="143.812" cy="293.611" r="4" fill="#0" id="circle36"/>
	<circle cx="147.141" cy="93.8792" r="4" fill="#0" id="circle37"/>
	<circle cx="152.134" cy="276.966" r="4" fill="#0" id="circle38"/>
	<circle cx="163.785" cy="95.5436" r="4" fill="#0" id="circle39"/>
	<circle cx="163.785" cy="263.651" r="4" fill="#0" id="circle40"/>
	<circle cx="180.43" cy="95.5436" r="4" fill="#0" id="circle41"/>
	<circle cx="180.43" cy="263.651" r="4" fill="#0" id="circle42"/>
	<circle cx="197.074" cy="95.5436" r="4" fill="#0" id="circle43"/>
	<circle cx="197.074" cy="263.651" r="4" fill="#0" id="circle44"/>
	<circle cx="213.718" cy="95.5436" r="4" fill="#0" id="circle45"/>
	<circle cx="213.718" cy="263.651" r="4" fill="#0" id="circle46"/>
	<circle cx="228.698" cy="255.329" r="4" fill="#0" id="circle47"/>
	<circle cx="230.362" cy="95.5436" r="4" fill="#0" id="circle48"/>
	<circle cx="245.342" cy="255.329" r="4" fill="#0" id="circle49"/>
	<circle cx="247.007" cy="95.5436" r="4" fill="#0" id="circle50"/>
	<circle cx="261.987" cy="255.329" r="4" fill="#0" id="circle51"/>
	<circle cx="263.651" cy="95.5436" r="4" fill="#0" id="circle52"/>
	<circle cx="278.631" cy="255.329" r="4" fill="#0" id="circle53"/>
	<circle cx="280.295" cy="95.5436" r="4" fill="#0" id="circle54"/>
	<circle cx="295.275" cy="255.329" r="4" fill="#0" id="circle55"/>
	<circle cx="296.94" cy="95.5436" r="4" fill="#0" id="circle56"/>
	<circle cx="310.255" cy="263.651" r="4" fill="#0" id="circle57"/>
	<circle cx="313.584" cy="95.5436" r="4" fill="#0" id="circle58"/>
	<circle cx="320.242" cy="276.966" r="4" fill="#0" id="circle59"/>
	<circle cx="320.242" cy="293.611" r="4" fill="#0" id="circle60"/>
	<circle cx="328.564" cy="308.591" r="4" fill="#0" id="circle61"/>
	<circle cx="328.564" cy="325.235" r="4" fill="#0" id="circle62"/>
	<circle cx="328.564" cy="341.879" r="4" fill="#0" id="circle63"/>
	<circle cx="328.564" cy="358.523" r="4" fill="#0" id="circle64"/>
	<circle cx="330.228" cy="95.5436" r="4" fill="#0" id="circle65"/>
	<circle cx="345.208" cy="103.866" r="4" fill="#0" id="circle66"/>
	<circle cx="345.208" cy="363.517" r="4" fill="#0" id="circle67"/>
	<circle cx="355.195" cy="321.906" r="4" fill="#0" id="circle68"/>
	<circle cx="358.523" cy="113.852" r="4" fill="#0" id="circle69"/>
	<circle cx="361.852" cy="366.846" r="4" fill="#0" id="circle70"/>
	<circle cx="363.517" cy="263.651" r="4" fill="#0" id="circle71"/>
	<circle cx="363.517" cy="280.295" r="4" fill="#0" id="circle72"/>
	<circle cx="363.517" cy="296.94" r="4" fill="#0" id="circle73"/>
	<circle cx="363.517" cy="336.886" r="4" fill="#0" id="circle74"/>
	<circle cx="366.846" cy="128.832" r="4" fill="#0" id="circle75"/>
	<circle cx="371.839" cy="147.141" r="4" fill="#0" id="circle76"/>
	<circle cx="371.839" cy="163.785" r="4" fill="#0" id="circle77"/>
	<circle cx="380.161" cy="178.765" r="4" fill="#0" id="circle78"/>
	<circle cx="380.161" cy="263.651" r="4" fill="#0" id="circle79"/>
	<circle cx="388.483" cy="193.745" r="4" fill="#0" id="circle80"/>
	<circle cx="396.805" cy="263.651" r="4" fill="#0" id="circle81"/>
	<circle cx="403.463" cy="341.879" r="4" fill="#0" id="circle82"/>
	<circle cx="405.128" cy="195.409" r="4" fill="#0" id="circle83"/>
	<circle cx="411.785" cy="271.973" r="4" fill="#0" id="circle84"/>
	<circle cx="411.785" cy="288.617" r="4" fill="#0" id="circle85"/>
	<circle cx="411.785" cy="305.262" r="4" fill="#0" id="circle86"/>
	<circle cx="411.785" cy="321.906" r="4" fill="#0" id="circle87"/>
	<circle cx="411.785" cy="356.859" r="4" fill="#0" id="circle88"/>
	<circle cx="420.107" cy="371.839" r="4" fill="#0" id="circle89"/>
	<circle cx="421.772" cy="195.409" r="4" fill="#0" id="circle90"/>
	<circle cx="428.43" cy="386.819" r="4" fill="#0" id="circle91"/>
	<circle cx="438.416" cy="195.409" r="4" fill="#0" id="circle92"/>
	<circle cx="445.074" cy="388.483" r="4" fill="#0" id="circle93"/>
	<circle cx="455.06" cy="190.416" r="4" fill="#0" id="circle94"/>
	<circle cx="460.054" cy="396.805" r="4" fill="#0" id="circle95"/>
	<circle cx="470.04" cy="150.47" r="4" fill="#0" id="circle96"/>
	<circle cx="470.04" cy="167.114" r="4" fill="#0" id="circle97"/>
	<circle cx="476.698" cy="396.805" r="4" fill="#0" id="circle98"/>
	<circle cx="478.362" cy="125.503" r="4" fill="#0" id="circle99"/>
	<circle cx="486.685" cy="108.859" r="4" fill="#0" id="circle100"/>
	<circle cx="493.342" cy="396.805" r="4" fill="#0" id="circle101"/>
	<circle cx="503.329" cy="100.537" r="4" fill="#0" id="circle102"/>
	<circle cx="509.987" cy="396.805" r="4" fill="#0" id="circle103"/>
	<circle cx="519.973" cy="50.604" r="4" fill="#0" id="circle104"/>
	<circle cx="519.973" cy="67.2483" r="4" fill="#0" id="circle105"/>
	<circle cx="519.973" cy="83.8926" r="4" fill="#0" id="circle106"/>
	<circle cx="519.973" cy="100.537" r="4" fill="#0" id="circle107"/>
	<circle cx="526.631" cy="393.477" r="4" fill="#0" id="circle108"/>
	<circle cx="528.295" cy="17.3154" r="4" fill="#0" id="circle109"/>
	<circle cx="528.295" cy="33.9597" r="4" fill="#0" id="circle110"/>
	<circle cx="541.611" cy="4" r="4" fill="#0" id="circle111"/>
	<circle cx="543.275" cy="393.477" r="4" fill="#0" id="circle112"/>
	<circle cx="556.591" cy="12.3221" r="4" fill="#0" id="circle113"/>
	<circle cx="559.919" cy="385.154" r="4" fill="#0" id="circle114"/>
	<circle cx="571.57" cy="371.839" r="4" fill="#0" id="circle115"/>
	<circle cx="573.235" cy="12.3221" r="4" fill="#0" id="circle116"/>
	<circle cx="579.893" cy="28.9664" r="4" fill="#0" id="circle117"/>
	<circle cx="579.893" cy="280.295" r="4" fill="#0" id="circle118"/>
	<circle cx="579.893" cy="296.94" r="4" fill="#0" id="circle119"/>
	<circle cx="579.893" cy="330.228" r="4" fill="#0" id="circle120"/>
	<circle cx="579.893" cy="355.195" r="4" fill="#0" id="circle121"/>
	<circle cx="588.215" cy="43.9463" r="4" fill="#0" id="circle122"/>
	<circle cx="588.215" cy="311.919" r="4" fill="#0" id="circle123"/>
	<circle cx="596.537" cy="58.9262" r="4" fill="#0" id="circle124"/>
	<circle cx="596.537" cy="75.5705" r="4" fill="#0" id="circle125"/>
	<circle cx="596.537" cy="92.2148" r="4" fill="#0" id="circle126"/>
	<circle cx="596.537" cy="108.859" r="4" fill="#0" id="circle127"/>
	<circle cx="596.537" cy="125.503" r="4" fill="#0" id="circle128"/>
	<circle cx="596.537" cy="142.148" r="4" fill="#0" id="circle129"/>
	<circle cx="596.537" cy="280.295" r="4" fill="#0" id="circle130"/>
	<circle cx="604.859" cy="157.128" r="4" fill="#0" id="circle131"/>
	<circle cx="613.181" cy="280.295" r="4" fill="#0" id="circle132"/>
	<circle cx="614.846" cy="170.443" r="4" fill="#0" id="circle133"/>
	<circle cx="628.161" cy="182.094" r="4" fill="#0" id="circle134"/>
	<circle cx="628.161" cy="271.973" r="4" fill="#0" id="circle135"/>
	<circle cx="634.819" cy="198.738" r="4" fill="#0" id="circle136"/>
	<circle cx="644.805" cy="271.973" r="4" fill="#0" id="circle137"/>
	<circle cx="651.463" cy="203.732" r="4" fill="#0" id="circle138"/>
	<circle cx="661.45" cy="271.973" r="4" fill="#0" id="circle139"/>
	<circle cx="668.107" cy="205.396" r="4" fill="#0" id="circle140"/>
	<circle cx="678.094" cy="183.758" r="4" fill="#0" id="circle141"/>
	<circle cx="678.094" cy="271.973" r="4" fill="#0" id="circle142"/>
	<circle cx="684.752" cy="203.732" r="4" fill="#0" id="circle143"/>
	<circle cx="691.409" cy="170.443" r="4" fill="#0" id="circle144"/>
	<circle cx="694.738" cy="271.973" r="4" fill="#0" id="circle145"/>
	<circle cx="699.732" cy="153.799" r="4" fill="#0" id="circle146"/>
	<circle cx="708.054" cy="137.154" r="4" fill="#0" id="circle147"/>
	<circle cx="709.718" cy="280.295" r="4" fill="#0" id="circle148"/>
	<circle cx="724.698" cy="128.832" r="4" fill="#0" id="circle149"/>
	<circle cx="726.362" cy="280.295" r="4" fill="#0" id="circle150"/>
	<circle cx="736.349" cy="67.2483" r="4" fill="#0" id="circle151"/>
	<circle cx="741.342" cy="120.51" r="4" fill="#0" id="circle152"/>
	<circle cx="743.007" cy="280.295" r="4" fill="#0" id="circle153"/>
	<circle cx="744.671" cy="82.2282" r="4" fill="#0" id="circle154"/>
	<circle cx="744.671" cy="98.8725" r="4" fill="#0" id="circle155"/>
	<circle cx="749.664" cy="296.94" r="4" fill="#0" id="circle156"/>
	<circle cx="752.993" cy="50.604" r="4" fill="#0" id="circle157"/>
	<circle cx="752.993" cy="313.584" r="4" fill="#0" id="circle158"/>
	<circle cx="762.98" cy="326.899" r="4" fill="#0" id="circle159"/>
	<circle cx="769.638" cy="48.9396" r="4" fill="#0" id="circle160"/>
	<circle cx="776.295" cy="338.55" r="4" fill="#0" id="circle161"/>
	<circle cx="786.282" cy="50.604" r="4" fill="#0" id="circle162"/>
	<circle cx="791.275" cy="346.872" r="4" fill="#0" id="circle163"/>
	<circle cx="799.597" cy="361.852" r="4" fill="#0" id="circle164"/>
	<circle cx="802.926" cy="53.9329" r="4" fill="#0" id="circle165"/>
	<circle cx="814.577" cy="370.174" r="4" fill="#0" id="circle166"/>
	<circle cx="819.57" cy="57.2617" r="4" fill="#0" id="circle167"/>
	<circle cx="829.557" cy="70.5772" r="4" fill="#0" id="circle168"/>
	<circle cx="831.221" cy="371.839" r="4" fill="#0" id="circle169"/>
	<circle cx="842.872" cy="80.5638" r="4" fill="#0" id="circle170"/>
	<circle cx="844.537" cy="381.826" r="4" fill="#0" id="circle171"/>
	<circle cx="849.53" cy="97.2081" r="4" fill="#0" id="circle172"/>
	<circle cx="857.852" cy="112.188" r="4" fill="#0" id="circle173"/>
	<circle cx="861.181" cy="388.483" r="4" fill="#0" id="circle174"/>
	<circle cx="874.497" cy="112.188" r="4" fill="#0" id="circle175"/>
	<circle cx="876.161" cy="396.805" r="4" fill="#0" id="circle176"/>
	<circle cx="891.141" cy="112.188" r="4" fill="#0" id="circle177"/>
	<circle cx="892.805" cy="396.805" r="4" fill="#0" id="circle178"/>
	<circle cx="907.785" cy="112.188" r="4" fill="#0" id="circle179"/>
	<circle cx="909.45" cy="396.805" r="4" fill="#0" id="circle180"/>
	<circle cx="924.43" cy="112.188" r="4" fill="#0" id="circle181"/>
	<circle cx="926.094" cy="396.805" r="4" fill="#0" id="circle182"/>
	<circle cx="936.081" cy="125.503" r="4" fill="#0" id="circle183"/>
	<circle cx="942.738" cy="393.477" r="4" fill="#0" id="circle184"/>
	<circle cx="944.403" cy="140.483" r="4" fill="#0" id="circle185"/>
	<circle cx="946.067" cy="157.128" r="4" fill="#0" id="circle186"/>
	<circle cx="946.067" cy="173.772" r="4" fill="#0" id="circle187"/>
	<circle cx="946.067" cy="190.416" r="4" fill="#0" id="circle188"/>
	<circle cx="956.054" cy="203.732" r="4" fill="#0" id="circle189"/>
	<circle cx="959.383" cy="388.483" r="4" fill="#0" id="circle190"/>
	<circle cx="962.711" cy="220.376" r="4" fill="#0" id="circle191"/>
	<circle cx="971.034" cy="235.356" r="4" fill="#0" id="circle192"/>
	<circle cx="971.034" cy="363.517" r="4" fill="#0" id="circle193"/>
	<circle cx="984.349" cy="247.007" r="4" fill="#0" id="circle194"/>
	<circle cx="984.349" cy="351.866" r="4" fill="#0" id="circle195"/>
	<circle cx="987.678" cy="263.651" r="4" fill="#0" id="circle196"/>
	<circle cx="987.678" cy="280.295" r="4" fill="#0" id="circle197"/>
	<circle cx="992.671" cy="335.221" r="4" fill="#0" id="circle198"/>
	<circle cx="996" cy="295.275" r="4" fill="#0" id="circle199"/>
	<circle cx="996" cy="311.919" r="4" fill="#0" id="circle200"/>
	</g>
</svg>