<?xml version="1.0" encoding="UTF-8" standalone="no"?>
<!-- Created with CurveBenchmark -->
<svg
	xmlns:dc="http://purl.org/dc/elements/1.1/"
	xmlns:cc="http://creativecommons.org/ns#"
	xmlns:rdf="http://www.w3.org/1999/02/22-rdf-syntax-ns#"
	xmlns:svg="http://www.w3.org/2000/svg"
	xmlns="http://www.w3.org/2000/svg"
	xmlns:sodipodi="http://sodipodi.sourceforge.net/DTD/sodipodi-0.dtd"
	xmlns:inkscape="http://www.inkscape.org/namespaces/inkscape"
	width="1000"
	height="1000"
	id="svg2"
	version="1.1"
	sodipodi:docname="manifold/nncrust-fish210.png.txt">
<defs
	id="defs4" />
<metadata
	id="metadata7">
	<rdf:RDF>
		<cc:Work
			rdf:about="">
			<dc:format>image/svg+xml</dc:format>
			<dc:type
				rdf:resource="http://purl.org/dc/dcmitype/StillImage" />
			<dc:title></dc:title>
		</cc:Work>
	</rdf:RDF>
</metadata>
<g
	inkscape:label="Layer 1"
	inkscape:groupmode="layer"
	id="layer1">
	<path style="fill:none;stroke:red;stroke-width:1px;stroke-linecap:butt;stroke-linejoin:miter;stroke-opacity:1" d="M 10.4207,183.78 4,151.676 z" id="boundary" inkscape:connector-curvature="0" />
	<path style="fill:none;stroke:red;stroke-width:1px;stroke-linecap:butt;stroke-linejoin:miter;stroke-opacity:1" d="M 4,151.676 36.1036,138.835 z" id="boundary" inkscape:connector-curvature="0" />
	<path style="fill:none;stroke:red;stroke-width:1px;stroke-linecap:butt;stroke-linejoin:miter;stroke-opacity:1" d="M 68.2071,148.466 100.311,161.307 z" id="boundary" inkscape:connector-curvature="0" />
	<path style="fill:none;stroke:red;stroke-width:1px;stroke-linecap:butt;stroke-linejoin:miter;stroke-opacity:1" d="M 161.307,190.201 129.204,177.359 z" id="boundary" inkscape:connector-curvature="0" />
	<path style="fill:none;stroke:red;stroke-width:1px;stroke-linecap:butt;stroke-linejoin:miter;stroke-opacity:1" d="M 36.1036,138.835 68.2071,148.466 z" id="boundary" inkscape:connector-curvature="0" />
	<path style="fill:none;stroke:red;stroke-width:1px;stroke-linecap:butt;stroke-linejoin:miter;stroke-opacity:1" d="M 100.311,161.307 129.204,177.359 z" id="boundary" inkscape:connector-curvature="0" />
	<path style="fill:none;stroke:red;stroke-width:1px;stroke-linecap:butt;stroke-linejoin:miter;stroke-opacity:1" d="M 10.4207,183.78 20.0518,215.883 z" id="boundary" inkscape:connector-curvature="0" />
	<path style="fill:none;stroke:red;stroke-width:1px;stroke-linecap:butt;stroke-linejoin:miter;stroke-opacity:1" d="M 20.0518,215.883 23.2621,247.987 z" id="boundary" inkscape:connector-curvature="0" />
	<path style="fill:none;stroke:red;stroke-width:1px;stroke-linecap:butt;stroke-linejoin:miter;stroke-opacity:1" d="M 186.99,209.463 161.307,190.201 z" id="boundary" inkscape:connector-curvature="0" />
	<path style="fill:none;stroke:red;stroke-width:1px;stroke-linecap:butt;stroke-linejoin:miter;stroke-opacity:1" d="M 219.094,193.411 186.99,209.463 z" id="boundary" inkscape:connector-curvature="0" />
	<path style="fill:none;stroke:red;stroke-width:1px;stroke-linecap:butt;stroke-linejoin:miter;stroke-opacity:1" d="M 23.2621,247.987 23.2621,280.091 z" id="boundary" inkscape:connector-curvature="0" />
	<path style="fill:none;stroke:red;stroke-width:1px;stroke-linecap:butt;stroke-linejoin:miter;stroke-opacity:1" d="M 308.984,97.1003 341.087,87.4693 z" id="boundary" inkscape:connector-curvature="0" />
	<path style="fill:none;stroke:red;stroke-width:1px;stroke-linecap:butt;stroke-linejoin:miter;stroke-opacity:1" d="M 341.087,87.4693 373.191,100.311 z" id="boundary" inkscape:connector-curvature="0" />
	<path style="fill:none;stroke:red;stroke-width:1px;stroke-linecap:butt;stroke-linejoin:miter;stroke-opacity:1" d="M 463.081,81.0485 437.398,103.521 z" id="boundary" inkscape:connector-curvature="0" />
	<path style="fill:none;stroke:red;stroke-width:1px;stroke-linecap:butt;stroke-linejoin:miter;stroke-opacity:1" d="M 498.395,405.294 466.291,398.874 z" id="boundary" inkscape:connector-curvature="0" />
	<path style="fill:none;stroke:red;stroke-width:1px;stroke-linecap:butt;stroke-linejoin:miter;stroke-opacity:1" d="M 437.398,103.521 405.294,113.152 z" id="boundary" inkscape:connector-curvature="0" />
	<path style="fill:none;stroke:red;stroke-width:1px;stroke-linecap:butt;stroke-linejoin:miter;stroke-opacity:1" d="M 405.294,113.152 373.191,100.311 z" id="boundary" inkscape:connector-curvature="0" />
	<path style="fill:none;stroke:red;stroke-width:1px;stroke-linecap:butt;stroke-linejoin:miter;stroke-opacity:1" d="M 495.184,64.9968 463.081,81.0485 z" id="boundary" inkscape:connector-curvature="0" />
	<path style="fill:none;stroke:red;stroke-width:1px;stroke-linecap:butt;stroke-linejoin:miter;stroke-opacity:1" d="M 283.301,116.362 308.984,97.1003 z" id="boundary" inkscape:connector-curvature="0" />
	<path style="fill:none;stroke:red;stroke-width:1px;stroke-linecap:butt;stroke-linejoin:miter;stroke-opacity:1" d="M 219.094,193.411 238.356,167.728 z" id="boundary" inkscape:connector-curvature="0" />
	<path style="fill:none;stroke:red;stroke-width:1px;stroke-linecap:butt;stroke-linejoin:miter;stroke-opacity:1" d="M 257.618,142.045 283.301,116.362 z" id="boundary" inkscape:connector-curvature="0" />
	<path style="fill:none;stroke:red;stroke-width:1px;stroke-linecap:butt;stroke-linejoin:miter;stroke-opacity:1" d="M 238.356,167.728 257.618,142.045 z" id="boundary" inkscape:connector-curvature="0" />
	<path style="fill:none;stroke:red;stroke-width:1px;stroke-linecap:butt;stroke-linejoin:miter;stroke-opacity:1" d="M 16.8414,325.036 23.2621,280.091 z" id="boundary" inkscape:connector-curvature="0" />
	<path style="fill:none;stroke:red;stroke-width:1px;stroke-linecap:butt;stroke-linejoin:miter;stroke-opacity:1" d="M 16.8414,325.036 4,363.56 z" id="boundary" inkscape:connector-curvature="0" />
	<path style="fill:none;stroke:red;stroke-width:1px;stroke-linecap:butt;stroke-linejoin:miter;stroke-opacity:1" d="M 151.676,341.087 177.359,321.825 z" id="boundary" inkscape:connector-curvature="0" />
	<path style="fill:none;stroke:red;stroke-width:1px;stroke-linecap:butt;stroke-linejoin:miter;stroke-opacity:1" d="M 122.783,357.139 151.676,341.087 z" id="boundary" inkscape:connector-curvature="0" />
	<path style="fill:none;stroke:red;stroke-width:1px;stroke-linecap:butt;stroke-linejoin:miter;stroke-opacity:1" d="M 209.463,315.405 177.359,321.825 z" id="boundary" inkscape:connector-curvature="0" />
	<path style="fill:none;stroke:red;stroke-width:1px;stroke-linecap:butt;stroke-linejoin:miter;stroke-opacity:1" d="M 29.6828,386.032 4,363.56 z" id="boundary" inkscape:connector-curvature="0" />
	<path style="fill:none;stroke:red;stroke-width:1px;stroke-linecap:butt;stroke-linejoin:miter;stroke-opacity:1" d="M 61.7864,386.032 29.6828,386.032 z" id="boundary" inkscape:connector-curvature="0" />
	<path style="fill:none;stroke:red;stroke-width:1px;stroke-linecap:butt;stroke-linejoin:miter;stroke-opacity:1" d="M 93.89,373.191 61.7864,386.032 z" id="boundary" inkscape:connector-curvature="0" />
	<path style="fill:none;stroke:red;stroke-width:1px;stroke-linecap:butt;stroke-linejoin:miter;stroke-opacity:1" d="M 93.89,373.191 122.783,357.139 z" id="boundary" inkscape:connector-curvature="0" />
	<path style="fill:none;stroke:red;stroke-width:1px;stroke-linecap:butt;stroke-linejoin:miter;stroke-opacity:1" d="M 209.463,315.405 222.304,347.508 z" id="boundary" inkscape:connector-curvature="0" />
	<path style="fill:none;stroke:red;stroke-width:1px;stroke-linecap:butt;stroke-linejoin:miter;stroke-opacity:1" d="M 222.304,347.508 235.146,379.612 z" id="boundary" inkscape:connector-curvature="0" />
	<path style="fill:none;stroke:red;stroke-width:1px;stroke-linecap:butt;stroke-linejoin:miter;stroke-opacity:1" d="M 434.188,398.874 402.084,395.663 z" id="boundary" inkscape:connector-curvature="0" />
	<path style="fill:none;stroke:red;stroke-width:1px;stroke-linecap:butt;stroke-linejoin:miter;stroke-opacity:1" d="M 344.298,411.715 369.981,392.453 z" id="boundary" inkscape:connector-curvature="0" />
	<path style="fill:none;stroke:red;stroke-width:1px;stroke-linecap:butt;stroke-linejoin:miter;stroke-opacity:1" d="M 369.981,392.453 402.084,395.663 z" id="boundary" inkscape:connector-curvature="0" />
	<path style="fill:none;stroke:red;stroke-width:1px;stroke-linecap:butt;stroke-linejoin:miter;stroke-opacity:1" d="M 247.987,411.715 235.146,379.612 z" id="boundary" inkscape:connector-curvature="0" />
	<path style="fill:none;stroke:red;stroke-width:1px;stroke-linecap:butt;stroke-linejoin:miter;stroke-opacity:1" d="M 280.091,418.136 247.987,411.715 z" id="boundary" inkscape:connector-curvature="0" />
	<path style="fill:none;stroke:red;stroke-width:1px;stroke-linecap:butt;stroke-linejoin:miter;stroke-opacity:1" d="M 312.194,418.136 344.298,411.715 z" id="boundary" inkscape:connector-curvature="0" />
	<path style="fill:none;stroke:red;stroke-width:1px;stroke-linecap:butt;stroke-linejoin:miter;stroke-opacity:1" d="M 312.194,418.136 280.091,418.136 z" id="boundary" inkscape:connector-curvature="0" />
	<path style="fill:none;stroke:red;stroke-width:1px;stroke-linecap:butt;stroke-linejoin:miter;stroke-opacity:1" d="M 434.188,398.874 466.291,398.874 z" id="boundary" inkscape:connector-curvature="0" />
	<path style="fill:none;stroke:red;stroke-width:1px;stroke-linecap:butt;stroke-linejoin:miter;stroke-opacity:1" d="M 524.078,48.945 549.761,29.6828 z" id="boundary" inkscape:connector-curvature="0" />
	<path style="fill:none;stroke:red;stroke-width:1px;stroke-linecap:butt;stroke-linejoin:miter;stroke-opacity:1" d="M 549.761,29.6828 581.864,23.2621 z" id="boundary" inkscape:connector-curvature="0" />
	<path style="fill:none;stroke:red;stroke-width:1px;stroke-linecap:butt;stroke-linejoin:miter;stroke-opacity:1" d="M 613.968,10.4207 581.864,23.2621 z" id="boundary" inkscape:connector-curvature="0" />
	<path style="fill:none;stroke:red;stroke-width:1px;stroke-linecap:butt;stroke-linejoin:miter;stroke-opacity:1" d="M 613.968,10.4207 646.071,4 z" id="boundary" inkscape:connector-curvature="0" />
	<path style="fill:none;stroke:red;stroke-width:1px;stroke-linecap:butt;stroke-linejoin:miter;stroke-opacity:1" d="M 646.071,4 668.544,29.6828 z" id="boundary" inkscape:connector-curvature="0" />
	<path style="fill:none;stroke:red;stroke-width:1px;stroke-linecap:butt;stroke-linejoin:miter;stroke-opacity:1" d="M 668.544,29.6828 684.595,58.5761 z" id="boundary" inkscape:connector-curvature="0" />
	<path style="fill:none;stroke:red;stroke-width:1px;stroke-linecap:butt;stroke-linejoin:miter;stroke-opacity:1" d="M 495.184,64.9968 524.078,48.945 z" id="boundary" inkscape:connector-curvature="0" />
	<path style="fill:none;stroke:red;stroke-width:1px;stroke-linecap:butt;stroke-linejoin:miter;stroke-opacity:1" d="M 707.068,84.2589 723.12,113.152 z" id="boundary" inkscape:connector-curvature="0" />
	<path style="fill:none;stroke:red;stroke-width:1px;stroke-linecap:butt;stroke-linejoin:miter;stroke-opacity:1" d="M 707.068,84.2589 684.595,58.5761 z" id="boundary" inkscape:connector-curvature="0" />
	<path style="fill:none;stroke:red;stroke-width:1px;stroke-linecap:butt;stroke-linejoin:miter;stroke-opacity:1" d="M 755.223,119.573 723.12,113.152 z" id="boundary" inkscape:connector-curvature="0" />
	<path style="fill:none;stroke:red;stroke-width:1px;stroke-linecap:butt;stroke-linejoin:miter;stroke-opacity:1" d="M 755.223,119.573 787.327,132.414 z" id="boundary" inkscape:connector-curvature="0" />
	<path style="fill:none;stroke:red;stroke-width:1px;stroke-linecap:butt;stroke-linejoin:miter;stroke-opacity:1" d="M 819.43,145.256 851.534,154.887 z" id="boundary" inkscape:connector-curvature="0" />
	<path style="fill:none;stroke:red;stroke-width:1px;stroke-linecap:butt;stroke-linejoin:miter;stroke-opacity:1" d="M 819.43,145.256 787.327,132.414 z" id="boundary" inkscape:connector-curvature="0" />
	<path style="fill:none;stroke:red;stroke-width:1px;stroke-linecap:butt;stroke-linejoin:miter;stroke-opacity:1" d="M 851.534,154.887 883.638,164.518 z" id="boundary" inkscape:connector-curvature="0" />
	<path style="fill:none;stroke:red;stroke-width:1px;stroke-linecap:butt;stroke-linejoin:miter;stroke-opacity:1" d="M 912.531,180.57 941.424,196.621 z" id="boundary" inkscape:connector-curvature="0" />
	<path style="fill:none;stroke:red;stroke-width:1px;stroke-linecap:butt;stroke-linejoin:miter;stroke-opacity:1" d="M 967.107,215.883 996,231.935 z" id="boundary" inkscape:connector-curvature="0" />
	<path style="fill:none;stroke:red;stroke-width:1px;stroke-linecap:butt;stroke-linejoin:miter;stroke-opacity:1" d="M 996,231.935 996,267.249 z" id="boundary" inkscape:connector-curvature="0" />
	<path style="fill:none;stroke:red;stroke-width:1px;stroke-linecap:butt;stroke-linejoin:miter;stroke-opacity:1" d="M 967.107,215.883 941.424,196.621 z" id="boundary" inkscape:connector-curvature="0" />
	<path style="fill:none;stroke:red;stroke-width:1px;stroke-linecap:butt;stroke-linejoin:miter;stroke-opacity:1" d="M 883.638,164.518 912.531,180.57 z" id="boundary" inkscape:connector-curvature="0" />
	<path style="fill:none;stroke:red;stroke-width:1px;stroke-linecap:butt;stroke-linejoin:miter;stroke-opacity:1" d="M 996,267.249 970.317,292.932 z" id="boundary" inkscape:connector-curvature="0" />
	<path style="fill:none;stroke:red;stroke-width:1px;stroke-linecap:butt;stroke-linejoin:miter;stroke-opacity:1" d="M 498.395,405.294 530.498,405.294 z" id="boundary" inkscape:connector-curvature="0" />
	<path style="fill:none;stroke:red;stroke-width:1px;stroke-linecap:butt;stroke-linejoin:miter;stroke-opacity:1" d="M 530.498,405.294 530.498,447.029 z" id="boundary" inkscape:connector-curvature="0" />
	<path style="fill:none;stroke:red;stroke-width:1px;stroke-linecap:butt;stroke-linejoin:miter;stroke-opacity:1" d="M 530.498,479.133 530.498,447.029 z" id="boundary" inkscape:connector-curvature="0" />
	<path style="fill:none;stroke:red;stroke-width:1px;stroke-linecap:butt;stroke-linejoin:miter;stroke-opacity:1" d="M 530.498,405.294 597.916,511.236 z" id="boundary" inkscape:connector-curvature="0" />
	<path style="fill:none;stroke:red;stroke-width:1px;stroke-linecap:butt;stroke-linejoin:miter;stroke-opacity:1" d="M 707.068,479.133 687.806,504.816 z" id="boundary" inkscape:connector-curvature="0" />
	<path style="fill:none;stroke:red;stroke-width:1px;stroke-linecap:butt;stroke-linejoin:miter;stroke-opacity:1" d="M 530.498,479.133 536.919,511.236 z" id="boundary" inkscape:connector-curvature="0" />
	<path style="fill:none;stroke:red;stroke-width:1px;stroke-linecap:butt;stroke-linejoin:miter;stroke-opacity:1" d="M 536.919,511.236 565.812,527.288 z" id="boundary" inkscape:connector-curvature="0" />
	<path style="fill:none;stroke:red;stroke-width:1px;stroke-linecap:butt;stroke-linejoin:miter;stroke-opacity:1" d="M 597.916,511.236 565.812,527.288 z" id="boundary" inkscape:connector-curvature="0" />
	<path style="fill:none;stroke:red;stroke-width:1px;stroke-linecap:butt;stroke-linejoin:miter;stroke-opacity:1" d="M 630.019,514.447 662.123,524.078 z" id="boundary" inkscape:connector-curvature="0" />
	<path style="fill:none;stroke:red;stroke-width:1px;stroke-linecap:butt;stroke-linejoin:miter;stroke-opacity:1" d="M 630.019,514.447 597.916,511.236 z" id="boundary" inkscape:connector-curvature="0" />
	<path style="fill:none;stroke:red;stroke-width:1px;stroke-linecap:butt;stroke-linejoin:miter;stroke-opacity:1" d="M 687.806,504.816 662.123,524.078 z" id="boundary" inkscape:connector-curvature="0" />
	<path style="fill:none;stroke:red;stroke-width:1px;stroke-linecap:butt;stroke-linejoin:miter;stroke-opacity:1" d="M 861.165,373.191 893.269,360.35 z" id="boundary" inkscape:connector-curvature="0" />
	<path style="fill:none;stroke:red;stroke-width:1px;stroke-linecap:butt;stroke-linejoin:miter;stroke-opacity:1" d="M 925.372,344.298 893.269,360.35 z" id="boundary" inkscape:connector-curvature="0" />
	<path style="fill:none;stroke:red;stroke-width:1px;stroke-linecap:butt;stroke-linejoin:miter;stroke-opacity:1" d="M 951.055,318.615 925.372,344.298 z" id="boundary" inkscape:connector-curvature="0" />
	<path style="fill:none;stroke:red;stroke-width:1px;stroke-linecap:butt;stroke-linejoin:miter;stroke-opacity:1" d="M 951.055,318.615 970.317,292.932 z" id="boundary" inkscape:connector-curvature="0" />
	<path style="fill:none;stroke:red;stroke-width:1px;stroke-linecap:butt;stroke-linejoin:miter;stroke-opacity:1" d="M 861.165,373.191 829.061,386.032 z" id="boundary" inkscape:connector-curvature="0" />
	<path style="fill:none;stroke:red;stroke-width:1px;stroke-linecap:butt;stroke-linejoin:miter;stroke-opacity:1" d="M 723.12,450.239 707.068,479.133 z" id="boundary" inkscape:connector-curvature="0" />
	<path style="fill:none;stroke:red;stroke-width:1px;stroke-linecap:butt;stroke-linejoin:miter;stroke-opacity:1" d="M 732.751,414.926 723.12,450.239 z" id="boundary" inkscape:connector-curvature="0" />
	<path style="fill:none;stroke:red;stroke-width:1px;stroke-linecap:butt;stroke-linejoin:miter;stroke-opacity:1" d="M 732.751,414.926 764.854,411.715 z" id="boundary" inkscape:connector-curvature="0" />
	<path style="fill:none;stroke:red;stroke-width:1px;stroke-linecap:butt;stroke-linejoin:miter;stroke-opacity:1" d="M 764.854,411.715 796.958,398.874 z" id="boundary" inkscape:connector-curvature="0" />
	<path style="fill:none;stroke:red;stroke-width:1px;stroke-linecap:butt;stroke-linejoin:miter;stroke-opacity:1" d="M 796.958,398.874 829.061,386.032 z" id="boundary" inkscape:connector-curvature="0" />
	<circle cx="4" cy="151.676" r="4" fill="#0" id="circle0"/>
	<circle cx="4" cy="363.56" r="4" fill="#0" id="circle1"/>
	<circle cx="10.4207" cy="183.78" r="4" fill="#0" id="circle2"/>
	<circle cx="16.8414" cy="325.036" r="4" fill="#0" id="circle3"/>
	<circle cx="20.0518" cy="215.883" r="4" fill="#0" id="circle4"/>
	<circle cx="23.2621" cy="247.987" r="4" fill="#0" id="circle5"/>
	<circle cx="23.2621" cy="280.091" r="4" fill="#0" id="circle6"/>
	<circle cx="29.6828" cy="386.032" r="4" fill="#0" id="circle7"/>
	<circle cx="36.1036" cy="138.835" r="4" fill="#0" id="circle8"/>
	<circle cx="61.7864" cy="386.032" r="4" fill="#0" id="circle9"/>
	<circle cx="68.2071" cy="148.466" r="4" fill="#0" id="circle10"/>
	<circle cx="93.89" cy="373.191" r="4" fill="#0" id="circle11"/>
	<circle cx="100.311" cy="161.307" r="4" fill="#0" id="circle12"/>
	<circle cx="122.783" cy="357.139" r="4" fill="#0" id="circle13"/>
	<circle cx="129.204" cy="177.359" r="4" fill="#0" id="circle14"/>
	<circle cx="151.676" cy="341.087" r="4" fill="#0" id="circle15"/>
	<circle cx="161.307" cy="190.201" r="4" fill="#0" id="circle16"/>
	<circle cx="177.359" cy="321.825" r="4" fill="#0" id="circle17"/>
	<circle cx="186.99" cy="209.463" r="4" fill="#0" id="circle18"/>
	<circle cx="209.463" cy="315.405" r="4" fill="#0" id="circle19"/>
	<circle cx="219.094" cy="193.411" r="4" fill="#0" id="circle20"/>
	<circle cx="222.304" cy="347.508" r="4" fill="#0" id="circle21"/>
	<circle cx="235.146" cy="379.612" r="4" fill="#0" id="circle22"/>
	<circle cx="238.356" cy="167.728" r="4" fill="#0" id="circle23"/>
	<circle cx="247.987" cy="411.715" r="4" fill="#0" id="circle24"/>
	<circle cx="257.618" cy="142.045" r="4" fill="#0" id="circle25"/>
	<circle cx="280.091" cy="418.136" r="4" fill="#0" id="circle26"/>
	<circle cx="283.301" cy="116.362" r="4" fill="#0" id="circle27"/>
	<circle cx="308.984" cy="97.1003" r="4" fill="#0" id="circle28"/>
	<circle cx="312.194" cy="418.136" r="4" fill="#0" id="circle29"/>
	<circle cx="341.087" cy="87.4693" r="4" fill="#0" id="circle30"/>
	<circle cx="344.298" cy="411.715" r="4" fill="#0" id="circle31"/>
	<circle cx="369.981" cy="392.453" r="4" fill="#0" id="circle32"/>
	<circle cx="373.191" cy="100.311" r="4" fill="#0" id="circle33"/>
	<circle cx="402.084" cy="395.663" r="4" fill="#0" id="circle34"/>
	<circle cx="405.294" cy="113.152" r="4" fill="#0" id="circle35"/>
	<circle cx="434.188" cy="398.874" r="4" fill="#0" id="circle36"/>
	<circle cx="437.398" cy="103.521" r="4" fill="#0" id="circle37"/>
	<circle cx="463.081" cy="81.0485" r="4" fill="#0" id="circle38"/>
	<circle cx="466.291" cy="398.874" r="4" fill="#0" id="circle39"/>
	<circle cx="495.184" cy="64.9968" r="4" fill="#0" id="circle40"/>
	<circle cx="498.395" cy="405.294" r="4" fill="#0" id="circle41"/>
	<circle cx="524.078" cy="48.945" r="4" fill="#0" id="circle42"/>
	<circle cx="530.498" cy="405.294" r="4" fill="#0" id="circle43"/>
	<circle cx="530.498" cy="447.029" r="4" fill="#0" id="circle44"/>
	<circle cx="530.498" cy="479.133" r="4" fill="#0" id="circle45"/>
	<circle cx="536.919" cy="511.236" r="4" fill="#0" id="circle46"/>
	<circle cx="549.761" cy="29.6828" r="4" fill="#0" id="circle47"/>
	<circle cx="565.812" cy="527.288" r="4" fill="#0" id="circle48"/>
	<circle cx="581.864" cy="23.2621" r="4" fill="#0" id="circle49"/>
	<circle cx="597.916" cy="511.236" r="4" fill="#0" id="circle50"/>
	<circle cx="613.968" cy="10.4207" r="4" fill="#0" id="circle51"/>
	<circle cx="630.019" cy="514.447" r="4" fill="#0" id="circle52"/>
	<circle cx="646.071" cy="4" r="4" fill="#0" id="circle53"/>
	<circle cx="662.123" cy="524.078" r="4" fill="#0" id="circle54"/>
	<circle cx="668.544" cy="29.6828" r="4" fill="#0" id="circle55"/>
	<circle cx="684.595" cy="58.5761" r="4" fill="#0" id="circle56"/>
	<circle cx="687.806" cy="504.816" r="4" fill="#0" id="circle57"/>
	<circle cx="707.068" cy="84.2589" r="4" fill="#0" id="circle58"/>
	<circle cx="707.068" cy="479.133" r="4" fill="#0" id="circle59"/>
	<circle cx="723.12" cy="113.152" r="4" fill="#0" id="circle60"/>
	<circle cx="723.12" cy="450.239" r="4" fill="#0" id="circle61"/>
	<circle cx="732.751" cy="414.926" r="4" fill="#0" id="circle62"/>
	<circle cx="755.223" cy="119.573" r="4" fill="#0" id="circle63"/>
	<circle cx="764.854" cy="411.715" r="4" fill="#0" id="circle64"/>
	<circle cx="787.327" cy="132.414" r="4" fill="#0" id="circle65"/>
	<circle cx="796.958" cy="398.874" r="4" fill="#0" id="circle66"/>
	<circle cx="819.43" cy="145.256" r="4" fill="#0" id="circle67"/>
	<circle cx="829.061" cy="386.032" r="4" fill="#0" id="circle68"/>
	<circle cx="851.534" cy="154.887" r="4" fill="#0" id="circle69"/>
	<circle cx="861.165" cy="373.191" r="4" fill="#0" id="circle70"/>
	<circle cx="883.638" cy="164.518" r="4" fill="#0" id="circle71"/>
	<circle cx="893.269" cy="360.35" r="4" fill="#0" id="circle72"/>
	<circle cx="912.531" cy="180.57" r="4" fill="#0" id="circle73"/>
	<circle cx="925.372" cy="344.298" r="4" fill="#0" id="circle74"/>
	<circle cx="941.424" cy="196.621" r="4" fill="#0" id="circle75"/>
	<circle cx="951.055" cy="318.615" r="4" fill="#0" id="circle76"/>
	<circle cx="967.107" cy="215.883" r="4" fill="#0" id="circle77"/>
	<circle cx="970.317" cy="292.932" r="4" fill="#0" id="circle78"/>
	<circle cx="996" cy="231.935" r="4" fill="#0" id="circle79"/>
	<circle cx="996" cy="267.249" r="4" fill="#0" id="circle80"/>
	</g>
</svg>