<?xml version="1.0" encoding="UTF-8" standalone="no"?>
<!-- Created with CurveBenchmark -->
<svg
	xmlns:dc="http://purl.org/dc/elements/1.1/"
	xmlns:cc="http://creativecommons.org/ns#"
	xmlns:rdf="http://www.w3.org/1999/02/22-rdf-syntax-ns#"
	xmlns:svg="http://www.w3.org/2000/svg"
	xmlns="http://www.w3.org/2000/svg"
	xmlns:sodipodi="http://sodipodi.sourceforge.net/DTD/sodipodi-0.dtd"
	xmlns:inkscape="http://www.inkscape.org/namespaces/inkscape"
	width="1000"
	height="1000"
	id="svg2"
	version="1.1"
	sodipodi:docname="manifold/nncrust-stef09.png.txt">
<defs
	id="defs4" />
<metadata
	id="metadata7">
	<rdf:RDF>
		<cc:Work
			rdf:about="">
			<dc:format>image/svg+xml</dc:format>
			<dc:type
				rdf:resource="http://purl.org/dc/dcmitype/StillImage" />
			<dc:title></dc:title>
		</cc:Work>
	</rdf:RDF>
</metadata>
<g
	inkscape:label="Layer 1"
	inkscape:groupmode="layer"
	id="layer1">
	<path style="fill:none;stroke:red;stroke-width:1px;stroke-linecap:butt;stroke-linejoin:miter;stroke-opacity:1" d="M 164,39.0476 171.619,23.8095 z" id="boundary" inkscape:connector-curvature="0" />
	<path style="fill:none;stroke:red;stroke-width:1px;stroke-linecap:butt;stroke-linejoin:miter;stroke-opacity:1" d="M 164,54.2857 164,39.0476 z" id="boundary" inkscape:connector-curvature="0" />
	<path style="fill:none;stroke:red;stroke-width:1px;stroke-linecap:butt;stroke-linejoin:miter;stroke-opacity:1" d="M 164,69.5238 171.619,83.2381 z" id="boundary" inkscape:connector-curvature="0" />
	<path style="fill:none;stroke:red;stroke-width:1px;stroke-linecap:butt;stroke-linejoin:miter;stroke-opacity:1" d="M 164,69.5238 164,54.2857 z" id="boundary" inkscape:connector-curvature="0" />
	<path style="fill:none;stroke:red;stroke-width:1px;stroke-linecap:butt;stroke-linejoin:miter;stroke-opacity:1" d="M 192.952,104.571 179.238,96.9524 z" id="boundary" inkscape:connector-curvature="0" />
	<path style="fill:none;stroke:red;stroke-width:1px;stroke-linecap:butt;stroke-linejoin:miter;stroke-opacity:1" d="M 179.238,96.9524 171.619,83.2381 z" id="boundary" inkscape:connector-curvature="0" />
	<path style="fill:none;stroke:red;stroke-width:1px;stroke-linecap:butt;stroke-linejoin:miter;stroke-opacity:1" d="M 171.619,23.8095 183.81,11.619 z" id="boundary" inkscape:connector-curvature="0" />
	<path style="fill:none;stroke:red;stroke-width:1px;stroke-linecap:butt;stroke-linejoin:miter;stroke-opacity:1" d="M 164,69.5238 4,564.762 z" id="boundary" inkscape:connector-curvature="0" />
	<path style="fill:none;stroke:red;stroke-width:1px;stroke-linecap:butt;stroke-linejoin:miter;stroke-opacity:1" d="M 199.048,4 214.286,4 z" id="boundary" inkscape:connector-curvature="0" />
	<path style="fill:none;stroke:red;stroke-width:1px;stroke-linecap:butt;stroke-linejoin:miter;stroke-opacity:1" d="M 183.81,11.619 199.048,4 z" id="boundary" inkscape:connector-curvature="0" />
	<path style="fill:none;stroke:red;stroke-width:1px;stroke-linecap:butt;stroke-linejoin:miter;stroke-opacity:1" d="M 214.286,4 229.524,4 z" id="boundary" inkscape:connector-curvature="0" />
	<path style="fill:none;stroke:red;stroke-width:1px;stroke-linecap:butt;stroke-linejoin:miter;stroke-opacity:1" d="M 229.524,4 243.238,11.619 z" id="boundary" inkscape:connector-curvature="0" />
	<path style="fill:none;stroke:red;stroke-width:1px;stroke-linecap:butt;stroke-linejoin:miter;stroke-opacity:1" d="M 256.952,19.2381 243.238,11.619 z" id="boundary" inkscape:connector-curvature="0" />
	<path style="fill:none;stroke:red;stroke-width:1px;stroke-linecap:butt;stroke-linejoin:miter;stroke-opacity:1" d="M 192.952,104.571 202.095,116.762 z" id="boundary" inkscape:connector-curvature="0" />
	<path style="fill:none;stroke:red;stroke-width:1px;stroke-linecap:butt;stroke-linejoin:miter;stroke-opacity:1" d="M 202.095,116.762 203.619,132 z" id="boundary" inkscape:connector-curvature="0" />
	<path style="fill:none;stroke:red;stroke-width:1px;stroke-linecap:butt;stroke-linejoin:miter;stroke-opacity:1" d="M 211.238,145.714 203.619,132 z" id="boundary" inkscape:connector-curvature="0" />
	<path style="fill:none;stroke:red;stroke-width:1px;stroke-linecap:butt;stroke-linejoin:miter;stroke-opacity:1" d="M 209.714,351.429 197.524,362.095 z" id="boundary" inkscape:connector-curvature="0" />
	<path style="fill:none;stroke:red;stroke-width:1px;stroke-linecap:butt;stroke-linejoin:miter;stroke-opacity:1" d="M 197.524,362.095 183.81,369.714 z" id="boundary" inkscape:connector-curvature="0" />
	<path style="fill:none;stroke:red;stroke-width:1px;stroke-linecap:butt;stroke-linejoin:miter;stroke-opacity:1" d="M 176.19,384.952 183.81,369.714 z" id="boundary" inkscape:connector-curvature="0" />
	<path style="fill:none;stroke:red;stroke-width:1px;stroke-linecap:butt;stroke-linejoin:miter;stroke-opacity:1" d="M 235.619,165.524 221.905,157.905 z" id="boundary" inkscape:connector-curvature="0" />
	<path style="fill:none;stroke:red;stroke-width:1px;stroke-linecap:butt;stroke-linejoin:miter;stroke-opacity:1" d="M 221.905,157.905 211.238,145.714 z" id="boundary" inkscape:connector-curvature="0" />
	<path style="fill:none;stroke:red;stroke-width:1px;stroke-linecap:butt;stroke-linejoin:miter;stroke-opacity:1" d="M 224.952,343.81 209.714,351.429 z" id="boundary" inkscape:connector-curvature="0" />
	<path style="fill:none;stroke:red;stroke-width:1px;stroke-linecap:butt;stroke-linejoin:miter;stroke-opacity:1" d="M 240.19,336.19 224.952,343.81 z" id="boundary" inkscape:connector-curvature="0" />
	<path style="fill:none;stroke:red;stroke-width:1px;stroke-linecap:butt;stroke-linejoin:miter;stroke-opacity:1" d="M 255.429,328.571 240.19,336.19 z" id="boundary" inkscape:connector-curvature="0" />
	<path style="fill:none;stroke:red;stroke-width:1px;stroke-linecap:butt;stroke-linejoin:miter;stroke-opacity:1" d="M 235.619,165.524 249.333,173.143 z" id="boundary" inkscape:connector-curvature="0" />
	<path style="fill:none;stroke:red;stroke-width:1px;stroke-linecap:butt;stroke-linejoin:miter;stroke-opacity:1" d="M 255.429,328.571 270.667,328.571 z" id="boundary" inkscape:connector-curvature="0" />
	<path style="fill:none;stroke:red;stroke-width:1px;stroke-linecap:butt;stroke-linejoin:miter;stroke-opacity:1" d="M 256.952,19.2381 264.571,32.9524 z" id="boundary" inkscape:connector-curvature="0" />
	<path style="fill:none;stroke:red;stroke-width:1px;stroke-linecap:butt;stroke-linejoin:miter;stroke-opacity:1" d="M 287.429,49.7143 272.19,46.6667 z" id="boundary" inkscape:connector-curvature="0" />
	<path style="fill:none;stroke:red;stroke-width:1px;stroke-linecap:butt;stroke-linejoin:miter;stroke-opacity:1" d="M 272.19,46.6667 264.571,32.9524 z" id="boundary" inkscape:connector-curvature="0" />
	<path style="fill:none;stroke:red;stroke-width:1px;stroke-linecap:butt;stroke-linejoin:miter;stroke-opacity:1" d="M 302.667,49.7143 287.429,49.7143 z" id="boundary" inkscape:connector-curvature="0" />
	<path style="fill:none;stroke:red;stroke-width:1px;stroke-linecap:butt;stroke-linejoin:miter;stroke-opacity:1" d="M 263.048,180.762 249.333,173.143 z" id="boundary" inkscape:connector-curvature="0" />
	<path style="fill:none;stroke:red;stroke-width:1px;stroke-linecap:butt;stroke-linejoin:miter;stroke-opacity:1" d="M 284.381,203.619 272.19,192.952 z" id="boundary" inkscape:connector-curvature="0" />
	<path style="fill:none;stroke:red;stroke-width:1px;stroke-linecap:butt;stroke-linejoin:miter;stroke-opacity:1" d="M 272.19,192.952 263.048,180.762 z" id="boundary" inkscape:connector-curvature="0" />
	<path style="fill:none;stroke:red;stroke-width:1px;stroke-linecap:butt;stroke-linejoin:miter;stroke-opacity:1" d="M 317.905,54.2857 331.619,61.9048 z" id="boundary" inkscape:connector-curvature="0" />
	<path style="fill:none;stroke:red;stroke-width:1px;stroke-linecap:butt;stroke-linejoin:miter;stroke-opacity:1" d="M 346.857,68 331.619,61.9048 z" id="boundary" inkscape:connector-curvature="0" />
	<path style="fill:none;stroke:red;stroke-width:1px;stroke-linecap:butt;stroke-linejoin:miter;stroke-opacity:1" d="M 298.095,211.238 284.381,203.619 z" id="boundary" inkscape:connector-curvature="0" />
	<path style="fill:none;stroke:red;stroke-width:1px;stroke-linecap:butt;stroke-linejoin:miter;stroke-opacity:1" d="M 360.571,75.619 368.19,89.3333 z" id="boundary" inkscape:connector-curvature="0" />
	<path style="fill:none;stroke:red;stroke-width:1px;stroke-linecap:butt;stroke-linejoin:miter;stroke-opacity:1" d="M 346.857,68 360.571,75.619 z" id="boundary" inkscape:connector-curvature="0" />
	<path style="fill:none;stroke:red;stroke-width:1px;stroke-linecap:butt;stroke-linejoin:miter;stroke-opacity:1" d="M 378.857,101.524 368.19,89.3333 z" id="boundary" inkscape:connector-curvature="0" />
	<path style="fill:none;stroke:red;stroke-width:1px;stroke-linecap:butt;stroke-linejoin:miter;stroke-opacity:1" d="M 302.667,49.7143 317.905,54.2857 z" id="boundary" inkscape:connector-curvature="0" />
	<path style="fill:none;stroke:red;stroke-width:1px;stroke-linecap:butt;stroke-linejoin:miter;stroke-opacity:1" d="M 298.095,211.238 305.714,224.952 z" id="boundary" inkscape:connector-curvature="0" />
	<path style="fill:none;stroke:red;stroke-width:1px;stroke-linecap:butt;stroke-linejoin:miter;stroke-opacity:1" d="M 305.714,224.952 316.381,237.143 z" id="boundary" inkscape:connector-curvature="0" />
	<path style="fill:none;stroke:red;stroke-width:1px;stroke-linecap:butt;stroke-linejoin:miter;stroke-opacity:1" d="M 282.857,316.381 270.667,328.571 z" id="boundary" inkscape:connector-curvature="0" />
	<path style="fill:none;stroke:red;stroke-width:1px;stroke-linecap:butt;stroke-linejoin:miter;stroke-opacity:1" d="M 331.619,241.714 316.381,237.143 z" id="boundary" inkscape:connector-curvature="0" />
	<path style="fill:none;stroke:red;stroke-width:1px;stroke-linecap:butt;stroke-linejoin:miter;stroke-opacity:1" d="M 298.095,316.381 282.857,316.381 z" id="boundary" inkscape:connector-curvature="0" />
	<path style="fill:none;stroke:red;stroke-width:1px;stroke-linecap:butt;stroke-linejoin:miter;stroke-opacity:1" d="M 320.952,301.143 313.333,316.381 z" id="boundary" inkscape:connector-curvature="0" />
	<path style="fill:none;stroke:red;stroke-width:1px;stroke-linecap:butt;stroke-linejoin:miter;stroke-opacity:1" d="M 313.333,316.381 298.095,316.381 z" id="boundary" inkscape:connector-curvature="0" />
	<path style="fill:none;stroke:red;stroke-width:1px;stroke-linecap:butt;stroke-linejoin:miter;stroke-opacity:1" d="M 343.81,270.667 336.19,256.952 z" id="boundary" inkscape:connector-curvature="0" />
	<path style="fill:none;stroke:red;stroke-width:1px;stroke-linecap:butt;stroke-linejoin:miter;stroke-opacity:1" d="M 336.19,256.952 331.619,241.714 z" id="boundary" inkscape:connector-curvature="0" />
	<path style="fill:none;stroke:red;stroke-width:1px;stroke-linecap:butt;stroke-linejoin:miter;stroke-opacity:1" d="M 354.476,282.857 343.81,270.667 z" id="boundary" inkscape:connector-curvature="0" />
	<path style="fill:none;stroke:red;stroke-width:1px;stroke-linecap:butt;stroke-linejoin:miter;stroke-opacity:1" d="M 320.952,301.143 336.19,301.143 z" id="boundary" inkscape:connector-curvature="0" />
	<path style="fill:none;stroke:red;stroke-width:1px;stroke-linecap:butt;stroke-linejoin:miter;stroke-opacity:1" d="M 354.476,282.857 351.429,301.143 z" id="boundary" inkscape:connector-curvature="0" />
	<path style="fill:none;stroke:red;stroke-width:1px;stroke-linecap:butt;stroke-linejoin:miter;stroke-opacity:1" d="M 351.429,301.143 336.19,301.143 z" id="boundary" inkscape:connector-curvature="0" />
	<path style="fill:none;stroke:red;stroke-width:1px;stroke-linecap:butt;stroke-linejoin:miter;stroke-opacity:1" d="M 46.6667,552.571 31.4286,552.571 z" id="boundary" inkscape:connector-curvature="0" />
	<path style="fill:none;stroke:red;stroke-width:1px;stroke-linecap:butt;stroke-linejoin:miter;stroke-opacity:1" d="M 31.4286,552.571 16.1905,552.571 z" id="boundary" inkscape:connector-curvature="0" />
	<path style="fill:none;stroke:red;stroke-width:1px;stroke-linecap:butt;stroke-linejoin:miter;stroke-opacity:1" d="M 4,564.762 16.1905,552.571 z" id="boundary" inkscape:connector-curvature="0" />
	<path style="fill:none;stroke:red;stroke-width:1px;stroke-linecap:butt;stroke-linejoin:miter;stroke-opacity:1" d="M 16.1905,575.429 4,564.762 z" id="boundary" inkscape:connector-curvature="0" />
	<path style="fill:none;stroke:red;stroke-width:1px;stroke-linecap:butt;stroke-linejoin:miter;stroke-opacity:1" d="M 61.9048,552.571 46.6667,552.571 z" id="boundary" inkscape:connector-curvature="0" />
	<path style="fill:none;stroke:red;stroke-width:1px;stroke-linecap:butt;stroke-linejoin:miter;stroke-opacity:1" d="M 77.1429,544.952 61.9048,552.571 z" id="boundary" inkscape:connector-curvature="0" />
	<path style="fill:none;stroke:red;stroke-width:1px;stroke-linecap:butt;stroke-linejoin:miter;stroke-opacity:1" d="M 77.1429,544.952 92.381,544.952 z" id="boundary" inkscape:connector-curvature="0" />
	<path style="fill:none;stroke:red;stroke-width:1px;stroke-linecap:butt;stroke-linejoin:miter;stroke-opacity:1" d="M 103.048,526.667 110.667,511.429 z" id="boundary" inkscape:connector-curvature="0" />
	<path style="fill:none;stroke:red;stroke-width:1px;stroke-linecap:butt;stroke-linejoin:miter;stroke-opacity:1" d="M 125.905,473.333 118.286,488.571 z" id="boundary" inkscape:connector-curvature="0" />
	<path style="fill:none;stroke:red;stroke-width:1px;stroke-linecap:butt;stroke-linejoin:miter;stroke-opacity:1" d="M 133.524,458.095 125.905,473.333 z" id="boundary" inkscape:connector-curvature="0" />
	<path style="fill:none;stroke:red;stroke-width:1px;stroke-linecap:butt;stroke-linejoin:miter;stroke-opacity:1" d="M 110.667,511.429 118.286,488.571 z" id="boundary" inkscape:connector-curvature="0" />
	<path style="fill:none;stroke:red;stroke-width:1px;stroke-linecap:butt;stroke-linejoin:miter;stroke-opacity:1" d="M 103.048,526.667 92.381,544.952 z" id="boundary" inkscape:connector-curvature="0" />
	<path style="fill:none;stroke:red;stroke-width:1px;stroke-linecap:butt;stroke-linejoin:miter;stroke-opacity:1" d="M 150.286,569.333 135.048,576.952 z" id="boundary" inkscape:connector-curvature="0" />
	<path style="fill:none;stroke:red;stroke-width:1px;stroke-linecap:butt;stroke-linejoin:miter;stroke-opacity:1" d="M 141.143,442.857 133.524,458.095 z" id="boundary" inkscape:connector-curvature="0" />
	<path style="fill:none;stroke:red;stroke-width:1px;stroke-linecap:butt;stroke-linejoin:miter;stroke-opacity:1" d="M 37.5238,596.762 22.2857,590.667 z" id="boundary" inkscape:connector-curvature="0" />
	<path style="fill:none;stroke:red;stroke-width:1px;stroke-linecap:butt;stroke-linejoin:miter;stroke-opacity:1" d="M 22.2857,590.667 16.1905,575.429 z" id="boundary" inkscape:connector-curvature="0" />
	<path style="fill:none;stroke:red;stroke-width:1px;stroke-linecap:butt;stroke-linejoin:miter;stroke-opacity:1" d="M 49.7143,607.429 37.5238,596.762 z" id="boundary" inkscape:connector-curvature="0" />
	<path style="fill:none;stroke:red;stroke-width:1px;stroke-linecap:butt;stroke-linejoin:miter;stroke-opacity:1" d="M 49.7143,607.429 63.4286,615.048 z" id="boundary" inkscape:connector-curvature="0" />
	<path style="fill:none;stroke:red;stroke-width:1px;stroke-linecap:butt;stroke-linejoin:miter;stroke-opacity:1" d="M 63.4286,615.048 72.5714,627.238 z" id="boundary" inkscape:connector-curvature="0" />
	<path style="fill:none;stroke:red;stroke-width:1px;stroke-linecap:butt;stroke-linejoin:miter;stroke-opacity:1" d="M 72.5714,627.238 80.1905,640.952 z" id="boundary" inkscape:connector-curvature="0" />
	<path style="fill:none;stroke:red;stroke-width:1px;stroke-linecap:butt;stroke-linejoin:miter;stroke-opacity:1" d="M 119.81,630.286 119.81,615.048 z" id="boundary" inkscape:connector-curvature="0" />
	<path style="fill:none;stroke:red;stroke-width:1px;stroke-linecap:butt;stroke-linejoin:miter;stroke-opacity:1" d="M 119.81,615.048 127.429,592.19 z" id="boundary" inkscape:connector-curvature="0" />
	<path style="fill:none;stroke:red;stroke-width:1px;stroke-linecap:butt;stroke-linejoin:miter;stroke-opacity:1" d="M 80.1905,640.952 92.381,651.619 z" id="boundary" inkscape:connector-curvature="0" />
	<path style="fill:none;stroke:red;stroke-width:1px;stroke-linecap:butt;stroke-linejoin:miter;stroke-opacity:1" d="M 107.619,651.619 119.81,630.286 z" id="boundary" inkscape:connector-curvature="0" />
	<path style="fill:none;stroke:red;stroke-width:1px;stroke-linecap:butt;stroke-linejoin:miter;stroke-opacity:1" d="M 107.619,651.619 92.381,651.619 z" id="boundary" inkscape:connector-curvature="0" />
	<path style="fill:none;stroke:red;stroke-width:1px;stroke-linecap:butt;stroke-linejoin:miter;stroke-opacity:1" d="M 127.429,592.19 135.048,576.952 z" id="boundary" inkscape:connector-curvature="0" />
	<path style="fill:none;stroke:red;stroke-width:1px;stroke-linecap:butt;stroke-linejoin:miter;stroke-opacity:1" d="M 168.571,400.19 176.19,384.952 z" id="boundary" inkscape:connector-curvature="0" />
	<path style="fill:none;stroke:red;stroke-width:1px;stroke-linecap:butt;stroke-linejoin:miter;stroke-opacity:1" d="M 272.19,401.714 256.952,401.714 z" id="boundary" inkscape:connector-curvature="0" />
	<path style="fill:none;stroke:red;stroke-width:1px;stroke-linecap:butt;stroke-linejoin:miter;stroke-opacity:1" d="M 285.905,394.095 272.19,401.714 z" id="boundary" inkscape:connector-curvature="0" />
	<path style="fill:none;stroke:red;stroke-width:1px;stroke-linecap:butt;stroke-linejoin:miter;stroke-opacity:1" d="M 160.952,415.429 168.571,400.19 z" id="boundary" inkscape:connector-curvature="0" />
	<path style="fill:none;stroke:red;stroke-width:1px;stroke-linecap:butt;stroke-linejoin:miter;stroke-opacity:1" d="M 249.333,416.952 256.952,401.714 z" id="boundary" inkscape:connector-curvature="0" />
	<path style="fill:none;stroke:red;stroke-width:1px;stroke-linecap:butt;stroke-linejoin:miter;stroke-opacity:1" d="M 241.714,432.19 249.333,416.952 z" id="boundary" inkscape:connector-curvature="0" />
	<path style="fill:none;stroke:red;stroke-width:1px;stroke-linecap:butt;stroke-linejoin:miter;stroke-opacity:1" d="M 343.81,401.714 330.095,394.095 z" id="boundary" inkscape:connector-curvature="0" />
	<path style="fill:none;stroke:red;stroke-width:1px;stroke-linecap:butt;stroke-linejoin:miter;stroke-opacity:1" d="M 301.143,397.143 285.905,394.095 z" id="boundary" inkscape:connector-curvature="0" />
	<path style="fill:none;stroke:red;stroke-width:1px;stroke-linecap:butt;stroke-linejoin:miter;stroke-opacity:1" d="M 301.143,397.143 316.381,401.714 z" id="boundary" inkscape:connector-curvature="0" />
	<path style="fill:none;stroke:red;stroke-width:1px;stroke-linecap:butt;stroke-linejoin:miter;stroke-opacity:1" d="M 330.095,394.095 316.381,401.714 z" id="boundary" inkscape:connector-curvature="0" />
	<path style="fill:none;stroke:red;stroke-width:1px;stroke-linecap:butt;stroke-linejoin:miter;stroke-opacity:1" d="M 371.238,386.476 359.048,400.19 z" id="boundary" inkscape:connector-curvature="0" />
	<path style="fill:none;stroke:red;stroke-width:1px;stroke-linecap:butt;stroke-linejoin:miter;stroke-opacity:1" d="M 359.048,400.19 343.81,401.714 z" id="boundary" inkscape:connector-curvature="0" />
	<path style="fill:none;stroke:red;stroke-width:1px;stroke-linecap:butt;stroke-linejoin:miter;stroke-opacity:1" d="M 371.238,386.476 386.476,386.476 z" id="boundary" inkscape:connector-curvature="0" />
	<path style="fill:none;stroke:red;stroke-width:1px;stroke-linecap:butt;stroke-linejoin:miter;stroke-opacity:1" d="M 211.238,508.381 203.619,531.238 z" id="boundary" inkscape:connector-curvature="0" />
	<path style="fill:none;stroke:red;stroke-width:1px;stroke-linecap:butt;stroke-linejoin:miter;stroke-opacity:1" d="M 153.333,430.667 141.143,442.857 z" id="boundary" inkscape:connector-curvature="0" />
	<path style="fill:none;stroke:red;stroke-width:1px;stroke-linecap:butt;stroke-linejoin:miter;stroke-opacity:1" d="M 160.952,415.429 153.333,430.667 z" id="boundary" inkscape:connector-curvature="0" />
	<path style="fill:none;stroke:red;stroke-width:1px;stroke-linecap:butt;stroke-linejoin:miter;stroke-opacity:1" d="M 191.429,544.952 177.714,554.095 z" id="boundary" inkscape:connector-curvature="0" />
	<path style="fill:none;stroke:red;stroke-width:1px;stroke-linecap:butt;stroke-linejoin:miter;stroke-opacity:1" d="M 150.286,569.333 162.476,558.667 z" id="boundary" inkscape:connector-curvature="0" />
	<path style="fill:none;stroke:red;stroke-width:1px;stroke-linecap:butt;stroke-linejoin:miter;stroke-opacity:1" d="M 162.476,558.667 177.714,554.095 z" id="boundary" inkscape:connector-curvature="0" />
	<path style="fill:none;stroke:red;stroke-width:1px;stroke-linecap:butt;stroke-linejoin:miter;stroke-opacity:1" d="M 241.714,432.19 238.667,452 z" id="boundary" inkscape:connector-curvature="0" />
	<path style="fill:none;stroke:red;stroke-width:1px;stroke-linecap:butt;stroke-linejoin:miter;stroke-opacity:1" d="M 238.667,452 226.476,462.667 z" id="boundary" inkscape:connector-curvature="0" />
	<path style="fill:none;stroke:red;stroke-width:1px;stroke-linecap:butt;stroke-linejoin:miter;stroke-opacity:1" d="M 226.476,477.905 226.476,462.667 z" id="boundary" inkscape:connector-curvature="0" />
	<path style="fill:none;stroke:red;stroke-width:1px;stroke-linecap:butt;stroke-linejoin:miter;stroke-opacity:1" d="M 211.238,508.381 218.857,493.143 z" id="boundary" inkscape:connector-curvature="0" />
	<path style="fill:none;stroke:red;stroke-width:1px;stroke-linecap:butt;stroke-linejoin:miter;stroke-opacity:1" d="M 203.619,531.238 191.429,544.952 z" id="boundary" inkscape:connector-curvature="0" />
	<path style="fill:none;stroke:red;stroke-width:1px;stroke-linecap:butt;stroke-linejoin:miter;stroke-opacity:1" d="M 218.857,493.143 226.476,477.905 z" id="boundary" inkscape:connector-curvature="0" />
	<path style="fill:none;stroke:red;stroke-width:1px;stroke-linecap:butt;stroke-linejoin:miter;stroke-opacity:1" d="M 391.048,110.667 378.857,101.524 z" id="boundary" inkscape:connector-curvature="0" />
	<path style="fill:none;stroke:red;stroke-width:1px;stroke-linecap:butt;stroke-linejoin:miter;stroke-opacity:1" d="M 404.762,118.286 391.048,110.667 z" id="boundary" inkscape:connector-curvature="0" />
	<path style="fill:none;stroke:red;stroke-width:1px;stroke-linecap:butt;stroke-linejoin:miter;stroke-opacity:1" d="M 404.762,118.286 415.429,130.476 z" id="boundary" inkscape:connector-curvature="0" />
	<path style="fill:none;stroke:red;stroke-width:1px;stroke-linecap:butt;stroke-linejoin:miter;stroke-opacity:1" d="M 415.429,130.476 430.667,136.571 z" id="boundary" inkscape:connector-curvature="0" />
	<path style="fill:none;stroke:red;stroke-width:1px;stroke-linecap:butt;stroke-linejoin:miter;stroke-opacity:1" d="M 430.667,136.571 439.81,148.762 z" id="boundary" inkscape:connector-curvature="0" />
	<path style="fill:none;stroke:red;stroke-width:1px;stroke-linecap:butt;stroke-linejoin:miter;stroke-opacity:1" d="M 452,157.905 439.81,148.762 z" id="boundary" inkscape:connector-curvature="0" />
	<path style="fill:none;stroke:red;stroke-width:1px;stroke-linecap:butt;stroke-linejoin:miter;stroke-opacity:1" d="M 462.667,170.095 470.286,183.81 z" id="boundary" inkscape:connector-curvature="0" />
	<path style="fill:none;stroke:red;stroke-width:1px;stroke-linecap:butt;stroke-linejoin:miter;stroke-opacity:1" d="M 462.667,170.095 452,157.905 z" id="boundary" inkscape:connector-curvature="0" />
	<path style="fill:none;stroke:red;stroke-width:1px;stroke-linecap:butt;stroke-linejoin:miter;stroke-opacity:1" d="M 484,191.429 470.286,183.81 z" id="boundary" inkscape:connector-curvature="0" />
	<path style="fill:none;stroke:red;stroke-width:1px;stroke-linecap:butt;stroke-linejoin:miter;stroke-opacity:1" d="M 493.143,203.619 500.762,217.333 z" id="boundary" inkscape:connector-curvature="0" />
	<path style="fill:none;stroke:red;stroke-width:1px;stroke-linecap:butt;stroke-linejoin:miter;stroke-opacity:1" d="M 484,191.429 493.143,203.619 z" id="boundary" inkscape:connector-curvature="0" />
	<path style="fill:none;stroke:red;stroke-width:1px;stroke-linecap:butt;stroke-linejoin:miter;stroke-opacity:1" d="M 500.762,217.333 508.381,231.048 z" id="boundary" inkscape:connector-curvature="0" />
	<path style="fill:none;stroke:red;stroke-width:1px;stroke-linecap:butt;stroke-linejoin:miter;stroke-opacity:1" d="M 430.667,374.286 415.429,374.286 z" id="boundary" inkscape:connector-curvature="0" />
	<path style="fill:none;stroke:red;stroke-width:1px;stroke-linecap:butt;stroke-linejoin:miter;stroke-opacity:1" d="M 445.905,371.238 459.619,363.619 z" id="boundary" inkscape:connector-curvature="0" />
	<path style="fill:none;stroke:red;stroke-width:1px;stroke-linecap:butt;stroke-linejoin:miter;stroke-opacity:1" d="M 459.619,363.619 474.857,363.619 z" id="boundary" inkscape:connector-curvature="0" />
	<path style="fill:none;stroke:red;stroke-width:1px;stroke-linecap:butt;stroke-linejoin:miter;stroke-opacity:1" d="M 445.905,371.238 430.667,374.286 z" id="boundary" inkscape:connector-curvature="0" />
	<path style="fill:none;stroke:red;stroke-width:1px;stroke-linecap:butt;stroke-linejoin:miter;stroke-opacity:1" d="M 386.476,386.476 400.19,378.857 z" id="boundary" inkscape:connector-curvature="0" />
	<path style="fill:none;stroke:red;stroke-width:1px;stroke-linecap:butt;stroke-linejoin:miter;stroke-opacity:1" d="M 400.19,378.857 415.429,374.286 z" id="boundary" inkscape:connector-curvature="0" />
	<path style="fill:none;stroke:red;stroke-width:1px;stroke-linecap:butt;stroke-linejoin:miter;stroke-opacity:1" d="M 508.381,231.048 520.571,241.714 z" id="boundary" inkscape:connector-curvature="0" />
	<path style="fill:none;stroke:red;stroke-width:1px;stroke-linecap:butt;stroke-linejoin:miter;stroke-opacity:1" d="M 488.571,371.238 474.857,363.619 z" id="boundary" inkscape:connector-curvature="0" />
	<path style="fill:none;stroke:red;stroke-width:1px;stroke-linecap:butt;stroke-linejoin:miter;stroke-opacity:1" d="M 499.238,383.429 506.857,397.143 z" id="boundary" inkscape:connector-curvature="0" />
	<path style="fill:none;stroke:red;stroke-width:1px;stroke-linecap:butt;stroke-linejoin:miter;stroke-opacity:1" d="M 499.238,383.429 488.571,371.238 z" id="boundary" inkscape:connector-curvature="0" />
	<path style="fill:none;stroke:red;stroke-width:1px;stroke-linecap:butt;stroke-linejoin:miter;stroke-opacity:1" d="M 516,409.333 506.857,397.143 z" id="boundary" inkscape:connector-curvature="0" />
	<path style="fill:none;stroke:red;stroke-width:1px;stroke-linecap:butt;stroke-linejoin:miter;stroke-opacity:1" d="M 520.571,241.714 531.238,253.905 z" id="boundary" inkscape:connector-curvature="0" />
	<path style="fill:none;stroke:red;stroke-width:1px;stroke-linecap:butt;stroke-linejoin:miter;stroke-opacity:1" d="M 516,409.333 522.095,424.571 z" id="boundary" inkscape:connector-curvature="0" />
	<path style="fill:none;stroke:red;stroke-width:1px;stroke-linecap:butt;stroke-linejoin:miter;stroke-opacity:1" d="M 538.857,267.619 546.476,281.333 z" id="boundary" inkscape:connector-curvature="0" />
	<path style="fill:none;stroke:red;stroke-width:1px;stroke-linecap:butt;stroke-linejoin:miter;stroke-opacity:1" d="M 554.095,295.048 546.476,281.333 z" id="boundary" inkscape:connector-curvature="0" />
	<path style="fill:none;stroke:red;stroke-width:1px;stroke-linecap:butt;stroke-linejoin:miter;stroke-opacity:1" d="M 569.333,320.952 557.143,310.286 z" id="boundary" inkscape:connector-curvature="0" />
	<path style="fill:none;stroke:red;stroke-width:1px;stroke-linecap:butt;stroke-linejoin:miter;stroke-opacity:1" d="M 557.143,310.286 554.095,295.048 z" id="boundary" inkscape:connector-curvature="0" />
	<path style="fill:none;stroke:red;stroke-width:1px;stroke-linecap:butt;stroke-linejoin:miter;stroke-opacity:1" d="M 569.333,320.952 576.952,334.667 z" id="boundary" inkscape:connector-curvature="0" />
	<path style="fill:none;stroke:red;stroke-width:1px;stroke-linecap:butt;stroke-linejoin:miter;stroke-opacity:1" d="M 586.095,346.857 592.19,362.095 z" id="boundary" inkscape:connector-curvature="0" />
	<path style="fill:none;stroke:red;stroke-width:1px;stroke-linecap:butt;stroke-linejoin:miter;stroke-opacity:1" d="M 586.095,346.857 576.952,334.667 z" id="boundary" inkscape:connector-curvature="0" />
	<path style="fill:none;stroke:red;stroke-width:1px;stroke-linecap:butt;stroke-linejoin:miter;stroke-opacity:1" d="M 604.381,371.238 592.19,362.095 z" id="boundary" inkscape:connector-curvature="0" />
	<path style="fill:none;stroke:red;stroke-width:1px;stroke-linecap:butt;stroke-linejoin:miter;stroke-opacity:1" d="M 618.095,378.857 604.381,371.238 z" id="boundary" inkscape:connector-curvature="0" />
	<path style="fill:none;stroke:red;stroke-width:1px;stroke-linecap:butt;stroke-linejoin:miter;stroke-opacity:1" d="M 640.952,401.714 630.286,389.524 z" id="boundary" inkscape:connector-curvature="0" />
	<path style="fill:none;stroke:red;stroke-width:1px;stroke-linecap:butt;stroke-linejoin:miter;stroke-opacity:1" d="M 630.286,389.524 618.095,378.857 z" id="boundary" inkscape:connector-curvature="0" />
	<path style="fill:none;stroke:red;stroke-width:1px;stroke-linecap:butt;stroke-linejoin:miter;stroke-opacity:1" d="M 538.857,267.619 531.238,253.905 z" id="boundary" inkscape:connector-curvature="0" />
	<path style="fill:none;stroke:red;stroke-width:1px;stroke-linecap:butt;stroke-linejoin:miter;stroke-opacity:1" d="M 535.81,432.19 522.095,424.571 z" id="boundary" inkscape:connector-curvature="0" />
	<path style="fill:none;stroke:red;stroke-width:1px;stroke-linecap:butt;stroke-linejoin:miter;stroke-opacity:1" d="M 665.333,423.048 653.143,412.381 z" id="boundary" inkscape:connector-curvature="0" />
	<path style="fill:none;stroke:red;stroke-width:1px;stroke-linecap:butt;stroke-linejoin:miter;stroke-opacity:1" d="M 680.571,424.571 665.333,423.048 z" id="boundary" inkscape:connector-curvature="0" />
	<path style="fill:none;stroke:red;stroke-width:1px;stroke-linecap:butt;stroke-linejoin:miter;stroke-opacity:1" d="M 640.952,401.714 653.143,412.381 z" id="boundary" inkscape:connector-curvature="0" />
	<path style="fill:none;stroke:red;stroke-width:1px;stroke-linecap:butt;stroke-linejoin:miter;stroke-opacity:1" d="M 554.095,458.095 541.905,447.429 z" id="boundary" inkscape:connector-curvature="0" />
	<path style="fill:none;stroke:red;stroke-width:1px;stroke-linecap:butt;stroke-linejoin:miter;stroke-opacity:1" d="M 541.905,447.429 535.81,432.19 z" id="boundary" inkscape:connector-curvature="0" />
	<path style="fill:none;stroke:red;stroke-width:1px;stroke-linecap:butt;stroke-linejoin:miter;stroke-opacity:1" d="M 695.81,424.571 680.571,424.571 z" id="boundary" inkscape:connector-curvature="0" />
	<path style="fill:none;stroke:red;stroke-width:1px;stroke-linecap:butt;stroke-linejoin:miter;stroke-opacity:1" d="M 721.714,442.857 706.476,436.762 z" id="boundary" inkscape:connector-curvature="0" />
	<path style="fill:none;stroke:red;stroke-width:1px;stroke-linecap:butt;stroke-linejoin:miter;stroke-opacity:1" d="M 706.476,436.762 695.81,424.571 z" id="boundary" inkscape:connector-curvature="0" />
	<path style="fill:none;stroke:red;stroke-width:1px;stroke-linecap:butt;stroke-linejoin:miter;stroke-opacity:1" d="M 736.952,442.857 721.714,442.857 z" id="boundary" inkscape:connector-curvature="0" />
	<path style="fill:none;stroke:red;stroke-width:1px;stroke-linecap:butt;stroke-linejoin:miter;stroke-opacity:1" d="M 826.857,450.476 811.619,448.952 z" id="boundary" inkscape:connector-curvature="0" />
	<path style="fill:none;stroke:red;stroke-width:1px;stroke-linecap:butt;stroke-linejoin:miter;stroke-opacity:1" d="M 781.143,450.476 765.905,448.952 z" id="boundary" inkscape:connector-curvature="0" />
	<path style="fill:none;stroke:red;stroke-width:1px;stroke-linecap:butt;stroke-linejoin:miter;stroke-opacity:1" d="M 765.905,448.952 750.667,450.476 z" id="boundary" inkscape:connector-curvature="0" />
	<path style="fill:none;stroke:red;stroke-width:1px;stroke-linecap:butt;stroke-linejoin:miter;stroke-opacity:1" d="M 750.667,450.476 736.952,442.857 z" id="boundary" inkscape:connector-curvature="0" />
	<path style="fill:none;stroke:red;stroke-width:1px;stroke-linecap:butt;stroke-linejoin:miter;stroke-opacity:1" d="M 554.095,458.095 569.333,462.667 z" id="boundary" inkscape:connector-curvature="0" />
	<path style="fill:none;stroke:red;stroke-width:1px;stroke-linecap:butt;stroke-linejoin:miter;stroke-opacity:1" d="M 569.333,462.667 583.048,470.286 z" id="boundary" inkscape:connector-curvature="0" />
	<path style="fill:none;stroke:red;stroke-width:1px;stroke-linecap:butt;stroke-linejoin:miter;stroke-opacity:1" d="M 598.286,470.286 583.048,470.286 z" id="boundary" inkscape:connector-curvature="0" />
	<path style="fill:none;stroke:red;stroke-width:1px;stroke-linecap:butt;stroke-linejoin:miter;stroke-opacity:1" d="M 598.286,470.286 612,477.905 z" id="boundary" inkscape:connector-curvature="0" />
	<path style="fill:none;stroke:red;stroke-width:1px;stroke-linecap:butt;stroke-linejoin:miter;stroke-opacity:1" d="M 625.714,485.524 612,477.905 z" id="boundary" inkscape:connector-curvature="0" />
	<path style="fill:none;stroke:red;stroke-width:1px;stroke-linecap:butt;stroke-linejoin:miter;stroke-opacity:1" d="M 625.714,485.524 639.429,493.143 z" id="boundary" inkscape:connector-curvature="0" />
	<path style="fill:none;stroke:red;stroke-width:1px;stroke-linecap:butt;stroke-linejoin:miter;stroke-opacity:1" d="M 811.619,448.952 796.381,453.524 z" id="boundary" inkscape:connector-curvature="0" />
	<path style="fill:none;stroke:red;stroke-width:1px;stroke-linecap:butt;stroke-linejoin:miter;stroke-opacity:1" d="M 796.381,453.524 781.143,450.476 z" id="boundary" inkscape:connector-curvature="0" />
	<path style="fill:none;stroke:red;stroke-width:1px;stroke-linecap:butt;stroke-linejoin:miter;stroke-opacity:1" d="M 820.762,500.762 805.524,500.762 z" id="boundary" inkscape:connector-curvature="0" />
	<path style="fill:none;stroke:red;stroke-width:1px;stroke-linecap:butt;stroke-linejoin:miter;stroke-opacity:1" d="M 826.857,450.476 842.095,453.524 z" id="boundary" inkscape:connector-curvature="0" />
	<path style="fill:none;stroke:red;stroke-width:1px;stroke-linecap:butt;stroke-linejoin:miter;stroke-opacity:1" d="M 857.333,448.952 842.095,453.524 z" id="boundary" inkscape:connector-curvature="0" />
	<path style="fill:none;stroke:red;stroke-width:1px;stroke-linecap:butt;stroke-linejoin:miter;stroke-opacity:1" d="M 654.667,493.143 639.429,493.143 z" id="boundary" inkscape:connector-curvature="0" />
	<path style="fill:none;stroke:red;stroke-width:1px;stroke-linecap:butt;stroke-linejoin:miter;stroke-opacity:1" d="M 683.619,500.762 668.381,500.762 z" id="boundary" inkscape:connector-curvature="0" />
	<path style="fill:none;stroke:red;stroke-width:1px;stroke-linecap:butt;stroke-linejoin:miter;stroke-opacity:1" d="M 668.381,500.762 654.667,493.143 z" id="boundary" inkscape:connector-curvature="0" />
	<path style="fill:none;stroke:red;stroke-width:1px;stroke-linecap:butt;stroke-linejoin:miter;stroke-opacity:1" d="M 698.857,500.762 714.095,500.762 z" id="boundary" inkscape:connector-curvature="0" />
	<path style="fill:none;stroke:red;stroke-width:1px;stroke-linecap:butt;stroke-linejoin:miter;stroke-opacity:1" d="M 698.857,500.762 683.619,500.762 z" id="boundary" inkscape:connector-curvature="0" />
	<path style="fill:none;stroke:red;stroke-width:1px;stroke-linecap:butt;stroke-linejoin:miter;stroke-opacity:1" d="M 714.095,500.762 729.333,500.762 z" id="boundary" inkscape:connector-curvature="0" />
	<path style="fill:none;stroke:red;stroke-width:1px;stroke-linecap:butt;stroke-linejoin:miter;stroke-opacity:1" d="M 744.571,500.762 759.81,500.762 z" id="boundary" inkscape:connector-curvature="0" />
	<path style="fill:none;stroke:red;stroke-width:1px;stroke-linecap:butt;stroke-linejoin:miter;stroke-opacity:1" d="M 744.571,500.762 729.333,500.762 z" id="boundary" inkscape:connector-curvature="0" />
	<path style="fill:none;stroke:red;stroke-width:1px;stroke-linecap:butt;stroke-linejoin:miter;stroke-opacity:1" d="M 759.81,500.762 775.048,500.762 z" id="boundary" inkscape:connector-curvature="0" />
	<path style="fill:none;stroke:red;stroke-width:1px;stroke-linecap:butt;stroke-linejoin:miter;stroke-opacity:1" d="M 790.286,500.762 805.524,500.762 z" id="boundary" inkscape:connector-curvature="0" />
	<path style="fill:none;stroke:red;stroke-width:1px;stroke-linecap:butt;stroke-linejoin:miter;stroke-opacity:1" d="M 790.286,500.762 775.048,500.762 z" id="boundary" inkscape:connector-curvature="0" />
	<path style="fill:none;stroke:red;stroke-width:1px;stroke-linecap:butt;stroke-linejoin:miter;stroke-opacity:1" d="M 820.762,500.762 836,500.762 z" id="boundary" inkscape:connector-curvature="0" />
	<path style="fill:none;stroke:red;stroke-width:1px;stroke-linecap:butt;stroke-linejoin:miter;stroke-opacity:1" d="M 851.238,500.762 836,500.762 z" id="boundary" inkscape:connector-curvature="0" />
	<path style="fill:none;stroke:red;stroke-width:1px;stroke-linecap:butt;stroke-linejoin:miter;stroke-opacity:1" d="M 903.048,448.952 887.81,453.524 z" id="boundary" inkscape:connector-curvature="0" />
	<path style="fill:none;stroke:red;stroke-width:1px;stroke-linecap:butt;stroke-linejoin:miter;stroke-opacity:1" d="M 887.81,453.524 872.571,450.476 z" id="boundary" inkscape:connector-curvature="0" />
	<path style="fill:none;stroke:red;stroke-width:1px;stroke-linecap:butt;stroke-linejoin:miter;stroke-opacity:1" d="M 857.333,448.952 872.571,450.476 z" id="boundary" inkscape:connector-curvature="0" />
	<path style="fill:none;stroke:red;stroke-width:1px;stroke-linecap:butt;stroke-linejoin:miter;stroke-opacity:1" d="M 896.952,503.81 881.714,500.762 z" id="boundary" inkscape:connector-curvature="0" />
	<path style="fill:none;stroke:red;stroke-width:1px;stroke-linecap:butt;stroke-linejoin:miter;stroke-opacity:1" d="M 851.238,500.762 866.476,500.762 z" id="boundary" inkscape:connector-curvature="0" />
	<path style="fill:none;stroke:red;stroke-width:1px;stroke-linecap:butt;stroke-linejoin:miter;stroke-opacity:1" d="M 881.714,500.762 866.476,500.762 z" id="boundary" inkscape:connector-curvature="0" />
	<path style="fill:none;stroke:red;stroke-width:1px;stroke-linecap:butt;stroke-linejoin:miter;stroke-opacity:1" d="M 948.762,448.952 933.524,453.524 z" id="boundary" inkscape:connector-curvature="0" />
	<path style="fill:none;stroke:red;stroke-width:1px;stroke-linecap:butt;stroke-linejoin:miter;stroke-opacity:1" d="M 933.524,453.524 918.286,450.476 z" id="boundary" inkscape:connector-curvature="0" />
	<path style="fill:none;stroke:red;stroke-width:1px;stroke-linecap:butt;stroke-linejoin:miter;stroke-opacity:1" d="M 918.286,450.476 903.048,448.952 z" id="boundary" inkscape:connector-curvature="0" />
	<path style="fill:none;stroke:red;stroke-width:1px;stroke-linecap:butt;stroke-linejoin:miter;stroke-opacity:1" d="M 948.762,448.952 957.905,461.143 z" id="boundary" inkscape:connector-curvature="0" />
	<path style="fill:none;stroke:red;stroke-width:1px;stroke-linecap:butt;stroke-linejoin:miter;stroke-opacity:1" d="M 957.905,461.143 973.143,465.714 z" id="boundary" inkscape:connector-curvature="0" />
	<path style="fill:none;stroke:red;stroke-width:1px;stroke-linecap:butt;stroke-linejoin:miter;stroke-opacity:1" d="M 973.143,465.714 979.238,480.952 z" id="boundary" inkscape:connector-curvature="0" />
	<path style="fill:none;stroke:red;stroke-width:1px;stroke-linecap:butt;stroke-linejoin:miter;stroke-opacity:1" d="M 996,506.857 986.857,494.667 z" id="boundary" inkscape:connector-curvature="0" />
	<path style="fill:none;stroke:red;stroke-width:1px;stroke-linecap:butt;stroke-linejoin:miter;stroke-opacity:1" d="M 986.857,494.667 979.238,480.952 z" id="boundary" inkscape:connector-curvature="0" />
	<path style="fill:none;stroke:red;stroke-width:1px;stroke-linecap:butt;stroke-linejoin:miter;stroke-opacity:1" d="M 927.429,511.429 912.19,508.381 z" id="boundary" inkscape:connector-curvature="0" />
	<path style="fill:none;stroke:red;stroke-width:1px;stroke-linecap:butt;stroke-linejoin:miter;stroke-opacity:1" d="M 912.19,508.381 896.952,503.81 z" id="boundary" inkscape:connector-curvature="0" />
	<path style="fill:none;stroke:red;stroke-width:1px;stroke-linecap:butt;stroke-linejoin:miter;stroke-opacity:1" d="M 927.429,511.429 938.095,523.619 z" id="boundary" inkscape:connector-curvature="0" />
	<path style="fill:none;stroke:red;stroke-width:1px;stroke-linecap:butt;stroke-linejoin:miter;stroke-opacity:1" d="M 948.762,535.81 956.381,549.524 z" id="boundary" inkscape:connector-curvature="0" />
	<path style="fill:none;stroke:red;stroke-width:1px;stroke-linecap:butt;stroke-linejoin:miter;stroke-opacity:1" d="M 948.762,535.81 938.095,523.619 z" id="boundary" inkscape:connector-curvature="0" />
	<path style="fill:none;stroke:red;stroke-width:1px;stroke-linecap:butt;stroke-linejoin:miter;stroke-opacity:1" d="M 956.381,549.524 968.571,560.19 z" id="boundary" inkscape:connector-curvature="0" />
	<path style="fill:none;stroke:red;stroke-width:1px;stroke-linecap:butt;stroke-linejoin:miter;stroke-opacity:1" d="M 996,522.095 996,537.333 z" id="boundary" inkscape:connector-curvature="0" />
	<path style="fill:none;stroke:red;stroke-width:1px;stroke-linecap:butt;stroke-linejoin:miter;stroke-opacity:1" d="M 968.571,560.19 980.762,569.333 z" id="boundary" inkscape:connector-curvature="0" />
	<path style="fill:none;stroke:red;stroke-width:1px;stroke-linecap:butt;stroke-linejoin:miter;stroke-opacity:1" d="M 996,552.571 996,567.81 z" id="boundary" inkscape:connector-curvature="0" />
	<path style="fill:none;stroke:red;stroke-width:1px;stroke-linecap:butt;stroke-linejoin:miter;stroke-opacity:1" d="M 996,567.81 980.762,569.333 z" id="boundary" inkscape:connector-curvature="0" />
	<path style="fill:none;stroke:red;stroke-width:1px;stroke-linecap:butt;stroke-linejoin:miter;stroke-opacity:1" d="M 996,537.333 996,552.571 z" id="boundary" inkscape:connector-curvature="0" />
	<path style="fill:none;stroke:red;stroke-width:1px;stroke-linecap:butt;stroke-linejoin:miter;stroke-opacity:1" d="M 996,506.857 996,522.095 z" id="boundary" inkscape:connector-curvature="0" />
	<circle cx="4" cy="564.762" r="4" fill="#0" id="circle0"/>
	<circle cx="16.1905" cy="552.571" r="4" fill="#0" id="circle1"/>
	<circle cx="16.1905" cy="575.429" r="4" fill="#0" id="circle2"/>
	<circle cx="22.2857" cy="590.667" r="4" fill="#0" id="circle3"/>
	<circle cx="31.4286" cy="552.571" r="4" fill="#0" id="circle4"/>
	<circle cx="37.5238" cy="596.762" r="4" fill="#0" id="circle5"/>
	<circle cx="46.6667" cy="552.571" r="4" fill="#0" id="circle6"/>
	<circle cx="49.7143" cy="607.429" r="4" fill="#0" id="circle7"/>
	<circle cx="61.9048" cy="552.571" r="4" fill="#0" id="circle8"/>
	<circle cx="63.4286" cy="615.048" r="4" fill="#0" id="circle9"/>
	<circle cx="72.5714" cy="627.238" r="4" fill="#0" id="circle10"/>
	<circle cx="77.1429" cy="544.952" r="4" fill="#0" id="circle11"/>
	<circle cx="80.1905" cy="640.952" r="4" fill="#0" id="circle12"/>
	<circle cx="92.381" cy="544.952" r="4" fill="#0" id="circle13"/>
	<circle cx="92.381" cy="651.619" r="4" fill="#0" id="circle14"/>
	<circle cx="103.048" cy="526.667" r="4" fill="#0" id="circle15"/>
	<circle cx="107.619" cy="651.619" r="4" fill="#0" id="circle16"/>
	<circle cx="110.667" cy="511.429" r="4" fill="#0" id="circle17"/>
	<circle cx="118.286" cy="488.571" r="4" fill="#0" id="circle18"/>
	<circle cx="119.81" cy="615.048" r="4" fill="#0" id="circle19"/>
	<circle cx="119.81" cy="630.286" r="4" fill="#0" id="circle20"/>
	<circle cx="125.905" cy="473.333" r="4" fill="#0" id="circle21"/>
	<circle cx="127.429" cy="592.19" r="4" fill="#0" id="circle22"/>
	<circle cx="133.524" cy="458.095" r="4" fill="#0" id="circle23"/>
	<circle cx="135.048" cy="576.952" r="4" fill="#0" id="circle24"/>
	<circle cx="141.143" cy="442.857" r="4" fill="#0" id="circle25"/>
	<circle cx="150.286" cy="569.333" r="4" fill="#0" id="circle26"/>
	<circle cx="153.333" cy="430.667" r="4" fill="#0" id="circle27"/>
	<circle cx="160.952" cy="415.429" r="4" fill="#0" id="circle28"/>
	<circle cx="162.476" cy="558.667" r="4" fill="#0" id="circle29"/>
	<circle cx="164" cy="39.0476" r="4" fill="#0" id="circle30"/>
	<circle cx="164" cy="54.2857" r="4" fill="#0" id="circle31"/>
	<circle cx="164" cy="69.5238" r="4" fill="#0" id="circle32"/>
	<circle cx="168.571" cy="400.19" r="4" fill="#0" id="circle33"/>
	<circle cx="171.619" cy="23.8095" r="4" fill="#0" id="circle34"/>
	<circle cx="171.619" cy="83.2381" r="4" fill="#0" id="circle35"/>
	<circle cx="176.19" cy="384.952" r="4" fill="#0" id="circle36"/>
	<circle cx="177.714" cy="554.095" r="4" fill="#0" id="circle37"/>
	<circle cx="179.238" cy="96.9524" r="4" fill="#0" id="circle38"/>
	<circle cx="183.81" cy="11.619" r="4" fill="#0" id="circle39"/>
	<circle cx="183.81" cy="369.714" r="4" fill="#0" id="circle40"/>
	<circle cx="191.429" cy="544.952" r="4" fill="#0" id="circle41"/>
	<circle cx="192.952" cy="104.571" r="4" fill="#0" id="circle42"/>
	<circle cx="197.524" cy="362.095" r="4" fill="#0" id="circle43"/>
	<circle cx="199.048" cy="4" r="4" fill="#0" id="circle44"/>
	<circle cx="202.095" cy="116.762" r="4" fill="#0" id="circle45"/>
	<circle cx="203.619" cy="132" r="4" fill="#0" id="circle46"/>
	<circle cx="203.619" cy="531.238" r="4" fill="#0" id="circle47"/>
	<circle cx="209.714" cy="351.429" r="4" fill="#0" id="circle48"/>
	<circle cx="211.238" cy="145.714" r="4" fill="#0" id="circle49"/>
	<circle cx="211.238" cy="508.381" r="4" fill="#0" id="circle50"/>
	<circle cx="214.286" cy="4" r="4" fill="#0" id="circle51"/>
	<circle cx="218.857" cy="493.143" r="4" fill="#0" id="circle52"/>
	<circle cx="221.905" cy="157.905" r="4" fill="#0" id="circle53"/>
	<circle cx="224.952" cy="343.81" r="4" fill="#0" id="circle54"/>
	<circle cx="226.476" cy="462.667" r="4" fill="#0" id="circle55"/>
	<circle cx="226.476" cy="477.905" r="4" fill="#0" id="circle56"/>
	<circle cx="229.524" cy="4" r="4" fill="#0" id="circle57"/>
	<circle cx="235.619" cy="165.524" r="4" fill="#0" id="circle58"/>
	<circle cx="238.667" cy="452" r="4" fill="#0" id="circle59"/>
	<circle cx="240.19" cy="336.19" r="4" fill="#0" id="circle60"/>
	<circle cx="241.714" cy="432.19" r="4" fill="#0" id="circle61"/>
	<circle cx="243.238" cy="11.619" r="4" fill="#0" id="circle62"/>
	<circle cx="249.333" cy="173.143" r="4" fill="#0" id="circle63"/>
	<circle cx="249.333" cy="416.952" r="4" fill="#0" id="circle64"/>
	<circle cx="255.429" cy="328.571" r="4" fill="#0" id="circle65"/>
	<circle cx="256.952" cy="19.2381" r="4" fill="#0" id="circle66"/>
	<circle cx="256.952" cy="401.714" r="4" fill="#0" id="circle67"/>
	<circle cx="263.048" cy="180.762" r="4" fill="#0" id="circle68"/>
	<circle cx="264.571" cy="32.9524" r="4" fill="#0" id="circle69"/>
	<circle cx="270.667" cy="328.571" r="4" fill="#0" id="circle70"/>
	<circle cx="272.19" cy="46.6667" r="4" fill="#0" id="circle71"/>
	<circle cx="272.19" cy="192.952" r="4" fill="#0" id="circle72"/>
	<circle cx="272.19" cy="401.714" r="4" fill="#0" id="circle73"/>
	<circle cx="282.857" cy="316.381" r="4" fill="#0" id="circle74"/>
	<circle cx="284.381" cy="203.619" r="4" fill="#0" id="circle75"/>
	<circle cx="285.905" cy="394.095" r="4" fill="#0" id="circle76"/>
	<circle cx="287.429" cy="49.7143" r="4" fill="#0" id="circle77"/>
	<circle cx="298.095" cy="211.238" r="4" fill="#0" id="circle78"/>
	<circle cx="298.095" cy="316.381" r="4" fill="#0" id="circle79"/>
	<circle cx="301.143" cy="397.143" r="4" fill="#0" id="circle80"/>
	<circle cx="302.667" cy="49.7143" r="4" fill="#0" id="circle81"/>
	<circle cx="305.714" cy="224.952" r="4" fill="#0" id="circle82"/>
	<circle cx="313.333" cy="316.381" r="4" fill="#0" id="circle83"/>
	<circle cx="316.381" cy="237.143" r="4" fill="#0" id="circle84"/>
	<circle cx="316.381" cy="401.714" r="4" fill="#0" id="circle85"/>
	<circle cx="317.905" cy="54.2857" r="4" fill="#0" id="circle86"/>
	<circle cx="320.952" cy="301.143" r="4" fill="#0" id="circle87"/>
	<circle cx="330.095" cy="394.095" r="4" fill="#0" id="circle88"/>
	<circle cx="331.619" cy="61.9048" r="4" fill="#0" id="circle89"/>
	<circle cx="331.619" cy="241.714" r="4" fill="#0" id="circle90"/>
	<circle cx="336.19" cy="256.952" r="4" fill="#0" id="circle91"/>
	<circle cx="336.19" cy="301.143" r="4" fill="#0" id="circle92"/>
	<circle cx="343.81" cy="270.667" r="4" fill="#0" id="circle93"/>
	<circle cx="343.81" cy="401.714" r="4" fill="#0" id="circle94"/>
	<circle cx="346.857" cy="68" r="4" fill="#0" id="circle95"/>
	<circle cx="351.429" cy="301.143" r="4" fill="#0" id="circle96"/>
	<circle cx="354.476" cy="282.857" r="4" fill="#0" id="circle97"/>
	<circle cx="359.048" cy="400.19" r="4" fill="#0" id="circle98"/>
	<circle cx="360.571" cy="75.619" r="4" fill="#0" id="circle99"/>
	<circle cx="368.19" cy="89.3333" r="4" fill="#0" id="circle100"/>
	<circle cx="371.238" cy="386.476" r="4" fill="#0" id="circle101"/>
	<circle cx="378.857" cy="101.524" r="4" fill="#0" id="circle102"/>
	<circle cx="386.476" cy="386.476" r="4" fill="#0" id="circle103"/>
	<circle cx="391.048" cy="110.667" r="4" fill="#0" id="circle104"/>
	<circle cx="400.19" cy="378.857" r="4" fill="#0" id="circle105"/>
	<circle cx="404.762" cy="118.286" r="4" fill="#0" id="circle106"/>
	<circle cx="415.429" cy="130.476" r="4" fill="#0" id="circle107"/>
	<circle cx="415.429" cy="374.286" r="4" fill="#0" id="circle108"/>
	<circle cx="430.667" cy="136.571" r="4" fill="#0" id="circle109"/>
	<circle cx="430.667" cy="374.286" r="4" fill="#0" id="circle110"/>
	<circle cx="439.81" cy="148.762" r="4" fill="#0" id="circle111"/>
	<circle cx="445.905" cy="371.238" r="4" fill="#0" id="circle112"/>
	<circle cx="452" cy="157.905" r="4" fill="#0" id="circle113"/>
	<circle cx="459.619" cy="363.619" r="4" fill="#0" id="circle114"/>
	<circle cx="462.667" cy="170.095" r="4" fill="#0" id="circle115"/>
	<circle cx="470.286" cy="183.81" r="4" fill="#0" id="circle116"/>
	<circle cx="474.857" cy="363.619" r="4" fill="#0" id="circle117"/>
	<circle cx="484" cy="191.429" r="4" fill="#0" id="circle118"/>
	<circle cx="488.571" cy="371.238" r="4" fill="#0" id="circle119"/>
	<circle cx="493.143" cy="203.619" r="4" fill="#0" id="circle120"/>
	<circle cx="499.238" cy="383.429" r="4" fill="#0" id="circle121"/>
	<circle cx="500.762" cy="217.333" r="4" fill="#0" id="circle122"/>
	<circle cx="506.857" cy="397.143" r="4" fill="#0" id="circle123"/>
	<circle cx="508.381" cy="231.048" r="4" fill="#0" id="circle124"/>
	<circle cx="516" cy="409.333" r="4" fill="#0" id="circle125"/>
	<circle cx="520.571" cy="241.714" r="4" fill="#0" id="circle126"/>
	<circle cx="522.095" cy="424.571" r="4" fill="#0" id="circle127"/>
	<circle cx="531.238" cy="253.905" r="4" fill="#0" id="circle128"/>
	<circle cx="535.81" cy="432.19" r="4" fill="#0" id="circle129"/>
	<circle cx="538.857" cy="267.619" r="4" fill="#0" id="circle130"/>
	<circle cx="541.905" cy="447.429" r="4" fill="#0" id="circle131"/>
	<circle cx="546.476" cy="281.333" r="4" fill="#0" id="circle132"/>
	<circle cx="554.095" cy="295.048" r="4" fill="#0" id="circle133"/>
	<circle cx="554.095" cy="458.095" r="4" fill="#0" id="circle134"/>
	<circle cx="557.143" cy="310.286" r="4" fill="#0" id="circle135"/>
	<circle cx="569.333" cy="320.952" r="4" fill="#0" id="circle136"/>
	<circle cx="569.333" cy="462.667" r="4" fill="#0" id="circle137"/>
	<circle cx="576.952" cy="334.667" r="4" fill="#0" id="circle138"/>
	<circle cx="583.048" cy="470.286" r="4" fill="#0" id="circle139"/>
	<circle cx="586.095" cy="346.857" r="4" fill="#0" id="circle140"/>
	<circle cx="592.19" cy="362.095" r="4" fill="#0" id="circle141"/>
	<circle cx="598.286" cy="470.286" r="4" fill="#0" id="circle142"/>
	<circle cx="604.381" cy="371.238" r="4" fill="#0" id="circle143"/>
	<circle cx="612" cy="477.905" r="4" fill="#0" id="circle144"/>
	<circle cx="618.095" cy="378.857" r="4" fill="#0" id="circle145"/>
	<circle cx="625.714" cy="485.524" r="4" fill="#0" id="circle146"/>
	<circle cx="630.286" cy="389.524" r="4" fill="#0" id="circle147"/>
	<circle cx="639.429" cy="493.143" r="4" fill="#0" id="circle148"/>
	<circle cx="640.952" cy="401.714" r="4" fill="#0" id="circle149"/>
	<circle cx="653.143" cy="412.381" r="4" fill="#0" id="circle150"/>
	<circle cx="654.667" cy="493.143" r="4" fill="#0" id="circle151"/>
	<circle cx="665.333" cy="423.048" r="4" fill="#0" id="circle152"/>
	<circle cx="668.381" cy="500.762" r="4" fill="#0" id="circle153"/>
	<circle cx="680.571" cy="424.571" r="4" fill="#0" id="circle154"/>
	<circle cx="683.619" cy="500.762" r="4" fill="#0" id="circle155"/>
	<circle cx="695.81" cy="424.571" r="4" fill="#0" id="circle156"/>
	<circle cx="698.857" cy="500.762" r="4" fill="#0" id="circle157"/>
	<circle cx="706.476" cy="436.762" r="4" fill="#0" id="circle158"/>
	<circle cx="714.095" cy="500.762" r="4" fill="#0" id="circle159"/>
	<circle cx="721.714" cy="442.857" r="4" fill="#0" id="circle160"/>
	<circle cx="729.333" cy="500.762" r="4" fill="#0" id="circle161"/>
	<circle cx="736.952" cy="442.857" r="4" fill="#0" id="circle162"/>
	<circle cx="744.571" cy="500.762" r="4" fill="#0" id="circle163"/>
	<circle cx="750.667" cy="450.476" r="4" fill="#0" id="circle164"/>
	<circle cx="759.81" cy="500.762" r="4" fill="#0" id="circle165"/>
	<circle cx="765.905" cy="448.952" r="4" fill="#0" id="circle166"/>
	<circle cx="775.048" cy="500.762" r="4" fill="#0" id="circle167"/>
	<circle cx="781.143" cy="450.476" r="4" fill="#0" id="circle168"/>
	<circle cx="790.286" cy="500.762" r="4" fill="#0" id="circle169"/>
	<circle cx="796.381" cy="453.524" r="4" fill="#0" id="circle170"/>
	<circle cx="805.524" cy="500.762" r="4" fill="#0" id="circle171"/>
	<circle cx="811.619" cy="448.952" r="4" fill="#0" id="circle172"/>
	<circle cx="820.762" cy="500.762" r="4" fill="#0" id="circle173"/>
	<circle cx="826.857" cy="450.476" r="4" fill="#0" id="circle174"/>
	<circle cx="836" cy="500.762" r="4" fill="#0" id="circle175"/>
	<circle cx="842.095" cy="453.524" r="4" fill="#0" id="circle176"/>
	<circle cx="851.238" cy="500.762" r="4" fill="#0" id="circle177"/>
	<circle cx="857.333" cy="448.952" r="4" fill="#0" id="circle178"/>
	<circle cx="866.476" cy="500.762" r="4" fill="#0" id="circle179"/>
	<circle cx="872.571" cy="450.476" r="4" fill="#0" id="circle180"/>
	<circle cx="881.714" cy="500.762" r="4" fill="#0" id="circle181"/>
	<circle cx="887.81" cy="453.524" r="4" fill="#0" id="circle182"/>
	<circle cx="896.952" cy="503.81" r="4" fill="#0" id="circle183"/>
	<circle cx="903.048" cy="448.952" r="4" fill="#0" id="circle184"/>
	<circle cx="912.19" cy="508.381" r="4" fill="#0" id="circle185"/>
	<circle cx="918.286" cy="450.476" r="4" fill="#0" id="circle186"/>
	<circle cx="927.429" cy="511.429" r="4" fill="#0" id="circle187"/>
	<circle cx="933.524" cy="453.524" r="4" fill="#0" id="circle188"/>
	<circle cx="938.095" cy="523.619" r="4" fill="#0" id="circle189"/>
	<circle cx="948.762" cy="448.952" r="4" fill="#0" id="circle190"/>
	<circle cx="948.762" cy="535.81" r="4" fill="#0" id="circle191"/>
	<circle cx="956.381" cy="549.524" r="4" fill="#0" id="circle192"/>
	<circle cx="957.905" cy="461.143" r="4" fill="#0" id="circle193"/>
	<circle cx="968.571" cy="560.19" r="4" fill="#0" id="circle194"/>
	<circle cx="973.143" cy="465.714" r="4" fill="#0" id="circle195"/>
	<circle cx="979.238" cy="480.952" r="4" fill="#0" id="circle196"/>
	<circle cx="980.762" cy="569.333" r="4" fill="#0" id="circle197"/>
	<circle cx="986.857" cy="494.667" r="4" fill="#0" id="circle198"/>
	<circle cx="996" cy="506.857" r="4" fill="#0" id="circle199"/>
	<circle cx="996" cy="522.095" r="4" fill="#0" id="circle200"/>
	<circle cx="996" cy="537.333" r="4" fill="#0" id="circle201"/>
	<circle cx="996" cy="552.571" r="4" fill="#0" id="circle202"/>
	<circle cx="996" cy="567.81" r="4" fill="#0" id="circle203"/>
	</g>
</svg>