<?xml version="1.0" encoding="UTF-8" standalone="no"?>
<!-- Created with CurveBenchmark -->
<svg
	xmlns:dc="http://purl.org/dc/elements/1.1/"
	xmlns:cc="http://creativecommons.org/ns#"
	xmlns:rdf="http://www.w3.org/1999/02/22-rdf-syntax-ns#"
	xmlns:svg="http://www.w3.org/2000/svg"
	xmlns="http://www.w3.org/2000/svg"
	xmlns:sodipodi="http://sodipodi.sourceforge.net/DTD/sodipodi-0.dtd"
	xmlns:inkscape="http://www.inkscape.org/namespaces/inkscape"
	width="1000"
	height="1000"
	id="svg2"
	version="1.1"
	sodipodi:docname="manifold/nncrust-guitar025.png.txt">
<defs
	id="defs4" />
<metadata
	id="metadata7">
	<rdf:RDF>
		<cc:Work
			rdf:about="">
			<dc:format>image/svg+xml</dc:format>
			<dc:type
				rdf:resource="http://purl.org/dc/dcmitype/StillImage" />
			<dc:title></dc:title>
		</cc:Work>
	</rdf:RDF>
</metadata>
<g
	inkscape:label="Layer 1"
	inkscape:groupmode="layer"
	id="layer1">
	<path style="fill:none;stroke:red;stroke-width:1px;stroke-linecap:butt;stroke-linejoin:miter;stroke-opacity:1" d="M 159.331,39.3025 166.391,74.605 z" id="boundary" inkscape:connector-curvature="0" />
	<path style="fill:none;stroke:red;stroke-width:1px;stroke-linecap:butt;stroke-linejoin:miter;stroke-opacity:1" d="M 201.694,131.089 173.452,109.907 z" id="boundary" inkscape:connector-curvature="0" />
	<path style="fill:none;stroke:red;stroke-width:1px;stroke-linecap:butt;stroke-linejoin:miter;stroke-opacity:1" d="M 166.391,74.605 173.452,109.907 z" id="boundary" inkscape:connector-curvature="0" />
	<path style="fill:none;stroke:red;stroke-width:1px;stroke-linecap:butt;stroke-linejoin:miter;stroke-opacity:1" d="M 92.2562,515.886 127.559,505.295 z" id="boundary" inkscape:connector-curvature="0" />
	<path style="fill:none;stroke:red;stroke-width:1px;stroke-linecap:butt;stroke-linejoin:miter;stroke-opacity:1" d="M 127.559,505.295 162.861,494.705 z" id="boundary" inkscape:connector-curvature="0" />
	<path style="fill:none;stroke:red;stroke-width:1px;stroke-linecap:butt;stroke-linejoin:miter;stroke-opacity:1" d="M 194.633,406.448 191.103,473.523 z" id="boundary" inkscape:connector-curvature="0" />
	<path style="fill:none;stroke:red;stroke-width:1px;stroke-linecap:butt;stroke-linejoin:miter;stroke-opacity:1" d="M 191.103,473.523 162.861,494.705 z" id="boundary" inkscape:connector-curvature="0" />
	<path style="fill:none;stroke:red;stroke-width:1px;stroke-linecap:butt;stroke-linejoin:miter;stroke-opacity:1" d="M 92.2562,515.886 64.0142,537.068 z" id="boundary" inkscape:connector-curvature="0" />
	<path style="fill:none;stroke:red;stroke-width:1px;stroke-linecap:butt;stroke-linejoin:miter;stroke-opacity:1" d="M 201.694,166.391 201.694,201.694 z" id="boundary" inkscape:connector-curvature="0" />
	<path style="fill:none;stroke:red;stroke-width:1px;stroke-linecap:butt;stroke-linejoin:miter;stroke-opacity:1" d="M 201.694,131.089 201.694,166.391 z" id="boundary" inkscape:connector-curvature="0" />
	<path style="fill:none;stroke:red;stroke-width:1px;stroke-linecap:butt;stroke-linejoin:miter;stroke-opacity:1" d="M 194.633,300.541 194.633,265.238 z" id="boundary" inkscape:connector-curvature="0" />
	<path style="fill:none;stroke:red;stroke-width:1px;stroke-linecap:butt;stroke-linejoin:miter;stroke-opacity:1" d="M 194.633,300.541 194.633,335.843 z" id="boundary" inkscape:connector-curvature="0" />
	<path style="fill:none;stroke:red;stroke-width:1px;stroke-linecap:butt;stroke-linejoin:miter;stroke-opacity:1" d="M 194.633,371.146 194.633,406.448 z" id="boundary" inkscape:connector-curvature="0" />
	<path style="fill:none;stroke:red;stroke-width:1px;stroke-linecap:butt;stroke-linejoin:miter;stroke-opacity:1" d="M 194.633,371.146 194.633,335.843 z" id="boundary" inkscape:connector-curvature="0" />
	<path style="fill:none;stroke:red;stroke-width:1px;stroke-linecap:butt;stroke-linejoin:miter;stroke-opacity:1" d="M 159.331,39.3025 180.512,11.0605 z" id="boundary" inkscape:connector-curvature="0" />
	<path style="fill:none;stroke:red;stroke-width:1px;stroke-linecap:butt;stroke-linejoin:miter;stroke-opacity:1" d="M 11.0605,787.715 28.7117,755.943 z" id="boundary" inkscape:connector-curvature="0" />
	<path style="fill:none;stroke:red;stroke-width:1px;stroke-linecap:butt;stroke-linejoin:miter;stroke-opacity:1" d="M 4,823.018 11.0605,787.715 z" id="boundary" inkscape:connector-curvature="0" />
	<path style="fill:none;stroke:red;stroke-width:1px;stroke-linecap:butt;stroke-linejoin:miter;stroke-opacity:1" d="M 46.363,568.84 49.8932,604.142 z" id="boundary" inkscape:connector-curvature="0" />
	<path style="fill:none;stroke:red;stroke-width:1px;stroke-linecap:butt;stroke-linejoin:miter;stroke-opacity:1" d="M 46.363,568.84 64.0142,537.068 z" id="boundary" inkscape:connector-curvature="0" />
	<path style="fill:none;stroke:red;stroke-width:1px;stroke-linecap:butt;stroke-linejoin:miter;stroke-opacity:1" d="M 53.4235,953.637 28.7117,925.395 z" id="boundary" inkscape:connector-curvature="0" />
	<path style="fill:none;stroke:red;stroke-width:1px;stroke-linecap:butt;stroke-linejoin:miter;stroke-opacity:1" d="M 28.7117,925.395 11.0605,893.623 z" id="boundary" inkscape:connector-curvature="0" />
	<path style="fill:none;stroke:red;stroke-width:1px;stroke-linecap:butt;stroke-linejoin:miter;stroke-opacity:1" d="M 11.0605,893.623 4,858.32 z" id="boundary" inkscape:connector-curvature="0" />
	<path style="fill:none;stroke:red;stroke-width:1px;stroke-linecap:butt;stroke-linejoin:miter;stroke-opacity:1" d="M 4,858.32 4,823.018 z" id="boundary" inkscape:connector-curvature="0" />
	<path style="fill:none;stroke:red;stroke-width:1px;stroke-linecap:butt;stroke-linejoin:miter;stroke-opacity:1" d="M 49.8932,727.701 28.7117,755.943 z" id="boundary" inkscape:connector-curvature="0" />
	<path style="fill:none;stroke:red;stroke-width:1px;stroke-linecap:butt;stroke-linejoin:miter;stroke-opacity:1" d="M 49.8932,604.142 64.0142,639.445 z" id="boundary" inkscape:connector-curvature="0" />
	<path style="fill:none;stroke:red;stroke-width:1px;stroke-linecap:butt;stroke-linejoin:miter;stroke-opacity:1" d="M 64.0142,639.445 67.5445,674.747 z" id="boundary" inkscape:connector-curvature="0" />
	<path style="fill:none;stroke:red;stroke-width:1px;stroke-linecap:butt;stroke-linejoin:miter;stroke-opacity:1" d="M 67.5445,674.747 49.8932,727.701 z" id="boundary" inkscape:connector-curvature="0" />
	<path style="fill:none;stroke:red;stroke-width:1px;stroke-linecap:butt;stroke-linejoin:miter;stroke-opacity:1" d="M 81.6655,974.819 53.4235,953.637 z" id="boundary" inkscape:connector-curvature="0" />
	<path style="fill:none;stroke:red;stroke-width:1px;stroke-linecap:butt;stroke-linejoin:miter;stroke-opacity:1" d="M 116.968,988.94 81.6655,974.819 z" id="boundary" inkscape:connector-curvature="0" />
	<path style="fill:none;stroke:red;stroke-width:1px;stroke-linecap:butt;stroke-linejoin:miter;stroke-opacity:1" d="M 152.27,996 116.968,988.94 z" id="boundary" inkscape:connector-curvature="0" />
	<path style="fill:none;stroke:red;stroke-width:1px;stroke-linecap:butt;stroke-linejoin:miter;stroke-opacity:1" d="M 187.573,996 152.27,996 z" id="boundary" inkscape:connector-curvature="0" />
	<path style="fill:none;stroke:red;stroke-width:1px;stroke-linecap:butt;stroke-linejoin:miter;stroke-opacity:1" d="M 247.587,229.936 194.633,265.238 z" id="boundary" inkscape:connector-curvature="0" />
	<path style="fill:none;stroke:red;stroke-width:1px;stroke-linecap:butt;stroke-linejoin:miter;stroke-opacity:1" d="M 201.694,201.694 247.587,229.936 z" id="boundary" inkscape:connector-curvature="0" />
	<path style="fill:none;stroke:red;stroke-width:1px;stroke-linecap:butt;stroke-linejoin:miter;stroke-opacity:1" d="M 240.527,46.363 247.587,81.6655 z" id="boundary" inkscape:connector-curvature="0" />
	<path style="fill:none;stroke:red;stroke-width:1px;stroke-linecap:butt;stroke-linejoin:miter;stroke-opacity:1" d="M 247.587,81.6655 247.587,124.028 z" id="boundary" inkscape:connector-curvature="0" />
	<path style="fill:none;stroke:red;stroke-width:1px;stroke-linecap:butt;stroke-linejoin:miter;stroke-opacity:1" d="M 247.587,159.331 247.587,124.028 z" id="boundary" inkscape:connector-curvature="0" />
	<path style="fill:none;stroke:red;stroke-width:1px;stroke-linecap:butt;stroke-linejoin:miter;stroke-opacity:1" d="M 247.587,159.331 247.587,194.633 z" id="boundary" inkscape:connector-curvature="0" />
	<path style="fill:none;stroke:red;stroke-width:1px;stroke-linecap:butt;stroke-linejoin:miter;stroke-opacity:1" d="M 247.587,229.936 247.587,194.633 z" id="boundary" inkscape:connector-curvature="0" />
	<path style="fill:none;stroke:red;stroke-width:1px;stroke-linecap:butt;stroke-linejoin:miter;stroke-opacity:1" d="M 247.587,229.936 247.587,265.238 z" id="boundary" inkscape:connector-curvature="0" />
	<path style="fill:none;stroke:red;stroke-width:1px;stroke-linecap:butt;stroke-linejoin:miter;stroke-opacity:1" d="M 247.587,265.238 247.587,300.541 z" id="boundary" inkscape:connector-curvature="0" />
	<path style="fill:none;stroke:red;stroke-width:1px;stroke-linecap:butt;stroke-linejoin:miter;stroke-opacity:1" d="M 251.117,335.843 254.648,371.146 z" id="boundary" inkscape:connector-curvature="0" />
	<path style="fill:none;stroke:red;stroke-width:1px;stroke-linecap:butt;stroke-linejoin:miter;stroke-opacity:1" d="M 251.117,335.843 247.587,300.541 z" id="boundary" inkscape:connector-curvature="0" />
	<path style="fill:none;stroke:red;stroke-width:1px;stroke-linecap:butt;stroke-linejoin:miter;stroke-opacity:1" d="M 254.648,371.146 254.648,406.448 z" id="boundary" inkscape:connector-curvature="0" />
	<path style="fill:none;stroke:red;stroke-width:1px;stroke-linecap:butt;stroke-linejoin:miter;stroke-opacity:1" d="M 254.648,441.751 254.648,406.448 z" id="boundary" inkscape:connector-curvature="0" />
	<path style="fill:none;stroke:red;stroke-width:1px;stroke-linecap:butt;stroke-linejoin:miter;stroke-opacity:1" d="M 254.648,477.053 191.103,473.523 z" id="boundary" inkscape:connector-curvature="0" />
	<path style="fill:none;stroke:red;stroke-width:1px;stroke-linecap:butt;stroke-linejoin:miter;stroke-opacity:1" d="M 254.648,441.751 254.648,477.053 z" id="boundary" inkscape:connector-curvature="0" />
	<path style="fill:none;stroke:red;stroke-width:1px;stroke-linecap:butt;stroke-linejoin:miter;stroke-opacity:1" d="M 335.843,547.658 300.541,547.658 z" id="boundary" inkscape:connector-curvature="0" />
	<path style="fill:none;stroke:red;stroke-width:1px;stroke-linecap:butt;stroke-linejoin:miter;stroke-opacity:1" d="M 254.648,547.658 254.648,512.356 z" id="boundary" inkscape:connector-curvature="0" />
	<path style="fill:none;stroke:red;stroke-width:1px;stroke-linecap:butt;stroke-linejoin:miter;stroke-opacity:1" d="M 254.648,512.356 254.648,477.053 z" id="boundary" inkscape:connector-curvature="0" />
	<path style="fill:none;stroke:red;stroke-width:1px;stroke-linecap:butt;stroke-linejoin:miter;stroke-opacity:1" d="M 300.541,547.658 275.829,575.9 z" id="boundary" inkscape:connector-curvature="0" />
	<path style="fill:none;stroke:red;stroke-width:1px;stroke-linecap:butt;stroke-linejoin:miter;stroke-opacity:1" d="M 275.829,575.9 254.648,547.658 z" id="boundary" inkscape:connector-curvature="0" />
	<path style="fill:none;stroke:red;stroke-width:1px;stroke-linecap:butt;stroke-linejoin:miter;stroke-opacity:1" d="M 332.313,667.687 342.904,702.989 z" id="boundary" inkscape:connector-curvature="0" />
	<path style="fill:none;stroke:red;stroke-width:1px;stroke-linecap:butt;stroke-linejoin:miter;stroke-opacity:1" d="M 346.434,632.384 332.313,667.687 z" id="boundary" inkscape:connector-curvature="0" />
	<path style="fill:none;stroke:red;stroke-width:1px;stroke-linecap:butt;stroke-linejoin:miter;stroke-opacity:1" d="M 335.843,547.658 360.555,575.9 z" id="boundary" inkscape:connector-curvature="0" />
	<path style="fill:none;stroke:red;stroke-width:1px;stroke-linecap:butt;stroke-linejoin:miter;stroke-opacity:1" d="M 275.829,575.9 335.843,547.658 z" id="boundary" inkscape:connector-curvature="0" />
	<path style="fill:none;stroke:red;stroke-width:1px;stroke-linecap:butt;stroke-linejoin:miter;stroke-opacity:1" d="M 342.904,702.989 360.555,734.762 z" id="boundary" inkscape:connector-curvature="0" />
	<path style="fill:none;stroke:red;stroke-width:1px;stroke-linecap:butt;stroke-linejoin:miter;stroke-opacity:1" d="M 353.495,946.577 325.253,971.288 z" id="boundary" inkscape:connector-curvature="0" />
	<path style="fill:none;stroke:red;stroke-width:1px;stroke-linecap:butt;stroke-linejoin:miter;stroke-opacity:1" d="M 325.253,971.288 293.48,988.94 z" id="boundary" inkscape:connector-curvature="0" />
	<path style="fill:none;stroke:red;stroke-width:1px;stroke-linecap:butt;stroke-linejoin:miter;stroke-opacity:1" d="M 293.48,988.94 258.178,996 z" id="boundary" inkscape:connector-curvature="0" />
	<path style="fill:none;stroke:red;stroke-width:1px;stroke-linecap:butt;stroke-linejoin:miter;stroke-opacity:1" d="M 258.178,996 222.875,996 z" id="boundary" inkscape:connector-curvature="0" />
	<path style="fill:none;stroke:red;stroke-width:1px;stroke-linecap:butt;stroke-linejoin:miter;stroke-opacity:1" d="M 222.875,996 187.573,996 z" id="boundary" inkscape:connector-curvature="0" />
	<path style="fill:none;stroke:red;stroke-width:1px;stroke-linecap:butt;stroke-linejoin:miter;stroke-opacity:1" d="M 346.434,632.384 360.555,575.9 z" id="boundary" inkscape:connector-curvature="0" />
	<path style="fill:none;stroke:red;stroke-width:1px;stroke-linecap:butt;stroke-linejoin:miter;stroke-opacity:1" d="M 378.206,766.534 360.555,734.762 z" id="boundary" inkscape:connector-curvature="0" />
	<path style="fill:none;stroke:red;stroke-width:1px;stroke-linecap:butt;stroke-linejoin:miter;stroke-opacity:1" d="M 392.327,801.836 378.206,766.534 z" id="boundary" inkscape:connector-curvature="0" />
	<path style="fill:none;stroke:red;stroke-width:1px;stroke-linecap:butt;stroke-linejoin:miter;stroke-opacity:1" d="M 378.206,918.335 353.495,946.577 z" id="boundary" inkscape:connector-curvature="0" />
	<path style="fill:none;stroke:red;stroke-width:1px;stroke-linecap:butt;stroke-linejoin:miter;stroke-opacity:1" d="M 395.858,837.139 395.858,872.441 z" id="boundary" inkscape:connector-curvature="0" />
	<path style="fill:none;stroke:red;stroke-width:1px;stroke-linecap:butt;stroke-linejoin:miter;stroke-opacity:1" d="M 395.858,872.441 378.206,918.335 z" id="boundary" inkscape:connector-curvature="0" />
	<path style="fill:none;stroke:red;stroke-width:1px;stroke-linecap:butt;stroke-linejoin:miter;stroke-opacity:1" d="M 392.327,801.836 395.858,837.139 z" id="boundary" inkscape:connector-curvature="0" />
	<path style="fill:none;stroke:red;stroke-width:1px;stroke-linecap:butt;stroke-linejoin:miter;stroke-opacity:1" d="M 215.815,4 240.527,46.363 z" id="boundary" inkscape:connector-curvature="0" />
	<path style="fill:none;stroke:red;stroke-width:1px;stroke-linecap:butt;stroke-linejoin:miter;stroke-opacity:1" d="M 180.512,11.0605 215.815,4 z" id="boundary" inkscape:connector-curvature="0" />
	<circle cx="4" cy="823.018" r="4" fill="#0" id="circle0"/>
	<circle cx="4" cy="858.32" r="4" fill="#0" id="circle1"/>
	<circle cx="11.0605" cy="787.715" r="4" fill="#0" id="circle2"/>
	<circle cx="11.0605" cy="893.623" r="4" fill="#0" id="circle3"/>
	<circle cx="28.7117" cy="755.943" r="4" fill="#0" id="circle4"/>
	<circle cx="28.7117" cy="925.395" r="4" fill="#0" id="circle5"/>
	<circle cx="46.363" cy="568.84" r="4" fill="#0" id="circle6"/>
	<circle cx="49.8932" cy="604.142" r="4" fill="#0" id="circle7"/>
	<circle cx="49.8932" cy="727.701" r="4" fill="#0" id="circle8"/>
	<circle cx="53.4235" cy="953.637" r="4" fill="#0" id="circle9"/>
	<circle cx="64.0142" cy="537.068" r="4" fill="#0" id="circle10"/>
	<circle cx="64.0142" cy="639.445" r="4" fill="#0" id="circle11"/>
	<circle cx="67.5445" cy="674.747" r="4" fill="#0" id="circle12"/>
	<circle cx="81.6655" cy="974.819" r="4" fill="#0" id="circle13"/>
	<circle cx="92.2562" cy="515.886" r="4" fill="#0" id="circle14"/>
	<circle cx="116.968" cy="988.94" r="4" fill="#0" id="circle15"/>
	<circle cx="127.559" cy="505.295" r="4" fill="#0" id="circle16"/>
	<circle cx="152.27" cy="996" r="4" fill="#0" id="circle17"/>
	<circle cx="159.331" cy="39.3025" r="4" fill="#0" id="circle18"/>
	<circle cx="162.861" cy="494.705" r="4" fill="#0" id="circle19"/>
	<circle cx="166.391" cy="74.605" r="4" fill="#0" id="circle20"/>
	<circle cx="173.452" cy="109.907" r="4" fill="#0" id="circle21"/>
	<circle cx="180.512" cy="11.0605" r="4" fill="#0" id="circle22"/>
	<circle cx="187.573" cy="996" r="4" fill="#0" id="circle23"/>
	<circle cx="191.103" cy="473.523" r="4" fill="#0" id="circle24"/>
	<circle cx="194.633" cy="265.238" r="4" fill="#0" id="circle25"/>
	<circle cx="194.633" cy="300.541" r="4" fill="#0" id="circle26"/>
	<circle cx="194.633" cy="335.843" r="4" fill="#0" id="circle27"/>
	<circle cx="194.633" cy="371.146" r="4" fill="#0" id="circle28"/>
	<circle cx="194.633" cy="406.448" r="4" fill="#0" id="circle29"/>
	<circle cx="201.694" cy="131.089" r="4" fill="#0" id="circle30"/>
	<circle cx="201.694" cy="166.391" r="4" fill="#0" id="circle31"/>
	<circle cx="201.694" cy="201.694" r="4" fill="#0" id="circle32"/>
	<circle cx="215.815" cy="4" r="4" fill="#0" id="circle33"/>
	<circle cx="222.875" cy="996" r="4" fill="#0" id="circle34"/>
	<circle cx="240.527" cy="46.363" r="4" fill="#0" id="circle35"/>
	<circle cx="247.587" cy="81.6655" r="4" fill="#0" id="circle36"/>
	<circle cx="247.587" cy="124.028" r="4" fill="#0" id="circle37"/>
	<circle cx="247.587" cy="159.331" r="4" fill="#0" id="circle38"/>
	<circle cx="247.587" cy="194.633" r="4" fill="#0" id="circle39"/>
	<circle cx="247.587" cy="229.936" r="4" fill="#0" id="circle40"/>
	<circle cx="247.587" cy="265.238" r="4" fill="#0" id="circle41"/>
	<circle cx="247.587" cy="300.541" r="4" fill="#0" id="circle42"/>
	<circle cx="251.117" cy="335.843" r="4" fill="#0" id="circle43"/>
	<circle cx="254.648" cy="371.146" r="4" fill="#0" id="circle44"/>
	<circle cx="254.648" cy="406.448" r="4" fill="#0" id="circle45"/>
	<circle cx="254.648" cy="441.751" r="4" fill="#0" id="circle46"/>
	<circle cx="254.648" cy="477.053" r="4" fill="#0" id="circle47"/>
	<circle cx="254.648" cy="512.356" r="4" fill="#0" id="circle48"/>
	<circle cx="254.648" cy="547.658" r="4" fill="#0" id="circle49"/>
	<circle cx="258.178" cy="996" r="4" fill="#0" id="circle50"/>
	<circle cx="275.829" cy="575.9" r="4" fill="#0" id="circle51"/>
	<circle cx="293.48" cy="988.94" r="4" fill="#0" id="circle52"/>
	<circle cx="300.541" cy="547.658" r="4" fill="#0" id="circle53"/>
	<circle cx="325.253" cy="971.288" r="4" fill="#0" id="circle54"/>
	<circle cx="332.313" cy="667.687" r="4" fill="#0" id="circle55"/>
	<circle cx="335.843" cy="547.658" r="4" fill="#0" id="circle56"/>
	<circle cx="342.904" cy="702.989" r="4" fill="#0" id="circle57"/>
	<circle cx="346.434" cy="632.384" r="4" fill="#0" id="circle58"/>
	<circle cx="353.495" cy="946.577" r="4" fill="#0" id="circle59"/>
	<circle cx="360.555" cy="575.9" r="4" fill="#0" id="circle60"/>
	<circle cx="360.555" cy="734.762" r="4" fill="#0" id="circle61"/>
	<circle cx="378.206" cy="766.534" r="4" fill="#0" id="circle62"/>
	<circle cx="378.206" cy="918.335" r="4" fill="#0" id="circle63"/>
	<circle cx="392.327" cy="801.836" r="4" fill="#0" id="circle64"/>
	<circle cx="395.858" cy="837.139" r="4" fill="#0" id="circle65"/>
	<circle cx="395.858" cy="872.441" r="4" fill="#0" id="circle66"/>
	</g>
</svg>