<?xml version="1.0" encoding="UTF-8" standalone="no"?>
<!-- Created with CurveBenchmark -->
<svg
	xmlns:dc="http://purl.org/dc/elements/1.1/"
	xmlns:cc="http://creativecommons.org/ns#"
	xmlns:rdf="http://www.w3.org/1999/02/22-rdf-syntax-ns#"
	xmlns:svg="http://www.w3.org/2000/svg"
	xmlns="http://www.w3.org/2000/svg"
	xmlns:sodipodi="http://sodipodi.sourceforge.net/DTD/sodipodi-0.dtd"
	xmlns:inkscape="http://www.inkscape.org/namespaces/inkscape"
	width="1000"
	height="1000"
	id="svg2"
	version="1.1"
	sodipodi:docname="manifold/nncrust-car05.png.txt">
<defs
	id="defs4" />
<metadata
	id="metadata7">
	<rdf:RDF>
		<cc:Work
			rdf:about="">
			<dc:format>image/svg+xml</dc:format>
			<dc:type
				rdf:resource="http://purl.org/dc/dcmitype/StillImage" />
			<dc:title></dc:title>
		</cc:Work>
	</rdf:RDF>
</metadata>
<g
	inkscape:label="Layer 1"
	inkscape:groupmode="layer"
	id="layer1">
	<path style="fill:none;stroke:red;stroke-width:1px;stroke-linecap:butt;stroke-linejoin:miter;stroke-opacity:1" d="M 90.4174,166.033 108.421,166.033 z" id="boundary" inkscape:connector-curvature="0" />
	<path style="fill:none;stroke:red;stroke-width:1px;stroke-linecap:butt;stroke-linejoin:miter;stroke-opacity:1" d="M 72.4138,175.034 90.4174,166.033 z" id="boundary" inkscape:connector-curvature="0" />
	<path style="fill:none;stroke:red;stroke-width:1px;stroke-linecap:butt;stroke-linejoin:miter;stroke-opacity:1" d="M 126.425,166.033 108.421,166.033 z" id="boundary" inkscape:connector-curvature="0" />
	<path style="fill:none;stroke:red;stroke-width:1px;stroke-linecap:butt;stroke-linejoin:miter;stroke-opacity:1" d="M 126.425,166.033 144.428,166.033 z" id="boundary" inkscape:connector-curvature="0" />
	<path style="fill:none;stroke:red;stroke-width:1px;stroke-linecap:butt;stroke-linejoin:miter;stroke-opacity:1" d="M 162.432,166.033 144.428,166.033 z" id="boundary" inkscape:connector-curvature="0" />
	<path style="fill:none;stroke:red;stroke-width:1px;stroke-linecap:butt;stroke-linejoin:miter;stroke-opacity:1" d="M 248.849,148.029 232.646,157.031 z" id="boundary" inkscape:connector-curvature="0" />
	<path style="fill:none;stroke:red;stroke-width:1px;stroke-linecap:butt;stroke-linejoin:miter;stroke-opacity:1" d="M 232.646,157.031 214.642,157.031 z" id="boundary" inkscape:connector-curvature="0" />
	<path style="fill:none;stroke:red;stroke-width:1px;stroke-linecap:butt;stroke-linejoin:miter;stroke-opacity:1" d="M 180.436,166.033 162.432,166.033 z" id="boundary" inkscape:connector-curvature="0" />
	<path style="fill:none;stroke:red;stroke-width:1px;stroke-linecap:butt;stroke-linejoin:miter;stroke-opacity:1" d="M 198.439,166.033 180.436,166.033 z" id="boundary" inkscape:connector-curvature="0" />
	<path style="fill:none;stroke:red;stroke-width:1px;stroke-linecap:butt;stroke-linejoin:miter;stroke-opacity:1" d="M 214.642,157.031 198.439,166.033 z" id="boundary" inkscape:connector-curvature="0" />
	<path style="fill:none;stroke:red;stroke-width:1px;stroke-linecap:butt;stroke-linejoin:miter;stroke-opacity:1" d="M 27.4047,266.853 4,252.45 z" id="boundary" inkscape:connector-curvature="0" />
	<path style="fill:none;stroke:red;stroke-width:1px;stroke-linecap:butt;stroke-linejoin:miter;stroke-opacity:1" d="M 4,252.45 18.4029,238.047 z" id="boundary" inkscape:connector-curvature="0" />
	<path style="fill:none;stroke:red;stroke-width:1px;stroke-linecap:butt;stroke-linejoin:miter;stroke-opacity:1" d="M 27.4047,220.044 18.4029,238.047 z" id="boundary" inkscape:connector-curvature="0" />
	<path style="fill:none;stroke:red;stroke-width:1px;stroke-linecap:butt;stroke-linejoin:miter;stroke-opacity:1" d="M 4,270.454 4,252.45 z" id="boundary" inkscape:connector-curvature="0" />
	<path style="fill:none;stroke:red;stroke-width:1px;stroke-linecap:butt;stroke-linejoin:miter;stroke-opacity:1" d="M 40.0073,198.439 27.4047,220.044 z" id="boundary" inkscape:connector-curvature="0" />
	<path style="fill:none;stroke:red;stroke-width:1px;stroke-linecap:butt;stroke-linejoin:miter;stroke-opacity:1" d="M 40.0073,198.439 54.4102,184.036 z" id="boundary" inkscape:connector-curvature="0" />
	<path style="fill:none;stroke:red;stroke-width:1px;stroke-linecap:butt;stroke-linejoin:miter;stroke-opacity:1" d="M 54.4102,184.036 72.4138,175.034 z" id="boundary" inkscape:connector-curvature="0" />
	<path style="fill:none;stroke:red;stroke-width:1px;stroke-linecap:butt;stroke-linejoin:miter;stroke-opacity:1" d="M 27.4047,266.853 18.4029,283.056 z" id="boundary" inkscape:connector-curvature="0" />
	<path style="fill:none;stroke:red;stroke-width:1px;stroke-linecap:butt;stroke-linejoin:miter;stroke-opacity:1" d="M 18.4029,283.056 4,270.454 z" id="boundary" inkscape:connector-curvature="0" />
	<path style="fill:none;stroke:red;stroke-width:1px;stroke-linecap:butt;stroke-linejoin:miter;stroke-opacity:1" d="M 347.869,112.022 329.866,115.623 z" id="boundary" inkscape:connector-curvature="0" />
	<path style="fill:none;stroke:red;stroke-width:1px;stroke-linecap:butt;stroke-linejoin:miter;stroke-opacity:1" d="M 365.873,112.022 383.877,112.022 z" id="boundary" inkscape:connector-curvature="0" />
	<path style="fill:none;stroke:red;stroke-width:1px;stroke-linecap:butt;stroke-linejoin:miter;stroke-opacity:1" d="M 383.877,112.022 410.882,128.225 z" id="boundary" inkscape:connector-curvature="0" />
	<path style="fill:none;stroke:red;stroke-width:1px;stroke-linecap:butt;stroke-linejoin:miter;stroke-opacity:1" d="M 365.873,112.022 347.869,112.022 z" id="boundary" inkscape:connector-curvature="0" />
	<path style="fill:none;stroke:red;stroke-width:1px;stroke-linecap:butt;stroke-linejoin:miter;stroke-opacity:1" d="M 445.089,90.4174 454.091,63.412 z" id="boundary" inkscape:connector-curvature="0" />
	<path style="fill:none;stroke:red;stroke-width:1px;stroke-linecap:butt;stroke-linejoin:miter;stroke-opacity:1" d="M 454.091,63.412 468.494,49.0091 z" id="boundary" inkscape:connector-curvature="0" />
	<path style="fill:none;stroke:red;stroke-width:1px;stroke-linecap:butt;stroke-linejoin:miter;stroke-opacity:1" d="M 401.88,112.022 383.877,112.022 z" id="boundary" inkscape:connector-curvature="0" />
	<path style="fill:none;stroke:red;stroke-width:1px;stroke-linecap:butt;stroke-linejoin:miter;stroke-opacity:1" d="M 477.495,31.0054 468.494,49.0091 z" id="boundary" inkscape:connector-curvature="0" />
	<path style="fill:none;stroke:red;stroke-width:1px;stroke-linecap:butt;stroke-linejoin:miter;stroke-opacity:1" d="M 439.688,112.022 445.089,90.4174 z" id="boundary" inkscape:connector-curvature="0" />
	<path style="fill:none;stroke:red;stroke-width:1px;stroke-linecap:butt;stroke-linejoin:miter;stroke-opacity:1" d="M 486.497,13.0018 477.495,31.0054 z" id="boundary" inkscape:connector-curvature="0" />
	<path style="fill:none;stroke:red;stroke-width:1px;stroke-linecap:butt;stroke-linejoin:miter;stroke-opacity:1" d="M 283.056,112.022 265.053,117.423 z" id="boundary" inkscape:connector-curvature="0" />
	<path style="fill:none;stroke:red;stroke-width:1px;stroke-linecap:butt;stroke-linejoin:miter;stroke-opacity:1" d="M 265.053,135.426 265.053,117.423 z" id="boundary" inkscape:connector-curvature="0" />
	<path style="fill:none;stroke:red;stroke-width:1px;stroke-linecap:butt;stroke-linejoin:miter;stroke-opacity:1" d="M 283.056,112.022 297.459,122.824 z" id="boundary" inkscape:connector-curvature="0" />
	<path style="fill:none;stroke:red;stroke-width:1px;stroke-linecap:butt;stroke-linejoin:miter;stroke-opacity:1" d="M 297.459,122.824 315.463,130.025 z" id="boundary" inkscape:connector-curvature="0" />
	<path style="fill:none;stroke:red;stroke-width:1px;stroke-linecap:butt;stroke-linejoin:miter;stroke-opacity:1" d="M 329.866,115.623 315.463,130.025 z" id="boundary" inkscape:connector-curvature="0" />
	<path style="fill:none;stroke:red;stroke-width:1px;stroke-linecap:butt;stroke-linejoin:miter;stroke-opacity:1" d="M 265.053,135.426 248.849,148.029 z" id="boundary" inkscape:connector-curvature="0" />
	<path style="fill:none;stroke:red;stroke-width:1px;stroke-linecap:butt;stroke-linejoin:miter;stroke-opacity:1" d="M 439.688,112.022 421.684,113.822 z" id="boundary" inkscape:connector-curvature="0" />
	<path style="fill:none;stroke:red;stroke-width:1px;stroke-linecap:butt;stroke-linejoin:miter;stroke-opacity:1" d="M 410.882,128.225 401.88,112.022 z" id="boundary" inkscape:connector-curvature="0" />
	<path style="fill:none;stroke:red;stroke-width:1px;stroke-linecap:butt;stroke-linejoin:miter;stroke-opacity:1" d="M 421.684,113.822 410.882,128.225 z" id="boundary" inkscape:connector-curvature="0" />
	<path style="fill:none;stroke:red;stroke-width:1px;stroke-linecap:butt;stroke-linejoin:miter;stroke-opacity:1" d="M 504.501,4 486.497,13.0018 z" id="boundary" inkscape:connector-curvature="0" />
	<path style="fill:none;stroke:red;stroke-width:1px;stroke-linecap:butt;stroke-linejoin:miter;stroke-opacity:1" d="M 22.0036,315.463 22.0036,333.466 z" id="boundary" inkscape:connector-curvature="0" />
	<path style="fill:none;stroke:red;stroke-width:1px;stroke-linecap:butt;stroke-linejoin:miter;stroke-opacity:1" d="M 40.0073,365.873 31.0054,349.67 z" id="boundary" inkscape:connector-curvature="0" />
	<path style="fill:none;stroke:red;stroke-width:1px;stroke-linecap:butt;stroke-linejoin:miter;stroke-opacity:1" d="M 22.0036,333.466 31.0054,349.67 z" id="boundary" inkscape:connector-curvature="0" />
	<path style="fill:none;stroke:red;stroke-width:1px;stroke-linecap:butt;stroke-linejoin:miter;stroke-opacity:1" d="M 22.0036,315.463 18.4029,283.056 z" id="boundary" inkscape:connector-curvature="0" />
	<path style="fill:none;stroke:red;stroke-width:1px;stroke-linecap:butt;stroke-linejoin:miter;stroke-opacity:1" d="M 40.0073,365.873 49.0091,382.076 z" id="boundary" inkscape:connector-curvature="0" />
	<path style="fill:none;stroke:red;stroke-width:1px;stroke-linecap:butt;stroke-linejoin:miter;stroke-opacity:1" d="M 49.0091,382.076 49.0091,400.08 z" id="boundary" inkscape:connector-curvature="0" />
	<path style="fill:none;stroke:red;stroke-width:1px;stroke-linecap:butt;stroke-linejoin:miter;stroke-opacity:1" d="M 63.412,410.882 49.0091,400.08 z" id="boundary" inkscape:connector-curvature="0" />
	<path style="fill:none;stroke:red;stroke-width:1px;stroke-linecap:butt;stroke-linejoin:miter;stroke-opacity:1" d="M 77.8149,423.485 63.412,410.882 z" id="boundary" inkscape:connector-curvature="0" />
	<path style="fill:none;stroke:red;stroke-width:1px;stroke-linecap:butt;stroke-linejoin:miter;stroke-opacity:1" d="M 77.8149,423.485 90.4174,437.887 z" id="boundary" inkscape:connector-curvature="0" />
	<path style="fill:none;stroke:red;stroke-width:1px;stroke-linecap:butt;stroke-linejoin:miter;stroke-opacity:1" d="M 108.421,437.887 90.4174,437.887 z" id="boundary" inkscape:connector-curvature="0" />
	<path style="fill:none;stroke:red;stroke-width:1px;stroke-linecap:butt;stroke-linejoin:miter;stroke-opacity:1" d="M 108.421,437.887 126.425,437.887 z" id="boundary" inkscape:connector-curvature="0" />
	<path style="fill:none;stroke:red;stroke-width:1px;stroke-linecap:butt;stroke-linejoin:miter;stroke-opacity:1" d="M 194.838,410.882 176.835,410.882 z" id="boundary" inkscape:connector-curvature="0" />
	<path style="fill:none;stroke:red;stroke-width:1px;stroke-linecap:butt;stroke-linejoin:miter;stroke-opacity:1" d="M 144.428,437.887 160.632,428.886 z" id="boundary" inkscape:connector-curvature="0" />
	<path style="fill:none;stroke:red;stroke-width:1px;stroke-linecap:butt;stroke-linejoin:miter;stroke-opacity:1" d="M 144.428,437.887 126.425,437.887 z" id="boundary" inkscape:connector-curvature="0" />
	<path style="fill:none;stroke:red;stroke-width:1px;stroke-linecap:butt;stroke-linejoin:miter;stroke-opacity:1" d="M 194.838,410.882 212.842,410.882 z" id="boundary" inkscape:connector-curvature="0" />
	<path style="fill:none;stroke:red;stroke-width:1px;stroke-linecap:butt;stroke-linejoin:miter;stroke-opacity:1" d="M 230.846,410.882 241.648,425.285 z" id="boundary" inkscape:connector-curvature="0" />
	<path style="fill:none;stroke:red;stroke-width:1px;stroke-linecap:butt;stroke-linejoin:miter;stroke-opacity:1" d="M 212.842,410.882 230.846,410.882 z" id="boundary" inkscape:connector-curvature="0" />
	<path style="fill:none;stroke:red;stroke-width:1px;stroke-linecap:butt;stroke-linejoin:miter;stroke-opacity:1" d="M 176.835,410.882 160.632,428.886 z" id="boundary" inkscape:connector-curvature="0" />
	<path style="fill:none;stroke:red;stroke-width:1px;stroke-linecap:butt;stroke-linejoin:miter;stroke-opacity:1" d="M 252.45,410.882 281.256,410.882 z" id="boundary" inkscape:connector-curvature="0" />
	<path style="fill:none;stroke:red;stroke-width:1px;stroke-linecap:butt;stroke-linejoin:miter;stroke-opacity:1" d="M 281.256,410.882 266.853,423.485 z" id="boundary" inkscape:connector-curvature="0" />
	<path style="fill:none;stroke:red;stroke-width:1px;stroke-linecap:butt;stroke-linejoin:miter;stroke-opacity:1" d="M 266.853,423.485 252.45,410.882 z" id="boundary" inkscape:connector-curvature="0" />
	<path style="fill:none;stroke:red;stroke-width:1px;stroke-linecap:butt;stroke-linejoin:miter;stroke-opacity:1" d="M 241.648,425.285 266.853,423.485 z" id="boundary" inkscape:connector-curvature="0" />
	<path style="fill:none;stroke:red;stroke-width:1px;stroke-linecap:butt;stroke-linejoin:miter;stroke-opacity:1" d="M 266.853,423.485 293.858,425.285 z" id="boundary" inkscape:connector-curvature="0" />
	<path style="fill:none;stroke:red;stroke-width:1px;stroke-linecap:butt;stroke-linejoin:miter;stroke-opacity:1" d="M 241.648,425.285 252.45,410.882 z" id="boundary" inkscape:connector-curvature="0" />
	<path style="fill:none;stroke:red;stroke-width:1px;stroke-linecap:butt;stroke-linejoin:miter;stroke-opacity:1" d="M 293.858,425.285 304.661,410.882 z" id="boundary" inkscape:connector-curvature="0" />
	<path style="fill:none;stroke:red;stroke-width:1px;stroke-linecap:butt;stroke-linejoin:miter;stroke-opacity:1" d="M 304.661,410.882 313.662,427.085 z" id="boundary" inkscape:connector-curvature="0" />
	<path style="fill:none;stroke:red;stroke-width:1px;stroke-linecap:butt;stroke-linejoin:miter;stroke-opacity:1" d="M 281.256,410.882 304.661,410.882 z" id="boundary" inkscape:connector-curvature="0" />
	<path style="fill:none;stroke:red;stroke-width:1px;stroke-linecap:butt;stroke-linejoin:miter;stroke-opacity:1" d="M 313.662,427.085 331.666,425.285 z" id="boundary" inkscape:connector-curvature="0" />
	<path style="fill:none;stroke:red;stroke-width:1px;stroke-linecap:butt;stroke-linejoin:miter;stroke-opacity:1" d="M 331.666,425.285 349.67,428.886 z" id="boundary" inkscape:connector-curvature="0" />
	<path style="fill:none;stroke:red;stroke-width:1px;stroke-linecap:butt;stroke-linejoin:miter;stroke-opacity:1" d="M 304.661,410.882 331.666,425.285 z" id="boundary" inkscape:connector-curvature="0" />
	<path style="fill:none;stroke:red;stroke-width:1px;stroke-linecap:butt;stroke-linejoin:miter;stroke-opacity:1" d="M 367.673,428.886 349.67,428.886 z" id="boundary" inkscape:connector-curvature="0" />
	<path style="fill:none;stroke:red;stroke-width:1px;stroke-linecap:butt;stroke-linejoin:miter;stroke-opacity:1" d="M 367.673,428.886 385.677,428.886 z" id="boundary" inkscape:connector-curvature="0" />
	<path style="fill:none;stroke:red;stroke-width:1px;stroke-linecap:butt;stroke-linejoin:miter;stroke-opacity:1" d="M 385.677,428.886 403.681,428.886 z" id="boundary" inkscape:connector-curvature="0" />
	<path style="fill:none;stroke:red;stroke-width:1px;stroke-linecap:butt;stroke-linejoin:miter;stroke-opacity:1" d="M 421.684,434.287 436.087,446.889 z" id="boundary" inkscape:connector-curvature="0" />
	<path style="fill:none;stroke:red;stroke-width:1px;stroke-linecap:butt;stroke-linejoin:miter;stroke-opacity:1" d="M 403.681,428.886 421.684,434.287 z" id="boundary" inkscape:connector-curvature="0" />
	<path style="fill:none;stroke:red;stroke-width:1px;stroke-linecap:butt;stroke-linejoin:miter;stroke-opacity:1" d="M 436.087,446.889 445.089,463.093 z" id="boundary" inkscape:connector-curvature="0" />
	<path style="fill:none;stroke:red;stroke-width:1px;stroke-linecap:butt;stroke-linejoin:miter;stroke-opacity:1" d="M 459.492,473.895 475.695,464.893 z" id="boundary" inkscape:connector-curvature="0" />
	<path style="fill:none;stroke:red;stroke-width:1px;stroke-linecap:butt;stroke-linejoin:miter;stroke-opacity:1" d="M 475.695,464.893 493.699,464.893 z" id="boundary" inkscape:connector-curvature="0" />
	<path style="fill:none;stroke:red;stroke-width:1px;stroke-linecap:butt;stroke-linejoin:miter;stroke-opacity:1" d="M 459.492,473.895 445.089,463.093 z" id="boundary" inkscape:connector-curvature="0" />
	<path style="fill:none;stroke:red;stroke-width:1px;stroke-linecap:butt;stroke-linejoin:miter;stroke-opacity:1" d="M 509.902,455.891 493.699,464.893 z" id="boundary" inkscape:connector-curvature="0" />
	<path style="fill:none;stroke:red;stroke-width:1px;stroke-linecap:butt;stroke-linejoin:miter;stroke-opacity:1" d="M 538.708,5.80036 520.704,13.0018 z" id="boundary" inkscape:connector-curvature="0" />
	<path style="fill:none;stroke:red;stroke-width:1px;stroke-linecap:butt;stroke-linejoin:miter;stroke-opacity:1" d="M 520.704,13.0018 504.501,4 z" id="boundary" inkscape:connector-curvature="0" />
	<path style="fill:none;stroke:red;stroke-width:1px;stroke-linecap:butt;stroke-linejoin:miter;stroke-opacity:1" d="M 556.711,13.0018 574.715,13.0018 z" id="boundary" inkscape:connector-curvature="0" />
	<path style="fill:none;stroke:red;stroke-width:1px;stroke-linecap:butt;stroke-linejoin:miter;stroke-opacity:1" d="M 538.708,5.80036 556.711,13.0018 z" id="boundary" inkscape:connector-curvature="0" />
	<path style="fill:none;stroke:red;stroke-width:1px;stroke-linecap:butt;stroke-linejoin:miter;stroke-opacity:1" d="M 610.722,5.80036 628.726,4 z" id="boundary" inkscape:connector-curvature="0" />
	<path style="fill:none;stroke:red;stroke-width:1px;stroke-linecap:butt;stroke-linejoin:miter;stroke-opacity:1" d="M 628.726,4 644.929,13.0018 z" id="boundary" inkscape:connector-curvature="0" />
	<path style="fill:none;stroke:red;stroke-width:1px;stroke-linecap:butt;stroke-linejoin:miter;stroke-opacity:1" d="M 592.719,13.0018 574.715,13.0018 z" id="boundary" inkscape:connector-curvature="0" />
	<path style="fill:none;stroke:red;stroke-width:1px;stroke-linecap:butt;stroke-linejoin:miter;stroke-opacity:1" d="M 610.722,5.80036 592.719,13.0018 z" id="boundary" inkscape:connector-curvature="0" />
	<path style="fill:none;stroke:red;stroke-width:1px;stroke-linecap:butt;stroke-linejoin:miter;stroke-opacity:1" d="M 662.933,13.0018 644.929,13.0018 z" id="boundary" inkscape:connector-curvature="0" />
	<path style="fill:none;stroke:red;stroke-width:1px;stroke-linecap:butt;stroke-linejoin:miter;stroke-opacity:1" d="M 662.933,13.0018 680.936,13.0018 z" id="boundary" inkscape:connector-curvature="0" />
	<path style="fill:none;stroke:red;stroke-width:1px;stroke-linecap:butt;stroke-linejoin:miter;stroke-opacity:1" d="M 698.94,13.0018 715.143,22.0036 z" id="boundary" inkscape:connector-curvature="0" />
	<path style="fill:none;stroke:red;stroke-width:1px;stroke-linecap:butt;stroke-linejoin:miter;stroke-opacity:1" d="M 680.936,13.0018 698.94,13.0018 z" id="boundary" inkscape:connector-curvature="0" />
	<path style="fill:none;stroke:red;stroke-width:1px;stroke-linecap:butt;stroke-linejoin:miter;stroke-opacity:1" d="M 731.347,31.0054 747.55,40.0073 z" id="boundary" inkscape:connector-curvature="0" />
	<path style="fill:none;stroke:red;stroke-width:1px;stroke-linecap:butt;stroke-linejoin:miter;stroke-opacity:1" d="M 747.55,40.0073 760.152,54.4102 z" id="boundary" inkscape:connector-curvature="0" />
	<path style="fill:none;stroke:red;stroke-width:1px;stroke-linecap:butt;stroke-linejoin:miter;stroke-opacity:1" d="M 760.152,54.4102 770.955,77.8149 z" id="boundary" inkscape:connector-curvature="0" />
	<path style="fill:none;stroke:red;stroke-width:1px;stroke-linecap:butt;stroke-linejoin:miter;stroke-opacity:1" d="M 770.955,77.8149 770.955,95.8185 z" id="boundary" inkscape:connector-curvature="0" />
	<path style="fill:none;stroke:red;stroke-width:1px;stroke-linecap:butt;stroke-linejoin:miter;stroke-opacity:1" d="M 715.143,22.0036 731.347,31.0054 z" id="boundary" inkscape:connector-curvature="0" />
	<path style="fill:none;stroke:red;stroke-width:1px;stroke-linecap:butt;stroke-linejoin:miter;stroke-opacity:1" d="M 770.955,95.8185 770.955,113.822 z" id="boundary" inkscape:connector-curvature="0" />
	<path style="fill:none;stroke:red;stroke-width:1px;stroke-linecap:butt;stroke-linejoin:miter;stroke-opacity:1" d="M 770.955,113.822 774.555,131.826 z" id="boundary" inkscape:connector-curvature="0" />
	<path style="fill:none;stroke:red;stroke-width:1px;stroke-linecap:butt;stroke-linejoin:miter;stroke-opacity:1" d="M 788.958,144.428 774.555,131.826 z" id="boundary" inkscape:connector-curvature="0" />
	<path style="fill:none;stroke:red;stroke-width:1px;stroke-linecap:butt;stroke-linejoin:miter;stroke-opacity:1" d="M 788.958,144.428 806.962,148.029 z" id="boundary" inkscape:connector-curvature="0" />
	<path style="fill:none;stroke:red;stroke-width:1px;stroke-linecap:butt;stroke-linejoin:miter;stroke-opacity:1" d="M 931.187,126.425 949.191,126.425 z" id="boundary" inkscape:connector-curvature="0" />
	<path style="fill:none;stroke:red;stroke-width:1px;stroke-linecap:butt;stroke-linejoin:miter;stroke-opacity:1" d="M 914.984,139.027 931.187,126.425 z" id="boundary" inkscape:connector-curvature="0" />
	<path style="fill:none;stroke:red;stroke-width:1px;stroke-linecap:butt;stroke-linejoin:miter;stroke-opacity:1" d="M 896.98,142.628 914.984,139.027 z" id="boundary" inkscape:connector-curvature="0" />
	<path style="fill:none;stroke:red;stroke-width:1px;stroke-linecap:butt;stroke-linejoin:miter;stroke-opacity:1" d="M 967.194,133.626 974.396,151.63 z" id="boundary" inkscape:connector-curvature="0" />
	<path style="fill:none;stroke:red;stroke-width:1px;stroke-linecap:butt;stroke-linejoin:miter;stroke-opacity:1" d="M 949.191,126.425 967.194,133.626 z" id="boundary" inkscape:connector-curvature="0" />
	<path style="fill:none;stroke:red;stroke-width:1px;stroke-linecap:butt;stroke-linejoin:miter;stroke-opacity:1" d="M 860.973,148.029 842.969,148.029 z" id="boundary" inkscape:connector-curvature="0" />
	<path style="fill:none;stroke:red;stroke-width:1px;stroke-linecap:butt;stroke-linejoin:miter;stroke-opacity:1" d="M 824.966,148.029 842.969,148.029 z" id="boundary" inkscape:connector-curvature="0" />
	<path style="fill:none;stroke:red;stroke-width:1px;stroke-linecap:butt;stroke-linejoin:miter;stroke-opacity:1" d="M 824.966,148.029 806.962,148.029 z" id="boundary" inkscape:connector-curvature="0" />
	<path style="fill:none;stroke:red;stroke-width:1px;stroke-linecap:butt;stroke-linejoin:miter;stroke-opacity:1" d="M 860.973,148.029 878.976,148.029 z" id="boundary" inkscape:connector-curvature="0" />
	<path style="fill:none;stroke:red;stroke-width:1px;stroke-linecap:butt;stroke-linejoin:miter;stroke-opacity:1" d="M 896.98,142.628 878.976,148.029 z" id="boundary" inkscape:connector-curvature="0" />
	<path style="fill:none;stroke:red;stroke-width:1px;stroke-linecap:butt;stroke-linejoin:miter;stroke-opacity:1" d="M 974.396,151.63 986.998,166.033 z" id="boundary" inkscape:connector-curvature="0" />
	<path style="fill:none;stroke:red;stroke-width:1px;stroke-linecap:butt;stroke-linejoin:miter;stroke-opacity:1" d="M 996,200.24 992.399,218.243 z" id="boundary" inkscape:connector-curvature="0" />
	<path style="fill:none;stroke:red;stroke-width:1px;stroke-linecap:butt;stroke-linejoin:miter;stroke-opacity:1" d="M 986.998,166.033 996,182.236 z" id="boundary" inkscape:connector-curvature="0" />
	<path style="fill:none;stroke:red;stroke-width:1px;stroke-linecap:butt;stroke-linejoin:miter;stroke-opacity:1" d="M 996,182.236 996,200.24 z" id="boundary" inkscape:connector-curvature="0" />
	<path style="fill:none;stroke:red;stroke-width:1px;stroke-linecap:butt;stroke-linejoin:miter;stroke-opacity:1" d="M 590.918,401.88 572.915,401.88 z" id="boundary" inkscape:connector-curvature="0" />
	<path style="fill:none;stroke:red;stroke-width:1px;stroke-linecap:butt;stroke-linejoin:miter;stroke-opacity:1" d="M 662.933,392.878 644.929,392.878 z" id="boundary" inkscape:connector-curvature="0" />
	<path style="fill:none;stroke:red;stroke-width:1px;stroke-linecap:butt;stroke-linejoin:miter;stroke-opacity:1" d="M 554.911,401.88 572.915,401.88 z" id="boundary" inkscape:connector-curvature="0" />
	<path style="fill:none;stroke:red;stroke-width:1px;stroke-linecap:butt;stroke-linejoin:miter;stroke-opacity:1" d="M 554.911,419.884 554.911,401.88 z" id="boundary" inkscape:connector-curvature="0" />
	<path style="fill:none;stroke:red;stroke-width:1px;stroke-linecap:butt;stroke-linejoin:miter;stroke-opacity:1" d="M 626.926,401.88 644.929,392.878 z" id="boundary" inkscape:connector-curvature="0" />
	<path style="fill:none;stroke:red;stroke-width:1px;stroke-linecap:butt;stroke-linejoin:miter;stroke-opacity:1" d="M 770.955,392.878 752.951,396.479 z" id="boundary" inkscape:connector-curvature="0" />
	<path style="fill:none;stroke:red;stroke-width:1px;stroke-linecap:butt;stroke-linejoin:miter;stroke-opacity:1" d="M 662.933,392.878 680.936,396.479 z" id="boundary" inkscape:connector-curvature="0" />
	<path style="fill:none;stroke:red;stroke-width:1px;stroke-linecap:butt;stroke-linejoin:miter;stroke-opacity:1" d="M 716.944,392.878 698.94,401.88 z" id="boundary" inkscape:connector-curvature="0" />
	<path style="fill:none;stroke:red;stroke-width:1px;stroke-linecap:butt;stroke-linejoin:miter;stroke-opacity:1" d="M 698.94,401.88 680.936,396.479 z" id="boundary" inkscape:connector-curvature="0" />
	<path style="fill:none;stroke:red;stroke-width:1px;stroke-linecap:butt;stroke-linejoin:miter;stroke-opacity:1" d="M 752.951,396.479 734.947,396.479 z" id="boundary" inkscape:connector-curvature="0" />
	<path style="fill:none;stroke:red;stroke-width:1px;stroke-linecap:butt;stroke-linejoin:miter;stroke-opacity:1" d="M 734.947,396.479 716.944,392.878 z" id="boundary" inkscape:connector-curvature="0" />
	<path style="fill:none;stroke:red;stroke-width:1px;stroke-linecap:butt;stroke-linejoin:miter;stroke-opacity:1" d="M 770.955,392.878 778.156,423.485 z" id="boundary" inkscape:connector-curvature="0" />
	<path style="fill:none;stroke:red;stroke-width:1px;stroke-linecap:butt;stroke-linejoin:miter;stroke-opacity:1" d="M 544.109,437.887 554.911,419.884 z" id="boundary" inkscape:connector-curvature="0" />
	<path style="fill:none;stroke:red;stroke-width:1px;stroke-linecap:butt;stroke-linejoin:miter;stroke-opacity:1" d="M 544.109,437.887 527.906,446.889 z" id="boundary" inkscape:connector-curvature="0" />
	<path style="fill:none;stroke:red;stroke-width:1px;stroke-linecap:butt;stroke-linejoin:miter;stroke-opacity:1" d="M 554.911,401.88 544.109,437.887 z" id="boundary" inkscape:connector-curvature="0" />
	<path style="fill:none;stroke:red;stroke-width:1px;stroke-linecap:butt;stroke-linejoin:miter;stroke-opacity:1" d="M 509.902,455.891 527.906,446.889 z" id="boundary" inkscape:connector-curvature="0" />
	<path style="fill:none;stroke:red;stroke-width:1px;stroke-linecap:butt;stroke-linejoin:miter;stroke-opacity:1" d="M 608.922,401.88 626.926,401.88 z" id="boundary" inkscape:connector-curvature="0" />
	<path style="fill:none;stroke:red;stroke-width:1px;stroke-linecap:butt;stroke-linejoin:miter;stroke-opacity:1" d="M 608.922,401.88 590.918,401.88 z" id="boundary" inkscape:connector-curvature="0" />
	<path style="fill:none;stroke:red;stroke-width:1px;stroke-linecap:butt;stroke-linejoin:miter;stroke-opacity:1" d="M 796.16,428.886 778.156,423.485 z" id="boundary" inkscape:connector-curvature="0" />
	<path style="fill:none;stroke:red;stroke-width:1px;stroke-linecap:butt;stroke-linejoin:miter;stroke-opacity:1" d="M 956.392,344.269 938.388,347.869 z" id="boundary" inkscape:connector-curvature="0" />
	<path style="fill:none;stroke:red;stroke-width:1px;stroke-linecap:butt;stroke-linejoin:miter;stroke-opacity:1" d="M 920.385,353.27 938.388,347.869 z" id="boundary" inkscape:connector-curvature="0" />
	<path style="fill:none;stroke:red;stroke-width:1px;stroke-linecap:butt;stroke-linejoin:miter;stroke-opacity:1" d="M 968.995,293.858 968.995,266.853 z" id="boundary" inkscape:connector-curvature="0" />
	<path style="fill:none;stroke:red;stroke-width:1px;stroke-linecap:butt;stroke-linejoin:miter;stroke-opacity:1" d="M 968.995,266.853 968.995,248.849 z" id="boundary" inkscape:connector-curvature="0" />
	<path style="fill:none;stroke:red;stroke-width:1px;stroke-linecap:butt;stroke-linejoin:miter;stroke-opacity:1" d="M 968.995,248.849 983.397,236.247 z" id="boundary" inkscape:connector-curvature="0" />
	<path style="fill:none;stroke:red;stroke-width:1px;stroke-linecap:butt;stroke-linejoin:miter;stroke-opacity:1" d="M 974.396,335.267 968.995,311.862 z" id="boundary" inkscape:connector-curvature="0" />
	<path style="fill:none;stroke:red;stroke-width:1px;stroke-linecap:butt;stroke-linejoin:miter;stroke-opacity:1" d="M 968.995,311.862 968.995,293.858 z" id="boundary" inkscape:connector-curvature="0" />
	<path style="fill:none;stroke:red;stroke-width:1px;stroke-linecap:butt;stroke-linejoin:miter;stroke-opacity:1" d="M 974.396,335.267 956.392,344.269 z" id="boundary" inkscape:connector-curvature="0" />
	<path style="fill:none;stroke:red;stroke-width:1px;stroke-linecap:butt;stroke-linejoin:miter;stroke-opacity:1" d="M 983.397,236.247 992.399,218.243 z" id="boundary" inkscape:connector-curvature="0" />
	<path style="fill:none;stroke:red;stroke-width:1px;stroke-linecap:butt;stroke-linejoin:miter;stroke-opacity:1" d="M 796.16,428.886 812.363,437.887 z" id="boundary" inkscape:connector-curvature="0" />
	<path style="fill:none;stroke:red;stroke-width:1px;stroke-linecap:butt;stroke-linejoin:miter;stroke-opacity:1" d="M 830.367,437.887 812.363,437.887 z" id="boundary" inkscape:connector-curvature="0" />
	<path style="fill:none;stroke:red;stroke-width:1px;stroke-linecap:butt;stroke-linejoin:miter;stroke-opacity:1" d="M 830.367,437.887 848.37,437.887 z" id="boundary" inkscape:connector-curvature="0" />
	<path style="fill:none;stroke:red;stroke-width:1px;stroke-linecap:butt;stroke-linejoin:miter;stroke-opacity:1" d="M 902.381,389.278 905.982,365.873 z" id="boundary" inkscape:connector-curvature="0" />
	<path style="fill:none;stroke:red;stroke-width:1px;stroke-linecap:butt;stroke-linejoin:miter;stroke-opacity:1" d="M 905.982,365.873 920.385,353.27 z" id="boundary" inkscape:connector-curvature="0" />
	<path style="fill:none;stroke:red;stroke-width:1px;stroke-linecap:butt;stroke-linejoin:miter;stroke-opacity:1" d="M 866.374,434.287 878.976,419.884 z" id="boundary" inkscape:connector-curvature="0" />
	<path style="fill:none;stroke:red;stroke-width:1px;stroke-linecap:butt;stroke-linejoin:miter;stroke-opacity:1" d="M 878.976,419.884 893.379,407.281 z" id="boundary" inkscape:connector-curvature="0" />
	<path style="fill:none;stroke:red;stroke-width:1px;stroke-linecap:butt;stroke-linejoin:miter;stroke-opacity:1" d="M 866.374,434.287 848.37,437.887 z" id="boundary" inkscape:connector-curvature="0" />
	<path style="fill:none;stroke:red;stroke-width:1px;stroke-linecap:butt;stroke-linejoin:miter;stroke-opacity:1" d="M 902.381,389.278 893.379,407.281 z" id="boundary" inkscape:connector-curvature="0" />
	<circle cx="4" cy="252.45" r="4" fill="#0" id="circle0"/>
	<circle cx="4" cy="270.454" r="4" fill="#0" id="circle1"/>
	<circle cx="18.4029" cy="238.047" r="4" fill="#0" id="circle2"/>
	<circle cx="18.4029" cy="283.056" r="4" fill="#0" id="circle3"/>
	<circle cx="22.0036" cy="315.463" r="4" fill="#0" id="circle4"/>
	<circle cx="22.0036" cy="333.466" r="4" fill="#0" id="circle5"/>
	<circle cx="27.4047" cy="220.044" r="4" fill="#0" id="circle6"/>
	<circle cx="27.4047" cy="266.853" r="4" fill="#0" id="circle7"/>
	<circle cx="31.0054" cy="349.67" r="4" fill="#0" id="circle8"/>
	<circle cx="40.0073" cy="198.439" r="4" fill="#0" id="circle9"/>
	<circle cx="40.0073" cy="365.873" r="4" fill="#0" id="circle10"/>
	<circle cx="49.0091" cy="382.076" r="4" fill="#0" id="circle11"/>
	<circle cx="49.0091" cy="400.08" r="4" fill="#0" id="circle12"/>
	<circle cx="54.4102" cy="184.036" r="4" fill="#0" id="circle13"/>
	<circle cx="63.412" cy="410.882" r="4" fill="#0" id="circle14"/>
	<circle cx="72.4138" cy="175.034" r="4" fill="#0" id="circle15"/>
	<circle cx="77.8149" cy="423.485" r="4" fill="#0" id="circle16"/>
	<circle cx="90.4174" cy="166.033" r="4" fill="#0" id="circle17"/>
	<circle cx="90.4174" cy="437.887" r="4" fill="#0" id="circle18"/>
	<circle cx="108.421" cy="166.033" r="4" fill="#0" id="circle19"/>
	<circle cx="108.421" cy="437.887" r="4" fill="#0" id="circle20"/>
	<circle cx="126.425" cy="166.033" r="4" fill="#0" id="circle21"/>
	<circle cx="126.425" cy="437.887" r="4" fill="#0" id="circle22"/>
	<circle cx="144.428" cy="166.033" r="4" fill="#0" id="circle23"/>
	<circle cx="144.428" cy="437.887" r="4" fill="#0" id="circle24"/>
	<circle cx="160.632" cy="428.886" r="4" fill="#0" id="circle25"/>
	<circle cx="162.432" cy="166.033" r="4" fill="#0" id="circle26"/>
	<circle cx="176.835" cy="410.882" r="4" fill="#0" id="circle27"/>
	<circle cx="180.436" cy="166.033" r="4" fill="#0" id="circle28"/>
	<circle cx="194.838" cy="410.882" r="4" fill="#0" id="circle29"/>
	<circle cx="198.439" cy="166.033" r="4" fill="#0" id="circle30"/>
	<circle cx="212.842" cy="410.882" r="4" fill="#0" id="circle31"/>
	<circle cx="214.642" cy="157.031" r="4" fill="#0" id="circle32"/>
	<circle cx="230.846" cy="410.882" r="4" fill="#0" id="circle33"/>
	<circle cx="232.646" cy="157.031" r="4" fill="#0" id="circle34"/>
	<circle cx="241.648" cy="425.285" r="4" fill="#0" id="circle35"/>
	<circle cx="248.849" cy="148.029" r="4" fill="#0" id="circle36"/>
	<circle cx="252.45" cy="410.882" r="4" fill="#0" id="circle37"/>
	<circle cx="265.053" cy="117.423" r="4" fill="#0" id="circle38"/>
	<circle cx="265.053" cy="135.426" r="4" fill="#0" id="circle39"/>
	<circle cx="266.853" cy="423.485" r="4" fill="#0" id="circle40"/>
	<circle cx="281.256" cy="410.882" r="4" fill="#0" id="circle41"/>
	<circle cx="283.056" cy="112.022" r="4" fill="#0" id="circle42"/>
	<circle cx="293.858" cy="425.285" r="4" fill="#0" id="circle43"/>
	<circle cx="297.459" cy="122.824" r="4" fill="#0" id="circle44"/>
	<circle cx="304.661" cy="410.882" r="4" fill="#0" id="circle45"/>
	<circle cx="313.662" cy="427.085" r="4" fill="#0" id="circle46"/>
	<circle cx="315.463" cy="130.025" r="4" fill="#0" id="circle47"/>
	<circle cx="329.866" cy="115.623" r="4" fill="#0" id="circle48"/>
	<circle cx="331.666" cy="425.285" r="4" fill="#0" id="circle49"/>
	<circle cx="347.869" cy="112.022" r="4" fill="#0" id="circle50"/>
	<circle cx="349.67" cy="428.886" r="4" fill="#0" id="circle51"/>
	<circle cx="365.873" cy="112.022" r="4" fill="#0" id="circle52"/>
	<circle cx="367.673" cy="428.886" r="4" fill="#0" id="circle53"/>
	<circle cx="383.877" cy="112.022" r="4" fill="#0" id="circle54"/>
	<circle cx="385.677" cy="428.886" r="4" fill="#0" id="circle55"/>
	<circle cx="401.88" cy="112.022" r="4" fill="#0" id="circle56"/>
	<circle cx="403.681" cy="428.886" r="4" fill="#0" id="circle57"/>
	<circle cx="410.882" cy="128.225" r="4" fill="#0" id="circle58"/>
	<circle cx="421.684" cy="113.822" r="4" fill="#0" id="circle59"/>
	<circle cx="421.684" cy="434.287" r="4" fill="#0" id="circle60"/>
	<circle cx="436.087" cy="446.889" r="4" fill="#0" id="circle61"/>
	<circle cx="439.688" cy="112.022" r="4" fill="#0" id="circle62"/>
	<circle cx="445.089" cy="90.4174" r="4" fill="#0" id="circle63"/>
	<circle cx="445.089" cy="463.093" r="4" fill="#0" id="circle64"/>
	<circle cx="454.091" cy="63.412" r="4" fill="#0" id="circle65"/>
	<circle cx="459.492" cy="473.895" r="4" fill="#0" id="circle66"/>
	<circle cx="468.494" cy="49.0091" r="4" fill="#0" id="circle67"/>
	<circle cx="475.695" cy="464.893" r="4" fill="#0" id="circle68"/>
	<circle cx="477.495" cy="31.0054" r="4" fill="#0" id="circle69"/>
	<circle cx="486.497" cy="13.0018" r="4" fill="#0" id="circle70"/>
	<circle cx="493.699" cy="464.893" r="4" fill="#0" id="circle71"/>
	<circle cx="504.501" cy="4" r="4" fill="#0" id="circle72"/>
	<circle cx="509.902" cy="455.891" r="4" fill="#0" id="circle73"/>
	<circle cx="520.704" cy="13.0018" r="4" fill="#0" id="circle74"/>
	<circle cx="527.906" cy="446.889" r="4" fill="#0" id="circle75"/>
	<circle cx="538.708" cy="5.80036" r="4" fill="#0" id="circle76"/>
	<circle cx="544.109" cy="437.887" r="4" fill="#0" id="circle77"/>
	<circle cx="554.911" cy="401.88" r="4" fill="#0" id="circle78"/>
	<circle cx="554.911" cy="419.884" r="4" fill="#0" id="circle79"/>
	<circle cx="556.711" cy="13.0018" r="4" fill="#0" id="circle80"/>
	<circle cx="572.915" cy="401.88" r="4" fill="#0" id="circle81"/>
	<circle cx="574.715" cy="13.0018" r="4" fill="#0" id="circle82"/>
	<circle cx="590.918" cy="401.88" r="4" fill="#0" id="circle83"/>
	<circle cx="592.719" cy="13.0018" r="4" fill="#0" id="circle84"/>
	<circle cx="608.922" cy="401.88" r="4" fill="#0" id="circle85"/>
	<circle cx="610.722" cy="5.80036" r="4" fill="#0" id="circle86"/>
	<circle cx="626.926" cy="401.88" r="4" fill="#0" id="circle87"/>
	<circle cx="628.726" cy="4" r="4" fill="#0" id="circle88"/>
	<circle cx="644.929" cy="13.0018" r="4" fill="#0" id="circle89"/>
	<circle cx="644.929" cy="392.878" r="4" fill="#0" id="circle90"/>
	<circle cx="662.933" cy="13.0018" r="4" fill="#0" id="circle91"/>
	<circle cx="662.933" cy="392.878" r="4" fill="#0" id="circle92"/>
	<circle cx="680.936" cy="13.0018" r="4" fill="#0" id="circle93"/>
	<circle cx="680.936" cy="396.479" r="4" fill="#0" id="circle94"/>
	<circle cx="698.94" cy="13.0018" r="4" fill="#0" id="circle95"/>
	<circle cx="698.94" cy="401.88" r="4" fill="#0" id="circle96"/>
	<circle cx="715.143" cy="22.0036" r="4" fill="#0" id="circle97"/>
	<circle cx="716.944" cy="392.878" r="4" fill="#0" id="circle98"/>
	<circle cx="731.347" cy="31.0054" r="4" fill="#0" id="circle99"/>
	<circle cx="734.947" cy="396.479" r="4" fill="#0" id="circle100"/>
	<circle cx="747.55" cy="40.0073" r="4" fill="#0" id="circle101"/>
	<circle cx="752.951" cy="396.479" r="4" fill="#0" id="circle102"/>
	<circle cx="760.152" cy="54.4102" r="4" fill="#0" id="circle103"/>
	<circle cx="770.955" cy="77.8149" r="4" fill="#0" id="circle104"/>
	<circle cx="770.955" cy="95.8185" r="4" fill="#0" id="circle105"/>
	<circle cx="770.955" cy="113.822" r="4" fill="#0" id="circle106"/>
	<circle cx="770.955" cy="392.878" r="4" fill="#0" id="circle107"/>
	<circle cx="774.555" cy="131.826" r="4" fill="#0" id="circle108"/>
	<circle cx="778.156" cy="423.485" r="4" fill="#0" id="circle109"/>
	<circle cx="788.958" cy="144.428" r="4" fill="#0" id="circle110"/>
	<circle cx="796.16" cy="428.886" r="4" fill="#0" id="circle111"/>
	<circle cx="806.962" cy="148.029" r="4" fill="#0" id="circle112"/>
	<circle cx="812.363" cy="437.887" r="4" fill="#0" id="circle113"/>
	<circle cx="824.966" cy="148.029" r="4" fill="#0" id="circle114"/>
	<circle cx="830.367" cy="437.887" r="4" fill="#0" id="circle115"/>
	<circle cx="842.969" cy="148.029" r="4" fill="#0" id="circle116"/>
	<circle cx="848.37" cy="437.887" r="4" fill="#0" id="circle117"/>
	<circle cx="860.973" cy="148.029" r="4" fill="#0" id="circle118"/>
	<circle cx="866.374" cy="434.287" r="4" fill="#0" id="circle119"/>
	<circle cx="878.976" cy="148.029" r="4" fill="#0" id="circle120"/>
	<circle cx="878.976" cy="419.884" r="4" fill="#0" id="circle121"/>
	<circle cx="893.379" cy="407.281" r="4" fill="#0" id="circle122"/>
	<circle cx="896.98" cy="142.628" r="4" fill="#0" id="circle123"/>
	<circle cx="902.381" cy="389.278" r="4" fill="#0" id="circle124"/>
	<circle cx="905.982" cy="365.873" r="4" fill="#0" id="circle125"/>
	<circle cx="914.984" cy="139.027" r="4" fill="#0" id="circle126"/>
	<circle cx="920.385" cy="353.27" r="4" fill="#0" id="circle127"/>
	<circle cx="931.187" cy="126.425" r="4" fill="#0" id="circle128"/>
	<circle cx="938.388" cy="347.869" r="4" fill="#0" id="circle129"/>
	<circle cx="949.191" cy="126.425" r="4" fill="#0" id="circle130"/>
	<circle cx="956.392" cy="344.269" r="4" fill="#0" id="circle131"/>
	<circle cx="967.194" cy="133.626" r="4" fill="#0" id="circle132"/>
	<circle cx="968.995" cy="248.849" r="4" fill="#0" id="circle133"/>
	<circle cx="968.995" cy="266.853" r="4" fill="#0" id="circle134"/>
	<circle cx="968.995" cy="293.858" r="4" fill="#0" id="circle135"/>
	<circle cx="968.995" cy="311.862" r="4" fill="#0" id="circle136"/>
	<circle cx="974.396" cy="151.63" r="4" fill="#0" id="circle137"/>
	<circle cx="974.396" cy="335.267" r="4" fill="#0" id="circle138"/>
	<circle cx="983.397" cy="236.247" r="4" fill="#0" id="circle139"/>
	<circle cx="986.998" cy="166.033" r="4" fill="#0" id="circle140"/>
	<circle cx="992.399" cy="218.243" r="4" fill="#0" id="circle141"/>
	<circle cx="996" cy="182.236" r="4" fill="#0" id="circle142"/>
	<circle cx="996" cy="200.24" r="4" fill="#0" id="circle143"/>
	</g>
</svg>