<?xml version="1.0" encoding="UTF-8" standalone="no"?>
<!-- Created with CurveBenchmark -->
<svg
	xmlns:dc="http://purl.org/dc/elements/1.1/"
	xmlns:cc="http://creativecommons.org/ns#"
	xmlns:rdf="http://www.w3.org/1999/02/22-rdf-syntax-ns#"
	xmlns:svg="http://www.w3.org/2000/svg"
	xmlns="http://www.w3.org/2000/svg"
	xmlns:sodipodi="http://sodipodi.sourceforge.net/DTD/sodipodi-0.dtd"
	xmlns:inkscape="http://www.inkscape.org/namespaces/inkscape"
	width="1000"
	height="1000"
	id="svg2"
	version="1.1"
	sodipodi:docname="manifold/nncrust-tool10.png.txt">
<defs
	id="defs4" />
<metadata
	id="metadata7">
	<rdf:RDF>
		<cc:Work
			rdf:about="">
			<dc:format>image/svg+xml</dc:format>
			<dc:type
				rdf:resource="http://purl.org/dc/dcmitype/StillImage" />
			<dc:title></dc:title>
		</cc:Work>
	</rdf:RDF>
</metadata>
<g
	inkscape:label="Layer 1"
	inkscape:groupmode="layer"
	id="layer1">
	<path style="fill:none;stroke:red;stroke-width:1px;stroke-linecap:butt;stroke-linejoin:miter;stroke-opacity:1" d="M 4,57.1429 4,27.619 z" id="boundary" inkscape:connector-curvature="0" />
	<path style="fill:none;stroke:red;stroke-width:1px;stroke-linecap:butt;stroke-linejoin:miter;stroke-opacity:1" d="M 4,27.619 27.619,4 z" id="boundary" inkscape:connector-curvature="0" />
	<path style="fill:none;stroke:red;stroke-width:1px;stroke-linecap:butt;stroke-linejoin:miter;stroke-opacity:1" d="M 27.619,4 57.1429,4 z" id="boundary" inkscape:connector-curvature="0" />
	<path style="fill:none;stroke:red;stroke-width:1px;stroke-linecap:butt;stroke-linejoin:miter;stroke-opacity:1" d="M 48.2857,125.048 18.7619,113.238 z" id="boundary" inkscape:connector-curvature="0" />
	<path style="fill:none;stroke:red;stroke-width:1px;stroke-linecap:butt;stroke-linejoin:miter;stroke-opacity:1" d="M 18.7619,113.238 4,86.6667 z" id="boundary" inkscape:connector-curvature="0" />
	<path style="fill:none;stroke:red;stroke-width:1px;stroke-linecap:butt;stroke-linejoin:miter;stroke-opacity:1" d="M 4,86.6667 4,57.1429 z" id="boundary" inkscape:connector-curvature="0" />
	<path style="fill:none;stroke:red;stroke-width:1px;stroke-linecap:butt;stroke-linejoin:miter;stroke-opacity:1" d="M 48.2857,125.048 57.1429,154.571 z" id="boundary" inkscape:connector-curvature="0" />
	<path style="fill:none;stroke:red;stroke-width:1px;stroke-linecap:butt;stroke-linejoin:miter;stroke-opacity:1" d="M 71.9048,181.143 83.7143,210.667 z" id="boundary" inkscape:connector-curvature="0" />
	<path style="fill:none;stroke:red;stroke-width:1px;stroke-linecap:butt;stroke-linejoin:miter;stroke-opacity:1" d="M 107.333,228.381 83.7143,210.667 z" id="boundary" inkscape:connector-curvature="0" />
	<path style="fill:none;stroke:red;stroke-width:1px;stroke-linecap:butt;stroke-linejoin:miter;stroke-opacity:1" d="M 57.1429,154.571 71.9048,181.143 z" id="boundary" inkscape:connector-curvature="0" />
	<path style="fill:none;stroke:red;stroke-width:1px;stroke-linecap:butt;stroke-linejoin:miter;stroke-opacity:1" d="M 57.1429,4 86.6667,4 z" id="boundary" inkscape:connector-curvature="0" />
	<path style="fill:none;stroke:red;stroke-width:1px;stroke-linecap:butt;stroke-linejoin:miter;stroke-opacity:1" d="M 86.6667,4 107.333,27.619 z" id="boundary" inkscape:connector-curvature="0" />
	<path style="fill:none;stroke:red;stroke-width:1px;stroke-linecap:butt;stroke-linejoin:miter;stroke-opacity:1" d="M 122.095,54.1905 133.905,83.7143 z" id="boundary" inkscape:connector-curvature="0" />
	<path style="fill:none;stroke:red;stroke-width:1px;stroke-linecap:butt;stroke-linejoin:miter;stroke-opacity:1" d="M 169.333,133.905 148.667,110.286 z" id="boundary" inkscape:connector-curvature="0" />
	<path style="fill:none;stroke:red;stroke-width:1px;stroke-linecap:butt;stroke-linejoin:miter;stroke-opacity:1" d="M 148.667,110.286 133.905,83.7143 z" id="boundary" inkscape:connector-curvature="0" />
	<path style="fill:none;stroke:red;stroke-width:1px;stroke-linecap:butt;stroke-linejoin:miter;stroke-opacity:1" d="M 169.333,133.905 184.095,160.476 z" id="boundary" inkscape:connector-curvature="0" />
	<path style="fill:none;stroke:red;stroke-width:1px;stroke-linecap:butt;stroke-linejoin:miter;stroke-opacity:1" d="M 122.095,54.1905 107.333,27.619 z" id="boundary" inkscape:connector-curvature="0" />
	<path style="fill:none;stroke:red;stroke-width:1px;stroke-linecap:butt;stroke-linejoin:miter;stroke-opacity:1" d="M 116.19,257.905 107.333,228.381 z" id="boundary" inkscape:connector-curvature="0" />
	<path style="fill:none;stroke:red;stroke-width:1px;stroke-linecap:butt;stroke-linejoin:miter;stroke-opacity:1" d="M 184.095,160.476 195.905,190 z" id="boundary" inkscape:connector-curvature="0" />
	<path style="fill:none;stroke:red;stroke-width:1px;stroke-linecap:butt;stroke-linejoin:miter;stroke-opacity:1" d="M 195.905,190 219.524,210.667 z" id="boundary" inkscape:connector-curvature="0" />
	<path style="fill:none;stroke:red;stroke-width:1px;stroke-linecap:butt;stroke-linejoin:miter;stroke-opacity:1" d="M 219.524,210.667 228.381,240.19 z" id="boundary" inkscape:connector-curvature="0" />
	<path style="fill:none;stroke:red;stroke-width:1px;stroke-linecap:butt;stroke-linejoin:miter;stroke-opacity:1" d="M 252,257.905 228.381,240.19 z" id="boundary" inkscape:connector-curvature="0" />
	<path style="fill:none;stroke:red;stroke-width:1px;stroke-linecap:butt;stroke-linejoin:miter;stroke-opacity:1" d="M 130.952,284.476 116.19,257.905 z" id="boundary" inkscape:connector-curvature="0" />
	<path style="fill:none;stroke:red;stroke-width:1px;stroke-linecap:butt;stroke-linejoin:miter;stroke-opacity:1" d="M 130.952,284.476 151.619,308.095 z" id="boundary" inkscape:connector-curvature="0" />
	<path style="fill:none;stroke:red;stroke-width:1px;stroke-linecap:butt;stroke-linejoin:miter;stroke-opacity:1" d="M 252,257.905 263.81,287.429 z" id="boundary" inkscape:connector-curvature="0" />
	<path style="fill:none;stroke:red;stroke-width:1px;stroke-linecap:butt;stroke-linejoin:miter;stroke-opacity:1" d="M 175.238,328.762 151.619,308.095 z" id="boundary" inkscape:connector-curvature="0" />
	<path style="fill:none;stroke:red;stroke-width:1px;stroke-linecap:butt;stroke-linejoin:miter;stroke-opacity:1" d="M 181.143,358.286 175.238,328.762 z" id="boundary" inkscape:connector-curvature="0" />
	<path style="fill:none;stroke:red;stroke-width:1px;stroke-linecap:butt;stroke-linejoin:miter;stroke-opacity:1" d="M 198.857,381.905 181.143,358.286 z" id="boundary" inkscape:connector-curvature="0" />
	<path style="fill:none;stroke:red;stroke-width:1px;stroke-linecap:butt;stroke-linejoin:miter;stroke-opacity:1" d="M 219.524,405.524 198.857,381.905 z" id="boundary" inkscape:connector-curvature="0" />
	<path style="fill:none;stroke:red;stroke-width:1px;stroke-linecap:butt;stroke-linejoin:miter;stroke-opacity:1" d="M 219.524,405.524 234.286,432.095 z" id="boundary" inkscape:connector-curvature="0" />
	<path style="fill:none;stroke:red;stroke-width:1px;stroke-linecap:butt;stroke-linejoin:miter;stroke-opacity:1" d="M 234.286,432.095 254.952,455.714 z" id="boundary" inkscape:connector-curvature="0" />
	<path style="fill:none;stroke:red;stroke-width:1px;stroke-linecap:butt;stroke-linejoin:miter;stroke-opacity:1" d="M 254.952,455.714 254.952,485.238 z" id="boundary" inkscape:connector-curvature="0" />
	<path style="fill:none;stroke:red;stroke-width:1px;stroke-linecap:butt;stroke-linejoin:miter;stroke-opacity:1" d="M 284.476,494.095 254.952,485.238 z" id="boundary" inkscape:connector-curvature="0" />
	<path style="fill:none;stroke:red;stroke-width:1px;stroke-linecap:butt;stroke-linejoin:miter;stroke-opacity:1" d="M 263.81,287.429 278.571,314 z" id="boundary" inkscape:connector-curvature="0" />
	<path style="fill:none;stroke:red;stroke-width:1px;stroke-linecap:butt;stroke-linejoin:miter;stroke-opacity:1" d="M 299.238,337.619 316.952,361.238 z" id="boundary" inkscape:connector-curvature="0" />
	<path style="fill:none;stroke:red;stroke-width:1px;stroke-linecap:butt;stroke-linejoin:miter;stroke-opacity:1" d="M 299.238,337.619 278.571,314 z" id="boundary" inkscape:connector-curvature="0" />
	<path style="fill:none;stroke:red;stroke-width:1px;stroke-linecap:butt;stroke-linejoin:miter;stroke-opacity:1" d="M 346.476,411.429 322.857,390.762 z" id="boundary" inkscape:connector-curvature="0" />
	<path style="fill:none;stroke:red;stroke-width:1px;stroke-linecap:butt;stroke-linejoin:miter;stroke-opacity:1" d="M 322.857,390.762 316.952,361.238 z" id="boundary" inkscape:connector-curvature="0" />
	<path style="fill:none;stroke:red;stroke-width:1px;stroke-linecap:butt;stroke-linejoin:miter;stroke-opacity:1" d="M 367.143,435.048 346.476,411.429 z" id="boundary" inkscape:connector-curvature="0" />
	<path style="fill:none;stroke:red;stroke-width:1px;stroke-linecap:butt;stroke-linejoin:miter;stroke-opacity:1" d="M 293.333,523.619 284.476,494.095 z" id="boundary" inkscape:connector-curvature="0" />
	<path style="fill:none;stroke:red;stroke-width:1px;stroke-linecap:butt;stroke-linejoin:miter;stroke-opacity:1" d="M 308.095,550.19 293.333,523.619 z" id="boundary" inkscape:connector-curvature="0" />
	<path style="fill:none;stroke:red;stroke-width:1px;stroke-linecap:butt;stroke-linejoin:miter;stroke-opacity:1" d="M 364.19,624 343.524,600.381 z" id="boundary" inkscape:connector-curvature="0" />
	<path style="fill:none;stroke:red;stroke-width:1px;stroke-linecap:butt;stroke-linejoin:miter;stroke-opacity:1" d="M 328.762,573.81 308.095,550.19 z" id="boundary" inkscape:connector-curvature="0" />
	<path style="fill:none;stroke:red;stroke-width:1px;stroke-linecap:butt;stroke-linejoin:miter;stroke-opacity:1" d="M 364.19,624 373.048,653.524 z" id="boundary" inkscape:connector-curvature="0" />
	<path style="fill:none;stroke:red;stroke-width:1px;stroke-linecap:butt;stroke-linejoin:miter;stroke-opacity:1" d="M 328.762,573.81 343.524,600.381 z" id="boundary" inkscape:connector-curvature="0" />
	<path style="fill:none;stroke:red;stroke-width:1px;stroke-linecap:butt;stroke-linejoin:miter;stroke-opacity:1" d="M 376,464.571 390.762,491.143 z" id="boundary" inkscape:connector-curvature="0" />
	<path style="fill:none;stroke:red;stroke-width:1px;stroke-linecap:butt;stroke-linejoin:miter;stroke-opacity:1" d="M 376,464.571 367.143,435.048 z" id="boundary" inkscape:connector-curvature="0" />
	<path style="fill:none;stroke:red;stroke-width:1px;stroke-linecap:butt;stroke-linejoin:miter;stroke-opacity:1" d="M 414.381,508.857 426.19,538.381 z" id="boundary" inkscape:connector-curvature="0" />
	<path style="fill:none;stroke:red;stroke-width:1px;stroke-linecap:butt;stroke-linejoin:miter;stroke-opacity:1" d="M 414.381,508.857 390.762,491.143 z" id="boundary" inkscape:connector-curvature="0" />
	<path style="fill:none;stroke:red;stroke-width:1px;stroke-linecap:butt;stroke-linejoin:miter;stroke-opacity:1" d="M 440.952,564.952 426.19,538.381 z" id="boundary" inkscape:connector-curvature="0" />
	<path style="fill:none;stroke:red;stroke-width:1px;stroke-linecap:butt;stroke-linejoin:miter;stroke-opacity:1" d="M 461.619,588.571 440.952,564.952 z" id="boundary" inkscape:connector-curvature="0" />
	<path style="fill:none;stroke:red;stroke-width:1px;stroke-linecap:butt;stroke-linejoin:miter;stroke-opacity:1" d="M 411.429,700.762 390.762,677.143 z" id="boundary" inkscape:connector-curvature="0" />
	<path style="fill:none;stroke:red;stroke-width:1px;stroke-linecap:butt;stroke-linejoin:miter;stroke-opacity:1" d="M 390.762,677.143 373.048,653.524 z" id="boundary" inkscape:connector-curvature="0" />
	<path style="fill:none;stroke:red;stroke-width:1px;stroke-linecap:butt;stroke-linejoin:miter;stroke-opacity:1" d="M 432.095,756.857 426.19,727.333 z" id="boundary" inkscape:connector-curvature="0" />
	<path style="fill:none;stroke:red;stroke-width:1px;stroke-linecap:butt;stroke-linejoin:miter;stroke-opacity:1" d="M 426.19,727.333 411.429,700.762 z" id="boundary" inkscape:connector-curvature="0" />
	<path style="fill:none;stroke:red;stroke-width:1px;stroke-linecap:butt;stroke-linejoin:miter;stroke-opacity:1" d="M 432.095,756.857 432.095,786.381 z" id="boundary" inkscape:connector-curvature="0" />
	<path style="fill:none;stroke:red;stroke-width:1px;stroke-linecap:butt;stroke-linejoin:miter;stroke-opacity:1" d="M 461.619,588.571 476.381,615.143 z" id="boundary" inkscape:connector-curvature="0" />
	<path style="fill:none;stroke:red;stroke-width:1px;stroke-linecap:butt;stroke-linejoin:miter;stroke-opacity:1" d="M 520.667,653.524 544.286,671.238 z" id="boundary" inkscape:connector-curvature="0" />
	<path style="fill:none;stroke:red;stroke-width:1px;stroke-linecap:butt;stroke-linejoin:miter;stroke-opacity:1" d="M 520.667,653.524 494.095,638.762 z" id="boundary" inkscape:connector-curvature="0" />
	<path style="fill:none;stroke:red;stroke-width:1px;stroke-linecap:butt;stroke-linejoin:miter;stroke-opacity:1" d="M 494.095,638.762 476.381,615.143 z" id="boundary" inkscape:connector-curvature="0" />
	<path style="fill:none;stroke:red;stroke-width:1px;stroke-linecap:butt;stroke-linejoin:miter;stroke-opacity:1" d="M 544.286,671.238 573.81,683.048 z" id="boundary" inkscape:connector-curvature="0" />
	<path style="fill:none;stroke:red;stroke-width:1px;stroke-linecap:butt;stroke-linejoin:miter;stroke-opacity:1" d="M 573.81,683.048 603.333,683.048 z" id="boundary" inkscape:connector-curvature="0" />
	<path style="fill:none;stroke:red;stroke-width:1px;stroke-linecap:butt;stroke-linejoin:miter;stroke-opacity:1" d="M 603.333,683.048 629.905,697.81 z" id="boundary" inkscape:connector-curvature="0" />
	<path style="fill:none;stroke:red;stroke-width:1px;stroke-linecap:butt;stroke-linejoin:miter;stroke-opacity:1" d="M 662.381,774.571 656.476,745.048 z" id="boundary" inkscape:connector-curvature="0" />
	<path style="fill:none;stroke:red;stroke-width:1px;stroke-linecap:butt;stroke-linejoin:miter;stroke-opacity:1" d="M 656.476,745.048 656.476,712.571 z" id="boundary" inkscape:connector-curvature="0" />
	<path style="fill:none;stroke:red;stroke-width:1px;stroke-linecap:butt;stroke-linejoin:miter;stroke-opacity:1" d="M 671.238,804.095 662.381,774.571 z" id="boundary" inkscape:connector-curvature="0" />
	<path style="fill:none;stroke:red;stroke-width:1px;stroke-linecap:butt;stroke-linejoin:miter;stroke-opacity:1" d="M 629.905,697.81 656.476,712.571 z" id="boundary" inkscape:connector-curvature="0" />
	<path style="fill:none;stroke:red;stroke-width:1px;stroke-linecap:butt;stroke-linejoin:miter;stroke-opacity:1" d="M 438,815.905 432.095,786.381 z" id="boundary" inkscape:connector-curvature="0" />
	<path style="fill:none;stroke:red;stroke-width:1px;stroke-linecap:butt;stroke-linejoin:miter;stroke-opacity:1" d="M 553.143,863.143 446.857,874.952 z" id="boundary" inkscape:connector-curvature="0" />
	<path style="fill:none;stroke:red;stroke-width:1px;stroke-linecap:butt;stroke-linejoin:miter;stroke-opacity:1" d="M 446.857,874.952 446.857,845.429 z" id="boundary" inkscape:connector-curvature="0" />
	<path style="fill:none;stroke:red;stroke-width:1px;stroke-linecap:butt;stroke-linejoin:miter;stroke-opacity:1" d="M 446.857,845.429 438,815.905 z" id="boundary" inkscape:connector-curvature="0" />
	<path style="fill:none;stroke:red;stroke-width:1px;stroke-linecap:butt;stroke-linejoin:miter;stroke-opacity:1" d="M 446.857,874.952 446.857,904.476 z" id="boundary" inkscape:connector-curvature="0" />
	<path style="fill:none;stroke:red;stroke-width:1px;stroke-linecap:butt;stroke-linejoin:miter;stroke-opacity:1" d="M 485.238,951.714 464.571,928.095 z" id="boundary" inkscape:connector-curvature="0" />
	<path style="fill:none;stroke:red;stroke-width:1px;stroke-linecap:butt;stroke-linejoin:miter;stroke-opacity:1" d="M 464.571,928.095 446.857,904.476 z" id="boundary" inkscape:connector-curvature="0" />
	<path style="fill:none;stroke:red;stroke-width:1px;stroke-linecap:butt;stroke-linejoin:miter;stroke-opacity:1" d="M 508.857,972.381 538.381,981.238 z" id="boundary" inkscape:connector-curvature="0" />
	<path style="fill:none;stroke:red;stroke-width:1px;stroke-linecap:butt;stroke-linejoin:miter;stroke-opacity:1" d="M 538.381,981.238 564.952,996 z" id="boundary" inkscape:connector-curvature="0" />
	<path style="fill:none;stroke:red;stroke-width:1px;stroke-linecap:butt;stroke-linejoin:miter;stroke-opacity:1" d="M 508.857,972.381 485.238,951.714 z" id="boundary" inkscape:connector-curvature="0" />
	<path style="fill:none;stroke:red;stroke-width:1px;stroke-linecap:butt;stroke-linejoin:miter;stroke-opacity:1" d="M 553.143,863.143 567.905,889.714 z" id="boundary" inkscape:connector-curvature="0" />
	<path style="fill:none;stroke:red;stroke-width:1px;stroke-linecap:butt;stroke-linejoin:miter;stroke-opacity:1" d="M 582.667,863.143 612.19,869.048 z" id="boundary" inkscape:connector-curvature="0" />
	<path style="fill:none;stroke:red;stroke-width:1px;stroke-linecap:butt;stroke-linejoin:miter;stroke-opacity:1" d="M 671.238,804.095 671.238,833.619 z" id="boundary" inkscape:connector-curvature="0" />
	<path style="fill:none;stroke:red;stroke-width:1px;stroke-linecap:butt;stroke-linejoin:miter;stroke-opacity:1" d="M 671.238,833.619 671.238,863.143 z" id="boundary" inkscape:connector-curvature="0" />
	<path style="fill:none;stroke:red;stroke-width:1px;stroke-linecap:butt;stroke-linejoin:miter;stroke-opacity:1" d="M 582.667,863.143 553.143,863.143 z" id="boundary" inkscape:connector-curvature="0" />
	<path style="fill:none;stroke:red;stroke-width:1px;stroke-linecap:butt;stroke-linejoin:miter;stroke-opacity:1" d="M 671.238,863.143 638.762,883.81 z" id="boundary" inkscape:connector-curvature="0" />
	<path style="fill:none;stroke:red;stroke-width:1px;stroke-linecap:butt;stroke-linejoin:miter;stroke-opacity:1" d="M 638.762,883.81 612.19,869.048 z" id="boundary" inkscape:connector-curvature="0" />
	<path style="fill:none;stroke:red;stroke-width:1px;stroke-linecap:butt;stroke-linejoin:miter;stroke-opacity:1" d="M 567.905,889.714 591.524,907.429 z" id="boundary" inkscape:connector-curvature="0" />
	<path style="fill:none;stroke:red;stroke-width:1px;stroke-linecap:butt;stroke-linejoin:miter;stroke-opacity:1" d="M 591.524,907.429 582.667,936.952 z" id="boundary" inkscape:connector-curvature="0" />
	<path style="fill:none;stroke:red;stroke-width:1px;stroke-linecap:butt;stroke-linejoin:miter;stroke-opacity:1" d="M 582.667,936.952 594.476,987.143 z" id="boundary" inkscape:connector-curvature="0" />
	<path style="fill:none;stroke:red;stroke-width:1px;stroke-linecap:butt;stroke-linejoin:miter;stroke-opacity:1" d="M 594.476,987.143 564.952,996 z" id="boundary" inkscape:connector-curvature="0" />
	<path style="fill:none;stroke:red;stroke-width:1px;stroke-linecap:butt;stroke-linejoin:miter;stroke-opacity:1" d="M 662.381,904.476 594.476,987.143 z" id="boundary" inkscape:connector-curvature="0" />
	<path style="fill:none;stroke:red;stroke-width:1px;stroke-linecap:butt;stroke-linejoin:miter;stroke-opacity:1" d="M 638.762,883.81 662.381,904.476 z" id="boundary" inkscape:connector-curvature="0" />
	<circle cx="4" cy="27.619" r="4" fill="#0" id="circle0"/>
	<circle cx="4" cy="57.1429" r="4" fill="#0" id="circle1"/>
	<circle cx="4" cy="86.6667" r="4" fill="#0" id="circle2"/>
	<circle cx="18.7619" cy="113.238" r="4" fill="#0" id="circle3"/>
	<circle cx="27.619" cy="4" r="4" fill="#0" id="circle4"/>
	<circle cx="48.2857" cy="125.048" r="4" fill="#0" id="circle5"/>
	<circle cx="57.1429" cy="4" r="4" fill="#0" id="circle6"/>
	<circle cx="57.1429" cy="154.571" r="4" fill="#0" id="circle7"/>
	<circle cx="71.9048" cy="181.143" r="4" fill="#0" id="circle8"/>
	<circle cx="83.7143" cy="210.667" r="4" fill="#0" id="circle9"/>
	<circle cx="86.6667" cy="4" r="4" fill="#0" id="circle10"/>
	<circle cx="107.333" cy="27.619" r="4" fill="#0" id="circle11"/>
	<circle cx="107.333" cy="228.381" r="4" fill="#0" id="circle12"/>
	<circle cx="116.19" cy="257.905" r="4" fill="#0" id="circle13"/>
	<circle cx="122.095" cy="54.1905" r="4" fill="#0" id="circle14"/>
	<circle cx="130.952" cy="284.476" r="4" fill="#0" id="circle15"/>
	<circle cx="133.905" cy="83.7143" r="4" fill="#0" id="circle16"/>
	<circle cx="148.667" cy="110.286" r="4" fill="#0" id="circle17"/>
	<circle cx="151.619" cy="308.095" r="4" fill="#0" id="circle18"/>
	<circle cx="169.333" cy="133.905" r="4" fill="#0" id="circle19"/>
	<circle cx="175.238" cy="328.762" r="4" fill="#0" id="circle20"/>
	<circle cx="181.143" cy="358.286" r="4" fill="#0" id="circle21"/>
	<circle cx="184.095" cy="160.476" r="4" fill="#0" id="circle22"/>
	<circle cx="195.905" cy="190" r="4" fill="#0" id="circle23"/>
	<circle cx="198.857" cy="381.905" r="4" fill="#0" id="circle24"/>
	<circle cx="219.524" cy="210.667" r="4" fill="#0" id="circle25"/>
	<circle cx="219.524" cy="405.524" r="4" fill="#0" id="circle26"/>
	<circle cx="228.381" cy="240.19" r="4" fill="#0" id="circle27"/>
	<circle cx="234.286" cy="432.095" r="4" fill="#0" id="circle28"/>
	<circle cx="252" cy="257.905" r="4" fill="#0" id="circle29"/>
	<circle cx="254.952" cy="455.714" r="4" fill="#0" id="circle30"/>
	<circle cx="254.952" cy="485.238" r="4" fill="#0" id="circle31"/>
	<circle cx="263.81" cy="287.429" r="4" fill="#0" id="circle32"/>
	<circle cx="278.571" cy="314" r="4" fill="#0" id="circle33"/>
	<circle cx="284.476" cy="494.095" r="4" fill="#0" id="circle34"/>
	<circle cx="293.333" cy="523.619" r="4" fill="#0" id="circle35"/>
	<circle cx="299.238" cy="337.619" r="4" fill="#0" id="circle36"/>
	<circle cx="308.095" cy="550.19" r="4" fill="#0" id="circle37"/>
	<circle cx="316.952" cy="361.238" r="4" fill="#0" id="circle38"/>
	<circle cx="322.857" cy="390.762" r="4" fill="#0" id="circle39"/>
	<circle cx="328.762" cy="573.81" r="4" fill="#0" id="circle40"/>
	<circle cx="343.524" cy="600.381" r="4" fill="#0" id="circle41"/>
	<circle cx="346.476" cy="411.429" r="4" fill="#0" id="circle42"/>
	<circle cx="364.19" cy="624" r="4" fill="#0" id="circle43"/>
	<circle cx="367.143" cy="435.048" r="4" fill="#0" id="circle44"/>
	<circle cx="373.048" cy="653.524" r="4" fill="#0" id="circle45"/>
	<circle cx="376" cy="464.571" r="4" fill="#0" id="circle46"/>
	<circle cx="390.762" cy="491.143" r="4" fill="#0" id="circle47"/>
	<circle cx="390.762" cy="677.143" r="4" fill="#0" id="circle48"/>
	<circle cx="411.429" cy="700.762" r="4" fill="#0" id="circle49"/>
	<circle cx="414.381" cy="508.857" r="4" fill="#0" id="circle50"/>
	<circle cx="426.19" cy="538.381" r="4" fill="#0" id="circle51"/>
	<circle cx="426.19" cy="727.333" r="4" fill="#0" id="circle52"/>
	<circle cx="432.095" cy="756.857" r="4" fill="#0" id="circle53"/>
	<circle cx="432.095" cy="786.381" r="4" fill="#0" id="circle54"/>
	<circle cx="438" cy="815.905" r="4" fill="#0" id="circle55"/>
	<circle cx="440.952" cy="564.952" r="4" fill="#0" id="circle56"/>
	<circle cx="446.857" cy="845.429" r="4" fill="#0" id="circle57"/>
	<circle cx="446.857" cy="874.952" r="4" fill="#0" id="circle58"/>
	<circle cx="446.857" cy="904.476" r="4" fill="#0" id="circle59"/>
	<circle cx="461.619" cy="588.571" r="4" fill="#0" id="circle60"/>
	<circle cx="464.571" cy="928.095" r="4" fill="#0" id="circle61"/>
	<circle cx="476.381" cy="615.143" r="4" fill="#0" id="circle62"/>
	<circle cx="485.238" cy="951.714" r="4" fill="#0" id="circle63"/>
	<circle cx="494.095" cy="638.762" r="4" fill="#0" id="circle64"/>
	<circle cx="508.857" cy="972.381" r="4" fill="#0" id="circle65"/>
	<circle cx="520.667" cy="653.524" r="4" fill="#0" id="circle66"/>
	<circle cx="538.381" cy="981.238" r="4" fill="#0" id="circle67"/>
	<circle cx="544.286" cy="671.238" r="4" fill="#0" id="circle68"/>
	<circle cx="553.143" cy="863.143" r="4" fill="#0" id="circle69"/>
	<circle cx="564.952" cy="996" r="4" fill="#0" id="circle70"/>
	<circle cx="567.905" cy="889.714" r="4" fill="#0" id="circle71"/>
	<circle cx="573.81" cy="683.048" r="4" fill="#0" id="circle72"/>
	<circle cx="582.667" cy="863.143" r="4" fill="#0" id="circle73"/>
	<circle cx="582.667" cy="936.952" r="4" fill="#0" id="circle74"/>
	<circle cx="591.524" cy="907.429" r="4" fill="#0" id="circle75"/>
	<circle cx="594.476" cy="987.143" r="4" fill="#0" id="circle76"/>
	<circle cx="603.333" cy="683.048" r="4" fill="#0" id="circle77"/>
	<circle cx="612.19" cy="869.048" r="4" fill="#0" id="circle78"/>
	<circle cx="629.905" cy="697.81" r="4" fill="#0" id="circle79"/>
	<circle cx="638.762" cy="883.81" r="4" fill="#0" id="circle80"/>
	<circle cx="656.476" cy="712.571" r="4" fill="#0" id="circle81"/>
	<circle cx="656.476" cy="745.048" r="4" fill="#0" id="circle82"/>
	<circle cx="662.381" cy="774.571" r="4" fill="#0" id="circle83"/>
	<circle cx="662.381" cy="904.476" r="4" fill="#0" id="circle84"/>
	<circle cx="671.238" cy="804.095" r="4" fill="#0" id="circle85"/>
	<circle cx="671.238" cy="833.619" r="4" fill="#0" id="circle86"/>
	<circle cx="671.238" cy="863.143" r="4" fill="#0" id="circle87"/>
	</g>
</svg>