<?xml version="1.0" encoding="UTF-8" standalone="no"?>
<!-- Created with CurveBenchmark -->
<svg
	xmlns:dc="http://purl.org/dc/elements/1.1/"
	xmlns:cc="http://creativecommons.org/ns#"
	xmlns:rdf="http://www.w3.org/1999/02/22-rdf-syntax-ns#"
	xmlns:svg="http://www.w3.org/2000/svg"
	xmlns="http://www.w3.org/2000/svg"
	xmlns:sodipodi="http://sodipodi.sourceforge.net/DTD/sodipodi-0.dtd"
	xmlns:inkscape="http://www.inkscape.org/namespaces/inkscape"
	width="1000"
	height="1000"
	id="svg2"
	version="1.1"
	sodipodi:docname="manifold/nncrust-bird51.png.txt">
<defs
	id="defs4" />
<metadata
	id="metadata7">
	<rdf:RDF>
		<cc:Work
			rdf:about="">
			<dc:format>image/svg+xml</dc:format>
			<dc:type
				rdf:resource="http://purl.org/dc/dcmitype/StillImage" />
			<dc:title></dc:title>
		</cc:Work>
	</rdf:RDF>
</metadata>
<g
	inkscape:label="Layer 1"
	inkscape:groupmode="layer"
	id="layer1">
	<path style="fill:none;stroke:red;stroke-width:1px;stroke-linecap:butt;stroke-linejoin:miter;stroke-opacity:1" d="M 145.078,127.257 159.928,119.832 z" id="boundary" inkscape:connector-curvature="0" />
	<path style="fill:none;stroke:red;stroke-width:1px;stroke-linecap:butt;stroke-linejoin:miter;stroke-opacity:1" d="M 174.778,112.407 159.928,119.832 z" id="boundary" inkscape:connector-curvature="0" />
	<path style="fill:none;stroke:red;stroke-width:1px;stroke-linecap:butt;stroke-linejoin:miter;stroke-opacity:1" d="M 100.527,145.078 115.377,142.108 z" id="boundary" inkscape:connector-curvature="0" />
	<path style="fill:none;stroke:red;stroke-width:1px;stroke-linecap:butt;stroke-linejoin:miter;stroke-opacity:1" d="M 130.228,134.683 115.377,142.108 z" id="boundary" inkscape:connector-curvature="0" />
	<path style="fill:none;stroke:red;stroke-width:1px;stroke-linecap:butt;stroke-linejoin:miter;stroke-opacity:1" d="M 130.228,134.683 145.078,127.257 z" id="boundary" inkscape:connector-curvature="0" />
	<path style="fill:none;stroke:red;stroke-width:1px;stroke-linecap:butt;stroke-linejoin:miter;stroke-opacity:1" d="M 180.719,146.563 165.868,151.018 z" id="boundary" inkscape:connector-curvature="0" />
	<path style="fill:none;stroke:red;stroke-width:1px;stroke-linecap:butt;stroke-linejoin:miter;stroke-opacity:1" d="M 194.084,137.653 180.719,146.563 z" id="boundary" inkscape:connector-curvature="0" />
	<path style="fill:none;stroke:red;stroke-width:1px;stroke-linecap:butt;stroke-linejoin:miter;stroke-opacity:1" d="M 204.479,60.4311 204.479,75.2814 z" id="boundary" inkscape:connector-curvature="0" />
	<path style="fill:none;stroke:red;stroke-width:1px;stroke-linecap:butt;stroke-linejoin:miter;stroke-opacity:1" d="M 201.509,93.1018 204.479,75.2814 z" id="boundary" inkscape:connector-curvature="0" />
	<path style="fill:none;stroke:red;stroke-width:1px;stroke-linecap:butt;stroke-linejoin:miter;stroke-opacity:1" d="M 189.629,104.982 174.778,112.407 z" id="boundary" inkscape:connector-curvature="0" />
	<path style="fill:none;stroke:red;stroke-width:1px;stroke-linecap:butt;stroke-linejoin:miter;stroke-opacity:1" d="M 208.934,130.228 194.084,137.653 z" id="boundary" inkscape:connector-curvature="0" />
	<path style="fill:none;stroke:red;stroke-width:1px;stroke-linecap:butt;stroke-linejoin:miter;stroke-opacity:1" d="M 189.629,104.982 201.509,93.1018 z" id="boundary" inkscape:connector-curvature="0" />
	<path style="fill:none;stroke:red;stroke-width:1px;stroke-linecap:butt;stroke-linejoin:miter;stroke-opacity:1" d="M 223.784,124.287 208.934,130.228 z" id="boundary" inkscape:connector-curvature="0" />
	<path style="fill:none;stroke:red;stroke-width:1px;stroke-linecap:butt;stroke-linejoin:miter;stroke-opacity:1" d="M 204.479,60.4311 204.479,45.5808 z" id="boundary" inkscape:connector-curvature="0" />
	<path style="fill:none;stroke:red;stroke-width:1px;stroke-linecap:butt;stroke-linejoin:miter;stroke-opacity:1" d="M 204.479,45.5808 219.329,38.1557 z" id="boundary" inkscape:connector-curvature="0" />
	<path style="fill:none;stroke:red;stroke-width:1px;stroke-linecap:butt;stroke-linejoin:miter;stroke-opacity:1" d="M 100.527,145.078 87.1617,152.503 z" id="boundary" inkscape:connector-curvature="0" />
	<path style="fill:none;stroke:red;stroke-width:1px;stroke-linecap:butt;stroke-linejoin:miter;stroke-opacity:1" d="M 73.7964,159.928 60.4311,167.353 z" id="boundary" inkscape:connector-curvature="0" />
	<path style="fill:none;stroke:red;stroke-width:1px;stroke-linecap:butt;stroke-linejoin:miter;stroke-opacity:1" d="M 60.4311,167.353 45.5808,174.778 z" id="boundary" inkscape:connector-curvature="0" />
	<path style="fill:none;stroke:red;stroke-width:1px;stroke-linecap:butt;stroke-linejoin:miter;stroke-opacity:1" d="M 15.8802,189.629 30.7305,182.204 z" id="boundary" inkscape:connector-curvature="0" />
	<path style="fill:none;stroke:red;stroke-width:1px;stroke-linecap:butt;stroke-linejoin:miter;stroke-opacity:1" d="M 45.5808,174.778 30.7305,182.204 z" id="boundary" inkscape:connector-curvature="0" />
	<path style="fill:none;stroke:red;stroke-width:1px;stroke-linecap:butt;stroke-linejoin:miter;stroke-opacity:1" d="M 54.491,198.539 67.8563,191.114 z" id="boundary" inkscape:connector-curvature="0" />
	<path style="fill:none;stroke:red;stroke-width:1px;stroke-linecap:butt;stroke-linejoin:miter;stroke-opacity:1" d="M 67.8563,191.114 82.7066,189.629 z" id="boundary" inkscape:connector-curvature="0" />
	<path style="fill:none;stroke:red;stroke-width:1px;stroke-linecap:butt;stroke-linejoin:miter;stroke-opacity:1" d="M 97.5569,183.689 82.7066,189.629 z" id="boundary" inkscape:connector-curvature="0" />
	<path style="fill:none;stroke:red;stroke-width:1px;stroke-linecap:butt;stroke-linejoin:miter;stroke-opacity:1" d="M 151.018,158.443 139.138,168.838 z" id="boundary" inkscape:connector-curvature="0" />
	<path style="fill:none;stroke:red;stroke-width:1px;stroke-linecap:butt;stroke-linejoin:miter;stroke-opacity:1" d="M 165.868,151.018 151.018,158.443 z" id="boundary" inkscape:connector-curvature="0" />
	<path style="fill:none;stroke:red;stroke-width:1px;stroke-linecap:butt;stroke-linejoin:miter;stroke-opacity:1" d="M 139.138,168.838 125.772,176.263 z" id="boundary" inkscape:connector-curvature="0" />
	<path style="fill:none;stroke:red;stroke-width:1px;stroke-linecap:butt;stroke-linejoin:miter;stroke-opacity:1" d="M 97.5569,183.689 110.922,176.263 z" id="boundary" inkscape:connector-curvature="0" />
	<path style="fill:none;stroke:red;stroke-width:1px;stroke-linecap:butt;stroke-linejoin:miter;stroke-opacity:1" d="M 110.922,176.263 125.772,176.263 z" id="boundary" inkscape:connector-curvature="0" />
	<path style="fill:none;stroke:red;stroke-width:1px;stroke-linecap:butt;stroke-linejoin:miter;stroke-opacity:1" d="M 73.7964,159.928 87.1617,152.503 z" id="boundary" inkscape:connector-curvature="0" />
	<path style="fill:none;stroke:red;stroke-width:1px;stroke-linecap:butt;stroke-linejoin:miter;stroke-opacity:1" d="M 289.126,4 275.76,11.4251 z" id="boundary" inkscape:connector-curvature="0" />
	<path style="fill:none;stroke:red;stroke-width:1px;stroke-linecap:butt;stroke-linejoin:miter;stroke-opacity:1" d="M 275.76,11.4251 260.91,11.4251 z" id="boundary" inkscape:connector-curvature="0" />
	<path style="fill:none;stroke:red;stroke-width:1px;stroke-linecap:butt;stroke-linejoin:miter;stroke-opacity:1" d="M 289.126,4 302.491,11.4251 z" id="boundary" inkscape:connector-curvature="0" />
	<path style="fill:none;stroke:red;stroke-width:1px;stroke-linecap:butt;stroke-linejoin:miter;stroke-opacity:1" d="M 246.06,18.8503 260.91,11.4251 z" id="boundary" inkscape:connector-curvature="0" />
	<path style="fill:none;stroke:red;stroke-width:1px;stroke-linecap:butt;stroke-linejoin:miter;stroke-opacity:1" d="M 219.329,38.1557 231.21,26.2754 z" id="boundary" inkscape:connector-curvature="0" />
	<path style="fill:none;stroke:red;stroke-width:1px;stroke-linecap:butt;stroke-linejoin:miter;stroke-opacity:1" d="M 231.21,26.2754 246.06,18.8503 z" id="boundary" inkscape:connector-curvature="0" />
	<path style="fill:none;stroke:red;stroke-width:1px;stroke-linecap:butt;stroke-linejoin:miter;stroke-opacity:1" d="M 317.341,11.4251 302.491,11.4251 z" id="boundary" inkscape:connector-curvature="0" />
	<path style="fill:none;stroke:red;stroke-width:1px;stroke-linecap:butt;stroke-linejoin:miter;stroke-opacity:1" d="M 332.192,15.8802 345.557,23.3054 z" id="boundary" inkscape:connector-curvature="0" />
	<path style="fill:none;stroke:red;stroke-width:1px;stroke-linecap:butt;stroke-linejoin:miter;stroke-opacity:1" d="M 360.407,29.2455 345.557,23.3054 z" id="boundary" inkscape:connector-curvature="0" />
	<path style="fill:none;stroke:red;stroke-width:1px;stroke-linecap:butt;stroke-linejoin:miter;stroke-opacity:1" d="M 369.317,41.1257 376.743,54.491 z" id="boundary" inkscape:connector-curvature="0" />
	<path style="fill:none;stroke:red;stroke-width:1px;stroke-linecap:butt;stroke-linejoin:miter;stroke-opacity:1" d="M 369.317,41.1257 360.407,29.2455 z" id="boundary" inkscape:connector-curvature="0" />
	<path style="fill:none;stroke:red;stroke-width:1px;stroke-linecap:butt;stroke-linejoin:miter;stroke-opacity:1" d="M 388.623,64.8862 376.743,54.491 z" id="boundary" inkscape:connector-curvature="0" />
	<path style="fill:none;stroke:red;stroke-width:1px;stroke-linecap:butt;stroke-linejoin:miter;stroke-opacity:1" d="M 317.341,11.4251 332.192,15.8802 z" id="boundary" inkscape:connector-curvature="0" />
	<path style="fill:none;stroke:red;stroke-width:1px;stroke-linecap:butt;stroke-linejoin:miter;stroke-opacity:1" d="M 388.623,64.8862 394.563,79.7365 z" id="boundary" inkscape:connector-curvature="0" />
	<path style="fill:none;stroke:red;stroke-width:1px;stroke-linecap:butt;stroke-linejoin:miter;stroke-opacity:1" d="M 238.635,124.287 223.784,124.287 z" id="boundary" inkscape:connector-curvature="0" />
	<path style="fill:none;stroke:red;stroke-width:1px;stroke-linecap:butt;stroke-linejoin:miter;stroke-opacity:1" d="M 238.635,124.287 246.06,137.653 z" id="boundary" inkscape:connector-curvature="0" />
	<path style="fill:none;stroke:red;stroke-width:1px;stroke-linecap:butt;stroke-linejoin:miter;stroke-opacity:1" d="M 253.485,167.353 241.605,179.234 z" id="boundary" inkscape:connector-curvature="0" />
	<path style="fill:none;stroke:red;stroke-width:1px;stroke-linecap:butt;stroke-linejoin:miter;stroke-opacity:1" d="M 253.485,167.353 256.455,149.533 z" id="boundary" inkscape:connector-curvature="0" />
	<path style="fill:none;stroke:red;stroke-width:1px;stroke-linecap:butt;stroke-linejoin:miter;stroke-opacity:1" d="M 246.06,137.653 256.455,149.533 z" id="boundary" inkscape:connector-curvature="0" />
	<path style="fill:none;stroke:red;stroke-width:1px;stroke-linecap:butt;stroke-linejoin:miter;stroke-opacity:1" d="M 399.018,94.5868 399.018,109.437 z" id="boundary" inkscape:connector-curvature="0" />
	<path style="fill:none;stroke:red;stroke-width:1px;stroke-linecap:butt;stroke-linejoin:miter;stroke-opacity:1" d="M 394.563,79.7365 399.018,94.5868 z" id="boundary" inkscape:connector-curvature="0" />
	<path style="fill:none;stroke:red;stroke-width:1px;stroke-linecap:butt;stroke-linejoin:miter;stroke-opacity:1" d="M 399.018,124.287 399.018,109.437 z" id="boundary" inkscape:connector-curvature="0" />
	<path style="fill:none;stroke:red;stroke-width:1px;stroke-linecap:butt;stroke-linejoin:miter;stroke-opacity:1" d="M 399.018,139.138 399.018,124.287 z" id="boundary" inkscape:connector-curvature="0" />
	<path style="fill:none;stroke:red;stroke-width:1px;stroke-linecap:butt;stroke-linejoin:miter;stroke-opacity:1" d="M 399.018,139.138 399.018,153.988 z" id="boundary" inkscape:connector-curvature="0" />
	<path style="fill:none;stroke:red;stroke-width:1px;stroke-linecap:butt;stroke-linejoin:miter;stroke-opacity:1" d="M 413.868,179.234 401.988,168.838 z" id="boundary" inkscape:connector-curvature="0" />
	<path style="fill:none;stroke:red;stroke-width:1px;stroke-linecap:butt;stroke-linejoin:miter;stroke-opacity:1" d="M 401.988,168.838 399.018,153.988 z" id="boundary" inkscape:connector-curvature="0" />
	<path style="fill:none;stroke:red;stroke-width:1px;stroke-linecap:butt;stroke-linejoin:miter;stroke-opacity:1" d="M 241.605,179.234 226.754,194.084 z" id="boundary" inkscape:connector-curvature="0" />
	<path style="fill:none;stroke:red;stroke-width:1px;stroke-linecap:butt;stroke-linejoin:miter;stroke-opacity:1" d="M 413.868,179.234 419.808,194.084 z" id="boundary" inkscape:connector-curvature="0" />
	<path style="fill:none;stroke:red;stroke-width:1px;stroke-linecap:butt;stroke-linejoin:miter;stroke-opacity:1" d="M 4,201.509 15.8802,189.629 z" id="boundary" inkscape:connector-curvature="0" />
	<path style="fill:none;stroke:red;stroke-width:1px;stroke-linecap:butt;stroke-linejoin:miter;stroke-opacity:1" d="M 54.491,198.539 41.1257,205.964 z" id="boundary" inkscape:connector-curvature="0" />
	<path style="fill:none;stroke:red;stroke-width:1px;stroke-linecap:butt;stroke-linejoin:miter;stroke-opacity:1" d="M 41.1257,205.964 26.2754,205.964 z" id="boundary" inkscape:connector-curvature="0" />
	<path style="fill:none;stroke:red;stroke-width:1px;stroke-linecap:butt;stroke-linejoin:miter;stroke-opacity:1" d="M 26.2754,205.964 12.9102,213.389 z" id="boundary" inkscape:connector-curvature="0" />
	<path style="fill:none;stroke:red;stroke-width:1px;stroke-linecap:butt;stroke-linejoin:miter;stroke-opacity:1" d="M 12.9102,213.389 4,201.509 z" id="boundary" inkscape:connector-curvature="0" />
	<path style="fill:none;stroke:red;stroke-width:1px;stroke-linecap:butt;stroke-linejoin:miter;stroke-opacity:1" d="M 204.479,238.635 204.479,223.784 z" id="boundary" inkscape:connector-curvature="0" />
	<path style="fill:none;stroke:red;stroke-width:1px;stroke-linecap:butt;stroke-linejoin:miter;stroke-opacity:1" d="M 204.479,223.784 211.904,208.934 z" id="boundary" inkscape:connector-curvature="0" />
	<path style="fill:none;stroke:red;stroke-width:1px;stroke-linecap:butt;stroke-linejoin:miter;stroke-opacity:1" d="M 204.479,238.635 204.479,253.485 z" id="boundary" inkscape:connector-curvature="0" />
	<path style="fill:none;stroke:red;stroke-width:1px;stroke-linecap:butt;stroke-linejoin:miter;stroke-opacity:1" d="M 204.479,253.485 204.479,268.335 z" id="boundary" inkscape:connector-curvature="0" />
	<path style="fill:none;stroke:red;stroke-width:1px;stroke-linecap:butt;stroke-linejoin:miter;stroke-opacity:1" d="M 211.904,208.934 226.754,194.084 z" id="boundary" inkscape:connector-curvature="0" />
	<path style="fill:none;stroke:red;stroke-width:1px;stroke-linecap:butt;stroke-linejoin:miter;stroke-opacity:1" d="M 204.479,283.186 204.479,298.036 z" id="boundary" inkscape:connector-curvature="0" />
	<path style="fill:none;stroke:red;stroke-width:1px;stroke-linecap:butt;stroke-linejoin:miter;stroke-opacity:1" d="M 204.479,283.186 204.479,268.335 z" id="boundary" inkscape:connector-curvature="0" />
	<path style="fill:none;stroke:red;stroke-width:1px;stroke-linecap:butt;stroke-linejoin:miter;stroke-opacity:1" d="M 211.904,311.401 204.479,298.036 z" id="boundary" inkscape:connector-curvature="0" />
	<path style="fill:none;stroke:red;stroke-width:1px;stroke-linecap:butt;stroke-linejoin:miter;stroke-opacity:1" d="M 211.904,311.401 211.904,326.251 z" id="boundary" inkscape:connector-curvature="0" />
	<path style="fill:none;stroke:red;stroke-width:1px;stroke-linecap:butt;stroke-linejoin:miter;stroke-opacity:1" d="M 211.904,326.251 219.329,339.617 z" id="boundary" inkscape:connector-curvature="0" />
	<path style="fill:none;stroke:red;stroke-width:1px;stroke-linecap:butt;stroke-linejoin:miter;stroke-opacity:1" d="M 219.329,339.617 219.329,354.467 z" id="boundary" inkscape:connector-curvature="0" />
	<path style="fill:none;stroke:red;stroke-width:1px;stroke-linecap:butt;stroke-linejoin:miter;stroke-opacity:1" d="M 226.754,367.832 219.329,354.467 z" id="boundary" inkscape:connector-curvature="0" />
	<path style="fill:none;stroke:red;stroke-width:1px;stroke-linecap:butt;stroke-linejoin:miter;stroke-opacity:1" d="M 226.754,367.832 229.725,382.683 z" id="boundary" inkscape:connector-curvature="0" />
	<path style="fill:none;stroke:red;stroke-width:1px;stroke-linecap:butt;stroke-linejoin:miter;stroke-opacity:1" d="M 234.18,397.533 229.725,382.683 z" id="boundary" inkscape:connector-curvature="0" />
	<path style="fill:none;stroke:red;stroke-width:1px;stroke-linecap:butt;stroke-linejoin:miter;stroke-opacity:1" d="M 234.18,397.533 237.15,412.383 z" id="boundary" inkscape:connector-curvature="0" />
	<path style="fill:none;stroke:red;stroke-width:1px;stroke-linecap:butt;stroke-linejoin:miter;stroke-opacity:1" d="M 249.03,421.293 237.15,412.383 z" id="boundary" inkscape:connector-curvature="0" />
	<path style="fill:none;stroke:red;stroke-width:1px;stroke-linecap:butt;stroke-linejoin:miter;stroke-opacity:1" d="M 260.91,449.509 253.485,436.144 z" id="boundary" inkscape:connector-curvature="0" />
	<path style="fill:none;stroke:red;stroke-width:1px;stroke-linecap:butt;stroke-linejoin:miter;stroke-opacity:1" d="M 253.485,436.144 249.03,421.293 z" id="boundary" inkscape:connector-curvature="0" />
	<path style="fill:none;stroke:red;stroke-width:1px;stroke-linecap:butt;stroke-linejoin:miter;stroke-opacity:1" d="M 271.305,461.389 260.91,449.509 z" id="boundary" inkscape:connector-curvature="0" />
	<path style="fill:none;stroke:red;stroke-width:1px;stroke-linecap:butt;stroke-linejoin:miter;stroke-opacity:1" d="M 271.305,461.389 278.731,474.754 z" id="boundary" inkscape:connector-curvature="0" />
	<path style="fill:none;stroke:red;stroke-width:1px;stroke-linecap:butt;stroke-linejoin:miter;stroke-opacity:1" d="M 289.126,486.635 278.731,474.754 z" id="boundary" inkscape:connector-curvature="0" />
	<path style="fill:none;stroke:red;stroke-width:1px;stroke-linecap:butt;stroke-linejoin:miter;stroke-opacity:1" d="M 289.126,486.635 301.006,495.545 z" id="boundary" inkscape:connector-curvature="0" />
	<path style="fill:none;stroke:red;stroke-width:1px;stroke-linecap:butt;stroke-linejoin:miter;stroke-opacity:1" d="M 301.006,495.545 308.431,508.91 z" id="boundary" inkscape:connector-curvature="0" />
	<path style="fill:none;stroke:red;stroke-width:1px;stroke-linecap:butt;stroke-linejoin:miter;stroke-opacity:1" d="M 330.707,528.216 317.341,520.79 z" id="boundary" inkscape:connector-curvature="0" />
	<path style="fill:none;stroke:red;stroke-width:1px;stroke-linecap:butt;stroke-linejoin:miter;stroke-opacity:1" d="M 317.341,520.79 308.431,508.91 z" id="boundary" inkscape:connector-curvature="0" />
	<path style="fill:none;stroke:red;stroke-width:1px;stroke-linecap:butt;stroke-linejoin:miter;stroke-opacity:1" d="M 330.707,528.216 342.587,538.611 z" id="boundary" inkscape:connector-curvature="0" />
	<path style="fill:none;stroke:red;stroke-width:1px;stroke-linecap:butt;stroke-linejoin:miter;stroke-opacity:1" d="M 354.467,547.521 342.587,538.611 z" id="boundary" inkscape:connector-curvature="0" />
	<path style="fill:none;stroke:red;stroke-width:1px;stroke-linecap:butt;stroke-linejoin:miter;stroke-opacity:1" d="M 367.832,554.946 354.467,547.521 z" id="boundary" inkscape:connector-curvature="0" />
	<path style="fill:none;stroke:red;stroke-width:1px;stroke-linecap:butt;stroke-linejoin:miter;stroke-opacity:1" d="M 367.832,554.946 381.198,562.371 z" id="boundary" inkscape:connector-curvature="0" />
	<path style="fill:none;stroke:red;stroke-width:1px;stroke-linecap:butt;stroke-linejoin:miter;stroke-opacity:1" d="M 419.808,194.084 434.659,197.054 z" id="boundary" inkscape:connector-curvature="0" />
	<path style="fill:none;stroke:red;stroke-width:1px;stroke-linecap:butt;stroke-linejoin:miter;stroke-opacity:1" d="M 434.659,197.054 448.024,204.479 z" id="boundary" inkscape:connector-curvature="0" />
	<path style="fill:none;stroke:red;stroke-width:1px;stroke-linecap:butt;stroke-linejoin:miter;stroke-opacity:1" d="M 462.874,205.964 448.024,204.479 z" id="boundary" inkscape:connector-curvature="0" />
	<path style="fill:none;stroke:red;stroke-width:1px;stroke-linecap:butt;stroke-linejoin:miter;stroke-opacity:1" d="M 394.563,569.796 407.928,577.222 z" id="boundary" inkscape:connector-curvature="0" />
	<path style="fill:none;stroke:red;stroke-width:1px;stroke-linecap:butt;stroke-linejoin:miter;stroke-opacity:1" d="M 422.778,581.677 407.928,577.222 z" id="boundary" inkscape:connector-curvature="0" />
	<path style="fill:none;stroke:red;stroke-width:1px;stroke-linecap:butt;stroke-linejoin:miter;stroke-opacity:1" d="M 394.563,569.796 381.198,562.371 z" id="boundary" inkscape:connector-curvature="0" />
	<path style="fill:none;stroke:red;stroke-width:1px;stroke-linecap:butt;stroke-linejoin:miter;stroke-opacity:1" d="M 422.778,581.677 436.144,589.102 z" id="boundary" inkscape:connector-curvature="0" />
	<path style="fill:none;stroke:red;stroke-width:1px;stroke-linecap:butt;stroke-linejoin:miter;stroke-opacity:1" d="M 404.958,847.497 416.838,835.617 z" id="boundary" inkscape:connector-curvature="0" />
	<path style="fill:none;stroke:red;stroke-width:1px;stroke-linecap:butt;stroke-linejoin:miter;stroke-opacity:1" d="M 416.838,835.617 431.689,835.617 z" id="boundary" inkscape:connector-curvature="0" />
	<path style="fill:none;stroke:red;stroke-width:1px;stroke-linecap:butt;stroke-linejoin:miter;stroke-opacity:1" d="M 404.958,862.347 404.958,847.497 z" id="boundary" inkscape:connector-curvature="0" />
	<path style="fill:none;stroke:red;stroke-width:1px;stroke-linecap:butt;stroke-linejoin:miter;stroke-opacity:1" d="M 397.533,884.623 404.958,862.347 z" id="boundary" inkscape:connector-curvature="0" />
	<path style="fill:none;stroke:red;stroke-width:1px;stroke-linecap:butt;stroke-linejoin:miter;stroke-opacity:1" d="M 421.293,896.503 406.443,896.503 z" id="boundary" inkscape:connector-curvature="0" />
	<path style="fill:none;stroke:red;stroke-width:1px;stroke-linecap:butt;stroke-linejoin:miter;stroke-opacity:1" d="M 406.443,896.503 397.533,884.623 z" id="boundary" inkscape:connector-curvature="0" />
	<path style="fill:none;stroke:red;stroke-width:1px;stroke-linecap:butt;stroke-linejoin:miter;stroke-opacity:1" d="M 436.144,896.503 421.293,896.503 z" id="boundary" inkscape:connector-curvature="0" />
	<path style="fill:none;stroke:red;stroke-width:1px;stroke-linecap:butt;stroke-linejoin:miter;stroke-opacity:1" d="M 431.689,835.617 446.539,835.617 z" id="boundary" inkscape:connector-curvature="0" />
	<path style="fill:none;stroke:red;stroke-width:1px;stroke-linecap:butt;stroke-linejoin:miter;stroke-opacity:1" d="M 446.539,835.617 459.904,843.042 z" id="boundary" inkscape:connector-curvature="0" />
	<path style="fill:none;stroke:red;stroke-width:1px;stroke-linecap:butt;stroke-linejoin:miter;stroke-opacity:1" d="M 450.994,592.072 464.359,599.497 z" id="boundary" inkscape:connector-curvature="0" />
	<path style="fill:none;stroke:red;stroke-width:1px;stroke-linecap:butt;stroke-linejoin:miter;stroke-opacity:1" d="M 436.144,589.102 450.994,592.072 z" id="boundary" inkscape:connector-curvature="0" />
	<path style="fill:none;stroke:red;stroke-width:1px;stroke-linecap:butt;stroke-linejoin:miter;stroke-opacity:1" d="M 479.21,599.497 464.359,599.497 z" id="boundary" inkscape:connector-curvature="0" />
	<path style="fill:none;stroke:red;stroke-width:1px;stroke-linecap:butt;stroke-linejoin:miter;stroke-opacity:1" d="M 474.754,843.042 459.904,843.042 z" id="boundary" inkscape:connector-curvature="0" />
	<path style="fill:none;stroke:red;stroke-width:1px;stroke-linecap:butt;stroke-linejoin:miter;stroke-opacity:1" d="M 450.994,896.503 436.144,896.503 z" id="boundary" inkscape:connector-curvature="0" />
	<path style="fill:none;stroke:red;stroke-width:1px;stroke-linecap:butt;stroke-linejoin:miter;stroke-opacity:1" d="M 465.844,889.078 450.994,896.503 z" id="boundary" inkscape:connector-curvature="0" />
	<path style="fill:none;stroke:red;stroke-width:1px;stroke-linecap:butt;stroke-linejoin:miter;stroke-opacity:1" d="M 465.844,889.078 480.695,889.078 z" id="boundary" inkscape:connector-curvature="0" />
	<path style="fill:none;stroke:red;stroke-width:1px;stroke-linecap:butt;stroke-linejoin:miter;stroke-opacity:1" d="M 462.874,205.964 476.24,213.389 z" id="boundary" inkscape:connector-curvature="0" />
	<path style="fill:none;stroke:red;stroke-width:1px;stroke-linecap:butt;stroke-linejoin:miter;stroke-opacity:1" d="M 476.24,213.389 491.09,219.329 z" id="boundary" inkscape:connector-curvature="0" />
	<path style="fill:none;stroke:red;stroke-width:1px;stroke-linecap:butt;stroke-linejoin:miter;stroke-opacity:1" d="M 491.09,219.329 504.455,226.754 z" id="boundary" inkscape:connector-curvature="0" />
	<path style="fill:none;stroke:red;stroke-width:1px;stroke-linecap:butt;stroke-linejoin:miter;stroke-opacity:1" d="M 519.305,226.754 504.455,226.754 z" id="boundary" inkscape:connector-curvature="0" />
	<path style="fill:none;stroke:red;stroke-width:1px;stroke-linecap:butt;stroke-linejoin:miter;stroke-opacity:1" d="M 519.305,226.754 532.671,234.18 z" id="boundary" inkscape:connector-curvature="0" />
	<path style="fill:none;stroke:red;stroke-width:1px;stroke-linecap:butt;stroke-linejoin:miter;stroke-opacity:1" d="M 547.521,238.635 532.671,234.18 z" id="boundary" inkscape:connector-curvature="0" />
	<path style="fill:none;stroke:red;stroke-width:1px;stroke-linecap:butt;stroke-linejoin:miter;stroke-opacity:1" d="M 547.521,238.635 559.401,249.03 z" id="boundary" inkscape:connector-curvature="0" />
	<path style="fill:none;stroke:red;stroke-width:1px;stroke-linecap:butt;stroke-linejoin:miter;stroke-opacity:1" d="M 574.251,250.515 559.401,249.03 z" id="boundary" inkscape:connector-curvature="0" />
	<path style="fill:none;stroke:red;stroke-width:1px;stroke-linecap:butt;stroke-linejoin:miter;stroke-opacity:1" d="M 599.497,263.88 584.647,262.395 z" id="boundary" inkscape:connector-curvature="0" />
	<path style="fill:none;stroke:red;stroke-width:1px;stroke-linecap:butt;stroke-linejoin:miter;stroke-opacity:1" d="M 584.647,262.395 574.251,250.515 z" id="boundary" inkscape:connector-curvature="0" />
	<path style="fill:none;stroke:red;stroke-width:1px;stroke-linecap:butt;stroke-linejoin:miter;stroke-opacity:1" d="M 614.347,268.335 599.497,263.88 z" id="boundary" inkscape:connector-curvature="0" />
	<path style="fill:none;stroke:red;stroke-width:1px;stroke-linecap:butt;stroke-linejoin:miter;stroke-opacity:1" d="M 614.347,268.335 627.713,275.76 z" id="boundary" inkscape:connector-curvature="0" />
	<path style="fill:none;stroke:red;stroke-width:1px;stroke-linecap:butt;stroke-linejoin:miter;stroke-opacity:1" d="M 642.563,281.701 627.713,275.76 z" id="boundary" inkscape:connector-curvature="0" />
	<path style="fill:none;stroke:red;stroke-width:1px;stroke-linecap:butt;stroke-linejoin:miter;stroke-opacity:1" d="M 642.563,281.701 655.928,289.126 z" id="boundary" inkscape:connector-curvature="0" />
	<path style="fill:none;stroke:red;stroke-width:1px;stroke-linecap:butt;stroke-linejoin:miter;stroke-opacity:1" d="M 670.778,295.066 655.928,289.126 z" id="boundary" inkscape:connector-curvature="0" />
	<path style="fill:none;stroke:red;stroke-width:1px;stroke-linecap:butt;stroke-linejoin:miter;stroke-opacity:1" d="M 698.994,308.431 684.144,302.491 z" id="boundary" inkscape:connector-curvature="0" />
	<path style="fill:none;stroke:red;stroke-width:1px;stroke-linecap:butt;stroke-linejoin:miter;stroke-opacity:1" d="M 684.144,302.491 670.778,295.066 z" id="boundary" inkscape:connector-curvature="0" />
	<path style="fill:none;stroke:red;stroke-width:1px;stroke-linecap:butt;stroke-linejoin:miter;stroke-opacity:1" d="M 712.359,315.856 724.24,326.251 z" id="boundary" inkscape:connector-curvature="0" />
	<path style="fill:none;stroke:red;stroke-width:1px;stroke-linecap:butt;stroke-linejoin:miter;stroke-opacity:1" d="M 698.994,308.431 712.359,315.856 z" id="boundary" inkscape:connector-curvature="0" />
	<path style="fill:none;stroke:red;stroke-width:1px;stroke-linecap:butt;stroke-linejoin:miter;stroke-opacity:1" d="M 739.09,330.707 724.24,326.251 z" id="boundary" inkscape:connector-curvature="0" />
	<path style="fill:none;stroke:red;stroke-width:1px;stroke-linecap:butt;stroke-linejoin:miter;stroke-opacity:1" d="M 739.09,330.707 752.455,338.132 z" id="boundary" inkscape:connector-curvature="0" />
	<path style="fill:none;stroke:red;stroke-width:1px;stroke-linecap:butt;stroke-linejoin:miter;stroke-opacity:1" d="M 765.82,345.557 780.671,345.557 z" id="boundary" inkscape:connector-curvature="0" />
	<path style="fill:none;stroke:red;stroke-width:1px;stroke-linecap:butt;stroke-linejoin:miter;stroke-opacity:1" d="M 780.671,345.557 794.036,352.982 z" id="boundary" inkscape:connector-curvature="0" />
	<path style="fill:none;stroke:red;stroke-width:1px;stroke-linecap:butt;stroke-linejoin:miter;stroke-opacity:1" d="M 765.82,345.557 752.455,338.132 z" id="boundary" inkscape:connector-curvature="0" />
	<path style="fill:none;stroke:red;stroke-width:1px;stroke-linecap:butt;stroke-linejoin:miter;stroke-opacity:1" d="M 794.036,352.982 807.401,360.407 z" id="boundary" inkscape:connector-curvature="0" />
	<path style="fill:none;stroke:red;stroke-width:1px;stroke-linecap:butt;stroke-linejoin:miter;stroke-opacity:1" d="M 792.551,525.246 805.916,517.82 z" id="boundary" inkscape:connector-curvature="0" />
	<path style="fill:none;stroke:red;stroke-width:1px;stroke-linecap:butt;stroke-linejoin:miter;stroke-opacity:1" d="M 817.796,508.91 805.916,517.82 z" id="boundary" inkscape:connector-curvature="0" />
	<path style="fill:none;stroke:red;stroke-width:1px;stroke-linecap:butt;stroke-linejoin:miter;stroke-opacity:1" d="M 807.401,360.407 822.251,364.862 z" id="boundary" inkscape:connector-curvature="0" />
	<path style="fill:none;stroke:red;stroke-width:1px;stroke-linecap:butt;stroke-linejoin:miter;stroke-opacity:1" d="M 822.251,364.862 837.102,367.832 z" id="boundary" inkscape:connector-curvature="0" />
	<path style="fill:none;stroke:red;stroke-width:1px;stroke-linecap:butt;stroke-linejoin:miter;stroke-opacity:1" d="M 837.102,367.832 850.467,375.257 z" id="boundary" inkscape:connector-curvature="0" />
	<path style="fill:none;stroke:red;stroke-width:1px;stroke-linecap:butt;stroke-linejoin:miter;stroke-opacity:1" d="M 863.832,382.683 878.683,382.683 z" id="boundary" inkscape:connector-curvature="0" />
	<path style="fill:none;stroke:red;stroke-width:1px;stroke-linecap:butt;stroke-linejoin:miter;stroke-opacity:1" d="M 878.683,382.683 892.048,390.108 z" id="boundary" inkscape:connector-curvature="0" />
	<path style="fill:none;stroke:red;stroke-width:1px;stroke-linecap:butt;stroke-linejoin:miter;stroke-opacity:1" d="M 863.832,382.683 850.467,375.257 z" id="boundary" inkscape:connector-curvature="0" />
	<path style="fill:none;stroke:red;stroke-width:1px;stroke-linecap:butt;stroke-linejoin:miter;stroke-opacity:1" d="M 905.413,397.533 892.048,390.108 z" id="boundary" inkscape:connector-curvature="0" />
	<path style="fill:none;stroke:red;stroke-width:1px;stroke-linecap:butt;stroke-linejoin:miter;stroke-opacity:1" d="M 918.778,404.958 933.629,404.958 z" id="boundary" inkscape:connector-curvature="0" />
	<path style="fill:none;stroke:red;stroke-width:1px;stroke-linecap:butt;stroke-linejoin:miter;stroke-opacity:1" d="M 918.778,404.958 905.413,397.533 z" id="boundary" inkscape:connector-curvature="0" />
	<path style="fill:none;stroke:red;stroke-width:1px;stroke-linecap:butt;stroke-linejoin:miter;stroke-opacity:1" d="M 948.479,404.958 933.629,404.958 z" id="boundary" inkscape:connector-curvature="0" />
	<path style="fill:none;stroke:red;stroke-width:1px;stroke-linecap:butt;stroke-linejoin:miter;stroke-opacity:1" d="M 970.754,421.293 970.754,436.144 z" id="boundary" inkscape:connector-curvature="0" />
	<path style="fill:none;stroke:red;stroke-width:1px;stroke-linecap:butt;stroke-linejoin:miter;stroke-opacity:1" d="M 970.754,436.144 970.754,450.994 z" id="boundary" inkscape:connector-curvature="0" />
	<path style="fill:none;stroke:red;stroke-width:1px;stroke-linecap:butt;stroke-linejoin:miter;stroke-opacity:1" d="M 948.479,404.958 963.329,404.958 z" id="boundary" inkscape:connector-curvature="0" />
	<path style="fill:none;stroke:red;stroke-width:1px;stroke-linecap:butt;stroke-linejoin:miter;stroke-opacity:1" d="M 963.329,404.958 970.754,421.293 z" id="boundary" inkscape:connector-curvature="0" />
	<path style="fill:none;stroke:red;stroke-width:1px;stroke-linecap:butt;stroke-linejoin:miter;stroke-opacity:1" d="M 892.048,488.12 906.898,488.12 z" id="boundary" inkscape:connector-curvature="0" />
	<path style="fill:none;stroke:red;stroke-width:1px;stroke-linecap:butt;stroke-linejoin:miter;stroke-opacity:1" d="M 877.198,494.06 892.048,488.12 z" id="boundary" inkscape:connector-curvature="0" />
	<path style="fill:none;stroke:red;stroke-width:1px;stroke-linecap:butt;stroke-linejoin:miter;stroke-opacity:1" d="M 921.749,488.12 906.898,488.12 z" id="boundary" inkscape:connector-curvature="0" />
	<path style="fill:none;stroke:red;stroke-width:1px;stroke-linecap:butt;stroke-linejoin:miter;stroke-opacity:1" d="M 832.647,502.97 847.497,501.485 z" id="boundary" inkscape:connector-curvature="0" />
	<path style="fill:none;stroke:red;stroke-width:1px;stroke-linecap:butt;stroke-linejoin:miter;stroke-opacity:1" d="M 817.796,508.91 832.647,502.97 z" id="boundary" inkscape:connector-curvature="0" />
	<path style="fill:none;stroke:red;stroke-width:1px;stroke-linecap:butt;stroke-linejoin:miter;stroke-opacity:1" d="M 862.347,495.545 847.497,501.485 z" id="boundary" inkscape:connector-curvature="0" />
	<path style="fill:none;stroke:red;stroke-width:1px;stroke-linecap:butt;stroke-linejoin:miter;stroke-opacity:1" d="M 862.347,495.545 877.198,494.06 z" id="boundary" inkscape:connector-curvature="0" />
	<path style="fill:none;stroke:red;stroke-width:1px;stroke-linecap:butt;stroke-linejoin:miter;stroke-opacity:1" d="M 921.749,488.12 936.599,488.12 z" id="boundary" inkscape:connector-curvature="0" />
	<path style="fill:none;stroke:red;stroke-width:1px;stroke-linecap:butt;stroke-linejoin:miter;stroke-opacity:1" d="M 978.18,464.359 991.545,471.784 z" id="boundary" inkscape:connector-curvature="0" />
	<path style="fill:none;stroke:red;stroke-width:1px;stroke-linecap:butt;stroke-linejoin:miter;stroke-opacity:1" d="M 978.18,464.359 970.754,450.994 z" id="boundary" inkscape:connector-curvature="0" />
	<path style="fill:none;stroke:red;stroke-width:1px;stroke-linecap:butt;stroke-linejoin:miter;stroke-opacity:1" d="M 991.545,471.784 996,486.635 z" id="boundary" inkscape:connector-curvature="0" />
	<path style="fill:none;stroke:red;stroke-width:1px;stroke-linecap:butt;stroke-linejoin:miter;stroke-opacity:1" d="M 996,486.635 981.15,488.12 z" id="boundary" inkscape:connector-curvature="0" />
	<path style="fill:none;stroke:red;stroke-width:1px;stroke-linecap:butt;stroke-linejoin:miter;stroke-opacity:1" d="M 936.599,488.12 951.449,488.12 z" id="boundary" inkscape:connector-curvature="0" />
	<path style="fill:none;stroke:red;stroke-width:1px;stroke-linecap:butt;stroke-linejoin:miter;stroke-opacity:1" d="M 951.449,488.12 966.299,488.12 z" id="boundary" inkscape:connector-curvature="0" />
	<path style="fill:none;stroke:red;stroke-width:1px;stroke-linecap:butt;stroke-linejoin:miter;stroke-opacity:1" d="M 981.15,488.12 966.299,488.12 z" id="boundary" inkscape:connector-curvature="0" />
	<path style="fill:none;stroke:red;stroke-width:1px;stroke-linecap:butt;stroke-linejoin:miter;stroke-opacity:1" d="M 777.701,532.671 792.551,525.246 z" id="boundary" inkscape:connector-curvature="0" />
	<path style="fill:none;stroke:red;stroke-width:1px;stroke-linecap:butt;stroke-linejoin:miter;stroke-opacity:1" d="M 479.21,599.497 494.06,599.497 z" id="boundary" inkscape:connector-curvature="0" />
	<path style="fill:none;stroke:red;stroke-width:1px;stroke-linecap:butt;stroke-linejoin:miter;stroke-opacity:1" d="M 494.06,599.497 501.485,612.862 z" id="boundary" inkscape:connector-curvature="0" />
	<path style="fill:none;stroke:red;stroke-width:1px;stroke-linecap:butt;stroke-linejoin:miter;stroke-opacity:1" d="M 501.485,612.862 501.485,627.713 z" id="boundary" inkscape:connector-curvature="0" />
	<path style="fill:none;stroke:red;stroke-width:1px;stroke-linecap:butt;stroke-linejoin:miter;stroke-opacity:1" d="M 504.455,642.563 508.91,657.413 z" id="boundary" inkscape:connector-curvature="0" />
	<path style="fill:none;stroke:red;stroke-width:1px;stroke-linecap:butt;stroke-linejoin:miter;stroke-opacity:1" d="M 504.455,642.563 501.485,627.713 z" id="boundary" inkscape:connector-curvature="0" />
	<path style="fill:none;stroke:red;stroke-width:1px;stroke-linecap:butt;stroke-linejoin:miter;stroke-opacity:1" d="M 516.335,670.778 508.91,657.413 z" id="boundary" inkscape:connector-curvature="0" />
	<path style="fill:none;stroke:red;stroke-width:1px;stroke-linecap:butt;stroke-linejoin:miter;stroke-opacity:1" d="M 508.91,773.246 508.91,788.096 z" id="boundary" inkscape:connector-curvature="0" />
	<path style="fill:none;stroke:red;stroke-width:1px;stroke-linecap:butt;stroke-linejoin:miter;stroke-opacity:1" d="M 523.76,698.994 516.335,685.629 z" id="boundary" inkscape:connector-curvature="0" />
	<path style="fill:none;stroke:red;stroke-width:1px;stroke-linecap:butt;stroke-linejoin:miter;stroke-opacity:1" d="M 516.335,685.629 516.335,670.778 z" id="boundary" inkscape:connector-curvature="0" />
	<path style="fill:none;stroke:red;stroke-width:1px;stroke-linecap:butt;stroke-linejoin:miter;stroke-opacity:1" d="M 523.76,698.994 523.76,713.844 z" id="boundary" inkscape:connector-curvature="0" />
	<path style="fill:none;stroke:red;stroke-width:1px;stroke-linecap:butt;stroke-linejoin:miter;stroke-opacity:1" d="M 516.335,743.545 516.335,758.395 z" id="boundary" inkscape:connector-curvature="0" />
	<path style="fill:none;stroke:red;stroke-width:1px;stroke-linecap:butt;stroke-linejoin:miter;stroke-opacity:1" d="M 516.335,758.395 508.91,773.246 z" id="boundary" inkscape:connector-curvature="0" />
	<path style="fill:none;stroke:red;stroke-width:1px;stroke-linecap:butt;stroke-linejoin:miter;stroke-opacity:1" d="M 540.096,762.85 532.671,777.701 z" id="boundary" inkscape:connector-curvature="0" />
	<path style="fill:none;stroke:red;stroke-width:1px;stroke-linecap:butt;stroke-linejoin:miter;stroke-opacity:1" d="M 523.76,713.844 523.76,728.695 z" id="boundary" inkscape:connector-curvature="0" />
	<path style="fill:none;stroke:red;stroke-width:1px;stroke-linecap:butt;stroke-linejoin:miter;stroke-opacity:1" d="M 523.76,728.695 516.335,743.545 z" id="boundary" inkscape:connector-curvature="0" />
	<path style="fill:none;stroke:red;stroke-width:1px;stroke-linecap:butt;stroke-linejoin:miter;stroke-opacity:1" d="M 501.485,832.647 501.485,817.796 z" id="boundary" inkscape:connector-curvature="0" />
	<path style="fill:none;stroke:red;stroke-width:1px;stroke-linecap:butt;stroke-linejoin:miter;stroke-opacity:1" d="M 532.671,851.952 525.246,874.228 z" id="boundary" inkscape:connector-curvature="0" />
	<path style="fill:none;stroke:red;stroke-width:1px;stroke-linecap:butt;stroke-linejoin:miter;stroke-opacity:1" d="M 501.485,832.647 489.605,843.042 z" id="boundary" inkscape:connector-curvature="0" />
	<path style="fill:none;stroke:red;stroke-width:1px;stroke-linecap:butt;stroke-linejoin:miter;stroke-opacity:1" d="M 495.545,881.653 480.695,889.078 z" id="boundary" inkscape:connector-curvature="0" />
	<path style="fill:none;stroke:red;stroke-width:1px;stroke-linecap:butt;stroke-linejoin:miter;stroke-opacity:1" d="M 474.754,843.042 489.605,843.042 z" id="boundary" inkscape:connector-curvature="0" />
	<path style="fill:none;stroke:red;stroke-width:1px;stroke-linecap:butt;stroke-linejoin:miter;stroke-opacity:1" d="M 510.395,881.653 495.545,881.653 z" id="boundary" inkscape:connector-curvature="0" />
	<path style="fill:none;stroke:red;stroke-width:1px;stroke-linecap:butt;stroke-linejoin:miter;stroke-opacity:1" d="M 508.91,802.946 501.485,817.796 z" id="boundary" inkscape:connector-curvature="0" />
	<path style="fill:none;stroke:red;stroke-width:1px;stroke-linecap:butt;stroke-linejoin:miter;stroke-opacity:1" d="M 508.91,788.096 508.91,802.946 z" id="boundary" inkscape:connector-curvature="0" />
	<path style="fill:none;stroke:red;stroke-width:1px;stroke-linecap:butt;stroke-linejoin:miter;stroke-opacity:1" d="M 532.671,777.701 532.671,792.551 z" id="boundary" inkscape:connector-curvature="0" />
	<path style="fill:none;stroke:red;stroke-width:1px;stroke-linecap:butt;stroke-linejoin:miter;stroke-opacity:1" d="M 532.671,792.551 532.671,807.401 z" id="boundary" inkscape:connector-curvature="0" />
	<path style="fill:none;stroke:red;stroke-width:1px;stroke-linecap:butt;stroke-linejoin:miter;stroke-opacity:1" d="M 525.246,874.228 510.395,881.653 z" id="boundary" inkscape:connector-curvature="0" />
	<path style="fill:none;stroke:red;stroke-width:1px;stroke-linecap:butt;stroke-linejoin:miter;stroke-opacity:1" d="M 532.671,822.251 532.671,807.401 z" id="boundary" inkscape:connector-curvature="0" />
	<path style="fill:none;stroke:red;stroke-width:1px;stroke-linecap:butt;stroke-linejoin:miter;stroke-opacity:1" d="M 532.671,822.251 532.671,837.102 z" id="boundary" inkscape:connector-curvature="0" />
	<path style="fill:none;stroke:red;stroke-width:1px;stroke-linecap:butt;stroke-linejoin:miter;stroke-opacity:1" d="M 691.569,562.371 679.689,572.766 z" id="boundary" inkscape:connector-curvature="0" />
	<path style="fill:none;stroke:red;stroke-width:1px;stroke-linecap:butt;stroke-linejoin:miter;stroke-opacity:1" d="M 679.689,572.766 664.838,577.222 z" id="boundary" inkscape:connector-curvature="0" />
	<path style="fill:none;stroke:red;stroke-width:1px;stroke-linecap:butt;stroke-linejoin:miter;stroke-opacity:1" d="M 664.838,577.222 649.988,580.192 z" id="boundary" inkscape:connector-curvature="0" />
	<path style="fill:none;stroke:red;stroke-width:1px;stroke-linecap:butt;stroke-linejoin:miter;stroke-opacity:1" d="M 635.138,584.647 649.988,580.192 z" id="boundary" inkscape:connector-curvature="0" />
	<path style="fill:none;stroke:red;stroke-width:1px;stroke-linecap:butt;stroke-linejoin:miter;stroke-opacity:1" d="M 590.587,592.072 605.437,587.617 z" id="boundary" inkscape:connector-curvature="0" />
	<path style="fill:none;stroke:red;stroke-width:1px;stroke-linecap:butt;stroke-linejoin:miter;stroke-opacity:1" d="M 620.287,584.647 635.138,584.647 z" id="boundary" inkscape:connector-curvature="0" />
	<path style="fill:none;stroke:red;stroke-width:1px;stroke-linecap:butt;stroke-linejoin:miter;stroke-opacity:1" d="M 605.437,587.617 620.287,584.647 z" id="boundary" inkscape:connector-curvature="0" />
	<path style="fill:none;stroke:red;stroke-width:1px;stroke-linecap:butt;stroke-linejoin:miter;stroke-opacity:1" d="M 748,547.521 733.15,547.521 z" id="boundary" inkscape:connector-curvature="0" />
	<path style="fill:none;stroke:red;stroke-width:1px;stroke-linecap:butt;stroke-linejoin:miter;stroke-opacity:1" d="M 762.85,532.671 748,547.521 z" id="boundary" inkscape:connector-curvature="0" />
	<path style="fill:none;stroke:red;stroke-width:1px;stroke-linecap:butt;stroke-linejoin:miter;stroke-opacity:1" d="M 777.701,532.671 762.85,532.671 z" id="boundary" inkscape:connector-curvature="0" />
	<path style="fill:none;stroke:red;stroke-width:1px;stroke-linecap:butt;stroke-linejoin:miter;stroke-opacity:1" d="M 691.569,562.371 704.934,554.946 z" id="boundary" inkscape:connector-curvature="0" />
	<path style="fill:none;stroke:red;stroke-width:1px;stroke-linecap:butt;stroke-linejoin:miter;stroke-opacity:1" d="M 704.934,554.946 719.784,554.946 z" id="boundary" inkscape:connector-curvature="0" />
	<path style="fill:none;stroke:red;stroke-width:1px;stroke-linecap:butt;stroke-linejoin:miter;stroke-opacity:1" d="M 733.15,547.521 719.784,554.946 z" id="boundary" inkscape:connector-curvature="0" />
	<path style="fill:none;stroke:red;stroke-width:1px;stroke-linecap:butt;stroke-linejoin:miter;stroke-opacity:1" d="M 540.096,644.048 547.521,657.413 z" id="boundary" inkscape:connector-curvature="0" />
	<path style="fill:none;stroke:red;stroke-width:1px;stroke-linecap:butt;stroke-linejoin:miter;stroke-opacity:1" d="M 540.096,644.048 540.096,629.198 z" id="boundary" inkscape:connector-curvature="0" />
	<path style="fill:none;stroke:red;stroke-width:1px;stroke-linecap:butt;stroke-linejoin:miter;stroke-opacity:1" d="M 540.096,629.198 553.461,621.772 z" id="boundary" inkscape:connector-curvature="0" />
	<path style="fill:none;stroke:red;stroke-width:1px;stroke-linecap:butt;stroke-linejoin:miter;stroke-opacity:1" d="M 547.521,672.263 540.096,688.599 z" id="boundary" inkscape:connector-curvature="0" />
	<path style="fill:none;stroke:red;stroke-width:1px;stroke-linecap:butt;stroke-linejoin:miter;stroke-opacity:1" d="M 540.096,688.599 540.096,703.449 z" id="boundary" inkscape:connector-curvature="0" />
	<path style="fill:none;stroke:red;stroke-width:1px;stroke-linecap:butt;stroke-linejoin:miter;stroke-opacity:1" d="M 532.671,837.102 532.671,851.952 z" id="boundary" inkscape:connector-curvature="0" />
	<path style="fill:none;stroke:red;stroke-width:1px;stroke-linecap:butt;stroke-linejoin:miter;stroke-opacity:1" d="M 540.096,718.299 540.096,733.15 z" id="boundary" inkscape:connector-curvature="0" />
	<path style="fill:none;stroke:red;stroke-width:1px;stroke-linecap:butt;stroke-linejoin:miter;stroke-opacity:1" d="M 540.096,718.299 540.096,703.449 z" id="boundary" inkscape:connector-curvature="0" />
	<path style="fill:none;stroke:red;stroke-width:1px;stroke-linecap:butt;stroke-linejoin:miter;stroke-opacity:1" d="M 540.096,733.15 540.096,748 z" id="boundary" inkscape:connector-curvature="0" />
	<path style="fill:none;stroke:red;stroke-width:1px;stroke-linecap:butt;stroke-linejoin:miter;stroke-opacity:1" d="M 553.461,621.772 566.826,614.347 z" id="boundary" inkscape:connector-curvature="0" />
	<path style="fill:none;stroke:red;stroke-width:1px;stroke-linecap:butt;stroke-linejoin:miter;stroke-opacity:1" d="M 547.521,672.263 547.521,657.413 z" id="boundary" inkscape:connector-curvature="0" />
	<path style="fill:none;stroke:red;stroke-width:1px;stroke-linecap:butt;stroke-linejoin:miter;stroke-opacity:1" d="M 577.222,599.497 566.826,614.347 z" id="boundary" inkscape:connector-curvature="0" />
	<path style="fill:none;stroke:red;stroke-width:1px;stroke-linecap:butt;stroke-linejoin:miter;stroke-opacity:1" d="M 577.222,599.497 590.587,592.072 z" id="boundary" inkscape:connector-curvature="0" />
	<path style="fill:none;stroke:red;stroke-width:1px;stroke-linecap:butt;stroke-linejoin:miter;stroke-opacity:1" d="M 540.096,748 540.096,762.85 z" id="boundary" inkscape:connector-curvature="0" />
	<circle cx="4" cy="201.509" r="4" fill="#0" id="circle0"/>
	<circle cx="12.9102" cy="213.389" r="4" fill="#0" id="circle1"/>
	<circle cx="15.8802" cy="189.629" r="4" fill="#0" id="circle2"/>
	<circle cx="26.2754" cy="205.964" r="4" fill="#0" id="circle3"/>
	<circle cx="30.7305" cy="182.204" r="4" fill="#0" id="circle4"/>
	<circle cx="41.1257" cy="205.964" r="4" fill="#0" id="circle5"/>
	<circle cx="45.5808" cy="174.778" r="4" fill="#0" id="circle6"/>
	<circle cx="54.491" cy="198.539" r="4" fill="#0" id="circle7"/>
	<circle cx="60.4311" cy="167.353" r="4" fill="#0" id="circle8"/>
	<circle cx="67.8563" cy="191.114" r="4" fill="#0" id="circle9"/>
	<circle cx="73.7964" cy="159.928" r="4" fill="#0" id="circle10"/>
	<circle cx="82.7066" cy="189.629" r="4" fill="#0" id="circle11"/>
	<circle cx="87.1617" cy="152.503" r="4" fill="#0" id="circle12"/>
	<circle cx="97.5569" cy="183.689" r="4" fill="#0" id="circle13"/>
	<circle cx="100.527" cy="145.078" r="4" fill="#0" id="circle14"/>
	<circle cx="110.922" cy="176.263" r="4" fill="#0" id="circle15"/>
	<circle cx="115.377" cy="142.108" r="4" fill="#0" id="circle16"/>
	<circle cx="125.772" cy="176.263" r="4" fill="#0" id="circle17"/>
	<circle cx="130.228" cy="134.683" r="4" fill="#0" id="circle18"/>
	<circle cx="139.138" cy="168.838" r="4" fill="#0" id="circle19"/>
	<circle cx="145.078" cy="127.257" r="4" fill="#0" id="circle20"/>
	<circle cx="151.018" cy="158.443" r="4" fill="#0" id="circle21"/>
	<circle cx="159.928" cy="119.832" r="4" fill="#0" id="circle22"/>
	<circle cx="165.868" cy="151.018" r="4" fill="#0" id="circle23"/>
	<circle cx="174.778" cy="112.407" r="4" fill="#0" id="circle24"/>
	<circle cx="180.719" cy="146.563" r="4" fill="#0" id="circle25"/>
	<circle cx="189.629" cy="104.982" r="4" fill="#0" id="circle26"/>
	<circle cx="194.084" cy="137.653" r="4" fill="#0" id="circle27"/>
	<circle cx="201.509" cy="93.1018" r="4" fill="#0" id="circle28"/>
	<circle cx="204.479" cy="45.5808" r="4" fill="#0" id="circle29"/>
	<circle cx="204.479" cy="60.4311" r="4" fill="#0" id="circle30"/>
	<circle cx="204.479" cy="75.2814" r="4" fill="#0" id="circle31"/>
	<circle cx="204.479" cy="223.784" r="4" fill="#0" id="circle32"/>
	<circle cx="204.479" cy="238.635" r="4" fill="#0" id="circle33"/>
	<circle cx="204.479" cy="253.485" r="4" fill="#0" id="circle34"/>
	<circle cx="204.479" cy="268.335" r="4" fill="#0" id="circle35"/>
	<circle cx="204.479" cy="283.186" r="4" fill="#0" id="circle36"/>
	<circle cx="204.479" cy="298.036" r="4" fill="#0" id="circle37"/>
	<circle cx="208.934" cy="130.228" r="4" fill="#0" id="circle38"/>
	<circle cx="211.904" cy="208.934" r="4" fill="#0" id="circle39"/>
	<circle cx="211.904" cy="311.401" r="4" fill="#0" id="circle40"/>
	<circle cx="211.904" cy="326.251" r="4" fill="#0" id="circle41"/>
	<circle cx="219.329" cy="38.1557" r="4" fill="#0" id="circle42"/>
	<circle cx="219.329" cy="339.617" r="4" fill="#0" id="circle43"/>
	<circle cx="219.329" cy="354.467" r="4" fill="#0" id="circle44"/>
	<circle cx="223.784" cy="124.287" r="4" fill="#0" id="circle45"/>
	<circle cx="226.754" cy="194.084" r="4" fill="#0" id="circle46"/>
	<circle cx="226.754" cy="367.832" r="4" fill="#0" id="circle47"/>
	<circle cx="229.725" cy="382.683" r="4" fill="#0" id="circle48"/>
	<circle cx="231.21" cy="26.2754" r="4" fill="#0" id="circle49"/>
	<circle cx="234.18" cy="397.533" r="4" fill="#0" id="circle50"/>
	<circle cx="237.15" cy="412.383" r="4" fill="#0" id="circle51"/>
	<circle cx="238.635" cy="124.287" r="4" fill="#0" id="circle52"/>
	<circle cx="241.605" cy="179.234" r="4" fill="#0" id="circle53"/>
	<circle cx="246.06" cy="18.8503" r="4" fill="#0" id="circle54"/>
	<circle cx="246.06" cy="137.653" r="4" fill="#0" id="circle55"/>
	<circle cx="249.03" cy="421.293" r="4" fill="#0" id="circle56"/>
	<circle cx="253.485" cy="167.353" r="4" fill="#0" id="circle57"/>
	<circle cx="253.485" cy="436.144" r="4" fill="#0" id="circle58"/>
	<circle cx="256.455" cy="149.533" r="4" fill="#0" id="circle59"/>
	<circle cx="260.91" cy="11.4251" r="4" fill="#0" id="circle60"/>
	<circle cx="260.91" cy="449.509" r="4" fill="#0" id="circle61"/>
	<circle cx="271.305" cy="461.389" r="4" fill="#0" id="circle62"/>
	<circle cx="275.76" cy="11.4251" r="4" fill="#0" id="circle63"/>
	<circle cx="278.731" cy="474.754" r="4" fill="#0" id="circle64"/>
	<circle cx="289.126" cy="4" r="4" fill="#0" id="circle65"/>
	<circle cx="289.126" cy="486.635" r="4" fill="#0" id="circle66"/>
	<circle cx="301.006" cy="495.545" r="4" fill="#0" id="circle67"/>
	<circle cx="302.491" cy="11.4251" r="4" fill="#0" id="circle68"/>
	<circle cx="308.431" cy="508.91" r="4" fill="#0" id="circle69"/>
	<circle cx="317.341" cy="11.4251" r="4" fill="#0" id="circle70"/>
	<circle cx="317.341" cy="520.79" r="4" fill="#0" id="circle71"/>
	<circle cx="330.707" cy="528.216" r="4" fill="#0" id="circle72"/>
	<circle cx="332.192" cy="15.8802" r="4" fill="#0" id="circle73"/>
	<circle cx="342.587" cy="538.611" r="4" fill="#0" id="circle74"/>
	<circle cx="345.557" cy="23.3054" r="4" fill="#0" id="circle75"/>
	<circle cx="354.467" cy="547.521" r="4" fill="#0" id="circle76"/>
	<circle cx="360.407" cy="29.2455" r="4" fill="#0" id="circle77"/>
	<circle cx="367.832" cy="554.946" r="4" fill="#0" id="circle78"/>
	<circle cx="369.317" cy="41.1257" r="4" fill="#0" id="circle79"/>
	<circle cx="376.743" cy="54.491" r="4" fill="#0" id="circle80"/>
	<circle cx="381.198" cy="562.371" r="4" fill="#0" id="circle81"/>
	<circle cx="388.623" cy="64.8862" r="4" fill="#0" id="circle82"/>
	<circle cx="394.563" cy="79.7365" r="4" fill="#0" id="circle83"/>
	<circle cx="394.563" cy="569.796" r="4" fill="#0" id="circle84"/>
	<circle cx="397.533" cy="884.623" r="4" fill="#0" id="circle85"/>
	<circle cx="399.018" cy="94.5868" r="4" fill="#0" id="circle86"/>
	<circle cx="399.018" cy="109.437" r="4" fill="#0" id="circle87"/>
	<circle cx="399.018" cy="124.287" r="4" fill="#0" id="circle88"/>
	<circle cx="399.018" cy="139.138" r="4" fill="#0" id="circle89"/>
	<circle cx="399.018" cy="153.988" r="4" fill="#0" id="circle90"/>
	<circle cx="401.988" cy="168.838" r="4" fill="#0" id="circle91"/>
	<circle cx="404.958" cy="847.497" r="4" fill="#0" id="circle92"/>
	<circle cx="404.958" cy="862.347" r="4" fill="#0" id="circle93"/>
	<circle cx="406.443" cy="896.503" r="4" fill="#0" id="circle94"/>
	<circle cx="407.928" cy="577.222" r="4" fill="#0" id="circle95"/>
	<circle cx="413.868" cy="179.234" r="4" fill="#0" id="circle96"/>
	<circle cx="416.838" cy="835.617" r="4" fill="#0" id="circle97"/>
	<circle cx="419.808" cy="194.084" r="4" fill="#0" id="circle98"/>
	<circle cx="421.293" cy="896.503" r="4" fill="#0" id="circle99"/>
	<circle cx="422.778" cy="581.677" r="4" fill="#0" id="circle100"/>
	<circle cx="431.689" cy="835.617" r="4" fill="#0" id="circle101"/>
	<circle cx="434.659" cy="197.054" r="4" fill="#0" id="circle102"/>
	<circle cx="436.144" cy="589.102" r="4" fill="#0" id="circle103"/>
	<circle cx="436.144" cy="896.503" r="4" fill="#0" id="circle104"/>
	<circle cx="446.539" cy="835.617" r="4" fill="#0" id="circle105"/>
	<circle cx="448.024" cy="204.479" r="4" fill="#0" id="circle106"/>
	<circle cx="450.994" cy="592.072" r="4" fill="#0" id="circle107"/>
	<circle cx="450.994" cy="896.503" r="4" fill="#0" id="circle108"/>
	<circle cx="459.904" cy="843.042" r="4" fill="#0" id="circle109"/>
	<circle cx="462.874" cy="205.964" r="4" fill="#0" id="circle110"/>
	<circle cx="464.359" cy="599.497" r="4" fill="#0" id="circle111"/>
	<circle cx="465.844" cy="889.078" r="4" fill="#0" id="circle112"/>
	<circle cx="474.754" cy="843.042" r="4" fill="#0" id="circle113"/>
	<circle cx="476.24" cy="213.389" r="4" fill="#0" id="circle114"/>
	<circle cx="479.21" cy="599.497" r="4" fill="#0" id="circle115"/>
	<circle cx="480.695" cy="889.078" r="4" fill="#0" id="circle116"/>
	<circle cx="489.605" cy="843.042" r="4" fill="#0" id="circle117"/>
	<circle cx="491.09" cy="219.329" r="4" fill="#0" id="circle118"/>
	<circle cx="494.06" cy="599.497" r="4" fill="#0" id="circle119"/>
	<circle cx="495.545" cy="881.653" r="4" fill="#0" id="circle120"/>
	<circle cx="501.485" cy="612.862" r="4" fill="#0" id="circle121"/>
	<circle cx="501.485" cy="627.713" r="4" fill="#0" id="circle122"/>
	<circle cx="501.485" cy="817.796" r="4" fill="#0" id="circle123"/>
	<circle cx="501.485" cy="832.647" r="4" fill="#0" id="circle124"/>
	<circle cx="504.455" cy="226.754" r="4" fill="#0" id="circle125"/>
	<circle cx="504.455" cy="642.563" r="4" fill="#0" id="circle126"/>
	<circle cx="508.91" cy="657.413" r="4" fill="#0" id="circle127"/>
	<circle cx="508.91" cy="773.246" r="4" fill="#0" id="circle128"/>
	<circle cx="508.91" cy="788.096" r="4" fill="#0" id="circle129"/>
	<circle cx="508.91" cy="802.946" r="4" fill="#0" id="circle130"/>
	<circle cx="510.395" cy="881.653" r="4" fill="#0" id="circle131"/>
	<circle cx="516.335" cy="670.778" r="4" fill="#0" id="circle132"/>
	<circle cx="516.335" cy="685.629" r="4" fill="#0" id="circle133"/>
	<circle cx="516.335" cy="743.545" r="4" fill="#0" id="circle134"/>
	<circle cx="516.335" cy="758.395" r="4" fill="#0" id="circle135"/>
	<circle cx="519.305" cy="226.754" r="4" fill="#0" id="circle136"/>
	<circle cx="523.76" cy="698.994" r="4" fill="#0" id="circle137"/>
	<circle cx="523.76" cy="713.844" r="4" fill="#0" id="circle138"/>
	<circle cx="523.76" cy="728.695" r="4" fill="#0" id="circle139"/>
	<circle cx="525.246" cy="874.228" r="4" fill="#0" id="circle140"/>
	<circle cx="532.671" cy="234.18" r="4" fill="#0" id="circle141"/>
	<circle cx="532.671" cy="777.701" r="4" fill="#0" id="circle142"/>
	<circle cx="532.671" cy="792.551" r="4" fill="#0" id="circle143"/>
	<circle cx="532.671" cy="807.401" r="4" fill="#0" id="circle144"/>
	<circle cx="532.671" cy="822.251" r="4" fill="#0" id="circle145"/>
	<circle cx="532.671" cy="837.102" r="4" fill="#0" id="circle146"/>
	<circle cx="532.671" cy="851.952" r="4" fill="#0" id="circle147"/>
	<circle cx="540.096" cy="629.198" r="4" fill="#0" id="circle148"/>
	<circle cx="540.096" cy="644.048" r="4" fill="#0" id="circle149"/>
	<circle cx="540.096" cy="688.599" r="4" fill="#0" id="circle150"/>
	<circle cx="540.096" cy="703.449" r="4" fill="#0" id="circle151"/>
	<circle cx="540.096" cy="718.299" r="4" fill="#0" id="circle152"/>
	<circle cx="540.096" cy="733.15" r="4" fill="#0" id="circle153"/>
	<circle cx="540.096" cy="748" r="4" fill="#0" id="circle154"/>
	<circle cx="540.096" cy="762.85" r="4" fill="#0" id="circle155"/>
	<circle cx="547.521" cy="238.635" r="4" fill="#0" id="circle156"/>
	<circle cx="547.521" cy="657.413" r="4" fill="#0" id="circle157"/>
	<circle cx="547.521" cy="672.263" r="4" fill="#0" id="circle158"/>
	<circle cx="553.461" cy="621.772" r="4" fill="#0" id="circle159"/>
	<circle cx="559.401" cy="249.03" r="4" fill="#0" id="circle160"/>
	<circle cx="566.826" cy="614.347" r="4" fill="#0" id="circle161"/>
	<circle cx="574.251" cy="250.515" r="4" fill="#0" id="circle162"/>
	<circle cx="577.222" cy="599.497" r="4" fill="#0" id="circle163"/>
	<circle cx="584.647" cy="262.395" r="4" fill="#0" id="circle164"/>
	<circle cx="590.587" cy="592.072" r="4" fill="#0" id="circle165"/>
	<circle cx="599.497" cy="263.88" r="4" fill="#0" id="circle166"/>
	<circle cx="605.437" cy="587.617" r="4" fill="#0" id="circle167"/>
	<circle cx="614.347" cy="268.335" r="4" fill="#0" id="circle168"/>
	<circle cx="620.287" cy="584.647" r="4" fill="#0" id="circle169"/>
	<circle cx="627.713" cy="275.76" r="4" fill="#0" id="circle170"/>
	<circle cx="635.138" cy="584.647" r="4" fill="#0" id="circle171"/>
	<circle cx="642.563" cy="281.701" r="4" fill="#0" id="circle172"/>
	<circle cx="649.988" cy="580.192" r="4" fill="#0" id="circle173"/>
	<circle cx="655.928" cy="289.126" r="4" fill="#0" id="circle174"/>
	<circle cx="664.838" cy="577.222" r="4" fill="#0" id="circle175"/>
	<circle cx="670.778" cy="295.066" r="4" fill="#0" id="circle176"/>
	<circle cx="679.689" cy="572.766" r="4" fill="#0" id="circle177"/>
	<circle cx="684.144" cy="302.491" r="4" fill="#0" id="circle178"/>
	<circle cx="691.569" cy="562.371" r="4" fill="#0" id="circle179"/>
	<circle cx="698.994" cy="308.431" r="4" fill="#0" id="circle180"/>
	<circle cx="704.934" cy="554.946" r="4" fill="#0" id="circle181"/>
	<circle cx="712.359" cy="315.856" r="4" fill="#0" id="circle182"/>
	<circle cx="719.784" cy="554.946" r="4" fill="#0" id="circle183"/>
	<circle cx="724.24" cy="326.251" r="4" fill="#0" id="circle184"/>
	<circle cx="733.15" cy="547.521" r="4" fill="#0" id="circle185"/>
	<circle cx="739.09" cy="330.707" r="4" fill="#0" id="circle186"/>
	<circle cx="748" cy="547.521" r="4" fill="#0" id="circle187"/>
	<circle cx="752.455" cy="338.132" r="4" fill="#0" id="circle188"/>
	<circle cx="762.85" cy="532.671" r="4" fill="#0" id="circle189"/>
	<circle cx="765.82" cy="345.557" r="4" fill="#0" id="circle190"/>
	<circle cx="777.701" cy="532.671" r="4" fill="#0" id="circle191"/>
	<circle cx="780.671" cy="345.557" r="4" fill="#0" id="circle192"/>
	<circle cx="792.551" cy="525.246" r="4" fill="#0" id="circle193"/>
	<circle cx="794.036" cy="352.982" r="4" fill="#0" id="circle194"/>
	<circle cx="805.916" cy="517.82" r="4" fill="#0" id="circle195"/>
	<circle cx="807.401" cy="360.407" r="4" fill="#0" id="circle196"/>
	<circle cx="817.796" cy="508.91" r="4" fill="#0" id="circle197"/>
	<circle cx="822.251" cy="364.862" r="4" fill="#0" id="circle198"/>
	<circle cx="832.647" cy="502.97" r="4" fill="#0" id="circle199"/>
	<circle cx="837.102" cy="367.832" r="4" fill="#0" id="circle200"/>
	<circle cx="847.497" cy="501.485" r="4" fill="#0" id="circle201"/>
	<circle cx="850.467" cy="375.257" r="4" fill="#0" id="circle202"/>
	<circle cx="862.347" cy="495.545" r="4" fill="#0" id="circle203"/>
	<circle cx="863.832" cy="382.683" r="4" fill="#0" id="circle204"/>
	<circle cx="877.198" cy="494.06" r="4" fill="#0" id="circle205"/>
	<circle cx="878.683" cy="382.683" r="4" fill="#0" id="circle206"/>
	<circle cx="892.048" cy="390.108" r="4" fill="#0" id="circle207"/>
	<circle cx="892.048" cy="488.12" r="4" fill="#0" id="circle208"/>
	<circle cx="905.413" cy="397.533" r="4" fill="#0" id="circle209"/>
	<circle cx="906.898" cy="488.12" r="4" fill="#0" id="circle210"/>
	<circle cx="918.778" cy="404.958" r="4" fill="#0" id="circle211"/>
	<circle cx="921.749" cy="488.12" r="4" fill="#0" id="circle212"/>
	<circle cx="933.629" cy="404.958" r="4" fill="#0" id="circle213"/>
	<circle cx="936.599" cy="488.12" r="4" fill="#0" id="circle214"/>
	<circle cx="948.479" cy="404.958" r="4" fill="#0" id="circle215"/>
	<circle cx="951.449" cy="488.12" r="4" fill="#0" id="circle216"/>
	<circle cx="963.329" cy="404.958" r="4" fill="#0" id="circle217"/>
	<circle cx="966.299" cy="488.12" r="4" fill="#0" id="circle218"/>
	<circle cx="970.754" cy="421.293" r="4" fill="#0" id="circle219"/>
	<circle cx="970.754" cy="436.144" r="4" fill="#0" id="circle220"/>
	<circle cx="970.754" cy="450.994" r="4" fill="#0" id="circle221"/>
	<circle cx="978.18" cy="464.359" r="4" fill="#0" id="circle222"/>
	<circle cx="981.15" cy="488.12" r="4" fill="#0" id="circle223"/>
	<circle cx="991.545" cy="471.784" r="4" fill="#0" id="circle224"/>
	<circle cx="996" cy="486.635" r="4" fill="#0" id="circle225"/>
	</g>
</svg>