<?xml version="1.0" encoding="UTF-8" standalone="no"?>
<!-- Created with CurveBenchmark -->
<svg
	xmlns:dc="http://purl.org/dc/elements/1.1/"
	xmlns:cc="http://creativecommons.org/ns#"
	xmlns:rdf="http://www.w3.org/1999/02/22-rdf-syntax-ns#"
	xmlns:svg="http://www.w3.org/2000/svg"
	xmlns="http://www.w3.org/2000/svg"
	xmlns:sodipodi="http://sodipodi.sourceforge.net/DTD/sodipodi-0.dtd"
	xmlns:inkscape="http://www.inkscape.org/namespaces/inkscape"
	width="1000"
	height="1000"
	id="svg2"
	version="1.1"
	sodipodi:docname="manifold/nncrust-hammer-20.png.txt">
<defs
	id="defs4" />
<metadata
	id="metadata7">
	<rdf:RDF>
		<cc:Work
			rdf:about="">
			<dc:format>image/svg+xml</dc:format>
			<dc:type
				rdf:resource="http://purl.org/dc/dcmitype/StillImage" />
			<dc:title></dc:title>
		</cc:Work>
	</rdf:RDF>
</metadata>
<g
	inkscape:label="Layer 1"
	inkscape:groupmode="layer"
	id="layer1">
	<path style="fill:none;stroke:red;stroke-width:1px;stroke-linecap:butt;stroke-linejoin:miter;stroke-opacity:1" d="M 4,45.7318 4,37.0377 z" id="boundary" inkscape:connector-curvature="0" />
	<path style="fill:none;stroke:red;stroke-width:1px;stroke-linecap:butt;stroke-linejoin:miter;stroke-opacity:1" d="M 4,37.0377 8.34706,28.3436 z" id="boundary" inkscape:connector-curvature="0" />
	<path style="fill:none;stroke:red;stroke-width:1px;stroke-linecap:butt;stroke-linejoin:miter;stroke-opacity:1" d="M 8.34706,28.3436 15.3024,21.3883 z" id="boundary" inkscape:connector-curvature="0" />
	<path style="fill:none;stroke:red;stroke-width:1px;stroke-linecap:butt;stroke-linejoin:miter;stroke-opacity:1" d="M 4,54.4259 4,45.7318 z" id="boundary" inkscape:connector-curvature="0" />
	<path style="fill:none;stroke:red;stroke-width:1px;stroke-linecap:butt;stroke-linejoin:miter;stroke-opacity:1" d="M 4,71.8142 4,63.1201 z" id="boundary" inkscape:connector-curvature="0" />
	<path style="fill:none;stroke:red;stroke-width:1px;stroke-linecap:butt;stroke-linejoin:miter;stroke-opacity:1" d="M 4,80.5083 4,71.8142 z" id="boundary" inkscape:connector-curvature="0" />
	<path style="fill:none;stroke:red;stroke-width:1px;stroke-linecap:butt;stroke-linejoin:miter;stroke-opacity:1" d="M 4,63.1201 4,54.4259 z" id="boundary" inkscape:connector-curvature="0" />
	<path style="fill:none;stroke:red;stroke-width:1px;stroke-linecap:butt;stroke-linejoin:miter;stroke-opacity:1" d="M 15.3024,21.3883 22.2577,14.433 z" id="boundary" inkscape:connector-curvature="0" />
	<path style="fill:none;stroke:red;stroke-width:1px;stroke-linecap:butt;stroke-linejoin:miter;stroke-opacity:1" d="M 37.0377,4 45.7318,4 z" id="boundary" inkscape:connector-curvature="0" />
	<path style="fill:none;stroke:red;stroke-width:1px;stroke-linecap:butt;stroke-linejoin:miter;stroke-opacity:1" d="M 29.213,8.34706 37.0377,4 z" id="boundary" inkscape:connector-curvature="0" />
	<path style="fill:none;stroke:red;stroke-width:1px;stroke-linecap:butt;stroke-linejoin:miter;stroke-opacity:1" d="M 54.4259,4 63.1201,4 z" id="boundary" inkscape:connector-curvature="0" />
	<path style="fill:none;stroke:red;stroke-width:1px;stroke-linecap:butt;stroke-linejoin:miter;stroke-opacity:1" d="M 45.7318,4 54.4259,4 z" id="boundary" inkscape:connector-curvature="0" />
	<path style="fill:none;stroke:red;stroke-width:1px;stroke-linecap:butt;stroke-linejoin:miter;stroke-opacity:1" d="M 63.1201,4 71.8142,4 z" id="boundary" inkscape:connector-curvature="0" />
	<path style="fill:none;stroke:red;stroke-width:1px;stroke-linecap:butt;stroke-linejoin:miter;stroke-opacity:1" d="M 80.5083,4 89.2025,4 z" id="boundary" inkscape:connector-curvature="0" />
	<path style="fill:none;stroke:red;stroke-width:1px;stroke-linecap:butt;stroke-linejoin:miter;stroke-opacity:1" d="M 89.2025,4 97.0272,8.34706 z" id="boundary" inkscape:connector-curvature="0" />
	<path style="fill:none;stroke:red;stroke-width:1px;stroke-linecap:butt;stroke-linejoin:miter;stroke-opacity:1" d="M 170.058,25.7353 161.364,25.7353 z" id="boundary" inkscape:connector-curvature="0" />
	<path style="fill:none;stroke:red;stroke-width:1px;stroke-linecap:butt;stroke-linejoin:miter;stroke-opacity:1" d="M 71.8142,4 80.5083,4 z" id="boundary" inkscape:connector-curvature="0" />
	<path style="fill:none;stroke:red;stroke-width:1px;stroke-linecap:butt;stroke-linejoin:miter;stroke-opacity:1" d="M 22.2577,14.433 29.213,8.34706 z" id="boundary" inkscape:connector-curvature="0" />
	<path style="fill:none;stroke:red;stroke-width:1px;stroke-linecap:butt;stroke-linejoin:miter;stroke-opacity:1" d="M 4,89.2025 4,80.5083 z" id="boundary" inkscape:connector-curvature="0" />
	<path style="fill:none;stroke:red;stroke-width:1px;stroke-linecap:butt;stroke-linejoin:miter;stroke-opacity:1" d="M 4,123.979 4,115.285 z" id="boundary" inkscape:connector-curvature="0" />
	<path style="fill:none;stroke:red;stroke-width:1px;stroke-linecap:butt;stroke-linejoin:miter;stroke-opacity:1" d="M 4,115.285 4,106.591 z" id="boundary" inkscape:connector-curvature="0" />
	<path style="fill:none;stroke:red;stroke-width:1px;stroke-linecap:butt;stroke-linejoin:miter;stroke-opacity:1" d="M 4,132.673 4,123.979 z" id="boundary" inkscape:connector-curvature="0" />
	<path style="fill:none;stroke:red;stroke-width:1px;stroke-linecap:butt;stroke-linejoin:miter;stroke-opacity:1" d="M 8.34706,140.498 4,132.673 z" id="boundary" inkscape:connector-curvature="0" />
	<path style="fill:none;stroke:red;stroke-width:1px;stroke-linecap:butt;stroke-linejoin:miter;stroke-opacity:1" d="M 12.6941,148.323 8.34706,140.498 z" id="boundary" inkscape:connector-curvature="0" />
	<path style="fill:none;stroke:red;stroke-width:1px;stroke-linecap:butt;stroke-linejoin:miter;stroke-opacity:1" d="M 12.6941,148.323 17.9106,155.278 z" id="boundary" inkscape:connector-curvature="0" />
	<path style="fill:none;stroke:red;stroke-width:1px;stroke-linecap:butt;stroke-linejoin:miter;stroke-opacity:1" d="M 4,106.591 4,97.8966 z" id="boundary" inkscape:connector-curvature="0" />
	<path style="fill:none;stroke:red;stroke-width:1px;stroke-linecap:butt;stroke-linejoin:miter;stroke-opacity:1" d="M 24.8659,161.364 32.6906,165.711 z" id="boundary" inkscape:connector-curvature="0" />
	<path style="fill:none;stroke:red;stroke-width:1px;stroke-linecap:butt;stroke-linejoin:miter;stroke-opacity:1" d="M 41.3848,165.711 32.6906,165.711 z" id="boundary" inkscape:connector-curvature="0" />
	<path style="fill:none;stroke:red;stroke-width:1px;stroke-linecap:butt;stroke-linejoin:miter;stroke-opacity:1" d="M 24.8659,161.364 17.9106,155.278 z" id="boundary" inkscape:connector-curvature="0" />
	<path style="fill:none;stroke:red;stroke-width:1px;stroke-linecap:butt;stroke-linejoin:miter;stroke-opacity:1" d="M 100.505,161.364 92.6801,165.711 z" id="boundary" inkscape:connector-curvature="0" />
	<path style="fill:none;stroke:red;stroke-width:1px;stroke-linecap:butt;stroke-linejoin:miter;stroke-opacity:1" d="M 92.6801,165.711 83.986,165.711 z" id="boundary" inkscape:connector-curvature="0" />
	<path style="fill:none;stroke:red;stroke-width:1px;stroke-linecap:butt;stroke-linejoin:miter;stroke-opacity:1" d="M 107.46,155.278 100.505,161.364 z" id="boundary" inkscape:connector-curvature="0" />
	<path style="fill:none;stroke:red;stroke-width:1px;stroke-linecap:butt;stroke-linejoin:miter;stroke-opacity:1" d="M 41.3848,165.711 50.0789,169.188 z" id="boundary" inkscape:connector-curvature="0" />
	<path style="fill:none;stroke:red;stroke-width:1px;stroke-linecap:butt;stroke-linejoin:miter;stroke-opacity:1" d="M 50.0789,169.188 58.773,170.058 z" id="boundary" inkscape:connector-curvature="0" />
	<path style="fill:none;stroke:red;stroke-width:1px;stroke-linecap:butt;stroke-linejoin:miter;stroke-opacity:1" d="M 83.986,165.711 76.1613,170.058 z" id="boundary" inkscape:connector-curvature="0" />
	<path style="fill:none;stroke:red;stroke-width:1px;stroke-linecap:butt;stroke-linejoin:miter;stroke-opacity:1" d="M 76.1613,170.058 67.4671,170.058 z" id="boundary" inkscape:connector-curvature="0" />
	<path style="fill:none;stroke:red;stroke-width:1px;stroke-linecap:butt;stroke-linejoin:miter;stroke-opacity:1" d="M 67.4671,170.058 58.773,170.058 z" id="boundary" inkscape:connector-curvature="0" />
	<path style="fill:none;stroke:red;stroke-width:1px;stroke-linecap:butt;stroke-linejoin:miter;stroke-opacity:1" d="M 4,97.8966 4,89.2025 z" id="boundary" inkscape:connector-curvature="0" />
	<path style="fill:none;stroke:red;stroke-width:1px;stroke-linecap:butt;stroke-linejoin:miter;stroke-opacity:1" d="M 97.0272,8.34706 104.852,12.6941 z" id="boundary" inkscape:connector-curvature="0" />
	<path style="fill:none;stroke:red;stroke-width:1px;stroke-linecap:butt;stroke-linejoin:miter;stroke-opacity:1" d="M 104.852,12.6941 111.807,17.9106 z" id="boundary" inkscape:connector-curvature="0" />
	<path style="fill:none;stroke:red;stroke-width:1px;stroke-linecap:butt;stroke-linejoin:miter;stroke-opacity:1" d="M 111.807,17.9106 117.893,24.8659 z" id="boundary" inkscape:connector-curvature="0" />
	<path style="fill:none;stroke:red;stroke-width:1px;stroke-linecap:butt;stroke-linejoin:miter;stroke-opacity:1" d="M 135.281,25.7353 126.587,25.7353 z" id="boundary" inkscape:connector-curvature="0" />
	<path style="fill:none;stroke:red;stroke-width:1px;stroke-linecap:butt;stroke-linejoin:miter;stroke-opacity:1" d="M 117.893,24.8659 126.587,25.7353 z" id="boundary" inkscape:connector-curvature="0" />
	<path style="fill:none;stroke:red;stroke-width:1px;stroke-linecap:butt;stroke-linejoin:miter;stroke-opacity:1" d="M 107.46,155.278 113.546,148.323 z" id="boundary" inkscape:connector-curvature="0" />
	<path style="fill:none;stroke:red;stroke-width:1px;stroke-linecap:butt;stroke-linejoin:miter;stroke-opacity:1" d="M 129.195,139.628 120.501,142.237 z" id="boundary" inkscape:connector-curvature="0" />
	<path style="fill:none;stroke:red;stroke-width:1px;stroke-linecap:butt;stroke-linejoin:miter;stroke-opacity:1" d="M 120.501,142.237 113.546,148.323 z" id="boundary" inkscape:connector-curvature="0" />
	<path style="fill:none;stroke:red;stroke-width:1px;stroke-linecap:butt;stroke-linejoin:miter;stroke-opacity:1" d="M 137.89,139.628 129.195,139.628 z" id="boundary" inkscape:connector-curvature="0" />
	<path style="fill:none;stroke:red;stroke-width:1px;stroke-linecap:butt;stroke-linejoin:miter;stroke-opacity:1" d="M 143.975,25.7353 135.281,25.7353 z" id="boundary" inkscape:connector-curvature="0" />
	<path style="fill:none;stroke:red;stroke-width:1px;stroke-linecap:butt;stroke-linejoin:miter;stroke-opacity:1" d="M 143.975,25.7353 152.67,25.7353 z" id="boundary" inkscape:connector-curvature="0" />
	<path style="fill:none;stroke:red;stroke-width:1px;stroke-linecap:butt;stroke-linejoin:miter;stroke-opacity:1" d="M 152.67,25.7353 161.364,25.7353 z" id="boundary" inkscape:connector-curvature="0" />
	<path style="fill:none;stroke:red;stroke-width:1px;stroke-linecap:butt;stroke-linejoin:miter;stroke-opacity:1" d="M 143.106,146.584 137.89,139.628 z" id="boundary" inkscape:connector-curvature="0" />
	<path style="fill:none;stroke:red;stroke-width:1px;stroke-linecap:butt;stroke-linejoin:miter;stroke-opacity:1" d="M 143.106,146.584 143.106,155.278 z" id="boundary" inkscape:connector-curvature="0" />
	<path style="fill:none;stroke:red;stroke-width:1px;stroke-linecap:butt;stroke-linejoin:miter;stroke-opacity:1" d="M 143.106,163.972 143.106,172.666 z" id="boundary" inkscape:connector-curvature="0" />
	<path style="fill:none;stroke:red;stroke-width:1px;stroke-linecap:butt;stroke-linejoin:miter;stroke-opacity:1" d="M 143.106,181.36 143.106,172.666 z" id="boundary" inkscape:connector-curvature="0" />
	<path style="fill:none;stroke:red;stroke-width:1px;stroke-linecap:butt;stroke-linejoin:miter;stroke-opacity:1" d="M 143.106,163.972 143.106,155.278 z" id="boundary" inkscape:connector-curvature="0" />
	<path style="fill:none;stroke:red;stroke-width:1px;stroke-linecap:butt;stroke-linejoin:miter;stroke-opacity:1" d="M 143.106,190.054 143.106,181.36 z" id="boundary" inkscape:connector-curvature="0" />
	<path style="fill:none;stroke:red;stroke-width:1px;stroke-linecap:butt;stroke-linejoin:miter;stroke-opacity:1" d="M 143.106,190.054 143.106,198.748 z" id="boundary" inkscape:connector-curvature="0" />
	<path style="fill:none;stroke:red;stroke-width:1px;stroke-linecap:butt;stroke-linejoin:miter;stroke-opacity:1" d="M 143.106,207.443 143.106,216.137 z" id="boundary" inkscape:connector-curvature="0" />
	<path style="fill:none;stroke:red;stroke-width:1px;stroke-linecap:butt;stroke-linejoin:miter;stroke-opacity:1" d="M 143.106,207.443 143.106,198.748 z" id="boundary" inkscape:connector-curvature="0" />
	<path style="fill:none;stroke:red;stroke-width:1px;stroke-linecap:butt;stroke-linejoin:miter;stroke-opacity:1" d="M 143.106,224.831 143.106,233.525 z" id="boundary" inkscape:connector-curvature="0" />
	<path style="fill:none;stroke:red;stroke-width:1px;stroke-linecap:butt;stroke-linejoin:miter;stroke-opacity:1" d="M 143.106,242.219 143.106,250.913 z" id="boundary" inkscape:connector-curvature="0" />
	<path style="fill:none;stroke:red;stroke-width:1px;stroke-linecap:butt;stroke-linejoin:miter;stroke-opacity:1" d="M 143.106,259.607 143.106,250.913 z" id="boundary" inkscape:connector-curvature="0" />
	<path style="fill:none;stroke:red;stroke-width:1px;stroke-linecap:butt;stroke-linejoin:miter;stroke-opacity:1" d="M 143.106,242.219 143.106,233.525 z" id="boundary" inkscape:connector-curvature="0" />
	<path style="fill:none;stroke:red;stroke-width:1px;stroke-linecap:butt;stroke-linejoin:miter;stroke-opacity:1" d="M 143.106,224.831 143.106,216.137 z" id="boundary" inkscape:connector-curvature="0" />
	<path style="fill:none;stroke:red;stroke-width:1px;stroke-linecap:butt;stroke-linejoin:miter;stroke-opacity:1" d="M 143.106,268.301 143.106,276.996 z" id="boundary" inkscape:connector-curvature="0" />
	<path style="fill:none;stroke:red;stroke-width:1px;stroke-linecap:butt;stroke-linejoin:miter;stroke-opacity:1" d="M 143.106,285.69 143.106,294.384 z" id="boundary" inkscape:connector-curvature="0" />
	<path style="fill:none;stroke:red;stroke-width:1px;stroke-linecap:butt;stroke-linejoin:miter;stroke-opacity:1" d="M 143.106,303.078 143.106,294.384 z" id="boundary" inkscape:connector-curvature="0" />
	<path style="fill:none;stroke:red;stroke-width:1px;stroke-linecap:butt;stroke-linejoin:miter;stroke-opacity:1" d="M 143.106,285.69 143.106,276.996 z" id="boundary" inkscape:connector-curvature="0" />
	<path style="fill:none;stroke:red;stroke-width:1px;stroke-linecap:butt;stroke-linejoin:miter;stroke-opacity:1" d="M 143.106,311.772 143.106,320.466 z" id="boundary" inkscape:connector-curvature="0" />
	<path style="fill:none;stroke:red;stroke-width:1px;stroke-linecap:butt;stroke-linejoin:miter;stroke-opacity:1" d="M 143.106,329.16 143.106,337.855 z" id="boundary" inkscape:connector-curvature="0" />
	<path style="fill:none;stroke:red;stroke-width:1px;stroke-linecap:butt;stroke-linejoin:miter;stroke-opacity:1" d="M 143.106,346.549 143.106,337.855 z" id="boundary" inkscape:connector-curvature="0" />
	<path style="fill:none;stroke:red;stroke-width:1px;stroke-linecap:butt;stroke-linejoin:miter;stroke-opacity:1" d="M 143.106,329.16 143.106,320.466 z" id="boundary" inkscape:connector-curvature="0" />
	<path style="fill:none;stroke:red;stroke-width:1px;stroke-linecap:butt;stroke-linejoin:miter;stroke-opacity:1" d="M 143.106,311.772 143.106,303.078 z" id="boundary" inkscape:connector-curvature="0" />
	<path style="fill:none;stroke:red;stroke-width:1px;stroke-linecap:butt;stroke-linejoin:miter;stroke-opacity:1" d="M 143.106,268.301 143.106,259.607 z" id="boundary" inkscape:connector-curvature="0" />
	<path style="fill:none;stroke:red;stroke-width:1px;stroke-linecap:butt;stroke-linejoin:miter;stroke-opacity:1" d="M 143.106,355.243 143.106,346.549 z" id="boundary" inkscape:connector-curvature="0" />
	<path style="fill:none;stroke:red;stroke-width:1px;stroke-linecap:butt;stroke-linejoin:miter;stroke-opacity:1" d="M 143.106,355.243 143.106,363.937 z" id="boundary" inkscape:connector-curvature="0" />
	<path style="fill:none;stroke:red;stroke-width:1px;stroke-linecap:butt;stroke-linejoin:miter;stroke-opacity:1" d="M 143.106,372.631 143.106,381.325 z" id="boundary" inkscape:connector-curvature="0" />
	<path style="fill:none;stroke:red;stroke-width:1px;stroke-linecap:butt;stroke-linejoin:miter;stroke-opacity:1" d="M 143.106,372.631 143.106,363.937 z" id="boundary" inkscape:connector-curvature="0" />
	<path style="fill:none;stroke:red;stroke-width:1px;stroke-linecap:butt;stroke-linejoin:miter;stroke-opacity:1" d="M 143.106,390.019 143.106,398.713 z" id="boundary" inkscape:connector-curvature="0" />
	<path style="fill:none;stroke:red;stroke-width:1px;stroke-linecap:butt;stroke-linejoin:miter;stroke-opacity:1" d="M 143.106,407.408 143.106,416.102 z" id="boundary" inkscape:connector-curvature="0" />
	<path style="fill:none;stroke:red;stroke-width:1px;stroke-linecap:butt;stroke-linejoin:miter;stroke-opacity:1" d="M 143.106,424.796 143.106,416.102 z" id="boundary" inkscape:connector-curvature="0" />
	<path style="fill:none;stroke:red;stroke-width:1px;stroke-linecap:butt;stroke-linejoin:miter;stroke-opacity:1" d="M 143.106,407.408 143.106,398.713 z" id="boundary" inkscape:connector-curvature="0" />
	<path style="fill:none;stroke:red;stroke-width:1px;stroke-linecap:butt;stroke-linejoin:miter;stroke-opacity:1" d="M 143.106,390.019 143.106,381.325 z" id="boundary" inkscape:connector-curvature="0" />
	<path style="fill:none;stroke:red;stroke-width:1px;stroke-linecap:butt;stroke-linejoin:miter;stroke-opacity:1" d="M 143.106,433.49 143.106,442.184 z" id="boundary" inkscape:connector-curvature="0" />
	<path style="fill:none;stroke:red;stroke-width:1px;stroke-linecap:butt;stroke-linejoin:miter;stroke-opacity:1" d="M 143.106,450.878 143.106,459.572 z" id="boundary" inkscape:connector-curvature="0" />
	<path style="fill:none;stroke:red;stroke-width:1px;stroke-linecap:butt;stroke-linejoin:miter;stroke-opacity:1" d="M 143.106,450.878 143.106,442.184 z" id="boundary" inkscape:connector-curvature="0" />
	<path style="fill:none;stroke:red;stroke-width:1px;stroke-linecap:butt;stroke-linejoin:miter;stroke-opacity:1" d="M 143.106,468.266 143.106,476.961 z" id="boundary" inkscape:connector-curvature="0" />
	<path style="fill:none;stroke:red;stroke-width:1px;stroke-linecap:butt;stroke-linejoin:miter;stroke-opacity:1" d="M 143.106,485.655 143.106,494.349 z" id="boundary" inkscape:connector-curvature="0" />
	<path style="fill:none;stroke:red;stroke-width:1px;stroke-linecap:butt;stroke-linejoin:miter;stroke-opacity:1" d="M 143.106,503.043 143.106,494.349 z" id="boundary" inkscape:connector-curvature="0" />
	<path style="fill:none;stroke:red;stroke-width:1px;stroke-linecap:butt;stroke-linejoin:miter;stroke-opacity:1" d="M 143.106,485.655 143.106,476.961 z" id="boundary" inkscape:connector-curvature="0" />
	<path style="fill:none;stroke:red;stroke-width:1px;stroke-linecap:butt;stroke-linejoin:miter;stroke-opacity:1" d="M 143.106,468.266 143.106,459.572 z" id="boundary" inkscape:connector-curvature="0" />
	<path style="fill:none;stroke:red;stroke-width:1px;stroke-linecap:butt;stroke-linejoin:miter;stroke-opacity:1" d="M 143.106,433.49 143.106,424.796 z" id="boundary" inkscape:connector-curvature="0" />
	<path style="fill:none;stroke:red;stroke-width:1px;stroke-linecap:butt;stroke-linejoin:miter;stroke-opacity:1" d="M 143.106,511.737 143.106,520.431 z" id="boundary" inkscape:connector-curvature="0" />
	<path style="fill:none;stroke:red;stroke-width:1px;stroke-linecap:butt;stroke-linejoin:miter;stroke-opacity:1" d="M 143.106,529.125 143.106,537.819 z" id="boundary" inkscape:connector-curvature="0" />
	<path style="fill:none;stroke:red;stroke-width:1px;stroke-linecap:butt;stroke-linejoin:miter;stroke-opacity:1" d="M 143.106,529.125 143.106,520.431 z" id="boundary" inkscape:connector-curvature="0" />
	<path style="fill:none;stroke:red;stroke-width:1px;stroke-linecap:butt;stroke-linejoin:miter;stroke-opacity:1" d="M 143.106,546.514 143.106,555.208 z" id="boundary" inkscape:connector-curvature="0" />
	<path style="fill:none;stroke:red;stroke-width:1px;stroke-linecap:butt;stroke-linejoin:miter;stroke-opacity:1" d="M 143.106,563.902 143.106,572.596 z" id="boundary" inkscape:connector-curvature="0" />
	<path style="fill:none;stroke:red;stroke-width:1px;stroke-linecap:butt;stroke-linejoin:miter;stroke-opacity:1" d="M 143.106,581.29 143.106,572.596 z" id="boundary" inkscape:connector-curvature="0" />
	<path style="fill:none;stroke:red;stroke-width:1px;stroke-linecap:butt;stroke-linejoin:miter;stroke-opacity:1" d="M 143.106,589.984 143.106,581.29 z" id="boundary" inkscape:connector-curvature="0" />
	<path style="fill:none;stroke:red;stroke-width:1px;stroke-linecap:butt;stroke-linejoin:miter;stroke-opacity:1" d="M 143.106,563.902 143.106,555.208 z" id="boundary" inkscape:connector-curvature="0" />
	<path style="fill:none;stroke:red;stroke-width:1px;stroke-linecap:butt;stroke-linejoin:miter;stroke-opacity:1" d="M 143.106,546.514 143.106,537.819 z" id="boundary" inkscape:connector-curvature="0" />
	<path style="fill:none;stroke:red;stroke-width:1px;stroke-linecap:butt;stroke-linejoin:miter;stroke-opacity:1" d="M 143.106,589.984 143.106,598.678 z" id="boundary" inkscape:connector-curvature="0" />
	<path style="fill:none;stroke:red;stroke-width:1px;stroke-linecap:butt;stroke-linejoin:miter;stroke-opacity:1" d="M 143.106,607.372 143.106,598.678 z" id="boundary" inkscape:connector-curvature="0" />
	<path style="fill:none;stroke:red;stroke-width:1px;stroke-linecap:butt;stroke-linejoin:miter;stroke-opacity:1" d="M 143.106,607.372 143.106,616.067 z" id="boundary" inkscape:connector-curvature="0" />
	<path style="fill:none;stroke:red;stroke-width:1px;stroke-linecap:butt;stroke-linejoin:miter;stroke-opacity:1" d="M 143.106,624.761 143.106,616.067 z" id="boundary" inkscape:connector-curvature="0" />
	<path style="fill:none;stroke:red;stroke-width:1px;stroke-linecap:butt;stroke-linejoin:miter;stroke-opacity:1" d="M 143.106,633.455 143.106,624.761 z" id="boundary" inkscape:connector-curvature="0" />
	<path style="fill:none;stroke:red;stroke-width:1px;stroke-linecap:butt;stroke-linejoin:miter;stroke-opacity:1" d="M 143.106,633.455 143.106,642.149 z" id="boundary" inkscape:connector-curvature="0" />
	<path style="fill:none;stroke:red;stroke-width:1px;stroke-linecap:butt;stroke-linejoin:miter;stroke-opacity:1" d="M 143.106,650.843 143.106,642.149 z" id="boundary" inkscape:connector-curvature="0" />
	<path style="fill:none;stroke:red;stroke-width:1px;stroke-linecap:butt;stroke-linejoin:miter;stroke-opacity:1" d="M 143.106,650.843 143.106,659.537 z" id="boundary" inkscape:connector-curvature="0" />
	<path style="fill:none;stroke:red;stroke-width:1px;stroke-linecap:butt;stroke-linejoin:miter;stroke-opacity:1" d="M 143.106,668.231 143.106,659.537 z" id="boundary" inkscape:connector-curvature="0" />
	<path style="fill:none;stroke:red;stroke-width:1px;stroke-linecap:butt;stroke-linejoin:miter;stroke-opacity:1" d="M 143.106,676.926 143.106,668.231 z" id="boundary" inkscape:connector-curvature="0" />
	<path style="fill:none;stroke:red;stroke-width:1px;stroke-linecap:butt;stroke-linejoin:miter;stroke-opacity:1" d="M 143.106,511.737 143.106,503.043 z" id="boundary" inkscape:connector-curvature="0" />
	<path style="fill:none;stroke:red;stroke-width:1px;stroke-linecap:butt;stroke-linejoin:miter;stroke-opacity:1" d="M 143.106,676.926 143.106,685.62 z" id="boundary" inkscape:connector-curvature="0" />
	<path style="fill:none;stroke:red;stroke-width:1px;stroke-linecap:butt;stroke-linejoin:miter;stroke-opacity:1" d="M 143.106,694.314 143.106,685.62 z" id="boundary" inkscape:connector-curvature="0" />
	<path style="fill:none;stroke:red;stroke-width:1px;stroke-linecap:butt;stroke-linejoin:miter;stroke-opacity:1" d="M 143.106,694.314 143.106,703.008 z" id="boundary" inkscape:connector-curvature="0" />
	<path style="fill:none;stroke:red;stroke-width:1px;stroke-linecap:butt;stroke-linejoin:miter;stroke-opacity:1" d="M 143.106,711.702 143.106,703.008 z" id="boundary" inkscape:connector-curvature="0" />
	<path style="fill:none;stroke:red;stroke-width:1px;stroke-linecap:butt;stroke-linejoin:miter;stroke-opacity:1" d="M 143.106,711.702 143.106,720.396 z" id="boundary" inkscape:connector-curvature="0" />
	<path style="fill:none;stroke:red;stroke-width:1px;stroke-linecap:butt;stroke-linejoin:miter;stroke-opacity:1" d="M 143.106,729.09 143.106,720.396 z" id="boundary" inkscape:connector-curvature="0" />
	<path style="fill:none;stroke:red;stroke-width:1px;stroke-linecap:butt;stroke-linejoin:miter;stroke-opacity:1" d="M 143.106,729.09 143.106,737.784 z" id="boundary" inkscape:connector-curvature="0" />
	<path style="fill:none;stroke:red;stroke-width:1px;stroke-linecap:butt;stroke-linejoin:miter;stroke-opacity:1" d="M 143.106,746.479 143.106,737.784 z" id="boundary" inkscape:connector-curvature="0" />
	<path style="fill:none;stroke:red;stroke-width:1px;stroke-linecap:butt;stroke-linejoin:miter;stroke-opacity:1" d="M 143.106,755.173 143.106,746.479 z" id="boundary" inkscape:connector-curvature="0" />
	<path style="fill:none;stroke:red;stroke-width:1px;stroke-linecap:butt;stroke-linejoin:miter;stroke-opacity:1" d="M 143.106,755.173 143.106,763.867 z" id="boundary" inkscape:connector-curvature="0" />
	<path style="fill:none;stroke:red;stroke-width:1px;stroke-linecap:butt;stroke-linejoin:miter;stroke-opacity:1" d="M 143.106,772.561 143.106,763.867 z" id="boundary" inkscape:connector-curvature="0" />
	<path style="fill:none;stroke:red;stroke-width:1px;stroke-linecap:butt;stroke-linejoin:miter;stroke-opacity:1" d="M 143.106,772.561 143.106,781.255 z" id="boundary" inkscape:connector-curvature="0" />
	<path style="fill:none;stroke:red;stroke-width:1px;stroke-linecap:butt;stroke-linejoin:miter;stroke-opacity:1" d="M 143.106,789.949 143.106,781.255 z" id="boundary" inkscape:connector-curvature="0" />
	<path style="fill:none;stroke:red;stroke-width:1px;stroke-linecap:butt;stroke-linejoin:miter;stroke-opacity:1" d="M 143.106,798.643 143.106,789.949 z" id="boundary" inkscape:connector-curvature="0" />
	<path style="fill:none;stroke:red;stroke-width:1px;stroke-linecap:butt;stroke-linejoin:miter;stroke-opacity:1" d="M 143.106,798.643 143.106,807.337 z" id="boundary" inkscape:connector-curvature="0" />
	<path style="fill:none;stroke:red;stroke-width:1px;stroke-linecap:butt;stroke-linejoin:miter;stroke-opacity:1" d="M 143.106,816.032 143.106,807.337 z" id="boundary" inkscape:connector-curvature="0" />
	<path style="fill:none;stroke:red;stroke-width:1px;stroke-linecap:butt;stroke-linejoin:miter;stroke-opacity:1" d="M 143.106,816.032 143.106,824.726 z" id="boundary" inkscape:connector-curvature="0" />
	<path style="fill:none;stroke:red;stroke-width:1px;stroke-linecap:butt;stroke-linejoin:miter;stroke-opacity:1" d="M 143.106,833.42 143.106,824.726 z" id="boundary" inkscape:connector-curvature="0" />
	<path style="fill:none;stroke:red;stroke-width:1px;stroke-linecap:butt;stroke-linejoin:miter;stroke-opacity:1" d="M 143.106,842.114 143.106,833.42 z" id="boundary" inkscape:connector-curvature="0" />
	<path style="fill:none;stroke:red;stroke-width:1px;stroke-linecap:butt;stroke-linejoin:miter;stroke-opacity:1" d="M 143.106,842.114 143.106,850.808 z" id="boundary" inkscape:connector-curvature="0" />
	<path style="fill:none;stroke:red;stroke-width:1px;stroke-linecap:butt;stroke-linejoin:miter;stroke-opacity:1" d="M 143.106,859.502 143.106,850.808 z" id="boundary" inkscape:connector-curvature="0" />
	<path style="fill:none;stroke:red;stroke-width:1px;stroke-linecap:butt;stroke-linejoin:miter;stroke-opacity:1" d="M 143.106,859.502 143.106,868.196 z" id="boundary" inkscape:connector-curvature="0" />
	<path style="fill:none;stroke:red;stroke-width:1px;stroke-linecap:butt;stroke-linejoin:miter;stroke-opacity:1" d="M 143.106,876.89 143.106,868.196 z" id="boundary" inkscape:connector-curvature="0" />
	<path style="fill:none;stroke:red;stroke-width:1px;stroke-linecap:butt;stroke-linejoin:miter;stroke-opacity:1" d="M 143.106,876.89 143.106,885.585 z" id="boundary" inkscape:connector-curvature="0" />
	<path style="fill:none;stroke:red;stroke-width:1px;stroke-linecap:butt;stroke-linejoin:miter;stroke-opacity:1" d="M 143.106,894.279 143.106,885.585 z" id="boundary" inkscape:connector-curvature="0" />
	<path style="fill:none;stroke:red;stroke-width:1px;stroke-linecap:butt;stroke-linejoin:miter;stroke-opacity:1" d="M 143.106,894.279 143.106,902.973 z" id="boundary" inkscape:connector-curvature="0" />
	<path style="fill:none;stroke:red;stroke-width:1px;stroke-linecap:butt;stroke-linejoin:miter;stroke-opacity:1" d="M 143.106,911.667 143.106,902.973 z" id="boundary" inkscape:connector-curvature="0" />
	<path style="fill:none;stroke:red;stroke-width:1px;stroke-linecap:butt;stroke-linejoin:miter;stroke-opacity:1" d="M 143.106,920.361 143.106,911.667 z" id="boundary" inkscape:connector-curvature="0" />
	<path style="fill:none;stroke:red;stroke-width:1px;stroke-linecap:butt;stroke-linejoin:miter;stroke-opacity:1" d="M 143.106,920.361 143.106,929.055 z" id="boundary" inkscape:connector-curvature="0" />
	<path style="fill:none;stroke:red;stroke-width:1px;stroke-linecap:butt;stroke-linejoin:miter;stroke-opacity:1" d="M 143.106,937.749 143.106,929.055 z" id="boundary" inkscape:connector-curvature="0" />
	<path style="fill:none;stroke:red;stroke-width:1px;stroke-linecap:butt;stroke-linejoin:miter;stroke-opacity:1" d="M 143.106,937.749 143.106,946.443 z" id="boundary" inkscape:connector-curvature="0" />
	<path style="fill:none;stroke:red;stroke-width:1px;stroke-linecap:butt;stroke-linejoin:miter;stroke-opacity:1" d="M 143.106,955.138 143.106,946.443 z" id="boundary" inkscape:connector-curvature="0" />
	<path style="fill:none;stroke:red;stroke-width:1px;stroke-linecap:butt;stroke-linejoin:miter;stroke-opacity:1" d="M 143.106,963.832 143.106,955.138 z" id="boundary" inkscape:connector-curvature="0" />
	<path style="fill:none;stroke:red;stroke-width:1px;stroke-linecap:butt;stroke-linejoin:miter;stroke-opacity:1" d="M 143.106,963.832 143.106,972.526 z" id="boundary" inkscape:connector-curvature="0" />
	<path style="fill:none;stroke:red;stroke-width:1px;stroke-linecap:butt;stroke-linejoin:miter;stroke-opacity:1" d="M 147.453,989.045 143.106,981.22 z" id="boundary" inkscape:connector-curvature="0" />
	<path style="fill:none;stroke:red;stroke-width:1px;stroke-linecap:butt;stroke-linejoin:miter;stroke-opacity:1" d="M 143.106,981.22 143.106,972.526 z" id="boundary" inkscape:connector-curvature="0" />
	<path style="fill:none;stroke:red;stroke-width:1px;stroke-linecap:butt;stroke-linejoin:miter;stroke-opacity:1" d="M 154.408,995.131 147.453,989.045 z" id="boundary" inkscape:connector-curvature="0" />
	<path style="fill:none;stroke:red;stroke-width:1px;stroke-linecap:butt;stroke-linejoin:miter;stroke-opacity:1" d="M 163.103,996 154.408,995.131 z" id="boundary" inkscape:connector-curvature="0" />
	<path style="fill:none;stroke:red;stroke-width:1px;stroke-linecap:butt;stroke-linejoin:miter;stroke-opacity:1" d="M 178.752,25.7353 170.058,25.7353 z" id="boundary" inkscape:connector-curvature="0" />
	<path style="fill:none;stroke:red;stroke-width:1px;stroke-linecap:butt;stroke-linejoin:miter;stroke-opacity:1" d="M 187.446,25.7353 196.14,28.3436 z" id="boundary" inkscape:connector-curvature="0" />
	<path style="fill:none;stroke:red;stroke-width:1px;stroke-linecap:butt;stroke-linejoin:miter;stroke-opacity:1" d="M 178.752,25.7353 187.446,25.7353 z" id="boundary" inkscape:connector-curvature="0" />
	<path style="fill:none;stroke:red;stroke-width:1px;stroke-linecap:butt;stroke-linejoin:miter;stroke-opacity:1" d="M 204.834,30.0824 213.528,30.0824 z" id="boundary" inkscape:connector-curvature="0" />
	<path style="fill:none;stroke:red;stroke-width:1px;stroke-linecap:butt;stroke-linejoin:miter;stroke-opacity:1" d="M 204.834,30.0824 196.14,28.3436 z" id="boundary" inkscape:connector-curvature="0" />
	<path style="fill:none;stroke:red;stroke-width:1px;stroke-linecap:butt;stroke-linejoin:miter;stroke-opacity:1" d="M 213.528,139.628 213.528,148.323 z" id="boundary" inkscape:connector-curvature="0" />
	<path style="fill:none;stroke:red;stroke-width:1px;stroke-linecap:butt;stroke-linejoin:miter;stroke-opacity:1" d="M 213.528,139.628 222.223,141.367 z" id="boundary" inkscape:connector-curvature="0" />
	<path style="fill:none;stroke:red;stroke-width:1px;stroke-linecap:butt;stroke-linejoin:miter;stroke-opacity:1" d="M 213.528,157.017 213.528,148.323 z" id="boundary" inkscape:connector-curvature="0" />
	<path style="fill:none;stroke:red;stroke-width:1px;stroke-linecap:butt;stroke-linejoin:miter;stroke-opacity:1" d="M 222.223,30.0824 213.528,30.0824 z" id="boundary" inkscape:connector-curvature="0" />
	<path style="fill:none;stroke:red;stroke-width:1px;stroke-linecap:butt;stroke-linejoin:miter;stroke-opacity:1" d="M 213.528,157.017 213.528,165.711 z" id="boundary" inkscape:connector-curvature="0" />
	<path style="fill:none;stroke:red;stroke-width:1px;stroke-linecap:butt;stroke-linejoin:miter;stroke-opacity:1" d="M 222.223,30.0824 230.917,32.6906 z" id="boundary" inkscape:connector-curvature="0" />
	<path style="fill:none;stroke:red;stroke-width:1px;stroke-linecap:butt;stroke-linejoin:miter;stroke-opacity:1" d="M 222.223,141.367 230.917,143.975 z" id="boundary" inkscape:connector-curvature="0" />
	<path style="fill:none;stroke:red;stroke-width:1px;stroke-linecap:butt;stroke-linejoin:miter;stroke-opacity:1" d="M 213.528,139.628 261.346,47.4706 z" id="boundary" inkscape:connector-curvature="0" />
	<path style="fill:none;stroke:red;stroke-width:1px;stroke-linecap:butt;stroke-linejoin:miter;stroke-opacity:1" d="M 239.611,34.4294 230.917,32.6906 z" id="boundary" inkscape:connector-curvature="0" />
	<path style="fill:none;stroke:red;stroke-width:1px;stroke-linecap:butt;stroke-linejoin:miter;stroke-opacity:1" d="M 213.528,174.405 213.528,165.711 z" id="boundary" inkscape:connector-curvature="0" />
	<path style="fill:none;stroke:red;stroke-width:1px;stroke-linecap:butt;stroke-linejoin:miter;stroke-opacity:1" d="M 213.528,174.405 213.528,183.099 z" id="boundary" inkscape:connector-curvature="0" />
	<path style="fill:none;stroke:red;stroke-width:1px;stroke-linecap:butt;stroke-linejoin:miter;stroke-opacity:1" d="M 213.528,191.793 213.528,200.487 z" id="boundary" inkscape:connector-curvature="0" />
	<path style="fill:none;stroke:red;stroke-width:1px;stroke-linecap:butt;stroke-linejoin:miter;stroke-opacity:1" d="M 213.528,209.181 213.528,200.487 z" id="boundary" inkscape:connector-curvature="0" />
	<path style="fill:none;stroke:red;stroke-width:1px;stroke-linecap:butt;stroke-linejoin:miter;stroke-opacity:1" d="M 213.528,191.793 213.528,183.099 z" id="boundary" inkscape:connector-curvature="0" />
	<path style="fill:none;stroke:red;stroke-width:1px;stroke-linecap:butt;stroke-linejoin:miter;stroke-opacity:1" d="M 213.528,217.876 213.528,209.181 z" id="boundary" inkscape:connector-curvature="0" />
	<path style="fill:none;stroke:red;stroke-width:1px;stroke-linecap:butt;stroke-linejoin:miter;stroke-opacity:1" d="M 213.528,217.876 213.528,226.57 z" id="boundary" inkscape:connector-curvature="0" />
	<path style="fill:none;stroke:red;stroke-width:1px;stroke-linecap:butt;stroke-linejoin:miter;stroke-opacity:1" d="M 213.528,235.264 213.528,243.958 z" id="boundary" inkscape:connector-curvature="0" />
	<path style="fill:none;stroke:red;stroke-width:1px;stroke-linecap:butt;stroke-linejoin:miter;stroke-opacity:1" d="M 213.528,235.264 213.528,226.57 z" id="boundary" inkscape:connector-curvature="0" />
	<path style="fill:none;stroke:red;stroke-width:1px;stroke-linecap:butt;stroke-linejoin:miter;stroke-opacity:1" d="M 213.528,252.652 213.528,261.346 z" id="boundary" inkscape:connector-curvature="0" />
	<path style="fill:none;stroke:red;stroke-width:1px;stroke-linecap:butt;stroke-linejoin:miter;stroke-opacity:1" d="M 213.528,270.04 213.528,278.734 z" id="boundary" inkscape:connector-curvature="0" />
	<path style="fill:none;stroke:red;stroke-width:1px;stroke-linecap:butt;stroke-linejoin:miter;stroke-opacity:1" d="M 213.528,287.429 213.528,278.734 z" id="boundary" inkscape:connector-curvature="0" />
	<path style="fill:none;stroke:red;stroke-width:1px;stroke-linecap:butt;stroke-linejoin:miter;stroke-opacity:1" d="M 213.528,270.04 213.528,261.346 z" id="boundary" inkscape:connector-curvature="0" />
	<path style="fill:none;stroke:red;stroke-width:1px;stroke-linecap:butt;stroke-linejoin:miter;stroke-opacity:1" d="M 213.528,252.652 213.528,243.958 z" id="boundary" inkscape:connector-curvature="0" />
	<path style="fill:none;stroke:red;stroke-width:1px;stroke-linecap:butt;stroke-linejoin:miter;stroke-opacity:1" d="M 213.528,296.123 213.528,304.817 z" id="boundary" inkscape:connector-curvature="0" />
	<path style="fill:none;stroke:red;stroke-width:1px;stroke-linecap:butt;stroke-linejoin:miter;stroke-opacity:1" d="M 213.528,313.511 213.528,322.205 z" id="boundary" inkscape:connector-curvature="0" />
	<path style="fill:none;stroke:red;stroke-width:1px;stroke-linecap:butt;stroke-linejoin:miter;stroke-opacity:1" d="M 213.528,330.899 213.528,322.205 z" id="boundary" inkscape:connector-curvature="0" />
	<path style="fill:none;stroke:red;stroke-width:1px;stroke-linecap:butt;stroke-linejoin:miter;stroke-opacity:1" d="M 213.528,313.511 213.528,304.817 z" id="boundary" inkscape:connector-curvature="0" />
	<path style="fill:none;stroke:red;stroke-width:1px;stroke-linecap:butt;stroke-linejoin:miter;stroke-opacity:1" d="M 213.528,339.593 213.528,348.287 z" id="boundary" inkscape:connector-curvature="0" />
	<path style="fill:none;stroke:red;stroke-width:1px;stroke-linecap:butt;stroke-linejoin:miter;stroke-opacity:1" d="M 213.528,356.982 213.528,365.676 z" id="boundary" inkscape:connector-curvature="0" />
	<path style="fill:none;stroke:red;stroke-width:1px;stroke-linecap:butt;stroke-linejoin:miter;stroke-opacity:1" d="M 213.528,374.37 213.528,365.676 z" id="boundary" inkscape:connector-curvature="0" />
	<path style="fill:none;stroke:red;stroke-width:1px;stroke-linecap:butt;stroke-linejoin:miter;stroke-opacity:1" d="M 213.528,356.982 213.528,348.287 z" id="boundary" inkscape:connector-curvature="0" />
	<path style="fill:none;stroke:red;stroke-width:1px;stroke-linecap:butt;stroke-linejoin:miter;stroke-opacity:1" d="M 213.528,339.593 213.528,330.899 z" id="boundary" inkscape:connector-curvature="0" />
	<path style="fill:none;stroke:red;stroke-width:1px;stroke-linecap:butt;stroke-linejoin:miter;stroke-opacity:1" d="M 213.528,296.123 213.528,287.429 z" id="boundary" inkscape:connector-curvature="0" />
	<path style="fill:none;stroke:red;stroke-width:1px;stroke-linecap:butt;stroke-linejoin:miter;stroke-opacity:1" d="M 213.528,374.37 213.528,383.064 z" id="boundary" inkscape:connector-curvature="0" />
	<path style="fill:none;stroke:red;stroke-width:1px;stroke-linecap:butt;stroke-linejoin:miter;stroke-opacity:1" d="M 247.436,38.7765 239.611,34.4294 z" id="boundary" inkscape:connector-curvature="0" />
	<path style="fill:none;stroke:red;stroke-width:1px;stroke-linecap:butt;stroke-linejoin:miter;stroke-opacity:1" d="M 256.13,40.5153 247.436,38.7765 z" id="boundary" inkscape:connector-curvature="0" />
	<path style="fill:none;stroke:red;stroke-width:1px;stroke-linecap:butt;stroke-linejoin:miter;stroke-opacity:1" d="M 256.13,40.5153 261.346,47.4706 z" id="boundary" inkscape:connector-curvature="0" />
	<path style="fill:none;stroke:red;stroke-width:1px;stroke-linecap:butt;stroke-linejoin:miter;stroke-opacity:1" d="M 268.301,52.6871 261.346,47.4706 z" id="boundary" inkscape:connector-curvature="0" />
	<path style="fill:none;stroke:red;stroke-width:1px;stroke-linecap:butt;stroke-linejoin:miter;stroke-opacity:1" d="M 268.301,52.6871 274.387,59.6424 z" id="boundary" inkscape:connector-curvature="0" />
	<path style="fill:none;stroke:red;stroke-width:1px;stroke-linecap:butt;stroke-linejoin:miter;stroke-opacity:1" d="M 281.343,65.7283 274.387,59.6424 z" id="boundary" inkscape:connector-curvature="0" />
	<path style="fill:none;stroke:red;stroke-width:1px;stroke-linecap:butt;stroke-linejoin:miter;stroke-opacity:1" d="M 294.384,78.7695 287.429,72.6836 z" id="boundary" inkscape:connector-curvature="0" />
	<path style="fill:none;stroke:red;stroke-width:1px;stroke-linecap:butt;stroke-linejoin:miter;stroke-opacity:1" d="M 287.429,72.6836 281.343,65.7283 z" id="boundary" inkscape:connector-curvature="0" />
	<path style="fill:none;stroke:red;stroke-width:1px;stroke-linecap:butt;stroke-linejoin:miter;stroke-opacity:1" d="M 300.47,85.7248 307.425,91.8107 z" id="boundary" inkscape:connector-curvature="0" />
	<path style="fill:none;stroke:red;stroke-width:1px;stroke-linecap:butt;stroke-linejoin:miter;stroke-opacity:1" d="M 300.47,85.7248 294.384,78.7695 z" id="boundary" inkscape:connector-curvature="0" />
	<path style="fill:none;stroke:red;stroke-width:1px;stroke-linecap:butt;stroke-linejoin:miter;stroke-opacity:1" d="M 313.511,98.766 320.466,104.852 z" id="boundary" inkscape:connector-curvature="0" />
	<path style="fill:none;stroke:red;stroke-width:1px;stroke-linecap:butt;stroke-linejoin:miter;stroke-opacity:1" d="M 320.466,104.852 322.205,113.546 z" id="boundary" inkscape:connector-curvature="0" />
	<path style="fill:none;stroke:red;stroke-width:1px;stroke-linecap:butt;stroke-linejoin:miter;stroke-opacity:1" d="M 313.511,98.766 307.425,91.8107 z" id="boundary" inkscape:connector-curvature="0" />
	<path style="fill:none;stroke:red;stroke-width:1px;stroke-linecap:butt;stroke-linejoin:miter;stroke-opacity:1" d="M 326.552,121.371 322.205,113.546 z" id="boundary" inkscape:connector-curvature="0" />
	<path style="fill:none;stroke:red;stroke-width:1px;stroke-linecap:butt;stroke-linejoin:miter;stroke-opacity:1" d="M 333.507,126.587 326.552,121.371 z" id="boundary" inkscape:connector-curvature="0" />
	<path style="fill:none;stroke:red;stroke-width:1px;stroke-linecap:butt;stroke-linejoin:miter;stroke-opacity:1" d="M 339.593,143.106 335.246,135.281 z" id="boundary" inkscape:connector-curvature="0" />
	<path style="fill:none;stroke:red;stroke-width:1px;stroke-linecap:butt;stroke-linejoin:miter;stroke-opacity:1" d="M 335.246,135.281 333.507,126.587 z" id="boundary" inkscape:connector-curvature="0" />
	<path style="fill:none;stroke:red;stroke-width:1px;stroke-linecap:butt;stroke-linejoin:miter;stroke-opacity:1" d="M 339.593,143.106 339.593,151.8 z" id="boundary" inkscape:connector-curvature="0" />
	<path style="fill:none;stroke:red;stroke-width:1px;stroke-linecap:butt;stroke-linejoin:miter;stroke-opacity:1" d="M 230.917,143.975 238.741,148.323 z" id="boundary" inkscape:connector-curvature="0" />
	<path style="fill:none;stroke:red;stroke-width:1px;stroke-linecap:butt;stroke-linejoin:miter;stroke-opacity:1" d="M 247.436,148.323 238.741,148.323 z" id="boundary" inkscape:connector-curvature="0" />
	<path style="fill:none;stroke:red;stroke-width:1px;stroke-linecap:butt;stroke-linejoin:miter;stroke-opacity:1" d="M 247.436,148.323 256.13,148.323 z" id="boundary" inkscape:connector-curvature="0" />
	<path style="fill:none;stroke:red;stroke-width:1px;stroke-linecap:butt;stroke-linejoin:miter;stroke-opacity:1" d="M 256.13,148.323 261.346,155.278 z" id="boundary" inkscape:connector-curvature="0" />
	<path style="fill:none;stroke:red;stroke-width:1px;stroke-linecap:butt;stroke-linejoin:miter;stroke-opacity:1" d="M 261.346,155.278 270.04,157.017 z" id="boundary" inkscape:connector-curvature="0" />
	<path style="fill:none;stroke:red;stroke-width:1px;stroke-linecap:butt;stroke-linejoin:miter;stroke-opacity:1" d="M 270.04,157.017 277.865,161.364 z" id="boundary" inkscape:connector-curvature="0" />
	<path style="fill:none;stroke:red;stroke-width:1px;stroke-linecap:butt;stroke-linejoin:miter;stroke-opacity:1" d="M 277.865,161.364 286.559,161.364 z" id="boundary" inkscape:connector-curvature="0" />
	<path style="fill:none;stroke:red;stroke-width:1px;stroke-linecap:butt;stroke-linejoin:miter;stroke-opacity:1" d="M 286.559,161.364 291.776,168.319 z" id="boundary" inkscape:connector-curvature="0" />
	<path style="fill:none;stroke:red;stroke-width:1px;stroke-linecap:butt;stroke-linejoin:miter;stroke-opacity:1" d="M 300.47,171.797 291.776,168.319 z" id="boundary" inkscape:connector-curvature="0" />
	<path style="fill:none;stroke:red;stroke-width:1px;stroke-linecap:butt;stroke-linejoin:miter;stroke-opacity:1" d="M 339.593,151.8 339.593,160.494 z" id="boundary" inkscape:connector-curvature="0" />
	<path style="fill:none;stroke:red;stroke-width:1px;stroke-linecap:butt;stroke-linejoin:miter;stroke-opacity:1" d="M 343.94,177.013 339.593,169.188 z" id="boundary" inkscape:connector-curvature="0" />
	<path style="fill:none;stroke:red;stroke-width:1px;stroke-linecap:butt;stroke-linejoin:miter;stroke-opacity:1" d="M 339.593,169.188 339.593,160.494 z" id="boundary" inkscape:connector-curvature="0" />
	<path style="fill:none;stroke:red;stroke-width:1px;stroke-linecap:butt;stroke-linejoin:miter;stroke-opacity:1" d="M 306.556,178.752 315.25,182.23 z" id="boundary" inkscape:connector-curvature="0" />
	<path style="fill:none;stroke:red;stroke-width:1px;stroke-linecap:butt;stroke-linejoin:miter;stroke-opacity:1" d="M 315.25,182.23 322.205,187.446 z" id="boundary" inkscape:connector-curvature="0" />
	<path style="fill:none;stroke:red;stroke-width:1px;stroke-linecap:butt;stroke-linejoin:miter;stroke-opacity:1" d="M 306.556,178.752 300.47,171.797 z" id="boundary" inkscape:connector-curvature="0" />
	<path style="fill:none;stroke:red;stroke-width:1px;stroke-linecap:butt;stroke-linejoin:miter;stroke-opacity:1" d="M 338.724,189.185 330.03,191.793 z" id="boundary" inkscape:connector-curvature="0" />
	<path style="fill:none;stroke:red;stroke-width:1px;stroke-linecap:butt;stroke-linejoin:miter;stroke-opacity:1" d="M 330.03,191.793 322.205,187.446 z" id="boundary" inkscape:connector-curvature="0" />
	<path style="fill:none;stroke:red;stroke-width:1px;stroke-linecap:butt;stroke-linejoin:miter;stroke-opacity:1" d="M 343.94,177.013 338.724,189.185 z" id="boundary" inkscape:connector-curvature="0" />
	<path style="fill:none;stroke:red;stroke-width:1px;stroke-linecap:butt;stroke-linejoin:miter;stroke-opacity:1" d="M 213.528,391.758 213.528,400.452 z" id="boundary" inkscape:connector-curvature="0" />
	<path style="fill:none;stroke:red;stroke-width:1px;stroke-linecap:butt;stroke-linejoin:miter;stroke-opacity:1" d="M 213.528,391.758 213.528,383.064 z" id="boundary" inkscape:connector-curvature="0" />
	<path style="fill:none;stroke:red;stroke-width:1px;stroke-linecap:butt;stroke-linejoin:miter;stroke-opacity:1" d="M 213.528,409.146 213.528,417.84 z" id="boundary" inkscape:connector-curvature="0" />
	<path style="fill:none;stroke:red;stroke-width:1px;stroke-linecap:butt;stroke-linejoin:miter;stroke-opacity:1" d="M 213.528,409.146 213.528,400.452 z" id="boundary" inkscape:connector-curvature="0" />
	<path style="fill:none;stroke:red;stroke-width:1px;stroke-linecap:butt;stroke-linejoin:miter;stroke-opacity:1" d="M 213.528,426.535 213.528,435.229 z" id="boundary" inkscape:connector-curvature="0" />
	<path style="fill:none;stroke:red;stroke-width:1px;stroke-linecap:butt;stroke-linejoin:miter;stroke-opacity:1" d="M 213.528,426.535 213.528,417.84 z" id="boundary" inkscape:connector-curvature="0" />
	<path style="fill:none;stroke:red;stroke-width:1px;stroke-linecap:butt;stroke-linejoin:miter;stroke-opacity:1" d="M 213.528,443.923 213.528,452.617 z" id="boundary" inkscape:connector-curvature="0" />
	<path style="fill:none;stroke:red;stroke-width:1px;stroke-linecap:butt;stroke-linejoin:miter;stroke-opacity:1" d="M 213.528,443.923 213.528,435.229 z" id="boundary" inkscape:connector-curvature="0" />
	<path style="fill:none;stroke:red;stroke-width:1px;stroke-linecap:butt;stroke-linejoin:miter;stroke-opacity:1" d="M 213.528,452.617 213.528,461.311 z" id="boundary" inkscape:connector-curvature="0" />
	<path style="fill:none;stroke:red;stroke-width:1px;stroke-linecap:butt;stroke-linejoin:miter;stroke-opacity:1" d="M 213.528,470.005 213.528,478.699 z" id="boundary" inkscape:connector-curvature="0" />
	<path style="fill:none;stroke:red;stroke-width:1px;stroke-linecap:butt;stroke-linejoin:miter;stroke-opacity:1" d="M 213.528,470.005 213.528,461.311 z" id="boundary" inkscape:connector-curvature="0" />
	<path style="fill:none;stroke:red;stroke-width:1px;stroke-linecap:butt;stroke-linejoin:miter;stroke-opacity:1" d="M 213.528,487.394 213.528,496.088 z" id="boundary" inkscape:connector-curvature="0" />
	<path style="fill:none;stroke:red;stroke-width:1px;stroke-linecap:butt;stroke-linejoin:miter;stroke-opacity:1" d="M 213.528,487.394 213.528,478.699 z" id="boundary" inkscape:connector-curvature="0" />
	<path style="fill:none;stroke:red;stroke-width:1px;stroke-linecap:butt;stroke-linejoin:miter;stroke-opacity:1" d="M 213.528,504.782 213.528,513.476 z" id="boundary" inkscape:connector-curvature="0" />
	<path style="fill:none;stroke:red;stroke-width:1px;stroke-linecap:butt;stroke-linejoin:miter;stroke-opacity:1" d="M 213.528,504.782 213.528,496.088 z" id="boundary" inkscape:connector-curvature="0" />
	<path style="fill:none;stroke:red;stroke-width:1px;stroke-linecap:butt;stroke-linejoin:miter;stroke-opacity:1" d="M 213.528,522.17 213.528,530.864 z" id="boundary" inkscape:connector-curvature="0" />
	<path style="fill:none;stroke:red;stroke-width:1px;stroke-linecap:butt;stroke-linejoin:miter;stroke-opacity:1" d="M 213.528,522.17 213.528,513.476 z" id="boundary" inkscape:connector-curvature="0" />
	<path style="fill:none;stroke:red;stroke-width:1px;stroke-linecap:butt;stroke-linejoin:miter;stroke-opacity:1" d="M 213.528,530.864 213.528,539.558 z" id="boundary" inkscape:connector-curvature="0" />
	<path style="fill:none;stroke:red;stroke-width:1px;stroke-linecap:butt;stroke-linejoin:miter;stroke-opacity:1" d="M 204.834,987.306 211.79,981.22 z" id="boundary" inkscape:connector-curvature="0" />
	<path style="fill:none;stroke:red;stroke-width:1px;stroke-linecap:butt;stroke-linejoin:miter;stroke-opacity:1" d="M 197.879,995.131 204.834,987.306 z" id="boundary" inkscape:connector-curvature="0" />
	<path style="fill:none;stroke:red;stroke-width:1px;stroke-linecap:butt;stroke-linejoin:miter;stroke-opacity:1" d="M 171.797,996 163.103,996 z" id="boundary" inkscape:connector-curvature="0" />
	<path style="fill:none;stroke:red;stroke-width:1px;stroke-linecap:butt;stroke-linejoin:miter;stroke-opacity:1" d="M 213.528,548.252 213.528,556.947 z" id="boundary" inkscape:connector-curvature="0" />
	<path style="fill:none;stroke:red;stroke-width:1px;stroke-linecap:butt;stroke-linejoin:miter;stroke-opacity:1" d="M 213.528,548.252 213.528,539.558 z" id="boundary" inkscape:connector-curvature="0" />
	<path style="fill:none;stroke:red;stroke-width:1px;stroke-linecap:butt;stroke-linejoin:miter;stroke-opacity:1" d="M 213.528,965.571 211.79,981.22 z" id="boundary" inkscape:connector-curvature="0" />
	<path style="fill:none;stroke:red;stroke-width:1px;stroke-linecap:butt;stroke-linejoin:miter;stroke-opacity:1" d="M 213.528,556.947 213.528,565.641 z" id="boundary" inkscape:connector-curvature="0" />
	<path style="fill:none;stroke:red;stroke-width:1px;stroke-linecap:butt;stroke-linejoin:miter;stroke-opacity:1" d="M 180.491,996 171.797,996 z" id="boundary" inkscape:connector-curvature="0" />
	<path style="fill:none;stroke:red;stroke-width:1px;stroke-linecap:butt;stroke-linejoin:miter;stroke-opacity:1" d="M 189.185,996 180.491,996 z" id="boundary" inkscape:connector-curvature="0" />
	<path style="fill:none;stroke:red;stroke-width:1px;stroke-linecap:butt;stroke-linejoin:miter;stroke-opacity:1" d="M 197.879,995.131 189.185,996 z" id="boundary" inkscape:connector-curvature="0" />
	<path style="fill:none;stroke:red;stroke-width:1px;stroke-linecap:butt;stroke-linejoin:miter;stroke-opacity:1" d="M 213.528,565.641 213.528,574.335 z" id="boundary" inkscape:connector-curvature="0" />
	<path style="fill:none;stroke:red;stroke-width:1px;stroke-linecap:butt;stroke-linejoin:miter;stroke-opacity:1" d="M 213.528,583.029 213.528,591.723 z" id="boundary" inkscape:connector-curvature="0" />
	<path style="fill:none;stroke:red;stroke-width:1px;stroke-linecap:butt;stroke-linejoin:miter;stroke-opacity:1" d="M 213.528,583.029 213.528,574.335 z" id="boundary" inkscape:connector-curvature="0" />
	<path style="fill:none;stroke:red;stroke-width:1px;stroke-linecap:butt;stroke-linejoin:miter;stroke-opacity:1" d="M 213.528,591.723 213.528,600.417 z" id="boundary" inkscape:connector-curvature="0" />
	<path style="fill:none;stroke:red;stroke-width:1px;stroke-linecap:butt;stroke-linejoin:miter;stroke-opacity:1" d="M 213.528,609.111 213.528,617.805 z" id="boundary" inkscape:connector-curvature="0" />
	<path style="fill:none;stroke:red;stroke-width:1px;stroke-linecap:butt;stroke-linejoin:miter;stroke-opacity:1" d="M 213.528,609.111 213.528,600.417 z" id="boundary" inkscape:connector-curvature="0" />
	<path style="fill:none;stroke:red;stroke-width:1px;stroke-linecap:butt;stroke-linejoin:miter;stroke-opacity:1" d="M 213.528,626.5 213.528,635.194 z" id="boundary" inkscape:connector-curvature="0" />
	<path style="fill:none;stroke:red;stroke-width:1px;stroke-linecap:butt;stroke-linejoin:miter;stroke-opacity:1" d="M 213.528,626.5 213.528,617.805 z" id="boundary" inkscape:connector-curvature="0" />
	<path style="fill:none;stroke:red;stroke-width:1px;stroke-linecap:butt;stroke-linejoin:miter;stroke-opacity:1" d="M 213.528,635.194 213.528,643.888 z" id="boundary" inkscape:connector-curvature="0" />
	<path style="fill:none;stroke:red;stroke-width:1px;stroke-linecap:butt;stroke-linejoin:miter;stroke-opacity:1" d="M 213.528,643.888 213.528,652.582 z" id="boundary" inkscape:connector-curvature="0" />
	<path style="fill:none;stroke:red;stroke-width:1px;stroke-linecap:butt;stroke-linejoin:miter;stroke-opacity:1" d="M 213.528,652.582 213.528,661.276 z" id="boundary" inkscape:connector-curvature="0" />
	<path style="fill:none;stroke:red;stroke-width:1px;stroke-linecap:butt;stroke-linejoin:miter;stroke-opacity:1" d="M 213.528,669.97 213.528,678.664 z" id="boundary" inkscape:connector-curvature="0" />
	<path style="fill:none;stroke:red;stroke-width:1px;stroke-linecap:butt;stroke-linejoin:miter;stroke-opacity:1" d="M 213.528,669.97 213.528,661.276 z" id="boundary" inkscape:connector-curvature="0" />
	<path style="fill:none;stroke:red;stroke-width:1px;stroke-linecap:butt;stroke-linejoin:miter;stroke-opacity:1" d="M 213.528,687.358 213.528,696.053 z" id="boundary" inkscape:connector-curvature="0" />
	<path style="fill:none;stroke:red;stroke-width:1px;stroke-linecap:butt;stroke-linejoin:miter;stroke-opacity:1" d="M 213.528,687.358 213.528,678.664 z" id="boundary" inkscape:connector-curvature="0" />
	<path style="fill:none;stroke:red;stroke-width:1px;stroke-linecap:butt;stroke-linejoin:miter;stroke-opacity:1" d="M 213.528,704.747 213.528,713.441 z" id="boundary" inkscape:connector-curvature="0" />
	<path style="fill:none;stroke:red;stroke-width:1px;stroke-linecap:butt;stroke-linejoin:miter;stroke-opacity:1" d="M 213.528,704.747 213.528,696.053 z" id="boundary" inkscape:connector-curvature="0" />
	<path style="fill:none;stroke:red;stroke-width:1px;stroke-linecap:butt;stroke-linejoin:miter;stroke-opacity:1" d="M 213.528,713.441 213.528,722.135 z" id="boundary" inkscape:connector-curvature="0" />
	<path style="fill:none;stroke:red;stroke-width:1px;stroke-linecap:butt;stroke-linejoin:miter;stroke-opacity:1" d="M 213.528,730.829 213.528,739.523 z" id="boundary" inkscape:connector-curvature="0" />
	<path style="fill:none;stroke:red;stroke-width:1px;stroke-linecap:butt;stroke-linejoin:miter;stroke-opacity:1" d="M 213.528,730.829 213.528,722.135 z" id="boundary" inkscape:connector-curvature="0" />
	<path style="fill:none;stroke:red;stroke-width:1px;stroke-linecap:butt;stroke-linejoin:miter;stroke-opacity:1" d="M 213.528,748.217 213.528,756.911 z" id="boundary" inkscape:connector-curvature="0" />
	<path style="fill:none;stroke:red;stroke-width:1px;stroke-linecap:butt;stroke-linejoin:miter;stroke-opacity:1" d="M 213.528,748.217 213.528,739.523 z" id="boundary" inkscape:connector-curvature="0" />
	<path style="fill:none;stroke:red;stroke-width:1px;stroke-linecap:butt;stroke-linejoin:miter;stroke-opacity:1" d="M 213.528,756.911 213.528,765.606 z" id="boundary" inkscape:connector-curvature="0" />
	<path style="fill:none;stroke:red;stroke-width:1px;stroke-linecap:butt;stroke-linejoin:miter;stroke-opacity:1" d="M 213.528,774.3 213.528,782.994 z" id="boundary" inkscape:connector-curvature="0" />
	<path style="fill:none;stroke:red;stroke-width:1px;stroke-linecap:butt;stroke-linejoin:miter;stroke-opacity:1" d="M 213.528,774.3 213.528,765.606 z" id="boundary" inkscape:connector-curvature="0" />
	<path style="fill:none;stroke:red;stroke-width:1px;stroke-linecap:butt;stroke-linejoin:miter;stroke-opacity:1" d="M 213.528,791.688 213.528,800.382 z" id="boundary" inkscape:connector-curvature="0" />
	<path style="fill:none;stroke:red;stroke-width:1px;stroke-linecap:butt;stroke-linejoin:miter;stroke-opacity:1" d="M 213.528,791.688 213.528,782.994 z" id="boundary" inkscape:connector-curvature="0" />
	<path style="fill:none;stroke:red;stroke-width:1px;stroke-linecap:butt;stroke-linejoin:miter;stroke-opacity:1" d="M 213.528,800.382 213.528,809.076 z" id="boundary" inkscape:connector-curvature="0" />
	<path style="fill:none;stroke:red;stroke-width:1px;stroke-linecap:butt;stroke-linejoin:miter;stroke-opacity:1" d="M 213.528,817.77 213.528,826.465 z" id="boundary" inkscape:connector-curvature="0" />
	<path style="fill:none;stroke:red;stroke-width:1px;stroke-linecap:butt;stroke-linejoin:miter;stroke-opacity:1" d="M 213.528,817.77 213.528,809.076 z" id="boundary" inkscape:connector-curvature="0" />
	<path style="fill:none;stroke:red;stroke-width:1px;stroke-linecap:butt;stroke-linejoin:miter;stroke-opacity:1" d="M 213.528,835.159 213.528,843.853 z" id="boundary" inkscape:connector-curvature="0" />
	<path style="fill:none;stroke:red;stroke-width:1px;stroke-linecap:butt;stroke-linejoin:miter;stroke-opacity:1" d="M 213.528,835.159 213.528,826.465 z" id="boundary" inkscape:connector-curvature="0" />
	<path style="fill:none;stroke:red;stroke-width:1px;stroke-linecap:butt;stroke-linejoin:miter;stroke-opacity:1" d="M 213.528,852.547 213.528,861.241 z" id="boundary" inkscape:connector-curvature="0" />
	<path style="fill:none;stroke:red;stroke-width:1px;stroke-linecap:butt;stroke-linejoin:miter;stroke-opacity:1" d="M 213.528,852.547 213.528,843.853 z" id="boundary" inkscape:connector-curvature="0" />
	<path style="fill:none;stroke:red;stroke-width:1px;stroke-linecap:butt;stroke-linejoin:miter;stroke-opacity:1" d="M 213.528,869.935 213.528,878.629 z" id="boundary" inkscape:connector-curvature="0" />
	<path style="fill:none;stroke:red;stroke-width:1px;stroke-linecap:butt;stroke-linejoin:miter;stroke-opacity:1" d="M 213.528,869.935 213.528,861.241 z" id="boundary" inkscape:connector-curvature="0" />
	<path style="fill:none;stroke:red;stroke-width:1px;stroke-linecap:butt;stroke-linejoin:miter;stroke-opacity:1" d="M 213.528,878.629 213.528,887.323 z" id="boundary" inkscape:connector-curvature="0" />
	<path style="fill:none;stroke:red;stroke-width:1px;stroke-linecap:butt;stroke-linejoin:miter;stroke-opacity:1" d="M 213.528,896.018 213.528,904.712 z" id="boundary" inkscape:connector-curvature="0" />
	<path style="fill:none;stroke:red;stroke-width:1px;stroke-linecap:butt;stroke-linejoin:miter;stroke-opacity:1" d="M 213.528,896.018 213.528,887.323 z" id="boundary" inkscape:connector-curvature="0" />
	<path style="fill:none;stroke:red;stroke-width:1px;stroke-linecap:butt;stroke-linejoin:miter;stroke-opacity:1" d="M 213.528,913.406 213.528,922.1 z" id="boundary" inkscape:connector-curvature="0" />
	<path style="fill:none;stroke:red;stroke-width:1px;stroke-linecap:butt;stroke-linejoin:miter;stroke-opacity:1" d="M 213.528,913.406 213.528,904.712 z" id="boundary" inkscape:connector-curvature="0" />
	<path style="fill:none;stroke:red;stroke-width:1px;stroke-linecap:butt;stroke-linejoin:miter;stroke-opacity:1" d="M 213.528,922.1 213.528,930.794 z" id="boundary" inkscape:connector-curvature="0" />
	<path style="fill:none;stroke:red;stroke-width:1px;stroke-linecap:butt;stroke-linejoin:miter;stroke-opacity:1" d="M 213.528,939.488 213.528,948.182 z" id="boundary" inkscape:connector-curvature="0" />
	<path style="fill:none;stroke:red;stroke-width:1px;stroke-linecap:butt;stroke-linejoin:miter;stroke-opacity:1" d="M 213.528,939.488 213.528,930.794 z" id="boundary" inkscape:connector-curvature="0" />
	<path style="fill:none;stroke:red;stroke-width:1px;stroke-linecap:butt;stroke-linejoin:miter;stroke-opacity:1" d="M 213.528,956.876 213.528,948.182 z" id="boundary" inkscape:connector-curvature="0" />
	<path style="fill:none;stroke:red;stroke-width:1px;stroke-linecap:butt;stroke-linejoin:miter;stroke-opacity:1" d="M 213.528,965.571 213.528,956.876 z" id="boundary" inkscape:connector-curvature="0" />
	<circle cx="4" cy="37.0377" r="4" fill="#0" id="circle0"/>
	<circle cx="4" cy="45.7318" r="4" fill="#0" id="circle1"/>
	<circle cx="4" cy="54.4259" r="4" fill="#0" id="circle2"/>
	<circle cx="4" cy="63.1201" r="4" fill="#0" id="circle3"/>
	<circle cx="4" cy="71.8142" r="4" fill="#0" id="circle4"/>
	<circle cx="4" cy="80.5083" r="4" fill="#0" id="circle5"/>
	<circle cx="4" cy="89.2025" r="4" fill="#0" id="circle6"/>
	<circle cx="4" cy="97.8966" r="4" fill="#0" id="circle7"/>
	<circle cx="4" cy="106.591" r="4" fill="#0" id="circle8"/>
	<circle cx="4" cy="115.285" r="4" fill="#0" id="circle9"/>
	<circle cx="4" cy="123.979" r="4" fill="#0" id="circle10"/>
	<circle cx="4" cy="132.673" r="4" fill="#0" id="circle11"/>
	<circle cx="8.34706" cy="28.3436" r="4" fill="#0" id="circle12"/>
	<circle cx="8.34706" cy="140.498" r="4" fill="#0" id="circle13"/>
	<circle cx="12.6941" cy="148.323" r="4" fill="#0" id="circle14"/>
	<circle cx="15.3024" cy="21.3883" r="4" fill="#0" id="circle15"/>
	<circle cx="17.9106" cy="155.278" r="4" fill="#0" id="circle16"/>
	<circle cx="22.2577" cy="14.433" r="4" fill="#0" id="circle17"/>
	<circle cx="24.8659" cy="161.364" r="4" fill="#0" id="circle18"/>
	<circle cx="29.213" cy="8.34706" r="4" fill="#0" id="circle19"/>
	<circle cx="32.6906" cy="165.711" r="4" fill="#0" id="circle20"/>
	<circle cx="37.0377" cy="4" r="4" fill="#0" id="circle21"/>
	<circle cx="41.3848" cy="165.711" r="4" fill="#0" id="circle22"/>
	<circle cx="45.7318" cy="4" r="4" fill="#0" id="circle23"/>
	<circle cx="50.0789" cy="169.188" r="4" fill="#0" id="circle24"/>
	<circle cx="54.4259" cy="4" r="4" fill="#0" id="circle25"/>
	<circle cx="58.773" cy="170.058" r="4" fill="#0" id="circle26"/>
	<circle cx="63.1201" cy="4" r="4" fill="#0" id="circle27"/>
	<circle cx="67.4671" cy="170.058" r="4" fill="#0" id="circle28"/>
	<circle cx="71.8142" cy="4" r="4" fill="#0" id="circle29"/>
	<circle cx="76.1613" cy="170.058" r="4" fill="#0" id="circle30"/>
	<circle cx="80.5083" cy="4" r="4" fill="#0" id="circle31"/>
	<circle cx="83.986" cy="165.711" r="4" fill="#0" id="circle32"/>
	<circle cx="89.2025" cy="4" r="4" fill="#0" id="circle33"/>
	<circle cx="92.6801" cy="165.711" r="4" fill="#0" id="circle34"/>
	<circle cx="97.0272" cy="8.34706" r="4" fill="#0" id="circle35"/>
	<circle cx="100.505" cy="161.364" r="4" fill="#0" id="circle36"/>
	<circle cx="104.852" cy="12.6941" r="4" fill="#0" id="circle37"/>
	<circle cx="107.46" cy="155.278" r="4" fill="#0" id="circle38"/>
	<circle cx="111.807" cy="17.9106" r="4" fill="#0" id="circle39"/>
	<circle cx="113.546" cy="148.323" r="4" fill="#0" id="circle40"/>
	<circle cx="117.893" cy="24.8659" r="4" fill="#0" id="circle41"/>
	<circle cx="120.501" cy="142.237" r="4" fill="#0" id="circle42"/>
	<circle cx="126.587" cy="25.7353" r="4" fill="#0" id="circle43"/>
	<circle cx="129.195" cy="139.628" r="4" fill="#0" id="circle44"/>
	<circle cx="135.281" cy="25.7353" r="4" fill="#0" id="circle45"/>
	<circle cx="137.89" cy="139.628" r="4" fill="#0" id="circle46"/>
	<circle cx="143.106" cy="146.584" r="4" fill="#0" id="circle47"/>
	<circle cx="143.106" cy="155.278" r="4" fill="#0" id="circle48"/>
	<circle cx="143.106" cy="163.972" r="4" fill="#0" id="circle49"/>
	<circle cx="143.106" cy="172.666" r="4" fill="#0" id="circle50"/>
	<circle cx="143.106" cy="181.36" r="4" fill="#0" id="circle51"/>
	<circle cx="143.106" cy="190.054" r="4" fill="#0" id="circle52"/>
	<circle cx="143.106" cy="198.748" r="4" fill="#0" id="circle53"/>
	<circle cx="143.106" cy="207.443" r="4" fill="#0" id="circle54"/>
	<circle cx="143.106" cy="216.137" r="4" fill="#0" id="circle55"/>
	<circle cx="143.106" cy="224.831" r="4" fill="#0" id="circle56"/>
	<circle cx="143.106" cy="233.525" r="4" fill="#0" id="circle57"/>
	<circle cx="143.106" cy="242.219" r="4" fill="#0" id="circle58"/>
	<circle cx="143.106" cy="250.913" r="4" fill="#0" id="circle59"/>
	<circle cx="143.106" cy="259.607" r="4" fill="#0" id="circle60"/>
	<circle cx="143.106" cy="268.301" r="4" fill="#0" id="circle61"/>
	<circle cx="143.106" cy="276.996" r="4" fill="#0" id="circle62"/>
	<circle cx="143.106" cy="285.69" r="4" fill="#0" id="circle63"/>
	<circle cx="143.106" cy="294.384" r="4" fill="#0" id="circle64"/>
	<circle cx="143.106" cy="303.078" r="4" fill="#0" id="circle65"/>
	<circle cx="143.106" cy="311.772" r="4" fill="#0" id="circle66"/>
	<circle cx="143.106" cy="320.466" r="4" fill="#0" id="circle67"/>
	<circle cx="143.106" cy="329.16" r="4" fill="#0" id="circle68"/>
	<circle cx="143.106" cy="337.855" r="4" fill="#0" id="circle69"/>
	<circle cx="143.106" cy="346.549" r="4" fill="#0" id="circle70"/>
	<circle cx="143.106" cy="355.243" r="4" fill="#0" id="circle71"/>
	<circle cx="143.106" cy="363.937" r="4" fill="#0" id="circle72"/>
	<circle cx="143.106" cy="372.631" r="4" fill="#0" id="circle73"/>
	<circle cx="143.106" cy="381.325" r="4" fill="#0" id="circle74"/>
	<circle cx="143.106" cy="390.019" r="4" fill="#0" id="circle75"/>
	<circle cx="143.106" cy="398.713" r="4" fill="#0" id="circle76"/>
	<circle cx="143.106" cy="407.408" r="4" fill="#0" id="circle77"/>
	<circle cx="143.106" cy="416.102" r="4" fill="#0" id="circle78"/>
	<circle cx="143.106" cy="424.796" r="4" fill="#0" id="circle79"/>
	<circle cx="143.106" cy="433.49" r="4" fill="#0" id="circle80"/>
	<circle cx="143.106" cy="442.184" r="4" fill="#0" id="circle81"/>
	<circle cx="143.106" cy="450.878" r="4" fill="#0" id="circle82"/>
	<circle cx="143.106" cy="459.572" r="4" fill="#0" id="circle83"/>
	<circle cx="143.106" cy="468.266" r="4" fill="#0" id="circle84"/>
	<circle cx="143.106" cy="476.961" r="4" fill="#0" id="circle85"/>
	<circle cx="143.106" cy="485.655" r="4" fill="#0" id="circle86"/>
	<circle cx="143.106" cy="494.349" r="4" fill="#0" id="circle87"/>
	<circle cx="143.106" cy="503.043" r="4" fill="#0" id="circle88"/>
	<circle cx="143.106" cy="511.737" r="4" fill="#0" id="circle89"/>
	<circle cx="143.106" cy="520.431" r="4" fill="#0" id="circle90"/>
	<circle cx="143.106" cy="529.125" r="4" fill="#0" id="circle91"/>
	<circle cx="143.106" cy="537.819" r="4" fill="#0" id="circle92"/>
	<circle cx="143.106" cy="546.514" r="4" fill="#0" id="circle93"/>
	<circle cx="143.106" cy="555.208" r="4" fill="#0" id="circle94"/>
	<circle cx="143.106" cy="563.902" r="4" fill="#0" id="circle95"/>
	<circle cx="143.106" cy="572.596" r="4" fill="#0" id="circle96"/>
	<circle cx="143.106" cy="581.29" r="4" fill="#0" id="circle97"/>
	<circle cx="143.106" cy="589.984" r="4" fill="#0" id="circle98"/>
	<circle cx="143.106" cy="598.678" r="4" fill="#0" id="circle99"/>
	<circle cx="143.106" cy="607.372" r="4" fill="#0" id="circle100"/>
	<circle cx="143.106" cy="616.067" r="4" fill="#0" id="circle101"/>
	<circle cx="143.106" cy="624.761" r="4" fill="#0" id="circle102"/>
	<circle cx="143.106" cy="633.455" r="4" fill="#0" id="circle103"/>
	<circle cx="143.106" cy="642.149" r="4" fill="#0" id="circle104"/>
	<circle cx="143.106" cy="650.843" r="4" fill="#0" id="circle105"/>
	<circle cx="143.106" cy="659.537" r="4" fill="#0" id="circle106"/>
	<circle cx="143.106" cy="668.231" r="4" fill="#0" id="circle107"/>
	<circle cx="143.106" cy="676.926" r="4" fill="#0" id="circle108"/>
	<circle cx="143.106" cy="685.62" r="4" fill="#0" id="circle109"/>
	<circle cx="143.106" cy="694.314" r="4" fill="#0" id="circle110"/>
	<circle cx="143.106" cy="703.008" r="4" fill="#0" id="circle111"/>
	<circle cx="143.106" cy="711.702" r="4" fill="#0" id="circle112"/>
	<circle cx="143.106" cy="720.396" r="4" fill="#0" id="circle113"/>
	<circle cx="143.106" cy="729.09" r="4" fill="#0" id="circle114"/>
	<circle cx="143.106" cy="737.784" r="4" fill="#0" id="circle115"/>
	<circle cx="143.106" cy="746.479" r="4" fill="#0" id="circle116"/>
	<circle cx="143.106" cy="755.173" r="4" fill="#0" id="circle117"/>
	<circle cx="143.106" cy="763.867" r="4" fill="#0" id="circle118"/>
	<circle cx="143.106" cy="772.561" r="4" fill="#0" id="circle119"/>
	<circle cx="143.106" cy="781.255" r="4" fill="#0" id="circle120"/>
	<circle cx="143.106" cy="789.949" r="4" fill="#0" id="circle121"/>
	<circle cx="143.106" cy="798.643" r="4" fill="#0" id="circle122"/>
	<circle cx="143.106" cy="807.337" r="4" fill="#0" id="circle123"/>
	<circle cx="143.106" cy="816.032" r="4" fill="#0" id="circle124"/>
	<circle cx="143.106" cy="824.726" r="4" fill="#0" id="circle125"/>
	<circle cx="143.106" cy="833.42" r="4" fill="#0" id="circle126"/>
	<circle cx="143.106" cy="842.114" r="4" fill="#0" id="circle127"/>
	<circle cx="143.106" cy="850.808" r="4" fill="#0" id="circle128"/>
	<circle cx="143.106" cy="859.502" r="4" fill="#0" id="circle129"/>
	<circle cx="143.106" cy="868.196" r="4" fill="#0" id="circle130"/>
	<circle cx="143.106" cy="876.89" r="4" fill="#0" id="circle131"/>
	<circle cx="143.106" cy="885.585" r="4" fill="#0" id="circle132"/>
	<circle cx="143.106" cy="894.279" r="4" fill="#0" id="circle133"/>
	<circle cx="143.106" cy="902.973" r="4" fill="#0" id="circle134"/>
	<circle cx="143.106" cy="911.667" r="4" fill="#0" id="circle135"/>
	<circle cx="143.106" cy="920.361" r="4" fill="#0" id="circle136"/>
	<circle cx="143.106" cy="929.055" r="4" fill="#0" id="circle137"/>
	<circle cx="143.106" cy="937.749" r="4" fill="#0" id="circle138"/>
	<circle cx="143.106" cy="946.443" r="4" fill="#0" id="circle139"/>
	<circle cx="143.106" cy="955.138" r="4" fill="#0" id="circle140"/>
	<circle cx="143.106" cy="963.832" r="4" fill="#0" id="circle141"/>
	<circle cx="143.106" cy="972.526" r="4" fill="#0" id="circle142"/>
	<circle cx="143.106" cy="981.22" r="4" fill="#0" id="circle143"/>
	<circle cx="143.975" cy="25.7353" r="4" fill="#0" id="circle144"/>
	<circle cx="147.453" cy="989.045" r="4" fill="#0" id="circle145"/>
	<circle cx="152.67" cy="25.7353" r="4" fill="#0" id="circle146"/>
	<circle cx="154.408" cy="995.131" r="4" fill="#0" id="circle147"/>
	<circle cx="161.364" cy="25.7353" r="4" fill="#0" id="circle148"/>
	<circle cx="163.103" cy="996" r="4" fill="#0" id="circle149"/>
	<circle cx="170.058" cy="25.7353" r="4" fill="#0" id="circle150"/>
	<circle cx="171.797" cy="996" r="4" fill="#0" id="circle151"/>
	<circle cx="178.752" cy="25.7353" r="4" fill="#0" id="circle152"/>
	<circle cx="180.491" cy="996" r="4" fill="#0" id="circle153"/>
	<circle cx="187.446" cy="25.7353" r="4" fill="#0" id="circle154"/>
	<circle cx="189.185" cy="996" r="4" fill="#0" id="circle155"/>
	<circle cx="196.14" cy="28.3436" r="4" fill="#0" id="circle156"/>
	<circle cx="197.879" cy="995.131" r="4" fill="#0" id="circle157"/>
	<circle cx="204.834" cy="30.0824" r="4" fill="#0" id="circle158"/>
	<circle cx="204.834" cy="987.306" r="4" fill="#0" id="circle159"/>
	<circle cx="211.79" cy="981.22" r="4" fill="#0" id="circle160"/>
	<circle cx="213.528" cy="30.0824" r="4" fill="#0" id="circle161"/>
	<circle cx="213.528" cy="139.628" r="4" fill="#0" id="circle162"/>
	<circle cx="213.528" cy="148.323" r="4" fill="#0" id="circle163"/>
	<circle cx="213.528" cy="157.017" r="4" fill="#0" id="circle164"/>
	<circle cx="213.528" cy="165.711" r="4" fill="#0" id="circle165"/>
	<circle cx="213.528" cy="174.405" r="4" fill="#0" id="circle166"/>
	<circle cx="213.528" cy="183.099" r="4" fill="#0" id="circle167"/>
	<circle cx="213.528" cy="191.793" r="4" fill="#0" id="circle168"/>
	<circle cx="213.528" cy="200.487" r="4" fill="#0" id="circle169"/>
	<circle cx="213.528" cy="209.181" r="4" fill="#0" id="circle170"/>
	<circle cx="213.528" cy="217.876" r="4" fill="#0" id="circle171"/>
	<circle cx="213.528" cy="226.57" r="4" fill="#0" id="circle172"/>
	<circle cx="213.528" cy="235.264" r="4" fill="#0" id="circle173"/>
	<circle cx="213.528" cy="243.958" r="4" fill="#0" id="circle174"/>
	<circle cx="213.528" cy="252.652" r="4" fill="#0" id="circle175"/>
	<circle cx="213.528" cy="261.346" r="4" fill="#0" id="circle176"/>
	<circle cx="213.528" cy="270.04" r="4" fill="#0" id="circle177"/>
	<circle cx="213.528" cy="278.734" r="4" fill="#0" id="circle178"/>
	<circle cx="213.528" cy="287.429" r="4" fill="#0" id="circle179"/>
	<circle cx="213.528" cy="296.123" r="4" fill="#0" id="circle180"/>
	<circle cx="213.528" cy="304.817" r="4" fill="#0" id="circle181"/>
	<circle cx="213.528" cy="313.511" r="4" fill="#0" id="circle182"/>
	<circle cx="213.528" cy="322.205" r="4" fill="#0" id="circle183"/>
	<circle cx="213.528" cy="330.899" r="4" fill="#0" id="circle184"/>
	<circle cx="213.528" cy="339.593" r="4" fill="#0" id="circle185"/>
	<circle cx="213.528" cy="348.287" r="4" fill="#0" id="circle186"/>
	<circle cx="213.528" cy="356.982" r="4" fill="#0" id="circle187"/>
	<circle cx="213.528" cy="365.676" r="4" fill="#0" id="circle188"/>
	<circle cx="213.528" cy="374.37" r="4" fill="#0" id="circle189"/>
	<circle cx="213.528" cy="383.064" r="4" fill="#0" id="circle190"/>
	<circle cx="213.528" cy="391.758" r="4" fill="#0" id="circle191"/>
	<circle cx="213.528" cy="400.452" r="4" fill="#0" id="circle192"/>
	<circle cx="213.528" cy="409.146" r="4" fill="#0" id="circle193"/>
	<circle cx="213.528" cy="417.84" r="4" fill="#0" id="circle194"/>
	<circle cx="213.528" cy="426.535" r="4" fill="#0" id="circle195"/>
	<circle cx="213.528" cy="435.229" r="4" fill="#0" id="circle196"/>
	<circle cx="213.528" cy="443.923" r="4" fill="#0" id="circle197"/>
	<circle cx="213.528" cy="452.617" r="4" fill="#0" id="circle198"/>
	<circle cx="213.528" cy="461.311" r="4" fill="#0" id="circle199"/>
	<circle cx="213.528" cy="470.005" r="4" fill="#0" id="circle200"/>
	<circle cx="213.528" cy="478.699" r="4" fill="#0" id="circle201"/>
	<circle cx="213.528" cy="487.394" r="4" fill="#0" id="circle202"/>
	<circle cx="213.528" cy="496.088" r="4" fill="#0" id="circle203"/>
	<circle cx="213.528" cy="504.782" r="4" fill="#0" id="circle204"/>
	<circle cx="213.528" cy="513.476" r="4" fill="#0" id="circle205"/>
	<circle cx="213.528" cy="522.17" r="4" fill="#0" id="circle206"/>
	<circle cx="213.528" cy="530.864" r="4" fill="#0" id="circle207"/>
	<circle cx="213.528" cy="539.558" r="4" fill="#0" id="circle208"/>
	<circle cx="213.528" cy="548.252" r="4" fill="#0" id="circle209"/>
	<circle cx="213.528" cy="556.947" r="4" fill="#0" id="circle210"/>
	<circle cx="213.528" cy="565.641" r="4" fill="#0" id="circle211"/>
	<circle cx="213.528" cy="574.335" r="4" fill="#0" id="circle212"/>
	<circle cx="213.528" cy="583.029" r="4" fill="#0" id="circle213"/>
	<circle cx="213.528" cy="591.723" r="4" fill="#0" id="circle214"/>
	<circle cx="213.528" cy="600.417" r="4" fill="#0" id="circle215"/>
	<circle cx="213.528" cy="609.111" r="4" fill="#0" id="circle216"/>
	<circle cx="213.528" cy="617.805" r="4" fill="#0" id="circle217"/>
	<circle cx="213.528" cy="626.5" r="4" fill="#0" id="circle218"/>
	<circle cx="213.528" cy="635.194" r="4" fill="#0" id="circle219"/>
	<circle cx="213.528" cy="643.888" r="4" fill="#0" id="circle220"/>
	<circle cx="213.528" cy="652.582" r="4" fill="#0" id="circle221"/>
	<circle cx="213.528" cy="661.276" r="4" fill="#0" id="circle222"/>
	<circle cx="213.528" cy="669.97" r="4" fill="#0" id="circle223"/>
	<circle cx="213.528" cy="678.664" r="4" fill="#0" id="circle224"/>
	<circle cx="213.528" cy="687.358" r="4" fill="#0" id="circle225"/>
	<circle cx="213.528" cy="696.053" r="4" fill="#0" id="circle226"/>
	<circle cx="213.528" cy="704.747" r="4" fill="#0" id="circle227"/>
	<circle cx="213.528" cy="713.441" r="4" fill="#0" id="circle228"/>
	<circle cx="213.528" cy="722.135" r="4" fill="#0" id="circle229"/>
	<circle cx="213.528" cy="730.829" r="4" fill="#0" id="circle230"/>
	<circle cx="213.528" cy="739.523" r="4" fill="#0" id="circle231"/>
	<circle cx="213.528" cy="748.217" r="4" fill="#0" id="circle232"/>
	<circle cx="213.528" cy="756.911" r="4" fill="#0" id="circle233"/>
	<circle cx="213.528" cy="765.606" r="4" fill="#0" id="circle234"/>
	<circle cx="213.528" cy="774.3" r="4" fill="#0" id="circle235"/>
	<circle cx="213.528" cy="782.994" r="4" fill="#0" id="circle236"/>
	<circle cx="213.528" cy="791.688" r="4" fill="#0" id="circle237"/>
	<circle cx="213.528" cy="800.382" r="4" fill="#0" id="circle238"/>
	<circle cx="213.528" cy="809.076" r="4" fill="#0" id="circle239"/>
	<circle cx="213.528" cy="817.77" r="4" fill="#0" id="circle240"/>
	<circle cx="213.528" cy="826.465" r="4" fill="#0" id="circle241"/>
	<circle cx="213.528" cy="835.159" r="4" fill="#0" id="circle242"/>
	<circle cx="213.528" cy="843.853" r="4" fill="#0" id="circle243"/>
	<circle cx="213.528" cy="852.547" r="4" fill="#0" id="circle244"/>
	<circle cx="213.528" cy="861.241" r="4" fill="#0" id="circle245"/>
	<circle cx="213.528" cy="869.935" r="4" fill="#0" id="circle246"/>
	<circle cx="213.528" cy="878.629" r="4" fill="#0" id="circle247"/>
	<circle cx="213.528" cy="887.323" r="4" fill="#0" id="circle248"/>
	<circle cx="213.528" cy="896.018" r="4" fill="#0" id="circle249"/>
	<circle cx="213.528" cy="904.712" r="4" fill="#0" id="circle250"/>
	<circle cx="213.528" cy="913.406" r="4" fill="#0" id="circle251"/>
	<circle cx="213.528" cy="922.1" r="4" fill="#0" id="circle252"/>
	<circle cx="213.528" cy="930.794" r="4" fill="#0" id="circle253"/>
	<circle cx="213.528" cy="939.488" r="4" fill="#0" id="circle254"/>
	<circle cx="213.528" cy="948.182" r="4" fill="#0" id="circle255"/>
	<circle cx="213.528" cy="956.876" r="4" fill="#0" id="circle256"/>
	<circle cx="213.528" cy="965.571" r="4" fill="#0" id="circle257"/>
	<circle cx="222.223" cy="30.0824" r="4" fill="#0" id="circle258"/>
	<circle cx="222.223" cy="141.367" r="4" fill="#0" id="circle259"/>
	<circle cx="230.917" cy="32.6906" r="4" fill="#0" id="circle260"/>
	<circle cx="230.917" cy="143.975" r="4" fill="#0" id="circle261"/>
	<circle cx="238.741" cy="148.323" r="4" fill="#0" id="circle262"/>
	<circle cx="239.611" cy="34.4294" r="4" fill="#0" id="circle263"/>
	<circle cx="247.436" cy="38.7765" r="4" fill="#0" id="circle264"/>
	<circle cx="247.436" cy="148.323" r="4" fill="#0" id="circle265"/>
	<circle cx="256.13" cy="40.5153" r="4" fill="#0" id="circle266"/>
	<circle cx="256.13" cy="148.323" r="4" fill="#0" id="circle267"/>
	<circle cx="261.346" cy="47.4706" r="4" fill="#0" id="circle268"/>
	<circle cx="261.346" cy="155.278" r="4" fill="#0" id="circle269"/>
	<circle cx="268.301" cy="52.6871" r="4" fill="#0" id="circle270"/>
	<circle cx="270.04" cy="157.017" r="4" fill="#0" id="circle271"/>
	<circle cx="274.387" cy="59.6424" r="4" fill="#0" id="circle272"/>
	<circle cx="277.865" cy="161.364" r="4" fill="#0" id="circle273"/>
	<circle cx="281.343" cy="65.7283" r="4" fill="#0" id="circle274"/>
	<circle cx="286.559" cy="161.364" r="4" fill="#0" id="circle275"/>
	<circle cx="287.429" cy="72.6836" r="4" fill="#0" id="circle276"/>
	<circle cx="291.776" cy="168.319" r="4" fill="#0" id="circle277"/>
	<circle cx="294.384" cy="78.7695" r="4" fill="#0" id="circle278"/>
	<circle cx="300.47" cy="85.7248" r="4" fill="#0" id="circle279"/>
	<circle cx="300.47" cy="171.797" r="4" fill="#0" id="circle280"/>
	<circle cx="306.556" cy="178.752" r="4" fill="#0" id="circle281"/>
	<circle cx="307.425" cy="91.8107" r="4" fill="#0" id="circle282"/>
	<circle cx="313.511" cy="98.766" r="4" fill="#0" id="circle283"/>
	<circle cx="315.25" cy="182.23" r="4" fill="#0" id="circle284"/>
	<circle cx="320.466" cy="104.852" r="4" fill="#0" id="circle285"/>
	<circle cx="322.205" cy="113.546" r="4" fill="#0" id="circle286"/>
	<circle cx="322.205" cy="187.446" r="4" fill="#0" id="circle287"/>
	<circle cx="326.552" cy="121.371" r="4" fill="#0" id="circle288"/>
	<circle cx="330.03" cy="191.793" r="4" fill="#0" id="circle289"/>
	<circle cx="333.507" cy="126.587" r="4" fill="#0" id="circle290"/>
	<circle cx="335.246" cy="135.281" r="4" fill="#0" id="circle291"/>
	<circle cx="338.724" cy="189.185" r="4" fill="#0" id="circle292"/>
	<circle cx="339.593" cy="143.106" r="4" fill="#0" id="circle293"/>
	<circle cx="339.593" cy="151.8" r="4" fill="#0" id="circle294"/>
	<circle cx="339.593" cy="160.494" r="4" fill="#0" id="circle295"/>
	<circle cx="339.593" cy="169.188" r="4" fill="#0" id="circle296"/>
	<circle cx="343.94" cy="177.013" r="4" fill="#0" id="circle297"/>
	</g>
</svg>