<?xml version="1.0" encoding="UTF-8" standalone="no"?>
<!-- Created with CurveBenchmark -->
<svg
	xmlns:dc="http://purl.org/dc/elements/1.1/"
	xmlns:cc="http://creativecommons.org/ns#"
	xmlns:rdf="http://www.w3.org/1999/02/22-rdf-syntax-ns#"
	xmlns:svg="http://www.w3.org/2000/svg"
	xmlns="http://www.w3.org/2000/svg"
	xmlns:sodipodi="http://sodipodi.sourceforge.net/DTD/sodipodi-0.dtd"
	xmlns:inkscape="http://www.inkscape.org/namespaces/inkscape"
	width="1000"
	height="1000"
	id="svg2"
	version="1.1"
	sodipodi:docname="manifold/nncrust-ray08.png.txt">
<defs
	id="defs4" />
<metadata
	id="metadata7">
	<rdf:RDF>
		<cc:Work
			rdf:about="">
			<dc:format>image/svg+xml</dc:format>
			<dc:type
				rdf:resource="http://purl.org/dc/dcmitype/StillImage" />
			<dc:title></dc:title>
		</cc:Work>
	</rdf:RDF>
</metadata>
<g
	inkscape:label="Layer 1"
	inkscape:groupmode="layer"
	id="layer1">
	<path style="fill:none;stroke:red;stroke-width:1px;stroke-linecap:butt;stroke-linejoin:miter;stroke-opacity:1" d="M 4,77.709 4,62.3529 z" id="boundary" inkscape:connector-curvature="0" />
	<path style="fill:none;stroke:red;stroke-width:1px;stroke-linecap:butt;stroke-linejoin:miter;stroke-opacity:1" d="M 4,93.065 4,77.709 z" id="boundary" inkscape:connector-curvature="0" />
	<path style="fill:none;stroke:red;stroke-width:1px;stroke-linecap:butt;stroke-linejoin:miter;stroke-opacity:1" d="M 4,123.777 4,108.421 z" id="boundary" inkscape:connector-curvature="0" />
	<path style="fill:none;stroke:red;stroke-width:1px;stroke-linecap:butt;stroke-linejoin:miter;stroke-opacity:1" d="M 4,139.133 4,123.777 z" id="boundary" inkscape:connector-curvature="0" />
	<path style="fill:none;stroke:red;stroke-width:1px;stroke-linecap:butt;stroke-linejoin:miter;stroke-opacity:1" d="M 4,108.421 4,93.065 z" id="boundary" inkscape:connector-curvature="0" />
	<path style="fill:none;stroke:red;stroke-width:1px;stroke-linecap:butt;stroke-linejoin:miter;stroke-opacity:1" d="M 11.678,39.3189 19.356,23.9628 z" id="boundary" inkscape:connector-curvature="0" />
	<path style="fill:none;stroke:red;stroke-width:1px;stroke-linecap:butt;stroke-linejoin:miter;stroke-opacity:1" d="M 19.356,23.9628 34.7121,16.2848 z" id="boundary" inkscape:connector-curvature="0" />
	<path style="fill:none;stroke:red;stroke-width:1px;stroke-linecap:butt;stroke-linejoin:miter;stroke-opacity:1" d="M 34.7121,16.2848 50.0681,11.678 z" id="boundary" inkscape:connector-curvature="0" />
	<path style="fill:none;stroke:red;stroke-width:1px;stroke-linecap:butt;stroke-linejoin:miter;stroke-opacity:1" d="M 4,154.489 4,139.133 z" id="boundary" inkscape:connector-curvature="0" />
	<path style="fill:none;stroke:red;stroke-width:1px;stroke-linecap:butt;stroke-linejoin:miter;stroke-opacity:1" d="M 4,185.201 4,169.845 z" id="boundary" inkscape:connector-curvature="0" />
	<path style="fill:none;stroke:red;stroke-width:1px;stroke-linecap:butt;stroke-linejoin:miter;stroke-opacity:1" d="M 11.678,199.022 4,185.201 z" id="boundary" inkscape:connector-curvature="0" />
	<path style="fill:none;stroke:red;stroke-width:1px;stroke-linecap:butt;stroke-linejoin:miter;stroke-opacity:1" d="M 11.678,199.022 11.678,214.378 z" id="boundary" inkscape:connector-curvature="0" />
	<path style="fill:none;stroke:red;stroke-width:1px;stroke-linecap:butt;stroke-linejoin:miter;stroke-opacity:1" d="M 4,169.845 4,154.489 z" id="boundary" inkscape:connector-curvature="0" />
	<path style="fill:none;stroke:red;stroke-width:1px;stroke-linecap:butt;stroke-linejoin:miter;stroke-opacity:1" d="M 11.678,214.378 11.678,229.734 z" id="boundary" inkscape:connector-curvature="0" />
	<path style="fill:none;stroke:red;stroke-width:1px;stroke-linecap:butt;stroke-linejoin:miter;stroke-opacity:1" d="M 4,62.3529 11.678,39.3189 z" id="boundary" inkscape:connector-curvature="0" />
	<path style="fill:none;stroke:red;stroke-width:1px;stroke-linecap:butt;stroke-linejoin:miter;stroke-opacity:1" d="M 19.356,258.91 11.678,245.09 z" id="boundary" inkscape:connector-curvature="0" />
	<path style="fill:none;stroke:red;stroke-width:1px;stroke-linecap:butt;stroke-linejoin:miter;stroke-opacity:1" d="M 11.678,245.09 11.678,229.734 z" id="boundary" inkscape:connector-curvature="0" />
	<path style="fill:none;stroke:red;stroke-width:1px;stroke-linecap:butt;stroke-linejoin:miter;stroke-opacity:1" d="M 19.356,258.91 19.356,274.266 z" id="boundary" inkscape:connector-curvature="0" />
	<path style="fill:none;stroke:red;stroke-width:1px;stroke-linecap:butt;stroke-linejoin:miter;stroke-opacity:1" d="M 19.356,274.266 19.356,289.622 z" id="boundary" inkscape:connector-curvature="0" />
	<path style="fill:none;stroke:red;stroke-width:1px;stroke-linecap:butt;stroke-linejoin:miter;stroke-opacity:1" d="M 23.9628,304.978 19.356,289.622 z" id="boundary" inkscape:connector-curvature="0" />
	<path style="fill:none;stroke:red;stroke-width:1px;stroke-linecap:butt;stroke-linejoin:miter;stroke-opacity:1" d="M 27.0341,320.334 23.9628,304.978 z" id="boundary" inkscape:connector-curvature="0" />
	<path style="fill:none;stroke:red;stroke-width:1px;stroke-linecap:butt;stroke-linejoin:miter;stroke-opacity:1" d="M 27.0341,320.334 27.0341,335.69 z" id="boundary" inkscape:connector-curvature="0" />
	<path style="fill:none;stroke:red;stroke-width:1px;stroke-linecap:butt;stroke-linejoin:miter;stroke-opacity:1" d="M 27.0341,335.69 27.0341,351.046 z" id="boundary" inkscape:connector-curvature="0" />
	<path style="fill:none;stroke:red;stroke-width:1px;stroke-linecap:butt;stroke-linejoin:miter;stroke-opacity:1" d="M 31.6409,366.402 27.0341,351.046 z" id="boundary" inkscape:connector-curvature="0" />
	<path style="fill:none;stroke:red;stroke-width:1px;stroke-linecap:butt;stroke-linejoin:miter;stroke-opacity:1" d="M 31.6409,366.402 34.7121,381.759 z" id="boundary" inkscape:connector-curvature="0" />
	<path style="fill:none;stroke:red;stroke-width:1px;stroke-linecap:butt;stroke-linejoin:miter;stroke-opacity:1" d="M 42.3901,395.579 34.7121,381.759 z" id="boundary" inkscape:connector-curvature="0" />
	<path style="fill:none;stroke:red;stroke-width:1px;stroke-linecap:butt;stroke-linejoin:miter;stroke-opacity:1" d="M 46.9969,472.359 34.7121,484.644 z" id="boundary" inkscape:connector-curvature="0" />
	<path style="fill:none;stroke:red;stroke-width:1px;stroke-linecap:butt;stroke-linejoin:miter;stroke-opacity:1" d="M 57.7461,504.607 42.3901,498.464 z" id="boundary" inkscape:connector-curvature="0" />
	<path style="fill:none;stroke:red;stroke-width:1px;stroke-linecap:butt;stroke-linejoin:miter;stroke-opacity:1" d="M 42.3901,498.464 34.7121,484.644 z" id="boundary" inkscape:connector-curvature="0" />
	<path style="fill:none;stroke:red;stroke-width:1px;stroke-linecap:butt;stroke-linejoin:miter;stroke-opacity:1" d="M 50.0681,11.678 65.4241,11.678 z" id="boundary" inkscape:connector-curvature="0" />
	<path style="fill:none;stroke:red;stroke-width:1px;stroke-linecap:butt;stroke-linejoin:miter;stroke-opacity:1" d="M 80.7802,11.678 96.1362,11.678 z" id="boundary" inkscape:connector-curvature="0" />
	<path style="fill:none;stroke:red;stroke-width:1px;stroke-linecap:butt;stroke-linejoin:miter;stroke-opacity:1" d="M 80.7802,11.678 65.4241,11.678 z" id="boundary" inkscape:connector-curvature="0" />
	<path style="fill:none;stroke:red;stroke-width:1px;stroke-linecap:butt;stroke-linejoin:miter;stroke-opacity:1" d="M 96.1362,11.678 111.492,11.678 z" id="boundary" inkscape:connector-curvature="0" />
	<path style="fill:none;stroke:red;stroke-width:1px;stroke-linecap:butt;stroke-linejoin:miter;stroke-opacity:1" d="M 51.6037,424.755 59.2817,438.576 z" id="boundary" inkscape:connector-curvature="0" />
	<path style="fill:none;stroke:red;stroke-width:1px;stroke-linecap:butt;stroke-linejoin:miter;stroke-opacity:1" d="M 51.6037,424.755 50.0681,409.399 z" id="boundary" inkscape:connector-curvature="0" />
	<path style="fill:none;stroke:red;stroke-width:1px;stroke-linecap:butt;stroke-linejoin:miter;stroke-opacity:1" d="M 126.848,11.678 111.492,11.678 z" id="boundary" inkscape:connector-curvature="0" />
	<path style="fill:none;stroke:red;stroke-width:1px;stroke-linecap:butt;stroke-linejoin:miter;stroke-opacity:1" d="M 142.204,11.678 157.56,11.678 z" id="boundary" inkscape:connector-curvature="0" />
	<path style="fill:none;stroke:red;stroke-width:1px;stroke-linecap:butt;stroke-linejoin:miter;stroke-opacity:1" d="M 157.56,11.678 171.381,19.356 z" id="boundary" inkscape:connector-curvature="0" />
	<path style="fill:none;stroke:red;stroke-width:1px;stroke-linecap:butt;stroke-linejoin:miter;stroke-opacity:1" d="M 171.381,19.356 186.737,19.356 z" id="boundary" inkscape:connector-curvature="0" />
	<path style="fill:none;stroke:red;stroke-width:1px;stroke-linecap:butt;stroke-linejoin:miter;stroke-opacity:1" d="M 202.093,20.8916 186.737,19.356 z" id="boundary" inkscape:connector-curvature="0" />
	<path style="fill:none;stroke:red;stroke-width:1px;stroke-linecap:butt;stroke-linejoin:miter;stroke-opacity:1" d="M 126.848,11.678 142.204,11.678 z" id="boundary" inkscape:connector-curvature="0" />
	<path style="fill:none;stroke:red;stroke-width:1px;stroke-linecap:butt;stroke-linejoin:miter;stroke-opacity:1" d="M 202.093,20.8916 217.449,27.0341 z" id="boundary" inkscape:connector-curvature="0" />
	<path style="fill:none;stroke:red;stroke-width:1px;stroke-linecap:butt;stroke-linejoin:miter;stroke-opacity:1" d="M 232.805,27.0341 217.449,27.0341 z" id="boundary" inkscape:connector-curvature="0" />
	<path style="fill:none;stroke:red;stroke-width:1px;stroke-linecap:butt;stroke-linejoin:miter;stroke-opacity:1" d="M 248.161,28.5697 232.805,27.0341 z" id="boundary" inkscape:connector-curvature="0" />
	<path style="fill:none;stroke:red;stroke-width:1px;stroke-linecap:butt;stroke-linejoin:miter;stroke-opacity:1" d="M 50.0681,409.399 42.3901,395.579 z" id="boundary" inkscape:connector-curvature="0" />
	<path style="fill:none;stroke:red;stroke-width:1px;stroke-linecap:butt;stroke-linejoin:miter;stroke-opacity:1" d="M 46.9969,472.359 59.2817,460.074 z" id="boundary" inkscape:connector-curvature="0" />
	<path style="fill:none;stroke:red;stroke-width:1px;stroke-linecap:butt;stroke-linejoin:miter;stroke-opacity:1" d="M 59.2817,438.576 59.2817,460.074 z" id="boundary" inkscape:connector-curvature="0" />
	<path style="fill:none;stroke:red;stroke-width:1px;stroke-linecap:butt;stroke-linejoin:miter;stroke-opacity:1" d="M 82.3158,457.003 57.7461,504.607 z" id="boundary" inkscape:connector-curvature="0" />
	<path style="fill:none;stroke:red;stroke-width:1px;stroke-linecap:butt;stroke-linejoin:miter;stroke-opacity:1" d="M 71.5666,512.285 57.7461,504.607 z" id="boundary" inkscape:connector-curvature="0" />
	<path style="fill:none;stroke:red;stroke-width:1px;stroke-linecap:butt;stroke-linejoin:miter;stroke-opacity:1" d="M 65.4241,546.068 65.4241,561.424 z" id="boundary" inkscape:connector-curvature="0" />
	<path style="fill:none;stroke:red;stroke-width:1px;stroke-linecap:butt;stroke-linejoin:miter;stroke-opacity:1" d="M 73.1022,575.245 65.4241,561.424 z" id="boundary" inkscape:connector-curvature="0" />
	<path style="fill:none;stroke:red;stroke-width:1px;stroke-linecap:butt;stroke-linejoin:miter;stroke-opacity:1" d="M 73.1022,530.712 65.4241,546.068 z" id="boundary" inkscape:connector-curvature="0" />
	<path style="fill:none;stroke:red;stroke-width:1px;stroke-linecap:butt;stroke-linejoin:miter;stroke-opacity:1" d="M 71.5666,512.285 85.387,519.963 z" id="boundary" inkscape:connector-curvature="0" />
	<path style="fill:none;stroke:red;stroke-width:1px;stroke-linecap:butt;stroke-linejoin:miter;stroke-opacity:1" d="M 85.387,519.963 73.1022,530.712 z" id="boundary" inkscape:connector-curvature="0" />
	<path style="fill:none;stroke:red;stroke-width:1px;stroke-linecap:butt;stroke-linejoin:miter;stroke-opacity:1" d="M 59.2817,438.576 74.6378,443.183 z" id="boundary" inkscape:connector-curvature="0" />
	<path style="fill:none;stroke:red;stroke-width:1px;stroke-linecap:butt;stroke-linejoin:miter;stroke-opacity:1" d="M 82.3158,457.003 74.6378,443.183 z" id="boundary" inkscape:connector-curvature="0" />
	<path style="fill:none;stroke:red;stroke-width:1px;stroke-linecap:butt;stroke-linejoin:miter;stroke-opacity:1" d="M 74.6378,443.183 89.9938,443.183 z" id="boundary" inkscape:connector-curvature="0" />
	<path style="fill:none;stroke:red;stroke-width:1px;stroke-linecap:butt;stroke-linejoin:miter;stroke-opacity:1" d="M 111.492,596.743 304.978,604.421 z" id="boundary" inkscape:connector-curvature="0" />
	<path style="fill:none;stroke:red;stroke-width:1px;stroke-linecap:butt;stroke-linejoin:miter;stroke-opacity:1" d="M 85.387,519.963 73.1022,575.245 z" id="boundary" inkscape:connector-curvature="0" />
	<path style="fill:none;stroke:red;stroke-width:1px;stroke-linecap:butt;stroke-linejoin:miter;stroke-opacity:1" d="M 73.1022,575.245 73.1022,590.601 z" id="boundary" inkscape:connector-curvature="0" />
	<path style="fill:none;stroke:red;stroke-width:1px;stroke-linecap:butt;stroke-linejoin:miter;stroke-opacity:1" d="M 97.6718,604.421 111.492,596.743 z" id="boundary" inkscape:connector-curvature="0" />
	<path style="fill:none;stroke:red;stroke-width:1px;stroke-linecap:butt;stroke-linejoin:miter;stroke-opacity:1" d="M 100.743,625.92 97.6718,604.421 z" id="boundary" inkscape:connector-curvature="0" />
	<path style="fill:none;stroke:red;stroke-width:1px;stroke-linecap:butt;stroke-linejoin:miter;stroke-opacity:1" d="M 85.387,519.963 111.492,596.743 z" id="boundary" inkscape:connector-curvature="0" />
	<path style="fill:none;stroke:red;stroke-width:1px;stroke-linecap:butt;stroke-linejoin:miter;stroke-opacity:1" d="M 73.1022,605.957 73.1022,590.601 z" id="boundary" inkscape:connector-curvature="0" />
	<path style="fill:none;stroke:red;stroke-width:1px;stroke-linecap:butt;stroke-linejoin:miter;stroke-opacity:1" d="M 89.9938,443.183 304.978,604.421 z" id="boundary" inkscape:connector-curvature="0" />
	<path style="fill:none;stroke:red;stroke-width:1px;stroke-linecap:butt;stroke-linejoin:miter;stroke-opacity:1" d="M 73.1022,668.916 65.4241,684.272 z" id="boundary" inkscape:connector-curvature="0" />
	<path style="fill:none;stroke:red;stroke-width:1px;stroke-linecap:butt;stroke-linejoin:miter;stroke-opacity:1" d="M 80.7802,653.56 73.1022,668.916 z" id="boundary" inkscape:connector-curvature="0" />
	<path style="fill:none;stroke:red;stroke-width:1px;stroke-linecap:butt;stroke-linejoin:miter;stroke-opacity:1" d="M 65.4241,699.628 65.4241,684.272 z" id="boundary" inkscape:connector-curvature="0" />
	<path style="fill:none;stroke:red;stroke-width:1px;stroke-linecap:butt;stroke-linejoin:miter;stroke-opacity:1" d="M 65.4241,699.628 65.4241,714.985 z" id="boundary" inkscape:connector-curvature="0" />
	<path style="fill:none;stroke:red;stroke-width:1px;stroke-linecap:butt;stroke-linejoin:miter;stroke-opacity:1" d="M 65.4241,714.985 57.7461,730.341 z" id="boundary" inkscape:connector-curvature="0" />
	<path style="fill:none;stroke:red;stroke-width:1px;stroke-linecap:butt;stroke-linejoin:miter;stroke-opacity:1" d="M 65.4241,744.161 57.7461,730.341 z" id="boundary" inkscape:connector-curvature="0" />
	<path style="fill:none;stroke:red;stroke-width:1px;stroke-linecap:butt;stroke-linejoin:miter;stroke-opacity:1" d="M 65.4241,744.161 65.4241,759.517 z" id="boundary" inkscape:connector-curvature="0" />
	<path style="fill:none;stroke:red;stroke-width:1px;stroke-linecap:butt;stroke-linejoin:miter;stroke-opacity:1" d="M 88.4582,638.204 80.7802,653.56 z" id="boundary" inkscape:connector-curvature="0" />
	<path style="fill:none;stroke:red;stroke-width:1px;stroke-linecap:butt;stroke-linejoin:miter;stroke-opacity:1" d="M 73.1022,605.957 83.8514,618.241 z" id="boundary" inkscape:connector-curvature="0" />
	<path style="fill:none;stroke:red;stroke-width:1px;stroke-linecap:butt;stroke-linejoin:miter;stroke-opacity:1" d="M 140.669,685.808 128.384,696.557 z" id="boundary" inkscape:connector-curvature="0" />
	<path style="fill:none;stroke:red;stroke-width:1px;stroke-linecap:butt;stroke-linejoin:miter;stroke-opacity:1" d="M 100.743,625.92 88.4582,638.204 z" id="boundary" inkscape:connector-curvature="0" />
	<path style="fill:none;stroke:red;stroke-width:1px;stroke-linecap:butt;stroke-linejoin:miter;stroke-opacity:1" d="M 83.8514,618.241 100.743,625.92 z" id="boundary" inkscape:connector-curvature="0" />
	<path style="fill:none;stroke:red;stroke-width:1px;stroke-linecap:butt;stroke-linejoin:miter;stroke-opacity:1" d="M 97.6718,604.421 83.8514,618.241 z" id="boundary" inkscape:connector-curvature="0" />
	<path style="fill:none;stroke:red;stroke-width:1px;stroke-linecap:butt;stroke-linejoin:miter;stroke-opacity:1" d="M 113.028,734.947 120.706,711.913 z" id="boundary" inkscape:connector-curvature="0" />
	<path style="fill:none;stroke:red;stroke-width:1px;stroke-linecap:butt;stroke-linejoin:miter;stroke-opacity:1" d="M 120.706,748.768 113.028,734.947 z" id="boundary" inkscape:connector-curvature="0" />
	<path style="fill:none;stroke:red;stroke-width:1px;stroke-linecap:butt;stroke-linejoin:miter;stroke-opacity:1" d="M 120.706,764.124 120.706,748.768 z" id="boundary" inkscape:connector-curvature="0" />
	<path style="fill:none;stroke:red;stroke-width:1px;stroke-linecap:butt;stroke-linejoin:miter;stroke-opacity:1" d="M 128.384,696.557 120.706,711.913 z" id="boundary" inkscape:connector-curvature="0" />
	<path style="fill:none;stroke:red;stroke-width:1px;stroke-linecap:butt;stroke-linejoin:miter;stroke-opacity:1" d="M 73.1022,788.693 65.4241,774.873 z" id="boundary" inkscape:connector-curvature="0" />
	<path style="fill:none;stroke:red;stroke-width:1px;stroke-linecap:butt;stroke-linejoin:miter;stroke-opacity:1" d="M 77.709,804.05 73.1022,788.693 z" id="boundary" inkscape:connector-curvature="0" />
	<path style="fill:none;stroke:red;stroke-width:1px;stroke-linecap:butt;stroke-linejoin:miter;stroke-opacity:1" d="M 65.4241,759.517 65.4241,774.873 z" id="boundary" inkscape:connector-curvature="0" />
	<path style="fill:none;stroke:red;stroke-width:1px;stroke-linecap:butt;stroke-linejoin:miter;stroke-opacity:1" d="M 77.709,804.05 85.387,817.87 z" id="boundary" inkscape:connector-curvature="0" />
	<path style="fill:none;stroke:red;stroke-width:1px;stroke-linecap:butt;stroke-linejoin:miter;stroke-opacity:1" d="M 85.387,817.87 88.4582,833.226 z" id="boundary" inkscape:connector-curvature="0" />
	<path style="fill:none;stroke:red;stroke-width:1px;stroke-linecap:butt;stroke-linejoin:miter;stroke-opacity:1" d="M 96.1362,847.046 88.4582,833.226 z" id="boundary" inkscape:connector-curvature="0" />
	<path style="fill:none;stroke:red;stroke-width:1px;stroke-linecap:butt;stroke-linejoin:miter;stroke-opacity:1" d="M 120.706,779.48 128.384,793.3 z" id="boundary" inkscape:connector-curvature="0" />
	<path style="fill:none;stroke:red;stroke-width:1px;stroke-linecap:butt;stroke-linejoin:miter;stroke-opacity:1" d="M 120.706,779.48 120.706,764.124 z" id="boundary" inkscape:connector-curvature="0" />
	<path style="fill:none;stroke:red;stroke-width:1px;stroke-linecap:butt;stroke-linejoin:miter;stroke-opacity:1" d="M 128.384,793.3 128.384,808.656 z" id="boundary" inkscape:connector-curvature="0" />
	<path style="fill:none;stroke:red;stroke-width:1px;stroke-linecap:butt;stroke-linejoin:miter;stroke-opacity:1" d="M 128.384,808.656 136.062,822.477 z" id="boundary" inkscape:connector-curvature="0" />
	<path style="fill:none;stroke:red;stroke-width:1px;stroke-linecap:butt;stroke-linejoin:miter;stroke-opacity:1" d="M 103.814,860.867 96.1362,847.046 z" id="boundary" inkscape:connector-curvature="0" />
	<path style="fill:none;stroke:red;stroke-width:1px;stroke-linecap:butt;stroke-linejoin:miter;stroke-opacity:1" d="M 126.848,880.83 111.492,874.687 z" id="boundary" inkscape:connector-curvature="0" />
	<path style="fill:none;stroke:red;stroke-width:1px;stroke-linecap:butt;stroke-linejoin:miter;stroke-opacity:1" d="M 126.848,880.83 134.526,894.65 z" id="boundary" inkscape:connector-curvature="0" />
	<path style="fill:none;stroke:red;stroke-width:1px;stroke-linecap:butt;stroke-linejoin:miter;stroke-opacity:1" d="M 111.492,874.687 103.814,860.867 z" id="boundary" inkscape:connector-curvature="0" />
	<path style="fill:none;stroke:red;stroke-width:1px;stroke-linecap:butt;stroke-linejoin:miter;stroke-opacity:1" d="M 134.526,894.65 142.204,908.471 z" id="boundary" inkscape:connector-curvature="0" />
	<path style="fill:none;stroke:red;stroke-width:1px;stroke-linecap:butt;stroke-linejoin:miter;stroke-opacity:1" d="M 171.381,685.808 156.025,688.879 z" id="boundary" inkscape:connector-curvature="0" />
	<path style="fill:none;stroke:red;stroke-width:1px;stroke-linecap:butt;stroke-linejoin:miter;stroke-opacity:1" d="M 156.025,688.879 140.669,685.808 z" id="boundary" inkscape:connector-curvature="0" />
	<path style="fill:none;stroke:red;stroke-width:1px;stroke-linecap:butt;stroke-linejoin:miter;stroke-opacity:1" d="M 142.204,837.833 151.418,850.118 z" id="boundary" inkscape:connector-curvature="0" />
	<path style="fill:none;stroke:red;stroke-width:1px;stroke-linecap:butt;stroke-linejoin:miter;stroke-opacity:1" d="M 142.204,837.833 136.062,822.477 z" id="boundary" inkscape:connector-curvature="0" />
	<path style="fill:none;stroke:red;stroke-width:1px;stroke-linecap:butt;stroke-linejoin:miter;stroke-opacity:1" d="M 163.703,859.331 179.059,865.474 z" id="boundary" inkscape:connector-curvature="0" />
	<path style="fill:none;stroke:red;stroke-width:1px;stroke-linecap:butt;stroke-linejoin:miter;stroke-opacity:1" d="M 163.703,859.331 151.418,850.118 z" id="boundary" inkscape:connector-curvature="0" />
	<path style="fill:none;stroke:red;stroke-width:1px;stroke-linecap:butt;stroke-linejoin:miter;stroke-opacity:1" d="M 228.198,665.845 242.019,658.167 z" id="boundary" inkscape:connector-curvature="0" />
	<path style="fill:none;stroke:red;stroke-width:1px;stroke-linecap:butt;stroke-linejoin:miter;stroke-opacity:1" d="M 242.019,658.167 251.232,670.452 z" id="boundary" inkscape:connector-curvature="0" />
	<path style="fill:none;stroke:red;stroke-width:1px;stroke-linecap:butt;stroke-linejoin:miter;stroke-opacity:1" d="M 251.232,670.452 263.517,681.201 z" id="boundary" inkscape:connector-curvature="0" />
	<path style="fill:none;stroke:red;stroke-width:1px;stroke-linecap:butt;stroke-linejoin:miter;stroke-opacity:1" d="M 242.019,658.167 255.839,650.489 z" id="boundary" inkscape:connector-curvature="0" />
	<path style="fill:none;stroke:red;stroke-width:1px;stroke-linecap:butt;stroke-linejoin:miter;stroke-opacity:1" d="M 186.737,681.201 171.381,685.808 z" id="boundary" inkscape:connector-curvature="0" />
	<path style="fill:none;stroke:red;stroke-width:1px;stroke-linecap:butt;stroke-linejoin:miter;stroke-opacity:1" d="M 217.449,678.13 228.198,665.845 z" id="boundary" inkscape:connector-curvature="0" />
	<path style="fill:none;stroke:red;stroke-width:1px;stroke-linecap:butt;stroke-linejoin:miter;stroke-opacity:1" d="M 186.737,681.201 202.093,681.201 z" id="boundary" inkscape:connector-curvature="0" />
	<path style="fill:none;stroke:red;stroke-width:1px;stroke-linecap:butt;stroke-linejoin:miter;stroke-opacity:1" d="M 202.093,681.201 217.449,678.13 z" id="boundary" inkscape:connector-curvature="0" />
	<path style="fill:none;stroke:red;stroke-width:1px;stroke-linecap:butt;stroke-linejoin:miter;stroke-opacity:1" d="M 189.808,877.759 179.059,865.474 z" id="boundary" inkscape:connector-curvature="0" />
	<path style="fill:none;stroke:red;stroke-width:1px;stroke-linecap:butt;stroke-linejoin:miter;stroke-opacity:1" d="M 149.882,922.291 142.204,908.471 z" id="boundary" inkscape:connector-curvature="0" />
	<path style="fill:none;stroke:red;stroke-width:1px;stroke-linecap:butt;stroke-linejoin:miter;stroke-opacity:1" d="M 202.093,888.508 189.808,877.759 z" id="boundary" inkscape:connector-curvature="0" />
	<path style="fill:none;stroke:red;stroke-width:1px;stroke-linecap:butt;stroke-linejoin:miter;stroke-opacity:1" d="M 162.167,933.04 149.882,922.291 z" id="boundary" inkscape:connector-curvature="0" />
	<path style="fill:none;stroke:red;stroke-width:1px;stroke-linecap:butt;stroke-linejoin:miter;stroke-opacity:1" d="M 177.523,934.576 162.167,933.04 z" id="boundary" inkscape:connector-curvature="0" />
	<path style="fill:none;stroke:red;stroke-width:1px;stroke-linecap:butt;stroke-linejoin:miter;stroke-opacity:1" d="M 177.523,934.576 191.344,942.254 z" id="boundary" inkscape:connector-curvature="0" />
	<path style="fill:none;stroke:red;stroke-width:1px;stroke-linecap:butt;stroke-linejoin:miter;stroke-opacity:1" d="M 191.344,942.254 205.164,949.932 z" id="boundary" inkscape:connector-curvature="0" />
	<path style="fill:none;stroke:red;stroke-width:1px;stroke-linecap:butt;stroke-linejoin:miter;stroke-opacity:1" d="M 202.093,888.508 212.842,900.793 z" id="boundary" inkscape:connector-curvature="0" />
	<path style="fill:none;stroke:red;stroke-width:1px;stroke-linecap:butt;stroke-linejoin:miter;stroke-opacity:1" d="M 220.52,914.613 212.842,900.793 z" id="boundary" inkscape:connector-curvature="0" />
	<path style="fill:none;stroke:red;stroke-width:1px;stroke-linecap:butt;stroke-linejoin:miter;stroke-opacity:1" d="M 232.805,925.362 220.52,914.613 z" id="boundary" inkscape:connector-curvature="0" />
	<path style="fill:none;stroke:red;stroke-width:1px;stroke-linecap:butt;stroke-linejoin:miter;stroke-opacity:1" d="M 232.805,925.362 246.625,933.04 z" id="boundary" inkscape:connector-curvature="0" />
	<path style="fill:none;stroke:red;stroke-width:1px;stroke-linecap:butt;stroke-linejoin:miter;stroke-opacity:1" d="M 261.981,933.04 246.625,933.04 z" id="boundary" inkscape:connector-curvature="0" />
	<path style="fill:none;stroke:red;stroke-width:1px;stroke-linecap:butt;stroke-linejoin:miter;stroke-opacity:1" d="M 205.164,949.932 218.985,957.61 z" id="boundary" inkscape:connector-curvature="0" />
	<path style="fill:none;stroke:red;stroke-width:1px;stroke-linecap:butt;stroke-linejoin:miter;stroke-opacity:1" d="M 232.805,965.288 246.625,972.966 z" id="boundary" inkscape:connector-curvature="0" />
	<path style="fill:none;stroke:red;stroke-width:1px;stroke-linecap:butt;stroke-linejoin:miter;stroke-opacity:1" d="M 232.805,965.288 218.985,957.61 z" id="boundary" inkscape:connector-curvature="0" />
	<path style="fill:none;stroke:red;stroke-width:1px;stroke-linecap:butt;stroke-linejoin:miter;stroke-opacity:1" d="M 248.161,28.5697 263.517,34.7121 z" id="boundary" inkscape:connector-curvature="0" />
	<path style="fill:none;stroke:red;stroke-width:1px;stroke-linecap:butt;stroke-linejoin:miter;stroke-opacity:1" d="M 412.471,4 397.115,7.07121 z" id="boundary" inkscape:connector-curvature="0" />
	<path style="fill:none;stroke:red;stroke-width:1px;stroke-linecap:butt;stroke-linejoin:miter;stroke-opacity:1" d="M 381.759,11.678 397.115,7.07121 z" id="boundary" inkscape:connector-curvature="0" />
	<path style="fill:none;stroke:red;stroke-width:1px;stroke-linecap:butt;stroke-linejoin:miter;stroke-opacity:1" d="M 381.759,11.678 366.402,11.678 z" id="boundary" inkscape:connector-curvature="0" />
	<path style="fill:none;stroke:red;stroke-width:1px;stroke-linecap:butt;stroke-linejoin:miter;stroke-opacity:1" d="M 321.87,19.356 337.226,19.356 z" id="boundary" inkscape:connector-curvature="0" />
	<path style="fill:none;stroke:red;stroke-width:1px;stroke-linecap:butt;stroke-linejoin:miter;stroke-opacity:1" d="M 308.05,27.0341 321.87,19.356 z" id="boundary" inkscape:connector-curvature="0" />
	<path style="fill:none;stroke:red;stroke-width:1px;stroke-linecap:butt;stroke-linejoin:miter;stroke-opacity:1" d="M 352.582,19.356 337.226,19.356 z" id="boundary" inkscape:connector-curvature="0" />
	<path style="fill:none;stroke:red;stroke-width:1px;stroke-linecap:butt;stroke-linejoin:miter;stroke-opacity:1" d="M 366.402,11.678 352.582,19.356 z" id="boundary" inkscape:connector-curvature="0" />
	<path style="fill:none;stroke:red;stroke-width:1px;stroke-linecap:butt;stroke-linejoin:miter;stroke-opacity:1" d="M 412.471,4 427.827,4 z" id="boundary" inkscape:connector-curvature="0" />
	<path style="fill:none;stroke:red;stroke-width:1px;stroke-linecap:butt;stroke-linejoin:miter;stroke-opacity:1" d="M 427.827,4 443.183,4 z" id="boundary" inkscape:connector-curvature="0" />
	<path style="fill:none;stroke:red;stroke-width:1px;stroke-linecap:butt;stroke-linejoin:miter;stroke-opacity:1" d="M 458.539,4 473.895,4 z" id="boundary" inkscape:connector-curvature="0" />
	<path style="fill:none;stroke:red;stroke-width:1px;stroke-linecap:butt;stroke-linejoin:miter;stroke-opacity:1" d="M 473.895,4 487.715,11.678 z" id="boundary" inkscape:connector-curvature="0" />
	<path style="fill:none;stroke:red;stroke-width:1px;stroke-linecap:butt;stroke-linejoin:miter;stroke-opacity:1" d="M 443.183,4 458.539,4 z" id="boundary" inkscape:connector-curvature="0" />
	<path style="fill:none;stroke:red;stroke-width:1px;stroke-linecap:butt;stroke-linejoin:miter;stroke-opacity:1" d="M 487.715,11.678 503.071,14.7492 z" id="boundary" inkscape:connector-curvature="0" />
	<path style="fill:none;stroke:red;stroke-width:1px;stroke-linecap:butt;stroke-linejoin:miter;stroke-opacity:1" d="M 503.071,14.7492 518.427,19.356 z" id="boundary" inkscape:connector-curvature="0" />
	<path style="fill:none;stroke:red;stroke-width:1px;stroke-linecap:butt;stroke-linejoin:miter;stroke-opacity:1" d="M 518.427,19.356 533.783,19.356 z" id="boundary" inkscape:connector-curvature="0" />
	<path style="fill:none;stroke:red;stroke-width:1px;stroke-linecap:butt;stroke-linejoin:miter;stroke-opacity:1" d="M 533.783,19.356 547.604,27.0341 z" id="boundary" inkscape:connector-curvature="0" />
	<path style="fill:none;stroke:red;stroke-width:1px;stroke-linecap:butt;stroke-linejoin:miter;stroke-opacity:1" d="M 277.337,27.0341 292.693,27.0341 z" id="boundary" inkscape:connector-curvature="0" />
	<path style="fill:none;stroke:red;stroke-width:1px;stroke-linecap:butt;stroke-linejoin:miter;stroke-opacity:1" d="M 263.517,34.7121 277.337,27.0341 z" id="boundary" inkscape:connector-curvature="0" />
	<path style="fill:none;stroke:red;stroke-width:1px;stroke-linecap:butt;stroke-linejoin:miter;stroke-opacity:1" d="M 308.05,27.0341 292.693,27.0341 z" id="boundary" inkscape:connector-curvature="0" />
	<path style="fill:none;stroke:red;stroke-width:1px;stroke-linecap:butt;stroke-linejoin:miter;stroke-opacity:1" d="M 547.604,27.0341 562.96,27.0341 z" id="boundary" inkscape:connector-curvature="0" />
	<path style="fill:none;stroke:red;stroke-width:1px;stroke-linecap:butt;stroke-linejoin:miter;stroke-opacity:1" d="M 578.316,27.0341 562.96,27.0341 z" id="boundary" inkscape:connector-curvature="0" />
	<path style="fill:none;stroke:red;stroke-width:1px;stroke-linecap:butt;stroke-linejoin:miter;stroke-opacity:1" d="M 578.316,27.0341 592.136,34.7121 z" id="boundary" inkscape:connector-curvature="0" />
	<path style="fill:none;stroke:red;stroke-width:1px;stroke-linecap:butt;stroke-linejoin:miter;stroke-opacity:1" d="M 592.136,34.7121 607.492,34.7121 z" id="boundary" inkscape:connector-curvature="0" />
	<path style="fill:none;stroke:red;stroke-width:1px;stroke-linecap:butt;stroke-linejoin:miter;stroke-opacity:1" d="M 621.313,27.0341 607.492,34.7121 z" id="boundary" inkscape:connector-curvature="0" />
	<path style="fill:none;stroke:red;stroke-width:1px;stroke-linecap:butt;stroke-linejoin:miter;stroke-opacity:1" d="M 621.313,27.0341 633.598,37.7833 z" id="boundary" inkscape:connector-curvature="0" />
	<path style="fill:none;stroke:red;stroke-width:1px;stroke-linecap:butt;stroke-linejoin:miter;stroke-opacity:1" d="M 633.598,37.7833 639.74,53.1393 z" id="boundary" inkscape:connector-curvature="0" />
	<path style="fill:none;stroke:red;stroke-width:1px;stroke-linecap:butt;stroke-linejoin:miter;stroke-opacity:1" d="M 642.811,68.4954 642.811,83.8514 z" id="boundary" inkscape:connector-curvature="0" />
	<path style="fill:none;stroke:red;stroke-width:1px;stroke-linecap:butt;stroke-linejoin:miter;stroke-opacity:1" d="M 650.489,97.6718 642.811,83.8514 z" id="boundary" inkscape:connector-curvature="0" />
	<path style="fill:none;stroke:red;stroke-width:1px;stroke-linecap:butt;stroke-linejoin:miter;stroke-opacity:1" d="M 642.811,68.4954 639.74,53.1393 z" id="boundary" inkscape:connector-curvature="0" />
	<path style="fill:none;stroke:red;stroke-width:1px;stroke-linecap:butt;stroke-linejoin:miter;stroke-opacity:1" d="M 650.489,97.6718 653.56,113.028 z" id="boundary" inkscape:connector-curvature="0" />
	<path style="fill:none;stroke:red;stroke-width:1px;stroke-linecap:butt;stroke-linejoin:miter;stroke-opacity:1" d="M 653.56,113.028 661.238,126.848 z" id="boundary" inkscape:connector-curvature="0" />
	<path style="fill:none;stroke:red;stroke-width:1px;stroke-linecap:butt;stroke-linejoin:miter;stroke-opacity:1" d="M 661.238,126.848 665.845,142.204 z" id="boundary" inkscape:connector-curvature="0" />
	<path style="fill:none;stroke:red;stroke-width:1px;stroke-linecap:butt;stroke-linejoin:miter;stroke-opacity:1" d="M 673.523,156.025 665.845,142.204 z" id="boundary" inkscape:connector-curvature="0" />
	<path style="fill:none;stroke:red;stroke-width:1px;stroke-linecap:butt;stroke-linejoin:miter;stroke-opacity:1" d="M 673.523,156.025 673.523,171.381 z" id="boundary" inkscape:connector-curvature="0" />
	<path style="fill:none;stroke:red;stroke-width:1px;stroke-linecap:butt;stroke-linejoin:miter;stroke-opacity:1" d="M 681.201,185.201 673.523,171.381 z" id="boundary" inkscape:connector-curvature="0" />
	<path style="fill:none;stroke:red;stroke-width:1px;stroke-linecap:butt;stroke-linejoin:miter;stroke-opacity:1" d="M 687.344,200.557 681.201,185.201 z" id="boundary" inkscape:connector-curvature="0" />
	<path style="fill:none;stroke:red;stroke-width:1px;stroke-linecap:butt;stroke-linejoin:miter;stroke-opacity:1" d="M 681.201,289.622 681.201,304.978 z" id="boundary" inkscape:connector-curvature="0" />
	<path style="fill:none;stroke:red;stroke-width:1px;stroke-linecap:butt;stroke-linejoin:miter;stroke-opacity:1" d="M 688.879,215.913 688.879,231.269 z" id="boundary" inkscape:connector-curvature="0" />
	<path style="fill:none;stroke:red;stroke-width:1px;stroke-linecap:butt;stroke-linejoin:miter;stroke-opacity:1" d="M 688.879,215.913 687.344,200.557 z" id="boundary" inkscape:connector-curvature="0" />
	<path style="fill:none;stroke:red;stroke-width:1px;stroke-linecap:butt;stroke-linejoin:miter;stroke-opacity:1" d="M 688.879,231.269 688.879,246.625 z" id="boundary" inkscape:connector-curvature="0" />
	<path style="fill:none;stroke:red;stroke-width:1px;stroke-linecap:butt;stroke-linejoin:miter;stroke-opacity:1" d="M 688.879,246.625 688.879,261.981 z" id="boundary" inkscape:connector-curvature="0" />
	<path style="fill:none;stroke:red;stroke-width:1px;stroke-linecap:butt;stroke-linejoin:miter;stroke-opacity:1" d="M 688.879,261.981 681.201,289.622 z" id="boundary" inkscape:connector-curvature="0" />
	<path style="fill:none;stroke:red;stroke-width:1px;stroke-linecap:butt;stroke-linejoin:miter;stroke-opacity:1" d="M 681.201,304.978 684.272,320.334 z" id="boundary" inkscape:connector-curvature="0" />
	<path style="fill:none;stroke:red;stroke-width:1px;stroke-linecap:butt;stroke-linejoin:miter;stroke-opacity:1" d="M 688.879,335.69 684.272,320.334 z" id="boundary" inkscape:connector-curvature="0" />
	<path style="fill:none;stroke:red;stroke-width:1px;stroke-linecap:butt;stroke-linejoin:miter;stroke-opacity:1" d="M 688.879,335.69 688.879,351.046 z" id="boundary" inkscape:connector-curvature="0" />
	<path style="fill:none;stroke:red;stroke-width:1px;stroke-linecap:butt;stroke-linejoin:miter;stroke-opacity:1" d="M 688.879,351.046 688.879,366.402 z" id="boundary" inkscape:connector-curvature="0" />
	<path style="fill:none;stroke:red;stroke-width:1px;stroke-linecap:butt;stroke-linejoin:miter;stroke-opacity:1" d="M 688.879,381.759 688.879,366.402 z" id="boundary" inkscape:connector-curvature="0" />
	<path style="fill:none;stroke:red;stroke-width:1px;stroke-linecap:butt;stroke-linejoin:miter;stroke-opacity:1" d="M 688.879,397.115 696.557,410.935 z" id="boundary" inkscape:connector-curvature="0" />
	<path style="fill:none;stroke:red;stroke-width:1px;stroke-linecap:butt;stroke-linejoin:miter;stroke-opacity:1" d="M 696.557,410.935 696.557,426.291 z" id="boundary" inkscape:connector-curvature="0" />
	<path style="fill:none;stroke:red;stroke-width:1px;stroke-linecap:butt;stroke-linejoin:miter;stroke-opacity:1" d="M 688.879,397.115 688.879,381.759 z" id="boundary" inkscape:connector-curvature="0" />
	<path style="fill:none;stroke:red;stroke-width:1px;stroke-linecap:butt;stroke-linejoin:miter;stroke-opacity:1" d="M 696.557,426.291 704.235,440.111 z" id="boundary" inkscape:connector-curvature="0" />
	<path style="fill:none;stroke:red;stroke-width:1px;stroke-linecap:butt;stroke-linejoin:miter;stroke-opacity:1" d="M 711.913,453.932 704.235,440.111 z" id="boundary" inkscape:connector-curvature="0" />
	<path style="fill:none;stroke:red;stroke-width:1px;stroke-linecap:butt;stroke-linejoin:miter;stroke-opacity:1" d="M 711.913,453.932 718.056,469.288 z" id="boundary" inkscape:connector-curvature="0" />
	<path style="fill:none;stroke:red;stroke-width:1px;stroke-linecap:butt;stroke-linejoin:miter;stroke-opacity:1" d="M 718.056,469.288 719.591,484.644 z" id="boundary" inkscape:connector-curvature="0" />
	<path style="fill:none;stroke:red;stroke-width:1px;stroke-linecap:butt;stroke-linejoin:miter;stroke-opacity:1" d="M 719.591,484.644 727.269,498.464 z" id="boundary" inkscape:connector-curvature="0" />
	<path style="fill:none;stroke:red;stroke-width:1px;stroke-linecap:butt;stroke-linejoin:miter;stroke-opacity:1" d="M 727.269,498.464 727.269,513.82 z" id="boundary" inkscape:connector-curvature="0" />
	<path style="fill:none;stroke:red;stroke-width:1px;stroke-linecap:butt;stroke-linejoin:miter;stroke-opacity:1" d="M 727.269,513.82 731.876,529.176 z" id="boundary" inkscape:connector-curvature="0" />
	<path style="fill:none;stroke:red;stroke-width:1px;stroke-linecap:butt;stroke-linejoin:miter;stroke-opacity:1" d="M 734.947,544.533 734.947,559.889 z" id="boundary" inkscape:connector-curvature="0" />
	<path style="fill:none;stroke:red;stroke-width:1px;stroke-linecap:butt;stroke-linejoin:miter;stroke-opacity:1" d="M 731.876,529.176 734.947,544.533 z" id="boundary" inkscape:connector-curvature="0" />
	<path style="fill:none;stroke:red;stroke-width:1px;stroke-linecap:butt;stroke-linejoin:miter;stroke-opacity:1" d="M 297.3,642.811 297.3,658.167 z" id="boundary" inkscape:connector-curvature="0" />
	<path style="fill:none;stroke:red;stroke-width:1px;stroke-linecap:butt;stroke-linejoin:miter;stroke-opacity:1" d="M 297.3,658.167 255.839,650.489 z" id="boundary" inkscape:connector-curvature="0" />
	<path style="fill:none;stroke:red;stroke-width:1px;stroke-linecap:butt;stroke-linejoin:miter;stroke-opacity:1" d="M 297.3,627.455 297.3,642.811 z" id="boundary" inkscape:connector-curvature="0" />
	<path style="fill:none;stroke:red;stroke-width:1px;stroke-linecap:butt;stroke-linejoin:miter;stroke-opacity:1" d="M 277.337,688.879 263.517,681.201 z" id="boundary" inkscape:connector-curvature="0" />
	<path style="fill:none;stroke:red;stroke-width:1px;stroke-linecap:butt;stroke-linejoin:miter;stroke-opacity:1" d="M 277.337,933.04 261.981,933.04 z" id="boundary" inkscape:connector-curvature="0" />
	<path style="fill:none;stroke:red;stroke-width:1px;stroke-linecap:butt;stroke-linejoin:miter;stroke-opacity:1" d="M 277.337,688.879 292.693,687.344 z" id="boundary" inkscape:connector-curvature="0" />
	<path style="fill:none;stroke:red;stroke-width:1px;stroke-linecap:butt;stroke-linejoin:miter;stroke-opacity:1" d="M 297.3,658.167 292.693,687.344 z" id="boundary" inkscape:connector-curvature="0" />
	<path style="fill:none;stroke:red;stroke-width:1px;stroke-linecap:butt;stroke-linejoin:miter;stroke-opacity:1" d="M 277.337,933.04 288.087,945.325 z" id="boundary" inkscape:connector-curvature="0" />
	<path style="fill:none;stroke:red;stroke-width:1px;stroke-linecap:butt;stroke-linejoin:miter;stroke-opacity:1" d="M 314.192,616.706 320.334,632.062 z" id="boundary" inkscape:connector-curvature="0" />
	<path style="fill:none;stroke:red;stroke-width:1px;stroke-linecap:butt;stroke-linejoin:miter;stroke-opacity:1" d="M 297.3,627.455 314.192,616.706 z" id="boundary" inkscape:connector-curvature="0" />
	<path style="fill:none;stroke:red;stroke-width:1px;stroke-linecap:butt;stroke-linejoin:miter;stroke-opacity:1" d="M 328.012,645.882 320.334,632.062 z" id="boundary" inkscape:connector-curvature="0" />
	<path style="fill:none;stroke:red;stroke-width:1px;stroke-linecap:butt;stroke-linejoin:miter;stroke-opacity:1" d="M 334.155,661.238 346.44,671.988 z" id="boundary" inkscape:connector-curvature="0" />
	<path style="fill:none;stroke:red;stroke-width:1px;stroke-linecap:butt;stroke-linejoin:miter;stroke-opacity:1" d="M 328.012,645.882 334.155,661.238 z" id="boundary" inkscape:connector-curvature="0" />
	<path style="fill:none;stroke:red;stroke-width:1px;stroke-linecap:butt;stroke-linejoin:miter;stroke-opacity:1" d="M 361.796,673.523 346.44,671.988 z" id="boundary" inkscape:connector-curvature="0" />
	<path style="fill:none;stroke:red;stroke-width:1px;stroke-linecap:butt;stroke-linejoin:miter;stroke-opacity:1" d="M 314.192,616.706 304.978,604.421 z" id="boundary" inkscape:connector-curvature="0" />
	<path style="fill:none;stroke:red;stroke-width:1px;stroke-linecap:butt;stroke-linejoin:miter;stroke-opacity:1" d="M 315.728,956.074 300.372,956.074 z" id="boundary" inkscape:connector-curvature="0" />
	<path style="fill:none;stroke:red;stroke-width:1px;stroke-linecap:butt;stroke-linejoin:miter;stroke-opacity:1" d="M 300.372,956.074 288.087,945.325 z" id="boundary" inkscape:connector-curvature="0" />
	<path style="fill:none;stroke:red;stroke-width:1px;stroke-linecap:butt;stroke-linejoin:miter;stroke-opacity:1" d="M 261.981,979.108 277.337,980.644 z" id="boundary" inkscape:connector-curvature="0" />
	<path style="fill:none;stroke:red;stroke-width:1px;stroke-linecap:butt;stroke-linejoin:miter;stroke-opacity:1" d="M 277.337,980.644 291.158,988.322 z" id="boundary" inkscape:connector-curvature="0" />
	<path style="fill:none;stroke:red;stroke-width:1px;stroke-linecap:butt;stroke-linejoin:miter;stroke-opacity:1" d="M 291.158,988.322 306.514,988.322 z" id="boundary" inkscape:connector-curvature="0" />
	<path style="fill:none;stroke:red;stroke-width:1px;stroke-linecap:butt;stroke-linejoin:miter;stroke-opacity:1" d="M 306.514,988.322 321.87,992.929 z" id="boundary" inkscape:connector-curvature="0" />
	<path style="fill:none;stroke:red;stroke-width:1px;stroke-linecap:butt;stroke-linejoin:miter;stroke-opacity:1" d="M 331.084,956.074 346.44,956.074 z" id="boundary" inkscape:connector-curvature="0" />
	<path style="fill:none;stroke:red;stroke-width:1px;stroke-linecap:butt;stroke-linejoin:miter;stroke-opacity:1" d="M 331.084,956.074 315.728,956.074 z" id="boundary" inkscape:connector-curvature="0" />
	<path style="fill:none;stroke:red;stroke-width:1px;stroke-linecap:butt;stroke-linejoin:miter;stroke-opacity:1" d="M 346.44,956.074 361.796,956.074 z" id="boundary" inkscape:connector-curvature="0" />
	<path style="fill:none;stroke:red;stroke-width:1px;stroke-linecap:butt;stroke-linejoin:miter;stroke-opacity:1" d="M 375.616,963.752 361.796,956.074 z" id="boundary" inkscape:connector-curvature="0" />
	<path style="fill:none;stroke:red;stroke-width:1px;stroke-linecap:butt;stroke-linejoin:miter;stroke-opacity:1" d="M 321.87,992.929 337.226,996 z" id="boundary" inkscape:connector-curvature="0" />
	<path style="fill:none;stroke:red;stroke-width:1px;stroke-linecap:butt;stroke-linejoin:miter;stroke-opacity:1" d="M 352.582,996 337.226,996 z" id="boundary" inkscape:connector-curvature="0" />
	<path style="fill:none;stroke:red;stroke-width:1px;stroke-linecap:butt;stroke-linejoin:miter;stroke-opacity:1" d="M 367.938,996 352.582,996 z" id="boundary" inkscape:connector-curvature="0" />
	<path style="fill:none;stroke:red;stroke-width:1px;stroke-linecap:butt;stroke-linejoin:miter;stroke-opacity:1" d="M 375.616,963.752 389.437,971.43 z" id="boundary" inkscape:connector-curvature="0" />
	<path style="fill:none;stroke:red;stroke-width:1px;stroke-linecap:butt;stroke-linejoin:miter;stroke-opacity:1" d="M 361.796,673.523 377.152,679.666 z" id="boundary" inkscape:connector-curvature="0" />
	<path style="fill:none;stroke:red;stroke-width:1px;stroke-linecap:butt;stroke-linejoin:miter;stroke-opacity:1" d="M 261.981,979.108 246.625,972.966 z" id="boundary" inkscape:connector-curvature="0" />
	<path style="fill:none;stroke:red;stroke-width:1px;stroke-linecap:butt;stroke-linejoin:miter;stroke-opacity:1" d="M 638.204,673.523 622.848,673.523 z" id="boundary" inkscape:connector-curvature="0" />
	<path style="fill:none;stroke:red;stroke-width:1px;stroke-linecap:butt;stroke-linejoin:miter;stroke-opacity:1" d="M 652.025,665.845 638.204,673.523 z" id="boundary" inkscape:connector-curvature="0" />
	<path style="fill:none;stroke:red;stroke-width:1px;stroke-linecap:butt;stroke-linejoin:miter;stroke-opacity:1" d="M 667.381,665.845 652.025,665.845 z" id="boundary" inkscape:connector-curvature="0" />
	<path style="fill:none;stroke:red;stroke-width:1px;stroke-linecap:butt;stroke-linejoin:miter;stroke-opacity:1" d="M 681.201,658.167 667.381,665.845 z" id="boundary" inkscape:connector-curvature="0" />
	<path style="fill:none;stroke:red;stroke-width:1px;stroke-linecap:butt;stroke-linejoin:miter;stroke-opacity:1" d="M 423.22,681.201 407.864,681.201 z" id="boundary" inkscape:connector-curvature="0" />
	<path style="fill:none;stroke:red;stroke-width:1px;stroke-linecap:butt;stroke-linejoin:miter;stroke-opacity:1" d="M 607.492,679.666 622.848,673.523 z" id="boundary" inkscape:connector-curvature="0" />
	<path style="fill:none;stroke:red;stroke-width:1px;stroke-linecap:butt;stroke-linejoin:miter;stroke-opacity:1" d="M 607.492,679.666 592.136,681.201 z" id="boundary" inkscape:connector-curvature="0" />
	<path style="fill:none;stroke:red;stroke-width:1px;stroke-linecap:butt;stroke-linejoin:miter;stroke-opacity:1" d="M 392.508,681.201 377.152,679.666 z" id="boundary" inkscape:connector-curvature="0" />
	<path style="fill:none;stroke:red;stroke-width:1px;stroke-linecap:butt;stroke-linejoin:miter;stroke-opacity:1" d="M 734.947,575.245 734.947,590.601 z" id="boundary" inkscape:connector-curvature="0" />
	<path style="fill:none;stroke:red;stroke-width:1px;stroke-linecap:butt;stroke-linejoin:miter;stroke-opacity:1" d="M 734.947,605.957 734.947,621.313 z" id="boundary" inkscape:connector-curvature="0" />
	<path style="fill:none;stroke:red;stroke-width:1px;stroke-linecap:butt;stroke-linejoin:miter;stroke-opacity:1" d="M 734.947,590.601 734.947,605.957 z" id="boundary" inkscape:connector-curvature="0" />
	<path style="fill:none;stroke:red;stroke-width:1px;stroke-linecap:butt;stroke-linejoin:miter;stroke-opacity:1" d="M 681.201,658.167 696.557,650.489 z" id="boundary" inkscape:connector-curvature="0" />
	<path style="fill:none;stroke:red;stroke-width:1px;stroke-linecap:butt;stroke-linejoin:miter;stroke-opacity:1" d="M 696.557,650.489 711.913,642.811 z" id="boundary" inkscape:connector-curvature="0" />
	<path style="fill:none;stroke:red;stroke-width:1px;stroke-linecap:butt;stroke-linejoin:miter;stroke-opacity:1" d="M 727.269,635.133 711.913,642.811 z" id="boundary" inkscape:connector-curvature="0" />
	<path style="fill:none;stroke:red;stroke-width:1px;stroke-linecap:butt;stroke-linejoin:miter;stroke-opacity:1" d="M 734.947,621.313 727.269,635.133 z" id="boundary" inkscape:connector-curvature="0" />
	<path style="fill:none;stroke:red;stroke-width:1px;stroke-linecap:butt;stroke-linejoin:miter;stroke-opacity:1" d="M 500,681.201 484.644,681.201 z" id="boundary" inkscape:connector-curvature="0" />
	<path style="fill:none;stroke:red;stroke-width:1px;stroke-linecap:butt;stroke-linejoin:miter;stroke-opacity:1" d="M 423.22,681.201 438.576,687.344 z" id="boundary" inkscape:connector-curvature="0" />
	<path style="fill:none;stroke:red;stroke-width:1px;stroke-linecap:butt;stroke-linejoin:miter;stroke-opacity:1" d="M 407.864,681.201 392.508,681.201 z" id="boundary" inkscape:connector-curvature="0" />
	<path style="fill:none;stroke:red;stroke-width:1px;stroke-linecap:butt;stroke-linejoin:miter;stroke-opacity:1" d="M 469.288,681.201 453.932,687.344 z" id="boundary" inkscape:connector-curvature="0" />
	<path style="fill:none;stroke:red;stroke-width:1px;stroke-linecap:butt;stroke-linejoin:miter;stroke-opacity:1" d="M 389.437,971.43 383.294,996 z" id="boundary" inkscape:connector-curvature="0" />
	<path style="fill:none;stroke:red;stroke-width:1px;stroke-linecap:butt;stroke-linejoin:miter;stroke-opacity:1" d="M 383.294,996 367.938,996 z" id="boundary" inkscape:connector-curvature="0" />
	<path style="fill:none;stroke:red;stroke-width:1px;stroke-linecap:butt;stroke-linejoin:miter;stroke-opacity:1" d="M 453.932,687.344 438.576,687.344 z" id="boundary" inkscape:connector-curvature="0" />
	<path style="fill:none;stroke:red;stroke-width:1px;stroke-linecap:butt;stroke-linejoin:miter;stroke-opacity:1" d="M 469.288,681.201 484.644,681.201 z" id="boundary" inkscape:connector-curvature="0" />
	<path style="fill:none;stroke:red;stroke-width:1px;stroke-linecap:butt;stroke-linejoin:miter;stroke-opacity:1" d="M 515.356,681.201 530.712,681.201 z" id="boundary" inkscape:connector-curvature="0" />
	<path style="fill:none;stroke:red;stroke-width:1px;stroke-linecap:butt;stroke-linejoin:miter;stroke-opacity:1" d="M 515.356,681.201 500,681.201 z" id="boundary" inkscape:connector-curvature="0" />
	<path style="fill:none;stroke:red;stroke-width:1px;stroke-linecap:butt;stroke-linejoin:miter;stroke-opacity:1" d="M 546.068,681.201 561.424,681.201 z" id="boundary" inkscape:connector-curvature="0" />
	<path style="fill:none;stroke:red;stroke-width:1px;stroke-linecap:butt;stroke-linejoin:miter;stroke-opacity:1" d="M 576.78,681.201 592.136,681.201 z" id="boundary" inkscape:connector-curvature="0" />
	<path style="fill:none;stroke:red;stroke-width:1px;stroke-linecap:butt;stroke-linejoin:miter;stroke-opacity:1" d="M 576.78,681.201 561.424,681.201 z" id="boundary" inkscape:connector-curvature="0" />
	<path style="fill:none;stroke:red;stroke-width:1px;stroke-linecap:butt;stroke-linejoin:miter;stroke-opacity:1" d="M 546.068,681.201 530.712,681.201 z" id="boundary" inkscape:connector-curvature="0" />
	<path style="fill:none;stroke:red;stroke-width:1px;stroke-linecap:butt;stroke-linejoin:miter;stroke-opacity:1" d="M 734.947,559.889 734.947,575.245 z" id="boundary" inkscape:connector-curvature="0" />
	<circle cx="4" cy="62.3529" r="4" fill="#0" id="circle0"/>
	<circle cx="4" cy="77.709" r="4" fill="#0" id="circle1"/>
	<circle cx="4" cy="93.065" r="4" fill="#0" id="circle2"/>
	<circle cx="4" cy="108.421" r="4" fill="#0" id="circle3"/>
	<circle cx="4" cy="123.777" r="4" fill="#0" id="circle4"/>
	<circle cx="4" cy="139.133" r="4" fill="#0" id="circle5"/>
	<circle cx="4" cy="154.489" r="4" fill="#0" id="circle6"/>
	<circle cx="4" cy="169.845" r="4" fill="#0" id="circle7"/>
	<circle cx="4" cy="185.201" r="4" fill="#0" id="circle8"/>
	<circle cx="11.678" cy="39.3189" r="4" fill="#0" id="circle9"/>
	<circle cx="11.678" cy="199.022" r="4" fill="#0" id="circle10"/>
	<circle cx="11.678" cy="214.378" r="4" fill="#0" id="circle11"/>
	<circle cx="11.678" cy="229.734" r="4" fill="#0" id="circle12"/>
	<circle cx="11.678" cy="245.09" r="4" fill="#0" id="circle13"/>
	<circle cx="19.356" cy="23.9628" r="4" fill="#0" id="circle14"/>
	<circle cx="19.356" cy="258.91" r="4" fill="#0" id="circle15"/>
	<circle cx="19.356" cy="274.266" r="4" fill="#0" id="circle16"/>
	<circle cx="19.356" cy="289.622" r="4" fill="#0" id="circle17"/>
	<circle cx="23.9628" cy="304.978" r="4" fill="#0" id="circle18"/>
	<circle cx="27.0341" cy="320.334" r="4" fill="#0" id="circle19"/>
	<circle cx="27.0341" cy="335.69" r="4" fill="#0" id="circle20"/>
	<circle cx="27.0341" cy="351.046" r="4" fill="#0" id="circle21"/>
	<circle cx="31.6409" cy="366.402" r="4" fill="#0" id="circle22"/>
	<circle cx="34.7121" cy="16.2848" r="4" fill="#0" id="circle23"/>
	<circle cx="34.7121" cy="381.759" r="4" fill="#0" id="circle24"/>
	<circle cx="34.7121" cy="484.644" r="4" fill="#0" id="circle25"/>
	<circle cx="42.3901" cy="395.579" r="4" fill="#0" id="circle26"/>
	<circle cx="42.3901" cy="498.464" r="4" fill="#0" id="circle27"/>
	<circle cx="46.9969" cy="472.359" r="4" fill="#0" id="circle28"/>
	<circle cx="50.0681" cy="11.678" r="4" fill="#0" id="circle29"/>
	<circle cx="50.0681" cy="409.399" r="4" fill="#0" id="circle30"/>
	<circle cx="51.6037" cy="424.755" r="4" fill="#0" id="circle31"/>
	<circle cx="57.7461" cy="504.607" r="4" fill="#0" id="circle32"/>
	<circle cx="57.7461" cy="730.341" r="4" fill="#0" id="circle33"/>
	<circle cx="59.2817" cy="438.576" r="4" fill="#0" id="circle34"/>
	<circle cx="59.2817" cy="460.074" r="4" fill="#0" id="circle35"/>
	<circle cx="65.4241" cy="11.678" r="4" fill="#0" id="circle36"/>
	<circle cx="65.4241" cy="546.068" r="4" fill="#0" id="circle37"/>
	<circle cx="65.4241" cy="561.424" r="4" fill="#0" id="circle38"/>
	<circle cx="65.4241" cy="684.272" r="4" fill="#0" id="circle39"/>
	<circle cx="65.4241" cy="699.628" r="4" fill="#0" id="circle40"/>
	<circle cx="65.4241" cy="714.985" r="4" fill="#0" id="circle41"/>
	<circle cx="65.4241" cy="744.161" r="4" fill="#0" id="circle42"/>
	<circle cx="65.4241" cy="759.517" r="4" fill="#0" id="circle43"/>
	<circle cx="65.4241" cy="774.873" r="4" fill="#0" id="circle44"/>
	<circle cx="71.5666" cy="512.285" r="4" fill="#0" id="circle45"/>
	<circle cx="73.1022" cy="530.712" r="4" fill="#0" id="circle46"/>
	<circle cx="73.1022" cy="575.245" r="4" fill="#0" id="circle47"/>
	<circle cx="73.1022" cy="590.601" r="4" fill="#0" id="circle48"/>
	<circle cx="73.1022" cy="605.957" r="4" fill="#0" id="circle49"/>
	<circle cx="73.1022" cy="668.916" r="4" fill="#0" id="circle50"/>
	<circle cx="73.1022" cy="788.693" r="4" fill="#0" id="circle51"/>
	<circle cx="74.6378" cy="443.183" r="4" fill="#0" id="circle52"/>
	<circle cx="77.709" cy="804.05" r="4" fill="#0" id="circle53"/>
	<circle cx="80.7802" cy="11.678" r="4" fill="#0" id="circle54"/>
	<circle cx="80.7802" cy="653.56" r="4" fill="#0" id="circle55"/>
	<circle cx="82.3158" cy="457.003" r="4" fill="#0" id="circle56"/>
	<circle cx="83.8514" cy="618.241" r="4" fill="#0" id="circle57"/>
	<circle cx="85.387" cy="519.963" r="4" fill="#0" id="circle58"/>
	<circle cx="85.387" cy="817.87" r="4" fill="#0" id="circle59"/>
	<circle cx="88.4582" cy="638.204" r="4" fill="#0" id="circle60"/>
	<circle cx="88.4582" cy="833.226" r="4" fill="#0" id="circle61"/>
	<circle cx="89.9938" cy="443.183" r="4" fill="#0" id="circle62"/>
	<circle cx="96.1362" cy="11.678" r="4" fill="#0" id="circle63"/>
	<circle cx="96.1362" cy="847.046" r="4" fill="#0" id="circle64"/>
	<circle cx="97.6718" cy="604.421" r="4" fill="#0" id="circle65"/>
	<circle cx="100.743" cy="625.92" r="4" fill="#0" id="circle66"/>
	<circle cx="103.814" cy="860.867" r="4" fill="#0" id="circle67"/>
	<circle cx="111.492" cy="11.678" r="4" fill="#0" id="circle68"/>
	<circle cx="111.492" cy="596.743" r="4" fill="#0" id="circle69"/>
	<circle cx="111.492" cy="874.687" r="4" fill="#0" id="circle70"/>
	<circle cx="113.028" cy="734.947" r="4" fill="#0" id="circle71"/>
	<circle cx="120.706" cy="711.913" r="4" fill="#0" id="circle72"/>
	<circle cx="120.706" cy="748.768" r="4" fill="#0" id="circle73"/>
	<circle cx="120.706" cy="764.124" r="4" fill="#0" id="circle74"/>
	<circle cx="120.706" cy="779.48" r="4" fill="#0" id="circle75"/>
	<circle cx="126.848" cy="11.678" r="4" fill="#0" id="circle76"/>
	<circle cx="126.848" cy="880.83" r="4" fill="#0" id="circle77"/>
	<circle cx="128.384" cy="696.557" r="4" fill="#0" id="circle78"/>
	<circle cx="128.384" cy="793.3" r="4" fill="#0" id="circle79"/>
	<circle cx="128.384" cy="808.656" r="4" fill="#0" id="circle80"/>
	<circle cx="134.526" cy="894.65" r="4" fill="#0" id="circle81"/>
	<circle cx="136.062" cy="822.477" r="4" fill="#0" id="circle82"/>
	<circle cx="140.669" cy="685.808" r="4" fill="#0" id="circle83"/>
	<circle cx="142.204" cy="11.678" r="4" fill="#0" id="circle84"/>
	<circle cx="142.204" cy="837.833" r="4" fill="#0" id="circle85"/>
	<circle cx="142.204" cy="908.471" r="4" fill="#0" id="circle86"/>
	<circle cx="149.882" cy="922.291" r="4" fill="#0" id="circle87"/>
	<circle cx="151.418" cy="850.118" r="4" fill="#0" id="circle88"/>
	<circle cx="156.025" cy="688.879" r="4" fill="#0" id="circle89"/>
	<circle cx="157.56" cy="11.678" r="4" fill="#0" id="circle90"/>
	<circle cx="162.167" cy="933.04" r="4" fill="#0" id="circle91"/>
	<circle cx="163.703" cy="859.331" r="4" fill="#0" id="circle92"/>
	<circle cx="171.381" cy="19.356" r="4" fill="#0" id="circle93"/>
	<circle cx="171.381" cy="685.808" r="4" fill="#0" id="circle94"/>
	<circle cx="177.523" cy="934.576" r="4" fill="#0" id="circle95"/>
	<circle cx="179.059" cy="865.474" r="4" fill="#0" id="circle96"/>
	<circle cx="186.737" cy="19.356" r="4" fill="#0" id="circle97"/>
	<circle cx="186.737" cy="681.201" r="4" fill="#0" id="circle98"/>
	<circle cx="189.808" cy="877.759" r="4" fill="#0" id="circle99"/>
	<circle cx="191.344" cy="942.254" r="4" fill="#0" id="circle100"/>
	<circle cx="202.093" cy="20.8916" r="4" fill="#0" id="circle101"/>
	<circle cx="202.093" cy="681.201" r="4" fill="#0" id="circle102"/>
	<circle cx="202.093" cy="888.508" r="4" fill="#0" id="circle103"/>
	<circle cx="205.164" cy="949.932" r="4" fill="#0" id="circle104"/>
	<circle cx="212.842" cy="900.793" r="4" fill="#0" id="circle105"/>
	<circle cx="217.449" cy="27.0341" r="4" fill="#0" id="circle106"/>
	<circle cx="217.449" cy="678.13" r="4" fill="#0" id="circle107"/>
	<circle cx="218.985" cy="957.61" r="4" fill="#0" id="circle108"/>
	<circle cx="220.52" cy="914.613" r="4" fill="#0" id="circle109"/>
	<circle cx="228.198" cy="665.845" r="4" fill="#0" id="circle110"/>
	<circle cx="232.805" cy="27.0341" r="4" fill="#0" id="circle111"/>
	<circle cx="232.805" cy="925.362" r="4" fill="#0" id="circle112"/>
	<circle cx="232.805" cy="965.288" r="4" fill="#0" id="circle113"/>
	<circle cx="242.019" cy="658.167" r="4" fill="#0" id="circle114"/>
	<circle cx="246.625" cy="933.04" r="4" fill="#0" id="circle115"/>
	<circle cx="246.625" cy="972.966" r="4" fill="#0" id="circle116"/>
	<circle cx="248.161" cy="28.5697" r="4" fill="#0" id="circle117"/>
	<circle cx="251.232" cy="670.452" r="4" fill="#0" id="circle118"/>
	<circle cx="255.839" cy="650.489" r="4" fill="#0" id="circle119"/>
	<circle cx="261.981" cy="933.04" r="4" fill="#0" id="circle120"/>
	<circle cx="261.981" cy="979.108" r="4" fill="#0" id="circle121"/>
	<circle cx="263.517" cy="34.7121" r="4" fill="#0" id="circle122"/>
	<circle cx="263.517" cy="681.201" r="4" fill="#0" id="circle123"/>
	<circle cx="277.337" cy="27.0341" r="4" fill="#0" id="circle124"/>
	<circle cx="277.337" cy="688.879" r="4" fill="#0" id="circle125"/>
	<circle cx="277.337" cy="933.04" r="4" fill="#0" id="circle126"/>
	<circle cx="277.337" cy="980.644" r="4" fill="#0" id="circle127"/>
	<circle cx="288.087" cy="945.325" r="4" fill="#0" id="circle128"/>
	<circle cx="291.158" cy="988.322" r="4" fill="#0" id="circle129"/>
	<circle cx="292.693" cy="27.0341" r="4" fill="#0" id="circle130"/>
	<circle cx="292.693" cy="687.344" r="4" fill="#0" id="circle131"/>
	<circle cx="297.3" cy="627.455" r="4" fill="#0" id="circle132"/>
	<circle cx="297.3" cy="642.811" r="4" fill="#0" id="circle133"/>
	<circle cx="297.3" cy="658.167" r="4" fill="#0" id="circle134"/>
	<circle cx="300.372" cy="956.074" r="4" fill="#0" id="circle135"/>
	<circle cx="304.978" cy="604.421" r="4" fill="#0" id="circle136"/>
	<circle cx="306.514" cy="988.322" r="4" fill="#0" id="circle137"/>
	<circle cx="308.05" cy="27.0341" r="4" fill="#0" id="circle138"/>
	<circle cx="314.192" cy="616.706" r="4" fill="#0" id="circle139"/>
	<circle cx="315.728" cy="956.074" r="4" fill="#0" id="circle140"/>
	<circle cx="320.334" cy="632.062" r="4" fill="#0" id="circle141"/>
	<circle cx="321.87" cy="19.356" r="4" fill="#0" id="circle142"/>
	<circle cx="321.87" cy="992.929" r="4" fill="#0" id="circle143"/>
	<circle cx="328.012" cy="645.882" r="4" fill="#0" id="circle144"/>
	<circle cx="331.084" cy="956.074" r="4" fill="#0" id="circle145"/>
	<circle cx="334.155" cy="661.238" r="4" fill="#0" id="circle146"/>
	<circle cx="337.226" cy="19.356" r="4" fill="#0" id="circle147"/>
	<circle cx="337.226" cy="996" r="4" fill="#0" id="circle148"/>
	<circle cx="346.44" cy="671.988" r="4" fill="#0" id="circle149"/>
	<circle cx="346.44" cy="956.074" r="4" fill="#0" id="circle150"/>
	<circle cx="352.582" cy="19.356" r="4" fill="#0" id="circle151"/>
	<circle cx="352.582" cy="996" r="4" fill="#0" id="circle152"/>
	<circle cx="361.796" cy="673.523" r="4" fill="#0" id="circle153"/>
	<circle cx="361.796" cy="956.074" r="4" fill="#0" id="circle154"/>
	<circle cx="366.402" cy="11.678" r="4" fill="#0" id="circle155"/>
	<circle cx="367.938" cy="996" r="4" fill="#0" id="circle156"/>
	<circle cx="375.616" cy="963.752" r="4" fill="#0" id="circle157"/>
	<circle cx="377.152" cy="679.666" r="4" fill="#0" id="circle158"/>
	<circle cx="381.759" cy="11.678" r="4" fill="#0" id="circle159"/>
	<circle cx="383.294" cy="996" r="4" fill="#0" id="circle160"/>
	<circle cx="389.437" cy="971.43" r="4" fill="#0" id="circle161"/>
	<circle cx="392.508" cy="681.201" r="4" fill="#0" id="circle162"/>
	<circle cx="397.115" cy="7.07121" r="4" fill="#0" id="circle163"/>
	<circle cx="407.864" cy="681.201" r="4" fill="#0" id="circle164"/>
	<circle cx="412.471" cy="4" r="4" fill="#0" id="circle165"/>
	<circle cx="423.22" cy="681.201" r="4" fill="#0" id="circle166"/>
	<circle cx="427.827" cy="4" r="4" fill="#0" id="circle167"/>
	<circle cx="438.576" cy="687.344" r="4" fill="#0" id="circle168"/>
	<circle cx="443.183" cy="4" r="4" fill="#0" id="circle169"/>
	<circle cx="453.932" cy="687.344" r="4" fill="#0" id="circle170"/>
	<circle cx="458.539" cy="4" r="4" fill="#0" id="circle171"/>
	<circle cx="469.288" cy="681.201" r="4" fill="#0" id="circle172"/>
	<circle cx="473.895" cy="4" r="4" fill="#0" id="circle173"/>
	<circle cx="484.644" cy="681.201" r="4" fill="#0" id="circle174"/>
	<circle cx="487.715" cy="11.678" r="4" fill="#0" id="circle175"/>
	<circle cx="500" cy="681.201" r="4" fill="#0" id="circle176"/>
	<circle cx="503.071" cy="14.7492" r="4" fill="#0" id="circle177"/>
	<circle cx="515.356" cy="681.201" r="4" fill="#0" id="circle178"/>
	<circle cx="518.427" cy="19.356" r="4" fill="#0" id="circle179"/>
	<circle cx="530.712" cy="681.201" r="4" fill="#0" id="circle180"/>
	<circle cx="533.783" cy="19.356" r="4" fill="#0" id="circle181"/>
	<circle cx="546.068" cy="681.201" r="4" fill="#0" id="circle182"/>
	<circle cx="547.604" cy="27.0341" r="4" fill="#0" id="circle183"/>
	<circle cx="561.424" cy="681.201" r="4" fill="#0" id="circle184"/>
	<circle cx="562.96" cy="27.0341" r="4" fill="#0" id="circle185"/>
	<circle cx="576.78" cy="681.201" r="4" fill="#0" id="circle186"/>
	<circle cx="578.316" cy="27.0341" r="4" fill="#0" id="circle187"/>
	<circle cx="592.136" cy="34.7121" r="4" fill="#0" id="circle188"/>
	<circle cx="592.136" cy="681.201" r="4" fill="#0" id="circle189"/>
	<circle cx="607.492" cy="34.7121" r="4" fill="#0" id="circle190"/>
	<circle cx="607.492" cy="679.666" r="4" fill="#0" id="circle191"/>
	<circle cx="621.313" cy="27.0341" r="4" fill="#0" id="circle192"/>
	<circle cx="622.848" cy="673.523" r="4" fill="#0" id="circle193"/>
	<circle cx="633.598" cy="37.7833" r="4" fill="#0" id="circle194"/>
	<circle cx="638.204" cy="673.523" r="4" fill="#0" id="circle195"/>
	<circle cx="639.74" cy="53.1393" r="4" fill="#0" id="circle196"/>
	<circle cx="642.811" cy="68.4954" r="4" fill="#0" id="circle197"/>
	<circle cx="642.811" cy="83.8514" r="4" fill="#0" id="circle198"/>
	<circle cx="650.489" cy="97.6718" r="4" fill="#0" id="circle199"/>
	<circle cx="652.025" cy="665.845" r="4" fill="#0" id="circle200"/>
	<circle cx="653.56" cy="113.028" r="4" fill="#0" id="circle201"/>
	<circle cx="661.238" cy="126.848" r="4" fill="#0" id="circle202"/>
	<circle cx="665.845" cy="142.204" r="4" fill="#0" id="circle203"/>
	<circle cx="667.381" cy="665.845" r="4" fill="#0" id="circle204"/>
	<circle cx="673.523" cy="156.025" r="4" fill="#0" id="circle205"/>
	<circle cx="673.523" cy="171.381" r="4" fill="#0" id="circle206"/>
	<circle cx="681.201" cy="185.201" r="4" fill="#0" id="circle207"/>
	<circle cx="681.201" cy="289.622" r="4" fill="#0" id="circle208"/>
	<circle cx="681.201" cy="304.978" r="4" fill="#0" id="circle209"/>
	<circle cx="681.201" cy="658.167" r="4" fill="#0" id="circle210"/>
	<circle cx="684.272" cy="320.334" r="4" fill="#0" id="circle211"/>
	<circle cx="687.344" cy="200.557" r="4" fill="#0" id="circle212"/>
	<circle cx="688.879" cy="215.913" r="4" fill="#0" id="circle213"/>
	<circle cx="688.879" cy="231.269" r="4" fill="#0" id="circle214"/>
	<circle cx="688.879" cy="246.625" r="4" fill="#0" id="circle215"/>
	<circle cx="688.879" cy="261.981" r="4" fill="#0" id="circle216"/>
	<circle cx="688.879" cy="335.69" r="4" fill="#0" id="circle217"/>
	<circle cx="688.879" cy="351.046" r="4" fill="#0" id="circle218"/>
	<circle cx="688.879" cy="366.402" r="4" fill="#0" id="circle219"/>
	<circle cx="688.879" cy="381.759" r="4" fill="#0" id="circle220"/>
	<circle cx="688.879" cy="397.115" r="4" fill="#0" id="circle221"/>
	<circle cx="696.557" cy="410.935" r="4" fill="#0" id="circle222"/>
	<circle cx="696.557" cy="426.291" r="4" fill="#0" id="circle223"/>
	<circle cx="696.557" cy="650.489" r="4" fill="#0" id="circle224"/>
	<circle cx="704.235" cy="440.111" r="4" fill="#0" id="circle225"/>
	<circle cx="711.913" cy="453.932" r="4" fill="#0" id="circle226"/>
	<circle cx="711.913" cy="642.811" r="4" fill="#0" id="circle227"/>
	<circle cx="718.056" cy="469.288" r="4" fill="#0" id="circle228"/>
	<circle cx="719.591" cy="484.644" r="4" fill="#0" id="circle229"/>
	<circle cx="727.269" cy="498.464" r="4" fill="#0" id="circle230"/>
	<circle cx="727.269" cy="513.82" r="4" fill="#0" id="circle231"/>
	<circle cx="727.269" cy="635.133" r="4" fill="#0" id="circle232"/>
	<circle cx="731.876" cy="529.176" r="4" fill="#0" id="circle233"/>
	<circle cx="734.947" cy="544.533" r="4" fill="#0" id="circle234"/>
	<circle cx="734.947" cy="559.889" r="4" fill="#0" id="circle235"/>
	<circle cx="734.947" cy="575.245" r="4" fill="#0" id="circle236"/>
	<circle cx="734.947" cy="590.601" r="4" fill="#0" id="circle237"/>
	<circle cx="734.947" cy="605.957" r="4" fill="#0" id="circle238"/>
	<circle cx="734.947" cy="621.313" r="4" fill="#0" id="circle239"/>
	</g>
</svg>