<?xml version="1.0" encoding="UTF-8" standalone="no"?>
<!-- Created with CurveBenchmark -->
<svg
	xmlns:dc="http://purl.org/dc/elements/1.1/"
	xmlns:cc="http://creativecommons.org/ns#"
	xmlns:rdf="http://www.w3.org/1999/02/22-rdf-syntax-ns#"
	xmlns:svg="http://www.w3.org/2000/svg"
	xmlns="http://www.w3.org/2000/svg"
	xmlns:sodipodi="http://sodipodi.sourceforge.net/DTD/sodipodi-0.dtd"
	xmlns:inkscape="http://www.inkscape.org/namespaces/inkscape"
	width="1000"
	height="1000"
	id="svg2"
	version="1.1"
	sodipodi:docname="manifold/nncrust-ray0469.png.txt">
<defs
	id="defs4" />
<metadata
	id="metadata7">
	<rdf:RDF>
		<cc:Work
			rdf:about="">
			<dc:format>image/svg+xml</dc:format>
			<dc:type
				rdf:resource="http://purl.org/dc/dcmitype/StillImage" />
			<dc:title></dc:title>
		</cc:Work>
	</rdf:RDF>
</metadata>
<g
	inkscape:label="Layer 1"
	inkscape:groupmode="layer"
	id="layer1">
	<path style="fill:none;stroke:red;stroke-width:1px;stroke-linecap:butt;stroke-linejoin:miter;stroke-opacity:1" d="M 102.391,260.087 91.6087,270.87 z" id="boundary" inkscape:connector-curvature="0" />
	<path style="fill:none;stroke:red;stroke-width:1px;stroke-linecap:butt;stroke-linejoin:miter;stroke-opacity:1" d="M 105.087,243.913 102.391,260.087 z" id="boundary" inkscape:connector-curvature="0" />
	<path style="fill:none;stroke:red;stroke-width:1px;stroke-linecap:butt;stroke-linejoin:miter;stroke-opacity:1" d="M 105.087,230.435 105.087,243.913 z" id="boundary" inkscape:connector-curvature="0" />
	<path style="fill:none;stroke:red;stroke-width:1px;stroke-linecap:butt;stroke-linejoin:miter;stroke-opacity:1" d="M 91.6087,284.348 91.6087,270.87 z" id="boundary" inkscape:connector-curvature="0" />
	<path style="fill:none;stroke:red;stroke-width:1px;stroke-linecap:butt;stroke-linejoin:miter;stroke-opacity:1" d="M 91.6087,284.348 91.6087,297.826 z" id="boundary" inkscape:connector-curvature="0" />
	<path style="fill:none;stroke:red;stroke-width:1px;stroke-linecap:butt;stroke-linejoin:miter;stroke-opacity:1" d="M 91.6087,297.826 91.6087,311.304 z" id="boundary" inkscape:connector-curvature="0" />
	<path style="fill:none;stroke:red;stroke-width:1px;stroke-linecap:butt;stroke-linejoin:miter;stroke-opacity:1" d="M 91.6087,311.304 84.8696,324.783 z" id="boundary" inkscape:connector-curvature="0" />
	<path style="fill:none;stroke:red;stroke-width:1px;stroke-linecap:butt;stroke-linejoin:miter;stroke-opacity:1" d="M 84.8696,338.261 84.8696,324.783 z" id="boundary" inkscape:connector-curvature="0" />
	<path style="fill:none;stroke:red;stroke-width:1px;stroke-linecap:butt;stroke-linejoin:miter;stroke-opacity:1" d="M 122.609,206.174 134.739,199.435 z" id="boundary" inkscape:connector-curvature="0" />
	<path style="fill:none;stroke:red;stroke-width:1px;stroke-linecap:butt;stroke-linejoin:miter;stroke-opacity:1" d="M 134.739,199.435 148.217,199.435 z" id="boundary" inkscape:connector-curvature="0" />
	<path style="fill:none;stroke:red;stroke-width:1px;stroke-linecap:butt;stroke-linejoin:miter;stroke-opacity:1" d="M 111.826,216.957 122.609,206.174 z" id="boundary" inkscape:connector-curvature="0" />
	<path style="fill:none;stroke:red;stroke-width:1px;stroke-linecap:butt;stroke-linejoin:miter;stroke-opacity:1" d="M 161.696,199.435 148.217,199.435 z" id="boundary" inkscape:connector-curvature="0" />
	<path style="fill:none;stroke:red;stroke-width:1px;stroke-linecap:butt;stroke-linejoin:miter;stroke-opacity:1" d="M 161.696,199.435 173.826,206.174 z" id="boundary" inkscape:connector-curvature="0" />
	<path style="fill:none;stroke:red;stroke-width:1px;stroke-linecap:butt;stroke-linejoin:miter;stroke-opacity:1" d="M 105.087,230.435 111.826,216.957 z" id="boundary" inkscape:connector-curvature="0" />
	<path style="fill:none;stroke:red;stroke-width:1px;stroke-linecap:butt;stroke-linejoin:miter;stroke-opacity:1" d="M 173.826,206.174 187.304,206.174 z" id="boundary" inkscape:connector-curvature="0" />
	<path style="fill:none;stroke:red;stroke-width:1px;stroke-linecap:butt;stroke-linejoin:miter;stroke-opacity:1" d="M 200.783,206.174 187.304,206.174 z" id="boundary" inkscape:connector-curvature="0" />
	<path style="fill:none;stroke:red;stroke-width:1px;stroke-linecap:butt;stroke-linejoin:miter;stroke-opacity:1" d="M 82.1739,469 71.3913,479.783 z" id="boundary" inkscape:connector-curvature="0" />
	<path style="fill:none;stroke:red;stroke-width:1px;stroke-linecap:butt;stroke-linejoin:miter;stroke-opacity:1" d="M 84.8696,446.087 82.1739,469 z" id="boundary" inkscape:connector-curvature="0" />
	<path style="fill:none;stroke:red;stroke-width:1px;stroke-linecap:butt;stroke-linejoin:miter;stroke-opacity:1" d="M 84.8696,338.261 84.8696,351.739 z" id="boundary" inkscape:connector-curvature="0" />
	<path style="fill:none;stroke:red;stroke-width:1px;stroke-linecap:butt;stroke-linejoin:miter;stroke-opacity:1" d="M 68.6957,495.957 71.3913,479.783 z" id="boundary" inkscape:connector-curvature="0" />
	<path style="fill:none;stroke:red;stroke-width:1px;stroke-linecap:butt;stroke-linejoin:miter;stroke-opacity:1" d="M 57.913,506.739 57.913,520.217 z" id="boundary" inkscape:connector-curvature="0" />
	<path style="fill:none;stroke:red;stroke-width:1px;stroke-linecap:butt;stroke-linejoin:miter;stroke-opacity:1" d="M 57.913,520.217 51.1739,533.696 z" id="boundary" inkscape:connector-curvature="0" />
	<path style="fill:none;stroke:red;stroke-width:1px;stroke-linecap:butt;stroke-linejoin:miter;stroke-opacity:1" d="M 57.913,506.739 68.6957,495.957 z" id="boundary" inkscape:connector-curvature="0" />
	<path style="fill:none;stroke:red;stroke-width:1px;stroke-linecap:butt;stroke-linejoin:miter;stroke-opacity:1" d="M 51.1739,547.174 51.1739,533.696 z" id="boundary" inkscape:connector-curvature="0" />
	<path style="fill:none;stroke:red;stroke-width:1px;stroke-linecap:butt;stroke-linejoin:miter;stroke-opacity:1" d="M 84.8696,351.739 84.8696,365.217 z" id="boundary" inkscape:connector-curvature="0" />
	<path style="fill:none;stroke:red;stroke-width:1px;stroke-linecap:butt;stroke-linejoin:miter;stroke-opacity:1" d="M 84.8696,378.696 84.8696,392.174 z" id="boundary" inkscape:connector-curvature="0" />
	<path style="fill:none;stroke:red;stroke-width:1px;stroke-linecap:butt;stroke-linejoin:miter;stroke-opacity:1" d="M 84.8696,378.696 84.8696,365.217 z" id="boundary" inkscape:connector-curvature="0" />
	<path style="fill:none;stroke:red;stroke-width:1px;stroke-linecap:butt;stroke-linejoin:miter;stroke-opacity:1" d="M 84.8696,405.652 84.8696,419.13 z" id="boundary" inkscape:connector-curvature="0" />
	<path style="fill:none;stroke:red;stroke-width:1px;stroke-linecap:butt;stroke-linejoin:miter;stroke-opacity:1" d="M 84.8696,432.609 84.8696,446.087 z" id="boundary" inkscape:connector-curvature="0" />
	<path style="fill:none;stroke:red;stroke-width:1px;stroke-linecap:butt;stroke-linejoin:miter;stroke-opacity:1" d="M 84.8696,432.609 84.8696,419.13 z" id="boundary" inkscape:connector-curvature="0" />
	<path style="fill:none;stroke:red;stroke-width:1px;stroke-linecap:butt;stroke-linejoin:miter;stroke-opacity:1" d="M 84.8696,405.652 84.8696,392.174 z" id="boundary" inkscape:connector-curvature="0" />
	<path style="fill:none;stroke:red;stroke-width:1px;stroke-linecap:butt;stroke-linejoin:miter;stroke-opacity:1" d="M 200.783,206.174 214.261,206.174 z" id="boundary" inkscape:connector-curvature="0" />
	<path style="fill:none;stroke:red;stroke-width:1px;stroke-linecap:butt;stroke-linejoin:miter;stroke-opacity:1" d="M 227.739,206.174 214.261,206.174 z" id="boundary" inkscape:connector-curvature="0" />
	<path style="fill:none;stroke:red;stroke-width:1px;stroke-linecap:butt;stroke-linejoin:miter;stroke-opacity:1" d="M 227.739,206.174 239.87,212.913 z" id="boundary" inkscape:connector-curvature="0" />
	<path style="fill:none;stroke:red;stroke-width:1px;stroke-linecap:butt;stroke-linejoin:miter;stroke-opacity:1" d="M 253.348,212.913 239.87,212.913 z" id="boundary" inkscape:connector-curvature="0" />
	<path style="fill:none;stroke:red;stroke-width:1px;stroke-linecap:butt;stroke-linejoin:miter;stroke-opacity:1" d="M 266.826,212.913 280.304,212.913 z" id="boundary" inkscape:connector-curvature="0" />
	<path style="fill:none;stroke:red;stroke-width:1px;stroke-linecap:butt;stroke-linejoin:miter;stroke-opacity:1" d="M 280.304,212.913 293.783,215.609 z" id="boundary" inkscape:connector-curvature="0" />
	<path style="fill:none;stroke:red;stroke-width:1px;stroke-linecap:butt;stroke-linejoin:miter;stroke-opacity:1" d="M 266.826,212.913 253.348,212.913 z" id="boundary" inkscape:connector-curvature="0" />
	<path style="fill:none;stroke:red;stroke-width:1px;stroke-linecap:butt;stroke-linejoin:miter;stroke-opacity:1" d="M 293.783,215.609 307.261,219.652 z" id="boundary" inkscape:connector-curvature="0" />
	<path style="fill:none;stroke:red;stroke-width:1px;stroke-linecap:butt;stroke-linejoin:miter;stroke-opacity:1" d="M 307.261,219.652 319.391,226.391 z" id="boundary" inkscape:connector-curvature="0" />
	<path style="fill:none;stroke:red;stroke-width:1px;stroke-linecap:butt;stroke-linejoin:miter;stroke-opacity:1" d="M 319.391,226.391 332.87,227.739 z" id="boundary" inkscape:connector-curvature="0" />
	<path style="fill:none;stroke:red;stroke-width:1px;stroke-linecap:butt;stroke-linejoin:miter;stroke-opacity:1" d="M 332.87,227.739 345,234.478 z" id="boundary" inkscape:connector-curvature="0" />
	<path style="fill:none;stroke:red;stroke-width:1px;stroke-linecap:butt;stroke-linejoin:miter;stroke-opacity:1" d="M 358.478,239.87 345,234.478 z" id="boundary" inkscape:connector-curvature="0" />
	<path style="fill:none;stroke:red;stroke-width:1px;stroke-linecap:butt;stroke-linejoin:miter;stroke-opacity:1" d="M 371.957,239.87 358.478,239.87 z" id="boundary" inkscape:connector-curvature="0" />
	<path style="fill:none;stroke:red;stroke-width:1px;stroke-linecap:butt;stroke-linejoin:miter;stroke-opacity:1" d="M 371.957,239.87 381.391,250.652 z" id="boundary" inkscape:connector-curvature="0" />
	<path style="fill:none;stroke:red;stroke-width:1px;stroke-linecap:butt;stroke-linejoin:miter;stroke-opacity:1" d="M 394.87,256.043 381.391,250.652 z" id="boundary" inkscape:connector-curvature="0" />
	<path style="fill:none;stroke:red;stroke-width:1px;stroke-linecap:butt;stroke-linejoin:miter;stroke-opacity:1" d="M 394.87,256.043 402.957,266.826 z" id="boundary" inkscape:connector-curvature="0" />
	<path style="fill:none;stroke:red;stroke-width:1px;stroke-linecap:butt;stroke-linejoin:miter;stroke-opacity:1" d="M 416.435,266.826 402.957,266.826 z" id="boundary" inkscape:connector-curvature="0" />
	<path style="fill:none;stroke:red;stroke-width:1px;stroke-linecap:butt;stroke-linejoin:miter;stroke-opacity:1" d="M 416.435,266.826 429.913,270.87 z" id="boundary" inkscape:connector-curvature="0" />
	<path style="fill:none;stroke:red;stroke-width:1px;stroke-linecap:butt;stroke-linejoin:miter;stroke-opacity:1" d="M 442.043,277.609 450.13,288.391 z" id="boundary" inkscape:connector-curvature="0" />
	<path style="fill:none;stroke:red;stroke-width:1px;stroke-linecap:butt;stroke-linejoin:miter;stroke-opacity:1" d="M 429.913,270.87 442.043,277.609 z" id="boundary" inkscape:connector-curvature="0" />
	<path style="fill:none;stroke:red;stroke-width:1px;stroke-linecap:butt;stroke-linejoin:miter;stroke-opacity:1" d="M 460.913,296.478 450.13,288.391 z" id="boundary" inkscape:connector-curvature="0" />
	<path style="fill:none;stroke:red;stroke-width:1px;stroke-linecap:butt;stroke-linejoin:miter;stroke-opacity:1" d="M 460.913,296.478 470.348,307.261 z" id="boundary" inkscape:connector-curvature="0" />
	<path style="fill:none;stroke:red;stroke-width:1px;stroke-linecap:butt;stroke-linejoin:miter;stroke-opacity:1" d="M 483.826,307.261 470.348,307.261 z" id="boundary" inkscape:connector-curvature="0" />
	<path style="fill:none;stroke:red;stroke-width:1px;stroke-linecap:butt;stroke-linejoin:miter;stroke-opacity:1" d="M 483.826,307.261 497.304,307.261 z" id="boundary" inkscape:connector-curvature="0" />
	<path style="fill:none;stroke:red;stroke-width:1px;stroke-linecap:butt;stroke-linejoin:miter;stroke-opacity:1" d="M 510.783,311.304 520.217,322.087 z" id="boundary" inkscape:connector-curvature="0" />
	<path style="fill:none;stroke:red;stroke-width:1px;stroke-linecap:butt;stroke-linejoin:miter;stroke-opacity:1" d="M 497.304,307.261 510.783,311.304 z" id="boundary" inkscape:connector-curvature="0" />
	<path style="fill:none;stroke:red;stroke-width:1px;stroke-linecap:butt;stroke-linejoin:miter;stroke-opacity:1" d="M 520.217,322.087 531,331.522 z" id="boundary" inkscape:connector-curvature="0" />
	<path style="fill:none;stroke:red;stroke-width:1px;stroke-linecap:butt;stroke-linejoin:miter;stroke-opacity:1" d="M 531,331.522 541.783,340.957 z" id="boundary" inkscape:connector-curvature="0" />
	<path style="fill:none;stroke:red;stroke-width:1px;stroke-linecap:butt;stroke-linejoin:miter;stroke-opacity:1" d="M 541.783,340.957 555.261,340.957 z" id="boundary" inkscape:connector-curvature="0" />
	<path style="fill:none;stroke:red;stroke-width:1px;stroke-linecap:butt;stroke-linejoin:miter;stroke-opacity:1" d="M 564.696,330.174 555.261,340.957 z" id="boundary" inkscape:connector-curvature="0" />
	<path style="fill:none;stroke:red;stroke-width:1px;stroke-linecap:butt;stroke-linejoin:miter;stroke-opacity:1" d="M 37.6957,601.087 37.6957,614.565 z" id="boundary" inkscape:connector-curvature="0" />
	<path style="fill:none;stroke:red;stroke-width:1px;stroke-linecap:butt;stroke-linejoin:miter;stroke-opacity:1" d="M 37.6957,601.087 44.4348,580.87 z" id="boundary" inkscape:connector-curvature="0" />
	<path style="fill:none;stroke:red;stroke-width:1px;stroke-linecap:butt;stroke-linejoin:miter;stroke-opacity:1" d="M 37.6957,628.043 37.6957,614.565 z" id="boundary" inkscape:connector-curvature="0" />
	<path style="fill:none;stroke:red;stroke-width:1px;stroke-linecap:butt;stroke-linejoin:miter;stroke-opacity:1" d="M 10.7391,749.348 21.5217,738.565 z" id="boundary" inkscape:connector-curvature="0" />
	<path style="fill:none;stroke:red;stroke-width:1px;stroke-linecap:butt;stroke-linejoin:miter;stroke-opacity:1" d="M 28.2609,725.087 21.5217,738.565 z" id="boundary" inkscape:connector-curvature="0" />
	<path style="fill:none;stroke:red;stroke-width:1px;stroke-linecap:butt;stroke-linejoin:miter;stroke-opacity:1" d="M 28.2609,725.087 35,711.609 z" id="boundary" inkscape:connector-curvature="0" />
	<path style="fill:none;stroke:red;stroke-width:1px;stroke-linecap:butt;stroke-linejoin:miter;stroke-opacity:1" d="M 37.6957,695.435 35,711.609 z" id="boundary" inkscape:connector-curvature="0" />
	<path style="fill:none;stroke:red;stroke-width:1px;stroke-linecap:butt;stroke-linejoin:miter;stroke-opacity:1" d="M 37.6957,628.043 37.6957,641.522 z" id="boundary" inkscape:connector-curvature="0" />
	<path style="fill:none;stroke:red;stroke-width:1px;stroke-linecap:butt;stroke-linejoin:miter;stroke-opacity:1" d="M 10.7391,749.348 4,769.565 z" id="boundary" inkscape:connector-curvature="0" />
	<path style="fill:none;stroke:red;stroke-width:1px;stroke-linecap:butt;stroke-linejoin:miter;stroke-opacity:1" d="M 44.4348,567.391 44.4348,580.87 z" id="boundary" inkscape:connector-curvature="0" />
	<path style="fill:none;stroke:red;stroke-width:1px;stroke-linecap:butt;stroke-linejoin:miter;stroke-opacity:1" d="M 37.6957,655 37.6957,641.522 z" id="boundary" inkscape:connector-curvature="0" />
	<path style="fill:none;stroke:red;stroke-width:1px;stroke-linecap:butt;stroke-linejoin:miter;stroke-opacity:1" d="M 44.4348,567.391 51.1739,547.174 z" id="boundary" inkscape:connector-curvature="0" />
	<path style="fill:none;stroke:red;stroke-width:1px;stroke-linecap:butt;stroke-linejoin:miter;stroke-opacity:1" d="M 37.6957,655 37.6957,668.478 z" id="boundary" inkscape:connector-curvature="0" />
	<path style="fill:none;stroke:red;stroke-width:1px;stroke-linecap:butt;stroke-linejoin:miter;stroke-opacity:1" d="M 37.6957,681.957 37.6957,695.435 z" id="boundary" inkscape:connector-curvature="0" />
	<path style="fill:none;stroke:red;stroke-width:1px;stroke-linecap:butt;stroke-linejoin:miter;stroke-opacity:1" d="M 37.6957,681.957 37.6957,668.478 z" id="boundary" inkscape:connector-curvature="0" />
	<path style="fill:none;stroke:red;stroke-width:1px;stroke-linecap:butt;stroke-linejoin:miter;stroke-opacity:1" d="M 39.0435,787.087 25.5652,787.087 z" id="boundary" inkscape:connector-curvature="0" />
	<path style="fill:none;stroke:red;stroke-width:1px;stroke-linecap:butt;stroke-linejoin:miter;stroke-opacity:1" d="M 25.5652,787.087 14.7826,779 z" id="boundary" inkscape:connector-curvature="0" />
	<path style="fill:none;stroke:red;stroke-width:1px;stroke-linecap:butt;stroke-linejoin:miter;stroke-opacity:1" d="M 14.7826,779 4,769.565 z" id="boundary" inkscape:connector-curvature="0" />
	<path style="fill:none;stroke:red;stroke-width:1px;stroke-linecap:butt;stroke-linejoin:miter;stroke-opacity:1" d="M 39.0435,787.087 52.5217,787.087 z" id="boundary" inkscape:connector-curvature="0" />
	<path style="fill:none;stroke:red;stroke-width:1px;stroke-linecap:butt;stroke-linejoin:miter;stroke-opacity:1" d="M 52.5217,787.087 64.6522,793.826 z" id="boundary" inkscape:connector-curvature="0" />
	<path style="fill:none;stroke:red;stroke-width:1px;stroke-linecap:butt;stroke-linejoin:miter;stroke-opacity:1" d="M 64.6522,793.826 78.1304,793.826 z" id="boundary" inkscape:connector-curvature="0" />
	<path style="fill:none;stroke:red;stroke-width:1px;stroke-linecap:butt;stroke-linejoin:miter;stroke-opacity:1" d="M 78.1304,793.826 90.2609,800.565 z" id="boundary" inkscape:connector-curvature="0" />
	<path style="fill:none;stroke:red;stroke-width:1px;stroke-linecap:butt;stroke-linejoin:miter;stroke-opacity:1" d="M 90.2609,800.565 103.739,800.565 z" id="boundary" inkscape:connector-curvature="0" />
	<path style="fill:none;stroke:red;stroke-width:1px;stroke-linecap:butt;stroke-linejoin:miter;stroke-opacity:1" d="M 103.739,800.565 115.87,807.304 z" id="boundary" inkscape:connector-curvature="0" />
	<path style="fill:none;stroke:red;stroke-width:1px;stroke-linecap:butt;stroke-linejoin:miter;stroke-opacity:1" d="M 115.87,807.304 126.652,816.739 z" id="boundary" inkscape:connector-curvature="0" />
	<path style="fill:none;stroke:red;stroke-width:1px;stroke-linecap:butt;stroke-linejoin:miter;stroke-opacity:1" d="M 140.13,820.783 126.652,816.739 z" id="boundary" inkscape:connector-curvature="0" />
	<path style="fill:none;stroke:red;stroke-width:1px;stroke-linecap:butt;stroke-linejoin:miter;stroke-opacity:1" d="M 140.13,820.783 153.609,823.478 z" id="boundary" inkscape:connector-curvature="0" />
	<path style="fill:none;stroke:red;stroke-width:1px;stroke-linecap:butt;stroke-linejoin:miter;stroke-opacity:1" d="M 153.609,823.478 163.043,834.261 z" id="boundary" inkscape:connector-curvature="0" />
	<path style="fill:none;stroke:red;stroke-width:1px;stroke-linecap:butt;stroke-linejoin:miter;stroke-opacity:1" d="M 163.043,834.261 173.826,843.696 z" id="boundary" inkscape:connector-curvature="0" />
	<path style="fill:none;stroke:red;stroke-width:1px;stroke-linecap:butt;stroke-linejoin:miter;stroke-opacity:1" d="M 187.304,847.739 173.826,843.696 z" id="boundary" inkscape:connector-curvature="0" />
	<path style="fill:none;stroke:red;stroke-width:1px;stroke-linecap:butt;stroke-linejoin:miter;stroke-opacity:1" d="M 187.304,847.739 200.783,847.739 z" id="boundary" inkscape:connector-curvature="0" />
	<path style="fill:none;stroke:red;stroke-width:1px;stroke-linecap:butt;stroke-linejoin:miter;stroke-opacity:1" d="M 200.783,847.739 212.913,854.478 z" id="boundary" inkscape:connector-curvature="0" />
	<path style="fill:none;stroke:red;stroke-width:1px;stroke-linecap:butt;stroke-linejoin:miter;stroke-opacity:1" d="M 212.913,854.478 225.043,861.217 z" id="boundary" inkscape:connector-curvature="0" />
	<path style="fill:none;stroke:red;stroke-width:1px;stroke-linecap:butt;stroke-linejoin:miter;stroke-opacity:1" d="M 225.043,861.217 237.174,867.957 z" id="boundary" inkscape:connector-curvature="0" />
	<path style="fill:none;stroke:red;stroke-width:1px;stroke-linecap:butt;stroke-linejoin:miter;stroke-opacity:1" d="M 250.652,867.957 237.174,867.957 z" id="boundary" inkscape:connector-curvature="0" />
	<path style="fill:none;stroke:red;stroke-width:1px;stroke-linecap:butt;stroke-linejoin:miter;stroke-opacity:1" d="M 250.652,867.957 264.13,873.348 z" id="boundary" inkscape:connector-curvature="0" />
	<path style="fill:none;stroke:red;stroke-width:1px;stroke-linecap:butt;stroke-linejoin:miter;stroke-opacity:1" d="M 277.609,874.696 264.13,873.348 z" id="boundary" inkscape:connector-curvature="0" />
	<path style="fill:none;stroke:red;stroke-width:1px;stroke-linecap:butt;stroke-linejoin:miter;stroke-opacity:1" d="M 291.087,880.087 277.609,874.696 z" id="boundary" inkscape:connector-curvature="0" />
	<path style="fill:none;stroke:red;stroke-width:1px;stroke-linecap:butt;stroke-linejoin:miter;stroke-opacity:1" d="M 304.565,881.435 291.087,880.087 z" id="boundary" inkscape:connector-curvature="0" />
	<path style="fill:none;stroke:red;stroke-width:1px;stroke-linecap:butt;stroke-linejoin:miter;stroke-opacity:1" d="M 304.565,881.435 316.696,888.174 z" id="boundary" inkscape:connector-curvature="0" />
	<path style="fill:none;stroke:red;stroke-width:1px;stroke-linecap:butt;stroke-linejoin:miter;stroke-opacity:1" d="M 330.174,888.174 316.696,888.174 z" id="boundary" inkscape:connector-curvature="0" />
	<path style="fill:none;stroke:red;stroke-width:1px;stroke-linecap:butt;stroke-linejoin:miter;stroke-opacity:1" d="M 330.174,888.174 336.913,900.304 z" id="boundary" inkscape:connector-curvature="0" />
	<path style="fill:none;stroke:red;stroke-width:1px;stroke-linecap:butt;stroke-linejoin:miter;stroke-opacity:1" d="M 350.391,901.652 336.913,900.304 z" id="boundary" inkscape:connector-curvature="0" />
	<path style="fill:none;stroke:red;stroke-width:1px;stroke-linecap:butt;stroke-linejoin:miter;stroke-opacity:1" d="M 363.87,905.696 350.391,901.652 z" id="boundary" inkscape:connector-curvature="0" />
	<path style="fill:none;stroke:red;stroke-width:1px;stroke-linecap:butt;stroke-linejoin:miter;stroke-opacity:1" d="M 363.87,905.696 374.652,915.13 z" id="boundary" inkscape:connector-curvature="0" />
	<path style="fill:none;stroke:red;stroke-width:1px;stroke-linecap:butt;stroke-linejoin:miter;stroke-opacity:1" d="M 374.652,915.13 382.739,925.913 z" id="boundary" inkscape:connector-curvature="0" />
	<path style="fill:none;stroke:red;stroke-width:1px;stroke-linecap:butt;stroke-linejoin:miter;stroke-opacity:1" d="M 393.522,935.348 382.739,925.913 z" id="boundary" inkscape:connector-curvature="0" />
	<path style="fill:none;stroke:red;stroke-width:1px;stroke-linecap:butt;stroke-linejoin:miter;stroke-opacity:1" d="M 393.522,935.348 402.957,946.13 z" id="boundary" inkscape:connector-curvature="0" />
	<path style="fill:none;stroke:red;stroke-width:1px;stroke-linecap:butt;stroke-linejoin:miter;stroke-opacity:1" d="M 413.739,955.565 425.87,962.304 z" id="boundary" inkscape:connector-curvature="0" />
	<path style="fill:none;stroke:red;stroke-width:1px;stroke-linecap:butt;stroke-linejoin:miter;stroke-opacity:1" d="M 439.348,962.304 425.87,962.304 z" id="boundary" inkscape:connector-curvature="0" />
	<path style="fill:none;stroke:red;stroke-width:1px;stroke-linecap:butt;stroke-linejoin:miter;stroke-opacity:1" d="M 439.348,962.304 452.826,967.696 z" id="boundary" inkscape:connector-curvature="0" />
	<path style="fill:none;stroke:red;stroke-width:1px;stroke-linecap:butt;stroke-linejoin:miter;stroke-opacity:1" d="M 413.739,955.565 402.957,946.13 z" id="boundary" inkscape:connector-curvature="0" />
	<path style="fill:none;stroke:red;stroke-width:1px;stroke-linecap:butt;stroke-linejoin:miter;stroke-opacity:1" d="M 452.826,967.696 463.609,975.783 z" id="boundary" inkscape:connector-curvature="0" />
	<path style="fill:none;stroke:red;stroke-width:1px;stroke-linecap:butt;stroke-linejoin:miter;stroke-opacity:1" d="M 463.609,975.783 477.087,978.478 z" id="boundary" inkscape:connector-curvature="0" />
	<path style="fill:none;stroke:red;stroke-width:1px;stroke-linecap:butt;stroke-linejoin:miter;stroke-opacity:1" d="M 490.565,982.522 502.696,989.261 z" id="boundary" inkscape:connector-curvature="0" />
	<path style="fill:none;stroke:red;stroke-width:1px;stroke-linecap:butt;stroke-linejoin:miter;stroke-opacity:1" d="M 477.087,978.478 490.565,982.522 z" id="boundary" inkscape:connector-curvature="0" />
	<path style="fill:none;stroke:red;stroke-width:1px;stroke-linecap:butt;stroke-linejoin:miter;stroke-opacity:1" d="M 516.174,989.261 502.696,989.261 z" id="boundary" inkscape:connector-curvature="0" />
	<path style="fill:none;stroke:red;stroke-width:1px;stroke-linecap:butt;stroke-linejoin:miter;stroke-opacity:1" d="M 516.174,989.261 529.652,989.261 z" id="boundary" inkscape:connector-curvature="0" />
	<path style="fill:none;stroke:red;stroke-width:1px;stroke-linecap:butt;stroke-linejoin:miter;stroke-opacity:1" d="M 529.652,989.261 541.783,996 z" id="boundary" inkscape:connector-curvature="0" />
	<path style="fill:none;stroke:red;stroke-width:1px;stroke-linecap:butt;stroke-linejoin:miter;stroke-opacity:1" d="M 553.913,989.261 541.783,996 z" id="boundary" inkscape:connector-curvature="0" />
	<path style="fill:none;stroke:red;stroke-width:1px;stroke-linecap:butt;stroke-linejoin:miter;stroke-opacity:1" d="M 564.696,975.783 553.913,989.261 z" id="boundary" inkscape:connector-curvature="0" />
	<path style="fill:none;stroke:red;stroke-width:1px;stroke-linecap:butt;stroke-linejoin:miter;stroke-opacity:1" d="M 564.696,330.174 578.174,327.478 z" id="boundary" inkscape:connector-curvature="0" />
	<path style="fill:none;stroke:red;stroke-width:1px;stroke-linecap:butt;stroke-linejoin:miter;stroke-opacity:1" d="M 819.435,33.6522 812.696,21.5217 z" id="boundary" inkscape:connector-curvature="0" />
	<path style="fill:none;stroke:red;stroke-width:1px;stroke-linecap:butt;stroke-linejoin:miter;stroke-opacity:1" d="M 812.696,21.5217 812.696,8.04348 z" id="boundary" inkscape:connector-curvature="0" />
	<path style="fill:none;stroke:red;stroke-width:1px;stroke-linecap:butt;stroke-linejoin:miter;stroke-opacity:1" d="M 812.696,8.04348 826.174,6.69565 z" id="boundary" inkscape:connector-curvature="0" />
	<path style="fill:none;stroke:red;stroke-width:1px;stroke-linecap:butt;stroke-linejoin:miter;stroke-opacity:1" d="M 819.435,33.6522 819.435,47.1304 z" id="boundary" inkscape:connector-curvature="0" />
	<path style="fill:none;stroke:red;stroke-width:1px;stroke-linecap:butt;stroke-linejoin:miter;stroke-opacity:1" d="M 819.435,60.6087 819.435,74.087 z" id="boundary" inkscape:connector-curvature="0" />
	<path style="fill:none;stroke:red;stroke-width:1px;stroke-linecap:butt;stroke-linejoin:miter;stroke-opacity:1" d="M 819.435,47.1304 819.435,60.6087 z" id="boundary" inkscape:connector-curvature="0" />
	<path style="fill:none;stroke:red;stroke-width:1px;stroke-linecap:butt;stroke-linejoin:miter;stroke-opacity:1" d="M 819.435,74.087 819.435,87.5652 z" id="boundary" inkscape:connector-curvature="0" />
	<path style="fill:none;stroke:red;stroke-width:1px;stroke-linecap:butt;stroke-linejoin:miter;stroke-opacity:1" d="M 819.435,257.391 810,273.565 z" id="boundary" inkscape:connector-curvature="0" />
	<path style="fill:none;stroke:red;stroke-width:1px;stroke-linecap:butt;stroke-linejoin:miter;stroke-opacity:1" d="M 810,273.565 799.217,284.348 z" id="boundary" inkscape:connector-curvature="0" />
	<path style="fill:none;stroke:red;stroke-width:1px;stroke-linecap:butt;stroke-linejoin:miter;stroke-opacity:1" d="M 826.174,6.69565 838.304,13.4348 z" id="boundary" inkscape:connector-curvature="0" />
	<path style="fill:none;stroke:red;stroke-width:1px;stroke-linecap:butt;stroke-linejoin:miter;stroke-opacity:1" d="M 838.304,106.435 826.174,99.6957 z" id="boundary" inkscape:connector-curvature="0" />
	<path style="fill:none;stroke:red;stroke-width:1px;stroke-linecap:butt;stroke-linejoin:miter;stroke-opacity:1" d="M 826.174,99.6957 819.435,87.5652 z" id="boundary" inkscape:connector-curvature="0" />
	<path style="fill:none;stroke:red;stroke-width:1px;stroke-linecap:butt;stroke-linejoin:miter;stroke-opacity:1" d="M 851.783,10.7391 838.304,13.4348 z" id="boundary" inkscape:connector-curvature="0" />
	<path style="fill:none;stroke:red;stroke-width:1px;stroke-linecap:butt;stroke-linejoin:miter;stroke-opacity:1" d="M 826.174,243.913 836.957,233.13 z" id="boundary" inkscape:connector-curvature="0" />
	<path style="fill:none;stroke:red;stroke-width:1px;stroke-linecap:butt;stroke-linejoin:miter;stroke-opacity:1" d="M 839.652,216.957 836.957,233.13 z" id="boundary" inkscape:connector-curvature="0" />
	<path style="fill:none;stroke:red;stroke-width:1px;stroke-linecap:butt;stroke-linejoin:miter;stroke-opacity:1" d="M 845.043,292.435 838.304,305.913 z" id="boundary" inkscape:connector-curvature="0" />
	<path style="fill:none;stroke:red;stroke-width:1px;stroke-linecap:butt;stroke-linejoin:miter;stroke-opacity:1" d="M 826.174,243.913 819.435,257.391 z" id="boundary" inkscape:connector-curvature="0" />
	<path style="fill:none;stroke:red;stroke-width:1px;stroke-linecap:butt;stroke-linejoin:miter;stroke-opacity:1" d="M 603.783,318.043 617.261,314 z" id="boundary" inkscape:connector-curvature="0" />
	<path style="fill:none;stroke:red;stroke-width:1px;stroke-linecap:butt;stroke-linejoin:miter;stroke-opacity:1" d="M 630.739,314 617.261,314 z" id="boundary" inkscape:connector-curvature="0" />
	<path style="fill:none;stroke:red;stroke-width:1px;stroke-linecap:butt;stroke-linejoin:miter;stroke-opacity:1" d="M 644.217,316.696 630.739,314 z" id="boundary" inkscape:connector-curvature="0" />
	<path style="fill:none;stroke:red;stroke-width:1px;stroke-linecap:butt;stroke-linejoin:miter;stroke-opacity:1" d="M 578.174,327.478 590.304,320.739 z" id="boundary" inkscape:connector-curvature="0" />
	<path style="fill:none;stroke:red;stroke-width:1px;stroke-linecap:butt;stroke-linejoin:miter;stroke-opacity:1" d="M 590.304,320.739 603.783,318.043 z" id="boundary" inkscape:connector-curvature="0" />
	<path style="fill:none;stroke:red;stroke-width:1px;stroke-linecap:butt;stroke-linejoin:miter;stroke-opacity:1" d="M 644.217,316.696 656.348,323.435 z" id="boundary" inkscape:connector-curvature="0" />
	<path style="fill:none;stroke:red;stroke-width:1px;stroke-linecap:butt;stroke-linejoin:miter;stroke-opacity:1" d="M 785.739,311.304 796.522,300.522 z" id="boundary" inkscape:connector-curvature="0" />
	<path style="fill:none;stroke:red;stroke-width:1px;stroke-linecap:butt;stroke-linejoin:miter;stroke-opacity:1" d="M 799.217,284.348 796.522,300.522 z" id="boundary" inkscape:connector-curvature="0" />
	<path style="fill:none;stroke:red;stroke-width:1px;stroke-linecap:butt;stroke-linejoin:miter;stroke-opacity:1" d="M 785.739,311.304 774.957,320.739 z" id="boundary" inkscape:connector-curvature="0" />
	<path style="fill:none;stroke:red;stroke-width:1px;stroke-linecap:butt;stroke-linejoin:miter;stroke-opacity:1" d="M 838.304,305.913 827.522,315.348 z" id="boundary" inkscape:connector-curvature="0" />
	<path style="fill:none;stroke:red;stroke-width:1px;stroke-linecap:butt;stroke-linejoin:miter;stroke-opacity:1" d="M 762.826,327.478 774.957,320.739 z" id="boundary" inkscape:connector-curvature="0" />
	<path style="fill:none;stroke:red;stroke-width:1px;stroke-linecap:butt;stroke-linejoin:miter;stroke-opacity:1" d="M 814.043,328.826 827.522,315.348 z" id="boundary" inkscape:connector-curvature="0" />
	<path style="fill:none;stroke:red;stroke-width:1px;stroke-linecap:butt;stroke-linejoin:miter;stroke-opacity:1" d="M 814.043,328.826 804.609,339.609 z" id="boundary" inkscape:connector-curvature="0" />
	<path style="fill:none;stroke:red;stroke-width:1px;stroke-linecap:butt;stroke-linejoin:miter;stroke-opacity:1" d="M 838.304,106.435 843.696,119.913 z" id="boundary" inkscape:connector-curvature="0" />
	<path style="fill:none;stroke:red;stroke-width:1px;stroke-linecap:butt;stroke-linejoin:miter;stroke-opacity:1" d="M 851.783,10.7391 863.913,4 z" id="boundary" inkscape:connector-curvature="0" />
	<path style="fill:none;stroke:red;stroke-width:1px;stroke-linecap:butt;stroke-linejoin:miter;stroke-opacity:1" d="M 863.913,4 867.957,17.4783 z" id="boundary" inkscape:connector-curvature="0" />
	<path style="fill:none;stroke:red;stroke-width:1px;stroke-linecap:butt;stroke-linejoin:miter;stroke-opacity:1" d="M 874.696,29.6087 867.957,17.4783 z" id="boundary" inkscape:connector-curvature="0" />
	<path style="fill:none;stroke:red;stroke-width:1px;stroke-linecap:butt;stroke-linejoin:miter;stroke-opacity:1" d="M 843.696,119.913 853.13,130.696 z" id="boundary" inkscape:connector-curvature="0" />
	<path style="fill:none;stroke:red;stroke-width:1px;stroke-linecap:butt;stroke-linejoin:miter;stroke-opacity:1" d="M 853.13,130.696 853.13,144.174 z" id="boundary" inkscape:connector-curvature="0" />
	<path style="fill:none;stroke:red;stroke-width:1px;stroke-linecap:butt;stroke-linejoin:miter;stroke-opacity:1" d="M 881.435,41.7391 886.826,55.2174 z" id="boundary" inkscape:connector-curvature="0" />
	<path style="fill:none;stroke:red;stroke-width:1px;stroke-linecap:butt;stroke-linejoin:miter;stroke-opacity:1" d="M 874.696,29.6087 881.435,41.7391 z" id="boundary" inkscape:connector-curvature="0" />
	<path style="fill:none;stroke:red;stroke-width:1px;stroke-linecap:butt;stroke-linejoin:miter;stroke-opacity:1" d="M 853.13,144.174 853.13,157.652 z" id="boundary" inkscape:connector-curvature="0" />
	<path style="fill:none;stroke:red;stroke-width:1px;stroke-linecap:butt;stroke-linejoin:miter;stroke-opacity:1" d="M 886.826,55.2174 888.174,68.6957 z" id="boundary" inkscape:connector-curvature="0" />
	<path style="fill:none;stroke:red;stroke-width:1px;stroke-linecap:butt;stroke-linejoin:miter;stroke-opacity:1" d="M 888.174,82.1739 888.174,95.6522 z" id="boundary" inkscape:connector-curvature="0" />
	<path style="fill:none;stroke:red;stroke-width:1px;stroke-linecap:butt;stroke-linejoin:miter;stroke-opacity:1" d="M 888.174,82.1739 888.174,68.6957 z" id="boundary" inkscape:connector-curvature="0" />
	<path style="fill:none;stroke:red;stroke-width:1px;stroke-linecap:butt;stroke-linejoin:miter;stroke-opacity:1" d="M 893.565,109.13 894.913,122.609 z" id="boundary" inkscape:connector-curvature="0" />
	<path style="fill:none;stroke:red;stroke-width:1px;stroke-linecap:butt;stroke-linejoin:miter;stroke-opacity:1" d="M 893.565,109.13 888.174,95.6522 z" id="boundary" inkscape:connector-curvature="0" />
	<path style="fill:none;stroke:red;stroke-width:1px;stroke-linecap:butt;stroke-linejoin:miter;stroke-opacity:1" d="M 894.913,122.609 894.913,136.087 z" id="boundary" inkscape:connector-curvature="0" />
	<path style="fill:none;stroke:red;stroke-width:1px;stroke-linecap:butt;stroke-linejoin:miter;stroke-opacity:1" d="M 894.913,136.087 888.174,160.348 z" id="boundary" inkscape:connector-curvature="0" />
	<path style="fill:none;stroke:red;stroke-width:1px;stroke-linecap:butt;stroke-linejoin:miter;stroke-opacity:1" d="M 846.391,203.478 839.652,216.957 z" id="boundary" inkscape:connector-curvature="0" />
	<path style="fill:none;stroke:red;stroke-width:1px;stroke-linecap:butt;stroke-linejoin:miter;stroke-opacity:1" d="M 853.13,171.13 853.13,184.609 z" id="boundary" inkscape:connector-curvature="0" />
	<path style="fill:none;stroke:red;stroke-width:1px;stroke-linecap:butt;stroke-linejoin:miter;stroke-opacity:1" d="M 853.13,184.609 846.391,203.478 z" id="boundary" inkscape:connector-curvature="0" />
	<path style="fill:none;stroke:red;stroke-width:1px;stroke-linecap:butt;stroke-linejoin:miter;stroke-opacity:1" d="M 854.478,268.174 854.478,281.652 z" id="boundary" inkscape:connector-curvature="0" />
	<path style="fill:none;stroke:red;stroke-width:1px;stroke-linecap:butt;stroke-linejoin:miter;stroke-opacity:1" d="M 854.478,281.652 845.043,292.435 z" id="boundary" inkscape:connector-curvature="0" />
	<path style="fill:none;stroke:red;stroke-width:1px;stroke-linecap:butt;stroke-linejoin:miter;stroke-opacity:1" d="M 854.478,268.174 861.217,254.696 z" id="boundary" inkscape:connector-curvature="0" />
	<path style="fill:none;stroke:red;stroke-width:1px;stroke-linecap:butt;stroke-linejoin:miter;stroke-opacity:1" d="M 853.13,171.13 853.13,157.652 z" id="boundary" inkscape:connector-curvature="0" />
	<path style="fill:none;stroke:red;stroke-width:1px;stroke-linecap:butt;stroke-linejoin:miter;stroke-opacity:1" d="M 888.174,173.826 888.174,187.304 z" id="boundary" inkscape:connector-curvature="0" />
	<path style="fill:none;stroke:red;stroke-width:1px;stroke-linecap:butt;stroke-linejoin:miter;stroke-opacity:1" d="M 885.478,204.826 874.696,214.261 z" id="boundary" inkscape:connector-curvature="0" />
	<path style="fill:none;stroke:red;stroke-width:1px;stroke-linecap:butt;stroke-linejoin:miter;stroke-opacity:1" d="M 888.174,187.304 885.478,204.826 z" id="boundary" inkscape:connector-curvature="0" />
	<path style="fill:none;stroke:red;stroke-width:1px;stroke-linecap:butt;stroke-linejoin:miter;stroke-opacity:1" d="M 888.174,173.826 888.174,160.348 z" id="boundary" inkscape:connector-curvature="0" />
	<path style="fill:none;stroke:red;stroke-width:1px;stroke-linecap:butt;stroke-linejoin:miter;stroke-opacity:1" d="M 861.217,254.696 867.957,241.217 z" id="boundary" inkscape:connector-curvature="0" />
	<path style="fill:none;stroke:red;stroke-width:1px;stroke-linecap:butt;stroke-linejoin:miter;stroke-opacity:1" d="M 874.696,227.739 867.957,241.217 z" id="boundary" inkscape:connector-curvature="0" />
	<path style="fill:none;stroke:red;stroke-width:1px;stroke-linecap:butt;stroke-linejoin:miter;stroke-opacity:1" d="M 874.696,227.739 874.696,214.261 z" id="boundary" inkscape:connector-curvature="0" />
	<path style="fill:none;stroke:red;stroke-width:1px;stroke-linecap:butt;stroke-linejoin:miter;stroke-opacity:1" d="M 661.739,645.565 659.043,632.087 z" id="boundary" inkscape:connector-curvature="0" />
	<path style="fill:none;stroke:red;stroke-width:1px;stroke-linecap:butt;stroke-linejoin:miter;stroke-opacity:1" d="M 659.043,632.087 669.826,622.652 z" id="boundary" inkscape:connector-curvature="0" />
	<path style="fill:none;stroke:red;stroke-width:1px;stroke-linecap:butt;stroke-linejoin:miter;stroke-opacity:1" d="M 652.304,753.391 652.304,766.87 z" id="boundary" inkscape:connector-curvature="0" />
	<path style="fill:none;stroke:red;stroke-width:1px;stroke-linecap:butt;stroke-linejoin:miter;stroke-opacity:1" d="M 652.304,766.87 645.565,780.348 z" id="boundary" inkscape:connector-curvature="0" />
	<path style="fill:none;stroke:red;stroke-width:1px;stroke-linecap:butt;stroke-linejoin:miter;stroke-opacity:1" d="M 652.304,753.391 659.043,739.913 z" id="boundary" inkscape:connector-curvature="0" />
	<path style="fill:none;stroke:red;stroke-width:1px;stroke-linecap:butt;stroke-linejoin:miter;stroke-opacity:1" d="M 659.043,739.913 665.783,726.435 z" id="boundary" inkscape:connector-curvature="0" />
	<path style="fill:none;stroke:red;stroke-width:1px;stroke-linecap:butt;stroke-linejoin:miter;stroke-opacity:1" d="M 665.783,659.043 665.783,672.522 z" id="boundary" inkscape:connector-curvature="0" />
	<path style="fill:none;stroke:red;stroke-width:1px;stroke-linecap:butt;stroke-linejoin:miter;stroke-opacity:1" d="M 661.739,645.565 665.783,659.043 z" id="boundary" inkscape:connector-curvature="0" />
	<path style="fill:none;stroke:red;stroke-width:1px;stroke-linecap:butt;stroke-linejoin:miter;stroke-opacity:1" d="M 669.826,622.652 679.261,603.783 z" id="boundary" inkscape:connector-curvature="0" />
	<path style="fill:none;stroke:red;stroke-width:1px;stroke-linecap:butt;stroke-linejoin:miter;stroke-opacity:1" d="M 665.783,686 665.783,672.522 z" id="boundary" inkscape:connector-curvature="0" />
	<path style="fill:none;stroke:red;stroke-width:1px;stroke-linecap:butt;stroke-linejoin:miter;stroke-opacity:1" d="M 665.783,686 665.783,699.478 z" id="boundary" inkscape:connector-curvature="0" />
	<path style="fill:none;stroke:red;stroke-width:1px;stroke-linecap:butt;stroke-linejoin:miter;stroke-opacity:1" d="M 665.783,712.957 665.783,726.435 z" id="boundary" inkscape:connector-curvature="0" />
	<path style="fill:none;stroke:red;stroke-width:1px;stroke-linecap:butt;stroke-linejoin:miter;stroke-opacity:1" d="M 665.783,712.957 665.783,699.478 z" id="boundary" inkscape:connector-curvature="0" />
	<path style="fill:none;stroke:red;stroke-width:1px;stroke-linecap:butt;stroke-linejoin:miter;stroke-opacity:1" d="M 672.522,578.174 672.522,591.652 z" id="boundary" inkscape:connector-curvature="0" />
	<path style="fill:none;stroke:red;stroke-width:1px;stroke-linecap:butt;stroke-linejoin:miter;stroke-opacity:1" d="M 665.783,347.696 665.783,334.217 z" id="boundary" inkscape:connector-curvature="0" />
	<path style="fill:none;stroke:red;stroke-width:1px;stroke-linecap:butt;stroke-linejoin:miter;stroke-opacity:1" d="M 595.696,919.174 598.391,901.652 z" id="boundary" inkscape:connector-curvature="0" />
	<path style="fill:none;stroke:red;stroke-width:1px;stroke-linecap:butt;stroke-linejoin:miter;stroke-opacity:1" d="M 598.391,901.652 605.13,888.174 z" id="boundary" inkscape:connector-curvature="0" />
	<path style="fill:none;stroke:red;stroke-width:1px;stroke-linecap:butt;stroke-linejoin:miter;stroke-opacity:1" d="M 595.696,919.174 584.913,928.609 z" id="boundary" inkscape:connector-curvature="0" />
	<path style="fill:none;stroke:red;stroke-width:1px;stroke-linecap:butt;stroke-linejoin:miter;stroke-opacity:1" d="M 605.13,888.174 611.87,874.696 z" id="boundary" inkscape:connector-curvature="0" />
	<path style="fill:none;stroke:red;stroke-width:1px;stroke-linecap:butt;stroke-linejoin:miter;stroke-opacity:1" d="M 564.696,975.783 571.435,955.565 z" id="boundary" inkscape:connector-curvature="0" />
	<path style="fill:none;stroke:red;stroke-width:1px;stroke-linecap:butt;stroke-linejoin:miter;stroke-opacity:1" d="M 571.435,955.565 582.217,946.13 z" id="boundary" inkscape:connector-curvature="0" />
	<path style="fill:none;stroke:red;stroke-width:1px;stroke-linecap:butt;stroke-linejoin:miter;stroke-opacity:1" d="M 582.217,946.13 584.913,928.609 z" id="boundary" inkscape:connector-curvature="0" />
	<path style="fill:none;stroke:red;stroke-width:1px;stroke-linecap:butt;stroke-linejoin:miter;stroke-opacity:1" d="M 638.826,793.826 638.826,807.304 z" id="boundary" inkscape:connector-curvature="0" />
	<path style="fill:none;stroke:red;stroke-width:1px;stroke-linecap:butt;stroke-linejoin:miter;stroke-opacity:1" d="M 638.826,807.304 632.087,820.783 z" id="boundary" inkscape:connector-curvature="0" />
	<path style="fill:none;stroke:red;stroke-width:1px;stroke-linecap:butt;stroke-linejoin:miter;stroke-opacity:1" d="M 632.087,820.783 625.348,834.261 z" id="boundary" inkscape:connector-curvature="0" />
	<path style="fill:none;stroke:red;stroke-width:1px;stroke-linecap:butt;stroke-linejoin:miter;stroke-opacity:1" d="M 638.826,793.826 645.565,780.348 z" id="boundary" inkscape:connector-curvature="0" />
	<path style="fill:none;stroke:red;stroke-width:1px;stroke-linecap:butt;stroke-linejoin:miter;stroke-opacity:1" d="M 611.87,874.696 618.609,861.217 z" id="boundary" inkscape:connector-curvature="0" />
	<path style="fill:none;stroke:red;stroke-width:1px;stroke-linecap:butt;stroke-linejoin:miter;stroke-opacity:1" d="M 625.348,834.261 625.348,847.739 z" id="boundary" inkscape:connector-curvature="0" />
	<path style="fill:none;stroke:red;stroke-width:1px;stroke-linecap:butt;stroke-linejoin:miter;stroke-opacity:1" d="M 625.348,847.739 618.609,861.217 z" id="boundary" inkscape:connector-curvature="0" />
	<path style="fill:none;stroke:red;stroke-width:1px;stroke-linecap:butt;stroke-linejoin:miter;stroke-opacity:1" d="M 656.348,323.435 665.783,334.217 z" id="boundary" inkscape:connector-curvature="0" />
	<path style="fill:none;stroke:red;stroke-width:1px;stroke-linecap:butt;stroke-linejoin:miter;stroke-opacity:1" d="M 699.478,336.913 712.957,330.174 z" id="boundary" inkscape:connector-curvature="0" />
	<path style="fill:none;stroke:red;stroke-width:1px;stroke-linecap:butt;stroke-linejoin:miter;stroke-opacity:1" d="M 712.957,330.174 725.087,336.913 z" id="boundary" inkscape:connector-curvature="0" />
	<path style="fill:none;stroke:red;stroke-width:1px;stroke-linecap:butt;stroke-linejoin:miter;stroke-opacity:1" d="M 738.565,340.957 725.087,336.913 z" id="boundary" inkscape:connector-curvature="0" />
	<path style="fill:none;stroke:red;stroke-width:1px;stroke-linecap:butt;stroke-linejoin:miter;stroke-opacity:1" d="M 750.696,334.217 738.565,340.957 z" id="boundary" inkscape:connector-curvature="0" />
	<path style="fill:none;stroke:red;stroke-width:1px;stroke-linecap:butt;stroke-linejoin:miter;stroke-opacity:1" d="M 686,343.652 699.478,336.913 z" id="boundary" inkscape:connector-curvature="0" />
	<path style="fill:none;stroke:red;stroke-width:1px;stroke-linecap:butt;stroke-linejoin:miter;stroke-opacity:1" d="M 677.913,354.435 686,343.652 z" id="boundary" inkscape:connector-curvature="0" />
	<path style="fill:none;stroke:red;stroke-width:1px;stroke-linecap:butt;stroke-linejoin:miter;stroke-opacity:1" d="M 677.913,354.435 665.783,347.696 z" id="boundary" inkscape:connector-curvature="0" />
	<path style="fill:none;stroke:red;stroke-width:1px;stroke-linecap:butt;stroke-linejoin:miter;stroke-opacity:1" d="M 753.391,382.739 746.652,396.217 z" id="boundary" inkscape:connector-curvature="0" />
	<path style="fill:none;stroke:red;stroke-width:1px;stroke-linecap:butt;stroke-linejoin:miter;stroke-opacity:1" d="M 746.652,396.217 719.696,450.13 z" id="boundary" inkscape:connector-curvature="0" />
	<path style="fill:none;stroke:red;stroke-width:1px;stroke-linecap:butt;stroke-linejoin:miter;stroke-opacity:1" d="M 787.087,362.522 777.652,373.304 z" id="boundary" inkscape:connector-curvature="0" />
	<path style="fill:none;stroke:red;stroke-width:1px;stroke-linecap:butt;stroke-linejoin:miter;stroke-opacity:1" d="M 750.696,334.217 762.826,327.478 z" id="boundary" inkscape:connector-curvature="0" />
	<path style="fill:none;stroke:red;stroke-width:1px;stroke-linecap:butt;stroke-linejoin:miter;stroke-opacity:1" d="M 797.87,353.087 804.609,339.609 z" id="boundary" inkscape:connector-curvature="0" />
	<path style="fill:none;stroke:red;stroke-width:1px;stroke-linecap:butt;stroke-linejoin:miter;stroke-opacity:1" d="M 797.87,353.087 787.087,362.522 z" id="boundary" inkscape:connector-curvature="0" />
	<path style="fill:none;stroke:red;stroke-width:1px;stroke-linecap:butt;stroke-linejoin:miter;stroke-opacity:1" d="M 753.391,382.739 766.87,382.739 z" id="boundary" inkscape:connector-curvature="0" />
	<path style="fill:none;stroke:red;stroke-width:1px;stroke-linecap:butt;stroke-linejoin:miter;stroke-opacity:1" d="M 753.391,408.348 746.652,396.217 z" id="boundary" inkscape:connector-curvature="0" />
	<path style="fill:none;stroke:red;stroke-width:1px;stroke-linecap:butt;stroke-linejoin:miter;stroke-opacity:1" d="M 753.391,429.913 753.391,408.348 z" id="boundary" inkscape:connector-curvature="0" />
	<path style="fill:none;stroke:red;stroke-width:1px;stroke-linecap:butt;stroke-linejoin:miter;stroke-opacity:1" d="M 777.652,373.304 766.87,382.739 z" id="boundary" inkscape:connector-curvature="0" />
	<path style="fill:none;stroke:red;stroke-width:1px;stroke-linecap:butt;stroke-linejoin:miter;stroke-opacity:1" d="M 717,548.522 706.217,557.957 z" id="boundary" inkscape:connector-curvature="0" />
	<path style="fill:none;stroke:red;stroke-width:1px;stroke-linecap:butt;stroke-linejoin:miter;stroke-opacity:1" d="M 706.217,557.957 692.739,557.957 z" id="boundary" inkscape:connector-curvature="0" />
	<path style="fill:none;stroke:red;stroke-width:1px;stroke-linecap:butt;stroke-linejoin:miter;stroke-opacity:1" d="M 723.739,535.043 717,548.522 z" id="boundary" inkscape:connector-curvature="0" />
	<path style="fill:none;stroke:red;stroke-width:1px;stroke-linecap:butt;stroke-linejoin:miter;stroke-opacity:1" d="M 719.696,450.13 726.435,462.261 z" id="boundary" inkscape:connector-curvature="0" />
	<path style="fill:none;stroke:red;stroke-width:1px;stroke-linecap:butt;stroke-linejoin:miter;stroke-opacity:1" d="M 683.304,568.739 672.522,578.174 z" id="boundary" inkscape:connector-curvature="0" />
	<path style="fill:none;stroke:red;stroke-width:1px;stroke-linecap:butt;stroke-linejoin:miter;stroke-opacity:1" d="M 692.739,557.957 683.304,568.739 z" id="boundary" inkscape:connector-curvature="0" />
	<path style="fill:none;stroke:red;stroke-width:1px;stroke-linecap:butt;stroke-linejoin:miter;stroke-opacity:1" d="M 723.739,535.043 733.174,517.522 z" id="boundary" inkscape:connector-curvature="0" />
	<path style="fill:none;stroke:red;stroke-width:1px;stroke-linecap:butt;stroke-linejoin:miter;stroke-opacity:1" d="M 672.522,591.652 679.261,603.783 z" id="boundary" inkscape:connector-curvature="0" />
	<path style="fill:none;stroke:red;stroke-width:1px;stroke-linecap:butt;stroke-linejoin:miter;stroke-opacity:1" d="M 737.217,470.348 726.435,462.261 z" id="boundary" inkscape:connector-curvature="0" />
	<path style="fill:none;stroke:red;stroke-width:1px;stroke-linecap:butt;stroke-linejoin:miter;stroke-opacity:1" d="M 719.696,450.13 733.174,443.391 z" id="boundary" inkscape:connector-curvature="0" />
	<path style="fill:none;stroke:red;stroke-width:1px;stroke-linecap:butt;stroke-linejoin:miter;stroke-opacity:1" d="M 746.652,443.391 753.391,429.913 z" id="boundary" inkscape:connector-curvature="0" />
	<path style="fill:none;stroke:red;stroke-width:1px;stroke-linecap:butt;stroke-linejoin:miter;stroke-opacity:1" d="M 746.652,443.391 733.174,443.391 z" id="boundary" inkscape:connector-curvature="0" />
	<path style="fill:none;stroke:red;stroke-width:1px;stroke-linecap:butt;stroke-linejoin:miter;stroke-opacity:1" d="M 739.913,483.826 739.913,497.304 z" id="boundary" inkscape:connector-curvature="0" />
	<path style="fill:none;stroke:red;stroke-width:1px;stroke-linecap:butt;stroke-linejoin:miter;stroke-opacity:1" d="M 737.217,470.348 739.913,483.826 z" id="boundary" inkscape:connector-curvature="0" />
	<path style="fill:none;stroke:red;stroke-width:1px;stroke-linecap:butt;stroke-linejoin:miter;stroke-opacity:1" d="M 739.913,497.304 733.174,517.522 z" id="boundary" inkscape:connector-curvature="0" />
	<circle cx="4" cy="769.565" r="4" fill="#0" id="circle0"/>
	<circle cx="10.7391" cy="749.348" r="4" fill="#0" id="circle1"/>
	<circle cx="14.7826" cy="779" r="4" fill="#0" id="circle2"/>
	<circle cx="21.5217" cy="738.565" r="4" fill="#0" id="circle3"/>
	<circle cx="25.5652" cy="787.087" r="4" fill="#0" id="circle4"/>
	<circle cx="28.2609" cy="725.087" r="4" fill="#0" id="circle5"/>
	<circle cx="35" cy="711.609" r="4" fill="#0" id="circle6"/>
	<circle cx="37.6957" cy="601.087" r="4" fill="#0" id="circle7"/>
	<circle cx="37.6957" cy="614.565" r="4" fill="#0" id="circle8"/>
	<circle cx="37.6957" cy="628.043" r="4" fill="#0" id="circle9"/>
	<circle cx="37.6957" cy="641.522" r="4" fill="#0" id="circle10"/>
	<circle cx="37.6957" cy="655" r="4" fill="#0" id="circle11"/>
	<circle cx="37.6957" cy="668.478" r="4" fill="#0" id="circle12"/>
	<circle cx="37.6957" cy="681.957" r="4" fill="#0" id="circle13"/>
	<circle cx="37.6957" cy="695.435" r="4" fill="#0" id="circle14"/>
	<circle cx="39.0435" cy="787.087" r="4" fill="#0" id="circle15"/>
	<circle cx="44.4348" cy="567.391" r="4" fill="#0" id="circle16"/>
	<circle cx="44.4348" cy="580.87" r="4" fill="#0" id="circle17"/>
	<circle cx="51.1739" cy="533.696" r="4" fill="#0" id="circle18"/>
	<circle cx="51.1739" cy="547.174" r="4" fill="#0" id="circle19"/>
	<circle cx="52.5217" cy="787.087" r="4" fill="#0" id="circle20"/>
	<circle cx="57.913" cy="506.739" r="4" fill="#0" id="circle21"/>
	<circle cx="57.913" cy="520.217" r="4" fill="#0" id="circle22"/>
	<circle cx="64.6522" cy="793.826" r="4" fill="#0" id="circle23"/>
	<circle cx="68.6957" cy="495.957" r="4" fill="#0" id="circle24"/>
	<circle cx="71.3913" cy="479.783" r="4" fill="#0" id="circle25"/>
	<circle cx="78.1304" cy="793.826" r="4" fill="#0" id="circle26"/>
	<circle cx="82.1739" cy="469" r="4" fill="#0" id="circle27"/>
	<circle cx="84.8696" cy="324.783" r="4" fill="#0" id="circle28"/>
	<circle cx="84.8696" cy="338.261" r="4" fill="#0" id="circle29"/>
	<circle cx="84.8696" cy="351.739" r="4" fill="#0" id="circle30"/>
	<circle cx="84.8696" cy="365.217" r="4" fill="#0" id="circle31"/>
	<circle cx="84.8696" cy="378.696" r="4" fill="#0" id="circle32"/>
	<circle cx="84.8696" cy="392.174" r="4" fill="#0" id="circle33"/>
	<circle cx="84.8696" cy="405.652" r="4" fill="#0" id="circle34"/>
	<circle cx="84.8696" cy="419.13" r="4" fill="#0" id="circle35"/>
	<circle cx="84.8696" cy="432.609" r="4" fill="#0" id="circle36"/>
	<circle cx="84.8696" cy="446.087" r="4" fill="#0" id="circle37"/>
	<circle cx="90.2609" cy="800.565" r="4" fill="#0" id="circle38"/>
	<circle cx="91.6087" cy="270.87" r="4" fill="#0" id="circle39"/>
	<circle cx="91.6087" cy="284.348" r="4" fill="#0" id="circle40"/>
	<circle cx="91.6087" cy="297.826" r="4" fill="#0" id="circle41"/>
	<circle cx="91.6087" cy="311.304" r="4" fill="#0" id="circle42"/>
	<circle cx="102.391" cy="260.087" r="4" fill="#0" id="circle43"/>
	<circle cx="103.739" cy="800.565" r="4" fill="#0" id="circle44"/>
	<circle cx="105.087" cy="230.435" r="4" fill="#0" id="circle45"/>
	<circle cx="105.087" cy="243.913" r="4" fill="#0" id="circle46"/>
	<circle cx="111.826" cy="216.957" r="4" fill="#0" id="circle47"/>
	<circle cx="115.87" cy="807.304" r="4" fill="#0" id="circle48"/>
	<circle cx="122.609" cy="206.174" r="4" fill="#0" id="circle49"/>
	<circle cx="126.652" cy="816.739" r="4" fill="#0" id="circle50"/>
	<circle cx="134.739" cy="199.435" r="4" fill="#0" id="circle51"/>
	<circle cx="140.13" cy="820.783" r="4" fill="#0" id="circle52"/>
	<circle cx="148.217" cy="199.435" r="4" fill="#0" id="circle53"/>
	<circle cx="153.609" cy="823.478" r="4" fill="#0" id="circle54"/>
	<circle cx="161.696" cy="199.435" r="4" fill="#0" id="circle55"/>
	<circle cx="163.043" cy="834.261" r="4" fill="#0" id="circle56"/>
	<circle cx="173.826" cy="206.174" r="4" fill="#0" id="circle57"/>
	<circle cx="173.826" cy="843.696" r="4" fill="#0" id="circle58"/>
	<circle cx="187.304" cy="206.174" r="4" fill="#0" id="circle59"/>
	<circle cx="187.304" cy="847.739" r="4" fill="#0" id="circle60"/>
	<circle cx="200.783" cy="206.174" r="4" fill="#0" id="circle61"/>
	<circle cx="200.783" cy="847.739" r="4" fill="#0" id="circle62"/>
	<circle cx="212.913" cy="854.478" r="4" fill="#0" id="circle63"/>
	<circle cx="214.261" cy="206.174" r="4" fill="#0" id="circle64"/>
	<circle cx="225.043" cy="861.217" r="4" fill="#0" id="circle65"/>
	<circle cx="227.739" cy="206.174" r="4" fill="#0" id="circle66"/>
	<circle cx="237.174" cy="867.957" r="4" fill="#0" id="circle67"/>
	<circle cx="239.87" cy="212.913" r="4" fill="#0" id="circle68"/>
	<circle cx="250.652" cy="867.957" r="4" fill="#0" id="circle69"/>
	<circle cx="253.348" cy="212.913" r="4" fill="#0" id="circle70"/>
	<circle cx="264.13" cy="873.348" r="4" fill="#0" id="circle71"/>
	<circle cx="266.826" cy="212.913" r="4" fill="#0" id="circle72"/>
	<circle cx="277.609" cy="874.696" r="4" fill="#0" id="circle73"/>
	<circle cx="280.304" cy="212.913" r="4" fill="#0" id="circle74"/>
	<circle cx="291.087" cy="880.087" r="4" fill="#0" id="circle75"/>
	<circle cx="293.783" cy="215.609" r="4" fill="#0" id="circle76"/>
	<circle cx="304.565" cy="881.435" r="4" fill="#0" id="circle77"/>
	<circle cx="307.261" cy="219.652" r="4" fill="#0" id="circle78"/>
	<circle cx="316.696" cy="888.174" r="4" fill="#0" id="circle79"/>
	<circle cx="319.391" cy="226.391" r="4" fill="#0" id="circle80"/>
	<circle cx="330.174" cy="888.174" r="4" fill="#0" id="circle81"/>
	<circle cx="332.87" cy="227.739" r="4" fill="#0" id="circle82"/>
	<circle cx="336.913" cy="900.304" r="4" fill="#0" id="circle83"/>
	<circle cx="345" cy="234.478" r="4" fill="#0" id="circle84"/>
	<circle cx="350.391" cy="901.652" r="4" fill="#0" id="circle85"/>
	<circle cx="358.478" cy="239.87" r="4" fill="#0" id="circle86"/>
	<circle cx="363.87" cy="905.696" r="4" fill="#0" id="circle87"/>
	<circle cx="371.957" cy="239.87" r="4" fill="#0" id="circle88"/>
	<circle cx="374.652" cy="915.13" r="4" fill="#0" id="circle89"/>
	<circle cx="381.391" cy="250.652" r="4" fill="#0" id="circle90"/>
	<circle cx="382.739" cy="925.913" r="4" fill="#0" id="circle91"/>
	<circle cx="393.522" cy="935.348" r="4" fill="#0" id="circle92"/>
	<circle cx="394.87" cy="256.043" r="4" fill="#0" id="circle93"/>
	<circle cx="402.957" cy="266.826" r="4" fill="#0" id="circle94"/>
	<circle cx="402.957" cy="946.13" r="4" fill="#0" id="circle95"/>
	<circle cx="413.739" cy="955.565" r="4" fill="#0" id="circle96"/>
	<circle cx="416.435" cy="266.826" r="4" fill="#0" id="circle97"/>
	<circle cx="425.87" cy="962.304" r="4" fill="#0" id="circle98"/>
	<circle cx="429.913" cy="270.87" r="4" fill="#0" id="circle99"/>
	<circle cx="439.348" cy="962.304" r="4" fill="#0" id="circle100"/>
	<circle cx="442.043" cy="277.609" r="4" fill="#0" id="circle101"/>
	<circle cx="450.13" cy="288.391" r="4" fill="#0" id="circle102"/>
	<circle cx="452.826" cy="967.696" r="4" fill="#0" id="circle103"/>
	<circle cx="460.913" cy="296.478" r="4" fill="#0" id="circle104"/>
	<circle cx="463.609" cy="975.783" r="4" fill="#0" id="circle105"/>
	<circle cx="470.348" cy="307.261" r="4" fill="#0" id="circle106"/>
	<circle cx="477.087" cy="978.478" r="4" fill="#0" id="circle107"/>
	<circle cx="483.826" cy="307.261" r="4" fill="#0" id="circle108"/>
	<circle cx="490.565" cy="982.522" r="4" fill="#0" id="circle109"/>
	<circle cx="497.304" cy="307.261" r="4" fill="#0" id="circle110"/>
	<circle cx="502.696" cy="989.261" r="4" fill="#0" id="circle111"/>
	<circle cx="510.783" cy="311.304" r="4" fill="#0" id="circle112"/>
	<circle cx="516.174" cy="989.261" r="4" fill="#0" id="circle113"/>
	<circle cx="520.217" cy="322.087" r="4" fill="#0" id="circle114"/>
	<circle cx="529.652" cy="989.261" r="4" fill="#0" id="circle115"/>
	<circle cx="531" cy="331.522" r="4" fill="#0" id="circle116"/>
	<circle cx="541.783" cy="340.957" r="4" fill="#0" id="circle117"/>
	<circle cx="541.783" cy="996" r="4" fill="#0" id="circle118"/>
	<circle cx="553.913" cy="989.261" r="4" fill="#0" id="circle119"/>
	<circle cx="555.261" cy="340.957" r="4" fill="#0" id="circle120"/>
	<circle cx="564.696" cy="330.174" r="4" fill="#0" id="circle121"/>
	<circle cx="564.696" cy="975.783" r="4" fill="#0" id="circle122"/>
	<circle cx="571.435" cy="955.565" r="4" fill="#0" id="circle123"/>
	<circle cx="578.174" cy="327.478" r="4" fill="#0" id="circle124"/>
	<circle cx="582.217" cy="946.13" r="4" fill="#0" id="circle125"/>
	<circle cx="584.913" cy="928.609" r="4" fill="#0" id="circle126"/>
	<circle cx="590.304" cy="320.739" r="4" fill="#0" id="circle127"/>
	<circle cx="595.696" cy="919.174" r="4" fill="#0" id="circle128"/>
	<circle cx="598.391" cy="901.652" r="4" fill="#0" id="circle129"/>
	<circle cx="603.783" cy="318.043" r="4" fill="#0" id="circle130"/>
	<circle cx="605.13" cy="888.174" r="4" fill="#0" id="circle131"/>
	<circle cx="611.87" cy="874.696" r="4" fill="#0" id="circle132"/>
	<circle cx="617.261" cy="314" r="4" fill="#0" id="circle133"/>
	<circle cx="618.609" cy="861.217" r="4" fill="#0" id="circle134"/>
	<circle cx="625.348" cy="834.261" r="4" fill="#0" id="circle135"/>
	<circle cx="625.348" cy="847.739" r="4" fill="#0" id="circle136"/>
	<circle cx="630.739" cy="314" r="4" fill="#0" id="circle137"/>
	<circle cx="632.087" cy="820.783" r="4" fill="#0" id="circle138"/>
	<circle cx="638.826" cy="793.826" r="4" fill="#0" id="circle139"/>
	<circle cx="638.826" cy="807.304" r="4" fill="#0" id="circle140"/>
	<circle cx="644.217" cy="316.696" r="4" fill="#0" id="circle141"/>
	<circle cx="645.565" cy="780.348" r="4" fill="#0" id="circle142"/>
	<circle cx="652.304" cy="753.391" r="4" fill="#0" id="circle143"/>
	<circle cx="652.304" cy="766.87" r="4" fill="#0" id="circle144"/>
	<circle cx="656.348" cy="323.435" r="4" fill="#0" id="circle145"/>
	<circle cx="659.043" cy="632.087" r="4" fill="#0" id="circle146"/>
	<circle cx="659.043" cy="739.913" r="4" fill="#0" id="circle147"/>
	<circle cx="661.739" cy="645.565" r="4" fill="#0" id="circle148"/>
	<circle cx="665.783" cy="334.217" r="4" fill="#0" id="circle149"/>
	<circle cx="665.783" cy="347.696" r="4" fill="#0" id="circle150"/>
	<circle cx="665.783" cy="659.043" r="4" fill="#0" id="circle151"/>
	<circle cx="665.783" cy="672.522" r="4" fill="#0" id="circle152"/>
	<circle cx="665.783" cy="686" r="4" fill="#0" id="circle153"/>
	<circle cx="665.783" cy="699.478" r="4" fill="#0" id="circle154"/>
	<circle cx="665.783" cy="712.957" r="4" fill="#0" id="circle155"/>
	<circle cx="665.783" cy="726.435" r="4" fill="#0" id="circle156"/>
	<circle cx="669.826" cy="622.652" r="4" fill="#0" id="circle157"/>
	<circle cx="672.522" cy="578.174" r="4" fill="#0" id="circle158"/>
	<circle cx="672.522" cy="591.652" r="4" fill="#0" id="circle159"/>
	<circle cx="677.913" cy="354.435" r="4" fill="#0" id="circle160"/>
	<circle cx="679.261" cy="603.783" r="4" fill="#0" id="circle161"/>
	<circle cx="683.304" cy="568.739" r="4" fill="#0" id="circle162"/>
	<circle cx="686" cy="343.652" r="4" fill="#0" id="circle163"/>
	<circle cx="692.739" cy="557.957" r="4" fill="#0" id="circle164"/>
	<circle cx="699.478" cy="336.913" r="4" fill="#0" id="circle165"/>
	<circle cx="706.217" cy="557.957" r="4" fill="#0" id="circle166"/>
	<circle cx="712.957" cy="330.174" r="4" fill="#0" id="circle167"/>
	<circle cx="717" cy="548.522" r="4" fill="#0" id="circle168"/>
	<circle cx="719.696" cy="450.13" r="4" fill="#0" id="circle169"/>
	<circle cx="723.739" cy="535.043" r="4" fill="#0" id="circle170"/>
	<circle cx="725.087" cy="336.913" r="4" fill="#0" id="circle171"/>
	<circle cx="726.435" cy="462.261" r="4" fill="#0" id="circle172"/>
	<circle cx="733.174" cy="443.391" r="4" fill="#0" id="circle173"/>
	<circle cx="733.174" cy="517.522" r="4" fill="#0" id="circle174"/>
	<circle cx="737.217" cy="470.348" r="4" fill="#0" id="circle175"/>
	<circle cx="738.565" cy="340.957" r="4" fill="#0" id="circle176"/>
	<circle cx="739.913" cy="483.826" r="4" fill="#0" id="circle177"/>
	<circle cx="739.913" cy="497.304" r="4" fill="#0" id="circle178"/>
	<circle cx="746.652" cy="396.217" r="4" fill="#0" id="circle179"/>
	<circle cx="746.652" cy="443.391" r="4" fill="#0" id="circle180"/>
	<circle cx="750.696" cy="334.217" r="4" fill="#0" id="circle181"/>
	<circle cx="753.391" cy="382.739" r="4" fill="#0" id="circle182"/>
	<circle cx="753.391" cy="408.348" r="4" fill="#0" id="circle183"/>
	<circle cx="753.391" cy="429.913" r="4" fill="#0" id="circle184"/>
	<circle cx="762.826" cy="327.478" r="4" fill="#0" id="circle185"/>
	<circle cx="766.87" cy="382.739" r="4" fill="#0" id="circle186"/>
	<circle cx="774.957" cy="320.739" r="4" fill="#0" id="circle187"/>
	<circle cx="777.652" cy="373.304" r="4" fill="#0" id="circle188"/>
	<circle cx="785.739" cy="311.304" r="4" fill="#0" id="circle189"/>
	<circle cx="787.087" cy="362.522" r="4" fill="#0" id="circle190"/>
	<circle cx="796.522" cy="300.522" r="4" fill="#0" id="circle191"/>
	<circle cx="797.87" cy="353.087" r="4" fill="#0" id="circle192"/>
	<circle cx="799.217" cy="284.348" r="4" fill="#0" id="circle193"/>
	<circle cx="804.609" cy="339.609" r="4" fill="#0" id="circle194"/>
	<circle cx="810" cy="273.565" r="4" fill="#0" id="circle195"/>
	<circle cx="812.696" cy="8.04348" r="4" fill="#0" id="circle196"/>
	<circle cx="812.696" cy="21.5217" r="4" fill="#0" id="circle197"/>
	<circle cx="814.043" cy="328.826" r="4" fill="#0" id="circle198"/>
	<circle cx="819.435" cy="33.6522" r="4" fill="#0" id="circle199"/>
	<circle cx="819.435" cy="47.1304" r="4" fill="#0" id="circle200"/>
	<circle cx="819.435" cy="60.6087" r="4" fill="#0" id="circle201"/>
	<circle cx="819.435" cy="74.087" r="4" fill="#0" id="circle202"/>
	<circle cx="819.435" cy="87.5652" r="4" fill="#0" id="circle203"/>
	<circle cx="819.435" cy="257.391" r="4" fill="#0" id="circle204"/>
	<circle cx="826.174" cy="6.69565" r="4" fill="#0" id="circle205"/>
	<circle cx="826.174" cy="99.6957" r="4" fill="#0" id="circle206"/>
	<circle cx="826.174" cy="243.913" r="4" fill="#0" id="circle207"/>
	<circle cx="827.522" cy="315.348" r="4" fill="#0" id="circle208"/>
	<circle cx="836.957" cy="233.13" r="4" fill="#0" id="circle209"/>
	<circle cx="838.304" cy="13.4348" r="4" fill="#0" id="circle210"/>
	<circle cx="838.304" cy="106.435" r="4" fill="#0" id="circle211"/>
	<circle cx="838.304" cy="305.913" r="4" fill="#0" id="circle212"/>
	<circle cx="839.652" cy="216.957" r="4" fill="#0" id="circle213"/>
	<circle cx="843.696" cy="119.913" r="4" fill="#0" id="circle214"/>
	<circle cx="845.043" cy="292.435" r="4" fill="#0" id="circle215"/>
	<circle cx="846.391" cy="203.478" r="4" fill="#0" id="circle216"/>
	<circle cx="851.783" cy="10.7391" r="4" fill="#0" id="circle217"/>
	<circle cx="853.13" cy="130.696" r="4" fill="#0" id="circle218"/>
	<circle cx="853.13" cy="144.174" r="4" fill="#0" id="circle219"/>
	<circle cx="853.13" cy="157.652" r="4" fill="#0" id="circle220"/>
	<circle cx="853.13" cy="171.13" r="4" fill="#0" id="circle221"/>
	<circle cx="853.13" cy="184.609" r="4" fill="#0" id="circle222"/>
	<circle cx="854.478" cy="268.174" r="4" fill="#0" id="circle223"/>
	<circle cx="854.478" cy="281.652" r="4" fill="#0" id="circle224"/>
	<circle cx="861.217" cy="254.696" r="4" fill="#0" id="circle225"/>
	<circle cx="863.913" cy="4" r="4" fill="#0" id="circle226"/>
	<circle cx="867.957" cy="17.4783" r="4" fill="#0" id="circle227"/>
	<circle cx="867.957" cy="241.217" r="4" fill="#0" id="circle228"/>
	<circle cx="874.696" cy="29.6087" r="4" fill="#0" id="circle229"/>
	<circle cx="874.696" cy="214.261" r="4" fill="#0" id="circle230"/>
	<circle cx="874.696" cy="227.739" r="4" fill="#0" id="circle231"/>
	<circle cx="881.435" cy="41.7391" r="4" fill="#0" id="circle232"/>
	<circle cx="885.478" cy="204.826" r="4" fill="#0" id="circle233"/>
	<circle cx="886.826" cy="55.2174" r="4" fill="#0" id="circle234"/>
	<circle cx="888.174" cy="68.6957" r="4" fill="#0" id="circle235"/>
	<circle cx="888.174" cy="82.1739" r="4" fill="#0" id="circle236"/>
	<circle cx="888.174" cy="95.6522" r="4" fill="#0" id="circle237"/>
	<circle cx="888.174" cy="160.348" r="4" fill="#0" id="circle238"/>
	<circle cx="888.174" cy="173.826" r="4" fill="#0" id="circle239"/>
	<circle cx="888.174" cy="187.304" r="4" fill="#0" id="circle240"/>
	<circle cx="893.565" cy="109.13" r="4" fill="#0" id="circle241"/>
	<circle cx="894.913" cy="122.609" r="4" fill="#0" id="circle242"/>
	<circle cx="894.913" cy="136.087" r="4" fill="#0" id="circle243"/>
	</g>
</svg>