<?xml version="1.0" encoding="UTF-8" standalone="no"?>
<!-- Created with CurveBenchmark -->
<svg
	xmlns:dc="http://purl.org/dc/elements/1.1/"
	xmlns:cc="http://creativecommons.org/ns#"
	xmlns:rdf="http://www.w3.org/1999/02/22-rdf-syntax-ns#"
	xmlns:svg="http://www.w3.org/2000/svg"
	xmlns="http://www.w3.org/2000/svg"
	xmlns:sodipodi="http://sodipodi.sourceforge.net/DTD/sodipodi-0.dtd"
	xmlns:inkscape="http://www.inkscape.org/namespaces/inkscape"
	width="1000"
	height="1000"
	id="svg2"
	version="1.1"
	sodipodi:docname="manifold/nncrust-teddy215.png.txt">
<defs
	id="defs4" />
<metadata
	id="metadata7">
	<rdf:RDF>
		<cc:Work
			rdf:about="">
			<dc:format>image/svg+xml</dc:format>
			<dc:type
				rdf:resource="http://purl.org/dc/dcmitype/StillImage" />
			<dc:title></dc:title>
		</cc:Work>
	</rdf:RDF>
</metadata>
<g
	inkscape:label="Layer 1"
	inkscape:groupmode="layer"
	id="layer1">
	<path style="fill:none;stroke:red;stroke-width:1px;stroke-linecap:butt;stroke-linejoin:miter;stroke-opacity:1" d="M 162.268,60.5242 162.268,88.7863 z" id="boundary" inkscape:connector-curvature="0" />
	<path style="fill:none;stroke:red;stroke-width:1px;stroke-linecap:butt;stroke-linejoin:miter;stroke-opacity:1" d="M 162.268,60.5242 184.877,37.9145 z" id="boundary" inkscape:connector-curvature="0" />
	<path style="fill:none;stroke:red;stroke-width:1px;stroke-linecap:butt;stroke-linejoin:miter;stroke-opacity:1" d="M 134.006,399.67 162.268,388.365 z" id="boundary" inkscape:connector-curvature="0" />
	<path style="fill:none;stroke:red;stroke-width:1px;stroke-linecap:butt;stroke-linejoin:miter;stroke-opacity:1" d="M 111.396,416.627 134.006,399.67 z" id="boundary" inkscape:connector-curvature="0" />
	<path style="fill:none;stroke:red;stroke-width:1px;stroke-linecap:butt;stroke-linejoin:miter;stroke-opacity:1" d="M 162.268,88.7863 167.92,117.048 z" id="boundary" inkscape:connector-curvature="0" />
	<path style="fill:none;stroke:red;stroke-width:1px;stroke-linecap:butt;stroke-linejoin:miter;stroke-opacity:1" d="M 176.399,145.311 167.92,117.048 z" id="boundary" inkscape:connector-curvature="0" />
	<path style="fill:none;stroke:red;stroke-width:1px;stroke-linecap:butt;stroke-linejoin:miter;stroke-opacity:1" d="M 190.53,170.746 176.399,145.311 z" id="boundary" inkscape:connector-curvature="0" />
	<path style="fill:none;stroke:red;stroke-width:1px;stroke-linecap:butt;stroke-linejoin:miter;stroke-opacity:1" d="M 4,507.066 18.1311,481.63 z" id="boundary" inkscape:connector-curvature="0" />
	<path style="fill:none;stroke:red;stroke-width:1px;stroke-linecap:butt;stroke-linejoin:miter;stroke-opacity:1" d="M 4,535.328 4,507.066 z" id="boundary" inkscape:connector-curvature="0" />
	<path style="fill:none;stroke:red;stroke-width:1px;stroke-linecap:butt;stroke-linejoin:miter;stroke-opacity:1" d="M 4,535.328 15.3048,563.59 z" id="boundary" inkscape:connector-curvature="0" />
	<path style="fill:none;stroke:red;stroke-width:1px;stroke-linecap:butt;stroke-linejoin:miter;stroke-opacity:1" d="M 32.2621,586.199 15.3048,563.59 z" id="boundary" inkscape:connector-curvature="0" />
	<path style="fill:none;stroke:red;stroke-width:1px;stroke-linecap:butt;stroke-linejoin:miter;stroke-opacity:1" d="M 88.7863,439.236 111.396,416.627 z" id="boundary" inkscape:connector-curvature="0" />
	<path style="fill:none;stroke:red;stroke-width:1px;stroke-linecap:butt;stroke-linejoin:miter;stroke-opacity:1" d="M 88.7863,439.236 60.5242,444.889 z" id="boundary" inkscape:connector-curvature="0" />
	<path style="fill:none;stroke:red;stroke-width:1px;stroke-linecap:butt;stroke-linejoin:miter;stroke-opacity:1" d="M 18.1311,481.63 35.0883,459.02 z" id="boundary" inkscape:connector-curvature="0" />
	<path style="fill:none;stroke:red;stroke-width:1px;stroke-linecap:butt;stroke-linejoin:miter;stroke-opacity:1" d="M 35.0883,459.02 60.5242,444.889 z" id="boundary" inkscape:connector-curvature="0" />
	<path style="fill:none;stroke:red;stroke-width:1px;stroke-linecap:butt;stroke-linejoin:miter;stroke-opacity:1" d="M 52.0456,608.809 32.2621,586.199 z" id="boundary" inkscape:connector-curvature="0" />
	<path style="fill:none;stroke:red;stroke-width:1px;stroke-linecap:butt;stroke-linejoin:miter;stroke-opacity:1" d="M 162.268,388.365 190.53,382.712 z" id="boundary" inkscape:connector-curvature="0" />
	<path style="fill:none;stroke:red;stroke-width:1px;stroke-linecap:butt;stroke-linejoin:miter;stroke-opacity:1" d="M 235.749,9.65242 264.011,4 z" id="boundary" inkscape:connector-curvature="0" />
	<path style="fill:none;stroke:red;stroke-width:1px;stroke-linecap:butt;stroke-linejoin:miter;stroke-opacity:1" d="M 264.011,4 292.274,9.65242 z" id="boundary" inkscape:connector-curvature="0" />
	<path style="fill:none;stroke:red;stroke-width:1px;stroke-linecap:butt;stroke-linejoin:miter;stroke-opacity:1" d="M 292.274,9.65242 320.536,18.1311 z" id="boundary" inkscape:connector-curvature="0" />
	<path style="fill:none;stroke:red;stroke-width:1px;stroke-linecap:butt;stroke-linejoin:miter;stroke-opacity:1" d="M 320.536,18.1311 345.972,32.2621 z" id="boundary" inkscape:connector-curvature="0" />
	<path style="fill:none;stroke:red;stroke-width:1px;stroke-linecap:butt;stroke-linejoin:miter;stroke-opacity:1" d="M 374.234,43.567 402.496,43.567 z" id="boundary" inkscape:connector-curvature="0" />
	<path style="fill:none;stroke:red;stroke-width:1px;stroke-linecap:butt;stroke-linejoin:miter;stroke-opacity:1" d="M 374.234,43.567 345.972,32.2621 z" id="boundary" inkscape:connector-curvature="0" />
	<path style="fill:none;stroke:red;stroke-width:1px;stroke-linecap:butt;stroke-linejoin:miter;stroke-opacity:1" d="M 430.758,43.567 402.496,43.567 z" id="boundary" inkscape:connector-curvature="0" />
	<path style="fill:none;stroke:red;stroke-width:1px;stroke-linecap:butt;stroke-linejoin:miter;stroke-opacity:1" d="M 459.02,43.567 430.758,43.567 z" id="boundary" inkscape:connector-curvature="0" />
	<path style="fill:none;stroke:red;stroke-width:1px;stroke-linecap:butt;stroke-linejoin:miter;stroke-opacity:1" d="M 201.835,199.009 190.53,170.746 z" id="boundary" inkscape:connector-curvature="0" />
	<path style="fill:none;stroke:red;stroke-width:1px;stroke-linecap:butt;stroke-linejoin:miter;stroke-opacity:1" d="M 201.835,227.271 201.835,255.533 z" id="boundary" inkscape:connector-curvature="0" />
	<path style="fill:none;stroke:red;stroke-width:1px;stroke-linecap:butt;stroke-linejoin:miter;stroke-opacity:1" d="M 201.835,227.271 201.835,199.009 z" id="boundary" inkscape:connector-curvature="0" />
	<path style="fill:none;stroke:red;stroke-width:1px;stroke-linecap:butt;stroke-linejoin:miter;stroke-opacity:1" d="M 201.835,283.795 207.487,312.057 z" id="boundary" inkscape:connector-curvature="0" />
	<path style="fill:none;stroke:red;stroke-width:1px;stroke-linecap:butt;stroke-linejoin:miter;stroke-opacity:1" d="M 201.835,255.533 201.835,283.795 z" id="boundary" inkscape:connector-curvature="0" />
	<path style="fill:none;stroke:red;stroke-width:1px;stroke-linecap:butt;stroke-linejoin:miter;stroke-opacity:1" d="M 213.14,340.319 218.792,382.712 z" id="boundary" inkscape:connector-curvature="0" />
	<path style="fill:none;stroke:red;stroke-width:1px;stroke-linecap:butt;stroke-linejoin:miter;stroke-opacity:1" d="M 218.792,382.712 190.53,382.712 z" id="boundary" inkscape:connector-curvature="0" />
	<path style="fill:none;stroke:red;stroke-width:1px;stroke-linecap:butt;stroke-linejoin:miter;stroke-opacity:1" d="M 213.14,340.319 207.487,312.057 z" id="boundary" inkscape:connector-curvature="0" />
	<path style="fill:none;stroke:red;stroke-width:1px;stroke-linecap:butt;stroke-linejoin:miter;stroke-opacity:1" d="M 654.028,368.581 218.792,382.712 z" id="boundary" inkscape:connector-curvature="0" />
	<path style="fill:none;stroke:red;stroke-width:1px;stroke-linecap:butt;stroke-linejoin:miter;stroke-opacity:1" d="M 184.877,37.9145 207.487,15.3048 z" id="boundary" inkscape:connector-curvature="0" />
	<path style="fill:none;stroke:red;stroke-width:1px;stroke-linecap:butt;stroke-linejoin:miter;stroke-opacity:1" d="M 207.487,15.3048 235.749,9.65242 z" id="boundary" inkscape:connector-curvature="0" />
	<path style="fill:none;stroke:red;stroke-width:1px;stroke-linecap:butt;stroke-linejoin:miter;stroke-opacity:1" d="M 52.0456,608.809 74.6553,625.766 z" id="boundary" inkscape:connector-curvature="0" />
	<path style="fill:none;stroke:red;stroke-width:1px;stroke-linecap:butt;stroke-linejoin:miter;stroke-opacity:1" d="M 54.8718,806.644 66.1766,772.729 z" id="boundary" inkscape:connector-curvature="0" />
	<path style="fill:none;stroke:red;stroke-width:1px;stroke-linecap:butt;stroke-linejoin:miter;stroke-opacity:1" d="M 66.1766,772.729 88.7863,750.12 z" id="boundary" inkscape:connector-curvature="0" />
	<path style="fill:none;stroke:red;stroke-width:1px;stroke-linecap:butt;stroke-linejoin:miter;stroke-opacity:1" d="M 74.6553,625.766 100.091,639.897 z" id="boundary" inkscape:connector-curvature="0" />
	<path style="fill:none;stroke:red;stroke-width:1px;stroke-linecap:butt;stroke-linejoin:miter;stroke-opacity:1" d="M 100.091,639.897 128.353,651.202 z" id="boundary" inkscape:connector-curvature="0" />
	<path style="fill:none;stroke:red;stroke-width:1px;stroke-linecap:butt;stroke-linejoin:miter;stroke-opacity:1" d="M 111.396,733.162 139.658,727.51 z" id="boundary" inkscape:connector-curvature="0" />
	<path style="fill:none;stroke:red;stroke-width:1px;stroke-linecap:butt;stroke-linejoin:miter;stroke-opacity:1" d="M 88.7863,750.12 111.396,733.162 z" id="boundary" inkscape:connector-curvature="0" />
	<path style="fill:none;stroke:red;stroke-width:1px;stroke-linecap:butt;stroke-linejoin:miter;stroke-opacity:1" d="M 128.353,651.202 156.615,662.507 z" id="boundary" inkscape:connector-curvature="0" />
	<path style="fill:none;stroke:red;stroke-width:1px;stroke-linecap:butt;stroke-linejoin:miter;stroke-opacity:1" d="M 43.567,846.211 43.567,874.473 z" id="boundary" inkscape:connector-curvature="0" />
	<path style="fill:none;stroke:red;stroke-width:1px;stroke-linecap:butt;stroke-linejoin:miter;stroke-opacity:1" d="M 159.442,996 131.179,996 z" id="boundary" inkscape:connector-curvature="0" />
	<path style="fill:none;stroke:red;stroke-width:1px;stroke-linecap:butt;stroke-linejoin:miter;stroke-opacity:1" d="M 49.2194,930.997 43.567,902.735 z" id="boundary" inkscape:connector-curvature="0" />
	<path style="fill:none;stroke:red;stroke-width:1px;stroke-linecap:butt;stroke-linejoin:miter;stroke-opacity:1" d="M 43.567,846.211 54.8718,806.644 z" id="boundary" inkscape:connector-curvature="0" />
	<path style="fill:none;stroke:red;stroke-width:1px;stroke-linecap:butt;stroke-linejoin:miter;stroke-opacity:1" d="M 43.567,874.473 43.567,902.735 z" id="boundary" inkscape:connector-curvature="0" />
	<path style="fill:none;stroke:red;stroke-width:1px;stroke-linecap:butt;stroke-linejoin:miter;stroke-opacity:1" d="M 80.3077,976.217 57.698,959.259 z" id="boundary" inkscape:connector-curvature="0" />
	<path style="fill:none;stroke:red;stroke-width:1px;stroke-linecap:butt;stroke-linejoin:miter;stroke-opacity:1" d="M 57.698,959.259 49.2194,930.997 z" id="boundary" inkscape:connector-curvature="0" />
	<path style="fill:none;stroke:red;stroke-width:1px;stroke-linecap:butt;stroke-linejoin:miter;stroke-opacity:1" d="M 131.179,996 102.917,993.174 z" id="boundary" inkscape:connector-curvature="0" />
	<path style="fill:none;stroke:red;stroke-width:1px;stroke-linecap:butt;stroke-linejoin:miter;stroke-opacity:1" d="M 102.917,993.174 80.3077,976.217 z" id="boundary" inkscape:connector-curvature="0" />
	<path style="fill:none;stroke:red;stroke-width:1px;stroke-linecap:butt;stroke-linejoin:miter;stroke-opacity:1" d="M 139.658,727.51 167.92,727.51 z" id="boundary" inkscape:connector-curvature="0" />
	<path style="fill:none;stroke:red;stroke-width:1px;stroke-linecap:butt;stroke-linejoin:miter;stroke-opacity:1" d="M 156.615,662.507 184.877,670.986 z" id="boundary" inkscape:connector-curvature="0" />
	<path style="fill:none;stroke:red;stroke-width:1px;stroke-linecap:butt;stroke-linejoin:miter;stroke-opacity:1" d="M 213.14,668.16 184.877,670.986 z" id="boundary" inkscape:connector-curvature="0" />
	<path style="fill:none;stroke:red;stroke-width:1px;stroke-linecap:butt;stroke-linejoin:miter;stroke-opacity:1" d="M 167.92,727.51 196.182,716.205 z" id="boundary" inkscape:connector-curvature="0" />
	<path style="fill:none;stroke:red;stroke-width:1px;stroke-linecap:butt;stroke-linejoin:miter;stroke-opacity:1" d="M 196.182,716.205 224.444,704.9 z" id="boundary" inkscape:connector-curvature="0" />
	<path style="fill:none;stroke:red;stroke-width:1px;stroke-linecap:butt;stroke-linejoin:miter;stroke-opacity:1" d="M 224.444,704.9 213.14,668.16 z" id="boundary" inkscape:connector-curvature="0" />
	<path style="fill:none;stroke:red;stroke-width:1px;stroke-linecap:butt;stroke-linejoin:miter;stroke-opacity:1" d="M 244.228,990.348 272.49,979.043 z" id="boundary" inkscape:connector-curvature="0" />
	<path style="fill:none;stroke:red;stroke-width:1px;stroke-linecap:butt;stroke-linejoin:miter;stroke-opacity:1" d="M 272.49,979.043 300.752,984.695 z" id="boundary" inkscape:connector-curvature="0" />
	<path style="fill:none;stroke:red;stroke-width:1px;stroke-linecap:butt;stroke-linejoin:miter;stroke-opacity:1" d="M 300.752,984.695 329.014,990.348 z" id="boundary" inkscape:connector-curvature="0" />
	<path style="fill:none;stroke:red;stroke-width:1px;stroke-linecap:butt;stroke-linejoin:miter;stroke-opacity:1" d="M 244.228,990.348 215.966,996 z" id="boundary" inkscape:connector-curvature="0" />
	<path style="fill:none;stroke:red;stroke-width:1px;stroke-linecap:butt;stroke-linejoin:miter;stroke-opacity:1" d="M 187.704,996 159.442,996 z" id="boundary" inkscape:connector-curvature="0" />
	<path style="fill:none;stroke:red;stroke-width:1px;stroke-linecap:butt;stroke-linejoin:miter;stroke-opacity:1" d="M 215.966,996 187.704,996 z" id="boundary" inkscape:connector-curvature="0" />
	<path style="fill:none;stroke:red;stroke-width:1px;stroke-linecap:butt;stroke-linejoin:miter;stroke-opacity:1" d="M 357.276,990.348 385.538,996 z" id="boundary" inkscape:connector-curvature="0" />
	<path style="fill:none;stroke:red;stroke-width:1px;stroke-linecap:butt;stroke-linejoin:miter;stroke-opacity:1" d="M 329.014,990.348 357.276,990.348 z" id="boundary" inkscape:connector-curvature="0" />
	<path style="fill:none;stroke:red;stroke-width:1px;stroke-linecap:butt;stroke-linejoin:miter;stroke-opacity:1" d="M 413.801,996 385.538,996 z" id="boundary" inkscape:connector-curvature="0" />
	<path style="fill:none;stroke:red;stroke-width:1px;stroke-linecap:butt;stroke-linejoin:miter;stroke-opacity:1" d="M 442.063,996 413.801,996 z" id="boundary" inkscape:connector-curvature="0" />
	<path style="fill:none;stroke:red;stroke-width:1px;stroke-linecap:butt;stroke-linejoin:miter;stroke-opacity:1" d="M 470.325,996 442.063,996 z" id="boundary" inkscape:connector-curvature="0" />
	<path style="fill:none;stroke:red;stroke-width:1px;stroke-linecap:butt;stroke-linejoin:miter;stroke-opacity:1" d="M 515.544,40.7407 540.98,26.6097 z" id="boundary" inkscape:connector-curvature="0" />
	<path style="fill:none;stroke:red;stroke-width:1px;stroke-linecap:butt;stroke-linejoin:miter;stroke-opacity:1" d="M 487.282,43.567 459.02,43.567 z" id="boundary" inkscape:connector-curvature="0" />
	<path style="fill:none;stroke:red;stroke-width:1px;stroke-linecap:butt;stroke-linejoin:miter;stroke-opacity:1" d="M 487.282,43.567 515.544,40.7407 z" id="boundary" inkscape:connector-curvature="0" />
	<path style="fill:none;stroke:red;stroke-width:1px;stroke-linecap:butt;stroke-linejoin:miter;stroke-opacity:1" d="M 540.98,26.6097 569.242,15.3048 z" id="boundary" inkscape:connector-curvature="0" />
	<path style="fill:none;stroke:red;stroke-width:1px;stroke-linecap:butt;stroke-linejoin:miter;stroke-opacity:1" d="M 597.504,9.65242 625.766,4 z" id="boundary" inkscape:connector-curvature="0" />
	<path style="fill:none;stroke:red;stroke-width:1px;stroke-linecap:butt;stroke-linejoin:miter;stroke-opacity:1" d="M 625.766,4 654.028,9.65242 z" id="boundary" inkscape:connector-curvature="0" />
	<path style="fill:none;stroke:red;stroke-width:1px;stroke-linecap:butt;stroke-linejoin:miter;stroke-opacity:1" d="M 707.726,122.701 696.422,150.963 z" id="boundary" inkscape:connector-curvature="0" />
	<path style="fill:none;stroke:red;stroke-width:1px;stroke-linecap:butt;stroke-linejoin:miter;stroke-opacity:1" d="M 569.242,15.3048 597.504,9.65242 z" id="boundary" inkscape:connector-curvature="0" />
	<path style="fill:none;stroke:red;stroke-width:1px;stroke-linecap:butt;stroke-linejoin:miter;stroke-opacity:1" d="M 707.726,382.712 679.464,382.712 z" id="boundary" inkscape:connector-curvature="0" />
	<path style="fill:none;stroke:red;stroke-width:1px;stroke-linecap:butt;stroke-linejoin:miter;stroke-opacity:1" d="M 679.464,303.578 668.16,343.145 z" id="boundary" inkscape:connector-curvature="0" />
	<path style="fill:none;stroke:red;stroke-width:1px;stroke-linecap:butt;stroke-linejoin:miter;stroke-opacity:1" d="M 668.16,343.145 654.028,368.581 z" id="boundary" inkscape:connector-curvature="0" />
	<path style="fill:none;stroke:red;stroke-width:1px;stroke-linecap:butt;stroke-linejoin:miter;stroke-opacity:1" d="M 662.507,665.333 654.028,368.581 z" id="boundary" inkscape:connector-curvature="0" />
	<path style="fill:none;stroke:red;stroke-width:1px;stroke-linecap:butt;stroke-linejoin:miter;stroke-opacity:1" d="M 654.028,368.581 679.464,382.712 z" id="boundary" inkscape:connector-curvature="0" />
	<path style="fill:none;stroke:red;stroke-width:1px;stroke-linecap:butt;stroke-linejoin:miter;stroke-opacity:1" d="M 679.464,382.712 662.507,665.333 z" id="boundary" inkscape:connector-curvature="0" />
	<path style="fill:none;stroke:red;stroke-width:1px;stroke-linecap:butt;stroke-linejoin:miter;stroke-opacity:1" d="M 685.117,179.225 696.422,150.963 z" id="boundary" inkscape:connector-curvature="0" />
	<path style="fill:none;stroke:red;stroke-width:1px;stroke-linecap:butt;stroke-linejoin:miter;stroke-opacity:1" d="M 685.117,207.487 685.117,179.225 z" id="boundary" inkscape:connector-curvature="0" />
	<path style="fill:none;stroke:red;stroke-width:1px;stroke-linecap:butt;stroke-linejoin:miter;stroke-opacity:1" d="M 685.117,235.749 685.117,264.011 z" id="boundary" inkscape:connector-curvature="0" />
	<path style="fill:none;stroke:red;stroke-width:1px;stroke-linecap:butt;stroke-linejoin:miter;stroke-opacity:1" d="M 685.117,235.749 685.117,207.487 z" id="boundary" inkscape:connector-curvature="0" />
	<path style="fill:none;stroke:red;stroke-width:1px;stroke-linecap:butt;stroke-linejoin:miter;stroke-opacity:1" d="M 685.117,264.011 679.464,303.578 z" id="boundary" inkscape:connector-curvature="0" />
	<path style="fill:none;stroke:red;stroke-width:1px;stroke-linecap:butt;stroke-linejoin:miter;stroke-opacity:1" d="M 654.028,9.65242 682.291,20.9573 z" id="boundary" inkscape:connector-curvature="0" />
	<path style="fill:none;stroke:red;stroke-width:1px;stroke-linecap:butt;stroke-linejoin:miter;stroke-opacity:1" d="M 713.379,69.0028 707.726,122.701 z" id="boundary" inkscape:connector-curvature="0" />
	<path style="fill:none;stroke:red;stroke-width:1px;stroke-linecap:butt;stroke-linejoin:miter;stroke-opacity:1" d="M 735.989,394.017 707.726,382.712 z" id="boundary" inkscape:connector-curvature="0" />
	<path style="fill:none;stroke:red;stroke-width:1px;stroke-linecap:butt;stroke-linejoin:miter;stroke-opacity:1" d="M 885.778,459.02 857.516,450.541 z" id="boundary" inkscape:connector-curvature="0" />
	<path style="fill:none;stroke:red;stroke-width:1px;stroke-linecap:butt;stroke-linejoin:miter;stroke-opacity:1" d="M 682.291,20.9573 704.9,40.7407 z" id="boundary" inkscape:connector-curvature="0" />
	<path style="fill:none;stroke:red;stroke-width:1px;stroke-linecap:butt;stroke-linejoin:miter;stroke-opacity:1" d="M 704.9,40.7407 713.379,69.0028 z" id="boundary" inkscape:connector-curvature="0" />
	<path style="fill:none;stroke:red;stroke-width:1px;stroke-linecap:butt;stroke-linejoin:miter;stroke-opacity:1" d="M 735.989,394.017 764.251,405.322 z" id="boundary" inkscape:connector-curvature="0" />
	<path style="fill:none;stroke:red;stroke-width:1px;stroke-linecap:butt;stroke-linejoin:miter;stroke-opacity:1" d="M 764.251,405.322 784.034,427.932 z" id="boundary" inkscape:connector-curvature="0" />
	<path style="fill:none;stroke:red;stroke-width:1px;stroke-linecap:butt;stroke-linejoin:miter;stroke-opacity:1" d="M 784.034,427.932 812.296,433.584 z" id="boundary" inkscape:connector-curvature="0" />
	<path style="fill:none;stroke:red;stroke-width:1px;stroke-linecap:butt;stroke-linejoin:miter;stroke-opacity:1" d="M 812.296,433.584 829.254,456.194 z" id="boundary" inkscape:connector-curvature="0" />
	<path style="fill:none;stroke:red;stroke-width:1px;stroke-linecap:butt;stroke-linejoin:miter;stroke-opacity:1" d="M 857.516,450.541 829.254,456.194 z" id="boundary" inkscape:connector-curvature="0" />
	<path style="fill:none;stroke:red;stroke-width:1px;stroke-linecap:butt;stroke-linejoin:miter;stroke-opacity:1" d="M 877.299,591.852 854.689,608.809 z" id="boundary" inkscape:connector-curvature="0" />
	<path style="fill:none;stroke:red;stroke-width:1px;stroke-linecap:butt;stroke-linejoin:miter;stroke-opacity:1" d="M 894.256,569.242 877.299,591.852 z" id="boundary" inkscape:connector-curvature="0" />
	<path style="fill:none;stroke:red;stroke-width:1px;stroke-linecap:butt;stroke-linejoin:miter;stroke-opacity:1" d="M 832.08,625.766 854.689,608.809 z" id="boundary" inkscape:connector-curvature="0" />
	<path style="fill:none;stroke:red;stroke-width:1px;stroke-linecap:butt;stroke-linejoin:miter;stroke-opacity:1" d="M 902.735,481.63 911.214,509.892 z" id="boundary" inkscape:connector-curvature="0" />
	<path style="fill:none;stroke:red;stroke-width:1px;stroke-linecap:butt;stroke-linejoin:miter;stroke-opacity:1" d="M 902.735,481.63 885.778,459.02 z" id="boundary" inkscape:connector-curvature="0" />
	<path style="fill:none;stroke:red;stroke-width:1px;stroke-linecap:butt;stroke-linejoin:miter;stroke-opacity:1" d="M 905.561,540.98 894.256,569.242 z" id="boundary" inkscape:connector-curvature="0" />
	<path style="fill:none;stroke:red;stroke-width:1px;stroke-linecap:butt;stroke-linejoin:miter;stroke-opacity:1" d="M 911.214,509.892 905.561,540.98 z" id="boundary" inkscape:connector-curvature="0" />
	<path style="fill:none;stroke:red;stroke-width:1px;stroke-linecap:butt;stroke-linejoin:miter;stroke-opacity:1" d="M 832.08,625.766 803.818,639.897 z" id="boundary" inkscape:connector-curvature="0" />
	<path style="fill:none;stroke:red;stroke-width:1px;stroke-linecap:butt;stroke-linejoin:miter;stroke-opacity:1" d="M 662.507,665.333 690.769,668.16 z" id="boundary" inkscape:connector-curvature="0" />
	<path style="fill:none;stroke:red;stroke-width:1px;stroke-linecap:butt;stroke-linejoin:miter;stroke-opacity:1" d="M 668.16,693.595 662.507,665.333 z" id="boundary" inkscape:connector-curvature="0" />
	<path style="fill:none;stroke:red;stroke-width:1px;stroke-linecap:butt;stroke-linejoin:miter;stroke-opacity:1" d="M 719.031,659.681 690.769,668.16 z" id="boundary" inkscape:connector-curvature="0" />
	<path style="fill:none;stroke:red;stroke-width:1px;stroke-linecap:butt;stroke-linejoin:miter;stroke-opacity:1" d="M 668.16,693.595 685.117,716.205 z" id="boundary" inkscape:connector-curvature="0" />
	<path style="fill:none;stroke:red;stroke-width:1px;stroke-linecap:butt;stroke-linejoin:miter;stroke-opacity:1" d="M 713.379,721.858 685.117,716.205 z" id="boundary" inkscape:connector-curvature="0" />
	<path style="fill:none;stroke:red;stroke-width:1px;stroke-linecap:butt;stroke-linejoin:miter;stroke-opacity:1" d="M 719.031,659.681 747.293,662.507 z" id="boundary" inkscape:connector-curvature="0" />
	<path style="fill:none;stroke:red;stroke-width:1px;stroke-linecap:butt;stroke-linejoin:miter;stroke-opacity:1" d="M 775.556,651.202 747.293,662.507 z" id="boundary" inkscape:connector-curvature="0" />
	<path style="fill:none;stroke:red;stroke-width:1px;stroke-linecap:butt;stroke-linejoin:miter;stroke-opacity:1" d="M 713.379,721.858 741.641,727.51 z" id="boundary" inkscape:connector-curvature="0" />
	<path style="fill:none;stroke:red;stroke-width:1px;stroke-linecap:butt;stroke-linejoin:miter;stroke-opacity:1" d="M 750.12,996 721.858,996 z" id="boundary" inkscape:connector-curvature="0" />
	<path style="fill:none;stroke:red;stroke-width:1px;stroke-linecap:butt;stroke-linejoin:miter;stroke-opacity:1" d="M 583.373,984.695 555.111,987.521 z" id="boundary" inkscape:connector-curvature="0" />
	<path style="fill:none;stroke:red;stroke-width:1px;stroke-linecap:butt;stroke-linejoin:miter;stroke-opacity:1" d="M 498.587,996 526.849,990.348 z" id="boundary" inkscape:connector-curvature="0" />
	<path style="fill:none;stroke:red;stroke-width:1px;stroke-linecap:butt;stroke-linejoin:miter;stroke-opacity:1" d="M 526.849,990.348 555.111,987.521 z" id="boundary" inkscape:connector-curvature="0" />
	<path style="fill:none;stroke:red;stroke-width:1px;stroke-linecap:butt;stroke-linejoin:miter;stroke-opacity:1" d="M 498.587,996 470.325,996 z" id="boundary" inkscape:connector-curvature="0" />
	<path style="fill:none;stroke:red;stroke-width:1px;stroke-linecap:butt;stroke-linejoin:miter;stroke-opacity:1" d="M 611.635,979.043 639.897,973.39 z" id="boundary" inkscape:connector-curvature="0" />
	<path style="fill:none;stroke:red;stroke-width:1px;stroke-linecap:butt;stroke-linejoin:miter;stroke-opacity:1" d="M 639.897,973.39 668.16,979.043 z" id="boundary" inkscape:connector-curvature="0" />
	<path style="fill:none;stroke:red;stroke-width:1px;stroke-linecap:butt;stroke-linejoin:miter;stroke-opacity:1" d="M 611.635,979.043 583.373,984.695 z" id="boundary" inkscape:connector-curvature="0" />
	<path style="fill:none;stroke:red;stroke-width:1px;stroke-linecap:butt;stroke-linejoin:miter;stroke-opacity:1" d="M 721.858,996 693.595,993.174 z" id="boundary" inkscape:connector-curvature="0" />
	<path style="fill:none;stroke:red;stroke-width:1px;stroke-linecap:butt;stroke-linejoin:miter;stroke-opacity:1" d="M 693.595,993.174 668.16,979.043 z" id="boundary" inkscape:connector-curvature="0" />
	<path style="fill:none;stroke:red;stroke-width:1px;stroke-linecap:butt;stroke-linejoin:miter;stroke-opacity:1" d="M 769.903,727.51 741.641,727.51 z" id="boundary" inkscape:connector-curvature="0" />
	<path style="fill:none;stroke:red;stroke-width:1px;stroke-linecap:butt;stroke-linejoin:miter;stroke-opacity:1" d="M 775.556,651.202 803.818,639.897 z" id="boundary" inkscape:connector-curvature="0" />
	<path style="fill:none;stroke:red;stroke-width:1px;stroke-linecap:butt;stroke-linejoin:miter;stroke-opacity:1" d="M 769.903,727.51 798.165,727.51 z" id="boundary" inkscape:connector-curvature="0" />
	<path style="fill:none;stroke:red;stroke-width:1px;stroke-linecap:butt;stroke-linejoin:miter;stroke-opacity:1" d="M 826.427,733.162 798.165,727.51 z" id="boundary" inkscape:connector-curvature="0" />
	<path style="fill:none;stroke:red;stroke-width:1px;stroke-linecap:butt;stroke-linejoin:miter;stroke-opacity:1" d="M 868.821,772.729 877.299,800.991 z" id="boundary" inkscape:connector-curvature="0" />
	<path style="fill:none;stroke:red;stroke-width:1px;stroke-linecap:butt;stroke-linejoin:miter;stroke-opacity:1" d="M 849.037,750.12 868.821,772.729 z" id="boundary" inkscape:connector-curvature="0" />
	<path style="fill:none;stroke:red;stroke-width:1px;stroke-linecap:butt;stroke-linejoin:miter;stroke-opacity:1" d="M 885.778,829.254 877.299,800.991 z" id="boundary" inkscape:connector-curvature="0" />
	<path style="fill:none;stroke:red;stroke-width:1px;stroke-linecap:butt;stroke-linejoin:miter;stroke-opacity:1" d="M 849.037,750.12 826.427,733.162 z" id="boundary" inkscape:connector-curvature="0" />
	<path style="fill:none;stroke:red;stroke-width:1px;stroke-linecap:butt;stroke-linejoin:miter;stroke-opacity:1" d="M 857.516,967.738 834.906,984.695 z" id="boundary" inkscape:connector-curvature="0" />
	<path style="fill:none;stroke:red;stroke-width:1px;stroke-linecap:butt;stroke-linejoin:miter;stroke-opacity:1" d="M 778.382,996 750.12,996 z" id="boundary" inkscape:connector-curvature="0" />
	<path style="fill:none;stroke:red;stroke-width:1px;stroke-linecap:butt;stroke-linejoin:miter;stroke-opacity:1" d="M 806.644,996 778.382,996 z" id="boundary" inkscape:connector-curvature="0" />
	<path style="fill:none;stroke:red;stroke-width:1px;stroke-linecap:butt;stroke-linejoin:miter;stroke-opacity:1" d="M 834.906,984.695 806.644,996 z" id="boundary" inkscape:connector-curvature="0" />
	<path style="fill:none;stroke:red;stroke-width:1px;stroke-linecap:butt;stroke-linejoin:miter;stroke-opacity:1" d="M 888.604,885.778 894.256,857.516 z" id="boundary" inkscape:connector-curvature="0" />
	<path style="fill:none;stroke:red;stroke-width:1px;stroke-linecap:butt;stroke-linejoin:miter;stroke-opacity:1" d="M 888.604,914.04 888.604,885.778 z" id="boundary" inkscape:connector-curvature="0" />
	<path style="fill:none;stroke:red;stroke-width:1px;stroke-linecap:butt;stroke-linejoin:miter;stroke-opacity:1" d="M 888.604,914.04 880.125,950.781 z" id="boundary" inkscape:connector-curvature="0" />
	<path style="fill:none;stroke:red;stroke-width:1px;stroke-linecap:butt;stroke-linejoin:miter;stroke-opacity:1" d="M 880.125,950.781 857.516,967.738 z" id="boundary" inkscape:connector-curvature="0" />
	<path style="fill:none;stroke:red;stroke-width:1px;stroke-linecap:butt;stroke-linejoin:miter;stroke-opacity:1" d="M 885.778,829.254 894.256,857.516 z" id="boundary" inkscape:connector-curvature="0" />
	<circle cx="4" cy="507.066" r="4" fill="#0" id="circle0"/>
	<circle cx="4" cy="535.328" r="4" fill="#0" id="circle1"/>
	<circle cx="15.3048" cy="563.59" r="4" fill="#0" id="circle2"/>
	<circle cx="18.1311" cy="481.63" r="4" fill="#0" id="circle3"/>
	<circle cx="32.2621" cy="586.199" r="4" fill="#0" id="circle4"/>
	<circle cx="35.0883" cy="459.02" r="4" fill="#0" id="circle5"/>
	<circle cx="43.567" cy="846.211" r="4" fill="#0" id="circle6"/>
	<circle cx="43.567" cy="874.473" r="4" fill="#0" id="circle7"/>
	<circle cx="43.567" cy="902.735" r="4" fill="#0" id="circle8"/>
	<circle cx="49.2194" cy="930.997" r="4" fill="#0" id="circle9"/>
	<circle cx="52.0456" cy="608.809" r="4" fill="#0" id="circle10"/>
	<circle cx="54.8718" cy="806.644" r="4" fill="#0" id="circle11"/>
	<circle cx="57.698" cy="959.259" r="4" fill="#0" id="circle12"/>
	<circle cx="60.5242" cy="444.889" r="4" fill="#0" id="circle13"/>
	<circle cx="66.1766" cy="772.729" r="4" fill="#0" id="circle14"/>
	<circle cx="74.6553" cy="625.766" r="4" fill="#0" id="circle15"/>
	<circle cx="80.3077" cy="976.217" r="4" fill="#0" id="circle16"/>
	<circle cx="88.7863" cy="439.236" r="4" fill="#0" id="circle17"/>
	<circle cx="88.7863" cy="750.12" r="4" fill="#0" id="circle18"/>
	<circle cx="100.091" cy="639.897" r="4" fill="#0" id="circle19"/>
	<circle cx="102.917" cy="993.174" r="4" fill="#0" id="circle20"/>
	<circle cx="111.396" cy="416.627" r="4" fill="#0" id="circle21"/>
	<circle cx="111.396" cy="733.162" r="4" fill="#0" id="circle22"/>
	<circle cx="128.353" cy="651.202" r="4" fill="#0" id="circle23"/>
	<circle cx="131.179" cy="996" r="4" fill="#0" id="circle24"/>
	<circle cx="134.006" cy="399.67" r="4" fill="#0" id="circle25"/>
	<circle cx="139.658" cy="727.51" r="4" fill="#0" id="circle26"/>
	<circle cx="156.615" cy="662.507" r="4" fill="#0" id="circle27"/>
	<circle cx="159.442" cy="996" r="4" fill="#0" id="circle28"/>
	<circle cx="162.268" cy="60.5242" r="4" fill="#0" id="circle29"/>
	<circle cx="162.268" cy="88.7863" r="4" fill="#0" id="circle30"/>
	<circle cx="162.268" cy="388.365" r="4" fill="#0" id="circle31"/>
	<circle cx="167.92" cy="117.048" r="4" fill="#0" id="circle32"/>
	<circle cx="167.92" cy="727.51" r="4" fill="#0" id="circle33"/>
	<circle cx="176.399" cy="145.311" r="4" fill="#0" id="circle34"/>
	<circle cx="184.877" cy="37.9145" r="4" fill="#0" id="circle35"/>
	<circle cx="184.877" cy="670.986" r="4" fill="#0" id="circle36"/>
	<circle cx="187.704" cy="996" r="4" fill="#0" id="circle37"/>
	<circle cx="190.53" cy="170.746" r="4" fill="#0" id="circle38"/>
	<circle cx="190.53" cy="382.712" r="4" fill="#0" id="circle39"/>
	<circle cx="196.182" cy="716.205" r="4" fill="#0" id="circle40"/>
	<circle cx="201.835" cy="199.009" r="4" fill="#0" id="circle41"/>
	<circle cx="201.835" cy="227.271" r="4" fill="#0" id="circle42"/>
	<circle cx="201.835" cy="255.533" r="4" fill="#0" id="circle43"/>
	<circle cx="201.835" cy="283.795" r="4" fill="#0" id="circle44"/>
	<circle cx="207.487" cy="15.3048" r="4" fill="#0" id="circle45"/>
	<circle cx="207.487" cy="312.057" r="4" fill="#0" id="circle46"/>
	<circle cx="213.14" cy="340.319" r="4" fill="#0" id="circle47"/>
	<circle cx="213.14" cy="668.16" r="4" fill="#0" id="circle48"/>
	<circle cx="215.966" cy="996" r="4" fill="#0" id="circle49"/>
	<circle cx="218.792" cy="382.712" r="4" fill="#0" id="circle50"/>
	<circle cx="224.444" cy="704.9" r="4" fill="#0" id="circle51"/>
	<circle cx="235.749" cy="9.65242" r="4" fill="#0" id="circle52"/>
	<circle cx="244.228" cy="990.348" r="4" fill="#0" id="circle53"/>
	<circle cx="264.011" cy="4" r="4" fill="#0" id="circle54"/>
	<circle cx="272.49" cy="979.043" r="4" fill="#0" id="circle55"/>
	<circle cx="292.274" cy="9.65242" r="4" fill="#0" id="circle56"/>
	<circle cx="300.752" cy="984.695" r="4" fill="#0" id="circle57"/>
	<circle cx="320.536" cy="18.1311" r="4" fill="#0" id="circle58"/>
	<circle cx="329.014" cy="990.348" r="4" fill="#0" id="circle59"/>
	<circle cx="345.972" cy="32.2621" r="4" fill="#0" id="circle60"/>
	<circle cx="357.276" cy="990.348" r="4" fill="#0" id="circle61"/>
	<circle cx="374.234" cy="43.567" r="4" fill="#0" id="circle62"/>
	<circle cx="385.538" cy="996" r="4" fill="#0" id="circle63"/>
	<circle cx="402.496" cy="43.567" r="4" fill="#0" id="circle64"/>
	<circle cx="413.801" cy="996" r="4" fill="#0" id="circle65"/>
	<circle cx="430.758" cy="43.567" r="4" fill="#0" id="circle66"/>
	<circle cx="442.063" cy="996" r="4" fill="#0" id="circle67"/>
	<circle cx="459.02" cy="43.567" r="4" fill="#0" id="circle68"/>
	<circle cx="470.325" cy="996" r="4" fill="#0" id="circle69"/>
	<circle cx="487.282" cy="43.567" r="4" fill="#0" id="circle70"/>
	<circle cx="498.587" cy="996" r="4" fill="#0" id="circle71"/>
	<circle cx="515.544" cy="40.7407" r="4" fill="#0" id="circle72"/>
	<circle cx="526.849" cy="990.348" r="4" fill="#0" id="circle73"/>
	<circle cx="540.98" cy="26.6097" r="4" fill="#0" id="circle74"/>
	<circle cx="555.111" cy="987.521" r="4" fill="#0" id="circle75"/>
	<circle cx="569.242" cy="15.3048" r="4" fill="#0" id="circle76"/>
	<circle cx="583.373" cy="984.695" r="4" fill="#0" id="circle77"/>
	<circle cx="597.504" cy="9.65242" r="4" fill="#0" id="circle78"/>
	<circle cx="611.635" cy="979.043" r="4" fill="#0" id="circle79"/>
	<circle cx="625.766" cy="4" r="4" fill="#0" id="circle80"/>
	<circle cx="639.897" cy="973.39" r="4" fill="#0" id="circle81"/>
	<circle cx="654.028" cy="9.65242" r="4" fill="#0" id="circle82"/>
	<circle cx="654.028" cy="368.581" r="4" fill="#0" id="circle83"/>
	<circle cx="662.507" cy="665.333" r="4" fill="#0" id="circle84"/>
	<circle cx="668.16" cy="343.145" r="4" fill="#0" id="circle85"/>
	<circle cx="668.16" cy="693.595" r="4" fill="#0" id="circle86"/>
	<circle cx="668.16" cy="979.043" r="4" fill="#0" id="circle87"/>
	<circle cx="679.464" cy="303.578" r="4" fill="#0" id="circle88"/>
	<circle cx="679.464" cy="382.712" r="4" fill="#0" id="circle89"/>
	<circle cx="682.291" cy="20.9573" r="4" fill="#0" id="circle90"/>
	<circle cx="685.117" cy="179.225" r="4" fill="#0" id="circle91"/>
	<circle cx="685.117" cy="207.487" r="4" fill="#0" id="circle92"/>
	<circle cx="685.117" cy="235.749" r="4" fill="#0" id="circle93"/>
	<circle cx="685.117" cy="264.011" r="4" fill="#0" id="circle94"/>
	<circle cx="685.117" cy="716.205" r="4" fill="#0" id="circle95"/>
	<circle cx="690.769" cy="668.16" r="4" fill="#0" id="circle96"/>
	<circle cx="693.595" cy="993.174" r="4" fill="#0" id="circle97"/>
	<circle cx="696.422" cy="150.963" r="4" fill="#0" id="circle98"/>
	<circle cx="704.9" cy="40.7407" r="4" fill="#0" id="circle99"/>
	<circle cx="707.726" cy="122.701" r="4" fill="#0" id="circle100"/>
	<circle cx="707.726" cy="382.712" r="4" fill="#0" id="circle101"/>
	<circle cx="713.379" cy="69.0028" r="4" fill="#0" id="circle102"/>
	<circle cx="713.379" cy="721.858" r="4" fill="#0" id="circle103"/>
	<circle cx="719.031" cy="659.681" r="4" fill="#0" id="circle104"/>
	<circle cx="721.858" cy="996" r="4" fill="#0" id="circle105"/>
	<circle cx="735.989" cy="394.017" r="4" fill="#0" id="circle106"/>
	<circle cx="741.641" cy="727.51" r="4" fill="#0" id="circle107"/>
	<circle cx="747.293" cy="662.507" r="4" fill="#0" id="circle108"/>
	<circle cx="750.12" cy="996" r="4" fill="#0" id="circle109"/>
	<circle cx="764.251" cy="405.322" r="4" fill="#0" id="circle110"/>
	<circle cx="769.903" cy="727.51" r="4" fill="#0" id="circle111"/>
	<circle cx="775.556" cy="651.202" r="4" fill="#0" id="circle112"/>
	<circle cx="778.382" cy="996" r="4" fill="#0" id="circle113"/>
	<circle cx="784.034" cy="427.932" r="4" fill="#0" id="circle114"/>
	<circle cx="798.165" cy="727.51" r="4" fill="#0" id="circle115"/>
	<circle cx="803.818" cy="639.897" r="4" fill="#0" id="circle116"/>
	<circle cx="806.644" cy="996" r="4" fill="#0" id="circle117"/>
	<circle cx="812.296" cy="433.584" r="4" fill="#0" id="circle118"/>
	<circle cx="826.427" cy="733.162" r="4" fill="#0" id="circle119"/>
	<circle cx="829.254" cy="456.194" r="4" fill="#0" id="circle120"/>
	<circle cx="832.08" cy="625.766" r="4" fill="#0" id="circle121"/>
	<circle cx="834.906" cy="984.695" r="4" fill="#0" id="circle122"/>
	<circle cx="849.037" cy="750.12" r="4" fill="#0" id="circle123"/>
	<circle cx="854.689" cy="608.809" r="4" fill="#0" id="circle124"/>
	<circle cx="857.516" cy="450.541" r="4" fill="#0" id="circle125"/>
	<circle cx="857.516" cy="967.738" r="4" fill="#0" id="circle126"/>
	<circle cx="868.821" cy="772.729" r="4" fill="#0" id="circle127"/>
	<circle cx="877.299" cy="591.852" r="4" fill="#0" id="circle128"/>
	<circle cx="877.299" cy="800.991" r="4" fill="#0" id="circle129"/>
	<circle cx="880.125" cy="950.781" r="4" fill="#0" id="circle130"/>
	<circle cx="885.778" cy="459.02" r="4" fill="#0" id="circle131"/>
	<circle cx="885.778" cy="829.254" r="4" fill="#0" id="circle132"/>
	<circle cx="888.604" cy="885.778" r="4" fill="#0" id="circle133"/>
	<circle cx="888.604" cy="914.04" r="4" fill="#0" id="circle134"/>
	<circle cx="894.256" cy="569.242" r="4" fill="#0" id="circle135"/>
	<circle cx="894.256" cy="857.516" r="4" fill="#0" id="circle136"/>
	<circle cx="902.735" cy="481.63" r="4" fill="#0" id="circle137"/>
	<circle cx="905.561" cy="540.98" r="4" fill="#0" id="circle138"/>
	<circle cx="911.214" cy="509.892" r="4" fill="#0" id="circle139"/>
	</g>
</svg>