<?xml version="1.0" encoding="UTF-8" standalone="no"?>
<!-- Created with CurveBenchmark -->
<svg
	xmlns:dc="http://purl.org/dc/elements/1.1/"
	xmlns:cc="http://creativecommons.org/ns#"
	xmlns:rdf="http://www.w3.org/1999/02/22-rdf-syntax-ns#"
	xmlns:svg="http://www.w3.org/2000/svg"
	xmlns="http://www.w3.org/2000/svg"
	xmlns:sodipodi="http://sodipodi.sourceforge.net/DTD/sodipodi-0.dtd"
	xmlns:inkscape="http://www.inkscape.org/namespaces/inkscape"
	width="1000"
	height="1000"
	id="svg2"
	version="1.1"
	sodipodi:docname="manifold/nncrust-swordfishesocc4.png.txt">
<defs
	id="defs4" />
<metadata
	id="metadata7">
	<rdf:RDF>
		<cc:Work
			rdf:about="">
			<dc:format>image/svg+xml</dc:format>
			<dc:type
				rdf:resource="http://purl.org/dc/dcmitype/StillImage" />
			<dc:title></dc:title>
		</cc:Work>
	</rdf:RDF>
</metadata>
<g
	inkscape:label="Layer 1"
	inkscape:groupmode="layer"
	id="layer1">
	<path style="fill:none;stroke:red;stroke-width:1px;stroke-linecap:butt;stroke-linejoin:miter;stroke-opacity:1" d="M 61.4074,38.4444 84.3704,38.4444 z" id="boundary" inkscape:connector-curvature="0" />
	<path style="fill:none;stroke:red;stroke-width:1px;stroke-linecap:butt;stroke-linejoin:miter;stroke-opacity:1" d="M 84.3704,38.4444 105.037,49.9259 z" id="boundary" inkscape:connector-curvature="0" />
	<path style="fill:none;stroke:red;stroke-width:1px;stroke-linecap:butt;stroke-linejoin:miter;stroke-opacity:1" d="M 26.963,68.2963 38.4444,45.3333 z" id="boundary" inkscape:connector-curvature="0" />
	<path style="fill:none;stroke:red;stroke-width:1px;stroke-linecap:butt;stroke-linejoin:miter;stroke-opacity:1" d="M 38.4444,45.3333 61.4074,38.4444 z" id="boundary" inkscape:connector-curvature="0" />
	<path style="fill:none;stroke:red;stroke-width:1px;stroke-linecap:butt;stroke-linejoin:miter;stroke-opacity:1" d="M 128,49.9259 105.037,49.9259 z" id="boundary" inkscape:connector-curvature="0" />
	<path style="fill:none;stroke:red;stroke-width:1px;stroke-linecap:butt;stroke-linejoin:miter;stroke-opacity:1" d="M 150.963,49.9259 128,49.9259 z" id="boundary" inkscape:connector-curvature="0" />
	<path style="fill:none;stroke:red;stroke-width:1px;stroke-linecap:butt;stroke-linejoin:miter;stroke-opacity:1" d="M 173.926,49.9259 194.593,61.4074 z" id="boundary" inkscape:connector-curvature="0" />
	<path style="fill:none;stroke:red;stroke-width:1px;stroke-linecap:butt;stroke-linejoin:miter;stroke-opacity:1" d="M 150.963,49.9259 173.926,49.9259 z" id="boundary" inkscape:connector-curvature="0" />
	<path style="fill:none;stroke:red;stroke-width:1px;stroke-linecap:butt;stroke-linejoin:miter;stroke-opacity:1" d="M 217.556,61.4074 194.593,61.4074 z" id="boundary" inkscape:connector-curvature="0" />
	<path style="fill:none;stroke:red;stroke-width:1px;stroke-linecap:butt;stroke-linejoin:miter;stroke-opacity:1" d="M 56.8148,187.704 38.4444,171.63 z" id="boundary" inkscape:connector-curvature="0" />
	<path style="fill:none;stroke:red;stroke-width:1px;stroke-linecap:butt;stroke-linejoin:miter;stroke-opacity:1" d="M 4,137.185 22.3704,153.259 z" id="boundary" inkscape:connector-curvature="0" />
	<path style="fill:none;stroke:red;stroke-width:1px;stroke-linecap:butt;stroke-linejoin:miter;stroke-opacity:1" d="M 22.3704,153.259 38.4444,171.63 z" id="boundary" inkscape:connector-curvature="0" />
	<path style="fill:none;stroke:red;stroke-width:1px;stroke-linecap:butt;stroke-linejoin:miter;stroke-opacity:1" d="M 4,137.185 4,114.222 z" id="boundary" inkscape:connector-curvature="0" />
	<path style="fill:none;stroke:red;stroke-width:1px;stroke-linecap:butt;stroke-linejoin:miter;stroke-opacity:1" d="M 4,114.222 4,91.2593 z" id="boundary" inkscape:connector-curvature="0" />
	<path style="fill:none;stroke:red;stroke-width:1px;stroke-linecap:butt;stroke-linejoin:miter;stroke-opacity:1" d="M 4,91.2593 26.963,68.2963 z" id="boundary" inkscape:connector-curvature="0" />
	<path style="fill:none;stroke:red;stroke-width:1px;stroke-linecap:butt;stroke-linejoin:miter;stroke-opacity:1" d="M 240.519,61.4074 217.556,61.4074 z" id="boundary" inkscape:connector-curvature="0" />
	<path style="fill:none;stroke:red;stroke-width:1px;stroke-linecap:butt;stroke-linejoin:miter;stroke-opacity:1" d="M 240.519,61.4074 263.481,61.4074 z" id="boundary" inkscape:connector-curvature="0" />
	<path style="fill:none;stroke:red;stroke-width:1px;stroke-linecap:butt;stroke-linejoin:miter;stroke-opacity:1" d="M 286.444,49.9259 263.481,61.4074 z" id="boundary" inkscape:connector-curvature="0" />
	<path style="fill:none;stroke:red;stroke-width:1px;stroke-linecap:butt;stroke-linejoin:miter;stroke-opacity:1" d="M 378.296,15.4815 355.333,26.963 z" id="boundary" inkscape:connector-curvature="0" />
	<path style="fill:none;stroke:red;stroke-width:1px;stroke-linecap:butt;stroke-linejoin:miter;stroke-opacity:1" d="M 355.333,26.963 332.37,26.963 z" id="boundary" inkscape:connector-curvature="0" />
	<path style="fill:none;stroke:red;stroke-width:1px;stroke-linecap:butt;stroke-linejoin:miter;stroke-opacity:1" d="M 309.407,38.4444 332.37,26.963 z" id="boundary" inkscape:connector-curvature="0" />
	<path style="fill:none;stroke:red;stroke-width:1px;stroke-linecap:butt;stroke-linejoin:miter;stroke-opacity:1" d="M 424.222,4 447.185,4 z" id="boundary" inkscape:connector-curvature="0" />
	<path style="fill:none;stroke:red;stroke-width:1px;stroke-linecap:butt;stroke-linejoin:miter;stroke-opacity:1" d="M 378.296,15.4815 401.259,15.4815 z" id="boundary" inkscape:connector-curvature="0" />
	<path style="fill:none;stroke:red;stroke-width:1px;stroke-linecap:butt;stroke-linejoin:miter;stroke-opacity:1" d="M 401.259,15.4815 424.222,4 z" id="boundary" inkscape:connector-curvature="0" />
	<path style="fill:none;stroke:red;stroke-width:1px;stroke-linecap:butt;stroke-linejoin:miter;stroke-opacity:1" d="M 447.185,4 467.852,15.4815 z" id="boundary" inkscape:connector-curvature="0" />
	<path style="fill:none;stroke:red;stroke-width:1px;stroke-linecap:butt;stroke-linejoin:miter;stroke-opacity:1" d="M 467.852,15.4815 460.963,47.6296 z" id="boundary" inkscape:connector-curvature="0" />
	<path style="fill:none;stroke:red;stroke-width:1px;stroke-linecap:butt;stroke-linejoin:miter;stroke-opacity:1" d="M 286.444,49.9259 309.407,38.4444 z" id="boundary" inkscape:connector-curvature="0" />
	<path style="fill:none;stroke:red;stroke-width:1px;stroke-linecap:butt;stroke-linejoin:miter;stroke-opacity:1" d="M 408.148,98.1481 396.667,121.111 z" id="boundary" inkscape:connector-curvature="0" />
	<path style="fill:none;stroke:red;stroke-width:1px;stroke-linecap:butt;stroke-linejoin:miter;stroke-opacity:1" d="M 396.667,121.111 408.148,141.778 z" id="boundary" inkscape:connector-curvature="0" />
	<path style="fill:none;stroke:red;stroke-width:1px;stroke-linecap:butt;stroke-linejoin:miter;stroke-opacity:1" d="M 408.148,98.1481 426.519,82.0741 z" id="boundary" inkscape:connector-curvature="0" />
	<path style="fill:none;stroke:red;stroke-width:1px;stroke-linecap:butt;stroke-linejoin:miter;stroke-opacity:1" d="M 438,59.1111 460.963,47.6296 z" id="boundary" inkscape:connector-curvature="0" />
	<path style="fill:none;stroke:red;stroke-width:1px;stroke-linecap:butt;stroke-linejoin:miter;stroke-opacity:1" d="M 426.519,82.0741 438,59.1111 z" id="boundary" inkscape:connector-curvature="0" />
	<path style="fill:none;stroke:red;stroke-width:1px;stroke-linecap:butt;stroke-linejoin:miter;stroke-opacity:1" d="M 431.111,183.111 419.63,162.444 z" id="boundary" inkscape:connector-curvature="0" />
	<path style="fill:none;stroke:red;stroke-width:1px;stroke-linecap:butt;stroke-linejoin:miter;stroke-opacity:1" d="M 419.63,162.444 408.148,141.778 z" id="boundary" inkscape:connector-curvature="0" />
	<path style="fill:none;stroke:red;stroke-width:1px;stroke-linecap:butt;stroke-linejoin:miter;stroke-opacity:1" d="M 447.185,201.481 431.111,183.111 z" id="boundary" inkscape:connector-curvature="0" />
	<path style="fill:none;stroke:red;stroke-width:1px;stroke-linecap:butt;stroke-linejoin:miter;stroke-opacity:1" d="M 72.8889,206.074 56.8148,187.704 z" id="boundary" inkscape:connector-curvature="0" />
	<path style="fill:none;stroke:red;stroke-width:1px;stroke-linecap:butt;stroke-linejoin:miter;stroke-opacity:1" d="M 72.8889,206.074 91.2593,222.148 z" id="boundary" inkscape:connector-curvature="0" />
	<path style="fill:none;stroke:red;stroke-width:1px;stroke-linecap:butt;stroke-linejoin:miter;stroke-opacity:1" d="M 107.333,240.519 91.2593,222.148 z" id="boundary" inkscape:connector-curvature="0" />
	<path style="fill:none;stroke:red;stroke-width:1px;stroke-linecap:butt;stroke-linejoin:miter;stroke-opacity:1" d="M 118.815,261.185 118.815,284.148 z" id="boundary" inkscape:connector-curvature="0" />
	<path style="fill:none;stroke:red;stroke-width:1px;stroke-linecap:butt;stroke-linejoin:miter;stroke-opacity:1" d="M 107.333,240.519 118.815,261.185 z" id="boundary" inkscape:connector-curvature="0" />
	<path style="fill:none;stroke:red;stroke-width:1px;stroke-linecap:butt;stroke-linejoin:miter;stroke-opacity:1" d="M 199.185,316.296 178.519,327.778 z" id="boundary" inkscape:connector-curvature="0" />
	<path style="fill:none;stroke:red;stroke-width:1px;stroke-linecap:butt;stroke-linejoin:miter;stroke-opacity:1" d="M 118.815,307.111 118.815,284.148 z" id="boundary" inkscape:connector-curvature="0" />
	<path style="fill:none;stroke:red;stroke-width:1px;stroke-linecap:butt;stroke-linejoin:miter;stroke-opacity:1" d="M 118.815,307.111 118.815,330.074 z" id="boundary" inkscape:connector-curvature="0" />
	<path style="fill:none;stroke:red;stroke-width:1px;stroke-linecap:butt;stroke-linejoin:miter;stroke-opacity:1" d="M 118.815,330.074 118.815,353.037 z" id="boundary" inkscape:connector-curvature="0" />
	<path style="fill:none;stroke:red;stroke-width:1px;stroke-linecap:butt;stroke-linejoin:miter;stroke-opacity:1" d="M 130.296,373.704 118.815,353.037 z" id="boundary" inkscape:connector-curvature="0" />
	<path style="fill:none;stroke:red;stroke-width:1px;stroke-linecap:butt;stroke-linejoin:miter;stroke-opacity:1" d="M 144.074,392.074 130.296,373.704 z" id="boundary" inkscape:connector-curvature="0" />
	<path style="fill:none;stroke:red;stroke-width:1px;stroke-linecap:butt;stroke-linejoin:miter;stroke-opacity:1" d="M 178.519,350.741 178.519,327.778 z" id="boundary" inkscape:connector-curvature="0" />
	<path style="fill:none;stroke:red;stroke-width:1px;stroke-linecap:butt;stroke-linejoin:miter;stroke-opacity:1" d="M 199.185,316.296 212.963,334.667 z" id="boundary" inkscape:connector-curvature="0" />
	<path style="fill:none;stroke:red;stroke-width:1px;stroke-linecap:butt;stroke-linejoin:miter;stroke-opacity:1" d="M 178.519,373.704 167.037,396.667 z" id="boundary" inkscape:connector-curvature="0" />
	<path style="fill:none;stroke:red;stroke-width:1px;stroke-linecap:butt;stroke-linejoin:miter;stroke-opacity:1" d="M 167.037,396.667 144.074,392.074 z" id="boundary" inkscape:connector-curvature="0" />
	<path style="fill:none;stroke:red;stroke-width:1px;stroke-linecap:butt;stroke-linejoin:miter;stroke-opacity:1" d="M 178.519,350.741 178.519,373.704 z" id="boundary" inkscape:connector-curvature="0" />
	<path style="fill:none;stroke:red;stroke-width:1px;stroke-linecap:butt;stroke-linejoin:miter;stroke-opacity:1" d="M 212.963,334.667 235.926,343.852 z" id="boundary" inkscape:connector-curvature="0" />
	<path style="fill:none;stroke:red;stroke-width:1px;stroke-linecap:butt;stroke-linejoin:miter;stroke-opacity:1" d="M 256.593,355.333 274.963,371.407 z" id="boundary" inkscape:connector-curvature="0" />
	<path style="fill:none;stroke:red;stroke-width:1px;stroke-linecap:butt;stroke-linejoin:miter;stroke-opacity:1" d="M 256.593,355.333 235.926,343.852 z" id="boundary" inkscape:connector-curvature="0" />
	<path style="fill:none;stroke:red;stroke-width:1px;stroke-linecap:butt;stroke-linejoin:miter;stroke-opacity:1" d="M 295.63,382.889 314,396.667 z" id="boundary" inkscape:connector-curvature="0" />
	<path style="fill:none;stroke:red;stroke-width:1px;stroke-linecap:butt;stroke-linejoin:miter;stroke-opacity:1" d="M 295.63,382.889 274.963,371.407 z" id="boundary" inkscape:connector-curvature="0" />
	<path style="fill:none;stroke:red;stroke-width:1px;stroke-linecap:butt;stroke-linejoin:miter;stroke-opacity:1" d="M 447.185,201.481 465.556,217.556 z" id="boundary" inkscape:connector-curvature="0" />
	<path style="fill:none;stroke:red;stroke-width:1px;stroke-linecap:butt;stroke-linejoin:miter;stroke-opacity:1" d="M 334.667,408.148 314,396.667 z" id="boundary" inkscape:connector-curvature="0" />
	<path style="fill:none;stroke:red;stroke-width:1px;stroke-linecap:butt;stroke-linejoin:miter;stroke-opacity:1" d="M 465.556,217.556 483.926,233.63 z" id="boundary" inkscape:connector-curvature="0" />
	<path style="fill:none;stroke:red;stroke-width:1px;stroke-linecap:butt;stroke-linejoin:miter;stroke-opacity:1" d="M 355.333,419.63 334.667,408.148 z" id="boundary" inkscape:connector-curvature="0" />
	<path style="fill:none;stroke:red;stroke-width:1px;stroke-linecap:butt;stroke-linejoin:miter;stroke-opacity:1" d="M 504.593,245.111 483.926,233.63 z" id="boundary" inkscape:connector-curvature="0" />
	<path style="fill:none;stroke:red;stroke-width:1px;stroke-linecap:butt;stroke-linejoin:miter;stroke-opacity:1" d="M 355.333,419.63 378.296,428.815 z" id="boundary" inkscape:connector-curvature="0" />
	<path style="fill:none;stroke:red;stroke-width:1px;stroke-linecap:butt;stroke-linejoin:miter;stroke-opacity:1" d="M 378.296,428.815 398.963,440.296 z" id="boundary" inkscape:connector-curvature="0" />
	<path style="fill:none;stroke:red;stroke-width:1px;stroke-linecap:butt;stroke-linejoin:miter;stroke-opacity:1" d="M 417.333,454.074 398.963,440.296 z" id="boundary" inkscape:connector-curvature="0" />
	<path style="fill:none;stroke:red;stroke-width:1px;stroke-linecap:butt;stroke-linejoin:miter;stroke-opacity:1" d="M 417.333,454.074 428.815,474.741 z" id="boundary" inkscape:connector-curvature="0" />
	<path style="fill:none;stroke:red;stroke-width:1px;stroke-linecap:butt;stroke-linejoin:miter;stroke-opacity:1" d="M 428.815,474.741 440.296,495.407 z" id="boundary" inkscape:connector-curvature="0" />
	<path style="fill:none;stroke:red;stroke-width:1px;stroke-linecap:butt;stroke-linejoin:miter;stroke-opacity:1" d="M 440.296,495.407 440.296,518.37 z" id="boundary" inkscape:connector-curvature="0" />
	<path style="fill:none;stroke:red;stroke-width:1px;stroke-linecap:butt;stroke-linejoin:miter;stroke-opacity:1" d="M 451.778,539.037 440.296,518.37 z" id="boundary" inkscape:connector-curvature="0" />
	<path style="fill:none;stroke:red;stroke-width:1px;stroke-linecap:butt;stroke-linejoin:miter;stroke-opacity:1" d="M 465.556,557.407 451.778,539.037 z" id="boundary" inkscape:connector-curvature="0" />
	<path style="fill:none;stroke:red;stroke-width:1px;stroke-linecap:butt;stroke-linejoin:miter;stroke-opacity:1" d="M 488.519,545.926 465.556,557.407 z" id="boundary" inkscape:connector-curvature="0" />
	<path style="fill:none;stroke:red;stroke-width:1px;stroke-linecap:butt;stroke-linejoin:miter;stroke-opacity:1" d="M 520.667,263.481 539.037,279.556 z" id="boundary" inkscape:connector-curvature="0" />
	<path style="fill:none;stroke:red;stroke-width:1px;stroke-linecap:butt;stroke-linejoin:miter;stroke-opacity:1" d="M 520.667,263.481 504.593,245.111 z" id="boundary" inkscape:connector-curvature="0" />
	<path style="fill:none;stroke:red;stroke-width:1px;stroke-linecap:butt;stroke-linejoin:miter;stroke-opacity:1" d="M 539.037,279.556 555.111,297.926 z" id="boundary" inkscape:connector-curvature="0" />
	<path style="fill:none;stroke:red;stroke-width:1px;stroke-linecap:butt;stroke-linejoin:miter;stroke-opacity:1" d="M 573.481,314 555.111,297.926 z" id="boundary" inkscape:connector-curvature="0" />
	<path style="fill:none;stroke:red;stroke-width:1px;stroke-linecap:butt;stroke-linejoin:miter;stroke-opacity:1" d="M 589.556,332.37 573.481,314 z" id="boundary" inkscape:connector-curvature="0" />
	<path style="fill:none;stroke:red;stroke-width:1px;stroke-linecap:butt;stroke-linejoin:miter;stroke-opacity:1" d="M 607.926,348.444 589.556,332.37 z" id="boundary" inkscape:connector-curvature="0" />
	<path style="fill:none;stroke:red;stroke-width:1px;stroke-linecap:butt;stroke-linejoin:miter;stroke-opacity:1" d="M 624,366.815 607.926,348.444 z" id="boundary" inkscape:connector-curvature="0" />
	<path style="fill:none;stroke:red;stroke-width:1px;stroke-linecap:butt;stroke-linejoin:miter;stroke-opacity:1" d="M 646.963,376 624,366.815 z" id="boundary" inkscape:connector-curvature="0" />
	<path style="fill:none;stroke:red;stroke-width:1px;stroke-linecap:butt;stroke-linejoin:miter;stroke-opacity:1" d="M 557.407,481.63 534.444,477.037 z" id="boundary" inkscape:connector-curvature="0" />
	<path style="fill:none;stroke:red;stroke-width:1px;stroke-linecap:butt;stroke-linejoin:miter;stroke-opacity:1" d="M 518.37,495.407 534.444,477.037 z" id="boundary" inkscape:connector-curvature="0" />
	<path style="fill:none;stroke:red;stroke-width:1px;stroke-linecap:butt;stroke-linejoin:miter;stroke-opacity:1" d="M 580.37,488.519 557.407,481.63 z" id="boundary" inkscape:connector-curvature="0" />
	<path style="fill:none;stroke:red;stroke-width:1px;stroke-linecap:butt;stroke-linejoin:miter;stroke-opacity:1" d="M 601.037,500 580.37,488.519 z" id="boundary" inkscape:connector-curvature="0" />
	<path style="fill:none;stroke:red;stroke-width:1px;stroke-linecap:butt;stroke-linejoin:miter;stroke-opacity:1" d="M 688.296,396.667 669.926,382.889 z" id="boundary" inkscape:connector-curvature="0" />
	<path style="fill:none;stroke:red;stroke-width:1px;stroke-linecap:butt;stroke-linejoin:miter;stroke-opacity:1" d="M 748,467.852 727.333,456.37 z" id="boundary" inkscape:connector-curvature="0" />
	<path style="fill:none;stroke:red;stroke-width:1px;stroke-linecap:butt;stroke-linejoin:miter;stroke-opacity:1" d="M 727.333,456.37 715.852,435.704 z" id="boundary" inkscape:connector-curvature="0" />
	<path style="fill:none;stroke:red;stroke-width:1px;stroke-linecap:butt;stroke-linejoin:miter;stroke-opacity:1" d="M 715.852,435.704 706.667,412.741 z" id="boundary" inkscape:connector-curvature="0" />
	<path style="fill:none;stroke:red;stroke-width:1px;stroke-linecap:butt;stroke-linejoin:miter;stroke-opacity:1" d="M 688.296,396.667 706.667,412.741 z" id="boundary" inkscape:connector-curvature="0" />
	<path style="fill:none;stroke:red;stroke-width:1px;stroke-linecap:butt;stroke-linejoin:miter;stroke-opacity:1" d="M 646.963,376 669.926,382.889 z" id="boundary" inkscape:connector-curvature="0" />
	<path style="fill:none;stroke:red;stroke-width:1px;stroke-linecap:butt;stroke-linejoin:miter;stroke-opacity:1" d="M 904.148,417.333 883.481,428.815 z" id="boundary" inkscape:connector-curvature="0" />
	<path style="fill:none;stroke:red;stroke-width:1px;stroke-linecap:butt;stroke-linejoin:miter;stroke-opacity:1" d="M 883.481,428.815 860.519,428.815 z" id="boundary" inkscape:connector-curvature="0" />
	<path style="fill:none;stroke:red;stroke-width:1px;stroke-linecap:butt;stroke-linejoin:miter;stroke-opacity:1" d="M 837.556,440.296 860.519,428.815 z" id="boundary" inkscape:connector-curvature="0" />
	<path style="fill:none;stroke:red;stroke-width:1px;stroke-linecap:butt;stroke-linejoin:miter;stroke-opacity:1" d="M 837.556,440.296 814.593,451.778 z" id="boundary" inkscape:connector-curvature="0" />
	<path style="fill:none;stroke:red;stroke-width:1px;stroke-linecap:butt;stroke-linejoin:miter;stroke-opacity:1" d="M 973.037,405.852 996,405.852 z" id="boundary" inkscape:connector-curvature="0" />
	<path style="fill:none;stroke:red;stroke-width:1px;stroke-linecap:butt;stroke-linejoin:miter;stroke-opacity:1" d="M 996,405.852 993.704,431.111 z" id="boundary" inkscape:connector-curvature="0" />
	<path style="fill:none;stroke:red;stroke-width:1px;stroke-linecap:butt;stroke-linejoin:miter;stroke-opacity:1" d="M 973.037,405.852 950.074,408.148 z" id="boundary" inkscape:connector-curvature="0" />
	<path style="fill:none;stroke:red;stroke-width:1px;stroke-linecap:butt;stroke-linejoin:miter;stroke-opacity:1" d="M 927.111,417.333 950.074,408.148 z" id="boundary" inkscape:connector-curvature="0" />
	<path style="fill:none;stroke:red;stroke-width:1px;stroke-linecap:butt;stroke-linejoin:miter;stroke-opacity:1" d="M 927.111,417.333 904.148,417.333 z" id="boundary" inkscape:connector-curvature="0" />
	<path style="fill:none;stroke:red;stroke-width:1px;stroke-linecap:butt;stroke-linejoin:miter;stroke-opacity:1" d="M 993.704,431.111 973.037,442.593 z" id="boundary" inkscape:connector-curvature="0" />
	<path style="fill:none;stroke:red;stroke-width:1px;stroke-linecap:butt;stroke-linejoin:miter;stroke-opacity:1" d="M 770.963,474.741 791.63,463.259 z" id="boundary" inkscape:connector-curvature="0" />
	<path style="fill:none;stroke:red;stroke-width:1px;stroke-linecap:butt;stroke-linejoin:miter;stroke-opacity:1" d="M 770.963,474.741 748,467.852 z" id="boundary" inkscape:connector-curvature="0" />
	<path style="fill:none;stroke:red;stroke-width:1px;stroke-linecap:butt;stroke-linejoin:miter;stroke-opacity:1" d="M 791.63,463.259 814.593,451.778 z" id="boundary" inkscape:connector-curvature="0" />
	<path style="fill:none;stroke:red;stroke-width:1px;stroke-linecap:butt;stroke-linejoin:miter;stroke-opacity:1" d="M 952.37,454.074 973.037,442.593 z" id="boundary" inkscape:connector-curvature="0" />
	<path style="fill:none;stroke:red;stroke-width:1px;stroke-linecap:butt;stroke-linejoin:miter;stroke-opacity:1" d="M 929.407,463.259 908.741,477.037 z" id="boundary" inkscape:connector-curvature="0" />
	<path style="fill:none;stroke:red;stroke-width:1px;stroke-linecap:butt;stroke-linejoin:miter;stroke-opacity:1" d="M 908.741,477.037 888.074,488.519 z" id="boundary" inkscape:connector-curvature="0" />
	<path style="fill:none;stroke:red;stroke-width:1px;stroke-linecap:butt;stroke-linejoin:miter;stroke-opacity:1" d="M 929.407,463.259 952.37,454.074 z" id="boundary" inkscape:connector-curvature="0" />
	<path style="fill:none;stroke:red;stroke-width:1px;stroke-linecap:butt;stroke-linejoin:miter;stroke-opacity:1" d="M 888.074,488.519 867.407,500 z" id="boundary" inkscape:connector-curvature="0" />
	<path style="fill:none;stroke:red;stroke-width:1px;stroke-linecap:butt;stroke-linejoin:miter;stroke-opacity:1" d="M 500,511.481 518.37,495.407 z" id="boundary" inkscape:connector-curvature="0" />
	<path style="fill:none;stroke:red;stroke-width:1px;stroke-linecap:butt;stroke-linejoin:miter;stroke-opacity:1" d="M 488.519,545.926 500,511.481 z" id="boundary" inkscape:connector-curvature="0" />
	<path style="fill:none;stroke:red;stroke-width:1px;stroke-linecap:butt;stroke-linejoin:miter;stroke-opacity:1" d="M 601.037,500 621.704,511.481 z" id="boundary" inkscape:connector-curvature="0" />
	<path style="fill:none;stroke:red;stroke-width:1px;stroke-linecap:butt;stroke-linejoin:miter;stroke-opacity:1" d="M 642.37,522.963 665.333,522.963 z" id="boundary" inkscape:connector-curvature="0" />
	<path style="fill:none;stroke:red;stroke-width:1px;stroke-linecap:butt;stroke-linejoin:miter;stroke-opacity:1" d="M 642.37,522.963 621.704,511.481 z" id="boundary" inkscape:connector-curvature="0" />
	<path style="fill:none;stroke:red;stroke-width:1px;stroke-linecap:butt;stroke-linejoin:miter;stroke-opacity:1" d="M 688.296,522.963 711.259,522.963 z" id="boundary" inkscape:connector-curvature="0" />
	<path style="fill:none;stroke:red;stroke-width:1px;stroke-linecap:butt;stroke-linejoin:miter;stroke-opacity:1" d="M 711.259,522.963 727.333,541.333 z" id="boundary" inkscape:connector-curvature="0" />
	<path style="fill:none;stroke:red;stroke-width:1px;stroke-linecap:butt;stroke-linejoin:miter;stroke-opacity:1" d="M 688.296,522.963 665.333,522.963 z" id="boundary" inkscape:connector-curvature="0" />
	<path style="fill:none;stroke:red;stroke-width:1px;stroke-linecap:butt;stroke-linejoin:miter;stroke-opacity:1" d="M 727.333,564.296 729.63,587.259 z" id="boundary" inkscape:connector-curvature="0" />
	<path style="fill:none;stroke:red;stroke-width:1px;stroke-linecap:butt;stroke-linejoin:miter;stroke-opacity:1" d="M 727.333,541.333 727.333,564.296 z" id="boundary" inkscape:connector-curvature="0" />
	<path style="fill:none;stroke:red;stroke-width:1px;stroke-linecap:butt;stroke-linejoin:miter;stroke-opacity:1" d="M 738.815,610.222 729.63,587.259 z" id="boundary" inkscape:connector-curvature="0" />
	<path style="fill:none;stroke:red;stroke-width:1px;stroke-linecap:butt;stroke-linejoin:miter;stroke-opacity:1" d="M 738.815,633.185 738.815,656.148 z" id="boundary" inkscape:connector-curvature="0" />
	<path style="fill:none;stroke:red;stroke-width:1px;stroke-linecap:butt;stroke-linejoin:miter;stroke-opacity:1" d="M 738.815,610.222 738.815,633.185 z" id="boundary" inkscape:connector-curvature="0" />
	<path style="fill:none;stroke:red;stroke-width:1px;stroke-linecap:butt;stroke-linejoin:miter;stroke-opacity:1" d="M 750.296,699.778 738.815,679.111 z" id="boundary" inkscape:connector-curvature="0" />
	<path style="fill:none;stroke:red;stroke-width:1px;stroke-linecap:butt;stroke-linejoin:miter;stroke-opacity:1" d="M 738.815,679.111 738.815,656.148 z" id="boundary" inkscape:connector-curvature="0" />
	<path style="fill:none;stroke:red;stroke-width:1px;stroke-linecap:butt;stroke-linejoin:miter;stroke-opacity:1" d="M 750.296,699.778 750.296,722.741 z" id="boundary" inkscape:connector-curvature="0" />
	<path style="fill:none;stroke:red;stroke-width:1px;stroke-linecap:butt;stroke-linejoin:miter;stroke-opacity:1" d="M 798.519,660.741 798.519,637.778 z" id="boundary" inkscape:connector-curvature="0" />
	<path style="fill:none;stroke:red;stroke-width:1px;stroke-linecap:butt;stroke-linejoin:miter;stroke-opacity:1" d="M 798.519,637.778 810,614.815 z" id="boundary" inkscape:connector-curvature="0" />
	<path style="fill:none;stroke:red;stroke-width:1px;stroke-linecap:butt;stroke-linejoin:miter;stroke-opacity:1" d="M 798.519,683.704 798.519,706.667 z" id="boundary" inkscape:connector-curvature="0" />
	<path style="fill:none;stroke:red;stroke-width:1px;stroke-linecap:butt;stroke-linejoin:miter;stroke-opacity:1" d="M 798.519,683.704 798.519,660.741 z" id="boundary" inkscape:connector-curvature="0" />
	<path style="fill:none;stroke:red;stroke-width:1px;stroke-linecap:butt;stroke-linejoin:miter;stroke-opacity:1" d="M 839.852,552.815 851.333,529.852 z" id="boundary" inkscape:connector-curvature="0" />
	<path style="fill:none;stroke:red;stroke-width:1px;stroke-linecap:butt;stroke-linejoin:miter;stroke-opacity:1" d="M 821.481,568.889 839.852,552.815 z" id="boundary" inkscape:connector-curvature="0" />
	<path style="fill:none;stroke:red;stroke-width:1px;stroke-linecap:butt;stroke-linejoin:miter;stroke-opacity:1" d="M 810,614.815 810,591.852 z" id="boundary" inkscape:connector-curvature="0" />
	<path style="fill:none;stroke:red;stroke-width:1px;stroke-linecap:butt;stroke-linejoin:miter;stroke-opacity:1" d="M 810,591.852 821.481,568.889 z" id="boundary" inkscape:connector-curvature="0" />
	<path style="fill:none;stroke:red;stroke-width:1px;stroke-linecap:butt;stroke-linejoin:miter;stroke-opacity:1" d="M 851.333,529.852 867.407,500 z" id="boundary" inkscape:connector-curvature="0" />
	<path style="fill:none;stroke:red;stroke-width:1px;stroke-linecap:butt;stroke-linejoin:miter;stroke-opacity:1" d="M 750.296,722.741 761.778,743.407 z" id="boundary" inkscape:connector-curvature="0" />
	<path style="fill:none;stroke:red;stroke-width:1px;stroke-linecap:butt;stroke-linejoin:miter;stroke-opacity:1" d="M 761.778,743.407 761.778,766.37 z" id="boundary" inkscape:connector-curvature="0" />
	<path style="fill:none;stroke:red;stroke-width:1px;stroke-linecap:butt;stroke-linejoin:miter;stroke-opacity:1" d="M 761.778,766.37 773.259,787.037 z" id="boundary" inkscape:connector-curvature="0" />
	<path style="fill:none;stroke:red;stroke-width:1px;stroke-linecap:butt;stroke-linejoin:miter;stroke-opacity:1" d="M 798.519,775.556 773.259,787.037 z" id="boundary" inkscape:connector-curvature="0" />
	<path style="fill:none;stroke:red;stroke-width:1px;stroke-linecap:butt;stroke-linejoin:miter;stroke-opacity:1" d="M 798.519,729.63 798.519,752.593 z" id="boundary" inkscape:connector-curvature="0" />
	<path style="fill:none;stroke:red;stroke-width:1px;stroke-linecap:butt;stroke-linejoin:miter;stroke-opacity:1" d="M 787.037,805.407 773.259,787.037 z" id="boundary" inkscape:connector-curvature="0" />
	<path style="fill:none;stroke:red;stroke-width:1px;stroke-linecap:butt;stroke-linejoin:miter;stroke-opacity:1" d="M 798.519,752.593 798.519,775.556 z" id="boundary" inkscape:connector-curvature="0" />
	<path style="fill:none;stroke:red;stroke-width:1px;stroke-linecap:butt;stroke-linejoin:miter;stroke-opacity:1" d="M 798.519,729.63 798.519,706.667 z" id="boundary" inkscape:connector-curvature="0" />
	<circle cx="4" cy="91.2593" r="4" fill="#0" id="circle0"/>
	<circle cx="4" cy="114.222" r="4" fill="#0" id="circle1"/>
	<circle cx="4" cy="137.185" r="4" fill="#0" id="circle2"/>
	<circle cx="22.3704" cy="153.259" r="4" fill="#0" id="circle3"/>
	<circle cx="26.963" cy="68.2963" r="4" fill="#0" id="circle4"/>
	<circle cx="38.4444" cy="45.3333" r="4" fill="#0" id="circle5"/>
	<circle cx="38.4444" cy="171.63" r="4" fill="#0" id="circle6"/>
	<circle cx="56.8148" cy="187.704" r="4" fill="#0" id="circle7"/>
	<circle cx="61.4074" cy="38.4444" r="4" fill="#0" id="circle8"/>
	<circle cx="72.8889" cy="206.074" r="4" fill="#0" id="circle9"/>
	<circle cx="84.3704" cy="38.4444" r="4" fill="#0" id="circle10"/>
	<circle cx="91.2593" cy="222.148" r="4" fill="#0" id="circle11"/>
	<circle cx="105.037" cy="49.9259" r="4" fill="#0" id="circle12"/>
	<circle cx="107.333" cy="240.519" r="4" fill="#0" id="circle13"/>
	<circle cx="118.815" cy="261.185" r="4" fill="#0" id="circle14"/>
	<circle cx="118.815" cy="284.148" r="4" fill="#0" id="circle15"/>
	<circle cx="118.815" cy="307.111" r="4" fill="#0" id="circle16"/>
	<circle cx="118.815" cy="330.074" r="4" fill="#0" id="circle17"/>
	<circle cx="118.815" cy="353.037" r="4" fill="#0" id="circle18"/>
	<circle cx="128" cy="49.9259" r="4" fill="#0" id="circle19"/>
	<circle cx="130.296" cy="373.704" r="4" fill="#0" id="circle20"/>
	<circle cx="144.074" cy="392.074" r="4" fill="#0" id="circle21"/>
	<circle cx="150.963" cy="49.9259" r="4" fill="#0" id="circle22"/>
	<circle cx="167.037" cy="396.667" r="4" fill="#0" id="circle23"/>
	<circle cx="173.926" cy="49.9259" r="4" fill="#0" id="circle24"/>
	<circle cx="178.519" cy="327.778" r="4" fill="#0" id="circle25"/>
	<circle cx="178.519" cy="350.741" r="4" fill="#0" id="circle26"/>
	<circle cx="178.519" cy="373.704" r="4" fill="#0" id="circle27"/>
	<circle cx="194.593" cy="61.4074" r="4" fill="#0" id="circle28"/>
	<circle cx="199.185" cy="316.296" r="4" fill="#0" id="circle29"/>
	<circle cx="212.963" cy="334.667" r="4" fill="#0" id="circle30"/>
	<circle cx="217.556" cy="61.4074" r="4" fill="#0" id="circle31"/>
	<circle cx="235.926" cy="343.852" r="4" fill="#0" id="circle32"/>
	<circle cx="240.519" cy="61.4074" r="4" fill="#0" id="circle33"/>
	<circle cx="256.593" cy="355.333" r="4" fill="#0" id="circle34"/>
	<circle cx="263.481" cy="61.4074" r="4" fill="#0" id="circle35"/>
	<circle cx="274.963" cy="371.407" r="4" fill="#0" id="circle36"/>
	<circle cx="286.444" cy="49.9259" r="4" fill="#0" id="circle37"/>
	<circle cx="295.63" cy="382.889" r="4" fill="#0" id="circle38"/>
	<circle cx="309.407" cy="38.4444" r="4" fill="#0" id="circle39"/>
	<circle cx="314" cy="396.667" r="4" fill="#0" id="circle40"/>
	<circle cx="332.37" cy="26.963" r="4" fill="#0" id="circle41"/>
	<circle cx="334.667" cy="408.148" r="4" fill="#0" id="circle42"/>
	<circle cx="355.333" cy="26.963" r="4" fill="#0" id="circle43"/>
	<circle cx="355.333" cy="419.63" r="4" fill="#0" id="circle44"/>
	<circle cx="378.296" cy="15.4815" r="4" fill="#0" id="circle45"/>
	<circle cx="378.296" cy="428.815" r="4" fill="#0" id="circle46"/>
	<circle cx="396.667" cy="121.111" r="4" fill="#0" id="circle47"/>
	<circle cx="398.963" cy="440.296" r="4" fill="#0" id="circle48"/>
	<circle cx="401.259" cy="15.4815" r="4" fill="#0" id="circle49"/>
	<circle cx="408.148" cy="98.1481" r="4" fill="#0" id="circle50"/>
	<circle cx="408.148" cy="141.778" r="4" fill="#0" id="circle51"/>
	<circle cx="417.333" cy="454.074" r="4" fill="#0" id="circle52"/>
	<circle cx="419.63" cy="162.444" r="4" fill="#0" id="circle53"/>
	<circle cx="424.222" cy="4" r="4" fill="#0" id="circle54"/>
	<circle cx="426.519" cy="82.0741" r="4" fill="#0" id="circle55"/>
	<circle cx="428.815" cy="474.741" r="4" fill="#0" id="circle56"/>
	<circle cx="431.111" cy="183.111" r="4" fill="#0" id="circle57"/>
	<circle cx="438" cy="59.1111" r="4" fill="#0" id="circle58"/>
	<circle cx="440.296" cy="495.407" r="4" fill="#0" id="circle59"/>
	<circle cx="440.296" cy="518.37" r="4" fill="#0" id="circle60"/>
	<circle cx="447.185" cy="4" r="4" fill="#0" id="circle61"/>
	<circle cx="447.185" cy="201.481" r="4" fill="#0" id="circle62"/>
	<circle cx="451.778" cy="539.037" r="4" fill="#0" id="circle63"/>
	<circle cx="460.963" cy="47.6296" r="4" fill="#0" id="circle64"/>
	<circle cx="465.556" cy="217.556" r="4" fill="#0" id="circle65"/>
	<circle cx="465.556" cy="557.407" r="4" fill="#0" id="circle66"/>
	<circle cx="467.852" cy="15.4815" r="4" fill="#0" id="circle67"/>
	<circle cx="483.926" cy="233.63" r="4" fill="#0" id="circle68"/>
	<circle cx="488.519" cy="545.926" r="4" fill="#0" id="circle69"/>
	<circle cx="500" cy="511.481" r="4" fill="#0" id="circle70"/>
	<circle cx="504.593" cy="245.111" r="4" fill="#0" id="circle71"/>
	<circle cx="518.37" cy="495.407" r="4" fill="#0" id="circle72"/>
	<circle cx="520.667" cy="263.481" r="4" fill="#0" id="circle73"/>
	<circle cx="534.444" cy="477.037" r="4" fill="#0" id="circle74"/>
	<circle cx="539.037" cy="279.556" r="4" fill="#0" id="circle75"/>
	<circle cx="555.111" cy="297.926" r="4" fill="#0" id="circle76"/>
	<circle cx="557.407" cy="481.63" r="4" fill="#0" id="circle77"/>
	<circle cx="573.481" cy="314" r="4" fill="#0" id="circle78"/>
	<circle cx="580.37" cy="488.519" r="4" fill="#0" id="circle79"/>
	<circle cx="589.556" cy="332.37" r="4" fill="#0" id="circle80"/>
	<circle cx="601.037" cy="500" r="4" fill="#0" id="circle81"/>
	<circle cx="607.926" cy="348.444" r="4" fill="#0" id="circle82"/>
	<circle cx="621.704" cy="511.481" r="4" fill="#0" id="circle83"/>
	<circle cx="624" cy="366.815" r="4" fill="#0" id="circle84"/>
	<circle cx="642.37" cy="522.963" r="4" fill="#0" id="circle85"/>
	<circle cx="646.963" cy="376" r="4" fill="#0" id="circle86"/>
	<circle cx="665.333" cy="522.963" r="4" fill="#0" id="circle87"/>
	<circle cx="669.926" cy="382.889" r="4" fill="#0" id="circle88"/>
	<circle cx="688.296" cy="396.667" r="4" fill="#0" id="circle89"/>
	<circle cx="688.296" cy="522.963" r="4" fill="#0" id="circle90"/>
	<circle cx="706.667" cy="412.741" r="4" fill="#0" id="circle91"/>
	<circle cx="711.259" cy="522.963" r="4" fill="#0" id="circle92"/>
	<circle cx="715.852" cy="435.704" r="4" fill="#0" id="circle93"/>
	<circle cx="727.333" cy="456.37" r="4" fill="#0" id="circle94"/>
	<circle cx="727.333" cy="541.333" r="4" fill="#0" id="circle95"/>
	<circle cx="727.333" cy="564.296" r="4" fill="#0" id="circle96"/>
	<circle cx="729.63" cy="587.259" r="4" fill="#0" id="circle97"/>
	<circle cx="738.815" cy="610.222" r="4" fill="#0" id="circle98"/>
	<circle cx="738.815" cy="633.185" r="4" fill="#0" id="circle99"/>
	<circle cx="738.815" cy="656.148" r="4" fill="#0" id="circle100"/>
	<circle cx="738.815" cy="679.111" r="4" fill="#0" id="circle101"/>
	<circle cx="748" cy="467.852" r="4" fill="#0" id="circle102"/>
	<circle cx="750.296" cy="699.778" r="4" fill="#0" id="circle103"/>
	<circle cx="750.296" cy="722.741" r="4" fill="#0" id="circle104"/>
	<circle cx="761.778" cy="743.407" r="4" fill="#0" id="circle105"/>
	<circle cx="761.778" cy="766.37" r="4" fill="#0" id="circle106"/>
	<circle cx="770.963" cy="474.741" r="4" fill="#0" id="circle107"/>
	<circle cx="773.259" cy="787.037" r="4" fill="#0" id="circle108"/>
	<circle cx="787.037" cy="805.407" r="4" fill="#0" id="circle109"/>
	<circle cx="791.63" cy="463.259" r="4" fill="#0" id="circle110"/>
	<circle cx="798.519" cy="637.778" r="4" fill="#0" id="circle111"/>
	<circle cx="798.519" cy="660.741" r="4" fill="#0" id="circle112"/>
	<circle cx="798.519" cy="683.704" r="4" fill="#0" id="circle113"/>
	<circle cx="798.519" cy="706.667" r="4" fill="#0" id="circle114"/>
	<circle cx="798.519" cy="729.63" r="4" fill="#0" id="circle115"/>
	<circle cx="798.519" cy="752.593" r="4" fill="#0" id="circle116"/>
	<circle cx="798.519" cy="775.556" r="4" fill="#0" id="circle117"/>
	<circle cx="810" cy="591.852" r="4" fill="#0" id="circle118"/>
	<circle cx="810" cy="614.815" r="4" fill="#0" id="circle119"/>
	<circle cx="814.593" cy="451.778" r="4" fill="#0" id="circle120"/>
	<circle cx="821.481" cy="568.889" r="4" fill="#0" id="circle121"/>
	<circle cx="837.556" cy="440.296" r="4" fill="#0" id="circle122"/>
	<circle cx="839.852" cy="552.815" r="4" fill="#0" id="circle123"/>
	<circle cx="851.333" cy="529.852" r="4" fill="#0" id="circle124"/>
	<circle cx="860.519" cy="428.815" r="4" fill="#0" id="circle125"/>
	<circle cx="867.407" cy="500" r="4" fill="#0" id="circle126"/>
	<circle cx="883.481" cy="428.815" r="4" fill="#0" id="circle127"/>
	<circle cx="888.074" cy="488.519" r="4" fill="#0" id="circle128"/>
	<circle cx="904.148" cy="417.333" r="4" fill="#0" id="circle129"/>
	<circle cx="908.741" cy="477.037" r="4" fill="#0" id="circle130"/>
	<circle cx="927.111" cy="417.333" r="4" fill="#0" id="circle131"/>
	<circle cx="929.407" cy="463.259" r="4" fill="#0" id="circle132"/>
	<circle cx="950.074" cy="408.148" r="4" fill="#0" id="circle133"/>
	<circle cx="952.37" cy="454.074" r="4" fill="#0" id="circle134"/>
	<circle cx="973.037" cy="405.852" r="4" fill="#0" id="circle135"/>
	<circle cx="973.037" cy="442.593" r="4" fill="#0" id="circle136"/>
	<circle cx="993.704" cy="431.111" r="4" fill="#0" id="circle137"/>
	<circle cx="996" cy="405.852" r="4" fill="#0" id="circle138"/>
	</g>
</svg>