<?xml version="1.0" encoding="UTF-8" standalone="no"?>
<!-- Created with CurveBenchmark -->
<svg
	xmlns:dc="http://purl.org/dc/elements/1.1/"
	xmlns:cc="http://creativecommons.org/ns#"
	xmlns:rdf="http://www.w3.org/1999/02/22-rdf-syntax-ns#"
	xmlns:svg="http://www.w3.org/2000/svg"
	xmlns="http://www.w3.org/2000/svg"
	xmlns:sodipodi="http://sodipodi.sourceforge.net/DTD/sodipodi-0.dtd"
	xmlns:inkscape="http://www.inkscape.org/namespaces/inkscape"
	width="1000"
	height="1000"
	id="svg2"
	version="1.1"
	sodipodi:docname="manifold/nncrust-brick-06.png.txt">
<defs
	id="defs4" />
<metadata
	id="metadata7">
	<rdf:RDF>
		<cc:Work
			rdf:about="">
			<dc:format>image/svg+xml</dc:format>
			<dc:type
				rdf:resource="http://purl.org/dc/dcmitype/StillImage" />
			<dc:title></dc:title>
		</cc:Work>
	</rdf:RDF>
</metadata>
<g
	inkscape:label="Layer 1"
	inkscape:groupmode="layer"
	id="layer1">
	<path style="fill:none;stroke:red;stroke-width:1px;stroke-linecap:butt;stroke-linejoin:miter;stroke-opacity:1" d="M 122.599,27.7199 122.599,36.1913 z" id="boundary" inkscape:connector-curvature="0" />
	<path style="fill:none;stroke:red;stroke-width:1px;stroke-linecap:butt;stroke-linejoin:miter;stroke-opacity:1" d="M 122.599,27.7199 129.377,20.9428 z" id="boundary" inkscape:connector-curvature="0" />
	<path style="fill:none;stroke:red;stroke-width:1px;stroke-linecap:butt;stroke-linejoin:miter;stroke-opacity:1" d="M 129.377,20.9428 137.001,16.7071 z" id="boundary" inkscape:connector-curvature="0" />
	<path style="fill:none;stroke:red;stroke-width:1px;stroke-linecap:butt;stroke-linejoin:miter;stroke-opacity:1" d="M 122.599,44.6627 122.599,36.1913 z" id="boundary" inkscape:connector-curvature="0" />
	<path style="fill:none;stroke:red;stroke-width:1px;stroke-linecap:butt;stroke-linejoin:miter;stroke-opacity:1" d="M 122.599,44.6627 122.599,53.1341 z" id="boundary" inkscape:connector-curvature="0" />
	<path style="fill:none;stroke:red;stroke-width:1px;stroke-linecap:butt;stroke-linejoin:miter;stroke-opacity:1" d="M 122.599,61.6055 122.599,70.0769 z" id="boundary" inkscape:connector-curvature="0" />
	<path style="fill:none;stroke:red;stroke-width:1px;stroke-linecap:butt;stroke-linejoin:miter;stroke-opacity:1" d="M 122.599,78.5482 122.599,70.0769 z" id="boundary" inkscape:connector-curvature="0" />
	<path style="fill:none;stroke:red;stroke-width:1px;stroke-linecap:butt;stroke-linejoin:miter;stroke-opacity:1" d="M 122.599,61.6055 122.599,53.1341 z" id="boundary" inkscape:connector-curvature="0" />
	<path style="fill:none;stroke:red;stroke-width:1px;stroke-linecap:butt;stroke-linejoin:miter;stroke-opacity:1" d="M 137.001,16.7071 145.472,13.3185 z" id="boundary" inkscape:connector-curvature="0" />
	<path style="fill:none;stroke:red;stroke-width:1px;stroke-linecap:butt;stroke-linejoin:miter;stroke-opacity:1" d="M 179.358,8.2357 170.886,8.2357 z" id="boundary" inkscape:connector-curvature="0" />
	<path style="fill:none;stroke:red;stroke-width:1px;stroke-linecap:butt;stroke-linejoin:miter;stroke-opacity:1" d="M 170.886,8.2357 162.415,9.08284 z" id="boundary" inkscape:connector-curvature="0" />
	<path style="fill:none;stroke:red;stroke-width:1px;stroke-linecap:butt;stroke-linejoin:miter;stroke-opacity:1" d="M 187.829,8.2357 195.453,4 z" id="boundary" inkscape:connector-curvature="0" />
	<path style="fill:none;stroke:red;stroke-width:1px;stroke-linecap:butt;stroke-linejoin:miter;stroke-opacity:1" d="M 195.453,4 203.925,4 z" id="boundary" inkscape:connector-curvature="0" />
	<path style="fill:none;stroke:red;stroke-width:1px;stroke-linecap:butt;stroke-linejoin:miter;stroke-opacity:1" d="M 203.925,4 212.396,4 z" id="boundary" inkscape:connector-curvature="0" />
	<path style="fill:none;stroke:red;stroke-width:1px;stroke-linecap:butt;stroke-linejoin:miter;stroke-opacity:1" d="M 145.472,13.3185 153.944,12.4714 z" id="boundary" inkscape:connector-curvature="0" />
	<path style="fill:none;stroke:red;stroke-width:1px;stroke-linecap:butt;stroke-linejoin:miter;stroke-opacity:1" d="M 162.415,9.08284 153.944,12.4714 z" id="boundary" inkscape:connector-curvature="0" />
	<path style="fill:none;stroke:red;stroke-width:1px;stroke-linecap:butt;stroke-linejoin:miter;stroke-opacity:1" d="M 179.358,8.2357 187.829,8.2357 z" id="boundary" inkscape:connector-curvature="0" />
	<path style="fill:none;stroke:red;stroke-width:1px;stroke-linecap:butt;stroke-linejoin:miter;stroke-opacity:1" d="M 122.599,87.0196 122.599,78.5482 z" id="boundary" inkscape:connector-curvature="0" />
	<path style="fill:none;stroke:red;stroke-width:1px;stroke-linecap:butt;stroke-linejoin:miter;stroke-opacity:1" d="M 65.8412,177.664 72.6183,170.886 z" id="boundary" inkscape:connector-curvature="0" />
	<path style="fill:none;stroke:red;stroke-width:1px;stroke-linecap:butt;stroke-linejoin:miter;stroke-opacity:1" d="M 79.3954,164.956 85.3254,158.179 z" id="boundary" inkscape:connector-curvature="0" />
	<path style="fill:none;stroke:red;stroke-width:1px;stroke-linecap:butt;stroke-linejoin:miter;stroke-opacity:1" d="M 79.3954,164.956 72.6183,170.886 z" id="boundary" inkscape:connector-curvature="0" />
	<path style="fill:none;stroke:red;stroke-width:1px;stroke-linecap:butt;stroke-linejoin:miter;stroke-opacity:1" d="M 59.064,184.441 65.8412,177.664 z" id="boundary" inkscape:connector-curvature="0" />
	<path style="fill:none;stroke:red;stroke-width:1px;stroke-linecap:butt;stroke-linejoin:miter;stroke-opacity:1" d="M 26.0256,207.313 33.6499,197.148 z" id="boundary" inkscape:connector-curvature="0" />
	<path style="fill:none;stroke:red;stroke-width:1px;stroke-linecap:butt;stroke-linejoin:miter;stroke-opacity:1" d="M 33.6499,197.148 42.1213,192.912 z" id="boundary" inkscape:connector-curvature="0" />
	<path style="fill:none;stroke:red;stroke-width:1px;stroke-linecap:butt;stroke-linejoin:miter;stroke-opacity:1" d="M 42.1213,192.912 50.5927,188.676 z" id="boundary" inkscape:connector-curvature="0" />
	<path style="fill:none;stroke:red;stroke-width:1px;stroke-linecap:butt;stroke-linejoin:miter;stroke-opacity:1" d="M 59.064,184.441 50.5927,188.676 z" id="boundary" inkscape:connector-curvature="0" />
	<path style="fill:none;stroke:red;stroke-width:1px;stroke-linecap:butt;stroke-linejoin:miter;stroke-opacity:1" d="M 122.599,87.0196 122.599,95.491 z" id="boundary" inkscape:connector-curvature="0" />
	<path style="fill:none;stroke:red;stroke-width:1px;stroke-linecap:butt;stroke-linejoin:miter;stroke-opacity:1" d="M 122.599,103.962 122.599,112.434 z" id="boundary" inkscape:connector-curvature="0" />
	<path style="fill:none;stroke:red;stroke-width:1px;stroke-linecap:butt;stroke-linejoin:miter;stroke-opacity:1" d="M 122.599,120.905 122.599,112.434 z" id="boundary" inkscape:connector-curvature="0" />
	<path style="fill:none;stroke:red;stroke-width:1px;stroke-linecap:butt;stroke-linejoin:miter;stroke-opacity:1" d="M 122.599,103.962 122.599,95.491 z" id="boundary" inkscape:connector-curvature="0" />
	<path style="fill:none;stroke:red;stroke-width:1px;stroke-linecap:butt;stroke-linejoin:miter;stroke-opacity:1" d="M 92.1025,152.249 99.7267,148.014 z" id="boundary" inkscape:connector-curvature="0" />
	<path style="fill:none;stroke:red;stroke-width:1px;stroke-linecap:butt;stroke-linejoin:miter;stroke-opacity:1" d="M 85.3254,158.179 92.1025,152.249 z" id="boundary" inkscape:connector-curvature="0" />
	<path style="fill:none;stroke:red;stroke-width:1px;stroke-linecap:butt;stroke-linejoin:miter;stroke-opacity:1" d="M 106.504,141.237 99.7267,148.014 z" id="boundary" inkscape:connector-curvature="0" />
	<path style="fill:none;stroke:red;stroke-width:1px;stroke-linecap:butt;stroke-linejoin:miter;stroke-opacity:1" d="M 114.975,137.001 106.504,141.237 z" id="boundary" inkscape:connector-curvature="0" />
	<path style="fill:none;stroke:red;stroke-width:1px;stroke-linecap:butt;stroke-linejoin:miter;stroke-opacity:1" d="M 122.599,120.905 121.752,131.071 z" id="boundary" inkscape:connector-curvature="0" />
	<path style="fill:none;stroke:red;stroke-width:1px;stroke-linecap:butt;stroke-linejoin:miter;stroke-opacity:1" d="M 121.752,131.071 114.975,137.001 z" id="boundary" inkscape:connector-curvature="0" />
	<path style="fill:none;stroke:red;stroke-width:1px;stroke-linecap:butt;stroke-linejoin:miter;stroke-opacity:1" d="M 26.0256,207.313 18.4014,211.549 z" id="boundary" inkscape:connector-curvature="0" />
	<path style="fill:none;stroke:red;stroke-width:1px;stroke-linecap:butt;stroke-linejoin:miter;stroke-opacity:1" d="M 220.868,4 229.339,4 z" id="boundary" inkscape:connector-curvature="0" />
	<path style="fill:none;stroke:red;stroke-width:1px;stroke-linecap:butt;stroke-linejoin:miter;stroke-opacity:1" d="M 229.339,4 237.81,6.54142 z" id="boundary" inkscape:connector-curvature="0" />
	<path style="fill:none;stroke:red;stroke-width:1px;stroke-linecap:butt;stroke-linejoin:miter;stroke-opacity:1" d="M 237.81,6.54142 245.435,10.7771 z" id="boundary" inkscape:connector-curvature="0" />
	<path style="fill:none;stroke:red;stroke-width:1px;stroke-linecap:butt;stroke-linejoin:miter;stroke-opacity:1" d="M 245.435,10.7771 252.212,16.7071 z" id="boundary" inkscape:connector-curvature="0" />
	<path style="fill:none;stroke:red;stroke-width:1px;stroke-linecap:butt;stroke-linejoin:miter;stroke-opacity:1" d="M 252.212,16.7071 258.142,23.4842 z" id="boundary" inkscape:connector-curvature="0" />
	<path style="fill:none;stroke:red;stroke-width:1px;stroke-linecap:butt;stroke-linejoin:miter;stroke-opacity:1" d="M 264.919,29.4142 258.142,23.4842 z" id="boundary" inkscape:connector-curvature="0" />
	<path style="fill:none;stroke:red;stroke-width:1px;stroke-linecap:butt;stroke-linejoin:miter;stroke-opacity:1" d="M 279.32,39.5798 270.849,36.1913 z" id="boundary" inkscape:connector-curvature="0" />
	<path style="fill:none;stroke:red;stroke-width:1px;stroke-linecap:butt;stroke-linejoin:miter;stroke-opacity:1" d="M 270.849,36.1913 264.919,29.4142 z" id="boundary" inkscape:connector-curvature="0" />
	<path style="fill:none;stroke:red;stroke-width:1px;stroke-linecap:butt;stroke-linejoin:miter;stroke-opacity:1" d="M 286.944,43.8155 279.32,39.5798 z" id="boundary" inkscape:connector-curvature="0" />
	<path style="fill:none;stroke:red;stroke-width:1px;stroke-linecap:butt;stroke-linejoin:miter;stroke-opacity:1" d="M 286.944,43.8155 292.874,50.5927 z" id="boundary" inkscape:connector-curvature="0" />
	<path style="fill:none;stroke:red;stroke-width:1px;stroke-linecap:butt;stroke-linejoin:miter;stroke-opacity:1" d="M 300.499,54.8284 292.874,50.5927 z" id="boundary" inkscape:connector-curvature="0" />
	<path style="fill:none;stroke:red;stroke-width:1px;stroke-linecap:butt;stroke-linejoin:miter;stroke-opacity:1" d="M 308.123,59.064 315.747,63.2997 z" id="boundary" inkscape:connector-curvature="0" />
	<path style="fill:none;stroke:red;stroke-width:1px;stroke-linecap:butt;stroke-linejoin:miter;stroke-opacity:1" d="M 308.123,59.064 300.499,54.8284 z" id="boundary" inkscape:connector-curvature="0" />
	<path style="fill:none;stroke:red;stroke-width:1px;stroke-linecap:butt;stroke-linejoin:miter;stroke-opacity:1" d="M 315.747,63.2997 323.371,67.5354 z" id="boundary" inkscape:connector-curvature="0" />
	<path style="fill:none;stroke:red;stroke-width:1px;stroke-linecap:butt;stroke-linejoin:miter;stroke-opacity:1" d="M 488.564,67.5354 480.092,67.5354 z" id="boundary" inkscape:connector-curvature="0" />
	<path style="fill:none;stroke:red;stroke-width:1px;stroke-linecap:butt;stroke-linejoin:miter;stroke-opacity:1" d="M 497.035,64.1469 488.564,67.5354 z" id="boundary" inkscape:connector-curvature="0" />
	<path style="fill:none;stroke:red;stroke-width:1px;stroke-linecap:butt;stroke-linejoin:miter;stroke-opacity:1" d="M 497.035,64.1469 505.506,63.2997 z" id="boundary" inkscape:connector-curvature="0" />
	<path style="fill:none;stroke:red;stroke-width:1px;stroke-linecap:butt;stroke-linejoin:miter;stroke-opacity:1" d="M 513.978,59.9112 505.506,63.2997 z" id="boundary" inkscape:connector-curvature="0" />
	<path style="fill:none;stroke:red;stroke-width:1px;stroke-linecap:butt;stroke-linejoin:miter;stroke-opacity:1" d="M 212.396,4 220.868,4 z" id="boundary" inkscape:connector-curvature="0" />
	<path style="fill:none;stroke:red;stroke-width:1px;stroke-linecap:butt;stroke-linejoin:miter;stroke-opacity:1" d="M 330.996,71.7711 337.773,76.854 z" id="boundary" inkscape:connector-curvature="0" />
	<path style="fill:none;stroke:red;stroke-width:1px;stroke-linecap:butt;stroke-linejoin:miter;stroke-opacity:1" d="M 323.371,67.5354 330.996,71.7711 z" id="boundary" inkscape:connector-curvature="0" />
	<path style="fill:none;stroke:red;stroke-width:1px;stroke-linecap:butt;stroke-linejoin:miter;stroke-opacity:1" d="M 380.13,80.2425 387.754,76.0068 z" id="boundary" inkscape:connector-curvature="0" />
	<path style="fill:none;stroke:red;stroke-width:1px;stroke-linecap:butt;stroke-linejoin:miter;stroke-opacity:1" d="M 396.225,71.7711 387.754,76.0068 z" id="boundary" inkscape:connector-curvature="0" />
	<path style="fill:none;stroke:red;stroke-width:1px;stroke-linecap:butt;stroke-linejoin:miter;stroke-opacity:1" d="M 337.773,76.854 346.244,80.2425 z" id="boundary" inkscape:connector-curvature="0" />
	<path style="fill:none;stroke:red;stroke-width:1px;stroke-linecap:butt;stroke-linejoin:miter;stroke-opacity:1" d="M 354.716,80.2425 346.244,80.2425 z" id="boundary" inkscape:connector-curvature="0" />
	<path style="fill:none;stroke:red;stroke-width:1px;stroke-linecap:butt;stroke-linejoin:miter;stroke-opacity:1" d="M 354.716,80.2425 363.187,80.2425 z" id="boundary" inkscape:connector-curvature="0" />
	<path style="fill:none;stroke:red;stroke-width:1px;stroke-linecap:butt;stroke-linejoin:miter;stroke-opacity:1" d="M 371.658,80.2425 363.187,80.2425 z" id="boundary" inkscape:connector-curvature="0" />
	<path style="fill:none;stroke:red;stroke-width:1px;stroke-linecap:butt;stroke-linejoin:miter;stroke-opacity:1" d="M 380.13,80.2425 371.658,80.2425 z" id="boundary" inkscape:connector-curvature="0" />
	<path style="fill:none;stroke:red;stroke-width:1px;stroke-linecap:butt;stroke-linejoin:miter;stroke-opacity:1" d="M 396.225,71.7711 404.697,71.7711 z" id="boundary" inkscape:connector-curvature="0" />
	<path style="fill:none;stroke:red;stroke-width:1px;stroke-linecap:butt;stroke-linejoin:miter;stroke-opacity:1" d="M 404.697,71.7711 413.168,71.7711 z" id="boundary" inkscape:connector-curvature="0" />
	<path style="fill:none;stroke:red;stroke-width:1px;stroke-linecap:butt;stroke-linejoin:miter;stroke-opacity:1" d="M 430.111,71.7711 421.64,71.7711 z" id="boundary" inkscape:connector-curvature="0" />
	<path style="fill:none;stroke:red;stroke-width:1px;stroke-linecap:butt;stroke-linejoin:miter;stroke-opacity:1" d="M 421.64,71.7711 413.168,71.7711 z" id="boundary" inkscape:connector-curvature="0" />
	<path style="fill:none;stroke:red;stroke-width:1px;stroke-linecap:butt;stroke-linejoin:miter;stroke-opacity:1" d="M 438.582,71.7711 430.111,71.7711 z" id="boundary" inkscape:connector-curvature="0" />
	<path style="fill:none;stroke:red;stroke-width:1px;stroke-linecap:butt;stroke-linejoin:miter;stroke-opacity:1" d="M 447.054,71.7711 438.582,71.7711 z" id="boundary" inkscape:connector-curvature="0" />
	<path style="fill:none;stroke:red;stroke-width:1px;stroke-linecap:butt;stroke-linejoin:miter;stroke-opacity:1" d="M 447.054,71.7711 455.525,71.7711 z" id="boundary" inkscape:connector-curvature="0" />
	<path style="fill:none;stroke:red;stroke-width:1px;stroke-linecap:butt;stroke-linejoin:miter;stroke-opacity:1" d="M 463.997,71.7711 455.525,71.7711 z" id="boundary" inkscape:connector-curvature="0" />
	<path style="fill:none;stroke:red;stroke-width:1px;stroke-linecap:butt;stroke-linejoin:miter;stroke-opacity:1" d="M 480.092,67.5354 472.468,71.7711 z" id="boundary" inkscape:connector-curvature="0" />
	<path style="fill:none;stroke:red;stroke-width:1px;stroke-linecap:butt;stroke-linejoin:miter;stroke-opacity:1" d="M 472.468,71.7711 463.997,71.7711 z" id="boundary" inkscape:connector-curvature="0" />
	<path style="fill:none;stroke:red;stroke-width:1px;stroke-linecap:butt;stroke-linejoin:miter;stroke-opacity:1" d="M 4,231.033 4,222.562 z" id="boundary" inkscape:connector-curvature="0" />
	<path style="fill:none;stroke:red;stroke-width:1px;stroke-linecap:butt;stroke-linejoin:miter;stroke-opacity:1" d="M 4,222.562 10.7771,215.785 z" id="boundary" inkscape:connector-curvature="0" />
	<path style="fill:none;stroke:red;stroke-width:1px;stroke-linecap:butt;stroke-linejoin:miter;stroke-opacity:1" d="M 12.4714,246.282 8.2357,238.658 z" id="boundary" inkscape:connector-curvature="0" />
	<path style="fill:none;stroke:red;stroke-width:1px;stroke-linecap:butt;stroke-linejoin:miter;stroke-opacity:1" d="M 8.2357,238.658 4,231.033 z" id="boundary" inkscape:connector-curvature="0" />
	<path style="fill:none;stroke:red;stroke-width:1px;stroke-linecap:butt;stroke-linejoin:miter;stroke-opacity:1" d="M 12.4714,246.282 12.4714,254.753 z" id="boundary" inkscape:connector-curvature="0" />
	<path style="fill:none;stroke:red;stroke-width:1px;stroke-linecap:butt;stroke-linejoin:miter;stroke-opacity:1" d="M 12.4714,263.225 16.7071,270.849 z" id="boundary" inkscape:connector-curvature="0" />
	<path style="fill:none;stroke:red;stroke-width:1px;stroke-linecap:butt;stroke-linejoin:miter;stroke-opacity:1" d="M 16.7071,270.849 16.7071,279.32 z" id="boundary" inkscape:connector-curvature="0" />
	<path style="fill:none;stroke:red;stroke-width:1px;stroke-linecap:butt;stroke-linejoin:miter;stroke-opacity:1" d="M 12.4714,263.225 12.4714,254.753 z" id="boundary" inkscape:connector-curvature="0" />
	<path style="fill:none;stroke:red;stroke-width:1px;stroke-linecap:butt;stroke-linejoin:miter;stroke-opacity:1" d="M 16.7071,279.32 16.7071,287.792 z" id="boundary" inkscape:connector-curvature="0" />
	<path style="fill:none;stroke:red;stroke-width:1px;stroke-linecap:butt;stroke-linejoin:miter;stroke-opacity:1" d="M 10.7771,215.785 18.4014,211.549 z" id="boundary" inkscape:connector-curvature="0" />
	<path style="fill:none;stroke:red;stroke-width:1px;stroke-linecap:butt;stroke-linejoin:miter;stroke-opacity:1" d="M 20.9428,295.416 16.7071,287.792 z" id="boundary" inkscape:connector-curvature="0" />
	<path style="fill:none;stroke:red;stroke-width:1px;stroke-linecap:butt;stroke-linejoin:miter;stroke-opacity:1" d="M 20.9428,295.416 21.7899,303.887 z" id="boundary" inkscape:connector-curvature="0" />
	<path style="fill:none;stroke:red;stroke-width:1px;stroke-linecap:butt;stroke-linejoin:miter;stroke-opacity:1" d="M 98.8796,301.346 107.351,301.346 z" id="boundary" inkscape:connector-curvature="0" />
	<path style="fill:none;stroke:red;stroke-width:1px;stroke-linecap:butt;stroke-linejoin:miter;stroke-opacity:1" d="M 98.8796,301.346 90.4082,301.346 z" id="boundary" inkscape:connector-curvature="0" />
	<path style="fill:none;stroke:red;stroke-width:1px;stroke-linecap:butt;stroke-linejoin:miter;stroke-opacity:1" d="M 115.822,301.346 124.294,301.346 z" id="boundary" inkscape:connector-curvature="0" />
	<path style="fill:none;stroke:red;stroke-width:1px;stroke-linecap:butt;stroke-linejoin:miter;stroke-opacity:1" d="M 115.822,301.346 107.351,301.346 z" id="boundary" inkscape:connector-curvature="0" />
	<path style="fill:none;stroke:red;stroke-width:1px;stroke-linecap:butt;stroke-linejoin:miter;stroke-opacity:1" d="M 124.294,301.346 132.765,301.346 z" id="boundary" inkscape:connector-curvature="0" />
	<path style="fill:none;stroke:red;stroke-width:1px;stroke-linecap:butt;stroke-linejoin:miter;stroke-opacity:1" d="M 82.7839,305.582 90.4082,301.346 z" id="boundary" inkscape:connector-curvature="0" />
	<path style="fill:none;stroke:red;stroke-width:1px;stroke-linecap:butt;stroke-linejoin:miter;stroke-opacity:1" d="M 74.3126,305.582 65.8412,308.97 z" id="boundary" inkscape:connector-curvature="0" />
	<path style="fill:none;stroke:red;stroke-width:1px;stroke-linecap:butt;stroke-linejoin:miter;stroke-opacity:1" d="M 65.8412,308.97 57.3698,309.817 z" id="boundary" inkscape:connector-curvature="0" />
	<path style="fill:none;stroke:red;stroke-width:1px;stroke-linecap:butt;stroke-linejoin:miter;stroke-opacity:1" d="M 57.3698,309.817 49.7455,314.053 z" id="boundary" inkscape:connector-curvature="0" />
	<path style="fill:none;stroke:red;stroke-width:1px;stroke-linecap:butt;stroke-linejoin:miter;stroke-opacity:1" d="M 74.3126,305.582 82.7839,305.582 z" id="boundary" inkscape:connector-curvature="0" />
	<path style="fill:none;stroke:red;stroke-width:1px;stroke-linecap:butt;stroke-linejoin:miter;stroke-opacity:1" d="M 26.0256,311.512 21.7899,303.887 z" id="boundary" inkscape:connector-curvature="0" />
	<path style="fill:none;stroke:red;stroke-width:1px;stroke-linecap:butt;stroke-linejoin:miter;stroke-opacity:1" d="M 33.6499,315.747 26.0256,311.512 z" id="boundary" inkscape:connector-curvature="0" />
	<path style="fill:none;stroke:red;stroke-width:1px;stroke-linecap:butt;stroke-linejoin:miter;stroke-opacity:1" d="M 42.1213,318.289 49.7455,314.053 z" id="boundary" inkscape:connector-curvature="0" />
	<path style="fill:none;stroke:red;stroke-width:1px;stroke-linecap:butt;stroke-linejoin:miter;stroke-opacity:1" d="M 42.1213,318.289 33.6499,315.747 z" id="boundary" inkscape:connector-curvature="0" />
	<path style="fill:none;stroke:red;stroke-width:1px;stroke-linecap:butt;stroke-linejoin:miter;stroke-opacity:1" d="M 141.237,301.346 149.708,301.346 z" id="boundary" inkscape:connector-curvature="0" />
	<path style="fill:none;stroke:red;stroke-width:1px;stroke-linecap:butt;stroke-linejoin:miter;stroke-opacity:1" d="M 141.237,301.346 132.765,301.346 z" id="boundary" inkscape:connector-curvature="0" />
	<path style="fill:none;stroke:red;stroke-width:1px;stroke-linecap:butt;stroke-linejoin:miter;stroke-opacity:1" d="M 158.179,301.346 166.651,301.346 z" id="boundary" inkscape:connector-curvature="0" />
	<path style="fill:none;stroke:red;stroke-width:1px;stroke-linecap:butt;stroke-linejoin:miter;stroke-opacity:1" d="M 166.651,301.346 174.275,305.582 z" id="boundary" inkscape:connector-curvature="0" />
	<path style="fill:none;stroke:red;stroke-width:1px;stroke-linecap:butt;stroke-linejoin:miter;stroke-opacity:1" d="M 158.179,301.346 149.708,301.346 z" id="boundary" inkscape:connector-curvature="0" />
	<path style="fill:none;stroke:red;stroke-width:1px;stroke-linecap:butt;stroke-linejoin:miter;stroke-opacity:1" d="M 174.275,305.582 181.899,309.817 z" id="boundary" inkscape:connector-curvature="0" />
	<path style="fill:none;stroke:red;stroke-width:1px;stroke-linecap:butt;stroke-linejoin:miter;stroke-opacity:1" d="M 181.899,309.817 189.523,314.053 z" id="boundary" inkscape:connector-curvature="0" />
	<path style="fill:none;stroke:red;stroke-width:1px;stroke-linecap:butt;stroke-linejoin:miter;stroke-opacity:1" d="M 213.243,325.066 204.772,322.524 z" id="boundary" inkscape:connector-curvature="0" />
	<path style="fill:none;stroke:red;stroke-width:1px;stroke-linecap:butt;stroke-linejoin:miter;stroke-opacity:1" d="M 204.772,322.524 197.148,318.289 z" id="boundary" inkscape:connector-curvature="0" />
	<path style="fill:none;stroke:red;stroke-width:1px;stroke-linecap:butt;stroke-linejoin:miter;stroke-opacity:1" d="M 197.148,318.289 189.523,314.053 z" id="boundary" inkscape:connector-curvature="0" />
	<path style="fill:none;stroke:red;stroke-width:1px;stroke-linecap:butt;stroke-linejoin:miter;stroke-opacity:1" d="M 213.243,325.066 220.02,330.996 z" id="boundary" inkscape:connector-curvature="0" />
	<path style="fill:none;stroke:red;stroke-width:1px;stroke-linecap:butt;stroke-linejoin:miter;stroke-opacity:1" d="M 220.02,330.996 227.645,335.231 z" id="boundary" inkscape:connector-curvature="0" />
	<path style="fill:none;stroke:red;stroke-width:1px;stroke-linecap:butt;stroke-linejoin:miter;stroke-opacity:1" d="M 235.269,339.467 242.046,345.397 z" id="boundary" inkscape:connector-curvature="0" />
	<path style="fill:none;stroke:red;stroke-width:1px;stroke-linecap:butt;stroke-linejoin:miter;stroke-opacity:1" d="M 227.645,335.231 235.269,339.467 z" id="boundary" inkscape:connector-curvature="0" />
	<path style="fill:none;stroke:red;stroke-width:1px;stroke-linecap:butt;stroke-linejoin:miter;stroke-opacity:1" d="M 242.046,345.397 247.976,352.174 z" id="boundary" inkscape:connector-curvature="0" />
	<path style="fill:none;stroke:red;stroke-width:1px;stroke-linecap:butt;stroke-linejoin:miter;stroke-opacity:1" d="M 247.976,352.174 254.753,358.104 z" id="boundary" inkscape:connector-curvature="0" />
	<path style="fill:none;stroke:red;stroke-width:1px;stroke-linecap:butt;stroke-linejoin:miter;stroke-opacity:1" d="M 262.377,362.34 254.753,358.104 z" id="boundary" inkscape:connector-curvature="0" />
	<path style="fill:none;stroke:red;stroke-width:1px;stroke-linecap:butt;stroke-linejoin:miter;stroke-opacity:1" d="M 269.155,368.27 275.085,375.047 z" id="boundary" inkscape:connector-curvature="0" />
	<path style="fill:none;stroke:red;stroke-width:1px;stroke-linecap:butt;stroke-linejoin:miter;stroke-opacity:1" d="M 269.155,368.27 262.377,362.34 z" id="boundary" inkscape:connector-curvature="0" />
	<path style="fill:none;stroke:red;stroke-width:1px;stroke-linecap:butt;stroke-linejoin:miter;stroke-opacity:1" d="M 275.085,375.047 281.862,380.977 z" id="boundary" inkscape:connector-curvature="0" />
	<path style="fill:none;stroke:red;stroke-width:1px;stroke-linecap:butt;stroke-linejoin:miter;stroke-opacity:1" d="M 422.487,377.588 430.958,377.588 z" id="boundary" inkscape:connector-curvature="0" />
	<path style="fill:none;stroke:red;stroke-width:1px;stroke-linecap:butt;stroke-linejoin:miter;stroke-opacity:1" d="M 414.863,381.824 422.487,377.588 z" id="boundary" inkscape:connector-curvature="0" />
	<path style="fill:none;stroke:red;stroke-width:1px;stroke-linecap:butt;stroke-linejoin:miter;stroke-opacity:1" d="M 498.729,375.894 507.201,373.353 z" id="boundary" inkscape:connector-curvature="0" />
	<path style="fill:none;stroke:red;stroke-width:1px;stroke-linecap:butt;stroke-linejoin:miter;stroke-opacity:1" d="M 439.43,377.588 447.901,377.588 z" id="boundary" inkscape:connector-curvature="0" />
	<path style="fill:none;stroke:red;stroke-width:1px;stroke-linecap:butt;stroke-linejoin:miter;stroke-opacity:1" d="M 456.372,377.588 464.844,377.588 z" id="boundary" inkscape:connector-curvature="0" />
	<path style="fill:none;stroke:red;stroke-width:1px;stroke-linecap:butt;stroke-linejoin:miter;stroke-opacity:1" d="M 473.315,377.588 464.844,377.588 z" id="boundary" inkscape:connector-curvature="0" />
	<path style="fill:none;stroke:red;stroke-width:1px;stroke-linecap:butt;stroke-linejoin:miter;stroke-opacity:1" d="M 456.372,377.588 447.901,377.588 z" id="boundary" inkscape:connector-curvature="0" />
	<path style="fill:none;stroke:red;stroke-width:1px;stroke-linecap:butt;stroke-linejoin:miter;stroke-opacity:1" d="M 514.825,369.117 507.201,373.353 z" id="boundary" inkscape:connector-curvature="0" />
	<path style="fill:none;stroke:red;stroke-width:1px;stroke-linecap:butt;stroke-linejoin:miter;stroke-opacity:1" d="M 430.958,377.588 439.43,377.588 z" id="boundary" inkscape:connector-curvature="0" />
	<path style="fill:none;stroke:red;stroke-width:1px;stroke-linecap:butt;stroke-linejoin:miter;stroke-opacity:1" d="M 372.506,381.824 364.034,381.824 z" id="boundary" inkscape:connector-curvature="0" />
	<path style="fill:none;stroke:red;stroke-width:1px;stroke-linecap:butt;stroke-linejoin:miter;stroke-opacity:1" d="M 281.862,380.977 288.639,386.06 z" id="boundary" inkscape:connector-curvature="0" />
	<path style="fill:none;stroke:red;stroke-width:1px;stroke-linecap:butt;stroke-linejoin:miter;stroke-opacity:1" d="M 297.11,386.06 288.639,386.06 z" id="boundary" inkscape:connector-curvature="0" />
	<path style="fill:none;stroke:red;stroke-width:1px;stroke-linecap:butt;stroke-linejoin:miter;stroke-opacity:1" d="M 314.053,386.06 305.582,386.06 z" id="boundary" inkscape:connector-curvature="0" />
	<path style="fill:none;stroke:red;stroke-width:1px;stroke-linecap:butt;stroke-linejoin:miter;stroke-opacity:1" d="M 330.996,386.06 338.62,381.824 z" id="boundary" inkscape:connector-curvature="0" />
	<path style="fill:none;stroke:red;stroke-width:1px;stroke-linecap:butt;stroke-linejoin:miter;stroke-opacity:1" d="M 338.62,381.824 347.091,381.824 z" id="boundary" inkscape:connector-curvature="0" />
	<path style="fill:none;stroke:red;stroke-width:1px;stroke-linecap:butt;stroke-linejoin:miter;stroke-opacity:1" d="M 297.11,386.06 305.582,386.06 z" id="boundary" inkscape:connector-curvature="0" />
	<path style="fill:none;stroke:red;stroke-width:1px;stroke-linecap:butt;stroke-linejoin:miter;stroke-opacity:1" d="M 314.053,386.06 322.524,386.06 z" id="boundary" inkscape:connector-curvature="0" />
	<path style="fill:none;stroke:red;stroke-width:1px;stroke-linecap:butt;stroke-linejoin:miter;stroke-opacity:1" d="M 330.996,386.06 322.524,386.06 z" id="boundary" inkscape:connector-curvature="0" />
	<path style="fill:none;stroke:red;stroke-width:1px;stroke-linecap:butt;stroke-linejoin:miter;stroke-opacity:1" d="M 347.091,381.824 355.563,381.824 z" id="boundary" inkscape:connector-curvature="0" />
	<path style="fill:none;stroke:red;stroke-width:1px;stroke-linecap:butt;stroke-linejoin:miter;stroke-opacity:1" d="M 355.563,381.824 364.034,381.824 z" id="boundary" inkscape:connector-curvature="0" />
	<path style="fill:none;stroke:red;stroke-width:1px;stroke-linecap:butt;stroke-linejoin:miter;stroke-opacity:1" d="M 380.977,381.824 372.506,381.824 z" id="boundary" inkscape:connector-curvature="0" />
	<path style="fill:none;stroke:red;stroke-width:1px;stroke-linecap:butt;stroke-linejoin:miter;stroke-opacity:1" d="M 490.258,377.588 481.787,377.588 z" id="boundary" inkscape:connector-curvature="0" />
	<path style="fill:none;stroke:red;stroke-width:1px;stroke-linecap:butt;stroke-linejoin:miter;stroke-opacity:1" d="M 498.729,375.894 490.258,377.588 z" id="boundary" inkscape:connector-curvature="0" />
	<path style="fill:none;stroke:red;stroke-width:1px;stroke-linecap:butt;stroke-linejoin:miter;stroke-opacity:1" d="M 380.977,381.824 389.448,381.824 z" id="boundary" inkscape:connector-curvature="0" />
	<path style="fill:none;stroke:red;stroke-width:1px;stroke-linecap:butt;stroke-linejoin:miter;stroke-opacity:1" d="M 397.92,381.824 406.391,381.824 z" id="boundary" inkscape:connector-curvature="0" />
	<path style="fill:none;stroke:red;stroke-width:1px;stroke-linecap:butt;stroke-linejoin:miter;stroke-opacity:1" d="M 414.863,381.824 406.391,381.824 z" id="boundary" inkscape:connector-curvature="0" />
	<path style="fill:none;stroke:red;stroke-width:1px;stroke-linecap:butt;stroke-linejoin:miter;stroke-opacity:1" d="M 397.92,381.824 389.448,381.824 z" id="boundary" inkscape:connector-curvature="0" />
	<path style="fill:none;stroke:red;stroke-width:1px;stroke-linecap:butt;stroke-linejoin:miter;stroke-opacity:1" d="M 473.315,377.588 481.787,377.588 z" id="boundary" inkscape:connector-curvature="0" />
	<path style="fill:none;stroke:red;stroke-width:1px;stroke-linecap:butt;stroke-linejoin:miter;stroke-opacity:1" d="M 572.43,50.5927 580.902,50.5927 z" id="boundary" inkscape:connector-curvature="0" />
	<path style="fill:none;stroke:red;stroke-width:1px;stroke-linecap:butt;stroke-linejoin:miter;stroke-opacity:1" d="M 563.959,52.2869 572.43,50.5927 z" id="boundary" inkscape:connector-curvature="0" />
	<path style="fill:none;stroke:red;stroke-width:1px;stroke-linecap:butt;stroke-linejoin:miter;stroke-opacity:1" d="M 580.902,50.5927 589.373,50.5927 z" id="boundary" inkscape:connector-curvature="0" />
	<path style="fill:none;stroke:red;stroke-width:1px;stroke-linecap:butt;stroke-linejoin:miter;stroke-opacity:1" d="M 597.845,50.5927 589.373,50.5927 z" id="boundary" inkscape:connector-curvature="0" />
	<path style="fill:none;stroke:red;stroke-width:1px;stroke-linecap:butt;stroke-linejoin:miter;stroke-opacity:1" d="M 555.488,54.8284 563.959,52.2869 z" id="boundary" inkscape:connector-curvature="0" />
	<path style="fill:none;stroke:red;stroke-width:1px;stroke-linecap:butt;stroke-linejoin:miter;stroke-opacity:1" d="M 530.073,54.8284 538.545,54.8284 z" id="boundary" inkscape:connector-curvature="0" />
	<path style="fill:none;stroke:red;stroke-width:1px;stroke-linecap:butt;stroke-linejoin:miter;stroke-opacity:1" d="M 522.449,59.064 530.073,54.8284 z" id="boundary" inkscape:connector-curvature="0" />
	<path style="fill:none;stroke:red;stroke-width:1px;stroke-linecap:butt;stroke-linejoin:miter;stroke-opacity:1" d="M 614.787,50.5927 606.316,50.5927 z" id="boundary" inkscape:connector-curvature="0" />
	<path style="fill:none;stroke:red;stroke-width:1px;stroke-linecap:butt;stroke-linejoin:miter;stroke-opacity:1" d="M 547.016,54.8284 538.545,54.8284 z" id="boundary" inkscape:connector-curvature="0" />
	<path style="fill:none;stroke:red;stroke-width:1px;stroke-linecap:butt;stroke-linejoin:miter;stroke-opacity:1" d="M 606.316,50.5927 597.845,50.5927 z" id="boundary" inkscape:connector-curvature="0" />
	<path style="fill:none;stroke:red;stroke-width:1px;stroke-linecap:butt;stroke-linejoin:miter;stroke-opacity:1" d="M 647.826,46.357 656.297,46.357 z" id="boundary" inkscape:connector-curvature="0" />
	<path style="fill:none;stroke:red;stroke-width:1px;stroke-linecap:butt;stroke-linejoin:miter;stroke-opacity:1" d="M 640.202,50.5927 647.826,46.357 z" id="boundary" inkscape:connector-curvature="0" />
	<path style="fill:none;stroke:red;stroke-width:1px;stroke-linecap:butt;stroke-linejoin:miter;stroke-opacity:1" d="M 664.769,46.357 673.24,46.357 z" id="boundary" inkscape:connector-curvature="0" />
	<path style="fill:none;stroke:red;stroke-width:1px;stroke-linecap:butt;stroke-linejoin:miter;stroke-opacity:1" d="M 664.769,46.357 656.297,46.357 z" id="boundary" inkscape:connector-curvature="0" />
	<path style="fill:none;stroke:red;stroke-width:1px;stroke-linecap:butt;stroke-linejoin:miter;stroke-opacity:1" d="M 614.787,50.5927 623.259,50.5927 z" id="boundary" inkscape:connector-curvature="0" />
	<path style="fill:none;stroke:red;stroke-width:1px;stroke-linecap:butt;stroke-linejoin:miter;stroke-opacity:1" d="M 631.73,50.5927 623.259,50.5927 z" id="boundary" inkscape:connector-curvature="0" />
	<path style="fill:none;stroke:red;stroke-width:1px;stroke-linecap:butt;stroke-linejoin:miter;stroke-opacity:1" d="M 640.202,50.5927 631.73,50.5927 z" id="boundary" inkscape:connector-curvature="0" />
	<path style="fill:none;stroke:red;stroke-width:1px;stroke-linecap:butt;stroke-linejoin:miter;stroke-opacity:1" d="M 696.96,54.8284 689.336,50.5927 z" id="boundary" inkscape:connector-curvature="0" />
	<path style="fill:none;stroke:red;stroke-width:1px;stroke-linecap:butt;stroke-linejoin:miter;stroke-opacity:1" d="M 673.24,46.357 681.711,46.357 z" id="boundary" inkscape:connector-curvature="0" />
	<path style="fill:none;stroke:red;stroke-width:1px;stroke-linecap:butt;stroke-linejoin:miter;stroke-opacity:1" d="M 681.711,46.357 689.336,50.5927 z" id="boundary" inkscape:connector-curvature="0" />
	<path style="fill:none;stroke:red;stroke-width:1px;stroke-linecap:butt;stroke-linejoin:miter;stroke-opacity:1" d="M 547.016,54.8284 555.488,54.8284 z" id="boundary" inkscape:connector-curvature="0" />
	<path style="fill:none;stroke:red;stroke-width:1px;stroke-linecap:butt;stroke-linejoin:miter;stroke-opacity:1" d="M 522.449,59.064 513.978,59.9112 z" id="boundary" inkscape:connector-curvature="0" />
	<path style="fill:none;stroke:red;stroke-width:1px;stroke-linecap:butt;stroke-linejoin:miter;stroke-opacity:1" d="M 696.96,54.8284 702.89,61.6055 z" id="boundary" inkscape:connector-curvature="0" />
	<path style="fill:none;stroke:red;stroke-width:1px;stroke-linecap:butt;stroke-linejoin:miter;stroke-opacity:1" d="M 711.361,64.994 718.985,69.2297 z" id="boundary" inkscape:connector-curvature="0" />
	<path style="fill:none;stroke:red;stroke-width:1px;stroke-linecap:butt;stroke-linejoin:miter;stroke-opacity:1" d="M 718.985,69.2297 724.915,76.0068 z" id="boundary" inkscape:connector-curvature="0" />
	<path style="fill:none;stroke:red;stroke-width:1px;stroke-linecap:butt;stroke-linejoin:miter;stroke-opacity:1" d="M 732.54,80.2425 724.915,76.0068 z" id="boundary" inkscape:connector-curvature="0" />
	<path style="fill:none;stroke:red;stroke-width:1px;stroke-linecap:butt;stroke-linejoin:miter;stroke-opacity:1" d="M 702.89,61.6055 711.361,64.994 z" id="boundary" inkscape:connector-curvature="0" />
	<path style="fill:none;stroke:red;stroke-width:1px;stroke-linecap:butt;stroke-linejoin:miter;stroke-opacity:1" d="M 813.018,101.421 804.547,101.421 z" id="boundary" inkscape:connector-curvature="0" />
	<path style="fill:none;stroke:red;stroke-width:1px;stroke-linecap:butt;stroke-linejoin:miter;stroke-opacity:1" d="M 732.54,80.2425 740.164,84.4782 z" id="boundary" inkscape:connector-curvature="0" />
	<path style="fill:none;stroke:red;stroke-width:1px;stroke-linecap:butt;stroke-linejoin:miter;stroke-opacity:1" d="M 740.164,84.4782 747.788,88.7139 z" id="boundary" inkscape:connector-curvature="0" />
	<path style="fill:none;stroke:red;stroke-width:1px;stroke-linecap:butt;stroke-linejoin:miter;stroke-opacity:1" d="M 755.412,92.9496 747.788,88.7139 z" id="boundary" inkscape:connector-curvature="0" />
	<path style="fill:none;stroke:red;stroke-width:1px;stroke-linecap:butt;stroke-linejoin:miter;stroke-opacity:1" d="M 763.037,97.1853 755.412,92.9496 z" id="boundary" inkscape:connector-curvature="0" />
	<path style="fill:none;stroke:red;stroke-width:1px;stroke-linecap:butt;stroke-linejoin:miter;stroke-opacity:1" d="M 770.661,101.421 779.132,101.421 z" id="boundary" inkscape:connector-curvature="0" />
	<path style="fill:none;stroke:red;stroke-width:1px;stroke-linecap:butt;stroke-linejoin:miter;stroke-opacity:1" d="M 770.661,101.421 763.037,97.1853 z" id="boundary" inkscape:connector-curvature="0" />
	<path style="fill:none;stroke:red;stroke-width:1px;stroke-linecap:butt;stroke-linejoin:miter;stroke-opacity:1" d="M 787.604,101.421 796.075,101.421 z" id="boundary" inkscape:connector-curvature="0" />
	<path style="fill:none;stroke:red;stroke-width:1px;stroke-linecap:butt;stroke-linejoin:miter;stroke-opacity:1" d="M 804.547,101.421 796.075,101.421 z" id="boundary" inkscape:connector-curvature="0" />
	<path style="fill:none;stroke:red;stroke-width:1px;stroke-linecap:butt;stroke-linejoin:miter;stroke-opacity:1" d="M 787.604,101.421 779.132,101.421 z" id="boundary" inkscape:connector-curvature="0" />
	<path style="fill:none;stroke:red;stroke-width:1px;stroke-linecap:butt;stroke-linejoin:miter;stroke-opacity:1" d="M 813.018,101.421 821.489,101.421 z" id="boundary" inkscape:connector-curvature="0" />
	<path style="fill:none;stroke:red;stroke-width:1px;stroke-linecap:butt;stroke-linejoin:miter;stroke-opacity:1" d="M 829.961,101.421 838.432,101.421 z" id="boundary" inkscape:connector-curvature="0" />
	<path style="fill:none;stroke:red;stroke-width:1px;stroke-linecap:butt;stroke-linejoin:miter;stroke-opacity:1" d="M 829.961,101.421 821.489,101.421 z" id="boundary" inkscape:connector-curvature="0" />
	<path style="fill:none;stroke:red;stroke-width:1px;stroke-linecap:butt;stroke-linejoin:miter;stroke-opacity:1" d="M 846.904,101.421 855.375,101.421 z" id="boundary" inkscape:connector-curvature="0" />
	<path style="fill:none;stroke:red;stroke-width:1px;stroke-linecap:butt;stroke-linejoin:miter;stroke-opacity:1" d="M 863.846,101.421 872.318,101.421 z" id="boundary" inkscape:connector-curvature="0" />
	<path style="fill:none;stroke:red;stroke-width:1px;stroke-linecap:butt;stroke-linejoin:miter;stroke-opacity:1" d="M 880.789,101.421 872.318,101.421 z" id="boundary" inkscape:connector-curvature="0" />
	<path style="fill:none;stroke:red;stroke-width:1px;stroke-linecap:butt;stroke-linejoin:miter;stroke-opacity:1" d="M 863.846,101.421 855.375,101.421 z" id="boundary" inkscape:connector-curvature="0" />
	<path style="fill:none;stroke:red;stroke-width:1px;stroke-linecap:butt;stroke-linejoin:miter;stroke-opacity:1" d="M 846.904,101.421 838.432,101.421 z" id="boundary" inkscape:connector-curvature="0" />
	<path style="fill:none;stroke:red;stroke-width:1px;stroke-linecap:butt;stroke-linejoin:miter;stroke-opacity:1" d="M 889.26,101.421 897.732,101.421 z" id="boundary" inkscape:connector-curvature="0" />
	<path style="fill:none;stroke:red;stroke-width:1px;stroke-linecap:butt;stroke-linejoin:miter;stroke-opacity:1" d="M 906.203,101.421 914.675,101.421 z" id="boundary" inkscape:connector-curvature="0" />
	<path style="fill:none;stroke:red;stroke-width:1px;stroke-linecap:butt;stroke-linejoin:miter;stroke-opacity:1" d="M 906.203,101.421 897.732,101.421 z" id="boundary" inkscape:connector-curvature="0" />
	<path style="fill:none;stroke:red;stroke-width:1px;stroke-linecap:butt;stroke-linejoin:miter;stroke-opacity:1" d="M 923.146,101.421 931.617,101.421 z" id="boundary" inkscape:connector-curvature="0" />
	<path style="fill:none;stroke:red;stroke-width:1px;stroke-linecap:butt;stroke-linejoin:miter;stroke-opacity:1" d="M 940.089,101.421 948.56,101.421 z" id="boundary" inkscape:connector-curvature="0" />
	<path style="fill:none;stroke:red;stroke-width:1px;stroke-linecap:butt;stroke-linejoin:miter;stroke-opacity:1" d="M 957.032,101.421 948.56,101.421 z" id="boundary" inkscape:connector-curvature="0" />
	<path style="fill:none;stroke:red;stroke-width:1px;stroke-linecap:butt;stroke-linejoin:miter;stroke-opacity:1" d="M 957.032,101.421 963.809,106.504 z" id="boundary" inkscape:connector-curvature="0" />
	<path style="fill:none;stroke:red;stroke-width:1px;stroke-linecap:butt;stroke-linejoin:miter;stroke-opacity:1" d="M 940.089,101.421 931.617,101.421 z" id="boundary" inkscape:connector-curvature="0" />
	<path style="fill:none;stroke:red;stroke-width:1px;stroke-linecap:butt;stroke-linejoin:miter;stroke-opacity:1" d="M 923.146,101.421 914.675,101.421 z" id="boundary" inkscape:connector-curvature="0" />
	<path style="fill:none;stroke:red;stroke-width:1px;stroke-linecap:butt;stroke-linejoin:miter;stroke-opacity:1" d="M 889.26,101.421 880.789,101.421 z" id="boundary" inkscape:connector-curvature="0" />
	<path style="fill:none;stroke:red;stroke-width:1px;stroke-linecap:butt;stroke-linejoin:miter;stroke-opacity:1" d="M 963.809,106.504 970.586,112.434 z" id="boundary" inkscape:connector-curvature="0" />
	<path style="fill:none;stroke:red;stroke-width:1px;stroke-linecap:butt;stroke-linejoin:miter;stroke-opacity:1" d="M 970.586,112.434 970.586,120.905 z" id="boundary" inkscape:connector-curvature="0" />
	<path style="fill:none;stroke:red;stroke-width:1px;stroke-linecap:butt;stroke-linejoin:miter;stroke-opacity:1" d="M 970.586,120.905 970.586,129.377 z" id="boundary" inkscape:connector-curvature="0" />
	<path style="fill:none;stroke:red;stroke-width:1px;stroke-linecap:butt;stroke-linejoin:miter;stroke-opacity:1" d="M 974.822,137.001 970.586,129.377 z" id="boundary" inkscape:connector-curvature="0" />
	<path style="fill:none;stroke:red;stroke-width:1px;stroke-linecap:butt;stroke-linejoin:miter;stroke-opacity:1" d="M 962.114,246.282 969.739,242.046 z" id="boundary" inkscape:connector-curvature="0" />
	<path style="fill:none;stroke:red;stroke-width:1px;stroke-linecap:butt;stroke-linejoin:miter;stroke-opacity:1" d="M 956.184,253.059 962.114,246.282 z" id="boundary" inkscape:connector-curvature="0" />
	<path style="fill:none;stroke:red;stroke-width:1px;stroke-linecap:butt;stroke-linejoin:miter;stroke-opacity:1" d="M 977.363,237.81 969.739,242.046 z" id="boundary" inkscape:connector-curvature="0" />
	<path style="fill:none;stroke:red;stroke-width:1px;stroke-linecap:butt;stroke-linejoin:miter;stroke-opacity:1" d="M 979.057,144.625 974.822,137.001 z" id="boundary" inkscape:connector-curvature="0" />
	<path style="fill:none;stroke:red;stroke-width:1px;stroke-linecap:butt;stroke-linejoin:miter;stroke-opacity:1" d="M 979.057,144.625 980.751,153.096 z" id="boundary" inkscape:connector-curvature="0" />
	<path style="fill:none;stroke:red;stroke-width:1px;stroke-linecap:butt;stroke-linejoin:miter;stroke-opacity:1" d="M 980.751,153.096 983.293,161.568 z" id="boundary" inkscape:connector-curvature="0" />
	<path style="fill:none;stroke:red;stroke-width:1px;stroke-linecap:butt;stroke-linejoin:miter;stroke-opacity:1" d="M 987.529,169.192 983.293,161.568 z" id="boundary" inkscape:connector-curvature="0" />
	<path style="fill:none;stroke:red;stroke-width:1px;stroke-linecap:butt;stroke-linejoin:miter;stroke-opacity:1" d="M 987.529,169.192 987.529,177.664 z" id="boundary" inkscape:connector-curvature="0" />
	<path style="fill:none;stroke:red;stroke-width:1px;stroke-linecap:butt;stroke-linejoin:miter;stroke-opacity:1" d="M 987.529,186.135 987.529,177.664 z" id="boundary" inkscape:connector-curvature="0" />
	<path style="fill:none;stroke:red;stroke-width:1px;stroke-linecap:butt;stroke-linejoin:miter;stroke-opacity:1" d="M 991.764,193.759 987.529,186.135 z" id="boundary" inkscape:connector-curvature="0" />
	<path style="fill:none;stroke:red;stroke-width:1px;stroke-linecap:butt;stroke-linejoin:miter;stroke-opacity:1" d="M 991.764,193.759 991.764,202.231 z" id="boundary" inkscape:connector-curvature="0" />
	<path style="fill:none;stroke:red;stroke-width:1px;stroke-linecap:butt;stroke-linejoin:miter;stroke-opacity:1" d="M 991.764,202.231 996,209.855 z" id="boundary" inkscape:connector-curvature="0" />
	<path style="fill:none;stroke:red;stroke-width:1px;stroke-linecap:butt;stroke-linejoin:miter;stroke-opacity:1" d="M 996,209.855 991.764,220.868 z" id="boundary" inkscape:connector-curvature="0" />
	<path style="fill:none;stroke:red;stroke-width:1px;stroke-linecap:butt;stroke-linejoin:miter;stroke-opacity:1" d="M 991.764,220.868 984.987,232.728 z" id="boundary" inkscape:connector-curvature="0" />
	<path style="fill:none;stroke:red;stroke-width:1px;stroke-linecap:butt;stroke-linejoin:miter;stroke-opacity:1" d="M 984.987,232.728 977.363,237.81 z" id="boundary" inkscape:connector-curvature="0" />
	<path style="fill:none;stroke:red;stroke-width:1px;stroke-linecap:butt;stroke-linejoin:miter;stroke-opacity:1" d="M 588.526,356.41 580.055,356.41 z" id="boundary" inkscape:connector-curvature="0" />
	<path style="fill:none;stroke:red;stroke-width:1px;stroke-linecap:butt;stroke-linejoin:miter;stroke-opacity:1" d="M 596.997,356.41 604.622,352.174 z" id="boundary" inkscape:connector-curvature="0" />
	<path style="fill:none;stroke:red;stroke-width:1px;stroke-linecap:butt;stroke-linejoin:miter;stroke-opacity:1" d="M 604.622,352.174 613.093,352.174 z" id="boundary" inkscape:connector-curvature="0" />
	<path style="fill:none;stroke:red;stroke-width:1px;stroke-linecap:butt;stroke-linejoin:miter;stroke-opacity:1" d="M 621.564,352.174 613.093,352.174 z" id="boundary" inkscape:connector-curvature="0" />
	<path style="fill:none;stroke:red;stroke-width:1px;stroke-linecap:butt;stroke-linejoin:miter;stroke-opacity:1" d="M 555.488,360.646 563.959,360.646 z" id="boundary" inkscape:connector-curvature="0" />
	<path style="fill:none;stroke:red;stroke-width:1px;stroke-linecap:butt;stroke-linejoin:miter;stroke-opacity:1" d="M 547.863,364.881 555.488,360.646 z" id="boundary" inkscape:connector-curvature="0" />
	<path style="fill:none;stroke:red;stroke-width:1px;stroke-linecap:butt;stroke-linejoin:miter;stroke-opacity:1" d="M 588.526,356.41 596.997,356.41 z" id="boundary" inkscape:connector-curvature="0" />
	<path style="fill:none;stroke:red;stroke-width:1px;stroke-linecap:butt;stroke-linejoin:miter;stroke-opacity:1" d="M 572.43,360.646 563.959,360.646 z" id="boundary" inkscape:connector-curvature="0" />
	<path style="fill:none;stroke:red;stroke-width:1px;stroke-linecap:butt;stroke-linejoin:miter;stroke-opacity:1" d="M 580.055,356.41 572.43,360.646 z" id="boundary" inkscape:connector-curvature="0" />
	<path style="fill:none;stroke:red;stroke-width:1px;stroke-linecap:butt;stroke-linejoin:miter;stroke-opacity:1" d="M 621.564,352.174 630.036,352.174 z" id="boundary" inkscape:connector-curvature="0" />
	<path style="fill:none;stroke:red;stroke-width:1px;stroke-linecap:butt;stroke-linejoin:miter;stroke-opacity:1" d="M 638.507,352.174 630.036,352.174 z" id="boundary" inkscape:connector-curvature="0" />
	<path style="fill:none;stroke:red;stroke-width:1px;stroke-linecap:butt;stroke-linejoin:miter;stroke-opacity:1" d="M 646.979,352.174 655.45,352.174 z" id="boundary" inkscape:connector-curvature="0" />
	<path style="fill:none;stroke:red;stroke-width:1px;stroke-linecap:butt;stroke-linejoin:miter;stroke-opacity:1" d="M 646.979,352.174 638.507,352.174 z" id="boundary" inkscape:connector-curvature="0" />
	<path style="fill:none;stroke:red;stroke-width:1px;stroke-linecap:butt;stroke-linejoin:miter;stroke-opacity:1" d="M 663.921,352.174 672.393,352.174 z" id="boundary" inkscape:connector-curvature="0" />
	<path style="fill:none;stroke:red;stroke-width:1px;stroke-linecap:butt;stroke-linejoin:miter;stroke-opacity:1" d="M 680.864,352.174 688.488,356.41 z" id="boundary" inkscape:connector-curvature="0" />
	<path style="fill:none;stroke:red;stroke-width:1px;stroke-linecap:butt;stroke-linejoin:miter;stroke-opacity:1" d="M 672.393,352.174 680.864,352.174 z" id="boundary" inkscape:connector-curvature="0" />
	<path style="fill:none;stroke:red;stroke-width:1px;stroke-linecap:butt;stroke-linejoin:miter;stroke-opacity:1" d="M 696.113,360.646 688.488,356.41 z" id="boundary" inkscape:connector-curvature="0" />
	<path style="fill:none;stroke:red;stroke-width:1px;stroke-linecap:butt;stroke-linejoin:miter;stroke-opacity:1" d="M 704.584,363.187 696.113,360.646 z" id="boundary" inkscape:connector-curvature="0" />
	<path style="fill:none;stroke:red;stroke-width:1px;stroke-linecap:butt;stroke-linejoin:miter;stroke-opacity:1" d="M 655.45,352.174 663.921,352.174 z" id="boundary" inkscape:connector-curvature="0" />
	<path style="fill:none;stroke:red;stroke-width:1px;stroke-linecap:butt;stroke-linejoin:miter;stroke-opacity:1" d="M 522.449,364.881 530.921,364.881 z" id="boundary" inkscape:connector-curvature="0" />
	<path style="fill:none;stroke:red;stroke-width:1px;stroke-linecap:butt;stroke-linejoin:miter;stroke-opacity:1" d="M 514.825,369.117 522.449,364.881 z" id="boundary" inkscape:connector-curvature="0" />
	<path style="fill:none;stroke:red;stroke-width:1px;stroke-linecap:butt;stroke-linejoin:miter;stroke-opacity:1" d="M 547.863,364.881 539.392,364.881 z" id="boundary" inkscape:connector-curvature="0" />
	<path style="fill:none;stroke:red;stroke-width:1px;stroke-linecap:butt;stroke-linejoin:miter;stroke-opacity:1" d="M 539.392,364.881 530.921,364.881 z" id="boundary" inkscape:connector-curvature="0" />
	<path style="fill:none;stroke:red;stroke-width:1px;stroke-linecap:butt;stroke-linejoin:miter;stroke-opacity:1" d="M 704.584,363.187 712.208,367.423 z" id="boundary" inkscape:connector-curvature="0" />
	<path style="fill:none;stroke:red;stroke-width:1px;stroke-linecap:butt;stroke-linejoin:miter;stroke-opacity:1" d="M 712.208,367.423 720.68,369.117 z" id="boundary" inkscape:connector-curvature="0" />
	<path style="fill:none;stroke:red;stroke-width:1px;stroke-linecap:butt;stroke-linejoin:miter;stroke-opacity:1" d="M 720.68,369.117 728.304,373.353 z" id="boundary" inkscape:connector-curvature="0" />
	<path style="fill:none;stroke:red;stroke-width:1px;stroke-linecap:butt;stroke-linejoin:miter;stroke-opacity:1" d="M 728.304,373.353 735.928,377.588 z" id="boundary" inkscape:connector-curvature="0" />
	<path style="fill:none;stroke:red;stroke-width:1px;stroke-linecap:butt;stroke-linejoin:miter;stroke-opacity:1" d="M 735.928,377.588 743.553,381.824 z" id="boundary" inkscape:connector-curvature="0" />
	<path style="fill:none;stroke:red;stroke-width:1px;stroke-linecap:butt;stroke-linejoin:miter;stroke-opacity:1" d="M 751.177,386.06 757.954,391.143 z" id="boundary" inkscape:connector-curvature="0" />
	<path style="fill:none;stroke:red;stroke-width:1px;stroke-linecap:butt;stroke-linejoin:miter;stroke-opacity:1" d="M 757.954,391.143 763.884,397.92 z" id="boundary" inkscape:connector-curvature="0" />
	<path style="fill:none;stroke:red;stroke-width:1px;stroke-linecap:butt;stroke-linejoin:miter;stroke-opacity:1" d="M 770.661,403.003 763.884,397.92 z" id="boundary" inkscape:connector-curvature="0" />
	<path style="fill:none;stroke:red;stroke-width:1px;stroke-linecap:butt;stroke-linejoin:miter;stroke-opacity:1" d="M 743.553,381.824 751.177,386.06 z" id="boundary" inkscape:connector-curvature="0" />
	<path style="fill:none;stroke:red;stroke-width:1px;stroke-linecap:butt;stroke-linejoin:miter;stroke-opacity:1" d="M 770.661,403.003 775.744,409.78 z" id="boundary" inkscape:connector-curvature="0" />
	<path style="fill:none;stroke:red;stroke-width:1px;stroke-linecap:butt;stroke-linejoin:miter;stroke-opacity:1" d="M 782.521,415.71 775.744,409.78 z" id="boundary" inkscape:connector-curvature="0" />
	<path style="fill:none;stroke:red;stroke-width:1px;stroke-linecap:butt;stroke-linejoin:miter;stroke-opacity:1" d="M 795.228,428.417 788.451,422.487 z" id="boundary" inkscape:connector-curvature="0" />
	<path style="fill:none;stroke:red;stroke-width:1px;stroke-linecap:butt;stroke-linejoin:miter;stroke-opacity:1" d="M 788.451,422.487 782.521,415.71 z" id="boundary" inkscape:connector-curvature="0" />
	<path style="fill:none;stroke:red;stroke-width:1px;stroke-linecap:butt;stroke-linejoin:miter;stroke-opacity:1" d="M 795.228,428.417 798.617,436.888 z" id="boundary" inkscape:connector-curvature="0" />
	<path style="fill:none;stroke:red;stroke-width:1px;stroke-linecap:butt;stroke-linejoin:miter;stroke-opacity:1" d="M 877.401,335.231 881.636,342.856 z" id="boundary" inkscape:connector-curvature="0" />
	<path style="fill:none;stroke:red;stroke-width:1px;stroke-linecap:butt;stroke-linejoin:miter;stroke-opacity:1" d="M 877.401,335.231 877.401,326.76 z" id="boundary" inkscape:connector-curvature="0" />
	<path style="fill:none;stroke:red;stroke-width:1px;stroke-linecap:butt;stroke-linejoin:miter;stroke-opacity:1" d="M 877.401,326.76 884.178,320.83 z" id="boundary" inkscape:connector-curvature="0" />
	<path style="fill:none;stroke:red;stroke-width:1px;stroke-linecap:butt;stroke-linejoin:miter;stroke-opacity:1" d="M 890.108,314.053 884.178,320.83 z" id="boundary" inkscape:connector-curvature="0" />
	<path style="fill:none;stroke:red;stroke-width:1px;stroke-linecap:butt;stroke-linejoin:miter;stroke-opacity:1" d="M 881.636,342.856 885.872,350.48 z" id="boundary" inkscape:connector-curvature="0" />
	<path style="fill:none;stroke:red;stroke-width:1px;stroke-linecap:butt;stroke-linejoin:miter;stroke-opacity:1" d="M 893.496,375.047 890.108,366.576 z" id="boundary" inkscape:connector-curvature="0" />
	<path style="fill:none;stroke:red;stroke-width:1px;stroke-linecap:butt;stroke-linejoin:miter;stroke-opacity:1" d="M 890.108,366.576 890.108,358.104 z" id="boundary" inkscape:connector-curvature="0" />
	<path style="fill:none;stroke:red;stroke-width:1px;stroke-linecap:butt;stroke-linejoin:miter;stroke-opacity:1" d="M 885.872,350.48 890.108,358.104 z" id="boundary" inkscape:connector-curvature="0" />
	<path style="fill:none;stroke:red;stroke-width:1px;stroke-linecap:butt;stroke-linejoin:miter;stroke-opacity:1" d="M 890.108,314.053 896.885,308.123 z" id="boundary" inkscape:connector-curvature="0" />
	<path style="fill:none;stroke:red;stroke-width:1px;stroke-linecap:butt;stroke-linejoin:miter;stroke-opacity:1" d="M 893.496,375.047 894.343,383.518 z" id="boundary" inkscape:connector-curvature="0" />
	<path style="fill:none;stroke:red;stroke-width:1px;stroke-linecap:butt;stroke-linejoin:miter;stroke-opacity:1" d="M 929.923,279.32 936.7,271.696 z" id="boundary" inkscape:connector-curvature="0" />
	<path style="fill:none;stroke:red;stroke-width:1px;stroke-linecap:butt;stroke-linejoin:miter;stroke-opacity:1" d="M 936.7,271.696 943.477,265.766 z" id="boundary" inkscape:connector-curvature="0" />
	<path style="fill:none;stroke:red;stroke-width:1px;stroke-linecap:butt;stroke-linejoin:miter;stroke-opacity:1" d="M 929.923,279.32 923.146,284.403 z" id="boundary" inkscape:connector-curvature="0" />
	<path style="fill:none;stroke:red;stroke-width:1px;stroke-linecap:butt;stroke-linejoin:miter;stroke-opacity:1" d="M 943.477,265.766 949.407,258.989 z" id="boundary" inkscape:connector-curvature="0" />
	<path style="fill:none;stroke:red;stroke-width:1px;stroke-linecap:butt;stroke-linejoin:miter;stroke-opacity:1" d="M 949.407,258.989 956.184,253.059 z" id="boundary" inkscape:connector-curvature="0" />
	<path style="fill:none;stroke:red;stroke-width:1px;stroke-linecap:butt;stroke-linejoin:miter;stroke-opacity:1" d="M 902.815,301.346 909.592,295.416 z" id="boundary" inkscape:connector-curvature="0" />
	<path style="fill:none;stroke:red;stroke-width:1px;stroke-linecap:butt;stroke-linejoin:miter;stroke-opacity:1" d="M 902.815,301.346 896.885,308.123 z" id="boundary" inkscape:connector-curvature="0" />
	<path style="fill:none;stroke:red;stroke-width:1px;stroke-linecap:butt;stroke-linejoin:miter;stroke-opacity:1" d="M 909.592,295.416 915.522,288.639 z" id="boundary" inkscape:connector-curvature="0" />
	<path style="fill:none;stroke:red;stroke-width:1px;stroke-linecap:butt;stroke-linejoin:miter;stroke-opacity:1" d="M 915.522,288.639 923.146,284.403 z" id="boundary" inkscape:connector-curvature="0" />
	<path style="fill:none;stroke:red;stroke-width:1px;stroke-linecap:butt;stroke-linejoin:miter;stroke-opacity:1" d="M 798.617,436.888 805.394,442.818 z" id="boundary" inkscape:connector-curvature="0" />
	<path style="fill:none;stroke:red;stroke-width:1px;stroke-linecap:butt;stroke-linejoin:miter;stroke-opacity:1" d="M 854.528,441.124 862.999,439.43 z" id="boundary" inkscape:connector-curvature="0" />
	<path style="fill:none;stroke:red;stroke-width:1px;stroke-linecap:butt;stroke-linejoin:miter;stroke-opacity:1" d="M 846.056,443.665 854.528,441.124 z" id="boundary" inkscape:connector-curvature="0" />
	<path style="fill:none;stroke:red;stroke-width:1px;stroke-linecap:butt;stroke-linejoin:miter;stroke-opacity:1" d="M 871.471,435.194 862.999,439.43 z" id="boundary" inkscape:connector-curvature="0" />
	<path style="fill:none;stroke:red;stroke-width:1px;stroke-linecap:butt;stroke-linejoin:miter;stroke-opacity:1" d="M 846.056,443.665 837.585,445.36 z" id="boundary" inkscape:connector-curvature="0" />
	<path style="fill:none;stroke:red;stroke-width:1px;stroke-linecap:butt;stroke-linejoin:miter;stroke-opacity:1" d="M 813.018,447.054 821.489,449.595 z" id="boundary" inkscape:connector-curvature="0" />
	<path style="fill:none;stroke:red;stroke-width:1px;stroke-linecap:butt;stroke-linejoin:miter;stroke-opacity:1" d="M 829.961,449.595 837.585,445.36 z" id="boundary" inkscape:connector-curvature="0" />
	<path style="fill:none;stroke:red;stroke-width:1px;stroke-linecap:butt;stroke-linejoin:miter;stroke-opacity:1" d="M 829.961,449.595 821.489,449.595 z" id="boundary" inkscape:connector-curvature="0" />
	<path style="fill:none;stroke:red;stroke-width:1px;stroke-linecap:butt;stroke-linejoin:miter;stroke-opacity:1" d="M 813.018,447.054 805.394,442.818 z" id="boundary" inkscape:connector-curvature="0" />
	<path style="fill:none;stroke:red;stroke-width:1px;stroke-linecap:butt;stroke-linejoin:miter;stroke-opacity:1" d="M 894.343,383.518 898.579,391.143 z" id="boundary" inkscape:connector-curvature="0" />
	<path style="fill:none;stroke:red;stroke-width:1px;stroke-linecap:butt;stroke-linejoin:miter;stroke-opacity:1" d="M 902.815,398.767 907.05,406.391 z" id="boundary" inkscape:connector-curvature="0" />
	<path style="fill:none;stroke:red;stroke-width:1px;stroke-linecap:butt;stroke-linejoin:miter;stroke-opacity:1" d="M 907.05,406.391 907.05,414.863 z" id="boundary" inkscape:connector-curvature="0" />
	<path style="fill:none;stroke:red;stroke-width:1px;stroke-linecap:butt;stroke-linejoin:miter;stroke-opacity:1" d="M 898.579,391.143 902.815,398.767 z" id="boundary" inkscape:connector-curvature="0" />
	<path style="fill:none;stroke:red;stroke-width:1px;stroke-linecap:butt;stroke-linejoin:miter;stroke-opacity:1" d="M 871.471,435.194 879.942,430.958 z" id="boundary" inkscape:connector-curvature="0" />
	<path style="fill:none;stroke:red;stroke-width:1px;stroke-linecap:butt;stroke-linejoin:miter;stroke-opacity:1" d="M 896.885,428.417 888.413,428.417 z" id="boundary" inkscape:connector-curvature="0" />
	<path style="fill:none;stroke:red;stroke-width:1px;stroke-linecap:butt;stroke-linejoin:miter;stroke-opacity:1" d="M 888.413,428.417 879.942,430.958 z" id="boundary" inkscape:connector-curvature="0" />
	<path style="fill:none;stroke:red;stroke-width:1px;stroke-linecap:butt;stroke-linejoin:miter;stroke-opacity:1" d="M 904.509,423.334 896.885,428.417 z" id="boundary" inkscape:connector-curvature="0" />
	<path style="fill:none;stroke:red;stroke-width:1px;stroke-linecap:butt;stroke-linejoin:miter;stroke-opacity:1" d="M 907.05,414.863 904.509,423.334 z" id="boundary" inkscape:connector-curvature="0" />
	<circle cx="4" cy="222.562" r="4" fill="#0" id="circle0"/>
	<circle cx="4" cy="231.033" r="4" fill="#0" id="circle1"/>
	<circle cx="8.2357" cy="238.658" r="4" fill="#0" id="circle2"/>
	<circle cx="10.7771" cy="215.785" r="4" fill="#0" id="circle3"/>
	<circle cx="12.4714" cy="246.282" r="4" fill="#0" id="circle4"/>
	<circle cx="12.4714" cy="254.753" r="4" fill="#0" id="circle5"/>
	<circle cx="12.4714" cy="263.225" r="4" fill="#0" id="circle6"/>
	<circle cx="16.7071" cy="270.849" r="4" fill="#0" id="circle7"/>
	<circle cx="16.7071" cy="279.32" r="4" fill="#0" id="circle8"/>
	<circle cx="16.7071" cy="287.792" r="4" fill="#0" id="circle9"/>
	<circle cx="18.4014" cy="211.549" r="4" fill="#0" id="circle10"/>
	<circle cx="20.9428" cy="295.416" r="4" fill="#0" id="circle11"/>
	<circle cx="21.7899" cy="303.887" r="4" fill="#0" id="circle12"/>
	<circle cx="26.0256" cy="207.313" r="4" fill="#0" id="circle13"/>
	<circle cx="26.0256" cy="311.512" r="4" fill="#0" id="circle14"/>
	<circle cx="33.6499" cy="197.148" r="4" fill="#0" id="circle15"/>
	<circle cx="33.6499" cy="315.747" r="4" fill="#0" id="circle16"/>
	<circle cx="42.1213" cy="192.912" r="4" fill="#0" id="circle17"/>
	<circle cx="42.1213" cy="318.289" r="4" fill="#0" id="circle18"/>
	<circle cx="49.7455" cy="314.053" r="4" fill="#0" id="circle19"/>
	<circle cx="50.5927" cy="188.676" r="4" fill="#0" id="circle20"/>
	<circle cx="57.3698" cy="309.817" r="4" fill="#0" id="circle21"/>
	<circle cx="59.064" cy="184.441" r="4" fill="#0" id="circle22"/>
	<circle cx="65.8412" cy="177.664" r="4" fill="#0" id="circle23"/>
	<circle cx="65.8412" cy="308.97" r="4" fill="#0" id="circle24"/>
	<circle cx="72.6183" cy="170.886" r="4" fill="#0" id="circle25"/>
	<circle cx="74.3126" cy="305.582" r="4" fill="#0" id="circle26"/>
	<circle cx="79.3954" cy="164.956" r="4" fill="#0" id="circle27"/>
	<circle cx="82.7839" cy="305.582" r="4" fill="#0" id="circle28"/>
	<circle cx="85.3254" cy="158.179" r="4" fill="#0" id="circle29"/>
	<circle cx="90.4082" cy="301.346" r="4" fill="#0" id="circle30"/>
	<circle cx="92.1025" cy="152.249" r="4" fill="#0" id="circle31"/>
	<circle cx="98.8796" cy="301.346" r="4" fill="#0" id="circle32"/>
	<circle cx="99.7267" cy="148.014" r="4" fill="#0" id="circle33"/>
	<circle cx="106.504" cy="141.237" r="4" fill="#0" id="circle34"/>
	<circle cx="107.351" cy="301.346" r="4" fill="#0" id="circle35"/>
	<circle cx="114.975" cy="137.001" r="4" fill="#0" id="circle36"/>
	<circle cx="115.822" cy="301.346" r="4" fill="#0" id="circle37"/>
	<circle cx="121.752" cy="131.071" r="4" fill="#0" id="circle38"/>
	<circle cx="122.599" cy="27.7199" r="4" fill="#0" id="circle39"/>
	<circle cx="122.599" cy="36.1913" r="4" fill="#0" id="circle40"/>
	<circle cx="122.599" cy="44.6627" r="4" fill="#0" id="circle41"/>
	<circle cx="122.599" cy="53.1341" r="4" fill="#0" id="circle42"/>
	<circle cx="122.599" cy="61.6055" r="4" fill="#0" id="circle43"/>
	<circle cx="122.599" cy="70.0769" r="4" fill="#0" id="circle44"/>
	<circle cx="122.599" cy="78.5482" r="4" fill="#0" id="circle45"/>
	<circle cx="122.599" cy="87.0196" r="4" fill="#0" id="circle46"/>
	<circle cx="122.599" cy="95.491" r="4" fill="#0" id="circle47"/>
	<circle cx="122.599" cy="103.962" r="4" fill="#0" id="circle48"/>
	<circle cx="122.599" cy="112.434" r="4" fill="#0" id="circle49"/>
	<circle cx="122.599" cy="120.905" r="4" fill="#0" id="circle50"/>
	<circle cx="124.294" cy="301.346" r="4" fill="#0" id="circle51"/>
	<circle cx="129.377" cy="20.9428" r="4" fill="#0" id="circle52"/>
	<circle cx="132.765" cy="301.346" r="4" fill="#0" id="circle53"/>
	<circle cx="137.001" cy="16.7071" r="4" fill="#0" id="circle54"/>
	<circle cx="141.237" cy="301.346" r="4" fill="#0" id="circle55"/>
	<circle cx="145.472" cy="13.3185" r="4" fill="#0" id="circle56"/>
	<circle cx="149.708" cy="301.346" r="4" fill="#0" id="circle57"/>
	<circle cx="153.944" cy="12.4714" r="4" fill="#0" id="circle58"/>
	<circle cx="158.179" cy="301.346" r="4" fill="#0" id="circle59"/>
	<circle cx="162.415" cy="9.08284" r="4" fill="#0" id="circle60"/>
	<circle cx="166.651" cy="301.346" r="4" fill="#0" id="circle61"/>
	<circle cx="170.886" cy="8.2357" r="4" fill="#0" id="circle62"/>
	<circle cx="174.275" cy="305.582" r="4" fill="#0" id="circle63"/>
	<circle cx="179.358" cy="8.2357" r="4" fill="#0" id="circle64"/>
	<circle cx="181.899" cy="309.817" r="4" fill="#0" id="circle65"/>
	<circle cx="187.829" cy="8.2357" r="4" fill="#0" id="circle66"/>
	<circle cx="189.523" cy="314.053" r="4" fill="#0" id="circle67"/>
	<circle cx="195.453" cy="4" r="4" fill="#0" id="circle68"/>
	<circle cx="197.148" cy="318.289" r="4" fill="#0" id="circle69"/>
	<circle cx="203.925" cy="4" r="4" fill="#0" id="circle70"/>
	<circle cx="204.772" cy="322.524" r="4" fill="#0" id="circle71"/>
	<circle cx="212.396" cy="4" r="4" fill="#0" id="circle72"/>
	<circle cx="213.243" cy="325.066" r="4" fill="#0" id="circle73"/>
	<circle cx="220.02" cy="330.996" r="4" fill="#0" id="circle74"/>
	<circle cx="220.868" cy="4" r="4" fill="#0" id="circle75"/>
	<circle cx="227.645" cy="335.231" r="4" fill="#0" id="circle76"/>
	<circle cx="229.339" cy="4" r="4" fill="#0" id="circle77"/>
	<circle cx="235.269" cy="339.467" r="4" fill="#0" id="circle78"/>
	<circle cx="237.81" cy="6.54142" r="4" fill="#0" id="circle79"/>
	<circle cx="242.046" cy="345.397" r="4" fill="#0" id="circle80"/>
	<circle cx="245.435" cy="10.7771" r="4" fill="#0" id="circle81"/>
	<circle cx="247.976" cy="352.174" r="4" fill="#0" id="circle82"/>
	<circle cx="252.212" cy="16.7071" r="4" fill="#0" id="circle83"/>
	<circle cx="254.753" cy="358.104" r="4" fill="#0" id="circle84"/>
	<circle cx="258.142" cy="23.4842" r="4" fill="#0" id="circle85"/>
	<circle cx="262.377" cy="362.34" r="4" fill="#0" id="circle86"/>
	<circle cx="264.919" cy="29.4142" r="4" fill="#0" id="circle87"/>
	<circle cx="269.155" cy="368.27" r="4" fill="#0" id="circle88"/>
	<circle cx="270.849" cy="36.1913" r="4" fill="#0" id="circle89"/>
	<circle cx="275.085" cy="375.047" r="4" fill="#0" id="circle90"/>
	<circle cx="279.32" cy="39.5798" r="4" fill="#0" id="circle91"/>
	<circle cx="281.862" cy="380.977" r="4" fill="#0" id="circle92"/>
	<circle cx="286.944" cy="43.8155" r="4" fill="#0" id="circle93"/>
	<circle cx="288.639" cy="386.06" r="4" fill="#0" id="circle94"/>
	<circle cx="292.874" cy="50.5927" r="4" fill="#0" id="circle95"/>
	<circle cx="297.11" cy="386.06" r="4" fill="#0" id="circle96"/>
	<circle cx="300.499" cy="54.8284" r="4" fill="#0" id="circle97"/>
	<circle cx="305.582" cy="386.06" r="4" fill="#0" id="circle98"/>
	<circle cx="308.123" cy="59.064" r="4" fill="#0" id="circle99"/>
	<circle cx="314.053" cy="386.06" r="4" fill="#0" id="circle100"/>
	<circle cx="315.747" cy="63.2997" r="4" fill="#0" id="circle101"/>
	<circle cx="322.524" cy="386.06" r="4" fill="#0" id="circle102"/>
	<circle cx="323.371" cy="67.5354" r="4" fill="#0" id="circle103"/>
	<circle cx="330.996" cy="71.7711" r="4" fill="#0" id="circle104"/>
	<circle cx="330.996" cy="386.06" r="4" fill="#0" id="circle105"/>
	<circle cx="337.773" cy="76.854" r="4" fill="#0" id="circle106"/>
	<circle cx="338.62" cy="381.824" r="4" fill="#0" id="circle107"/>
	<circle cx="346.244" cy="80.2425" r="4" fill="#0" id="circle108"/>
	<circle cx="347.091" cy="381.824" r="4" fill="#0" id="circle109"/>
	<circle cx="354.716" cy="80.2425" r="4" fill="#0" id="circle110"/>
	<circle cx="355.563" cy="381.824" r="4" fill="#0" id="circle111"/>
	<circle cx="363.187" cy="80.2425" r="4" fill="#0" id="circle112"/>
	<circle cx="364.034" cy="381.824" r="4" fill="#0" id="circle113"/>
	<circle cx="371.658" cy="80.2425" r="4" fill="#0" id="circle114"/>
	<circle cx="372.506" cy="381.824" r="4" fill="#0" id="circle115"/>
	<circle cx="380.13" cy="80.2425" r="4" fill="#0" id="circle116"/>
	<circle cx="380.977" cy="381.824" r="4" fill="#0" id="circle117"/>
	<circle cx="387.754" cy="76.0068" r="4" fill="#0" id="circle118"/>
	<circle cx="389.448" cy="381.824" r="4" fill="#0" id="circle119"/>
	<circle cx="396.225" cy="71.7711" r="4" fill="#0" id="circle120"/>
	<circle cx="397.92" cy="381.824" r="4" fill="#0" id="circle121"/>
	<circle cx="404.697" cy="71.7711" r="4" fill="#0" id="circle122"/>
	<circle cx="406.391" cy="381.824" r="4" fill="#0" id="circle123"/>
	<circle cx="413.168" cy="71.7711" r="4" fill="#0" id="circle124"/>
	<circle cx="414.863" cy="381.824" r="4" fill="#0" id="circle125"/>
	<circle cx="421.64" cy="71.7711" r="4" fill="#0" id="circle126"/>
	<circle cx="422.487" cy="377.588" r="4" fill="#0" id="circle127"/>
	<circle cx="430.111" cy="71.7711" r="4" fill="#0" id="circle128"/>
	<circle cx="430.958" cy="377.588" r="4" fill="#0" id="circle129"/>
	<circle cx="438.582" cy="71.7711" r="4" fill="#0" id="circle130"/>
	<circle cx="439.43" cy="377.588" r="4" fill="#0" id="circle131"/>
	<circle cx="447.054" cy="71.7711" r="4" fill="#0" id="circle132"/>
	<circle cx="447.901" cy="377.588" r="4" fill="#0" id="circle133"/>
	<circle cx="455.525" cy="71.7711" r="4" fill="#0" id="circle134"/>
	<circle cx="456.372" cy="377.588" r="4" fill="#0" id="circle135"/>
	<circle cx="463.997" cy="71.7711" r="4" fill="#0" id="circle136"/>
	<circle cx="464.844" cy="377.588" r="4" fill="#0" id="circle137"/>
	<circle cx="472.468" cy="71.7711" r="4" fill="#0" id="circle138"/>
	<circle cx="473.315" cy="377.588" r="4" fill="#0" id="circle139"/>
	<circle cx="480.092" cy="67.5354" r="4" fill="#0" id="circle140"/>
	<circle cx="481.787" cy="377.588" r="4" fill="#0" id="circle141"/>
	<circle cx="488.564" cy="67.5354" r="4" fill="#0" id="circle142"/>
	<circle cx="490.258" cy="377.588" r="4" fill="#0" id="circle143"/>
	<circle cx="497.035" cy="64.1469" r="4" fill="#0" id="circle144"/>
	<circle cx="498.729" cy="375.894" r="4" fill="#0" id="circle145"/>
	<circle cx="505.506" cy="63.2997" r="4" fill="#0" id="circle146"/>
	<circle cx="507.201" cy="373.353" r="4" fill="#0" id="circle147"/>
	<circle cx="513.978" cy="59.9112" r="4" fill="#0" id="circle148"/>
	<circle cx="514.825" cy="369.117" r="4" fill="#0" id="circle149"/>
	<circle cx="522.449" cy="59.064" r="4" fill="#0" id="circle150"/>
	<circle cx="522.449" cy="364.881" r="4" fill="#0" id="circle151"/>
	<circle cx="530.073" cy="54.8284" r="4" fill="#0" id="circle152"/>
	<circle cx="530.921" cy="364.881" r="4" fill="#0" id="circle153"/>
	<circle cx="538.545" cy="54.8284" r="4" fill="#0" id="circle154"/>
	<circle cx="539.392" cy="364.881" r="4" fill="#0" id="circle155"/>
	<circle cx="547.016" cy="54.8284" r="4" fill="#0" id="circle156"/>
	<circle cx="547.863" cy="364.881" r="4" fill="#0" id="circle157"/>
	<circle cx="555.488" cy="54.8284" r="4" fill="#0" id="circle158"/>
	<circle cx="555.488" cy="360.646" r="4" fill="#0" id="circle159"/>
	<circle cx="563.959" cy="52.2869" r="4" fill="#0" id="circle160"/>
	<circle cx="563.959" cy="360.646" r="4" fill="#0" id="circle161"/>
	<circle cx="572.43" cy="50.5927" r="4" fill="#0" id="circle162"/>
	<circle cx="572.43" cy="360.646" r="4" fill="#0" id="circle163"/>
	<circle cx="580.055" cy="356.41" r="4" fill="#0" id="circle164"/>
	<circle cx="580.902" cy="50.5927" r="4" fill="#0" id="circle165"/>
	<circle cx="588.526" cy="356.41" r="4" fill="#0" id="circle166"/>
	<circle cx="589.373" cy="50.5927" r="4" fill="#0" id="circle167"/>
	<circle cx="596.997" cy="356.41" r="4" fill="#0" id="circle168"/>
	<circle cx="597.845" cy="50.5927" r="4" fill="#0" id="circle169"/>
	<circle cx="604.622" cy="352.174" r="4" fill="#0" id="circle170"/>
	<circle cx="606.316" cy="50.5927" r="4" fill="#0" id="circle171"/>
	<circle cx="613.093" cy="352.174" r="4" fill="#0" id="circle172"/>
	<circle cx="614.787" cy="50.5927" r="4" fill="#0" id="circle173"/>
	<circle cx="621.564" cy="352.174" r="4" fill="#0" id="circle174"/>
	<circle cx="623.259" cy="50.5927" r="4" fill="#0" id="circle175"/>
	<circle cx="630.036" cy="352.174" r="4" fill="#0" id="circle176"/>
	<circle cx="631.73" cy="50.5927" r="4" fill="#0" id="circle177"/>
	<circle cx="638.507" cy="352.174" r="4" fill="#0" id="circle178"/>
	<circle cx="640.202" cy="50.5927" r="4" fill="#0" id="circle179"/>
	<circle cx="646.979" cy="352.174" r="4" fill="#0" id="circle180"/>
	<circle cx="647.826" cy="46.357" r="4" fill="#0" id="circle181"/>
	<circle cx="655.45" cy="352.174" r="4" fill="#0" id="circle182"/>
	<circle cx="656.297" cy="46.357" r="4" fill="#0" id="circle183"/>
	<circle cx="663.921" cy="352.174" r="4" fill="#0" id="circle184"/>
	<circle cx="664.769" cy="46.357" r="4" fill="#0" id="circle185"/>
	<circle cx="672.393" cy="352.174" r="4" fill="#0" id="circle186"/>
	<circle cx="673.24" cy="46.357" r="4" fill="#0" id="circle187"/>
	<circle cx="680.864" cy="352.174" r="4" fill="#0" id="circle188"/>
	<circle cx="681.711" cy="46.357" r="4" fill="#0" id="circle189"/>
	<circle cx="688.488" cy="356.41" r="4" fill="#0" id="circle190"/>
	<circle cx="689.336" cy="50.5927" r="4" fill="#0" id="circle191"/>
	<circle cx="696.113" cy="360.646" r="4" fill="#0" id="circle192"/>
	<circle cx="696.96" cy="54.8284" r="4" fill="#0" id="circle193"/>
	<circle cx="702.89" cy="61.6055" r="4" fill="#0" id="circle194"/>
	<circle cx="704.584" cy="363.187" r="4" fill="#0" id="circle195"/>
	<circle cx="711.361" cy="64.994" r="4" fill="#0" id="circle196"/>
	<circle cx="712.208" cy="367.423" r="4" fill="#0" id="circle197"/>
	<circle cx="718.985" cy="69.2297" r="4" fill="#0" id="circle198"/>
	<circle cx="720.68" cy="369.117" r="4" fill="#0" id="circle199"/>
	<circle cx="724.915" cy="76.0068" r="4" fill="#0" id="circle200"/>
	<circle cx="728.304" cy="373.353" r="4" fill="#0" id="circle201"/>
	<circle cx="732.54" cy="80.2425" r="4" fill="#0" id="circle202"/>
	<circle cx="735.928" cy="377.588" r="4" fill="#0" id="circle203"/>
	<circle cx="740.164" cy="84.4782" r="4" fill="#0" id="circle204"/>
	<circle cx="743.553" cy="381.824" r="4" fill="#0" id="circle205"/>
	<circle cx="747.788" cy="88.7139" r="4" fill="#0" id="circle206"/>
	<circle cx="751.177" cy="386.06" r="4" fill="#0" id="circle207"/>
	<circle cx="755.412" cy="92.9496" r="4" fill="#0" id="circle208"/>
	<circle cx="757.954" cy="391.143" r="4" fill="#0" id="circle209"/>
	<circle cx="763.037" cy="97.1853" r="4" fill="#0" id="circle210"/>
	<circle cx="763.884" cy="397.92" r="4" fill="#0" id="circle211"/>
	<circle cx="770.661" cy="101.421" r="4" fill="#0" id="circle212"/>
	<circle cx="770.661" cy="403.003" r="4" fill="#0" id="circle213"/>
	<circle cx="775.744" cy="409.78" r="4" fill="#0" id="circle214"/>
	<circle cx="779.132" cy="101.421" r="4" fill="#0" id="circle215"/>
	<circle cx="782.521" cy="415.71" r="4" fill="#0" id="circle216"/>
	<circle cx="787.604" cy="101.421" r="4" fill="#0" id="circle217"/>
	<circle cx="788.451" cy="422.487" r="4" fill="#0" id="circle218"/>
	<circle cx="795.228" cy="428.417" r="4" fill="#0" id="circle219"/>
	<circle cx="796.075" cy="101.421" r="4" fill="#0" id="circle220"/>
	<circle cx="798.617" cy="436.888" r="4" fill="#0" id="circle221"/>
	<circle cx="804.547" cy="101.421" r="4" fill="#0" id="circle222"/>
	<circle cx="805.394" cy="442.818" r="4" fill="#0" id="circle223"/>
	<circle cx="813.018" cy="101.421" r="4" fill="#0" id="circle224"/>
	<circle cx="813.018" cy="447.054" r="4" fill="#0" id="circle225"/>
	<circle cx="821.489" cy="101.421" r="4" fill="#0" id="circle226"/>
	<circle cx="821.489" cy="449.595" r="4" fill="#0" id="circle227"/>
	<circle cx="829.961" cy="101.421" r="4" fill="#0" id="circle228"/>
	<circle cx="829.961" cy="449.595" r="4" fill="#0" id="circle229"/>
	<circle cx="837.585" cy="445.36" r="4" fill="#0" id="circle230"/>
	<circle cx="838.432" cy="101.421" r="4" fill="#0" id="circle231"/>
	<circle cx="846.056" cy="443.665" r="4" fill="#0" id="circle232"/>
	<circle cx="846.904" cy="101.421" r="4" fill="#0" id="circle233"/>
	<circle cx="854.528" cy="441.124" r="4" fill="#0" id="circle234"/>
	<circle cx="855.375" cy="101.421" r="4" fill="#0" id="circle235"/>
	<circle cx="862.999" cy="439.43" r="4" fill="#0" id="circle236"/>
	<circle cx="863.846" cy="101.421" r="4" fill="#0" id="circle237"/>
	<circle cx="871.471" cy="435.194" r="4" fill="#0" id="circle238"/>
	<circle cx="872.318" cy="101.421" r="4" fill="#0" id="circle239"/>
	<circle cx="877.401" cy="326.76" r="4" fill="#0" id="circle240"/>
	<circle cx="877.401" cy="335.231" r="4" fill="#0" id="circle241"/>
	<circle cx="879.942" cy="430.958" r="4" fill="#0" id="circle242"/>
	<circle cx="880.789" cy="101.421" r="4" fill="#0" id="circle243"/>
	<circle cx="881.636" cy="342.856" r="4" fill="#0" id="circle244"/>
	<circle cx="884.178" cy="320.83" r="4" fill="#0" id="circle245"/>
	<circle cx="885.872" cy="350.48" r="4" fill="#0" id="circle246"/>
	<circle cx="888.413" cy="428.417" r="4" fill="#0" id="circle247"/>
	<circle cx="889.26" cy="101.421" r="4" fill="#0" id="circle248"/>
	<circle cx="890.108" cy="314.053" r="4" fill="#0" id="circle249"/>
	<circle cx="890.108" cy="358.104" r="4" fill="#0" id="circle250"/>
	<circle cx="890.108" cy="366.576" r="4" fill="#0" id="circle251"/>
	<circle cx="893.496" cy="375.047" r="4" fill="#0" id="circle252"/>
	<circle cx="894.343" cy="383.518" r="4" fill="#0" id="circle253"/>
	<circle cx="896.885" cy="308.123" r="4" fill="#0" id="circle254"/>
	<circle cx="896.885" cy="428.417" r="4" fill="#0" id="circle255"/>
	<circle cx="897.732" cy="101.421" r="4" fill="#0" id="circle256"/>
	<circle cx="898.579" cy="391.143" r="4" fill="#0" id="circle257"/>
	<circle cx="902.815" cy="301.346" r="4" fill="#0" id="circle258"/>
	<circle cx="902.815" cy="398.767" r="4" fill="#0" id="circle259"/>
	<circle cx="904.509" cy="423.334" r="4" fill="#0" id="circle260"/>
	<circle cx="906.203" cy="101.421" r="4" fill="#0" id="circle261"/>
	<circle cx="907.05" cy="406.391" r="4" fill="#0" id="circle262"/>
	<circle cx="907.05" cy="414.863" r="4" fill="#0" id="circle263"/>
	<circle cx="909.592" cy="295.416" r="4" fill="#0" id="circle264"/>
	<circle cx="914.675" cy="101.421" r="4" fill="#0" id="circle265"/>
	<circle cx="915.522" cy="288.639" r="4" fill="#0" id="circle266"/>
	<circle cx="923.146" cy="101.421" r="4" fill="#0" id="circle267"/>
	<circle cx="923.146" cy="284.403" r="4" fill="#0" id="circle268"/>
	<circle cx="929.923" cy="279.32" r="4" fill="#0" id="circle269"/>
	<circle cx="931.617" cy="101.421" r="4" fill="#0" id="circle270"/>
	<circle cx="936.7" cy="271.696" r="4" fill="#0" id="circle271"/>
	<circle cx="940.089" cy="101.421" r="4" fill="#0" id="circle272"/>
	<circle cx="943.477" cy="265.766" r="4" fill="#0" id="circle273"/>
	<circle cx="948.56" cy="101.421" r="4" fill="#0" id="circle274"/>
	<circle cx="949.407" cy="258.989" r="4" fill="#0" id="circle275"/>
	<circle cx="956.184" cy="253.059" r="4" fill="#0" id="circle276"/>
	<circle cx="957.032" cy="101.421" r="4" fill="#0" id="circle277"/>
	<circle cx="962.114" cy="246.282" r="4" fill="#0" id="circle278"/>
	<circle cx="963.809" cy="106.504" r="4" fill="#0" id="circle279"/>
	<circle cx="969.739" cy="242.046" r="4" fill="#0" id="circle280"/>
	<circle cx="970.586" cy="112.434" r="4" fill="#0" id="circle281"/>
	<circle cx="970.586" cy="120.905" r="4" fill="#0" id="circle282"/>
	<circle cx="970.586" cy="129.377" r="4" fill="#0" id="circle283"/>
	<circle cx="974.822" cy="137.001" r="4" fill="#0" id="circle284"/>
	<circle cx="977.363" cy="237.81" r="4" fill="#0" id="circle285"/>
	<circle cx="979.057" cy="144.625" r="4" fill="#0" id="circle286"/>
	<circle cx="980.751" cy="153.096" r="4" fill="#0" id="circle287"/>
	<circle cx="983.293" cy="161.568" r="4" fill="#0" id="circle288"/>
	<circle cx="984.987" cy="232.728" r="4" fill="#0" id="circle289"/>
	<circle cx="987.529" cy="169.192" r="4" fill="#0" id="circle290"/>
	<circle cx="987.529" cy="177.664" r="4" fill="#0" id="circle291"/>
	<circle cx="987.529" cy="186.135" r="4" fill="#0" id="circle292"/>
	<circle cx="991.764" cy="193.759" r="4" fill="#0" id="circle293"/>
	<circle cx="991.764" cy="202.231" r="4" fill="#0" id="circle294"/>
	<circle cx="991.764" cy="220.868" r="4" fill="#0" id="circle295"/>
	<circle cx="996" cy="209.855" r="4" fill="#0" id="circle296"/>
	</g>
</svg>