<?xml version="1.0" encoding="UTF-8" standalone="no"?>
<!-- Created with CurveBenchmark -->
<svg
	xmlns:dc="http://purl.org/dc/elements/1.1/"
	xmlns:cc="http://creativecommons.org/ns#"
	xmlns:rdf="http://www.w3.org/1999/02/22-rdf-syntax-ns#"
	xmlns:svg="http://www.w3.org/2000/svg"
	xmlns="http://www.w3.org/2000/svg"
	xmlns:sodipodi="http://sodipodi.sourceforge.net/DTD/sodipodi-0.dtd"
	xmlns:inkscape="http://www.inkscape.org/namespaces/inkscape"
	width="1000"
	height="1000"
	id="svg2"
	version="1.1"
	sodipodi:docname="manifold/nncrust-fgen2ap.png.txt">
<defs
	id="defs4" />
<metadata
	id="metadata7">
	<rdf:RDF>
		<cc:Work
			rdf:about="">
			<dc:format>image/svg+xml</dc:format>
			<dc:type
				rdf:resource="http://purl.org/dc/dcmitype/StillImage" />
			<dc:title></dc:title>
		</cc:Work>
	</rdf:RDF>
</metadata>
<g
	inkscape:label="Layer 1"
	inkscape:groupmode="layer"
	id="layer1">
	<path style="fill:none;stroke:red;stroke-width:1px;stroke-linecap:butt;stroke-linejoin:miter;stroke-opacity:1" d="M 51.1483,132.243 66.2357,117.156 z" id="boundary" inkscape:connector-curvature="0" />
	<path style="fill:none;stroke:red;stroke-width:1px;stroke-linecap:butt;stroke-linejoin:miter;stroke-opacity:1" d="M 70.0076,156.76 51.1483,151.103 z" id="boundary" inkscape:connector-curvature="0" />
	<path style="fill:none;stroke:red;stroke-width:1px;stroke-linecap:butt;stroke-linejoin:miter;stroke-opacity:1" d="M 51.1483,151.103 51.1483,132.243 z" id="boundary" inkscape:connector-curvature="0" />
	<path style="fill:none;stroke:red;stroke-width:1px;stroke-linecap:butt;stroke-linejoin:miter;stroke-opacity:1" d="M 88.8669,160.532 70.0076,156.76 z" id="boundary" inkscape:connector-curvature="0" />
	<path style="fill:none;stroke:red;stroke-width:1px;stroke-linecap:butt;stroke-linejoin:miter;stroke-opacity:1" d="M 107.726,166.19 88.8669,160.532 z" id="boundary" inkscape:connector-curvature="0" />
	<path style="fill:none;stroke:red;stroke-width:1px;stroke-linecap:butt;stroke-linejoin:miter;stroke-opacity:1" d="M 70.0076,320.837 79.4373,301.977 z" id="boundary" inkscape:connector-curvature="0" />
	<path style="fill:none;stroke:red;stroke-width:1px;stroke-linecap:butt;stroke-linejoin:miter;stroke-opacity:1" d="M 79.4373,301.977 94.5247,286.89 z" id="boundary" inkscape:connector-curvature="0" />
	<path style="fill:none;stroke:red;stroke-width:1px;stroke-linecap:butt;stroke-linejoin:miter;stroke-opacity:1" d="M 66.2357,117.156 85.0951,107.726 z" id="boundary" inkscape:connector-curvature="0" />
	<path style="fill:none;stroke:red;stroke-width:1px;stroke-linecap:butt;stroke-linejoin:miter;stroke-opacity:1" d="M 70.0076,320.837 60.5779,339.696 z" id="boundary" inkscape:connector-curvature="0" />
	<path style="fill:none;stroke:red;stroke-width:1px;stroke-linecap:butt;stroke-linejoin:miter;stroke-opacity:1" d="M 51.1483,358.555 60.5779,339.696 z" id="boundary" inkscape:connector-curvature="0" />
	<path style="fill:none;stroke:red;stroke-width:1px;stroke-linecap:butt;stroke-linejoin:miter;stroke-opacity:1" d="M 51.1483,377.414 60.5779,394.388 z" id="boundary" inkscape:connector-curvature="0" />
	<path style="fill:none;stroke:red;stroke-width:1px;stroke-linecap:butt;stroke-linejoin:miter;stroke-opacity:1" d="M 60.5779,394.388 60.5779,424.563 z" id="boundary" inkscape:connector-curvature="0" />
	<path style="fill:none;stroke:red;stroke-width:1px;stroke-linecap:butt;stroke-linejoin:miter;stroke-opacity:1" d="M 51.1483,377.414 51.1483,358.555 z" id="boundary" inkscape:connector-curvature="0" />
	<path style="fill:none;stroke:red;stroke-width:1px;stroke-linecap:butt;stroke-linejoin:miter;stroke-opacity:1" d="M 60.5779,424.563 79.4373,420.791 z" id="boundary" inkscape:connector-curvature="0" />
	<path style="fill:none;stroke:red;stroke-width:1px;stroke-linecap:butt;stroke-linejoin:miter;stroke-opacity:1" d="M 79.4373,500 79.4373,481.141 z" id="boundary" inkscape:connector-curvature="0" />
	<path style="fill:none;stroke:red;stroke-width:1px;stroke-linecap:butt;stroke-linejoin:miter;stroke-opacity:1" d="M 79.4373,481.141 88.8669,452.852 z" id="boundary" inkscape:connector-curvature="0" />
	<path style="fill:none;stroke:red;stroke-width:1px;stroke-linecap:butt;stroke-linejoin:miter;stroke-opacity:1" d="M 96.4106,430.221 88.8669,452.852 z" id="boundary" inkscape:connector-curvature="0" />
	<path style="fill:none;stroke:red;stroke-width:1px;stroke-linecap:butt;stroke-linejoin:miter;stroke-opacity:1" d="M 79.4373,420.791 96.4106,430.221 z" id="boundary" inkscape:connector-curvature="0" />
	<path style="fill:none;stroke:red;stroke-width:1px;stroke-linecap:butt;stroke-linejoin:miter;stroke-opacity:1" d="M 70.0076,528.289 60.5779,424.563 z" id="boundary" inkscape:connector-curvature="0" />
	<path style="fill:none;stroke:red;stroke-width:1px;stroke-linecap:butt;stroke-linejoin:miter;stroke-opacity:1" d="M 94.5247,286.89 107.726,264.259 z" id="boundary" inkscape:connector-curvature="0" />
	<path style="fill:none;stroke:red;stroke-width:1px;stroke-linecap:butt;stroke-linejoin:miter;stroke-opacity:1" d="M 192.593,66.2357 207.681,51.1483 z" id="boundary" inkscape:connector-curvature="0" />
	<path style="fill:none;stroke:red;stroke-width:1px;stroke-linecap:butt;stroke-linejoin:miter;stroke-opacity:1" d="M 207.681,51.1483 224.654,41.7186 z" id="boundary" inkscape:connector-curvature="0" />
	<path style="fill:none;stroke:red;stroke-width:1px;stroke-linecap:butt;stroke-linejoin:miter;stroke-opacity:1" d="M 177.506,79.4373 160.532,88.8669 z" id="boundary" inkscape:connector-curvature="0" />
	<path style="fill:none;stroke:red;stroke-width:1px;stroke-linecap:butt;stroke-linejoin:miter;stroke-opacity:1" d="M 160.532,88.8669 141.673,88.8669 z" id="boundary" inkscape:connector-curvature="0" />
	<path style="fill:none;stroke:red;stroke-width:1px;stroke-linecap:butt;stroke-linejoin:miter;stroke-opacity:1" d="M 192.593,66.2357 177.506,79.4373 z" id="boundary" inkscape:connector-curvature="0" />
	<path style="fill:none;stroke:red;stroke-width:1px;stroke-linecap:butt;stroke-linejoin:miter;stroke-opacity:1" d="M 296.319,13.4297 277.46,19.0875 z" id="boundary" inkscape:connector-curvature="0" />
	<path style="fill:none;stroke:red;stroke-width:1px;stroke-linecap:butt;stroke-linejoin:miter;stroke-opacity:1" d="M 277.46,19.0875 258.601,22.8593 z" id="boundary" inkscape:connector-curvature="0" />
	<path style="fill:none;stroke:red;stroke-width:1px;stroke-linecap:butt;stroke-linejoin:miter;stroke-opacity:1" d="M 224.654,41.7186 241.627,32.289 z" id="boundary" inkscape:connector-curvature="0" />
	<path style="fill:none;stroke:red;stroke-width:1px;stroke-linecap:butt;stroke-linejoin:miter;stroke-opacity:1" d="M 258.601,22.8593 241.627,32.289 z" id="boundary" inkscape:connector-curvature="0" />
	<path style="fill:none;stroke:red;stroke-width:1px;stroke-linecap:butt;stroke-linejoin:miter;stroke-opacity:1" d="M 107.726,166.19 117.156,183.163 z" id="boundary" inkscape:connector-curvature="0" />
	<path style="fill:none;stroke:red;stroke-width:1px;stroke-linecap:butt;stroke-linejoin:miter;stroke-opacity:1" d="M 107.726,166.19 126.586,166.19 z" id="boundary" inkscape:connector-curvature="0" />
	<path style="fill:none;stroke:red;stroke-width:1px;stroke-linecap:butt;stroke-linejoin:miter;stroke-opacity:1" d="M 117.156,243.513 107.726,264.259 z" id="boundary" inkscape:connector-curvature="0" />
	<path style="fill:none;stroke:red;stroke-width:1px;stroke-linecap:butt;stroke-linejoin:miter;stroke-opacity:1" d="M 117.156,183.163 107.726,207.681 z" id="boundary" inkscape:connector-curvature="0" />
	<path style="fill:none;stroke:red;stroke-width:1px;stroke-linecap:butt;stroke-linejoin:miter;stroke-opacity:1" d="M 117.156,224.654 107.726,207.681 z" id="boundary" inkscape:connector-curvature="0" />
	<path style="fill:none;stroke:red;stroke-width:1px;stroke-linecap:butt;stroke-linejoin:miter;stroke-opacity:1" d="M 103.954,98.2966 122.814,98.2966 z" id="boundary" inkscape:connector-curvature="0" />
	<path style="fill:none;stroke:red;stroke-width:1px;stroke-linecap:butt;stroke-linejoin:miter;stroke-opacity:1" d="M 85.0951,107.726 103.954,98.2966 z" id="boundary" inkscape:connector-curvature="0" />
	<path style="fill:none;stroke:red;stroke-width:1px;stroke-linecap:butt;stroke-linejoin:miter;stroke-opacity:1" d="M 141.673,88.8669 126.586,166.19 z" id="boundary" inkscape:connector-curvature="0" />
	<path style="fill:none;stroke:red;stroke-width:1px;stroke-linecap:butt;stroke-linejoin:miter;stroke-opacity:1" d="M 122.814,98.2966 141.673,88.8669 z" id="boundary" inkscape:connector-curvature="0" />
	<path style="fill:none;stroke:red;stroke-width:1px;stroke-linecap:butt;stroke-linejoin:miter;stroke-opacity:1" d="M 117.156,224.654 117.156,243.513 z" id="boundary" inkscape:connector-curvature="0" />
	<path style="fill:none;stroke:red;stroke-width:1px;stroke-linecap:butt;stroke-linejoin:miter;stroke-opacity:1" d="M 41.7186,735.741 56.8061,720.654 z" id="boundary" inkscape:connector-curvature="0" />
	<path style="fill:none;stroke:red;stroke-width:1px;stroke-linecap:butt;stroke-linejoin:miter;stroke-opacity:1" d="M 32.289,764.03 41.7186,735.741 z" id="boundary" inkscape:connector-curvature="0" />
	<path style="fill:none;stroke:red;stroke-width:1px;stroke-linecap:butt;stroke-linejoin:miter;stroke-opacity:1" d="M 66.2357,701.795 56.8061,720.654 z" id="boundary" inkscape:connector-curvature="0" />
	<path style="fill:none;stroke:red;stroke-width:1px;stroke-linecap:butt;stroke-linejoin:miter;stroke-opacity:1" d="M 13.4297,811.179 22.8593,782.89 z" id="boundary" inkscape:connector-curvature="0" />
	<path style="fill:none;stroke:red;stroke-width:1px;stroke-linecap:butt;stroke-linejoin:miter;stroke-opacity:1" d="M 32.289,764.03 22.8593,782.89 z" id="boundary" inkscape:connector-curvature="0" />
	<path style="fill:none;stroke:red;stroke-width:1px;stroke-linecap:butt;stroke-linejoin:miter;stroke-opacity:1" d="M 70.0076,556.578 70.0076,528.289 z" id="boundary" inkscape:connector-curvature="0" />
	<path style="fill:none;stroke:red;stroke-width:1px;stroke-linecap:butt;stroke-linejoin:miter;stroke-opacity:1" d="M 79.4373,573.551 70.0076,556.578 z" id="boundary" inkscape:connector-curvature="0" />
	<path style="fill:none;stroke:red;stroke-width:1px;stroke-linecap:butt;stroke-linejoin:miter;stroke-opacity:1" d="M 79.4373,500 70.0076,528.289 z" id="boundary" inkscape:connector-curvature="0" />
	<path style="fill:none;stroke:red;stroke-width:1px;stroke-linecap:butt;stroke-linejoin:miter;stroke-opacity:1" d="M 79.4373,573.551 70.0076,594.297 z" id="boundary" inkscape:connector-curvature="0" />
	<path style="fill:none;stroke:red;stroke-width:1px;stroke-linecap:butt;stroke-linejoin:miter;stroke-opacity:1" d="M 4,858.327 4,830.038 z" id="boundary" inkscape:connector-curvature="0" />
	<path style="fill:none;stroke:red;stroke-width:1px;stroke-linecap:butt;stroke-linejoin:miter;stroke-opacity:1" d="M 13.4297,875.3 4,858.327 z" id="boundary" inkscape:connector-curvature="0" />
	<path style="fill:none;stroke:red;stroke-width:1px;stroke-linecap:butt;stroke-linejoin:miter;stroke-opacity:1" d="M 13.4297,811.179 4,830.038 z" id="boundary" inkscape:connector-curvature="0" />
	<path style="fill:none;stroke:red;stroke-width:1px;stroke-linecap:butt;stroke-linejoin:miter;stroke-opacity:1" d="M 13.4297,875.3 4,896.046 z" id="boundary" inkscape:connector-curvature="0" />
	<path style="fill:none;stroke:red;stroke-width:1px;stroke-linecap:butt;stroke-linejoin:miter;stroke-opacity:1" d="M 4,896.046 4,858.327 z" id="boundary" inkscape:connector-curvature="0" />
	<path style="fill:none;stroke:red;stroke-width:1px;stroke-linecap:butt;stroke-linejoin:miter;stroke-opacity:1" d="M 22.8593,901.703 4,896.046 z" id="boundary" inkscape:connector-curvature="0" />
	<path style="fill:none;stroke:red;stroke-width:1px;stroke-linecap:butt;stroke-linejoin:miter;stroke-opacity:1" d="M 41.7186,901.703 22.8593,901.703 z" id="boundary" inkscape:connector-curvature="0" />
	<path style="fill:none;stroke:red;stroke-width:1px;stroke-linecap:butt;stroke-linejoin:miter;stroke-opacity:1" d="M 77.5513,911.133 58.692,911.133 z" id="boundary" inkscape:connector-curvature="0" />
	<path style="fill:none;stroke:red;stroke-width:1px;stroke-linecap:butt;stroke-linejoin:miter;stroke-opacity:1" d="M 58.692,911.133 41.7186,901.703 z" id="boundary" inkscape:connector-curvature="0" />
	<path style="fill:none;stroke:red;stroke-width:1px;stroke-linecap:butt;stroke-linejoin:miter;stroke-opacity:1" d="M 96.4106,907.361 77.5513,911.133 z" id="boundary" inkscape:connector-curvature="0" />
	<path style="fill:none;stroke:red;stroke-width:1px;stroke-linecap:butt;stroke-linejoin:miter;stroke-opacity:1" d="M 79.4373,611.27 70.0076,594.297 z" id="boundary" inkscape:connector-curvature="0" />
	<path style="fill:none;stroke:red;stroke-width:1px;stroke-linecap:butt;stroke-linejoin:miter;stroke-opacity:1" d="M 79.4373,650.875 79.4373,630.129 z" id="boundary" inkscape:connector-curvature="0" />
	<path style="fill:none;stroke:red;stroke-width:1px;stroke-linecap:butt;stroke-linejoin:miter;stroke-opacity:1" d="M 79.4373,679.163 79.4373,650.875 z" id="boundary" inkscape:connector-curvature="0" />
	<path style="fill:none;stroke:red;stroke-width:1px;stroke-linecap:butt;stroke-linejoin:miter;stroke-opacity:1" d="M 79.4373,611.27 79.4373,630.129 z" id="boundary" inkscape:connector-curvature="0" />
	<path style="fill:none;stroke:red;stroke-width:1px;stroke-linecap:butt;stroke-linejoin:miter;stroke-opacity:1" d="M 145.445,892.274 128.471,882.844 z" id="boundary" inkscape:connector-curvature="0" />
	<path style="fill:none;stroke:red;stroke-width:1px;stroke-linecap:butt;stroke-linejoin:miter;stroke-opacity:1" d="M 96.4106,907.361 115.27,897.932 z" id="boundary" inkscape:connector-curvature="0" />
	<path style="fill:none;stroke:red;stroke-width:1px;stroke-linecap:butt;stroke-linejoin:miter;stroke-opacity:1" d="M 128.471,882.844 115.27,897.932 z" id="boundary" inkscape:connector-curvature="0" />
	<path style="fill:none;stroke:red;stroke-width:1px;stroke-linecap:butt;stroke-linejoin:miter;stroke-opacity:1" d="M 145.445,892.274 156.76,907.361 z" id="boundary" inkscape:connector-curvature="0" />
	<path style="fill:none;stroke:red;stroke-width:1px;stroke-linecap:butt;stroke-linejoin:miter;stroke-opacity:1" d="M 66.2357,701.795 79.4373,679.163 z" id="boundary" inkscape:connector-curvature="0" />
	<path style="fill:none;stroke:red;stroke-width:1px;stroke-linecap:butt;stroke-linejoin:miter;stroke-opacity:1" d="M 171.848,920.563 185.049,935.65 z" id="boundary" inkscape:connector-curvature="0" />
	<path style="fill:none;stroke:red;stroke-width:1px;stroke-linecap:butt;stroke-linejoin:miter;stroke-opacity:1" d="M 217.11,958.281 200.137,948.852 z" id="boundary" inkscape:connector-curvature="0" />
	<path style="fill:none;stroke:red;stroke-width:1px;stroke-linecap:butt;stroke-linejoin:miter;stroke-opacity:1" d="M 200.137,948.852 185.049,935.65 z" id="boundary" inkscape:connector-curvature="0" />
	<path style="fill:none;stroke:red;stroke-width:1px;stroke-linecap:butt;stroke-linejoin:miter;stroke-opacity:1" d="M 171.848,920.563 156.76,907.361 z" id="boundary" inkscape:connector-curvature="0" />
	<path style="fill:none;stroke:red;stroke-width:1px;stroke-linecap:butt;stroke-linejoin:miter;stroke-opacity:1" d="M 234.084,967.711 251.057,977.141 z" id="boundary" inkscape:connector-curvature="0" />
	<path style="fill:none;stroke:red;stroke-width:1px;stroke-linecap:butt;stroke-linejoin:miter;stroke-opacity:1" d="M 269.916,980.913 251.057,977.141 z" id="boundary" inkscape:connector-curvature="0" />
	<path style="fill:none;stroke:red;stroke-width:1px;stroke-linecap:butt;stroke-linejoin:miter;stroke-opacity:1" d="M 326.494,986.57 307.635,990.342 z" id="boundary" inkscape:connector-curvature="0" />
	<path style="fill:none;stroke:red;stroke-width:1px;stroke-linecap:butt;stroke-linejoin:miter;stroke-opacity:1" d="M 307.635,990.342 288.776,986.57 z" id="boundary" inkscape:connector-curvature="0" />
	<path style="fill:none;stroke:red;stroke-width:1px;stroke-linecap:butt;stroke-linejoin:miter;stroke-opacity:1" d="M 234.084,967.711 217.11,958.281 z" id="boundary" inkscape:connector-curvature="0" />
	<path style="fill:none;stroke:red;stroke-width:1px;stroke-linecap:butt;stroke-linejoin:miter;stroke-opacity:1" d="M 269.916,980.913 288.776,986.57 z" id="boundary" inkscape:connector-curvature="0" />
	<path style="fill:none;stroke:red;stroke-width:1px;stroke-linecap:butt;stroke-linejoin:miter;stroke-opacity:1" d="M 334.038,4 352.897,4 z" id="boundary" inkscape:connector-curvature="0" />
	<path style="fill:none;stroke:red;stroke-width:1px;stroke-linecap:butt;stroke-linejoin:miter;stroke-opacity:1" d="M 352.897,4 369.871,13.4297 z" id="boundary" inkscape:connector-curvature="0" />
	<path style="fill:none;stroke:red;stroke-width:1px;stroke-linecap:butt;stroke-linejoin:miter;stroke-opacity:1" d="M 315.179,9.65779 334.038,4 z" id="boundary" inkscape:connector-curvature="0" />
	<path style="fill:none;stroke:red;stroke-width:1px;stroke-linecap:butt;stroke-linejoin:miter;stroke-opacity:1" d="M 388.73,13.4297 369.871,13.4297 z" id="boundary" inkscape:connector-curvature="0" />
	<path style="fill:none;stroke:red;stroke-width:1px;stroke-linecap:butt;stroke-linejoin:miter;stroke-opacity:1" d="M 315.179,9.65779 296.319,13.4297 z" id="boundary" inkscape:connector-curvature="0" />
	<path style="fill:none;stroke:red;stroke-width:1px;stroke-linecap:butt;stroke-linejoin:miter;stroke-opacity:1" d="M 388.73,13.4297 405.703,22.8593 z" id="boundary" inkscape:connector-curvature="0" />
	<path style="fill:none;stroke:red;stroke-width:1px;stroke-linecap:butt;stroke-linejoin:miter;stroke-opacity:1" d="M 422.677,32.289 439.65,41.7186 z" id="boundary" inkscape:connector-curvature="0" />
	<path style="fill:none;stroke:red;stroke-width:1px;stroke-linecap:butt;stroke-linejoin:miter;stroke-opacity:1" d="M 405.703,22.8593 422.677,32.289 z" id="boundary" inkscape:connector-curvature="0" />
	<path style="fill:none;stroke:red;stroke-width:1px;stroke-linecap:butt;stroke-linejoin:miter;stroke-opacity:1" d="M 439.65,41.7186 456.624,51.1483 z" id="boundary" inkscape:connector-curvature="0" />
	<path style="fill:none;stroke:red;stroke-width:1px;stroke-linecap:butt;stroke-linejoin:miter;stroke-opacity:1" d="M 456.624,51.1483 471.711,62.4639 z" id="boundary" inkscape:connector-curvature="0" />
	<path style="fill:none;stroke:red;stroke-width:1px;stroke-linecap:butt;stroke-linejoin:miter;stroke-opacity:1" d="M 471.711,62.4639 486.798,75.6654 z" id="boundary" inkscape:connector-curvature="0" />
	<path style="fill:none;stroke:red;stroke-width:1px;stroke-linecap:butt;stroke-linejoin:miter;stroke-opacity:1" d="M 486.798,75.6654 500,90.7529 z" id="boundary" inkscape:connector-curvature="0" />
	<path style="fill:none;stroke:red;stroke-width:1px;stroke-linecap:butt;stroke-linejoin:miter;stroke-opacity:1" d="M 515.087,103.954 500,90.7529 z" id="boundary" inkscape:connector-curvature="0" />
	<path style="fill:none;stroke:red;stroke-width:1px;stroke-linecap:butt;stroke-linejoin:miter;stroke-opacity:1" d="M 524.517,120.928 515.087,103.954 z" id="boundary" inkscape:connector-curvature="0" />
	<path style="fill:none;stroke:red;stroke-width:1px;stroke-linecap:butt;stroke-linejoin:miter;stroke-opacity:1" d="M 530.175,373.643 515.087,362.327 z" id="boundary" inkscape:connector-curvature="0" />
	<path style="fill:none;stroke:red;stroke-width:1px;stroke-linecap:butt;stroke-linejoin:miter;stroke-opacity:1" d="M 515.087,362.327 505.658,345.354 z" id="boundary" inkscape:connector-curvature="0" />
	<path style="fill:none;stroke:red;stroke-width:1px;stroke-linecap:butt;stroke-linejoin:miter;stroke-opacity:1" d="M 505.658,345.354 520.745,332.152 z" id="boundary" inkscape:connector-curvature="0" />
	<path style="fill:none;stroke:red;stroke-width:1px;stroke-linecap:butt;stroke-linejoin:miter;stroke-opacity:1" d="M 530.175,313.293 520.745,332.152 z" id="boundary" inkscape:connector-curvature="0" />
	<path style="fill:none;stroke:red;stroke-width:1px;stroke-linecap:butt;stroke-linejoin:miter;stroke-opacity:1" d="M 524.517,120.928 533.947,137.901 z" id="boundary" inkscape:connector-curvature="0" />
	<path style="fill:none;stroke:red;stroke-width:1px;stroke-linecap:butt;stroke-linejoin:miter;stroke-opacity:1" d="M 533.947,137.901 543.376,154.875 z" id="boundary" inkscape:connector-curvature="0" />
	<path style="fill:none;stroke:red;stroke-width:1px;stroke-linecap:butt;stroke-linejoin:miter;stroke-opacity:1" d="M 552.806,171.848 571.665,179.392 z" id="boundary" inkscape:connector-curvature="0" />
	<path style="fill:none;stroke:red;stroke-width:1px;stroke-linecap:butt;stroke-linejoin:miter;stroke-opacity:1" d="M 552.806,171.848 543.376,154.875 z" id="boundary" inkscape:connector-curvature="0" />
	<path style="fill:none;stroke:red;stroke-width:1px;stroke-linecap:butt;stroke-linejoin:miter;stroke-opacity:1" d="M 588.639,188.821 571.665,179.392 z" id="boundary" inkscape:connector-curvature="0" />
	<path style="fill:none;stroke:red;stroke-width:1px;stroke-linecap:butt;stroke-linejoin:miter;stroke-opacity:1" d="M 588.639,188.821 607.498,196.365 z" id="boundary" inkscape:connector-curvature="0" />
	<path style="fill:none;stroke:red;stroke-width:1px;stroke-linecap:butt;stroke-linejoin:miter;stroke-opacity:1" d="M 618.814,211.452 635.787,220.882 z" id="boundary" inkscape:connector-curvature="0" />
	<path style="fill:none;stroke:red;stroke-width:1px;stroke-linecap:butt;stroke-linejoin:miter;stroke-opacity:1" d="M 618.814,211.452 607.498,196.365 z" id="boundary" inkscape:connector-curvature="0" />
	<path style="fill:none;stroke:red;stroke-width:1px;stroke-linecap:butt;stroke-linejoin:miter;stroke-opacity:1" d="M 650.875,232.198 635.787,220.882 z" id="boundary" inkscape:connector-curvature="0" />
	<path style="fill:none;stroke:red;stroke-width:1px;stroke-linecap:butt;stroke-linejoin:miter;stroke-opacity:1" d="M 650.875,232.198 645.217,264.259 z" id="boundary" inkscape:connector-curvature="0" />
	<path style="fill:none;stroke:red;stroke-width:1px;stroke-linecap:butt;stroke-linejoin:miter;stroke-opacity:1" d="M 543.376,288.776 543.376,269.916 z" id="boundary" inkscape:connector-curvature="0" />
	<path style="fill:none;stroke:red;stroke-width:1px;stroke-linecap:butt;stroke-linejoin:miter;stroke-opacity:1" d="M 552.806,251.057 543.376,269.916 z" id="boundary" inkscape:connector-curvature="0" />
	<path style="fill:none;stroke:red;stroke-width:1px;stroke-linecap:butt;stroke-linejoin:miter;stroke-opacity:1" d="M 543.376,388.73 530.175,373.643 z" id="boundary" inkscape:connector-curvature="0" />
	<path style="fill:none;stroke:red;stroke-width:1px;stroke-linecap:butt;stroke-linejoin:miter;stroke-opacity:1" d="M 530.175,313.293 543.376,288.776 z" id="boundary" inkscape:connector-curvature="0" />
	<path style="fill:none;stroke:red;stroke-width:1px;stroke-linecap:butt;stroke-linejoin:miter;stroke-opacity:1" d="M 552.806,251.057 571.665,254.829 z" id="boundary" inkscape:connector-curvature="0" />
	<path style="fill:none;stroke:red;stroke-width:1px;stroke-linecap:butt;stroke-linejoin:miter;stroke-opacity:1" d="M 590.525,260.487 607.498,269.916 z" id="boundary" inkscape:connector-curvature="0" />
	<path style="fill:none;stroke:red;stroke-width:1px;stroke-linecap:butt;stroke-linejoin:miter;stroke-opacity:1" d="M 590.525,260.487 571.665,254.829 z" id="boundary" inkscape:connector-curvature="0" />
	<path style="fill:none;stroke:red;stroke-width:1px;stroke-linecap:butt;stroke-linejoin:miter;stroke-opacity:1" d="M 626.357,269.916 607.498,269.916 z" id="boundary" inkscape:connector-curvature="0" />
	<path style="fill:none;stroke:red;stroke-width:1px;stroke-linecap:butt;stroke-linejoin:miter;stroke-opacity:1" d="M 552.806,405.703 543.376,388.73 z" id="boundary" inkscape:connector-curvature="0" />
	<path style="fill:none;stroke:red;stroke-width:1px;stroke-linecap:butt;stroke-linejoin:miter;stroke-opacity:1" d="M 645.217,264.259 626.357,269.916 z" id="boundary" inkscape:connector-curvature="0" />
	<path style="fill:none;stroke:red;stroke-width:1px;stroke-linecap:butt;stroke-linejoin:miter;stroke-opacity:1" d="M 533.947,854.555 533.947,873.414 z" id="boundary" inkscape:connector-curvature="0" />
	<path style="fill:none;stroke:red;stroke-width:1px;stroke-linecap:butt;stroke-linejoin:miter;stroke-opacity:1" d="M 533.947,873.414 520.745,888.502 z" id="boundary" inkscape:connector-curvature="0" />
	<path style="fill:none;stroke:red;stroke-width:1px;stroke-linecap:butt;stroke-linejoin:miter;stroke-opacity:1" d="M 520.745,888.502 505.658,901.703 z" id="boundary" inkscape:connector-curvature="0" />
	<path style="fill:none;stroke:red;stroke-width:1px;stroke-linecap:butt;stroke-linejoin:miter;stroke-opacity:1" d="M 496.228,920.563 505.658,901.703 z" id="boundary" inkscape:connector-curvature="0" />
	<path style="fill:none;stroke:red;stroke-width:1px;stroke-linecap:butt;stroke-linejoin:miter;stroke-opacity:1" d="M 543.376,797.977 543.376,816.837 z" id="boundary" inkscape:connector-curvature="0" />
	<path style="fill:none;stroke:red;stroke-width:1px;stroke-linecap:butt;stroke-linejoin:miter;stroke-opacity:1" d="M 543.376,797.977 543.376,779.118 z" id="boundary" inkscape:connector-curvature="0" />
	<path style="fill:none;stroke:red;stroke-width:1px;stroke-linecap:butt;stroke-linejoin:miter;stroke-opacity:1" d="M 543.376,779.118 552.806,760.259 z" id="boundary" inkscape:connector-curvature="0" />
	<path style="fill:none;stroke:red;stroke-width:1px;stroke-linecap:butt;stroke-linejoin:miter;stroke-opacity:1" d="M 533.947,854.555 543.376,835.696 z" id="boundary" inkscape:connector-curvature="0" />
	<path style="fill:none;stroke:red;stroke-width:1px;stroke-linecap:butt;stroke-linejoin:miter;stroke-opacity:1" d="M 543.376,816.837 543.376,835.696 z" id="boundary" inkscape:connector-curvature="0" />
	<path style="fill:none;stroke:red;stroke-width:1px;stroke-linecap:butt;stroke-linejoin:miter;stroke-opacity:1" d="M 496.228,920.563 483.027,935.65 z" id="boundary" inkscape:connector-curvature="0" />
	<path style="fill:none;stroke:red;stroke-width:1px;stroke-linecap:butt;stroke-linejoin:miter;stroke-opacity:1" d="M 343.468,996 360.441,986.57 z" id="boundary" inkscape:connector-curvature="0" />
	<path style="fill:none;stroke:red;stroke-width:1px;stroke-linecap:butt;stroke-linejoin:miter;stroke-opacity:1" d="M 360.441,986.57 379.3,986.57 z" id="boundary" inkscape:connector-curvature="0" />
	<path style="fill:none;stroke:red;stroke-width:1px;stroke-linecap:butt;stroke-linejoin:miter;stroke-opacity:1" d="M 343.468,996 326.494,986.57 z" id="boundary" inkscape:connector-curvature="0" />
	<path style="fill:none;stroke:red;stroke-width:1px;stroke-linecap:butt;stroke-linejoin:miter;stroke-opacity:1" d="M 398.16,982.798 379.3,986.57 z" id="boundary" inkscape:connector-curvature="0" />
	<path style="fill:none;stroke:red;stroke-width:1px;stroke-linecap:butt;stroke-linejoin:miter;stroke-opacity:1" d="M 483.027,935.65 467.939,948.852 z" id="boundary" inkscape:connector-curvature="0" />
	<path style="fill:none;stroke:red;stroke-width:1px;stroke-linecap:butt;stroke-linejoin:miter;stroke-opacity:1" d="M 467.939,948.852 450.966,958.281 z" id="boundary" inkscape:connector-curvature="0" />
	<path style="fill:none;stroke:red;stroke-width:1px;stroke-linecap:butt;stroke-linejoin:miter;stroke-opacity:1" d="M 417.019,977.141 398.16,982.798 z" id="boundary" inkscape:connector-curvature="0" />
	<path style="fill:none;stroke:red;stroke-width:1px;stroke-linecap:butt;stroke-linejoin:miter;stroke-opacity:1" d="M 433.992,967.711 417.019,977.141 z" id="boundary" inkscape:connector-curvature="0" />
	<path style="fill:none;stroke:red;stroke-width:1px;stroke-linecap:butt;stroke-linejoin:miter;stroke-opacity:1" d="M 450.966,958.281 433.992,967.711 z" id="boundary" inkscape:connector-curvature="0" />
	<path style="fill:none;stroke:red;stroke-width:1px;stroke-linecap:butt;stroke-linejoin:miter;stroke-opacity:1" d="M 562.236,422.677 552.806,405.703 z" id="boundary" inkscape:connector-curvature="0" />
	<path style="fill:none;stroke:red;stroke-width:1px;stroke-linecap:butt;stroke-linejoin:miter;stroke-opacity:1" d="M 571.665,439.65 575.437,458.51 z" id="boundary" inkscape:connector-curvature="0" />
	<path style="fill:none;stroke:red;stroke-width:1px;stroke-linecap:butt;stroke-linejoin:miter;stroke-opacity:1" d="M 562.236,422.677 571.665,439.65 z" id="boundary" inkscape:connector-curvature="0" />
	<path style="fill:none;stroke:red;stroke-width:1px;stroke-linecap:butt;stroke-linejoin:miter;stroke-opacity:1" d="M 575.437,458.51 581.095,477.369 z" id="boundary" inkscape:connector-curvature="0" />
	<path style="fill:none;stroke:red;stroke-width:1px;stroke-linecap:butt;stroke-linejoin:miter;stroke-opacity:1" d="M 581.095,477.369 590.525,494.342 z" id="boundary" inkscape:connector-curvature="0" />
	<path style="fill:none;stroke:red;stroke-width:1px;stroke-linecap:butt;stroke-linejoin:miter;stroke-opacity:1" d="M 590.525,494.342 590.525,513.202 z" id="boundary" inkscape:connector-curvature="0" />
	<path style="fill:none;stroke:red;stroke-width:1px;stroke-linecap:butt;stroke-linejoin:miter;stroke-opacity:1" d="M 590.525,513.202 590.525,532.061 z" id="boundary" inkscape:connector-curvature="0" />
	<path style="fill:none;stroke:red;stroke-width:1px;stroke-linecap:butt;stroke-linejoin:miter;stroke-opacity:1" d="M 590.525,550.92 590.525,532.061 z" id="boundary" inkscape:connector-curvature="0" />
	<path style="fill:none;stroke:red;stroke-width:1px;stroke-linecap:butt;stroke-linejoin:miter;stroke-opacity:1" d="M 581.095,628.243 581.095,647.103 z" id="boundary" inkscape:connector-curvature="0" />
	<path style="fill:none;stroke:red;stroke-width:1px;stroke-linecap:butt;stroke-linejoin:miter;stroke-opacity:1" d="M 571.665,684.821 562.236,713.11 z" id="boundary" inkscape:connector-curvature="0" />
	<path style="fill:none;stroke:red;stroke-width:1px;stroke-linecap:butt;stroke-linejoin:miter;stroke-opacity:1" d="M 552.806,741.399 562.236,713.11 z" id="boundary" inkscape:connector-curvature="0" />
	<path style="fill:none;stroke:red;stroke-width:1px;stroke-linecap:butt;stroke-linejoin:miter;stroke-opacity:1" d="M 552.806,760.259 552.806,741.399 z" id="boundary" inkscape:connector-curvature="0" />
	<path style="fill:none;stroke:red;stroke-width:1px;stroke-linecap:butt;stroke-linejoin:miter;stroke-opacity:1" d="M 571.665,684.821 581.095,665.962 z" id="boundary" inkscape:connector-curvature="0" />
	<path style="fill:none;stroke:red;stroke-width:1px;stroke-linecap:butt;stroke-linejoin:miter;stroke-opacity:1" d="M 590.525,607.498 581.095,628.243 z" id="boundary" inkscape:connector-curvature="0" />
	<path style="fill:none;stroke:red;stroke-width:1px;stroke-linecap:butt;stroke-linejoin:miter;stroke-opacity:1" d="M 590.525,588.639 590.525,607.498 z" id="boundary" inkscape:connector-curvature="0" />
	<path style="fill:none;stroke:red;stroke-width:1px;stroke-linecap:butt;stroke-linejoin:miter;stroke-opacity:1" d="M 590.525,588.639 590.525,569.779 z" id="boundary" inkscape:connector-curvature="0" />
	<path style="fill:none;stroke:red;stroke-width:1px;stroke-linecap:butt;stroke-linejoin:miter;stroke-opacity:1" d="M 581.095,665.962 581.095,647.103 z" id="boundary" inkscape:connector-curvature="0" />
	<path style="fill:none;stroke:red;stroke-width:1px;stroke-linecap:butt;stroke-linejoin:miter;stroke-opacity:1" d="M 590.525,550.92 590.525,569.779 z" id="boundary" inkscape:connector-curvature="0" />
	<circle cx="4" cy="830.038" r="4" fill="#0" id="circle0"/>
	<circle cx="4" cy="858.327" r="4" fill="#0" id="circle1"/>
	<circle cx="4" cy="896.046" r="4" fill="#0" id="circle2"/>
	<circle cx="13.4297" cy="811.179" r="4" fill="#0" id="circle3"/>
	<circle cx="13.4297" cy="875.3" r="4" fill="#0" id="circle4"/>
	<circle cx="22.8593" cy="782.89" r="4" fill="#0" id="circle5"/>
	<circle cx="22.8593" cy="901.703" r="4" fill="#0" id="circle6"/>
	<circle cx="32.289" cy="764.03" r="4" fill="#0" id="circle7"/>
	<circle cx="41.7186" cy="735.741" r="4" fill="#0" id="circle8"/>
	<circle cx="41.7186" cy="901.703" r="4" fill="#0" id="circle9"/>
	<circle cx="51.1483" cy="132.243" r="4" fill="#0" id="circle10"/>
	<circle cx="51.1483" cy="151.103" r="4" fill="#0" id="circle11"/>
	<circle cx="51.1483" cy="358.555" r="4" fill="#0" id="circle12"/>
	<circle cx="51.1483" cy="377.414" r="4" fill="#0" id="circle13"/>
	<circle cx="56.8061" cy="720.654" r="4" fill="#0" id="circle14"/>
	<circle cx="58.692" cy="911.133" r="4" fill="#0" id="circle15"/>
	<circle cx="60.5779" cy="339.696" r="4" fill="#0" id="circle16"/>
	<circle cx="60.5779" cy="394.388" r="4" fill="#0" id="circle17"/>
	<circle cx="60.5779" cy="424.563" r="4" fill="#0" id="circle18"/>
	<circle cx="66.2357" cy="117.156" r="4" fill="#0" id="circle19"/>
	<circle cx="66.2357" cy="701.795" r="4" fill="#0" id="circle20"/>
	<circle cx="70.0076" cy="156.76" r="4" fill="#0" id="circle21"/>
	<circle cx="70.0076" cy="320.837" r="4" fill="#0" id="circle22"/>
	<circle cx="70.0076" cy="528.289" r="4" fill="#0" id="circle23"/>
	<circle cx="70.0076" cy="556.578" r="4" fill="#0" id="circle24"/>
	<circle cx="70.0076" cy="594.297" r="4" fill="#0" id="circle25"/>
	<circle cx="77.5513" cy="911.133" r="4" fill="#0" id="circle26"/>
	<circle cx="79.4373" cy="301.977" r="4" fill="#0" id="circle27"/>
	<circle cx="79.4373" cy="420.791" r="4" fill="#0" id="circle28"/>
	<circle cx="79.4373" cy="481.141" r="4" fill="#0" id="circle29"/>
	<circle cx="79.4373" cy="500" r="4" fill="#0" id="circle30"/>
	<circle cx="79.4373" cy="573.551" r="4" fill="#0" id="circle31"/>
	<circle cx="79.4373" cy="611.27" r="4" fill="#0" id="circle32"/>
	<circle cx="79.4373" cy="630.129" r="4" fill="#0" id="circle33"/>
	<circle cx="79.4373" cy="650.875" r="4" fill="#0" id="circle34"/>
	<circle cx="79.4373" cy="679.163" r="4" fill="#0" id="circle35"/>
	<circle cx="85.0951" cy="107.726" r="4" fill="#0" id="circle36"/>
	<circle cx="88.8669" cy="160.532" r="4" fill="#0" id="circle37"/>
	<circle cx="88.8669" cy="452.852" r="4" fill="#0" id="circle38"/>
	<circle cx="94.5247" cy="286.89" r="4" fill="#0" id="circle39"/>
	<circle cx="96.4106" cy="430.221" r="4" fill="#0" id="circle40"/>
	<circle cx="96.4106" cy="907.361" r="4" fill="#0" id="circle41"/>
	<circle cx="103.954" cy="98.2966" r="4" fill="#0" id="circle42"/>
	<circle cx="107.726" cy="166.19" r="4" fill="#0" id="circle43"/>
	<circle cx="107.726" cy="207.681" r="4" fill="#0" id="circle44"/>
	<circle cx="107.726" cy="264.259" r="4" fill="#0" id="circle45"/>
	<circle cx="115.27" cy="897.932" r="4" fill="#0" id="circle46"/>
	<circle cx="117.156" cy="183.163" r="4" fill="#0" id="circle47"/>
	<circle cx="117.156" cy="224.654" r="4" fill="#0" id="circle48"/>
	<circle cx="117.156" cy="243.513" r="4" fill="#0" id="circle49"/>
	<circle cx="122.814" cy="98.2966" r="4" fill="#0" id="circle50"/>
	<circle cx="126.586" cy="166.19" r="4" fill="#0" id="circle51"/>
	<circle cx="128.471" cy="882.844" r="4" fill="#0" id="circle52"/>
	<circle cx="141.673" cy="88.8669" r="4" fill="#0" id="circle53"/>
	<circle cx="145.445" cy="892.274" r="4" fill="#0" id="circle54"/>
	<circle cx="156.76" cy="907.361" r="4" fill="#0" id="circle55"/>
	<circle cx="160.532" cy="88.8669" r="4" fill="#0" id="circle56"/>
	<circle cx="171.848" cy="920.563" r="4" fill="#0" id="circle57"/>
	<circle cx="177.506" cy="79.4373" r="4" fill="#0" id="circle58"/>
	<circle cx="185.049" cy="935.65" r="4" fill="#0" id="circle59"/>
	<circle cx="192.593" cy="66.2357" r="4" fill="#0" id="circle60"/>
	<circle cx="200.137" cy="948.852" r="4" fill="#0" id="circle61"/>
	<circle cx="207.681" cy="51.1483" r="4" fill="#0" id="circle62"/>
	<circle cx="217.11" cy="958.281" r="4" fill="#0" id="circle63"/>
	<circle cx="224.654" cy="41.7186" r="4" fill="#0" id="circle64"/>
	<circle cx="234.084" cy="967.711" r="4" fill="#0" id="circle65"/>
	<circle cx="241.627" cy="32.289" r="4" fill="#0" id="circle66"/>
	<circle cx="251.057" cy="977.141" r="4" fill="#0" id="circle67"/>
	<circle cx="258.601" cy="22.8593" r="4" fill="#0" id="circle68"/>
	<circle cx="269.916" cy="980.913" r="4" fill="#0" id="circle69"/>
	<circle cx="277.46" cy="19.0875" r="4" fill="#0" id="circle70"/>
	<circle cx="288.776" cy="986.57" r="4" fill="#0" id="circle71"/>
	<circle cx="296.319" cy="13.4297" r="4" fill="#0" id="circle72"/>
	<circle cx="307.635" cy="990.342" r="4" fill="#0" id="circle73"/>
	<circle cx="315.179" cy="9.65779" r="4" fill="#0" id="circle74"/>
	<circle cx="326.494" cy="986.57" r="4" fill="#0" id="circle75"/>
	<circle cx="334.038" cy="4" r="4" fill="#0" id="circle76"/>
	<circle cx="343.468" cy="996" r="4" fill="#0" id="circle77"/>
	<circle cx="352.897" cy="4" r="4" fill="#0" id="circle78"/>
	<circle cx="360.441" cy="986.57" r="4" fill="#0" id="circle79"/>
	<circle cx="369.871" cy="13.4297" r="4" fill="#0" id="circle80"/>
	<circle cx="379.3" cy="986.57" r="4" fill="#0" id="circle81"/>
	<circle cx="388.73" cy="13.4297" r="4" fill="#0" id="circle82"/>
	<circle cx="398.16" cy="982.798" r="4" fill="#0" id="circle83"/>
	<circle cx="405.703" cy="22.8593" r="4" fill="#0" id="circle84"/>
	<circle cx="417.019" cy="977.141" r="4" fill="#0" id="circle85"/>
	<circle cx="422.677" cy="32.289" r="4" fill="#0" id="circle86"/>
	<circle cx="433.992" cy="967.711" r="4" fill="#0" id="circle87"/>
	<circle cx="439.65" cy="41.7186" r="4" fill="#0" id="circle88"/>
	<circle cx="450.966" cy="958.281" r="4" fill="#0" id="circle89"/>
	<circle cx="456.624" cy="51.1483" r="4" fill="#0" id="circle90"/>
	<circle cx="467.939" cy="948.852" r="4" fill="#0" id="circle91"/>
	<circle cx="471.711" cy="62.4639" r="4" fill="#0" id="circle92"/>
	<circle cx="483.027" cy="935.65" r="4" fill="#0" id="circle93"/>
	<circle cx="486.798" cy="75.6654" r="4" fill="#0" id="circle94"/>
	<circle cx="496.228" cy="920.563" r="4" fill="#0" id="circle95"/>
	<circle cx="500" cy="90.7529" r="4" fill="#0" id="circle96"/>
	<circle cx="505.658" cy="345.354" r="4" fill="#0" id="circle97"/>
	<circle cx="505.658" cy="901.703" r="4" fill="#0" id="circle98"/>
	<circle cx="515.087" cy="103.954" r="4" fill="#0" id="circle99"/>
	<circle cx="515.087" cy="362.327" r="4" fill="#0" id="circle100"/>
	<circle cx="520.745" cy="332.152" r="4" fill="#0" id="circle101"/>
	<circle cx="520.745" cy="888.502" r="4" fill="#0" id="circle102"/>
	<circle cx="524.517" cy="120.928" r="4" fill="#0" id="circle103"/>
	<circle cx="530.175" cy="313.293" r="4" fill="#0" id="circle104"/>
	<circle cx="530.175" cy="373.643" r="4" fill="#0" id="circle105"/>
	<circle cx="533.947" cy="137.901" r="4" fill="#0" id="circle106"/>
	<circle cx="533.947" cy="854.555" r="4" fill="#0" id="circle107"/>
	<circle cx="533.947" cy="873.414" r="4" fill="#0" id="circle108"/>
	<circle cx="543.376" cy="154.875" r="4" fill="#0" id="circle109"/>
	<circle cx="543.376" cy="269.916" r="4" fill="#0" id="circle110"/>
	<circle cx="543.376" cy="288.776" r="4" fill="#0" id="circle111"/>
	<circle cx="543.376" cy="388.73" r="4" fill="#0" id="circle112"/>
	<circle cx="543.376" cy="779.118" r="4" fill="#0" id="circle113"/>
	<circle cx="543.376" cy="797.977" r="4" fill="#0" id="circle114"/>
	<circle cx="543.376" cy="816.837" r="4" fill="#0" id="circle115"/>
	<circle cx="543.376" cy="835.696" r="4" fill="#0" id="circle116"/>
	<circle cx="552.806" cy="171.848" r="4" fill="#0" id="circle117"/>
	<circle cx="552.806" cy="251.057" r="4" fill="#0" id="circle118"/>
	<circle cx="552.806" cy="405.703" r="4" fill="#0" id="circle119"/>
	<circle cx="552.806" cy="741.399" r="4" fill="#0" id="circle120"/>
	<circle cx="552.806" cy="760.259" r="4" fill="#0" id="circle121"/>
	<circle cx="562.236" cy="422.677" r="4" fill="#0" id="circle122"/>
	<circle cx="562.236" cy="713.11" r="4" fill="#0" id="circle123"/>
	<circle cx="571.665" cy="179.392" r="4" fill="#0" id="circle124"/>
	<circle cx="571.665" cy="254.829" r="4" fill="#0" id="circle125"/>
	<circle cx="571.665" cy="439.65" r="4" fill="#0" id="circle126"/>
	<circle cx="571.665" cy="684.821" r="4" fill="#0" id="circle127"/>
	<circle cx="575.437" cy="458.51" r="4" fill="#0" id="circle128"/>
	<circle cx="581.095" cy="477.369" r="4" fill="#0" id="circle129"/>
	<circle cx="581.095" cy="628.243" r="4" fill="#0" id="circle130"/>
	<circle cx="581.095" cy="647.103" r="4" fill="#0" id="circle131"/>
	<circle cx="581.095" cy="665.962" r="4" fill="#0" id="circle132"/>
	<circle cx="588.639" cy="188.821" r="4" fill="#0" id="circle133"/>
	<circle cx="590.525" cy="260.487" r="4" fill="#0" id="circle134"/>
	<circle cx="590.525" cy="494.342" r="4" fill="#0" id="circle135"/>
	<circle cx="590.525" cy="513.202" r="4" fill="#0" id="circle136"/>
	<circle cx="590.525" cy="532.061" r="4" fill="#0" id="circle137"/>
	<circle cx="590.525" cy="550.92" r="4" fill="#0" id="circle138"/>
	<circle cx="590.525" cy="569.779" r="4" fill="#0" id="circle139"/>
	<circle cx="590.525" cy="588.639" r="4" fill="#0" id="circle140"/>
	<circle cx="590.525" cy="607.498" r="4" fill="#0" id="circle141"/>
	<circle cx="607.498" cy="196.365" r="4" fill="#0" id="circle142"/>
	<circle cx="607.498" cy="269.916" r="4" fill="#0" id="circle143"/>
	<circle cx="618.814" cy="211.452" r="4" fill="#0" id="circle144"/>
	<circle cx="626.357" cy="269.916" r="4" fill="#0" id="circle145"/>
	<circle cx="635.787" cy="220.882" r="4" fill="#0" id="circle146"/>
	<circle cx="645.217" cy="264.259" r="4" fill="#0" id="circle147"/>
	<circle cx="650.875" cy="232.198" r="4" fill="#0" id="circle148"/>
	</g>
</svg>