<?xml version="1.0" encoding="UTF-8" standalone="no"?>
<!-- Created with CurveBenchmark -->
<svg
	xmlns:dc="http://purl.org/dc/elements/1.1/"
	xmlns:cc="http://creativecommons.org/ns#"
	xmlns:rdf="http://www.w3.org/1999/02/22-rdf-syntax-ns#"
	xmlns:svg="http://www.w3.org/2000/svg"
	xmlns="http://www.w3.org/2000/svg"
	xmlns:sodipodi="http://sodipodi.sourceforge.net/DTD/sodipodi-0.dtd"
	xmlns:inkscape="http://www.inkscape.org/namespaces/inkscape"
	width="1000"
	height="1000"
	id="svg2"
	version="1.1"
	sodipodi:docname="manifold/nncrust-carriage04.png.txt">
<defs
	id="defs4" />
<metadata
	id="metadata7">
	<rdf:RDF>
		<cc:Work
			rdf:about="">
			<dc:format>image/svg+xml</dc:format>
			<dc:type
				rdf:resource="http://purl.org/dc/dcmitype/StillImage" />
			<dc:title></dc:title>
		</cc:Work>
	</rdf:RDF>
</metadata>
<g
	inkscape:label="Layer 1"
	inkscape:groupmode="layer"
	id="layer1">
	<path style="fill:none;stroke:red;stroke-width:1px;stroke-linecap:butt;stroke-linejoin:miter;stroke-opacity:1" d="M 67.2483,105.53 37.2886,50.604 z" id="boundary" inkscape:connector-curvature="0" />
	<path style="fill:none;stroke:red;stroke-width:1px;stroke-linecap:butt;stroke-linejoin:miter;stroke-opacity:1" d="M 37.2886,50.604 53.9329,42.2819 z" id="boundary" inkscape:connector-curvature="0" />
	<path style="fill:none;stroke:red;stroke-width:1px;stroke-linecap:butt;stroke-linejoin:miter;stroke-opacity:1" d="M 87.2215,37.2886 70.5772,37.2886 z" id="boundary" inkscape:connector-curvature="0" />
	<path style="fill:none;stroke:red;stroke-width:1px;stroke-linecap:butt;stroke-linejoin:miter;stroke-opacity:1" d="M 53.9329,42.2819 70.5772,37.2886 z" id="boundary" inkscape:connector-curvature="0" />
	<path style="fill:none;stroke:red;stroke-width:1px;stroke-linecap:butt;stroke-linejoin:miter;stroke-opacity:1" d="M 37.2886,50.604 25.6376,78.8993 z" id="boundary" inkscape:connector-curvature="0" />
	<path style="fill:none;stroke:red;stroke-width:1px;stroke-linecap:butt;stroke-linejoin:miter;stroke-opacity:1" d="M 25.6376,78.8993 17.3154,95.5436 z" id="boundary" inkscape:connector-curvature="0" />
	<path style="fill:none;stroke:red;stroke-width:1px;stroke-linecap:butt;stroke-linejoin:miter;stroke-opacity:1" d="M 17.3154,95.5436 4,108.859 z" id="boundary" inkscape:connector-curvature="0" />
	<path style="fill:none;stroke:red;stroke-width:1px;stroke-linecap:butt;stroke-linejoin:miter;stroke-opacity:1" d="M 103.866,37.2886 120.51,40.6174 z" id="boundary" inkscape:connector-curvature="0" />
	<path style="fill:none;stroke:red;stroke-width:1px;stroke-linecap:butt;stroke-linejoin:miter;stroke-opacity:1" d="M 135.49,48.9396 120.51,40.6174 z" id="boundary" inkscape:connector-curvature="0" />
	<path style="fill:none;stroke:red;stroke-width:1px;stroke-linecap:butt;stroke-linejoin:miter;stroke-opacity:1" d="M 152.134,55.5973 135.49,48.9396 z" id="boundary" inkscape:connector-curvature="0" />
	<path style="fill:none;stroke:red;stroke-width:1px;stroke-linecap:butt;stroke-linejoin:miter;stroke-opacity:1" d="M 177.101,80.5638 163.785,68.9128 z" id="boundary" inkscape:connector-curvature="0" />
	<path style="fill:none;stroke:red;stroke-width:1px;stroke-linecap:butt;stroke-linejoin:miter;stroke-opacity:1" d="M 163.785,68.9128 152.134,55.5973 z" id="boundary" inkscape:connector-curvature="0" />
	<path style="fill:none;stroke:red;stroke-width:1px;stroke-linecap:butt;stroke-linejoin:miter;stroke-opacity:1" d="M 87.2215,37.2886 103.866,37.2886 z" id="boundary" inkscape:connector-curvature="0" />
	<path style="fill:none;stroke:red;stroke-width:1px;stroke-linecap:butt;stroke-linejoin:miter;stroke-opacity:1" d="M 53.9329,117.181 37.2886,125.503 z" id="boundary" inkscape:connector-curvature="0" />
	<path style="fill:none;stroke:red;stroke-width:1px;stroke-linecap:butt;stroke-linejoin:miter;stroke-opacity:1" d="M 67.2483,105.53 53.9329,117.181 z" id="boundary" inkscape:connector-curvature="0" />
	<path style="fill:none;stroke:red;stroke-width:1px;stroke-linecap:butt;stroke-linejoin:miter;stroke-opacity:1" d="M 67.2483,105.53 78.8993,118.846 z" id="boundary" inkscape:connector-curvature="0" />
	<path style="fill:none;stroke:red;stroke-width:1px;stroke-linecap:butt;stroke-linejoin:miter;stroke-opacity:1" d="M 37.2886,125.503 20.6443,130.497 z" id="boundary" inkscape:connector-curvature="0" />
	<path style="fill:none;stroke:red;stroke-width:1px;stroke-linecap:butt;stroke-linejoin:miter;stroke-opacity:1" d="M 20.6443,130.497 4,125.503 z" id="boundary" inkscape:connector-curvature="0" />
	<path style="fill:none;stroke:red;stroke-width:1px;stroke-linecap:butt;stroke-linejoin:miter;stroke-opacity:1" d="M 4,125.503 4,108.859 z" id="boundary" inkscape:connector-curvature="0" />
	<path style="fill:none;stroke:red;stroke-width:1px;stroke-linecap:butt;stroke-linejoin:miter;stroke-opacity:1" d="M 88.8859,150.47 80.5638,135.49 z" id="boundary" inkscape:connector-curvature="0" />
	<path style="fill:none;stroke:red;stroke-width:1px;stroke-linecap:butt;stroke-linejoin:miter;stroke-opacity:1" d="M 80.5638,135.49 78.8993,118.846 z" id="boundary" inkscape:connector-curvature="0" />
	<path style="fill:none;stroke:red;stroke-width:1px;stroke-linecap:butt;stroke-linejoin:miter;stroke-opacity:1" d="M 100.537,163.785 108.859,178.765 z" id="boundary" inkscape:connector-curvature="0" />
	<path style="fill:none;stroke:red;stroke-width:1px;stroke-linecap:butt;stroke-linejoin:miter;stroke-opacity:1" d="M 100.537,163.785 88.8859,150.47 z" id="boundary" inkscape:connector-curvature="0" />
	<path style="fill:none;stroke:red;stroke-width:1px;stroke-linecap:butt;stroke-linejoin:miter;stroke-opacity:1" d="M 108.859,178.765 112.188,195.409 z" id="boundary" inkscape:connector-curvature="0" />
	<path style="fill:none;stroke:red;stroke-width:1px;stroke-linecap:butt;stroke-linejoin:miter;stroke-opacity:1" d="M 112.188,212.054 112.188,195.409 z" id="boundary" inkscape:connector-curvature="0" />
	<path style="fill:none;stroke:red;stroke-width:1px;stroke-linecap:butt;stroke-linejoin:miter;stroke-opacity:1" d="M 112.188,212.054 100.537,228.698 z" id="boundary" inkscape:connector-curvature="0" />
	<path style="fill:none;stroke:red;stroke-width:1px;stroke-linecap:butt;stroke-linejoin:miter;stroke-opacity:1" d="M 177.101,80.5638 188.752,93.8792 z" id="boundary" inkscape:connector-curvature="0" />
	<path style="fill:none;stroke:red;stroke-width:1px;stroke-linecap:butt;stroke-linejoin:miter;stroke-opacity:1" d="M 235.356,112.188 218.711,112.188 z" id="boundary" inkscape:connector-curvature="0" />
	<path style="fill:none;stroke:red;stroke-width:1px;stroke-linecap:butt;stroke-linejoin:miter;stroke-opacity:1" d="M 218.711,112.188 202.067,105.53 z" id="boundary" inkscape:connector-curvature="0" />
	<path style="fill:none;stroke:red;stroke-width:1px;stroke-linecap:butt;stroke-linejoin:miter;stroke-opacity:1" d="M 202.067,105.53 188.752,93.8792 z" id="boundary" inkscape:connector-curvature="0" />
	<path style="fill:none;stroke:red;stroke-width:1px;stroke-linecap:butt;stroke-linejoin:miter;stroke-opacity:1" d="M 235.356,112.188 252,112.188 z" id="boundary" inkscape:connector-curvature="0" />
	<path style="fill:none;stroke:red;stroke-width:1px;stroke-linecap:butt;stroke-linejoin:miter;stroke-opacity:1" d="M 252,112.188 268.644,112.188 z" id="boundary" inkscape:connector-curvature="0" />
	<path style="fill:none;stroke:red;stroke-width:1px;stroke-linecap:butt;stroke-linejoin:miter;stroke-opacity:1" d="M 285.289,112.188 268.644,112.188 z" id="boundary" inkscape:connector-curvature="0" />
	<path style="fill:none;stroke:red;stroke-width:1px;stroke-linecap:butt;stroke-linejoin:miter;stroke-opacity:1" d="M 318.577,112.188 301.933,112.188 z" id="boundary" inkscape:connector-curvature="0" />
	<path style="fill:none;stroke:red;stroke-width:1px;stroke-linecap:butt;stroke-linejoin:miter;stroke-opacity:1" d="M 351.866,112.188 335.221,112.188 z" id="boundary" inkscape:connector-curvature="0" />
	<path style="fill:none;stroke:red;stroke-width:1px;stroke-linecap:butt;stroke-linejoin:miter;stroke-opacity:1" d="M 301.933,112.188 285.289,112.188 z" id="boundary" inkscape:connector-curvature="0" />
	<path style="fill:none;stroke:red;stroke-width:1px;stroke-linecap:butt;stroke-linejoin:miter;stroke-opacity:1" d="M 335.221,112.188 318.577,112.188 z" id="boundary" inkscape:connector-curvature="0" />
	<path style="fill:none;stroke:red;stroke-width:1px;stroke-linecap:butt;stroke-linejoin:miter;stroke-opacity:1" d="M 470.04,92.2148 461.718,108.859 z" id="boundary" inkscape:connector-curvature="0" />
	<path style="fill:none;stroke:red;stroke-width:1px;stroke-linecap:butt;stroke-linejoin:miter;stroke-opacity:1" d="M 268.644,222.04 252,222.04 z" id="boundary" inkscape:connector-curvature="0" />
	<path style="fill:none;stroke:red;stroke-width:1px;stroke-linecap:butt;stroke-linejoin:miter;stroke-opacity:1" d="M 351.866,112.188 366.846,120.51 z" id="boundary" inkscape:connector-curvature="0" />
	<path style="fill:none;stroke:red;stroke-width:1px;stroke-linecap:butt;stroke-linejoin:miter;stroke-opacity:1" d="M 375.168,163.785 371.839,147.141 z" id="boundary" inkscape:connector-curvature="0" />
	<path style="fill:none;stroke:red;stroke-width:1px;stroke-linecap:butt;stroke-linejoin:miter;stroke-opacity:1" d="M 388.483,175.436 375.168,163.785 z" id="boundary" inkscape:connector-curvature="0" />
	<path style="fill:none;stroke:red;stroke-width:1px;stroke-linecap:butt;stroke-linejoin:miter;stroke-opacity:1" d="M 252,222.04 235.356,222.04 z" id="boundary" inkscape:connector-curvature="0" />
	<path style="fill:none;stroke:red;stroke-width:1px;stroke-linecap:butt;stroke-linejoin:miter;stroke-opacity:1" d="M 218.711,227.034 235.356,222.04 z" id="boundary" inkscape:connector-curvature="0" />
	<path style="fill:none;stroke:red;stroke-width:1px;stroke-linecap:butt;stroke-linejoin:miter;stroke-opacity:1" d="M 366.846,120.51 380.161,130.497 z" id="boundary" inkscape:connector-curvature="0" />
	<path style="fill:none;stroke:red;stroke-width:1px;stroke-linecap:butt;stroke-linejoin:miter;stroke-opacity:1" d="M 380.161,130.497 371.839,147.141 z" id="boundary" inkscape:connector-curvature="0" />
	<path style="fill:none;stroke:red;stroke-width:1px;stroke-linecap:butt;stroke-linejoin:miter;stroke-opacity:1" d="M 396.805,190.416 405.128,205.396 z" id="boundary" inkscape:connector-curvature="0" />
	<path style="fill:none;stroke:red;stroke-width:1px;stroke-linecap:butt;stroke-linejoin:miter;stroke-opacity:1" d="M 421.772,212.054 405.128,205.396 z" id="boundary" inkscape:connector-curvature="0" />
	<path style="fill:none;stroke:red;stroke-width:1px;stroke-linecap:butt;stroke-linejoin:miter;stroke-opacity:1" d="M 438.416,212.054 453.396,200.403 z" id="boundary" inkscape:connector-curvature="0" />
	<path style="fill:none;stroke:red;stroke-width:1px;stroke-linecap:butt;stroke-linejoin:miter;stroke-opacity:1" d="M 438.416,212.054 421.772,212.054 z" id="boundary" inkscape:connector-curvature="0" />
	<path style="fill:none;stroke:red;stroke-width:1px;stroke-linecap:butt;stroke-linejoin:miter;stroke-opacity:1" d="M 396.805,190.416 388.483,175.436 z" id="boundary" inkscape:connector-curvature="0" />
	<path style="fill:none;stroke:red;stroke-width:1px;stroke-linecap:butt;stroke-linejoin:miter;stroke-opacity:1" d="M 453.396,200.403 470.04,190.416 z" id="boundary" inkscape:connector-curvature="0" />
	<path style="fill:none;stroke:red;stroke-width:1px;stroke-linecap:butt;stroke-linejoin:miter;stroke-opacity:1" d="M 87.2215,242.013 100.537,228.698 z" id="boundary" inkscape:connector-curvature="0" />
	<path style="fill:none;stroke:red;stroke-width:1px;stroke-linecap:butt;stroke-linejoin:miter;stroke-opacity:1" d="M 172.107,247.007 172.107,263.651 z" id="boundary" inkscape:connector-curvature="0" />
	<path style="fill:none;stroke:red;stroke-width:1px;stroke-linecap:butt;stroke-linejoin:miter;stroke-opacity:1" d="M 78.8993,266.98 87.2215,242.013 z" id="boundary" inkscape:connector-curvature="0" />
	<path style="fill:none;stroke:red;stroke-width:1px;stroke-linecap:butt;stroke-linejoin:miter;stroke-opacity:1" d="M 172.107,288.617 172.107,263.651 z" id="boundary" inkscape:connector-curvature="0" />
	<path style="fill:none;stroke:red;stroke-width:1px;stroke-linecap:butt;stroke-linejoin:miter;stroke-opacity:1" d="M 172.107,247.007 187.087,238.685 z" id="boundary" inkscape:connector-curvature="0" />
	<path style="fill:none;stroke:red;stroke-width:1px;stroke-linecap:butt;stroke-linejoin:miter;stroke-opacity:1" d="M 285.289,222.04 268.644,222.04 z" id="boundary" inkscape:connector-curvature="0" />
	<path style="fill:none;stroke:red;stroke-width:1px;stroke-linecap:butt;stroke-linejoin:miter;stroke-opacity:1" d="M 301.933,222.04 285.289,222.04 z" id="boundary" inkscape:connector-curvature="0" />
	<path style="fill:none;stroke:red;stroke-width:1px;stroke-linecap:butt;stroke-linejoin:miter;stroke-opacity:1" d="M 202.067,230.362 218.711,227.034 z" id="boundary" inkscape:connector-curvature="0" />
	<path style="fill:none;stroke:red;stroke-width:1px;stroke-linecap:butt;stroke-linejoin:miter;stroke-opacity:1" d="M 202.067,230.362 187.087,238.685 z" id="boundary" inkscape:connector-curvature="0" />
	<path style="fill:none;stroke:red;stroke-width:1px;stroke-linecap:butt;stroke-linejoin:miter;stroke-opacity:1" d="M 103.866,313.584 87.2215,306.926 z" id="boundary" inkscape:connector-curvature="0" />
	<path style="fill:none;stroke:red;stroke-width:1px;stroke-linecap:butt;stroke-linejoin:miter;stroke-opacity:1" d="M 87.2215,306.926 78.8993,291.946 z" id="boundary" inkscape:connector-curvature="0" />
	<path style="fill:none;stroke:red;stroke-width:1px;stroke-linecap:butt;stroke-linejoin:miter;stroke-opacity:1" d="M 78.8993,291.946 78.8993,266.98 z" id="boundary" inkscape:connector-curvature="0" />
	<path style="fill:none;stroke:red;stroke-width:1px;stroke-linecap:butt;stroke-linejoin:miter;stroke-opacity:1" d="M 103.866,313.584 113.852,326.899 z" id="boundary" inkscape:connector-curvature="0" />
	<path style="fill:none;stroke:red;stroke-width:1px;stroke-linecap:butt;stroke-linejoin:miter;stroke-opacity:1" d="M 120.51,343.544 122.174,360.188 z" id="boundary" inkscape:connector-curvature="0" />
	<path style="fill:none;stroke:red;stroke-width:1px;stroke-linecap:butt;stroke-linejoin:miter;stroke-opacity:1" d="M 120.51,343.544 113.852,326.899 z" id="boundary" inkscape:connector-curvature="0" />
	<path style="fill:none;stroke:red;stroke-width:1px;stroke-linecap:butt;stroke-linejoin:miter;stroke-opacity:1" d="M 138.819,363.517 122.174,360.188 z" id="boundary" inkscape:connector-curvature="0" />
	<path style="fill:none;stroke:red;stroke-width:1px;stroke-linecap:butt;stroke-linejoin:miter;stroke-opacity:1" d="M 183.758,320.242 175.436,305.262 z" id="boundary" inkscape:connector-curvature="0" />
	<path style="fill:none;stroke:red;stroke-width:1px;stroke-linecap:butt;stroke-linejoin:miter;stroke-opacity:1" d="M 175.436,305.262 172.107,288.617 z" id="boundary" inkscape:connector-curvature="0" />
	<path style="fill:none;stroke:red;stroke-width:1px;stroke-linecap:butt;stroke-linejoin:miter;stroke-opacity:1" d="M 188.752,336.886 183.758,320.242 z" id="boundary" inkscape:connector-curvature="0" />
	<path style="fill:none;stroke:red;stroke-width:1px;stroke-linecap:butt;stroke-linejoin:miter;stroke-opacity:1" d="M 188.752,336.886 183.758,353.53 z" id="boundary" inkscape:connector-curvature="0" />
	<path style="fill:none;stroke:red;stroke-width:1px;stroke-linecap:butt;stroke-linejoin:miter;stroke-opacity:1" d="M 138.819,363.517 153.799,371.839 z" id="boundary" inkscape:connector-curvature="0" />
	<path style="fill:none;stroke:red;stroke-width:1px;stroke-linecap:butt;stroke-linejoin:miter;stroke-opacity:1" d="M 170.443,366.846 153.799,371.839 z" id="boundary" inkscape:connector-curvature="0" />
	<path style="fill:none;stroke:red;stroke-width:1px;stroke-linecap:butt;stroke-linejoin:miter;stroke-opacity:1" d="M 170.443,366.846 183.758,353.53 z" id="boundary" inkscape:connector-curvature="0" />
	<path style="fill:none;stroke:red;stroke-width:1px;stroke-linecap:butt;stroke-linejoin:miter;stroke-opacity:1" d="M 328.564,235.356 328.564,252 z" id="boundary" inkscape:connector-curvature="0" />
	<path style="fill:none;stroke:red;stroke-width:1px;stroke-linecap:butt;stroke-linejoin:miter;stroke-opacity:1" d="M 328.564,235.356 318.577,222.04 z" id="boundary" inkscape:connector-curvature="0" />
	<path style="fill:none;stroke:red;stroke-width:1px;stroke-linecap:butt;stroke-linejoin:miter;stroke-opacity:1" d="M 371.839,255.329 328.564,252 z" id="boundary" inkscape:connector-curvature="0" />
	<path style="fill:none;stroke:red;stroke-width:1px;stroke-linecap:butt;stroke-linejoin:miter;stroke-opacity:1" d="M 328.564,252 328.564,268.644 z" id="boundary" inkscape:connector-curvature="0" />
	<path style="fill:none;stroke:red;stroke-width:1px;stroke-linecap:butt;stroke-linejoin:miter;stroke-opacity:1" d="M 328.564,285.289 328.564,268.644 z" id="boundary" inkscape:connector-curvature="0" />
	<path style="fill:none;stroke:red;stroke-width:1px;stroke-linecap:butt;stroke-linejoin:miter;stroke-opacity:1" d="M 371.839,255.329 371.839,271.973 z" id="boundary" inkscape:connector-curvature="0" />
	<path style="fill:none;stroke:red;stroke-width:1px;stroke-linecap:butt;stroke-linejoin:miter;stroke-opacity:1" d="M 328.564,285.289 320.242,300.268 z" id="boundary" inkscape:connector-curvature="0" />
	<path style="fill:none;stroke:red;stroke-width:1px;stroke-linecap:butt;stroke-linejoin:miter;stroke-opacity:1" d="M 388.483,255.329 405.128,255.329 z" id="boundary" inkscape:connector-curvature="0" />
	<path style="fill:none;stroke:red;stroke-width:1px;stroke-linecap:butt;stroke-linejoin:miter;stroke-opacity:1" d="M 388.483,255.329 371.839,255.329 z" id="boundary" inkscape:connector-curvature="0" />
	<path style="fill:none;stroke:red;stroke-width:1px;stroke-linecap:butt;stroke-linejoin:miter;stroke-opacity:1" d="M 420.107,263.651 405.128,255.329 z" id="boundary" inkscape:connector-curvature="0" />
	<path style="fill:none;stroke:red;stroke-width:1px;stroke-linecap:butt;stroke-linejoin:miter;stroke-opacity:1" d="M 371.839,288.617 371.839,271.973 z" id="boundary" inkscape:connector-curvature="0" />
	<path style="fill:none;stroke:red;stroke-width:1px;stroke-linecap:butt;stroke-linejoin:miter;stroke-opacity:1" d="M 420.107,263.651 428.43,278.631 z" id="boundary" inkscape:connector-curvature="0" />
	<path style="fill:none;stroke:red;stroke-width:1px;stroke-linecap:butt;stroke-linejoin:miter;stroke-opacity:1" d="M 428.43,278.631 428.43,295.275 z" id="boundary" inkscape:connector-curvature="0" />
	<path style="fill:none;stroke:red;stroke-width:1px;stroke-linecap:butt;stroke-linejoin:miter;stroke-opacity:1" d="M 371.839,288.617 363.517,313.584 z" id="boundary" inkscape:connector-curvature="0" />
	<path style="fill:none;stroke:red;stroke-width:1px;stroke-linecap:butt;stroke-linejoin:miter;stroke-opacity:1" d="M 320.242,300.268 320.242,316.913 z" id="boundary" inkscape:connector-curvature="0" />
	<path style="fill:none;stroke:red;stroke-width:1px;stroke-linecap:butt;stroke-linejoin:miter;stroke-opacity:1" d="M 320.242,333.557 320.242,316.913 z" id="boundary" inkscape:connector-curvature="0" />
	<path style="fill:none;stroke:red;stroke-width:1px;stroke-linecap:butt;stroke-linejoin:miter;stroke-opacity:1" d="M 361.852,333.557 353.53,350.201 z" id="boundary" inkscape:connector-curvature="0" />
	<path style="fill:none;stroke:red;stroke-width:1px;stroke-linecap:butt;stroke-linejoin:miter;stroke-opacity:1" d="M 336.886,355.195 320.242,350.201 z" id="boundary" inkscape:connector-curvature="0" />
	<path style="fill:none;stroke:red;stroke-width:1px;stroke-linecap:butt;stroke-linejoin:miter;stroke-opacity:1" d="M 320.242,350.201 320.242,333.557 z" id="boundary" inkscape:connector-curvature="0" />
	<path style="fill:none;stroke:red;stroke-width:1px;stroke-linecap:butt;stroke-linejoin:miter;stroke-opacity:1" d="M 353.53,350.201 336.886,355.195 z" id="boundary" inkscape:connector-curvature="0" />
	<path style="fill:none;stroke:red;stroke-width:1px;stroke-linecap:butt;stroke-linejoin:miter;stroke-opacity:1" d="M 431.758,311.919 428.43,295.275 z" id="boundary" inkscape:connector-curvature="0" />
	<path style="fill:none;stroke:red;stroke-width:1px;stroke-linecap:butt;stroke-linejoin:miter;stroke-opacity:1" d="M 361.852,333.557 363.517,313.584 z" id="boundary" inkscape:connector-curvature="0" />
	<path style="fill:none;stroke:red;stroke-width:1px;stroke-linecap:butt;stroke-linejoin:miter;stroke-opacity:1" d="M 436.752,328.564 445.074,343.544 z" id="boundary" inkscape:connector-curvature="0" />
	<path style="fill:none;stroke:red;stroke-width:1px;stroke-linecap:butt;stroke-linejoin:miter;stroke-opacity:1" d="M 431.758,311.919 436.752,328.564 z" id="boundary" inkscape:connector-curvature="0" />
	<path style="fill:none;stroke:red;stroke-width:1px;stroke-linecap:butt;stroke-linejoin:miter;stroke-opacity:1" d="M 445.074,343.544 453.396,358.523 z" id="boundary" inkscape:connector-curvature="0" />
	<path style="fill:none;stroke:red;stroke-width:1px;stroke-linecap:butt;stroke-linejoin:miter;stroke-opacity:1" d="M 470.04,355.195 453.396,358.523 z" id="boundary" inkscape:connector-curvature="0" />
	<path style="fill:none;stroke:red;stroke-width:1px;stroke-linecap:butt;stroke-linejoin:miter;stroke-opacity:1" d="M 301.933,222.04 318.577,222.04 z" id="boundary" inkscape:connector-curvature="0" />
	<path style="fill:none;stroke:red;stroke-width:1px;stroke-linecap:butt;stroke-linejoin:miter;stroke-opacity:1" d="M 470.04,123.839 461.718,108.859 z" id="boundary" inkscape:connector-curvature="0" />
	<path style="fill:none;stroke:red;stroke-width:1px;stroke-linecap:butt;stroke-linejoin:miter;stroke-opacity:1" d="M 536.617,17.3154 536.617,33.9597 z" id="boundary" inkscape:connector-curvature="0" />
	<path style="fill:none;stroke:red;stroke-width:1px;stroke-linecap:butt;stroke-linejoin:miter;stroke-opacity:1" d="M 536.617,50.604 536.617,33.9597 z" id="boundary" inkscape:connector-curvature="0" />
	<path style="fill:none;stroke:red;stroke-width:1px;stroke-linecap:butt;stroke-linejoin:miter;stroke-opacity:1" d="M 519.973,78.8993 503.329,78.8993 z" id="boundary" inkscape:connector-curvature="0" />
	<path style="fill:none;stroke:red;stroke-width:1px;stroke-linecap:butt;stroke-linejoin:miter;stroke-opacity:1" d="M 536.617,50.604 534.953,70.5772 z" id="boundary" inkscape:connector-curvature="0" />
	<path style="fill:none;stroke:red;stroke-width:1px;stroke-linecap:butt;stroke-linejoin:miter;stroke-opacity:1" d="M 534.953,70.5772 519.973,78.8993 z" id="boundary" inkscape:connector-curvature="0" />
	<path style="fill:none;stroke:red;stroke-width:1px;stroke-linecap:butt;stroke-linejoin:miter;stroke-opacity:1" d="M 503.329,78.8993 486.685,83.8926 z" id="boundary" inkscape:connector-curvature="0" />
	<path style="fill:none;stroke:red;stroke-width:1px;stroke-linecap:butt;stroke-linejoin:miter;stroke-opacity:1" d="M 549.933,4 566.577,4 z" id="boundary" inkscape:connector-curvature="0" />
	<path style="fill:none;stroke:red;stroke-width:1px;stroke-linecap:butt;stroke-linejoin:miter;stroke-opacity:1" d="M 566.577,4 578.228,17.3154 z" id="boundary" inkscape:connector-curvature="0" />
	<path style="fill:none;stroke:red;stroke-width:1px;stroke-linecap:butt;stroke-linejoin:miter;stroke-opacity:1" d="M 578.228,17.3154 579.893,33.9597 z" id="boundary" inkscape:connector-curvature="0" />
	<path style="fill:none;stroke:red;stroke-width:1px;stroke-linecap:butt;stroke-linejoin:miter;stroke-opacity:1" d="M 588.215,48.9396 588.215,65.5839 z" id="boundary" inkscape:connector-curvature="0" />
	<path style="fill:none;stroke:red;stroke-width:1px;stroke-linecap:butt;stroke-linejoin:miter;stroke-opacity:1" d="M 588.215,48.9396 579.893,33.9597 z" id="boundary" inkscape:connector-curvature="0" />
	<path style="fill:none;stroke:red;stroke-width:1px;stroke-linecap:butt;stroke-linejoin:miter;stroke-opacity:1" d="M 588.215,82.2282 588.215,65.5839 z" id="boundary" inkscape:connector-curvature="0" />
	<path style="fill:none;stroke:red;stroke-width:1px;stroke-linecap:butt;stroke-linejoin:miter;stroke-opacity:1" d="M 536.617,17.3154 549.933,4 z" id="boundary" inkscape:connector-curvature="0" />
	<path style="fill:none;stroke:red;stroke-width:1px;stroke-linecap:butt;stroke-linejoin:miter;stroke-opacity:1" d="M 470.04,92.2148 486.685,83.8926 z" id="boundary" inkscape:connector-curvature="0" />
	<path style="fill:none;stroke:red;stroke-width:1px;stroke-linecap:butt;stroke-linejoin:miter;stroke-opacity:1" d="M 588.215,82.2282 588.215,98.8725 z" id="boundary" inkscape:connector-curvature="0" />
	<path style="fill:none;stroke:red;stroke-width:1px;stroke-linecap:butt;stroke-linejoin:miter;stroke-opacity:1" d="M 470.04,140.483 470.04,123.839 z" id="boundary" inkscape:connector-curvature="0" />
	<path style="fill:none;stroke:red;stroke-width:1px;stroke-linecap:butt;stroke-linejoin:miter;stroke-opacity:1" d="M 470.04,140.483 470.04,157.128 z" id="boundary" inkscape:connector-curvature="0" />
	<path style="fill:none;stroke:red;stroke-width:1px;stroke-linecap:butt;stroke-linejoin:miter;stroke-opacity:1" d="M 470.04,173.772 470.04,157.128 z" id="boundary" inkscape:connector-curvature="0" />
	<path style="fill:none;stroke:red;stroke-width:1px;stroke-linecap:butt;stroke-linejoin:miter;stroke-opacity:1" d="M 588.215,98.8725 588.215,115.517 z" id="boundary" inkscape:connector-curvature="0" />
	<path style="fill:none;stroke:red;stroke-width:1px;stroke-linecap:butt;stroke-linejoin:miter;stroke-opacity:1" d="M 614.846,128.832 598.201,128.832 z" id="boundary" inkscape:connector-curvature="0" />
	<path style="fill:none;stroke:red;stroke-width:1px;stroke-linecap:butt;stroke-linejoin:miter;stroke-opacity:1" d="M 598.201,128.832 588.215,115.517 z" id="boundary" inkscape:connector-curvature="0" />
	<path style="fill:none;stroke:red;stroke-width:1px;stroke-linecap:butt;stroke-linejoin:miter;stroke-opacity:1" d="M 470.04,190.416 470.04,173.772 z" id="boundary" inkscape:connector-curvature="0" />
	<path style="fill:none;stroke:red;stroke-width:1px;stroke-linecap:butt;stroke-linejoin:miter;stroke-opacity:1" d="M 621.503,145.477 621.503,163.785 z" id="boundary" inkscape:connector-curvature="0" />
	<path style="fill:none;stroke:red;stroke-width:1px;stroke-linecap:butt;stroke-linejoin:miter;stroke-opacity:1" d="M 614.846,128.832 621.503,145.477 z" id="boundary" inkscape:connector-curvature="0" />
	<path style="fill:none;stroke:red;stroke-width:1px;stroke-linecap:butt;stroke-linejoin:miter;stroke-opacity:1" d="M 663.114,173.772 646.47,178.765 z" id="boundary" inkscape:connector-curvature="0" />
	<path style="fill:none;stroke:red;stroke-width:1px;stroke-linecap:butt;stroke-linejoin:miter;stroke-opacity:1" d="M 741.342,70.5772 736.349,50.604 z" id="boundary" inkscape:connector-curvature="0" />
	<path style="fill:none;stroke:red;stroke-width:1px;stroke-linecap:butt;stroke-linejoin:miter;stroke-opacity:1" d="M 736.349,50.604 752.993,42.2819 z" id="boundary" inkscape:connector-curvature="0" />
	<path style="fill:none;stroke:red;stroke-width:1px;stroke-linecap:butt;stroke-linejoin:miter;stroke-opacity:1" d="M 769.638,37.2886 752.993,42.2819 z" id="boundary" inkscape:connector-curvature="0" />
	<path style="fill:none;stroke:red;stroke-width:1px;stroke-linecap:butt;stroke-linejoin:miter;stroke-opacity:1" d="M 708.054,87.2215 724.698,78.8993 z" id="boundary" inkscape:connector-curvature="0" />
	<path style="fill:none;stroke:red;stroke-width:1px;stroke-linecap:butt;stroke-linejoin:miter;stroke-opacity:1" d="M 741.342,70.5772 724.698,78.8993 z" id="boundary" inkscape:connector-curvature="0" />
	<path style="fill:none;stroke:red;stroke-width:1px;stroke-linecap:butt;stroke-linejoin:miter;stroke-opacity:1" d="M 769.638,37.2886 786.282,37.2886 z" id="boundary" inkscape:connector-curvature="0" />
	<path style="fill:none;stroke:red;stroke-width:1px;stroke-linecap:butt;stroke-linejoin:miter;stroke-opacity:1" d="M 708.054,87.2215 694.738,100.537 z" id="boundary" inkscape:connector-curvature="0" />
	<path style="fill:none;stroke:red;stroke-width:1px;stroke-linecap:butt;stroke-linejoin:miter;stroke-opacity:1" d="M 786.282,37.2886 802.926,40.6174 z" id="boundary" inkscape:connector-curvature="0" />
	<path style="fill:none;stroke:red;stroke-width:1px;stroke-linecap:butt;stroke-linejoin:miter;stroke-opacity:1" d="M 802.926,40.6174 812.913,53.9329 z" id="boundary" inkscape:connector-curvature="0" />
	<path style="fill:none;stroke:red;stroke-width:1px;stroke-linecap:butt;stroke-linejoin:miter;stroke-opacity:1" d="M 826.228,63.9195 812.913,53.9329 z" id="boundary" inkscape:connector-curvature="0" />
	<path style="fill:none;stroke:red;stroke-width:1px;stroke-linecap:butt;stroke-linejoin:miter;stroke-opacity:1" d="M 854.523,95.5436 837.879,95.5436 z" id="boundary" inkscape:connector-curvature="0" />
	<path style="fill:none;stroke:red;stroke-width:1px;stroke-linecap:butt;stroke-linejoin:miter;stroke-opacity:1" d="M 837.879,95.5436 829.557,80.5638 z" id="boundary" inkscape:connector-curvature="0" />
	<path style="fill:none;stroke:red;stroke-width:1px;stroke-linecap:butt;stroke-linejoin:miter;stroke-opacity:1" d="M 829.557,80.5638 826.228,63.9195 z" id="boundary" inkscape:connector-curvature="0" />
	<path style="fill:none;stroke:red;stroke-width:1px;stroke-linecap:butt;stroke-linejoin:miter;stroke-opacity:1" d="M 871.168,95.5436 854.523,95.5436 z" id="boundary" inkscape:connector-curvature="0" />
	<path style="fill:none;stroke:red;stroke-width:1px;stroke-linecap:butt;stroke-linejoin:miter;stroke-opacity:1" d="M 686.416,133.826 679.758,165.45 z" id="boundary" inkscape:connector-curvature="0" />
	<path style="fill:none;stroke:red;stroke-width:1px;stroke-linecap:butt;stroke-linejoin:miter;stroke-opacity:1" d="M 679.758,165.45 663.114,173.772 z" id="boundary" inkscape:connector-curvature="0" />
	<path style="fill:none;stroke:red;stroke-width:1px;stroke-linecap:butt;stroke-linejoin:miter;stroke-opacity:1" d="M 686.416,117.181 686.416,133.826 z" id="boundary" inkscape:connector-curvature="0" />
	<path style="fill:none;stroke:red;stroke-width:1px;stroke-linecap:butt;stroke-linejoin:miter;stroke-opacity:1" d="M 686.416,117.181 694.738,100.537 z" id="boundary" inkscape:connector-curvature="0" />
	<path style="fill:none;stroke:red;stroke-width:1px;stroke-linecap:butt;stroke-linejoin:miter;stroke-opacity:1" d="M 887.812,95.5436 904.456,95.5436 z" id="boundary" inkscape:connector-curvature="0" />
	<path style="fill:none;stroke:red;stroke-width:1px;stroke-linecap:butt;stroke-linejoin:miter;stroke-opacity:1" d="M 904.456,95.5436 919.436,103.866 z" id="boundary" inkscape:connector-curvature="0" />
	<path style="fill:none;stroke:red;stroke-width:1px;stroke-linecap:butt;stroke-linejoin:miter;stroke-opacity:1" d="M 929.423,117.181 929.423,133.826 z" id="boundary" inkscape:connector-curvature="0" />
	<path style="fill:none;stroke:red;stroke-width:1px;stroke-linecap:butt;stroke-linejoin:miter;stroke-opacity:1" d="M 919.436,103.866 929.423,117.181 z" id="boundary" inkscape:connector-curvature="0" />
	<path style="fill:none;stroke:red;stroke-width:1px;stroke-linecap:butt;stroke-linejoin:miter;stroke-opacity:1" d="M 929.423,150.47 929.423,167.114 z" id="boundary" inkscape:connector-curvature="0" />
	<path style="fill:none;stroke:red;stroke-width:1px;stroke-linecap:butt;stroke-linejoin:miter;stroke-opacity:1" d="M 929.423,150.47 929.423,133.826 z" id="boundary" inkscape:connector-curvature="0" />
	<path style="fill:none;stroke:red;stroke-width:1px;stroke-linecap:butt;stroke-linejoin:miter;stroke-opacity:1" d="M 871.168,95.5436 887.812,95.5436 z" id="boundary" inkscape:connector-curvature="0" />
	<path style="fill:none;stroke:red;stroke-width:1px;stroke-linecap:butt;stroke-linejoin:miter;stroke-opacity:1" d="M 929.423,167.114 929.423,183.758 z" id="boundary" inkscape:connector-curvature="0" />
	<path style="fill:none;stroke:red;stroke-width:1px;stroke-linecap:butt;stroke-linejoin:miter;stroke-opacity:1" d="M 621.503,163.785 629.826,178.765 z" id="boundary" inkscape:connector-curvature="0" />
	<path style="fill:none;stroke:red;stroke-width:1px;stroke-linecap:butt;stroke-linejoin:miter;stroke-opacity:1" d="M 634.819,305.262 619.839,296.94 z" id="boundary" inkscape:connector-curvature="0" />
	<path style="fill:none;stroke:red;stroke-width:1px;stroke-linecap:butt;stroke-linejoin:miter;stroke-opacity:1" d="M 651.463,305.262 634.819,305.262 z" id="boundary" inkscape:connector-curvature="0" />
	<path style="fill:none;stroke:red;stroke-width:1px;stroke-linecap:butt;stroke-linejoin:miter;stroke-opacity:1" d="M 588.215,305.262 604.859,305.262 z" id="boundary" inkscape:connector-curvature="0" />
	<path style="fill:none;stroke:red;stroke-width:1px;stroke-linecap:butt;stroke-linejoin:miter;stroke-opacity:1" d="M 579.893,321.906 588.215,305.262 z" id="boundary" inkscape:connector-curvature="0" />
	<path style="fill:none;stroke:red;stroke-width:1px;stroke-linecap:butt;stroke-linejoin:miter;stroke-opacity:1" d="M 619.839,296.94 604.859,305.262 z" id="boundary" inkscape:connector-curvature="0" />
	<path style="fill:none;stroke:red;stroke-width:1px;stroke-linecap:butt;stroke-linejoin:miter;stroke-opacity:1" d="M 629.826,178.765 646.47,178.765 z" id="boundary" inkscape:connector-curvature="0" />
	<path style="fill:none;stroke:red;stroke-width:1px;stroke-linecap:butt;stroke-linejoin:miter;stroke-opacity:1" d="M 668.107,305.262 651.463,305.262 z" id="boundary" inkscape:connector-curvature="0" />
	<path style="fill:none;stroke:red;stroke-width:1px;stroke-linecap:butt;stroke-linejoin:miter;stroke-opacity:1" d="M 684.752,305.262 668.107,305.262 z" id="boundary" inkscape:connector-curvature="0" />
	<path style="fill:none;stroke:red;stroke-width:1px;stroke-linecap:butt;stroke-linejoin:miter;stroke-opacity:1" d="M 701.396,305.262 684.752,305.262 z" id="boundary" inkscape:connector-curvature="0" />
	<path style="fill:none;stroke:red;stroke-width:1px;stroke-linecap:butt;stroke-linejoin:miter;stroke-opacity:1" d="M 718.04,305.262 701.396,305.262 z" id="boundary" inkscape:connector-curvature="0" />
	<path style="fill:none;stroke:red;stroke-width:1px;stroke-linecap:butt;stroke-linejoin:miter;stroke-opacity:1" d="M 485.02,363.517 496.671,376.832 z" id="boundary" inkscape:connector-curvature="0" />
	<path style="fill:none;stroke:red;stroke-width:1px;stroke-linecap:butt;stroke-linejoin:miter;stroke-opacity:1" d="M 513.315,380.161 496.671,376.832 z" id="boundary" inkscape:connector-curvature="0" />
	<path style="fill:none;stroke:red;stroke-width:1px;stroke-linecap:butt;stroke-linejoin:miter;stroke-opacity:1" d="M 470.04,355.195 485.02,363.517 z" id="boundary" inkscape:connector-curvature="0" />
	<path style="fill:none;stroke:red;stroke-width:1px;stroke-linecap:butt;stroke-linejoin:miter;stroke-opacity:1" d="M 513.315,380.161 529.96,380.161 z" id="boundary" inkscape:connector-curvature="0" />
	<path style="fill:none;stroke:red;stroke-width:1px;stroke-linecap:butt;stroke-linejoin:miter;stroke-opacity:1" d="M 546.604,380.161 529.96,380.161 z" id="boundary" inkscape:connector-curvature="0" />
	<path style="fill:none;stroke:red;stroke-width:1px;stroke-linecap:butt;stroke-linejoin:miter;stroke-opacity:1" d="M 718.04,305.262 734.685,305.262 z" id="boundary" inkscape:connector-curvature="0" />
	<path style="fill:none;stroke:red;stroke-width:1px;stroke-linecap:butt;stroke-linejoin:miter;stroke-opacity:1" d="M 751.329,305.262 734.685,305.262 z" id="boundary" inkscape:connector-curvature="0" />
	<path style="fill:none;stroke:red;stroke-width:1px;stroke-linecap:butt;stroke-linejoin:miter;stroke-opacity:1" d="M 561.584,371.839 571.57,346.872 z" id="boundary" inkscape:connector-curvature="0" />
	<path style="fill:none;stroke:red;stroke-width:1px;stroke-linecap:butt;stroke-linejoin:miter;stroke-opacity:1" d="M 561.584,371.839 546.604,380.161 z" id="boundary" inkscape:connector-curvature="0" />
	<path style="fill:none;stroke:red;stroke-width:1px;stroke-linecap:butt;stroke-linejoin:miter;stroke-opacity:1" d="M 571.57,346.872 579.893,321.906 z" id="boundary" inkscape:connector-curvature="0" />
	<path style="fill:none;stroke:red;stroke-width:1px;stroke-linecap:butt;stroke-linejoin:miter;stroke-opacity:1" d="M 751.329,305.262 767.973,305.262 z" id="boundary" inkscape:connector-curvature="0" />
	<path style="fill:none;stroke:red;stroke-width:1px;stroke-linecap:butt;stroke-linejoin:miter;stroke-opacity:1" d="M 784.617,305.262 786.282,321.906 z" id="boundary" inkscape:connector-curvature="0" />
	<path style="fill:none;stroke:red;stroke-width:1px;stroke-linecap:butt;stroke-linejoin:miter;stroke-opacity:1" d="M 767.973,305.262 784.617,305.262 z" id="boundary" inkscape:connector-curvature="0" />
	<path style="fill:none;stroke:red;stroke-width:1px;stroke-linecap:butt;stroke-linejoin:miter;stroke-opacity:1" d="M 966.04,212.054 949.396,212.054 z" id="boundary" inkscape:connector-curvature="0" />
	<path style="fill:none;stroke:red;stroke-width:1px;stroke-linecap:butt;stroke-linejoin:miter;stroke-opacity:1" d="M 949.396,212.054 936.081,200.403 z" id="boundary" inkscape:connector-curvature="0" />
	<path style="fill:none;stroke:red;stroke-width:1px;stroke-linecap:butt;stroke-linejoin:miter;stroke-opacity:1" d="M 936.081,200.403 929.423,183.758 z" id="boundary" inkscape:connector-curvature="0" />
	<path style="fill:none;stroke:red;stroke-width:1px;stroke-linecap:butt;stroke-linejoin:miter;stroke-opacity:1" d="M 796.268,335.221 786.282,321.906 z" id="boundary" inkscape:connector-curvature="0" />
	<path style="fill:none;stroke:red;stroke-width:1px;stroke-linecap:butt;stroke-linejoin:miter;stroke-opacity:1" d="M 966.04,212.054 979.356,222.04 z" id="boundary" inkscape:connector-curvature="0" />
	<path style="fill:none;stroke:red;stroke-width:1px;stroke-linecap:butt;stroke-linejoin:miter;stroke-opacity:1" d="M 796.268,335.221 804.591,350.201 z" id="boundary" inkscape:connector-curvature="0" />
	<path style="fill:none;stroke:red;stroke-width:1px;stroke-linecap:butt;stroke-linejoin:miter;stroke-opacity:1" d="M 987.678,237.02 979.356,222.04 z" id="boundary" inkscape:connector-curvature="0" />
	<path style="fill:none;stroke:red;stroke-width:1px;stroke-linecap:butt;stroke-linejoin:miter;stroke-opacity:1" d="M 996,252 987.678,237.02 z" id="boundary" inkscape:connector-curvature="0" />
	<path style="fill:none;stroke:red;stroke-width:1px;stroke-linecap:butt;stroke-linejoin:miter;stroke-opacity:1" d="M 996,252 996,268.644 z" id="boundary" inkscape:connector-curvature="0" />
	<path style="fill:none;stroke:red;stroke-width:1px;stroke-linecap:butt;stroke-linejoin:miter;stroke-opacity:1" d="M 987.678,296.94 996,268.644 z" id="boundary" inkscape:connector-curvature="0" />
	<path style="fill:none;stroke:red;stroke-width:1px;stroke-linecap:butt;stroke-linejoin:miter;stroke-opacity:1" d="M 987.678,313.584 987.678,296.94 z" id="boundary" inkscape:connector-curvature="0" />
	<path style="fill:none;stroke:red;stroke-width:1px;stroke-linecap:butt;stroke-linejoin:miter;stroke-opacity:1" d="M 987.678,313.584 979.356,338.55 z" id="boundary" inkscape:connector-curvature="0" />
	<path style="fill:none;stroke:red;stroke-width:1px;stroke-linecap:butt;stroke-linejoin:miter;stroke-opacity:1" d="M 804.591,350.201 819.57,358.523 z" id="boundary" inkscape:connector-curvature="0" />
	<path style="fill:none;stroke:red;stroke-width:1px;stroke-linecap:butt;stroke-linejoin:miter;stroke-opacity:1" d="M 819.57,358.523 832.886,370.174 z" id="boundary" inkscape:connector-curvature="0" />
	<path style="fill:none;stroke:red;stroke-width:1px;stroke-linecap:butt;stroke-linejoin:miter;stroke-opacity:1" d="M 847.866,378.497 832.886,370.174 z" id="boundary" inkscape:connector-curvature="0" />
	<path style="fill:none;stroke:red;stroke-width:1px;stroke-linecap:butt;stroke-linejoin:miter;stroke-opacity:1" d="M 881.154,385.154 864.51,385.154 z" id="boundary" inkscape:connector-curvature="0" />
	<path style="fill:none;stroke:red;stroke-width:1px;stroke-linecap:butt;stroke-linejoin:miter;stroke-opacity:1" d="M 864.51,385.154 847.866,378.497 z" id="boundary" inkscape:connector-curvature="0" />
	<path style="fill:none;stroke:red;stroke-width:1px;stroke-linecap:butt;stroke-linejoin:miter;stroke-opacity:1" d="M 881.154,385.154 897.799,388.483 z" id="boundary" inkscape:connector-curvature="0" />
	<path style="fill:none;stroke:red;stroke-width:1px;stroke-linecap:butt;stroke-linejoin:miter;stroke-opacity:1" d="M 979.356,338.55 971.034,355.195 z" id="boundary" inkscape:connector-curvature="0" />
	<path style="fill:none;stroke:red;stroke-width:1px;stroke-linecap:butt;stroke-linejoin:miter;stroke-opacity:1" d="M 971.034,355.195 961.047,371.839 z" id="boundary" inkscape:connector-curvature="0" />
	<path style="fill:none;stroke:red;stroke-width:1px;stroke-linecap:butt;stroke-linejoin:miter;stroke-opacity:1" d="M 961.047,371.839 946.067,380.161 z" id="boundary" inkscape:connector-curvature="0" />
	<path style="fill:none;stroke:red;stroke-width:1px;stroke-linecap:butt;stroke-linejoin:miter;stroke-opacity:1" d="M 914.443,388.483 897.799,388.483 z" id="boundary" inkscape:connector-curvature="0" />
	<path style="fill:none;stroke:red;stroke-width:1px;stroke-linecap:butt;stroke-linejoin:miter;stroke-opacity:1" d="M 946.067,380.161 931.087,388.483 z" id="boundary" inkscape:connector-curvature="0" />
	<path style="fill:none;stroke:red;stroke-width:1px;stroke-linecap:butt;stroke-linejoin:miter;stroke-opacity:1" d="M 931.087,388.483 914.443,388.483 z" id="boundary" inkscape:connector-curvature="0" />
	<circle cx="4" cy="108.859" r="4" fill="#0" id="circle0"/>
	<circle cx="4" cy="125.503" r="4" fill="#0" id="circle1"/>
	<circle cx="17.3154" cy="95.5436" r="4" fill="#0" id="circle2"/>
	<circle cx="20.6443" cy="130.497" r="4" fill="#0" id="circle3"/>
	<circle cx="25.6376" cy="78.8993" r="4" fill="#0" id="circle4"/>
	<circle cx="37.2886" cy="50.604" r="4" fill="#0" id="circle5"/>
	<circle cx="37.2886" cy="125.503" r="4" fill="#0" id="circle6"/>
	<circle cx="53.9329" cy="42.2819" r="4" fill="#0" id="circle7"/>
	<circle cx="53.9329" cy="117.181" r="4" fill="#0" id="circle8"/>
	<circle cx="67.2483" cy="105.53" r="4" fill="#0" id="circle9"/>
	<circle cx="70.5772" cy="37.2886" r="4" fill="#0" id="circle10"/>
	<circle cx="78.8993" cy="118.846" r="4" fill="#0" id="circle11"/>
	<circle cx="78.8993" cy="266.98" r="4" fill="#0" id="circle12"/>
	<circle cx="78.8993" cy="291.946" r="4" fill="#0" id="circle13"/>
	<circle cx="80.5638" cy="135.49" r="4" fill="#0" id="circle14"/>
	<circle cx="87.2215" cy="37.2886" r="4" fill="#0" id="circle15"/>
	<circle cx="87.2215" cy="242.013" r="4" fill="#0" id="circle16"/>
	<circle cx="87.2215" cy="306.926" r="4" fill="#0" id="circle17"/>
	<circle cx="88.8859" cy="150.47" r="4" fill="#0" id="circle18"/>
	<circle cx="100.537" cy="163.785" r="4" fill="#0" id="circle19"/>
	<circle cx="100.537" cy="228.698" r="4" fill="#0" id="circle20"/>
	<circle cx="103.866" cy="37.2886" r="4" fill="#0" id="circle21"/>
	<circle cx="103.866" cy="313.584" r="4" fill="#0" id="circle22"/>
	<circle cx="108.859" cy="178.765" r="4" fill="#0" id="circle23"/>
	<circle cx="112.188" cy="195.409" r="4" fill="#0" id="circle24"/>
	<circle cx="112.188" cy="212.054" r="4" fill="#0" id="circle25"/>
	<circle cx="113.852" cy="326.899" r="4" fill="#0" id="circle26"/>
	<circle cx="120.51" cy="40.6174" r="4" fill="#0" id="circle27"/>
	<circle cx="120.51" cy="343.544" r="4" fill="#0" id="circle28"/>
	<circle cx="122.174" cy="360.188" r="4" fill="#0" id="circle29"/>
	<circle cx="135.49" cy="48.9396" r="4" fill="#0" id="circle30"/>
	<circle cx="138.819" cy="363.517" r="4" fill="#0" id="circle31"/>
	<circle cx="152.134" cy="55.5973" r="4" fill="#0" id="circle32"/>
	<circle cx="153.799" cy="371.839" r="4" fill="#0" id="circle33"/>
	<circle cx="163.785" cy="68.9128" r="4" fill="#0" id="circle34"/>
	<circle cx="170.443" cy="366.846" r="4" fill="#0" id="circle35"/>
	<circle cx="172.107" cy="247.007" r="4" fill="#0" id="circle36"/>
	<circle cx="172.107" cy="263.651" r="4" fill="#0" id="circle37"/>
	<circle cx="172.107" cy="288.617" r="4" fill="#0" id="circle38"/>
	<circle cx="175.436" cy="305.262" r="4" fill="#0" id="circle39"/>
	<circle cx="177.101" cy="80.5638" r="4" fill="#0" id="circle40"/>
	<circle cx="183.758" cy="320.242" r="4" fill="#0" id="circle41"/>
	<circle cx="183.758" cy="353.53" r="4" fill="#0" id="circle42"/>
	<circle cx="187.087" cy="238.685" r="4" fill="#0" id="circle43"/>
	<circle cx="188.752" cy="93.8792" r="4" fill="#0" id="circle44"/>
	<circle cx="188.752" cy="336.886" r="4" fill="#0" id="circle45"/>
	<circle cx="202.067" cy="105.53" r="4" fill="#0" id="circle46"/>
	<circle cx="202.067" cy="230.362" r="4" fill="#0" id="circle47"/>
	<circle cx="218.711" cy="112.188" r="4" fill="#0" id="circle48"/>
	<circle cx="218.711" cy="227.034" r="4" fill="#0" id="circle49"/>
	<circle cx="235.356" cy="112.188" r="4" fill="#0" id="circle50"/>
	<circle cx="235.356" cy="222.04" r="4" fill="#0" id="circle51"/>
	<circle cx="252" cy="112.188" r="4" fill="#0" id="circle52"/>
	<circle cx="252" cy="222.04" r="4" fill="#0" id="circle53"/>
	<circle cx="268.644" cy="112.188" r="4" fill="#0" id="circle54"/>
	<circle cx="268.644" cy="222.04" r="4" fill="#0" id="circle55"/>
	<circle cx="285.289" cy="112.188" r="4" fill="#0" id="circle56"/>
	<circle cx="285.289" cy="222.04" r="4" fill="#0" id="circle57"/>
	<circle cx="301.933" cy="112.188" r="4" fill="#0" id="circle58"/>
	<circle cx="301.933" cy="222.04" r="4" fill="#0" id="circle59"/>
	<circle cx="318.577" cy="112.188" r="4" fill="#0" id="circle60"/>
	<circle cx="318.577" cy="222.04" r="4" fill="#0" id="circle61"/>
	<circle cx="320.242" cy="300.268" r="4" fill="#0" id="circle62"/>
	<circle cx="320.242" cy="316.913" r="4" fill="#0" id="circle63"/>
	<circle cx="320.242" cy="333.557" r="4" fill="#0" id="circle64"/>
	<circle cx="320.242" cy="350.201" r="4" fill="#0" id="circle65"/>
	<circle cx="328.564" cy="235.356" r="4" fill="#0" id="circle66"/>
	<circle cx="328.564" cy="252" r="4" fill="#0" id="circle67"/>
	<circle cx="328.564" cy="268.644" r="4" fill="#0" id="circle68"/>
	<circle cx="328.564" cy="285.289" r="4" fill="#0" id="circle69"/>
	<circle cx="335.221" cy="112.188" r="4" fill="#0" id="circle70"/>
	<circle cx="336.886" cy="355.195" r="4" fill="#0" id="circle71"/>
	<circle cx="351.866" cy="112.188" r="4" fill="#0" id="circle72"/>
	<circle cx="353.53" cy="350.201" r="4" fill="#0" id="circle73"/>
	<circle cx="361.852" cy="333.557" r="4" fill="#0" id="circle74"/>
	<circle cx="363.517" cy="313.584" r="4" fill="#0" id="circle75"/>
	<circle cx="366.846" cy="120.51" r="4" fill="#0" id="circle76"/>
	<circle cx="371.839" cy="147.141" r="4" fill="#0" id="circle77"/>
	<circle cx="371.839" cy="255.329" r="4" fill="#0" id="circle78"/>
	<circle cx="371.839" cy="271.973" r="4" fill="#0" id="circle79"/>
	<circle cx="371.839" cy="288.617" r="4" fill="#0" id="circle80"/>
	<circle cx="375.168" cy="163.785" r="4" fill="#0" id="circle81"/>
	<circle cx="380.161" cy="130.497" r="4" fill="#0" id="circle82"/>
	<circle cx="388.483" cy="175.436" r="4" fill="#0" id="circle83"/>
	<circle cx="388.483" cy="255.329" r="4" fill="#0" id="circle84"/>
	<circle cx="396.805" cy="190.416" r="4" fill="#0" id="circle85"/>
	<circle cx="405.128" cy="205.396" r="4" fill="#0" id="circle86"/>
	<circle cx="405.128" cy="255.329" r="4" fill="#0" id="circle87"/>
	<circle cx="420.107" cy="263.651" r="4" fill="#0" id="circle88"/>
	<circle cx="421.772" cy="212.054" r="4" fill="#0" id="circle89"/>
	<circle cx="428.43" cy="278.631" r="4" fill="#0" id="circle90"/>
	<circle cx="428.43" cy="295.275" r="4" fill="#0" id="circle91"/>
	<circle cx="431.758" cy="311.919" r="4" fill="#0" id="circle92"/>
	<circle cx="436.752" cy="328.564" r="4" fill="#0" id="circle93"/>
	<circle cx="438.416" cy="212.054" r="4" fill="#0" id="circle94"/>
	<circle cx="445.074" cy="343.544" r="4" fill="#0" id="circle95"/>
	<circle cx="453.396" cy="200.403" r="4" fill="#0" id="circle96"/>
	<circle cx="453.396" cy="358.523" r="4" fill="#0" id="circle97"/>
	<circle cx="461.718" cy="108.859" r="4" fill="#0" id="circle98"/>
	<circle cx="470.04" cy="92.2148" r="4" fill="#0" id="circle99"/>
	<circle cx="470.04" cy="123.839" r="4" fill="#0" id="circle100"/>
	<circle cx="470.04" cy="140.483" r="4" fill="#0" id="circle101"/>
	<circle cx="470.04" cy="157.128" r="4" fill="#0" id="circle102"/>
	<circle cx="470.04" cy="173.772" r="4" fill="#0" id="circle103"/>
	<circle cx="470.04" cy="190.416" r="4" fill="#0" id="circle104"/>
	<circle cx="470.04" cy="355.195" r="4" fill="#0" id="circle105"/>
	<circle cx="485.02" cy="363.517" r="4" fill="#0" id="circle106"/>
	<circle cx="486.685" cy="83.8926" r="4" fill="#0" id="circle107"/>
	<circle cx="496.671" cy="376.832" r="4" fill="#0" id="circle108"/>
	<circle cx="503.329" cy="78.8993" r="4" fill="#0" id="circle109"/>
	<circle cx="513.315" cy="380.161" r="4" fill="#0" id="circle110"/>
	<circle cx="519.973" cy="78.8993" r="4" fill="#0" id="circle111"/>
	<circle cx="529.96" cy="380.161" r="4" fill="#0" id="circle112"/>
	<circle cx="534.953" cy="70.5772" r="4" fill="#0" id="circle113"/>
	<circle cx="536.617" cy="17.3154" r="4" fill="#0" id="circle114"/>
	<circle cx="536.617" cy="33.9597" r="4" fill="#0" id="circle115"/>
	<circle cx="536.617" cy="50.604" r="4" fill="#0" id="circle116"/>
	<circle cx="546.604" cy="380.161" r="4" fill="#0" id="circle117"/>
	<circle cx="549.933" cy="4" r="4" fill="#0" id="circle118"/>
	<circle cx="561.584" cy="371.839" r="4" fill="#0" id="circle119"/>
	<circle cx="566.577" cy="4" r="4" fill="#0" id="circle120"/>
	<circle cx="571.57" cy="346.872" r="4" fill="#0" id="circle121"/>
	<circle cx="578.228" cy="17.3154" r="4" fill="#0" id="circle122"/>
	<circle cx="579.893" cy="33.9597" r="4" fill="#0" id="circle123"/>
	<circle cx="579.893" cy="321.906" r="4" fill="#0" id="circle124"/>
	<circle cx="588.215" cy="48.9396" r="4" fill="#0" id="circle125"/>
	<circle cx="588.215" cy="65.5839" r="4" fill="#0" id="circle126"/>
	<circle cx="588.215" cy="82.2282" r="4" fill="#0" id="circle127"/>
	<circle cx="588.215" cy="98.8725" r="4" fill="#0" id="circle128"/>
	<circle cx="588.215" cy="115.517" r="4" fill="#0" id="circle129"/>
	<circle cx="588.215" cy="305.262" r="4" fill="#0" id="circle130"/>
	<circle cx="598.201" cy="128.832" r="4" fill="#0" id="circle131"/>
	<circle cx="604.859" cy="305.262" r="4" fill="#0" id="circle132"/>
	<circle cx="614.846" cy="128.832" r="4" fill="#0" id="circle133"/>
	<circle cx="619.839" cy="296.94" r="4" fill="#0" id="circle134"/>
	<circle cx="621.503" cy="145.477" r="4" fill="#0" id="circle135"/>
	<circle cx="621.503" cy="163.785" r="4" fill="#0" id="circle136"/>
	<circle cx="629.826" cy="178.765" r="4" fill="#0" id="circle137"/>
	<circle cx="634.819" cy="305.262" r="4" fill="#0" id="circle138"/>
	<circle cx="646.47" cy="178.765" r="4" fill="#0" id="circle139"/>
	<circle cx="651.463" cy="305.262" r="4" fill="#0" id="circle140"/>
	<circle cx="663.114" cy="173.772" r="4" fill="#0" id="circle141"/>
	<circle cx="668.107" cy="305.262" r="4" fill="#0" id="circle142"/>
	<circle cx="679.758" cy="165.45" r="4" fill="#0" id="circle143"/>
	<circle cx="684.752" cy="305.262" r="4" fill="#0" id="circle144"/>
	<circle cx="686.416" cy="117.181" r="4" fill="#0" id="circle145"/>
	<circle cx="686.416" cy="133.826" r="4" fill="#0" id="circle146"/>
	<circle cx="694.738" cy="100.537" r="4" fill="#0" id="circle147"/>
	<circle cx="701.396" cy="305.262" r="4" fill="#0" id="circle148"/>
	<circle cx="708.054" cy="87.2215" r="4" fill="#0" id="circle149"/>
	<circle cx="718.04" cy="305.262" r="4" fill="#0" id="circle150"/>
	<circle cx="724.698" cy="78.8993" r="4" fill="#0" id="circle151"/>
	<circle cx="734.685" cy="305.262" r="4" fill="#0" id="circle152"/>
	<circle cx="736.349" cy="50.604" r="4" fill="#0" id="circle153"/>
	<circle cx="741.342" cy="70.5772" r="4" fill="#0" id="circle154"/>
	<circle cx="751.329" cy="305.262" r="4" fill="#0" id="circle155"/>
	<circle cx="752.993" cy="42.2819" r="4" fill="#0" id="circle156"/>
	<circle cx="767.973" cy="305.262" r="4" fill="#0" id="circle157"/>
	<circle cx="769.638" cy="37.2886" r="4" fill="#0" id="circle158"/>
	<circle cx="784.617" cy="305.262" r="4" fill="#0" id="circle159"/>
	<circle cx="786.282" cy="37.2886" r="4" fill="#0" id="circle160"/>
	<circle cx="786.282" cy="321.906" r="4" fill="#0" id="circle161"/>
	<circle cx="796.268" cy="335.221" r="4" fill="#0" id="circle162"/>
	<circle cx="802.926" cy="40.6174" r="4" fill="#0" id="circle163"/>
	<circle cx="804.591" cy="350.201" r="4" fill="#0" id="circle164"/>
	<circle cx="812.913" cy="53.9329" r="4" fill="#0" id="circle165"/>
	<circle cx="819.57" cy="358.523" r="4" fill="#0" id="circle166"/>
	<circle cx="826.228" cy="63.9195" r="4" fill="#0" id="circle167"/>
	<circle cx="829.557" cy="80.5638" r="4" fill="#0" id="circle168"/>
	<circle cx="832.886" cy="370.174" r="4" fill="#0" id="circle169"/>
	<circle cx="837.879" cy="95.5436" r="4" fill="#0" id="circle170"/>
	<circle cx="847.866" cy="378.497" r="4" fill="#0" id="circle171"/>
	<circle cx="854.523" cy="95.5436" r="4" fill="#0" id="circle172"/>
	<circle cx="864.51" cy="385.154" r="4" fill="#0" id="circle173"/>
	<circle cx="871.168" cy="95.5436" r="4" fill="#0" id="circle174"/>
	<circle cx="881.154" cy="385.154" r="4" fill="#0" id="circle175"/>
	<circle cx="887.812" cy="95.5436" r="4" fill="#0" id="circle176"/>
	<circle cx="897.799" cy="388.483" r="4" fill="#0" id="circle177"/>
	<circle cx="904.456" cy="95.5436" r="4" fill="#0" id="circle178"/>
	<circle cx="914.443" cy="388.483" r="4" fill="#0" id="circle179"/>
	<circle cx="919.436" cy="103.866" r="4" fill="#0" id="circle180"/>
	<circle cx="929.423" cy="117.181" r="4" fill="#0" id="circle181"/>
	<circle cx="929.423" cy="133.826" r="4" fill="#0" id="circle182"/>
	<circle cx="929.423" cy="150.47" r="4" fill="#0" id="circle183"/>
	<circle cx="929.423" cy="167.114" r="4" fill="#0" id="circle184"/>
	<circle cx="929.423" cy="183.758" r="4" fill="#0" id="circle185"/>
	<circle cx="931.087" cy="388.483" r="4" fill="#0" id="circle186"/>
	<circle cx="936.081" cy="200.403" r="4" fill="#0" id="circle187"/>
	<circle cx="946.067" cy="380.161" r="4" fill="#0" id="circle188"/>
	<circle cx="949.396" cy="212.054" r="4" fill="#0" id="circle189"/>
	<circle cx="961.047" cy="371.839" r="4" fill="#0" id="circle190"/>
	<circle cx="966.04" cy="212.054" r="4" fill="#0" id="circle191"/>
	<circle cx="971.034" cy="355.195" r="4" fill="#0" id="circle192"/>
	<circle cx="979.356" cy="222.04" r="4" fill="#0" id="circle193"/>
	<circle cx="979.356" cy="338.55" r="4" fill="#0" id="circle194"/>
	<circle cx="987.678" cy="237.02" r="4" fill="#0" id="circle195"/>
	<circle cx="987.678" cy="296.94" r="4" fill="#0" id="circle196"/>
	<circle cx="987.678" cy="313.584" r="4" fill="#0" id="circle197"/>
	<circle cx="996" cy="252" r="4" fill="#0" id="circle198"/>
	<circle cx="996" cy="268.644" r="4" fill="#0" id="circle199"/>
	</g>
</svg>