<?xml version="1.0" encoding="UTF-8" standalone="no"?>
<!-- Created with CurveBenchmark -->
<svg
	xmlns:dc="http://purl.org/dc/elements/1.1/"
	xmlns:cc="http://creativecommons.org/ns#"
	xmlns:rdf="http://www.w3.org/1999/02/22-rdf-syntax-ns#"
	xmlns:svg="http://www.w3.org/2000/svg"
	xmlns="http://www.w3.org/2000/svg"
	xmlns:sodipodi="http://sodipodi.sourceforge.net/DTD/sodipodi-0.dtd"
	xmlns:inkscape="http://www.inkscape.org/namespaces/inkscape"
	width="1000"
	height="1000"
	id="svg2"
	version="1.1"
	sodipodi:docname="manifold/nncrust-hammer175.png.txt">
<defs
	id="defs4" />
<metadata
	id="metadata7">
	<rdf:RDF>
		<cc:Work
			rdf:about="">
			<dc:format>image/svg+xml</dc:format>
			<dc:type
				rdf:resource="http://purl.org/dc/dcmitype/StillImage" />
			<dc:title></dc:title>
		</cc:Work>
	</rdf:RDF>
</metadata>
<g
	inkscape:label="Layer 1"
	inkscape:groupmode="layer"
	id="layer1">
	<path style="fill:none;stroke:red;stroke-width:1px;stroke-linecap:butt;stroke-linejoin:miter;stroke-opacity:1" d="M 4,44.2551 4,15.5014 z" id="boundary" inkscape:connector-curvature="0" />
	<path style="fill:none;stroke:red;stroke-width:1px;stroke-linecap:butt;stroke-linejoin:miter;stroke-opacity:1" d="M 4,15.5014 32.7536,4 z" id="boundary" inkscape:connector-curvature="0" />
	<path style="fill:none;stroke:red;stroke-width:1px;stroke-linecap:butt;stroke-linejoin:miter;stroke-opacity:1" d="M 90.2609,15.5014 61.5072,12.6261 z" id="boundary" inkscape:connector-curvature="0" />
	<path style="fill:none;stroke:red;stroke-width:1px;stroke-linecap:butt;stroke-linejoin:miter;stroke-opacity:1" d="M 119.014,15.5014 90.2609,15.5014 z" id="boundary" inkscape:connector-curvature="0" />
	<path style="fill:none;stroke:red;stroke-width:1px;stroke-linecap:butt;stroke-linejoin:miter;stroke-opacity:1" d="M 147.768,4 119.014,15.5014 z" id="boundary" inkscape:connector-curvature="0" />
	<path style="fill:none;stroke:red;stroke-width:1px;stroke-linecap:butt;stroke-linejoin:miter;stroke-opacity:1" d="M 32.7536,4 61.5072,12.6261 z" id="boundary" inkscape:connector-curvature="0" />
	<path style="fill:none;stroke:red;stroke-width:1px;stroke-linecap:butt;stroke-linejoin:miter;stroke-opacity:1" d="M 55.7565,81.6348 27.0029,93.1362 z" id="boundary" inkscape:connector-curvature="0" />
	<path style="fill:none;stroke:red;stroke-width:1px;stroke-linecap:butt;stroke-linejoin:miter;stroke-opacity:1" d="M 27.0029,93.1362 4,73.0087 z" id="boundary" inkscape:connector-curvature="0" />
	<path style="fill:none;stroke:red;stroke-width:1px;stroke-linecap:butt;stroke-linejoin:miter;stroke-opacity:1" d="M 4,73.0087 4,44.2551 z" id="boundary" inkscape:connector-curvature="0" />
	<path style="fill:none;stroke:red;stroke-width:1px;stroke-linecap:butt;stroke-linejoin:miter;stroke-opacity:1" d="M 55.7565,81.6348 84.5101,75.8841 z" id="boundary" inkscape:connector-curvature="0" />
	<path style="fill:none;stroke:red;stroke-width:1px;stroke-linecap:butt;stroke-linejoin:miter;stroke-opacity:1" d="M 113.264,78.7594 84.5101,75.8841 z" id="boundary" inkscape:connector-curvature="0" />
	<path style="fill:none;stroke:red;stroke-width:1px;stroke-linecap:butt;stroke-linejoin:miter;stroke-opacity:1" d="M 113.264,78.7594 130.516,101.762 z" id="boundary" inkscape:connector-curvature="0" />
	<path style="fill:none;stroke:red;stroke-width:1px;stroke-linecap:butt;stroke-linejoin:miter;stroke-opacity:1" d="M 136.267,130.516 139.142,159.27 z" id="boundary" inkscape:connector-curvature="0" />
	<path style="fill:none;stroke:red;stroke-width:1px;stroke-linecap:butt;stroke-linejoin:miter;stroke-opacity:1" d="M 136.267,130.516 130.516,101.762 z" id="boundary" inkscape:connector-curvature="0" />
	<path style="fill:none;stroke:red;stroke-width:1px;stroke-linecap:butt;stroke-linejoin:miter;stroke-opacity:1" d="M 150.643,188.023 139.142,159.27 z" id="boundary" inkscape:connector-curvature="0" />
	<path style="fill:none;stroke:red;stroke-width:1px;stroke-linecap:butt;stroke-linejoin:miter;stroke-opacity:1" d="M 156.394,216.777 150.643,188.023 z" id="boundary" inkscape:connector-curvature="0" />
	<path style="fill:none;stroke:red;stroke-width:1px;stroke-linecap:butt;stroke-linejoin:miter;stroke-opacity:1" d="M 147.768,4 176.522,4 z" id="boundary" inkscape:connector-curvature="0" />
	<path style="fill:none;stroke:red;stroke-width:1px;stroke-linecap:butt;stroke-linejoin:miter;stroke-opacity:1" d="M 159.27,245.53 159.27,274.284 z" id="boundary" inkscape:connector-curvature="0" />
	<path style="fill:none;stroke:red;stroke-width:1px;stroke-linecap:butt;stroke-linejoin:miter;stroke-opacity:1" d="M 159.27,245.53 156.394,216.777 z" id="boundary" inkscape:connector-curvature="0" />
	<path style="fill:none;stroke:red;stroke-width:1px;stroke-linecap:butt;stroke-linejoin:miter;stroke-opacity:1" d="M 159.27,274.284 159.27,303.038 z" id="boundary" inkscape:connector-curvature="0" />
	<path style="fill:none;stroke:red;stroke-width:1px;stroke-linecap:butt;stroke-linejoin:miter;stroke-opacity:1" d="M 159.27,303.038 159.27,331.791 z" id="boundary" inkscape:connector-curvature="0" />
	<path style="fill:none;stroke:red;stroke-width:1px;stroke-linecap:butt;stroke-linejoin:miter;stroke-opacity:1" d="M 159.27,360.545 159.27,331.791 z" id="boundary" inkscape:connector-curvature="0" />
	<path style="fill:none;stroke:red;stroke-width:1px;stroke-linecap:butt;stroke-linejoin:miter;stroke-opacity:1" d="M 159.27,389.299 159.27,360.545 z" id="boundary" inkscape:connector-curvature="0" />
	<path style="fill:none;stroke:red;stroke-width:1px;stroke-linecap:butt;stroke-linejoin:miter;stroke-opacity:1" d="M 124.765,561.82 124.765,590.574 z" id="boundary" inkscape:connector-curvature="0" />
	<path style="fill:none;stroke:red;stroke-width:1px;stroke-linecap:butt;stroke-linejoin:miter;stroke-opacity:1" d="M 124.765,561.82 124.765,533.067 z" id="boundary" inkscape:connector-curvature="0" />
	<path style="fill:none;stroke:red;stroke-width:1px;stroke-linecap:butt;stroke-linejoin:miter;stroke-opacity:1" d="M 124.765,619.328 124.765,648.081 z" id="boundary" inkscape:connector-curvature="0" />
	<path style="fill:none;stroke:red;stroke-width:1px;stroke-linecap:butt;stroke-linejoin:miter;stroke-opacity:1" d="M 124.765,619.328 124.765,590.574 z" id="boundary" inkscape:connector-curvature="0" />
	<path style="fill:none;stroke:red;stroke-width:1px;stroke-linecap:butt;stroke-linejoin:miter;stroke-opacity:1" d="M 124.765,648.081 124.765,676.835 z" id="boundary" inkscape:connector-curvature="0" />
	<path style="fill:none;stroke:red;stroke-width:1px;stroke-linecap:butt;stroke-linejoin:miter;stroke-opacity:1" d="M 119.014,924.116 119.014,952.87 z" id="boundary" inkscape:connector-curvature="0" />
	<path style="fill:none;stroke:red;stroke-width:1px;stroke-linecap:butt;stroke-linejoin:miter;stroke-opacity:1" d="M 119.014,952.87 113.264,981.623 z" id="boundary" inkscape:connector-curvature="0" />
	<path style="fill:none;stroke:red;stroke-width:1px;stroke-linecap:butt;stroke-linejoin:miter;stroke-opacity:1" d="M 139.142,996 113.264,981.623 z" id="boundary" inkscape:connector-curvature="0" />
	<path style="fill:none;stroke:red;stroke-width:1px;stroke-linecap:butt;stroke-linejoin:miter;stroke-opacity:1" d="M 124.765,705.588 124.765,734.342 z" id="boundary" inkscape:connector-curvature="0" />
	<path style="fill:none;stroke:red;stroke-width:1px;stroke-linecap:butt;stroke-linejoin:miter;stroke-opacity:1" d="M 124.765,705.588 124.765,676.835 z" id="boundary" inkscape:connector-curvature="0" />
	<path style="fill:none;stroke:red;stroke-width:1px;stroke-linecap:butt;stroke-linejoin:miter;stroke-opacity:1" d="M 124.765,763.096 124.765,734.342 z" id="boundary" inkscape:connector-curvature="0" />
	<path style="fill:none;stroke:red;stroke-width:1px;stroke-linecap:butt;stroke-linejoin:miter;stroke-opacity:1" d="M 124.765,533.067 130.516,504.313 z" id="boundary" inkscape:connector-curvature="0" />
	<path style="fill:none;stroke:red;stroke-width:1px;stroke-linecap:butt;stroke-linejoin:miter;stroke-opacity:1" d="M 130.516,475.559 130.516,504.313 z" id="boundary" inkscape:connector-curvature="0" />
	<path style="fill:none;stroke:red;stroke-width:1px;stroke-linecap:butt;stroke-linejoin:miter;stroke-opacity:1" d="M 130.516,475.559 147.768,452.557 z" id="boundary" inkscape:connector-curvature="0" />
	<path style="fill:none;stroke:red;stroke-width:1px;stroke-linecap:butt;stroke-linejoin:miter;stroke-opacity:1" d="M 159.27,389.299 159.27,418.052 z" id="boundary" inkscape:connector-curvature="0" />
	<path style="fill:none;stroke:red;stroke-width:1px;stroke-linecap:butt;stroke-linejoin:miter;stroke-opacity:1" d="M 159.27,418.052 147.768,452.557 z" id="boundary" inkscape:connector-curvature="0" />
	<path style="fill:none;stroke:red;stroke-width:1px;stroke-linecap:butt;stroke-linejoin:miter;stroke-opacity:1" d="M 124.765,791.849 124.765,763.096 z" id="boundary" inkscape:connector-curvature="0" />
	<path style="fill:none;stroke:red;stroke-width:1px;stroke-linecap:butt;stroke-linejoin:miter;stroke-opacity:1" d="M 124.765,791.849 124.765,820.603 z" id="boundary" inkscape:connector-curvature="0" />
	<path style="fill:none;stroke:red;stroke-width:1px;stroke-linecap:butt;stroke-linejoin:miter;stroke-opacity:1" d="M 124.765,849.357 124.765,820.603 z" id="boundary" inkscape:connector-curvature="0" />
	<path style="fill:none;stroke:red;stroke-width:1px;stroke-linecap:butt;stroke-linejoin:miter;stroke-opacity:1" d="M 124.765,878.11 124.765,849.357 z" id="boundary" inkscape:connector-curvature="0" />
	<path style="fill:none;stroke:red;stroke-width:1px;stroke-linecap:butt;stroke-linejoin:miter;stroke-opacity:1" d="M 167.896,996 139.142,996 z" id="boundary" inkscape:connector-curvature="0" />
	<path style="fill:none;stroke:red;stroke-width:1px;stroke-linecap:butt;stroke-linejoin:miter;stroke-opacity:1" d="M 119.014,924.116 124.765,878.11 z" id="boundary" inkscape:connector-curvature="0" />
	<path style="fill:none;stroke:red;stroke-width:1px;stroke-linecap:butt;stroke-linejoin:miter;stroke-opacity:1" d="M 196.649,996 167.896,996 z" id="boundary" inkscape:connector-curvature="0" />
	<path style="fill:none;stroke:red;stroke-width:1px;stroke-linecap:butt;stroke-linejoin:miter;stroke-opacity:1" d="M 176.522,4 205.275,4 z" id="boundary" inkscape:connector-curvature="0" />
	<path style="fill:none;stroke:red;stroke-width:1px;stroke-linecap:butt;stroke-linejoin:miter;stroke-opacity:1" d="M 259.907,84.5101 254.157,124.765 z" id="boundary" inkscape:connector-curvature="0" />
	<path style="fill:none;stroke:red;stroke-width:1px;stroke-linecap:butt;stroke-linejoin:miter;stroke-opacity:1" d="M 248.406,159.27 236.904,193.774 z" id="boundary" inkscape:connector-curvature="0" />
	<path style="fill:none;stroke:red;stroke-width:1px;stroke-linecap:butt;stroke-linejoin:miter;stroke-opacity:1" d="M 254.157,124.765 248.406,159.27 z" id="boundary" inkscape:connector-curvature="0" />
	<path style="fill:none;stroke:red;stroke-width:1px;stroke-linecap:butt;stroke-linejoin:miter;stroke-opacity:1" d="M 231.154,239.78 236.904,193.774 z" id="boundary" inkscape:connector-curvature="0" />
	<path style="fill:none;stroke:red;stroke-width:1px;stroke-linecap:butt;stroke-linejoin:miter;stroke-opacity:1" d="M 205.275,4 234.029,4 z" id="boundary" inkscape:connector-curvature="0" />
	<path style="fill:none;stroke:red;stroke-width:1px;stroke-linecap:butt;stroke-linejoin:miter;stroke-opacity:1" d="M 231.154,239.78 231.154,268.533 z" id="boundary" inkscape:connector-curvature="0" />
	<path style="fill:none;stroke:red;stroke-width:1px;stroke-linecap:butt;stroke-linejoin:miter;stroke-opacity:1" d="M 377.797,162.145 231.154,297.287 z" id="boundary" inkscape:connector-curvature="0" />
	<path style="fill:none;stroke:red;stroke-width:1px;stroke-linecap:butt;stroke-linejoin:miter;stroke-opacity:1" d="M 231.154,297.287 231.154,268.533 z" id="boundary" inkscape:connector-curvature="0" />
	<path style="fill:none;stroke:red;stroke-width:1px;stroke-linecap:butt;stroke-linejoin:miter;stroke-opacity:1" d="M 231.154,326.041 231.154,354.794 z" id="boundary" inkscape:connector-curvature="0" />
	<path style="fill:none;stroke:red;stroke-width:1px;stroke-linecap:butt;stroke-linejoin:miter;stroke-opacity:1" d="M 231.154,383.548 231.154,354.794 z" id="boundary" inkscape:connector-curvature="0" />
	<path style="fill:none;stroke:red;stroke-width:1px;stroke-linecap:butt;stroke-linejoin:miter;stroke-opacity:1" d="M 231.154,326.041 231.154,297.287 z" id="boundary" inkscape:connector-curvature="0" />
	<path style="fill:none;stroke:red;stroke-width:1px;stroke-linecap:butt;stroke-linejoin:miter;stroke-opacity:1" d="M 231.154,383.548 231.154,412.301 z" id="boundary" inkscape:connector-curvature="0" />
	<path style="fill:none;stroke:red;stroke-width:1px;stroke-linecap:butt;stroke-linejoin:miter;stroke-opacity:1" d="M 262.783,4 285.786,21.2522 z" id="boundary" inkscape:connector-curvature="0" />
	<path style="fill:none;stroke:red;stroke-width:1px;stroke-linecap:butt;stroke-linejoin:miter;stroke-opacity:1" d="M 234.029,4 262.783,4 z" id="boundary" inkscape:connector-curvature="0" />
	<path style="fill:none;stroke:red;stroke-width:1px;stroke-linecap:butt;stroke-linejoin:miter;stroke-opacity:1" d="M 288.661,87.3855 259.907,84.5101 z" id="boundary" inkscape:connector-curvature="0" />
	<path style="fill:none;stroke:red;stroke-width:1px;stroke-linecap:butt;stroke-linejoin:miter;stroke-opacity:1" d="M 308.788,38.5043 331.791,55.7565 z" id="boundary" inkscape:connector-curvature="0" />
	<path style="fill:none;stroke:red;stroke-width:1px;stroke-linecap:butt;stroke-linejoin:miter;stroke-opacity:1" d="M 285.786,21.2522 308.788,38.5043 z" id="boundary" inkscape:connector-curvature="0" />
	<path style="fill:none;stroke:red;stroke-width:1px;stroke-linecap:butt;stroke-linejoin:miter;stroke-opacity:1" d="M 331.791,55.7565 349.043,78.7594 z" id="boundary" inkscape:connector-curvature="0" />
	<path style="fill:none;stroke:red;stroke-width:1px;stroke-linecap:butt;stroke-linejoin:miter;stroke-opacity:1" d="M 317.414,98.887 340.417,116.139 z" id="boundary" inkscape:connector-curvature="0" />
	<path style="fill:none;stroke:red;stroke-width:1px;stroke-linecap:butt;stroke-linejoin:miter;stroke-opacity:1" d="M 317.414,98.887 288.661,87.3855 z" id="boundary" inkscape:connector-curvature="0" />
	<path style="fill:none;stroke:red;stroke-width:1px;stroke-linecap:butt;stroke-linejoin:miter;stroke-opacity:1" d="M 340.417,116.139 360.545,139.142 z" id="boundary" inkscape:connector-curvature="0" />
	<path style="fill:none;stroke:red;stroke-width:1px;stroke-linecap:butt;stroke-linejoin:miter;stroke-opacity:1" d="M 360.545,139.142 366.296,101.762 z" id="boundary" inkscape:connector-curvature="0" />
	<path style="fill:none;stroke:red;stroke-width:1px;stroke-linecap:butt;stroke-linejoin:miter;stroke-opacity:1" d="M 377.797,162.145 360.545,139.142 z" id="boundary" inkscape:connector-curvature="0" />
	<path style="fill:none;stroke:red;stroke-width:1px;stroke-linecap:butt;stroke-linejoin:miter;stroke-opacity:1" d="M 340.417,116.139 366.296,101.762 z" id="boundary" inkscape:connector-curvature="0" />
	<path style="fill:none;stroke:red;stroke-width:1px;stroke-linecap:butt;stroke-linejoin:miter;stroke-opacity:1" d="M 349.043,78.7594 366.296,101.762 z" id="boundary" inkscape:connector-curvature="0" />
	<path style="fill:none;stroke:red;stroke-width:1px;stroke-linecap:butt;stroke-linejoin:miter;stroke-opacity:1" d="M 236.904,441.055 245.53,469.809 z" id="boundary" inkscape:connector-curvature="0" />
	<path style="fill:none;stroke:red;stroke-width:1px;stroke-linecap:butt;stroke-linejoin:miter;stroke-opacity:1" d="M 236.904,441.055 231.154,412.301 z" id="boundary" inkscape:connector-curvature="0" />
	<path style="fill:none;stroke:red;stroke-width:1px;stroke-linecap:butt;stroke-linejoin:miter;stroke-opacity:1" d="M 259.907,495.687 265.658,524.441 z" id="boundary" inkscape:connector-curvature="0" />
	<path style="fill:none;stroke:red;stroke-width:1px;stroke-linecap:butt;stroke-linejoin:miter;stroke-opacity:1" d="M 259.907,495.687 245.53,469.809 z" id="boundary" inkscape:connector-curvature="0" />
	<path style="fill:none;stroke:red;stroke-width:1px;stroke-linecap:butt;stroke-linejoin:miter;stroke-opacity:1" d="M 265.658,524.441 265.658,553.194 z" id="boundary" inkscape:connector-curvature="0" />
	<path style="fill:none;stroke:red;stroke-width:1px;stroke-linecap:butt;stroke-linejoin:miter;stroke-opacity:1" d="M 225.403,996 196.649,996 z" id="boundary" inkscape:connector-curvature="0" />
	<path style="fill:none;stroke:red;stroke-width:1px;stroke-linecap:butt;stroke-linejoin:miter;stroke-opacity:1" d="M 271.409,955.745 254.157,996 z" id="boundary" inkscape:connector-curvature="0" />
	<path style="fill:none;stroke:red;stroke-width:1px;stroke-linecap:butt;stroke-linejoin:miter;stroke-opacity:1" d="M 254.157,996 225.403,996 z" id="boundary" inkscape:connector-curvature="0" />
	<path style="fill:none;stroke:red;stroke-width:1px;stroke-linecap:butt;stroke-linejoin:miter;stroke-opacity:1" d="M 265.658,581.948 265.658,610.701 z" id="boundary" inkscape:connector-curvature="0" />
	<path style="fill:none;stroke:red;stroke-width:1px;stroke-linecap:butt;stroke-linejoin:miter;stroke-opacity:1" d="M 265.658,581.948 265.658,553.194 z" id="boundary" inkscape:connector-curvature="0" />
	<path style="fill:none;stroke:red;stroke-width:1px;stroke-linecap:butt;stroke-linejoin:miter;stroke-opacity:1" d="M 265.658,668.209 265.658,696.962 z" id="boundary" inkscape:connector-curvature="0" />
	<path style="fill:none;stroke:red;stroke-width:1px;stroke-linecap:butt;stroke-linejoin:miter;stroke-opacity:1" d="M 265.658,610.701 265.658,639.455 z" id="boundary" inkscape:connector-curvature="0" />
	<path style="fill:none;stroke:red;stroke-width:1px;stroke-linecap:butt;stroke-linejoin:miter;stroke-opacity:1" d="M 265.658,639.455 265.658,668.209 z" id="boundary" inkscape:connector-curvature="0" />
	<path style="fill:none;stroke:red;stroke-width:1px;stroke-linecap:butt;stroke-linejoin:miter;stroke-opacity:1" d="M 265.658,696.962 265.658,725.716 z" id="boundary" inkscape:connector-curvature="0" />
	<path style="fill:none;stroke:red;stroke-width:1px;stroke-linecap:butt;stroke-linejoin:miter;stroke-opacity:1" d="M 265.658,754.47 265.658,783.223 z" id="boundary" inkscape:connector-curvature="0" />
	<path style="fill:none;stroke:red;stroke-width:1px;stroke-linecap:butt;stroke-linejoin:miter;stroke-opacity:1" d="M 265.658,754.47 265.658,725.716 z" id="boundary" inkscape:connector-curvature="0" />
	<path style="fill:none;stroke:red;stroke-width:1px;stroke-linecap:butt;stroke-linejoin:miter;stroke-opacity:1" d="M 265.658,783.223 265.658,811.977 z" id="boundary" inkscape:connector-curvature="0" />
	<path style="fill:none;stroke:red;stroke-width:1px;stroke-linecap:butt;stroke-linejoin:miter;stroke-opacity:1" d="M 265.658,840.73 265.658,869.484 z" id="boundary" inkscape:connector-curvature="0" />
	<path style="fill:none;stroke:red;stroke-width:1px;stroke-linecap:butt;stroke-linejoin:miter;stroke-opacity:1" d="M 265.658,840.73 265.658,811.977 z" id="boundary" inkscape:connector-curvature="0" />
	<path style="fill:none;stroke:red;stroke-width:1px;stroke-linecap:butt;stroke-linejoin:miter;stroke-opacity:1" d="M 271.409,898.238 265.658,869.484 z" id="boundary" inkscape:connector-curvature="0" />
	<path style="fill:none;stroke:red;stroke-width:1px;stroke-linecap:butt;stroke-linejoin:miter;stroke-opacity:1" d="M 271.409,926.991 271.409,898.238 z" id="boundary" inkscape:connector-curvature="0" />
	<path style="fill:none;stroke:red;stroke-width:1px;stroke-linecap:butt;stroke-linejoin:miter;stroke-opacity:1" d="M 271.409,955.745 271.409,926.991 z" id="boundary" inkscape:connector-curvature="0" />
	<circle cx="4" cy="15.5014" r="4" fill="#0" id="circle0"/>
	<circle cx="4" cy="44.2551" r="4" fill="#0" id="circle1"/>
	<circle cx="4" cy="73.0087" r="4" fill="#0" id="circle2"/>
	<circle cx="27.0029" cy="93.1362" r="4" fill="#0" id="circle3"/>
	<circle cx="32.7536" cy="4" r="4" fill="#0" id="circle4"/>
	<circle cx="55.7565" cy="81.6348" r="4" fill="#0" id="circle5"/>
	<circle cx="61.5072" cy="12.6261" r="4" fill="#0" id="circle6"/>
	<circle cx="84.5101" cy="75.8841" r="4" fill="#0" id="circle7"/>
	<circle cx="90.2609" cy="15.5014" r="4" fill="#0" id="circle8"/>
	<circle cx="113.264" cy="78.7594" r="4" fill="#0" id="circle9"/>
	<circle cx="113.264" cy="981.623" r="4" fill="#0" id="circle10"/>
	<circle cx="119.014" cy="15.5014" r="4" fill="#0" id="circle11"/>
	<circle cx="119.014" cy="924.116" r="4" fill="#0" id="circle12"/>
	<circle cx="119.014" cy="952.87" r="4" fill="#0" id="circle13"/>
	<circle cx="124.765" cy="533.067" r="4" fill="#0" id="circle14"/>
	<circle cx="124.765" cy="561.82" r="4" fill="#0" id="circle15"/>
	<circle cx="124.765" cy="590.574" r="4" fill="#0" id="circle16"/>
	<circle cx="124.765" cy="619.328" r="4" fill="#0" id="circle17"/>
	<circle cx="124.765" cy="648.081" r="4" fill="#0" id="circle18"/>
	<circle cx="124.765" cy="676.835" r="4" fill="#0" id="circle19"/>
	<circle cx="124.765" cy="705.588" r="4" fill="#0" id="circle20"/>
	<circle cx="124.765" cy="734.342" r="4" fill="#0" id="circle21"/>
	<circle cx="124.765" cy="763.096" r="4" fill="#0" id="circle22"/>
	<circle cx="124.765" cy="791.849" r="4" fill="#0" id="circle23"/>
	<circle cx="124.765" cy="820.603" r="4" fill="#0" id="circle24"/>
	<circle cx="124.765" cy="849.357" r="4" fill="#0" id="circle25"/>
	<circle cx="124.765" cy="878.11" r="4" fill="#0" id="circle26"/>
	<circle cx="130.516" cy="101.762" r="4" fill="#0" id="circle27"/>
	<circle cx="130.516" cy="475.559" r="4" fill="#0" id="circle28"/>
	<circle cx="130.516" cy="504.313" r="4" fill="#0" id="circle29"/>
	<circle cx="136.267" cy="130.516" r="4" fill="#0" id="circle30"/>
	<circle cx="139.142" cy="159.27" r="4" fill="#0" id="circle31"/>
	<circle cx="139.142" cy="996" r="4" fill="#0" id="circle32"/>
	<circle cx="147.768" cy="4" r="4" fill="#0" id="circle33"/>
	<circle cx="147.768" cy="452.557" r="4" fill="#0" id="circle34"/>
	<circle cx="150.643" cy="188.023" r="4" fill="#0" id="circle35"/>
	<circle cx="156.394" cy="216.777" r="4" fill="#0" id="circle36"/>
	<circle cx="159.27" cy="245.53" r="4" fill="#0" id="circle37"/>
	<circle cx="159.27" cy="274.284" r="4" fill="#0" id="circle38"/>
	<circle cx="159.27" cy="303.038" r="4" fill="#0" id="circle39"/>
	<circle cx="159.27" cy="331.791" r="4" fill="#0" id="circle40"/>
	<circle cx="159.27" cy="360.545" r="4" fill="#0" id="circle41"/>
	<circle cx="159.27" cy="389.299" r="4" fill="#0" id="circle42"/>
	<circle cx="159.27" cy="418.052" r="4" fill="#0" id="circle43"/>
	<circle cx="167.896" cy="996" r="4" fill="#0" id="circle44"/>
	<circle cx="176.522" cy="4" r="4" fill="#0" id="circle45"/>
	<circle cx="196.649" cy="996" r="4" fill="#0" id="circle46"/>
	<circle cx="205.275" cy="4" r="4" fill="#0" id="circle47"/>
	<circle cx="225.403" cy="996" r="4" fill="#0" id="circle48"/>
	<circle cx="231.154" cy="239.78" r="4" fill="#0" id="circle49"/>
	<circle cx="231.154" cy="268.533" r="4" fill="#0" id="circle50"/>
	<circle cx="231.154" cy="297.287" r="4" fill="#0" id="circle51"/>
	<circle cx="231.154" cy="326.041" r="4" fill="#0" id="circle52"/>
	<circle cx="231.154" cy="354.794" r="4" fill="#0" id="circle53"/>
	<circle cx="231.154" cy="383.548" r="4" fill="#0" id="circle54"/>
	<circle cx="231.154" cy="412.301" r="4" fill="#0" id="circle55"/>
	<circle cx="234.029" cy="4" r="4" fill="#0" id="circle56"/>
	<circle cx="236.904" cy="193.774" r="4" fill="#0" id="circle57"/>
	<circle cx="236.904" cy="441.055" r="4" fill="#0" id="circle58"/>
	<circle cx="245.53" cy="469.809" r="4" fill="#0" id="circle59"/>
	<circle cx="248.406" cy="159.27" r="4" fill="#0" id="circle60"/>
	<circle cx="254.157" cy="124.765" r="4" fill="#0" id="circle61"/>
	<circle cx="254.157" cy="996" r="4" fill="#0" id="circle62"/>
	<circle cx="259.907" cy="84.5101" r="4" fill="#0" id="circle63"/>
	<circle cx="259.907" cy="495.687" r="4" fill="#0" id="circle64"/>
	<circle cx="262.783" cy="4" r="4" fill="#0" id="circle65"/>
	<circle cx="265.658" cy="524.441" r="4" fill="#0" id="circle66"/>
	<circle cx="265.658" cy="553.194" r="4" fill="#0" id="circle67"/>
	<circle cx="265.658" cy="581.948" r="4" fill="#0" id="circle68"/>
	<circle cx="265.658" cy="610.701" r="4" fill="#0" id="circle69"/>
	<circle cx="265.658" cy="639.455" r="4" fill="#0" id="circle70"/>
	<circle cx="265.658" cy="668.209" r="4" fill="#0" id="circle71"/>
	<circle cx="265.658" cy="696.962" r="4" fill="#0" id="circle72"/>
	<circle cx="265.658" cy="725.716" r="4" fill="#0" id="circle73"/>
	<circle cx="265.658" cy="754.47" r="4" fill="#0" id="circle74"/>
	<circle cx="265.658" cy="783.223" r="4" fill="#0" id="circle75"/>
	<circle cx="265.658" cy="811.977" r="4" fill="#0" id="circle76"/>
	<circle cx="265.658" cy="840.73" r="4" fill="#0" id="circle77"/>
	<circle cx="265.658" cy="869.484" r="4" fill="#0" id="circle78"/>
	<circle cx="271.409" cy="898.238" r="4" fill="#0" id="circle79"/>
	<circle cx="271.409" cy="926.991" r="4" fill="#0" id="circle80"/>
	<circle cx="271.409" cy="955.745" r="4" fill="#0" id="circle81"/>
	<circle cx="285.786" cy="21.2522" r="4" fill="#0" id="circle82"/>
	<circle cx="288.661" cy="87.3855" r="4" fill="#0" id="circle83"/>
	<circle cx="308.788" cy="38.5043" r="4" fill="#0" id="circle84"/>
	<circle cx="317.414" cy="98.887" r="4" fill="#0" id="circle85"/>
	<circle cx="331.791" cy="55.7565" r="4" fill="#0" id="circle86"/>
	<circle cx="340.417" cy="116.139" r="4" fill="#0" id="circle87"/>
	<circle cx="349.043" cy="78.7594" r="4" fill="#0" id="circle88"/>
	<circle cx="360.545" cy="139.142" r="4" fill="#0" id="circle89"/>
	<circle cx="366.296" cy="101.762" r="4" fill="#0" id="circle90"/>
	<circle cx="377.797" cy="162.145" r="4" fill="#0" id="circle91"/>
	</g>
</svg>