<?xml version="1.0" encoding="UTF-8" standalone="no"?>
<!-- Created with CurveBenchmark -->
<svg
	xmlns:dc="http://purl.org/dc/elements/1.1/"
	xmlns:cc="http://creativecommons.org/ns#"
	xmlns:rdf="http://www.w3.org/1999/02/22-rdf-syntax-ns#"
	xmlns:svg="http://www.w3.org/2000/svg"
	xmlns="http://www.w3.org/2000/svg"
	xmlns:sodipodi="http://sodipodi.sourceforge.net/DTD/sodipodi-0.dtd"
	xmlns:inkscape="http://www.inkscape.org/namespaces/inkscape"
	width="1000"
	height="1000"
	id="svg2"
	version="1.1"
	sodipodi:docname="manifold/nncrust-guitar150.png.txt">
<defs
	id="defs4" />
<metadata
	id="metadata7">
	<rdf:RDF>
		<cc:Work
			rdf:about="">
			<dc:format>image/svg+xml</dc:format>
			<dc:type
				rdf:resource="http://purl.org/dc/dcmitype/StillImage" />
			<dc:title></dc:title>
		</cc:Work>
	</rdf:RDF>
</metadata>
<g
	inkscape:label="Layer 1"
	inkscape:groupmode="layer"
	id="layer1">
	<path style="fill:none;stroke:red;stroke-width:1px;stroke-linecap:butt;stroke-linejoin:miter;stroke-opacity:1" d="M 152.8,28.8 159.886,64.2286 z" id="boundary" inkscape:connector-curvature="0" />
	<path style="fill:none;stroke:red;stroke-width:1px;stroke-linecap:butt;stroke-linejoin:miter;stroke-opacity:1" d="M 152.8,28.8 181.143,7.54286 z" id="boundary" inkscape:connector-curvature="0" />
	<path style="fill:none;stroke:red;stroke-width:1px;stroke-linecap:butt;stroke-linejoin:miter;stroke-opacity:1" d="M 191.771,128 166.971,99.6571 z" id="boundary" inkscape:connector-curvature="0" />
	<path style="fill:none;stroke:red;stroke-width:1px;stroke-linecap:butt;stroke-linejoin:miter;stroke-opacity:1" d="M 159.886,64.2286 166.971,99.6571 z" id="boundary" inkscape:connector-curvature="0" />
	<path style="fill:none;stroke:red;stroke-width:1px;stroke-linecap:butt;stroke-linejoin:miter;stroke-opacity:1" d="M 145.714,496.457 138.629,538.971 z" id="boundary" inkscape:connector-curvature="0" />
	<path style="fill:none;stroke:red;stroke-width:1px;stroke-linecap:butt;stroke-linejoin:miter;stroke-opacity:1" d="M 138.629,538.971 103.2,546.057 z" id="boundary" inkscape:connector-curvature="0" />
	<path style="fill:none;stroke:red;stroke-width:1px;stroke-linecap:butt;stroke-linejoin:miter;stroke-opacity:1" d="M 103.2,546.057 67.7714,546.057 z" id="boundary" inkscape:connector-curvature="0" />
	<path style="fill:none;stroke:red;stroke-width:1px;stroke-linecap:butt;stroke-linejoin:miter;stroke-opacity:1" d="M 145.714,496.457 177.6,478.743 z" id="boundary" inkscape:connector-curvature="0" />
	<path style="fill:none;stroke:red;stroke-width:1px;stroke-linecap:butt;stroke-linejoin:miter;stroke-opacity:1" d="M 188.229,411.429 177.6,478.743 z" id="boundary" inkscape:connector-curvature="0" />
	<path style="fill:none;stroke:red;stroke-width:1px;stroke-linecap:butt;stroke-linejoin:miter;stroke-opacity:1" d="M 67.7714,546.057 39.4286,567.314 z" id="boundary" inkscape:connector-curvature="0" />
	<path style="fill:none;stroke:red;stroke-width:1px;stroke-linecap:butt;stroke-linejoin:miter;stroke-opacity:1" d="M 195.314,163.429 195.314,198.857 z" id="boundary" inkscape:connector-curvature="0" />
	<path style="fill:none;stroke:red;stroke-width:1px;stroke-linecap:butt;stroke-linejoin:miter;stroke-opacity:1" d="M 195.314,163.429 191.771,128 z" id="boundary" inkscape:connector-curvature="0" />
	<path style="fill:none;stroke:red;stroke-width:1px;stroke-linecap:butt;stroke-linejoin:miter;stroke-opacity:1" d="M 195.314,198.857 195.314,234.286 z" id="boundary" inkscape:connector-curvature="0" />
	<path style="fill:none;stroke:red;stroke-width:1px;stroke-linecap:butt;stroke-linejoin:miter;stroke-opacity:1" d="M 195.314,234.286 195.314,269.714 z" id="boundary" inkscape:connector-curvature="0" />
	<path style="fill:none;stroke:red;stroke-width:1px;stroke-linecap:butt;stroke-linejoin:miter;stroke-opacity:1" d="M 188.229,340.571 188.229,376 z" id="boundary" inkscape:connector-curvature="0" />
	<path style="fill:none;stroke:red;stroke-width:1px;stroke-linecap:butt;stroke-linejoin:miter;stroke-opacity:1" d="M 188.229,411.429 248.457,432.686 z" id="boundary" inkscape:connector-curvature="0" />
	<path style="fill:none;stroke:red;stroke-width:1px;stroke-linecap:butt;stroke-linejoin:miter;stroke-opacity:1" d="M 188.229,411.429 188.229,376 z" id="boundary" inkscape:connector-curvature="0" />
	<path style="fill:none;stroke:red;stroke-width:1px;stroke-linecap:butt;stroke-linejoin:miter;stroke-opacity:1" d="M 35.8857,740.914 18.1714,772.8 z" id="boundary" inkscape:connector-curvature="0" />
	<path style="fill:none;stroke:red;stroke-width:1px;stroke-linecap:butt;stroke-linejoin:miter;stroke-opacity:1" d="M 39.4286,567.314 39.4286,602.743 z" id="boundary" inkscape:connector-curvature="0" />
	<path style="fill:none;stroke:red;stroke-width:1px;stroke-linecap:butt;stroke-linejoin:miter;stroke-opacity:1" d="M 18.1714,772.8 4,808.229 z" id="boundary" inkscape:connector-curvature="0" />
	<path style="fill:none;stroke:red;stroke-width:1px;stroke-linecap:butt;stroke-linejoin:miter;stroke-opacity:1" d="M 39.4286,602.743 53.6,638.171 z" id="boundary" inkscape:connector-curvature="0" />
	<path style="fill:none;stroke:red;stroke-width:1px;stroke-linecap:butt;stroke-linejoin:miter;stroke-opacity:1" d="M 4,843.657 4,808.229 z" id="boundary" inkscape:connector-curvature="0" />
	<path style="fill:none;stroke:red;stroke-width:1px;stroke-linecap:butt;stroke-linejoin:miter;stroke-opacity:1" d="M 18.1714,914.514 4,879.086 z" id="boundary" inkscape:connector-curvature="0" />
	<path style="fill:none;stroke:red;stroke-width:1px;stroke-linecap:butt;stroke-linejoin:miter;stroke-opacity:1" d="M 4,879.086 4,843.657 z" id="boundary" inkscape:connector-curvature="0" />
	<path style="fill:none;stroke:red;stroke-width:1px;stroke-linecap:butt;stroke-linejoin:miter;stroke-opacity:1" d="M 39.4286,942.857 18.1714,914.514 z" id="boundary" inkscape:connector-curvature="0" />
	<path style="fill:none;stroke:red;stroke-width:1px;stroke-linecap:butt;stroke-linejoin:miter;stroke-opacity:1" d="M 205.943,996 170.514,996 z" id="boundary" inkscape:connector-curvature="0" />
	<path style="fill:none;stroke:red;stroke-width:1px;stroke-linecap:butt;stroke-linejoin:miter;stroke-opacity:1" d="M 53.6,701.943 35.8857,740.914 z" id="boundary" inkscape:connector-curvature="0" />
	<path style="fill:none;stroke:red;stroke-width:1px;stroke-linecap:butt;stroke-linejoin:miter;stroke-opacity:1" d="M 53.6,638.171 53.6,701.943 z" id="boundary" inkscape:connector-curvature="0" />
	<path style="fill:none;stroke:red;stroke-width:1px;stroke-linecap:butt;stroke-linejoin:miter;stroke-opacity:1" d="M 67.7714,964.114 39.4286,942.857 z" id="boundary" inkscape:connector-curvature="0" />
	<path style="fill:none;stroke:red;stroke-width:1px;stroke-linecap:butt;stroke-linejoin:miter;stroke-opacity:1" d="M 99.6571,981.829 67.7714,964.114 z" id="boundary" inkscape:connector-curvature="0" />
	<path style="fill:none;stroke:red;stroke-width:1px;stroke-linecap:butt;stroke-linejoin:miter;stroke-opacity:1" d="M 170.514,996 135.086,996 z" id="boundary" inkscape:connector-curvature="0" />
	<path style="fill:none;stroke:red;stroke-width:1px;stroke-linecap:butt;stroke-linejoin:miter;stroke-opacity:1" d="M 135.086,996 99.6571,981.829 z" id="boundary" inkscape:connector-curvature="0" />
	<path style="fill:none;stroke:red;stroke-width:1px;stroke-linecap:butt;stroke-linejoin:miter;stroke-opacity:1" d="M 195.314,269.714 195.314,305.143 z" id="boundary" inkscape:connector-curvature="0" />
	<path style="fill:none;stroke:red;stroke-width:1px;stroke-linecap:butt;stroke-linejoin:miter;stroke-opacity:1" d="M 195.314,305.143 188.229,340.571 z" id="boundary" inkscape:connector-curvature="0" />
	<path style="fill:none;stroke:red;stroke-width:1px;stroke-linecap:butt;stroke-linejoin:miter;stroke-opacity:1" d="M 234.286,42.9714 241.371,78.4 z" id="boundary" inkscape:connector-curvature="0" />
	<path style="fill:none;stroke:red;stroke-width:1px;stroke-linecap:butt;stroke-linejoin:miter;stroke-opacity:1" d="M 241.371,78.4 241.371,113.829 z" id="boundary" inkscape:connector-curvature="0" />
	<path style="fill:none;stroke:red;stroke-width:1px;stroke-linecap:butt;stroke-linejoin:miter;stroke-opacity:1" d="M 241.371,149.257 241.371,113.829 z" id="boundary" inkscape:connector-curvature="0" />
	<path style="fill:none;stroke:red;stroke-width:1px;stroke-linecap:butt;stroke-linejoin:miter;stroke-opacity:1" d="M 241.371,184.686 241.371,220.114 z" id="boundary" inkscape:connector-curvature="0" />
	<path style="fill:none;stroke:red;stroke-width:1px;stroke-linecap:butt;stroke-linejoin:miter;stroke-opacity:1" d="M 241.371,149.257 241.371,184.686 z" id="boundary" inkscape:connector-curvature="0" />
	<path style="fill:none;stroke:red;stroke-width:1px;stroke-linecap:butt;stroke-linejoin:miter;stroke-opacity:1" d="M 241.371,220.114 241.371,255.543 z" id="boundary" inkscape:connector-curvature="0" />
	<path style="fill:none;stroke:red;stroke-width:1px;stroke-linecap:butt;stroke-linejoin:miter;stroke-opacity:1" d="M 241.371,255.543 241.371,290.971 z" id="boundary" inkscape:connector-curvature="0" />
	<path style="fill:none;stroke:red;stroke-width:1px;stroke-linecap:butt;stroke-linejoin:miter;stroke-opacity:1" d="M 181.143,7.54286 216.571,4 z" id="boundary" inkscape:connector-curvature="0" />
	<path style="fill:none;stroke:red;stroke-width:1px;stroke-linecap:butt;stroke-linejoin:miter;stroke-opacity:1" d="M 216.571,4 234.286,42.9714 z" id="boundary" inkscape:connector-curvature="0" />
	<path style="fill:none;stroke:red;stroke-width:1px;stroke-linecap:butt;stroke-linejoin:miter;stroke-opacity:1" d="M 248.457,361.829 248.457,397.257 z" id="boundary" inkscape:connector-curvature="0" />
	<path style="fill:none;stroke:red;stroke-width:1px;stroke-linecap:butt;stroke-linejoin:miter;stroke-opacity:1" d="M 248.457,361.829 241.371,326.4 z" id="boundary" inkscape:connector-curvature="0" />
	<path style="fill:none;stroke:red;stroke-width:1px;stroke-linecap:butt;stroke-linejoin:miter;stroke-opacity:1" d="M 241.371,326.4 241.371,290.971 z" id="boundary" inkscape:connector-curvature="0" />
	<path style="fill:none;stroke:red;stroke-width:1px;stroke-linecap:butt;stroke-linejoin:miter;stroke-opacity:1" d="M 248.457,397.257 248.457,432.686 z" id="boundary" inkscape:connector-curvature="0" />
	<path style="fill:none;stroke:red;stroke-width:1px;stroke-linecap:butt;stroke-linejoin:miter;stroke-opacity:1" d="M 248.457,468.114 248.457,432.686 z" id="boundary" inkscape:connector-curvature="0" />
	<path style="fill:none;stroke:red;stroke-width:1px;stroke-linecap:butt;stroke-linejoin:miter;stroke-opacity:1" d="M 248.457,468.114 252,503.543 z" id="boundary" inkscape:connector-curvature="0" />
	<path style="fill:none;stroke:red;stroke-width:1px;stroke-linecap:butt;stroke-linejoin:miter;stroke-opacity:1" d="M 287.429,510.629 252,503.543 z" id="boundary" inkscape:connector-curvature="0" />
	<path style="fill:none;stroke:red;stroke-width:1px;stroke-linecap:butt;stroke-linejoin:miter;stroke-opacity:1" d="M 340.571,616.914 326.4,659.429 z" id="boundary" inkscape:connector-curvature="0" />
	<path style="fill:none;stroke:red;stroke-width:1px;stroke-linecap:butt;stroke-linejoin:miter;stroke-opacity:1" d="M 322.857,521.257 287.429,510.629 z" id="boundary" inkscape:connector-curvature="0" />
	<path style="fill:none;stroke:red;stroke-width:1px;stroke-linecap:butt;stroke-linejoin:miter;stroke-opacity:1" d="M 326.4,659.429 333.486,694.857 z" id="boundary" inkscape:connector-curvature="0" />
	<path style="fill:none;stroke:red;stroke-width:1px;stroke-linecap:butt;stroke-linejoin:miter;stroke-opacity:1" d="M 322.857,521.257 344.114,549.6 z" id="boundary" inkscape:connector-curvature="0" />
	<path style="fill:none;stroke:red;stroke-width:1px;stroke-linecap:butt;stroke-linejoin:miter;stroke-opacity:1" d="M 333.486,694.857 347.657,730.286 z" id="boundary" inkscape:connector-curvature="0" />
	<path style="fill:none;stroke:red;stroke-width:1px;stroke-linecap:butt;stroke-linejoin:miter;stroke-opacity:1" d="M 241.371,996 205.943,996 z" id="boundary" inkscape:connector-curvature="0" />
	<path style="fill:none;stroke:red;stroke-width:1px;stroke-linecap:butt;stroke-linejoin:miter;stroke-opacity:1" d="M 276.8,988.914 241.371,996 z" id="boundary" inkscape:connector-curvature="0" />
	<path style="fill:none;stroke:red;stroke-width:1px;stroke-linecap:butt;stroke-linejoin:miter;stroke-opacity:1" d="M 312.229,974.743 276.8,988.914 z" id="boundary" inkscape:connector-curvature="0" />
	<path style="fill:none;stroke:red;stroke-width:1px;stroke-linecap:butt;stroke-linejoin:miter;stroke-opacity:1" d="M 340.571,616.914 344.114,549.6 z" id="boundary" inkscape:connector-curvature="0" />
	<path style="fill:none;stroke:red;stroke-width:1px;stroke-linecap:butt;stroke-linejoin:miter;stroke-opacity:1" d="M 347.657,730.286 368.914,758.629 z" id="boundary" inkscape:connector-curvature="0" />
	<path style="fill:none;stroke:red;stroke-width:1px;stroke-linecap:butt;stroke-linejoin:miter;stroke-opacity:1" d="M 368.914,758.629 383.086,794.057 z" id="boundary" inkscape:connector-curvature="0" />
	<path style="fill:none;stroke:red;stroke-width:1px;stroke-linecap:butt;stroke-linejoin:miter;stroke-opacity:1" d="M 344.114,953.486 312.229,974.743 z" id="boundary" inkscape:connector-curvature="0" />
	<path style="fill:none;stroke:red;stroke-width:1px;stroke-linecap:butt;stroke-linejoin:miter;stroke-opacity:1" d="M 368.914,921.6 344.114,953.486 z" id="boundary" inkscape:connector-curvature="0" />
	<path style="fill:none;stroke:red;stroke-width:1px;stroke-linecap:butt;stroke-linejoin:miter;stroke-opacity:1" d="M 383.086,794.057 390.171,829.486 z" id="boundary" inkscape:connector-curvature="0" />
	<path style="fill:none;stroke:red;stroke-width:1px;stroke-linecap:butt;stroke-linejoin:miter;stroke-opacity:1" d="M 390.171,829.486 383.086,886.171 z" id="boundary" inkscape:connector-curvature="0" />
	<path style="fill:none;stroke:red;stroke-width:1px;stroke-linecap:butt;stroke-linejoin:miter;stroke-opacity:1" d="M 383.086,886.171 368.914,921.6 z" id="boundary" inkscape:connector-curvature="0" />
	<circle cx="4" cy="808.229" r="4" fill="#0" id="circle0"/>
	<circle cx="4" cy="843.657" r="4" fill="#0" id="circle1"/>
	<circle cx="4" cy="879.086" r="4" fill="#0" id="circle2"/>
	<circle cx="18.1714" cy="772.8" r="4" fill="#0" id="circle3"/>
	<circle cx="18.1714" cy="914.514" r="4" fill="#0" id="circle4"/>
	<circle cx="35.8857" cy="740.914" r="4" fill="#0" id="circle5"/>
	<circle cx="39.4286" cy="567.314" r="4" fill="#0" id="circle6"/>
	<circle cx="39.4286" cy="602.743" r="4" fill="#0" id="circle7"/>
	<circle cx="39.4286" cy="942.857" r="4" fill="#0" id="circle8"/>
	<circle cx="53.6" cy="638.171" r="4" fill="#0" id="circle9"/>
	<circle cx="53.6" cy="701.943" r="4" fill="#0" id="circle10"/>
	<circle cx="67.7714" cy="546.057" r="4" fill="#0" id="circle11"/>
	<circle cx="67.7714" cy="964.114" r="4" fill="#0" id="circle12"/>
	<circle cx="99.6571" cy="981.829" r="4" fill="#0" id="circle13"/>
	<circle cx="103.2" cy="546.057" r="4" fill="#0" id="circle14"/>
	<circle cx="135.086" cy="996" r="4" fill="#0" id="circle15"/>
	<circle cx="138.629" cy="538.971" r="4" fill="#0" id="circle16"/>
	<circle cx="145.714" cy="496.457" r="4" fill="#0" id="circle17"/>
	<circle cx="152.8" cy="28.8" r="4" fill="#0" id="circle18"/>
	<circle cx="159.886" cy="64.2286" r="4" fill="#0" id="circle19"/>
	<circle cx="166.971" cy="99.6571" r="4" fill="#0" id="circle20"/>
	<circle cx="170.514" cy="996" r="4" fill="#0" id="circle21"/>
	<circle cx="177.6" cy="478.743" r="4" fill="#0" id="circle22"/>
	<circle cx="181.143" cy="7.54286" r="4" fill="#0" id="circle23"/>
	<circle cx="188.229" cy="340.571" r="4" fill="#0" id="circle24"/>
	<circle cx="188.229" cy="376" r="4" fill="#0" id="circle25"/>
	<circle cx="188.229" cy="411.429" r="4" fill="#0" id="circle26"/>
	<circle cx="191.771" cy="128" r="4" fill="#0" id="circle27"/>
	<circle cx="195.314" cy="163.429" r="4" fill="#0" id="circle28"/>
	<circle cx="195.314" cy="198.857" r="4" fill="#0" id="circle29"/>
	<circle cx="195.314" cy="234.286" r="4" fill="#0" id="circle30"/>
	<circle cx="195.314" cy="269.714" r="4" fill="#0" id="circle31"/>
	<circle cx="195.314" cy="305.143" r="4" fill="#0" id="circle32"/>
	<circle cx="205.943" cy="996" r="4" fill="#0" id="circle33"/>
	<circle cx="216.571" cy="4" r="4" fill="#0" id="circle34"/>
	<circle cx="234.286" cy="42.9714" r="4" fill="#0" id="circle35"/>
	<circle cx="241.371" cy="78.4" r="4" fill="#0" id="circle36"/>
	<circle cx="241.371" cy="113.829" r="4" fill="#0" id="circle37"/>
	<circle cx="241.371" cy="149.257" r="4" fill="#0" id="circle38"/>
	<circle cx="241.371" cy="184.686" r="4" fill="#0" id="circle39"/>
	<circle cx="241.371" cy="220.114" r="4" fill="#0" id="circle40"/>
	<circle cx="241.371" cy="255.543" r="4" fill="#0" id="circle41"/>
	<circle cx="241.371" cy="290.971" r="4" fill="#0" id="circle42"/>
	<circle cx="241.371" cy="326.4" r="4" fill="#0" id="circle43"/>
	<circle cx="241.371" cy="996" r="4" fill="#0" id="circle44"/>
	<circle cx="248.457" cy="361.829" r="4" fill="#0" id="circle45"/>
	<circle cx="248.457" cy="397.257" r="4" fill="#0" id="circle46"/>
	<circle cx="248.457" cy="432.686" r="4" fill="#0" id="circle47"/>
	<circle cx="248.457" cy="468.114" r="4" fill="#0" id="circle48"/>
	<circle cx="252" cy="503.543" r="4" fill="#0" id="circle49"/>
	<circle cx="276.8" cy="988.914" r="4" fill="#0" id="circle50"/>
	<circle cx="287.429" cy="510.629" r="4" fill="#0" id="circle51"/>
	<circle cx="312.229" cy="974.743" r="4" fill="#0" id="circle52"/>
	<circle cx="322.857" cy="521.257" r="4" fill="#0" id="circle53"/>
	<circle cx="326.4" cy="659.429" r="4" fill="#0" id="circle54"/>
	<circle cx="333.486" cy="694.857" r="4" fill="#0" id="circle55"/>
	<circle cx="340.571" cy="616.914" r="4" fill="#0" id="circle56"/>
	<circle cx="344.114" cy="549.6" r="4" fill="#0" id="circle57"/>
	<circle cx="344.114" cy="953.486" r="4" fill="#0" id="circle58"/>
	<circle cx="347.657" cy="730.286" r="4" fill="#0" id="circle59"/>
	<circle cx="368.914" cy="758.629" r="4" fill="#0" id="circle60"/>
	<circle cx="368.914" cy="921.6" r="4" fill="#0" id="circle61"/>
	<circle cx="383.086" cy="794.057" r="4" fill="#0" id="circle62"/>
	<circle cx="383.086" cy="886.171" r="4" fill="#0" id="circle63"/>
	<circle cx="390.171" cy="829.486" r="4" fill="#0" id="circle64"/>
	</g>
</svg>