<?xml version="1.0" encoding="UTF-8" standalone="no"?>
<!-- Created with CurveBenchmark -->
<svg
	xmlns:dc="http://purl.org/dc/elements/1.1/"
	xmlns:cc="http://creativecommons.org/ns#"
	xmlns:rdf="http://www.w3.org/1999/02/22-rdf-syntax-ns#"
	xmlns:svg="http://www.w3.org/2000/svg"
	xmlns="http://www.w3.org/2000/svg"
	xmlns:sodipodi="http://sodipodi.sourceforge.net/DTD/sodipodi-0.dtd"
	xmlns:inkscape="http://www.inkscape.org/namespaces/inkscape"
	width="1000"
	height="1000"
	id="svg2"
	version="1.1"
	sodipodi:docname="manifold/nncrust-Bone18.png.txt">
<defs
	id="defs4" />
<metadata
	id="metadata7">
	<rdf:RDF>
		<cc:Work
			rdf:about="">
			<dc:format>image/svg+xml</dc:format>
			<dc:type
				rdf:resource="http://purl.org/dc/dcmitype/StillImage" />
			<dc:title></dc:title>
		</cc:Work>
	</rdf:RDF>
</metadata>
<g
	inkscape:label="Layer 1"
	inkscape:groupmode="layer"
	id="layer1">
	<path style="fill:none;stroke:red;stroke-width:1px;stroke-linecap:butt;stroke-linejoin:miter;stroke-opacity:1" d="M 104.391,740.768 87.3756,739.067 z" id="boundary" inkscape:connector-curvature="0" />
	<path style="fill:none;stroke:red;stroke-width:1px;stroke-linecap:butt;stroke-linejoin:miter;stroke-opacity:1" d="M 70.3602,739.067 87.3756,739.067 z" id="boundary" inkscape:connector-curvature="0" />
	<path style="fill:none;stroke:red;stroke-width:1px;stroke-linecap:butt;stroke-linejoin:miter;stroke-opacity:1" d="M 56.7479,750.978 70.3602,739.067 z" id="boundary" inkscape:connector-curvature="0" />
	<path style="fill:none;stroke:red;stroke-width:1px;stroke-linecap:butt;stroke-linejoin:miter;stroke-opacity:1" d="M 119.705,749.276 104.391,740.768 z" id="boundary" inkscape:connector-curvature="0" />
	<path style="fill:none;stroke:red;stroke-width:1px;stroke-linecap:butt;stroke-linejoin:miter;stroke-opacity:1" d="M 225.201,693.125 233.708,676.11 z" id="boundary" inkscape:connector-curvature="0" />
	<path style="fill:none;stroke:red;stroke-width:1px;stroke-linecap:butt;stroke-linejoin:miter;stroke-opacity:1" d="M 255.828,645.482 247.321,662.497 z" id="boundary" inkscape:connector-curvature="0" />
	<path style="fill:none;stroke:red;stroke-width:1px;stroke-linecap:butt;stroke-linejoin:miter;stroke-opacity:1" d="M 247.321,662.497 233.708,676.11 z" id="boundary" inkscape:connector-curvature="0" />
	<path style="fill:none;stroke:red;stroke-width:1px;stroke-linecap:butt;stroke-linejoin:miter;stroke-opacity:1" d="M 213.29,713.544 225.201,693.125 z" id="boundary" inkscape:connector-curvature="0" />
	<path style="fill:none;stroke:red;stroke-width:1px;stroke-linecap:butt;stroke-linejoin:miter;stroke-opacity:1" d="M 213.29,713.544 199.678,727.156 z" id="boundary" inkscape:connector-curvature="0" />
	<path style="fill:none;stroke:red;stroke-width:1px;stroke-linecap:butt;stroke-linejoin:miter;stroke-opacity:1" d="M 191.17,744.172 199.678,727.156 z" id="boundary" inkscape:connector-curvature="0" />
	<path style="fill:none;stroke:red;stroke-width:1px;stroke-linecap:butt;stroke-linejoin:miter;stroke-opacity:1" d="M 44.837,764.59 56.7479,750.978 z" id="boundary" inkscape:connector-curvature="0" />
	<path style="fill:none;stroke:red;stroke-width:1px;stroke-linecap:butt;stroke-linejoin:miter;stroke-opacity:1" d="M 31.2247,776.501 44.837,764.59 z" id="boundary" inkscape:connector-curvature="0" />
	<path style="fill:none;stroke:red;stroke-width:1px;stroke-linecap:butt;stroke-linejoin:miter;stroke-opacity:1" d="M 152.034,764.59 136.72,756.082 z" id="boundary" inkscape:connector-curvature="0" />
	<path style="fill:none;stroke:red;stroke-width:1px;stroke-linecap:butt;stroke-linejoin:miter;stroke-opacity:1" d="M 136.72,756.082 119.705,749.276 z" id="boundary" inkscape:connector-curvature="0" />
	<path style="fill:none;stroke:red;stroke-width:1px;stroke-linecap:butt;stroke-linejoin:miter;stroke-opacity:1" d="M 182.662,761.187 167.348,773.098 z" id="boundary" inkscape:connector-curvature="0" />
	<path style="fill:none;stroke:red;stroke-width:1px;stroke-linecap:butt;stroke-linejoin:miter;stroke-opacity:1" d="M 167.348,773.098 152.034,764.59 z" id="boundary" inkscape:connector-curvature="0" />
	<path style="fill:none;stroke:red;stroke-width:1px;stroke-linecap:butt;stroke-linejoin:miter;stroke-opacity:1" d="M 191.17,744.172 182.662,761.187 z" id="boundary" inkscape:connector-curvature="0" />
	<path style="fill:none;stroke:red;stroke-width:1px;stroke-linecap:butt;stroke-linejoin:miter;stroke-opacity:1" d="M 361.324,471.925 352.816,488.94 z" id="boundary" inkscape:connector-curvature="0" />
	<path style="fill:none;stroke:red;stroke-width:1px;stroke-linecap:butt;stroke-linejoin:miter;stroke-opacity:1" d="M 368.13,643.78 354.518,655.691 z" id="boundary" inkscape:connector-curvature="0" />
	<path style="fill:none;stroke:red;stroke-width:1px;stroke-linecap:butt;stroke-linejoin:miter;stroke-opacity:1" d="M 301.77,574.017 289.859,594.436 z" id="boundary" inkscape:connector-curvature="0" />
	<path style="fill:none;stroke:red;stroke-width:1px;stroke-linecap:butt;stroke-linejoin:miter;stroke-opacity:1" d="M 289.859,594.436 276.247,608.048 z" id="boundary" inkscape:connector-curvature="0" />
	<path style="fill:none;stroke:red;stroke-width:1px;stroke-linecap:butt;stroke-linejoin:miter;stroke-opacity:1" d="M 267.739,625.063 276.247,608.048 z" id="boundary" inkscape:connector-curvature="0" />
	<path style="fill:none;stroke:red;stroke-width:1px;stroke-linecap:butt;stroke-linejoin:miter;stroke-opacity:1" d="M 267.739,625.063 255.828,645.482 z" id="boundary" inkscape:connector-curvature="0" />
	<path style="fill:none;stroke:red;stroke-width:1px;stroke-linecap:butt;stroke-linejoin:miter;stroke-opacity:1" d="M 332.398,526.374 346.01,512.762 z" id="boundary" inkscape:connector-curvature="0" />
	<path style="fill:none;stroke:red;stroke-width:1px;stroke-linecap:butt;stroke-linejoin:miter;stroke-opacity:1" d="M 352.816,488.94 346.01,512.762 z" id="boundary" inkscape:connector-curvature="0" />
	<path style="fill:none;stroke:red;stroke-width:1px;stroke-linecap:butt;stroke-linejoin:miter;stroke-opacity:1" d="M 301.77,574.017 315.383,560.405 z" id="boundary" inkscape:connector-curvature="0" />
	<path style="fill:none;stroke:red;stroke-width:1px;stroke-linecap:butt;stroke-linejoin:miter;stroke-opacity:1" d="M 323.89,543.389 315.383,560.405 z" id="boundary" inkscape:connector-curvature="0" />
	<path style="fill:none;stroke:red;stroke-width:1px;stroke-linecap:butt;stroke-linejoin:miter;stroke-opacity:1" d="M 332.398,526.374 323.89,543.389 z" id="boundary" inkscape:connector-curvature="0" />
	<path style="fill:none;stroke:red;stroke-width:1px;stroke-linecap:butt;stroke-linejoin:miter;stroke-opacity:1" d="M 303.472,732.261 291.561,745.873 z" id="boundary" inkscape:connector-curvature="0" />
	<path style="fill:none;stroke:red;stroke-width:1px;stroke-linecap:butt;stroke-linejoin:miter;stroke-opacity:1" d="M 311.979,715.245 303.472,732.261 z" id="boundary" inkscape:connector-curvature="0" />
	<path style="fill:none;stroke:red;stroke-width:1px;stroke-linecap:butt;stroke-linejoin:miter;stroke-opacity:1" d="M 283.053,762.889 291.561,745.873 z" id="boundary" inkscape:connector-curvature="0" />
	<path style="fill:none;stroke:red;stroke-width:1px;stroke-linecap:butt;stroke-linejoin:miter;stroke-opacity:1" d="M 311.979,715.245 320.487,698.23 z" id="boundary" inkscape:connector-curvature="0" />
	<path style="fill:none;stroke:red;stroke-width:1px;stroke-linecap:butt;stroke-linejoin:miter;stroke-opacity:1" d="M 320.487,698.23 334.099,686.319 z" id="boundary" inkscape:connector-curvature="0" />
	<path style="fill:none;stroke:red;stroke-width:1px;stroke-linecap:butt;stroke-linejoin:miter;stroke-opacity:1" d="M 334.099,686.319 346.01,672.707 z" id="boundary" inkscape:connector-curvature="0" />
	<path style="fill:none;stroke:red;stroke-width:1px;stroke-linecap:butt;stroke-linejoin:miter;stroke-opacity:1" d="M 354.518,655.691 346.01,672.707 z" id="boundary" inkscape:connector-curvature="0" />
	<path style="fill:none;stroke:red;stroke-width:1px;stroke-linecap:butt;stroke-linejoin:miter;stroke-opacity:1" d="M 283.053,762.889 274.545,779.904 z" id="boundary" inkscape:connector-curvature="0" />
	<path style="fill:none;stroke:red;stroke-width:1px;stroke-linecap:butt;stroke-linejoin:miter;stroke-opacity:1" d="M 4,803.726 17.6123,790.113 z" id="boundary" inkscape:connector-curvature="0" />
	<path style="fill:none;stroke:red;stroke-width:1px;stroke-linecap:butt;stroke-linejoin:miter;stroke-opacity:1" d="M 12.5077,819.039 4,803.726 z" id="boundary" inkscape:connector-curvature="0" />
	<path style="fill:none;stroke:red;stroke-width:1px;stroke-linecap:butt;stroke-linejoin:miter;stroke-opacity:1" d="M 12.5077,819.039 12.5077,836.055 z" id="boundary" inkscape:connector-curvature="0" />
	<path style="fill:none;stroke:red;stroke-width:1px;stroke-linecap:butt;stroke-linejoin:miter;stroke-opacity:1" d="M 21.0154,851.369 12.5077,836.055 z" id="boundary" inkscape:connector-curvature="0" />
	<path style="fill:none;stroke:red;stroke-width:1px;stroke-linecap:butt;stroke-linejoin:miter;stroke-opacity:1" d="M 21.0154,851.369 26.1201,868.384 z" id="boundary" inkscape:connector-curvature="0" />
	<path style="fill:none;stroke:red;stroke-width:1px;stroke-linecap:butt;stroke-linejoin:miter;stroke-opacity:1" d="M 39.7324,880.295 26.1201,868.384 z" id="boundary" inkscape:connector-curvature="0" />
	<path style="fill:none;stroke:red;stroke-width:1px;stroke-linecap:butt;stroke-linejoin:miter;stroke-opacity:1" d="M 39.7324,880.295 56.7479,885.4 z" id="boundary" inkscape:connector-curvature="0" />
	<path style="fill:none;stroke:red;stroke-width:1px;stroke-linecap:butt;stroke-linejoin:miter;stroke-opacity:1" d="M 73.7633,885.4 56.7479,885.4 z" id="boundary" inkscape:connector-curvature="0" />
	<path style="fill:none;stroke:red;stroke-width:1px;stroke-linecap:butt;stroke-linejoin:miter;stroke-opacity:1" d="M 17.6123,790.113 31.2247,776.501 z" id="boundary" inkscape:connector-curvature="0" />
	<path style="fill:none;stroke:red;stroke-width:1px;stroke-linecap:butt;stroke-linejoin:miter;stroke-opacity:1" d="M 73.7633,885.4 90.7787,885.4 z" id="boundary" inkscape:connector-curvature="0" />
	<path style="fill:none;stroke:red;stroke-width:1px;stroke-linecap:butt;stroke-linejoin:miter;stroke-opacity:1" d="M 97.5849,922.834 97.5849,939.849 z" id="boundary" inkscape:connector-curvature="0" />
	<path style="fill:none;stroke:red;stroke-width:1px;stroke-linecap:butt;stroke-linejoin:miter;stroke-opacity:1" d="M 106.093,955.163 97.5849,939.849 z" id="boundary" inkscape:connector-curvature="0" />
	<path style="fill:none;stroke:red;stroke-width:1px;stroke-linecap:butt;stroke-linejoin:miter;stroke-opacity:1" d="M 90.7787,885.4 106.093,893.907 z" id="boundary" inkscape:connector-curvature="0" />
	<path style="fill:none;stroke:red;stroke-width:1px;stroke-linecap:butt;stroke-linejoin:miter;stroke-opacity:1" d="M 106.093,893.907 97.5849,922.834 z" id="boundary" inkscape:connector-curvature="0" />
	<path style="fill:none;stroke:red;stroke-width:1px;stroke-linecap:butt;stroke-linejoin:miter;stroke-opacity:1" d="M 129.914,978.985 114.6,970.477 z" id="boundary" inkscape:connector-curvature="0" />
	<path style="fill:none;stroke:red;stroke-width:1px;stroke-linecap:butt;stroke-linejoin:miter;stroke-opacity:1" d="M 114.6,970.477 106.093,955.163 z" id="boundary" inkscape:connector-curvature="0" />
	<path style="fill:none;stroke:red;stroke-width:1px;stroke-linecap:butt;stroke-linejoin:miter;stroke-opacity:1" d="M 162.244,987.492 145.228,987.492 z" id="boundary" inkscape:connector-curvature="0" />
	<path style="fill:none;stroke:red;stroke-width:1px;stroke-linecap:butt;stroke-linejoin:miter;stroke-opacity:1" d="M 145.228,987.492 129.914,978.985 z" id="boundary" inkscape:connector-curvature="0" />
	<path style="fill:none;stroke:red;stroke-width:1px;stroke-linecap:butt;stroke-linejoin:miter;stroke-opacity:1" d="M 243.918,825.846 252.425,808.83 z" id="boundary" inkscape:connector-curvature="0" />
	<path style="fill:none;stroke:red;stroke-width:1px;stroke-linecap:butt;stroke-linejoin:miter;stroke-opacity:1" d="M 247.321,842.861 243.918,825.846 z" id="boundary" inkscape:connector-curvature="0" />
	<path style="fill:none;stroke:red;stroke-width:1px;stroke-linecap:butt;stroke-linejoin:miter;stroke-opacity:1" d="M 247.321,842.861 255.828,858.175 z" id="boundary" inkscape:connector-curvature="0" />
	<path style="fill:none;stroke:red;stroke-width:1px;stroke-linecap:butt;stroke-linejoin:miter;stroke-opacity:1" d="M 260.933,875.19 255.828,858.175 z" id="boundary" inkscape:connector-curvature="0" />
	<path style="fill:none;stroke:red;stroke-width:1px;stroke-linecap:butt;stroke-linejoin:miter;stroke-opacity:1" d="M 260.933,791.815 252.425,808.83 z" id="boundary" inkscape:connector-curvature="0" />
	<path style="fill:none;stroke:red;stroke-width:1px;stroke-linecap:butt;stroke-linejoin:miter;stroke-opacity:1" d="M 260.933,875.19 260.933,892.206 z" id="boundary" inkscape:connector-curvature="0" />
	<path style="fill:none;stroke:red;stroke-width:1px;stroke-linecap:butt;stroke-linejoin:miter;stroke-opacity:1" d="M 269.441,924.535 260.933,909.221 z" id="boundary" inkscape:connector-curvature="0" />
	<path style="fill:none;stroke:red;stroke-width:1px;stroke-linecap:butt;stroke-linejoin:miter;stroke-opacity:1" d="M 260.933,909.221 260.933,892.206 z" id="boundary" inkscape:connector-curvature="0" />
	<path style="fill:none;stroke:red;stroke-width:1px;stroke-linecap:butt;stroke-linejoin:miter;stroke-opacity:1" d="M 260.933,791.815 274.545,779.904 z" id="boundary" inkscape:connector-curvature="0" />
	<path style="fill:none;stroke:red;stroke-width:1px;stroke-linecap:butt;stroke-linejoin:miter;stroke-opacity:1" d="M 192.871,987.492 177.557,996 z" id="boundary" inkscape:connector-curvature="0" />
	<path style="fill:none;stroke:red;stroke-width:1px;stroke-linecap:butt;stroke-linejoin:miter;stroke-opacity:1" d="M 177.557,996 162.244,987.492 z" id="boundary" inkscape:connector-curvature="0" />
	<path style="fill:none;stroke:red;stroke-width:1px;stroke-linecap:butt;stroke-linejoin:miter;stroke-opacity:1" d="M 192.871,987.492 209.887,987.492 z" id="boundary" inkscape:connector-curvature="0" />
	<path style="fill:none;stroke:red;stroke-width:1px;stroke-linecap:butt;stroke-linejoin:miter;stroke-opacity:1" d="M 223.499,975.581 209.887,987.492 z" id="boundary" inkscape:connector-curvature="0" />
	<path style="fill:none;stroke:red;stroke-width:1px;stroke-linecap:butt;stroke-linejoin:miter;stroke-opacity:1" d="M 264.336,943.252 269.441,924.535 z" id="boundary" inkscape:connector-curvature="0" />
	<path style="fill:none;stroke:red;stroke-width:1px;stroke-linecap:butt;stroke-linejoin:miter;stroke-opacity:1" d="M 264.336,943.252 250.724,953.461 z" id="boundary" inkscape:connector-curvature="0" />
	<path style="fill:none;stroke:red;stroke-width:1px;stroke-linecap:butt;stroke-linejoin:miter;stroke-opacity:1" d="M 223.499,975.581 235.41,961.969 z" id="boundary" inkscape:connector-curvature="0" />
	<path style="fill:none;stroke:red;stroke-width:1px;stroke-linecap:butt;stroke-linejoin:miter;stroke-opacity:1" d="M 235.41,961.969 250.724,953.461 z" id="boundary" inkscape:connector-curvature="0" />
	<path style="fill:none;stroke:red;stroke-width:1px;stroke-linecap:butt;stroke-linejoin:miter;stroke-opacity:1" d="M 562.106,169.05 574.017,140.123 z" id="boundary" inkscape:connector-curvature="0" />
	<path style="fill:none;stroke:red;stroke-width:1px;stroke-linecap:butt;stroke-linejoin:miter;stroke-opacity:1" d="M 582.525,114.6 574.017,140.123 z" id="boundary" inkscape:connector-curvature="0" />
	<path style="fill:none;stroke:red;stroke-width:1px;stroke-linecap:butt;stroke-linejoin:miter;stroke-opacity:1" d="M 548.494,182.662 562.106,169.05 z" id="boundary" inkscape:connector-curvature="0" />
	<path style="fill:none;stroke:red;stroke-width:1px;stroke-linecap:butt;stroke-linejoin:miter;stroke-opacity:1" d="M 640.377,235.41 626.765,247.321 z" id="boundary" inkscape:connector-curvature="0" />
	<path style="fill:none;stroke:red;stroke-width:1px;stroke-linecap:butt;stroke-linejoin:miter;stroke-opacity:1" d="M 608.048,55.0463 625.063,46.5386 z" id="boundary" inkscape:connector-curvature="0" />
	<path style="fill:none;stroke:red;stroke-width:1px;stroke-linecap:butt;stroke-linejoin:miter;stroke-opacity:1" d="M 599.54,72.0617 608.048,55.0463 z" id="boundary" inkscape:connector-curvature="0" />
	<path style="fill:none;stroke:red;stroke-width:1px;stroke-linecap:butt;stroke-linejoin:miter;stroke-opacity:1" d="M 638.676,32.9262 625.063,46.5386 z" id="boundary" inkscape:connector-curvature="0" />
	<path style="fill:none;stroke:red;stroke-width:1px;stroke-linecap:butt;stroke-linejoin:miter;stroke-opacity:1" d="M 591.033,97.5849 599.54,72.0617 z" id="boundary" inkscape:connector-curvature="0" />
	<path style="fill:none;stroke:red;stroke-width:1px;stroke-linecap:butt;stroke-linejoin:miter;stroke-opacity:1" d="M 591.033,97.5849 582.525,114.6 z" id="boundary" inkscape:connector-curvature="0" />
	<path style="fill:none;stroke:red;stroke-width:1px;stroke-linecap:butt;stroke-linejoin:miter;stroke-opacity:1" d="M 548.494,182.662 536.583,203.081 z" id="boundary" inkscape:connector-curvature="0" />
	<path style="fill:none;stroke:red;stroke-width:1px;stroke-linecap:butt;stroke-linejoin:miter;stroke-opacity:1" d="M 512.762,254.127 519.568,237.111 z" id="boundary" inkscape:connector-curvature="0" />
	<path style="fill:none;stroke:red;stroke-width:1px;stroke-linecap:butt;stroke-linejoin:miter;stroke-opacity:1" d="M 512.762,254.127 499.149,266.038 z" id="boundary" inkscape:connector-curvature="0" />
	<path style="fill:none;stroke:red;stroke-width:1px;stroke-linecap:butt;stroke-linejoin:miter;stroke-opacity:1" d="M 490.642,283.053 499.149,266.038 z" id="boundary" inkscape:connector-curvature="0" />
	<path style="fill:none;stroke:red;stroke-width:1px;stroke-linecap:butt;stroke-linejoin:miter;stroke-opacity:1" d="M 528.075,220.096 519.568,237.111 z" id="boundary" inkscape:connector-curvature="0" />
	<path style="fill:none;stroke:red;stroke-width:1px;stroke-linecap:butt;stroke-linejoin:miter;stroke-opacity:1" d="M 528.075,220.096 536.583,203.081 z" id="boundary" inkscape:connector-curvature="0" />
	<path style="fill:none;stroke:red;stroke-width:1px;stroke-linecap:butt;stroke-linejoin:miter;stroke-opacity:1" d="M 618.257,264.336 606.346,277.949 z" id="boundary" inkscape:connector-curvature="0" />
	<path style="fill:none;stroke:red;stroke-width:1px;stroke-linecap:butt;stroke-linejoin:miter;stroke-opacity:1" d="M 626.765,247.321 618.257,264.336 z" id="boundary" inkscape:connector-curvature="0" />
	<path style="fill:none;stroke:red;stroke-width:1px;stroke-linecap:butt;stroke-linejoin:miter;stroke-opacity:1" d="M 597.839,294.964 606.346,277.949 z" id="boundary" inkscape:connector-curvature="0" />
	<path style="fill:none;stroke:red;stroke-width:1px;stroke-linecap:butt;stroke-linejoin:miter;stroke-opacity:1" d="M 669.304,15.9108 684.617,4 z" id="boundary" inkscape:connector-curvature="0" />
	<path style="fill:none;stroke:red;stroke-width:1px;stroke-linecap:butt;stroke-linejoin:miter;stroke-opacity:1" d="M 684.617,4 701.633,10.8062 z" id="boundary" inkscape:connector-curvature="0" />
	<path style="fill:none;stroke:red;stroke-width:1px;stroke-linecap:butt;stroke-linejoin:miter;stroke-opacity:1" d="M 669.304,15.9108 653.99,24.4185 z" id="boundary" inkscape:connector-curvature="0" />
	<path style="fill:none;stroke:red;stroke-width:1px;stroke-linecap:butt;stroke-linejoin:miter;stroke-opacity:1" d="M 638.676,32.9262 653.99,24.4185 z" id="boundary" inkscape:connector-curvature="0" />
	<path style="fill:none;stroke:red;stroke-width:1px;stroke-linecap:butt;stroke-linejoin:miter;stroke-opacity:1" d="M 720.35,39.7324 720.35,56.7479 z" id="boundary" inkscape:connector-curvature="0" />
	<path style="fill:none;stroke:red;stroke-width:1px;stroke-linecap:butt;stroke-linejoin:miter;stroke-opacity:1" d="M 711.842,24.4185 720.35,39.7324 z" id="boundary" inkscape:connector-curvature="0" />
	<path style="fill:none;stroke:red;stroke-width:1px;stroke-linecap:butt;stroke-linejoin:miter;stroke-opacity:1" d="M 720.35,56.7479 720.35,73.7633 z" id="boundary" inkscape:connector-curvature="0" />
	<path style="fill:none;stroke:red;stroke-width:1px;stroke-linecap:butt;stroke-linejoin:miter;stroke-opacity:1" d="M 701.633,10.8062 711.842,24.4185 z" id="boundary" inkscape:connector-curvature="0" />
	<path style="fill:none;stroke:red;stroke-width:1px;stroke-linecap:butt;stroke-linejoin:miter;stroke-opacity:1" d="M 720.35,73.7633 716.947,99.2864 z" id="boundary" inkscape:connector-curvature="0" />
	<path style="fill:none;stroke:red;stroke-width:1px;stroke-linecap:butt;stroke-linejoin:miter;stroke-opacity:1" d="M 665.901,201.379 669.304,179.259 z" id="boundary" inkscape:connector-curvature="0" />
	<path style="fill:none;stroke:red;stroke-width:1px;stroke-linecap:butt;stroke-linejoin:miter;stroke-opacity:1" d="M 665.901,201.379 652.288,213.29 z" id="boundary" inkscape:connector-curvature="0" />
	<path style="fill:none;stroke:red;stroke-width:1px;stroke-linecap:butt;stroke-linejoin:miter;stroke-opacity:1" d="M 640.377,235.41 652.288,213.29 z" id="boundary" inkscape:connector-curvature="0" />
	<path style="fill:none;stroke:red;stroke-width:1px;stroke-linecap:butt;stroke-linejoin:miter;stroke-opacity:1" d="M 708.439,116.302 699.931,133.317 z" id="boundary" inkscape:connector-curvature="0" />
	<path style="fill:none;stroke:red;stroke-width:1px;stroke-linecap:butt;stroke-linejoin:miter;stroke-opacity:1" d="M 699.931,133.317 691.424,150.333 z" id="boundary" inkscape:connector-curvature="0" />
	<path style="fill:none;stroke:red;stroke-width:1px;stroke-linecap:butt;stroke-linejoin:miter;stroke-opacity:1" d="M 691.424,150.333 677.811,162.244 z" id="boundary" inkscape:connector-curvature="0" />
	<path style="fill:none;stroke:red;stroke-width:1px;stroke-linecap:butt;stroke-linejoin:miter;stroke-opacity:1" d="M 669.304,179.259 677.811,162.244 z" id="boundary" inkscape:connector-curvature="0" />
	<path style="fill:none;stroke:red;stroke-width:1px;stroke-linecap:butt;stroke-linejoin:miter;stroke-opacity:1" d="M 716.947,99.2864 708.439,116.302 z" id="boundary" inkscape:connector-curvature="0" />
	<path style="fill:none;stroke:red;stroke-width:1px;stroke-linecap:butt;stroke-linejoin:miter;stroke-opacity:1" d="M 386.847,437.894 400.46,424.281 z" id="boundary" inkscape:connector-curvature="0" />
	<path style="fill:none;stroke:red;stroke-width:1px;stroke-linecap:butt;stroke-linejoin:miter;stroke-opacity:1" d="M 408.967,407.266 400.46,424.281 z" id="boundary" inkscape:connector-curvature="0" />
	<path style="fill:none;stroke:red;stroke-width:1px;stroke-linecap:butt;stroke-linejoin:miter;stroke-opacity:1" d="M 361.324,471.925 374.937,458.312 z" id="boundary" inkscape:connector-curvature="0" />
	<path style="fill:none;stroke:red;stroke-width:1px;stroke-linecap:butt;stroke-linejoin:miter;stroke-opacity:1" d="M 386.847,437.894 374.937,458.312 z" id="boundary" inkscape:connector-curvature="0" />
	<path style="fill:none;stroke:red;stroke-width:1px;stroke-linecap:butt;stroke-linejoin:miter;stroke-opacity:1" d="M 417.475,390.25 408.967,407.266 z" id="boundary" inkscape:connector-curvature="0" />
	<path style="fill:none;stroke:red;stroke-width:1px;stroke-linecap:butt;stroke-linejoin:miter;stroke-opacity:1" d="M 431.087,376.638 439.595,359.623 z" id="boundary" inkscape:connector-curvature="0" />
	<path style="fill:none;stroke:red;stroke-width:1px;stroke-linecap:butt;stroke-linejoin:miter;stroke-opacity:1" d="M 448.103,342.607 439.595,359.623 z" id="boundary" inkscape:connector-curvature="0" />
	<path style="fill:none;stroke:red;stroke-width:1px;stroke-linecap:butt;stroke-linejoin:miter;stroke-opacity:1" d="M 431.087,376.638 417.475,390.25 z" id="boundary" inkscape:connector-curvature="0" />
	<path style="fill:none;stroke:red;stroke-width:1px;stroke-linecap:butt;stroke-linejoin:miter;stroke-opacity:1" d="M 385.146,609.75 376.638,626.765 z" id="boundary" inkscape:connector-curvature="0" />
	<path style="fill:none;stroke:red;stroke-width:1px;stroke-linecap:butt;stroke-linejoin:miter;stroke-opacity:1" d="M 405.564,579.122 397.057,596.137 z" id="boundary" inkscape:connector-curvature="0" />
	<path style="fill:none;stroke:red;stroke-width:1px;stroke-linecap:butt;stroke-linejoin:miter;stroke-opacity:1" d="M 368.13,643.78 376.638,626.765 z" id="boundary" inkscape:connector-curvature="0" />
	<path style="fill:none;stroke:red;stroke-width:1px;stroke-linecap:butt;stroke-linejoin:miter;stroke-opacity:1" d="M 385.146,609.75 397.057,596.137 z" id="boundary" inkscape:connector-curvature="0" />
	<path style="fill:none;stroke:red;stroke-width:1px;stroke-linecap:butt;stroke-linejoin:miter;stroke-opacity:1" d="M 427.684,550.196 436.192,533.18 z" id="boundary" inkscape:connector-curvature="0" />
	<path style="fill:none;stroke:red;stroke-width:1px;stroke-linecap:butt;stroke-linejoin:miter;stroke-opacity:1" d="M 427.684,550.196 414.072,562.106 z" id="boundary" inkscape:connector-curvature="0" />
	<path style="fill:none;stroke:red;stroke-width:1px;stroke-linecap:butt;stroke-linejoin:miter;stroke-opacity:1" d="M 414.072,562.106 405.564,579.122 z" id="boundary" inkscape:connector-curvature="0" />
	<path style="fill:none;stroke:red;stroke-width:1px;stroke-linecap:butt;stroke-linejoin:miter;stroke-opacity:1" d="M 448.103,511.06 436.192,533.18 z" id="boundary" inkscape:connector-curvature="0" />
	<path style="fill:none;stroke:red;stroke-width:1px;stroke-linecap:butt;stroke-linejoin:miter;stroke-opacity:1" d="M 468.521,313.681 482.134,300.069 z" id="boundary" inkscape:connector-curvature="0" />
	<path style="fill:none;stroke:red;stroke-width:1px;stroke-linecap:butt;stroke-linejoin:miter;stroke-opacity:1" d="M 461.715,330.696 468.521,313.681 z" id="boundary" inkscape:connector-curvature="0" />
	<path style="fill:none;stroke:red;stroke-width:1px;stroke-linecap:butt;stroke-linejoin:miter;stroke-opacity:1" d="M 490.642,283.053 482.134,300.069 z" id="boundary" inkscape:connector-curvature="0" />
	<path style="fill:none;stroke:red;stroke-width:1px;stroke-linecap:butt;stroke-linejoin:miter;stroke-opacity:1" d="M 546.792,371.533 538.285,388.549 z" id="boundary" inkscape:connector-curvature="0" />
	<path style="fill:none;stroke:red;stroke-width:1px;stroke-linecap:butt;stroke-linejoin:miter;stroke-opacity:1" d="M 555.3,354.518 546.792,371.533 z" id="boundary" inkscape:connector-curvature="0" />
	<path style="fill:none;stroke:red;stroke-width:1px;stroke-linecap:butt;stroke-linejoin:miter;stroke-opacity:1" d="M 461.715,330.696 448.103,342.607 z" id="boundary" inkscape:connector-curvature="0" />
	<path style="fill:none;stroke:red;stroke-width:1px;stroke-linecap:butt;stroke-linejoin:miter;stroke-opacity:1" d="M 589.331,311.979 597.839,294.964 z" id="boundary" inkscape:connector-curvature="0" />
	<path style="fill:none;stroke:red;stroke-width:1px;stroke-linecap:butt;stroke-linejoin:miter;stroke-opacity:1" d="M 589.331,311.979 575.719,323.89 z" id="boundary" inkscape:connector-curvature="0" />
	<path style="fill:none;stroke:red;stroke-width:1px;stroke-linecap:butt;stroke-linejoin:miter;stroke-opacity:1" d="M 567.211,340.906 555.3,354.518 z" id="boundary" inkscape:connector-curvature="0" />
	<path style="fill:none;stroke:red;stroke-width:1px;stroke-linecap:butt;stroke-linejoin:miter;stroke-opacity:1" d="M 567.211,340.906 575.719,323.89 z" id="boundary" inkscape:connector-curvature="0" />
	<path style="fill:none;stroke:red;stroke-width:1px;stroke-linecap:butt;stroke-linejoin:miter;stroke-opacity:1" d="M 470.223,482.134 456.611,494.045 z" id="boundary" inkscape:connector-curvature="0" />
	<path style="fill:none;stroke:red;stroke-width:1px;stroke-linecap:butt;stroke-linejoin:miter;stroke-opacity:1" d="M 448.103,511.06 456.611,494.045 z" id="boundary" inkscape:connector-curvature="0" />
	<path style="fill:none;stroke:red;stroke-width:1px;stroke-linecap:butt;stroke-linejoin:miter;stroke-opacity:1" d="M 470.223,482.134 482.134,468.521 z" id="boundary" inkscape:connector-curvature="0" />
	<path style="fill:none;stroke:red;stroke-width:1px;stroke-linecap:butt;stroke-linejoin:miter;stroke-opacity:1" d="M 482.134,468.521 495.746,456.611 z" id="boundary" inkscape:connector-curvature="0" />
	<path style="fill:none;stroke:red;stroke-width:1px;stroke-linecap:butt;stroke-linejoin:miter;stroke-opacity:1" d="M 524.672,400.46 538.285,388.549 z" id="boundary" inkscape:connector-curvature="0" />
	<path style="fill:none;stroke:red;stroke-width:1px;stroke-linecap:butt;stroke-linejoin:miter;stroke-opacity:1" d="M 512.762,422.58 524.672,400.46 z" id="boundary" inkscape:connector-curvature="0" />
	<path style="fill:none;stroke:red;stroke-width:1px;stroke-linecap:butt;stroke-linejoin:miter;stroke-opacity:1" d="M 495.746,456.611 504.254,439.595 z" id="boundary" inkscape:connector-curvature="0" />
	<path style="fill:none;stroke:red;stroke-width:1px;stroke-linecap:butt;stroke-linejoin:miter;stroke-opacity:1" d="M 504.254,439.595 512.762,422.58 z" id="boundary" inkscape:connector-curvature="0" />
	<circle cx="4" cy="803.726" r="4" fill="#0" id="circle0"/>
	<circle cx="12.5077" cy="819.039" r="4" fill="#0" id="circle1"/>
	<circle cx="12.5077" cy="836.055" r="4" fill="#0" id="circle2"/>
	<circle cx="17.6123" cy="790.113" r="4" fill="#0" id="circle3"/>
	<circle cx="21.0154" cy="851.369" r="4" fill="#0" id="circle4"/>
	<circle cx="26.1201" cy="868.384" r="4" fill="#0" id="circle5"/>
	<circle cx="31.2247" cy="776.501" r="4" fill="#0" id="circle6"/>
	<circle cx="39.7324" cy="880.295" r="4" fill="#0" id="circle7"/>
	<circle cx="44.837" cy="764.59" r="4" fill="#0" id="circle8"/>
	<circle cx="56.7479" cy="750.978" r="4" fill="#0" id="circle9"/>
	<circle cx="56.7479" cy="885.4" r="4" fill="#0" id="circle10"/>
	<circle cx="70.3602" cy="739.067" r="4" fill="#0" id="circle11"/>
	<circle cx="73.7633" cy="885.4" r="4" fill="#0" id="circle12"/>
	<circle cx="87.3756" cy="739.067" r="4" fill="#0" id="circle13"/>
	<circle cx="90.7787" cy="885.4" r="4" fill="#0" id="circle14"/>
	<circle cx="97.5849" cy="922.834" r="4" fill="#0" id="circle15"/>
	<circle cx="97.5849" cy="939.849" r="4" fill="#0" id="circle16"/>
	<circle cx="104.391" cy="740.768" r="4" fill="#0" id="circle17"/>
	<circle cx="106.093" cy="893.907" r="4" fill="#0" id="circle18"/>
	<circle cx="106.093" cy="955.163" r="4" fill="#0" id="circle19"/>
	<circle cx="114.6" cy="970.477" r="4" fill="#0" id="circle20"/>
	<circle cx="119.705" cy="749.276" r="4" fill="#0" id="circle21"/>
	<circle cx="129.914" cy="978.985" r="4" fill="#0" id="circle22"/>
	<circle cx="136.72" cy="756.082" r="4" fill="#0" id="circle23"/>
	<circle cx="145.228" cy="987.492" r="4" fill="#0" id="circle24"/>
	<circle cx="152.034" cy="764.59" r="4" fill="#0" id="circle25"/>
	<circle cx="162.244" cy="987.492" r="4" fill="#0" id="circle26"/>
	<circle cx="167.348" cy="773.098" r="4" fill="#0" id="circle27"/>
	<circle cx="177.557" cy="996" r="4" fill="#0" id="circle28"/>
	<circle cx="182.662" cy="761.187" r="4" fill="#0" id="circle29"/>
	<circle cx="191.17" cy="744.172" r="4" fill="#0" id="circle30"/>
	<circle cx="192.871" cy="987.492" r="4" fill="#0" id="circle31"/>
	<circle cx="199.678" cy="727.156" r="4" fill="#0" id="circle32"/>
	<circle cx="209.887" cy="987.492" r="4" fill="#0" id="circle33"/>
	<circle cx="213.29" cy="713.544" r="4" fill="#0" id="circle34"/>
	<circle cx="223.499" cy="975.581" r="4" fill="#0" id="circle35"/>
	<circle cx="225.201" cy="693.125" r="4" fill="#0" id="circle36"/>
	<circle cx="233.708" cy="676.11" r="4" fill="#0" id="circle37"/>
	<circle cx="235.41" cy="961.969" r="4" fill="#0" id="circle38"/>
	<circle cx="243.918" cy="825.846" r="4" fill="#0" id="circle39"/>
	<circle cx="247.321" cy="662.497" r="4" fill="#0" id="circle40"/>
	<circle cx="247.321" cy="842.861" r="4" fill="#0" id="circle41"/>
	<circle cx="250.724" cy="953.461" r="4" fill="#0" id="circle42"/>
	<circle cx="252.425" cy="808.83" r="4" fill="#0" id="circle43"/>
	<circle cx="255.828" cy="645.482" r="4" fill="#0" id="circle44"/>
	<circle cx="255.828" cy="858.175" r="4" fill="#0" id="circle45"/>
	<circle cx="260.933" cy="791.815" r="4" fill="#0" id="circle46"/>
	<circle cx="260.933" cy="875.19" r="4" fill="#0" id="circle47"/>
	<circle cx="260.933" cy="892.206" r="4" fill="#0" id="circle48"/>
	<circle cx="260.933" cy="909.221" r="4" fill="#0" id="circle49"/>
	<circle cx="264.336" cy="943.252" r="4" fill="#0" id="circle50"/>
	<circle cx="267.739" cy="625.063" r="4" fill="#0" id="circle51"/>
	<circle cx="269.441" cy="924.535" r="4" fill="#0" id="circle52"/>
	<circle cx="274.545" cy="779.904" r="4" fill="#0" id="circle53"/>
	<circle cx="276.247" cy="608.048" r="4" fill="#0" id="circle54"/>
	<circle cx="283.053" cy="762.889" r="4" fill="#0" id="circle55"/>
	<circle cx="289.859" cy="594.436" r="4" fill="#0" id="circle56"/>
	<circle cx="291.561" cy="745.873" r="4" fill="#0" id="circle57"/>
	<circle cx="301.77" cy="574.017" r="4" fill="#0" id="circle58"/>
	<circle cx="303.472" cy="732.261" r="4" fill="#0" id="circle59"/>
	<circle cx="311.979" cy="715.245" r="4" fill="#0" id="circle60"/>
	<circle cx="315.383" cy="560.405" r="4" fill="#0" id="circle61"/>
	<circle cx="320.487" cy="698.23" r="4" fill="#0" id="circle62"/>
	<circle cx="323.89" cy="543.389" r="4" fill="#0" id="circle63"/>
	<circle cx="332.398" cy="526.374" r="4" fill="#0" id="circle64"/>
	<circle cx="334.099" cy="686.319" r="4" fill="#0" id="circle65"/>
	<circle cx="346.01" cy="512.762" r="4" fill="#0" id="circle66"/>
	<circle cx="346.01" cy="672.707" r="4" fill="#0" id="circle67"/>
	<circle cx="352.816" cy="488.94" r="4" fill="#0" id="circle68"/>
	<circle cx="354.518" cy="655.691" r="4" fill="#0" id="circle69"/>
	<circle cx="361.324" cy="471.925" r="4" fill="#0" id="circle70"/>
	<circle cx="368.13" cy="643.78" r="4" fill="#0" id="circle71"/>
	<circle cx="374.937" cy="458.312" r="4" fill="#0" id="circle72"/>
	<circle cx="376.638" cy="626.765" r="4" fill="#0" id="circle73"/>
	<circle cx="385.146" cy="609.75" r="4" fill="#0" id="circle74"/>
	<circle cx="386.847" cy="437.894" r="4" fill="#0" id="circle75"/>
	<circle cx="397.057" cy="596.137" r="4" fill="#0" id="circle76"/>
	<circle cx="400.46" cy="424.281" r="4" fill="#0" id="circle77"/>
	<circle cx="405.564" cy="579.122" r="4" fill="#0" id="circle78"/>
	<circle cx="408.967" cy="407.266" r="4" fill="#0" id="circle79"/>
	<circle cx="414.072" cy="562.106" r="4" fill="#0" id="circle80"/>
	<circle cx="417.475" cy="390.25" r="4" fill="#0" id="circle81"/>
	<circle cx="427.684" cy="550.196" r="4" fill="#0" id="circle82"/>
	<circle cx="431.087" cy="376.638" r="4" fill="#0" id="circle83"/>
	<circle cx="436.192" cy="533.18" r="4" fill="#0" id="circle84"/>
	<circle cx="439.595" cy="359.623" r="4" fill="#0" id="circle85"/>
	<circle cx="448.103" cy="342.607" r="4" fill="#0" id="circle86"/>
	<circle cx="448.103" cy="511.06" r="4" fill="#0" id="circle87"/>
	<circle cx="456.611" cy="494.045" r="4" fill="#0" id="circle88"/>
	<circle cx="461.715" cy="330.696" r="4" fill="#0" id="circle89"/>
	<circle cx="468.521" cy="313.681" r="4" fill="#0" id="circle90"/>
	<circle cx="470.223" cy="482.134" r="4" fill="#0" id="circle91"/>
	<circle cx="482.134" cy="300.069" r="4" fill="#0" id="circle92"/>
	<circle cx="482.134" cy="468.521" r="4" fill="#0" id="circle93"/>
	<circle cx="490.642" cy="283.053" r="4" fill="#0" id="circle94"/>
	<circle cx="495.746" cy="456.611" r="4" fill="#0" id="circle95"/>
	<circle cx="499.149" cy="266.038" r="4" fill="#0" id="circle96"/>
	<circle cx="504.254" cy="439.595" r="4" fill="#0" id="circle97"/>
	<circle cx="512.762" cy="254.127" r="4" fill="#0" id="circle98"/>
	<circle cx="512.762" cy="422.58" r="4" fill="#0" id="circle99"/>
	<circle cx="519.568" cy="237.111" r="4" fill="#0" id="circle100"/>
	<circle cx="524.672" cy="400.46" r="4" fill="#0" id="circle101"/>
	<circle cx="528.075" cy="220.096" r="4" fill="#0" id="circle102"/>
	<circle cx="536.583" cy="203.081" r="4" fill="#0" id="circle103"/>
	<circle cx="538.285" cy="388.549" r="4" fill="#0" id="circle104"/>
	<circle cx="546.792" cy="371.533" r="4" fill="#0" id="circle105"/>
	<circle cx="548.494" cy="182.662" r="4" fill="#0" id="circle106"/>
	<circle cx="555.3" cy="354.518" r="4" fill="#0" id="circle107"/>
	<circle cx="562.106" cy="169.05" r="4" fill="#0" id="circle108"/>
	<circle cx="567.211" cy="340.906" r="4" fill="#0" id="circle109"/>
	<circle cx="574.017" cy="140.123" r="4" fill="#0" id="circle110"/>
	<circle cx="575.719" cy="323.89" r="4" fill="#0" id="circle111"/>
	<circle cx="582.525" cy="114.6" r="4" fill="#0" id="circle112"/>
	<circle cx="589.331" cy="311.979" r="4" fill="#0" id="circle113"/>
	<circle cx="591.033" cy="97.5849" r="4" fill="#0" id="circle114"/>
	<circle cx="597.839" cy="294.964" r="4" fill="#0" id="circle115"/>
	<circle cx="599.54" cy="72.0617" r="4" fill="#0" id="circle116"/>
	<circle cx="606.346" cy="277.949" r="4" fill="#0" id="circle117"/>
	<circle cx="608.048" cy="55.0463" r="4" fill="#0" id="circle118"/>
	<circle cx="618.257" cy="264.336" r="4" fill="#0" id="circle119"/>
	<circle cx="625.063" cy="46.5386" r="4" fill="#0" id="circle120"/>
	<circle cx="626.765" cy="247.321" r="4" fill="#0" id="circle121"/>
	<circle cx="638.676" cy="32.9262" r="4" fill="#0" id="circle122"/>
	<circle cx="640.377" cy="235.41" r="4" fill="#0" id="circle123"/>
	<circle cx="652.288" cy="213.29" r="4" fill="#0" id="circle124"/>
	<circle cx="653.99" cy="24.4185" r="4" fill="#0" id="circle125"/>
	<circle cx="665.901" cy="201.379" r="4" fill="#0" id="circle126"/>
	<circle cx="669.304" cy="15.9108" r="4" fill="#0" id="circle127"/>
	<circle cx="669.304" cy="179.259" r="4" fill="#0" id="circle128"/>
	<circle cx="677.811" cy="162.244" r="4" fill="#0" id="circle129"/>
	<circle cx="684.617" cy="4" r="4" fill="#0" id="circle130"/>
	<circle cx="691.424" cy="150.333" r="4" fill="#0" id="circle131"/>
	<circle cx="699.931" cy="133.317" r="4" fill="#0" id="circle132"/>
	<circle cx="701.633" cy="10.8062" r="4" fill="#0" id="circle133"/>
	<circle cx="708.439" cy="116.302" r="4" fill="#0" id="circle134"/>
	<circle cx="711.842" cy="24.4185" r="4" fill="#0" id="circle135"/>
	<circle cx="716.947" cy="99.2864" r="4" fill="#0" id="circle136"/>
	<circle cx="720.35" cy="39.7324" r="4" fill="#0" id="circle137"/>
	<circle cx="720.35" cy="56.7479" r="4" fill="#0" id="circle138"/>
	<circle cx="720.35" cy="73.7633" r="4" fill="#0" id="circle139"/>
	</g>
</svg>