<?xml version="1.0" encoding="UTF-8" standalone="no"?>
<!-- Created with CurveBenchmark -->
<svg
	xmlns:dc="http://purl.org/dc/elements/1.1/"
	xmlns:cc="http://creativecommons.org/ns#"
	xmlns:rdf="http://www.w3.org/1999/02/22-rdf-syntax-ns#"
	xmlns:svg="http://www.w3.org/2000/svg"
	xmlns="http://www.w3.org/2000/svg"
	xmlns:sodipodi="http://sodipodi.sourceforge.net/DTD/sodipodi-0.dtd"
	xmlns:inkscape="http://www.inkscape.org/namespaces/inkscape"
	width="1000"
	height="1000"
	id="svg2"
	version="1.1"
	sodipodi:docname="manifold/nncrust-cat45.png.txt">
<defs
	id="defs4" />
<metadata
	id="metadata7">
	<rdf:RDF>
		<cc:Work
			rdf:about="">
			<dc:format>image/svg+xml</dc:format>
			<dc:type
				rdf:resource="http://purl.org/dc/dcmitype/StillImage" />
			<dc:title></dc:title>
		</cc:Work>
	</rdf:RDF>
</metadata>
<g
	inkscape:label="Layer 1"
	inkscape:groupmode="layer"
	id="layer1">
	<path style="fill:none;stroke:red;stroke-width:1px;stroke-linecap:butt;stroke-linejoin:miter;stroke-opacity:1" d="M 28.7636,288.053 43.3304,282.226 z" id="boundary" inkscape:connector-curvature="0" />
	<path style="fill:none;stroke:red;stroke-width:1px;stroke-linecap:butt;stroke-linejoin:miter;stroke-opacity:1" d="M 57.8972,280.769 43.3304,282.226 z" id="boundary" inkscape:connector-curvature="0" />
	<path style="fill:none;stroke:red;stroke-width:1px;stroke-linecap:butt;stroke-linejoin:miter;stroke-opacity:1" d="M 4,306.99 11.2834,320.1 z" id="boundary" inkscape:connector-curvature="0" />
	<path style="fill:none;stroke:red;stroke-width:1px;stroke-linecap:butt;stroke-linejoin:miter;stroke-opacity:1" d="M 4,306.99 15.6535,295.336 z" id="boundary" inkscape:connector-curvature="0" />
	<path style="fill:none;stroke:red;stroke-width:1px;stroke-linecap:butt;stroke-linejoin:miter;stroke-opacity:1" d="M 15.6535,295.336 28.7636,288.053 z" id="boundary" inkscape:connector-curvature="0" />
	<path style="fill:none;stroke:red;stroke-width:1px;stroke-linecap:butt;stroke-linejoin:miter;stroke-opacity:1" d="M 57.8972,280.769 72.464,280.769 z" id="boundary" inkscape:connector-curvature="0" />
	<path style="fill:none;stroke:red;stroke-width:1px;stroke-linecap:butt;stroke-linejoin:miter;stroke-opacity:1" d="M 72.464,280.769 84.1175,290.966 z" id="boundary" inkscape:connector-curvature="0" />
	<path style="fill:none;stroke:red;stroke-width:1px;stroke-linecap:butt;stroke-linejoin:miter;stroke-opacity:1" d="M 92.8576,302.62 84.1175,290.966 z" id="boundary" inkscape:connector-curvature="0" />
	<path style="fill:none;stroke:red;stroke-width:1px;stroke-linecap:butt;stroke-linejoin:miter;stroke-opacity:1" d="M 164.235,270.573 164.235,285.14 z" id="boundary" inkscape:connector-curvature="0" />
	<path style="fill:none;stroke:red;stroke-width:1px;stroke-linecap:butt;stroke-linejoin:miter;stroke-opacity:1" d="M 164.235,299.706 164.235,285.14 z" id="boundary" inkscape:connector-curvature="0" />
	<path style="fill:none;stroke:red;stroke-width:1px;stroke-linecap:butt;stroke-linejoin:miter;stroke-opacity:1" d="M 164.235,270.573 175.888,258.919 z" id="boundary" inkscape:connector-curvature="0" />
	<path style="fill:none;stroke:red;stroke-width:1px;stroke-linecap:butt;stroke-linejoin:miter;stroke-opacity:1" d="M 92.8576,302.62 104.511,311.36 z" id="boundary" inkscape:connector-curvature="0" />
	<path style="fill:none;stroke:red;stroke-width:1px;stroke-linecap:butt;stroke-linejoin:miter;stroke-opacity:1" d="M 164.235,299.706 164.235,314.273 z" id="boundary" inkscape:connector-curvature="0" />
	<path style="fill:none;stroke:red;stroke-width:1px;stroke-linecap:butt;stroke-linejoin:miter;stroke-opacity:1" d="M 114.708,323.013 104.511,311.36 z" id="boundary" inkscape:connector-curvature="0" />
	<path style="fill:none;stroke:red;stroke-width:1px;stroke-linecap:butt;stroke-linejoin:miter;stroke-opacity:1" d="M 126.361,331.753 114.708,323.013 z" id="boundary" inkscape:connector-curvature="0" />
	<path style="fill:none;stroke:red;stroke-width:1px;stroke-linecap:butt;stroke-linejoin:miter;stroke-opacity:1" d="M 18.5668,333.21 31.6769,340.493 z" id="boundary" inkscape:connector-curvature="0" />
	<path style="fill:none;stroke:red;stroke-width:1px;stroke-linecap:butt;stroke-linejoin:miter;stroke-opacity:1" d="M 18.5668,333.21 11.2834,320.1 z" id="boundary" inkscape:connector-curvature="0" />
	<path style="fill:none;stroke:red;stroke-width:1px;stroke-linecap:butt;stroke-linejoin:miter;stroke-opacity:1" d="M 46.2438,340.493 56.4405,352.147 z" id="boundary" inkscape:connector-curvature="0" />
	<path style="fill:none;stroke:red;stroke-width:1px;stroke-linecap:butt;stroke-linejoin:miter;stroke-opacity:1" d="M 31.6769,340.493 46.2438,340.493 z" id="boundary" inkscape:connector-curvature="0" />
	<path style="fill:none;stroke:red;stroke-width:1px;stroke-linecap:butt;stroke-linejoin:miter;stroke-opacity:1" d="M 68.094,362.344 56.4405,352.147 z" id="boundary" inkscape:connector-curvature="0" />
	<path style="fill:none;stroke:red;stroke-width:1px;stroke-linecap:butt;stroke-linejoin:miter;stroke-opacity:1" d="M 76.8341,373.997 84.1175,387.107 z" id="boundary" inkscape:connector-curvature="0" />
	<path style="fill:none;stroke:red;stroke-width:1px;stroke-linecap:butt;stroke-linejoin:miter;stroke-opacity:1" d="M 76.8341,373.997 68.094,362.344 z" id="boundary" inkscape:connector-curvature="0" />
	<path style="fill:none;stroke:red;stroke-width:1px;stroke-linecap:butt;stroke-linejoin:miter;stroke-opacity:1" d="M 84.1175,387.107 91.4009,400.217 z" id="boundary" inkscape:connector-curvature="0" />
	<path style="fill:none;stroke:red;stroke-width:1px;stroke-linecap:butt;stroke-linejoin:miter;stroke-opacity:1" d="M 139.471,339.037 149.668,350.69 z" id="boundary" inkscape:connector-curvature="0" />
	<path style="fill:none;stroke:red;stroke-width:1px;stroke-linecap:butt;stroke-linejoin:miter;stroke-opacity:1" d="M 139.471,339.037 126.361,331.753 z" id="boundary" inkscape:connector-curvature="0" />
	<path style="fill:none;stroke:red;stroke-width:1px;stroke-linecap:butt;stroke-linejoin:miter;stroke-opacity:1" d="M 98.6843,413.327 149.668,350.69 z" id="boundary" inkscape:connector-curvature="0" />
	<path style="fill:none;stroke:red;stroke-width:1px;stroke-linecap:butt;stroke-linejoin:miter;stroke-opacity:1" d="M 161.322,339.037 149.668,350.69 z" id="boundary" inkscape:connector-curvature="0" />
	<path style="fill:none;stroke:red;stroke-width:1px;stroke-linecap:butt;stroke-linejoin:miter;stroke-opacity:1" d="M 164.235,314.273 161.322,339.037 z" id="boundary" inkscape:connector-curvature="0" />
	<path style="fill:none;stroke:red;stroke-width:1px;stroke-linecap:butt;stroke-linejoin:miter;stroke-opacity:1" d="M 98.6843,413.327 91.4009,400.217 z" id="boundary" inkscape:connector-curvature="0" />
	<path style="fill:none;stroke:red;stroke-width:1px;stroke-linecap:butt;stroke-linejoin:miter;stroke-opacity:1" d="M 98.6843,413.327 103.054,427.894 z" id="boundary" inkscape:connector-curvature="0" />
	<path style="fill:none;stroke:red;stroke-width:1px;stroke-linecap:butt;stroke-linejoin:miter;stroke-opacity:1" d="M 110.338,441.004 123.448,448.288 z" id="boundary" inkscape:connector-curvature="0" />
	<path style="fill:none;stroke:red;stroke-width:1px;stroke-linecap:butt;stroke-linejoin:miter;stroke-opacity:1" d="M 110.338,441.004 103.054,427.894 z" id="boundary" inkscape:connector-curvature="0" />
	<path style="fill:none;stroke:red;stroke-width:1px;stroke-linecap:butt;stroke-linejoin:miter;stroke-opacity:1" d="M 138.015,454.115 123.448,448.288 z" id="boundary" inkscape:connector-curvature="0" />
	<path style="fill:none;stroke:red;stroke-width:1px;stroke-linecap:butt;stroke-linejoin:miter;stroke-opacity:1" d="M 190.455,11.2834 203.565,4 z" id="boundary" inkscape:connector-curvature="0" />
	<path style="fill:none;stroke:red;stroke-width:1px;stroke-linecap:butt;stroke-linejoin:miter;stroke-opacity:1" d="M 203.565,4 216.675,11.2834 z" id="boundary" inkscape:connector-curvature="0" />
	<path style="fill:none;stroke:red;stroke-width:1px;stroke-linecap:butt;stroke-linejoin:miter;stroke-opacity:1" d="M 178.802,22.9369 190.455,11.2834 z" id="boundary" inkscape:connector-curvature="0" />
	<path style="fill:none;stroke:red;stroke-width:1px;stroke-linecap:butt;stroke-linejoin:miter;stroke-opacity:1" d="M 178.802,37.5037 178.802,22.9369 z" id="boundary" inkscape:connector-curvature="0" />
	<path style="fill:none;stroke:red;stroke-width:1px;stroke-linecap:butt;stroke-linejoin:miter;stroke-opacity:1" d="M 216.675,11.2834 229.786,18.5668 z" id="boundary" inkscape:connector-curvature="0" />
	<path style="fill:none;stroke:red;stroke-width:1px;stroke-linecap:butt;stroke-linejoin:miter;stroke-opacity:1" d="M 229.786,18.5668 238.526,30.2203 z" id="boundary" inkscape:connector-curvature="0" />
	<path style="fill:none;stroke:red;stroke-width:1px;stroke-linecap:butt;stroke-linejoin:miter;stroke-opacity:1" d="M 253.093,33.1336 238.526,30.2203 z" id="boundary" inkscape:connector-curvature="0" />
	<path style="fill:none;stroke:red;stroke-width:1px;stroke-linecap:butt;stroke-linejoin:miter;stroke-opacity:1" d="M 267.659,33.1336 253.093,33.1336 z" id="boundary" inkscape:connector-curvature="0" />
	<path style="fill:none;stroke:red;stroke-width:1px;stroke-linecap:butt;stroke-linejoin:miter;stroke-opacity:1" d="M 324.47,25.8502 339.037,25.8502 z" id="boundary" inkscape:connector-curvature="0" />
	<path style="fill:none;stroke:red;stroke-width:1px;stroke-linecap:butt;stroke-linejoin:miter;stroke-opacity:1" d="M 311.36,33.1336 324.47,25.8502 z" id="boundary" inkscape:connector-curvature="0" />
	<path style="fill:none;stroke:red;stroke-width:1px;stroke-linecap:butt;stroke-linejoin:miter;stroke-opacity:1" d="M 339.037,25.8502 353.604,25.8502 z" id="boundary" inkscape:connector-curvature="0" />
	<path style="fill:none;stroke:red;stroke-width:1px;stroke-linecap:butt;stroke-linejoin:miter;stroke-opacity:1" d="M 366.714,18.5668 353.604,25.8502 z" id="boundary" inkscape:connector-curvature="0" />
	<path style="fill:none;stroke:red;stroke-width:1px;stroke-linecap:butt;stroke-linejoin:miter;stroke-opacity:1" d="M 267.659,33.1336 282.226,33.1336 z" id="boundary" inkscape:connector-curvature="0" />
	<path style="fill:none;stroke:red;stroke-width:1px;stroke-linecap:butt;stroke-linejoin:miter;stroke-opacity:1" d="M 311.36,33.1336 296.793,33.1336 z" id="boundary" inkscape:connector-curvature="0" />
	<path style="fill:none;stroke:red;stroke-width:1px;stroke-linecap:butt;stroke-linejoin:miter;stroke-opacity:1" d="M 296.793,33.1336 282.226,33.1336 z" id="boundary" inkscape:connector-curvature="0" />
	<path style="fill:none;stroke:red;stroke-width:1px;stroke-linecap:butt;stroke-linejoin:miter;stroke-opacity:1" d="M 379.824,11.2834 366.714,18.5668 z" id="boundary" inkscape:connector-curvature="0" />
	<path style="fill:none;stroke:red;stroke-width:1px;stroke-linecap:butt;stroke-linejoin:miter;stroke-opacity:1" d="M 171.518,52.0705 171.518,66.6373 z" id="boundary" inkscape:connector-curvature="0" />
	<path style="fill:none;stroke:red;stroke-width:1px;stroke-linecap:butt;stroke-linejoin:miter;stroke-opacity:1" d="M 171.518,52.0705 178.802,37.5037 z" id="boundary" inkscape:connector-curvature="0" />
	<path style="fill:none;stroke:red;stroke-width:1px;stroke-linecap:butt;stroke-linejoin:miter;stroke-opacity:1" d="M 171.518,81.2041 171.518,95.7709 z" id="boundary" inkscape:connector-curvature="0" />
	<path style="fill:none;stroke:red;stroke-width:1px;stroke-linecap:butt;stroke-linejoin:miter;stroke-opacity:1" d="M 171.518,81.2041 171.518,66.6373 z" id="boundary" inkscape:connector-curvature="0" />
	<path style="fill:none;stroke:red;stroke-width:1px;stroke-linecap:butt;stroke-linejoin:miter;stroke-opacity:1" d="M 171.518,110.338 171.518,124.905 z" id="boundary" inkscape:connector-curvature="0" />
	<path style="fill:none;stroke:red;stroke-width:1px;stroke-linecap:butt;stroke-linejoin:miter;stroke-opacity:1" d="M 171.518,139.471 171.518,154.038 z" id="boundary" inkscape:connector-curvature="0" />
	<path style="fill:none;stroke:red;stroke-width:1px;stroke-linecap:butt;stroke-linejoin:miter;stroke-opacity:1" d="M 171.518,139.471 171.518,124.905 z" id="boundary" inkscape:connector-curvature="0" />
	<path style="fill:none;stroke:red;stroke-width:1px;stroke-linecap:butt;stroke-linejoin:miter;stroke-opacity:1" d="M 171.518,110.338 171.518,95.7709 z" id="boundary" inkscape:connector-curvature="0" />
	<path style="fill:none;stroke:red;stroke-width:1px;stroke-linecap:butt;stroke-linejoin:miter;stroke-opacity:1" d="M 178.802,181.715 171.518,168.605 z" id="boundary" inkscape:connector-curvature="0" />
	<path style="fill:none;stroke:red;stroke-width:1px;stroke-linecap:butt;stroke-linejoin:miter;stroke-opacity:1" d="M 171.518,168.605 171.518,154.038 z" id="boundary" inkscape:connector-curvature="0" />
	<path style="fill:none;stroke:red;stroke-width:1px;stroke-linecap:butt;stroke-linejoin:miter;stroke-opacity:1" d="M 178.802,181.715 186.085,194.825 z" id="boundary" inkscape:connector-curvature="0" />
	<path style="fill:none;stroke:red;stroke-width:1px;stroke-linecap:butt;stroke-linejoin:miter;stroke-opacity:1" d="M 186.085,194.825 186.085,209.392 z" id="boundary" inkscape:connector-curvature="0" />
	<path style="fill:none;stroke:red;stroke-width:1px;stroke-linecap:butt;stroke-linejoin:miter;stroke-opacity:1" d="M 175.888,258.919 183.172,244.352 z" id="boundary" inkscape:connector-curvature="0" />
	<path style="fill:none;stroke:red;stroke-width:1px;stroke-linecap:butt;stroke-linejoin:miter;stroke-opacity:1" d="M 186.085,209.392 190.455,229.786 z" id="boundary" inkscape:connector-curvature="0" />
	<path style="fill:none;stroke:red;stroke-width:1px;stroke-linecap:butt;stroke-linejoin:miter;stroke-opacity:1" d="M 190.455,229.786 183.172,244.352 z" id="boundary" inkscape:connector-curvature="0" />
	<path style="fill:none;stroke:red;stroke-width:1px;stroke-linecap:butt;stroke-linejoin:miter;stroke-opacity:1" d="M 152.581,457.028 138.015,454.115 z" id="boundary" inkscape:connector-curvature="0" />
	<path style="fill:none;stroke:red;stroke-width:1px;stroke-linecap:butt;stroke-linejoin:miter;stroke-opacity:1" d="M 167.148,461.398 152.581,457.028 z" id="boundary" inkscape:connector-curvature="0" />
	<path style="fill:none;stroke:red;stroke-width:1px;stroke-linecap:butt;stroke-linejoin:miter;stroke-opacity:1" d="M 142.385,612.893 142.385,598.326 z" id="boundary" inkscape:connector-curvature="0" />
	<path style="fill:none;stroke:red;stroke-width:1px;stroke-linecap:butt;stroke-linejoin:miter;stroke-opacity:1" d="M 142.385,598.326 156.952,583.759 z" id="boundary" inkscape:connector-curvature="0" />
	<path style="fill:none;stroke:red;stroke-width:1px;stroke-linecap:butt;stroke-linejoin:miter;stroke-opacity:1" d="M 178.802,470.138 181.715,484.705 z" id="boundary" inkscape:connector-curvature="0" />
	<path style="fill:none;stroke:red;stroke-width:1px;stroke-linecap:butt;stroke-linejoin:miter;stroke-opacity:1" d="M 167.148,461.398 178.802,470.138 z" id="boundary" inkscape:connector-curvature="0" />
	<path style="fill:none;stroke:red;stroke-width:1px;stroke-linecap:butt;stroke-linejoin:miter;stroke-opacity:1" d="M 178.802,554.626 168.605,572.106 z" id="boundary" inkscape:connector-curvature="0" />
	<path style="fill:none;stroke:red;stroke-width:1px;stroke-linecap:butt;stroke-linejoin:miter;stroke-opacity:1" d="M 168.605,572.106 156.952,583.759 z" id="boundary" inkscape:connector-curvature="0" />
	<path style="fill:none;stroke:red;stroke-width:1px;stroke-linecap:butt;stroke-linejoin:miter;stroke-opacity:1" d="M 186.085,499.272 181.715,484.705 z" id="boundary" inkscape:connector-curvature="0" />
	<path style="fill:none;stroke:red;stroke-width:1px;stroke-linecap:butt;stroke-linejoin:miter;stroke-opacity:1" d="M 193.369,512.382 186.085,499.272 z" id="boundary" inkscape:connector-curvature="0" />
	<path style="fill:none;stroke:red;stroke-width:1px;stroke-linecap:butt;stroke-linejoin:miter;stroke-opacity:1" d="M 193.369,512.382 193.369,526.949 z" id="boundary" inkscape:connector-curvature="0" />
	<path style="fill:none;stroke:red;stroke-width:1px;stroke-linecap:butt;stroke-linejoin:miter;stroke-opacity:1" d="M 193.369,526.949 186.085,540.059 z" id="boundary" inkscape:connector-curvature="0" />
	<path style="fill:none;stroke:red;stroke-width:1px;stroke-linecap:butt;stroke-linejoin:miter;stroke-opacity:1" d="M 178.802,554.626 186.085,540.059 z" id="boundary" inkscape:connector-curvature="0" />
	<path style="fill:none;stroke:red;stroke-width:1px;stroke-linecap:butt;stroke-linejoin:miter;stroke-opacity:1" d="M 222.502,609.979 237.069,609.979 z" id="boundary" inkscape:connector-curvature="0" />
	<path style="fill:none;stroke:red;stroke-width:1px;stroke-linecap:butt;stroke-linejoin:miter;stroke-opacity:1" d="M 237.069,609.979 237.069,624.546 z" id="boundary" inkscape:connector-curvature="0" />
	<path style="fill:none;stroke:red;stroke-width:1px;stroke-linecap:butt;stroke-linejoin:miter;stroke-opacity:1" d="M 222.502,609.979 209.392,617.263 z" id="boundary" inkscape:connector-curvature="0" />
	<path style="fill:none;stroke:red;stroke-width:1px;stroke-linecap:butt;stroke-linejoin:miter;stroke-opacity:1" d="M 142.385,612.893 149.668,626.003 z" id="boundary" inkscape:connector-curvature="0" />
	<path style="fill:none;stroke:red;stroke-width:1px;stroke-linecap:butt;stroke-linejoin:miter;stroke-opacity:1" d="M 170.062,646.396 184.628,643.483 z" id="boundary" inkscape:connector-curvature="0" />
	<path style="fill:none;stroke:red;stroke-width:1px;stroke-linecap:butt;stroke-linejoin:miter;stroke-opacity:1" d="M 209.392,617.263 199.195,636.2 z" id="boundary" inkscape:connector-curvature="0" />
	<path style="fill:none;stroke:red;stroke-width:1px;stroke-linecap:butt;stroke-linejoin:miter;stroke-opacity:1" d="M 199.195,636.2 184.628,643.483 z" id="boundary" inkscape:connector-curvature="0" />
	<path style="fill:none;stroke:red;stroke-width:1px;stroke-linecap:butt;stroke-linejoin:miter;stroke-opacity:1" d="M 170.062,646.396 156.952,639.113 z" id="boundary" inkscape:connector-curvature="0" />
	<path style="fill:none;stroke:red;stroke-width:1px;stroke-linecap:butt;stroke-linejoin:miter;stroke-opacity:1" d="M 237.069,743.994 229.786,758.561 z" id="boundary" inkscape:connector-curvature="0" />
	<path style="fill:none;stroke:red;stroke-width:1px;stroke-linecap:butt;stroke-linejoin:miter;stroke-opacity:1" d="M 156.952,639.113 149.668,626.003 z" id="boundary" inkscape:connector-curvature="0" />
	<path style="fill:none;stroke:red;stroke-width:1px;stroke-linecap:butt;stroke-linejoin:miter;stroke-opacity:1" d="M 215.219,940.646 215.219,955.213 z" id="boundary" inkscape:connector-curvature="0" />
	<path style="fill:none;stroke:red;stroke-width:1px;stroke-linecap:butt;stroke-linejoin:miter;stroke-opacity:1" d="M 229.786,773.128 229.786,787.695 z" id="boundary" inkscape:connector-curvature="0" />
	<path style="fill:none;stroke:red;stroke-width:1px;stroke-linecap:butt;stroke-linejoin:miter;stroke-opacity:1" d="M 229.786,773.128 229.786,758.561 z" id="boundary" inkscape:connector-curvature="0" />
	<path style="fill:none;stroke:red;stroke-width:1px;stroke-linecap:butt;stroke-linejoin:miter;stroke-opacity:1" d="M 229.786,787.695 237.069,800.805 z" id="boundary" inkscape:connector-curvature="0" />
	<path style="fill:none;stroke:red;stroke-width:1px;stroke-linecap:butt;stroke-linejoin:miter;stroke-opacity:1" d="M 237.069,911.512 226.872,928.993 z" id="boundary" inkscape:connector-curvature="0" />
	<path style="fill:none;stroke:red;stroke-width:1px;stroke-linecap:butt;stroke-linejoin:miter;stroke-opacity:1" d="M 226.872,928.993 215.219,940.646 z" id="boundary" inkscape:connector-curvature="0" />
	<path style="fill:none;stroke:red;stroke-width:1px;stroke-linecap:butt;stroke-linejoin:miter;stroke-opacity:1" d="M 215.219,955.213 215.219,969.78 z" id="boundary" inkscape:connector-curvature="0" />
	<path style="fill:none;stroke:red;stroke-width:1px;stroke-linecap:butt;stroke-linejoin:miter;stroke-opacity:1" d="M 229.786,974.15 215.219,969.78 z" id="boundary" inkscape:connector-curvature="0" />
	<path style="fill:none;stroke:red;stroke-width:1px;stroke-linecap:butt;stroke-linejoin:miter;stroke-opacity:1" d="M 229.786,974.15 242.896,981.433 z" id="boundary" inkscape:connector-curvature="0" />
	<path style="fill:none;stroke:red;stroke-width:1px;stroke-linecap:butt;stroke-linejoin:miter;stroke-opacity:1" d="M 237.069,624.546 245.809,636.2 z" id="boundary" inkscape:connector-curvature="0" />
	<path style="fill:none;stroke:red;stroke-width:1px;stroke-linecap:butt;stroke-linejoin:miter;stroke-opacity:1" d="M 237.069,609.979 245.809,636.2 z" id="boundary" inkscape:connector-curvature="0" />
	<path style="fill:none;stroke:red;stroke-width:1px;stroke-linecap:butt;stroke-linejoin:miter;stroke-opacity:1" d="M 251.636,650.767 251.636,665.333 z" id="boundary" inkscape:connector-curvature="0" />
	<path style="fill:none;stroke:red;stroke-width:1px;stroke-linecap:butt;stroke-linejoin:miter;stroke-opacity:1" d="M 251.636,650.767 245.809,636.2 z" id="boundary" inkscape:connector-curvature="0" />
	<path style="fill:none;stroke:red;stroke-width:1px;stroke-linecap:butt;stroke-linejoin:miter;stroke-opacity:1" d="M 251.636,665.333 251.636,679.9 z" id="boundary" inkscape:connector-curvature="0" />
	<path style="fill:none;stroke:red;stroke-width:1px;stroke-linecap:butt;stroke-linejoin:miter;stroke-opacity:1" d="M 251.636,694.467 251.636,679.9 z" id="boundary" inkscape:connector-curvature="0" />
	<path style="fill:none;stroke:red;stroke-width:1px;stroke-linecap:butt;stroke-linejoin:miter;stroke-opacity:1" d="M 244.352,813.915 237.069,800.805 z" id="boundary" inkscape:connector-curvature="0" />
	<path style="fill:none;stroke:red;stroke-width:1px;stroke-linecap:butt;stroke-linejoin:miter;stroke-opacity:1" d="M 237.069,743.994 244.352,729.427 z" id="boundary" inkscape:connector-curvature="0" />
	<path style="fill:none;stroke:red;stroke-width:1px;stroke-linecap:butt;stroke-linejoin:miter;stroke-opacity:1" d="M 251.636,694.467 251.636,709.034 z" id="boundary" inkscape:connector-curvature="0" />
	<path style="fill:none;stroke:red;stroke-width:1px;stroke-linecap:butt;stroke-linejoin:miter;stroke-opacity:1" d="M 251.636,709.034 244.352,729.427 z" id="boundary" inkscape:connector-curvature="0" />
	<path style="fill:none;stroke:red;stroke-width:1px;stroke-linecap:butt;stroke-linejoin:miter;stroke-opacity:1" d="M 363.8,828.482 350.69,835.765 z" id="boundary" inkscape:connector-curvature="0" />
	<path style="fill:none;stroke:red;stroke-width:1px;stroke-linecap:butt;stroke-linejoin:miter;stroke-opacity:1" d="M 350.69,835.765 337.58,843.048 z" id="boundary" inkscape:connector-curvature="0" />
	<path style="fill:none;stroke:red;stroke-width:1px;stroke-linecap:butt;stroke-linejoin:miter;stroke-opacity:1" d="M 376.91,821.198 363.8,828.482 z" id="boundary" inkscape:connector-curvature="0" />
	<path style="fill:none;stroke:red;stroke-width:1px;stroke-linecap:butt;stroke-linejoin:miter;stroke-opacity:1" d="M 324.47,850.332 311.36,857.615 z" id="boundary" inkscape:connector-curvature="0" />
	<path style="fill:none;stroke:red;stroke-width:1px;stroke-linecap:butt;stroke-linejoin:miter;stroke-opacity:1" d="M 258.919,840.135 251.636,827.025 z" id="boundary" inkscape:connector-curvature="0" />
	<path style="fill:none;stroke:red;stroke-width:1px;stroke-linecap:butt;stroke-linejoin:miter;stroke-opacity:1" d="M 337.58,843.048 324.47,850.332 z" id="boundary" inkscape:connector-curvature="0" />
	<path style="fill:none;stroke:red;stroke-width:1px;stroke-linecap:butt;stroke-linejoin:miter;stroke-opacity:1" d="M 251.636,827.025 244.352,813.915 z" id="boundary" inkscape:connector-curvature="0" />
	<path style="fill:none;stroke:red;stroke-width:1px;stroke-linecap:butt;stroke-linejoin:miter;stroke-opacity:1" d="M 258.919,840.135 258.919,854.702 z" id="boundary" inkscape:connector-curvature="0" />
	<path style="fill:none;stroke:red;stroke-width:1px;stroke-linecap:butt;stroke-linejoin:miter;stroke-opacity:1" d="M 248.722,899.859 251.636,882.379 z" id="boundary" inkscape:connector-curvature="0" />
	<path style="fill:none;stroke:red;stroke-width:1px;stroke-linecap:butt;stroke-linejoin:miter;stroke-opacity:1" d="M 248.722,899.859 237.069,911.512 z" id="boundary" inkscape:connector-curvature="0" />
	<path style="fill:none;stroke:red;stroke-width:1px;stroke-linecap:butt;stroke-linejoin:miter;stroke-opacity:1" d="M 258.919,854.702 258.919,869.269 z" id="boundary" inkscape:connector-curvature="0" />
	<path style="fill:none;stroke:red;stroke-width:1px;stroke-linecap:butt;stroke-linejoin:miter;stroke-opacity:1" d="M 258.919,869.269 251.636,882.379 z" id="boundary" inkscape:connector-curvature="0" />
	<path style="fill:none;stroke:red;stroke-width:1px;stroke-linecap:butt;stroke-linejoin:miter;stroke-opacity:1" d="M 267.659,966.866 257.463,978.52 z" id="boundary" inkscape:connector-curvature="0" />
	<path style="fill:none;stroke:red;stroke-width:1px;stroke-linecap:butt;stroke-linejoin:miter;stroke-opacity:1" d="M 257.463,978.52 242.896,981.433 z" id="boundary" inkscape:connector-curvature="0" />
	<path style="fill:none;stroke:red;stroke-width:1px;stroke-linecap:butt;stroke-linejoin:miter;stroke-opacity:1" d="M 274.943,945.016 267.659,966.866 z" id="boundary" inkscape:connector-curvature="0" />
	<path style="fill:none;stroke:red;stroke-width:1px;stroke-linecap:butt;stroke-linejoin:miter;stroke-opacity:1" d="M 314.273,872.182 311.36,857.615 z" id="boundary" inkscape:connector-curvature="0" />
	<path style="fill:none;stroke:red;stroke-width:1px;stroke-linecap:butt;stroke-linejoin:miter;stroke-opacity:1" d="M 314.273,872.182 318.643,886.749 z" id="boundary" inkscape:connector-curvature="0" />
	<path style="fill:none;stroke:red;stroke-width:1px;stroke-linecap:butt;stroke-linejoin:miter;stroke-opacity:1" d="M 318.643,901.316 318.643,886.749 z" id="boundary" inkscape:connector-curvature="0" />
	<path style="fill:none;stroke:red;stroke-width:1px;stroke-linecap:butt;stroke-linejoin:miter;stroke-opacity:1" d="M 318.643,901.316 304.076,908.599 z" id="boundary" inkscape:connector-curvature="0" />
	<path style="fill:none;stroke:red;stroke-width:1px;stroke-linecap:butt;stroke-linejoin:miter;stroke-opacity:1" d="M 274.943,945.016 286.596,934.819 z" id="boundary" inkscape:connector-curvature="0" />
	<path style="fill:none;stroke:red;stroke-width:1px;stroke-linecap:butt;stroke-linejoin:miter;stroke-opacity:1" d="M 293.88,920.253 304.076,908.599 z" id="boundary" inkscape:connector-curvature="0" />
	<path style="fill:none;stroke:red;stroke-width:1px;stroke-linecap:butt;stroke-linejoin:miter;stroke-opacity:1" d="M 293.88,920.253 286.596,934.819 z" id="boundary" inkscape:connector-curvature="0" />
	<path style="fill:none;stroke:red;stroke-width:1px;stroke-linecap:butt;stroke-linejoin:miter;stroke-opacity:1" d="M 413.327,49.1571 406.044,63.7239 z" id="boundary" inkscape:connector-curvature="0" />
	<path style="fill:none;stroke:red;stroke-width:1px;stroke-linecap:butt;stroke-linejoin:miter;stroke-opacity:1" d="M 394.391,4 379.824,11.2834 z" id="boundary" inkscape:connector-curvature="0" />
	<path style="fill:none;stroke:red;stroke-width:1px;stroke-linecap:butt;stroke-linejoin:miter;stroke-opacity:1" d="M 406.044,63.7239 406.044,78.2907 z" id="boundary" inkscape:connector-curvature="0" />
	<path style="fill:none;stroke:red;stroke-width:1px;stroke-linecap:butt;stroke-linejoin:miter;stroke-opacity:1" d="M 406.044,92.8576 408.957,107.424 z" id="boundary" inkscape:connector-curvature="0" />
	<path style="fill:none;stroke:red;stroke-width:1px;stroke-linecap:butt;stroke-linejoin:miter;stroke-opacity:1" d="M 406.044,92.8576 406.044,78.2907 z" id="boundary" inkscape:connector-curvature="0" />
	<path style="fill:none;stroke:red;stroke-width:1px;stroke-linecap:butt;stroke-linejoin:miter;stroke-opacity:1" d="M 394.391,4 408.957,4 z" id="boundary" inkscape:connector-curvature="0" />
	<path style="fill:none;stroke:red;stroke-width:1px;stroke-linecap:butt;stroke-linejoin:miter;stroke-opacity:1" d="M 408.957,107.424 413.327,121.991 z" id="boundary" inkscape:connector-curvature="0" />
	<path style="fill:none;stroke:red;stroke-width:1px;stroke-linecap:butt;stroke-linejoin:miter;stroke-opacity:1" d="M 413.327,34.5903 413.327,49.1571 z" id="boundary" inkscape:connector-curvature="0" />
	<path style="fill:none;stroke:red;stroke-width:1px;stroke-linecap:butt;stroke-linejoin:miter;stroke-opacity:1" d="M 413.327,34.5903 419.154,15.6535 z" id="boundary" inkscape:connector-curvature="0" />
	<path style="fill:none;stroke:red;stroke-width:1px;stroke-linecap:butt;stroke-linejoin:miter;stroke-opacity:1" d="M 408.957,4 419.154,15.6535 z" id="boundary" inkscape:connector-curvature="0" />
	<path style="fill:none;stroke:red;stroke-width:1px;stroke-linecap:butt;stroke-linejoin:miter;stroke-opacity:1" d="M 416.241,136.558 420.611,151.125 z" id="boundary" inkscape:connector-curvature="0" />
	<path style="fill:none;stroke:red;stroke-width:1px;stroke-linecap:butt;stroke-linejoin:miter;stroke-opacity:1" d="M 420.611,151.125 420.611,165.692 z" id="boundary" inkscape:connector-curvature="0" />
	<path style="fill:none;stroke:red;stroke-width:1px;stroke-linecap:butt;stroke-linejoin:miter;stroke-opacity:1" d="M 416.241,136.558 413.327,121.991 z" id="boundary" inkscape:connector-curvature="0" />
	<path style="fill:none;stroke:red;stroke-width:1px;stroke-linecap:butt;stroke-linejoin:miter;stroke-opacity:1" d="M 420.611,165.692 420.611,180.258 z" id="boundary" inkscape:connector-curvature="0" />
	<path style="fill:none;stroke:red;stroke-width:1px;stroke-linecap:butt;stroke-linejoin:miter;stroke-opacity:1" d="M 406.044,245.809 406.044,260.376 z" id="boundary" inkscape:connector-curvature="0" />
	<path style="fill:none;stroke:red;stroke-width:1px;stroke-linecap:butt;stroke-linejoin:miter;stroke-opacity:1" d="M 406.044,245.809 413.327,223.959 z" id="boundary" inkscape:connector-curvature="0" />
	<path style="fill:none;stroke:red;stroke-width:1px;stroke-linecap:butt;stroke-linejoin:miter;stroke-opacity:1" d="M 406.044,274.943 406.044,260.376 z" id="boundary" inkscape:connector-curvature="0" />
	<path style="fill:none;stroke:red;stroke-width:1px;stroke-linecap:butt;stroke-linejoin:miter;stroke-opacity:1" d="M 406.044,289.51 413.327,302.62 z" id="boundary" inkscape:connector-curvature="0" />
	<path style="fill:none;stroke:red;stroke-width:1px;stroke-linecap:butt;stroke-linejoin:miter;stroke-opacity:1" d="M 413.327,302.62 413.327,317.186 z" id="boundary" inkscape:connector-curvature="0" />
	<path style="fill:none;stroke:red;stroke-width:1px;stroke-linecap:butt;stroke-linejoin:miter;stroke-opacity:1" d="M 406.044,289.51 406.044,274.943 z" id="boundary" inkscape:connector-curvature="0" />
	<path style="fill:none;stroke:red;stroke-width:1px;stroke-linecap:butt;stroke-linejoin:miter;stroke-opacity:1" d="M 413.327,317.186 413.327,331.753 z" id="boundary" inkscape:connector-curvature="0" />
	<path style="fill:none;stroke:red;stroke-width:1px;stroke-linecap:butt;stroke-linejoin:miter;stroke-opacity:1" d="M 413.327,346.32 413.327,331.753 z" id="boundary" inkscape:connector-curvature="0" />
	<path style="fill:none;stroke:red;stroke-width:1px;stroke-linecap:butt;stroke-linejoin:miter;stroke-opacity:1" d="M 413.327,223.959 420.611,209.392 z" id="boundary" inkscape:connector-curvature="0" />
	<path style="fill:none;stroke:red;stroke-width:1px;stroke-linecap:butt;stroke-linejoin:miter;stroke-opacity:1" d="M 413.327,346.32 413.327,360.887 z" id="boundary" inkscape:connector-curvature="0" />
	<path style="fill:none;stroke:red;stroke-width:1px;stroke-linecap:butt;stroke-linejoin:miter;stroke-opacity:1" d="M 420.611,209.392 420.611,194.825 z" id="boundary" inkscape:connector-curvature="0" />
	<path style="fill:none;stroke:red;stroke-width:1px;stroke-linecap:butt;stroke-linejoin:miter;stroke-opacity:1" d="M 413.327,375.454 413.327,390.021 z" id="boundary" inkscape:connector-curvature="0" />
	<path style="fill:none;stroke:red;stroke-width:1px;stroke-linecap:butt;stroke-linejoin:miter;stroke-opacity:1" d="M 420.611,403.131 413.327,390.021 z" id="boundary" inkscape:connector-curvature="0" />
	<path style="fill:none;stroke:red;stroke-width:1px;stroke-linecap:butt;stroke-linejoin:miter;stroke-opacity:1" d="M 420.611,403.131 420.611,417.698 z" id="boundary" inkscape:connector-curvature="0" />
	<path style="fill:none;stroke:red;stroke-width:1px;stroke-linecap:butt;stroke-linejoin:miter;stroke-opacity:1" d="M 427.894,430.808 420.611,417.698 z" id="boundary" inkscape:connector-curvature="0" />
	<path style="fill:none;stroke:red;stroke-width:1px;stroke-linecap:butt;stroke-linejoin:miter;stroke-opacity:1" d="M 413.327,375.454 413.327,360.887 z" id="boundary" inkscape:connector-curvature="0" />
	<path style="fill:none;stroke:red;stroke-width:1px;stroke-linecap:butt;stroke-linejoin:miter;stroke-opacity:1" d="M 420.611,180.258 420.611,194.825 z" id="boundary" inkscape:connector-curvature="0" />
	<path style="fill:none;stroke:red;stroke-width:1px;stroke-linecap:butt;stroke-linejoin:miter;stroke-opacity:1" d="M 427.894,430.808 427.894,445.374 z" id="boundary" inkscape:connector-curvature="0" />
	<path style="fill:none;stroke:red;stroke-width:1px;stroke-linecap:butt;stroke-linejoin:miter;stroke-opacity:1" d="M 433.721,459.941 427.894,445.374 z" id="boundary" inkscape:connector-curvature="0" />
	<path style="fill:none;stroke:red;stroke-width:1px;stroke-linecap:butt;stroke-linejoin:miter;stroke-opacity:1" d="M 433.721,459.941 441.004,473.051 z" id="boundary" inkscape:connector-curvature="0" />
	<path style="fill:none;stroke:red;stroke-width:1px;stroke-linecap:butt;stroke-linejoin:miter;stroke-opacity:1" d="M 446.831,487.618 441.004,473.051 z" id="boundary" inkscape:connector-curvature="0" />
	<path style="fill:none;stroke:red;stroke-width:1px;stroke-linecap:butt;stroke-linejoin:miter;stroke-opacity:1" d="M 446.831,487.618 449.744,502.185 z" id="boundary" inkscape:connector-curvature="0" />
	<path style="fill:none;stroke:red;stroke-width:1px;stroke-linecap:butt;stroke-linejoin:miter;stroke-opacity:1" d="M 458.485,513.838 449.744,502.185 z" id="boundary" inkscape:connector-curvature="0" />
	<path style="fill:none;stroke:red;stroke-width:1px;stroke-linecap:butt;stroke-linejoin:miter;stroke-opacity:1" d="M 458.485,513.838 464.311,528.405 z" id="boundary" inkscape:connector-curvature="0" />
	<path style="fill:none;stroke:red;stroke-width:1px;stroke-linecap:butt;stroke-linejoin:miter;stroke-opacity:1" d="M 464.311,528.405 471.595,541.515 z" id="boundary" inkscape:connector-curvature="0" />
	<path style="fill:none;stroke:red;stroke-width:1px;stroke-linecap:butt;stroke-linejoin:miter;stroke-opacity:1" d="M 642.026,528.405 656.593,521.122 z" id="boundary" inkscape:connector-curvature="0" />
	<path style="fill:none;stroke:red;stroke-width:1px;stroke-linecap:butt;stroke-linejoin:miter;stroke-opacity:1" d="M 671.16,521.122 656.593,521.122 z" id="boundary" inkscape:connector-curvature="0" />
	<path style="fill:none;stroke:red;stroke-width:1px;stroke-linecap:butt;stroke-linejoin:miter;stroke-opacity:1" d="M 685.727,521.122 700.294,513.838 z" id="boundary" inkscape:connector-curvature="0" />
	<path style="fill:none;stroke:red;stroke-width:1px;stroke-linecap:butt;stroke-linejoin:miter;stroke-opacity:1" d="M 700.294,513.838 713.404,521.122 z" id="boundary" inkscape:connector-curvature="0" />
	<path style="fill:none;stroke:red;stroke-width:1px;stroke-linecap:butt;stroke-linejoin:miter;stroke-opacity:1" d="M 685.727,521.122 671.16,521.122 z" id="boundary" inkscape:connector-curvature="0" />
	<path style="fill:none;stroke:red;stroke-width:1px;stroke-linecap:butt;stroke-linejoin:miter;stroke-opacity:1" d="M 627.46,528.405 642.026,528.405 z" id="boundary" inkscape:connector-curvature="0" />
	<path style="fill:none;stroke:red;stroke-width:1px;stroke-linecap:butt;stroke-linejoin:miter;stroke-opacity:1" d="M 727.971,521.122 713.404,521.122 z" id="boundary" inkscape:connector-curvature="0" />
	<path style="fill:none;stroke:red;stroke-width:1px;stroke-linecap:butt;stroke-linejoin:miter;stroke-opacity:1" d="M 627.46,528.405 612.893,535.689 z" id="boundary" inkscape:connector-curvature="0" />
	<path style="fill:none;stroke:red;stroke-width:1px;stroke-linecap:butt;stroke-linejoin:miter;stroke-opacity:1" d="M 588.129,553.169 576.476,564.822 z" id="boundary" inkscape:connector-curvature="0" />
	<path style="fill:none;stroke:red;stroke-width:1px;stroke-linecap:butt;stroke-linejoin:miter;stroke-opacity:1" d="M 588.129,553.169 599.783,542.972 z" id="boundary" inkscape:connector-curvature="0" />
	<path style="fill:none;stroke:red;stroke-width:1px;stroke-linecap:butt;stroke-linejoin:miter;stroke-opacity:1" d="M 612.893,535.689 599.783,542.972 z" id="boundary" inkscape:connector-curvature="0" />
	<path style="fill:none;stroke:red;stroke-width:1px;stroke-linecap:butt;stroke-linejoin:miter;stroke-opacity:1" d="M 486.162,567.736 493.445,580.846 z" id="boundary" inkscape:connector-curvature="0" />
	<path style="fill:none;stroke:red;stroke-width:1px;stroke-linecap:butt;stroke-linejoin:miter;stroke-opacity:1" d="M 486.162,567.736 478.878,554.626 z" id="boundary" inkscape:connector-curvature="0" />
	<path style="fill:none;stroke:red;stroke-width:1px;stroke-linecap:butt;stroke-linejoin:miter;stroke-opacity:1" d="M 576.476,564.822 564.822,576.476 z" id="boundary" inkscape:connector-curvature="0" />
	<path style="fill:none;stroke:red;stroke-width:1px;stroke-linecap:butt;stroke-linejoin:miter;stroke-opacity:1" d="M 478.878,554.626 471.595,541.515 z" id="boundary" inkscape:connector-curvature="0" />
	<path style="fill:none;stroke:red;stroke-width:1px;stroke-linecap:butt;stroke-linejoin:miter;stroke-opacity:1" d="M 653.68,566.279 639.113,573.562 z" id="boundary" inkscape:connector-curvature="0" />
	<path style="fill:none;stroke:red;stroke-width:1px;stroke-linecap:butt;stroke-linejoin:miter;stroke-opacity:1" d="M 725.057,554.626 739.624,547.342 z" id="boundary" inkscape:connector-curvature="0" />
	<path style="fill:none;stroke:red;stroke-width:1px;stroke-linecap:butt;stroke-linejoin:miter;stroke-opacity:1" d="M 741.081,528.405 754.191,540.059 z" id="boundary" inkscape:connector-curvature="0" />
	<path style="fill:none;stroke:red;stroke-width:1px;stroke-linecap:butt;stroke-linejoin:miter;stroke-opacity:1" d="M 754.191,540.059 739.624,547.342 z" id="boundary" inkscape:connector-curvature="0" />
	<path style="fill:none;stroke:red;stroke-width:1px;stroke-linecap:butt;stroke-linejoin:miter;stroke-opacity:1" d="M 725.057,554.626 710.49,558.996 z" id="boundary" inkscape:connector-curvature="0" />
	<path style="fill:none;stroke:red;stroke-width:1px;stroke-linecap:butt;stroke-linejoin:miter;stroke-opacity:1" d="M 653.68,566.279 668.247,566.279 z" id="boundary" inkscape:connector-curvature="0" />
	<path style="fill:none;stroke:red;stroke-width:1px;stroke-linecap:butt;stroke-linejoin:miter;stroke-opacity:1" d="M 682.814,566.279 668.247,566.279 z" id="boundary" inkscape:connector-curvature="0" />
	<path style="fill:none;stroke:red;stroke-width:1px;stroke-linecap:butt;stroke-linejoin:miter;stroke-opacity:1" d="M 697.38,566.279 710.49,558.996 z" id="boundary" inkscape:connector-curvature="0" />
	<path style="fill:none;stroke:red;stroke-width:1px;stroke-linecap:butt;stroke-linejoin:miter;stroke-opacity:1" d="M 697.38,566.279 682.814,566.279 z" id="boundary" inkscape:connector-curvature="0" />
	<path style="fill:none;stroke:red;stroke-width:1px;stroke-linecap:butt;stroke-linejoin:miter;stroke-opacity:1" d="M 727.971,521.122 741.081,528.405 z" id="boundary" inkscape:connector-curvature="0" />
	<path style="fill:none;stroke:red;stroke-width:1px;stroke-linecap:butt;stroke-linejoin:miter;stroke-opacity:1" d="M 500.728,593.956 508.012,607.066 z" id="boundary" inkscape:connector-curvature="0" />
	<path style="fill:none;stroke:red;stroke-width:1px;stroke-linecap:butt;stroke-linejoin:miter;stroke-opacity:1" d="M 515.295,620.176 508.012,607.066 z" id="boundary" inkscape:connector-curvature="0" />
	<path style="fill:none;stroke:red;stroke-width:1px;stroke-linecap:butt;stroke-linejoin:miter;stroke-opacity:1" d="M 391.477,813.915 404.587,806.631 z" id="boundary" inkscape:connector-curvature="0" />
	<path style="fill:none;stroke:red;stroke-width:1px;stroke-linecap:butt;stroke-linejoin:miter;stroke-opacity:1" d="M 404.587,806.631 413.327,818.285 z" id="boundary" inkscape:connector-curvature="0" />
	<path style="fill:none;stroke:red;stroke-width:1px;stroke-linecap:butt;stroke-linejoin:miter;stroke-opacity:1" d="M 413.327,818.285 420.611,831.395 z" id="boundary" inkscape:connector-curvature="0" />
	<path style="fill:none;stroke:red;stroke-width:1px;stroke-linecap:butt;stroke-linejoin:miter;stroke-opacity:1" d="M 540.059,623.09 526.949,630.373 z" id="boundary" inkscape:connector-curvature="0" />
	<path style="fill:none;stroke:red;stroke-width:1px;stroke-linecap:butt;stroke-linejoin:miter;stroke-opacity:1" d="M 526.949,630.373 515.295,620.176 z" id="boundary" inkscape:connector-curvature="0" />
	<path style="fill:none;stroke:red;stroke-width:1px;stroke-linecap:butt;stroke-linejoin:miter;stroke-opacity:1" d="M 391.477,813.915 376.91,821.198 z" id="boundary" inkscape:connector-curvature="0" />
	<path style="fill:none;stroke:red;stroke-width:1px;stroke-linecap:butt;stroke-linejoin:miter;stroke-opacity:1" d="M 529.862,726.514 529.862,741.081 z" id="boundary" inkscape:connector-curvature="0" />
	<path style="fill:none;stroke:red;stroke-width:1px;stroke-linecap:butt;stroke-linejoin:miter;stroke-opacity:1" d="M 537.145,711.947 529.862,726.514 z" id="boundary" inkscape:connector-curvature="0" />
	<path style="fill:none;stroke:red;stroke-width:1px;stroke-linecap:butt;stroke-linejoin:miter;stroke-opacity:1" d="M 529.862,755.648 529.862,741.081 z" id="boundary" inkscape:connector-curvature="0" />
	<path style="fill:none;stroke:red;stroke-width:1px;stroke-linecap:butt;stroke-linejoin:miter;stroke-opacity:1" d="M 548.799,701.75 537.145,711.947 z" id="boundary" inkscape:connector-curvature="0" />
	<path style="fill:none;stroke:red;stroke-width:1px;stroke-linecap:butt;stroke-linejoin:miter;stroke-opacity:1" d="M 529.862,755.648 529.862,770.214 z" id="boundary" inkscape:connector-curvature="0" />
	<path style="fill:none;stroke:red;stroke-width:1px;stroke-linecap:butt;stroke-linejoin:miter;stroke-opacity:1" d="M 540.059,812.458 532.775,799.348 z" id="boundary" inkscape:connector-curvature="0" />
	<path style="fill:none;stroke:red;stroke-width:1px;stroke-linecap:butt;stroke-linejoin:miter;stroke-opacity:1" d="M 532.775,799.348 529.862,784.781 z" id="boundary" inkscape:connector-curvature="0" />
	<path style="fill:none;stroke:red;stroke-width:1px;stroke-linecap:butt;stroke-linejoin:miter;stroke-opacity:1" d="M 529.862,784.781 529.862,770.214 z" id="boundary" inkscape:connector-curvature="0" />
	<path style="fill:none;stroke:red;stroke-width:1px;stroke-linecap:butt;stroke-linejoin:miter;stroke-opacity:1" d="M 500.728,593.956 493.445,580.846 z" id="boundary" inkscape:connector-curvature="0" />
	<path style="fill:none;stroke:red;stroke-width:1px;stroke-linecap:butt;stroke-linejoin:miter;stroke-opacity:1" d="M 420.611,831.395 430.808,843.048 z" id="boundary" inkscape:connector-curvature="0" />
	<path style="fill:none;stroke:red;stroke-width:1px;stroke-linecap:butt;stroke-linejoin:miter;stroke-opacity:1" d="M 430.808,843.048 442.461,853.245 z" id="boundary" inkscape:connector-curvature="0" />
	<path style="fill:none;stroke:red;stroke-width:1px;stroke-linecap:butt;stroke-linejoin:miter;stroke-opacity:1" d="M 442.461,853.245 452.658,864.899 z" id="boundary" inkscape:connector-curvature="0" />
	<path style="fill:none;stroke:red;stroke-width:1px;stroke-linecap:butt;stroke-linejoin:miter;stroke-opacity:1" d="M 465.768,872.182 452.658,864.899 z" id="boundary" inkscape:connector-curvature="0" />
	<path style="fill:none;stroke:red;stroke-width:1px;stroke-linecap:butt;stroke-linejoin:miter;stroke-opacity:1" d="M 480.335,872.182 465.768,872.182 z" id="boundary" inkscape:connector-curvature="0" />
	<path style="fill:none;stroke:red;stroke-width:1px;stroke-linecap:butt;stroke-linejoin:miter;stroke-opacity:1" d="M 480.335,872.182 494.902,872.182 z" id="boundary" inkscape:connector-curvature="0" />
	<path style="fill:none;stroke:red;stroke-width:1px;stroke-linecap:butt;stroke-linejoin:miter;stroke-opacity:1" d="M 494.902,872.182 508.012,879.465 z" id="boundary" inkscape:connector-curvature="0" />
	<path style="fill:none;stroke:red;stroke-width:1px;stroke-linecap:butt;stroke-linejoin:miter;stroke-opacity:1" d="M 516.752,891.119 521.122,905.686 z" id="boundary" inkscape:connector-curvature="0" />
	<path style="fill:none;stroke:red;stroke-width:1px;stroke-linecap:butt;stroke-linejoin:miter;stroke-opacity:1" d="M 516.752,891.119 508.012,879.465 z" id="boundary" inkscape:connector-curvature="0" />
	<path style="fill:none;stroke:red;stroke-width:1px;stroke-linecap:butt;stroke-linejoin:miter;stroke-opacity:1" d="M 521.122,905.686 528.405,918.796 z" id="boundary" inkscape:connector-curvature="0" />
	<path style="fill:none;stroke:red;stroke-width:1px;stroke-linecap:butt;stroke-linejoin:miter;stroke-opacity:1" d="M 528.405,955.213 528.405,969.78 z" id="boundary" inkscape:connector-curvature="0" />
	<path style="fill:none;stroke:red;stroke-width:1px;stroke-linecap:butt;stroke-linejoin:miter;stroke-opacity:1" d="M 528.405,955.213 535.689,931.906 z" id="boundary" inkscape:connector-curvature="0" />
	<path style="fill:none;stroke:red;stroke-width:1px;stroke-linecap:butt;stroke-linejoin:miter;stroke-opacity:1" d="M 540.059,994.543 528.405,984.347 z" id="boundary" inkscape:connector-curvature="0" />
	<path style="fill:none;stroke:red;stroke-width:1px;stroke-linecap:butt;stroke-linejoin:miter;stroke-opacity:1" d="M 528.405,984.347 528.405,969.78 z" id="boundary" inkscape:connector-curvature="0" />
	<path style="fill:none;stroke:red;stroke-width:1px;stroke-linecap:butt;stroke-linejoin:miter;stroke-opacity:1" d="M 528.405,918.796 535.689,931.906 z" id="boundary" inkscape:connector-curvature="0" />
	<path style="fill:none;stroke:red;stroke-width:1px;stroke-linecap:butt;stroke-linejoin:miter;stroke-opacity:1" d="M 570.649,672.617 558.996,682.814 z" id="boundary" inkscape:connector-curvature="0" />
	<path style="fill:none;stroke:red;stroke-width:1px;stroke-linecap:butt;stroke-linejoin:miter;stroke-opacity:1" d="M 550.256,605.609 540.059,623.09 z" id="boundary" inkscape:connector-curvature="0" />
	<path style="fill:none;stroke:red;stroke-width:1px;stroke-linecap:butt;stroke-linejoin:miter;stroke-opacity:1" d="M 550.256,605.609 561.909,593.956 z" id="boundary" inkscape:connector-curvature="0" />
	<path style="fill:none;stroke:red;stroke-width:1px;stroke-linecap:butt;stroke-linejoin:miter;stroke-opacity:1" d="M 564.822,576.476 561.909,593.956 z" id="boundary" inkscape:connector-curvature="0" />
	<path style="fill:none;stroke:red;stroke-width:1px;stroke-linecap:butt;stroke-linejoin:miter;stroke-opacity:1" d="M 550.256,824.112 540.059,812.458 z" id="boundary" inkscape:connector-curvature="0" />
	<path style="fill:none;stroke:red;stroke-width:1px;stroke-linecap:butt;stroke-linejoin:miter;stroke-opacity:1" d="M 548.799,701.75 558.996,682.814 z" id="boundary" inkscape:connector-curvature="0" />
	<path style="fill:none;stroke:red;stroke-width:1px;stroke-linecap:butt;stroke-linejoin:miter;stroke-opacity:1" d="M 561.909,834.308 550.256,824.112 z" id="boundary" inkscape:connector-curvature="0" />
	<path style="fill:none;stroke:red;stroke-width:1px;stroke-linecap:butt;stroke-linejoin:miter;stroke-opacity:1" d="M 602.696,609.979 614.349,599.783 z" id="boundary" inkscape:connector-curvature="0" />
	<path style="fill:none;stroke:red;stroke-width:1px;stroke-linecap:butt;stroke-linejoin:miter;stroke-opacity:1" d="M 595.413,624.546 602.696,609.979 z" id="boundary" inkscape:connector-curvature="0" />
	<path style="fill:none;stroke:red;stroke-width:1px;stroke-linecap:butt;stroke-linejoin:miter;stroke-opacity:1" d="M 624.546,580.846 639.113,573.562 z" id="boundary" inkscape:connector-curvature="0" />
	<path style="fill:none;stroke:red;stroke-width:1px;stroke-linecap:butt;stroke-linejoin:miter;stroke-opacity:1" d="M 614.349,599.783 624.546,580.846 z" id="boundary" inkscape:connector-curvature="0" />
	<path style="fill:none;stroke:red;stroke-width:1px;stroke-linecap:butt;stroke-linejoin:miter;stroke-opacity:1" d="M 577.932,658.05 588.129,639.113 z" id="boundary" inkscape:connector-curvature="0" />
	<path style="fill:none;stroke:red;stroke-width:1px;stroke-linecap:butt;stroke-linejoin:miter;stroke-opacity:1" d="M 577.932,658.05 570.649,672.617 z" id="boundary" inkscape:connector-curvature="0" />
	<path style="fill:none;stroke:red;stroke-width:1px;stroke-linecap:butt;stroke-linejoin:miter;stroke-opacity:1" d="M 595.413,624.546 588.129,639.113 z" id="boundary" inkscape:connector-curvature="0" />
	<path style="fill:none;stroke:red;stroke-width:1px;stroke-linecap:butt;stroke-linejoin:miter;stroke-opacity:1" d="M 566.279,848.875 566.279,863.442 z" id="boundary" inkscape:connector-curvature="0" />
	<path style="fill:none;stroke:red;stroke-width:1px;stroke-linecap:butt;stroke-linejoin:miter;stroke-opacity:1" d="M 566.279,863.442 566.279,878.009 z" id="boundary" inkscape:connector-curvature="0" />
	<path style="fill:none;stroke:red;stroke-width:1px;stroke-linecap:butt;stroke-linejoin:miter;stroke-opacity:1" d="M 573.562,891.119 566.279,878.009 z" id="boundary" inkscape:connector-curvature="0" />
	<path style="fill:none;stroke:red;stroke-width:1px;stroke-linecap:butt;stroke-linejoin:miter;stroke-opacity:1" d="M 540.059,994.543 554.626,996 z" id="boundary" inkscape:connector-curvature="0" />
	<path style="fill:none;stroke:red;stroke-width:1px;stroke-linecap:butt;stroke-linejoin:miter;stroke-opacity:1" d="M 580.846,904.229 586.673,918.796 z" id="boundary" inkscape:connector-curvature="0" />
	<path style="fill:none;stroke:red;stroke-width:1px;stroke-linecap:butt;stroke-linejoin:miter;stroke-opacity:1" d="M 569.192,996 554.626,996 z" id="boundary" inkscape:connector-curvature="0" />
	<path style="fill:none;stroke:red;stroke-width:1px;stroke-linecap:butt;stroke-linejoin:miter;stroke-opacity:1" d="M 573.562,891.119 580.846,904.229 z" id="boundary" inkscape:connector-curvature="0" />
	<path style="fill:none;stroke:red;stroke-width:1px;stroke-linecap:butt;stroke-linejoin:miter;stroke-opacity:1" d="M 561.909,834.308 566.279,848.875 z" id="boundary" inkscape:connector-curvature="0" />
	<path style="fill:none;stroke:red;stroke-width:1px;stroke-linecap:butt;stroke-linejoin:miter;stroke-opacity:1" d="M 598.326,928.993 586.673,918.796 z" id="boundary" inkscape:connector-curvature="0" />
	<path style="fill:none;stroke:red;stroke-width:1px;stroke-linecap:butt;stroke-linejoin:miter;stroke-opacity:1" d="M 598.326,928.993 602.696,943.559 z" id="boundary" inkscape:connector-curvature="0" />
	<path style="fill:none;stroke:red;stroke-width:1px;stroke-linecap:butt;stroke-linejoin:miter;stroke-opacity:1" d="M 609.979,956.67 602.696,943.559 z" id="boundary" inkscape:connector-curvature="0" />
	<path style="fill:none;stroke:red;stroke-width:1px;stroke-linecap:butt;stroke-linejoin:miter;stroke-opacity:1" d="M 596.869,988.717 583.759,996 z" id="boundary" inkscape:connector-curvature="0" />
	<path style="fill:none;stroke:red;stroke-width:1px;stroke-linecap:butt;stroke-linejoin:miter;stroke-opacity:1" d="M 583.759,996 569.192,996 z" id="boundary" inkscape:connector-curvature="0" />
	<path style="fill:none;stroke:red;stroke-width:1px;stroke-linecap:butt;stroke-linejoin:miter;stroke-opacity:1" d="M 609.979,956.67 608.523,977.063 z" id="boundary" inkscape:connector-curvature="0" />
	<path style="fill:none;stroke:red;stroke-width:1px;stroke-linecap:butt;stroke-linejoin:miter;stroke-opacity:1" d="M 608.523,977.063 596.869,988.717 z" id="boundary" inkscape:connector-curvature="0" />
	<circle cx="4" cy="306.99" r="4" fill="#0" id="circle0"/>
	<circle cx="11.2834" cy="320.1" r="4" fill="#0" id="circle1"/>
	<circle cx="15.6535" cy="295.336" r="4" fill="#0" id="circle2"/>
	<circle cx="18.5668" cy="333.21" r="4" fill="#0" id="circle3"/>
	<circle cx="28.7636" cy="288.053" r="4" fill="#0" id="circle4"/>
	<circle cx="31.6769" cy="340.493" r="4" fill="#0" id="circle5"/>
	<circle cx="43.3304" cy="282.226" r="4" fill="#0" id="circle6"/>
	<circle cx="46.2438" cy="340.493" r="4" fill="#0" id="circle7"/>
	<circle cx="56.4405" cy="352.147" r="4" fill="#0" id="circle8"/>
	<circle cx="57.8972" cy="280.769" r="4" fill="#0" id="circle9"/>
	<circle cx="68.094" cy="362.344" r="4" fill="#0" id="circle10"/>
	<circle cx="72.464" cy="280.769" r="4" fill="#0" id="circle11"/>
	<circle cx="76.8341" cy="373.997" r="4" fill="#0" id="circle12"/>
	<circle cx="84.1175" cy="290.966" r="4" fill="#0" id="circle13"/>
	<circle cx="84.1175" cy="387.107" r="4" fill="#0" id="circle14"/>
	<circle cx="91.4009" cy="400.217" r="4" fill="#0" id="circle15"/>
	<circle cx="92.8576" cy="302.62" r="4" fill="#0" id="circle16"/>
	<circle cx="98.6843" cy="413.327" r="4" fill="#0" id="circle17"/>
	<circle cx="103.054" cy="427.894" r="4" fill="#0" id="circle18"/>
	<circle cx="104.511" cy="311.36" r="4" fill="#0" id="circle19"/>
	<circle cx="110.338" cy="441.004" r="4" fill="#0" id="circle20"/>
	<circle cx="114.708" cy="323.013" r="4" fill="#0" id="circle21"/>
	<circle cx="123.448" cy="448.288" r="4" fill="#0" id="circle22"/>
	<circle cx="126.361" cy="331.753" r="4" fill="#0" id="circle23"/>
	<circle cx="138.015" cy="454.115" r="4" fill="#0" id="circle24"/>
	<circle cx="139.471" cy="339.037" r="4" fill="#0" id="circle25"/>
	<circle cx="142.385" cy="598.326" r="4" fill="#0" id="circle26"/>
	<circle cx="142.385" cy="612.893" r="4" fill="#0" id="circle27"/>
	<circle cx="149.668" cy="350.69" r="4" fill="#0" id="circle28"/>
	<circle cx="149.668" cy="626.003" r="4" fill="#0" id="circle29"/>
	<circle cx="152.581" cy="457.028" r="4" fill="#0" id="circle30"/>
	<circle cx="156.952" cy="583.759" r="4" fill="#0" id="circle31"/>
	<circle cx="156.952" cy="639.113" r="4" fill="#0" id="circle32"/>
	<circle cx="161.322" cy="339.037" r="4" fill="#0" id="circle33"/>
	<circle cx="164.235" cy="270.573" r="4" fill="#0" id="circle34"/>
	<circle cx="164.235" cy="285.14" r="4" fill="#0" id="circle35"/>
	<circle cx="164.235" cy="299.706" r="4" fill="#0" id="circle36"/>
	<circle cx="164.235" cy="314.273" r="4" fill="#0" id="circle37"/>
	<circle cx="167.148" cy="461.398" r="4" fill="#0" id="circle38"/>
	<circle cx="168.605" cy="572.106" r="4" fill="#0" id="circle39"/>
	<circle cx="170.062" cy="646.396" r="4" fill="#0" id="circle40"/>
	<circle cx="171.518" cy="52.0705" r="4" fill="#0" id="circle41"/>
	<circle cx="171.518" cy="66.6373" r="4" fill="#0" id="circle42"/>
	<circle cx="171.518" cy="81.2041" r="4" fill="#0" id="circle43"/>
	<circle cx="171.518" cy="95.7709" r="4" fill="#0" id="circle44"/>
	<circle cx="171.518" cy="110.338" r="4" fill="#0" id="circle45"/>
	<circle cx="171.518" cy="124.905" r="4" fill="#0" id="circle46"/>
	<circle cx="171.518" cy="139.471" r="4" fill="#0" id="circle47"/>
	<circle cx="171.518" cy="154.038" r="4" fill="#0" id="circle48"/>
	<circle cx="171.518" cy="168.605" r="4" fill="#0" id="circle49"/>
	<circle cx="175.888" cy="258.919" r="4" fill="#0" id="circle50"/>
	<circle cx="178.802" cy="22.9369" r="4" fill="#0" id="circle51"/>
	<circle cx="178.802" cy="37.5037" r="4" fill="#0" id="circle52"/>
	<circle cx="178.802" cy="181.715" r="4" fill="#0" id="circle53"/>
	<circle cx="178.802" cy="470.138" r="4" fill="#0" id="circle54"/>
	<circle cx="178.802" cy="554.626" r="4" fill="#0" id="circle55"/>
	<circle cx="181.715" cy="484.705" r="4" fill="#0" id="circle56"/>
	<circle cx="183.172" cy="244.352" r="4" fill="#0" id="circle57"/>
	<circle cx="184.628" cy="643.483" r="4" fill="#0" id="circle58"/>
	<circle cx="186.085" cy="194.825" r="4" fill="#0" id="circle59"/>
	<circle cx="186.085" cy="209.392" r="4" fill="#0" id="circle60"/>
	<circle cx="186.085" cy="499.272" r="4" fill="#0" id="circle61"/>
	<circle cx="186.085" cy="540.059" r="4" fill="#0" id="circle62"/>
	<circle cx="190.455" cy="11.2834" r="4" fill="#0" id="circle63"/>
	<circle cx="190.455" cy="229.786" r="4" fill="#0" id="circle64"/>
	<circle cx="193.369" cy="512.382" r="4" fill="#0" id="circle65"/>
	<circle cx="193.369" cy="526.949" r="4" fill="#0" id="circle66"/>
	<circle cx="199.195" cy="636.2" r="4" fill="#0" id="circle67"/>
	<circle cx="203.565" cy="4" r="4" fill="#0" id="circle68"/>
	<circle cx="209.392" cy="617.263" r="4" fill="#0" id="circle69"/>
	<circle cx="215.219" cy="940.646" r="4" fill="#0" id="circle70"/>
	<circle cx="215.219" cy="955.213" r="4" fill="#0" id="circle71"/>
	<circle cx="215.219" cy="969.78" r="4" fill="#0" id="circle72"/>
	<circle cx="216.675" cy="11.2834" r="4" fill="#0" id="circle73"/>
	<circle cx="222.502" cy="609.979" r="4" fill="#0" id="circle74"/>
	<circle cx="226.872" cy="928.993" r="4" fill="#0" id="circle75"/>
	<circle cx="229.786" cy="18.5668" r="4" fill="#0" id="circle76"/>
	<circle cx="229.786" cy="758.561" r="4" fill="#0" id="circle77"/>
	<circle cx="229.786" cy="773.128" r="4" fill="#0" id="circle78"/>
	<circle cx="229.786" cy="787.695" r="4" fill="#0" id="circle79"/>
	<circle cx="229.786" cy="974.15" r="4" fill="#0" id="circle80"/>
	<circle cx="237.069" cy="609.979" r="4" fill="#0" id="circle81"/>
	<circle cx="237.069" cy="624.546" r="4" fill="#0" id="circle82"/>
	<circle cx="237.069" cy="743.994" r="4" fill="#0" id="circle83"/>
	<circle cx="237.069" cy="800.805" r="4" fill="#0" id="circle84"/>
	<circle cx="237.069" cy="911.512" r="4" fill="#0" id="circle85"/>
	<circle cx="238.526" cy="30.2203" r="4" fill="#0" id="circle86"/>
	<circle cx="242.896" cy="981.433" r="4" fill="#0" id="circle87"/>
	<circle cx="244.352" cy="729.427" r="4" fill="#0" id="circle88"/>
	<circle cx="244.352" cy="813.915" r="4" fill="#0" id="circle89"/>
	<circle cx="245.809" cy="636.2" r="4" fill="#0" id="circle90"/>
	<circle cx="248.722" cy="899.859" r="4" fill="#0" id="circle91"/>
	<circle cx="251.636" cy="650.767" r="4" fill="#0" id="circle92"/>
	<circle cx="251.636" cy="665.333" r="4" fill="#0" id="circle93"/>
	<circle cx="251.636" cy="679.9" r="4" fill="#0" id="circle94"/>
	<circle cx="251.636" cy="694.467" r="4" fill="#0" id="circle95"/>
	<circle cx="251.636" cy="709.034" r="4" fill="#0" id="circle96"/>
	<circle cx="251.636" cy="827.025" r="4" fill="#0" id="circle97"/>
	<circle cx="251.636" cy="882.379" r="4" fill="#0" id="circle98"/>
	<circle cx="253.093" cy="33.1336" r="4" fill="#0" id="circle99"/>
	<circle cx="257.463" cy="978.52" r="4" fill="#0" id="circle100"/>
	<circle cx="258.919" cy="840.135" r="4" fill="#0" id="circle101"/>
	<circle cx="258.919" cy="854.702" r="4" fill="#0" id="circle102"/>
	<circle cx="258.919" cy="869.269" r="4" fill="#0" id="circle103"/>
	<circle cx="267.659" cy="33.1336" r="4" fill="#0" id="circle104"/>
	<circle cx="267.659" cy="966.866" r="4" fill="#0" id="circle105"/>
	<circle cx="274.943" cy="945.016" r="4" fill="#0" id="circle106"/>
	<circle cx="282.226" cy="33.1336" r="4" fill="#0" id="circle107"/>
	<circle cx="286.596" cy="934.819" r="4" fill="#0" id="circle108"/>
	<circle cx="293.88" cy="920.253" r="4" fill="#0" id="circle109"/>
	<circle cx="296.793" cy="33.1336" r="4" fill="#0" id="circle110"/>
	<circle cx="304.076" cy="908.599" r="4" fill="#0" id="circle111"/>
	<circle cx="311.36" cy="33.1336" r="4" fill="#0" id="circle112"/>
	<circle cx="311.36" cy="857.615" r="4" fill="#0" id="circle113"/>
	<circle cx="314.273" cy="872.182" r="4" fill="#0" id="circle114"/>
	<circle cx="318.643" cy="886.749" r="4" fill="#0" id="circle115"/>
	<circle cx="318.643" cy="901.316" r="4" fill="#0" id="circle116"/>
	<circle cx="324.47" cy="25.8502" r="4" fill="#0" id="circle117"/>
	<circle cx="324.47" cy="850.332" r="4" fill="#0" id="circle118"/>
	<circle cx="337.58" cy="843.048" r="4" fill="#0" id="circle119"/>
	<circle cx="339.037" cy="25.8502" r="4" fill="#0" id="circle120"/>
	<circle cx="350.69" cy="835.765" r="4" fill="#0" id="circle121"/>
	<circle cx="353.604" cy="25.8502" r="4" fill="#0" id="circle122"/>
	<circle cx="363.8" cy="828.482" r="4" fill="#0" id="circle123"/>
	<circle cx="366.714" cy="18.5668" r="4" fill="#0" id="circle124"/>
	<circle cx="376.91" cy="821.198" r="4" fill="#0" id="circle125"/>
	<circle cx="379.824" cy="11.2834" r="4" fill="#0" id="circle126"/>
	<circle cx="391.477" cy="813.915" r="4" fill="#0" id="circle127"/>
	<circle cx="394.391" cy="4" r="4" fill="#0" id="circle128"/>
	<circle cx="404.587" cy="806.631" r="4" fill="#0" id="circle129"/>
	<circle cx="406.044" cy="63.7239" r="4" fill="#0" id="circle130"/>
	<circle cx="406.044" cy="78.2907" r="4" fill="#0" id="circle131"/>
	<circle cx="406.044" cy="92.8576" r="4" fill="#0" id="circle132"/>
	<circle cx="406.044" cy="245.809" r="4" fill="#0" id="circle133"/>
	<circle cx="406.044" cy="260.376" r="4" fill="#0" id="circle134"/>
	<circle cx="406.044" cy="274.943" r="4" fill="#0" id="circle135"/>
	<circle cx="406.044" cy="289.51" r="4" fill="#0" id="circle136"/>
	<circle cx="408.957" cy="4" r="4" fill="#0" id="circle137"/>
	<circle cx="408.957" cy="107.424" r="4" fill="#0" id="circle138"/>
	<circle cx="413.327" cy="34.5903" r="4" fill="#0" id="circle139"/>
	<circle cx="413.327" cy="49.1571" r="4" fill="#0" id="circle140"/>
	<circle cx="413.327" cy="121.991" r="4" fill="#0" id="circle141"/>
	<circle cx="413.327" cy="223.959" r="4" fill="#0" id="circle142"/>
	<circle cx="413.327" cy="302.62" r="4" fill="#0" id="circle143"/>
	<circle cx="413.327" cy="317.186" r="4" fill="#0" id="circle144"/>
	<circle cx="413.327" cy="331.753" r="4" fill="#0" id="circle145"/>
	<circle cx="413.327" cy="346.32" r="4" fill="#0" id="circle146"/>
	<circle cx="413.327" cy="360.887" r="4" fill="#0" id="circle147"/>
	<circle cx="413.327" cy="375.454" r="4" fill="#0" id="circle148"/>
	<circle cx="413.327" cy="390.021" r="4" fill="#0" id="circle149"/>
	<circle cx="413.327" cy="818.285" r="4" fill="#0" id="circle150"/>
	<circle cx="416.241" cy="136.558" r="4" fill="#0" id="circle151"/>
	<circle cx="419.154" cy="15.6535" r="4" fill="#0" id="circle152"/>
	<circle cx="420.611" cy="151.125" r="4" fill="#0" id="circle153"/>
	<circle cx="420.611" cy="165.692" r="4" fill="#0" id="circle154"/>
	<circle cx="420.611" cy="180.258" r="4" fill="#0" id="circle155"/>
	<circle cx="420.611" cy="194.825" r="4" fill="#0" id="circle156"/>
	<circle cx="420.611" cy="209.392" r="4" fill="#0" id="circle157"/>
	<circle cx="420.611" cy="403.131" r="4" fill="#0" id="circle158"/>
	<circle cx="420.611" cy="417.698" r="4" fill="#0" id="circle159"/>
	<circle cx="420.611" cy="831.395" r="4" fill="#0" id="circle160"/>
	<circle cx="427.894" cy="430.808" r="4" fill="#0" id="circle161"/>
	<circle cx="427.894" cy="445.374" r="4" fill="#0" id="circle162"/>
	<circle cx="430.808" cy="843.048" r="4" fill="#0" id="circle163"/>
	<circle cx="433.721" cy="459.941" r="4" fill="#0" id="circle164"/>
	<circle cx="441.004" cy="473.051" r="4" fill="#0" id="circle165"/>
	<circle cx="442.461" cy="853.245" r="4" fill="#0" id="circle166"/>
	<circle cx="446.831" cy="487.618" r="4" fill="#0" id="circle167"/>
	<circle cx="449.744" cy="502.185" r="4" fill="#0" id="circle168"/>
	<circle cx="452.658" cy="864.899" r="4" fill="#0" id="circle169"/>
	<circle cx="458.485" cy="513.838" r="4" fill="#0" id="circle170"/>
	<circle cx="464.311" cy="528.405" r="4" fill="#0" id="circle171"/>
	<circle cx="465.768" cy="872.182" r="4" fill="#0" id="circle172"/>
	<circle cx="471.595" cy="541.515" r="4" fill="#0" id="circle173"/>
	<circle cx="478.878" cy="554.626" r="4" fill="#0" id="circle174"/>
	<circle cx="480.335" cy="872.182" r="4" fill="#0" id="circle175"/>
	<circle cx="486.162" cy="567.736" r="4" fill="#0" id="circle176"/>
	<circle cx="493.445" cy="580.846" r="4" fill="#0" id="circle177"/>
	<circle cx="494.902" cy="872.182" r="4" fill="#0" id="circle178"/>
	<circle cx="500.728" cy="593.956" r="4" fill="#0" id="circle179"/>
	<circle cx="508.012" cy="607.066" r="4" fill="#0" id="circle180"/>
	<circle cx="508.012" cy="879.465" r="4" fill="#0" id="circle181"/>
	<circle cx="515.295" cy="620.176" r="4" fill="#0" id="circle182"/>
	<circle cx="516.752" cy="891.119" r="4" fill="#0" id="circle183"/>
	<circle cx="521.122" cy="905.686" r="4" fill="#0" id="circle184"/>
	<circle cx="526.949" cy="630.373" r="4" fill="#0" id="circle185"/>
	<circle cx="528.405" cy="918.796" r="4" fill="#0" id="circle186"/>
	<circle cx="528.405" cy="955.213" r="4" fill="#0" id="circle187"/>
	<circle cx="528.405" cy="969.78" r="4" fill="#0" id="circle188"/>
	<circle cx="528.405" cy="984.347" r="4" fill="#0" id="circle189"/>
	<circle cx="529.862" cy="726.514" r="4" fill="#0" id="circle190"/>
	<circle cx="529.862" cy="741.081" r="4" fill="#0" id="circle191"/>
	<circle cx="529.862" cy="755.648" r="4" fill="#0" id="circle192"/>
	<circle cx="529.862" cy="770.214" r="4" fill="#0" id="circle193"/>
	<circle cx="529.862" cy="784.781" r="4" fill="#0" id="circle194"/>
	<circle cx="532.775" cy="799.348" r="4" fill="#0" id="circle195"/>
	<circle cx="535.689" cy="931.906" r="4" fill="#0" id="circle196"/>
	<circle cx="537.145" cy="711.947" r="4" fill="#0" id="circle197"/>
	<circle cx="540.059" cy="623.09" r="4" fill="#0" id="circle198"/>
	<circle cx="540.059" cy="812.458" r="4" fill="#0" id="circle199"/>
	<circle cx="540.059" cy="994.543" r="4" fill="#0" id="circle200"/>
	<circle cx="548.799" cy="701.75" r="4" fill="#0" id="circle201"/>
	<circle cx="550.256" cy="605.609" r="4" fill="#0" id="circle202"/>
	<circle cx="550.256" cy="824.112" r="4" fill="#0" id="circle203"/>
	<circle cx="554.626" cy="996" r="4" fill="#0" id="circle204"/>
	<circle cx="558.996" cy="682.814" r="4" fill="#0" id="circle205"/>
	<circle cx="561.909" cy="593.956" r="4" fill="#0" id="circle206"/>
	<circle cx="561.909" cy="834.308" r="4" fill="#0" id="circle207"/>
	<circle cx="564.822" cy="576.476" r="4" fill="#0" id="circle208"/>
	<circle cx="566.279" cy="848.875" r="4" fill="#0" id="circle209"/>
	<circle cx="566.279" cy="863.442" r="4" fill="#0" id="circle210"/>
	<circle cx="566.279" cy="878.009" r="4" fill="#0" id="circle211"/>
	<circle cx="569.192" cy="996" r="4" fill="#0" id="circle212"/>
	<circle cx="570.649" cy="672.617" r="4" fill="#0" id="circle213"/>
	<circle cx="573.562" cy="891.119" r="4" fill="#0" id="circle214"/>
	<circle cx="576.476" cy="564.822" r="4" fill="#0" id="circle215"/>
	<circle cx="577.932" cy="658.05" r="4" fill="#0" id="circle216"/>
	<circle cx="580.846" cy="904.229" r="4" fill="#0" id="circle217"/>
	<circle cx="583.759" cy="996" r="4" fill="#0" id="circle218"/>
	<circle cx="586.673" cy="918.796" r="4" fill="#0" id="circle219"/>
	<circle cx="588.129" cy="553.169" r="4" fill="#0" id="circle220"/>
	<circle cx="588.129" cy="639.113" r="4" fill="#0" id="circle221"/>
	<circle cx="595.413" cy="624.546" r="4" fill="#0" id="circle222"/>
	<circle cx="596.869" cy="988.717" r="4" fill="#0" id="circle223"/>
	<circle cx="598.326" cy="928.993" r="4" fill="#0" id="circle224"/>
	<circle cx="599.783" cy="542.972" r="4" fill="#0" id="circle225"/>
	<circle cx="602.696" cy="609.979" r="4" fill="#0" id="circle226"/>
	<circle cx="602.696" cy="943.559" r="4" fill="#0" id="circle227"/>
	<circle cx="608.523" cy="977.063" r="4" fill="#0" id="circle228"/>
	<circle cx="609.979" cy="956.67" r="4" fill="#0" id="circle229"/>
	<circle cx="612.893" cy="535.689" r="4" fill="#0" id="circle230"/>
	<circle cx="614.349" cy="599.783" r="4" fill="#0" id="circle231"/>
	<circle cx="624.546" cy="580.846" r="4" fill="#0" id="circle232"/>
	<circle cx="627.46" cy="528.405" r="4" fill="#0" id="circle233"/>
	<circle cx="639.113" cy="573.562" r="4" fill="#0" id="circle234"/>
	<circle cx="642.026" cy="528.405" r="4" fill="#0" id="circle235"/>
	<circle cx="653.68" cy="566.279" r="4" fill="#0" id="circle236"/>
	<circle cx="656.593" cy="521.122" r="4" fill="#0" id="circle237"/>
	<circle cx="668.247" cy="566.279" r="4" fill="#0" id="circle238"/>
	<circle cx="671.16" cy="521.122" r="4" fill="#0" id="circle239"/>
	<circle cx="682.814" cy="566.279" r="4" fill="#0" id="circle240"/>
	<circle cx="685.727" cy="521.122" r="4" fill="#0" id="circle241"/>
	<circle cx="697.38" cy="566.279" r="4" fill="#0" id="circle242"/>
	<circle cx="700.294" cy="513.838" r="4" fill="#0" id="circle243"/>
	<circle cx="710.49" cy="558.996" r="4" fill="#0" id="circle244"/>
	<circle cx="713.404" cy="521.122" r="4" fill="#0" id="circle245"/>
	<circle cx="725.057" cy="554.626" r="4" fill="#0" id="circle246"/>
	<circle cx="727.971" cy="521.122" r="4" fill="#0" id="circle247"/>
	<circle cx="739.624" cy="547.342" r="4" fill="#0" id="circle248"/>
	<circle cx="741.081" cy="528.405" r="4" fill="#0" id="circle249"/>
	<circle cx="754.191" cy="540.059" r="4" fill="#0" id="circle250"/>
	</g>
</svg>