<?xml version="1.0" encoding="UTF-8" standalone="no"?>
<!-- Created with CurveBenchmark -->
<svg
	xmlns:dc="http://purl.org/dc/elements/1.1/"
	xmlns:cc="http://creativecommons.org/ns#"
	xmlns:rdf="http://www.w3.org/1999/02/22-rdf-syntax-ns#"
	xmlns:svg="http://www.w3.org/2000/svg"
	xmlns="http://www.w3.org/2000/svg"
	xmlns:sodipodi="http://sodipodi.sourceforge.net/DTD/sodipodi-0.dtd"
	xmlns:inkscape="http://www.inkscape.org/namespaces/inkscape"
	width="1000"
	height="1000"
	id="svg2"
	version="1.1"
	sodipodi:docname="manifold/nncrust-sink120.png.txt">
<defs
	id="defs4" />
<metadata
	id="metadata7">
	<rdf:RDF>
		<cc:Work
			rdf:about="">
			<dc:format>image/svg+xml</dc:format>
			<dc:type
				rdf:resource="http://purl.org/dc/dcmitype/StillImage" />
			<dc:title></dc:title>
		</cc:Work>
	</rdf:RDF>
</metadata>
<g
	inkscape:label="Layer 1"
	inkscape:groupmode="layer"
	id="layer1">
	<path style="fill:none;stroke:red;stroke-width:1px;stroke-linecap:butt;stroke-linejoin:miter;stroke-opacity:1" d="M 13.678,168.527 62.0683,168.527 z" id="boundary" inkscape:connector-curvature="0" />
	<path style="fill:none;stroke:red;stroke-width:1px;stroke-linecap:butt;stroke-linejoin:miter;stroke-opacity:1" d="M 13.678,216.917 13.678,168.527 z" id="boundary" inkscape:connector-curvature="0" />
	<path style="fill:none;stroke:red;stroke-width:1px;stroke-linecap:butt;stroke-linejoin:miter;stroke-opacity:1" d="M 110.459,168.527 62.0683,168.527 z" id="boundary" inkscape:connector-curvature="0" />
	<path style="fill:none;stroke:red;stroke-width:1px;stroke-linecap:butt;stroke-linejoin:miter;stroke-opacity:1" d="M 4,304.02 13.678,216.917 z" id="boundary" inkscape:connector-curvature="0" />
	<path style="fill:none;stroke:red;stroke-width:1px;stroke-linecap:butt;stroke-linejoin:miter;stroke-opacity:1" d="M 52.3902,318.537 4,304.02 z" id="boundary" inkscape:connector-curvature="0" />
	<path style="fill:none;stroke:red;stroke-width:1px;stroke-linecap:butt;stroke-linejoin:miter;stroke-opacity:1" d="M 4,304.02 13.678,168.527 z" id="boundary" inkscape:connector-curvature="0" />
	<path style="fill:none;stroke:red;stroke-width:1px;stroke-linecap:butt;stroke-linejoin:miter;stroke-opacity:1" d="M 52.3902,318.537 100.78,323.376 z" id="boundary" inkscape:connector-curvature="0" />
	<path style="fill:none;stroke:red;stroke-width:1px;stroke-linecap:butt;stroke-linejoin:miter;stroke-opacity:1" d="M 100.78,323.376 124.976,366.927 z" id="boundary" inkscape:connector-curvature="0" />
	<path style="fill:none;stroke:red;stroke-width:1px;stroke-linecap:butt;stroke-linejoin:miter;stroke-opacity:1" d="M 110.459,168.527 158.849,168.527 z" id="boundary" inkscape:connector-curvature="0" />
	<path style="fill:none;stroke:red;stroke-width:1px;stroke-linecap:butt;stroke-linejoin:miter;stroke-opacity:1" d="M 207.239,178.205 158.849,168.527 z" id="boundary" inkscape:connector-curvature="0" />
	<path style="fill:none;stroke:red;stroke-width:1px;stroke-linecap:butt;stroke-linejoin:miter;stroke-opacity:1" d="M 333.054,4 323.376,62.0683 z" id="boundary" inkscape:connector-curvature="0" />
	<path style="fill:none;stroke:red;stroke-width:1px;stroke-linecap:butt;stroke-linejoin:miter;stroke-opacity:1" d="M 333.054,110.459 323.376,62.0683 z" id="boundary" inkscape:connector-curvature="0" />
	<path style="fill:none;stroke:red;stroke-width:1px;stroke-linecap:butt;stroke-linejoin:miter;stroke-opacity:1" d="M 207.239,178.205 255.629,178.205 z" id="boundary" inkscape:connector-curvature="0" />
	<path style="fill:none;stroke:red;stroke-width:1px;stroke-linecap:butt;stroke-linejoin:miter;stroke-opacity:1" d="M 158.849,405.639 124.976,366.927 z" id="boundary" inkscape:connector-curvature="0" />
	<path style="fill:none;stroke:red;stroke-width:1px;stroke-linecap:butt;stroke-linejoin:miter;stroke-opacity:1" d="M 304.02,178.205 255.629,178.205 z" id="boundary" inkscape:connector-curvature="0" />
	<path style="fill:none;stroke:red;stroke-width:1px;stroke-linecap:butt;stroke-linejoin:miter;stroke-opacity:1" d="M 245.951,444.351 197.561,434.673 z" id="boundary" inkscape:connector-curvature="0" />
	<path style="fill:none;stroke:red;stroke-width:1px;stroke-linecap:butt;stroke-linejoin:miter;stroke-opacity:1" d="M 197.561,434.673 158.849,405.639 z" id="boundary" inkscape:connector-curvature="0" />
	<path style="fill:none;stroke:red;stroke-width:1px;stroke-linecap:butt;stroke-linejoin:miter;stroke-opacity:1" d="M 197.561,962.127 226.595,923.415 z" id="boundary" inkscape:connector-curvature="0" />
	<path style="fill:none;stroke:red;stroke-width:1px;stroke-linecap:butt;stroke-linejoin:miter;stroke-opacity:1" d="M 236.273,996 197.561,962.127 z" id="boundary" inkscape:connector-curvature="0" />
	<path style="fill:none;stroke:red;stroke-width:1px;stroke-linecap:butt;stroke-linejoin:miter;stroke-opacity:1" d="M 245.951,875.024 226.595,923.415 z" id="boundary" inkscape:connector-curvature="0" />
	<path style="fill:none;stroke:red;stroke-width:1px;stroke-linecap:butt;stroke-linejoin:miter;stroke-opacity:1" d="M 284.663,996 236.273,996 z" id="boundary" inkscape:connector-curvature="0" />
	<path style="fill:none;stroke:red;stroke-width:1px;stroke-linecap:butt;stroke-linejoin:miter;stroke-opacity:1" d="M 255.629,783.083 245.951,875.024 z" id="boundary" inkscape:connector-curvature="0" />
	<path style="fill:none;stroke:red;stroke-width:1px;stroke-linecap:butt;stroke-linejoin:miter;stroke-opacity:1" d="M 245.951,444.351 255.629,492.741 z" id="boundary" inkscape:connector-curvature="0" />
	<path style="fill:none;stroke:red;stroke-width:1px;stroke-linecap:butt;stroke-linejoin:miter;stroke-opacity:1" d="M 255.629,492.741 255.629,541.132 z" id="boundary" inkscape:connector-curvature="0" />
	<path style="fill:none;stroke:red;stroke-width:1px;stroke-linecap:butt;stroke-linejoin:miter;stroke-opacity:1" d="M 255.629,589.522 255.629,637.912 z" id="boundary" inkscape:connector-curvature="0" />
	<path style="fill:none;stroke:red;stroke-width:1px;stroke-linecap:butt;stroke-linejoin:miter;stroke-opacity:1" d="M 255.629,589.522 255.629,541.132 z" id="boundary" inkscape:connector-curvature="0" />
	<path style="fill:none;stroke:red;stroke-width:1px;stroke-linecap:butt;stroke-linejoin:miter;stroke-opacity:1" d="M 255.629,686.302 255.629,734.693 z" id="boundary" inkscape:connector-curvature="0" />
	<path style="fill:none;stroke:red;stroke-width:1px;stroke-linecap:butt;stroke-linejoin:miter;stroke-opacity:1" d="M 255.629,783.083 255.629,734.693 z" id="boundary" inkscape:connector-curvature="0" />
	<path style="fill:none;stroke:red;stroke-width:1px;stroke-linecap:butt;stroke-linejoin:miter;stroke-opacity:1" d="M 333.054,996 284.663,996 z" id="boundary" inkscape:connector-curvature="0" />
	<path style="fill:none;stroke:red;stroke-width:1px;stroke-linecap:butt;stroke-linejoin:miter;stroke-opacity:1" d="M 255.629,686.302 255.629,637.912 z" id="boundary" inkscape:connector-curvature="0" />
	<path style="fill:none;stroke:red;stroke-width:1px;stroke-linecap:butt;stroke-linejoin:miter;stroke-opacity:1" d="M 357.249,154.01 304.02,178.205 z" id="boundary" inkscape:connector-curvature="0" />
	<path style="fill:none;stroke:red;stroke-width:1px;stroke-linecap:butt;stroke-linejoin:miter;stroke-opacity:1" d="M 333.054,110.459 357.249,154.01 z" id="boundary" inkscape:connector-curvature="0" />
	<path style="fill:none;stroke:red;stroke-width:1px;stroke-linecap:butt;stroke-linejoin:miter;stroke-opacity:1" d="M 400.8,178.205 357.249,154.01 z" id="boundary" inkscape:connector-curvature="0" />
	<path style="fill:none;stroke:red;stroke-width:1px;stroke-linecap:butt;stroke-linejoin:miter;stroke-opacity:1" d="M 545.971,168.527 497.58,178.205 z" id="boundary" inkscape:connector-curvature="0" />
	<path style="fill:none;stroke:red;stroke-width:1px;stroke-linecap:butt;stroke-linejoin:miter;stroke-opacity:1" d="M 449.19,178.205 400.8,178.205 z" id="boundary" inkscape:connector-curvature="0" />
	<path style="fill:none;stroke:red;stroke-width:1px;stroke-linecap:butt;stroke-linejoin:miter;stroke-opacity:1" d="M 516.937,405.639 473.385,434.673 z" id="boundary" inkscape:connector-curvature="0" />
	<path style="fill:none;stroke:red;stroke-width:1px;stroke-linecap:butt;stroke-linejoin:miter;stroke-opacity:1" d="M 449.19,178.205 497.58,178.205 z" id="boundary" inkscape:connector-curvature="0" />
	<path style="fill:none;stroke:red;stroke-width:1px;stroke-linecap:butt;stroke-linejoin:miter;stroke-opacity:1" d="M 473.385,434.673 424.995,449.19 z" id="boundary" inkscape:connector-curvature="0" />
	<path style="fill:none;stroke:red;stroke-width:1px;stroke-linecap:butt;stroke-linejoin:miter;stroke-opacity:1" d="M 594.361,168.527 642.751,168.527 z" id="boundary" inkscape:connector-curvature="0" />
	<path style="fill:none;stroke:red;stroke-width:1px;stroke-linecap:butt;stroke-linejoin:miter;stroke-opacity:1" d="M 642.751,168.527 676.624,207.239 z" id="boundary" inkscape:connector-curvature="0" />
	<path style="fill:none;stroke:red;stroke-width:1px;stroke-linecap:butt;stroke-linejoin:miter;stroke-opacity:1" d="M 594.361,168.527 545.971,168.527 z" id="boundary" inkscape:connector-curvature="0" />
	<path style="fill:none;stroke:red;stroke-width:1px;stroke-linecap:butt;stroke-linejoin:miter;stroke-opacity:1" d="M 676.624,207.239 676.624,255.629 z" id="boundary" inkscape:connector-curvature="0" />
	<path style="fill:none;stroke:red;stroke-width:1px;stroke-linecap:butt;stroke-linejoin:miter;stroke-opacity:1" d="M 555.649,376.605 579.844,333.054 z" id="boundary" inkscape:connector-curvature="0" />
	<path style="fill:none;stroke:red;stroke-width:1px;stroke-linecap:butt;stroke-linejoin:miter;stroke-opacity:1" d="M 579.844,333.054 628.234,318.537 z" id="boundary" inkscape:connector-curvature="0" />
	<path style="fill:none;stroke:red;stroke-width:1px;stroke-linecap:butt;stroke-linejoin:miter;stroke-opacity:1" d="M 555.649,376.605 516.937,405.639 z" id="boundary" inkscape:connector-curvature="0" />
	<path style="fill:none;stroke:red;stroke-width:1px;stroke-linecap:butt;stroke-linejoin:miter;stroke-opacity:1" d="M 628.234,318.537 676.624,313.698 z" id="boundary" inkscape:connector-curvature="0" />
	<path style="fill:none;stroke:red;stroke-width:1px;stroke-linecap:butt;stroke-linejoin:miter;stroke-opacity:1" d="M 676.624,255.629 676.624,313.698 z" id="boundary" inkscape:connector-curvature="0" />
	<path style="fill:none;stroke:red;stroke-width:1px;stroke-linecap:butt;stroke-linejoin:miter;stroke-opacity:1" d="M 424.995,497.58 424.995,545.971 z" id="boundary" inkscape:connector-curvature="0" />
	<path style="fill:none;stroke:red;stroke-width:1px;stroke-linecap:butt;stroke-linejoin:miter;stroke-opacity:1" d="M 424.995,497.58 424.995,449.19 z" id="boundary" inkscape:connector-curvature="0" />
	<path style="fill:none;stroke:red;stroke-width:1px;stroke-linecap:butt;stroke-linejoin:miter;stroke-opacity:1" d="M 424.995,545.971 424.995,594.361 z" id="boundary" inkscape:connector-curvature="0" />
	<path style="fill:none;stroke:red;stroke-width:1px;stroke-linecap:butt;stroke-linejoin:miter;stroke-opacity:1" d="M 381.444,996 333.054,996 z" id="boundary" inkscape:connector-curvature="0" />
	<path style="fill:none;stroke:red;stroke-width:1px;stroke-linecap:butt;stroke-linejoin:miter;stroke-opacity:1" d="M 424.995,642.751 424.995,691.141 z" id="boundary" inkscape:connector-curvature="0" />
	<path style="fill:none;stroke:red;stroke-width:1px;stroke-linecap:butt;stroke-linejoin:miter;stroke-opacity:1" d="M 424.995,642.751 424.995,594.361 z" id="boundary" inkscape:connector-curvature="0" />
	<path style="fill:none;stroke:red;stroke-width:1px;stroke-linecap:butt;stroke-linejoin:miter;stroke-opacity:1" d="M 424.995,691.141 424.995,739.532 z" id="boundary" inkscape:connector-curvature="0" />
	<path style="fill:none;stroke:red;stroke-width:1px;stroke-linecap:butt;stroke-linejoin:miter;stroke-opacity:1" d="M 424.995,739.532 424.995,787.922 z" id="boundary" inkscape:connector-curvature="0" />
	<path style="fill:none;stroke:red;stroke-width:1px;stroke-linecap:butt;stroke-linejoin:miter;stroke-opacity:1" d="M 429.834,836.312 424.995,787.922 z" id="boundary" inkscape:connector-curvature="0" />
	<path style="fill:none;stroke:red;stroke-width:1px;stroke-linecap:butt;stroke-linejoin:miter;stroke-opacity:1" d="M 429.834,996 381.444,996 z" id="boundary" inkscape:connector-curvature="0" />
	<path style="fill:none;stroke:red;stroke-width:1px;stroke-linecap:butt;stroke-linejoin:miter;stroke-opacity:1" d="M 434.673,884.702 458.868,928.254 z" id="boundary" inkscape:connector-curvature="0" />
	<path style="fill:none;stroke:red;stroke-width:1px;stroke-linecap:butt;stroke-linejoin:miter;stroke-opacity:1" d="M 458.868,928.254 478.224,996 z" id="boundary" inkscape:connector-curvature="0" />
	<path style="fill:none;stroke:red;stroke-width:1px;stroke-linecap:butt;stroke-linejoin:miter;stroke-opacity:1" d="M 478.224,996 429.834,996 z" id="boundary" inkscape:connector-curvature="0" />
	<path style="fill:none;stroke:red;stroke-width:1px;stroke-linecap:butt;stroke-linejoin:miter;stroke-opacity:1" d="M 434.673,884.702 429.834,836.312 z" id="boundary" inkscape:connector-curvature="0" />
	<path style="fill:none;stroke:red;stroke-width:1px;stroke-linecap:butt;stroke-linejoin:miter;stroke-opacity:1" d="M 676.624,313.698 478.224,996 z" id="boundary" inkscape:connector-curvature="0" />
	<circle cx="4" cy="304.02" r="4" fill="#0" id="circle0"/>
	<circle cx="13.678" cy="168.527" r="4" fill="#0" id="circle1"/>
	<circle cx="13.678" cy="216.917" r="4" fill="#0" id="circle2"/>
	<circle cx="52.3902" cy="318.537" r="4" fill="#0" id="circle3"/>
	<circle cx="62.0683" cy="168.527" r="4" fill="#0" id="circle4"/>
	<circle cx="100.78" cy="323.376" r="4" fill="#0" id="circle5"/>
	<circle cx="110.459" cy="168.527" r="4" fill="#0" id="circle6"/>
	<circle cx="124.976" cy="366.927" r="4" fill="#0" id="circle7"/>
	<circle cx="158.849" cy="168.527" r="4" fill="#0" id="circle8"/>
	<circle cx="158.849" cy="405.639" r="4" fill="#0" id="circle9"/>
	<circle cx="197.561" cy="434.673" r="4" fill="#0" id="circle10"/>
	<circle cx="197.561" cy="962.127" r="4" fill="#0" id="circle11"/>
	<circle cx="207.239" cy="178.205" r="4" fill="#0" id="circle12"/>
	<circle cx="226.595" cy="923.415" r="4" fill="#0" id="circle13"/>
	<circle cx="236.273" cy="996" r="4" fill="#0" id="circle14"/>
	<circle cx="245.951" cy="444.351" r="4" fill="#0" id="circle15"/>
	<circle cx="245.951" cy="875.024" r="4" fill="#0" id="circle16"/>
	<circle cx="255.629" cy="178.205" r="4" fill="#0" id="circle17"/>
	<circle cx="255.629" cy="492.741" r="4" fill="#0" id="circle18"/>
	<circle cx="255.629" cy="541.132" r="4" fill="#0" id="circle19"/>
	<circle cx="255.629" cy="589.522" r="4" fill="#0" id="circle20"/>
	<circle cx="255.629" cy="637.912" r="4" fill="#0" id="circle21"/>
	<circle cx="255.629" cy="686.302" r="4" fill="#0" id="circle22"/>
	<circle cx="255.629" cy="734.693" r="4" fill="#0" id="circle23"/>
	<circle cx="255.629" cy="783.083" r="4" fill="#0" id="circle24"/>
	<circle cx="284.663" cy="996" r="4" fill="#0" id="circle25"/>
	<circle cx="304.02" cy="178.205" r="4" fill="#0" id="circle26"/>
	<circle cx="323.376" cy="62.0683" r="4" fill="#0" id="circle27"/>
	<circle cx="333.054" cy="4" r="4" fill="#0" id="circle28"/>
	<circle cx="333.054" cy="110.459" r="4" fill="#0" id="circle29"/>
	<circle cx="333.054" cy="996" r="4" fill="#0" id="circle30"/>
	<circle cx="357.249" cy="154.01" r="4" fill="#0" id="circle31"/>
	<circle cx="381.444" cy="996" r="4" fill="#0" id="circle32"/>
	<circle cx="400.8" cy="178.205" r="4" fill="#0" id="circle33"/>
	<circle cx="424.995" cy="449.19" r="4" fill="#0" id="circle34"/>
	<circle cx="424.995" cy="497.58" r="4" fill="#0" id="circle35"/>
	<circle cx="424.995" cy="545.971" r="4" fill="#0" id="circle36"/>
	<circle cx="424.995" cy="594.361" r="4" fill="#0" id="circle37"/>
	<circle cx="424.995" cy="642.751" r="4" fill="#0" id="circle38"/>
	<circle cx="424.995" cy="691.141" r="4" fill="#0" id="circle39"/>
	<circle cx="424.995" cy="739.532" r="4" fill="#0" id="circle40"/>
	<circle cx="424.995" cy="787.922" r="4" fill="#0" id="circle41"/>
	<circle cx="429.834" cy="836.312" r="4" fill="#0" id="circle42"/>
	<circle cx="429.834" cy="996" r="4" fill="#0" id="circle43"/>
	<circle cx="434.673" cy="884.702" r="4" fill="#0" id="circle44"/>
	<circle cx="449.19" cy="178.205" r="4" fill="#0" id="circle45"/>
	<circle cx="458.868" cy="928.254" r="4" fill="#0" id="circle46"/>
	<circle cx="473.385" cy="434.673" r="4" fill="#0" id="circle47"/>
	<circle cx="478.224" cy="996" r="4" fill="#0" id="circle48"/>
	<circle cx="497.58" cy="178.205" r="4" fill="#0" id="circle49"/>
	<circle cx="516.937" cy="405.639" r="4" fill="#0" id="circle50"/>
	<circle cx="545.971" cy="168.527" r="4" fill="#0" id="circle51"/>
	<circle cx="555.649" cy="376.605" r="4" fill="#0" id="circle52"/>
	<circle cx="579.844" cy="333.054" r="4" fill="#0" id="circle53"/>
	<circle cx="594.361" cy="168.527" r="4" fill="#0" id="circle54"/>
	<circle cx="628.234" cy="318.537" r="4" fill="#0" id="circle55"/>
	<circle cx="642.751" cy="168.527" r="4" fill="#0" id="circle56"/>
	<circle cx="676.624" cy="207.239" r="4" fill="#0" id="circle57"/>
	<circle cx="676.624" cy="255.629" r="4" fill="#0" id="circle58"/>
	<circle cx="676.624" cy="313.698" r="4" fill="#0" id="circle59"/>
	</g>
</svg>