<?xml version="1.0" encoding="UTF-8" standalone="no"?>
<!-- Created with CurveBenchmark -->
<svg
	xmlns:dc="http://purl.org/dc/elements/1.1/"
	xmlns:cc="http://creativecommons.org/ns#"
	xmlns:rdf="http://www.w3.org/1999/02/22-rdf-syntax-ns#"
	xmlns:svg="http://www.w3.org/2000/svg"
	xmlns="http://www.w3.org/2000/svg"
	xmlns:sodipodi="http://sodipodi.sourceforge.net/DTD/sodipodi-0.dtd"
	xmlns:inkscape="http://www.inkscape.org/namespaces/inkscape"
	width="1000"
	height="1000"
	id="svg2"
	version="1.1"
	sodipodi:docname="manifold/nncrust-hammer090.png.txt">
<defs
	id="defs4" />
<metadata
	id="metadata7">
	<rdf:RDF>
		<cc:Work
			rdf:about="">
			<dc:format>image/svg+xml</dc:format>
			<dc:type
				rdf:resource="http://purl.org/dc/dcmitype/StillImage" />
			<dc:title></dc:title>
		</cc:Work>
	</rdf:RDF>
</metadata>
<g
	inkscape:label="Layer 1"
	inkscape:groupmode="layer"
	id="layer1">
	<path style="fill:none;stroke:red;stroke-width:1px;stroke-linecap:butt;stroke-linejoin:miter;stroke-opacity:1" d="M 15.5014,61.5072 15.5014,90.2609 z" id="boundary" inkscape:connector-curvature="0" />
	<path style="fill:none;stroke:red;stroke-width:1px;stroke-linecap:butt;stroke-linejoin:miter;stroke-opacity:1" d="M 15.5014,119.014 15.5014,90.2609 z" id="boundary" inkscape:connector-curvature="0" />
	<path style="fill:none;stroke:red;stroke-width:1px;stroke-linecap:butt;stroke-linejoin:miter;stroke-opacity:1" d="M 9.75072,147.768 15.5014,119.014 z" id="boundary" inkscape:connector-curvature="0" />
	<path style="fill:none;stroke:red;stroke-width:1px;stroke-linecap:butt;stroke-linejoin:miter;stroke-opacity:1" d="M 9.75072,147.768 12.6261,176.522 z" id="boundary" inkscape:connector-curvature="0" />
	<path style="fill:none;stroke:red;stroke-width:1px;stroke-linecap:butt;stroke-linejoin:miter;stroke-opacity:1" d="M 9.75072,469.809 4,510.064 z" id="boundary" inkscape:connector-curvature="0" />
	<path style="fill:none;stroke:red;stroke-width:1px;stroke-linecap:butt;stroke-linejoin:miter;stroke-opacity:1" d="M 32.7536,199.525 12.6261,176.522 z" id="boundary" inkscape:connector-curvature="0" />
	<path style="fill:none;stroke:red;stroke-width:1px;stroke-linecap:butt;stroke-linejoin:miter;stroke-opacity:1" d="M 32.7536,199.525 38.5043,228.278 z" id="boundary" inkscape:connector-curvature="0" />
	<path style="fill:none;stroke:red;stroke-width:1px;stroke-linecap:butt;stroke-linejoin:miter;stroke-opacity:1" d="M 15.5014,61.5072 21.2522,15.5014 z" id="boundary" inkscape:connector-curvature="0" />
	<path style="fill:none;stroke:red;stroke-width:1px;stroke-linecap:butt;stroke-linejoin:miter;stroke-opacity:1" d="M 21.2522,15.5014 50.0058,4 z" id="boundary" inkscape:connector-curvature="0" />
	<path style="fill:none;stroke:red;stroke-width:1px;stroke-linecap:butt;stroke-linejoin:miter;stroke-opacity:1" d="M 38.5043,257.032 38.5043,285.786 z" id="boundary" inkscape:connector-curvature="0" />
	<path style="fill:none;stroke:red;stroke-width:1px;stroke-linecap:butt;stroke-linejoin:miter;stroke-opacity:1" d="M 38.5043,257.032 38.5043,228.278 z" id="boundary" inkscape:connector-curvature="0" />
	<path style="fill:none;stroke:red;stroke-width:1px;stroke-linecap:butt;stroke-linejoin:miter;stroke-opacity:1" d="M 38.5043,314.539 38.5043,285.786 z" id="boundary" inkscape:connector-curvature="0" />
	<path style="fill:none;stroke:red;stroke-width:1px;stroke-linecap:butt;stroke-linejoin:miter;stroke-opacity:1" d="M 38.5043,343.293 38.5043,372.046 z" id="boundary" inkscape:connector-curvature="0" />
	<path style="fill:none;stroke:red;stroke-width:1px;stroke-linecap:butt;stroke-linejoin:miter;stroke-opacity:1" d="M 38.5043,314.539 38.5043,343.293 z" id="boundary" inkscape:connector-curvature="0" />
	<path style="fill:none;stroke:red;stroke-width:1px;stroke-linecap:butt;stroke-linejoin:miter;stroke-opacity:1" d="M 38.5043,372.046 38.5043,400.8 z" id="boundary" inkscape:connector-curvature="0" />
	<path style="fill:none;stroke:red;stroke-width:1px;stroke-linecap:butt;stroke-linejoin:miter;stroke-opacity:1" d="M 38.5043,400.8 32.7536,429.554 z" id="boundary" inkscape:connector-curvature="0" />
	<path style="fill:none;stroke:red;stroke-width:1px;stroke-linecap:butt;stroke-linejoin:miter;stroke-opacity:1" d="M 32.7536,429.554 9.75072,469.809 z" id="boundary" inkscape:connector-curvature="0" />
	<path style="fill:none;stroke:red;stroke-width:1px;stroke-linecap:butt;stroke-linejoin:miter;stroke-opacity:1" d="M 4,538.817 4,510.064 z" id="boundary" inkscape:connector-curvature="0" />
	<path style="fill:none;stroke:red;stroke-width:1px;stroke-linecap:butt;stroke-linejoin:miter;stroke-opacity:1" d="M 4,567.571 4,538.817 z" id="boundary" inkscape:connector-curvature="0" />
	<path style="fill:none;stroke:red;stroke-width:1px;stroke-linecap:butt;stroke-linejoin:miter;stroke-opacity:1" d="M 4,625.078 4,596.325 z" id="boundary" inkscape:connector-curvature="0" />
	<path style="fill:none;stroke:red;stroke-width:1px;stroke-linecap:butt;stroke-linejoin:miter;stroke-opacity:1" d="M 4,596.325 4,567.571 z" id="boundary" inkscape:connector-curvature="0" />
	<path style="fill:none;stroke:red;stroke-width:1px;stroke-linecap:butt;stroke-linejoin:miter;stroke-opacity:1" d="M 4,711.339 4,682.586 z" id="boundary" inkscape:connector-curvature="0" />
	<path style="fill:none;stroke:red;stroke-width:1px;stroke-linecap:butt;stroke-linejoin:miter;stroke-opacity:1" d="M 75.8841,996 47.1304,996 z" id="boundary" inkscape:connector-curvature="0" />
	<path style="fill:none;stroke:red;stroke-width:1px;stroke-linecap:butt;stroke-linejoin:miter;stroke-opacity:1" d="M 9.75072,740.093 4,711.339 z" id="boundary" inkscape:connector-curvature="0" />
	<path style="fill:none;stroke:red;stroke-width:1px;stroke-linecap:butt;stroke-linejoin:miter;stroke-opacity:1" d="M 4,653.832 4,625.078 z" id="boundary" inkscape:connector-curvature="0" />
	<path style="fill:none;stroke:red;stroke-width:1px;stroke-linecap:butt;stroke-linejoin:miter;stroke-opacity:1" d="M 9.75072,768.846 9.75072,797.6 z" id="boundary" inkscape:connector-curvature="0" />
	<path style="fill:none;stroke:red;stroke-width:1px;stroke-linecap:butt;stroke-linejoin:miter;stroke-opacity:1" d="M 9.75072,826.354 9.75072,855.107 z" id="boundary" inkscape:connector-curvature="0" />
	<path style="fill:none;stroke:red;stroke-width:1px;stroke-linecap:butt;stroke-linejoin:miter;stroke-opacity:1" d="M 9.75072,826.354 9.75072,797.6 z" id="boundary" inkscape:connector-curvature="0" />
	<path style="fill:none;stroke:red;stroke-width:1px;stroke-linecap:butt;stroke-linejoin:miter;stroke-opacity:1" d="M 4,941.368 4,912.614 z" id="boundary" inkscape:connector-curvature="0" />
	<path style="fill:none;stroke:red;stroke-width:1px;stroke-linecap:butt;stroke-linejoin:miter;stroke-opacity:1" d="M 9.75072,855.107 9.75072,883.861 z" id="boundary" inkscape:connector-curvature="0" />
	<path style="fill:none;stroke:red;stroke-width:1px;stroke-linecap:butt;stroke-linejoin:miter;stroke-opacity:1" d="M 9.75072,883.861 4,912.614 z" id="boundary" inkscape:connector-curvature="0" />
	<path style="fill:none;stroke:red;stroke-width:1px;stroke-linecap:butt;stroke-linejoin:miter;stroke-opacity:1" d="M 47.1304,996 18.3768,996 z" id="boundary" inkscape:connector-curvature="0" />
	<path style="fill:none;stroke:red;stroke-width:1px;stroke-linecap:butt;stroke-linejoin:miter;stroke-opacity:1" d="M 18.3768,996 4,970.122 z" id="boundary" inkscape:connector-curvature="0" />
	<path style="fill:none;stroke:red;stroke-width:1px;stroke-linecap:butt;stroke-linejoin:miter;stroke-opacity:1" d="M 4,970.122 4,941.368 z" id="boundary" inkscape:connector-curvature="0" />
	<path style="fill:none;stroke:red;stroke-width:1px;stroke-linecap:butt;stroke-linejoin:miter;stroke-opacity:1" d="M 4,682.586 4,653.832 z" id="boundary" inkscape:connector-curvature="0" />
	<path style="fill:none;stroke:red;stroke-width:1px;stroke-linecap:butt;stroke-linejoin:miter;stroke-opacity:1" d="M 9.75072,740.093 9.75072,768.846 z" id="boundary" inkscape:connector-curvature="0" />
	<path style="fill:none;stroke:red;stroke-width:1px;stroke-linecap:butt;stroke-linejoin:miter;stroke-opacity:1" d="M 93.1362,228.278 93.1362,257.032 z" id="boundary" inkscape:connector-curvature="0" />
	<path style="fill:none;stroke:red;stroke-width:1px;stroke-linecap:butt;stroke-linejoin:miter;stroke-opacity:1" d="M 98.887,182.272 93.1362,228.278 z" id="boundary" inkscape:connector-curvature="0" />
	<path style="fill:none;stroke:red;stroke-width:1px;stroke-linecap:butt;stroke-linejoin:miter;stroke-opacity:1" d="M 93.1362,257.032 93.1362,285.786 z" id="boundary" inkscape:connector-curvature="0" />
	<path style="fill:none;stroke:red;stroke-width:1px;stroke-linecap:butt;stroke-linejoin:miter;stroke-opacity:1" d="M 93.1362,314.539 93.1362,285.786 z" id="boundary" inkscape:connector-curvature="0" />
	<path style="fill:none;stroke:red;stroke-width:1px;stroke-linecap:butt;stroke-linejoin:miter;stroke-opacity:1" d="M 93.1362,314.539 93.1362,343.293 z" id="boundary" inkscape:connector-curvature="0" />
	<path style="fill:none;stroke:red;stroke-width:1px;stroke-linecap:butt;stroke-linejoin:miter;stroke-opacity:1" d="M 93.1362,372.046 93.1362,343.293 z" id="boundary" inkscape:connector-curvature="0" />
	<path style="fill:none;stroke:red;stroke-width:1px;stroke-linecap:butt;stroke-linejoin:miter;stroke-opacity:1" d="M 96.0116,429.554 93.1362,400.8 z" id="boundary" inkscape:connector-curvature="0" />
	<path style="fill:none;stroke:red;stroke-width:1px;stroke-linecap:butt;stroke-linejoin:miter;stroke-opacity:1" d="M 93.1362,400.8 93.1362,372.046 z" id="boundary" inkscape:connector-curvature="0" />
	<path style="fill:none;stroke:red;stroke-width:1px;stroke-linecap:butt;stroke-linejoin:miter;stroke-opacity:1" d="M 96.0116,429.554 101.762,458.307 z" id="boundary" inkscape:connector-curvature="0" />
	<path style="fill:none;stroke:red;stroke-width:1px;stroke-linecap:butt;stroke-linejoin:miter;stroke-opacity:1" d="M 110.388,41.3797 116.139,70.1333 z" id="boundary" inkscape:connector-curvature="0" />
	<path style="fill:none;stroke:red;stroke-width:1px;stroke-linecap:butt;stroke-linejoin:miter;stroke-opacity:1" d="M 110.388,41.3797 107.513,12.6261 z" id="boundary" inkscape:connector-curvature="0" />
	<path style="fill:none;stroke:red;stroke-width:1px;stroke-linecap:butt;stroke-linejoin:miter;stroke-opacity:1" d="M 116.139,70.1333 116.139,98.887 z" id="boundary" inkscape:connector-curvature="0" />
	<path style="fill:none;stroke:red;stroke-width:1px;stroke-linecap:butt;stroke-linejoin:miter;stroke-opacity:1" d="M 116.139,98.887 116.139,127.641 z" id="boundary" inkscape:connector-curvature="0" />
	<path style="fill:none;stroke:red;stroke-width:1px;stroke-linecap:butt;stroke-linejoin:miter;stroke-opacity:1" d="M 98.887,182.272 121.89,156.394 z" id="boundary" inkscape:connector-curvature="0" />
	<path style="fill:none;stroke:red;stroke-width:1px;stroke-linecap:butt;stroke-linejoin:miter;stroke-opacity:1" d="M 121.89,481.31 101.762,458.307 z" id="boundary" inkscape:connector-curvature="0" />
	<path style="fill:none;stroke:red;stroke-width:1px;stroke-linecap:butt;stroke-linejoin:miter;stroke-opacity:1" d="M 121.89,156.394 116.139,127.641 z" id="boundary" inkscape:connector-curvature="0" />
	<path style="fill:none;stroke:red;stroke-width:1px;stroke-linecap:butt;stroke-linejoin:miter;stroke-opacity:1" d="M 127.641,510.064 121.89,481.31 z" id="boundary" inkscape:connector-curvature="0" />
	<path style="fill:none;stroke:red;stroke-width:1px;stroke-linecap:butt;stroke-linejoin:miter;stroke-opacity:1" d="M 78.7594,4 107.513,12.6261 z" id="boundary" inkscape:connector-curvature="0" />
	<path style="fill:none;stroke:red;stroke-width:1px;stroke-linecap:butt;stroke-linejoin:miter;stroke-opacity:1" d="M 121.89,768.846 121.89,797.6 z" id="boundary" inkscape:connector-curvature="0" />
	<path style="fill:none;stroke:red;stroke-width:1px;stroke-linecap:butt;stroke-linejoin:miter;stroke-opacity:1" d="M 121.89,768.846 121.89,740.093 z" id="boundary" inkscape:connector-curvature="0" />
	<path style="fill:none;stroke:red;stroke-width:1px;stroke-linecap:butt;stroke-linejoin:miter;stroke-opacity:1" d="M 121.89,740.093 127.641,711.339 z" id="boundary" inkscape:connector-curvature="0" />
	<path style="fill:none;stroke:red;stroke-width:1px;stroke-linecap:butt;stroke-linejoin:miter;stroke-opacity:1" d="M 121.89,826.354 121.89,797.6 z" id="boundary" inkscape:connector-curvature="0" />
	<path style="fill:none;stroke:red;stroke-width:1px;stroke-linecap:butt;stroke-linejoin:miter;stroke-opacity:1" d="M 127.641,970.122 104.638,996 z" id="boundary" inkscape:connector-curvature="0" />
	<path style="fill:none;stroke:red;stroke-width:1px;stroke-linecap:butt;stroke-linejoin:miter;stroke-opacity:1" d="M 104.638,996 75.8841,996 z" id="boundary" inkscape:connector-curvature="0" />
	<path style="fill:none;stroke:red;stroke-width:1px;stroke-linecap:butt;stroke-linejoin:miter;stroke-opacity:1" d="M 121.89,855.107 121.89,883.861 z" id="boundary" inkscape:connector-curvature="0" />
	<path style="fill:none;stroke:red;stroke-width:1px;stroke-linecap:butt;stroke-linejoin:miter;stroke-opacity:1" d="M 121.89,855.107 121.89,826.354 z" id="boundary" inkscape:connector-curvature="0" />
	<path style="fill:none;stroke:red;stroke-width:1px;stroke-linecap:butt;stroke-linejoin:miter;stroke-opacity:1" d="M 127.641,912.614 121.89,883.861 z" id="boundary" inkscape:connector-curvature="0" />
	<path style="fill:none;stroke:red;stroke-width:1px;stroke-linecap:butt;stroke-linejoin:miter;stroke-opacity:1" d="M 127.641,912.614 127.641,941.368 z" id="boundary" inkscape:connector-curvature="0" />
	<path style="fill:none;stroke:red;stroke-width:1px;stroke-linecap:butt;stroke-linejoin:miter;stroke-opacity:1" d="M 127.641,538.817 127.641,567.571 z" id="boundary" inkscape:connector-curvature="0" />
	<path style="fill:none;stroke:red;stroke-width:1px;stroke-linecap:butt;stroke-linejoin:miter;stroke-opacity:1" d="M 127.641,510.064 127.641,538.817 z" id="boundary" inkscape:connector-curvature="0" />
	<path style="fill:none;stroke:red;stroke-width:1px;stroke-linecap:butt;stroke-linejoin:miter;stroke-opacity:1" d="M 127.641,567.571 127.641,596.325 z" id="boundary" inkscape:connector-curvature="0" />
	<path style="fill:none;stroke:red;stroke-width:1px;stroke-linecap:butt;stroke-linejoin:miter;stroke-opacity:1" d="M 127.641,625.078 127.641,653.832 z" id="boundary" inkscape:connector-curvature="0" />
	<path style="fill:none;stroke:red;stroke-width:1px;stroke-linecap:butt;stroke-linejoin:miter;stroke-opacity:1" d="M 127.641,653.832 127.641,682.586 z" id="boundary" inkscape:connector-curvature="0" />
	<path style="fill:none;stroke:red;stroke-width:1px;stroke-linecap:butt;stroke-linejoin:miter;stroke-opacity:1" d="M 127.641,596.325 127.641,625.078 z" id="boundary" inkscape:connector-curvature="0" />
	<path style="fill:none;stroke:red;stroke-width:1px;stroke-linecap:butt;stroke-linejoin:miter;stroke-opacity:1" d="M 127.641,941.368 127.641,970.122 z" id="boundary" inkscape:connector-curvature="0" />
	<path style="fill:none;stroke:red;stroke-width:1px;stroke-linecap:butt;stroke-linejoin:miter;stroke-opacity:1" d="M 127.641,682.586 127.641,711.339 z" id="boundary" inkscape:connector-curvature="0" />
	<path style="fill:none;stroke:red;stroke-width:1px;stroke-linecap:butt;stroke-linejoin:miter;stroke-opacity:1" d="M 50.0058,4 78.7594,4 z" id="boundary" inkscape:connector-curvature="0" />
	<circle cx="4" cy="510.064" r="4" fill="#0" id="circle0"/>
	<circle cx="4" cy="538.817" r="4" fill="#0" id="circle1"/>
	<circle cx="4" cy="567.571" r="4" fill="#0" id="circle2"/>
	<circle cx="4" cy="596.325" r="4" fill="#0" id="circle3"/>
	<circle cx="4" cy="625.078" r="4" fill="#0" id="circle4"/>
	<circle cx="4" cy="653.832" r="4" fill="#0" id="circle5"/>
	<circle cx="4" cy="682.586" r="4" fill="#0" id="circle6"/>
	<circle cx="4" cy="711.339" r="4" fill="#0" id="circle7"/>
	<circle cx="4" cy="912.614" r="4" fill="#0" id="circle8"/>
	<circle cx="4" cy="941.368" r="4" fill="#0" id="circle9"/>
	<circle cx="4" cy="970.122" r="4" fill="#0" id="circle10"/>
	<circle cx="9.75072" cy="147.768" r="4" fill="#0" id="circle11"/>
	<circle cx="9.75072" cy="469.809" r="4" fill="#0" id="circle12"/>
	<circle cx="9.75072" cy="740.093" r="4" fill="#0" id="circle13"/>
	<circle cx="9.75072" cy="768.846" r="4" fill="#0" id="circle14"/>
	<circle cx="9.75072" cy="797.6" r="4" fill="#0" id="circle15"/>
	<circle cx="9.75072" cy="826.354" r="4" fill="#0" id="circle16"/>
	<circle cx="9.75072" cy="855.107" r="4" fill="#0" id="circle17"/>
	<circle cx="9.75072" cy="883.861" r="4" fill="#0" id="circle18"/>
	<circle cx="12.6261" cy="176.522" r="4" fill="#0" id="circle19"/>
	<circle cx="15.5014" cy="61.5072" r="4" fill="#0" id="circle20"/>
	<circle cx="15.5014" cy="90.2609" r="4" fill="#0" id="circle21"/>
	<circle cx="15.5014" cy="119.014" r="4" fill="#0" id="circle22"/>
	<circle cx="18.3768" cy="996" r="4" fill="#0" id="circle23"/>
	<circle cx="21.2522" cy="15.5014" r="4" fill="#0" id="circle24"/>
	<circle cx="32.7536" cy="199.525" r="4" fill="#0" id="circle25"/>
	<circle cx="32.7536" cy="429.554" r="4" fill="#0" id="circle26"/>
	<circle cx="38.5043" cy="228.278" r="4" fill="#0" id="circle27"/>
	<circle cx="38.5043" cy="257.032" r="4" fill="#0" id="circle28"/>
	<circle cx="38.5043" cy="285.786" r="4" fill="#0" id="circle29"/>
	<circle cx="38.5043" cy="314.539" r="4" fill="#0" id="circle30"/>
	<circle cx="38.5043" cy="343.293" r="4" fill="#0" id="circle31"/>
	<circle cx="38.5043" cy="372.046" r="4" fill="#0" id="circle32"/>
	<circle cx="38.5043" cy="400.8" r="4" fill="#0" id="circle33"/>
	<circle cx="47.1304" cy="996" r="4" fill="#0" id="circle34"/>
	<circle cx="50.0058" cy="4" r="4" fill="#0" id="circle35"/>
	<circle cx="75.8841" cy="996" r="4" fill="#0" id="circle36"/>
	<circle cx="78.7594" cy="4" r="4" fill="#0" id="circle37"/>
	<circle cx="93.1362" cy="228.278" r="4" fill="#0" id="circle38"/>
	<circle cx="93.1362" cy="257.032" r="4" fill="#0" id="circle39"/>
	<circle cx="93.1362" cy="285.786" r="4" fill="#0" id="circle40"/>
	<circle cx="93.1362" cy="314.539" r="4" fill="#0" id="circle41"/>
	<circle cx="93.1362" cy="343.293" r="4" fill="#0" id="circle42"/>
	<circle cx="93.1362" cy="372.046" r="4" fill="#0" id="circle43"/>
	<circle cx="93.1362" cy="400.8" r="4" fill="#0" id="circle44"/>
	<circle cx="96.0116" cy="429.554" r="4" fill="#0" id="circle45"/>
	<circle cx="98.887" cy="182.272" r="4" fill="#0" id="circle46"/>
	<circle cx="101.762" cy="458.307" r="4" fill="#0" id="circle47"/>
	<circle cx="104.638" cy="996" r="4" fill="#0" id="circle48"/>
	<circle cx="107.513" cy="12.6261" r="4" fill="#0" id="circle49"/>
	<circle cx="110.388" cy="41.3797" r="4" fill="#0" id="circle50"/>
	<circle cx="116.139" cy="70.1333" r="4" fill="#0" id="circle51"/>
	<circle cx="116.139" cy="98.887" r="4" fill="#0" id="circle52"/>
	<circle cx="116.139" cy="127.641" r="4" fill="#0" id="circle53"/>
	<circle cx="121.89" cy="156.394" r="4" fill="#0" id="circle54"/>
	<circle cx="121.89" cy="481.31" r="4" fill="#0" id="circle55"/>
	<circle cx="121.89" cy="740.093" r="4" fill="#0" id="circle56"/>
	<circle cx="121.89" cy="768.846" r="4" fill="#0" id="circle57"/>
	<circle cx="121.89" cy="797.6" r="4" fill="#0" id="circle58"/>
	<circle cx="121.89" cy="826.354" r="4" fill="#0" id="circle59"/>
	<circle cx="121.89" cy="855.107" r="4" fill="#0" id="circle60"/>
	<circle cx="121.89" cy="883.861" r="4" fill="#0" id="circle61"/>
	<circle cx="127.641" cy="510.064" r="4" fill="#0" id="circle62"/>
	<circle cx="127.641" cy="538.817" r="4" fill="#0" id="circle63"/>
	<circle cx="127.641" cy="567.571" r="4" fill="#0" id="circle64"/>
	<circle cx="127.641" cy="596.325" r="4" fill="#0" id="circle65"/>
	<circle cx="127.641" cy="625.078" r="4" fill="#0" id="circle66"/>
	<circle cx="127.641" cy="653.832" r="4" fill="#0" id="circle67"/>
	<circle cx="127.641" cy="682.586" r="4" fill="#0" id="circle68"/>
	<circle cx="127.641" cy="711.339" r="4" fill="#0" id="circle69"/>
	<circle cx="127.641" cy="912.614" r="4" fill="#0" id="circle70"/>
	<circle cx="127.641" cy="941.368" r="4" fill="#0" id="circle71"/>
	<circle cx="127.641" cy="970.122" r="4" fill="#0" id="circle72"/>
	</g>
</svg>