<?xml version="1.0" encoding="UTF-8" standalone="no"?>
<!-- Created with CurveBenchmark -->
<svg
	xmlns:dc="http://purl.org/dc/elements/1.1/"
	xmlns:cc="http://creativecommons.org/ns#"
	xmlns:rdf="http://www.w3.org/1999/02/22-rdf-syntax-ns#"
	xmlns:svg="http://www.w3.org/2000/svg"
	xmlns="http://www.w3.org/2000/svg"
	xmlns:sodipodi="http://sodipodi.sourceforge.net/DTD/sodipodi-0.dtd"
	xmlns:inkscape="http://www.inkscape.org/namespaces/inkscape"
	width="1000"
	height="1000"
	id="svg2"
	version="1.1"
	sodipodi:docname="manifold/nncrust-teddy355.png.txt">
<defs
	id="defs4" />
<metadata
	id="metadata7">
	<rdf:RDF>
		<cc:Work
			rdf:about="">
			<dc:format>image/svg+xml</dc:format>
			<dc:type
				rdf:resource="http://purl.org/dc/dcmitype/StillImage" />
			<dc:title></dc:title>
		</cc:Work>
	</rdf:RDF>
</metadata>
<g
	inkscape:label="Layer 1"
	inkscape:groupmode="layer"
	id="layer1">
	<path style="fill:none;stroke:red;stroke-width:1px;stroke-linecap:butt;stroke-linejoin:miter;stroke-opacity:1" d="M 71.8291,495.761 85.9601,470.325 z" id="boundary" inkscape:connector-curvature="0" />
	<path style="fill:none;stroke:red;stroke-width:1px;stroke-linecap:butt;stroke-linejoin:miter;stroke-opacity:1" d="M 71.8291,524.023 71.8291,495.761 z" id="boundary" inkscape:connector-curvature="0" />
	<path style="fill:none;stroke:red;stroke-width:1px;stroke-linecap:butt;stroke-linejoin:miter;stroke-opacity:1" d="M 136.832,444.889 165.094,436.41 z" id="boundary" inkscape:connector-curvature="0" />
	<path style="fill:none;stroke:red;stroke-width:1px;stroke-linecap:butt;stroke-linejoin:miter;stroke-opacity:1" d="M 193.356,433.584 165.094,436.41 z" id="boundary" inkscape:connector-curvature="0" />
	<path style="fill:none;stroke:red;stroke-width:1px;stroke-linecap:butt;stroke-linejoin:miter;stroke-opacity:1" d="M 108.57,450.541 136.832,444.889 z" id="boundary" inkscape:connector-curvature="0" />
	<path style="fill:none;stroke:red;stroke-width:1px;stroke-linecap:butt;stroke-linejoin:miter;stroke-opacity:1" d="M 85.9601,470.325 108.57,450.541 z" id="boundary" inkscape:connector-curvature="0" />
	<path style="fill:none;stroke:red;stroke-width:1px;stroke-linecap:butt;stroke-linejoin:miter;stroke-opacity:1" d="M 74.6553,552.285 71.8291,524.023 z" id="boundary" inkscape:connector-curvature="0" />
	<path style="fill:none;stroke:red;stroke-width:1px;stroke-linecap:butt;stroke-linejoin:miter;stroke-opacity:1" d="M 128.353,617.288 102.917,603.157 z" id="boundary" inkscape:connector-curvature="0" />
	<path style="fill:none;stroke:red;stroke-width:1px;stroke-linecap:butt;stroke-linejoin:miter;stroke-opacity:1" d="M 102.917,603.157 85.9601,580.547 z" id="boundary" inkscape:connector-curvature="0" />
	<path style="fill:none;stroke:red;stroke-width:1px;stroke-linecap:butt;stroke-linejoin:miter;stroke-opacity:1" d="M 85.9601,580.547 74.6553,552.285 z" id="boundary" inkscape:connector-curvature="0" />
	<path style="fill:none;stroke:red;stroke-width:1px;stroke-linecap:butt;stroke-linejoin:miter;stroke-opacity:1" d="M 128.353,617.288 153.789,631.419 z" id="boundary" inkscape:connector-curvature="0" />
	<path style="fill:none;stroke:red;stroke-width:1px;stroke-linecap:butt;stroke-linejoin:miter;stroke-opacity:1" d="M 153.789,631.419 182.051,639.897 z" id="boundary" inkscape:connector-curvature="0" />
	<path style="fill:none;stroke:red;stroke-width:1px;stroke-linecap:butt;stroke-linejoin:miter;stroke-opacity:1" d="M 182.051,639.897 210.313,651.202 z" id="boundary" inkscape:connector-curvature="0" />
	<path style="fill:none;stroke:red;stroke-width:1px;stroke-linecap:butt;stroke-linejoin:miter;stroke-opacity:1" d="M 193.356,433.584 221.618,427.932 z" id="boundary" inkscape:connector-curvature="0" />
	<path style="fill:none;stroke:red;stroke-width:1px;stroke-linecap:butt;stroke-linejoin:miter;stroke-opacity:1" d="M 286.621,252.707 297.926,224.444 z" id="boundary" inkscape:connector-curvature="0" />
	<path style="fill:none;stroke:red;stroke-width:1px;stroke-linecap:butt;stroke-linejoin:miter;stroke-opacity:1" d="M 286.621,280.969 286.621,252.707 z" id="boundary" inkscape:connector-curvature="0" />
	<path style="fill:none;stroke:red;stroke-width:1px;stroke-linecap:butt;stroke-linejoin:miter;stroke-opacity:1" d="M 297.926,224.444 320.536,201.835 z" id="boundary" inkscape:connector-curvature="0" />
	<path style="fill:none;stroke:red;stroke-width:1px;stroke-linecap:butt;stroke-linejoin:miter;stroke-opacity:1" d="M 286.621,280.969 292.274,309.231 z" id="boundary" inkscape:connector-curvature="0" />
	<path style="fill:none;stroke:red;stroke-width:1px;stroke-linecap:butt;stroke-linejoin:miter;stroke-opacity:1" d="M 337.493,100.091 337.493,71.8291 z" id="boundary" inkscape:connector-curvature="0" />
	<path style="fill:none;stroke:red;stroke-width:1px;stroke-linecap:butt;stroke-linejoin:miter;stroke-opacity:1" d="M 337.493,71.8291 348.798,43.567 z" id="boundary" inkscape:connector-curvature="0" />
	<path style="fill:none;stroke:red;stroke-width:1px;stroke-linecap:butt;stroke-linejoin:miter;stroke-opacity:1" d="M 343.145,128.353 337.493,179.225 z" id="boundary" inkscape:connector-curvature="0" />
	<path style="fill:none;stroke:red;stroke-width:1px;stroke-linecap:butt;stroke-linejoin:miter;stroke-opacity:1" d="M 337.493,179.225 320.536,201.835 z" id="boundary" inkscape:connector-curvature="0" />
	<path style="fill:none;stroke:red;stroke-width:1px;stroke-linecap:butt;stroke-linejoin:miter;stroke-opacity:1" d="M 337.493,100.091 343.145,128.353 z" id="boundary" inkscape:connector-curvature="0" />
	<path style="fill:none;stroke:red;stroke-width:1px;stroke-linecap:butt;stroke-linejoin:miter;stroke-opacity:1" d="M 275.316,399.67 249.88,425.105 z" id="boundary" inkscape:connector-curvature="0" />
	<path style="fill:none;stroke:red;stroke-width:1px;stroke-linecap:butt;stroke-linejoin:miter;stroke-opacity:1" d="M 249.88,425.105 221.618,427.932 z" id="boundary" inkscape:connector-curvature="0" />
	<path style="fill:none;stroke:red;stroke-width:1px;stroke-linecap:butt;stroke-linejoin:miter;stroke-opacity:1" d="M 275.316,399.67 303.578,388.365 z" id="boundary" inkscape:connector-curvature="0" />
	<path style="fill:none;stroke:red;stroke-width:1px;stroke-linecap:butt;stroke-linejoin:miter;stroke-opacity:1" d="M 238.575,656.855 210.313,651.202 z" id="boundary" inkscape:connector-curvature="0" />
	<path style="fill:none;stroke:red;stroke-width:1px;stroke-linecap:butt;stroke-linejoin:miter;stroke-opacity:1" d="M 303.578,337.493 292.274,309.231 z" id="boundary" inkscape:connector-curvature="0" />
	<path style="fill:none;stroke:red;stroke-width:1px;stroke-linecap:butt;stroke-linejoin:miter;stroke-opacity:1" d="M 320.536,360.103 303.578,337.493 z" id="boundary" inkscape:connector-curvature="0" />
	<path style="fill:none;stroke:red;stroke-width:1px;stroke-linecap:butt;stroke-linejoin:miter;stroke-opacity:1" d="M 320.536,360.103 303.578,388.365 z" id="boundary" inkscape:connector-curvature="0" />
	<path style="fill:none;stroke:red;stroke-width:1px;stroke-linecap:butt;stroke-linejoin:miter;stroke-opacity:1" d="M 4,840.558 9.65242,800.991 z" id="boundary" inkscape:connector-curvature="0" />
	<path style="fill:none;stroke:red;stroke-width:1px;stroke-linecap:butt;stroke-linejoin:miter;stroke-opacity:1" d="M 9.65242,800.991 15.3048,767.077 z" id="boundary" inkscape:connector-curvature="0" />
	<path style="fill:none;stroke:red;stroke-width:1px;stroke-linecap:butt;stroke-linejoin:miter;stroke-opacity:1" d="M 15.3048,767.077 37.9145,744.467 z" id="boundary" inkscape:connector-curvature="0" />
	<path style="fill:none;stroke:red;stroke-width:1px;stroke-linecap:butt;stroke-linejoin:miter;stroke-opacity:1" d="M 60.5242,727.51 88.7863,727.51 z" id="boundary" inkscape:connector-curvature="0" />
	<path style="fill:none;stroke:red;stroke-width:1px;stroke-linecap:butt;stroke-linejoin:miter;stroke-opacity:1" d="M 37.9145,744.467 60.5242,727.51 z" id="boundary" inkscape:connector-curvature="0" />
	<path style="fill:none;stroke:red;stroke-width:1px;stroke-linecap:butt;stroke-linejoin:miter;stroke-opacity:1" d="M 88.7863,727.51 117.048,727.51 z" id="boundary" inkscape:connector-curvature="0" />
	<path style="fill:none;stroke:red;stroke-width:1px;stroke-linecap:butt;stroke-linejoin:miter;stroke-opacity:1" d="M 4,868.821 4,840.558 z" id="boundary" inkscape:connector-curvature="0" />
	<path style="fill:none;stroke:red;stroke-width:1px;stroke-linecap:butt;stroke-linejoin:miter;stroke-opacity:1" d="M 4,868.821 9.65242,897.083 z" id="boundary" inkscape:connector-curvature="0" />
	<path style="fill:none;stroke:red;stroke-width:1px;stroke-linecap:butt;stroke-linejoin:miter;stroke-opacity:1" d="M 9.65242,897.083 9.65242,925.345 z" id="boundary" inkscape:connector-curvature="0" />
	<path style="fill:none;stroke:red;stroke-width:1px;stroke-linecap:butt;stroke-linejoin:miter;stroke-opacity:1" d="M 23.7835,950.781 9.65242,925.345 z" id="boundary" inkscape:connector-curvature="0" />
	<path style="fill:none;stroke:red;stroke-width:1px;stroke-linecap:butt;stroke-linejoin:miter;stroke-opacity:1" d="M 43.567,973.39 23.7835,950.781 z" id="boundary" inkscape:connector-curvature="0" />
	<path style="fill:none;stroke:red;stroke-width:1px;stroke-linecap:butt;stroke-linejoin:miter;stroke-opacity:1" d="M 71.8291,984.695 43.567,973.39 z" id="boundary" inkscape:connector-curvature="0" />
	<path style="fill:none;stroke:red;stroke-width:1px;stroke-linecap:butt;stroke-linejoin:miter;stroke-opacity:1" d="M 100.091,990.348 71.8291,984.695 z" id="boundary" inkscape:connector-curvature="0" />
	<path style="fill:none;stroke:red;stroke-width:1px;stroke-linecap:butt;stroke-linejoin:miter;stroke-opacity:1" d="M 201.835,738.815 173.573,735.989 z" id="boundary" inkscape:connector-curvature="0" />
	<path style="fill:none;stroke:red;stroke-width:1px;stroke-linecap:butt;stroke-linejoin:miter;stroke-opacity:1" d="M 173.573,735.989 145.311,727.51 z" id="boundary" inkscape:connector-curvature="0" />
	<path style="fill:none;stroke:red;stroke-width:1px;stroke-linecap:butt;stroke-linejoin:miter;stroke-opacity:1" d="M 128.353,996 100.091,990.348 z" id="boundary" inkscape:connector-curvature="0" />
	<path style="fill:none;stroke:red;stroke-width:1px;stroke-linecap:butt;stroke-linejoin:miter;stroke-opacity:1" d="M 252.707,682.291 238.575,656.855 z" id="boundary" inkscape:connector-curvature="0" />
	<path style="fill:none;stroke:red;stroke-width:1px;stroke-linecap:butt;stroke-linejoin:miter;stroke-opacity:1" d="M 230.097,727.51 252.707,710.553 z" id="boundary" inkscape:connector-curvature="0" />
	<path style="fill:none;stroke:red;stroke-width:1px;stroke-linecap:butt;stroke-linejoin:miter;stroke-opacity:1" d="M 252.707,682.291 252.707,710.553 z" id="boundary" inkscape:connector-curvature="0" />
	<path style="fill:none;stroke:red;stroke-width:1px;stroke-linecap:butt;stroke-linejoin:miter;stroke-opacity:1" d="M 230.097,727.51 201.835,738.815 z" id="boundary" inkscape:connector-curvature="0" />
	<path style="fill:none;stroke:red;stroke-width:1px;stroke-linecap:butt;stroke-linejoin:miter;stroke-opacity:1" d="M 145.311,727.51 117.048,727.51 z" id="boundary" inkscape:connector-curvature="0" />
	<path style="fill:none;stroke:red;stroke-width:1px;stroke-linecap:butt;stroke-linejoin:miter;stroke-opacity:1" d="M 156.615,996 128.353,996 z" id="boundary" inkscape:connector-curvature="0" />
	<path style="fill:none;stroke:red;stroke-width:1px;stroke-linecap:butt;stroke-linejoin:miter;stroke-opacity:1" d="M 184.877,996 156.615,996 z" id="boundary" inkscape:connector-curvature="0" />
	<path style="fill:none;stroke:red;stroke-width:1px;stroke-linecap:butt;stroke-linejoin:miter;stroke-opacity:1" d="M 213.14,984.695 184.877,996 z" id="boundary" inkscape:connector-curvature="0" />
	<path style="fill:none;stroke:red;stroke-width:1px;stroke-linecap:butt;stroke-linejoin:miter;stroke-opacity:1" d="M 269.664,973.39 241.402,973.39 z" id="boundary" inkscape:connector-curvature="0" />
	<path style="fill:none;stroke:red;stroke-width:1px;stroke-linecap:butt;stroke-linejoin:miter;stroke-opacity:1" d="M 297.926,967.738 269.664,973.39 z" id="boundary" inkscape:connector-curvature="0" />
	<path style="fill:none;stroke:red;stroke-width:1px;stroke-linecap:butt;stroke-linejoin:miter;stroke-opacity:1" d="M 297.926,967.738 326.188,973.39 z" id="boundary" inkscape:connector-curvature="0" />
	<path style="fill:none;stroke:red;stroke-width:1px;stroke-linecap:butt;stroke-linejoin:miter;stroke-opacity:1" d="M 354.45,973.39 326.188,973.39 z" id="boundary" inkscape:connector-curvature="0" />
	<path style="fill:none;stroke:red;stroke-width:1px;stroke-linecap:butt;stroke-linejoin:miter;stroke-opacity:1" d="M 213.14,984.695 241.402,973.39 z" id="boundary" inkscape:connector-curvature="0" />
	<path style="fill:none;stroke:red;stroke-width:1px;stroke-linecap:butt;stroke-linejoin:miter;stroke-opacity:1" d="M 348.798,43.567 371.407,20.9573 z" id="boundary" inkscape:connector-curvature="0" />
	<path style="fill:none;stroke:red;stroke-width:1px;stroke-linecap:butt;stroke-linejoin:miter;stroke-opacity:1" d="M 371.407,20.9573 399.67,9.65242 z" id="boundary" inkscape:connector-curvature="0" />
	<path style="fill:none;stroke:red;stroke-width:1px;stroke-linecap:butt;stroke-linejoin:miter;stroke-opacity:1" d="M 399.67,9.65242 427.932,4 z" id="boundary" inkscape:connector-curvature="0" />
	<path style="fill:none;stroke:red;stroke-width:1px;stroke-linecap:butt;stroke-linejoin:miter;stroke-opacity:1" d="M 427.932,4 456.194,9.65242 z" id="boundary" inkscape:connector-curvature="0" />
	<path style="fill:none;stroke:red;stroke-width:1px;stroke-linecap:butt;stroke-linejoin:miter;stroke-opacity:1" d="M 670.986,4 642.724,9.65242 z" id="boundary" inkscape:connector-curvature="0" />
	<path style="fill:none;stroke:red;stroke-width:1px;stroke-linecap:butt;stroke-linejoin:miter;stroke-opacity:1" d="M 614.462,15.3048 642.724,9.65242 z" id="boundary" inkscape:connector-curvature="0" />
	<path style="fill:none;stroke:red;stroke-width:1px;stroke-linecap:butt;stroke-linejoin:miter;stroke-opacity:1" d="M 591.852,32.2621 614.462,15.3048 z" id="boundary" inkscape:connector-curvature="0" />
	<path style="fill:none;stroke:red;stroke-width:1px;stroke-linecap:butt;stroke-linejoin:miter;stroke-opacity:1" d="M 484.456,20.9573 456.194,9.65242 z" id="boundary" inkscape:connector-curvature="0" />
	<path style="fill:none;stroke:red;stroke-width:1px;stroke-linecap:butt;stroke-linejoin:miter;stroke-opacity:1" d="M 484.456,20.9573 507.066,37.9145 z" id="boundary" inkscape:connector-curvature="0" />
	<path style="fill:none;stroke:red;stroke-width:1px;stroke-linecap:butt;stroke-linejoin:miter;stroke-opacity:1" d="M 535.328,43.567 507.066,37.9145 z" id="boundary" inkscape:connector-curvature="0" />
	<path style="fill:none;stroke:red;stroke-width:1px;stroke-linecap:butt;stroke-linejoin:miter;stroke-opacity:1" d="M 563.59,43.567 535.328,43.567 z" id="boundary" inkscape:connector-curvature="0" />
	<path style="fill:none;stroke:red;stroke-width:1px;stroke-linecap:butt;stroke-linejoin:miter;stroke-opacity:1" d="M 591.852,32.2621 563.59,43.567 z" id="boundary" inkscape:connector-curvature="0" />
	<path style="fill:none;stroke:red;stroke-width:1px;stroke-linecap:butt;stroke-linejoin:miter;stroke-opacity:1" d="M 670.986,4 699.248,12.4786 z" id="boundary" inkscape:connector-curvature="0" />
	<path style="fill:none;stroke:red;stroke-width:1px;stroke-linecap:butt;stroke-linejoin:miter;stroke-opacity:1" d="M 741.641,80.3077 730.336,128.353 z" id="boundary" inkscape:connector-curvature="0" />
	<path style="fill:none;stroke:red;stroke-width:1px;stroke-linecap:butt;stroke-linejoin:miter;stroke-opacity:1" d="M 699.248,12.4786 724.684,26.6097 z" id="boundary" inkscape:connector-curvature="0" />
	<path style="fill:none;stroke:red;stroke-width:1px;stroke-linecap:butt;stroke-linejoin:miter;stroke-opacity:1" d="M 724.684,26.6097 738.815,52.0456 z" id="boundary" inkscape:connector-curvature="0" />
	<path style="fill:none;stroke:red;stroke-width:1px;stroke-linecap:butt;stroke-linejoin:miter;stroke-opacity:1" d="M 730.336,128.353 735.989,156.615 z" id="boundary" inkscape:connector-curvature="0" />
	<path style="fill:none;stroke:red;stroke-width:1px;stroke-linecap:butt;stroke-linejoin:miter;stroke-opacity:1" d="M 741.641,80.3077 738.815,52.0456 z" id="boundary" inkscape:connector-curvature="0" />
	<path style="fill:none;stroke:red;stroke-width:1px;stroke-linecap:butt;stroke-linejoin:miter;stroke-opacity:1" d="M 735.989,156.615 744.467,184.877 z" id="boundary" inkscape:connector-curvature="0" />
	<path style="fill:none;stroke:red;stroke-width:1px;stroke-linecap:butt;stroke-linejoin:miter;stroke-opacity:1" d="M 744.467,184.877 747.293,213.14 z" id="boundary" inkscape:connector-curvature="0" />
	<path style="fill:none;stroke:red;stroke-width:1px;stroke-linecap:butt;stroke-linejoin:miter;stroke-opacity:1" d="M 741.641,422.279 719.031,405.322 z" id="boundary" inkscape:connector-curvature="0" />
	<path style="fill:none;stroke:red;stroke-width:1px;stroke-linecap:butt;stroke-linejoin:miter;stroke-opacity:1" d="M 727.51,323.362 713.379,348.798 z" id="boundary" inkscape:connector-curvature="0" />
	<path style="fill:none;stroke:red;stroke-width:1px;stroke-linecap:butt;stroke-linejoin:miter;stroke-opacity:1" d="M 719.031,405.322 702.074,382.712 z" id="boundary" inkscape:connector-curvature="0" />
	<path style="fill:none;stroke:red;stroke-width:1px;stroke-linecap:butt;stroke-linejoin:miter;stroke-opacity:1" d="M 702.074,382.712 713.379,348.798 z" id="boundary" inkscape:connector-curvature="0" />
	<path style="fill:none;stroke:red;stroke-width:1px;stroke-linecap:butt;stroke-linejoin:miter;stroke-opacity:1" d="M 747.293,252.707 741.641,286.621 z" id="boundary" inkscape:connector-curvature="0" />
	<path style="fill:none;stroke:red;stroke-width:1px;stroke-linecap:butt;stroke-linejoin:miter;stroke-opacity:1" d="M 741.641,286.621 727.51,323.362 z" id="boundary" inkscape:connector-curvature="0" />
	<path style="fill:none;stroke:red;stroke-width:1px;stroke-linecap:butt;stroke-linejoin:miter;stroke-opacity:1" d="M 747.293,252.707 747.293,213.14 z" id="boundary" inkscape:connector-curvature="0" />
	<path style="fill:none;stroke:red;stroke-width:1px;stroke-linecap:butt;stroke-linejoin:miter;stroke-opacity:1" d="M 761.425,444.889 741.641,422.279 z" id="boundary" inkscape:connector-curvature="0" />
	<path style="fill:none;stroke:red;stroke-width:1px;stroke-linecap:butt;stroke-linejoin:miter;stroke-opacity:1" d="M 410.974,979.043 382.712,976.217 z" id="boundary" inkscape:connector-curvature="0" />
	<path style="fill:none;stroke:red;stroke-width:1px;stroke-linecap:butt;stroke-linejoin:miter;stroke-opacity:1" d="M 439.236,984.695 410.974,979.043 z" id="boundary" inkscape:connector-curvature="0" />
	<path style="fill:none;stroke:red;stroke-width:1px;stroke-linecap:butt;stroke-linejoin:miter;stroke-opacity:1" d="M 685.117,942.302 696.422,897.083 z" id="boundary" inkscape:connector-curvature="0" />
	<path style="fill:none;stroke:red;stroke-width:1px;stroke-linecap:butt;stroke-linejoin:miter;stroke-opacity:1" d="M 665.333,973.39 637.071,984.695 z" id="boundary" inkscape:connector-curvature="0" />
	<path style="fill:none;stroke:red;stroke-width:1px;stroke-linecap:butt;stroke-linejoin:miter;stroke-opacity:1" d="M 685.117,942.302 665.333,973.39 z" id="boundary" inkscape:connector-curvature="0" />
	<path style="fill:none;stroke:red;stroke-width:1px;stroke-linecap:butt;stroke-linejoin:miter;stroke-opacity:1" d="M 552.285,996 524.023,996 z" id="boundary" inkscape:connector-curvature="0" />
	<path style="fill:none;stroke:red;stroke-width:1px;stroke-linecap:butt;stroke-linejoin:miter;stroke-opacity:1" d="M 382.712,976.217 354.45,973.39 z" id="boundary" inkscape:connector-curvature="0" />
	<path style="fill:none;stroke:red;stroke-width:1px;stroke-linecap:butt;stroke-linejoin:miter;stroke-opacity:1" d="M 439.236,984.695 467.499,996 z" id="boundary" inkscape:connector-curvature="0" />
	<path style="fill:none;stroke:red;stroke-width:1px;stroke-linecap:butt;stroke-linejoin:miter;stroke-opacity:1" d="M 495.761,996 467.499,996 z" id="boundary" inkscape:connector-curvature="0" />
	<path style="fill:none;stroke:red;stroke-width:1px;stroke-linecap:butt;stroke-linejoin:miter;stroke-opacity:1" d="M 524.023,996 495.761,996 z" id="boundary" inkscape:connector-curvature="0" />
	<path style="fill:none;stroke:red;stroke-width:1px;stroke-linecap:butt;stroke-linejoin:miter;stroke-opacity:1" d="M 580.547,996 552.285,996 z" id="boundary" inkscape:connector-curvature="0" />
	<path style="fill:none;stroke:red;stroke-width:1px;stroke-linecap:butt;stroke-linejoin:miter;stroke-opacity:1" d="M 702.074,851.863 696.422,897.083 z" id="boundary" inkscape:connector-curvature="0" />
	<path style="fill:none;stroke:red;stroke-width:1px;stroke-linecap:butt;stroke-linejoin:miter;stroke-opacity:1" d="M 608.809,996 580.547,996 z" id="boundary" inkscape:connector-curvature="0" />
	<path style="fill:none;stroke:red;stroke-width:1px;stroke-linecap:butt;stroke-linejoin:miter;stroke-opacity:1" d="M 637.071,984.695 608.809,996 z" id="boundary" inkscape:connector-curvature="0" />
	<path style="fill:none;stroke:red;stroke-width:1px;stroke-linecap:butt;stroke-linejoin:miter;stroke-opacity:1" d="M 764.251,591.852 747.293,614.462 z" id="boundary" inkscape:connector-curvature="0" />
	<path style="fill:none;stroke:red;stroke-width:1px;stroke-linecap:butt;stroke-linejoin:miter;stroke-opacity:1" d="M 747.293,614.462 724.684,637.071 z" id="boundary" inkscape:connector-curvature="0" />
	<path style="fill:none;stroke:red;stroke-width:1px;stroke-linecap:butt;stroke-linejoin:miter;stroke-opacity:1" d="M 786.86,495.761 786.86,524.023 z" id="boundary" inkscape:connector-curvature="0" />
	<path style="fill:none;stroke:red;stroke-width:1px;stroke-linecap:butt;stroke-linejoin:miter;stroke-opacity:1" d="M 786.86,495.761 778.382,467.499 z" id="boundary" inkscape:connector-curvature="0" />
	<path style="fill:none;stroke:red;stroke-width:1px;stroke-linecap:butt;stroke-linejoin:miter;stroke-opacity:1" d="M 781.208,563.59 764.251,591.852 z" id="boundary" inkscape:connector-curvature="0" />
	<path style="fill:none;stroke:red;stroke-width:1px;stroke-linecap:butt;stroke-linejoin:miter;stroke-opacity:1" d="M 786.86,524.023 781.208,563.59 z" id="boundary" inkscape:connector-curvature="0" />
	<path style="fill:none;stroke:red;stroke-width:1px;stroke-linecap:butt;stroke-linejoin:miter;stroke-opacity:1" d="M 761.425,444.889 778.382,467.499 z" id="boundary" inkscape:connector-curvature="0" />
	<path style="fill:none;stroke:red;stroke-width:1px;stroke-linecap:butt;stroke-linejoin:miter;stroke-opacity:1" d="M 707.726,687.943 707.726,659.681 z" id="boundary" inkscape:connector-curvature="0" />
	<path style="fill:none;stroke:red;stroke-width:1px;stroke-linecap:butt;stroke-linejoin:miter;stroke-opacity:1" d="M 707.726,659.681 724.684,637.071 z" id="boundary" inkscape:connector-curvature="0" />
	<path style="fill:none;stroke:red;stroke-width:1px;stroke-linecap:butt;stroke-linejoin:miter;stroke-opacity:1" d="M 702.074,823.601 702.074,851.863 z" id="boundary" inkscape:connector-curvature="0" />
	<path style="fill:none;stroke:red;stroke-width:1px;stroke-linecap:butt;stroke-linejoin:miter;stroke-opacity:1" d="M 702.074,823.601 707.726,784.034 z" id="boundary" inkscape:connector-curvature="0" />
	<path style="fill:none;stroke:red;stroke-width:1px;stroke-linecap:butt;stroke-linejoin:miter;stroke-opacity:1" d="M 713.379,716.205 707.726,687.943 z" id="boundary" inkscape:connector-curvature="0" />
	<path style="fill:none;stroke:red;stroke-width:1px;stroke-linecap:butt;stroke-linejoin:miter;stroke-opacity:1" d="M 707.726,784.034 719.031,744.467 z" id="boundary" inkscape:connector-curvature="0" />
	<path style="fill:none;stroke:red;stroke-width:1px;stroke-linecap:butt;stroke-linejoin:miter;stroke-opacity:1" d="M 713.379,716.205 719.031,744.467 z" id="boundary" inkscape:connector-curvature="0" />
	<circle cx="4" cy="840.558" r="4" fill="#0" id="circle0"/>
	<circle cx="4" cy="868.821" r="4" fill="#0" id="circle1"/>
	<circle cx="9.65242" cy="800.991" r="4" fill="#0" id="circle2"/>
	<circle cx="9.65242" cy="897.083" r="4" fill="#0" id="circle3"/>
	<circle cx="9.65242" cy="925.345" r="4" fill="#0" id="circle4"/>
	<circle cx="15.3048" cy="767.077" r="4" fill="#0" id="circle5"/>
	<circle cx="23.7835" cy="950.781" r="4" fill="#0" id="circle6"/>
	<circle cx="37.9145" cy="744.467" r="4" fill="#0" id="circle7"/>
	<circle cx="43.567" cy="973.39" r="4" fill="#0" id="circle8"/>
	<circle cx="60.5242" cy="727.51" r="4" fill="#0" id="circle9"/>
	<circle cx="71.8291" cy="495.761" r="4" fill="#0" id="circle10"/>
	<circle cx="71.8291" cy="524.023" r="4" fill="#0" id="circle11"/>
	<circle cx="71.8291" cy="984.695" r="4" fill="#0" id="circle12"/>
	<circle cx="74.6553" cy="552.285" r="4" fill="#0" id="circle13"/>
	<circle cx="85.9601" cy="470.325" r="4" fill="#0" id="circle14"/>
	<circle cx="85.9601" cy="580.547" r="4" fill="#0" id="circle15"/>
	<circle cx="88.7863" cy="727.51" r="4" fill="#0" id="circle16"/>
	<circle cx="100.091" cy="990.348" r="4" fill="#0" id="circle17"/>
	<circle cx="102.917" cy="603.157" r="4" fill="#0" id="circle18"/>
	<circle cx="108.57" cy="450.541" r="4" fill="#0" id="circle19"/>
	<circle cx="117.048" cy="727.51" r="4" fill="#0" id="circle20"/>
	<circle cx="128.353" cy="617.288" r="4" fill="#0" id="circle21"/>
	<circle cx="128.353" cy="996" r="4" fill="#0" id="circle22"/>
	<circle cx="136.832" cy="444.889" r="4" fill="#0" id="circle23"/>
	<circle cx="145.311" cy="727.51" r="4" fill="#0" id="circle24"/>
	<circle cx="153.789" cy="631.419" r="4" fill="#0" id="circle25"/>
	<circle cx="156.615" cy="996" r="4" fill="#0" id="circle26"/>
	<circle cx="165.094" cy="436.41" r="4" fill="#0" id="circle27"/>
	<circle cx="173.573" cy="735.989" r="4" fill="#0" id="circle28"/>
	<circle cx="182.051" cy="639.897" r="4" fill="#0" id="circle29"/>
	<circle cx="184.877" cy="996" r="4" fill="#0" id="circle30"/>
	<circle cx="193.356" cy="433.584" r="4" fill="#0" id="circle31"/>
	<circle cx="201.835" cy="738.815" r="4" fill="#0" id="circle32"/>
	<circle cx="210.313" cy="651.202" r="4" fill="#0" id="circle33"/>
	<circle cx="213.14" cy="984.695" r="4" fill="#0" id="circle34"/>
	<circle cx="221.618" cy="427.932" r="4" fill="#0" id="circle35"/>
	<circle cx="230.097" cy="727.51" r="4" fill="#0" id="circle36"/>
	<circle cx="238.575" cy="656.855" r="4" fill="#0" id="circle37"/>
	<circle cx="241.402" cy="973.39" r="4" fill="#0" id="circle38"/>
	<circle cx="249.88" cy="425.105" r="4" fill="#0" id="circle39"/>
	<circle cx="252.707" cy="682.291" r="4" fill="#0" id="circle40"/>
	<circle cx="252.707" cy="710.553" r="4" fill="#0" id="circle41"/>
	<circle cx="269.664" cy="973.39" r="4" fill="#0" id="circle42"/>
	<circle cx="275.316" cy="399.67" r="4" fill="#0" id="circle43"/>
	<circle cx="286.621" cy="252.707" r="4" fill="#0" id="circle44"/>
	<circle cx="286.621" cy="280.969" r="4" fill="#0" id="circle45"/>
	<circle cx="292.274" cy="309.231" r="4" fill="#0" id="circle46"/>
	<circle cx="297.926" cy="224.444" r="4" fill="#0" id="circle47"/>
	<circle cx="297.926" cy="967.738" r="4" fill="#0" id="circle48"/>
	<circle cx="303.578" cy="337.493" r="4" fill="#0" id="circle49"/>
	<circle cx="303.578" cy="388.365" r="4" fill="#0" id="circle50"/>
	<circle cx="320.536" cy="201.835" r="4" fill="#0" id="circle51"/>
	<circle cx="320.536" cy="360.103" r="4" fill="#0" id="circle52"/>
	<circle cx="326.188" cy="973.39" r="4" fill="#0" id="circle53"/>
	<circle cx="337.493" cy="71.8291" r="4" fill="#0" id="circle54"/>
	<circle cx="337.493" cy="100.091" r="4" fill="#0" id="circle55"/>
	<circle cx="337.493" cy="179.225" r="4" fill="#0" id="circle56"/>
	<circle cx="343.145" cy="128.353" r="4" fill="#0" id="circle57"/>
	<circle cx="348.798" cy="43.567" r="4" fill="#0" id="circle58"/>
	<circle cx="354.45" cy="973.39" r="4" fill="#0" id="circle59"/>
	<circle cx="371.407" cy="20.9573" r="4" fill="#0" id="circle60"/>
	<circle cx="382.712" cy="976.217" r="4" fill="#0" id="circle61"/>
	<circle cx="399.67" cy="9.65242" r="4" fill="#0" id="circle62"/>
	<circle cx="410.974" cy="979.043" r="4" fill="#0" id="circle63"/>
	<circle cx="427.932" cy="4" r="4" fill="#0" id="circle64"/>
	<circle cx="439.236" cy="984.695" r="4" fill="#0" id="circle65"/>
	<circle cx="456.194" cy="9.65242" r="4" fill="#0" id="circle66"/>
	<circle cx="467.499" cy="996" r="4" fill="#0" id="circle67"/>
	<circle cx="484.456" cy="20.9573" r="4" fill="#0" id="circle68"/>
	<circle cx="495.761" cy="996" r="4" fill="#0" id="circle69"/>
	<circle cx="507.066" cy="37.9145" r="4" fill="#0" id="circle70"/>
	<circle cx="524.023" cy="996" r="4" fill="#0" id="circle71"/>
	<circle cx="535.328" cy="43.567" r="4" fill="#0" id="circle72"/>
	<circle cx="552.285" cy="996" r="4" fill="#0" id="circle73"/>
	<circle cx="563.59" cy="43.567" r="4" fill="#0" id="circle74"/>
	<circle cx="580.547" cy="996" r="4" fill="#0" id="circle75"/>
	<circle cx="591.852" cy="32.2621" r="4" fill="#0" id="circle76"/>
	<circle cx="608.809" cy="996" r="4" fill="#0" id="circle77"/>
	<circle cx="614.462" cy="15.3048" r="4" fill="#0" id="circle78"/>
	<circle cx="637.071" cy="984.695" r="4" fill="#0" id="circle79"/>
	<circle cx="642.724" cy="9.65242" r="4" fill="#0" id="circle80"/>
	<circle cx="665.333" cy="973.39" r="4" fill="#0" id="circle81"/>
	<circle cx="670.986" cy="4" r="4" fill="#0" id="circle82"/>
	<circle cx="685.117" cy="942.302" r="4" fill="#0" id="circle83"/>
	<circle cx="696.422" cy="897.083" r="4" fill="#0" id="circle84"/>
	<circle cx="699.248" cy="12.4786" r="4" fill="#0" id="circle85"/>
	<circle cx="702.074" cy="382.712" r="4" fill="#0" id="circle86"/>
	<circle cx="702.074" cy="823.601" r="4" fill="#0" id="circle87"/>
	<circle cx="702.074" cy="851.863" r="4" fill="#0" id="circle88"/>
	<circle cx="707.726" cy="659.681" r="4" fill="#0" id="circle89"/>
	<circle cx="707.726" cy="687.943" r="4" fill="#0" id="circle90"/>
	<circle cx="707.726" cy="784.034" r="4" fill="#0" id="circle91"/>
	<circle cx="713.379" cy="348.798" r="4" fill="#0" id="circle92"/>
	<circle cx="713.379" cy="716.205" r="4" fill="#0" id="circle93"/>
	<circle cx="719.031" cy="405.322" r="4" fill="#0" id="circle94"/>
	<circle cx="719.031" cy="744.467" r="4" fill="#0" id="circle95"/>
	<circle cx="724.684" cy="26.6097" r="4" fill="#0" id="circle96"/>
	<circle cx="724.684" cy="637.071" r="4" fill="#0" id="circle97"/>
	<circle cx="727.51" cy="323.362" r="4" fill="#0" id="circle98"/>
	<circle cx="730.336" cy="128.353" r="4" fill="#0" id="circle99"/>
	<circle cx="735.989" cy="156.615" r="4" fill="#0" id="circle100"/>
	<circle cx="738.815" cy="52.0456" r="4" fill="#0" id="circle101"/>
	<circle cx="741.641" cy="80.3077" r="4" fill="#0" id="circle102"/>
	<circle cx="741.641" cy="286.621" r="4" fill="#0" id="circle103"/>
	<circle cx="741.641" cy="422.279" r="4" fill="#0" id="circle104"/>
	<circle cx="744.467" cy="184.877" r="4" fill="#0" id="circle105"/>
	<circle cx="747.293" cy="213.14" r="4" fill="#0" id="circle106"/>
	<circle cx="747.293" cy="252.707" r="4" fill="#0" id="circle107"/>
	<circle cx="747.293" cy="614.462" r="4" fill="#0" id="circle108"/>
	<circle cx="761.425" cy="444.889" r="4" fill="#0" id="circle109"/>
	<circle cx="764.251" cy="591.852" r="4" fill="#0" id="circle110"/>
	<circle cx="778.382" cy="467.499" r="4" fill="#0" id="circle111"/>
	<circle cx="781.208" cy="563.59" r="4" fill="#0" id="circle112"/>
	<circle cx="786.86" cy="495.761" r="4" fill="#0" id="circle113"/>
	<circle cx="786.86" cy="524.023" r="4" fill="#0" id="circle114"/>
	</g>
</svg>