<?xml version="1.0" encoding="UTF-8" standalone="no"?>
<!-- Created with CurveBenchmark -->
<svg
	xmlns:dc="http://purl.org/dc/elements/1.1/"
	xmlns:cc="http://creativecommons.org/ns#"
	xmlns:rdf="http://www.w3.org/1999/02/22-rdf-syntax-ns#"
	xmlns:svg="http://www.w3.org/2000/svg"
	xmlns="http://www.w3.org/2000/svg"
	xmlns:sodipodi="http://sodipodi.sourceforge.net/DTD/sodipodi-0.dtd"
	xmlns:inkscape="http://www.inkscape.org/namespaces/inkscape"
	width="1000"
	height="1000"
	id="svg2"
	version="1.1"
	sodipodi:docname="manifold/nncrust-textbox59.png.txt">
<defs
	id="defs4" />
<metadata
	id="metadata7">
	<rdf:RDF>
		<cc:Work
			rdf:about="">
			<dc:format>image/svg+xml</dc:format>
			<dc:type
				rdf:resource="http://purl.org/dc/dcmitype/StillImage" />
			<dc:title></dc:title>
		</cc:Work>
	</rdf:RDF>
</metadata>
<g
	inkscape:label="Layer 1"
	inkscape:groupmode="layer"
	id="layer1">
	<path style="fill:none;stroke:red;stroke-width:1px;stroke-linecap:butt;stroke-linejoin:miter;stroke-opacity:1" d="M 98.2966,198.251 98.2966,217.11 z" id="boundary" inkscape:connector-curvature="0" />
	<path style="fill:none;stroke:red;stroke-width:1px;stroke-linecap:butt;stroke-linejoin:miter;stroke-opacity:1" d="M 98.2966,217.11 88.8669,245.399 z" id="boundary" inkscape:connector-curvature="0" />
	<path style="fill:none;stroke:red;stroke-width:1px;stroke-linecap:butt;stroke-linejoin:miter;stroke-opacity:1" d="M 88.8669,245.399 88.8669,264.259 z" id="boundary" inkscape:connector-curvature="0" />
	<path style="fill:none;stroke:red;stroke-width:1px;stroke-linecap:butt;stroke-linejoin:miter;stroke-opacity:1" d="M 88.8669,264.259 75.6654,296.319 z" id="boundary" inkscape:connector-curvature="0" />
	<path style="fill:none;stroke:red;stroke-width:1px;stroke-linecap:butt;stroke-linejoin:miter;stroke-opacity:1" d="M 75.6654,296.319 56.8061,296.319 z" id="boundary" inkscape:connector-curvature="0" />
	<path style="fill:none;stroke:red;stroke-width:1px;stroke-linecap:butt;stroke-linejoin:miter;stroke-opacity:1" d="M 141.673,136.015 145.445,113.384 z" id="boundary" inkscape:connector-curvature="0" />
	<path style="fill:none;stroke:red;stroke-width:1px;stroke-linecap:butt;stroke-linejoin:miter;stroke-opacity:1" d="M 145.445,113.384 164.304,107.726 z" id="boundary" inkscape:connector-curvature="0" />
	<path style="fill:none;stroke:red;stroke-width:1px;stroke-linecap:butt;stroke-linejoin:miter;stroke-opacity:1" d="M 141.673,136.015 126.586,151.103 z" id="boundary" inkscape:connector-curvature="0" />
	<path style="fill:none;stroke:red;stroke-width:1px;stroke-linecap:butt;stroke-linejoin:miter;stroke-opacity:1" d="M 126.586,151.103 126.586,169.962 z" id="boundary" inkscape:connector-curvature="0" />
	<path style="fill:none;stroke:red;stroke-width:1px;stroke-linecap:butt;stroke-linejoin:miter;stroke-opacity:1" d="M 126.586,169.962 107.726,179.392 z" id="boundary" inkscape:connector-curvature="0" />
	<path style="fill:none;stroke:red;stroke-width:1px;stroke-linecap:butt;stroke-linejoin:miter;stroke-opacity:1" d="M 98.2966,198.251 107.726,179.392 z" id="boundary" inkscape:connector-curvature="0" />
	<path style="fill:none;stroke:red;stroke-width:1px;stroke-linecap:butt;stroke-linejoin:miter;stroke-opacity:1" d="M 13.4297,358.555 13.4297,377.414 z" id="boundary" inkscape:connector-curvature="0" />
	<path style="fill:none;stroke:red;stroke-width:1px;stroke-linecap:butt;stroke-linejoin:miter;stroke-opacity:1" d="M 13.4297,377.414 4,396.274 z" id="boundary" inkscape:connector-curvature="0" />
	<path style="fill:none;stroke:red;stroke-width:1px;stroke-linecap:butt;stroke-linejoin:miter;stroke-opacity:1" d="M 13.4297,358.555 22.8593,339.696 z" id="boundary" inkscape:connector-curvature="0" />
	<path style="fill:none;stroke:red;stroke-width:1px;stroke-linecap:butt;stroke-linejoin:miter;stroke-opacity:1" d="M 4,415.133 4,396.274 z" id="boundary" inkscape:connector-curvature="0" />
	<path style="fill:none;stroke:red;stroke-width:1px;stroke-linecap:butt;stroke-linejoin:miter;stroke-opacity:1" d="M 13.4297,450.966 4,433.992 z" id="boundary" inkscape:connector-curvature="0" />
	<path style="fill:none;stroke:red;stroke-width:1px;stroke-linecap:butt;stroke-linejoin:miter;stroke-opacity:1" d="M 4,433.992 4,415.133 z" id="boundary" inkscape:connector-curvature="0" />
	<path style="fill:none;stroke:red;stroke-width:1px;stroke-linecap:butt;stroke-linejoin:miter;stroke-opacity:1" d="M 13.4297,450.966 13.4297,469.825 z" id="boundary" inkscape:connector-curvature="0" />
	<path style="fill:none;stroke:red;stroke-width:1px;stroke-linecap:butt;stroke-linejoin:miter;stroke-opacity:1" d="M 22.8593,339.696 22.8593,320.837 z" id="boundary" inkscape:connector-curvature="0" />
	<path style="fill:none;stroke:red;stroke-width:1px;stroke-linecap:butt;stroke-linejoin:miter;stroke-opacity:1" d="M 22.8593,320.837 41.7186,311.407 z" id="boundary" inkscape:connector-curvature="0" />
	<path style="fill:none;stroke:red;stroke-width:1px;stroke-linecap:butt;stroke-linejoin:miter;stroke-opacity:1" d="M 56.8061,296.319 41.7186,311.407 z" id="boundary" inkscape:connector-curvature="0" />
	<path style="fill:none;stroke:red;stroke-width:1px;stroke-linecap:butt;stroke-linejoin:miter;stroke-opacity:1" d="M 26.6312,484.913 13.4297,469.825 z" id="boundary" inkscape:connector-curvature="0" />
	<path style="fill:none;stroke:red;stroke-width:1px;stroke-linecap:butt;stroke-linejoin:miter;stroke-opacity:1" d="M 41.7186,496.228 26.6312,484.913 z" id="boundary" inkscape:connector-curvature="0" />
	<path style="fill:none;stroke:red;stroke-width:1px;stroke-linecap:butt;stroke-linejoin:miter;stroke-opacity:1" d="M 164.304,107.726 183.163,103.954 z" id="boundary" inkscape:connector-curvature="0" />
	<path style="fill:none;stroke:red;stroke-width:1px;stroke-linecap:butt;stroke-linejoin:miter;stroke-opacity:1" d="M 405.703,32.289 424.563,32.289 z" id="boundary" inkscape:connector-curvature="0" />
	<path style="fill:none;stroke:red;stroke-width:1px;stroke-linecap:butt;stroke-linejoin:miter;stroke-opacity:1" d="M 396.274,51.1483 405.703,32.289 z" id="boundary" inkscape:connector-curvature="0" />
	<path style="fill:none;stroke:red;stroke-width:1px;stroke-linecap:butt;stroke-linejoin:miter;stroke-opacity:1" d="M 443.422,32.289 424.563,32.289 z" id="boundary" inkscape:connector-curvature="0" />
	<path style="fill:none;stroke:red;stroke-width:1px;stroke-linecap:butt;stroke-linejoin:miter;stroke-opacity:1" d="M 358.555,60.5779 377.414,51.1483 z" id="boundary" inkscape:connector-curvature="0" />
	<path style="fill:none;stroke:red;stroke-width:1px;stroke-linecap:butt;stroke-linejoin:miter;stroke-opacity:1" d="M 377.414,51.1483 396.274,51.1483 z" id="boundary" inkscape:connector-curvature="0" />
	<path style="fill:none;stroke:red;stroke-width:1px;stroke-linecap:butt;stroke-linejoin:miter;stroke-opacity:1" d="M 343.468,75.6654 358.555,60.5779 z" id="boundary" inkscape:connector-curvature="0" />
	<path style="fill:none;stroke:red;stroke-width:1px;stroke-linecap:butt;stroke-linejoin:miter;stroke-opacity:1" d="M 458.51,43.6046 443.422,32.289 z" id="boundary" inkscape:connector-curvature="0" />
	<path style="fill:none;stroke:red;stroke-width:1px;stroke-linecap:butt;stroke-linejoin:miter;stroke-opacity:1" d="M 530.175,60.5779 541.49,37.9468 z" id="boundary" inkscape:connector-curvature="0" />
	<path style="fill:none;stroke:red;stroke-width:1px;stroke-linecap:butt;stroke-linejoin:miter;stroke-opacity:1" d="M 550.92,19.0875 541.49,37.9468 z" id="boundary" inkscape:connector-curvature="0" />
	<path style="fill:none;stroke:red;stroke-width:1px;stroke-linecap:butt;stroke-linejoin:miter;stroke-opacity:1" d="M 473.597,54.9202 458.51,43.6046 z" id="boundary" inkscape:connector-curvature="0" />
	<path style="fill:none;stroke:red;stroke-width:1px;stroke-linecap:butt;stroke-linejoin:miter;stroke-opacity:1" d="M 492.456,60.5779 473.597,54.9202 z" id="boundary" inkscape:connector-curvature="0" />
	<path style="fill:none;stroke:red;stroke-width:1px;stroke-linecap:butt;stroke-linejoin:miter;stroke-opacity:1" d="M 511.316,62.4639 492.456,60.5779 z" id="boundary" inkscape:connector-curvature="0" />
	<path style="fill:none;stroke:red;stroke-width:1px;stroke-linecap:butt;stroke-linejoin:miter;stroke-opacity:1" d="M 218.996,88.8669 237.856,88.8669 z" id="boundary" inkscape:connector-curvature="0" />
	<path style="fill:none;stroke:red;stroke-width:1px;stroke-linecap:butt;stroke-linejoin:miter;stroke-opacity:1" d="M 202.023,98.2966 218.996,88.8669 z" id="boundary" inkscape:connector-curvature="0" />
	<path style="fill:none;stroke:red;stroke-width:1px;stroke-linecap:butt;stroke-linejoin:miter;stroke-opacity:1" d="M 256.715,88.8669 237.856,88.8669 z" id="boundary" inkscape:connector-curvature="0" />
	<path style="fill:none;stroke:red;stroke-width:1px;stroke-linecap:butt;stroke-linejoin:miter;stroke-opacity:1" d="M 202.023,98.2966 183.163,103.954 z" id="boundary" inkscape:connector-curvature="0" />
	<path style="fill:none;stroke:red;stroke-width:1px;stroke-linecap:butt;stroke-linejoin:miter;stroke-opacity:1" d="M 256.715,88.8669 275.574,88.8669 z" id="boundary" inkscape:connector-curvature="0" />
	<path style="fill:none;stroke:red;stroke-width:1px;stroke-linecap:butt;stroke-linejoin:miter;stroke-opacity:1" d="M 530.175,60.5779 511.316,62.4639 z" id="boundary" inkscape:connector-curvature="0" />
	<path style="fill:none;stroke:red;stroke-width:1px;stroke-linecap:butt;stroke-linejoin:miter;stroke-opacity:1" d="M 332.152,98.2966 343.468,75.6654 z" id="boundary" inkscape:connector-curvature="0" />
	<path style="fill:none;stroke:red;stroke-width:1px;stroke-linecap:butt;stroke-linejoin:miter;stroke-opacity:1" d="M 313.293,98.2966 294.433,90.7529 z" id="boundary" inkscape:connector-curvature="0" />
	<path style="fill:none;stroke:red;stroke-width:1px;stroke-linecap:butt;stroke-linejoin:miter;stroke-opacity:1" d="M 332.152,98.2966 313.293,98.2966 z" id="boundary" inkscape:connector-curvature="0" />
	<path style="fill:none;stroke:red;stroke-width:1px;stroke-linecap:butt;stroke-linejoin:miter;stroke-opacity:1" d="M 275.574,88.8669 294.433,90.7529 z" id="boundary" inkscape:connector-curvature="0" />
	<path style="fill:none;stroke:red;stroke-width:1px;stroke-linecap:butt;stroke-linejoin:miter;stroke-opacity:1" d="M 22.8593,528.289 22.8593,547.148 z" id="boundary" inkscape:connector-curvature="0" />
	<path style="fill:none;stroke:red;stroke-width:1px;stroke-linecap:butt;stroke-linejoin:miter;stroke-opacity:1" d="M 22.8593,528.289 41.7186,515.087 z" id="boundary" inkscape:connector-curvature="0" />
	<path style="fill:none;stroke:red;stroke-width:1px;stroke-linecap:butt;stroke-linejoin:miter;stroke-opacity:1" d="M 22.8593,566.008 22.8593,584.867 z" id="boundary" inkscape:connector-curvature="0" />
	<path style="fill:none;stroke:red;stroke-width:1px;stroke-linecap:butt;stroke-linejoin:miter;stroke-opacity:1" d="M 22.8593,603.726 22.8593,584.867 z" id="boundary" inkscape:connector-curvature="0" />
	<path style="fill:none;stroke:red;stroke-width:1px;stroke-linecap:butt;stroke-linejoin:miter;stroke-opacity:1" d="M 41.7186,609.384 22.8593,603.726 z" id="boundary" inkscape:connector-curvature="0" />
	<path style="fill:none;stroke:red;stroke-width:1px;stroke-linecap:butt;stroke-linejoin:miter;stroke-opacity:1" d="M 22.8593,566.008 22.8593,547.148 z" id="boundary" inkscape:connector-curvature="0" />
	<path style="fill:none;stroke:red;stroke-width:1px;stroke-linecap:butt;stroke-linejoin:miter;stroke-opacity:1" d="M 47.3764,647.103 51.1483,665.962 z" id="boundary" inkscape:connector-curvature="0" />
	<path style="fill:none;stroke:red;stroke-width:1px;stroke-linecap:butt;stroke-linejoin:miter;stroke-opacity:1" d="M 47.3764,647.103 41.7186,628.243 z" id="boundary" inkscape:connector-curvature="0" />
	<path style="fill:none;stroke:red;stroke-width:1px;stroke-linecap:butt;stroke-linejoin:miter;stroke-opacity:1" d="M 41.7186,628.243 41.7186,609.384 z" id="boundary" inkscape:connector-curvature="0" />
	<path style="fill:none;stroke:red;stroke-width:1px;stroke-linecap:butt;stroke-linejoin:miter;stroke-opacity:1" d="M 41.7186,515.087 41.7186,496.228 z" id="boundary" inkscape:connector-curvature="0" />
	<path style="fill:none;stroke:red;stroke-width:1px;stroke-linecap:butt;stroke-linejoin:miter;stroke-opacity:1" d="M 51.1483,665.962 56.8061,684.821 z" id="boundary" inkscape:connector-curvature="0" />
	<path style="fill:none;stroke:red;stroke-width:1px;stroke-linecap:butt;stroke-linejoin:miter;stroke-opacity:1" d="M 56.8061,684.821 75.6654,684.821 z" id="boundary" inkscape:connector-curvature="0" />
	<path style="fill:none;stroke:red;stroke-width:1px;stroke-linecap:butt;stroke-linejoin:miter;stroke-opacity:1" d="M 75.6654,684.821 94.5247,692.365 z" id="boundary" inkscape:connector-curvature="0" />
	<path style="fill:none;stroke:red;stroke-width:1px;stroke-linecap:butt;stroke-linejoin:miter;stroke-opacity:1" d="M 94.5247,692.365 111.498,701.795 z" id="boundary" inkscape:connector-curvature="0" />
	<path style="fill:none;stroke:red;stroke-width:1px;stroke-linecap:butt;stroke-linejoin:miter;stroke-opacity:1" d="M 111.498,701.795 130.357,703.681 z" id="boundary" inkscape:connector-curvature="0" />
	<path style="fill:none;stroke:red;stroke-width:1px;stroke-linecap:butt;stroke-linejoin:miter;stroke-opacity:1" d="M 130.357,703.681 145.445,714.996 z" id="boundary" inkscape:connector-curvature="0" />
	<path style="fill:none;stroke:red;stroke-width:1px;stroke-linecap:butt;stroke-linejoin:miter;stroke-opacity:1" d="M 145.445,714.996 154.875,731.97 z" id="boundary" inkscape:connector-curvature="0" />
	<path style="fill:none;stroke:red;stroke-width:1px;stroke-linecap:butt;stroke-linejoin:miter;stroke-opacity:1" d="M 154.875,731.97 171.848,741.399 z" id="boundary" inkscape:connector-curvature="0" />
	<path style="fill:none;stroke:red;stroke-width:1px;stroke-linecap:butt;stroke-linejoin:miter;stroke-opacity:1" d="M 171.848,741.399 183.163,756.487 z" id="boundary" inkscape:connector-curvature="0" />
	<path style="fill:none;stroke:red;stroke-width:1px;stroke-linecap:butt;stroke-linejoin:miter;stroke-opacity:1" d="M 183.163,756.487 185.049,775.346 z" id="boundary" inkscape:connector-curvature="0" />
	<path style="fill:none;stroke:red;stroke-width:1px;stroke-linecap:butt;stroke-linejoin:miter;stroke-opacity:1" d="M 200.137,788.548 185.049,775.346 z" id="boundary" inkscape:connector-curvature="0" />
	<path style="fill:none;stroke:red;stroke-width:1px;stroke-linecap:butt;stroke-linejoin:miter;stroke-opacity:1" d="M 218.996,788.548 200.137,788.548 z" id="boundary" inkscape:connector-curvature="0" />
	<path style="fill:none;stroke:red;stroke-width:1px;stroke-linecap:butt;stroke-linejoin:miter;stroke-opacity:1" d="M 218.996,788.548 226.54,807.407 z" id="boundary" inkscape:connector-curvature="0" />
	<path style="fill:none;stroke:red;stroke-width:1px;stroke-linecap:butt;stroke-linejoin:miter;stroke-opacity:1" d="M 226.54,807.407 245.399,807.407 z" id="boundary" inkscape:connector-curvature="0" />
	<path style="fill:none;stroke:red;stroke-width:1px;stroke-linecap:butt;stroke-linejoin:miter;stroke-opacity:1" d="M 264.259,807.407 245.399,807.407 z" id="boundary" inkscape:connector-curvature="0" />
	<path style="fill:none;stroke:red;stroke-width:1px;stroke-linecap:butt;stroke-linejoin:miter;stroke-opacity:1" d="M 264.259,807.407 281.232,816.837 z" id="boundary" inkscape:connector-curvature="0" />
	<path style="fill:none;stroke:red;stroke-width:1px;stroke-linecap:butt;stroke-linejoin:miter;stroke-opacity:1" d="M 317.065,807.407 300.091,816.837 z" id="boundary" inkscape:connector-curvature="0" />
	<path style="fill:none;stroke:red;stroke-width:1px;stroke-linecap:butt;stroke-linejoin:miter;stroke-opacity:1" d="M 300.091,816.837 281.232,816.837 z" id="boundary" inkscape:connector-curvature="0" />
	<path style="fill:none;stroke:red;stroke-width:1px;stroke-linecap:butt;stroke-linejoin:miter;stroke-opacity:1" d="M 317.065,807.407 335.924,807.407 z" id="boundary" inkscape:connector-curvature="0" />
	<path style="fill:none;stroke:red;stroke-width:1px;stroke-linecap:butt;stroke-linejoin:miter;stroke-opacity:1" d="M 381.186,779.118 364.213,788.548 z" id="boundary" inkscape:connector-curvature="0" />
	<path style="fill:none;stroke:red;stroke-width:1px;stroke-linecap:butt;stroke-linejoin:miter;stroke-opacity:1" d="M 364.213,788.548 345.354,788.548 z" id="boundary" inkscape:connector-curvature="0" />
	<path style="fill:none;stroke:red;stroke-width:1px;stroke-linecap:butt;stroke-linejoin:miter;stroke-opacity:1" d="M 381.186,779.118 398.16,788.548 z" id="boundary" inkscape:connector-curvature="0" />
	<path style="fill:none;stroke:red;stroke-width:1px;stroke-linecap:butt;stroke-linejoin:miter;stroke-opacity:1" d="M 335.924,807.407 345.354,788.548 z" id="boundary" inkscape:connector-curvature="0" />
	<path style="fill:none;stroke:red;stroke-width:1px;stroke-linecap:butt;stroke-linejoin:miter;stroke-opacity:1" d="M 398.16,788.548 400.046,807.407 z" id="boundary" inkscape:connector-curvature="0" />
	<path style="fill:none;stroke:red;stroke-width:1px;stroke-linecap:butt;stroke-linejoin:miter;stroke-opacity:1" d="M 417.019,816.837 400.046,807.407 z" id="boundary" inkscape:connector-curvature="0" />
	<path style="fill:none;stroke:red;stroke-width:1px;stroke-linecap:butt;stroke-linejoin:miter;stroke-opacity:1" d="M 462.281,845.125 443.422,845.125 z" id="boundary" inkscape:connector-curvature="0" />
	<path style="fill:none;stroke:red;stroke-width:1px;stroke-linecap:butt;stroke-linejoin:miter;stroke-opacity:1" d="M 443.422,845.125 428.335,831.924 z" id="boundary" inkscape:connector-curvature="0" />
	<path style="fill:none;stroke:red;stroke-width:1px;stroke-linecap:butt;stroke-linejoin:miter;stroke-opacity:1" d="M 428.335,831.924 417.019,816.837 z" id="boundary" inkscape:connector-curvature="0" />
	<path style="fill:none;stroke:red;stroke-width:1px;stroke-linecap:butt;stroke-linejoin:miter;stroke-opacity:1" d="M 498.114,854.555 479.255,854.555 z" id="boundary" inkscape:connector-curvature="0" />
	<path style="fill:none;stroke:red;stroke-width:1px;stroke-linecap:butt;stroke-linejoin:miter;stroke-opacity:1" d="M 479.255,854.555 462.281,845.125 z" id="boundary" inkscape:connector-curvature="0" />
	<path style="fill:none;stroke:red;stroke-width:1px;stroke-linecap:butt;stroke-linejoin:miter;stroke-opacity:1" d="M 516.973,854.555 533.947,845.125 z" id="boundary" inkscape:connector-curvature="0" />
	<path style="fill:none;stroke:red;stroke-width:1px;stroke-linecap:butt;stroke-linejoin:miter;stroke-opacity:1" d="M 516.973,854.555 498.114,854.555 z" id="boundary" inkscape:connector-curvature="0" />
	<path style="fill:none;stroke:red;stroke-width:1px;stroke-linecap:butt;stroke-linejoin:miter;stroke-opacity:1" d="M 533.947,845.125 550.92,854.555 z" id="boundary" inkscape:connector-curvature="0" />
	<path style="fill:none;stroke:red;stroke-width:1px;stroke-linecap:butt;stroke-linejoin:miter;stroke-opacity:1" d="M 550.92,854.555 550.92,873.414 z" id="boundary" inkscape:connector-curvature="0" />
	<path style="fill:none;stroke:red;stroke-width:1px;stroke-linecap:butt;stroke-linejoin:miter;stroke-opacity:1" d="M 556.578,892.274 550.92,873.414 z" id="boundary" inkscape:connector-curvature="0" />
	<path style="fill:none;stroke:red;stroke-width:1px;stroke-linecap:butt;stroke-linejoin:miter;stroke-opacity:1" d="M 566.008,909.247 556.578,892.274 z" id="boundary" inkscape:connector-curvature="0" />
	<path style="fill:none;stroke:red;stroke-width:1px;stroke-linecap:butt;stroke-linejoin:miter;stroke-opacity:1" d="M 566.008,909.247 579.209,924.335 z" id="boundary" inkscape:connector-curvature="0" />
	<path style="fill:none;stroke:red;stroke-width:1px;stroke-linecap:butt;stroke-linejoin:miter;stroke-opacity:1" d="M 628.243,779.118 550.92,854.555 z" id="boundary" inkscape:connector-curvature="0" />
	<path style="fill:none;stroke:red;stroke-width:1px;stroke-linecap:butt;stroke-linejoin:miter;stroke-opacity:1" d="M 550.92,19.0875 569.779,13.4297 z" id="boundary" inkscape:connector-curvature="0" />
	<path style="fill:none;stroke:red;stroke-width:1px;stroke-linecap:butt;stroke-linejoin:miter;stroke-opacity:1" d="M 586.753,4 605.612,4 z" id="boundary" inkscape:connector-curvature="0" />
	<path style="fill:none;stroke:red;stroke-width:1px;stroke-linecap:butt;stroke-linejoin:miter;stroke-opacity:1" d="M 569.779,13.4297 586.753,4 z" id="boundary" inkscape:connector-curvature="0" />
	<path style="fill:none;stroke:red;stroke-width:1px;stroke-linecap:butt;stroke-linejoin:miter;stroke-opacity:1" d="M 605.612,4 624.471,4 z" id="boundary" inkscape:connector-curvature="0" />
	<path style="fill:none;stroke:red;stroke-width:1px;stroke-linecap:butt;stroke-linejoin:miter;stroke-opacity:1" d="M 624.471,4 641.445,13.4297 z" id="boundary" inkscape:connector-curvature="0" />
	<path style="fill:none;stroke:red;stroke-width:1px;stroke-linecap:butt;stroke-linejoin:miter;stroke-opacity:1" d="M 660.304,13.4297 641.445,13.4297 z" id="boundary" inkscape:connector-curvature="0" />
	<path style="fill:none;stroke:red;stroke-width:1px;stroke-linecap:butt;stroke-linejoin:miter;stroke-opacity:1" d="M 762.144,4 781.004,4 z" id="boundary" inkscape:connector-curvature="0" />
	<path style="fill:none;stroke:red;stroke-width:1px;stroke-linecap:butt;stroke-linejoin:miter;stroke-opacity:1" d="M 781.004,4 797.977,13.4297 z" id="boundary" inkscape:connector-curvature="0" />
	<path style="fill:none;stroke:red;stroke-width:1px;stroke-linecap:butt;stroke-linejoin:miter;stroke-opacity:1" d="M 726.312,13.4297 745.171,13.4297 z" id="boundary" inkscape:connector-curvature="0" />
	<path style="fill:none;stroke:red;stroke-width:1px;stroke-linecap:butt;stroke-linejoin:miter;stroke-opacity:1" d="M 718.768,32.289 726.312,13.4297 z" id="boundary" inkscape:connector-curvature="0" />
	<path style="fill:none;stroke:red;stroke-width:1px;stroke-linecap:butt;stroke-linejoin:miter;stroke-opacity:1" d="M 762.144,4 745.171,13.4297 z" id="boundary" inkscape:connector-curvature="0" />
	<path style="fill:none;stroke:red;stroke-width:1px;stroke-linecap:butt;stroke-linejoin:miter;stroke-opacity:1" d="M 816.837,13.4297 797.977,13.4297 z" id="boundary" inkscape:connector-curvature="0" />
	<path style="fill:none;stroke:red;stroke-width:1px;stroke-linecap:butt;stroke-linejoin:miter;stroke-opacity:1" d="M 660.304,13.4297 665.962,32.289 z" id="boundary" inkscape:connector-curvature="0" />
	<path style="fill:none;stroke:red;stroke-width:1px;stroke-linecap:butt;stroke-linejoin:miter;stroke-opacity:1" d="M 682.935,41.7186 699.909,32.289 z" id="boundary" inkscape:connector-curvature="0" />
	<path style="fill:none;stroke:red;stroke-width:1px;stroke-linecap:butt;stroke-linejoin:miter;stroke-opacity:1" d="M 699.909,32.289 718.768,32.289 z" id="boundary" inkscape:connector-curvature="0" />
	<path style="fill:none;stroke:red;stroke-width:1px;stroke-linecap:butt;stroke-linejoin:miter;stroke-opacity:1" d="M 682.935,41.7186 665.962,32.289 z" id="boundary" inkscape:connector-curvature="0" />
	<path style="fill:none;stroke:red;stroke-width:1px;stroke-linecap:butt;stroke-linejoin:miter;stroke-opacity:1" d="M 816.837,13.4297 835.696,19.0875 z" id="boundary" inkscape:connector-curvature="0" />
	<path style="fill:none;stroke:red;stroke-width:1px;stroke-linecap:butt;stroke-linejoin:miter;stroke-opacity:1" d="M 835.696,19.0875 843.24,37.9468 z" id="boundary" inkscape:connector-curvature="0" />
	<path style="fill:none;stroke:red;stroke-width:1px;stroke-linecap:butt;stroke-linejoin:miter;stroke-opacity:1" d="M 854.555,73.7795 845.125,56.8061 z" id="boundary" inkscape:connector-curvature="0" />
	<path style="fill:none;stroke:red;stroke-width:1px;stroke-linecap:butt;stroke-linejoin:miter;stroke-opacity:1" d="M 845.125,56.8061 843.24,37.9468 z" id="boundary" inkscape:connector-curvature="0" />
	<path style="fill:none;stroke:red;stroke-width:1px;stroke-linecap:butt;stroke-linejoin:miter;stroke-opacity:1" d="M 865.871,88.8669 854.555,73.7795 z" id="boundary" inkscape:connector-curvature="0" />
	<path style="fill:none;stroke:red;stroke-width:1px;stroke-linecap:butt;stroke-linejoin:miter;stroke-opacity:1" d="M 892.274,113.384 873.414,107.726 z" id="boundary" inkscape:connector-curvature="0" />
	<path style="fill:none;stroke:red;stroke-width:1px;stroke-linecap:butt;stroke-linejoin:miter;stroke-opacity:1" d="M 873.414,107.726 865.871,88.8669 z" id="boundary" inkscape:connector-curvature="0" />
	<path style="fill:none;stroke:red;stroke-width:1px;stroke-linecap:butt;stroke-linejoin:miter;stroke-opacity:1" d="M 892.274,113.384 892.274,132.243 z" id="boundary" inkscape:connector-curvature="0" />
	<path style="fill:none;stroke:red;stroke-width:1px;stroke-linecap:butt;stroke-linejoin:miter;stroke-opacity:1" d="M 892.274,132.243 911.133,136.015 z" id="boundary" inkscape:connector-curvature="0" />
	<path style="fill:none;stroke:red;stroke-width:1px;stroke-linecap:butt;stroke-linejoin:miter;stroke-opacity:1" d="M 929.992,141.673 911.133,136.015 z" id="boundary" inkscape:connector-curvature="0" />
	<path style="fill:none;stroke:red;stroke-width:1px;stroke-linecap:butt;stroke-linejoin:miter;stroke-opacity:1" d="M 929.992,141.673 939.422,158.646 z" id="boundary" inkscape:connector-curvature="0" />
	<path style="fill:none;stroke:red;stroke-width:1px;stroke-linecap:butt;stroke-linejoin:miter;stroke-opacity:1" d="M 939.422,158.646 950.738,173.734 z" id="boundary" inkscape:connector-curvature="0" />
	<path style="fill:none;stroke:red;stroke-width:1px;stroke-linecap:butt;stroke-linejoin:miter;stroke-opacity:1" d="M 958.281,192.593 958.281,211.452 z" id="boundary" inkscape:connector-curvature="0" />
	<path style="fill:none;stroke:red;stroke-width:1px;stroke-linecap:butt;stroke-linejoin:miter;stroke-opacity:1" d="M 950.738,173.734 958.281,192.593 z" id="boundary" inkscape:connector-curvature="0" />
	<path style="fill:none;stroke:red;stroke-width:1px;stroke-linecap:butt;stroke-linejoin:miter;stroke-opacity:1" d="M 958.281,211.452 967.711,228.426 z" id="boundary" inkscape:connector-curvature="0" />
	<path style="fill:none;stroke:red;stroke-width:1px;stroke-linecap:butt;stroke-linejoin:miter;stroke-opacity:1" d="M 967.711,228.426 967.711,247.285 z" id="boundary" inkscape:connector-curvature="0" />
	<path style="fill:none;stroke:red;stroke-width:1px;stroke-linecap:butt;stroke-linejoin:miter;stroke-opacity:1" d="M 967.711,247.285 967.711,266.144 z" id="boundary" inkscape:connector-curvature="0" />
	<path style="fill:none;stroke:red;stroke-width:1px;stroke-linecap:butt;stroke-linejoin:miter;stroke-opacity:1" d="M 967.711,266.144 967.711,285.004 z" id="boundary" inkscape:connector-curvature="0" />
	<path style="fill:none;stroke:red;stroke-width:1px;stroke-linecap:butt;stroke-linejoin:miter;stroke-opacity:1" d="M 967.711,303.863 967.711,285.004 z" id="boundary" inkscape:connector-curvature="0" />
	<path style="fill:none;stroke:red;stroke-width:1px;stroke-linecap:butt;stroke-linejoin:miter;stroke-opacity:1" d="M 967.711,303.863 967.711,322.722 z" id="boundary" inkscape:connector-curvature="0" />
	<path style="fill:none;stroke:red;stroke-width:1px;stroke-linecap:butt;stroke-linejoin:miter;stroke-opacity:1" d="M 977.141,358.555 967.711,341.582 z" id="boundary" inkscape:connector-curvature="0" />
	<path style="fill:none;stroke:red;stroke-width:1px;stroke-linecap:butt;stroke-linejoin:miter;stroke-opacity:1" d="M 967.711,341.582 967.711,322.722 z" id="boundary" inkscape:connector-curvature="0" />
	<path style="fill:none;stroke:red;stroke-width:1px;stroke-linecap:butt;stroke-linejoin:miter;stroke-opacity:1" d="M 977.141,358.555 977.141,377.414 z" id="boundary" inkscape:connector-curvature="0" />
	<path style="fill:none;stroke:red;stroke-width:1px;stroke-linecap:butt;stroke-linejoin:miter;stroke-opacity:1" d="M 977.141,377.414 977.141,396.274 z" id="boundary" inkscape:connector-curvature="0" />
	<path style="fill:none;stroke:red;stroke-width:1px;stroke-linecap:butt;stroke-linejoin:miter;stroke-opacity:1" d="M 977.141,396.274 986.57,413.247 z" id="boundary" inkscape:connector-curvature="0" />
	<path style="fill:none;stroke:red;stroke-width:1px;stroke-linecap:butt;stroke-linejoin:miter;stroke-opacity:1" d="M 986.57,413.247 986.57,432.106 z" id="boundary" inkscape:connector-curvature="0" />
	<path style="fill:none;stroke:red;stroke-width:1px;stroke-linecap:butt;stroke-linejoin:miter;stroke-opacity:1" d="M 977.141,467.939 986.57,450.966 z" id="boundary" inkscape:connector-curvature="0" />
	<path style="fill:none;stroke:red;stroke-width:1px;stroke-linecap:butt;stroke-linejoin:miter;stroke-opacity:1" d="M 977.141,486.798 977.141,467.939 z" id="boundary" inkscape:connector-curvature="0" />
	<path style="fill:none;stroke:red;stroke-width:1px;stroke-linecap:butt;stroke-linejoin:miter;stroke-opacity:1" d="M 986.57,432.106 986.57,450.966 z" id="boundary" inkscape:connector-curvature="0" />
	<path style="fill:none;stroke:red;stroke-width:1px;stroke-linecap:butt;stroke-linejoin:miter;stroke-opacity:1" d="M 977.141,486.798 967.711,505.658 z" id="boundary" inkscape:connector-curvature="0" />
	<path style="fill:none;stroke:red;stroke-width:1px;stroke-linecap:butt;stroke-linejoin:miter;stroke-opacity:1" d="M 967.711,505.658 958.281,524.517 z" id="boundary" inkscape:connector-curvature="0" />
	<path style="fill:none;stroke:red;stroke-width:1px;stroke-linecap:butt;stroke-linejoin:miter;stroke-opacity:1" d="M 647.103,731.97 665.962,731.97 z" id="boundary" inkscape:connector-curvature="0" />
	<path style="fill:none;stroke:red;stroke-width:1px;stroke-linecap:butt;stroke-linejoin:miter;stroke-opacity:1" d="M 637.673,760.259 647.103,731.97 z" id="boundary" inkscape:connector-curvature="0" />
	<path style="fill:none;stroke:red;stroke-width:1px;stroke-linecap:butt;stroke-linejoin:miter;stroke-opacity:1" d="M 628.243,779.118 637.673,760.259 z" id="boundary" inkscape:connector-curvature="0" />
	<path style="fill:none;stroke:red;stroke-width:1px;stroke-linecap:butt;stroke-linejoin:miter;stroke-opacity:1" d="M 647.103,786.662 628.243,779.118 z" id="boundary" inkscape:connector-curvature="0" />
	<path style="fill:none;stroke:red;stroke-width:1px;stroke-linecap:butt;stroke-linejoin:miter;stroke-opacity:1" d="M 665.962,786.662 647.103,786.662 z" id="boundary" inkscape:connector-curvature="0" />
	<path style="fill:none;stroke:red;stroke-width:1px;stroke-linecap:butt;stroke-linejoin:miter;stroke-opacity:1" d="M 665.962,731.97 682.935,741.399 z" id="boundary" inkscape:connector-curvature="0" />
	<path style="fill:none;stroke:red;stroke-width:1px;stroke-linecap:butt;stroke-linejoin:miter;stroke-opacity:1" d="M 682.935,741.399 701.795,741.399 z" id="boundary" inkscape:connector-curvature="0" />
	<path style="fill:none;stroke:red;stroke-width:1px;stroke-linecap:butt;stroke-linejoin:miter;stroke-opacity:1" d="M 701.795,741.399 713.11,756.487 z" id="boundary" inkscape:connector-curvature="0" />
	<path style="fill:none;stroke:red;stroke-width:1px;stroke-linecap:butt;stroke-linejoin:miter;stroke-opacity:1" d="M 694.251,805.521 675.392,803.635 z" id="boundary" inkscape:connector-curvature="0" />
	<path style="fill:none;stroke:red;stroke-width:1px;stroke-linecap:butt;stroke-linejoin:miter;stroke-opacity:1" d="M 675.392,803.635 665.962,786.662 z" id="boundary" inkscape:connector-curvature="0" />
	<path style="fill:none;stroke:red;stroke-width:1px;stroke-linecap:butt;stroke-linejoin:miter;stroke-opacity:1" d="M 713.11,811.179 694.251,805.521 z" id="boundary" inkscape:connector-curvature="0" />
	<path style="fill:none;stroke:red;stroke-width:1px;stroke-linecap:butt;stroke-linejoin:miter;stroke-opacity:1" d="M 579.209,924.335 598.068,929.992 z" id="boundary" inkscape:connector-curvature="0" />
	<path style="fill:none;stroke:red;stroke-width:1px;stroke-linecap:butt;stroke-linejoin:miter;stroke-opacity:1" d="M 598.068,929.992 607.498,946.966 z" id="boundary" inkscape:connector-curvature="0" />
	<path style="fill:none;stroke:red;stroke-width:1px;stroke-linecap:butt;stroke-linejoin:miter;stroke-opacity:1" d="M 607.498,946.966 611.27,965.825 z" id="boundary" inkscape:connector-curvature="0" />
	<path style="fill:none;stroke:red;stroke-width:1px;stroke-linecap:butt;stroke-linejoin:miter;stroke-opacity:1" d="M 611.27,965.825 626.357,977.141 z" id="boundary" inkscape:connector-curvature="0" />
	<path style="fill:none;stroke:red;stroke-width:1px;stroke-linecap:butt;stroke-linejoin:miter;stroke-opacity:1" d="M 626.357,977.141 637.673,992.228 z" id="boundary" inkscape:connector-curvature="0" />
	<path style="fill:none;stroke:red;stroke-width:1px;stroke-linecap:butt;stroke-linejoin:miter;stroke-opacity:1" d="M 656.532,996 637.673,992.228 z" id="boundary" inkscape:connector-curvature="0" />
	<path style="fill:none;stroke:red;stroke-width:1px;stroke-linecap:butt;stroke-linejoin:miter;stroke-opacity:1" d="M 722.54,828.152 713.11,811.179 z" id="boundary" inkscape:connector-curvature="0" />
	<path style="fill:none;stroke:red;stroke-width:1px;stroke-linecap:butt;stroke-linejoin:miter;stroke-opacity:1" d="M 722.54,828.152 728.198,847.011 z" id="boundary" inkscape:connector-curvature="0" />
	<path style="fill:none;stroke:red;stroke-width:1px;stroke-linecap:butt;stroke-linejoin:miter;stroke-opacity:1" d="M 694.251,996 675.392,996 z" id="boundary" inkscape:connector-curvature="0" />
	<path style="fill:none;stroke:red;stroke-width:1px;stroke-linecap:butt;stroke-linejoin:miter;stroke-opacity:1" d="M 675.392,996 656.532,996 z" id="boundary" inkscape:connector-curvature="0" />
	<path style="fill:none;stroke:red;stroke-width:1px;stroke-linecap:butt;stroke-linejoin:miter;stroke-opacity:1" d="M 713.11,986.57 694.251,996 z" id="boundary" inkscape:connector-curvature="0" />
	<path style="fill:none;stroke:red;stroke-width:1px;stroke-linecap:butt;stroke-linejoin:miter;stroke-opacity:1" d="M 722.54,967.711 713.11,986.57 z" id="boundary" inkscape:connector-curvature="0" />
	<path style="fill:none;stroke:red;stroke-width:1px;stroke-linecap:butt;stroke-linejoin:miter;stroke-opacity:1" d="M 713.11,756.487 731.97,760.259 z" id="boundary" inkscape:connector-curvature="0" />
	<path style="fill:none;stroke:red;stroke-width:1px;stroke-linecap:butt;stroke-linejoin:miter;stroke-opacity:1" d="M 854.555,599.954 854.555,618.814 z" id="boundary" inkscape:connector-curvature="0" />
	<path style="fill:none;stroke:red;stroke-width:1px;stroke-linecap:butt;stroke-linejoin:miter;stroke-opacity:1" d="M 854.555,618.814 845.125,637.673 z" id="boundary" inkscape:connector-curvature="0" />
	<path style="fill:none;stroke:red;stroke-width:1px;stroke-linecap:butt;stroke-linejoin:miter;stroke-opacity:1" d="M 854.555,599.954 873.414,599.954 z" id="boundary" inkscape:connector-curvature="0" />
	<path style="fill:none;stroke:red;stroke-width:1px;stroke-linecap:butt;stroke-linejoin:miter;stroke-opacity:1" d="M 845.125,656.532 845.125,637.673 z" id="boundary" inkscape:connector-curvature="0" />
	<path style="fill:none;stroke:red;stroke-width:1px;stroke-linecap:butt;stroke-linejoin:miter;stroke-opacity:1" d="M 845.125,656.532 835.696,684.821 z" id="boundary" inkscape:connector-curvature="0" />
	<path style="fill:none;stroke:red;stroke-width:1px;stroke-linecap:butt;stroke-linejoin:miter;stroke-opacity:1" d="M 835.696,684.821 816.837,703.681 z" id="boundary" inkscape:connector-curvature="0" />
	<path style="fill:none;stroke:red;stroke-width:1px;stroke-linecap:butt;stroke-linejoin:miter;stroke-opacity:1" d="M 805.521,722.54 816.837,703.681 z" id="boundary" inkscape:connector-curvature="0" />
	<path style="fill:none;stroke:red;stroke-width:1px;stroke-linecap:butt;stroke-linejoin:miter;stroke-opacity:1" d="M 946.966,543.376 935.65,558.464 z" id="boundary" inkscape:connector-curvature="0" />
	<path style="fill:none;stroke:red;stroke-width:1px;stroke-linecap:butt;stroke-linejoin:miter;stroke-opacity:1" d="M 935.65,558.464 920.563,571.665 z" id="boundary" inkscape:connector-curvature="0" />
	<path style="fill:none;stroke:red;stroke-width:1px;stroke-linecap:butt;stroke-linejoin:miter;stroke-opacity:1" d="M 873.414,599.954 882.844,581.095 z" id="boundary" inkscape:connector-curvature="0" />
	<path style="fill:none;stroke:red;stroke-width:1px;stroke-linecap:butt;stroke-linejoin:miter;stroke-opacity:1" d="M 882.844,581.095 901.703,581.095 z" id="boundary" inkscape:connector-curvature="0" />
	<path style="fill:none;stroke:red;stroke-width:1px;stroke-linecap:butt;stroke-linejoin:miter;stroke-opacity:1" d="M 854.555,599.954 882.844,581.095 z" id="boundary" inkscape:connector-curvature="0" />
	<path style="fill:none;stroke:red;stroke-width:1px;stroke-linecap:butt;stroke-linejoin:miter;stroke-opacity:1" d="M 920.563,571.665 901.703,581.095 z" id="boundary" inkscape:connector-curvature="0" />
	<path style="fill:none;stroke:red;stroke-width:1px;stroke-linecap:butt;stroke-linejoin:miter;stroke-opacity:1" d="M 958.281,524.517 946.966,543.376 z" id="boundary" inkscape:connector-curvature="0" />
	<path style="fill:none;stroke:red;stroke-width:1px;stroke-linecap:butt;stroke-linejoin:miter;stroke-opacity:1" d="M 731.97,865.871 728.198,847.011 z" id="boundary" inkscape:connector-curvature="0" />
	<path style="fill:none;stroke:red;stroke-width:1px;stroke-linecap:butt;stroke-linejoin:miter;stroke-opacity:1" d="M 731.97,865.871 722.54,892.274 z" id="boundary" inkscape:connector-curvature="0" />
	<path style="fill:none;stroke:red;stroke-width:1px;stroke-linecap:butt;stroke-linejoin:miter;stroke-opacity:1" d="M 726.312,911.133 722.54,892.274 z" id="boundary" inkscape:connector-curvature="0" />
	<path style="fill:none;stroke:red;stroke-width:1px;stroke-linecap:butt;stroke-linejoin:miter;stroke-opacity:1" d="M 726.312,911.133 731.97,929.992 z" id="boundary" inkscape:connector-curvature="0" />
	<path style="fill:none;stroke:red;stroke-width:1px;stroke-linecap:butt;stroke-linejoin:miter;stroke-opacity:1" d="M 805.521,722.54 788.548,731.97 z" id="boundary" inkscape:connector-curvature="0" />
	<path style="fill:none;stroke:red;stroke-width:1px;stroke-linecap:butt;stroke-linejoin:miter;stroke-opacity:1" d="M 788.548,731.97 769.688,741.399 z" id="boundary" inkscape:connector-curvature="0" />
	<path style="fill:none;stroke:red;stroke-width:1px;stroke-linecap:butt;stroke-linejoin:miter;stroke-opacity:1" d="M 769.688,741.399 750.829,741.399 z" id="boundary" inkscape:connector-curvature="0" />
	<path style="fill:none;stroke:red;stroke-width:1px;stroke-linecap:butt;stroke-linejoin:miter;stroke-opacity:1" d="M 731.97,948.852 731.97,929.992 z" id="boundary" inkscape:connector-curvature="0" />
	<path style="fill:none;stroke:red;stroke-width:1px;stroke-linecap:butt;stroke-linejoin:miter;stroke-opacity:1" d="M 731.97,948.852 722.54,967.711 z" id="boundary" inkscape:connector-curvature="0" />
	<path style="fill:none;stroke:red;stroke-width:1px;stroke-linecap:butt;stroke-linejoin:miter;stroke-opacity:1" d="M 731.97,760.259 750.829,741.399 z" id="boundary" inkscape:connector-curvature="0" />
	<circle cx="4" cy="396.274" r="4" fill="#0" id="circle0"/>
	<circle cx="4" cy="415.133" r="4" fill="#0" id="circle1"/>
	<circle cx="4" cy="433.992" r="4" fill="#0" id="circle2"/>
	<circle cx="13.4297" cy="358.555" r="4" fill="#0" id="circle3"/>
	<circle cx="13.4297" cy="377.414" r="4" fill="#0" id="circle4"/>
	<circle cx="13.4297" cy="450.966" r="4" fill="#0" id="circle5"/>
	<circle cx="13.4297" cy="469.825" r="4" fill="#0" id="circle6"/>
	<circle cx="22.8593" cy="320.837" r="4" fill="#0" id="circle7"/>
	<circle cx="22.8593" cy="339.696" r="4" fill="#0" id="circle8"/>
	<circle cx="22.8593" cy="528.289" r="4" fill="#0" id="circle9"/>
	<circle cx="22.8593" cy="547.148" r="4" fill="#0" id="circle10"/>
	<circle cx="22.8593" cy="566.008" r="4" fill="#0" id="circle11"/>
	<circle cx="22.8593" cy="584.867" r="4" fill="#0" id="circle12"/>
	<circle cx="22.8593" cy="603.726" r="4" fill="#0" id="circle13"/>
	<circle cx="26.6312" cy="484.913" r="4" fill="#0" id="circle14"/>
	<circle cx="41.7186" cy="311.407" r="4" fill="#0" id="circle15"/>
	<circle cx="41.7186" cy="496.228" r="4" fill="#0" id="circle16"/>
	<circle cx="41.7186" cy="515.087" r="4" fill="#0" id="circle17"/>
	<circle cx="41.7186" cy="609.384" r="4" fill="#0" id="circle18"/>
	<circle cx="41.7186" cy="628.243" r="4" fill="#0" id="circle19"/>
	<circle cx="47.3764" cy="647.103" r="4" fill="#0" id="circle20"/>
	<circle cx="51.1483" cy="665.962" r="4" fill="#0" id="circle21"/>
	<circle cx="56.8061" cy="296.319" r="4" fill="#0" id="circle22"/>
	<circle cx="56.8061" cy="684.821" r="4" fill="#0" id="circle23"/>
	<circle cx="75.6654" cy="296.319" r="4" fill="#0" id="circle24"/>
	<circle cx="75.6654" cy="684.821" r="4" fill="#0" id="circle25"/>
	<circle cx="88.8669" cy="245.399" r="4" fill="#0" id="circle26"/>
	<circle cx="88.8669" cy="264.259" r="4" fill="#0" id="circle27"/>
	<circle cx="94.5247" cy="692.365" r="4" fill="#0" id="circle28"/>
	<circle cx="98.2966" cy="198.251" r="4" fill="#0" id="circle29"/>
	<circle cx="98.2966" cy="217.11" r="4" fill="#0" id="circle30"/>
	<circle cx="107.726" cy="179.392" r="4" fill="#0" id="circle31"/>
	<circle cx="111.498" cy="701.795" r="4" fill="#0" id="circle32"/>
	<circle cx="126.586" cy="151.103" r="4" fill="#0" id="circle33"/>
	<circle cx="126.586" cy="169.962" r="4" fill="#0" id="circle34"/>
	<circle cx="130.357" cy="703.681" r="4" fill="#0" id="circle35"/>
	<circle cx="141.673" cy="136.015" r="4" fill="#0" id="circle36"/>
	<circle cx="145.445" cy="113.384" r="4" fill="#0" id="circle37"/>
	<circle cx="145.445" cy="714.996" r="4" fill="#0" id="circle38"/>
	<circle cx="154.875" cy="731.97" r="4" fill="#0" id="circle39"/>
	<circle cx="164.304" cy="107.726" r="4" fill="#0" id="circle40"/>
	<circle cx="171.848" cy="741.399" r="4" fill="#0" id="circle41"/>
	<circle cx="183.163" cy="103.954" r="4" fill="#0" id="circle42"/>
	<circle cx="183.163" cy="756.487" r="4" fill="#0" id="circle43"/>
	<circle cx="185.049" cy="775.346" r="4" fill="#0" id="circle44"/>
	<circle cx="200.137" cy="788.548" r="4" fill="#0" id="circle45"/>
	<circle cx="202.023" cy="98.2966" r="4" fill="#0" id="circle46"/>
	<circle cx="218.996" cy="88.8669" r="4" fill="#0" id="circle47"/>
	<circle cx="218.996" cy="788.548" r="4" fill="#0" id="circle48"/>
	<circle cx="226.54" cy="807.407" r="4" fill="#0" id="circle49"/>
	<circle cx="237.856" cy="88.8669" r="4" fill="#0" id="circle50"/>
	<circle cx="245.399" cy="807.407" r="4" fill="#0" id="circle51"/>
	<circle cx="256.715" cy="88.8669" r="4" fill="#0" id="circle52"/>
	<circle cx="264.259" cy="807.407" r="4" fill="#0" id="circle53"/>
	<circle cx="275.574" cy="88.8669" r="4" fill="#0" id="circle54"/>
	<circle cx="281.232" cy="816.837" r="4" fill="#0" id="circle55"/>
	<circle cx="294.433" cy="90.7529" r="4" fill="#0" id="circle56"/>
	<circle cx="300.091" cy="816.837" r="4" fill="#0" id="circle57"/>
	<circle cx="313.293" cy="98.2966" r="4" fill="#0" id="circle58"/>
	<circle cx="317.065" cy="807.407" r="4" fill="#0" id="circle59"/>
	<circle cx="332.152" cy="98.2966" r="4" fill="#0" id="circle60"/>
	<circle cx="335.924" cy="807.407" r="4" fill="#0" id="circle61"/>
	<circle cx="343.468" cy="75.6654" r="4" fill="#0" id="circle62"/>
	<circle cx="345.354" cy="788.548" r="4" fill="#0" id="circle63"/>
	<circle cx="358.555" cy="60.5779" r="4" fill="#0" id="circle64"/>
	<circle cx="364.213" cy="788.548" r="4" fill="#0" id="circle65"/>
	<circle cx="377.414" cy="51.1483" r="4" fill="#0" id="circle66"/>
	<circle cx="381.186" cy="779.118" r="4" fill="#0" id="circle67"/>
	<circle cx="396.274" cy="51.1483" r="4" fill="#0" id="circle68"/>
	<circle cx="398.16" cy="788.548" r="4" fill="#0" id="circle69"/>
	<circle cx="400.046" cy="807.407" r="4" fill="#0" id="circle70"/>
	<circle cx="405.703" cy="32.289" r="4" fill="#0" id="circle71"/>
	<circle cx="417.019" cy="816.837" r="4" fill="#0" id="circle72"/>
	<circle cx="424.563" cy="32.289" r="4" fill="#0" id="circle73"/>
	<circle cx="428.335" cy="831.924" r="4" fill="#0" id="circle74"/>
	<circle cx="443.422" cy="32.289" r="4" fill="#0" id="circle75"/>
	<circle cx="443.422" cy="845.125" r="4" fill="#0" id="circle76"/>
	<circle cx="458.51" cy="43.6046" r="4" fill="#0" id="circle77"/>
	<circle cx="462.281" cy="845.125" r="4" fill="#0" id="circle78"/>
	<circle cx="473.597" cy="54.9202" r="4" fill="#0" id="circle79"/>
	<circle cx="479.255" cy="854.555" r="4" fill="#0" id="circle80"/>
	<circle cx="492.456" cy="60.5779" r="4" fill="#0" id="circle81"/>
	<circle cx="498.114" cy="854.555" r="4" fill="#0" id="circle82"/>
	<circle cx="511.316" cy="62.4639" r="4" fill="#0" id="circle83"/>
	<circle cx="516.973" cy="854.555" r="4" fill="#0" id="circle84"/>
	<circle cx="530.175" cy="60.5779" r="4" fill="#0" id="circle85"/>
	<circle cx="533.947" cy="845.125" r="4" fill="#0" id="circle86"/>
	<circle cx="541.49" cy="37.9468" r="4" fill="#0" id="circle87"/>
	<circle cx="550.92" cy="19.0875" r="4" fill="#0" id="circle88"/>
	<circle cx="550.92" cy="854.555" r="4" fill="#0" id="circle89"/>
	<circle cx="550.92" cy="873.414" r="4" fill="#0" id="circle90"/>
	<circle cx="556.578" cy="892.274" r="4" fill="#0" id="circle91"/>
	<circle cx="566.008" cy="909.247" r="4" fill="#0" id="circle92"/>
	<circle cx="569.779" cy="13.4297" r="4" fill="#0" id="circle93"/>
	<circle cx="579.209" cy="924.335" r="4" fill="#0" id="circle94"/>
	<circle cx="586.753" cy="4" r="4" fill="#0" id="circle95"/>
	<circle cx="598.068" cy="929.992" r="4" fill="#0" id="circle96"/>
	<circle cx="605.612" cy="4" r="4" fill="#0" id="circle97"/>
	<circle cx="607.498" cy="946.966" r="4" fill="#0" id="circle98"/>
	<circle cx="611.27" cy="965.825" r="4" fill="#0" id="circle99"/>
	<circle cx="624.471" cy="4" r="4" fill="#0" id="circle100"/>
	<circle cx="626.357" cy="977.141" r="4" fill="#0" id="circle101"/>
	<circle cx="628.243" cy="779.118" r="4" fill="#0" id="circle102"/>
	<circle cx="637.673" cy="760.259" r="4" fill="#0" id="circle103"/>
	<circle cx="637.673" cy="992.228" r="4" fill="#0" id="circle104"/>
	<circle cx="641.445" cy="13.4297" r="4" fill="#0" id="circle105"/>
	<circle cx="647.103" cy="731.97" r="4" fill="#0" id="circle106"/>
	<circle cx="647.103" cy="786.662" r="4" fill="#0" id="circle107"/>
	<circle cx="656.532" cy="996" r="4" fill="#0" id="circle108"/>
	<circle cx="660.304" cy="13.4297" r="4" fill="#0" id="circle109"/>
	<circle cx="665.962" cy="32.289" r="4" fill="#0" id="circle110"/>
	<circle cx="665.962" cy="731.97" r="4" fill="#0" id="circle111"/>
	<circle cx="665.962" cy="786.662" r="4" fill="#0" id="circle112"/>
	<circle cx="675.392" cy="803.635" r="4" fill="#0" id="circle113"/>
	<circle cx="675.392" cy="996" r="4" fill="#0" id="circle114"/>
	<circle cx="682.935" cy="41.7186" r="4" fill="#0" id="circle115"/>
	<circle cx="682.935" cy="741.399" r="4" fill="#0" id="circle116"/>
	<circle cx="694.251" cy="805.521" r="4" fill="#0" id="circle117"/>
	<circle cx="694.251" cy="996" r="4" fill="#0" id="circle118"/>
	<circle cx="699.909" cy="32.289" r="4" fill="#0" id="circle119"/>
	<circle cx="701.795" cy="741.399" r="4" fill="#0" id="circle120"/>
	<circle cx="713.11" cy="756.487" r="4" fill="#0" id="circle121"/>
	<circle cx="713.11" cy="811.179" r="4" fill="#0" id="circle122"/>
	<circle cx="713.11" cy="986.57" r="4" fill="#0" id="circle123"/>
	<circle cx="718.768" cy="32.289" r="4" fill="#0" id="circle124"/>
	<circle cx="722.54" cy="828.152" r="4" fill="#0" id="circle125"/>
	<circle cx="722.54" cy="892.274" r="4" fill="#0" id="circle126"/>
	<circle cx="722.54" cy="967.711" r="4" fill="#0" id="circle127"/>
	<circle cx="726.312" cy="13.4297" r="4" fill="#0" id="circle128"/>
	<circle cx="726.312" cy="911.133" r="4" fill="#0" id="circle129"/>
	<circle cx="728.198" cy="847.011" r="4" fill="#0" id="circle130"/>
	<circle cx="731.97" cy="760.259" r="4" fill="#0" id="circle131"/>
	<circle cx="731.97" cy="865.871" r="4" fill="#0" id="circle132"/>
	<circle cx="731.97" cy="929.992" r="4" fill="#0" id="circle133"/>
	<circle cx="731.97" cy="948.852" r="4" fill="#0" id="circle134"/>
	<circle cx="745.171" cy="13.4297" r="4" fill="#0" id="circle135"/>
	<circle cx="750.829" cy="741.399" r="4" fill="#0" id="circle136"/>
	<circle cx="762.144" cy="4" r="4" fill="#0" id="circle137"/>
	<circle cx="769.688" cy="741.399" r="4" fill="#0" id="circle138"/>
	<circle cx="781.004" cy="4" r="4" fill="#0" id="circle139"/>
	<circle cx="788.548" cy="731.97" r="4" fill="#0" id="circle140"/>
	<circle cx="797.977" cy="13.4297" r="4" fill="#0" id="circle141"/>
	<circle cx="805.521" cy="722.54" r="4" fill="#0" id="circle142"/>
	<circle cx="816.837" cy="13.4297" r="4" fill="#0" id="circle143"/>
	<circle cx="816.837" cy="703.681" r="4" fill="#0" id="circle144"/>
	<circle cx="835.696" cy="19.0875" r="4" fill="#0" id="circle145"/>
	<circle cx="835.696" cy="684.821" r="4" fill="#0" id="circle146"/>
	<circle cx="843.24" cy="37.9468" r="4" fill="#0" id="circle147"/>
	<circle cx="845.125" cy="56.8061" r="4" fill="#0" id="circle148"/>
	<circle cx="845.125" cy="637.673" r="4" fill="#0" id="circle149"/>
	<circle cx="845.125" cy="656.532" r="4" fill="#0" id="circle150"/>
	<circle cx="854.555" cy="73.7795" r="4" fill="#0" id="circle151"/>
	<circle cx="854.555" cy="599.954" r="4" fill="#0" id="circle152"/>
	<circle cx="854.555" cy="618.814" r="4" fill="#0" id="circle153"/>
	<circle cx="865.871" cy="88.8669" r="4" fill="#0" id="circle154"/>
	<circle cx="873.414" cy="107.726" r="4" fill="#0" id="circle155"/>
	<circle cx="873.414" cy="599.954" r="4" fill="#0" id="circle156"/>
	<circle cx="882.844" cy="581.095" r="4" fill="#0" id="circle157"/>
	<circle cx="892.274" cy="113.384" r="4" fill="#0" id="circle158"/>
	<circle cx="892.274" cy="132.243" r="4" fill="#0" id="circle159"/>
	<circle cx="901.703" cy="581.095" r="4" fill="#0" id="circle160"/>
	<circle cx="911.133" cy="136.015" r="4" fill="#0" id="circle161"/>
	<circle cx="920.563" cy="571.665" r="4" fill="#0" id="circle162"/>
	<circle cx="929.992" cy="141.673" r="4" fill="#0" id="circle163"/>
	<circle cx="935.65" cy="558.464" r="4" fill="#0" id="circle164"/>
	<circle cx="939.422" cy="158.646" r="4" fill="#0" id="circle165"/>
	<circle cx="946.966" cy="543.376" r="4" fill="#0" id="circle166"/>
	<circle cx="950.738" cy="173.734" r="4" fill="#0" id="circle167"/>
	<circle cx="958.281" cy="192.593" r="4" fill="#0" id="circle168"/>
	<circle cx="958.281" cy="211.452" r="4" fill="#0" id="circle169"/>
	<circle cx="958.281" cy="524.517" r="4" fill="#0" id="circle170"/>
	<circle cx="967.711" cy="228.426" r="4" fill="#0" id="circle171"/>
	<circle cx="967.711" cy="247.285" r="4" fill="#0" id="circle172"/>
	<circle cx="967.711" cy="266.144" r="4" fill="#0" id="circle173"/>
	<circle cx="967.711" cy="285.004" r="4" fill="#0" id="circle174"/>
	<circle cx="967.711" cy="303.863" r="4" fill="#0" id="circle175"/>
	<circle cx="967.711" cy="322.722" r="4" fill="#0" id="circle176"/>
	<circle cx="967.711" cy="341.582" r="4" fill="#0" id="circle177"/>
	<circle cx="967.711" cy="505.658" r="4" fill="#0" id="circle178"/>
	<circle cx="977.141" cy="358.555" r="4" fill="#0" id="circle179"/>
	<circle cx="977.141" cy="377.414" r="4" fill="#0" id="circle180"/>
	<circle cx="977.141" cy="396.274" r="4" fill="#0" id="circle181"/>
	<circle cx="977.141" cy="467.939" r="4" fill="#0" id="circle182"/>
	<circle cx="977.141" cy="486.798" r="4" fill="#0" id="circle183"/>
	<circle cx="986.57" cy="413.247" r="4" fill="#0" id="circle184"/>
	<circle cx="986.57" cy="432.106" r="4" fill="#0" id="circle185"/>
	<circle cx="986.57" cy="450.966" r="4" fill="#0" id="circle186"/>
	</g>
</svg>