<?xml version="1.0" encoding="UTF-8" standalone="no"?>
<!-- Created with CurveBenchmark -->
<svg
	xmlns:dc="http://purl.org/dc/elements/1.1/"
	xmlns:cc="http://creativecommons.org/ns#"
	xmlns:rdf="http://www.w3.org/1999/02/22-rdf-syntax-ns#"
	xmlns:svg="http://www.w3.org/2000/svg"
	xmlns="http://www.w3.org/2000/svg"
	xmlns:sodipodi="http://sodipodi.sourceforge.net/DTD/sodipodi-0.dtd"
	xmlns:inkscape="http://www.inkscape.org/namespaces/inkscape"
	width="1000"
	height="1000"
	id="svg2"
	version="1.1"
	sodipodi:docname="manifold/nncrust-hammer-16.png.txt">
<defs
	id="defs4" />
<metadata
	id="metadata7">
	<rdf:RDF>
		<cc:Work
			rdf:about="">
			<dc:format>image/svg+xml</dc:format>
			<dc:type
				rdf:resource="http://purl.org/dc/dcmitype/StillImage" />
			<dc:title></dc:title>
		</cc:Work>
	</rdf:RDF>
</metadata>
<g
	inkscape:label="Layer 1"
	inkscape:groupmode="layer"
	id="layer1">
	<path style="fill:none;stroke:red;stroke-width:1px;stroke-linecap:butt;stroke-linejoin:miter;stroke-opacity:1" d="M 4,17.0131 4,7.00303 z" id="boundary" inkscape:connector-curvature="0" />
	<path style="fill:none;stroke:red;stroke-width:1px;stroke-linecap:butt;stroke-linejoin:miter;stroke-opacity:1" d="M 4,7.00303 14.0101,4 z" id="boundary" inkscape:connector-curvature="0" />
	<path style="fill:none;stroke:red;stroke-width:1px;stroke-linecap:butt;stroke-linejoin:miter;stroke-opacity:1" d="M 4,37.0333 4,27.0232 z" id="boundary" inkscape:connector-curvature="0" />
	<path style="fill:none;stroke:red;stroke-width:1px;stroke-linecap:butt;stroke-linejoin:miter;stroke-opacity:1" d="M 4,27.0232 4,17.0131 z" id="boundary" inkscape:connector-curvature="0" />
	<path style="fill:none;stroke:red;stroke-width:1px;stroke-linecap:butt;stroke-linejoin:miter;stroke-opacity:1" d="M 4,57.0535 4,47.0434 z" id="boundary" inkscape:connector-curvature="0" />
	<path style="fill:none;stroke:red;stroke-width:1px;stroke-linecap:butt;stroke-linejoin:miter;stroke-opacity:1" d="M 4,77.0737 4,67.0636 z" id="boundary" inkscape:connector-curvature="0" />
	<path style="fill:none;stroke:red;stroke-width:1px;stroke-linecap:butt;stroke-linejoin:miter;stroke-opacity:1" d="M 4,87.0838 4,77.0737 z" id="boundary" inkscape:connector-curvature="0" />
	<path style="fill:none;stroke:red;stroke-width:1px;stroke-linecap:butt;stroke-linejoin:miter;stroke-opacity:1" d="M 4,67.0636 4,57.0535 z" id="boundary" inkscape:connector-curvature="0" />
	<path style="fill:none;stroke:red;stroke-width:1px;stroke-linecap:butt;stroke-linejoin:miter;stroke-opacity:1" d="M 4,47.0434 4,37.0333 z" id="boundary" inkscape:connector-curvature="0" />
	<path style="fill:none;stroke:red;stroke-width:1px;stroke-linecap:butt;stroke-linejoin:miter;stroke-opacity:1" d="M 24.0202,4 34.0303,4 z" id="boundary" inkscape:connector-curvature="0" />
	<path style="fill:none;stroke:red;stroke-width:1px;stroke-linecap:butt;stroke-linejoin:miter;stroke-opacity:1" d="M 44.0404,4 54.0505,4 z" id="boundary" inkscape:connector-curvature="0" />
	<path style="fill:none;stroke:red;stroke-width:1px;stroke-linecap:butt;stroke-linejoin:miter;stroke-opacity:1" d="M 34.0303,4 44.0404,4 z" id="boundary" inkscape:connector-curvature="0" />
	<path style="fill:none;stroke:red;stroke-width:1px;stroke-linecap:butt;stroke-linejoin:miter;stroke-opacity:1" d="M 64.0605,4 74.0706,4 z" id="boundary" inkscape:connector-curvature="0" />
	<path style="fill:none;stroke:red;stroke-width:1px;stroke-linecap:butt;stroke-linejoin:miter;stroke-opacity:1" d="M 54.0505,4 64.0605,4 z" id="boundary" inkscape:connector-curvature="0" />
	<path style="fill:none;stroke:red;stroke-width:1px;stroke-linecap:butt;stroke-linejoin:miter;stroke-opacity:1" d="M 74.0706,4 84.0807,4 z" id="boundary" inkscape:connector-curvature="0" />
	<path style="fill:none;stroke:red;stroke-width:1px;stroke-linecap:butt;stroke-linejoin:miter;stroke-opacity:1" d="M 4,97.0938 4,87.0838 z" id="boundary" inkscape:connector-curvature="0" />
	<path style="fill:none;stroke:red;stroke-width:1px;stroke-linecap:butt;stroke-linejoin:miter;stroke-opacity:1" d="M 4,107.104 4,97.0938 z" id="boundary" inkscape:connector-curvature="0" />
	<path style="fill:none;stroke:red;stroke-width:1px;stroke-linecap:butt;stroke-linejoin:miter;stroke-opacity:1" d="M 14.0101,4 24.0202,4 z" id="boundary" inkscape:connector-curvature="0" />
	<path style="fill:none;stroke:red;stroke-width:1px;stroke-linecap:butt;stroke-linejoin:miter;stroke-opacity:1" d="M 4,117.114 4,107.104 z" id="boundary" inkscape:connector-curvature="0" />
	<path style="fill:none;stroke:red;stroke-width:1px;stroke-linecap:butt;stroke-linejoin:miter;stroke-opacity:1" d="M 4,147.144 4,137.134 z" id="boundary" inkscape:connector-curvature="0" />
	<path style="fill:none;stroke:red;stroke-width:1px;stroke-linecap:butt;stroke-linejoin:miter;stroke-opacity:1" d="M 4,137.134 4,127.124 z" id="boundary" inkscape:connector-curvature="0" />
	<path style="fill:none;stroke:red;stroke-width:1px;stroke-linecap:butt;stroke-linejoin:miter;stroke-opacity:1" d="M 155.152,190.188 4,137.134 z" id="boundary" inkscape:connector-curvature="0" />
	<path style="fill:none;stroke:red;stroke-width:1px;stroke-linecap:butt;stroke-linejoin:miter;stroke-opacity:1" d="M 4,157.154 4,147.144 z" id="boundary" inkscape:connector-curvature="0" />
	<path style="fill:none;stroke:red;stroke-width:1px;stroke-linecap:butt;stroke-linejoin:miter;stroke-opacity:1" d="M 4,177.175 4,167.164 z" id="boundary" inkscape:connector-curvature="0" />
	<path style="fill:none;stroke:red;stroke-width:1px;stroke-linecap:butt;stroke-linejoin:miter;stroke-opacity:1" d="M 4,187.185 4,177.175 z" id="boundary" inkscape:connector-curvature="0" />
	<path style="fill:none;stroke:red;stroke-width:1px;stroke-linecap:butt;stroke-linejoin:miter;stroke-opacity:1" d="M 4,167.164 4,157.154 z" id="boundary" inkscape:connector-curvature="0" />
	<path style="fill:none;stroke:red;stroke-width:1px;stroke-linecap:butt;stroke-linejoin:miter;stroke-opacity:1" d="M 84.0807,220.218 74.0706,220.218 z" id="boundary" inkscape:connector-curvature="0" />
	<path style="fill:none;stroke:red;stroke-width:1px;stroke-linecap:butt;stroke-linejoin:miter;stroke-opacity:1" d="M 4,207.205 4,197.195 z" id="boundary" inkscape:connector-curvature="0" />
	<path style="fill:none;stroke:red;stroke-width:1px;stroke-linecap:butt;stroke-linejoin:miter;stroke-opacity:1" d="M 14.0101,220.218 4,217.215 z" id="boundary" inkscape:connector-curvature="0" />
	<path style="fill:none;stroke:red;stroke-width:1px;stroke-linecap:butt;stroke-linejoin:miter;stroke-opacity:1" d="M 4,217.215 4,207.205 z" id="boundary" inkscape:connector-curvature="0" />
	<path style="fill:none;stroke:red;stroke-width:1px;stroke-linecap:butt;stroke-linejoin:miter;stroke-opacity:1" d="M 24.0202,220.218 14.0101,220.218 z" id="boundary" inkscape:connector-curvature="0" />
	<path style="fill:none;stroke:red;stroke-width:1px;stroke-linecap:butt;stroke-linejoin:miter;stroke-opacity:1" d="M 34.0303,220.218 24.0202,220.218 z" id="boundary" inkscape:connector-curvature="0" />
	<path style="fill:none;stroke:red;stroke-width:1px;stroke-linecap:butt;stroke-linejoin:miter;stroke-opacity:1" d="M 34.0303,220.218 44.0404,220.218 z" id="boundary" inkscape:connector-curvature="0" />
	<path style="fill:none;stroke:red;stroke-width:1px;stroke-linecap:butt;stroke-linejoin:miter;stroke-opacity:1" d="M 4,197.195 4,187.185 z" id="boundary" inkscape:connector-curvature="0" />
	<path style="fill:none;stroke:red;stroke-width:1px;stroke-linecap:butt;stroke-linejoin:miter;stroke-opacity:1" d="M 54.0505,220.218 64.0605,220.218 z" id="boundary" inkscape:connector-curvature="0" />
	<path style="fill:none;stroke:red;stroke-width:1px;stroke-linecap:butt;stroke-linejoin:miter;stroke-opacity:1" d="M 54.0505,220.218 44.0404,220.218 z" id="boundary" inkscape:connector-curvature="0" />
	<path style="fill:none;stroke:red;stroke-width:1px;stroke-linecap:butt;stroke-linejoin:miter;stroke-opacity:1" d="M 64.0605,220.218 74.0706,220.218 z" id="boundary" inkscape:connector-curvature="0" />
	<path style="fill:none;stroke:red;stroke-width:1px;stroke-linecap:butt;stroke-linejoin:miter;stroke-opacity:1" d="M 4,127.124 4,117.114 z" id="boundary" inkscape:connector-curvature="0" />
	<path style="fill:none;stroke:red;stroke-width:1px;stroke-linecap:butt;stroke-linejoin:miter;stroke-opacity:1" d="M 84.0807,4 94.0908,4 z" id="boundary" inkscape:connector-curvature="0" />
	<path style="fill:none;stroke:red;stroke-width:1px;stroke-linecap:butt;stroke-linejoin:miter;stroke-opacity:1" d="M 94.0908,4 104.101,4 z" id="boundary" inkscape:connector-curvature="0" />
	<path style="fill:none;stroke:red;stroke-width:1px;stroke-linecap:butt;stroke-linejoin:miter;stroke-opacity:1" d="M 114.111,4 124.121,4 z" id="boundary" inkscape:connector-curvature="0" />
	<path style="fill:none;stroke:red;stroke-width:1px;stroke-linecap:butt;stroke-linejoin:miter;stroke-opacity:1" d="M 104.101,4 114.111,4 z" id="boundary" inkscape:connector-curvature="0" />
	<path style="fill:none;stroke:red;stroke-width:1px;stroke-linecap:butt;stroke-linejoin:miter;stroke-opacity:1" d="M 134.131,4 144.141,4 z" id="boundary" inkscape:connector-curvature="0" />
	<path style="fill:none;stroke:red;stroke-width:1px;stroke-linecap:butt;stroke-linejoin:miter;stroke-opacity:1" d="M 155.152,16.0121 155.152,26.0222 z" id="boundary" inkscape:connector-curvature="0" />
	<path style="fill:none;stroke:red;stroke-width:1px;stroke-linecap:butt;stroke-linejoin:miter;stroke-opacity:1" d="M 155.152,16.0121 154.151,6.00202 z" id="boundary" inkscape:connector-curvature="0" />
	<path style="fill:none;stroke:red;stroke-width:1px;stroke-linecap:butt;stroke-linejoin:miter;stroke-opacity:1" d="M 165.162,29.0252 155.152,26.0222 z" id="boundary" inkscape:connector-curvature="0" />
	<path style="fill:none;stroke:red;stroke-width:1px;stroke-linecap:butt;stroke-linejoin:miter;stroke-opacity:1" d="M 144.141,4 154.151,6.00202 z" id="boundary" inkscape:connector-curvature="0" />
	<path style="fill:none;stroke:red;stroke-width:1px;stroke-linecap:butt;stroke-linejoin:miter;stroke-opacity:1" d="M 124.121,4 134.131,4 z" id="boundary" inkscape:connector-curvature="0" />
	<path style="fill:none;stroke:red;stroke-width:1px;stroke-linecap:butt;stroke-linejoin:miter;stroke-opacity:1" d="M 193.191,19.0151 183.181,19.0151 z" id="boundary" inkscape:connector-curvature="0" />
	<path style="fill:none;stroke:red;stroke-width:1px;stroke-linecap:butt;stroke-linejoin:miter;stroke-opacity:1" d="M 202.2,14.0101 193.191,19.0151 z" id="boundary" inkscape:connector-curvature="0" />
	<path style="fill:none;stroke:red;stroke-width:1px;stroke-linecap:butt;stroke-linejoin:miter;stroke-opacity:1" d="M 212.21,14.0101 221.219,9.00505 z" id="boundary" inkscape:connector-curvature="0" />
	<path style="fill:none;stroke:red;stroke-width:1px;stroke-linecap:butt;stroke-linejoin:miter;stroke-opacity:1" d="M 221.219,9.00505 231.229,9.00505 z" id="boundary" inkscape:connector-curvature="0" />
	<path style="fill:none;stroke:red;stroke-width:1px;stroke-linecap:butt;stroke-linejoin:miter;stroke-opacity:1" d="M 212.21,14.0101 202.2,14.0101 z" id="boundary" inkscape:connector-curvature="0" />
	<path style="fill:none;stroke:red;stroke-width:1px;stroke-linecap:butt;stroke-linejoin:miter;stroke-opacity:1" d="M 155.152,190.188 164.161,195.193 z" id="boundary" inkscape:connector-curvature="0" />
	<path style="fill:none;stroke:red;stroke-width:1px;stroke-linecap:butt;stroke-linejoin:miter;stroke-opacity:1" d="M 155.152,200.198 155.152,190.188 z" id="boundary" inkscape:connector-curvature="0" />
	<path style="fill:none;stroke:red;stroke-width:1px;stroke-linecap:butt;stroke-linejoin:miter;stroke-opacity:1" d="M 165.162,29.0252 174.172,24.0202 z" id="boundary" inkscape:connector-curvature="0" />
	<path style="fill:none;stroke:red;stroke-width:1px;stroke-linecap:butt;stroke-linejoin:miter;stroke-opacity:1" d="M 174.172,24.0202 183.181,19.0151 z" id="boundary" inkscape:connector-curvature="0" />
	<path style="fill:none;stroke:red;stroke-width:1px;stroke-linecap:butt;stroke-linejoin:miter;stroke-opacity:1" d="M 173.171,200.198 164.161,195.193 z" id="boundary" inkscape:connector-curvature="0" />
	<path style="fill:none;stroke:red;stroke-width:1px;stroke-linecap:butt;stroke-linejoin:miter;stroke-opacity:1" d="M 241.239,9.00505 231.229,9.00505 z" id="boundary" inkscape:connector-curvature="0" />
	<path style="fill:none;stroke:red;stroke-width:1px;stroke-linecap:butt;stroke-linejoin:miter;stroke-opacity:1" d="M 84.0807,220.218 94.0908,220.218 z" id="boundary" inkscape:connector-curvature="0" />
	<path style="fill:none;stroke:red;stroke-width:1px;stroke-linecap:butt;stroke-linejoin:miter;stroke-opacity:1" d="M 154.151,217.215 155.152,200.198 z" id="boundary" inkscape:connector-curvature="0" />
	<path style="fill:none;stroke:red;stroke-width:1px;stroke-linecap:butt;stroke-linejoin:miter;stroke-opacity:1" d="M 104.101,220.218 94.0908,220.218 z" id="boundary" inkscape:connector-curvature="0" />
	<path style="fill:none;stroke:red;stroke-width:1px;stroke-linecap:butt;stroke-linejoin:miter;stroke-opacity:1" d="M 154.151,217.215 144.141,220.218 z" id="boundary" inkscape:connector-curvature="0" />
	<path style="fill:none;stroke:red;stroke-width:1px;stroke-linecap:butt;stroke-linejoin:miter;stroke-opacity:1" d="M 104.101,220.218 114.111,220.218 z" id="boundary" inkscape:connector-curvature="0" />
	<path style="fill:none;stroke:red;stroke-width:1px;stroke-linecap:butt;stroke-linejoin:miter;stroke-opacity:1" d="M 124.121,220.218 134.131,220.218 z" id="boundary" inkscape:connector-curvature="0" />
	<path style="fill:none;stroke:red;stroke-width:1px;stroke-linecap:butt;stroke-linejoin:miter;stroke-opacity:1" d="M 144.141,220.218 134.131,220.218 z" id="boundary" inkscape:connector-curvature="0" />
	<path style="fill:none;stroke:red;stroke-width:1px;stroke-linecap:butt;stroke-linejoin:miter;stroke-opacity:1" d="M 124.121,220.218 114.111,220.218 z" id="boundary" inkscape:connector-curvature="0" />
	<path style="fill:none;stroke:red;stroke-width:1px;stroke-linecap:butt;stroke-linejoin:miter;stroke-opacity:1" d="M 182.18,205.203 173.171,200.198 z" id="boundary" inkscape:connector-curvature="0" />
	<path style="fill:none;stroke:red;stroke-width:1px;stroke-linecap:butt;stroke-linejoin:miter;stroke-opacity:1" d="M 189.187,213.211 189.187,223.221 z" id="boundary" inkscape:connector-curvature="0" />
	<path style="fill:none;stroke:red;stroke-width:1px;stroke-linecap:butt;stroke-linejoin:miter;stroke-opacity:1" d="M 182.18,205.203 189.187,213.211 z" id="boundary" inkscape:connector-curvature="0" />
	<path style="fill:none;stroke:red;stroke-width:1px;stroke-linecap:butt;stroke-linejoin:miter;stroke-opacity:1" d="M 189.187,233.231 189.187,223.221 z" id="boundary" inkscape:connector-curvature="0" />
	<path style="fill:none;stroke:red;stroke-width:1px;stroke-linecap:butt;stroke-linejoin:miter;stroke-opacity:1" d="M 189.187,233.231 189.187,243.241 z" id="boundary" inkscape:connector-curvature="0" />
	<path style="fill:none;stroke:red;stroke-width:1px;stroke-linecap:butt;stroke-linejoin:miter;stroke-opacity:1" d="M 189.187,243.241 189.187,253.251 z" id="boundary" inkscape:connector-curvature="0" />
	<path style="fill:none;stroke:red;stroke-width:1px;stroke-linecap:butt;stroke-linejoin:miter;stroke-opacity:1" d="M 189.187,263.261 189.187,273.271 z" id="boundary" inkscape:connector-curvature="0" />
	<path style="fill:none;stroke:red;stroke-width:1px;stroke-linecap:butt;stroke-linejoin:miter;stroke-opacity:1" d="M 189.187,283.282 189.187,273.271 z" id="boundary" inkscape:connector-curvature="0" />
	<path style="fill:none;stroke:red;stroke-width:1px;stroke-linecap:butt;stroke-linejoin:miter;stroke-opacity:1" d="M 189.187,263.261 189.187,253.251 z" id="boundary" inkscape:connector-curvature="0" />
	<path style="fill:none;stroke:red;stroke-width:1px;stroke-linecap:butt;stroke-linejoin:miter;stroke-opacity:1" d="M 189.187,293.292 189.187,283.282 z" id="boundary" inkscape:connector-curvature="0" />
	<path style="fill:none;stroke:red;stroke-width:1px;stroke-linecap:butt;stroke-linejoin:miter;stroke-opacity:1" d="M 189.187,293.292 189.187,303.302 z" id="boundary" inkscape:connector-curvature="0" />
	<path style="fill:none;stroke:red;stroke-width:1px;stroke-linecap:butt;stroke-linejoin:miter;stroke-opacity:1" d="M 189.187,313.312 189.187,323.322 z" id="boundary" inkscape:connector-curvature="0" />
	<path style="fill:none;stroke:red;stroke-width:1px;stroke-linecap:butt;stroke-linejoin:miter;stroke-opacity:1" d="M 189.187,313.312 189.187,303.302 z" id="boundary" inkscape:connector-curvature="0" />
	<path style="fill:none;stroke:red;stroke-width:1px;stroke-linecap:butt;stroke-linejoin:miter;stroke-opacity:1" d="M 189.187,333.332 189.187,343.342 z" id="boundary" inkscape:connector-curvature="0" />
	<path style="fill:none;stroke:red;stroke-width:1px;stroke-linecap:butt;stroke-linejoin:miter;stroke-opacity:1" d="M 189.187,353.352 189.187,363.362 z" id="boundary" inkscape:connector-curvature="0" />
	<path style="fill:none;stroke:red;stroke-width:1px;stroke-linecap:butt;stroke-linejoin:miter;stroke-opacity:1" d="M 189.187,373.372 189.187,363.362 z" id="boundary" inkscape:connector-curvature="0" />
	<path style="fill:none;stroke:red;stroke-width:1px;stroke-linecap:butt;stroke-linejoin:miter;stroke-opacity:1" d="M 189.187,353.352 189.187,343.342 z" id="boundary" inkscape:connector-curvature="0" />
	<path style="fill:none;stroke:red;stroke-width:1px;stroke-linecap:butt;stroke-linejoin:miter;stroke-opacity:1" d="M 189.187,333.332 189.187,323.322 z" id="boundary" inkscape:connector-curvature="0" />
	<path style="fill:none;stroke:red;stroke-width:1px;stroke-linecap:butt;stroke-linejoin:miter;stroke-opacity:1" d="M 189.187,383.382 189.187,393.393 z" id="boundary" inkscape:connector-curvature="0" />
	<path style="fill:none;stroke:red;stroke-width:1px;stroke-linecap:butt;stroke-linejoin:miter;stroke-opacity:1" d="M 189.187,403.403 189.187,413.413 z" id="boundary" inkscape:connector-curvature="0" />
	<path style="fill:none;stroke:red;stroke-width:1px;stroke-linecap:butt;stroke-linejoin:miter;stroke-opacity:1" d="M 189.187,423.423 189.187,413.413 z" id="boundary" inkscape:connector-curvature="0" />
	<path style="fill:none;stroke:red;stroke-width:1px;stroke-linecap:butt;stroke-linejoin:miter;stroke-opacity:1" d="M 189.187,403.403 189.187,393.393 z" id="boundary" inkscape:connector-curvature="0" />
	<path style="fill:none;stroke:red;stroke-width:1px;stroke-linecap:butt;stroke-linejoin:miter;stroke-opacity:1" d="M 189.187,433.433 189.187,443.443 z" id="boundary" inkscape:connector-curvature="0" />
	<path style="fill:none;stroke:red;stroke-width:1px;stroke-linecap:butt;stroke-linejoin:miter;stroke-opacity:1" d="M 189.187,453.453 189.187,463.463 z" id="boundary" inkscape:connector-curvature="0" />
	<path style="fill:none;stroke:red;stroke-width:1px;stroke-linecap:butt;stroke-linejoin:miter;stroke-opacity:1" d="M 189.187,473.473 189.187,463.463 z" id="boundary" inkscape:connector-curvature="0" />
	<path style="fill:none;stroke:red;stroke-width:1px;stroke-linecap:butt;stroke-linejoin:miter;stroke-opacity:1" d="M 189.187,453.453 189.187,443.443 z" id="boundary" inkscape:connector-curvature="0" />
	<path style="fill:none;stroke:red;stroke-width:1px;stroke-linecap:butt;stroke-linejoin:miter;stroke-opacity:1" d="M 189.187,433.433 189.187,423.423 z" id="boundary" inkscape:connector-curvature="0" />
	<path style="fill:none;stroke:red;stroke-width:1px;stroke-linecap:butt;stroke-linejoin:miter;stroke-opacity:1" d="M 189.187,383.382 189.187,373.372 z" id="boundary" inkscape:connector-curvature="0" />
	<path style="fill:none;stroke:red;stroke-width:1px;stroke-linecap:butt;stroke-linejoin:miter;stroke-opacity:1" d="M 189.187,483.483 189.187,493.493 z" id="boundary" inkscape:connector-curvature="0" />
	<path style="fill:none;stroke:red;stroke-width:1px;stroke-linecap:butt;stroke-linejoin:miter;stroke-opacity:1" d="M 189.187,503.504 189.187,493.493 z" id="boundary" inkscape:connector-curvature="0" />
	<path style="fill:none;stroke:red;stroke-width:1px;stroke-linecap:butt;stroke-linejoin:miter;stroke-opacity:1" d="M 189.187,503.504 189.187,513.514 z" id="boundary" inkscape:connector-curvature="0" />
	<path style="fill:none;stroke:red;stroke-width:1px;stroke-linecap:butt;stroke-linejoin:miter;stroke-opacity:1" d="M 189.187,523.524 189.187,513.514 z" id="boundary" inkscape:connector-curvature="0" />
	<path style="fill:none;stroke:red;stroke-width:1px;stroke-linecap:butt;stroke-linejoin:miter;stroke-opacity:1" d="M 189.187,523.524 189.187,533.534 z" id="boundary" inkscape:connector-curvature="0" />
	<path style="fill:none;stroke:red;stroke-width:1px;stroke-linecap:butt;stroke-linejoin:miter;stroke-opacity:1" d="M 189.187,543.544 189.187,533.534 z" id="boundary" inkscape:connector-curvature="0" />
	<path style="fill:none;stroke:red;stroke-width:1px;stroke-linecap:butt;stroke-linejoin:miter;stroke-opacity:1" d="M 189.187,543.544 189.187,553.554 z" id="boundary" inkscape:connector-curvature="0" />
	<path style="fill:none;stroke:red;stroke-width:1px;stroke-linecap:butt;stroke-linejoin:miter;stroke-opacity:1" d="M 189.187,563.564 189.187,553.554 z" id="boundary" inkscape:connector-curvature="0" />
	<path style="fill:none;stroke:red;stroke-width:1px;stroke-linecap:butt;stroke-linejoin:miter;stroke-opacity:1" d="M 189.187,573.574 189.187,563.564 z" id="boundary" inkscape:connector-curvature="0" />
	<path style="fill:none;stroke:red;stroke-width:1px;stroke-linecap:butt;stroke-linejoin:miter;stroke-opacity:1" d="M 189.187,573.574 189.187,583.584 z" id="boundary" inkscape:connector-curvature="0" />
	<path style="fill:none;stroke:red;stroke-width:1px;stroke-linecap:butt;stroke-linejoin:miter;stroke-opacity:1" d="M 189.187,593.594 189.187,583.584 z" id="boundary" inkscape:connector-curvature="0" />
	<path style="fill:none;stroke:red;stroke-width:1px;stroke-linecap:butt;stroke-linejoin:miter;stroke-opacity:1" d="M 189.187,593.594 189.187,603.604 z" id="boundary" inkscape:connector-curvature="0" />
	<path style="fill:none;stroke:red;stroke-width:1px;stroke-linecap:butt;stroke-linejoin:miter;stroke-opacity:1" d="M 189.187,613.615 189.187,603.604 z" id="boundary" inkscape:connector-curvature="0" />
	<path style="fill:none;stroke:red;stroke-width:1px;stroke-linecap:butt;stroke-linejoin:miter;stroke-opacity:1" d="M 189.187,623.625 189.187,613.615 z" id="boundary" inkscape:connector-curvature="0" />
	<path style="fill:none;stroke:red;stroke-width:1px;stroke-linecap:butt;stroke-linejoin:miter;stroke-opacity:1" d="M 189.187,623.625 189.187,633.635 z" id="boundary" inkscape:connector-curvature="0" />
	<path style="fill:none;stroke:red;stroke-width:1px;stroke-linecap:butt;stroke-linejoin:miter;stroke-opacity:1" d="M 189.187,643.645 189.187,633.635 z" id="boundary" inkscape:connector-curvature="0" />
	<path style="fill:none;stroke:red;stroke-width:1px;stroke-linecap:butt;stroke-linejoin:miter;stroke-opacity:1" d="M 189.187,643.645 189.187,653.655 z" id="boundary" inkscape:connector-curvature="0" />
	<path style="fill:none;stroke:red;stroke-width:1px;stroke-linecap:butt;stroke-linejoin:miter;stroke-opacity:1" d="M 189.187,663.665 189.187,653.655 z" id="boundary" inkscape:connector-curvature="0" />
	<path style="fill:none;stroke:red;stroke-width:1px;stroke-linecap:butt;stroke-linejoin:miter;stroke-opacity:1" d="M 189.187,673.675 189.187,663.665 z" id="boundary" inkscape:connector-curvature="0" />
	<path style="fill:none;stroke:red;stroke-width:1px;stroke-linecap:butt;stroke-linejoin:miter;stroke-opacity:1" d="M 189.187,483.483 189.187,473.473 z" id="boundary" inkscape:connector-curvature="0" />
	<path style="fill:none;stroke:red;stroke-width:1px;stroke-linecap:butt;stroke-linejoin:miter;stroke-opacity:1" d="M 189.187,673.675 189.187,683.685 z" id="boundary" inkscape:connector-curvature="0" />
	<path style="fill:none;stroke:red;stroke-width:1px;stroke-linecap:butt;stroke-linejoin:miter;stroke-opacity:1" d="M 189.187,693.695 189.187,683.685 z" id="boundary" inkscape:connector-curvature="0" />
	<path style="fill:none;stroke:red;stroke-width:1px;stroke-linecap:butt;stroke-linejoin:miter;stroke-opacity:1" d="M 189.187,693.695 189.187,703.705 z" id="boundary" inkscape:connector-curvature="0" />
	<path style="fill:none;stroke:red;stroke-width:1px;stroke-linecap:butt;stroke-linejoin:miter;stroke-opacity:1" d="M 189.187,713.715 189.187,703.705 z" id="boundary" inkscape:connector-curvature="0" />
	<path style="fill:none;stroke:red;stroke-width:1px;stroke-linecap:butt;stroke-linejoin:miter;stroke-opacity:1" d="M 189.187,713.715 189.187,723.726 z" id="boundary" inkscape:connector-curvature="0" />
	<path style="fill:none;stroke:red;stroke-width:1px;stroke-linecap:butt;stroke-linejoin:miter;stroke-opacity:1" d="M 189.187,733.736 189.187,723.726 z" id="boundary" inkscape:connector-curvature="0" />
	<path style="fill:none;stroke:red;stroke-width:1px;stroke-linecap:butt;stroke-linejoin:miter;stroke-opacity:1" d="M 189.187,733.736 189.187,743.746 z" id="boundary" inkscape:connector-curvature="0" />
	<path style="fill:none;stroke:red;stroke-width:1px;stroke-linecap:butt;stroke-linejoin:miter;stroke-opacity:1" d="M 189.187,753.756 189.187,743.746 z" id="boundary" inkscape:connector-curvature="0" />
	<path style="fill:none;stroke:red;stroke-width:1px;stroke-linecap:butt;stroke-linejoin:miter;stroke-opacity:1" d="M 189.187,763.766 189.187,753.756 z" id="boundary" inkscape:connector-curvature="0" />
	<path style="fill:none;stroke:red;stroke-width:1px;stroke-linecap:butt;stroke-linejoin:miter;stroke-opacity:1" d="M 189.187,763.766 189.187,773.776 z" id="boundary" inkscape:connector-curvature="0" />
	<path style="fill:none;stroke:red;stroke-width:1px;stroke-linecap:butt;stroke-linejoin:miter;stroke-opacity:1" d="M 189.187,783.786 189.187,773.776 z" id="boundary" inkscape:connector-curvature="0" />
	<path style="fill:none;stroke:red;stroke-width:1px;stroke-linecap:butt;stroke-linejoin:miter;stroke-opacity:1" d="M 189.187,783.786 189.187,793.796 z" id="boundary" inkscape:connector-curvature="0" />
	<path style="fill:none;stroke:red;stroke-width:1px;stroke-linecap:butt;stroke-linejoin:miter;stroke-opacity:1" d="M 189.187,803.806 189.187,793.796 z" id="boundary" inkscape:connector-curvature="0" />
	<path style="fill:none;stroke:red;stroke-width:1px;stroke-linecap:butt;stroke-linejoin:miter;stroke-opacity:1" d="M 189.187,813.816 189.187,803.806 z" id="boundary" inkscape:connector-curvature="0" />
	<path style="fill:none;stroke:red;stroke-width:1px;stroke-linecap:butt;stroke-linejoin:miter;stroke-opacity:1" d="M 189.187,813.816 189.187,823.826 z" id="boundary" inkscape:connector-curvature="0" />
	<path style="fill:none;stroke:red;stroke-width:1px;stroke-linecap:butt;stroke-linejoin:miter;stroke-opacity:1" d="M 189.187,833.837 189.187,823.826 z" id="boundary" inkscape:connector-curvature="0" />
	<path style="fill:none;stroke:red;stroke-width:1px;stroke-linecap:butt;stroke-linejoin:miter;stroke-opacity:1" d="M 189.187,833.837 189.187,843.847 z" id="boundary" inkscape:connector-curvature="0" />
	<path style="fill:none;stroke:red;stroke-width:1px;stroke-linecap:butt;stroke-linejoin:miter;stroke-opacity:1" d="M 189.187,853.857 189.187,843.847 z" id="boundary" inkscape:connector-curvature="0" />
	<path style="fill:none;stroke:red;stroke-width:1px;stroke-linecap:butt;stroke-linejoin:miter;stroke-opacity:1" d="M 189.187,863.867 189.187,853.857 z" id="boundary" inkscape:connector-curvature="0" />
	<path style="fill:none;stroke:red;stroke-width:1px;stroke-linecap:butt;stroke-linejoin:miter;stroke-opacity:1" d="M 189.187,863.867 189.187,873.877 z" id="boundary" inkscape:connector-curvature="0" />
	<path style="fill:none;stroke:red;stroke-width:1px;stroke-linecap:butt;stroke-linejoin:miter;stroke-opacity:1" d="M 189.187,883.887 189.187,873.877 z" id="boundary" inkscape:connector-curvature="0" />
	<path style="fill:none;stroke:red;stroke-width:1px;stroke-linecap:butt;stroke-linejoin:miter;stroke-opacity:1" d="M 189.187,883.887 189.187,893.897 z" id="boundary" inkscape:connector-curvature="0" />
	<path style="fill:none;stroke:red;stroke-width:1px;stroke-linecap:butt;stroke-linejoin:miter;stroke-opacity:1" d="M 189.187,903.907 189.187,893.897 z" id="boundary" inkscape:connector-curvature="0" />
	<path style="fill:none;stroke:red;stroke-width:1px;stroke-linecap:butt;stroke-linejoin:miter;stroke-opacity:1" d="M 189.187,903.907 189.187,913.917 z" id="boundary" inkscape:connector-curvature="0" />
	<path style="fill:none;stroke:red;stroke-width:1px;stroke-linecap:butt;stroke-linejoin:miter;stroke-opacity:1" d="M 189.187,923.927 189.187,913.917 z" id="boundary" inkscape:connector-curvature="0" />
	<path style="fill:none;stroke:red;stroke-width:1px;stroke-linecap:butt;stroke-linejoin:miter;stroke-opacity:1" d="M 189.187,923.927 189.187,933.937 z" id="boundary" inkscape:connector-curvature="0" />
	<path style="fill:none;stroke:red;stroke-width:1px;stroke-linecap:butt;stroke-linejoin:miter;stroke-opacity:1" d="M 189.187,943.948 189.187,933.937 z" id="boundary" inkscape:connector-curvature="0" />
	<path style="fill:none;stroke:red;stroke-width:1px;stroke-linecap:butt;stroke-linejoin:miter;stroke-opacity:1" d="M 189.187,953.958 189.187,963.968 z" id="boundary" inkscape:connector-curvature="0" />
	<path style="fill:none;stroke:red;stroke-width:1px;stroke-linecap:butt;stroke-linejoin:miter;stroke-opacity:1" d="M 189.187,973.978 189.187,963.968 z" id="boundary" inkscape:connector-curvature="0" />
	<path style="fill:none;stroke:red;stroke-width:1px;stroke-linecap:butt;stroke-linejoin:miter;stroke-opacity:1" d="M 200.198,996 190.188,993.998 z" id="boundary" inkscape:connector-curvature="0" />
	<path style="fill:none;stroke:red;stroke-width:1px;stroke-linecap:butt;stroke-linejoin:miter;stroke-opacity:1" d="M 190.188,993.998 189.187,983.988 z" id="boundary" inkscape:connector-curvature="0" />
	<path style="fill:none;stroke:red;stroke-width:1px;stroke-linecap:butt;stroke-linejoin:miter;stroke-opacity:1" d="M 189.187,983.988 189.187,973.978 z" id="boundary" inkscape:connector-curvature="0" />
	<path style="fill:none;stroke:red;stroke-width:1px;stroke-linecap:butt;stroke-linejoin:miter;stroke-opacity:1" d="M 210.208,996 200.198,996 z" id="boundary" inkscape:connector-curvature="0" />
	<path style="fill:none;stroke:red;stroke-width:1px;stroke-linecap:butt;stroke-linejoin:miter;stroke-opacity:1" d="M 230.228,996 220.218,996 z" id="boundary" inkscape:connector-curvature="0" />
	<path style="fill:none;stroke:red;stroke-width:1px;stroke-linecap:butt;stroke-linejoin:miter;stroke-opacity:1" d="M 240.238,996 230.228,996 z" id="boundary" inkscape:connector-curvature="0" />
	<path style="fill:none;stroke:red;stroke-width:1px;stroke-linecap:butt;stroke-linejoin:miter;stroke-opacity:1" d="M 220.218,996 210.208,996 z" id="boundary" inkscape:connector-curvature="0" />
	<path style="fill:none;stroke:red;stroke-width:1px;stroke-linecap:butt;stroke-linejoin:miter;stroke-opacity:1" d="M 189.187,953.958 189.187,943.948 z" id="boundary" inkscape:connector-curvature="0" />
	<path style="fill:none;stroke:red;stroke-width:1px;stroke-linecap:butt;stroke-linejoin:miter;stroke-opacity:1" d="M 241.239,9.00505 251.249,9.00505 z" id="boundary" inkscape:connector-curvature="0" />
	<path style="fill:none;stroke:red;stroke-width:1px;stroke-linecap:butt;stroke-linejoin:miter;stroke-opacity:1" d="M 261.259,9.00505 271.269,9.00505 z" id="boundary" inkscape:connector-curvature="0" />
	<path style="fill:none;stroke:red;stroke-width:1px;stroke-linecap:butt;stroke-linejoin:miter;stroke-opacity:1" d="M 261.259,9.00505 251.249,9.00505 z" id="boundary" inkscape:connector-curvature="0" />
	<path style="fill:none;stroke:red;stroke-width:1px;stroke-linecap:butt;stroke-linejoin:miter;stroke-opacity:1" d="M 281.28,9.00505 291.29,9.00505 z" id="boundary" inkscape:connector-curvature="0" />
	<path style="fill:none;stroke:red;stroke-width:1px;stroke-linecap:butt;stroke-linejoin:miter;stroke-opacity:1" d="M 291.29,9.00505 300.299,14.0101 z" id="boundary" inkscape:connector-curvature="0" />
	<path style="fill:none;stroke:red;stroke-width:1px;stroke-linecap:butt;stroke-linejoin:miter;stroke-opacity:1" d="M 300.299,14.0101 310.309,14.0101 z" id="boundary" inkscape:connector-curvature="0" />
	<path style="fill:none;stroke:red;stroke-width:1px;stroke-linecap:butt;stroke-linejoin:miter;stroke-opacity:1" d="M 320.319,14.0101 310.309,14.0101 z" id="boundary" inkscape:connector-curvature="0" />
	<path style="fill:none;stroke:red;stroke-width:1px;stroke-linecap:butt;stroke-linejoin:miter;stroke-opacity:1" d="M 330.329,14.0101 320.319,14.0101 z" id="boundary" inkscape:connector-curvature="0" />
	<path style="fill:none;stroke:red;stroke-width:1px;stroke-linecap:butt;stroke-linejoin:miter;stroke-opacity:1" d="M 271.269,9.00505 281.28,9.00505 z" id="boundary" inkscape:connector-curvature="0" />
	<path style="fill:none;stroke:red;stroke-width:1px;stroke-linecap:butt;stroke-linejoin:miter;stroke-opacity:1" d="M 330.329,14.0101 339.338,19.0151 z" id="boundary" inkscape:connector-curvature="0" />
	<path style="fill:none;stroke:red;stroke-width:1px;stroke-linecap:butt;stroke-linejoin:miter;stroke-opacity:1" d="M 349.348,19.0151 339.338,19.0151 z" id="boundary" inkscape:connector-curvature="0" />
	<path style="fill:none;stroke:red;stroke-width:1px;stroke-linecap:butt;stroke-linejoin:miter;stroke-opacity:1" d="M 349.348,19.0151 358.357,24.0202 z" id="boundary" inkscape:connector-curvature="0" />
	<path style="fill:none;stroke:red;stroke-width:1px;stroke-linecap:butt;stroke-linejoin:miter;stroke-opacity:1" d="M 358.357,24.0202 367.366,29.0252 z" id="boundary" inkscape:connector-curvature="0" />
	<path style="fill:none;stroke:red;stroke-width:1px;stroke-linecap:butt;stroke-linejoin:miter;stroke-opacity:1" d="M 367.366,29.0252 377.376,29.0252 z" id="boundary" inkscape:connector-curvature="0" />
	<path style="fill:none;stroke:red;stroke-width:1px;stroke-linecap:butt;stroke-linejoin:miter;stroke-opacity:1" d="M 377.376,29.0252 386.385,34.0303 z" id="boundary" inkscape:connector-curvature="0" />
	<path style="fill:none;stroke:red;stroke-width:1px;stroke-linecap:butt;stroke-linejoin:miter;stroke-opacity:1" d="M 405.405,39.0353 395.395,39.0353 z" id="boundary" inkscape:connector-curvature="0" />
	<path style="fill:none;stroke:red;stroke-width:1px;stroke-linecap:butt;stroke-linejoin:miter;stroke-opacity:1" d="M 395.395,39.0353 386.385,34.0303 z" id="boundary" inkscape:connector-curvature="0" />
	<path style="fill:none;stroke:red;stroke-width:1px;stroke-linecap:butt;stroke-linejoin:miter;stroke-opacity:1" d="M 295.294,205.203 295.294,215.213 z" id="boundary" inkscape:connector-curvature="0" />
	<path style="fill:none;stroke:red;stroke-width:1px;stroke-linecap:butt;stroke-linejoin:miter;stroke-opacity:1" d="M 295.294,205.203 305.304,200.198 z" id="boundary" inkscape:connector-curvature="0" />
	<path style="fill:none;stroke:red;stroke-width:1px;stroke-linecap:butt;stroke-linejoin:miter;stroke-opacity:1" d="M 295.294,235.233 295.294,225.223 z" id="boundary" inkscape:connector-curvature="0" />
	<path style="fill:none;stroke:red;stroke-width:1px;stroke-linecap:butt;stroke-linejoin:miter;stroke-opacity:1" d="M 295.294,225.223 295.294,215.213 z" id="boundary" inkscape:connector-curvature="0" />
	<path style="fill:none;stroke:red;stroke-width:1px;stroke-linecap:butt;stroke-linejoin:miter;stroke-opacity:1" d="M 295.294,235.233 295.294,245.243 z" id="boundary" inkscape:connector-curvature="0" />
	<path style="fill:none;stroke:red;stroke-width:1px;stroke-linecap:butt;stroke-linejoin:miter;stroke-opacity:1" d="M 295.294,255.253 295.294,265.263 z" id="boundary" inkscape:connector-curvature="0" />
	<path style="fill:none;stroke:red;stroke-width:1px;stroke-linecap:butt;stroke-linejoin:miter;stroke-opacity:1" d="M 295.294,275.273 295.294,265.263 z" id="boundary" inkscape:connector-curvature="0" />
	<path style="fill:none;stroke:red;stroke-width:1px;stroke-linecap:butt;stroke-linejoin:miter;stroke-opacity:1" d="M 295.294,255.253 295.294,245.243 z" id="boundary" inkscape:connector-curvature="0" />
	<path style="fill:none;stroke:red;stroke-width:1px;stroke-linecap:butt;stroke-linejoin:miter;stroke-opacity:1" d="M 305.304,200.198 315.314,195.193 z" id="boundary" inkscape:connector-curvature="0" />
	<path style="fill:none;stroke:red;stroke-width:1px;stroke-linecap:butt;stroke-linejoin:miter;stroke-opacity:1" d="M 360.359,165.162 370.369,160.157 z" id="boundary" inkscape:connector-curvature="0" />
	<path style="fill:none;stroke:red;stroke-width:1px;stroke-linecap:butt;stroke-linejoin:miter;stroke-opacity:1" d="M 370.369,160.157 380.379,160.157 z" id="boundary" inkscape:connector-curvature="0" />
	<path style="fill:none;stroke:red;stroke-width:1px;stroke-linecap:butt;stroke-linejoin:miter;stroke-opacity:1" d="M 390.39,160.157 380.379,160.157 z" id="boundary" inkscape:connector-curvature="0" />
	<path style="fill:none;stroke:red;stroke-width:1px;stroke-linecap:butt;stroke-linejoin:miter;stroke-opacity:1" d="M 409.409,155.152 400.4,160.157 z" id="boundary" inkscape:connector-curvature="0" />
	<path style="fill:none;stroke:red;stroke-width:1px;stroke-linecap:butt;stroke-linejoin:miter;stroke-opacity:1" d="M 400.4,160.157 390.39,160.157 z" id="boundary" inkscape:connector-curvature="0" />
	<path style="fill:none;stroke:red;stroke-width:1px;stroke-linecap:butt;stroke-linejoin:miter;stroke-opacity:1" d="M 325.324,190.188 335.334,185.183 z" id="boundary" inkscape:connector-curvature="0" />
	<path style="fill:none;stroke:red;stroke-width:1px;stroke-linecap:butt;stroke-linejoin:miter;stroke-opacity:1" d="M 325.324,190.188 315.314,195.193 z" id="boundary" inkscape:connector-curvature="0" />
	<path style="fill:none;stroke:red;stroke-width:1px;stroke-linecap:butt;stroke-linejoin:miter;stroke-opacity:1" d="M 343.342,178.176 335.334,185.183 z" id="boundary" inkscape:connector-curvature="0" />
	<path style="fill:none;stroke:red;stroke-width:1px;stroke-linecap:butt;stroke-linejoin:miter;stroke-opacity:1" d="M 350.349,170.168 343.342,178.176 z" id="boundary" inkscape:connector-curvature="0" />
	<path style="fill:none;stroke:red;stroke-width:1px;stroke-linecap:butt;stroke-linejoin:miter;stroke-opacity:1" d="M 350.349,170.168 360.359,165.162 z" id="boundary" inkscape:connector-curvature="0" />
	<path style="fill:none;stroke:red;stroke-width:1px;stroke-linecap:butt;stroke-linejoin:miter;stroke-opacity:1" d="M 295.294,285.284 295.294,275.273 z" id="boundary" inkscape:connector-curvature="0" />
	<path style="fill:none;stroke:red;stroke-width:1px;stroke-linecap:butt;stroke-linejoin:miter;stroke-opacity:1" d="M 405.405,39.0353 415.415,42.0383 z" id="boundary" inkscape:connector-curvature="0" />
	<path style="fill:none;stroke:red;stroke-width:1px;stroke-linecap:butt;stroke-linejoin:miter;stroke-opacity:1" d="M 415.415,42.0383 425.425,44.0404 z" id="boundary" inkscape:connector-curvature="0" />
	<path style="fill:none;stroke:red;stroke-width:1px;stroke-linecap:butt;stroke-linejoin:miter;stroke-opacity:1" d="M 425.425,44.0404 434.434,49.0454 z" id="boundary" inkscape:connector-curvature="0" />
	<path style="fill:none;stroke:red;stroke-width:1px;stroke-linecap:butt;stroke-linejoin:miter;stroke-opacity:1" d="M 434.434,49.0454 443.443,54.0505 z" id="boundary" inkscape:connector-curvature="0" />
	<path style="fill:none;stroke:red;stroke-width:1px;stroke-linecap:butt;stroke-linejoin:miter;stroke-opacity:1" d="M 419.419,155.152 429.429,155.152 z" id="boundary" inkscape:connector-curvature="0" />
	<path style="fill:none;stroke:red;stroke-width:1px;stroke-linecap:butt;stroke-linejoin:miter;stroke-opacity:1" d="M 419.419,155.152 409.409,155.152 z" id="boundary" inkscape:connector-curvature="0" />
	<path style="fill:none;stroke:red;stroke-width:1px;stroke-linecap:butt;stroke-linejoin:miter;stroke-opacity:1" d="M 452.452,59.0555 461.461,64.0605 z" id="boundary" inkscape:connector-curvature="0" />
	<path style="fill:none;stroke:red;stroke-width:1px;stroke-linecap:butt;stroke-linejoin:miter;stroke-opacity:1" d="M 443.443,54.0505 452.452,59.0555 z" id="boundary" inkscape:connector-curvature="0" />
	<path style="fill:none;stroke:red;stroke-width:1px;stroke-linecap:butt;stroke-linejoin:miter;stroke-opacity:1" d="M 461.461,64.0605 470.47,69.0656 z" id="boundary" inkscape:connector-curvature="0" />
	<path style="fill:none;stroke:red;stroke-width:1px;stroke-linecap:butt;stroke-linejoin:miter;stroke-opacity:1" d="M 479.479,74.0706 487.487,80.0767 z" id="boundary" inkscape:connector-curvature="0" />
	<path style="fill:none;stroke:red;stroke-width:1px;stroke-linecap:butt;stroke-linejoin:miter;stroke-opacity:1" d="M 487.487,80.0767 492.492,89.0858 z" id="boundary" inkscape:connector-curvature="0" />
	<path style="fill:none;stroke:red;stroke-width:1px;stroke-linecap:butt;stroke-linejoin:miter;stroke-opacity:1" d="M 499.499,97.0938 492.492,89.0858 z" id="boundary" inkscape:connector-curvature="0" />
	<path style="fill:none;stroke:red;stroke-width:1px;stroke-linecap:butt;stroke-linejoin:miter;stroke-opacity:1" d="M 507.508,104.101 499.499,97.0938 z" id="boundary" inkscape:connector-curvature="0" />
	<path style="fill:none;stroke:red;stroke-width:1px;stroke-linecap:butt;stroke-linejoin:miter;stroke-opacity:1" d="M 514.515,112.109 507.508,104.101 z" id="boundary" inkscape:connector-curvature="0" />
	<path style="fill:none;stroke:red;stroke-width:1px;stroke-linecap:butt;stroke-linejoin:miter;stroke-opacity:1" d="M 519.52,121.118 514.515,112.109 z" id="boundary" inkscape:connector-curvature="0" />
	<path style="fill:none;stroke:red;stroke-width:1px;stroke-linecap:butt;stroke-linejoin:miter;stroke-opacity:1" d="M 525.526,129.126 519.52,121.118 z" id="boundary" inkscape:connector-curvature="0" />
	<path style="fill:none;stroke:red;stroke-width:1px;stroke-linecap:butt;stroke-linejoin:miter;stroke-opacity:1" d="M 525.526,129.126 530.531,138.135 z" id="boundary" inkscape:connector-curvature="0" />
	<path style="fill:none;stroke:red;stroke-width:1px;stroke-linecap:butt;stroke-linejoin:miter;stroke-opacity:1" d="M 470.47,69.0656 479.479,74.0706 z" id="boundary" inkscape:connector-curvature="0" />
	<path style="fill:none;stroke:red;stroke-width:1px;stroke-linecap:butt;stroke-linejoin:miter;stroke-opacity:1" d="M 530.531,138.135 535.536,147.144 z" id="boundary" inkscape:connector-curvature="0" />
	<path style="fill:none;stroke:red;stroke-width:1px;stroke-linecap:butt;stroke-linejoin:miter;stroke-opacity:1" d="M 429.429,155.152 439.439,155.152 z" id="boundary" inkscape:connector-curvature="0" />
	<path style="fill:none;stroke:red;stroke-width:1px;stroke-linecap:butt;stroke-linejoin:miter;stroke-opacity:1" d="M 449.449,155.152 459.459,155.152 z" id="boundary" inkscape:connector-curvature="0" />
	<path style="fill:none;stroke:red;stroke-width:1px;stroke-linecap:butt;stroke-linejoin:miter;stroke-opacity:1" d="M 459.459,155.152 468.468,160.157 z" id="boundary" inkscape:connector-curvature="0" />
	<path style="fill:none;stroke:red;stroke-width:1px;stroke-linecap:butt;stroke-linejoin:miter;stroke-opacity:1" d="M 449.449,155.152 439.439,155.152 z" id="boundary" inkscape:connector-curvature="0" />
	<path style="fill:none;stroke:red;stroke-width:1px;stroke-linecap:butt;stroke-linejoin:miter;stroke-opacity:1" d="M 468.468,160.157 478.478,160.157 z" id="boundary" inkscape:connector-curvature="0" />
	<path style="fill:none;stroke:red;stroke-width:1px;stroke-linecap:butt;stroke-linejoin:miter;stroke-opacity:1" d="M 478.478,160.157 487.487,165.162 z" id="boundary" inkscape:connector-curvature="0" />
	<path style="fill:none;stroke:red;stroke-width:1px;stroke-linecap:butt;stroke-linejoin:miter;stroke-opacity:1" d="M 487.487,165.162 496.496,170.168 z" id="boundary" inkscape:connector-curvature="0" />
	<path style="fill:none;stroke:red;stroke-width:1px;stroke-linecap:butt;stroke-linejoin:miter;stroke-opacity:1" d="M 505.506,175.173 496.496,170.168 z" id="boundary" inkscape:connector-curvature="0" />
	<path style="fill:none;stroke:red;stroke-width:1px;stroke-linecap:butt;stroke-linejoin:miter;stroke-opacity:1" d="M 515.516,175.173 505.506,175.173 z" id="boundary" inkscape:connector-curvature="0" />
	<path style="fill:none;stroke:red;stroke-width:1px;stroke-linecap:butt;stroke-linejoin:miter;stroke-opacity:1" d="M 524.525,180.178 533.534,185.183 z" id="boundary" inkscape:connector-curvature="0" />
	<path style="fill:none;stroke:red;stroke-width:1px;stroke-linecap:butt;stroke-linejoin:miter;stroke-opacity:1" d="M 524.525,180.178 515.516,175.173 z" id="boundary" inkscape:connector-curvature="0" />
	<path style="fill:none;stroke:red;stroke-width:1px;stroke-linecap:butt;stroke-linejoin:miter;stroke-opacity:1" d="M 540.541,156.153 545.546,165.162 z" id="boundary" inkscape:connector-curvature="0" />
	<path style="fill:none;stroke:red;stroke-width:1px;stroke-linecap:butt;stroke-linejoin:miter;stroke-opacity:1" d="M 545.546,165.162 550.551,174.172 z" id="boundary" inkscape:connector-curvature="0" />
	<path style="fill:none;stroke:red;stroke-width:1px;stroke-linecap:butt;stroke-linejoin:miter;stroke-opacity:1" d="M 533.534,185.183 542.543,190.188 z" id="boundary" inkscape:connector-curvature="0" />
	<path style="fill:none;stroke:red;stroke-width:1px;stroke-linecap:butt;stroke-linejoin:miter;stroke-opacity:1" d="M 542.543,190.188 550.551,197.195 z" id="boundary" inkscape:connector-curvature="0" />
	<path style="fill:none;stroke:red;stroke-width:1px;stroke-linecap:butt;stroke-linejoin:miter;stroke-opacity:1" d="M 555.556,183.181 560.561,192.19 z" id="boundary" inkscape:connector-curvature="0" />
	<path style="fill:none;stroke:red;stroke-width:1px;stroke-linecap:butt;stroke-linejoin:miter;stroke-opacity:1" d="M 560.561,192.19 550.551,197.195 z" id="boundary" inkscape:connector-curvature="0" />
	<path style="fill:none;stroke:red;stroke-width:1px;stroke-linecap:butt;stroke-linejoin:miter;stroke-opacity:1" d="M 560.561,192.19 295.294,615.617 z" id="boundary" inkscape:connector-curvature="0" />
	<path style="fill:none;stroke:red;stroke-width:1px;stroke-linecap:butt;stroke-linejoin:miter;stroke-opacity:1" d="M 550.551,174.172 555.556,183.181 z" id="boundary" inkscape:connector-curvature="0" />
	<path style="fill:none;stroke:red;stroke-width:1px;stroke-linecap:butt;stroke-linejoin:miter;stroke-opacity:1" d="M 535.536,147.144 540.541,156.153 z" id="boundary" inkscape:connector-curvature="0" />
	<path style="fill:none;stroke:red;stroke-width:1px;stroke-linecap:butt;stroke-linejoin:miter;stroke-opacity:1" d="M 295.294,295.294 295.294,305.304 z" id="boundary" inkscape:connector-curvature="0" />
	<path style="fill:none;stroke:red;stroke-width:1px;stroke-linecap:butt;stroke-linejoin:miter;stroke-opacity:1" d="M 295.294,295.294 295.294,285.284 z" id="boundary" inkscape:connector-curvature="0" />
	<path style="fill:none;stroke:red;stroke-width:1px;stroke-linecap:butt;stroke-linejoin:miter;stroke-opacity:1" d="M 295.294,315.314 295.294,325.324 z" id="boundary" inkscape:connector-curvature="0" />
	<path style="fill:none;stroke:red;stroke-width:1px;stroke-linecap:butt;stroke-linejoin:miter;stroke-opacity:1" d="M 295.294,315.314 295.294,305.304 z" id="boundary" inkscape:connector-curvature="0" />
	<path style="fill:none;stroke:red;stroke-width:1px;stroke-linecap:butt;stroke-linejoin:miter;stroke-opacity:1" d="M 295.294,335.334 295.294,345.344 z" id="boundary" inkscape:connector-curvature="0" />
	<path style="fill:none;stroke:red;stroke-width:1px;stroke-linecap:butt;stroke-linejoin:miter;stroke-opacity:1" d="M 295.294,335.334 295.294,325.324 z" id="boundary" inkscape:connector-curvature="0" />
	<path style="fill:none;stroke:red;stroke-width:1px;stroke-linecap:butt;stroke-linejoin:miter;stroke-opacity:1" d="M 295.294,355.354 295.294,365.364 z" id="boundary" inkscape:connector-curvature="0" />
	<path style="fill:none;stroke:red;stroke-width:1px;stroke-linecap:butt;stroke-linejoin:miter;stroke-opacity:1" d="M 295.294,355.354 295.294,345.344 z" id="boundary" inkscape:connector-curvature="0" />
	<path style="fill:none;stroke:red;stroke-width:1px;stroke-linecap:butt;stroke-linejoin:miter;stroke-opacity:1" d="M 295.294,365.364 295.294,375.374 z" id="boundary" inkscape:connector-curvature="0" />
	<path style="fill:none;stroke:red;stroke-width:1px;stroke-linecap:butt;stroke-linejoin:miter;stroke-opacity:1" d="M 295.294,385.384 295.294,395.395 z" id="boundary" inkscape:connector-curvature="0" />
	<path style="fill:none;stroke:red;stroke-width:1px;stroke-linecap:butt;stroke-linejoin:miter;stroke-opacity:1" d="M 295.294,385.384 295.294,375.374 z" id="boundary" inkscape:connector-curvature="0" />
	<path style="fill:none;stroke:red;stroke-width:1px;stroke-linecap:butt;stroke-linejoin:miter;stroke-opacity:1" d="M 295.294,405.405 295.294,415.415 z" id="boundary" inkscape:connector-curvature="0" />
	<path style="fill:none;stroke:red;stroke-width:1px;stroke-linecap:butt;stroke-linejoin:miter;stroke-opacity:1" d="M 295.294,405.405 295.294,395.395 z" id="boundary" inkscape:connector-curvature="0" />
	<path style="fill:none;stroke:red;stroke-width:1px;stroke-linecap:butt;stroke-linejoin:miter;stroke-opacity:1" d="M 295.294,415.415 295.294,425.425 z" id="boundary" inkscape:connector-curvature="0" />
	<path style="fill:none;stroke:red;stroke-width:1px;stroke-linecap:butt;stroke-linejoin:miter;stroke-opacity:1" d="M 295.294,435.435 295.294,445.445 z" id="boundary" inkscape:connector-curvature="0" />
	<path style="fill:none;stroke:red;stroke-width:1px;stroke-linecap:butt;stroke-linejoin:miter;stroke-opacity:1" d="M 295.294,435.435 295.294,425.425 z" id="boundary" inkscape:connector-curvature="0" />
	<path style="fill:none;stroke:red;stroke-width:1px;stroke-linecap:butt;stroke-linejoin:miter;stroke-opacity:1" d="M 295.294,455.455 295.294,465.465 z" id="boundary" inkscape:connector-curvature="0" />
	<path style="fill:none;stroke:red;stroke-width:1px;stroke-linecap:butt;stroke-linejoin:miter;stroke-opacity:1" d="M 295.294,455.455 295.294,445.445 z" id="boundary" inkscape:connector-curvature="0" />
	<path style="fill:none;stroke:red;stroke-width:1px;stroke-linecap:butt;stroke-linejoin:miter;stroke-opacity:1" d="M 295.294,465.465 295.294,475.475 z" id="boundary" inkscape:connector-curvature="0" />
	<path style="fill:none;stroke:red;stroke-width:1px;stroke-linecap:butt;stroke-linejoin:miter;stroke-opacity:1" d="M 295.294,485.485 295.294,495.495 z" id="boundary" inkscape:connector-curvature="0" />
	<path style="fill:none;stroke:red;stroke-width:1px;stroke-linecap:butt;stroke-linejoin:miter;stroke-opacity:1" d="M 295.294,485.485 295.294,475.475 z" id="boundary" inkscape:connector-curvature="0" />
	<path style="fill:none;stroke:red;stroke-width:1px;stroke-linecap:butt;stroke-linejoin:miter;stroke-opacity:1" d="M 295.294,505.506 295.294,515.516 z" id="boundary" inkscape:connector-curvature="0" />
	<path style="fill:none;stroke:red;stroke-width:1px;stroke-linecap:butt;stroke-linejoin:miter;stroke-opacity:1" d="M 295.294,505.506 295.294,495.495 z" id="boundary" inkscape:connector-curvature="0" />
	<path style="fill:none;stroke:red;stroke-width:1px;stroke-linecap:butt;stroke-linejoin:miter;stroke-opacity:1" d="M 260.258,996 250.248,996 z" id="boundary" inkscape:connector-curvature="0" />
	<path style="fill:none;stroke:red;stroke-width:1px;stroke-linecap:butt;stroke-linejoin:miter;stroke-opacity:1" d="M 280.279,996 270.268,996 z" id="boundary" inkscape:connector-curvature="0" />
	<path style="fill:none;stroke:red;stroke-width:1px;stroke-linecap:butt;stroke-linejoin:miter;stroke-opacity:1" d="M 295.294,985.99 290.289,996 z" id="boundary" inkscape:connector-curvature="0" />
	<path style="fill:none;stroke:red;stroke-width:1px;stroke-linecap:butt;stroke-linejoin:miter;stroke-opacity:1" d="M 290.289,996 280.279,996 z" id="boundary" inkscape:connector-curvature="0" />
	<path style="fill:none;stroke:red;stroke-width:1px;stroke-linecap:butt;stroke-linejoin:miter;stroke-opacity:1" d="M 270.268,996 260.258,996 z" id="boundary" inkscape:connector-curvature="0" />
	<path style="fill:none;stroke:red;stroke-width:1px;stroke-linecap:butt;stroke-linejoin:miter;stroke-opacity:1" d="M 295.294,515.516 295.294,525.526 z" id="boundary" inkscape:connector-curvature="0" />
	<path style="fill:none;stroke:red;stroke-width:1px;stroke-linecap:butt;stroke-linejoin:miter;stroke-opacity:1" d="M 295.294,525.526 295.294,535.536 z" id="boundary" inkscape:connector-curvature="0" />
	<path style="fill:none;stroke:red;stroke-width:1px;stroke-linecap:butt;stroke-linejoin:miter;stroke-opacity:1" d="M 295.294,545.546 295.294,555.556 z" id="boundary" inkscape:connector-curvature="0" />
	<path style="fill:none;stroke:red;stroke-width:1px;stroke-linecap:butt;stroke-linejoin:miter;stroke-opacity:1" d="M 295.294,545.546 295.294,535.536 z" id="boundary" inkscape:connector-curvature="0" />
	<path style="fill:none;stroke:red;stroke-width:1px;stroke-linecap:butt;stroke-linejoin:miter;stroke-opacity:1" d="M 295.294,555.556 295.294,565.566 z" id="boundary" inkscape:connector-curvature="0" />
	<path style="fill:none;stroke:red;stroke-width:1px;stroke-linecap:butt;stroke-linejoin:miter;stroke-opacity:1" d="M 295.294,575.576 295.294,585.586 z" id="boundary" inkscape:connector-curvature="0" />
	<path style="fill:none;stroke:red;stroke-width:1px;stroke-linecap:butt;stroke-linejoin:miter;stroke-opacity:1" d="M 295.294,575.576 295.294,565.566 z" id="boundary" inkscape:connector-curvature="0" />
	<path style="fill:none;stroke:red;stroke-width:1px;stroke-linecap:butt;stroke-linejoin:miter;stroke-opacity:1" d="M 295.294,595.596 295.294,605.606 z" id="boundary" inkscape:connector-curvature="0" />
	<path style="fill:none;stroke:red;stroke-width:1px;stroke-linecap:butt;stroke-linejoin:miter;stroke-opacity:1" d="M 295.294,595.596 295.294,585.586 z" id="boundary" inkscape:connector-curvature="0" />
	<path style="fill:none;stroke:red;stroke-width:1px;stroke-linecap:butt;stroke-linejoin:miter;stroke-opacity:1" d="M 295.294,605.606 295.294,615.617 z" id="boundary" inkscape:connector-curvature="0" />
	<path style="fill:none;stroke:red;stroke-width:1px;stroke-linecap:butt;stroke-linejoin:miter;stroke-opacity:1" d="M 295.294,615.617 295.294,625.627 z" id="boundary" inkscape:connector-curvature="0" />
	<path style="fill:none;stroke:red;stroke-width:1px;stroke-linecap:butt;stroke-linejoin:miter;stroke-opacity:1" d="M 295.294,625.627 295.294,635.637 z" id="boundary" inkscape:connector-curvature="0" />
	<path style="fill:none;stroke:red;stroke-width:1px;stroke-linecap:butt;stroke-linejoin:miter;stroke-opacity:1" d="M 295.294,645.647 295.294,655.657 z" id="boundary" inkscape:connector-curvature="0" />
	<path style="fill:none;stroke:red;stroke-width:1px;stroke-linecap:butt;stroke-linejoin:miter;stroke-opacity:1" d="M 295.294,645.647 295.294,635.637 z" id="boundary" inkscape:connector-curvature="0" />
	<path style="fill:none;stroke:red;stroke-width:1px;stroke-linecap:butt;stroke-linejoin:miter;stroke-opacity:1" d="M 295.294,665.667 295.294,675.677 z" id="boundary" inkscape:connector-curvature="0" />
	<path style="fill:none;stroke:red;stroke-width:1px;stroke-linecap:butt;stroke-linejoin:miter;stroke-opacity:1" d="M 295.294,665.667 295.294,655.657 z" id="boundary" inkscape:connector-curvature="0" />
	<path style="fill:none;stroke:red;stroke-width:1px;stroke-linecap:butt;stroke-linejoin:miter;stroke-opacity:1" d="M 295.294,685.687 295.294,695.697 z" id="boundary" inkscape:connector-curvature="0" />
	<path style="fill:none;stroke:red;stroke-width:1px;stroke-linecap:butt;stroke-linejoin:miter;stroke-opacity:1" d="M 295.294,685.687 295.294,675.677 z" id="boundary" inkscape:connector-curvature="0" />
	<path style="fill:none;stroke:red;stroke-width:1px;stroke-linecap:butt;stroke-linejoin:miter;stroke-opacity:1" d="M 295.294,695.697 295.294,705.707 z" id="boundary" inkscape:connector-curvature="0" />
	<path style="fill:none;stroke:red;stroke-width:1px;stroke-linecap:butt;stroke-linejoin:miter;stroke-opacity:1" d="M 295.294,715.717 295.294,725.728 z" id="boundary" inkscape:connector-curvature="0" />
	<path style="fill:none;stroke:red;stroke-width:1px;stroke-linecap:butt;stroke-linejoin:miter;stroke-opacity:1" d="M 295.294,715.717 295.294,705.707 z" id="boundary" inkscape:connector-curvature="0" />
	<path style="fill:none;stroke:red;stroke-width:1px;stroke-linecap:butt;stroke-linejoin:miter;stroke-opacity:1" d="M 295.294,735.738 295.294,745.748 z" id="boundary" inkscape:connector-curvature="0" />
	<path style="fill:none;stroke:red;stroke-width:1px;stroke-linecap:butt;stroke-linejoin:miter;stroke-opacity:1" d="M 295.294,735.738 295.294,725.728 z" id="boundary" inkscape:connector-curvature="0" />
	<path style="fill:none;stroke:red;stroke-width:1px;stroke-linecap:butt;stroke-linejoin:miter;stroke-opacity:1" d="M 295.294,745.748 295.294,755.758 z" id="boundary" inkscape:connector-curvature="0" />
	<path style="fill:none;stroke:red;stroke-width:1px;stroke-linecap:butt;stroke-linejoin:miter;stroke-opacity:1" d="M 295.294,765.768 295.294,775.778 z" id="boundary" inkscape:connector-curvature="0" />
	<path style="fill:none;stroke:red;stroke-width:1px;stroke-linecap:butt;stroke-linejoin:miter;stroke-opacity:1" d="M 295.294,765.768 295.294,755.758 z" id="boundary" inkscape:connector-curvature="0" />
	<path style="fill:none;stroke:red;stroke-width:1px;stroke-linecap:butt;stroke-linejoin:miter;stroke-opacity:1" d="M 295.294,785.788 295.294,795.798 z" id="boundary" inkscape:connector-curvature="0" />
	<path style="fill:none;stroke:red;stroke-width:1px;stroke-linecap:butt;stroke-linejoin:miter;stroke-opacity:1" d="M 295.294,785.788 295.294,775.778 z" id="boundary" inkscape:connector-curvature="0" />
	<path style="fill:none;stroke:red;stroke-width:1px;stroke-linecap:butt;stroke-linejoin:miter;stroke-opacity:1" d="M 295.294,795.798 295.294,805.808 z" id="boundary" inkscape:connector-curvature="0" />
	<path style="fill:none;stroke:red;stroke-width:1px;stroke-linecap:butt;stroke-linejoin:miter;stroke-opacity:1" d="M 295.294,815.818 295.294,825.828 z" id="boundary" inkscape:connector-curvature="0" />
	<path style="fill:none;stroke:red;stroke-width:1px;stroke-linecap:butt;stroke-linejoin:miter;stroke-opacity:1" d="M 295.294,815.818 295.294,805.808 z" id="boundary" inkscape:connector-curvature="0" />
	<path style="fill:none;stroke:red;stroke-width:1px;stroke-linecap:butt;stroke-linejoin:miter;stroke-opacity:1" d="M 295.294,835.839 295.294,845.849 z" id="boundary" inkscape:connector-curvature="0" />
	<path style="fill:none;stroke:red;stroke-width:1px;stroke-linecap:butt;stroke-linejoin:miter;stroke-opacity:1" d="M 295.294,835.839 295.294,825.828 z" id="boundary" inkscape:connector-curvature="0" />
	<path style="fill:none;stroke:red;stroke-width:1px;stroke-linecap:butt;stroke-linejoin:miter;stroke-opacity:1" d="M 295.294,855.859 295.294,865.869 z" id="boundary" inkscape:connector-curvature="0" />
	<path style="fill:none;stroke:red;stroke-width:1px;stroke-linecap:butt;stroke-linejoin:miter;stroke-opacity:1" d="M 295.294,855.859 295.294,845.849 z" id="boundary" inkscape:connector-curvature="0" />
	<path style="fill:none;stroke:red;stroke-width:1px;stroke-linecap:butt;stroke-linejoin:miter;stroke-opacity:1" d="M 295.294,875.879 295.294,885.889 z" id="boundary" inkscape:connector-curvature="0" />
	<path style="fill:none;stroke:red;stroke-width:1px;stroke-linecap:butt;stroke-linejoin:miter;stroke-opacity:1" d="M 295.294,875.879 295.294,865.869 z" id="boundary" inkscape:connector-curvature="0" />
	<path style="fill:none;stroke:red;stroke-width:1px;stroke-linecap:butt;stroke-linejoin:miter;stroke-opacity:1" d="M 295.294,885.889 295.294,895.899 z" id="boundary" inkscape:connector-curvature="0" />
	<path style="fill:none;stroke:red;stroke-width:1px;stroke-linecap:butt;stroke-linejoin:miter;stroke-opacity:1" d="M 295.294,905.909 295.294,915.919 z" id="boundary" inkscape:connector-curvature="0" />
	<path style="fill:none;stroke:red;stroke-width:1px;stroke-linecap:butt;stroke-linejoin:miter;stroke-opacity:1" d="M 295.294,905.909 295.294,895.899 z" id="boundary" inkscape:connector-curvature="0" />
	<path style="fill:none;stroke:red;stroke-width:1px;stroke-linecap:butt;stroke-linejoin:miter;stroke-opacity:1" d="M 295.294,925.929 295.294,935.939 z" id="boundary" inkscape:connector-curvature="0" />
	<path style="fill:none;stroke:red;stroke-width:1px;stroke-linecap:butt;stroke-linejoin:miter;stroke-opacity:1" d="M 295.294,925.929 295.294,915.919 z" id="boundary" inkscape:connector-curvature="0" />
	<path style="fill:none;stroke:red;stroke-width:1px;stroke-linecap:butt;stroke-linejoin:miter;stroke-opacity:1" d="M 295.294,935.939 295.294,945.95 z" id="boundary" inkscape:connector-curvature="0" />
	<path style="fill:none;stroke:red;stroke-width:1px;stroke-linecap:butt;stroke-linejoin:miter;stroke-opacity:1" d="M 295.294,945.95 295.294,955.96 z" id="boundary" inkscape:connector-curvature="0" />
	<path style="fill:none;stroke:red;stroke-width:1px;stroke-linecap:butt;stroke-linejoin:miter;stroke-opacity:1" d="M 295.294,965.97 295.294,975.98 z" id="boundary" inkscape:connector-curvature="0" />
	<path style="fill:none;stroke:red;stroke-width:1px;stroke-linecap:butt;stroke-linejoin:miter;stroke-opacity:1" d="M 295.294,985.99 295.294,975.98 z" id="boundary" inkscape:connector-curvature="0" />
	<path style="fill:none;stroke:red;stroke-width:1px;stroke-linecap:butt;stroke-linejoin:miter;stroke-opacity:1" d="M 295.294,965.97 295.294,955.96 z" id="boundary" inkscape:connector-curvature="0" />
	<path style="fill:none;stroke:red;stroke-width:1px;stroke-linecap:butt;stroke-linejoin:miter;stroke-opacity:1" d="M 250.248,996 240.238,996 z" id="boundary" inkscape:connector-curvature="0" />
	<circle cx="4" cy="7.00303" r="4" fill="#0" id="circle0"/>
	<circle cx="4" cy="17.0131" r="4" fill="#0" id="circle1"/>
	<circle cx="4" cy="27.0232" r="4" fill="#0" id="circle2"/>
	<circle cx="4" cy="37.0333" r="4" fill="#0" id="circle3"/>
	<circle cx="4" cy="47.0434" r="4" fill="#0" id="circle4"/>
	<circle cx="4" cy="57.0535" r="4" fill="#0" id="circle5"/>
	<circle cx="4" cy="67.0636" r="4" fill="#0" id="circle6"/>
	<circle cx="4" cy="77.0737" r="4" fill="#0" id="circle7"/>
	<circle cx="4" cy="87.0838" r="4" fill="#0" id="circle8"/>
	<circle cx="4" cy="97.0938" r="4" fill="#0" id="circle9"/>
	<circle cx="4" cy="107.104" r="4" fill="#0" id="circle10"/>
	<circle cx="4" cy="117.114" r="4" fill="#0" id="circle11"/>
	<circle cx="4" cy="127.124" r="4" fill="#0" id="circle12"/>
	<circle cx="4" cy="137.134" r="4" fill="#0" id="circle13"/>
	<circle cx="4" cy="147.144" r="4" fill="#0" id="circle14"/>
	<circle cx="4" cy="157.154" r="4" fill="#0" id="circle15"/>
	<circle cx="4" cy="167.164" r="4" fill="#0" id="circle16"/>
	<circle cx="4" cy="177.175" r="4" fill="#0" id="circle17"/>
	<circle cx="4" cy="187.185" r="4" fill="#0" id="circle18"/>
	<circle cx="4" cy="197.195" r="4" fill="#0" id="circle19"/>
	<circle cx="4" cy="207.205" r="4" fill="#0" id="circle20"/>
	<circle cx="4" cy="217.215" r="4" fill="#0" id="circle21"/>
	<circle cx="14.0101" cy="4" r="4" fill="#0" id="circle22"/>
	<circle cx="14.0101" cy="220.218" r="4" fill="#0" id="circle23"/>
	<circle cx="24.0202" cy="4" r="4" fill="#0" id="circle24"/>
	<circle cx="24.0202" cy="220.218" r="4" fill="#0" id="circle25"/>
	<circle cx="34.0303" cy="4" r="4" fill="#0" id="circle26"/>
	<circle cx="34.0303" cy="220.218" r="4" fill="#0" id="circle27"/>
	<circle cx="44.0404" cy="4" r="4" fill="#0" id="circle28"/>
	<circle cx="44.0404" cy="220.218" r="4" fill="#0" id="circle29"/>
	<circle cx="54.0505" cy="4" r="4" fill="#0" id="circle30"/>
	<circle cx="54.0505" cy="220.218" r="4" fill="#0" id="circle31"/>
	<circle cx="64.0605" cy="4" r="4" fill="#0" id="circle32"/>
	<circle cx="64.0605" cy="220.218" r="4" fill="#0" id="circle33"/>
	<circle cx="74.0706" cy="4" r="4" fill="#0" id="circle34"/>
	<circle cx="74.0706" cy="220.218" r="4" fill="#0" id="circle35"/>
	<circle cx="84.0807" cy="4" r="4" fill="#0" id="circle36"/>
	<circle cx="84.0807" cy="220.218" r="4" fill="#0" id="circle37"/>
	<circle cx="94.0908" cy="4" r="4" fill="#0" id="circle38"/>
	<circle cx="94.0908" cy="220.218" r="4" fill="#0" id="circle39"/>
	<circle cx="104.101" cy="4" r="4" fill="#0" id="circle40"/>
	<circle cx="104.101" cy="220.218" r="4" fill="#0" id="circle41"/>
	<circle cx="114.111" cy="4" r="4" fill="#0" id="circle42"/>
	<circle cx="114.111" cy="220.218" r="4" fill="#0" id="circle43"/>
	<circle cx="124.121" cy="4" r="4" fill="#0" id="circle44"/>
	<circle cx="124.121" cy="220.218" r="4" fill="#0" id="circle45"/>
	<circle cx="134.131" cy="4" r="4" fill="#0" id="circle46"/>
	<circle cx="134.131" cy="220.218" r="4" fill="#0" id="circle47"/>
	<circle cx="144.141" cy="4" r="4" fill="#0" id="circle48"/>
	<circle cx="144.141" cy="220.218" r="4" fill="#0" id="circle49"/>
	<circle cx="154.151" cy="6.00202" r="4" fill="#0" id="circle50"/>
	<circle cx="154.151" cy="217.215" r="4" fill="#0" id="circle51"/>
	<circle cx="155.152" cy="16.0121" r="4" fill="#0" id="circle52"/>
	<circle cx="155.152" cy="26.0222" r="4" fill="#0" id="circle53"/>
	<circle cx="155.152" cy="190.188" r="4" fill="#0" id="circle54"/>
	<circle cx="155.152" cy="200.198" r="4" fill="#0" id="circle55"/>
	<circle cx="164.161" cy="195.193" r="4" fill="#0" id="circle56"/>
	<circle cx="165.162" cy="29.0252" r="4" fill="#0" id="circle57"/>
	<circle cx="173.171" cy="200.198" r="4" fill="#0" id="circle58"/>
	<circle cx="174.172" cy="24.0202" r="4" fill="#0" id="circle59"/>
	<circle cx="182.18" cy="205.203" r="4" fill="#0" id="circle60"/>
	<circle cx="183.181" cy="19.0151" r="4" fill="#0" id="circle61"/>
	<circle cx="189.187" cy="213.211" r="4" fill="#0" id="circle62"/>
	<circle cx="189.187" cy="223.221" r="4" fill="#0" id="circle63"/>
	<circle cx="189.187" cy="233.231" r="4" fill="#0" id="circle64"/>
	<circle cx="189.187" cy="243.241" r="4" fill="#0" id="circle65"/>
	<circle cx="189.187" cy="253.251" r="4" fill="#0" id="circle66"/>
	<circle cx="189.187" cy="263.261" r="4" fill="#0" id="circle67"/>
	<circle cx="189.187" cy="273.271" r="4" fill="#0" id="circle68"/>
	<circle cx="189.187" cy="283.282" r="4" fill="#0" id="circle69"/>
	<circle cx="189.187" cy="293.292" r="4" fill="#0" id="circle70"/>
	<circle cx="189.187" cy="303.302" r="4" fill="#0" id="circle71"/>
	<circle cx="189.187" cy="313.312" r="4" fill="#0" id="circle72"/>
	<circle cx="189.187" cy="323.322" r="4" fill="#0" id="circle73"/>
	<circle cx="189.187" cy="333.332" r="4" fill="#0" id="circle74"/>
	<circle cx="189.187" cy="343.342" r="4" fill="#0" id="circle75"/>
	<circle cx="189.187" cy="353.352" r="4" fill="#0" id="circle76"/>
	<circle cx="189.187" cy="363.362" r="4" fill="#0" id="circle77"/>
	<circle cx="189.187" cy="373.372" r="4" fill="#0" id="circle78"/>
	<circle cx="189.187" cy="383.382" r="4" fill="#0" id="circle79"/>
	<circle cx="189.187" cy="393.393" r="4" fill="#0" id="circle80"/>
	<circle cx="189.187" cy="403.403" r="4" fill="#0" id="circle81"/>
	<circle cx="189.187" cy="413.413" r="4" fill="#0" id="circle82"/>
	<circle cx="189.187" cy="423.423" r="4" fill="#0" id="circle83"/>
	<circle cx="189.187" cy="433.433" r="4" fill="#0" id="circle84"/>
	<circle cx="189.187" cy="443.443" r="4" fill="#0" id="circle85"/>
	<circle cx="189.187" cy="453.453" r="4" fill="#0" id="circle86"/>
	<circle cx="189.187" cy="463.463" r="4" fill="#0" id="circle87"/>
	<circle cx="189.187" cy="473.473" r="4" fill="#0" id="circle88"/>
	<circle cx="189.187" cy="483.483" r="4" fill="#0" id="circle89"/>
	<circle cx="189.187" cy="493.493" r="4" fill="#0" id="circle90"/>
	<circle cx="189.187" cy="503.504" r="4" fill="#0" id="circle91"/>
	<circle cx="189.187" cy="513.514" r="4" fill="#0" id="circle92"/>
	<circle cx="189.187" cy="523.524" r="4" fill="#0" id="circle93"/>
	<circle cx="189.187" cy="533.534" r="4" fill="#0" id="circle94"/>
	<circle cx="189.187" cy="543.544" r="4" fill="#0" id="circle95"/>
	<circle cx="189.187" cy="553.554" r="4" fill="#0" id="circle96"/>
	<circle cx="189.187" cy="563.564" r="4" fill="#0" id="circle97"/>
	<circle cx="189.187" cy="573.574" r="4" fill="#0" id="circle98"/>
	<circle cx="189.187" cy="583.584" r="4" fill="#0" id="circle99"/>
	<circle cx="189.187" cy="593.594" r="4" fill="#0" id="circle100"/>
	<circle cx="189.187" cy="603.604" r="4" fill="#0" id="circle101"/>
	<circle cx="189.187" cy="613.615" r="4" fill="#0" id="circle102"/>
	<circle cx="189.187" cy="623.625" r="4" fill="#0" id="circle103"/>
	<circle cx="189.187" cy="633.635" r="4" fill="#0" id="circle104"/>
	<circle cx="189.187" cy="643.645" r="4" fill="#0" id="circle105"/>
	<circle cx="189.187" cy="653.655" r="4" fill="#0" id="circle106"/>
	<circle cx="189.187" cy="663.665" r="4" fill="#0" id="circle107"/>
	<circle cx="189.187" cy="673.675" r="4" fill="#0" id="circle108"/>
	<circle cx="189.187" cy="683.685" r="4" fill="#0" id="circle109"/>
	<circle cx="189.187" cy="693.695" r="4" fill="#0" id="circle110"/>
	<circle cx="189.187" cy="703.705" r="4" fill="#0" id="circle111"/>
	<circle cx="189.187" cy="713.715" r="4" fill="#0" id="circle112"/>
	<circle cx="189.187" cy="723.726" r="4" fill="#0" id="circle113"/>
	<circle cx="189.187" cy="733.736" r="4" fill="#0" id="circle114"/>
	<circle cx="189.187" cy="743.746" r="4" fill="#0" id="circle115"/>
	<circle cx="189.187" cy="753.756" r="4" fill="#0" id="circle116"/>
	<circle cx="189.187" cy="763.766" r="4" fill="#0" id="circle117"/>
	<circle cx="189.187" cy="773.776" r="4" fill="#0" id="circle118"/>
	<circle cx="189.187" cy="783.786" r="4" fill="#0" id="circle119"/>
	<circle cx="189.187" cy="793.796" r="4" fill="#0" id="circle120"/>
	<circle cx="189.187" cy="803.806" r="4" fill="#0" id="circle121"/>
	<circle cx="189.187" cy="813.816" r="4" fill="#0" id="circle122"/>
	<circle cx="189.187" cy="823.826" r="4" fill="#0" id="circle123"/>
	<circle cx="189.187" cy="833.837" r="4" fill="#0" id="circle124"/>
	<circle cx="189.187" cy="843.847" r="4" fill="#0" id="circle125"/>
	<circle cx="189.187" cy="853.857" r="4" fill="#0" id="circle126"/>
	<circle cx="189.187" cy="863.867" r="4" fill="#0" id="circle127"/>
	<circle cx="189.187" cy="873.877" r="4" fill="#0" id="circle128"/>
	<circle cx="189.187" cy="883.887" r="4" fill="#0" id="circle129"/>
	<circle cx="189.187" cy="893.897" r="4" fill="#0" id="circle130"/>
	<circle cx="189.187" cy="903.907" r="4" fill="#0" id="circle131"/>
	<circle cx="189.187" cy="913.917" r="4" fill="#0" id="circle132"/>
	<circle cx="189.187" cy="923.927" r="4" fill="#0" id="circle133"/>
	<circle cx="189.187" cy="933.937" r="4" fill="#0" id="circle134"/>
	<circle cx="189.187" cy="943.948" r="4" fill="#0" id="circle135"/>
	<circle cx="189.187" cy="953.958" r="4" fill="#0" id="circle136"/>
	<circle cx="189.187" cy="963.968" r="4" fill="#0" id="circle137"/>
	<circle cx="189.187" cy="973.978" r="4" fill="#0" id="circle138"/>
	<circle cx="189.187" cy="983.988" r="4" fill="#0" id="circle139"/>
	<circle cx="190.188" cy="993.998" r="4" fill="#0" id="circle140"/>
	<circle cx="193.191" cy="19.0151" r="4" fill="#0" id="circle141"/>
	<circle cx="200.198" cy="996" r="4" fill="#0" id="circle142"/>
	<circle cx="202.2" cy="14.0101" r="4" fill="#0" id="circle143"/>
	<circle cx="210.208" cy="996" r="4" fill="#0" id="circle144"/>
	<circle cx="212.21" cy="14.0101" r="4" fill="#0" id="circle145"/>
	<circle cx="220.218" cy="996" r="4" fill="#0" id="circle146"/>
	<circle cx="221.219" cy="9.00505" r="4" fill="#0" id="circle147"/>
	<circle cx="230.228" cy="996" r="4" fill="#0" id="circle148"/>
	<circle cx="231.229" cy="9.00505" r="4" fill="#0" id="circle149"/>
	<circle cx="240.238" cy="996" r="4" fill="#0" id="circle150"/>
	<circle cx="241.239" cy="9.00505" r="4" fill="#0" id="circle151"/>
	<circle cx="250.248" cy="996" r="4" fill="#0" id="circle152"/>
	<circle cx="251.249" cy="9.00505" r="4" fill="#0" id="circle153"/>
	<circle cx="260.258" cy="996" r="4" fill="#0" id="circle154"/>
	<circle cx="261.259" cy="9.00505" r="4" fill="#0" id="circle155"/>
	<circle cx="270.268" cy="996" r="4" fill="#0" id="circle156"/>
	<circle cx="271.269" cy="9.00505" r="4" fill="#0" id="circle157"/>
	<circle cx="280.279" cy="996" r="4" fill="#0" id="circle158"/>
	<circle cx="281.28" cy="9.00505" r="4" fill="#0" id="circle159"/>
	<circle cx="290.289" cy="996" r="4" fill="#0" id="circle160"/>
	<circle cx="291.29" cy="9.00505" r="4" fill="#0" id="circle161"/>
	<circle cx="295.294" cy="205.203" r="4" fill="#0" id="circle162"/>
	<circle cx="295.294" cy="215.213" r="4" fill="#0" id="circle163"/>
	<circle cx="295.294" cy="225.223" r="4" fill="#0" id="circle164"/>
	<circle cx="295.294" cy="235.233" r="4" fill="#0" id="circle165"/>
	<circle cx="295.294" cy="245.243" r="4" fill="#0" id="circle166"/>
	<circle cx="295.294" cy="255.253" r="4" fill="#0" id="circle167"/>
	<circle cx="295.294" cy="265.263" r="4" fill="#0" id="circle168"/>
	<circle cx="295.294" cy="275.273" r="4" fill="#0" id="circle169"/>
	<circle cx="295.294" cy="285.284" r="4" fill="#0" id="circle170"/>
	<circle cx="295.294" cy="295.294" r="4" fill="#0" id="circle171"/>
	<circle cx="295.294" cy="305.304" r="4" fill="#0" id="circle172"/>
	<circle cx="295.294" cy="315.314" r="4" fill="#0" id="circle173"/>
	<circle cx="295.294" cy="325.324" r="4" fill="#0" id="circle174"/>
	<circle cx="295.294" cy="335.334" r="4" fill="#0" id="circle175"/>
	<circle cx="295.294" cy="345.344" r="4" fill="#0" id="circle176"/>
	<circle cx="295.294" cy="355.354" r="4" fill="#0" id="circle177"/>
	<circle cx="295.294" cy="365.364" r="4" fill="#0" id="circle178"/>
	<circle cx="295.294" cy="375.374" r="4" fill="#0" id="circle179"/>
	<circle cx="295.294" cy="385.384" r="4" fill="#0" id="circle180"/>
	<circle cx="295.294" cy="395.395" r="4" fill="#0" id="circle181"/>
	<circle cx="295.294" cy="405.405" r="4" fill="#0" id="circle182"/>
	<circle cx="295.294" cy="415.415" r="4" fill="#0" id="circle183"/>
	<circle cx="295.294" cy="425.425" r="4" fill="#0" id="circle184"/>
	<circle cx="295.294" cy="435.435" r="4" fill="#0" id="circle185"/>
	<circle cx="295.294" cy="445.445" r="4" fill="#0" id="circle186"/>
	<circle cx="295.294" cy="455.455" r="4" fill="#0" id="circle187"/>
	<circle cx="295.294" cy="465.465" r="4" fill="#0" id="circle188"/>
	<circle cx="295.294" cy="475.475" r="4" fill="#0" id="circle189"/>
	<circle cx="295.294" cy="485.485" r="4" fill="#0" id="circle190"/>
	<circle cx="295.294" cy="495.495" r="4" fill="#0" id="circle191"/>
	<circle cx="295.294" cy="505.506" r="4" fill="#0" id="circle192"/>
	<circle cx="295.294" cy="515.516" r="4" fill="#0" id="circle193"/>
	<circle cx="295.294" cy="525.526" r="4" fill="#0" id="circle194"/>
	<circle cx="295.294" cy="535.536" r="4" fill="#0" id="circle195"/>
	<circle cx="295.294" cy="545.546" r="4" fill="#0" id="circle196"/>
	<circle cx="295.294" cy="555.556" r="4" fill="#0" id="circle197"/>
	<circle cx="295.294" cy="565.566" r="4" fill="#0" id="circle198"/>
	<circle cx="295.294" cy="575.576" r="4" fill="#0" id="circle199"/>
	<circle cx="295.294" cy="585.586" r="4" fill="#0" id="circle200"/>
	<circle cx="295.294" cy="595.596" r="4" fill="#0" id="circle201"/>
	<circle cx="295.294" cy="605.606" r="4" fill="#0" id="circle202"/>
	<circle cx="295.294" cy="615.617" r="4" fill="#0" id="circle203"/>
	<circle cx="295.294" cy="625.627" r="4" fill="#0" id="circle204"/>
	<circle cx="295.294" cy="635.637" r="4" fill="#0" id="circle205"/>
	<circle cx="295.294" cy="645.647" r="4" fill="#0" id="circle206"/>
	<circle cx="295.294" cy="655.657" r="4" fill="#0" id="circle207"/>
	<circle cx="295.294" cy="665.667" r="4" fill="#0" id="circle208"/>
	<circle cx="295.294" cy="675.677" r="4" fill="#0" id="circle209"/>
	<circle cx="295.294" cy="685.687" r="4" fill="#0" id="circle210"/>
	<circle cx="295.294" cy="695.697" r="4" fill="#0" id="circle211"/>
	<circle cx="295.294" cy="705.707" r="4" fill="#0" id="circle212"/>
	<circle cx="295.294" cy="715.717" r="4" fill="#0" id="circle213"/>
	<circle cx="295.294" cy="725.728" r="4" fill="#0" id="circle214"/>
	<circle cx="295.294" cy="735.738" r="4" fill="#0" id="circle215"/>
	<circle cx="295.294" cy="745.748" r="4" fill="#0" id="circle216"/>
	<circle cx="295.294" cy="755.758" r="4" fill="#0" id="circle217"/>
	<circle cx="295.294" cy="765.768" r="4" fill="#0" id="circle218"/>
	<circle cx="295.294" cy="775.778" r="4" fill="#0" id="circle219"/>
	<circle cx="295.294" cy="785.788" r="4" fill="#0" id="circle220"/>
	<circle cx="295.294" cy="795.798" r="4" fill="#0" id="circle221"/>
	<circle cx="295.294" cy="805.808" r="4" fill="#0" id="circle222"/>
	<circle cx="295.294" cy="815.818" r="4" fill="#0" id="circle223"/>
	<circle cx="295.294" cy="825.828" r="4" fill="#0" id="circle224"/>
	<circle cx="295.294" cy="835.839" r="4" fill="#0" id="circle225"/>
	<circle cx="295.294" cy="845.849" r="4" fill="#0" id="circle226"/>
	<circle cx="295.294" cy="855.859" r="4" fill="#0" id="circle227"/>
	<circle cx="295.294" cy="865.869" r="4" fill="#0" id="circle228"/>
	<circle cx="295.294" cy="875.879" r="4" fill="#0" id="circle229"/>
	<circle cx="295.294" cy="885.889" r="4" fill="#0" id="circle230"/>
	<circle cx="295.294" cy="895.899" r="4" fill="#0" id="circle231"/>
	<circle cx="295.294" cy="905.909" r="4" fill="#0" id="circle232"/>
	<circle cx="295.294" cy="915.919" r="4" fill="#0" id="circle233"/>
	<circle cx="295.294" cy="925.929" r="4" fill="#0" id="circle234"/>
	<circle cx="295.294" cy="935.939" r="4" fill="#0" id="circle235"/>
	<circle cx="295.294" cy="945.95" r="4" fill="#0" id="circle236"/>
	<circle cx="295.294" cy="955.96" r="4" fill="#0" id="circle237"/>
	<circle cx="295.294" cy="965.97" r="4" fill="#0" id="circle238"/>
	<circle cx="295.294" cy="975.98" r="4" fill="#0" id="circle239"/>
	<circle cx="295.294" cy="985.99" r="4" fill="#0" id="circle240"/>
	<circle cx="300.299" cy="14.0101" r="4" fill="#0" id="circle241"/>
	<circle cx="305.304" cy="200.198" r="4" fill="#0" id="circle242"/>
	<circle cx="310.309" cy="14.0101" r="4" fill="#0" id="circle243"/>
	<circle cx="315.314" cy="195.193" r="4" fill="#0" id="circle244"/>
	<circle cx="320.319" cy="14.0101" r="4" fill="#0" id="circle245"/>
	<circle cx="325.324" cy="190.188" r="4" fill="#0" id="circle246"/>
	<circle cx="330.329" cy="14.0101" r="4" fill="#0" id="circle247"/>
	<circle cx="335.334" cy="185.183" r="4" fill="#0" id="circle248"/>
	<circle cx="339.338" cy="19.0151" r="4" fill="#0" id="circle249"/>
	<circle cx="343.342" cy="178.176" r="4" fill="#0" id="circle250"/>
	<circle cx="349.348" cy="19.0151" r="4" fill="#0" id="circle251"/>
	<circle cx="350.349" cy="170.168" r="4" fill="#0" id="circle252"/>
	<circle cx="358.357" cy="24.0202" r="4" fill="#0" id="circle253"/>
	<circle cx="360.359" cy="165.162" r="4" fill="#0" id="circle254"/>
	<circle cx="367.366" cy="29.0252" r="4" fill="#0" id="circle255"/>
	<circle cx="370.369" cy="160.157" r="4" fill="#0" id="circle256"/>
	<circle cx="377.376" cy="29.0252" r="4" fill="#0" id="circle257"/>
	<circle cx="380.379" cy="160.157" r="4" fill="#0" id="circle258"/>
	<circle cx="386.385" cy="34.0303" r="4" fill="#0" id="circle259"/>
	<circle cx="390.39" cy="160.157" r="4" fill="#0" id="circle260"/>
	<circle cx="395.395" cy="39.0353" r="4" fill="#0" id="circle261"/>
	<circle cx="400.4" cy="160.157" r="4" fill="#0" id="circle262"/>
	<circle cx="405.405" cy="39.0353" r="4" fill="#0" id="circle263"/>
	<circle cx="409.409" cy="155.152" r="4" fill="#0" id="circle264"/>
	<circle cx="415.415" cy="42.0383" r="4" fill="#0" id="circle265"/>
	<circle cx="419.419" cy="155.152" r="4" fill="#0" id="circle266"/>
	<circle cx="425.425" cy="44.0404" r="4" fill="#0" id="circle267"/>
	<circle cx="429.429" cy="155.152" r="4" fill="#0" id="circle268"/>
	<circle cx="434.434" cy="49.0454" r="4" fill="#0" id="circle269"/>
	<circle cx="439.439" cy="155.152" r="4" fill="#0" id="circle270"/>
	<circle cx="443.443" cy="54.0505" r="4" fill="#0" id="circle271"/>
	<circle cx="449.449" cy="155.152" r="4" fill="#0" id="circle272"/>
	<circle cx="452.452" cy="59.0555" r="4" fill="#0" id="circle273"/>
	<circle cx="459.459" cy="155.152" r="4" fill="#0" id="circle274"/>
	<circle cx="461.461" cy="64.0605" r="4" fill="#0" id="circle275"/>
	<circle cx="468.468" cy="160.157" r="4" fill="#0" id="circle276"/>
	<circle cx="470.47" cy="69.0656" r="4" fill="#0" id="circle277"/>
	<circle cx="478.478" cy="160.157" r="4" fill="#0" id="circle278"/>
	<circle cx="479.479" cy="74.0706" r="4" fill="#0" id="circle279"/>
	<circle cx="487.487" cy="80.0767" r="4" fill="#0" id="circle280"/>
	<circle cx="487.487" cy="165.162" r="4" fill="#0" id="circle281"/>
	<circle cx="492.492" cy="89.0858" r="4" fill="#0" id="circle282"/>
	<circle cx="496.496" cy="170.168" r="4" fill="#0" id="circle283"/>
	<circle cx="499.499" cy="97.0938" r="4" fill="#0" id="circle284"/>
	<circle cx="505.506" cy="175.173" r="4" fill="#0" id="circle285"/>
	<circle cx="507.508" cy="104.101" r="4" fill="#0" id="circle286"/>
	<circle cx="514.515" cy="112.109" r="4" fill="#0" id="circle287"/>
	<circle cx="515.516" cy="175.173" r="4" fill="#0" id="circle288"/>
	<circle cx="519.52" cy="121.118" r="4" fill="#0" id="circle289"/>
	<circle cx="524.525" cy="180.178" r="4" fill="#0" id="circle290"/>
	<circle cx="525.526" cy="129.126" r="4" fill="#0" id="circle291"/>
	<circle cx="530.531" cy="138.135" r="4" fill="#0" id="circle292"/>
	<circle cx="533.534" cy="185.183" r="4" fill="#0" id="circle293"/>
	<circle cx="535.536" cy="147.144" r="4" fill="#0" id="circle294"/>
	<circle cx="540.541" cy="156.153" r="4" fill="#0" id="circle295"/>
	<circle cx="542.543" cy="190.188" r="4" fill="#0" id="circle296"/>
	<circle cx="545.546" cy="165.162" r="4" fill="#0" id="circle297"/>
	<circle cx="550.551" cy="174.172" r="4" fill="#0" id="circle298"/>
	<circle cx="550.551" cy="197.195" r="4" fill="#0" id="circle299"/>
	<circle cx="555.556" cy="183.181" r="4" fill="#0" id="circle300"/>
	<circle cx="560.561" cy="192.19" r="4" fill="#0" id="circle301"/>
	</g>
</svg>