<?xml version="1.0" encoding="UTF-8" standalone="no"?>
<!-- Created with CurveBenchmark -->
<svg
	xmlns:dc="http://purl.org/dc/elements/1.1/"
	xmlns:cc="http://creativecommons.org/ns#"
	xmlns:rdf="http://www.w3.org/1999/02/22-rdf-syntax-ns#"
	xmlns:svg="http://www.w3.org/2000/svg"
	xmlns="http://www.w3.org/2000/svg"
	xmlns:sodipodi="http://sodipodi.sourceforge.net/DTD/sodipodi-0.dtd"
	xmlns:inkscape="http://www.inkscape.org/namespaces/inkscape"
	width="1000"
	height="1000"
	id="svg2"
	version="1.1"
	sodipodi:docname="manifold/nncrust-chopper-04.png.txt">
<defs
	id="defs4" />
<metadata
	id="metadata7">
	<rdf:RDF>
		<cc:Work
			rdf:about="">
			<dc:format>image/svg+xml</dc:format>
			<dc:type
				rdf:resource="http://purl.org/dc/dcmitype/StillImage" />
			<dc:title></dc:title>
		</cc:Work>
	</rdf:RDF>
</metadata>
<g
	inkscape:label="Layer 1"
	inkscape:groupmode="layer"
	id="layer1">
	<path style="fill:none;stroke:red;stroke-width:1px;stroke-linecap:butt;stroke-linejoin:miter;stroke-opacity:1" d="M 125.6,249.333 133.067,240.8 z" id="boundary" inkscape:connector-curvature="0" />
	<path style="fill:none;stroke:red;stroke-width:1px;stroke-linecap:butt;stroke-linejoin:miter;stroke-opacity:1" d="M 133.067,240.8 143.733,235.467 z" id="boundary" inkscape:connector-curvature="0" />
	<path style="fill:none;stroke:red;stroke-width:1px;stroke-linecap:butt;stroke-linejoin:miter;stroke-opacity:1" d="M 143.733,235.467 152.267,228 z" id="boundary" inkscape:connector-curvature="0" />
	<path style="fill:none;stroke:red;stroke-width:1px;stroke-linecap:butt;stroke-linejoin:miter;stroke-opacity:1" d="M 152.267,228 161.867,222.667 z" id="boundary" inkscape:connector-curvature="0" />
	<path style="fill:none;stroke:red;stroke-width:1px;stroke-linecap:butt;stroke-linejoin:miter;stroke-opacity:1" d="M 170.4,214.133 161.867,222.667 z" id="boundary" inkscape:connector-curvature="0" />
	<path style="fill:none;stroke:red;stroke-width:1px;stroke-linecap:butt;stroke-linejoin:miter;stroke-opacity:1" d="M 117.067,256.8 125.6,249.333 z" id="boundary" inkscape:connector-curvature="0" />
	<path style="fill:none;stroke:red;stroke-width:1px;stroke-linecap:butt;stroke-linejoin:miter;stroke-opacity:1" d="M 81.8667,286.667 90.4,278.133 z" id="boundary" inkscape:connector-curvature="0" />
	<path style="fill:none;stroke:red;stroke-width:1px;stroke-linecap:butt;stroke-linejoin:miter;stroke-opacity:1" d="M 98.9333,270.667 106.4,262.133 z" id="boundary" inkscape:connector-curvature="0" />
	<path style="fill:none;stroke:red;stroke-width:1px;stroke-linecap:butt;stroke-linejoin:miter;stroke-opacity:1" d="M 106.4,262.133 117.067,256.8 z" id="boundary" inkscape:connector-curvature="0" />
	<path style="fill:none;stroke:red;stroke-width:1px;stroke-linecap:butt;stroke-linejoin:miter;stroke-opacity:1" d="M 98.9333,270.667 90.4,278.133 z" id="boundary" inkscape:connector-curvature="0" />
	<path style="fill:none;stroke:red;stroke-width:1px;stroke-linecap:butt;stroke-linejoin:miter;stroke-opacity:1" d="M 218.4,185.333 228,180 z" id="boundary" inkscape:connector-curvature="0" />
	<path style="fill:none;stroke:red;stroke-width:1px;stroke-linecap:butt;stroke-linejoin:miter;stroke-opacity:1" d="M 228,180 238.667,180 z" id="boundary" inkscape:connector-curvature="0" />
	<path style="fill:none;stroke:red;stroke-width:1px;stroke-linecap:butt;stroke-linejoin:miter;stroke-opacity:1" d="M 218.4,185.333 207.733,187.467 z" id="boundary" inkscape:connector-curvature="0" />
	<path style="fill:none;stroke:red;stroke-width:1px;stroke-linecap:butt;stroke-linejoin:miter;stroke-opacity:1" d="M 238.667,180 249.333,180 z" id="boundary" inkscape:connector-curvature="0" />
	<path style="fill:none;stroke:red;stroke-width:1px;stroke-linecap:butt;stroke-linejoin:miter;stroke-opacity:1" d="M 260,180 249.333,180 z" id="boundary" inkscape:connector-curvature="0" />
	<path style="fill:none;stroke:red;stroke-width:1px;stroke-linecap:butt;stroke-linejoin:miter;stroke-opacity:1" d="M 170.4,214.133 178.933,206.667 z" id="boundary" inkscape:connector-curvature="0" />
	<path style="fill:none;stroke:red;stroke-width:1px;stroke-linecap:butt;stroke-linejoin:miter;stroke-opacity:1" d="M 178.933,206.667 188.533,201.333 z" id="boundary" inkscape:connector-curvature="0" />
	<path style="fill:none;stroke:red;stroke-width:1px;stroke-linecap:butt;stroke-linejoin:miter;stroke-opacity:1" d="M 188.533,201.333 197.067,192.8 z" id="boundary" inkscape:connector-curvature="0" />
	<path style="fill:none;stroke:red;stroke-width:1px;stroke-linecap:butt;stroke-linejoin:miter;stroke-opacity:1" d="M 197.067,192.8 207.733,187.467 z" id="boundary" inkscape:connector-curvature="0" />
	<path style="fill:none;stroke:red;stroke-width:1px;stroke-linecap:butt;stroke-linejoin:miter;stroke-opacity:1" d="M 25.3333,433.867 25.3333,444.533 z" id="boundary" inkscape:connector-curvature="0" />
	<path style="fill:none;stroke:red;stroke-width:1px;stroke-linecap:butt;stroke-linejoin:miter;stroke-opacity:1" d="M 25.3333,433.867 30.6667,417.867 z" id="boundary" inkscape:connector-curvature="0" />
	<path style="fill:none;stroke:red;stroke-width:1px;stroke-linecap:butt;stroke-linejoin:miter;stroke-opacity:1" d="M 25.3333,455.2 25.3333,465.867 z" id="boundary" inkscape:connector-curvature="0" />
	<path style="fill:none;stroke:red;stroke-width:1px;stroke-linecap:butt;stroke-linejoin:miter;stroke-opacity:1" d="M 25.3333,476.533 25.3333,465.867 z" id="boundary" inkscape:connector-curvature="0" />
	<path style="fill:none;stroke:red;stroke-width:1px;stroke-linecap:butt;stroke-linejoin:miter;stroke-opacity:1" d="M 25.3333,455.2 25.3333,444.533 z" id="boundary" inkscape:connector-curvature="0" />
	<path style="fill:none;stroke:red;stroke-width:1px;stroke-linecap:butt;stroke-linejoin:miter;stroke-opacity:1" d="M 25.3333,487.2 25.3333,497.867 z" id="boundary" inkscape:connector-curvature="0" />
	<path style="fill:none;stroke:red;stroke-width:1px;stroke-linecap:butt;stroke-linejoin:miter;stroke-opacity:1" d="M 25.3333,487.2 25.3333,476.533 z" id="boundary" inkscape:connector-curvature="0" />
	<path style="fill:none;stroke:red;stroke-width:1px;stroke-linecap:butt;stroke-linejoin:miter;stroke-opacity:1" d="M 25.3333,508.533 25.3333,519.2 z" id="boundary" inkscape:connector-curvature="0" />
	<path style="fill:none;stroke:red;stroke-width:1px;stroke-linecap:butt;stroke-linejoin:miter;stroke-opacity:1" d="M 25.3333,508.533 25.3333,497.867 z" id="boundary" inkscape:connector-curvature="0" />
	<path style="fill:none;stroke:red;stroke-width:1px;stroke-linecap:butt;stroke-linejoin:miter;stroke-opacity:1" d="M 25.3333,519.2 25.3333,529.867 z" id="boundary" inkscape:connector-curvature="0" />
	<path style="fill:none;stroke:red;stroke-width:1px;stroke-linecap:butt;stroke-linejoin:miter;stroke-opacity:1" d="M 52,337.867 57.3333,327.2 z" id="boundary" inkscape:connector-curvature="0" />
	<path style="fill:none;stroke:red;stroke-width:1px;stroke-linecap:butt;stroke-linejoin:miter;stroke-opacity:1" d="M 46.6667,353.867 52,337.867 z" id="boundary" inkscape:connector-curvature="0" />
	<path style="fill:none;stroke:red;stroke-width:1px;stroke-linecap:butt;stroke-linejoin:miter;stroke-opacity:1" d="M 62.6667,316.533 68,305.867 z" id="boundary" inkscape:connector-curvature="0" />
	<path style="fill:none;stroke:red;stroke-width:1px;stroke-linecap:butt;stroke-linejoin:miter;stroke-opacity:1" d="M 68,305.867 73.3333,295.2 z" id="boundary" inkscape:connector-curvature="0" />
	<path style="fill:none;stroke:red;stroke-width:1px;stroke-linecap:butt;stroke-linejoin:miter;stroke-opacity:1" d="M 73.3333,295.2 81.8667,286.667 z" id="boundary" inkscape:connector-curvature="0" />
	<path style="fill:none;stroke:red;stroke-width:1px;stroke-linecap:butt;stroke-linejoin:miter;stroke-opacity:1" d="M 57.3333,327.2 62.6667,316.533 z" id="boundary" inkscape:connector-curvature="0" />
	<path style="fill:none;stroke:red;stroke-width:1px;stroke-linecap:butt;stroke-linejoin:miter;stroke-opacity:1" d="M 30.6667,417.867 30.6667,407.2 z" id="boundary" inkscape:connector-curvature="0" />
	<path style="fill:none;stroke:red;stroke-width:1px;stroke-linecap:butt;stroke-linejoin:miter;stroke-opacity:1" d="M 30.6667,407.2 36,391.2 z" id="boundary" inkscape:connector-curvature="0" />
	<path style="fill:none;stroke:red;stroke-width:1px;stroke-linecap:butt;stroke-linejoin:miter;stroke-opacity:1" d="M 36,380.533 36,391.2 z" id="boundary" inkscape:connector-curvature="0" />
	<path style="fill:none;stroke:red;stroke-width:1px;stroke-linecap:butt;stroke-linejoin:miter;stroke-opacity:1" d="M 41.3333,364.533 46.6667,353.867 z" id="boundary" inkscape:connector-curvature="0" />
	<path style="fill:none;stroke:red;stroke-width:1px;stroke-linecap:butt;stroke-linejoin:miter;stroke-opacity:1" d="M 36,380.533 41.3333,364.533 z" id="boundary" inkscape:connector-curvature="0" />
	<path style="fill:none;stroke:red;stroke-width:1px;stroke-linecap:butt;stroke-linejoin:miter;stroke-opacity:1" d="M 260,180 270.667,180 z" id="boundary" inkscape:connector-curvature="0" />
	<path style="fill:none;stroke:red;stroke-width:1px;stroke-linecap:butt;stroke-linejoin:miter;stroke-opacity:1" d="M 324,39.2 332.533,30.6667 z" id="boundary" inkscape:connector-curvature="0" />
	<path style="fill:none;stroke:red;stroke-width:1px;stroke-linecap:butt;stroke-linejoin:miter;stroke-opacity:1" d="M 363.467,20 353.867,25.3333 z" id="boundary" inkscape:connector-curvature="0" />
	<path style="fill:none;stroke:red;stroke-width:1px;stroke-linecap:butt;stroke-linejoin:miter;stroke-opacity:1" d="M 353.867,25.3333 343.2,25.3333 z" id="boundary" inkscape:connector-curvature="0" />
	<path style="fill:none;stroke:red;stroke-width:1px;stroke-linecap:butt;stroke-linejoin:miter;stroke-opacity:1" d="M 373.067,14.6667 363.467,20 z" id="boundary" inkscape:connector-curvature="0" />
	<path style="fill:none;stroke:red;stroke-width:1px;stroke-linecap:butt;stroke-linejoin:miter;stroke-opacity:1" d="M 367.733,63.7333 357.067,63.7333 z" id="boundary" inkscape:connector-curvature="0" />
	<path style="fill:none;stroke:red;stroke-width:1px;stroke-linecap:butt;stroke-linejoin:miter;stroke-opacity:1" d="M 332.533,30.6667 343.2,25.3333 z" id="boundary" inkscape:connector-curvature="0" />
	<path style="fill:none;stroke:red;stroke-width:1px;stroke-linecap:butt;stroke-linejoin:miter;stroke-opacity:1" d="M 318.667,49.8667 327.2,57.3333 z" id="boundary" inkscape:connector-curvature="0" />
	<path style="fill:none;stroke:red;stroke-width:1px;stroke-linecap:butt;stroke-linejoin:miter;stroke-opacity:1" d="M 318.667,49.8667 324,39.2 z" id="boundary" inkscape:connector-curvature="0" />
	<path style="fill:none;stroke:red;stroke-width:1px;stroke-linecap:butt;stroke-linejoin:miter;stroke-opacity:1" d="M 335.733,63.7333 346.4,63.7333 z" id="boundary" inkscape:connector-curvature="0" />
	<path style="fill:none;stroke:red;stroke-width:1px;stroke-linecap:butt;stroke-linejoin:miter;stroke-opacity:1" d="M 335.733,63.7333 327.2,57.3333 z" id="boundary" inkscape:connector-curvature="0" />
	<path style="fill:none;stroke:red;stroke-width:1px;stroke-linecap:butt;stroke-linejoin:miter;stroke-opacity:1" d="M 346.4,63.7333 357.067,63.7333 z" id="boundary" inkscape:connector-curvature="0" />
	<path style="fill:none;stroke:red;stroke-width:1px;stroke-linecap:butt;stroke-linejoin:miter;stroke-opacity:1" d="M 357.067,63.7333 366.667,108.533 z" id="boundary" inkscape:connector-curvature="0" />
	<path style="fill:none;stroke:red;stroke-width:1px;stroke-linecap:butt;stroke-linejoin:miter;stroke-opacity:1" d="M 382.667,9.33333 393.333,7.2 z" id="boundary" inkscape:connector-curvature="0" />
	<path style="fill:none;stroke:red;stroke-width:1px;stroke-linecap:butt;stroke-linejoin:miter;stroke-opacity:1" d="M 404,4 393.333,7.2 z" id="boundary" inkscape:connector-curvature="0" />
	<path style="fill:none;stroke:red;stroke-width:1px;stroke-linecap:butt;stroke-linejoin:miter;stroke-opacity:1" d="M 404,4 414.667,4 z" id="boundary" inkscape:connector-curvature="0" />
	<path style="fill:none;stroke:red;stroke-width:1px;stroke-linecap:butt;stroke-linejoin:miter;stroke-opacity:1" d="M 414.667,4 425.333,4 z" id="boundary" inkscape:connector-curvature="0" />
	<path style="fill:none;stroke:red;stroke-width:1px;stroke-linecap:butt;stroke-linejoin:miter;stroke-opacity:1" d="M 377.333,69.0667 367.733,63.7333 z" id="boundary" inkscape:connector-curvature="0" />
	<path style="fill:none;stroke:red;stroke-width:1px;stroke-linecap:butt;stroke-linejoin:miter;stroke-opacity:1" d="M 377.333,79.7333 377.333,69.0667 z" id="boundary" inkscape:connector-curvature="0" />
	<path style="fill:none;stroke:red;stroke-width:1px;stroke-linecap:butt;stroke-linejoin:miter;stroke-opacity:1" d="M 373.067,14.6667 382.667,9.33333 z" id="boundary" inkscape:connector-curvature="0" />
	<path style="fill:none;stroke:red;stroke-width:1px;stroke-linecap:butt;stroke-linejoin:miter;stroke-opacity:1" d="M 421.067,69.0667 421.067,79.7333 z" id="boundary" inkscape:connector-curvature="0" />
	<path style="fill:none;stroke:red;stroke-width:1px;stroke-linecap:butt;stroke-linejoin:miter;stroke-opacity:1" d="M 421.067,69.0667 430.667,74.4 z" id="boundary" inkscape:connector-curvature="0" />
	<path style="fill:none;stroke:red;stroke-width:1px;stroke-linecap:butt;stroke-linejoin:miter;stroke-opacity:1" d="M 377.333,79.7333 375.2,100 z" id="boundary" inkscape:connector-curvature="0" />
	<path style="fill:none;stroke:red;stroke-width:1px;stroke-linecap:butt;stroke-linejoin:miter;stroke-opacity:1" d="M 292,180 281.333,180 z" id="boundary" inkscape:connector-curvature="0" />
	<path style="fill:none;stroke:red;stroke-width:1px;stroke-linecap:butt;stroke-linejoin:miter;stroke-opacity:1" d="M 344.267,174.667 353.867,169.333 z" id="boundary" inkscape:connector-curvature="0" />
	<path style="fill:none;stroke:red;stroke-width:1px;stroke-linecap:butt;stroke-linejoin:miter;stroke-opacity:1" d="M 353.867,169.333 364.533,169.333 z" id="boundary" inkscape:connector-curvature="0" />
	<path style="fill:none;stroke:red;stroke-width:1px;stroke-linecap:butt;stroke-linejoin:miter;stroke-opacity:1" d="M 344.267,174.667 333.6,174.667 z" id="boundary" inkscape:connector-curvature="0" />
	<path style="fill:none;stroke:red;stroke-width:1px;stroke-linecap:butt;stroke-linejoin:miter;stroke-opacity:1" d="M 375.2,164 364.533,169.333 z" id="boundary" inkscape:connector-curvature="0" />
	<path style="fill:none;stroke:red;stroke-width:1px;stroke-linecap:butt;stroke-linejoin:miter;stroke-opacity:1" d="M 281.333,180 270.667,180 z" id="boundary" inkscape:connector-curvature="0" />
	<path style="fill:none;stroke:red;stroke-width:1px;stroke-linecap:butt;stroke-linejoin:miter;stroke-opacity:1" d="M 324,180 333.6,174.667 z" id="boundary" inkscape:connector-curvature="0" />
	<path style="fill:none;stroke:red;stroke-width:1px;stroke-linecap:butt;stroke-linejoin:miter;stroke-opacity:1" d="M 302.667,180 292,180 z" id="boundary" inkscape:connector-curvature="0" />
	<path style="fill:none;stroke:red;stroke-width:1px;stroke-linecap:butt;stroke-linejoin:miter;stroke-opacity:1" d="M 324,180 313.333,180 z" id="boundary" inkscape:connector-curvature="0" />
	<path style="fill:none;stroke:red;stroke-width:1px;stroke-linecap:butt;stroke-linejoin:miter;stroke-opacity:1" d="M 302.667,180 313.333,180 z" id="boundary" inkscape:connector-curvature="0" />
	<path style="fill:none;stroke:red;stroke-width:1px;stroke-linecap:butt;stroke-linejoin:miter;stroke-opacity:1" d="M 366.667,108.533 375.2,100 z" id="boundary" inkscape:connector-curvature="0" />
	<path style="fill:none;stroke:red;stroke-width:1px;stroke-linecap:butt;stroke-linejoin:miter;stroke-opacity:1" d="M 375.2,116 366.667,108.533 z" id="boundary" inkscape:connector-curvature="0" />
	<path style="fill:none;stroke:red;stroke-width:1px;stroke-linecap:butt;stroke-linejoin:miter;stroke-opacity:1" d="M 383.733,122.4 375.2,116 z" id="boundary" inkscape:connector-curvature="0" />
	<path style="fill:none;stroke:red;stroke-width:1px;stroke-linecap:butt;stroke-linejoin:miter;stroke-opacity:1" d="M 421.067,79.7333 426.4,89.3333 z" id="boundary" inkscape:connector-curvature="0" />
	<path style="fill:none;stroke:red;stroke-width:1px;stroke-linecap:butt;stroke-linejoin:miter;stroke-opacity:1" d="M 385.867,164 375.2,164 z" id="boundary" inkscape:connector-curvature="0" />
	<path style="fill:none;stroke:red;stroke-width:1px;stroke-linecap:butt;stroke-linejoin:miter;stroke-opacity:1" d="M 393.333,149.067 385.867,164 z" id="boundary" inkscape:connector-curvature="0" />
	<path style="fill:none;stroke:red;stroke-width:1px;stroke-linecap:butt;stroke-linejoin:miter;stroke-opacity:1" d="M 393.333,127.733 393.333,138.4 z" id="boundary" inkscape:connector-curvature="0" />
	<path style="fill:none;stroke:red;stroke-width:1px;stroke-linecap:butt;stroke-linejoin:miter;stroke-opacity:1" d="M 383.733,122.4 393.333,127.733 z" id="boundary" inkscape:connector-curvature="0" />
	<path style="fill:none;stroke:red;stroke-width:1px;stroke-linecap:butt;stroke-linejoin:miter;stroke-opacity:1" d="M 393.333,149.067 393.333,138.4 z" id="boundary" inkscape:connector-curvature="0" />
	<path style="fill:none;stroke:red;stroke-width:1px;stroke-linecap:butt;stroke-linejoin:miter;stroke-opacity:1" d="M 25.3333,540.533 30.6667,550.133 z" id="boundary" inkscape:connector-curvature="0" />
	<path style="fill:none;stroke:red;stroke-width:1px;stroke-linecap:butt;stroke-linejoin:miter;stroke-opacity:1" d="M 23.2,665.333 14.6667,673.867 z" id="boundary" inkscape:connector-curvature="0" />
	<path style="fill:none;stroke:red;stroke-width:1px;stroke-linecap:butt;stroke-linejoin:miter;stroke-opacity:1" d="M 30.6667,550.133 36,559.733 z" id="boundary" inkscape:connector-curvature="0" />
	<path style="fill:none;stroke:red;stroke-width:1px;stroke-linecap:butt;stroke-linejoin:miter;stroke-opacity:1" d="M 36,559.733 39.2,570.4 z" id="boundary" inkscape:connector-curvature="0" />
	<path style="fill:none;stroke:red;stroke-width:1px;stroke-linecap:butt;stroke-linejoin:miter;stroke-opacity:1" d="M 49.8667,574.667 39.2,570.4 z" id="boundary" inkscape:connector-curvature="0" />
	<path style="fill:none;stroke:red;stroke-width:1px;stroke-linecap:butt;stroke-linejoin:miter;stroke-opacity:1" d="M 25.3333,540.533 25.3333,529.867 z" id="boundary" inkscape:connector-curvature="0" />
	<path style="fill:none;stroke:red;stroke-width:1px;stroke-linecap:butt;stroke-linejoin:miter;stroke-opacity:1" d="M 33.8667,665.333 23.2,665.333 z" id="boundary" inkscape:connector-curvature="0" />
	<path style="fill:none;stroke:red;stroke-width:1px;stroke-linecap:butt;stroke-linejoin:miter;stroke-opacity:1" d="M 9.33333,684.533 14.6667,673.867 z" id="boundary" inkscape:connector-curvature="0" />
	<path style="fill:none;stroke:red;stroke-width:1px;stroke-linecap:butt;stroke-linejoin:miter;stroke-opacity:1" d="M 41.3333,673.867 46.6667,683.467 z" id="boundary" inkscape:connector-curvature="0" />
	<path style="fill:none;stroke:red;stroke-width:1px;stroke-linecap:butt;stroke-linejoin:miter;stroke-opacity:1" d="M 41.3333,673.867 33.8667,665.333 z" id="boundary" inkscape:connector-curvature="0" />
	<path style="fill:none;stroke:red;stroke-width:1px;stroke-linecap:butt;stroke-linejoin:miter;stroke-opacity:1" d="M 9.33333,684.533 4,695.2 z" id="boundary" inkscape:connector-curvature="0" />
	<path style="fill:none;stroke:red;stroke-width:1px;stroke-linecap:butt;stroke-linejoin:miter;stroke-opacity:1" d="M 49.8667,574.667 60.5333,575.733 z" id="boundary" inkscape:connector-curvature="0" />
	<path style="fill:none;stroke:red;stroke-width:1px;stroke-linecap:butt;stroke-linejoin:miter;stroke-opacity:1" d="M 60.5333,575.733 70.1333,581.067 z" id="boundary" inkscape:connector-curvature="0" />
	<path style="fill:none;stroke:red;stroke-width:1px;stroke-linecap:butt;stroke-linejoin:miter;stroke-opacity:1" d="M 80.8,584.267 70.1333,581.067 z" id="boundary" inkscape:connector-curvature="0" />
	<path style="fill:none;stroke:red;stroke-width:1px;stroke-linecap:butt;stroke-linejoin:miter;stroke-opacity:1" d="M 80.8,584.267 91.4667,586.4 z" id="boundary" inkscape:connector-curvature="0" />
	<path style="fill:none;stroke:red;stroke-width:1px;stroke-linecap:butt;stroke-linejoin:miter;stroke-opacity:1" d="M 91.4667,586.4 101.067,591.733 z" id="boundary" inkscape:connector-curvature="0" />
	<path style="fill:none;stroke:red;stroke-width:1px;stroke-linecap:butt;stroke-linejoin:miter;stroke-opacity:1" d="M 111.733,591.733 121.333,597.067 z" id="boundary" inkscape:connector-curvature="0" />
	<path style="fill:none;stroke:red;stroke-width:1px;stroke-linecap:butt;stroke-linejoin:miter;stroke-opacity:1" d="M 101.067,591.733 111.733,591.733 z" id="boundary" inkscape:connector-curvature="0" />
	<path style="fill:none;stroke:red;stroke-width:1px;stroke-linecap:butt;stroke-linejoin:miter;stroke-opacity:1" d="M 141.6,602.4 130.933,602.4 z" id="boundary" inkscape:connector-curvature="0" />
	<path style="fill:none;stroke:red;stroke-width:1px;stroke-linecap:butt;stroke-linejoin:miter;stroke-opacity:1" d="M 130.933,602.4 121.333,597.067 z" id="boundary" inkscape:connector-curvature="0" />
	<path style="fill:none;stroke:red;stroke-width:1px;stroke-linecap:butt;stroke-linejoin:miter;stroke-opacity:1" d="M 53.0667,692 46.6667,683.467 z" id="boundary" inkscape:connector-curvature="0" />
	<path style="fill:none;stroke:red;stroke-width:1px;stroke-linecap:butt;stroke-linejoin:miter;stroke-opacity:1" d="M 9.33333,704.8 4,695.2 z" id="boundary" inkscape:connector-curvature="0" />
	<path style="fill:none;stroke:red;stroke-width:1px;stroke-linecap:butt;stroke-linejoin:miter;stroke-opacity:1" d="M 27.4667,717.6 16.8,713.333 z" id="boundary" inkscape:connector-curvature="0" />
	<path style="fill:none;stroke:red;stroke-width:1px;stroke-linecap:butt;stroke-linejoin:miter;stroke-opacity:1" d="M 16.8,713.333 9.33333,704.8 z" id="boundary" inkscape:connector-curvature="0" />
	<path style="fill:none;stroke:red;stroke-width:1px;stroke-linecap:butt;stroke-linejoin:miter;stroke-opacity:1" d="M 73.3333,697.333 62.6667,697.333 z" id="boundary" inkscape:connector-curvature="0" />
	<path style="fill:none;stroke:red;stroke-width:1px;stroke-linecap:butt;stroke-linejoin:miter;stroke-opacity:1" d="M 62.6667,697.333 53.0667,692 z" id="boundary" inkscape:connector-curvature="0" />
	<path style="fill:none;stroke:red;stroke-width:1px;stroke-linecap:butt;stroke-linejoin:miter;stroke-opacity:1" d="M 38.1333,719.733 27.4667,717.6 z" id="boundary" inkscape:connector-curvature="0" />
	<path style="fill:none;stroke:red;stroke-width:1px;stroke-linecap:butt;stroke-linejoin:miter;stroke-opacity:1" d="M 48.8,719.733 59.4667,719.733 z" id="boundary" inkscape:connector-curvature="0" />
	<path style="fill:none;stroke:red;stroke-width:1px;stroke-linecap:butt;stroke-linejoin:miter;stroke-opacity:1" d="M 59.4667,719.733 70.1333,722.933 z" id="boundary" inkscape:connector-curvature="0" />
	<path style="fill:none;stroke:red;stroke-width:1px;stroke-linecap:butt;stroke-linejoin:miter;stroke-opacity:1" d="M 48.8,719.733 38.1333,719.733 z" id="boundary" inkscape:connector-curvature="0" />
	<path style="fill:none;stroke:red;stroke-width:1px;stroke-linecap:butt;stroke-linejoin:miter;stroke-opacity:1" d="M 70.1333,722.933 80.8,725.067 z" id="boundary" inkscape:connector-curvature="0" />
	<path style="fill:none;stroke:red;stroke-width:1px;stroke-linecap:butt;stroke-linejoin:miter;stroke-opacity:1" d="M 84,697.333 94.6667,697.333 z" id="boundary" inkscape:connector-curvature="0" />
	<path style="fill:none;stroke:red;stroke-width:1px;stroke-linecap:butt;stroke-linejoin:miter;stroke-opacity:1" d="M 116,697.333 105.333,697.333 z" id="boundary" inkscape:connector-curvature="0" />
	<path style="fill:none;stroke:red;stroke-width:1px;stroke-linecap:butt;stroke-linejoin:miter;stroke-opacity:1" d="M 105.333,697.333 94.6667,697.333 z" id="boundary" inkscape:connector-curvature="0" />
	<path style="fill:none;stroke:red;stroke-width:1px;stroke-linecap:butt;stroke-linejoin:miter;stroke-opacity:1" d="M 116,697.333 126.667,695.2 z" id="boundary" inkscape:connector-curvature="0" />
	<path style="fill:none;stroke:red;stroke-width:1px;stroke-linecap:butt;stroke-linejoin:miter;stroke-opacity:1" d="M 84,697.333 73.3333,697.333 z" id="boundary" inkscape:connector-curvature="0" />
	<path style="fill:none;stroke:red;stroke-width:1px;stroke-linecap:butt;stroke-linejoin:miter;stroke-opacity:1" d="M 91.4667,725.067 80.8,725.067 z" id="boundary" inkscape:connector-curvature="0" />
	<path style="fill:none;stroke:red;stroke-width:1px;stroke-linecap:butt;stroke-linejoin:miter;stroke-opacity:1" d="M 102.133,725.067 91.4667,725.067 z" id="boundary" inkscape:connector-curvature="0" />
	<path style="fill:none;stroke:red;stroke-width:1px;stroke-linecap:butt;stroke-linejoin:miter;stroke-opacity:1" d="M 123.467,725.067 112.8,725.067 z" id="boundary" inkscape:connector-curvature="0" />
	<path style="fill:none;stroke:red;stroke-width:1px;stroke-linecap:butt;stroke-linejoin:miter;stroke-opacity:1" d="M 134.133,725.067 123.467,725.067 z" id="boundary" inkscape:connector-curvature="0" />
	<path style="fill:none;stroke:red;stroke-width:1px;stroke-linecap:butt;stroke-linejoin:miter;stroke-opacity:1" d="M 112.8,725.067 102.133,725.067 z" id="boundary" inkscape:connector-curvature="0" />
	<path style="fill:none;stroke:red;stroke-width:1px;stroke-linecap:butt;stroke-linejoin:miter;stroke-opacity:1" d="M 126.667,695.2 137.333,692 z" id="boundary" inkscape:connector-curvature="0" />
	<path style="fill:none;stroke:red;stroke-width:1px;stroke-linecap:butt;stroke-linejoin:miter;stroke-opacity:1" d="M 151.2,607.733 141.6,602.4 z" id="boundary" inkscape:connector-curvature="0" />
	<path style="fill:none;stroke:red;stroke-width:1px;stroke-linecap:butt;stroke-linejoin:miter;stroke-opacity:1" d="M 161.867,607.733 151.2,607.733 z" id="boundary" inkscape:connector-curvature="0" />
	<path style="fill:none;stroke:red;stroke-width:1px;stroke-linecap:butt;stroke-linejoin:miter;stroke-opacity:1" d="M 182.133,613.067 171.467,613.067 z" id="boundary" inkscape:connector-curvature="0" />
	<path style="fill:none;stroke:red;stroke-width:1px;stroke-linecap:butt;stroke-linejoin:miter;stroke-opacity:1" d="M 171.467,613.067 161.867,607.733 z" id="boundary" inkscape:connector-curvature="0" />
	<path style="fill:none;stroke:red;stroke-width:1px;stroke-linecap:butt;stroke-linejoin:miter;stroke-opacity:1" d="M 137.333,692 146.933,686.667 z" id="boundary" inkscape:connector-curvature="0" />
	<path style="fill:none;stroke:red;stroke-width:1px;stroke-linecap:butt;stroke-linejoin:miter;stroke-opacity:1" d="M 167.2,681.333 157.6,686.667 z" id="boundary" inkscape:connector-curvature="0" />
	<path style="fill:none;stroke:red;stroke-width:1px;stroke-linecap:butt;stroke-linejoin:miter;stroke-opacity:1" d="M 157.6,686.667 146.933,686.667 z" id="boundary" inkscape:connector-curvature="0" />
	<path style="fill:none;stroke:red;stroke-width:1px;stroke-linecap:butt;stroke-linejoin:miter;stroke-opacity:1" d="M 175.733,672.8 167.2,681.333 z" id="boundary" inkscape:connector-curvature="0" />
	<path style="fill:none;stroke:red;stroke-width:1px;stroke-linecap:butt;stroke-linejoin:miter;stroke-opacity:1" d="M 182.133,613.067 185.333,623.733 z" id="boundary" inkscape:connector-curvature="0" />
	<path style="fill:none;stroke:red;stroke-width:1px;stroke-linecap:butt;stroke-linejoin:miter;stroke-opacity:1" d="M 185.333,634.4 185.333,645.067 z" id="boundary" inkscape:connector-curvature="0" />
	<path style="fill:none;stroke:red;stroke-width:1px;stroke-linecap:butt;stroke-linejoin:miter;stroke-opacity:1" d="M 185.333,623.733 185.333,634.4 z" id="boundary" inkscape:connector-curvature="0" />
	<path style="fill:none;stroke:red;stroke-width:1px;stroke-linecap:butt;stroke-linejoin:miter;stroke-opacity:1" d="M 184.267,665.333 185.333,645.067 z" id="boundary" inkscape:connector-curvature="0" />
	<path style="fill:none;stroke:red;stroke-width:1px;stroke-linecap:butt;stroke-linejoin:miter;stroke-opacity:1" d="M 184.267,665.333 175.733,672.8 z" id="boundary" inkscape:connector-curvature="0" />
	<path style="fill:none;stroke:red;stroke-width:1px;stroke-linecap:butt;stroke-linejoin:miter;stroke-opacity:1" d="M 354.933,698.4 344.267,698.4 z" id="boundary" inkscape:connector-curvature="0" />
	<path style="fill:none;stroke:red;stroke-width:1px;stroke-linecap:butt;stroke-linejoin:miter;stroke-opacity:1" d="M 397.6,690.933 386.933,693.067 z" id="boundary" inkscape:connector-curvature="0" />
	<path style="fill:none;stroke:red;stroke-width:1px;stroke-linecap:butt;stroke-linejoin:miter;stroke-opacity:1" d="M 376.267,696.267 386.933,693.067 z" id="boundary" inkscape:connector-curvature="0" />
	<path style="fill:none;stroke:red;stroke-width:1px;stroke-linecap:butt;stroke-linejoin:miter;stroke-opacity:1" d="M 417.867,682.4 408.267,687.733 z" id="boundary" inkscape:connector-curvature="0" />
	<path style="fill:none;stroke:red;stroke-width:1px;stroke-linecap:butt;stroke-linejoin:miter;stroke-opacity:1" d="M 408.267,687.733 397.6,690.933 z" id="boundary" inkscape:connector-curvature="0" />
	<path style="fill:none;stroke:red;stroke-width:1px;stroke-linecap:butt;stroke-linejoin:miter;stroke-opacity:1" d="M 427.467,677.067 417.867,682.4 z" id="boundary" inkscape:connector-curvature="0" />
	<path style="fill:none;stroke:red;stroke-width:1px;stroke-linecap:butt;stroke-linejoin:miter;stroke-opacity:1" d="M 196,711.2 206.667,709.067 z" id="boundary" inkscape:connector-curvature="0" />
	<path style="fill:none;stroke:red;stroke-width:1px;stroke-linecap:butt;stroke-linejoin:miter;stroke-opacity:1" d="M 216.267,703.733 226.933,703.733 z" id="boundary" inkscape:connector-curvature="0" />
	<path style="fill:none;stroke:red;stroke-width:1px;stroke-linecap:butt;stroke-linejoin:miter;stroke-opacity:1" d="M 206.667,709.067 216.267,703.733 z" id="boundary" inkscape:connector-curvature="0" />
	<path style="fill:none;stroke:red;stroke-width:1px;stroke-linecap:butt;stroke-linejoin:miter;stroke-opacity:1" d="M 237.6,703.733 226.933,703.733 z" id="boundary" inkscape:connector-curvature="0" />
	<path style="fill:none;stroke:red;stroke-width:1px;stroke-linecap:butt;stroke-linejoin:miter;stroke-opacity:1" d="M 196,711.2 185.333,714.4 z" id="boundary" inkscape:connector-curvature="0" />
	<path style="fill:none;stroke:red;stroke-width:1px;stroke-linecap:butt;stroke-linejoin:miter;stroke-opacity:1" d="M 155.467,725.067 144.8,725.067 z" id="boundary" inkscape:connector-curvature="0" />
	<path style="fill:none;stroke:red;stroke-width:1px;stroke-linecap:butt;stroke-linejoin:miter;stroke-opacity:1" d="M 175.733,719.733 165.067,719.733 z" id="boundary" inkscape:connector-curvature="0" />
	<path style="fill:none;stroke:red;stroke-width:1px;stroke-linecap:butt;stroke-linejoin:miter;stroke-opacity:1" d="M 185.333,714.4 175.733,719.733 z" id="boundary" inkscape:connector-curvature="0" />
	<path style="fill:none;stroke:red;stroke-width:1px;stroke-linecap:butt;stroke-linejoin:miter;stroke-opacity:1" d="M 155.467,725.067 165.067,719.733 z" id="boundary" inkscape:connector-curvature="0" />
	<path style="fill:none;stroke:red;stroke-width:1px;stroke-linecap:butt;stroke-linejoin:miter;stroke-opacity:1" d="M 237.6,703.733 248.267,703.733 z" id="boundary" inkscape:connector-curvature="0" />
	<path style="fill:none;stroke:red;stroke-width:1px;stroke-linecap:butt;stroke-linejoin:miter;stroke-opacity:1" d="M 248.267,703.733 258.933,703.733 z" id="boundary" inkscape:connector-curvature="0" />
	<path style="fill:none;stroke:red;stroke-width:1px;stroke-linecap:butt;stroke-linejoin:miter;stroke-opacity:1" d="M 354.933,698.4 365.6,698.4 z" id="boundary" inkscape:connector-curvature="0" />
	<path style="fill:none;stroke:red;stroke-width:1px;stroke-linecap:butt;stroke-linejoin:miter;stroke-opacity:1" d="M 269.6,703.733 258.933,703.733 z" id="boundary" inkscape:connector-curvature="0" />
	<path style="fill:none;stroke:red;stroke-width:1px;stroke-linecap:butt;stroke-linejoin:miter;stroke-opacity:1" d="M 376.267,696.267 365.6,698.4 z" id="boundary" inkscape:connector-curvature="0" />
	<path style="fill:none;stroke:red;stroke-width:1px;stroke-linecap:butt;stroke-linejoin:miter;stroke-opacity:1" d="M 322.933,703.733 333.6,701.6 z" id="boundary" inkscape:connector-curvature="0" />
	<path style="fill:none;stroke:red;stroke-width:1px;stroke-linecap:butt;stroke-linejoin:miter;stroke-opacity:1" d="M 344.267,698.4 333.6,701.6 z" id="boundary" inkscape:connector-curvature="0" />
	<path style="fill:none;stroke:red;stroke-width:1px;stroke-linecap:butt;stroke-linejoin:miter;stroke-opacity:1" d="M 269.6,703.733 280.267,703.733 z" id="boundary" inkscape:connector-curvature="0" />
	<path style="fill:none;stroke:red;stroke-width:1px;stroke-linecap:butt;stroke-linejoin:miter;stroke-opacity:1" d="M 290.933,703.733 280.267,703.733 z" id="boundary" inkscape:connector-curvature="0" />
	<path style="fill:none;stroke:red;stroke-width:1px;stroke-linecap:butt;stroke-linejoin:miter;stroke-opacity:1" d="M 301.6,703.733 312.267,703.733 z" id="boundary" inkscape:connector-curvature="0" />
	<path style="fill:none;stroke:red;stroke-width:1px;stroke-linecap:butt;stroke-linejoin:miter;stroke-opacity:1" d="M 322.933,703.733 312.267,703.733 z" id="boundary" inkscape:connector-curvature="0" />
	<path style="fill:none;stroke:red;stroke-width:1px;stroke-linecap:butt;stroke-linejoin:miter;stroke-opacity:1" d="M 301.6,703.733 290.933,703.733 z" id="boundary" inkscape:connector-curvature="0" />
	<path style="fill:none;stroke:red;stroke-width:1px;stroke-linecap:butt;stroke-linejoin:miter;stroke-opacity:1" d="M 144.8,725.067 134.133,725.067 z" id="boundary" inkscape:connector-curvature="0" />
	<path style="fill:none;stroke:red;stroke-width:1px;stroke-linecap:butt;stroke-linejoin:miter;stroke-opacity:1" d="M 440.267,69.0667 430.667,74.4 z" id="boundary" inkscape:connector-curvature="0" />
	<path style="fill:none;stroke:red;stroke-width:1px;stroke-linecap:butt;stroke-linejoin:miter;stroke-opacity:1" d="M 425.333,4 436,4 z" id="boundary" inkscape:connector-curvature="0" />
	<path style="fill:none;stroke:red;stroke-width:1px;stroke-linecap:butt;stroke-linejoin:miter;stroke-opacity:1" d="M 436,84 430.667,74.4 z" id="boundary" inkscape:connector-curvature="0" />
	<path style="fill:none;stroke:red;stroke-width:1px;stroke-linecap:butt;stroke-linejoin:miter;stroke-opacity:1" d="M 458.4,34.9333 458.4,45.6 z" id="boundary" inkscape:connector-curvature="0" />
	<path style="fill:none;stroke:red;stroke-width:1px;stroke-linecap:butt;stroke-linejoin:miter;stroke-opacity:1" d="M 446.667,86.1333 436,84 z" id="boundary" inkscape:connector-curvature="0" />
	<path style="fill:none;stroke:red;stroke-width:1px;stroke-linecap:butt;stroke-linejoin:miter;stroke-opacity:1" d="M 453.067,111.733 442.4,122.4 z" id="boundary" inkscape:connector-curvature="0" />
	<path style="fill:none;stroke:red;stroke-width:1px;stroke-linecap:butt;stroke-linejoin:miter;stroke-opacity:1" d="M 453.067,94.6667 426.4,89.3333 z" id="boundary" inkscape:connector-curvature="0" />
	<path style="fill:none;stroke:red;stroke-width:1px;stroke-linecap:butt;stroke-linejoin:miter;stroke-opacity:1" d="M 433.867,138.4 439.2,148 z" id="boundary" inkscape:connector-curvature="0" />
	<path style="fill:none;stroke:red;stroke-width:1px;stroke-linecap:butt;stroke-linejoin:miter;stroke-opacity:1" d="M 433.867,138.4 431.733,127.733 z" id="boundary" inkscape:connector-curvature="0" />
	<path style="fill:none;stroke:red;stroke-width:1px;stroke-linecap:butt;stroke-linejoin:miter;stroke-opacity:1" d="M 431.733,127.733 442.4,122.4 z" id="boundary" inkscape:connector-curvature="0" />
	<path style="fill:none;stroke:red;stroke-width:1px;stroke-linecap:butt;stroke-linejoin:miter;stroke-opacity:1" d="M 452,164 442.4,158.667 z" id="boundary" inkscape:connector-curvature="0" />
	<path style="fill:none;stroke:red;stroke-width:1px;stroke-linecap:butt;stroke-linejoin:miter;stroke-opacity:1" d="M 442.4,158.667 439.2,148 z" id="boundary" inkscape:connector-curvature="0" />
	<path style="fill:none;stroke:red;stroke-width:1px;stroke-linecap:butt;stroke-linejoin:miter;stroke-opacity:1" d="M 446.667,6.13333 453.067,14.6667 z" id="boundary" inkscape:connector-curvature="0" />
	<path style="fill:none;stroke:red;stroke-width:1px;stroke-linecap:butt;stroke-linejoin:miter;stroke-opacity:1" d="M 436,4 446.667,6.13333 z" id="boundary" inkscape:connector-curvature="0" />
	<path style="fill:none;stroke:red;stroke-width:1px;stroke-linecap:butt;stroke-linejoin:miter;stroke-opacity:1" d="M 449.867,62.6667 421.067,69.0667 z" id="boundary" inkscape:connector-curvature="0" />
	<path style="fill:none;stroke:red;stroke-width:1px;stroke-linecap:butt;stroke-linejoin:miter;stroke-opacity:1" d="M 458.4,45.6 449.867,62.6667 z" id="boundary" inkscape:connector-curvature="0" />
	<path style="fill:none;stroke:red;stroke-width:1px;stroke-linecap:butt;stroke-linejoin:miter;stroke-opacity:1" d="M 440.267,69.0667 449.867,62.6667 z" id="boundary" inkscape:connector-curvature="0" />
	<path style="fill:none;stroke:red;stroke-width:1px;stroke-linecap:butt;stroke-linejoin:miter;stroke-opacity:1" d="M 458.4,24.2667 458.4,34.9333 z" id="boundary" inkscape:connector-curvature="0" />
	<path style="fill:none;stroke:red;stroke-width:1px;stroke-linecap:butt;stroke-linejoin:miter;stroke-opacity:1" d="M 453.067,14.6667 458.4,24.2667 z" id="boundary" inkscape:connector-curvature="0" />
	<path style="fill:none;stroke:red;stroke-width:1px;stroke-linecap:butt;stroke-linejoin:miter;stroke-opacity:1" d="M 453.067,94.6667 453.067,111.733 z" id="boundary" inkscape:connector-curvature="0" />
	<path style="fill:none;stroke:red;stroke-width:1px;stroke-linecap:butt;stroke-linejoin:miter;stroke-opacity:1" d="M 453.067,94.6667 446.667,86.1333 z" id="boundary" inkscape:connector-curvature="0" />
	<path style="fill:none;stroke:red;stroke-width:1px;stroke-linecap:butt;stroke-linejoin:miter;stroke-opacity:1" d="M 482.933,158.667 472.267,158.667 z" id="boundary" inkscape:connector-curvature="0" />
	<path style="fill:none;stroke:red;stroke-width:1px;stroke-linecap:butt;stroke-linejoin:miter;stroke-opacity:1" d="M 472.267,158.667 462.667,164 z" id="boundary" inkscape:connector-curvature="0" />
	<path style="fill:none;stroke:red;stroke-width:1px;stroke-linecap:butt;stroke-linejoin:miter;stroke-opacity:1" d="M 482.933,158.667 493.6,158.667 z" id="boundary" inkscape:connector-curvature="0" />
	<path style="fill:none;stroke:red;stroke-width:1px;stroke-linecap:butt;stroke-linejoin:miter;stroke-opacity:1" d="M 514.933,158.667 504.267,158.667 z" id="boundary" inkscape:connector-curvature="0" />
	<path style="fill:none;stroke:red;stroke-width:1px;stroke-linecap:butt;stroke-linejoin:miter;stroke-opacity:1" d="M 525.6,158.667 514.933,158.667 z" id="boundary" inkscape:connector-curvature="0" />
	<path style="fill:none;stroke:red;stroke-width:1px;stroke-linecap:butt;stroke-linejoin:miter;stroke-opacity:1" d="M 504.267,158.667 493.6,158.667 z" id="boundary" inkscape:connector-curvature="0" />
	<path style="fill:none;stroke:red;stroke-width:1px;stroke-linecap:butt;stroke-linejoin:miter;stroke-opacity:1" d="M 452,164 462.667,164 z" id="boundary" inkscape:connector-curvature="0" />
	<path style="fill:none;stroke:red;stroke-width:1px;stroke-linecap:butt;stroke-linejoin:miter;stroke-opacity:1" d="M 525.6,158.667 536.267,158.667 z" id="boundary" inkscape:connector-curvature="0" />
	<path style="fill:none;stroke:red;stroke-width:1px;stroke-linecap:butt;stroke-linejoin:miter;stroke-opacity:1" d="M 546.933,158.667 536.267,158.667 z" id="boundary" inkscape:connector-curvature="0" />
	<path style="fill:none;stroke:red;stroke-width:1px;stroke-linecap:butt;stroke-linejoin:miter;stroke-opacity:1" d="M 557.6,158.667 546.933,158.667 z" id="boundary" inkscape:connector-curvature="0" />
	<path style="fill:none;stroke:red;stroke-width:1px;stroke-linecap:butt;stroke-linejoin:miter;stroke-opacity:1" d="M 568.267,158.667 578.933,158.667 z" id="boundary" inkscape:connector-curvature="0" />
	<path style="fill:none;stroke:red;stroke-width:1px;stroke-linecap:butt;stroke-linejoin:miter;stroke-opacity:1" d="M 588.533,153.333 578.933,158.667 z" id="boundary" inkscape:connector-curvature="0" />
	<path style="fill:none;stroke:red;stroke-width:1px;stroke-linecap:butt;stroke-linejoin:miter;stroke-opacity:1" d="M 598.133,158.667 608.8,158.667 z" id="boundary" inkscape:connector-curvature="0" />
	<path style="fill:none;stroke:red;stroke-width:1px;stroke-linecap:butt;stroke-linejoin:miter;stroke-opacity:1" d="M 608.8,158.667 617.333,166.133 z" id="boundary" inkscape:connector-curvature="0" />
	<path style="fill:none;stroke:red;stroke-width:1px;stroke-linecap:butt;stroke-linejoin:miter;stroke-opacity:1" d="M 598.133,158.667 588.533,153.333 z" id="boundary" inkscape:connector-curvature="0" />
	<path style="fill:none;stroke:red;stroke-width:1px;stroke-linecap:butt;stroke-linejoin:miter;stroke-opacity:1" d="M 623.733,174.667 623.733,185.333 z" id="boundary" inkscape:connector-curvature="0" />
	<path style="fill:none;stroke:red;stroke-width:1px;stroke-linecap:butt;stroke-linejoin:miter;stroke-opacity:1" d="M 617.333,166.133 623.733,174.667 z" id="boundary" inkscape:connector-curvature="0" />
	<path style="fill:none;stroke:red;stroke-width:1px;stroke-linecap:butt;stroke-linejoin:miter;stroke-opacity:1" d="M 644,201.333 633.333,201.333 z" id="boundary" inkscape:connector-curvature="0" />
	<path style="fill:none;stroke:red;stroke-width:1px;stroke-linecap:butt;stroke-linejoin:miter;stroke-opacity:1" d="M 623.733,196 623.733,185.333 z" id="boundary" inkscape:connector-curvature="0" />
	<path style="fill:none;stroke:red;stroke-width:1px;stroke-linecap:butt;stroke-linejoin:miter;stroke-opacity:1" d="M 633.333,201.333 623.733,196 z" id="boundary" inkscape:connector-curvature="0" />
	<path style="fill:none;stroke:red;stroke-width:1px;stroke-linecap:butt;stroke-linejoin:miter;stroke-opacity:1" d="M 634.4,271.733 644,266.4 z" id="boundary" inkscape:connector-curvature="0" />
	<path style="fill:none;stroke:red;stroke-width:1px;stroke-linecap:butt;stroke-linejoin:miter;stroke-opacity:1" d="M 636.533,282.4 634.4,271.733 z" id="boundary" inkscape:connector-curvature="0" />
	<path style="fill:none;stroke:red;stroke-width:1px;stroke-linecap:butt;stroke-linejoin:miter;stroke-opacity:1" d="M 557.6,158.667 568.267,158.667 z" id="boundary" inkscape:connector-curvature="0" />
	<path style="fill:none;stroke:red;stroke-width:1px;stroke-linecap:butt;stroke-linejoin:miter;stroke-opacity:1" d="M 644,201.333 654.667,201.333 z" id="boundary" inkscape:connector-curvature="0" />
	<path style="fill:none;stroke:red;stroke-width:1px;stroke-linecap:butt;stroke-linejoin:miter;stroke-opacity:1" d="M 674.933,206.667 682.4,215.2 z" id="boundary" inkscape:connector-curvature="0" />
	<path style="fill:none;stroke:red;stroke-width:1px;stroke-linecap:butt;stroke-linejoin:miter;stroke-opacity:1" d="M 674.933,206.667 665.333,201.333 z" id="boundary" inkscape:connector-curvature="0" />
	<path style="fill:none;stroke:red;stroke-width:1px;stroke-linecap:butt;stroke-linejoin:miter;stroke-opacity:1" d="M 654.667,201.333 665.333,201.333 z" id="boundary" inkscape:connector-curvature="0" />
	<path style="fill:none;stroke:red;stroke-width:1px;stroke-linecap:butt;stroke-linejoin:miter;stroke-opacity:1" d="M 647.2,286.667 636.533,282.4 z" id="boundary" inkscape:connector-curvature="0" />
	<path style="fill:none;stroke:red;stroke-width:1px;stroke-linecap:butt;stroke-linejoin:miter;stroke-opacity:1" d="M 644,266.4 654.667,266.4 z" id="boundary" inkscape:connector-curvature="0" />
	<path style="fill:none;stroke:red;stroke-width:1px;stroke-linecap:butt;stroke-linejoin:miter;stroke-opacity:1" d="M 674.933,261.067 665.333,266.4 z" id="boundary" inkscape:connector-curvature="0" />
	<path style="fill:none;stroke:red;stroke-width:1px;stroke-linecap:butt;stroke-linejoin:miter;stroke-opacity:1" d="M 665.333,266.4 654.667,266.4 z" id="boundary" inkscape:connector-curvature="0" />
	<path style="fill:none;stroke:red;stroke-width:1px;stroke-linecap:butt;stroke-linejoin:miter;stroke-opacity:1" d="M 654.667,295.2 647.2,286.667 z" id="boundary" inkscape:connector-curvature="0" />
	<path style="fill:none;stroke:red;stroke-width:1px;stroke-linecap:butt;stroke-linejoin:miter;stroke-opacity:1" d="M 682.4,250.4 674.933,261.067 z" id="boundary" inkscape:connector-curvature="0" />
	<path style="fill:none;stroke:red;stroke-width:1px;stroke-linecap:butt;stroke-linejoin:miter;stroke-opacity:1" d="M 687.733,235.467 682.4,250.4 z" id="boundary" inkscape:connector-curvature="0" />
	<path style="fill:none;stroke:red;stroke-width:1px;stroke-linecap:butt;stroke-linejoin:miter;stroke-opacity:1" d="M 682.4,215.2 687.733,224.8 z" id="boundary" inkscape:connector-curvature="0" />
	<path style="fill:none;stroke:red;stroke-width:1px;stroke-linecap:butt;stroke-linejoin:miter;stroke-opacity:1" d="M 687.733,224.8 687.733,235.467 z" id="boundary" inkscape:connector-curvature="0" />
	<path style="fill:none;stroke:red;stroke-width:1px;stroke-linecap:butt;stroke-linejoin:miter;stroke-opacity:1" d="M 959.733,272.8 949.067,276 z" id="boundary" inkscape:connector-curvature="0" />
	<path style="fill:none;stroke:red;stroke-width:1px;stroke-linecap:butt;stroke-linejoin:miter;stroke-opacity:1" d="M 959.733,272.8 970.4,270.667 z" id="boundary" inkscape:connector-curvature="0" />
	<path style="fill:none;stroke:red;stroke-width:1px;stroke-linecap:butt;stroke-linejoin:miter;stroke-opacity:1" d="M 970.4,270.667 980,276 z" id="boundary" inkscape:connector-curvature="0" />
	<path style="fill:none;stroke:red;stroke-width:1px;stroke-linecap:butt;stroke-linejoin:miter;stroke-opacity:1" d="M 939.467,281.333 929.867,286.667 z" id="boundary" inkscape:connector-curvature="0" />
	<path style="fill:none;stroke:red;stroke-width:1px;stroke-linecap:butt;stroke-linejoin:miter;stroke-opacity:1" d="M 929.867,286.667 919.2,286.667 z" id="boundary" inkscape:connector-curvature="0" />
	<path style="fill:none;stroke:red;stroke-width:1px;stroke-linecap:butt;stroke-linejoin:miter;stroke-opacity:1" d="M 949.067,276 939.467,281.333 z" id="boundary" inkscape:connector-curvature="0" />
	<path style="fill:none;stroke:red;stroke-width:1px;stroke-linecap:butt;stroke-linejoin:miter;stroke-opacity:1" d="M 919.2,286.667 909.6,292 z" id="boundary" inkscape:connector-curvature="0" />
	<path style="fill:none;stroke:red;stroke-width:1px;stroke-linecap:butt;stroke-linejoin:miter;stroke-opacity:1" d="M 909.6,292 898.933,292 z" id="boundary" inkscape:connector-curvature="0" />
	<path style="fill:none;stroke:red;stroke-width:1px;stroke-linecap:butt;stroke-linejoin:miter;stroke-opacity:1" d="M 685.6,292 696.267,292 z" id="boundary" inkscape:connector-curvature="0" />
	<path style="fill:none;stroke:red;stroke-width:1px;stroke-linecap:butt;stroke-linejoin:miter;stroke-opacity:1" d="M 676,297.333 685.6,292 z" id="boundary" inkscape:connector-curvature="0" />
	<path style="fill:none;stroke:red;stroke-width:1px;stroke-linecap:butt;stroke-linejoin:miter;stroke-opacity:1" d="M 706.933,292 717.6,292 z" id="boundary" inkscape:connector-curvature="0" />
	<path style="fill:none;stroke:red;stroke-width:1px;stroke-linecap:butt;stroke-linejoin:miter;stroke-opacity:1" d="M 728.267,292 717.6,292 z" id="boundary" inkscape:connector-curvature="0" />
	<path style="fill:none;stroke:red;stroke-width:1px;stroke-linecap:butt;stroke-linejoin:miter;stroke-opacity:1" d="M 706.933,292 696.267,292 z" id="boundary" inkscape:connector-curvature="0" />
	<path style="fill:none;stroke:red;stroke-width:1px;stroke-linecap:butt;stroke-linejoin:miter;stroke-opacity:1" d="M 738.933,292 749.6,292 z" id="boundary" inkscape:connector-curvature="0" />
	<path style="fill:none;stroke:red;stroke-width:1px;stroke-linecap:butt;stroke-linejoin:miter;stroke-opacity:1" d="M 760.267,292 770.933,292 z" id="boundary" inkscape:connector-curvature="0" />
	<path style="fill:none;stroke:red;stroke-width:1px;stroke-linecap:butt;stroke-linejoin:miter;stroke-opacity:1" d="M 781.6,292 770.933,292 z" id="boundary" inkscape:connector-curvature="0" />
	<path style="fill:none;stroke:red;stroke-width:1px;stroke-linecap:butt;stroke-linejoin:miter;stroke-opacity:1" d="M 760.267,292 749.6,292 z" id="boundary" inkscape:connector-curvature="0" />
	<path style="fill:none;stroke:red;stroke-width:1px;stroke-linecap:butt;stroke-linejoin:miter;stroke-opacity:1" d="M 738.933,292 728.267,292 z" id="boundary" inkscape:connector-curvature="0" />
	<path style="fill:none;stroke:red;stroke-width:1px;stroke-linecap:butt;stroke-linejoin:miter;stroke-opacity:1" d="M 792.267,292 802.933,292 z" id="boundary" inkscape:connector-curvature="0" />
	<path style="fill:none;stroke:red;stroke-width:1px;stroke-linecap:butt;stroke-linejoin:miter;stroke-opacity:1" d="M 813.6,292 824.267,292 z" id="boundary" inkscape:connector-curvature="0" />
	<path style="fill:none;stroke:red;stroke-width:1px;stroke-linecap:butt;stroke-linejoin:miter;stroke-opacity:1" d="M 834.933,292 824.267,292 z" id="boundary" inkscape:connector-curvature="0" />
	<path style="fill:none;stroke:red;stroke-width:1px;stroke-linecap:butt;stroke-linejoin:miter;stroke-opacity:1" d="M 813.6,292 802.933,292 z" id="boundary" inkscape:connector-curvature="0" />
	<path style="fill:none;stroke:red;stroke-width:1px;stroke-linecap:butt;stroke-linejoin:miter;stroke-opacity:1" d="M 845.6,292 856.267,292 z" id="boundary" inkscape:connector-curvature="0" />
	<path style="fill:none;stroke:red;stroke-width:1px;stroke-linecap:butt;stroke-linejoin:miter;stroke-opacity:1" d="M 866.933,292 856.267,292 z" id="boundary" inkscape:connector-curvature="0" />
	<path style="fill:none;stroke:red;stroke-width:1px;stroke-linecap:butt;stroke-linejoin:miter;stroke-opacity:1" d="M 877.6,292 888.267,292 z" id="boundary" inkscape:connector-curvature="0" />
	<path style="fill:none;stroke:red;stroke-width:1px;stroke-linecap:butt;stroke-linejoin:miter;stroke-opacity:1" d="M 898.933,292 888.267,292 z" id="boundary" inkscape:connector-curvature="0" />
	<path style="fill:none;stroke:red;stroke-width:1px;stroke-linecap:butt;stroke-linejoin:miter;stroke-opacity:1" d="M 877.6,292 866.933,292 z" id="boundary" inkscape:connector-curvature="0" />
	<path style="fill:none;stroke:red;stroke-width:1px;stroke-linecap:butt;stroke-linejoin:miter;stroke-opacity:1" d="M 845.6,292 834.933,292 z" id="boundary" inkscape:connector-curvature="0" />
	<path style="fill:none;stroke:red;stroke-width:1px;stroke-linecap:butt;stroke-linejoin:miter;stroke-opacity:1" d="M 792.267,292 781.6,292 z" id="boundary" inkscape:connector-curvature="0" />
	<path style="fill:none;stroke:red;stroke-width:1px;stroke-linecap:butt;stroke-linejoin:miter;stroke-opacity:1" d="M 980,276 988.533,282.4 z" id="boundary" inkscape:connector-curvature="0" />
	<path style="fill:none;stroke:red;stroke-width:1px;stroke-linecap:butt;stroke-linejoin:miter;stroke-opacity:1" d="M 667.467,591.733 656.8,591.733 z" id="boundary" inkscape:connector-curvature="0" />
	<path style="fill:none;stroke:red;stroke-width:1px;stroke-linecap:butt;stroke-linejoin:miter;stroke-opacity:1" d="M 656.8,591.733 646.133,591.733 z" id="boundary" inkscape:connector-curvature="0" />
	<path style="fill:none;stroke:red;stroke-width:1px;stroke-linecap:butt;stroke-linejoin:miter;stroke-opacity:1" d="M 665.333,297.333 654.667,295.2 z" id="boundary" inkscape:connector-curvature="0" />
	<path style="fill:none;stroke:red;stroke-width:1px;stroke-linecap:butt;stroke-linejoin:miter;stroke-opacity:1" d="M 676,297.333 665.333,297.333 z" id="boundary" inkscape:connector-curvature="0" />
	<path style="fill:none;stroke:red;stroke-width:1px;stroke-linecap:butt;stroke-linejoin:miter;stroke-opacity:1" d="M 636.533,597.067 646.133,591.733 z" id="boundary" inkscape:connector-curvature="0" />
	<path style="fill:none;stroke:red;stroke-width:1px;stroke-linecap:butt;stroke-linejoin:miter;stroke-opacity:1" d="M 605.6,602.4 594.933,602.4 z" id="boundary" inkscape:connector-curvature="0" />
	<path style="fill:none;stroke:red;stroke-width:1px;stroke-linecap:butt;stroke-linejoin:miter;stroke-opacity:1" d="M 667.467,591.733 678.133,591.733 z" id="boundary" inkscape:connector-curvature="0" />
	<path style="fill:none;stroke:red;stroke-width:1px;stroke-linecap:butt;stroke-linejoin:miter;stroke-opacity:1" d="M 636.533,597.067 625.867,597.067 z" id="boundary" inkscape:connector-curvature="0" />
	<path style="fill:none;stroke:red;stroke-width:1px;stroke-linecap:butt;stroke-linejoin:miter;stroke-opacity:1" d="M 678.133,591.733 688.8,591.733 z" id="boundary" inkscape:connector-curvature="0" />
	<path style="fill:none;stroke:red;stroke-width:1px;stroke-linecap:butt;stroke-linejoin:miter;stroke-opacity:1" d="M 616.267,602.4 625.867,597.067 z" id="boundary" inkscape:connector-curvature="0" />
	<path style="fill:none;stroke:red;stroke-width:1px;stroke-linecap:butt;stroke-linejoin:miter;stroke-opacity:1" d="M 719.733,453.067 719.733,463.733 z" id="boundary" inkscape:connector-curvature="0" />
	<path style="fill:none;stroke:red;stroke-width:1px;stroke-linecap:butt;stroke-linejoin:miter;stroke-opacity:1" d="M 719.733,453.067 719.733,442.4 z" id="boundary" inkscape:connector-curvature="0" />
	<path style="fill:none;stroke:red;stroke-width:1px;stroke-linecap:butt;stroke-linejoin:miter;stroke-opacity:1" d="M 719.733,442.4 730.4,437.067 z" id="boundary" inkscape:connector-curvature="0" />
	<path style="fill:none;stroke:red;stroke-width:1px;stroke-linecap:butt;stroke-linejoin:miter;stroke-opacity:1" d="M 719.733,474.4 719.733,463.733 z" id="boundary" inkscape:connector-curvature="0" />
	<path style="fill:none;stroke:red;stroke-width:1px;stroke-linecap:butt;stroke-linejoin:miter;stroke-opacity:1" d="M 719.733,485.067 719.733,474.4 z" id="boundary" inkscape:connector-curvature="0" />
	<path style="fill:none;stroke:red;stroke-width:1px;stroke-linecap:butt;stroke-linejoin:miter;stroke-opacity:1" d="M 730.4,489.333 719.733,485.067 z" id="boundary" inkscape:connector-curvature="0" />
	<path style="fill:none;stroke:red;stroke-width:1px;stroke-linecap:butt;stroke-linejoin:miter;stroke-opacity:1" d="M 699.467,591.733 688.8,591.733 z" id="boundary" inkscape:connector-curvature="0" />
	<path style="fill:none;stroke:red;stroke-width:1px;stroke-linecap:butt;stroke-linejoin:miter;stroke-opacity:1" d="M 709.067,586.4 699.467,591.733 z" id="boundary" inkscape:connector-curvature="0" />
	<path style="fill:none;stroke:red;stroke-width:1px;stroke-linecap:butt;stroke-linejoin:miter;stroke-opacity:1" d="M 719.733,586.4 709.067,586.4 z" id="boundary" inkscape:connector-curvature="0" />
	<path style="fill:none;stroke:red;stroke-width:1px;stroke-linecap:butt;stroke-linejoin:miter;stroke-opacity:1" d="M 447.733,618.4 458.4,618.4 z" id="boundary" inkscape:connector-curvature="0" />
	<path style="fill:none;stroke:red;stroke-width:1px;stroke-linecap:butt;stroke-linejoin:miter;stroke-opacity:1" d="M 469.067,618.4 479.733,618.4 z" id="boundary" inkscape:connector-curvature="0" />
	<path style="fill:none;stroke:red;stroke-width:1px;stroke-linecap:butt;stroke-linejoin:miter;stroke-opacity:1" d="M 490.4,618.4 479.733,618.4 z" id="boundary" inkscape:connector-curvature="0" />
	<path style="fill:none;stroke:red;stroke-width:1px;stroke-linecap:butt;stroke-linejoin:miter;stroke-opacity:1" d="M 469.067,618.4 458.4,618.4 z" id="boundary" inkscape:connector-curvature="0" />
	<path style="fill:none;stroke:red;stroke-width:1px;stroke-linecap:butt;stroke-linejoin:miter;stroke-opacity:1" d="M 437.067,634.4 437.067,645.067 z" id="boundary" inkscape:connector-curvature="0" />
	<path style="fill:none;stroke:red;stroke-width:1px;stroke-linecap:butt;stroke-linejoin:miter;stroke-opacity:1" d="M 437.067,623.733 437.067,634.4 z" id="boundary" inkscape:connector-curvature="0" />
	<path style="fill:none;stroke:red;stroke-width:1px;stroke-linecap:butt;stroke-linejoin:miter;stroke-opacity:1" d="M 437.067,645.067 437.067,655.733 z" id="boundary" inkscape:connector-curvature="0" />
	<path style="fill:none;stroke:red;stroke-width:1px;stroke-linecap:butt;stroke-linejoin:miter;stroke-opacity:1" d="M 437.067,655.733 436,668.533 z" id="boundary" inkscape:connector-curvature="0" />
	<path style="fill:none;stroke:red;stroke-width:1px;stroke-linecap:butt;stroke-linejoin:miter;stroke-opacity:1" d="M 436,668.533 427.467,677.067 z" id="boundary" inkscape:connector-curvature="0" />
	<path style="fill:none;stroke:red;stroke-width:1px;stroke-linecap:butt;stroke-linejoin:miter;stroke-opacity:1" d="M 437.067,623.733 447.733,618.4 z" id="boundary" inkscape:connector-curvature="0" />
	<path style="fill:none;stroke:red;stroke-width:1px;stroke-linecap:butt;stroke-linejoin:miter;stroke-opacity:1" d="M 490.4,618.4 501.067,618.4 z" id="boundary" inkscape:connector-curvature="0" />
	<path style="fill:none;stroke:red;stroke-width:1px;stroke-linecap:butt;stroke-linejoin:miter;stroke-opacity:1" d="M 542.667,613.067 532,613.067 z" id="boundary" inkscape:connector-curvature="0" />
	<path style="fill:none;stroke:red;stroke-width:1px;stroke-linecap:butt;stroke-linejoin:miter;stroke-opacity:1" d="M 616.267,602.4 605.6,602.4 z" id="boundary" inkscape:connector-curvature="0" />
	<path style="fill:none;stroke:red;stroke-width:1px;stroke-linecap:butt;stroke-linejoin:miter;stroke-opacity:1" d="M 573.6,607.733 584.267,605.6 z" id="boundary" inkscape:connector-curvature="0" />
	<path style="fill:none;stroke:red;stroke-width:1px;stroke-linecap:butt;stroke-linejoin:miter;stroke-opacity:1" d="M 564,613.067 573.6,607.733 z" id="boundary" inkscape:connector-curvature="0" />
	<path style="fill:none;stroke:red;stroke-width:1px;stroke-linecap:butt;stroke-linejoin:miter;stroke-opacity:1" d="M 594.933,602.4 584.267,605.6 z" id="boundary" inkscape:connector-curvature="0" />
	<path style="fill:none;stroke:red;stroke-width:1px;stroke-linecap:butt;stroke-linejoin:miter;stroke-opacity:1" d="M 501.067,618.4 511.733,618.4 z" id="boundary" inkscape:connector-curvature="0" />
	<path style="fill:none;stroke:red;stroke-width:1px;stroke-linecap:butt;stroke-linejoin:miter;stroke-opacity:1" d="M 532,613.067 522.4,618.4 z" id="boundary" inkscape:connector-curvature="0" />
	<path style="fill:none;stroke:red;stroke-width:1px;stroke-linecap:butt;stroke-linejoin:miter;stroke-opacity:1" d="M 522.4,618.4 511.733,618.4 z" id="boundary" inkscape:connector-curvature="0" />
	<path style="fill:none;stroke:red;stroke-width:1px;stroke-linecap:butt;stroke-linejoin:miter;stroke-opacity:1" d="M 542.667,613.067 553.333,613.067 z" id="boundary" inkscape:connector-curvature="0" />
	<path style="fill:none;stroke:red;stroke-width:1px;stroke-linecap:butt;stroke-linejoin:miter;stroke-opacity:1" d="M 564,613.067 553.333,613.067 z" id="boundary" inkscape:connector-curvature="0" />
	<path style="fill:none;stroke:red;stroke-width:1px;stroke-linecap:butt;stroke-linejoin:miter;stroke-opacity:1" d="M 719.733,586.4 730.4,586.4 z" id="boundary" inkscape:connector-curvature="0" />
	<path style="fill:none;stroke:red;stroke-width:1px;stroke-linecap:butt;stroke-linejoin:miter;stroke-opacity:1" d="M 856.267,362.4 866.933,360.267 z" id="boundary" inkscape:connector-curvature="0" />
	<path style="fill:none;stroke:red;stroke-width:1px;stroke-linecap:butt;stroke-linejoin:miter;stroke-opacity:1" d="M 846.667,367.733 856.267,362.4 z" id="boundary" inkscape:connector-curvature="0" />
	<path style="fill:none;stroke:red;stroke-width:1px;stroke-linecap:butt;stroke-linejoin:miter;stroke-opacity:1" d="M 877.6,354.933 888.267,349.6 z" id="boundary" inkscape:connector-curvature="0" />
	<path style="fill:none;stroke:red;stroke-width:1px;stroke-linecap:butt;stroke-linejoin:miter;stroke-opacity:1" d="M 888.267,349.6 898.933,346.4 z" id="boundary" inkscape:connector-curvature="0" />
	<path style="fill:none;stroke:red;stroke-width:1px;stroke-linecap:butt;stroke-linejoin:miter;stroke-opacity:1" d="M 866.933,360.267 877.6,354.933 z" id="boundary" inkscape:connector-curvature="0" />
	<path style="fill:none;stroke:red;stroke-width:1px;stroke-linecap:butt;stroke-linejoin:miter;stroke-opacity:1" d="M 807.2,388 817.867,383.733 z" id="boundary" inkscape:connector-curvature="0" />
	<path style="fill:none;stroke:red;stroke-width:1px;stroke-linecap:butt;stroke-linejoin:miter;stroke-opacity:1" d="M 827.467,378.4 837.067,373.067 z" id="boundary" inkscape:connector-curvature="0" />
	<path style="fill:none;stroke:red;stroke-width:1px;stroke-linecap:butt;stroke-linejoin:miter;stroke-opacity:1" d="M 827.467,378.4 817.867,383.733 z" id="boundary" inkscape:connector-curvature="0" />
	<path style="fill:none;stroke:red;stroke-width:1px;stroke-linecap:butt;stroke-linejoin:miter;stroke-opacity:1" d="M 837.067,373.067 846.667,367.733 z" id="boundary" inkscape:connector-curvature="0" />
	<path style="fill:none;stroke:red;stroke-width:1px;stroke-linecap:butt;stroke-linejoin:miter;stroke-opacity:1" d="M 807.2,388 796.533,393.333 z" id="boundary" inkscape:connector-curvature="0" />
	<path style="fill:none;stroke:red;stroke-width:1px;stroke-linecap:butt;stroke-linejoin:miter;stroke-opacity:1" d="M 948,321.867 937.333,325.067 z" id="boundary" inkscape:connector-curvature="0" />
	<path style="fill:none;stroke:red;stroke-width:1px;stroke-linecap:butt;stroke-linejoin:miter;stroke-opacity:1" d="M 968.267,314.4 958.667,319.733 z" id="boundary" inkscape:connector-curvature="0" />
	<path style="fill:none;stroke:red;stroke-width:1px;stroke-linecap:butt;stroke-linejoin:miter;stroke-opacity:1" d="M 987.467,303.733 977.867,309.067 z" id="boundary" inkscape:connector-curvature="0" />
	<path style="fill:none;stroke:red;stroke-width:1px;stroke-linecap:butt;stroke-linejoin:miter;stroke-opacity:1" d="M 977.867,309.067 968.267,314.4 z" id="boundary" inkscape:connector-curvature="0" />
	<path style="fill:none;stroke:red;stroke-width:1px;stroke-linecap:butt;stroke-linejoin:miter;stroke-opacity:1" d="M 987.467,303.733 996,295.2 z" id="boundary" inkscape:connector-curvature="0" />
	<path style="fill:none;stroke:red;stroke-width:1px;stroke-linecap:butt;stroke-linejoin:miter;stroke-opacity:1" d="M 988.533,282.4 996,295.2 z" id="boundary" inkscape:connector-curvature="0" />
	<path style="fill:none;stroke:red;stroke-width:1px;stroke-linecap:butt;stroke-linejoin:miter;stroke-opacity:1" d="M 908.533,341.067 918.133,335.733 z" id="boundary" inkscape:connector-curvature="0" />
	<path style="fill:none;stroke:red;stroke-width:1px;stroke-linecap:butt;stroke-linejoin:miter;stroke-opacity:1" d="M 927.733,330.4 918.133,335.733 z" id="boundary" inkscape:connector-curvature="0" />
	<path style="fill:none;stroke:red;stroke-width:1px;stroke-linecap:butt;stroke-linejoin:miter;stroke-opacity:1" d="M 948,321.867 958.667,319.733 z" id="boundary" inkscape:connector-curvature="0" />
	<path style="fill:none;stroke:red;stroke-width:1px;stroke-linecap:butt;stroke-linejoin:miter;stroke-opacity:1" d="M 927.733,330.4 937.333,325.067 z" id="boundary" inkscape:connector-curvature="0" />
	<path style="fill:none;stroke:red;stroke-width:1px;stroke-linecap:butt;stroke-linejoin:miter;stroke-opacity:1" d="M 898.933,346.4 908.533,341.067 z" id="boundary" inkscape:connector-curvature="0" />
	<path style="fill:none;stroke:red;stroke-width:1px;stroke-linecap:butt;stroke-linejoin:miter;stroke-opacity:1" d="M 740,484 730.4,489.333 z" id="boundary" inkscape:connector-curvature="0" />
	<path style="fill:none;stroke:red;stroke-width:1px;stroke-linecap:butt;stroke-linejoin:miter;stroke-opacity:1" d="M 730.4,437.067 740,431.733 z" id="boundary" inkscape:connector-curvature="0" />
	<path style="fill:none;stroke:red;stroke-width:1px;stroke-linecap:butt;stroke-linejoin:miter;stroke-opacity:1" d="M 748.533,490.4 740,484 z" id="boundary" inkscape:connector-curvature="0" />
	<path style="fill:none;stroke:red;stroke-width:1px;stroke-linecap:butt;stroke-linejoin:miter;stroke-opacity:1" d="M 740,431.733 748.533,425.333 z" id="boundary" inkscape:connector-curvature="0" />
	<path style="fill:none;stroke:red;stroke-width:1px;stroke-linecap:butt;stroke-linejoin:miter;stroke-opacity:1" d="M 757.067,415.733 748.533,425.333 z" id="boundary" inkscape:connector-curvature="0" />
	<path style="fill:none;stroke:red;stroke-width:1px;stroke-linecap:butt;stroke-linejoin:miter;stroke-opacity:1" d="M 730.4,586.4 740,581.067 z" id="boundary" inkscape:connector-curvature="0" />
	<path style="fill:none;stroke:red;stroke-width:1px;stroke-linecap:butt;stroke-linejoin:miter;stroke-opacity:1" d="M 740,581.067 750.667,581.067 z" id="boundary" inkscape:connector-curvature="0" />
	<path style="fill:none;stroke:red;stroke-width:1px;stroke-linecap:butt;stroke-linejoin:miter;stroke-opacity:1" d="M 759.2,574.667 750.667,581.067 z" id="boundary" inkscape:connector-curvature="0" />
	<path style="fill:none;stroke:red;stroke-width:1px;stroke-linecap:butt;stroke-linejoin:miter;stroke-opacity:1" d="M 757.067,497.867 748.533,490.4 z" id="boundary" inkscape:connector-curvature="0" />
	<path style="fill:none;stroke:red;stroke-width:1px;stroke-linecap:butt;stroke-linejoin:miter;stroke-opacity:1" d="M 757.067,497.867 757.067,508.533 z" id="boundary" inkscape:connector-curvature="0" />
	<path style="fill:none;stroke:red;stroke-width:1px;stroke-linecap:butt;stroke-linejoin:miter;stroke-opacity:1" d="M 757.067,415.733 767.733,410.4 z" id="boundary" inkscape:connector-curvature="0" />
	<path style="fill:none;stroke:red;stroke-width:1px;stroke-linecap:butt;stroke-linejoin:miter;stroke-opacity:1" d="M 796.533,393.333 788,401.867 z" id="boundary" inkscape:connector-curvature="0" />
	<path style="fill:none;stroke:red;stroke-width:1px;stroke-linecap:butt;stroke-linejoin:miter;stroke-opacity:1" d="M 788,401.867 777.333,405.067 z" id="boundary" inkscape:connector-curvature="0" />
	<path style="fill:none;stroke:red;stroke-width:1px;stroke-linecap:butt;stroke-linejoin:miter;stroke-opacity:1" d="M 762.4,518.133 757.067,508.533 z" id="boundary" inkscape:connector-curvature="0" />
	<path style="fill:none;stroke:red;stroke-width:1px;stroke-linecap:butt;stroke-linejoin:miter;stroke-opacity:1" d="M 767.733,410.4 777.333,405.067 z" id="boundary" inkscape:connector-curvature="0" />
	<path style="fill:none;stroke:red;stroke-width:1px;stroke-linecap:butt;stroke-linejoin:miter;stroke-opacity:1" d="M 762.4,518.133 762.4,528.8 z" id="boundary" inkscape:connector-curvature="0" />
	<path style="fill:none;stroke:red;stroke-width:1px;stroke-linecap:butt;stroke-linejoin:miter;stroke-opacity:1" d="M 768.8,537.333 762.4,528.8 z" id="boundary" inkscape:connector-curvature="0" />
	<path style="fill:none;stroke:red;stroke-width:1px;stroke-linecap:butt;stroke-linejoin:miter;stroke-opacity:1" d="M 767.733,559.733 759.2,574.667 z" id="boundary" inkscape:connector-curvature="0" />
	<path style="fill:none;stroke:red;stroke-width:1px;stroke-linecap:butt;stroke-linejoin:miter;stroke-opacity:1" d="M 768.8,537.333 773.067,548 z" id="boundary" inkscape:connector-curvature="0" />
	<path style="fill:none;stroke:red;stroke-width:1px;stroke-linecap:butt;stroke-linejoin:miter;stroke-opacity:1" d="M 773.067,548 767.733,559.733 z" id="boundary" inkscape:connector-curvature="0" />
	<circle cx="4" cy="695.2" r="4" fill="#0" id="circle0"/>
	<circle cx="9.33333" cy="684.533" r="4" fill="#0" id="circle1"/>
	<circle cx="9.33333" cy="704.8" r="4" fill="#0" id="circle2"/>
	<circle cx="14.6667" cy="673.867" r="4" fill="#0" id="circle3"/>
	<circle cx="16.8" cy="713.333" r="4" fill="#0" id="circle4"/>
	<circle cx="23.2" cy="665.333" r="4" fill="#0" id="circle5"/>
	<circle cx="25.3333" cy="433.867" r="4" fill="#0" id="circle6"/>
	<circle cx="25.3333" cy="444.533" r="4" fill="#0" id="circle7"/>
	<circle cx="25.3333" cy="455.2" r="4" fill="#0" id="circle8"/>
	<circle cx="25.3333" cy="465.867" r="4" fill="#0" id="circle9"/>
	<circle cx="25.3333" cy="476.533" r="4" fill="#0" id="circle10"/>
	<circle cx="25.3333" cy="487.2" r="4" fill="#0" id="circle11"/>
	<circle cx="25.3333" cy="497.867" r="4" fill="#0" id="circle12"/>
	<circle cx="25.3333" cy="508.533" r="4" fill="#0" id="circle13"/>
	<circle cx="25.3333" cy="519.2" r="4" fill="#0" id="circle14"/>
	<circle cx="25.3333" cy="529.867" r="4" fill="#0" id="circle15"/>
	<circle cx="25.3333" cy="540.533" r="4" fill="#0" id="circle16"/>
	<circle cx="27.4667" cy="717.6" r="4" fill="#0" id="circle17"/>
	<circle cx="30.6667" cy="407.2" r="4" fill="#0" id="circle18"/>
	<circle cx="30.6667" cy="417.867" r="4" fill="#0" id="circle19"/>
	<circle cx="30.6667" cy="550.133" r="4" fill="#0" id="circle20"/>
	<circle cx="33.8667" cy="665.333" r="4" fill="#0" id="circle21"/>
	<circle cx="36" cy="380.533" r="4" fill="#0" id="circle22"/>
	<circle cx="36" cy="391.2" r="4" fill="#0" id="circle23"/>
	<circle cx="36" cy="559.733" r="4" fill="#0" id="circle24"/>
	<circle cx="38.1333" cy="719.733" r="4" fill="#0" id="circle25"/>
	<circle cx="39.2" cy="570.4" r="4" fill="#0" id="circle26"/>
	<circle cx="41.3333" cy="364.533" r="4" fill="#0" id="circle27"/>
	<circle cx="41.3333" cy="673.867" r="4" fill="#0" id="circle28"/>
	<circle cx="46.6667" cy="353.867" r="4" fill="#0" id="circle29"/>
	<circle cx="46.6667" cy="683.467" r="4" fill="#0" id="circle30"/>
	<circle cx="48.8" cy="719.733" r="4" fill="#0" id="circle31"/>
	<circle cx="49.8667" cy="574.667" r="4" fill="#0" id="circle32"/>
	<circle cx="52" cy="337.867" r="4" fill="#0" id="circle33"/>
	<circle cx="53.0667" cy="692" r="4" fill="#0" id="circle34"/>
	<circle cx="57.3333" cy="327.2" r="4" fill="#0" id="circle35"/>
	<circle cx="59.4667" cy="719.733" r="4" fill="#0" id="circle36"/>
	<circle cx="60.5333" cy="575.733" r="4" fill="#0" id="circle37"/>
	<circle cx="62.6667" cy="316.533" r="4" fill="#0" id="circle38"/>
	<circle cx="62.6667" cy="697.333" r="4" fill="#0" id="circle39"/>
	<circle cx="68" cy="305.867" r="4" fill="#0" id="circle40"/>
	<circle cx="70.1333" cy="581.067" r="4" fill="#0" id="circle41"/>
	<circle cx="70.1333" cy="722.933" r="4" fill="#0" id="circle42"/>
	<circle cx="73.3333" cy="295.2" r="4" fill="#0" id="circle43"/>
	<circle cx="73.3333" cy="697.333" r="4" fill="#0" id="circle44"/>
	<circle cx="80.8" cy="584.267" r="4" fill="#0" id="circle45"/>
	<circle cx="80.8" cy="725.067" r="4" fill="#0" id="circle46"/>
	<circle cx="81.8667" cy="286.667" r="4" fill="#0" id="circle47"/>
	<circle cx="84" cy="697.333" r="4" fill="#0" id="circle48"/>
	<circle cx="90.4" cy="278.133" r="4" fill="#0" id="circle49"/>
	<circle cx="91.4667" cy="586.4" r="4" fill="#0" id="circle50"/>
	<circle cx="91.4667" cy="725.067" r="4" fill="#0" id="circle51"/>
	<circle cx="94.6667" cy="697.333" r="4" fill="#0" id="circle52"/>
	<circle cx="98.9333" cy="270.667" r="4" fill="#0" id="circle53"/>
	<circle cx="101.067" cy="591.733" r="4" fill="#0" id="circle54"/>
	<circle cx="102.133" cy="725.067" r="4" fill="#0" id="circle55"/>
	<circle cx="105.333" cy="697.333" r="4" fill="#0" id="circle56"/>
	<circle cx="106.4" cy="262.133" r="4" fill="#0" id="circle57"/>
	<circle cx="111.733" cy="591.733" r="4" fill="#0" id="circle58"/>
	<circle cx="112.8" cy="725.067" r="4" fill="#0" id="circle59"/>
	<circle cx="116" cy="697.333" r="4" fill="#0" id="circle60"/>
	<circle cx="117.067" cy="256.8" r="4" fill="#0" id="circle61"/>
	<circle cx="121.333" cy="597.067" r="4" fill="#0" id="circle62"/>
	<circle cx="123.467" cy="725.067" r="4" fill="#0" id="circle63"/>
	<circle cx="125.6" cy="249.333" r="4" fill="#0" id="circle64"/>
	<circle cx="126.667" cy="695.2" r="4" fill="#0" id="circle65"/>
	<circle cx="130.933" cy="602.4" r="4" fill="#0" id="circle66"/>
	<circle cx="133.067" cy="240.8" r="4" fill="#0" id="circle67"/>
	<circle cx="134.133" cy="725.067" r="4" fill="#0" id="circle68"/>
	<circle cx="137.333" cy="692" r="4" fill="#0" id="circle69"/>
	<circle cx="141.6" cy="602.4" r="4" fill="#0" id="circle70"/>
	<circle cx="143.733" cy="235.467" r="4" fill="#0" id="circle71"/>
	<circle cx="144.8" cy="725.067" r="4" fill="#0" id="circle72"/>
	<circle cx="146.933" cy="686.667" r="4" fill="#0" id="circle73"/>
	<circle cx="151.2" cy="607.733" r="4" fill="#0" id="circle74"/>
	<circle cx="152.267" cy="228" r="4" fill="#0" id="circle75"/>
	<circle cx="155.467" cy="725.067" r="4" fill="#0" id="circle76"/>
	<circle cx="157.6" cy="686.667" r="4" fill="#0" id="circle77"/>
	<circle cx="161.867" cy="222.667" r="4" fill="#0" id="circle78"/>
	<circle cx="161.867" cy="607.733" r="4" fill="#0" id="circle79"/>
	<circle cx="165.067" cy="719.733" r="4" fill="#0" id="circle80"/>
	<circle cx="167.2" cy="681.333" r="4" fill="#0" id="circle81"/>
	<circle cx="170.4" cy="214.133" r="4" fill="#0" id="circle82"/>
	<circle cx="171.467" cy="613.067" r="4" fill="#0" id="circle83"/>
	<circle cx="175.733" cy="672.8" r="4" fill="#0" id="circle84"/>
	<circle cx="175.733" cy="719.733" r="4" fill="#0" id="circle85"/>
	<circle cx="178.933" cy="206.667" r="4" fill="#0" id="circle86"/>
	<circle cx="182.133" cy="613.067" r="4" fill="#0" id="circle87"/>
	<circle cx="184.267" cy="665.333" r="4" fill="#0" id="circle88"/>
	<circle cx="185.333" cy="623.733" r="4" fill="#0" id="circle89"/>
	<circle cx="185.333" cy="634.4" r="4" fill="#0" id="circle90"/>
	<circle cx="185.333" cy="645.067" r="4" fill="#0" id="circle91"/>
	<circle cx="185.333" cy="714.4" r="4" fill="#0" id="circle92"/>
	<circle cx="188.533" cy="201.333" r="4" fill="#0" id="circle93"/>
	<circle cx="196" cy="711.2" r="4" fill="#0" id="circle94"/>
	<circle cx="197.067" cy="192.8" r="4" fill="#0" id="circle95"/>
	<circle cx="206.667" cy="709.067" r="4" fill="#0" id="circle96"/>
	<circle cx="207.733" cy="187.467" r="4" fill="#0" id="circle97"/>
	<circle cx="216.267" cy="703.733" r="4" fill="#0" id="circle98"/>
	<circle cx="218.4" cy="185.333" r="4" fill="#0" id="circle99"/>
	<circle cx="226.933" cy="703.733" r="4" fill="#0" id="circle100"/>
	<circle cx="228" cy="180" r="4" fill="#0" id="circle101"/>
	<circle cx="237.6" cy="703.733" r="4" fill="#0" id="circle102"/>
	<circle cx="238.667" cy="180" r="4" fill="#0" id="circle103"/>
	<circle cx="248.267" cy="703.733" r="4" fill="#0" id="circle104"/>
	<circle cx="249.333" cy="180" r="4" fill="#0" id="circle105"/>
	<circle cx="258.933" cy="703.733" r="4" fill="#0" id="circle106"/>
	<circle cx="260" cy="180" r="4" fill="#0" id="circle107"/>
	<circle cx="269.6" cy="703.733" r="4" fill="#0" id="circle108"/>
	<circle cx="270.667" cy="180" r="4" fill="#0" id="circle109"/>
	<circle cx="280.267" cy="703.733" r="4" fill="#0" id="circle110"/>
	<circle cx="281.333" cy="180" r="4" fill="#0" id="circle111"/>
	<circle cx="290.933" cy="703.733" r="4" fill="#0" id="circle112"/>
	<circle cx="292" cy="180" r="4" fill="#0" id="circle113"/>
	<circle cx="301.6" cy="703.733" r="4" fill="#0" id="circle114"/>
	<circle cx="302.667" cy="180" r="4" fill="#0" id="circle115"/>
	<circle cx="312.267" cy="703.733" r="4" fill="#0" id="circle116"/>
	<circle cx="313.333" cy="180" r="4" fill="#0" id="circle117"/>
	<circle cx="318.667" cy="49.8667" r="4" fill="#0" id="circle118"/>
	<circle cx="322.933" cy="703.733" r="4" fill="#0" id="circle119"/>
	<circle cx="324" cy="39.2" r="4" fill="#0" id="circle120"/>
	<circle cx="324" cy="180" r="4" fill="#0" id="circle121"/>
	<circle cx="327.2" cy="57.3333" r="4" fill="#0" id="circle122"/>
	<circle cx="332.533" cy="30.6667" r="4" fill="#0" id="circle123"/>
	<circle cx="333.6" cy="174.667" r="4" fill="#0" id="circle124"/>
	<circle cx="333.6" cy="701.6" r="4" fill="#0" id="circle125"/>
	<circle cx="335.733" cy="63.7333" r="4" fill="#0" id="circle126"/>
	<circle cx="343.2" cy="25.3333" r="4" fill="#0" id="circle127"/>
	<circle cx="344.267" cy="174.667" r="4" fill="#0" id="circle128"/>
	<circle cx="344.267" cy="698.4" r="4" fill="#0" id="circle129"/>
	<circle cx="346.4" cy="63.7333" r="4" fill="#0" id="circle130"/>
	<circle cx="353.867" cy="25.3333" r="4" fill="#0" id="circle131"/>
	<circle cx="353.867" cy="169.333" r="4" fill="#0" id="circle132"/>
	<circle cx="354.933" cy="698.4" r="4" fill="#0" id="circle133"/>
	<circle cx="357.067" cy="63.7333" r="4" fill="#0" id="circle134"/>
	<circle cx="363.467" cy="20" r="4" fill="#0" id="circle135"/>
	<circle cx="364.533" cy="169.333" r="4" fill="#0" id="circle136"/>
	<circle cx="365.6" cy="698.4" r="4" fill="#0" id="circle137"/>
	<circle cx="366.667" cy="108.533" r="4" fill="#0" id="circle138"/>
	<circle cx="367.733" cy="63.7333" r="4" fill="#0" id="circle139"/>
	<circle cx="373.067" cy="14.6667" r="4" fill="#0" id="circle140"/>
	<circle cx="375.2" cy="100" r="4" fill="#0" id="circle141"/>
	<circle cx="375.2" cy="116" r="4" fill="#0" id="circle142"/>
	<circle cx="375.2" cy="164" r="4" fill="#0" id="circle143"/>
	<circle cx="376.267" cy="696.267" r="4" fill="#0" id="circle144"/>
	<circle cx="377.333" cy="69.0667" r="4" fill="#0" id="circle145"/>
	<circle cx="377.333" cy="79.7333" r="4" fill="#0" id="circle146"/>
	<circle cx="382.667" cy="9.33333" r="4" fill="#0" id="circle147"/>
	<circle cx="383.733" cy="122.4" r="4" fill="#0" id="circle148"/>
	<circle cx="385.867" cy="164" r="4" fill="#0" id="circle149"/>
	<circle cx="386.933" cy="693.067" r="4" fill="#0" id="circle150"/>
	<circle cx="393.333" cy="7.2" r="4" fill="#0" id="circle151"/>
	<circle cx="393.333" cy="127.733" r="4" fill="#0" id="circle152"/>
	<circle cx="393.333" cy="138.4" r="4" fill="#0" id="circle153"/>
	<circle cx="393.333" cy="149.067" r="4" fill="#0" id="circle154"/>
	<circle cx="397.6" cy="690.933" r="4" fill="#0" id="circle155"/>
	<circle cx="404" cy="4" r="4" fill="#0" id="circle156"/>
	<circle cx="408.267" cy="687.733" r="4" fill="#0" id="circle157"/>
	<circle cx="414.667" cy="4" r="4" fill="#0" id="circle158"/>
	<circle cx="417.867" cy="682.4" r="4" fill="#0" id="circle159"/>
	<circle cx="421.067" cy="69.0667" r="4" fill="#0" id="circle160"/>
	<circle cx="421.067" cy="79.7333" r="4" fill="#0" id="circle161"/>
	<circle cx="425.333" cy="4" r="4" fill="#0" id="circle162"/>
	<circle cx="426.4" cy="89.3333" r="4" fill="#0" id="circle163"/>
	<circle cx="427.467" cy="677.067" r="4" fill="#0" id="circle164"/>
	<circle cx="430.667" cy="74.4" r="4" fill="#0" id="circle165"/>
	<circle cx="431.733" cy="127.733" r="4" fill="#0" id="circle166"/>
	<circle cx="433.867" cy="138.4" r="4" fill="#0" id="circle167"/>
	<circle cx="436" cy="4" r="4" fill="#0" id="circle168"/>
	<circle cx="436" cy="84" r="4" fill="#0" id="circle169"/>
	<circle cx="436" cy="668.533" r="4" fill="#0" id="circle170"/>
	<circle cx="437.067" cy="623.733" r="4" fill="#0" id="circle171"/>
	<circle cx="437.067" cy="634.4" r="4" fill="#0" id="circle172"/>
	<circle cx="437.067" cy="645.067" r="4" fill="#0" id="circle173"/>
	<circle cx="437.067" cy="655.733" r="4" fill="#0" id="circle174"/>
	<circle cx="439.2" cy="148" r="4" fill="#0" id="circle175"/>
	<circle cx="440.267" cy="69.0667" r="4" fill="#0" id="circle176"/>
	<circle cx="442.4" cy="122.4" r="4" fill="#0" id="circle177"/>
	<circle cx="442.4" cy="158.667" r="4" fill="#0" id="circle178"/>
	<circle cx="446.667" cy="6.13333" r="4" fill="#0" id="circle179"/>
	<circle cx="446.667" cy="86.1333" r="4" fill="#0" id="circle180"/>
	<circle cx="447.733" cy="618.4" r="4" fill="#0" id="circle181"/>
	<circle cx="449.867" cy="62.6667" r="4" fill="#0" id="circle182"/>
	<circle cx="452" cy="164" r="4" fill="#0" id="circle183"/>
	<circle cx="453.067" cy="14.6667" r="4" fill="#0" id="circle184"/>
	<circle cx="453.067" cy="94.6667" r="4" fill="#0" id="circle185"/>
	<circle cx="453.067" cy="111.733" r="4" fill="#0" id="circle186"/>
	<circle cx="458.4" cy="24.2667" r="4" fill="#0" id="circle187"/>
	<circle cx="458.4" cy="34.9333" r="4" fill="#0" id="circle188"/>
	<circle cx="458.4" cy="45.6" r="4" fill="#0" id="circle189"/>
	<circle cx="458.4" cy="618.4" r="4" fill="#0" id="circle190"/>
	<circle cx="462.667" cy="164" r="4" fill="#0" id="circle191"/>
	<circle cx="469.067" cy="618.4" r="4" fill="#0" id="circle192"/>
	<circle cx="472.267" cy="158.667" r="4" fill="#0" id="circle193"/>
	<circle cx="479.733" cy="618.4" r="4" fill="#0" id="circle194"/>
	<circle cx="482.933" cy="158.667" r="4" fill="#0" id="circle195"/>
	<circle cx="490.4" cy="618.4" r="4" fill="#0" id="circle196"/>
	<circle cx="493.6" cy="158.667" r="4" fill="#0" id="circle197"/>
	<circle cx="501.067" cy="618.4" r="4" fill="#0" id="circle198"/>
	<circle cx="504.267" cy="158.667" r="4" fill="#0" id="circle199"/>
	<circle cx="511.733" cy="618.4" r="4" fill="#0" id="circle200"/>
	<circle cx="514.933" cy="158.667" r="4" fill="#0" id="circle201"/>
	<circle cx="522.4" cy="618.4" r="4" fill="#0" id="circle202"/>
	<circle cx="525.6" cy="158.667" r="4" fill="#0" id="circle203"/>
	<circle cx="532" cy="613.067" r="4" fill="#0" id="circle204"/>
	<circle cx="536.267" cy="158.667" r="4" fill="#0" id="circle205"/>
	<circle cx="542.667" cy="613.067" r="4" fill="#0" id="circle206"/>
	<circle cx="546.933" cy="158.667" r="4" fill="#0" id="circle207"/>
	<circle cx="553.333" cy="613.067" r="4" fill="#0" id="circle208"/>
	<circle cx="557.6" cy="158.667" r="4" fill="#0" id="circle209"/>
	<circle cx="564" cy="613.067" r="4" fill="#0" id="circle210"/>
	<circle cx="568.267" cy="158.667" r="4" fill="#0" id="circle211"/>
	<circle cx="573.6" cy="607.733" r="4" fill="#0" id="circle212"/>
	<circle cx="578.933" cy="158.667" r="4" fill="#0" id="circle213"/>
	<circle cx="584.267" cy="605.6" r="4" fill="#0" id="circle214"/>
	<circle cx="588.533" cy="153.333" r="4" fill="#0" id="circle215"/>
	<circle cx="594.933" cy="602.4" r="4" fill="#0" id="circle216"/>
	<circle cx="598.133" cy="158.667" r="4" fill="#0" id="circle217"/>
	<circle cx="605.6" cy="602.4" r="4" fill="#0" id="circle218"/>
	<circle cx="608.8" cy="158.667" r="4" fill="#0" id="circle219"/>
	<circle cx="616.267" cy="602.4" r="4" fill="#0" id="circle220"/>
	<circle cx="617.333" cy="166.133" r="4" fill="#0" id="circle221"/>
	<circle cx="623.733" cy="174.667" r="4" fill="#0" id="circle222"/>
	<circle cx="623.733" cy="185.333" r="4" fill="#0" id="circle223"/>
	<circle cx="623.733" cy="196" r="4" fill="#0" id="circle224"/>
	<circle cx="625.867" cy="597.067" r="4" fill="#0" id="circle225"/>
	<circle cx="633.333" cy="201.333" r="4" fill="#0" id="circle226"/>
	<circle cx="634.4" cy="271.733" r="4" fill="#0" id="circle227"/>
	<circle cx="636.533" cy="282.4" r="4" fill="#0" id="circle228"/>
	<circle cx="636.533" cy="597.067" r="4" fill="#0" id="circle229"/>
	<circle cx="644" cy="201.333" r="4" fill="#0" id="circle230"/>
	<circle cx="644" cy="266.4" r="4" fill="#0" id="circle231"/>
	<circle cx="646.133" cy="591.733" r="4" fill="#0" id="circle232"/>
	<circle cx="647.2" cy="286.667" r="4" fill="#0" id="circle233"/>
	<circle cx="654.667" cy="201.333" r="4" fill="#0" id="circle234"/>
	<circle cx="654.667" cy="266.4" r="4" fill="#0" id="circle235"/>
	<circle cx="654.667" cy="295.2" r="4" fill="#0" id="circle236"/>
	<circle cx="656.8" cy="591.733" r="4" fill="#0" id="circle237"/>
	<circle cx="665.333" cy="201.333" r="4" fill="#0" id="circle238"/>
	<circle cx="665.333" cy="266.4" r="4" fill="#0" id="circle239"/>
	<circle cx="665.333" cy="297.333" r="4" fill="#0" id="circle240"/>
	<circle cx="667.467" cy="591.733" r="4" fill="#0" id="circle241"/>
	<circle cx="674.933" cy="206.667" r="4" fill="#0" id="circle242"/>
	<circle cx="674.933" cy="261.067" r="4" fill="#0" id="circle243"/>
	<circle cx="676" cy="297.333" r="4" fill="#0" id="circle244"/>
	<circle cx="678.133" cy="591.733" r="4" fill="#0" id="circle245"/>
	<circle cx="682.4" cy="215.2" r="4" fill="#0" id="circle246"/>
	<circle cx="682.4" cy="250.4" r="4" fill="#0" id="circle247"/>
	<circle cx="685.6" cy="292" r="4" fill="#0" id="circle248"/>
	<circle cx="687.733" cy="224.8" r="4" fill="#0" id="circle249"/>
	<circle cx="687.733" cy="235.467" r="4" fill="#0" id="circle250"/>
	<circle cx="688.8" cy="591.733" r="4" fill="#0" id="circle251"/>
	<circle cx="696.267" cy="292" r="4" fill="#0" id="circle252"/>
	<circle cx="699.467" cy="591.733" r="4" fill="#0" id="circle253"/>
	<circle cx="706.933" cy="292" r="4" fill="#0" id="circle254"/>
	<circle cx="709.067" cy="586.4" r="4" fill="#0" id="circle255"/>
	<circle cx="717.6" cy="292" r="4" fill="#0" id="circle256"/>
	<circle cx="719.733" cy="442.4" r="4" fill="#0" id="circle257"/>
	<circle cx="719.733" cy="453.067" r="4" fill="#0" id="circle258"/>
	<circle cx="719.733" cy="463.733" r="4" fill="#0" id="circle259"/>
	<circle cx="719.733" cy="474.4" r="4" fill="#0" id="circle260"/>
	<circle cx="719.733" cy="485.067" r="4" fill="#0" id="circle261"/>
	<circle cx="719.733" cy="586.4" r="4" fill="#0" id="circle262"/>
	<circle cx="728.267" cy="292" r="4" fill="#0" id="circle263"/>
	<circle cx="730.4" cy="437.067" r="4" fill="#0" id="circle264"/>
	<circle cx="730.4" cy="489.333" r="4" fill="#0" id="circle265"/>
	<circle cx="730.4" cy="586.4" r="4" fill="#0" id="circle266"/>
	<circle cx="738.933" cy="292" r="4" fill="#0" id="circle267"/>
	<circle cx="740" cy="431.733" r="4" fill="#0" id="circle268"/>
	<circle cx="740" cy="484" r="4" fill="#0" id="circle269"/>
	<circle cx="740" cy="581.067" r="4" fill="#0" id="circle270"/>
	<circle cx="748.533" cy="425.333" r="4" fill="#0" id="circle271"/>
	<circle cx="748.533" cy="490.4" r="4" fill="#0" id="circle272"/>
	<circle cx="749.6" cy="292" r="4" fill="#0" id="circle273"/>
	<circle cx="750.667" cy="581.067" r="4" fill="#0" id="circle274"/>
	<circle cx="757.067" cy="415.733" r="4" fill="#0" id="circle275"/>
	<circle cx="757.067" cy="497.867" r="4" fill="#0" id="circle276"/>
	<circle cx="757.067" cy="508.533" r="4" fill="#0" id="circle277"/>
	<circle cx="759.2" cy="574.667" r="4" fill="#0" id="circle278"/>
	<circle cx="760.267" cy="292" r="4" fill="#0" id="circle279"/>
	<circle cx="762.4" cy="518.133" r="4" fill="#0" id="circle280"/>
	<circle cx="762.4" cy="528.8" r="4" fill="#0" id="circle281"/>
	<circle cx="767.733" cy="410.4" r="4" fill="#0" id="circle282"/>
	<circle cx="767.733" cy="559.733" r="4" fill="#0" id="circle283"/>
	<circle cx="768.8" cy="537.333" r="4" fill="#0" id="circle284"/>
	<circle cx="770.933" cy="292" r="4" fill="#0" id="circle285"/>
	<circle cx="773.067" cy="548" r="4" fill="#0" id="circle286"/>
	<circle cx="777.333" cy="405.067" r="4" fill="#0" id="circle287"/>
	<circle cx="781.6" cy="292" r="4" fill="#0" id="circle288"/>
	<circle cx="788" cy="401.867" r="4" fill="#0" id="circle289"/>
	<circle cx="792.267" cy="292" r="4" fill="#0" id="circle290"/>
	<circle cx="796.533" cy="393.333" r="4" fill="#0" id="circle291"/>
	<circle cx="802.933" cy="292" r="4" fill="#0" id="circle292"/>
	<circle cx="807.2" cy="388" r="4" fill="#0" id="circle293"/>
	<circle cx="813.6" cy="292" r="4" fill="#0" id="circle294"/>
	<circle cx="817.867" cy="383.733" r="4" fill="#0" id="circle295"/>
	<circle cx="824.267" cy="292" r="4" fill="#0" id="circle296"/>
	<circle cx="827.467" cy="378.4" r="4" fill="#0" id="circle297"/>
	<circle cx="834.933" cy="292" r="4" fill="#0" id="circle298"/>
	<circle cx="837.067" cy="373.067" r="4" fill="#0" id="circle299"/>
	<circle cx="845.6" cy="292" r="4" fill="#0" id="circle300"/>
	<circle cx="846.667" cy="367.733" r="4" fill="#0" id="circle301"/>
	<circle cx="856.267" cy="292" r="4" fill="#0" id="circle302"/>
	<circle cx="856.267" cy="362.4" r="4" fill="#0" id="circle303"/>
	<circle cx="866.933" cy="292" r="4" fill="#0" id="circle304"/>
	<circle cx="866.933" cy="360.267" r="4" fill="#0" id="circle305"/>
	<circle cx="877.6" cy="292" r="4" fill="#0" id="circle306"/>
	<circle cx="877.6" cy="354.933" r="4" fill="#0" id="circle307"/>
	<circle cx="888.267" cy="292" r="4" fill="#0" id="circle308"/>
	<circle cx="888.267" cy="349.6" r="4" fill="#0" id="circle309"/>
	<circle cx="898.933" cy="292" r="4" fill="#0" id="circle310"/>
	<circle cx="898.933" cy="346.4" r="4" fill="#0" id="circle311"/>
	<circle cx="908.533" cy="341.067" r="4" fill="#0" id="circle312"/>
	<circle cx="909.6" cy="292" r="4" fill="#0" id="circle313"/>
	<circle cx="918.133" cy="335.733" r="4" fill="#0" id="circle314"/>
	<circle cx="919.2" cy="286.667" r="4" fill="#0" id="circle315"/>
	<circle cx="927.733" cy="330.4" r="4" fill="#0" id="circle316"/>
	<circle cx="929.867" cy="286.667" r="4" fill="#0" id="circle317"/>
	<circle cx="937.333" cy="325.067" r="4" fill="#0" id="circle318"/>
	<circle cx="939.467" cy="281.333" r="4" fill="#0" id="circle319"/>
	<circle cx="948" cy="321.867" r="4" fill="#0" id="circle320"/>
	<circle cx="949.067" cy="276" r="4" fill="#0" id="circle321"/>
	<circle cx="958.667" cy="319.733" r="4" fill="#0" id="circle322"/>
	<circle cx="959.733" cy="272.8" r="4" fill="#0" id="circle323"/>
	<circle cx="968.267" cy="314.4" r="4" fill="#0" id="circle324"/>
	<circle cx="970.4" cy="270.667" r="4" fill="#0" id="circle325"/>
	<circle cx="977.867" cy="309.067" r="4" fill="#0" id="circle326"/>
	<circle cx="980" cy="276" r="4" fill="#0" id="circle327"/>
	<circle cx="987.467" cy="303.733" r="4" fill="#0" id="circle328"/>
	<circle cx="988.533" cy="282.4" r="4" fill="#0" id="circle329"/>
	<circle cx="996" cy="295.2" r="4" fill="#0" id="circle330"/>
	</g>
</svg>