<?xml version="1.0" encoding="UTF-8" standalone="no"?>
<!-- Created with CurveBenchmark -->
<svg
	xmlns:dc="http://purl.org/dc/elements/1.1/"
	xmlns:cc="http://creativecommons.org/ns#"
	xmlns:rdf="http://www.w3.org/1999/02/22-rdf-syntax-ns#"
	xmlns:svg="http://www.w3.org/2000/svg"
	xmlns="http://www.w3.org/2000/svg"
	xmlns:sodipodi="http://sodipodi.sourceforge.net/DTD/sodipodi-0.dtd"
	xmlns:inkscape="http://www.inkscape.org/namespaces/inkscape"
	width="1000"
	height="1000"
	id="svg2"
	version="1.1"
	sodipodi:docname="manifold/nncrust-fish30.png.txt">
<defs
	id="defs4" />
<metadata
	id="metadata7">
	<rdf:RDF>
		<cc:Work
			rdf:about="">
			<dc:format>image/svg+xml</dc:format>
			<dc:type
				rdf:resource="http://purl.org/dc/dcmitype/StillImage" />
			<dc:title></dc:title>
		</cc:Work>
	</rdf:RDF>
</metadata>
<g
	inkscape:label="Layer 1"
	inkscape:groupmode="layer"
	id="layer1">
	<path style="fill:none;stroke:red;stroke-width:1px;stroke-linecap:butt;stroke-linejoin:miter;stroke-opacity:1" d="M 4,52.4416 4,31.38 z" id="boundary" inkscape:connector-curvature="0" />
	<path style="fill:none;stroke:red;stroke-width:1px;stroke-linecap:butt;stroke-linejoin:miter;stroke-opacity:1" d="M 4,52.4416 14.5308,71.397 z" id="boundary" inkscape:connector-curvature="0" />
	<path style="fill:none;stroke:red;stroke-width:1px;stroke-linecap:butt;stroke-linejoin:miter;stroke-opacity:1" d="M 14.5308,71.397 14.5308,92.4586 z" id="boundary" inkscape:connector-curvature="0" />
	<path style="fill:none;stroke:red;stroke-width:1px;stroke-linecap:butt;stroke-linejoin:miter;stroke-opacity:1" d="M 4,31.38 4,10.3185 z" id="boundary" inkscape:connector-curvature="0" />
	<path style="fill:none;stroke:red;stroke-width:1px;stroke-linecap:butt;stroke-linejoin:miter;stroke-opacity:1" d="M 4,10.3185 25.0616,4 z" id="boundary" inkscape:connector-curvature="0" />
	<path style="fill:none;stroke:red;stroke-width:1px;stroke-linecap:butt;stroke-linejoin:miter;stroke-opacity:1" d="M 46.1231,4 65.0786,14.5308 z" id="boundary" inkscape:connector-curvature="0" />
	<path style="fill:none;stroke:red;stroke-width:1px;stroke-linecap:butt;stroke-linejoin:miter;stroke-opacity:1" d="M 65.0786,14.5308 84.034,25.0616 z" id="boundary" inkscape:connector-curvature="0" />
	<path style="fill:none;stroke:red;stroke-width:1px;stroke-linecap:butt;stroke-linejoin:miter;stroke-opacity:1" d="M 102.989,35.5924 84.034,25.0616 z" id="boundary" inkscape:connector-curvature="0" />
	<path style="fill:none;stroke:red;stroke-width:1px;stroke-linecap:butt;stroke-linejoin:miter;stroke-opacity:1" d="M 25.0616,4 46.1231,4 z" id="boundary" inkscape:connector-curvature="0" />
	<path style="fill:none;stroke:red;stroke-width:1px;stroke-linecap:butt;stroke-linejoin:miter;stroke-opacity:1" d="M 14.5308,92.4586 25.0616,111.414 z" id="boundary" inkscape:connector-curvature="0" />
	<path style="fill:none;stroke:red;stroke-width:1px;stroke-linecap:butt;stroke-linejoin:miter;stroke-opacity:1" d="M 35.5924,130.369 46.1231,149.325 z" id="boundary" inkscape:connector-curvature="0" />
	<path style="fill:none;stroke:red;stroke-width:1px;stroke-linecap:butt;stroke-linejoin:miter;stroke-opacity:1" d="M 56.6539,168.28 46.1231,149.325 z" id="boundary" inkscape:connector-curvature="0" />
	<path style="fill:none;stroke:red;stroke-width:1px;stroke-linecap:butt;stroke-linejoin:miter;stroke-opacity:1" d="M 56.6539,168.28 56.6539,189.342 z" id="boundary" inkscape:connector-curvature="0" />
	<path style="fill:none;stroke:red;stroke-width:1px;stroke-linecap:butt;stroke-linejoin:miter;stroke-opacity:1" d="M 35.5924,130.369 25.0616,111.414 z" id="boundary" inkscape:connector-curvature="0" />
	<path style="fill:none;stroke:red;stroke-width:1px;stroke-linecap:butt;stroke-linejoin:miter;stroke-opacity:1" d="M 56.6539,189.342 67.1847,208.297 z" id="boundary" inkscape:connector-curvature="0" />
	<path style="fill:none;stroke:red;stroke-width:1px;stroke-linecap:butt;stroke-linejoin:miter;stroke-opacity:1" d="M 77.7155,227.253 88.2463,246.208 z" id="boundary" inkscape:connector-curvature="0" />
	<path style="fill:none;stroke:red;stroke-width:1px;stroke-linecap:butt;stroke-linejoin:miter;stroke-opacity:1" d="M 88.2463,246.208 98.7771,265.163 z" id="boundary" inkscape:connector-curvature="0" />
	<path style="fill:none;stroke:red;stroke-width:1px;stroke-linecap:butt;stroke-linejoin:miter;stroke-opacity:1" d="M 77.7155,227.253 67.1847,208.297 z" id="boundary" inkscape:connector-curvature="0" />
	<path style="fill:none;stroke:red;stroke-width:1px;stroke-linecap:butt;stroke-linejoin:miter;stroke-opacity:1" d="M 102.989,35.5924 121.945,46.1231 z" id="boundary" inkscape:connector-curvature="0" />
	<path style="fill:none;stroke:red;stroke-width:1px;stroke-linecap:butt;stroke-linejoin:miter;stroke-opacity:1" d="M 140.9,56.6539 121.945,46.1231 z" id="boundary" inkscape:connector-curvature="0" />
	<path style="fill:none;stroke:red;stroke-width:1px;stroke-linecap:butt;stroke-linejoin:miter;stroke-opacity:1" d="M 161.962,60.8662 140.9,56.6539 z" id="boundary" inkscape:connector-curvature="0" />
	<path style="fill:none;stroke:red;stroke-width:1px;stroke-linecap:butt;stroke-linejoin:miter;stroke-opacity:1" d="M 180.917,71.397 161.962,60.8662 z" id="boundary" inkscape:connector-curvature="0" />
	<path style="fill:none;stroke:red;stroke-width:1px;stroke-linecap:butt;stroke-linejoin:miter;stroke-opacity:1" d="M 180.917,71.397 195.66,88.2463 z" id="boundary" inkscape:connector-curvature="0" />
	<path style="fill:none;stroke:red;stroke-width:1px;stroke-linecap:butt;stroke-linejoin:miter;stroke-opacity:1" d="M 195.66,88.2463 216.722,94.5648 z" id="boundary" inkscape:connector-curvature="0" />
	<path style="fill:none;stroke:red;stroke-width:1px;stroke-linecap:butt;stroke-linejoin:miter;stroke-opacity:1" d="M 216.722,94.5648 235.677,105.096 z" id="boundary" inkscape:connector-curvature="0" />
	<path style="fill:none;stroke:red;stroke-width:1px;stroke-linecap:butt;stroke-linejoin:miter;stroke-opacity:1" d="M 252.527,119.839 267.27,136.688 z" id="boundary" inkscape:connector-curvature="0" />
	<path style="fill:none;stroke:red;stroke-width:1px;stroke-linecap:butt;stroke-linejoin:miter;stroke-opacity:1" d="M 252.527,119.839 235.677,105.096 z" id="boundary" inkscape:connector-curvature="0" />
	<path style="fill:none;stroke:red;stroke-width:1px;stroke-linecap:butt;stroke-linejoin:miter;stroke-opacity:1" d="M 288.331,145.113 267.27,136.688 z" id="boundary" inkscape:connector-curvature="0" />
	<path style="fill:none;stroke:red;stroke-width:1px;stroke-linecap:butt;stroke-linejoin:miter;stroke-opacity:1" d="M 109.308,284.119 98.7771,265.163 z" id="boundary" inkscape:connector-curvature="0" />
	<path style="fill:none;stroke:red;stroke-width:1px;stroke-linecap:butt;stroke-linejoin:miter;stroke-opacity:1" d="M 288.331,145.113 300.968,161.962 z" id="boundary" inkscape:connector-curvature="0" />
	<path style="fill:none;stroke:red;stroke-width:1px;stroke-linecap:butt;stroke-linejoin:miter;stroke-opacity:1" d="M 317.817,174.599 300.968,161.962 z" id="boundary" inkscape:connector-curvature="0" />
	<path style="fill:none;stroke:red;stroke-width:1px;stroke-linecap:butt;stroke-linejoin:miter;stroke-opacity:1" d="M 349.41,206.191 332.561,191.448 z" id="boundary" inkscape:connector-curvature="0" />
	<path style="fill:none;stroke:red;stroke-width:1px;stroke-linecap:butt;stroke-linejoin:miter;stroke-opacity:1" d="M 332.561,191.448 317.817,174.599 z" id="boundary" inkscape:connector-curvature="0" />
	<path style="fill:none;stroke:red;stroke-width:1px;stroke-linecap:butt;stroke-linejoin:miter;stroke-opacity:1" d="M 515.796,267.27 494.735,267.27 z" id="boundary" inkscape:connector-curvature="0" />
	<path style="fill:none;stroke:red;stroke-width:1px;stroke-linecap:butt;stroke-linejoin:miter;stroke-opacity:1" d="M 364.153,223.04 381.002,237.783 z" id="boundary" inkscape:connector-curvature="0" />
	<path style="fill:none;stroke:red;stroke-width:1px;stroke-linecap:butt;stroke-linejoin:miter;stroke-opacity:1" d="M 395.745,254.633 381.002,237.783 z" id="boundary" inkscape:connector-curvature="0" />
	<path style="fill:none;stroke:red;stroke-width:1px;stroke-linecap:butt;stroke-linejoin:miter;stroke-opacity:1" d="M 364.153,223.04 349.41,206.191 z" id="boundary" inkscape:connector-curvature="0" />
	<path style="fill:none;stroke:red;stroke-width:1px;stroke-linecap:butt;stroke-linejoin:miter;stroke-opacity:1" d="M 473.673,267.27 494.735,267.27 z" id="boundary" inkscape:connector-curvature="0" />
	<path style="fill:none;stroke:red;stroke-width:1px;stroke-linecap:butt;stroke-linejoin:miter;stroke-opacity:1" d="M 454.718,277.8 473.673,267.27 z" id="boundary" inkscape:connector-curvature="0" />
	<path style="fill:none;stroke:red;stroke-width:1px;stroke-linecap:butt;stroke-linejoin:miter;stroke-opacity:1" d="M 412.594,269.376 395.745,254.633 z" id="boundary" inkscape:connector-curvature="0" />
	<path style="fill:none;stroke:red;stroke-width:1px;stroke-linecap:butt;stroke-linejoin:miter;stroke-opacity:1" d="M 109.308,284.119 119.839,303.074 z" id="boundary" inkscape:connector-curvature="0" />
	<path style="fill:none;stroke:red;stroke-width:1px;stroke-linecap:butt;stroke-linejoin:miter;stroke-opacity:1" d="M 130.369,322.03 149.325,332.561 z" id="boundary" inkscape:connector-curvature="0" />
	<path style="fill:none;stroke:red;stroke-width:1px;stroke-linecap:butt;stroke-linejoin:miter;stroke-opacity:1" d="M 149.325,332.561 161.962,349.41 z" id="boundary" inkscape:connector-curvature="0" />
	<path style="fill:none;stroke:red;stroke-width:1px;stroke-linecap:butt;stroke-linejoin:miter;stroke-opacity:1" d="M 130.369,322.03 119.839,303.074 z" id="boundary" inkscape:connector-curvature="0" />
	<path style="fill:none;stroke:red;stroke-width:1px;stroke-linecap:butt;stroke-linejoin:miter;stroke-opacity:1" d="M 161.962,349.41 172.493,368.365 z" id="boundary" inkscape:connector-curvature="0" />
	<path style="fill:none;stroke:red;stroke-width:1px;stroke-linecap:butt;stroke-linejoin:miter;stroke-opacity:1" d="M 183.023,387.321 197.766,404.17 z" id="boundary" inkscape:connector-curvature="0" />
	<path style="fill:none;stroke:red;stroke-width:1px;stroke-linecap:butt;stroke-linejoin:miter;stroke-opacity:1" d="M 197.766,404.17 208.297,423.125 z" id="boundary" inkscape:connector-curvature="0" />
	<path style="fill:none;stroke:red;stroke-width:1px;stroke-linecap:butt;stroke-linejoin:miter;stroke-opacity:1" d="M 183.023,387.321 172.493,368.365 z" id="boundary" inkscape:connector-curvature="0" />
	<path style="fill:none;stroke:red;stroke-width:1px;stroke-linecap:butt;stroke-linejoin:miter;stroke-opacity:1" d="M 225.146,437.868 208.297,423.125 z" id="boundary" inkscape:connector-curvature="0" />
	<path style="fill:none;stroke:red;stroke-width:1px;stroke-linecap:butt;stroke-linejoin:miter;stroke-opacity:1" d="M 237.783,454.718 225.146,437.868 z" id="boundary" inkscape:connector-curvature="0" />
	<path style="fill:none;stroke:red;stroke-width:1px;stroke-linecap:butt;stroke-linejoin:miter;stroke-opacity:1" d="M 254.633,469.461 237.783,454.718 z" id="boundary" inkscape:connector-curvature="0" />
	<path style="fill:none;stroke:red;stroke-width:1px;stroke-linecap:butt;stroke-linejoin:miter;stroke-opacity:1" d="M 235.677,610.573 235.677,589.512 z" id="boundary" inkscape:connector-curvature="0" />
	<path style="fill:none;stroke:red;stroke-width:1px;stroke-linecap:butt;stroke-linejoin:miter;stroke-opacity:1" d="M 252.527,625.316 235.677,610.573 z" id="boundary" inkscape:connector-curvature="0" />
	<path style="fill:none;stroke:red;stroke-width:1px;stroke-linecap:butt;stroke-linejoin:miter;stroke-opacity:1" d="M 246.208,568.45 235.677,589.512 z" id="boundary" inkscape:connector-curvature="0" />
	<path style="fill:none;stroke:red;stroke-width:1px;stroke-linecap:butt;stroke-linejoin:miter;stroke-opacity:1" d="M 256.739,547.389 246.208,568.45 z" id="boundary" inkscape:connector-curvature="0" />
	<path style="fill:none;stroke:red;stroke-width:1px;stroke-linecap:butt;stroke-linejoin:miter;stroke-opacity:1" d="M 267.27,526.327 256.739,547.389 z" id="boundary" inkscape:connector-curvature="0" />
	<path style="fill:none;stroke:red;stroke-width:1px;stroke-linecap:butt;stroke-linejoin:miter;stroke-opacity:1" d="M 254.633,469.461 269.376,486.31 z" id="boundary" inkscape:connector-curvature="0" />
	<path style="fill:none;stroke:red;stroke-width:1px;stroke-linecap:butt;stroke-linejoin:miter;stroke-opacity:1" d="M 260.951,646.378 252.527,625.316 z" id="boundary" inkscape:connector-curvature="0" />
	<path style="fill:none;stroke:red;stroke-width:1px;stroke-linecap:butt;stroke-linejoin:miter;stroke-opacity:1" d="M 267.27,526.327 343.091,564.238 z" id="boundary" inkscape:connector-curvature="0" />
	<path style="fill:none;stroke:red;stroke-width:1px;stroke-linecap:butt;stroke-linejoin:miter;stroke-opacity:1" d="M 267.27,526.327 277.8,507.372 z" id="boundary" inkscape:connector-curvature="0" />
	<path style="fill:none;stroke:red;stroke-width:1px;stroke-linecap:butt;stroke-linejoin:miter;stroke-opacity:1" d="M 277.8,507.372 269.376,486.31 z" id="boundary" inkscape:connector-curvature="0" />
	<path style="fill:none;stroke:red;stroke-width:1px;stroke-linecap:butt;stroke-linejoin:miter;stroke-opacity:1" d="M 347.304,585.299 368.365,583.193 z" id="boundary" inkscape:connector-curvature="0" />
	<path style="fill:none;stroke:red;stroke-width:1px;stroke-linecap:butt;stroke-linejoin:miter;stroke-opacity:1" d="M 353.622,606.361 347.304,585.299 z" id="boundary" inkscape:connector-curvature="0" />
	<path style="fill:none;stroke:red;stroke-width:1px;stroke-linecap:butt;stroke-linejoin:miter;stroke-opacity:1" d="M 347.304,585.299 343.091,564.238 z" id="boundary" inkscape:connector-curvature="0" />
	<path style="fill:none;stroke:red;stroke-width:1px;stroke-linecap:butt;stroke-linejoin:miter;stroke-opacity:1" d="M 353.622,606.361 336.773,635.847 z" id="boundary" inkscape:connector-curvature="0" />
	<path style="fill:none;stroke:red;stroke-width:1px;stroke-linecap:butt;stroke-linejoin:miter;stroke-opacity:1" d="M 433.656,277.8 412.594,269.376 z" id="boundary" inkscape:connector-curvature="0" />
	<path style="fill:none;stroke:red;stroke-width:1px;stroke-linecap:butt;stroke-linejoin:miter;stroke-opacity:1" d="M 383.108,600.042 368.365,583.193 z" id="boundary" inkscape:connector-curvature="0" />
	<path style="fill:none;stroke:red;stroke-width:1px;stroke-linecap:butt;stroke-linejoin:miter;stroke-opacity:1" d="M 383.108,600.042 353.622,606.361 z" id="boundary" inkscape:connector-curvature="0" />
	<path style="fill:none;stroke:red;stroke-width:1px;stroke-linecap:butt;stroke-linejoin:miter;stroke-opacity:1" d="M 454.718,277.8 433.656,277.8 z" id="boundary" inkscape:connector-curvature="0" />
	<path style="fill:none;stroke:red;stroke-width:1px;stroke-linecap:butt;stroke-linejoin:miter;stroke-opacity:1" d="M 383.108,600.042 399.958,614.786 z" id="boundary" inkscape:connector-curvature="0" />
	<path style="fill:none;stroke:red;stroke-width:1px;stroke-linecap:butt;stroke-linejoin:miter;stroke-opacity:1" d="M 319.924,648.484 336.773,635.847 z" id="boundary" inkscape:connector-curvature="0" />
	<path style="fill:none;stroke:red;stroke-width:1px;stroke-linecap:butt;stroke-linejoin:miter;stroke-opacity:1" d="M 277.8,659.015 298.862,652.696 z" id="boundary" inkscape:connector-curvature="0" />
	<path style="fill:none;stroke:red;stroke-width:1px;stroke-linecap:butt;stroke-linejoin:miter;stroke-opacity:1" d="M 277.8,659.015 260.951,646.378 z" id="boundary" inkscape:connector-curvature="0" />
	<path style="fill:none;stroke:red;stroke-width:1px;stroke-linecap:butt;stroke-linejoin:miter;stroke-opacity:1" d="M 319.924,648.484 298.862,652.696 z" id="boundary" inkscape:connector-curvature="0" />
	<path style="fill:none;stroke:red;stroke-width:1px;stroke-linecap:butt;stroke-linejoin:miter;stroke-opacity:1" d="M 399.958,614.786 418.913,625.316 z" id="boundary" inkscape:connector-curvature="0" />
	<path style="fill:none;stroke:red;stroke-width:1px;stroke-linecap:butt;stroke-linejoin:miter;stroke-opacity:1" d="M 435.762,637.953 448.399,654.803 z" id="boundary" inkscape:connector-curvature="0" />
	<path style="fill:none;stroke:red;stroke-width:1px;stroke-linecap:butt;stroke-linejoin:miter;stroke-opacity:1" d="M 454.718,277.8 511.584,395.745 z" id="boundary" inkscape:connector-curvature="0" />
	<path style="fill:none;stroke:red;stroke-width:1px;stroke-linecap:butt;stroke-linejoin:miter;stroke-opacity:1" d="M 484.204,680.076 465.248,669.546 z" id="boundary" inkscape:connector-curvature="0" />
	<path style="fill:none;stroke:red;stroke-width:1px;stroke-linecap:butt;stroke-linejoin:miter;stroke-opacity:1" d="M 465.248,669.546 448.399,654.803 z" id="boundary" inkscape:connector-curvature="0" />
	<path style="fill:none;stroke:red;stroke-width:1px;stroke-linecap:butt;stroke-linejoin:miter;stroke-opacity:1" d="M 435.762,637.953 418.913,625.316 z" id="boundary" inkscape:connector-curvature="0" />
	<path style="fill:none;stroke:red;stroke-width:1px;stroke-linecap:butt;stroke-linejoin:miter;stroke-opacity:1" d="M 536.858,267.27 515.796,267.27 z" id="boundary" inkscape:connector-curvature="0" />
	<path style="fill:none;stroke:red;stroke-width:1px;stroke-linecap:butt;stroke-linejoin:miter;stroke-opacity:1" d="M 511.584,395.745 532.645,395.745 z" id="boundary" inkscape:connector-curvature="0" />
	<path style="fill:none;stroke:red;stroke-width:1px;stroke-linecap:butt;stroke-linejoin:miter;stroke-opacity:1" d="M 515.796,416.807 511.584,395.745 z" id="boundary" inkscape:connector-curvature="0" />
	<path style="fill:none;stroke:red;stroke-width:1px;stroke-linecap:butt;stroke-linejoin:miter;stroke-opacity:1" d="M 543.176,374.684 532.645,395.745 z" id="boundary" inkscape:connector-curvature="0" />
	<path style="fill:none;stroke:red;stroke-width:1px;stroke-linecap:butt;stroke-linejoin:miter;stroke-opacity:1" d="M 553.707,300.968 543.176,332.561 z" id="boundary" inkscape:connector-curvature="0" />
	<path style="fill:none;stroke:red;stroke-width:1px;stroke-linecap:butt;stroke-linejoin:miter;stroke-opacity:1" d="M 543.176,332.561 543.176,353.622 z" id="boundary" inkscape:connector-curvature="0" />
	<path style="fill:none;stroke:red;stroke-width:1px;stroke-linecap:butt;stroke-linejoin:miter;stroke-opacity:1" d="M 543.176,374.684 543.176,353.622 z" id="boundary" inkscape:connector-curvature="0" />
	<path style="fill:none;stroke:red;stroke-width:1px;stroke-linecap:butt;stroke-linejoin:miter;stroke-opacity:1" d="M 536.858,267.27 557.919,267.27 z" id="boundary" inkscape:connector-curvature="0" />
	<path style="fill:none;stroke:red;stroke-width:1px;stroke-linecap:butt;stroke-linejoin:miter;stroke-opacity:1" d="M 557.919,267.27 553.707,300.968 z" id="boundary" inkscape:connector-curvature="0" />
	<path style="fill:none;stroke:red;stroke-width:1px;stroke-linecap:butt;stroke-linejoin:miter;stroke-opacity:1" d="M 498.947,717.987 498.947,696.926 z" id="boundary" inkscape:connector-curvature="0" />
	<path style="fill:none;stroke:red;stroke-width:1px;stroke-linecap:butt;stroke-linejoin:miter;stroke-opacity:1" d="M 498.947,717.987 498.947,739.049 z" id="boundary" inkscape:connector-curvature="0" />
	<path style="fill:none;stroke:red;stroke-width:1px;stroke-linecap:butt;stroke-linejoin:miter;stroke-opacity:1" d="M 498.947,760.11 498.947,739.049 z" id="boundary" inkscape:connector-curvature="0" />
	<path style="fill:none;stroke:red;stroke-width:1px;stroke-linecap:butt;stroke-linejoin:miter;stroke-opacity:1" d="M 543.176,450.505 553.707,469.461 z" id="boundary" inkscape:connector-curvature="0" />
	<path style="fill:none;stroke:red;stroke-width:1px;stroke-linecap:butt;stroke-linejoin:miter;stroke-opacity:1" d="M 484.204,680.076 498.947,696.926 z" id="boundary" inkscape:connector-curvature="0" />
	<path style="fill:none;stroke:red;stroke-width:1px;stroke-linecap:butt;stroke-linejoin:miter;stroke-opacity:1" d="M 532.645,431.55 543.176,450.505 z" id="boundary" inkscape:connector-curvature="0" />
	<path style="fill:none;stroke:red;stroke-width:1px;stroke-linecap:butt;stroke-linejoin:miter;stroke-opacity:1" d="M 515.796,416.807 532.645,431.55 z" id="boundary" inkscape:connector-curvature="0" />
	<path style="fill:none;stroke:red;stroke-width:1px;stroke-linecap:butt;stroke-linejoin:miter;stroke-opacity:1" d="M 581.087,501.053 564.238,488.416 z" id="boundary" inkscape:connector-curvature="0" />
	<path style="fill:none;stroke:red;stroke-width:1px;stroke-linecap:butt;stroke-linejoin:miter;stroke-opacity:1" d="M 564.238,488.416 553.707,469.461 z" id="boundary" inkscape:connector-curvature="0" />
	<path style="fill:none;stroke:red;stroke-width:1px;stroke-linecap:butt;stroke-linejoin:miter;stroke-opacity:1" d="M 581.087,501.053 589.512,522.115 z" id="boundary" inkscape:connector-curvature="0" />
	<path style="fill:none;stroke:red;stroke-width:1px;stroke-linecap:butt;stroke-linejoin:miter;stroke-opacity:1" d="M 557.919,267.27 606.361,536.858 z" id="boundary" inkscape:connector-curvature="0" />
	<path style="fill:none;stroke:red;stroke-width:1px;stroke-linecap:butt;stroke-linejoin:miter;stroke-opacity:1" d="M 589.512,522.115 606.361,536.858 z" id="boundary" inkscape:connector-curvature="0" />
	<path style="fill:none;stroke:red;stroke-width:1px;stroke-linecap:butt;stroke-linejoin:miter;stroke-opacity:1" d="M 606.361,536.858 614.786,557.919 z" id="boundary" inkscape:connector-curvature="0" />
	<path style="fill:none;stroke:red;stroke-width:1px;stroke-linecap:butt;stroke-linejoin:miter;stroke-opacity:1" d="M 627.423,574.769 614.786,557.919 z" id="boundary" inkscape:connector-curvature="0" />
	<path style="fill:none;stroke:red;stroke-width:1px;stroke-linecap:butt;stroke-linejoin:miter;stroke-opacity:1" d="M 637.953,593.724 627.423,574.769 z" id="boundary" inkscape:connector-curvature="0" />
	<path style="fill:none;stroke:red;stroke-width:1px;stroke-linecap:butt;stroke-linejoin:miter;stroke-opacity:1" d="M 654.803,606.361 637.953,593.724 z" id="boundary" inkscape:connector-curvature="0" />
	<path style="fill:none;stroke:red;stroke-width:1px;stroke-linecap:butt;stroke-linejoin:miter;stroke-opacity:1" d="M 663.227,627.423 654.803,606.361 z" id="boundary" inkscape:connector-curvature="0" />
	<path style="fill:none;stroke:red;stroke-width:1px;stroke-linecap:butt;stroke-linejoin:miter;stroke-opacity:1" d="M 684.289,635.847 663.227,627.423 z" id="boundary" inkscape:connector-curvature="0" />
	<path style="fill:none;stroke:red;stroke-width:1px;stroke-linecap:butt;stroke-linejoin:miter;stroke-opacity:1" d="M 684.289,635.847 699.032,652.696 z" id="boundary" inkscape:connector-curvature="0" />
	<path style="fill:none;stroke:red;stroke-width:1px;stroke-linecap:butt;stroke-linejoin:miter;stroke-opacity:1" d="M 680.076,680.076 663.227,627.423 z" id="boundary" inkscape:connector-curvature="0" />
	<path style="fill:none;stroke:red;stroke-width:1px;stroke-linecap:butt;stroke-linejoin:miter;stroke-opacity:1" d="M 699.032,652.696 701.138,680.076 z" id="boundary" inkscape:connector-curvature="0" />
	<path style="fill:none;stroke:red;stroke-width:1px;stroke-linecap:butt;stroke-linejoin:miter;stroke-opacity:1" d="M 701.138,680.076 680.076,680.076 z" id="boundary" inkscape:connector-curvature="0" />
	<path style="fill:none;stroke:red;stroke-width:1px;stroke-linecap:butt;stroke-linejoin:miter;stroke-opacity:1" d="M 680.076,680.076 606.361,753.792 z" id="boundary" inkscape:connector-curvature="0" />
	<path style="fill:none;stroke:red;stroke-width:1px;stroke-linecap:butt;stroke-linejoin:miter;stroke-opacity:1" d="M 690.607,699.032 701.138,680.076 z" id="boundary" inkscape:connector-curvature="0" />
	<path style="fill:none;stroke:red;stroke-width:1px;stroke-linecap:butt;stroke-linejoin:miter;stroke-opacity:1" d="M 701.138,680.076 707.456,711.669 z" id="boundary" inkscape:connector-curvature="0" />
	<path style="fill:none;stroke:red;stroke-width:1px;stroke-linecap:butt;stroke-linejoin:miter;stroke-opacity:1" d="M 707.456,711.669 690.607,699.032 z" id="boundary" inkscape:connector-curvature="0" />
	<path style="fill:none;stroke:red;stroke-width:1px;stroke-linecap:butt;stroke-linejoin:miter;stroke-opacity:1" d="M 627.423,758.004 606.361,753.792 z" id="boundary" inkscape:connector-curvature="0" />
	<path style="fill:none;stroke:red;stroke-width:1px;stroke-linecap:butt;stroke-linejoin:miter;stroke-opacity:1" d="M 642.166,774.854 627.423,758.004 z" id="boundary" inkscape:connector-curvature="0" />
	<path style="fill:none;stroke:red;stroke-width:1px;stroke-linecap:butt;stroke-linejoin:miter;stroke-opacity:1" d="M 707.456,711.669 715.881,732.73 z" id="boundary" inkscape:connector-curvature="0" />
	<path style="fill:none;stroke:red;stroke-width:1px;stroke-linecap:butt;stroke-linejoin:miter;stroke-opacity:1" d="M 715.881,732.73 736.943,741.155 z" id="boundary" inkscape:connector-curvature="0" />
	<path style="fill:none;stroke:red;stroke-width:1px;stroke-linecap:butt;stroke-linejoin:miter;stroke-opacity:1" d="M 736.943,741.155 755.898,751.686 z" id="boundary" inkscape:connector-curvature="0" />
	<path style="fill:none;stroke:red;stroke-width:1px;stroke-linecap:butt;stroke-linejoin:miter;stroke-opacity:1" d="M 774.854,762.217 755.898,751.686 z" id="boundary" inkscape:connector-curvature="0" />
	<path style="fill:none;stroke:red;stroke-width:1px;stroke-linecap:butt;stroke-linejoin:miter;stroke-opacity:1" d="M 814.87,772.747 793.809,772.747 z" id="boundary" inkscape:connector-curvature="0" />
	<path style="fill:none;stroke:red;stroke-width:1px;stroke-linecap:butt;stroke-linejoin:miter;stroke-opacity:1" d="M 793.809,772.747 774.854,762.217 z" id="boundary" inkscape:connector-curvature="0" />
	<path style="fill:none;stroke:red;stroke-width:1px;stroke-linecap:butt;stroke-linejoin:miter;stroke-opacity:1" d="M 606.361,774.854 606.361,753.792 z" id="boundary" inkscape:connector-curvature="0" />
	<path style="fill:none;stroke:red;stroke-width:1px;stroke-linecap:butt;stroke-linejoin:miter;stroke-opacity:1" d="M 498.947,781.172 498.947,760.11 z" id="boundary" inkscape:connector-curvature="0" />
	<path style="fill:none;stroke:red;stroke-width:1px;stroke-linecap:butt;stroke-linejoin:miter;stroke-opacity:1" d="M 543.176,785.384 522.115,795.915 z" id="boundary" inkscape:connector-curvature="0" />
	<path style="fill:none;stroke:red;stroke-width:1px;stroke-linecap:butt;stroke-linejoin:miter;stroke-opacity:1" d="M 677.97,894.904 501.053,802.234 z" id="boundary" inkscape:connector-curvature="0" />
	<path style="fill:none;stroke:red;stroke-width:1px;stroke-linecap:butt;stroke-linejoin:miter;stroke-opacity:1" d="M 501.053,802.234 522.115,795.915 z" id="boundary" inkscape:connector-curvature="0" />
	<path style="fill:none;stroke:red;stroke-width:1px;stroke-linecap:butt;stroke-linejoin:miter;stroke-opacity:1" d="M 501.053,802.234 498.947,781.172 z" id="boundary" inkscape:connector-curvature="0" />
	<path style="fill:none;stroke:red;stroke-width:1px;stroke-linecap:butt;stroke-linejoin:miter;stroke-opacity:1" d="M 543.176,785.384 564.238,785.384 z" id="boundary" inkscape:connector-curvature="0" />
	<path style="fill:none;stroke:red;stroke-width:1px;stroke-linecap:butt;stroke-linejoin:miter;stroke-opacity:1" d="M 642.166,774.854 652.696,793.809 z" id="boundary" inkscape:connector-curvature="0" />
	<path style="fill:none;stroke:red;stroke-width:1px;stroke-linecap:butt;stroke-linejoin:miter;stroke-opacity:1" d="M 564.238,785.384 585.299,785.384 z" id="boundary" inkscape:connector-curvature="0" />
	<path style="fill:none;stroke:red;stroke-width:1px;stroke-linecap:butt;stroke-linejoin:miter;stroke-opacity:1" d="M 585.299,785.384 606.361,774.854 z" id="boundary" inkscape:connector-curvature="0" />
	<path style="fill:none;stroke:red;stroke-width:1px;stroke-linecap:butt;stroke-linejoin:miter;stroke-opacity:1" d="M 652.696,793.809 656.909,814.87 z" id="boundary" inkscape:connector-curvature="0" />
	<path style="fill:none;stroke:red;stroke-width:1px;stroke-linecap:butt;stroke-linejoin:miter;stroke-opacity:1" d="M 656.909,814.87 667.439,833.826 z" id="boundary" inkscape:connector-curvature="0" />
	<path style="fill:none;stroke:red;stroke-width:1px;stroke-linecap:butt;stroke-linejoin:miter;stroke-opacity:1" d="M 667.439,833.826 667.439,854.887 z" id="boundary" inkscape:connector-curvature="0" />
	<path style="fill:none;stroke:red;stroke-width:1px;stroke-linecap:butt;stroke-linejoin:miter;stroke-opacity:1" d="M 667.439,854.887 677.97,873.843 z" id="boundary" inkscape:connector-curvature="0" />
	<path style="fill:none;stroke:red;stroke-width:1px;stroke-linecap:butt;stroke-linejoin:miter;stroke-opacity:1" d="M 677.97,873.843 677.97,894.904 z" id="boundary" inkscape:connector-curvature="0" />
	<path style="fill:none;stroke:red;stroke-width:1px;stroke-linecap:butt;stroke-linejoin:miter;stroke-opacity:1" d="M 688.501,913.86 677.97,894.904 z" id="boundary" inkscape:connector-curvature="0" />
	<path style="fill:none;stroke:red;stroke-width:1px;stroke-linecap:butt;stroke-linejoin:miter;stroke-opacity:1" d="M 688.501,913.86 699.032,932.815 z" id="boundary" inkscape:connector-curvature="0" />
	<path style="fill:none;stroke:red;stroke-width:1px;stroke-linecap:butt;stroke-linejoin:miter;stroke-opacity:1" d="M 699.032,932.815 699.032,953.877 z" id="boundary" inkscape:connector-curvature="0" />
	<path style="fill:none;stroke:red;stroke-width:1px;stroke-linecap:butt;stroke-linejoin:miter;stroke-opacity:1" d="M 699.032,953.877 709.563,972.832 z" id="boundary" inkscape:connector-curvature="0" />
	<path style="fill:none;stroke:red;stroke-width:1px;stroke-linecap:butt;stroke-linejoin:miter;stroke-opacity:1" d="M 709.563,972.832 713.775,993.894 z" id="boundary" inkscape:connector-curvature="0" />
	<path style="fill:none;stroke:red;stroke-width:1px;stroke-linecap:butt;stroke-linejoin:miter;stroke-opacity:1" d="M 734.837,996 713.775,993.894 z" id="boundary" inkscape:connector-curvature="0" />
	<path style="fill:none;stroke:red;stroke-width:1px;stroke-linecap:butt;stroke-linejoin:miter;stroke-opacity:1" d="M 833.826,783.278 814.87,772.747 z" id="boundary" inkscape:connector-curvature="0" />
	<path style="fill:none;stroke:red;stroke-width:1px;stroke-linecap:butt;stroke-linejoin:miter;stroke-opacity:1" d="M 854.887,785.384 833.826,783.278 z" id="boundary" inkscape:connector-curvature="0" />
	<path style="fill:none;stroke:red;stroke-width:1px;stroke-linecap:butt;stroke-linejoin:miter;stroke-opacity:1" d="M 814.87,859.1 793.809,859.1 z" id="boundary" inkscape:connector-curvature="0" />
	<path style="fill:none;stroke:red;stroke-width:1px;stroke-linecap:butt;stroke-linejoin:miter;stroke-opacity:1" d="M 875.949,793.809 854.887,785.384 z" id="boundary" inkscape:connector-curvature="0" />
	<path style="fill:none;stroke:red;stroke-width:1px;stroke-linecap:butt;stroke-linejoin:miter;stroke-opacity:1" d="M 793.809,859.1 774.854,869.631 z" id="boundary" inkscape:connector-curvature="0" />
	<path style="fill:none;stroke:red;stroke-width:1px;stroke-linecap:butt;stroke-linejoin:miter;stroke-opacity:1" d="M 894.904,804.34 913.86,814.87 z" id="boundary" inkscape:connector-curvature="0" />
	<path style="fill:none;stroke:red;stroke-width:1px;stroke-linecap:butt;stroke-linejoin:miter;stroke-opacity:1" d="M 899.117,848.569 878.055,852.781 z" id="boundary" inkscape:connector-curvature="0" />
	<path style="fill:none;stroke:red;stroke-width:1px;stroke-linecap:butt;stroke-linejoin:miter;stroke-opacity:1" d="M 913.86,814.87 915.966,835.932 z" id="boundary" inkscape:connector-curvature="0" />
	<path style="fill:none;stroke:red;stroke-width:1px;stroke-linecap:butt;stroke-linejoin:miter;stroke-opacity:1" d="M 915.966,835.932 899.117,848.569 z" id="boundary" inkscape:connector-curvature="0" />
	<path style="fill:none;stroke:red;stroke-width:1px;stroke-linecap:butt;stroke-linejoin:miter;stroke-opacity:1" d="M 875.949,793.809 894.904,804.34 z" id="boundary" inkscape:connector-curvature="0" />
	<path style="fill:none;stroke:red;stroke-width:1px;stroke-linecap:butt;stroke-linejoin:miter;stroke-opacity:1" d="M 878.055,852.781 856.994,859.1 z" id="boundary" inkscape:connector-curvature="0" />
	<path style="fill:none;stroke:red;stroke-width:1px;stroke-linecap:butt;stroke-linejoin:miter;stroke-opacity:1" d="M 764.323,911.754 764.323,932.815 z" id="boundary" inkscape:connector-curvature="0" />
	<path style="fill:none;stroke:red;stroke-width:1px;stroke-linecap:butt;stroke-linejoin:miter;stroke-opacity:1" d="M 764.323,911.754 764.323,890.692 z" id="boundary" inkscape:connector-curvature="0" />
	<path style="fill:none;stroke:red;stroke-width:1px;stroke-linecap:butt;stroke-linejoin:miter;stroke-opacity:1" d="M 743.261,974.938 753.792,953.877 z" id="boundary" inkscape:connector-curvature="0" />
	<path style="fill:none;stroke:red;stroke-width:1px;stroke-linecap:butt;stroke-linejoin:miter;stroke-opacity:1" d="M 743.261,974.938 734.837,996 z" id="boundary" inkscape:connector-curvature="0" />
	<path style="fill:none;stroke:red;stroke-width:1px;stroke-linecap:butt;stroke-linejoin:miter;stroke-opacity:1" d="M 764.323,932.815 753.792,953.877 z" id="boundary" inkscape:connector-curvature="0" />
	<path style="fill:none;stroke:red;stroke-width:1px;stroke-linecap:butt;stroke-linejoin:miter;stroke-opacity:1" d="M 835.932,859.1 814.87,859.1 z" id="boundary" inkscape:connector-curvature="0" />
	<path style="fill:none;stroke:red;stroke-width:1px;stroke-linecap:butt;stroke-linejoin:miter;stroke-opacity:1" d="M 764.323,890.692 774.854,869.631 z" id="boundary" inkscape:connector-curvature="0" />
	<path style="fill:none;stroke:red;stroke-width:1px;stroke-linecap:butt;stroke-linejoin:miter;stroke-opacity:1" d="M 835.932,859.1 856.994,859.1 z" id="boundary" inkscape:connector-curvature="0" />
	<circle cx="4" cy="10.3185" r="4" fill="#0" id="circle0"/>
	<circle cx="4" cy="31.38" r="4" fill="#0" id="circle1"/>
	<circle cx="4" cy="52.4416" r="4" fill="#0" id="circle2"/>
	<circle cx="14.5308" cy="71.397" r="4" fill="#0" id="circle3"/>
	<circle cx="14.5308" cy="92.4586" r="4" fill="#0" id="circle4"/>
	<circle cx="25.0616" cy="4" r="4" fill="#0" id="circle5"/>
	<circle cx="25.0616" cy="111.414" r="4" fill="#0" id="circle6"/>
	<circle cx="35.5924" cy="130.369" r="4" fill="#0" id="circle7"/>
	<circle cx="46.1231" cy="4" r="4" fill="#0" id="circle8"/>
	<circle cx="46.1231" cy="149.325" r="4" fill="#0" id="circle9"/>
	<circle cx="56.6539" cy="168.28" r="4" fill="#0" id="circle10"/>
	<circle cx="56.6539" cy="189.342" r="4" fill="#0" id="circle11"/>
	<circle cx="65.0786" cy="14.5308" r="4" fill="#0" id="circle12"/>
	<circle cx="67.1847" cy="208.297" r="4" fill="#0" id="circle13"/>
	<circle cx="77.7155" cy="227.253" r="4" fill="#0" id="circle14"/>
	<circle cx="84.034" cy="25.0616" r="4" fill="#0" id="circle15"/>
	<circle cx="88.2463" cy="246.208" r="4" fill="#0" id="circle16"/>
	<circle cx="98.7771" cy="265.163" r="4" fill="#0" id="circle17"/>
	<circle cx="102.989" cy="35.5924" r="4" fill="#0" id="circle18"/>
	<circle cx="109.308" cy="284.119" r="4" fill="#0" id="circle19"/>
	<circle cx="119.839" cy="303.074" r="4" fill="#0" id="circle20"/>
	<circle cx="121.945" cy="46.1231" r="4" fill="#0" id="circle21"/>
	<circle cx="130.369" cy="322.03" r="4" fill="#0" id="circle22"/>
	<circle cx="140.9" cy="56.6539" r="4" fill="#0" id="circle23"/>
	<circle cx="149.325" cy="332.561" r="4" fill="#0" id="circle24"/>
	<circle cx="161.962" cy="60.8662" r="4" fill="#0" id="circle25"/>
	<circle cx="161.962" cy="349.41" r="4" fill="#0" id="circle26"/>
	<circle cx="172.493" cy="368.365" r="4" fill="#0" id="circle27"/>
	<circle cx="180.917" cy="71.397" r="4" fill="#0" id="circle28"/>
	<circle cx="183.023" cy="387.321" r="4" fill="#0" id="circle29"/>
	<circle cx="195.66" cy="88.2463" r="4" fill="#0" id="circle30"/>
	<circle cx="197.766" cy="404.17" r="4" fill="#0" id="circle31"/>
	<circle cx="208.297" cy="423.125" r="4" fill="#0" id="circle32"/>
	<circle cx="216.722" cy="94.5648" r="4" fill="#0" id="circle33"/>
	<circle cx="225.146" cy="437.868" r="4" fill="#0" id="circle34"/>
	<circle cx="235.677" cy="105.096" r="4" fill="#0" id="circle35"/>
	<circle cx="235.677" cy="589.512" r="4" fill="#0" id="circle36"/>
	<circle cx="235.677" cy="610.573" r="4" fill="#0" id="circle37"/>
	<circle cx="237.783" cy="454.718" r="4" fill="#0" id="circle38"/>
	<circle cx="246.208" cy="568.45" r="4" fill="#0" id="circle39"/>
	<circle cx="252.527" cy="119.839" r="4" fill="#0" id="circle40"/>
	<circle cx="252.527" cy="625.316" r="4" fill="#0" id="circle41"/>
	<circle cx="254.633" cy="469.461" r="4" fill="#0" id="circle42"/>
	<circle cx="256.739" cy="547.389" r="4" fill="#0" id="circle43"/>
	<circle cx="260.951" cy="646.378" r="4" fill="#0" id="circle44"/>
	<circle cx="267.27" cy="136.688" r="4" fill="#0" id="circle45"/>
	<circle cx="267.27" cy="526.327" r="4" fill="#0" id="circle46"/>
	<circle cx="269.376" cy="486.31" r="4" fill="#0" id="circle47"/>
	<circle cx="277.8" cy="507.372" r="4" fill="#0" id="circle48"/>
	<circle cx="277.8" cy="659.015" r="4" fill="#0" id="circle49"/>
	<circle cx="288.331" cy="145.113" r="4" fill="#0" id="circle50"/>
	<circle cx="298.862" cy="652.696" r="4" fill="#0" id="circle51"/>
	<circle cx="300.968" cy="161.962" r="4" fill="#0" id="circle52"/>
	<circle cx="317.817" cy="174.599" r="4" fill="#0" id="circle53"/>
	<circle cx="319.924" cy="648.484" r="4" fill="#0" id="circle54"/>
	<circle cx="332.561" cy="191.448" r="4" fill="#0" id="circle55"/>
	<circle cx="336.773" cy="635.847" r="4" fill="#0" id="circle56"/>
	<circle cx="343.091" cy="564.238" r="4" fill="#0" id="circle57"/>
	<circle cx="347.304" cy="585.299" r="4" fill="#0" id="circle58"/>
	<circle cx="349.41" cy="206.191" r="4" fill="#0" id="circle59"/>
	<circle cx="353.622" cy="606.361" r="4" fill="#0" id="circle60"/>
	<circle cx="364.153" cy="223.04" r="4" fill="#0" id="circle61"/>
	<circle cx="368.365" cy="583.193" r="4" fill="#0" id="circle62"/>
	<circle cx="381.002" cy="237.783" r="4" fill="#0" id="circle63"/>
	<circle cx="383.108" cy="600.042" r="4" fill="#0" id="circle64"/>
	<circle cx="395.745" cy="254.633" r="4" fill="#0" id="circle65"/>
	<circle cx="399.958" cy="614.786" r="4" fill="#0" id="circle66"/>
	<circle cx="412.594" cy="269.376" r="4" fill="#0" id="circle67"/>
	<circle cx="418.913" cy="625.316" r="4" fill="#0" id="circle68"/>
	<circle cx="433.656" cy="277.8" r="4" fill="#0" id="circle69"/>
	<circle cx="435.762" cy="637.953" r="4" fill="#0" id="circle70"/>
	<circle cx="448.399" cy="654.803" r="4" fill="#0" id="circle71"/>
	<circle cx="454.718" cy="277.8" r="4" fill="#0" id="circle72"/>
	<circle cx="465.248" cy="669.546" r="4" fill="#0" id="circle73"/>
	<circle cx="473.673" cy="267.27" r="4" fill="#0" id="circle74"/>
	<circle cx="484.204" cy="680.076" r="4" fill="#0" id="circle75"/>
	<circle cx="494.735" cy="267.27" r="4" fill="#0" id="circle76"/>
	<circle cx="498.947" cy="696.926" r="4" fill="#0" id="circle77"/>
	<circle cx="498.947" cy="717.987" r="4" fill="#0" id="circle78"/>
	<circle cx="498.947" cy="739.049" r="4" fill="#0" id="circle79"/>
	<circle cx="498.947" cy="760.11" r="4" fill="#0" id="circle80"/>
	<circle cx="498.947" cy="781.172" r="4" fill="#0" id="circle81"/>
	<circle cx="501.053" cy="802.234" r="4" fill="#0" id="circle82"/>
	<circle cx="511.584" cy="395.745" r="4" fill="#0" id="circle83"/>
	<circle cx="515.796" cy="267.27" r="4" fill="#0" id="circle84"/>
	<circle cx="515.796" cy="416.807" r="4" fill="#0" id="circle85"/>
	<circle cx="522.115" cy="795.915" r="4" fill="#0" id="circle86"/>
	<circle cx="532.645" cy="395.745" r="4" fill="#0" id="circle87"/>
	<circle cx="532.645" cy="431.55" r="4" fill="#0" id="circle88"/>
	<circle cx="536.858" cy="267.27" r="4" fill="#0" id="circle89"/>
	<circle cx="543.176" cy="332.561" r="4" fill="#0" id="circle90"/>
	<circle cx="543.176" cy="353.622" r="4" fill="#0" id="circle91"/>
	<circle cx="543.176" cy="374.684" r="4" fill="#0" id="circle92"/>
	<circle cx="543.176" cy="450.505" r="4" fill="#0" id="circle93"/>
	<circle cx="543.176" cy="785.384" r="4" fill="#0" id="circle94"/>
	<circle cx="553.707" cy="300.968" r="4" fill="#0" id="circle95"/>
	<circle cx="553.707" cy="469.461" r="4" fill="#0" id="circle96"/>
	<circle cx="557.919" cy="267.27" r="4" fill="#0" id="circle97"/>
	<circle cx="564.238" cy="488.416" r="4" fill="#0" id="circle98"/>
	<circle cx="564.238" cy="785.384" r="4" fill="#0" id="circle99"/>
	<circle cx="581.087" cy="501.053" r="4" fill="#0" id="circle100"/>
	<circle cx="585.299" cy="785.384" r="4" fill="#0" id="circle101"/>
	<circle cx="589.512" cy="522.115" r="4" fill="#0" id="circle102"/>
	<circle cx="606.361" cy="536.858" r="4" fill="#0" id="circle103"/>
	<circle cx="606.361" cy="753.792" r="4" fill="#0" id="circle104"/>
	<circle cx="606.361" cy="774.854" r="4" fill="#0" id="circle105"/>
	<circle cx="614.786" cy="557.919" r="4" fill="#0" id="circle106"/>
	<circle cx="627.423" cy="574.769" r="4" fill="#0" id="circle107"/>
	<circle cx="627.423" cy="758.004" r="4" fill="#0" id="circle108"/>
	<circle cx="637.953" cy="593.724" r="4" fill="#0" id="circle109"/>
	<circle cx="642.166" cy="774.854" r="4" fill="#0" id="circle110"/>
	<circle cx="652.696" cy="793.809" r="4" fill="#0" id="circle111"/>
	<circle cx="654.803" cy="606.361" r="4" fill="#0" id="circle112"/>
	<circle cx="656.909" cy="814.87" r="4" fill="#0" id="circle113"/>
	<circle cx="663.227" cy="627.423" r="4" fill="#0" id="circle114"/>
	<circle cx="667.439" cy="833.826" r="4" fill="#0" id="circle115"/>
	<circle cx="667.439" cy="854.887" r="4" fill="#0" id="circle116"/>
	<circle cx="677.97" cy="873.843" r="4" fill="#0" id="circle117"/>
	<circle cx="677.97" cy="894.904" r="4" fill="#0" id="circle118"/>
	<circle cx="680.076" cy="680.076" r="4" fill="#0" id="circle119"/>
	<circle cx="684.289" cy="635.847" r="4" fill="#0" id="circle120"/>
	<circle cx="688.501" cy="913.86" r="4" fill="#0" id="circle121"/>
	<circle cx="690.607" cy="699.032" r="4" fill="#0" id="circle122"/>
	<circle cx="699.032" cy="652.696" r="4" fill="#0" id="circle123"/>
	<circle cx="699.032" cy="932.815" r="4" fill="#0" id="circle124"/>
	<circle cx="699.032" cy="953.877" r="4" fill="#0" id="circle125"/>
	<circle cx="701.138" cy="680.076" r="4" fill="#0" id="circle126"/>
	<circle cx="707.456" cy="711.669" r="4" fill="#0" id="circle127"/>
	<circle cx="709.563" cy="972.832" r="4" fill="#0" id="circle128"/>
	<circle cx="713.775" cy="993.894" r="4" fill="#0" id="circle129"/>
	<circle cx="715.881" cy="732.73" r="4" fill="#0" id="circle130"/>
	<circle cx="734.837" cy="996" r="4" fill="#0" id="circle131"/>
	<circle cx="736.943" cy="741.155" r="4" fill="#0" id="circle132"/>
	<circle cx="743.261" cy="974.938" r="4" fill="#0" id="circle133"/>
	<circle cx="753.792" cy="953.877" r="4" fill="#0" id="circle134"/>
	<circle cx="755.898" cy="751.686" r="4" fill="#0" id="circle135"/>
	<circle cx="764.323" cy="890.692" r="4" fill="#0" id="circle136"/>
	<circle cx="764.323" cy="911.754" r="4" fill="#0" id="circle137"/>
	<circle cx="764.323" cy="932.815" r="4" fill="#0" id="circle138"/>
	<circle cx="774.854" cy="762.217" r="4" fill="#0" id="circle139"/>
	<circle cx="774.854" cy="869.631" r="4" fill="#0" id="circle140"/>
	<circle cx="793.809" cy="772.747" r="4" fill="#0" id="circle141"/>
	<circle cx="793.809" cy="859.1" r="4" fill="#0" id="circle142"/>
	<circle cx="814.87" cy="772.747" r="4" fill="#0" id="circle143"/>
	<circle cx="814.87" cy="859.1" r="4" fill="#0" id="circle144"/>
	<circle cx="833.826" cy="783.278" r="4" fill="#0" id="circle145"/>
	<circle cx="835.932" cy="859.1" r="4" fill="#0" id="circle146"/>
	<circle cx="854.887" cy="785.384" r="4" fill="#0" id="circle147"/>
	<circle cx="856.994" cy="859.1" r="4" fill="#0" id="circle148"/>
	<circle cx="875.949" cy="793.809" r="4" fill="#0" id="circle149"/>
	<circle cx="878.055" cy="852.781" r="4" fill="#0" id="circle150"/>
	<circle cx="894.904" cy="804.34" r="4" fill="#0" id="circle151"/>
	<circle cx="899.117" cy="848.569" r="4" fill="#0" id="circle152"/>
	<circle cx="913.86" cy="814.87" r="4" fill="#0" id="circle153"/>
	<circle cx="915.966" cy="835.932" r="4" fill="#0" id="circle154"/>
	</g>
</svg>